{
  "luaDataPath": "",
  "entityBan": "",
  "disableNpcLod": true,
  "isAutoBanNpc": true,
  "isBanWidgetPet": true,
  "protectNpcMobileLod": true,
  "startFade": {
    "startFadeOutDuration": 0.0
  },
  "endFade": {
    "startFadeOutDuration": 0.0
  },
  "actors": [
    {
      "alias": "Avatar",
      "visible": true,
      "bornPointName": "",
      "relativePosNpcAlias": "",
      "_bindMovingTargetKey": ""
    },
    {
      "configID": 3042,
      "alias": "3042",
      "visible": true,
      "bornPointName": "",
      "forceCreateDaily": true,
      "relativePosNpcAlias": "",
      "_bindMovingTargetKey": ""
    }
  ],
  "group": [
    [
      {
        "$type": "MoleMole.Config.ConfigTimeProtectAction",
        "type": "TIME_PROTECT",
        "duration": 0.10000000149011612
      }
    ],
    [
      {
        "$type": "MJFAIFFAGOF",
        "type": "DIALOG",
        "aliasList": [
          "3042"
        ],
        "dialogID": 190361501,
        "protectTime": 0.5
      },
      {
        "$type": "OBCDECFOOBC",
        "type": "DIALOG_SELECT",
        "delayTime": 0.4000000059604645,
        "aliasList": [
          "Avatar"
        ],
        "dialogIDList": [
          190361502
        ],
        "grpIDList": [
          1841989589
        ],
        "useGrpId": true
      }
    ],
    [
      {
        "$type": "MJFAIFFAGOF",
        "type": "DIALOG",
        "aliasList": [
          "3042"
        ],
        "dialogID": 190361503,
        "protectTime": 0.5
      }
    ],
    [
      {
        "$type": "MJFAIFFAGOF",
        "type": "DIALOG",
        "aliasList": [
          "3042"
        ],
        "dialogID": 190361504,
        "protectTime": 0.5
      }
    ],
    [
      {
        "$type": "MJFAIFFAGOF",
        "type": "DIALOG",
        "aliasList": [
          "3042"
        ],
        "dialogID": 190361505,
        "protectTime": 0.5
      }
    ],
    [
      {
        "$type": "MJFAIFFAGOF",
        "type": "DIALOG",
        "aliasList": [
          "3042"
        ],
        "dialogID": 190361506,
        "protectTime": 0.5
      }
    ],
    [
      {
        "$type": "MJFAIFFAGOF",
        "type": "DIALOG",
        "aliasList": [
          "3042"
        ],
        "dialogID": 190361507,
        "protectTime": 0.5
      },
      {
        "$type": "OBCDECFOOBC",
        "type": "DIALOG_SELECT",
        "delayTime": 0.4000000059604645,
        "aliasList": [
          "Avatar"
        ],
        "dialogIDList": [
          190361508,
          190361510
        ],
        "grpIDList": [
          1841989594,
          1841989595
        ],
        "useGrpId": true
      }
    ],
    [
      {
        "$type": "MJFAIFFAGOF",
        "type": "DIALOG",
        "aliasList": [
          "3042"
        ],
        "dialogID": 190361509,
        "protectTime": 0.5
      }
    ],
    [
      {
        "$type": "MJFAIFFAGOF",
        "type": "DIALOG",
        "aliasList": [
          "3042"
        ],
        "dialogID": 190361511,
        "protectTime": 0.5
      }
    ],
    [
      {
        "$type": "MoleMole.Config.ConfigTimeProtectAction",
        "type": "TIME_PROTECT",
        "duration": 0.10000000149011612
      }
    ],
    [
      {
        "$type": "MoleMole.Config.ConfigTimeProtectAction",
        "type": "TIME_PROTECT",
        "duration": 0.10000000149011612
      }
    ]
  ],
  "groupId": [
    {
      "grpId": 1841989587,
      "nextGrpId": 1841989588
    },
    {
      "index": 1,
      "grpId": 1841989588,
      "nextGrpId": 1841989589
    },
    {
      "index": 2,
      "grpId": 1841989589,
      "nextGrpId": 1841989590
    },
    {
      "index": 3,
      "grpId": 1841989590,
      "nextGrpId": 1841989591
    },
    {
      "index": 4,
      "grpId": 1841989591,
      "nextGrpId": 1841989592
    },
    {
      "index": 5,
      "grpId": 1841989592,
      "nextGrpId": 1841989593
    },
    {
      "index": 6,
      "grpId": 1841989593,
      "nextGrpId": 1841989594
    },
    {
      "index": 7,
      "grpId": 1841989594,
      "nextGrpId": 1267102397
    },
    {
      "index": 8,
      "grpId": 1841989595,
      "nextGrpId": 1267102397
    },
    {
      "index": 9,
      "grpId": 1267102397,
      "nextGrpId": 1267102398
    },
    {
      "index": 10,
      "grpId": 1267102398,
      "nextGrpId": 1267102399
    }
  ],
  "freeStyleDic": {
    "3042": []
  }
}