{
  "luaDataPath": "",
  "dontUseDefaultFinish": true,
  "startBlackKeepTime": 0.5,
  "entityBan": "",
  "disableNpcLod": true,
  "isAutoBanNpc": true,
  "isBanWidgetPet": true,
  "protectNpcMobileLod": true,
  "talkFlag": 23,
  "startFade": {
    "startFadeInDuration": 0.5,
    "startFadeOutDuration": 0.5
  },
  "endFade": {
    "startFadeOutDuration": 0.0
  },
  "actors": [
    {
      "alias": "Avatar",
      "visible": true,
      "bornPointName": "N10000005_T7400140",
      "relativePosType": "AVATAR_NEW",
      "relativePosNpcAlias": "",
      "_bindMovingTargetKey": "",
      "_isInWater": true
    },
    {
      "alias": "AvatarNpc",
      "visible": true,
      "bornPointName": "N10000005_T7400140",
      "removeActorType": "NEW_REMOVE",
      "relativePosType": "AVATAR_NEW",
      "relativePosNpcAlias": "",
      "_bindMovingTargetKey": "",
      "_isInWater": true
    },
    {
      "configID": 21146,
      "alias": "21146",
      "visible": true,
      "bornPointName": "N20995_T7400140",
      "relativePosType": "AVATAR_NEW",
      "relativePosNpcAlias": "",
      "_bindMovingTargetKey": "",
      "_isInWater": true
    },
    {
      "configID": 1400,
      "alias": "1400",
      "visible": true,
      "bornPointName": "",
      "useRelativePos": true,
      "relativePos": {
        "x": -0.5,
        "y": 0.5
      },
      "removeActorType": "NEW_REMOVE",
      "relativePosType": "AVATAR_NEW",
      "relativePosNpcAlias": "",
      "_bindMovingTargetKey": "",
      "_isInWater": true
    }
  ],
  "group": [
    [
      {
        "$type": "MoleMole.Config.ConfigTimeProtectAction",
        "type": "TIME_PROTECT",
        "duration": 1.0,
        "actionId": 104
      },
      {
        "$type": "MoleMole.Config.ConfigTeleportToAction",
        "type": "TELEPORT_TO",
        "aliasList": [
          "1400"
        ],
        "actionId": 137,
        "position": {
          "x": 3539.45703125,
          "y": 293.9339904785156,
          "z": 4961.7861328125
        },
        "forward": {
          "x": 2.180000066757202,
          "y": 0.7279999852180481,
          "z": -5.044000148773193
        },
        "openLongDisTeleport": true,
        "_posBindMovingTargetKey": "",
        "_forwardBindMovingTargetKey": ""
      },
      {
        "$type": "EDCHPJLDKIN",
        "type": "BODY_LANG",
        "aliasList": [
          "1400"
        ],
        "actionId": 122,
        "isContinue": true,
        "forceDoFreeStyle": true,
        "canDoRepeatFreeStyle": false,
        "eventPatternSuiteKey": ""
      },
      {
        "$type": "MoleMole.Config.ConfigSetAnimatorSpeedAction",
        "type": "SET_ANIMATOR_SPEED",
        "aliasList": [
          "21146"
        ],
        "actionId": 152,
        "speedRatio": 2.0,
        "blendType": "EaseInOutQuad"
      },
      {
        "$type": "NPCNMEOCADD",
        "type": "LOOK_AT",
        "aliasList": [
          "21146"
        ],
        "actionId": 149,
        "_flag": 64,
        "headTurnTime": 0.5,
        "targetNpcAlias": "",
        "openBackProtect": true,
        "backProtectAngle": 60.0,
        "targetNpcLookAtPoint": "",
        "BHGPHGNFCBF": ""
      },
      {
        "$type": "EDCHPJLDKIN",
        "type": "BODY_LANG",
        "aliasList": [
          "21146"
        ],
        "actionId": 149,
        "bodyLangParam": 1,
        "forceDoFreeStyle": true,
        "canDoRepeatFreeStyle": false,
        "cantBackToIdleWhenSitLoop": true,
        "eventPatternSuiteKey": ""
      },
      {
        "$type": "MoleMole.Config.ConfigTeleportToAction",
        "type": "TELEPORT_TO",
        "aliasList": [
          "21146"
        ],
        "actionId": 136,
        "position": {
          "x": 3539.280029296875,
          "y": 296.94000244140625,
          "z": 4957.4599609375
        },
        "forward": {
          "x": -0.6349999904632568,
          "z": -4.074999809265137
        },
        "openLongDisTeleport": true,
        "_posBindMovingTargetKey": "",
        "_forwardBindMovingTargetKey": ""
      },
      {
        "$type": "MoleMole.Config.ConfigColliderOpInterAction",
        "type": "COLLIDER_OP",
        "aliasList": [
          "AvatarNpc"
        ],
        "actionId": 187,
        "isClose": true
      },
      {
        "$type": "NPCNMEOCADD",
        "type": "LOOK_AT",
        "aliasList": [
          "AvatarNpc"
        ],
        "actionId": 157,
        "_flag": 64,
        "enableHead": true,
        "useTargetPos": true,
        "enableAbsolute": true,
        "targetPosition": {
          "x": 3541.444091796875,
          "y": 295.1059875488281,
          "z": 4958.26806640625
        },
        "headTurnTime": 0.5,
        "targetNpcAlias": "",
        "lookAtTargetType": "NONE",
        "openBackProtect": true,
        "backProtectAngle": 60.0,
        "targetNpcLookAtPoint": "",
        "BHGPHGNFCBF": ""
      },
      {
        "$type": "MoleMole.Config.ConfigTeleportToAction",
        "type": "TELEPORT_TO",
        "aliasList": [
          "AvatarNpc"
        ],
        "actionId": 135,
        "position": {
          "x": 3540.54296875,
          "y": 294.0,
          "z": 4962.01611328125
        },
        "forward": {
          "x": 1.0470000505447388,
          "z": -6.033999919891357
        },
        "openLongDisTeleport": true,
        "_posBindMovingTargetKey": "",
        "_forwardBindMovingTargetKey": ""
      },
      {
        "$type": "EDCHPJLDKIN",
        "type": "BODY_LANG",
        "aliasList": [
          "AvatarNpc"
        ],
        "actionId": 131,
        "isContinue": true,
        "forceDoFreeStyle": true,
        "canDoRepeatFreeStyle": false,
        "eventPatternSuiteKey": ""
      },
      {
        "$type": "MoleMole.Config.ConfigPlayerNPCEnergyTypeAction",
        "type": "SET_PLAYER_NPC_ENERGY_TYPE",
        "aliasList": [
          "AvatarNpc"
        ],
        "actionId": 130,
        "setHeroEngergyType": true
      },
      {
        "$type": "MoleMole.Config.ConfigTeleportToAction",
        "type": "TELEPORT_TO",
        "aliasList": [
          "Avatar"
        ],
        "actionId": 201,
        "position": {
          "x": 3540.54296875,
          "y": 294.0,
          "z": 4962.01611328125
        },
        "forward": {
          "x": 1.0470000505447388,
          "z": -6.033999919891357
        },
        "openLongDisTeleport": true,
        "_posBindMovingTargetKey": "",
        "_forwardBindMovingTargetKey": ""
      },
      {
        "$type": "MoleMole.Config.ConfigVisibleInterAction",
        "type": "VISIBLE",
        "aliasList": [
          "Avatar"
        ],
        "actionId": 134,
        "_extraParam": ""
      },
      {
        "$type": "MoleMole.Config.ConfigSitOrStandAction",
        "type": "SIT_OR_STAND",
        "aliasList": [
          "Avatar"
        ],
        "actionId": 129,
        "banResetFreestyle": true
      },
      {
        "$type": "MoleMole.Config.ConfigBlackScreenAction",
        "type": "BLACK_SCREEN",
        "duration": 1.0,
        "actionId": 124,
        "blackScreenType": "KEEP_BLACK",
        "durationToBlack": 0.5,
        "durationKeepBlack": 1.0,
        "durationFromBlack": 0.5,
        "inteePos": "",
        "textMapID": "",
        "useTextFade": true,
        "_changeAudioState": true
      },
      {
        "$type": "NPCNMEOCADD",
        "type": "LOOK_AT",
        "aliasList": [
          "1400"
        ],
        "actionId": 158,
        "_flag": 64,
        "enableHead": true,
        "useTargetPos": true,
        "enableAbsolute": true,
        "targetPosition": {
          "x": 3539.422119140625,
          "y": 295.9840087890625,
          "z": 4957.783203125
        },
        "headTurnTime": 0.5,
        "targetNpcAlias": "",
        "lookAtTargetType": "NONE",
        "openBackProtect": true,
        "backProtectAngle": 60.0,
        "targetNpcLookAtPoint": "",
        "BHGPHGNFCBF": ""
      },
      {
        "$type": "MoleMole.Config.ConfigColliderOpInterAction",
        "type": "COLLIDER_OP",
        "aliasList": [
          "1400"
        ],
        "actionId": 186,
        "isClose": true
      }
    ],
    [
      {
        "$type": "MoleMole.Config.ConfigMoveToAction",
        "type": "MOVE_TO",
        "aliasList": [
          "AvatarNpc"
        ],
        "actionId": 192,
        "moveType": "WALK",
        "routeList": [
          {
            "x": 3540.23388671875,
            "y": 293.8290100097656,
            "z": 4960.84521484375
          }
        ],
        "exactlyMove": true,
        "closeNavMesh": true,
        "openSetPos": true,
        "_bindMovingTargetKey": ""
      },
      {
        "$type": "EFHODGEJOHJ",
        "type": "CAMERA_MOVE",
        "duration": 0.5,
        "actionId": 175,
        "camPosOffset": {
          "x": 3540.373046875,
          "y": 295.1600036621094,
          "z": 4960.1669921875
        },
        "camForwardTargetOffset": {
          "x": 3539.43896484375,
          "y": 295.30499267578125,
          "z": 4960.4951171875
        },
        "camFov": 30.0,
        "lerpPattern": 6,
        "cameraBlendType": "EaseInOutCubic",
        "MDKBPBJCMHH": {},
        "needZAxisRotate": true,
        "openCameraDither": false,
        "targetNpcAlias": "",
        "closeTreeLeafDither": true,
        "PHGBNNGCJKJ": "",
        "NFILMKCFHEB": "",
        "BGPNGHDAECF": ""
      },
      {
        "$type": "MoleMole.Config.ConfigBlackScreenAction",
        "type": "BLACK_SCREEN",
        "duration": 0.5,
        "actionId": 179,
        "blackScreenType": "FROM_BLACK",
        "durationToBlack": 0.5,
        "durationKeepBlack": 0.5,
        "durationFromBlack": 0.5,
        "inteePos": "",
        "textMapID": "",
        "useTextFade": true,
        "_changeAudioState": true
      },
      {
        "$type": "MoleMole.Config.ConfigMoveToAction",
        "type": "MOVE_TO",
        "aliasList": [
          "Avatar"
        ],
        "actionId": 202,
        "moveType": "WALK",
        "routeList": [
          {
            "x": 3540.23388671875,
            "y": 293.8290100097656,
            "z": 4960.84521484375
          }
        ],
        "exactlyMove": true,
        "closeNavMesh": true,
        "closeAvatarNavMesh": true,
        "openSetPos": true,
        "_bindMovingTargetKey": ""
      },
      {
        "$type": "MoleMole.Config.ConfigMoveToAction",
        "type": "MOVE_TO",
        "aliasList": [
          "1400"
        ],
        "actionId": 173,
        "moveType": "RUN",
        "routeList": [
          {
            "x": 3539.616943359375,
            "y": 293.9339904785156,
            "z": 4960.60498046875
          }
        ],
        "exactlyMove": true,
        "closeNavMesh": true,
        "openSetPos": true,
        "_bindMovingTargetKey": ""
      },
      {
        "$type": "NPCNMEOCADD",
        "type": "LOOK_AT",
        "aliasList": [
          "AvatarNpc"
        ],
        "actionId": 188,
        "_flag": 64,
        "enableHead": true,
        "useTargetPos": true,
        "enableAbsolute": true,
        "targetPosition": {
          "x": 3539.693115234375,
          "y": 295.2860107421875,
          "z": 4960.2548828125
        },
        "headTurnTime": 0.5,
        "targetNpcAlias": "",
        "lookAtTargetType": "NONE",
        "openBackProtect": true,
        "backProtectAngle": 60.0,
        "targetNpcLookAtPoint": "",
        "BHGPHGNFCBF": ""
      },
      {
        "$type": "NPCNMEOCADD",
        "type": "LOOK_AT",
        "aliasList": [
          "1400"
        ],
        "actionId": 195,
        "_flag": 64,
        "enableHead": true,
        "useTargetPos": true,
        "enableAbsolute": true,
        "targetPosition": {
          "x": 3539.422119140625,
          "y": 295.9840087890625,
          "z": 4957.783203125
        },
        "headTurnTime": 0.5,
        "targetNpcAlias": "",
        "lookAtTargetType": "NONE",
        "openBackProtect": true,
        "backProtectAngle": 60.0,
        "targetNpcLookAtPoint": "",
        "BHGPHGNFCBF": ""
      },
      {
        "$type": "NPCNMEOCADD",
        "type": "LOOK_AT",
        "delayTime": 1.6929999589920044,
        "aliasList": [
          "AvatarNpc"
        ],
        "actionId": 189,
        "_flag": 64,
        "enableHead": true,
        "useTargetPos": true,
        "enableAbsolute": true,
        "targetPosition": {
          "x": 3539.693115234375,
          "y": 295.2860107421875,
          "z": 4960.2548828125
        },
        "headTurnTime": 0.5,
        "targetNpcAlias": "",
        "lookAtTargetType": "NONE",
        "openBackProtect": true,
        "backProtectAngle": 60.0,
        "targetNpcLookAtPoint": "",
        "BHGPHGNFCBF": ""
      },
      {
        "$type": "NPCNMEOCADD",
        "type": "LOOK_AT",
        "delayTime": 2.2070000171661377,
        "aliasList": [
          "1400"
        ],
        "actionId": 166,
        "_flag": 64,
        "enableHead": true,
        "headTurnTime": 0.5,
        "targetNpcAlias": "AvatarNpc",
        "openBackProtect": true,
        "backProtectAngle": 10.0,
        "targetNpcLookAtPoint": "",
        "BHGPHGNFCBF": ""
      },
      {
        "$type": "IEKHMHNHENB",
        "type": "STEER_TO",
        "delayTime": 2.2249999046325684,
        "duration": 1.0,
        "aliasList": [
          "1400"
        ],
        "actionId": 165,
        "_flag": 32,
        "steerType": "ABSOLUTE",
        "steerDir": {
          "x": 3540.635986328125,
          "y": 293.9339904785156,
          "z": 4960.671875
        },
        "useSteerAnim": true,
        "interruptFreestyle": true,
        "forceSteer": true,
        "targetNpcAlias": "",
        "ignoreY": true,
        "fixInterNull": true,
        "BHGPHGNFCBF": ""
      },
      {
        "$type": "EFHODGEJOHJ",
        "type": "CAMERA_MOVE",
        "delayTime": 2.7869999408721924,
        "duration": 0.5,
        "actionId": 176,
        "camPosOffset": {
          "x": 3540.9208984375,
          "y": 295.4169921875,
          "z": 4959.1162109375
        },
        "camForwardTargetOffset": {
          "x": 3540.37890625,
          "y": 295.3139953613281,
          "z": 4959.9501953125
        },
        "camFov": 30.0,
        "lerpPattern": 6,
        "cameraBlendType": "EaseInOutCubic",
        "MDKBPBJCMHH": {},
        "needZAxisRotate": true,
        "openCameraDither": false,
        "targetNpcAlias": "",
        "closeTreeLeafDither": true,
        "PHGBNNGCJKJ": "",
        "NFILMKCFHEB": "",
        "BGPNGHDAECF": ""
      },
      {
        "$type": "EDCHPJLDKIN",
        "type": "BODY_LANG",
        "delayTime": 3.5969998836517334,
        "aliasList": [
          "1400"
        ],
        "actionId": 163,
        "bodyLangParam": 1140,
        "forceDoFreeStyle": true,
        "canDoRepeatFreeStyle": false,
        "cantBackToIdleWhenSitLoop": true,
        "eventPatternSuiteKey": ""
      },
      {
        "$type": "NPCNMEOCADD",
        "type": "LOOK_AT",
        "delayTime": 4.00600004196167,
        "aliasList": [
          "AvatarNpc"
        ],
        "actionId": 190,
        "_flag": 64,
        "enableHead": true,
        "useTargetPos": true,
        "enableAbsolute": true,
        "targetPosition": {
          "x": 3539.197021484375,
          "y": 297.15301513671875,
          "z": 4957.53076171875
        },
        "headTurnTime": 0.5,
        "targetNpcAlias": "",
        "lookAtTargetType": "NONE",
        "openBackProtect": true,
        "backProtectAngle": 60.0,
        "targetNpcLookAtPoint": "",
        "BHGPHGNFCBF": ""
      },
      {
        "$type": "EDCHPJLDKIN",
        "type": "BODY_LANG",
        "delayTime": 4.644999980926514,
        "aliasList": [
          "1400"
        ],
        "actionId": 164,
        "isContinue": true,
        "forceDoFreeStyle": true,
        "canDoRepeatFreeStyle": false,
        "cantBackToIdleWhenSitLoop": true,
        "eventPatternSuiteKey": ""
      },
      {
        "$type": "NPCNMEOCADD",
        "type": "LOOK_AT",
        "delayTime": 4.8520002365112305,
        "aliasList": [
          "1400"
        ],
        "actionId": 169,
        "_flag": 64,
        "enableHead": true,
        "useTargetPos": true,
        "enableAbsolute": true,
        "targetPosition": {
          "x": 3389.89111328125,
          "y": 380.1419982910156,
          "z": 4840.75
        },
        "headTurnTime": 0.5,
        "targetNpcAlias": "",
        "lookAtTargetType": "NONE",
        "openBackProtect": true,
        "backProtectAngle": 60.0,
        "targetNpcLookAtPoint": "",
        "BHGPHGNFCBF": ""
      },
      {
        "$type": "IEKHMHNHENB",
        "type": "STEER_TO",
        "delayTime": 4.927000045776367,
        "duration": 1.0,
        "aliasList": [
          "1400"
        ],
        "actionId": 168,
        "_flag": 32,
        "steerType": "ABSOLUTE",
        "steerDir": {
          "x": 3539.527099609375,
          "y": 293.9339904785156,
          "z": 4959.40087890625
        },
        "useSteerAnim": true,
        "interruptFreestyle": true,
        "forceSteer": true,
        "targetNpcAlias": "",
        "ignoreY": true,
        "fixInterNull": true,
        "BHGPHGNFCBF": ""
      },
      {
        "$type": "EFHODGEJOHJ",
        "type": "CAMERA_MOVE",
        "delayTime": 5.4070000648498535,
        "duration": 0.5,
        "actionId": 177,
        "camPosOffset": {
          "x": 3541.258056640625,
          "y": 294.6700134277344,
          "z": 4961.06982421875
        },
        "camForwardTargetOffset": {
          "x": 3540.58203125,
          "y": 295.14898681640625,
          "z": 4960.509765625
        },
        "camFov": 40.0,
        "lerpPattern": 6,
        "cameraBlendType": "EaseInOutCubic",
        "MDKBPBJCMHH": {},
        "needZAxisRotate": true,
        "openCameraDither": false,
        "targetNpcAlias": "",
        "closeTreeLeafDither": true,
        "PHGBNNGCJKJ": "",
        "NFILMKCFHEB": "",
        "BGPNGHDAECF": ""
      },
      {
        "$type": "IEKHMHNHENB",
        "type": "STEER_TO",
        "delayTime": 5.622000217437744,
        "duration": 0.5,
        "aliasList": [
          "21146"
        ],
        "actionId": 181,
        "_flag": 32,
        "steerType": "ABSOLUTE",
        "steerDir": {
          "x": 3539.97509765625,
          "y": 296.94000244140625,
          "z": 4956.380859375
        },
        "useSteerAnim": true,
        "interruptFreestyle": true,
        "forceSteer": true,
        "targetNpcAlias": "",
        "ignoreY": true,
        "fixInterNull": true,
        "BHGPHGNFCBF": ""
      },
      {
        "$type": "IEKHMHNHENB",
        "type": "STEER_TO",
        "delayTime": 6.64300012588501,
        "duration": 0.5,
        "aliasList": [
          "21146"
        ],
        "actionId": 182,
        "_flag": 32,
        "steerType": "ABSOLUTE",
        "steerDir": {
          "x": 3538.491943359375,
          "y": 296.94000244140625,
          "z": 4956.84521484375
        },
        "useSteerAnim": true,
        "interruptFreestyle": true,
        "forceSteer": true,
        "targetNpcAlias": "",
        "ignoreY": true,
        "fixInterNull": true,
        "BHGPHGNFCBF": ""
      },
      {
        "$type": "IEKHMHNHENB",
        "type": "STEER_TO",
        "delayTime": 7.456999778747559,
        "duration": 0.5,
        "aliasList": [
          "21146"
        ],
        "actionId": 183,
        "_flag": 32,
        "steerType": "ABSOLUTE",
        "steerDir": {
          "x": 3539.947998046875,
          "y": 296.94000244140625,
          "z": 4955.95703125
        },
        "useSteerAnim": true,
        "interruptFreestyle": true,
        "forceSteer": true,
        "targetNpcAlias": "",
        "ignoreY": true,
        "fixInterNull": true,
        "BHGPHGNFCBF": ""
      },
      {
        "$type": "EDCHPJLDKIN",
        "type": "BODY_LANG",
        "delayTime": 7.650000095367432,
        "aliasList": [
          "1400"
        ],
        "actionId": 170,
        "bodyLangParam": 1200,
        "forceDoFreeStyle": true,
        "canDoRepeatFreeStyle": false,
        "cantBackToIdleWhenSitLoop": true,
        "eventPatternSuiteKey": ""
      },
      {
        "$type": "IEKHMHNHENB",
        "type": "STEER_TO",
        "delayTime": 8.380999565124512,
        "duration": 0.5,
        "aliasList": [
          "21146"
        ],
        "actionId": 184,
        "_flag": 32,
        "steerType": "ABSOLUTE",
        "steerDir": {
          "x": 3392.833984375,
          "y": 381.1679992675781,
          "z": 4843.1748046875
        },
        "useSteerAnim": true,
        "interruptFreestyle": true,
        "forceSteer": true,
        "targetNpcAlias": "",
        "ignoreY": true,
        "fixInterNull": true,
        "BHGPHGNFCBF": ""
      },
      {
        "$type": "EFHODGEJOHJ",
        "type": "CAMERA_MOVE",
        "delayTime": 8.569999694824219,
        "duration": 0.5,
        "actionId": 178,
        "camPosOffset": {
          "x": 3541.06103515625,
          "y": 296.0719909667969,
          "z": 4959.244140625
        },
        "camForwardTargetOffset": {
          "x": 3540.387939453125,
          "y": 296.4530029296875,
          "z": 4958.61083984375
        },
        "camFov": 30.0,
        "lerpPattern": 6,
        "cameraBlendType": "EaseInOutCubic",
        "MDKBPBJCMHH": {},
        "needZAxisRotate": true,
        "openCameraDither": false,
        "targetNpcAlias": "",
        "closeTreeLeafDither": true,
        "PHGBNNGCJKJ": "",
        "NFILMKCFHEB": "",
        "BGPNGHDAECF": ""
      },
      {
        "$type": "IEKHMHNHENB",
        "type": "STEER_TO",
        "delayTime": 9.208999633789062,
        "duration": 0.5,
        "aliasList": [
          "21146"
        ],
        "actionId": 185,
        "_flag": 32,
        "steerType": "ABSOLUTE",
        "steerDir": {
          "x": 3540.0048828125,
          "y": 296.94000244140625,
          "z": 4959.3818359375
        },
        "useSteerAnim": true,
        "interruptFreestyle": true,
        "forceSteer": true,
        "targetNpcAlias": "",
        "ignoreY": true,
        "fixInterNull": true,
        "BHGPHGNFCBF": ""
      },
      {
        "$type": "NPCNMEOCADD",
        "type": "LOOK_AT",
        "delayTime": 9.395999908447266,
        "aliasList": [
          "AvatarNpc"
        ],
        "actionId": 191,
        "_flag": 64,
        "enableHead": true,
        "targetPosition": {
          "x": 3389.261962890625,
          "y": 381.26300048828125,
          "z": 4839.9560546875
        },
        "headTurnTime": 0.5,
        "targetNpcAlias": "21146",
        "openBackProtect": true,
        "backProtectAngle": 60.0,
        "targetNpcLookAtPoint": "",
        "BHGPHGNFCBF": ""
      },
      {
        "$type": "NPCNMEOCADD",
        "type": "LOOK_AT",
        "delayTime": 9.479000091552734,
        "aliasList": [
          "1400"
        ],
        "actionId": 172,
        "_flag": 64,
        "enableHead": true,
        "targetPosition": {
          "x": 3389.261962890625,
          "y": 381.2099914550781,
          "z": 4839.9560546875
        },
        "headTurnTime": 0.5,
        "targetNpcAlias": "21146",
        "openBackProtect": true,
        "backProtectAngle": 60.0,
        "targetNpcLookAtPoint": "",
        "BHGPHGNFCBF": ""
      },
      {
        "$type": "MJFAIFFAGOF",
        "type": "DIALOG",
        "delayTime": 10.177000045776367,
        "aliasList": [
          "21146"
        ],
        "actionId": 107,
        "dialogID": 740010101,
        "protectTime": 3.9189999103546143
      },
      {
        "$type": "MoleMole.Config.ConfigMoveToAction",
        "type": "MOVE_TO",
        "delayTime": 10.435999870300293,
        "aliasList": [
          "21146"
        ],
        "actionId": 180,
        "moveType": "DIRECT",
        "routeList": [
          {
            "x": 3539.966064453125,
            "y": 296.43798828125,
            "z": 4959.90478515625
          }
        ],
        "exactlyMove": true,
        "closeNavMesh": true,
        "directMoveSpeed": 0.5,
        "openSetPos": true,
        "_bindMovingTargetKey": ""
      },
      {
        "$type": "MoleMole.Config.ConfigTeleportToAction",
        "type": "TELEPORT_TO",
        "delayTime": 10.628999710083008,
        "aliasList": [
          "1400"
        ],
        "actionId": 197,
        "_flag": 4,
        "position": {
          "x": 3539.43701171875,
          "y": 295.22900390625,
          "z": 4961.2470703125
        },
        "forward": {
          "x": 0.1589999943971634,
          "z": -1.0130000114440918
        },
        "openLongDisTeleport": true,
        "syncForward": true,
        "_posBindMovingTargetKey": "",
        "_forwardBindMovingTargetKey": ""
      },
      {
        "$type": "MoleMole.Config.ConfigTeleportToAction",
        "type": "TELEPORT_TO",
        "delayTime": 10.628999710083008,
        "aliasList": [
          "Avatar"
        ],
        "actionId": 203,
        "_flag": 4,
        "position": {
          "x": 3540.221923828125,
          "y": 295.29998779296875,
          "z": 4961.27294921875
        },
        "forward": {
          "x": -0.49900001287460327,
          "z": -0.9490000009536743
        },
        "openLongDisTeleport": true,
        "syncForward": true,
        "_posBindMovingTargetKey": "",
        "_forwardBindMovingTargetKey": ""
      },
      {
        "$type": "MoleMole.Config.ConfigTeleportToAction",
        "type": "TELEPORT_TO",
        "delayTime": 10.628999710083008,
        "aliasList": [
          "AvatarNpc"
        ],
        "actionId": 196,
        "_flag": 4,
        "position": {
          "x": 3540.221923828125,
          "y": 295.29998779296875,
          "z": 4961.27294921875
        },
        "forward": {
          "x": -0.49900001287460327,
          "z": -0.9490000009536743
        },
        "openLongDisTeleport": true,
        "syncForward": true,
        "_posBindMovingTargetKey": "",
        "_forwardBindMovingTargetKey": ""
      },
      {
        "$type": "EFHODGEJOHJ",
        "type": "CAMERA_MOVE",
        "delayTime": 12.597000122070312,
        "duration": 0.5,
        "checkNextImmediately": true,
        "actionId": 174,
        "camPosOffset": {
          "x": 3540.672119140625,
          "y": 298.4679870605469,
          "z": 4957.5869140625
        },
        "camForwardTargetOffset": {
          "x": 3540.444091796875,
          "y": 297.9070129394531,
          "z": 4958.3828125
        },
        "camFov": 30.0,
        "lerpPattern": 6,
        "cameraBlendType": "EaseInOutCubic",
        "MDKBPBJCMHH": {},
        "needZAxisRotate": true,
        "openCameraDither": false,
        "targetNpcAlias": "",
        "closeTreeLeafDither": true,
        "PHGBNNGCJKJ": "",
        "NFILMKCFHEB": "",
        "BGPNGHDAECF": ""
      },
      {
        "$type": "OBCDECFOOBC",
        "type": "DIALOG_SELECT",
        "delayTime": 14.095999717712402,
        "aliasList": [
          "AvatarNpc"
        ],
        "actionId": 127,
        "dialogIDList": [
          740010102,
          740010103
        ],
        "grpIDList": [
          2395478546,
          2395478546
        ],
        "useGrpId": true,
        "countDownGrpId": 2395478543
      }
    ],
    [
      {
        "$type": "MJFAIFFAGOF",
        "type": "DIALOG",
        "aliasList": [
          "21146"
        ],
        "actionId": 110,
        "dialogID": 740010104,
        "protectTime": 1.5
      }
    ],
    [
      {
        "$type": "EFHODGEJOHJ",
        "type": "CAMERA_MOVE",
        "duration": 0.5,
        "actionId": 159,
        "camPosOffset": {
          "x": 3540.714111328125,
          "y": 296.79901123046875,
          "z": 4960.1669921875
        },
        "camForwardTargetOffset": {
          "x": 3540.10595703125,
          "y": 296.6390075683594,
          "z": 4960.94482421875
        },
        "camFov": 30.0,
        "lerpPattern": 6,
        "cameraBlendType": "EaseInOutCubic",
        "MDKBPBJCMHH": {},
        "needZAxisRotate": true,
        "openCameraDither": false,
        "targetNpcAlias": "",
        "closeTreeLeafDither": true,
        "PHGBNNGCJKJ": "",
        "NFILMKCFHEB": "",
        "BGPNGHDAECF": ""
      },
      {
        "$type": "MoleMole.Config.ConfigTeleportToAction",
        "type": "TELEPORT_TO",
        "aliasList": [
          "Avatar"
        ],
        "actionId": 204,
        "position": {
          "x": 3540.221923828125,
          "y": 295.29998779296875,
          "z": 4961.27294921875
        },
        "forward": {
          "x": -0.4650000035762787,
          "z": -0.8849999904632568
        },
        "openLongDisTeleport": true,
        "syncForward": true,
        "_posBindMovingTargetKey": "",
        "_forwardBindMovingTargetKey": ""
      },
      {
        "$type": "ICHLNKHGCAG",
        "type": "EMO_SYNC",
        "aliasList": [
          "AvatarNpc"
        ],
        "actionId": 151,
        "_flag": 320,
        "dataPath": "",
        "phonemePath": "Cs_Emo_Avatar_Common/Cs_Emo_Avatar_Angry01",
        "emotionPath": "Cs_Emo_Avatar_Common/Cs_Emo_Avatar_Default01_B",
        "mateDataPath": "",
        "matePhonemePath": "",
        "mateEmotionPath": "",
        "phonemePathHashList": [
          14296606849723709100,
          5508348580450379567,
          7627497203169383327,
          8979581647593659876
        ],
        "emotionPathHashList": [
          12199605016063642592,
          6659610500948409138,
          10783156204328777859,
          13383650154785247612
        ],
        "PACNIGOOENN": "",
        "PIBDNPHIAGC": ""
      },
      {
        "$type": "MoleMole.Config.ConfigTeleportToAction",
        "type": "TELEPORT_TO",
        "aliasList": [
          "AvatarNpc"
        ],
        "actionId": 200,
        "position": {
          "x": 3540.221923828125,
          "y": 295.29998779296875,
          "z": 4961.27294921875
        },
        "forward": {
          "x": -0.4650000035762787,
          "z": -0.8849999904632568
        },
        "openLongDisTeleport": true,
        "syncForward": true,
        "_posBindMovingTargetKey": "",
        "_forwardBindMovingTargetKey": ""
      },
      {
        "$type": "MoleMole.Config.ConfigSetAnimatorSpeedAction",
        "type": "SET_ANIMATOR_SPEED",
        "aliasList": [
          "21146"
        ],
        "actionId": 154,
        "speedRatio": 1.0,
        "blendType": "EaseInOutQuad"
      },
      {
        "$type": "MoleMole.Config.ConfigTeleportToAction",
        "type": "TELEPORT_TO",
        "aliasList": [
          "21146"
        ],
        "actionId": 199,
        "position": {
          "x": 3539.966064453125,
          "y": 296.43798828125,
          "z": 4959.90478515625
        },
        "forward": {
          "x": 0.3529999852180481,
          "z": 0.9359999895095825
        },
        "openLongDisTeleport": true,
        "syncForward": true,
        "_posBindMovingTargetKey": "",
        "_forwardBindMovingTargetKey": ""
      },
      {
        "$type": "MJFAIFFAGOF",
        "type": "DIALOG",
        "aliasList": [
          "1400"
        ],
        "actionId": 112,
        "dialogID": 740010105,
        "protectTime": 0.5
      },
      {
        "$type": "EDCHPJLDKIN",
        "type": "BODY_LANG",
        "aliasList": [
          "1400"
        ],
        "actionId": 138,
        "bodyLangParam": 1110,
        "forceDoFreeStyle": true,
        "canDoRepeatFreeStyle": false,
        "cantBackToIdleWhenSitLoop": true,
        "eventPatternSuiteKey": ""
      },
      {
        "$type": "ICHLNKHGCAG",
        "type": "EMO_SYNC",
        "aliasList": [
          "1400"
        ],
        "actionId": 139,
        "_flag": 256,
        "dataPath": "",
        "phonemePath": "Cs_Emo_Pet_Common/Cs_Emo_Paimon_Angry01",
        "emotionPath": "Cs_Emo_Pet_Common/Cs_Emo_Paimon_Normal05_B",
        "mateDataPath": "",
        "matePhonemePath": "",
        "mateEmotionPath": "",
        "phonemePathHashList": [
          8887624181441475292,
          18209086005751125871,
          3291038487434063407,
          2002509548947436691
        ],
        "emotionPathHashList": [
          3398359844091004644,
          10207785776780633417,
          7756689444277981089,
          824015369548980751
        ],
        "PACNIGOOENN": "",
        "PIBDNPHIAGC": ""
      },
      {
        "$type": "MoleMole.Config.ConfigTeleportToAction",
        "type": "TELEPORT_TO",
        "aliasList": [
          "1400"
        ],
        "actionId": 198,
        "position": {
          "x": 3539.43701171875,
          "y": 295.22900390625,
          "z": 4961.2470703125
        },
        "forward": {
          "x": 0.1550000011920929,
          "z": -0.9879999756813049
        },
        "openLongDisTeleport": true,
        "syncForward": true,
        "_posBindMovingTargetKey": "",
        "_forwardBindMovingTargetKey": ""
      },
      {
        "$type": "OBCDECFOOBC",
        "type": "DIALOG_SELECT",
        "delayTime": 0.4000000059604645,
        "aliasList": [
          "AvatarNpc"
        ],
        "actionId": 128,
        "dialogIDList": [
          740010106,
          740010108
        ],
        "grpIDList": [
          2395478548,
          2395478549
        ],
        "useGrpId": true,
        "countDownGrpId": 2395478543
      },
      {
        "$type": "EDCHPJLDKIN",
        "type": "BODY_LANG",
        "delayTime": 1.694000005722046,
        "aliasList": [
          "1400"
        ],
        "actionId": 140,
        "isContinue": true,
        "forceDoFreeStyle": true,
        "canDoRepeatFreeStyle": false,
        "cantBackToIdleWhenSitLoop": true,
        "eventPatternSuiteKey": ""
      }
    ],
    [
      {
        "$type": "NPCNMEOCADD",
        "type": "LOOK_AT",
        "aliasList": [
          "AvatarNpc"
        ],
        "actionId": 161,
        "_flag": 64,
        "enableHead": true,
        "useTargetPos": true,
        "enableAbsolute": true,
        "targetPosition": {
          "x": 3539.443115234375,
          "y": 296.3810119628906,
          "z": 4961.2587890625
        },
        "headTurnTime": 0.5,
        "targetNpcAlias": "",
        "lookAtTargetType": "NONE",
        "openBackProtect": true,
        "backProtectAngle": 60.0,
        "targetNpcLookAtPoint": "",
        "BHGPHGNFCBF": ""
      },
      {
        "$type": "MJFAIFFAGOF",
        "type": "DIALOG",
        "aliasList": [
          "1400"
        ],
        "actionId": 115,
        "dialogID": 740010107,
        "protectTime": 1.0
      },
      {
        "$type": "ICHLNKHGCAG",
        "type": "EMO_SYNC",
        "aliasList": [
          "1400"
        ],
        "actionId": 141,
        "_flag": 320,
        "dataPath": "",
        "phonemePath": "Cs_Emo_Pet_Common/Cs_Emo_Paimon_Angry01",
        "emotionPath": "Cs_Emo_Pet_Common/Cs_Emo_Paimon_Normal01_B",
        "mateDataPath": "",
        "matePhonemePath": "",
        "mateEmotionPath": "",
        "phonemePathHashList": [
          8887624181441475292,
          18209086005751125871,
          3291038487434063407,
          2002509548947436691
        ],
        "emotionPathHashList": [
          14892026956990897578,
          7647528750435710781,
          2171559387429051042,
          15358483104891988261
        ],
        "PACNIGOOENN": "",
        "PIBDNPHIAGC": ""
      },
      {
        "$type": "NPCNMEOCADD",
        "type": "LOOK_AT",
        "aliasList": [
          "1400"
        ],
        "actionId": 142,
        "_flag": 64,
        "enableHead": true,
        "useTargetPos": true,
        "enableAbsolute": true,
        "targetPosition": {
          "x": 3540.237060546875,
          "y": 296.5889892578125,
          "z": 4961.27392578125
        },
        "headTurnTime": 0.5,
        "targetNpcAlias": "",
        "lookAtTargetType": "NONE",
        "openBackProtect": true,
        "backProtectAngle": 60.0,
        "targetNpcLookAtPoint": "",
        "BHGPHGNFCBF": ""
      },
      {
        "$type": "IEKHMHNHENB",
        "type": "STEER_TO",
        "duration": 1.0,
        "aliasList": [
          "1400"
        ],
        "actionId": 144,
        "_flag": 32,
        "steerType": "ABSOLUTE",
        "steerDir": {
          "x": 3540.158935546875,
          "y": 295.22900390625,
          "z": 4961.255859375
        },
        "useSteerAnim": true,
        "interruptFreestyle": true,
        "forceSteer": true,
        "targetNpcAlias": "",
        "ignoreY": true,
        "fixInterNull": true,
        "BHGPHGNFCBF": ""
      },
      {
        "$type": "NPCNMEOCADD",
        "type": "LOOK_AT",
        "delayTime": 0.9319999814033508,
        "aliasList": [
          "1400"
        ],
        "actionId": 143,
        "_flag": 64,
        "enableHead": true,
        "useTargetPos": true,
        "enableAbsolute": true,
        "targetPosition": {
          "x": 3540.217041015625,
          "y": 296.6130065917969,
          "z": 4961.27099609375
        },
        "headTurnTime": 0.30000001192092896,
        "targetNpcAlias": "",
        "lookAtTargetType": "NONE",
        "openBackProtect": true,
        "backProtectAngle": 60.0,
        "targetNpcLookAtPoint": "",
        "BHGPHGNFCBF": ""
      },
      {
        "$type": "EDCHPJLDKIN",
        "type": "BODY_LANG",
        "delayTime": 1.1460000276565552,
        "aliasList": [
          "1400"
        ],
        "actionId": 145,
        "bodyLangParam": 1130,
        "forceDoFreeStyle": true,
        "canDoRepeatFreeStyle": false,
        "cantBackToIdleWhenSitLoop": true,
        "eventPatternSuiteKey": ""
      }
    ],
    [
      {
        "$type": "EFHODGEJOHJ",
        "type": "CAMERA_MOVE",
        "duration": 0.5,
        "actionId": 162,
        "camPosOffset": {
          "x": 3540.8359375,
          "y": 296.6679992675781,
          "z": 4960.509765625
        },
        "camForwardTargetOffset": {
          "x": 3539.991943359375,
          "y": 296.5320129394531,
          "z": 4959.9912109375
        },
        "camFov": 30.0,
        "lerpPattern": 6,
        "cameraBlendType": "EaseInOutCubic",
        "MDKBPBJCMHH": {},
        "needZAxisRotate": true,
        "openCameraDither": false,
        "targetNpcAlias": "",
        "closeTreeLeafDither": true,
        "PHGBNNGCJKJ": "",
        "NFILMKCFHEB": "",
        "BGPNGHDAECF": ""
      },
      {
        "$type": "MJFAIFFAGOF",
        "type": "DIALOG",
        "aliasList": [
          "21146"
        ],
        "actionId": 117,
        "dialogID": 740010109,
        "protectTime": 0.5
      },
      {
        "$type": "EDCHPJLDKIN",
        "type": "BODY_LANG",
        "aliasList": [
          "21146"
        ],
        "actionId": 146,
        "bodyLangParam": 7,
        "forceDoFreeStyle": true,
        "canDoRepeatFreeStyle": false,
        "cantBackToIdleWhenSitLoop": true,
        "eventPatternSuiteKey": ""
      },
      {
        "$type": "NPCNMEOCADD",
        "type": "LOOK_AT",
        "aliasList": [
          "21146"
        ],
        "actionId": 146,
        "_flag": 64,
        "headTurnTime": 0.5,
        "targetNpcAlias": "",
        "openBackProtect": true,
        "backProtectAngle": 60.0,
        "targetNpcLookAtPoint": "",
        "BHGPHGNFCBF": ""
      }
    ],
    [
      {
        "$type": "MoleMole.Config.ConfigTimeProtectAction",
        "type": "TIME_PROTECT",
        "duration": 0.10000000149011612,
        "actionId": 105
      },
      {
        "$type": "MoleMole.Config.ConfigSimpleBlackScreenAction",
        "type": "SIMPLE_BLACK_SCREEN",
        "actionId": 118,
        "durationToBlack": 0.5,
        "durationKeepBlack": 1.5,
        "durationFromBlack": 0.5,
        "textMapID": ""
      },
      {
        "$type": "MoleMole.Config.ConfigTimeProtectAction",
        "type": "TIME_PROTECT",
        "duration": 0.699999988079071,
        "actionId": 119
      },
      {
        "$type": "EFHODGEJOHJ",
        "type": "CAMERA_MOVE",
        "delayTime": 0.5,
        "duration": 0.10000000149011612,
        "actionId": 126,
        "cameraPosType": "EXIT",
        "camForwardTargetOffset": {
          "z": 1.0
        },
        "camFov": 30.0,
        "lerpPattern": 5,
        "cameraBlendType": "EaseInOutCubic",
        "MDKBPBJCMHH": {},
        "openCameraDither": false,
        "targetNpcAlias": "",
        "closeTreeLeafDither": true,
        "PHGBNNGCJKJ": "",
        "NFILMKCFHEB": "",
        "BGPNGHDAECF": ""
      },
      {
        "$type": "MoleMole.Config.ConfigVisibleInterAction",
        "type": "VISIBLE",
        "delayTime": 0.6000000238418579,
        "aliasList": [
          "Avatar"
        ],
        "actionId": 133,
        "isVisible": true,
        "_extraParam": ""
      },
      {
        "$type": "EDCHPJLDKIN",
        "type": "BODY_LANG",
        "delayTime": 0.6000000238418579,
        "aliasList": [
          "AvatarNpc"
        ],
        "actionId": 132,
        "isContinue": true,
        "forceDoFreeStyle": true,
        "canDoRepeatFreeStyle": false,
        "eventPatternSuiteKey": ""
      },
      {
        "$type": "EDCHPJLDKIN",
        "type": "BODY_LANG",
        "delayTime": 0.6000000238418579,
        "aliasList": [
          "21146"
        ],
        "actionId": 121,
        "isContinue": true,
        "forceDoFreeStyle": true,
        "canDoRepeatFreeStyle": false,
        "eventPatternSuiteKey": ""
      },
      {
        "$type": "EDCHPJLDKIN",
        "type": "BODY_LANG",
        "delayTime": 0.6000000238418579,
        "aliasList": [
          "1400"
        ],
        "actionId": 123,
        "isContinue": true,
        "forceDoFreeStyle": true,
        "canDoRepeatFreeStyle": false,
        "eventPatternSuiteKey": ""
      }
    ]
  ],
  "groupId": [
    {
      "grpId": 2395478544,
      "nextGrpId": 2395478545
    },
    {
      "index": 1,
      "grpId": 2395478545,
      "nextGrpId": 2395478546
    },
    {
      "index": 2,
      "grpId": 2395478546,
      "nextGrpId": 2395478547
    },
    {
      "index": 3,
      "grpId": 2395478547,
      "nextGrpId": 2395478548
    },
    {
      "index": 4,
      "grpId": 2395478548,
      "nextGrpId": 2395478549
    },
    {
      "index": 5,
      "grpId": 2395478549,
      "nextGrpId": 2395478550
    },
    {
      "index": 6,
      "grpId": 2395478550,
      "nextGrpId": 2395478551
    }
  ],
  "freeStyleDic": {
    "1025": [],
    "1026": []
  }
}