{
  "luaDataPath": "",
  "dontUseDefaultFinish": true,
  "startBlackKeepTime": 0.5,
  "entityBan": "",
  "disableNpcLod": true,
  "isAutoBanNpc": true,
  "isBanWidgetPet": true,
  "protectNpcMobileLod": true,
  "talkFlag": 7,
  "startFade": {
    "startFadeInDuration": 0.5,
    "startFadeOutDuration": 0.5
  },
  "endFade": {
    "startFadeOutDuration": 0.0
  },
  "actors": [
    {
      "alias": "Avatar",
      "visible": true,
      "bornPointName": "[20195_15:810.560,23.987,383.290,0.000,345.265,0.000]",
      "relativePosType": "AVATAR_NEW",
      "relativePosNpcAlias": "",
      "_notDestroyInTalk": true,
      "_bindMovingTargetKey": ""
    },
    {
      "alias": "AvatarNpc",
      "visible": true,
      "bornPointName": "[20195_15:810.560,23.987,383.290,0.000,345.265,0.000]",
      "removeActorType": "NEW_REMOVE",
      "relativePosType": "AVATAR_NEW",
      "relativePosNpcAlias": "",
      "_notDestroyInTalk": true,
      "_bindMovingTargetKey": ""
    },
    {
      "configID": 1078,
      "alias": "1078",
      "visible": true,
      "bornPointName": "[20195_7:809.172,23.873,383.089]",
      "relativePosType": "AVATAR_NEW",
      "relativePosNpcAlias": "",
      "_notDestroyInTalk": true,
      "_bindMovingTargetKey": ""
    },
    {
      "configID": 1005,
      "alias": "1005",
      "visible": true,
      "bornPointName": "",
      "useRelativePos": true,
      "relativePos": {
        "x": 0.5,
        "z": 0.5
      },
      "removeActorType": "NEW_REMOVE_WITH_DISAPPEAR",
      "relativePosType": "AVATAR_NEW",
      "relativePosNpcAlias": "",
      "_notDestroyInTalk": true,
      "_bindMovingTargetKey": ""
    },
    {
      "configID": 13588,
      "alias": "13588",
      "visible": true,
      "bornPointName": "[20195_16:785.047,25.730,403.208,0.000,343.207,0.000]",
      "relativePosType": "AVATAR_NEW",
      "relativePosNpcAlias": "",
      "_notDestroyInTalk": true,
      "_bindMovingTargetKey": ""
    }
  ],
  "group": [
    [
      {
        "$type": "MoleMole.Config.ConfigTimeProtectAction",
        "type": "TIME_PROTECT",
        "duration": 1.0,
        "actionId": 104
      },
      {
        "$type": "MoleMole.Config.ConfigTeleportToAction",
        "type": "TELEPORT_TO",
        "aliasList": [
          "1005"
        ],
        "actionId": 162,
        "position": {
          "x": 810.1300048828125,
          "y": 24.049999237060547,
          "z": 385.0400085449219
        },
        "forward": {
          "x": -0.07800000160932541,
          "z": 0.996999979019165
        },
        "openLongDisTeleport": true,
        "syncForward": true,
        "_posBindMovingTargetKey": "",
        "_forwardBindMovingTargetKey": ""
      },
      {
        "$type": "EDCHPJLDKIN",
        "type": "BODY_LANG",
        "aliasList": [
          "1005"
        ],
        "actionId": 131,
        "isContinue": true,
        "forceDoFreeStyle": true,
        "canDoRepeatFreeStyle": false,
        "eventPatternSuiteKey": ""
      },
      {
        "$type": "MoleMole.Config.ConfigTeleportToAction",
        "type": "TELEPORT_TO",
        "aliasList": [
          "1078"
        ],
        "actionId": 158,
        "position": {
          "x": 808.2999877929688,
          "y": 24.007999420166016,
          "z": 386.260009765625
        },
        "forward": {
          "z": 1.0
        },
        "openLongDisTeleport": true,
        "syncForward": true,
        "_posBindMovingTargetKey": "",
        "_forwardBindMovingTargetKey": ""
      },
      {
        "$type": "EDCHPJLDKIN",
        "type": "BODY_LANG",
        "aliasList": [
          "1078"
        ],
        "actionId": 129,
        "isContinue": true,
        "forceDoFreeStyle": true,
        "canDoRepeatFreeStyle": false,
        "eventPatternSuiteKey": ""
      },
      {
        "$type": "MoleMole.Config.ConfigTeleportToAction",
        "type": "TELEPORT_TO",
        "aliasList": [
          "AvatarNpc"
        ],
        "actionId": 161,
        "position": {
          "x": 809.1699829101562,
          "y": 24.06999969482422,
          "z": 385.4599914550781
        },
        "forward": {
          "x": 0.06700000166893005,
          "z": 0.9980000257492065
        },
        "openLongDisTeleport": true,
        "syncForward": true,
        "_posBindMovingTargetKey": "",
        "_forwardBindMovingTargetKey": ""
      },
      {
        "$type": "EDCHPJLDKIN",
        "type": "BODY_LANG",
        "aliasList": [
          "13588"
        ],
        "actionId": 133,
        "isContinue": true,
        "forceDoFreeStyle": true,
        "canDoRepeatFreeStyle": false,
        "eventPatternSuiteKey": ""
      },
      {
        "$type": "ICHLNKHGCAG",
        "type": "EMO_SYNC",
        "aliasList": [
          "AvatarNpc"
        ],
        "actionId": 156,
        "_flag": 320,
        "dataPath": "",
        "phonemePath": "Cs_Emo_Avatar_Common/Cs_Emo_Avatar_Angry01",
        "emotionPath": "Cs_Emo_Avatar_Common/Cs_Emo_Avatar_Angry01_B",
        "mateDataPath": "",
        "matePhonemePath": "",
        "mateEmotionPath": "",
        "phonemePathHashList": [
          14296606849723709100,
          5508348580450379567,
          7627497203169383327,
          8979581647593659876
        ],
        "emotionPathHashList": [
          12827270931485377071,
          477271327041930928,
          15631992893087520179,
          3915791412555494663
        ],
        "PACNIGOOENN": "",
        "PIBDNPHIAGC": ""
      },
      {
        "$type": "MoleMole.Config.ConfigTeleportToAction",
        "type": "TELEPORT_TO",
        "aliasList": [
          "13588"
        ],
        "actionId": 145,
        "position": {
          "x": 789.8820190429688,
          "y": 25.756000518798828,
          "z": 402.4729919433594
        },
        "forward": {
          "x": 0.0020000000949949026,
          "z": 1.5329999923706055
        },
        "openLongDisTeleport": true,
        "syncForward": true,
        "_posBindMovingTargetKey": "",
        "_forwardBindMovingTargetKey": ""
      },
      {
        "$type": "MoleMole.Config.ConfigPlayerNPCEnergyTypeAction",
        "type": "SET_PLAYER_NPC_ENERGY_TYPE",
        "aliasList": [
          "AvatarNpc"
        ],
        "actionId": 140,
        "setHeroEngergyType": true
      },
      {
        "$type": "MoleMole.Config.ConfigTeleportToAction",
        "type": "TELEPORT_TO",
        "aliasList": [
          "Avatar"
        ],
        "actionId": 228,
        "position": {
          "x": 809.1699829101562,
          "y": 24.06999969482422,
          "z": 385.4599914550781
        },
        "forward": {
          "x": 0.06700000166893005,
          "z": 0.9980000257492065
        },
        "openLongDisTeleport": true,
        "syncForward": true,
        "_posBindMovingTargetKey": "",
        "_forwardBindMovingTargetKey": ""
      },
      {
        "$type": "MoleMole.Config.ConfigVisibleInterAction",
        "type": "VISIBLE",
        "aliasList": [
          "Avatar"
        ],
        "actionId": 144,
        "_extraParam": ""
      },
      {
        "$type": "MoleMole.Config.ConfigSitOrStandAction",
        "type": "SIT_OR_STAND",
        "aliasList": [
          "Avatar"
        ],
        "actionId": 139,
        "banResetFreestyle": true
      },
      {
        "$type": "MoleMole.Config.ConfigBlackScreenAction",
        "type": "BLACK_SCREEN",
        "duration": 1.0,
        "actionId": 135,
        "_flag": 2048,
        "blackScreenType": "KEEP_BLACK",
        "durationToBlack": 0.5,
        "durationKeepBlack": 1.0,
        "durationFromBlack": 0.5,
        "inteePos": "",
        "textMapID": "",
        "useTextFade": true,
        "_changeAudioState": true
      },
      {
        "$type": "EDCHPJLDKIN",
        "type": "BODY_LANG",
        "aliasList": [
          "AvatarNpc"
        ],
        "actionId": 141,
        "isContinue": true,
        "forceDoFreeStyle": true,
        "canDoRepeatFreeStyle": false,
        "eventPatternSuiteKey": ""
      },
      {
        "$type": "MoleMole.Config.ConfigMoveToAction",
        "type": "MOVE_TO",
        "delayTime": 0.10000000149011612,
        "aliasList": [
          "Avatar"
        ],
        "actionId": 227,
        "moveType": "WALK",
        "routeList": [
          {
            "x": 809.1699829101562,
            "y": 23.87299919128418,
            "z": 397.8699951171875
          }
        ],
        "exactlyMove": true,
        "closeNavMesh": true,
        "closeAvatarNavMesh": true,
        "openSetPos": true,
        "_bindMovingTargetKey": ""
      },
      {
        "$type": "MoleMole.Config.ConfigMoveToAction",
        "type": "MOVE_TO",
        "delayTime": 0.10000000149011612,
        "aliasList": [
          "1078"
        ],
        "actionId": 159,
        "moveType": "WALK",
        "routeList": [
          {
            "x": 808.2999877929688,
            "y": 23.87299919128418,
            "z": 398.6700134277344
          }
        ],
        "exactlyMove": true,
        "closeNavMesh": true,
        "openSetPos": true,
        "_bindMovingTargetKey": ""
      },
      {
        "$type": "MoleMole.Config.ConfigMoveToAction",
        "type": "MOVE_TO",
        "delayTime": 0.10000000149011612,
        "aliasList": [
          "1005"
        ],
        "actionId": 163,
        "moveType": "WALK",
        "routeList": [
          {
            "x": 810.2000122070312,
            "y": 23.87299919128418,
            "z": 397.7900085449219
          }
        ],
        "exactlyMove": true,
        "closeNavMesh": true,
        "openSetPos": true,
        "_bindMovingTargetKey": ""
      },
      {
        "$type": "MoleMole.Config.ConfigMoveToAction",
        "type": "MOVE_TO",
        "delayTime": 0.10000000149011612,
        "aliasList": [
          "AvatarNpc"
        ],
        "actionId": 160,
        "moveType": "WALK",
        "routeList": [
          {
            "x": 809.1699829101562,
            "y": 23.87299919128418,
            "z": 397.8699951171875
          }
        ],
        "exactlyMove": true,
        "closeNavMesh": true,
        "openSetPos": true,
        "_bindMovingTargetKey": ""
      }
    ],
    [
      {
        "$type": "EFHODGEJOHJ",
        "type": "CAMERA_MOVE",
        "duration": 0.5,
        "actionId": 167,
        "camPosOffset": {
          "x": 815.6740112304688,
          "y": 42.48500061035156,
          "z": 407.2080078125
        },
        "camForwardTargetOffset": {
          "x": 815.541015625,
          "y": 41.89899826049805,
          "z": 406.40899658203125
        },
        "lerpPattern": 6,
        "cameraBlendType": "EaseInOutCubic",
        "MDKBPBJCMHH": {},
        "needZAxisRotate": true,
        "rotateAngle": 359.98699951171875,
        "openCameraDither": false,
        "targetNpcAlias": "",
        "closeTreeLeafDither": true,
        "PHGBNNGCJKJ": "",
        "NFILMKCFHEB": "",
        "BGPNGHDAECF": ""
      },
      {
        "$type": "MoleMole.Config.ConfigBlackScreenAction",
        "type": "BLACK_SCREEN",
        "duration": 0.5,
        "actionId": 168,
        "_flag": 2048,
        "blackScreenType": "FROM_BLACK",
        "durationToBlack": 0.5,
        "durationKeepBlack": 0.5,
        "durationFromBlack": 0.5,
        "inteePos": "",
        "textMapID": "",
        "useTextFade": true,
        "_changeAudioState": true
      },
      {
        "$type": "EFHODGEJOHJ",
        "type": "CAMERA_MOVE",
        "delayTime": 0.10000000149011612,
        "duration": 1.899999976158142,
        "actionId": 166,
        "camPosOffset": {
          "x": 815.4609985351562,
          "y": 42.48500061035156,
          "z": 407.2439880371094
        },
        "camForwardTargetOffset": {
          "x": 815.3280029296875,
          "y": 41.89899826049805,
          "z": 406.4440002441406
        },
        "cameraBlendType": "Linear",
        "MDKBPBJCMHH": {},
        "needZAxisRotate": true,
        "rotateAngle": 359.98699951171875,
        "openCameraDither": false,
        "targetNpcAlias": "",
        "closeTreeLeafDither": true,
        "PHGBNNGCJKJ": "",
        "NFILMKCFHEB": "",
        "BGPNGHDAECF": ""
      }
    ],
    [
      {
        "$type": "EFHODGEJOHJ",
        "type": "CAMERA_MOVE",
        "duration": 0.5,
        "actionId": 157,
        "camPosOffset": {
          "x": 812.802978515625,
          "y": 25.729999542236328,
          "z": 395.0400085449219
        },
        "camForwardTargetOffset": {
          "x": 812.1950073242188,
          "y": 25.601999282836914,
          "z": 394.2569885253906
        },
        "camFov": 25.0,
        "lerpPattern": 6,
        "cameraBlendType": "EaseInOutCubic",
        "MDKBPBJCMHH": {},
        "needZAxisRotate": true,
        "rotateAngle": 359.989990234375,
        "openCameraDither": false,
        "targetNpcAlias": "",
        "closeTreeLeafDither": true,
        "PHGBNNGCJKJ": "",
        "NFILMKCFHEB": "",
        "BGPNGHDAECF": ""
      },
      {
        "$type": "NPCNMEOCADD",
        "type": "LOOK_AT",
        "aliasList": [
          "AvatarNpc"
        ],
        "actionId": 170,
        "_flag": 64,
        "enableHead": true,
        "useTargetPos": true,
        "enableAbsolute": true,
        "targetPosition": {
          "x": 801.5800170898438,
          "y": 27.788999557495117,
          "z": 404.9580078125
        },
        "headTurnTime": 0.5,
        "targetNpcAlias": "",
        "lookAtTargetType": "NONE",
        "openBackProtect": true,
        "backProtectAngle": 10.0,
        "targetNpcLookAtPoint": "",
        "BHGPHGNFCBF": ""
      },
      {
        "$type": "MJFAIFFAGOF",
        "type": "DIALOG",
        "aliasList": [
          "1078"
        ],
        "actionId": 107,
        "dialogID": 140062401,
        "protectTime": 0.5
      },
      {
        "$type": "ICHLNKHGCAG",
        "type": "EMO_SYNC",
        "aliasList": [
          "1078"
        ],
        "actionId": 146,
        "_flag": 256,
        "dataPath": "Cs_Emo_Avatar_Simple_Common_Set/Cs_Emo_Avatar_Talk/Cs_Emo_Avatar_PersonalLine/Cs_Emo_Avatar_Wriothesley/Cs_Emo_140062401",
        "phonemePath": "",
        "emotionPath": "",
        "mateDataPath": "",
        "matePhonemePath": "",
        "mateEmotionPath": "",
        "dataPathHashList": [
          4528499278204570632,
          7301134382014418797,
          14462629514343549165,
          15415786748616089776
        ],
        "PACNIGOOENN": "",
        "PIBDNPHIAGC": ""
      },
      {
        "$type": "NPCNMEOCADD",
        "type": "LOOK_AT",
        "aliasList": [
          "1005"
        ],
        "actionId": 169,
        "_flag": 64,
        "enableHead": true,
        "useTargetPos": true,
        "enableAbsolute": true,
        "targetPosition": {
          "x": 818.156005859375,
          "y": 27.833999633789062,
          "z": 401.9909973144531
        },
        "headTurnTime": 0.5,
        "targetNpcAlias": "",
        "lookAtTargetType": "NONE",
        "openBackProtect": true,
        "backProtectAngle": 10.0,
        "targetNpcLookAtPoint": "",
        "BHGPHGNFCBF": ""
      },
      {
        "$type": "EFHODGEJOHJ",
        "type": "CAMERA_MOVE",
        "delayTime": 0.10000000149011612,
        "duration": 5.291999816894531,
        "actionId": 171,
        "camPosOffset": {
          "x": 812.7459716796875,
          "y": 25.729999542236328,
          "z": 395.0840148925781
        },
        "camForwardTargetOffset": {
          "x": 812.1380004882812,
          "y": 25.601999282836914,
          "z": 394.29998779296875
        },
        "camFov": 25.0,
        "cameraBlendType": "EaseOutQuad",
        "MDKBPBJCMHH": {},
        "needZAxisRotate": true,
        "rotateAngle": 359.989990234375,
        "openCameraDither": false,
        "targetNpcAlias": "",
        "closeTreeLeafDither": true,
        "PHGBNNGCJKJ": "",
        "NFILMKCFHEB": "",
        "BGPNGHDAECF": ""
      }
    ],
    [
      {
        "$type": "EFHODGEJOHJ",
        "type": "CAMERA_MOVE",
        "duration": 0.5,
        "actionId": 172,
        "camPosOffset": {
          "x": 819.0020141601562,
          "y": 39.74399948120117,
          "z": 391.3940124511719
        },
        "camForwardTargetOffset": {
          "x": 818.2860107421875,
          "y": 39.63399887084961,
          "z": 392.0830078125
        },
        "camFov": 25.0,
        "lerpPattern": 6,
        "cameraBlendType": "EaseInOutCubic",
        "MDKBPBJCMHH": {},
        "needZAxisRotate": true,
        "rotateAngle": 359.989990234375,
        "openCameraDither": false,
        "targetNpcAlias": "",
        "closeTreeLeafDither": true,
        "PHGBNNGCJKJ": "",
        "NFILMKCFHEB": "",
        "BGPNGHDAECF": ""
      },
      {
        "$type": "MoleMole.Config.ConfigTeleportToAction",
        "type": "TELEPORT_TO",
        "aliasList": [
          "Avatar"
        ],
        "actionId": 290,
        "position": {
          "x": 808.4219970703125,
          "y": 23.87299919128418,
          "z": 397.96600341796875
        },
        "forward": {
          "x": 0.0010000000474974513,
          "z": 1.0
        },
        "openLongDisTeleport": true,
        "syncForward": true,
        "_posBindMovingTargetKey": "",
        "_forwardBindMovingTargetKey": ""
      },
      {
        "$type": "MoleMole.Config.ConfigTeleportToAction",
        "type": "TELEPORT_TO",
        "aliasList": [
          "AvatarNpc"
        ],
        "actionId": 235,
        "position": {
          "x": 808.4219970703125,
          "y": 23.87299919128418,
          "z": 397.96600341796875
        },
        "forward": {
          "x": 0.0010000000474974513,
          "z": 1.0
        },
        "openLongDisTeleport": true,
        "syncForward": true,
        "_posBindMovingTargetKey": "",
        "_forwardBindMovingTargetKey": ""
      },
      {
        "$type": "MJFAIFFAGOF",
        "type": "DIALOG",
        "aliasList": [
          "1078"
        ],
        "actionId": 109,
        "dialogID": 140062402,
        "protectTime": 4.0
      },
      {
        "$type": "ICHLNKHGCAG",
        "type": "EMO_SYNC",
        "aliasList": [
          "1078"
        ],
        "actionId": 147,
        "_flag": 320,
        "dataPath": "Cs_Emo_Avatar_Simple_Common_Set/Cs_Emo_Avatar_Talk/Cs_Emo_Avatar_PersonalLine/Cs_Emo_Avatar_Wriothesley/Cs_Emo_140062402",
        "phonemePath": "",
        "emotionPath": "",
        "mateDataPath": "",
        "matePhonemePath": "",
        "mateEmotionPath": "",
        "dataPathHashList": [
          1854887998510366930,
          240613738966607870,
          4198265905074016899,
          446619573793907382
        ],
        "PACNIGOOENN": "",
        "PIBDNPHIAGC": ""
      },
      {
        "$type": "MoleMole.Config.ConfigTeleportToAction",
        "type": "TELEPORT_TO",
        "aliasList": [
          "1078"
        ],
        "actionId": 234,
        "position": {
          "x": 807.666015625,
          "y": 23.87299919128418,
          "z": 399.114013671875
        },
        "forward": {
          "x": 0.9449999928474426,
          "z": -0.328000009059906
        },
        "openLongDisTeleport": true,
        "syncForward": true,
        "_posBindMovingTargetKey": "",
        "_forwardBindMovingTargetKey": ""
      },
      {
        "$type": "MoleMole.Config.ConfigTeleportToAction",
        "type": "TELEPORT_TO",
        "aliasList": [
          "1005"
        ],
        "actionId": 233,
        "_flag": 4,
        "position": {
          "x": 808.9979858398438,
          "y": 23.87299919128418,
          "z": 398.99798583984375
        },
        "forward": {
          "x": -0.16500000655651093,
          "z": -0.9860000014305115
        },
        "openLongDisTeleport": true,
        "syncForward": true,
        "_posBindMovingTargetKey": "",
        "_forwardBindMovingTargetKey": ""
      },
      {
        "$type": "MoleMole.Config.ConfigTeleportToAction",
        "type": "TELEPORT_TO",
        "aliasList": [
          "13588"
        ],
        "actionId": 178,
        "position": {
          "x": 784.3909912109375,
          "y": 25.729999542236328,
          "z": 403.2550048828125
        },
        "forward": {
          "x": -0.9890000224113464,
          "z": 0.1459999978542328
        },
        "openLongDisTeleport": true,
        "syncForward": true,
        "_posBindMovingTargetKey": "",
        "_forwardBindMovingTargetKey": ""
      },
      {
        "$type": "EDCHPJLDKIN",
        "type": "BODY_LANG",
        "aliasList": [
          "13588"
        ],
        "actionId": 179,
        "bodyLangParam": 4190,
        "forceDoFreeStyle": true,
        "canDoRepeatFreeStyle": false,
        "cantBackToIdleWhenSitLoop": true,
        "eventPatternSuiteKey": ""
      },
      {
        "$type": "EFHODGEJOHJ",
        "type": "CAMERA_MOVE",
        "delayTime": 0.10000000149011612,
        "duration": 3.4579999446868896,
        "actionId": 174,
        "camPosOffset": {
          "x": 819.051025390625,
          "y": 39.74399948120117,
          "z": 391.44500732421875
        },
        "camForwardTargetOffset": {
          "x": 818.3350219726562,
          "y": 39.63399887084961,
          "z": 392.1340026855469
        },
        "camFov": 25.0,
        "cameraBlendType": "Linear",
        "MDKBPBJCMHH": {},
        "needZAxisRotate": true,
        "rotateAngle": 359.989990234375,
        "openCameraDither": false,
        "targetNpcAlias": "",
        "closeTreeLeafDither": true,
        "PHGBNNGCJKJ": "",
        "NFILMKCFHEB": "",
        "BGPNGHDAECF": ""
      },
      {
        "$type": "EFHODGEJOHJ",
        "type": "CAMERA_MOVE",
        "delayTime": 3.5,
        "duration": 0.5,
        "actionId": 173,
        "camPosOffset": {
          "x": 797.6270141601562,
          "y": 39.50400161743164,
          "z": 382.3760070800781
        },
        "camForwardTargetOffset": {
          "x": 798.4249877929688,
          "y": 39.43000030517578,
          "z": 382.9750061035156
        },
        "camFov": 25.0,
        "lerpPattern": 6,
        "cameraBlendType": "EaseInOutCubic",
        "MDKBPBJCMHH": {},
        "needZAxisRotate": true,
        "rotateAngle": 359.989990234375,
        "openCameraDither": false,
        "targetNpcAlias": "",
        "closeTreeLeafDither": true,
        "PHGBNNGCJKJ": "",
        "NFILMKCFHEB": "",
        "BGPNGHDAECF": ""
      },
      {
        "$type": "EFHODGEJOHJ",
        "type": "CAMERA_MOVE",
        "delayTime": 3.5999999046325684,
        "duration": 5.0,
        "actionId": 175,
        "camPosOffset": {
          "x": 797.8300170898438,
          "y": 39.48500061035156,
          "z": 382.52801513671875
        },
        "camForwardTargetOffset": {
          "x": 798.6279907226562,
          "y": 39.4109992980957,
          "z": 383.12799072265625
        },
        "camFov": 25.0,
        "cameraBlendType": "EaseOutQuad",
        "MDKBPBJCMHH": {},
        "needZAxisRotate": true,
        "rotateAngle": 359.989990234375,
        "openCameraDither": false,
        "targetNpcAlias": "",
        "closeTreeLeafDither": true,
        "PHGBNNGCJKJ": "",
        "NFILMKCFHEB": "",
        "BGPNGHDAECF": ""
      }
    ],
    [
      {
        "$type": "EFHODGEJOHJ",
        "type": "CAMERA_MOVE",
        "duration": 0.5,
        "actionId": 180,
        "camPosOffset": {
          "x": 811.4140014648438,
          "y": 25.07699966430664,
          "z": 396.73199462890625
        },
        "camForwardTargetOffset": {
          "x": 810.552001953125,
          "y": 25.075000762939453,
          "z": 397.239013671875
        },
        "camFov": 25.0,
        "lerpPattern": 6,
        "cameraBlendType": "EaseInOutCubic",
        "MDKBPBJCMHH": {},
        "needZAxisRotate": true,
        "rotateAngle": 359.989990234375,
        "openCameraDither": false,
        "targetNpcAlias": "",
        "closeTreeLeafDither": true,
        "PHGBNNGCJKJ": "",
        "NFILMKCFHEB": "",
        "BGPNGHDAECF": ""
      },
      {
        "$type": "MoleMole.Config.ConfigTeleportToAction",
        "type": "TELEPORT_TO",
        "aliasList": [
          "Avatar"
        ],
        "actionId": 229,
        "position": {
          "x": 808.4219970703125,
          "y": 23.87299919128418,
          "z": 397.96600341796875
        },
        "forward": {
          "x": 0.0010000000474974513,
          "z": 1.0
        },
        "openLongDisTeleport": true,
        "syncForward": true,
        "_posBindMovingTargetKey": "",
        "_forwardBindMovingTargetKey": ""
      },
      {
        "$type": "MoleMole.Config.ConfigTeleportToAction",
        "type": "TELEPORT_TO",
        "aliasList": [
          "AvatarNpc"
        ],
        "actionId": 184,
        "position": {
          "x": 808.4219970703125,
          "y": 23.87299919128418,
          "z": 397.96600341796875
        },
        "forward": {
          "x": 0.0010000000474974513,
          "z": 1.0
        },
        "openLongDisTeleport": true,
        "syncForward": true,
        "_posBindMovingTargetKey": "",
        "_forwardBindMovingTargetKey": ""
      },
      {
        "$type": "NPCNMEOCADD",
        "type": "LOOK_AT",
        "aliasList": [
          "AvatarNpc"
        ],
        "actionId": 187,
        "_flag": 64,
        "enableHead": true,
        "useTargetPos": true,
        "enableAbsolute": true,
        "targetPosition": {
          "x": 809.1229858398438,
          "y": 25.198999404907227,
          "z": 398.89300537109375
        },
        "headTurnTime": 0.5,
        "targetNpcAlias": "",
        "lookAtTargetType": "NONE",
        "openBackProtect": true,
        "backProtectAngle": 10.0,
        "targetNpcLookAtPoint": "",
        "BHGPHGNFCBF": ""
      },
      {
        "$type": "MoleMole.Config.ConfigTeleportToAction",
        "type": "TELEPORT_TO",
        "aliasList": [
          "1078"
        ],
        "actionId": 183,
        "position": {
          "x": 807.666015625,
          "y": 23.87299919128418,
          "z": 399.114013671875
        },
        "forward": {
          "x": 0.9449999928474426,
          "z": -0.328000009059906
        },
        "openLongDisTeleport": true,
        "syncForward": true,
        "_posBindMovingTargetKey": "",
        "_forwardBindMovingTargetKey": ""
      },
      {
        "$type": "NPCNMEOCADD",
        "type": "LOOK_AT",
        "aliasList": [
          "1078"
        ],
        "actionId": 186,
        "_flag": 64,
        "enableHead": true,
        "useTargetPos": true,
        "enableAbsolute": true,
        "targetPosition": {
          "x": 809.1229858398438,
          "y": 25.198999404907227,
          "z": 398.89300537109375
        },
        "headTurnTime": 0.5,
        "targetNpcAlias": "",
        "lookAtTargetType": "NONE",
        "openBackProtect": true,
        "backProtectAngle": 10.0,
        "targetNpcLookAtPoint": "",
        "BHGPHGNFCBF": ""
      },
      {
        "$type": "MJFAIFFAGOF",
        "type": "DIALOG",
        "aliasList": [
          "1005"
        ],
        "actionId": 111,
        "dialogID": 140062403,
        "protectTime": 0.5
      },
      {
        "$type": "ICHLNKHGCAG",
        "type": "EMO_SYNC",
        "aliasList": [
          "1005"
        ],
        "actionId": 150,
        "_flag": 320,
        "dataPath": "Cs_Emo_Avatar_Simple_Common_Set/Cs_Emo_Avatar_Talk/Cs_Emo_Avatar_PersonalLine/Cs_Emo_Avatar_Wriothesley/Cs_Emo_140062403",
        "phonemePath": "",
        "emotionPath": "",
        "mateDataPath": "",
        "matePhonemePath": "",
        "mateEmotionPath": "",
        "dataPathHashList": [
          5869664613415857207,
          14586281803582119308,
          14172923614448008064,
          8046945045859421292
        ],
        "PACNIGOOENN": "",
        "PIBDNPHIAGC": ""
      },
      {
        "$type": "NPCNMEOCADD",
        "type": "LOOK_AT",
        "aliasList": [
          "1005"
        ],
        "actionId": 181,
        "_flag": 64,
        "enableHead": true,
        "headTurnTime": 0.5,
        "targetNpcAlias": "AvatarNpc",
        "targetNpcRotateVecPlus": {
          "x": 359.9179992675781,
          "y": 354.3479919433594
        },
        "openBackProtect": true,
        "backProtectAngle": 10.0,
        "targetNpcLookAtPoint": "",
        "BHGPHGNFCBF": ""
      },
      {
        "$type": "MoleMole.Config.ConfigTeleportToAction",
        "type": "TELEPORT_TO",
        "aliasList": [
          "1005"
        ],
        "actionId": 182,
        "_flag": 4,
        "position": {
          "x": 808.9979858398438,
          "y": 23.87299919128418,
          "z": 398.99798583984375
        },
        "forward": {
          "x": -0.16500000655651093,
          "z": -0.9860000014305115
        },
        "openLongDisTeleport": true,
        "syncForward": true,
        "_posBindMovingTargetKey": "",
        "_forwardBindMovingTargetKey": ""
      },
      {
        "$type": "EDCHPJLDKIN",
        "type": "BODY_LANG",
        "aliasList": [
          "1005"
        ],
        "actionId": 185,
        "bodyLangParam": 1140,
        "forceDoFreeStyle": true,
        "canDoRepeatFreeStyle": false,
        "cantBackToIdleWhenSitLoop": true,
        "eventPatternSuiteKey": ""
      },
      {
        "$type": "EFHODGEJOHJ",
        "type": "CAMERA_MOVE",
        "delayTime": 0.10000000149011612,
        "duration": 6.357999801635742,
        "actionId": 188,
        "camPosOffset": {
          "x": 811.3759765625,
          "y": 25.07699966430664,
          "z": 396.6679992675781
        },
        "camForwardTargetOffset": {
          "x": 810.5139770507812,
          "y": 25.075000762939453,
          "z": 397.17498779296875
        },
        "camFov": 25.0,
        "cameraBlendType": "EaseOutQuad",
        "MDKBPBJCMHH": {},
        "needZAxisRotate": true,
        "rotateAngle": 359.989990234375,
        "openCameraDither": false,
        "targetNpcAlias": "",
        "closeTreeLeafDither": true,
        "PHGBNNGCJKJ": "",
        "NFILMKCFHEB": "",
        "BGPNGHDAECF": ""
      },
      {
        "$type": "EDCHPJLDKIN",
        "type": "BODY_LANG",
        "delayTime": 1.6920000314712524,
        "aliasList": [
          "1005"
        ],
        "actionId": 190,
        "isContinue": true,
        "forceDoFreeStyle": true,
        "canDoRepeatFreeStyle": false,
        "cantBackToIdleWhenSitLoop": true,
        "eventPatternSuiteKey": ""
      },
      {
        "$type": "EDCHPJLDKIN",
        "type": "BODY_LANG",
        "delayTime": 2.382999897003174,
        "aliasList": [
          "AvatarNpc"
        ],
        "actionId": 189,
        "bodyLangParam": 4030,
        "forceDoFreeStyle": true,
        "canDoRepeatFreeStyle": false,
        "cantBackToIdleWhenSitLoop": true,
        "eventPatternSuiteKey": ""
      }
    ],
    [
      {
        "$type": "MoleMole.Config.ConfigTimeProtectAction",
        "type": "TIME_PROTECT",
        "duration": 3.0,
        "actionId": 216
      },
      {
        "$type": "MJFAIFFAGOF",
        "type": "DIALOG_CLEAR",
        "actionId": 226
      },
      {
        "$type": "IEKHMHNHENB",
        "type": "STEER_TO",
        "duration": 1.0,
        "aliasList": [
          "1078"
        ],
        "actionId": 217,
        "_flag": 32,
        "steerType": "ABSOLUTE",
        "steerDir": {
          "x": 805.4349975585938,
          "y": 23.87299919128418,
          "z": 399.7980041503906
        },
        "useSteerAnim": true,
        "interruptFreestyle": true,
        "forceSteer": true,
        "targetNpcAlias": "",
        "ignoreY": true,
        "fixInterNull": true,
        "BHGPHGNFCBF": ""
      },
      {
        "$type": "NPCNMEOCADD",
        "type": "LOOK_AT",
        "aliasList": [
          "1078"
        ],
        "actionId": 224,
        "_flag": 64,
        "headTurnTime": 0.5,
        "targetNpcAlias": "",
        "openBackProtect": true,
        "backProtectAngle": 10.0,
        "targetNpcLookAtPoint": "",
        "BHGPHGNFCBF": ""
      },
      {
        "$type": "NPCNMEOCADD",
        "type": "LOOK_AT",
        "delayTime": 0.07500000298023224,
        "aliasList": [
          "1005"
        ],
        "actionId": 225,
        "_flag": 64,
        "headTurnTime": 0.5,
        "targetNpcAlias": "",
        "openBackProtect": true,
        "backProtectAngle": 10.0,
        "targetNpcLookAtPoint": "",
        "BHGPHGNFCBF": ""
      },
      {
        "$type": "IEKHMHNHENB",
        "type": "STEER_TO",
        "delayTime": 0.07500000298023224,
        "duration": 1.0,
        "aliasList": [
          "1005"
        ],
        "actionId": 218,
        "_flag": 32,
        "steerType": "ABSOLUTE",
        "steerDir": {
          "x": 807.6190185546875,
          "y": 23.87299919128418,
          "z": 399.3890075683594
        },
        "useSteerAnim": true,
        "interruptFreestyle": true,
        "forceSteer": true,
        "targetNpcAlias": "",
        "ignoreY": true,
        "fixInterNull": true,
        "BHGPHGNFCBF": ""
      },
      {
        "$type": "NPCNMEOCADD",
        "type": "LOOK_AT",
        "delayTime": 0.125,
        "aliasList": [
          "AvatarNpc"
        ],
        "actionId": 223,
        "_flag": 64,
        "headTurnTime": 0.5,
        "targetNpcAlias": "",
        "openBackProtect": true,
        "backProtectAngle": 10.0,
        "targetNpcLookAtPoint": "",
        "BHGPHGNFCBF": ""
      },
      {
        "$type": "IEKHMHNHENB",
        "type": "STEER_TO",
        "delayTime": 0.125,
        "duration": 1.0,
        "aliasList": [
          "AvatarNpc"
        ],
        "actionId": 219,
        "_flag": 32,
        "steerType": "ABSOLUTE",
        "steerDir": {
          "x": 806.1279907226562,
          "y": 23.87299919128418,
          "z": 398.6440124511719
        },
        "useSteerAnim": true,
        "interruptFreestyle": true,
        "forceSteer": true,
        "targetNpcAlias": "",
        "ignoreY": true,
        "fixInterNull": true,
        "BHGPHGNFCBF": ""
      },
      {
        "$type": "MoleMole.Config.ConfigMoveToAction",
        "type": "MOVE_TO",
        "delayTime": 1.0,
        "aliasList": [
          "1078"
        ],
        "actionId": 221,
        "moveType": "WALK",
        "routeList": [
          {
            "x": 803.1599731445312,
            "y": 24.632999420166016,
            "z": 400.4800109863281
          }
        ],
        "exactlyMove": true,
        "closeNavMesh": true,
        "openSetPos": true,
        "_bindMovingTargetKey": ""
      },
      {
        "$type": "MoleMole.Config.ConfigMoveToAction",
        "type": "MOVE_TO",
        "delayTime": 1.0750000476837158,
        "aliasList": [
          "1005"
        ],
        "actionId": 220,
        "moveType": "WALK",
        "routeList": [
          {
            "x": 804.2100219726562,
            "y": 24.291000366210938,
            "z": 400.7799987792969
          }
        ],
        "exactlyMove": true,
        "closeNavMesh": true,
        "openSetPos": true,
        "_bindMovingTargetKey": ""
      },
      {
        "$type": "MoleMole.Config.ConfigMoveToAction",
        "type": "MOVE_TO",
        "delayTime": 1.125,
        "aliasList": [
          "Avatar"
        ],
        "actionId": 230,
        "moveType": "WALK",
        "routeList": [
          {
            "x": 803.5130004882812,
            "y": 24.604999542236328,
            "z": 399.6080017089844
          }
        ],
        "exactlyMove": true,
        "closeNavMesh": true,
        "closeAvatarNavMesh": true,
        "openSetPos": true,
        "_bindMovingTargetKey": ""
      },
      {
        "$type": "MoleMole.Config.ConfigMoveToAction",
        "type": "MOVE_TO",
        "delayTime": 1.125,
        "aliasList": [
          "AvatarNpc"
        ],
        "actionId": 222,
        "moveType": "WALK",
        "routeList": [
          {
            "x": 803.5130004882812,
            "y": 24.604999542236328,
            "z": 399.6080017089844
          }
        ],
        "exactlyMove": true,
        "closeNavMesh": true,
        "openSetPos": true,
        "_bindMovingTargetKey": ""
      }
    ],
    [
      {
        "$type": "MoleMole.Config.ConfigTimeProtectAction",
        "type": "TIME_PROTECT",
        "duration": 3.0,
        "actionId": 297
      },
      {
        "$type": "EFHODGEJOHJ",
        "type": "CAMERA_MOVE",
        "duration": 0.5,
        "actionId": 298,
        "camPosOffset": {
          "x": 794.0570068359375,
          "y": 26.458999633789062,
          "z": 399.3919982910156
        },
        "camForwardTargetOffset": {
          "x": 793.3469848632812,
          "y": 26.648000717163086,
          "z": 400.0710144042969
        },
        "camFov": 35.0,
        "lerpPattern": 6,
        "cameraBlendType": "EaseInOutCubic",
        "MDKBPBJCMHH": {},
        "needZAxisRotate": true,
        "rotateAngle": 359.989990234375,
        "openCameraDither": false,
        "targetNpcAlias": "",
        "closeTreeLeafDither": true,
        "PHGBNNGCJKJ": "",
        "NFILMKCFHEB": "",
        "BGPNGHDAECF": ""
      },
      {
        "$type": "MoleMole.Config.ConfigTeleportToAction",
        "type": "TELEPORT_TO",
        "aliasList": [
          "Avatar"
        ],
        "actionId": 312,
        "position": {
          "x": 795.4219970703125,
          "y": 25.729999542236328,
          "z": 400.6080017089844
        },
        "forward": {
          "x": -0.8980000019073486,
          "z": 0.4399999976158142
        },
        "openLongDisTeleport": true,
        "syncForward": true,
        "_posBindMovingTargetKey": "",
        "_forwardBindMovingTargetKey": ""
      },
      {
        "$type": "MoleMole.Config.ConfigTeleportToAction",
        "type": "TELEPORT_TO",
        "aliasList": [
          "AvatarNpc"
        ],
        "actionId": 303,
        "position": {
          "x": 795.4219970703125,
          "y": 25.729999542236328,
          "z": 400.6080017089844
        },
        "forward": {
          "x": -0.8980000019073486,
          "z": 0.4399999976158142
        },
        "openLongDisTeleport": true,
        "syncForward": true,
        "_posBindMovingTargetKey": "",
        "_forwardBindMovingTargetKey": ""
      },
      {
        "$type": "MoleMole.Config.ConfigTeleportToAction",
        "type": "TELEPORT_TO",
        "aliasList": [
          "1078"
        ],
        "actionId": 304,
        "position": {
          "x": 795.1630249023438,
          "y": 25.729999542236328,
          "z": 402.2749938964844
        },
        "forward": {
          "x": -0.9940000176429749,
          "z": -0.1080000028014183
        },
        "openLongDisTeleport": true,
        "syncForward": true,
        "_posBindMovingTargetKey": "",
        "_forwardBindMovingTargetKey": ""
      },
      {
        "$type": "MoleMole.Config.ConfigTeleportToAction",
        "type": "TELEPORT_TO",
        "aliasList": [
          "1005"
        ],
        "actionId": 299,
        "position": {
          "x": 794.6199951171875,
          "y": 25.77899932861328,
          "z": 401.4599914550781
        },
        "forward": {
          "x": -0.9890000224113464,
          "z": 0.1509999930858612
        },
        "openLongDisTeleport": true,
        "syncForward": true,
        "_posBindMovingTargetKey": "",
        "_forwardBindMovingTargetKey": ""
      },
      {
        "$type": "MoleMole.Config.ConfigMoveToAction",
        "type": "MOVE_TO",
        "delayTime": 0.10000000149011612,
        "aliasList": [
          "Avatar"
        ],
        "actionId": 311,
        "moveType": "WALK",
        "routeList": [
          {
            "x": 792.4310302734375,
            "y": 25.753000259399414,
            "z": 400.4960021972656
          }
        ],
        "exactlyMove": true,
        "closeNavMesh": true,
        "closeAvatarNavMesh": true,
        "openSetPos": true,
        "_bindMovingTargetKey": ""
      },
      {
        "$type": "MoleMole.Config.ConfigMoveToAction",
        "type": "MOVE_TO",
        "delayTime": 0.10000000149011612,
        "aliasList": [
          "AvatarNpc"
        ],
        "actionId": 302,
        "moveType": "WALK",
        "routeList": [
          {
            "x": 792.4310302734375,
            "y": 25.753000259399414,
            "z": 400.4960021972656
          }
        ],
        "exactlyMove": true,
        "closeNavMesh": true,
        "openSetPos": true,
        "_bindMovingTargetKey": ""
      },
      {
        "$type": "MoleMole.Config.ConfigMoveToAction",
        "type": "MOVE_TO",
        "delayTime": 0.10000000149011612,
        "aliasList": [
          "1078"
        ],
        "actionId": 301,
        "moveType": "WALK",
        "routeList": [
          {
            "x": 792.27197265625,
            "y": 25.77199935913086,
            "z": 402.135986328125
          }
        ],
        "exactlyMove": true,
        "closeNavMesh": true,
        "openSetPos": true,
        "_bindMovingTargetKey": ""
      },
      {
        "$type": "MoleMole.Config.ConfigMoveToAction",
        "type": "MOVE_TO",
        "delayTime": 0.10000000149011612,
        "aliasList": [
          "1005"
        ],
        "actionId": 300,
        "moveType": "WALK",
        "routeList": [
          {
            "x": 792.3889770507812,
            "y": 25.77899932861328,
            "z": 401.21600341796875
          }
        ],
        "exactlyMove": true,
        "closeNavMesh": true,
        "openSetPos": true,
        "_bindMovingTargetKey": ""
      }
    ],
    [
      {
        "$type": "MoleMole.Config.ConfigTimeProtectAction",
        "type": "TIME_PROTECT",
        "duration": 2.0,
        "actionId": 245
      },
      {
        "$type": "EFHODGEJOHJ",
        "type": "CAMERA_MOVE",
        "duration": 0.5,
        "actionId": 310,
        "camPosOffset": {
          "x": 793.1259765625,
          "y": 27.624000549316406,
          "z": 401.4049987792969
        },
        "camForwardTargetOffset": {
          "x": 792.3070068359375,
          "y": 27.47800064086914,
          "z": 401.9599914550781
        },
        "camFov": 25.0,
        "lerpPattern": 6,
        "cameraBlendType": "EaseInOutCubic",
        "MDKBPBJCMHH": {},
        "needZAxisRotate": true,
        "rotateAngle": 359.989990234375,
        "openCameraDither": false,
        "targetNpcAlias": "",
        "closeTreeLeafDither": true,
        "PHGBNNGCJKJ": "",
        "NFILMKCFHEB": "",
        "BGPNGHDAECF": ""
      },
      {
        "$type": "EDCHPJLDKIN",
        "type": "BODY_LANG",
        "aliasList": [
          "1078"
        ],
        "actionId": 318,
        "bodyLangParam": 1030,
        "forceDoFreeStyle": true,
        "canDoRepeatFreeStyle": false,
        "cantBackToIdleWhenSitLoop": true,
        "eventPatternSuiteKey": ""
      }
    ],
    [
      {
        "$type": "MoleMole.Config.ConfigTimeProtectAction",
        "type": "TIME_PROTECT",
        "duration": 1.5,
        "actionId": 321
      },
      {
        "$type": "MoleMole.Config.ConfigLocalGadgetOP",
        "type": "LOCAL_GADGET_OP",
        "actionId": 322,
        "gadgetId": 70291607,
        "subKey": 1001,
        "oprCode": 6,
        "questMainId": 14006,
        "slotName": "",
        "sceneId": 20195,
        "gvKey": "",
        "gadgetState": 201
      }
    ],
    [
      {
        "$type": "MoleMole.Config.ConfigTimeProtectAction",
        "type": "TIME_PROTECT",
        "duration": 1.5,
        "actionId": 307
      },
      {
        "$type": "EFHODGEJOHJ",
        "type": "CAMERA_MOVE",
        "duration": 0.5,
        "actionId": 316,
        "camPosOffset": {
          "x": 788.93798828125,
          "y": 27.663000106811523,
          "z": 399.0119934082031
        },
        "camForwardTargetOffset": {
          "x": 789.72998046875,
          "y": 27.525999069213867,
          "z": 399.60699462890625
        },
        "camFov": 35.0,
        "lerpPattern": 6,
        "cameraBlendType": "EaseInOutCubic",
        "MDKBPBJCMHH": {},
        "needZAxisRotate": true,
        "rotateAngle": 359.989990234375,
        "openCameraDither": false,
        "targetNpcAlias": "",
        "closeTreeLeafDither": true,
        "PHGBNNGCJKJ": "",
        "NFILMKCFHEB": "",
        "BGPNGHDAECF": ""
      },
      {
        "$type": "EDCHPJLDKIN",
        "type": "BODY_LANG",
        "aliasList": [
          "1078"
        ],
        "actionId": 324,
        "isContinue": true,
        "forceDoFreeStyle": true,
        "canDoRepeatFreeStyle": false,
        "cantBackToIdleWhenSitLoop": true,
        "eventPatternSuiteKey": ""
      },
      {
        "$type": "MoleMole.Config.ConfigMoveToAction",
        "type": "MOVE_TO",
        "delayTime": 0.5580000281333923,
        "aliasList": [
          "1005"
        ],
        "actionId": 309,
        "moveType": "WALK",
        "routeList": [
          {
            "x": 786.9190063476562,
            "y": 25.729999542236328,
            "z": 402.25
          }
        ],
        "exactlyMove": true,
        "closeNavMesh": true,
        "openSetPos": true,
        "_bindMovingTargetKey": ""
      },
      {
        "$type": "MoleMole.Config.ConfigMoveToAction",
        "type": "MOVE_TO",
        "delayTime": 0.699999988079071,
        "aliasList": [
          "Avatar"
        ],
        "actionId": 323,
        "moveType": "WALK",
        "routeList": [
          {
            "x": 787.8259887695312,
            "y": 25.746000289916992,
            "z": 401.5719909667969
          }
        ],
        "exactlyMove": true,
        "closeNavMesh": true,
        "closeAvatarNavMesh": true,
        "openSetPos": true,
        "_bindMovingTargetKey": ""
      },
      {
        "$type": "MoleMole.Config.ConfigMoveToAction",
        "type": "MOVE_TO",
        "delayTime": 0.699999988079071,
        "aliasList": [
          "AvatarNpc"
        ],
        "actionId": 306,
        "moveType": "WALK",
        "routeList": [
          {
            "x": 787.8259887695312,
            "y": 25.746000289916992,
            "z": 401.5719909667969
          }
        ],
        "exactlyMove": true,
        "closeNavMesh": true,
        "openSetPos": true,
        "_bindMovingTargetKey": ""
      },
      {
        "$type": "MoleMole.Config.ConfigMoveToAction",
        "type": "MOVE_TO",
        "delayTime": 0.75,
        "aliasList": [
          "1078"
        ],
        "actionId": 308,
        "moveType": "WALK",
        "routeList": [
          {
            "x": 787.8209838867188,
            "y": 25.736000061035156,
            "z": 401.927001953125
          }
        ],
        "exactlyMove": true,
        "closeNavMesh": true,
        "openSetPos": true,
        "_bindMovingTargetKey": ""
      }
    ],
    [
      {
        "$type": "MoleMole.Config.ConfigTimeProtectAction",
        "type": "TIME_PROTECT",
        "duration": 2.0,
        "actionId": 214
      },
      {
        "$type": "EFHODGEJOHJ",
        "type": "CAMERA_MOVE",
        "duration": 0.5,
        "actionId": 236,
        "camPosOffset": {
          "x": 789.322998046875,
          "y": 28.111000061035156,
          "z": 398.79400634765625
        },
        "camForwardTargetOffset": {
          "x": 788.8179931640625,
          "y": 27.82200050354004,
          "z": 399.60699462890625
        },
        "camFov": 25.0,
        "lerpPattern": 6,
        "cameraBlendType": "EaseInOutCubic",
        "MDKBPBJCMHH": {},
        "needZAxisRotate": true,
        "rotateAngle": 359.989013671875,
        "openCameraDither": false,
        "targetNpcAlias": "",
        "closeTreeLeafDither": true,
        "PHGBNNGCJKJ": "",
        "NFILMKCFHEB": "",
        "BGPNGHDAECF": ""
      },
      {
        "$type": "MoleMole.Config.ConfigTeleportToAction",
        "type": "TELEPORT_TO",
        "aliasList": [
          "Avatar"
        ],
        "actionId": 292,
        "position": {
          "x": 789.1170043945312,
          "y": 25.81399917602539,
          "z": 400.9389953613281
        },
        "forward": {
          "x": -0.8980000019073486,
          "z": 0.4399999976158142
        },
        "openLongDisTeleport": true,
        "syncForward": true,
        "_posBindMovingTargetKey": "",
        "_forwardBindMovingTargetKey": ""
      },
      {
        "$type": "NPCNMEOCADD",
        "type": "LOOK_AT",
        "aliasList": [
          "AvatarNpc"
        ],
        "actionId": 205,
        "_flag": 64,
        "enableHead": true,
        "headTurnTime": 0.5,
        "targetNpcAlias": "13588",
        "openBackProtect": true,
        "backProtectAngle": 10.0,
        "targetNpcLookAtPoint": "",
        "BHGPHGNFCBF": ""
      },
      {
        "$type": "MoleMole.Config.ConfigTeleportToAction",
        "type": "TELEPORT_TO",
        "aliasList": [
          "AvatarNpc"
        ],
        "actionId": 207,
        "_flag": 4,
        "position": {
          "x": 789.1170043945312,
          "y": 25.81399917602539,
          "z": 400.9389953613281
        },
        "forward": {
          "x": -0.8980000019073486,
          "z": 0.4399999976158142
        },
        "openLongDisTeleport": true,
        "syncForward": true,
        "_posBindMovingTargetKey": "",
        "_forwardBindMovingTargetKey": ""
      },
      {
        "$type": "NPCNMEOCADD",
        "type": "LOOK_AT",
        "aliasList": [
          "1078"
        ],
        "actionId": 208,
        "_flag": 64,
        "enableHead": true,
        "headTurnTime": 0.5,
        "targetNpcAlias": "13588",
        "openBackProtect": true,
        "backProtectAngle": 10.0,
        "targetNpcLookAtPoint": "",
        "BHGPHGNFCBF": ""
      },
      {
        "$type": "MoleMole.Config.ConfigTeleportToAction",
        "type": "TELEPORT_TO",
        "aliasList": [
          "1078"
        ],
        "actionId": 210,
        "_flag": 4,
        "position": {
          "x": 790.0159912109375,
          "y": 25.746000289916992,
          "z": 403.2309875488281
        },
        "forward": {
          "x": -0.9940000176429749,
          "z": -0.1080000028014183
        },
        "openLongDisTeleport": true,
        "syncForward": true,
        "_posBindMovingTargetKey": "",
        "_forwardBindMovingTargetKey": ""
      },
      {
        "$type": "NPCNMEOCADD",
        "type": "LOOK_AT",
        "aliasList": [
          "1005"
        ],
        "actionId": 211,
        "_flag": 64,
        "enableHead": true,
        "headTurnTime": 0.5,
        "targetNpcAlias": "13588",
        "openBackProtect": true,
        "backProtectAngle": 10.0,
        "targetNpcLookAtPoint": "",
        "BHGPHGNFCBF": ""
      },
      {
        "$type": "MoleMole.Config.ConfigTeleportToAction",
        "type": "TELEPORT_TO",
        "aliasList": [
          "1005"
        ],
        "actionId": 213,
        "_flag": 4,
        "position": {
          "x": 788.7739868164062,
          "y": 25.753999710083008,
          "z": 401.9670104980469
        },
        "forward": {
          "x": -0.9890000224113464,
          "z": 0.1509999930858612
        },
        "openLongDisTeleport": true,
        "syncForward": true,
        "_posBindMovingTargetKey": "",
        "_forwardBindMovingTargetKey": ""
      },
      {
        "$type": "EFHODGEJOHJ",
        "type": "CAMERA_MOVE",
        "delayTime": 0.10000000149011612,
        "duration": 1.899999976158142,
        "actionId": 237,
        "camPosOffset": {
          "x": 789.1320190429688,
          "y": 28.111000061035156,
          "z": 398.67498779296875
        },
        "camForwardTargetOffset": {
          "x": 788.6270141601562,
          "y": 27.82200050354004,
          "z": 399.4880065917969
        },
        "camFov": 25.0,
        "cameraBlendType": "Linear",
        "MDKBPBJCMHH": {},
        "needZAxisRotate": true,
        "rotateAngle": 359.989013671875,
        "openCameraDither": false,
        "targetNpcAlias": "",
        "closeTreeLeafDither": true,
        "PHGBNNGCJKJ": "",
        "NFILMKCFHEB": "",
        "BGPNGHDAECF": ""
      },
      {
        "$type": "MoleMole.Config.ConfigMoveToAction",
        "type": "MOVE_TO",
        "delayTime": 0.10000000149011612,
        "aliasList": [
          "Avatar"
        ],
        "actionId": 291,
        "moveType": "WALK",
        "routeList": [
          {
            "x": 787.8259887695312,
            "y": 25.746000289916992,
            "z": 401.5719909667969
          }
        ],
        "exactlyMove": true,
        "closeNavMesh": true,
        "closeAvatarNavMesh": true,
        "openSetPos": true,
        "_bindMovingTargetKey": ""
      },
      {
        "$type": "MoleMole.Config.ConfigMoveToAction",
        "type": "MOVE_TO",
        "delayTime": 0.10000000149011612,
        "aliasList": [
          "AvatarNpc"
        ],
        "actionId": 206,
        "moveType": "WALK",
        "routeList": [
          {
            "x": 787.8259887695312,
            "y": 25.746000289916992,
            "z": 401.5719909667969
          }
        ],
        "exactlyMove": true,
        "closeNavMesh": true,
        "openSetPos": true,
        "_bindMovingTargetKey": ""
      },
      {
        "$type": "MoleMole.Config.ConfigMoveToAction",
        "type": "MOVE_TO",
        "delayTime": 0.10000000149011612,
        "aliasList": [
          "1078"
        ],
        "actionId": 209,
        "moveType": "WALK",
        "routeList": [
          {
            "x": 787.833984375,
            "y": 25.729999542236328,
            "z": 402.9939880371094
          }
        ],
        "exactlyMove": true,
        "closeNavMesh": true,
        "openSetPos": true,
        "_bindMovingTargetKey": ""
      },
      {
        "$type": "MoleMole.Config.ConfigMoveToAction",
        "type": "MOVE_TO",
        "delayTime": 0.10000000149011612,
        "aliasList": [
          "1005"
        ],
        "actionId": 212,
        "moveType": "WALK",
        "routeList": [
          {
            "x": 786.9190063476562,
            "y": 25.729999542236328,
            "z": 402.25
          }
        ],
        "exactlyMove": true,
        "closeNavMesh": true,
        "openSetPos": true,
        "_bindMovingTargetKey": ""
      }
    ],
    [
      {
        "$type": "EFHODGEJOHJ",
        "type": "CAMERA_MOVE",
        "duration": 0.5,
        "actionId": 246,
        "camPosOffset": {
          "x": 782.4089965820312,
          "y": 26.305999755859375,
          "z": 403.1180114746094
        },
        "camForwardTargetOffset": {
          "x": 783.405029296875,
          "y": 26.37299919128418,
          "z": 403.05499267578125
        },
        "camFov": 25.0,
        "lerpPattern": 6,
        "cameraBlendType": "EaseInOutCubic",
        "MDKBPBJCMHH": {},
        "needZAxisRotate": true,
        "rotateAngle": 359.989990234375,
        "openCameraDither": false,
        "targetNpcAlias": "",
        "closeTreeLeafDither": true,
        "PHGBNNGCJKJ": "",
        "NFILMKCFHEB": "",
        "BGPNGHDAECF": ""
      },
      {
        "$type": "MJFAIFFAGOF",
        "type": "DIALOG",
        "aliasList": [
          "1005"
        ],
        "actionId": 113,
        "dialogID": 140062404,
        "protectTime": 0.5
      },
      {
        "$type": "ICHLNKHGCAG",
        "type": "EMO_SYNC",
        "aliasList": [
          "1005"
        ],
        "actionId": 151,
        "_flag": 320,
        "dataPath": "Cs_Emo_Avatar_Simple_Common_Set/Cs_Emo_Avatar_Talk/Cs_Emo_Avatar_PersonalLine/Cs_Emo_Avatar_Wriothesley/Cs_Emo_140062404",
        "phonemePath": "",
        "emotionPath": "",
        "mateDataPath": "",
        "matePhonemePath": "",
        "mateEmotionPath": "",
        "dataPathHashList": [
          791854504549807475,
          3532799278352759541,
          11852084006070059084,
          10883194458143870638
        ],
        "PACNIGOOENN": "",
        "PIBDNPHIAGC": ""
      },
      {
        "$type": "ICHLNKHGCAG",
        "type": "EMO_SYNC",
        "aliasList": [
          "13588"
        ],
        "actionId": 249,
        "_flag": 256,
        "dataPath": "",
        "phonemePath": "Cs_Emo_NPC_Common/Cs_Emo_NPC_Angry01",
        "emotionPath": "Cs_Emo_NPC_Common/Cs_Emo_NPC_WinkB01",
        "mateDataPath": "",
        "matePhonemePath": "",
        "mateEmotionPath": "",
        "enableBlink": false,
        "phonemePathHashList": [
          9218657655395275517,
          6356428425152214583,
          11840959722219800112,
          50070356133267922
        ],
        "emotionPathHashList": [
          4011334570606260619,
          6522816548836632676,
          1719869374971786022,
          2249404287282863109
        ],
        "PACNIGOOENN": "",
        "PIBDNPHIAGC": ""
      },
      {
        "$type": "EFHODGEJOHJ",
        "type": "CAMERA_MOVE",
        "delayTime": 0.10000000149011612,
        "duration": 6.833000183105469,
        "actionId": 252,
        "camPosOffset": {
          "x": 782.4119873046875,
          "y": 26.305999755859375,
          "z": 403.1629943847656
        },
        "camForwardTargetOffset": {
          "x": 783.4080200195312,
          "y": 26.37299919128418,
          "z": 403.1000061035156
        },
        "camFov": 25.0,
        "cameraBlendType": "EaseOutQuad",
        "MDKBPBJCMHH": {},
        "needZAxisRotate": true,
        "rotateAngle": 359.989990234375,
        "openCameraDither": false,
        "targetNpcAlias": "",
        "closeTreeLeafDither": true,
        "PHGBNNGCJKJ": "",
        "NFILMKCFHEB": "",
        "BGPNGHDAECF": ""
      },
      {
        "$type": "EDCHPJLDKIN",
        "type": "BODY_LANG",
        "delayTime": 0.6309999823570251,
        "aliasList": [
          "1005"
        ],
        "actionId": 247,
        "bodyLangParam": 1180,
        "forceDoFreeStyle": true,
        "canDoRepeatFreeStyle": false,
        "cantBackToIdleWhenSitLoop": true,
        "eventPatternSuiteKey": ""
      },
      {
        "$type": "EDCHPJLDKIN",
        "type": "BODY_LANG",
        "delayTime": 2.7980000972747803,
        "aliasList": [
          "1005"
        ],
        "actionId": 248,
        "isContinue": true,
        "forceDoFreeStyle": true,
        "canDoRepeatFreeStyle": false,
        "cantBackToIdleWhenSitLoop": true,
        "eventPatternSuiteKey": ""
      }
    ],
    [
      {
        "$type": "EFHODGEJOHJ",
        "type": "CAMERA_MOVE",
        "duration": 0.5,
        "actionId": 251,
        "camPosOffset": {
          "x": 783.5380249023438,
          "y": 26.46500015258789,
          "z": 403.1650085449219
        },
        "camForwardTargetOffset": {
          "x": 784.5180053710938,
          "y": 26.4060001373291,
          "z": 403.3550109863281
        },
        "camFov": 25.0,
        "lerpPattern": 6,
        "cameraBlendType": "EaseInOutCubic",
        "MDKBPBJCMHH": {},
        "needZAxisRotate": true,
        "rotateAngle": 359.989990234375,
        "openCameraDither": false,
        "targetNpcAlias": "",
        "closeTreeLeafDither": true,
        "PHGBNNGCJKJ": "",
        "NFILMKCFHEB": "",
        "BGPNGHDAECF": ""
      },
      {
        "$type": "EDCHPJLDKIN",
        "type": "BODY_LANG",
        "aliasList": [
          "1005"
        ],
        "actionId": 250,
        "isContinue": true,
        "forceDoFreeStyle": true,
        "canDoRepeatFreeStyle": false,
        "cantBackToIdleWhenSitLoop": true,
        "eventPatternSuiteKey": ""
      },
      {
        "$type": "MJFAIFFAGOF",
        "type": "DIALOG",
        "aliasList": [
          "13588"
        ],
        "actionId": 115,
        "dialogID": 140062405,
        "protectTime": 0.5
      },
      {
        "$type": "ICHLNKHGCAG",
        "type": "EMO_SYNC",
        "aliasList": [
          "13588"
        ],
        "actionId": 154,
        "_flag": 256,
        "dataPath": "Cs_Emo_Avatar_Simple_Common_Set/Cs_Emo_Avatar_Talk/Cs_Emo_Avatar_PersonalLine/Cs_Emo_Avatar_Wriothesley/Cs_Emo_140062405",
        "phonemePath": "",
        "emotionPath": "",
        "mateDataPath": "",
        "matePhonemePath": "",
        "mateEmotionPath": "",
        "dataPathHashList": [
          8549888294980407982,
          7933376155809108634,
          154908823945176588,
          12526553279498730668
        ],
        "PACNIGOOENN": "",
        "PIBDNPHIAGC": ""
      },
      {
        "$type": "MoleMole.Config.ConfigSetArmAction",
        "type": "SET_NPC_ARM",
        "aliasList": [
          "13588"
        ],
        "actionId": 255,
        "_enable": true,
        "rightArmHor": 0.05999999865889549,
        "_enableForearm": true,
        "blendType": "EaseOutCubic"
      },
      {
        "$type": "HGDDIPABPCA",
        "type": "LOOK_AT_EYECTRL",
        "aliasList": [
          "13588"
        ],
        "actionId": 314,
        "_flag": 576,
        "useTargetPos": false,
        "eyeRotateVecLeft": {
          "z": -3.0
        },
        "eyeRotateVecRight": {
          "z": -3.0
        },
        "eyeScaleX": 0.800000011920929,
        "eyeScaleZ": 0.800000011920929,
        "turnTime": 0.20000000298023224,
        "targetNpcAlias": "",
        "targetPoint": "Face"
      },
      {
        "$type": "EFHODGEJOHJ",
        "type": "CAMERA_MOVE",
        "delayTime": 0.10000000149011612,
        "duration": 6.791999816894531,
        "actionId": 253,
        "camPosOffset": {
          "x": 783.6929931640625,
          "y": 26.45599937438965,
          "z": 403.19500732421875
        },
        "camForwardTargetOffset": {
          "x": 784.6729736328125,
          "y": 26.39699935913086,
          "z": 403.385009765625
        },
        "camFov": 25.0,
        "cameraBlendType": "EaseOutQuad",
        "MDKBPBJCMHH": {},
        "needZAxisRotate": true,
        "rotateAngle": 359.989990234375,
        "openCameraDither": false,
        "targetNpcAlias": "",
        "closeTreeLeafDither": true,
        "PHGBNNGCJKJ": "",
        "NFILMKCFHEB": "",
        "BGPNGHDAECF": ""
      }
    ],
    [
      {
        "$type": "EFHODGEJOHJ",
        "type": "CAMERA_MOVE",
        "duration": 0.5,
        "actionId": 254,
        "camPosOffset": {
          "x": 787.5029907226562,
          "y": 27.27899932861328,
          "z": 401.4960021972656
        },
        "camForwardTargetOffset": {
          "x": 786.7789916992188,
          "y": 27.018999099731445,
          "z": 402.135986328125
        },
        "camFov": 25.0,
        "lerpPattern": 6,
        "cameraBlendType": "EaseInOutCubic",
        "MDKBPBJCMHH": {},
        "needZAxisRotate": true,
        "rotateAngle": 359.989013671875,
        "openCameraDither": false,
        "targetNpcAlias": "",
        "closeTreeLeafDither": true,
        "PHGBNNGCJKJ": "",
        "NFILMKCFHEB": "",
        "BGPNGHDAECF": ""
      },
      {
        "$type": "MJFAIFFAGOF",
        "type": "DIALOG",
        "aliasList": [
          "13588"
        ],
        "actionId": 117,
        "dialogID": 140062406,
        "protectTime": 0.5
      },
      {
        "$type": "ICHLNKHGCAG",
        "type": "EMO_SYNC",
        "aliasList": [
          "13588"
        ],
        "actionId": 155,
        "_flag": 320,
        "dataPath": "Cs_Emo_Avatar_Simple_Common_Set/Cs_Emo_Avatar_Talk/Cs_Emo_Avatar_PersonalLine/Cs_Emo_Avatar_Wriothesley/Cs_Emo_140062406",
        "phonemePath": "",
        "emotionPath": "",
        "mateDataPath": "",
        "matePhonemePath": "",
        "mateEmotionPath": "",
        "dataPathHashList": [
          11368399146766904138,
          13002207052808723860,
          4004528907713446724,
          5205130571368585600
        ],
        "PACNIGOOENN": "",
        "PIBDNPHIAGC": ""
      },
      {
        "$type": "EFHODGEJOHJ",
        "type": "CAMERA_MOVE",
        "delayTime": 0.10000000149011612,
        "duration": 6.5329999923706055,
        "actionId": 256,
        "camPosOffset": {
          "x": 787.5250244140625,
          "y": 27.27899932861328,
          "z": 401.52099609375
        },
        "camForwardTargetOffset": {
          "x": 786.802001953125,
          "y": 27.018999099731445,
          "z": 402.1610107421875
        },
        "camFov": 25.0,
        "cameraBlendType": "EaseOutQuad",
        "MDKBPBJCMHH": {},
        "needZAxisRotate": true,
        "rotateAngle": 359.989013671875,
        "openCameraDither": false,
        "targetNpcAlias": "",
        "closeTreeLeafDither": true,
        "PHGBNNGCJKJ": "",
        "NFILMKCFHEB": "",
        "BGPNGHDAECF": ""
      }
    ],
    [
      {
        "$type": "EFHODGEJOHJ",
        "type": "CAMERA_MOVE",
        "duration": 0.5,
        "actionId": 257,
        "camPosOffset": {
          "x": 785.572021484375,
          "y": 26.836999893188477,
          "z": 402.0929870605469
        },
        "camForwardTargetOffset": {
          "x": 786.5360107421875,
          "y": 26.975000381469727,
          "z": 402.3190002441406
        },
        "camFov": 25.0,
        "lerpPattern": 6,
        "cameraBlendType": "EaseInOutCubic",
        "MDKBPBJCMHH": {},
        "needZAxisRotate": true,
        "rotateAngle": 359.989990234375,
        "openCameraDither": false,
        "targetNpcAlias": "",
        "closeTreeLeafDither": true,
        "PHGBNNGCJKJ": "",
        "NFILMKCFHEB": "",
        "BGPNGHDAECF": ""
      },
      {
        "$type": "MJFAIFFAGOF",
        "type": "DIALOG",
        "aliasList": [
          "1005"
        ],
        "actionId": 119,
        "dialogID": 140062407,
        "protectTime": 0.5
      },
      {
        "$type": "ICHLNKHGCAG",
        "type": "EMO_SYNC",
        "aliasList": [
          "1005"
        ],
        "actionId": 152,
        "_flag": 320,
        "dataPath": "Cs_Emo_Avatar_Simple_Common_Set/Cs_Emo_Avatar_Talk/Cs_Emo_Avatar_PersonalLine/Cs_Emo_Avatar_Wriothesley/Cs_Emo_140062407",
        "phonemePath": "",
        "emotionPath": "",
        "mateDataPath": "",
        "matePhonemePath": "",
        "mateEmotionPath": "",
        "dataPathHashList": [
          7122115276170060940,
          13954779517768655921,
          2526370480236087400,
          6364703641892111823
        ],
        "PACNIGOOENN": "",
        "PIBDNPHIAGC": ""
      },
      {
        "$type": "EDCHPJLDKIN",
        "type": "BODY_LANG",
        "aliasList": [
          "1005"
        ],
        "actionId": 258,
        "bodyLangParam": 1150,
        "forceDoFreeStyle": true,
        "canDoRepeatFreeStyle": false,
        "cantBackToIdleWhenSitLoop": true,
        "eventPatternSuiteKey": ""
      },
      {
        "$type": "EFHODGEJOHJ",
        "type": "CAMERA_MOVE",
        "delayTime": 0.10000000149011612,
        "duration": 7.775000095367432,
        "actionId": 260,
        "camPosOffset": {
          "x": 785.72900390625,
          "y": 26.860000610351562,
          "z": 402.1300048828125
        },
        "camForwardTargetOffset": {
          "x": 786.6929931640625,
          "y": 26.99799919128418,
          "z": 402.3559875488281
        },
        "camFov": 25.0,
        "cameraBlendType": "EaseOutQuad",
        "MDKBPBJCMHH": {},
        "needZAxisRotate": true,
        "rotateAngle": 359.989990234375,
        "openCameraDither": false,
        "targetNpcAlias": "",
        "closeTreeLeafDither": true,
        "PHGBNNGCJKJ": "",
        "NFILMKCFHEB": "",
        "BGPNGHDAECF": ""
      },
      {
        "$type": "EDCHPJLDKIN",
        "type": "BODY_LANG",
        "delayTime": 2.0230000019073486,
        "aliasList": [
          "1005"
        ],
        "actionId": 259,
        "bodyLangParam": 1130,
        "forceDoFreeStyle": true,
        "canDoRepeatFreeStyle": false,
        "cantBackToIdleWhenSitLoop": true,
        "eventPatternSuiteKey": ""
      }
    ],
    [
      {
        "$type": "EFHODGEJOHJ",
        "type": "CAMERA_MOVE",
        "duration": 0.5,
        "actionId": 261,
        "camPosOffset": {
          "x": 786.75,
          "y": 27.111000061035156,
          "z": 402.6990051269531
        },
        "camForwardTargetOffset": {
          "x": 787.6859741210938,
          "y": 27.3439998626709,
          "z": 402.9630126953125
        },
        "camFov": 20.0,
        "lerpPattern": 6,
        "cameraBlendType": "EaseInOutCubic",
        "MDKBPBJCMHH": {},
        "needZAxisRotate": true,
        "rotateAngle": 359.989013671875,
        "openCameraDither": false,
        "targetNpcAlias": "",
        "closeTreeLeafDither": true,
        "PHGBNNGCJKJ": "",
        "NFILMKCFHEB": "",
        "BGPNGHDAECF": ""
      },
      {
        "$type": "MoleMole.Config.ConfigTeleportToAction",
        "type": "TELEPORT_TO",
        "aliasList": [
          "Avatar"
        ],
        "actionId": 293,
        "position": {
          "x": 787.8259887695312,
          "y": 25.746000289916992,
          "z": 401.5719909667969
        },
        "forward": {
          "x": -0.8980000019073486,
          "z": 0.4399999976158142
        },
        "openLongDisTeleport": true,
        "syncForward": true,
        "_posBindMovingTargetKey": "",
        "_forwardBindMovingTargetKey": ""
      },
      {
        "$type": "MoleMole.Config.ConfigTeleportToAction",
        "type": "TELEPORT_TO",
        "aliasList": [
          "AvatarNpc"
        ],
        "actionId": 269,
        "position": {
          "x": 787.8259887695312,
          "y": 25.746000289916992,
          "z": 401.5719909667969
        },
        "forward": {
          "x": -0.8980000019073486,
          "z": 0.4399999976158142
        },
        "openLongDisTeleport": true,
        "syncForward": true,
        "_posBindMovingTargetKey": "",
        "_forwardBindMovingTargetKey": ""
      },
      {
        "$type": "MJFAIFFAGOF",
        "type": "DIALOG",
        "aliasList": [
          "1078"
        ],
        "actionId": 121,
        "dialogID": 140062408,
        "protectTime": 0.5
      },
      {
        "$type": "ICHLNKHGCAG",
        "type": "EMO_SYNC",
        "aliasList": [
          "1078"
        ],
        "actionId": 148,
        "_flag": 256,
        "dataPath": "Cs_Emo_Avatar_Simple_Common_Set/Cs_Emo_Avatar_Talk/Cs_Emo_Avatar_PersonalLine/Cs_Emo_Avatar_Wriothesley/Cs_Emo_140062408",
        "phonemePath": "",
        "emotionPath": "",
        "mateDataPath": "",
        "matePhonemePath": "",
        "mateEmotionPath": "",
        "dataPathHashList": [
          831047686451067891,
          15326415513845557943,
          12232237138969568434,
          10641386745126238454
        ],
        "PACNIGOOENN": "",
        "PIBDNPHIAGC": ""
      },
      {
        "$type": "EDCHPJLDKIN",
        "type": "BODY_LANG",
        "aliasList": [
          "1078"
        ],
        "actionId": 262,
        "bodyLangParam": 1230,
        "forceDoFreeStyle": true,
        "canDoRepeatFreeStyle": false,
        "cantBackToIdleWhenSitLoop": true,
        "eventPatternSuiteKey": ""
      },
      {
        "$type": "MoleMole.Config.ConfigTeleportToAction",
        "type": "TELEPORT_TO",
        "aliasList": [
          "1078"
        ],
        "actionId": 270,
        "position": {
          "x": 787.833984375,
          "y": 25.729999542236328,
          "z": 402.9939880371094
        },
        "forward": {
          "x": -0.9940000176429749,
          "z": -0.1080000028014183
        },
        "openLongDisTeleport": true,
        "syncForward": true,
        "_posBindMovingTargetKey": "",
        "_forwardBindMovingTargetKey": ""
      },
      {
        "$type": "MoleMole.Config.ConfigTeleportToAction",
        "type": "TELEPORT_TO",
        "aliasList": [
          "1005"
        ],
        "actionId": 271,
        "position": {
          "x": 786.9190063476562,
          "y": 25.729999542236328,
          "z": 402.25
        },
        "forward": {
          "x": -0.9890000224113464,
          "z": 0.1509999930858612
        },
        "openLongDisTeleport": true,
        "syncForward": true,
        "_posBindMovingTargetKey": "",
        "_forwardBindMovingTargetKey": ""
      },
      {
        "$type": "EDCHPJLDKIN",
        "type": "BODY_LANG",
        "delayTime": 0.00800000037997961,
        "aliasList": [
          "1005"
        ],
        "actionId": 264,
        "isContinue": true,
        "forceDoFreeStyle": true,
        "canDoRepeatFreeStyle": false,
        "cantBackToIdleWhenSitLoop": true,
        "eventPatternSuiteKey": ""
      },
      {
        "$type": "EFHODGEJOHJ",
        "type": "CAMERA_MOVE",
        "delayTime": 0.10000000149011612,
        "duration": 8.824999809265137,
        "actionId": 263,
        "camPosOffset": {
          "x": 786.7689819335938,
          "y": 27.111000061035156,
          "z": 402.63299560546875
        },
        "camForwardTargetOffset": {
          "x": 787.7050170898438,
          "y": 27.3439998626709,
          "z": 402.89801025390625
        },
        "camFov": 20.0,
        "cameraBlendType": "EaseOutQuad",
        "MDKBPBJCMHH": {},
        "needZAxisRotate": true,
        "rotateAngle": 359.989013671875,
        "openCameraDither": false,
        "targetNpcAlias": "",
        "closeTreeLeafDither": true,
        "PHGBNNGCJKJ": "",
        "NFILMKCFHEB": "",
        "BGPNGHDAECF": ""
      }
    ],
    [
      {
        "$type": "EFHODGEJOHJ",
        "type": "CAMERA_MOVE",
        "duration": 0.5,
        "actionId": 265,
        "camPosOffset": {
          "x": 786.60302734375,
          "y": 27.179000854492188,
          "z": 400.0480041503906
        },
        "camForwardTargetOffset": {
          "x": 786.9760131835938,
          "y": 27.107999801635742,
          "z": 400.9739990234375
        },
        "camFov": 30.0,
        "lerpPattern": 6,
        "cameraBlendType": "EaseInOutCubic",
        "MDKBPBJCMHH": {},
        "needZAxisRotate": true,
        "rotateAngle": 359.989990234375,
        "openCameraDither": false,
        "targetNpcAlias": "",
        "closeTreeLeafDither": true,
        "PHGBNNGCJKJ": "",
        "NFILMKCFHEB": "",
        "BGPNGHDAECF": ""
      },
      {
        "$type": "MJFAIFFAGOF",
        "type": "DIALOG",
        "aliasList": [
          "1078"
        ],
        "actionId": 123,
        "dialogID": 140062409,
        "protectTime": 2.9000000953674316
      },
      {
        "$type": "ICHLNKHGCAG",
        "type": "EMO_SYNC",
        "aliasList": [
          "1078"
        ],
        "actionId": 149,
        "_flag": 320,
        "dataPath": "Cs_Emo_Avatar_Simple_Common_Set/Cs_Emo_Avatar_Talk/Cs_Emo_Avatar_PersonalLine/Cs_Emo_Avatar_Wriothesley/Cs_Emo_140062409",
        "phonemePath": "",
        "emotionPath": "",
        "mateDataPath": "",
        "matePhonemePath": "",
        "mateEmotionPath": "",
        "dataPathHashList": [
          13451962907375362196,
          2184852291843531810,
          7648697092514751034,
          5011227894065694930
        ],
        "PACNIGOOENN": "",
        "PIBDNPHIAGC": ""
      },
      {
        "$type": "IEKHMHNHENB",
        "type": "STEER_TO",
        "duration": 1.0,
        "aliasList": [
          "1078"
        ],
        "actionId": 266,
        "_flag": 32,
        "steerType": "ABSOLUTE",
        "steerDir": {
          "x": 787.614013671875,
          "y": 25.732999801635742,
          "z": 401.90301513671875
        },
        "useSteerAnim": true,
        "interruptFreestyle": true,
        "forceSteer": true,
        "targetNpcAlias": "",
        "ignoreY": true,
        "fixInterNull": true,
        "BHGPHGNFCBF": ""
      },
      {
        "$type": "NPCNMEOCADD",
        "type": "LOOK_AT",
        "aliasList": [
          "1078"
        ],
        "actionId": 272,
        "_flag": 64,
        "enableHead": true,
        "headTurnTime": 0.5,
        "targetNpcAlias": "AvatarNpc",
        "targetNpcRotateVecPlus": {
          "x": 47.992000579833984,
          "y": 6.36299991607666
        },
        "openBackProtect": true,
        "backProtectAngle": 10.0,
        "targetNpcLookAtPoint": "",
        "BHGPHGNFCBF": ""
      },
      {
        "$type": "EFHODGEJOHJ",
        "type": "CAMERA_MOVE",
        "delayTime": 0.10000000149011612,
        "duration": 10.032999992370605,
        "actionId": 275,
        "camPosOffset": {
          "x": 786.6589965820312,
          "y": 27.167999267578125,
          "z": 400.18701171875
        },
        "camForwardTargetOffset": {
          "x": 787.031982421875,
          "y": 27.097000122070312,
          "z": 401.11199951171875
        },
        "camFov": 30.0,
        "cameraBlendType": "EaseOutQuad",
        "MDKBPBJCMHH": {},
        "needZAxisRotate": true,
        "rotateAngle": 359.989990234375,
        "openCameraDither": false,
        "targetNpcAlias": "",
        "closeTreeLeafDither": true,
        "PHGBNNGCJKJ": "",
        "NFILMKCFHEB": "",
        "BGPNGHDAECF": ""
      },
      {
        "$type": "IEKHMHNHENB",
        "type": "STEER_TO",
        "delayTime": 0.3140000104904175,
        "duration": 1.0,
        "aliasList": [
          "AvatarNpc"
        ],
        "actionId": 267,
        "_flag": 32,
        "steerType": "ABSOLUTE",
        "steerDir": {
          "x": 787.77001953125,
          "y": 25.729999542236328,
          "z": 402.5769958496094
        },
        "useSteerAnim": true,
        "interruptFreestyle": true,
        "forceSteer": true,
        "targetNpcAlias": "",
        "ignoreY": true,
        "fixInterNull": true,
        "BHGPHGNFCBF": ""
      },
      {
        "$type": "NPCNMEOCADD",
        "type": "LOOK_AT",
        "delayTime": 0.3310000002384186,
        "aliasList": [
          "AvatarNpc"
        ],
        "actionId": 276,
        "_flag": 64,
        "enableHead": true,
        "headTurnTime": 0.5,
        "targetNpcAlias": "1078",
        "targetNpcRotateVecPlus": {
          "x": 359.9809875488281,
          "y": 355.4739990234375
        },
        "openBackProtect": true,
        "backProtectAngle": 10.0,
        "targetNpcLookAtPoint": "",
        "BHGPHGNFCBF": ""
      },
      {
        "$type": "NPCNMEOCADD",
        "type": "LOOK_AT",
        "delayTime": 0.7059999704360962,
        "aliasList": [
          "1005"
        ],
        "actionId": 274,
        "_flag": 64,
        "enableHead": true,
        "headTurnTime": 0.5,
        "targetNpcAlias": "1078",
        "targetNpcRotateVecPlus": {
          "x": 359.9809875488281,
          "y": 355.4739990234375
        },
        "openBackProtect": true,
        "backProtectAngle": 10.0,
        "targetNpcLookAtPoint": "",
        "BHGPHGNFCBF": ""
      },
      {
        "$type": "IEKHMHNHENB",
        "type": "STEER_TO",
        "delayTime": 0.7059999704360962,
        "duration": 1.0,
        "aliasList": [
          "1005"
        ],
        "actionId": 268,
        "_flag": 32,
        "steerType": "ABSOLUTE",
        "steerDir": {
          "x": 787.7059936523438,
          "y": 25.729999542236328,
          "z": 402.8190002441406
        },
        "useSteerAnim": true,
        "interruptFreestyle": true,
        "forceSteer": true,
        "targetNpcAlias": "",
        "ignoreY": true,
        "fixInterNull": true,
        "BHGPHGNFCBF": ""
      },
      {
        "$type": "EDCHPJLDKIN",
        "type": "BODY_LANG",
        "delayTime": 2.75600004196167,
        "aliasList": [
          "1078"
        ],
        "actionId": 278,
        "bodyLangParam": 1172,
        "forceDoFreeStyle": true,
        "canDoRepeatFreeStyle": false,
        "cantBackToIdleWhenSitLoop": true,
        "eventPatternSuiteKey": ""
      },
      {
        "$type": "OBCDECFOOBC",
        "type": "DIALOG_SELECT",
        "delayTime": 2.799999952316284,
        "aliasList": [
          "AvatarNpc"
        ],
        "actionId": 138,
        "dialogIDList": [
          140062410
        ],
        "grpIDList": [
          1918584381
        ],
        "useGrpId": true,
        "countDownGrpId": 2278647130
      },
      {
        "$type": "NPCNMEOCADD",
        "type": "LOOK_AT",
        "delayTime": 2.799999952316284,
        "aliasList": [
          "1078"
        ],
        "actionId": 277,
        "_flag": 64,
        "enableHead": true,
        "headTurnTime": 0.5,
        "targetNpcAlias": "AvatarNpc",
        "targetNpcRotateVecPlus": {
          "x": 0.004999999888241291,
          "y": 359.2349853515625
        },
        "openBackProtect": true,
        "backProtectAngle": 10.0,
        "targetNpcLookAtPoint": "",
        "BHGPHGNFCBF": ""
      },
      {
        "$type": "EDCHPJLDKIN",
        "type": "BODY_LANG",
        "delayTime": 3.0390000343322754,
        "aliasList": [
          "AvatarNpc"
        ],
        "actionId": 279,
        "bodyLangParam": 4030,
        "forceDoFreeStyle": true,
        "canDoRepeatFreeStyle": false,
        "cantBackToIdleWhenSitLoop": true,
        "eventPatternSuiteKey": ""
      },
      {
        "$type": "EDCHPJLDKIN",
        "type": "BODY_LANG",
        "delayTime": 5.080999851226807,
        "aliasList": [
          "AvatarNpc"
        ],
        "actionId": 280,
        "bodyLangParam": 1172,
        "forceDoFreeStyle": true,
        "canDoRepeatFreeStyle": false,
        "cantBackToIdleWhenSitLoop": true,
        "eventPatternSuiteKey": ""
      }
    ],
    [
      {
        "$type": "EFHODGEJOHJ",
        "type": "CAMERA_MOVE",
        "duration": 0.5,
        "actionId": 281,
        "camPosOffset": {
          "x": 788.906982421875,
          "y": 27.288999557495117,
          "z": 402.2040100097656
        },
        "camForwardTargetOffset": {
          "x": 787.97802734375,
          "y": 27.128999710083008,
          "z": 401.8710021972656
        },
        "camFov": 30.0,
        "lerpPattern": 6,
        "cameraBlendType": "EaseInOutCubic",
        "MDKBPBJCMHH": {},
        "needZAxisRotate": true,
        "rotateAngle": 359.989990234375,
        "openCameraDither": false,
        "targetNpcAlias": "",
        "closeTreeLeafDither": true,
        "PHGBNNGCJKJ": "",
        "NFILMKCFHEB": "",
        "BGPNGHDAECF": ""
      },
      {
        "$type": "NPCNMEOCADD",
        "type": "LOOK_AT",
        "aliasList": [
          "1078"
        ],
        "actionId": 285,
        "_flag": 64,
        "enableHead": true,
        "headTurnTime": 0.5,
        "targetNpcAlias": "AvatarNpc",
        "targetNpcRotateVecPlus": {
          "x": 0.004999999888241291,
          "y": 359.2349853515625
        },
        "openBackProtect": true,
        "backProtectAngle": 10.0,
        "targetNpcLookAtPoint": "",
        "BHGPHGNFCBF": ""
      },
      {
        "$type": "MJFAIFFAGOF",
        "type": "DIALOG",
        "aliasList": [
          "1005"
        ],
        "actionId": 126,
        "dialogID": 140062411,
        "protectTime": 0.5
      },
      {
        "$type": "ICHLNKHGCAG",
        "type": "EMO_SYNC",
        "aliasList": [
          "1005"
        ],
        "actionId": 153,
        "_flag": 320,
        "dataPath": "Cs_Emo_Avatar_Simple_Common_Set/Cs_Emo_Avatar_Talk/Cs_Emo_Avatar_PersonalLine/Cs_Emo_Avatar_Wriothesley/Cs_Emo_140062411",
        "phonemePath": "",
        "emotionPath": "",
        "mateDataPath": "",
        "matePhonemePath": "",
        "mateEmotionPath": "",
        "dataPathHashList": [
          18090383520808205086,
          2719267700518686683,
          5854643605316547625,
          3533140488050660007
        ],
        "PACNIGOOENN": "",
        "PIBDNPHIAGC": ""
      },
      {
        "$type": "MoleMole.Config.ConfigTeleportToAction",
        "type": "TELEPORT_TO",
        "aliasList": [
          "1005"
        ],
        "actionId": 282,
        "position": {
          "x": 787.1099853515625,
          "y": 25.729999542236328,
          "z": 401.9519958496094
        },
        "forward": {
          "x": 0.8100000023841858,
          "z": 0.5860000252723694
        },
        "openLongDisTeleport": true,
        "syncForward": true,
        "_posBindMovingTargetKey": "",
        "_forwardBindMovingTargetKey": ""
      },
      {
        "$type": "EDCHPJLDKIN",
        "type": "BODY_LANG",
        "aliasList": [
          "1005"
        ],
        "actionId": 283,
        "bodyLangParam": 1270,
        "forceDoFreeStyle": true,
        "canDoRepeatFreeStyle": false,
        "cantBackToIdleWhenSitLoop": true,
        "eventPatternSuiteKey": ""
      },
      {
        "$type": "NPCNMEOCADD",
        "type": "LOOK_AT",
        "aliasList": [
          "1005"
        ],
        "actionId": 288,
        "_flag": 64,
        "enableHead": true,
        "headTurnTime": 0.5,
        "targetNpcAlias": "1078",
        "targetNpcRotateVecPlus": {
          "x": 2.490999937057495,
          "y": 352.9739990234375
        },
        "openBackProtect": true,
        "backProtectAngle": 10.0,
        "targetNpcLookAtPoint": "",
        "BHGPHGNFCBF": ""
      },
      {
        "$type": "EFHODGEJOHJ",
        "type": "CAMERA_MOVE",
        "delayTime": 0.10000000149011612,
        "duration": 6.767000198364258,
        "actionId": 289,
        "camPosOffset": {
          "x": 788.8579711914062,
          "y": 27.2810001373291,
          "z": 402.18701171875
        },
        "camForwardTargetOffset": {
          "x": 787.9290161132812,
          "y": 27.1200008392334,
          "z": 401.85400390625
        },
        "camFov": 30.0,
        "cameraBlendType": "EaseOutQuad",
        "MDKBPBJCMHH": {},
        "needZAxisRotate": true,
        "rotateAngle": 359.989990234375,
        "openCameraDither": false,
        "targetNpcAlias": "",
        "closeTreeLeafDither": true,
        "PHGBNNGCJKJ": "",
        "NFILMKCFHEB": "",
        "BGPNGHDAECF": ""
      },
      {
        "$type": "NPCNMEOCADD",
        "type": "LOOK_AT",
        "delayTime": 1.475000023841858,
        "aliasList": [
          "1005"
        ],
        "actionId": 284,
        "_flag": 64,
        "enableHead": true,
        "headTurnTime": 0.5,
        "targetNpcAlias": "AvatarNpc",
        "targetNpcRotateVecPlus": {
          "x": 358.6969909667969,
          "y": 348.9110107421875
        },
        "openBackProtect": true,
        "backProtectAngle": 10.0,
        "targetNpcLookAtPoint": "",
        "BHGPHGNFCBF": ""
      },
      {
        "$type": "NPCNMEOCADD",
        "type": "LOOK_AT",
        "delayTime": 1.5420000553131104,
        "aliasList": [
          "AvatarNpc"
        ],
        "actionId": 286,
        "_flag": 64,
        "enableHead": true,
        "useTargetPos": true,
        "enableAbsolute": true,
        "targetPosition": {
          "x": 787.6519775390625,
          "y": 27.131999969482422,
          "z": 401.7770080566406
        },
        "headTurnTime": 0.5,
        "targetNpcAlias": "",
        "lookAtTargetType": "NONE",
        "openBackProtect": true,
        "backProtectAngle": 10.0,
        "targetNpcLookAtPoint": "",
        "BHGPHGNFCBF": ""
      },
      {
        "$type": "EDCHPJLDKIN",
        "type": "BODY_LANG",
        "delayTime": 2.382999897003174,
        "aliasList": [
          "AvatarNpc"
        ],
        "actionId": 287,
        "bodyLangParam": 4030,
        "forceDoFreeStyle": true,
        "canDoRepeatFreeStyle": false,
        "cantBackToIdleWhenSitLoop": true,
        "eventPatternSuiteKey": ""
      }
    ],
    [
      {
        "$type": "MoleMole.Config.ConfigTimeProtectAction",
        "type": "TIME_PROTECT",
        "duration": 0.10000000149011612,
        "actionId": 105
      },
      {
        "$type": "MoleMole.Config.ConfigSimpleBlackScreenAction",
        "type": "SIMPLE_BLACK_SCREEN",
        "actionId": 127,
        "durationToBlack": 0.5,
        "durationKeepBlack": 1.5,
        "durationFromBlack": 0.5,
        "textMapID": ""
      },
      {
        "$type": "MoleMole.Config.ConfigTimeProtectAction",
        "type": "TIME_PROTECT",
        "duration": 0.699999988079071,
        "actionId": 128
      },
      {
        "$type": "EFHODGEJOHJ",
        "type": "CAMERA_MOVE",
        "delayTime": 0.5,
        "duration": 0.10000000149011612,
        "actionId": 137,
        "cameraPosType": "EXIT",
        "camForwardTargetOffset": {
          "z": 1.0
        },
        "camFov": 30.0,
        "lerpPattern": 5,
        "cameraBlendType": "EaseInOutCubic",
        "MDKBPBJCMHH": {},
        "openCameraDither": false,
        "targetNpcAlias": "",
        "closeTreeLeafDither": true,
        "PHGBNNGCJKJ": "",
        "NFILMKCFHEB": "",
        "BGPNGHDAECF": ""
      },
      {
        "$type": "MoleMole.Config.ConfigVisibleInterAction",
        "type": "VISIBLE",
        "delayTime": 0.6000000238418579,
        "aliasList": [
          "Avatar"
        ],
        "actionId": 143,
        "isVisible": true,
        "_extraParam": ""
      },
      {
        "$type": "EDCHPJLDKIN",
        "type": "BODY_LANG",
        "delayTime": 0.6000000238418579,
        "aliasList": [
          "AvatarNpc"
        ],
        "actionId": 142,
        "isContinue": true,
        "forceDoFreeStyle": true,
        "canDoRepeatFreeStyle": false,
        "eventPatternSuiteKey": ""
      },
      {
        "$type": "MoleMole.Config.ConfigVisibleInterAction",
        "type": "VISIBLE",
        "delayTime": 0.6000000238418579,
        "aliasList": [
          "AvatarNpc"
        ],
        "actionId": 315,
        "_extraParam": ""
      },
      {
        "$type": "EDCHPJLDKIN",
        "type": "BODY_LANG",
        "delayTime": 0.6000000238418579,
        "aliasList": [
          "1078"
        ],
        "actionId": 130,
        "isContinue": true,
        "forceDoFreeStyle": true,
        "canDoRepeatFreeStyle": false,
        "eventPatternSuiteKey": ""
      },
      {
        "$type": "EDCHPJLDKIN",
        "type": "BODY_LANG",
        "delayTime": 0.6000000238418579,
        "aliasList": [
          "1005"
        ],
        "actionId": 132,
        "isContinue": true,
        "forceDoFreeStyle": true,
        "canDoRepeatFreeStyle": false,
        "eventPatternSuiteKey": ""
      },
      {
        "$type": "EDCHPJLDKIN",
        "type": "BODY_LANG",
        "delayTime": 0.6000000238418579,
        "aliasList": [
          "13588"
        ],
        "actionId": 134,
        "isContinue": true,
        "forceDoFreeStyle": true,
        "canDoRepeatFreeStyle": false,
        "eventPatternSuiteKey": ""
      }
    ]
  ],
  "groupId": [
    {
      "grpId": 2278647131,
      "nextGrpId": 2278647132
    },
    {
      "index": 1,
      "grpId": 2278647132,
      "nextGrpId": 2278647133
    },
    {
      "index": 2,
      "grpId": 2278647133,
      "nextGrpId": 2278647134
    },
    {
      "index": 3,
      "grpId": 2278647134,
      "nextGrpId": 2278647135
    },
    {
      "index": 4,
      "grpId": 2278647135,
      "nextGrpId": 2278647136
    },
    {
      "index": 5,
      "grpId": 2278647136,
      "nextGrpId": 2278647137
    },
    {
      "index": 6,
      "grpId": 2278647137,
      "nextGrpId": 2278647138
    },
    {
      "index": 7,
      "grpId": 2278647138,
      "nextGrpId": 2278647139
    },
    {
      "index": 8,
      "grpId": 2278647139,
      "nextGrpId": 1918584373
    },
    {
      "index": 9,
      "grpId": 1918584373,
      "nextGrpId": 1918584374
    },
    {
      "index": 10,
      "grpId": 1918584374,
      "nextGrpId": 1918584375
    },
    {
      "index": 11,
      "grpId": 1918584375,
      "nextGrpId": 1918584376
    },
    {
      "index": 12,
      "grpId": 1918584376,
      "nextGrpId": 1918584377
    },
    {
      "index": 13,
      "grpId": 1918584377,
      "nextGrpId": 1918584378
    },
    {
      "index": 14,
      "grpId": 1918584378,
      "nextGrpId": 1918584379
    },
    {
      "index": 15,
      "grpId": 1918584379,
      "nextGrpId": 1918584380
    },
    {
      "index": 16,
      "grpId": 1918584380,
      "nextGrpId": 1918584381
    },
    {
      "index": 17,
      "grpId": 1918584381,
      "nextGrpId": 1918584382
    },
    {
      "index": 18,
      "grpId": 1918584382,
      "nextGrpId": 1918584404
    }
  ],
  "freeStyleDic": {
    "1025": [
      4030,
      1172
    ],
    "1026": [
      4030,
      1172
    ],
    "1078": [
      1030,
      1230,
      1172
    ],
    "13588": [
      4190
    ]
  },
  "GHHKLKIGEOD": {
    "AvatarNpc": [
      "SitChat01AS",
      "SitHoldArm01AS",
      "SitShrug01AS",
      "SitThink01AS"
    ],
    "1078": [
      "SitChat01AS",
      "SitHoldArm01AS",
      "SitPutArm01AS",
      "SitRead01AS",
      "SitShrug01AS",
      "SitSpecial02AS",
      "SitThink01AS"
    ],
    "13588": [
      "SitHoldArm01AS",
      "SitPutArm01AS",
      "SitRaiseHand01AS"
    ]
  }
}