[
  {
    "Default": {
      "$type": "MoleMole.Config.GNKCLKNDOAK",
      "abilityName": "ChallengeAbility_DragonSpine_MoveSpeed",
      "LLLCANIGIOE": {
        "MoveSpeedRatio": 0.25
      },
      "BFBDNNJCDLH": {
        "UNIQUE_ChallengeAbility_DragonSpine_MoveSpeed": {
          "EODJPKICNGG": "Unique",
          "modifierName": "",
          "LLIJGLMEHFK": true,
          "elementDurability": 100.0,
          "EPKCPIKGJOJ": {
            "Animator_MoveSpeedRatio": "MoveSpeedRatio"
          },
          "state": "SpeedUp"
        }
      },
      "OAOGLLGGJPD": [
        {
          "$type": "MoleMole.Config.AttachModifier",
          "doOffStage": true,
          "modifierName": "UNIQUE_ChallengeAbility_DragonSpine_MoveSpeed"
        }
      ],
      "LLNGCHGGPLC": true
    }
  },
  {
    "Default": {
      "$type": "MoleMole.Config.GNKCLKNDOAK",
      "abilityName": "ChallengeAbility_DragonSpine_HealHp",
      "LLLCANIGIOE": {
        "BuffDuration": 120.0,
        "HpRatio": 0.10000000149011612
      },
      "BFBDNNJCDLH": {
        "UNIQUE_ChallengeAbility_DragonSpine_HealHp": {
          "EODJPKICNGG": "Unique",
          "modifierName": "",
          "LLIJGLMEHFK": true,
          "duration": "BuffDuration",
          "elementDurability": 100.0,
          "BNJENAIMDPL": 5.0,
          "OAOGLLGGJPD": [
            {
              "$type": "MoleMole.Config.ApplyModifier",
              "MLDBFKEGPEF": "CurLocalAvatar",
              "modifierName": "Heal"
            }
          ],
          "PJKELBNICOI": [
            {
              "$type": "MoleMole.Config.ApplyModifier",
              "MLDBFKEGPEF": "CurLocalAvatar",
              "modifierName": "Heal"
            }
          ]
        },
        "Heal": {
          "EODJPKICNGG": "Multiple",
          "modifierName": "",
          "duration": 0.10000000149011612,
          "elementDurability": 100.0,
          "OAOGLLGGJPD": [
            {
              "$type": "MoleMole.Config.HealHP",
              "LHENKJCLGMH": "HpRatio",
              "FKJDBJEPNPD": ""
            }
          ]
        }
      },
      "OAOGLLGGJPD": [
        {
          "$type": "MoleMole.Config.AttachModifier",
          "MLDBFKEGPEF": "Team",
          "modifierName": "UNIQUE_ChallengeAbility_DragonSpine_HealHp"
        }
      ],
      "LLNGCHGGPLC": true
    }
  },
  {
    "Default": {
      "$type": "MoleMole.Config.GNKCLKNDOAK",
      "abilityName": "ChallengeAbility_DragonSpine_AttackUp",
      "LLLCANIGIOE": {
        "AttackRatio": 0.4000000059604645
      },
      "BFBDNNJCDLH": {
        "UNIQUE_ChallengeAbility_DragonSpine_AttackUp": {
          "EODJPKICNGG": "Unique",
          "modifierName": "",
          "LLIJGLMEHFK": true,
          "elementDurability": 100.0,
          "EPKCPIKGJOJ": {
            "Actor_AttackRatio": "AttackRatio"
          },
          "state": "AttackUp"
        }
      },
      "OAOGLLGGJPD": [
        {
          "$type": "MoleMole.Config.AttachModifier",
          "doOffStage": true,
          "modifierName": "UNIQUE_ChallengeAbility_DragonSpine_AttackUp"
        }
      ],
      "LLNGCHGGPLC": true
    }
  },
  {
    "Default": {
      "$type": "MoleMole.Config.GNKCLKNDOAK",
      "abilityName": "ChallengeAbility_DragonSpine_AttackSpeed",
      "LLLCANIGIOE": {
        "AttackSpeedRatio": 0.25
      },
      "BFBDNNJCDLH": {
        "UNIQUE_ChallengeAbility_DragonSpine_AttackSpeed": {
          "EODJPKICNGG": "Unique",
          "modifierName": "",
          "LLIJGLMEHFK": true,
          "elementDurability": 100.0,
          "EPKCPIKGJOJ": {
            "Animator_AttackSpeedRatio": "AttackSpeedRatio"
          },
          "state": "SpeedUp"
        }
      },
      "OAOGLLGGJPD": [
        {
          "$type": "MoleMole.Config.AttachModifier",
          "doOffStage": true,
          "modifierName": "UNIQUE_ChallengeAbility_DragonSpine_AttackSpeed"
        }
      ],
      "LLNGCHGGPLC": true
    }
  }
]