[
  {
    "Default": {
      "$type": "MoleMole.Config.GNKCLKNDOAK",
      "abilityName": "Oil_Interact",
      "BFBDNNJCDLH": {
        "NormalModifier": {
          "modifierName": "",
          "elementType": "Wood",
          "elementDurability": 5.0,
          "isElementDurabilityMutable": false,
          "onBeingHit": [
            {
              "$type": "MoleMole.Config.ApplyModifier",
              "predicates": [
                {
                  "$type": "MIPKJILPPCP",
                  "NJPOIJLMAFI": "Fire"
                },
                {
                  "$type": "OFEHCLIGCND",
                  "predicates": [
                    {
                      "$type": "KIHJDAIGJPH",
                      "NJPOIJLMAFI": "Fire"
                    }
                  ]
                }
              ],
              "modifierName": "Burning"
            },
            {
              "$type": "MoleMole.Config.ApplyModifier",
              "predicates": [
                {
                  "$type": "MIPKJILPPCP",
                  "NJPOIJLMAFI": "Fire"
                },
                {
                  "$type": "OFEHCLIGCND",
                  "predicates": [
                    {
                      "$type": "KIHJDAIGJPH",
                      "NJPOIJLMAFI": "Fire"
                    }
                  ]
                }
              ],
              "modifierName": "On_Burning"
            }
          ]
        },
        "On_Burning": {
          "modifierName": "",
          "elementDurability": 100.0,
          "MINFJCDAIBB": [
            {
              "$type": "MoleMole.Config.ApplyModifier",
              "modifierName": "Delay"
            },
            {
              "$type": "MoleMole.Config.FireEffect",
              "effectPattern": "Eff_FireBasin_Smoke",
              "born": {
                "$type": "JEDNAGFKIDP",
                "offset": {
                  "GOAPOLCAJBP": 0.0,
                  "FMOPCJGGFMH": 0.0,
                  "EJJEPFCDDAM": 0.0
                },
                "OBNIJLKICKN": "attachPoint"
              },
              "effectTempleteID": -1.0
            }
          ],
          "onBeingHit": [
            {
              "$type": "MoleMole.Config.ApplyModifier",
              "predicates": [
                {
                  "$type": "MIPKJILPPCP",
                  "NJPOIJLMAFI": "Water"
                }
              ],
              "modifierName": "Check_Fire"
            },
            {
              "$type": "MoleMole.Config.ApplyModifier",
              "predicates": [
                {
                  "$type": "MIPKJILPPCP",
                  "NJPOIJLMAFI": "Ice"
                }
              ],
              "modifierName": "Check_Fire"
            }
          ]
        },
        "Check_Fire": {
          "modifierName": "",
          "duration": 0.20000000298023224,
          "elementDurability": 100.0,
          "MINFJCDAIBB": [
            {
              "$type": "MoleMole.Config.RemoveModifier",
              "predicates": [
                {
                  "$type": "OFEHCLIGCND",
                  "predicates": [
                    {
                      "$type": "KIHJDAIGJPH",
                      "NJPOIJLMAFI": "Fire"
                    }
                  ]
                }
              ],
              "modifierName": "On_Burning"
            }
          ]
        },
        "Check_Around": {
          "modifierName": "",
          "duration": 0.20000000298023224,
          "elementDurability": 100.0,
          "OAOGLLGGJPD": [
            {
              "$type": "MoleMole.Config.Predicated",
              "CKBKOCJPJMM": [
                {
                  "$type": "KIHJDAIGJPH",
                  "NJPOIJLMAFI": "Fire"
                }
              ],
              "successActions": [
                {
                  "$type": "MoleMole.Config.DamageByAttackValue",
                  "MLDBFKEGPEF": "Caster",
                  "attackInfo": {
                    "attackTag": "",
                    "attenuationTag": "",
                    "attenuationGroup": "default",
                    "attackProperty": {
                      "JMLMDDCBIAO": 0.10000000149011612,
                      "damagePercentageRatio": 0.0,
                      "elementType": "Fire",
                      "elementDurability": 40.0,
                      "strikeType": "Default",
                      "damagePercentage": 0.0
                    },
                    "hitPattern": {
                      "onHitEffectName": "default",
                      "hitImpulseY": "",
                      "hitImpulseType": "",
                      "overrideHitImpulse": {
                        "hitLevel": "Air",
                        "FJDNLJNBOKO": 0.0,
                        "MAEJMIINMMP": 420.0
                      },
                      "hitHaltTimeScale": 0.009999999776482582
                    }
                  }
                }
              ]
            }
          ]
        },
        "Delay": {
          "modifierName": "",
          "duration": 4.5,
          "elementDurability": 100.0,
          "BNJENAIMDPL": 3.0,
          "PJKELBNICOI": [
            {
              "$type": "MoleMole.Config.ApplyModifier",
              "otherTargets": {
                "$type": "DOMPKGOHKNB",
                "shapeName": "CircleR5",
                "FAMCBLCIFCJ": "SelfCamp",
                "CONEFMBNECE": 1.0
              },
              "modifierName": "Check_Around"
            }
          ]
        },
        "Burning": {
          "modifierName": "",
          "duration": 1.2000000476837158,
          "elementDurability": 100.0,
          "BNJENAIMDPL": 1.0,
          "PJKELBNICOI": [
            {
              "$type": "MoleMole.Config.DamageByAttackValue",
              "otherTargets": {
                "$type": "DOMPKGOHKNB",
                "shapeName": "CircleR5",
                "FAMCBLCIFCJ": "SelfCamp",
                "CONEFMBNECE": 1.0
              },
              "attackInfo": {
                "attackTag": "",
                "attenuationTag": "",
                "attenuationGroup": "default",
                "attackProperty": {
                  "JMLMDDCBIAO": 0.10000000149011612,
                  "damagePercentageRatio": 0.0,
                  "elementType": "Fire",
                  "elementDurability": 40.0,
                  "strikeType": "Default",
                  "damagePercentage": 0.0
                },
                "hitPattern": {
                  "onHitEffectName": "default",
                  "hitImpulseY": "",
                  "hitImpulseType": "",
                  "overrideHitImpulse": {
                    "hitLevel": "Air",
                    "FJDNLJNBOKO": 0.0,
                    "MAEJMIINMMP": 420.0
                  },
                  "hitHaltTimeScale": 0.009999999776482582
                }
              }
            }
          ]
        }
      },
      "OAOGLLGGJPD": [
        {
          "$type": "MoleMole.Config.AttachModifier",
          "modifierName": "NormalModifier"
        }
      ]
    }
  }
]