[
  {
    "Default": {
      "$type": "MoleMole.Config.GNKCLKNDOAK",
      "abilityName": "WaterAmber_Mist",
      "BFBDNNJCDLH": {
        "Mist": {
          "modifierName": "",
          "duration": 25.0,
          "elementDurability": 100.0,
          "BNJENAIMDPL": 0.5,
          "OAOGLLGGJPD": [
            {
              "$type": "MoleMole.Config.AttachEffect",
              "effectPattern": "Eff_Amber_Water_Mist",
              "effectTempleteID": -1.0
            }
          ],
          "PJKELBNICOI": [
            {
              "$type": "MoleMole.Config.ApplyModifier",
              "otherTargets": {
                "$type": "DOMPKGOHKNB",
                "shapeName": "CircleR10",
                "FAMCBLCIFCJ": "All",
                "CONEFMBNECE": 1.0
              },
              "predicates": [
                {
                  "$type": "OFEHCLIGCND",
                  "predicates": [
                    {
                      "$type": "DLLOJMFICPG",
                      "JBEIOINCLFB": [
                        "Equip"
                      ]
                    }
                  ]
                }
              ],
              "modifierName": "SteamBangWet"
            },
            {
              "$type": "MoleMole.Config.ApplyModifier",
              "otherTargets": {
                "$type": "DOMPKGOHKNB",
                "shapeName": "CircleR10",
                "FAMCBLCIFCJ": "All",
                "CONEFMBNECE": 1.0
              },
              "predicates": [
                {
                  "$type": "DLLOJMFICPG",
                  "JBEIOINCLFB": [
                    "MonsterEquip"
                  ]
                }
              ],
              "modifierName": "SteamBangWet"
            }
          ]
        },
        "SteamBangWet": {
          "modifierName": "",
          "duration": 8.0,
          "elementType": "Water",
          "elementDurability": 30.0
        }
      },
      "OAOGLLGGJPD": [
        {
          "$type": "MoleMole.Config.ApplyModifier",
          "modifierName": "Mist"
        }
      ]
    }
  },
  {
    "Default": {
      "$type": "MoleMole.Config.GNKCLKNDOAK",
      "abilityName": "WindAmberField",
      "BFBDNNJCDLH": {
        "WindAmberField": {
          "modifierName": "",
          "duration": 18.5,
          "elementDurability": 100.0,
          "MINFJCDAIBB": [
            {
              "$type": "MoleMole.Config.SetAnimatorBool",
              "KIAGMJMPHPG": "WindField_Die",
              "value": true
            }
          ]
        }
      },
      "OAOGLLGGJPD": [
        {
          "$type": "MoleMole.Config.ApplyModifier",
          "modifierName": "WindAmberField"
        }
      ]
    }
  },
  {
    "Default": {
      "$type": "MoleMole.Config.GNKCLKNDOAK",
      "abilityName": "WindAmberField_02",
      "BFBDNNJCDLH": {
        "WindAmberField": {
          "modifierName": "",
          "duration": 2.0,
          "elementDurability": 100.0,
          "MINFJCDAIBB": [
            {
              "$type": "MoleMole.Config.SetAnimatorBool",
              "KIAGMJMPHPG": "WindField_Die",
              "value": true
            }
          ]
        }
      },
      "OAOGLLGGJPD": [
        {
          "$type": "MoleMole.Config.ApplyModifier",
          "modifierName": "WindAmberField"
        }
      ]
    }
  }
]