[
  {
    "Default": {
      "$type": "MoleMole.Config.GNKCLKNDOAK",
      "abilityName": "DropLight_Interact",
      "PIDAPNFJNDF": [
        {
          "$type": "MoleMole.Config.AttachToGadgetStateMutexMixin",
          "GFILCGCNBGO": [
            0,
            201
          ],
          "NDNJKGCLOPM": [
            [
              "Fire_Off"
            ],
            [
              "Fire_On"
            ]
          ]
        }
      ],
      "BFBDNNJCDLH": {
        "Trigger_Bullet": {
          "modifierName": "",
          "elementDurability": 100.0,
          "OAOGLLGGJPD": [
            {
              "$type": "MoleMole.Config.AttachEffect",
              "effectPattern": "Eff_SceneObj_WoodenObject_Broken",
              "born": {
                "$type": "JEDNAGFKIDP",
                "OBNIJLKICKN": "EffectPoint"
              },
              "effectTempleteID": -1.0
            },
            {
              "$type": "MoleMole.Config.TriggerBullet",
              "DCNFGAGBCMP": 70950002,
              "born": {
                "$type": "JEDNAGFKIDP",
                "OBNIJLKICKN": "ShootPoint"
              }
            },
            {
              "$type": "MoleMole.Config.KillSelf"
            }
          ]
        },
        "Trigger_Bullet02": {
          "modifierName": "",
          "elementDurability": 100.0,
          "OAOGLLGGJPD": [
            {
              "$type": "MoleMole.Config.AttachEffect",
              "effectPattern": "Eff_SceneObj_WoodenObject_Broken",
              "born": {
                "$type": "JEDNAGFKIDP",
                "OBNIJLKICKN": "EffectPoint"
              },
              "effectTempleteID": -1.0
            },
            {
              "$type": "MoleMole.Config.TriggerBullet",
              "DCNFGAGBCMP": 70950003,
              "born": {
                "$type": "JEDNAGFKIDP",
                "OBNIJLKICKN": "ShootPoint"
              }
            },
            {
              "$type": "MoleMole.Config.KillSelf"
            }
          ]
        },
        "Fire_Off": {
          "modifierName": "",
          "elementType": "Wood",
          "elementDurability": 1.0,
          "onBeingHit": [
            {
              "$type": "MoleMole.Config.AttachModifier",
              "predicates": [
                {
                  "$type": "LPLJNLDDHNE",
                  "MAEGDKKBDPK": [
                    "RopeHitbox"
                  ]
                }
              ],
              "modifierName": "Trigger_Bullet02"
            }
          ]
        },
        "Fire_On": {
          "modifierName": "",
          "elementType": "Fire",
          "elementDurability": 1.0,
          "OAOGLLGGJPD": [
            {
              "$type": "MoleMole.Config.AttachModifier",
              "modifierName": "Burning"
            }
          ],
          "MINFJCDAIBB": [
            {
              "$type": "MoleMole.Config.RemoveModifier",
              "modifierName": "Burning"
            }
          ],
          "onBeingHit": [
            {
              "$type": "MoleMole.Config.RemoveModifier",
              "predicates": [
                {
                  "$type": "LPLJNLDDHNE",
                  "MAEGDKKBDPK": [
                    "LightHitBox"
                  ]
                },
                {
                  "$type": "MIPKJILPPCP",
                  "NJPOIJLMAFI": "Wind"
                }
              ],
              "modifierName": "Burning"
            },
            {
              "$type": "MoleMole.Config.AttachModifier",
              "predicates": [
                {
                  "$type": "LPLJNLDDHNE",
                  "MAEGDKKBDPK": [
                    "RopeHitbox"
                  ]
                }
              ],
              "modifierName": "Trigger_Bullet"
            }
          ]
        },
        "Burning": {
          "modifierName": "",
          "elementType": "Fire",
          "elementDurability": 15.0,
          "OAOGLLGGJPD": [
            {
              "$type": "MoleMole.Config.AttachEffect",
              "effectPattern": "Eff_SceneObj_FireBasin_01",
              "effectTempleteID": -1.0
            }
          ]
        }
      }
    }
  },
  {
    "Default": {
      "$type": "MoleMole.Config.GNKCLKNDOAK",
      "abilityName": "DropLight_Bullet",
      "BFBDNNJCDLH": {
        "DropLight_Bullet": {
          "modifierName": "",
          "elementDurability": 100.0,
          "BNJENAIMDPL": 0.05000000074505806,
          "PJKELBNICOI": [
            {
              "$type": "MoleMole.Config.FireEffect",
              "effectPattern": "Eff_SceneObj_BombBarrel_01_Explode",
              "effectTempleteID": -1.0
            }
          ]
        }
      },
      "OAOGLLGGJPD": [
        {
          "$type": "MoleMole.Config.AttachModifier",
          "modifierName": "DropLight_Bullet"
        }
      ]
    }
  },
  {
    "Default": {
      "$type": "MoleMole.Config.GNKCLKNDOAK",
      "abilityName": "DropLight_Crash",
      "BFBDNNJCDLH": {
        "DropLight_Crash": {
          "modifierName": "",
          "elementDurability": 100.0,
          "OAOGLLGGJPD": [
            {
              "$type": "MoleMole.Config.ApplyModifier",
              "MLDBFKEGPEF": "Owner",
              "modifierName": "UnlockIntee"
            },
            {
              "$type": "MoleMole.Config.FireEffect",
              "effectPattern": "Eff_SceneObj_BombBarrel_01_Explode",
              "effectTempleteID": -1.0
            },
            {
              "$type": "MoleMole.Config.TriggerAttackEvent",
              "attackEvent": {
                "attackPattern": {
                  "$type": "IJCIPLFIDAK",
                  "triggerType": "TriggerNoRepeat",
                  "born": {
                    "$type": "KPFCCIOJAMK"
                  },
                  "MFGGJCPPBGA": 2.0
                },
                "attackInfo": {
                  "attackTag": "",
                  "attenuationTag": "",
                  "attenuationGroup": "default",
                  "attackProperty": {
                    "JMLMDDCBIAO": 1.0,
                    "damagePercentageRatio": 0.0,
                    "elementType": "Fire",
                    "elementDurability": 20.0,
                    "strikeType": "Default",
                    "enBreak": 200.0,
                    "damagePercentage": 0.0
                  },
                  "hitPattern": {
                    "onHitEffectName": "default",
                    "hitImpulseY": "",
                    "hitImpulseType": "LV6",
                    "overrideHitImpulse": {
                      "hitLevel": "Air",
                      "FJDNLJNBOKO": 700.0,
                      "MAEJMIINMMP": 400.0
                    },
                    "hitHaltTimeScale": 0.05000000074505806
                  }
                }
              },
              "targetType": "All"
            },
            {
              "$type": "MoleMole.Config.KillSelf"
            }
          ]
        },
        "UnlockIntee": {
          "modifierName": "",
          "elementDurability": 100.0,
          "OAOGLLGGJPD": [
            {
              "$type": "MoleMole.Config.EnableGadgetIntee",
              "enable": true
            },
            {
              "$type": "MoleMole.Config.ExecuteGadgetLua",
              "param1": 1
            }
          ]
        }
      },
      "EIIHGJGFDHC": [
        {
          "$type": "MoleMole.Config.AttachModifier",
          "modifierName": "DropLight_Crash"
        }
      ]
    }
  },
  {
    "Default": {
      "$type": "MoleMole.Config.GNKCLKNDOAK",
      "abilityName": "DropLight_Crash02",
      "BFBDNNJCDLH": {
        "DropLight_Crash": {
          "modifierName": "",
          "elementDurability": 100.0,
          "OAOGLLGGJPD": [
            {
              "$type": "MoleMole.Config.FireEffect",
              "effectPattern": "Eff_SceneObj_WoodenObject_Broken",
              "born": {
                "$type": "INKMBJGOPCK"
              },
              "effectTempleteID": -1.0
            },
            {
              "$type": "MoleMole.Config.TriggerAttackEvent",
              "attackEvent": {
                "attackPattern": {
                  "$type": "IJCIPLFIDAK",
                  "triggerType": "TriggerNoRepeat",
                  "born": {
                    "$type": "KPFCCIOJAMK"
                  },
                  "MFGGJCPPBGA": 0.5
                },
                "attackInfo": {
                  "attackTag": "",
                  "attenuationTag": "",
                  "attenuationGroup": "default",
                  "attackProperty": {
                    "JMLMDDCBIAO": 1.0,
                    "damagePercentageRatio": 0.0,
                    "elementType": "Fire",
                    "elementDurability": 20.0,
                    "strikeType": "Default",
                    "enBreak": 200.0,
                    "damagePercentage": 0.0
                  },
                  "hitPattern": {
                    "onHitEffectName": "default",
                    "hitImpulseY": "",
                    "hitImpulseType": "LV6",
                    "overrideHitImpulse": {
                      "hitLevel": "Air",
                      "FJDNLJNBOKO": 700.0,
                      "MAEJMIINMMP": 400.0
                    },
                    "hitHaltTimeScale": 0.05000000074505806
                  }
                }
              },
              "targetType": "All"
            },
            {
              "$type": "MoleMole.Config.KillSelf"
            }
          ]
        }
      },
      "EIIHGJGFDHC": [
        {
          "$type": "MoleMole.Config.AttachModifier",
          "modifierName": "DropLight_Crash"
        }
      ]
    }
  },
  {
    "Default": {
      "$type": "MoleMole.Config.GNKCLKNDOAK",
      "abilityName": "GearWater_Interact",
      "PIDAPNFJNDF": [
        {
          "$type": "MoleMole.Config.AttachToGadgetStateMixin",
          "modifierName": "Switch_Close"
        },
        {
          "$type": "MoleMole.Config.AttachToGadgetStateMixin",
          "MHKDFIPGJJO": 201,
          "modifierName": "Swtich_Open"
        }
      ],
      "BFBDNNJCDLH": {
        "Switch_Close": {
          "modifierName": "",
          "elementType": "Wood",
          "elementDurability": 1.0
        },
        "Swtich_Open": {
          "modifierName": "",
          "elementType": "Water",
          "elementDurability": 1.0,
          "OAOGLLGGJPD": [
            {
              "$type": "MoleMole.Config.AttachModifier",
              "modifierName": "Burning"
            }
          ],
          "MINFJCDAIBB": [
            {
              "$type": "MoleMole.Config.RemoveModifier",
              "modifierName": "Burning"
            }
          ],
          "onBeingHit": [
            {
              "$type": "MoleMole.Config.RemoveModifier",
              "predicates": [
                {
                  "$type": "MIPKJILPPCP",
                  "NJPOIJLMAFI": "Fire"
                }
              ],
              "modifierName": "Burning"
            }
          ]
        },
        "Burning": {
          "modifierName": "",
          "elementType": "Fire",
          "elementDurability": 15.0,
          "BNJENAIMDPL": 1.0,
          "OAOGLLGGJPD": [
            {
              "$type": "MoleMole.Config.AttachEffect",
              "effectPattern": "Eff_SceneObj_FireBasin_01",
              "effectTempleteID": -1.0
            }
          ],
          "PJKELBNICOI": [
            {
              "$type": "MoleMole.Config.TriggerAttackEvent",
              "doOffStage": true,
              "predicates": [
                {
                  "$type": "IPGGGPIJONN",
                  "key": "_FIRE_GADGET_ATTACK",
                  "value": 1.0
                }
              ],
              "attackEvent": {
                "attackPattern": {
                  "$type": "CKCNJHBMNGJ",
                  "triggerType": "TriggerNoRepeat",
                  "checkHitLayerType": "Both",
                  "born": {
                    "$type": "JEDNAGFKIDP",
                    "offset": {
                      "EJJEPFCDDAM": -0.5
                    },
                    "OBNIJLKICKN": "attachPoint"
                  },
                  "size": {
                    "GOAPOLCAJBP": 1.0,
                    "FMOPCJGGFMH": 1.0,
                    "EJJEPFCDDAM": 1.0
                  }
                },
                "attackInfo": {
                  "attackTag": "",
                  "attenuationTag": "",
                  "attenuationGroup": "default",
                  "attackProperty": {
                    "JMLMDDCBIAO": 1.0,
                    "damagePercentageRatio": 0.0,
                    "elementType": "Fire",
                    "elementDurability": 100.0,
                    "strikeType": "Default",
                    "damagePercentage": 0.0
                  },
                  "hitPattern": {
                    "onHitEffectName": "none",
                    "hitImpulseY": "",
                    "hitImpulseType": "LV1",
                    "hitHaltTimeScale": 0.5
                  }
                }
              },
              "targetType": "All"
            }
          ]
        }
      },
      "OAOGLLGGJPD": [
        {
          "$type": "MoleMole.Config.AddGlobalValue",
          "value": 0.0,
          "key": "_FIRE_GADGET_ATTACK",
          "HPICGAMGEGA": true,
          "maxValue": 1.0,
          "GCEOGBJIFCP": -1.0
        }
      ],
      "GGGLNDFDIMI": [
        {
          "$type": "MoleMole.Config.AddGlobalValue",
          "value": 2.0,
          "key": "_FIRE_GADGET_ATTACK",
          "HPICGAMGEGA": true,
          "maxValue": 1.0,
          "GCEOGBJIFCP": -1.0
        }
      ],
      "GCBLHJHFDFA": [
        {
          "$type": "MoleMole.Config.AddGlobalValue",
          "value": -2.0,
          "key": "_FIRE_GADGET_ATTACK",
          "HPICGAMGEGA": true,
          "maxValue": 1.0,
          "GCEOGBJIFCP": -1.0
        }
      ]
    }
  }
]