[
  {
    "Default": {
      "$type": "MoleMole.Config.GNKCLKNDOAK",
      "abilityName": "Activity_FlyItem",
      "BFBDNNJCDLH": {
        "UNIQUE_Flying_SpeedUp_Team": {
          "EODJPKICNGG": "Unique",
          "modifierName": "",
          "LLIJGLMEHFK": true,
          "duration": 30.0,
          "elementDurability": 100.0,
          "OAOGLLGGJPD": [
            {
              "$type": "MoleMole.Config.AttachEffect",
              "effectPattern": "Eff_SceneObj_Widget_FlySpeedUp_Use_Loop",
              "effectTempleteID": -1.0
            },
            {
              "$type": "MoleMole.Config.AttachModifier",
              "MLDBFKEGPEF": "CurTeamAvatars",
              "modifierName": "AttachEffect_Fly"
            }
          ]
        },
        "AttachEffect_Fly": {
          "modifierName": "",
          "elementDurability": 100.0,
          "JPIFFPJJEMK": [
            {
              "$type": "MoleMole.Config.AttachToStateIDMixin",
              "stateIDs": [
                "Fly",
                "Fall"
              ],
              "modifierName": "AttachEffect_Fly_FireEffect",
              "MJFJKAHGHDJ": ""
            }
          ],
          "EPKCPIKGJOJ": {
            "Actor_FlyForwardSpeedMaxRatio": 0.30000001192092896
          },
          "OAOGLLGGJPD": [
            {
              "$type": "MoleMole.Config.FireEffect",
              "MLDBFKEGPEF": "CurLocalAvatar",
              "effectPattern": "Eff_SceneObj_Widget_FlySpeedUp_Use",
              "effectTempleteID": -1.0
            }
          ]
        },
        "AttachEffect_Fly_FireEffect": {
          "modifierName": "",
          "elementDurability": 100.0,
          "OAOGLLGGJPD": [
            {
              "$type": "MoleMole.Config.AttachModifier",
              "MLDBFKEGPEF": "Team",
              "modifierName": "AttachEffect_Fly_FireEffect_Team"
            }
          ]
        },
        "AttachEffect_Fly_FireEffect_Team": {
          "modifierName": "",
          "elementDurability": 100.0,
          "OAOGLLGGJPD": [
            {
              "$type": "MoleMole.Config.AttachEffect",
              "effectPattern": "Eff_SceneObj_Widget_FlySpeedUp",
              "effectTempleteID": -1.0
            }
          ]
        }
      },
      "EIIHGJGFDHC": [
        {
          "$type": "MoleMole.Config.ApplyModifier",
          "MLDBFKEGPEF": "Team",
          "modifierName": "UNIQUE_Flying_SpeedUp_Team"
        }
      ],
      "LLNGCHGGPLC": true
    }
  },
  {
    "Default": {
      "$type": "MoleMole.Config.GNKCLKNDOAK",
      "abilityName": "Activity_WindFieldItem",
      "BFBDNNJCDLH": {
        "UNIQUE_Activity_WindFieldItem_Create": {
          "EODJPKICNGG": "Unique",
          "modifierName": "",
          "LLIJGLMEHFK": true,
          "duration": 2.0,
          "elementDurability": 100.0,
          "OAOGLLGGJPD": [
            {
              "$type": "MoleMole.Config.CreateGadget",
              "muteRemoteAction": true,
              "born": {
                "$type": "KPFCCIOJAMK",
                "offset": {
                  "GOAPOLCAJBP": 0.0,
                  "FMOPCJGGFMH": -0.20000000298023224,
                  "EJJEPFCDDAM": 0.0
                },
                "useRotation": true
              },
              "gadgetID": 44000579,
              "campID": 5001
            }
          ]
        }
      },
      "EIIHGJGFDHC": [
        {
          "$type": "MoleMole.Config.ApplyModifier",
          "MLDBFKEGPEF": "CurLocalAvatar",
          "modifierName": "UNIQUE_Activity_WindFieldItem_Create"
        }
      ],
      "LLNGCHGGPLC": true
    }
  }
]