{
  "impactEvent": {
    "eventName": {
      "text": "Play_sfx_impact_combat"
    },
    "NCBIBKJDCHI": 1.5
  },
  "arrowImpactHeadEvent": {
    "eventName": {
      "text": "Play_sfx_impact_arrow_head"
    },
    "NCBIBKJDCHI": 1.5
  },
  "bushImpactEvent": {
    "eventName": {
      "text": "Play_amb_sceneObj_item_shrub_hit"
    },
    "NCBIBKJDCHI": 1.0
  },
  "treeImpactEvent": {
    "eventName": {
      "text": "Play_amb_sceneObj_item_tree_hit"
    },
    "NCBIBKJDCHI": 1.0
  },
  "FIEONCDNICJ": {
    "eventName": {
      "text": "Play_Sfx_Impact_Combat_blunt_UnderWater"
    },
    "NCBIBKJDCHI": 1.5
  },
  "putAwayWeaponEvent": {
    "text": "Play_sfx_weapon_common_putAway_appear"
  },
  "strikeTypeSwitchKey": {
    "text": "SwitchGroup_atkWeapon"
  },
  "strikeTypeSwitchMap": {
    "Slash": {
      "text": "Switch_Slash"
    },
    "Blunt": {
      "text": "Switch_Blunt"
    },
    "Pierce": {
      "text": "Switch_Pierce"
    },
    "Default": {
      "text": "Switch_Magic"
    },
    "Spear": {
      "text": "Switch_Spear"
    }
  },
  "strikeTypeSwitchDefault": {
    "text": ""
  },
  "elementTypeSwitchKey": {
    "text": "SwitchGroup_atkElem"
  },
  "elementTypeSwitchMap": {
    "Fire": {
      "text": "Switch_Fire"
    },
    "Water": {
      "text": "Switch_Water"
    },
    "Grass": {
      "text": "Switch_Grass"
    },
    "Electric": {
      "text": "Switch_Electric"
    },
    "Ice": {
      "text": "Switch_Ice"
    },
    "Rock": {
      "text": "Switch_Rock"
    },
    "Wind": {
      "text": "Switch_Wind"
    }
  },
  "elementTypeSwitchDefault": {
    "text": ""
  },
  "hitSceneEvent": {
    "eventName": {
      "text": "Play_sfx_impact_explore"
    },
    "NCBIBKJDCHI": 1.0
  },
  "whetherRecurringSwitchKey": {
    "text": "SwitchGroup_impactType"
  },
  "hitOneshotSwitchValue": {
    "text": "Switch_impactOneShot"
  },
  "hitRecurringSwitchValue": {
    "text": "Switch_impactRecur"
  },
  "entityFadeOutEvent": {
    "text": "Play_ui_feedback_treasureBox_disappear"
  },
  "patrollerTemperatureRtpc": {
    "text": "Param_patrolTemp"
  },
  "patrollerAwareEvent": {
    "text": "Play_ui_feedback_stealth_alertAppear"
  },
  "patrollerAlertEvent": {
    "text": "Play_ui_feedback_stealth_alertFound"
  },
  "patrollerCalmEvent": {
    "text": "Play_ui_feedback_stealth_alertDisappear"
  },
  "impactOverrideEvents": [
    {
      "entityId": 28010101,
      "impactEvent": {
        "eventName": {
          "text": "Play_sfx_impact_creatureL"
        }
      }
    },
    {
      "entityId": 28010102,
      "impactEvent": {
        "eventName": {
          "text": "Play_sfx_impact_creatureL"
        }
      }
    },
    {
      "entityId": 28010103,
      "impactEvent": {
        "eventName": {
          "text": "Play_sfx_impact_creatureL"
        }
      }
    },
    {
      "entityId": 28020101,
      "impactEvent": {
        "eventName": {
          "text": "Play_sfx_impact_creatureH"
        }
      }
    },
    {
      "entityId": 28020102,
      "impactEvent": {
        "eventName": {
          "text": "Play_sfx_impact_creatureH"
        }
      }
    },
    {
      "entityId": 28020201,
      "impactEvent": {
        "eventName": {
          "text": "Play_sfx_impact_creatureH"
        }
      }
    },
    {
      "entityId": 28030101,
      "impactEvent": {
        "eventName": {
          "text": "Play_sfx_impact_creatureH"
        }
      }
    },
    {
      "entityId": 28050101,
      "impactEvent": {
        "eventName": {
          "text": "Play_sfx_impact_creatureL"
        }
      }
    },
    {
      "entityId": 28010201,
      "impactEvent": {
        "eventName": {
          "text": "Play_sfx_impact_creatureL"
        }
      }
    },
    {
      "entityId": 28010202,
      "impactEvent": {
        "eventName": {
          "text": "Play_sfx_impact_creatureL"
        }
      }
    },
    {
      "entityId": 28010203,
      "impactEvent": {
        "eventName": {
          "text": "Play_sfx_impact_creatureL"
        }
      }
    },
    {
      "entityId": 28010301,
      "impactEvent": {
        "eventName": {
          "text": "Play_sfx_impact_creatureL"
        }
      }
    },
    {
      "entityId": 28010302,
      "impactEvent": {
        "eventName": {
          "text": "Play_sfx_impact_creatureL"
        }
      }
    },
    {
      "entityId": 28010303,
      "impactEvent": {
        "eventName": {
          "text": "Play_sfx_impact_creatureL"
        }
      }
    },
    {
      "entityId": 28020301,
      "impactEvent": {
        "eventName": {
          "text": "Play_sfx_impact_creatureH"
        }
      }
    },
    {
      "entityId": 28030301,
      "impactEvent": {
        "eventName": {
          "text": "Play_sfx_impact_creatureL"
        }
      }
    },
    {
      "entityId": 28030302,
      "impactEvent": {
        "eventName": {
          "text": "Play_sfx_impact_creatureL"
        }
      }
    },
    {
      "entityId": 28030303,
      "impactEvent": {
        "eventName": {
          "text": "Play_sfx_impact_creatureL"
        }
      }
    },
    {
      "entityId": 28030304,
      "impactEvent": {
        "eventName": {
          "text": "Play_sfx_impact_creatureL"
        }
      }
    },
    {
      "entityId": 28030305,
      "impactEvent": {
        "eventName": {
          "text": "Play_sfx_impact_creatureL"
        }
      }
    },
    {
      "entityId": 28030401,
      "impactEvent": {
        "eventName": {
          "text": "Play_sfx_impact_creatureL"
        }
      }
    },
    {
      "entityId": 28030402,
      "impactEvent": {
        "eventName": {
          "text": "Play_sfx_impact_creatureL"
        }
      }
    },
    {
      "entityId": 28030403,
      "impactEvent": {
        "eventName": {
          "text": "Play_sfx_impact_creatureL"
        }
      }
    },
    {
      "entityId": 28030404,
      "impactEvent": {
        "eventName": {
          "text": "Play_sfx_impact_creatureL"
        }
      }
    },
    {
      "entityId": 28040101,
      "impactEvent": {
        "eventName": {
          "text": "Play_sfx_impact_creatureL"
        }
      }
    },
    {
      "entityId": 28040102,
      "impactEvent": {
        "eventName": {
          "text": "Play_sfx_impact_creatureL"
        }
      }
    },
    {
      "entityId": 28040103,
      "impactEvent": {
        "eventName": {
          "text": "Play_sfx_impact_creatureL"
        }
      }
    },
    {
      "entityId": 70220011,
      "impactEvent": {
        "eventName": {
          "text": "Play_sfx_impact_amber"
        }
      }
    },
    {
      "entityId": 70300054,
      "impactEvent": {
        "eventName": {
          "text": "Play_sfx_impact_amber"
        }
      }
    },
    {
      "entityId": 70300056,
      "impactEvent": {
        "eventName": {
          "text": "Play_sfx_impact_amber"
        }
      }
    },
    {
      "entityId": 70300014,
      "impactEvent": {
        "eventName": {
          "text": "Play_sfx_impact_amber"
        }
      }
    },
    {
      "entityId": 70300013,
      "impactEvent": {
        "eventName": {
          "text": "Play_sfx_impact_amber"
        }
      }
    },
    {
      "entityId": 70300015,
      "impactEvent": {
        "eventName": {
          "text": "Play_sfx_impact_amber"
        }
      }
    },
    {
      "entityId": 70300016,
      "impactEvent": {
        "eventName": {
          "text": "Play_sfx_impact_amber"
        }
      }
    },
    {
      "entityId": 70310001,
      "impactEvent": {
        "eventName": {
          "text": "Play_sfx_impact_wood"
        }
      }
    },
    {
      "entityId": 70310004,
      "impactEvent": {
        "eventName": {
          "text": "Play_sfx_impact_wood"
        }
      }
    },
    {
      "entityId": 70310002,
      "impactEvent": {
        "eventName": {
          "text": "Play_sfx_impact_wood"
        }
      }
    },
    {
      "entityId": 70210001,
      "impactEvent": {}
    },
    {
      "entityId": 70210002,
      "impactEvent": {}
    },
    {
      "entityId": 70210003,
      "impactEvent": {}
    },
    {
      "entityId": 70210004,
      "impactEvent": {}
    },
    {
      "entityId": 70210006,
      "impactEvent": {}
    },
    {
      "entityId": 70210007,
      "impactEvent": {}
    },
    {
      "entityId": 70210008,
      "impactEvent": {}
    },
    {
      "entityId": 70220020,
      "impactEvent": {}
    },
    {
      "entityId": 70210021,
      "impactEvent": {}
    },
    {
      "entityId": 70210022,
      "impactEvent": {}
    },
    {
      "entityId": 70210011,
      "impactEvent": {}
    },
    {
      "entityId": 70210012,
      "impactEvent": {}
    },
    {
      "entityId": 70210013,
      "impactEvent": {}
    },
    {
      "entityId": 70210014,
      "impactEvent": {}
    },
    {
      "entityId": 70210024,
      "impactEvent": {}
    },
    {
      "entityId": 70210023,
      "impactEvent": {}
    },
    {
      "entityId": 70210031,
      "impactEvent": {}
    },
    {
      "entityId": 70210032,
      "impactEvent": {}
    },
    {
      "entityId": 70210033,
      "impactEvent": {}
    },
    {
      "entityId": 70210034,
      "impactEvent": {}
    },
    {
      "entityId": 70210041,
      "impactEvent": {}
    },
    {
      "entityId": 70210042,
      "impactEvent": {}
    },
    {
      "entityId": 70210043,
      "impactEvent": {}
    },
    {
      "entityId": 70210044,
      "impactEvent": {}
    },
    {
      "entityId": 70300075,
      "impactEvent": {
        "eventName": {
          "text": "Play_sfx_impact_wood"
        }
      }
    },
    {
      "entityId": 70300077,
      "impactEvent": {
        "eventName": {
          "text": "Play_sfx_impact_wood"
        }
      }
    },
    {
      "entityId": 70300078,
      "impactEvent": {
        "eventName": {
          "text": "Play_sfx_impact_wood"
        }
      }
    },
    {
      "entityId": 70300081,
      "impactEvent": {
        "eventName": {
          "text": "Play_sfx_impact_wood"
        }
      }
    },
    {
      "entityId": 70300083,
      "impactEvent": {
        "eventName": {
          "text": "Play_sfx_impact_wood"
        }
      }
    },
    {
      "entityId": 70300087,
      "impactEvent": {
        "eventName": {
          "text": "Play_sfx_impact_wood"
        }
      }
    },
    {
      "entityId": 70300088,
      "impactEvent": {
        "eventName": {
          "text": "Play_sfx_impact_wood"
        }
      }
    },
    {
      "entityId": 70300089,
      "impactEvent": {
        "eventName": {
          "text": "Play_sfx_impact_wood"
        }
      }
    },
    {
      "entityId": 70300091,
      "impactEvent": {
        "eventName": {
          "text": "Play_sfx_impact_wood"
        }
      }
    },
    {
      "entityId": 70300092,
      "impactEvent": {
        "eventName": {
          "text": "Play_sfx_impact_wood"
        }
      }
    },
    {
      "entityId": 70380004,
      "impactEvent": {
        "eventName": {
          "text": "Play_sfx_impact_wood"
        }
      }
    },
    {
      "entityId": 70300100,
      "impactEvent": {
        "eventName": {
          "text": "Play_sfx_impact_wood"
        }
      }
    },
    {
      "entityId": 70300090,
      "impactEvent": {
        "eventName": {
          "text": "Play_sfx_impact_wood"
        }
      }
    },
    {
      "entityId": 70300101,
      "impactEvent": {
        "eventName": {
          "text": "Play_sfx_impact_wood"
        }
      }
    },
    {
      "entityId": 70360020,
      "impactEvent": {
        "eventName": {
          "text": "Play_sfx_impact_explore_tile"
        }
      }
    },
    {
      "entityId": 70360045,
      "impactEvent": {
        "eventName": {
          "text": "Play_sfx_impact_shield_rock"
        }
      }
    },
    {
      "entityId": 70330022,
      "impactEvent": {
        "eventName": {
          "text": "Play_sfx_impact_shield_rock"
        }
      }
    },
    {
      "entityId": 70520019,
      "impactEvent": {
        "eventName": {
          "text": "Play_sfx_impact_shield_rock"
        }
      }
    },
    {
      "entityId": 42004201,
      "impactEvent": {
        "eventName": {
          "text": "Play_sfx_impact_shield_rock"
        }
      }
    },
    {
      "entityId": 42004212,
      "impactEvent": {
        "eventName": {
          "text": "Play_sfx_impact_shield_rock"
        }
      }
    },
    {
      "entityId": 42602024,
      "impactEvent": {
        "eventName": {
          "text": "Play_sfx_impact_creatureL"
        }
      }
    },
    {
      "entityId": 70360060,
      "impactEvent": {
        "eventName": {
          "text": "Play_sfx_impact_explore_rock"
        }
      }
    },
    {
      "entityId": 70360061,
      "impactEvent": {
        "eventName": {
          "text": "Play_sfx_impact_explore_rock"
        }
      }
    },
    {
      "entityId": 70360062,
      "impactEvent": {
        "eventName": {
          "text": "Play_sfx_impact_explore_rock"
        }
      }
    },
    {
      "entityId": 70360063,
      "impactEvent": {
        "eventName": {
          "text": "Play_sfx_impact_explore_rock"
        }
      }
    },
    {
      "entityId": 70360064,
      "impactEvent": {
        "eventName": {
          "text": "Play_sfx_impact_explore_rock"
        }
      }
    },
    {
      "entityId": 70360065,
      "impactEvent": {
        "eventName": {
          "text": "Play_sfx_impact_explore_rock"
        }
      }
    },
    {
      "entityId": 70360073,
      "impactEvent": {
        "eventName": {
          "text": "Play_sfx_impact_creatureL"
        }
      }
    },
    {
      "entityId": 70360074,
      "impactEvent": {
        "eventName": {
          "text": "Play_sfx_impact_creatureL"
        }
      }
    },
    {
      "entityId": 70360075,
      "impactEvent": {
        "eventName": {
          "text": "Play_sfx_impact_creatureL"
        }
      }
    },
    {
      "entityId": 70510012,
      "impactEvent": {
        "eventName": {
          "text": "Play_sfx_impact_explore_tile"
        }
      }
    },
    {
      "entityId": 70220020,
      "impactEvent": {
        "eventName": {
          "text": "Play_sfx_impact_wood"
        }
      }
    },
    {
      "entityId": 70520018,
      "impactEvent": {
        "eventName": {
          "text": "Play_sfx_impact_explore_tile"
        }
      }
    },
    {
      "entityId": 70590025,
      "impactEvent": {
        "eventName": {
          "text": "Play_sfx_impact_explore_tile"
        }
      }
    },
    {
      "entityId": 70590026,
      "impactEvent": {
        "eventName": {
          "text": "Play_sfx_impact_explore_tile"
        }
      }
    },
    {
      "entityId": 70590027,
      "impactEvent": {
        "eventName": {
          "text": "Play_sfx_impact_explore_tile"
        }
      }
    },
    {
      "entityId": 70590028,
      "impactEvent": {
        "eventName": {
          "text": "Play_sfx_impact_explore_tile"
        }
      }
    },
    {
      "entityId": 70220046,
      "impactEvent": {
        "eventName": {
          "text": "Play_sfx_impact_explore_tile"
        }
      }
    },
    {
      "entityId": 70220047,
      "impactEvent": {
        "eventName": {
          "text": "Play_sfx_impact_explore_tile"
        }
      }
    },
    {
      "entityId": 70360114,
      "impactEvent": {
        "eventName": {
          "text": "Play_sfx_impact_explore_tile"
        }
      }
    },
    {
      "entityId": 70220054,
      "impactEvent": {
        "eventName": {
          "text": "Play_sfx_impact_explore_rock"
        }
      }
    },
    {
      "entityId": 70310006,
      "impactEvent": {
        "eventName": {
          "text": "Play_sfx_impact_wood"
        }
      }
    },
    {
      "entityId": 70310011,
      "impactEvent": {
        "eventName": {
          "text": "Play_sfx_impact_wood"
        }
      }
    },
    {
      "entityId": 70310018,
      "impactEvent": {
        "eventName": {
          "text": "Play_sfx_impact_wood"
        }
      }
    },
    {
      "entityId": 70310022,
      "impactEvent": {
        "eventName": {
          "text": "Play_sfx_impact_wood"
        }
      }
    },
    {
      "entityId": 70310034,
      "impactEvent": {
        "eventName": {
          "text": "Play_sfx_impact_wood"
        }
      }
    },
    {
      "entityId": 70330019,
      "impactEvent": {
        "eventName": {
          "text": "Play_sfx_impact_explore_rock"
        }
      }
    },
    {
      "entityId": 70500020,
      "impactEvent": {
        "eventName": {
          "text": "Play_sfx_impact_explore_tile"
        }
      }
    },
    {
      "entityId": 70350201,
      "impactEvent": {
        "eventName": {
          "text": "Play_sfx_impact_explore_rock"
        }
      }
    },
    {
      "entityId": 42004410,
      "impactEvent": {
        "eventName": {
          "text": "Play_sfx_impact_shield_rock"
        }
      }
    },
    {
      "entityId": 42004415,
      "impactEvent": {
        "eventName": {
          "text": "Play_sfx_impact_shield_rock"
        }
      }
    },
    {
      "entityId": 45001001,
      "impactEvent": {
        "eventName": {
          "text": "Play_sfx_impact_combat"
        }
      }
    },
    {
      "entityId": 70300099,
      "impactEvent": {
        "eventName": {
          "text": "Play_sfx_impact_wood"
        }
      }
    },
    {
      "entityId": 70300107,
      "impactEvent": {
        "eventName": {
          "text": "Play_sfx_impact_wood"
        }
      }
    },
    {
      "entityId": 70510007,
      "impactEvent": {
        "eventName": {
          "text": "Play_sfx_impact_catalyst"
        }
      }
    },
    {
      "entityId": 70510006,
      "impactEvent": {
        "eventName": {
          "text": "Play_sfx_impact_catalyst"
        }
      }
    },
    {
      "entityId": 70510009,
      "impactEvent": {
        "eventName": {
          "text": "Play_sfx_impact_catalyst"
        }
      }
    },
    {
      "entityId": 70290001,
      "impactEvent": {
        "eventName": {
          "text": "Play_sfx_impact_catalyst"
        }
      }
    },
    {
      "entityId": 70310069,
      "impactEvent": {
        "eventName": {
          "text": "Play_sfx_impact_wood"
        }
      }
    },
    {
      "entityId": 70310003,
      "impactEvent": {
        "eventName": {
          "text": "Play_sfx_impact_wood"
        }
      }
    },
    {
      "entityId": 70310068,
      "impactEvent": {
        "eventName": {
          "text": "Play_sfx_impact_wood"
        }
      }
    },
    {
      "entityId": 70510004,
      "impactEvent": {
        "eventName": {
          "text": "Play_sfx_impact_catalyst"
        }
      }
    },
    {
      "entityId": 70350023,
      "impactEvent": {
        "eventName": {
          "text": "Play_sfx_impact_combat"
        }
      }
    },
    {
      "entityId": 70350035,
      "impactEvent": {
        "eventName": {
          "text": "Play_sfx_impact_combat"
        }
      }
    },
    {
      "entityId": 70350036,
      "impactEvent": {
        "eventName": {
          "text": "Play_sfx_impact_combat"
        }
      }
    },
    {
      "entityId": 70350086,
      "impactEvent": {
        "eventName": {
          "text": "Play_sfx_impact_combat"
        }
      }
    },
    {
      "entityId": 70350087,
      "impactEvent": {
        "eventName": {
          "text": "Play_sfx_impact_combat"
        }
      }
    },
    {
      "entityId": 70290067,
      "impactEvent": {
        "eventName": {
          "text": "Play_sfx_impact_combat"
        }
      }
    },
    {
      "entityId": 70950063,
      "impactEvent": {
        "eventName": {
          "text": "Play_sfx_impact_wood"
        }
      }
    },
    {
      "entityId": 70950068,
      "impactEvent": {
        "eventName": {
          "text": "Play_sfx_impact_explore_rock"
        }
      }
    },
    {
      "entityId": 70950056,
      "impactEvent": {
        "eventName": {
          "text": "Play_sfx_impact_explore_rock"
        }
      }
    },
    {
      "entityId": 70950055,
      "impactEvent": {
        "eventName": {
          "text": "Play_sfx_impact_explore_rock"
        }
      }
    },
    {
      "entityId": 70590036,
      "impactEvent": {
        "eventName": {
          "text": "Play_sfx_impact_explore_tile"
        }
      }
    },
    {
      "entityId": 70330062,
      "impactEvent": {
        "eventName": {
          "text": "Play_sfx_impact_combat"
        }
      }
    },
    {
      "entityId": 70900393,
      "impactEvent": {
        "eventName": {
          "text": "Play_sfx_impact_wood"
        }
      }
    },
    {
      "entityId": 70290100,
      "impactEvent": {
        "eventName": {
          "text": "Play_sfx_impact_wood"
        }
      }
    },
    {
      "entityId": 70290101,
      "impactEvent": {
        "eventName": {
          "text": "Play_sfx_impact_wood"
        }
      }
    },
    {
      "entityId": 70290115,
      "impactEvent": {
        "eventName": {
          "text": "Play_sfx_impact_explore_rock"
        }
      }
    },
    {
      "entityId": 70290114,
      "impactEvent": {
        "eventName": {
          "text": "Play_sfx_impact_explore_rock"
        }
      }
    },
    {
      "entityId": 70290107,
      "impactEvent": {
        "eventName": {
          "text": "Play_sfx_impact_explore_rock"
        }
      }
    },
    {
      "entityId": 70330091,
      "impactEvent": {
        "eventName": {
          "text": "Play_sfx_impact_explore_rock"
        }
      }
    },
    {
      "entityId": 70330092,
      "impactEvent": {
        "eventName": {
          "text": "Play_sfx_impact_explore_rock"
        }
      }
    },
    {
      "entityId": 70290054,
      "impactEvent": {
        "eventName": {
          "text": "Play_sfx_impact_explore_rock"
        }
      }
    },
    {
      "entityId": 70330073,
      "impactEvent": {
        "eventName": {
          "text": "Play_sfx_impact_explore_rock"
        }
      }
    },
    {
      "entityId": 70330074,
      "impactEvent": {
        "eventName": {
          "text": "Play_sfx_impact_explore_rock"
        }
      }
    },
    {
      "entityId": 70330075,
      "impactEvent": {
        "eventName": {
          "text": "Play_sfx_impact_explore_rock"
        }
      }
    },
    {
      "entityId": 70210005,
      "impactEvent": {
        "eventName": {
          "text": "Play_sfx_impact_shield"
        }
      }
    },
    {
      "entityId": 70330063,
      "impactEvent": {
        "eventName": {
          "text": "Play_sfx_impact_explore_rock"
        }
      }
    },
    {
      "entityId": 70330065,
      "impactEvent": {
        "eventName": {
          "text": "Play_sfx_impact_explore_rock"
        }
      }
    },
    {
      "entityId": 70330067,
      "impactEvent": {
        "eventName": {
          "text": "Play_sfx_impact_explore_rock"
        }
      }
    },
    {
      "entityId": 70330115,
      "impactEvent": {
        "eventName": {
          "text": "Play_sfx_impact_explore_rock"
        }
      }
    },
    {
      "entityId": 70310015,
      "impactEvent": {
        "eventName": {
          "text": "Play_sfx_impact_wood"
        }
      }
    },
    {
      "entityId": 70350004,
      "impactEvent": {
        "eventName": {
          "text": "Play_sfx_impact_shield"
        }
      }
    },
    {
      "entityId": 70360102,
      "impactEvent": {
        "eventName": {
          "text": "Play_sfx_impact_explore_rock"
        }
      }
    },
    {
      "entityId": 70950089,
      "impactEvent": {
        "eventName": {
          "text": "Play_sfx_impact_shield"
        }
      }
    },
    {
      "entityId": 70350006,
      "impactEvent": {
        "eventName": {
          "text": "Play_sfx_impact_shield"
        }
      }
    },
    {
      "entityId": 70211149,
      "impactEvent": {
        "eventName": {
          "text": "Play_sfx_impact_shield"
        }
      }
    },
    {
      "entityId": 70310004,
      "impactEvent": {
        "eventName": {
          "text": "Play_sfx_impact_wood"
        }
      }
    },
    {
      "entityId": 70290026,
      "impactEvent": {
        "eventName": {
          "text": "Play_sfx_impact_explore_tile"
        }
      }
    },
    {
      "entityId": 70290045,
      "impactEvent": {
        "eventName": {
          "text": "Play_sfx_impact_explore_tile"
        }
      }
    },
    {
      "entityId": 70330081,
      "impactEvent": {
        "eventName": {
          "text": "Play_sfx_impact_explore_rock"
        }
      }
    },
    {
      "entityId": 70710497,
      "impactEvent": {
        "eventName": {
          "text": "Play_sfx_impact_wood"
        }
      }
    },
    {
      "entityId": 70800044,
      "impactEvent": {
        "eventName": {
          "text": "Play_sfx_impact_explore_rock"
        }
      }
    },
    {
      "entityId": 70380287,
      "impactEvent": {
        "eventName": {
          "text": "Play_sfx_impact_explore_rock"
        }
      }
    },
    {
      "entityId": 70380288,
      "impactEvent": {
        "eventName": {
          "text": "Play_sfx_impact_explore_rock"
        }
      }
    },
    {
      "entityId": 70380289,
      "impactEvent": {
        "eventName": {
          "text": "Play_sfx_impact_explore_rock"
        }
      }
    },
    {
      "entityId": 70380290,
      "impactEvent": {
        "eventName": {
          "text": "Play_sfx_impact_explore_rock"
        }
      }
    },
    {
      "entityId": 70380291,
      "impactEvent": {
        "eventName": {
          "text": "Play_sfx_impact_explore_rock"
        }
      }
    },
    {
      "entityId": 70380292,
      "impactEvent": {
        "eventName": {
          "text": "Play_sfx_impact_explore_rock"
        }
      }
    },
    {
      "entityId": 70380293,
      "impactEvent": {
        "eventName": {
          "text": "Play_sfx_impact_explore_rock"
        }
      }
    },
    {
      "entityId": 70310140,
      "impactEvent": {
        "eventName": {
          "text": "Play_sfx_impact_explore_rock"
        }
      }
    },
    {
      "entityId": 70310134,
      "impactEvent": {
        "eventName": {
          "text": "Play_sfx_impact_explore_rock"
        }
      }
    },
    {
      "entityId": 70310135,
      "impactEvent": {
        "eventName": {
          "text": "Play_sfx_impact_explore_rock"
        }
      }
    },
    {
      "entityId": 70310136,
      "impactEvent": {
        "eventName": {
          "text": "Play_sfx_impact_explore_rock"
        }
      }
    },
    {
      "entityId": 70310137,
      "impactEvent": {
        "eventName": {
          "text": "Play_sfx_impact_explore_rock"
        }
      }
    },
    {
      "entityId": 70310138,
      "impactEvent": {
        "eventName": {
          "text": "Play_sfx_impact_explore_rock"
        }
      }
    },
    {
      "entityId": 70310139,
      "impactEvent": {
        "eventName": {
          "text": "Play_sfx_impact_explore_rock"
        }
      }
    },
    {
      "entityId": 70360300,
      "impactEvent": {
        "eventName": {
          "text": "Play_sfx_impact_explore_tree"
        }
      }
    },
    {
      "entityId": 70360308,
      "impactEvent": {
        "eventName": {
          "text": "Play_sfx_impact_explore_tree"
        }
      }
    },
    {
      "entityId": 70310144,
      "impactEvent": {
        "eventName": {
          "text": "Play_sfx_impact_explore_rock"
        }
      }
    },
    {
      "entityId": 70220091,
      "impactEvent": {
        "eventName": {
          "text": "Play_sfx_impact_combat"
        }
      }
    },
    {
      "entityId": 70220090,
      "impactEvent": {
        "eventName": {
          "text": "Play_sfx_impact_combat"
        }
      }
    },
    {
      "entityId": 70220089,
      "impactEvent": {
        "eventName": {
          "text": "Play_sfx_impact_combat"
        }
      }
    },
    {
      "entityId": 70310090,
      "impactEvent": {
        "eventName": {
          "text": "Play_sfx_impact_combat"
        }
      }
    },
    {
      "entityId": 70310090,
      "impactEvent": {
        "eventName": {
          "text": "Play_sfx_impact_explore_rock"
        }
      }
    },
    {
      "entityId": 70310128,
      "impactEvent": {
        "eventName": {
          "text": "Play_sfx_impact_wood"
        }
      }
    },
    {
      "entityId": 70310127,
      "impactEvent": {
        "eventName": {
          "text": "Play_sfx_impact_wood"
        }
      }
    },
    {
      "entityId": 70310126,
      "impactEvent": {
        "eventName": {
          "text": "Play_sfx_impact_wood"
        }
      }
    },
    {
      "entityId": 70220080,
      "impactEvent": {
        "eventName": {
          "text": "Play_sfx_impact_explore_rock"
        }
      }
    },
    {
      "entityId": 70220081,
      "impactEvent": {
        "eventName": {
          "text": "Play_sfx_impact_explore_rock"
        }
      }
    },
    {
      "entityId": 70220082,
      "impactEvent": {
        "eventName": {
          "text": "Play_sfx_impact_explore_rock"
        }
      }
    },
    {
      "entityId": 70220083,
      "impactEvent": {
        "eventName": {
          "text": "Play_sfx_impact_explore_rock"
        }
      }
    },
    {
      "entityId": 42601019,
      "impactEvent": {
        "eventName": {
          "text": "Play_sfx_impact_explore_rock"
        }
      }
    },
    {
      "entityId": 42601027,
      "impactEvent": {
        "eventName": {
          "text": "Play_sfx_impact_explore_rock"
        }
      }
    },
    {
      "entityId": 42601028,
      "impactEvent": {
        "eventName": {
          "text": "Play_sfx_impact_explore_rock"
        }
      }
    },
    {
      "entityId": 70000013,
      "impactEvent": {
        "eventName": {
          "text": "Play_sfx_impact_explore_rock"
        }
      }
    },
    {
      "entityId": 70290254,
      "impactEvent": {
        "eventName": {
          "text": "Play_sfx_impact_explore_rock"
        }
      }
    },
    {
      "entityId": 42203007,
      "impactEvent": {
        "eventName": {
          "text": "Play_sfx_impact_explore_rock"
        }
      }
    },
    {
      "entityId": 70210051,
      "impactEvent": {
        "eventName": {
          "text": "Play_sfx_impact_shield"
        }
      }
    },
    {
      "entityId": 70210052,
      "impactEvent": {
        "eventName": {
          "text": "Play_sfx_impact_shield"
        }
      }
    },
    {
      "entityId": 70210053,
      "impactEvent": {
        "eventName": {
          "text": "Play_sfx_impact_shield"
        }
      }
    },
    {
      "entityId": 70210054,
      "impactEvent": {
        "eventName": {
          "text": "Play_sfx_impact_shield"
        }
      }
    },
    {
      "entityId": 70211031,
      "impactEvent": {
        "eventName": {
          "text": "Play_sfx_impact_shield"
        }
      }
    },
    {
      "entityId": 70211032,
      "impactEvent": {
        "eventName": {
          "text": "Play_sfx_impact_shield"
        }
      }
    },
    {
      "entityId": 70211131,
      "impactEvent": {
        "eventName": {
          "text": "Play_sfx_impact_shield"
        }
      }
    },
    {
      "entityId": 70360305,
      "impactEvent": {
        "eventName": {
          "text": "Play_sfx_impact_explore_rock"
        }
      }
    },
    {
      "entityId": 70360309,
      "impactEvent": {
        "eventName": {
          "text": "Play_sfx_impact_explore_rock"
        }
      }
    },
    {
      "entityId": 70360099,
      "impactEvent": {
        "eventName": {
          "text": "Play_sfx_impact_explore_rock"
        }
      }
    },
    {
      "entityId": 70290296,
      "impactEvent": {
        "eventName": {
          "text": "Play_sfx_impact_explore_rock"
        }
      }
    },
    {
      "entityId": 70290297,
      "impactEvent": {
        "eventName": {
          "text": "Play_sfx_impact_explore_rock"
        }
      }
    },
    {
      "entityId": 70330142,
      "impactEvent": {
        "eventName": {
          "text": "Play_sfx_impact_explore_rock"
        }
      }
    },
    {
      "entityId": 70330155,
      "impactEvent": {
        "eventName": {
          "text": "Play_sfx_impact_explore_rock"
        }
      }
    },
    {
      "entityId": 70330170,
      "impactEvent": {
        "eventName": {
          "text": "Play_sfx_impact_wood"
        }
      }
    },
    {
      "entityId": 70220032,
      "impactEvent": {
        "eventName": {
          "text": "Play_sfx_impact_wood"
        }
      }
    },
    {
      "entityId": 70330171,
      "impactEvent": {
        "eventName": {
          "text": "Play_sfx_impact_wood"
        }
      }
    },
    {
      "entityId": 70330172,
      "impactEvent": {
        "eventName": {
          "text": "Play_sfx_impact_wood"
        }
      }
    },
    {
      "entityId": 42906111,
      "impactEvent": {
        "eventName": {
          "text": "Play_sfx_impact_combat"
        }
      }
    },
    {
      "entityId": 42906121,
      "impactEvent": {
        "eventName": {
          "text": "Play_sfx_impact_combat"
        }
      }
    },
    {
      "entityId": 70360002,
      "impactEvent": {
        "eventName": {
          "text": "Play_sfx_impact_explore_rock"
        }
      }
    },
    {
      "entityId": 77307016,
      "impactEvent": {
        "eventName": {
          "text": "Play_sfx_impact_wood"
        }
      }
    },
    {
      "entityId": 70290212,
      "impactEvent": {
        "eventName": {
          "text": "Play_sfx_impact_wood"
        }
      }
    },
    {
      "entityId": 70290204,
      "impactEvent": {
        "eventName": {
          "text": "Play_sfx_impact_shield_rock"
        }
      }
    },
    {
      "entityId": 70290205,
      "impactEvent": {
        "eventName": {
          "text": "Play_sfx_impact_shield_rock"
        }
      }
    },
    {
      "entityId": 70290308,
      "impactEvent": {
        "eventName": {
          "text": "Play_sfx_impact_wood"
        }
      }
    },
    {
      "entityId": 70290301,
      "impactEvent": {
        "eventName": {
          "text": "Play_sfx_impact_shield_rock"
        }
      }
    },
    {
      "entityId": 70290218,
      "impactEvent": {
        "eventName": {
          "text": "Play_sfx_impact_explore_rock"
        }
      }
    },
    {
      "entityId": 70290209,
      "impactEvent": {
        "eventName": {
          "text": "Play_sfx_impact_shield_rock"
        }
      }
    },
    {
      "entityId": 70290191,
      "impactEvent": {
        "eventName": {
          "text": "Play_sfx_impact_explore_rock"
        }
      }
    },
    {
      "entityId": 70290324,
      "impactEvent": {
        "eventName": {
          "text": "Play_sfx_impact_explore_rock"
        }
      }
    },
    {
      "entityId": 70290323,
      "impactEvent": {
        "eventName": {
          "text": "Play_sfx_impact_explore_rock"
        }
      }
    },
    {
      "entityId": 70540032,
      "impactEvent": {
        "eventName": {
          "text": "Play_sfx_impact_explore_rock"
        }
      }
    },
    {
      "entityId": 70540031,
      "impactEvent": {
        "eventName": {
          "text": "Play_sfx_impact_explore_rock"
        }
      }
    },
    {
      "entityId": 70330145,
      "impactEvent": {
        "eventName": {
          "text": "Play_sfx_impact_explore_rock"
        }
      }
    },
    {
      "entityId": 70510015,
      "impactEvent": {
        "eventName": {
          "text": "Play_sfx_impact_explore_rock"
        }
      }
    },
    {
      "entityId": 70290364,
      "impactEvent": {
        "eventName": {
          "text": "Play_sfx_impact_explore_rock"
        }
      }
    },
    {
      "entityId": 70290191,
      "impactEvent": {
        "eventName": {
          "text": "Play_sfx_impact_explore_rock"
        }
      }
    },
    {
      "entityId": 70290300,
      "impactEvent": {
        "eventName": {
          "text": "Play_sfx_impact_explore_rock"
        }
      }
    },
    {
      "entityId": 70290219,
      "impactEvent": {
        "eventName": {
          "text": "Play_sfx_impact_explore_rock"
        }
      }
    },
    {
      "entityId": 70290342,
      "impactEvent": {
        "eventName": {
          "text": "Play_sfx_impact_shield_rock"
        }
      }
    },
    {
      "entityId": 70710702,
      "impactEvent": {
        "eventName": {
          "text": "Play_sfx_impact_explore_rock"
        }
      }
    },
    {
      "entityId": 42401020,
      "impactEvent": {
        "eventName": {
          "text": "Play_sfx_impact_explore_rock"
        }
      }
    },
    {
      "entityId": 70290347,
      "impactEvent": {
        "eventName": {
          "text": "Play_sfx_impact_explore_rock"
        }
      }
    },
    {
      "entityId": 70310391,
      "impactEvent": {
        "eventName": {
          "text": "Play_sfx_impact_shield_rock"
        }
      }
    },
    {
      "entityId": 70380309,
      "impactEvent": {
        "eventName": {
          "text": "Play_sfx_impact_explore_rock"
        }
      }
    },
    {
      "entityId": 70380310,
      "impactEvent": {
        "eventName": {
          "text": "Play_sfx_impact_explore_rock"
        }
      }
    },
    {
      "entityId": 70310328,
      "impactEvent": {
        "eventName": {
          "text": "Play_sfx_impact_explore_rock"
        }
      }
    },
    {
      "entityId": 70310193,
      "impactEvent": {
        "eventName": {
          "text": "Play_sfx_impact_explore_tree"
        }
      }
    },
    {
      "entityId": 70310194,
      "impactEvent": {
        "eventName": {
          "text": "Play_sfx_impact_explore_tree"
        }
      }
    },
    {
      "entityId": 70310195,
      "impactEvent": {
        "eventName": {
          "text": "Play_sfx_impact_explore_tree"
        }
      }
    },
    {
      "entityId": 70310192,
      "impactEvent": {
        "eventName": {
          "text": "Play_sfx_impact_explore_tree"
        }
      }
    },
    {
      "entityId": 70310201,
      "impactEvent": {
        "eventName": {
          "text": "Play_sfx_impact_explore_tree"
        }
      }
    },
    {
      "entityId": 70310200,
      "impactEvent": {
        "eventName": {
          "text": "Play_sfx_impact_explore_tree"
        }
      }
    },
    {
      "entityId": 70330229,
      "impactEvent": {
        "eventName": {
          "text": "Play_sfx_impact_explore_tree"
        }
      }
    },
    {
      "entityId": 70330199,
      "impactEvent": {
        "eventName": {
          "text": "Play_amb_sceneObj_item_tree_hit"
        }
      }
    },
    {
      "entityId": 70330244,
      "impactEvent": {
        "eventName": {
          "text": "Play_sfx_impact_shield"
        }
      }
    },
    {
      "entityId": 70220105,
      "impactEvent": {
        "eventName": {
          "text": "Play_sfx_impact_explore_tree"
        }
      }
    },
    {
      "entityId": 70310485,
      "impactEvent": {
        "eventName": {
          "text": "Play_sfx_impact_explore_tile"
        }
      }
    },
    {
      "entityId": 70330218,
      "impactEvent": {
        "eventName": {
          "text": "Play_sfx_impact_explore_rock"
        }
      }
    },
    {
      "entityId": 70330219,
      "impactEvent": {
        "eventName": {
          "text": "Play_sfx_impact_explore_rock"
        }
      }
    },
    {
      "entityId": 70310216,
      "impactEvent": {
        "eventName": {
          "text": "Play_sfx_impact_explore_rock"
        }
      }
    },
    {
      "entityId": 70310215,
      "impactEvent": {
        "eventName": {
          "text": "Play_sfx_impact_explore_rock"
        }
      }
    },
    {
      "entityId": 70310214,
      "impactEvent": {
        "eventName": {
          "text": "Play_sfx_impact_explore_tile"
        }
      }
    },
    {
      "entityId": 70330230,
      "impactEvent": {
        "eventName": {
          "text": "Play_sfx_impact_explore_tree"
        }
      }
    },
    {
      "entityId": 70330234,
      "impactEvent": {
        "eventName": {
          "text": "Play_amb_sceneObj_item_tree_hit"
        }
      }
    },
    {
      "entityId": 70330235,
      "impactEvent": {
        "eventName": {
          "text": "Play_amb_sceneObj_item_tree_hit"
        }
      }
    },
    {
      "entityId": 70290422,
      "impactEvent": {
        "eventName": {
          "text": "Play_sfx_impact_explore_tile"
        }
      }
    },
    {
      "entityId": 70330221,
      "impactEvent": {
        "eventName": {
          "text": "Play_sfx_impact_explore_tree"
        }
      }
    },
    {
      "entityId": 70330200,
      "impactEvent": {
        "eventName": {
          "text": "Play_sfx_impact_explore_tree"
        }
      }
    },
    {
      "entityId": 70330216,
      "impactEvent": {
        "eventName": {
          "text": "Play_sfx_impact_explore_tree"
        }
      }
    },
    {
      "entityId": 70330197,
      "impactEvent": {
        "eventName": {
          "text": "Play_sfx_impact_explore_tree"
        }
      }
    },
    {
      "entityId": 72000019,
      "impactEvent": {
        "eventName": {
          "text": "Play_amb_scnenObj_gear_Marana_01_hit"
        }
      }
    },
    {
      "entityId": 42405013,
      "impactEvent": {
        "eventName": {
          "text": "Play_sfx_impact_shield"
        }
      }
    },
    {
      "entityId": 42405012,
      "impactEvent": {
        "eventName": {
          "text": "Play_sfx_impact_shield"
        }
      }
    },
    {
      "entityId": 42405010,
      "impactEvent": {
        "eventName": {
          "text": "Play_sfx_impact_shield"
        }
      }
    },
    {
      "entityId": 70330292,
      "impactEvent": {
        "eventName": {
          "text": "Play_sfx_impact_explore_tile"
        }
      }
    },
    {
      "entityId": 70330262,
      "impactEvent": {
        "eventName": {
          "text": "Play_sfx_impact_explore_tree"
        }
      }
    },
    {
      "entityId": 70330394,
      "impactEvent": {
        "eventName": {
          "text": "Play_sfx_impact_explore_tree"
        }
      }
    },
    {
      "entityId": 70330395,
      "impactEvent": {
        "eventName": {
          "text": "Play_sfx_impact_explore_tree"
        }
      }
    },
    {
      "entityId": 70330396,
      "impactEvent": {
        "eventName": {
          "text": "Play_sfx_impact_explore_tree"
        }
      }
    },
    {
      "entityId": 70330397,
      "impactEvent": {
        "eventName": {
          "text": "Play_sfx_impact_explore_tree"
        }
      }
    },
    {
      "entityId": 70320020,
      "impactEvent": {
        "eventName": {
          "text": "Play_sfx_impact_explore_tree"
        }
      }
    },
    {
      "entityId": 42907106,
      "impactEvent": {
        "eventName": {
          "text": "Play_sfx_impact_shield"
        }
      }
    },
    {
      "entityId": 42907107,
      "impactEvent": {
        "eventName": {
          "text": "Play_sfx_impact_shield"
        }
      }
    },
    {
      "entityId": 42907108,
      "impactEvent": {
        "eventName": {
          "text": "Play_sfx_impact_shield"
        }
      }
    },
    {
      "entityId": 42907109,
      "impactEvent": {
        "eventName": {
          "text": "Play_sfx_impact_shield"
        }
      }
    },
    {
      "entityId": 42907124,
      "impactEvent": {
        "eventName": {
          "text": "Play_sfx_impact_shield"
        }
      }
    },
    {
      "entityId": 42907125,
      "impactEvent": {
        "eventName": {
          "text": "Play_sfx_impact_shield"
        }
      }
    },
    {
      "entityId": 70290697,
      "impactEvent": {
        "eventName": {
          "text": "Play_sfx_impact_explore_tile"
        }
      }
    },
    {
      "entityId": 70290698,
      "impactEvent": {
        "eventName": {
          "text": "Play_sfx_impact_explore_tile"
        }
      }
    },
    {
      "entityId": 70290769,
      "impactEvent": {
        "eventName": {
          "text": "Play_sfx_impact_explore_tile"
        }
      }
    },
    {
      "entityId": 42210005,
      "impactEvent": {
        "eventName": {
          "text": "Play_vfx_monster_Scorpion_sacred_sacredEnergy_beHit"
        }
      }
    },
    {
      "entityId": 42210006,
      "impactEvent": {
        "eventName": {
          "text": "Play_vfx_monster_Scorpion_sacred_sacredEnergy_beHit"
        }
      }
    },
    {
      "entityId": 42210007,
      "impactEvent": {
        "eventName": {
          "text": "Play_vfx_monster_Scorpion_sacred_sacredEnergy_beHit"
        }
      }
    },
    {
      "entityId": 42210008,
      "impactEvent": {
        "eventName": {
          "text": "Play_vfx_monster_Scorpion_sacred_sacredEnergy_beHit"
        }
      }
    },
    {
      "entityId": 70520039,
      "impactEvent": {
        "eventName": {
          "text": "Play_sfx_impact_explore_tile"
        }
      }
    },
    {
      "entityId": 70330394,
      "impactEvent": {
        "eventName": {
          "text": "Play_sfx_impact_explore_tree"
        }
      }
    },
    {
      "entityId": 70330395,
      "impactEvent": {
        "eventName": {
          "text": "Play_sfx_impact_explore_tree"
        }
      }
    },
    {
      "entityId": 70330396,
      "impactEvent": {
        "eventName": {
          "text": "Play_sfx_impact_explore_tree"
        }
      }
    },
    {
      "entityId": 70330397,
      "impactEvent": {
        "eventName": {
          "text": "Play_sfx_impact_explore_tree"
        }
      }
    },
    {
      "entityId": 70360399,
      "impactEvent": {
        "eventName": {
          "text": "Play_sfx_impact_explore_tile"
        }
      }
    },
    {
      "entityId": 70290804,
      "impactEvent": {
        "eventName": {
          "text": "Play_sfx_impact_explore_rock"
        }
      }
    },
    {
      "entityId": 70390035,
      "impactEvent": {
        "eventName": {
          "text": "Play_sfx_impact_explore_rock"
        }
      }
    },
    {
      "entityId": 70390037,
      "impactEvent": {
        "eventName": {
          "text": "Play_sfx_impact_explore_rock"
        }
      }
    },
    {
      "entityId": 70390039,
      "impactEvent": {
        "eventName": {
          "text": "Play_sfx_impact_explore_rock"
        }
      }
    },
    {
      "entityId": 70390041,
      "impactEvent": {
        "eventName": {
          "text": "Play_sfx_impact_explore_rock"
        }
      }
    },
    {
      "entityId": 70390043,
      "impactEvent": {
        "eventName": {
          "text": "Play_sfx_impact_explore_rock"
        }
      }
    },
    {
      "entityId": 70390045,
      "impactEvent": {
        "eventName": {
          "text": "Play_sfx_impact_explore_rock"
        }
      }
    },
    {
      "entityId": 70390047,
      "impactEvent": {
        "eventName": {
          "text": "Play_sfx_impact_explore_rock"
        }
      }
    },
    {
      "entityId": 70390105,
      "impactEvent": {
        "eventName": {
          "text": "Play_sfx_impact_explore_rock"
        }
      }
    },
    {
      "entityId": 70390077,
      "impactEvent": {
        "eventName": {
          "text": "Play_sfx_impact_explore_rock"
        }
      }
    },
    {
      "entityId": 42605050,
      "impactEvent": {
        "eventName": {
          "text": "Play_Vfx_Monster_Drake_Deepsea_IcePillar_BeHit"
        }
      }
    },
    {
      "entityId": 70520041,
      "impactEvent": {
        "eventName": {
          "text": "Play_sfx_impact_explore_tile"
        }
      }
    },
    {
      "entityId": 70520042,
      "impactEvent": {
        "eventName": {
          "text": "Play_sfx_impact_explore_tile"
        }
      }
    },
    {
      "entityId": 70330641,
      "impactEvent": {
        "eventName": {
          "text": "Play_sfx_impact_explore_tile"
        }
      }
    },
    {
      "entityId": 70330516,
      "impactEvent": {
        "eventName": {
          "text": "Play_sfx_impact_explore_rock"
        }
      }
    },
    {
      "entityId": 70330563,
      "impactEvent": {
        "eventName": {
          "text": "Play_sfx_impact_explore_tile"
        }
      }
    },
    {
      "entityId": 70330564,
      "impactEvent": {
        "eventName": {
          "text": "Play_sfx_impact_explore_tile"
        }
      }
    },
    {
      "entityId": 70330681,
      "impactEvent": {
        "eventName": {
          "text": "Play_sfx_impact_explore_tile"
        }
      }
    },
    {
      "entityId": 70330724,
      "impactEvent": {
        "eventName": {
          "text": "Play_sfx_impact_explore_tile"
        }
      }
    },
    {
      "entityId": 70330547,
      "impactEvent": {
        "eventName": {
          "text": "Play_sfx_impact_explore_tile"
        }
      }
    },
    {
      "entityId": 70330551,
      "impactEvent": {
        "eventName": {
          "text": "Play_sfx_impact_explore_tile"
        }
      }
    },
    {
      "entityId": 70330552,
      "impactEvent": {
        "eventName": {
          "text": "Play_sfx_impact_explore_tile"
        }
      }
    },
    {
      "entityId": 70330553,
      "impactEvent": {
        "eventName": {
          "text": "Play_sfx_impact_explore_tile"
        }
      }
    },
    {
      "entityId": 70330554,
      "impactEvent": {
        "eventName": {
          "text": "Play_sfx_impact_explore_tile"
        }
      }
    },
    {
      "entityId": 70330548,
      "impactEvent": {
        "eventName": {
          "text": "Play_sfx_impact_explore_tile"
        }
      }
    },
    {
      "entityId": 70330523,
      "impactEvent": {
        "eventName": {
          "text": "Play_sfx_impact_explore_tile"
        }
      }
    },
    {
      "entityId": 70291561,
      "impactEvent": {
        "eventName": {
          "text": "Play_sfx_impact_shield"
        }
      }
    },
    {
      "entityId": 70320091,
      "impactEvent": {
        "eventName": {
          "text": "Play_sfx_impact_shield"
        }
      }
    },
    {
      "entityId": 70320096,
      "impactEvent": {
        "eventName": {
          "text": "Play_sfx_impact_shield"
        }
      }
    },
    {
      "entityId": 70291016,
      "impactEvent": {
        "eventName": {
          "text": "Play_sfx_impact_shield"
        }
      }
    },
    {
      "entityId": 70310536,
      "impactEvent": {
        "eventName": {
          "text": "Play_sfx_impact_shield"
        }
      }
    },
    {
      "entityId": 42501023,
      "impactEvent": {
        "eventName": {
          "text": "Play_Vfx_Monster_Thoarder_Male_Standard_NoWeapon_Rocky_BottleBreak"
        }
      }
    },
    {
      "entityId": 70291454,
      "impactEvent": {
        "eventName": {
          "text": "Play_sfx_impact_explore_glass_quset"
        }
      }
    },
    {
      "entityId": 77215097,
      "impactEvent": {
        "eventName": {
          "text": "Play_sfx_impact_shield"
        }
      }
    },
    {
      "entityId": 70292072,
      "impactEvent": {
        "eventName": {
          "text": "Play_sfx_impact_wood"
        }
      }
    },
    {
      "entityId": 70292101,
      "impactEvent": {
        "eventName": {
          "text": "Play_sfx_impact_wood"
        }
      }
    },
    {
      "entityId": 70292166,
      "impactEvent": {
        "eventName": {
          "text": "Play_sfx_impact_explore_tile"
        }
      }
    },
    {
      "entityId": 70292184,
      "impactEvent": {
        "eventName": {
          "text": "Play_sfx_impact_explore_tile"
        }
      }
    },
    {
      "entityId": 70292159,
      "impactEvent": {
        "eventName": {
          "text": "Play_sfx_impact_explore_tile"
        }
      }
    },
    {
      "entityId": 70292018,
      "impactEvent": {
        "eventName": {
          "text": "Play_sfx_impact_explore_tile"
        }
      }
    },
    {
      "entityId": 70292184,
      "impactEvent": {
        "eventName": {
          "text": "Play_sfx_impact_explore_tile"
        }
      }
    },
    {
      "entityId": 70292120,
      "impactEvent": {
        "eventName": {
          "text": "Play_sfx_impact_explore_tile"
        }
      }
    },
    {
      "entityId": 70292119,
      "impactEvent": {
        "eventName": {
          "text": "Play_sfx_impact_explore_tile"
        }
      }
    },
    {
      "entityId": 70292118,
      "impactEvent": {
        "eventName": {
          "text": "Play_sfx_impact_explore_tile"
        }
      }
    },
    {
      "entityId": 70292121,
      "impactEvent": {
        "eventName": {
          "text": "Play_sfx_impact_explore_tile"
        }
      }
    },
    {
      "entityId": 70292179,
      "impactEvent": {
        "eventName": {
          "text": "Play_sfx_impact_explore_tile"
        }
      }
    },
    {
      "entityId": 70292010,
      "impactEvent": {
        "eventName": {
          "text": "Play_sfx_impact_shield"
        }
      }
    },
    {
      "entityId": 70292011,
      "impactEvent": {
        "eventName": {
          "text": "Play_sfx_impact_shield"
        }
      }
    },
    {
      "entityId": 70292115,
      "impactEvent": {
        "eventName": {
          "text": "Play_sfx_impact_shield"
        }
      }
    },
    {
      "entityId": 70292116,
      "impactEvent": {
        "eventName": {
          "text": "Play_sfx_impact_shield"
        }
      }
    },
    {
      "entityId": 70292000,
      "impactEvent": {
        "eventName": {
          "text": "Play_sfx_impact_shield"
        }
      }
    },
    {
      "entityId": 70292100,
      "impactEvent": {
        "eventName": {
          "text": "Play_sfx_impact_wood"
        }
      }
    },
    {
      "entityId": 70292164,
      "impactEvent": {
        "eventName": {
          "text": "Play_sfx_impact_wood"
        }
      }
    },
    {
      "entityId": 70291432,
      "impactEvent": {
        "eventName": {
          "text": "Play_sfx_impact_wood"
        }
      }
    },
    {
      "entityId": 70291292,
      "impactEvent": {
        "eventName": {
          "text": "Play_sfx_impact_wood"
        }
      }
    },
    {
      "entityId": 70291293,
      "impactEvent": {
        "eventName": {
          "text": "Play_sfx_impact_wood"
        }
      }
    }
  ],
  "hittingSceneIgnoreList": [
    41021003,
    41021004,
    41021005,
    41021006,
    41023004,
    70000003,
    70210001,
    70210002,
    70210003,
    70210004,
    70210006,
    70210007,
    70210008,
    70210011,
    70210012,
    70210013,
    70210014,
    70210021,
    70210022,
    70210023,
    70210024,
    70220020,
    70290002,
    70290004,
    70290012,
    70290013,
    70310001,
    70310002,
    70310004,
    70510003,
    70900221,
    70900222,
    70900227,
    70900229,
    70900281,
    70900282
  ],
  "isMostDangerousRtpcKey": {
    "text": "Param_MSMostDangerous"
  },
  "isEndingHitRtpcKey": {
    "text": "Param_isEndingHit"
  },
  "FFLDMLIKGCI": {
    "text": "Param_isEndingHit"
  },
  "cirtDamageRateRtpcKey": {
    "text": "Param_critDamageRate"
  },
  "criticalDamage": {
    "levelRtpcKey": {
      "text": "Param_criticalLevel"
    }
  },
  "threatVSingleInitRtpcKey": {
    "text": "ThreatV_single_init"
  },
  "mostDangerousForMonsterAtkeeRtpcKey": {
    "text": "Param_MSMostDangerous_for_hitter"
  },
  "battleFervorData": {
    "rtpcMap": {
      "ThreatV_init_entire": {
        "text": "ThreatV_init_entire"
      },
      "Cmbt_ctrl_ability": {
        "text": "Cmbt_ctrl_ability"
      },
      "EmergencyV": {
        "text": "EmergencyV"
      },
      "EmotionV_sfx": {
        "text": "EmotionV_sfx"
      },
      "EmotionV_vox": {
        "text": "EmotionV_vox"
      },
      "EmotionV_music": {
        "text": "EmotionV_music"
      },
      "ThreatV_single_init": {
        "text": "ThreatV_single_init"
      },
      "Adventure_level": {
        "text": "Adventure_level"
      },
      "Strength_MvsP": {
        "text": "Param_Strength_MvsP"
      },
      "charinjury_ratio": {
        "text": "Param_charinjury_ratio"
      },
      "plrinjury_ratio_rtpc": {
        "text": "Param_plrinjury_ratio"
      }
    },
    "battleFervorSwitchRtpcKey": {
      "text": ""
    },
    "deathZoneModifierName": "UNIQUE_DynamicAbility_DeathZone_Debuff_Avatar",
    "deathZoneGetMaxHpRatioInterval": 30,
    "IIEDJBMPGHF": 0.5,
    "FEEPCDOHCBI": 1.2000000476837158,
    "LPBBJELKJNN": 1.5,
    "CDBKFICPPHC": 15.0
  },
  "attackResultData": {
    "enable": true,
    "attackerTypeRtpcKey": {
      "text": "Param_entityType_for_atker"
    },
    "isMostDangerousRtpcKey": {
      "text": "Param_MSMostDangerous_for_atker"
    },
    "avatarPeerRtpcKey": {
      "text": "Param_Multiplayer_for_atker"
    }
  },
  "avatarAttackerImpactOverrideMap": {
    "10000006-NormalAttack_01": {
      "attakerAvatarID": 10000006,
      "attackTag": "NormalAttack_01",
      "impactEvent": {
        "eventName": {
          "text": "Play_sfx_impact_combat"
        },
        "NCBIBKJDCHI": 1.5
      }
    },
    "10000006-NormalAttack_02": {
      "attakerAvatarID": 10000006,
      "attackTag": "NormalAttack_02",
      "impactEvent": {
        "eventName": {
          "text": "Play_sfx_impact_combat"
        },
        "NCBIBKJDCHI": 1.5
      }
    },
    "10000006-NormalAttack_03": {
      "attakerAvatarID": 10000006,
      "attackTag": "NormalAttack_03",
      "impactEvent": {
        "eventName": {
          "text": "Play_sfx_impact_combat"
        },
        "NCBIBKJDCHI": 1.5
      }
    },
    "10000006-NormalAttack_04": {
      "attakerAvatarID": 10000006,
      "attackTag": "NormalAttack_04",
      "impactEvent": {
        "eventName": {
          "text": "Play_sfx_impact_combat"
        },
        "NCBIBKJDCHI": 1.5
      }
    },
    "10000006-Elemental_Art": {
      "attakerAvatarID": 10000006,
      "attackTag": "Elemental_Art",
      "impactEvent": {
        "eventName": {
          "text": "Play_sfx_impact_combat"
        },
        "NCBIBKJDCHI": 1.5
      }
    },
    "10000006-Elemental_Burst": {
      "attakerAvatarID": 10000006,
      "attackTag": "Elemental_Burst",
      "impactEvent": {
        "eventName": {
          "text": "Play_sfx_impact_combat"
        },
        "NCBIBKJDCHI": 1.5
      }
    },
    "10000006-FallingAttack": {
      "attakerAvatarID": 10000006,
      "attackTag": "FallingAttack",
      "impactEvent": {
        "eventName": {
          "text": "Play_sfx_impact_combat"
        },
        "NCBIBKJDCHI": 1.5
      }
    },
    "10000007-FallingAttack": {
      "attakerAvatarID": 10000007,
      "attackTag": "FallingAttack",
      "impactEvent": {
        "eventName": {
          "text": "Play_sfx_impact_combat"
        },
        "NCBIBKJDCHI": 1.5
      }
    },
    "10000002-FallingAttack": {
      "attakerAvatarID": 10000002,
      "attackTag": "FallingAttack",
      "impactEvent": {
        "eventName": {
          "text": "Play_sfx_impact_combat"
        },
        "NCBIBKJDCHI": 1.5
      }
    },
    "10000003-FallingAttack": {
      "attakerAvatarID": 10000003,
      "attackTag": "FallingAttack",
      "impactEvent": {
        "eventName": {
          "text": "Play_sfx_impact_combat"
        },
        "NCBIBKJDCHI": 1.5
      }
    },
    "10000014-FallingAttack": {
      "attakerAvatarID": 10000014,
      "attackTag": "FallingAttack",
      "impactEvent": {
        "eventName": {
          "text": "Play_sfx_impact_combat"
        },
        "NCBIBKJDCHI": 1.5
      }
    },
    "10000014-NormalAttack_01": {
      "attakerAvatarID": 10000014,
      "attackTag": "NormalAttack_01",
      "impactEvent": {
        "eventName": {
          "text": "Play_sfx_impact_combat"
        },
        "NCBIBKJDCHI": 1.5
      }
    },
    "10000014-NormalAttack_02": {
      "attakerAvatarID": 10000014,
      "attackTag": "NormalAttack_02",
      "impactEvent": {
        "eventName": {
          "text": "Play_sfx_impact_combat"
        },
        "NCBIBKJDCHI": 1.5
      }
    },
    "10000014-NormalAttack_03": {
      "attakerAvatarID": 10000014,
      "attackTag": "NormalAttack_03",
      "impactEvent": {
        "eventName": {
          "text": "Play_sfx_impact_combat"
        },
        "NCBIBKJDCHI": 1.5
      }
    },
    "10000014-ExtraAttack": {
      "attakerAvatarID": 10000014,
      "attackTag": "ExtraAttack",
      "impactEvent": {
        "eventName": {
          "text": "Play_sfx_impact_combat"
        },
        "NCBIBKJDCHI": 1.5
      }
    },
    "10000014-NormalAttack_04": {
      "attakerAvatarID": 10000014,
      "attackTag": "NormalAttack_04",
      "impactEvent": {
        "eventName": {
          "text": "Play_sfx_impact_combat"
        },
        "NCBIBKJDCHI": 1.5
      }
    },
    "10000014-NormalAttack_05": {
      "attakerAvatarID": 10000014,
      "attackTag": "NormalAttack_05",
      "impactEvent": {
        "eventName": {
          "text": "Play_sfx_impact_combat"
        },
        "NCBIBKJDCHI": 1.5
      }
    },
    "10000015-FallingAttack": {
      "attakerAvatarID": 10000015,
      "attackTag": "FallingAttack",
      "impactEvent": {
        "eventName": {
          "text": "Play_sfx_impact_combat"
        },
        "NCBIBKJDCHI": 1.5
      }
    },
    "10000015-Elemental_Burst": {
      "attakerAvatarID": 10000015,
      "attackTag": "Elemental_Burst",
      "impactEvent": {
        "eventName": {
          "text": "Play_sfx_impact_combat"
        },
        "NCBIBKJDCHI": 1.5
      }
    },
    "10000016-FallingAttack": {
      "attakerAvatarID": 10000016,
      "attackTag": "FallingAttack",
      "impactEvent": {
        "eventName": {
          "text": "Play_sfx_impact_combat"
        },
        "NCBIBKJDCHI": 1.5
      }
    },
    "10000020-FallingAttack": {
      "attakerAvatarID": 10000020,
      "attackTag": "FallingAttack",
      "impactEvent": {
        "eventName": {
          "text": "Play_sfx_impact_combat"
        },
        "NCBIBKJDCHI": 1.5
      }
    },
    "10000021-FallingAttack": {
      "attakerAvatarID": 10000021,
      "attackTag": "FallingAttack",
      "impactEvent": {
        "eventName": {
          "text": "Play_sfx_impact_combat"
        },
        "NCBIBKJDCHI": 1.5
      }
    },
    "10000021-Elemental_Burst": {
      "attakerAvatarID": 10000021,
      "attackTag": "Elemental_Burst",
      "impactEvent": {
        "eventName": {
          "text": "Play_sfx_impact_combat"
        },
        "NCBIBKJDCHI": 1.5
      }
    },
    "10000022-FallingAttack": {
      "attakerAvatarID": 10000022,
      "attackTag": "FallingAttack",
      "impactEvent": {
        "eventName": {
          "text": "Play_sfx_impact_combat"
        },
        "NCBIBKJDCHI": 1.5
      }
    },
    "10000022-Elemental_Art": {
      "attakerAvatarID": 10000022,
      "attackTag": "Elemental_Art",
      "impactEvent": {
        "eventName": {
          "text": "Play_sfx_impact_combat"
        },
        "NCBIBKJDCHI": 1.5
      }
    },
    "10000023-FallingAttack": {
      "attakerAvatarID": 10000023,
      "attackTag": "FallingAttack",
      "impactEvent": {
        "eventName": {
          "text": "Play_sfx_impact_combat"
        },
        "NCBIBKJDCHI": 1.5
      }
    },
    "10000024-FallingAttack": {
      "attakerAvatarID": 10000024,
      "attackTag": "FallingAttack",
      "impactEvent": {
        "eventName": {
          "text": "Play_sfx_impact_combat"
        },
        "NCBIBKJDCHI": 1.5
      }
    },
    "10000025-FallingAttack": {
      "attakerAvatarID": 10000025,
      "attackTag": "FallingAttack",
      "impactEvent": {
        "eventName": {
          "text": "Play_sfx_impact_combat"
        },
        "NCBIBKJDCHI": 1.5
      }
    },
    "10000025-Elemental_Burst": {
      "attakerAvatarID": 10000025,
      "attackTag": "Elemental_Burst",
      "impactEvent": {
        "eventName": {
          "text": "Play_sfx_impact_combat"
        },
        "NCBIBKJDCHI": 1.5
      }
    },
    "10000026-FallingAttack": {
      "attakerAvatarID": 10000026,
      "attackTag": "FallingAttack",
      "impactEvent": {
        "eventName": {
          "text": "Play_sfx_impact_combat"
        },
        "NCBIBKJDCHI": 1.5
      }
    },
    "10000027-NormalAttack_01": {
      "attakerAvatarID": 10000027,
      "attackTag": "NormalAttack_01",
      "impactEvent": {
        "eventName": {
          "text": "Play_sfx_impact_combat"
        },
        "NCBIBKJDCHI": 1.5
      }
    },
    "10000027-NormalAttack_02": {
      "attakerAvatarID": 10000027,
      "attackTag": "NormalAttack_02",
      "impactEvent": {
        "eventName": {
          "text": "Play_sfx_impact_combat"
        },
        "NCBIBKJDCHI": 1.5
      }
    },
    "10000027-NormalAttack_03": {
      "attakerAvatarID": 10000027,
      "attackTag": "NormalAttack_03",
      "impactEvent": {
        "eventName": {
          "text": "Play_sfx_impact_combat"
        },
        "NCBIBKJDCHI": 1.5
      }
    },
    "10000027-ExtraAttack": {
      "attakerAvatarID": 10000027,
      "attackTag": "ExtraAttack",
      "impactEvent": {
        "eventName": {
          "text": "Play_sfx_impact_combat"
        },
        "NCBIBKJDCHI": 1.5
      }
    },
    "10000027-Elemental_Art": {
      "attakerAvatarID": 10000027,
      "attackTag": "Elemental_Art",
      "impactEvent": {
        "eventName": {
          "text": "Play_sfx_impact_combat"
        },
        "NCBIBKJDCHI": 1.5
      }
    },
    "10000027-Elemental_Burst": {
      "attakerAvatarID": 10000027,
      "attackTag": "Elemental_Burst",
      "impactEvent": {
        "eventName": {
          "text": "Play_sfx_impact_combat"
        },
        "NCBIBKJDCHI": 1.5
      }
    },
    "10000027-FallingAttack": {
      "attakerAvatarID": 10000027,
      "attackTag": "FallingAttack",
      "impactEvent": {
        "eventName": {
          "text": "Play_sfx_impact_combat"
        },
        "NCBIBKJDCHI": 1.5
      }
    },
    "10000029-FallingAttack": {
      "attakerAvatarID": 10000029,
      "attackTag": "FallingAttack",
      "impactEvent": {
        "eventName": {
          "text": "Play_sfx_impact_combat"
        },
        "NCBIBKJDCHI": 1.5
      }
    },
    "10000029-ExtraAttack": {
      "attakerAvatarID": 10000029,
      "attackTag": "ExtraAttack",
      "impactEvent": {
        "eventName": {
          "text": "Play_sfx_impact_combat"
        },
        "NCBIBKJDCHI": 1.5
      }
    },
    "10000029-NormalAttack_01": {
      "attakerAvatarID": 10000029,
      "attackTag": "NormalAttack_01",
      "impactEvent": {
        "eventName": {
          "text": "Play_sfx_impact_combat"
        },
        "NCBIBKJDCHI": 1.5
      }
    },
    "10000029-NormalAttack_02": {
      "attakerAvatarID": 10000029,
      "attackTag": "NormalAttack_02",
      "impactEvent": {
        "eventName": {
          "text": "Play_sfx_impact_combat"
        },
        "NCBIBKJDCHI": 1.5
      }
    },
    "10000029-NormalAttack_03": {
      "attakerAvatarID": 10000029,
      "attackTag": "NormalAttack_03",
      "impactEvent": {
        "eventName": {
          "text": "Play_sfx_impact_combat"
        },
        "NCBIBKJDCHI": 1.5
      }
    },
    "10000029-Elemental_Art": {
      "attakerAvatarID": 10000029,
      "attackTag": "Elemental_Art",
      "impactEvent": {
        "eventName": {
          "text": "Play_sfx_impact_combat"
        },
        "NCBIBKJDCHI": 1.5
      }
    },
    "10000030-FallingAttack": {
      "attakerAvatarID": 10000030,
      "attackTag": "FallingAttack",
      "impactEvent": {
        "eventName": {
          "text": "Play_sfx_impact_combat"
        },
        "NCBIBKJDCHI": 1.5
      }
    },
    "10000031-FallingAttack": {
      "attakerAvatarID": 10000031,
      "attackTag": "FallingAttack",
      "impactEvent": {
        "eventName": {
          "text": "Play_sfx_impact_combat"
        },
        "NCBIBKJDCHI": 1.5
      }
    },
    "10000032-FallingAttack": {
      "attakerAvatarID": 10000032,
      "attackTag": "FallingAttack",
      "impactEvent": {
        "eventName": {
          "text": "Play_sfx_impact_combat"
        },
        "NCBIBKJDCHI": 1.5
      }
    },
    "10000033-FallingAttack": {
      "attakerAvatarID": 10000033,
      "attackTag": "FallingAttack",
      "impactEvent": {
        "eventName": {
          "text": "Play_sfx_impact_combat"
        },
        "NCBIBKJDCHI": 1.5
      }
    },
    "10000033-Elemental_Burst": {
      "attakerAvatarID": 10000033,
      "attackTag": "Elemental_Burst",
      "impactEvent": {
        "eventName": {
          "text": "Play_sfx_impact_combat"
        },
        "NCBIBKJDCHI": 1.5
      }
    },
    "10000034-FallingAttack": {
      "attakerAvatarID": 10000034,
      "attackTag": "FallingAttack",
      "impactEvent": {
        "eventName": {
          "text": "Play_sfx_impact_combat"
        },
        "NCBIBKJDCHI": 1.5
      }
    },
    "10000035-FallingAttack": {
      "attakerAvatarID": 10000035,
      "attackTag": "FallingAttack",
      "impactEvent": {
        "eventName": {
          "text": "Play_sfx_impact_combat"
        },
        "NCBIBKJDCHI": 1.5
      }
    },
    "10000036-FallingAttack": {
      "attakerAvatarID": 10000036,
      "attackTag": "FallingAttack",
      "impactEvent": {
        "eventName": {
          "text": "Play_sfx_impact_combat"
        },
        "NCBIBKJDCHI": 1.5
      }
    },
    "10000036-Elemental_Burst": {
      "attakerAvatarID": 10000036,
      "attackTag": "Elemental_Burst",
      "impactEvent": {
        "eventName": {
          "text": "Play_sfx_impact_combat"
        },
        "NCBIBKJDCHI": 1.5
      }
    },
    "10000037-FallingAttack": {
      "attakerAvatarID": 10000037,
      "attackTag": "FallingAttack",
      "impactEvent": {
        "eventName": {
          "text": "Play_sfx_impact_combat"
        },
        "NCBIBKJDCHI": 1.5
      }
    },
    "10000037-Elemental_Burst": {
      "attakerAvatarID": 10000037,
      "attackTag": "Elemental_Burst",
      "impactEvent": {
        "eventName": {
          "text": "Play_sfx_impact_combat"
        },
        "NCBIBKJDCHI": 1.5
      }
    },
    "10000038-FallingAttack": {
      "attakerAvatarID": 10000038,
      "attackTag": "FallingAttack",
      "impactEvent": {
        "eventName": {
          "text": "Play_sfx_impact_combat"
        },
        "NCBIBKJDCHI": 1.5
      }
    },
    "10000039-FallingAttack": {
      "attakerAvatarID": 10000039,
      "attackTag": "FallingAttack",
      "impactEvent": {
        "eventName": {
          "text": "Play_sfx_impact_combat"
        },
        "NCBIBKJDCHI": 1.5
      }
    },
    "10000041-NormalAttack_01": {
      "attakerAvatarID": 10000041,
      "attackTag": "NormalAttack_01",
      "impactEvent": {
        "eventName": {
          "text": "Play_sfx_impact_combat"
        },
        "NCBIBKJDCHI": 1.5
      }
    },
    "10000041-NormalAttack_02": {
      "attakerAvatarID": 10000041,
      "attackTag": "NormalAttack_02",
      "impactEvent": {
        "eventName": {
          "text": "Play_sfx_impact_combat"
        },
        "NCBIBKJDCHI": 1.5
      }
    },
    "10000041-NormalAttack_03": {
      "attakerAvatarID": 10000041,
      "attackTag": "NormalAttack_03",
      "impactEvent": {
        "eventName": {
          "text": "Play_sfx_impact_combat"
        },
        "NCBIBKJDCHI": 1.5
      }
    },
    "10000041-NormalAttack_04": {
      "attakerAvatarID": 10000041,
      "attackTag": "NormalAttack_04",
      "impactEvent": {
        "eventName": {
          "text": "Play_sfx_impact_combat"
        },
        "NCBIBKJDCHI": 1.5
      }
    },
    "10000041-FallingAttack": {
      "attakerAvatarID": 10000041,
      "attackTag": "FallingAttack",
      "impactEvent": {
        "eventName": {
          "text": "Play_sfx_impact_combat"
        },
        "NCBIBKJDCHI": 1.5
      }
    },
    "10000041-Elemental_Art": {
      "attakerAvatarID": 10000041,
      "attackTag": "Elemental_Art",
      "impactEvent": {
        "eventName": {
          "text": "Play_sfx_impact_combat"
        },
        "NCBIBKJDCHI": 1.5
      }
    },
    "10000042-FallingAttack": {
      "attakerAvatarID": 10000042,
      "attackTag": "FallingAttack",
      "impactEvent": {
        "eventName": {
          "text": "Play_sfx_impact_combat"
        },
        "NCBIBKJDCHI": 1.5
      }
    },
    "10000043-NormalAttack_01": {
      "attakerAvatarID": 10000043,
      "attackTag": "NormalAttack_01",
      "impactEvent": {
        "eventName": {
          "text": "Play_sfx_impact_combat"
        },
        "NCBIBKJDCHI": 1.5
      }
    },
    "10000043-NormalAttack_02": {
      "attakerAvatarID": 10000043,
      "attackTag": "NormalAttack_02",
      "impactEvent": {
        "eventName": {
          "text": "Play_sfx_impact_combat"
        },
        "NCBIBKJDCHI": 1.5
      }
    },
    "10000043-NormalAttack_03": {
      "attakerAvatarID": 10000043,
      "attackTag": "NormalAttack_03",
      "impactEvent": {
        "eventName": {
          "text": "Play_sfx_impact_combat"
        },
        "NCBIBKJDCHI": 1.5
      }
    },
    "10000043-NormalAttack_04": {
      "attakerAvatarID": 10000043,
      "attackTag": "NormalAttack_04",
      "impactEvent": {
        "eventName": {
          "text": "Play_sfx_impact_combat"
        },
        "NCBIBKJDCHI": 1.5
      }
    },
    "10000043-FallingAttack": {
      "attakerAvatarID": 10000043,
      "attackTag": "FallingAttack",
      "impactEvent": {
        "eventName": {
          "text": "Play_sfx_impact_combat"
        },
        "NCBIBKJDCHI": 1.5
      }
    },
    "10000044-FallingAttack": {
      "attakerAvatarID": 10000044,
      "attackTag": "FallingAttack",
      "impactEvent": {
        "eventName": {
          "text": "Play_sfx_impact_combat"
        },
        "NCBIBKJDCHI": 1.5
      }
    },
    "10000045-FallingAttack": {
      "attakerAvatarID": 10000045,
      "attackTag": "FallingAttack",
      "impactEvent": {
        "eventName": {
          "text": "Play_sfx_impact_combat"
        },
        "NCBIBKJDCHI": 1.5
      }
    },
    "10000046-FallingAttack": {
      "attakerAvatarID": 10000046,
      "attackTag": "FallingAttack",
      "impactEvent": {
        "eventName": {
          "text": "Play_sfx_impact_combat"
        },
        "NCBIBKJDCHI": 1.5
      }
    },
    "10000046-ExtraAttack": {
      "attakerAvatarID": 10000046,
      "attackTag": "ExtraAttack",
      "impactEvent": {
        "eventName": {
          "text": "Play_sfx_impact_combat"
        },
        "NCBIBKJDCHI": 1.5
      }
    },
    "10000047-FallingAttack": {
      "attakerAvatarID": 10000047,
      "attackTag": "FallingAttack",
      "impactEvent": {
        "eventName": {
          "text": "Play_sfx_impact_combat"
        },
        "NCBIBKJDCHI": 1.5
      }
    },
    "10000048-NormalAttack_01": {
      "attakerAvatarID": 10000048,
      "attackTag": "NormalAttack_01",
      "impactEvent": {
        "eventName": {
          "text": "Play_sfx_impact_combat"
        },
        "NCBIBKJDCHI": 1.5
      }
    },
    "10000048-NormalAttack_02": {
      "attakerAvatarID": 10000048,
      "attackTag": "NormalAttack_02",
      "impactEvent": {
        "eventName": {
          "text": "Play_sfx_impact_combat"
        },
        "NCBIBKJDCHI": 1.5
      }
    },
    "10000048-NormalAttack_03": {
      "attakerAvatarID": 10000048,
      "attackTag": "NormalAttack_03",
      "impactEvent": {
        "eventName": {
          "text": "Play_sfx_impact_combat"
        },
        "NCBIBKJDCHI": 1.5
      }
    },
    "10000048-ExtraAttack": {
      "attakerAvatarID": 10000048,
      "attackTag": "ExtraAttack",
      "impactEvent": {
        "eventName": {
          "text": "Play_sfx_impact_combat"
        },
        "NCBIBKJDCHI": 1.5
      }
    },
    "10000048-FallingAttack": {
      "attakerAvatarID": 10000048,
      "attackTag": "FallingAttack",
      "impactEvent": {
        "eventName": {
          "text": "Play_sfx_impact_combat"
        },
        "NCBIBKJDCHI": 1.5
      }
    },
    "10000049-FallingAttack": {
      "attakerAvatarID": 10000049,
      "attackTag": "FallingAttack",
      "impactEvent": {
        "eventName": {
          "text": "Play_sfx_impact_combat"
        },
        "NCBIBKJDCHI": 1.5
      }
    },
    "10000050-FallingAttack": {
      "attakerAvatarID": 10000050,
      "attackTag": "FallingAttack",
      "impactEvent": {
        "eventName": {
          "text": "Play_sfx_impact_combat"
        },
        "NCBIBKJDCHI": 1.5
      }
    },
    "10000051-FallingAttack": {
      "attakerAvatarID": 10000051,
      "attackTag": "FallingAttack",
      "impactEvent": {
        "eventName": {
          "text": "Play_sfx_impact_combat"
        },
        "NCBIBKJDCHI": 1.5
      }
    },
    "10000052-FallingAttack": {
      "attakerAvatarID": 10000052,
      "attackTag": "FallingAttack",
      "impactEvent": {
        "eventName": {
          "text": "Play_sfx_impact_combat"
        },
        "NCBIBKJDCHI": 1.5
      }
    },
    "10000053-FallingAttack": {
      "attakerAvatarID": 10000053,
      "attackTag": "FallingAttack",
      "impactEvent": {
        "eventName": {
          "text": "Play_sfx_impact_combat"
        },
        "NCBIBKJDCHI": 1.5
      }
    },
    "10000054-NormalAttack_01": {
      "attakerAvatarID": 10000054,
      "attackTag": "NormalAttack_01",
      "impactEvent": {
        "eventName": {
          "text": "Play_sfx_impact_combat"
        },
        "NCBIBKJDCHI": 1.5
      }
    },
    "10000054-NormalAttack_02": {
      "attakerAvatarID": 10000054,
      "attackTag": "NormalAttack_02",
      "impactEvent": {
        "eventName": {
          "text": "Play_sfx_impact_combat"
        },
        "NCBIBKJDCHI": 1.5
      }
    },
    "10000054-NormalAttack_03": {
      "attakerAvatarID": 10000054,
      "attackTag": "NormalAttack_03",
      "impactEvent": {
        "eventName": {
          "text": "Play_sfx_impact_combat"
        },
        "NCBIBKJDCHI": 1.5
      }
    },
    "10000054-ExtraAttack": {
      "attakerAvatarID": 10000054,
      "attackTag": "ExtraAttack",
      "impactEvent": {
        "eventName": {
          "text": "Play_sfx_impact_combat"
        },
        "NCBIBKJDCHI": 1.5
      }
    },
    "10000054-Elemental_Art": {
      "attakerAvatarID": 10000054,
      "attackTag": "Elemental_Art",
      "impactEvent": {
        "eventName": {
          "text": "Play_sfx_impact_combat"
        },
        "NCBIBKJDCHI": 1.5
      }
    },
    "10000054-FallingAttack": {
      "attakerAvatarID": 10000054,
      "attackTag": "FallingAttack",
      "impactEvent": {
        "eventName": {
          "text": "Play_sfx_impact_combat"
        },
        "NCBIBKJDCHI": 1.5
      }
    },
    "10000055-FallingAttack": {
      "attakerAvatarID": 10000055,
      "attackTag": "FallingAttack",
      "impactEvent": {
        "eventName": {
          "text": "Play_sfx_impact_combat"
        },
        "NCBIBKJDCHI": 1.5
      }
    },
    "10000056-FallingAttack": {
      "attakerAvatarID": 10000056,
      "attackTag": "FallingAttack",
      "impactEvent": {
        "eventName": {
          "text": "Play_sfx_impact_combat"
        },
        "NCBIBKJDCHI": 1.5
      }
    },
    "10000057-FallingAttack": {
      "attakerAvatarID": 10000057,
      "attackTag": "FallingAttack",
      "impactEvent": {
        "eventName": {
          "text": "Play_sfx_impact_combat"
        },
        "NCBIBKJDCHI": 1.5
      }
    },
    "10000058-NormalAttack_01": {
      "attakerAvatarID": 10000058,
      "attackTag": "NormalAttack_01",
      "impactEvent": {
        "eventName": {
          "text": "Play_sfx_impact_combat"
        },
        "NCBIBKJDCHI": 1.5
      }
    },
    "10000058-NormalAttack_02": {
      "attakerAvatarID": 10000058,
      "attackTag": "NormalAttack_02",
      "impactEvent": {
        "eventName": {
          "text": "Play_sfx_impact_combat"
        },
        "NCBIBKJDCHI": 1.5
      }
    },
    "10000058-NormalAttack_03": {
      "attakerAvatarID": 10000058,
      "attackTag": "NormalAttack_03",
      "impactEvent": {
        "eventName": {
          "text": "Play_sfx_impact_combat"
        },
        "NCBIBKJDCHI": 1.5
      }
    },
    "10000058-ExtraAttack": {
      "attakerAvatarID": 10000058,
      "attackTag": "ExtraAttack",
      "impactEvent": {
        "eventName": {
          "text": "Play_sfx_impact_combat"
        },
        "NCBIBKJDCHI": 1.5
      }
    },
    "10000058-FallingAttack": {
      "attakerAvatarID": 10000058,
      "attackTag": "FallingAttack",
      "impactEvent": {
        "eventName": {
          "text": "Play_sfx_impact_combat"
        },
        "NCBIBKJDCHI": 1.5
      }
    },
    "10000059-NormalAttack_01": {
      "attakerAvatarID": 10000059,
      "attackTag": "NormalAttack_01",
      "impactEvent": {
        "eventName": {
          "text": "Play_sfx_impact_combat"
        },
        "NCBIBKJDCHI": 1.5
      }
    },
    "10000059-NormalAttack_02": {
      "attakerAvatarID": 10000059,
      "attackTag": "NormalAttack_02",
      "impactEvent": {
        "eventName": {
          "text": "Play_sfx_impact_combat"
        },
        "NCBIBKJDCHI": 1.5
      }
    },
    "10000059-NormalAttack_03": {
      "attakerAvatarID": 10000059,
      "attackTag": "NormalAttack_03",
      "impactEvent": {
        "eventName": {
          "text": "Play_sfx_impact_combat"
        },
        "NCBIBKJDCHI": 1.5
      }
    },
    "10000059-NormalAttack_04": {
      "attakerAvatarID": 10000059,
      "attackTag": "NormalAttack_04",
      "impactEvent": {
        "eventName": {
          "text": "Play_sfx_impact_combat"
        },
        "NCBIBKJDCHI": 1.5
      }
    },
    "10000059-NormalAttack_05": {
      "attakerAvatarID": 10000059,
      "attackTag": "NormalAttack_05",
      "impactEvent": {
        "eventName": {
          "text": "Play_sfx_impact_combat"
        },
        "NCBIBKJDCHI": 1.5
      }
    },
    "10000059-FallingAttack": {
      "attakerAvatarID": 10000059,
      "attackTag": "FallingAttack",
      "impactEvent": {
        "eventName": {
          "text": "Play_sfx_impact_combat"
        },
        "NCBIBKJDCHI": 1.5
      }
    },
    "10000060-FallingAttack": {
      "attakerAvatarID": 10000060,
      "attackTag": "FallingAttack",
      "impactEvent": {
        "eventName": {
          "text": "Play_sfx_impact_combat"
        },
        "NCBIBKJDCHI": 1.5
      }
    },
    "10000060-Elemental_Art": {
      "attakerAvatarID": 10000060,
      "attackTag": "Elemental_Art",
      "impactEvent": {
        "eventName": {
          "text": "Play_sfx_impact_combat"
        },
        "NCBIBKJDCHI": 1.5
      }
    },
    "10000060-Elemental_Burst": {
      "attakerAvatarID": 10000060,
      "attackTag": "Elemental_Burst",
      "impactEvent": {
        "eventName": {
          "text": "Play_sfx_impact_combat"
        },
        "NCBIBKJDCHI": 1.5
      }
    },
    "10000061-FallingAttack": {
      "attakerAvatarID": 10000061,
      "attackTag": "FallingAttack",
      "impactEvent": {
        "eventName": {
          "text": "Play_sfx_impact_combat"
        },
        "NCBIBKJDCHI": 1.5
      }
    },
    "10000061-Elemental_Burst": {
      "attakerAvatarID": 10000061,
      "attackTag": "Elemental_Burst",
      "impactEvent": {
        "eventName": {
          "text": "Play_sfx_impact_combat"
        },
        "NCBIBKJDCHI": 1.5
      }
    },
    "10000062-FallingAttack": {
      "attakerAvatarID": 10000062,
      "attackTag": "FallingAttack",
      "impactEvent": {
        "eventName": {
          "text": "Play_sfx_impact_combat"
        },
        "NCBIBKJDCHI": 1.5
      }
    },
    "10000063-FallingAttack": {
      "attakerAvatarID": 10000063,
      "attackTag": "FallingAttack",
      "impactEvent": {
        "eventName": {
          "text": "Play_sfx_impact_combat"
        },
        "NCBIBKJDCHI": 1.5
      }
    },
    "10000064-FallingAttack": {
      "attakerAvatarID": 10000064,
      "attackTag": "FallingAttack",
      "impactEvent": {
        "eventName": {
          "text": "Play_sfx_impact_combat"
        },
        "NCBIBKJDCHI": 1.5
      }
    },
    "10000065-FallingAttack": {
      "attakerAvatarID": 10000065,
      "attackTag": "FallingAttack",
      "impactEvent": {
        "eventName": {
          "text": "Play_sfx_impact_combat"
        },
        "NCBIBKJDCHI": 1.5
      }
    },
    "10000066-FallingAttack": {
      "attakerAvatarID": 10000066,
      "attackTag": "FallingAttack",
      "impactEvent": {
        "eventName": {
          "text": "Play_sfx_impact_combat"
        },
        "NCBIBKJDCHI": 1.5
      }
    },
    "10000067-FallingAttack": {
      "attakerAvatarID": 10000067,
      "attackTag": "FallingAttack",
      "impactEvent": {
        "eventName": {
          "text": "Play_sfx_impact_combat"
        },
        "NCBIBKJDCHI": 1.5
      }
    },
    "10000067-Elemental_Art": {
      "attakerAvatarID": 10000067,
      "attackTag": "Elemental_Art",
      "impactEvent": {
        "eventName": {
          "text": "Play_sfx_impact_combat"
        },
        "NCBIBKJDCHI": 1.5
      }
    },
    "10000068-FallingAttack": {
      "attakerAvatarID": 10000068,
      "attackTag": "FallingAttack",
      "impactEvent": {
        "eventName": {
          "text": "Play_sfx_impact_combat"
        },
        "NCBIBKJDCHI": 1.5
      }
    },
    "10000068-Elemental_Art": {
      "attakerAvatarID": 10000068,
      "attackTag": "Elemental_Art",
      "impactEvent": {
        "eventName": {
          "text": "Play_sfx_impact_combat"
        },
        "NCBIBKJDCHI": 1.5
      }
    },
    "10000069-FallingAttack": {
      "attakerAvatarID": 10000069,
      "attackTag": "FallingAttack",
      "impactEvent": {
        "eventName": {
          "text": "Play_sfx_impact_combat"
        },
        "NCBIBKJDCHI": 1.5
      }
    },
    "10000069-Elemental_Burst": {
      "attakerAvatarID": 10000069,
      "attackTag": "Elemental_Burst",
      "impactEvent": {
        "eventName": {
          "text": "Play_sfx_impact_combat"
        },
        "NCBIBKJDCHI": 1.5
      }
    },
    "10000070-FallingAttack": {
      "attakerAvatarID": 10000070,
      "attackTag": "FallingAttack",
      "impactEvent": {
        "eventName": {
          "text": "Play_sfx_impact_combat"
        },
        "NCBIBKJDCHI": 1.5
      }
    },
    "10000070-Elemental_Burst": {
      "attakerAvatarID": 10000070,
      "attackTag": "Elemental_Burst",
      "impactEvent": {
        "eventName": {
          "text": "Play_sfx_impact_combat"
        },
        "NCBIBKJDCHI": 1.5
      }
    },
    "10000071-FallingAttack": {
      "attakerAvatarID": 10000071,
      "attackTag": "FallingAttack",
      "impactEvent": {
        "eventName": {
          "text": "Play_sfx_impact_combat"
        },
        "NCBIBKJDCHI": 1.5
      }
    },
    "10000072-FallingAttack": {
      "attakerAvatarID": 10000072,
      "attackTag": "FallingAttack",
      "impactEvent": {
        "eventName": {
          "text": "Play_sfx_impact_combat"
        },
        "NCBIBKJDCHI": 1.5
      }
    },
    "10000073-FallingAttack": {
      "attakerAvatarID": 10000073,
      "attackTag": "FallingAttack",
      "impactEvent": {
        "eventName": {
          "text": "Play_sfx_impact_combat"
        },
        "NCBIBKJDCHI": 1.5
      }
    },
    "10000074-FallingAttack": {
      "attakerAvatarID": 10000074,
      "attackTag": "FallingAttack",
      "impactEvent": {
        "eventName": {
          "text": "Play_sfx_impact_combat"
        },
        "NCBIBKJDCHI": 1.5
      }
    },
    "10000074-Elemental_Art": {
      "attakerAvatarID": 10000074,
      "attackTag": "Elemental_Art",
      "impactEvent": {
        "eventName": {
          "text": "Play_sfx_impact_combat"
        },
        "NCBIBKJDCHI": 1.5
      }
    },
    "10000074-Elemental_Burst": {
      "attakerAvatarID": 10000074,
      "attackTag": "Elemental_Burst",
      "impactEvent": {
        "eventName": {
          "text": "Play_sfx_impact_combat"
        },
        "NCBIBKJDCHI": 1.5
      }
    },
    "10000076-FallingAttack": {
      "attakerAvatarID": 10000076,
      "attackTag": "FallingAttack",
      "impactEvent": {
        "eventName": {
          "text": "Play_sfx_impact_combat"
        },
        "NCBIBKJDCHI": 1.5
      }
    },
    "10000076-Elemental_Art": {
      "attakerAvatarID": 10000076,
      "attackTag": "Elemental_Art",
      "impactEvent": {
        "eventName": {
          "text": "Play_sfx_impact_combat"
        },
        "NCBIBKJDCHI": 1.5
      }
    },
    "10000077-FallingAttack": {
      "attakerAvatarID": 10000077,
      "attackTag": "FallingAttack",
      "impactEvent": {
        "eventName": {
          "text": "Play_sfx_impact_combat"
        },
        "NCBIBKJDCHI": 1.5
      }
    },
    "10000077-Elemental_Burst": {
      "attakerAvatarID": 10000077,
      "attackTag": "Elemental_Burst",
      "impactEvent": {
        "eventName": {
          "text": "Play_sfx_impact_combat"
        },
        "NCBIBKJDCHI": 1.5
      }
    },
    "10000078-FallingAttack": {
      "attakerAvatarID": 10000078,
      "attackTag": "FallingAttack",
      "impactEvent": {
        "eventName": {
          "text": "Play_sfx_impact_combat"
        },
        "NCBIBKJDCHI": 1.5
      }
    },
    "10000081-FallingAttack": {
      "attakerAvatarID": 10000081,
      "attackTag": "FallingAttack",
      "impactEvent": {
        "eventName": {
          "text": "Play_sfx_impact_combat"
        },
        "NCBIBKJDCHI": 1.5
      }
    },
    "10000082-FallingAttack": {
      "attakerAvatarID": 10000082,
      "attackTag": "FallingAttack",
      "impactEvent": {
        "eventName": {
          "text": "Play_sfx_impact_combat"
        },
        "NCBIBKJDCHI": 1.5
      }
    },
    "10000086-FallingAttack": {
      "attakerAvatarID": 10000086,
      "attackTag": "FallingAttack",
      "impactEvent": {
        "eventName": {
          "text": "Play_sfx_impact_combat"
        },
        "NCBIBKJDCHI": 1.5
      }
    },
    "10000087-NormalAttack_01": {
      "attakerAvatarID": 10000087,
      "attackTag": "NormalAttack_01",
      "impactEvent": {
        "eventName": {
          "text": "Play_sfx_impact_combat"
        },
        "NCBIBKJDCHI": 1.5
      }
    },
    "10000087-NormalAttack_02": {
      "attakerAvatarID": 10000087,
      "attackTag": "NormalAttack_02",
      "impactEvent": {
        "eventName": {
          "text": "Play_sfx_impact_combat"
        },
        "NCBIBKJDCHI": 1.5
      }
    },
    "10000087-NormalAttack_03": {
      "attakerAvatarID": 10000087,
      "attackTag": "NormalAttack_03",
      "impactEvent": {
        "eventName": {
          "text": "Play_sfx_impact_combat"
        },
        "NCBIBKJDCHI": 1.5
      }
    },
    "10000087-ExtraAttack": {
      "attakerAvatarID": 10000087,
      "attackTag": "ExtraAttack",
      "impactEvent": {
        "eventName": {
          "text": "Play_sfx_impact_combat"
        },
        "NCBIBKJDCHI": 1.5
      }
    },
    "10000087-FallingAttack": {
      "attakerAvatarID": 10000087,
      "attackTag": "FallingAttack",
      "impactEvent": {
        "eventName": {
          "text": "Play_sfx_impact_combat"
        },
        "NCBIBKJDCHI": 1.5
      }
    },
    "10000088-FallingAttack": {
      "attakerAvatarID": 10000088,
      "attackTag": "FallingAttack",
      "impactEvent": {
        "eventName": {
          "text": "Play_sfx_impact_combat"
        },
        "NCBIBKJDCHI": 1.5
      }
    },
    "10000089-FallingAttack": {
      "attakerAvatarID": 10000089,
      "attackTag": "FallingAttack",
      "impactEvent": {
        "eventName": {
          "text": "Play_sfx_impact_combat"
        },
        "NCBIBKJDCHI": 1.5
      }
    },
    "10000092-FallingAttack": {
      "attakerAvatarID": 10000092,
      "attackTag": "FallingAttack",
      "impactEvent": {
        "eventName": {
          "text": "Play_sfx_impact_combat"
        },
        "NCBIBKJDCHI": 1.5
      }
    },
    "10000093-FallingAttack": {
      "attakerAvatarID": 10000093,
      "attackTag": "FallingAttack",
      "impactEvent": {
        "eventName": {
          "text": "Play_sfx_impact_combat"
        },
        "NCBIBKJDCHI": 1.5
      }
    },
    "10000094-FallingAttack": {
      "attakerAvatarID": 10000094,
      "attackTag": "FallingAttack",
      "impactEvent": {
        "eventName": {
          "text": "Play_sfx_impact_combat"
        },
        "NCBIBKJDCHI": 1.5
      }
    },
    "10000095-FallingAttack": {
      "attakerAvatarID": 10000095,
      "attackTag": "FallingAttack",
      "impactEvent": {
        "eventName": {
          "text": "Play_sfx_impact_combat"
        },
        "NCBIBKJDCHI": 1.5
      }
    },
    "10000096-FallingAttack": {
      "attakerAvatarID": 10000096,
      "attackTag": "FallingAttack",
      "impactEvent": {
        "eventName": {
          "text": "Play_sfx_impact_combat"
        },
        "NCBIBKJDCHI": 1.5
      }
    },
    "10000097-FallingAttack": {
      "attakerAvatarID": 10000097,
      "attackTag": "FallingAttack",
      "impactEvent": {
        "eventName": {
          "text": "Play_sfx_impact_combat"
        },
        "NCBIBKJDCHI": 1.5
      }
    },
    "10000098-FallingAttack": {
      "attakerAvatarID": 10000098,
      "attackTag": "FallingAttack",
      "impactEvent": {
        "eventName": {
          "text": "Play_sfx_impact_combat"
        },
        "NCBIBKJDCHI": 1.5
      }
    }
  },
  "endHint": {
    "levelRtpcKey": {
      "text": "Param_endhitLevel"
    }
  },
  "OACOMLDCPKM": {
    "text": "Stop_sfx_char_avatar_melee_attack"
  }
}