{
  "luaDataPath": "",
  "entityBan": "",
  "disableNpcLod": true,
  "protectNpcMobileLod": true,
  "talkFlag": 1,
  "startFade": {
    "startFadeOutDuration": 0.0
  },
  "endFade": {
    "startFadeOutDuration": 0.0
  },
  "actors": [
    {
      "alias": "Avatar",
      "visible": true,
      "bornPointName": "",
      "relativePosType": "AVATAR_NEW",
      "relativePosNpcAlias": "",
      "_bindMovingTargetKey": ""
    },
    {
      "configID": 9046,
      "alias": "9046",
      "visible": true,
      "bornPointName": "",
      "relativePosType": "AVATAR_NEW",
      "relativePosNpcAlias": "",
      "_bindMovingTargetKey": ""
    }
  ],
  "group": [
    [
      {
        "$type": "EFHODGEJOHJ",
        "type": "CAMERA_FOCUS",
        "duration": 0.5,
        "actionId": 110,
        "targetNpcAlias": "",
        "PHGBNNGCJKJ": "",
        "NFILMKCFHEB": "",
        "BGPNGHDAECF": ""
      },
      {
        "$type": "MoleMole.Config.ConfigTimeProtectAction",
        "type": "TIME_PROTECT",
        "duration": 0.5,
        "actionId": 111
      },
      {
        "$type": "NPCNMEOCADD",
        "type": "LOOK_AT",
        "aliasList": [
          "Avatar"
        ],
        "actionId": 112,
        "enableHead": true,
        "headTurnTime": 0.5,
        "targetNpcAlias": "9046",
        "targetNpcLookAtPoint": "",
        "BHGPHGNFCBF": ""
      },
      {
        "$type": "IEKHMHNHENB",
        "type": "STEER_TO",
        "duration": 1.0,
        "aliasList": [
          "9046"
        ],
        "actionId": 113,
        "steerType": "TO_LOCAL_AVATAR_ADVANCED",
        "useSteerAnim": true,
        "interruptFreestyle": true,
        "forceSteer": true,
        "targetNpcAlias": "",
        "fixInterNull": true,
        "BHGPHGNFCBF": ""
      },
      {
        "$type": "NPCNMEOCADD",
        "type": "LOOK_AT",
        "delayTime": 0.10000000149011612,
        "aliasList": [
          "9046"
        ],
        "actionId": 114,
        "enableHead": true,
        "headTurnTime": 0.5,
        "targetNpcAlias": "Avatar",
        "targetNpcLookAtPoint": "",
        "BHGPHGNFCBF": ""
      }
    ],
    [
      {
        "$type": "MJFAIFFAGOF",
        "type": "DIALOG",
        "aliasList": [
          "9046"
        ],
        "actionId": 107,
        "dialogID": 690461101,
        "protectTime": 0.5
      },
      {
        "$type": "ICHLNKHGCAG",
        "type": "EMO_SYNC",
        "aliasList": [
          "9046"
        ],
        "actionId": 123,
        "dataPath": "Cs_Emo_Avatar_Simple_Common_Set/Cs_Emo_Avatar_Talk/Cs_Emo_HomeWorld/Cs_Emo_Avatar_Hutao/Cs_Emo_690461101",
        "phonemePath": "",
        "emotionPath": "",
        "mateDataPath": "",
        "matePhonemePath": "",
        "mateEmotionPath": "",
        "dataPathHashList": [
          1846054442045102174,
          16684064398237796228,
          1278491866460521949,
          9790702005821590625
        ],
        "PACNIGOOENN": "",
        "PIBDNPHIAGC": ""
      },
      {
        "$type": "IEKHMHNHENB",
        "type": "STEER_TO",
        "delayTime": 0.4000000059604645,
        "duration": 1.0,
        "aliasList": [
          "Avatar"
        ],
        "actionId": 115,
        "steerType": "TO_TARGET_ADVANCED",
        "useSteerAnim": true,
        "interruptFreestyle": true,
        "forceSteer": true,
        "targetNpcAlias": "9046",
        "fixInterNull": true,
        "BHGPHGNFCBF": ""
      },
      {
        "$type": "MoleMole.Config.ConfigEmojiBubbleAction",
        "type": "EMOJI_BUBBLE",
        "delayTime": 1.0,
        "aliasList": [
          "9046"
        ],
        "actionId": 120,
        "pattarnName": "Eff_EmojiBubble_Emoji_Love_Spice"
      },
      {
        "$type": "EDCHPJLDKIN",
        "type": "BODY_LANG",
        "delayTime": 1.399999976158142,
        "aliasList": [
          "9046"
        ],
        "actionId": 117,
        "bodyLangParam": 4031,
        "forceDoFreeStyle": true,
        "canDoRepeatFreeStyle": false,
        "eventPatternSuiteKey": ""
      },
      {
        "$type": "EDCHPJLDKIN",
        "type": "BODY_LANG",
        "delayTime": 2.700000047683716,
        "aliasList": [
          "9046"
        ],
        "actionId": 118,
        "isContinue": true,
        "forceDoFreeStyle": true,
        "canDoRepeatFreeStyle": false,
        "eventPatternSuiteKey": ""
      },
      {
        "$type": "NPCNMEOCADD",
        "type": "LOOK_AT",
        "delayTime": 2.700000047683716,
        "aliasList": [
          "9046"
        ],
        "actionId": 125,
        "enableHead": true,
        "headTurnTime": 0.5,
        "targetNpcAlias": "Avatar",
        "openBackProtect": true,
        "targetNpcLookAtPoint": "",
        "BHGPHGNFCBF": ""
      },
      {
        "$type": "EDCHPJLDKIN",
        "type": "BODY_LANG",
        "delayTime": 3.5399999618530273,
        "aliasList": [
          "9046"
        ],
        "actionId": 119,
        "bodyLangParam": 1173,
        "forceDoFreeStyle": true,
        "canDoRepeatFreeStyle": false,
        "eventPatternSuiteKey": ""
      },
      {
        "$type": "MoleMole.Config.ConfigEmojiBubbleAction",
        "type": "EMOJI_BUBBLE",
        "delayTime": 5.5,
        "aliasList": [
          "9046"
        ],
        "actionId": 121,
        "pattarnName": "EmojiBubble_Emoji_Insight"
      }
    ],
    [
      {
        "$type": "MoleMole.Config.ConfigTimeProtectAction",
        "type": "TIME_PROTECT",
        "duration": 0.10000000149011612,
        "actionId": 105
      },
      {
        "$type": "EDCHPJLDKIN",
        "type": "BODY_LANG",
        "aliasList": [
          "9046"
        ],
        "actionId": 122,
        "isContinue": true,
        "forceDoFreeStyle": true,
        "canDoRepeatFreeStyle": false,
        "eventPatternSuiteKey": ""
      }
    ]
  ],
  "groupId": [
    {
      "grpId": 4254544952,
      "nextGrpId": 4254544953
    },
    {
      "index": 1,
      "grpId": 4254544953,
      "nextGrpId": 4254544954
    },
    {
      "index": 2,
      "grpId": 4254544954,
      "nextGrpId": 4254544955
    }
  ],
  "freeStyleDic": {
    "9046": [
      4031,
      1173
    ]
  }
}