{
  "talkId": 1012104,
  "KPGKDHAFHFE": "NARRATOR",
  "dialogList": [
    {
      "id": 101219903,
      "nextDialogs": [
        101219904
      ],
      "talkRole": {
        "type": "TALK_ROLE_NPC",
        "_id": "1029"
      },
      "talkContentTextMapHash": 2124356778,
      "talkAssetPath": "",
      "talkAssetPathAlter": "",
      "talkAudioName": "",
      "actionBefore": "",
      "actionWhile": "",
      "actionAfter": "",
      "optionIcon": "",
      "iconPath": ""
    },
    {
      "id": 101219904,
      "talkRole": {
        "type": "TALK_ROLE_NPC",
        "_id": "1029"
      },
      "talkContentTextMapHash": 2571306514,
      "talkAssetPath": "",
      "talkAssetPathAlter": "",
      "talkAudioName": "",
      "actionBefore": "",
      "actionWhile": "",
      "actionAfter": "",
      "optionIcon": "",
      "iconPath": ""
    }
  ]
}