{
  "talkId": 10252208,
  "KPGKDHAFHFE": "NARRATOR",
  "dialogList": [
    {
      "id": 10252208,
      "talkRole": {
        "type": "TALK_ROLE_NPC",
        "_id": "1005"
      },
      "talkContentTextMapHash": 2360282569,
      "talkAssetPath": "",
      "talkAssetPathAlter": "",
      "talkAudioName": "",
      "actionBefore": "",
      "actionWhile": "",
      "actionAfter": "",
      "optionIcon": "",
      "iconPath": ""
    },
    {
      "id": 10252209,
      "talkRole": {
        "type": "TALK_ROLE_NPC",
        "_id": "10232"
      },
      "talkContentTextMapHash": 2705598801,
      "talkAssetPath": "",
      "talkAssetPathAlter": "",
      "talkAudioName": "",
      "actionBefore": "",
      "actionWhile": "",
      "actionAfter": "",
      "optionIcon": "",
      "iconPath": ""
    },
    {
      "id": 10252210,
      "talkRole": {
        "type": "TALK_ROLE_NPC",
        "_id": "10232"
      },
      "talkContentTextMapHash": 1749040049,
      "talkAssetPath": "",
      "talkAssetPathAlter": "",
      "talkAudioName": "",
      "actionBefore": "",
      "actionWhile": "",
      "actionAfter": "",
      "optionIcon": "",
      "iconPath": ""
    }
  ]
}