{
  "talkId": 110190205,
  "KPGKDHAFHFE": "NARRATOR",
  "dialogList": [
    {
      "id": 110199908,
      "nextDialogs": [
        110199909
      ],
      "talkRole": {
        "type": "TALK_ROLE_NPC",
        "_id": "12498"
      },
      "talkContentTextMapHash": 2755175346,
      "talkAssetPath": "",
      "talkAssetPathAlter": "",
      "talkAudioName": "",
      "actionBefore": "",
      "actionWhile": "",
      "actionAfter": "",
      "optionIcon": "",
      "iconPath": ""
    },
    {
      "id": 110199909,
      "nextDialogs": [
        110199910
      ],
      "talkRole": {
        "type": "TALK_ROLE_NPC",
        "_id": "2023"
      },
      "talkContentTextMapHash": 3522271546,
      "talkAssetPath": "",
      "talkAssetPathAlter": "",
      "talkAudioName": "",
      "actionBefore": "",
      "actionWhile": "",
      "actionAfter": "",
      "optionIcon": "",
      "iconPath": ""
    },
    {
      "id": 110199910,
      "talkRole": {
        "type": "TALK_ROLE_NPC",
        "_id": "2023"
      },
      "talkContentTextMapHash": 3266699050,
      "talkAssetPath": "",
      "talkAssetPathAlter": "",
      "talkAudioName": "",
      "actionBefore": "",
      "actionWhile": "",
      "actionAfter": "",
      "optionIcon": "",
      "iconPath": ""
    }
  ]
}