{
  "talkId": 1102701,
  "KPGKDHAFHFE": "NARRATOR",
  "dialogList": [
    {
      "id": 110279901,
      "nextDialogs": [
        110279902
      ],
      "talkRole": {
        "type": "TALK_ROLE_NPC",
        "_id": "13135"
      },
      "talkContentTextMapHash": 925228442,
      "talkAssetPath": "",
      "talkAssetPathAlter": "",
      "talkAudioName": "",
      "actionBefore": "",
      "actionWhile": "",
      "actionAfter": "",
      "optionIcon": "",
      "iconPath": ""
    },
    {
      "id": 110279902,
      "talkRole": {
        "type": "TALK_ROLE_NPC",
        "_id": "13135"
      },
      "talkContentTextMapHash": 3163025842,
      "talkAssetPath": "",
      "talkAssetPathAlter": "",
      "talkAudioName": "",
      "actionBefore": "",
      "actionWhile": "",
      "actionAfter": "",
      "optionIcon": "",
      "iconPath": ""
    }
  ]
}