{
  "talkId": 1102203,
  "KPGKDHAFHFE": "NARRATOR",
  "dialogList": [
    {
      "id": 110220301,
      "talkRole": {
        "type": "TALK_ROLE_NPC",
        "_id": "10303"
      },
      "talkContentTextMapHash": 1882409386,
      "talkAssetPath": "",
      "talkAssetPathAlter": "",
      "talkAudioName": "",
      "actionBefore": "",
      "actionWhile": "",
      "actionAfter": "",
      "optionIcon": "",
      "iconPath": ""
    },
    {
      "id": 110220302,
      "talkRole": {
        "type": "TALK_ROLE_NPC",
        "_id": "10303"
      },
      "talkContentTextMapHash": 552320522,
      "talkAssetPath": "",
      "talkAssetPathAlter": "",
      "talkAudioName": "",
      "actionBefore": "",
      "actionWhile": "",
      "actionAfter": "",
      "optionIcon": "",
      "iconPath": ""
    }
  ]
}