{
  "talkId": 1104302,
  "KPGKDHAFHFE": "NARRATOR",
  "dialogList": [
    {
      "id": 110430201,
      "talkRole": {
        "type": "TALK_ROLE_NPC",
        "_id": "1005"
      },
      "talkContentTextMapHash": 1589894490,
      "talkAssetPath": "",
      "talkAssetPathAlter": "",
      "talkAudioName": "",
      "actionBefore": "",
      "actionWhile": "",
      "actionAfter": "",
      "optionIcon": "",
      "iconPath": ""
    },
    {
      "id": 110430202,
      "talkRole": {
        "type": "TALK_ROLE_NPC",
        "_id": "1018"
      },
      "talkContentTextMapHash": 3677495898,
      "talkAssetPath": "",
      "talkAssetPathAlter": "",
      "talkAudioName": "",
      "actionBefore": "",
      "actionWhile": "",
      "actionAfter": "",
      "optionIcon": "",
      "iconPath": ""
    }
  ]
}