{
  "talkId": 1111007,
  "KPGKDHAFHFE": "NARRATOR",
  "dialogList": [
    {
      "id": 111109908,
      "nextDialogs": [
        111109909
      ],
      "talkRole": {
        "type": "TALK_ROLE_NPC",
        "_id": "1005"
      },
      "talkContentTextMapHash": 1289669242,
      "talkAssetPath": "",
      "talkAssetPathAlter": "",
      "talkAudioName": "",
      "actionBefore": "",
      "actionWhile": "",
      "actionAfter": "",
      "optionIcon": "",
      "iconPath": ""
    },
    {
      "id": 111109909,
      "talkRole": {
        "type": "TALK_ROLE_NPC",
        "_id": "1021"
      },
      "talkContentTextMapHash": 3519128514,
      "talkAssetPath": "",
      "talkAssetPathAlter": "",
      "talkAudioName": "",
      "actionBefore": "",
      "actionWhile": "",
      "actionAfter": "",
      "optionIcon": "",
      "iconPath": ""
    }
  ]
}