{
  "talkId": 1112203,
  "KPGKDHAFHFE": "NARRATOR",
  "dialogList": [
    {
      "id": 111229909,
      "nextDialogs": [
        111229910
      ],
      "talkRole": {
        "type": "TALK_ROLE_NPC",
        "_id": "1005"
      },
      "talkContentTextMapHash": 3943100418,
      "talkAssetPath": "",
      "talkAssetPathAlter": "",
      "talkAudioName": "",
      "actionBefore": "",
      "actionWhile": "",
      "actionAfter": "",
      "optionIcon": "",
      "iconPath": ""
    },
    {
      "id": 111229910,
      "talkRole": {
        "type": "TALK_ROLE_NPC",
        "_id": "10232"
      },
      "talkContentTextMapHash": 1114581682,
      "talkAssetPath": "",
      "talkAssetPathAlter": "",
      "talkAudioName": "",
      "actionBefore": "",
      "actionWhile": "",
      "actionAfter": "",
      "optionIcon": "",
      "iconPath": ""
    }
  ]
}