{
  "talkId": 120282601,
  "KPGKDHAFHFE": "NARRATOR",
  "dialogList": [
    {
      "id": 120282601,
      "talkRole": {
        "type": "TALK_ROLE_NPC",
        "_id": "12362"
      },
      "talkContentTextMapHash": 654883074,
      "talkAssetPath": "",
      "talkAssetPathAlter": "",
      "talkAudioName": "",
      "actionBefore": "",
      "actionWhile": "",
      "actionAfter": "",
      "optionIcon": "",
      "iconPath": ""
    }
  ]
}