{
  "talkId": 1202104,
  "KPGKDHAFHFE": "NARRATOR",
  "dialogList": [
    {
      "id": 120219905,
      "nextDialogs": [
        120219906
      ],
      "talkRole": {
        "type": "TALK_ROLE_NPC",
        "_id": "1037"
      },
      "talkContentTextMapHash": 1918570770,
      "talkAssetPath": "",
      "talkAssetPathAlter": "",
      "talkAudioName": "",
      "actionBefore": "",
      "actionWhile": "",
      "actionAfter": "",
      "optionIcon": "",
      "iconPath": ""
    },
    {
      "id": 120219906,
      "talkRole": {
        "type": "TALK_ROLE_NPC",
        "_id": "1037"
      },
      "talkContentTextMapHash": 673670186,
      "talkAssetPath": "",
      "talkAssetPathAlter": "",
      "talkAudioName": "",
      "actionBefore": "",
      "actionWhile": "",
      "actionAfter": "",
      "optionIcon": "",
      "iconPath": ""
    }
  ]
}