{
  "talkId": 1202507,
  "KPGKDHAFHFE": "NARRATOR",
  "dialogList": [
    {
      "id": 120259911,
      "talkRole": {
        "type": "TALK_ROLE_NPC",
        "_id": "1044"
      },
      "talkContentTextMapHash": 2492850666,
      "talkAssetPath": "",
      "talkAssetPathAlter": "",
      "talkAudioName": "",
      "actionBefore": "",
      "actionWhile": "",
      "actionAfter": "",
      "optionIcon": "",
      "iconPath": ""
    }
  ]
}