{
  "talkId": 1202509,
  "KPGKDHAFHFE": "NARRATOR",
  "dialogList": [
    {
      "id": 120259914,
      "nextDialogs": [
        120259915
      ],
      "talkRole": {
        "type": "TALK_ROLE_NPC",
        "_id": "1044"
      },
      "talkContentTextMapHash": 3443530314,
      "talkAssetPath": "",
      "talkAssetPathAlter": "",
      "talkAudioName": "",
      "actionBefore": "",
      "actionWhile": "",
      "actionAfter": "",
      "optionIcon": "",
      "iconPath": ""
    },
    {
      "id": 120259915,
      "talkRole": {
        "type": "TALK_ROLE_NPC",
        "_id": "1005"
      },
      "talkContentTextMapHash": 3716017090,
      "talkAssetPath": "",
      "talkAssetPathAlter": "",
      "talkAudioName": "",
      "actionBefore": "",
      "actionWhile": "",
      "actionAfter": "",
      "optionIcon": "",
      "iconPath": ""
    }
  ]
}