{
  "talkId": 1203302,
  "KPGKDHAFHFE": "NARRATOR",
  "dialogList": [
    {
      "id": 120339905,
      "nextDialogs": [
        120339906
      ],
      "talkRole": {
        "type": "TALK_ROLE_NPC",
        "_id": "1005"
      },
      "talkContentTextMapHash": 997802162,
      "talkAssetPath": "",
      "talkAssetPathAlter": "",
      "talkAudioName": "",
      "actionBefore": "",
      "actionWhile": "",
      "actionAfter": "",
      "optionIcon": "",
      "iconPath": ""
    },
    {
      "id": 120339906,
      "nextDialogs": [
        120339907
      ],
      "talkRole": {
        "type": "TALK_ROLE_NPC",
        "_id": "1047"
      },
      "talkContentTextMapHash": 1156561978,
      "talkAssetPath": "",
      "talkAssetPathAlter": "",
      "talkAudioName": "",
      "actionBefore": "",
      "actionWhile": "",
      "actionAfter": "",
      "optionIcon": "",
      "iconPath": ""
    },
    {
      "id": 120339907,
      "nextDialogs": [
        120339908
      ],
      "talkRole": {
        "type": "TALK_ROLE_NPC",
        "_id": "1047"
      },
      "talkContentTextMapHash": 564265258,
      "talkAssetPath": "",
      "talkAssetPathAlter": "",
      "talkAudioName": "",
      "actionBefore": "",
      "actionWhile": "",
      "actionAfter": "",
      "optionIcon": "",
      "iconPath": ""
    },
    {
      "id": 120339908,
      "talkRole": {
        "type": "TALK_ROLE_NPC",
        "_id": "1047"
      },
      "talkContentTextMapHash": 475503522,
      "talkAssetPath": "",
      "talkAssetPathAlter": "",
      "talkAudioName": "",
      "actionBefore": "",
      "actionWhile": "",
      "actionAfter": "",
      "optionIcon": "",
      "iconPath": ""
    }
  ]
}