{
  "talkId": 1300301,
  "KPGKDHAFHFE": "NARRATOR",
  "dialogList": [
    {
      "id": 130039901,
      "nextDialogs": [
        130039902
      ],
      "talkRole": {
        "type": "TALK_ROLE_NPC",
        "_id": "1005"
      },
      "talkContentTextMapHash": 621843962,
      "talkAssetPath": "",
      "talkAssetPathAlter": "",
      "talkAudioName": "",
      "actionBefore": "",
      "actionWhile": "",
      "actionAfter": "",
      "optionIcon": "",
      "iconPath": ""
    },
    {
      "id": 130039902,
      "talkRole": {
        "type": "TALK_ROLE_NPC",
        "_id": "1005"
      },
      "talkContentTextMapHash": 1531947330,
      "talkAssetPath": "",
      "talkAssetPathAlter": "",
      "talkAudioName": "",
      "actionBefore": "",
      "actionWhile": "",
      "actionAfter": "",
      "optionIcon": "",
      "iconPath": ""
    }
  ]
}