{
  "talkId": 1301425,
  "KPGKDHAFHFE": "NARRATOR",
  "dialogList": [
    {
      "id": 130149943,
      "talkRole": {
        "type": "TALK_ROLE_NPC",
        "_id": "12852"
      },
      "talkContentTextMapHash": 1865535066,
      "talkRoleNameTextMapHash": 3052412635,
      "talkAssetPath": "",
      "talkAssetPathAlter": "",
      "talkAudioName": "",
      "actionBefore": "",
      "actionWhile": "",
      "actionAfter": "",
      "optionIcon": "",
      "iconPath": ""
    }
  ]
}