{
  "talkId": 1301910,
  "KPGKDHAFHFE": "NARRATOR",
  "dialogList": [
    {
      "id": 130199923,
      "talkRole": {
        "type": "TALK_ROLE_NPC",
        "_id": "13162"
      },
      "talkContentTextMapHash": 2897027250,
      "talkAssetPath": "",
      "talkAssetPathAlter": "",
      "talkAudioName": "",
      "actionBefore": "",
      "actionWhile": "",
      "actionAfter": "",
      "optionIcon": "",
      "iconPath": ""
    }
  ]
}