{
  "talkId": 1400907,
  "KPGKDHAFHFE": "NARRATOR",
  "dialogList": [
    {
      "id": 140099908,
      "nextDialogs": [
        140099909
      ],
      "talkRole": {
        "type": "TALK_ROLE_NPC",
        "_id": "1076"
      },
      "talkContentTextMapHash": 831668610,
      "talkAssetPath": "",
      "talkAssetPathAlter": "",
      "talkAudioName": "",
      "actionBefore": "",
      "actionWhile": "",
      "actionAfter": "",
      "optionIcon": "",
      "iconPath": ""
    },
    {
      "id": 140099909,
      "nextDialogs": [
        140099910
      ],
      "talkRole": {
        "type": "TALK_ROLE_NPC",
        "_id": "1076"
      },
      "talkContentTextMapHash": 1182003674,
      "talkAssetPath": "",
      "talkAssetPathAlter": "",
      "talkAudioName": "",
      "actionBefore": "",
      "actionWhile": "",
      "actionAfter": "",
      "optionIcon": "",
      "iconPath": ""
    },
    {
      "id": 140099910,
      "nextDialogs": [
        140099911
      ],
      "talkRole": {
        "type": "TALK_ROLE_NPC",
        "_id": "1005"
      },
      "talkContentTextMapHash": 384413858,
      "talkAssetPath": "",
      "talkAssetPathAlter": "",
      "talkAudioName": "",
      "actionBefore": "",
      "actionWhile": "",
      "actionAfter": "",
      "optionIcon": "",
      "iconPath": ""
    },
    {
      "id": 140099911,
      "nextDialogs": [
        140099912
      ],
      "talkRole": {
        "type": "TALK_ROLE_NPC",
        "_id": "1076"
      },
      "talkContentTextMapHash": 3204580946,
      "talkAssetPath": "",
      "talkAssetPathAlter": "",
      "talkAudioName": "",
      "actionBefore": "",
      "actionWhile": "",
      "actionAfter": "",
      "optionIcon": "",
      "iconPath": ""
    },
    {
      "id": 140099912,
      "nextDialogs": [
        140099913
      ],
      "talkRole": {
        "type": "TALK_ROLE_NPC",
        "_id": "1076"
      },
      "talkContentTextMapHash": 1909756690,
      "talkAssetPath": "",
      "talkAssetPathAlter": "",
      "talkAudioName": "",
      "actionBefore": "",
      "actionWhile": "",
      "actionAfter": "",
      "optionIcon": "",
      "iconPath": ""
    },
    {
      "id": 140099913,
      "talkRole": {
        "type": "TALK_ROLE_NPC",
        "_id": "1076"
      },
      "talkContentTextMapHash": 2974421194,
      "talkAssetPath": "",
      "talkAssetPathAlter": "",
      "talkAudioName": "",
      "actionBefore": "",
      "actionWhile": "",
      "actionAfter": "",
      "optionIcon": "",
      "iconPath": ""
    }
  ]
}