{
  "talkId": 1900600103,
  "KPGKDHAFHFE": "NARRATOR",
  "dialogList": [
    {
      "id": 1900600103,
      "nextDialogs": [
        0
      ],
      "talkRole": {
        "type": "TALK_ROLE_NPC",
        "_id": "501"
      },
      "talkContentTextMapHash": 3106524957,
      "talkAssetPath": "",
      "talkAssetPathAlter": "",
      "talkAudioName": "",
      "actionBefore": "",
      "actionWhile": "",
      "actionAfter": "",
      "optionIcon": "",
      "iconPath": ""
    }
  ]
}