{
  "talkId": 19004001,
  "KPGKDHAFHFE": "NARRATOR",
  "dialogList": [
    {
      "id": 1900400101,
      "nextDialogs": [
        0
      ],
      "talkRole": {
        "type": "TALK_ROLE_NPC",
        "_id": "1005"
      },
      "talkContentTextMapHash": 1514290909,
      "talkAssetPath": "",
      "talkAssetPathAlter": "",
      "talkAudioName": "",
      "actionBefore": "",
      "actionWhile": "",
      "actionAfter": "",
      "optionIcon": "",
      "iconPath": ""
    }
  ]
}