{
  "talkId": 190300121,
  "KPGKDHAFHFE": "NARRATOR",
  "dialogList": [
    {
      "id": 1903001213,
      "talkRole": {
        "type": "TALK_ROLE_NPC",
        "_id": "1023"
      },
      "talkContentTextMapHash": 2121146981,
      "talkAssetPath": "",
      "talkAssetPathAlter": "",
      "talkAudioName": "",
      "actionBefore": "",
      "actionWhile": "",
      "actionAfter": "",
      "optionIcon": "",
      "iconPath": ""
    },
    {
      "id": 1903001214,
      "talkRole": {
        "type": "TALK_ROLE_NPC",
        "_id": "1023"
      },
      "talkContentTextMapHash": 3291819709,
      "talkAssetPath": "",
      "talkAssetPathAlter": "",
      "talkAudioName": "",
      "actionBefore": "",
      "actionWhile": "",
      "actionAfter": "",
      "optionIcon": "",
      "iconPath": ""
    }
  ]
}