{
  "talkId": 190440402,
  "KPGKDHAFHFE": "NARRATOR",
  "dialogList": [
    {
      "id": 190440402,
      "nextDialogs": [
        190440403
      ],
      "talkRole": {
        "type": "TALK_ROLE_NPC",
        "_id": "1024"
      },
      "talkContentTextMapHash": 4109193490,
      "talkAssetPath": "",
      "talkAssetPathAlter": "",
      "talkAudioName": "",
      "actionBefore": "",
      "actionWhile": "",
      "actionAfter": "",
      "optionIcon": "",
      "iconPath": ""
    }
  ]
}