{
  "talkId": 1910412,
  "KPGKDHAFHFE": "NARRATOR",
  "dialogList": [
    {
      "id": 191041201,
      "nextDialogs": [
        191041202,
        191041203
      ],
      "talkRole": {
        "type": "TALK_ROLE_NPC",
        "_id": "10808"
      },
      "talkContentTextMapHash": 1151108426,
      "talkRoleNameTextMapHash": 1573550651,
      "talkAssetPath": "",
      "talkAssetPathAlter": "",
      "talkAudioName": "",
      "actionBefore": "",
      "actionWhile": "",
      "actionAfter": "",
      "optionIcon": "",
      "iconPath": ""
    },
    {
      "id": 191041301,
      "nextDialogs": [
        191041302,
        191041303
      ],
      "talkRole": {
        "type": "TALK_ROLE_NPC",
        "_id": "10809"
      },
      "talkContentTextMapHash": 749121506,
      "talkRoleNameTextMapHash": 1323815123,
      "talkAssetPath": "",
      "talkAssetPathAlter": "",
      "talkAudioName": "",
      "actionBefore": "",
      "actionWhile": "",
      "actionAfter": "",
      "optionIcon": "",
      "iconPath": ""
    }
  ]
}