{
  "talkId": 1913606,
  "KPGKDHAFHFE": "NARRATOR",
  "dialogList": [
    {
      "id": 191369907,
      "talkRole": {
        "type": "TALK_ROLE_NPC",
        "_id": "507"
      },
      "talkContentTextMapHash": 3086632538,
      "talkAssetPath": "",
      "talkAssetPathAlter": "",
      "talkAudioName": "",
      "actionBefore": "",
      "actionWhile": "",
      "actionAfter": "",
      "optionIcon": "",
      "iconPath": ""
    }
  ]
}