{
  "talkId": 1913801,
  "KPGKDHAFHFE": "NARRATOR",
  "dialogList": [
    {
      "id": 191389901,
      "nextDialogs": [
        191389902
      ],
      "talkRole": {
        "type": "TALK_ROLE_NPC",
        "_id": "507"
      },
      "talkContentTextMapHash": 2826395786,
      "talkAssetPath": "",
      "talkAssetPathAlter": "",
      "talkAudioName": "",
      "actionBefore": "",
      "actionWhile": "",
      "actionAfter": "",
      "optionIcon": "",
      "iconPath": ""
    },
    {
      "id": 191389902,
      "talkRole": {
        "type": "TALK_ROLE_NPC",
        "_id": "507"
      },
      "talkContentTextMapHash": 1415385338,
      "talkAssetPath": "",
      "talkAssetPathAlter": "",
      "talkAudioName": "",
      "actionBefore": "",
      "actionWhile": "",
      "actionAfter": "",
      "optionIcon": "",
      "iconPath": ""
    }
  ]
}