{
  "talkId": 1914801,
  "KPGKDHAFHFE": "NARRATOR",
  "dialogList": [
    {
      "id": 191489901,
      "nextDialogs": [
        191489902
      ],
      "talkRole": {
        "type": "TALK_ROLE_NPC",
        "_id": "510"
      },
      "talkContentTextMapHash": 2017879410,
      "talkAssetPath": "",
      "talkAssetPathAlter": "",
      "talkAudioName": "",
      "actionBefore": "",
      "actionWhile": "",
      "actionAfter": "",
      "optionIcon": "",
      "iconPath": ""
    },
    {
      "id": 191489902,
      "talkRole": {
        "type": "TALK_ROLE_NPC",
        "_id": "510"
      },
      "talkContentTextMapHash": 1416486490,
      "talkAssetPath": "",
      "talkAssetPathAlter": "",
      "talkAudioName": "",
      "actionBefore": "",
      "actionWhile": "",
      "actionAfter": "",
      "optionIcon": "",
      "iconPath": ""
    }
  ]
}