{
  "talkId": 200201,
  "KPGKDHAFHFE": "NARRATOR",
  "dialogList": [
    {
      "id": 20029901,
      "nextDialogs": [
        20029902
      ],
      "talkRole": {
        "type": "TALK_ROLE_NPC",
        "_id": "1005"
      },
      "talkContentTextMapHash": 3501659874,
      "talkAssetPath": "",
      "talkAssetPathAlter": "",
      "talkAudioName": "",
      "actionBefore": "",
      "actionWhile": "",
      "actionAfter": "",
      "optionIcon": "",
      "iconPath": ""
    },
    {
      "id": 20029902,
      "nextDialogs": [
        20029903
      ],
      "talkRole": {
        "type": "TALK_ROLE_NPC",
        "_id": "1032"
      },
      "talkContentTextMapHash": 587839682,
      "talkAssetPath": "",
      "talkAssetPathAlter": "",
      "talkAudioName": "",
      "actionBefore": "",
      "actionWhile": "",
      "actionAfter": "",
      "optionIcon": "",
      "iconPath": ""
    },
    {
      "id": 20029903,
      "talkRole": {
        "type": "TALK_ROLE_NPC",
        "_id": "1032"
      },
      "talkContentTextMapHash": 2387657706,
      "talkAssetPath": "",
      "talkAssetPathAlter": "",
      "talkAudioName": "",
      "actionBefore": "",
      "actionWhile": "",
      "actionAfter": "",
      "optionIcon": "",
      "iconPath": ""
    }
  ]
}