{
  "talkId": 200903,
  "KPGKDHAFHFE": "NARRATOR",
  "dialogList": [
    {
      "id": 20099905,
      "nextDialogs": [
        20099906
      ],
      "talkRole": {
        "type": "TALK_ROLE_NPC",
        "_id": "12013"
      },
      "talkContentTextMapHash": 1006514682,
      "talkAssetPath": "",
      "talkAssetPathAlter": "",
      "talkAudioName": "",
      "actionBefore": "",
      "actionWhile": "",
      "actionAfter": "",
      "optionIcon": "",
      "iconPath": ""
    },
    {
      "id": 20099906,
      "talkRole": {
        "type": "TALK_ROLE_NPC",
        "_id": "1005"
      },
      "talkContentTextMapHash": 2773572386,
      "talkAssetPath": "",
      "talkAssetPathAlter": "",
      "talkAudioName": "",
      "actionBefore": "",
      "actionWhile": "",
      "actionAfter": "",
      "optionIcon": "",
      "iconPath": ""
    }
  ]
}