{
  "talkId": 201201,
  "KPGKDHAFHFE": "NARRATOR",
  "dialogList": [
    {
      "id": 20129901,
      "talkRole": {
        "type": "TALK_ROLE_NPC",
        "_id": "1033"
      },
      "talkContentTextMapHash": 3378038650,
      "talkAssetPath": "",
      "talkAssetPathAlter": "",
      "talkAudioName": "",
      "actionBefore": "",
      "actionWhile": "",
      "actionAfter": "",
      "optionIcon": "",
      "iconPath": ""
    },
    {
      "id": 20129902,
      "talkRole": {
        "type": "TALK_ROLE_NPC",
        "_id": "1005"
      },
      "talkContentTextMapHash": 896578466,
      "talkAssetPath": "",
      "talkAssetPathAlter": "",
      "talkAudioName": "",
      "actionBefore": "",
      "actionWhile": "",
      "actionAfter": "",
      "optionIcon": "",
      "iconPath": ""
    },
    {
      "id": 20129903,
      "talkRole": {
        "type": "TALK_ROLE_NPC",
        "_id": "1033"
      },
      "talkContentTextMapHash": 2226199162,
      "talkAssetPath": "",
      "talkAssetPathAlter": "",
      "talkAudioName": "",
      "actionBefore": "",
      "actionWhile": "",
      "actionAfter": "",
      "optionIcon": "",
      "iconPath": ""
    }
  ]
}