{
  "talkId": 201303,
  "KPGKDHAFHFE": "NARRATOR",
  "dialogList": [
    {
      "id": 20139905,
      "nextDialogs": [
        20139906
      ],
      "talkRole": {
        "type": "TALK_ROLE_NPC",
        "_id": "3016"
      },
      "talkContentTextMapHash": 1279129810,
      "talkAssetPath": "",
      "talkAssetPathAlter": "",
      "talkAudioName": "",
      "actionBefore": "",
      "actionWhile": "",
      "actionAfter": "",
      "optionIcon": "",
      "iconPath": ""
    },
    {
      "id": 20139906,
      "talkRole": {
        "type": "TALK_ROLE_NPC",
        "_id": "1005"
      },
      "talkContentTextMapHash": 2678304746,
      "talkAssetPath": "",
      "talkAssetPathAlter": "",
      "talkAudioName": "",
      "actionBefore": "",
      "actionWhile": "",
      "actionAfter": "",
      "optionIcon": "",
      "iconPath": ""
    }
  ]
}