{
  "talkId": 2400302,
  "KPGKDHAFHFE": "NARRATOR",
  "dialogList": [
    {
      "id": 240039903,
      "talkRole": {
        "type": "TALK_ROLE_NPC",
        "_id": "5063"
      },
      "talkContentTextMapHash": 3693479610,
      "talkAssetPath": "",
      "talkAssetPathAlter": "",
      "talkAudioName": "",
      "actionBefore": "",
      "actionWhile": "",
      "actionAfter": "",
      "optionIcon": "",
      "iconPath": ""
    }
  ]
}