{
  "talkId": 2400402,
  "KPGKDHAFHFE": "NARRATOR",
  "dialogList": [
    {
      "id": 240049905,
      "talkRole": {
        "type": "TALK_ROLE_NPC",
        "_id": "5021"
      },
      "talkContentTextMapHash": 2707988418,
      "talkAssetPath": "",
      "talkAssetPathAlter": "",
      "talkAudioName": "",
      "actionBefore": "",
      "actionWhile": "",
      "actionAfter": "",
      "optionIcon": "",
      "iconPath": ""
    }
  ]
}