{
  "talkId": 300105,
  "KPGKDHAFHFE": "NARRATOR",
  "dialogList": [
    {
      "id": 30019906,
      "talkRole": {
        "type": "TALK_ROLE_NPC",
        "_id": "1051"
      },
      "talkContentTextMapHash": 2284050890,
      "talkAssetPath": "",
      "talkAssetPathAlter": "",
      "talkAudioName": "",
      "actionBefore": "",
      "actionWhile": "",
      "actionAfter": "",
      "optionIcon": "",
      "iconPath": ""
    }
  ]
}