{
  "talkId": 300703,
  "KPGKDHAFHFE": "NARRATOR",
  "dialogList": [
    {
      "id": 30079907,
      "nextDialogs": [
        30079908
      ],
      "talkRole": {
        "type": "TALK_ROLE_NPC",
        "_id": "12555"
      },
      "talkContentTextMapHash": 604692490,
      "talkAssetPath": "",
      "talkAssetPathAlter": "",
      "talkAudioName": "",
      "actionBefore": "",
      "actionWhile": "",
      "actionAfter": "",
      "optionIcon": "",
      "iconPath": ""
    },
    {
      "id": 30079908,
      "nextDialogs": [
        30079909
      ],
      "talkRole": {
        "type": "TALK_ROLE_NPC",
        "_id": "12555"
      },
      "talkContentTextMapHash": 2468151306,
      "talkAssetPath": "",
      "talkAssetPathAlter": "",
      "talkAudioName": "",
      "actionBefore": "",
      "actionWhile": "",
      "actionAfter": "",
      "optionIcon": "",
      "iconPath": ""
    },
    {
      "id": 30079909,
      "nextDialogs": [
        30079910
      ],
      "talkRole": {
        "type": "TALK_ROLE_NPC",
        "_id": "1005"
      },
      "talkContentTextMapHash": 2591060338,
      "talkAssetPath": "",
      "talkAssetPathAlter": "",
      "talkAudioName": "",
      "actionBefore": "",
      "actionWhile": "",
      "actionAfter": "",
      "optionIcon": "",
      "iconPath": ""
    },
    {
      "id": 30079910,
      "talkRole": {
        "type": "TALK_ROLE_NPC",
        "_id": "12555"
      },
      "talkContentTextMapHash": 3200580042,
      "talkAssetPath": "",
      "talkAssetPathAlter": "",
      "talkAudioName": "",
      "actionBefore": "",
      "actionWhile": "",
      "actionAfter": "",
      "optionIcon": "",
      "iconPath": ""
    }
  ]
}