{
  "talkId": 302507,
  "KPGKDHAFHFE": "NARRATOR",
  "dialogList": [
    {
      "id": 30259914,
      "talkRole": {
        "type": "TALK_ROLE_NPC",
        "_id": "1052"
      },
      "talkContentTextMapHash": 1674231098,
      "talkAssetPath": "",
      "talkAssetPathAlter": "",
      "talkAudioName": "",
      "actionBefore": "",
      "actionWhile": "",
      "actionAfter": "",
      "optionIcon": "",
      "iconPath": ""
    }
  ]
}