{
  "talkId": 303102,
  "KPGKDHAFHFE": "NARRATOR",
  "dialogList": [
    {
      "id": 30319903,
      "nextDialogs": [
        30319904
      ],
      "talkRole": {
        "type": "TALK_ROLE_NPC",
        "_id": "1005"
      },
      "talkContentTextMapHash": 709820122,
      "talkAssetPath": "",
      "talkAssetPathAlter": "",
      "talkAudioName": "",
      "actionBefore": "",
      "actionWhile": "",
      "actionAfter": "",
      "optionIcon": "",
      "iconPath": ""
    },
    {
      "id": 30319904,
      "nextDialogs": [
        30319905
      ],
      "talkRole": {
        "type": "TALK_ROLE_NPC",
        "_id": "12947"
      },
      "talkContentTextMapHash": 2941542578,
      "talkAssetPath": "",
      "talkAssetPathAlter": "",
      "talkAudioName": "",
      "actionBefore": "",
      "actionWhile": "",
      "actionAfter": "",
      "optionIcon": "",
      "iconPath": ""
    },
    {
      "id": 30319905,
      "talkRole": {
        "type": "TALK_ROLE_NPC",
        "_id": "12947"
      },
      "talkContentTextMapHash": 2378670058,
      "talkAssetPath": "",
      "talkAssetPathAlter": "",
      "talkAudioName": "",
      "actionBefore": "",
      "actionWhile": "",
      "actionAfter": "",
      "optionIcon": "",
      "iconPath": ""
    }
  ]
}