{
  "talkId": 1403209,
  "KPGKDHAFHFE": "NARRATOR",
  "dialogList": [
    {
      "id": 140329914,
      "talkRole": {
        "type": "TALK_ROLE_NPC",
        "_id": "1077"
      },
      "talkContentTextMapHash": 2479985146,
      "talkRoleNameTextMapHash": 225999411,
      "talkAssetPath": "",
      "talkAssetPathAlter": "",
      "talkAudioName": "",
      "actionBefore": "",
      "actionWhile": "",
      "actionAfter": "",
      "optionIcon": "",
      "OMBMBJIACEP": 2058142556,
      "iconPath": "ART/UI/Atlas/CutSceneUI/UI_TRPGPic/UI_TRPG_Clorinde",
      "uiType": "DIALOG_UI_TRPGSP"
    }
  ]
}