{
  "talkId": 4001201,
  "KPGKDHAFHFE": "NARRATOR",
  "dialogList": [
    {
      "id": 400129901,
      "talkRole": {
        "type": "TALK_ROLE_NPC",
        "_id": "1005"
      },
      "talkContentTextMapHash": 3617801050,
      "talkAssetPath": "",
      "talkAssetPathAlter": "",
      "talkAudioName": "",
      "actionBefore": "",
      "actionWhile": "",
      "actionAfter": "",
      "optionIcon": "",
      "iconPath": ""
    },
    {
      "id": 400129902,
      "talkRole": {
        "type": "TALK_ROLE_NPC",
        "_id": "10090"
      },
      "talkContentTextMapHash": 3404696242,
      "talkAssetPath": "",
      "talkAssetPathAlter": "",
      "talkAudioName": "",
      "actionBefore": "",
      "actionWhile": "",
      "actionAfter": "",
      "optionIcon": "",
      "iconPath": ""
    }
  ]
}