{
  "talkId": 4002006,
  "KPGKDHAFHFE": "NARRATOR",
  "dialogList": [
    {
      "id": 400200601,
      "nextDialogs": [
        400200602
      ],
      "talkRole": {
        "type": "TALK_ROLE_NPC",
        "_id": "1005"
      },
      "talkContentTextMapHash": 4118695298,
      "talkAssetPath": "",
      "talkAssetPathAlter": "",
      "talkAudioName": "",
      "actionBefore": "",
      "actionWhile": "",
      "actionAfter": "",
      "optionIcon": "",
      "iconPath": ""
    },
    {
      "id": 400200602,
      "talkRole": {
        "type": "TALK_ROLE_NPC",
        "_id": "1042"
      },
      "talkContentTextMapHash": 1129831202,
      "talkAssetPath": "",
      "talkAssetPathAlter": "",
      "talkAudioName": "",
      "actionBefore": "",
      "actionWhile": "",
      "actionAfter": "",
      "optionIcon": "",
      "iconPath": ""
    }
  ]
}