{
  "talkId": 4002502,
  "KPGKDHAFHFE": "NARRATOR",
  "dialogList": [
    {
      "id": 400259904,
      "talkRole": {
        "type": "TALK_ROLE_NPC",
        "_id": "1005"
      },
      "talkContentTextMapHash": 3776632826,
      "talkAssetPath": "",
      "talkAssetPathAlter": "",
      "talkAudioName": "",
      "actionBefore": "",
      "actionWhile": "",
      "actionAfter": "",
      "showDuration": 3.0,
      "optionIcon": "",
      "iconPath": ""
    }
  ]
}