{
  "talkId": 4006701,
  "KPGKDHAFHFE": "NARRATOR",
  "dialogList": [
    {
      "id": 400679901,
      "nextDialogs": [
        400679902
      ],
      "talkRole": {
        "type": "TALK_ROLE_NPC",
        "_id": "12669"
      },
      "talkContentTextMapHash": 427725418,
      "talkAssetPath": "",
      "talkAssetPathAlter": "",
      "talkAudioName": "",
      "actionBefore": "",
      "actionWhile": "",
      "actionAfter": "",
      "optionIcon": "",
      "iconPath": ""
    },
    {
      "id": 400679902,
      "nextDialogs": [
        400679903
      ],
      "talkRole": {
        "type": "TALK_ROLE_NPC",
        "_id": "1032"
      },
      "talkContentTextMapHash": 944852442,
      "talkAssetPath": "",
      "talkAssetPathAlter": "",
      "talkAudioName": "",
      "actionBefore": "",
      "actionWhile": "",
      "actionAfter": "",
      "optionIcon": "",
      "iconPath": ""
    },
    {
      "id": 400679903,
      "nextDialogs": [
        400679904
      ],
      "talkRole": {
        "type": "TALK_ROLE_NPC",
        "_id": "12669"
      },
      "talkContentTextMapHash": 1852502170,
      "talkAssetPath": "",
      "talkAssetPathAlter": "",
      "talkAudioName": "",
      "actionBefore": "",
      "actionWhile": "",
      "actionAfter": "",
      "optionIcon": "",
      "iconPath": ""
    },
    {
      "id": 400679904,
      "nextDialogs": [
        400679905
      ],
      "talkRole": {
        "type": "TALK_ROLE_NPC",
        "_id": "12669"
      },
      "talkContentTextMapHash": 3591550882,
      "talkAssetPath": "",
      "talkAssetPathAlter": "",
      "talkAudioName": "",
      "actionBefore": "",
      "actionWhile": "",
      "actionAfter": "",
      "optionIcon": "",
      "iconPath": ""
    },
    {
      "id": 400679905,
      "nextDialogs": [
        400679906
      ],
      "talkRole": {
        "type": "TALK_ROLE_NPC",
        "_id": "12670"
      },
      "talkContentTextMapHash": 2421486458,
      "talkRoleNameTextMapHash": 4106389779,
      "talkAssetPath": "",
      "talkAssetPathAlter": "",
      "talkAudioName": "",
      "actionBefore": "",
      "actionWhile": "",
      "actionAfter": "",
      "optionIcon": "",
      "iconPath": ""
    },
    {
      "id": 400679906,
      "talkRole": {
        "type": "TALK_ROLE_NPC",
        "_id": "1032"
      },
      "talkContentTextMapHash": 1070279722,
      "talkAssetPath": "",
      "talkAssetPathAlter": "",
      "talkAudioName": "",
      "actionBefore": "",
      "actionWhile": "",
      "actionAfter": "",
      "optionIcon": "",
      "iconPath": ""
    }
  ]
}