{
  "talkId": 4006702,
  "KPGKDHAFHFE": "NARRATOR",
  "dialogList": [
    {
      "id": 400679907,
      "nextDialogs": [
        400679908
      ],
      "talkRole": {
        "type": "TALK_ROLE_NPC",
        "_id": "1032"
      },
      "talkContentTextMapHash": 2577512978,
      "talkAssetPath": "",
      "talkAssetPathAlter": "",
      "talkAudioName": "",
      "actionBefore": "",
      "actionWhile": "",
      "actionAfter": "",
      "optionIcon": "",
      "iconPath": ""
    },
    {
      "id": 400679908,
      "talkRole": {
        "type": "TALK_ROLE_NPC",
        "_id": "1032"
      },
      "talkContentTextMapHash": 3685823482,
      "talkAssetPath": "",
      "talkAssetPathAlter": "",
      "talkAudioName": "",
      "actionBefore": "",
      "actionWhile": "",
      "actionAfter": "",
      "optionIcon": "",
      "iconPath": ""
    }
  ]
}