{
  "talkId": 4007107,
  "KPGKDHAFHFE": "NARRATOR",
  "dialogList": [
    {
      "id": 400719911,
      "talkRole": {
        "type": "TALK_ROLE_NPC",
        "_id": "12674"
      },
      "talkContentTextMapHash": 3590429546,
      "talkAssetPath": "",
      "talkAssetPathAlter": "",
      "talkAudioName": "",
      "actionBefore": "",
      "actionWhile": "",
      "actionAfter": "",
      "optionIcon": "",
      "iconPath": ""
    }
  ]
}