{
  "talkId": 4007308,
  "KPGKDHAFHFE": "NARRATOR",
  "dialogList": [
    {
      "id": 400739915,
      "talkRole": {
        "type": "TALK_ROLE_NPC",
        "_id": "1032"
      },
      "talkContentTextMapHash": 3085589178,
      "talkAssetPath": "",
      "talkAssetPathAlter": "",
      "talkAudioName": "",
      "actionBefore": "",
      "actionWhile": "",
      "actionAfter": "",
      "optionIcon": "",
      "iconPath": ""
    }
  ]
}