{
  "talkId": 4007504,
  "KPGKDHAFHFE": "NARRATOR",
  "dialogList": [
    {
      "id": 400759907,
      "nextDialogs": [
        400759908
      ],
      "talkRole": {
        "type": "TALK_ROLE_NPC",
        "_id": "10095"
      },
      "talkContentTextMapHash": 3400642986,
      "talkAssetPath": "",
      "talkAssetPathAlter": "",
      "talkAudioName": "",
      "actionBefore": "",
      "actionWhile": "",
      "actionAfter": "",
      "optionIcon": "",
      "iconPath": ""
    },
    {
      "id": 400759908,
      "nextDialogs": [
        400759909
      ],
      "talkRole": {
        "type": "TALK_ROLE_NPC",
        "_id": "10095"
      },
      "talkContentTextMapHash": 4047653954,
      "talkAssetPath": "",
      "talkAssetPathAlter": "",
      "talkAudioName": "",
      "actionBefore": "",
      "actionWhile": "",
      "actionAfter": "",
      "optionIcon": "",
      "iconPath": ""
    },
    {
      "id": 400759909,
      "talkRole": {
        "type": "TALK_ROLE_NPC",
        "_id": "10095"
      },
      "talkContentTextMapHash": 853291778,
      "talkAssetPath": "",
      "talkAssetPathAlter": "",
      "talkAudioName": "",
      "actionBefore": "",
      "actionWhile": "",
      "actionAfter": "",
      "optionIcon": "",
      "iconPath": ""
    }
  ]
}