{
  "talkId": 4007310,
  "KPGKDHAFHFE": "NARRATOR",
  "dialogList": [
    {
      "id": 400739917,
      "talkRole": {
        "type": "TALK_ROLE_NPC",
        "_id": "10095"
      },
      "talkContentTextMapHash": 419968242,
      "talkAssetPath": "",
      "talkAssetPathAlter": "",
      "talkAudioName": "",
      "actionBefore": "",
      "actionWhile": "",
      "actionAfter": "",
      "optionIcon": "",
      "iconPath": ""
    }
  ]
}