{
  "talkId": 4008902,
  "KPGKDHAFHFE": "NARRATOR",
  "dialogList": [
    {
      "id": 400899601,
      "nextDialogs": [
        400899602
      ],
      "talkRole": {
        "type": "TALK_ROLE_NPC",
        "_id": "1013"
      },
      "talkContentTextMapHash": 1047146754,
      "talkAssetPath": "",
      "talkAssetPathAlter": "",
      "talkAudioName": "",
      "actionBefore": "",
      "actionWhile": "",
      "actionAfter": "",
      "optionIcon": "",
      "iconPath": ""
    },
    {
      "id": 400899602,
      "nextDialogs": [
        400899603
      ],
      "talkRole": {
        "type": "TALK_ROLE_NPC",
        "_id": "1013"
      },
      "talkContentTextMapHash": 2315583370,
      "talkAssetPath": "",
      "talkAssetPathAlter": "",
      "talkAudioName": "",
      "actionBefore": "",
      "actionWhile": "",
      "actionAfter": "",
      "optionIcon": "",
      "iconPath": ""
    },
    {
      "id": 400899603,
      "nextDialogs": [
        400899604
      ],
      "talkRole": {
        "type": "TALK_ROLE_NPC",
        "_id": "1013"
      },
      "talkContentTextMapHash": 1225536066,
      "talkAssetPath": "",
      "talkAssetPathAlter": "",
      "talkAudioName": "",
      "actionBefore": "",
      "actionWhile": "",
      "actionAfter": "",
      "optionIcon": "",
      "iconPath": ""
    },
    {
      "id": 400899604,
      "nextDialogs": [
        400899605
      ],
      "talkRole": {
        "type": "TALK_ROLE_NPC",
        "_id": "1005"
      },
      "talkContentTextMapHash": 108128106,
      "talkAssetPath": "",
      "talkAssetPathAlter": "",
      "talkAudioName": "",
      "actionBefore": "",
      "actionWhile": "",
      "actionAfter": "",
      "optionIcon": "",
      "iconPath": ""
    },
    {
      "id": 400899605,
      "talkRole": {
        "type": "TALK_ROLE_NPC",
        "_id": "1005"
      },
      "talkContentTextMapHash": 1410014778,
      "talkAssetPath": "",
      "talkAssetPathAlter": "",
      "talkAudioName": "",
      "actionBefore": "",
      "actionWhile": "",
      "actionAfter": "",
      "optionIcon": "",
      "iconPath": ""
    }
  ]
}