{
  "talkId": 4008490,
  "KPGKDHAFHFE": "NARRATOR",
  "dialogList": [
    {
      "id": 400849913,
      "talkRole": {
        "type": "TALK_ROLE_NPC",
        "_id": "1063"
      },
      "talkContentTextMapHash": 2672301410,
      "talkAssetPath": "",
      "talkAssetPathAlter": "",
      "talkAudioName": "",
      "actionBefore": "",
      "actionWhile": "",
      "actionAfter": "",
      "optionIcon": "",
      "iconPath": ""
    }
  ]
}