{
  "talkId": 4009024,
  "KPGKDHAFHFE": "NARRATOR",
  "dialogList": [
    {
      "id": 400909746,
      "talkRole": {
        "type": "TALK_ROLE_NPC",
        "_id": "1040"
      },
      "talkContentTextMapHash": 784287746,
      "talkAssetPath": "",
      "talkAssetPathAlter": "",
      "talkAudioName": "",
      "actionBefore": "",
      "actionWhile": "",
      "actionAfter": "",
      "optionIcon": "",
      "iconPath": ""
    }
  ]
}