{
  "talkId": 4009998,
  "KPGKDHAFHFE": "NARRATOR",
  "dialogList": [
    {
      "id": 400999801,
      "talkRole": {
        "type": "TALK_ROLE_NPC",
        "_id": "1005"
      },
      "talkContentTextMapHash": 1341560034,
      "talkAssetPath": "",
      "talkAssetPathAlter": "",
      "talkAudioName": "",
      "actionBefore": "",
      "actionWhile": "",
      "actionAfter": "",
      "optionIcon": "",
      "iconPath": ""
    },
    {
      "id": 400999802,
      "talkRole": {
        "type": "TALK_ROLE_NPC",
        "_id": "1019"
      },
      "talkContentTextMapHash": 921000114,
      "talkAssetPath": "",
      "talkAssetPathAlter": "",
      "talkAudioName": "",
      "actionBefore": "",
      "actionWhile": "",
      "actionAfter": "",
      "optionIcon": "",
      "iconPath": ""
    }
  ]
}