{
  "talkId": 4009030,
  "KPGKDHAFHFE": "NARRATOR",
  "dialogList": [
    {
      "id": 400909832,
      "talkRole": {
        "type": "TALK_ROLE_NPC",
        "_id": "1033"
      },
      "talkContentTextMapHash": 1097609026,
      "talkAssetPath": "",
      "talkAssetPathAlter": "",
      "talkAudioName": "",
      "actionBefore": "",
      "actionWhile": "",
      "actionAfter": "",
      "optionIcon": "",
      "iconPath": ""
    },
    {
      "id": 400909833,
      "talkRole": {
        "type": "TALK_ROLE_NPC",
        "_id": "1005"
      },
      "talkContentTextMapHash": 4134230482,
      "talkAssetPath": "",
      "talkAssetPathAlter": "",
      "talkAudioName": "",
      "actionBefore": "",
      "actionWhile": "",
      "actionAfter": "",
      "optionIcon": "",
      "iconPath": ""
    },
    {
      "id": 400909834,
      "talkRole": {
        "type": "TALK_ROLE_NPC",
        "_id": "1033"
      },
      "talkContentTextMapHash": 2423266970,
      "talkAssetPath": "",
      "talkAssetPathAlter": "",
      "talkAudioName": "",
      "actionBefore": "",
      "actionWhile": "",
      "actionAfter": "",
      "optionIcon": "",
      "iconPath": ""
    },
    {
      "id": 400909835,
      "talkRole": {
        "type": "TALK_ROLE_NPC",
        "_id": "1033"
      },
      "talkContentTextMapHash": 2409966802,
      "talkAssetPath": "",
      "talkAssetPathAlter": "",
      "talkAudioName": "",
      "actionBefore": "",
      "actionWhile": "",
      "actionAfter": "",
      "optionIcon": "",
      "iconPath": ""
    },
    {
      "id": 400909836,
      "talkRole": {
        "type": "TALK_ROLE_NPC",
        "_id": "1033"
      },
      "talkContentTextMapHash": 579690682,
      "talkAssetPath": "",
      "talkAssetPathAlter": "",
      "talkAudioName": "",
      "actionBefore": "",
      "actionWhile": "",
      "actionAfter": "",
      "optionIcon": "",
      "iconPath": ""
    }
  ]
}