{
  "talkId": 4010302,
  "KPGKDHAFHFE": "NARRATOR",
  "dialogList": [
    {
      "id": 401039903,
      "nextDialogs": [
        401039904
      ],
      "talkRole": {
        "type": "TALK_ROLE_NPC",
        "_id": "1005"
      },
      "talkContentTextMapHash": 929446554,
      "talkAssetPath": "",
      "talkAssetPathAlter": "",
      "talkAudioName": "",
      "actionBefore": "",
      "actionWhile": "",
      "actionAfter": "",
      "optionIcon": "",
      "iconPath": ""
    },
    {
      "id": 401039904,
      "talkRole": {
        "type": "TALK_ROLE_NPC",
        "_id": "13091"
      },
      "talkContentTextMapHash": 71241482,
      "talkAssetPath": "",
      "talkAssetPathAlter": "",
      "talkAudioName": "",
      "actionBefore": "",
      "actionWhile": "",
      "actionAfter": "",
      "optionIcon": "",
      "iconPath": ""
    }
  ]
}