{
  "talkId": 4010102,
  "KPGKDHAFHFE": "NARRATOR",
  "dialogList": [
    {
      "id": 401019903,
      "nextDialogs": [
        401019904
      ],
      "talkRole": {
        "type": "TALK_ROLE_NPC",
        "_id": "1063"
      },
      "talkContentTextMapHash": 2011519954,
      "talkAssetPath": "",
      "talkAssetPathAlter": "",
      "talkAudioName": "",
      "actionBefore": "",
      "actionWhile": "",
      "actionAfter": "",
      "optionIcon": "",
      "iconPath": ""
    },
    {
      "id": 401019904,
      "talkRole": {
        "type": "TALK_ROLE_NPC",
        "_id": "1063"
      },
      "talkContentTextMapHash": 1477539418,
      "talkAssetPath": "",
      "talkAssetPathAlter": "",
      "talkAudioName": "",
      "actionBefore": "",
      "actionWhile": "",
      "actionAfter": "",
      "optionIcon": "",
      "iconPath": ""
    }
  ]
}