{
  "talkId": 4011203,
  "KPGKDHAFHFE": "NARRATOR",
  "dialogList": [
    {
      "id": 401129904,
      "nextDialogs": [
        401129905
      ],
      "talkRole": {
        "type": "TALK_ROLE_NPC",
        "_id": "1005"
      },
      "talkContentTextMapHash": 3202478754,
      "talkAssetPath": "",
      "talkAssetPathAlter": "",
      "talkAudioName": "",
      "actionBefore": "",
      "actionWhile": "",
      "actionAfter": "",
      "optionIcon": "",
      "iconPath": ""
    },
    {
      "id": 401129905,
      "nextDialogs": [
        401129906
      ],
      "talkRole": {
        "type": "TALK_ROLE_NPC",
        "_id": "10090"
      },
      "talkContentTextMapHash": 3696034786,
      "talkAssetPath": "",
      "talkAssetPathAlter": "",
      "talkAudioName": "",
      "actionBefore": "",
      "actionWhile": "",
      "actionAfter": "",
      "optionIcon": "",
      "iconPath": ""
    },
    {
      "id": 401129906,
      "talkRole": {
        "type": "TALK_ROLE_NPC",
        "_id": "1004"
      },
      "talkContentTextMapHash": 851076218,
      "talkAssetPath": "",
      "talkAssetPathAlter": "",
      "talkAudioName": "",
      "actionBefore": "",
      "actionWhile": "",
      "actionAfter": "",
      "optionIcon": "",
      "iconPath": ""
    }
  ]
}