{
  "talkId": 4011413,
  "KPGKDHAFHFE": "NARRATOR",
  "dialogList": [
    {
      "id": 401149924,
      "nextDialogs": [
        401149925
      ],
      "talkRole": {
        "type": "TALK_ROLE_NPC",
        "_id": "1037"
      },
      "talkContentTextMapHash": 2377882266,
      "talkAssetPath": "",
      "talkAssetPathAlter": "",
      "talkAudioName": "",
      "actionBefore": "",
      "actionWhile": "",
      "actionAfter": "",
      "optionIcon": "",
      "iconPath": ""
    },
    {
      "id": 401149925,
      "talkRole": {
        "type": "TALK_ROLE_NPC",
        "_id": "1005"
      },
      "talkContentTextMapHash": 1382793842,
      "talkAssetPath": "",
      "talkAssetPathAlter": "",
      "talkAudioName": "",
      "actionBefore": "",
      "actionWhile": "",
      "actionAfter": "",
      "optionIcon": "",
      "iconPath": ""
    }
  ]
}