{
  "talkId": 4011410,
  "KPGKDHAFHFE": "NARRATOR",
  "dialogList": [
    {
      "id": 401149919,
      "nextDialogs": [
        401149920
      ],
      "talkRole": {
        "type": "TALK_ROLE_NPC",
        "_id": "13248"
      },
      "talkContentTextMapHash": 3229880738,
      "talkAssetPath": "",
      "talkAssetPathAlter": "",
      "talkAudioName": "",
      "actionBefore": "",
      "actionWhile": "",
      "actionAfter": "",
      "optionIcon": "",
      "iconPath": ""
    },
    {
      "id": 401149920,
      "nextDialogs": [
        401149921
      ],
      "talkRole": {
        "type": "TALK_ROLE_NPC",
        "_id": "13249"
      },
      "talkContentTextMapHash": 1620711354,
      "talkAssetPath": "",
      "talkAssetPathAlter": "",
      "talkAudioName": "",
      "actionBefore": "",
      "actionWhile": "",
      "actionAfter": "",
      "optionIcon": "",
      "iconPath": ""
    },
    {
      "id": 401149921,
      "talkRole": {
        "type": "TALK_ROLE_NPC",
        "_id": "1005"
      },
      "talkContentTextMapHash": 2684829378,
      "talkAssetPath": "",
      "talkAssetPathAlter": "",
      "talkAudioName": "",
      "actionBefore": "",
      "actionWhile": "",
      "actionAfter": "",
      "optionIcon": "",
      "iconPath": ""
    }
  ]
}