{
  "talkId": 4011401,
  "KPGKDHAFHFE": "NARRATOR",
  "dialogList": [
    {
      "id": 401149901,
      "nextDialogs": [
        401149902
      ],
      "talkRole": {
        "type": "TALK_ROLE_NPC",
        "_id": "1005"
      },
      "talkContentTextMapHash": 562773746,
      "talkAssetPath": "",
      "talkAssetPathAlter": "",
      "talkAudioName": "",
      "actionBefore": "",
      "actionWhile": "",
      "actionAfter": "",
      "optionIcon": "",
      "iconPath": ""
    },
    {
      "id": 401149902,
      "talkRole": {
        "type": "TALK_ROLE_NPC",
        "_id": "10090"
      },
      "talkContentTextMapHash": 2352151482,
      "talkAssetPath": "",
      "talkAssetPathAlter": "",
      "talkAudioName": "",
      "actionBefore": "",
      "actionWhile": "",
      "actionAfter": "",
      "optionIcon": "",
      "iconPath": ""
    }
  ]
}