{
  "talkId": 4012403,
  "KPGKDHAFHFE": "NARRATOR",
  "dialogList": [
    {
      "id": 401249905,
      "nextDialogs": [
        401249906
      ],
      "talkRole": {
        "type": "TALK_ROLE_NPC",
        "_id": "1060"
      },
      "talkContentTextMapHash": 2995565674,
      "talkAssetPath": "",
      "talkAssetPathAlter": "",
      "talkAudioName": "",
      "actionBefore": "",
      "actionWhile": "",
      "actionAfter": "",
      "optionIcon": "",
      "iconPath": ""
    },
    {
      "id": 401249906,
      "nextDialogs": [
        401249907
      ],
      "talkRole": {
        "type": "TALK_ROLE_NPC",
        "_id": "10045"
      },
      "talkContentTextMapHash": 1719810242,
      "talkAssetPath": "",
      "talkAssetPathAlter": "",
      "talkAudioName": "",
      "actionBefore": "",
      "actionWhile": "",
      "actionAfter": "",
      "optionIcon": "",
      "iconPath": ""
    },
    {
      "id": 401249907,
      "nextDialogs": [
        401249908
      ],
      "talkRole": {
        "type": "TALK_ROLE_NPC",
        "_id": "10045"
      },
      "talkContentTextMapHash": 1249446538,
      "talkAssetPath": "",
      "talkAssetPathAlter": "",
      "talkAudioName": "",
      "actionBefore": "",
      "actionWhile": "",
      "actionAfter": "",
      "optionIcon": "",
      "iconPath": ""
    },
    {
      "id": 401249908,
      "talkRole": {
        "type": "TALK_ROLE_NPC",
        "_id": "1060"
      },
      "talkContentTextMapHash": 2830466202,
      "talkAssetPath": "",
      "talkAssetPathAlter": "",
      "talkAudioName": "",
      "actionBefore": "",
      "actionWhile": "",
      "actionAfter": "",
      "optionIcon": "",
      "iconPath": ""
    }
  ]
}