{
  "talkId": 4013998,
  "KPGKDHAFHFE": "NARRATOR",
  "dialogList": [
    {
      "id": 401399801,
      "talkRole": {
        "type": "TALK_ROLE_NPC",
        "_id": "1084"
      },
      "talkContentTextMapHash": 1623895266,
      "talkAssetPath": "",
      "talkAssetPathAlter": "",
      "talkAudioName": "",
      "actionBefore": "",
      "actionWhile": "",
      "actionAfter": "",
      "optionIcon": "",
      "iconPath": ""
    },
    {
      "id": 401399802,
      "talkRole": {
        "type": "TALK_ROLE_NPC",
        "_id": "1084"
      },
      "talkContentTextMapHash": 1291747202,
      "talkAssetPath": "",
      "talkAssetPathAlter": "",
      "talkAudioName": "",
      "actionBefore": "",
      "actionWhile": "",
      "actionAfter": "",
      "optionIcon": "",
      "iconPath": ""
    }
  ]
}