{
  "talkId": 4013302,
  "KPGKDHAFHFE": "NARRATOR",
  "dialogList": [
    {
      "id": 401339903,
      "nextDialogs": [
        401339904
      ],
      "talkRole": {
        "type": "TALK_ROLE_NPC",
        "_id": "1005"
      },
      "talkContentTextMapHash": 2119454570,
      "talkAssetPath": "",
      "talkAssetPathAlter": "",
      "talkAudioName": "",
      "actionBefore": "",
      "actionWhile": "",
      "actionAfter": "",
      "optionIcon": "",
      "iconPath": ""
    },
    {
      "id": 401339904,
      "talkRole": {
        "type": "TALK_ROLE_NPC",
        "_id": "1081"
      },
      "talkContentTextMapHash": 375441578,
      "talkAssetPath": "",
      "talkAssetPathAlter": "",
      "talkAudioName": "",
      "actionBefore": "",
      "actionWhile": "",
      "actionAfter": "",
      "optionIcon": "",
      "iconPath": ""
    }
  ]
}