{
  "talkId": 7110204,
  "KPGKDHAFHFE": "NARRATOR",
  "dialogList": [
    {
      "id": 711029905,
      "talkRole": {
        "type": "TALK_ROLE_NPC",
        "_id": "2493"
      },
      "talkContentTextMapHash": 4265144666,
      "talkRoleNameTextMapHash": 4287083187,
      "talkAssetPath": "",
      "talkAssetPathAlter": "",
      "talkAudioName": "",
      "actionBefore": "",
      "actionWhile": "",
      "actionAfter": "",
      "optionIcon": "",
      "iconPath": ""
    }
  ]
}