{
  "talkId": 7110703,
  "KPGKDHAFHFE": "NARRATOR",
  "dialogList": [
    {
      "id": 711079905,
      "talkRole": {
        "type": "TALK_ROLE_NPC",
        "_id": "2484"
      },
      "talkContentTextMapHash": 195174786,
      "talkAssetPath": "",
      "talkAssetPathAlter": "",
      "talkAudioName": "",
      "actionBefore": "",
      "actionWhile": "",
      "actionAfter": "",
      "optionIcon": "",
      "iconPath": ""
    }
  ]
}