{
  "talkId": 7110506,
  "KPGKDHAFHFE": "NARRATOR",
  "dialogList": [
    {
      "id": 711059908,
      "nextDialogs": [
        711059909
      ],
      "talkRole": {
        "type": "TALK_ROLE_NPC",
        "_id": "2491"
      },
      "talkContentTextMapHash": 4272745018,
      "talkAssetPath": "",
      "talkAssetPathAlter": "",
      "talkAudioName": "",
      "actionBefore": "",
      "actionWhile": "",
      "actionAfter": "",
      "optionIcon": "",
      "iconPath": ""
    },
    {
      "id": 711059909,
      "nextDialogs": [
        711059910
      ],
      "talkRole": {
        "type": "TALK_ROLE_NPC",
        "_id": "2491"
      },
      "talkContentTextMapHash": 2946010418,
      "talkAssetPath": "",
      "talkAssetPathAlter": "",
      "talkAudioName": "",
      "actionBefore": "",
      "actionWhile": "",
      "actionAfter": "",
      "optionIcon": "",
      "iconPath": ""
    },
    {
      "id": 711059910,
      "nextDialogs": [
        711059911
      ],
      "talkRole": {
        "type": "TALK_ROLE_NPC",
        "_id": "2491"
      },
      "talkContentTextMapHash": 179805154,
      "talkAssetPath": "",
      "talkAssetPathAlter": "",
      "talkAudioName": "",
      "actionBefore": "",
      "actionWhile": "",
      "actionAfter": "",
      "optionIcon": "",
      "iconPath": ""
    },
    {
      "id": 711059911,
      "nextDialogs": [
        711059912
      ],
      "talkRole": {
        "type": "TALK_ROLE_NPC",
        "_id": "2491"
      },
      "talkContentTextMapHash": 4248814642,
      "talkAssetPath": "",
      "talkAssetPathAlter": "",
      "talkAudioName": "",
      "actionBefore": "",
      "actionWhile": "",
      "actionAfter": "",
      "optionIcon": "",
      "iconPath": ""
    },
    {
      "id": 711059912,
      "nextDialogs": [
        711059913
      ],
      "talkRole": {
        "type": "TALK_ROLE_NPC",
        "_id": "2491"
      },
      "talkContentTextMapHash": 955679810,
      "talkAssetPath": "",
      "talkAssetPathAlter": "",
      "talkAudioName": "",
      "actionBefore": "",
      "actionWhile": "",
      "actionAfter": "",
      "optionIcon": "",
      "iconPath": ""
    },
    {
      "id": 711059913,
      "nextDialogs": [
        711059914
      ],
      "talkRole": {
        "type": "TALK_ROLE_NPC",
        "_id": "2491"
      },
      "talkContentTextMapHash": 3969557042,
      "talkAssetPath": "",
      "talkAssetPathAlter": "",
      "talkAudioName": "",
      "actionBefore": "",
      "actionWhile": "",
      "actionAfter": "",
      "optionIcon": "",
      "iconPath": ""
    },
    {
      "id": 711059914,
      "talkRole": {
        "type": "TALK_ROLE_NPC",
        "_id": "2491"
      },
      "talkContentTextMapHash": 3620497986,
      "talkAssetPath": "",
      "talkAssetPathAlter": "",
      "talkAudioName": "",
      "actionBefore": "",
      "actionWhile": "",
      "actionAfter": "",
      "optionIcon": "",
      "iconPath": ""
    }
  ]
}