{
  "talkId": 7280403,
  "KPGKDHAFHFE": "NARRATOR",
  "dialogList": [
    {
      "id": 728049906,
      "nextDialogs": [
        728049907
      ],
      "talkRole": {
        "type": "TALK_ROLE_NPC",
        "_id": "1005"
      },
      "talkContentTextMapHash": 1496075642,
      "talkAssetPath": "",
      "talkAssetPathAlter": "",
      "talkAudioName": "",
      "actionBefore": "",
      "actionWhile": "",
      "actionAfter": "",
      "optionIcon": "",
      "iconPath": ""
    },
    {
      "id": 728049907,
      "nextDialogs": [
        728049908
      ],
      "talkRole": {
        "type": "TALK_ROLE_NPC",
        "_id": "20332"
      },
      "talkContentTextMapHash": 1196144074,
      "talkAssetPath": "",
      "talkAssetPathAlter": "",
      "talkAudioName": "",
      "actionBefore": "",
      "actionWhile": "",
      "actionAfter": "",
      "optionIcon": "",
      "iconPath": ""
    },
    {
      "id": 728049908,
      "nextDialogs": [
        728049909
      ],
      "talkRole": {
        "type": "TALK_ROLE_NPC",
        "_id": "3060"
      },
      "talkContentTextMapHash": 2612906002,
      "talkAssetPath": "",
      "talkAssetPathAlter": "",
      "talkAudioName": "",
      "actionBefore": "",
      "actionWhile": "",
      "actionAfter": "",
      "optionIcon": "",
      "iconPath": ""
    },
    {
      "id": 728049909,
      "nextDialogs": [
        728049910
      ],
      "talkRole": {
        "type": "TALK_ROLE_NPC",
        "_id": "20332"
      },
      "talkContentTextMapHash": 2932058242,
      "talkAssetPath": "",
      "talkAssetPathAlter": "",
      "talkAudioName": "",
      "actionBefore": "",
      "actionWhile": "",
      "actionAfter": "",
      "optionIcon": "",
      "iconPath": ""
    },
    {
      "id": 728049910,
      "talkRole": {
        "type": "TALK_ROLE_NPC",
        "_id": "3060"
      },
      "talkContentTextMapHash": 1008599330,
      "talkAssetPath": "",
      "talkAssetPathAlter": "",
      "talkAudioName": "",
      "actionBefore": "",
      "actionWhile": "",
      "actionAfter": "",
      "optionIcon": "",
      "iconPath": ""
    }
  ]
}