{
  "talkId": 7305401,
  "KPGKDHAFHFE": "NARRATOR",
  "dialogList": [
    {
      "id": 730549901,
      "nextDialogs": [
        730549902
      ],
      "talkRole": {
        "type": "TALK_ROLE_NPC",
        "_id": "20725"
      },
      "talkContentTextMapHash": 1812196738,
      "talkAssetPath": "",
      "talkAssetPathAlter": "",
      "talkAudioName": "",
      "actionBefore": "",
      "actionWhile": "",
      "actionAfter": "",
      "optionIcon": "",
      "iconPath": ""
    },
    {
      "id": 730549902,
      "talkRole": {
        "type": "TALK_ROLE_NPC",
        "_id": "20725"
      },
      "talkContentTextMapHash": 431079170,
      "talkAssetPath": "",
      "talkAssetPathAlter": "",
      "talkAudioName": "",
      "actionBefore": "",
      "actionWhile": "",
      "actionAfter": "",
      "optionIcon": "",
      "iconPath": ""
    }
  ]
}