{
  "talkId": 7305508,
  "KPGKDHAFHFE": "NARRATOR",
  "dialogList": [
    {
      "id": 730559917,
      "nextDialogs": [
        730559918
      ],
      "talkRole": {
        "type": "TALK_ROLE_NPC",
        "_id": "20725"
      },
      "talkContentTextMapHash": 3432704266,
      "talkAssetPath": "",
      "talkAssetPathAlter": "",
      "talkAudioName": "",
      "actionBefore": "",
      "actionWhile": "",
      "actionAfter": "",
      "optionIcon": "",
      "iconPath": ""
    },
    {
      "id": 730559918,
      "nextDialogs": [
        730559919
      ],
      "talkRole": {
        "type": "TALK_ROLE_NPC",
        "_id": "4218"
      },
      "talkContentTextMapHash": 3382377058,
      "talkAssetPath": "",
      "talkAssetPathAlter": "",
      "talkAudioName": "",
      "actionBefore": "",
      "actionWhile": "",
      "actionAfter": "",
      "optionIcon": "",
      "iconPath": ""
    },
    {
      "id": 730559919,
      "talkRole": {
        "type": "TALK_ROLE_NPC",
        "_id": "4218"
      },
      "talkContentTextMapHash": 324917570,
      "talkAssetPath": "",
      "talkAssetPathAlter": "",
      "talkAudioName": "",
      "actionBefore": "",
      "actionWhile": "",
      "actionAfter": "",
      "optionIcon": "",
      "iconPath": ""
    }
  ]
}