{
  "talkId": 7318501,
  "KPGKDHAFHFE": "NARRATOR",
  "dialogList": [
    {
      "id": 731859901,
      "nextDialogs": [
        731859902
      ],
      "talkRole": {
        "type": "TALK_ROLE_NPC",
        "_id": "20884"
      },
      "talkContentTextMapHash": 1857743794,
      "talkAssetPath": "",
      "talkAssetPathAlter": "",
      "talkAudioName": "",
      "actionBefore": "",
      "actionWhile": "",
      "actionAfter": "",
      "optionIcon": "",
      "iconPath": ""
    },
    {
      "id": 731859902,
      "talkRole": {
        "type": "TALK_ROLE_NPC",
        "_id": "1005"
      },
      "talkContentTextMapHash": 1526616298,
      "talkAssetPath": "",
      "talkAssetPathAlter": "",
      "talkAudioName": "",
      "actionBefore": "",
      "actionWhile": "",
      "actionAfter": "",
      "optionIcon": "",
      "iconPath": ""
    }
  ]
}