{
  "talkId": 7318608,
  "KPGKDHAFHFE": "NARRATOR",
  "dialogList": [
    {
      "id": 731869922,
      "nextDialogs": [
        731869923
      ],
      "talkRole": {
        "type": "TALK_ROLE_NPC",
        "_id": "4296"
      },
      "talkContentTextMapHash": 3260637282,
      "talkAssetPath": "",
      "talkAssetPathAlter": "",
      "talkAudioName": "",
      "actionBefore": "",
      "actionWhile": "",
      "actionAfter": "",
      "optionIcon": "",
      "iconPath": ""
    },
    {
      "id": 731869923,
      "nextDialogs": [
        731869924
      ],
      "talkRole": {
        "type": "TALK_ROLE_NPC",
        "_id": "20846"
      },
      "talkContentTextMapHash": 2452328810,
      "talkAssetPath": "",
      "talkAssetPathAlter": "",
      "talkAudioName": "",
      "actionBefore": "",
      "actionWhile": "",
      "actionAfter": "",
      "optionIcon": "",
      "iconPath": ""
    },
    {
      "id": 731869924,
      "nextDialogs": [
        731869925
      ],
      "talkRole": {
        "type": "TALK_ROLE_NPC",
        "_id": "20846"
      },
      "talkContentTextMapHash": 3158977538,
      "talkAssetPath": "",
      "talkAssetPathAlter": "",
      "talkAudioName": "",
      "actionBefore": "",
      "actionWhile": "",
      "actionAfter": "",
      "optionIcon": "",
      "iconPath": ""
    },
    {
      "id": 731869925,
      "nextDialogs": [
        731869926
      ],
      "talkRole": {
        "type": "TALK_ROLE_NPC",
        "_id": "20846"
      },
      "talkContentTextMapHash": 2794511306,
      "talkAssetPath": "",
      "talkAssetPathAlter": "",
      "talkAudioName": "",
      "actionBefore": "",
      "actionWhile": "",
      "actionAfter": "",
      "optionIcon": "",
      "iconPath": ""
    },
    {
      "id": 731869926,
      "nextDialogs": [
        731869945
      ],
      "talkRole": {
        "type": "TALK_ROLE_NPC",
        "_id": "20846"
      },
      "talkContentTextMapHash": 3355552530,
      "talkAssetPath": "",
      "talkAssetPathAlter": "",
      "talkAudioName": "",
      "actionBefore": "",
      "actionWhile": "",
      "actionAfter": "",
      "optionIcon": "",
      "iconPath": ""
    },
    {
      "id": 731869945,
      "nextDialogs": [
        731869946
      ],
      "talkRole": {
        "type": "TALK_ROLE_NPC",
        "_id": "4296"
      },
      "talkContentTextMapHash": 1078828226,
      "talkAssetPath": "",
      "talkAssetPathAlter": "",
      "talkAudioName": "",
      "actionBefore": "",
      "actionWhile": "",
      "actionAfter": "",
      "optionIcon": "",
      "iconPath": ""
    },
    {
      "id": 731869946,
      "talkRole": {
        "type": "TALK_ROLE_NPC",
        "_id": "20846"
      },
      "talkContentTextMapHash": 440039546,
      "talkAssetPath": "",
      "talkAssetPathAlter": "",
      "talkAudioName": "",
      "actionBefore": "",
      "actionWhile": "",
      "actionAfter": "",
      "optionIcon": "",
      "iconPath": ""
    }
  ]
}