{
  "talkId": 7318612,
  "KPGKDHAFHFE": "NARRATOR",
  "dialogList": [
    {
      "id": 731869937,
      "nextDialogs": [
        731869938
      ],
      "talkRole": {
        "type": "TALK_ROLE_NPC",
        "_id": "4296"
      },
      "talkContentTextMapHash": 256392930,
      "talkAssetPath": "",
      "talkAssetPathAlter": "",
      "talkAudioName": "",
      "actionBefore": "",
      "actionWhile": "",
      "actionAfter": "",
      "optionIcon": "",
      "iconPath": ""
    },
    {
      "id": 731869938,
      "talkRole": {
        "type": "TALK_ROLE_NPC",
        "_id": "20846"
      },
      "talkContentTextMapHash": 3324942538,
      "talkAssetPath": "",
      "talkAssetPathAlter": "",
      "talkAudioName": "",
      "actionBefore": "",
      "actionWhile": "",
      "actionAfter": "",
      "optionIcon": "",
      "iconPath": ""
    }
  ]
}