{
  "talkId": 7318701,
  "KPGKDHAFHFE": "NARRATOR",
  "dialogList": [
    {
      "id": 731879901,
      "nextDialogs": [
        731879902
      ],
      "talkRole": {
        "type": "TALK_ROLE_NPC",
        "_id": "20846"
      },
      "talkContentTextMapHash": 1255788650,
      "talkAssetPath": "",
      "talkAssetPathAlter": "",
      "talkAudioName": "",
      "actionBefore": "",
      "actionWhile": "",
      "actionAfter": "",
      "optionIcon": "",
      "iconPath": ""
    },
    {
      "id": 731879902,
      "nextDialogs": [
        731879903
      ],
      "talkRole": {
        "type": "TALK_ROLE_NPC",
        "_id": "1005"
      },
      "talkContentTextMapHash": 2059522634,
      "talkAssetPath": "",
      "talkAssetPathAlter": "",
      "talkAudioName": "",
      "actionBefore": "",
      "actionWhile": "",
      "actionAfter": "",
      "optionIcon": "",
      "iconPath": ""
    },
    {
      "id": 731879903,
      "talkRole": {
        "type": "TALK_ROLE_NPC",
        "_id": "20845"
      },
      "talkContentTextMapHash": 831628994,
      "talkAssetPath": "",
      "talkAssetPathAlter": "",
      "talkAudioName": "",
      "actionBefore": "",
      "actionWhile": "",
      "actionAfter": "",
      "optionIcon": "",
      "iconPath": ""
    }
  ]
}