{
  "talkId": 7321923,
  "KPGKDHAFHFE": "NARRATOR",
  "dialogList": [
    {
      "id": 732199968,
      "nextDialogs": [
        732199969
      ],
      "talkRole": {
        "type": "TALK_ROLE_NPC",
        "_id": "4296"
      },
      "talkContentTextMapHash": 3597316314,
      "talkAssetPath": "",
      "talkAssetPathAlter": "",
      "talkAudioName": "",
      "actionBefore": "",
      "actionWhile": "",
      "actionAfter": "",
      "optionIcon": "",
      "iconPath": ""
    },
    {
      "id": 732199969,
      "talkRole": {
        "type": "TALK_ROLE_NPC",
        "_id": "1005"
      },
      "talkContentTextMapHash": 20568090,
      "talkAssetPath": "",
      "talkAssetPathAlter": "",
      "talkAudioName": "",
      "actionBefore": "",
      "actionWhile": "",
      "actionAfter": "",
      "optionIcon": "",
      "iconPath": ""
    }
  ]
}