{
  "talkId": 7321927,
  "KPGKDHAFHFE": "NARRATOR",
  "dialogList": [
    {
      "id": 732199983,
      "talkRole": {
        "type": "TALK_ROLE_NPC",
        "_id": "20846"
      },
      "talkContentTextMapHash": 263849522,
      "talkAssetPath": "",
      "talkAssetPathAlter": "",
      "talkAudioName": "",
      "actionBefore": "",
      "actionWhile": "",
      "actionAfter": "",
      "optionIcon": "",
      "iconPath": ""
    }
  ]
}