{
  "talkId": 7321929,
  "KPGKDHAFHFE": "NARRATOR",
  "dialogList": [
    {
      "id": 732199936,
      "nextDialogs": [
        732199937
      ],
      "talkRole": {
        "type": "TALK_ROLE_NPC",
        "_id": "4296"
      },
      "talkContentTextMapHash": 3102398378,
      "talkAssetPath": "",
      "talkAssetPathAlter": "",
      "talkAudioName": "",
      "actionBefore": "",
      "actionWhile": "",
      "actionAfter": "",
      "optionIcon": "",
      "iconPath": ""
    },
    {
      "id": 732199937,
      "talkRole": {
        "type": "TALK_ROLE_NPC",
        "_id": "20845"
      },
      "talkContentTextMapHash": 469464338,
      "talkAssetPath": "",
      "talkAssetPathAlter": "",
      "talkAudioName": "",
      "actionBefore": "",
      "actionWhile": "",
      "actionAfter": "",
      "optionIcon": "",
      "iconPath": ""
    }
  ]
}