{
  "talkId": 7321913,
  "KPGKDHAFHFE": "NARRATOR",
  "dialogList": [
    {
      "id": 732199933,
      "nextDialogs": [
        732199934
      ],
      "talkRole": {
        "type": "TALK_ROLE_NPC",
        "_id": "4296"
      },
      "talkContentTextMapHash": 3803651474,
      "talkAssetPath": "",
      "talkAssetPathAlter": "",
      "talkAudioName": "",
      "actionBefore": "",
      "actionWhile": "",
      "actionAfter": "",
      "optionIcon": "",
      "iconPath": ""
    },
    {
      "id": 732199934,
      "talkRole": {
        "type": "TALK_ROLE_NPC",
        "_id": "20845"
      },
      "talkContentTextMapHash": 101536594,
      "talkAssetPath": "",
      "talkAssetPathAlter": "",
      "talkAudioName": "",
      "actionBefore": "",
      "actionWhile": "",
      "actionAfter": "",
      "optionIcon": "",
      "iconPath": ""
    }
  ]
}