{
  "talkId": 732351401,
  "KPGKDHAFHFE": "NARRATOR",
  "dialogList": [
    {
      "id": 732351401,
      "nextDialogs": [
        732351402
      ],
      "talkRole": {
        "type": "TALK_ROLE_NPC",
        "_id": "1005"
      },
      "talkContentTextMapHash": 1907774338,
      "talkAssetPath": "",
      "talkAssetPathAlter": "",
      "talkAudioName": "",
      "actionBefore": "",
      "actionWhile": "",
      "actionAfter": "",
      "optionIcon": "",
      "iconPath": ""
    },
    {
      "id": 732351402,
      "nextDialogs": [
        732351403
      ],
      "talkRole": {
        "type": "TALK_ROLE_NPC",
        "_id": "20987"
      },
      "talkContentTextMapHash": 1785467090,
      "talkAssetPath": "",
      "talkAssetPathAlter": "",
      "talkAudioName": "",
      "actionBefore": "",
      "actionWhile": "",
      "actionAfter": "",
      "optionIcon": "",
      "iconPath": ""
    },
    {
      "id": 732351403,
      "talkRole": {
        "type": "TALK_ROLE_NPC",
        "_id": "1005"
      },
      "talkContentTextMapHash": 4063448730,
      "talkAssetPath": "",
      "talkAssetPathAlter": "",
      "talkAudioName": "",
      "actionBefore": "",
      "actionWhile": "",
      "actionAfter": "",
      "optionIcon": "",
      "iconPath": ""
    }
  ]
}