{
  "talkId": 7324406,
  "KPGKDHAFHFE": "NARRATOR",
  "dialogList": [
    {
      "id": 732449901,
      "talkRole": {
        "type": "TALK_ROLE_NPC",
        "_id": "1005"
      },
      "talkContentTextMapHash": 888998186,
      "talkRoleNameTextMapHash": 2092871955,
      "talkAssetPath": "",
      "talkAssetPathAlter": "",
      "talkAudioName": "",
      "actionBefore": "",
      "actionWhile": "",
      "actionAfter": "",
      "optionIcon": "",
      "iconPath": ""
    }
  ]
}