{
  "talkId": 732599902,
  "KPGKDHAFHFE": "NARRATOR",
  "dialogList": [
    {
      "id": 732599902,
      "talkRole": {
        "type": "TALK_ROLE_NPC",
        "_id": "422101"
      },
      "talkContentTextMapHash": 1866906594,
      "talkAssetPath": "",
      "talkAssetPathAlter": "",
      "talkAudioName": "",
      "actionBefore": "",
      "actionWhile": "",
      "actionAfter": "",
      "optionIcon": "",
      "iconPath": ""
    }
  ]
}