{
  "talkId": 7326702,
  "KPGKDHAFHFE": "NARRATOR",
  "dialogList": [
    {
      "id": 732679903,
      "nextDialogs": [
        732679904
      ],
      "talkRole": {
        "type": "TALK_ROLE_NPC",
        "_id": "4408"
      },
      "talkContentTextMapHash": 2655191298,
      "talkAssetPath": "",
      "talkAssetPathAlter": "",
      "talkAudioName": "",
      "actionBefore": "",
      "actionWhile": "",
      "actionAfter": "",
      "optionIcon": "",
      "iconPath": ""
    },
    {
      "id": 732679904,
      "talkRole": {
        "type": "TALK_ROLE_NPC",
        "_id": "4408"
      },
      "talkContentTextMapHash": 73073578,
      "talkAssetPath": "",
      "talkAssetPathAlter": "",
      "talkAudioName": "",
      "actionBefore": "",
      "actionWhile": "",
      "actionAfter": "",
      "optionIcon": "",
      "iconPath": ""
    }
  ]
}