{
  "talkId": 7328102,
  "KPGKDHAFHFE": "NARRATOR",
  "dialogList": [
    {
      "id": 732819905,
      "nextDialogs": [
        732819906
      ],
      "talkRole": {
        "type": "TALK_ROLE_NPC",
        "_id": "20842"
      },
      "talkContentTextMapHash": 2121774418,
      "talkAssetPath": "",
      "talkAssetPathAlter": "",
      "talkAudioName": "",
      "actionBefore": "",
      "actionWhile": "",
      "actionAfter": "",
      "optionIcon": "",
      "iconPath": ""
    },
    {
      "id": 732819906,
      "talkRole": {
        "type": "TALK_ROLE_NPC",
        "_id": "20842"
      },
      "talkContentTextMapHash": 2111426906,
      "talkAssetPath": "",
      "talkAssetPathAlter": "",
      "talkAudioName": "",
      "actionBefore": "",
      "actionWhile": "",
      "actionAfter": "",
      "optionIcon": "",
      "iconPath": ""
    }
  ]
}