{
  "talkId": 733301301,
  "KPGKDHAFHFE": "NARRATOR",
  "dialogList": [
    {
      "id": 733301301,
      "nextDialogs": [
        733301302
      ],
      "talkRole": {
        "type": "TALK_ROLE_NPC",
        "_id": "1005"
      },
      "talkContentTextMapHash": 2817785210,
      "talkAssetPath": "",
      "talkAssetPathAlter": "",
      "talkAudioName": "",
      "actionBefore": "",
      "actionWhile": "",
      "actionAfter": "",
      "optionIcon": "",
      "iconPath": ""
    },
    {
      "id": 733301302,
      "talkRole": {
        "type": "TALK_ROLE_NPC",
        "_id": "20883"
      },
      "talkContentTextMapHash": 2122793482,
      "talkAssetPath": "",
      "talkAssetPathAlter": "",
      "talkAudioName": "",
      "actionBefore": "",
      "actionWhile": "",
      "actionAfter": "",
      "optionIcon": "",
      "iconPath": ""
    }
  ]
}