{
  "talkId": 733301101,
  "KPGKDHAFHFE": "NARRATOR",
  "dialogList": [
    {
      "id": 733301101,
      "nextDialogs": [
        733301102
      ],
      "talkRole": {
        "type": "TALK_ROLE_NPC",
        "_id": "1005"
      },
      "talkContentTextMapHash": 2199139354,
      "talkAssetPath": "",
      "talkAssetPathAlter": "",
      "talkAudioName": "",
      "actionBefore": "",
      "actionWhile": "",
      "actionAfter": "",
      "optionIcon": "",
      "iconPath": ""
    },
    {
      "id": 733301102,
      "nextDialogs": [
        733301103
      ],
      "talkRole": {
        "type": "TALK_ROLE_NPC",
        "_id": "20883"
      },
      "talkContentTextMapHash": 2005313026,
      "talkAssetPath": "",
      "talkAssetPathAlter": "",
      "talkAudioName": "",
      "actionBefore": "",
      "actionWhile": "",
      "actionAfter": "",
      "optionIcon": "",
      "iconPath": ""
    },
    {
      "id": 733301103,
      "nextDialogs": [
        733301104
      ],
      "talkRole": {
        "type": "TALK_ROLE_NPC",
        "_id": "1005"
      },
      "talkContentTextMapHash": 1940265122,
      "talkAssetPath": "",
      "talkAssetPathAlter": "",
      "talkAudioName": "",
      "actionBefore": "",
      "actionWhile": "",
      "actionAfter": "",
      "optionIcon": "",
      "iconPath": ""
    },
    {
      "id": 733301104,
      "talkRole": {
        "type": "TALK_ROLE_NPC",
        "_id": "20883"
      },
      "talkContentTextMapHash": 1394891202,
      "talkAssetPath": "",
      "talkAssetPathAlter": "",
      "talkAudioName": "",
      "actionBefore": "",
      "actionWhile": "",
      "actionAfter": "",
      "optionIcon": "",
      "iconPath": ""
    }
  ]
}