{
  "talkId": 740009965,
  "KPGKDHAFHFE": "NARRATOR",
  "dialogList": [
    {
      "id": 740009965,
      "talkRole": {
        "type": "TALK_ROLE_NPC",
        "_id": "21034"
      },
      "talkContentTextMapHash": 2244305482,
      "talkAssetPath": "",
      "talkAssetPathAlter": "",
      "talkAudioName": "",
      "actionBefore": "",
      "actionWhile": "",
      "actionAfter": "",
      "optionIcon": "",
      "iconPath": ""
    }
  ]
}