{
  "talkId": 7400602,
  "KPGKDHAFHFE": "NARRATOR",
  "dialogList": [
    {
      "id": 740069903,
      "nextDialogs": [
        740069904
      ],
      "talkRole": {
        "type": "TALK_ROLE_NPC",
        "_id": "1005"
      },
      "talkContentTextMapHash": 3022979642,
      "talkAssetPath": "",
      "talkAssetPathAlter": "",
      "talkAudioName": "",
      "actionBefore": "",
      "actionWhile": "",
      "actionAfter": "",
      "optionIcon": "",
      "iconPath": ""
    },
    {
      "id": 740069904,
      "talkRole": {
        "type": "TALK_ROLE_NPC",
        "_id": "5303"
      },
      "talkContentTextMapHash": 1902929082,
      "talkAssetPath": "",
      "talkAssetPathAlter": "",
      "talkAudioName": "",
      "actionBefore": "",
      "actionWhile": "",
      "actionAfter": "",
      "optionIcon": "",
      "iconPath": ""
    }
  ]
}