{
  "talkId": 740059921,
  "KPGKDHAFHFE": "NARRATOR",
  "dialogList": [
    {
      "id": 740059921,
      "nextDialogs": [
        740059922
      ],
      "talkRole": {
        "type": "TALK_ROLE_NPC",
        "_id": "20984"
      },
      "talkContentTextMapHash": 3783935866,
      "talkAssetPath": "",
      "talkAssetPathAlter": "",
      "talkAudioName": "",
      "actionBefore": "",
      "actionWhile": "",
      "actionAfter": "",
      "optionIcon": "",
      "iconPath": ""
    },
    {
      "id": 740059922,
      "nextDialogs": [
        740059927
      ],
      "talkRole": {
        "type": "TALK_ROLE_NPC",
        "_id": "21026"
      },
      "talkContentTextMapHash": 1910283194,
      "talkAssetPath": "",
      "talkAssetPathAlter": "",
      "talkAudioName": "",
      "actionBefore": "",
      "actionWhile": "",
      "actionAfter": "",
      "optionIcon": "",
      "iconPath": ""
    },
    {
      "id": 740059927,
      "talkRole": {
        "type": "TALK_ROLE_NPC",
        "_id": "5303"
      },
      "talkContentTextMapHash": 1641577514,
      "talkAssetPath": "",
      "talkAssetPathAlter": "",
      "talkAudioName": "",
      "actionBefore": "",
      "actionWhile": "",
      "actionAfter": "",
      "optionIcon": "",
      "iconPath": ""
    }
  ]
}