{
  "talkId": 7400201,
  "KPGKDHAFHFE": "NARRATOR",
  "dialogList": [
    {
      "id": 740029901,
      "nextDialogs": [
        740029902
      ],
      "talkRole": {
        "type": "TALK_ROLE_NPC",
        "_id": "1005"
      },
      "talkContentTextMapHash": 4254272730,
      "talkAssetPath": "",
      "talkAssetPathAlter": "",
      "talkAudioName": "",
      "actionBefore": "",
      "actionWhile": "",
      "actionAfter": "",
      "optionIcon": "",
      "iconPath": ""
    },
    {
      "id": 740029902,
      "nextDialogs": [
        740029903
      ],
      "talkRole": {
        "type": "TALK_ROLE_NPC",
        "_id": "20995"
      },
      "talkContentTextMapHash": 2152226170,
      "talkAssetPath": "",
      "talkAssetPathAlter": "",
      "talkAudioName": "",
      "actionBefore": "",
      "actionWhile": "",
      "actionAfter": "",
      "optionIcon": "",
      "iconPath": ""
    },
    {
      "id": 740029903,
      "talkRole": {
        "type": "TALK_ROLE_NPC",
        "_id": "20995"
      },
      "talkContentTextMapHash": 2030511442,
      "talkAssetPath": "",
      "talkAssetPathAlter": "",
      "talkAudioName": "",
      "actionBefore": "",
      "actionWhile": "",
      "actionAfter": "",
      "optionIcon": "",
      "iconPath": ""
    }
  ]
}