{
  "talkId": 740250003,
  "KPGKDHAFHFE": "NARRATOR",
  "dialogList": [
    {
      "id": 740250003,
      "talkRole": {
        "_id": ""
      },
      "talkContentTextMapHash": 4656994,
      "talkRoleNameTextMapHash": 1699095443,
      "talkAssetPath": "",
      "talkAssetPathAlter": "",
      "talkAudioName": "",
      "actionBefore": "",
      "actionWhile": "",
      "actionAfter": "",
      "optionIcon": "",
      "iconPath": ""
    },
    {
      "id": 740250004,
      "talkRole": {
        "_id": ""
      },
      "talkContentTextMapHash": 237964946,
      "talkRoleNameTextMapHash": 1604953979,
      "talkAssetPath": "",
      "talkAssetPathAlter": "",
      "talkAudioName": "",
      "actionBefore": "",
      "actionWhile": "",
      "actionAfter": "",
      "optionIcon": "",
      "iconPath": ""
    }
  ]
}