{
  "talkId": 740250005,
  "KPGKDHAFHFE": "NARRATOR",
  "dialogList": [
    {
      "id": 740250005,
      "talkRole": {
        "_id": ""
      },
      "talkContentTextMapHash": 3242627114,
      "talkRoleNameTextMapHash": 1709389179,
      "talkAssetPath": "",
      "talkAssetPathAlter": "",
      "talkAudioName": "",
      "actionBefore": "",
      "actionWhile": "",
      "actionAfter": "",
      "optionIcon": "",
      "iconPath": ""
    },
    {
      "id": 740250007,
      "talkRole": {
        "_id": ""
      },
      "talkContentTextMapHash": 2735294946,
      "talkRoleNameTextMapHash": 4274110443,
      "talkAssetPath": "",
      "talkAssetPathAlter": "",
      "talkAudioName": "",
      "actionBefore": "",
      "actionWhile": "",
      "actionAfter": "",
      "optionIcon": "",
      "iconPath": ""
    },
    {
      "id": 740250008,
      "talkRole": {
        "_id": ""
      },
      "talkContentTextMapHash": 3573685298,
      "talkRoleNameTextMapHash": 3392145115,
      "talkAssetPath": "",
      "talkAssetPathAlter": "",
      "talkAudioName": "",
      "actionBefore": "",
      "actionWhile": "",
      "actionAfter": "",
      "optionIcon": "",
      "iconPath": ""
    }
  ]
}