{
  "talkId": 740280005,
  "KPGKDHAFHFE": "NARRATOR",
  "dialogList": [
    {
      "id": 740280005,
      "talkRole": {
        "_id": ""
      },
      "talkContentTextMapHash": 4046905234,
      "talkRoleNameTextMapHash": 1931042067,
      "talkAssetPath": "",
      "talkAssetPathAlter": "",
      "talkAudioName": "",
      "actionBefore": "",
      "actionWhile": "",
      "actionAfter": "",
      "optionIcon": "",
      "iconPath": ""
    }
  ]
}