{
  "talkId": 7405306,
  "KPGKDHAFHFE": "NARRATOR",
  "dialogList": [
    {
      "id": 740539920,
      "nextDialogs": [
        740539921
      ],
      "talkRole": {
        "type": "TALK_ROLE_NPC",
        "_id": "21293"
      },
      "talkContentTextMapHash": 3122171338,
      "talkAssetPath": "",
      "talkAssetPathAlter": "",
      "talkAudioName": "",
      "actionBefore": "",
      "actionWhile": "",
      "actionAfter": "",
      "optionIcon": "",
      "iconPath": ""
    },
    {
      "id": 740539921,
      "nextDialogs": [
        740539922
      ],
      "talkRole": {
        "type": "TALK_ROLE_NPC",
        "_id": "5257"
      },
      "talkContentTextMapHash": 103668698,
      "talkAssetPath": "",
      "talkAssetPathAlter": "",
      "talkAudioName": "",
      "actionBefore": "",
      "actionWhile": "",
      "actionAfter": "",
      "optionIcon": "",
      "iconPath": ""
    },
    {
      "id": 740539922,
      "talkRole": {
        "type": "TALK_ROLE_NPC",
        "_id": "5257"
      },
      "talkContentTextMapHash": 3086597434,
      "talkAssetPath": "",
      "talkAssetPathAlter": "",
      "talkAudioName": "",
      "actionBefore": "",
      "actionWhile": "",
      "actionAfter": "",
      "optionIcon": "",
      "iconPath": ""
    }
  ]
}