{
  "talkId": 7407802,
  "KPGKDHAFHFE": "NARRATOR",
  "dialogList": [
    {
      "id": 740789904,
      "nextDialogs": [
        740789905
      ],
      "talkRole": {
        "type": "TALK_ROLE_NPC",
        "_id": "21263"
      },
      "talkContentTextMapHash": 1159617666,
      "talkAssetPath": "",
      "talkAssetPathAlter": "",
      "talkAudioName": "",
      "actionBefore": "",
      "actionWhile": "",
      "actionAfter": "",
      "optionIcon": "",
      "iconPath": ""
    },
    {
      "id": 740789905,
      "nextDialogs": [
        740789906
      ],
      "talkRole": {
        "type": "TALK_ROLE_NPC",
        "_id": "1005"
      },
      "talkContentTextMapHash": 3028533138,
      "talkAssetPath": "",
      "talkAssetPathAlter": "",
      "talkAudioName": "",
      "actionBefore": "",
      "actionWhile": "",
      "actionAfter": "",
      "optionIcon": "",
      "iconPath": ""
    },
    {
      "id": 740789906,
      "nextDialogs": [
        740789907
      ],
      "talkRole": {
        "type": "TALK_ROLE_NPC",
        "_id": "21263"
      },
      "talkContentTextMapHash": 1142105202,
      "talkAssetPath": "",
      "talkAssetPathAlter": "",
      "talkAudioName": "",
      "actionBefore": "",
      "actionWhile": "",
      "actionAfter": "",
      "optionIcon": "",
      "iconPath": ""
    },
    {
      "id": 740789907,
      "talkRole": {
        "type": "TALK_ROLE_NPC",
        "_id": "21263"
      },
      "talkContentTextMapHash": 1893388482,
      "talkAssetPath": "",
      "talkAssetPathAlter": "",
      "talkAudioName": "",
      "actionBefore": "",
      "actionWhile": "",
      "actionAfter": "",
      "optionIcon": "",
      "iconPath": ""
    }
  ]
}