{
  "talkId": 740779901,
  "KPGKDHAFHFE": "NARRATOR",
  "dialogList": [
    {
      "id": 740779901,
      "talkRole": {
        "type": "TALK_ROLE_NPC",
        "_id": "5303"
      },
      "talkContentTextMapHash": 1245429138,
      "talkAssetPath": "",
      "talkAssetPathAlter": "",
      "talkAudioName": "",
      "actionBefore": "",
      "actionWhile": "",
      "actionAfter": "",
      "optionIcon": "",
      "iconPath": ""
    }
  ]
}