{
  "talkId": 740729905,
  "KPGKDHAFHFE": "NARRATOR",
  "dialogList": [
    {
      "id": 740729913,
      "talkRole": {
        "type": "TALK_ROLE_NPC",
        "_id": "20984"
      },
      "talkContentTextMapHash": 3564823426,
      "talkAssetPath": "",
      "talkAssetPathAlter": "",
      "talkAudioName": "",
      "actionBefore": "",
      "actionWhile": "",
      "actionAfter": "",
      "optionIcon": "",
      "iconPath": ""
    }
  ]
}