{
  "talkId": 740800201,
  "KPGKDHAFHFE": "NARRATOR",
  "dialogList": [
    {
      "id": 740800201,
      "nextDialogs": [
        740800202
      ],
      "talkRole": {
        "type": "TALK_ROLE_BLACK_SCREEN",
        "_id": ""
      },
      "talkContentTextMapHash": 3013981050,
      "talkAssetPath": "",
      "talkAssetPathAlter": "",
      "talkAudioName": "",
      "actionBefore": "",
      "actionWhile": "",
      "actionAfter": "",
      "optionIcon": "",
      "iconPath": ""
    }
  ]
}