{
  "talkId": 741042907,
  "KPGKDHAFHFE": "NARRATOR",
  "dialogList": [
    {
      "id": 741042907,
      "talkRole": {
        "type": "TALK_ROLE_NPC",
        "_id": "21137"
      },
      "talkContentTextMapHash": 314236426,
      "talkAssetPath": "",
      "talkAssetPathAlter": "",
      "talkAudioName": "",
      "actionBefore": "",
      "actionWhile": "",
      "actionAfter": "",
      "optionIcon": "",
      "iconPath": ""
    }
  ]
}