{
  "talkId": 7412101,
  "KPGKDHAFHFE": "NARRATOR",
  "dialogList": [
    {
      "id": 741219901,
      "talkRole": {
        "_id": ""
      },
      "talkContentTextMapHash": 793556594,
      "talkRoleNameTextMapHash": 2340061083,
      "talkAssetPath": "",
      "talkAssetPathAlter": "",
      "talkAudioName": "",
      "actionBefore": "",
      "actionWhile": "",
      "actionAfter": "",
      "optionIcon": "",
      "iconPath": ""
    }
  ]
}