{
  "talkId": 7413102,
  "KPGKDHAFHFE": "NARRATOR",
  "dialogList": [
    {
      "id": 741319903,
      "nextDialogs": [
        741319904
      ],
      "talkRole": {
        "type": "TALK_ROLE_NPC",
        "_id": "5275"
      },
      "talkContentTextMapHash": 20570386,
      "talkAssetPath": "",
      "talkAssetPathAlter": "",
      "talkAudioName": "",
      "actionBefore": "",
      "actionWhile": "",
      "actionAfter": "",
      "optionIcon": "",
      "iconPath": ""
    },
    {
      "id": 741319904,
      "nextDialogs": [
        741319905
      ],
      "talkRole": {
        "type": "TALK_ROLE_NPC",
        "_id": "5275"
      },
      "talkContentTextMapHash": 3800948434,
      "talkAssetPath": "",
      "talkAssetPathAlter": "",
      "talkAudioName": "",
      "actionBefore": "",
      "actionWhile": "",
      "actionAfter": "",
      "optionIcon": "",
      "iconPath": ""
    },
    {
      "id": 741319905,
      "talkRole": {
        "type": "TALK_ROLE_NPC",
        "_id": "5275"
      },
      "talkContentTextMapHash": 629313874,
      "talkAssetPath": "",
      "talkAssetPathAlter": "",
      "talkAudioName": "",
      "actionBefore": "",
      "actionWhile": "",
      "actionAfter": "",
      "optionIcon": "",
      "iconPath": ""
    }
  ]
}