{
  "talkId": 7413601,
  "KPGKDHAFHFE": "NARRATOR",
  "dialogList": [
    {
      "id": 741369901,
      "nextDialogs": [
        741369902
      ],
      "talkRole": {
        "type": "TALK_ROLE_NPC",
        "_id": "5275"
      },
      "talkContentTextMapHash": 4031618002,
      "talkAssetPath": "",
      "talkAssetPathAlter": "",
      "talkAudioName": "",
      "actionBefore": "",
      "actionWhile": "",
      "actionAfter": "",
      "optionIcon": "",
      "iconPath": ""
    },
    {
      "id": 741369902,
      "nextDialogs": [
        741369903
      ],
      "talkRole": {
        "type": "TALK_ROLE_NPC",
        "_id": "1005"
      },
      "talkContentTextMapHash": 3137391842,
      "talkAssetPath": "",
      "talkAssetPathAlter": "",
      "talkAudioName": "",
      "actionBefore": "",
      "actionWhile": "",
      "actionAfter": "",
      "optionIcon": "",
      "iconPath": ""
    },
    {
      "id": 741369903,
      "nextDialogs": [
        741369904
      ],
      "talkRole": {
        "type": "TALK_ROLE_NPC",
        "_id": "5275"
      },
      "talkContentTextMapHash": 1070785450,
      "talkAssetPath": "",
      "talkAssetPathAlter": "",
      "talkAudioName": "",
      "actionBefore": "",
      "actionWhile": "",
      "actionAfter": "",
      "optionIcon": "",
      "iconPath": ""
    },
    {
      "id": 741369904,
      "nextDialogs": [
        741369905
      ],
      "talkRole": {
        "type": "TALK_ROLE_NPC",
        "_id": "5273"
      },
      "talkContentTextMapHash": 2060745690,
      "talkAssetPath": "",
      "talkAssetPathAlter": "",
      "talkAudioName": "",
      "actionBefore": "",
      "actionWhile": "",
      "actionAfter": "",
      "optionIcon": "",
      "iconPath": ""
    },
    {
      "id": 741369905,
      "talkRole": {
        "type": "TALK_ROLE_NPC",
        "_id": "1005"
      },
      "talkContentTextMapHash": 3384841722,
      "talkAssetPath": "",
      "talkAssetPathAlter": "",
      "talkAudioName": "",
      "actionBefore": "",
      "actionWhile": "",
      "actionAfter": "",
      "optionIcon": "",
      "iconPath": ""
    }
  ]
}