{
  "talkId": 7414406,
  "KPGKDHAFHFE": "NARRATOR",
  "dialogList": [
    {
      "id": 741449916,
      "nextDialogs": [
        741449917
      ],
      "talkRole": {
        "type": "TALK_ROLE_NPC",
        "_id": "21318"
      },
      "talkContentTextMapHash": 2168971322,
      "talkAssetPath": "",
      "talkAssetPathAlter": "",
      "talkAudioName": "",
      "actionBefore": "",
      "actionWhile": "",
      "actionAfter": "",
      "optionIcon": "",
      "iconPath": ""
    },
    {
      "id": 741449917,
      "nextDialogs": [
        741449918
      ],
      "talkRole": {
        "type": "TALK_ROLE_NPC",
        "_id": "21318"
      },
      "talkContentTextMapHash": 4173378290,
      "talkAssetPath": "",
      "talkAssetPathAlter": "",
      "talkAudioName": "",
      "actionBefore": "",
      "actionWhile": "",
      "actionAfter": "",
      "optionIcon": "",
      "iconPath": ""
    },
    {
      "id": 741449918,
      "nextDialogs": [
        741449919
      ],
      "talkRole": {
        "type": "TALK_ROLE_NPC",
        "_id": "21318"
      },
      "talkContentTextMapHash": 1373249098,
      "talkAssetPath": "",
      "talkAssetPathAlter": "",
      "talkAudioName": "",
      "actionBefore": "",
      "actionWhile": "",
      "actionAfter": "",
      "optionIcon": "",
      "iconPath": ""
    },
    {
      "id": 741449919,
      "nextDialogs": [
        741449920
      ],
      "talkRole": {
        "type": "TALK_ROLE_NPC",
        "_id": "1005"
      },
      "talkContentTextMapHash": 1039674786,
      "talkAssetPath": "",
      "talkAssetPathAlter": "",
      "talkAudioName": "",
      "actionBefore": "",
      "actionWhile": "",
      "actionAfter": "",
      "optionIcon": "",
      "iconPath": ""
    },
    {
      "id": 741449920,
      "talkRole": {
        "type": "TALK_ROLE_NPC",
        "_id": "1005"
      },
      "talkContentTextMapHash": 3073621074,
      "talkAssetPath": "",
      "talkAssetPathAlter": "",
      "talkAudioName": "",
      "actionBefore": "",
      "actionWhile": "",
      "actionAfter": "",
      "optionIcon": "",
      "iconPath": ""
    }
  ]
}