{
  "talkId": 7414212,
  "KPGKDHAFHFE": "NARRATOR",
  "dialogList": [
    {
      "id": 741429904,
      "talkRole": {
        "type": "TALK_ROLE_NPC",
        "_id": "5311"
      },
      "talkContentTextMapHash": 2060152314,
      "talkAssetPath": "",
      "talkAssetPathAlter": "",
      "talkAudioName": "",
      "actionBefore": "",
      "actionWhile": "",
      "actionAfter": "",
      "optionIcon": "",
      "iconPath": ""
    }
  ]
}