{
  "talkId": 7414111,
  "KPGKDHAFHFE": "NARRATOR",
  "dialogList": [
    {
      "id": 741419902,
      "talkRole": {
        "type": "TALK_ROLE_NPC",
        "_id": "21048"
      },
      "talkContentTextMapHash": 2231971090,
      "talkAssetPath": "",
      "talkAssetPathAlter": "",
      "talkAudioName": "",
      "actionBefore": "",
      "actionWhile": "",
      "actionAfter": "",
      "optionIcon": "",
      "iconPath": ""
    }
  ]
}