{
  "talkId": 7421704,
  "KPGKDHAFHFE": "NARRATOR",
  "dialogList": [
    {
      "id": 742179904,
      "talkRole": {
        "type": "TALK_ROLE_NPC",
        "_id": "20658"
      },
      "talkContentTextMapHash": 618423786,
      "talkAssetPath": "",
      "talkAssetPathAlter": "",
      "talkAudioName": "",
      "actionBefore": "",
      "actionWhile": "",
      "actionAfter": "",
      "optionIcon": "",
      "iconPath": ""
    }
  ]
}