{
  "talkId": 79007,
  "KPGKDHAFHFE": "NARRATOR",
  "dialogList": [
    {
      "id": 790070190,
      "talkRole": {
        "type": "TALK_ROLE_NPC",
        "_id": "1005"
      },
      "talkContentTextMapHash": 2656656090,
      "talkAssetPath": "",
      "talkAssetPathAlter": "",
      "talkAudioName": "",
      "actionBefore": "",
      "actionWhile": "",
      "actionAfter": "",
      "showDuration": 5.0,
      "optionIcon": "",
      "iconPath": ""
    },
    {
      "id": 790070191,
      "talkRole": {
        "type": "TALK_ROLE_NPC",
        "_id": "1005"
      },
      "talkContentTextMapHash": 52657250,
      "talkAssetPath": "",
      "talkAssetPathAlter": "",
      "talkAudioName": "",
      "actionBefore": "",
      "actionWhile": "",
      "actionAfter": "",
      "showDuration": 5.0,
      "optionIcon": "",
      "iconPath": ""
    },
    {
      "id": 790070192,
      "talkRole": {
        "type": "TALK_ROLE_NPC",
        "_id": "1005"
      },
      "talkContentTextMapHash": 2025129050,
      "talkAssetPath": "",
      "talkAssetPathAlter": "",
      "talkAudioName": "",
      "actionBefore": "",
      "actionWhile": "",
      "actionAfter": "",
      "showDuration": 5.0,
      "optionIcon": "",
      "iconPath": ""
    },
    {
      "id": 790070193,
      "talkRole": {
        "type": "TALK_ROLE_NPC",
        "_id": "1005"
      },
      "talkContentTextMapHash": 1972874026,
      "talkAssetPath": "",
      "talkAssetPathAlter": "",
      "talkAudioName": "",
      "actionBefore": "",
      "actionWhile": "",
      "actionAfter": "",
      "showDuration": 5.0,
      "optionIcon": "",
      "iconPath": ""
    }
  ]
}