{
  "talkId": 800701,
  "KPGKDHAFHFE": "NARRATOR",
  "dialogList": [
    {
      "id": 80079901,
      "nextDialogs": [
        80079902
      ],
      "talkRole": {
        "type": "TALK_ROLE_NPC",
        "_id": "1005"
      },
      "talkContentTextMapHash": 1110142106,
      "talkAssetPath": "",
      "talkAssetPathAlter": "",
      "talkAudioName": "",
      "actionBefore": "",
      "actionWhile": "",
      "actionAfter": "",
      "optionIcon": "",
      "iconPath": ""
    },
    {
      "id": 80079902,
      "talkRole": {
        "type": "TALK_ROLE_NPC",
        "_id": "1022"
      },
      "talkContentTextMapHash": 3348778754,
      "talkAssetPath": "",
      "talkAssetPathAlter": "",
      "talkAudioName": "",
      "actionBefore": "",
      "actionWhile": "",
      "actionAfter": "",
      "optionIcon": "",
      "iconPath": ""
    }
  ]
}