{
  "luaDataPath": "",
  "isSimpleTalk": true,
  "entityBan": "",
  "disableNpcLod": true,
  "protectNpcMobileLod": true,
  "startFade": {
    "startFadeOutDuration": 0.0
  },
  "endFade": {
    "startFadeOutDuration": 0.0
  },
  "actors": [
    {
      "alias": "Avatar",
      "visible": true,
      "bornPointName": "",
      "relativePosType": "AVATAR_NEW",
      "relativePosNpcAlias": "",
      "_bindMovingTargetKey": ""
    },
    {
      "configID": 20932,
      "alias": "20932",
      "visible": true,
      "bornPointName": "",
      "relativePosType": "AVATAR_NEW",
      "relativePosNpcAlias": "",
      "_bindMovingTargetKey": ""
    },
    {
      "configID": 1005,
      "alias": "1005",
      "visible": true,
      "bornPointName": "",
      "useRelativePos": true,
      "relativePos": {
        "x": 0.5,
        "z": 0.5
      },
      "removeActorType": "REMOVE_WITH_DISAPPEAR",
      "relativePosType": "AVATAR_NEW",
      "relativePosNpcAlias": "",
      "_bindMovingTargetKey": ""
    }
  ],
  "group": [
    [
      {
        "$type": "EFHODGEJOHJ",
        "type": "CAMERA_FOCUS",
        "duration": 0.10000000149011612,
        "actionId": 103,
        "targetNpcAlias": "",
        "PHGBNNGCJKJ": "",
        "NFILMKCFHEB": "",
        "BGPNGHDAECF": ""
      },
      {
        "$type": "MoleMole.Config.ConfigTimeProtectAction",
        "type": "TIME_PROTECT",
        "duration": 0.10000000149011612,
        "actionId": 104
      },
      {
        "$type": "IEKHMHNHENB",
        "type": "STEER_TO",
        "delayTime": 0.30000001192092896,
        "duration": 0.800000011920929,
        "aliasList": [
          "Avatar"
        ],
        "actionId": 110,
        "steerType": "TO_TARGET_ADVANCED",
        "useSteerAnim": true,
        "interruptFreestyle": true,
        "forceSteer": true,
        "targetNpcAlias": "20932",
        "fixInterNull": true,
        "BHGPHGNFCBF": ""
      },
      {
        "$type": "IEKHMHNHENB",
        "type": "STEER_TO",
        "delayTime": 0.30000001192092896,
        "duration": 0.800000011920929,
        "aliasList": [
          "20932"
        ],
        "actionId": 111,
        "steerType": "TO_LOCAL_AVATAR_ADVANCED",
        "useSteerAnim": true,
        "interruptFreestyle": true,
        "forceSteer": true,
        "targetNpcAlias": "",
        "fixInterNull": true,
        "BHGPHGNFCBF": ""
      }
    ],
    [
      {
        "$type": "MJFAIFFAGOF",
        "type": "DIALOG",
        "aliasList": [
          "20932"
        ],
        "actionId": 107,
        "dialogID": 732250301,
        "protectTime": 0.5
      }
    ],
    [
      {
        "$type": "MJFAIFFAGOF",
        "type": "DIALOG",
        "aliasList": [
          "1005"
        ],
        "actionId": 109,
        "dialogID": 732250302,
        "protectTime": 0.5
      }
    ],
    [
      {
        "$type": "MoleMole.Config.ConfigTimeProtectAction",
        "type": "TIME_PROTECT",
        "duration": 0.10000000149011612,
        "actionId": 105
      }
    ]
  ],
  "groupId": [
    {
      "grpId": 3656528456,
      "nextGrpId": 3656528457
    },
    {
      "index": 1,
      "grpId": 3656528457,
      "nextGrpId": 3656528458
    },
    {
      "index": 2,
      "grpId": 3656528458,
      "nextGrpId": 3656528459
    },
    {
      "index": 3,
      "grpId": 3656528459,
      "nextGrpId": 3656528460
    }
  ]
}