{
  "luaDataPath": "",
  "startBlackKeepTime": 0.4000000059604645,
  "entityBan": "",
  "disableNpcLod": true,
  "startFade": {
    "startFadeInDuration": 0.30000001192092896,
    "startFadeOutDuration": 0.30000001192092896
  },
  "endFade": {
    "startFadeOutDuration": 0.0
  },
  "actors": [
    {
      "alias": "Avatar",
      "visible": true,
      "bornPointName": "Q10121_TALK6",
      "relativePosNpcAlias": "",
      "_bindMovingTargetKey": ""
    },
    {
      "configID": 1029,
      "alias": "1029",
      "visible": true,
      "bornPointName": "Q10121_youla3",
      "relativePosNpcAlias": "",
      "_bindMovingTargetKey": ""
    },
    {
      "configID": 1005,
      "alias": "1005",
      "visible": true,
      "bornPointName": "",
      "useRelativePos": true,
      "relativePos": {
        "x": -1.0,
        "z": 1.0
      },
      "relativePosNpcAlias": "",
      "_bindMovingTargetKey": ""
    }
  ],
  "group": [
    [
      {
        "$type": "MoleMole.Config.ConfigBlackScreenAction",
        "type": "BLACK_SCREEN",
        "blackScreenType": "KEEP_BLACK",
        "durationKeepBlack": 0.30000001192092896,
        "inteePos": "",
        "textMapID": ""
      },
      {
        "$type": "MoleMole.Config.ConfigTimeProtectAction",
        "type": "TIME_PROTECT",
        "duration": 0.30000001192092896
      },
      {
        "$type": "MoleMole.Config.ConfigTeleportToAction",
        "type": "TELEPORT_TO",
        "aliasList": [
          "Avatar"
        ],
        "position": {
          "x": 893.1337890625,
          "y": 332.139892578125,
          "z": -611.965087890625
        },
        "forward": {
          "x": 0.021240234375,
          "y": 0.913299560546875,
          "z": -1.4390869140625
        },
        "_posBindMovingTargetKey": "",
        "_forwardBindMovingTargetKey": ""
      },
      {
        "$type": "NPCNMEOCADD",
        "type": "LOOK_AT",
        "delayTime": 0.18955188989639282,
        "aliasList": [
          "Avatar"
        ],
        "enableHead": true,
        "useTargetPos": true,
        "enableAbsolute": true,
        "targetPosition": {
          "x": 893.069091796875,
          "y": 333.5701904296875,
          "z": -613.3533325195312
        },
        "headTurnTime": 0.5,
        "targetNpcAlias": "",
        "targetNpcLookAtPoint": "",
        "BHGPHGNFCBF": ""
      },
      {
        "$type": "MoleMole.Config.ConfigTeleportToAction",
        "type": "TELEPORT_TO",
        "aliasList": [
          "1029"
        ],
        "position": {
          "x": 893.0662231445312,
          "y": 332.2460021972656,
          "z": -613.3804931640625
        },
        "forward": {
          "x": -0.4403076171875,
          "y": -0.080322265625,
          "z": 1.90283203125
        },
        "_posBindMovingTargetKey": "",
        "_forwardBindMovingTargetKey": ""
      },
      {
        "$type": "NPCNMEOCADD",
        "type": "LOOK_AT",
        "delayTime": 0.18955188989639282,
        "aliasList": [
          "1029"
        ],
        "enableHead": true,
        "useTargetPos": true,
        "enableAbsolute": true,
        "targetPosition": {
          "x": 893.1332397460938,
          "y": 333.4167175292969,
          "z": -611.9850463867188
        },
        "headTurnTime": 0.5,
        "targetNpcAlias": "",
        "targetNpcLookAtPoint": "",
        "BHGPHGNFCBF": ""
      },
      {
        "$type": "MoleMole.Config.ConfigTeleportToAction",
        "type": "TELEPORT_TO",
        "aliasList": [
          "1005"
        ],
        "position": {
          "x": 892.3435668945312,
          "y": 332.1169738769531,
          "z": -612.3130493164062
        },
        "forward": {
          "x": 0.61773681640625,
          "y": 0.20281982421875,
          "z": -1.17376708984375
        },
        "_posBindMovingTargetKey": "",
        "_forwardBindMovingTargetKey": ""
      },
      {
        "$type": "NPCNMEOCADD",
        "type": "LOOK_AT",
        "delayTime": 0.18955188989639282,
        "aliasList": [
          "1005"
        ],
        "enableHead": true,
        "useTargetPos": true,
        "enableAbsolute": true,
        "targetPosition": {
          "x": 893.0181274414062,
          "y": 333.54876708984375,
          "z": -613.3225708007812
        },
        "headTurnTime": 0.5,
        "targetNpcAlias": "",
        "targetNpcLookAtPoint": "",
        "BHGPHGNFCBF": ""
      }
    ],
    [
      {
        "$type": "MoleMole.Config.ConfigBlackScreenAction",
        "type": "BLACK_SCREEN",
        "blackScreenType": "FROM_BLACK",
        "durationFromBlack": 0.5,
        "inteePos": "",
        "textMapID": ""
      },
      {
        "$type": "EFHODGEJOHJ",
        "type": "CAMERA_MOVE",
        "delayTime": 0.047388046979904175,
        "duration": 4.862120151519775,
        "camPosOffset": {
          "x": 893.60302734375,
          "y": 333.43048095703125,
          "z": -611.1888427734375
        },
        "camForwardTargetOffset": {
          "x": 893.109130859375,
          "y": 333.45086669921875,
          "z": -612.05810546875
        },
        "camFov": 35.0,
        "cameraBlendType": "EaseOutQuad",
        "MDKBPBJCMHH": {},
        "openCameraDither": false,
        "targetNpcAlias": "",
        "PHGBNNGCJKJ": "",
        "NFILMKCFHEB": "",
        "BGPNGHDAECF": ""
      },
      {
        "$type": "EFHODGEJOHJ",
        "type": "CAMERA_MOVE",
        "duration": 0.19440433382987976,
        "camPosOffset": {
          "x": 893.60302734375,
          "y": 333.43048095703125,
          "z": -611.1888427734375
        },
        "camForwardTargetOffset": {
          "x": 893.109130859375,
          "y": 333.45086669921875,
          "z": -612.05810546875
        },
        "camFov": 35.0,
        "lerpPattern": 6,
        "cameraBlendType": "EaseInOutCubic",
        "MDKBPBJCMHH": {},
        "openCameraDither": false,
        "targetNpcAlias": "",
        "PHGBNNGCJKJ": "",
        "NFILMKCFHEB": "",
        "BGPNGHDAECF": ""
      },
      {
        "$type": "MJFAIFFAGOF",
        "type": "DIALOG",
        "aliasList": [
          "1029"
        ],
        "dialogID": 101210601,
        "protectTime": 0.5
      },
      {
        "$type": "EDCHPJLDKIN",
        "type": "BODY_LANG",
        "aliasList": [
          "1029"
        ],
        "bodyLangParam": 1120,
        "forceDoFreeStyle": true,
        "eventPatternSuiteKey": ""
      },
      {
        "$type": "ICHLNKHGCAG",
        "type": "EMO_SYNC",
        "aliasList": [
          "1029"
        ],
        "dataPath": "Cs_Emo_Avatar_Simple_Common_Set/Cs_Emo_Avatar_Talk/Cs_Emo_Avatar_PersonalLine/Cs_Emo_Avatar_Eula/Cs_Emo_101210601",
        "phonemePath": "",
        "emotionPath": "",
        "mateDataPath": "",
        "matePhonemePath": "",
        "mateEmotionPath": "",
        "dataPathHashList": [
          11599593795505366538,
          2456113424695608129,
          3995861832125132463,
          11637870190871698167
        ],
        "PACNIGOOENN": "",
        "PIBDNPHIAGC": ""
      }
    ],
    [
      {
        "$type": "EFHODGEJOHJ",
        "type": "CAMERA_MOVE",
        "delayTime": 0.08292896300554276,
        "duration": 8.269203186035156,
        "camPosOffset": {
          "x": 893.032958984375,
          "y": 333.4107360839844,
          "z": -612.8358764648438
        },
        "camForwardTargetOffset": {
          "x": 892.192138671875,
          "y": 333.401123046875,
          "z": -612.294677734375
        },
        "camFov": 30.0,
        "cameraBlendType": "EaseOutQuad",
        "MDKBPBJCMHH": {},
        "openCameraDither": false,
        "targetNpcAlias": "",
        "PHGBNNGCJKJ": "",
        "NFILMKCFHEB": "",
        "BGPNGHDAECF": ""
      },
      {
        "$type": "EFHODGEJOHJ",
        "type": "CAMERA_MOVE",
        "duration": 0.12503761053085327,
        "camPosOffset": {
          "x": 893.0812377929688,
          "y": 333.4112854003906,
          "z": -612.8668823242188
        },
        "camForwardTargetOffset": {
          "x": 892.2404174804688,
          "y": 333.40167236328125,
          "z": -612.32568359375
        },
        "camFov": 30.0,
        "lerpPattern": 6,
        "cameraBlendType": "EaseInOutCubic",
        "MDKBPBJCMHH": {},
        "openCameraDither": false,
        "targetNpcAlias": "",
        "PHGBNNGCJKJ": "",
        "NFILMKCFHEB": "",
        "BGPNGHDAECF": ""
      },
      {
        "$type": "EDCHPJLDKIN",
        "type": "BODY_LANG",
        "aliasList": [
          "1005"
        ],
        "bodyLangParam": 1050,
        "forceDoFreeStyle": true,
        "eventPatternSuiteKey": ""
      },
      {
        "$type": "EDCHPJLDKIN",
        "type": "BODY_LANG",
        "delayTime": 1.9792383909225464,
        "aliasList": [
          "1005"
        ],
        "bodyLangParam": 1100,
        "forceDoFreeStyle": true,
        "eventPatternSuiteKey": ""
      },
      {
        "$type": "EDCHPJLDKIN",
        "type": "BODY_LANG",
        "delayTime": 4.717809677124023,
        "aliasList": [
          "1005"
        ],
        "bodyLangParam": 1180,
        "forceDoFreeStyle": true,
        "eventPatternSuiteKey": ""
      },
      {
        "$type": "MJFAIFFAGOF",
        "type": "DIALOG",
        "aliasList": [
          "1005"
        ],
        "dialogID": 101210602,
        "protectTime": 0.5
      },
      {
        "$type": "ICHLNKHGCAG",
        "type": "EMO_SYNC",
        "aliasList": [
          "1005"
        ],
        "dataPath": "Cs_Emo_Avatar_Simple_Common_Set/Cs_Emo_Avatar_Talk/Cs_Emo_Avatar_PersonalLine/Cs_Emo_Avatar_Eula/Cs_Emo_101210602",
        "phonemePath": "",
        "emotionPath": "",
        "mateDataPath": "",
        "matePhonemePath": "",
        "mateEmotionPath": "",
        "dataPathHashList": [
          6899191030351572205,
          16774469842842541822,
          1541459252847385043,
          7984652048323175276
        ],
        "PACNIGOOENN": "",
        "PIBDNPHIAGC": ""
      }
    ],
    [
      {
        "$type": "EFHODGEJOHJ",
        "type": "CAMERA_MOVE",
        "delayTime": 0.07108199596405029,
        "duration": 4.682405948638916,
        "camPosOffset": {
          "x": 887.4231567382812,
          "y": 339.3297119140625,
          "z": -610.7801513671875
        },
        "camForwardTargetOffset": {
          "x": 888.0995483398438,
          "y": 338.61962890625,
          "z": -610.9757690429688
        },
        "camFov": 30.0,
        "cameraBlendType": "EaseOutQuad",
        "MDKBPBJCMHH": {},
        "openCameraDither": false,
        "targetNpcAlias": "",
        "PHGBNNGCJKJ": "",
        "NFILMKCFHEB": "",
        "BGPNGHDAECF": ""
      },
      {
        "$type": "EFHODGEJOHJ",
        "type": "CAMERA_MOVE",
        "duration": 0.15685440599918365,
        "camPosOffset": {
          "x": 887.4913940429688,
          "y": 339.3297119140625,
          "z": -610.5580444335938
        },
        "camForwardTargetOffset": {
          "x": 888.1609497070312,
          "y": 338.61962890625,
          "z": -610.7758178710938
        },
        "camFov": 30.0,
        "lerpPattern": 6,
        "cameraBlendType": "EaseInOutCubic",
        "MDKBPBJCMHH": {},
        "openCameraDither": false,
        "targetNpcAlias": "",
        "PHGBNNGCJKJ": "",
        "NFILMKCFHEB": "",
        "BGPNGHDAECF": ""
      },
      {
        "$type": "MJFAIFFAGOF",
        "type": "DIALOG",
        "aliasList": [
          "1005"
        ],
        "dialogID": 101210603,
        "protectTime": 0.5
      },
      {
        "$type": "EDCHPJLDKIN",
        "type": "BODY_LANG",
        "aliasList": [
          "1005"
        ],
        "bodyLangParam": 1170,
        "forceDoFreeStyle": true,
        "eventPatternSuiteKey": ""
      },
      {
        "$type": "EDCHPJLDKIN",
        "type": "BODY_LANG",
        "delayTime": 1.6090445518493652,
        "aliasList": [
          "1005"
        ],
        "bodyLangParam": 1180,
        "forceDoFreeStyle": true,
        "eventPatternSuiteKey": ""
      },
      {
        "$type": "ICHLNKHGCAG",
        "type": "EMO_SYNC",
        "aliasList": [
          "1005"
        ],
        "dataPath": "Cs_Emo_Avatar_Simple_Common_Set/Cs_Emo_Avatar_Talk/Cs_Emo_Avatar_PersonalLine/Cs_Emo_Avatar_Eula/Cs_Emo_101210603",
        "phonemePath": "",
        "emotionPath": "",
        "mateDataPath": "",
        "matePhonemePath": "",
        "mateEmotionPath": "",
        "dataPathHashList": [
          17186942108048804509,
          16577769323021002902,
          2128682345473103422,
          2156493161231798625
        ],
        "PACNIGOOENN": "",
        "PIBDNPHIAGC": ""
      }
    ],
    [
      {
        "$type": "EFHODGEJOHJ",
        "type": "CAMERA_MOVE",
        "delayTime": 0.10662287473678589,
        "duration": 5.935344219207764,
        "camPosOffset": {
          "x": 892.1761474609375,
          "y": 333.4366760253906,
          "z": -612.8065185546875
        },
        "camForwardTargetOffset": {
          "x": 893.0322875976562,
          "y": 333.6854248046875,
          "z": -613.2594604492188
        },
        "camFov": 30.0,
        "cameraBlendType": "EaseOutQuad",
        "MDKBPBJCMHH": {},
        "openCameraDither": false,
        "targetNpcAlias": "",
        "PHGBNNGCJKJ": "",
        "NFILMKCFHEB": "",
        "BGPNGHDAECF": ""
      },
      {
        "$type": "EFHODGEJOHJ",
        "type": "CAMERA_MOVE",
        "duration": 0.18867118656635284,
        "camPosOffset": {
          "x": 892.20703125,
          "y": 333.4366760253906,
          "z": -612.752197265625
        },
        "camForwardTargetOffset": {
          "x": 893.0344848632812,
          "y": 333.6854248046875,
          "z": -613.2556762695312
        },
        "camFov": 30.0,
        "lerpPattern": 6,
        "cameraBlendType": "EaseInOutCubic",
        "MDKBPBJCMHH": {},
        "openCameraDither": false,
        "targetNpcAlias": "",
        "PHGBNNGCJKJ": "",
        "NFILMKCFHEB": "",
        "BGPNGHDAECF": ""
      },
      {
        "$type": "NPCNMEOCADD",
        "type": "LOOK_AT",
        "aliasList": [
          "Avatar"
        ],
        "enableHead": true,
        "useTargetPos": true,
        "enableAbsolute": true,
        "targetPosition": {
          "x": 893.0897216796875,
          "y": 333.78900146484375,
          "z": -613.3311767578125
        },
        "headTurnTime": 0.5,
        "targetNpcAlias": "",
        "lookAtTargetType": "NONE",
        "targetNpcLookAtPoint": "",
        "BHGPHGNFCBF": ""
      },
      {
        "$type": "MJFAIFFAGOF",
        "type": "DIALOG",
        "aliasList": [
          "1029"
        ],
        "dialogID": 101210604,
        "protectTime": 0.5
      },
      {
        "$type": "EDCHPJLDKIN",
        "type": "BODY_LANG",
        "aliasList": [
          "1029"
        ],
        "isContinue": true,
        "forceDoFreeStyle": true,
        "eventPatternSuiteKey": ""
      },
      {
        "$type": "EDCHPJLDKIN",
        "type": "BODY_LANG",
        "delayTime": 1.2966142892837524,
        "aliasList": [
          "1029"
        ],
        "bodyLangParam": 1172,
        "forceDoFreeStyle": true,
        "eventPatternSuiteKey": ""
      },
      {
        "$type": "NPCNMEOCADD",
        "type": "LOOK_AT",
        "aliasList": [
          "1029"
        ],
        "enableHead": true,
        "useTargetPos": true,
        "enableAbsolute": true,
        "targetPosition": {
          "x": 892.3698120117188,
          "y": 333.5149230957031,
          "z": -612.3663940429688
        },
        "headTurnTime": 0.5,
        "targetNpcAlias": "",
        "lookAtTargetType": "NONE",
        "targetNpcLookAtPoint": "",
        "BHGPHGNFCBF": ""
      },
      {
        "$type": "ICHLNKHGCAG",
        "type": "EMO_SYNC",
        "aliasList": [
          "1029"
        ],
        "dataPath": "Cs_Emo_Avatar_Simple_Common_Set/Cs_Emo_Avatar_Talk/Cs_Emo_Avatar_PersonalLine/Cs_Emo_Avatar_Eula/Cs_Emo_101210604",
        "phonemePath": "",
        "emotionPath": "",
        "mateDataPath": "",
        "matePhonemePath": "",
        "mateEmotionPath": "",
        "dataPathHashList": [
          11022330830329391097,
          7122321532754755318,
          12582070967924676094,
          6314810292241032829
        ],
        "PACNIGOOENN": "",
        "PIBDNPHIAGC": ""
      }
    ],
    [
      {
        "$type": "EFHODGEJOHJ",
        "type": "CAMERA_MOVE",
        "delayTime": 0.10769036412239075,
        "duration": 10.913370132446289,
        "camPosOffset": {
          "x": 892.15966796875,
          "y": 333.86053466796875,
          "z": -614.73095703125
        },
        "camForwardTargetOffset": {
          "x": 892.4877319335938,
          "y": 333.6602783203125,
          "z": -613.8078002929688
        },
        "camFov": 35.0,
        "cameraBlendType": "EaseOutQuad",
        "MDKBPBJCMHH": {},
        "openCameraDither": false,
        "targetNpcAlias": "",
        "PHGBNNGCJKJ": "",
        "NFILMKCFHEB": "",
        "BGPNGHDAECF": ""
      },
      {
        "$type": "EFHODGEJOHJ",
        "type": "CAMERA_MOVE",
        "duration": 0.18867118656635284,
        "camPosOffset": {
          "x": 892.01318359375,
          "y": 333.8592529296875,
          "z": -614.6730346679688
        },
        "camForwardTargetOffset": {
          "x": 892.4102172851562,
          "y": 333.6678161621094,
          "z": -613.775390625
        },
        "camFov": 35.0,
        "lerpPattern": 6,
        "cameraBlendType": "EaseInOutCubic",
        "MDKBPBJCMHH": {},
        "openCameraDither": false,
        "targetNpcAlias": "",
        "PHGBNNGCJKJ": "",
        "NFILMKCFHEB": "",
        "BGPNGHDAECF": ""
      },
      {
        "$type": "MJFAIFFAGOF",
        "type": "DIALOG",
        "aliasList": [
          "1029"
        ],
        "dialogID": 101210605,
        "protectTime": 0.5
      },
      {
        "$type": "EDCHPJLDKIN",
        "type": "BODY_LANG",
        "aliasList": [
          "1029"
        ],
        "bodyLangParam": 1171,
        "forceDoFreeStyle": true,
        "eventPatternSuiteKey": ""
      },
      {
        "$type": "EDCHPJLDKIN",
        "type": "BODY_LANG",
        "delayTime": 3.549208641052246,
        "aliasList": [
          "1029"
        ],
        "bodyLangParam": 1173,
        "forceDoFreeStyle": true,
        "eventPatternSuiteKey": ""
      },
      {
        "$type": "ICHLNKHGCAG",
        "type": "EMO_SYNC",
        "aliasList": [
          "1029"
        ],
        "dataPath": "Cs_Emo_Avatar_Simple_Common_Set/Cs_Emo_Avatar_Talk/Cs_Emo_Avatar_PersonalLine/Cs_Emo_Avatar_Eula/Cs_Emo_101210605",
        "phonemePath": "",
        "emotionPath": "",
        "mateDataPath": "",
        "matePhonemePath": "",
        "mateEmotionPath": "",
        "dataPathHashList": [
          18114775824658611664,
          18405360191296865809,
          11000947070711488567,
          12929138169451801185
        ],
        "PACNIGOOENN": "",
        "PIBDNPHIAGC": ""
      },
      {
        "$type": "NPCNMEOCADD",
        "type": "LOOK_AT",
        "aliasList": [
          "1029"
        ],
        "enableHead": true,
        "useTargetPos": true,
        "enableAbsolute": true,
        "targetPosition": {
          "x": 892.4678955078125,
          "y": 333.5149230957031,
          "z": -612.3036499023438
        },
        "headTurnTime": 0.5,
        "targetNpcAlias": "",
        "lookAtTargetType": "NONE",
        "targetNpcLookAtPoint": "",
        "BHGPHGNFCBF": ""
      },
      {
        "$type": "NPCNMEOCADD",
        "type": "LOOK_AT",
        "aliasList": [
          "1005"
        ],
        "enableHead": true,
        "useTargetPos": true,
        "enableAbsolute": true,
        "targetPosition": {
          "x": 892.82421875,
          "y": 333.7542724609375,
          "z": -613.4057006835938
        },
        "headTurnTime": 0.5,
        "targetNpcAlias": "",
        "lookAtTargetType": "NONE",
        "targetNpcLookAtPoint": "",
        "BHGPHGNFCBF": ""
      },
      {
        "$type": "EDCHPJLDKIN",
        "type": "BODY_LANG",
        "aliasList": [
          "1005"
        ],
        "isContinue": true,
        "forceDoFreeStyle": true,
        "eventPatternSuiteKey": ""
      },
      {
        "$type": "ICHLNKHGCAG",
        "type": "EMO_SYNC",
        "aliasList": [
          "1005"
        ],
        "dataPath": "",
        "phonemePath": "Cs_Emo_Pet_Common/Cs_Emo_Paimon_None",
        "emotionPath": "Cs_Emo_Pet_Common/Cs_Emo_Paimon_Normal01_B",
        "mateDataPath": "",
        "matePhonemePath": "",
        "mateEmotionPath": "",
        "phonemePathHashList": [
          1796869206626684908,
          2049648015653630001,
          14015965774222061559,
          873259039409222856
        ],
        "emotionPathHashList": [
          14892026956990897578,
          7647528750435710781,
          2171559387429051042,
          15358483104891988261
        ],
        "PACNIGOOENN": "",
        "PIBDNPHIAGC": ""
      },
      {
        "$type": "ICHLNKHGCAG",
        "type": "EMO_SYNC",
        "delayTime": 3.654942512512207,
        "aliasList": [
          "1005"
        ],
        "dataPath": "",
        "phonemePath": "Cs_Emo_Pet_Common/Cs_Emo_Paimon_None",
        "emotionPath": "Cs_Emo_Pet_Common/Cs_Emo_Paimon_Normal01_B",
        "mateDataPath": "",
        "matePhonemePath": "",
        "mateEmotionPath": "",
        "phonemePathHashList": [
          1796869206626684908,
          2049648015653630001,
          14015965774222061559,
          873259039409222856
        ],
        "emotionPathHashList": [
          14892026956990897578,
          7647528750435710781,
          2171559387429051042,
          15358483104891988261
        ],
        "PACNIGOOENN": "",
        "PIBDNPHIAGC": ""
      }
    ],
    [
      {
        "$type": "EFHODGEJOHJ",
        "type": "CAMERA_MOVE",
        "delayTime": 0.2691916823387146,
        "duration": 5.296759605407715,
        "camPosOffset": {
          "x": 888.2942504882812,
          "y": 332.48577880859375,
          "z": -607.7944946289062
        },
        "camForwardTargetOffset": {
          "x": 889.1297607421875,
          "y": 332.6523742675781,
          "z": -608.318115234375
        },
        "camFov": 35.0,
        "cameraBlendType": "EaseOutQuad",
        "MDKBPBJCMHH": {},
        "openCameraDither": false,
        "targetNpcAlias": "",
        "PHGBNNGCJKJ": "",
        "NFILMKCFHEB": "",
        "BGPNGHDAECF": ""
      },
      {
        "$type": "EFHODGEJOHJ",
        "type": "CAMERA_MOVE",
        "duration": 0.48289185762405396,
        "camPosOffset": {
          "x": 888.2482299804688,
          "y": 332.4848327636719,
          "z": -607.8682250976562
        },
        "camForwardTargetOffset": {
          "x": 889.083740234375,
          "y": 332.65142822265625,
          "z": -608.391845703125
        },
        "camFov": 35.0,
        "lerpPattern": 6,
        "cameraBlendType": "EaseInOutCubic",
        "MDKBPBJCMHH": {},
        "openCameraDither": false,
        "targetNpcAlias": "",
        "PHGBNNGCJKJ": "",
        "NFILMKCFHEB": "",
        "BGPNGHDAECF": ""
      },
      {
        "$type": "NPCNMEOCADD",
        "type": "LOOK_AT",
        "delayTime": 0.11119125038385391,
        "aliasList": [
          "Avatar"
        ],
        "enableHead": true,
        "useTargetPos": true,
        "enableAbsolute": true,
        "targetOffset": {
          "x": -0.09596380591392517,
          "y": -1.66793954372406,
          "z": -0.4149458110332489
        },
        "targetPosition": {
          "x": 895.0040893554688,
          "y": 334.0888366699219,
          "z": -613.025634765625
        },
        "headTurnTime": 0.5,
        "targetNpcAlias": "",
        "targetNpcLookAtPoint": "",
        "BHGPHGNFCBF": ""
      },
      {
        "$type": "MJFAIFFAGOF",
        "type": "DIALOG",
        "aliasList": [
          "1029"
        ],
        "dialogID": 101210606,
        "protectTime": 0.5
      },
      {
        "$type": "NPCNMEOCADD",
        "type": "LOOK_AT",
        "delayTime": 0.11119125038385391,
        "aliasList": [
          "1029"
        ],
        "enableHead": true,
        "useTargetPos": true,
        "enableAbsolute": true,
        "targetOffset": {
          "x": -0.09596380591392517,
          "y": -1.66793954372406,
          "z": -0.4149458110332489
        },
        "targetPosition": {
          "x": 895.0040893554688,
          "y": 334.0888366699219,
          "z": -613.025634765625
        },
        "bodyAngle": 2.625657558441162,
        "headTurnTime": 0.5,
        "targetNpcAlias": "",
        "targetNpcLookAtPoint": "",
        "BHGPHGNFCBF": ""
      },
      {
        "$type": "ICHLNKHGCAG",
        "type": "EMO_SYNC",
        "aliasList": [
          "1029"
        ],
        "dataPath": "Cs_Emo_Avatar_Simple_Common_Set/Cs_Emo_Avatar_Talk/Cs_Emo_Avatar_PersonalLine/Cs_Emo_Avatar_Eula/Cs_Emo_101210606",
        "phonemePath": "",
        "emotionPath": "",
        "mateDataPath": "",
        "matePhonemePath": "",
        "mateEmotionPath": "",
        "dataPathHashList": [
          6468162786335045707,
          14171619929533667719,
          7326477739272648038,
          4827455952664875368
        ],
        "PACNIGOOENN": "",
        "PIBDNPHIAGC": ""
      },
      {
        "$type": "MoleMole.Config.ConfigTeleportToAction",
        "type": "TELEPORT_TO",
        "aliasList": [
          "1005"
        ],
        "position": {
          "x": 892.4356079101562,
          "y": 332.0960693359375,
          "z": -612.2714233398438
        },
        "forward": {
          "x": 0.3736572265625,
          "z": -0.92657470703125
        },
        "_posBindMovingTargetKey": "",
        "_forwardBindMovingTargetKey": ""
      },
      {
        "$type": "NPCNMEOCADD",
        "type": "LOOK_AT",
        "delayTime": 0.11119125038385391,
        "aliasList": [
          "1005"
        ],
        "enableHead": true,
        "useTargetPos": true,
        "enableAbsolute": true,
        "targetOffset": {
          "x": -0.09596380591392517,
          "y": -1.66793954372406,
          "z": -0.4149458110332489
        },
        "targetPosition": {
          "x": 895.0040893554688,
          "y": 334.0888366699219,
          "z": -613.025634765625
        },
        "bodyAngle": 2.625657558441162,
        "headTurnTime": 0.5,
        "targetNpcAlias": "",
        "targetNpcLookAtPoint": "",
        "BHGPHGNFCBF": ""
      }
    ],
    [
      {
        "$type": "EFHODGEJOHJ",
        "type": "CAMERA_MOVE",
        "delayTime": 0.13174694776535034,
        "duration": 8.538676261901855,
        "camPosOffset": {
          "x": 892.305419921875,
          "y": 333.6901550292969,
          "z": -613.3440551757812
        },
        "camForwardTargetOffset": {
          "x": 893.295654296875,
          "y": 333.80328369140625,
          "z": -613.2625122070312
        },
        "camFov": 35.0,
        "cameraBlendType": "EaseOutQuad",
        "MDKBPBJCMHH": {},
        "openCameraDither": false,
        "targetNpcAlias": "",
        "PHGBNNGCJKJ": "",
        "NFILMKCFHEB": "",
        "BGPNGHDAECF": ""
      },
      {
        "$type": "EFHODGEJOHJ",
        "type": "CAMERA_MOVE",
        "duration": 0.30000001192092896,
        "camPosOffset": {
          "x": 892.3037109375,
          "y": 333.6897277832031,
          "z": -613.32275390625
        },
        "camForwardTargetOffset": {
          "x": 893.2939453125,
          "y": 333.8028564453125,
          "z": -613.2412109375
        },
        "camFov": 35.0,
        "lerpPattern": 6,
        "cameraBlendType": "EaseInOutCubic",
        "MDKBPBJCMHH": {},
        "openCameraDither": false,
        "targetNpcAlias": "",
        "PHGBNNGCJKJ": "",
        "NFILMKCFHEB": "",
        "BGPNGHDAECF": ""
      },
      {
        "$type": "OBCDECFOOBC",
        "type": "DIALOG_SELECT",
        "delayTime": 0.4000000059604645,
        "aliasList": [
          "Avatar"
        ],
        "dialogIDList": [
          101210608,
          101210609
        ],
        "grpIDList": [
          1499485363,
          1499485363
        ],
        "useGrpId": true
      },
      {
        "$type": "NPCNMEOCADD",
        "type": "LOOK_AT",
        "aliasList": [
          "Avatar"
        ],
        "enableHead": true,
        "useTargetPos": true,
        "enableAbsolute": true,
        "targetPosition": {
          "x": 893.0897216796875,
          "y": 333.49798583984375,
          "z": -613.3311767578125
        },
        "headTurnTime": 0.5,
        "targetNpcAlias": "",
        "targetNpcLookAtPoint": "",
        "BHGPHGNFCBF": ""
      },
      {
        "$type": "MJFAIFFAGOF",
        "type": "DIALOG",
        "aliasList": [
          "1029"
        ],
        "dialogID": 101210607,
        "protectTime": 1.5
      },
      {
        "$type": "EDCHPJLDKIN",
        "type": "BODY_LANG",
        "aliasList": [
          "1029"
        ],
        "bodyLangParam": 1172,
        "forceDoFreeStyle": true,
        "eventPatternSuiteKey": ""
      },
      {
        "$type": "EDCHPJLDKIN",
        "type": "BODY_LANG",
        "delayTime": 2.928586483001709,
        "aliasList": [
          "1029"
        ],
        "bodyLangParam": 1171,
        "forceDoFreeStyle": true,
        "eventPatternSuiteKey": ""
      },
      {
        "$type": "NPCNMEOCADD",
        "type": "LOOK_AT",
        "aliasList": [
          "1029"
        ],
        "enableHead": true,
        "useTargetPos": true,
        "enableAbsolute": true,
        "targetPosition": {
          "x": 892.3698120117188,
          "y": 333.5149230957031,
          "z": -612.3663940429688
        },
        "headTurnTime": 0.5,
        "targetNpcAlias": "",
        "targetNpcLookAtPoint": "",
        "BHGPHGNFCBF": ""
      },
      {
        "$type": "ICHLNKHGCAG",
        "type": "EMO_SYNC",
        "aliasList": [
          "1029"
        ],
        "dataPath": "Cs_Emo_Avatar_Simple_Common_Set/Cs_Emo_Avatar_Talk/Cs_Emo_Avatar_PersonalLine/Cs_Emo_Avatar_Eula/Cs_Emo_101210607",
        "phonemePath": "",
        "emotionPath": "",
        "mateDataPath": "",
        "matePhonemePath": "",
        "mateEmotionPath": "",
        "enableBlink": false,
        "dataPathHashList": [
          847115911612731124,
          10765311967025018287,
          3790226351533531327,
          3646224855124285708
        ],
        "PACNIGOOENN": "",
        "PIBDNPHIAGC": ""
      },
      {
        "$type": "MoleMole.Config.ConfigTeleportToAction",
        "type": "TELEPORT_TO",
        "aliasList": [
          "1005"
        ],
        "position": {
          "x": 892.3435668945312,
          "y": 332.0960693359375,
          "z": -612.3130493164062
        },
        "forward": {
          "x": 0.4657256007194519,
          "z": -0.8849292993545532
        },
        "_posBindMovingTargetKey": "",
        "_forwardBindMovingTargetKey": ""
      },
      {
        "$type": "NPCNMEOCADD",
        "type": "LOOK_AT",
        "aliasList": [
          "1005"
        ],
        "enableHead": true,
        "useTargetPos": true,
        "enableAbsolute": true,
        "targetPosition": {
          "x": 893.0897216796875,
          "y": 333.49798583984375,
          "z": -613.3311767578125
        },
        "headTurnTime": 0.5,
        "targetNpcAlias": "",
        "targetNpcLookAtPoint": "",
        "BHGPHGNFCBF": ""
      }
    ],
    [
      {
        "$type": "EFHODGEJOHJ",
        "type": "CAMERA_MOVE",
        "delayTime": 0.13898904621601105,
        "duration": 3.680236339569092,
        "camPosOffset": {
          "x": 892.4204711914062,
          "y": 333.27593994140625,
          "z": -610.9456787109375
        },
        "camForwardTargetOffset": {
          "x": 892.6974487304688,
          "y": 333.3711853027344,
          "z": -611.9017944335938
        },
        "camFov": 35.0,
        "cameraBlendType": "EaseOutQuad",
        "MDKBPBJCMHH": {},
        "openCameraDither": false,
        "targetNpcAlias": "",
        "PHGBNNGCJKJ": "",
        "NFILMKCFHEB": "",
        "BGPNGHDAECF": ""
      },
      {
        "$type": "EFHODGEJOHJ",
        "type": "CAMERA_MOVE",
        "duration": 0.2363964021205902,
        "camPosOffset": {
          "x": 892.4406127929688,
          "y": 333.2828674316406,
          "z": -611.0152587890625
        },
        "camForwardTargetOffset": {
          "x": 892.7175903320312,
          "y": 333.37811279296875,
          "z": -611.9713745117188
        },
        "camFov": 35.0,
        "lerpPattern": 6,
        "cameraBlendType": "EaseInOutCubic",
        "MDKBPBJCMHH": {},
        "openCameraDither": false,
        "targetNpcAlias": "",
        "PHGBNNGCJKJ": "",
        "NFILMKCFHEB": "",
        "BGPNGHDAECF": ""
      },
      {
        "$type": "MJFAIFFAGOF",
        "type": "DIALOG",
        "aliasList": [
          "1029"
        ],
        "dialogID": 101210610,
        "protectTime": 0.5
      },
      {
        "$type": "EDCHPJLDKIN",
        "type": "BODY_LANG",
        "delayTime": 0.03729056939482689,
        "aliasList": [
          "1029"
        ],
        "bodyLangParam": 1171,
        "forceDoFreeStyle": true,
        "eventPatternSuiteKey": ""
      },
      {
        "$type": "NPCNMEOCADD",
        "type": "LOOK_AT",
        "aliasList": [
          "1029"
        ],
        "enableHead": true,
        "useTargetPos": true,
        "enableAbsolute": true,
        "targetPosition": {
          "x": 892.4415283203125,
          "y": 333.5063781738281,
          "z": -612.1537475585938
        },
        "headTurnTime": 0.5,
        "targetNpcAlias": "",
        "lookAtTargetType": "NONE",
        "targetNpcLookAtPoint": "",
        "BHGPHGNFCBF": ""
      },
      {
        "$type": "ICHLNKHGCAG",
        "type": "EMO_SYNC",
        "aliasList": [
          "1029"
        ],
        "dataPath": "Cs_Emo_Avatar_Simple_Common_Set/Cs_Emo_Avatar_Talk/Cs_Emo_Avatar_PersonalLine/Cs_Emo_Avatar_Eula/Cs_Emo_101210610",
        "phonemePath": "",
        "emotionPath": "",
        "mateDataPath": "",
        "matePhonemePath": "",
        "mateEmotionPath": "",
        "dataPathHashList": [
          8921850621523963322,
          14026457052360808818,
          12113834044797784560,
          12026537594822226371
        ],
        "PACNIGOOENN": "",
        "PIBDNPHIAGC": ""
      }
    ],
    [
      {
        "$type": "EFHODGEJOHJ",
        "type": "CAMERA_MOVE",
        "delayTime": 0.09265942126512527,
        "duration": 3.155165910720825,
        "camPosOffset": {
          "x": 889.0199584960938,
          "y": 333.1178283691406,
          "z": -616.0758056640625
        },
        "camForwardTargetOffset": {
          "x": 889.8775634765625,
          "y": 333.19512939453125,
          "z": -615.5673217773438
        },
        "camFov": 35.0,
        "cameraBlendType": "EaseOutQuad",
        "MDKBPBJCMHH": {},
        "openCameraDither": false,
        "targetNpcAlias": "",
        "PHGBNNGCJKJ": "",
        "NFILMKCFHEB": "",
        "BGPNGHDAECF": ""
      },
      {
        "$type": "EFHODGEJOHJ",
        "type": "CAMERA_MOVE",
        "duration": 0.2363964021205902,
        "camPosOffset": {
          "x": 889.0401611328125,
          "y": 333.13134765625,
          "z": -616.1119384765625
        },
        "camForwardTargetOffset": {
          "x": 889.8977661132812,
          "y": 333.2086486816406,
          "z": -615.6034545898438
        },
        "camFov": 35.0,
        "lerpPattern": 6,
        "cameraBlendType": "EaseInOutCubic",
        "MDKBPBJCMHH": {},
        "openCameraDither": false,
        "targetNpcAlias": "",
        "PHGBNNGCJKJ": "",
        "NFILMKCFHEB": "",
        "BGPNGHDAECF": ""
      },
      {
        "$type": "NPCNMEOCADD",
        "type": "LOOK_AT",
        "aliasList": [
          "Avatar"
        ],
        "enableHead": true,
        "useTargetPos": true,
        "enableAbsolute": true,
        "targetPosition": {
          "x": 893.0897216796875,
          "y": 333.78900146484375,
          "z": -613.3311767578125
        },
        "headTurnTime": 0.5,
        "targetNpcAlias": "",
        "lookAtTargetType": "NONE",
        "targetNpcLookAtPoint": "",
        "BHGPHGNFCBF": ""
      },
      {
        "$type": "MJFAIFFAGOF",
        "type": "DIALOG",
        "aliasList": [
          "1029"
        ],
        "dialogID": 101210611,
        "protectTime": 0.5
      },
      {
        "$type": "EDCHPJLDKIN",
        "type": "BODY_LANG",
        "aliasList": [
          "1029"
        ],
        "bodyLangParam": 1230,
        "forceDoFreeStyle": true,
        "eventPatternSuiteKey": ""
      },
      {
        "$type": "ICHLNKHGCAG",
        "type": "EMO_SYNC",
        "aliasList": [
          "1029"
        ],
        "dataPath": "Cs_Emo_Avatar_Simple_Common_Set/Cs_Emo_Avatar_Talk/Cs_Emo_Avatar_PersonalLine/Cs_Emo_Avatar_Eula/Cs_Emo_101210611",
        "phonemePath": "",
        "emotionPath": "",
        "mateDataPath": "",
        "matePhonemePath": "",
        "mateEmotionPath": "",
        "dataPathHashList": [
          18354339570806034840,
          4343013771650809579,
          7636880107626140206,
          7761241881852808569
        ],
        "PACNIGOOENN": "",
        "PIBDNPHIAGC": ""
      }
    ],
    [
      {
        "$type": "MoleMole.Config.ConfigSimpleBlackScreenAction",
        "type": "SIMPLE_BLACK_SCREEN",
        "durationToBlack": 0.5,
        "durationKeepBlack": 1.0,
        "durationFromBlack": 0.5,
        "textMapID": ""
      },
      {
        "$type": "MoleMole.Config.ConfigTimeProtectAction",
        "type": "TIME_PROTECT",
        "duration": 0.699999988079071
      },
      {
        "$type": "EFHODGEJOHJ",
        "type": "CAMERA_MOVE",
        "delayTime": 0.5386849045753479,
        "duration": 0.07731235027313232,
        "camPosOffset": {
          "x": 892.4024658203125,
          "y": 333.2932434082031,
          "z": -611.1987915039062
        },
        "camForwardTargetOffset": {
          "x": 892.7247924804688,
          "y": 333.3944396972656,
          "z": -612.1400146484375
        },
        "lerpPattern": 6,
        "cameraBlendType": "EaseInOutCubic",
        "MDKBPBJCMHH": {},
        "openCameraDither": false,
        "targetNpcAlias": "",
        "PHGBNNGCJKJ": "",
        "NFILMKCFHEB": "",
        "BGPNGHDAECF": ""
      },
      {
        "$type": "MoleMole.Config.ConfigVisibleInterAction",
        "type": "VISIBLE",
        "delayTime": 0.5386849045753479,
        "aliasList": [
          "1029"
        ],
        "_extraParam": ""
      }
    ]
  ],
  "groupId": [
    {
      "grpId": 1499485355,
      "nextGrpId": 1499485356
    },
    {
      "index": 1,
      "grpId": 1499485356,
      "nextGrpId": 1499485357
    },
    {
      "index": 2,
      "grpId": 1499485357,
      "nextGrpId": 1499485358
    },
    {
      "index": 3,
      "grpId": 1499485358,
      "nextGrpId": 1499485359
    },
    {
      "index": 4,
      "grpId": 1499485359,
      "nextGrpId": 1499485360
    },
    {
      "index": 5,
      "grpId": 1499485360,
      "nextGrpId": 1499485361
    },
    {
      "index": 6,
      "grpId": 1499485361,
      "nextGrpId": 1499485362
    },
    {
      "index": 7,
      "grpId": 1499485362,
      "nextGrpId": 1499485363
    },
    {
      "index": 8,
      "grpId": 1499485363,
      "nextGrpId": 3534373093
    },
    {
      "index": 9,
      "grpId": 3534373093,
      "nextGrpId": 3534373094
    },
    {
      "index": 10,
      "grpId": 3534373094,
      "nextGrpId": 3534373095
    }
  ],
  "freeStyleDic": {
    "1029": [
      1120,
      1172,
      1171,
      1173,
      1230
    ]
  }
}