{
  "1001": 5711361474352355828,
  "1002": 8299682093343573222,
  "1003": 2964856683685413446,
  "1004": 18087239852856130752,
  "1005": 128627905697803700,
  "1006": 15881114769537615280,
  "1007": 14370091194837761200,
  "1009": 6664877958061333746,
  "10094": 7496714424427347213,
  "10099": 11187765899191157156,
  "10112": 11649814104321604926,
  "10211": 3609382891173163750,
  "10215": 15725598767617636449,
  "10216": 17290793509286077892,
  "1023": 1157355144103548465,
  "10232": 588169072689728646,
  "10252": 16118566101417458529,
  "10255": 12004523624115866914,
  "10256": 11030727064117848796,
  "10258": 9259706247301361951,
  "10260": 3898663118480568312,
  "10272": 11810488619318147009,
  "1029": 17309573569518177927,
  "10305": 13295959812178875037,
  "10311": 1375482488359814351,
  "10312": 804727087386989048,
  "10313": 6370427531556261277,
  "10314": 2943929616297875931,
  "10315": 13978846448615954316,
  "10319": 14598238633225377658,
  "10320": 4625996370715506857,
  "10321": 7501692146242684844,
  "10323": 9050547116096517197,
  "10360": 10127067507690823906,
  "10409": 16492307807978956872,
  "10410": 18406232737107911112,
  "10411": 2546771752214908981,
  "10412": 7561646912209403717,
  "10416": 7001379126926504421,
  "10417": 3668255931966617833,
  "10418": 14779542250924486675,
  "10419": 16964970028311367192,
  "10420": 4789596611652799016,
  "10421": 7548695995147889271,
  "10911": 1154665795322919058,
  "10912": 15973209434633534160,
  "10922": 5077449695069415842,
  "11004": 7602405536477288641,
  "1105": 12310117733844794366,
  "1116": 1734500743583587440,
  "1117": 17076503379412380170,
  "1120": 793050174761461060,
  "1121": 13451000730250674825,
  "1164": 14494497164611309659,
  "1180": 9543478691237189065,
  "1201": 11100250788044844208,
  "1202": 8629864343334014000,
  "1203": 5184632206138941934,
  "1204": 6867334794252768400,
  "1205": 12491001658828764442,
  "1206": 16433214342423626213,
  "1207": 6272885876391481214,
  "1208": 6978518132087929910,
  "1209": 13262244360417030461,
  "12133": 6702003831500649451,
  "12134": 14913556642089467177,
  "1220": 2124745837433573860,
  "1221": 333673230817188578,
  "1222": 2924201676630801852,
  "1223": 7882984795292382771,
  "1224": 18033526310618419593,
  "1225": 11365436909153742491,
  "1226": 4951732294333300125,
  "1227": 748620209522767824,
  "1228": 5833861041603424093,
  "1229": 11334003606503498652,
  "1230": 15697718269005589960,
  "1231": 11415741350601031851,
  "12334": 15541344533017580073,
  "1235": 17239309733112820711,
  "1236": 17367180185867742468,
  "1237": 1000350268837920613,
  "1238": 11854451736341665044,
  "1239": 7178720842673734550,
  "1244": 6238448274489008861,
  "1245": 9543975347287087768,
  "1246": 4600614564800784301,
  "1247": 18165804760931035989,
  "1248": 3798559196984079895,
  "1249": 13283067667588848165,
  "1250": 3889808095724617467,
  "1251": 1453563255631843975,
  "1252": 1113113055567801419,
  "1253": 9103245481309681920,
  "1254": 13192041479298052413,
  "1255": 7863663461794010409,
  "12606": 6562780705919812768,
  "1268": 4364724352740746513,
  "1269": 10278059852192860656,
  "1270": 17827529238062226056,
  "1271": 11632222741686399896,
  "12716": 5234073179278142467,
  "1272": 15110330552448608262,
  "12721": 4498822111007292694,
  "12722": 6110149231909919935,
  "1273": 11616697131168469914,
  "12732": 11405491253384623246,
  "1274": 3364411209383990968,
  "1275": 1246937385892884297,
  "12760": 12083595960322857649,
  "1277": 16212100783497902653,
  "1278": 12579061811602363739,
  "1279": 13959629071539899763,
  "1281": 11002393512634762973,
  "1282": 10343280698632070959,
  "1283": 4363203700185680953,
  "1284": 443763456388796224,
  "1285": 9322857229806172105,
  "12856": 7663991730176012156,
  "12857": 9804338579409454737,
  "12858": 12365174896550757955,
  "12859": 13082403073094791492,
  "1286": 17137176463367849796,
  "12860": 13336059771727998817,
  "12861": 5749914415633536073,
  "12862": 17252270764597096876,
  "1287": 12255712434358226338,
  "1288": 13385551710217079387,
  "1289": 10500750495489172604,
  "1290": 14798689321026253491,
  "13019": 3991397814605222789,
  "1305": 8436243191910999525,
  "13060": 9261225982324109064,
  "13061": 5060673799871564077,
  "13062": 16043212381694305407,
  "13080": 13022593228953303474,
  "13081": 9744833814390015578,
  "13087": 5236171911049027960,
  "13088": 5450435506175221515,
  "13089": 13108941920214578646,
  "13090": 17207285249680562661,
  "13118": 17700567854612490072,
  "13121": 8250639504865240155,
  "13122": 16412624102721662320,
  "13124": 18217892550181171025,
  "13125": 442457373296466384,
  "13163": 15730066656806137106,
  "13164": 2743245450102955390,
  "13173": 180249876653660776,
  "13214": 8012699001495749396,
  "13215": 13009873523398757190,
  "13216": 15791815380235035490,
  "13217": 11755070177970340112,
  "13218": 2666944277921936997,
  "13219": 11538047614019050278,
  "13279": 330057766809474509,
  "13280": 6222479666825621796,
  "13356": 6248114381052779960,
  "13489": 2256353183932434400,
  "13894": 4389354860099487119,
  "13955": 17004803733321033180,
  "1401": 12455855264481129606,
  "1403": 15728256910536099163,
  "1404": 14735867355334529882,
  "1405": 9033778481517028427,
  "1408": 4877164085051553293,
  "1409": 11934143957925491366,
  "1411": 5520597893901973935,
  "1412": 12128219293688687815,
  "1413": 12122695692393966010,
  "1417": 4698897465731252617,
  "1419": 9008462552481594795,
  "1421": 7468776083362265879,
  "1423": 6902679855736221892,
  "1425": 5475865282152435503,
  "1427": 14252670937417258013,
  "1429": 5732242118808679902,
  "1430": 7460511285370090744,
  "1431": 9321041854249963699,
  "1433": 897567302429088679,
  "1435": 16749050747745969887,
  "1437": 4807675981269934001,
  "1439": 8158304069995566170,
  "1441": 11668781852883400693,
  "1443": 303970892412909111,
  "1445": 14112021274664008493,
  "1447": 14098698679811106810,
  "1449": 5615303292541338439,
  "1451": 2113281783505345984,
  "1453": 11730723865494139393,
  "1455": 17419948786565711665,
  "1457": 1581999841700311796,
  "1459": 15365023205412715641,
  "1461": 9787031657352616604,
  "1463": 7986645281355228276,
  "1465": 615720626456138958,
  "1467": 15435549807981386127,
  "1469": 7902747026417111518,
  "1471": 1784290557710219353,
  "1473": 7248183074354472850,
  "1475": 17128664684496412995,
  "1477": 7402643004926722690,
  "1479": 6066370787674993020,
  "1512": 2304556399376958766,
  "1513": 15041218075531595875,
  "1514": 16441421791125172639,
  "1517": 2292094828872326357,
  "1519": 15541782345751776705,
  "1521": 12968695882893286842,
  "1523": 3367912002568708129,
  "1525": 14099562150268337369,
  "1527": 11821525801947189862,
  "1529": 4737746138814098950,
  "1531": 110061857280550240,
  "1533": 4903493499172189019,
  "1535": 13097463579615626747,
  "1537": 9562393175026437903,
  "1539": 15916006757875366824,
  "1541": 6515708636821297238,
  "1543": 2803217712720725941,
  "1545": 17849320201374854600,
  "1547": 12462571015873896360,
  "1549": 8634789387827977887,
  "1551": 5039280035839910372,
  "1553": 8040786414909571734,
  "1555": 8017314063664079812,
  "1557": 1375742763133984315,
  "1559": 16162796260095098377,
  "1561": 6032134513353859408,
  "1563": 5621532119449058501,
  "1565": 10587059433242790525,
  "1567": 8751310410133750132,
  "1569": 4300440174198311241,
  "1574": 6047256818227763640,
  "1577": 3393963072714635449,
  "1578": 16550004394194261145,
  "1581": 6789787126672014827,
  "1583": 17168411639187544113,
  "1585": 12494671915867250083,
  "1587": 3752852659481650801,
  "1589": 14909524759814484459,
  "1591": 3875004895839413495,
  "1592": 8627974170509427902,
  "1593": 10446561393796843767,
  "1595": 1150633410270010648,
  "1596": 3750487489131240482,
  "1597": 13492179256086232034,
  "1598": 13181228090702816383,
  "1599": 13391592162163382626,
  "1600": 7063518092781008619,
  "1601": 16695469749956711894,
  "1602": 14617348048167941827,
  "1603": 1498228096273559408,
  "1604": 12914252115026571892,
  "1605": 5104639578721985865,
  "1606": 2743016989411872668,
  "1607": 1377484185324935444,
  "1608": 2709403367906576817,
  "1609": 17971365854334893654,
  "1610": 2931541777863363765,
  "1624": 15572028102448367138,
  "1625": 14081599935887041241,
  "1626": 11207016998153856441,
  "1627": 6259158115724669039,
  "1628": 5297939480226377205,
  "1630": 14891183059552391349,
  "1631": 1167777833819655124,
  "1632": 12939326882605760484,
  "1638": 8176669490805647363,
  "1639": 13344080869566148371,
  "1640": 17136552900663507786,
  "1641": 10237890454486295688,
  "1642": 18397157872311488003,
  "1643": 11354972373212246934,
  "1644": 15889488614078688994,
  "1645": 14827794594130599724,
  "1646": 16700322817644982668,
  "1647": 17317159491361905669,
  "1648": 15910057067250326913,
  "1649": 10224940617476337328,
  "1650": 1192012821080305432,
  "1651": 17063814524948423043,
  "1652": 3466688611930131375,
  "1653": 1581009180382966622,
  "1654": 3644981864235542537,
  "1655": 4455764084033040090,
  "1656": 5529986190174804093,
  "1657": 18281989762012869397,
  "1658": 9856696381481753538,
  "1660": 15124585155270917218,
  "1661": 1166453145962273897,
  "1662": 9439845310998259308,
  "1663": 12155486179171549221,
  "1664": 10066210859218829554,
  "1665": 9717948303730789115,
  "1666": 4624934030389669788,
  "1667": 15922542156491818522,
  "1668": 12704622764731366762,
  "1669": 724897824568197855,
  "1670": 2777908853462277439,
  "1671": 18402636588662435451,
  "1672": 1648411399520368565,
  "1673": 8142124654077456122,
  "1674": 3605325090854217952,
  "1700": 13320226875040347150,
  "1702": 5285631925675716895,
  "1703": 5371781018678153886,
  "1704": 11923960068449487684,
  "1705": 7757663947156269504,
  "1706": 8364880379013078193,
  "1707": 5478389883934333693,
  "1708": 7624879105235767613,
  "1709": 5518920326416662511,
  "1710": 1094767680868509638,
  "1711": 2537715810006184110,
  "1712": 14716133383266976315,
  "1713": 211640622659551417,
  "1721": 13566580598530684346,
  "1722": 9021681445198642111,
  "1723": 15218066157637765876,
  "1724": 5616988622590673291,
  "1725": 9813062813240381583,
  "1726": 1860101063048951057,
  "1727": 12747076039861988427,
  "1728": 9923909608795491829,
  "1729": 1542665107891395520,
  "2000": 17615072281280632028,
  "20002": 14478730799113999108,
  "20003": 3951775938810890468,
  "2001": 234580178020724751,
  "20019": 9832879287105658585,
  "2002": 6315374674911264613,
  "20022": 3100423097214757345,
  "20023": 11042910489838238156,
  "20028": 1763312233615076606,
  "20029": 4027276662617405931,
  "2003": 17053663993557495328,
  "2003007": 12534972787840799839,
  "2003008": 4351569031344499981,
  "2003009": 12081652685849388993,
  "2003010": 11986249108595773335,
  "2003011": 576968747083055779,
  "2003012": 5936016560695276279,
  "2003020": 253282827753372088,
  "2003021": 3079006179058004285,
  "2003022": 9642908781372678255,
  "2003023": 8090334360052818255,
  "2003024": 11326435921586325816,
  "2003025": 12397903280758724204,
  "2003026": 17789089799903843000,
  "2003027": 8044419816199824452,
  "2003028": 5442840812597229990,
  "2003029": 10977105272917107181,
  "2003030": 1775557643005053997,
  "2003038": 10896819289271962869,
  "2003039": 3224440331535776576,
  "2003040": 16229128355007554543,
  "2003041": 11636404879660179038,
  "2003042": 12902764783562916891,
  "2003045": 8862306040589670599,
  "2003046": 6676791730976166753,
  "2003047": 934865106964726405,
  "2003048": 2810390676168592278,
  "2003049": 13686260101418016039,
  "2003050": 16168334097088760933,
  "2003053": 4985501870862404919,
  "2003054": 8159532325428831737,
  "2003055": 16662064015004443711,
  "2003056": 17734463590154007304,
  "2003057": 7946385470768709798,
  "2003058": 9280476441904824285,
  "20033": 9525834310548625484,
  "20036": 6401178457286465743,
  "20037": 12775647110411831747,
  "20039": 7683189715901276714,
  "2004": 17381507518513734252,
  "20040": 13214523236881496172,
  "20041": 14929482784542383919,
  "20042": 10867471020757440278,
  "20044": 7903288951844801926,
  "20045": 13472053120455330000,
  "20048": 5538386798478099484,
  "20049": 13211445423094763577,
  "2005": 6788384091681147783,
  "20050": 8111175790664288078,
  "20051": 17210958111287712078,
  "20052": 8971512413794752288,
  "20053": 3269409678138520145,
  "20054": 8438112316248799738,
  "20055": 10967446971640349785,
  "20056": 10476087080063847983,
  "20057": 12517686288178068425,
  "20058": 11124393836096790226,
  "20059": 9661146137470058068,
  "2006": 11722666175495196092,
  "20060": 4193469528744878928,
  "20061": 16070403844564012763,
  "20062": 3200717480222931700,
  "20063": 14024792094219673637,
  "20064": 3840153109321958683,
  "20065": 17215129098801842736,
  "20066": 18346062734804165517,
  "20067": 11585160148376526020,
  "20068": 4943481233671246495,
  "20069": 4941105003062855070,
  "2007": 14789385303330086233,
  "20073": 547789236752948344,
  "20076": 11218104266962625325,
  "20077": 13458424130914008025,
  "2008": 16385777312917879533,
  "20080": 7091828894194654406,
  "20083": 9308054822216726993,
  "20084": 751764300624590224,
  "20089": 598750118246105026,
  "2009": 13881134793385162789,
  "20090": 8936130872994226313,
  "20091": 2422880577626604035,
  "20092": 7840782149607682417,
  "20093": 16332362782680792816,
  "20094": 10133930063850072255,
  "20095": 5700642568290408260,
  "20096": 13312795607241251022,
  "20097": 5037983920236049279,
  "20098": 11511427165999135148,
  "20099": 18346119089916132809,
  "2010": 7657158545987712678,
  "20104": 3298916471029308638,
  "20105": 13787011486421238298,
  "20106": 16874262026678224132,
  "20107": 919116759978284082,
  "2011": 17631067648472442453,
  "20114": 16503370671011491972,
  "20115": 9242355838670785347,
  "20116": 12677054238293298363,
  "20117": 6379736376163470102,
  "20118": 11465087107934954724,
  "20119": 220469605884803483,
  "2012": 16937124816111911245,
  "20120": 4152439551180618275,
  "20121": 3811589230679654169,
  "20122": 16157777532799878946,
  "20123": 17830971758237514265,
  "20124": 15217227650264718251,
  "20125": 2092809574432324739,
  "20126": 4317951180706000417,
  "20127": 14253647848781331142,
  "20128": 4700968173321287381,
  "20129": 9526781428242931386,
  "2013": 12065720657069300781,
  "20135": 13933733897577236185,
  "20137": 11957452471151903958,
  "20139": 6030051905971518740,
  "2014": 15297283099226969262,
  "20142": 14130355857003425048,
  "20143": 7866752853081926653,
  "20144": 17786531592414352902,
  "20145": 9526997665507106762,
  "20146": 5154473863786799546,
  "20147": 3256711288942490045,
  "20148": 13560988608999155045,
  "20149": 3775910421832521747,
  "2015": 8671447724212126127,
  "20150": 3048461615452561795,
  "20151": 13559338370205975906,
  "20152": 11198419436947109726,
  "20153": 10625276405683459689,
  "20154": 17243396776384839055,
  "20155": 11532508598933192668,
  "20156": 5584362312944248328,
  "20157": 3638552345160003643,
  "20158": 15010971727873026010,
  "20159": 4213197596557205919,
  "2016": 6017355268616300416,
  "20160": 12094322197666939076,
  "20161": 4862486036461872261,
  "20162": 217196693378317907,
  "20163": 7708969023206748770,
  "20164": 12276975984507105968,
  "20165": 14459116982088274194,
  "20166": 4261628846363900950,
  "20167": 2871369995011407713,
  "20168": 13785039926727377833,
  "20169": 1836700605625276111,
  "2017": 18140978896081513106,
  "20170": 13419679317362499540,
  "20171": 15034851766295092016,
  "20172": 13408071252226320117,
  "20173": 8067111681273343494,
  "20174": 17174841450762624605,
  "20175": 10388539337518769454,
  "20176": 2242238009238145243,
  "20177": 16098295119264724241,
  "20178": 6461823138833875872,
  "2018": 10308322078676578381,
  "20184": 3448844657463414575,
  "20185": 5096434389164880531,
  "20186": 2865194194171119294,
  "20187": 6722801907242999366,
  "20188": 15652771234091472016,
  "20189": 10237654641900523667,
  "20190": 10282944038088301516,
  "20191": 7875511736300312372,
  "20194": 18339817419866063017,
  "20195": 15127525709728707929,
  "20197": 17216108629790602695,
  "20198": 449529340573865151,
  "20199": 7645393227254314738,
  "2020": 9577128575666906405,
  "20200": 14289557955030486152,
  "20201": 10363328299389975680,
  "20202": 16231354606389342476,
  "20203": 15046960085566051524,
  "20204": 18240821717573666696,
  "20205": 9169860340403872626,
  "20206": 11778553801488653572,
  "20207": 17958640996616308100,
  "20208": 4097880499660225783,
  "20209": 7854455196016484755,
  "2021": 144855445467595917,
  "20210": 5483830894220245896,
  "20211": 8633155467736782055,
  "20218": 5316369484134291941,
  "2022": 8552837636344931536,
  "20220": 1739661832056482559,
  "20221": 11986501233201843771,
  "2023": 3581631126459243537,
  "20238": 18439424306478194550,
  "20240": 15608302284551461518,
  "20248": 4589995839234719747,
  "2025": 7870446058893019866,
  "2026": 537647757572770806,
  "20268": 6940288571181576171,
  "2027": 13880831623371146020,
  "20270": 6538547208296612443,
  "2028": 11208469849163603735,
  "20284": 12544547854217187021,
  "2029": 5414844623501031944,
  "20291": 2780366930008093754,
  "2030": 3358549911589460632,
  "20302": 9182353961657456281,
  "2031": 10901290392230261549,
  "20311": 12061529199844657230,
  "20312": 9417492077168676018,
  "20313": 5100435356965898735,
  "20314": 16211519467833148684,
  "20318": 10598657048926498187,
  "20319": 11354267249392580030,
  "2032": 3172577066801382624,
  "20321": 14773004715332570340,
  "2033": 18358267487110346726,
  "2034": 17353635702763410954,
  "2035": 1019171962545863013,
  "2036": 11841771633543726423,
  "2037": 9954630004314389191,
  "20377": 5652331683650723770,
  "2038": 11283987263738712334,
  "20389": 18333619701714624912,
  "2039": 1814743479535413163,
  "20391": 12089794388813843650,
  "20392": 2563981262140931714,
  "20393": 14285989098483646275,
  "20394": 6670608338205329119,
  "2040": 6788366933955364984,
  "20400": 9799870847379204340,
  "20401": 3006874878003551569,
  "20402": 16348913996154973290,
  "20403": 7874798365342449097,
  "20404": 16276916641045935662,
  "20405": 11866014106629384381,
  "20406": 6679172652056052599,
  "20407": 12200320823586853747,
  "20408": 3128525488303214508,
  "20409": 4836915530557728815,
  "2041": 9614683856591081636,
  "20410": 5480857627572369474,
  "20411": 1823982880706578626,
  "20412": 15174013730620032396,
  "20413": 13534349756989238303,
  "20414": 8133391224154691623,
  "20415": 6159971207685914677,
  "20419": 17563903509119360579,
  "2042": 4781263143450017594,
  "20420": 10254042269678043703,
  "20421": 7870512570592450054,
  "20422": 9559641210656879087,
  "2043": 13295643127378984779,
  "20432": 11812291643225842604,
  "20433": 8764299101346724787,
  "20435": 1504961108817931879,
  "20436": 6071300983574296142,
  "20438": 5306720197993320463,
  "20439": 497459205860767952,
  "2044": 13944379532645836648,
  "20440": 9011862491152714887,
  "20441": 11273493070407184410,
  "20442": 15479861776245863199,
  "20443": 2653307715154217247,
  "2045": 5344395122948958947,
  "20456": 12434141080907152087,
  "2046": 17401574978762487863,
  "2047": 14596924543316026358,
  "20476": 5614078692485343385,
  "20477": 15791723580770517531,
  "20478": 14476979820828283662,
  "20479": 16590587203871825705,
  "2048": 7354166918175130581,
  "20481": 14934563072702438055,
  "2049": 1032110790047909875,
  "20490": 1966053339611196153,
  "20491": 2430056488329878124,
  "20492": 17150450147165846559,
  "20497": 9263700443541185648,
  "20498": 7420048270975516453,
  "20499": 16466933250085010551,
  "2050": 8286042155522630304,
  "20500": 1429591401064556650,
  "20501": 10055516982877252683,
  "20502": 13160415788678455420,
  "20503": 3228257369120792095,
  "20504": 12497567888607388230,
  "20505": 2570487902584530727,
  "20506": 17080360738213394459,
  "20507": 5709497605190013892,
  "2051": 10859251101611358151,
  "20512": 6944888920247329261,
  "2052": 5346824311029758630,
  "20523": 4785141930881129821,
  "20528": 1767793951277309878,
  "2053": 3419494484622266000,
  "20535": 17391880643045203906,
  "20536": 15547270903415648842,
  "20539": 12230250646681505432,
  "2054": 8167168086465697852,
  "20540": 14831825630357439227,
  "20541": 15821716411009106564,
  "20545": 846137368088710576,
  "20549": 6097005921179529130,
  "2055": 16557467447640326121,
  "20550": 7653920683067490473,
  "20551": 7090795272396009045,
  "20558": 7552408058613461185,
  "2056": 12721691331868638838,
  "20562": 17462675070934123841,
  "20568": 8183883584244456518,
  "2057": 15616959142342621248,
  "20576": 11287859461336948201,
  "20577": 11375352948948775640,
  "20578": 2959550836337718856,
  "2058": 12001560121280490932,
  "20581": 7115352840865372852,
  "20582": 1566166092543277259,
  "20583": 2041942601370680413,
  "20584": 7315326766169557894,
  "20585": 1643840290006547585,
  "20586": 1944854970331645678,
  "2059": 16662540940998344567,
  "2060": 12046711862324091020,
  "2061": 17485106036399687630,
  "20614": 10421270636028755886,
  "2062": 14569529230776595969,
  "20620": 2864331531425638142,
  "20621": 10797350121484137119,
  "20622": 11278806810955267030,
  "20623": 11000002194136818760,
  "20629": 17232642915498433714,
  "2063": 4354367508005756158,
  "20630": 3520276239707797854,
  "20631": 2363731123346542512,
  "2064": 3653093655346683176,
  "20640": 7610357993388596723,
  "20641": 8657069527598499057,
  "2065": 16790579276428101557,
  "20658": 9758775647699708054,
  "2066": 4176652570552878628,
  "2067": 10055272545715415420,
  "2068": 6732003308219866105,
  "2069": 932986440432499980,
  "2070": 10556527063199558894,
  "2071": 12212075618923612043,
  "2072": 17262318312556155382,
  "2073": 11468774905123854852,
  "2074": 2854454145635998754,
  "2076": 7965815308466991873,
  "20765": 1668438485197365168,
  "20766": 3806083738968058753,
  "20768": 7333522419170929885,
  "20769": 7371516127146871480,
  "2077": 8326892222591454183,
  "20770": 8949371236360430815,
  "2078": 6221431247917409293,
  "2079": 16309673954668803323,
  "2080": 14617381689454969852,
  "2081": 8070005853542114016,
  "2082": 15912829038098889329,
  "20826": 8763409825690289002,
  "20827": 6496616958655878736,
  "20828": 15190917596442615964,
  "2083": 11373186955059165571,
  "2084": 16323167774813869081,
  "2085": 6743716455816177842,
  "20853": 15289034079077833914,
  "20854": 8417596331758140652,
  "20855": 419294683261980526,
  "2086": 3953543576954586033,
  "20867": 18383514230776130328,
  "20868": 4970740756280261393,
  "20869": 239767274519929928,
  "2087": 16201439491724138163,
  "20870": 11785662468006563120,
  "20871": 7980590336718412610,
  "20872": 15971269117703865551,
  "20873": 15292932857555707459,
  "20874": 5314635026079890892,
  "20875": 3292873594704429984,
  "20876": 11119920060284030116,
  "20877": 12151438872266552658,
  "20878": 18416450683597195000,
  "20879": 5560417083670225157,
  "20880": 751937169979875928,
  "20881": 1490014897501389256,
  "20883": 16261482418686320075,
  "20894": 18245398377656226753,
  "20895": 9408728168319943122,
  "20896": 17734979399861483413,
  "20897": 15917651985665392114,
  "20898": 15380674773978488059,
  "20899": 12290855722860173982,
  "2090": 8640160473520560069,
  "20900": 17606464108479502680,
  "20901": 2006703895988752385,
  "2091": 14397494968927254257,
  "2092": 9756071211596273347,
  "20927": 1003095776599716559,
  "2093": 8602699715046048051,
  "2094": 1880441487829758070,
  "20941": 2146388697870592720,
  "20942": 528420481549382182,
  "20943": 3503654974189877343,
  "20944": 16410367906526299322,
  "2095": 9880155703866017667,
  "2096": 6221075495453093269,
  "2097": 2960441639506074455,
  "20971": 16129959812219628491,
  "2098": 9600959598751959971,
  "20987": 8048925381693995700,
  "2099": 17687302009786544301,
  "2100": 8026299013383905634,
  "2101": 10922926702391895060,
  "2102": 12205606604661806423,
  "2103": 11992114935874563642,
  "21033": 12598449834505490797,
  "2104": 4742161612598949941,
  "2105": 6921542287843929390,
  "2106": 17775920838017699859,
  "2107": 9901959724982891313,
  "2108": 6932346143502194394,
  "21086": 14507187153796624232,
  "2109": 3887654710763800072,
  "2110": 12759214867685346283,
  "21103": 11749869524749909166,
  "2111": 15053022998670846249,
  "21112": 5866597170328684577,
  "2112": 3536230774841032393,
  "21123": 9398475083289793260,
  "21128": 8097993017661689030,
  "21129": 2773993767417820008,
  "2113": 5310671104536084008,
  "21134": 1208089538449676069,
  "21137": 18378795445332485897,
  "21138": 12818363928565956449,
  "2114": 8739872678515186757,
  "21147": 16542750541062045313,
  "21148": 2811848347270368656,
  "21149": 1153805504703655067,
  "2115": 13166724987392889899,
  "21150": 8753104780490116705,
  "21151": 8338370704297930336,
  "21152": 5430431773966142247,
  "21153": 17496346693171952456,
  "21154": 10973961101164885741,
  "21155": 4789491955023752434,
  "21156": 9631795646001613978,
  "2116": 14817738639722429722,
  "2117": 2942834844917410292,
  "21179": 11102097013842122826,
  "2118": 4305304843419946346,
  "21180": 8422623558700807049,
  "21181": 18426344426991008671,
  "21188": 9733457903530112544,
  "2119": 14787568577163494352,
  "21190": 9045025857540037342,
  "21191": 12927335538403517759,
  "2120": 11306794001452584758,
  "2121": 12117094327270323245,
  "2122": 9757918759959616226,
  "21228": 1638979682749826792,
  "21229": 1577027560375897405,
  "2123": 10866359204722899576,
  "21230": 15629126851799826622,
  "21235": 10674967932228748318,
  "2124": 9485738450686527951,
  "2125": 14183889233123688370,
  "21253": 10383313223347070433,
  "2126": 14313299637325563366,
  "21268": 10418677655582420185,
  "2127": 4181430532518249209,
  "2128": 5586679678042453993,
  "2129": 9500122197178648206,
  "21293": 8469706790673593845,
  "2130": 15585555953103884678,
  "21309": 6140962938373205407,
  "2131": 4941119978176331935,
  "21310": 195922577299905194,
  "21311": 11552119880692194796,
  "2132": 17057589253224437754,
  "2133": 14000393419168148041,
  "2134": 15732388112363731282,
  "2135": 6041525045299684305,
  "2136": 1590454414503795991,
  "2137": 18047385953464410000,
  "21372": 921668279061010878,
  "21373": 14728910439379641014,
  "21374": 6898947898921998925,
  "21375": 3023702869685964786,
  "21376": 2319846200077708721,
  "21377": 17462314011512712039,
  "21378": 6087158584318824505,
  "21379": 16687874450311345278,
  "2138": 5349856714706937193,
  "21380": 15176473663554978058,
  "21381": 6624336073147871249,
  "21382": 1142157865370585510,
  "21383": 14957941762426633713,
  "21384": 8153827543098708348,
  "21385": 11295276355039262362,
  "21386": 13897612178305703372,
  "21387": 5646470569721588001,
  "21388": 11375184737878478139,
  "21389": 16547510684624077442,
  "2139": 3292127054381455275,
  "21390": 12390109707213513810,
  "21391": 13755285558681619999,
  "21392": 18093041284292662845,
  "2140": 1236726451725103151,
  "2141": 14727990108843078911,
  "2142": 5547898361358626787,
  "2143": 10636644187633243678,
  "2144": 3381857854222669086,
  "2145": 9312376272188678204,
  "2146": 711013040609742696,
  "2147": 7089415150933677727,
  "2148": 16589918131751890583,
  "2149": 15896441364989382025,
  "2151": 15167252872721021635,
  "2152": 1843457377564134999,
  "2153": 1762549603635189933,
  "2154": 9063578957108098445,
  "2155": 6395278491497165950,
  "2156": 17843483562245490463,
  "2157": 10600785696878134315,
  "2158": 213919700221637521,
  "2159": 8376511761595428518,
  "2161": 3985968289041897468,
  "2162": 2432758853268734396,
  "2163": 6680441781832010809,
  "2164": 13485330723987163878,
  "2165": 9349933280996629948,
  "2166": 18150076056441076047,
  "2167": 10390188450116617370,
  "2168": 16798659683601369350,
  "2169": 4737918374301673242,
  "2170": 6354437129342772356,
  "2171": 16540666296564796592,
  "2172": 3360145908009752008,
  "2173": 9475729227146357184,
  "2174": 15072902915252799234,
  "2175": 1871263362824149476,
  "2176": 11469060856790254089,
  "2177": 14031038943292542025,
  "2178": 16655933039868144971,
  "2179": 1185002151341513465,
  "2180": 8431609016948105500,
  "2181": 11106397187644216394,
  "2182": 10067235017865811979,
  "2183": 8940535917161534628,
  "2184": 6605666492290738425,
  "2185": 12367816148493490380,
  "2186": 115242337469448395,
  "2187": 658165711039609438,
  "2188": 15846916049384164406,
  "2189": 2036538936330282651,
  "2190": 4831652171302521952,
  "2191": 3374311161993470860,
  "2192": 5833990824263717125,
  "2193": 8931152967668464010,
  "2194": 3227566076504567099,
  "2195": 6167664332089627168,
  "2198": 2150153270031110803,
  "2199": 1048137846185608063,
  "22": 3683456787386338860,
  "2200": 4228846122799915042,
  "2201": 11037432461895249621,
  "2202": 6120934768070512934,
  "2203": 15684817697991562165,
  "2204": 7967885604712591609,
  "2205": 13446715319416868625,
  "2206": 16311195642365842945,
  "2207": 15753897619557177263,
  "2208": 5619620283401569962,
  "2209": 281271885115810775,
  "2210": 17546010276290505698,
  "2211": 10577806569289963787,
  "2214": 10051370758804381374,
  "2215": 8873799924694765916,
  "2216": 1763325503398290212,
  "2217": 809688296106484699,
  "2218": 17902760607237813585,
  "2219": 7744279955006022734,
  "2220": 14345575152845212874,
  "2221": 2780812637475360249,
  "2222": 15823676473224336233,
  "2223": 17984361573675944092,
  "2224": 11326384382208955018,
  "2225": 1284561751431187471,
  "2226": 7108059878244953268,
  "2227": 4035684750295403552,
  "2230": 13948753821394272614,
  "2231": 13007389090657859451,
  "2232": 14878766376948706236,
  "2236": 11983390652810205087,
  "2237": 1742425675989162460,
  "2239": 14010010558774250135,
  "2242": 18173963169498965269,
  "2243": 17097851513812458666,
  "2244": 14347028100939973228,
  "2245": 328662360840565791,
  "2247": 4990392161841940983,
  "2248": 13247082923783189252,
  "2249": 6068841747420014316,
  "2250": 8581954512671507556,
  "2251": 607611239314413872,
  "2252": 17551613023387831479,
  "2253": 16350755337605927409,
  "2255": 7501891434770097653,
  "2256": 296697151990043143,
  "2257": 6212155635014537940,
  "2258": 10693426880055393185,
  "2259": 12520441776671776127,
  "2260": 8631802344987615062,
  "2261": 5976115038450821224,
  "2262": 1439184200047928735,
  "2263": 1484479181242230711,
  "2264": 14371135945013091550,
  "2265": 14612543556242316972,
  "2269": 8646683964966123618,
  "2270": 6335544561381943510,
  "2275": 4463723355351699460,
  "2276": 7981690239878522338,
  "2284": 14383509800681377559,
  "2285": 12925788131108906783,
  "2286": 14572658349855475058,
  "2289": 14382612265672682860,
  "2297": 4558644459683649620,
  "2299": 17872519470310960918,
  "23": 17203358327907298082,
  "2300": 11355486036918411560,
  "2301": 4686610825990197912,
  "2302": 4960210866703519843,
  "2303": 12156498104354580300,
  "230301": 10190936973612699204,
  "2304": 17611371331393384549,
  "230401": 15923763734563443014,
  "2305": 6997881445125317,
  "2306": 959054317188042636,
  "2307": 12891288404509520599,
  "2308": 12052053969754474165,
  "230801": 14368442915791434731,
  "2309": 17789777912781785010,
  "230901": 4924600942917668984,
  "2310": 17075807008894591016,
  "2311": 10240458672786999212,
  "2315": 12785244307575132783,
  "2316": 9403042951505217955,
  "2319": 15949570151443318506,
  "2321": 16305645580581685543,
  "2323": 1484078654900989723,
  "2326": 4333929190236142402,
  "2327": 8165436774308152070,
  "2328": 5390556305990496438,
  "2329": 2390455196035987795,
  "2330": 4028870760000855166,
  "2331": 11529753208053243293,
  "2332": 8294869698655032733,
  "2333": 16621290088402789772,
  "2334": 7729221947495043213,
  "2335": 11217696136867341758,
  "2336": 10232097335342455814,
  "24": 11388587762695093809,
  "2400": 7162291378165575998,
  "2401": 5059231148077690762,
  "2402": 10969479957026747828,
  "2403": 4173712378215235944,
  "2404": 6677472450459478247,
  "2405": 7707977619379100283,
  "2406": 5461359333378451521,
  "2407": 10744855860668899557,
  "2408": 13549772878155486552,
  "2409": 4348552661593146224,
  "2410": 15920093927144805306,
  "2411": 9095963952486810510,
  "2415": 6463311744561456535,
  "2416": 1773507284179237813,
  "2417": 9605999239192741228,
  "2418": 670374635303006207,
  "2419": 11141639300652541550,
  "2420": 5360535382988750229,
  "2421": 16388407949004015557,
  "2422": 15578260499902623114,
  "2423": 13939305326558380294,
  "2424": 13851315733001020748,
  "2425": 6835116373868302662,
  "2426": 14323950848591013298,
  "2427": 13239784874273279064,
  "2428": 3500557607556363106,
  "2429": 2461199370333970732,
  "2430": 11177551963970869453,
  "2431": 6549909483237133872,
  "2432": 13997219992999651170,
  "2433": 18393084662264567353,
  "2434": 4147011296898903087,
  "2435": 12326699009304985818,
  "2436": 3845461014242194539,
  "2437": 1566709407250096103,
  "2438": 12302611388219439328,
  "2439": 14077858927479448726,
  "2440": 17271701705581526064,
  "2441": 17917248021915257381,
  "2442": 2349757697626741975,
  "2443": 3616052577859992433,
  "2444": 11250098103679700551,
  "2445": 1484002145199984446,
  "2446": 14927001594436963166,
  "2447": 6915096282834857205,
  "2448": 4778508482980506072,
  "2449": 2967097293109416754,
  "2450": 10460473827594651533,
  "2451": 6852331019269757741,
  "2452": 15897935257864044929,
  "2453": 6491745146289313765,
  "2454": 4448069709512276223,
  "2456": 9149919496567284185,
  "2457": 11392254442466568213,
  "2458": 15894057652346320976,
  "2459": 8190171582482464019,
  "2460": 8200070772553524449,
  "2461": 17874623490813751343,
  "2470": 14035448709723052744,
  "2471": 2331640596135062006,
  "2472": 13923962812553793620,
  "2473": 347671171611640979,
  "2474": 16063684513468121330,
  "2475": 10393522171057809535,
  "2476": 12180005629866129886,
  "2477": 5238197090393003049,
  "2478": 6684460280705008635,
  "2479": 13383101139211211544,
  "2480": 17327273497924588531,
  "2481": 15897695996295463493,
  "2482": 17465995809035362417,
  "2483": 15894334485487491362,
  "2484": 12733790824722211076,
  "2485": 2455240224649678538,
  "2486": 12479306082894472451,
  "2487": 12491875982069318975,
  "2488": 8743078523437798971,
  "2489": 6729085987390366413,
  "2490": 18137134806067356782,
  "2491": 10776722335198782352,
  "2492": 8525577669662177871,
  "2493": 18251339982922371593,
  "2494": 15088433525228482026,
  "2495": 5184421359596081230,
  "2496": 18130235963137434714,
  "2498": 6597505481176855858,
  "25": 2598461018197736881,
  "2500": 18043504507055625416,
  "2501": 2556289438966492752,
  "2502": 3975671917460598107,
  "2503": 12549538193998214848,
  "2504": 9880066659033159792,
  "2505": 3331077657853687812,
  "2506": 2496239481087741553,
  "2507": 10278756263361819141,
  "2508": 10924462892089582097,
  "2510": 6481982197164199683,
  "2511": 7604159675031463162,
  "2512": 7762713534819527870,
  "2513": 16820464411250922099,
  "2514": 1831813660335432544,
  "2515": 1867355492741845059,
  "2516": 7532162338389743712,
  "2517": 3299508480797349230,
  "2518": 5259865032939755507,
  "2519": 3616749906314464839,
  "2520": 10266959622202457069,
  "2521": 15456499275806721415,
  "2522": 15903519436556105808,
  "2523": 18351829649268637849,
  "2524": 15359513971226902700,
  "2525": 5605235176892098104,
  "2526": 5856690700964034258,
  "26": 4317801164639513269,
  "2615": 14037949353325368671,
  "2616": 3457814215105652751,
  "2617": 464089532694409222,
  "2618": 14247946423342999110,
  "30": 6303189113336827539,
  "30000": 15930864929994675885,
  "3001": 2866992807981868198,
  "30015": 8867538844548304515,
  "3002": 8437727108920469412,
  "3003": 4387362372045019063,
  "30038": 4776131710389526972,
  "3004": 14079251426578331713,
  "30044": 9966440833419221024,
  "30046": 3973884020736501939,
  "30048": 12680278694438847267,
  "30049": 8764711007747515174,
  "3005": 14566117805839149761,
  "30050": 1956796520097800555,
  "30051": 4989938189485107571,
  "30052": 3866286854335412344,
  "30056": 2700871763477342505,
  "30057": 12275991343428909366,
  "30058": 11679369463785140674,
  "30059": 12720999559408656205,
  "3006": 4337581893780473909,
  "30060": 15925133268650187329,
  "30061": 11112866109165241445,
  "30062": 2965482423432093310,
  "30063": 11814751384763326998,
  "30064": 3002282498482199663,
  "30065": 9821301097503773837,
  "30066": 11726879927217914011,
  "30068": 15894642414770329648,
  "30069": 17617551389702881577,
  "3007": 6050915910055444486,
  "30070": 14097628063296951812,
  "30071": 11545485308567536244,
  "30072": 1103150127518833971,
  "30073": 1404431976104736922,
  "30074": 2706794584007992885,
  "30075": 5977973340692084210,
  "3008": 3061287258666871015,
  "30083": 18112191617853434708,
  "30084": 5508821099579347736,
  "30085": 9467895582047080127,
  "3009": 6334757236668329371,
  "30090": 5178236721837592489,
  "3010": 3768672766861383256,
  "30104": 2647252928344427498,
  "30108": 6430842663560382690,
  "3011": 13934023100455133824,
  "30112": 13792185503412087057,
  "30114": 8871004487913171057,
  "30118": 9276085273272786205,
  "3012": 1089806627063948379,
  "30120": 16941959678569371059,
  "30121": 13425350259367205718,
  "30122": 17430318813209649839,
  "30123": 12067547707753361885,
  "30124": 8208736838678521745,
  "30125": 11466388378852414075,
  "30126": 18252063203361324151,
  "30127": 12155059667230581738,
  "30129": 111357116524795414,
  "3013": 1367693229515329118,
  "30130": 6568159676704094848,
  "30131": 14437558024663266546,
  "30132": 7167763565681993142,
  "30133": 7899262788132780522,
  "30139": 8402371275822377213,
  "3014": 10008147092911508424,
  "3015": 14337860290836700695,
  "30152": 2521851476306146834,
  "30153": 5076152798951317243,
  "30158": 8960177653688877535,
  "3016": 12798270671456056789,
  "30162": 1446651472516143876,
  "30163": 7129517379038602659,
  "30164": 16714445190134019733,
  "30165": 15644907901355433140,
  "30166": 14438660740658092160,
  "30167": 18224718388911999760,
  "30168": 16073735790414738635,
  "30169": 5475730511676140895,
  "3017": 10681049312560966459,
  "30170": 18377564320491466986,
  "30171": 14120175600787287896,
  "30172": 15479173035444006423,
  "30173": 6539178832232269711,
  "30174": 2680251865832805608,
  "30176": 5866709727625074843,
  "30177": 16919282088815089109,
  "30178": 9952178672802321286,
  "30179": 18073069667725078060,
  "3018": 1856230352762219692,
  "30180": 16786895822708582075,
  "30185": 12222352248513457631,
  "30187": 6448293336473730718,
  "30188": 12387422624340262997,
  "30189": 17972734060847101605,
  "3019": 13055727846805034051,
  "30190": 16063905571736811001,
  "30191": 16705036213903357112,
  "3020": 5298566532213564792,
  "3021": 2207597839526417938,
  "30211": 17631334280120419860,
  "30212": 9807173704907191027,
  "30213": 8530406621564629708,
  "3022": 2399099193100976328,
  "30222": 10703168442896501167,
  "30223": 9952732654812291807,
  "30224": 16695744347404646541,
  "30225": 13295664350529338259,
  "30226": 9695291866602157741,
  "3023": 9876634001185113418,
  "3024": 11689144766501369305,
  "30245": 1205769512360189176,
  "30246": 9841792832751002126,
  "30247": 18019906679855114398,
  "30248": 1132771405487318955,
  "30249": 17165328267649773596,
  "3025": 2127614548592252631,
  "30252": 4524130464234827957,
  "30253": 312255699301199628,
  "30254": 16499988565069303301,
  "30255": 4701422199611410573,
  "30256": 768168348329929936,
  "30257": 1114700954581943442,
  "30258": 11798542769765111094,
  "3026": 14292200135329945333,
  "30268": 5221367657115024439,
  "3027": 10637595899009306352,
  "30276": 8808981678157892134,
  "3028": 16346453239367863255,
  "3029": 5298679890407006140,
  "30292": 14062071256292888791,
  "3030": 8880690929051758026,
  "30309": 39918927126808766,
  "3031": 13346101175970219657,
  "3032": 6588512302123602690,
  "3033": 4237178823140309526,
  "3034": 3348804578725347077,
  "3035": 16676211764254890660,
  "3036": 18154262155135163406,
  "3037": 2602711465603515159,
  "3038": 3630578112326242794,
  "3039": 8515978276474815709,
  "3040": 6079633248640660383,
  "3041": 13140145482057679283,
  "3042": 4171392628547823262,
  "3043": 6344317430065704603,
  "3044": 2090561570315290576,
  "3045": 1325872940278217699,
  "30458": 10570718809533860041,
  "30459": 8879912237110226095,
  "3046": 6006928297070939198,
  "3047": 13720525919094436707,
  "3048": 7488940497342597214,
  "3049": 7297244346928414246,
  "3050": 10787887231976839798,
  "3051": 16550018404848104014,
  "3052": 7289656751691123486,
  "3054": 15939292827612126450,
  "30544": 15395811273036596355,
  "3055": 5096676722553434812,
  "3056": 4693383746706989231,
  "3057": 16120211587294968665,
  "3058": 2645397580355742079,
  "3059": 14173616185257841031,
  "3060": 15445636888600486572,
  "3061": 6299673402707318916,
  "3062": 10362104186706375019,
  "3063": 1242103774794090283,
  "3064": 1699177238277827103,
  "3065": 10704497736527916617,
  "3066": 15197850924318621599,
  "3067": 9804207763288494744,
  "3068": 14673169660160628422,
  "3069": 15940001842900627380,
  "3070": 1852899234206530277,
  "3071": 18237179871803961585,
  "3072": 14594169403575802690,
  "3073": 14398946236271246562,
  "3074": 2345740437216503576,
  "3075": 15957888476314252932,
  "3076": 1063712475614624583,
  "3077": 14758169368649860139,
  "3078": 11476495281683385214,
  "3079": 4567258498126920112,
  "3080": 17670822034743517259,
  "3081": 9765150381263452615,
  "3082": 892063083958702775,
  "3083": 9758843147312816770,
  "3084": 12693380136816762724,
  "3086": 8758362179943555207,
  "3087": 3582509464507634858,
  "3088": 1517597299739571916,
  "3089": 2738621113455052893,
  "3090": 13617144494978112431,
  "3091": 2462616958542108698,
  "3092": 8395013855179708802,
  "3093": 13652466175048689034,
  "3094": 15086755404243855131,
  "3095": 668548030378893085,
  "3096": 4726729385054978333,
  "3097": 18201639909575617658,
  "3098": 6455897870379869927,
  "3099": 3715296092193952787,
  "31": 11540753072981161226,
  "3100": 14614784643577122427,
  "3101": 11614985707597732727,
  "3102": 15553676346551364005,
  "3103": 8164591452058196536,
  "3104": 13133876216367909351,
  "3105": 1525770097541251764,
  "3106": 8578114314199416970,
  "3107": 15661342339392359664,
  "3108": 2356568795340863179,
  "3109": 4925119275395096415,
  "3110": 1058760197839311846,
  "3111": 2843827845823276427,
  "3112": 16157164408775245447,
  "3113": 14441412822356876899,
  "3114": 1610019482519404933,
  "3115": 10206038096940998699,
  "3116": 16746303605969666353,
  "3117": 7320085341559721664,
  "3118": 3728245443584516928,
  "3119": 1491249603519637025,
  "3120": 9638252154618780554,
  "3121": 156463203429130772,
  "3122": 3437167893848810453,
  "3123": 4210946254374103483,
  "3124": 15462328943347800545,
  "3125": 2165390093980344182,
  "3126": 9235135993666091810,
  "3127": 14725847697868926781,
  "3128": 4059077339662406145,
  "3129": 3808009550552714867,
  "3130": 5674331110309004479,
  "3131": 15590242932228288462,
  "3132": 9539066414701903125,
  "3133": 9279400358777647036,
  "3134": 7271950623955615337,
  "3135": 9184954863197785345,
  "3136": 12678469048659800428,
  "3137": 13770928308861069918,
  "3138": 18120952570337401929,
  "3139": 13203719533935245642,
  "3140": 4762605151959984248,
  "3141": 4710204894870108252,
  "3142": 3416759591333060944,
  "3143": 24011211523250586,
  "3144": 15698284702152159196,
  "3145": 3234943646886246931,
  "3146": 18140880740777459903,
  "3147": 7182901870097194514,
  "3148": 2043813239436617294,
  "3149": 12515024458518152740,
  "3150": 7679399191517482773,
  "3151": 2340416010532913534,
  "3152": 18358915129140142799,
  "3153": 14827013999352321439,
  "3154": 16029053396662237273,
  "3155": 8557756030753756311,
  "3156": 1943379661334755534,
  "3157": 6089600351449556561,
  "3158": 12343615707012791421,
  "3159": 15908565788904842345,
  "3162": 6291163086747000351,
  "3163": 12511979076107851928,
  "3164": 13175449002888981055,
  "3165": 18415736109830322379,
  "3167": 10244908583706107204,
  "3168": 11094652073726722979,
  "3169": 1842845848872502063,
  "3170": 13828016151691497828,
  "3171": 13910590130505517218,
  "3172": 459578471398245367,
  "3173": 2832820070811459332,
  "3175": 10012683717779381638,
  "3176": 10631572629614930374,
  "3177": 8549954375232524779,
  "3178": 13341163983943072770,
  "3179": 15939338155199521244,
  "3180": 490484978759698675,
  "3181": 13062324040742897010,
  "3182": 11833243010672595205,
  "3185": 15737060959949873265,
  "3186": 4833551234716789090,
  "3187": 13935102900219763086,
  "3189": 1937707597107887437,
  "3190": 11073709713038669004,
  "3191": 8019454682190079713,
  "3193": 13363944302807442869,
  "3194": 3449975608014054620,
  "3195": 1766911027929409291,
  "32": 10746659484407557857,
  "3200": 1429161370297776164,
  "3208": 13001449410822665151,
  "3225": 2302502360145731714,
  "3226": 16790455646162832982,
  "3227": 13625983717636435627,
  "3228": 9174980697440953283,
  "3229": 16724758551436977152,
  "3230": 13464256253033151508,
  "33": 1688435794012321377,
  "34": 3852847928935189053,
  "35": 9175756456516595357,
  "3900": 12233175540782883876,
  "3901": 13704174589242691114,
  "3902": 14380154600836301986,
  "3903": 2615513184815695275,
  "3904": 17076819623000383676,
  "4000": 13047346384270552115,
  "4001": 15465141229957279561,
  "4002": 16294249717721328060,
  "4003": 1989844090508925167,
  "4004": 5612315617424383223,
  "4005": 5990287212474656628,
  "4006": 11796716763009384172,
  "4007": 12742580486570853814,
  "4008": 4089733066411325882,
  "4009": 10523226008140645295,
  "4010": 200610379322035703,
  "4011": 2600005886289437645,
  "4012": 2507549063323930998,
  "4013": 3543101202279575424,
  "4014": 16497144038087190650,
  "4015": 8709131831998619270,
  "4016": 855221844867883680,
  "4017": 4811600929958822862,
  "4018": 1798308775429142295,
  "4019": 2103971048462775861,
  "4020": 7943159946898584023,
  "4021": 576558464463739585,
  "4022": 137627793594797802,
  "4023": 5040472674654722160,
  "4024": 11980634362627790402,
  "4025": 12530343860810222550,
  "4026": 12500220352054555382,
  "4027": 17941225204213944701,
  "4028": 15528430983649724855,
  "4029": 8380358626214608882,
  "4030": 13340850614322295453,
  "4031": 7233066380333800231,
  "4032": 17342355679675907973,
  "4033": 13209215558579986731,
  "4034": 16861263325923281944,
  "4035": 14841532465026403637,
  "4036": 6157899276000447629,
  "4037": 11446060263584681633,
  "4038": 15895120566632009635,
  "4039": 18345477324953641688,
  "4040": 16685291480577876146,
  "4041": 11469199063006066797,
  "4042": 726564647109933107,
  "4043": 17691634524862659801,
  "4044": 9974083085911010800,
  "4045": 8454608404833917988,
  "4046": 5282408814396857533,
  "4047": 8997030518331592954,
  "4048": 17842071549931942450,
  "4049": 16293227935656722319,
  "4050": 15209598176892468386,
  "4051": 9230151866044476076,
  "4052": 1042878245776687938,
  "4053": 2518403211541960542,
  "4054": 8450457862083238317,
  "4055": 16189867921806462436,
  "4056": 14189408932977713813,
  "4057": 642150570758124967,
  "4058": 12768861613763847822,
  "4059": 8433470743927181347,
  "4060": 6740690671936179047,
  "4061": 5235544190454881077,
  "4062": 7086039437771174323,
  "4063": 4260684854103910829,
  "4064": 14478786013632501106,
  "4065": 8574318440906870332,
  "4066": 1943944914280671196,
  "4067": 13300813513017962894,
  "4068": 5943608225067180943,
  "4069": 6570062416253054791,
  "4070": 6820713815525802491,
  "4071": 9759913374338572156,
  "4072": 11773479107648836150,
  "4073": 15408584007395932784,
  "4074": 13736251032850381112,
  "4075": 6669425774474877611,
  "4076": 16085027704656033980,
  "4077": 6942644729007692144,
  "4078": 14180179342183350964,
  "4079": 1371756385816301997,
  "4080": 15409436052604467051,
  "4081": 7242054110737029356,
  "4082": 8498559039801379467,
  "4083": 10359915517655257420,
  "4084": 7893423572806506494,
  "4085": 2072959010426417215,
  "4086": 135424196451360400,
  "4087": 15237898578635338944,
  "4088": 18316380471064033555,
  "4089": 16783624294594400691,
  "4090": 13718542607425343151,
  "4091": 13414040794978241884,
  "4092": 16778423789606062518,
  "4093": 2513287999601092022,
  "4094": 6403114885120388747,
  "4095": 1404801590121840849,
  "4096": 17734391288458623694,
  "4097": 12336792594688923804,
  "4098": 5852257098490381909,
  "4099": 13692589969342404738,
  "4100": 8652529998138896802,
  "4101": 18046679147392386815,
  "4102": 3528408841671500806,
  "4103": 15599282754315154582,
  "4104": 18211632986531298679,
  "4105": 4409412126753670810,
  "4106": 18103361652391830774,
  "4107": 13968399452278518570,
  "4108": 17887239921834534393,
  "4109": 8579383902824965073,
  "4110": 12384495280541439708,
  "4111": 2015122697690485644,
  "4112": 10744657233878961885,
  "4113": 10511657082286251339,
  "4114": 4826752043398806559,
  "4115": 9414838875343032367,
  "4116": 5867855700190037474,
  "4117": 7257029865338204017,
  "4118": 2478989423639980245,
  "4119": 15475987652783954627,
  "4120": 10750389088654036071,
  "4121": 8325497979802895684,
  "4122": 13168543761877017367,
  "4123": 6818119347780784139,
  "4124": 10199458967817723379,
  "4125": 1769414604407834119,
  "4126": 3533489214343788208,
  "4127": 16794455094403032425,
  "4128": 7196651645728074042,
  "4129": 16677871396824859166,
  "4130": 15676033048444748325,
  "4131": 16185213565320240518,
  "4132": 6984987365112432952,
  "4133": 9639543923521182600,
  "4134": 3898517882922452536,
  "4135": 18323138071141197266,
  "4136": 9547448589770873827,
  "4137": 6535697292382197023,
  "4138": 11428878398081880036,
  "4139": 15474565445033992989,
  "4140": 14413282804977487743,
  "4141": 3684158709950636863,
  "4142": 15634969426323402960,
  "4143": 7721988360869471042,
  "4144": 6863104457472207180,
  "4145": 6516693619231573677,
  "4146": 14989615384649910721,
  "4147": 5008253169953620590,
  "4148": 3207532984217921116,
  "4149": 1346621068579876402,
  "4150": 9070029551327507151,
  "4151": 8602043930743281152,
  "4152": 16768682580467621807,
  "4153": 13199687584538357468,
  "4154": 8982899474070832858,
  "4155": 14780504070642075780,
  "4156": 3323365200824430532,
  "4157": 3664316729996237484,
  "4158": 4031744887242050994,
  "4159": 1543977187652985074,
  "4160": 12790661613657924216,
  "4161": 8147501655391409215,
  "4162": 4516976011046628872,
  "4163": 13048327898985274333,
  "4164": 12688250860235810807,
  "4165": 4412915640503671279,
  "4166": 13566434222427888680,
  "4167": 3738403699828454967,
  "4168": 16143303047583058811,
  "4169": 18224012380421036978,
  "4170": 12112679164693766520,
  "4171": 6904459401759954645,
  "4172": 6831481547528102079,
  "4173": 6566915879893881487,
  "4174": 7146517236964550043,
  "4175": 6833248589474939330,
  "4176": 17954508842824728893,
  "4178": 13817579128020757054,
  "4181": 17645312549871000096,
  "4184": 14518405560356332631,
  "4185": 17541963726042018534,
  "4187": 12541635519640908768,
  "4188": 13475572316647769037,
  "4189": 13524028604584265543,
  "4190": 9316209637905593787,
  "4191": 16728047376172708739,
  "4192": 12589180076618575490,
  "4193": 10875117922576491913,
  "4194": 12101927913264614048,
  "4195": 11391545820106384492,
  "4196": 2362636396383990428,
  "4197": 7104831912313051949,
  "4208": 15538015747540253800,
  "4209": 18315529913298125284,
  "4210": 17867870399684881151,
  "4211": 9659609059055393678,
  "4212": 10223336490106124782,
  "421901": 14244153388307524021,
  "421902": 13789754979120549851,
  "4220": 47780879348967108,
  "422001": 4257543885033223097,
  "422002": 14258907682300792961,
  "4221": 13673681331611701617,
  "422101": 11380094633006017159,
  "422102": 8602333337618823368,
  "4222": 9273433659126513940,
  "422201": 3438577211059372752,
  "422202": 1737718760303255146,
  "4223": 537728843923131608,
  "4224": 6581289904832285270,
  "4230": 3161305332312453081,
  "4231": 1214005475757035417,
  "4232": 18192570776396894522,
  "4233": 10846575228864446374,
  "4234": 7904753356365559322,
  "4235": 13529346847541168906,
  "4236": 16334610206551480733,
  "4237": 17591945406544696298,
  "4238": 10194416748028996224,
  "4239": 7683455011144586032,
  "4240": 17970593824610612067,
  "4241": 15513099930724040995,
  "4242": 10326674550765934724,
  "4245": 12464062366462932800,
  "4246": 6791158523119548841,
  "4247": 6480049110746092148,
  "4256": 6562655739095926153,
  "4257": 2494454407039510594,
  "4258": 11913392928833827368,
  "4259": 16342263482849642784,
  "4260": 10043138758785755596,
  "4261": 2613440212638379128,
  "4262": 17097677439827852507,
  "4263": 4565525604378525488,
  "4264": 9921154501300568171,
  "4265": 13593483182162113322,
  "4266": 9226951547408320656,
  "4269": 17763295223424632434,
  "4270": 13727753233238190944,
  "4271": 6870706414633087340,
  "4272": 2030244509686582259,
  "4273": 521997846958757990,
  "4274": 6450916289802972050,
  "4275": 13325945285265202312,
  "4276": 2785355058187927373,
  "4277": 9748203536976090382,
  "4278": 10801988526334659331,
  "4279": 11505322136448334594,
  "4280": 17984129643553470689,
  "4281": 7853397023893587033,
  "4282": 6230666894819846842,
  "4283": 15105086734006663778,
  "4284": 2847556254957373488,
  "4285": 4651293240240451776,
  "4288": 15123703623789506927,
  "4290": 11855017953847885257,
  "4291": 532212148331248898,
  "4292": 11637928160183984202,
  "4293": 11744805332895824802,
  "4294": 14227794955615921956,
  "4296": 8779130874193274327,
  "4298": 3513780578075244770,
  "4299": 11383942793853331802,
  "4300": 5495441180176615352,
  "4301": 8196993978279309846,
  "4302": 14867069755420800400,
  "4303": 13731396549555584367,
  "4304": 6382244314303006330,
  "4305": 14855970000969982086,
  "4306": 16665314262668015775,
  "4307": 2908649104243935825,
  "4309": 12115615847324894215,
  "4310": 9108795705019540684,
  "4311": 8079220063664472087,
  "4312": 16197173247786764268,
  "4313": 11347625265924517382,
  "4314": 10769357529351377203,
  "4315": 9769460061689055368,
  "4317": 10847107071991174789,
  "4318": 15680630092680914406,
  "4319": 5500751569509530564,
  "4320": 14698187082954648382,
  "4321": 8809462013320099652,
  "4322": 17574566434135478561,
  "4323": 8742195962119322754,
  "4324": 8039076898921355167,
  "4325": 10756181363431401364,
  "4326": 17061335206827742978,
  "4327": 1084028055414656005,
  "4328": 5744576541149002741,
  "4329": 662537570939377971,
  "4330": 9548601810926766586,
  "4331": 14773329031831766836,
  "4332": 15550529398265894538,
  "4333": 2048196184070322402,
  "4334": 8233100771023363894,
  "4335": 13856861525704436969,
  "4336": 3159044494524530911,
  "4337": 5032614766903865233,
  "4338": 10437045998564021274,
  "4339": 16712984125999771415,
  "4340": 16965143202225914770,
  "4341": 10233402697598336012,
  "4342": 11256229669601800255,
  "4343": 11817497395856798658,
  "4344": 16528133615920123299,
  "4345": 13989488800519418771,
  "4346": 8005443528083301726,
  "4347": 13248420943113157666,
  "4348": 4105488095502282110,
  "4349": 3862908800107084061,
  "4350": 1697484834490995052,
  "4351": 12595542089800307075,
  "4352": 17926431442855265249,
  "4353": 13751728260883632703,
  "4354": 2568172572582087433,
  "4355": 1405904545076013560,
  "4356": 12539759690641302029,
  "4357": 3336122093262037991,
  "4358": 11225566514288425418,
  "4359": 11871010247299993378,
  "4360": 15513882835477757733,
  "4361": 15705313955247654491,
  "4362": 9138925102403596772,
  "4363": 8018168251224213085,
  "4364": 13897357247352862115,
  "4365": 2253834689348866861,
  "4366": 3797984608425740632,
  "4367": 6101508104919021570,
  "4368": 2272245895701500977,
  "4369": 4325153907147139417,
  "4370": 1017881952910272589,
  "4371": 1368346156216752145,
  "4372": 10199610770882647921,
  "4373": 9819718035692563665,
  "4374": 5498570516442199742,
  "4375": 3047126127344619828,
  "4376": 3941386314452057013,
  "4377": 10383190390325879490,
  "4378": 6660140976193107504,
  "4379": 17852291903104241257,
  "4380": 16868336012366418150,
  "4381": 1110351867859415644,
  "4382": 14248564199337975166,
  "4383": 2125683004287894469,
  "4384": 11108977930922202551,
  "4385": 5117921842367187378,
  "4392": 11333786602219658204,
  "4393": 1465936545755289964,
  "4394": 6197100841992576491,
  "4395": 9365750973131878459,
  "4400": 2108576220890430665,
  "4401": 17757489232516431056,
  "4402": 18202820157867323100,
  "4403": 16573016624609296641,
  "4404": 14330526731218597037,
  "4405": 8144640297407236154,
  "4406": 13407787852714400115,
  "4407": 1176236585628209241,
  "4408": 400668574337942303,
  "4409": 10350128515179769606,
  "4410": 17171057479591217809,
  "4411": 11680475748102712883,
  "4412": 13694818383721317031,
  "4413": 3313833856368317185,
  "4414": 316701842346132321,
  "4415": 6362559937019332637,
  "4416": 10233239548018920836,
  "4417": 4497254557151209037,
  "4418": 4685954496953609533,
  "4419": 5585185386056274646,
  "4420": 13717882720724265817,
  "4421": 8514150074983386379,
  "4422": 4295004414260278674,
  "4423": 1377920631761218931,
  "4424": 1667180464125229644,
  "4427": 9811592984870466683,
  "4428": 2956556880642670461,
  "4429": 16703673451120168123,
  "4430": 4859852081913794066,
  "4437": 16546478699198082919,
  "4438": 8997914052061112343,
  "4439": 5229633570393654009,
  "4440": 1071501000379711982,
  "4441": 840969776965531764,
  "4442": 7284101275308291963,
  "4443": 11238904736580619403,
  "4445": 10910758068582048007,
  "4456": 6349108541116868688,
  "4457": 2767929893805179521,
  "4458": 1029882130989702969,
  "4459": 17001664474842144821,
  "4460": 18020088244334287184,
  "4461": 2203097351478624654,
  "4462": 7412214645046397015,
  "4463": 17162196687302084010,
  "4465": 2061631234647062966,
  "4466": 3846533626624460698,
  "4467": 16416961493207303740,
  "4468": 5390116691244138500,
  "4469": 13673025362763357022,
  "4470": 14445459126994078028,
  "4471": 10637095517849690257,
  "4472": 1686259670425760359,
  "4473": 5707247527613219049,
  "4474": 11533659806496722616,
  "4475": 2186512012789040889,
  "4476": 11408760411040849761,
  "4477": 13974677490882457644,
  "4900": 16113479735256408885,
  "4901": 2932763529242815005,
  "4902": 3265857456936895653,
  "4903": 10794197706327130866,
  "4905": 17699863287303399106,
  "4906": 3234611068480013405,
  "5001": 10264676465889224808,
  "5002": 1001411576513940163,
  "5003": 9454215403691875386,
  "5004": 5861005917917700208,
  "5005": 7294914054914033872,
  "5006": 2512147504028465206,
  "5007": 17368192032115046356,
  "5008": 3079342016914637036,
  "5009": 8007608948865110003,
  "5010": 7443443747667622183,
  "5011": 7332637653211052257,
  "5012": 2663191847810918314,
  "5013": 13245642155583638472,
  "5014": 6437283725671901366,
  "5015": 4026716992807708223,
  "5016": 11850028302353024085,
  "5017": 4531512992168854633,
  "5018": 10608120492128628466,
  "5019": 9072738815261884951,
  "5020": 15609708923848783217,
  "5021": 5473892894771637152,
  "5022": 13953722174830533873,
  "5023": 7679697635395344848,
  "5024": 11350076819980176955,
  "5025": 2861722686351689685,
  "5026": 5232071519905244523,
  "5027": 12796497010378338550,
  "5028": 15456812569565715532,
  "5029": 8663478274565919930,
  "5030": 2048037867298045532,
  "5031": 7399727030594740998,
  "5032": 17302668920593756211,
  "5033": 1861583448120585837,
  "5034": 9057937329677269835,
  "5035": 13715129707738431003,
  "5036": 1382587307624574055,
  "5037": 16737532220202430915,
  "5038": 14669017927638814211,
  "5039": 266772818111367590,
  "5040": 10316638456799375625,
  "5041": 8959480710918931183,
  "5042": 15229526380093601888,
  "5043": 13424206979772425879,
  "5044": 7194132124114969456,
  "5045": 5760626933833447275,
  "5046": 11096412215856768810,
  "5047": 7175551242575326073,
  "5048": 258081389227804624,
  "5049": 17115111995959480879,
  "5050": 9018813247386507109,
  "5051": 3330592945821732020,
  "5052": 1261190518797953094,
  "5053": 17396098891021994091,
  "5054": 14802412771500856372,
  "5055": 9788206203188053888,
  "5056": 816920982357032185,
  "5057": 9095179450166521835,
  "5058": 15938577799480385438,
  "5059": 3197092649349271320,
  "5060": 17903923825677583413,
  "5061": 5911132060399960368,
  "5062": 10291328806957034904,
  "5063": 17392664053402975078,
  "5064": 9678968012414198153,
  "5065": 2682177289275765440,
  "5066": 15698415773858926510,
  "5067": 10941313029257396580,
  "5068": 9058366569214013204,
  "5069": 7355069008167740106,
  "5070": 7856605405984381775,
  "5071": 8481608482578125878,
  "5072": 7959016839971127509,
  "5073": 9404658963554337007,
  "5081": 16183505176979953668,
  "5082": 17505089016870889094,
  "5083": 4390769796694566263,
  "5084": 7048898001422671983,
  "5085": 11266352976904287933,
  "5086": 336496039933161945,
  "5087": 8048750551596082027,
  "5088": 10908486082920006461,
  "5089": 14213302211723251831,
  "5090": 1274940506931985189,
  "5091": 16831154999669975727,
  "5092": 10664463751849695356,
  "5093": 6278769254261510759,
  "5094": 3729158673877317550,
  "5095": 9754443595099846453,
  "5096": 9897713304490540849,
  "5100": 3325757162846814041,
  "5101": 17828245926384049933,
  "5102": 2337283805951576411,
  "5103": 16762820513065113449,
  "5104": 17220671459041474507,
  "5105": 2935446223438585453,
  "5106": 10528602752209370535,
  "5107": 1700910166550997380,
  "5108": 4946123389328352932,
  "5109": 804537774642108459,
  "5110": 5958285591281597061,
  "5111": 6696335432516837385,
  "5112": 10389683167290102256,
  "5113": 2324628377532063792,
  "5114": 13965101954996142905,
  "5115": 11157809497791933926,
  "5116": 3195480493519675125,
  "5117": 10507103659624880810,
  "5118": 18365682275688992965,
  "5119": 15611240802426855206,
  "5121": 4829723352781599193,
  "5122": 6187431490602174890,
  "5123": 5491541615047409814,
  "5124": 15084550936833584115,
  "5125": 6200528959301743374,
  "5126": 8072784487418747970,
  "5127": 5532583748830901325,
  "5128": 3147354324478266127,
  "5129": 5689828271527236083,
  "5130": 8956025008069123772,
  "5131": 18057695343144910536,
  "5132": 13354720069063281041,
  "5133": 13209643627320851588,
  "5134": 14840150229325686155,
  "5135": 11651488318121852611,
  "5136": 576978301084229492,
  "5137": 2196482668791889714,
  "5138": 12660439715229904547,
  "5139": 2845223473839618482,
  "5140": 14517806882610099512,
  "5141": 9567225026769079801,
  "5142": 12214048029698050203,
  "5143": 5953523695770717863,
  "5144": 9032028925400151237,
  "5145": 11610760011182249367,
  "5146": 12142529411297810266,
  "5147": 12056634423078293865,
  "5148": 17334189359372283160,
  "5149": 16498209996001427812,
  "5151": 14340407089862224903,
  "5152": 1384565755704703621,
  "5161": 1477556459434922583,
  "5162": 5663306642765598219,
  "5163": 14112387191695965289,
  "5164": 7068384570099122061,
  "5165": 16651678403391246002,
  "5166": 6354432011702433952,
  "5167": 3834557769876420142,
  "5168": 3964741044895823404,
  "5169": 17813926058441964199,
  "5170": 3228971256980047678,
  "5171": 16513800300910339430,
  "5172": 10498182728912249433,
  "5173": 8018166033663309689,
  "5174": 11722959563807177329,
  "5175": 13777564412707813584,
  "5176": 7110452773257590109,
  "5177": 10781241955069117801,
  "5178": 15462841326078049833,
  "5179": 11581408512501983825,
  "5180": 16145206200685296947,
  "5181": 14399631430010361171,
  "5184": 15960783072780141936,
  "5185": 18179567454630651086,
  "5186": 1130637393357264844,
  "5187": 6995847277047842720,
  "5188": 16421324957201821081,
  "5189": 6377450631063927066,
  "5190": 3969579776100742348,
  "5191": 15433432986146369734,
  "5192": 13218257670694819774,
  "5193": 6050877018999177508,
  "5194": 7188613256163461549,
  "5195": 11254558306682644353,
  "5196": 2154438211614549406,
  "5197": 9399633065375158774,
  "5198": 13117836197303971978,
  "5199": 11828764094404845131,
  "5200": 10406018546062561555,
  "5201": 6563591539316802356,
  "5202": 11321993492544644898,
  "5203": 12248697516599896321,
  "5204": 10085565756393250101,
  "5205": 8377160648355969075,
  "5206": 8841727831738009194,
  "5207": 5693913314314779171,
  "5208": 14438747193934636126,
  "5209": 6166804151420679841,
  "5210": 2188439299597899830,
  "5211": 5560530328700665550,
  "5212": 16993039533472635337,
  "5213": 15866642453912150670,
  "5214": 9673417930534943961,
  "5215": 12849276959637064356,
  "5216": 7552202202257487171,
  "5217": 9380170185544967016,
  "5218": 16431503225661771418,
  "5219": 14230573629961298971,
  "5220": 12079834479815079327,
  "5221": 18144562277267703687,
  "5222": 3225031816888636001,
  "5223": 4454793045742068409,
  "5224": 15415336795960502301,
  "5225": 18251654954365606128,
  "5226": 12459778674253054046,
  "5227": 4669874205207181523,
  "5228": 14673463760043392933,
  "5230": 10876663612523314195,
  "5231": 16222657472190451636,
  "5232": 17872425408877354515,
  "5233": 675166580770128637,
  "5234": 13335335945100756839,
  "5235": 11023385925908624396,
  "5236": 6903587320421199356,
  "5237": 11129987316307126890,
  "5238": 99885321501641325,
  "5241": 15047887871213649916,
  "5242": 10055738272495017364,
  "5243": 8193431159182001540,
  "5246": 1252211886337746995,
  "5247": 11720795243311898200,
  "5248": 9852053383169388915,
  "5250": 16080017935775754993,
  "5251": 10436419238790381206,
  "5252": 4976650511590357911,
  "5253": 9966578578612137388,
  "5255": 3689253648993839036,
  "5256": 15645011831243404295,
  "5257": 1209711095252504504,
  "5258": 8781040133712780393,
  "5262": 10714383144102324686,
  "5263": 1196433809830839348,
  "5264": 4653467767899677737,
  "5265": 1249195510816562604,
  "5266": 15949600982892586567,
  "5267": 6921171739710167682,
  "5268": 16544652174918199497,
  "5269": 147387021230928688,
  "5271": 11562857523890322232,
  "5272": 10066934481394057226,
  "5273": 5721070699489058018,
  "5274": 10294456757075800555,
  "5275": 8332666608650266202,
  "5276": 18347719642862589440,
  "5278": 11259537052131605108,
  "5281": 13027911011772552278,
  "5282": 13229945219376728116,
  "5283": 1359648515654787034,
  "5284": 13102053519668645288,
  "5285": 2859498845861468546,
  "5286": 4621295714741191020,
  "5290": 1627703856703829602,
  "5291": 145534174888461736,
  "5296": 15843924402423375576,
  "5300": 4357139355519702513,
  "5304": 8194128511854855162,
  "5305": 13412615129950981587,
  "5306": 15123153648495391645,
  "5307": 15981417803858409962,
  "5308": 17467216673628238992,
  "5309": 13260367817164042541,
  "5310": 5814910030337812862,
  "5311": 16527921720524956615,
  "5312": 9343743332608176907,
  "5313": 13740375196115283987,
  "5314": 15258792769456312745,
  "5315": 6665391461445717151,
  "5316": 14122983753418818077,
  "5317": 15858354468979233446,
  "5318": 5554163130375769806,
  "5319": 13999863847806413129,
  "5320": 18224796119562035241,
  "5321": 3396416880075197343,
  "5322": 16334604355394756857,
  "5323": 4024133140747307158,
  "5324": 11931892211713675940,
  "5325": 15126799901632109816,
  "5326": 14052544406613108232,
  "5327": 10210754872045910633,
  "5328": 13502800703171022473,
  "5329": 4246316943813124057,
  "5330": 6111706284782441622,
  "5331": 5425384938021076167,
  "5332": 5614696033365861309,
  "5335": 2680981047065371136,
  "5336": 10166690225428211292,
  "5337": 12163539596126660343,
  "5338": 3950727836530973758,
  "5341": 6394759381115631285,
  "5342": 9533191484268309973,
  "5343": 15642090868775856099,
  "5344": 15686788698646650100,
  "5345": 13857769832145621400,
  "5346": 2944414972447525409,
  "5347": 1793055135133700940,
  "5348": 6017706222982574320,
  "5349": 16937522913351080248,
  "5350": 6907125381951195249,
  "5351": 13819459637918918579,
  "5352": 13301425516170579302,
  "5353": 664620673407040714,
  "5354": 10144290610292528404,
  "5355": 13471577718133728407,
  "5356": 3107288078601274130,
  "5357": 16896521390022648031,
  "5358": 849346780882758393,
  "5359": 11626088266612122898,
  "5360": 5137215288653940448,
  "5361": 2428660570665003481,
  "5362": 586718382207704848,
  "5363": 17734742530892307348,
  "5364": 13404064940928954680,
  "5365": 16893219362273080420,
  "5366": 1992659405834029923,
  "5367": 3869010652323145324,
  "5368": 6422969589454859334,
  "5369": 10071124827249038040,
  "5370": 16447837656537801443,
  "5371": 2321769569893001079,
  "5372": 15640649988190753725,
  "5373": 16000280956152325422,
  "5374": 6807213591365729176,
  "5375": 5998522687943301369,
  "5376": 11613686918960717293,
  "5377": 5790027061800460107,
  "5378": 13777729711854980897,
  "5379": 6511248547916597971,
  "5900": 1007189236919291139,
  "5901": 671220063120828862,
  "5902": 9128500236138486904,
  "5903": 2231366077691001965,
  "5904": 17783820246323175302,
  "5905": 7618677055969132102,
  "5906": 6112145863105384752,
  "5907": 2958982723915207547,
  "70001": 9367817898934111108,
  "86": 15786745685791131327,
  "9000": 8274080408362859546,
  "9002": 2972870730095617770,
  "9003": 14364662513390193099,
  "9004": 9835802743173385728,
  "9005": 5116980538014233830,
  "9006": 2830548184916084029,
  "9007": 14528741883667458761,
  "9008": 4470564505091542528,
  "9009": 14144307985499612731,
  "9014": 15524471605947195177,
  "9015": 5264442864965199852,
  "9016": 13515524237787074443,
  "9020": 8969150476483923809,
  "9021": 4243312466531086059,
  "9022": 11215989561633485265,
  "9023": 16346195408559016961,
  "9024": 14727350106062522212,
  "9025": 5593959038984249339,
  "9026": 17170321267629612202,
  "9027": 14193551681593259715,
  "9029": 7503455159185943585,
  "9030": 13655305493985649800,
  "9031": 15737834415167271453,
  "9032": 15004761954727612749,
  "9033": 1268618752493278394,
  "9034": 14632977713844345497,
  "9035": 13992515909885037804,
  "9036": 16802730038095606655,
  "9037": 1944324003787131045,
  "9038": 530354397215845977,
  "9039": 4451103860829636906,
  "9041": 482741308778227097,
  "9042": 16485306938943036451,
  "9043": 614126663490600193,
  "9044": 7617802146161623221,
  "9045": 11010101986733442045,
  "9046": 7238707018284235007,
  "9047": 11868256739469607300,
  "9048": 12060402287931193268,
  "9049": 1361252012045943016,
  "9050": 7286648296990701205,
  "9051": 1164121040217677493,
  "9052": 7774336725297991521,
  "9053": 15289124060335486831,
  "9054": 10341461217046932388,
  "9055": 9371165430743356465,
  "9056": 10175688957028828421,
  "9057": 13422974457688510514,
  "9058": 11872813597039888042,
  "9059": 18010457332491772837,
  "9061": 12345253165416539469,
  "9062": 1508597837218648832,
  "9063": 12098582433416474042,
  "9064": 6855520551596889062,
  "9066": 13472698711344532083,
  "9067": 15469650640592090009,
  "9068": 8778100025259397326,
  "9069": 15455787549927163011,
  "9070": 3950807237024257653,
  "9071": 10467386970121978653,
  "9072": 7126566026642484199,
  "9073": 15949947251371020933,
  "9074": 15331884748199925653,
  "9075": 11590743166363456043,
  "9076": 12588339005786182573,
  "9077": 5270883234199476159,
  "9078": 5635544141523516099,
  "9079": 2345910032515832000,
  "9080": 9111993225076474018,
  "9081": 2732438820769074441,
  "9082": 9242258458165385524,
  "9083": 5424993350508253516,
  "9084": 7583196551816711062,
  "9085": 4929148517190713357,
  "9086": 16797388862789435722,
  "9087": 16786317381756161250,
  "9088": 11412201322940605723,
  "9089": 10117215790004271193,
  "9090": 12974032291579108231,
  "9091": 16162141646953834450,
  "9092": 13993085542532755167,
  "9093": 4188759720678146831,
  "9094": 17097484887164968727,
  "9095": 15496354202631480448,
  "9096": 6820089397158795661,
  "9097": 13335180627208070668,
  "9098": 2231170255005205928,
  "93": 17409619034314758794,
  "9301": 1849386678882488136,
  "9302": 12441739475596477133,
  "9303": 3398249686455296759,
  "9304": 13405322670377548859,
  "9305": 15468374324675808542,
  "9306": 14424441876352766869,
  "9307": 13899699030783540748,
  "9308": 8935094700017837681,
  "9309": 9394596315662505390,
  "9310": 1728039249686259859,
  "9311": 14180119618868475799,
  "9312": 9435214273951754631,
  "9313": 11222611529459341327,
  "9314": 2991018438645601899,
  "9315": 17770040872797488742,
  "9316": 14858092123713157077,
  "9317": 11971224635321181512,
  "9318": 3035936507568548181,
  "9319": 1419670765725133623,
  "9320": 17451506909403216039,
  "9321": 18280096216139264648,
  "9322": 11406721234017413602,
  "9323": 391899753113568301,
  "9324": 14423154022318581400,
  "9325": 6481810380577930400,
  "9326": 13966416781789071472,
  "9327": 8490220837611646338,
  "9328": 12903360701600688598,
  "9329": 5377511044384388877,
  "9330": 8704976425171237057,
  "9331": 4672221120183542637,
  "9332": 4881699640486636211,
  "9333": 16675835416156817404,
  "9334": 15136183568348551112,
  "9335": 259019639417901438,
  "9336": 13583041983599001522,
  "9337": 10085780633344231478,
  "9338": 10661217043621568767,
  "9339": 6395186339146636342,
  "9340": 18211265089130348552,
  "9341": 10517891160646416067,
  "9342": 591044026243827653,
  "9343": 7431044081156573732,
  "9344": 2382265138816292036,
  "9345": 1075049672898219378,
  "9346": 15535886648842970281,
  "9347": 9747144136356446729,
  "9348": 14895747901333058471,
  "9349": 8342383943999973921,
  "9350": 10884549061952547852,
  "9351": 12112074201319124459,
  "9352": 5170338228419726736,
  "9353": 13355039864328751158,
  "9354": 4110591624146737543,
  "9355": 7597177932544259804,
  "9356": 8842988991004892035,
  "9357": 15077661134918635537,
  "9358": 15025581107420797023,
  "9359": 3073939099830641215,
  "9360": 9589572751256606691,
  "9361": 15114069363496689503,
  "9362": 8293523672812440627,
  "9363": 16102396511252415011,
  "9364": 12456827618122297370,
  "9365": 7376046256992764619,
  "9366": 3432067530115176182,
  "9367": 2751833755529010494,
  "9368": 9704128417215660511,
  "9369": 9518964439210585557,
  "9370": 15143166289493748281,
  "9371": 13414336048185761285,
  "9372": 14413364927588132276,
  "9373": 12887915886240181109,
  "9374": 2719651822438638619,
  "9375": 18061295062105651589,
  "9376": 3687092587715981548,
  "9377": 4137044957026965520,
  "9378": 2357135126460898428,
  "9379": 2589191643572208281,
  "9380": 1535931297169193048,
  "9381": 1017028856301037253,
  "9382": 14134428589829218843,
  "94": 15508920949523517926,
  "9500": 9154585445772836544,
  "9501": 8708526908079089506,
  "9502": 6433613222761806184,
  "9503": 3295123560740041827,
  "9504": 15674789259598447347,
  "9505": 11125385081990830291,
  "9506": 632752455027897969,
  "9507": 6453984636834892152,
  "9508": 6438806343183072903,
  "9509": 15259883379829550131,
  "9510": 10482262674362717252,
  "9511": 12097639654336233034,
  "9512": 8822114618052082546,
  "9513": 2671184330036282942,
  "9514": 11316741416926927050,
  "9515": 15330446756159683390,
  "9516": 14931369682677195930,
  "9517": 11683472419221545165,
  "9518": 46737486164050082,
  "9519": 6586616948740290056,
  "9520": 13606158433266631406,
  "9521": 12399720707663039710,
  "9522": 215538790627668050,
  "9524": 2715417136440446109,
  "9525": 8277572520441450399,
  "9526": 7966820380246722866,
  "9527": 8605409354537780976,
  "9528": 9699879201767020165,
  "9529": 10595724123394673495,
  "9530": 13869275375289198832,
  "9531": 7775585641312390533,
  "9532": 7985667785371952326,
  "9533": 12690899646892426884,
  "9534": 1200945107128307145,
  "9535": 3777520615795934455,
  "9536": 3047763671976861372,
  "9537": 2057368542303492046,
  "9538": 17020447572006126478,
  "9539": 1360725280584166554,
  "9540": 12727307621709660792,
  "9541": 10912172578447086544,
  "9542": 16214552593485399173,
  "9543": 940172970447374526,
  "9544": 9934195746391770464,
  "9545": 2151636112202715509,
  "9546": 4088417759499419967,
  "9547": 15274328230758414937,
  "9548": 7366193126046185939,
  "9549": 3901494838994074267,
  "9550": 13063991815557546410,
  "9551": 13626226455680355827,
  "9552": 6629079385313207452,
  "9553": 11970651650939772759,
  "9554": 11713372578636953794,
  "9555": 14828388568659956525,
  "9556": 12168691338460165949,
  "9557": 2059366565405414520,
  "9558": 12397943517562147333,
  "9559": 7817935002658788932,
  "9560": 12437992798215645390,
  "9561": 2488017378820032840,
  "9562": 15800174433230222675,
  "9563": 8841398817275797746,
  "9564": 10299947057701708109,
  "9565": 2465781318900255627,
  "9566": 13731415305524353575,
  "9567": 17709982360559577773,
  "9568": 10056687887737609006,
  "9569": 4345690952433701498,
  "9570": 8920089500880463992,
  "9700": 4230086412010197894,
  "9701": 4215835273838967152,
  "9702": 1065654822502490761,
  "9703": 14591118446820485530,
  "9704": 9608958773331047888,
  "9705": 12837156332528165169,
  "9706": 15268451415974704101,
  "9707": 4895235072250549838,
  "9708": 12766513779145708087,
  "9709": 7201336750769487848,
  "9710": 12776431230168064774,
  "9711": 10928582181000695083,
  "9712": 664392978446542388,
  "9713": 4798976724338136494,
  "9714": 16991796064095022626,
  "9715": 2622635628416753296,
  "9716": 15399432567548700182,
  "9717": 15088501966997840249,
  "9718": 16463655979911282185,
  "9719": 17109129732662697430,
  "9720": 575705515154825275,
  "9721": 8557945244102943274,
  "9722": 5798605887605964486,
  "9723": 8142388350756887122,
  "9724": 8871592798528836585,
  "9725": 1026507151392057113,
  "9900": 12485763121694224798
}