{
  "luaDataPath": "",
  "startBlackKeepTime": 0.5,
  "entityBan": "",
  "disableNpcLod": true,
  "isAutoBanNpc": true,
  "isBanWidgetPet": true,
  "protectNpcMobileLod": true,
  "startFade": {
    "startFadeInDuration": 0.5,
    "startFadeOutDuration": 0.5
  },
  "endFade": {
    "startFadeOutDuration": 0.0
  },
  "actors": [
    {
      "alias": "Avatar",
      "visible": true,
      "bornPointName": "T7322006_Player",
      "relativePosType": "AVATAR_NEW",
      "relativePosNpcAlias": "",
      "_bindMovingTargetKey": ""
    },
    {
      "configID": 4296,
      "alias": "4296",
      "visible": true,
      "bornPointName": "Q7322006_N20723",
      "forceCreateDaily": true,
      "relativePosType": "AVATAR_NEW",
      "relativePosNpcAlias": "",
      "_bindMovingTargetKey": ""
    },
    {
      "configID": 20846,
      "alias": "20846",
      "visible": true,
      "bornPointName": "T7322006_N20846",
      "removeActorType": "REMOVE_WITH_DISAPPEAR",
      "relativePosType": "AVATAR_NEW",
      "relativePosNpcAlias": "",
      "_bindMovingTargetKey": ""
    },
    {
      "configID": 1005,
      "alias": "1005",
      "visible": true,
      "bornPointName": "N1005_T7322006",
      "removeActorType": "REMOVE_WITH_DISAPPEAR",
      "relativePosType": "AVATAR_NEW",
      "relativePosNpcAlias": "",
      "_bindMovingTargetKey": ""
    }
  ],
  "group": [
    [
      {
        "$type": "MoleMole.Config.ConfigTimeProtectAction",
        "type": "TIME_PROTECT",
        "duration": 1.0,
        "actionId": 104
      },
      {
        "$type": "MoleMole.Config.ConfigBlackScreenAction",
        "type": "BLACK_SCREEN",
        "duration": 1.0,
        "actionId": 144,
        "blackScreenType": "KEEP_BLACK",
        "durationToBlack": 0.5,
        "durationKeepBlack": 1.0,
        "durationFromBlack": 0.5,
        "inteePos": "",
        "textMapID": "",
        "useTextFade": true
      },
      {
        "$type": "EFHODGEJOHJ",
        "type": "CAMERA_MOVE",
        "delayTime": 0.41200000047683716,
        "duration": 0.5,
        "actionId": 243,
        "camPosOffset": {
          "x": -915.0430297851562,
          "y": -850.8770141601562,
          "z": 5264.423828125
        },
        "camForwardTargetOffset": {
          "x": -915.4349975585938,
          "y": -850.8519897460938,
          "z": 5265.34423828125
        },
        "camFov": 55.35300064086914,
        "lerpPattern": 6,
        "cameraBlendType": "EaseInOutCubic",
        "MDKBPBJCMHH": {},
        "needZAxisRotate": true,
        "rotateAngle": -0.0020000000949949026,
        "openCameraDither": false,
        "targetNpcAlias": "",
        "closeTreeLeafDither": true,
        "PHGBNNGCJKJ": "",
        "NFILMKCFHEB": "",
        "BGPNGHDAECF": ""
      },
      {
        "$type": "EDCHPJLDKIN",
        "type": "BODY_LANG",
        "delayTime": 0.44999998807907104,
        "aliasList": [
          "4296"
        ],
        "actionId": 244,
        "isContinue": true,
        "forceDoFreeStyle": true,
        "canDoRepeatFreeStyle": false,
        "cantBackToIdleWhenSitLoop": true,
        "eventPatternSuiteKey": ""
      }
    ],
    [
      {
        "$type": "MoleMole.Config.ConfigBlackScreenAction",
        "type": "BLACK_SCREEN",
        "duration": 0.5,
        "actionId": 145,
        "blackScreenType": "FROM_BLACK",
        "durationToBlack": 0.5,
        "durationKeepBlack": 0.5,
        "durationFromBlack": 0.5,
        "inteePos": "",
        "textMapID": "",
        "useTextFade": true
      },
      {
        "$type": "EFHODGEJOHJ",
        "type": "CAMERA_MOVE",
        "duration": 0.0,
        "actionId": 217,
        "camPosOffset": {
          "x": -915.0430297851562,
          "y": -850.8770141601562,
          "z": 5264.423828125
        },
        "camForwardTargetOffset": {
          "x": -915.4349975585938,
          "y": -850.8519897460938,
          "z": 5265.34423828125
        },
        "camFov": 55.35300064086914,
        "lerpPattern": 6,
        "cameraBlendType": "EaseInOutCubic",
        "MDKBPBJCMHH": {},
        "needZAxisRotate": true,
        "rotateAngle": -0.0020000000949949026,
        "openCameraDither": false,
        "targetNpcAlias": "",
        "closeTreeLeafDither": true,
        "PHGBNNGCJKJ": "",
        "NFILMKCFHEB": "",
        "BGPNGHDAECF": ""
      },
      {
        "$type": "EDCHPJLDKIN",
        "type": "BODY_LANG",
        "delayTime": 1.5920000076293945,
        "aliasList": [
          "4296"
        ],
        "actionId": 212,
        "bodyLangParam": 9040,
        "forceDoFreeStyle": true,
        "canDoRepeatFreeStyle": false,
        "cantBackToIdleWhenSitLoop": true,
        "eventPatternSuiteKey": ""
      },
      {
        "$type": "IEKHMHNHENB",
        "type": "STEER_TO",
        "delayTime": 1.7669999599456787,
        "duration": 1.0,
        "aliasList": [
          "4296"
        ],
        "actionId": 211,
        "steerType": "TO_TARGET",
        "steerDir": {
          "x": -915.2109985351562,
          "y": -852.281982421875,
          "z": 5266.1748046875
        },
        "useSteerAnim": true,
        "interruptFreestyle": true,
        "forceSteer": true,
        "targetNpcAlias": "Avatar",
        "ignoreY": true,
        "fixInterNull": true,
        "BHGPHGNFCBF": ""
      },
      {
        "$type": "EFHODGEJOHJ",
        "type": "CAMERA_MOVE",
        "delayTime": 1.8669999837875366,
        "duration": 0.0,
        "actionId": 147,
        "camPosOffset": {
          "x": -910.447021484375,
          "y": -850.8770141601562,
          "z": 5265.4228515625
        },
        "camForwardTargetOffset": {
          "x": -911.427001953125,
          "y": -851.0280151367188,
          "z": 5265.2900390625
        },
        "lerpPattern": 6,
        "cameraBlendType": "EaseInOutCubic",
        "MDKBPBJCMHH": {},
        "needZAxisRotate": true,
        "rotateAngle": -0.0020000000949949026,
        "openCameraDither": false,
        "targetNpcAlias": "",
        "closeTreeLeafDither": true,
        "PHGBNNGCJKJ": "",
        "NFILMKCFHEB": "",
        "BGPNGHDAECF": ""
      },
      {
        "$type": "MJFAIFFAGOF",
        "type": "DIALOG",
        "delayTime": 2.6080000400543213,
        "aliasList": [
          "4296"
        ],
        "actionId": 107,
        "dialogID": 732200601,
        "protectTime": 3.5
      },
      {
        "$type": "EDCHPJLDKIN",
        "type": "BODY_LANG",
        "delayTime": 3.257999897003174,
        "aliasList": [
          "4296"
        ],
        "actionId": 167,
        "bodyLangParam": 4040,
        "forceDoFreeStyle": true,
        "canDoRepeatFreeStyle": false,
        "cantBackToIdleWhenSitLoop": true,
        "eventPatternSuiteKey": ""
      },
      {
        "$type": "EDCHPJLDKIN",
        "type": "BODY_LANG",
        "delayTime": 4.683000087738037,
        "aliasList": [
          "4296"
        ],
        "actionId": 196,
        "isContinue": true,
        "forceDoFreeStyle": true,
        "canDoRepeatFreeStyle": false,
        "cantBackToIdleWhenSitLoop": true,
        "eventPatternSuiteKey": ""
      }
    ],
    [
      {
        "$type": "EFHODGEJOHJ",
        "type": "CAMERA_MOVE",
        "duration": 0.0,
        "actionId": 149,
        "camPosOffset": {
          "x": -914.2239990234375,
          "y": -850.6790161132812,
          "z": 5265.26708984375
        },
        "camForwardTargetOffset": {
          "x": -915.2039794921875,
          "y": -850.8779907226562,
          "z": 5265.26416015625
        },
        "camFov": 50.0,
        "lerpPattern": 6,
        "cameraBlendType": "EaseInOutCubic",
        "MDKBPBJCMHH": {},
        "needZAxisRotate": true,
        "rotateAngle": -0.0020000000949949026,
        "openCameraDither": false,
        "targetNpcAlias": "",
        "closeTreeLeafDither": true,
        "PHGBNNGCJKJ": "",
        "NFILMKCFHEB": "",
        "BGPNGHDAECF": ""
      },
      {
        "$type": "MJFAIFFAGOF",
        "type": "DIALOG",
        "aliasList": [
          "4296"
        ],
        "actionId": 109,
        "dialogID": 732200602,
        "protectTime": 2.0
      },
      {
        "$type": "EDCHPJLDKIN",
        "type": "BODY_LANG",
        "delayTime": 0.21400000154972076,
        "aliasList": [
          "1005"
        ],
        "actionId": 171,
        "bodyLangParam": 9030,
        "forceDoFreeStyle": true,
        "canDoRepeatFreeStyle": false,
        "cantBackToIdleWhenSitLoop": true,
        "eventPatternSuiteKey": ""
      },
      {
        "$type": "IEKHMHNHENB",
        "type": "STEER_TO",
        "delayTime": 0.21899999678134918,
        "duration": 1.0,
        "aliasList": [
          "1005"
        ],
        "actionId": 218,
        "steerType": "TO_TARGET",
        "useAngle": true,
        "steerDir": {
          "x": -912.4819946289062,
          "y": -852.3720092773438,
          "z": 5264.9580078125
        },
        "steerAngle": 50.0,
        "useSteerAnim": true,
        "interruptFreestyle": true,
        "forceSteer": true,
        "targetNpcAlias": "",
        "ignoreY": true,
        "fixInterNull": true,
        "BHGPHGNFCBF": ""
      },
      {
        "$type": "EFHODGEJOHJ",
        "type": "CAMERA_MOVE",
        "delayTime": 0.34200000762939453,
        "duration": 6.5,
        "actionId": 150,
        "camPosOffset": {
          "x": -914.2239990234375,
          "y": -850.6790161132812,
          "z": 5265.26708984375
        },
        "camForwardTargetOffset": {
          "x": -915.2039794921875,
          "y": -850.8779907226562,
          "z": 5265.26416015625
        },
        "camFov": 46.0,
        "lerpPattern": 2,
        "cameraBlendType": "Linear",
        "MDKBPBJCMHH": {},
        "needZAxisRotate": true,
        "rotateAngle": -0.0020000000949949026,
        "openCameraDither": false,
        "targetNpcAlias": "",
        "closeTreeLeafDither": true,
        "PHGBNNGCJKJ": "",
        "NFILMKCFHEB": "",
        "BGPNGHDAECF": ""
      },
      {
        "$type": "EDCHPJLDKIN",
        "type": "BODY_LANG",
        "delayTime": 0.37299999594688416,
        "aliasList": [
          "Avatar"
        ],
        "actionId": 172,
        "bodyLangParam": 4030,
        "forceDoFreeStyle": true,
        "canDoRepeatFreeStyle": false,
        "cantBackToIdleWhenSitLoop": true,
        "eventPatternSuiteKey": ""
      },
      {
        "$type": "EDCHPJLDKIN",
        "type": "BODY_LANG",
        "delayTime": 0.3919999897480011,
        "aliasList": [
          "4296"
        ],
        "actionId": 224,
        "bodyLangParam": 1170,
        "forceDoFreeStyle": true,
        "canDoRepeatFreeStyle": false,
        "cantBackToIdleWhenSitLoop": true,
        "eventPatternSuiteKey": ""
      },
      {
        "$type": "IEKHMHNHENB",
        "type": "STEER_TO",
        "delayTime": 1.784999966621399,
        "duration": 1.0,
        "aliasList": [
          "1005"
        ],
        "actionId": 219,
        "steerType": "TO_TARGET",
        "steerDir": {
          "x": -912.4819946289062,
          "y": -852.3720092773438,
          "z": 5264.9580078125
        },
        "useSteerAnim": true,
        "interruptFreestyle": true,
        "forceSteer": true,
        "targetNpcAlias": "4296",
        "ignoreY": true,
        "fixInterNull": true,
        "BHGPHGNFCBF": ""
      },
      {
        "$type": "EDCHPJLDKIN",
        "type": "BODY_LANG",
        "delayTime": 1.784999966621399,
        "aliasList": [
          "1005"
        ],
        "actionId": 220,
        "bodyLangParam": 9040,
        "forceDoFreeStyle": true,
        "canDoRepeatFreeStyle": false,
        "cantBackToIdleWhenSitLoop": true,
        "eventPatternSuiteKey": ""
      },
      {
        "$type": "EDCHPJLDKIN",
        "type": "BODY_LANG",
        "delayTime": 7.313000202178955,
        "aliasList": [
          "4296"
        ],
        "actionId": 236,
        "isContinue": true,
        "forceDoFreeStyle": true,
        "canDoRepeatFreeStyle": false,
        "cantBackToIdleWhenSitLoop": true,
        "eventPatternSuiteKey": ""
      }
    ],
    [
      {
        "$type": "EFHODGEJOHJ",
        "type": "CAMERA_MOVE",
        "duration": 0.0,
        "actionId": 151,
        "camPosOffset": {
          "x": -917.77001953125,
          "y": -851.60400390625,
          "z": 5264.10791015625
        },
        "camForwardTargetOffset": {
          "x": -916.8380126953125,
          "y": -851.4530029296875,
          "z": 5264.43798828125
        },
        "camFov": 55.35300064086914,
        "lerpPattern": 6,
        "cameraBlendType": "EaseInOutCubic",
        "MDKBPBJCMHH": {},
        "needZAxisRotate": true,
        "rotateAngle": -0.0020000000949949026,
        "openCameraDither": false,
        "targetNpcAlias": "",
        "closeTreeLeafDither": true,
        "closeCameraDisplacement": true,
        "vegInteractType": "NONE",
        "PHGBNNGCJKJ": "",
        "NFILMKCFHEB": "",
        "BGPNGHDAECF": ""
      },
      {
        "$type": "NPCNMEOCADD",
        "type": "LOOK_AT",
        "aliasList": [
          "Avatar"
        ],
        "actionId": 173,
        "enableHead": true,
        "headTurnTime": 0.5,
        "targetNpcAlias": "4296",
        "openBackProtect": true,
        "targetNpcLookAtPoint": "",
        "BHGPHGNFCBF": ""
      },
      {
        "$type": "MJFAIFFAGOF",
        "type": "DIALOG",
        "aliasList": [
          "4296"
        ],
        "actionId": 111,
        "dialogID": 732200603,
        "protectTime": 3.0
      },
      {
        "$type": "EDCHPJLDKIN",
        "type": "BODY_LANG",
        "delayTime": 0.18299999833106995,
        "aliasList": [
          "1005"
        ],
        "actionId": 175,
        "bodyLangParam": 1050,
        "forceDoFreeStyle": true,
        "canDoRepeatFreeStyle": false,
        "cantBackToIdleWhenSitLoop": true,
        "eventPatternSuiteKey": ""
      },
      {
        "$type": "EDCHPJLDKIN",
        "type": "BODY_LANG",
        "delayTime": 0.1899999976158142,
        "aliasList": [
          "4296"
        ],
        "actionId": 225,
        "isContinue": true,
        "forceDoFreeStyle": true,
        "canDoRepeatFreeStyle": false,
        "cantBackToIdleWhenSitLoop": true,
        "eventPatternSuiteKey": ""
      },
      {
        "$type": "EFHODGEJOHJ",
        "type": "CAMERA_MOVE",
        "delayTime": 0.3919999897480011,
        "duration": 5.5,
        "actionId": 227,
        "camPosOffset": {
          "x": -917.77001953125,
          "y": -851.60400390625,
          "z": 5264.10791015625
        },
        "camForwardTargetOffset": {
          "x": -916.8380126953125,
          "y": -851.4530029296875,
          "z": 5264.43798828125
        },
        "camFov": 52.0,
        "lerpPattern": 2,
        "cameraBlendType": "Linear",
        "MDKBPBJCMHH": {},
        "needZAxisRotate": true,
        "rotateAngle": -0.0020000000949949026,
        "openCameraDither": false,
        "targetNpcAlias": "",
        "closeTreeLeafDither": true,
        "closeCameraDisplacement": true,
        "vegInteractType": "NONE",
        "PHGBNNGCJKJ": "",
        "NFILMKCFHEB": "",
        "BGPNGHDAECF": ""
      },
      {
        "$type": "NPCNMEOCADD",
        "type": "LOOK_AT",
        "delayTime": 0.39800000190734863,
        "aliasList": [
          "4296"
        ],
        "actionId": 174,
        "enableHead": true,
        "headRotateVec": {
          "x": 20.0,
          "y": -10.0
        },
        "enableBody": true,
        "bodyAngle": 10.0,
        "headTurnTime": 0.5,
        "bodyTurnTime": 0.5,
        "targetNpcAlias": "",
        "lookAtTargetType": "NONE",
        "openBackProtect": true,
        "targetNpcLookAtPoint": "",
        "BHGPHGNFCBF": ""
      },
      {
        "$type": "EDCHPJLDKIN",
        "type": "BODY_LANG",
        "delayTime": 1.7669999599456787,
        "aliasList": [
          "1005"
        ],
        "actionId": 176,
        "isContinue": true,
        "forceDoFreeStyle": true,
        "canDoRepeatFreeStyle": false,
        "cantBackToIdleWhenSitLoop": true,
        "eventPatternSuiteKey": ""
      }
    ],
    [
      {
        "$type": "EFHODGEJOHJ",
        "type": "CAMERA_MOVE",
        "duration": 0.0,
        "actionId": 153,
        "camPosOffset": {
          "x": -844.2470092773438,
          "y": -852.02197265625,
          "z": 5233.908203125
        },
        "camForwardTargetOffset": {
          "x": -845.218017578125,
          "y": -851.7860107421875,
          "z": 5233.955078125
        },
        "camFov": 51.0,
        "lerpPattern": 6,
        "cameraBlendType": "EaseInOutCubic",
        "MDKBPBJCMHH": {},
        "needZAxisRotate": true,
        "rotateAngle": -0.0020000000949949026,
        "openCameraDither": false,
        "targetNpcAlias": "",
        "closeTreeLeafDither": true,
        "PHGBNNGCJKJ": "",
        "NFILMKCFHEB": "",
        "BGPNGHDAECF": ""
      },
      {
        "$type": "MoleMole.Config.ConfigTeleportToAction",
        "type": "TELEPORT_TO",
        "aliasList": [
          "Avatar"
        ],
        "actionId": 249,
        "position": {
          "x": -843.0369873046875,
          "y": -853.0,
          "z": 5240.10205078125
        },
        "forward": {
          "x": -69.26499938964844,
          "y": 0.6669999957084656,
          "z": 25.180999755859375
        },
        "openLongDisTeleport": true,
        "_posBindMovingTargetKey": "",
        "_forwardBindMovingTargetKey": ""
      },
      {
        "$type": "MoleMole.Config.ConfigVisibleInterAction",
        "type": "VISIBLE",
        "aliasList": [
          "Avatar"
        ],
        "actionId": 250,
        "_extraParam": ""
      },
      {
        "$type": "MJFAIFFAGOF",
        "type": "DIALOG",
        "aliasList": [
          "4296"
        ],
        "actionId": 113,
        "dialogID": 732200604,
        "protectTime": 3.0
      },
      {
        "$type": "EFHODGEJOHJ",
        "type": "CAMERA_MOVE",
        "delayTime": 0.10000000149011612,
        "duration": 9.0,
        "actionId": 213,
        "camPosOffset": {
          "x": -844.301025390625,
          "y": -852.02197265625,
          "z": 5234.623046875
        },
        "camForwardTargetOffset": {
          "x": -845.27001953125,
          "y": -851.7860107421875,
          "z": 5234.5498046875
        },
        "camFov": 48.0,
        "lerpPattern": 2,
        "cameraBlendType": "Linear",
        "MDKBPBJCMHH": {},
        "needZAxisRotate": true,
        "rotateAngle": -0.0020000000949949026,
        "openCameraDither": false,
        "targetNpcAlias": "",
        "closeTreeLeafDither": true,
        "PHGBNNGCJKJ": "",
        "NFILMKCFHEB": "",
        "BGPNGHDAECF": ""
      },
      {
        "$type": "EDCHPJLDKIN",
        "type": "BODY_LANG",
        "delayTime": 0.13300000131130219,
        "aliasList": [
          "4296"
        ],
        "actionId": 177,
        "bodyLangParam": 1180,
        "forceDoFreeStyle": true,
        "canDoRepeatFreeStyle": false,
        "cantBackToIdleWhenSitLoop": true,
        "eventPatternSuiteKey": ""
      },
      {
        "$type": "EDCHPJLDKIN",
        "type": "BODY_LANG",
        "delayTime": 0.7649999856948853,
        "aliasList": [
          "Avatar"
        ],
        "actionId": 207,
        "bodyLangParam": 4030,
        "forceDoFreeStyle": true,
        "canDoRepeatFreeStyle": false,
        "cantBackToIdleWhenSitLoop": true,
        "eventPatternSuiteKey": ""
      },
      {
        "$type": "EDCHPJLDKIN",
        "type": "BODY_LANG",
        "delayTime": 1.2649999856948853,
        "aliasList": [
          "1005"
        ],
        "actionId": 205,
        "bodyLangParam": 4030,
        "forceDoFreeStyle": true,
        "canDoRepeatFreeStyle": false,
        "cantBackToIdleWhenSitLoop": true,
        "eventPatternSuiteKey": ""
      },
      {
        "$type": "EDCHPJLDKIN",
        "type": "BODY_LANG",
        "delayTime": 2.371000051498413,
        "aliasList": [
          "4296"
        ],
        "actionId": 203,
        "isContinue": true,
        "forceDoFreeStyle": true,
        "canDoRepeatFreeStyle": false,
        "cantBackToIdleWhenSitLoop": true,
        "eventPatternSuiteKey": ""
      },
      {
        "$type": "EDCHPJLDKIN",
        "type": "BODY_LANG",
        "delayTime": 2.4230000972747803,
        "aliasList": [
          "Avatar"
        ],
        "actionId": 208,
        "isContinue": true,
        "forceDoFreeStyle": true,
        "canDoRepeatFreeStyle": false,
        "cantBackToIdleWhenSitLoop": true,
        "eventPatternSuiteKey": ""
      },
      {
        "$type": "EDCHPJLDKIN",
        "type": "BODY_LANG",
        "delayTime": 2.6730000972747803,
        "aliasList": [
          "1005"
        ],
        "actionId": 206,
        "isContinue": true,
        "forceDoFreeStyle": true,
        "canDoRepeatFreeStyle": false,
        "cantBackToIdleWhenSitLoop": true,
        "eventPatternSuiteKey": ""
      }
    ],
    [
      {
        "$type": "MoleMole.Config.ConfigTeleportToAction",
        "type": "TELEPORT_TO",
        "aliasList": [
          "Avatar"
        ],
        "actionId": 248,
        "position": {
          "x": -911.35498046875,
          "y": -852.3330078125,
          "z": 5264.9599609375
        },
        "forward": {
          "x": -0.9470000267028809,
          "z": 0.3230000138282776
        },
        "openLongDisTeleport": true,
        "_posBindMovingTargetKey": "",
        "_forwardBindMovingTargetKey": ""
      },
      {
        "$type": "MoleMole.Config.ConfigVisibleInterAction",
        "type": "VISIBLE",
        "aliasList": [
          "Avatar"
        ],
        "actionId": 251,
        "isVisible": true,
        "_extraParam": ""
      },
      {
        "$type": "MJFAIFFAGOF",
        "type": "DIALOG",
        "aliasList": [
          "20846"
        ],
        "actionId": 115,
        "dialogID": 732200605,
        "protectTime": 1.0
      },
      {
        "$type": "EDCHPJLDKIN",
        "type": "BODY_LANG",
        "aliasList": [
          "1005"
        ],
        "actionId": 233,
        "bodyLangParam": 1190,
        "forceDoFreeStyle": true,
        "canDoRepeatFreeStyle": false,
        "cantBackToIdleWhenSitLoop": true,
        "eventPatternSuiteKey": ""
      },
      {
        "$type": "EFHODGEJOHJ",
        "type": "CAMERA_MOVE",
        "delayTime": 0.15800000727176666,
        "duration": 0.5,
        "actionId": 214,
        "camPosOffset": {
          "x": -912.5419921875,
          "y": -851.0830078125,
          "z": 5266.26904296875
        },
        "camForwardTargetOffset": {
          "x": -911.8599853515625,
          "y": -851.135986328125,
          "z": 5265.5400390625
        },
        "camFov": 55.35300064086914,
        "lerpPattern": 6,
        "cameraBlendType": "EaseInOutCubic",
        "MDKBPBJCMHH": {},
        "needZAxisRotate": true,
        "rotateAngle": -0.0020000000949949026,
        "openCameraDither": false,
        "targetNpcAlias": "",
        "closeTreeLeafDither": true,
        "PHGBNNGCJKJ": "",
        "NFILMKCFHEB": "",
        "BGPNGHDAECF": ""
      }
    ],
    [
      {
        "$type": "EFHODGEJOHJ",
        "type": "CAMERA_MOVE",
        "duration": 0.0,
        "actionId": 154,
        "camPosOffset": {
          "x": -918.4530029296875,
          "y": -847.6060180664062,
          "z": 5263.44287109375
        },
        "camForwardTargetOffset": {
          "x": -917.6010131835938,
          "y": -848.0960083007812,
          "z": 5263.6298828125
        },
        "camFov": 55.35300064086914,
        "lerpPattern": 6,
        "cameraBlendType": "EaseInOutCubic",
        "MDKBPBJCMHH": {},
        "needZAxisRotate": true,
        "rotateAngle": -0.0020000000949949026,
        "openCameraDither": false,
        "targetNpcAlias": "",
        "closeTreeLeafDither": true,
        "closeCameraDisplacement": true,
        "vegInteractType": "NONE",
        "PHGBNNGCJKJ": "",
        "NFILMKCFHEB": "",
        "BGPNGHDAECF": ""
      },
      {
        "$type": "MJFAIFFAGOF",
        "type": "DIALOG",
        "aliasList": [
          "20846"
        ],
        "actionId": 117,
        "dialogID": 732200606,
        "protectTime": 2.0
      },
      {
        "$type": "EDCHPJLDKIN",
        "type": "BODY_LANG",
        "delayTime": 0.09700000286102295,
        "aliasList": [
          "1005"
        ],
        "actionId": 234,
        "isContinue": true,
        "forceDoFreeStyle": true,
        "canDoRepeatFreeStyle": false,
        "cantBackToIdleWhenSitLoop": true,
        "eventPatternSuiteKey": ""
      },
      {
        "$type": "EFHODGEJOHJ",
        "type": "CAMERA_MOVE",
        "delayTime": 0.15000000596046448,
        "duration": 5.5,
        "actionId": 164,
        "camPosOffset": {
          "x": -918.43701171875,
          "y": -847.614990234375,
          "z": 5263.44580078125
        },
        "camForwardTargetOffset": {
          "x": -917.5850219726562,
          "y": -848.10498046875,
          "z": 5263.6328125
        },
        "camFov": 53.0,
        "lerpPattern": 2,
        "cameraBlendType": "Linear",
        "MDKBPBJCMHH": {},
        "needZAxisRotate": true,
        "rotateAngle": -0.0020000000949949026,
        "openCameraDither": false,
        "targetNpcAlias": "",
        "closeTreeLeafDither": true,
        "closeCameraDisplacement": true,
        "vegInteractType": "NONE",
        "PHGBNNGCJKJ": "",
        "NFILMKCFHEB": "",
        "BGPNGHDAECF": ""
      },
      {
        "$type": "EDCHPJLDKIN",
        "type": "BODY_LANG",
        "delayTime": 1.1799999475479126,
        "aliasList": [
          "1005"
        ],
        "actionId": 179,
        "bodyLangParam": 9030,
        "forceDoFreeStyle": true,
        "canDoRepeatFreeStyle": false,
        "cantBackToIdleWhenSitLoop": true,
        "eventPatternSuiteKey": ""
      }
    ],
    [
      {
        "$type": "EFHODGEJOHJ",
        "type": "CAMERA_MOVE",
        "duration": 0.5,
        "actionId": 221,
        "camPosOffset": {
          "x": -912.0830078125,
          "y": -851.1259765625,
          "z": 5266.2919921875
        },
        "camForwardTargetOffset": {
          "x": -911.6220092773438,
          "y": -851.1400146484375,
          "z": 5265.40478515625
        },
        "camFov": 55.35300064086914,
        "lerpPattern": 6,
        "cameraBlendType": "EaseInOutCubic",
        "MDKBPBJCMHH": {},
        "needZAxisRotate": true,
        "rotateAngle": -0.0020000000949949026,
        "openCameraDither": false,
        "targetNpcAlias": "",
        "closeTreeLeafDither": true,
        "PHGBNNGCJKJ": "",
        "NFILMKCFHEB": "",
        "BGPNGHDAECF": ""
      },
      {
        "$type": "MJFAIFFAGOF",
        "type": "DIALOG",
        "aliasList": [
          "20846"
        ],
        "actionId": 119,
        "dialogID": 732200607,
        "protectTime": 2.5
      },
      {
        "$type": "EDCHPJLDKIN",
        "type": "BODY_LANG",
        "delayTime": 0.8960000276565552,
        "aliasList": [
          "1005"
        ],
        "actionId": 180,
        "bodyLangParam": 1130,
        "forceDoFreeStyle": true,
        "canDoRepeatFreeStyle": false,
        "cantBackToIdleWhenSitLoop": true,
        "eventPatternSuiteKey": ""
      },
      {
        "$type": "EDCHPJLDKIN",
        "type": "BODY_LANG",
        "delayTime": 1.7510000467300415,
        "aliasList": [
          "1005"
        ],
        "actionId": 235,
        "bodyLangParam": 4040,
        "forceDoFreeStyle": true,
        "canDoRepeatFreeStyle": false,
        "cantBackToIdleWhenSitLoop": true,
        "eventPatternSuiteKey": ""
      },
      {
        "$type": "EDCHPJLDKIN",
        "type": "BODY_LANG",
        "delayTime": 3.071000099182129,
        "aliasList": [
          "1005"
        ],
        "actionId": 181,
        "isContinue": true,
        "forceDoFreeStyle": true,
        "canDoRepeatFreeStyle": false,
        "cantBackToIdleWhenSitLoop": true,
        "eventPatternSuiteKey": ""
      }
    ],
    [
      {
        "$type": "EFHODGEJOHJ",
        "type": "CAMERA_MOVE",
        "duration": 0.5,
        "actionId": 155,
        "camPosOffset": {
          "x": -914.906982421875,
          "y": -850.89697265625,
          "z": 5265.5029296875
        },
        "camForwardTargetOffset": {
          "x": -915.7579956054688,
          "y": -850.7490234375,
          "z": 5264.998046875
        },
        "camFov": 55.35300064086914,
        "lerpPattern": 6,
        "cameraBlendType": "EaseInOutCubic",
        "MDKBPBJCMHH": {},
        "needZAxisRotate": true,
        "rotateAngle": -0.0020000000949949026,
        "openCameraDither": false,
        "targetNpcAlias": "",
        "closeTreeLeafDither": true,
        "PHGBNNGCJKJ": "",
        "NFILMKCFHEB": "",
        "BGPNGHDAECF": ""
      },
      {
        "$type": "MJFAIFFAGOF",
        "type": "DIALOG",
        "aliasList": [
          "4296"
        ],
        "actionId": 121,
        "dialogID": 732200608,
        "protectTime": 1.5
      },
      {
        "$type": "NPCNMEOCADD",
        "type": "LOOK_AT",
        "aliasList": [
          "4296"
        ],
        "actionId": 215,
        "enableHead": true,
        "headRotateVec": {
          "x": 8.0,
          "y": 10.0
        },
        "headTurnTime": 0.5,
        "targetNpcAlias": "",
        "lookAtTargetType": "NONE",
        "openBackProtect": true,
        "targetNpcLookAtPoint": "",
        "BHGPHGNFCBF": ""
      },
      {
        "$type": "EDCHPJLDKIN",
        "type": "BODY_LANG",
        "delayTime": 0.37599998712539673,
        "aliasList": [
          "4296"
        ],
        "actionId": 182,
        "bodyLangParam": 1190,
        "forceDoFreeStyle": true,
        "canDoRepeatFreeStyle": false,
        "cantBackToIdleWhenSitLoop": true,
        "eventPatternSuiteKey": ""
      },
      {
        "$type": "EDCHPJLDKIN",
        "type": "BODY_LANG",
        "delayTime": 2.500999927520752,
        "aliasList": [
          "4296"
        ],
        "actionId": 229,
        "isContinue": true,
        "forceDoFreeStyle": true,
        "canDoRepeatFreeStyle": false,
        "cantBackToIdleWhenSitLoop": true,
        "eventPatternSuiteKey": ""
      }
    ],
    [
      {
        "$type": "MJFAIFFAGOF",
        "type": "DIALOG",
        "aliasList": [
          "4296"
        ],
        "actionId": 123,
        "dialogID": 732200609,
        "protectTime": 1.5
      },
      {
        "$type": "EDCHPJLDKIN",
        "type": "BODY_LANG",
        "aliasList": [
          "4296"
        ],
        "actionId": 222,
        "isContinue": true,
        "forceDoFreeStyle": true,
        "canDoRepeatFreeStyle": false,
        "cantBackToIdleWhenSitLoop": true,
        "eventPatternSuiteKey": ""
      },
      {
        "$type": "NPCNMEOCADD",
        "type": "LOOK_AT",
        "delayTime": 0.052000001072883606,
        "aliasList": [
          "4296"
        ],
        "actionId": 185,
        "enableHead": true,
        "headRotateVec": {
          "x": 15.0,
          "y": 25.0
        },
        "headTurnTime": 0.5,
        "targetNpcAlias": "",
        "lookAtTargetType": "NONE",
        "openBackProtect": true,
        "targetNpcLookAtPoint": "",
        "BHGPHGNFCBF": ""
      },
      {
        "$type": "EDCHPJLDKIN",
        "type": "BODY_LANG",
        "delayTime": 0.9269999861717224,
        "aliasList": [
          "4296"
        ],
        "actionId": 183,
        "bodyLangParam": 4040,
        "forceDoFreeStyle": true,
        "canDoRepeatFreeStyle": false,
        "cantBackToIdleWhenSitLoop": true,
        "eventPatternSuiteKey": ""
      }
    ],
    [
      {
        "$type": "EFHODGEJOHJ",
        "type": "CAMERA_MOVE",
        "duration": 0.5,
        "actionId": 230,
        "camPosOffset": {
          "x": -914.2570190429688,
          "y": -850.8690185546875,
          "z": 5265.0068359375
        },
        "camForwardTargetOffset": {
          "x": -915.2050170898438,
          "y": -851.010986328125,
          "z": 5265.2919921875
        },
        "camFov": 55.35300064086914,
        "lerpPattern": 6,
        "cameraBlendType": "EaseInOutCubic",
        "MDKBPBJCMHH": {},
        "needZAxisRotate": true,
        "rotateAngle": -0.0020000000949949026,
        "openCameraDither": false,
        "targetNpcAlias": "",
        "closeTreeLeafDither": true,
        "PHGBNNGCJKJ": "",
        "NFILMKCFHEB": "",
        "BGPNGHDAECF": ""
      },
      {
        "$type": "MJFAIFFAGOF",
        "type": "DIALOG",
        "aliasList": [
          "4296"
        ],
        "actionId": 125,
        "dialogID": 732200610,
        "protectTime": 2.0
      },
      {
        "$type": "NPCNMEOCADD",
        "type": "LOOK_AT",
        "delayTime": 0.4749999940395355,
        "aliasList": [
          "4296"
        ],
        "actionId": 186,
        "enableHead": true,
        "headTurnTime": 0.5,
        "targetNpcAlias": "",
        "lookAtTargetType": "NONE",
        "openBackProtect": true,
        "targetNpcLookAtPoint": "",
        "BHGPHGNFCBF": ""
      },
      {
        "$type": "EDCHPJLDKIN",
        "type": "BODY_LANG",
        "delayTime": 0.47600001096725464,
        "aliasList": [
          "4296"
        ],
        "actionId": 187,
        "bodyLangParam": 1170,
        "forceDoFreeStyle": true,
        "canDoRepeatFreeStyle": false,
        "cantBackToIdleWhenSitLoop": true,
        "eventPatternSuiteKey": ""
      },
      {
        "$type": "EDCHPJLDKIN",
        "type": "BODY_LANG",
        "delayTime": 1.8079999685287476,
        "aliasList": [
          "4296"
        ],
        "actionId": 198,
        "isContinue": true,
        "forceDoFreeStyle": true,
        "canDoRepeatFreeStyle": false,
        "cantBackToIdleWhenSitLoop": true,
        "eventPatternSuiteKey": ""
      }
    ],
    [
      {
        "$type": "MJFAIFFAGOF",
        "type": "DIALOG",
        "aliasList": [
          "4296"
        ],
        "actionId": 127,
        "dialogID": 732200611,
        "protectTime": 1.5
      },
      {
        "$type": "EDCHPJLDKIN",
        "type": "BODY_LANG",
        "delayTime": 0.4050000011920929,
        "aliasList": [
          "4296"
        ],
        "actionId": 216,
        "bodyLangParam": 4040,
        "forceDoFreeStyle": true,
        "canDoRepeatFreeStyle": false,
        "cantBackToIdleWhenSitLoop": true,
        "eventPatternSuiteKey": ""
      },
      {
        "$type": "NPCNMEOCADD",
        "type": "LOOK_AT",
        "delayTime": 0.5669999718666077,
        "aliasList": [
          "4296"
        ],
        "actionId": 188,
        "enableHead": true,
        "headRotateVec": {
          "x": 10.0,
          "y": 25.0
        },
        "enableBody": true,
        "bodyAngle": 5.0,
        "headTurnTime": 1.399999976158142,
        "bodyTurnTime": 0.800000011920929,
        "targetNpcAlias": "",
        "lookAtTargetType": "NONE",
        "openBackProtect": true,
        "targetNpcLookAtPoint": "",
        "BHGPHGNFCBF": ""
      }
    ],
    [
      {
        "$type": "EFHODGEJOHJ",
        "type": "CAMERA_MOVE",
        "duration": 0.5,
        "actionId": 157,
        "camPosOffset": {
          "x": -912.052978515625,
          "y": -850.9949951171875,
          "z": 5265.76220703125
        },
        "camForwardTargetOffset": {
          "x": -911.6079711914062,
          "y": -851.1220092773438,
          "z": 5264.875
        },
        "camFov": 55.35300064086914,
        "lerpPattern": 6,
        "cameraBlendType": "EaseInOutCubic",
        "MDKBPBJCMHH": {},
        "needZAxisRotate": true,
        "rotateAngle": -0.0020000000949949026,
        "openCameraDither": false,
        "targetNpcAlias": "",
        "closeTreeLeafDither": true,
        "PHGBNNGCJKJ": "",
        "NFILMKCFHEB": "",
        "BGPNGHDAECF": ""
      },
      {
        "$type": "MJFAIFFAGOF",
        "type": "DIALOG",
        "aliasList": [
          "1005"
        ],
        "actionId": 129,
        "dialogID": 732200612,
        "protectTime": 5.0
      },
      {
        "$type": "EDCHPJLDKIN",
        "type": "BODY_LANG",
        "delayTime": 0.06300000101327896,
        "aliasList": [
          "1005"
        ],
        "actionId": 189,
        "bodyLangParam": 1300,
        "forceDoFreeStyle": true,
        "canDoRepeatFreeStyle": false,
        "cantBackToIdleWhenSitLoop": true,
        "eventPatternSuiteKey": ""
      },
      {
        "$type": "EFHODGEJOHJ",
        "type": "CAMERA_MOVE",
        "delayTime": 0.5,
        "duration": 4.0,
        "actionId": 204,
        "camPosOffset": {
          "x": -912.052978515625,
          "y": -850.9949951171875,
          "z": 5265.76220703125
        },
        "camForwardTargetOffset": {
          "x": -911.6510009765625,
          "y": -851.1220092773438,
          "z": 5264.85498046875
        },
        "camFov": 55.35300064086914,
        "lerpPattern": 2,
        "cameraBlendType": "Linear",
        "MDKBPBJCMHH": {},
        "needZAxisRotate": true,
        "rotateAngle": -0.0020000000949949026,
        "openCameraDither": false,
        "targetNpcAlias": "",
        "closeTreeLeafDither": true,
        "PHGBNNGCJKJ": "",
        "NFILMKCFHEB": "",
        "BGPNGHDAECF": ""
      },
      {
        "$type": "EDCHPJLDKIN",
        "type": "BODY_LANG",
        "delayTime": 2.9619998931884766,
        "aliasList": [
          "1005"
        ],
        "actionId": 199,
        "bodyLangParam": 1260,
        "forceDoFreeStyle": true,
        "canDoRepeatFreeStyle": false,
        "cantBackToIdleWhenSitLoop": true,
        "eventPatternSuiteKey": ""
      },
      {
        "$type": "EDCHPJLDKIN",
        "type": "BODY_LANG",
        "delayTime": 4.888000011444092,
        "aliasList": [
          "1005"
        ],
        "actionId": 200,
        "isContinue": true,
        "forceDoFreeStyle": true,
        "canDoRepeatFreeStyle": false,
        "cantBackToIdleWhenSitLoop": true,
        "eventPatternSuiteKey": ""
      }
    ],
    [
      {
        "$type": "EFHODGEJOHJ",
        "type": "CAMERA_MOVE",
        "duration": 0.5,
        "actionId": 158,
        "camPosOffset": {
          "x": -914.4509887695312,
          "y": -850.802001953125,
          "z": 5265.2578125
        },
        "camForwardTargetOffset": {
          "x": -915.4409790039062,
          "y": -850.93798828125,
          "z": 5265.22802734375
        },
        "camFov": 51.0,
        "lerpPattern": 6,
        "cameraBlendType": "EaseInOutCubic",
        "MDKBPBJCMHH": {},
        "needZAxisRotate": true,
        "rotateAngle": -0.0020000000949949026,
        "openCameraDither": false,
        "targetNpcAlias": "",
        "closeTreeLeafDither": true,
        "PHGBNNGCJKJ": "",
        "NFILMKCFHEB": "",
        "BGPNGHDAECF": ""
      },
      {
        "$type": "MJFAIFFAGOF",
        "type": "DIALOG",
        "aliasList": [
          "4296"
        ],
        "actionId": 131,
        "dialogID": 732200613,
        "protectTime": 1.0
      }
    ],
    [
      {
        "$type": "MJFAIFFAGOF",
        "type": "DIALOG",
        "aliasList": [
          "4296"
        ],
        "actionId": 133,
        "dialogID": 732200614,
        "protectTime": 3.0
      },
      {
        "$type": "NPCNMEOCADD",
        "type": "LOOK_AT",
        "aliasList": [
          "4296"
        ],
        "actionId": 246,
        "enableHead": true,
        "headTurnTime": 0.5,
        "targetNpcAlias": "Avatar",
        "openBackProtect": true,
        "targetNpcLookAtPoint": "",
        "BHGPHGNFCBF": ""
      },
      {
        "$type": "OBCDECFOOBC",
        "type": "DIALOG_SELECT",
        "delayTime": 2.075000047683716,
        "aliasList": [
          "Avatar"
        ],
        "actionId": 134,
        "dialogIDList": [
          732200615,
          732200617
        ],
        "grpIDList": [
          3007191147,
          3007191148
        ],
        "useGrpId": true,
        "countDownGrpId": 3006500138
      },
      {
        "$type": "IEKHMHNHENB",
        "type": "STEER_TO",
        "delayTime": 2.2109999656677246,
        "duration": 1.0,
        "aliasList": [
          "4296"
        ],
        "actionId": 231,
        "steerType": "ABSOLUTE",
        "useAngle": true,
        "steerDir": {
          "x": -916.343017578125,
          "y": -851.281982421875,
          "z": 5267.1279296875
        },
        "steerAngle": -40.0,
        "useSteerAnim": true,
        "interruptFreestyle": true,
        "forceSteer": true,
        "targetNpcAlias": "",
        "ignoreY": true,
        "fixInterNull": true,
        "BHGPHGNFCBF": ""
      },
      {
        "$type": "EDCHPJLDKIN",
        "type": "BODY_LANG",
        "delayTime": 2.2200000286102295,
        "aliasList": [
          "4296"
        ],
        "actionId": 232,
        "bodyLangParam": 9030,
        "forceDoFreeStyle": true,
        "canDoRepeatFreeStyle": false,
        "cantBackToIdleWhenSitLoop": true,
        "eventPatternSuiteKey": ""
      },
      {
        "$type": "EFHODGEJOHJ",
        "type": "CAMERA_MOVE",
        "delayTime": 2.3239998817443848,
        "duration": 0.5,
        "actionId": 238,
        "camPosOffset": {
          "x": -914.1179809570312,
          "y": -851.0059814453125,
          "z": 5264.6181640625
        },
        "camForwardTargetOffset": {
          "x": -914.926025390625,
          "y": -851.0079956054688,
          "z": 5265.20703125
        },
        "camFov": 55.35300064086914,
        "lerpPattern": 6,
        "cameraBlendType": "EaseInOutCubic",
        "MDKBPBJCMHH": {},
        "needZAxisRotate": true,
        "rotateAngle": -0.0020000000949949026,
        "openCameraDither": false,
        "targetNpcAlias": "",
        "closeTreeLeafDither": true,
        "PHGBNNGCJKJ": "",
        "NFILMKCFHEB": "",
        "BGPNGHDAECF": ""
      },
      {
        "$type": "NPCNMEOCADD",
        "type": "LOOK_AT",
        "delayTime": 4.703000068664551,
        "aliasList": [
          "4296"
        ],
        "actionId": 232,
        "headTurnTime": 0.5,
        "targetNpcAlias": "",
        "openBackProtect": true,
        "targetNpcLookAtPoint": "",
        "BHGPHGNFCBF": ""
      }
    ],
    [
      {
        "$type": "MJFAIFFAGOF",
        "type": "DIALOG",
        "aliasList": [
          "4296"
        ],
        "actionId": 136,
        "dialogID": 732200616,
        "protectTime": 2.0
      },
      {
        "$type": "EDCHPJLDKIN",
        "type": "BODY_LANG",
        "delayTime": 0.050999999046325684,
        "aliasList": [
          "4296"
        ],
        "actionId": 191,
        "bodyLangParam": 4030,
        "forceDoFreeStyle": true,
        "canDoRepeatFreeStyle": false,
        "cantBackToIdleWhenSitLoop": true,
        "eventPatternSuiteKey": ""
      },
      {
        "$type": "NPCNMEOCADD",
        "type": "LOOK_AT",
        "delayTime": 1.7389999628067017,
        "aliasList": [
          "4296"
        ],
        "actionId": 239,
        "enableHead": true,
        "headRotateVec": {
          "x": 10.0
        },
        "enableBody": true,
        "bodyAngle": -10.0,
        "headTurnTime": 1.0,
        "targetNpcAlias": "",
        "lookAtTargetType": "NONE",
        "openBackProtect": true,
        "targetNpcLookAtPoint": "",
        "BHGPHGNFCBF": ""
      }
    ],
    [
      {
        "$type": "MJFAIFFAGOF",
        "type": "DIALOG",
        "aliasList": [
          "4296"
        ],
        "actionId": 138,
        "dialogID": 732200618,
        "protectTime": 4.0
      },
      {
        "$type": "EDCHPJLDKIN",
        "type": "BODY_LANG",
        "delayTime": 0.14800000190734863,
        "aliasList": [
          "4296"
        ],
        "actionId": 240,
        "bodyLangParam": 4040,
        "forceDoFreeStyle": true,
        "canDoRepeatFreeStyle": false,
        "cantBackToIdleWhenSitLoop": true,
        "eventPatternSuiteKey": ""
      },
      {
        "$type": "NPCNMEOCADD",
        "type": "LOOK_AT",
        "delayTime": 1.2879999876022339,
        "aliasList": [
          "Avatar"
        ],
        "actionId": 194,
        "enableHead": true,
        "headRotateVec": {
          "x": -20.0,
          "y": -10.0
        },
        "enableBody": true,
        "bodyAngle": -10.0,
        "headTurnTime": 0.5,
        "targetNpcAlias": "",
        "lookAtTargetType": "NONE",
        "openBackProtect": true,
        "targetNpcLookAtPoint": "",
        "BHGPHGNFCBF": ""
      },
      {
        "$type": "NPCNMEOCADD",
        "type": "LOOK_AT",
        "delayTime": 1.2960000038146973,
        "aliasList": [
          "1005"
        ],
        "actionId": 193,
        "enableHead": true,
        "headRotateVec": {
          "x": -30.0,
          "y": -10.0
        },
        "enableBody": true,
        "bodyAngle": -20.0,
        "headTurnTime": 0.5,
        "targetNpcAlias": "",
        "lookAtTargetType": "NONE",
        "openBackProtect": true,
        "targetNpcLookAtPoint": "",
        "BHGPHGNFCBF": ""
      },
      {
        "$type": "EDCHPJLDKIN",
        "type": "BODY_LANG",
        "delayTime": 3.069999933242798,
        "aliasList": [
          "4296"
        ],
        "actionId": 241,
        "bodyLangParam": 1230,
        "forceDoFreeStyle": true,
        "canDoRepeatFreeStyle": false,
        "cantBackToIdleWhenSitLoop": true,
        "eventPatternSuiteKey": ""
      },
      {
        "$type": "NPCNMEOCADD",
        "type": "LOOK_AT",
        "delayTime": 3.0759999752044678,
        "aliasList": [
          "4296"
        ],
        "actionId": 192,
        "enableHead": true,
        "headRotateVec": {
          "x": 10.0
        },
        "enableBody": true,
        "bodyAngle": -10.0,
        "headTurnTime": 0.699999988079071,
        "bodyTurnTime": 0.5,
        "targetNpcAlias": "",
        "lookAtTargetType": "NONE",
        "openBackProtect": true,
        "targetNpcLookAtPoint": "",
        "BHGPHGNFCBF": ""
      }
    ],
    [
      {
        "$type": "MoleMole.Config.ConfigTimeProtectAction",
        "type": "TIME_PROTECT",
        "duration": 0.10000000149011612,
        "actionId": 140
      },
      {
        "$type": "MoleMole.Config.ConfigTeleportToAction",
        "type": "TELEPORT_TO",
        "aliasList": [
          "Avatar"
        ],
        "actionId": 242,
        "position": {
          "x": -909.5490112304688,
          "y": -852.7940063476562,
          "z": 5258.06103515625
        },
        "forward": {
          "x": -2.753000020980835,
          "y": 0.460999995470047,
          "z": 7.2220001220703125
        },
        "openLongDisTeleport": true,
        "_posBindMovingTargetKey": "",
        "_forwardBindMovingTargetKey": ""
      }
    ],
    [
      {
        "$type": "MoleMole.Config.ConfigTimeProtectAction",
        "type": "TIME_PROTECT",
        "duration": 0.10000000149011612,
        "actionId": 105
      },
      {
        "$type": "MoleMole.Config.ConfigSimpleBlackScreenAction",
        "type": "SIMPLE_BLACK_SCREEN",
        "actionId": 141,
        "durationToBlack": 0.5,
        "durationKeepBlack": 1.0,
        "durationFromBlack": 0.5,
        "textMapID": ""
      },
      {
        "$type": "MoleMole.Config.ConfigTimeProtectAction",
        "type": "TIME_PROTECT",
        "duration": 0.699999988079071,
        "actionId": 142
      },
      {
        "$type": "EDCHPJLDKIN",
        "type": "BODY_LANG",
        "delayTime": 0.5830000042915344,
        "aliasList": [
          "4296"
        ],
        "actionId": 247,
        "isContinue": true,
        "forceDoFreeStyle": true,
        "canDoRepeatFreeStyle": false,
        "cantBackToIdleWhenSitLoop": true,
        "eventPatternSuiteKey": ""
      },
      {
        "$type": "MoleMole.Config.ConfigTeleportToAction",
        "type": "TELEPORT_TO",
        "delayTime": 0.6499999761581421,
        "aliasList": [
          "Avatar"
        ],
        "actionId": 210,
        "position": {
          "x": -911.8070068359375,
          "y": -852.56298828125,
          "z": 5259.77783203125
        },
        "forward": {
          "x": -1.781000018119812,
          "y": 0.23000000417232513,
          "z": 3.61299991607666
        },
        "openLongDisTeleport": true,
        "_posBindMovingTargetKey": "",
        "_forwardBindMovingTargetKey": ""
      },
      {
        "$type": "EFHODGEJOHJ",
        "type": "CAMERA_MOVE",
        "delayTime": 0.6919999718666077,
        "duration": 0.0,
        "actionId": 209,
        "camPosOffset": {
          "x": -910.552001953125,
          "y": -850.1329956054688,
          "z": 5254.7919921875
        },
        "camForwardTargetOffset": {
          "x": -910.5800170898438,
          "y": -850.39501953125,
          "z": 5255.7568359375
        },
        "camFov": 55.35300064086914,
        "lerpPattern": 6,
        "cameraBlendType": "EaseInOutCubic",
        "MDKBPBJCMHH": {},
        "needZAxisRotate": true,
        "openCameraDither": false,
        "targetNpcAlias": "",
        "closeTreeLeafDither": true,
        "PHGBNNGCJKJ": "",
        "NFILMKCFHEB": "",
        "BGPNGHDAECF": ""
      }
    ]
  ],
  "groupId": [
    {
      "grpId": 3006500139,
      "nextGrpId": 3006500140
    },
    {
      "index": 1,
      "grpId": 3006500140,
      "nextGrpId": 3006500141
    },
    {
      "index": 2,
      "grpId": 3006500141,
      "nextGrpId": 3006500142
    },
    {
      "index": 3,
      "grpId": 3006500142,
      "nextGrpId": 3006500143
    },
    {
      "index": 4,
      "grpId": 3006500143,
      "nextGrpId": 3006500144
    },
    {
      "index": 5,
      "grpId": 3006500144,
      "nextGrpId": 3006500145
    },
    {
      "index": 6,
      "grpId": 3006500145,
      "nextGrpId": 3006500146
    },
    {
      "index": 7,
      "grpId": 3006500146,
      "nextGrpId": 3006500147
    },
    {
      "index": 8,
      "grpId": 3006500147,
      "nextGrpId": 3007191141
    },
    {
      "index": 9,
      "grpId": 3007191141,
      "nextGrpId": 3007191142
    },
    {
      "index": 10,
      "grpId": 3007191142,
      "nextGrpId": 3007191143
    },
    {
      "index": 11,
      "grpId": 3007191143,
      "nextGrpId": 3007191144
    },
    {
      "index": 12,
      "grpId": 3007191144,
      "nextGrpId": 3007191145
    },
    {
      "index": 13,
      "grpId": 3007191145,
      "nextGrpId": 3007191146
    },
    {
      "index": 14,
      "grpId": 3007191146,
      "nextGrpId": 3007191147
    },
    {
      "index": 15,
      "grpId": 3007191147,
      "nextGrpId": 3007191149
    },
    {
      "index": 16,
      "grpId": 3007191148,
      "nextGrpId": 3007191149
    },
    {
      "index": 17,
      "grpId": 3007191149,
      "nextGrpId": 3007191150
    },
    {
      "index": 18,
      "grpId": 3007191150,
      "nextGrpId": 3007191172
    }
  ]
}