{
  "luaDataPath": "",
  "entityBan": "",
  "group": [
    [
      {
        "$type": "MoleMole.Config.ConfigBlackScreenAction",
        "type": "BLACK_SCREEN",
        "duration": 0.5,
        "checkNextImmediately": true,
        "blackScreenType": "TO_BLACK",
        "durationToBlack": 0.10000000149011612,
        "inteePos": "",
        "textMapID": ""
      }
    ],
    [
      {
        "$type": "MDBBLNPOGKI",
        "type": "CUTSCENE",
        "cutsceneCfg": {
          "$type": "JPPMJNBHBMF",
          "KPGKDHAFHFE": "TIME_LINE_PREFAB",
          "forceCanSkip": true,
          "clearBlackScreen": true,
          "directTransmit": true,
          "luaDataPath": "",
          "resPath": "ART/Cutscene/Cs_Common_BlackScreen_Convert",
          "castListPath": "",
          "entityBan": "",
          "needYEuler": true,
          "fadeInDuration": 0.0
        }
      }
    ]
  ]
}