{
  "luaDataPath": "",
  "entityBan": "",
  "group": [
    [
      {
        "$type": "MDBBLNPOGKI",
        "type": "CUTSCENE",
        "cutsceneCfg": {
          "$type": "JPPMJNBHBMF",
          "luaDataPath": "",
          "resPath": "",
          "castListPath": "",
          "entityBan": "",
          "needYEuler": true,
          "fadeInDuration": 1.0
        }
      }
    ]
  ]
}