{
  "luaDataPath": "",
  "entityBan": "",
  "group": [
    [
      {
        "$type": "MDBBLNPOGKI",
        "type": "CUTSCENE",
        "cutsceneCfg": {
          "$type": "JPPMJNBHBMF",
          "KPGKDHAFHFE": "TIME_LINE_PREFAB",
          "forceCanSkip": true,
          "skipGeneralDialog": true,
          "luaDataPath": "",
          "resPath": "ART/Cutscene/Cs_RecyclableDungeon_GetReward",
          "castListPath": "",
          "entityBan": "",
          "startPosType": "RELATIVE_TO_INTEE",
          "needYEuler": true,
          "fadeInDuration": 0.0,
          "fadeOutDuration": 1.0
        }
      }
    ]
  ]
}