{
  "luaDataPath": "",
  "entityBan": "",
  "group": [
    [
      {
        "$type": "MDBBLNPOGKI",
        "type": "CUTSCENE",
        "cutsceneCfg": {
          "$type": "JPPMJNBHBMF",
          "KPGKDHAFHFE": "TIME_LINE_PREFAB",
          "canSkip": false,
          "canSkipIfPlayed": true,
          "skipGeneralDialog": true,
          "clearBlackScreen": true,
          "directTransmit": true,
          "luaDataPath": "",
          "resPath": "ART/Cutscene/Cs_Sumeru_AQ_30280801_BF_Convert",
          "castListPath": "Cs_CastList_Q30280801",
          "entityBan": "",
          "needYEuler": true,
          "clearAvatarLocalGadget": true,
          "syncLoad": true,
          "fadeInDuration": 0.5,
          "fadeOutDuration": 0.5,
          "forceGC": false
        },
        "cutsceneIndex": 30280801
      }
    ]
  ]
}