{
  "luaDataPath": "",
  "entityBan": "",
  "group": [
    [
      {
        "$type": "MDBBLNPOGKI",
        "type": "CUTSCENE",
        "cutsceneCfg": {
          "$type": "JPPMJNBHBMF",
          "KPGKDHAFHFE": "TIME_LINE_PREFAB",
          "luaDataPath": "",
          "resPath": "ART/Cutscene/Cs_WQ7303705_Battle_Convert",
          "castListPath": "Cs_CastList_Q001xm",
          "entityBan": "",
          "needYEuler": true,
          "fadeInDuration": 0.0
        }
      }
    ]
  ]
}