{
  "luaDataPath": "",
  "entityBan": "",
  "group": [
    [
      {
        "$type": "MDBBLNPOGKI",
        "type": "CUTSCENE",
        "cutsceneCfg": {
          "$type": "JPPMJNBHBMF",
          "KPGKDHAFHFE": "TIME_LINE_PREFAB",
          "luaDataPath": "",
          "resPath": "ART/Cutscene/Cs_Scene_XM_SFKSunlocked03",
          "castListPath": "",
          "entityBan": "",
          "needYEuler": true,
          "fadeInDuration": 0.5,
          "fadeOutDuration": 0.5
        }
      }
    ]
  ]
}