{
  "luaDataPath": "",
  "startBlackKeepTime": 0.5,
  "entityBan": "",
  "disableNpcLod": true,
  "protectNpcMobileLod": true,
  "talkFlag": 7,
  "startFade": {
    "startFadeInDuration": 0.5,
    "startFadeOutDuration": 0.5
  },
  "endFade": {
    "startFadeOutDuration": 0.0
  },
  "actors": [
    {
      "alias": "Avatar",
      "visible": true,
      "bornPointName": "Q1200701LetterPosOutPlayer",
      "relativePosType": "AVATAR_NEW",
      "relativePosNpcAlias": "",
      "_notDestroyInTalk": true,
      "_bindMovingTargetKey": ""
    },
    {
      "configID": 1005,
      "alias": "1005",
      "visible": true,
      "bornPointName": "Q1200701LetterPosOutPaimon",
      "relativePosType": "AVATAR_NEW",
      "relativePosNpcAlias": "",
      "_notDestroyInTalk": true,
      "_bindMovingTargetKey": ""
    },
    {
      "configID": 1013,
      "alias": "1013",
      "visible": true,
      "bornPointName": "Q1200701LetterPosOutPlayer",
      "relativePos": {
        "x": -3316.52001953125,
        "y": 200.15899658203125,
        "z": -4447.09814453125
      },
      "relativeRot": {
        "y": 172.2030029296875
      },
      "relativePosType": "AVATAR_NEW",
      "relativePosNpcAlias": "",
      "_notDestroyInTalk": true,
      "_bindMovingTargetKey": "",
      "notDestroyInTalk": true
    }
  ],
  "group": [
    [
      {
        "$type": "MoleMole.Config.ConfigBlackScreenAction",
        "type": "BLACK_SCREEN",
        "actionId": 117,
        "_flag": 2048,
        "blackScreenType": "KEEP_BLACK",
        "durationKeepBlack": 0.5,
        "inteePos": "",
        "textMapID": ""
      },
      {
        "$type": "MoleMole.Config.ConfigTeleportToAction",
        "type": "TELEPORT_TO",
        "aliasList": [
          "Avatar"
        ],
        "actionId": 147,
        "position": {
          "x": -3317.512939453125,
          "y": 200.08200073242188,
          "z": -4446.89599609375
        },
        "forward": {
          "x": 0.22499999403953552,
          "z": -0.9739999771118164
        },
        "_posBindMovingTargetKey": "",
        "_forwardBindMovingTargetKey": ""
      },
      {
        "$type": "EDCHPJLDKIN",
        "type": "BODY_LANG",
        "aliasList": [
          "Avatar"
        ],
        "actionId": 148,
        "_flag": 131072,
        "bodyLangParam": 1230,
        "forceDoFreeStyle": true,
        "canDoRepeatFreeStyle": false,
        "eventPatternSuiteKey": ""
      },
      {
        "$type": "NPCNMEOCADD",
        "type": "LOOK_AT",
        "aliasList": [
          "Avatar"
        ],
        "actionId": 149,
        "_flag": 64,
        "enableHead": true,
        "useTargetPos": true,
        "enableAbsolute": true,
        "targetPosition": {
          "x": -3317.052001953125,
          "y": 201.85000610351562,
          "z": -4449.1630859375
        },
        "headTurnTime": 0.5,
        "targetNpcAlias": "",
        "targetNpcLookAtPoint": "",
        "BHGPHGNFCBF": ""
      },
      {
        "$type": "MoleMole.Config.ConfigTeleportToAction",
        "type": "TELEPORT_TO",
        "aliasList": [
          "1005"
        ],
        "actionId": 166,
        "position": {
          "x": -3318.4140625,
          "y": 200.06300354003906,
          "z": -4447.908203125
        },
        "forward": {
          "x": 0.23899999260902405,
          "z": -0.9710000157356262
        },
        "_posBindMovingTargetKey": "",
        "_forwardBindMovingTargetKey": ""
      },
      {
        "$type": "NPCNMEOCADD",
        "type": "LOOK_AT",
        "aliasList": [
          "1005"
        ],
        "actionId": 167,
        "_flag": 64,
        "enableHead": true,
        "useTargetPos": true,
        "enableAbsolute": true,
        "targetPosition": {
          "x": -3316.763916015625,
          "y": 201.85000610351562,
          "z": -4451.30322265625
        },
        "headTurnTime": 0.5,
        "targetNpcAlias": "",
        "targetNpcLookAtPoint": "",
        "BHGPHGNFCBF": ""
      },
      {
        "$type": "MoleMole.Config.ConfigTeleportToAction",
        "type": "TELEPORT_TO",
        "aliasList": [
          "1013"
        ],
        "actionId": 210,
        "position": {
          "x": -3316.52001953125,
          "y": 200.15899658203125,
          "z": -4447.09814453125
        },
        "forward": {
          "x": 0.13600000739097595,
          "z": -0.9909999966621399
        },
        "_posBindMovingTargetKey": "",
        "_forwardBindMovingTargetKey": ""
      },
      {
        "$type": "EDCHPJLDKIN",
        "type": "BODY_LANG",
        "aliasList": [
          "1013"
        ],
        "actionId": 211,
        "_flag": 131072,
        "bodyLangParam": 1120,
        "forceDoFreeStyle": true,
        "canDoRepeatFreeStyle": false,
        "eventPatternSuiteKey": ""
      },
      {
        "$type": "NPCNMEOCADD",
        "type": "LOOK_AT",
        "aliasList": [
          "1013"
        ],
        "actionId": 212,
        "_flag": 64,
        "enableHead": true,
        "useTargetPos": true,
        "enableAbsolute": true,
        "targetPosition": {
          "x": -3311.6640625,
          "y": 202.76600646972656,
          "z": -4454.97021484375
        },
        "headTurnTime": 0.5,
        "targetNpcAlias": "",
        "targetNpcLookAtPoint": "",
        "BHGPHGNFCBF": ""
      }
    ],
    [
      {
        "$type": "MoleMole.Config.ConfigBlackScreenAction",
        "type": "BLACK_SCREEN",
        "actionId": 118,
        "_flag": 2048,
        "blackScreenType": "FROM_BLACK",
        "durationFromBlack": 0.5,
        "inteePos": "",
        "textMapID": ""
      },
      {
        "$type": "EFHODGEJOHJ",
        "type": "CAMERA_MOVE",
        "delayTime": 0.0729999989271164,
        "duration": 14.689000129699707,
        "actionId": 119,
        "camPosOffset": {
          "x": -3304.43994140625,
          "y": 208.86099243164062,
          "z": -4457.81396484375
        },
        "camForwardTargetOffset": {
          "x": -3305.1640625,
          "y": 208.3820037841797,
          "z": -4457.31787109375
        },
        "camFov": 30.0,
        "cameraBlendType": "EaseOutQuad",
        "openCameraDither": false,
        "targetNpcAlias": "",
        "PHGBNNGCJKJ": "",
        "NFILMKCFHEB": "",
        "BGPNGHDAECF": ""
      },
      {
        "$type": "EFHODGEJOHJ",
        "type": "CAMERA_MOVE",
        "duration": 0.10000000149011612,
        "actionId": 120,
        "camPosOffset": {
          "x": -3302.31494140625,
          "y": 209.0,
          "z": -4455.89794921875
        },
        "camForwardTargetOffset": {
          "x": -3303.1240234375,
          "y": 208.531005859375,
          "z": -4455.54296875
        },
        "camFov": 30.0,
        "lerpPattern": 6,
        "cameraBlendType": "EaseInOutCubic",
        "openCameraDither": false,
        "targetNpcAlias": "",
        "PHGBNNGCJKJ": "",
        "NFILMKCFHEB": "",
        "BGPNGHDAECF": ""
      },
      {
        "$type": "MoleMole.Config.ConfigTimeProtectAction",
        "type": "TIME_PROTECT",
        "duration": 1.4759999513626099,
        "actionId": 121
      },
      {
        "$type": "MJFAIFFAGOF",
        "type": "DIALOG",
        "delayTime": 1.2869999408721924,
        "aliasList": [
          "1005"
        ],
        "actionId": 168,
        "dialogID": 120070101,
        "protectTime": 1.5
      },
      {
        "$type": "ICHLNKHGCAG",
        "type": "EMO_SYNC",
        "delayTime": 1.2869999408721924,
        "aliasList": [
          "1005"
        ],
        "actionId": 169,
        "_flag": 256,
        "dataPath": "Cs_Emo_Avatar_Simple_Common_Set/Cs_Emo_Avatar_Talk/Cs_Emo_Avatar_PersonalLine/Cs_Emo_Avatar_Ayaka/Cs_Emo_120070101",
        "phonemePath": "",
        "emotionPath": "",
        "mateDataPath": "",
        "matePhonemePath": "",
        "mateEmotionPath": "",
        "dataPathHashList": [
          16212062791897552985,
          3178790934731203068,
          13946391173329026642,
          16687939661902213703
        ],
        "PACNIGOOENN": "",
        "PIBDNPHIAGC": ""
      },
      {
        "$type": "EDCHPJLDKIN",
        "type": "BODY_LANG",
        "aliasList": [
          "1013"
        ],
        "actionId": 213,
        "_flag": 131072,
        "isContinue": true,
        "forceDoFreeStyle": true,
        "canDoRepeatFreeStyle": false,
        "eventPatternSuiteKey": ""
      }
    ],
    [
      {
        "$type": "EFHODGEJOHJ",
        "type": "CAMERA_MOVE",
        "delayTime": 3.2920000553131104,
        "duration": 0.10000000149011612,
        "actionId": 122,
        "camPosOffset": {
          "x": -3315.489990234375,
          "y": 201.5489959716797,
          "z": -4447.1728515625
        },
        "camForwardTargetOffset": {
          "x": -3316.47998046875,
          "y": 201.47000122070312,
          "z": -4447.291015625
        },
        "camFov": 20.0,
        "lerpPattern": 6,
        "cameraBlendType": "EaseInOutCubic",
        "openCameraDither": false,
        "targetNpcAlias": "",
        "PHGBNNGCJKJ": "",
        "NFILMKCFHEB": "",
        "BGPNGHDAECF": ""
      },
      {
        "$type": "EFHODGEJOHJ",
        "type": "CAMERA_MOVE",
        "duration": 0.10000000149011612,
        "actionId": 123,
        "camPosOffset": {
          "x": -3318.5400390625,
          "y": 201.4499969482422,
          "z": -4449.0322265625
        },
        "camForwardTargetOffset": {
          "x": -3318.423095703125,
          "y": 201.33099365234375,
          "z": -4448.044921875
        },
        "camFov": 20.0,
        "lerpPattern": 6,
        "cameraBlendType": "EaseInOutCubic",
        "openCameraDither": false,
        "targetNpcAlias": "",
        "PHGBNNGCJKJ": "",
        "NFILMKCFHEB": "",
        "BGPNGHDAECF": ""
      },
      {
        "$type": "MJFAIFFAGOF",
        "type": "DIALOG",
        "aliasList": [
          "1005"
        ],
        "actionId": 170,
        "dialogID": 120070102,
        "protectTime": 0.5
      },
      {
        "$type": "EDCHPJLDKIN",
        "type": "BODY_LANG",
        "aliasList": [
          "1005"
        ],
        "actionId": 171,
        "_flag": 131072,
        "bodyLangParam": 1100,
        "forceDoFreeStyle": true,
        "canDoRepeatFreeStyle": false,
        "eventPatternSuiteKey": ""
      },
      {
        "$type": "EDCHPJLDKIN",
        "type": "BODY_LANG",
        "delayTime": 4.064000129699707,
        "aliasList": [
          "1005"
        ],
        "actionId": 172,
        "_flag": 131072,
        "bodyLangParam": 1110,
        "forceDoFreeStyle": true,
        "canDoRepeatFreeStyle": false,
        "eventPatternSuiteKey": ""
      },
      {
        "$type": "EDCHPJLDKIN",
        "type": "BODY_LANG",
        "delayTime": 5.590000152587891,
        "aliasList": [
          "1005"
        ],
        "actionId": 173,
        "_flag": 131072,
        "isContinue": true,
        "forceDoFreeStyle": true,
        "canDoRepeatFreeStyle": false,
        "eventPatternSuiteKey": ""
      },
      {
        "$type": "NPCNMEOCADD",
        "type": "LOOK_AT",
        "delayTime": 3.8610000610351562,
        "aliasList": [
          "1005"
        ],
        "actionId": 174,
        "_flag": 64,
        "enableHead": true,
        "useTargetPos": true,
        "enableAbsolute": true,
        "targetPosition": {
          "x": -3316.65087890625,
          "y": 201.4980010986328,
          "z": -4447.27880859375
        },
        "headTurnTime": 0.30000001192092896,
        "targetNpcAlias": "",
        "targetNpcLookAtPoint": "",
        "BHGPHGNFCBF": ""
      },
      {
        "$type": "NPCNMEOCADD",
        "type": "LOOK_AT",
        "aliasList": [
          "1005"
        ],
        "actionId": 175,
        "_flag": 64,
        "enableHead": true,
        "useTargetPos": true,
        "enableAbsolute": true,
        "targetPosition": {
          "x": -3316.763916015625,
          "y": 201.1479949951172,
          "z": -4451.30322265625
        },
        "headTurnTime": 0.5,
        "targetNpcAlias": "",
        "targetNpcLookAtPoint": "",
        "BHGPHGNFCBF": ""
      },
      {
        "$type": "IEKHMHNHENB",
        "type": "STEER_TO",
        "delayTime": 3.062000036239624,
        "duration": 0.800000011920929,
        "aliasList": [
          "1005"
        ],
        "actionId": 176,
        "_flag": 32,
        "steerType": "ABSOLUTE",
        "steerDir": {
          "x": -3317.4580078125,
          "y": 200.06300354003906,
          "z": -4447.5048828125
        },
        "useSteerAnim": true,
        "targetNpcAlias": "",
        "fixInterNull": true,
        "BHGPHGNFCBF": ""
      },
      {
        "$type": "NPCNMEOCADD",
        "type": "LOOK_AT",
        "delayTime": 2.9839999675750732,
        "aliasList": [
          "1005"
        ],
        "actionId": 177,
        "_flag": 64,
        "enableHead": true,
        "useTargetPos": true,
        "enableAbsolute": true,
        "targetPosition": {
          "x": -3316.5400390625,
          "y": 201.85000610351562,
          "z": -4447.85107421875
        },
        "headTurnTime": 0.5,
        "targetNpcAlias": "",
        "targetNpcLookAtPoint": "",
        "BHGPHGNFCBF": ""
      },
      {
        "$type": "ICHLNKHGCAG",
        "type": "EMO_SYNC",
        "aliasList": [
          "1005"
        ],
        "actionId": 178,
        "_flag": 320,
        "dataPath": "Cs_Emo_Avatar_Simple_Common_Set/Cs_Emo_Avatar_Talk/Cs_Emo_Avatar_PersonalLine/Cs_Emo_Avatar_Ayaka/Cs_Emo_120070102",
        "phonemePath": "",
        "emotionPath": "",
        "mateDataPath": "",
        "matePhonemePath": "",
        "mateEmotionPath": "",
        "dataPathHashList": [
          5563853910343629469,
          15922519265071546589,
          16687203498485567157,
          11517104579838871452
        ],
        "PACNIGOOENN": "",
        "PIBDNPHIAGC": ""
      },
      {
        "$type": "EDCHPJLDKIN",
        "type": "BODY_LANG",
        "aliasList": [
          "1013"
        ],
        "actionId": 214,
        "_flag": 131072,
        "isContinue": true,
        "forceDoFreeStyle": true,
        "canDoRepeatFreeStyle": false,
        "eventPatternSuiteKey": ""
      }
    ],
    [
      {
        "$type": "EFHODGEJOHJ",
        "type": "CAMERA_MOVE",
        "duration": 0.10000000149011612,
        "actionId": 124,
        "camPosOffset": {
          "x": -3317.277099609375,
          "y": 201.38900756835938,
          "z": -4447.9921875
        },
        "camForwardTargetOffset": {
          "x": -3316.680908203125,
          "y": 201.4409942626953,
          "z": -4447.18994140625
        },
        "camFov": 30.0,
        "lerpPattern": 6,
        "cameraBlendType": "EaseInOutCubic",
        "openCameraDither": false,
        "targetNpcAlias": "",
        "PHGBNNGCJKJ": "",
        "NFILMKCFHEB": "",
        "BGPNGHDAECF": ""
      },
      {
        "$type": "IEKHMHNHENB",
        "type": "STEER_TO",
        "duration": 0.800000011920929,
        "aliasList": [
          "1005"
        ],
        "actionId": 179,
        "_flag": 32,
        "steerType": "ABSOLUTE",
        "steerDir": {
          "x": -3317.4580078125,
          "y": 200.06300354003906,
          "z": -4447.5048828125
        },
        "useSteerAnim": true,
        "targetNpcAlias": "",
        "fixInterNull": true,
        "BHGPHGNFCBF": ""
      },
      {
        "$type": "NPCNMEOCADD",
        "type": "LOOK_AT",
        "aliasList": [
          "1005"
        ],
        "actionId": 180,
        "_flag": 64,
        "enableHead": true,
        "useTargetPos": true,
        "enableAbsolute": true,
        "targetPosition": {
          "x": -3316.5400390625,
          "y": 201.85000610351562,
          "z": -4447.85107421875
        },
        "headTurnTime": 0.5,
        "targetNpcAlias": "",
        "targetNpcLookAtPoint": "",
        "BHGPHGNFCBF": ""
      },
      {
        "$type": "NPCNMEOCADD",
        "type": "LOOK_AT",
        "delayTime": 0.7630000114440918,
        "aliasList": [
          "1005"
        ],
        "actionId": 181,
        "_flag": 64,
        "enableHead": true,
        "useTargetPos": true,
        "enableAbsolute": true,
        "targetPosition": {
          "x": -3316.65087890625,
          "y": 201.4980010986328,
          "z": -4447.27880859375
        },
        "headTurnTime": 0.30000001192092896,
        "targetNpcAlias": "",
        "targetNpcLookAtPoint": "",
        "BHGPHGNFCBF": ""
      },
      {
        "$type": "MJFAIFFAGOF",
        "type": "DIALOG",
        "aliasList": [
          "1013"
        ],
        "actionId": 215,
        "dialogID": 120070103,
        "protectTime": 1.5
      },
      {
        "$type": "IEKHMHNHENB",
        "type": "STEER_TO",
        "duration": 0.800000011920929,
        "aliasList": [
          "1013"
        ],
        "actionId": 216,
        "_flag": 32,
        "steerType": "ABSOLUTE",
        "steerDir": {
          "x": -3317.64990234375,
          "y": 200.15899658203125,
          "z": -4447.58203125
        },
        "useSteerAnim": true,
        "targetNpcAlias": "",
        "fixInterNull": true,
        "BHGPHGNFCBF": ""
      },
      {
        "$type": "NPCNMEOCADD",
        "type": "LOOK_AT",
        "delayTime": 0.7979999780654907,
        "aliasList": [
          "1013"
        ],
        "actionId": 217,
        "_flag": 64,
        "enableHead": true,
        "useTargetPos": true,
        "enableAbsolute": true,
        "targetPosition": {
          "x": -3318.152099609375,
          "y": 201.3249969482422,
          "z": -4447.80810546875
        },
        "headTurnTime": 0.30000001192092896,
        "targetNpcAlias": "",
        "targetNpcLookAtPoint": "",
        "BHGPHGNFCBF": ""
      },
      {
        "$type": "NPCNMEOCADD",
        "type": "LOOK_AT",
        "aliasList": [
          "1013"
        ],
        "actionId": 218,
        "_flag": 64,
        "enableHead": true,
        "useTargetPos": true,
        "enableAbsolute": true,
        "targetPosition": {
          "x": -3318.155029296875,
          "y": 201.40499877929688,
          "z": -4447.841796875
        },
        "headTurnTime": 0.5,
        "targetNpcAlias": "",
        "targetNpcLookAtPoint": "",
        "BHGPHGNFCBF": ""
      },
      {
        "$type": "EDCHPJLDKIN",
        "type": "BODY_LANG",
        "delayTime": 1.2860000133514404,
        "aliasList": [
          "1013"
        ],
        "actionId": 219,
        "_flag": 131072,
        "bodyLangParam": 1130,
        "forceDoFreeStyle": true,
        "canDoRepeatFreeStyle": false,
        "eventPatternSuiteKey": ""
      },
      {
        "$type": "ICHLNKHGCAG",
        "type": "EMO_SYNC",
        "aliasList": [
          "1013"
        ],
        "actionId": 220,
        "_flag": 256,
        "dataPath": "Cs_Emo_Avatar_Simple_Common_Set/Cs_Emo_Avatar_Talk/Cs_Emo_Avatar_PersonalLine/Cs_Emo_Avatar_Ayaka/Cs_Emo_120070103",
        "phonemePath": "",
        "emotionPath": "",
        "mateDataPath": "",
        "matePhonemePath": "",
        "mateEmotionPath": "",
        "dataPathHashList": [
          17109870925457368190,
          11733344593744485040,
          8583265997882356767,
          15435858797490309219
        ],
        "PACNIGOOENN": "",
        "PIBDNPHIAGC": ""
      }
    ],
    [
      {
        "$type": "EFHODGEJOHJ",
        "type": "CAMERA_MOVE",
        "delayTime": 0.972000002861023,
        "duration": 14.619000434875488,
        "actionId": 125,
        "camPosOffset": {
          "x": -3321.574951171875,
          "y": 201.7030029296875,
          "z": -4441.98779296875
        },
        "camForwardTargetOffset": {
          "x": -3321.14794921875,
          "y": 201.8000030517578,
          "z": -4442.88720703125
        },
        "camFov": 40.0,
        "cameraBlendType": "EaseOutQuad",
        "openCameraDither": false,
        "targetNpcAlias": "",
        "PHGBNNGCJKJ": "",
        "NFILMKCFHEB": "",
        "BGPNGHDAECF": ""
      },
      {
        "$type": "EFHODGEJOHJ",
        "type": "CAMERA_MOVE",
        "delayTime": 0.8840000033378601,
        "duration": 0.10000000149011612,
        "actionId": 126,
        "camPosOffset": {
          "x": -3322.1201171875,
          "y": 201.75,
          "z": -4441.56884765625
        },
        "camForwardTargetOffset": {
          "x": -3321.637939453125,
          "y": 201.79400634765625,
          "z": -4442.44384765625
        },
        "camFov": 40.0,
        "lerpPattern": 6,
        "cameraBlendType": "EaseInOutCubic",
        "openCameraDither": false,
        "targetNpcAlias": "",
        "PHGBNNGCJKJ": "",
        "NFILMKCFHEB": "",
        "BGPNGHDAECF": ""
      },
      {
        "$type": "OBCDECFOOBC",
        "type": "DIALOG_SELECT",
        "delayTime": 1.5,
        "aliasList": [
          "Avatar"
        ],
        "actionId": 150,
        "dialogIDList": [
          120070105,
          120070106
        ],
        "grpIDList": [
          478805985,
          478805985
        ],
        "useGrpId": true,
        "countDownGrpId": 478805979
      },
      {
        "$type": "EDCHPJLDKIN",
        "type": "BODY_LANG",
        "aliasList": [
          "Avatar"
        ],
        "actionId": 151,
        "_flag": 131072,
        "isContinue": true,
        "forceDoFreeStyle": true,
        "canDoRepeatFreeStyle": false,
        "eventPatternSuiteKey": ""
      },
      {
        "$type": "NPCNMEOCADD",
        "type": "LOOK_AT",
        "aliasList": [
          "1005"
        ],
        "actionId": 182,
        "_flag": 64,
        "enableHead": true,
        "useTargetPos": true,
        "enableAbsolute": true,
        "targetPosition": {
          "x": -3316.887939453125,
          "y": 202.3249969482422,
          "z": -4451.490234375
        },
        "headTurnTime": 0.4000000059604645,
        "targetNpcAlias": "",
        "targetNpcLookAtPoint": "",
        "BHGPHGNFCBF": ""
      },
      {
        "$type": "MoleMole.Config.ConfigTeleportToAction",
        "type": "TELEPORT_TO",
        "aliasList": [
          "1005"
        ],
        "actionId": 183,
        "position": {
          "x": -3318.14501953125,
          "y": 200.06300354003906,
          "z": -4447.9248046875
        },
        "forward": {
          "x": 1.0950000286102295,
          "z": -0.652999997138977
        },
        "_posBindMovingTargetKey": "",
        "_forwardBindMovingTargetKey": ""
      },
      {
        "$type": "MJFAIFFAGOF",
        "type": "DIALOG",
        "aliasList": [
          "1013"
        ],
        "actionId": 221,
        "dialogID": 120070104,
        "protectTime": 1.5
      },
      {
        "$type": "EDCHPJLDKIN",
        "type": "BODY_LANG",
        "aliasList": [
          "1013"
        ],
        "actionId": 222,
        "_flag": 131072,
        "isContinue": true,
        "forceDoFreeStyle": true,
        "canDoRepeatFreeStyle": false,
        "eventPatternSuiteKey": ""
      },
      {
        "$type": "NPCNMEOCADD",
        "type": "LOOK_AT",
        "delayTime": 0.5379999876022339,
        "aliasList": [
          "1013"
        ],
        "actionId": 223,
        "_flag": 64,
        "enableHead": true,
        "useTargetPos": true,
        "enableAbsolute": true,
        "targetPosition": {
          "x": -3318.264892578125,
          "y": 202.13699340820312,
          "z": -4451.18505859375
        },
        "headTurnTime": 0.5,
        "targetNpcAlias": "",
        "targetNpcLookAtPoint": "",
        "BHGPHGNFCBF": ""
      },
      {
        "$type": "NPCNMEOCADD",
        "type": "LOOK_AT",
        "aliasList": [
          "1013"
        ],
        "actionId": 224,
        "_flag": 64,
        "enableHead": true,
        "useTargetPos": true,
        "enableAbsolute": true,
        "targetPosition": {
          "x": -3318.152099609375,
          "y": 201.4770050048828,
          "z": -4447.80810546875
        },
        "headTurnTime": 0.4000000059604645,
        "targetNpcAlias": "",
        "targetNpcLookAtPoint": "",
        "BHGPHGNFCBF": ""
      },
      {
        "$type": "ICHLNKHGCAG",
        "type": "EMO_SYNC",
        "aliasList": [
          "1013"
        ],
        "actionId": 225,
        "_flag": 256,
        "dataPath": "Cs_Emo_Avatar_Simple_Common_Set/Cs_Emo_Avatar_Talk/Cs_Emo_Avatar_PersonalLine/Cs_Emo_Avatar_Ayaka/Cs_Emo_120070104",
        "phonemePath": "",
        "emotionPath": "",
        "mateDataPath": "",
        "matePhonemePath": "",
        "mateEmotionPath": "",
        "dataPathHashList": [
          12283125035193924640,
          13537445589467478429,
          13527160316991143138,
          17870355982465122613
        ],
        "PACNIGOOENN": "",
        "PIBDNPHIAGC": ""
      }
    ],
    [
      {
        "$type": "EFHODGEJOHJ",
        "type": "CAMERA_MOVE",
        "delayTime": 0.07100000232458115,
        "duration": 8.890999794006348,
        "actionId": 127,
        "camPosOffset": {
          "x": -3317.117919921875,
          "y": 201.62100219726562,
          "z": -4446.453125
        },
        "camForwardTargetOffset": {
          "x": -3316.54296875,
          "y": 201.47900390625,
          "z": -4447.2578125
        },
        "camFov": 30.0,
        "cameraBlendType": "EaseOutQuad",
        "openCameraDither": false,
        "targetNpcAlias": "",
        "PHGBNNGCJKJ": "",
        "NFILMKCFHEB": "",
        "BGPNGHDAECF": ""
      },
      {
        "$type": "EFHODGEJOHJ",
        "type": "CAMERA_MOVE",
        "duration": 0.10000000149011612,
        "actionId": 128,
        "camPosOffset": {
          "x": -3317.220947265625,
          "y": 201.6999969482422,
          "z": -4446.5068359375
        },
        "camForwardTargetOffset": {
          "x": -3316.556884765625,
          "y": 201.4810028076172,
          "z": -4447.22216796875
        },
        "camFov": 30.0,
        "lerpPattern": 6,
        "cameraBlendType": "EaseInOutCubic",
        "openCameraDither": false,
        "targetNpcAlias": "",
        "PHGBNNGCJKJ": "",
        "NFILMKCFHEB": "",
        "BGPNGHDAECF": ""
      },
      {
        "$type": "MoleMole.Config.ConfigTeleportToAction",
        "type": "TELEPORT_TO",
        "aliasList": [
          "1005"
        ],
        "actionId": 184,
        "position": {
          "x": -3318.14501953125,
          "y": 200.0500030517578,
          "z": -4447.9248046875
        },
        "forward": {
          "x": 1.149999976158142,
          "z": 0.03700000047683716
        },
        "_posBindMovingTargetKey": "",
        "_forwardBindMovingTargetKey": ""
      },
      {
        "$type": "MJFAIFFAGOF",
        "type": "DIALOG",
        "aliasList": [
          "1013"
        ],
        "actionId": 226,
        "dialogID": 120070107,
        "protectTime": 0.5
      },
      {
        "$type": "EDCHPJLDKIN",
        "type": "BODY_LANG",
        "aliasList": [
          "1013"
        ],
        "actionId": 227,
        "_flag": 131072,
        "bodyLangParam": 1240,
        "forceDoFreeStyle": true,
        "canDoRepeatFreeStyle": false,
        "eventPatternSuiteKey": ""
      },
      {
        "$type": "NPCNMEOCADD",
        "type": "LOOK_AT",
        "aliasList": [
          "1013"
        ],
        "actionId": 228,
        "_flag": 64,
        "enableHead": true,
        "useTargetPos": true,
        "enableAbsolute": true,
        "targetPosition": {
          "x": -3320.3720703125,
          "y": 202.13699340820312,
          "z": -4449.72119140625
        },
        "headTurnTime": 0.5,
        "targetNpcAlias": "",
        "targetNpcLookAtPoint": "",
        "BHGPHGNFCBF": ""
      },
      {
        "$type": "ICHLNKHGCAG",
        "type": "EMO_SYNC",
        "aliasList": [
          "1013"
        ],
        "actionId": 229,
        "_flag": 256,
        "dataPath": "Cs_Emo_Avatar_Simple_Common_Set/Cs_Emo_Avatar_Talk/Cs_Emo_Avatar_PersonalLine/Cs_Emo_Avatar_Ayaka/Cs_Emo_120070107",
        "phonemePath": "",
        "emotionPath": "",
        "mateDataPath": "",
        "matePhonemePath": "",
        "mateEmotionPath": "",
        "enableBlink": false,
        "dataPathHashList": [
          9798121247143163055,
          866900931809237750,
          8034406653188530837,
          7759463121205618925
        ],
        "PACNIGOOENN": "",
        "PIBDNPHIAGC": ""
      }
    ],
    [
      {
        "$type": "EFHODGEJOHJ",
        "type": "CAMERA_MOVE",
        "delayTime": 0.05700000002980232,
        "duration": 8.619999885559082,
        "actionId": 129,
        "camPosOffset": {
          "x": -3319.001953125,
          "y": 201.53599548339844,
          "z": -4447.93505859375
        },
        "camForwardTargetOffset": {
          "x": -3318.056884765625,
          "y": 201.45899963378906,
          "z": -4447.6171875
        },
        "camFov": 30.0,
        "cameraBlendType": "EaseOutQuad",
        "openCameraDither": false,
        "targetNpcAlias": "",
        "PHGBNNGCJKJ": "",
        "NFILMKCFHEB": "",
        "BGPNGHDAECF": ""
      },
      {
        "$type": "EFHODGEJOHJ",
        "type": "CAMERA_MOVE",
        "duration": 0.10000000149011612,
        "actionId": 130,
        "camPosOffset": {
          "x": -3318.865966796875,
          "y": 201.52499389648438,
          "z": -4447.88916015625
        },
        "camForwardTargetOffset": {
          "x": -3317.9208984375,
          "y": 201.447998046875,
          "z": -4447.57080078125
        },
        "camFov": 30.0,
        "lerpPattern": 6,
        "cameraBlendType": "EaseInOutCubic",
        "openCameraDither": false,
        "targetNpcAlias": "",
        "PHGBNNGCJKJ": "",
        "NFILMKCFHEB": "",
        "BGPNGHDAECF": ""
      },
      {
        "$type": "NPCNMEOCADD",
        "type": "LOOK_AT",
        "delayTime": 0.20800000429153442,
        "aliasList": [
          "Avatar"
        ],
        "actionId": 152,
        "_flag": 64,
        "enableHead": true,
        "useTargetPos": true,
        "enableAbsolute": true,
        "targetPosition": {
          "x": -3316.534912109375,
          "y": 201.52099609375,
          "z": -4447.1669921875
        },
        "headTurnTime": 0.4000000059604645,
        "targetNpcAlias": "",
        "targetNpcLookAtPoint": "",
        "BHGPHGNFCBF": ""
      },
      {
        "$type": "NPCNMEOCADD",
        "type": "LOOK_AT",
        "aliasList": [
          "1005"
        ],
        "actionId": 185,
        "_flag": 64,
        "enableHead": true,
        "useTargetPos": true,
        "enableAbsolute": true,
        "targetPosition": {
          "x": -3316.534912109375,
          "y": 201.52099609375,
          "z": -4447.1669921875
        },
        "headTurnTime": 0.4000000059604645,
        "targetNpcAlias": "",
        "targetNpcLookAtPoint": "",
        "BHGPHGNFCBF": ""
      },
      {
        "$type": "MJFAIFFAGOF",
        "type": "DIALOG",
        "aliasList": [
          "1013"
        ],
        "actionId": 230,
        "dialogID": 120070108,
        "protectTime": 0.5
      },
      {
        "$type": "EDCHPJLDKIN",
        "type": "BODY_LANG",
        "aliasList": [
          "1013"
        ],
        "actionId": 231,
        "_flag": 131072,
        "isContinue": true,
        "forceDoFreeStyle": true,
        "canDoRepeatFreeStyle": false,
        "eventPatternSuiteKey": ""
      },
      {
        "$type": "EDCHPJLDKIN",
        "type": "BODY_LANG",
        "delayTime": 3.2130000591278076,
        "aliasList": [
          "1013"
        ],
        "actionId": 232,
        "_flag": 131072,
        "bodyLangParam": 1130,
        "forceDoFreeStyle": true,
        "canDoRepeatFreeStyle": false,
        "eventPatternSuiteKey": ""
      },
      {
        "$type": "EDCHPJLDKIN",
        "type": "BODY_LANG",
        "delayTime": 0.5260000228881836,
        "aliasList": [
          "1013"
        ],
        "actionId": 233,
        "_flag": 131072,
        "bodyLangParam": 1172,
        "forceDoFreeStyle": true,
        "canDoRepeatFreeStyle": false,
        "eventPatternSuiteKey": ""
      },
      {
        "$type": "EDCHPJLDKIN",
        "type": "BODY_LANG",
        "delayTime": 5.02400016784668,
        "aliasList": [
          "1013"
        ],
        "actionId": 234,
        "_flag": 131072,
        "isContinue": true,
        "forceDoFreeStyle": true,
        "canDoRepeatFreeStyle": false,
        "eventPatternSuiteKey": ""
      },
      {
        "$type": "NPCNMEOCADD",
        "type": "LOOK_AT",
        "delayTime": 2.990999937057495,
        "aliasList": [
          "1013"
        ],
        "actionId": 235,
        "_flag": 64,
        "enableHead": true,
        "useTargetPos": true,
        "enableAbsolute": true,
        "targetPosition": {
          "x": -3317.944091796875,
          "y": 201.3520050048828,
          "z": -4447.7080078125
        },
        "headTurnTime": 0.5,
        "targetNpcAlias": "",
        "targetNpcLookAtPoint": "",
        "BHGPHGNFCBF": ""
      },
      {
        "$type": "NPCNMEOCADD",
        "type": "LOOK_AT",
        "aliasList": [
          "1013"
        ],
        "actionId": 236,
        "_flag": 64,
        "enableHead": true,
        "useTargetPos": true,
        "enableAbsolute": true,
        "targetPosition": {
          "x": -3317.681884765625,
          "y": 201.3249969482422,
          "z": -4447.0791015625
        },
        "headTurnTime": 0.5,
        "targetNpcAlias": "",
        "targetNpcLookAtPoint": "",
        "BHGPHGNFCBF": ""
      },
      {
        "$type": "HGDDIPABPCA",
        "type": "LOOK_AT_EYECTRL",
        "delayTime": 3.1089999675750732,
        "aliasList": [
          "1013"
        ],
        "actionId": 237,
        "_flag": 4672,
        "useTargetPos": false,
        "eyeRotateVecLeft": {
          "x": -2.0
        },
        "eyeRotateVecRight": {
          "x": -2.0
        },
        "turnTime": 0.30000001192092896,
        "targetNpcAlias": "",
        "targetPoint": "Face"
      },
      {
        "$type": "HGDDIPABPCA",
        "type": "LOOK_AT_EYECTRL",
        "aliasList": [
          "1013"
        ],
        "actionId": 238,
        "_flag": 4672,
        "useTargetPos": false,
        "eyeRotateVecLeft": {
          "x": 2.0
        },
        "eyeRotateVecRight": {
          "x": 2.0
        },
        "turnTime": 0.30000001192092896,
        "targetNpcAlias": "",
        "targetPoint": "Face"
      },
      {
        "$type": "ICHLNKHGCAG",
        "type": "EMO_SYNC",
        "aliasList": [
          "1013"
        ],
        "actionId": 239,
        "_flag": 320,
        "dataPath": "Cs_Emo_Avatar_Simple_Common_Set/Cs_Emo_Avatar_Talk/Cs_Emo_Avatar_PersonalLine/Cs_Emo_Avatar_Ayaka/Cs_Emo_120070108",
        "phonemePath": "",
        "emotionPath": "",
        "mateDataPath": "",
        "matePhonemePath": "",
        "mateEmotionPath": "",
        "dataPathHashList": [
          11783570514433929434,
          17251200991691123593,
          11476279366706252887,
          10777810205017833097
        ],
        "PACNIGOOENN": "",
        "PIBDNPHIAGC": ""
      }
    ],
    [
      {
        "$type": "EFHODGEJOHJ",
        "type": "CAMERA_MOVE",
        "duration": 0.10000000149011612,
        "actionId": 131,
        "camPosOffset": {
          "x": -3317.571044921875,
          "y": 201.32899475097656,
          "z": -4447.3828125
        },
        "camForwardTargetOffset": {
          "x": -3318.219970703125,
          "y": 201.3179931640625,
          "z": -4448.14404296875
        },
        "camFov": 30.0,
        "lerpPattern": 6,
        "cameraBlendType": "EaseInOutCubic",
        "openCameraDither": false,
        "targetNpcAlias": "",
        "PHGBNNGCJKJ": "",
        "NFILMKCFHEB": "",
        "BGPNGHDAECF": ""
      },
      {
        "$type": "HGDDIPABPCA",
        "type": "LOOK_AT_EYECTRL",
        "aliasList": [
          "Avatar"
        ],
        "actionId": 153,
        "_flag": 4672,
        "useTargetPos": false,
        "turnTime": 0.30000001192092896,
        "targetNpcAlias": "",
        "targetPoint": "Face"
      },
      {
        "$type": "MJFAIFFAGOF",
        "type": "DIALOG",
        "aliasList": [
          "1005"
        ],
        "actionId": 186,
        "dialogID": 120070109,
        "protectTime": 0.5
      },
      {
        "$type": "EDCHPJLDKIN",
        "type": "BODY_LANG",
        "aliasList": [
          "1005"
        ],
        "actionId": 187,
        "_flag": 131072,
        "bodyLangParam": 1270,
        "forceDoFreeStyle": true,
        "canDoRepeatFreeStyle": false,
        "eventPatternSuiteKey": ""
      },
      {
        "$type": "EDCHPJLDKIN",
        "type": "BODY_LANG",
        "delayTime": 1.440999984741211,
        "aliasList": [
          "1005"
        ],
        "actionId": 188,
        "_flag": 131072,
        "bodyLangParam": 1260,
        "forceDoFreeStyle": true,
        "canDoRepeatFreeStyle": false,
        "eventPatternSuiteKey": ""
      },
      {
        "$type": "ICHLNKHGCAG",
        "type": "EMO_SYNC",
        "aliasList": [
          "1005"
        ],
        "actionId": 189,
        "_flag": 256,
        "dataPath": "Cs_Emo_Avatar_Simple_Common_Set/Cs_Emo_Avatar_Talk/Cs_Emo_Avatar_PersonalLine/Cs_Emo_Avatar_Ayaka/Cs_Emo_120070109",
        "phonemePath": "",
        "emotionPath": "",
        "mateDataPath": "",
        "matePhonemePath": "",
        "mateEmotionPath": "",
        "dataPathHashList": [
          5403273663248678234,
          4731473042751447584,
          740498388253747751,
          1026864739839587628
        ],
        "PACNIGOOENN": "",
        "PIBDNPHIAGC": ""
      },
      {
        "$type": "EDCHPJLDKIN",
        "type": "BODY_LANG",
        "aliasList": [
          "1013"
        ],
        "actionId": 240,
        "_flag": 131072,
        "bodyLangParam": 1130,
        "forceDoFreeStyle": true,
        "canDoRepeatFreeStyle": false,
        "eventPatternSuiteKey": ""
      },
      {
        "$type": "NPCNMEOCADD",
        "type": "LOOK_AT",
        "aliasList": [
          "1013"
        ],
        "actionId": 241,
        "_flag": 64,
        "enableHead": true,
        "useTargetPos": true,
        "enableAbsolute": true,
        "targetPosition": {
          "x": -3317.93505859375,
          "y": 201.3520050048828,
          "z": -4447.7080078125
        },
        "headTurnTime": 0.5,
        "targetNpcAlias": "",
        "targetNpcLookAtPoint": "",
        "BHGPHGNFCBF": ""
      },
      {
        "$type": "HGDDIPABPCA",
        "type": "LOOK_AT_EYECTRL",
        "aliasList": [
          "1013"
        ],
        "actionId": 242,
        "_flag": 4672,
        "useTargetPos": false,
        "eyeRotateVecLeft": {
          "x": -2.0
        },
        "eyeRotateVecRight": {
          "x": -2.0
        },
        "turnTime": 0.30000001192092896,
        "targetNpcAlias": "",
        "targetPoint": "Face"
      }
    ],
    [
      {
        "$type": "EFHODGEJOHJ",
        "type": "CAMERA_MOVE",
        "duration": 0.10000000149011612,
        "actionId": 132,
        "camPosOffset": {
          "x": -3316.072998046875,
          "y": 201.4969940185547,
          "z": -4446.35791015625
        },
        "camForwardTargetOffset": {
          "x": -3316.8291015625,
          "y": 201.38999938964844,
          "z": -4447.0029296875
        },
        "camFov": 30.0,
        "lerpPattern": 6,
        "cameraBlendType": "EaseInOutCubic",
        "openCameraDither": false,
        "targetNpcAlias": "",
        "PHGBNNGCJKJ": "",
        "NFILMKCFHEB": "",
        "BGPNGHDAECF": ""
      },
      {
        "$type": "NPCNMEOCADD",
        "type": "LOOK_AT",
        "delayTime": 0.20800000429153442,
        "aliasList": [
          "Avatar"
        ],
        "actionId": 154,
        "_flag": 64,
        "enableHead": true,
        "useTargetPos": true,
        "enableAbsolute": true,
        "targetPosition": {
          "x": -3317.778076171875,
          "y": 201.3419952392578,
          "z": -4447.76806640625
        },
        "headTurnTime": 0.5,
        "targetNpcAlias": "",
        "targetNpcLookAtPoint": "",
        "BHGPHGNFCBF": ""
      },
      {
        "$type": "NPCNMEOCADD",
        "type": "LOOK_AT",
        "delayTime": 2.3399999141693115,
        "aliasList": [
          "Avatar"
        ],
        "actionId": 155,
        "_flag": 64,
        "enableHead": true,
        "useTargetPos": true,
        "enableAbsolute": true,
        "targetPosition": {
          "x": -3316.537109375,
          "y": 201.52099609375,
          "z": -4447.3251953125
        },
        "headTurnTime": 0.5,
        "targetNpcAlias": "",
        "targetNpcLookAtPoint": "",
        "BHGPHGNFCBF": ""
      },
      {
        "$type": "HGDDIPABPCA",
        "type": "LOOK_AT_EYECTRL",
        "delayTime": 2.4570000171661377,
        "aliasList": [
          "Avatar"
        ],
        "actionId": 156,
        "_flag": 4672,
        "useTargetPos": false,
        "eyeRotateVecLeft": {
          "x": -3.0
        },
        "eyeRotateVecRight": {
          "x": -3.0
        },
        "turnTime": 0.30000001192092896,
        "targetNpcAlias": "",
        "targetPoint": "Face"
      },
      {
        "$type": "MJFAIFFAGOF",
        "type": "DIALOG",
        "aliasList": [
          "1005"
        ],
        "actionId": 190,
        "dialogID": 120070110,
        "protectTime": 0.5
      },
      {
        "$type": "EDCHPJLDKIN",
        "type": "BODY_LANG",
        "aliasList": [
          "1005"
        ],
        "actionId": 191,
        "_flag": 131072,
        "bodyLangParam": 1170,
        "forceDoFreeStyle": true,
        "canDoRepeatFreeStyle": false,
        "eventPatternSuiteKey": ""
      },
      {
        "$type": "EDCHPJLDKIN",
        "type": "BODY_LANG",
        "delayTime": 1.5529999732971191,
        "aliasList": [
          "1005"
        ],
        "actionId": 192,
        "_flag": 131072,
        "bodyLangParam": 1180,
        "forceDoFreeStyle": true,
        "canDoRepeatFreeStyle": false,
        "eventPatternSuiteKey": ""
      },
      {
        "$type": "EDCHPJLDKIN",
        "type": "BODY_LANG",
        "delayTime": 3.0420000553131104,
        "aliasList": [
          "1005"
        ],
        "actionId": 193,
        "_flag": 131072,
        "isContinue": true,
        "forceDoFreeStyle": true,
        "canDoRepeatFreeStyle": false,
        "eventPatternSuiteKey": ""
      },
      {
        "$type": "ICHLNKHGCAG",
        "type": "EMO_SYNC",
        "aliasList": [
          "1005"
        ],
        "actionId": 194,
        "_flag": 320,
        "dataPath": "Cs_Emo_Avatar_Simple_Common_Set/Cs_Emo_Avatar_Talk/Cs_Emo_Avatar_PersonalLine/Cs_Emo_Avatar_Ayaka/Cs_Emo_120070110",
        "phonemePath": "",
        "emotionPath": "",
        "mateDataPath": "",
        "matePhonemePath": "",
        "mateEmotionPath": "",
        "dataPathHashList": [
          10716696894183778852,
          14877610880354798945,
          16194721074125479909,
          6416530053619275191
        ],
        "PACNIGOOENN": "",
        "PIBDNPHIAGC": ""
      },
      {
        "$type": "EDCHPJLDKIN",
        "type": "BODY_LANG",
        "aliasList": [
          "1013"
        ],
        "actionId": 243,
        "_flag": 131072,
        "isContinue": true,
        "forceDoFreeStyle": true,
        "canDoRepeatFreeStyle": false,
        "eventPatternSuiteKey": ""
      }
    ],
    [
      {
        "$type": "EFHODGEJOHJ",
        "type": "CAMERA_MOVE",
        "delayTime": 0.05299999937415123,
        "duration": 8.223999977111816,
        "actionId": 133,
        "camPosOffset": {
          "x": -3317.16796875,
          "y": 201.44700622558594,
          "z": -4446.8818359375
        },
        "camForwardTargetOffset": {
          "x": -3316.218994140625,
          "y": 201.48699951171875,
          "z": -4447.19384765625
        },
        "camFov": 30.0,
        "cameraBlendType": "EaseOutQuad",
        "openCameraDither": false,
        "targetNpcAlias": "",
        "PHGBNNGCJKJ": "",
        "NFILMKCFHEB": "",
        "BGPNGHDAECF": ""
      },
      {
        "$type": "EFHODGEJOHJ",
        "type": "CAMERA_MOVE",
        "duration": 0.10000000149011612,
        "actionId": 134,
        "camPosOffset": {
          "x": -3317.241943359375,
          "y": 201.44400024414062,
          "z": -4446.85791015625
        },
        "camForwardTargetOffset": {
          "x": -3316.29296875,
          "y": 201.48399353027344,
          "z": -4447.169921875
        },
        "camFov": 30.0,
        "lerpPattern": 6,
        "cameraBlendType": "EaseInOutCubic",
        "openCameraDither": false,
        "targetNpcAlias": "",
        "PHGBNNGCJKJ": "",
        "NFILMKCFHEB": "",
        "BGPNGHDAECF": ""
      },
      {
        "$type": "NPCNMEOCADD",
        "type": "LOOK_AT",
        "aliasList": [
          "Avatar"
        ],
        "actionId": 157,
        "_flag": 64,
        "enableHead": true,
        "useTargetPos": true,
        "enableAbsolute": true,
        "targetPosition": {
          "x": -3316.537109375,
          "y": 201.52099609375,
          "z": -4447.3251953125
        },
        "headTurnTime": 0.5,
        "targetNpcAlias": "",
        "targetNpcLookAtPoint": "",
        "BHGPHGNFCBF": ""
      },
      {
        "$type": "HGDDIPABPCA",
        "type": "LOOK_AT_EYECTRL",
        "aliasList": [
          "Avatar"
        ],
        "actionId": 158,
        "_flag": 4672,
        "useTargetPos": false,
        "eyeRotateVecLeft": {
          "x": -3.0
        },
        "eyeRotateVecRight": {
          "x": -3.0
        },
        "turnTime": 0.30000001192092896,
        "targetNpcAlias": "",
        "targetPoint": "Face"
      },
      {
        "$type": "EDCHPJLDKIN",
        "type": "BODY_LANG",
        "aliasList": [
          "1005"
        ],
        "actionId": 195,
        "_flag": 131072,
        "isContinue": true,
        "forceDoFreeStyle": true,
        "canDoRepeatFreeStyle": false,
        "eventPatternSuiteKey": ""
      },
      {
        "$type": "MJFAIFFAGOF",
        "type": "DIALOG",
        "aliasList": [
          "1013"
        ],
        "actionId": 244,
        "dialogID": 120070111,
        "protectTime": 0.5
      },
      {
        "$type": "EDCHPJLDKIN",
        "type": "BODY_LANG",
        "aliasList": [
          "1013"
        ],
        "actionId": 245,
        "_flag": 131072,
        "bodyLangParam": 1190,
        "forceDoFreeStyle": true,
        "canDoRepeatFreeStyle": false,
        "eventPatternSuiteKey": ""
      },
      {
        "$type": "HGDDIPABPCA",
        "type": "LOOK_AT_EYECTRL",
        "delayTime": 1.3680000305175781,
        "aliasList": [
          "1013"
        ],
        "actionId": 246,
        "_flag": 4672,
        "useTargetPos": false,
        "eyeRotateVecLeft": {
          "x": -2.0,
          "z": 4.0
        },
        "eyeRotateVecRight": {
          "x": -2.0,
          "z": 4.0
        },
        "turnTime": 0.30000001192092896,
        "targetNpcAlias": "",
        "targetPoint": "Face"
      },
      {
        "$type": "HGDDIPABPCA",
        "type": "LOOK_AT_EYECTRL",
        "delayTime": 2.4149999618530273,
        "aliasList": [
          "1013"
        ],
        "actionId": 247,
        "_flag": 4672,
        "useTargetPos": false,
        "eyeRotateVecLeft": {
          "x": -3.0,
          "z": 5.0
        },
        "eyeRotateVecRight": {
          "x": -3.0,
          "z": 5.0
        },
        "turnTime": 0.30000001192092896,
        "targetNpcAlias": "",
        "targetPoint": "Face"
      },
      {
        "$type": "HGDDIPABPCA",
        "type": "LOOK_AT_EYECTRL",
        "delayTime": 0.4779999852180481,
        "aliasList": [
          "1013"
        ],
        "actionId": 248,
        "_flag": 4672,
        "useTargetPos": false,
        "eyeRotateVecLeft": {
          "x": 2.0,
          "z": 3.0
        },
        "eyeRotateVecRight": {
          "x": 2.0,
          "z": 3.0
        },
        "turnTime": 0.30000001192092896,
        "targetNpcAlias": "",
        "targetPoint": "Face"
      },
      {
        "$type": "ICHLNKHGCAG",
        "type": "EMO_SYNC",
        "aliasList": [
          "1013"
        ],
        "actionId": 249,
        "_flag": 256,
        "dataPath": "Cs_Emo_Avatar_Simple_Common_Set/Cs_Emo_Avatar_Talk/Cs_Emo_Avatar_PersonalLine/Cs_Emo_Avatar_Ayaka/Cs_Emo_120070111",
        "phonemePath": "",
        "emotionPath": "",
        "mateDataPath": "",
        "matePhonemePath": "",
        "mateEmotionPath": "",
        "dataPathHashList": [
          5992754370000632654,
          904043649597751295,
          11305709272971855841,
          3821275990082047120
        ],
        "PACNIGOOENN": "",
        "PIBDNPHIAGC": ""
      },
      {
        "$type": "HGDDIPABPCA",
        "type": "LOOK_AT_EYECTRL",
        "delayTime": 3.1570000648498535,
        "aliasList": [
          "1013"
        ],
        "actionId": 250,
        "_flag": 4672,
        "useTargetPos": false,
        "eyeRotateVecLeft": {
          "x": 2.0,
          "z": 4.0
        },
        "eyeRotateVecRight": {
          "x": 2.0,
          "z": 4.0
        },
        "turnTime": 0.30000001192092896,
        "targetNpcAlias": "",
        "targetPoint": "Face"
      }
    ],
    [
      {
        "$type": "EFHODGEJOHJ",
        "type": "CAMERA_MOVE",
        "delayTime": 8.829000473022461,
        "duration": 17.22800064086914,
        "actionId": 135,
        "camPosOffset": {
          "x": -3317.346923828125,
          "y": 200.83700561523438,
          "z": -4477.4560546875
        },
        "camForwardTargetOffset": {
          "x": -3317.34912109375,
          "y": 200.88600158691406,
          "z": -4476.45703125
        },
        "camFov": 30.0,
        "cameraBlendType": "EaseOutQuad",
        "openCameraDither": false,
        "targetNpcAlias": "",
        "PHGBNNGCJKJ": "",
        "NFILMKCFHEB": "",
        "BGPNGHDAECF": ""
      },
      {
        "$type": "EFHODGEJOHJ",
        "type": "CAMERA_MOVE",
        "delayTime": 3.059999942779541,
        "duration": 5.668000221252441,
        "actionId": 136,
        "camPosOffset": {
          "x": -3317.65087890625,
          "y": 202.38400268554688,
          "z": -4447.4677734375
        },
        "camForwardTargetOffset": {
          "x": -3316.909912109375,
          "y": 201.7530059814453,
          "z": -4447.23876953125
        },
        "camFov": 30.0,
        "cameraBlendType": "Linear",
        "openCameraDither": false,
        "targetNpcAlias": "",
        "PHGBNNGCJKJ": "",
        "NFILMKCFHEB": "",
        "BGPNGHDAECF": ""
      },
      {
        "$type": "EFHODGEJOHJ",
        "type": "CAMERA_MOVE",
        "delayTime": 2.9579999446868896,
        "duration": 0.10000000149011612,
        "actionId": 137,
        "camPosOffset": {
          "x": -3317.382080078125,
          "y": 202.17599487304688,
          "z": -4447.3798828125
        },
        "camForwardTargetOffset": {
          "x": -3316.64111328125,
          "y": 201.5449981689453,
          "z": -4447.14990234375
        },
        "camFov": 30.0,
        "lerpPattern": 6,
        "cameraBlendType": "EaseInOutCubic",
        "openCameraDither": false,
        "targetNpcAlias": "",
        "PHGBNNGCJKJ": "",
        "NFILMKCFHEB": "",
        "BGPNGHDAECF": ""
      },
      {
        "$type": "EFHODGEJOHJ",
        "type": "CAMERA_MOVE",
        "delayTime": 8.729000091552734,
        "duration": 0.10000000149011612,
        "actionId": 138,
        "camPosOffset": {
          "x": -3317.509033203125,
          "y": 200.6490020751953,
          "z": -4473.25
        },
        "camForwardTargetOffset": {
          "x": -3317.510009765625,
          "y": 200.697998046875,
          "z": -4472.2509765625
        },
        "camFov": 30.0,
        "lerpPattern": 6,
        "cameraBlendType": "EaseInOutCubic",
        "openCameraDither": false,
        "targetNpcAlias": "",
        "PHGBNNGCJKJ": "",
        "NFILMKCFHEB": "",
        "BGPNGHDAECF": ""
      },
      {
        "$type": "NPCNMEOCADD",
        "type": "LOOK_AT",
        "delayTime": 8.663000106811523,
        "aliasList": [
          "Avatar"
        ],
        "actionId": 159,
        "_flag": 64,
        "enableHead": true,
        "useTargetPos": true,
        "enableAbsolute": true,
        "targetPosition": {
          "x": -3316.64501953125,
          "y": 201.57400512695312,
          "z": -4451.6689453125
        },
        "headTurnTime": 0.4000000059604645,
        "targetNpcAlias": "",
        "targetNpcLookAtPoint": "",
        "BHGPHGNFCBF": ""
      },
      {
        "$type": "NPCNMEOCADD",
        "type": "LOOK_AT",
        "delayTime": 8.682000160217285,
        "aliasList": [
          "1005"
        ],
        "actionId": 196,
        "_flag": 64,
        "enableHead": true,
        "useTargetPos": true,
        "enableAbsolute": true,
        "targetPosition": {
          "x": -3316.985107421875,
          "y": 201.45899963378906,
          "z": -4452.384765625
        },
        "headTurnTime": 0.4000000059604645,
        "targetNpcAlias": "",
        "targetNpcLookAtPoint": "",
        "BHGPHGNFCBF": ""
      },
      {
        "$type": "MJFAIFFAGOF",
        "type": "DIALOG",
        "aliasList": [
          "1013"
        ],
        "actionId": 251,
        "dialogID": 120070112,
        "protectTime": 0.5
      },
      {
        "$type": "EDCHPJLDKIN",
        "type": "BODY_LANG",
        "delayTime": 2.240000009536743,
        "aliasList": [
          "1013"
        ],
        "actionId": 252,
        "_flag": 131072,
        "isContinue": true,
        "forceDoFreeStyle": true,
        "canDoRepeatFreeStyle": false,
        "eventPatternSuiteKey": ""
      },
      {
        "$type": "NPCNMEOCADD",
        "type": "LOOK_AT",
        "delayTime": 8.550999641418457,
        "aliasList": [
          "1013"
        ],
        "actionId": 253,
        "_flag": 64,
        "enableHead": true,
        "useTargetPos": true,
        "enableAbsolute": true,
        "targetPosition": {
          "x": -3317.34912109375,
          "y": 201.57400512695312,
          "z": -4451.72509765625
        },
        "headTurnTime": 0.4000000059604645,
        "targetNpcAlias": "",
        "targetNpcLookAtPoint": "",
        "BHGPHGNFCBF": ""
      },
      {
        "$type": "NPCNMEOCADD",
        "type": "LOOK_AT",
        "delayTime": 2.7219998836517334,
        "aliasList": [
          "1013"
        ],
        "actionId": 254,
        "_flag": 64,
        "enableHead": true,
        "useTargetPos": true,
        "enableAbsolute": true,
        "targetPosition": {
          "x": -3318.927978515625,
          "y": 202.3699951171875,
          "z": -4448.42578125
        },
        "headTurnTime": 0.4000000059604645,
        "targetNpcAlias": "",
        "targetNpcLookAtPoint": "",
        "BHGPHGNFCBF": ""
      },
      {
        "$type": "HGDDIPABPCA",
        "type": "LOOK_AT_EYECTRL",
        "delayTime": 8.633000373840332,
        "aliasList": [
          "1013"
        ],
        "actionId": 255,
        "_flag": 4672,
        "useTargetPos": false,
        "turnTime": 0.30000001192092896,
        "targetNpcAlias": "",
        "targetPoint": "Face"
      },
      {
        "$type": "HGDDIPABPCA",
        "type": "LOOK_AT_EYECTRL",
        "aliasList": [
          "1013"
        ],
        "actionId": 256,
        "_flag": 4672,
        "useTargetPos": false,
        "eyeRotateVecLeft": {
          "x": -2.0,
          "z": 3.0
        },
        "eyeRotateVecRight": {
          "x": -2.0,
          "z": 3.0
        },
        "turnTime": 0.30000001192092896,
        "targetNpcAlias": "",
        "targetPoint": "Face"
      },
      {
        "$type": "HGDDIPABPCA",
        "type": "LOOK_AT_EYECTRL",
        "delayTime": 2.8380000591278076,
        "aliasList": [
          "1013"
        ],
        "actionId": 257,
        "_flag": 4672,
        "useTargetPos": false,
        "eyeRotateVecLeft": {
          "z": -3.0
        },
        "eyeRotateVecRight": {
          "z": -3.0
        },
        "turnTime": 0.30000001192092896,
        "targetNpcAlias": "",
        "targetPoint": "Face"
      },
      {
        "$type": "ICHLNKHGCAG",
        "type": "EMO_SYNC",
        "aliasList": [
          "1013"
        ],
        "actionId": 258,
        "_flag": 320,
        "dataPath": "Cs_Emo_Avatar_Simple_Common_Set/Cs_Emo_Avatar_Talk/Cs_Emo_Avatar_PersonalLine/Cs_Emo_Avatar_Ayaka/Cs_Emo_120070112",
        "phonemePath": "",
        "emotionPath": "",
        "mateDataPath": "",
        "matePhonemePath": "",
        "mateEmotionPath": "",
        "dataPathHashList": [
          18306469322035763165,
          11942579161226111981,
          4536768417903957745,
          9976621674870342077
        ],
        "PACNIGOOENN": "",
        "PIBDNPHIAGC": ""
      }
    ],
    [
      {
        "$type": "EFHODGEJOHJ",
        "type": "CAMERA_MOVE",
        "delayTime": 0.06499999761581421,
        "duration": 11.545000076293945,
        "actionId": 139,
        "camPosOffset": {
          "x": -3314.66796875,
          "y": 202.5399932861328,
          "z": -4446.7529296875
        },
        "camForwardTargetOffset": {
          "x": -3315.574951171875,
          "y": 202.15499877929688,
          "z": -4446.9267578125
        },
        "camFov": 20.0,
        "cameraBlendType": "EaseOutQuad",
        "openCameraDither": false,
        "targetNpcAlias": "",
        "PHGBNNGCJKJ": "",
        "NFILMKCFHEB": "",
        "BGPNGHDAECF": ""
      },
      {
        "$type": "EFHODGEJOHJ",
        "type": "CAMERA_MOVE",
        "duration": 0.10000000149011612,
        "actionId": 140,
        "camPosOffset": {
          "x": -3314.738037109375,
          "y": 202.6479949951172,
          "z": -4446.65185546875
        },
        "camForwardTargetOffset": {
          "x": -3315.6220703125,
          "y": 202.22999572753906,
          "z": -4446.86083984375
        },
        "camFov": 20.0,
        "lerpPattern": 6,
        "cameraBlendType": "EaseInOutCubic",
        "openCameraDither": false,
        "targetNpcAlias": "",
        "PHGBNNGCJKJ": "",
        "NFILMKCFHEB": "",
        "BGPNGHDAECF": ""
      },
      {
        "$type": "OBCDECFOOBC",
        "type": "DIALOG_SELECT",
        "delayTime": 1.5,
        "aliasList": [
          "Avatar"
        ],
        "actionId": 160,
        "dialogIDList": [
          120070114
        ],
        "grpIDList": [
          1958083543
        ],
        "useGrpId": true,
        "countDownGrpId": 478805979
      },
      {
        "$type": "NPCNMEOCADD",
        "type": "LOOK_AT",
        "delayTime": 0.19599999487400055,
        "aliasList": [
          "Avatar"
        ],
        "actionId": 161,
        "_flag": 64,
        "enableHead": true,
        "useTargetPos": true,
        "enableAbsolute": true,
        "targetPosition": {
          "x": -3318.00390625,
          "y": 201.4219970703125,
          "z": -4448.23291015625
        },
        "headTurnTime": 0.5,
        "targetNpcAlias": "",
        "targetNpcLookAtPoint": "",
        "BHGPHGNFCBF": ""
      },
      {
        "$type": "NPCNMEOCADD",
        "type": "LOOK_AT",
        "delayTime": 5.071000099182129,
        "aliasList": [
          "Avatar"
        ],
        "actionId": 162,
        "_flag": 64,
        "enableHead": true,
        "useTargetPos": true,
        "enableAbsolute": true,
        "targetPosition": {
          "x": -3316.534912109375,
          "y": 201.52099609375,
          "z": -4447.1669921875
        },
        "headTurnTime": 0.5,
        "targetNpcAlias": "",
        "targetNpcLookAtPoint": "",
        "BHGPHGNFCBF": ""
      },
      {
        "$type": "MJFAIFFAGOF",
        "type": "DIALOG",
        "aliasList": [
          "1005"
        ],
        "actionId": 197,
        "dialogID": 120070113,
        "protectTime": 1.5
      },
      {
        "$type": "EDCHPJLDKIN",
        "type": "BODY_LANG",
        "aliasList": [
          "1005"
        ],
        "actionId": 198,
        "_flag": 131072,
        "bodyLangParam": 1170,
        "forceDoFreeStyle": true,
        "canDoRepeatFreeStyle": false,
        "eventPatternSuiteKey": ""
      },
      {
        "$type": "EDCHPJLDKIN",
        "type": "BODY_LANG",
        "delayTime": 2.25600004196167,
        "aliasList": [
          "1005"
        ],
        "actionId": 199,
        "_flag": 131072,
        "bodyLangParam": 1110,
        "forceDoFreeStyle": true,
        "canDoRepeatFreeStyle": false,
        "eventPatternSuiteKey": ""
      },
      {
        "$type": "EDCHPJLDKIN",
        "type": "BODY_LANG",
        "delayTime": 1.6469999551773071,
        "aliasList": [
          "1005"
        ],
        "actionId": 200,
        "_flag": 131072,
        "isContinue": true,
        "forceDoFreeStyle": true,
        "canDoRepeatFreeStyle": false,
        "eventPatternSuiteKey": ""
      },
      {
        "$type": "EDCHPJLDKIN",
        "type": "BODY_LANG",
        "delayTime": 3.822000026702881,
        "aliasList": [
          "1005"
        ],
        "actionId": 201,
        "_flag": 131072,
        "isContinue": true,
        "forceDoFreeStyle": true,
        "canDoRepeatFreeStyle": false,
        "eventPatternSuiteKey": ""
      },
      {
        "$type": "EDCHPJLDKIN",
        "type": "BODY_LANG",
        "delayTime": 4.756999969482422,
        "aliasList": [
          "1005"
        ],
        "actionId": 202,
        "_flag": 131072,
        "bodyLangParam": 1090,
        "forceDoFreeStyle": true,
        "canDoRepeatFreeStyle": false,
        "eventPatternSuiteKey": ""
      },
      {
        "$type": "NPCNMEOCADD",
        "type": "LOOK_AT",
        "aliasList": [
          "1005"
        ],
        "actionId": 203,
        "_flag": 64,
        "enableHead": true,
        "useTargetPos": true,
        "enableAbsolute": true,
        "targetPosition": {
          "x": -3316.534912109375,
          "y": 201.52099609375,
          "z": -4447.1669921875
        },
        "headTurnTime": 0.4000000059604645,
        "targetNpcAlias": "",
        "targetNpcLookAtPoint": "",
        "BHGPHGNFCBF": ""
      },
      {
        "$type": "ICHLNKHGCAG",
        "type": "EMO_SYNC",
        "aliasList": [
          "1005"
        ],
        "actionId": 204,
        "_flag": 320,
        "dataPath": "Cs_Emo_Avatar_Simple_Common_Set/Cs_Emo_Avatar_Talk/Cs_Emo_Avatar_PersonalLine/Cs_Emo_Avatar_Ayaka/Cs_Emo_120070113",
        "phonemePath": "",
        "emotionPath": "",
        "mateDataPath": "",
        "matePhonemePath": "",
        "mateEmotionPath": "",
        "dataPathHashList": [
          16584372116226559764,
          9764744356411982070,
          2941784029564794160,
          16368746790936512820
        ],
        "PACNIGOOENN": "",
        "PIBDNPHIAGC": ""
      },
      {
        "$type": "NPCNMEOCADD",
        "type": "LOOK_AT",
        "aliasList": [
          "1013"
        ],
        "actionId": 259,
        "_flag": 64,
        "enableHead": true,
        "useTargetPos": true,
        "enableAbsolute": true,
        "targetPosition": {
          "x": -3317.85791015625,
          "y": 201.3520050048828,
          "z": -4447.791015625
        },
        "headTurnTime": 0.5,
        "targetNpcAlias": "",
        "targetNpcLookAtPoint": "",
        "BHGPHGNFCBF": ""
      },
      {
        "$type": "EDCHPJLDKIN",
        "type": "BODY_LANG",
        "aliasList": [
          "1013"
        ],
        "actionId": 260,
        "_flag": 131072,
        "isContinue": true,
        "forceDoFreeStyle": true,
        "canDoRepeatFreeStyle": false,
        "eventPatternSuiteKey": ""
      }
    ],
    [
      {
        "$type": "EFHODGEJOHJ",
        "type": "CAMERA_MOVE",
        "duration": 0.10000000149011612,
        "actionId": 141,
        "camPosOffset": {
          "x": -3317.132080078125,
          "y": 201.27999877929688,
          "z": -4448.1298828125
        },
        "camForwardTargetOffset": {
          "x": -3316.696044921875,
          "y": 201.3979949951172,
          "z": -4447.23779296875
        },
        "camFov": 30.0,
        "lerpPattern": 6,
        "cameraBlendType": "EaseInOutCubic",
        "openCameraDither": false,
        "targetNpcAlias": "",
        "PHGBNNGCJKJ": "",
        "NFILMKCFHEB": "",
        "BGPNGHDAECF": ""
      },
      {
        "$type": "NPCNMEOCADD",
        "type": "LOOK_AT",
        "aliasList": [
          "Avatar"
        ],
        "actionId": 163,
        "_flag": 64,
        "enableHead": true,
        "useTargetPos": true,
        "enableAbsolute": true,
        "targetPosition": {
          "x": -3316.534912109375,
          "y": 201.52099609375,
          "z": -4447.1669921875
        },
        "headTurnTime": 0.4000000059604645,
        "targetNpcAlias": "",
        "targetNpcLookAtPoint": "",
        "BHGPHGNFCBF": ""
      },
      {
        "$type": "EDCHPJLDKIN",
        "type": "BODY_LANG",
        "aliasList": [
          "1005"
        ],
        "actionId": 205,
        "_flag": 131072,
        "isContinue": true,
        "forceDoFreeStyle": true,
        "canDoRepeatFreeStyle": false,
        "eventPatternSuiteKey": ""
      },
      {
        "$type": "MJFAIFFAGOF",
        "type": "DIALOG",
        "aliasList": [
          "1013"
        ],
        "actionId": 261,
        "dialogID": 120070115,
        "protectTime": 0.5
      },
      {
        "$type": "EDCHPJLDKIN",
        "type": "BODY_LANG",
        "aliasList": [
          "1013"
        ],
        "actionId": 262,
        "_flag": 131072,
        "bodyLangParam": 1190,
        "forceDoFreeStyle": true,
        "canDoRepeatFreeStyle": false,
        "eventPatternSuiteKey": ""
      },
      {
        "$type": "HGDDIPABPCA",
        "type": "LOOK_AT_EYECTRL",
        "delayTime": 0.08500000089406967,
        "aliasList": [
          "1013"
        ],
        "actionId": 263,
        "_flag": 4672,
        "useTargetPos": false,
        "eyeRotateVecLeft": {
          "x": -3.0,
          "z": 3.0
        },
        "eyeRotateVecRight": {
          "x": -3.0,
          "z": 3.0
        },
        "turnTime": 0.30000001192092896,
        "targetNpcAlias": "",
        "targetPoint": "Face"
      },
      {
        "$type": "HGDDIPABPCA",
        "type": "LOOK_AT_EYECTRL",
        "delayTime": 3.046999931335449,
        "aliasList": [
          "1013"
        ],
        "actionId": 264,
        "_flag": 4672,
        "useTargetPos": false,
        "eyeRotateVecLeft": {
          "x": 1.0,
          "z": 4.0
        },
        "eyeRotateVecRight": {
          "x": 1.0,
          "z": 4.0
        },
        "turnTime": 0.30000001192092896,
        "targetNpcAlias": "",
        "targetPoint": "Face"
      },
      {
        "$type": "HGDDIPABPCA",
        "type": "LOOK_AT_EYECTRL",
        "delayTime": 2.1649999618530273,
        "aliasList": [
          "1013"
        ],
        "actionId": 265,
        "_flag": 4672,
        "useTargetPos": false,
        "eyeRotateVecLeft": {
          "x": -2.0,
          "z": 5.0
        },
        "eyeRotateVecRight": {
          "x": -2.0,
          "z": 5.0
        },
        "turnTime": 0.30000001192092896,
        "targetNpcAlias": "",
        "targetPoint": "Face"
      },
      {
        "$type": "ICHLNKHGCAG",
        "type": "EMO_SYNC",
        "aliasList": [
          "1013"
        ],
        "actionId": 266,
        "_flag": 256,
        "dataPath": "Cs_Emo_Avatar_Simple_Common_Set/Cs_Emo_Avatar_Talk/Cs_Emo_Avatar_PersonalLine/Cs_Emo_Avatar_Ayaka/Cs_Emo_120070115",
        "phonemePath": "",
        "emotionPath": "",
        "mateDataPath": "",
        "matePhonemePath": "",
        "mateEmotionPath": "",
        "dataPathHashList": [
          16842389237470292861,
          7301808550217959973,
          16185786685780311541,
          11527993358515748544
        ],
        "PACNIGOOENN": "",
        "PIBDNPHIAGC": ""
      },
      {
        "$type": "HGDDIPABPCA",
        "type": "LOOK_AT_EYECTRL",
        "delayTime": 1.440000057220459,
        "aliasList": [
          "1013"
        ],
        "actionId": 267,
        "_flag": 4672,
        "useTargetPos": false,
        "eyeRotateVecLeft": {
          "x": -1.0,
          "z": 4.0
        },
        "eyeRotateVecRight": {
          "x": -1.0,
          "z": 4.0
        },
        "turnTime": 0.30000001192092896,
        "targetNpcAlias": "",
        "targetPoint": "Face"
      }
    ],
    [
      {
        "$type": "EFHODGEJOHJ",
        "type": "CAMERA_MOVE",
        "duration": 0.10000000149011612,
        "actionId": 142,
        "camPosOffset": {
          "x": -3316.998046875,
          "y": 201.45399475097656,
          "z": -4447.81298828125
        },
        "camForwardTargetOffset": {
          "x": -3316.530029296875,
          "y": 201.51499938964844,
          "z": -4446.93115234375
        },
        "camFov": 20.0,
        "lerpPattern": 6,
        "cameraBlendType": "EaseInOutCubic",
        "openCameraDither": false,
        "targetNpcAlias": "",
        "PHGBNNGCJKJ": "",
        "NFILMKCFHEB": "",
        "BGPNGHDAECF": ""
      },
      {
        "$type": "MJFAIFFAGOF",
        "type": "DIALOG",
        "aliasList": [
          "1013"
        ],
        "actionId": 268,
        "dialogID": 120070116,
        "protectTime": 0.5
      },
      {
        "$type": "EDCHPJLDKIN",
        "type": "BODY_LANG",
        "aliasList": [
          "1013"
        ],
        "actionId": 269,
        "_flag": 131072,
        "isContinue": true,
        "forceDoFreeStyle": true,
        "canDoRepeatFreeStyle": false,
        "eventPatternSuiteKey": ""
      },
      {
        "$type": "HGDDIPABPCA",
        "type": "LOOK_AT_EYECTRL",
        "aliasList": [
          "1013"
        ],
        "actionId": 270,
        "_flag": 4672,
        "useTargetPos": false,
        "eyeRotateVecLeft": {
          "z": -1.0
        },
        "eyeRotateVecRight": {
          "z": -1.0
        },
        "turnTime": 0.30000001192092896,
        "targetNpcAlias": "",
        "targetPoint": "Face"
      },
      {
        "$type": "ICHLNKHGCAG",
        "type": "EMO_SYNC",
        "aliasList": [
          "1013"
        ],
        "actionId": 271,
        "_flag": 320,
        "dataPath": "Cs_Emo_Avatar_Simple_Common_Set/Cs_Emo_Avatar_Talk/Cs_Emo_Avatar_PersonalLine/Cs_Emo_Avatar_Ayaka/Cs_Emo_120070116",
        "phonemePath": "",
        "emotionPath": "",
        "mateDataPath": "",
        "matePhonemePath": "",
        "mateEmotionPath": "",
        "dataPathHashList": [
          8374430755248404173,
          6547855084197409709,
          1559630773292203298,
          8055850991703388821
        ],
        "PACNIGOOENN": "",
        "PIBDNPHIAGC": ""
      }
    ],
    [
      {
        "$type": "EFHODGEJOHJ",
        "type": "CAMERA_MOVE",
        "duration": 0.10000000149011612,
        "actionId": 143,
        "camPosOffset": {
          "x": -3317.343994140625,
          "y": 201.2989959716797,
          "z": -4448.77490234375
        },
        "camForwardTargetOffset": {
          "x": -3317.589111328125,
          "y": 201.33900451660156,
          "z": -4447.80615234375
        },
        "camFov": 30.0,
        "lerpPattern": 6,
        "cameraBlendType": "EaseInOutCubic",
        "openCameraDither": false,
        "targetNpcAlias": "",
        "PHGBNNGCJKJ": "",
        "NFILMKCFHEB": "",
        "BGPNGHDAECF": ""
      },
      {
        "$type": "MoleMole.Config.ConfigTeleportToAction",
        "type": "TELEPORT_TO",
        "aliasList": [
          "Avatar"
        ],
        "actionId": 164,
        "position": {
          "x": -3317.512939453125,
          "y": 200.08200073242188,
          "z": -4446.89599609375
        },
        "forward": {
          "x": 0.5519999861717224,
          "z": -0.703000009059906
        },
        "_posBindMovingTargetKey": "",
        "_forwardBindMovingTargetKey": ""
      },
      {
        "$type": "EDCHPJLDKIN",
        "type": "BODY_LANG",
        "delayTime": 0.23199999332427979,
        "aliasList": [
          "Avatar"
        ],
        "actionId": 165,
        "_flag": 131072,
        "bodyLangParam": 4030,
        "forceDoFreeStyle": true,
        "canDoRepeatFreeStyle": false,
        "eventPatternSuiteKey": ""
      },
      {
        "$type": "MJFAIFFAGOF",
        "type": "DIALOG",
        "aliasList": [
          "1005"
        ],
        "actionId": 206,
        "dialogID": 120070117,
        "protectTime": 0.5
      },
      {
        "$type": "MoleMole.Config.ConfigTeleportToAction",
        "type": "TELEPORT_TO",
        "aliasList": [
          "1005"
        ],
        "actionId": 207,
        "position": {
          "x": -3317.74609375,
          "y": 200.0500030517578,
          "z": -4447.90283203125
        },
        "forward": {
          "x": 0.640999972820282,
          "z": 0.2840000092983246
        },
        "_posBindMovingTargetKey": "",
        "_forwardBindMovingTargetKey": ""
      },
      {
        "$type": "EDCHPJLDKIN",
        "type": "BODY_LANG",
        "aliasList": [
          "1005"
        ],
        "actionId": 208,
        "_flag": 131072,
        "bodyLangParam": 1270,
        "forceDoFreeStyle": true,
        "canDoRepeatFreeStyle": false,
        "eventPatternSuiteKey": ""
      },
      {
        "$type": "ICHLNKHGCAG",
        "type": "EMO_SYNC",
        "aliasList": [
          "1005"
        ],
        "actionId": 209,
        "_flag": 320,
        "dataPath": "Cs_Emo_Avatar_Simple_Common_Set/Cs_Emo_Avatar_Talk/Cs_Emo_Avatar_PersonalLine/Cs_Emo_Avatar_Ayaka/Cs_Emo_120070117",
        "phonemePath": "",
        "emotionPath": "",
        "mateDataPath": "",
        "matePhonemePath": "",
        "mateEmotionPath": "",
        "dataPathHashList": [
          5002878313354074666,
          1788778943143940991,
          13488075403507306388,
          5024898191705289397
        ],
        "PACNIGOOENN": "",
        "PIBDNPHIAGC": ""
      }
    ],
    [
      {
        "$type": "MoleMole.Config.ConfigSimpleBlackScreenAction",
        "type": "SIMPLE_BLACK_SCREEN",
        "actionId": 144,
        "durationToBlack": 0.5,
        "durationKeepBlack": 1.0,
        "durationFromBlack": 0.5,
        "textMapID": ""
      },
      {
        "$type": "MoleMole.Config.ConfigTimeProtectAction",
        "type": "TIME_PROTECT",
        "duration": 0.699999988079071,
        "actionId": 145
      },
      {
        "$type": "EFHODGEJOHJ",
        "type": "CAMERA_MOVE",
        "delayTime": 0.5,
        "duration": 0.10000000149011612,
        "actionId": 146,
        "camPosOffset": {
          "x": -3318.426025390625,
          "y": 201.43600463867188,
          "z": -4444.5751953125
        },
        "camForwardTargetOffset": {
          "x": -3318.069091796875,
          "y": 201.29600524902344,
          "z": -4445.4990234375
        },
        "lerpPattern": 6,
        "cameraBlendType": "EaseInOutCubic",
        "openCameraDither": false,
        "targetNpcAlias": "",
        "PHGBNNGCJKJ": "",
        "NFILMKCFHEB": "",
        "BGPNGHDAECF": ""
      },
      {
        "$type": "MoleMole.Config.ConfigVisibleInterAction",
        "type": "VISIBLE",
        "delayTime": 0.5,
        "aliasList": [
          "1013"
        ],
        "actionId": 272,
        "_extraParam": ""
      }
    ]
  ],
  "groupId": [
    {
      "grpId": 478805980,
      "nextGrpId": 478805981,
      "_noCircleNextGrpId": 478805981
    },
    {
      "index": 1,
      "grpId": 478805981,
      "nextGrpId": 478805982,
      "_noCircleNextGrpId": 478805982
    },
    {
      "index": 2,
      "grpId": 478805982,
      "nextGrpId": 478805983,
      "_noCircleNextGrpId": 478805983
    },
    {
      "index": 3,
      "grpId": 478805983,
      "nextGrpId": 478805984,
      "_noCircleNextGrpId": 478805984
    },
    {
      "index": 4,
      "grpId": 478805984,
      "nextGrpId": 478805985,
      "_noCircleNextGrpId": 478805985
    },
    {
      "index": 5,
      "grpId": 478805985,
      "nextGrpId": 478805986,
      "_noCircleNextGrpId": 478805986
    },
    {
      "index": 6,
      "grpId": 478805986,
      "nextGrpId": 478805987,
      "_noCircleNextGrpId": 478805987
    },
    {
      "index": 7,
      "grpId": 478805987,
      "nextGrpId": 478805988,
      "_noCircleNextGrpId": 478805988
    },
    {
      "index": 8,
      "grpId": 478805988,
      "nextGrpId": 1958083540,
      "_noCircleNextGrpId": 1958083540
    },
    {
      "index": 9,
      "grpId": 1958083540,
      "nextGrpId": 1958083541,
      "_noCircleNextGrpId": 1958083541
    },
    {
      "index": 10,
      "grpId": 1958083541,
      "nextGrpId": 1958083542,
      "_noCircleNextGrpId": 1958083542
    },
    {
      "index": 11,
      "grpId": 1958083542,
      "nextGrpId": 1958083543,
      "_noCircleNextGrpId": 1958083543
    },
    {
      "index": 12,
      "grpId": 1958083543,
      "nextGrpId": 1958083544,
      "_noCircleNextGrpId": 1958083544
    },
    {
      "index": 13,
      "grpId": 1958083544,
      "nextGrpId": 1958083545,
      "_noCircleNextGrpId": 1958083545
    },
    {
      "index": 14,
      "grpId": 1958083545,
      "nextGrpId": 1958083546,
      "_noCircleNextGrpId": 1958083546
    },
    {
      "index": 15,
      "grpId": 1958083546,
      "nextGrpId": 1958083547,
      "_noCircleNextGrpId": 1958083547
    }
  ],
  "freeStyleDic": {
    "1013": [
      1120,
      1130,
      1240,
      1172,
      1190
    ]
  },
  "KBECHDJGLLA": [
    1230,
    4030
  ],
  "IDMJJGEMEPG": 1958083546
}