{
  "luaDataPath": "",
  "isSimpleTalk": true,
  "entityBan": "",
  "disableNpcLod": true,
  "startFade": {
    "startFadeOutDuration": 0.0
  },
  "endFade": {
    "startFadeOutDuration": 0.0
  },
  "actors": [
    {
      "alias": "Avatar",
      "visible": true,
      "bornPointName": "",
      "relativePosNpcAlias": "",
      "_bindMovingTargetKey": ""
    },
    {
      "configID": 30049,
      "alias": "30049",
      "bornPointName": "",
      "relativePosNpcAlias": "",
      "_bindMovingTargetKey": ""
    },
    {
      "configID": 30050,
      "alias": "30050",
      "bornPointName": "",
      "relativePosNpcAlias": "",
      "_bindMovingTargetKey": ""
    }
  ],
  "group": [
    [
      {
        "$type": "EFHODGEJOHJ",
        "type": "CAMERA_FOCUS",
        "delayTime": 0.30000001192092896,
        "duration": 0.10000000149011612,
        "targetNpcAlias": "",
        "PHGBNNGCJKJ": "",
        "NFILMKCFHEB": "",
        "BGPNGHDAECF": ""
      },
      {
        "$type": "MoleMole.Config.ConfigTimeProtectAction",
        "type": "TIME_PROTECT",
        "duration": 0.4000000059604645
      }
    ],
    [
      {
        "$type": "OBCDECFOOBC",
        "type": "DIALOG_SELECT",
        "delayTime": 0.4000000059604645,
        "aliasList": [
          "Avatar"
        ],
        "dialogIDList": [
          716520502,
          716520504
        ],
        "grpIDList": [
          1072931041,
          1072931042
        ],
        "useGrpId": true
      },
      {
        "$type": "MJFAIFFAGOF",
        "type": "DIALOG",
        "aliasList": [
          "30049"
        ],
        "dialogID": 716520501,
        "protectTime": 0.5
      }
    ],
    [
      {
        "$type": "MJFAIFFAGOF",
        "type": "DIALOG",
        "aliasList": [
          "30049"
        ],
        "dialogID": 716520503,
        "protectTime": 0.5
      }
    ],
    [
      {
        "$type": "MJFAIFFAGOF",
        "type": "DIALOG",
        "aliasList": [
          "30049"
        ],
        "dialogID": 716520505,
        "protectTime": 0.5
      }
    ],
    [
      {
        "$type": "MJFAIFFAGOF",
        "type": "DIALOG",
        "aliasList": [
          "30050"
        ],
        "dialogID": 716520506,
        "protectTime": 0.5
      }
    ],
    [
      {
        "$type": "MJFAIFFAGOF",
        "type": "DIALOG",
        "aliasList": [
          "30050"
        ],
        "dialogID": 716520507,
        "protectTime": 0.5
      }
    ],
    [
      {
        "$type": "MJFAIFFAGOF",
        "type": "DIALOG",
        "aliasList": [
          "30049"
        ],
        "dialogID": 716520508,
        "protectTime": 0.5
      }
    ],
    [
      {
        "$type": "MJFAIFFAGOF",
        "type": "DIALOG",
        "aliasList": [
          "30049"
        ],
        "dialogID": 716520509,
        "protectTime": 0.5
      }
    ],
    [
      {
        "$type": "MJFAIFFAGOF",
        "type": "DIALOG",
        "aliasList": [
          "30050"
        ],
        "dialogID": 716520510,
        "protectTime": 0.5
      }
    ],
    [
      {
        "$type": "MJFAIFFAGOF",
        "type": "DIALOG",
        "aliasList": [
          "30050"
        ],
        "dialogID": 716520511,
        "protectTime": 0.5
      }
    ],
    [
      {
        "$type": "OBCDECFOOBC",
        "type": "DIALOG_SELECT",
        "delayTime": 0.4000000059604645,
        "aliasList": [
          "Avatar"
        ],
        "dialogIDList": [
          716520513
        ],
        "grpIDList": [
          3196091187
        ],
        "useGrpId": true
      },
      {
        "$type": "MJFAIFFAGOF",
        "type": "DIALOG",
        "aliasList": [
          "30050"
        ],
        "dialogID": 716520512,
        "protectTime": 0.5
      }
    ],
    [
      {
        "$type": "MoleMole.Config.ConfigLuaAction",
        "type": "LUA_ACTION",
        "duration": 0.5,
        "invoke": true,
        "invokeAlias": "71652",
        "invokeParam": 1
      },
      {
        "$type": "MJFAIFFAGOF",
        "type": "DIALOG",
        "aliasList": [
          "30050"
        ],
        "dialogID": 716520514,
        "protectTime": 0.5
      }
    ],
    [
      {
        "$type": "MoleMole.Config.ConfigUITriggerInterAction",
        "type": "UI_TRIGGER",
        "contextName": "ChannellerSlabStagePageContext",
        "_param": "3"
      }
    ],
    [
      {
        "$type": "MoleMole.Config.ConfigTimeProtectAction",
        "type": "TIME_PROTECT",
        "duration": 0.10000000149011612
      }
    ]
  ],
  "groupId": [
    {
      "grpId": 1072931039,
      "nextGrpId": 1072931040
    },
    {
      "index": 1,
      "grpId": 1072931040,
      "nextGrpId": 1072931041
    },
    {
      "index": 2,
      "grpId": 1072931041,
      "nextGrpId": 1072931043
    },
    {
      "index": 3,
      "grpId": 1072931042,
      "nextGrpId": 1072931043
    },
    {
      "index": 4,
      "grpId": 1072931043,
      "nextGrpId": 1072931044
    },
    {
      "index": 5,
      "grpId": 1072931044,
      "nextGrpId": 1072931045
    },
    {
      "index": 6,
      "grpId": 1072931045,
      "nextGrpId": 1072931046
    },
    {
      "index": 7,
      "grpId": 1072931046,
      "nextGrpId": 1072931047
    },
    {
      "index": 8,
      "grpId": 1072931047,
      "nextGrpId": 3196091185
    },
    {
      "index": 9,
      "grpId": 3196091185,
      "nextGrpId": 3196091186
    },
    {
      "index": 10,
      "grpId": 3196091186,
      "nextGrpId": 3196091187
    },
    {
      "index": 11,
      "grpId": 3196091187,
      "nextGrpId": 3196091188
    },
    {
      "index": 12,
      "grpId": 3196091188,
      "nextGrpId": 3196091189
    },
    {
      "index": 13,
      "grpId": 3196091189,
      "nextGrpId": 3196091190
    }
  ],
  "freeStyleDic": {
    "30049": [],
    "30050": []
  }
}