{
  "common": {
    "effectAttachShape": {
      "$type": "OOMMNAAKJOP",
      "mesh": "EffectMesh"
    },
    "mass": 30.0,
    "affectedByWorld": true,
    "checkInSurface": true,
    "scale": 1.100000023841858,
    "useGrassDisplacement": true
  },
  "headControl": {
    "$type": "FKHBOAJEOKE",
    "useHeadControl": true,
    "animStates": [
      "NormalIdle/Standby",
      "NormalMove/WalkForward",
      "NormalMove/WalkBack",
      "NormalMove/WalkRight",
      "NormalMove/WalkLeft",
      "NormalMove/Run",
      "Turn/TurnLeft",
      "Turn/TurnRight"
    ]
  },
  "model": {
    "bornEffect": "Eff_Monster_Common_Born",
    "attachEffect": ""
  },
  "combat": {
    "property": {
      "endureType": "Monster_Minion",
      "weight": 75.0
    },
    "beHit": {
      "hitBloodEffect": ""
    },
    "combatLock": {
      "lockShape": "CircleLockEnemy",
      "lockType": "Avatar&Monster_Lv4"
    },
    "die": {
      "hasAnimatorDie": true,
      "dieEndTime": 2.0,
      "dieForceDisappearTime": 4.0,
      "dieDisappearEffect": "Eff_Death_Common",
      "dieShaderData": "MonsterDie",
      "dieModelFadeDelay": 0.5,
      "useRagDoll": true,
      "muteHitBox": true,
      "dieDenyLockOn": true,
      "dieIsGhostToEnemy": true,
      "dieIgnoreTriggerBullet": true,
      "muteBillboard": true,
      "mutePushCollider": true
    },
    "animEvents": {
      "AtkL01": {
        "attackPattern": {
          "$type": "LGEKKELKDAN",
          "triggerType": "TriggerNoRepeat",
          "born": {
            "$type": "KPFCCIOJAMK",
            "offset": {
              "GOAPOLCAJBP": 0.0,
              "FMOPCJGGFMH": 0.0,
              "EJJEPFCDDAM": -0.5
            }
          },
          "fanAngle": 75.0,
          "MFGGJCPPBGA": 2.0
        },
        "attackInfo": {
          "attackTag": "",
          "attenuationTag": "",
          "attenuationGroup": "default",
          "attackProperty": {
            "JMLMDDCBIAO": 1.0,
            "damagePercentageRatio": 0.0,
            "elementDurability": 100.0,
            "strikeType": "Blunt",
            "enBreak": 50.0,
            "attackType": "Melee",
            "damagePercentage": 0.0
          },
          "hitPattern": {
            "onHitEffectName": "default",
            "hitImpulseY": "",
            "hitImpulseType": "LV2"
          }
        }
      },
      "AtkL02": {
        "attackPattern": {
          "$type": "LGEKKELKDAN",
          "triggerType": "TriggerNoRepeat",
          "born": {
            "$type": "KPFCCIOJAMK",
            "offset": {
              "GOAPOLCAJBP": 0.0,
              "FMOPCJGGFMH": 0.0,
              "EJJEPFCDDAM": -0.5
            }
          },
          "fanAngle": 75.0,
          "MFGGJCPPBGA": 2.0
        },
        "attackInfo": {
          "attackTag": "",
          "attenuationTag": "",
          "attenuationGroup": "default",
          "attackProperty": {
            "JMLMDDCBIAO": 1.0,
            "damagePercentageRatio": 0.0,
            "elementDurability": 100.0,
            "strikeType": "Blunt",
            "enBreak": 50.0,
            "attackType": "Melee",
            "damagePercentage": 0.0
          },
          "hitPattern": {
            "onHitEffectName": "default",
            "hitImpulseY": "",
            "hitImpulseType": "LV2"
          }
        }
      },
      "AtkL03": {
        "attackPattern": {
          "$type": "LGEKKELKDAN",
          "triggerType": "TriggerNoRepeat",
          "born": {
            "$type": "KPFCCIOJAMK",
            "offset": {
              "GOAPOLCAJBP": 0.0,
              "FMOPCJGGFMH": 0.0,
              "EJJEPFCDDAM": -0.5
            }
          },
          "fanAngle": 75.0,
          "MFGGJCPPBGA": 2.0
        },
        "attackInfo": {
          "attackTag": "",
          "attenuationTag": "",
          "attenuationGroup": "default",
          "attackProperty": {
            "JMLMDDCBIAO": 1.25,
            "damagePercentageRatio": 0.0,
            "elementDurability": 100.0,
            "strikeType": "Blunt",
            "enBreak": 100.0,
            "attackType": "Melee",
            "damagePercentage": 0.0
          },
          "hitPattern": {
            "onHitEffectName": "default",
            "hitImpulseY": "",
            "hitImpulseType": "LV4"
          },
          "cameraShake": {
            "shakeType": "HitVector",
            "shakeRange": 0.03999999910593033,
            "shakeTime": 0.09000000357627869,
            "shakeDir": {
              "y": -1.0
            }
          }
        }
      },
      "AtkH": {
        "attackPattern": {
          "$type": "LGEKKELKDAN",
          "triggerType": "TriggerNoRepeat",
          "born": {
            "$type": "KPFCCIOJAMK",
            "offset": {
              "GOAPOLCAJBP": 0.0,
              "FMOPCJGGFMH": 0.0,
              "EJJEPFCDDAM": -0.5
            }
          },
          "fanAngle": 75.0,
          "MFGGJCPPBGA": 1.75
        },
        "attackInfo": {
          "attackTag": "",
          "attenuationTag": "",
          "attenuationGroup": "default",
          "attackProperty": {
            "JMLMDDCBIAO": 2.0,
            "damagePercentageRatio": 0.0,
            "elementDurability": 100.0,
            "strikeType": "Blunt",
            "enBreak": 200.0,
            "attackType": "Melee",
            "damagePercentage": 0.0
          },
          "hitPattern": {
            "onHitEffectName": "default",
            "hitImpulseY": "",
            "hitImpulseType": "LV5"
          },
          "cameraShake": {
            "shakeType": "HitVector",
            "shakeRange": 0.05999999865889549,
            "shakeTime": 0.09000000357627869,
            "shakeDir": {
              "y": -1.0
            }
          }
        }
      },
      "AtkNormal": {
        "attackPattern": {
          "$type": "LGEKKELKDAN",
          "triggerType": "TriggerNoRepeat",
          "born": {
            "$type": "KPFCCIOJAMK",
            "offset": {
              "GOAPOLCAJBP": 0.0,
              "FMOPCJGGFMH": 0.0,
              "EJJEPFCDDAM": 0.0
            }
          },
          "fanAngle": 60.0,
          "MFGGJCPPBGA": 1.75
        },
        "attackInfo": {
          "attackTag": "",
          "attenuationTag": "",
          "attenuationGroup": "default",
          "attackProperty": {
            "JMLMDDCBIAO": 1.0,
            "damagePercentageRatio": 0.0,
            "elementDurability": 100.0,
            "strikeType": "Blunt",
            "enBreak": 80.0,
            "attackType": "Melee",
            "damagePercentage": 0.0
          },
          "hitPattern": {
            "onHitEffectName": "default",
            "hitImpulseY": "",
            "hitImpulseType": "LV3",
            "hitHaltTimeScale": 0.009999999776482582
          }
        }
      },
      "AtkNo": {
        "attackPattern": {
          "$type": "LGEKKELKDAN",
          "triggerType": "TriggerNoRepeat",
          "born": {
            "$type": "KPFCCIOJAMK",
            "offset": {
              "GOAPOLCAJBP": 0.0,
              "FMOPCJGGFMH": 0.0,
              "EJJEPFCDDAM": -0.5
            }
          },
          "fanAngle": 60.0,
          "MFGGJCPPBGA": 1.5
        },
        "attackInfo": {
          "attackTag": "",
          "attenuationTag": "",
          "attenuationGroup": "default",
          "attackProperty": {
            "JMLMDDCBIAO": 0.75,
            "damagePercentageRatio": 0.0,
            "elementDurability": 100.0,
            "strikeType": "Blunt",
            "enBreak": 60.0,
            "attackType": "Melee",
            "damagePercentage": 0.0
          },
          "hitPattern": {
            "onHitEffectName": "default",
            "hitImpulseY": "",
            "hitImpulseType": "LV3",
            "hitHaltTimeScale": 0.009999999776482582
          }
        }
      },
      "DefendAttack_BS": {
        "attackPattern": {
          "$type": "LGEKKELKDAN",
          "triggerType": "TriggerNoRepeat",
          "born": {
            "$type": "KPFCCIOJAMK",
            "offset": {
              "GOAPOLCAJBP": 0.0,
              "FMOPCJGGFMH": 0.0,
              "EJJEPFCDDAM": -0.5
            },
            "direction": {
              "$type": "HDGHIAEOIJK",
              "angleOffset": {
                "GOAPOLCAJBP": 0.0,
                "FMOPCJGGFMH": -30.0,
                "EJJEPFCDDAM": 0.0
              }
            }
          },
          "fanAngle": 120.0,
          "MFGGJCPPBGA": 1.5
        },
        "attackInfo": {
          "attackTag": "",
          "attenuationTag": "",
          "attenuationGroup": "default",
          "attackProperty": {
            "JMLMDDCBIAO": 0.0,
            "damagePercentageRatio": 0.0,
            "elementDurability": 100.0,
            "enBreak": 60.0,
            "damagePercentage": 0.0
          },
          "hitPattern": {
            "onHitEffectName": "default",
            "hitImpulseY": "",
            "hitImpulseType": "LV3",
            "hitHaltTime": 0.11999999731779099,
            "hitHaltTimeScale": 0.10000000149011612,
            "muteHitText": true
          }
        }
      },
      "DefendAttack_AS": {
        "attackPattern": {
          "$type": "LGEKKELKDAN",
          "triggerType": "TriggerNoRepeat",
          "born": {
            "$type": "KPFCCIOJAMK",
            "offset": {
              "GOAPOLCAJBP": 0.0,
              "FMOPCJGGFMH": 0.0,
              "EJJEPFCDDAM": -0.5
            }
          },
          "fanAngle": 75.0,
          "MFGGJCPPBGA": 2.0
        },
        "attackInfo": {
          "attackTag": "",
          "attenuationTag": "",
          "attenuationGroup": "default",
          "attackProperty": {
            "JMLMDDCBIAO": 1.0,
            "damagePercentageRatio": 0.0,
            "elementDurability": 100.0,
            "strikeType": "Blunt",
            "enBreak": 60.0,
            "attackType": "Melee",
            "damagePercentage": 0.0
          },
          "hitPattern": {
            "onHitEffectName": "default",
            "hitImpulseY": "",
            "hitImpulseType": "LV4"
          }
        }
      }
    }
  },
  "equipController": {
    "sheathPoint": "",
    "attachPoints": {
      "equip01": "WeaponR",
      "equip02": "WeaponL"
    }
  },
  "abilities": [
    {
      "abilityID": "Alert",
      "abilityName": "Hili_None_Alert",
      "abilityOverride": "",
      "lightWeightRemove": true
    },
    {
      "abilityID": "AwakeAlert",
      "abilityName": "Hili_None_AwakeAlert",
      "abilityOverride": "",
      "lightWeightRemove": true
    },
    {
      "abilityID": "SteerAttack",
      "abilityName": "Hili_None_SteerAttack",
      "abilityOverride": ""
    },
    {
      "abilityID": "Shoot",
      "abilityName": "Hili_None_ShootArrow_WithRandom",
      "abilityOverride": ""
    },
    {
      "abilityID": "ThrowPebble_Effect",
      "abilityName": "Hili_None_ThrowPebble_Effect",
      "abilityOverride": ""
    },
    {
      "abilityID": "ThrowPebble",
      "abilityName": "Hili_None_ThrowPebble",
      "abilityOverride": ""
    },
    {
      "abilityID": "ThrowPebble_Shield_Effect",
      "abilityName": "Hili_None_ThrowPebble_Shield_Effect",
      "abilityOverride": ""
    },
    {
      "abilityID": "ThrowPebble_Shield",
      "abilityName": "Hili_None_ThrowPebble_Shield",
      "abilityOverride": ""
    },
    {
      "abilityID": "Hili_None_SpecialsState_Weapon",
      "abilityName": "Hili_None_SpecialsState_Weapon",
      "abilityOverride": "",
      "lightWeightRemove": true
    },
    {
      "abilityID": "Hili_None_SpecialsState_HideWeapon",
      "abilityName": "Hili_None_SpecialsState_HideWeapon",
      "abilityOverride": "",
      "lightWeightRemove": true
    },
    {
      "abilityID": "SpecialsState_AIStateInitial",
      "abilityName": "Hili_None_SpecialsState_AIStateInitial",
      "abilityOverride": "",
      "lightWeightRemove": true
    },
    {
      "abilityID": "EquipFlagManager",
      "abilityName": "Hili_None_EquipFlagManager",
      "abilityOverride": ""
    },
    {
      "abilityID": "Hili_ActionPointRegister",
      "abilityName": "Hili_None_ActionPointRegister",
      "abilityOverride": "",
      "lightWeightRemove": true
    },
    {
      "abilityID": "TurnToSleep",
      "abilityName": "Hili_None_TurnToSleep",
      "abilityOverride": "",
      "lightWeightRemove": true
    },
    {
      "abilityID": "OutOfSleep",
      "abilityName": "Hili_None_OutOfSleep",
      "abilityOverride": "",
      "lightWeightRemove": true
    },
    {
      "abilityID": "TurnToSit",
      "abilityName": "Hili_None_TurnToSit",
      "abilityOverride": "",
      "lightWeightRemove": true
    },
    {
      "abilityID": "OutOfSit",
      "abilityName": "Hili_None_OutOfSit",
      "abilityOverride": "",
      "lightWeightRemove": true
    },
    {
      "abilityID": "TurnToPractice",
      "abilityName": "Hili_None_TurnToPractice",
      "abilityOverride": "",
      "lightWeightRemove": true
    },
    {
      "abilityID": "OutOfPractice",
      "abilityName": "Hili_None_OutOfPractice",
      "abilityOverride": "",
      "lightWeightRemove": true
    },
    {
      "abilityID": "TurnToThreat",
      "abilityName": "Hili_None_TurnToThreat",
      "abilityOverride": "",
      "lightWeightRemove": true
    },
    {
      "abilityID": "OutOfThreat",
      "abilityName": "Hili_None_OutOfThreat",
      "abilityOverride": "",
      "lightWeightRemove": true
    },
    {
      "abilityID": "TurnToSurround",
      "abilityName": "Hili_None_TurnToSurround",
      "abilityOverride": "",
      "lightWeightRemove": true
    },
    {
      "abilityID": "OutOfSurround",
      "abilityName": "Hili_None_OutOfSurround",
      "abilityOverride": "",
      "lightWeightRemove": true
    },
    {
      "abilityID": "TurnToBuild",
      "abilityName": "Hili_None_TurnToBuild",
      "abilityOverride": "",
      "lightWeightRemove": true
    },
    {
      "abilityID": "OutOfBuild",
      "abilityName": "Hili_None_OutOfBuild",
      "abilityOverride": "",
      "lightWeightRemove": true
    },
    {
      "abilityID": "Build_Effect",
      "abilityName": "Hili_None_Build_Effect",
      "abilityOverride": "",
      "lightWeightRemove": true
    },
    {
      "abilityID": "TurnToMake",
      "abilityName": "Hili_None_TurnToMake",
      "abilityOverride": "",
      "lightWeightRemove": true
    },
    {
      "abilityID": "OutOfMake",
      "abilityName": "Hili_None_OutOfMake",
      "abilityOverride": "",
      "lightWeightRemove": true
    },
    {
      "abilityID": "Make_Effect",
      "abilityName": "Hili_None_Make_Effect",
      "abilityOverride": "",
      "lightWeightRemove": true
    },
    {
      "abilityID": "TurnToSearch",
      "abilityName": "Hili_None_TurnToSearch",
      "abilityOverride": "",
      "lightWeightRemove": true
    },
    {
      "abilityID": "OutOfSearch",
      "abilityName": "Hili_None_OutOfSearch",
      "abilityOverride": "",
      "lightWeightRemove": true
    },
    {
      "abilityID": "Search_Effect",
      "abilityName": "Hili_None_Search_Effect",
      "abilityOverride": "",
      "lightWeightRemove": true
    },
    {
      "abilityID": "TurnToDance",
      "abilityName": "Hili_None_TurnToDance",
      "abilityOverride": "",
      "lightWeightRemove": true
    },
    {
      "abilityID": "OutOfDance",
      "abilityName": "Hili_None_OutOfDance",
      "abilityOverride": "",
      "lightWeightRemove": true
    },
    {
      "abilityID": "",
      "abilityName": "Hili_None_TurnToMining",
      "abilityOverride": "",
      "lightWeightRemove": true
    },
    {
      "abilityID": "",
      "abilityName": "Hili_None_OutOfMining",
      "abilityOverride": "",
      "lightWeightRemove": true
    }
  ],
  "stateLayers": {
    "defaultLayer": {
      "$type": "AEMHOACJLIB",
      "layerIndexName": "",
      "GCIDDLIDFAE": "",
      "stateIDs": {
        "NormalIdle": {
          "$type": "HHFDCADFGDM",
          "animatorStates": {
            "Standby": [],
            "Born": []
          },
          "canDoSkill": true,
          "canSyncMove": true,
          "resetAnimatorTriggerOnExit": [
            "DoSkill"
          ]
        },
        "NormalMove": {
          "$type": "HHFDCADFGDM",
          "animatorStates": {
            "WalkForward": [
              "Audio_Hili_Walk"
            ],
            "WalkBack": [
              "Audio_Hili_Walk"
            ],
            "WalkRight": [
              "Audio_Hili_Walk"
            ],
            "WalkLeft": [
              "Audio_Hili_Walk"
            ],
            "Run": [
              "Audio_Hili_Run"
            ]
          },
          "canDoSkill": true,
          "canSyncMove": true,
          "resetAnimatorTriggerOnExit": [
            "DoSkill"
          ],
          "canSteer": true
        },
        "Turn": {
          "$type": "HHFDCADFGDM",
          "animatorStates": {
            "TurnLeft": [
              "Audio_Hili_Walk"
            ],
            "TurnRight": [
              "Audio_Hili_Walk"
            ]
          },
          "canDoSkill": true,
          "canSyncMove": true,
          "resetAnimatorTriggerOnExit": [
            "DoSkill"
          ],
          "canSteer": true,
          "autoSteer": true
        },
        "WeaponOnFire": {
          "$type": "HHFDCADFGDM",
          "animatorStates": {
            "WeaponOnFire": [
              "Audio_Hili_WeaponOnFire"
            ]
          },
          "canSyncMove": true,
          "resetAnimatorTriggerOnExit": [
            "DoSkill"
          ]
        },
        "BeHit": {
          "$type": "HHFDCADFGDM",
          "animatorStates": {
            "Hit_L": [
              "Audio_Hili_Hit_L"
            ],
            "Hit_H": [
              "Audio_Hili_Hit_H"
            ],
            "DHit": [
              "Audio_Hili_Hit_L"
            ]
          },
          "resetAnimatorTriggerOnEnter": [
            "BeHit"
          ],
          "resetAnimatorTriggerOnExit": [
            "DoSkill"
          ]
        },
        "BeHitThrow": {
          "$type": "HHFDCADFGDM",
          "animatorStates": {
            "HitThrow": [
              "Audio_Hili_Hit_Throw"
            ],
            "HitThrowDrop": [],
            "HitThrowToGround": [
              "Audio_Hili_Hit_ThrowToGround"
            ]
          },
          "resetAnimatorTriggerOnEnter": [
            "BeHit",
            "HitAir2HitDrop"
          ],
          "resetAnimatorTriggerOnExit": [
            "DoSkill"
          ]
        },
        "Struggle": {
          "$type": "HHFDCADFGDM",
          "animatorStates": {
            "Struggle": []
          },
          "resetAnimatorTriggerOnEnter": [
            "BeHit",
            "HitAir2HitDrop"
          ],
          "resetAnimatorTriggerOnExit": [
            "DoSkill"
          ]
        },
        "Die": {
          "$type": "HHFDCADFGDM",
          "animatorStates": {
            "SwimDie": [
              "Monster_Hili_None_Die",
              "Audio_Hili_SwimDie"
            ],
            "SwimDie_AS": [
              "Audio_Hili_SwimDie"
            ]
          }
        },
        "Die_RagDoll": {
          "$type": "HHFDCADFGDM",
          "animatorStates": {
            "Die1": [
              "Monster_Hili_None_Die",
              "Audio_Hili_Die1"
            ],
            "Die2": [
              "Monster_Hili_None_Die",
              "Audio_Hili_Die2"
            ],
            "AirDie": [
              "Monster_Hili_None_Die",
              "Audio_Hili_Die1"
            ]
          },
          "enableRagDoll": true
        },
        "Life_Alert": {
          "$type": "HHFDCADFGDM",
          "animatorStates": {
            "Alert": []
          },
          "resetAnimatorTriggerOnExit": [
            "BeHit",
            "DoSkill"
          ]
        },
        "Life_Warning": {
          "$type": "HHFDCADFGDM",
          "animatorStates": {
            "Warning": [
              "Monster_Undead01_Warning",
              "Monster_Hili_None_Alert",
              "Audio_Hili_Warning"
            ]
          },
          "resetAnimatorTriggerOnExit": [
            "BeHit",
            "DoSkill"
          ]
        },
        "Life_Talk": {
          "$type": "HHFDCADFGDM",
          "animatorStates": {
            "Talk": [],
            "Talk_Sit": []
          },
          "canDoSkill": true,
          "resetAnimatorTriggerOnExit": [
            "BeHit",
            "DoSkill"
          ]
        },
        "TurnToSit": {
          "$type": "HHFDCADFGDM",
          "animatorStates": {
            "TurnToSit": [
              "Monster_Hili_None_TurnToSit"
            ]
          },
          "canDoSkill": true,
          "resetAnimatorTriggerOnExit": [
            "BeHit",
            "DoSkill"
          ]
        },
        "OutOfSit": {
          "$type": "HHFDCADFGDM",
          "animatorStates": {
            "OutOfSit": [
              "Monster_Hili_None_OutOfSit"
            ]
          },
          "canDoSkill": true,
          "resetAnimatorTriggerOnExit": [
            "BeHit",
            "DoSkill"
          ]
        },
        "Sit": {
          "$type": "HHFDCADFGDM",
          "animatorStates": {
            "Sit": []
          },
          "canDoSkill": true,
          "canSyncMove": true,
          "resetAnimatorTriggerOnExit": [
            "DoSkill"
          ]
        },
        "SitFree01": {
          "$type": "HHFDCADFGDM",
          "animatorStates": {
            "SitFree01": []
          },
          "canDoSkill": true,
          "resetAnimatorTriggerOnExit": [
            "BeHit",
            "DoSkill"
          ]
        },
        "TurnToSleep": {
          "$type": "HHFDCADFGDM",
          "animatorStates": {
            "TurnToSleep": [
              "Monster_Hili_None_TurnToSleep"
            ]
          },
          "canDoSkill": true,
          "resetAnimatorTriggerOnExit": [
            "BeHit",
            "DoSkill"
          ]
        },
        "OutOfSleep": {
          "$type": "HHFDCADFGDM",
          "animatorStates": {
            "OutOfSleep": [
              "Monster_Hili_None_OutOfSleep"
            ]
          },
          "canDoSkill": true,
          "resetAnimatorTriggerOnExit": [
            "BeHit",
            "DoSkill"
          ]
        },
        "Sleep": {
          "$type": "HHFDCADFGDM",
          "animatorStates": {
            "Sleep": [
              "Audio_Hili_Sleep"
            ]
          },
          "canDoSkill": true,
          "canSyncMove": true,
          "resetAnimatorTriggerOnExit": [
            "DoSkill"
          ]
        },
        "SleepFree01": {
          "$type": "HHFDCADFGDM",
          "animatorStates": {
            "SleepFree01": []
          },
          "canDoSkill": true,
          "resetAnimatorTriggerOnExit": [
            "BeHit",
            "DoSkill"
          ]
        },
        "SleepFree02": {
          "$type": "HHFDCADFGDM",
          "animatorStates": {
            "SleepFree02": []
          },
          "canDoSkill": true,
          "resetAnimatorTriggerOnExit": [
            "BeHit",
            "DoSkill"
          ]
        },
        "SleepFree03": {
          "$type": "HHFDCADFGDM",
          "animatorStates": {
            "SleepFree03": []
          },
          "canDoSkill": true,
          "resetAnimatorTriggerOnExit": [
            "BeHit",
            "DoSkill"
          ]
        },
        "TurnToPractice": {
          "$type": "HHFDCADFGDM",
          "animatorStates": {
            "TurnToPractice": [
              "Monster_Hili_None_TurnToPractice"
            ]
          },
          "canDoSkill": true,
          "resetAnimatorTriggerOnExit": [
            "BeHit",
            "DoSkill"
          ]
        },
        "OutOfPractice": {
          "$type": "HHFDCADFGDM",
          "animatorStates": {
            "OutOfPractice": [
              "Monster_Hili_None_OutOfPractice"
            ]
          },
          "canDoSkill": true,
          "resetAnimatorTriggerOnExit": [
            "BeHit",
            "DoSkill"
          ]
        },
        "Practice": {
          "$type": "HHFDCADFGDM",
          "animatorStates": {
            "Practice": []
          },
          "canDoSkill": true,
          "canSyncMove": true,
          "resetAnimatorTriggerOnExit": [
            "DoSkill"
          ]
        },
        "Practice_Action": {
          "$type": "HHFDCADFGDM",
          "animatorStates": {
            "Practice_NoWeapon": [
              "Audio_Hili_Practice_NoWeapon"
            ],
            "Practice_NoWeapon_Back": [],
            "Practice_Sword": [
              "Audio_Hili_Practice_Sword"
            ],
            "Practice_Sword_Back": [],
            "Practice_Shoot_Aim": [],
            "Practice_Shoot_Attack": []
          },
          "canDoSkill": true,
          "canSyncMove": true,
          "resetAnimatorTriggerOnExit": [
            "DoSkill"
          ]
        },
        "TurnToThreat": {
          "$type": "HHFDCADFGDM",
          "animatorStates": {
            "TurnToThreat": [
              "Monster_Hili_None_TurnToThreat"
            ]
          },
          "canDoSkill": true,
          "resetAnimatorTriggerOnExit": [
            "BeHit",
            "DoSkill"
          ]
        },
        "OutOfThreat": {
          "$type": "HHFDCADFGDM",
          "animatorStates": {
            "OutOfThreat": [
              "Monster_Hili_None_OutOfThreat"
            ]
          },
          "canDoSkill": true,
          "resetAnimatorTriggerOnExit": [
            "BeHit",
            "DoSkill"
          ]
        },
        "Threat": {
          "$type": "HHFDCADFGDM",
          "animatorStates": {
            "Threat": []
          },
          "canDoSkill": true,
          "resetAnimatorTriggerOnExit": [
            "BeHit",
            "DoSkill"
          ]
        },
        "ThreatFree01": {
          "$type": "HHFDCADFGDM",
          "animatorStates": {
            "ThreatFree01_NoWeapon": [
              "Audio_Hili_Taunt"
            ],
            "ThreatFree01_Club": [
              "Audio_Hili_Taunt"
            ]
          },
          "canDoSkill": true,
          "resetAnimatorTriggerOnExit": [
            "BeHit",
            "DoSkill"
          ]
        },
        "ThreatFree02": {
          "$type": "HHFDCADFGDM",
          "animatorStates": {
            "ThreatFree02_NoWeapon": [
              "Audio_Hili_Taunt"
            ],
            "ThreatFree02_Club": [
              "Audio_Hili_Taunt"
            ]
          },
          "canDoSkill": true,
          "resetAnimatorTriggerOnExit": [
            "BeHit",
            "DoSkill"
          ]
        },
        "TurnToSurround": {
          "$type": "HHFDCADFGDM",
          "animatorStates": {
            "TurnToSurround": [
              "Monster_Hili_None_TurnToSurround"
            ]
          },
          "canDoSkill": true,
          "resetAnimatorTriggerOnExit": [
            "BeHit",
            "DoSkill"
          ]
        },
        "OutOfSurround": {
          "$type": "HHFDCADFGDM",
          "animatorStates": {
            "OutOfSurround": [
              "Monster_Hili_None_OutOfSurround"
            ]
          },
          "canDoSkill": true,
          "resetAnimatorTriggerOnExit": [
            "BeHit",
            "DoSkill"
          ]
        },
        "Surround": {
          "$type": "HHFDCADFGDM",
          "animatorStates": {
            "Surround": []
          },
          "canDoSkill": true,
          "resetAnimatorTriggerOnExit": [
            "BeHit",
            "DoSkill"
          ]
        },
        "SurroundFree01": {
          "$type": "HHFDCADFGDM",
          "animatorStates": {
            "SurroundFree01_NoWeapon": [],
            "SurroundFree01_Club": []
          },
          "canDoSkill": true,
          "resetAnimatorTriggerOnExit": [
            "BeHit",
            "DoSkill"
          ]
        },
        "TurnToBuild": {
          "$type": "HHFDCADFGDM",
          "animatorStates": {
            "TurnToBuild": [
              "Monster_Hili_None_TurnToBuild"
            ]
          },
          "canDoSkill": true,
          "resetAnimatorTriggerOnExit": [
            "BeHit",
            "DoSkill"
          ]
        },
        "OutOfBuild": {
          "$type": "HHFDCADFGDM",
          "animatorStates": {
            "OutOfBuild": [
              "Monster_Hili_None_OutOfBuild"
            ]
          },
          "canDoSkill": true,
          "resetAnimatorTriggerOnExit": [
            "BeHit",
            "DoSkill"
          ]
        },
        "Build": {
          "$type": "HHFDCADFGDM",
          "animatorStates": {
            "Build": [
              "Monster_Hili_None_Build"
            ]
          },
          "canDoSkill": true,
          "resetAnimatorTriggerOnExit": [
            "BeHit",
            "DoSkill"
          ]
        },
        "TurnToMake": {
          "$type": "HHFDCADFGDM",
          "animatorStates": {
            "TurnToMake": [
              "Monster_Hili_None_TurnToMake"
            ]
          },
          "canDoSkill": true,
          "resetAnimatorTriggerOnExit": [
            "BeHit",
            "DoSkill"
          ]
        },
        "OutOfMake": {
          "$type": "HHFDCADFGDM",
          "animatorStates": {
            "OutOfMake": [
              "Monster_Hili_None_OutOfMake"
            ]
          },
          "canDoSkill": true,
          "resetAnimatorTriggerOnExit": [
            "BeHit",
            "DoSkill"
          ]
        },
        "Make": {
          "$type": "HHFDCADFGDM",
          "animatorStates": {
            "Make": [
              "Monster_Hili_None_Make"
            ]
          },
          "canDoSkill": true,
          "resetAnimatorTriggerOnExit": [
            "BeHit",
            "DoSkill"
          ]
        },
        "TurnToSearch": {
          "$type": "HHFDCADFGDM",
          "animatorStates": {
            "TurnToSearch": [
              "Monster_Hili_None_TurnToSearch"
            ]
          },
          "canDoSkill": true,
          "resetAnimatorTriggerOnExit": [
            "BeHit",
            "DoSkill"
          ]
        },
        "OutOfSearch": {
          "$type": "HHFDCADFGDM",
          "animatorStates": {
            "OutOfSearch": [
              "Monster_Hili_None_OutOfSearch"
            ]
          },
          "canDoSkill": true,
          "resetAnimatorTriggerOnExit": [
            "BeHit",
            "DoSkill"
          ]
        },
        "Search": {
          "$type": "HHFDCADFGDM",
          "animatorStates": {
            "Search": [
              "Monster_Hili_None_Search"
            ]
          },
          "canDoSkill": true,
          "resetAnimatorTriggerOnExit": [
            "BeHit",
            "DoSkill"
          ]
        },
        "TurnToDance": {
          "$type": "HHFDCADFGDM",
          "animatorStates": {
            "TurnToDance": [
              "Monster_Hili_None_TurnToDance"
            ]
          },
          "canDoSkill": true,
          "resetAnimatorTriggerOnExit": [
            "BeHit",
            "DoSkill"
          ]
        },
        "OutOfDance": {
          "$type": "HHFDCADFGDM",
          "animatorStates": {
            "OutOfDance": [
              "Monster_Hili_None_OutOfDance"
            ]
          },
          "canDoSkill": true,
          "resetAnimatorTriggerOnExit": [
            "BeHit",
            "DoSkill"
          ]
        },
        "Dance": {
          "$type": "HHFDCADFGDM",
          "animatorStates": {
            "Dance": []
          },
          "canDoSkill": true,
          "resetAnimatorTriggerOnExit": [
            "BeHit",
            "DoSkill"
          ]
        },
        "TurnToMining": {
          "$type": "HHFDCADFGDM",
          "animatorStates": {
            "TurnToMining": [
              "Monster_Hili_None_TurnToMining"
            ]
          },
          "canDoSkill": true,
          "resetAnimatorTriggerOnExit": [
            "BeHit",
            "DoSkill"
          ]
        },
        "OutOfMining": {
          "$type": "HHFDCADFGDM",
          "animatorStates": {
            "OutOfMining": [
              "Monster_Hili_None_OutOfMining"
            ]
          },
          "canDoSkill": true,
          "resetAnimatorTriggerOnExit": [
            "BeHit",
            "DoSkill"
          ]
        },
        "Mining": {
          "$type": "HHFDCADFGDM",
          "animatorStates": {
            "Mining": []
          },
          "canDoSkill": true,
          "resetAnimatorTriggerOnExit": [
            "BeHit",
            "DoSkill"
          ]
        },
        "MiningFree": {
          "$type": "HHFDCADFGDM",
          "animatorStates": {
            "Mining_01": [
              "Monster_Hili_None_Mining_Sparkle_Weak",
              "Audio_Hili_Mining_01"
            ],
            "Mining_02": [
              "Monster_Hili_None_Mining_Sparkle_Strong",
              "Audio_Hili_Mining_02"
            ]
          },
          "canDoSkill": true,
          "resetAnimatorTriggerOnExit": [
            "BeHit",
            "DoSkill"
          ]
        },
        "Life_AwakeAlertBS": {
          "$type": "HHFDCADFGDM",
          "animatorStates": {
            "AwakeAlert_BS": [
              "Monster_Hili_None_AwakeAlert"
            ]
          },
          "resetAnimatorTriggerOnExit": [
            "BeHit",
            "DoSkill",
            "AwakeAlert"
          ]
        },
        "Life_AwakeAlertAS": {
          "$type": "HHFDCADFGDM",
          "animatorStates": {
            "AwakeAlert_AS": []
          },
          "canDoSkill": true,
          "resetAnimatorTriggerOnExit": [
            "BeHit",
            "DoSkill"
          ]
        },
        "Sword_TripleAttack": {
          "$type": "HHFDCADFGDM",
          "animatorStates": {
            "Sword_TripleAttack_First_BS": [
              "Monster_Undead01_TripleAttack_First"
            ],
            "Sword_TripleAttack_First_Halt": [
              "Monster_Undead01_TripleAttack_First"
            ],
            "Sword_TripleAttack_First": [
              "Monster_Undead01_TripleAttack_First",
              "Audio_Hili_TripleAtk_01",
              "Audio_Hili_TripleAtk"
            ],
            "Sword_TripleAttack_Second_Halt": [
              "Monster_Undead01_TripleAttack_Second"
            ],
            "Sword_TripleAttack_Second": [
              "Monster_Undead01_TripleAttack_Second",
              "Audio_Hili_TripleAtk_01"
            ],
            "Sword_TripleAttack_Thrid_Halt": [
              "Monster_Undead01_TripleAttack_Thrid"
            ],
            "Sword_TripleAttack_Thrid": [
              "Monster_Undead01_TripleAttack_Thrid",
              "Audio_Hili_TripleAtk_02"
            ]
          },
          "resetAnimatorTriggerOnExit": [
            "BeHit",
            "DoSkill"
          ]
        },
        "Sword_ThumpAttack": {
          "$type": "HHFDCADFGDM",
          "animatorStates": {
            "Sword_ThumpAttack_BS": [
              "Monster_Undead01_ThumpAttack",
              "Audio_Hili_ThumpAtk"
            ],
            "Sword_ThumpAttack_Halt": [
              "Monster_Undead01_ThumpAttack"
            ],
            "Sword_ThumpAttack": [
              "Monster_Undead01_ThumpAttack",
              "Audio_Hili_Sword_ThumpAttack"
            ]
          },
          "addEndure": 0.6000000238418579,
          "resetAnimatorTriggerOnExit": [
            "BeHit",
            "DoSkill"
          ]
        },
        "Sword_NormalAttack": {
          "$type": "HHFDCADFGDM",
          "animatorStates": {
            "Sword_NormalAttack": [
              "Monster_Hili_None_NormalAttack",
              "Audio_Hili_Sword_NormalAtk"
            ]
          },
          "resetAnimatorTriggerOnExit": [
            "BeHit",
            "DoSkill"
          ]
        },
        "NoWeapon_Attack": {
          "$type": "HHFDCADFGDM",
          "animatorStates": {
            "NoWeapon_Attack": [
              "Monster_Hili_None_NoWeaponAttack",
              "Audio_Hili_NormalAtk"
            ]
          },
          "resetAnimatorTriggerOnExit": [
            "BeHit",
            "DoSkill"
          ]
        },
        "PickUp": {
          "$type": "HHFDCADFGDM",
          "animatorStates": {
            "PickUp": [
              "Monster_Undead01_PickUp"
            ]
          },
          "resetAnimatorTriggerOnExit": [
            "BeHit",
            "DoSkill"
          ]
        },
        "Taunt": {
          "$type": "HHFDCADFGDM",
          "animatorStates": {
            "Taunt_1": [
              "Audio_Hili_Taunt"
            ],
            "Taunt_2": [
              "Audio_Hili_Taunt"
            ],
            "Taunt_3": [
              "Audio_Hili_Taunt"
            ]
          },
          "resetAnimatorTriggerOnExit": [
            "BeHit",
            "DoSkill"
          ]
        },
        "Taunt_NoWeapon": {
          "$type": "HHFDCADFGDM",
          "animatorStates": {
            "Taunt_NoWeapon_1": [
              "Audio_Hili_Taunt"
            ],
            "Taunt_NoWeapon_2": [
              "Audio_Hili_Taunt"
            ]
          },
          "resetAnimatorTriggerOnExit": [
            "BeHit",
            "DoSkill"
          ]
        },
        "Aim": {
          "$type": "HHFDCADFGDM",
          "animatorStates": {
            "Aim": []
          },
          "resetAnimatorTriggerOnExit": [
            "BeHit",
            "DoSkill"
          ]
        },
        "Shoot": {
          "$type": "HHFDCADFGDM",
          "animatorStates": {
            "Attack": [
              "Monster_Hili_Grass_Shoot_WithRandom",
              "Audio_Hili_Shoot_Atk"
            ]
          },
          "resetAnimatorTriggerOnExit": [
            "BeHit",
            "DoSkill"
          ]
        },
        "Dodge": {
          "$type": "HHFDCADFGDM",
          "animatorStates": {
            "Dodge": [
              "Audio_Hili_Crossbow_Dodge"
            ]
          },
          "resetAnimatorTriggerOnExit": [
            "BeHit",
            "DoSkill",
            "DodgeTrigger"
          ]
        },
        "Defend": {
          "$type": "HHFDCADFGDM",
          "animatorStates": {
            "Defend": [
              "Audio_Hili_DefendAtk_Defend"
            ]
          },
          "resetAnimatorTriggerOnEnter": [
            "DefendTrigger"
          ],
          "resetAnimatorTriggerOnExit": [
            "BeHit",
            "DoSkill"
          ]
        },
        "DefendAttack": {
          "$type": "HHFDCADFGDM",
          "animatorStates": {
            "DefendAttack_BS": [
              "Monster_Hili_None_DefendAttack_BS",
              "Audio_Hili_DefendAtk_BS"
            ],
            "DefendAttack_AS": [
              "Monster_Hili_None_DefendAttack_AS",
              "Audio_Hili_DefendAtk_AS"
            ]
          },
          "addEndure": 0.6000000238418579,
          "resetAnimatorTriggerOnEnter": [
            "DefendAttackTrigger"
          ],
          "resetAnimatorTriggerOnExit": [
            "BeHit",
            "DoSkill"
          ]
        },
        "ThrowPebble": {
          "$type": "HHFDCADFGDM",
          "animatorStates": {
            "ThrowPebble": [
              "Monster_Hili_None_ThrowPebble",
              "Audio_Hili_ThrowPebble"
            ]
          },
          "massRatio": 100.0,
          "resetAnimatorTriggerOnExit": [
            "BeHit",
            "DoSkill"
          ]
        },
        "ThrowPebble_Shield": {
          "$type": "HHFDCADFGDM",
          "animatorStates": {
            "ThrowPebble_Shield": [
              "Monster_Hili_None_ThrowPebble_Shield",
              "Audio_Hili_ThrowPebble_Shield"
            ]
          },
          "massRatio": 100.0,
          "resetAnimatorTriggerOnExit": [
            "BeHit",
            "DoSkill"
          ]
        },
        "LearnBox": {
          "$type": "HHFDCADFGDM",
          "animatorStates": {
            "LearnBox": []
          },
          "canDoSkill": true,
          "canSyncMove": true,
          "resetAnimatorTriggerOnExit": [
            "DoSkill"
          ]
        },
        "Life_LearnBox": {
          "$type": "HHFDCADFGDM",
          "animatorStates": {
            "Boxing": []
          },
          "canDoSkill": true,
          "resetAnimatorTriggerOnExit": [
            "BeHit",
            "DoSkill"
          ]
        }
      }
    }
  },
  "billboard": {
    "$type": "IBDGIBAFPPH",
    "attachPoint": "BillboardAttach",
    "offset": {
      "x": -0.05000000074505806
    },
    "offsetType": "Character",
    "radiusOffset": 0.25,
    "showHPBar": true
  },
  "weather": {
    "Default": {},
    "CrossBow_Fixed": {
      "initialPoseID": 402,
      "initialPoseParams": {
        "boolParams": {
          "CrossBow_Fixed": "true"
        }
      }
    },
    "Sleep": {
      "initialPoseID": 9002,
      "initialPoseParams": {
        "boolParams": {
          "Sleep": "true"
        }
      }
    },
    "Sit": {
      "initialPoseID": 9003,
      "initialPoseParams": {
        "boolParams": {
          "Sit": "true"
        }
      }
    },
    "Threat": {
      "initialPoseID": 9010,
      "initialPoseParams": {
        "boolParams": {
          "Threat": "true"
        }
      }
    },
    "Build": {
      "initialPoseID": 9015,
      "initialPoseParams": {
        "boolParams": {
          "Make": "true"
        }
      }
    },
    "Make": {
      "initialPoseID": 9011,
      "initialPoseParams": {
        "boolParams": {
          "Make": "true"
        }
      }
    },
    "Search": {
      "initialPoseID": 9016,
      "initialPoseParams": {
        "boolParams": {
          "Make": "true"
        }
      }
    },
    "Dance": {
      "initialPoseID": 9012,
      "initialPoseParams": {
        "boolParams": {
          "Dance": "true"
        }
      }
    },
    "Practice": {
      "initialPoseID": 9013,
      "initialPoseParams": {
        "boolParams": {
          "Practice": "true"
        }
      }
    },
    "Surround": {
      "initialPoseID": 9014,
      "initialPoseParams": {
        "boolParams": {
          "Surround": "true"
        }
      }
    },
    "Mining": {
      "initialPoseID": 9017,
      "initialPoseParams": {
        "boolParams": {
          "Mining": "true"
        }
      }
    },
    "LearnBox": {
      "initialPoseID": 9018,
      "initialPoseParams": {
        "boolParams": {
          "LearnBox": "true"
        }
      }
    }
  },
  "inputKeys": [
    {
      "keyID": 201,
      "inputKeyCode": 257,
      "abilityName": ""
    },
    {
      "keyID": 231,
      "inputKeyCode": 258,
      "abilityName": ""
    },
    {
      "keyID": 211,
      "inputKeyCode": 259,
      "abilityName": ""
    },
    {
      "keyID": 601,
      "inputKeyCode": 260,
      "abilityName": ""
    },
    {
      "keyID": 221,
      "inputKeyCode": 262,
      "abilityName": ""
    },
    {
      "keyID": 901,
      "inputKeyCode": 261,
      "abilityName": ""
    },
    {
      "keyID": 301,
      "inputKeyCode": 264,
      "abilityName": ""
    },
    {
      "keyID": 311,
      "inputKeyCode": 265,
      "abilityName": ""
    }
  ],
  "move": {
    "$type": "IOGJKLFDBCH",
    "facingMove": "FourDirection",
    "monsterSizeType": "StoopType",
    "FNILDJLPDCP": "RootNode"
  },
  "audio": {
    "overrideEmitterName": "",
    "animAudio": {
      "onTransitionIn": [
        {
          "currentStateName": "OutOfBuild",
          "audioEvent": {
            "text": "Stop_sfx_monster_hili_build"
          }
        },
        {
          "currentStateName": "Alert",
          "audioEvent": {
            "text": "Stop_sfx_monster_hili_build"
          }
        },
        {
          "currentStateName": "BeHit",
          "audioEvent": {
            "text": "Stop_sfx_monster_hili_build"
          }
        },
        {
          "currentStateName": "Die",
          "audioEvent": {
            "text": "Stop_sfx_monster_hili_build"
          }
        },
        {
          "currentStateName": "Die1",
          "audioEvent": {
            "text": "Stop_sfx_monster_hili_build"
          }
        },
        {
          "currentStateName": "Die2",
          "audioEvent": {
            "text": "Stop_sfx_monster_hili_build"
          }
        },
        {
          "currentStateName": "OutOfMake",
          "audioEvent": {
            "text": "Stop_sfx_monster_hili_build"
          }
        },
        {
          "currentStateName": "Practice_Sword_Back",
          "audioEvent": {
            "text": "Play_sfx_monster_hili_practice_back"
          }
        },
        {
          "currentStateName": "Practice_NoWeapon_Back",
          "audioEvent": {
            "text": "Play_sfx_monster_hili_practice_back"
          }
        },
        {
          "currentStateName": "Practice_Shoot_Aim",
          "audioEvent": {
            "text": "Play_sfx_monster_hili_practice_shoot_aim"
          }
        },
        {
          "currentStateName": "Dance",
          "audioEvent": {
            "text": "Play_sfx_monster_hili_dance"
          }
        },
        {
          "currentStateName": "OutOfDance",
          "audioEvent": {
            "text": "Stop_sfx_monster_hili_dance"
          }
        },
        {
          "currentStateName": "SurroundFree01_Club",
          "audioEvent": {
            "text": "Play_sfx_monster_hili_dance"
          }
        },
        {
          "currentStateName": "SurroundFree01_NoWeapon",
          "audioEvent": {
            "text": "Play_sfx_monster_hili_dance"
          }
        },
        {
          "currentStateName": "OutOfSurround",
          "audioEvent": {
            "text": "Stop_sfx_monster_hili_dance"
          }
        },
        {
          "currentStateName": "Alert",
          "audioEvent": {
            "text": "Stop_sfx_monster_hili_dance"
          }
        },
        {
          "currentStateName": "BeHit",
          "audioEvent": {
            "text": "Stop_sfx_monster_hili_dance"
          }
        },
        {
          "currentStateName": "Die",
          "audioEvent": {
            "text": "Stop_sfx_monster_hili_dance"
          }
        },
        {
          "currentStateName": "Die1",
          "audioEvent": {
            "text": "Stop_sfx_monster_hili_dance"
          }
        },
        {
          "currentStateName": "Die2",
          "audioEvent": {
            "text": "Stop_sfx_monster_hili_dance"
          }
        },
        {
          "currentStateName": "ThreatFree01_NoWeapon",
          "audioEvent": {
            "text": "Play_sfx_monster_hili_dance"
          }
        },
        {
          "currentStateName": "ThreatFree02_NoWeapon",
          "audioEvent": {
            "text": "Play_sfx_monster_hili_dance"
          }
        },
        {
          "currentStateName": "ThreatFree01_Club",
          "audioEvent": {
            "text": "Play_sfx_monster_hili_dance"
          }
        },
        {
          "currentStateName": "ThreatFree02_Club",
          "audioEvent": {
            "text": "Play_sfx_monster_hili_dance"
          }
        },
        {
          "currentStateName": "OutOfThreat",
          "audioEvent": {
            "text": "Stop_sfx_monster_hili_dance"
          }
        }
      ],
      "onTransitionOut": [
        {
          "currentStateName": "Sword_TripleAttack",
          "audioEvent": {
            "text": "Stop_sfx_monster_hili_club_tripleAttack"
          }
        },
        {
          "currentStateName": "Sword_ThumpAttack",
          "audioEvent": {
            "text": "Stop_sfx_monster_hili_club_attack"
          }
        },
        {
          "currentStateName": "Build",
          "audioEvent": {
            "text": "Stop_sfx_monster_hili_build"
          }
        },
        {
          "currentStateName": "Make",
          "audioEvent": {
            "text": "Stop_sfx_monster_hili_build"
          }
        },
        {
          "currentStateName": "Practice_Sword",
          "audioEvent": {
            "text": "Stop_sfx_monster_hili_practice_sword"
          }
        },
        {
          "currentStateName": "Practice_NoWeapon",
          "audioEvent": {
            "text": "Stop_sfx_monster_hili_practice_sword"
          }
        },
        {
          "currentStateName": "Practice_Sword_Back",
          "audioEvent": {
            "text": "Stop_sfx_monster_hili_practice_back"
          }
        },
        {
          "currentStateName": "Practice_NoWeapon_Back",
          "audioEvent": {
            "text": "Stop_sfx_monster_hili_practice_back"
          }
        },
        {
          "currentStateName": "Practice_Shoot_Aim",
          "audioEvent": {
            "text": "Stop_sfx_monster_hili_practice_shoot_aim"
          },
          "otherStateNames": [
            "Practice_Shoot_Attack"
          ],
          "usage": "Except"
        },
        {
          "currentStateName": "Practice_Shoot_Attack",
          "audioEvent": {
            "text": "Stop_sfx_monster_hili_practice_shoot_aim"
          }
        },
        {
          "currentStateName": "Dance",
          "audioEvent": {
            "text": "Stop_sfx_monster_hili_dance"
          }
        },
        {
          "currentStateName": "SurroundFree01_Club",
          "audioEvent": {
            "text": "Stop_sfx_monster_hili_dance"
          }
        },
        {
          "currentStateName": "SurroundFree01_NoWeapon",
          "audioEvent": {
            "text": "Stop_sfx_monster_hili_dance"
          }
        },
        {
          "currentStateName": "ThreatFree01_NoWeapon",
          "audioEvent": {
            "text": "Stop_sfx_monster_hili_dance"
          }
        },
        {
          "currentStateName": "ThreatFree02_NoWeapon",
          "audioEvent": {
            "text": "Stop_sfx_monster_hili_dance"
          }
        },
        {
          "currentStateName": "ThreatFree01_Club",
          "audioEvent": {
            "text": "Stop_sfx_monster_hili_dance"
          }
        },
        {
          "currentStateName": "ThreatFree02_Club",
          "audioEvent": {
            "text": "Stop_sfx_monster_hili_dance"
          }
        }
      ]
    },
    "disableEvent": {
      "text": "Stop_sfx_monster_hili_dance"
    },
    "destroyEvent": {
      "text": "Stop_sfx_monster_hili_dance"
    },
    "FMHCDFNINPH": {
      "text": ""
    },
    "BAFMEMDNAEK": [
      {
        "text": ""
      }
    ]
  }
}