{
  "common": {
    "effectAttachShape": {
      "$type": "CMIPFEGOJCH",
      "EJAEFCDBDFB": "EffectMesh"
    },
    "mass": 500.0,
    "height": 1.600000023841858,
    "affectedByWorld": true,
    "checkInSurface": true,
    "scale": 1.149999976158142,
    "useGrassDisplacement": true
  },
  "headControl": {
    "$type": "HLGPLMCNIFB",
    "useHeadControl": true,
    "BADCMJGBCHM": 80.0,
    "AIOGIMNHIGK": 30.0,
    "GDIAFJFLHCE": [
      "NormalIdle/Standby",
      "NormalMove/WalkForward",
      "NormalMove/WalkBack",
      "NormalMove/WalkRight",
      "NormalMove/WalkLeft",
      "NormalMove/Run",
      "Turn/TurnLeft",
      "Turn/TurnRight"
    ]
  },
  "model": {
    "bornEffect": "Eff_Monster_Common_Born",
    "attachEffect": ""
  },
  "dither": {
    "showDitherDuration": 1.0
  },
  "combat": {
    "property": {
      "endureType": "Monster_Minion",
      "weight": 75.0
    },
    "beHit": {
      "hitBloodEffect": ""
    },
    "combatLock": {
      "lockShape": "CircleLockEnemy",
      "lockType": "Avatar&Monster_Lv4"
    },
    "die": {
      "hasAnimatorDie": true,
      "dieEndTime": 2.5,
      "dieForceDisappearTime": 1.5,
      "dieDisappearEffect": "Eff_Death_Avatar_Common",
      "dieShaderData": "AvatarDie",
      "useRagDoll": true,
      "ragDollDieEndTimeDelay": 1.25,
      "LDOHFFOEPPI": true,
      "BMOKGIFNILM": true,
      "PHCLLDNDFNG": true,
      "CHBAHMJGJBE": true,
      "OPPHENIKFJA": true,
      "CCNGAIMLPIJ": true
    },
    "animEvents": {
      "Atk01": {
        "attackPattern": {
          "$type": "GGBJACPDDCM",
          "triggerType": "TriggerNoRepeat",
          "born": {
            "$type": "KDEPFKAAHCG",
            "offset": {
              "HMHIOILIGBF": 0.20000000298023224,
              "DPPJGBOHAAL": 1.0,
              "DDOAGBLBCEF": 0.5
            }
          },
          "size": {
            "HMHIOILIGBF": 0.5,
            "DPPJGBOHAAL": 0.5,
            "DDOAGBLBCEF": 4.0
          }
        },
        "attackInfo": {
          "attackTag": "",
          "attenuationTag": "",
          "attenuationGroup": "default",
          "attackProperty": {
            "PCFAAPMOCGJ": 1.0,
            "LCCBNOKMNFG": 0.0,
            "bonusCritical": 100.0,
            "strikeType": "Pierce",
            "enBreak": 50.0,
            "attackType": "Melee",
            "FKGFPFNOJMN": 0.0
          },
          "hitPattern": {
            "onHitEffectName": "default",
            "hitImpulseType": "LV3",
            "hitHaltTimeScale": 0.009999999776482582
          }
        }
      },
      "GroupAtk01": {
        "attackPattern": {
          "$type": "GGBJACPDDCM",
          "triggerType": "TriggerNoRepeat",
          "born": {
            "$type": "KDEPFKAAHCG",
            "offset": {
              "HMHIOILIGBF": 0.20000000298023224,
              "DPPJGBOHAAL": 1.0,
              "DDOAGBLBCEF": 0.5
            }
          },
          "size": {
            "HMHIOILIGBF": 0.5,
            "DPPJGBOHAAL": 0.5,
            "DDOAGBLBCEF": 4.0
          }
        },
        "attackInfo": {
          "attackTag": "",
          "attenuationTag": "",
          "attenuationGroup": "default",
          "attackProperty": {
            "PCFAAPMOCGJ": 1.0,
            "LCCBNOKMNFG": 0.0,
            "bonusCritical": 100.0,
            "strikeType": "Pierce",
            "enBreak": 50.0,
            "attackType": "Melee",
            "FKGFPFNOJMN": 0.0
          },
          "hitPattern": {
            "onHitEffectName": "default",
            "hitImpulseType": "LV4",
            "hitHaltTimeScale": 0.009999999776482582
          }
        }
      },
      "Atk02": {
        "attackPattern": {
          "$type": "HBFCINNBDFD",
          "triggerType": "TriggerNoRepeat",
          "born": {
            "$type": "KDEPFKAAHCG",
            "offset": {
              "HMHIOILIGBF": 0.0,
              "DPPJGBOHAAL": 0.0,
              "DDOAGBLBCEF": 0.5
            },
            "GDHMBIJKMEF": {
              "$type": "DFEHJKCDGHN",
              "PKNBBHPAKCG": {
                "HMHIOILIGBF": 0.0,
                "DPPJGBOHAAL": -30.0,
                "DDOAGBLBCEF": 0.0
              }
            }
          },
          "NPLOANBGDOK": 90.0,
          "DFMMIGEMOHH": 3.0
        },
        "attackInfo": {
          "attackTag": "",
          "attenuationTag": "",
          "attenuationGroup": "default",
          "attackProperty": {
            "PCFAAPMOCGJ": 1.0,
            "LCCBNOKMNFG": 0.0,
            "bonusCritical": 100.0,
            "strikeType": "Slash",
            "enBreak": 50.0,
            "attackType": "Melee",
            "FKGFPFNOJMN": 0.0
          },
          "hitPattern": {
            "onHitEffectName": "default",
            "hitImpulseType": "LV3",
            "hitHaltTimeScale": 0.009999999776482582
          }
        }
      },
      "WildSlam01": {
        "attackPattern": {
          "$type": "HBFCINNBDFD",
          "triggerType": "TriggerNoRepeat",
          "born": {
            "$type": "KDEPFKAAHCG",
            "offset": {
              "HMHIOILIGBF": 0.0,
              "DPPJGBOHAAL": 0.0,
              "DDOAGBLBCEF": 0.5
            }
          },
          "NPLOANBGDOK": 150.0,
          "DFMMIGEMOHH": 3.0
        },
        "attackInfo": {
          "attackTag": "",
          "attenuationTag": "",
          "attenuationGroup": "default",
          "attackProperty": {
            "PCFAAPMOCGJ": 1.0,
            "LCCBNOKMNFG": 0.0,
            "bonusCritical": 100.0,
            "strikeType": "Slash",
            "enBreak": 100.0,
            "FKGFPFNOJMN": 0.0
          },
          "hitPattern": {
            "onHitEffectName": "default",
            "hitImpulseType": "LV4",
            "hitHaltTime": 0.05999999865889549,
            "hitHaltTimeScale": 0.009999999776482582
          },
          "cameraShake": {
            "shakeType": "HitVector",
            "shakeRange": 0.11999999731779099,
            "shakeTime": 0.11999999731779099,
            "shakeDistance": 25.0,
            "shakeDir": {
              "z": 1.0
            }
          }
        }
      },
      "WildSlam02": {
        "attackPattern": {
          "$type": "HBFCINNBDFD",
          "triggerType": "TriggerNoRepeat",
          "born": {
            "$type": "KDEPFKAAHCG",
            "offset": {
              "HMHIOILIGBF": 0.0,
              "DPPJGBOHAAL": 0.0,
              "DDOAGBLBCEF": 0.5
            }
          },
          "NPLOANBGDOK": 150.0,
          "DFMMIGEMOHH": 3.0
        },
        "attackInfo": {
          "attackTag": "",
          "attenuationTag": "",
          "attenuationGroup": "default",
          "attackProperty": {
            "PCFAAPMOCGJ": 1.0,
            "LCCBNOKMNFG": 0.0,
            "bonusCritical": 100.0,
            "strikeType": "Slash",
            "enBreak": 100.0,
            "attackType": "Melee",
            "FKGFPFNOJMN": 0.0
          },
          "hitPattern": {
            "onHitEffectName": "default",
            "hitImpulseType": "LV2"
          }
        }
      },
      "WildSlam03": {
        "attackPattern": {
          "$type": "HBFCINNBDFD",
          "triggerType": "TriggerNoRepeat",
          "born": {
            "$type": "KDEPFKAAHCG",
            "offset": {
              "HMHIOILIGBF": 0.0,
              "DPPJGBOHAAL": 0.0,
              "DDOAGBLBCEF": 0.5
            }
          },
          "NPLOANBGDOK": 150.0,
          "DFMMIGEMOHH": 3.0
        },
        "attackInfo": {
          "attackTag": "",
          "attenuationTag": "",
          "attenuationGroup": "default",
          "attackProperty": {
            "PCFAAPMOCGJ": 1.25,
            "LCCBNOKMNFG": 0.0,
            "bonusCritical": 100.0,
            "strikeType": "Slash",
            "enBreak": 100.0,
            "attackType": "Melee",
            "FKGFPFNOJMN": 0.0
          },
          "hitPattern": {
            "onHitEffectName": "default",
            "hitImpulseType": "LV5"
          },
          "cameraShake": {
            "shakeType": "HitVector",
            "shakeRange": 0.11999999731779099,
            "shakeTime": 0.11999999731779099,
            "shakeDistance": 25.0,
            "shakeDir": {
              "z": 1.0
            }
          }
        }
      }
    }
  },
  "equipController": {
    "sheathPoint": "",
    "attachPoints": {
      "equip01": "WeaponR",
      "equip02": "WeaponL"
    }
  },
  "abilities": [
    {
      "abilityID": "SteerAttack",
      "abilityName": "Human_Male_Pole_SteerAttack",
      "abilityOverride": ""
    },
    {
      "abilityID": "SteerMove",
      "abilityName": "Millelith_SteerMove",
      "abilityOverride": ""
    },
    {
      "abilityID": "Attack01_RushMove01",
      "abilityName": "Human_Male_Pole_Attack01_RushMove01",
      "abilityOverride": ""
    },
    {
      "abilityID": "Attack02_RushMove01",
      "abilityName": "Human_Male_Pole_Attack02_RushMove01",
      "abilityOverride": ""
    },
    {
      "abilityID": "WildSlam_RushMove01",
      "abilityName": "Human_Male_Pole_WildSlam_RushMove01",
      "abilityOverride": ""
    },
    {
      "abilityID": "WildSlam_RushMove02",
      "abilityName": "Human_Male_Pole_WildSlam_RushMove02",
      "abilityOverride": ""
    },
    {
      "abilityID": "WildSlam_RushMove03",
      "abilityName": "Human_Male_Pole_WildSlam_RushMove03",
      "abilityOverride": ""
    },
    {
      "abilityID": "TurnToOrdered",
      "abilityName": "Monster_Millelith_TurnToOrdered",
      "abilityOverride": ""
    },
    {
      "abilityID": "OutOfOrdered",
      "abilityName": "Monster_Millelith_OutOfOrdered",
      "abilityOverride": ""
    },
    {
      "abilityID": "ResetBackSprintCD",
      "abilityName": "Human_Male_Pole_ResetBackSprintCD",
      "abilityOverride": ""
    },
    {
      "abilityID": "AuxWeaponTrans",
      "abilityName": "Monster_Millelith_Pole_Male_AuxWeaponTrans",
      "abilityOverride": ""
    }
  ],
  "stateLayers": {
    "defaultLayer": {
      "$type": "KFHJINNNDPN",
      "BOPIBFKFKCA": "",
      "stateIDs": {
        "NormalIdle": {
          "$type": "MEECNDLIOBI",
          "HKPCLGHBKFD": {
            "Standby": [],
            "Born": []
          },
          "KNOHBHKACHA": true,
          "BAABNFCMKIO": true,
          "ADPGACLPFHN": [
            "DoSkill"
          ]
        },
        "NormalMove": {
          "$type": "MEECNDLIOBI",
          "HKPCLGHBKFD": {
            "WalkForward": [
              "Audio_Monster_Ahigaru_01_Walk"
            ],
            "WalkBack": [
              "Audio_Monster_Ahigaru_01_Walk"
            ],
            "WalkRight": [
              "Audio_Monster_Ahigaru_01_Walk"
            ],
            "WalkLeft": [
              "Audio_Monster_Ahigaru_01_Walk"
            ],
            "Run": [
              "Audio_Monster_Ahigaru_01_Run"
            ]
          },
          "KNOHBHKACHA": true,
          "BAABNFCMKIO": true,
          "ADPGACLPFHN": [
            "DoSkill"
          ],
          "NPMGEMAFACP": true
        },
        "Turn": {
          "$type": "MEECNDLIOBI",
          "HKPCLGHBKFD": {
            "TurnLeft": [
              "Audio_Monster_Ahigaru_01_Walk"
            ],
            "TurnRight": [
              "Audio_Monster_Ahigaru_01_Walk"
            ]
          },
          "KNOHBHKACHA": true,
          "BAABNFCMKIO": true,
          "ADPGACLPFHN": [
            "DoSkill"
          ],
          "NPMGEMAFACP": true
        },
        "BeHit": {
          "$type": "MEECNDLIOBI",
          "HKPCLGHBKFD": {
            "Hit_L": [
              "Audio_Monster_Ahigaru_01_Hit_L"
            ],
            "Hit_H": [
              "Audio_Monster_Ahigaru_01_Hit_H"
            ],
            "DHit": []
          },
          "PJFELLIJONH": [
            "BeHit"
          ],
          "ADPGACLPFHN": [
            "DoSkill"
          ]
        },
        "BeHitThrow": {
          "$type": "MEECNDLIOBI",
          "HKPCLGHBKFD": {
            "HitThrow": [
              "Audio_Monster_Ahigaru_01_HitThrow"
            ],
            "HitThrowDrop": [
              "Audio_Monster_Ahigaru_01_HitThrow"
            ],
            "HitThrowToGround": [
              "Audio_Monster_Ahigaru_01_HitThrowToGround"
            ]
          },
          "PJFELLIJONH": [
            "BeHit",
            "HitAir2HitDrop"
          ],
          "ADPGACLPFHN": [
            "DoSkill"
          ]
        },
        "Struggle": {
          "$type": "MEECNDLIOBI",
          "HKPCLGHBKFD": {
            "Struggle": []
          },
          "PJFELLIJONH": [
            "BeHit",
            "HitAir2HitDrop"
          ],
          "ADPGACLPFHN": [
            "DoSkill"
          ]
        },
        "Die": {
          "$type": "MEECNDLIOBI",
          "HKPCLGHBKFD": {
            "Die1": [
              "Audio_Monster_Ahigaru_01_Die"
            ],
            "Die2": [
              "Audio_Monster_Ahigaru_01_Die"
            ],
            "SwimDie": [],
            "SwimDie_AS": [
              "Audio_Monster_Ahigaru_01_Die"
            ]
          }
        },
        "Die_RagDoll": {
          "$type": "MEECNDLIOBI",
          "HKPCLGHBKFD": {
            "AirDie": [
              "Audio_Monster_Ahigaru_01_HitThrowToGround"
            ]
          },
          "CKHCPGMBKGA": true
        },
        "Life_Alert": {
          "$type": "MEECNDLIOBI",
          "HKPCLGHBKFD": {
            "Alert": [
              "Audio_Monster_Ahigaru_01_Alert"
            ]
          },
          "ADPGACLPFHN": [
            "BeHit",
            "DoSkill"
          ]
        },
        "Life_Warning": {
          "$type": "MEECNDLIOBI",
          "HKPCLGHBKFD": {
            "Warning": [
              "Monster_Undead01_Warning"
            ]
          },
          "ADPGACLPFHN": [
            "BeHit",
            "DoSkill"
          ]
        },
        "Attack01": {
          "$type": "MEECNDLIOBI",
          "HKPCLGHBKFD": {
            "Attack01": [
              "Monster_Human_Male_Pole_AttackDaoqi01",
              "Audio_Monster_Ahigaru_01_Attack01"
            ]
          },
          "ADPGACLPFHN": [
            "BeHit",
            "DoSkill"
          ]
        },
        "Attack02": {
          "$type": "MEECNDLIOBI",
          "HKPCLGHBKFD": {
            "Attack02": [
              "Monster_Human_Male_Pole_AttackDaoqi02",
              "Audio_Monster_Ahigaru_01_Attack02"
            ]
          },
          "IMJBMEIKPJN": 20.0,
          "ADPGACLPFHN": [
            "BeHit",
            "DoSkill"
          ]
        },
        "WildSlam": {
          "$type": "MEECNDLIOBI",
          "HKPCLGHBKFD": {
            "WildSlam": [
              "Monster_Human_Male_Pole_WildSlamDaoqi"
            ]
          },
          "PAKNCLFMOAC": 0.6000000238418579,
          "ADPGACLPFHN": [
            "BeHit",
            "DoSkill"
          ]
        },
        "GroupAttack01": {
          "$type": "MEECNDLIOBI",
          "HKPCLGHBKFD": {
            "GroupAttack01_01": [
              "Monster_Human_Male_Pole_GroupAttackDaoqi01",
              "Audio_Monster_Ahigaru_01_GroupAtk01_01"
            ],
            "GroupAttack01_02": [
              "Monster_Human_Male_Pole_GroupAttackDaoqi01",
              "Audio_Monster_Ahigaru_01_GroupAtk01_02"
            ],
            "GroupAttack01_03": [
              "Monster_Human_Male_Pole_GroupAttackDaoqi01",
              "Monster_Millelith_OutOfOrdered",
              "Audio_Monster_Ahigaru_01_GroupAtk01_03"
            ]
          },
          "ADPGACLPFHN": [
            "BeHit",
            "DoSkill"
          ]
        },
        "GroupAttack02": {
          "$type": "MEECNDLIOBI",
          "HKPCLGHBKFD": {
            "GroupAttack02": [
              "Monster_Human_Male_Pole_AttackDaoqi02",
              "Audio_Monster_Ahigaru_01_Attack02"
            ]
          },
          "ADPGACLPFHN": [
            "BeHit",
            "DoSkill"
          ]
        },
        "TurnToSurround": {
          "$type": "MEECNDLIOBI",
          "HKPCLGHBKFD": {
            "TurnToSurround": [
              "Audio_Monster_Ahigaru_01_TurnToOrdered"
            ]
          },
          "ADPGACLPFHN": [
            "BeHit",
            "DoSkill"
          ]
        },
        "Wait": {
          "$type": "MEECNDLIOBI",
          "HKPCLGHBKFD": {
            "TurnToWait": [],
            "Waiting": []
          },
          "ADPGACLPFHN": [
            "BeHit",
            "DoSkill"
          ]
        },
        "Taunt": {
          "$type": "MEECNDLIOBI",
          "HKPCLGHBKFD": {
            "Taunt_1": [
              "Audio_Monster_Ahigaru_01_Taunt1"
            ],
            "Taunt_2": [
              "Audio_Monster_Ahigaru_01_Taunt2"
            ]
          },
          "KNOHBHKACHA": true,
          "ADPGACLPFHN": [
            "BeHit",
            "DoSkill"
          ]
        },
        "BackSprint": {
          "$type": "MEECNDLIOBI",
          "HKPCLGHBKFD": {
            "BackSprint": [
              "Monster_Human_Male_Pole_BackSprint",
              "Audio_Monster_Ahigaru_01_BackSprint"
            ]
          },
          "ADPGACLPFHN": [
            "BeHit",
            "DoSkill"
          ]
        },
        "TurnToOrdered": {
          "$type": "MEECNDLIOBI",
          "HKPCLGHBKFD": {
            "TurnToOrdered": []
          },
          "KNOHBHKACHA": true,
          "ADPGACLPFHN": [
            "BeHit",
            "DoSkill"
          ]
        }
      }
    }
  },
  "billboard": {
    "$type": "HFEGKLAIGGI",
    "IIKEHINGEME": "BillboardAttach",
    "offset": {
      "x": -0.05000000074505806
    },
    "GEKOGJAPMMH": "Character",
    "HECLHMINJII": 0.25,
    "DMHOOGGGDKG": true
  },
  "initialPoses": {
    "Default": {}
  },
  "aibeta": {
    "enable": true,
    "moveSetting": {
      "navMeshAgentName": "Undead01",
      "almostReachedDistanceRun": 1.5
    },
    "sensing": {
      "settings": {
        "DefaultSetting": {
          "feelRange": 8.0
        },
        "HighAlert": {
          "viewRange": 40.0,
          "feelRange": 10.0
        }
      },
      "templates": {
        "DefaultTemplate": {
          "DefaultPoses": "DefaultSetting"
        },
        "HighAlertTemplate": {
          "DefaultPoses": "HighAlert"
        }
      }
    },
    "neurons": {
      "DefaultSetting": [
        "HIT"
      ]
    },
    "threat": {
      "clearThreatByLostPath": true,
      "clearThreatByTargetOutOfZone": true,
      "clearThreatTimerByDistance": 3.0,
      "viewAttenuation": [
        {
          "x": 10.0,
          "y": 2.0
        },
        {
          "x": 15.0,
          "y": 0.800000011920929
        },
        {
          "x": 20.0,
          "y": 0.5
        },
        {
          "x": 25.0,
          "y": 0.30000001192092896
        },
        {
          "x": 30.0,
          "y": 0.20000000298023224
        }
      ]
    },
    "order": {
      "commandSetting": {
        "acceptCommandIDs": [
          50501,
          50502,
          50503,
          50504,
          50505
        ]
      }
    },
    "defendArea": {},
    "profiling": {},
    "skillGroupCDConfigs": [
      {
        "skillGroupCDID": 1,
        "skillGroupCDTime": 7.0
      }
    ],
    "skills": {
      "101": {
        "name": "OnAlert",
        "skillType": "OnAlert",
        "faceTarget": true,
        "publicCDGroup": "",
        "ignoreGCD": true,
        "triggerGCD": false,
        "CLEPNIDJOLN": "",
        "stateIDs": [
          "Life_Warning"
        ],
        "skillQueryingTime": 3.0,
        "flagTargetReachable": "10",
        "flagSelfOnTemplateCollider": "01",
        "flagSelfInZone": "10",
        "flagTargetInZone": "11"
      },
      "201": {
        "name": "Attack01",
        "combatSkillType": "MeleeAttack",
        "enableSkillPrepare": true,
        "castCondition": {
          "pose": [
            1001
          ],
          "maxTargetAngleXZ": 60.0,
          "pickRangeMax": 15.0,
          "castRangeMax": 3.5
        },
        "cd": 8.0,
        "cdUpperRange": 6.0,
        "initialCD": 5.0,
        "initialCDUpperRange": 4.0,
        "publicCDGroup": "",
        "skillGroupCDID": 1,
        "CLEPNIDJOLN": "",
        "stateIDs": [
          "Attack01"
        ],
        "flagTargetReachable": "10",
        "flagSelfOnTemplateCollider": "01",
        "flagSelfInZone": "11",
        "flagTargetInZone": "11"
      },
      "202": {
        "name": "Attack02",
        "combatSkillType": "MeleeAttack",
        "priority": 2,
        "enableSkillPrepare": true,
        "castCondition": {
          "pose": [
            1001
          ],
          "maxTargetAngleXZ": 60.0,
          "pickRangeMax": 3.5,
          "castRangeMax": 2.5
        },
        "cd": 8.0,
        "cdUpperRange": 3.0,
        "initialCD": 5.0,
        "initialCDUpperRange": 4.0,
        "publicCDGroup": "",
        "skillGroupCDID": 1,
        "CLEPNIDJOLN": "",
        "stateIDs": [
          "Attack02"
        ],
        "flagTargetReachable": "10",
        "flagSelfOnTemplateCollider": "01",
        "flagSelfInZone": "11",
        "flagTargetInZone": "11"
      },
      "211": {
        "name": "GroupAttack01",
        "enableSkillPrepare": true,
        "castCondition": {
          "pose": [
            1004
          ],
          "pickRangeMax": 20.0,
          "castRangeMin": 1.0,
          "castRangeMax": 4.5
        },
        "cd": 1.0,
        "publicCDGroup": "",
        "ignoreGCD": true,
        "CLEPNIDJOLN": "",
        "stateIDs": [
          "GroupAttack01"
        ],
        "flagTargetReachable": "10",
        "flagSelfOnTemplateCollider": "01",
        "flagSelfInZone": "11",
        "flagTargetInZone": "11"
      },
      "411": {
        "name": "GroupBackSprint",
        "faceTarget": true,
        "castCondition": {
          "pose": [
            1001
          ],
          "maxTargetAngleXZ": 60.0,
          "pickRangeMax": 15.0
        },
        "cd": 1.0,
        "publicCDGroup": "RandomAction",
        "ignoreGCD": true,
        "triggerGCD": false,
        "CLEPNIDJOLN": "",
        "stateIDs": [
          "BackSprint"
        ],
        "commandID": 50503,
        "flagTargetReachable": "10",
        "flagSelfOnTemplateCollider": "01",
        "flagSelfInZone": "11",
        "flagTargetInZone": "11"
      },
      "611": {
        "name": "TurnToOrdered",
        "priority": 3,
        "faceTarget": true,
        "castCondition": {
          "pose": [
            1001
          ]
        },
        "publicCDGroup": "",
        "ignoreGCD": true,
        "triggerGCD": false,
        "CLEPNIDJOLN": "",
        "stateIDs": [
          "TurnToOrdered"
        ],
        "commandID": 50501,
        "flagTargetReachable": "10",
        "flagSelfOnTemplateCollider": "01",
        "flagSelfInZone": "11",
        "flagTargetInZone": "11"
      }
    },
    "skillGCD": 5.0,
    "combatFixedMoveTactic": [
      {
        "$type": "ABHNKJHHCKM",
        "enable": true,
        "EGJMGEHLDOL": {
          "pose": [
            1002
          ]
        },
        "NGIEOIGFFDH": {
          "pointType": "SurroundPoint",
          "NHPKGHAHIFA": 2,
          "JMGPJACCGLC": 30.0,
          "MHAAHHOKBPA": 5.0,
          "skillID": 602
        }
      },
      {
        "$type": "KIMPOLMEFNK",
        "enable": true,
        "EGJMGEHLDOL": {
          "pose": [
            1001
          ]
        },
        "NGIEOIGFFDH": {
          "rangeMin": 3.0,
          "rangeMax": 7.0,
          "ODLFCBFIAEG": {
            "ACLMEMJMCHO": 2.0,
            "MKGIHLDDOPO": 0.0,
            "AIMKHLAPJGH": 0.0
          },
          "EOBOHLNDGNC": "1111",
          "JFAHEKLBENF": "1111",
          "FCFLCFFJKLO": ""
        }
      },
      {
        "$type": "HJAAEJGAIKI",
        "EGJMGEHLDOL": {
          "pose": [
            1002
          ]
        },
        "NGIEOIGFFDH": {
          "MONCHHKIDKL": 3.0,
          "cd": 2.5,
          "MHAAHHOKBPA": 2.5,
          "MGPKJELEDFK": 4.5,
          "MHGOOAOGENO": 4.0
        }
      },
      {
        "$type": "AIFAIEAELGP",
        "enable": true,
        "EGJMGEHLDOL": {
          "pose": [
            1
          ]
        }
      },
      {
        "$type": "HLPBLIEBJLM",
        "enable": true,
        "EGJMGEHLDOL": {
          "pose": [
            1001
          ]
        },
        "NGIEOIGFFDH": {
          "GPKNKJPPCOM": 10.0,
          "NDCHJGOOLCF": 50.0,
          "FDNLEPNLLBP": 8.0,
          "DANCMNIMNAM": 7.0,
          "FCFLCFFJKLO": ""
        }
      },
      {
        "$type": "IPNDPOAANNE",
        "enable": true,
        "NGIEOIGFFDH": {}
      },
      {
        "$type": "GJGILIGEJMO",
        "enable": true,
        "NGIEOIGFFDH": {
          "FCFLCFFJKLO": "",
          "BKCOJDIDEGN": ""
        }
      },
      {
        "$type": "IKIHDEMELGB",
        "enable": true,
        "EGJMGEHLDOL": {
          "pose": [
            1
          ]
        },
        "NGIEOIGFFDH": {
          "HOKGJAONGHG": 3.0,
          "GJOBDMEBGLM": 1.5,
          "KDLAOJIPGHP": 15.0,
          "OEFFOIEOJNC": 3.75,
          "HAHMEDHEBKE": 7.5,
          "FCFLCFFJKLO": ""
        }
      }
    ]
  },
  "inputKeys": [
    {
      "keyID": 201,
      "inputKeyCode": 257,
      "abilityName": ""
    },
    {
      "keyID": 202,
      "inputKeyCode": 258,
      "abilityName": ""
    },
    {
      "keyID": 203,
      "inputKeyCode": 259,
      "abilityName": ""
    },
    {
      "keyID": 401,
      "inputKeyCode": 260,
      "abilityName": ""
    },
    {
      "keyID": 211,
      "inputKeyCode": 262,
      "abilityName": ""
    },
    {
      "keyID": 212,
      "inputKeyCode": 263,
      "abilityName": ""
    }
  ],
  "move": {
    "$type": "JKDLANFKJIL",
    "ADKJOFPNHNO": "FourDirection",
    "LPAKBBIADNC": "RootNode"
  },
  "audio": {
    "LKJIHNLBIJL": "",
    "animAudio": {},
    "disableEvent": {
      "text": ""
    },
    "destroyEvent": {
      "text": ""
    },
    "randomVariantSwitchGroup": {
      "text": ""
    },
    "randomVariantSwitchValues": [
      {
        "text": ""
      }
    ]
  }
}