{
  "MDJNFHAJPAD": {
    "FAIKDMCHPEL": {
      "$type": "DPGKNHENGLM",
      "DDDEJPIFECG": "EffectMesh"
    },
    "FINMNFLLAMB": 30.0,
    "NEBDNCNFDJC": 1.0,
    "MBMBBGOGNHF": true,
    "DIEPJBNIPBG": true,
    "FNLMEPDMMMD": 1.25,
    "CKECEGGMJOP": false
  },
  "LBGLCHLIKJP": {
    "$type": "NJIKCGBDNDF",
    "HONCKGMDJEK": true,
    "IKIJCPNMBHI": 60.0,
    "FMKKBCJKMPH": 30.0,
    "FDPCOFKGCHG": [
      "NormalIdle/Standby",
      "NormalIdle/Sit",
      "NormalIdle/Prone",
      "NormalMove/Walk",
      "NormalMove/Run",
      "StandbyToSit",
      "StandbyToProne",
      "SitToStandby",
      "ProneToStandby"
    ]
  },
  "PJEANIPCFFN": {
    "CKAIGCFDCMG": "",
    "KHGAHHAIJFJ": "",
    "DFFKHFKJKEK": false
  },
  "MEMHBNEJBCL": {
    "PJBCJPKPOLB": 1.0
  },
  "GKIMHOOMGHB": {
    "DHBJGHDCMAA": {
      "LDAHGACLHII": "Monster_Minion",
      "LJGADHKDLLB": 30.0,
      "ACOAHCMABGF": true
    },
    "BPKIJDAHLGB": {
      "LKMLEJGEHAP": "",
      "DKIENFAAJPK": true,
      "LHMKDLOKKJG": true
    },
    "INCPHOFGIJA": {
      "FGJIHAKMLBG": "CircleLockEnemy",
      "JPIFIDOPOND": true,
      "BGMEKAEIOGA": "Animal_Lv2"
    },
    "JCCJMILDEAM": {
      "GKFDFDFJJFB": 2.0,
      "FNIJBPMPCHA": 10.0,
      "BCHFMGGBEFN": ""
    }
  },
  "IGPKOOHPBFG": [
    {
      "FPLENFAEDIB": "CommonInitial",
      "KAJGDIHNKNE": "Animal_Common_Initial",
      "BIAMBCDKJKP": ""
    },
    {
      "FPLENFAEDIB": "HungryCoolDown",
      "KAJGDIHNKNE": "Animal_Common_HungryCoolDown",
      "BIAMBCDKJKP": ""
    },
    {
      "FPLENFAEDIB": "Animal_Cat_SitDown",
      "KAJGDIHNKNE": "Animal_Cat_SitDown",
      "BIAMBCDKJKP": ""
    },
    {
      "FPLENFAEDIB": "Animal_Cat_Prone",
      "KAJGDIHNKNE": "Animal_Cat_Prone",
      "BIAMBCDKJKP": ""
    },
    {
      "FPLENFAEDIB": "Animal_Cat_StandUp",
      "KAJGDIHNKNE": "Animal_Cat_StandUp",
      "BIAMBCDKJKP": ""
    },
    {
      "FPLENFAEDIB": "Animal_Cat_AIStateInitial",
      "KAJGDIHNKNE": "Animal_Cat_AIStateInitial",
      "BIAMBCDKJKP": ""
    },
    {
      "FPLENFAEDIB": "Animal_Cat_BeHit",
      "KAJGDIHNKNE": "Animal_Cat_BeHit",
      "BIAMBCDKJKP": ""
    },
    {
      "FPLENFAEDIB": "Animal_Cat_CatFeedPointRegister",
      "KAJGDIHNKNE": "Animal_Cat_CatFeedPointRegister",
      "BIAMBCDKJKP": ""
    },
    {
      "FPLENFAEDIB": "Animal_Cat_CautiousRunning",
      "KAJGDIHNKNE": "Animal_Cat_CautiousRunning",
      "BIAMBCDKJKP": ""
    },
    {
      "FPLENFAEDIB": "Animal_Cat_TurnToSurround",
      "KAJGDIHNKNE": "Animal_Cat_TurnToSurround",
      "BIAMBCDKJKP": ""
    },
    {
      "FPLENFAEDIB": "Animal_Cat_OutOfSurround",
      "KAJGDIHNKNE": "Animal_Cat_OutOfSurround",
      "BIAMBCDKJKP": ""
    }
  ],
  "GGIOJAMBNPO": {
    "defaultLayer": {
      "$type": "EPAPJJAGHKG",
      "ACOCIAFGIAD": "",
      "LFGKIDDJIED": {
        "Born": {
          "$type": "IJOIMFMEGMM",
          "DLOHGBDFFGB": {
            "Born": []
          },
          "DLAOMOCMANL": [
            "DoSkill"
          ]
        },
        "Life_Alert": {
          "$type": "IJOIMFMEGMM",
          "DLOHGBDFFGB": {
            "Alert": [
              "Monster_Undead01_Warning",
              "Animal_Cat_OutOfSurround"
            ],
            "Aware": [
              "Monster_Undead01_Warning"
            ]
          },
          "DLAOMOCMANL": [
            "BeHit",
            "DoSkill"
          ]
        },
        "NormalIdle": {
          "$type": "IJOIMFMEGMM",
          "DLOHGBDFFGB": {
            "Standby": [],
            "Sit": [],
            "Prone": []
          },
          "POLKCLOHPOO": true,
          "PGKCBIHGAOC": true,
          "DLAOMOCMANL": [
            "DoSkill"
          ]
        },
        "NormalMove": {
          "$type": "IJOIMFMEGMM",
          "DLOHGBDFFGB": {
            "Walk": [
              "Audio_Cat_Walk"
            ],
            "Run": [
              "Audio_Cat_Run"
            ]
          },
          "PGKCBIHGAOC": true,
          "DLAOMOCMANL": [
            "DoSkill"
          ],
          "LIPMJPLGIKD": true
        },
        "Disappear": {
          "$type": "IJOIMFMEGMM",
          "DLOHGBDFFGB": {
            "Flee": [],
            "Disappear": [
              "Audio_Cat_Run"
            ],
            "Disappear_Cautious": [
              "Audio_Cat_Run"
            ]
          },
          "PGKCBIHGAOC": true,
          "DLAOMOCMANL": [
            "DoSkill"
          ],
          "LIPMJPLGIKD": true
        },
        "BeHit": {
          "$type": "IJOIMFMEGMM",
          "DLOHGBDFFGB": {
            "Dodge1": [
              "Animal_Cat_Dodge",
              "Audio_Cat_Dodge1"
            ],
            "Dodge2": [
              "Animal_Cat_Dodge",
              "Audio_Cat_Dodge1"
            ],
            "Dodge3": [
              "Animal_Cat_Dodge",
              "Audio_Cat_Dodge1"
            ]
          },
          "AJBLILDCLBO": [
            "BeHit"
          ],
          "DLAOMOCMANL": [
            "DoSkill",
            "BeHitTrigger"
          ]
        },
        "Die": {
          "$type": "IJOIMFMEGMM",
          "DLOHGBDFFGB": {
            "Die": [
              "Animal_Cat_Disappear"
            ]
          }
        },
        "StandbyToSit": {
          "$type": "IJOIMFMEGMM",
          "DLOHGBDFFGB": {
            "StandbyToSit": [
              "Animal_Cat_SitDown",
              "Audio_Cat_StandbyToSit"
            ]
          },
          "DLAOMOCMANL": [
            "BeHit",
            "DoSkill"
          ]
        },
        "StandbyToProne": {
          "$type": "IJOIMFMEGMM",
          "DLOHGBDFFGB": {
            "StandbyToProne": [
              "Animal_Cat_Prone",
              "Audio_Cat_StandbyToProne"
            ]
          },
          "DLAOMOCMANL": [
            "BeHit",
            "DoSkill"
          ]
        },
        "SitToStandby": {
          "$type": "IJOIMFMEGMM",
          "DLOHGBDFFGB": {
            "SitToStandby": [
              "Animal_Cat_StandUp",
              "Audio_Cat_SitToStandby"
            ]
          },
          "DLAOMOCMANL": [
            "BeHit",
            "DoSkill"
          ]
        },
        "ProneToStandby": {
          "$type": "IJOIMFMEGMM",
          "DLOHGBDFFGB": {
            "ProneToStandby": [
              "Animal_Cat_StandUp",
              "Audio_Cat_ProneToStandby"
            ]
          },
          "DLAOMOCMANL": [
            "BeHit",
            "DoSkill"
          ]
        },
        "Personality_Standby": {
          "$type": "IJOIMFMEGMM",
          "DLOHGBDFFGB": {
            "Personality_4": [
              "Audio_Cat_Personality_4"
            ]
          },
          "DLAOMOCMANL": [
            "BeHit",
            "DoSkill"
          ]
        },
        "Personality_Sit1": {
          "$type": "IJOIMFMEGMM",
          "DLOHGBDFFGB": {
            "Personality_1": []
          },
          "DLAOMOCMANL": [
            "BeHit",
            "DoSkill"
          ]
        },
        "Personality_Sit2": {
          "$type": "IJOIMFMEGMM",
          "DLOHGBDFFGB": {
            "Personality_2": [
              "Audio_Cat_Personality_2"
            ]
          },
          "DLAOMOCMANL": [
            "BeHit",
            "DoSkill"
          ]
        },
        "Personality_Prone": {
          "$type": "IJOIMFMEGMM",
          "DLOHGBDFFGB": {
            "Personality_3": [
              "Audio_Cat_Personality_3"
            ]
          },
          "DLAOMOCMANL": [
            "BeHit",
            "DoSkill"
          ]
        },
        "SurroundAction": {
          "$type": "IJOIMFMEGMM",
          "DLOHGBDFFGB": {
            "SurroundAction_BS": [
              "Animal_Cat_TurnToSurround"
            ],
            "SurroundAction_Loop": [],
            "SurroundAction_AS": [
              "Animal_Cat_OutOfSurround"
            ]
          },
          "POLKCLOHPOO": true,
          "DLAOMOCMANL": [
            "BeHit",
            "DoSkill"
          ]
        },
        "HungryAction": {
          "$type": "IJOIMFMEGMM",
          "DLOHGBDFFGB": {
            "HungryAction_BS": [],
            "HungryAction_Loop": [],
            "HungryAction_AS": []
          },
          "POLKCLOHPOO": true,
          "DLAOMOCMANL": [
            "BeHit",
            "DoSkill"
          ]
        },
        "HungryAfterAction": {
          "$type": "IJOIMFMEGMM",
          "DLOHGBDFFGB": {
            "HungryAfterActionSit_BS": [
              "Animal_Cat_SitDown"
            ],
            "HungryAfterActionSit_Action01": [],
            "HungryAfterActionSit_Action02": [],
            "HungryAfterActionProne_BS": [
              "Animal_Cat_Prone"
            ],
            "HungryAfterActionProne_Action01": []
          },
          "POLKCLOHPOO": true,
          "DLAOMOCMANL": [
            "BeHit",
            "DoSkill"
          ]
        }
      }
    }
  },
  "IONIFBIBFNL": {
    "Default": {
      "JAAABLNBKAP": 1,
      "PIEEIAOKMJB": {
        "LHMPJOKLEHI": {
          "ActionState": "0"
        },
        "GKGFCNLPILF": {
          "OnlySit": "false",
          "OnlyProne": "false"
        }
      }
    },
    "Sit": {
      "JAAABLNBKAP": 12,
      "PIEEIAOKMJB": {
        "LHMPJOKLEHI": {
          "ActionState": "1"
        },
        "GKGFCNLPILF": {
          "OnlySit": "true",
          "OnlyProne": "false"
        }
      }
    },
    "Prone": {
      "JAAABLNBKAP": 13,
      "PIEEIAOKMJB": {
        "LHMPJOKLEHI": {
          "ActionState": "2"
        },
        "GKGFCNLPILF": {
          "OnlySit": "false",
          "OnlyProne": "true"
        }
      }
    },
    "Cautious": {
      "JAAABLNBKAP": 4,
      "PIEEIAOKMJB": {
        "LHMPJOKLEHI": {
          "ActionState": "3"
        }
      }
    },
    "OnlySit_NoBeHit": {
      "JAAABLNBKAP": 22,
      "PIEEIAOKMJB": {
        "LHMPJOKLEHI": {
          "ActionState": "1"
        },
        "GKGFCNLPILF": {
          "NoBeHit": "true"
        }
      }
    }
  },
  "PDCDMABCPOA": {
    "ENLKMOKHELD": true,
    "BBIKFBPEPKO": 1,
    "LFINILDKIOL": "Animal",
    "KGDGKFHPJPO": {
      "NLGDNEMIKPE": "Undead01",
      "PJMBMPINKON": 0.25,
      "NNPOPGCMKBH": 2.0
    },
    "HEAKPLEEIJN": {
      "FKJIJGNOAMJ": 60.0
    },
    "OCBDDDCJANP": {
      "IJOBKDKBEME": {
        "DefaultSetting": {
          "PHDIIPOBJGA": 10.0,
          "COENEFGMPFK": 90.0,
          "MPEJKBDNFGB": 45.0,
          "BHOECAJIBOM": 3.5
        },
        "HighAlert": {
          "PHDIIPOBJGA": 7.0,
          "COENEFGMPFK": 90.0,
          "MPEJKBDNFGB": 45.0
        },
        "Surround": {
          "PHDIIPOBJGA": 5.0,
          "COENEFGMPFK": 15.0,
          "MPEJKBDNFGB": 30.0,
          "MJKBKCJJDJK": 1.5,
          "BHOECAJIBOM": 1.7999999523162842
        },
        "NoSensing": {
          "PHDIIPOBJGA": 0.0,
          "IINDLMAAMGD": 0.0,
          "BHOECAJIBOM": 0.0
        }
      },
      "PKFGMCHOEBN": {
        "DefaultTemplate": {
          "DefaultPoses": "DefaultSetting"
        },
        "Cautious": {
          "DefaultPoses": "DefaultSetting",
          "4": "HighAlert",
          "401": "HighAlert",
          "402": "HighAlert",
          "5": "Surround",
          "9014": "Surround"
        },
        "NoSensingTemplate": {
          "DefaultPoses": "NoSensing"
        }
      }
    },
    "OFEGONBLOGP": {
      "DefaultSetting": [
        "HIT"
      ],
      "Surround": [
        "HIT",
        "SURROUND"
      ],
      "Hungry": [
        "HIT",
        "HUNGRY"
      ]
    },
    "EJOLGMGAECP": {
      "OFANIFGIFLN": 15.0,
      "HJODDLMLPBJ": 1.0,
      "DKMKABAEKJK": 200.0,
      "KDPOCNEHGBJ": 500.0,
      "BJLBMJLOPIP": [
        {
          "LFALGCACJOF": 10.0,
          "IOHOACGNJHO": 10.0
        },
        {
          "LFALGCACJOF": 12.5,
          "IOHOACGNJHO": 10.0
        },
        {
          "LFALGCACJOF": 15.0,
          "IOHOACGNJHO": 2.0
        },
        {
          "LFALGCACJOF": 20.0,
          "IOHOACGNJHO": -1.0
        },
        {
          "LFALGCACJOF": 25.0,
          "IOHOACGNJHO": -2.0
        },
        {
          "LFALGCACJOF": 30.0,
          "IOHOACGNJHO": -2.0
        }
      ],
      "JGFOPCOIJOI": ""
    },
    "PMNPDDIOHHJ": {
      "OKMHHFALCCH": 50.0
    },
    "HEOOEKIGDAL": {
      "GMFIDKOEKHA": false,
      "FLMOHOODJBA": ""
    },
    "JLKBBPGPEAA": {
      "FMFBMENJLJF": "Best"
    },
    "BNIENJNLAIJ": {
      "102": {
        "NOKKDDHKGAK": "StandbyToSit",
        "IKMCLKEPDFP": "Free",
        "ENKLFBHHOJI": {
          "CEKMINILIFB": [
            1
          ]
        },
        "PAHIDIJLGPF": 15.0,
        "GPMLADFJAAH": 10.0,
        "LKCFDIOMLCM": 15.0,
        "KKAEGIJIDLG": 10.0,
        "NOPNCNPCPJE": "",
        "HGAMDGAEIGO": "",
        "LFGKIDDJIED": [
          "StandbyToSit"
        ],
        "PGPDNPMFFAG": "10",
        "CCEAGFDONFH": "01",
        "OKOFHICILMD": "10",
        "CCFFFOIDOLP": "11"
      },
      "103": {
        "NOKKDDHKGAK": "StandbyToProne",
        "IKMCLKEPDFP": "Free",
        "ENKLFBHHOJI": {
          "CEKMINILIFB": [
            1
          ]
        },
        "PAHIDIJLGPF": 10.0,
        "GPMLADFJAAH": 10.0,
        "LKCFDIOMLCM": 10.0,
        "KKAEGIJIDLG": 10.0,
        "NOPNCNPCPJE": "",
        "HGAMDGAEIGO": "",
        "LFGKIDDJIED": [
          "StandbyToProne"
        ],
        "PGPDNPMFFAG": "10",
        "CCEAGFDONFH": "01",
        "OKOFHICILMD": "10",
        "CCFFFOIDOLP": "11"
      },
      "104": {
        "NOKKDDHKGAK": "OnAlert",
        "IKMCLKEPDFP": "OnAlert",
        "HAOJJHNOGHO": true,
        "ENKLFBHHOJI": {
          "CEKMINILIFB": [
            9014
          ]
        },
        "NOPNCNPCPJE": "",
        "LLNBBNIEGGO": true,
        "IDPMFPAPNCE": false,
        "HGAMDGAEIGO": "",
        "LFGKIDDJIED": [
          "Life_Alert"
        ],
        "PGPDNPMFFAG": "10",
        "CCEAGFDONFH": "01",
        "OKOFHICILMD": "10",
        "CCFFFOIDOLP": "11"
      },
      "105": {
        "NOKKDDHKGAK": "OnAware",
        "IKMCLKEPDFP": "OnAlert",
        "ENKLFBHHOJI": {
          "CEKMINILIFB": [
            4,
            5,
            401
          ]
        },
        "NOPNCNPCPJE": "",
        "LLNBBNIEGGO": true,
        "IDPMFPAPNCE": false,
        "HGAMDGAEIGO": "",
        "LFGKIDDJIED": [
          "Life_Alert"
        ],
        "PGPDNPMFFAG": "10",
        "CCEAGFDONFH": "01",
        "OKOFHICILMD": "10",
        "CCFFFOIDOLP": "11"
      },
      "201": {
        "NOKKDDHKGAK": "PersonalitySit1",
        "IKMCLKEPDFP": "Free",
        "ENKLFBHHOJI": {
          "CEKMINILIFB": [
            2,
            12,
            4
          ]
        },
        "PAHIDIJLGPF": 20.0,
        "GPMLADFJAAH": 20.0,
        "LKCFDIOMLCM": 10.0,
        "KKAEGIJIDLG": 10.0,
        "NOPNCNPCPJE": "",
        "HGAMDGAEIGO": "",
        "LFGKIDDJIED": [
          "Personality_Sit1"
        ],
        "PGPDNPMFFAG": "10",
        "CCEAGFDONFH": "01",
        "OKOFHICILMD": "10",
        "CCFFFOIDOLP": "11"
      },
      "202": {
        "NOKKDDHKGAK": "PersonalitySit2",
        "IKMCLKEPDFP": "Free",
        "ENKLFBHHOJI": {
          "CEKMINILIFB": [
            2,
            12,
            4
          ]
        },
        "PAHIDIJLGPF": 45.0,
        "GPMLADFJAAH": 30.0,
        "LKCFDIOMLCM": 30.0,
        "KKAEGIJIDLG": 30.0,
        "NOPNCNPCPJE": "",
        "HGAMDGAEIGO": "",
        "LFGKIDDJIED": [
          "Personality_Sit2"
        ],
        "PGPDNPMFFAG": "10",
        "CCEAGFDONFH": "01",
        "OKOFHICILMD": "10",
        "CCFFFOIDOLP": "11"
      },
      "203": {
        "NOKKDDHKGAK": "SitToStandby",
        "IKMCLKEPDFP": "Free",
        "ENKLFBHHOJI": {
          "CEKMINILIFB": [
            2
          ]
        },
        "LKCFDIOMLCM": 120.0,
        "KKAEGIJIDLG": 120.0,
        "NOPNCNPCPJE": "",
        "HGAMDGAEIGO": "",
        "LFGKIDDJIED": [
          "SitToStandby"
        ],
        "PGPDNPMFFAG": "10",
        "CCEAGFDONFH": "01",
        "OKOFHICILMD": "10",
        "CCFFFOIDOLP": "11"
      },
      "301": {
        "NOKKDDHKGAK": "ProneToStandby",
        "IKMCLKEPDFP": "Free",
        "ENKLFBHHOJI": {
          "CEKMINILIFB": [
            3
          ]
        },
        "LKCFDIOMLCM": 120.0,
        "KKAEGIJIDLG": 120.0,
        "NOPNCNPCPJE": "",
        "HGAMDGAEIGO": "",
        "LFGKIDDJIED": [
          "ProneToStandby"
        ],
        "PGPDNPMFFAG": "10",
        "CCEAGFDONFH": "01",
        "OKOFHICILMD": "10",
        "CCFFFOIDOLP": "11"
      },
      "302": {
        "NOKKDDHKGAK": "Personality_Prone",
        "IKMCLKEPDFP": "Free",
        "ENKLFBHHOJI": {
          "CEKMINILIFB": [
            3
          ]
        },
        "PAHIDIJLGPF": 30.0,
        "GPMLADFJAAH": 30.0,
        "LKCFDIOMLCM": 30.0,
        "KKAEGIJIDLG": 30.0,
        "NOPNCNPCPJE": "",
        "HGAMDGAEIGO": "",
        "LFGKIDDJIED": [
          "Personality_Prone"
        ],
        "PGPDNPMFFAG": "10",
        "CCEAGFDONFH": "01",
        "OKOFHICILMD": "10",
        "CCFFFOIDOLP": "11"
      },
      "112": {
        "NOKKDDHKGAK": "StandbyToSit",
        "ENKLFBHHOJI": {
          "CEKMINILIFB": [
            101
          ]
        },
        "PAHIDIJLGPF": 30.0,
        "GPMLADFJAAH": 30.0,
        "LKCFDIOMLCM": 5.0,
        "KKAEGIJIDLG": 5.0,
        "NOPNCNPCPJE": "",
        "HGAMDGAEIGO": "",
        "LFGKIDDJIED": [
          "StandbyToSit"
        ],
        "PGPDNPMFFAG": "10",
        "CCEAGFDONFH": "01",
        "OKOFHICILMD": "10",
        "CCFFFOIDOLP": "11"
      },
      "113": {
        "NOKKDDHKGAK": "StandbyToProne",
        "ENKLFBHHOJI": {
          "CEKMINILIFB": [
            101
          ]
        },
        "PAHIDIJLGPF": 30.0,
        "GPMLADFJAAH": 30.0,
        "LKCFDIOMLCM": 5.0,
        "KKAEGIJIDLG": 5.0,
        "NOPNCNPCPJE": "",
        "HGAMDGAEIGO": "",
        "LFGKIDDJIED": [
          "StandbyToProne"
        ],
        "PGPDNPMFFAG": "10",
        "CCEAGFDONFH": "01",
        "OKOFHICILMD": "10",
        "CCFFFOIDOLP": "11"
      },
      "211": {
        "NOKKDDHKGAK": "PersonalitySit1",
        "ENKLFBHHOJI": {
          "CEKMINILIFB": [
            201,
            202
          ],
          "MLFAMHDFHMM": 5.0
        },
        "PAHIDIJLGPF": 20.0,
        "GPMLADFJAAH": 20.0,
        "LKCFDIOMLCM": 10.0,
        "KKAEGIJIDLG": 10.0,
        "NOPNCNPCPJE": "",
        "HGAMDGAEIGO": "",
        "LFGKIDDJIED": [
          "Personality_Sit1"
        ],
        "PGPDNPMFFAG": "10",
        "CCEAGFDONFH": "01",
        "OKOFHICILMD": "10",
        "CCFFFOIDOLP": "11"
      },
      "212": {
        "NOKKDDHKGAK": "PersonalitySit2",
        "ENKLFBHHOJI": {
          "CEKMINILIFB": [
            201,
            202
          ],
          "MLFAMHDFHMM": 5.0
        },
        "PAHIDIJLGPF": 45.0,
        "GPMLADFJAAH": 30.0,
        "LKCFDIOMLCM": 30.0,
        "KKAEGIJIDLG": 30.0,
        "NOPNCNPCPJE": "",
        "HGAMDGAEIGO": "",
        "LFGKIDDJIED": [
          "Personality_Sit2"
        ],
        "PGPDNPMFFAG": "10",
        "CCEAGFDONFH": "01",
        "OKOFHICILMD": "10",
        "CCFFFOIDOLP": "11"
      },
      "213": {
        "NOKKDDHKGAK": "SitToStandby",
        "ENKLFBHHOJI": {
          "CEKMINILIFB": [
            201
          ]
        },
        "PAHIDIJLGPF": 180.0,
        "GPMLADFJAAH": 180.0,
        "LKCFDIOMLCM": 60.0,
        "KKAEGIJIDLG": 60.0,
        "NOPNCNPCPJE": "",
        "LLNBBNIEGGO": true,
        "HGAMDGAEIGO": "",
        "LFGKIDDJIED": [
          "SitToStandby"
        ],
        "PGPDNPMFFAG": "10",
        "CCEAGFDONFH": "01",
        "OKOFHICILMD": "10",
        "CCFFFOIDOLP": "11"
      },
      "311": {
        "NOKKDDHKGAK": "ProneToStandby",
        "ENKLFBHHOJI": {
          "CEKMINILIFB": [
            301
          ]
        },
        "PAHIDIJLGPF": 180.0,
        "GPMLADFJAAH": 180.0,
        "LKCFDIOMLCM": 60.0,
        "KKAEGIJIDLG": 60.0,
        "NOPNCNPCPJE": "",
        "LLNBBNIEGGO": true,
        "HGAMDGAEIGO": "",
        "LFGKIDDJIED": [
          "ProneToStandby"
        ],
        "PGPDNPMFFAG": "10",
        "CCEAGFDONFH": "01",
        "OKOFHICILMD": "10",
        "CCFFFOIDOLP": "11"
      },
      "312": {
        "NOKKDDHKGAK": "Personality_Prone",
        "ENKLFBHHOJI": {
          "CEKMINILIFB": [
            301
          ]
        },
        "LKCFDIOMLCM": 15.0,
        "KKAEGIJIDLG": 15.0,
        "NOPNCNPCPJE": "",
        "HGAMDGAEIGO": "",
        "LFGKIDDJIED": [
          "Personality_Prone"
        ],
        "PGPDNPMFFAG": "10",
        "CCEAGFDONFH": "01",
        "OKOFHICILMD": "10",
        "CCFFFOIDOLP": "11"
      },
      "1201": {
        "NOKKDDHKGAK": "SurroundAction",
        "IKMCLKEPDFP": "ActionPoint",
        "ENKLFBHHOJI": {
          "CEKMINILIFB": [
            4,
            401
          ]
        },
        "NOPNCNPCPJE": "",
        "IDPMFPAPNCE": false,
        "HGAMDGAEIGO": "",
        "LFGKIDDJIED": [
          "SurroundAction"
        ],
        "NNJBOCFBGJG": 3.0,
        "PGPDNPMFFAG": "10",
        "CCEAGFDONFH": "01",
        "OKOFHICILMD": "10",
        "CCFFFOIDOLP": "11"
      },
      "1301": {
        "NOKKDDHKGAK": "HungryAction",
        "IKMCLKEPDFP": "ActionPoint",
        "ENKLFBHHOJI": {
          "CEKMINILIFB": [
            1,
            2,
            3,
            101,
            201,
            301
          ]
        },
        "NOPNCNPCPJE": "",
        "IDPMFPAPNCE": false,
        "HGAMDGAEIGO": "",
        "LFGKIDDJIED": [
          "HungryAction",
          "HungryAfterAction"
        ],
        "NNJBOCFBGJG": 3.0,
        "PGPDNPMFFAG": "10",
        "CCEAGFDONFH": "01",
        "OKOFHICILMD": "10",
        "CCFFFOIDOLP": "11"
      }
    },
    "EMBHEEALPLD": 5.0,
    "EEKEAKJCMJO": [
      {
        "$type": "GIMIMAJNOPH",
        "ENLKMOKHELD": true,
        "FJANPNOAAFK": {
          "CEKMINILIFB": [
            1,
            2,
            3,
            901,
            402
          ]
        },
        "GMMKOLNMFJL": [
          "HIT"
        ],
        "LMMKNFEMOMG": {
          "GEAICNICJAJ": 1.0,
          "PAHIDIJLGPF": 3.0,
          "OHLJIHFFMLB": 100.0,
          "GGIBBPIGEJF": 4,
          "PKFMEOPIHEO": 5,
          "NBBIJDCLJOF": 5.0,
          "MHMMABHJIIA": 6.0,
          "JOCOJHEICNA": ""
        },
        "BIDHHBJEKHM": {
          "402": {
            "GEAICNICJAJ": 5.0,
            "PAHIDIJLGPF": 3.0,
            "OHLJIHFFMLB": 100.0,
            "IFCLJHAJFHD": 30.0,
            "GGIBBPIGEJF": 5,
            "PKFMEOPIHEO": 6,
            "MHMMABHJIIA": 12.0,
            "JOCOJHEICNA": ""
          }
        }
      },
      {
        "$type": "CMCHFECOPPI",
        "ENLKMOKHELD": true,
        "LMMKNFEMOMG": {
          "DCEODHLDKCJ": 0.75,
          "GAHPENGCPFA": 0.75,
          "JOCOJHEICNA": "",
          "DBIELIMGBMC": ""
        }
      },
      {
        "$type": "CMFCOLEFCJI",
        "ENLKMOKHELD": true,
        "LMMKNFEMOMG": {
          "BJBAALCCMGL": [
            {
              "LPJONBJGEKP": "SurroundPoint",
              "FCCFALOMHGM": 7.0,
              "CEKMINILIFB": [
                4,
                5,
                401
              ],
              "GMMKOLNMFJL": [
                "SURROUND"
              ],
              "DMEANKABKMP": 1201
            },
            {
              "LPJONBJGEKP": "CatFeedPoint",
              "FCCFALOMHGM": 10.0,
              "CEKMINILIFB": [
                1,
                2,
                3,
                101,
                201,
                301
              ],
              "GMMKOLNMFJL": [
                "HUNGRY"
              ],
              "DMEANKABKMP": 1301
            }
          ]
        }
      },
      {
        "$type": "KMHBGMELMKD"
      },
      {
        "$type": "GGKADEIBMLG",
        "ENLKMOKHELD": true,
        "FJANPNOAAFK": {
          "CEKMINILIFB": [
            1
          ]
        },
        "LMMKNFEMOMG": {
          "GEAICNICJAJ": 1.0,
          "JIFJFPJANHO": 10.0,
          "CBKHBGCPFBG": 5.0,
          "EKDHNAGGGAE": 30.0,
          "BFEJAKFKKFP": 4.0,
          "KOAMKCEFJED": 6.0,
          "JOCOJHEICNA": ""
        }
      }
    ]
  },
  "GIBHCHHOJFI": [
    {
      "NPDDCIDNKMH": 201,
      "KCAOBJOPJIC": 257,
      "KAJGDIHNKNE": ""
    },
    {
      "NPDDCIDNKMH": 201,
      "KCAOBJOPJIC": 258,
      "KAJGDIHNKNE": ""
    },
    {
      "NPDDCIDNKMH": 301,
      "KCAOBJOPJIC": 259,
      "KAJGDIHNKNE": ""
    }
  ],
  "KDLODKFKHPB": {
    "PIMGAEBNCBJ": false,
    "JFBHPOLAAEJ": false
  },
  "EGGALDADMOL": {
    "ILKLCFIONEC": {
      "ABCJFMIGKJN": "Eff_SceneObj_CatchAnimal_CaughtSuccess"
    }
  }
}