{
  "common": {
    "effectAttachShape": {
      "$type": "CMIPFEGOJCH",
      "EJAEFCDBDFB": "EffectMesh"
    },
    "mass": 150.0,
    "height": 1.0,
    "modelHeight": 2.799999952316284,
    "affectedByWorld": true,
    "checkInSurface": true,
    "clearAnimatorOnSetLightDeactive": true,
    "clearAIOnSetLightDeactive": true
  },
  "headControl": {
    "$type": "HLGPLMCNIFB",
    "useHeadControl": true,
    "BADCMJGBCHM": 60.0,
    "AIOGIMNHIGK": 25.0,
    "NOFDPFHMFNM": 4.0,
    "GDIAFJFLHCE": [
      "NormalIdle/Standby",
      "NormalMove/MoveForward",
      "NormalMove/MoveBack",
      "NormalMove/MoveLeft",
      "NormalMove/MoveRight",
      "Run/RunRandom_01",
      "Run/RunRandom_02"
    ]
  },
  "model": {
    "bornEffect": "Eff_Monster_Common_Born",
    "attachEffect": "",
    "canBakeMesh": false
  },
  "combat": {
    "property": {
      "endureType": "Monster_Demiboss_Humanoid",
      "weight": 150.0
    },
    "beHit": {
      "hitBloodEffect": ""
    },
    "combatLock": {
      "lockShape": "CircleLockEnemy",
      "lockType": "Avatar&Monster_Lv4"
    },
    "die": {
      "hasAnimatorDie": true,
      "dieEndTime": 2.0,
      "dieForceDisappearTime": 4.0,
      "dieDisappearEffect": "",
      "dieShaderData": "MonsterDie",
      "LDOHFFOEPPI": true,
      "BMOKGIFNILM": true,
      "PHCLLDNDFNG": true,
      "CHBAHMJGJBE": true,
      "OPPHENIKFJA": true,
      "CCNGAIMLPIJ": true
    },
    "animEvents": {
      "WavePawL": {
        "attackPattern": {
          "$type": "HBFCINNBDFD",
          "triggerType": "TriggerNoRepeat",
          "born": {
            "$type": "KDEPFKAAHCG",
            "offset": {
              "HMHIOILIGBF": -0.5,
              "DPPJGBOHAAL": -0.800000011920929,
              "DDOAGBLBCEF": 1.2200000286102295
            },
            "GDHMBIJKMEF": {
              "$type": "DFEHJKCDGHN",
              "PKNBBHPAKCG": {
                "HMHIOILIGBF": 10.760000228881836,
                "DPPJGBOHAAL": -40.16999816894531,
                "DDOAGBLBCEF": -6.619999885559082
              }
            }
          },
          "height": 3.5,
          "NPLOANBGDOK": 220.0,
          "DFMMIGEMOHH": 3.299999952316284
        },
        "attackInfo": {
          "attackTag": "Hound_Corruption_Tag",
          "attenuationTag": "",
          "attenuationGroup": "default",
          "attackProperty": {
            "PCFAAPMOCGJ": 0.8500000238418579,
            "LCCBNOKMNFG": 0.0,
            "elementType": "Rock",
            "bonusCritical": 25.0,
            "strikeType": "Default",
            "enBreak": 1.0,
            "FKGFPFNOJMN": 0.0
          },
          "hitPattern": {
            "onHitEffectName": "Eff_Monster_Riftstalker_Hit",
            "hitImpulseType": "LV2",
            "hitHaltTimeScale": 0.05000000074505806
          }
        }
      },
      "WavePawR": {
        "attackPattern": {
          "$type": "HBFCINNBDFD",
          "triggerType": "TriggerNoRepeat",
          "born": {
            "$type": "KDEPFKAAHCG",
            "offset": {
              "HMHIOILIGBF": -0.800000011920929,
              "DPPJGBOHAAL": -0.30000001192092896,
              "DDOAGBLBCEF": 1.8200000524520874
            },
            "GDHMBIJKMEF": {
              "$type": "DFEHJKCDGHN",
              "PKNBBHPAKCG": {
                "HMHIOILIGBF": -5.329999923706055,
                "DPPJGBOHAAL": 14.199999809265137,
                "DDOAGBLBCEF": 22.0
              }
            }
          },
          "height": 3.799999952316284,
          "NPLOANBGDOK": 220.0,
          "DFMMIGEMOHH": 3.4000000953674316
        },
        "attackInfo": {
          "attackTag": "Hound_Corruption_Tag",
          "attenuationTag": "",
          "attenuationGroup": "default",
          "attackProperty": {
            "PCFAAPMOCGJ": 0.8500000238418579,
            "LCCBNOKMNFG": 0.0,
            "elementType": "Rock",
            "bonusCritical": 25.0,
            "strikeType": "Default",
            "enBreak": 1.0,
            "FKGFPFNOJMN": 0.0
          },
          "hitPattern": {
            "onHitEffectName": "Eff_Monster_Riftstalker_Hit",
            "hitImpulseType": "LV2",
            "hitHaltTimeScale": 0.05000000074505806
          }
        }
      },
      "Biting": {
        "attackPattern": {
          "$type": "GGBJACPDDCM",
          "triggerType": "TriggerNoRepeat",
          "born": {
            "$type": "KDEPFKAAHCG",
            "offset": {
              "HMHIOILIGBF": 0.550000011920929,
              "DPPJGBOHAAL": 1.1799999475479126,
              "DDOAGBLBCEF": 1.2599999904632568
            }
          },
          "size": {
            "HMHIOILIGBF": 3.549999952316284,
            "DPPJGBOHAAL": 3.700000047683716,
            "DDOAGBLBCEF": 4.920000076293945
          }
        },
        "attackInfo": {
          "attackTag": "Hound_Corruption_Tag",
          "attenuationTag": "",
          "attenuationGroup": "default",
          "attackProperty": {
            "PCFAAPMOCGJ": 0.8999999761581421,
            "LCCBNOKMNFG": 0.0,
            "elementType": "Rock",
            "bonusCritical": 25.0,
            "strikeType": "Default",
            "enBreak": 20.0,
            "FKGFPFNOJMN": 0.0
          },
          "hitPattern": {
            "onHitEffectName": "Eff_Monster_Riftstalker_Hit",
            "hitImpulseType": "LV2"
          },
          "forceCameraShake": true,
          "cameraShake": {
            "shakeType": "CustomVector",
            "shakeDistance": 0.0
          }
        }
      }
    }
  },
  "abilities": [
    {
      "abilityID": "",
      "abilityName": "Monster_Hound_Riftstalker_Rock_Pose",
      "abilityOverride": ""
    },
    {
      "abilityID": "",
      "abilityName": "Monster_Hound_Riftstalker_Rock_Steer",
      "abilityOverride": ""
    },
    {
      "abilityID": "",
      "abilityName": "Monster_Hound_Riftstalker_Rock_AddBodyEff",
      "abilityOverride": ""
    },
    {
      "abilityID": "",
      "abilityName": "Monster_Hound_Riftstalker_Rock_RemoveBodyEff",
      "abilityOverride": ""
    },
    {
      "abilityID": "",
      "abilityName": "Monster_Hound_Riftstalker_Rock_Strike_State",
      "abilityOverride": ""
    },
    {
      "abilityID": "",
      "abilityName": "Monster_Hound_Riftstalker_Rock_Strike_FindBlinkPoint",
      "abilityOverride": ""
    },
    {
      "abilityID": "",
      "abilityName": "Monster_Hound_Riftstalker_Rock_Strike_DoBlink",
      "abilityOverride": ""
    },
    {
      "abilityID": "",
      "abilityName": "Monster_Hound_Riftstalker_Rock_Strike_Attack",
      "abilityOverride": ""
    },
    {
      "abilityID": "",
      "abilityName": "Monster_Hound_Riftstalker_Rock_JumpBack",
      "abilityOverride": ""
    },
    {
      "abilityID": "",
      "abilityName": "Monster_Hound_Riftstalker_Rock_Howl",
      "abilityOverride": ""
    },
    {
      "abilityID": "",
      "abilityName": "Monster_Hound_Riftstalker_Rock_Bullet",
      "abilityOverride": ""
    },
    {
      "abilityID": "",
      "abilityName": "Monster_Hound_Riftstalker_Rock_Smash",
      "abilityOverride": ""
    },
    {
      "abilityID": "",
      "abilityName": "Monster_Hound_Riftstalker_Rock_Acitvated",
      "abilityOverride": ""
    },
    {
      "abilityID": "",
      "abilityName": "Monster_Hound_Riftstalker_RunState",
      "abilityOverride": ""
    },
    {
      "abilityID": "",
      "abilityName": "Monster_Hound_Corruption_LoseHP",
      "abilityOverride": ""
    },
    {
      "abilityID": "",
      "abilityName": "Monster_Hound_Riftstalker_ExitBattle",
      "abilityOverride": ""
    }
  ],
  "stateLayers": {
    "defaultLayer": {
      "$type": "KFHJINNNDPN",
      "BOPIBFKFKCA": "",
      "stateIDs": {
        "NormalIdle": {
          "$type": "MEECNDLIOBI",
          "HKPCLGHBKFD": {
            "Standby": [],
            "StandbyFree": [],
            "Born": []
          },
          "KNOHBHKACHA": true,
          "BAABNFCMKIO": true,
          "ADPGACLPFHN": [
            "DoSkill"
          ]
        },
        "NormalMove": {
          "$type": "MEECNDLIOBI",
          "HKPCLGHBKFD": {
            "MoveForward": [],
            "MoveBack": [],
            "MoveLeft": [],
            "MoveRight": []
          },
          "KNOHBHKACHA": true,
          "BAABNFCMKIO": true,
          "ADPGACLPFHN": [
            "DoSkill"
          ],
          "NPMGEMAFACP": true
        },
        "Run": {
          "$type": "MEECNDLIOBI",
          "HKPCLGHBKFD": {
            "RunRandom_01": [],
            "RunRandom_02": []
          },
          "KNOHBHKACHA": true,
          "BAABNFCMKIO": true,
          "ADPGACLPFHN": [
            "DoSkill"
          ],
          "NPMGEMAFACP": true
        },
        "BeHit": {
          "$type": "MEECNDLIOBI",
          "HKPCLGHBKFD": {
            "Hit_L": [
              "Audio_Monster_Riftstalker_Rock_Rock_Hit_L"
            ],
            "Hit_H": [
              "Audio_Monster_Riftstalker_Rock_Rock_Hit_H"
            ]
          },
          "PJFELLIJONH": [
            "BeHit"
          ],
          "ADPGACLPFHN": [
            "DoSkill"
          ]
        },
        "BeHitThrow": {
          "$type": "MEECNDLIOBI",
          "HKPCLGHBKFD": {
            "HitThrow": [
              "Audio_Monster_Riftstalker_Rock_Rock_HitThrow_VO"
            ],
            "HitThrowDrop": [],
            "HitThrowToGround": [
              "Audio_Monster_Riftstalker_Rock_Rock_HitThrowToGround"
            ]
          },
          "PJFELLIJONH": [
            "BeHit",
            "HitAir2HitDrop"
          ],
          "ADPGACLPFHN": [
            "DoSkill"
          ]
        },
        "Die": {
          "$type": "MEECNDLIOBI",
          "HKPCLGHBKFD": {
            "Die": [
              "Monster_Hound_Riftstalker_Rock_Die",
              "Audio_Monster_Riftstalker_Rock_Rock_Die"
            ]
          }
        },
        "Alert": {
          "$type": "MEECNDLIOBI",
          "HKPCLGHBKFD": {
            "Alert": [
              "Audio_Monster_Riftstalker_Rock_Rock_Alert"
            ]
          },
          "ADPGACLPFHN": [
            "BeHit",
            "DoSkill"
          ]
        },
        "WavePaw": {
          "$type": "MEECNDLIOBI",
          "HKPCLGHBKFD": {
            "WavePaw": [
              "Monster_Hound_Riftstalker_Rock_WavePaw",
              "Audio_Monster_Riftstalker_Rock_Rock_WavePaw"
            ]
          },
          "BAABNFCMKIO": true,
          "ADPGACLPFHN": [
            "BeHit",
            "DoSkill"
          ],
          "NPMGEMAFACP": true
        },
        "Strike_BS": {
          "$type": "MEECNDLIOBI",
          "HKPCLGHBKFD": {
            "Strike_BS": [
              "Monster_Hound_Riftstalker_Rock_Strike_BS",
              "Audio_Monster_Riftstalker_Rock_Rock_Strike_BS"
            ]
          },
          "ADPGACLPFHN": [
            "BeHit",
            "DoSkill"
          ],
          "NPMGEMAFACP": true
        },
        "Strike_Loop_01": {
          "$type": "MEECNDLIOBI",
          "HKPCLGHBKFD": {
            "Strike_Loop_01": []
          },
          "BAABNFCMKIO": true,
          "ADPGACLPFHN": [
            "BeHit",
            "DoSkill"
          ],
          "NPMGEMAFACP": true
        },
        "Strike_Loop_02": {
          "$type": "MEECNDLIOBI",
          "HKPCLGHBKFD": {
            "Strike_Loop_02": []
          },
          "BAABNFCMKIO": true,
          "ADPGACLPFHN": [
            "BeHit",
            "DoSkill"
          ],
          "NPMGEMAFACP": true
        },
        "Strike_Loop_03": {
          "$type": "MEECNDLIOBI",
          "HKPCLGHBKFD": {
            "Strike_Loop_03": []
          },
          "BAABNFCMKIO": true,
          "ADPGACLPFHN": [
            "BeHit",
            "DoSkill"
          ],
          "NPMGEMAFACP": true
        },
        "Strike_AS": {
          "$type": "MEECNDLIOBI",
          "HKPCLGHBKFD": {
            "Strike_AS": [
              "Monster_Hound_Riftstalker_Rock_Strike_AS",
              "Audio_Monster_Riftstalker_Rock_Rock_Strike_AS"
            ]
          },
          "ADPGACLPFHN": [
            "BeHit",
            "DoSkill"
          ],
          "NPMGEMAFACP": true
        },
        "Biting": {
          "$type": "MEECNDLIOBI",
          "HKPCLGHBKFD": {
            "Biting": [
              "Monster_Hound_Riftstalker_Rock_Biting",
              "Audio_Monster_Riftstalker_Rock_Rock_Biting"
            ]
          },
          "BAABNFCMKIO": true,
          "ADPGACLPFHN": [
            "BeHit",
            "DoSkill"
          ],
          "NPMGEMAFACP": true
        },
        "JumpBack": {
          "$type": "MEECNDLIOBI",
          "HKPCLGHBKFD": {
            "JumpBack": [
              "Audio_Monster_Riftstalker_Rock_Rock_JumpBack"
            ]
          },
          "ADPGACLPFHN": [
            "BeHit",
            "DoSkill"
          ],
          "NPMGEMAFACP": true
        },
        "Howl": {
          "$type": "MEECNDLIOBI",
          "HKPCLGHBKFD": {
            "Howl": [
              "Monster_Hound_Riftstalker_Rock_Howl",
              "Audio_Monster_Riftstalker_Rock_Rock_Howl"
            ]
          },
          "ADPGACLPFHN": [
            "BeHit",
            "DoSkill"
          ]
        },
        "Bullet": {
          "$type": "MEECNDLIOBI",
          "HKPCLGHBKFD": {
            "Bullet": [
              "Monster_Hound_Riftstalker_Rock_Bullet",
              "Audio_Monster_Riftstalker_Rock_Rock_Bullet"
            ]
          },
          "ADPGACLPFHN": [
            "BeHit",
            "DoSkill"
          ],
          "NPMGEMAFACP": true
        },
        "Smash_BS": {
          "$type": "MEECNDLIOBI",
          "HKPCLGHBKFD": {
            "Smash_BS_01": [
              "Monster_Hound_Riftstalker_Rock_Smash_BS",
              "Audio_Monster_Riftstalker_Rock_Rock_Smash_BS"
            ],
            "Smash_BS_02": [
              "Monster_Hound_Riftstalker_Rock_Smash_BS",
              "Audio_Monster_Riftstalker_Rock_Rock_Smash_BS"
            ],
            "Smash_BS_03": [
              "Monster_Hound_Riftstalker_Rock_Smash_BS",
              "Audio_Monster_Riftstalker_Rock_Rock_Smash_BS"
            ]
          },
          "ADPGACLPFHN": [
            "BeHit",
            "DoSkill"
          ],
          "NPMGEMAFACP": true
        },
        "Smash_Loop_01": {
          "$type": "MEECNDLIOBI",
          "HKPCLGHBKFD": {
            "Smash_Loop_01": []
          },
          "ADPGACLPFHN": [
            "BeHit",
            "DoSkill"
          ],
          "NPMGEMAFACP": true
        },
        "Smash_Loop_02": {
          "$type": "MEECNDLIOBI",
          "HKPCLGHBKFD": {
            "Smash_Loop_02": []
          },
          "ADPGACLPFHN": [
            "BeHit",
            "DoSkill"
          ],
          "NPMGEMAFACP": true
        },
        "Smash_Loop_03": {
          "$type": "MEECNDLIOBI",
          "HKPCLGHBKFD": {
            "Smash_Loop_03": []
          },
          "ADPGACLPFHN": [
            "BeHit",
            "DoSkill"
          ],
          "NPMGEMAFACP": true
        },
        "Smash_AS": {
          "$type": "MEECNDLIOBI",
          "HKPCLGHBKFD": {
            "Smash_AS_01": [
              "Audio_Monster_Riftstalker_Rock_Rock_Smash_AS"
            ],
            "Smash_AS_02": [
              "Audio_Monster_Riftstalker_Rock_Rock_Smash_AS"
            ],
            "Smash_AS_03": [
              "Audio_Monster_Riftstalker_Rock_Rock_Smash_AS"
            ]
          },
          "ADPGACLPFHN": [
            "BeHit",
            "DoSkill"
          ],
          "NPMGEMAFACP": true
        },
        "Activated": {
          "$type": "MEECNDLIOBI",
          "HKPCLGHBKFD": {
            "Activated": [
              "Monster_Hound_Riftstalker_Rock_Activated",
              "Audio_Monster_Riftstalker_Rock_Rock_Activated"
            ]
          },
          "ADPGACLPFHN": [
            "BeHit",
            "DoSkill"
          ]
        },
        "RandomWalk": {
          "$type": "MEECNDLIOBI",
          "HKPCLGHBKFD": {
            "RandomWalk_Left": [
              "Audio_Monster_Riftstalker_Rock_Rock_RandomWalk"
            ],
            "RandomWalk_Right": [
              "Audio_Monster_Riftstalker_Rock_Rock_RandomWalk"
            ]
          },
          "BAABNFCMKIO": true,
          "ADPGACLPFHN": [
            "BeHit",
            "DoSkill"
          ]
        },
        "Alert_Crystallization_01": {
          "$type": "MEECNDLIOBI",
          "HKPCLGHBKFD": {
            "Alert_Crystallization_01": []
          },
          "BGJDNIJICNM": true,
          "PJFELLIJONH": [
            "BeHit"
          ],
          "ADPGACLPFHN": [
            "DoSkill"
          ]
        },
        "Alert_Crystallization_02": {
          "$type": "MEECNDLIOBI",
          "HKPCLGHBKFD": {
            "Alert_Crystallization_02": []
          },
          "BGJDNIJICNM": true,
          "PJFELLIJONH": [
            "BeHit"
          ],
          "ADPGACLPFHN": [
            "DoSkill"
          ]
        }
      }
    }
  },
  "billboard": {
    "$type": "HFEGKLAIGGI",
    "IIKEHINGEME": "BillboardAttach",
    "GEKOGJAPMMH": "Character",
    "HECLHMINJII": 0.3499999940395355,
    "DMHOOGGGDKG": true,
    "size": "Big"
  },
  "initialPoses": {
    "Default": {
      "initialPoseID": 101
    },
    "Crystallization_01": {
      "initialPoseID": 111,
      "initialPoseParams": {
        "boolParams": {
          "Crystallization_01": "true"
        }
      }
    },
    "Crystallization_02": {
      "initialPoseID": 112,
      "initialPoseParams": {
        "boolParams": {
          "Crystallization_02": "true"
        }
      }
    }
  },
  "aibeta": {
    "enable": true,
    "patrolFollowTactic": {
      "enable": true,
      "condition": [
        4011
      ]
    },
    "sensing": {
      "settings": {
        "DefaultSetting": {
          "viewRange": 40.0,
          "feelRange": 25.0
        },
        "Crystallization": {
          "enableVision": false,
          "hearAttractionRange": 0.0,
          "feelRange": 0.0
        },
        "NeverCombat": {
          "enableVision": false,
          "hearAttractionRange": 0.0,
          "feelRange": 0.0
        }
      },
      "templates": {
        "DefaultTemplate": {
          "DefaultPoses": "DefaultSetting"
        },
        "NeverCombatTemplate": {
          "DefaultPoses": "NeverCombat",
          "111": "NeverCombat",
          "112": "NeverCombat"
        }
      }
    },
    "neurons": {
      "DefaultSetting": [
        "HIT"
      ],
      "NeverCombat": []
    },
    "threat": {
      "clearThreatByLostPath": true,
      "clearThreatTimerByDistance": 5.0,
      "viewAttenuation": [
        {
          "x": 10.0,
          "y": 2.0
        },
        {
          "x": 15.0,
          "y": 1.399999976158142
        },
        {
          "x": 20.0,
          "y": 1.0
        },
        {
          "x": 25.0,
          "y": 0.699999988079071
        },
        {
          "x": 30.0,
          "y": 0.5
        },
        {
          "x": 35.0,
          "y": 0.30000001192092896
        }
      ]
    },
    "defendArea": {
      "defendRange": 50.0
    },
    "profiling": {
      "staticPoses": [
        111,
        112
      ]
    },
    "skillSetting": {
      "skillEliteSet": {
        "0": [
          101,
          301,
          302,
          303,
          304,
          305
        ],
        "1": [
          102,
          203
        ],
        "2": [
          101,
          203
        ]
      }
    },
    "skills": {
      "101": {
        "name": "OnAlert",
        "skillType": "OnAlert",
        "faceTarget": true,
        "castCondition": {
          "pose": [
            101
          ]
        },
        "publicCDGroup": "",
        "ignoreGCD": true,
        "triggerGCD": false,
        "CLEPNIDJOLN": "",
        "stateIDs": [
          "Alert"
        ],
        "skillQueryingTime": 3.0,
        "flagTargetReachable": "10",
        "flagSelfOnTemplateCollider": "01",
        "flagSelfInZone": "10",
        "flagTargetInZone": "11"
      },
      "102": {
        "name": "OnAlert",
        "skillType": "OnAlert",
        "castCondition": {
          "pose": [
            101
          ]
        },
        "publicCDGroup": "",
        "ignoreGCD": true,
        "triggerGCD": false,
        "CLEPNIDJOLN": "",
        "stateIDs": [
          "Alert"
        ],
        "skillQueryingTime": 3.0,
        "flagTargetReachable": "10",
        "flagSelfOnTemplateCollider": "01",
        "flagSelfInZone": "10",
        "flagTargetInZone": "11"
      },
      "111": {
        "name": "OnAlert",
        "skillType": "OnAlert",
        "castCondition": {
          "pose": [
            111
          ]
        },
        "publicCDGroup": "",
        "triggerGCD": false,
        "CLEPNIDJOLN": "",
        "stateIDs": [
          "Alert_Crystallization_01"
        ],
        "skillQueryingTime": 3.0,
        "flagTargetReachable": "10",
        "flagSelfOnTemplateCollider": "01",
        "flagSelfInZone": "10",
        "flagTargetInZone": "11"
      },
      "112": {
        "name": "OnAlert",
        "skillType": "OnAlert",
        "castCondition": {
          "pose": [
            112
          ]
        },
        "publicCDGroup": "",
        "triggerGCD": false,
        "CLEPNIDJOLN": "",
        "stateIDs": [
          "Alert_Crystallization_02"
        ],
        "skillQueryingTime": 3.0,
        "flagTargetReachable": "10",
        "flagSelfOnTemplateCollider": "01",
        "flagSelfInZone": "10",
        "flagTargetInZone": "11"
      },
      "201": {
        "name": "WavePaw",
        "priority": 3,
        "enableSkillPrepare": true,
        "castCondition": {
          "pose": [
            201
          ],
          "pickRangeMax": 4.5,
          "pickRangeYMax": 4.5
        },
        "cd": 10.5,
        "cdUpperRange": 1.0,
        "publicCDGroup": "",
        "CLEPNIDJOLN": "",
        "stateIDs": [
          "WavePaw"
        ],
        "flagTargetReachable": "10",
        "flagSelfOnTemplateCollider": "01",
        "flagSelfInZone": "10",
        "flagTargetInZone": "11"
      },
      "202": {
        "name": "WavePaw",
        "priority": 4,
        "enableSkillPrepare": true,
        "castCondition": {
          "pose": [
            401
          ],
          "pickRangeMax": 4.5,
          "pickRangeYMax": 4.5
        },
        "cd": 7.5,
        "cdUpperRange": 1.0,
        "publicCDGroup": "",
        "CLEPNIDJOLN": "",
        "stateIDs": [
          "WavePaw"
        ],
        "flagTargetReachable": "10",
        "flagSelfOnTemplateCollider": "01",
        "flagSelfInZone": "10",
        "flagTargetInZone": "11"
      },
      "203": {
        "name": "WavePaw",
        "enableSkillPrepare": true,
        "skillPrepareTimeout": 2.0,
        "castCondition": {
          "pose": [
            201,
            401
          ],
          "pickRangeMax": 7.5,
          "pickRangeYMax": 4.5,
          "castRangeMax": 4.5
        },
        "cd": 3.5,
        "cdUpperRange": 1.0,
        "publicCDGroup": "",
        "CLEPNIDJOLN": "",
        "stateIDs": [
          "WavePaw"
        ],
        "flagTargetReachable": "10",
        "flagSelfOnTemplateCollider": "01",
        "flagSelfInZone": "10",
        "flagTargetInZone": "11"
      },
      "301": {
        "name": "Strike",
        "priority": 4,
        "castCondition": {
          "pose": [
            201
          ],
          "maxTargetAngleY": 30.0,
          "pickRangeMax": 7.5,
          "pickRangeYMax": 6.5
        },
        "cd": 18.5,
        "cdUpperRange": 4.0,
        "initialCD": 2.0,
        "initialCDUpperRange": 5.0,
        "publicCDGroup": "Hound_Strike",
        "CLEPNIDJOLN": "",
        "stateIDs": [
          "Strike_BS",
          "Strike_Loop_01",
          "Strike_Loop_02",
          "Strike_Loop_03",
          "Strike_AS"
        ],
        "flagTargetReachable": "11",
        "flagSelfOnTemplateCollider": "01",
        "flagSelfInZone": "10",
        "flagTargetInZone": "10"
      },
      "302": {
        "name": "Strike",
        "priority": 2,
        "castCondition": {
          "pose": [
            201
          ],
          "maxTargetAngleY": 30.0,
          "pickRangeMin": 7.5,
          "pickRangeMax": 15.5,
          "pickRangeYMax": 6.5
        },
        "cd": 14.5,
        "cdUpperRange": 4.0,
        "initialCD": 2.0,
        "initialCDUpperRange": 5.0,
        "publicCDGroup": "Hound_Strike",
        "CLEPNIDJOLN": "",
        "stateIDs": [
          "Strike_BS",
          "Strike_Loop_01",
          "Strike_Loop_02",
          "Strike_Loop_03",
          "Strike_AS"
        ],
        "flagTargetReachable": "11",
        "flagSelfOnTemplateCollider": "01",
        "flagSelfInZone": "10",
        "flagTargetInZone": "10"
      },
      "303": {
        "name": "Strike",
        "priority": 3,
        "castCondition": {
          "pose": [
            201,
            401
          ],
          "maxTargetAngleY": 30.0,
          "pickRangeMin": 15.5,
          "pickRangeMax": 25.5,
          "pickRangeYMax": 6.5
        },
        "cd": 8.5,
        "cdUpperRange": 4.0,
        "initialCD": 2.0,
        "initialCDUpperRange": 3.0,
        "publicCDGroup": "Hound_Strike",
        "CLEPNIDJOLN": "",
        "stateIDs": [
          "Strike_BS",
          "Strike_Loop_01",
          "Strike_Loop_02",
          "Strike_Loop_03",
          "Strike_AS"
        ],
        "flagTargetReachable": "11",
        "flagSelfOnTemplateCollider": "01",
        "flagSelfInZone": "10",
        "flagTargetInZone": "10"
      },
      "304": {
        "name": "Strike",
        "priority": 4,
        "castCondition": {
          "pose": [
            401
          ],
          "maxTargetAngleY": 30.0,
          "pickRangeMax": 7.5,
          "pickRangeYMax": 6.5
        },
        "cd": 16.5,
        "cdUpperRange": 4.0,
        "initialCD": 2.0,
        "initialCDUpperRange": 5.0,
        "publicCDGroup": "Hound_Strike",
        "CLEPNIDJOLN": "",
        "stateIDs": [
          "Strike_BS",
          "Strike_Loop_01",
          "Strike_Loop_02",
          "Strike_Loop_03",
          "Strike_AS"
        ],
        "flagTargetReachable": "11",
        "flagSelfOnTemplateCollider": "01",
        "flagSelfInZone": "10",
        "flagTargetInZone": "10"
      },
      "305": {
        "name": "Strike",
        "priority": 2,
        "castCondition": {
          "pose": [
            401
          ],
          "maxTargetAngleY": 30.0,
          "pickRangeMin": 7.5,
          "pickRangeMax": 15.5,
          "pickRangeYMax": 6.5
        },
        "cd": 12.5,
        "cdUpperRange": 4.0,
        "initialCD": 2.0,
        "initialCDUpperRange": 5.0,
        "publicCDGroup": "Hound_Strike",
        "CLEPNIDJOLN": "",
        "stateIDs": [
          "Strike_BS",
          "Strike_Loop_01",
          "Strike_Loop_02",
          "Strike_Loop_03",
          "Strike_AS"
        ],
        "flagTargetReachable": "11",
        "flagSelfOnTemplateCollider": "01",
        "flagSelfInZone": "10",
        "flagTargetInZone": "10"
      },
      "401": {
        "name": "Biting",
        "priority": 3,
        "castCondition": {
          "pose": [
            201
          ],
          "pickRangeMin": 1.0,
          "pickRangeMax": 7.5,
          "pickRangeYMax": 4.5
        },
        "cd": 9.5,
        "cdUpperRange": 2.0,
        "publicCDGroup": "",
        "CLEPNIDJOLN": "",
        "stateIDs": [
          "Biting"
        ],
        "flagTargetReachable": "11",
        "flagSelfOnTemplateCollider": "01",
        "flagSelfInZone": "11",
        "flagTargetInZone": "11"
      },
      "402": {
        "name": "Biting",
        "priority": 4,
        "castCondition": {
          "pose": [
            401
          ],
          "pickRangeMin": 1.0,
          "pickRangeMax": 7.5,
          "pickRangeYMax": 4.5
        },
        "cd": 7.5,
        "cdUpperRange": 2.0,
        "publicCDGroup": "",
        "CLEPNIDJOLN": "",
        "stateIDs": [
          "Biting"
        ],
        "flagTargetReachable": "11",
        "flagSelfOnTemplateCollider": "01",
        "flagSelfInZone": "11",
        "flagTargetInZone": "11"
      },
      "501": {
        "name": "JumpBack",
        "castCondition": {
          "pose": [
            201
          ],
          "pickRangeMax": 3.0
        },
        "cd": 8.5,
        "cdUpperRange": 3.0,
        "publicCDGroup": "",
        "CLEPNIDJOLN": "",
        "stateIDs": [
          "JumpBack"
        ],
        "flagTargetReachable": "10",
        "flagSelfOnTemplateCollider": "01",
        "flagSelfInZone": "10",
        "flagTargetInZone": "11"
      },
      "502": {
        "name": "JumpBack",
        "castCondition": {
          "pose": [
            401
          ],
          "pickRangeMax": 3.0
        },
        "cd": 12.0,
        "cdUpperRange": 3.0,
        "publicCDGroup": "",
        "CLEPNIDJOLN": "",
        "stateIDs": [
          "JumpBack"
        ],
        "flagTargetReachable": "10",
        "flagSelfOnTemplateCollider": "01",
        "flagSelfInZone": "10",
        "flagTargetInZone": "11"
      },
      "601": {
        "name": "Howl",
        "skillType": "CombatBuddy",
        "priority": 1,
        "castCondition": {
          "pose": [
            201
          ]
        },
        "cd": 25.0,
        "initialCD": 20.0,
        "publicCDGroup": "Riftstalker_Howl",
        "CLEPNIDJOLN": "",
        "stateIDs": [
          "Howl"
        ],
        "skillQueryingTime": 3.0,
        "flagTargetReachable": "10",
        "flagSelfOnTemplateCollider": "01",
        "flagSelfInZone": "10",
        "flagTargetInZone": "11",
        "buddySkillCondition": {
          "selectRange": 35.0,
          "buddyScoring": {
            "distFactor": -1.0,
            "roleScores": [
              1.0,
              1.0,
              1.0,
              1.0
            ]
          }
        }
      },
      "602": {
        "name": "Howl",
        "skillType": "CombatBuddy",
        "priority": 4,
        "castCondition": {
          "pose": [
            401
          ]
        },
        "cd": 12.5,
        "initialCD": 20.0,
        "publicCDGroup": "Riftstalker_Howl",
        "CLEPNIDJOLN": "",
        "stateIDs": [
          "Howl"
        ],
        "skillQueryingTime": 3.0,
        "flagTargetReachable": "10",
        "flagSelfOnTemplateCollider": "01",
        "flagSelfInZone": "10",
        "flagTargetInZone": "11",
        "buddySkillCondition": {
          "selectRange": 35.0,
          "buddyScoring": {
            "distFactor": -1.0,
            "roleScores": [
              1.0,
              1.0,
              1.0,
              1.0
            ]
          }
        }
      },
      "701": {
        "name": "Bullet",
        "priority": 3,
        "castCondition": {
          "pose": [
            201
          ],
          "pickRangeMin": 7.5,
          "pickRangeMax": 22.5
        },
        "cd": 12.5,
        "cdUpperRange": 3.0,
        "initialCD": 20.0,
        "publicCDGroup": "",
        "CLEPNIDJOLN": "",
        "stateIDs": [
          "Bullet"
        ],
        "flagTargetReachable": "11",
        "flagSelfOnTemplateCollider": "01",
        "flagSelfInZone": "11",
        "flagTargetInZone": "11"
      },
      "702": {
        "name": "Bullet",
        "priority": 2,
        "castCondition": {
          "pose": [
            401
          ],
          "pickRangeMin": 7.5,
          "pickRangeMax": 22.5
        },
        "cd": 10.0,
        "cdUpperRange": 3.0,
        "initialCD": 5.0,
        "publicCDGroup": "",
        "CLEPNIDJOLN": "",
        "stateIDs": [
          "Bullet"
        ],
        "flagTargetReachable": "11",
        "flagSelfOnTemplateCollider": "01",
        "flagSelfInZone": "11",
        "flagTargetInZone": "11"
      },
      "801": {
        "name": "Smash",
        "priority": 2,
        "faceTarget": true,
        "castCondition": {
          "pose": [
            401
          ],
          "pickRangeMin": 5.0,
          "pickRangeMax": 10.5,
          "castRangeMin": 5.0,
          "castRangeMax": 10.5
        },
        "cd": 15.0,
        "cdUpperRange": 3.0,
        "publicCDGroup": "",
        "CLEPNIDJOLN": "",
        "stateIDs": [
          "Smash_BS",
          "Smash_Loop_01",
          "Smash_Loop_02",
          "Smash_Loop_03",
          "Smash_AS"
        ],
        "flagTargetReachable": "10",
        "flagSelfOnTemplateCollider": "01",
        "flagSelfInZone": "10",
        "flagTargetInZone": "11"
      },
      "901": {
        "name": "Activated",
        "faceTarget": true,
        "castCondition": {
          "pose": [
            301
          ]
        },
        "cd": 999999.0,
        "cdUpperRange": 3.0,
        "publicCDGroup": "",
        "ignoreGCD": true,
        "triggerGCD": false,
        "triggerCDOnStart": true,
        "KFIGEPOKGBN": false,
        "CLEPNIDJOLN": "",
        "stateIDs": [
          "Activated"
        ],
        "flagTargetReachable": "11",
        "flagSelfOnTemplateCollider": "01",
        "flagSelfInZone": "11",
        "flagTargetInZone": "11"
      },
      "1001": {
        "name": "RandomWalk",
        "castCondition": {
          "pose": [
            201,
            401
          ],
          "minTargetAngleXZ": 135.0
        },
        "cd": 7.5,
        "publicCDGroup": "",
        "ignoreGCD": true,
        "triggerGCD": false,
        "CLEPNIDJOLN": "",
        "stateIDs": [
          "RandomWalk"
        ],
        "flagTargetReachable": "10",
        "flagSelfOnTemplateCollider": "11",
        "flagSelfInZone": "11",
        "flagTargetInZone": "11"
      }
    },
    "skillGCD": 5.0,
    "combatFixedMoveTactic": [
      {
        "$type": "HLPBLIEBJLM",
        "enable": true,
        "EGJMGEHLDOL": {
          "pose": [
            201,
            401
          ]
        },
        "NGIEOIGFFDH": {
          "NDCHJGOOLCF": 50.0,
          "FDNLEPNLLBP": 8.5,
          "DANCMNIMNAM": 0.0,
          "KLOEABKCIIP": 0,
          "FCFLCFFJKLO": ""
        }
      },
      {
        "$type": "GJGILIGEJMO",
        "enable": true,
        "NGIEOIGFFDH": {
          "FCFLCFFJKLO": "",
          "BKCOJDIDEGN": ""
        }
      },
      {
        "$type": "IKIHDEMELGB",
        "enable": true,
        "EGJMGEHLDOL": {
          "pose": [
            101
          ]
        },
        "NGIEOIGFFDH": {
          "HOKGJAONGHG": 8.0,
          "GJOBDMEBGLM": 5.0,
          "KDLAOJIPGHP": 15.0,
          "OEFFOIEOJNC": 3.5,
          "HAHMEDHEBKE": 9.5,
          "FCFLCFFJKLO": ""
        }
      }
    ]
  },
  "inputKeys": [
    {
      "keyID": 101,
      "inputKeyCode": 257,
      "abilityName": ""
    },
    {
      "keyID": 201,
      "inputKeyCode": 258,
      "abilityName": ""
    },
    {
      "keyID": 301,
      "inputKeyCode": 259,
      "abilityName": ""
    },
    {
      "keyID": 401,
      "inputKeyCode": 260,
      "abilityName": ""
    },
    {
      "keyID": 501,
      "inputKeyCode": 261,
      "abilityName": ""
    },
    {
      "keyID": 601,
      "inputKeyCode": 262,
      "abilityName": ""
    },
    {
      "keyID": 701,
      "inputKeyCode": 263,
      "abilityName": ""
    },
    {
      "keyID": 801,
      "inputKeyCode": 264,
      "abilityName": ""
    },
    {
      "keyID": 901,
      "inputKeyCode": 265,
      "abilityName": ""
    },
    {
      "keyID": 1001,
      "inputKeyCode": 266,
      "abilityName": ""
    }
  ],
  "move": {
    "$type": "JKDLANFKJIL",
    "BGKIHCPJBMO": {
      "excludeForces": [
        "WindZoneType",
        "AirflowType"
      ]
    },
    "MFABCNMCIFB": true,
    "COJFNGPJCCL": true,
    "ADKJOFPNHNO": "FourDirection",
    "LPAKBBIADNC": "RootNode"
  },
  "audio": {
    "LKJIHNLBIJL": "",
    "animAudio": {
      "onTransitionIn": [
        {
          "currentStateName": "OutOfBuild",
          "audioEvent": {
            "text": "Stop_sfx_monster_hili_build"
          }
        },
        {
          "currentStateName": "Alert",
          "audioEvent": {
            "text": "Stop_sfx_monster_hili_build"
          }
        },
        {
          "currentStateName": "BeHit",
          "audioEvent": {
            "text": "Stop_sfx_monster_hili_build"
          }
        },
        {
          "currentStateName": "Die",
          "audioEvent": {
            "text": "Stop_sfx_monster_hili_build"
          }
        },
        {
          "currentStateName": "Die1",
          "audioEvent": {
            "text": "Stop_sfx_monster_hili_build"
          }
        },
        {
          "currentStateName": "Die2",
          "audioEvent": {
            "text": "Stop_sfx_monster_hili_build"
          }
        },
        {
          "currentStateName": "OutOfMake",
          "audioEvent": {
            "text": "Stop_sfx_monster_hili_build"
          }
        },
        {
          "currentStateName": "Practice_Sword_Back",
          "audioEvent": {
            "text": "Play_sfx_monster_hili_practice_back"
          }
        },
        {
          "currentStateName": "Practice_NoWeapon_Back",
          "audioEvent": {
            "text": "Play_sfx_monster_hili_practice_back"
          }
        },
        {
          "currentStateName": "Practice_Shoot_Aim",
          "audioEvent": {
            "text": "Play_sfx_monster_hili_practice_shoot_aim"
          }
        },
        {
          "currentStateName": "Dance",
          "audioEvent": {
            "text": "Play_sfx_monster_hili_dance"
          }
        },
        {
          "currentStateName": "OutOfDance",
          "audioEvent": {
            "text": "Stop_sfx_monster_hili_dance"
          }
        },
        {
          "currentStateName": "SurroundFree01_Club",
          "audioEvent": {
            "text": "Play_sfx_monster_hili_dance"
          }
        },
        {
          "currentStateName": "SurroundFree01_NoWeapon",
          "audioEvent": {
            "text": "Play_sfx_monster_hili_dance"
          }
        },
        {
          "currentStateName": "OutOfSurround",
          "audioEvent": {
            "text": "Stop_sfx_monster_hili_dance"
          }
        },
        {
          "currentStateName": "Alert",
          "audioEvent": {
            "text": "Stop_sfx_monster_hili_dance"
          }
        },
        {
          "currentStateName": "BeHit",
          "audioEvent": {
            "text": "Stop_sfx_monster_hili_dance"
          }
        },
        {
          "currentStateName": "Die",
          "audioEvent": {
            "text": "Stop_sfx_monster_hili_dance"
          }
        },
        {
          "currentStateName": "Die1",
          "audioEvent": {
            "text": "Stop_sfx_monster_hili_dance"
          }
        },
        {
          "currentStateName": "Die2",
          "audioEvent": {
            "text": "Stop_sfx_monster_hili_dance"
          }
        },
        {
          "currentStateName": "ThreatFree01_NoWeapon",
          "audioEvent": {
            "text": "Play_sfx_monster_hili_dance"
          }
        },
        {
          "currentStateName": "ThreatFree02_NoWeapon",
          "audioEvent": {
            "text": "Play_sfx_monster_hili_dance"
          }
        },
        {
          "currentStateName": "ThreatFree01_Club",
          "audioEvent": {
            "text": "Play_sfx_monster_hili_dance"
          }
        },
        {
          "currentStateName": "ThreatFree02_Club",
          "audioEvent": {
            "text": "Play_sfx_monster_hili_dance"
          }
        },
        {
          "currentStateName": "OutOfThreat",
          "audioEvent": {
            "text": "Stop_sfx_monster_hili_dance"
          }
        }
      ],
      "onTransitionOut": [
        {
          "currentStateName": "BombCreate",
          "audioEvent": {
            "text": "Stop_sfx_monster_hili_build"
          }
        },
        {
          "currentStateName": "Make",
          "audioEvent": {
            "text": "Stop_sfx_monster_hili_build"
          }
        },
        {
          "currentStateName": "Build",
          "audioEvent": {
            "text": "Stop_sfx_monster_hili_build"
          }
        },
        {
          "currentStateName": "Practice_Sword",
          "audioEvent": {
            "text": "Stop_sfx_monster_hili_practice_sword"
          }
        },
        {
          "currentStateName": "Practice_NoWeapon",
          "audioEvent": {
            "text": "Stop_sfx_monster_hili_practice_sword"
          }
        },
        {
          "currentStateName": "Practice_Sword_Back",
          "audioEvent": {
            "text": "Stop_sfx_monster_hili_practice_back"
          }
        },
        {
          "currentStateName": "Practice_NoWeapon_Back",
          "audioEvent": {
            "text": "Stop_sfx_monster_hili_practice_back"
          }
        },
        {
          "currentStateName": "Practice_Shoot_Aim",
          "audioEvent": {
            "text": "Stop_sfx_monster_hili_practice_shoot_aim"
          },
          "otherStateNames": [
            "Practice_Shoot_Attack"
          ],
          "usage": "Except"
        },
        {
          "currentStateName": "Practice_Shoot_Attack",
          "audioEvent": {
            "text": "Stop_sfx_monster_hili_practice_shoot_aim"
          }
        },
        {
          "currentStateName": "Dance",
          "audioEvent": {
            "text": "Stop_sfx_monster_hili_dance"
          }
        },
        {
          "currentStateName": "SurroundFree01_Club",
          "audioEvent": {
            "text": "Stop_sfx_monster_hili_dance"
          }
        },
        {
          "currentStateName": "SurroundFree01_NoWeapon",
          "audioEvent": {
            "text": "Stop_sfx_monster_hili_dance"
          }
        },
        {
          "currentStateName": "ThreatFree01_NoWeapon",
          "audioEvent": {
            "text": "Stop_sfx_monster_hili_dance"
          }
        },
        {
          "currentStateName": "ThreatFree02_NoWeapon",
          "audioEvent": {
            "text": "Stop_sfx_monster_hili_dance"
          }
        },
        {
          "currentStateName": "ThreatFree01_Club",
          "audioEvent": {
            "text": "Stop_sfx_monster_hili_dance"
          }
        },
        {
          "currentStateName": "ThreatFree02_Club",
          "audioEvent": {
            "text": "Stop_sfx_monster_hili_dance"
          }
        }
      ]
    },
    "disableEvent": {
      "text": "Stop_sfx_monster_hili_dance"
    },
    "destroyEvent": {
      "text": "Stop_sfx_monster_hili_dance"
    }
  }
}