{
  "MDJNFHAJPAD": {
    "FAIKDMCHPEL": {
      "$type": "DPGKNHENGLM",
      "DDDEJPIFECG": "EffectMesh"
    },
    "FINMNFLLAMB": 9999999.0,
    "NEBDNCNFDJC": 1.0,
    "MBMBBGOGNHF": true,
    "DIEPJBNIPBG": true,
    "CKECEGGMJOP": false,
    "GJDONABEMOA": true,
    "BKPPECPBMBF": true,
    "LOGFKHMLOOL": true
  },
  "LBGLCHLIKJP": {
    "$type": "NJIKCGBDNDF",
    "HONCKGMDJEK": true,
    "FDPCOFKGCHG": [
      "NormalIdle/Standby",
      "NormalIdle/Prone",
      "NormalMove/Walk",
      "NormalMove/Run",
      "Turn"
    ]
  },
  "PJEANIPCFFN": {
    "CKAIGCFDCMG": "",
    "KHGAHHAIJFJ": "",
    "DFFKHFKJKEK": false
  },
  "MEMHBNEJBCL": {
    "PJBCJPKPOLB": 1.0
  },
  "GKIMHOOMGHB": {
    "DHBJGHDCMAA": {
      "LDAHGACLHII": "Monster_Minion",
      "LJGADHKDLLB": 101.0,
      "ACOAHCMABGF": true
    },
    "BPKIJDAHLGB": {
      "LKMLEJGEHAP": "",
      "DKIENFAAJPK": true,
      "LHMKDLOKKJG": true
    },
    "INCPHOFGIJA": {
      "FGJIHAKMLBG": "CircleLockEnemy",
      "JPIFIDOPOND": true,
      "BGMEKAEIOGA": "Animal_Lv2"
    },
    "JCCJMILDEAM": {
      "GKFDFDFJJFB": 2.0,
      "FNIJBPMPCHA": 10.0,
      "BCHFMGGBEFN": ""
    }
  },
  "IGPKOOHPBFG": [
    {
      "FPLENFAEDIB": "",
      "KAJGDIHNKNE": "Animal_Common_Initial",
      "BIAMBCDKJKP": ""
    },
    {
      "FPLENFAEDIB": "",
      "KAJGDIHNKNE": "Animal_FontainePoddle_AIStateInitial",
      "BIAMBCDKJKP": ""
    },
    {
      "FPLENFAEDIB": "",
      "KAJGDIHNKNE": "Animal_FontainePoddle_Prone",
      "BIAMBCDKJKP": ""
    },
    {
      "FPLENFAEDIB": "",
      "KAJGDIHNKNE": "Animal_FontainePoddle_Stand",
      "BIAMBCDKJKP": ""
    },
    {
      "FPLENFAEDIB": "",
      "KAJGDIHNKNE": "Animal_FontainePoddle_BeHit",
      "BIAMBCDKJKP": ""
    }
  ],
  "GGIOJAMBNPO": {
    "defaultLayer": {
      "$type": "EPAPJJAGHKG",
      "ACOCIAFGIAD": "",
      "LFGKIDDJIED": {
        "Born": {
          "$type": "IJOIMFMEGMM",
          "DLOHGBDFFGB": {
            "Born": []
          },
          "DLAOMOCMANL": [
            "DoSkill"
          ]
        },
        "NormalIdle": {
          "$type": "IJOIMFMEGMM",
          "DLOHGBDFFGB": {
            "Standby": [],
            "Prone": []
          },
          "POLKCLOHPOO": true,
          "PGKCBIHGAOC": true,
          "DLAOMOCMANL": [
            "DoSkill"
          ]
        },
        "NormalMove": {
          "$type": "IJOIMFMEGMM",
          "DLOHGBDFFGB": {
            "Walk": [
              "Audio_Animal_FontainePoddle_Run"
            ],
            "Run": [
              "Audio_Animal_FontainePoddle_Run"
            ]
          },
          "PGKCBIHGAOC": true,
          "DLAOMOCMANL": [
            "DoSkill"
          ],
          "LIPMJPLGIKD": true
        },
        "Flee": {
          "$type": "IJOIMFMEGMM",
          "DLOHGBDFFGB": {
            "Flee": [
              "Audio_Animal_FontainePoddle_Run"
            ]
          },
          "PGKCBIHGAOC": true,
          "DLAOMOCMANL": [
            "DoSkill"
          ],
          "LIPMJPLGIKD": true
        },
        "Turn": {
          "$type": "IJOIMFMEGMM",
          "DLOHGBDFFGB": {
            "Turn": [
              "Audio_Animal_FontainePoddle_Run"
            ]
          },
          "PGKCBIHGAOC": true,
          "DLAOMOCMANL": [
            "DoSkill"
          ],
          "LIPMJPLGIKD": true
        },
        "Die": {
          "$type": "IJOIMFMEGMM",
          "DLOHGBDFFGB": {
            "Die": [
              "Animal_FontainePoddle_Disappear"
            ]
          },
          "AJBLILDCLBO": [
            "DoSkill"
          ]
        },
        "StandbyToProne": {
          "$type": "IJOIMFMEGMM",
          "DLOHGBDFFGB": {
            "StandbyToProne": [
              "Animal_FontainePoddle_Prone",
              "Audio_Animal_FontainePoddle_StandbyToProne"
            ]
          },
          "DLAOMOCMANL": [
            "BeHit",
            "DoSkill",
            "BeHitTrigger"
          ]
        },
        "ProneToStandby": {
          "$type": "IJOIMFMEGMM",
          "DLOHGBDFFGB": {
            "ProneToStandby": [
              "Animal_FontainePoddle_Stand",
              "Audio_Animal_FontainePoddle_ProneToStandby"
            ]
          },
          "DLAOMOCMANL": [
            "BeHit",
            "DoSkill",
            "BeHitTrigger"
          ]
        },
        "Dodge": {
          "$type": "IJOIMFMEGMM",
          "DLOHGBDFFGB": {
            "Dodge": [
              "Audio_Animal_FontainePoddle_Dodge"
            ]
          },
          "AJBLILDCLBO": [
            "BeHit",
            "DoSkill"
          ],
          "DLAOMOCMANL": [
            "BeHit",
            "DoSkill",
            "BeHitTrigger"
          ]
        },
        "Personality_Stand1": {
          "$type": "IJOIMFMEGMM",
          "DLOHGBDFFGB": {
            "Personality_Stand1": [
              "Audio_Animal_FontainePoddle_Personality_Stand"
            ]
          },
          "DLAOMOCMANL": [
            "BeHit",
            "DoSkill",
            "BeHitTrigger"
          ]
        },
        "Personality_Prone1": {
          "$type": "IJOIMFMEGMM",
          "DLOHGBDFFGB": {
            "Personality_Prone1": []
          },
          "DLAOMOCMANL": [
            "BeHit",
            "DoSkill",
            "BeHitTrigger"
          ]
        }
      }
    }
  },
  "IONIFBIBFNL": {
    "Default": {
      "JAAABLNBKAP": 1,
      "PIEEIAOKMJB": {
        "LHMPJOKLEHI": {
          "RandomPose": "1"
        },
        "GKGFCNLPILF": {
          "StandOnly": "false",
          "ProneOnly": "false"
        }
      }
    },
    "Prone": {
      "JAAABLNBKAP": 2,
      "PIEEIAOKMJB": {
        "LHMPJOKLEHI": {
          "RandomPose": "2"
        },
        "GKGFCNLPILF": {
          "StandOnly": "false",
          "ProneOnly": "false"
        }
      }
    },
    "StandOnly": {
      "JAAABLNBKAP": 4,
      "PIEEIAOKMJB": {
        "GKGFCNLPILF": {
          "StandOnly": "true"
        }
      }
    },
    "ProneOnly": {
      "JAAABLNBKAP": 5,
      "PIEEIAOKMJB": {
        "GKGFCNLPILF": {
          "ProneOnly": "true"
        }
      }
    }
  },
  "PDCDMABCPOA": {
    "ENLKMOKHELD": true,
    "BBIKFBPEPKO": 1,
    "LFINILDKIOL": "Animal",
    "OCBDDDCJANP": {
      "IJOBKDKBEME": {
        "DefaultSetting": {
          "PHDIIPOBJGA": 10.0,
          "COENEFGMPFK": 90.0,
          "MPEJKBDNFGB": 45.0,
          "BHOECAJIBOM": 3.5
        },
        "NoSensing": {
          "PHDIIPOBJGA": 0.0,
          "IINDLMAAMGD": 0.0,
          "BHOECAJIBOM": 0.0
        }
      },
      "PKFGMCHOEBN": {
        "DefaultTemplate": {
          "DefaultPoses": "DefaultSetting"
        },
        "NoSensingTemplate": {
          "DefaultPoses": "NoSensing"
        }
      }
    },
    "OFEGONBLOGP": {
      "DefaultSetting": [
        "HIT"
      ]
    },
    "EJOLGMGAECP": {
      "OFANIFGIFLN": 15.0,
      "HJODDLMLPBJ": 1.0,
      "KDPOCNEHGBJ": 500.0,
      "JGFOPCOIJOI": ""
    },
    "PMNPDDIOHHJ": {
      "OKMHHFALCCH": 50.0
    },
    "HEOOEKIGDAL": {
      "GMFIDKOEKHA": false,
      "FLMOHOODJBA": ""
    },
    "BNIENJNLAIJ": {
      "101": {
        "NOKKDDHKGAK": "StandbyToProne",
        "IKMCLKEPDFP": "Free",
        "ENKLFBHHOJI": {
          "CEKMINILIFB": [
            1
          ],
          "JHPHNFCMCIL": true
        },
        "PAHIDIJLGPF": 20.0,
        "GPMLADFJAAH": 15.0,
        "LKCFDIOMLCM": 15.0,
        "KKAEGIJIDLG": 10.0,
        "NOPNCNPCPJE": "",
        "HGAMDGAEIGO": "",
        "LFGKIDDJIED": [
          "StandbyToProne"
        ],
        "PGPDNPMFFAG": "10",
        "CCEAGFDONFH": "01",
        "OKOFHICILMD": "10",
        "CCFFFOIDOLP": "11"
      },
      "102": {
        "NOKKDDHKGAK": "StandbyToProne",
        "ENKLFBHHOJI": {
          "CEKMINILIFB": [
            101
          ],
          "JHPHNFCMCIL": true
        },
        "PAHIDIJLGPF": 20.0,
        "GPMLADFJAAH": 15.0,
        "LKCFDIOMLCM": 15.0,
        "KKAEGIJIDLG": 10.0,
        "NOPNCNPCPJE": "",
        "HGAMDGAEIGO": "",
        "LFGKIDDJIED": [
          "StandbyToProne"
        ],
        "PGPDNPMFFAG": "10",
        "CCEAGFDONFH": "01",
        "OKOFHICILMD": "10",
        "CCFFFOIDOLP": "11"
      },
      "111": {
        "NOKKDDHKGAK": "ProneToStandby",
        "IKMCLKEPDFP": "Free",
        "ENKLFBHHOJI": {
          "CEKMINILIFB": [
            2
          ],
          "JHPHNFCMCIL": true
        },
        "PAHIDIJLGPF": 25.0,
        "GPMLADFJAAH": 15.0,
        "LKCFDIOMLCM": 20.0,
        "KKAEGIJIDLG": 10.0,
        "NOPNCNPCPJE": "",
        "HGAMDGAEIGO": "",
        "LFGKIDDJIED": [
          "ProneToStandby"
        ],
        "PGPDNPMFFAG": "10",
        "CCEAGFDONFH": "01",
        "OKOFHICILMD": "10",
        "CCFFFOIDOLP": "11"
      },
      "112": {
        "NOKKDDHKGAK": "ProneToStandby",
        "ENKLFBHHOJI": {
          "CEKMINILIFB": [
            201
          ],
          "JHPHNFCMCIL": true
        },
        "PAHIDIJLGPF": 25.0,
        "GPMLADFJAAH": 15.0,
        "LKCFDIOMLCM": 20.0,
        "KKAEGIJIDLG": 10.0,
        "NOPNCNPCPJE": "",
        "HGAMDGAEIGO": "",
        "LFGKIDDJIED": [
          "ProneToStandby"
        ],
        "PGPDNPMFFAG": "10",
        "CCEAGFDONFH": "01",
        "OKOFHICILMD": "10",
        "CCFFFOIDOLP": "11"
      },
      "201": {
        "NOKKDDHKGAK": "Personality_Stand1",
        "IKMCLKEPDFP": "Free",
        "ENKLFBHHOJI": {
          "CEKMINILIFB": [
            1,
            4
          ],
          "JHPHNFCMCIL": true
        },
        "PAHIDIJLGPF": 20.0,
        "GPMLADFJAAH": 15.0,
        "LKCFDIOMLCM": 2.0,
        "KKAEGIJIDLG": 10.0,
        "NOPNCNPCPJE": "",
        "HGAMDGAEIGO": "",
        "LFGKIDDJIED": [
          "Personality_Stand1"
        ],
        "PGPDNPMFFAG": "10",
        "CCEAGFDONFH": "01",
        "OKOFHICILMD": "10",
        "CCFFFOIDOLP": "11"
      },
      "211": {
        "NOKKDDHKGAK": "Personality_Stand1",
        "ENKLFBHHOJI": {
          "CEKMINILIFB": [
            101,
            401
          ],
          "JHPHNFCMCIL": true
        },
        "PAHIDIJLGPF": 20.0,
        "GPMLADFJAAH": 15.0,
        "LKCFDIOMLCM": 2.0,
        "KKAEGIJIDLG": 5.0,
        "NOPNCNPCPJE": "",
        "HGAMDGAEIGO": "",
        "LFGKIDDJIED": [
          "Personality_Stand1"
        ],
        "PGPDNPMFFAG": "10",
        "CCEAGFDONFH": "01",
        "OKOFHICILMD": "10",
        "CCFFFOIDOLP": "11"
      },
      "301": {
        "NOKKDDHKGAK": "PersonalityProne1",
        "IKMCLKEPDFP": "Free",
        "ENKLFBHHOJI": {
          "CEKMINILIFB": [
            2,
            5
          ],
          "JHPHNFCMCIL": true
        },
        "PAHIDIJLGPF": 10.0,
        "GPMLADFJAAH": 5.0,
        "LKCFDIOMLCM": 7.0,
        "KKAEGIJIDLG": 5.0,
        "NOPNCNPCPJE": "",
        "HGAMDGAEIGO": "",
        "LFGKIDDJIED": [
          "PersonalityProne1"
        ],
        "PGPDNPMFFAG": "10",
        "CCEAGFDONFH": "01",
        "OKOFHICILMD": "10",
        "CCFFFOIDOLP": "11"
      },
      "311": {
        "NOKKDDHKGAK": "PersonalityProne1",
        "ENKLFBHHOJI": {
          "CEKMINILIFB": [
            201,
            501
          ],
          "JHPHNFCMCIL": true
        },
        "PAHIDIJLGPF": 10.0,
        "GPMLADFJAAH": 5.0,
        "LKCFDIOMLCM": 7.0,
        "KKAEGIJIDLG": 5.0,
        "NOPNCNPCPJE": "",
        "HGAMDGAEIGO": "",
        "LFGKIDDJIED": [
          "PersonalityProne1"
        ],
        "PGPDNPMFFAG": "10",
        "CCEAGFDONFH": "01",
        "OKOFHICILMD": "10",
        "CCFFFOIDOLP": "11"
      }
    },
    "EMBHEEALPLD": 5.0,
    "EEKEAKJCMJO": [
      {
        "$type": "GIMIMAJNOPH",
        "ENLKMOKHELD": true,
        "FJANPNOAAFK": {
          "CEKMINILIFB": [
            901,
            902
          ]
        },
        "GMMKOLNMFJL": [
          "HIT"
        ],
        "LMMKNFEMOMG": {
          "GEAICNICJAJ": 2.0,
          "PAHIDIJLGPF": 2.0,
          "OHLJIHFFMLB": 0.0,
          "IFCLJHAJFHD": 75.0,
          "GGIBBPIGEJF": 3,
          "PKFMEOPIHEO": 5,
          "NBBIJDCLJOF": 3.5,
          "MHMMABHJIIA": 5.0,
          "JOCOJHEICNA": ""
        }
      },
      {
        "$type": "CMCHFECOPPI",
        "ENLKMOKHELD": true,
        "LMMKNFEMOMG": {
          "DCEODHLDKCJ": 1.0,
          "GAHPENGCPFA": 1.0,
          "JOCOJHEICNA": "",
          "DBIELIMGBMC": ""
        }
      },
      {
        "$type": "KMHBGMELMKD"
      },
      {
        "$type": "GGKADEIBMLG",
        "ENLKMOKHELD": true,
        "FJANPNOAAFK": {
          "CEKMINILIFB": [
            1,
            4
          ]
        },
        "LMMKNFEMOMG": {
          "GEAICNICJAJ": 0.75,
          "JIFJFPJANHO": 10.5,
          "CBKHBGCPFBG": 5.5,
          "EKDHNAGGGAE": 4.5,
          "BFEJAKFKKFP": 1.0,
          "KOAMKCEFJED": 4.0,
          "JOCOJHEICNA": ""
        }
      }
    ]
  },
  "KDLODKFKHPB": {
    "PIMGAEBNCBJ": false,
    "JFBHPOLAAEJ": false
  }
}