{
  "MDJNFHAJPAD": {
    "FAIKDMCHPEL": {
      "$type": "DPGKNHENGLM",
      "DDDEJPIFECG": "EffectMesh01"
    },
    "FINMNFLLAMB": 10000.0,
    "NEBDNCNFDJC": 2.0,
    "MECICKNEPGG": 3.0,
    "ECKMFAADIFN": 0.0,
    "MBMBBGOGNHF": true,
    "DIEPJBNIPBG": true,
    "LOAJMKOODGO": true,
    "JBIPDEEPIMN": true,
    "BKPPECPBMBF": true,
    "LOGFKHMLOOL": true
  },
  "PJEANIPCFFN": {
    "CKAIGCFDCMG": "",
    "KHGAHHAIJFJ": ""
  },
  "MEMHBNEJBCL": {
    "PJBCJPKPOLB": 2.0,
    "CMDNEPBHICB": {
      "ADNPIILDCJH": 0.0
    }
  },
  "GKIMHOOMGHB": {
    "DHBJGHDCMAA": {
      "LDAHGACLHII": "Monster_Boss_Other",
      "LJGADHKDLLB": 500.0
    },
    "BPKIJDAHLGB": {
      "LKMLEJGEHAP": "",
      "KGBJBNEBABH": false,
      "CFMNIKLGLAL": true
    },
    "INCPHOFGIJA": {
      "FGJIHAKMLBG": "CircleLockEnemy",
      "BGMEKAEIOGA": "Avatar&Monster_Lv4"
    },
    "JCCJMILDEAM": {
      "GKFDFDFJJFB": 4.0,
      "FNIJBPMPCHA": 5.0,
      "BCHFMGGBEFN": "",
      "LEDBOLGDENF": true,
      "IEAKKMEDNDE": true,
      "AAEANOPIAAL": true,
      "IBBHGBHIHCI": true,
      "BKIBMIAJOHP": true,
      "MOFPBPPGPCL": true
    }
  },
  "IGPKOOHPBFG": [
    {
      "FPLENFAEDIB": "",
      "KAJGDIHNKNE": "Monster_Ptahur_VertexGreater",
      "BIAMBCDKJKP": ""
    }
  ],
  "GGIOJAMBNPO": {
    "defaultLayer": {
      "$type": "EPAPJJAGHKG",
      "ACOCIAFGIAD": "",
      "LFGKIDDJIED": {
        "Standby": {
          "$type": "IJOIMFMEGMM",
          "DLOHGBDFFGB": {
            "Standby": []
          },
          "POLKCLOHPOO": true,
          "PGKCBIHGAOC": true,
          "DLAOMOCMANL": [
            "DoSkill"
          ],
          "LIPMJPLGIKD": true
        },
        "Die": {
          "$type": "IJOIMFMEGMM",
          "DLOHGBDFFGB": {
            "Die": []
          },
          "AJBLILDCLBO": [
            "DoSkill"
          ],
          "DLAOMOCMANL": [
            "DoSkill"
          ]
        },
        "Born": {
          "$type": "IJOIMFMEGMM",
          "DLOHGBDFFGB": {
            "Born": []
          },
          "PGKCBIHGAOC": true,
          "DLAOMOCMANL": [
            "DoSkill"
          ]
        },
        "Warning": {
          "$type": "IJOIMFMEGMM",
          "DLOHGBDFFGB": {
            "Alert": []
          },
          "DLAOMOCMANL": [
            "BeHit",
            "DoSkill"
          ],
          "LIPMJPLGIKD": true
        }
      }
    }
  },
  "IEFGNHABHFH": {
    "$type": "PAOBAEKGGBC",
    "JBKMLLFNHAL": "BillboardAttach",
    "NDKBHOOPGNA": {
      "y": 0.5
    },
    "LOMMBJLKPHE": 1.0,
    "FMJAGHIMLEI": true,
    "KGHAGECNJPO": true,
    "MGLEAPLEHFN": "Big"
  },
  "IONIFBIBFNL": {
    "Default": {
      "JAAABLNBKAP": 1
    },
    "Test": {
      "JAAABLNBKAP": 101
    }
  },
  "PDCDMABCPOA": {
    "ENLKMOKHELD": true,
    "KGDGKFHPJPO": {
      "NAHAOOOGKLG": false,
      "NLGDNEMIKPE": "Undead01"
    },
    "OCBDDDCJANP": {
      "IJOBKDKBEME": {
        "DefaultSetting": {
          "PHDIIPOBJGA": 0.0,
          "BHOECAJIBOM": 999.0
        }
      },
      "PKFGMCHOEBN": {
        "DefaultTemplate": {
          "DefaultPoses": "DefaultSetting"
        }
      }
    },
    "EJOLGMGAECP": {
      "OFANIFGIFLN": 999.0,
      "PLCPHNHGFAC": 999.0,
      "HJODDLMLPBJ": 2.0,
      "BJLBMJLOPIP": [
        {
          "LFALGCACJOF": 12.0,
          "IOHOACGNJHO": 1.0
        },
        {
          "LFALGCACJOF": 20.0,
          "IOHOACGNJHO": 0.5
        }
      ],
      "IBGELAGCJFH": "Monster_TauntLevel_4",
      "JGFOPCOIJOI": ""
    },
    "PMNPDDIOHHJ": {
      "OKMHHFALCCH": 999.0
    },
    "HEOOEKIGDAL": {
      "GMFIDKOEKHA": false,
      "FLMOHOODJBA": ""
    },
    "CNAPABCFOAH": {
      "LNFOCHIGPKF": true
    },
    "BNIENJNLAIJ": {
      "100": {
        "NOKKDDHKGAK": "OnAlert",
        "IKMCLKEPDFP": "OnAlert",
        "HAOJJHNOGHO": true,
        "NOPNCNPCPJE": "",
        "IDPMFPAPNCE": false,
        "HGAMDGAEIGO": "",
        "LFGKIDDJIED": [
          "Warning"
        ],
        "NNJBOCFBGJG": 3.0,
        "PGPDNPMFFAG": "10",
        "CCEAGFDONFH": "01",
        "OKOFHICILMD": "10",
        "CCFFFOIDOLP": "11"
      },
      "101": {
        "NOKKDDHKGAK": "Stage01_MeleeAttack",
        "ENKLFBHHOJI": {
          "CEKMINILIFB": [
            101
          ],
          "MLFAMHDFHMM": 20.0
        },
        "LKCFDIOMLCM": 2.0,
        "NOPNCNPCPJE": "",
        "IDPMFPAPNCE": false,
        "HGAMDGAEIGO": "",
        "LFGKIDDJIED": [
          "Stage01_MeleeAttack"
        ],
        "NNJBOCFBGJG": 3.0,
        "PGPDNPMFFAG": "10",
        "CCEAGFDONFH": "01",
        "OKOFHICILMD": "10",
        "CCFFFOIDOLP": "11"
      },
      "102": {
        "NOKKDDHKGAK": "Stage01_ShootAttack",
        "ENKLFBHHOJI": {
          "CEKMINILIFB": [
            101
          ],
          "JHPHNFCMCIL": true,
          "OLDIEKKCIOG": 10.0,
          "MLFAMHDFHMM": 30.0
        },
        "PAHIDIJLGPF": 1.0,
        "GPMLADFJAAH": 2.0,
        "LKCFDIOMLCM": 2.0,
        "NOPNCNPCPJE": "",
        "IDPMFPAPNCE": false,
        "HGAMDGAEIGO": "",
        "LFGKIDDJIED": [
          "Stage01_ShootAttack"
        ],
        "NNJBOCFBGJG": 3.0,
        "PGPDNPMFFAG": "10",
        "CCEAGFDONFH": "01",
        "OKOFHICILMD": "10",
        "CCFFFOIDOLP": "11"
      }
    },
    "EMBHEEALPLD": 0.0
  },
  "GIBHCHHOJFI": [
    {
      "NPDDCIDNKMH": 100,
      "KCAOBJOPJIC": 257,
      "KAJGDIHNKNE": ""
    },
    {
      "NPDDCIDNKMH": 101,
      "KCAOBJOPJIC": 258,
      "KAJGDIHNKNE": ""
    },
    {
      "NPDDCIDNKMH": 102,
      "KCAOBJOPJIC": 259,
      "KAJGDIHNKNE": ""
    }
  ],
  "BEGHJJDCLLK": {
    "KEEAIACIJBN": "",
    "JIOEGJGNLEC": {
      "NGKLCAOGKNG": [
        {
          "ILNHPFBOKNK": "Stage02_TailStormAttack_SetPosition",
          "CDMEEHAPNGE": {
            "KMNBEAJOBPE": "Play_sfx_monster_Sandworm_stage02_tailStormAttack"
          },
          "LFOAJJCBNPI": [
            "Stage02_TailStormAttack_SetPosition"
          ],
          "JKPDEGAANLH": "Except"
        },
        {
          "ILNHPFBOKNK": "Faint",
          "CDMEEHAPNGE": {
            "KMNBEAJOBPE": "Play_sfx_monster_Sandworm_die_faint_loop"
          },
          "LFOAJJCBNPI": [
            "Faint"
          ],
          "JKPDEGAANLH": "Except"
        },
        {
          "ILNHPFBOKNK": "Stage02_TailVerticalShootAttack_SetPosition",
          "CDMEEHAPNGE": {
            "KMNBEAJOBPE": "Play_sfx_monster_Sandworm_stage02_tailVerticalShootAttack"
          },
          "LFOAJJCBNPI": [
            "Stage02_TailVerticalShootAttack_SetPosition"
          ],
          "JKPDEGAANLH": "Except"
        }
      ],
      "MPLMIOAKNGG": [
        {
          "ILNHPFBOKNK": "Faint",
          "CDMEEHAPNGE": {
            "KMNBEAJOBPE": "Stop_sfx_monster_Sandworm_die_faint_loop"
          },
          "LFOAJJCBNPI": [
            "Faint"
          ],
          "JKPDEGAANLH": "Except"
        }
      ]
    }
  },
  "LMHBPOFDMGB": {
    "default": {
      "$type": "ALDGBHOFGNJ",
      "MBDAAADDHNL": 1.0,
      "ODGOPJOMIOD": 0.6000000238418579,
      "NEEJKCEAEOH": 45.0,
      "HNELLIFDCEJ": 14.0,
      "LAFEEHPNFJE": 10.0,
      "LHMKDKDKCMK": false,
      "CINOLDJDIME": 79.0,
      "JAOHLHPPBDE": 99.0,
      "PNABBNBKPKL": 0.0,
      "KAJCHFLHBDJ": 0.0,
      "DDKDCMMBADD": 0.0,
      "ADOADIMFHKL": 0.0,
      "BKEJGFMMHCD": "CircleR225",
      "EBJKIPGGECO": "CircleR225",
      "OHGODJLICDB": true,
      "FDLCMNHALEN": true,
      "CELKLNKMHOE": 1.0
    }
  }
}