{
  "common": {
    "effectAttachShape": {
      "$type": "DPGKNHENGLM",
      "DDDEJPIFECG": "EffectMesh"
    },
    "mass": 200.0,
    "height": 0.6000000238418579,
    "scale": 1.5,
    "BKPPECPBMBF": true,
    "LOGFKHMLOOL": true
  },
  "model": {
    "bornEffect": "",
    "attachEffect": ""
  },
  "dither": {
    "showDitherDuration": 2.0
  },
  "combat": {
    "property": {
      "endureType": "Monster_Slime",
      "weight": 300.0
    },
    "beHit": {
      "hitBloodEffect": "",
      "muteAllHit": true
    },
    "combatLock": {
      "lockShape": "CircleLockEnemy",
      "lockType": "Avatar&Monster_Lv4"
    },
    "die": {
      "hasAnimatorDie": true,
      "fallWhenAirDie": false,
      "dieEndTime": 1.0,
      "dieForceDisappearTime": 4.0,
      "dieDisappearEffect": "Eff_Death_InWater_Common",
      "dieShaderData": "MonsterDieInWater",
      "dieShaderEnableDurationTime": 0.5,
      "dieModelFadeDelay": 0.5,
      "muteHitBox": true,
      "dieDenyLockOn": true,
      "dieIsGhostToEnemy": true,
      "dieIgnoreTriggerBullet": true,
      "muteBillboard": true,
      "mutePushCollider": true
    }
  },
  "abilities": [
    {
      "abilityID": "",
      "abilityName": "FauneAbyssale_Seal_Larva_Born",
      "abilityOverride": ""
    },
    {
      "abilityID": "",
      "abilityName": "Monster_FauneAbyssale_Seal_TriggerEnhanceBullet",
      "abilityOverride": ""
    },
    {
      "abilityID": "",
      "abilityName": "FauneAbyssale_Seal_Larva_FreeSkillsBinding",
      "abilityOverride": ""
    },
    {
      "abilityID": "",
      "abilityName": "Monster_FauneAbyssale_Seal_Large_Pace",
      "abilityOverride": ""
    },
    {
      "abilityID": "",
      "abilityName": "Monster_FauneAbyssale_Seal_HideBody",
      "abilityOverride": ""
    },
    {
      "abilityID": "",
      "abilityName": "Monster_FauneAbyssale_Seal_EnhanceBullet_AS",
      "abilityOverride": ""
    }
  ],
  "stateLayers": {
    "defaultLayer": {
      "$type": "EPAPJJAGHKG",
      "ACOCIAFGIAD": "",
      "stateIDs": {
        "Born": {
          "$type": "IJOIMFMEGMM",
          "DLOHGBDFFGB": {
            "Born": []
          }
        },
        "NormalIdle": {
          "$type": "IJOIMFMEGMM",
          "DLOHGBDFFGB": {
            "Standby": [],
            "StandbyFree": []
          },
          "POLKCLOHPOO": true,
          "PGKCBIHGAOC": true,
          "DLAOMOCMANL": [
            "DoSkill"
          ],
          "LIPMJPLGIKD": true
        },
        "NormalMove": {
          "$type": "IJOIMFMEGMM",
          "DLOHGBDFFGB": {
            "Walk": [],
            "Walk_BS": [],
            "WalkFreeForLarge": [],
            "WalkFreeForLarge_BS": []
          },
          "POLKCLOHPOO": true,
          "PGKCBIHGAOC": true,
          "DLAOMOCMANL": [
            "DoSkill"
          ],
          "LIPMJPLGIKD": true,
          "PPKOODEDOFN": "BlendMove"
        },
        "Struggle": {
          "$type": "IJOIMFMEGMM",
          "DLOHGBDFFGB": {
            "Struggle": [
              "Audio_Seal_Enormous_01Struggle_Absorbed"
            ]
          },
          "AJBLILDCLBO": [
            "BeHit",
            "HitAir2HitDrop"
          ],
          "DLAOMOCMANL": [
            "DoSkill"
          ],
          "OOPPLFOAOGN": true
        },
        "Die": {
          "$type": "IJOIMFMEGMM",
          "DLOHGBDFFGB": {
            "Die": [
              "Monster_FauneAbyssale_Seal_Die",
              "Audio_Monster_FauneAbyssale_Seal_Larva_02_Personality1_Die"
            ]
          },
          "AJBLILDCLBO": [
            "BeHit",
            "DoSkill",
            "BeHit"
          ]
        },
        "NormalAttack1_BS": {
          "$type": "IJOIMFMEGMM",
          "DLOHGBDFFGB": {
            "NormalAttack1_BS": [
              "Audio_Monster_FauneAbyssale_Seal_Larva_02_NormalAttack1_BS"
            ]
          },
          "PGKCBIHGAOC": true,
          "LAKHIBAPNAB": true,
          "DLAOMOCMANL": [
            "BeHit",
            "DoSkill"
          ],
          "LIPMJPLGIKD": true
        },
        "NormalAttack1_Loop": {
          "$type": "IJOIMFMEGMM",
          "DLOHGBDFFGB": {
            "NormalAttack1_Loop1": [
              "Monster_FauneAbyssale_Seal_TriggerEnhanceBullet",
              "Audio_Monster_FauneAbyssale_Seal_Larva_02_NormalAttack1_Loop1"
            ]
          },
          "PGKCBIHGAOC": true,
          "LAKHIBAPNAB": true,
          "DLAOMOCMANL": [
            "BeHit",
            "DoSkill"
          ],
          "LIPMJPLGIKD": true
        },
        "NormalAttack1_AS": {
          "$type": "IJOIMFMEGMM",
          "DLOHGBDFFGB": {
            "NormalAttack1_AS": [
              "Audio_Monster_FauneAbyssale_Seal_Larva_02_NormalAttack1_AS"
            ]
          },
          "DLAOMOCMANL": [
            "BeHit",
            "DoSkill"
          ],
          "LIPMJPLGIKD": true
        },
        "Alert": {
          "$type": "IJOIMFMEGMM",
          "DLOHGBDFFGB": {
            "Alert": [
              "Eff_Monster_FauneAbyssale_Seal_Alert",
              "Audio_Monster_FauneAbyssale_Seal_Larva_02_Alert"
            ]
          },
          "DLAOMOCMANL": [
            "BeHit",
            "DoSkill"
          ],
          "LIPMJPLGIKD": true
        },
        "Personality1_BS": {
          "$type": "IJOIMFMEGMM",
          "DLOHGBDFFGB": {
            "Personality1_BS": [
              "Audio_Monster_FauneAbyssale_Seal_Larva_Personality1_BS"
            ]
          },
          "DLAOMOCMANL": [
            "BeHit",
            "DoSkill"
          ],
          "LIPMJPLGIKD": true
        },
        "Personality1": {
          "$type": "IJOIMFMEGMM",
          "DLOHGBDFFGB": {
            "Personality1_Loop": [
              "Monster_FauneAbyssale_Seal_Larva_SingleSing",
              "Audio_Monster_FauneAbyssale_Seal_Larva_02_Personality1_Loop"
            ]
          },
          "DLAOMOCMANL": [
            "BeHit",
            "DoSkill"
          ],
          "LIPMJPLGIKD": true
        },
        "Personality1_AS": {
          "$type": "IJOIMFMEGMM",
          "DLOHGBDFFGB": {
            "Personality1_AS": [
              "Audio_Monster_FauneAbyssale_Seal_Larva_02_Personality1_AS"
            ]
          },
          "DLAOMOCMANL": [
            "BeHit",
            "DoSkill"
          ],
          "LIPMJPLGIKD": true
        },
        "Personality4": {
          "$type": "IJOIMFMEGMM",
          "DLOHGBDFFGB": {
            "Personality4": []
          },
          "DLAOMOCMANL": [
            "BeHit",
            "DoSkill"
          ],
          "LIPMJPLGIKD": true,
          "KFFHLPJKJFN": true
        }
      }
    }
  },
  "billboard": {
    "$type": "PAOBAEKGGBC",
    "attachPoint": "BillboardAttach",
    "offset": {
      "y": 0.5
    },
    "LOMMBJLKPHE": 1.0,
    "FMJAGHIMLEI": true,
    "KGHAGECNJPO": true,
    "JLCJBGKPEEC": 15.0
  },
  "initialPoses": {
    "Mute": {
      "initialPoseID": 99,
      "initialPoseParams": {
        "intParams": {
          "FreeState": "99"
        }
      }
    },
    "Default": {
      "initialPoseID": 11,
      "initialPoseParams": {
        "intParams": {
          "FreeState": "0"
        }
      }
    },
    "Circling2": {
      "initialPoseID": 13,
      "initialPoseParams": {
        "intParams": {
          "FreeState": "6"
        }
      }
    },
    "Circling": {
      "initialPoseID": 17,
      "initialPoseParams": {
        "intParams": {
          "FreeState": "6"
        }
      }
    }
  },
  "aibeta": {
    "enable": true,
    "decisionArchetype": "EnableCastSkillWhenCircling",
    "moveSetting": {
      "moveCategory": "Dive",
      "useNavMesh": false,
      "useToTheMoon": true,
      "navMeshAgentName": "Undead01"
    },
    "sensing": {
      "settings": {
        "DefaultSetting": {
          "viewRange": 25.0,
          "hearAttractionRange": 0.0,
          "feelRange": 10.0,
          "sourcelessHitAttractionRange": 20.0
        },
        "HighAlert": {
          "viewRange": 25.0,
          "viewPanoramic": true,
          "hearAttractionRange": 0.0,
          "feelRange": 10.0,
          "sourcelessHitAttractionRange": 20.0
        }
      },
      "templates": {
        "DefaultTemplate": {
          "DefaultPoses": "DefaultSetting",
          "201": "HighAlert",
          "203": "HighAlert",
          "901": "HighAlert"
        }
      }
    },
    "neurons": {
      "DefaultSetting": [
        "HIT"
      ]
    },
    "threat": {
      "threatDecreaseSpeed": 45.0,
      "viewAttenuation": [
        {
          "x": 10.0,
          "y": 1.0
        },
        {
          "x": 15.0,
          "y": 0.800000011920929
        },
        {
          "x": 20.0,
          "y": 0.4000000059604645
        },
        {
          "x": 25.0,
          "y": 0.20000000298023224
        }
      ],
      "JGFOPCOIJOI": ""
    },
    "defendArea": {
      "defendRange": 80.0
    },
    "fly": {
      "enable": true,
      "JBBEJGNPNDL": [
        11,
        13,
        17,
        99,
        201,
        203,
        901
      ]
    },
    "skills": {
      "201": {
        "name": "NormalAttack1",
        "combatSkillType": "RangedAttack",
        "priority": 2,
        "castCondition": {
          "pose": [
            201,
            203
          ],
          "CANPLJNCJCF": [
            2
          ]
        },
        "cd": 5.5,
        "cdUpperRange": 2.0,
        "initialCD": 7.0,
        "publicCDGroup": "",
        "HGAMDGAEIGO": "",
        "stateIDs": [
          "NormalAttack1_BS",
          "NormalAttack1_Loop",
          "NormalAttack1_AS"
        ],
        "flagTargetReachable": "11",
        "flagSelfOnTemplateCollider": "11",
        "flagSelfInZone": "11",
        "flagTargetInZone": "11"
      },
      "202": {
        "name": "Personality1",
        "priority": 1,
        "castCondition": {
          "pose": [
            203
          ],
          "CANPLJNCJCF": [
            2
          ]
        },
        "cd": 7.5,
        "initialCD": 6.0,
        "publicCDGroup": "",
        "HGAMDGAEIGO": "",
        "stateIDs": [
          "Personality1_BS",
          "Personality1",
          "Personality1_AS",
          "Personality4"
        ],
        "flagTargetReachable": "11",
        "flagSelfOnTemplateCollider": "11",
        "flagSelfInZone": "11",
        "flagTargetInZone": "11"
      },
      "203": {
        "name": "Personality4",
        "priority": 2,
        "canUseCombatSkillCondition": true,
        "castCondition": {
          "pose": [
            201
          ],
          "CANPLJNCJCF": [
            2
          ],
          "pickRangeByRaycast": [
            {
              "min": 5.0,
              "max": -1.0,
              "raycastType": "DownToGroundOnlyInWater"
            }
          ],
          "SkillAnchorRangeMin": -1.0,
          "HMELCPIMADB": -1.0,
          "TargetSkillAnchorRangeMin": 7.5
        },
        "cd": 20.0,
        "cdUpperRange": 2.5,
        "initialCD": 5.0,
        "publicCDGroup": "",
        "HGAMDGAEIGO": "",
        "stateIDs": [
          "Personality4"
        ],
        "flagTargetReachable": "11",
        "flagSelfOnTemplateCollider": "11",
        "flagSelfInZone": "11",
        "flagTargetInZone": "11"
      },
      "100": {
        "name": "OnAlert",
        "skillType": "OnAlert",
        "faceTarget": true,
        "castCondition": {
          "pose": [
            11,
            13,
            17,
            99
          ]
        },
        "publicCDGroup": "",
        "ignoreGCD": true,
        "triggerGCD": false,
        "HGAMDGAEIGO": "",
        "stateIDs": [
          "Alert"
        ],
        "skillQueryingTime": 3.0,
        "flagTargetReachable": "10",
        "flagSelfOnTemplateCollider": "01",
        "flagSelfInZone": "10",
        "flagTargetInZone": "11",
        "nerveTrigger": [
          "HIT"
        ]
      }
    },
    "skillGCD": 3.5,
    "groupSurroundTactic": {
      "Temp1": {
        "PAPAFEAFNAA": 0.30000001192092896,
        "ALIHEONDPCE": 0.699999988079071,
        "JHBHNPDOAHH": 30.0,
        "COCPFJLGGMC": -30.0
      },
      "Temp2": {
        "AKNELDBODJE": false,
        "KCAPGCKCPBJ": 30.0,
        "JHBHNPDOAHH": 90.0,
        "COCPFJLGGMC": -90.0
      }
    },
    "combatFixedMoveTactic": [
      {
        "$type": "EIENLLLOCOB",
        "enable": true,
        "FJANPNOAAFK": {
          "pose": [
            13,
            17
          ]
        },
        "LMMKNFEMOMG": {
          "EGLLAFMFBHO": false
        },
        "BIDHHBJEKHM": {
          "13": {
            "radius": 1.0,
            "EGLLAFMFBHO": false
          }
        }
      },
      {
        "$type": "CMCHFECOPPI",
        "LMMKNFEMOMG": {
          "DCEODHLDKCJ": 2.0,
          "GAHPENGCPFA": 2.0,
          "JOCGOKPMCKI": "Auto",
          "JOCOJHEICNA": "",
          "DBIELIMGBMC": "Temp2"
        }
      },
      {
        "$type": "ADPPBLEBNLM",
        "LMMKNFEMOMG": {
          "KIHPEPHJMOG": 1,
          "JOCOJHEICNA": "",
          "DBIELIMGBMC": "Temp2",
          "JOCGOKPMCKI": "Auto"
        }
      },
      {
        "$type": "KDGMPAMMMJG",
        "enable": true,
        "FJANPNOAAFK": {
          "pose": [
            99
          ]
        },
        "LMMKNFEMOMG": {
          "KIHPEPHJMOG": 1,
          "JOCGOKPMCKI": "Auto",
          "JOCOJHEICNA": "",
          "DBIELIMGBMC": "Temp2"
        }
      },
      {
        "$type": "KMHBGMELMKD",
        "enable": true,
        "LMMKNFEMOMG": {
          "GEAICNICJAJ": 5.0,
          "BMLLGHNDPNE": 5.0,
          "JOCGOKPMCKI": "Auto",
          "JOCOJHEICNA": "",
          "DBIELIMGBMC": "Temp2"
        }
      },
      {
        "$type": "EONBNFNCMNG",
        "LMMKNFEMOMG": {
          "KIHPEPHJMOG": 1,
          "IBKLDKBINDG": true,
          "JOCOJHEICNA": "",
          "DBIELIMGBMC": "Temp2"
        }
      },
      {
        "$type": "APBKGIMHIEJ",
        "enable": true,
        "FJANPNOAAFK": {
          "pose": [
            11,
            201,
            203
          ]
        },
        "LMMKNFEMOMG": {
          "KIHPEPHJMOG": 2,
          "EJJMPMENNGE": 30.5,
          "GABOKKPIPGO": 20.5,
          "NCOONJCNMJO": 0.0,
          "EBNPDABAEEB": 1.0,
          "JOCOJHEICNA": "",
          "DBIELIMGBMC": "Temp2"
        }
      },
      {
        "$type": "JICKAIEGMCB",
        "enable": true,
        "FJANPNOAAFK": {
          "pose": [
            11,
            201,
            203
          ]
        },
        "LMMKNFEMOMG": {
          "KIHPEPHJMOG": 1,
          "CBIMEHHAGOA": {
            "KEFGIOIFNEO": 4.5,
            "HMOAPLCPFOB": 10.5,
            "ALHLDKBBFON": 0.0,
            "JPDHFLJJOPA": 0.0,
            "LHDCEKHMLPD": 4.0,
            "BCLEGFPPNIG": 10.0,
            "PMHKNMGNLFB": 4.0,
            "CDGJBKJIKLO": 10.0,
            "CBNDNHHJOBI": 3.0,
            "HDEOOHOCEOM": 10.0,
            "CFGMPOGHAIB": 3.0,
            "KHMENPJNMME": 10.0
          },
          "GEAICNICJAJ": 1.0,
          "FAPJEBILPIF": 10.0,
          "JIFJFPJANHO": 0.20000000298023224,
          "CBKHBGCPFBG": 0.10000000149011612,
          "JOCOJHEICNA": "",
          "DBIELIMGBMC": "",
          "PPKJCDNJDJB": 1.5,
          "BDBHOFNCIMP": 120.0,
          "CCDKMDNMBOD": 60.0,
          "FMKOEOHJBCG": 0.30000001192092896,
          "PFPIFDOHGPO": 3.0,
          "POKDCEGEACA": 3.0,
          "FCAIKJKJBCE": 3.0,
          "KMLGLBJOJJK": true,
          "BPAKHJMOEEP": 1.5,
          "HAHLNLLKDCN": 0.5,
          "EOMGAGEBIMI": 0.33000001311302185,
          "LEPFNGCFDGC": -0.5,
          "LDEIFOFFKME": 0.5,
          "LFIPFPKJDKM": 0.6600000262260437
        },
        "BIDHHBJEKHM": {
          "201": {
            "CBIMEHHAGOA": {
              "KEFGIOIFNEO": 12.5,
              "HMOAPLCPFOB": 20.0,
              "ALHLDKBBFON": 0.0,
              "JPDHFLJJOPA": 0.0,
              "LHDCEKHMLPD": 13.0,
              "BCLEGFPPNIG": 15.0,
              "PMHKNMGNLFB": 13.0,
              "CDGJBKJIKLO": 15.0,
              "CBNDNHHJOBI": 3.5,
              "HDEOOHOCEOM": 7.5,
              "CFGMPOGHAIB": 3.5,
              "KHMENPJNMME": 7.5
            },
            "GEAICNICJAJ": 2.0,
            "FAPJEBILPIF": 5.0,
            "JIFJFPJANHO": 3.0,
            "CBKHBGCPFBG": 1.0,
            "JOCOJHEICNA": "",
            "DBIELIMGBMC": "",
            "FMKOEOHJBCG": 0.75,
            "PFPIFDOHGPO": 3.0,
            "POKDCEGEACA": 3.0,
            "FCAIKJKJBCE": 3.0,
            "EKDHNAGGGAE": 50.0
          },
          "203": {
            "CBIMEHHAGOA": {
              "KEFGIOIFNEO": 12.5,
              "HMOAPLCPFOB": 20.0,
              "ALHLDKBBFON": 0.0,
              "JPDHFLJJOPA": 0.0,
              "LHDCEKHMLPD": 13.0,
              "BCLEGFPPNIG": 15.0,
              "PMHKNMGNLFB": 13.0,
              "CDGJBKJIKLO": 15.0,
              "CBNDNHHJOBI": 3.5,
              "HDEOOHOCEOM": 7.5,
              "CFGMPOGHAIB": 3.5,
              "KHMENPJNMME": 7.5
            },
            "GEAICNICJAJ": 2.0,
            "FAPJEBILPIF": 5.0,
            "JIFJFPJANHO": 3.0,
            "CBKHBGCPFBG": 1.0,
            "JOCOJHEICNA": "",
            "DBIELIMGBMC": "Temp2",
            "FMKOEOHJBCG": 0.75,
            "PFPIFDOHGPO": 3.0,
            "POKDCEGEACA": 3.0,
            "FCAIKJKJBCE": 3.0,
            "EKDHNAGGGAE": 50.0
          }
        }
      }
    ]
  },
  "inputKeys": [
    {
      "keyID": 101,
      "inputKeyCode": 257,
      "abilityName": ""
    },
    {
      "keyID": 102,
      "inputKeyCode": 258,
      "abilityName": ""
    },
    {
      "keyID": 103,
      "inputKeyCode": 259,
      "abilityName": ""
    },
    {
      "keyID": 201,
      "inputKeyCode": 260,
      "abilityName": ""
    },
    {
      "keyID": 100,
      "inputKeyCode": 261,
      "abilityName": ""
    },
    {
      "keyID": 104,
      "inputKeyCode": 262,
      "abilityName": ""
    },
    {
      "keyID": 202,
      "inputKeyCode": 263,
      "abilityName": ""
    },
    {
      "keyID": 203,
      "inputKeyCode": 264,
      "abilityName": ""
    },
    {
      "keyID": 105,
      "inputKeyCode": 265,
      "abilityName": ""
    }
  ],
  "move": {
    "$type": "IIGPJJNGCLE",
    "EIEIGIPKLAO": {
      "excludeForces": [
        "RetreatType",
        "RetreatAirType"
      ]
    },
    "EPDJOKGCLPD": true,
    "MIPACKKJPPI": false,
    "GNNEDIACIKG": [
      {
        "MEENFDAGFIO": 5.0,
        "raycastType": "DownToGroundOnlyInWater",
        "ANCIIKCNIJI": ""
      }
    ],
    "LBMLCBFLOII": true,
    "KCPLNKCIOCI": "None",
    "EKMHGNLHCNM": 0.75,
    "OMMMNBNJHAI": true,
    "FACNOEFNHIB": "RootNode",
    "NEPOBLEPLEG": 30.0,
    "CFDFNCLFFOG": true
  },
  "audio": {
    "KEEAIACIJBN": "",
    "animAudio": {
      "onTransitionIn": [
        {
          "currentStateName": "",
          "audioEvent": {
            "text": ""
          }
        }
      ],
      "onTransitionOut": [
        {
          "currentStateName": "",
          "audioEvent": {
            "text": ""
          }
        }
      ]
    }
  }
}