{
  "MDJNFHAJPAD": {
    "FAIKDMCHPEL": {
      "$type": "DPGKNHENGLM",
      "DDDEJPIFECG": "EffectMesh"
    },
    "FINMNFLLAMB": 20.0,
    "NEBDNCNFDJC": 0.800000011920929,
    "MBMBBGOGNHF": true,
    "DIEPJBNIPBG": true,
    "CKECEGGMJOP": false,
    "JBIPDEEPIMN": true,
    "GJKLEPPOKDJ": true,
    "LOGFKHMLOOL": true
  },
  "PJEANIPCFFN": {
    "CKAIGCFDCMG": "",
    "KHGAHHAIJFJ": "",
    "DFFKHFKJKEK": false
  },
  "GKIMHOOMGHB": {
    "DHBJGHDCMAA": {
      "LDAHGACLHII": "Monster_Minion",
      "LJGADHKDLLB": 30.0,
      "ACOAHCMABGF": true
    },
    "BPKIJDAHLGB": {
      "LKMLEJGEHAP": "",
      "LHMKDLOKKJG": true
    },
    "INCPHOFGIJA": {
      "FGJIHAKMLBG": "CircleLockEnemy",
      "JPIFIDOPOND": true,
      "BGMEKAEIOGA": "Default"
    },
    "JCCJMILDEAM": {
      "GKFDFDFJJFB": 0.009999999776482582,
      "FNIJBPMPCHA": 10.0,
      "BCHFMGGBEFN": "Eff_Animal_Common_Die"
    }
  },
  "GGIOJAMBNPO": {
    "defaultLayer": {
      "$type": "EPAPJJAGHKG",
      "ACOCIAFGIAD": "",
      "LFGKIDDJIED": {
        "Born": {
          "$type": "IJOIMFMEGMM",
          "DLOHGBDFFGB": {
            "Born": []
          },
          "DLAOMOCMANL": [
            "DoSkill"
          ]
        },
        "NormalIdle": {
          "$type": "IJOIMFMEGMM",
          "DLOHGBDFFGB": {
            "Standby": []
          },
          "PGKCBIHGAOC": true,
          "DLAOMOCMANL": [
            "DoSkill"
          ]
        },
        "NormalMove": {
          "$type": "IJOIMFMEGMM",
          "DLOHGBDFFGB": {
            "Walk": [
              "Animal_Fishable_Maritime_Walk"
            ],
            "Run": [
              "Animal_Fishable_Maritime_Run"
            ],
            "PoseAdjust": []
          },
          "PGKCBIHGAOC": true,
          "DLAOMOCMANL": [
            "DoSkill"
          ],
          "LIPMJPLGIKD": true
        },
        "Turn": {
          "$type": "IJOIMFMEGMM",
          "DLOHGBDFFGB": {
            "Turn_Walk": [
              "Animal_Fishable_Maritime_Walk"
            ],
            "Turn_Run": [
              "Animal_Fishable_Maritime_Turn_Run"
            ]
          },
          "PGKCBIHGAOC": true,
          "DLAOMOCMANL": [
            "DoSkill"
          ],
          "LIPMJPLGIKD": true
        },
        "BeHit": {
          "$type": "IJOIMFMEGMM",
          "DLOHGBDFFGB": {
            "Hit_L": []
          },
          "AJBLILDCLBO": [
            "BeHit"
          ],
          "DLAOMOCMANL": [
            "DoSkill"
          ]
        },
        "Die": {
          "$type": "IJOIMFMEGMM",
          "DLOHGBDFFGB": {
            "Die": [
              "Animal_Fish_Die"
            ]
          }
        }
      }
    }
  },
  "IONIFBIBFNL": {
    "Default": {},
    "InFishTank": {
      "JAAABLNBKAP": 201,
      "PIEEIAOKMJB": {
        "GKGFCNLPILF": {
          "InFishTank": "true"
        }
      }
    }
  },
  "PDCDMABCPOA": {
    "ENLKMOKHELD": true,
    "BBIKFBPEPKO": 1,
    "LFINILDKIOL": "Animal_Homeworld",
    "KGDGKFHPJPO": {
      "KEBHJNMBPBJ": "Water",
      "NAHAOOOGKLG": false,
      "NLGDNEMIKPE": "Undead01",
      "IGNNLKPCNOI": 0.800000011920929
    },
    "OCBDDDCJANP": {
      "IJOBKDKBEME": {
        "DefaultSetting": {
          "FNIFPAHGINJ": false,
          "BHOECAJIBOM": 6.5
        },
        "InFishTank": {
          "FNIFPAHGINJ": false,
          "IINDLMAAMGD": 7.5,
          "BHOECAJIBOM": 0.0
        }
      },
      "PKFGMCHOEBN": {
        "DefaultTemplate": {
          "DefaultPoses": "DefaultSetting",
          "201": "InFishTank"
        }
      }
    },
    "OFEGONBLOGP": {
      "DefaultSetting": [
        "HIT"
      ]
    },
    "EJOLGMGAECP": {
      "OFANIFGIFLN": 10.0,
      "BKDOBJKGIGO": true,
      "HJODDLMLPBJ": 0.800000011920929,
      "BAOEBJPPKMK": 1.0,
      "KICEOILEEPP": 75.0,
      "JEAMBMPMOAC": 1000.0,
      "KNNHACDCGCF": 5.0,
      "JGFOPCOIJOI": ""
    },
    "PMNPDDIOHHJ": {
      "OKMHHFALCCH": 10.0
    },
    "HEOOEKIGDAL": {
      "GMFIDKOEKHA": false,
      "FLMOHOODJBA": ""
    },
    "JLKBBPGPEAA": {
      "FMFBMENJLJF": "MinorAnimal",
      "GLOANBBAOOD": 3
    },
    "EEKEAKJCMJO": [
      {
        "$type": "GIMIMAJNOPH",
        "ENLKMOKHELD": true,
        "GMMKOLNMFJL": [
          "HIT"
        ],
        "LMMKNFEMOMG": {
          "GEAICNICJAJ": 2.0,
          "PAHIDIJLGPF": 1.0,
          "OHLJIHFFMLB": 1.0,
          "IFCLJHAJFHD": 360.0,
          "GGIBBPIGEJF": 4,
          "PKFMEOPIHEO": 5,
          "NBBIJDCLJOF": 0.5,
          "MHMMABHJIIA": 2.0,
          "LNPHGOECMMJ": true,
          "JOCOJHEICNA": ""
        },
        "BIDHHBJEKHM": {
          "201": {
            "GEAICNICJAJ": 1.399999976158142,
            "PAHIDIJLGPF": 0.4000000059604645,
            "OHLJIHFFMLB": 200.0,
            "IFCLJHAJFHD": 360.0,
            "GGIBBPIGEJF": 7,
            "PKFMEOPIHEO": 8,
            "NBBIJDCLJOF": 0.15000000596046448,
            "MHMMABHJIIA": 0.20999999344348907,
            "LNPHGOECMMJ": true,
            "NJBFJIGGNBM": 3.5,
            "JOCOJHEICNA": ""
          }
        }
      },
      {
        "$type": "JDOAHPMOGLF",
        "ENLKMOKHELD": true,
        "FJANPNOAAFK": {
          "CEKMINILIFB": [
            201
          ]
        },
        "LMMKNFEMOMG": {
          "FEMFBCLBKCP": -55.0,
          "LHPELAMMIFB": 55.0,
          "GEAICNICJAJ": 0.4000000059604645
        }
      },
      {
        "$type": "KMHBGMELMKD"
      },
      {
        "$type": "GGKADEIBMLG",
        "ENLKMOKHELD": true,
        "FDIIDHNBFFE": [
          0,
          1,
          2
        ],
        "LMMKNFEMOMG": {
          "GEAICNICJAJ": 0.5,
          "EKDHNAGGGAE": 20.0,
          "BFEJAKFKKFP": 3.200000047683716,
          "KOAMKCEFJED": 6.400000095367432,
          "JOCOJHEICNA": ""
        },
        "BIDHHBJEKHM": {
          "201": {
            "GEAICNICJAJ": 0.4000000059604645,
            "JIFJFPJANHO": 8.5,
            "CBKHBGCPFBG": 4.0,
            "EKDHNAGGGAE": 5.0,
            "BFEJAKFKKFP": 0.36000001430511475,
            "KOAMKCEFJED": 2.0,
            "JOCOJHEICNA": ""
          }
        }
      }
    ]
  },
  "ADIGBDHBCDP": {
    "$type": "IIGPJJNGCLE",
    "AGJAKLGIBAB": false,
    "MLKCNHIIMCE": true,
    "AFOGPFALECN": 0.5,
    "FACNOEFNHIB": "RootNode"
  },
  "KDLODKFKHPB": {
    "HKPPCCONOFN": false,
    "PIMGAEBNCBJ": false,
    "JFBHPOLAAEJ": false
  }
}