{
  "MDJNFHAJPAD": {
    "FAIKDMCHPEL": {
      "$type": "DPGKNHENGLM",
      "DDDEJPIFECG": "EffectMesh"
    },
    "FINMNFLLAMB": 30.0,
    "NEBDNCNFDJC": 1.7000000476837158,
    "INNNMDJACOJ": 1.7000000476837158,
    "MECICKNEPGG": 1.100000023841858,
    "MBMBBGOGNHF": true,
    "DIEPJBNIPBG": true,
    "FNLMEPDMMMD": 1.100000023841858,
    "GJDONABEMOA": true,
    "JBIPDEEPIMN": true,
    "GJKLEPPOKDJ": true,
    "LOGFKHMLOOL": true
  },
  "LBGLCHLIKJP": {
    "$type": "NJIKCGBDNDF",
    "HONCKGMDJEK": true,
    "IKIJCPNMBHI": 60.0,
    "FMKKBCJKMPH": 30.0,
    "FDPCOFKGCHG": [
      "NormalIdle/Standby",
      "NormalMove/WalkForward",
      "NormalMove/WalkBack",
      "NormalMove/WalkRight",
      "NormalMove/WalkLeft",
      "NormalMove/Run",
      "Turn/TurnLeft",
      "Turn/TurnRight"
    ]
  },
  "PJEANIPCFFN": {
    "CKAIGCFDCMG": "Eff_Monster_Common_Born",
    "KHGAHHAIJFJ": ""
  },
  "MEMHBNEJBCL": {
    "PJBCJPKPOLB": 1.0
  },
  "GKIMHOOMGHB": {
    "DHBJGHDCMAA": {
      "LDAHGACLHII": "Monster_Minion",
      "LJGADHKDLLB": 70.0
    },
    "BPKIJDAHLGB": {
      "LKMLEJGEHAP": ""
    },
    "INCPHOFGIJA": {
      "FGJIHAKMLBG": "CircleLockEnemy",
      "BGMEKAEIOGA": "Avatar&Monster_Lv4"
    },
    "JCCJMILDEAM": {
      "ODGDMCPOMAJ": true,
      "GKFDFDFJJFB": 2.0,
      "FNIJBPMPCHA": 8.0,
      "BCHFMGGBEFN": "Eff_Death_Sand_Eremite",
      "GDFMLKACHDB": "EremiteSandDie",
      "JHKKJIOFEDD": 1.0,
      "AHGCGJLAMJJ": true,
      "JBNFBACPJGN": 8.0,
      "LEDBOLGDENF": true,
      "IEAKKMEDNDE": true,
      "AAEANOPIAAL": true,
      "IBBHGBHIHCI": true,
      "BKIBMIAJOHP": true,
      "MOFPBPPGPCL": true
    }
  },
  "EOGPAIHDBFM": {
    "EMHOEGGEKMH": "",
    "JLFHFMOAFHP": {
      "equip01": "WeaponR",
      "equip02": "WeaponL"
    }
  },
  "IGPKOOHPBFG": [
    {
      "FPLENFAEDIB": "",
      "KAJGDIHNKNE": "Eremite_TurnState_AnimatorSteer",
      "BIAMBCDKJKP": ""
    },
    {
      "FPLENFAEDIB": "",
      "KAJGDIHNKNE": "Eremite_Crossbow_AnimatorSteer",
      "BIAMBCDKJKP": ""
    },
    {
      "FPLENFAEDIB": "",
      "KAJGDIHNKNE": "Eremite_ReturnToBorn",
      "BIAMBCDKJKP": ""
    },
    {
      "FPLENFAEDIB": "",
      "KAJGDIHNKNE": "Eremite_Equip_Display_Manager",
      "BIAMBCDKJKP": ""
    },
    {
      "FPLENFAEDIB": "",
      "KAJGDIHNKNE": "Eremite_Equip_SheathWeapon",
      "BIAMBCDKJKP": ""
    },
    {
      "FPLENFAEDIB": "",
      "KAJGDIHNKNE": "Eremite_Crossbow_ProjectileShoot_Load",
      "BIAMBCDKJKP": ""
    },
    {
      "FPLENFAEDIB": "",
      "KAJGDIHNKNE": "Eremite_Crossbow_SingleShoot_Fire",
      "BIAMBCDKJKP": ""
    },
    {
      "FPLENFAEDIB": "",
      "KAJGDIHNKNE": "Eremite_Crossbow_RapidShoot_Fire",
      "BIAMBCDKJKP": ""
    },
    {
      "FPLENFAEDIB": "",
      "KAJGDIHNKNE": "Eremite_Crossbow_Fire_Dendro_Bomb",
      "BIAMBCDKJKP": ""
    },
    {
      "FPLENFAEDIB": "",
      "KAJGDIHNKNE": "Eremite_Crossbow_Fire_Dendro_Bomb_Hov",
      "BIAMBCDKJKP": ""
    },
    {
      "FPLENFAEDIB": "",
      "KAJGDIHNKNE": "Eremite_Universal_Alert",
      "BIAMBCDKJKP": ""
    },
    {
      "FPLENFAEDIB": "",
      "KAJGDIHNKNE": "Eremite_Gambling_Logic",
      "BIAMBCDKJKP": ""
    },
    {
      "FPLENFAEDIB": "",
      "KAJGDIHNKNE": "Eremite_FreePose_Display_Manager",
      "BIAMBCDKJKP": ""
    },
    {
      "FPLENFAEDIB": "",
      "KAJGDIHNKNE": "Eremite_FreePose_Male_Drinking_Display_Manager",
      "BIAMBCDKJKP": ""
    }
  ],
  "GGIOJAMBNPO": {
    "defaultLayer": {
      "$type": "EPAPJJAGHKG",
      "ACOCIAFGIAD": "",
      "LFGKIDDJIED": {
        "NormalIdle": {
          "$type": "IJOIMFMEGMM",
          "DLOHGBDFFGB": {
            "Standby": []
          },
          "POLKCLOHPOO": true,
          "PGKCBIHGAOC": true,
          "DLAOMOCMANL": [
            "DoSkill"
          ]
        },
        "NormalBorn": {
          "$type": "IJOIMFMEGMM",
          "DLOHGBDFFGB": {
            "Born": []
          },
          "POLKCLOHPOO": true,
          "DLAOMOCMANL": [
            "DoSkill"
          ]
        },
        "NormalMove": {
          "$type": "IJOIMFMEGMM",
          "DLOHGBDFFGB": {
            "WalkForward": [
              "Audio_Monste_Eremite_Male_Standard_Crossbow_01_walk"
            ],
            "WalkBack": [
              "Audio_Monste_Eremite_Male_Standard_Crossbow_01_walk"
            ],
            "WalkRight": [
              "Audio_Monste_Eremite_Male_Standard_Crossbow_01_walk"
            ],
            "WalkLeft": [
              "Audio_Monste_Eremite_Male_Standard_Crossbow_01_walk"
            ],
            "Run": [
              "Audio_Monste_Eremite_Male_Standard_Crossbow_01_run"
            ]
          },
          "POLKCLOHPOO": true,
          "PGKCBIHGAOC": true,
          "DLAOMOCMANL": [
            "DoSkill"
          ],
          "LIPMJPLGIKD": true
        },
        "Turn": {
          "$type": "IJOIMFMEGMM",
          "DLOHGBDFFGB": {
            "TurnLeft": [
              "Audio_Monste_Eremite_Male_Standard_Crossbow_01_walk"
            ],
            "TurnRight": [
              "Audio_Monste_Eremite_Male_Standard_Crossbow_01_walk"
            ]
          },
          "POLKCLOHPOO": true,
          "PGKCBIHGAOC": true,
          "DLAOMOCMANL": [
            "DoSkill"
          ],
          "LIPMJPLGIKD": true
        },
        "BeHit": {
          "$type": "IJOIMFMEGMM",
          "DLOHGBDFFGB": {
            "Hit_L": [],
            "Hit_H": [
              "Audio_Monste_Eremite_Male_Standard_Crossbow_01_hit_H"
            ]
          },
          "AJBLILDCLBO": [
            "BeHit"
          ],
          "DLAOMOCMANL": [
            "DoSkill"
          ]
        },
        "BeHitThrow": {
          "$type": "IJOIMFMEGMM",
          "DLOHGBDFFGB": {
            "HitThrow": [],
            "HitThrowDrop": []
          },
          "AJBLILDCLBO": [
            "BeHit",
            "HitAir2HitDrop"
          ],
          "DLAOMOCMANL": [
            "DoSkill",
            "BeHit"
          ],
          "PBAOEAEEBNB": [
            {
              "NOKKDDHKGAK": "AirDie"
            }
          ]
        },
        "BeHitThrowToStandby": {
          "$type": "IJOIMFMEGMM",
          "DLOHGBDFFGB": {
            "HitThrowToGround": [
              "Audio_Monste_Eremite_Male_Standard_Crossbow_01_hitthrowtoground"
            ]
          },
          "AJBLILDCLBO": [
            "BeHit",
            "HitAir2HitDrop"
          ],
          "DLAOMOCMANL": [
            "DoSkill",
            "BeHit"
          ],
          "PBAOEAEEBNB": [
            {
              "NOKKDDHKGAK": "AirDie",
              "CFLNLPKCDAB": 0.5
            }
          ]
        },
        "Struggle": {
          "$type": "IJOIMFMEGMM",
          "DLOHGBDFFGB": {
            "Struggle": []
          },
          "AJBLILDCLBO": [
            "BeHit",
            "HitAir2HitDrop"
          ],
          "DLAOMOCMANL": [
            "DoSkill"
          ]
        },
        "Die": {
          "$type": "IJOIMFMEGMM",
          "DLOHGBDFFGB": {
            "Die1": [
              "Monster_Eremite_Crossbow_Die",
              "Audio_Monste_Eremite_Male_Standard_Crossbow_01_die"
            ],
            "Die2": [
              "Monster_Eremite_Crossbow_Die",
              "Audio_Monste_Eremite_Male_Standard_Crossbow_01_die"
            ],
            "SwimDie_BS": [],
            "SwimDie": [
              "Monster_Eremite_SwimDie"
            ],
            "SwimDie_AS": []
          }
        },
        "Die_RagDoll": {
          "$type": "IJOIMFMEGMM",
          "DLOHGBDFFGB": {
            "AirDie": [
              "Monster_Eremite_AirDie"
            ]
          },
          "CPOLOGIELCD": true
        },
        "Alert": {
          "$type": "IJOIMFMEGMM",
          "DLOHGBDFFGB": {
            "Alert": [
              "Monster_Eremite_Crossbow_ShowWeapon",
              "Monster_Eremite_Clear_FreePoseMark",
              "Audio_Monste_Eremite_Male_Standard_Crossbow_01_rapidshoot_alert"
            ]
          },
          "OGNDLAMHMPB": 0.0,
          "DLAOMOCMANL": [
            "BeHit",
            "DoSkill"
          ]
        },
        "Crossleg_Alert": {
          "$type": "IJOIMFMEGMM",
          "DLOHGBDFFGB": {
            "CrosslegAlert": [
              "Monster_Eremite_Crossbow_ShowWeapon_SpecialAlert",
              "Monster_Eremite_Clear_FreePoseMark",
              "Audio_Monste_Eremite_Male_Standard_Crossbow_01_crosslegalert"
            ]
          },
          "OGNDLAMHMPB": 0.0,
          "DLAOMOCMANL": [
            "BeHit",
            "DoSkill"
          ]
        },
        "SheathWeapon": {
          "$type": "IJOIMFMEGMM",
          "DLOHGBDFFGB": {
            "SheathWeapon": [
              "Monster_Eremite_Crossbow_SheathWeapon",
              "Audio_Monste_Eremite_Male_Standard_Crossbow_01_sheathweapon"
            ]
          },
          "DLAOMOCMANL": [
            "BeHit",
            "DoSkill"
          ]
        },
        "SingleShoot_Aim": {
          "$type": "IJOIMFMEGMM",
          "DLOHGBDFFGB": {
            "SingleShoot_Aim": [
              "Audio_Monste_Eremite_Male_Standard_Crossbow_01_rapidshoot_aim01"
            ]
          },
          "DLAOMOCMANL": [
            "BeHit",
            "DoSkill"
          ]
        },
        "SingleShoot_Fire": {
          "$type": "IJOIMFMEGMM",
          "DLOHGBDFFGB": {
            "SingleShoot_Fire": [
              "Monster_Eremite_Crossbow_SingleShoot_Fire",
              "Audio_Monste_Eremite_Male_Standard_Crossbow_01_projectshoot_fire01"
            ]
          },
          "DLAOMOCMANL": [
            "BeHit",
            "DoSkill"
          ]
        },
        "SingleShoot_Exit": {
          "$type": "IJOIMFMEGMM",
          "DLOHGBDFFGB": {
            "SingleShoot_Exit": [
              "Audio_Monste_Eremite_Male_Standard_Crossbow_01_projectshoot_fire01"
            ]
          },
          "DLAOMOCMANL": [
            "BeHit",
            "DoSkill"
          ]
        },
        "FastShoot_BS": {
          "$type": "IJOIMFMEGMM",
          "DLOHGBDFFGB": {
            "FastShoot_BS": [
              "Audio_Monste_Eremite_Male_Standard_Crossbow_01_rapidshoot_aim01"
            ]
          },
          "DLAOMOCMANL": [
            "BeHit",
            "DoSkill"
          ]
        },
        "FastShoot": {
          "$type": "IJOIMFMEGMM",
          "DLOHGBDFFGB": {
            "FastShoot": [
              "Monster_Eremite_Crossbow_SingleShoot_Fire",
              "Audio_Monste_Eremite_Male_Standard_Crossbow_01_projectshoot_fire01"
            ]
          },
          "DLAOMOCMANL": [
            "BeHit",
            "DoSkill"
          ]
        },
        "RapidShoot_BS": {
          "$type": "IJOIMFMEGMM",
          "DLOHGBDFFGB": {
            "RapidShoot_BS": [
              "Audio_Monste_Eremite_Male_Standard_Crossbow_01_Rapidshoot_BS"
            ]
          },
          "DLAOMOCMANL": [
            "BeHit",
            "DoSkill",
            "RapidShootEndTrigger"
          ]
        },
        "RapidShoot_Loop": {
          "$type": "IJOIMFMEGMM",
          "DLOHGBDFFGB": {
            "RapidShoot_Aim": [
              "Audio_Monste_Eremite_Male_Standard_Crossbow_01_rapidshoot_aim01"
            ],
            "RapidShoot_Fire": [
              "Monster_Eremite_Crossbow_RapidShoot_Fire",
              "Audio_Monste_Eremite_Male_Standard_Crossbow_01_rapidshoot_fire"
            ]
          },
          "DLAOMOCMANL": [
            "BeHit",
            "DoSkill"
          ]
        },
        "RapidShoot_AS": {
          "$type": "IJOIMFMEGMM",
          "DLOHGBDFFGB": {
            "RapidShoot_AS": [
              "Audio_Monste_Eremite_Male_Standard_Crossbow_01_rapidshoot_AS"
            ]
          },
          "DLAOMOCMANL": [
            "BeHit",
            "DoSkill",
            "RapidShootEndTrigger"
          ]
        },
        "RapidShoot_AS_Loaded": {
          "$type": "IJOIMFMEGMM",
          "DLOHGBDFFGB": {
            "RapidShoot_AS_Loaded": []
          },
          "DLAOMOCMANL": [
            "BeHit",
            "DoSkill",
            "RapidShootEndTrigger"
          ]
        },
        "ProjectileShoot_Load": {
          "$type": "IJOIMFMEGMM",
          "DLOHGBDFFGB": {
            "ProjectileShoot_Load": [
              "Monster_Eremite_Crossbow_ProjectileShoot_Load",
              "Audio_Monste_Eremite_Male_Standard_Crossbow_01_rapidshoot_AS_loaded"
            ]
          },
          "DLAOMOCMANL": [
            "BeHit",
            "DoSkill"
          ]
        },
        "ProjectileShoot_Aim01": {
          "$type": "IJOIMFMEGMM",
          "DLOHGBDFFGB": {
            "ProjectileShoot_Aim01": [
              "Audio_Monste_Eremite_Male_Standard_Crossbow_01_rapidshoot_aim01"
            ]
          },
          "DLAOMOCMANL": [
            "BeHit",
            "DoSkill"
          ]
        },
        "ProjectileShoot_Aim02": {
          "$type": "IJOIMFMEGMM",
          "DLOHGBDFFGB": {
            "ProjectileShoot_Aim02": [
              "Audio_Monste_Eremite_Male_Standard_Crossbow_01_rapidshoot_aim02"
            ]
          },
          "DLAOMOCMANL": [
            "BeHit",
            "DoSkill"
          ]
        },
        "ProjectileShoot_Fire01": {
          "$type": "IJOIMFMEGMM",
          "DLOHGBDFFGB": {
            "ProjectileShoot_Fire01": [
              "Monster_Eremite_Crossbow_ProjectileShoot_Fire_Hov",
              "Audio_Monste_Eremite_Male_Standard_Crossbow_01_projectshoot_fire01"
            ]
          },
          "DLAOMOCMANL": [
            "BeHit",
            "DoSkill",
            "ProjectileTrigger"
          ]
        },
        "ProjectileShoot_Fire02": {
          "$type": "IJOIMFMEGMM",
          "DLOHGBDFFGB": {
            "ProjectileShoot_Fire02": [
              "Monster_Eremite_Crossbow_ProjectileShoot_Fire",
              "Audio_Monste_Eremite_Male_Standard_Crossbow_01_projectshoot_fire02"
            ]
          },
          "DLAOMOCMANL": [
            "BeHit",
            "DoSkill",
            "ProjectileTrigger"
          ]
        },
        "FreePose_HoldArm_Idle": {
          "$type": "IJOIMFMEGMM",
          "DLOHGBDFFGB": {
            "HoldArm_Idle": []
          },
          "POLKCLOHPOO": true,
          "DLAOMOCMANL": [
            "BeHit",
            "DoSkill"
          ]
        },
        "FreePose_Downcast_Idle": {
          "$type": "IJOIMFMEGMM",
          "DLOHGBDFFGB": {
            "Downcast_Idle": []
          },
          "POLKCLOHPOO": true,
          "DLAOMOCMANL": [
            "BeHit",
            "DoSkill"
          ]
        },
        "FreePose_LeanOnWall_Idle": {
          "$type": "IJOIMFMEGMM",
          "DLOHGBDFFGB": {
            "LeanOnWall_Idle": []
          },
          "POLKCLOHPOO": true,
          "DLAOMOCMANL": [
            "BeHit",
            "DoSkill"
          ]
        },
        "FreePose_Arrange_Idle": {
          "$type": "IJOIMFMEGMM",
          "DLOHGBDFFGB": {
            "Arrange_Idle": []
          },
          "POLKCLOHPOO": true,
          "DLAOMOCMANL": [
            "BeHit",
            "DoSkill"
          ]
        },
        "FreePose_Investigate_Idle": {
          "$type": "IJOIMFMEGMM",
          "DLOHGBDFFGB": {
            "Investigate_Idle": []
          },
          "POLKCLOHPOO": true,
          "DLAOMOCMANL": [
            "BeHit",
            "DoSkill"
          ]
        },
        "FreePose_StandingTalk_Idle": {
          "$type": "IJOIMFMEGMM",
          "DLOHGBDFFGB": {
            "StandingTalk_Idle": []
          },
          "POLKCLOHPOO": true,
          "DLAOMOCMANL": [
            "BeHit",
            "DoSkill"
          ]
        },
        "FreePose_StandingTalk_Skill": {
          "$type": "IJOIMFMEGMM",
          "DLOHGBDFFGB": {
            "StandingTalk01_Skill": [],
            "StandingTalk02_Skill": [],
            "StandingTalk03_Skill": []
          },
          "POLKCLOHPOO": true,
          "DLAOMOCMANL": [
            "BeHit",
            "DoSkill"
          ]
        },
        "FreePose_Crossleg_Idle": {
          "$type": "IJOIMFMEGMM",
          "DLOHGBDFFGB": {
            "Crossleg_Idle": []
          },
          "POLKCLOHPOO": true,
          "DLAOMOCMANL": [
            "BeHit",
            "DoSkill"
          ]
        },
        "FreePose_Crossleg_Chat_Skill": {
          "$type": "IJOIMFMEGMM",
          "DLOHGBDFFGB": {
            "Crossleg_Chat01_Skill": [
              "Audio_Monste_Eremite_Male_Standard_Crossbow_01_chat01"
            ],
            "Crossleg_Chat02_Skill": [
              "Audio_Monste_Eremite_Male_Standard_Crossbow_01_chat02"
            ]
          },
          "POLKCLOHPOO": true,
          "DLAOMOCMANL": [
            "BeHit",
            "DoSkill"
          ]
        },
        "FreePose_Crossleg_Drink_Skill": {
          "$type": "IJOIMFMEGMM",
          "DLOHGBDFFGB": {
            "Crossleg_Drink_Skill_01": [
              "Audio_Monste_Eremite_Male_Standard_Crossbow_01_drink"
            ],
            "Crossleg_Drink_Skill_02": [],
            "Crossleg_Drink_Skill_03": [
              "Monster_Eremite_Drinking_WaterDrop"
            ],
            "Crossleg_Drink_Skill_04": [],
            "Crossleg_Drink_Skill_05": []
          },
          "POLKCLOHPOO": true,
          "DLAOMOCMANL": [
            "BeHit",
            "DoSkill"
          ]
        },
        "FreePose_Crossleg_Sleeping_Skill": {
          "$type": "IJOIMFMEGMM",
          "DLOHGBDFFGB": {
            "Crossleg_Sleeping_Skill": []
          },
          "POLKCLOHPOO": true,
          "DLAOMOCMANL": [
            "BeHit",
            "DoSkill"
          ]
        },
        "FreePose_Crossleg_Gambling_Bet_Skill": {
          "$type": "IJOIMFMEGMM",
          "DLOHGBDFFGB": {
            "Crossleg_Gambling_Bet_Skill": [
              "Audio_Monste_Eremite_Male_Standard_Crossbow_Gamebling_bet"
            ]
          },
          "POLKCLOHPOO": true,
          "DLAOMOCMANL": [
            "BeHit",
            "DoSkill"
          ]
        },
        "FreePose_Crossleg_Gambling_Roll": {
          "$type": "IJOIMFMEGMM",
          "DLOHGBDFFGB": {
            "Crossleg_Gambling_Roll": [
              "Monster_Eremite_Gambling_GetResult",
              "Audio_Monste_Eremite_Male_Standard_Crossbow_Gamebling_Roll"
            ]
          },
          "POLKCLOHPOO": true,
          "DLAOMOCMANL": [
            "BeHit",
            "DoSkill"
          ]
        },
        "FreePose_Crossleg_Gambling_Lose": {
          "$type": "IJOIMFMEGMM",
          "DLOHGBDFFGB": {
            "Crossleg_Gambling_Lose": [
              "Audio_Monste_Eremite_Male_Standard_Crossbow_01_gambling_lose"
            ]
          },
          "POLKCLOHPOO": true,
          "DLAOMOCMANL": [
            "BeHit",
            "DoSkill"
          ]
        },
        "FreePose_Crossleg_Gambling_Win": {
          "$type": "IJOIMFMEGMM",
          "DLOHGBDFFGB": {
            "Crossleg_Gambling_Win": [
              "Audio_Monste_Eremite_Male_Standard_Crossbow_01_gambling_win"
            ]
          },
          "POLKCLOHPOO": true,
          "DLAOMOCMANL": [
            "BeHit",
            "DoSkill"
          ]
        },
        "FreePose_Crossleg_PlayDaff_Idle": {
          "$type": "IJOIMFMEGMM",
          "DLOHGBDFFGB": {
            "Crossleg_PlayDaff_Idle": []
          },
          "POLKCLOHPOO": true,
          "DLAOMOCMANL": [
            "BeHit",
            "DoSkill"
          ]
        },
        "FreePose_Crossleg_PlayOud_Idle": {
          "$type": "IJOIMFMEGMM",
          "DLOHGBDFFGB": {
            "Crossleg_OudIdle": [],
            "Crossleg_PlayOud_BS": [],
            "Crossleg_PlayOud_Loop": [],
            "Crossleg_PlayOud_AS": []
          },
          "POLKCLOHPOO": true,
          "DLAOMOCMANL": [
            "BeHit",
            "DoSkill"
          ]
        }
      }
    }
  },
  "IEFGNHABHFH": {
    "$type": "PAOBAEKGGBC",
    "JBKMLLFNHAL": "BillboardAttach",
    "NDKBHOOPGNA": {
      "x": -0.05000000074505806
    },
    "EMFFJPOKEKF": "Character",
    "LOMMBJLKPHE": 0.25,
    "KGHAGECNJPO": true
  },
  "IONIFBIBFNL": {
    "Default": {},
    "HoldArm": {
      "JAAABLNBKAP": 9001,
      "PIEEIAOKMJB": {
        "LHMPJOKLEHI": {
          "FreePoseMark": "9001"
        }
      }
    },
    "Downcast": {
      "JAAABLNBKAP": 9002,
      "PIEEIAOKMJB": {
        "LHMPJOKLEHI": {
          "FreePoseMark": "9002"
        }
      }
    },
    "LeanOnWall": {
      "JAAABLNBKAP": 9003,
      "PIEEIAOKMJB": {
        "LHMPJOKLEHI": {
          "FreePoseMark": "9003"
        }
      }
    },
    "Arrange": {
      "JAAABLNBKAP": 9004,
      "PIEEIAOKMJB": {
        "LHMPJOKLEHI": {
          "FreePoseMark": "9004"
        }
      }
    },
    "StandingTalk": {
      "JAAABLNBKAP": 9005,
      "PIEEIAOKMJB": {
        "LHMPJOKLEHI": {
          "FreePoseMark": "9005"
        }
      }
    },
    "Investigate": {
      "JAAABLNBKAP": 9006,
      "PIEEIAOKMJB": {
        "LHMPJOKLEHI": {
          "FreePoseMark": "9006"
        }
      }
    },
    "CrossLeg_Talk_Only": {
      "JAAABLNBKAP": 9501,
      "PIEEIAOKMJB": {
        "LHMPJOKLEHI": {
          "FreePoseMark": "9501"
        }
      }
    },
    "CrossLeg_Universal": {
      "JAAABLNBKAP": 9502,
      "PIEEIAOKMJB": {
        "LHMPJOKLEHI": {
          "FreePoseMark": "9502"
        }
      }
    },
    "CrossLeg_Drink_Only": {
      "JAAABLNBKAP": 9503,
      "PIEEIAOKMJB": {
        "LHMPJOKLEHI": {
          "FreePoseMark": "9503"
        }
      }
    },
    "CrossLeg_Sleeping": {
      "JAAABLNBKAP": 9504,
      "PIEEIAOKMJB": {
        "LHMPJOKLEHI": {
          "FreePoseMark": "9504"
        }
      }
    },
    "CrossLeg_PlayOud": {
      "JAAABLNBKAP": 9505,
      "PIEEIAOKMJB": {
        "LHMPJOKLEHI": {
          "FreePoseMark": "9505"
        }
      }
    },
    "CrossLeg_PlayDaff": {
      "JAAABLNBKAP": 9506,
      "PIEEIAOKMJB": {
        "LHMPJOKLEHI": {
          "FreePoseMark": "9506"
        }
      }
    },
    "CrossLeg_Gambling_Banker": {
      "JAAABLNBKAP": 9511,
      "PIEEIAOKMJB": {
        "LHMPJOKLEHI": {
          "FreePoseMark": "9511"
        }
      }
    },
    "CrossLeg_Gambling_Receiver": {
      "JAAABLNBKAP": 9512,
      "PIEEIAOKMJB": {
        "LHMPJOKLEHI": {
          "FreePoseMark": "9512"
        }
      }
    }
  },
  "PDCDMABCPOA": {
    "ENLKMOKHELD": true,
    "KGDGKFHPJPO": {
      "NLGDNEMIKPE": "Undead01",
      "NNPOPGCMKBH": 1.5
    },
    "HEAKPLEEIJN": {
      "PCNNAFDADJD": true
    },
    "OCBDDDCJANP": {
      "IJOBKDKBEME": {
        "DefaultSetting": {
          "BHOECAJIBOM": 8.0
        },
        "HighAlert": {
          "PHDIIPOBJGA": 40.0,
          "BHOECAJIBOM": 10.0
        },
        "LowAlert": {
          "PHDIIPOBJGA": 15.0,
          "BHOECAJIBOM": 6.0
        },
        "UltraLowSensing": {
          "PHDIIPOBJGA": 10.0,
          "IINDLMAAMGD": 0.0,
          "BHOECAJIBOM": 4.0
        },
        "EarshotFix": {
          "IINDLMAAMGD": 9.0,
          "BHOECAJIBOM": 8.0
        },
        "NeverCombat": {
          "FNIFPAHGINJ": false,
          "IINDLMAAMGD": 0.0,
          "BHOECAJIBOM": 0.0
        }
      },
      "PKFGMCHOEBN": {
        "DefaultTemplate": {
          "DefaultPoses": "DefaultSetting"
        },
        "HighAlert": {
          "DefaultPoses": "HighAlert"
        },
        "LowAlert": {
          "DefaultPoses": "LowAlert"
        },
        "UltraLowSensing": {
          "DefaultPoses": "UltraLowSensing"
        },
        "EarshotFix": {
          "DefaultPoses": "EarshotFix"
        },
        "NeverCombat": {
          "DefaultPoses": "NeverCombat"
        }
      }
    },
    "OFEGONBLOGP": {
      "DefaultSetting": [
        "HIT"
      ],
      "NeverCombat": []
    },
    "EJOLGMGAECP": {
      "DMBNEKAFACI": true,
      "HJODDLMLPBJ": 3.0,
      "KICEOILEEPP": 30.0,
      "JEAMBMPMOAC": 60.0,
      "KDPOCNEHGBJ": 100.0,
      "BJLBMJLOPIP": [
        {
          "LFALGCACJOF": 10.0,
          "IOHOACGNJHO": 2.0
        },
        {
          "LFALGCACJOF": 15.0,
          "IOHOACGNJHO": 0.800000011920929
        },
        {
          "LFALGCACJOF": 20.0,
          "IOHOACGNJHO": 0.5
        },
        {
          "LFALGCACJOF": 25.0,
          "IOHOACGNJHO": 0.30000001192092896
        },
        {
          "LFALGCACJOF": 30.0,
          "IOHOACGNJHO": 0.20000000298023224
        }
      ],
      "JGFOPCOIJOI": ""
    },
    "PMNPDDIOHHJ": {},
    "IEMFHBCDJFP": [
      {
        "BIMBEJCAFLP": 1,
        "DIAPGOFDGLC": 2.5
      }
    ],
    "BNIENJNLAIJ": {
      "101": {
        "NOKKDDHKGAK": "OnAlert",
        "IKMCLKEPDFP": "OnAlert",
        "ENKLFBHHOJI": {
          "CEKMINILIFB": [
            1,
            9001,
            9002,
            9003,
            9004,
            9005,
            9006
          ]
        },
        "NOPNCNPCPJE": "",
        "LLNBBNIEGGO": true,
        "HGAMDGAEIGO": "",
        "LFGKIDDJIED": [
          "Alert"
        ],
        "NNJBOCFBGJG": 3.0,
        "PGPDNPMFFAG": "10",
        "CCEAGFDONFH": "01",
        "OKOFHICILMD": "10",
        "CCFFFOIDOLP": "11"
      },
      "102": {
        "NOKKDDHKGAK": "OnAlert_Combat",
        "MBDAAADDHNL": 1,
        "ENKLFBHHOJI": {
          "CEKMINILIFB": [
            1,
            9001,
            9002,
            9003,
            9004,
            9005,
            9006,
            10
          ]
        },
        "NOPNCNPCPJE": "",
        "LLNBBNIEGGO": true,
        "HGAMDGAEIGO": "",
        "LFGKIDDJIED": [
          "Alert"
        ],
        "NNJBOCFBGJG": 3.0,
        "PGPDNPMFFAG": "11",
        "CCEAGFDONFH": "11",
        "OKOFHICILMD": "11",
        "CCFFFOIDOLP": "11"
      },
      "111": {
        "NOKKDDHKGAK": "OnAlert_Crossleg",
        "IKMCLKEPDFP": "OnAlert",
        "ENKLFBHHOJI": {
          "CEKMINILIFB": [
            9501,
            9502,
            9503,
            9504,
            9505,
            9506,
            9511,
            9512,
            9555
          ]
        },
        "NOPNCNPCPJE": "",
        "LLNBBNIEGGO": true,
        "HGAMDGAEIGO": "",
        "LFGKIDDJIED": [
          "Alert"
        ],
        "NNJBOCFBGJG": 3.0,
        "PGPDNPMFFAG": "10",
        "CCEAGFDONFH": "01",
        "OKOFHICILMD": "10",
        "CCFFFOIDOLP": "11"
      },
      "112": {
        "NOKKDDHKGAK": "OnAlert_Crossleg_Combat",
        "ENKLFBHHOJI": {
          "CEKMINILIFB": [
            9501,
            9502,
            9503,
            9504,
            9505,
            9506,
            9511,
            9512,
            9555
          ]
        },
        "NOPNCNPCPJE": "",
        "LLNBBNIEGGO": true,
        "HGAMDGAEIGO": "",
        "LFGKIDDJIED": [
          "Alert"
        ],
        "NNJBOCFBGJG": 3.0,
        "PGPDNPMFFAG": "11",
        "CCEAGFDONFH": "11",
        "OKOFHICILMD": "11",
        "CCFFFOIDOLP": "11"
      },
      "201": {
        "NOKKDDHKGAK": "SingleShoot",
        "OFLMMKCAHKM": "RangedAttack",
        "ENKLFBHHOJI": {
          "CEKMINILIFB": [
            1001
          ],
          "OLDIEKKCIOG": 4.0,
          "MLFAMHDFHMM": 15.0
        },
        "PAHIDIJLGPF": 6.0,
        "NOPNCNPCPJE": "",
        "HGAMDGAEIGO": "",
        "LFGKIDDJIED": [
          "SingleShoot_Aim",
          "SingleShoot_Fire",
          "SingleShoot_Exit"
        ],
        "PGPDNPMFFAG": "11",
        "CCEAGFDONFH": "11",
        "OKOFHICILMD": "11",
        "CCFFFOIDOLP": "11"
      },
      "202": {
        "NOKKDDHKGAK": "FastShoot",
        "OFLMMKCAHKM": "RangedAttack",
        "ENKLFBHHOJI": {
          "CEKMINILIFB": [
            1001
          ],
          "MLFAMHDFHMM": 4.0
        },
        "PAHIDIJLGPF": 6.0,
        "NOPNCNPCPJE": "",
        "HGAMDGAEIGO": "",
        "LFGKIDDJIED": [
          "FastShoot_BS",
          "FastShoot"
        ],
        "PGPDNPMFFAG": "11",
        "CCEAGFDONFH": "11",
        "OKOFHICILMD": "11",
        "CCFFFOIDOLP": "11"
      },
      "301": {
        "NOKKDDHKGAK": "RapidShoot",
        "OFLMMKCAHKM": "RangedAttack",
        "MBDAAADDHNL": 2,
        "ENKLFBHHOJI": {
          "CEKMINILIFB": [
            1001
          ],
          "OLDIEKKCIOG": 4.0,
          "MLFAMHDFHMM": 14.0
        },
        "PAHIDIJLGPF": 9.0,
        "NOPNCNPCPJE": "",
        "HGAMDGAEIGO": "",
        "LFGKIDDJIED": [
          "RapidShoot_BS",
          "RapidShoot_Loop",
          "RapidShoot_AS",
          "RapidShoot_AS_Loaded"
        ],
        "PGPDNPMFFAG": "11",
        "CCEAGFDONFH": "11",
        "OKOFHICILMD": "11",
        "CCFFFOIDOLP": "11"
      },
      "401": {
        "NOKKDDHKGAK": "ProjectileShoot",
        "OFLMMKCAHKM": "RangedAttack",
        "MBDAAADDHNL": 2,
        "ENKLFBHHOJI": {
          "CEKMINILIFB": [
            1001
          ],
          "OLDIEKKCIOG": 6.0,
          "MLFAMHDFHMM": 20.0
        },
        "PAHIDIJLGPF": 12.0,
        "NOPNCNPCPJE": "",
        "HGAMDGAEIGO": "",
        "LFGKIDDJIED": [
          "ProjectileShoot_Load",
          "ProjectileShoot_Aim01",
          "ProjectileShoot_Aim02",
          "ProjectileShoot_Fire01",
          "ProjectileShoot_Fire02"
        ],
        "PGPDNPMFFAG": "11",
        "CCEAGFDONFH": "11",
        "OKOFHICILMD": "11",
        "CCFFFOIDOLP": "11"
      },
      "90051": {
        "NOKKDDHKGAK": "Chat01",
        "IKMCLKEPDFP": "Free",
        "ENKLFBHHOJI": {
          "CEKMINILIFB": [
            9005
          ]
        },
        "PAHIDIJLGPF": 1.0,
        "GPMLADFJAAH": 4.0,
        "NOPNCNPCPJE": "",
        "LLNBBNIEGGO": true,
        "BIMBEJCAFLP": 1,
        "HGAMDGAEIGO": "",
        "LFGKIDDJIED": [
          "FreePose_StandingTalk_Skill"
        ],
        "PGPDNPMFFAG": "10",
        "CCEAGFDONFH": "01",
        "OKOFHICILMD": "10",
        "CCFFFOIDOLP": "11"
      },
      "90052": {
        "NOKKDDHKGAK": "Chat01",
        "IKMCLKEPDFP": "Free",
        "ENKLFBHHOJI": {
          "CEKMINILIFB": [
            9005
          ]
        },
        "PAHIDIJLGPF": 1.0,
        "GPMLADFJAAH": 4.0,
        "NOPNCNPCPJE": "",
        "LLNBBNIEGGO": true,
        "BIMBEJCAFLP": 1,
        "HGAMDGAEIGO": "",
        "LFGKIDDJIED": [
          "FreePose_StandingTalk_Skill"
        ],
        "PGPDNPMFFAG": "10",
        "CCEAGFDONFH": "01",
        "OKOFHICILMD": "10",
        "CCFFFOIDOLP": "11"
      },
      "90053": {
        "NOKKDDHKGAK": "Chat01",
        "IKMCLKEPDFP": "Free",
        "ENKLFBHHOJI": {
          "CEKMINILIFB": [
            9005
          ]
        },
        "PAHIDIJLGPF": 1.0,
        "GPMLADFJAAH": 4.0,
        "NOPNCNPCPJE": "",
        "LLNBBNIEGGO": true,
        "BIMBEJCAFLP": 1,
        "HGAMDGAEIGO": "",
        "LFGKIDDJIED": [
          "FreePose_StandingTalk_Skill"
        ],
        "PGPDNPMFFAG": "10",
        "CCEAGFDONFH": "01",
        "OKOFHICILMD": "10",
        "CCFFFOIDOLP": "11"
      },
      "95011": {
        "NOKKDDHKGAK": "Chat01",
        "IKMCLKEPDFP": "Free",
        "ENKLFBHHOJI": {
          "CEKMINILIFB": [
            9501,
            9502
          ]
        },
        "PAHIDIJLGPF": 1.0,
        "GPMLADFJAAH": 4.0,
        "NOPNCNPCPJE": "",
        "LLNBBNIEGGO": true,
        "BIMBEJCAFLP": 1,
        "HGAMDGAEIGO": "",
        "LFGKIDDJIED": [
          "FreePose_Crossleg_Chat_Skill"
        ],
        "PGPDNPMFFAG": "10",
        "CCEAGFDONFH": "01",
        "OKOFHICILMD": "10",
        "CCFFFOIDOLP": "11"
      },
      "95012": {
        "NOKKDDHKGAK": "Chat02",
        "IKMCLKEPDFP": "Free",
        "ENKLFBHHOJI": {
          "CEKMINILIFB": [
            9501,
            9502
          ]
        },
        "PAHIDIJLGPF": 1.0,
        "GPMLADFJAAH": 4.0,
        "LKCFDIOMLCM": 12.0,
        "NOPNCNPCPJE": "",
        "LLNBBNIEGGO": true,
        "BIMBEJCAFLP": 1,
        "HGAMDGAEIGO": "",
        "LFGKIDDJIED": [
          "FreePose_Crossleg_Chat_Skill"
        ],
        "PGPDNPMFFAG": "10",
        "CCEAGFDONFH": "01",
        "OKOFHICILMD": "10",
        "CCFFFOIDOLP": "11"
      },
      "95031": {
        "NOKKDDHKGAK": "Drink",
        "IKMCLKEPDFP": "Free",
        "ENKLFBHHOJI": {
          "CEKMINILIFB": [
            9502,
            9503
          ]
        },
        "PAHIDIJLGPF": 12.0,
        "GPMLADFJAAH": 12.0,
        "LKCFDIOMLCM": 6.0,
        "NOPNCNPCPJE": "",
        "HGAMDGAEIGO": "",
        "LFGKIDDJIED": [
          "FreePose_Crossleg_Drink_Skill"
        ],
        "PGPDNPMFFAG": "10",
        "CCEAGFDONFH": "01",
        "OKOFHICILMD": "10",
        "CCFFFOIDOLP": "11"
      },
      "95041": {
        "NOKKDDHKGAK": "Sleeping",
        "IKMCLKEPDFP": "Free",
        "ENKLFBHHOJI": {
          "CEKMINILIFB": [
            9504
          ]
        },
        "PAHIDIJLGPF": 3.5,
        "GPMLADFJAAH": 8.0,
        "LKCFDIOMLCM": 2.0,
        "NOPNCNPCPJE": "",
        "BIMBEJCAFLP": 1,
        "HGAMDGAEIGO": "",
        "LFGKIDDJIED": [
          "FreePose_Crossleg_Sleeping_Skill"
        ],
        "PGPDNPMFFAG": "10",
        "CCEAGFDONFH": "01",
        "OKOFHICILMD": "10",
        "CCFFFOIDOLP": "11"
      },
      "95111": {
        "NOKKDDHKGAK": "Gambling",
        "IKMCLKEPDFP": "Free",
        "ENKLFBHHOJI": {
          "CEKMINILIFB": [
            9511
          ]
        },
        "GPMLADFJAAH": 2.0,
        "LKCFDIOMLCM": 6.0,
        "NOPNCNPCPJE": "",
        "HGAMDGAEIGO": "",
        "LFGKIDDJIED": [
          "FreePose_Crossleg_Gambling_Bet_Skill",
          "FreePose_Crossleg_Gambling_Roll",
          "FreePose_Crossleg_Gambling_Lose",
          "FreePose_Crossleg_Gambling_Win"
        ],
        "PGPDNPMFFAG": "10",
        "CCEAGFDONFH": "01",
        "OKOFHICILMD": "10",
        "CCFFFOIDOLP": "11"
      }
    },
    "EMBHEEALPLD": 3.5,
    "EEKEAKJCMJO": [
      {
        "$type": "DIIPKNMAPAC",
        "ENLKMOKHELD": true,
        "FJANPNOAAFK": {
          "CEKMINILIFB": [
            1001,
            10
          ]
        },
        "LMMKNFEMOMG": {
          "AGCMPDABMIA": 7.0,
          "GDPAONNEBCO": 14.0,
          "MMKHHBIBJEN": {
            "GECJAGFGHKL": 6.0,
            "GEECPOOOMFC": 0.5,
            "NFMBIOFFKGK": 1.5
          },
          "HEGPGPBKGFH": "1111",
          "AFCLIFKCEKM": "1111",
          "JOCOJHEICNA": ""
        }
      },
      {
        "$type": "NCHKIPKMCLC",
        "ENLKMOKHELD": true,
        "FJANPNOAAFK": {
          "CEKMINILIFB": [
            1
          ]
        }
      },
      {
        "$type": "BNAGECKMCIB",
        "ENLKMOKHELD": true,
        "FJANPNOAAFK": {
          "CEKMINILIFB": [
            1001,
            10
          ]
        },
        "LMMKNFEMOMG": {
          "MPEMBMLOEDG": 23.0,
          "IJLGPEJGLEH": 50.0,
          "JKOGPCLFHCP": 15.0,
          "IHCAFCNDANA": 13.0,
          "JOCOJHEICNA": ""
        }
      },
      {
        "$type": "KMHBGMELMKD",
        "ENLKMOKHELD": true,
        "LMMKNFEMOMG": {
          "JOCOJHEICNA": "",
          "DBIELIMGBMC": ""
        }
      },
      {
        "$type": "GGKADEIBMLG",
        "ENLKMOKHELD": true,
        "FJANPNOAAFK": {
          "CEKMINILIFB": [
            1
          ]
        },
        "LMMKNFEMOMG": {
          "JIFJFPJANHO": 3.0,
          "CBKHBGCPFBG": 1.5,
          "EKDHNAGGGAE": 15.0,
          "BFEJAKFKKFP": 3.75,
          "KOAMKCEFJED": 7.5,
          "JOCOJHEICNA": ""
        }
      }
    ]
  },
  "GIBHCHHOJFI": [
    {
      "NPDDCIDNKMH": 201,
      "KCAOBJOPJIC": 257,
      "KAJGDIHNKNE": ""
    },
    {
      "NPDDCIDNKMH": 301,
      "KCAOBJOPJIC": 258,
      "KAJGDIHNKNE": ""
    },
    {
      "NPDDCIDNKMH": 401,
      "KCAOBJOPJIC": 259,
      "KAJGDIHNKNE": ""
    }
  ],
  "ADIGBDHBCDP": {
    "$type": "IIGPJJNGCLE",
    "MIPNOGBEANL": "FourDirection",
    "BEPOPLDKJOP": "StoopType",
    "FACNOEFNHIB": "RootNode"
  },
  "BEGHJJDCLLK": {
    "KEEAIACIJBN": "",
    "JIOEGJGNLEC": {
      "NGKLCAOGKNG": [
        {
          "ILNHPFBOKNK": "Crossleg_PlayDaff_Idle",
          "CDMEEHAPNGE": {
            "KMNBEAJOBPE": "Play_sfx_monster_Eremite_freePose_playDaff_Loop"
          },
          "LFOAJJCBNPI": [
            "Crossleg_PlayDaff_Idle"
          ],
          "JKPDEGAANLH": "Except"
        },
        {
          "ILNHPFBOKNK": "Crossleg_PlayOud_Loop",
          "CDMEEHAPNGE": {
            "KMNBEAJOBPE": "Play_sfx_monster_Eremite_freePose_playDaff_Loop_oud"
          },
          "LFOAJJCBNPI": [
            "Crossleg_PlayOud_Loop"
          ],
          "JKPDEGAANLH": "Except"
        }
      ],
      "MPLMIOAKNGG": [
        {
          "ILNHPFBOKNK": "Crossleg_PlayDaff_Idle",
          "CDMEEHAPNGE": {
            "KMNBEAJOBPE": "Stop_sfx_monster_Eremite_freePose_playDaff_Loop"
          },
          "LFOAJJCBNPI": [
            "Crossleg_PlayDaff_Idle"
          ],
          "JKPDEGAANLH": "Except"
        },
        {
          "ILNHPFBOKNK": "Crossleg_Chat01_Skill",
          "CDMEEHAPNGE": {
            "KMNBEAJOBPE": "Stop_sfx_monster_Human_Male_Standard_CrossBow_crossleg_chat01"
          }
        },
        {
          "ILNHPFBOKNK": "Crossleg_Chat02_Skill",
          "CDMEEHAPNGE": {
            "KMNBEAJOBPE": "Stop_sfx_monster_Human_Male_Standard_CrossBow_crossleg_chat02"
          }
        },
        {
          "ILNHPFBOKNK": "Crossleg_Drink_Skill",
          "CDMEEHAPNGE": {
            "KMNBEAJOBPE": "Stop_sfx_monster_Human_Male_Standard_CrossBow_crossleg_drink"
          }
        },
        {
          "ILNHPFBOKNK": "Crossleg_Gambling_Lose",
          "CDMEEHAPNGE": {
            "KMNBEAJOBPE": "Stop_sfx_monster_Human_Male_Standard_CrossBow_crossleg_gambling_lose"
          }
        },
        {
          "ILNHPFBOKNK": "Crossleg_Gambling_Win",
          "CDMEEHAPNGE": {
            "KMNBEAJOBPE": "Stop_sfx_monster_Human_Male_Standard_CrossBow_crossleg_gambling_win"
          }
        },
        {
          "ILNHPFBOKNK": "Crossleg_Gambling_Bet_Skill",
          "CDMEEHAPNGE": {
            "KMNBEAJOBPE": "Stop_sfx_monster_Human_Male_Standard_CrossBow_gambling_bet"
          }
        },
        {
          "ILNHPFBOKNK": "Crossleg_Gambling_Roll",
          "CDMEEHAPNGE": {
            "KMNBEAJOBPE": "Stop_sfx_monster_Human_Male_Standard_CrossBow_gambling_roll"
          }
        },
        {
          "ILNHPFBOKNK": "Crossleg_PlayOud_Loop",
          "CDMEEHAPNGE": {
            "KMNBEAJOBPE": "Stop_sfx_monster_Eremite_freePose_playDaff_Loop_oud"
          },
          "LFOAJJCBNPI": [
            "Crossleg_PlayOud_Loop"
          ],
          "JKPDEGAANLH": "Except"
        }
      ]
    }
  }
}