{
  "common": {
    "effectAttachShape": {
      "$type": "CMIPFEGOJCH",
      "EJAEFCDBDFB": "EffectMesh"
    },
    "mass": 10000.0,
    "height": 4.0,
    "modelHeight": 4.0,
    "viewSize": 1.5,
    "affectedByWorld": true,
    "checkInSurface": true,
    "scale": 1.2999999523162842,
    "useGrassDisplacement": true,
    "clearAnimatorOnSetLightDeactive": true,
    "clearAIOnSetLightDeactive": true
  },
  "headControl": {
    "$type": "HLGPLMCNIFB",
    "useHeadControl": true,
    "BADCMJGBCHM": 20.0,
    "AIOGIMNHIGK": 5.0,
    "GDIAFJFLHCE": [
      "NormalIdle/Standby",
      "NormalMove/WalkForward",
      "NormalMove/WalkBack",
      "NormalMove/WalkRight",
      "NormalMove/WalkLeft",
      "TurnLeft/TurnLeft",
      "TurnRight/TurnRight"
    ]
  },
  "model": {
    "bornEffect": "",
    "attachEffect": "",
    "canBakeMesh": false
  },
  "dither": {
    "showDitherDuration": 2.0
  },
  "combat": {
    "property": {
      "endureType": "Monster_Boss_Other",
      "weight": 600.0
    },
    "beHit": {
      "hitBloodEffect": ""
    },
    "combatLock": {
      "lockShape": "CircleLockEnemy",
      "lockType": "Avatar&Monster_Lv4"
    },
    "die": {
      "hasAnimatorDie": true,
      "dieEndTime": 4.400000095367432,
      "dieForceDisappearTime": 4.400000095367432,
      "dieDisappearEffect": "Eff_Death_Avatar_Common",
      "dieDisappearEffectDelay": 2.0,
      "dieShaderData": "AvatarDie",
      "ragDollDieEndTimeDelay": 1.0,
      "LDOHFFOEPPI": true,
      "BMOKGIFNILM": true,
      "PHCLLDNDFNG": true,
      "CHBAHMJGJBE": true,
      "OPPHENIKFJA": true,
      "CCNGAIMLPIJ": true
    },
    "animEvents": {
      "MeleeAtk1_1": {
        "attackPattern": {
          "$type": "GGBJACPDDCM",
          "triggerType": "TriggerNoRepeat",
          "GJKNLOPNAMC": true,
          "born": {
            "$type": "KDEPFKAAHCG",
            "offset": {
              "HMHIOILIGBF": 0.0,
              "DPPJGBOHAAL": -0.5,
              "DDOAGBLBCEF": 0.0
            }
          },
          "size": {
            "HMHIOILIGBF": 2.0,
            "DPPJGBOHAAL": 4.0,
            "DDOAGBLBCEF": 3.5
          }
        },
        "attackInfo": {
          "attackTag": "",
          "attenuationTag": "",
          "attenuationGroup": "default",
          "attackProperty": {
            "PCFAAPMOCGJ": 0.5,
            "LCCBNOKMNFG": 0.0,
            "bonusCritical": 50.0,
            "strikeType": "Slash",
            "enBreak": 100.0,
            "attackType": "Melee",
            "FKGFPFNOJMN": 0.0
          },
          "hitPattern": {
            "onHitEffectName": "default",
            "hitImpulseType": "LV3",
            "canBeDefenceHalt": true
          }
        }
      },
      "MeleeAtk1_2": {
        "attackPattern": {
          "$type": "GGBJACPDDCM",
          "triggerType": "TriggerNoRepeat",
          "GJKNLOPNAMC": true,
          "born": {
            "$type": "KDEPFKAAHCG",
            "offset": {
              "HMHIOILIGBF": 0.0,
              "DPPJGBOHAAL": -0.5,
              "DDOAGBLBCEF": 0.0
            }
          },
          "size": {
            "HMHIOILIGBF": 2.0,
            "DPPJGBOHAAL": 4.0,
            "DDOAGBLBCEF": 3.5
          }
        },
        "attackInfo": {
          "attackTag": "",
          "attenuationTag": "",
          "attenuationGroup": "default",
          "attackProperty": {
            "PCFAAPMOCGJ": 0.5,
            "LCCBNOKMNFG": 0.0,
            "bonusCritical": 50.0,
            "strikeType": "Slash",
            "enBreak": 100.0,
            "attackType": "Melee",
            "FKGFPFNOJMN": 0.0
          },
          "hitPattern": {
            "onHitEffectName": "default",
            "hitImpulseType": "LV4",
            "canBeDefenceHalt": true
          }
        }
      },
      "MeleeAtk2_1Wind": {
        "attackPattern": {
          "$type": "GGBJACPDDCM",
          "triggerType": "TriggerNoRepeat",
          "GJKNLOPNAMC": true,
          "born": {
            "$type": "KDEPFKAAHCG",
            "offset": {
              "HMHIOILIGBF": 0.0,
              "DPPJGBOHAAL": -0.5,
              "DDOAGBLBCEF": 0.0
            }
          },
          "size": {
            "HMHIOILIGBF": 4.0,
            "DPPJGBOHAAL": 4.0,
            "DDOAGBLBCEF": 6.0
          }
        },
        "attackInfo": {
          "attackTag": "",
          "attenuationTag": "",
          "attenuationGroup": "default",
          "attackProperty": {
            "PCFAAPMOCGJ": 0.5,
            "LCCBNOKMNFG": 0.0,
            "elementType": "Wind",
            "bonusCritical": 50.0,
            "strikeType": "Slash",
            "enBreak": 100.0,
            "attackType": "Melee",
            "FKGFPFNOJMN": 0.0
          },
          "hitPattern": {
            "onHitEffectName": "default",
            "hitImpulseType": "LV3",
            "canBeDefenceHalt": true
          }
        }
      },
      "MeleeAtk2_2Wind": {
        "attackPattern": {
          "$type": "GGBJACPDDCM",
          "triggerType": "TriggerNoRepeat",
          "GJKNLOPNAMC": true,
          "born": {
            "$type": "KDEPFKAAHCG",
            "offset": {
              "HMHIOILIGBF": 0.0,
              "DPPJGBOHAAL": -0.5,
              "DDOAGBLBCEF": 0.0
            }
          },
          "size": {
            "HMHIOILIGBF": 4.0,
            "DPPJGBOHAAL": 4.0,
            "DDOAGBLBCEF": 6.0
          }
        },
        "attackInfo": {
          "attackTag": "",
          "attenuationTag": "",
          "attenuationGroup": "default",
          "attackProperty": {
            "PCFAAPMOCGJ": 0.5,
            "LCCBNOKMNFG": 0.0,
            "bonusCritical": 50.0,
            "strikeType": "Slash",
            "enBreak": 100.0,
            "attackType": "Melee",
            "FKGFPFNOJMN": 0.0
          },
          "hitPattern": {
            "onHitEffectName": "default",
            "hitImpulseType": "LV5",
            "canBeDefenceHalt": true
          }
        }
      },
      "RushAttack": {
        "attackPattern": {
          "$type": "GGBJACPDDCM",
          "triggerType": "TriggerNoRepeat",
          "GJKNLOPNAMC": true,
          "born": {
            "$type": "KDEPFKAAHCG",
            "offset": {
              "HMHIOILIGBF": 0.0,
              "DPPJGBOHAAL": 1.5,
              "DDOAGBLBCEF": -7.5
            }
          },
          "size": {
            "HMHIOILIGBF": 4.0,
            "DPPJGBOHAAL": 3.0,
            "DDOAGBLBCEF": 15.0
          }
        },
        "attackInfo": {
          "attackTag": "",
          "attenuationTag": "",
          "attenuationGroup": "default",
          "attackProperty": {
            "PCFAAPMOCGJ": 0.6000000238418579,
            "LCCBNOKMNFG": 0.0,
            "bonusCritical": 50.0,
            "strikeType": "Slash",
            "enBreak": 100.0,
            "attackType": "Melee",
            "FKGFPFNOJMN": 0.0
          },
          "hitPattern": {
            "onHitEffectName": "default",
            "hitImpulseType": "LV5",
            "retreatType": "ByHitDirection",
            "canBeDefenceHalt": true
          }
        }
      },
      "RushAttack_Wind": {
        "attackPattern": {
          "$type": "GGBJACPDDCM",
          "triggerType": "TriggerNoRepeat",
          "GJKNLOPNAMC": true,
          "born": {
            "$type": "KDEPFKAAHCG",
            "offset": {
              "HMHIOILIGBF": 0.0,
              "DPPJGBOHAAL": 1.5,
              "DDOAGBLBCEF": -7.5
            }
          },
          "size": {
            "HMHIOILIGBF": 4.0,
            "DPPJGBOHAAL": 3.0,
            "DDOAGBLBCEF": 15.0
          }
        },
        "attackInfo": {
          "attackTag": "",
          "attenuationTag": "",
          "attenuationGroup": "default",
          "attackProperty": {
            "PCFAAPMOCGJ": 0.6000000238418579,
            "LCCBNOKMNFG": 0.0,
            "elementType": "Wind",
            "bonusCritical": 50.0,
            "strikeType": "Slash",
            "enBreak": 100.0,
            "attackType": "Melee",
            "FKGFPFNOJMN": 0.0
          },
          "hitPattern": {
            "onHitEffectName": "default",
            "hitImpulseType": "LV5",
            "retreatType": "ByHitDirection",
            "canBeDefenceHalt": true
          }
        }
      },
      "ChargeAttack1_1": {
        "attackPattern": {
          "$type": "HBFCINNBDFD",
          "triggerType": "TriggerNoRepeat",
          "GJKNLOPNAMC": true,
          "born": {
            "$type": "KDEPFKAAHCG",
            "offset": {
              "HMHIOILIGBF": 0.0,
              "DPPJGBOHAAL": -0.5,
              "DDOAGBLBCEF": 0.0
            }
          },
          "height": 4.0,
          "DFMMIGEMOHH": 7.0
        },
        "attackInfo": {
          "attackTag": "",
          "attenuationTag": "",
          "attenuationGroup": "default",
          "attackProperty": {
            "PCFAAPMOCGJ": 1.0,
            "LCCBNOKMNFG": 0.0,
            "bonusCritical": 50.0,
            "strikeType": "Slash",
            "enBreak": 100.0,
            "attackType": "Melee",
            "FKGFPFNOJMN": 0.0
          },
          "hitPattern": {
            "onHitEffectName": "default",
            "hitImpulseType": "LV5",
            "retreatType": "ByHitDirection",
            "canBeDefenceHalt": true
          }
        }
      },
      "ChargeAttack1_1Wind": {
        "attackPattern": {
          "$type": "HBFCINNBDFD",
          "triggerType": "TriggerNoRepeat",
          "GJKNLOPNAMC": true,
          "born": {
            "$type": "KDEPFKAAHCG",
            "offset": {
              "HMHIOILIGBF": 0.0,
              "DPPJGBOHAAL": -0.5,
              "DDOAGBLBCEF": 0.0
            }
          },
          "height": 4.0,
          "DFMMIGEMOHH": 7.0
        },
        "attackInfo": {
          "attackTag": "",
          "attenuationTag": "",
          "attenuationGroup": "default",
          "attackProperty": {
            "PCFAAPMOCGJ": 1.0,
            "LCCBNOKMNFG": 0.0,
            "elementType": "Wind",
            "bonusCritical": 50.0,
            "strikeType": "Slash",
            "enBreak": 100.0,
            "attackType": "Melee",
            "FKGFPFNOJMN": 0.0
          },
          "hitPattern": {
            "onHitEffectName": "default",
            "hitImpulseType": "LV5",
            "retreatType": "ByHitDirection",
            "canBeDefenceHalt": true
          }
        }
      },
      "ChargeAttack1_2Ice": {
        "attackPattern": {
          "$type": "HBFCINNBDFD",
          "triggerType": "TriggerNoRepeat",
          "GJKNLOPNAMC": true,
          "born": {
            "$type": "KDEPFKAAHCG",
            "offset": {
              "HMHIOILIGBF": 0.0,
              "DPPJGBOHAAL": -0.5,
              "DDOAGBLBCEF": 0.0
            }
          },
          "height": 4.0,
          "DFMMIGEMOHH": 14.0,
          "innerRadius": 7.0
        },
        "attackInfo": {
          "attackTag": "",
          "attenuationTag": "",
          "attenuationGroup": "default",
          "attackProperty": {
            "PCFAAPMOCGJ": 1.0,
            "LCCBNOKMNFG": 0.0,
            "elementType": "Ice",
            "bonusCritical": 50.0,
            "strikeType": "Slash",
            "enBreak": 100.0,
            "attackType": "Melee",
            "FKGFPFNOJMN": 0.0
          },
          "hitPattern": {
            "onHitEffectName": "default",
            "hitImpulseType": "LV5",
            "retreatType": "ByHitDirection",
            "canBeDefenceHalt": true
          },
          "forceCameraShake": true,
          "cameraShake": {
            "shakeType": "CustomVector",
            "shakeRange": 0.30000001192092896,
            "shakeTime": 0.10000000149011612,
            "shakeDir": {
              "z": 1.0
            },
            "extension": {
              "baseOnCamera": true
            }
          }
        }
      },
      "BurstAttackWind": {
        "attackPattern": {
          "$type": "HBFCINNBDFD",
          "triggerType": "TriggerNoRepeat",
          "GJKNLOPNAMC": true,
          "born": {
            "$type": "KDEPFKAAHCG",
            "offset": {
              "HMHIOILIGBF": 0.0,
              "DPPJGBOHAAL": -0.5,
              "DDOAGBLBCEF": 0.0
            }
          },
          "height": 4.0,
          "DFMMIGEMOHH": 7.0
        },
        "attackInfo": {
          "attackTag": "",
          "attenuationTag": "",
          "attenuationGroup": "default",
          "attackProperty": {
            "PCFAAPMOCGJ": 0.800000011920929,
            "LCCBNOKMNFG": 0.0,
            "elementType": "Wind",
            "bonusCritical": 50.0,
            "strikeType": "Slash",
            "enBreak": 100.0,
            "attackType": "Melee",
            "FKGFPFNOJMN": 0.0
          },
          "hitPattern": {
            "onHitEffectName": "default",
            "hitImpulseType": "LV5",
            "retreatType": "ByHitDirection",
            "canBeDefenceHalt": true
          },
          "forceCameraShake": true,
          "cameraShake": {
            "shakeType": "CustomVector",
            "shakeRange": 0.30000001192092896,
            "shakeTime": 0.10000000149011612,
            "shakeDir": {
              "y": 1.0
            }
          }
        }
      },
      "BurstAttackIce": {
        "attackPattern": {
          "$type": "HBFCINNBDFD",
          "triggerType": "TriggerNoRepeat",
          "GJKNLOPNAMC": true,
          "born": {
            "$type": "KDEPFKAAHCG",
            "offset": {
              "HMHIOILIGBF": 0.0,
              "DPPJGBOHAAL": -0.5,
              "DDOAGBLBCEF": 0.0
            }
          },
          "height": 4.0,
          "DFMMIGEMOHH": 15.0
        },
        "attackInfo": {
          "attackTag": "",
          "attenuationTag": "",
          "attenuationGroup": "default",
          "attackProperty": {
            "PCFAAPMOCGJ": 0.800000011920929,
            "LCCBNOKMNFG": 0.0,
            "elementType": "Ice",
            "bonusCritical": 50.0,
            "strikeType": "Slash",
            "enBreak": 100.0,
            "attackType": "Melee",
            "FKGFPFNOJMN": 0.0
          },
          "hitPattern": {
            "onHitEffectName": "default",
            "hitImpulseType": "LV5",
            "retreatType": "ByHitDirection",
            "canBeDefenceHalt": true
          }
        }
      },
      "MaskPushAttack": {
        "attackPattern": {
          "$type": "GGBJACPDDCM",
          "triggerType": "TriggerNoRepeat",
          "GJKNLOPNAMC": true,
          "born": {
            "$type": "KDEPFKAAHCG",
            "offset": {
              "HMHIOILIGBF": 0.0,
              "DPPJGBOHAAL": 1.5,
              "DDOAGBLBCEF": 0.0
            }
          },
          "size": {
            "HMHIOILIGBF": 2.0,
            "DPPJGBOHAAL": 3.0,
            "DDOAGBLBCEF": 12.0
          }
        },
        "attackInfo": {
          "attackTag": "",
          "attenuationTag": "",
          "attenuationGroup": "default",
          "attackProperty": {
            "PCFAAPMOCGJ": 1.0,
            "LCCBNOKMNFG": 0.0,
            "bonusCritical": 50.0,
            "strikeType": "Slash",
            "enBreak": 100.0,
            "attackType": "Melee",
            "FKGFPFNOJMN": 0.0
          },
          "hitPattern": {
            "onHitEffectName": "default",
            "hitImpulseType": "LV5",
            "canBeDefenceHalt": true
          }
        }
      }
    }
  },
  "equipController": {
    "sheathPoint": "",
    "attachPoints": {
      "equip01": "WeaponR",
      "equip02": "WeaponL"
    }
  },
  "abilities": [
    {
      "abilityID": "",
      "abilityName": "Monster_Samurai_Ningyo_01_Steer",
      "abilityOverride": ""
    },
    {
      "abilityID": "",
      "abilityName": "Monster_Samurai_Ningyo_Die",
      "abilityOverride": ""
    },
    {
      "abilityID": "",
      "abilityName": "Monster_Samurai_Ningyo_01_Resistant",
      "abilityOverride": ""
    },
    {
      "abilityID": "",
      "abilityName": "Monster_Samurai_Ningyo_TriggerWindBladeAir1",
      "abilityOverride": ""
    },
    {
      "abilityID": "",
      "abilityName": "Monster_Samurai_Ningyo_TriggerWindBladeAir2",
      "abilityOverride": ""
    },
    {
      "abilityID": "",
      "abilityName": "Monster_Samurai_Ningyo_ForceDodge",
      "abilityOverride": ""
    },
    {
      "abilityID": "",
      "abilityName": "Monster_Samurai_EnsureVisible",
      "abilityOverride": ""
    },
    {
      "abilityID": "",
      "abilityName": "Monster_Samurai_Ningyo_Alert",
      "abilityOverride": ""
    },
    {
      "abilityID": "",
      "abilityName": "Monster_Samurai_Ningyo_02_MonsterAffix",
      "abilityOverride": ""
    },
    {
      "abilityID": "",
      "abilityName": "Monster_Samurai_Ningyo_WindGhost_MeleeAttack_FireBladeAir1",
      "abilityOverride": ""
    },
    {
      "abilityID": "",
      "abilityName": "Monster_Samurai_Ningyo_WindGhost_MeleeAttack_FireBladeAir2",
      "abilityOverride": ""
    },
    {
      "abilityID": "",
      "abilityName": "Monster_Samurai_Ningyo_02_DieWithIce",
      "abilityOverride": ""
    },
    {
      "abilityID": "",
      "abilityName": "Monster_Samurai_Ningyo_02_WeaponEffect",
      "abilityOverride": ""
    }
  ],
  "stateLayers": {
    "defaultLayer": {
      "$type": "KFHJINNNDPN",
      "BOPIBFKFKCA": "",
      "stateIDs": {
        "Born": {
          "$type": "MEECNDLIOBI",
          "HKPCLGHBKFD": {
            "Born": []
          },
          "KNOHBHKACHA": true,
          "BAABNFCMKIO": true,
          "ADPGACLPFHN": [
            "DoSkill"
          ]
        },
        "NormalIdle": {
          "$type": "MEECNDLIOBI",
          "HKPCLGHBKFD": {
            "Standby": []
          },
          "KNOHBHKACHA": true,
          "BAABNFCMKIO": true,
          "ADPGACLPFHN": [
            "DoSkill"
          ]
        },
        "NormalMove": {
          "$type": "MEECNDLIOBI",
          "HKPCLGHBKFD": {
            "WalkForward": [
              "Audio_Samurai_Ningyo_Walk"
            ],
            "WalkBack": [
              "Audio_Samurai_Ningyo_Walk"
            ],
            "WalkRight": [
              "Audio_Samurai_Ningyo_Walk"
            ],
            "WalkLeft": [
              "Audio_Samurai_Ningyo_Walk"
            ]
          },
          "KNOHBHKACHA": true,
          "BAABNFCMKIO": true,
          "ADPGACLPFHN": [
            "DoSkill"
          ],
          "NPMGEMAFACP": true
        },
        "BeHit": {
          "$type": "MEECNDLIOBI",
          "HKPCLGHBKFD": {
            "Hit_L": [],
            "Hit_H": []
          },
          "PJFELLIJONH": [
            "BeHit"
          ],
          "ADPGACLPFHN": [
            "DoSkill"
          ]
        },
        "Run": {
          "$type": "MEECNDLIOBI",
          "HKPCLGHBKFD": {
            "Run": [
              "Audio_Samurai_Ningyo_Run"
            ]
          },
          "KNOHBHKACHA": true,
          "BAABNFCMKIO": true,
          "ADPGACLPFHN": [
            "DoSkill"
          ],
          "NPMGEMAFACP": true
        },
        "Die": {
          "$type": "MEECNDLIOBI",
          "HKPCLGHBKFD": {
            "Die": [
              "Monster_Samurai_Ningyo_Die",
              "Audio_Samurai_Ningyo_Die"
            ]
          }
        },
        "Die_RagDoll": {
          "$type": "MEECNDLIOBI",
          "HKPCLGHBKFD": {
            "AirDie": []
          },
          "CKHCPGMBKGA": true
        },
        "Alert": {
          "$type": "MEECNDLIOBI",
          "HKPCLGHBKFD": {
            "Alert": [
              "Audio_Samurai_Ningyo_Alert"
            ]
          },
          "ADPGACLPFHN": [
            "BeHit",
            "DoSkill"
          ]
        },
        "MeleeAtk1_1": {
          "$type": "MEECNDLIOBI",
          "HKPCLGHBKFD": {
            "MeleeAttack1_1": [
              "Monster_Samurai_Ningyo_MeleeAttack1_1Wind",
              "Monster_Samurai_Ningyo_WindGhost_MeleeAttack_FireBladeAir1",
              "Audio_Samurai_Ningyo_MeleeAtk1_1"
            ],
            "MeleeAttack1_1Wind": [
              "Monster_Samurai_Ningyo_MeleeAttack1_1Wind",
              "Audio_Samurai_Ningyo_MeleeAtk1_1Wind_Ghost"
            ]
          },
          "PAKNCLFMOAC": 0.0,
          "ADPGACLPFHN": [
            "BeHit",
            "DoSkill"
          ],
          "NPMGEMAFACP": true
        },
        "MeleeAttack1_1Wind_Middle": {
          "$type": "MEECNDLIOBI",
          "HKPCLGHBKFD": {
            "MeleeAttack1_1Wind_Middle": []
          },
          "PAKNCLFMOAC": 0.0,
          "ADPGACLPFHN": [
            "BeHit",
            "DoSkill"
          ],
          "NPMGEMAFACP": true
        },
        "MeleeAtk1_2": {
          "$type": "MEECNDLIOBI",
          "HKPCLGHBKFD": {
            "MeleeAttack1_2": [
              "Monster_Samurai_Ningyo_MeleeAttack1_2Wind",
              "Monster_Samurai_Ningyo_WindGhost_MeleeAttack_FireBladeAir2",
              "Audio_Samurai_Ningyo_MeleeAtk1_2"
            ],
            "MeleeAttack1_2Wind": [
              "Monster_Samurai_Ningyo_MeleeAttack1_2Wind",
              "Audio_Samurai_Ningyo_MeleeAtk1_2Wind_Ghost"
            ]
          },
          "PAKNCLFMOAC": 0.0,
          "ADPGACLPFHN": [
            "BeHit",
            "DoSkill"
          ],
          "NPMGEMAFACP": true
        },
        "MeleeAttack1_2Wind_Middle": {
          "$type": "MEECNDLIOBI",
          "HKPCLGHBKFD": {
            "MeleeAttack1_2Wind_Middle": []
          },
          "PAKNCLFMOAC": 0.0,
          "ADPGACLPFHN": [
            "BeHit",
            "DoSkill"
          ],
          "NPMGEMAFACP": true
        },
        "MeleeAtk1_3": {
          "$type": "MEECNDLIOBI",
          "HKPCLGHBKFD": {
            "MeleeAttack1_3": [
              "Monster_Samurai_Ningyo_MeleeAttack1_3Wind",
              "Audio_Samurai_Ningyo_MeleeAtk1_3Wind_Ghost"
            ],
            "MeleeAttack1_3Wind": [
              "Monster_Samurai_Ningyo_MeleeAttack1_3Wind",
              "Audio_Samurai_Ningyo_MeleeAtk1_3Wind_Ghost"
            ]
          },
          "PAKNCLFMOAC": 0.0,
          "ADPGACLPFHN": [
            "BeHit",
            "DoSkill"
          ],
          "NPMGEMAFACP": true
        },
        "RangedChargeAttack_BS": {
          "$type": "MEECNDLIOBI",
          "HKPCLGHBKFD": {
            "RangedChargeAttack_BS": [
              "Monster_Samurai_Ningyo_WindBladeAir_BS",
              "Audio_Samurai_Ningyo_RangedChargeAtk_BS"
            ],
            "Dodge_RangAttack_BS": [
              "Monster_Samurai_Ningyo_WindBladeAir_BS",
              "Audio_Samurai_Ningyo_RangedChargeAtk_BS"
            ]
          },
          "ADPGACLPFHN": [
            "BeHit",
            "DoSkill"
          ],
          "NPMGEMAFACP": true
        },
        "RangedChargeAttack_Loop": {
          "$type": "MEECNDLIOBI",
          "HKPCLGHBKFD": {
            "RangedChargeAttack_One": [
              "Monster_Samurai_Ningyo_WindBladeAir_Attack1",
              "Audio_Samurai_Ningyo_RangedChargeAtk"
            ],
            "RangedChargeAttack_Two": [
              "Monster_Samurai_Ningyo_WindBladeAir_Attack2",
              "Audio_Samurai_Ningyo_RangedChargeAtk"
            ],
            "RangedChargeAttack_Three": [
              "Monster_Samurai_Ningyo_WindBladeAir_Attack1",
              "Audio_Samurai_Ningyo_RangedChargeAtk"
            ],
            "RangedChargeAttack_Four": [
              "Monster_Samurai_Ningyo_WindBladeAir_Attack2",
              "Audio_Samurai_Ningyo_RangedChargeAtk"
            ],
            "RangedChargeAttack_Five": [
              "Monster_Samurai_Ningyo_WindBladeAir_Attack1",
              "Audio_Samurai_Ningyo_RangedChargeAtk"
            ],
            "RangedChargeAttack_Six": [
              "Monster_Samurai_Ningyo_WindBladeAir_Attack2",
              "Audio_Samurai_Ningyo_RangedChargeAtk"
            ],
            "Dodge_RangAttack_Loop": [
              "Monster_Samurai_Ningyo_WindBladeAir_Attack1",
              "Audio_Samurai_Ningyo_RangedChargeAtk"
            ]
          },
          "PAKNCLFMOAC": 0.0,
          "ADPGACLPFHN": [
            "BeHit",
            "DoSkill"
          ],
          "NPMGEMAFACP": true
        },
        "RangedChargeAttack_AS": {
          "$type": "MEECNDLIOBI",
          "HKPCLGHBKFD": {
            "RangedChargeAttack_AS": [
              "Audio_Samurai_Ningyo_RangedChargeAtk_AS"
            ],
            "Dodge_RangAttack_AS": [
              "Audio_Samurai_Ningyo_RangedChargeAtk_AS"
            ]
          },
          "PAKNCLFMOAC": 0.0,
          "ADPGACLPFHN": [
            "BeHit",
            "DoSkill"
          ],
          "NPMGEMAFACP": true
        },
        "Dodge": {
          "$type": "MEECNDLIOBI",
          "HKPCLGHBKFD": {
            "ForceDodge": []
          },
          "ADPGACLPFHN": [
            "BeHit",
            "DoSkill"
          ],
          "NPMGEMAFACP": true
        },
        "Dodge_AS": {
          "$type": "MEECNDLIOBI",
          "HKPCLGHBKFD": {
            "ForceDodgeAS": []
          },
          "ADPGACLPFHN": [
            "BeHit",
            "DoSkill"
          ],
          "NPMGEMAFACP": true
        },
        "Provoke": {
          "$type": "MEECNDLIOBI",
          "HKPCLGHBKFD": {
            "Provoke": [
              "Audio_Samurai_Ningyo_Provoke"
            ]
          },
          "ADPGACLPFHN": [
            "BeHit",
            "DoSkill"
          ],
          "NPMGEMAFACP": true
        },
        "DefendHit": {
          "$type": "MEECNDLIOBI",
          "HKPCLGHBKFD": {
            "Defend_Hit": []
          },
          "ADPGACLPFHN": [
            "BeHit",
            "DoSkill"
          ],
          "NPMGEMAFACP": true
        },
        "Dying": {
          "$type": "MEECNDLIOBI",
          "HKPCLGHBKFD": {
            "Dying": [],
            "DyingLoop": [],
            "BackToLife": []
          },
          "ADPGACLPFHN": [
            "BeHit",
            "DoSkill"
          ]
        }
      }
    }
  },
  "billboard": {
    "$type": "HFEGKLAIGGI",
    "IIKEHINGEME": "BillboardAttach",
    "GEKOGJAPMMH": "Character",
    "DMHOOGGGDKG": true,
    "KAJOCAAOIFN": 50.0,
    "size": "Big"
  },
  "initialPoses": {
    "Default": {
      "initialPoseID": 1
    }
  },
  "aibeta": {
    "enable": true,
    "sensing": {
      "settings": {
        "DefaultSetting": {
          "viewRange": 25.0,
          "feelRange": 10.0
        },
        "NeverCombat": {
          "enableVision": false,
          "hearAttractionRange": 0.0,
          "feelRange": 0.0
        }
      },
      "templates": {
        "DefaultTemplate": {
          "DefaultPoses": "DefaultSetting"
        },
        "NeverCombatTemplate": {
          "DefaultPoses": "NeverCombat"
        }
      }
    },
    "neurons": {
      "DefaultSetting": [
        "HIT"
      ],
      "NeverCombat": []
    },
    "threat": {
      "clearThreatByLostPath": true,
      "clearThreatTimerByLostPath": 11.0,
      "viewAttenuation": [
        {
          "x": 10.0,
          "y": 2.0
        },
        {
          "x": 15.0,
          "y": 0.800000011920929
        },
        {
          "x": 20.0,
          "y": 0.5
        },
        {
          "x": 25.0,
          "y": 0.30000001192092896
        },
        {
          "x": 30.0,
          "y": 0.20000000298023224
        }
      ],
      "resistTauntLevel": "Monster_TauntLevel_5"
    },
    "defendArea": {
      "defendRange": 50.0
    },
    "network": {
      "syncSkill": true
    },
    "skillGroupCDConfigs": [
      {
        "skillGroupCDID": 0,
        "skillGroupCDTime": 5.0
      },
      {
        "skillGroupCDID": 1,
        "skillGroupCDTime": 10.0
      },
      {
        "skillGroupCDID": 2,
        "skillGroupCDTime": 15.0
      }
    ],
    "skillSetting": {
      "skillEliteSet": {
        "1": [
          501
        ],
        "2": [
          502
        ],
        "3": [
          503
        ],
        "4": [
          504
        ],
        "5": [
          505
        ]
      }
    },
    "skills": {
      "101": {
        "name": "MeleeAtk1",
        "priority": 4,
        "castCondition": {
          "pose": [
            101,
            201
          ],
          "pickRangeMax": 50.0
        },
        "cdUpperRange": 2.5,
        "initialCD": 1.0,
        "publicCDGroup": "Samurai_Ningyo_RangeAtk",
        "skillGroupCDID": 0,
        "CLEPNIDJOLN": "",
        "stateIDs": [
          "MeleeAtk1_1",
          "MeleeAtk1_2",
          "MeleeAtk1_3"
        ],
        "skillQueryingTime": 2.0,
        "flagTargetReachable": "11",
        "flagSelfOnTemplateCollider": "01",
        "flagSelfInZone": "11",
        "flagTargetInZone": "11"
      },
      "501": {
        "name": "ContinueRangedChargeAttack",
        "priority": 2,
        "castCondition": {
          "pose": [
            101,
            201
          ],
          "pickRangeMax": 50.0
        },
        "cd": 15.0,
        "cdUpperRange": 10.0,
        "initialCD": 1.0,
        "publicCDGroup": "Samurai_Ningyo_RangeAtk",
        "CLEPNIDJOLN": "",
        "stateIDs": [
          "RangedChargeAttack_BS",
          "RangedChargeAttack_Loop",
          "RangedChargeAttack_AS"
        ],
        "skillQueryingTime": 2.0,
        "flagTargetReachable": "11",
        "flagSelfOnTemplateCollider": "01",
        "flagSelfInZone": "11",
        "flagTargetInZone": "11"
      },
      "502": {
        "name": "ContinueRangedChargeAttack",
        "priority": 2,
        "castCondition": {
          "pose": [
            101,
            201
          ],
          "pickRangeMax": 50.0
        },
        "cd": 15.0,
        "cdUpperRange": 10.0,
        "initialCD": 1.0,
        "publicCDGroup": "Samurai_Ningyo_RangeAtk",
        "CLEPNIDJOLN": "",
        "stateIDs": [
          "RangedChargeAttack_BS",
          "RangedChargeAttack_Loop",
          "RangedChargeAttack_AS"
        ],
        "skillQueryingTime": 2.0,
        "flagTargetReachable": "11",
        "flagSelfOnTemplateCollider": "01",
        "flagSelfInZone": "11",
        "flagTargetInZone": "11"
      },
      "503": {
        "name": "ContinueRangedChargeAttack",
        "priority": 2,
        "castCondition": {
          "pose": [
            101,
            201
          ],
          "pickRangeMax": 50.0
        },
        "cd": 5.0,
        "cdUpperRange": 5.0,
        "initialCD": 1.0,
        "publicCDGroup": "Samurai_Ningyo_RangeAtk",
        "CLEPNIDJOLN": "",
        "stateIDs": [
          "RangedChargeAttack_BS",
          "RangedChargeAttack_Loop",
          "RangedChargeAttack_AS"
        ],
        "skillQueryingTime": 2.0,
        "flagTargetReachable": "11",
        "flagSelfOnTemplateCollider": "01",
        "flagSelfInZone": "11",
        "flagTargetInZone": "11"
      },
      "504": {
        "name": "ContinueRangedChargeAttack",
        "priority": 2,
        "castCondition": {
          "pose": [
            101,
            201
          ],
          "pickRangeMax": 50.0
        },
        "cd": 5.0,
        "cdUpperRange": 5.0,
        "initialCD": 1.0,
        "publicCDGroup": "Samurai_Ningyo_RangeAtk",
        "CLEPNIDJOLN": "",
        "stateIDs": [
          "RangedChargeAttack_BS",
          "RangedChargeAttack_Loop",
          "RangedChargeAttack_AS"
        ],
        "skillQueryingTime": 2.0,
        "flagTargetReachable": "11",
        "flagSelfOnTemplateCollider": "01",
        "flagSelfInZone": "11",
        "flagTargetInZone": "11"
      },
      "505": {
        "name": "ContinueRangedChargeAttack",
        "priority": 2,
        "castCondition": {
          "pose": [
            101,
            201
          ],
          "pickRangeMax": 50.0
        },
        "cd": 5.0,
        "cdUpperRange": 5.0,
        "initialCD": 1.0,
        "publicCDGroup": "Samurai_Ningyo_RangeAtk",
        "CLEPNIDJOLN": "",
        "stateIDs": [
          "RangedChargeAttack_BS",
          "RangedChargeAttack_Loop",
          "RangedChargeAttack_AS"
        ],
        "skillQueryingTime": 2.0,
        "flagTargetReachable": "11",
        "flagSelfOnTemplateCollider": "01",
        "flagSelfInZone": "11",
        "flagTargetInZone": "11"
      }
    },
    "skillGCD": 3.0,
    "combatFixedMoveTactic": [
      {
        "$type": "KIMPOLMEFNK",
        "enable": true,
        "EGJMGEHLDOL": {
          "pose": [
            101,
            201,
            301
          ]
        },
        "NGIEOIGFFDH": {
          "rangeMin": 0.0,
          "rangeMax": 40.0,
          "OHCPDFPNLEP": 3.0,
          "DDDDMJLFJNG": 1.0,
          "EBEKKNCJBLL": 1.0,
          "ODLFCBFIAEG": {
            "MKGIHLDDOPO": 0.0,
            "AIMKHLAPJGH": 0.0,
            "LJGPLFGCHJM": 2.0,
            "ODFJMMCNEHI": 2.0
          },
          "EOBOHLNDGNC": "1111",
          "JFAHEKLBENF": "1111",
          "FCFLCFFJKLO": ""
        }
      },
      {
        "$type": "HLPBLIEBJLM",
        "enable": true,
        "EGJMGEHLDOL": {
          "pose": [
            101,
            201,
            301
          ]
        },
        "NGIEOIGFFDH": {
          "NHPKGHAHIFA": 1,
          "GPKNKJPPCOM": 45.0,
          "NDCHJGOOLCF": 99.0,
          "FDNLEPNLLBP": 45.0,
          "DANCMNIMNAM": 0.0,
          "FCFLCFFJKLO": ""
        }
      },
      {
        "$type": "GJGILIGEJMO",
        "enable": true,
        "NGIEOIGFFDH": {
          "FCFLCFFJKLO": "",
          "BKCOJDIDEGN": ""
        }
      },
      {
        "$type": "IKIHDEMELGB",
        "enable": true,
        "EGJMGEHLDOL": {
          "pose": [
            1,
            2,
            3
          ]
        },
        "NGIEOIGFFDH": {
          "MONCHHKIDKL": 1.0,
          "HOKGJAONGHG": 5.0,
          "GJOBDMEBGLM": 2.5,
          "KDLAOJIPGHP": 15.0,
          "OEFFOIEOJNC": 5.0,
          "HAHMEDHEBKE": 7.5,
          "FCFLCFFJKLO": ""
        }
      }
    ]
  },
  "inputKeys": [
    {
      "keyID": 101,
      "inputKeyCode": 257,
      "abilityName": ""
    },
    {
      "keyID": 201,
      "inputKeyCode": 258,
      "abilityName": ""
    },
    {
      "keyID": 301,
      "inputKeyCode": 259,
      "abilityName": ""
    },
    {
      "keyID": 401,
      "inputKeyCode": 260,
      "abilityName": ""
    },
    {
      "keyID": 501,
      "inputKeyCode": 261,
      "abilityName": ""
    },
    {
      "keyID": 502,
      "inputKeyCode": 262,
      "abilityName": ""
    },
    {
      "keyID": 503,
      "inputKeyCode": 263,
      "abilityName": ""
    },
    {
      "keyID": 504,
      "inputKeyCode": 264,
      "abilityName": ""
    },
    {
      "keyID": 505,
      "inputKeyCode": 265,
      "abilityName": ""
    },
    {
      "keyID": 102,
      "inputKeyCode": 266,
      "abilityName": ""
    },
    {
      "keyID": 202,
      "inputKeyCode": 267,
      "abilityName": ""
    },
    {
      "keyID": 302,
      "inputKeyCode": 268,
      "abilityName": ""
    },
    {
      "keyID": 402,
      "inputKeyCode": 269,
      "abilityName": ""
    },
    {
      "keyID": 502,
      "inputKeyCode": 270,
      "abilityName": ""
    },
    {
      "keyID": 702,
      "inputKeyCode": 271,
      "abilityName": ""
    }
  ],
  "move": {
    "$type": "JKDLANFKJIL",
    "BGKIHCPJBMO": {
      "includeForces": [
        "FixedRushMoveType",
        "RushMoveType"
      ]
    },
    "ADKJOFPNHNO": "FourDirection",
    "LDHGAEIKIEE": "StoopType",
    "BEICMHKFBPB": true,
    "LPAKBBIADNC": "RootNode"
  },
  "audio": {
    "LKJIHNLBIJL": "",
    "animAudio": {
      "onTransitionIn": [
        {
          "currentStateName": "Weak_Loop",
          "audioEvent": {
            "text": "Play_sfx_monster_gloves_wind_weak_Loop"
          }
        },
        {
          "currentStateName": "Block_Loop",
          "audioEvent": {
            "text": "Play_sfx_monster_gloves_wind_block_Loop"
          }
        }
      ],
      "onTransitionOut": [
        {
          "currentStateName": "Weak_Loop",
          "audioEvent": {
            "text": "Stop_sfx_monster_gloves_wind_weak_Loop"
          }
        },
        {
          "currentStateName": "Block_Loop",
          "audioEvent": {
            "text": "Stop_sfx_monster_gloves_wind_block_Loop"
          }
        }
      ]
    },
    "disableEvent": {
      "text": ""
    },
    "destroyEvent": {
      "text": ""
    }
  }
}