{
  "common": {
    "effectAttachShape": {
      "$type": "CMIPFEGOJCH",
      "EJAEFCDBDFB": "EffectMesh"
    },
    "mass": 10000.0,
    "height": 1.600000023841858,
    "modelHeight": 1.600000023841858,
    "viewSize": 1.5,
    "affectedByWorld": true,
    "checkInSurface": true,
    "scale": 1.100000023841858,
    "useGrassDisplacement": true,
    "clearAnimatorOnSetLightDeactive": true,
    "clearAIOnSetLightDeactive": true,
    "NICGCIINMFJ": true
  },
  "headControl": {
    "$type": "HLGPLMCNIFB",
    "useHeadControl": true,
    "BADCMJGBCHM": 45.0,
    "GDIAFJFLHCE": [
      "NormalIdle/Standby",
      "NormalMove/WalkForward",
      "NormalMove/WalkBack",
      "NormalMove/WalkRight",
      "NormalMove/WalkLeft",
      "NormalMove/Run",
      "Turn/TurnLeft",
      "Turn/TurnRight"
    ]
  },
  "model": {
    "bornEffect": "Eff_Monster_Common_Born",
    "attachEffect": ""
  },
  "dither": {
    "showDitherDuration": 1.0
  },
  "combat": {
    "property": {
      "endureType": "Monster_Grunt_Other",
      "weight": 70.0
    },
    "beHit": {
      "hitBloodEffect": ""
    },
    "combatLock": {
      "lockShape": "CircleLockEnemy",
      "lockType": "Avatar&Monster_Lv4"
    },
    "die": {
      "hasAnimatorDie": true,
      "dieEndTime": 2.0,
      "dieForceDisappearTime": 8.0,
      "dieDisappearEffect": "",
      "dieShaderData": "EremiteSandDie",
      "dieShaderEnableDurationTime": 1.0,
      "LDOHFFOEPPI": true,
      "BMOKGIFNILM": true,
      "PHCLLDNDFNG": true,
      "CHBAHMJGJBE": true,
      "OPPHENIKFJA": true,
      "CCNGAIMLPIJ": true
    },
    "animEvents": {
      "NormalAtk01_01": {
        "attackPattern": {
          "$type": "HBFCINNBDFD",
          "triggerType": "TriggerNoRepeat",
          "born": {
            "$type": "KDEPFKAAHCG",
            "offset": {
              "HMHIOILIGBF": 0.0,
              "DPPJGBOHAAL": 0.0,
              "DDOAGBLBCEF": 0.699999988079071
            }
          },
          "height": 1.5,
          "NPLOANBGDOK": 160.0,
          "DFMMIGEMOHH": 2.200000047683716
        },
        "attackInfo": {
          "attackTag": "",
          "attenuationTag": "",
          "attenuationGroup": "default",
          "attackProperty": {
            "PCFAAPMOCGJ": 0.4000000059604645,
            "LCCBNOKMNFG": 0.0,
            "elementType": "Water",
            "bonusCritical": 25.0,
            "strikeType": "Blunt",
            "enBreak": 100.0,
            "attackType": "Melee",
            "FKGFPFNOJMN": 0.0
          },
          "hitPattern": {
            "onHitEffectName": "default",
            "hitImpulseType": "LV3",
            "canBeDefenceHalt": true
          }
        }
      },
      "NormalAtk01_02": {
        "attackPattern": {
          "$type": "GGBJACPDDCM",
          "triggerType": "TriggerNoRepeat",
          "born": {
            "$type": "KDEPFKAAHCG",
            "offset": {
              "HMHIOILIGBF": -0.5,
              "DPPJGBOHAAL": 1.0,
              "DDOAGBLBCEF": 1.0
            }
          },
          "size": {
            "HMHIOILIGBF": 1.0,
            "DPPJGBOHAAL": 1.0,
            "DDOAGBLBCEF": 2.5
          }
        },
        "attackInfo": {
          "attackTag": "",
          "attenuationTag": "",
          "attenuationGroup": "default",
          "attackProperty": {
            "PCFAAPMOCGJ": 0.5,
            "LCCBNOKMNFG": 0.0,
            "elementType": "Water",
            "bonusCritical": 25.0,
            "strikeType": "Blunt",
            "enBreak": 100.0,
            "attackType": "Melee",
            "FKGFPFNOJMN": 0.0
          },
          "hitPattern": {
            "onHitEffectName": "default",
            "hitImpulseType": "LV3",
            "canBeDefenceHalt": true
          }
        }
      },
      "ImprovedNormalAtk01_01": {
        "attackPattern": {
          "$type": "HBFCINNBDFD",
          "triggerType": "TriggerNoRepeat",
          "born": {
            "$type": "KDEPFKAAHCG",
            "offset": {
              "HMHIOILIGBF": 0.0,
              "DPPJGBOHAAL": 0.0,
              "DDOAGBLBCEF": 0.699999988079071
            }
          },
          "height": 2.200000047683716,
          "NPLOANBGDOK": 180.0,
          "DFMMIGEMOHH": 3.0
        },
        "attackInfo": {
          "attackTag": "",
          "attenuationTag": "",
          "attenuationGroup": "default",
          "attackProperty": {
            "PCFAAPMOCGJ": 0.6000000238418579,
            "LCCBNOKMNFG": 0.0,
            "elementType": "Water",
            "bonusCritical": 25.0,
            "strikeType": "Blunt",
            "enBreak": 200.0,
            "attackType": "Melee",
            "FKGFPFNOJMN": 0.0
          },
          "hitPattern": {
            "onHitEffectName": "default",
            "hitImpulseType": "LV3",
            "canBeDefenceHalt": true
          }
        }
      },
      "ImprovedNormalAtk01_02": {
        "attackPattern": {
          "$type": "GGBJACPDDCM",
          "triggerType": "TriggerNoRepeat",
          "born": {
            "$type": "KDEPFKAAHCG",
            "offset": {
              "HMHIOILIGBF": -0.5,
              "DPPJGBOHAAL": 1.0,
              "DDOAGBLBCEF": 1.0
            }
          },
          "size": {
            "HMHIOILIGBF": 1.0,
            "DPPJGBOHAAL": 1.5,
            "DDOAGBLBCEF": 3.5
          }
        },
        "attackInfo": {
          "attackTag": "",
          "attenuationTag": "",
          "attenuationGroup": "default",
          "attackProperty": {
            "PCFAAPMOCGJ": 0.5,
            "LCCBNOKMNFG": 0.0,
            "elementType": "Water",
            "bonusCritical": 25.0,
            "strikeType": "Blunt",
            "enBreak": 100.0,
            "attackType": "Melee",
            "FKGFPFNOJMN": 0.0
          },
          "hitPattern": {
            "onHitEffectName": "default",
            "hitImpulseType": "LV3",
            "canBeDefenceHalt": true
          }
        }
      },
      "MeleeAttack": {
        "attackPattern": {
          "$type": "GGBJACPDDCM",
          "triggerType": "TriggerNoRepeat",
          "GJKNLOPNAMC": true,
          "born": {
            "$type": "KDEPFKAAHCG",
            "offset": {
              "HMHIOILIGBF": 0.0,
              "DPPJGBOHAAL": 0.0,
              "DDOAGBLBCEF": 0.0
            }
          },
          "size": {
            "HMHIOILIGBF": 1.0,
            "DPPJGBOHAAL": 3.799999952316284,
            "DDOAGBLBCEF": 2.5
          },
          "OFPHDGKGMPA": true
        },
        "attackInfo": {
          "attackTag": "",
          "attenuationTag": "",
          "attenuationGroup": "default",
          "attackProperty": {
            "PCFAAPMOCGJ": 0.5,
            "LCCBNOKMNFG": 0.0,
            "elementType": "Water",
            "bonusCritical": 25.0,
            "strikeType": "Blunt",
            "enBreak": 100.0,
            "attackType": "Melee",
            "FKGFPFNOJMN": 0.0
          },
          "hitPattern": {
            "onHitEffectName": "default",
            "hitImpulseType": "LV4",
            "canBeDefenceHalt": true
          }
        }
      },
      "ImprovedMeleeAttack": {
        "attackPattern": {
          "$type": "GGBJACPDDCM",
          "triggerType": "TriggerNoRepeat",
          "GJKNLOPNAMC": true,
          "born": {
            "$type": "KDEPFKAAHCG",
            "offset": {
              "HMHIOILIGBF": 0.0,
              "DPPJGBOHAAL": 0.0,
              "DDOAGBLBCEF": 0.0
            }
          },
          "size": {
            "HMHIOILIGBF": 1.0,
            "DPPJGBOHAAL": 3.799999952316284,
            "DDOAGBLBCEF": 2.5
          },
          "OFPHDGKGMPA": true
        },
        "attackInfo": {
          "attackTag": "",
          "attenuationTag": "",
          "attenuationGroup": "default",
          "attackProperty": {
            "PCFAAPMOCGJ": 0.699999988079071,
            "LCCBNOKMNFG": 0.0,
            "elementType": "Water",
            "bonusCritical": 25.0,
            "strikeType": "Blunt",
            "enBreak": 100.0,
            "attackType": "Melee",
            "FKGFPFNOJMN": 0.0
          },
          "hitPattern": {
            "onHitEffectName": "default",
            "hitImpulseType": "LV4",
            "canBeDefenceHalt": true
          }
        }
      },
      "SlamAtk01": {
        "attackPattern": {
          "$type": "HBFCINNBDFD",
          "triggerType": "TriggerNoRepeat",
          "born": {
            "$type": "KDEPFKAAHCG",
            "offset": {
              "HMHIOILIGBF": 0.0,
              "DPPJGBOHAAL": 0.0,
              "DDOAGBLBCEF": 0.699999988079071
            }
          },
          "height": 1.600000023841858,
          "NPLOANBGDOK": 90.0,
          "DFMMIGEMOHH": 1.5
        },
        "attackInfo": {
          "attackTag": "",
          "attenuationTag": "",
          "attenuationGroup": "default",
          "attackProperty": {
            "PCFAAPMOCGJ": 0.5,
            "LCCBNOKMNFG": 0.0,
            "elementType": "Water",
            "bonusCritical": 25.0,
            "strikeType": "Slash",
            "enBreak": 200.0,
            "attackType": "Melee",
            "FKGFPFNOJMN": 0.0
          },
          "hitPattern": {
            "onHitEffectName": "default",
            "hitImpulseType": "LV4",
            "canBeDefenceHalt": true
          },
          "cameraShake": {
            "shakeType": "CustomVector",
            "shakeRange": 0.10000000149011612,
            "shakeTime": 0.10000000149011612,
            "shakeDistance": 30.0,
            "shakeDir": {
              "y": 1.0,
              "z": 1.0
            }
          }
        }
      },
      "ImproveSlamAtk01": {
        "attackPattern": {
          "$type": "HBFCINNBDFD",
          "triggerType": "TriggerNoRepeat",
          "born": {
            "$type": "KDEPFKAAHCG",
            "offset": {
              "HMHIOILIGBF": 0.0,
              "DPPJGBOHAAL": 0.0,
              "DDOAGBLBCEF": 0.20000000298023224
            }
          },
          "height": 3.0,
          "NPLOANBGDOK": 180.0,
          "DFMMIGEMOHH": 3.5
        },
        "attackInfo": {
          "attackTag": "",
          "attenuationTag": "",
          "attenuationGroup": "default",
          "attackProperty": {
            "PCFAAPMOCGJ": 0.75,
            "LCCBNOKMNFG": 0.0,
            "elementType": "Water",
            "bonusCritical": 50.0,
            "strikeType": "Blunt",
            "enBreak": 200.0,
            "attackType": "Melee",
            "FKGFPFNOJMN": 0.0
          },
          "hitPattern": {
            "onHitEffectName": "default",
            "hitImpulseType": "LV4",
            "canBeDefenceHalt": true
          },
          "cameraShake": {
            "shakeType": "CustomVector",
            "shakeRange": 0.10000000149011612,
            "shakeTime": 0.10000000149011612,
            "shakeDistance": 30.0,
            "shakeDir": {
              "y": 1.0,
              "z": 1.0
            }
          }
        }
      },
      "ImproveSlamAtk02_01": {
        "attackPattern": {
          "$type": "HBFCINNBDFD",
          "triggerType": "TriggerNoRepeat",
          "born": {
            "$type": "KDEPFKAAHCG",
            "offset": {
              "HMHIOILIGBF": 0.0,
              "DPPJGBOHAAL": 0.0,
              "DDOAGBLBCEF": 0.20000000298023224
            }
          },
          "height": 3.0,
          "NPLOANBGDOK": 90.0,
          "DFMMIGEMOHH": 2.5
        },
        "attackInfo": {
          "attackTag": "",
          "attenuationTag": "",
          "attenuationGroup": "default",
          "attackProperty": {
            "PCFAAPMOCGJ": 0.5,
            "LCCBNOKMNFG": 0.0,
            "elementType": "Water",
            "bonusCritical": 25.0,
            "strikeType": "Blunt",
            "enBreak": 200.0,
            "attackType": "Melee",
            "FKGFPFNOJMN": 0.0
          },
          "hitPattern": {
            "onHitEffectName": "default",
            "hitImpulseType": "LV4",
            "canBeDefenceHalt": true
          },
          "cameraShake": {
            "shakeType": "CustomVector",
            "shakeRange": 0.10000000149011612,
            "shakeTime": 0.10000000149011612,
            "shakeDistance": 30.0,
            "shakeDir": {
              "y": 1.0,
              "z": 1.0
            }
          }
        }
      },
      "ImproveSlamAtk02_02": {
        "attackPattern": {
          "$type": "HBFCINNBDFD",
          "triggerType": "TriggerNoRepeat",
          "born": {
            "$type": "KDEPFKAAHCG",
            "offset": {
              "HMHIOILIGBF": 0.0,
              "DPPJGBOHAAL": 0.0,
              "DDOAGBLBCEF": 0.20000000298023224
            }
          },
          "height": 1.5,
          "NPLOANBGDOK": 180.0,
          "DFMMIGEMOHH": 3.0
        },
        "attackInfo": {
          "attackTag": "",
          "attenuationTag": "",
          "attenuationGroup": "default",
          "attackProperty": {
            "PCFAAPMOCGJ": 0.5,
            "LCCBNOKMNFG": 0.0,
            "elementType": "Water",
            "bonusCritical": 25.0,
            "strikeType": "Blunt",
            "enBreak": 200.0,
            "attackType": "Melee",
            "FKGFPFNOJMN": 0.0
          },
          "hitPattern": {
            "onHitEffectName": "default",
            "hitImpulseType": "LV4",
            "canBeDefenceHalt": true
          },
          "cameraShake": {
            "shakeType": "CustomVector",
            "shakeRange": 0.10000000149011612,
            "shakeTime": 0.10000000149011612,
            "shakeDistance": 30.0,
            "shakeDir": {
              "y": 1.0,
              "z": 1.0
            }
          }
        }
      },
      "ImproveSlamAtk02_03": {
        "attackPattern": {
          "$type": "HBFCINNBDFD",
          "triggerType": "TriggerNoRepeat",
          "born": {
            "$type": "KDEPFKAAHCG",
            "offset": {
              "HMHIOILIGBF": 0.0,
              "DPPJGBOHAAL": 0.0,
              "DDOAGBLBCEF": 0.20000000298023224
            }
          },
          "height": 3.0,
          "NPLOANBGDOK": 180.0,
          "DFMMIGEMOHH": 3.5
        },
        "attackInfo": {
          "attackTag": "",
          "attenuationTag": "",
          "attenuationGroup": "default",
          "attackProperty": {
            "PCFAAPMOCGJ": 0.75,
            "LCCBNOKMNFG": 0.0,
            "elementType": "Water",
            "bonusCritical": 50.0,
            "strikeType": "Blunt",
            "enBreak": 200.0,
            "attackType": "Melee",
            "FKGFPFNOJMN": 0.0
          },
          "hitPattern": {
            "onHitEffectName": "default",
            "hitImpulseType": "LV4",
            "canBeDefenceHalt": true
          },
          "cameraShake": {
            "shakeType": "CustomVector",
            "shakeRange": 0.10000000149011612,
            "shakeTime": 0.10000000149011612,
            "shakeDistance": 30.0,
            "shakeDir": {
              "y": 1.0,
              "z": 1.0
            }
          }
        }
      }
    }
  },
  "equipController": {
    "sheathPoint": "",
    "attachPoints": {
      "equip01": "WeaponR",
      "equip02": "WeaponL"
    }
  },
  "abilities": [
    {
      "abilityID": "FightControl",
      "abilityName": "Monster_Eremite_Female_Slim_PushDagger_Water_FightControl",
      "abilityOverride": ""
    },
    {
      "abilityID": "ReturnToBorn",
      "abilityName": "Monster_Eremite_Female_Slim_PushDagger_Water_ReturnToBorn",
      "abilityOverride": ""
    },
    {
      "abilityID": "Alert",
      "abilityName": "Monster_Eremite_Female_Slim_PushDagger_Water_Alert",
      "abilityOverride": ""
    },
    {
      "abilityID": "Improve",
      "abilityName": "Monster_Eremite_Female_Slim_PushDagger_Water_Improve",
      "abilityOverride": ""
    },
    {
      "abilityID": "Die",
      "abilityName": "Monster_Eremite_Female_Slim_PushDagger_Water_Improve_Die",
      "abilityOverride": ""
    },
    {
      "abilityID": "Weak",
      "abilityName": "Monster_Eremite_Female_Slim_PushDagger_Water_Weak",
      "abilityOverride": ""
    },
    {
      "abilityID": "DrawWeapon",
      "abilityName": "Monster_Eremite_Female_Slim_PushDagger_Water_DrawWeapon",
      "abilityOverride": ""
    },
    {
      "abilityID": "SheathWeapon",
      "abilityName": "Monster_Eremite_Female_Slim_PushDagger_Water_SheathWeapon",
      "abilityOverride": ""
    },
    {
      "abilityID": "HideWeapon",
      "abilityName": "Monster_Eremite_Female_Slim_PushDagger_Water_HideWeapon",
      "abilityOverride": ""
    },
    {
      "abilityID": "UnhideWeapon",
      "abilityName": "Monster_Eremite_Female_Slim_PushDagger_Water_UnhideWeapon",
      "abilityOverride": ""
    },
    {
      "abilityID": "UnhideWeapon",
      "abilityName": "Monster_Eremite_Female_Slim_PushDagger_Water_SteerControl",
      "abilityOverride": ""
    },
    {
      "abilityID": "RushMove",
      "abilityName": "Monster_Eremite_Female_Slim_PushDagger_Water_RushMove",
      "abilityOverride": ""
    },
    {
      "abilityID": "RushMove_Damage",
      "abilityName": "Monster_Eremite_Female_Slim_PushDagger_Water_RushMove_Damage",
      "abilityOverride": ""
    },
    {
      "abilityID": "Improve_Effect",
      "abilityName": "Monster_Eremite_Female_Slim_PushDagger_Water_Improve_Effect",
      "abilityOverride": ""
    },
    {
      "abilityID": "Improve_Effect02",
      "abilityName": "Monster_Eremite_Female_Slim_PushDagger_Water_Improve_Effect02",
      "abilityOverride": ""
    }
  ],
  "stateLayers": {
    "defaultLayer": {
      "$type": "KFHJINNNDPN",
      "BOPIBFKFKCA": "",
      "stateIDs": {
        "NormalIdle": {
          "$type": "MEECNDLIOBI",
          "HKPCLGHBKFD": {
            "Standby": [],
            "Born": []
          },
          "KNOHBHKACHA": true,
          "BAABNFCMKIO": true,
          "ADPGACLPFHN": [
            "DoSkill"
          ]
        },
        "Standby_Weak": {
          "$type": "MEECNDLIOBI",
          "HKPCLGHBKFD": {
            "Standby_Weak": []
          },
          "KNOHBHKACHA": true,
          "BAABNFCMKIO": true,
          "PJFELLIJONH": [
            "Recover"
          ],
          "ADPGACLPFHN": [
            "DoSkill"
          ]
        },
        "NormalMove": {
          "$type": "MEECNDLIOBI",
          "HKPCLGHBKFD": {
            "WalkForward": [
              "Audio_Monster_Eremite_Female_Slim_PushDagger_01_Walk"
            ],
            "WalkBack": [
              "Audio_Monster_Eremite_Female_Slim_PushDagger_01_Walk"
            ],
            "WalkRight": [
              "Audio_Monster_Eremite_Female_Slim_PushDagger_01_Walk"
            ],
            "WalkLeft": [
              "Audio_Monster_Eremite_Female_Slim_PushDagger_01_Walk"
            ],
            "Run": [
              "Audio_Monster_Eremite_Female_Slim_PushDagger_01_Run"
            ]
          },
          "KNOHBHKACHA": true,
          "BAABNFCMKIO": true,
          "ADPGACLPFHN": [
            "DoSkill"
          ],
          "NPMGEMAFACP": true
        },
        "Turn": {
          "$type": "MEECNDLIOBI",
          "HKPCLGHBKFD": {
            "TurnLeft": [
              "Audio_Monster_Eremite_Female_Slim_PushDagger_01_Walk"
            ],
            "TurnRight": [
              "Audio_Monster_Eremite_Female_Slim_PushDagger_01_Walk"
            ]
          },
          "KNOHBHKACHA": true,
          "BAABNFCMKIO": true,
          "ADPGACLPFHN": [
            "DoSkill"
          ],
          "NPMGEMAFACP": true
        },
        "BeHit": {
          "$type": "MEECNDLIOBI",
          "HKPCLGHBKFD": {
            "Hit_L": [],
            "Hit_H": [
              "Audio_Monster_Eremite_Female_Slim_PushDagger_01_Hit_H"
            ]
          },
          "PJFELLIJONH": [
            "BeHit"
          ],
          "ADPGACLPFHN": [
            "DoSkill"
          ]
        },
        "BeHitThrow": {
          "$type": "MEECNDLIOBI",
          "HKPCLGHBKFD": {
            "HitThrow": [
              "Audio_Monster_Eremite_Female_Slim_PushDagger_01_HitThrow"
            ],
            "HitThrowDrop": []
          },
          "PJFELLIJONH": [
            "BeHit",
            "HitAir2HitDrop"
          ],
          "ADPGACLPFHN": [
            "DoSkill",
            "BeHit"
          ],
          "HGDOHKMMGIJ": [
            {
              "name": "AirDie"
            }
          ]
        },
        "BeHitThrowToStandby": {
          "$type": "MEECNDLIOBI",
          "HKPCLGHBKFD": {
            "HitThrowToGround": [
              "Audio_Monster_Eremite_Female_Slim_PushDagger_01_HitThrowToGround"
            ]
          },
          "PJFELLIJONH": [
            "BeHit",
            "HitAir2HitDrop"
          ],
          "ADPGACLPFHN": [
            "DoSkill",
            "BeHit"
          ],
          "HGDOHKMMGIJ": [
            {
              "name": "AirDie",
              "normalizeEnd": 0.6200000047683716
            }
          ]
        },
        "HitThrowToGround_Weak": {
          "$type": "MEECNDLIOBI",
          "HKPCLGHBKFD": {
            "HitThrowToGround_Weak": []
          },
          "PJFELLIJONH": [
            "BeHit",
            "HitAir2HitDrop"
          ],
          "ADPGACLPFHN": [
            "DoSkill"
          ]
        },
        "Struggle": {
          "$type": "MEECNDLIOBI",
          "HKPCLGHBKFD": {
            "Struggle": []
          },
          "PJFELLIJONH": [
            "BeHit",
            "HitAir2HitDrop"
          ],
          "ADPGACLPFHN": [
            "DoSkill"
          ]
        },
        "Die": {
          "$type": "MEECNDLIOBI",
          "HKPCLGHBKFD": {
            "Die1": [
              "Monster_Eremite_Female_Slim_PushDagger_Water_Die",
              "Audio_Monster_Eremite_Female_Slim_PushDagger_01_Die1"
            ],
            "Die2": [
              "Monster_Eremite_Female_Slim_PushDagger_Water_Die",
              "Audio_Monster_Eremite_Female_Slim_PushDagger_01_Die1"
            ],
            "SwimDie_BS": [],
            "SwimDie": [
              "Monster_Eremite_SwimDie"
            ],
            "SwimDie_AS": []
          }
        },
        "Die_RagDoll": {
          "$type": "MEECNDLIOBI",
          "HKPCLGHBKFD": {
            "AirDie": [
              "Monster_Eremite_AirDie"
            ]
          }
        },
        "Sit_Loop": {
          "$type": "MEECNDLIOBI",
          "HKPCLGHBKFD": {
            "Sit_Loop": []
          },
          "KNOHBHKACHA": true,
          "PAKNCLFMOAC": 0.0,
          "ADPGACLPFHN": [
            "BeHit",
            "DoSkill"
          ]
        },
        "Clear": {
          "$type": "MEECNDLIOBI",
          "HKPCLGHBKFD": {
            "Clear": [
              "Monster_Eremite_Female_Slim_PushDagger_Water_SandClear",
              "Audio_Monster_Eremite_Female_Slim_PushDagger_01_Clear"
            ]
          },
          "KNOHBHKACHA": true,
          "PAKNCLFMOAC": 0.0,
          "ADPGACLPFHN": [
            "BeHit",
            "DoSkill"
          ],
          "EOALJPNBEOI": true
        },
        "Dance": {
          "$type": "MEECNDLIOBI",
          "HKPCLGHBKFD": {
            "Dance": [
              "Audio_Monster_Eremite_Female_Slim_PushDagger_01_Dance"
            ]
          },
          "KNOHBHKACHA": true,
          "PAKNCLFMOAC": 0.0,
          "ADPGACLPFHN": [
            "BeHit",
            "DoSkill"
          ]
        },
        "Squat": {
          "$type": "MEECNDLIOBI",
          "HKPCLGHBKFD": {
            "Squat": []
          },
          "KNOHBHKACHA": true,
          "PAKNCLFMOAC": 0.0,
          "ADPGACLPFHN": [
            "BeHit",
            "DoSkill"
          ]
        },
        "Lie": {
          "$type": "MEECNDLIOBI",
          "HKPCLGHBKFD": {
            "Lie": []
          },
          "KNOHBHKACHA": true,
          "PAKNCLFMOAC": 0.0,
          "ADPGACLPFHN": [
            "BeHit",
            "DoSkill"
          ]
        },
        "Alert": {
          "$type": "MEECNDLIOBI",
          "HKPCLGHBKFD": {
            "Alert": [
              "Monster_Eremite_Female_Slim_PushDagger_Water_Alert",
              "Audio_Monster_Eremite_Female_Slim_PushDagger_01_Alert"
            ]
          },
          "PAKNCLFMOAC": 0.0,
          "IMJBMEIKPJN": 20.0,
          "ADPGACLPFHN": [
            "BeHit",
            "DoSkill"
          ],
          "EOALJPNBEOI": true
        },
        "Sit_Alert": {
          "$type": "MEECNDLIOBI",
          "HKPCLGHBKFD": {
            "Sit_Alert": [
              "Monster_Eremite_Female_Slim_PushDagger_Water_Alert",
              "Audio_Monster_Eremite_Female_Slim_PushDagger_01_Sit_Alert"
            ]
          },
          "PAKNCLFMOAC": 0.0,
          "IMJBMEIKPJN": 20.0,
          "ADPGACLPFHN": [
            "BeHit",
            "DoSkill"
          ],
          "EOALJPNBEOI": true
        },
        "Squat_Alert": {
          "$type": "MEECNDLIOBI",
          "HKPCLGHBKFD": {
            "Squat_Alert": [
              "Monster_Eremite_Female_Slim_PushDagger_Water_Alert",
              "Audio_Monster_Eremite_Female_Slim_PushDagger_01_Sit_Alert"
            ]
          },
          "PAKNCLFMOAC": 0.0,
          "IMJBMEIKPJN": 20.0,
          "ADPGACLPFHN": [
            "BeHit",
            "DoSkill"
          ],
          "EOALJPNBEOI": true
        },
        "SheathWeapon": {
          "$type": "MEECNDLIOBI",
          "HKPCLGHBKFD": {
            "SheathWeapon": [
              "Monster_Eremite_Female_Slim_PushDagger_Water_SheathWeapon",
              "Audio_Monster_Eremite_Female_Slim_PushDagger_01_SheathWeapon"
            ]
          },
          "PAKNCLFMOAC": 0.0,
          "IMJBMEIKPJN": 20.0,
          "PJFELLIJONH": [
            "SheathWeaponTrigger"
          ],
          "ADPGACLPFHN": [
            "BeHit",
            "DoSkill",
            "SheathWeaponTrigger"
          ]
        },
        "Improve": {
          "$type": "MEECNDLIOBI",
          "HKPCLGHBKFD": {
            "Improve": [
              "Monster_Eremite_Female_Slim_PushDagger_Water_Improve",
              "Audio_Monster_Eremite_Female_Slim_PushDagger_01_Improve"
            ]
          },
          "PAKNCLFMOAC": 0.0,
          "IMJBMEIKPJN": 20.0,
          "PJFELLIJONH": [
            "ForceImprove"
          ],
          "ADPGACLPFHN": [
            "BeHit",
            "DoSkill",
            "ForceImprove"
          ]
        },
        "Weak": {
          "$type": "MEECNDLIOBI",
          "HKPCLGHBKFD": {
            "Weak_BS": [
              "Audio_Monster_Eremite_Female_Slim_PushDagger_01_Weak_BS"
            ],
            "Weak_AS": [
              "Audio_Monster_Eremite_Female_Slim_PushDagger_01_Weak_AS"
            ]
          },
          "PJFELLIJONH": [
            "Weak"
          ],
          "ADPGACLPFHN": [
            "DoSkill",
            "Recover"
          ]
        },
        "NormalAtk01": {
          "$type": "MEECNDLIOBI",
          "HKPCLGHBKFD": {
            "NormalAtk01": [
              "Monster_Eremite_Female_Slim_PushDagger_Water_NormalAtk01",
              "Audio_Monster_Eremite_Female_Slim_PushDagger_01_NormalAtk"
            ]
          },
          "PAKNCLFMOAC": 0.0,
          "IMJBMEIKPJN": 20.0,
          "ADPGACLPFHN": [
            "BeHit",
            "DoSkill"
          ],
          "NPMGEMAFACP": true
        },
        "MeleeAttackBS": {
          "$type": "MEECNDLIOBI",
          "HKPCLGHBKFD": {
            "MeleeAttackBS": [
              "Audio_Monster_Eremite_Female_Slim_PushDagger_01_MeleeAttack_BS"
            ]
          },
          "PAKNCLFMOAC": 0.0,
          "IMJBMEIKPJN": 20.0,
          "ADPGACLPFHN": [
            "BeHit",
            "DoSkill"
          ],
          "NPMGEMAFACP": true
        },
        "MeleeAtkBS02": {
          "$type": "MEECNDLIOBI",
          "HKPCLGHBKFD": {
            "MeleeAtkBS02": [
              "Audio_Monster_Eremite_Female_Slim_PushDagger_01_Run"
            ]
          },
          "PAKNCLFMOAC": 0.0,
          "IMJBMEIKPJN": 20.0,
          "ADPGACLPFHN": [
            "BeHit",
            "DoSkill"
          ],
          "NPMGEMAFACP": true
        },
        "ImproveMeleeAtkBS02": {
          "$type": "MEECNDLIOBI",
          "HKPCLGHBKFD": {
            "ImproveMeleeAtkBS02": [
              "Audio_Monster_Eremite_Female_Slim_PushDagger_01_Run"
            ]
          },
          "ADPGACLPFHN": [
            "BeHit",
            "DoSkill",
            "Weak"
          ],
          "NPMGEMAFACP": true
        },
        "MeleeRush": {
          "$type": "MEECNDLIOBI",
          "HKPCLGHBKFD": {
            "MeleeRush": [
              "Audio_Monster_Eremite_Female_Slim_PushDagger_01_MeleeRush"
            ]
          },
          "BAABNFCMKIO": true,
          "PAKNCLFMOAC": 0.0,
          "ADPGACLPFHN": [
            "BeHit",
            "DoSkill",
            "NearTarget"
          ],
          "NPMGEMAFACP": true
        },
        "MeleeAttack": {
          "$type": "MEECNDLIOBI",
          "HKPCLGHBKFD": {
            "MeleeAttack": [
              "Monster_Eremite_Female_Slim_PushDagger_Water_MeleeAttack",
              "Audio_Monster_Eremite_Female_Slim_PushDagger_01_MeleeAttack"
            ]
          },
          "PAKNCLFMOAC": 0.0,
          "IMJBMEIKPJN": 20.0,
          "PJFELLIJONH": [
            "NearTarget"
          ],
          "ADPGACLPFHN": [
            "BeHit",
            "DoSkill"
          ]
        },
        "MeleeAttackAS": {
          "$type": "MEECNDLIOBI",
          "HKPCLGHBKFD": {
            "MeleeAttackAS": [
              "Audio_Monster_Eremite_Female_Slim_PushDagger_01_MeleeAttack_AS"
            ]
          },
          "PAKNCLFMOAC": 0.0,
          "IMJBMEIKPJN": 20.0,
          "PJFELLIJONH": [
            "NearTarget"
          ],
          "ADPGACLPFHN": [
            "BeHit",
            "DoSkill"
          ],
          "NPMGEMAFACP": true
        },
        "SlamAtk01": {
          "$type": "MEECNDLIOBI",
          "HKPCLGHBKFD": {
            "SlamAtk01": [
              "Monster_Eremite_Female_Slim_PushDagger_Water_SlamAtk01",
              "Audio_Monster_Eremite_Female_Slim_PushDagger_01_SlamAtk"
            ]
          },
          "PAKNCLFMOAC": 0.0,
          "IMJBMEIKPJN": 20.0,
          "ADPGACLPFHN": [
            "BeHit",
            "DoSkill"
          ],
          "NPMGEMAFACP": true
        },
        "ImproveNormalAtk01": {
          "$type": "MEECNDLIOBI",
          "HKPCLGHBKFD": {
            "ImproveNormalAtk01": [
              "Monster_Eremite_Female_Slim_PushDagger_Water_ImprovreNormalAtk01",
              "Audio_Monster_Eremite_Female_Slim_PushDagger_01_ImproveNormalAtk01"
            ]
          },
          "ADPGACLPFHN": [
            "BeHit",
            "DoSkill",
            "Weak"
          ],
          "NPMGEMAFACP": true
        },
        "ImproveMeleeAttackBS": {
          "$type": "MEECNDLIOBI",
          "HKPCLGHBKFD": {
            "ImproveMeleeAttackBS": [
              "Audio_Monster_Eremite_Female_Slim_PushDagger_01_MeleeAttack_BS"
            ]
          },
          "ADPGACLPFHN": [
            "BeHit",
            "DoSkill",
            "Weak"
          ],
          "NPMGEMAFACP": true
        },
        "ImproveMeleeRush": {
          "$type": "MEECNDLIOBI",
          "HKPCLGHBKFD": {
            "ImproveMeleeRush": [
              "Audio_Monster_Eremite_Female_Slim_PushDagger_01_MeleeRush"
            ]
          },
          "BAABNFCMKIO": true,
          "ADPGACLPFHN": [
            "BeHit",
            "DoSkill",
            "Weak",
            "NearTarget"
          ],
          "NPMGEMAFACP": true
        },
        "ImproveMeleeAttack": {
          "$type": "MEECNDLIOBI",
          "HKPCLGHBKFD": {
            "ImproveMeleeAttack": [
              "Monster_Eremite_Female_Slim_PushDagger_Water_ImprovedMeleeAttack",
              "Audio_Monster_Eremite_Female_Slim_PushDagger_01_ImproveMeleeAttack"
            ]
          },
          "PJFELLIJONH": [
            "NearTarget"
          ],
          "ADPGACLPFHN": [
            "BeHit",
            "DoSkill",
            "Weak"
          ]
        },
        "ImproveSlamAtk01": {
          "$type": "MEECNDLIOBI",
          "HKPCLGHBKFD": {
            "ImproveSlamAtk01": [
              "Monster_Eremite_Female_Slim_PushDagger_Water_ImproveSlamAtk01",
              "Audio_Monster_Eremite_Female_Slim_PushDagger_01_ImproveSlamAtk01"
            ]
          },
          "ADPGACLPFHN": [
            "BeHit",
            "DoSkill",
            "Weak"
          ],
          "NPMGEMAFACP": true
        },
        "ImproveSlamAtk02": {
          "$type": "MEECNDLIOBI",
          "HKPCLGHBKFD": {
            "ImproveSlamAtk02": [
              "Monster_Eremite_Female_Slim_PushDagger_Water_ImproveSlamAtk02",
              "Audio_Monster_Eremite_Female_Slim_PushDagger_01_ImproveslamAtk02"
            ]
          },
          "ADPGACLPFHN": [
            "BeHit",
            "DoSkill",
            "Weak"
          ],
          "NPMGEMAFACP": true
        }
      }
    }
  },
  "billboard": {
    "$type": "HFEGKLAIGGI",
    "IIKEHINGEME": "BillboardAttach",
    "offset": {
      "x": -0.3499999940395355
    },
    "GEKOGJAPMMH": "Character",
    "DMHOOGGGDKG": true,
    "size": "Big"
  },
  "initialPoses": {
    "Default": {
      "initialPoseID": 1
    },
    "Sit": {
      "initialPoseID": 9001,
      "initialPoseParams": {
        "intParams": {
          "FreePoseMark": "9001"
        }
      }
    },
    "Dance": {
      "initialPoseID": 9003,
      "initialPoseParams": {
        "intParams": {
          "FreePoseMark": "9003"
        }
      }
    },
    "Squat": {
      "initialPoseID": 9004,
      "initialPoseParams": {
        "intParams": {
          "FreePoseMark": "9004"
        }
      }
    },
    "Lie": {
      "initialPoseID": 9005,
      "initialPoseParams": {
        "intParams": {
          "FreePoseMark": "9005"
        }
      }
    }
  },
  "aibeta": {
    "enable": true,
    "moveSetting": {
      "navMeshAgentName": "Undead01",
      "almostReachedDistanceRun": 1.5
    },
    "aiCombat": {
      "combatRole": "FIGHTER"
    },
    "sensing": {
      "settings": {
        "DefaultSetting": {
          "feelRange": 8.0
        },
        "HighAlert": {
          "viewRange": 40.0,
          "feelRange": 10.0
        },
        "LowAlert": {
          "viewRange": 15.0,
          "feelRange": 6.0
        },
        "NeverCombat": {
          "enableVision": false,
          "hearAttractionRange": 0.0,
          "feelRange": 0.0
        },
        "UltraLowSensing": {
          "viewRange": 10.0,
          "hearAttractionRange": 0.0,
          "feelRange": 4.0
        }
      },
      "templates": {
        "DefaultTemplate": {
          "DefaultPoses": "DefaultSetting"
        },
        "HighAlert": {
          "DefaultPoses": "HighAlert"
        },
        "LowAlert": {
          "DefaultPoses": "LowAlert"
        },
        "NeverCombat": {
          "DefaultPoses": "NeverCombat"
        },
        "UltraLowSensing": {
          "DefaultPoses": "UltraLowSensing"
        }
      }
    },
    "neurons": {
      "DefaultSetting": [
        "HIT"
      ],
      "NeverCombat": []
    },
    "threat": {
      "clearThreatByLostPath": true,
      "clearThreatTimerByDistance": 3.0,
      "viewAttenuation": [
        {
          "x": 10.0,
          "y": 2.0
        },
        {
          "x": 15.0,
          "y": 0.800000011920929
        },
        {
          "x": 20.0,
          "y": 0.5
        },
        {
          "x": 25.0,
          "y": 0.30000001192092896
        },
        {
          "x": 30.0,
          "y": 0.20000000298023224
        }
      ],
      "resistTauntLevel": "Monster_TauntLevel_2"
    },
    "defendArea": {
      "defendRange": 50.0
    },
    "profiling": {},
    "network": {
      "syncSkill": true
    },
    "skillGroupCDConfigs": [
      {
        "skillGroupCDID": 1,
        "skillGroupCDTime": 1.0
      },
      {
        "skillGroupCDID": 2,
        "skillGroupCDTime": 2.0
      },
      {
        "skillGroupCDID": 3,
        "skillGroupCDTime": 3.0
      }
    ],
    "skills": {
      "101": {
        "name": "OnAlert",
        "skillType": "OnAlert",
        "castCondition": {
          "pose": [
            1,
            9003
          ]
        },
        "publicCDGroup": "",
        "ignoreGCD": true,
        "triggerGCD": false,
        "CLEPNIDJOLN": "",
        "stateIDs": [
          "Alert"
        ],
        "skillQueryingTime": 3.0,
        "flagTargetReachable": "10",
        "flagSelfOnTemplateCollider": "01",
        "flagSelfInZone": "10",
        "flagTargetInZone": "11"
      },
      "102": {
        "name": "OnAlert",
        "skillType": "OnNerve",
        "castCondition": {
          "pose": [
            1,
            9003
          ]
        },
        "publicCDGroup": "",
        "ignoreGCD": true,
        "triggerGCD": false,
        "CLEPNIDJOLN": "",
        "stateIDs": [
          "Alert"
        ],
        "skillQueryingTime": 3.0,
        "flagTargetReachable": "10",
        "flagSelfOnTemplateCollider": "01",
        "flagSelfInZone": "10",
        "flagTargetInZone": "11",
        "nerveTrigger": [
          "HIT"
        ]
      },
      "111": {
        "name": "OnAlert_Crossleg",
        "skillType": "OnAlert",
        "castCondition": {
          "pose": [
            9001,
            9005
          ]
        },
        "publicCDGroup": "",
        "ignoreGCD": true,
        "CLEPNIDJOLN": "",
        "stateIDs": [
          "Sit_Alert"
        ],
        "skillQueryingTime": 3.0,
        "flagTargetReachable": "10",
        "flagSelfOnTemplateCollider": "01",
        "flagSelfInZone": "10",
        "flagTargetInZone": "11"
      },
      "112": {
        "name": "OnAlert_Crossleg",
        "skillType": "OnNerve",
        "castCondition": {
          "pose": [
            9001,
            9005
          ]
        },
        "publicCDGroup": "",
        "ignoreGCD": true,
        "CLEPNIDJOLN": "",
        "stateIDs": [
          "Sit_Alert"
        ],
        "skillQueryingTime": 3.0,
        "flagTargetReachable": "10",
        "flagSelfOnTemplateCollider": "01",
        "flagSelfInZone": "10",
        "flagTargetInZone": "11",
        "nerveTrigger": [
          "HIT"
        ]
      },
      "121": {
        "name": "OnAlert_Crossleg",
        "skillType": "OnAlert",
        "castCondition": {
          "pose": [
            9004
          ]
        },
        "publicCDGroup": "",
        "ignoreGCD": true,
        "CLEPNIDJOLN": "",
        "stateIDs": [
          "Squat_Alert"
        ],
        "skillQueryingTime": 3.0,
        "flagTargetReachable": "10",
        "flagSelfOnTemplateCollider": "01",
        "flagSelfInZone": "10",
        "flagTargetInZone": "11"
      },
      "122": {
        "name": "OnAlert_Crossleg",
        "skillType": "OnNerve",
        "castCondition": {
          "pose": [
            9004
          ]
        },
        "publicCDGroup": "",
        "ignoreGCD": true,
        "CLEPNIDJOLN": "",
        "stateIDs": [
          "Squat_Alert"
        ],
        "skillQueryingTime": 3.0,
        "flagTargetReachable": "10",
        "flagSelfOnTemplateCollider": "01",
        "flagSelfInZone": "10",
        "flagTargetInZone": "11",
        "nerveTrigger": [
          "HIT"
        ]
      },
      "201": {
        "name": "NormalAtk01",
        "castCondition": {
          "pose": [
            101,
            102
          ],
          "pickRangeMax": 4.0
        },
        "cd": 3.0,
        "cdUpperRange": 2.0,
        "publicCDGroup": "",
        "skillGroupCDID": 3,
        "CLEPNIDJOLN": "",
        "stateIDs": [
          "NormalAtk01"
        ],
        "flagTargetReachable": "10",
        "flagSelfOnTemplateCollider": "01",
        "flagSelfInZone": "11",
        "flagTargetInZone": "11"
      },
      "211": {
        "name": "MeleeAttack",
        "priority": 3,
        "castCondition": {
          "pose": [
            101,
            102
          ],
          "pickRangeMin": 5.0,
          "pickRangeMax": 25.0
        },
        "cd": 10.0,
        "cdUpperRange": 2.5,
        "initialCD": 5.0,
        "initialCDUpperRange": 2.0,
        "publicCDGroup": "",
        "CLEPNIDJOLN": "",
        "stateIDs": [
          "MeleeAttackBS",
          "MeleeAtkBS02",
          "MeleeRush",
          "MeleeAttack",
          "MeleeAttackAS"
        ],
        "flagTargetReachable": "10",
        "flagSelfOnTemplateCollider": "01",
        "flagSelfInZone": "10",
        "flagTargetInZone": "11"
      },
      "221": {
        "name": "SlamAtk01",
        "castCondition": {
          "pose": [
            101,
            102
          ],
          "pickRangeMax": 4.0
        },
        "cd": 6.0,
        "cdUpperRange": 2.0,
        "initialCD": 7.0,
        "initialCDUpperRange": 4.0,
        "publicCDGroup": "",
        "skillGroupCDID": 3,
        "CLEPNIDJOLN": "",
        "stateIDs": [
          "SlamAtk01"
        ],
        "flagTargetReachable": "10",
        "flagSelfOnTemplateCollider": "01",
        "flagSelfInZone": "10",
        "flagTargetInZone": "11"
      },
      "301": {
        "name": "ImproveNormalAtk01",
        "castCondition": {
          "pose": [
            201
          ],
          "pickRangeMax": 5.0
        },
        "cd": 3.5,
        "cdUpperRange": 2.0,
        "publicCDGroup": "",
        "skillGroupCDID": 1,
        "CLEPNIDJOLN": "",
        "stateIDs": [
          "ImproveNormalAtk01",
          "ImproveSlamAtk01"
        ],
        "flagTargetReachable": "10",
        "flagSelfOnTemplateCollider": "01",
        "flagSelfInZone": "10",
        "flagTargetInZone": "11"
      },
      "311": {
        "name": "Improve_MeleeAttk02",
        "castCondition": {
          "pose": [
            201
          ],
          "pickRangeMin": 5.0,
          "pickRangeMax": 25.0
        },
        "cd": 8.0,
        "cdUpperRange": 3.0,
        "initialCD": 3.0,
        "publicCDGroup": "",
        "triggerCDOnStart": true,
        "CLEPNIDJOLN": "",
        "stateIDs": [
          "ImproveMeleeAttackBS",
          "ImproveMeleeAtkBS02",
          "ImproveMeleeRush",
          "ImproveMeleeAttack",
          "ImproveSlamAtk01"
        ],
        "flagTargetReachable": "10",
        "flagSelfOnTemplateCollider": "01",
        "flagSelfInZone": "10",
        "flagTargetInZone": "11"
      },
      "331": {
        "name": "Improve_SlamAtk02",
        "castCondition": {
          "pose": [
            201
          ],
          "pickRangeMax": 5.0
        },
        "cd": 10.0,
        "cdUpperRange": 2.0,
        "publicCDGroup": "",
        "CLEPNIDJOLN": "",
        "stateIDs": [
          "ImproveSlamAtk02"
        ],
        "flagTargetReachable": "10",
        "flagSelfOnTemplateCollider": "01",
        "flagSelfInZone": "11",
        "flagTargetInZone": "11"
      },
      "401": {
        "name": "Improve_First",
        "priority": 2,
        "castCondition": {
          "pose": [
            111
          ]
        },
        "cd": 10.0,
        "publicCDGroup": "",
        "KFIGEPOKGBN": false,
        "CLEPNIDJOLN": "",
        "stateIDs": [
          "Improve"
        ],
        "skillQueryingTime": 3.0,
        "flagTargetReachable": "11",
        "flagSelfOnTemplateCollider": "11",
        "flagSelfInZone": "11",
        "flagTargetInZone": "11"
      },
      "402": {
        "name": "Improve_NotFirst",
        "priority": 2,
        "castCondition": {
          "pose": [
            102
          ]
        },
        "cd": 30.0,
        "initialCD": 30.0,
        "publicCDGroup": "",
        "ignoreGCD": true,
        "triggerGCD": false,
        "KFIGEPOKGBN": false,
        "CLEPNIDJOLN": "",
        "stateIDs": [
          "Improve"
        ],
        "skillQueryingTime": 3.0,
        "flagTargetReachable": "11",
        "flagSelfOnTemplateCollider": "11",
        "flagSelfInZone": "11",
        "flagTargetInZone": "11"
      },
      "9001": {
        "name": "Clear_PlayShow",
        "skillType": "Free",
        "castCondition": {
          "pose": [
            2,
            1
          ]
        },
        "cd": 50.0,
        "cdUpperRange": 15.0,
        "initialCD": 15.0,
        "publicCDGroup": "",
        "ignoreGCD": true,
        "triggerGCD": false,
        "CLEPNIDJOLN": "",
        "stateIDs": [
          "Clear"
        ],
        "skillQueryingTime": 3.0,
        "flagTargetReachable": "10",
        "flagSelfOnTemplateCollider": "01",
        "flagSelfInZone": "10",
        "flagTargetInZone": "11"
      }
    },
    "skillGCD": 2.0,
    "combatFixedMoveTactic": [
      {
        "$type": "KIMPOLMEFNK",
        "enable": true,
        "EGJMGEHLDOL": {
          "pose": [
            101,
            102,
            201
          ]
        },
        "NGIEOIGFFDH": {
          "rangeMin": 2.5,
          "rangeMax": 6.0,
          "DDDDMJLFJNG": 1.5,
          "EBEKKNCJBLL": 1.0,
          "ODLFCBFIAEG": {
            "ACLMEMJMCHO": 0.5,
            "AIMKHLAPJGH": 0.5
          },
          "EOBOHLNDGNC": "1111",
          "JFAHEKLBENF": "1111",
          "FCFLCFFJKLO": ""
        }
      },
      {
        "$type": "EAHMEDBCNHH",
        "enable": true,
        "NGIEOIGFFDH": {
          "NHPKGHAHIFA": 1,
          "DMFHKPCCMAN": 4.0,
          "MEKPCHABFJG": 75.0,
          "HAGANIFJPCF": 3.0,
          "IAIJKIPIPND": 5.0,
          "JKOBEDPPFKO": 0.5,
          "FCFLCFFJKLO": ""
        }
      },
      {
        "$type": "AIFAIEAELGP",
        "enable": true,
        "EGJMGEHLDOL": {
          "pose": [
            1
          ]
        }
      },
      {
        "$type": "HLPBLIEBJLM",
        "enable": true,
        "EGJMGEHLDOL": {
          "pose": [
            101,
            102,
            201
          ]
        },
        "NGIEOIGFFDH": {
          "NHPKGHAHIFA": 1,
          "MONCHHKIDKL": 0.800000011920929,
          "GPKNKJPPCOM": 8.0,
          "NDCHJGOOLCF": 99.0,
          "FDNLEPNLLBP": 3.0,
          "FALODAGNKBI": false,
          "FCFLCFFJKLO": ""
        }
      },
      {
        "$type": "GJGILIGEJMO",
        "enable": true,
        "NGIEOIGFFDH": {
          "FCFLCFFJKLO": "",
          "BKCOJDIDEGN": ""
        }
      },
      {
        "$type": "IKIHDEMELGB",
        "enable": true,
        "EGJMGEHLDOL": {
          "pose": [
            1
          ]
        },
        "NGIEOIGFFDH": {
          "MONCHHKIDKL": 1.0,
          "HOKGJAONGHG": 5.0,
          "GJOBDMEBGLM": 2.5,
          "KDLAOJIPGHP": 15.0,
          "OEFFOIEOJNC": 4.0,
          "HAHMEDHEBKE": 6.0,
          "FCFLCFFJKLO": ""
        }
      }
    ]
  },
  "inputKeys": [
    {
      "keyID": 201,
      "inputKeyCode": 258,
      "abilityName": ""
    },
    {
      "keyID": 211,
      "inputKeyCode": 259,
      "abilityName": ""
    },
    {
      "keyID": 221,
      "inputKeyCode": 260,
      "abilityName": ""
    },
    {
      "keyID": 301,
      "inputKeyCode": 261,
      "abilityName": ""
    },
    {
      "keyID": 311,
      "inputKeyCode": 262,
      "abilityName": ""
    },
    {
      "keyID": 321,
      "inputKeyCode": 263,
      "abilityName": ""
    },
    {
      "keyID": 331,
      "inputKeyCode": 264,
      "abilityName": ""
    },
    {
      "keyID": 401,
      "inputKeyCode": 265,
      "abilityName": ""
    }
  ],
  "move": {
    "$type": "JKDLANFKJIL",
    "ADKJOFPNHNO": "FourDirection",
    "LDHGAEIKIEE": "StoopType",
    "OPALOODMBJP": true,
    "LPAKBBIADNC": "RootNode"
  },
  "audio": {
    "LKJIHNLBIJL": "",
    "animAudio": {
      "onTransitionIn": [
        {
          "currentStateName": "",
          "audioEvent": {
            "text": ""
          }
        }
      ],
      "onTransitionOut": [
        {
          "currentStateName": "Dance",
          "audioEvent": {
            "text": "Stop_sfx_monster_Eremite_Female_Slim_PushDagger_dance"
          }
        }
      ]
    }
  }
}