{
  "common": {
    "effectAttachShape": {
      "$type": "DPGKNHENGLM",
      "DDDEJPIFECG": "EffectMesh"
    },
    "mass": 150.0,
    "height": 3.5,
    "modelHeight": 3.0,
    "shadowViewSizeRatio": 3.0,
    "affectedByWorld": true,
    "checkInSurface": true,
    "shouldPauseAnimatorBeforeReady": true,
    "useGrassDisplacement": true,
    "clearAnimatorOnSetLightDeactive": true,
    "clearAIOnSetLightDeactive": true,
    "BKPPECPBMBF": true,
    "LOGFKHMLOOL": true
  },
  "headControl": {
    "$type": "NJIKCGBDNDF",
    "useHeadControl": true,
    "FDPCOFKGCHG": [
      "NormalIdle/Standby",
      "NormalMove/WalkForward",
      "NormalMove/WalkBack",
      "NormalMove/WalkRight",
      "NormalMove/WalkLeft",
      "NormalMove/Run",
      "Turn/TurnLeft",
      "Turn/TurnRight"
    ]
  },
  "model": {
    "bornEffect": "Eff_Monster_Common_Born",
    "attachEffect": ""
  },
  "dither": {
    "showDitherDuration": 2.0
  },
  "combat": {
    "property": {
      "endureType": "Monster_Demiboss_Humanoid",
      "weight": 150.0
    },
    "beHit": {
      "hitBloodEffect": ""
    },
    "combatLock": {
      "lockShape": "CircleLockEnemy",
      "lockType": "Avatar&Monster_Lv4"
    },
    "die": {
      "hasAnimatorDie": true,
      "dieEndTime": 2.0,
      "dieForceDisappearTime": 4.0,
      "dieDisappearEffect": "Eff_Death_Common",
      "dieShaderData": "MonsterDie",
      "useRagDoll": true,
      "ragDollDieEndTimeDelay": 0.5,
      "muteHitBox": true,
      "dieDenyLockOn": true,
      "dieIsGhostToEnemy": true,
      "dieIgnoreTriggerBullet": true,
      "muteBillboard": true,
      "mutePushCollider": true
    },
    "animEvents": {
      "SickleAtk01": {
        "attackPattern": {
          "$type": "AGJFCPDIMCK",
          "triggerType": "TriggerNoRepeat",
          "born": {
            "$type": "NKOODKOFELF",
            "offset": {
              "GNGDNIIPPNL": 0.0,
              "GIIMFINHIED": 0.20000000298023224,
              "CLBCHJICOKH": 0.0
            },
            "JEOALPJGDJO": true
          },
          "height": 3.0,
          "LOACHGCADCO": 3.0
        },
        "attackInfo": {
          "attackTag": "",
          "attenuationTag": "",
          "attenuationGroup": "default",
          "attackProperty": {
            "HOGNHNAHNML": 0.800000011920929,
            "BAPILBAGBOJ": 0.0,
            "elementType": "Water",
            "bonusCriticalHurt": 25.0,
            "strikeType": "Slash",
            "enBreak": 50.0,
            "attackType": "Melee",
            "damagePercentage": 0.0
          },
          "hitPattern": {
            "onHitEffectName": "default",
            "hitImpulseType": "LV3"
          }
        }
      },
      "SickleAtk02": {
        "attackPattern": {
          "$type": "AGJFCPDIMCK",
          "triggerType": "TriggerNoRepeat",
          "born": {
            "$type": "NKOODKOFELF",
            "offset": {
              "GNGDNIIPPNL": 0.0,
              "GIIMFINHIED": -0.10000000149011612,
              "CLBCHJICOKH": 0.0
            },
            "JEOALPJGDJO": true
          },
          "height": 2.700000047683716,
          "LOACHGCADCO": 3.9000000953674316
        },
        "attackInfo": {
          "attackTag": "",
          "attenuationTag": "",
          "attenuationGroup": "default",
          "attackProperty": {
            "HOGNHNAHNML": 1.0,
            "BAPILBAGBOJ": 0.0,
            "elementType": "Water",
            "bonusCriticalHurt": 25.0,
            "strikeType": "Slash",
            "enBreak": 100.0,
            "attackType": "Melee",
            "damagePercentage": 0.0
          },
          "hitPattern": {
            "onHitEffectName": "default",
            "hitImpulseType": "LV4"
          }
        }
      },
      "SpearAtk": {
        "attackPattern": {
          "$type": "HGDDHLFAONH",
          "triggerType": "TriggerNoRepeat",
          "born": {
            "$type": "NKOODKOFELF",
            "offset": {
              "GNGDNIIPPNL": 0.0,
              "GIIMFINHIED": 1.5,
              "CLBCHJICOKH": 0.5
            },
            "JEOALPJGDJO": true
          },
          "musicSubStates": {
            "GNGDNIIPPNL": 1.399999976158142,
            "GIIMFINHIED": 1.600000023841858,
            "CLBCHJICOKH": 5.0
          }
        },
        "attackInfo": {
          "attackTag": "",
          "attenuationTag": "",
          "attenuationGroup": "default",
          "attackProperty": {
            "HOGNHNAHNML": 0.800000011920929,
            "BAPILBAGBOJ": 0.0,
            "elementType": "Water",
            "bonusCriticalHurt": 25.0,
            "strikeType": "Pierce",
            "enBreak": 100.0,
            "attackType": "Melee",
            "damagePercentage": 0.0
          },
          "hitPattern": {
            "onHitEffectName": "default",
            "hitImpulseType": "LV4",
            "retreatType": "ByHitDirection"
          }
        }
      },
      "RushAtk": {
        "attackPattern": {
          "$type": "AGJFCPDIMCK",
          "triggerType": "TriggerNoRepeat",
          "born": {
            "$type": "NKOODKOFELF",
            "offset": {
              "GNGDNIIPPNL": 0.800000011920929,
              "GIIMFINHIED": -0.5,
              "CLBCHJICOKH": 0.0
            },
            "JEOALPJGDJO": true
          },
          "height": 3.5,
          "LOACHGCADCO": 3.5
        },
        "attackInfo": {
          "attackTag": "",
          "attenuationTag": "",
          "attenuationGroup": "default",
          "attackProperty": {
            "HOGNHNAHNML": 1.0,
            "BAPILBAGBOJ": 0.0,
            "elementType": "Water",
            "bonusCriticalHurt": 25.0,
            "strikeType": "Slash",
            "enBreak": 100.0,
            "attackType": "Melee",
            "damagePercentage": 0.0
          },
          "hitPattern": {
            "onHitEffectName": "default",
            "hitImpulseType": "LV4"
          }
        }
      }
    }
  },
  "equipController": {
    "sheathPoint": "",
    "attachPoints": {
      "equip01": "SlimeAttachPoint"
    }
  },
  "abilities": [
    {
      "abilityID": "",
      "abilityName": "Monster_Hilistray_Water_Steer",
      "abilityOverride": ""
    },
    {
      "abilityID": "",
      "abilityName": "Monster_Hilistray_Water_ExitBattle",
      "abilityOverride": ""
    },
    {
      "abilityID": "",
      "abilityName": "Monster_Hilistray_Water_Alert",
      "abilityOverride": ""
    },
    {
      "abilityID": "",
      "abilityName": "Monster_Hilistray_Water_SickleAtk01",
      "abilityOverride": ""
    },
    {
      "abilityID": "",
      "abilityName": "Monster_Hilistray_Water_SickleAtk02_RushMove",
      "abilityOverride": ""
    },
    {
      "abilityID": "",
      "abilityName": "Monster_Hilistray_Water_RushAtk",
      "abilityOverride": ""
    },
    {
      "abilityID": "",
      "abilityName": "Monster_Hilistray_Water_RushAtk_FollowEffect",
      "abilityOverride": ""
    },
    {
      "abilityID": "",
      "abilityName": "Monster_Hilistray_Water_RushAtk_FollowBullet",
      "abilityOverride": ""
    },
    {
      "abilityID": "",
      "abilityName": "Monster_Hilistray_Water_SlimeAtk_Bullet",
      "abilityOverride": ""
    },
    {
      "abilityID": "",
      "abilityName": "Monster_Hilistray_Water_SpecialAtk_CreateSlime",
      "abilityOverride": ""
    },
    {
      "abilityID": "",
      "abilityName": "Monster_Hilistray_Water_SpecialAtk_RemoveSlime",
      "abilityOverride": ""
    },
    {
      "abilityID": "",
      "abilityName": "Monster_Hilistray_Water_SpecialAtk_SlimeShake",
      "abilityOverride": ""
    },
    {
      "abilityID": "",
      "abilityName": "Monster_Hilistray_Water_SpecialAtk_Bubble",
      "abilityOverride": ""
    },
    {
      "abilityID": "",
      "abilityName": "Monster_Hilistray_Water_SpecialAtk_SlimeShrink",
      "abilityOverride": ""
    },
    {
      "abilityID": "",
      "abilityName": "Monster_Hilistray_Water_SpecialAtk_SmallSpray",
      "abilityOverride": ""
    },
    {
      "abilityID": "",
      "abilityName": "Monster_Hilistray_Water_SpecialAtk_KickSlime",
      "abilityOverride": ""
    }
  ],
  "stateLayers": {
    "defaultLayer": {
      "$type": "EPAPJJAGHKG",
      "ACOCIAFGIAD": "",
      "stateIDs": {
        "NormalIdle": {
          "$type": "IJOIMFMEGMM",
          "DLOHGBDFFGB": {
            "StandbyFree": [],
            "Standby": [],
            "Born": []
          },
          "POLKCLOHPOO": true,
          "PGKCBIHGAOC": true,
          "DLAOMOCMANL": [
            "DoSkill"
          ]
        },
        "NormalMove": {
          "$type": "IJOIMFMEGMM",
          "DLOHGBDFFGB": {
            "WalkForward": [
              "Audio_Monster_Hilistray_Water_01_Walk"
            ],
            "WalkBack": [
              "Audio_Monster_Hilistray_Water_01_Walk"
            ],
            "WalkRight": [
              "Audio_Monster_Hilistray_Water_01_Walk"
            ],
            "WalkLeft": [
              "Audio_Monster_Hilistray_Water_01_Walk"
            ],
            "Run": [
              "Audio_Monster_Hilistray_Water_01_Run"
            ]
          },
          "POLKCLOHPOO": true,
          "PGKCBIHGAOC": true,
          "DLAOMOCMANL": [
            "DoSkill"
          ],
          "LIPMJPLGIKD": true
        },
        "Turn": {
          "$type": "IJOIMFMEGMM",
          "DLOHGBDFFGB": {
            "TurnLeft": [
              "Audio_Monster_Hilistray_Water_01_Walk"
            ],
            "TurnRight": [
              "Audio_Monster_Hilistray_Water_01_Walk"
            ]
          },
          "POLKCLOHPOO": true,
          "PGKCBIHGAOC": true,
          "DLAOMOCMANL": [
            "DoSkill"
          ],
          "LIPMJPLGIKD": true
        },
        "ReturnToBorn": {
          "$type": "IJOIMFMEGMM",
          "DLOHGBDFFGB": {
            "ReturnToBorn": [
              "Audio_Monster_Hilistray_Water_01_ReturnToBorn"
            ]
          },
          "PGKCBIHGAOC": true,
          "DLAOMOCMANL": [
            "BeHit",
            "DoSkill"
          ]
        },
        "BeHit": {
          "$type": "IJOIMFMEGMM",
          "DLOHGBDFFGB": {
            "Hit_L": [],
            "Hit_H": [
              "Audio_Monster_Hilistray_Water_01_Hit_H"
            ]
          },
          "AJBLILDCLBO": [
            "BeHit"
          ],
          "DLAOMOCMANL": [
            "DoSkill"
          ]
        },
        "BeHitThrow": {
          "$type": "IJOIMFMEGMM",
          "DLOHGBDFFGB": {
            "HitThrow": [
              "Audio_Monster_Hilistray_Water_01_HitThrow"
            ],
            "HitThrowDrop": [],
            "HitThrowToGround": [
              "Audio_Monster_Hilistray_Water_01_Hit_HitThrowToGround"
            ]
          },
          "AJBLILDCLBO": [
            "BeHit",
            "HitAir2HitDrop"
          ],
          "DLAOMOCMANL": [
            "DoSkill"
          ]
        },
        "Struggle": {
          "$type": "IJOIMFMEGMM",
          "DLOHGBDFFGB": {
            "Struggle": []
          },
          "AJBLILDCLBO": [
            "BeHit",
            "HitAir2HitDrop"
          ],
          "DLAOMOCMANL": [
            "DoSkill"
          ]
        },
        "Die": {
          "$type": "IJOIMFMEGMM",
          "DLOHGBDFFGB": {
            "Die_01": [
              "Audio_Monster_Hilistray_Water_01_Die"
            ],
            "Die_02": [
              "Audio_Monster_Hilistray_Water_01_Die"
            ],
            "SwimDie": []
          },
          "AJBLILDCLBO": [
            "DoSkill"
          ]
        },
        "Die_RagDoll": {
          "$type": "IJOIMFMEGMM",
          "DLOHGBDFFGB": {
            "Die_RagDoll_01": [],
            "Die_RagDoll_02": [],
            "SwimDie_Ragdoll": [],
            "AirDie": [
              "Audio_Monster_Hilistray_Water_01_HitThrow"
            ]
          },
          "AJBLILDCLBO": [
            "DoSkill"
          ],
          "CPOLOGIELCD": true
        },
        "Alert": {
          "$type": "IJOIMFMEGMM",
          "DLOHGBDFFGB": {
            "Alert": [
              "Monster_Hilistray_Water_Alert",
              "Audio_Monster_Hilistray_Water_01_Alert"
            ]
          },
          "DLAOMOCMANL": [
            "BeHit",
            "DoSkill"
          ]
        },
        "Life_Guard": {
          "$type": "IJOIMFMEGMM",
          "DLOHGBDFFGB": {
            "Guard": [
              "Audio_Monster_Hilistray_Water_01_Guard"
            ]
          },
          "POLKCLOHPOO": true,
          "DLAOMOCMANL": [
            "BeHit",
            "DoSkill"
          ]
        },
        "Life_Box": {
          "$type": "IJOIMFMEGMM",
          "DLOHGBDFFGB": {
            "Box": [
              "Audio_Monster_Hilistray_Water_01_Box"
            ]
          },
          "POLKCLOHPOO": true,
          "DLAOMOCMANL": [
            "BeHit",
            "DoSkill"
          ]
        },
        "Life_Sleepy": {
          "$type": "IJOIMFMEGMM",
          "DLOHGBDFFGB": {
            "Sleepy": [
              "Audio_Monster_Hilistray_Water_01_Sleepy"
            ]
          },
          "POLKCLOHPOO": true,
          "DLAOMOCMANL": [
            "BeHit",
            "DoSkill"
          ]
        },
        "Life_LookUp": {
          "$type": "IJOIMFMEGMM",
          "DLOHGBDFFGB": {
            "LookUp": [
              "Audio_Monster_Hilistray_Water_01_LookUp"
            ]
          },
          "POLKCLOHPOO": true,
          "DLAOMOCMANL": [
            "BeHit",
            "DoSkill"
          ]
        },
        "Life_Approval": {
          "$type": "IJOIMFMEGMM",
          "DLOHGBDFFGB": {
            "Approval": []
          },
          "POLKCLOHPOO": true,
          "DLAOMOCMANL": [
            "BeHit",
            "DoSkill"
          ]
        },
        "SickleAtk01": {
          "$type": "IJOIMFMEGMM",
          "DLOHGBDFFGB": {
            "SickleAtk01": [
              "Monster_Hilistray_Water_SickleAtk01",
              "Audio_Monster_Hilistray_Water_01_SickleAtk01"
            ]
          },
          "DLAOMOCMANL": [
            "BeHit",
            "DoSkill"
          ],
          "LIPMJPLGIKD": true
        },
        "SickleAtk02": {
          "$type": "IJOIMFMEGMM",
          "DLOHGBDFFGB": {
            "SickleAtk02": [
              "Monster_Hilistray_Water_SickleAtk02",
              "Audio_Monster_Hilistray_Water_01_SickleAtk02"
            ]
          },
          "DLAOMOCMANL": [
            "BeHit",
            "DoSkill"
          ],
          "LIPMJPLGIKD": true
        },
        "SpearAtk": {
          "$type": "IJOIMFMEGMM",
          "DLOHGBDFFGB": {
            "SpearAtk": [
              "Monster_Hilistray_Water_SpearAtk",
              "Audio_Monster_Hilistray_Water_01_SpearAtk"
            ]
          },
          "PGKCBIHGAOC": true,
          "DLAOMOCMANL": [
            "BeHit",
            "DoSkill"
          ],
          "LIPMJPLGIKD": true
        },
        "RushAtk_BS": {
          "$type": "IJOIMFMEGMM",
          "DLOHGBDFFGB": {
            "RushAtk_BS": [
              "Monster_Hilistray_Water_RushAtk_BS",
              "Audio_Monster_Hilistray_Water_01_RushAtk_BS"
            ]
          },
          "DLAOMOCMANL": [
            "BeHit",
            "DoSkill"
          ],
          "LIPMJPLGIKD": true
        },
        "RushAtk_Loop": {
          "$type": "IJOIMFMEGMM",
          "DLOHGBDFFGB": {
            "RushAtk_Loop": [
              "Audio_Monster_Hilistray_Water_01_RushAtk_Loop"
            ]
          },
          "PGKCBIHGAOC": true,
          "DLAOMOCMANL": [
            "BeHit",
            "DoSkill"
          ],
          "LIPMJPLGIKD": true
        },
        "RushAtk_AS": {
          "$type": "IJOIMFMEGMM",
          "DLOHGBDFFGB": {
            "RushAtk_AS": [
              "Monster_Hilistray_Water_RushAtk_AS",
              "Audio_Monster_Hilistray_Water_01_RushAtk_AS"
            ]
          },
          "DLAOMOCMANL": [
            "BeHit",
            "DoSkill"
          ],
          "LIPMJPLGIKD": true
        },
        "SlimeAtk": {
          "$type": "IJOIMFMEGMM",
          "DLOHGBDFFGB": {
            "SlimeAtk": [
              "Monster_Hilistray_Water_SlimeAtk_Bullet",
              "Audio_Monster_Hilistray_Water_01_SlimeAtk"
            ]
          },
          "DLAOMOCMANL": [
            "BeHit",
            "DoSkill"
          ],
          "LIPMJPLGIKD": true
        },
        "SpecialAtk": {
          "$type": "IJOIMFMEGMM",
          "DLOHGBDFFGB": {
            "SpecialAtk_BS": [
              "Monster_Hilistray_Water_SpecialAtk_BS",
              "Audio_Monster_Hilistray_Water_01_SpecialAtk_BS"
            ],
            "SpecialAtk_Loop": [
              "Monster_Hilistray_Water_SpecialAtk_Bubble",
              "Audio_Monster_Hilistray_Water_01_SpecialAtk_Loop"
            ],
            "SpecialAtk_AS": [
              "Audio_Monster_Hilistray_Water_01_SpecialAtk_AS"
            ]
          },
          "DLAOMOCMANL": [
            "BeHit",
            "DoSkill"
          ],
          "LIPMJPLGIKD": true
        },
        "SpecialAtkEnd": {
          "$type": "IJOIMFMEGMM",
          "DLOHGBDFFGB": {
            "SpecialAtkEnd": [
              "Monster_Hilistray_Water_SpecialAtkEnd",
              "Audio_Monster_Hilistray_Water_01_SpecialAtk_End"
            ]
          },
          "DLAOMOCMANL": [
            "BeHit",
            "DoSkill"
          ],
          "LIPMJPLGIKD": true
        }
      }
    }
  },
  "billboard": {
    "$type": "PAOBAEKGGBC",
    "attachPoint": "BillboardAttach",
    "offset": {
      "y": 0.25
    },
    "EMFFJPOKEKF": "Character",
    "LOMMBJLKPHE": 1.0,
    "KGHAGECNJPO": true,
    "musicSubStates": "Big"
  },
  "initialPoses": {
    "Default": {
      "initialPoseID": 101,
      "initialPoseParams": {
        "boolParams": {
          "Box": "false",
          "Sit": "false",
          "Teach": "false"
        }
      }
    },
    "Box": {
      "initialPoseID": 9001,
      "initialPoseParams": {
        "boolParams": {
          "Box": "true"
        }
      }
    },
    "Sit": {
      "initialPoseID": 9002,
      "initialPoseParams": {
        "boolParams": {
          "Sit": "true"
        }
      }
    },
    "Teach": {
      "initialPoseID": 9003,
      "initialPoseParams": {
        "boolParams": {
          "Teach": "true"
        }
      }
    }
  },
  "aibeta": {
    "enable": true,
    "sensing": {
      "settings": {
        "DefaultSetting": {
          "viewRange": 25.0,
          "feelRange": 10.0
        },
        "Sit": {
          "viewRange": 15.0,
          "feelRange": 8.0
        },
        "Teach": {
          "viewRange": 12.0,
          "feelRange": 7.0
        }
      },
      "templates": {
        "DefaultTemplate": {
          "DefaultPoses": "DefaultSetting"
        },
        "SitTemplate": {
          "DefaultPoses": "Sit"
        },
        "TeachTemplate": {
          "DefaultPoses": "Teach"
        }
      }
    },
    "neurons": {
      "DefaultSetting": [
        "HIT"
      ]
    },
    "threat": {
      "clearThreatByLostPath": true,
      "viewAttenuation": [
        {
          "x": 10.0,
          "y": 2.0
        },
        {
          "x": 15.0,
          "y": 0.800000011920929
        },
        {
          "x": 20.0,
          "y": 0.5
        },
        {
          "x": 25.0,
          "y": 0.30000001192092896
        },
        {
          "x": 30.0,
          "y": 0.20000000298023224
        }
      ],
      "resistTauntLevel": "Monster_TauntLevel_2",
      "JGFOPCOIJOI": ""
    },
    "defendArea": {
      "defendRange": 50.0
    },
    "profiling": {
      "staticPoses": [
        9002,
        9003
      ]
    },
    "network": {
      "syncSkill": true
    },
    "skillGroupCDConfigs": [
      {
        "skillGroupCDID": 0,
        "skillGroupCDTime": 5.0
      },
      {
        "skillGroupCDID": 1,
        "skillGroupCDTime": 10.0
      },
      {
        "skillGroupCDID": 2,
        "skillGroupCDTime": 5.0
      }
    ],
    "skillSetting": {
      "skillEliteSet": {
        "0": [
          602,
          603
        ],
        "1": [
          604,
          605
        ]
      }
    },
    "skills": {
      "101": {
        "name": "OnAlert",
        "skillType": "OnAlert",
        "faceTarget": true,
        "publicCDGroup": "",
        "ignoreGCD": true,
        "triggerGCD": false,
        "HGAMDGAEIGO": "",
        "stateIDs": [
          "Alert"
        ],
        "skillQueryingTime": 3.0,
        "flagTargetReachable": "10",
        "flagSelfOnTemplateCollider": "01",
        "flagSelfInZone": "10",
        "flagTargetInZone": "11"
      },
      "111": {
        "name": "Life_Guard",
        "skillType": "Free",
        "castCondition": {
          "pose": [
            101
          ]
        },
        "cd": 15.0,
        "cdUpperRange": 25.0,
        "initialCD": 10.0,
        "initialCDUpperRange": 25.0,
        "publicCDGroup": "",
        "HGAMDGAEIGO": "",
        "stateIDs": [
          "Life_Guard"
        ],
        "flagTargetReachable": "10",
        "flagSelfOnTemplateCollider": "01",
        "flagSelfInZone": "10",
        "flagTargetInZone": "11"
      },
      "121": {
        "name": "Life_Box",
        "skillType": "Free",
        "castCondition": {
          "pose": [
            9001
          ]
        },
        "cd": 12.5,
        "cdUpperRange": 25.0,
        "initialCD": 5.0,
        "initialCDUpperRange": 5.0,
        "publicCDGroup": "",
        "HGAMDGAEIGO": "",
        "stateIDs": [
          "Life_Box"
        ],
        "flagTargetReachable": "10",
        "flagSelfOnTemplateCollider": "01",
        "flagSelfInZone": "10",
        "flagTargetInZone": "11"
      },
      "131": {
        "name": "Life_Sleepy",
        "skillType": "Free",
        "castCondition": {
          "pose": [
            9002
          ]
        },
        "cd": 20.0,
        "cdUpperRange": 25.0,
        "initialCD": 10.0,
        "initialCDUpperRange": 5.0,
        "publicCDGroup": "",
        "skillGroupCDID": 1,
        "HGAMDGAEIGO": "",
        "stateIDs": [
          "Life_Sleepy"
        ],
        "flagTargetReachable": "10",
        "flagSelfOnTemplateCollider": "01",
        "flagSelfInZone": "10",
        "flagTargetInZone": "11"
      },
      "141": {
        "name": "Life_LookUp",
        "skillType": "Free",
        "castCondition": {
          "pose": [
            9002
          ]
        },
        "cd": 20.0,
        "cdUpperRange": 15.0,
        "initialCD": 5.0,
        "publicCDGroup": "",
        "skillGroupCDID": 1,
        "HGAMDGAEIGO": "",
        "stateIDs": [
          "Life_LookUp"
        ],
        "flagTargetReachable": "10",
        "flagSelfOnTemplateCollider": "01",
        "flagSelfInZone": "10",
        "flagTargetInZone": "11"
      },
      "151": {
        "name": "Life_Approval",
        "skillType": "Free",
        "castCondition": {
          "pose": [
            9003
          ]
        },
        "cd": 12.5,
        "cdUpperRange": 10.0,
        "initialCD": 5.0,
        "initialCDUpperRange": 5.0,
        "publicCDGroup": "",
        "HGAMDGAEIGO": "",
        "stateIDs": [
          "Life_Approval"
        ],
        "flagTargetReachable": "10",
        "flagSelfOnTemplateCollider": "01",
        "flagSelfInZone": "10",
        "flagTargetInZone": "11"
      },
      "201": {
        "name": "SickleAtk01",
        "combatSkillType": "MeleeAttack",
        "priority": 2,
        "castCondition": {
          "pose": [
            201
          ],
          "pickRangeMax": 5.5,
          "castRangeMax": 5.5
        },
        "cd": 1.5,
        "cdUpperRange": 5.0,
        "initialCD": 1.0,
        "initialCDUpperRange": 4.0,
        "publicCDGroup": "",
        "skillGroupCDID": 0,
        "HGAMDGAEIGO": "",
        "stateIDs": [
          "SickleAtk01"
        ],
        "skillQueryingTime": 3.0,
        "flagTargetReachable": "10",
        "flagSelfOnTemplateCollider": "01",
        "flagSelfInZone": "11",
        "flagTargetInZone": "11"
      },
      "202": {
        "name": "SickleAtk01",
        "combatSkillType": "MeleeAttack",
        "priority": 3,
        "castCondition": {
          "pose": [
            201
          ],
          "pickRangeMin": 5.5,
          "pickRangeMax": 10.5,
          "castRangeMin": 5.5,
          "castRangeMax": 10.5
        },
        "cd": 4.5,
        "cdUpperRange": 5.0,
        "initialCD": 1.0,
        "initialCDUpperRange": 4.0,
        "publicCDGroup": "",
        "skillGroupCDID": 0,
        "HGAMDGAEIGO": "",
        "stateIDs": [
          "SickleAtk01"
        ],
        "skillQueryingTime": 3.0,
        "flagTargetReachable": "10",
        "flagSelfOnTemplateCollider": "01",
        "flagSelfInZone": "11",
        "flagTargetInZone": "11"
      },
      "211": {
        "name": "SickleAtk02",
        "combatSkillType": "MeleeAttack",
        "priority": 3,
        "castCondition": {
          "pose": [
            201
          ],
          "pickRangeMax": 5.0,
          "castRangeMax": 5.0
        },
        "cd": 5.0,
        "cdUpperRange": 5.0,
        "initialCD": 4.0,
        "initialCDUpperRange": 4.0,
        "publicCDGroup": "",
        "HGAMDGAEIGO": "",
        "stateIDs": [
          "SickleAtk02"
        ],
        "skillQueryingTime": 3.0,
        "flagTargetReachable": "10",
        "flagSelfOnTemplateCollider": "01",
        "flagSelfInZone": "11",
        "flagTargetInZone": "11"
      },
      "212": {
        "name": "SickleAtk02",
        "combatSkillType": "MeleeAttack",
        "priority": 3,
        "castCondition": {
          "pose": [
            201
          ],
          "pickRangeMin": 5.0,
          "pickRangeMax": 9.0,
          "castRangeMin": 5.0,
          "castRangeMax": 9.0
        },
        "cd": 5.0,
        "cdUpperRange": 5.0,
        "initialCD": 4.0,
        "initialCDUpperRange": 4.0,
        "publicCDGroup": "",
        "HGAMDGAEIGO": "",
        "stateIDs": [
          "SickleAtk02"
        ],
        "skillQueryingTime": 3.0,
        "flagTargetReachable": "10",
        "flagSelfOnTemplateCollider": "01",
        "flagSelfInZone": "11",
        "flagTargetInZone": "11"
      },
      "301": {
        "name": "SpearAtk",
        "combatSkillType": "MeleeAttack",
        "priority": 3,
        "castCondition": {
          "pose": [
            201
          ],
          "pickRangeMax": 7.5,
          "pickRangeYMax": 3.5,
          "castRangeMax": 5.5
        },
        "cd": 5.0,
        "cdUpperRange": 5.0,
        "initialCD": 1.0,
        "initialCDUpperRange": 4.0,
        "publicCDGroup": "",
        "skillGroupCDID": 0,
        "HGAMDGAEIGO": "",
        "stateIDs": [
          "SpearAtk"
        ],
        "skillQueryingTime": 3.0,
        "flagTargetReachable": "11",
        "flagSelfOnTemplateCollider": "01",
        "flagSelfInZone": "11",
        "flagTargetInZone": "11"
      },
      "302": {
        "name": "SpearAtk",
        "combatSkillType": "MeleeAttack",
        "priority": 2,
        "castCondition": {
          "pose": [
            201
          ],
          "pickRangeMin": 6.5,
          "pickRangeMax": 9.0,
          "pickRangeYMax": 3.5,
          "castRangeMin": 6.5,
          "castRangeMax": 9.0
        },
        "cd": 5.0,
        "cdUpperRange": 5.0,
        "initialCD": 1.0,
        "initialCDUpperRange": 4.0,
        "publicCDGroup": "",
        "skillGroupCDID": 0,
        "HGAMDGAEIGO": "",
        "stateIDs": [
          "SpearAtk"
        ],
        "skillQueryingTime": 3.0,
        "flagTargetReachable": "11",
        "flagSelfOnTemplateCollider": "01",
        "flagSelfInZone": "11",
        "flagTargetInZone": "11"
      },
      "401": {
        "name": "RushAtk",
        "combatSkillType": "MeleeAttack",
        "priority": 3,
        "castCondition": {
          "pose": [
            201
          ],
          "pickRangeMin": 5.0,
          "pickRangeMax": 10.0,
          "castRangeMin": 5.0,
          "castRangeMax": 10.0
        },
        "cd": 7.0,
        "cdUpperRange": 5.0,
        "initialCD": 1.0,
        "initialCDUpperRange": 4.0,
        "publicCDGroup": "",
        "HGAMDGAEIGO": "",
        "stateIDs": [
          "RushAtk_BS",
          "RushAtk_Loop",
          "RushAtk_AS"
        ],
        "skillQueryingTime": 3.0,
        "flagTargetReachable": "10",
        "flagSelfOnTemplateCollider": "01",
        "flagSelfInZone": "11",
        "flagTargetInZone": "11"
      },
      "402": {
        "name": "RushAtk",
        "combatSkillType": "MeleeAttack",
        "priority": 2,
        "castCondition": {
          "pose": [
            201
          ],
          "pickRangeMin": 10.0,
          "pickRangeMax": 15.0,
          "castRangeMin": 10.0,
          "castRangeMax": 15.0
        },
        "cd": 7.0,
        "cdUpperRange": 5.0,
        "initialCD": 1.0,
        "initialCDUpperRange": 4.0,
        "publicCDGroup": "",
        "HGAMDGAEIGO": "",
        "stateIDs": [
          "RushAtk_BS",
          "RushAtk_Loop",
          "RushAtk_AS"
        ],
        "skillQueryingTime": 3.0,
        "flagTargetReachable": "10",
        "flagSelfOnTemplateCollider": "01",
        "flagSelfInZone": "11",
        "flagTargetInZone": "11"
      },
      "501": {
        "name": "SlimeAtk",
        "combatSkillType": "MeleeAttack",
        "priority": 3,
        "castCondition": {
          "pose": [
            201
          ],
          "pickRangeMin": 5.5,
          "pickRangeMax": 11.5,
          "castRangeMin": 5.5,
          "castRangeMax": 11.5
        },
        "cd": 5.0,
        "cdUpperRange": 5.0,
        "initialCD": 1.0,
        "initialCDUpperRange": 4.0,
        "publicCDGroup": "",
        "skillGroupCDID": 0,
        "HGAMDGAEIGO": "",
        "stateIDs": [
          "SlimeAtk"
        ],
        "skillQueryingTime": 3.0,
        "flagTargetReachable": "11",
        "flagSelfOnTemplateCollider": "01",
        "flagSelfInZone": "11",
        "flagTargetInZone": "11"
      },
      "502": {
        "name": "SlimeAtk",
        "combatSkillType": "MeleeAttack",
        "priority": 4,
        "castCondition": {
          "pose": [
            201
          ],
          "pickRangeMin": 11.5,
          "pickRangeMax": 16.5,
          "castRangeMin": 11.5,
          "castRangeMax": 16.5
        },
        "cd": 12.5,
        "cdUpperRange": 5.0,
        "initialCD": 1.0,
        "initialCDUpperRange": 4.0,
        "publicCDGroup": "",
        "skillGroupCDID": 0,
        "HGAMDGAEIGO": "",
        "stateIDs": [
          "SlimeAtk"
        ],
        "skillQueryingTime": 3.0,
        "flagTargetReachable": "11",
        "flagSelfOnTemplateCollider": "01",
        "flagSelfInZone": "11",
        "flagTargetInZone": "11"
      },
      "601": {
        "name": "SpecialAtk",
        "combatSkillType": "MeleeAttack",
        "priority": 1,
        "castCondition": {
          "pose": [
            201
          ]
        },
        "cd": 7.5,
        "cdUpperRange": 5.0,
        "initialCD": 1.0,
        "initialCDUpperRange": 4.0,
        "publicCDGroup": "Hilistray_Water_SpecialAtk",
        "skillGroupCDID": 2,
        "HGAMDGAEIGO": "",
        "stateIDs": [
          "SpecialAtk",
          "SpecialAtkEnd"
        ],
        "skillQueryingTime": 3.0,
        "flagTargetReachable": "01",
        "flagSelfOnTemplateCollider": "01",
        "flagSelfInZone": "11",
        "flagTargetInZone": "11"
      },
      "602": {
        "name": "SpecialAtk",
        "combatSkillType": "MeleeAttack",
        "priority": 2,
        "castCondition": {
          "pose": [
            201
          ],
          "pickRangeMin": 10.5,
          "pickRangeMax": 25.5,
          "castRangeMin": 10.5,
          "castRangeMax": 25.5
        },
        "cd": 10.5,
        "cdUpperRange": 5.0,
        "initialCD": 12.5,
        "initialCDUpperRange": 5.0,
        "publicCDGroup": "Hilistray_Water_SpecialAtk",
        "skillGroupCDID": 2,
        "HGAMDGAEIGO": "",
        "stateIDs": [
          "SpecialAtk",
          "SpecialAtkEnd"
        ],
        "skillQueryingTime": 3.0,
        "flagTargetReachable": "10",
        "flagSelfOnTemplateCollider": "01",
        "flagSelfInZone": "11",
        "flagTargetInZone": "11"
      },
      "603": {
        "name": "SpecialAtk",
        "combatSkillType": "MeleeAttack",
        "priority": 1,
        "castCondition": {
          "pose": [
            201
          ],
          "pickRangeMin": 10.5,
          "pickRangeMax": 25.5,
          "pickRangeYMin": 2.0,
          "castRangeMin": 10.5,
          "castRangeMax": 25.5
        },
        "cd": 12.5,
        "cdUpperRange": 2.0,
        "initialCD": 5.0,
        "publicCDGroup": "Hilistray_Water_SpecialAtk",
        "skillGroupCDID": 2,
        "HGAMDGAEIGO": "",
        "stateIDs": [
          "SpecialAtk",
          "SpecialAtkEnd"
        ],
        "skillQueryingTime": 3.0,
        "flagTargetReachable": "10",
        "flagSelfOnTemplateCollider": "01",
        "flagSelfInZone": "11",
        "flagTargetInZone": "11"
      },
      "604": {
        "name": "SpecialAtk",
        "combatSkillType": "MeleeAttack",
        "priority": 1,
        "castCondition": {
          "pose": [
            201
          ],
          "pickRangeMin": 10.5,
          "pickRangeMax": 25.5,
          "castRangeMin": 10.5,
          "castRangeMax": 25.5
        },
        "cd": 10.0,
        "cdUpperRange": 2.0,
        "initialCD": 1.0,
        "publicCDGroup": "Hilistray_Water_SpecialAtk",
        "skillGroupCDID": 2,
        "HGAMDGAEIGO": "",
        "stateIDs": [
          "SpecialAtk",
          "SpecialAtkEnd"
        ],
        "skillQueryingTime": 3.0,
        "flagTargetReachable": "10",
        "flagSelfOnTemplateCollider": "01",
        "flagSelfInZone": "11",
        "flagTargetInZone": "11"
      },
      "605": {
        "name": "SpecialAtk",
        "combatSkillType": "MeleeAttack",
        "priority": 1,
        "castCondition": {
          "pose": [
            201
          ],
          "pickRangeMin": 10.5,
          "pickRangeMax": 25.5,
          "pickRangeYMin": 2.0,
          "castRangeMin": 10.5,
          "castRangeMax": 25.5
        },
        "cd": 10.0,
        "cdUpperRange": 2.0,
        "initialCD": 1.0,
        "publicCDGroup": "Hilistray_Water_SpecialAtk",
        "skillGroupCDID": 2,
        "HGAMDGAEIGO": "",
        "stateIDs": [
          "SpecialAtk",
          "SpecialAtkEnd"
        ],
        "skillQueryingTime": 3.0,
        "flagTargetReachable": "10",
        "flagSelfOnTemplateCollider": "01",
        "flagSelfInZone": "11",
        "flagTargetInZone": "11"
      }
    },
    "skillGCD": 3.0,
    "combatFixedMoveTactic": [
      {
        "$type": "DIIPKNMAPAC",
        "enable": true,
        "FJANPNOAAFK": {
          "pose": [
            201
          ]
        },
        "LMMKNFEMOMG": {
          "rangeMax": 8.0,
          "AJCEMHKIMHA": 2.0,
          "JNMPGLIADPP": 4.0,
          "CCMODCEDODH": 3.0,
          "MMKHHBIBJEN": {},
          "HEGPGPBKGFH": "1111",
          "AFCLIFKCEKM": "1111",
          "JOCOJHEICNA": ""
        }
      },
      {
        "$type": "BNAGECKMCIB",
        "enable": true,
        "FJANPNOAAFK": {
          "pose": [
            201
          ]
        },
        "LMMKNFEMOMG": {
          "MPEMBMLOEDG": 25.0,
          "IJLGPEJGLEH": 50.0,
          "JKOGPCLFHCP": 8.0,
          "IHCAFCNDANA": 14.0,
          "JOCOJHEICNA": ""
        }
      },
      {
        "$type": "KMHBGMELMKD",
        "enable": true,
        "LMMKNFEMOMG": {
          "GEAICNICJAJ": 1.2000000476837158,
          "CAKPKLGFOKB": 4.199999809265137,
          "JOCOJHEICNA": "",
          "DBIELIMGBMC": ""
        }
      },
      {
        "$type": "GGKADEIBMLG",
        "enable": true,
        "FJANPNOAAFK": {
          "pose": [
            101,
            9001
          ]
        },
        "LMMKNFEMOMG": {
          "GEAICNICJAJ": 0.699999988079071,
          "JIFJFPJANHO": 7.0,
          "CBKHBGCPFBG": 5.0,
          "EKDHNAGGGAE": 10.0,
          "BFEJAKFKKFP": 3.0,
          "KOAMKCEFJED": 5.0,
          "JOCOJHEICNA": ""
        }
      }
    ]
  },
  "inputKeys": [
    {
      "keyID": 101,
      "inputKeyCode": 257,
      "abilityName": ""
    },
    {
      "keyID": 201,
      "inputKeyCode": 258,
      "abilityName": ""
    },
    {
      "keyID": 211,
      "inputKeyCode": 259,
      "abilityName": ""
    },
    {
      "keyID": 301,
      "inputKeyCode": 260,
      "abilityName": ""
    },
    {
      "keyID": 401,
      "inputKeyCode": 261,
      "abilityName": ""
    },
    {
      "keyID": 501,
      "inputKeyCode": 262,
      "abilityName": ""
    },
    {
      "keyID": 601,
      "inputKeyCode": 263,
      "abilityName": ""
    }
  ],
  "move": {
    "$type": "IIGPJJNGCLE",
    "MIPNOGBEANL": "FourDirection",
    "BEPOPLDKJOP": "StoopType",
    "EKMHGNLHCNM": 4.0,
    "FACNOEFNHIB": "RootNode"
  },
  "audio": {
    "KEEAIACIJBN": "",
    "animAudio": {},
    "disableEvent": {
      "text": ""
    },
    "destroyEvent": {
      "text": ""
    },
    "randomVariantSwitchGroup": {
      "text": ""
    },
    "randomVariantSwitchValues": [
      {
        "text": ""
      }
    ]
  }
}