{
  "common": {
    "effectAttachShape": {
      "$type": "DPGKNHENGLM",
      "DDDEJPIFECG": "EffectMesh"
    },
    "mass": 30.0,
    "affectedByWorld": true,
    "checkInSurface": true,
    "scale": 1.2000000476837158,
    "useGrassDisplacement": true
  },
  "headControl": {
    "$type": "NJIKCGBDNDF",
    "useHeadControl": true,
    "FDPCOFKGCHG": [
      "NormalIdle/Standby",
      "NormalMove/WalkForward",
      "NormalMove/WalkBack",
      "NormalMove/WalkRight",
      "NormalMove/WalkLeft",
      "NormalMove/Run",
      "Turn/TurnLeft",
      "Turn/TurnRight"
    ]
  },
  "model": {
    "bornEffect": "Eff_Monster_Common_Born",
    "attachEffect": ""
  },
  "combat": {
    "property": {
      "endureType": "Monster_Minion",
      "weight": 75.0
    },
    "beHit": {
      "hitBloodEffect": ""
    },
    "combatLock": {
      "lockShape": "CircleLockEnemy",
      "lockType": "Avatar&Monster_Lv4"
    },
    "die": {
      "hasAnimatorDie": true,
      "dieEndTime": 2.0,
      "dieForceDisappearTime": 4.0,
      "dieDisappearEffect": "Eff_Death_Common",
      "dieShaderData": "MonsterDie",
      "useRagDoll": true,
      "muteHitBox": true,
      "dieDenyLockOn": true,
      "dieIsGhostToEnemy": true,
      "dieIgnoreTriggerBullet": true,
      "muteBillboard": true,
      "mutePushCollider": true
    },
    "animEvents": {
      "AtkNo": {
        "attackPattern": {
          "$type": "AGJFCPDIMCK",
          "triggerType": "TriggerNoRepeat",
          "born": {
            "$type": "NKOODKOFELF",
            "offset": {
              "GNGDNIIPPNL": 0.0,
              "GIIMFINHIED": 0.0,
              "CLBCHJICOKH": -0.5
            }
          },
          "IAMPMDAOKJL": 60.0,
          "LOACHGCADCO": 1.5
        },
        "attackInfo": {
          "attackTag": "",
          "attenuationTag": "",
          "attenuationGroup": "default",
          "attackProperty": {
            "HOGNHNAHNML": 0.3330000042915344,
            "BAPILBAGBOJ": 0.0,
            "bonusCriticalHurt": 100.0,
            "strikeType": "Blunt",
            "attackType": "Melee",
            "damagePercentage": 0.0
          },
          "hitPattern": {
            "onHitEffectName": "default",
            "hitImpulseType": "LV2",
            "hitHaltTimeScale": 0.009999999776482582
          }
        }
      }
    }
  },
  "equipController": {
    "sheathPoint": "",
    "attachPoints": {
      "equip01": "WeaponR",
      "equip02": "WeaponL"
    }
  },
  "abilities": [
    {
      "abilityID": "Alert",
      "abilityName": "Hili_None_Alert",
      "abilityOverride": "",
      "lightWeightRemove": true
    },
    {
      "abilityID": "AwakeAlert",
      "abilityName": "Hili_None_AwakeAlert",
      "abilityOverride": "",
      "lightWeightRemove": true
    },
    {
      "abilityID": "FireArrow",
      "abilityName": "Hili_Electric_ShootArrow_WithRandom",
      "abilityOverride": ""
    },
    {
      "abilityID": "ThrowPebble",
      "abilityName": "Hili_None_ThrowPebble",
      "abilityOverride": ""
    },
    {
      "abilityID": "Hili_None_SpecialsState_Weapon",
      "abilityName": "Hili_None_SpecialsState_Weapon",
      "abilityOverride": "",
      "lightWeightRemove": true
    },
    {
      "abilityID": "SpecialsState_AIStateInitial",
      "abilityName": "Hili_None_SpecialsState_AIStateInitial",
      "abilityOverride": "",
      "lightWeightRemove": true
    },
    {
      "abilityID": "EquipFlagManager",
      "abilityName": "Hili_None_EquipFlagManager",
      "abilityOverride": ""
    },
    {
      "abilityID": "Hili_ActionPointRegister",
      "abilityName": "Hili_None_ActionPointRegister",
      "abilityOverride": "",
      "lightWeightRemove": true
    },
    {
      "abilityID": "TurnToSleep",
      "abilityName": "Hili_None_TurnToSleep",
      "abilityOverride": "",
      "lightWeightRemove": true
    },
    {
      "abilityID": "OutOfSleep",
      "abilityName": "Hili_None_OutOfSleep",
      "abilityOverride": "",
      "lightWeightRemove": true
    },
    {
      "abilityID": "TurnToSit",
      "abilityName": "Hili_None_TurnToSit",
      "abilityOverride": "",
      "lightWeightRemove": true
    },
    {
      "abilityID": "OutOfSit",
      "abilityName": "Hili_None_OutOfSit",
      "abilityOverride": "",
      "lightWeightRemove": true
    },
    {
      "abilityID": "TurnToPractice",
      "abilityName": "Hili_None_TurnToPractice",
      "abilityOverride": "",
      "lightWeightRemove": true
    },
    {
      "abilityID": "OutOfPractice",
      "abilityName": "Hili_None_OutOfPractice",
      "abilityOverride": "",
      "lightWeightRemove": true
    },
    {
      "abilityID": "",
      "abilityName": "Hili_None_SpecialsState_HideWeapon",
      "abilityOverride": "",
      "lightWeightRemove": true
    }
  ],
  "stateLayers": {
    "defaultLayer": {
      "$type": "EPAPJJAGHKG",
      "ACOCIAFGIAD": "",
      "stateIDs": {
        "NormalIdle": {
          "$type": "IJOIMFMEGMM",
          "DLOHGBDFFGB": {
            "Standby": [],
            "Born": []
          },
          "POLKCLOHPOO": true,
          "PGKCBIHGAOC": true,
          "DLAOMOCMANL": [
            "DoSkill"
          ]
        },
        "NormalMove": {
          "$type": "IJOIMFMEGMM",
          "DLOHGBDFFGB": {
            "WalkForward": [
              "Audio_Hili_Walk"
            ],
            "WalkBack": [
              "Audio_Hili_Walk"
            ],
            "WalkRight": [
              "Audio_Hili_Walk"
            ],
            "WalkLeft": [
              "Audio_Hili_Walk"
            ],
            "Run": [
              "Audio_Hili_Run"
            ]
          },
          "POLKCLOHPOO": true,
          "PGKCBIHGAOC": true,
          "DLAOMOCMANL": [
            "DoSkill"
          ],
          "LIPMJPLGIKD": true
        },
        "Turn": {
          "$type": "IJOIMFMEGMM",
          "DLOHGBDFFGB": {
            "TurnLeft": [
              "Audio_Hili_Walk"
            ],
            "TurnRight": [
              "Audio_Hili_Walk"
            ]
          },
          "POLKCLOHPOO": true,
          "PGKCBIHGAOC": true,
          "DLAOMOCMANL": [
            "DoSkill"
          ],
          "LIPMJPLGIKD": true,
          "HMPOMAMKBEF": true
        },
        "BeHit": {
          "$type": "IJOIMFMEGMM",
          "DLOHGBDFFGB": {
            "Hit_L": [
              "Audio_Hili_Hit_L"
            ],
            "Hit_H": [
              "Audio_Hili_Hit_H"
            ]
          },
          "AJBLILDCLBO": [
            "BeHit"
          ],
          "DLAOMOCMANL": [
            "DoSkill"
          ]
        },
        "BeHitThrow": {
          "$type": "IJOIMFMEGMM",
          "DLOHGBDFFGB": {
            "HitThrow": [
              "Audio_Hili_Hit_Throw"
            ],
            "HitThrowDrop": [],
            "HitThrowToGround": [
              "Audio_Hili_Hit_ThrowToGround"
            ]
          },
          "AJBLILDCLBO": [
            "BeHit",
            "HitAir2HitDrop"
          ],
          "DLAOMOCMANL": [
            "DoSkill"
          ]
        },
        "Die": {
          "$type": "IJOIMFMEGMM",
          "DLOHGBDFFGB": {
            "SwimDie": [
              "Monster_Hili_None_Die",
              "Audio_Hili_SwimDie"
            ],
            "SwimDie_AS": [
              "Audio_Hili_SwimDie"
            ]
          }
        },
        "Die_RagDoll": {
          "$type": "IJOIMFMEGMM",
          "DLOHGBDFFGB": {
            "Die1": [
              "Monster_Hili_None_Die",
              "Audio_Hili_Die1"
            ],
            "Die2": [
              "Monster_Hili_None_Die",
              "Audio_Hili_Die2"
            ],
            "AirDie": [
              "Monster_Hili_None_Die",
              "Audio_Hili_Die1"
            ]
          },
          "CPOLOGIELCD": true
        },
        "Struggle": {
          "$type": "IJOIMFMEGMM",
          "DLOHGBDFFGB": {
            "Struggle": []
          },
          "AJBLILDCLBO": [
            "BeHit",
            "HitAir2HitDrop"
          ],
          "DLAOMOCMANL": [
            "DoSkill"
          ]
        },
        "Life_Alert": {
          "$type": "IJOIMFMEGMM",
          "DLOHGBDFFGB": {
            "Alert": []
          },
          "DLAOMOCMANL": [
            "BeHit",
            "DoSkill"
          ]
        },
        "Life_Warning": {
          "$type": "IJOIMFMEGMM",
          "DLOHGBDFFGB": {
            "Warning": [
              "Monster_Undead01_Warning",
              "Monster_Hili_None_Alert",
              "Audio_Hili_Warning"
            ]
          },
          "DLAOMOCMANL": [
            "BeHit",
            "DoSkill"
          ]
        },
        "Life_Talk": {
          "$type": "IJOIMFMEGMM",
          "DLOHGBDFFGB": {
            "Talk_Sit": []
          },
          "POLKCLOHPOO": true,
          "DLAOMOCMANL": [
            "BeHit",
            "DoSkill"
          ]
        },
        "TurnToSit": {
          "$type": "IJOIMFMEGMM",
          "DLOHGBDFFGB": {
            "TurnToSit": [
              "Monster_Hili_None_TurnToSit"
            ]
          },
          "POLKCLOHPOO": true,
          "DLAOMOCMANL": [
            "BeHit",
            "DoSkill"
          ]
        },
        "OutOfSit": {
          "$type": "IJOIMFMEGMM",
          "DLOHGBDFFGB": {
            "OutOfSit": [
              "Monster_Hili_None_OutOfSit"
            ]
          },
          "POLKCLOHPOO": true,
          "DLAOMOCMANL": [
            "BeHit",
            "DoSkill"
          ]
        },
        "Sit": {
          "$type": "IJOIMFMEGMM",
          "DLOHGBDFFGB": {
            "Sit": []
          },
          "POLKCLOHPOO": true,
          "PGKCBIHGAOC": true,
          "DLAOMOCMANL": [
            "DoSkill"
          ]
        },
        "SitFree01": {
          "$type": "IJOIMFMEGMM",
          "DLOHGBDFFGB": {
            "SitFree01": []
          },
          "POLKCLOHPOO": true,
          "DLAOMOCMANL": [
            "BeHit",
            "DoSkill"
          ]
        },
        "TurnToSleep": {
          "$type": "IJOIMFMEGMM",
          "DLOHGBDFFGB": {
            "TurnToSleep": [
              "Monster_Hili_None_TurnToSleep"
            ]
          },
          "POLKCLOHPOO": true,
          "DLAOMOCMANL": [
            "BeHit",
            "DoSkill"
          ]
        },
        "OutOfSleep": {
          "$type": "IJOIMFMEGMM",
          "DLOHGBDFFGB": {
            "OutOfSleep": [
              "Monster_Hili_None_OutOfSleep"
            ]
          },
          "POLKCLOHPOO": true,
          "DLAOMOCMANL": [
            "BeHit",
            "DoSkill"
          ]
        },
        "Sleep": {
          "$type": "IJOIMFMEGMM",
          "DLOHGBDFFGB": {
            "Sleep": [
              "Audio_Hili_Sleep"
            ]
          },
          "POLKCLOHPOO": true,
          "PGKCBIHGAOC": true,
          "DLAOMOCMANL": [
            "DoSkill"
          ]
        },
        "SleepFree01": {
          "$type": "IJOIMFMEGMM",
          "DLOHGBDFFGB": {
            "SleepFree01": []
          },
          "POLKCLOHPOO": true,
          "DLAOMOCMANL": [
            "BeHit",
            "DoSkill"
          ]
        },
        "SleepFree02": {
          "$type": "IJOIMFMEGMM",
          "DLOHGBDFFGB": {
            "SleepFree02": []
          },
          "POLKCLOHPOO": true,
          "DLAOMOCMANL": [
            "BeHit",
            "DoSkill"
          ]
        },
        "SleepFree03": {
          "$type": "IJOIMFMEGMM",
          "DLOHGBDFFGB": {
            "SleepFree03": []
          },
          "POLKCLOHPOO": true,
          "DLAOMOCMANL": [
            "BeHit",
            "DoSkill"
          ]
        },
        "TurnToPractice": {
          "$type": "IJOIMFMEGMM",
          "DLOHGBDFFGB": {
            "TurnToPractice": [
              "Monster_Hili_None_TurnToPractice"
            ]
          },
          "POLKCLOHPOO": true,
          "DLAOMOCMANL": [
            "BeHit",
            "DoSkill"
          ]
        },
        "OutOfPractice": {
          "$type": "IJOIMFMEGMM",
          "DLOHGBDFFGB": {
            "OutOfPractice": [
              "Monster_Hili_None_OutOfPractice"
            ]
          },
          "POLKCLOHPOO": true,
          "DLAOMOCMANL": [
            "BeHit",
            "DoSkill"
          ]
        },
        "Practice": {
          "$type": "IJOIMFMEGMM",
          "DLOHGBDFFGB": {
            "Practice": []
          },
          "POLKCLOHPOO": true,
          "PGKCBIHGAOC": true,
          "DLAOMOCMANL": [
            "DoSkill"
          ]
        },
        "Practice_Action": {
          "$type": "IJOIMFMEGMM",
          "DLOHGBDFFGB": {
            "Practice_NoWeapon": [
              "Audio_Hili_Practice_NoWeapon"
            ],
            "Practice_NoWeapon_Back": [],
            "Practice_Sword": [
              "Audio_Hili_Practice_Sword"
            ],
            "Practice_Sword_Back": [],
            "Practice_Shoot_Aim": [],
            "Practice_Shoot_Attack": []
          },
          "POLKCLOHPOO": true,
          "PGKCBIHGAOC": true,
          "DLAOMOCMANL": [
            "DoSkill"
          ]
        },
        "Life_AwakeAlertBS": {
          "$type": "IJOIMFMEGMM",
          "DLOHGBDFFGB": {
            "AwakeAlert_BS": [
              "Monster_Hili_None_AwakeAlert"
            ]
          },
          "DLAOMOCMANL": [
            "BeHit",
            "DoSkill",
            "AwakeAlert"
          ]
        },
        "Life_AwakeAlertAS": {
          "$type": "IJOIMFMEGMM",
          "DLOHGBDFFGB": {
            "AwakeAlert_AS": []
          },
          "POLKCLOHPOO": true,
          "DLAOMOCMANL": [
            "BeHit",
            "DoSkill"
          ]
        },
        "NoWeapon_Attack": {
          "$type": "IJOIMFMEGMM",
          "DLOHGBDFFGB": {
            "NoWeapon_Attack": [
              "Monster_Hili_None_NoWeaponAttack",
              "Audio_Hili_NormalAtk"
            ]
          },
          "DLAOMOCMANL": [
            "BeHit",
            "DoSkill"
          ]
        },
        "Aim": {
          "$type": "IJOIMFMEGMM",
          "DLOHGBDFFGB": {
            "Aim": []
          },
          "DLAOMOCMANL": [
            "BeHit",
            "DoSkill"
          ]
        },
        "Shoot": {
          "$type": "IJOIMFMEGMM",
          "DLOHGBDFFGB": {
            "Attack": [
              "Monster_Hili_Fire_Shoot_WithRandom",
              "Audio_Hili_Shoot_Atk"
            ]
          },
          "DLAOMOCMANL": [
            "BeHit",
            "DoSkill"
          ]
        },
        "ThrowPebble": {
          "$type": "IJOIMFMEGMM",
          "DLOHGBDFFGB": {
            "ThrowPebble": [
              "Monster_Hili_None_ThrowPebble",
              "Audio_Hili_ThrowPebble"
            ]
          },
          "DLAOMOCMANL": [
            "BeHit",
            "DoSkill"
          ]
        },
        "LearnBox": {
          "$type": "IJOIMFMEGMM",
          "DLOHGBDFFGB": {
            "LearnBox": []
          },
          "POLKCLOHPOO": true,
          "PGKCBIHGAOC": true,
          "DLAOMOCMANL": [
            "DoSkill"
          ]
        },
        "Life_LearnBox": {
          "$type": "IJOIMFMEGMM",
          "DLOHGBDFFGB": {
            "Boxing": []
          },
          "POLKCLOHPOO": true,
          "DLAOMOCMANL": [
            "BeHit",
            "DoSkill"
          ]
        }
      }
    }
  },
  "billboard": {
    "$type": "PAOBAEKGGBC",
    "attachPoint": "BillboardAttach",
    "offset": {
      "x": -0.05000000074505806
    },
    "EMFFJPOKEKF": "Character",
    "LOMMBJLKPHE": 0.25,
    "KGHAGECNJPO": true
  },
  "initialPoses": {
    "Default": {},
    "CrossBow_Fixed": {
      "initialPoseID": 32,
      "initialPoseParams": {
        "boolParams": {
          "CrossBow_Fixed": "true"
        }
      }
    },
    "Sleep": {
      "initialPoseID": 9002,
      "initialPoseParams": {
        "boolParams": {
          "Sleep": "true"
        }
      }
    },
    "Sit": {
      "initialPoseID": 9003,
      "initialPoseParams": {
        "boolParams": {
          "Sit": "true"
        }
      }
    },
    "Practice": {
      "initialPoseID": 9013,
      "initialPoseParams": {
        "boolParams": {
          "Practice": "true"
        }
      }
    },
    "LearnBox": {
      "initialPoseID": 9018,
      "initialPoseParams": {
        "boolParams": {
          "LearnBox": "true"
        }
      }
    }
  },
  "aibeta": {
    "enable": true,
    "sensing": {
      "settings": {
        "DefaultSetting": {
          "feelRange": 8.0
        },
        "HighAlert": {
          "viewRange": 40.0,
          "feelRange": 10.0
        },
        "Sleep": {
          "viewRange": 0.0,
          "feelRange": 3.0
        },
        "Sit": {
          "viewRange": 10.0
        },
        "HighFeel": {
          "viewRange": 40.0,
          "feelRange": 20.0
        },
        "LearnBox": {
          "viewRange": 10.0
        }
      },
      "templates": {
        "DefaultTemplate": {
          "DefaultPoses": "DefaultSetting",
          "9002": "Sleep",
          "9003": "Sit"
        },
        "HighAlertTemplate": {
          "DefaultPoses": "HighAlert",
          "9002": "Sleep",
          "9003": "Sit"
        },
        "HighFeelTemplate": {
          "DefaultPoses": "HighFeel",
          "9002": "Sleep",
          "9003": "Sit"
        }
      }
    },
    "neurons": {
      "DefaultSetting": [
        "HIT"
      ],
      "Sleep": [
        "HIT",
        "ASLEEP",
        "AWAKE"
      ],
      "Sit": [
        "HIT",
        "SIT"
      ],
      "Practice": [
        "HIT",
        "TRAIN"
      ]
    },
    "threat": {
      "clearThreatByLostPath": true,
      "clearThreatTimerByDistance": 3.0,
      "viewAttenuation": [
        {
          "x": 10.0,
          "y": 2.0
        },
        {
          "x": 15.0,
          "y": 0.800000011920929
        },
        {
          "x": 20.0,
          "y": 0.5
        },
        {
          "x": 25.0,
          "y": 0.30000001192092896
        },
        {
          "x": 30.0,
          "y": 0.20000000298023224
        }
      ],
      "JGFOPCOIJOI": ""
    },
    "defendArea": {},
    "profiling": {
      "staticPoses": [
        9002,
        9003
      ]
    },
    "skills": {
      "103": {
        "name": "OnAlert",
        "skillType": "OnAlert",
        "faceTarget": true,
        "publicCDGroup": "",
        "ignoreGCD": true,
        "triggerGCD": false,
        "HGAMDGAEIGO": "",
        "stateIDs": [
          "Life_Warning"
        ],
        "skillQueryingTime": 3.0,
        "flagTargetReachable": "10",
        "flagSelfOnTemplateCollider": "01",
        "flagSelfInZone": "10",
        "flagTargetInZone": "11"
      },
      "104": {
        "name": "OnAlert",
        "skillType": "OnNerve",
        "faceTarget": true,
        "castCondition": {
          "pose": [
            9003,
            9003,
            9013,
            9018
          ]
        },
        "publicCDGroup": "",
        "triggerGCD": false,
        "HGAMDGAEIGO": "",
        "stateIDs": [
          "Life_Warning"
        ],
        "skillQueryingTime": 3.0,
        "flagTargetReachable": "10",
        "flagSelfOnTemplateCollider": "01",
        "flagSelfInZone": "10",
        "flagTargetInZone": "11",
        "nerveTrigger": [
          "HIT"
        ]
      },
      "123": {
        "name": "Talk_Sit",
        "skillType": "Free",
        "castCondition": {
          "pose": [
            9003
          ]
        },
        "cd": 15.0,
        "cdUpperRange": 25.0,
        "initialCD": 15.0,
        "initialCDUpperRange": 25.0,
        "publicCDGroup": "",
        "HGAMDGAEIGO": "",
        "stateIDs": [
          "Life_Talk"
        ],
        "flagTargetReachable": "10",
        "flagSelfOnTemplateCollider": "01",
        "flagSelfInZone": "10",
        "flagTargetInZone": "11"
      },
      "201": {
        "name": "NoWeapon_Attack",
        "combatSkillType": "MeleeAttack",
        "enableSkillPrepare": true,
        "castCondition": {
          "pose": [
            101
          ],
          "pickRangeMin": 0.25,
          "pickRangeMax": 5.0,
          "castRangeMin": 1.25,
          "castRangeMax": 1.75
        },
        "cd": 2.5,
        "publicCDGroup": "",
        "HGAMDGAEIGO": "",
        "stateIDs": [
          "NoWeapon_Attack"
        ],
        "flagTargetReachable": "10",
        "flagSelfOnTemplateCollider": "01",
        "flagSelfInZone": "10",
        "flagTargetInZone": "11"
      },
      "202": {
        "name": "NoWeapon_Attack",
        "combatSkillType": "MeleeAttack",
        "castCondition": {
          "pose": [
            101
          ],
          "pickRangeMax": 1.75
        },
        "cd": 2.5,
        "publicCDGroup": "",
        "HGAMDGAEIGO": "",
        "stateIDs": [
          "NoWeapon_Attack"
        ],
        "flagTargetReachable": "10",
        "flagSelfOnTemplateCollider": "01",
        "flagSelfInZone": "01",
        "flagTargetInZone": "11"
      },
      "601": {
        "name": "RangedAttack",
        "combatSkillType": "RangedAttack",
        "faceTarget": true,
        "castCondition": {
          "pose": [
            301,
            302
          ],
          "pickRangeMin": 7.5,
          "pickRangeMax": 45.0
        },
        "cd": 5.0,
        "cdUpperRange": 2.0,
        "publicCDGroup": "",
        "HGAMDGAEIGO": "",
        "stateIDs": [
          "Aim",
          "Shoot"
        ],
        "flagTargetReachable": "11",
        "flagSelfOnTemplateCollider": "11",
        "flagSelfInZone": "11",
        "flagTargetInZone": "11"
      },
      "602": {
        "name": "RangedAttack",
        "combatSkillType": "RangedAttack",
        "faceTarget": true,
        "castCondition": {
          "pose": [
            301,
            302
          ],
          "pickRangeMax": 7.5
        },
        "cd": 1.0,
        "cdUpperRange": 2.0,
        "publicCDGroup": "",
        "HGAMDGAEIGO": "",
        "stateIDs": [
          "Aim",
          "Shoot"
        ],
        "flagTargetReachable": "11",
        "flagSelfOnTemplateCollider": "11",
        "flagSelfInZone": "11",
        "flagTargetInZone": "11"
      },
      "111": {
        "name": "TurnToSleep",
        "skillType": "ActionPoint",
        "castCondition": {
          "pose": [
            1,
            31,
            32
          ]
        },
        "publicCDGroup": "",
        "triggerGCD": false,
        "HGAMDGAEIGO": "",
        "stateIDs": [
          "TurnToSleep"
        ],
        "skillQueryingTime": 3.0,
        "flagTargetReachable": "10",
        "flagSelfOnTemplateCollider": "01",
        "flagSelfInZone": "10",
        "flagTargetInZone": "11"
      },
      "112": {
        "name": "OutOfSleep",
        "skillType": "OnNerve",
        "castCondition": {
          "pose": [
            9002
          ]
        },
        "publicCDGroup": "",
        "triggerGCD": false,
        "HGAMDGAEIGO": "",
        "stateIDs": [
          "OutOfSleep"
        ],
        "skillQueryingTime": 3.0,
        "flagTargetReachable": "10",
        "flagSelfOnTemplateCollider": "01",
        "flagSelfInZone": "10",
        "flagTargetInZone": "11",
        "nerveTrigger": [
          "AWAKE"
        ]
      },
      "124": {
        "name": "SleepFree01",
        "skillType": "Free",
        "castCondition": {
          "pose": [
            9002
          ]
        },
        "cd": 15.0,
        "cdUpperRange": 25.0,
        "initialCD": 15.0,
        "initialCDUpperRange": 25.0,
        "publicCDGroup": "",
        "HGAMDGAEIGO": "",
        "stateIDs": [
          "SleepFree01"
        ],
        "flagTargetReachable": "10",
        "flagSelfOnTemplateCollider": "01",
        "flagSelfInZone": "10",
        "flagTargetInZone": "11"
      },
      "125": {
        "name": "SleepFree02",
        "skillType": "Free",
        "castCondition": {
          "pose": [
            9002
          ]
        },
        "cd": 15.0,
        "cdUpperRange": 25.0,
        "initialCD": 15.0,
        "initialCDUpperRange": 25.0,
        "publicCDGroup": "",
        "HGAMDGAEIGO": "",
        "stateIDs": [
          "SleepFree02"
        ],
        "flagTargetReachable": "10",
        "flagSelfOnTemplateCollider": "01",
        "flagSelfInZone": "10",
        "flagTargetInZone": "11"
      },
      "126": {
        "name": "SleepFree03",
        "skillType": "Free",
        "castCondition": {
          "pose": [
            9002
          ]
        },
        "cd": 15.0,
        "cdUpperRange": 25.0,
        "initialCD": 15.0,
        "initialCDUpperRange": 25.0,
        "publicCDGroup": "",
        "HGAMDGAEIGO": "",
        "stateIDs": [
          "SleepFree03"
        ],
        "flagTargetReachable": "10",
        "flagSelfOnTemplateCollider": "01",
        "flagSelfInZone": "10",
        "flagTargetInZone": "11"
      },
      "121": {
        "name": "TurnToSit",
        "skillType": "ActionPoint",
        "castCondition": {
          "pose": [
            1,
            31,
            32
          ]
        },
        "publicCDGroup": "",
        "triggerGCD": false,
        "HGAMDGAEIGO": "",
        "stateIDs": [
          "TurnToSit"
        ],
        "skillQueryingTime": 3.0,
        "flagTargetReachable": "10",
        "flagSelfOnTemplateCollider": "01",
        "flagSelfInZone": "10",
        "flagTargetInZone": "11"
      },
      "122": {
        "name": "OutOfSit",
        "skillType": "OnNerve",
        "castCondition": {
          "pose": [
            9003
          ]
        },
        "publicCDGroup": "",
        "triggerGCD": false,
        "HGAMDGAEIGO": "",
        "stateIDs": [
          "OutOfSit"
        ],
        "skillQueryingTime": 3.0,
        "flagTargetReachable": "10",
        "flagSelfOnTemplateCollider": "01",
        "flagSelfInZone": "10",
        "flagTargetInZone": "11",
        "nerveTrigger": [
          "AWAKE"
        ]
      },
      "127": {
        "name": "SitFree01",
        "skillType": "Free",
        "castCondition": {
          "pose": [
            9003
          ]
        },
        "cd": 15.0,
        "cdUpperRange": 15.0,
        "initialCD": 15.0,
        "initialCDUpperRange": 15.0,
        "publicCDGroup": "",
        "HGAMDGAEIGO": "",
        "stateIDs": [
          "SitFree01"
        ],
        "flagTargetReachable": "10",
        "flagSelfOnTemplateCollider": "01",
        "flagSelfInZone": "10",
        "flagTargetInZone": "11"
      },
      "1001": {
        "name": "TurnToPractice",
        "skillType": "ActionPoint",
        "castCondition": {
          "pose": [
            1,
            31,
            32
          ]
        },
        "publicCDGroup": "",
        "triggerGCD": false,
        "HGAMDGAEIGO": "",
        "stateIDs": [
          "TurnToPractice"
        ],
        "skillQueryingTime": 3.0,
        "flagTargetReachable": "10",
        "flagSelfOnTemplateCollider": "01",
        "flagSelfInZone": "10",
        "flagTargetInZone": "11"
      },
      "1002": {
        "name": "OutOfPractice",
        "skillType": "OnNerve",
        "castCondition": {
          "pose": [
            9013
          ]
        },
        "publicCDGroup": "",
        "triggerGCD": false,
        "HGAMDGAEIGO": "",
        "stateIDs": [
          "OutOfPractice"
        ],
        "skillQueryingTime": 3.0,
        "flagTargetReachable": "10",
        "flagSelfOnTemplateCollider": "01",
        "flagSelfInZone": "10",
        "flagTargetInZone": "11",
        "nerveTrigger": [
          "ASLEEP",
          "WEATHER_BAD"
        ]
      },
      "1011": {
        "name": "Practice",
        "skillType": "Free",
        "castCondition": {
          "pose": [
            9013
          ]
        },
        "cd": 3.0,
        "cdUpperRange": 5.0,
        "initialCD": 3.0,
        "publicCDGroup": "",
        "HGAMDGAEIGO": "",
        "stateIDs": [
          "Practice_Action"
        ],
        "flagTargetReachable": "10",
        "flagSelfOnTemplateCollider": "01",
        "flagSelfInZone": "10",
        "flagTargetInZone": "11"
      },
      "1801": {
        "name": "Life_LearnBox",
        "skillType": "Free",
        "castCondition": {
          "pose": [
            9018
          ]
        },
        "cd": 10.5,
        "cdUpperRange": 7.5,
        "initialCD": 4.0,
        "initialCDUpperRange": 10.0,
        "publicCDGroup": "",
        "HGAMDGAEIGO": "",
        "stateIDs": [
          "Life_LearnBox"
        ],
        "flagTargetReachable": "10",
        "flagSelfOnTemplateCollider": "01",
        "flagSelfInZone": "10",
        "flagTargetInZone": "11"
      }
    },
    "combatFixedMoveTactic": [
      {
        "$type": "DIIPKNMAPAC",
        "enable": true,
        "FJANPNOAAFK": {
          "pose": [
            101,
            301
          ]
        },
        "LMMKNFEMOMG": {
          "rangeMin": 5.0,
          "rangeMax": 50.0,
          "MMKHHBIBJEN": {
            "GEECPOOOMFC": 0.0,
            "NFMBIOFFKGK": 0.0,
            "JNJFKLDABCB": 0.0,
            "BEJLOBBENJJ": 0.0
          },
          "HEGPGPBKGFH": "1111",
          "AFCLIFKCEKM": "1111",
          "JOCOJHEICNA": ""
        },
        "BIDHHBJEKHM": {
          "101": {
            "rangeMin": 5.0,
            "rangeMax": 30.0,
            "MMKHHBIBJEN": {
              "GEECPOOOMFC": 0.0,
              "NFMBIOFFKGK": 0.0,
              "JNJFKLDABCB": 0.20000000298023224,
              "BEJLOBBENJJ": 0.20000000298023224
            },
            "HEGPGPBKGFH": "1111",
            "AFCLIFKCEKM": "1111",
            "JOCOJHEICNA": ""
          }
        }
      },
      {
        "$type": "CMFCOLEFCJI",
        "enable": true,
        "LMMKNFEMOMG": {
          "BJBAALCCMGL": [
            {
              "pointType": "SleepPoint",
              "FCCFALOMHGM": 15.0,
              "pose": [
                1,
                31,
                32
              ],
              "nerveTrigger": [
                "ASLEEP"
              ],
              "skillID": 111
            },
            {
              "pointType": "SitPoint",
              "FCCFALOMHGM": 15.0,
              "pose": [
                1,
                31,
                32
              ],
              "nerveTrigger": [
                "SIT"
              ],
              "skillID": 121
            },
            {
              "pointType": "TrainingPoint",
              "FCCFALOMHGM": 15.0,
              "pose": [
                1,
                31,
                32
              ],
              "nerveTrigger": [
                "TRAIN"
              ],
              "skillID": 1001
            }
          ]
        }
      },
      {
        "$type": "KMHBGMELMKD",
        "enable": true,
        "LMMKNFEMOMG": {
          "JOCOJHEICNA": "",
          "DBIELIMGBMC": ""
        }
      },
      {
        "$type": "GGKADEIBMLG",
        "enable": true,
        "FJANPNOAAFK": {
          "pose": [
            1,
            31
          ]
        },
        "LMMKNFEMOMG": {
          "JIFJFPJANHO": 5.0,
          "CBKHBGCPFBG": 2.0,
          "EKDHNAGGGAE": 15.0,
          "BFEJAKFKKFP": 5.0,
          "KOAMKCEFJED": 7.5,
          "JOCOJHEICNA": ""
        }
      }
    ]
  },
  "inputKeys": [
    {
      "keyID": 201,
      "inputKeyCode": 257,
      "abilityName": ""
    },
    {
      "keyID": 601,
      "inputKeyCode": 258,
      "abilityName": ""
    },
    {
      "keyID": 501,
      "inputKeyCode": 259,
      "abilityName": ""
    },
    {
      "keyID": 111,
      "inputKeyCode": 260,
      "abilityName": ""
    },
    {
      "keyID": 121,
      "inputKeyCode": 261,
      "abilityName": ""
    }
  ],
  "move": {
    "$type": "IIGPJJNGCLE",
    "MIPNOGBEANL": "FourDirection",
    "BEPOPLDKJOP": "StoopType",
    "FACNOEFNHIB": "RootNode"
  },
  "audio": {
    "KEEAIACIJBN": "",
    "animAudio": {
      "onTransitionIn": [
        {
          "currentStateName": "OutOfBuild",
          "audioEvent": {
            "text": "Stop_sfx_monster_hili_build"
          }
        },
        {
          "currentStateName": "Alert",
          "audioEvent": {
            "text": "Stop_sfx_monster_hili_build"
          }
        },
        {
          "currentStateName": "BeHit",
          "audioEvent": {
            "text": "Stop_sfx_monster_hili_build"
          }
        },
        {
          "currentStateName": "Die",
          "audioEvent": {
            "text": "Stop_sfx_monster_hili_build"
          }
        },
        {
          "currentStateName": "Die1",
          "audioEvent": {
            "text": "Stop_sfx_monster_hili_build"
          }
        },
        {
          "currentStateName": "Die2",
          "audioEvent": {
            "text": "Stop_sfx_monster_hili_build"
          }
        },
        {
          "currentStateName": "OutOfMake",
          "audioEvent": {
            "text": "Stop_sfx_monster_hili_build"
          }
        },
        {
          "currentStateName": "Practice_Sword_Back",
          "audioEvent": {
            "text": "Play_sfx_monster_hili_practice_back"
          }
        },
        {
          "currentStateName": "Practice_NoWeapon_Back",
          "audioEvent": {
            "text": "Play_sfx_monster_hili_practice_back"
          }
        },
        {
          "currentStateName": "Practice_Shoot_Aim",
          "audioEvent": {
            "text": "Play_sfx_monster_hili_practice_shoot_aim"
          }
        },
        {
          "currentStateName": "Dance",
          "audioEvent": {
            "text": "Play_sfx_monster_hili_dance"
          }
        },
        {
          "currentStateName": "OutOfDance",
          "audioEvent": {
            "text": "Stop_sfx_monster_hili_dance"
          }
        },
        {
          "currentStateName": "SurroundFree01_Club",
          "audioEvent": {
            "text": "Play_sfx_monster_hili_dance"
          }
        },
        {
          "currentStateName": "SurroundFree01_NoWeapon",
          "audioEvent": {
            "text": "Play_sfx_monster_hili_dance"
          }
        },
        {
          "currentStateName": "OutOfSurround",
          "audioEvent": {
            "text": "Stop_sfx_monster_hili_dance"
          }
        },
        {
          "currentStateName": "Alert",
          "audioEvent": {
            "text": "Stop_sfx_monster_hili_dance"
          }
        },
        {
          "currentStateName": "BeHit",
          "audioEvent": {
            "text": "Stop_sfx_monster_hili_dance"
          }
        },
        {
          "currentStateName": "Die",
          "audioEvent": {
            "text": "Stop_sfx_monster_hili_dance"
          }
        },
        {
          "currentStateName": "Die1",
          "audioEvent": {
            "text": "Stop_sfx_monster_hili_dance"
          }
        },
        {
          "currentStateName": "Die2",
          "audioEvent": {
            "text": "Stop_sfx_monster_hili_dance"
          }
        },
        {
          "currentStateName": "ThreatFree01_NoWeapon",
          "audioEvent": {
            "text": "Play_sfx_monster_hili_dance"
          }
        },
        {
          "currentStateName": "ThreatFree02_NoWeapon",
          "audioEvent": {
            "text": "Play_sfx_monster_hili_dance"
          }
        },
        {
          "currentStateName": "ThreatFree01_Club",
          "audioEvent": {
            "text": "Play_sfx_monster_hili_dance"
          }
        },
        {
          "currentStateName": "ThreatFree02_Club",
          "audioEvent": {
            "text": "Play_sfx_monster_hili_dance"
          }
        },
        {
          "currentStateName": "OutOfThreat",
          "audioEvent": {
            "text": "Stop_sfx_monster_hili_dance"
          }
        }
      ],
      "onTransitionOut": [
        {
          "currentStateName": "Make",
          "audioEvent": {
            "text": "Stop_sfx_monster_hili_build"
          }
        },
        {
          "currentStateName": "Build",
          "audioEvent": {
            "text": "Stop_sfx_monster_hili_build"
          }
        },
        {
          "currentStateName": "Practice_Sword",
          "audioEvent": {
            "text": "Stop_sfx_monster_hili_practice_sword"
          }
        },
        {
          "currentStateName": "Practice_NoWeapon",
          "audioEvent": {
            "text": "Stop_sfx_monster_hili_practice_sword"
          }
        },
        {
          "currentStateName": "Practice_Sword_Back",
          "audioEvent": {
            "text": "Stop_sfx_monster_hili_practice_back"
          }
        },
        {
          "currentStateName": "Practice_NoWeapon_Back",
          "audioEvent": {
            "text": "Stop_sfx_monster_hili_practice_back"
          }
        },
        {
          "currentStateName": "Practice_Shoot_Aim",
          "audioEvent": {
            "text": "Stop_sfx_monster_hili_practice_shoot_aim"
          },
          "otherStateNames": [
            "Practice_Shoot_Attack"
          ],
          "usage": "Except"
        },
        {
          "currentStateName": "Practice_Shoot_Attack",
          "audioEvent": {
            "text": "Stop_sfx_monster_hili_practice_shoot_aim"
          }
        },
        {
          "currentStateName": "Dance",
          "audioEvent": {
            "text": "Stop_sfx_monster_hili_dance"
          }
        },
        {
          "currentStateName": "SurroundFree01_Club",
          "audioEvent": {
            "text": "Stop_sfx_monster_hili_dance"
          }
        },
        {
          "currentStateName": "SurroundFree01_NoWeapon",
          "audioEvent": {
            "text": "Stop_sfx_monster_hili_dance"
          }
        },
        {
          "currentStateName": "ThreatFree01_NoWeapon",
          "audioEvent": {
            "text": "Stop_sfx_monster_hili_dance"
          }
        },
        {
          "currentStateName": "ThreatFree02_NoWeapon",
          "audioEvent": {
            "text": "Stop_sfx_monster_hili_dance"
          }
        },
        {
          "currentStateName": "ThreatFree01_Club",
          "audioEvent": {
            "text": "Stop_sfx_monster_hili_dance"
          }
        },
        {
          "currentStateName": "ThreatFree02_Club",
          "audioEvent": {
            "text": "Stop_sfx_monster_hili_dance"
          }
        }
      ]
    },
    "disableEvent": {
      "text": "Stop_sfx_monster_hili_dance"
    },
    "destroyEvent": {
      "text": "Stop_sfx_monster_hili_dance"
    }
  }
}