{
  "MDJNFHAJPAD": {
    "FAIKDMCHPEL": {
      "$type": "DPGKNHENGLM",
      "DDDEJPIFECG": "EffectMesh"
    },
    "FINMNFLLAMB": 45.0,
    "NEBDNCNFDJC": 1.0,
    "MBMBBGOGNHF": true,
    "DIEPJBNIPBG": true,
    "FNLMEPDMMMD": 1.2000000476837158,
    "CKECEGGMJOP": false,
    "GJDONABEMOA": true
  },
  "LBGLCHLIKJP": {
    "$type": "NJIKCGBDNDF",
    "HONCKGMDJEK": true,
    "IKIJCPNMBHI": 60.0,
    "FMKKBCJKMPH": 30.0,
    "FDPCOFKGCHG": [
      "NormalIdle/Standby",
      "NormalIdle/Standby_Prone",
      "NormalIdle/Standby_Alert"
    ]
  },
  "PJEANIPCFFN": {
    "CKAIGCFDCMG": "",
    "KHGAHHAIJFJ": "",
    "DFFKHFKJKEK": false
  },
  "MEMHBNEJBCL": {
    "PJBCJPKPOLB": 1.0
  },
  "GKIMHOOMGHB": {
    "DHBJGHDCMAA": {
      "LDAHGACLHII": "Monster_Minion",
      "LJGADHKDLLB": 50.0
    },
    "BPKIJDAHLGB": {
      "LKMLEJGEHAP": "",
      "LHMKDLOKKJG": true
    },
    "INCPHOFGIJA": {
      "FGJIHAKMLBG": "CircleLockEnemy",
      "BGMEKAEIOGA": "Animal_Lv2"
    },
    "JCCJMILDEAM": {
      "GKFDFDFJJFB": 2.0,
      "FNIJBPMPCHA": 10.0,
      "BCHFMGGBEFN": ""
    }
  },
  "IGPKOOHPBFG": [
    {
      "FPLENFAEDIB": "CommonInitial",
      "KAJGDIHNKNE": "Animal_Common_Initial",
      "BIAMBCDKJKP": ""
    },
    {
      "FPLENFAEDIB": "AIStateInitial",
      "KAJGDIHNKNE": "Animal_Fox_AIStateInitial",
      "BIAMBCDKJKP": ""
    },
    {
      "FPLENFAEDIB": "Random",
      "KAJGDIHNKNE": "Animal_Fox_Random",
      "BIAMBCDKJKP": ""
    },
    {
      "FPLENFAEDIB": "GetUp",
      "KAJGDIHNKNE": "Animal_Fox_GetUp",
      "BIAMBCDKJKP": ""
    },
    {
      "FPLENFAEDIB": "GetDown",
      "KAJGDIHNKNE": "Animal_Fox_GetDown",
      "BIAMBCDKJKP": ""
    },
    {
      "FPLENFAEDIB": "Disappear",
      "KAJGDIHNKNE": "Animal_Fox_Disappear",
      "BIAMBCDKJKP": ""
    },
    {
      "FPLENFAEDIB": "Animal_Fox_AwareTigger",
      "KAJGDIHNKNE": "Animal_Fox_AwareTigger",
      "BIAMBCDKJKP": ""
    },
    {
      "FPLENFAEDIB": "Alet",
      "KAJGDIHNKNE": "Animal_Fox_02_Alert",
      "BIAMBCDKJKP": ""
    }
  ],
  "GGIOJAMBNPO": {
    "defaultLayer": {
      "$type": "EPAPJJAGHKG",
      "ACOCIAFGIAD": "",
      "LFGKIDDJIED": {
        "Born": {
          "$type": "IJOIMFMEGMM",
          "DLOHGBDFFGB": {
            "Born": [
              "Audio_Fox_Born"
            ]
          },
          "DLAOMOCMANL": [
            "DoSkill"
          ]
        },
        "NormalIdle": {
          "$type": "IJOIMFMEGMM",
          "DLOHGBDFFGB": {
            "Standby": [],
            "Standby_Alert": [],
            "Standby_Prone": []
          },
          "POLKCLOHPOO": true,
          "PGKCBIHGAOC": true,
          "DLAOMOCMANL": [
            "DoSkill"
          ]
        },
        "NormalMove": {
          "$type": "IJOIMFMEGMM",
          "DLOHGBDFFGB": {
            "Walk": [
              "Audio_Fox_Walk"
            ],
            "Run": [
              "Audio_Fox_Run"
            ],
            "Disappear": [
              "Audio_Fox_Run"
            ]
          },
          "PGKCBIHGAOC": true,
          "DLAOMOCMANL": [
            "DoSkill"
          ],
          "LIPMJPLGIKD": true
        },
        "BeHit": {
          "$type": "IJOIMFMEGMM",
          "DLOHGBDFFGB": {
            "Hit_L": [
              "Audio_Fox_Hit_L"
            ]
          },
          "AJBLILDCLBO": [
            "BeHit"
          ],
          "DLAOMOCMANL": [
            "DoSkill"
          ]
        },
        "Die": {
          "$type": "IJOIMFMEGMM",
          "DLOHGBDFFGB": {
            "Die": [
              "Animal_Fox_Die",
              "Audio_Fox_Die"
            ],
            "Die_Disappear": [
              "Animal_Fox_Disappear",
              "Audio_Fox_Run"
            ]
          }
        },
        "GetUp": {
          "$type": "IJOIMFMEGMM",
          "DLOHGBDFFGB": {
            "GetUp": [
              "Animal_Fox_GetUp",
              "Audio_Fox_GetUp"
            ]
          },
          "POLKCLOHPOO": true,
          "DLAOMOCMANL": [
            "BeHit",
            "DoSkill"
          ]
        },
        "GetDown": {
          "$type": "IJOIMFMEGMM",
          "DLOHGBDFFGB": {
            "GetDown": [
              "Animal_Fox_GetDown",
              "Audio_Fox_GetDown"
            ]
          },
          "POLKCLOHPOO": true,
          "DLAOMOCMANL": [
            "BeHit",
            "DoSkill"
          ]
        },
        "Aware": {
          "$type": "IJOIMFMEGMM",
          "DLOHGBDFFGB": {
            "Aware_GetUp": [
              "Audio_Fox_Personality_102"
            ],
            "Aware": [
              "Audio_Fox_Aware"
            ]
          },
          "POLKCLOHPOO": true,
          "DLAOMOCMANL": [
            "BeHit",
            "DoSkill",
            "AwareTrigger"
          ]
        },
        "Alert": {
          "$type": "IJOIMFMEGMM",
          "DLOHGBDFFGB": {
            "Alert": [
              "Audio_Fox_Walk"
            ],
            "Alert_Scared": [
              "Animal_Fox_02_Alert",
              "Audio_Fox_Alert_Scared"
            ]
          },
          "DLAOMOCMANL": [
            "BeHit",
            "DoSkill"
          ]
        },
        "Personality_101": {
          "$type": "IJOIMFMEGMM",
          "DLOHGBDFFGB": {
            "Personality_101": [
              "Audio_Fox_Personality_102"
            ]
          },
          "POLKCLOHPOO": true,
          "DLAOMOCMANL": [
            "BeHit",
            "DoSkill"
          ]
        },
        "Personality_102": {
          "$type": "IJOIMFMEGMM",
          "DLOHGBDFFGB": {
            "Personality_102": [
              "Audio_Fox_Personality_102"
            ]
          },
          "POLKCLOHPOO": true,
          "DLAOMOCMANL": [
            "BeHit",
            "DoSkill"
          ]
        },
        "Personality_103": {
          "$type": "IJOIMFMEGMM",
          "DLOHGBDFFGB": {
            "Personality_103": [
              "Audio_Fox_Personality_103"
            ]
          },
          "POLKCLOHPOO": true,
          "DLAOMOCMANL": [
            "BeHit",
            "DoSkill"
          ]
        }
      }
    }
  },
  "IONIFBIBFNL": {
    "Default": {}
  },
  "PDCDMABCPOA": {
    "ENLKMOKHELD": true,
    "BBIKFBPEPKO": 1,
    "HEAKPLEEIJN": {
      "GCABINDPLFA": {
        "Rain": [
          "WEATHER_BAD"
        ],
        "Storm": [
          "WEATHER_BAD"
        ]
      }
    },
    "OCBDDDCJANP": {
      "IJOBKDKBEME": {
        "DefaultSetting": {
          "PHDIIPOBJGA": 15.0,
          "COENEFGMPFK": 90.0,
          "MPEJKBDNFGB": 30.0,
          "BHOECAJIBOM": 9.0
        }
      }
    },
    "OFEGONBLOGP": {
      "DefaultSetting": [
        "HIT",
        "WEATHER_BAD",
        "FEAR",
        "SURROUND"
      ]
    },
    "EJOLGMGAECP": {
      "ENLKMOKHELD": false,
      "KDPOCNEHGBJ": 500.0,
      "BJLBMJLOPIP": [
        {
          "LFALGCACJOF": 7.0,
          "IOHOACGNJHO": 2.5
        },
        {
          "LFALGCACJOF": 9.0,
          "IOHOACGNJHO": 2.0
        },
        {
          "LFALGCACJOF": 11.0,
          "IOHOACGNJHO": 1.5
        },
        {
          "LFALGCACJOF": 11.0,
          "IOHOACGNJHO": 1.0
        },
        {
          "LFALGCACJOF": 15.0,
          "IOHOACGNJHO": 0.5
        }
      ],
      "JGFOPCOIJOI": ""
    },
    "PMNPDDIOHHJ": {
      "OKMHHFALCCH": 100.0
    },
    "BNIENJNLAIJ": {
      "3": {
        "NOKKDDHKGAK": "OnAlert",
        "IKMCLKEPDFP": "OnAlert",
        "NOPNCNPCPJE": "",
        "IDPMFPAPNCE": false,
        "HGAMDGAEIGO": "",
        "LFGKIDDJIED": [
          "Alert"
        ],
        "NNJBOCFBGJG": 3.0,
        "PGPDNPMFFAG": "10",
        "CCEAGFDONFH": "01",
        "OKOFHICILMD": "10",
        "CCFFFOIDOLP": "11"
      },
      "101": {
        "NOKKDDHKGAK": "Personality_101",
        "IKMCLKEPDFP": "Free",
        "ENKLFBHHOJI": {
          "CEKMINILIFB": [
            2
          ]
        },
        "PAHIDIJLGPF": 5.0,
        "GPMLADFJAAH": 5.0,
        "NOPNCNPCPJE": "",
        "HGAMDGAEIGO": "",
        "LFGKIDDJIED": [
          "Personality_101"
        ],
        "PGPDNPMFFAG": "10",
        "CCEAGFDONFH": "01",
        "OKOFHICILMD": "10",
        "CCFFFOIDOLP": "11"
      },
      "102": {
        "NOKKDDHKGAK": "Personality_102",
        "IKMCLKEPDFP": "Free",
        "ENKLFBHHOJI": {
          "CEKMINILIFB": [
            2
          ]
        },
        "PAHIDIJLGPF": 5.0,
        "GPMLADFJAAH": 5.0,
        "NOPNCNPCPJE": "",
        "HGAMDGAEIGO": "",
        "LFGKIDDJIED": [
          "Personality_102"
        ],
        "PGPDNPMFFAG": "10",
        "CCEAGFDONFH": "01",
        "OKOFHICILMD": "10",
        "CCFFFOIDOLP": "11"
      },
      "103": {
        "NOKKDDHKGAK": "Personality_103",
        "IKMCLKEPDFP": "Free",
        "ENKLFBHHOJI": {
          "CEKMINILIFB": [
            2
          ]
        },
        "PAHIDIJLGPF": 5.0,
        "GPMLADFJAAH": 5.0,
        "NOPNCNPCPJE": "",
        "HGAMDGAEIGO": "",
        "LFGKIDDJIED": [
          "Personality_103"
        ],
        "PGPDNPMFFAG": "10",
        "CCEAGFDONFH": "01",
        "OKOFHICILMD": "10",
        "CCFFFOIDOLP": "11"
      }
    },
    "EMBHEEALPLD": 2.0,
    "EEKEAKJCMJO": [
      {
        "$type": "GIMIMAJNOPH",
        "ENLKMOKHELD": true,
        "GMMKOLNMFJL": [
          "HIT",
          "FEAR",
          "SURROUND"
        ],
        "LMMKNFEMOMG": {
          "GEAICNICJAJ": 5.0,
          "PAHIDIJLGPF": 0.0,
          "OHLJIHFFMLB": 200.0,
          "GGIBBPIGEJF": 10,
          "PKFMEOPIHEO": 10,
          "NBBIJDCLJOF": 4.5,
          "MHMMABHJIIA": 5.5,
          "JOCOJHEICNA": ""
        }
      },
      {
        "$type": "KMHBGMELMKD",
        "ENLKMOKHELD": true
      }
    ]
  },
  "KDLODKFKHPB": {
    "PIMGAEBNCBJ": false,
    "JFBHPOLAAEJ": false
  },
  "EGGALDADMOL": {
    "ILKLCFIONEC": {
      "ABCJFMIGKJN": "Eff_SceneObj_CatchAnimal_CaughtSuccess"
    }
  }
}