{
  "common": {
    "effectAttachShape": {
      "$type": "DPGKNHENGLM",
      "DDDEJPIFECG": "EffectMesh"
    },
    "mass": 20.0,
    "height": 0.800000011920929,
    "modelHeight": 0.4000000059604645,
    "affectedByWorld": true,
    "checkInSurface": true,
    "scale": 2.0,
    "useGrassDisplacement": true
  },
  "model": {
    "bornEffect": "",
    "attachEffect": "",
    "canBakeMesh": false
  },
  "combat": {
    "property": {
      "endureType": "Monster_Slime",
      "weight": 60.0
    },
    "beHit": {
      "hitBloodEffect": ""
    },
    "combatLock": {
      "lockShape": "CircleLockEnemy",
      "lockType": "Avatar&Monster_Lv4"
    },
    "die": {
      "dieEndTime": 4.0,
      "dieForceDisappearTime": 8.0,
      "dieDisappearEffect": "",
      "muteHitBox": true,
      "dieDenyLockOn": true,
      "dieIsGhostToEnemy": true,
      "dieIgnoreTriggerBullet": true,
      "muteBillboard": true,
      "mutePushCollider": true
    },
    "animEvents": {
      "AtkN01": {
        "attackPattern": {
          "$type": "AGJFCPDIMCK",
          "triggerType": "TriggerNoRepeat",
          "born": {
            "$type": "NKOODKOFELF",
            "offset": {
              "GNGDNIIPPNL": 0.0,
              "GIIMFINHIED": 0.0,
              "CLBCHJICOKH": 0.5
            }
          },
          "IAMPMDAOKJL": 150.0,
          "LOACHGCADCO": 0.75
        },
        "attackInfo": {
          "attackTag": "",
          "attenuationTag": "",
          "attenuationGroup": "default",
          "attackProperty": {
            "HOGNHNAHNML": 1.0,
            "BAPILBAGBOJ": 0.0,
            "bonusCriticalHurt": 100.0,
            "strikeType": "Blunt",
            "enBreak": 60.0,
            "attackType": "Melee",
            "damagePercentage": 0.0
          },
          "hitPattern": {
            "onHitEffectName": "default",
            "hitImpulseType": "LV2"
          }
        }
      },
      "AtkN01_Fire": {
        "attackPattern": {
          "$type": "AGJFCPDIMCK",
          "triggerType": "TriggerNoRepeat",
          "born": {
            "$type": "NKOODKOFELF",
            "offset": {
              "GNGDNIIPPNL": 0.0,
              "GIIMFINHIED": 0.0,
              "CLBCHJICOKH": 0.5
            }
          },
          "IAMPMDAOKJL": 150.0,
          "LOACHGCADCO": 0.75
        },
        "attackInfo": {
          "attackTag": "",
          "attenuationTag": "",
          "attenuationGroup": "default",
          "attackProperty": {
            "HOGNHNAHNML": 1.0,
            "BAPILBAGBOJ": 0.0,
            "elementType": "Fire",
            "bonusCriticalHurt": 50.0,
            "strikeType": "Blunt",
            "enBreak": 60.0,
            "attackType": "Melee",
            "damagePercentage": 0.0
          },
          "hitPattern": {
            "onHitEffectName": "default",
            "hitImpulseType": "LV2"
          }
        }
      }
    }
  },
  "equipController": {
    "sheathPoint": "",
    "attachPoints": {
      "equip01": "WeaponR",
      "equip02": "WeaponL"
    }
  },
  "abilities": [
    {
      "abilityID": "FireBorn",
      "abilityName": "Slime_Fire_02_FireBorn_Tutorial",
      "abilityOverride": ""
    },
    {
      "abilityID": "SelfExplosion",
      "abilityName": "Slime_Fire_02_Dead",
      "abilityOverride": ""
    },
    {
      "abilityID": "TutorialGlobalValue",
      "abilityName": "Slime_Fire_02_TutorialGlobalValue",
      "abilityOverride": ""
    },
    {
      "abilityID": "AnimationSteer",
      "abilityName": "Slime_Fire_02_AnimationSteer",
      "abilityOverride": ""
    },
    {
      "abilityID": "Monster_Slime_SpecialsState",
      "abilityName": "Monster_Slime_SpecialsState",
      "abilityOverride": ""
    },
    {
      "abilityID": "Monster_Slime_Alert",
      "abilityName": "Monster_Slime_Alert",
      "abilityOverride": ""
    },
    {
      "abilityID": "FireMuteHurt",
      "abilityName": "Monster_Common_FireMuteHurt",
      "abilityOverride": ""
    }
  ],
  "stateLayers": {
    "defaultLayer": {
      "$type": "EPAPJJAGHKG",
      "ACOCIAFGIAD": "",
      "stateIDs": {
        "Born": {
          "$type": "IJOIMFMEGMM",
          "DLOHGBDFFGB": {
            "Born": [
              "Monster_Slime_Born_02",
              "Audio_Slime_02_Born_N"
            ]
          },
          "PGKCBIHGAOC": true,
          "DLAOMOCMANL": [
            "DoSkill"
          ]
        },
        "NormalIdle": {
          "$type": "IJOIMFMEGMM",
          "DLOHGBDFFGB": {
            "Standby": []
          },
          "POLKCLOHPOO": true,
          "PGKCBIHGAOC": true,
          "DLAOMOCMANL": [
            "DoSkill"
          ]
        },
        "Turn": {
          "$type": "IJOIMFMEGMM",
          "DLOHGBDFFGB": {
            "Turn": [
              "Audio_Slime_02_Run_N"
            ]
          },
          "POLKCLOHPOO": true,
          "PGKCBIHGAOC": true,
          "DLAOMOCMANL": [
            "DoSkill"
          ],
          "LIPMJPLGIKD": true,
          "HMPOMAMKBEF": true
        },
        "NormalMove": {
          "$type": "IJOIMFMEGMM",
          "DLOHGBDFFGB": {
            "Walk": [
              "Audio_Slime_02_Walk_N"
            ],
            "Run": [
              "Audio_Slime_02_Run_N"
            ],
            "Sprint": []
          },
          "POLKCLOHPOO": true,
          "PGKCBIHGAOC": true,
          "DLAOMOCMANL": [
            "DoSkill"
          ],
          "LIPMJPLGIKD": true
        },
        "BeHit": {
          "$type": "IJOIMFMEGMM",
          "DLOHGBDFFGB": {
            "Hit_L": [
              "Monster_Slime_BeHit",
              "Audio_Slime_02_Hit_L"
            ],
            "Hit_H": [
              "Monster_Slime_BeHit",
              "Audio_Slime_02_Hit_H"
            ]
          },
          "AJBLILDCLBO": [
            "BeHit"
          ],
          "DLAOMOCMANL": [
            "DoSkill"
          ]
        },
        "BeHitThrow": {
          "$type": "IJOIMFMEGMM",
          "DLOHGBDFFGB": {
            "HitThrow": [
              "Monster_Slime_BeHit",
              "Audio_Slime_02_HitThrow_N"
            ],
            "HitThrowDrop": [],
            "HitThrowToGround": [
              "Monster_Slime_ThrowToGround_02",
              "Audio_Slime_02_HitThrowToGround_N"
            ]
          },
          "AJBLILDCLBO": [
            "BeHit",
            "HitAir2HitDrop"
          ],
          "DLAOMOCMANL": [
            "DoSkill"
          ]
        },
        "Struggle": {
          "$type": "IJOIMFMEGMM",
          "DLOHGBDFFGB": {
            "Struggle": []
          },
          "AJBLILDCLBO": [
            "BeHit",
            "HitAir2HitDrop"
          ],
          "DLAOMOCMANL": [
            "DoSkill"
          ]
        },
        "Die": {
          "$type": "IJOIMFMEGMM",
          "DLOHGBDFFGB": {
            "Die": [
              "Monster_Slime_Die",
              "Monster_Slime_Fire_Die_02_WithFire",
              "Audio_Slime_Fire_02_Die"
            ],
            "DieOffFire": [
              "Monster_Slime_Die",
              "Monster_Slime_Fire_Die_02",
              "Audio_Slime_Fire_02_Die"
            ],
            "SwimDie": [
              "Monster_Slime_Die",
              "Monster_Slime_Fire_Die_02",
              "Audio_Slime_Fire_02_Die"
            ]
          }
        },
        "Warning": {
          "$type": "IJOIMFMEGMM",
          "DLOHGBDFFGB": {
            "Warning": [
              "Monster_Slime_Warning"
            ]
          },
          "DLAOMOCMANL": [
            "BeHit",
            "DoSkill"
          ]
        },
        "NormalAttack": {
          "$type": "IJOIMFMEGMM",
          "DLOHGBDFFGB": {
            "NormalAttack": [
              "Monster_Slime_NormalAttack_02",
              "Monster_Slime_Fire_02_NormalAttack",
              "Audio_Slime_02_NormalAtk_N"
            ]
          },
          "DLAOMOCMANL": [
            "BeHit",
            "DoSkill"
          ],
          "CFGFMHDOEBF": true
        },
        "FireReborn": {
          "$type": "IJOIMFMEGMM",
          "DLOHGBDFFGB": {
            "FireReborn": [
              "Monster_Slime_Fire_02_FireReborn"
            ]
          },
          "DLAOMOCMANL": [
            "BeHit",
            "DoSkill"
          ]
        }
      }
    }
  },
  "face": {
    "characterName": "Slime_01",
    "baseFaceAnimation": "Default",
    "intervalFaceAnimation": "Blink",
    "minInterval": 1.5,
    "maxInterval": 5.5
  },
  "billboard": {
    "$type": "PAOBAEKGGBC",
    "attachPoint": "BillboardAttach",
    "offset": {
      "y": 0.30000001192092896
    },
    "LOMMBJLKPHE": 1.0,
    "KGHAGECNJPO": true
  },
  "initialPoses": {
    "Default": {},
    "RunAround": {
      "initialPoseID": 901,
      "initialPoseParams": {
        "boolParams": {
          "RunAround": "true"
        }
      }
    }
  },
  "aibeta": {
    "enable": true,
    "sensing": {
      "enable": false,
      "settings": {
        "DefaultSetting": {
          "viewRange": 15.0
        }
      },
      "templates": {
        "DefaultTemplate": {
          "DefaultPoses": "DefaultSetting"
        }
      }
    },
    "threat": {
      "clearThreatTargetDistance": 30.0,
      "clearThreatEdgeDistance": 3.0,
      "clearThreatTimerByDistance": 2.0,
      "viewAttenuation": [
        {
          "x": 10.0,
          "y": 1.0
        },
        {
          "x": 15.0,
          "y": 0.5
        }
      ],
      "JGFOPCOIJOI": ""
    },
    "defendArea": {
      "defendRange": 30.0
    },
    "skills": {
      "100": {
        "name": "OnAlert",
        "skillType": "OnAlert",
        "faceTarget": true,
        "publicCDGroup": "",
        "triggerGCD": false,
        "HGAMDGAEIGO": "",
        "stateIDs": [
          "Warning"
        ],
        "skillQueryingTime": 3.0,
        "flagTargetReachable": "10",
        "flagSelfOnTemplateCollider": "01",
        "flagSelfInZone": "10",
        "flagTargetInZone": "11"
      },
      "209": {
        "name": "Reborn_Free",
        "skillType": "Free",
        "priority": 1,
        "castCondition": {
          "pose": [
            1,
            9
          ]
        },
        "cd": 0.25,
        "publicCDGroup": "",
        "HGAMDGAEIGO": "",
        "stateIDs": [
          "FireReborn"
        ],
        "flagTargetReachable": "10",
        "flagSelfOnTemplateCollider": "01",
        "flagSelfInZone": "10",
        "flagTargetInZone": "11"
      },
      "201": {
        "name": "Reborn",
        "priority": 1,
        "castCondition": {
          "pose": [
            2
          ]
        },
        "cd": 0.25,
        "publicCDGroup": "",
        "HGAMDGAEIGO": "",
        "stateIDs": [
          "FireReborn"
        ],
        "flagTargetReachable": "10",
        "flagSelfOnTemplateCollider": "01",
        "flagSelfInZone": "10",
        "flagTargetInZone": "11"
      },
      "202": {
        "name": "Reborn",
        "priority": 1,
        "castCondition": {
          "pose": [
            2
          ]
        },
        "cd": 0.25,
        "publicCDGroup": "",
        "HGAMDGAEIGO": "",
        "stateIDs": [
          "FireReborn"
        ],
        "flagTargetReachable": "10",
        "flagSelfOnTemplateCollider": "01",
        "flagSelfInZone": "01",
        "flagTargetInZone": "11"
      },
      "203": {
        "name": "Reborn",
        "priority": 1,
        "castCondition": {
          "pose": [
            2
          ]
        },
        "cd": 0.25,
        "publicCDGroup": "",
        "HGAMDGAEIGO": "",
        "stateIDs": [
          "FireReborn"
        ],
        "flagTargetReachable": "01",
        "flagSelfOnTemplateCollider": "01",
        "flagSelfInZone": "10",
        "flagTargetInZone": "11"
      },
      "204": {
        "name": "Reborn",
        "priority": 1,
        "castCondition": {
          "pose": [
            2
          ]
        },
        "cd": 0.25,
        "publicCDGroup": "",
        "HGAMDGAEIGO": "",
        "stateIDs": [
          "FireReborn"
        ],
        "flagTargetReachable": "01",
        "flagSelfOnTemplateCollider": "01",
        "flagSelfInZone": "01",
        "flagTargetInZone": "11"
      },
      "301": {
        "name": "NormalAttack",
        "combatSkillType": "MeleeAttack",
        "enableSkillPrepare": true,
        "castCondition": {
          "pose": [
            102
          ],
          "pickRangeMin": 1.5,
          "pickRangeMax": 4.5,
          "castRangeMin": 1.5,
          "castRangeMax": 2.5
        },
        "cd": 2.5,
        "publicCDGroup": "",
        "HGAMDGAEIGO": "",
        "stateIDs": [
          "NormalAttack"
        ],
        "flagTargetReachable": "10",
        "flagSelfOnTemplateCollider": "01",
        "flagSelfInZone": "10",
        "flagTargetInZone": "11"
      },
      "302": {
        "name": "NormalAttack",
        "combatSkillType": "MeleeAttack",
        "castCondition": {
          "pose": [
            102
          ],
          "pickRangeMax": 2.5
        },
        "cd": 2.5,
        "publicCDGroup": "",
        "HGAMDGAEIGO": "",
        "stateIDs": [
          "NormalAttack"
        ],
        "flagTargetReachable": "10",
        "flagSelfOnTemplateCollider": "01",
        "flagSelfInZone": "01",
        "flagTargetInZone": "11"
      },
      "303": {
        "name": "NormalAttack",
        "combatSkillType": "MeleeAttack",
        "enableSkillPrepare": true,
        "castCondition": {
          "pose": [
            2,
            3
          ],
          "pickRangeMin": 1.5,
          "pickRangeMax": 8.5,
          "castRangeMin": 1.5,
          "castRangeMax": 2.5
        },
        "cd": 7.0,
        "publicCDGroup": "",
        "HGAMDGAEIGO": "",
        "stateIDs": [
          "NormalAttack"
        ],
        "flagTargetReachable": "10",
        "flagSelfOnTemplateCollider": "01",
        "flagSelfInZone": "10",
        "flagTargetInZone": "11"
      },
      "304": {
        "name": "NormalAttack",
        "combatSkillType": "MeleeAttack",
        "castCondition": {
          "pose": [
            2,
            3
          ],
          "pickRangeMax": 2.5
        },
        "cd": 6.0,
        "publicCDGroup": "",
        "HGAMDGAEIGO": "",
        "stateIDs": [
          "NormalAttack"
        ],
        "flagTargetReachable": "10",
        "flagSelfOnTemplateCollider": "01",
        "flagSelfInZone": "01",
        "flagTargetInZone": "11"
      }
    },
    "skillGCD": 2.5,
    "combatFixedMoveTactic": [
      {
        "$type": "GIMIMAJNOPH",
        "enable": true,
        "FJANPNOAAFK": {
          "pose": [
            2,
            3,
            102
          ]
        },
        "LMMKNFEMOMG": {
          "cd": 0.6000000238418579,
          "triggerDistance": 7.5,
          "IFCLJHAJFHD": 60.0,
          "NBBIJDCLJOF": 3.0,
          "MHMMABHJIIA": 4.0,
          "JHFLNKPOHHO": true,
          "JOCOJHEICNA": ""
        },
        "BIDHHBJEKHM": {
          "102": {
            "cd": 0.0,
            "triggerDistance": 4.0,
            "IFCLJHAJFHD": 15.0,
            "NBBIJDCLJOF": 1.75,
            "MHMMABHJIIA": 2.75,
            "JHFLNKPOHHO": true,
            "JOCOJHEICNA": ""
          }
        }
      },
      {
        "$type": "BNAGECKMCIB",
        "enable": true,
        "FJANPNOAAFK": {
          "pose": [
            2,
            3,
            102
          ]
        },
        "LMMKNFEMOMG": {
          "MPEMBMLOEDG": 7.0,
          "IJLGPEJGLEH": 99.0,
          "JKOGPCLFHCP": 4.0,
          "IHCAFCNDANA": 4.5,
          "JOCOJHEICNA": ""
        },
        "BIDHHBJEKHM": {
          "102": {
            "MPEMBMLOEDG": 4.5,
            "IJLGPEJGLEH": 99.0,
            "JKOGPCLFHCP": 4.0,
            "IHCAFCNDANA": 4.5,
            "JOCOJHEICNA": ""
          }
        }
      },
      {
        "$type": "KMHBGMELMKD",
        "enable": true
      },
      {
        "$type": "GGKADEIBMLG",
        "LMMKNFEMOMG": {
          "JIFJFPJANHO": 5.0,
          "CBKHBGCPFBG": 2.0,
          "EKDHNAGGGAE": 15.0,
          "BFEJAKFKKFP": 2.5,
          "KOAMKCEFJED": 7.5,
          "JOCOJHEICNA": ""
        },
        "BIDHHBJEKHM": {
          "9": {
            "KIHPEPHJMOG": 2,
            "EKDHNAGGGAE": 5.0,
            "BFEJAKFKKFP": 1.5,
            "KOAMKCEFJED": 3.0,
            "JOCOJHEICNA": ""
          },
          "901": {
            "KIHPEPHJMOG": 2,
            "EKDHNAGGGAE": 5.0,
            "BFEJAKFKKFP": 1.5,
            "KOAMKCEFJED": 3.0,
            "JOCOJHEICNA": ""
          }
        }
      }
    ]
  },
  "inputKeys": [
    {
      "keyID": 201,
      "inputKeyCode": 257,
      "abilityName": ""
    },
    {
      "keyID": 301,
      "inputKeyCode": 258,
      "abilityName": ""
    }
  ],
  "move": {
    "$type": "IIGPJJNGCLE",
    "BEPOPLDKJOP": "SlimeType",
    "FACNOEFNHIB": "RootNode"
  }
}