{
  "MDJNFHAJPAD": {
    "FAIKDMCHPEL": {
      "$type": "DPGKNHENGLM",
      "DDDEJPIFECG": "EffectMesh"
    },
    "FINMNFLLAMB": 150.0,
    "NEBDNCNFDJC": 1.7999999523162842,
    "INNNMDJACOJ": 1.7999999523162842,
    "MECICKNEPGG": 1.25,
    "MBMBBGOGNHF": true,
    "DIEPJBNIPBG": true,
    "FNLMEPDMMMD": 1.2000000476837158,
    "NDKGIFOAHGG": true,
    "GJDONABEMOA": true,
    "BKPPECPBMBF": true,
    "LOGFKHMLOOL": true
  },
  "PJEANIPCFFN": {
    "CKAIGCFDCMG": "Eff_Monster_Common_Born",
    "KHGAHHAIJFJ": "",
    "DFFKHFKJKEK": false
  },
  "MEMHBNEJBCL": {
    "PJBCJPKPOLB": 2.0
  },
  "GKIMHOOMGHB": {
    "DHBJGHDCMAA": {
      "LDAHGACLHII": "Monster_Minion",
      "LJGADHKDLLB": 150.0
    },
    "BPKIJDAHLGB": {
      "LKMLEJGEHAP": ""
    },
    "INCPHOFGIJA": {
      "FGJIHAKMLBG": "CircleLockEnemy",
      "BGMEKAEIOGA": "Avatar&Monster_Lv4"
    },
    "JCCJMILDEAM": {
      "ODGDMCPOMAJ": true,
      "GKFDFDFJJFB": 2.0,
      "FNIJBPMPCHA": 2.0,
      "BCHFMGGBEFN": "Eff_Death_Common",
      "GDFMLKACHDB": "MonsterDie",
      "JBNFBACPJGN": 0.800000011920929,
      "LEDBOLGDENF": true,
      "IEAKKMEDNDE": true,
      "AAEANOPIAAL": true,
      "IBBHGBHIHCI": true,
      "BKIBMIAJOHP": true,
      "MOFPBPPGPCL": true
    }
  },
  "IGPKOOHPBFG": [
    {
      "FPLENFAEDIB": "Monster_MachinaIustitia_Probe_HitSpecial",
      "KAJGDIHNKNE": "Monster_MachinaIustitia_Probe_HitSpecial",
      "BIAMBCDKJKP": ""
    },
    {
      "FPLENFAEDIB": "Monster_MachinaIustitia_CoilHanler",
      "KAJGDIHNKNE": "Monster_MachinaIustitia_CoilHanler",
      "BIAMBCDKJKP": ""
    },
    {
      "FPLENFAEDIB": "Monster_MachinaIustitia_Probe_RepairPose",
      "KAJGDIHNKNE": "Monster_MachinaIustitia_Probe_RepairPose",
      "BIAMBCDKJKP": ""
    },
    {
      "FPLENFAEDIB": "Monster_MachinaIustitia_Probe_CoilEffect",
      "KAJGDIHNKNE": "Monster_MachinaIustitia_Probe_CoilEffect",
      "BIAMBCDKJKP": ""
    },
    {
      "FPLENFAEDIB": "Monster_MachinaIustitia_Recover_Effect_Pneuma",
      "KAJGDIHNKNE": "Monster_MachinaIustitia_Recover_Effect_Pneuma",
      "BIAMBCDKJKP": ""
    },
    {
      "FPLENFAEDIB": "Monster_MachinaIustitia_Recover_Effect_Ousia",
      "KAJGDIHNKNE": "Monster_MachinaIustitia_Recover_Effect_Ousia",
      "BIAMBCDKJKP": ""
    },
    {
      "FPLENFAEDIB": "Monster_MachinaIustitia_Probe_Pose",
      "KAJGDIHNKNE": "Monster_MachinaIustitia_Probe_Pose",
      "BIAMBCDKJKP": ""
    },
    {
      "FPLENFAEDIB": "Monster_MachinaIustitia_Probe_ReturnToBorn",
      "KAJGDIHNKNE": "Monster_MachinaIustitia_Probe_ReturnToBorn",
      "BIAMBCDKJKP": ""
    },
    {
      "FPLENFAEDIB": "Monster_MachinaIustitia_Probe_Alert",
      "KAJGDIHNKNE": "Monster_MachinaIustitia_Probe_Alert",
      "BIAMBCDKJKP": ""
    },
    {
      "FPLENFAEDIB": "Monster_MachinaIustitia_Probe_Recover_Ousia",
      "KAJGDIHNKNE": "Monster_MachinaIustitia_Probe_Recover_Ousia",
      "BIAMBCDKJKP": ""
    },
    {
      "FPLENFAEDIB": "Monster_MachinaIustitia_Probe_RecoverEffect_Pneuma",
      "KAJGDIHNKNE": "Monster_MachinaIustitia_Probe_RecoverEffect_Pneuma",
      "BIAMBCDKJKP": ""
    },
    {
      "FPLENFAEDIB": "Monster_MachinaIustitia_Probe_Recover_Pneuma",
      "KAJGDIHNKNE": "Monster_MachinaIustitia_Probe_Recover_Pneuma",
      "BIAMBCDKJKP": ""
    },
    {
      "FPLENFAEDIB": "Monster_MachinaIustitia_Probe_RecoverEffect_Ousia",
      "KAJGDIHNKNE": "Monster_MachinaIustitia_Probe_RecoverEffect_Ousia",
      "BIAMBCDKJKP": ""
    },
    {
      "FPLENFAEDIB": "Monster_MachinaIustitia_Assimilator_Steer_Handle",
      "KAJGDIHNKNE": "Monster_MachinaIustitia_Assimilator_Steer_Handle",
      "BIAMBCDKJKP": ""
    },
    {
      "FPLENFAEDIB": "Monster_MachinaIustitia_Assimilator_NormalAttack01",
      "KAJGDIHNKNE": "Monster_MachinaIustitia_Assimilator_NormalAttack01",
      "BIAMBCDKJKP": ""
    },
    {
      "FPLENFAEDIB": "Monster_MachinaIustitia_Assimilator_MeleeAttack01",
      "KAJGDIHNKNE": "Monster_MachinaIustitia_Assimilator_MeleeAttack01",
      "BIAMBCDKJKP": ""
    },
    {
      "FPLENFAEDIB": "Monster_MachinaIustitia_Assimilator_LifeSkillEffect",
      "KAJGDIHNKNE": "Monster_MachinaIustitia_Assimilator_LifeSkillEffect",
      "BIAMBCDKJKP": ""
    },
    {
      "FPLENFAEDIB": "Monster_MachinaIustitia_Assimilator_Alert",
      "KAJGDIHNKNE": "Monster_MachinaIustitia_Assimilator_Alert",
      "BIAMBCDKJKP": ""
    }
  ],
  "GGIOJAMBNPO": {
    "defaultLayer": {
      "$type": "EPAPJJAGHKG",
      "ACOCIAFGIAD": "",
      "LFGKIDDJIED": {
        "NormalIdle": {
          "$type": "IJOIMFMEGMM",
          "DLOHGBDFFGB": {
            "Standby": [],
            "PneumaStandby": [],
            "Born": []
          },
          "POLKCLOHPOO": true,
          "PGKCBIHGAOC": true,
          "LAKHIBAPNAB": true,
          "DLAOMOCMANL": [
            "DoSkill"
          ]
        },
        "NormalMove": {
          "$type": "IJOIMFMEGMM",
          "DLOHGBDFFGB": {
            "WalkForward": [],
            "WalkBack": [],
            "Run": []
          },
          "POLKCLOHPOO": true,
          "PGKCBIHGAOC": true,
          "LAKHIBAPNAB": true,
          "DLAOMOCMANL": [
            "DoSkill"
          ],
          "LIPMJPLGIKD": true
        },
        "Turn": {
          "$type": "IJOIMFMEGMM",
          "DLOHGBDFFGB": {
            "TurnLeft": [],
            "TurnRight": [],
            "NoTurn": []
          },
          "POLKCLOHPOO": true,
          "PGKCBIHGAOC": true,
          "LAKHIBAPNAB": true,
          "DLAOMOCMANL": [
            "DoSkill"
          ],
          "LIPMJPLGIKD": true
        },
        "BeHit": {
          "$type": "IJOIMFMEGMM",
          "DLOHGBDFFGB": {
            "Hit_H": [
              "Audio_Monster_MachinaIustitia_Assimilator_Hit_H"
            ]
          },
          "AJBLILDCLBO": [
            "BeHit"
          ],
          "DLAOMOCMANL": [
            "DoSkill"
          ]
        },
        "Overload": {
          "$type": "IJOIMFMEGMM",
          "DLOHGBDFFGB": {
            "PneumaOverload": [
              "Audio_Monster_MachinaIustitia_Assimilator_Overload"
            ],
            "OusiaOverload": [
              "Audio_Monster_MachinaIustitia_Assimilator_Overload"
            ]
          },
          "AJBLILDCLBO": [
            "BeHit"
          ],
          "DLAOMOCMANL": [
            "DoSkill"
          ]
        },
        "Die": {
          "$type": "IJOIMFMEGMM",
          "DLOHGBDFFGB": {
            "Die": [
              "Audio_Monster_MachinaIustitia_Assimilator_Die"
            ]
          },
          "AJBLILDCLBO": [
            "DoSkill"
          ]
        },
        "Die_RagDoll": {
          "$type": "IJOIMFMEGMM",
          "DLOHGBDFFGB": {
            "Die_RagDoll": []
          },
          "AJBLILDCLBO": [
            "DoSkill"
          ]
        },
        "OusiaActivate": {
          "$type": "IJOIMFMEGMM",
          "DLOHGBDFFGB": {
            "OusiaActivate": [
              "Monster_MachinaIustitia_Assimilator_Recover_Ousia",
              "Audio_Monster_MachinaIustitia_Assimilator_OusiaActivate"
            ]
          },
          "OGNDLAMHMPB": 0.0,
          "DLAOMOCMANL": [
            "BeHit",
            "DoSkill"
          ]
        },
        "ReturnToBorn": {
          "$type": "IJOIMFMEGMM",
          "DLOHGBDFFGB": {
            "ReturnToBorn": [
              "Audio_Monster_MachinaIustitia_Assimilator_ReturnToBorn"
            ]
          },
          "LAKHIBAPNAB": true,
          "OGNDLAMHMPB": 0.0,
          "DLAOMOCMANL": [
            "BeHit",
            "DoSkill"
          ]
        },
        "PneumaActivate": {
          "$type": "IJOIMFMEGMM",
          "DLOHGBDFFGB": {
            "PneumaActivate": [
              "Monster_MachinaIustitia_Assimilator_Recover_Pneuma",
              "Audio_Monster_MachinaIustitia_Assimilator_PneumaActivate"
            ]
          },
          "LAKHIBAPNAB": true,
          "OGNDLAMHMPB": 0.0,
          "DLAOMOCMANL": [
            "BeHit",
            "DoSkill"
          ]
        },
        "Dig": {
          "$type": "IJOIMFMEGMM",
          "DLOHGBDFFGB": {
            "Dig": [
              "Monster_MachinaIustitia_Assimilator_Dig"
            ]
          },
          "POLKCLOHPOO": true,
          "LAKHIBAPNAB": true,
          "OGNDLAMHMPB": 0.0,
          "DLAOMOCMANL": [
            "BeHit",
            "DoSkill"
          ]
        },
        "Unload": {
          "$type": "IJOIMFMEGMM",
          "DLOHGBDFFGB": {
            "Unload": [
              "Audio_Monster_MachinaIustitia_Assimilator_Unload"
            ]
          },
          "POLKCLOHPOO": true,
          "LAKHIBAPNAB": true,
          "OGNDLAMHMPB": 0.0,
          "DLAOMOCMANL": [
            "BeHit",
            "DoSkill"
          ],
          "LIPMJPLGIKD": true
        },
        "PneumaAlert": {
          "$type": "IJOIMFMEGMM",
          "DLOHGBDFFGB": {
            "PneumaAlert": [
              "Monster_MachinaIustitia_Assimilator_Alert"
            ]
          },
          "POLKCLOHPOO": true,
          "LAKHIBAPNAB": true,
          "DLAOMOCMANL": [
            "BeHit",
            "DoSkill"
          ],
          "LIPMJPLGIKD": true
        },
        "Alert": {
          "$type": "IJOIMFMEGMM",
          "DLOHGBDFFGB": {
            "Alert": [
              "Monster_MachinaIustitia_Assimilator_Alert"
            ]
          },
          "POLKCLOHPOO": true,
          "LAKHIBAPNAB": true,
          "DLAOMOCMANL": [
            "BeHit",
            "DoSkill"
          ],
          "LIPMJPLGIKD": true
        },
        "NormalAttack01": {
          "$type": "IJOIMFMEGMM",
          "DLOHGBDFFGB": {
            "NormalAttack01": [
              "Audio_Monster_MachinaIustitia_Assimilator_NormalAttack"
            ]
          },
          "DLAOMOCMANL": [
            "BeHit",
            "DoSkill"
          ],
          "NNAKOEKICLF": true,
          "LIPMJPLGIKD": true,
          "ODINBNMGLGA": true
        },
        "MeleeAttack01_BS": {
          "$type": "IJOIMFMEGMM",
          "DLOHGBDFFGB": {
            "MeleeAttack01_BS": [
              "Audio_Monster_MachinaIustitia_Assimilator_MeleeAttack01_BS"
            ]
          },
          "LAKHIBAPNAB": true,
          "DLAOMOCMANL": [
            "BeHit",
            "DoSkill"
          ]
        },
        "MeleeAttack01_Loop": {
          "$type": "IJOIMFMEGMM",
          "DLOHGBDFFGB": {
            "MeleeAttack01_Loop": [
              "Monster_MachinaIustitia_Assimilator_MeleeAttack01"
            ]
          },
          "LAKHIBAPNAB": true,
          "DLAOMOCMANL": [
            "BeHit",
            "DoSkill"
          ],
          "LIPMJPLGIKD": true
        },
        "MeleeAttack01_AS": {
          "$type": "IJOIMFMEGMM",
          "DLOHGBDFFGB": {
            "MeleeAttack01_AS": [
              "Audio_Monster_MachinaIustitia_Assimilator_MeleeAttack01_AS"
            ]
          },
          "LAKHIBAPNAB": true,
          "DLAOMOCMANL": [
            "BeHit",
            "DoSkill"
          ],
          "LIPMJPLGIKD": true
        }
      }
    }
  },
  "IEFGNHABHFH": {
    "$type": "PAOBAEKGGBC",
    "JBKMLLFNHAL": "BillboardAttach",
    "EMFFJPOKEKF": "Character",
    "LOMMBJLKPHE": 1.0,
    "KGHAGECNJPO": true,
    "MGLEAPLEHFN": "Big"
  },
  "IONIFBIBFNL": {
    "Default": {
      "JAAABLNBKAP": 1
    },
    "Pneuma": {
      "JAAABLNBKAP": 21
    },
    "Ousia": {
      "JAAABLNBKAP": 11
    },
    "Dig": {
      "JAAABLNBKAP": 9002,
      "PIEEIAOKMJB": {
        "LHMPJOKLEHI": {
          "FreePoseMark": "9002"
        }
      }
    }
  },
  "PDCDMABCPOA": {
    "ENLKMOKHELD": true,
    "IGOEHEEIFHC": {
      "ENLKMOKHELD": true,
      "OOBEPPKDFJK": [
        4025
      ]
    },
    "OCBDDDCJANP": {
      "IJOBKDKBEME": {
        "DefaultSetting": {
          "PHDIIPOBJGA": 6.0,
          "BHOECAJIBOM": 3.0
        },
        "Work": {
          "FNIFPAHGINJ": false,
          "PHDIIPOBJGA": 0.0,
          "BHOECAJIBOM": 0.0
        }
      },
      "PKFGMCHOEBN": {
        "DefaultTemplate": {
          "DefaultPoses": "DefaultSetting"
        },
        "WorkTemplate": {
          "DefaultPoses": "Work"
        }
      }
    },
    "OFEGONBLOGP": {
      "DefaultSetting": [
        "HIT"
      ]
    },
    "EJOLGMGAECP": {
      "DMBNEKAFACI": true,
      "BJLBMJLOPIP": [
        {
          "LFALGCACJOF": 10.0,
          "IOHOACGNJHO": 2.0
        },
        {
          "LFALGCACJOF": 15.0,
          "IOHOACGNJHO": 0.800000011920929
        },
        {
          "LFALGCACJOF": 20.0,
          "IOHOACGNJHO": 0.5
        },
        {
          "LFALGCACJOF": 25.0,
          "IOHOACGNJHO": 0.30000001192092896
        },
        {
          "LFALGCACJOF": 30.0,
          "IOHOACGNJHO": 0.20000000298023224
        }
      ],
      "IBGELAGCJFH": "Monster_TauntLevel_2",
      "JGFOPCOIJOI": ""
    },
    "PMNPDDIOHHJ": {
      "OKMHHFALCCH": 50.0
    },
    "JLKBBPGPEAA": {},
    "IEMFHBCDJFP": [
      {
        "BIMBEJCAFLP": 0,
        "DIAPGOFDGLC": 3.0
      }
    ],
    "HEJKJODINHK": {},
    "BNIENJNLAIJ": {
      "101": {
        "NOKKDDHKGAK": "Alert",
        "IKMCLKEPDFP": "OnAlert",
        "ENKLFBHHOJI": {
          "CEKMINILIFB": [
            1,
            11
          ]
        },
        "NOPNCNPCPJE": "",
        "LLNBBNIEGGO": true,
        "IDPMFPAPNCE": false,
        "HGAMDGAEIGO": "",
        "LFGKIDDJIED": [
          "Alert"
        ],
        "NNJBOCFBGJG": 3.0,
        "PGPDNPMFFAG": "10",
        "CCEAGFDONFH": "01",
        "OKOFHICILMD": "10",
        "CCFFFOIDOLP": "11"
      },
      "111": {
        "NOKKDDHKGAK": "PneumaAlert",
        "IKMCLKEPDFP": "OnAlert",
        "ENKLFBHHOJI": {
          "CEKMINILIFB": [
            21,
            9002
          ]
        },
        "NOPNCNPCPJE": "",
        "LLNBBNIEGGO": true,
        "IDPMFPAPNCE": false,
        "HGAMDGAEIGO": "",
        "LFGKIDDJIED": [
          "PneumaAlert"
        ],
        "PGPDNPMFFAG": "10",
        "CCEAGFDONFH": "01",
        "OKOFHICILMD": "10",
        "CCFFFOIDOLP": "11"
      },
      "201": {
        "NOKKDDHKGAK": "NormalAttack01",
        "OFLMMKCAHKM": "MeleeAttack",
        "MBDAAADDHNL": 3,
        "ENKLFBHHOJI": {
          "CEKMINILIFB": [
            101,
            102
          ],
          "MLFAMHDFHMM": 3.0
        },
        "PAHIDIJLGPF": 5.0,
        "NOPNCNPCPJE": "",
        "HGAMDGAEIGO": "",
        "LFGKIDDJIED": [
          "NormalAttack01"
        ],
        "NNJBOCFBGJG": 3.0,
        "PGPDNPMFFAG": "10",
        "CCEAGFDONFH": "01",
        "OKOFHICILMD": "11",
        "CCFFFOIDOLP": "11"
      },
      "401": {
        "NOKKDDHKGAK": "MeleeAttack01",
        "OFLMMKCAHKM": "MeleeAttack",
        "MBDAAADDHNL": 3,
        "ENKLFBHHOJI": {
          "CEKMINILIFB": [
            201
          ],
          "MLFAMHDFHMM": 12.0
        },
        "PAHIDIJLGPF": 2.0,
        "LKCFDIOMLCM": 2.0,
        "NOPNCNPCPJE": "MachinaIustitia_Assimilator_MeleeAttack01",
        "HGAMDGAEIGO": "",
        "LFGKIDDJIED": [
          "MeleeAttack01_BS",
          "MeleeAttack01_Loop",
          "MeleeAttack01_AS"
        ],
        "NNJBOCFBGJG": 3.0,
        "PGPDNPMFFAG": "10",
        "CCEAGFDONFH": "01",
        "OKOFHICILMD": "11",
        "CCFFFOIDOLP": "11"
      },
      "501": {
        "NOKKDDHKGAK": "Passive_Activate",
        "MBDAAADDHNL": 1,
        "ENKLFBHHOJI": {
          "CEKMINILIFB": [
            102
          ]
        },
        "PAHIDIJLGPF": 1.0,
        "LKCFDIOMLCM": 1.0,
        "NOPNCNPCPJE": "",
        "LLNBBNIEGGO": true,
        "HGAMDGAEIGO": "",
        "LFGKIDDJIED": [
          "OusiaActivate"
        ],
        "NNJBOCFBGJG": 3.0,
        "PGPDNPMFFAG": "11",
        "CCEAGFDONFH": "01",
        "OKOFHICILMD": "11",
        "CCFFFOIDOLP": "11"
      },
      "511": {
        "NOKKDDHKGAK": "Active_Activate",
        "MBDAAADDHNL": 1,
        "ENKLFBHHOJI": {
          "CEKMINILIFB": [
            101
          ],
          "OHOKAEIMANF": [
            "_MACHINAIUSTITIA_SELFRECOVER_"
          ],
          "CHKHDKJBGCH": "SELF"
        },
        "PAHIDIJLGPF": 5.0,
        "LKCFDIOMLCM": 1.0,
        "NOPNCNPCPJE": "",
        "HGAMDGAEIGO": "",
        "LFGKIDDJIED": [
          "OusiaActivate"
        ],
        "NNJBOCFBGJG": 3.0,
        "PGPDNPMFFAG": "11",
        "CCEAGFDONFH": "01",
        "OKOFHICILMD": "11",
        "CCFFFOIDOLP": "11"
      },
      "9001": {
        "NOKKDDHKGAK": "Unload",
        "IKMCLKEPDFP": "Free",
        "ENKLFBHHOJI": {
          "CEKMINILIFB": [
            11
          ]
        },
        "PAHIDIJLGPF": 20.0,
        "LKCFDIOMLCM": 5.0,
        "NOPNCNPCPJE": "",
        "HGAMDGAEIGO": "",
        "LFGKIDDJIED": [
          "Unload"
        ],
        "NNJBOCFBGJG": 3.0,
        "PGPDNPMFFAG": "10",
        "CCEAGFDONFH": "01",
        "OKOFHICILMD": "11",
        "CCFFFOIDOLP": "11"
      }
    },
    "EMBHEEALPLD": 4.0,
    "EEKEAKJCMJO": [
      {
        "$type": "DIIPKNMAPAC",
        "ENLKMOKHELD": true,
        "FJANPNOAAFK": {
          "CEKMINILIFB": [
            101,
            201,
            301
          ]
        },
        "LMMKNFEMOMG": {
          "AGCMPDABMIA": 0.0,
          "GDPAONNEBCO": 10.0,
          "AJCEMHKIMHA": 0.800000011920929,
          "JNMPGLIADPP": 1.2000000476837158,
          "MMKHHBIBJEN": {
            "JNJFKLDABCB": 0.0,
            "BEJLOBBENJJ": 0.0
          },
          "HEGPGPBKGFH": "1111",
          "AFCLIFKCEKM": "1111",
          "JOCOJHEICNA": ""
        },
        "BIDHHBJEKHM": {
          "201": {
            "AGCMPDABMIA": 0.0,
            "GDPAONNEBCO": 25.0,
            "JNMPGLIADPP": 1.5,
            "CCMODCEDODH": 1.5,
            "HJILEGNBBIJ": 1.0,
            "MMKHHBIBJEN": {
              "JNJFKLDABCB": 0.0,
              "BEJLOBBENJJ": 0.0
            },
            "HEGPGPBKGFH": "1111",
            "AFCLIFKCEKM": "1111",
            "JOCOJHEICNA": ""
          },
          "301": {
            "KIHPEPHJMOG": 0,
            "HEGPGPBKGFH": "1111",
            "AFCLIFKCEKM": "1111",
            "JOCOJHEICNA": ""
          }
        }
      },
      {
        "$type": "BNAGECKMCIB",
        "ENLKMOKHELD": true,
        "FJANPNOAAFK": {
          "CEKMINILIFB": [
            101,
            201,
            301
          ]
        },
        "LMMKNFEMOMG": {
          "MPEMBMLOEDG": 8.0,
          "IJLGPEJGLEH": 50.0,
          "JOCOJHEICNA": ""
        },
        "BIDHHBJEKHM": {
          "301": {
            "KIHPEPHJMOG": 0,
            "JOCOJHEICNA": ""
          },
          "201": {
            "IJLGPEJGLEH": 50.0,
            "JKOGPCLFHCP": 4.0,
            "JOCOJHEICNA": ""
          }
        }
      },
      {
        "$type": "KMHBGMELMKD",
        "ENLKMOKHELD": true,
        "LMMKNFEMOMG": {
          "KPOGGFBLNPE": 1.6699999570846558,
          "JOCOJHEICNA": "",
          "DBIELIMGBMC": ""
        }
      },
      {
        "$type": "GGKADEIBMLG",
        "ENLKMOKHELD": true,
        "FJANPNOAAFK": {
          "CEKMINILIFB": [
            1,
            11
          ]
        },
        "LMMKNFEMOMG": {
          "GEAICNICJAJ": 0.5,
          "JIFJFPJANHO": 7.0,
          "CBKHBGCPFBG": 5.0,
          "EKDHNAGGGAE": 10.0,
          "BFEJAKFKKFP": 3.0,
          "KOAMKCEFJED": 5.0,
          "JOCOJHEICNA": ""
        }
      }
    ]
  },
  "GIBHCHHOJFI": [
    {
      "NPDDCIDNKMH": 201,
      "KCAOBJOPJIC": 257,
      "KAJGDIHNKNE": ""
    },
    {
      "NPDDCIDNKMH": 301,
      "KCAOBJOPJIC": 258,
      "KAJGDIHNKNE": ""
    },
    {
      "NPDDCIDNKMH": 401,
      "KCAOBJOPJIC": 259,
      "KAJGDIHNKNE": ""
    },
    {
      "NPDDCIDNKMH": 501,
      "KCAOBJOPJIC": 260,
      "KAJGDIHNKNE": ""
    },
    {
      "NPDDCIDNKMH": 511,
      "KCAOBJOPJIC": 261,
      "KAJGDIHNKNE": ""
    }
  ],
  "ADIGBDHBCDP": {
    "$type": "IIGPJJNGCLE",
    "EIEIGIPKLAO": {
      "BFHOPPHPHJK": [
        "RetreatAirType"
      ]
    },
    "EPDJOKGCLPD": true,
    "MIPNOGBEANL": "ForwardBackward",
    "EKMHGNLHCNM": 0.800000011920929,
    "FACNOEFNHIB": "RootNode"
  },
  "BEGHJJDCLLK": {
    "KEEAIACIJBN": "",
    "JIOEGJGNLEC": {
      "NGKLCAOGKNG": [
        {
          "ILNHPFBOKNK": "Dig",
          "CDMEEHAPNGE": {
            "KMNBEAJOBPE": "Play_Sfx_Monster_MachinaIustitia_Assimilator_Dig_LP"
          },
          "LFOAJJCBNPI": [
            "Dig"
          ],
          "JKPDEGAANLH": "Except"
        },
        {
          "ILNHPFBOKNK": "WalkForward",
          "CDMEEHAPNGE": {
            "KMNBEAJOBPE": "Play_Sfx_Monster_MachinaIustitia_Assimilator_Roll_LP"
          },
          "LFOAJJCBNPI": [
            "WalkForward"
          ],
          "JKPDEGAANLH": "Except"
        },
        {
          "ILNHPFBOKNK": "WalkBack",
          "CDMEEHAPNGE": {
            "KMNBEAJOBPE": "Play_Sfx_Monster_MachinaIustitia_Assimilator_Roll_LP"
          },
          "LFOAJJCBNPI": [
            "WalkBack"
          ],
          "JKPDEGAANLH": "Except"
        },
        {
          "ILNHPFBOKNK": "Run",
          "CDMEEHAPNGE": {
            "KMNBEAJOBPE": "Play_Sfx_Monster_MachinaIustitia_Assimilator_Roll_LP"
          },
          "LFOAJJCBNPI": [
            "Run"
          ],
          "JKPDEGAANLH": "Except"
        },
        {
          "ILNHPFBOKNK": "TurnLeft",
          "CDMEEHAPNGE": {
            "KMNBEAJOBPE": "Play_Sfx_Monster_MachinaIustitia_Assimilator_Roll_LP"
          },
          "LFOAJJCBNPI": [
            "TurnLeft",
            "TurnRight"
          ],
          "JKPDEGAANLH": "Except"
        },
        {
          "ILNHPFBOKNK": "TurnRight",
          "CDMEEHAPNGE": {
            "KMNBEAJOBPE": "Play_Sfx_Monster_MachinaIustitia_Assimilator_Roll_LP"
          },
          "LFOAJJCBNPI": [
            "TurnRight",
            "TurnLeft"
          ],
          "JKPDEGAANLH": "Except"
        },
        {
          "ILNHPFBOKNK": "MeleeAttack01_Loop",
          "CDMEEHAPNGE": {
            "KMNBEAJOBPE": "Play_Sfx_Monster_MachinaIustitia_Assimilator_MeleeAttack01_Loop_LP"
          },
          "LFOAJJCBNPI": [
            "MeleeAttack01_Loop"
          ],
          "JKPDEGAANLH": "Except"
        }
      ],
      "MPLMIOAKNGG": [
        {
          "ILNHPFBOKNK": "Dig",
          "CDMEEHAPNGE": {
            "KMNBEAJOBPE": "Stop_Sfx_Monster_MachinaIustitia_Assimilator_Dig_LP"
          },
          "LFOAJJCBNPI": [
            "Dig"
          ],
          "JKPDEGAANLH": "Except"
        },
        {
          "ILNHPFBOKNK": "WalkForward",
          "CDMEEHAPNGE": {
            "KMNBEAJOBPE": "Stop_Sfx_Monster_MachinaIustitia_Assimilator_Roll_LP"
          },
          "LFOAJJCBNPI": [
            "WalkForward"
          ],
          "JKPDEGAANLH": "Except"
        },
        {
          "ILNHPFBOKNK": "WalkBack",
          "CDMEEHAPNGE": {
            "KMNBEAJOBPE": "Stop_Sfx_Monster_MachinaIustitia_Assimilator_Roll_LP"
          },
          "LFOAJJCBNPI": [
            "WalkBack"
          ],
          "JKPDEGAANLH": "Except"
        },
        {
          "ILNHPFBOKNK": "Run",
          "CDMEEHAPNGE": {
            "KMNBEAJOBPE": "Stop_Sfx_Monster_MachinaIustitia_Assimilator_Roll_LP"
          },
          "LFOAJJCBNPI": [
            "Run"
          ],
          "JKPDEGAANLH": "Except"
        },
        {
          "ILNHPFBOKNK": "TurnLeft",
          "CDMEEHAPNGE": {
            "KMNBEAJOBPE": "Stop_Sfx_Monster_MachinaIustitia_Assimilator_Roll_LP"
          },
          "LFOAJJCBNPI": [
            "TurnLeft",
            "TurnRight"
          ],
          "JKPDEGAANLH": "Except"
        },
        {
          "ILNHPFBOKNK": "TurnRight",
          "CDMEEHAPNGE": {
            "KMNBEAJOBPE": "Stop_Sfx_Monster_MachinaIustitia_Assimilator_Roll_LP"
          },
          "LFOAJJCBNPI": [
            "TurnLeft",
            "TurnRight"
          ],
          "JKPDEGAANLH": "Except"
        },
        {
          "ILNHPFBOKNK": "MeleeAttack01_Loop",
          "CDMEEHAPNGE": {
            "KMNBEAJOBPE": "Stop_Sfx_Monster_MachinaIustitia_Assimilator_MeleeAttack01_Loop_LP"
          },
          "LFOAJJCBNPI": [
            "MeleeAttack01_Loop"
          ],
          "JKPDEGAANLH": "Except"
        }
      ]
    }
  }
}