{
  "MDJNFHAJPAD": {
    "FAIKDMCHPEL": {
      "$type": "DPGKNHENGLM",
      "DDDEJPIFECG": "EffectMesh"
    },
    "FINMNFLLAMB": 20.0,
    "NEBDNCNFDJC": 0.800000011920929,
    "MBMBBGOGNHF": true,
    "DIEPJBNIPBG": true,
    "CKECEGGMJOP": false,
    "JBIPDEEPIMN": true,
    "GJKLEPPOKDJ": true
  },
  "PJEANIPCFFN": {
    "CKAIGCFDCMG": "",
    "KHGAHHAIJFJ": "",
    "DFFKHFKJKEK": false
  },
  "GKIMHOOMGHB": {
    "DHBJGHDCMAA": {
      "LDAHGACLHII": "Monster_Minion",
      "LJGADHKDLLB": 30.0,
      "ACOAHCMABGF": true
    },
    "BPKIJDAHLGB": {
      "LKMLEJGEHAP": "",
      "LHMKDLOKKJG": true
    },
    "INCPHOFGIJA": {
      "FGJIHAKMLBG": "CircleLockEnemy",
      "JPIFIDOPOND": true,
      "BGMEKAEIOGA": "Default"
    },
    "JCCJMILDEAM": {
      "ODGDMCPOMAJ": true,
      "GKFDFDFJJFB": 1.0,
      "FNIJBPMPCHA": 1.0,
      "BCHFMGGBEFN": ""
    }
  },
  "GGIOJAMBNPO": {
    "defaultLayer": {
      "$type": "EPAPJJAGHKG",
      "ACOCIAFGIAD": "",
      "LFGKIDDJIED": {
        "Born": {
          "$type": "IJOIMFMEGMM",
          "DLOHGBDFFGB": {
            "Born": []
          },
          "DLAOMOCMANL": [
            "DoSkill"
          ]
        },
        "NormalIdle": {
          "$type": "IJOIMFMEGMM",
          "DLOHGBDFFGB": {
            "Standby": []
          },
          "POLKCLOHPOO": true,
          "PGKCBIHGAOC": true,
          "DLAOMOCMANL": [
            "DoSkill"
          ]
        },
        "NormalMove": {
          "$type": "IJOIMFMEGMM",
          "DLOHGBDFFGB": {
            "Walk": [
              "Animal_Fishable_Maritime_Walk"
            ],
            "Run": [
              "Animal_Fishable_Maritime_Run"
            ]
          },
          "POLKCLOHPOO": true,
          "PGKCBIHGAOC": true,
          "DLAOMOCMANL": [
            "DoSkill"
          ],
          "LIPMJPLGIKD": true
        },
        "Turn": {
          "$type": "IJOIMFMEGMM",
          "DLOHGBDFFGB": {
            "Turn_Run": [],
            "Turn_Run_Reverse": [
              "Animal_Fishable_Maritime_Turn_Run"
            ]
          },
          "POLKCLOHPOO": true,
          "PGKCBIHGAOC": true,
          "DLAOMOCMANL": [
            "DoSkill"
          ],
          "LIPMJPLGIKD": true
        },
        "BeHit": {
          "$type": "IJOIMFMEGMM",
          "DLOHGBDFFGB": {
            "Hit_L": []
          },
          "AJBLILDCLBO": [
            "BeHit"
          ],
          "DLAOMOCMANL": [
            "DoSkill"
          ]
        },
        "Die": {
          "$type": "IJOIMFMEGMM",
          "DLOHGBDFFGB": {
            "Die": [
              "Animal_Fish_Die"
            ]
          }
        },
        "Escape": {
          "$type": "IJOIMFMEGMM",
          "DLOHGBDFFGB": {
            "Escape": [
              "Animal_Fishable_Maritime_Escape"
            ]
          },
          "PGKCBIHGAOC": true,
          "DLAOMOCMANL": [
            "DoSkill"
          ],
          "LIPMJPLGIKD": true
        },
        "QTE": {
          "$type": "IJOIMFMEGMM",
          "DLOHGBDFFGB": {
            "QTE_Idle": [
              "Animal_Fishable_Maritime_Hooked_Idle"
            ],
            "QTE_StruggleLevel01": [
              "Animal_Fishable_Maritime_Hooked_StruggleLevel01_Large"
            ],
            "QTE_StruggleLevel02": [
              "Animal_Fishable_Maritime_Hooked_StruggleLevel02_Large"
            ],
            "QTE_StruggleLevel03": [
              "Animal_Fishable_Maritime_Hooked_StruggleLevel03_Large"
            ]
          },
          "PGKCBIHGAOC": true,
          "DLAOMOCMANL": [
            "DoSkill"
          ],
          "LIPMJPLGIKD": true
        },
        "QTESuccess": {
          "$type": "IJOIMFMEGMM",
          "DLOHGBDFFGB": {
            "QTESuccess": [
              "Animal_Fishable_Maritime_Hooked_Lifted"
            ]
          },
          "PGKCBIHGAOC": true,
          "DLAOMOCMANL": [
            "DoSkill"
          ],
          "LIPMJPLGIKD": true
        },
        "LowEnergy": {
          "$type": "IJOIMFMEGMM",
          "DLOHGBDFFGB": {
            "LowEnergy": [
              "Animal_Fishable_Maritime_Hooked_LowEnergy"
            ]
          },
          "PGKCBIHGAOC": true,
          "DLAOMOCMANL": [
            "DoSkill"
          ],
          "LIPMJPLGIKD": true
        },
        "TeaseBait": {
          "$type": "IJOIMFMEGMM",
          "DLOHGBDFFGB": {
            "TeaseBait": [
              "Animal_Fishable_Maritime_TeaseBait_Large"
            ]
          },
          "PGKCBIHGAOC": true,
          "DLAOMOCMANL": [
            "DoSkill"
          ],
          "LIPMJPLGIKD": true
        },
        "BiteBait": {
          "$type": "IJOIMFMEGMM",
          "DLOHGBDFFGB": {
            "BiteBait": [
              "Animal_Fishable_Maritime_BiteBait_Large"
            ],
            "BiteBait_AS": [
              "Animal_Fishable_Maritime_Hooked_Idle"
            ]
          },
          "PGKCBIHGAOC": true,
          "DLAOMOCMANL": [
            "DoSkill"
          ],
          "LIPMJPLGIKD": true
        },
        "IdleFree": {
          "$type": "IJOIMFMEGMM",
          "DLOHGBDFFGB": {
            "IdleFree01": [
              "Animal_Fishable_Maritime_IdleFree01_Large"
            ]
          },
          "PGKCBIHGAOC": true,
          "DLAOMOCMANL": [
            "DoSkill"
          ],
          "LIPMJPLGIKD": true
        }
      }
    }
  },
  "IONIFBIBFNL": {
    "Default": {},
    "Normal": {
      "JAAABLNBKAP": 1,
      "PIEEIAOKMJB": {
        "GKGFCNLPILF": {
          "isSpecial": "false"
        }
      }
    },
    "Special": {
      "JAAABLNBKAP": 2,
      "PIEEIAOKMJB": {
        "GKGFCNLPILF": {
          "isSpecial": "true"
        }
      }
    }
  },
  "PDCDMABCPOA": {
    "ENLKMOKHELD": true,
    "BBIKFBPEPKO": 1,
    "LFINILDKIOL": "Animal_Fishable",
    "KGDGKFHPJPO": {
      "KEBHJNMBPBJ": "Water",
      "NAHAOOOGKLG": false,
      "NLGDNEMIKPE": "Undead01"
    },
    "OCBDDDCJANP": {
      "IJOBKDKBEME": {
        "DefaultSetting": {
          "PHDIIPOBJGA": 0.0,
          "IINDLMAAMGD": 0.0,
          "BHOECAJIBOM": 0.0
        }
      }
    },
    "OFEGONBLOGP": {
      "DefaultSetting": [
        "HIT"
      ]
    },
    "EJOLGMGAECP": {
      "OFANIFGIFLN": 10.0,
      "HJODDLMLPBJ": 0.800000011920929,
      "KICEOILEEPP": 0.0,
      "JEAMBMPMOAC": 0.0,
      "KNNHACDCGCF": 0.0,
      "JGFOPCOIJOI": ""
    },
    "PMNPDDIOHHJ": {
      "OKMHHFALCCH": 50.0
    },
    "HEOOEKIGDAL": {
      "GMFIDKOEKHA": false,
      "FLMOHOODJBA": ""
    },
    "JLKBBPGPEAA": {
      "FMFBMENJLJF": "MinorAnimal",
      "GLOANBBAOOD": 3
    },
    "BNIENJNLAIJ": {
      "1": {
        "NOKKDDHKGAK": "IdleFree01_SpecialIdle",
        "IKMCLKEPDFP": "Free",
        "ENKLFBHHOJI": {
          "CEKMINILIFB": [
            2
          ],
          "JHPHNFCMCIL": true
        },
        "PAHIDIJLGPF": 2.0,
        "GPMLADFJAAH": 5.0,
        "LKCFDIOMLCM": 2.0,
        "KKAEGIJIDLG": 5.0,
        "NOPNCNPCPJE": "",
        "LLNBBNIEGGO": true,
        "IDPMFPAPNCE": false,
        "HGAMDGAEIGO": "",
        "LFGKIDDJIED": [
          "IdleFree"
        ],
        "PGPDNPMFFAG": "10",
        "CCEAGFDONFH": "01",
        "OKOFHICILMD": "10",
        "CCFFFOIDOLP": "11"
      },
      "101": {
        "NOKKDDHKGAK": "IdleFree01_SpecialCombat",
        "ENKLFBHHOJI": {
          "CEKMINILIFB": [
            102
          ],
          "JHPHNFCMCIL": true
        },
        "PAHIDIJLGPF": 2.0,
        "GPMLADFJAAH": 5.0,
        "LKCFDIOMLCM": 2.0,
        "KKAEGIJIDLG": 5.0,
        "NOPNCNPCPJE": "",
        "LLNBBNIEGGO": true,
        "IDPMFPAPNCE": false,
        "HGAMDGAEIGO": "",
        "LFGKIDDJIED": [
          "IdleFree"
        ],
        "PGPDNPMFFAG": "10",
        "CCEAGFDONFH": "01",
        "OKOFHICILMD": "10",
        "CCFFFOIDOLP": "11"
      }
    },
    "EEKEAKJCMJO": [
      {
        "$type": "DOABNKJHPPK",
        "ENLKMOKHELD": true,
        "LMMKNFEMOMG": {
          "KIHPEPHJMOG": 1,
          "GEAICNICJAJ": 2.0
        }
      },
      {
        "$type": "PJPGGLCGJNJ",
        "ENLKMOKHELD": true,
        "LMMKNFEMOMG": {
          "PKCPKDEDONG": 1.25,
          "GNOLJEJKHHC": 180.0,
          "IDLNNELKNFF": {},
          "AJCEMHKIMHA": 5.877471754111438e-39,
          "CCMODCEDODH": 3.5356666020826616e-38
        }
      },
      {
        "$type": "CLAFKAJEFMJ",
        "ENLKMOKHELD": true,
        "LMMKNFEMOMG": {
          "KIHPEPHJMOG": 1,
          "GEAICNICJAJ": 2.0,
          "IFCLJHAJFHD": 0.5,
          "LHFENMDDFBJ": 0.75
        }
      },
      {
        "$type": "KMHBGMELMKD"
      },
      {
        "$type": "GGKADEIBMLG",
        "ENLKMOKHELD": true,
        "LMMKNFEMOMG": {
          "GEAICNICJAJ": 1.0,
          "JIFJFPJANHO": 5.0,
          "CBKHBGCPFBG": 3.0,
          "EKDHNAGGGAE": 7.0,
          "BFEJAKFKKFP": 3.200000047683716,
          "KOAMKCEFJED": 6.400000095367432,
          "JOCOJHEICNA": ""
        }
      }
    ]
  },
  "ADIGBDHBCDP": {
    "$type": "IIGPJJNGCLE",
    "AGJAKLGIBAB": false,
    "MLKCNHIIMCE": true,
    "AFOGPFALECN": 0.5,
    "FACNOEFNHIB": "RootNode"
  },
  "KDLODKFKHPB": {
    "HKPPCCONOFN": false,
    "PIMGAEBNCBJ": false,
    "JFBHPOLAAEJ": false
  }
}