{
  "common": {
    "effectAttachShape": {
      "$type": "CMIPFEGOJCH",
      "EJAEFCDBDFB": "EffectMesh"
    },
    "mass": 10000.0,
    "height": 2.5,
    "viewSize": 1.2000000476837158,
    "affectedByWorld": true,
    "checkInSurface": true,
    "scale": 2.9000000953674316,
    "useGrassDisplacement": true,
    "clearAIOnSetLightDeactive": true,
    "DLFJJCMGIBH": true,
    "NICGCIINMFJ": true,
    "EEGAOPFGPJF": [
      {
        "NJOIKMEHFLK": "EffectMesh01Point",
        "MDNKPMMAOPO": "EffectMesh01"
      },
      {
        "NJOIKMEHFLK": "EffectMesh02Point",
        "MDNKPMMAOPO": "EffectMesh02"
      },
      {
        "NJOIKMEHFLK": "EffectMesh03Point",
        "MDNKPMMAOPO": "EffectMesh03"
      }
    ]
  },
  "model": {
    "bornEffect": "Eff_Monster_Common_Born",
    "attachEffect": ""
  },
  "dither": {
    "showDitherDuration": 2.0
  },
  "combat": {
    "property": {
      "endureType": "Monster_Demiboss_Other",
      "weight": 150.0
    },
    "beHit": {
      "hitBloodEffect": ""
    },
    "combatLock": {
      "lockShape": "CircleLockEnemy",
      "lockType": "Avatar&Monster_Lv4"
    },
    "die": {
      "hasAnimatorDie": true,
      "dieEndTime": 1.7999999523162842,
      "dieForceDisappearTime": 1.7999999523162842,
      "dieDisappearEffect": "Eff_Death_Common",
      "dieShaderData": "MonsterDie",
      "LDOHFFOEPPI": true,
      "BMOKGIFNILM": true,
      "PHCLLDNDFNG": true,
      "CHBAHMJGJBE": true,
      "OPPHENIKFJA": true,
      "CCNGAIMLPIJ": true
    },
    "animEvents": {
      "AtkNo": {
        "attackPattern": {
          "$type": "HBFCINNBDFD",
          "triggerType": "TriggerNoRepeat",
          "born": {
            "$type": "KDEPFKAAHCG",
            "offset": {
              "HMHIOILIGBF": 0.0,
              "DPPJGBOHAAL": 0.0,
              "DDOAGBLBCEF": -0.5
            }
          },
          "NPLOANBGDOK": 60.0,
          "DFMMIGEMOHH": 1.5
        },
        "attackInfo": {
          "attackTag": "",
          "attenuationTag": "",
          "attenuationGroup": "default",
          "attackProperty": {
            "PCFAAPMOCGJ": 0.5,
            "LCCBNOKMNFG": 0.0,
            "bonusCritical": 100.0,
            "strikeType": "Blunt",
            "attackType": "Melee",
            "FKGFPFNOJMN": 0.0
          },
          "hitPattern": {
            "onHitEffectName": "default",
            "hitImpulseType": "LV2",
            "hitHaltTimeScale": 0.009999999776482582
          }
        }
      },
      "Atk01_1": {
        "attackPattern": {
          "$type": "HBFCINNBDFD",
          "triggerType": "TriggerNoRepeat",
          "born": {
            "$type": "KDEPFKAAHCG",
            "offset": {
              "HMHIOILIGBF": 0.0,
              "DPPJGBOHAAL": 0.0,
              "DDOAGBLBCEF": 0.0
            }
          },
          "height": 3.0,
          "NPLOANBGDOK": 90.0,
          "DFMMIGEMOHH": 4.0
        },
        "attackInfo": {
          "attackTag": "",
          "attenuationTag": "",
          "attenuationGroup": "default",
          "attackProperty": {
            "PCFAAPMOCGJ": 0.6000000238418579,
            "LCCBNOKMNFG": 0.0,
            "elementType": "Electric",
            "bonusCritical": 30.0,
            "strikeType": "Blunt",
            "enBreak": 100.0,
            "attackType": "Melee",
            "FKGFPFNOJMN": 0.0
          },
          "hitPattern": {
            "onHitEffectName": "default",
            "hitImpulseType": "LV3",
            "hitHaltTimeScale": 0.009999999776482582
          }
        }
      },
      "Atk01_2": {
        "attackPattern": {
          "$type": "HBFCINNBDFD",
          "triggerType": "TriggerNoRepeat",
          "born": {
            "$type": "KDEPFKAAHCG",
            "offset": {
              "HMHIOILIGBF": 0.0,
              "DPPJGBOHAAL": 0.0,
              "DDOAGBLBCEF": 0.0
            }
          },
          "height": 3.0,
          "NPLOANBGDOK": 90.0,
          "DFMMIGEMOHH": 4.0
        },
        "attackInfo": {
          "attackTag": "",
          "attenuationTag": "",
          "attenuationGroup": "default",
          "attackProperty": {
            "PCFAAPMOCGJ": 0.4000000059604645,
            "LCCBNOKMNFG": 0.0,
            "elementType": "Electric",
            "bonusCritical": 30.0,
            "strikeType": "Blunt",
            "enBreak": 100.0,
            "attackType": "Melee",
            "FKGFPFNOJMN": 0.0
          },
          "hitPattern": {
            "onHitEffectName": "default",
            "hitImpulseType": "LV3",
            "hitHaltTimeScale": 0.009999999776482582
          }
        }
      },
      "SacredAttack01_Hit1": {
        "attackPattern": {
          "$type": "HBFCINNBDFD",
          "triggerType": "TriggerNoRepeat",
          "born": {
            "$type": "KDEPFKAAHCG",
            "offset": {
              "HMHIOILIGBF": 0.0,
              "DPPJGBOHAAL": -1.0,
              "DDOAGBLBCEF": 0.0
            },
            "GDHMBIJKMEF": {
              "$type": "DFEHJKCDGHN",
              "PKNBBHPAKCG": {
                "HMHIOILIGBF": 0.0,
                "DPPJGBOHAAL": -45.0,
                "DDOAGBLBCEF": 0.0
              }
            }
          },
          "height": 4.0,
          "NPLOANBGDOK": 150.0,
          "DFMMIGEMOHH": 4.0
        },
        "attackInfo": {
          "attackTag": "",
          "attenuationTag": "",
          "attenuationGroup": "default",
          "attackProperty": {
            "PCFAAPMOCGJ": 0.30000001192092896,
            "LCCBNOKMNFG": 0.0,
            "elementType": "Electric",
            "bonusCritical": 30.0,
            "strikeType": "Blunt",
            "enBreak": 200.0,
            "attackType": "Melee",
            "FKGFPFNOJMN": 0.0
          },
          "hitPattern": {
            "onHitEffectName": "default",
            "hitImpulseType": "LV3",
            "hitHaltTimeScale": 0.009999999776482582
          }
        }
      },
      "SacredAttack01_Hit2": {
        "attackPattern": {
          "$type": "HBFCINNBDFD",
          "triggerType": "TriggerNoRepeat",
          "born": {
            "$type": "KDEPFKAAHCG",
            "offset": {
              "HMHIOILIGBF": 0.0,
              "DPPJGBOHAAL": -1.0,
              "DDOAGBLBCEF": 1.0
            },
            "GDHMBIJKMEF": {
              "$type": "DFEHJKCDGHN",
              "PKNBBHPAKCG": {
                "HMHIOILIGBF": 0.0,
                "DPPJGBOHAAL": 90.0,
                "DDOAGBLBCEF": 0.0
              }
            }
          },
          "height": 4.0,
          "NPLOANBGDOK": 180.0,
          "DFMMIGEMOHH": 3.0
        },
        "attackInfo": {
          "attackTag": "",
          "attenuationTag": "",
          "attenuationGroup": "default",
          "attackProperty": {
            "PCFAAPMOCGJ": 0.30000001192092896,
            "LCCBNOKMNFG": 0.0,
            "elementType": "Electric",
            "bonusCritical": 30.0,
            "strikeType": "Blunt",
            "enBreak": 200.0,
            "attackType": "Melee",
            "FKGFPFNOJMN": 0.0
          },
          "hitPattern": {
            "onHitEffectName": "default",
            "hitImpulseType": "LV3",
            "hitHaltTimeScale": 0.009999999776482582
          }
        }
      },
      "SacredAttack01_Hit3": {
        "attackPattern": {
          "$type": "HBFCINNBDFD",
          "triggerType": "TriggerNoRepeat",
          "born": {
            "$type": "KDEPFKAAHCG",
            "offset": {
              "HMHIOILIGBF": 0.0,
              "DPPJGBOHAAL": -1.0,
              "DDOAGBLBCEF": 2.0
            }
          },
          "height": 4.0,
          "DFMMIGEMOHH": 3.0
        },
        "attackInfo": {
          "attackTag": "",
          "attenuationTag": "",
          "attenuationGroup": "default",
          "attackProperty": {
            "PCFAAPMOCGJ": 0.5,
            "LCCBNOKMNFG": 0.0,
            "elementType": "Electric",
            "bonusCritical": 30.0,
            "strikeType": "Blunt",
            "enBreak": 200.0,
            "attackType": "Melee",
            "FKGFPFNOJMN": 0.0
          },
          "hitPattern": {
            "onHitEffectName": "default",
            "hitImpulseType": "LV4",
            "hitHaltTimeScale": 0.009999999776482582
          }
        }
      },
      "SacredAttack02": {
        "attackPattern": {
          "$type": "HBFCINNBDFD",
          "triggerType": "TriggerNoRepeat",
          "born": {
            "$type": "KDEPFKAAHCG",
            "offset": {
              "HMHIOILIGBF": 0.0,
              "DPPJGBOHAAL": -1.0,
              "DDOAGBLBCEF": 0.0
            }
          },
          "height": 4.0,
          "DFMMIGEMOHH": 6.0
        },
        "attackInfo": {
          "attackTag": "",
          "attenuationTag": "",
          "attenuationGroup": "default",
          "attackProperty": {
            "PCFAAPMOCGJ": 1.0,
            "LCCBNOKMNFG": 0.0,
            "elementType": "Electric",
            "bonusCritical": 30.0,
            "strikeType": "Blunt",
            "enBreak": 200.0,
            "attackType": "Melee",
            "FKGFPFNOJMN": 0.0
          },
          "hitPattern": {
            "onHitEffectName": "default",
            "hitImpulseType": "LV5",
            "hitHaltTimeScale": 0.009999999776482582
          },
          "cameraShake": {
            "shakeType": "CustomVector",
            "shakeRange": 1.0,
            "shakeTime": 0.30000001192092896,
            "shakeDistance": 30.0,
            "shakeDir": {
              "y": -1.0
            }
          }
        }
      },
      "SacredAttack03_Hit1": {
        "attackPattern": {
          "$type": "HBFCINNBDFD",
          "triggerType": "TriggerNoRepeat",
          "born": {
            "$type": "KDEPFKAAHCG",
            "offset": {
              "HMHIOILIGBF": 0.0,
              "DPPJGBOHAAL": -1.0,
              "DDOAGBLBCEF": 3.5
            }
          },
          "height": 4.0,
          "DFMMIGEMOHH": 2.5999999046325684
        },
        "attackInfo": {
          "attackTag": "",
          "attenuationTag": "",
          "attenuationGroup": "default",
          "attackProperty": {
            "PCFAAPMOCGJ": 0.6000000238418579,
            "LCCBNOKMNFG": 0.0,
            "elementType": "Electric",
            "bonusCritical": 30.0,
            "strikeType": "Blunt",
            "enBreak": 200.0,
            "attackType": "Melee",
            "FKGFPFNOJMN": 0.0
          },
          "hitPattern": {
            "onHitEffectName": "default",
            "hitImpulseType": "LV4",
            "hitHaltTimeScale": 0.009999999776482582
          }
        }
      },
      "SacredAttack03_Hit2_1": {
        "attackPattern": {
          "$type": "GGBJACPDDCM",
          "triggerType": "TriggerNoRepeat",
          "born": {
            "$type": "KDEPFKAAHCG",
            "offset": {
              "HMHIOILIGBF": 0.5,
              "DPPJGBOHAAL": 0.0,
              "DDOAGBLBCEF": 2.0
            }
          },
          "size": {
            "HMHIOILIGBF": 2.0,
            "DPPJGBOHAAL": 4.0,
            "DDOAGBLBCEF": 3.0
          }
        },
        "attackInfo": {
          "attackTag": "",
          "attenuationTag": "",
          "attenuationGroup": "default",
          "attackProperty": {
            "PCFAAPMOCGJ": 0.30000001192092896,
            "LCCBNOKMNFG": 0.0,
            "elementType": "Electric",
            "bonusCritical": 30.0,
            "strikeType": "Blunt",
            "enBreak": 200.0,
            "attackType": "Melee",
            "FKGFPFNOJMN": 0.0
          },
          "hitPattern": {
            "onHitEffectName": "default",
            "hitImpulseType": "LV3",
            "hitHaltTimeScale": 0.009999999776482582
          }
        }
      },
      "SacredAttack03_Hit2_2": {
        "attackPattern": {
          "$type": "GGBJACPDDCM",
          "triggerType": "TriggerNoRepeat",
          "born": {
            "$type": "KDEPFKAAHCG",
            "offset": {
              "HMHIOILIGBF": -0.5,
              "DPPJGBOHAAL": 0.0,
              "DDOAGBLBCEF": 2.0
            }
          },
          "size": {
            "HMHIOILIGBF": 2.0,
            "DPPJGBOHAAL": 4.0,
            "DDOAGBLBCEF": 3.0
          }
        },
        "attackInfo": {
          "attackTag": "",
          "attenuationTag": "",
          "attenuationGroup": "default",
          "attackProperty": {
            "PCFAAPMOCGJ": 0.30000001192092896,
            "LCCBNOKMNFG": 0.0,
            "elementType": "Electric",
            "bonusCritical": 30.0,
            "strikeType": "Blunt",
            "enBreak": 200.0,
            "attackType": "Melee",
            "FKGFPFNOJMN": 0.0
          },
          "hitPattern": {
            "onHitEffectName": "default",
            "hitImpulseType": "LV3",
            "hitHaltTimeScale": 0.009999999776482582
          }
        }
      },
      "SacredAttack03_Hit2_3": {
        "attackPattern": {
          "$type": "GGBJACPDDCM",
          "triggerType": "TriggerNoRepeat",
          "born": {
            "$type": "KDEPFKAAHCG",
            "offset": {
              "HMHIOILIGBF": 0.5,
              "DPPJGBOHAAL": 0.0,
              "DDOAGBLBCEF": 2.0
            }
          },
          "size": {
            "HMHIOILIGBF": 2.0,
            "DPPJGBOHAAL": 4.0,
            "DDOAGBLBCEF": 3.0
          }
        },
        "attackInfo": {
          "attackTag": "",
          "attenuationTag": "",
          "attenuationGroup": "default",
          "attackProperty": {
            "PCFAAPMOCGJ": 0.30000001192092896,
            "LCCBNOKMNFG": 0.0,
            "elementType": "Electric",
            "bonusCritical": 30.0,
            "strikeType": "Blunt",
            "enBreak": 200.0,
            "attackType": "Melee",
            "FKGFPFNOJMN": 0.0
          },
          "hitPattern": {
            "onHitEffectName": "default",
            "hitImpulseType": "LV3",
            "hitHaltTimeScale": 0.009999999776482582
          }
        }
      },
      "SacredAttack03_Hit2_4": {
        "attackPattern": {
          "$type": "GGBJACPDDCM",
          "triggerType": "TriggerNoRepeat",
          "born": {
            "$type": "KDEPFKAAHCG",
            "offset": {
              "HMHIOILIGBF": -0.5,
              "DPPJGBOHAAL": 0.0,
              "DDOAGBLBCEF": 1.0
            }
          },
          "size": {
            "HMHIOILIGBF": 2.0,
            "DPPJGBOHAAL": 4.0,
            "DDOAGBLBCEF": 3.0
          }
        },
        "attackInfo": {
          "attackTag": "",
          "attenuationTag": "",
          "attenuationGroup": "default",
          "attackProperty": {
            "PCFAAPMOCGJ": 0.30000001192092896,
            "LCCBNOKMNFG": 0.0,
            "elementType": "Electric",
            "bonusCritical": 30.0,
            "strikeType": "Blunt",
            "enBreak": 200.0,
            "attackType": "Melee",
            "FKGFPFNOJMN": 0.0
          },
          "hitPattern": {
            "onHitEffectName": "default",
            "hitImpulseType": "LV3",
            "hitHaltTimeScale": 0.009999999776482582
          }
        }
      },
      "SacredAttack03_Hit4": {
        "attackPattern": {
          "$type": "HBFCINNBDFD",
          "triggerType": "TriggerNoRepeat",
          "born": {
            "$type": "KDEPFKAAHCG",
            "offset": {
              "HMHIOILIGBF": 0.0,
              "DPPJGBOHAAL": -1.0,
              "DDOAGBLBCEF": 6.5
            }
          },
          "height": 4.0,
          "DFMMIGEMOHH": 3.5
        },
        "attackInfo": {
          "attackTag": "",
          "attenuationTag": "",
          "attenuationGroup": "default",
          "attackProperty": {
            "PCFAAPMOCGJ": 0.800000011920929,
            "LCCBNOKMNFG": 0.0,
            "elementType": "Electric",
            "bonusCritical": 30.0,
            "strikeType": "Blunt",
            "enBreak": 200.0,
            "attackType": "Melee",
            "FKGFPFNOJMN": 0.0
          },
          "hitPattern": {
            "onHitEffectName": "default",
            "hitImpulseType": "LV5",
            "hitHaltTimeScale": 0.009999999776482582
          },
          "cameraShake": {
            "shakeType": "CustomVector",
            "shakeRange": 1.0,
            "shakeTime": 0.20000000298023224,
            "shakeDistance": 30.0,
            "shakeDir": {
              "y": -1.0
            }
          }
        }
      },
      "SacredAttack05": {
        "attackPattern": {
          "$type": "HBFCINNBDFD",
          "triggerType": "TriggerNoRepeat",
          "born": {
            "$type": "KDEPFKAAHCG",
            "offset": {
              "HMHIOILIGBF": 0.0,
              "DPPJGBOHAAL": -1.0,
              "DDOAGBLBCEF": 0.0
            },
            "GDHMBIJKMEF": {
              "$type": "DFEHJKCDGHN",
              "PKNBBHPAKCG": {
                "HMHIOILIGBF": 0.0,
                "DPPJGBOHAAL": -45.0,
                "DDOAGBLBCEF": 0.0
              }
            }
          },
          "height": 4.0,
          "DFMMIGEMOHH": 3.5
        },
        "attackInfo": {
          "attackTag": "",
          "attenuationTag": "",
          "attenuationGroup": "default",
          "attackProperty": {
            "PCFAAPMOCGJ": 0.30000001192092896,
            "LCCBNOKMNFG": 0.0,
            "elementType": "Electric",
            "bonusCritical": 30.0,
            "strikeType": "Blunt",
            "enBreak": 200.0,
            "attackType": "Melee",
            "FKGFPFNOJMN": 0.0
          },
          "hitPattern": {
            "onHitEffectName": "default",
            "hitImpulseType": "LV4",
            "hitHaltTimeScale": 0.009999999776482582
          }
        }
      },
      "SacredAttack05_LastHit": {
        "attackPattern": {
          "$type": "HBFCINNBDFD",
          "triggerType": "TriggerNoRepeat",
          "born": {
            "$type": "KDEPFKAAHCG",
            "offset": {
              "HMHIOILIGBF": 0.0,
              "DPPJGBOHAAL": -1.0,
              "DDOAGBLBCEF": 2.0
            }
          },
          "height": 4.0,
          "DFMMIGEMOHH": 3.0
        },
        "attackInfo": {
          "attackTag": "",
          "attenuationTag": "",
          "attenuationGroup": "default",
          "attackProperty": {
            "PCFAAPMOCGJ": 0.699999988079071,
            "LCCBNOKMNFG": 0.0,
            "elementType": "Electric",
            "bonusCritical": 30.0,
            "strikeType": "Blunt",
            "enBreak": 200.0,
            "attackType": "Melee",
            "FKGFPFNOJMN": 0.0
          },
          "hitPattern": {
            "onHitEffectName": "default",
            "hitImpulseType": "LV4",
            "hitHaltTimeScale": 0.009999999776482582
          },
          "forceCameraShake": true,
          "cameraShake": {
            "shakeType": "CustomVector",
            "shakeRange": 1.0,
            "shakeTime": 0.20000000298023224,
            "shakeDistance": 30.0,
            "shakeDir": {
              "y": -1.0
            }
          }
        }
      }
    }
  },
  "abilities": [
    {
      "abilityID": "",
      "abilityName": "Monster_Scorpion_Sacred_SteerAttack",
      "abilityOverride": ""
    },
    {
      "abilityID": "",
      "abilityName": "Monster_Scorpion_Sacred_Attack02_Find",
      "abilityOverride": ""
    },
    {
      "abilityID": "",
      "abilityName": "Monster_Scorpion_Sacred_Attack02_WarningEffect",
      "abilityOverride": ""
    },
    {
      "abilityID": "",
      "abilityName": "Monster_Scorpion_Sacred_Attack02_Blink",
      "abilityOverride": ""
    },
    {
      "abilityID": "",
      "abilityName": "Monster_Scorpion_Sacred_Attack02_Collider",
      "abilityOverride": ""
    },
    {
      "abilityID": "",
      "abilityName": "Monster_Scorpion_Sacred_Attack02_Visible",
      "abilityOverride": ""
    },
    {
      "abilityID": "",
      "abilityName": "Monster_Scorpion_Sacred_Attack03_Bullet",
      "abilityOverride": ""
    },
    {
      "abilityID": "",
      "abilityName": "Monster_Scorpion_Sacred_SacredAttack03_Check",
      "abilityOverride": ""
    },
    {
      "abilityID": "",
      "abilityName": "Monster_Scorpion_Sacred_SacredAttack04_Effect",
      "abilityOverride": ""
    },
    {
      "abilityID": "",
      "abilityName": "Monster_Scorpion_Sacred_SacredAttack04_Hit1",
      "abilityOverride": ""
    },
    {
      "abilityID": "",
      "abilityName": "Monster_Scorpion_Sacred_SacredAttack04_Hit2",
      "abilityOverride": ""
    },
    {
      "abilityID": "",
      "abilityName": "Monster_Scorpion_Sacred_SacredAttack04_Hit3",
      "abilityOverride": ""
    },
    {
      "abilityID": "",
      "abilityName": "Monster_Scorpion_Sacred_SacredAttack04_Hit4",
      "abilityOverride": ""
    },
    {
      "abilityID": "",
      "abilityName": "Monster_Scorpion_Sacred_SacredAttack04_Hit5",
      "abilityOverride": ""
    },
    {
      "abilityID": "",
      "abilityName": "Monster_Scorpion_Sacred_SacredAttack04_Hit6",
      "abilityOverride": ""
    },
    {
      "abilityID": "",
      "abilityName": "Monster_Scorpion_Sacred_SacredAttack04_Hit7",
      "abilityOverride": ""
    },
    {
      "abilityID": "",
      "abilityName": "Monster_Scorpion_Sacred_SacredAttack04_Hit8",
      "abilityOverride": ""
    },
    {
      "abilityID": "",
      "abilityName": "Monster_Scorpion_Sacred_Attack05_Bullet",
      "abilityOverride": ""
    },
    {
      "abilityID": "",
      "abilityName": "Monster_Scorpion_Sacred_SacredEnergy_Detect",
      "abilityOverride": ""
    },
    {
      "abilityID": "",
      "abilityName": "Monster_Scorpion_Sacred_SacredEnergy_BridgeToMonster",
      "abilityOverride": ""
    },
    {
      "abilityID": "",
      "abilityName": "Monster_Sacred_Entity_StateTag_ToNormal",
      "abilityOverride": ""
    },
    {
      "abilityID": "",
      "abilityName": "Monster_Sacred_Entity_StateTag_ToEnhance",
      "abilityOverride": ""
    },
    {
      "abilityID": "",
      "abilityName": "Monster_Sacred_Entity_StateTag_ToWeak",
      "abilityOverride": ""
    },
    {
      "abilityID": "",
      "abilityName": "Monster_Sacred_Entity_BodyMaterial_Effect",
      "abilityOverride": ""
    },
    {
      "abilityID": "",
      "abilityName": "Monster_Sacred_Entity_AlertnessTag",
      "abilityOverride": ""
    },
    {
      "abilityID": "",
      "abilityName": "Monster_Sacred_Entity_Attack05Protect",
      "abilityOverride": ""
    },
    {
      "abilityID": "",
      "abilityName": "Monster_Scorpion_Sacred_EnhanceDefence",
      "abilityOverride": ""
    }
  ],
  "stateLayers": {
    "defaultLayer": {
      "$type": "KFHJINNNDPN",
      "BOPIBFKFKCA": "",
      "stateIDs": {
        "NormalIdle": {
          "$type": "MEECNDLIOBI",
          "HKPCLGHBKFD": {
            "Standby": [],
            "Born": []
          },
          "KNOHBHKACHA": true,
          "BAABNFCMKIO": true,
          "ADPGACLPFHN": [
            "DoSkill"
          ]
        },
        "Run": {
          "$type": "MEECNDLIOBI",
          "HKPCLGHBKFD": {
            "Run": []
          },
          "KNOHBHKACHA": true,
          "BAABNFCMKIO": true,
          "ADPGACLPFHN": [
            "DoSkill"
          ],
          "NPMGEMAFACP": true
        },
        "WalkForward": {
          "$type": "MEECNDLIOBI",
          "HKPCLGHBKFD": {
            "WalkForward": []
          },
          "KNOHBHKACHA": true,
          "BAABNFCMKIO": true,
          "ADPGACLPFHN": [
            "DoSkill"
          ],
          "NPMGEMAFACP": true
        },
        "WalkBack": {
          "$type": "MEECNDLIOBI",
          "HKPCLGHBKFD": {
            "WalkBack": []
          },
          "KNOHBHKACHA": true,
          "BAABNFCMKIO": true,
          "ADPGACLPFHN": [
            "DoSkill"
          ],
          "NPMGEMAFACP": true
        },
        "WalkLeft": {
          "$type": "MEECNDLIOBI",
          "HKPCLGHBKFD": {
            "WalkLeft": []
          },
          "KNOHBHKACHA": true,
          "BAABNFCMKIO": true,
          "ADPGACLPFHN": [
            "DoSkill"
          ],
          "NPMGEMAFACP": true
        },
        "WalkRight": {
          "$type": "MEECNDLIOBI",
          "HKPCLGHBKFD": {
            "WalkRight": []
          },
          "KNOHBHKACHA": true,
          "BAABNFCMKIO": true,
          "ADPGACLPFHN": [
            "DoSkill"
          ],
          "NPMGEMAFACP": true
        },
        "Turn": {
          "$type": "MEECNDLIOBI",
          "HKPCLGHBKFD": {
            "Turn": []
          },
          "KNOHBHKACHA": true,
          "BAABNFCMKIO": true,
          "ADPGACLPFHN": [
            "DoSkill"
          ],
          "NPMGEMAFACP": true
        },
        "BeHit": {
          "$type": "MEECNDLIOBI",
          "HKPCLGHBKFD": {
            "Hit_L": [
              "Audio_Monster_Scorpion_Sacred_Hit_L"
            ]
          },
          "PJFELLIJONH": [
            "BeHit"
          ],
          "ADPGACLPFHN": [
            "DoSkill"
          ]
        },
        "Weak_BS": {
          "$type": "MEECNDLIOBI",
          "HKPCLGHBKFD": {
            "Weak_BS": [
              "Audio_Monster_Scorpion_Sacred_Weak_BS"
            ]
          },
          "BAABNFCMKIO": true,
          "BGJDNIJICNM": true,
          "PAKNCLFMOAC": 0.0,
          "PJFELLIJONH": [
            "BeHit"
          ],
          "ADPGACLPFHN": [
            "BeHit",
            "DoSkill"
          ],
          "JIHPHHAHAOA": true
        },
        "Weak_Loop": {
          "$type": "MEECNDLIOBI",
          "HKPCLGHBKFD": {
            "Weak_Loop": []
          },
          "BAABNFCMKIO": true,
          "BGJDNIJICNM": true,
          "PAKNCLFMOAC": 0.0,
          "PJFELLIJONH": [
            "BeHit"
          ],
          "ADPGACLPFHN": [
            "BeHit",
            "DoSkill"
          ],
          "JIHPHHAHAOA": true
        },
        "Weak_AS": {
          "$type": "MEECNDLIOBI",
          "HKPCLGHBKFD": {
            "Weak_AS": [
              "Audio_Monster_Scorpion_Sacred_Weak_AS"
            ]
          },
          "BAABNFCMKIO": true,
          "BGJDNIJICNM": true,
          "PAKNCLFMOAC": 0.0,
          "PJFELLIJONH": [
            "BeHit"
          ],
          "ADPGACLPFHN": [
            "BeHit",
            "DoSkill"
          ],
          "JIHPHHAHAOA": true
        },
        "Die": {
          "$type": "MEECNDLIOBI",
          "HKPCLGHBKFD": {
            "Die": [
              "Audio_Monster_Scorpion_Sacred_Die"
            ]
          },
          "PJFELLIJONH": [
            "DoSkill"
          ]
        },
        "Weak_Die": {
          "$type": "MEECNDLIOBI",
          "HKPCLGHBKFD": {
            "Weak_Die": [
              "Audio_Monster_Scorpion_Sacred_Weak_Die"
            ]
          },
          "PJFELLIJONH": [
            "DoSkill"
          ]
        },
        "Personality2": {
          "$type": "MEECNDLIOBI",
          "HKPCLGHBKFD": {
            "Personality2": [
              "Audio_Monster_Scorpion_Sacred_Personality2"
            ]
          },
          "KNOHBHKACHA": true,
          "ADPGACLPFHN": [
            "BeHit",
            "DoSkill"
          ]
        },
        "Sacred_Attack01": {
          "$type": "MEECNDLIOBI",
          "HKPCLGHBKFD": {
            "Sacred_Attack01": [
              "Monster_Scorpion_Sacred_Electric_SacredAttack01",
              "Audio_Monster_Scorpion_Sacred_Attack01"
            ]
          },
          "BAABNFCMKIO": true,
          "BGJDNIJICNM": true,
          "PAKNCLFMOAC": 0.009999999776482582,
          "ADPGACLPFHN": [
            "BeHit",
            "DoSkill"
          ],
          "NPMGEMAFACP": true
        },
        "Sacred_Attack02_BS": {
          "$type": "MEECNDLIOBI",
          "HKPCLGHBKFD": {
            "Sacred_Attack02_BS": [
              "Monster_Scorpion_Sacred_Electric_SacredAttack02_BS",
              "Audio_Monster_Scorpion_Sacred_Attack02_BS"
            ]
          },
          "BAABNFCMKIO": true,
          "BGJDNIJICNM": true,
          "PAKNCLFMOAC": 0.009999999776482582,
          "ADPGACLPFHN": [
            "BeHit",
            "DoSkill"
          ],
          "NPMGEMAFACP": true
        },
        "Sacred_Attack02_AS": {
          "$type": "MEECNDLIOBI",
          "HKPCLGHBKFD": {
            "Sacred_Attack02_AS": [
              "Monster_Scorpion_Sacred_Electric_SacredAttack02_AS",
              "Audio_Monster_Scorpion_Sacred_Attack02_AS"
            ]
          },
          "BAABNFCMKIO": true,
          "BGJDNIJICNM": true,
          "PAKNCLFMOAC": 0.009999999776482582,
          "ADPGACLPFHN": [
            "BeHit",
            "DoSkill"
          ],
          "NPMGEMAFACP": true
        },
        "Sacred_Attack03": {
          "$type": "MEECNDLIOBI",
          "HKPCLGHBKFD": {
            "Sacred_Attack03": [
              "Monster_Scorpion_Sacred_Electric_SacredAttack03",
              "Audio_Monster_Scorpion_Sacred_Attack03_1"
            ]
          },
          "BAABNFCMKIO": true,
          "BGJDNIJICNM": true,
          "PAKNCLFMOAC": 0.009999999776482582,
          "ADPGACLPFHN": [
            "BeHit",
            "DoSkill"
          ],
          "NPMGEMAFACP": true
        },
        "Sacred_Attack03_AS2": {
          "$type": "MEECNDLIOBI",
          "HKPCLGHBKFD": {
            "Sacred_Attack03_AS2": [
              "Audio_Monster_Scorpion_Sacred_Attack03_AS2"
            ]
          },
          "BAABNFCMKIO": true,
          "BGJDNIJICNM": true,
          "PAKNCLFMOAC": 0.009999999776482582,
          "ADPGACLPFHN": [
            "BeHit",
            "DoSkill"
          ],
          "NPMGEMAFACP": true
        },
        "Sacred_Attack04_BS": {
          "$type": "MEECNDLIOBI",
          "HKPCLGHBKFD": {
            "Sacred_Attack04_BS": [
              "Audio_Monster_Scorpion_Sacred_Attack04_BS"
            ]
          },
          "BAABNFCMKIO": true,
          "BGJDNIJICNM": true,
          "PAKNCLFMOAC": 0.009999999776482582,
          "ADPGACLPFHN": [
            "BeHit",
            "DoSkill"
          ],
          "NPMGEMAFACP": true
        },
        "Sacred_Attack04_Loop1": {
          "$type": "MEECNDLIOBI",
          "HKPCLGHBKFD": {
            "Sacred_Attack04_Loop1": [
              "Monster_Scorpion_Sacred_Electric_SacredAttack04_Hit1"
            ]
          },
          "BAABNFCMKIO": true,
          "BGJDNIJICNM": true,
          "PAKNCLFMOAC": 0.009999999776482582,
          "ADPGACLPFHN": [
            "BeHit",
            "DoSkill"
          ],
          "NPMGEMAFACP": true
        },
        "Sacred_Attack04_Loop2": {
          "$type": "MEECNDLIOBI",
          "HKPCLGHBKFD": {
            "Sacred_Attack04_Loop2": [
              "Monster_Scorpion_Sacred_Electric_SacredAttack04_Hit2"
            ]
          },
          "BAABNFCMKIO": true,
          "BGJDNIJICNM": true,
          "PAKNCLFMOAC": 0.009999999776482582,
          "ADPGACLPFHN": [
            "BeHit",
            "DoSkill"
          ],
          "NPMGEMAFACP": true
        },
        "Sacred_Attack04_Loop3": {
          "$type": "MEECNDLIOBI",
          "HKPCLGHBKFD": {
            "Sacred_Attack04_Loop3": [
              "Monster_Scorpion_Sacred_Electric_SacredAttack04_Hit3"
            ]
          },
          "BAABNFCMKIO": true,
          "BGJDNIJICNM": true,
          "PAKNCLFMOAC": 0.009999999776482582,
          "ADPGACLPFHN": [
            "BeHit",
            "DoSkill"
          ],
          "NPMGEMAFACP": true
        },
        "Sacred_Attack04_AS": {
          "$type": "MEECNDLIOBI",
          "HKPCLGHBKFD": {
            "Sacred_Attack04_AS": [
              "Audio_Monster_Scorpion_Sacred_Attack04_AS"
            ]
          },
          "BAABNFCMKIO": true,
          "BGJDNIJICNM": true,
          "PAKNCLFMOAC": 0.009999999776482582,
          "ADPGACLPFHN": [
            "BeHit",
            "DoSkill"
          ],
          "NPMGEMAFACP": true
        },
        "Sacred_Attack05": {
          "$type": "MEECNDLIOBI",
          "HKPCLGHBKFD": {
            "Sacred_Attack05": [
              "Monster_Scorpion_Sacred_Electric_SacredAttack05",
              "Audio_Monster_Scorpion_Sacred_Attack05"
            ]
          },
          "BAABNFCMKIO": true,
          "BGJDNIJICNM": true,
          "PAKNCLFMOAC": 0.009999999776482582,
          "ADPGACLPFHN": [
            "BeHit",
            "DoSkill"
          ],
          "NPMGEMAFACP": true
        },
        "Sacred_Enhance": {
          "$type": "MEECNDLIOBI",
          "HKPCLGHBKFD": {
            "Sacred_Enhance": [
              "Monster_Scorpion_Sacred_Electric_Enhance",
              "Audio_Monster_Scorpion_Sacred_Enhance"
            ]
          },
          "BAABNFCMKIO": true,
          "BGJDNIJICNM": true,
          "PAKNCLFMOAC": 0.009999999776482582,
          "ADPGACLPFHN": [
            "BeHit",
            "DoSkill"
          ],
          "NPMGEMAFACP": true
        }
      }
    }
  },
  "billboard": {
    "$type": "HFEGKLAIGGI",
    "IIKEHINGEME": "BillboardAttach",
    "offset": {
      "y": 0.4000000059604645
    },
    "GEKOGJAPMMH": "Character",
    "showDistance": 48.0,
    "size": "Grand"
  },
  "initialPoses": {
    "Default": {
      "initialPoseID": 1
    }
  },
  "aibeta": {
    "enable": true,
    "moveSetting": {
      "navMeshAgentName": "Undead01"
    },
    "sensing": {
      "settings": {
        "DefaultSetting": {
          "viewRange": 40.0,
          "feelRange": 10.0
        }
      },
      "templates": {
        "DefaultTemplate": {
          "DefaultPoses": "DefaultSetting"
        }
      }
    },
    "threat": {
      "clearThreatEdgeDistance": 2.0,
      "clearThreatByLostPath": true,
      "viewAttenuation": [
        {
          "x": 10.0,
          "y": 2.0
        },
        {
          "x": 15.0,
          "y": 0.800000011920929
        },
        {
          "x": 20.0,
          "y": 0.5
        },
        {
          "x": 25.0,
          "y": 0.30000001192092896
        },
        {
          "x": 30.0,
          "y": 0.20000000298023224
        }
      ],
      "resistTauntLevel": "Monster_TauntLevel_3"
    },
    "defendArea": {
      "defendRange": 50.0
    },
    "network": {
      "syncSkill": true
    },
    "skillGroupCDConfigs": [
      {
        "skillGroupCDID": 2,
        "skillGroupCDTime": 20.0
      },
      {
        "skillGroupCDID": 3,
        "skillGroupCDTime": 2.0
      }
    ],
    "skills": {
      "101": {
        "name": "Sacred_Enhance",
        "combatSkillType": "RangedAttack",
        "priority": 1,
        "faceTarget": true,
        "castCondition": {
          "pose": [
            201
          ]
        },
        "cd": 999999.0,
        "publicCDGroup": "",
        "ignoreGCD": true,
        "triggerGCD": false,
        "KFIGEPOKGBN": false,
        "CLEPNIDJOLN": "",
        "stateIDs": [
          "Sacred_Enhance"
        ],
        "flagTargetReachable": "11",
        "flagSelfOnTemplateCollider": "11",
        "flagSelfInZone": "11",
        "flagTargetInZone": "11"
      },
      "211": {
        "name": "Personality2",
        "skillType": "Free",
        "castCondition": {
          "pose": [
            1
          ]
        },
        "cd": 20.0,
        "cdUpperRange": 10.0,
        "initialCD": 2.5,
        "initialCDUpperRange": 5.0,
        "publicCDGroup": "",
        "triggerGCD": false,
        "skillGroupCDID": 3,
        "CLEPNIDJOLN": "",
        "stateIDs": [
          "Personality2"
        ],
        "flagTargetReachable": "10",
        "flagSelfOnTemplateCollider": "01",
        "flagSelfInZone": "10",
        "flagTargetInZone": "11"
      },
      "601": {
        "name": "Sacred_Attack01",
        "combatSkillType": "RangedAttack",
        "castCondition": {
          "pose": [
            202
          ],
          "maxTargetAngleXZ": 90.0,
          "pickRangeMax": 6.0
        },
        "cd": 2.0,
        "cdUpperRange": 1.0,
        "publicCDGroup": "",
        "CLEPNIDJOLN": "",
        "stateIDs": [
          "Sacred_Attack01"
        ],
        "flagTargetReachable": "11",
        "flagSelfOnTemplateCollider": "11",
        "flagSelfInZone": "11",
        "flagTargetInZone": "11"
      },
      "602": {
        "name": "Sacred_Attack01",
        "combatSkillType": "RangedAttack",
        "castCondition": {
          "pose": [
            201
          ],
          "needReInitCD": true,
          "maxTargetAngleXZ": 90.0,
          "pickRangeMax": 6.0
        },
        "cd": 3.0,
        "cdUpperRange": 1.0,
        "initialCD": 4.0,
        "publicCDGroup": "",
        "CLEPNIDJOLN": "",
        "stateIDs": [
          "Sacred_Attack01"
        ],
        "flagTargetReachable": "11",
        "flagSelfOnTemplateCollider": "11",
        "flagSelfInZone": "11",
        "flagTargetInZone": "11"
      },
      "611": {
        "name": "Sacred_Attack02",
        "combatSkillType": "RangedAttack",
        "castCondition": {
          "pose": [
            202
          ],
          "maxTargetAngleXZ": 90.0,
          "pickRangeMin": 6.0,
          "pickRangeMax": 35.0
        },
        "cd": 4.0,
        "cdUpperRange": 2.0,
        "initialCD": 3.5,
        "publicCDGroup": "",
        "CLEPNIDJOLN": "",
        "stateIDs": [
          "Sacred_Attack02_BS",
          "Sacred_Attack02_AS"
        ],
        "flagTargetReachable": "11",
        "flagSelfOnTemplateCollider": "11",
        "flagSelfInZone": "11",
        "flagTargetInZone": "11"
      },
      "621": {
        "name": "Sacred_Attack03",
        "combatSkillType": "RangedAttack",
        "castCondition": {
          "pose": [
            202
          ],
          "maxTargetAngleXZ": 90.0,
          "pickRangeMax": 8.0
        },
        "cd": 3.0,
        "cdUpperRange": 1.0,
        "publicCDGroup": "",
        "CLEPNIDJOLN": "",
        "stateIDs": [
          "Sacred_Attack03",
          "Sacred_Attack03_AS2"
        ],
        "flagTargetReachable": "11",
        "flagSelfOnTemplateCollider": "11",
        "flagSelfInZone": "11",
        "flagTargetInZone": "11"
      },
      "631": {
        "name": "Sacred_Attack04",
        "combatSkillType": "RangedAttack",
        "castCondition": {
          "pose": [
            202
          ],
          "pickRangeMax": 8.0
        },
        "cd": 8.0,
        "cdUpperRange": 2.0,
        "initialCD": 4.5,
        "publicCDGroup": "",
        "CLEPNIDJOLN": "",
        "stateIDs": [
          "Sacred_Attack04_BS",
          "Sacred_Attack04_Loop1",
          "Sacred_Attack04_Loop2",
          "Sacred_Attack04_Loop3",
          "Sacred_Attack04_AS"
        ],
        "flagTargetReachable": "11",
        "flagSelfOnTemplateCollider": "11",
        "flagSelfInZone": "11",
        "flagTargetInZone": "11"
      },
      "641": {
        "name": "Sacred_Attack05",
        "combatSkillType": "RangedAttack",
        "priority": 2,
        "castCondition": {
          "pose": [
            202
          ],
          "needReInitCD": true,
          "pickRangeMax": 20.0
        },
        "cd": 30.0,
        "initialCD": 25.0,
        "publicCDGroup": "Sacred_MortalAttack",
        "CLEPNIDJOLN": "",
        "stateIDs": [
          "Sacred_Attack05"
        ],
        "flagTargetReachable": "11",
        "flagSelfOnTemplateCollider": "11",
        "flagSelfInZone": "11",
        "flagTargetInZone": "11"
      },
      "661": {
        "name": "Sacred_Enhance",
        "combatSkillType": "RangedAttack",
        "priority": 1,
        "castCondition": {
          "pose": [
            201
          ],
          "globalValues": [
            "SacredEnergy_Recover_Scorpion"
          ],
          "IPJHHBFHBBH": "SELF"
        },
        "cd": 20.0,
        "publicCDGroup": "",
        "ignoreGCD": true,
        "triggerGCD": false,
        "KFIGEPOKGBN": false,
        "CLEPNIDJOLN": "",
        "stateIDs": [
          "Sacred_Enhance"
        ],
        "flagTargetReachable": "11",
        "flagSelfOnTemplateCollider": "11",
        "flagSelfInZone": "11",
        "flagTargetInZone": "11"
      },
      "691": {
        "name": "Sacred_Enhance",
        "combatSkillType": "RangedAttack",
        "priority": 1,
        "castCondition": {
          "pose": [
            201
          ],
          "needReInitCD": true
        },
        "cd": 2.0,
        "initialCD": 15.0,
        "publicCDGroup": "",
        "ignoreGCD": true,
        "triggerGCD": false,
        "KFIGEPOKGBN": false,
        "CLEPNIDJOLN": "",
        "stateIDs": [
          "Sacred_Enhance"
        ],
        "flagTargetReachable": "11",
        "flagSelfOnTemplateCollider": "11",
        "flagSelfInZone": "11",
        "flagTargetInZone": "11"
      }
    },
    "combatFixedMoveTactic": [
      {
        "$type": "KIMPOLMEFNK",
        "enable": true,
        "EGJMGEHLDOL": {
          "pose": [
            201,
            202
          ]
        },
        "NGIEOIGFFDH": {
          "rangeMax": 8.0,
          "FIEBJKLPGNF": 3.0,
          "DDDDMJLFJNG": 1.600000023841858,
          "ODLFCBFIAEG": {
            "ACLMEMJMCHO": 0.20000000298023224,
            "MKGIHLDDOPO": 0.4000000059604645,
            "AIMKHLAPJGH": 0.4000000059604645
          },
          "EOBOHLNDGNC": "1111",
          "JFAHEKLBENF": "1111",
          "FCFLCFFJKLO": ""
        }
      },
      {
        "$type": "EAHMEDBCNHH",
        "enable": true,
        "NGIEOIGFFDH": {
          "NHPKGHAHIFA": 1,
          "MEKPCHABFJG": 75.0,
          "HAGANIFJPCF": 4.0,
          "IAIJKIPIPND": 6.0,
          "JKOBEDPPFKO": 0.5,
          "FCFLCFFJKLO": ""
        }
      },
      {
        "$type": "HLPBLIEBJLM",
        "enable": true,
        "EGJMGEHLDOL": {
          "pose": [
            201,
            202
          ]
        },
        "NGIEOIGFFDH": {
          "MONCHHKIDKL": 1.0,
          "GPKNKJPPCOM": 12.0,
          "NDCHJGOOLCF": 50.0,
          "FDNLEPNLLBP": 4.5,
          "DANCMNIMNAM": 7.0,
          "FALODAGNKBI": false,
          "FCFLCFFJKLO": ""
        }
      },
      {
        "$type": "GJGILIGEJMO",
        "enable": true,
        "NGIEOIGFFDH": {
          "FCFLCFFJKLO": "",
          "BKCOJDIDEGN": ""
        }
      },
      {
        "$type": "IKIHDEMELGB",
        "enable": true,
        "EGJMGEHLDOL": {
          "pose": [
            1
          ]
        },
        "NGIEOIGFFDH": {
          "MONCHHKIDKL": 0.30000001192092896,
          "HOKGJAONGHG": 16.0,
          "GJOBDMEBGLM": 8.0,
          "KDLAOJIPGHP": 30.0,
          "OEFFOIEOJNC": 8.0,
          "HAHMEDHEBKE": 15.0,
          "FCFLCFFJKLO": ""
        }
      }
    ]
  },
  "inputKeys": [
    {
      "keyID": 601,
      "inputKeyCode": 257,
      "abilityName": ""
    },
    {
      "keyID": 611,
      "inputKeyCode": 258,
      "abilityName": ""
    },
    {
      "keyID": 621,
      "inputKeyCode": 259,
      "abilityName": ""
    },
    {
      "keyID": 631,
      "inputKeyCode": 260,
      "abilityName": ""
    },
    {
      "keyID": 641,
      "inputKeyCode": 261,
      "abilityName": ""
    },
    {
      "keyID": 651,
      "inputKeyCode": 262,
      "abilityName": ""
    },
    {
      "keyID": 661,
      "inputKeyCode": 263,
      "abilityName": ""
    },
    {
      "keyID": 101,
      "inputKeyCode": 264,
      "abilityName": ""
    }
  ],
  "move": {
    "$type": "JKDLANFKJIL",
    "BGKIHCPJBMO": {
      "excludeForces": [
        "RetreatAirType"
      ]
    },
    "ADKJOFPNHNO": "FourDirection",
    "NKJKJFLNPPN": 1.0,
    "OPALOODMBJP": true,
    "KEHGLKGFKKD": true,
    "LPAKBBIADNC": "RootNode"
  },
  "audio": {
    "LKJIHNLBIJL": "",
    "animAudio": {
      "onTransitionIn": [
        {
          "currentStateName": "WalkForward",
          "audioEvent": {
            "text": "Play_sfx_monster_Scorpion_walk"
          },
          "otherStateNames": [
            "WalkForward"
          ],
          "usage": "Except"
        },
        {
          "currentStateName": "Run",
          "audioEvent": {
            "text": "Play_sfx_monster_Scorpion_walk"
          },
          "otherStateNames": [
            "Run"
          ],
          "usage": "Except"
        },
        {
          "currentStateName": "WalkBack",
          "audioEvent": {
            "text": "Play_sfx_monster_Scorpion_walk"
          },
          "otherStateNames": [
            "WalkBack"
          ],
          "usage": "Except"
        },
        {
          "currentStateName": "WalkLeft",
          "audioEvent": {
            "text": "Play_sfx_monster_Scorpion_walk"
          },
          "otherStateNames": [
            "WalkLeft"
          ],
          "usage": "Except"
        },
        {
          "currentStateName": "WalkRight",
          "audioEvent": {
            "text": "Play_sfx_monster_Scorpion_walk"
          },
          "otherStateNames": [
            "WalkRight"
          ],
          "usage": "Except"
        },
        {
          "currentStateName": "Turn",
          "audioEvent": {
            "text": "Play_sfx_monster_Scorpion_walk"
          },
          "otherStateNames": [
            "Turn"
          ],
          "usage": "Except"
        }
      ],
      "onTransitionOut": [
        {
          "currentStateName": "WalkForward",
          "audioEvent": {
            "text": "Stop_sfx_monster_Scorpion_walk"
          },
          "otherStateNames": [
            "WalkForward"
          ],
          "usage": "Except"
        },
        {
          "currentStateName": "Run",
          "audioEvent": {
            "text": "Stop_sfx_monster_Scorpion_walk"
          },
          "otherStateNames": [
            "Run"
          ],
          "usage": "Except"
        },
        {
          "currentStateName": "WalkBack",
          "audioEvent": {
            "text": "Stop_sfx_monster_Scorpion_walk"
          },
          "otherStateNames": [
            "WalkBack"
          ],
          "usage": "Except"
        },
        {
          "currentStateName": "WalkLeft",
          "audioEvent": {
            "text": "Stop_sfx_monster_Scorpion_walk"
          },
          "otherStateNames": [
            "WalkLeft"
          ],
          "usage": "Except"
        },
        {
          "currentStateName": "WalkRight",
          "audioEvent": {
            "text": "Stop_sfx_monster_Scorpion_walk"
          },
          "otherStateNames": [
            "WalkRight"
          ],
          "usage": "Except"
        },
        {
          "currentStateName": "Turn",
          "audioEvent": {
            "text": "Stop_sfx_monster_Scorpion_walk"
          },
          "otherStateNames": [
            "Turn"
          ],
          "usage": "Except"
        }
      ]
    }
  }
}