[
  {
    "transitions": {
      "shifters": [
        {
          "targetSongId": 5
        },
        {
          "targetSongId": 51
        }
      ]
    },
    "fixedTime": 7.2064696748654245e+31
  },
  {
    "transitions": {
      "shifters": [
        {},
        {},
        {},
        {},
        {
          "targetSongId": 0
        },
        {},
        {},
        {
          "targetSongId": -1,
          "rootConditionId": -1
        },
        {},
        {
          "rootConditionId": 0
        },
        {
          "targetSongId": -35
        },
        {
          "rootConditionId": 51
        },
        {
          "targetSongId": -33,
          "rootConditionId": 55
        },
        {
          "targetSongId": -55
        },
        {
          "targetSongId": 54
        },
        {
          "targetSongId": -44,
          "rootConditionId": -53
        },
        {
          "targetSongId": 56,
          "rootConditionId": -48
        },
        {
          "targetSongId": -49,
          "rootConditionId": 58
        },
        {
          "targetSongId": 57
        },
        {
          "targetSongId": 35,
          "rootConditionId": 54
        },
        {
          "targetSongId": 0
        },
        {
          "targetSongId": -8
        },
        {
          "targetSongId": 20
        },
        {
          "rootConditionId": 0
        },
        {},
        {},
        {
          "targetSongId": -1
        },
        {
          "targetSongId": 1
        },
        {},
        {
          "targetSongId": -10
        },
        {
          "targetSongId": -34,
          "rootConditionId": -53
        },
        {
          "rootConditionId": -50
        },
        {},
        {
          "targetSongId": 38
        },
        {
          "targetSongId": -50,
          "rootConditionId": -54
        },
        {
          "targetSongId": 55
        },
        {
          "targetSongId": -55
        },
        {
          "targetSongId": -1
        },
        {
          "targetSongId": 34,
          "rootConditionId": -51
        },
        {
          "rootConditionId": -49
        },
        {
          "targetSongId": 54
        },
        {},
        {},
        {},
        {},
        {},
        {},
        {},
        {},
        {},
        {},
        {
          "targetSongId": 0
        },
        {
          "targetSongId": 6
        },
        {},
        {
          "targetSongId": 51
        },
        {
          "targetSongId": -59
        },
        {},
        {},
        {},
        {
          "targetSongId": -61
        },
        {
          "targetSongId": 57
        },
        {
          "targetSongId": 1
        },
        {},
        {
          "targetSongId": -3
        },
        {},
        {
          "rootConditionId": -56
        },
        {
          "rootConditionId": 55
        },
        {
          "targetSongId": 0,
          "rootConditionId": -4097
        },
        {
          "targetSongId": 2
        },
        {
          "rootConditionId": -56
        },
        {
          "rootConditionId": 55
        },
        {
          "targetSongId": -12
        },
        {
          "targetSongId": -59
        },
        {},
        {
          "targetSongId": -56
        },
        {
          "targetSongId": -44,
          "rootConditionId": -53
        },
        {
          "targetSongId": 56,
          "rootConditionId": -48
        },
        {
          "targetSongId": -53,
          "rootConditionId": 55
        },
        {},
        {
          "targetSongId": -42,
          "rootConditionId": 58
        },
        {
          "targetSongId": 55
        },
        {},
        {
          "rootConditionId": -61
        },
        {
          "targetSongId": -4
        },
        {},
        {
          "targetSongId": -42,
          "rootConditionId": -54
        },
        {
          "targetSongId": 54
        },
        {},
        {},
        {
          "rootConditionId": 39
        },
        {
          "targetSongId": 57,
          "rootConditionId": -55
        },
        {
          "targetSongId": 54
        },
        {
          "targetSongId": 50
        },
        {},
        {
          "targetSongId": -2
        },
        {},
        {
          "targetSongId": 33
        },
        {
          "targetSongId": -4
        },
        {
          "targetSongId": 58,
          "rootConditionId": -49
        },
        {
          "rootConditionId": 50
        },
        {
          "rootConditionId": -61
        },
        {
          "targetSongId": -12
        },
        {
          "targetSongId": -59
        },
        {},
        {
          "targetSongId": -56
        },
        {
          "targetSongId": -44,
          "rootConditionId": -53
        },
        {
          "targetSongId": 56,
          "rootConditionId": -48
        },
        {
          "targetSongId": -53,
          "rootConditionId": 55
        },
        {},
        {
          "targetSongId": -42,
          "rootConditionId": 58
        },
        {
          "targetSongId": 55
        },
        {},
        {
          "rootConditionId": -61
        },
        {
          "targetSongId": -1
        },
        {
          "targetSongId": -4
        }
      ]
    }
  },
  {},
  {
    "transitions": {
      "shifters": [
        {
          "targetSongId": 54
        },
        {},
        {},
        {
          "rootConditionId": 39
        },
        {
          "targetSongId": 57,
          "rootConditionId": -55
        },
        {
          "targetSongId": 54
        },
        {
          "targetSongId": -56
        },
        {
          "rootConditionId": -51
        },
        {
          "targetSongId": 0,
          "rootConditionId": -4241
        },
        {
          "targetSongId": 2,
          "rootConditionId": -44
        },
        {
          "targetSongId": 54
        },
        {
          "targetSongId": -1,
          "rootConditionId": 10
        },
        {
          "targetSongId": -59
        },
        {},
        {
          "targetSongId": -56
        },
        {
          "targetSongId": -44,
          "rootConditionId": -53
        },
        {
          "targetSongId": 56,
          "rootConditionId": -48
        },
        {
          "targetSongId": -53,
          "rootConditionId": 55
        },
        {},
        {
          "targetSongId": -44,
          "rootConditionId": -49
        },
        {},
        {
          "targetSongId": -2,
          "rootConditionId": 41
        },
        {
          "targetSongId": 55
        },
        {
          "targetSongId": 10
        },
        {
          "targetSongId": -59
        },
        {},
        {
          "targetSongId": -56
        },
        {
          "targetSongId": -44,
          "rootConditionId": -53
        },
        {
          "targetSongId": 56,
          "rootConditionId": -48
        },
        {
          "targetSongId": -53,
          "rootConditionId": 55
        },
        {},
        {
          "targetSongId": -44,
          "rootConditionId": -49
        },
        {},
        {
          "targetSongId": -5,
          "rootConditionId": 34
        },
        {
          "targetSongId": -58
        },
        {
          "targetSongId": 56
        },
        {},
        {
          "targetSongId": -49
        },
        {
          "rootConditionId": 1
        },
        {
          "targetSongId": -33,
          "rootConditionId": 55
        },
        {
          "targetSongId": -55
        },
        {
          "targetSongId": 54
        },
        {
          "targetSongId": -44,
          "rootConditionId": -53
        },
        {
          "targetSongId": 56,
          "rootConditionId": -48
        },
        {
          "targetSongId": -49,
          "rootConditionId": 58
        },
        {
          "targetSongId": 57
        },
        {
          "targetSongId": 34,
          "rootConditionId": -53
        },
        {
          "targetSongId": -49,
          "rootConditionId": 56
        },
        {},
        {
          "targetSongId": -49
        },
        {
          "rootConditionId": 10
        },
        {
          "targetSongId": -59
        },
        {},
        {
          "targetSongId": -56
        },
        {
          "targetSongId": -44,
          "rootConditionId": -53
        },
        {
          "targetSongId": 56,
          "rootConditionId": -48
        },
        {
          "targetSongId": -53,
          "rootConditionId": 55
        },
        {},
        {
          "targetSongId": -44,
          "rootConditionId": -49
        },
        {},
        {
          "targetSongId": -1,
          "rootConditionId": -1
        },
        {
          "targetSongId": -4
        },
        {},
        {
          "targetSongId": -42,
          "rootConditionId": -54
        },
        {
          "targetSongId": 54
        },
        {},
        {
          "rootConditionId": -1
        },
        {
          "targetSongId": 33
        },
        {
          "targetSongId": 36
        },
        {
          "targetSongId": 58
        },
        {
          "targetSongId": 0,
          "rootConditionId": -6145
        },
        {
          "targetSongId": -3
        },
        {},
        {
          "targetSongId": 58
        },
        {
          "targetSongId": 38,
          "rootConditionId": -1
        },
        {
          "targetSongId": -33
        },
        {
          "rootConditionId": -53
        },
        {
          "targetSongId": -49
        },
        {},
        {
          "targetSongId": -44,
          "rootConditionId": -53
        },
        {
          "targetSongId": 56,
          "rootConditionId": -48
        },
        {
          "targetSongId": -49,
          "rootConditionId": 58
        },
        {
          "targetSongId": 57
        },
        {
          "targetSongId": 34,
          "rootConditionId": -53
        },
        {
          "targetSongId": -1
        },
        {
          "targetSongId": 33
        },
        {
          "targetSongId": 36
        },
        {
          "targetSongId": 58
        },
        {
          "targetSongId": -4
        },
        {},
        {
          "targetSongId": -42,
          "rootConditionId": -54
        },
        {
          "targetSongId": 54
        },
        {},
        {},
        {
          "targetSongId": 34,
          "rootConditionId": -53
        },
        {
          "targetSongId": -2
        },
        {},
        {
          "targetSongId": -1
        },
        {
          "targetSongId": 34,
          "rootConditionId": -53
        },
        {
          "targetSongId": 1
        },
        {
          "targetSongId": -33
        },
        {
          "rootConditionId": -53
        },
        {
          "targetSongId": -49
        },
        {},
        {
          "targetSongId": -44,
          "rootConditionId": -53
        },
        {
          "targetSongId": 56,
          "rootConditionId": -48
        },
        {
          "targetSongId": -49,
          "rootConditionId": 58
        }
      ]
    },
    "fixedTime": 893.7874145507812
  },
  {
    "transitions": {
      "shifters": [
        {
          "targetSongId": -59
        },
        {},
        {
          "targetSongId": -56
        },
        {
          "targetSongId": -44,
          "rootConditionId": -53
        },
        {
          "targetSongId": 56,
          "rootConditionId": -48
        },
        {
          "targetSongId": -53,
          "rootConditionId": 55
        },
        {},
        {
          "targetSongId": 34,
          "rootConditionId": -53
        },
        {
          "targetSongId": 0
        },
        {
          "targetSongId": 1,
          "rootConditionId": -1
        },
        {
          "targetSongId": 34,
          "rootConditionId": -51
        },
        {
          "rootConditionId": -49
        },
        {
          "targetSongId": 54
        },
        {},
        {},
        {
          "targetSongId": -1048886,
          "rootConditionId": -1
        },
        {
          "rootConditionId": 4
        },
        {},
        {}
      ]
    }
  },
  {},
  {
    "transitions": {}
  },
  {},
  {
    "transitions": {
      "shifters": [
        {},
        {
          "targetSongId": 1
        },
        {
          "targetSongId": 7
        },
        {},
        {
          "targetSongId": 51
        },
        {
          "targetSongId": -59
        },
        {},
        {},
        {
          "targetSongId": -51,
          "rootConditionId": 58
        },
        {},
        {
          "targetSongId": 55
        },
        {
          "targetSongId": 514,
          "rootConditionId": 0
        },
        {},
        {},
        {},
        {},
        {
          "targetSongId": 7
        },
        {},
        {
          "targetSongId": 51
        },
        {
          "targetSongId": -59
        },
        {},
        {},
        {
          "targetSongId": -51,
          "rootConditionId": 58
        },
        {},
        {
          "targetSongId": 55
        },
        {
          "targetSongId": -1,
          "rootConditionId": 0
        },
        {},
        {},
        {},
        {},
        {},
        {},
        {
          "rootConditionId": 34
        },
        {},
        {},
        {},
        {},
        {},
        {},
        {},
        {},
        {},
        {
          "rootConditionId": -2
        },
        {
          "targetSongId": -1
        },
        {
          "rootConditionId": -2
        },
        {
          "targetSongId": 0,
          "rootConditionId": 0
        },
        {
          "targetSongId": -16,
          "rootConditionId": -4
        },
        {
          "targetSongId": -1
        },
        {
          "targetSongId": 201
        },
        {
          "targetSongId": 0
        },
        {
          "targetSongId": 56
        },
        {},
        {},
        {},
        {},
        {},
        {},
        {},
        {},
        {},
        {
          "rootConditionId": -2
        },
        {
          "targetSongId": -1
        },
        {
          "targetSongId": 201
        },
        {
          "targetSongId": 7
        },
        {},
        {},
        {},
        {
          "targetSongId": 0,
          "rootConditionId": 0
        },
        {},
        {},
        {},
        {
          "targetSongId": -2
        },
        {
          "targetSongId": -1
        },
        {
          "targetSongId": 201
        },
        {
          "targetSongId": 12537
        },
        {
          "rootConditionId": -509517
        },
        {},
        {},
        {},
        {
          "targetSongId": 0,
          "rootConditionId": 0
        },
        {},
        {},
        {},
        {},
        {},
        {
          "targetSongId": 0
        },
        {},
        {},
        {},
        {},
        {},
        {},
        {},
        {},
        {},
        {
          "targetSongId": -1,
          "rootConditionId": 4
        },
        {},
        {},
        {
          "rootConditionId": 3
        },
        {}
      ]
    }
  },
  {},
  {},
  {},
  {},
  {},
  {
    "fixedTime": 1025235904.0
  },
  {
    "transitions": {},
    "fixedTime": 4.0875876204354914e-42
  },
  {}
]