{
  "common": {
    "effectAttachShape": {
      "$type": "CMIPFEGOJCH",
      "EJAEFCDBDFB": "EffectMesh"
    },
    "mass": 1000000.0,
    "height": 8.0,
    "affectedByWorld": true,
    "checkInSurface": true
  },
  "specialPoint": {
    "elementAbsorb": "RootNode",
    "elementPendant": "",
    "elementDrop": "RootNode",
    "bulletAim": "Fruit",
    "selectedPoints": [
      "Fruit",
      "Core",
      "RootNode"
    ]
  },
  "combat": {
    "property": {
      "endureType": "Monster_Boss_Other",
      "weight": 300.0
    },
    "beHit": {
      "hitBloodEffect": "",
      "JEPGCKHKDDD": true,
      "blendShake": {
        "$type": "GJLBLNMLOKF",
        "NIBNCJEEIHG": [
          {
            "hitBoxNames": [
              "HitBox_Core_Lockable"
            ]
          },
          {
            "hitBoxNames": [
              "HitBox_Core_Critical"
            ]
          },
          {
            "APADLBCEDKB": 0.20000000298023224,
            "hitBoxNames": [
              "HitBox_Core"
            ]
          },
          {
            "APADLBCEDKB": 0.20000000298023224,
            "hitBoxNames": [
              "HitBox_Core_Critical_Lockable"
            ]
          },
          {
            "APADLBCEDKB": 0.4000000059604645,
            "hitBoxNames": [
              "HitBox_Base"
            ]
          },
          {
            "APADLBCEDKB": 0.6000000238418579,
            "hitBoxNames": [
              "HitBox_Fruit"
            ]
          },
          {
            "APADLBCEDKB": 0.800000011920929,
            "hitBoxNames": [
              "HitBox_BranchL"
            ]
          },
          {
            "APADLBCEDKB": 1.0,
            "hitBoxNames": [
              "HitBox_BranchR"
            ]
          }
        ]
      }
    },
    "combatLock": {
      "lockShape": "CircleLockEnemy",
      "lockType": "Avatar&Monster_Lv4"
    },
    "die": {
      "hasAnimatorDie": true,
      "dieEndTime": 2.0,
      "dieForceDisappearTime": 4.0,
      "dieDisappearEffect": "Eff_Death_Common",
      "dieShaderData": "MonsterDie",
      "LDOHFFOEPPI": true,
      "BMOKGIFNILM": true,
      "PHCLLDNDFNG": true,
      "CHBAHMJGJBE": true,
      "OPPHENIKFJA": true,
      "CCNGAIMLPIJ": true
    },
    "animEvents": {
      "MeleeAtk01": {
        "attackPattern": {
          "$type": "GGBJACPDDCM",
          "triggerType": "TriggerNoRepeat",
          "born": {
            "$type": "EOGLEDIIGHF",
            "offset": {
              "HMHIOILIGBF": 0.0,
              "DPPJGBOHAAL": 1.0,
              "DDOAGBLBCEF": 2.5
            }
          },
          "size": {
            "HMHIOILIGBF": 4.0,
            "DPPJGBOHAAL": 2.0,
            "DDOAGBLBCEF": 4.0
          }
        },
        "attackInfo": {
          "attackTag": "",
          "attenuationTag": "",
          "attenuationGroup": "default",
          "attackProperty": {
            "PCFAAPMOCGJ": 1.0,
            "LCCBNOKMNFG": 0.0,
            "elementType": "Fire",
            "bonusCritical": 100.0,
            "strikeType": "Blunt",
            "enBreak": 200.0,
            "FKGFPFNOJMN": 0.0
          },
          "hitPattern": {
            "onHitEffectName": "default",
            "hitImpulseType": "LV5",
            "hitHaltTimeScale": 0.009999999776482582
          },
          "forceCameraShake": true,
          "cameraShake": {
            "shakeType": "CustomVector",
            "shakeRange": 1.0,
            "shakeTime": 0.15000000596046448,
            "shakeDistance": 25.0,
            "shakeDir": {
              "y": -1.0
            }
          }
        }
      },
      "MeleeAtk02": {
        "attackPattern": {
          "$type": "HBFCINNBDFD",
          "triggerType": "TriggerNoRepeat",
          "born": {
            "$type": "KDEPFKAAHCG",
            "offset": {
              "HMHIOILIGBF": 0.0,
              "DPPJGBOHAAL": 0.0,
              "DDOAGBLBCEF": 0.0
            },
            "GDHMBIJKMEF": {
              "$type": "CDPGFBADOIA",
              "PKNBBHPAKCG": {
                "HMHIOILIGBF": 0.0,
                "DPPJGBOHAAL": 270.0,
                "DDOAGBLBCEF": 0.0
              }
            }
          },
          "height": 6.0,
          "NPLOANBGDOK": 210.0,
          "DFMMIGEMOHH": 9.0
        },
        "attackInfo": {
          "attackTag": "",
          "attenuationTag": "",
          "attenuationGroup": "default",
          "attackProperty": {
            "PCFAAPMOCGJ": 1.0,
            "LCCBNOKMNFG": 0.0,
            "elementType": "Fire",
            "bonusCritical": 100.0,
            "strikeType": "Default",
            "enBreak": 200.0,
            "FKGFPFNOJMN": 0.0
          },
          "hitPattern": {
            "onHitEffectName": "default",
            "hitImpulseType": "LV5",
            "hitHaltTimeScale": 0.009999999776482582
          },
          "forceCameraShake": true,
          "cameraShake": {
            "shakeType": "CustomVector",
            "shakeRange": 3.0,
            "shakeTime": 0.15000000596046448,
            "shakeDistance": 25.0,
            "shakeDir": {
              "x": 1.0
            }
          }
        }
      },
      "MeleeAtk02_Reverse": {
        "attackPattern": {
          "$type": "HBFCINNBDFD",
          "triggerType": "TriggerNoRepeat",
          "born": {
            "$type": "KDEPFKAAHCG",
            "offset": {
              "HMHIOILIGBF": 0.0,
              "DPPJGBOHAAL": 0.0,
              "DDOAGBLBCEF": 0.0
            },
            "GDHMBIJKMEF": {
              "$type": "CDPGFBADOIA",
              "PKNBBHPAKCG": {
                "HMHIOILIGBF": 0.0,
                "DPPJGBOHAAL": -270.0,
                "DDOAGBLBCEF": 0.0
              }
            }
          },
          "height": 6.0,
          "NPLOANBGDOK": 210.0,
          "DFMMIGEMOHH": 9.0
        },
        "attackInfo": {
          "attackTag": "",
          "attenuationTag": "",
          "attenuationGroup": "default",
          "attackProperty": {
            "PCFAAPMOCGJ": 1.0,
            "LCCBNOKMNFG": 0.0,
            "elementType": "Fire",
            "bonusCritical": 100.0,
            "strikeType": "Default",
            "enBreak": 200.0,
            "FKGFPFNOJMN": 0.0
          },
          "hitPattern": {
            "onHitEffectName": "default",
            "hitImpulseType": "LV5",
            "hitHaltTimeScale": 0.009999999776482582
          },
          "forceCameraShake": true,
          "cameraShake": {
            "shakeType": "CustomVector",
            "shakeRange": 1.5,
            "shakeTime": 0.30000001192092896,
            "shakeDistance": 25.0,
            "shakeDir": {
              "x": -1.0
            }
          }
        }
      },
      "MeleeAtk03": {
        "attackPattern": {
          "$type": "HBFCINNBDFD",
          "triggerType": "TriggerNoRepeat",
          "born": {
            "$type": "KDEPFKAAHCG",
            "offset": {
              "HMHIOILIGBF": 0.0,
              "DPPJGBOHAAL": 0.0,
              "DDOAGBLBCEF": 0.0
            }
          },
          "height": 6.0,
          "DFMMIGEMOHH": 10.0
        },
        "attackInfo": {
          "attackTag": "",
          "attenuationTag": "Regisvine_MeleeAttack03",
          "attenuationGroup": "Regisvine_Common",
          "attackProperty": {
            "PCFAAPMOCGJ": 1.0,
            "LCCBNOKMNFG": 0.0,
            "elementType": "Fire",
            "bonusCritical": 100.0,
            "strikeType": "Blunt",
            "enBreak": 200.0,
            "FKGFPFNOJMN": 0.0
          },
          "hitPattern": {
            "onHitEffectName": "default",
            "hitImpulseType": "LV5",
            "hitHaltTimeScale": 0.009999999776482582
          },
          "forceCameraShake": true,
          "cameraShake": {
            "shakeType": "CustomVector",
            "shakeRange": 1.0,
            "shakeTime": 0.15000000596046448,
            "shakeDistance": 25.0,
            "shakeDir": {
              "y": -1.0
            }
          }
        }
      },
      "RevengeAtk_Begin": {
        "attackPattern": {
          "$type": "GGBJACPDDCM",
          "triggerType": "TriggerNoRepeat",
          "born": {
            "$type": "KDEPFKAAHCG",
            "offset": {
              "HMHIOILIGBF": 3.0,
              "DPPJGBOHAAL": 1.0,
              "DDOAGBLBCEF": -1.5
            },
            "GDHMBIJKMEF": {
              "$type": "CDPGFBADOIA",
              "PKNBBHPAKCG": {
                "HMHIOILIGBF": 0.0,
                "DPPJGBOHAAL": 90.0,
                "DDOAGBLBCEF": 0.0
              }
            }
          },
          "size": {
            "HMHIOILIGBF": 6.0,
            "DPPJGBOHAAL": 2.0,
            "DDOAGBLBCEF": 8.0
          }
        },
        "attackInfo": {
          "attackTag": "",
          "attenuationTag": "",
          "attenuationGroup": "default",
          "attackProperty": {
            "PCFAAPMOCGJ": 1.0,
            "LCCBNOKMNFG": 0.0,
            "elementType": "Fire",
            "bonusCritical": 100.0,
            "strikeType": "Blunt",
            "enBreak": 200.0,
            "FKGFPFNOJMN": 0.0
          },
          "hitPattern": {
            "onHitEffectName": "default",
            "hitImpulseType": "LV5",
            "hitHaltTimeScale": 0.009999999776482582
          },
          "forceCameraShake": true,
          "cameraShake": {
            "shakeType": "CustomVector",
            "shakeRange": 1.0,
            "shakeTime": 0.15000000596046448,
            "shakeDistance": 25.0,
            "shakeDir": {
              "y": -1.0
            }
          }
        }
      },
      "RevengeAtk": {
        "attackPattern": {
          "$type": "HBFCINNBDFD",
          "triggerType": "TriggerNoRepeat",
          "born": {
            "$type": "KDEPFKAAHCG",
            "offset": {
              "HMHIOILIGBF": 0.0,
              "DPPJGBOHAAL": 0.0,
              "DDOAGBLBCEF": 0.0
            },
            "GDHMBIJKMEF": {
              "$type": "CDPGFBADOIA",
              "PKNBBHPAKCG": {
                "HMHIOILIGBF": 0.0,
                "DPPJGBOHAAL": 0.0,
                "DDOAGBLBCEF": 0.0
              }
            }
          },
          "height": 6.0,
          "DFMMIGEMOHH": 12.5
        },
        "attackInfo": {
          "attackTag": "",
          "attenuationTag": "",
          "attenuationGroup": "default",
          "attackProperty": {
            "PCFAAPMOCGJ": 1.0,
            "LCCBNOKMNFG": 0.0,
            "elementType": "Fire",
            "bonusCritical": 100.0,
            "strikeType": "Default",
            "enBreak": 200.0,
            "FKGFPFNOJMN": 0.0
          },
          "hitPattern": {
            "onHitEffectName": "default",
            "hitImpulseType": "LV5",
            "hitHaltTimeScale": 0.009999999776482582
          },
          "forceCameraShake": true,
          "cameraShake": {
            "shakeType": "CustomVector",
            "shakeRange": 1.0,
            "shakeTime": 1.0,
            "shakeDistance": 25.0,
            "shakeDir": {
              "x": 1.0
            }
          }
        }
      },
      "MeleeCmbo01_Begin": {
        "attackPattern": {
          "$type": "GGBJACPDDCM",
          "triggerType": "TriggerNoRepeat",
          "born": {
            "$type": "KDEPFKAAHCG",
            "offset": {
              "HMHIOILIGBF": -2.0,
              "DPPJGBOHAAL": 0.0,
              "DDOAGBLBCEF": 3.0
            },
            "GDHMBIJKMEF": {
              "$type": "CDPGFBADOIA",
              "PKNBBHPAKCG": {
                "HMHIOILIGBF": 0.0,
                "DPPJGBOHAAL": 270.0,
                "DDOAGBLBCEF": 0.0
              }
            }
          },
          "size": {
            "HMHIOILIGBF": 4.0,
            "DPPJGBOHAAL": 2.0,
            "DDOAGBLBCEF": 6.0
          }
        },
        "attackInfo": {
          "attackTag": "",
          "attenuationTag": "",
          "attenuationGroup": "default",
          "attackProperty": {
            "PCFAAPMOCGJ": 1.0,
            "LCCBNOKMNFG": 0.0,
            "elementType": "Fire",
            "bonusCritical": 100.0,
            "strikeType": "Blunt",
            "enBreak": 200.0,
            "FKGFPFNOJMN": 0.0
          },
          "hitPattern": {
            "onHitEffectName": "default",
            "hitImpulseType": "LV5",
            "hitHaltTimeScale": 0.009999999776482582
          },
          "forceCameraShake": true,
          "cameraShake": {
            "shakeType": "CustomVector",
            "shakeRange": 1.0,
            "shakeTime": 0.15000000596046448,
            "shakeDistance": 25.0,
            "shakeDir": {
              "y": -1.0
            }
          }
        }
      },
      "MeleeCmbo01": {
        "attackPattern": {
          "$type": "HBFCINNBDFD",
          "triggerType": "TriggerNoRepeat",
          "born": {
            "$type": "KDEPFKAAHCG",
            "offset": {
              "HMHIOILIGBF": 0.0,
              "DPPJGBOHAAL": 0.0,
              "DDOAGBLBCEF": 0.0
            },
            "GDHMBIJKMEF": {
              "$type": "CDPGFBADOIA",
              "PKNBBHPAKCG": {
                "HMHIOILIGBF": 0.0,
                "DPPJGBOHAAL": 15.0,
                "DDOAGBLBCEF": 0.0
              }
            }
          },
          "height": 6.0,
          "NPLOANBGDOK": 150.0,
          "DFMMIGEMOHH": 10.0
        },
        "attackInfo": {
          "attackTag": "",
          "attenuationTag": "",
          "attenuationGroup": "default",
          "attackProperty": {
            "PCFAAPMOCGJ": 1.0,
            "LCCBNOKMNFG": 0.0,
            "elementType": "Fire",
            "bonusCritical": 100.0,
            "strikeType": "Default",
            "enBreak": 200.0,
            "FKGFPFNOJMN": 0.0
          },
          "hitPattern": {
            "onHitEffectName": "default",
            "hitImpulseType": "LV5",
            "hitHaltTimeScale": 0.009999999776482582
          },
          "forceCameraShake": true,
          "cameraShake": {
            "shakeType": "CustomVector",
            "shakeRange": 1.0,
            "shakeTime": 0.5,
            "shakeDistance": 25.0,
            "shakeDir": {
              "x": -1.0
            }
          }
        }
      },
      "MeleeCmbo02_Begin": {
        "attackPattern": {
          "$type": "GGBJACPDDCM",
          "triggerType": "TriggerNoRepeat",
          "born": {
            "$type": "KDEPFKAAHCG",
            "offset": {
              "HMHIOILIGBF": 1.5,
              "DPPJGBOHAAL": 0.0,
              "DDOAGBLBCEF": 2.5
            },
            "GDHMBIJKMEF": {
              "$type": "CDPGFBADOIA",
              "PKNBBHPAKCG": {
                "HMHIOILIGBF": 0.0,
                "DPPJGBOHAAL": 90.0,
                "DDOAGBLBCEF": 0.0
              }
            }
          },
          "size": {
            "HMHIOILIGBF": 4.0,
            "DPPJGBOHAAL": 2.0,
            "DDOAGBLBCEF": 6.0
          }
        },
        "attackInfo": {
          "attackTag": "",
          "attenuationTag": "",
          "attenuationGroup": "default",
          "attackProperty": {
            "PCFAAPMOCGJ": 1.0,
            "LCCBNOKMNFG": 0.0,
            "elementType": "Fire",
            "bonusCritical": 100.0,
            "strikeType": "Blunt",
            "enBreak": 200.0,
            "FKGFPFNOJMN": 0.0
          },
          "hitPattern": {
            "onHitEffectName": "default",
            "hitImpulseType": "LV5",
            "hitHaltTimeScale": 0.009999999776482582
          },
          "forceCameraShake": true,
          "cameraShake": {
            "shakeType": "CustomVector",
            "shakeRange": 1.0,
            "shakeTime": 0.15000000596046448,
            "shakeDistance": 25.0,
            "shakeDir": {
              "y": -1.0
            }
          }
        }
      },
      "MeleeCmbo02": {
        "attackPattern": {
          "$type": "HBFCINNBDFD",
          "triggerType": "TriggerNoRepeat",
          "born": {
            "$type": "KDEPFKAAHCG",
            "offset": {
              "HMHIOILIGBF": 0.0,
              "DPPJGBOHAAL": 0.0,
              "DDOAGBLBCEF": 0.0
            },
            "GDHMBIJKMEF": {
              "$type": "CDPGFBADOIA",
              "PKNBBHPAKCG": {
                "HMHIOILIGBF": 0.0,
                "DPPJGBOHAAL": 330.0,
                "DDOAGBLBCEF": 0.0
              }
            }
          },
          "height": 6.0,
          "NPLOANBGDOK": 180.0,
          "DFMMIGEMOHH": 10.0
        },
        "attackInfo": {
          "attackTag": "",
          "attenuationTag": "",
          "attenuationGroup": "default",
          "attackProperty": {
            "PCFAAPMOCGJ": 1.0,
            "LCCBNOKMNFG": 0.0,
            "elementType": "Fire",
            "bonusCritical": 100.0,
            "strikeType": "Default",
            "enBreak": 200.0,
            "FKGFPFNOJMN": 0.0
          },
          "hitPattern": {
            "onHitEffectName": "default",
            "hitImpulseType": "LV5",
            "hitHaltTimeScale": 0.009999999776482582
          },
          "forceCameraShake": true,
          "cameraShake": {
            "shakeType": "CustomVector",
            "shakeRange": 1.0,
            "shakeTime": 0.5,
            "shakeDistance": 25.0,
            "shakeDir": {
              "x": -1.0
            }
          }
        }
      },
      "MeleeCmbo03": {
        "attackPattern": {
          "$type": "GGBJACPDDCM",
          "triggerType": "TriggerNoRepeat",
          "born": {
            "$type": "EOGLEDIIGHF",
            "offset": {
              "HMHIOILIGBF": 0.0,
              "DPPJGBOHAAL": 1.0,
              "DDOAGBLBCEF": 3.0
            }
          },
          "size": {
            "HMHIOILIGBF": 4.0,
            "DPPJGBOHAAL": 2.0,
            "DDOAGBLBCEF": 5.0
          }
        },
        "attackInfo": {
          "attackTag": "",
          "attenuationTag": "",
          "attenuationGroup": "default",
          "attackProperty": {
            "PCFAAPMOCGJ": 1.0,
            "LCCBNOKMNFG": 0.0,
            "elementType": "Fire",
            "bonusCritical": 100.0,
            "strikeType": "Blunt",
            "enBreak": 200.0,
            "FKGFPFNOJMN": 0.0
          },
          "hitPattern": {
            "onHitEffectName": "default",
            "hitImpulseType": "LV5",
            "hitHaltTimeScale": 0.009999999776482582
          },
          "forceCameraShake": true,
          "cameraShake": {
            "shakeType": "CustomVector",
            "shakeRange": 1.0,
            "shakeTime": 1.0,
            "shakeDistance": 25.0,
            "shakeDir": {
              "y": -1.0
            }
          }
        }
      }
    }
  },
  "abilities": [
    {
      "abilityID": "SteerAttack",
      "abilityName": "Monster_Regisvine_SteerAttack",
      "abilityOverride": ""
    },
    {
      "abilityID": "FreeState",
      "abilityName": "Monster_Regisvine_FreeState",
      "abilityOverride": ""
    },
    {
      "abilityID": "DamageManager",
      "abilityName": "Monster_Regisvine_DamageManager",
      "abilityOverride": ""
    },
    {
      "abilityID": "FruitCoverManager",
      "abilityName": "Monster_Regisvine_FruitCoverManager",
      "abilityOverride": ""
    },
    {
      "abilityID": "ReturnToBorn",
      "abilityName": "Monster_Regisvine_ReturnToBorn",
      "abilityOverride": ""
    },
    {
      "abilityID": "Fire_BeHitEffect",
      "abilityName": "Monster_Regisvine_Fire_BeHitEffect",
      "abilityOverride": ""
    },
    {
      "abilityID": "UsingSkillManager",
      "abilityName": "Monster_Regisvine_UsingSkillManager",
      "abilityOverride": ""
    },
    {
      "abilityID": "SetShaderIsBurning",
      "abilityName": "Regisvine_Fire_SetShaderIsBurning",
      "abilityOverride": ""
    },
    {
      "abilityID": "TriggerUseSkill",
      "abilityName": "Monster_Regisvine_TriggerUseSkill",
      "abilityOverride": ""
    },
    {
      "abilityID": "FruitAndCore_FaintAndBreakManager",
      "abilityName": "Monster_Regisvine_FruitAndCore_FaintAndBreakManager",
      "abilityOverride": ""
    },
    {
      "abilityID": "HitboxInitialization",
      "abilityName": "Monster_Regisvine_HitboxInitialization",
      "abilityOverride": ""
    },
    {
      "abilityID": "Alert_TriggerShaderEffect",
      "abilityName": "Monster_Regisvine_Alert_TriggerShaderEffect",
      "abilityOverride": ""
    },
    {
      "abilityID": "FlowerPushColliderOn",
      "abilityName": "Monster_Regisvine_FlowerPushColliderOn",
      "abilityOverride": ""
    },
    {
      "abilityID": "FlowerPushColliderOff",
      "abilityName": "Monster_Regisvine_FlowerPushColliderOff",
      "abilityOverride": ""
    },
    {
      "abilityID": "BlizzardSpitPushColliderOn",
      "abilityName": "Monster_Regisvine_BlizzardSpitPushColliderOn",
      "abilityOverride": ""
    },
    {
      "abilityID": "BlizzardSpitPushColliderOff",
      "abilityName": "Monster_Regisvine_BlizzardSpitPushColliderOff",
      "abilityOverride": ""
    },
    {
      "abilityID": "FaintPushColliderOn",
      "abilityName": "Monster_Regisvine_FaintPushColliderOn",
      "abilityOverride": ""
    },
    {
      "abilityID": "FaintPushColliderOff",
      "abilityName": "Monster_Regisvine_FaintPushColliderOff",
      "abilityOverride": ""
    },
    {
      "abilityID": "FlowerLockableOn",
      "abilityName": "Monster_Regisvine_FlowerLockableOn",
      "abilityOverride": ""
    },
    {
      "abilityID": "FlowerLockableOff",
      "abilityName": "Monster_Regisvine_FlowerLockableOff",
      "abilityOverride": ""
    },
    {
      "abilityID": "FlowerLockableOff",
      "abilityName": "Monster_Regisvine_FlowerLockableOff",
      "abilityOverride": ""
    },
    {
      "abilityID": "MeleeAttack01_FireWave",
      "abilityName": "Monster_Regisvine_Fire_MeleeAttack01_FireWave",
      "abilityOverride": ""
    },
    {
      "abilityID": "MeleeAttack01_TriggerShaderEffect",
      "abilityName": "Monster_Regisvine_MeleeAttack01_TriggerShaderEffect",
      "abilityOverride": ""
    },
    {
      "abilityID": "MeleeAttack03_TriggerShaderEffect",
      "abilityName": "Monster_Regisvine_MeleeAttack03_TriggerShaderEffect",
      "abilityOverride": ""
    },
    {
      "abilityID": "MeeleeAttack03_CreateFireArea",
      "abilityName": "Regisvine_Fire_MeeleeAttack03_CreateFireArea",
      "abilityOverride": ""
    },
    {
      "abilityID": "Fire_WillOWisp",
      "abilityName": "Monster_Regisvine_Fire_WillOWisp",
      "abilityOverride": ""
    },
    {
      "abilityID": "Fire_WillOWisp_1st",
      "abilityName": "Monster_Regisvine_Fire_WillOWisp_1st",
      "abilityOverride": ""
    },
    {
      "abilityID": "Fire_WillOWisp_2nd",
      "abilityName": "Monster_Regisvine_Fire_WillOWisp_2nd",
      "abilityOverride": ""
    },
    {
      "abilityID": "Fire_WillOWisp_3rd",
      "abilityName": "Monster_Regisvine_Fire_WillOWisp_3rd",
      "abilityOverride": ""
    },
    {
      "abilityID": "Fire_WillOWisp_4th",
      "abilityName": "Monster_Regisvine_Fire_WillOWisp_4th",
      "abilityOverride": ""
    },
    {
      "abilityID": "Fire_RapidFire01",
      "abilityName": "Monster_Regisvine_Fire_RapidFire01_Fire",
      "abilityOverride": ""
    },
    {
      "abilityID": "Fire_SummonBlazeSeed",
      "abilityName": "Monster_Regisvine_Fire_SummonBlazeSeed",
      "abilityOverride": ""
    },
    {
      "abilityID": "Fire_CreateBlazeSeedGadget",
      "abilityName": "Monster_Regisvine_Fire_CreateBlazeSeedGadget",
      "abilityOverride": ""
    },
    {
      "abilityID": "Fire_CreateBlazeSeedFireArea",
      "abilityName": "Monster_Regisvine_Fire_CreateBlazeSeedFireArea",
      "abilityOverride": ""
    },
    {
      "abilityID": "Fire_SurroundingFire_Effect",
      "abilityName": "Monster_Regisvine_Fire_SurroundingFire_Effect",
      "abilityOverride": ""
    },
    {
      "abilityID": "Fire_SurroundingFire_Skill",
      "abilityName": "Monster_Regisvine_Fire_SurroundingFire_Skill",
      "abilityOverride": ""
    },
    {
      "abilityID": "RangedAttack02_TriggerShaderEffect",
      "abilityName": "Monster_Regisvine_Ice_RangedAttack02_TriggerShaderEffect",
      "abilityOverride": ""
    },
    {
      "abilityID": "MissileAttack_BS_TriggerShaderEffect",
      "abilityName": "Monster_Regisvine_Ice_MissileAttack_BS_TriggerShaderEffect",
      "abilityOverride": ""
    },
    {
      "abilityID": "Fruit_Close",
      "abilityName": "Regisvine_Fire_Fruit_Close",
      "abilityOverride": ""
    },
    {
      "abilityID": "Fruit_Open",
      "abilityName": "Regisvine_Fire_Fruit_Open",
      "abilityOverride": ""
    },
    {
      "abilityID": "Fruit_Begin",
      "abilityName": "Regisvine_Fire_Fruit_Begin",
      "abilityOverride": ""
    },
    {
      "abilityID": "Fruit_End",
      "abilityName": "Regisvine_Fire_Fruit_End",
      "abilityOverride": ""
    },
    {
      "abilityID": "Faint_Fruit",
      "abilityName": "Monster_Regisvine_Fire_Faint_Fruit",
      "abilityOverride": ""
    },
    {
      "abilityID": "Faint_Recover",
      "abilityName": "Monster_Regisvine_Ice_Faint_Recover",
      "abilityOverride": ""
    },
    {
      "abilityID": "FruitAndCoreReviveManager",
      "abilityName": "Regisvine_Fire_FruitAndCoreReviveManager",
      "abilityOverride": ""
    },
    {
      "abilityID": "Core_Open",
      "abilityName": "Regisvine_Fire_Core_Open",
      "abilityOverride": ""
    },
    {
      "abilityID": "Core_Close",
      "abilityName": "Regisvine_Fire_Core_Close",
      "abilityOverride": ""
    },
    {
      "abilityID": "Core_Begin",
      "abilityName": "Regisvine_Fire_Core_Begin",
      "abilityOverride": ""
    },
    {
      "abilityID": "Core_End",
      "abilityName": "Regisvine_Fire_Core_End",
      "abilityOverride": ""
    },
    {
      "abilityID": "Faint_Core",
      "abilityName": "Monster_Regisvine_Fire_Faint_Core",
      "abilityOverride": ""
    },
    {
      "abilityID": "CreateBaseControlTarget",
      "abilityName": "Monster_Regisvine_CreateBaseControlTarget",
      "abilityOverride": ""
    },
    {
      "abilityID": "PartControlTarget_Enable",
      "abilityName": "Regisvine_PartControlTarget_Enable",
      "abilityOverride": ""
    },
    {
      "abilityID": "PartControlTarget_Disable",
      "abilityName": "Regisvine_PartControlTarget_Disable",
      "abilityOverride": ""
    }
  ],
  "stateLayers": {
    "defaultLayer": {
      "$type": "KFHJINNNDPN",
      "BOPIBFKFKCA": "",
      "stateIDs": {
        "Born": {
          "$type": "MEECNDLIOBI",
          "HKPCLGHBKFD": {
            "Born": []
          },
          "KNOHBHKACHA": true,
          "BAABNFCMKIO": true,
          "ADPGACLPFHN": [
            "DoSkill"
          ]
        },
        "NormalIdle": {
          "$type": "MEECNDLIOBI",
          "HKPCLGHBKFD": {
            "Standby": []
          },
          "KNOHBHKACHA": true,
          "BAABNFCMKIO": true,
          "ADPGACLPFHN": [
            "DoSkill"
          ]
        },
        "Die": {
          "$type": "MEECNDLIOBI",
          "HKPCLGHBKFD": {
            "Die1": [
              "Regisvine_Fire_Die",
              "Regisvine_Fire_Fruit_End",
              "Regisvine_Fire_Core_End",
              "Audio_Monster_Regisvine_Fire_Die"
            ],
            "FallingDie": [
              "Regisvine_Fire_Fruit_End",
              "Regisvine_Fire_Core_End"
            ],
            "SwimDie": [
              "Regisvine_Fire_Fruit_End",
              "Regisvine_Fire_Core_End",
              "Audio_Monster_Regisvine_Fire_Die"
            ],
            "AirDie": [
              "Regisvine_Fire_Fruit_End",
              "Regisvine_Fire_Core_End",
              "Audio_Monster_Regisvine_Fire_Die"
            ]
          }
        },
        "Alert": {
          "$type": "MEECNDLIOBI",
          "HKPCLGHBKFD": {
            "Alert": [
              "Monster_Regisvine_Fire_Alert",
              "Audio_Monster_Regisvine_Fire_MissileAtk_Alert"
            ],
            "Warning": [
              "Monster_Regisvine_Fire_Alert",
              "Audio_Monster_Regisvine_Fire_MissileAtk_Alert"
            ]
          },
          "PAKNCLFMOAC": 0.0,
          "ADPGACLPFHN": [
            "BeHit",
            "DoSkill"
          ]
        },
        "MeleeAttack01": {
          "$type": "MEECNDLIOBI",
          "HKPCLGHBKFD": {
            "MeleeAttack01": [
              "Monster_Regisvine_Fire_MeleeAttack01",
              "Audio_Monster_Regisvine_Fire_MeleeAtk_01"
            ],
            "MeleeAttack01_03": [
              "Monster_Regisvine_Fire_MeleeAttack01",
              "Audio_Monster_Regisvine_Fire_MeleeAtk_01"
            ],
            "MeleeAttack01_05": [
              "Monster_Regisvine_Fire_MeleeAttack01",
              "Audio_Monster_Regisvine_Fire_MeleeAtk_01"
            ]
          },
          "ADPGACLPFHN": [
            "BeHit",
            "DoSkill"
          ]
        },
        "MeleeAttack01_Recover": {
          "$type": "MEECNDLIOBI",
          "HKPCLGHBKFD": {
            "MeleeAttack01_02": [
              "Monster_Regisvine_MeleeAttack01_Recover",
              "Audio_Monster_Regisvine_Fire_MeleeAtk_01"
            ],
            "MeleeAttack01_04": [
              "Monster_Regisvine_MeleeAttack01_Recover",
              "Audio_Monster_Regisvine_Fire_MeleeAtk_01"
            ]
          },
          "ADPGACLPFHN": [
            "BeHit",
            "DoSkill"
          ]
        },
        "MeleeAttack01_AS": {
          "$type": "MEECNDLIOBI",
          "HKPCLGHBKFD": {
            "MeleeAttack01_Wait": [],
            "MeleeAttack01_AS": [
              "Monster_Regisvine_MeleeAttack01_Recover",
              "Audio_Monster_Regisvine_Fire_MeleeAtk_01"
            ]
          },
          "ADPGACLPFHN": [
            "BeHit",
            "DoSkill"
          ]
        },
        "MeleeAttack02": {
          "$type": "MEECNDLIOBI",
          "HKPCLGHBKFD": {
            "MeleeAttack02": [
              "Monster_Regisvine_Fire_MeleeAttack02",
              "Audio_Monster_Regisvine_Fire_MeleeAtk_02"
            ]
          },
          "ADPGACLPFHN": [
            "BeHit",
            "DoSkill"
          ],
          "NPMGEMAFACP": true,
          "DGECHOEBEBO": true
        },
        "MeleeAttack02_Recover": {
          "$type": "MEECNDLIOBI",
          "HKPCLGHBKFD": {
            "MeleeAttack02_Recover01": []
          },
          "ADPGACLPFHN": [
            "BeHit",
            "DoSkill"
          ],
          "NPMGEMAFACP": true,
          "DGECHOEBEBO": true
        },
        "MeleeAttack02_Combo": {
          "$type": "MEECNDLIOBI",
          "HKPCLGHBKFD": {
            "MeleeAttack02_Combo01": [
              "Monster_Regisvine_Fire_MeleeAttack02",
              "Audio_Monster_Regisvine_Fire_MeleeAtk_02"
            ]
          },
          "ADPGACLPFHN": [
            "BeHit",
            "DoSkill"
          ],
          "NPMGEMAFACP": true,
          "DGECHOEBEBO": true
        },
        "MeleeAttack02_Reverse": {
          "$type": "MEECNDLIOBI",
          "HKPCLGHBKFD": {
            "MeleeAttack02_Reverse": [
              "Monster_Regisvine_Fire_MeleeAttack02_Reverse",
              "Audio_Monster_Regisvine_Fire_MeleeAtk_02"
            ]
          },
          "ADPGACLPFHN": [
            "BeHit",
            "DoSkill"
          ],
          "NPMGEMAFACP": true,
          "DGECHOEBEBO": true
        },
        "MeleeAttack02_Reverse_Recover": {
          "$type": "MEECNDLIOBI",
          "HKPCLGHBKFD": {
            "MeleeAttack02_Reverse_Recover01": [],
            "MeleeAttack02_Reverse_Recover02": []
          },
          "ADPGACLPFHN": [
            "BeHit",
            "DoSkill"
          ],
          "NPMGEMAFACP": true,
          "DGECHOEBEBO": true
        },
        "MeleeAttack02_Reverse_Combo": {
          "$type": "MEECNDLIOBI",
          "HKPCLGHBKFD": {
            "MeleeAttack02_Reverse_Combo01": [
              "Monster_Regisvine_Fire_MeleeAttack02_Reverse",
              "Audio_Monster_Regisvine_Fire_MeleeAtk_02"
            ]
          },
          "ADPGACLPFHN": [
            "BeHit",
            "DoSkill"
          ],
          "NPMGEMAFACP": true,
          "DGECHOEBEBO": true
        },
        "MeleeAttack03": {
          "$type": "MEECNDLIOBI",
          "HKPCLGHBKFD": {
            "MeleeAttack03": [
              "Monster_Regisvine_Fire_MeleeAttack03",
              "Audio_Monster_Regisvine_Fire_MeleeAtk_03"
            ]
          },
          "ADPGACLPFHN": [
            "BeHit",
            "DoSkill"
          ]
        },
        "MeleeAttackCombo": {
          "$type": "MEECNDLIOBI",
          "HKPCLGHBKFD": {
            "MeleeAttackCombo_BS": [
              "Monster_Regisvine_Fire_MeleeAttackCombo",
              "Audio_Monster_Regisvine_Fire_MeleeAtk_Combo"
            ],
            "MeleeAttackCombo_Wait": [
              "Monster_Regisvine_Fire_MeleeAttackCombo"
            ],
            "MeleeAttackCombo_AS": [
              "Monster_Regisvine_Fire_MeleeAttackCombo"
            ]
          },
          "ADPGACLPFHN": [
            "BeHit",
            "DoSkill"
          ],
          "NPMGEMAFACP": true
        },
        "RangedAttack01": {
          "$type": "MEECNDLIOBI",
          "HKPCLGHBKFD": {
            "RangedAttack01": [
              "Monster_Regisvine_Fire_RangedAttack01",
              "Audio_Monster_Regisvine_Fire_RangedAttack01"
            ]
          },
          "ADPGACLPFHN": [
            "BeHit",
            "DoSkill"
          ],
          "NPMGEMAFACP": true,
          "DGECHOEBEBO": true
        },
        "RapidFire01_BS": {
          "$type": "MEECNDLIOBI",
          "HKPCLGHBKFD": {
            "RapidFire01_BS": [
              "Audio_Monster_Regisvine_Fire_RapodFore01_BS"
            ]
          },
          "ADPGACLPFHN": [
            "BeHit",
            "DoSkill"
          ],
          "NPMGEMAFACP": true,
          "DGECHOEBEBO": true
        },
        "RapidFire01_Fire": {
          "$type": "MEECNDLIOBI",
          "HKPCLGHBKFD": {
            "RapidFire01_Fire": [
              "Audio_Monster_Regisvine_Fire_MeleeAtk_Combo",
              "Audio_Monster_Regisvine_Fire_RapodFore01_Fire"
            ]
          },
          "ADPGACLPFHN": [
            "BeHit",
            "DoSkill"
          ],
          "NPMGEMAFACP": true,
          "DGECHOEBEBO": true
        },
        "RapidFire01_AS": {
          "$type": "MEECNDLIOBI",
          "HKPCLGHBKFD": {
            "RapidFire01_AS": [
              "Audio_Monster_Regisvine_Fire_RapodFore01_AS"
            ]
          },
          "ADPGACLPFHN": [
            "BeHit",
            "DoSkill"
          ],
          "NPMGEMAFACP": true,
          "DGECHOEBEBO": true
        },
        "RevengeAttack": {
          "$type": "MEECNDLIOBI",
          "HKPCLGHBKFD": {
            "RevengeAttack": [
              "Monster_Regisvine_Fire_RevengeAttack",
              "Audio_Monster_Regisvine_Fire_RevengeAtk"
            ]
          },
          "ADPGACLPFHN": [
            "BeHit",
            "DoSkill"
          ],
          "NPMGEMAFACP": true,
          "DGECHOEBEBO": true
        },
        "SummonBlazeSeed_BS": {
          "$type": "MEECNDLIOBI",
          "HKPCLGHBKFD": {
            "SummonBlazeSeed_BS": [
              "Audio_Monster_Regisvine_Fire_SummonBlazeSeed_BS"
            ]
          },
          "ADPGACLPFHN": [
            "BeHit",
            "DoSkill"
          ],
          "NPMGEMAFACP": true,
          "DGECHOEBEBO": true
        },
        "SummonBlazeSeed_Loop": {
          "$type": "MEECNDLIOBI",
          "HKPCLGHBKFD": {
            "SummonBlazeSeed_Loop": []
          },
          "ADPGACLPFHN": [
            "BeHit",
            "DoSkill"
          ],
          "NPMGEMAFACP": true,
          "DGECHOEBEBO": true
        },
        "SummonBlazeSeed_AS": {
          "$type": "MEECNDLIOBI",
          "HKPCLGHBKFD": {
            "SummonBlazeSeed_AS": [
              "Monster_Regisvine_Fire_SummonBlazeSeed_AS",
              "Audio_Monster_Regisvine_Fire_SummonBlazeSeed_AS"
            ]
          },
          "ADPGACLPFHN": [
            "BeHit",
            "DoSkill"
          ],
          "NPMGEMAFACP": true,
          "DGECHOEBEBO": true
        },
        "MissileAttack_BS": {
          "$type": "MEECNDLIOBI",
          "HKPCLGHBKFD": {
            "MissileAttack_BS": [
              "Monster_Regisvine_Fire_MissileAttack_BS",
              "Audio_Monster_Regisvine_Fire_MissileAtk_BS"
            ]
          },
          "ADPGACLPFHN": [
            "BeHit",
            "DoSkill"
          ]
        },
        "MissileAttack_Loop": {
          "$type": "MEECNDLIOBI",
          "HKPCLGHBKFD": {
            "MissileAttack_Loop": [
              "Audio_Monster_Regisvine_Fire_MissileAtk_Shoot"
            ]
          },
          "ADPGACLPFHN": [
            "BeHit",
            "DoSkill"
          ]
        },
        "MissileAttack_AS": {
          "$type": "MEECNDLIOBI",
          "HKPCLGHBKFD": {
            "MissileAttack_AS": [
              "Audio_Monster_Regisvine_Fire_MissileAtk_AS"
            ]
          },
          "ADPGACLPFHN": [
            "BeHit",
            "DoSkill"
          ]
        },
        "Faint": {
          "$type": "MEECNDLIOBI",
          "HKPCLGHBKFD": {
            "Faint_BS": [
              "Monster_Regisvine_Faint_BS",
              "Audio_Monster_Regisvine_Fire_Faint_BS"
            ],
            "Faint_Loop": [],
            "Faint_AS": [
              "Monster_Regisvine_Fire_RevengeAttack",
              "Audio_Monster_Regisvine_Fire_Faint_AS"
            ]
          },
          "BAABNFCMKIO": true,
          "ADPGACLPFHN": [
            "DoSkill"
          ]
        },
        "ReturnToBorn": {
          "$type": "MEECNDLIOBI",
          "HKPCLGHBKFD": {
            "ReturnToBorn": [
              "Monster_Regisvine_Fire_ReturnToBorn",
              "Regisvine_Fire_EndAllGadgets",
              "Audio_Monster_Regisvine_Fire_ReturnToBorn"
            ]
          },
          "KNOHBHKACHA": true,
          "ADPGACLPFHN": [
            "ReturnToBornTrigger"
          ]
        }
      }
    }
  },
  "partControl": {
    "parts": [
      {
        "$type": "PMGKKACOLIC",
        "angularSpeed": 3600.0,
        "BGKPNLALNPD": "BlazeSeedSource",
        "BDLFNAFBKOJ": "NamedTransform",
        "EMEMONKOOAF": "ForwardTransLocal",
        "AJBEMCBABJF": "BlazeSeedSourceParent",
        "GPAPEPNEEMC": 0.0,
        "OGNBJMIOCPO": 7.0
      },
      {
        "$type": "PMGKKACOLIC",
        "angularSpeed": 3600.0,
        "BGKPNLALNPD": "BaseControl",
        "AJBEMCBABJF": "",
        "GPAPEPNEEMC": 360.0,
        "OGNBJMIOCPO": 0.0
      },
      {
        "$type": "PMGKKACOLIC",
        "angularSpeed": 3600.0,
        "BGKPNLALNPD": "LaserPartControlL",
        "AJBEMCBABJF": "",
        "GPAPEPNEEMC": 360.0,
        "OGNBJMIOCPO": 360.0
      },
      {
        "$type": "PMGKKACOLIC",
        "angularSpeed": 3600.0,
        "BGKPNLALNPD": "LaserPartControlR",
        "AJBEMCBABJF": "",
        "GPAPEPNEEMC": 360.0,
        "OGNBJMIOCPO": 360.0
      }
    ]
  },
  "billboard": {
    "$type": "HFEGKLAIGGI",
    "IIKEHINGEME": "BillboardAttach",
    "HECLHMINJII": 1.0,
    "showDistance": 1.0,
    "size": "Grand"
  },
  "initialPoses": {
    "Default": {
      "initialPoseID": 1
    }
  },
  "aibeta": {
    "enable": true,
    "sensing": {
      "settings": {
        "DefaultSetting": {
          "viewRange": 25.0,
          "feelRange": 25.0
        }
      }
    },
    "neurons": {
      "DefaultSetting": [
        "HIT"
      ]
    },
    "threat": {
      "clearThreatTargetDistance": 28.0,
      "clearThreatEdgeDistance": 7.5,
      "clearThreatTimerByDistance": 1.75,
      "viewThreatGrow": 35.0,
      "feelThreatGrow": 100.0,
      "threatDecreaseSpeed": 10.0,
      "resistTauntLevel": "Monster_TauntLevel_4"
    },
    "defendArea": {
      "defendRange": 25.0
    },
    "network": {
      "syncSkill": true
    },
    "skillGroupCDConfigs": [
      {
        "skillGroupCDID": 1,
        "skillGroupCDTime": 3.0
      },
      {
        "skillGroupCDID": 2,
        "skillGroupCDTime": 0.0
      },
      {
        "skillGroupCDID": 3,
        "skillGroupCDTime": 25.0
      }
    ],
    "skillSetting": {},
    "skills": {
      "101": {
        "name": "OnAlert",
        "skillType": "OnAlert",
        "faceTarget": true,
        "publicCDGroup": "",
        "ignoreGCD": true,
        "triggerGCD": false,
        "CLEPNIDJOLN": "",
        "stateIDs": [
          "Alert"
        ],
        "skillQueryingTime": 3.0,
        "flagTargetReachable": "10",
        "flagSelfOnTemplateCollider": "01",
        "flagSelfInZone": "10",
        "flagTargetInZone": "11"
      },
      "201": {
        "name": "MeleeAttack01_Close",
        "castCondition": {
          "pose": [
            1002,
            1022
          ],
          "maxTargetAngleXZ": 90.0,
          "pickRangeMax": 12.5,
          "castRangeMax": 25.0
        },
        "cd": 5.0,
        "initialCD": 5.0,
        "publicCDGroup": "",
        "ignoreGCD": true,
        "triggerGCD": false,
        "skillGroupCDID": 1,
        "CLEPNIDJOLN": "",
        "stateIDs": [
          "MeleeAttack01",
          "MeleeAttack01_Recover",
          "MeleeAttack01_AS"
        ],
        "flagTargetReachable": "11",
        "flagSelfOnTemplateCollider": "01",
        "flagSelfInZone": "10",
        "flagTargetInZone": "11"
      },
      "221": {
        "name": "MeleeAttack01_Far",
        "castCondition": {
          "pose": [
            1001,
            1021
          ],
          "maxTargetAngleXZ": 90.0,
          "pickRangeMin": 12.5,
          "pickRangeMax": 25.0,
          "castRangeMax": 25.0
        },
        "cd": 5.0,
        "initialCD": 20.0,
        "publicCDGroup": "",
        "skillGroupCDID": 2,
        "CLEPNIDJOLN": "",
        "stateIDs": [
          "MeleeAttack01",
          "MeleeAttack01_Recover",
          "MeleeAttack01_AS"
        ],
        "flagTargetReachable": "11",
        "flagSelfOnTemplateCollider": "01",
        "flagSelfInZone": "10",
        "flagTargetInZone": "11"
      },
      "231": {
        "name": "MeleeAttack01_Core",
        "castCondition": {
          "pose": [
            1011,
            1012,
            1031,
            1032
          ],
          "maxTargetAngleXZ": 90.0,
          "pickRangeMax": 25.0,
          "castRangeMax": 25.0
        },
        "cd": 1.0,
        "publicCDGroup": "",
        "ignoreGCD": true,
        "triggerGCD": false,
        "CLEPNIDJOLN": "",
        "stateIDs": [
          "MeleeAttack01",
          "MeleeAttack01_Recover",
          "MeleeAttack01_AS"
        ],
        "flagTargetReachable": "11",
        "flagSelfOnTemplateCollider": "01",
        "flagSelfInZone": "10",
        "flagTargetInZone": "11"
      },
      "202": {
        "name": "MeleeAttack02",
        "castCondition": {
          "pose": [
            1001,
            1002,
            1011,
            1012,
            1021,
            1022,
            1031,
            1032
          ],
          "minTargetAngleXZ": 90.0,
          "maxTargetAngleXZ": 180.0,
          "pickRangeMax": 100.0,
          "castRangeMax": 100.0
        },
        "cd": 1.0,
        "cdUpperRange": 3.0,
        "initialCD": 1.0,
        "publicCDGroup": "",
        "ignoreGCD": true,
        "triggerGCD": false,
        "CLEPNIDJOLN": "",
        "stateIDs": [
          "MeleeAttack02"
        ],
        "flagTargetReachable": "11",
        "flagSelfOnTemplateCollider": "01",
        "flagSelfInZone": "10",
        "flagTargetInZone": "11"
      },
      "203": {
        "name": "MeleeAttack03",
        "castCondition": {
          "pose": [
            1001,
            1002,
            1021,
            1022
          ],
          "pickRangeMax": 12.0,
          "castRangeMax": 12.0
        },
        "cd": 30.0,
        "cdUpperRange": 5.0,
        "initialCD": 30.0,
        "publicCDGroup": "",
        "ignoreGCD": true,
        "triggerGCD": false,
        "skillGroupCDID": 1,
        "CLEPNIDJOLN": "",
        "stateIDs": [
          "MeleeAttack03"
        ],
        "flagTargetReachable": "11",
        "flagSelfOnTemplateCollider": "01",
        "flagSelfInZone": "10",
        "flagTargetInZone": "11"
      },
      "204": {
        "name": "MeleeAttackCombo",
        "priority": 1,
        "castCondition": {
          "pose": [
            1011,
            1012,
            1031,
            1032
          ],
          "pickRangeMax": 8.0,
          "castRangeMax": 8.0
        },
        "cd": 10.0,
        "initialCD": 18.0,
        "publicCDGroup": "",
        "ignoreGCD": true,
        "triggerGCD": false,
        "CLEPNIDJOLN": "",
        "stateIDs": [
          "MeleeAttackCombo"
        ],
        "flagTargetReachable": "11",
        "flagSelfOnTemplateCollider": "01",
        "flagSelfInZone": "10",
        "flagTargetInZone": "11"
      },
      "301": {
        "name": "RapidFire01",
        "castCondition": {
          "pose": [
            1001,
            1021
          ],
          "maxTargetAngleXZ": 90.0,
          "pickRangeMin": 6.0,
          "pickRangeMax": 25.0,
          "castRangeMax": 25.0
        },
        "cd": 3.0,
        "cdUpperRange": 3.0,
        "initialCD": 5.0,
        "publicCDGroup": "",
        "ignoreGCD": true,
        "triggerGCD": false,
        "skillGroupCDID": 2,
        "CLEPNIDJOLN": "",
        "stateIDs": [
          "RapidFire01_BS",
          "RapidFire01_Fire",
          "RapidFire01_AS"
        ],
        "flagTargetReachable": "11",
        "flagSelfOnTemplateCollider": "01",
        "flagSelfInZone": "10",
        "flagTargetInZone": "11"
      },
      "302": {
        "name": "RangedAttack01_Far",
        "castCondition": {
          "pose": [
            1001,
            1021
          ],
          "maxTargetAngleXZ": 90.0,
          "pickRangeMin": 12.0,
          "pickRangeMax": 50.0,
          "castRangeMax": 50.0
        },
        "cd": 3.0,
        "cdUpperRange": 3.0,
        "initialCD": 10.0,
        "publicCDGroup": "",
        "ignoreGCD": true,
        "triggerGCD": false,
        "skillGroupCDID": 2,
        "CLEPNIDJOLN": "",
        "stateIDs": [
          "RangedAttack01"
        ],
        "flagTargetReachable": "11",
        "flagSelfOnTemplateCollider": "01",
        "flagSelfInZone": "10",
        "flagTargetInZone": "11"
      },
      "312": {
        "name": "RangedAttack01_Close",
        "castCondition": {
          "pose": [
            1002,
            1022
          ],
          "maxTargetAngleXZ": 90.0,
          "pickRangeMax": 25.0,
          "castRangeMax": 25.0
        },
        "cd": 12.0,
        "initialCD": 5.0,
        "publicCDGroup": "",
        "ignoreGCD": true,
        "triggerGCD": false,
        "skillGroupCDID": 2,
        "CLEPNIDJOLN": "",
        "stateIDs": [
          "RangedAttack01"
        ],
        "flagTargetReachable": "11",
        "flagSelfOnTemplateCollider": "01",
        "flagSelfInZone": "10",
        "flagTargetInZone": "11"
      },
      "401": {
        "name": "MissileAttack",
        "priority": 1,
        "castCondition": {
          "pose": [
            1011,
            1031
          ],
          "pickRangeMax": 25.0,
          "castRangeMax": 25.0
        },
        "cd": 10.0,
        "initialCD": 10.0,
        "publicCDGroup": "",
        "skillGroupCDID": 3,
        "CLEPNIDJOLN": "",
        "stateIDs": [
          "MissileAttack_BS",
          "MissileAttack_Loop",
          "MissileAttack_AS"
        ],
        "flagTargetReachable": "11",
        "flagSelfOnTemplateCollider": "01",
        "flagSelfInZone": "10",
        "flagTargetInZone": "11"
      },
      "402": {
        "name": "SummonBlazeSeed",
        "priority": 1,
        "castCondition": {
          "pose": [
            1001,
            1002,
            1021,
            1022
          ],
          "pickRangeMax": 25.0,
          "castRangeMax": 25.0
        },
        "cd": 20.0,
        "initialCD": 10.0,
        "publicCDGroup": "",
        "skillGroupCDID": 3,
        "CLEPNIDJOLN": "",
        "stateIDs": [
          "SummonBlazeSeed_BS",
          "SummonBlazeSeed_Loop",
          "SummonBlazeSeed_AS"
        ],
        "flagTargetReachable": "11",
        "flagSelfOnTemplateCollider": "01",
        "flagSelfInZone": "10",
        "flagTargetInZone": "11"
      },
      "501": {
        "name": "FaintRecover",
        "priority": 1,
        "castCondition": {
          "pose": [
            2001,
            2002
          ],
          "pickRangeMax": 9999.0,
          "castRangeMax": 9999.0
        },
        "cd": 15.0,
        "initialCD": 15.0,
        "publicCDGroup": "",
        "CLEPNIDJOLN": "",
        "stateIDs": [
          "Faint"
        ],
        "flagTargetReachable": "11",
        "flagSelfOnTemplateCollider": "11",
        "flagSelfInZone": "10",
        "flagTargetInZone": "11"
      }
    },
    "skillGCD": 3.0,
    "combatFixedMoveTactic": [
      {
        "$type": "AFDJLHBOOMF",
        "enable": true,
        "NGIEOIGFFDH": {
          "ODJCANIELOC": 0.5,
          "OKABCEDCDJM": 0.5,
          "FCFLCFFJKLO": "",
          "BKCOJDIDEGN": ""
        }
      },
      {
        "$type": "GJGILIGEJMO",
        "enable": true,
        "NGIEOIGFFDH": {
          "NHPKGHAHIFA": 0,
          "JIFACJMKJID": 1.0,
          "HEMHHCFMJGB": 1.5,
          "FCFLCFFJKLO": "",
          "BKCOJDIDEGN": ""
        }
      },
      {
        "$type": "IKIHDEMELGB",
        "enable": true,
        "EGJMGEHLDOL": {
          "pose": [
            100,
            300
          ]
        },
        "NGIEOIGFFDH": {
          "MONCHHKIDKL": 0.20000000298023224,
          "KDLAOJIPGHP": 25.0,
          "OEFFOIEOJNC": 7.5,
          "FCFLCFFJKLO": ""
        }
      }
    ]
  },
  "inputKeys": [
    {
      "keyID": 201,
      "inputKeyCode": 257,
      "abilityName": ""
    },
    {
      "keyID": 202,
      "inputKeyCode": 258,
      "abilityName": ""
    },
    {
      "keyID": 203,
      "inputKeyCode": 259,
      "abilityName": ""
    },
    {
      "keyID": 204,
      "inputKeyCode": 260,
      "abilityName": ""
    },
    {
      "keyID": 501,
      "inputKeyCode": 261,
      "abilityName": ""
    },
    {
      "keyID": 301,
      "inputKeyCode": 262,
      "abilityName": ""
    },
    {
      "keyID": 302,
      "inputKeyCode": 263,
      "abilityName": ""
    },
    {
      "keyID": 401,
      "inputKeyCode": 264,
      "abilityName": ""
    },
    {
      "keyID": 402,
      "inputKeyCode": 265,
      "abilityName": ""
    }
  ],
  "move": {
    "$type": "JKDLANFKJIL",
    "BGKIHCPJBMO": {
      "muteAll": true
    },
    "BEICMHKFBPB": true,
    "LPAKBBIADNC": "RootNode"
  },
  "audio": {
    "LKJIHNLBIJL": "",
    "animAudio": {
      "onTransitionIn": [
        {
          "currentStateName": "Faint_Loop",
          "audioEvent": {
            "text": "Play_sfx_monster_regisvine_fire_faint_lp"
          }
        }
      ],
      "onTransitionOut": [
        {
          "currentStateName": "Faint_Loop",
          "audioEvent": {
            "text": "Stop_sfx_monster_regisvine_fire_faint_lp"
          }
        }
      ]
    }
  },
  "cameraAdjust": {
    "default": {
      "$type": "LEOHKCFLBEB",
      "priority": 1.0,
      "BPJMGLDEBOP": 25.0,
      "OEFDKGHGFOF": 30.0,
      "NHCPBJMKJFD": 0.75,
      "FHGOFJGGPPH": 47.5,
      "LFPMADFBMMD": 8.0,
      "PNPIIBEIKLC": 10.0,
      "FFBIAKHMFCM": false,
      "AABCBFLFOOC": 10.0,
      "FCEMCMPDACC": 10.0,
      "FMIFMBHNLGN": 50.0,
      "EHPJLOAAGGD": 40.0,
      "GBIIHFCMCNA": 100.0,
      "EPJDLHHOCFF": 145.0,
      "KDLPBJIAALA": "CircleR25H12_5B",
      "KLHLNABBJME": "CircleR30H15B",
      "MLFKNPOLALN": {
        "y": -1.0
      }
    }
  }
}