{
  "common": {
    "effectAttachShape": {
      "$type": "DPGKNHENGLM",
      "DDDEJPIFECG": "EffectMesh"
    },
    "mass": 30.0,
    "height": 1.600000023841858,
    "modelHeight": 1.600000023841858,
    "viewSize": 0.4544999897480011,
    "affectedByWorld": true,
    "checkInSurface": true,
    "scale": 0.6000000238418579,
    "useGrassDisplacement": true,
    "BKPPECPBMBF": true,
    "LOGFKHMLOOL": true
  },
  "model": {
    "bornEffect": "",
    "attachEffect": ""
  },
  "dither": {
    "showDitherDuration": 2.0
  },
  "combat": {
    "property": {
      "endureType": "Monster_Minion",
      "weight": 100.0
    },
    "beHit": {
      "hitBloodEffect": ""
    },
    "combatLock": {
      "lockShape": "CircleLockEnemy",
      "lockType": "Avatar&Monster_Lv4"
    },
    "die": {
      "hasAnimatorDie": true,
      "dieForceDisappearTime": 2.0,
      "dieDisappearEffect": "Eff_Death_Common",
      "dieShaderData": "MonsterDie",
      "muteHitBox": true,
      "dieDenyLockOn": true,
      "dieIsGhostToEnemy": true,
      "dieIgnoreTriggerBullet": true,
      "muteBillboard": true,
      "mutePushCollider": true
    },
    "animEvents": {
      "MeleeAttack01": {
        "attackPattern": {
          "$type": "AGJFCPDIMCK",
          "triggerType": "TriggerNoRepeat",
          "born": {
            "$type": "NKOODKOFELF",
            "offset": {
              "GNGDNIIPPNL": 0.23000000417232513,
              "GIIMFINHIED": 0.0,
              "CLBCHJICOKH": 0.0
            }
          },
          "height": 1.1399999856948853,
          "IAMPMDAOKJL": 200.0,
          "LOACHGCADCO": 2.049999952316284
        },
        "attackInfo": {
          "attackTag": "",
          "attenuationTag": "",
          "attenuationGroup": "default",
          "attackProperty": {
            "HOGNHNAHNML": 0.6000000238418579,
            "BAPILBAGBOJ": 0.0,
            "bonusCriticalHurt": 100.0,
            "strikeType": "Blunt",
            "enBreak": 100.0,
            "attackType": "Melee",
            "damagePercentage": 0.0
          },
          "hitPattern": {
            "onHitEffectName": "default",
            "hitImpulseType": "LV3"
          }
        }
      },
      "MeleeAttack02": {
        "attackPattern": {
          "$type": "HGDDHLFAONH",
          "triggerType": "TriggerNoRepeat",
          "born": {
            "$type": "NKOODKOFELF",
            "offset": {
              "GNGDNIIPPNL": 0.0,
              "GIIMFINHIED": 1.3600000143051147,
              "CLBCHJICOKH": 0.23000000417232513
            }
          },
          "musicSubStates": {
            "GNGDNIIPPNL": 1.0199999809265137,
            "GIIMFINHIED": 2.7300000190734863,
            "CLBCHJICOKH": 3.4100000858306885
          }
        },
        "attackInfo": {
          "attackTag": "",
          "attenuationTag": "",
          "attenuationGroup": "default",
          "attackProperty": {
            "HOGNHNAHNML": 0.6000000238418579,
            "BAPILBAGBOJ": 0.0,
            "bonusCriticalHurt": 100.0,
            "strikeType": "Blunt",
            "enBreak": 100.0,
            "attackType": "Melee",
            "damagePercentage": 0.0
          },
          "hitPattern": {
            "onHitEffectName": "default",
            "hitImpulseType": "LV3"
          }
        }
      },
      "MeleeAttack03": {
        "attackPattern": {
          "$type": "AGJFCPDIMCK",
          "triggerType": "TriggerNoRepeat",
          "born": {
            "$type": "NKOODKOFELF",
            "offset": {
              "GNGDNIIPPNL": 0.0,
              "GIIMFINHIED": 0.0,
              "CLBCHJICOKH": 0.27000001072883606
            }
          },
          "height": 1.1399999856948853,
          "LOACHGCADCO": 2.2699999809265137
        },
        "attackInfo": {
          "attackTag": "",
          "attenuationTag": "",
          "attenuationGroup": "default",
          "attackProperty": {
            "HOGNHNAHNML": 0.6000000238418579,
            "BAPILBAGBOJ": 0.0,
            "bonusCriticalHurt": 100.0,
            "strikeType": "Blunt",
            "enBreak": 100.0,
            "attackType": "Melee",
            "damagePercentage": 0.0
          },
          "hitPattern": {
            "onHitEffectName": "default",
            "hitImpulseType": "LV4"
          }
        }
      }
    }
  },
  "equipController": {
    "sheathPoint": "",
    "attachPoints": {
      "equip01": "RootNode"
    }
  },
  "abilities": [
    {
      "abilityID": "",
      "abilityName": "Monster_Ovacua_Common_ReturnToBorn",
      "abilityOverride": ""
    },
    {
      "abilityID": "",
      "abilityName": "Monster_Ovacua_Common_Steer",
      "abilityOverride": ""
    },
    {
      "abilityID": "",
      "abilityName": "Monster_Ovacua_Common_Shader_Growth_On",
      "abilityOverride": ""
    },
    {
      "abilityID": "",
      "abilityName": "Monster_Ovacua_Common_Shader_Growth_Off",
      "abilityOverride": ""
    },
    {
      "abilityID": "",
      "abilityName": "Monster_Ovacua_SkillSetManager",
      "abilityOverride": ""
    },
    {
      "abilityID": "",
      "abilityName": "Monster_Ovacua_Common_UIBillboardManager",
      "abilityOverride": ""
    },
    {
      "abilityID": "",
      "abilityName": "Monster_Ovacua_Common_UIBillboard_MoveToLowPosition",
      "abilityOverride": ""
    },
    {
      "abilityID": "",
      "abilityName": "Monster_Ovacua_02_GrowthState_ElementDurability",
      "abilityOverride": ""
    },
    {
      "abilityID": "",
      "abilityName": "Monster_Ovacua_Chaos_01_GrowthState",
      "abilityOverride": ""
    },
    {
      "abilityID": "",
      "abilityName": "Monster_Ovacua_Chaos_01_GrowthState_Off",
      "abilityOverride": ""
    },
    {
      "abilityID": "",
      "abilityName": "Monster_Ovacua_Chaos_OuterRing_Chaos_Idle01",
      "abilityOverride": ""
    },
    {
      "abilityID": "",
      "abilityName": "Monster_Ovacua_Common_OuterRing_Alert",
      "abilityOverride": ""
    },
    {
      "abilityID": "",
      "abilityName": "Monster_Ovacua_Common_Shoot01_Small",
      "abilityOverride": ""
    },
    {
      "abilityID": "",
      "abilityName": "Monster_Ovacua_Chaos_02_Growth_Shoot",
      "abilityOverride": ""
    },
    {
      "abilityID": "",
      "abilityName": "Monster_Ovacua_Chaos_01_GrowthState",
      "abilityOverride": ""
    },
    {
      "abilityID": "",
      "abilityName": "Monster_Ovacua_Chaos_01_GrowthState_Off",
      "abilityOverride": ""
    }
  ],
  "stateLayers": {
    "defaultLayer": {
      "$type": "EPAPJJAGHKG",
      "ACOCIAFGIAD": "",
      "stateIDs": {
        "Born": {
          "$type": "IJOIMFMEGMM",
          "DLOHGBDFFGB": {
            "Born": []
          },
          "PGKCBIHGAOC": true,
          "DLAOMOCMANL": [
            "DoSkill"
          ]
        },
        "NormalIdle": {
          "$type": "IJOIMFMEGMM",
          "DLOHGBDFFGB": {
            "Standby": [
              "Monster_Ovacua_Common_OuterRing_Show",
              "Monster_Ovacua_Chaos_ClearGrowthState"
            ]
          },
          "POLKCLOHPOO": true,
          "PGKCBIHGAOC": true,
          "DLAOMOCMANL": [
            "DoSkill"
          ],
          "LIPMJPLGIKD": true
        },
        "Faint": {
          "$type": "IJOIMFMEGMM",
          "DLOHGBDFFGB": {
            "Faint": [
              "Monster_Ovacua_Common_OuterRing_Hide",
              "Monster_Ovacua_Common_Growth_Faint"
            ]
          },
          "POLKCLOHPOO": true,
          "PGKCBIHGAOC": true,
          "DLAOMOCMANL": [
            "DoSkill"
          ],
          "LIPMJPLGIKD": true
        },
        "NormalMove": {
          "$type": "IJOIMFMEGMM",
          "DLOHGBDFFGB": {
            "WalkForward": [],
            "WalkBack": [],
            "WalkLeft": [],
            "WalkRight": []
          },
          "POLKCLOHPOO": true,
          "PGKCBIHGAOC": true,
          "DLAOMOCMANL": [
            "DoSkill"
          ],
          "LIPMJPLGIKD": true
        },
        "BeHit": {
          "$type": "IJOIMFMEGMM",
          "DLOHGBDFFGB": {
            "Hit_H": [
              "Audio_Monster_Ovacua_Small_Hit"
            ]
          },
          "PGKCBIHGAOC": true,
          "AJBLILDCLBO": [
            "BeHit"
          ],
          "DLAOMOCMANL": [
            "DoSkill"
          ],
          "OOPPLFOAOGN": true
        },
        "BeHitThrow": {
          "$type": "IJOIMFMEGMM",
          "DLOHGBDFFGB": {
            "HitThrow": [
              "Audio_Monster_Ovacua_Small_Hit"
            ],
            "HitThrowDrop": [],
            "HitThrowToGround": []
          },
          "AJBLILDCLBO": [
            "BeHit",
            "HitAir2HitDrop"
          ],
          "DLAOMOCMANL": [
            "DoSkill"
          ]
        },
        "Struggle": {
          "$type": "IJOIMFMEGMM",
          "DLOHGBDFFGB": {
            "Struggle": []
          },
          "AJBLILDCLBO": [
            "BeHit",
            "HitAir2HitDrop"
          ],
          "DLAOMOCMANL": [
            "DoSkill"
          ]
        },
        "Die": {
          "$type": "IJOIMFMEGMM",
          "DLOHGBDFFGB": {
            "Die": [
              "Monster_Ovacua_Common_Die",
              "Monster_Ovacua_Chaos_ClearGrowthState",
              "Audio_Monster_Ovacua_Small_Die"
            ]
          },
          "AJBLILDCLBO": [
            "DoSkill"
          ]
        },
        "Warning": {
          "$type": "IJOIMFMEGMM",
          "DLOHGBDFFGB": {
            "Warning": [
              "Monster_Ovacua_Common_Alert",
              "Audio_Monster_Ovacua_Small_Warning"
            ]
          },
          "PGKCBIHGAOC": true,
          "DLAOMOCMANL": [
            "BeHit",
            "DoSkill"
          ],
          "LIPMJPLGIKD": true
        },
        "IdleFree01": {
          "$type": "IJOIMFMEGMM",
          "DLOHGBDFFGB": {
            "Chaos_Idle01": [
              "Monster_Ovacua_Chaos_Chaos_Idle01",
              "Audio_Monster_Ovacua_Small_Chaos_Idle"
            ]
          },
          "PGKCBIHGAOC": true,
          "DLAOMOCMANL": [
            "BeHit",
            "DoSkill"
          ],
          "LIPMJPLGIKD": true
        },
        "MeleeAttack01_BS": {
          "$type": "IJOIMFMEGMM",
          "DLOHGBDFFGB": {
            "MeleeAttack01_BS": [
              "Monster_Ovacua_Common_02_MeleeAttack_01_BS",
              "Audio_Monster_Ovacua_Small_MeleeAttack_01"
            ]
          },
          "DLAOMOCMANL": [
            "BeHit",
            "DoSkill"
          ],
          "LIPMJPLGIKD": true
        },
        "MeleeAttack01_BS02": {
          "$type": "IJOIMFMEGMM",
          "DLOHGBDFFGB": {
            "MeleeAttack01_BS02": []
          },
          "DLAOMOCMANL": [
            "BeHit",
            "DoSkill"
          ],
          "LIPMJPLGIKD": true
        },
        "MeleeAttack01": {
          "$type": "IJOIMFMEGMM",
          "DLOHGBDFFGB": {
            "MeleeAttack01": [
              "Monster_Ovacua_Common_02_MeleeAttack_01"
            ]
          },
          "DLAOMOCMANL": [
            "BeHit",
            "DoSkill"
          ],
          "LIPMJPLGIKD": true
        },
        "MeleeAttack02_BS": {
          "$type": "IJOIMFMEGMM",
          "DLOHGBDFFGB": {
            "MeleeAttack02_BS": [
              "Monster_Ovacua_Common_02_MeleeAttack_02_BS"
            ]
          },
          "DLAOMOCMANL": [
            "BeHit",
            "DoSkill"
          ],
          "LIPMJPLGIKD": true
        },
        "MeleeAttack02_BS02": {
          "$type": "IJOIMFMEGMM",
          "DLOHGBDFFGB": {
            "MeleeAttack02_BS02": []
          },
          "DLAOMOCMANL": [
            "BeHit",
            "DoSkill"
          ],
          "LIPMJPLGIKD": true
        },
        "MeleeAttack02": {
          "$type": "IJOIMFMEGMM",
          "DLOHGBDFFGB": {
            "MeleeAttack02": [
              "Monster_Ovacua_Common_02_MeleeAttack_02"
            ]
          },
          "DLAOMOCMANL": [
            "BeHit",
            "DoSkill"
          ],
          "LIPMJPLGIKD": true
        },
        "MeleeAttack03_BS": {
          "$type": "IJOIMFMEGMM",
          "DLOHGBDFFGB": {
            "MeleeAttack03_BS": [
              "Monster_Ovacua_Common_02_MeleeAttack_03_BS"
            ]
          },
          "DLAOMOCMANL": [
            "BeHit",
            "DoSkill"
          ],
          "LIPMJPLGIKD": true
        },
        "MeleeAttack03_BS02": {
          "$type": "IJOIMFMEGMM",
          "DLOHGBDFFGB": {
            "MeleeAttack03_BS02": []
          },
          "DLAOMOCMANL": [
            "BeHit",
            "DoSkill"
          ],
          "LIPMJPLGIKD": true
        },
        "MeleeAttack03": {
          "$type": "IJOIMFMEGMM",
          "DLOHGBDFFGB": {
            "MeleeAttack03": [
              "Monster_Ovacua_Common_02_MeleeAttack_03"
            ]
          },
          "DLAOMOCMANL": [
            "BeHit",
            "DoSkill"
          ],
          "LIPMJPLGIKD": true
        },
        "Shoot01": {
          "$type": "IJOIMFMEGMM",
          "DLOHGBDFFGB": {
            "Shoot01": [
              "Monster_Ovacua_Common_Shoot01_Small",
              "Audio_Monster_Ovacua_Small_Shoot"
            ]
          },
          "DLAOMOCMANL": [
            "BeHit",
            "DoSkill"
          ],
          "LIPMJPLGIKD": true
        },
        "Chaos_Growth": {
          "$type": "IJOIMFMEGMM",
          "DLOHGBDFFGB": {
            "Chaos_Growth_BS": [
              "Monster_Ovacua_Common_OuterRing_Hide",
              "Monster_Ovacua_Chaos_02_Growth_BS",
              "Audio_Monster_Ovacua_Chaos_Small_Growth_BS"
            ],
            "Chaos_Growth_Loop": [
              "Monster_Ovacua_Chaos_02_Growth_Loop",
              "Audio_Monster_Ovacua_Chaos_Small_Growth_Loop"
            ],
            "Chaos_Growth_AS": [
              "Monster_Ovacua_Chaos_02_Growth_AS",
              "Audio_Monster_Ovacua_Chaos_Small_Growth_AS"
            ]
          },
          "OGNDLAMHMPB": 0.0,
          "DLAOMOCMANL": [
            "BeHit",
            "DoSkill"
          ],
          "LIPMJPLGIKD": true
        },
        "Growth_Break": {
          "$type": "IJOIMFMEGMM",
          "DLOHGBDFFGB": {
            "Growth_Break": [
              "Monster_Ovacua_Chaos_02_Growth_Break",
              "Audio_Monster_Ovacua_Small_Chaos_Growth_Break",
              "Monster_Ovacua_Common_Growth_Faint_BS"
            ]
          },
          "DLAOMOCMANL": [
            "BeHit",
            "DoSkill"
          ],
          "LIPMJPLGIKD": true
        },
        "Growth_Faint_AS": {
          "$type": "IJOIMFMEGMM",
          "DLOHGBDFFGB": {
            "Growth_Faint_AS": [
              "Monster_Ovacua_Chaos_02_Growth_Faint_AS",
              "Audio_Monster_Ovacua_Small_Growth_Faint_AS"
            ]
          },
          "OGNDLAMHMPB": 0.0,
          "DLAOMOCMANL": [
            "BeHit",
            "DoSkill"
          ],
          "LIPMJPLGIKD": true
        },
        "ReturnToBorn": {
          "$type": "IJOIMFMEGMM",
          "DLOHGBDFFGB": {
            "ReturnToBorn_BS": [
              "Monster_Ovacua_Common_02_ReturnToBorn_BS",
              "Monster_Ovacua_Chaos_ClearGrowthState",
              "Audio_Monster_Ovacua_Small_ReturnToBorn_BS"
            ],
            "ReturnToBorn_Loop": [
              "Monster_Ovacua_Chaos_ClearGrowthState"
            ],
            "ReturnToBorn_AS": [
              "Monster_Ovacua_Common_02_ReturnToBorn_AS",
              "Monster_Ovacua_Chaos_ClearGrowthState",
              "Audio_Monster_Ovacua_Small_ReturnToBorn_AS"
            ]
          },
          "LAKHIBAPNAB": true,
          "DLAOMOCMANL": [
            "BeHit",
            "DoSkill"
          ]
        }
      }
    }
  },
  "billboard": {
    "$type": "PAOBAEKGGBC",
    "attachPoint": "BillboardAttach",
    "offset": {
      "y": 1.2000000476837158
    },
    "LOMMBJLKPHE": 1.0,
    "FMJAGHIMLEI": true,
    "KGHAGECNJPO": true
  },
  "initialPoses": {
    "Default": {
      "initialPoseID": 101
    }
  },
  "aibeta": {
    "enable": true,
    "moveSetting": {
      "navMeshAgentName": "Undead01"
    },
    "sensing": {
      "settings": {
        "DefaultSetting": {
          "viewRange": 22.0,
          "feelRange": 8.75
        }
      },
      "templates": {
        "DefaultTemplate": {
          "DefaultPoses": "DefaultSetting"
        }
      }
    },
    "threat": {
      "clearThreatTargetDistance": 30.0,
      "clearThreatEdgeDistance": 5.0,
      "clearThreatByTargetOutOfZone": true,
      "clearThreatTimerByDistance": 2.0,
      "viewAttenuation": [
        {
          "x": 12.0,
          "y": 1.0
        },
        {
          "x": 20.0,
          "y": 0.5
        }
      ],
      "JGFOPCOIJOI": ""
    },
    "defendArea": {
      "defendRange": 50.0
    },
    "skillSetting": {
      "skillEliteSet": {
        "1": [
          402
        ],
        "2": [
          403
        ]
      }
    },
    "skills": {
      "100": {
        "name": "OnAlert",
        "skillType": "OnAlert",
        "castCondition": {
          "pose": [
            100
          ]
        },
        "publicCDGroup": "",
        "triggerGCD": false,
        "HGAMDGAEIGO": "",
        "stateIDs": [
          "Warning"
        ],
        "skillQueryingTime": 4.0,
        "flagTargetReachable": "10",
        "flagSelfOnTemplateCollider": "01",
        "flagSelfInZone": "10",
        "flagTargetInZone": "11"
      },
      "12": {
        "name": "IdleFree01",
        "skillType": "Free",
        "castCondition": {
          "pose": [
            100
          ]
        },
        "cd": 15.0,
        "initialCD": 15.0,
        "publicCDGroup": "",
        "triggerGCD": false,
        "HGAMDGAEIGO": "",
        "stateIDs": [
          "IdleFree01"
        ],
        "skillQueryingTime": 3.0,
        "flagTargetReachable": "10",
        "flagSelfOnTemplateCollider": "01",
        "flagSelfInZone": "10",
        "flagTargetInZone": "11"
      },
      "101": {
        "name": "MeleeAttack01",
        "combatSkillType": "MeleeAttack",
        "castCondition": {
          "pose": [
            101
          ],
          "pickRangeMax": 4.0
        },
        "cd": 5.0,
        "initialCD": 5.0,
        "publicCDGroup": "",
        "HGAMDGAEIGO": "",
        "stateIDs": [
          "MeleeAttack01_BS",
          "MeleeAttack01_BS02",
          "MeleeAttack01",
          "MeleeAttack02_BS",
          "MeleeAttack02_BS02",
          "MeleeAttack02",
          "MeleeAttack03_BS",
          "MeleeAttack03_BS02",
          "MeleeAttack03"
        ],
        "flagTargetReachable": "10",
        "flagSelfOnTemplateCollider": "01",
        "flagSelfInZone": "11",
        "flagTargetInZone": "11"
      },
      "201": {
        "name": "Shoot01",
        "combatSkillType": "RangedAttack",
        "castCondition": {
          "pose": [
            101
          ],
          "pickRangeMax": 16.0
        },
        "cd": 5.0,
        "initialCD": 5.0,
        "publicCDGroup": "",
        "HGAMDGAEIGO": "",
        "stateIDs": [
          "Shoot01"
        ],
        "flagTargetReachable": "11",
        "flagSelfOnTemplateCollider": "01",
        "flagSelfInZone": "11",
        "flagTargetInZone": "11"
      },
      "402": {
        "name": "Chaos_Growth",
        "combatSkillType": "RangedAttack",
        "castCondition": {
          "pose": [
            101
          ],
          "needReInitCD": true,
          "pickRangeMax": 16.0
        },
        "cd": 35.0,
        "initialCD": 10.0,
        "publicCDGroup": "Ovacua_Growth",
        "HGAMDGAEIGO": "",
        "stateIDs": [
          "Chaos_Growth"
        ],
        "flagTargetReachable": "11",
        "flagSelfOnTemplateCollider": "01",
        "flagSelfInZone": "11",
        "flagTargetInZone": "11"
      },
      "403": {
        "name": "Chaos_Growth",
        "priority": 1,
        "castCondition": {
          "pose": [
            101
          ],
          "needReInitCD": true,
          "pickRangeMax": 16.0
        },
        "cd": 35.0,
        "publicCDGroup": "",
        "HGAMDGAEIGO": "",
        "stateIDs": [
          "Chaos_Growth"
        ],
        "flagTargetReachable": "11",
        "flagSelfOnTemplateCollider": "01",
        "flagSelfInZone": "11",
        "flagTargetInZone": "11"
      },
      "421": {
        "name": "Growth_Faint_AS",
        "priority": 1,
        "castCondition": {
          "pose": [
            102
          ],
          "needReInitCD": true
        },
        "initialCD": 15.0,
        "publicCDGroup": "",
        "HGAMDGAEIGO": "",
        "stateIDs": [
          "Growth_Faint_AS"
        ],
        "skillQueryingTime": 4.0,
        "flagTargetReachable": "11",
        "flagSelfOnTemplateCollider": "11",
        "flagSelfInZone": "11",
        "flagTargetInZone": "11"
      }
    },
    "skillGCD": 3.5,
    "combatFixedMoveTactic": [
      {
        "$type": "DIIPKNMAPAC",
        "enable": true,
        "FJANPNOAAFK": {
          "pose": [
            101
          ]
        },
        "LMMKNFEMOMG": {
          "rangeMin": 8.0,
          "rangeMax": 12.0,
          "JNMPGLIADPP": 4.0,
          "MMKHHBIBJEN": {
            "GECJAGFGHKL": 0.0,
            "GEECPOOOMFC": 0.0,
            "NFMBIOFFKGK": 0.0,
            "JNJFKLDABCB": 0.5,
            "BEJLOBBENJJ": 0.5
          },
          "HEGPGPBKGFH": "1111",
          "AFCLIFKCEKM": "1111",
          "JOCOJHEICNA": ""
        }
      },
      {
        "$type": "CMCHFECOPPI",
        "enable": true,
        "LMMKNFEMOMG": {
          "DCEODHLDKCJ": 1.0,
          "GAHPENGCPFA": 1.0,
          "JOCOJHEICNA": "",
          "DBIELIMGBMC": ""
        }
      },
      {
        "$type": "BNAGECKMCIB",
        "enable": true,
        "FJANPNOAAFK": {
          "pose": [
            101
          ]
        },
        "LMMKNFEMOMG": {
          "KIHPEPHJMOG": 1,
          "GEAICNICJAJ": 0.10000000149011612,
          "MPEMBMLOEDG": 16.0,
          "IJLGPEJGLEH": 50.0,
          "JKOGPCLFHCP": 10.0,
          "IHCAFCNDANA": 12.0,
          "JOCOJHEICNA": ""
        }
      },
      {
        "$type": "KMHBGMELMKD",
        "enable": true
      }
    ]
  },
  "inputKeys": [
    {
      "keyID": 100,
      "inputKeyCode": 257,
      "abilityName": ""
    },
    {
      "keyID": 12,
      "inputKeyCode": 258,
      "abilityName": ""
    },
    {
      "keyID": 101,
      "inputKeyCode": 259,
      "abilityName": ""
    },
    {
      "keyID": 201,
      "inputKeyCode": 260,
      "abilityName": ""
    },
    {
      "keyID": 301,
      "inputKeyCode": 261,
      "abilityName": ""
    },
    {
      "keyID": 302,
      "inputKeyCode": 262,
      "abilityName": ""
    },
    {
      "keyID": 401,
      "inputKeyCode": 263,
      "abilityName": ""
    },
    {
      "keyID": 402,
      "inputKeyCode": 264,
      "abilityName": ""
    },
    {
      "keyID": 901,
      "inputKeyCode": 265,
      "abilityName": ""
    },
    {
      "keyID": 902,
      "inputKeyCode": 266,
      "abilityName": ""
    }
  ],
  "move": {
    "$type": "IIGPJJNGCLE",
    "EPDJOKGCLPD": true,
    "MLKCNHIIMCE": true,
    "MIPNOGBEANL": "FourDirection",
    "IJMIGIDACLP": "AirBlend3D",
    "BEPOPLDKJOP": "SlimeType",
    "FACNOEFNHIB": "RootNode"
  },
  "audio": {
    "KEEAIACIJBN": "",
    "animAudio": {
      "onTransitionIn": [
        {
          "currentStateName": "Faint",
          "audioEvent": {
            "text": "Play_Sfx_Monster_Ovacua_Standby_Chaos_LP"
          },
          "otherStateNames": [
            "Faint"
          ],
          "usage": "Except"
        }
      ],
      "onTransitionOut": [
        {
          "currentStateName": "Faint",
          "audioEvent": {
            "text": "Stop_Sfx_Monster_Ovacua_Standby_Chaos_LP"
          },
          "otherStateNames": [
            "Faint"
          ],
          "usage": "Except"
        }
      ]
    }
  }
}