{
  "common": {
    "effectAttachShape": {
      "$type": "PBGINMMOLDC",
      "AOOMOJMAGMJ": 2.0,
      "IMLIDOCMEII": 3.0,
      "OBEFFBEFICB": 2.0
    },
    "mass": 1000.0,
    "height": 2.200000047683716,
    "viewSize": 1.5,
    "affectedByWorld": true,
    "checkInSurface": true,
    "useGrassDisplacement": true,
    "clearAnimatorOnSetLightDeactive": true,
    "clearAIOnSetLightDeactive": true
  },
  "model": {
    "bornEffect": "",
    "attachEffect": "",
    "canBakeMesh": false
  },
  "dither": {
    "showDitherDuration": 2.0,
    "normalBetweenCamera": {
      "detectDitherRange": 5.0
    }
  },
  "combat": {
    "property": {
      "endureType": "Monster_Demiboss_Other",
      "weight": 300.0
    },
    "beHit": {
      "hitBloodEffect": "",
      "hitAutoRedirect": false
    },
    "combatLock": {
      "lockShape": "CircleLockEnemy",
      "lockType": "Avatar&Monster_Lv4"
    },
    "die": {
      "hasAnimatorDie": true,
      "dieEndTime": 2.0,
      "dieForceDisappearTime": 4.0,
      "dieDisappearEffect": "Eff_Death_Common",
      "dieShaderData": "MonsterDie",
      "useRagDoll": true,
      "LDOHFFOEPPI": true,
      "BMOKGIFNILM": true,
      "PHCLLDNDFNG": true,
      "CHBAHMJGJBE": true,
      "OPPHENIKFJA": true,
      "CCNGAIMLPIJ": true
    },
    "animEvents": {
      "Discharge": {
        "attackPattern": {
          "$type": "KKMHAMBPOBM",
          "triggerType": "TriggerNoRepeat",
          "born": {
            "$type": "KDEPFKAAHCG"
          },
          "DFMMIGEMOHH": 6.0
        },
        "attackInfo": {
          "attackTag": "Apparatus_Enigma_PowerAtk",
          "attenuationTag": "",
          "attenuationGroup": "default",
          "attackProperty": {
            "PCFAAPMOCGJ": 0.7689999938011169,
            "LCCBNOKMNFG": 0.0,
            "bonusCritical": 100.0,
            "FKGFPFNOJMN": 0.0
          },
          "hitPattern": {
            "onHitEffectName": "default",
            "hitImpulseType": "LV1",
            "hitHaltTimeScale": 0.05000000074505806
          }
        }
      },
      "Sting": {
        "attackPattern": {
          "$type": "GGBJACPDDCM",
          "triggerType": "TriggerNoRepeat",
          "born": {
            "$type": "KDEPFKAAHCG",
            "offset": {
              "HMHIOILIGBF": 0.0,
              "DPPJGBOHAAL": 1.7999999523162842,
              "DDOAGBLBCEF": 0.0
            }
          },
          "size": {
            "HMHIOILIGBF": 4.400000095367432,
            "DPPJGBOHAAL": 3.0,
            "DDOAGBLBCEF": 3.9000000953674316
          }
        },
        "attackInfo": {
          "attackTag": "Apparatus_Enigma_PowerAtk",
          "attenuationTag": "Monster_Konungmathr_Attenuation_1",
          "attenuationGroup": "Monster_Konungmathr_Attenuation_1",
          "attackProperty": {
            "PCFAAPMOCGJ": 1.0,
            "LCCBNOKMNFG": 0.0,
            "bonusCritical": 100.0,
            "strikeType": "Blunt",
            "enBreak": 200.0,
            "FKGFPFNOJMN": 0.0
          },
          "hitPattern": {
            "onHitEffectName": "default",
            "hitImpulseType": "LV4",
            "retreatType": "ByHitDirection",
            "hitHaltTime": 0.05999999865889549,
            "hitHaltTimeScale": 0.009999999776482582
          },
          "cameraShake": {
            "shakeType": "HitVector",
            "shakeRange": 0.11999999731779099,
            "shakeTime": 0.11999999731779099,
            "shakeDistance": 25.0,
            "shakeDir": {
              "z": 1.0
            }
          }
        }
      }
    }
  },
  "abilities": [
    {
      "abilityID": "",
      "abilityName": "AbilityResistStruggle",
      "abilityOverride": ""
    },
    {
      "abilityID": "",
      "abilityName": "Monster_Apparatus_Enigma_Born",
      "abilityOverride": ""
    },
    {
      "abilityID": "",
      "abilityName": "Monster_Apparatus_Enigma_PowerOff",
      "abilityOverride": ""
    },
    {
      "abilityID": "",
      "abilityName": "Monster_Apparatus_Enigma_PowerOff_Remove",
      "abilityOverride": ""
    },
    {
      "abilityID": "",
      "abilityName": "Monster_Apparatus_Enigma_Weakness",
      "abilityOverride": ""
    },
    {
      "abilityID": "",
      "abilityName": "Monster_Apparatus_Enigma_Weakness_Remove",
      "abilityOverride": ""
    },
    {
      "abilityID": "",
      "abilityName": "Monster_Apparatus_Enigma_Break_Remove",
      "abilityOverride": ""
    },
    {
      "abilityID": "",
      "abilityName": "Monster_Apparatus_Enigma_Weak",
      "abilityOverride": ""
    },
    {
      "abilityID": "",
      "abilityName": "Monster_Apparatus_Enigma_Weak_Effect",
      "abilityOverride": ""
    },
    {
      "abilityID": "",
      "abilityName": "Monster_Apparatus_Enigma_Weak_End",
      "abilityOverride": ""
    },
    {
      "abilityID": "",
      "abilityName": "Monster_Apparatus_Enigma_ReturnToBorn",
      "abilityOverride": ""
    },
    {
      "abilityID": "",
      "abilityName": "Monster_Apparatus_Enigma_BionicNettler_Initialization",
      "abilityOverride": ""
    },
    {
      "abilityID": "",
      "abilityName": "Monster_Apparatus_Enigma_BionicNettler_CoreActive",
      "abilityOverride": ""
    },
    {
      "abilityID": "",
      "abilityName": "Monster_Apparatus_Enigma_BionicNettler_CounterAtk",
      "abilityOverride": ""
    },
    {
      "abilityID": "",
      "abilityName": "Monster_Apparatus_Enigma_BionicNettler_Sting",
      "abilityOverride": ""
    },
    {
      "abilityID": "",
      "abilityName": "Monster_Apparatus_Enigma_BionicNettler_EnergyLine_CreateGadget",
      "abilityOverride": ""
    },
    {
      "abilityID": "",
      "abilityName": "Monster_Apparatus_Enigma_BionicNettler_Steer",
      "abilityOverride": ""
    },
    {
      "abilityID": "",
      "abilityName": "Monster_Apparatus_Enigma_Machinery",
      "abilityOverride": ""
    }
  ],
  "stateLayers": {
    "defaultLayer": {
      "$type": "KFHJINNNDPN",
      "BOPIBFKFKCA": "",
      "stateIDs": {
        "Born": {
          "$type": "MEECNDLIOBI",
          "HKPCLGHBKFD": {
            "Born": []
          },
          "BAABNFCMKIO": true,
          "ADPGACLPFHN": [
            "DoSkill"
          ]
        },
        "NormalIdle": {
          "$type": "MEECNDLIOBI",
          "HKPCLGHBKFD": {
            "Standby": [],
            "Standby_Machinery": []
          },
          "KNOHBHKACHA": true,
          "BAABNFCMKIO": true,
          "ADPGACLPFHN": [
            "DoSkill"
          ]
        },
        "NormalIdle_WeakLoop": {
          "$type": "MEECNDLIOBI",
          "HKPCLGHBKFD": {
            "WeakLoop": []
          },
          "KNOHBHKACHA": true,
          "BAABNFCMKIO": true,
          "ADPGACLPFHN": [
            "DoSkill"
          ]
        },
        "NormalIdle_PowerOff": {
          "$type": "MEECNDLIOBI",
          "HKPCLGHBKFD": {
            "PowerOff": []
          },
          "KNOHBHKACHA": true,
          "BAABNFCMKIO": true,
          "ADPGACLPFHN": [
            "DoSkill"
          ]
        },
        "Turn": {
          "$type": "MEECNDLIOBI",
          "HKPCLGHBKFD": {
            "Turn": []
          },
          "KNOHBHKACHA": true,
          "BAABNFCMKIO": true,
          "ADPGACLPFHN": [
            "BeHit"
          ]
        },
        "NormalMove": {
          "$type": "MEECNDLIOBI",
          "HKPCLGHBKFD": {
            "RunBS": [
              "Audio_Apparatus_BionicNettler_RushBS"
            ],
            "RushLoop": [
              "Audio_Apparatus_BionicNettler_Rush"
            ],
            "RunAS": [
              "Audio_Apparatus_BionicNettler_RushBS"
            ]
          },
          "KNOHBHKACHA": true,
          "BAABNFCMKIO": true,
          "ADPGACLPFHN": [
            "DoSkill"
          ],
          "NPMGEMAFACP": true
        },
        "Weak_Start": {
          "$type": "MEECNDLIOBI",
          "HKPCLGHBKFD": {
            "Weak_Start": [
              "Monster_Apparatus_Enigma_BionicNettler_WeakStart",
              "Audio_Apparatus_BionicNettler_Weak_Start"
            ]
          },
          "PJFELLIJONH": [
            "BeHit",
            "WeakStartTrigger",
            "BreakTrigger"
          ],
          "ADPGACLPFHN": [
            "DoSkill"
          ]
        },
        "Weak_End": {
          "$type": "MEECNDLIOBI",
          "HKPCLGHBKFD": {
            "Weak_End": [
              "Audio_Apparatus_BionicNettler_Weak_End"
            ]
          },
          "PJFELLIJONH": [
            "BeHit"
          ],
          "ADPGACLPFHN": [
            "DoSkill"
          ]
        },
        "Break": {
          "$type": "MEECNDLIOBI",
          "HKPCLGHBKFD": {
            "Break": [
              "Monster_Apparatus_Enigma_BionicNettler_Break",
              "Audio_Apparatus_BionicNettler_Break"
            ]
          },
          "PJFELLIJONH": [
            "BeHit",
            "BreakTrigger"
          ],
          "ADPGACLPFHN": [
            "DoSkill"
          ]
        },
        "Die": {
          "$type": "MEECNDLIOBI",
          "HKPCLGHBKFD": {
            "Die_BS": [
              "Monster_Apparatus_Enigma_BionicNettler_Die",
              "Audio_Apparatus_BionicNettler_Die"
            ],
            "WeakDie_BS": [
              "Monster_Apparatus_Enigma_BionicNettler_WeakDie",
              "Audio_Apparatus_BionicNettler_WeakDie"
            ],
            "SwimDie": []
          }
        },
        "Die_RagDoll": {
          "$type": "MEECNDLIOBI",
          "HKPCLGHBKFD": {
            "Die": [],
            "WeakDie": []
          },
          "CKHCPGMBKGA": true
        },
        "PowerOff_WakeUp": {
          "$type": "MEECNDLIOBI",
          "HKPCLGHBKFD": {
            "PowerOff_WakeUp": [
              "Monster_Apparatus_Enigma_BionicNettler_WakeUp",
              "Audio_Apparatus_BionicNettler_PowerOff_WakeUp"
            ]
          },
          "BGJDNIJICNM": true,
          "PJFELLIJONH": [
            "BeHit"
          ],
          "ADPGACLPFHN": [
            "DoSkill",
            "LevelEnterBattle"
          ]
        },
        "CounterAtk": {
          "$type": "MEECNDLIOBI",
          "HKPCLGHBKFD": {
            "CounterAtk": [
              "Monster_Apparatus_Enigma_BionicNettler_CounterAtk",
              "Audio_Apparatus_BionicNettler_CounterAtk"
            ]
          },
          "ADPGACLPFHN": [
            "BeHit",
            "DoSkill"
          ]
        },
        "Discharge": {
          "$type": "MEECNDLIOBI",
          "HKPCLGHBKFD": {
            "Discharge": [
              "Monster_Apparatus_Enigma_BionicNettler_DisCharge",
              "Audio_Apparatus_BionicNettler_Discharge"
            ]
          },
          "ADPGACLPFHN": [
            "BeHit",
            "DoSkill"
          ]
        },
        "Sting": {
          "$type": "MEECNDLIOBI",
          "HKPCLGHBKFD": {
            "Sting": [
              "Monster_Apparatus_Enigma_BionicNettler_Sting",
              "Audio_Apparatus_BionicNettler_Sting"
            ]
          },
          "ADPGACLPFHN": [
            "BeHit",
            "DoSkill"
          ]
        },
        "EnergyLineRushMove": {
          "$type": "MEECNDLIOBI",
          "HKPCLGHBKFD": {
            "EnergyLineRushMove": [
              "Audio_Apparatus_BionicNettler_EnergyLineRushMove"
            ]
          },
          "ADPGACLPFHN": [
            "BeHit",
            "DoSkill"
          ]
        },
        "EnergyLine": {
          "$type": "MEECNDLIOBI",
          "HKPCLGHBKFD": {
            "EnergyLine": [
              "Monster_Apparatus_Enigma_BionicNettler_EnergyLine",
              "Audio_Apparatus_BionicNettler_EnergyLine"
            ],
            "EnergyLineAS": [
              "Audio_Apparatus_BionicNettler_RushBS"
            ]
          },
          "PJFELLIJONH": [
            "NoRushMoveTrigger"
          ],
          "ADPGACLPFHN": [
            "BeHit",
            "DoSkill"
          ]
        },
        "Machinery": {
          "$type": "MEECNDLIOBI",
          "HKPCLGHBKFD": {
            "Alert_Machinery": [
              "Monster_Apparatus_Enigma_BionicNettler_Alert_Machinery"
            ]
          },
          "BGJDNIJICNM": true,
          "PJFELLIJONH": [
            "BeHit"
          ],
          "ADPGACLPFHN": [
            "DoSkill"
          ]
        }
      }
    }
  },
  "billboard": {
    "$type": "HFEGKLAIGGI",
    "IIKEHINGEME": "BillboardAttach",
    "offset": {
      "y": 2.0
    },
    "GEKOGJAPMMH": "Character",
    "HECLHMINJII": 2.0,
    "ABJJCOBEPLC": true,
    "showDistance": 48.0,
    "DMHOOGGGDKG": true,
    "size": "Big"
  },
  "initialPoses": {
    "Default": {
      "initialPoseID": 100,
      "initialPoseParams": {
        "boolParams": {
          "PowerOff": "false"
        }
      }
    },
    "PowerOff": {
      "initialPoseID": 101,
      "initialPoseParams": {
        "boolParams": {
          "PowerOff": "true"
        }
      }
    },
    "Machinery": {
      "initialPoseID": 111,
      "initialPoseParams": {
        "boolParams": {
          "Machinery": "true"
        }
      }
    }
  },
  "aibeta": {
    "enable": true,
    "moveSetting": {
      "navMeshAgentName": "Undead01",
      "almostReachedDistanceWalk": 2.0
    },
    "sensing": {
      "settings": {
        "DefaultSetting": {
          "verticalFov": 120.0,
          "feelRange": 12.0
        },
        "PowerOff_Active": {
          "enableVision": false,
          "feelRange": 8.0
        },
        "PowerOff_Passive": {
          "enableVision": false,
          "hearAttractionRange": 0.0,
          "feelRange": 0.0
        },
        "NeverCombat": {
          "enableVision": false,
          "hearAttractionRange": 0.0,
          "feelRange": 0.0
        },
        "Machinery": {
          "enableVision": false,
          "hearAttractionRange": 0.0,
          "feelRange": 0.0
        }
      },
      "templates": {
        "DefaultTemplate": {
          "DefaultPoses": "DefaultSetting",
          "101": "PowerOff_Active"
        },
        "PowerOff_Passive": {
          "DefaultPoses": "DefaultSetting",
          "101": "PowerOff_Passive"
        },
        "NeverCombatTemplate": {
          "DefaultPoses": "NeverCombat",
          "101": "NeverCombat"
        },
        "Machinery": {
          "DefaultPoses": "DefaultSetting",
          "111": "Machinery"
        }
      }
    },
    "neurons": {
      "DefaultSetting": [
        "HIT"
      ],
      "PowerOff_Passive": [],
      "NeverCombat": [],
      "Machinery": []
    },
    "threat": {
      "clearThreatByLostPath": true,
      "viewAttenuation": [
        {
          "x": 10.0,
          "y": 2.0
        },
        {
          "x": 20.0,
          "y": 1.0
        },
        {
          "x": 30.0,
          "y": 0.5
        },
        {
          "x": 50.0,
          "y": 0.10000000149011612
        }
      ],
      "resistTauntLevel": "Monster_TauntLevel_3"
    },
    "defendArea": {
      "defendRange": 50.0
    },
    "profiling": {
      "staticPoses": [
        101
      ]
    },
    "skills": {
      "101": {
        "name": "OnAlert",
        "skillType": "OnAlert",
        "castCondition": {
          "pose": [
            101
          ]
        },
        "publicCDGroup": "",
        "triggerGCD": false,
        "CLEPNIDJOLN": "",
        "stateIDs": [
          "PowerOff_WakeUp",
          "PowerOff_Warning",
          "PowerOff_WarningAS"
        ],
        "skillQueryingTime": 3.0,
        "flagTargetReachable": "10",
        "flagSelfOnTemplateCollider": "01",
        "flagSelfInZone": "10",
        "flagTargetInZone": "11"
      },
      "102": {
        "name": "OnHitAlert",
        "skillType": "OnNerve",
        "castCondition": {
          "pose": [
            101
          ]
        },
        "publicCDGroup": "",
        "triggerGCD": false,
        "CLEPNIDJOLN": "",
        "stateIDs": [
          "PowerOff_WakeUp",
          "PowerOff_Warning",
          "PowerOff_WarningAS"
        ],
        "skillQueryingTime": 3.0,
        "flagTargetReachable": "10",
        "flagSelfOnTemplateCollider": "01",
        "flagSelfInZone": "10",
        "flagTargetInZone": "11",
        "nerveTrigger": [
          "HIT"
        ]
      },
      "111": {
        "name": "WeakEnd",
        "castCondition": {
          "pose": [
            202
          ]
        },
        "cd": 1.0,
        "publicCDGroup": "",
        "ignoreGCD": true,
        "CLEPNIDJOLN": "",
        "stateIDs": [
          "Weak_End"
        ],
        "flagTargetReachable": "11",
        "flagSelfOnTemplateCollider": "11",
        "flagSelfInZone": "11",
        "flagTargetInZone": "11"
      },
      "121": {
        "name": "OnAlert",
        "skillType": "OnAlert",
        "castCondition": {
          "pose": [
            111
          ]
        },
        "publicCDGroup": "",
        "triggerGCD": false,
        "CLEPNIDJOLN": "",
        "stateIDs": [
          "Machinery"
        ],
        "skillQueryingTime": 3.0,
        "flagTargetReachable": "10",
        "flagSelfOnTemplateCollider": "01",
        "flagSelfInZone": "10",
        "flagTargetInZone": "11"
      },
      "201": {
        "name": "CounterAtk",
        "castCondition": {
          "pose": [
            201
          ],
          "pickRangeMax": 4.0
        },
        "cd": 12.0,
        "initialCD": 3.0,
        "publicCDGroup": "Perpetual_Enigma_MeleeAttack",
        "CLEPNIDJOLN": "",
        "stateIDs": [
          "CounterAtk"
        ],
        "flagTargetReachable": "10",
        "flagSelfOnTemplateCollider": "01",
        "flagSelfInZone": "10",
        "flagTargetInZone": "11"
      },
      "202": {
        "name": "CounterAtk",
        "priority": 1,
        "castCondition": {
          "pose": [
            301
          ]
        },
        "cd": 999.0,
        "initialCD": 999.0,
        "publicCDGroup": "",
        "ignoreGCD": true,
        "CLEPNIDJOLN": "",
        "stateIDs": [
          "CounterAtk"
        ],
        "flagTargetReachable": "11",
        "flagSelfOnTemplateCollider": "01",
        "flagSelfInZone": "11",
        "flagTargetInZone": "11"
      },
      "211": {
        "name": "DisCharge",
        "castCondition": {
          "pose": [
            201
          ],
          "pickRangeMax": 6.0
        },
        "cd": 12.0,
        "initialCD": 6.0,
        "publicCDGroup": "Perpetual_Enigma_MeleeAttack",
        "CLEPNIDJOLN": "",
        "stateIDs": [
          "DisCharge"
        ],
        "flagTargetReachable": "10",
        "flagSelfOnTemplateCollider": "01",
        "flagSelfInZone": "10",
        "flagTargetInZone": "11"
      },
      "212": {
        "name": "DisCharge",
        "castCondition": {
          "pose": [
            301
          ]
        },
        "cd": 999.0,
        "initialCD": 999.0,
        "publicCDGroup": "",
        "ignoreGCD": true,
        "CLEPNIDJOLN": "",
        "stateIDs": [
          "DisCharge"
        ],
        "flagTargetReachable": "11",
        "flagSelfOnTemplateCollider": "01",
        "flagSelfInZone": "11",
        "flagTargetInZone": "11"
      },
      "221": {
        "name": "EnergyLine",
        "castCondition": {
          "pose": [
            201
          ],
          "pickRangeMax": 20.0
        },
        "cd": 999.0,
        "initialCD": 999.0,
        "publicCDGroup": "",
        "ignoreGCD": true,
        "CLEPNIDJOLN": "",
        "stateIDs": [
          "EnergyLine"
        ],
        "flagTargetReachable": "11",
        "flagSelfOnTemplateCollider": "01",
        "flagSelfInZone": "11",
        "flagTargetInZone": "11"
      },
      "231": {
        "name": "Sting",
        "castCondition": {
          "pose": [
            201
          ],
          "maxTargetAngleXZ": 180.0,
          "pickRangeMin": 2.0,
          "pickRangeMax": 10.0
        },
        "cd": 15.0,
        "cdUpperRange": 3.0,
        "publicCDGroup": "Perpetual_Enigma_MeleeAttack",
        "ignoreGCD": true,
        "CLEPNIDJOLN": "",
        "stateIDs": [
          "Sting"
        ],
        "flagTargetReachable": "10",
        "flagSelfOnTemplateCollider": "01",
        "flagSelfInZone": "10",
        "flagTargetInZone": "11"
      }
    },
    "skillGCD": 3.0,
    "combatFixedMoveTactic": [
      {
        "$type": "HLPBLIEBJLM",
        "enable": true,
        "EGJMGEHLDOL": {
          "pose": [
            201,
            301
          ]
        },
        "NGIEOIGFFDH": {
          "GPKNKJPPCOM": 5.0,
          "NDCHJGOOLCF": 99.0,
          "FDNLEPNLLBP": 4.0,
          "FALODAGNKBI": false,
          "FCFLCFFJKLO": ""
        }
      },
      {
        "$type": "GJGILIGEJMO",
        "enable": true,
        "NGIEOIGFFDH": {
          "NHPKGHAHIFA": 0,
          "JIFACJMKJID": 1.0,
          "HEMHHCFMJGB": 3.0,
          "FCFLCFFJKLO": "",
          "BKCOJDIDEGN": ""
        },
        "LKIMAMPDDDI": {
          "201": {
            "NHPKGHAHIFA": 1,
            "JIFACJMKJID": 4.0,
            "HEMHHCFMJGB": 6.0,
            "FCFLCFFJKLO": "",
            "BKCOJDIDEGN": ""
          }
        }
      },
      {
        "$type": "IKIHDEMELGB",
        "enable": true,
        "EGJMGEHLDOL": {
          "pose": [
            100
          ]
        },
        "NGIEOIGFFDH": {
          "MONCHHKIDKL": 0.25,
          "HOKGJAONGHG": 5.0,
          "GJOBDMEBGLM": 3.0,
          "KDLAOJIPGHP": 30.0,
          "OEFFOIEOJNC": 10.0,
          "HAHMEDHEBKE": 15.0,
          "FCFLCFFJKLO": ""
        }
      }
    ]
  },
  "inputKeys": [
    {
      "keyID": 201,
      "inputKeyCode": 257,
      "abilityName": ""
    },
    {
      "keyID": 211,
      "inputKeyCode": 258,
      "abilityName": ""
    },
    {
      "keyID": 221,
      "inputKeyCode": 259,
      "abilityName": ""
    },
    {
      "keyID": 231,
      "inputKeyCode": 260,
      "abilityName": ""
    },
    {
      "keyID": 101,
      "inputKeyCode": 261,
      "abilityName": ""
    }
  ],
  "move": {
    "$type": "JKDLANFKJIL",
    "BEICMHKFBPB": true,
    "LPAKBBIADNC": "RootNode"
  }
}