{
  "common": {
    "effectAttachShape": {
      "$type": "DPGKNHENGLM",
      "DDDEJPIFECG": "EffectMesh"
    },
    "mass": 30.0,
    "height": 1.600000023841858,
    "modelHeight": 1.7000000476837158,
    "affectedByWorld": true,
    "checkInSurface": true,
    "useGrassDisplacement": true
  },
  "headControl": {
    "$type": "NJIKCGBDNDF",
    "useHeadControl": true,
    "IKIJCPNMBHI": 75.0,
    "FMKKBCJKMPH": 30.0,
    "FDPCOFKGCHG": [
      "NormalIdle/Standby",
      "NormalMove/WalkForward",
      "NormalMove/WalkBack",
      "NormalMove/WalkRight",
      "NormalMove/WalkLeft",
      "NormalMove/Run",
      "Turn/TurnLeft",
      "Turn/TurnRight"
    ]
  },
  "model": {
    "bornEffect": "Eff_Monster_Common_Born",
    "attachEffect": ""
  },
  "dither": {
    "showDitherDuration": 1.0
  },
  "combat": {
    "property": {
      "endureType": "Monster_Minion",
      "weight": 80.0
    },
    "beHit": {
      "hitBloodEffect": ""
    },
    "combatLock": {
      "lockShape": "CircleLockEnemy",
      "lockType": "Avatar&Monster_Lv4"
    },
    "die": {
      "hasAnimatorDie": true,
      "dieEndTime": 4.0,
      "dieForceDisappearTime": 15.0,
      "dieDisappearEffect": "",
      "useRagDoll": true,
      "ragDollDieEndTimeDelay": 15.0,
      "muteHitBox": true,
      "dieDenyLockOn": true,
      "dieIsGhostToEnemy": true,
      "dieIgnoreTriggerBullet": true,
      "muteBillboard": true,
      "mutePushCollider": true
    },
    "animEvents": {
      "NormalAtk": {
        "attackPattern": {
          "$type": "AGJFCPDIMCK",
          "triggerType": "TriggerNoRepeat",
          "born": {
            "$type": "NKOODKOFELF",
            "offset": {
              "GNGDNIIPPNL": 0.0,
              "GIIMFINHIED": 0.0,
              "CLBCHJICOKH": 0.0
            }
          },
          "IAMPMDAOKJL": 90.0,
          "LOACHGCADCO": 1.75
        },
        "attackInfo": {
          "attackTag": "",
          "attenuationTag": "",
          "attenuationGroup": "default",
          "attackProperty": {
            "HOGNHNAHNML": 1.0,
            "BAPILBAGBOJ": 0.0,
            "bonusCriticalHurt": 100.0,
            "strikeType": "Blunt",
            "enBreak": 80.0,
            "attackType": "Melee",
            "damagePercentage": 0.0
          },
          "hitPattern": {
            "onHitEffectName": "default",
            "hitImpulseType": "LV3",
            "hitHaltTimeScale": 0.009999999776482582
          }
        }
      },
      "BirdieKickAtk": {
        "attackPattern": {
          "$type": "AGJFCPDIMCK",
          "triggerType": "TriggerNoRepeat",
          "born": {
            "$type": "NKOODKOFELF",
            "offset": {
              "GNGDNIIPPNL": 0.0,
              "GIIMFINHIED": 0.0,
              "CLBCHJICOKH": 0.0
            }
          },
          "IAMPMDAOKJL": 60.0,
          "LOACHGCADCO": 2.0
        },
        "attackInfo": {
          "attackTag": "",
          "attenuationTag": "",
          "attenuationGroup": "default",
          "attackProperty": {
            "HOGNHNAHNML": 1.5,
            "BAPILBAGBOJ": 0.0,
            "bonusCriticalHurt": 100.0,
            "strikeType": "Blunt",
            "enBreak": 200.0,
            "attackType": "Melee",
            "damagePercentage": 0.0
          },
          "hitPattern": {
            "onHitEffectName": "default",
            "hitImpulseType": "LV5"
          },
          "cameraShake": {
            "shakeDir": {
              "CCINOMJEIND": true
            },
            "extension": {
              "y": 126830419968.0
            },
            "shakeRange": 2.0581150805231453e-40,
            "shakeDistance": 7.034599005702127e-38
          }
        }
      }
    }
  },
  "equipController": {
    "attachPoints": {
      "equip01": "WeaponR",
      "equip02": "WeaponL"
    }
  },
  "abilities": [
    {
      "abilityID": "SteerAttack",
      "abilityName": "Thoarder_Male_NoWeapon_SteerAttack",
      "abilityOverride": ""
    },
    {
      "abilityID": "ThrowingKnife",
      "abilityName": "Thoarder_Male_NoWeapon_ThrowingKnife",
      "abilityOverride": ""
    },
    {
      "abilityID": "ThrowingKnife_KnifeManager",
      "abilityName": "Thoarder_Male_NoWeapon_ThrowingKnife_KnifeManager",
      "abilityOverride": ""
    },
    {
      "abilityID": "ThrowBomb",
      "abilityName": "Thoarder_Male_NoWeapon_ThrowBomb",
      "abilityOverride": ""
    },
    {
      "abilityID": "ThrowBomb_BombManager",
      "abilityName": "Thoarder_Male_NoWeapon_ThrowBomb_BombManager",
      "abilityOverride": ""
    },
    {
      "abilityID": "ThrowMolotovCocktail",
      "abilityName": "Thoarder_Male_NoWeapon_ThrowMolotovCocktail",
      "abilityOverride": ""
    },
    {
      "abilityID": "ThrowMolotovCocktail_MolotovManager",
      "abilityName": "Thoarder_Male_NoWeapon_ThrowMolotovCocktail_MolotovManager",
      "abilityOverride": ""
    },
    {
      "abilityID": "SmokeBombInHandL_Start",
      "abilityName": "Thoarder_Die_SmokeBombInHandL_Start",
      "abilityOverride": ""
    },
    {
      "abilityID": "SmokeBombEffect_End",
      "abilityName": "Thoarder_Die_SmokeBombEffect_End",
      "abilityOverride": ""
    },
    {
      "abilityID": "SteerMove",
      "abilityName": "Thoarder_SteerMove",
      "abilityOverride": ""
    },
    {
      "abilityID": "EndureModifier",
      "abilityName": "Thoarder_EndureModifier",
      "abilityOverride": ""
    }
  ],
  "stateLayers": {
    "defaultLayer": {
      "$type": "EPAPJJAGHKG",
      "ACOCIAFGIAD": "",
      "stateIDs": {
        "NormalIdle": {
          "$type": "IJOIMFMEGMM",
          "DLOHGBDFFGB": {
            "Standby": [
              "Audio_Monster_Thoarder_NoWeapon_Standby"
            ],
            "Born": []
          },
          "POLKCLOHPOO": true,
          "PGKCBIHGAOC": true,
          "DLAOMOCMANL": [
            "DoSkill"
          ]
        },
        "NormalMove": {
          "$type": "IJOIMFMEGMM",
          "DLOHGBDFFGB": {
            "WalkForward": [
              "Audio_Monster_Thoarder_NoWeapon_Walk"
            ],
            "WalkBack": [
              "Audio_Monster_Thoarder_NoWeapon_Walk"
            ],
            "WalkRight": [
              "Audio_Monster_Thoarder_NoWeapon_Walk"
            ],
            "WalkLeft": [
              "Audio_Monster_Thoarder_NoWeapon_Walk"
            ],
            "Run": []
          },
          "POLKCLOHPOO": true,
          "PGKCBIHGAOC": true,
          "DLAOMOCMANL": [
            "DoSkill"
          ],
          "LIPMJPLGIKD": true
        },
        "Turn": {
          "$type": "IJOIMFMEGMM",
          "DLOHGBDFFGB": {
            "TurnLeft": [
              "Audio_Monster_Thoarder_NoWeapon_Walk"
            ],
            "TurnRight": [
              "Audio_Monster_Thoarder_NoWeapon_Walk"
            ]
          },
          "POLKCLOHPOO": true,
          "PGKCBIHGAOC": true,
          "DLAOMOCMANL": [
            "DoSkill"
          ],
          "LIPMJPLGIKD": true
        },
        "BeHit": {
          "$type": "IJOIMFMEGMM",
          "DLOHGBDFFGB": {
            "Hit_L": [
              "Audio_Monster_Thoarder_NoWeapon_Hit_L"
            ],
            "Hit_H": [
              "Audio_Monster_Thoarder_NoWeapon_Hit_L"
            ],
            "DHit": []
          },
          "AJBLILDCLBO": [
            "BeHit"
          ],
          "DLAOMOCMANL": [
            "DoSkill"
          ]
        },
        "BeHitThrow": {
          "$type": "IJOIMFMEGMM",
          "DLOHGBDFFGB": {
            "HitThrow": [
              "Audio_Monster_Thoarder_NoWeapon_HitThrow"
            ],
            "HitThrowDrop": [],
            "HitThrowToGround": [
              "Audio_Monster_Thoarder_NoWeapon_HitThrowToGround"
            ]
          },
          "AJBLILDCLBO": [
            "BeHit",
            "HitAir2HitDrop"
          ],
          "DLAOMOCMANL": [
            "DoSkill"
          ]
        },
        "Struggle": {
          "$type": "IJOIMFMEGMM",
          "DLOHGBDFFGB": {
            "Struggle": []
          },
          "AJBLILDCLBO": [
            "BeHit",
            "HitAir2HitDrop"
          ],
          "DLAOMOCMANL": [
            "DoSkill"
          ]
        },
        "Die": {
          "$type": "IJOIMFMEGMM",
          "DLOHGBDFFGB": {
            "Die1": [
              "Monster_Thoarder_Male_NoWeapon_Die",
              "Audio_Monster_Thoarder_NoWeapon_Die"
            ],
            "Die2": [
              "Monster_Thoarder_Male_NoWeapon_Die",
              "Audio_Monster_Thoarder_NoWeapon_Die"
            ],
            "SwimDie": [
              "Audio_Monster_Thoarder_NoWeapon_SwimDie"
            ],
            "SwimDie_AS": [
              "Monster_Thoarder_Common_SwimDie",
              "Audio_Monster_Thoarder_NoWeapon_SwimDie"
            ]
          }
        },
        "Die_RagDoll": {
          "$type": "IJOIMFMEGMM",
          "DLOHGBDFFGB": {
            "AirDie": [
              "Monster_Thoarder_Common_AirDie"
            ]
          },
          "CPOLOGIELCD": true
        },
        "Life_Alert": {
          "$type": "IJOIMFMEGMM",
          "DLOHGBDFFGB": {
            "Alert": [
              "Audio_Monster_Thoarder_NoWeapon_Alert"
            ]
          },
          "DLAOMOCMANL": [
            "BeHit",
            "DoSkill"
          ]
        },
        "Life_Warning": {
          "$type": "IJOIMFMEGMM",
          "DLOHGBDFFGB": {
            "Warning": [
              "Monster_Undead01_Warning",
              "Audio_Monster_Thoarder_NoWeapon_Alert"
            ]
          },
          "DLAOMOCMANL": [
            "BeHit",
            "DoSkill"
          ]
        },
        "NormalAtk": {
          "$type": "IJOIMFMEGMM",
          "DLOHGBDFFGB": {
            "NormalAtk": [
              "Monster_Thoarder_Male_NoWeapon_NormalAtk",
              "Audio_Monster_Thoarder_NoWeapon_NormalAtk"
            ]
          },
          "DLAOMOCMANL": [
            "BeHit",
            "DoSkill"
          ]
        },
        "BirdieKick": {
          "$type": "IJOIMFMEGMM",
          "DLOHGBDFFGB": {
            "BirdieKick": [
              "Monster_Thoarder_Male_NoWeapon_BirdieKick",
              "Audio_Monster_Thoarder_NoWeapon_BirdieKick"
            ],
            "BirdieKick_Part01": [
              "Monster_Thoarder_Male_NoWeapon_BirdieKick"
            ],
            "BirdieKick_Part02": [
              "Monster_Thoarder_Male_NoWeapon_BirdieKick"
            ],
            "BirdieKick_Part03": [
              "Monster_Thoarder_Male_NoWeapon_BirdieKick"
            ]
          },
          "DLAOMOCMANL": [
            "BeHit",
            "DoSkill"
          ]
        },
        "ThrowingKnife_BS": {
          "$type": "IJOIMFMEGMM",
          "DLOHGBDFFGB": {
            "ThrowingKnife_BS": [
              "Monster_Thoarder_Male_NoWeapon_ThrowingKnife_BS",
              "Monster_Thoarder_Male_NoWeapon_ThrowingKnife_Throw",
              "Audio_Monster_Thoarder_NoWeapon_ThrowingKnife"
            ]
          },
          "DLAOMOCMANL": [
            "BeHit",
            "DoSkill"
          ]
        },
        "ThrowingKnife_Throw": {
          "$type": "IJOIMFMEGMM",
          "DLOHGBDFFGB": {
            "ThrowingKnife_Throw": []
          },
          "DLAOMOCMANL": [
            "BeHit",
            "DoSkill"
          ]
        },
        "MultiThrow_Ready": {
          "$type": "IJOIMFMEGMM",
          "DLOHGBDFFGB": {
            "MultiThrow_Ready": []
          },
          "DLAOMOCMANL": [
            "BeHit",
            "DoSkill"
          ]
        },
        "MultiThrow_Throw01": {
          "$type": "IJOIMFMEGMM",
          "DLOHGBDFFGB": {
            "MultiThrow_Throw01": [
              "Monster_Thoarder_Male_NoWeapon_ThrowBomb"
            ]
          },
          "DLAOMOCMANL": [
            "BeHit",
            "DoSkill"
          ]
        },
        "MultiThrow_Throw02": {
          "$type": "IJOIMFMEGMM",
          "DLOHGBDFFGB": {
            "MultiThrow_Throw02": [
              "Monster_Thoarder_Male_NoWeapon_ThrowBomb"
            ]
          },
          "DLAOMOCMANL": [
            "BeHit",
            "DoSkill"
          ]
        },
        "MultiThrow_Throw03": {
          "$type": "IJOIMFMEGMM",
          "DLOHGBDFFGB": {
            "MultiThrow_Throw03": [
              "Monster_Thoarder_Male_NoWeapon_ThrowBomb"
            ]
          },
          "DLAOMOCMANL": [
            "BeHit",
            "DoSkill"
          ]
        },
        "ThrowBomb_BS": {
          "$type": "IJOIMFMEGMM",
          "DLOHGBDFFGB": {
            "ThrowBomb_BS": [
              "Monster_Thoarder_Male_NoWeapon_ThrowBomb_BS",
              "Monster_Thoarder_Male_NoWeapon_ThrowBomb_Throw"
            ]
          },
          "DLAOMOCMANL": [
            "BeHit",
            "DoSkill"
          ]
        },
        "ThrowBomb_Throw": {
          "$type": "IJOIMFMEGMM",
          "DLOHGBDFFGB": {
            "ThrowBomb_Throw": []
          },
          "DLAOMOCMANL": [
            "BeHit",
            "DoSkill"
          ]
        },
        "ThrowMolotovCocktail_BS": {
          "$type": "IJOIMFMEGMM",
          "DLOHGBDFFGB": {
            "ThrowMolotovCocktail_BS": [
              "Monster_Thoarder_Male_NoWeapon_ThrowMolotovCocktail_BS",
              "Monster_Thoarder_Male_NoWeapon_ThrowMolotovCocktail_Throw",
              "Audio_Monster_Thoarder_NoWeapon_ThrowingBottle"
            ]
          },
          "DLAOMOCMANL": [
            "BeHit",
            "DoSkill"
          ]
        },
        "ThrowMolotovCocktail_Throw": {
          "$type": "IJOIMFMEGMM",
          "DLOHGBDFFGB": {
            "ThrowMolotovCocktail_Throw": []
          },
          "DLAOMOCMANL": [
            "BeHit",
            "DoSkill"
          ]
        },
        "Taunt": {
          "$type": "IJOIMFMEGMM",
          "DLOHGBDFFGB": {
            "Taunt_1": [
              "Audio_Monster_Thoarder_NoWeapon_Taunt1"
            ],
            "Taunt_2": [
              "Audio_Monster_Thoarder_NoWeapon_Taunt2"
            ],
            "Taunt_3": [
              "Audio_Monster_Thoarder_NoWeapon_Taunt3"
            ]
          },
          "DLAOMOCMANL": [
            "BeHit",
            "DoSkill"
          ]
        }
      }
    }
  },
  "billboard": {
    "$type": "PAOBAEKGGBC",
    "attachPoint": "BillboardAttach",
    "offset": {
      "x": -0.05000000074505806
    },
    "EMFFJPOKEKF": "Character",
    "LOMMBJLKPHE": 0.25,
    "KGHAGECNJPO": true
  },
  "initialPoses": {
    "Default": {}
  },
  "aibeta": {
    "enable": true,
    "moveSetting": {
      "navMeshAgentName": "Undead01",
      "almostReachedDistanceRun": 1.5
    },
    "sensing": {
      "settings": {
        "DefaultSetting": {
          "feelRange": 8.0
        },
        "HighAlert": {
          "viewRange": 40.0,
          "feelRange": 10.0
        }
      },
      "templates": {
        "DefaultTemplate": {
          "DefaultPoses": "DefaultSetting"
        },
        "HighAlertTemplate": {
          "DefaultPoses": "HighAlert"
        }
      }
    },
    "neurons": {
      "DefaultSetting": [
        "HIT"
      ]
    },
    "threat": {
      "clearThreatByLostPath": true,
      "clearThreatTimerByDistance": 3.0,
      "viewAttenuation": [
        {
          "x": 10.0,
          "y": 2.0
        },
        {
          "x": 15.0,
          "y": 0.800000011920929
        },
        {
          "x": 20.0,
          "y": 0.5
        },
        {
          "x": 25.0,
          "y": 0.30000001192092896
        },
        {
          "x": 30.0,
          "y": 0.20000000298023224
        }
      ],
      "JGFOPCOIJOI": ""
    },
    "defendArea": {},
    "profiling": {},
    "skillGroupCDConfigs": [
      {
        "skillGroupCDID": 1,
        "skillGroupCDTime": 7.0
      },
      {
        "skillGroupCDID": 2,
        "skillGroupCDTime": 7.0
      }
    ],
    "skills": {
      "101": {
        "name": "OnAlert",
        "skillType": "OnAlert",
        "faceTarget": true,
        "publicCDGroup": "",
        "ignoreGCD": true,
        "triggerGCD": false,
        "HGAMDGAEIGO": "",
        "stateIDs": [
          "Life_Warning"
        ],
        "skillQueryingTime": 3.0,
        "flagTargetReachable": "10",
        "flagSelfOnTemplateCollider": "01",
        "flagSelfInZone": "10",
        "flagTargetInZone": "11"
      },
      "201": {
        "name": "NoWeapon_Attack",
        "combatSkillType": "MeleeAttack",
        "priority": 2,
        "enableSkillPrepare": true,
        "castCondition": {
          "pose": [
            1001
          ],
          "pickRangeMax": 6.0,
          "castRangeMax": 2.25
        },
        "cd": 5.0,
        "cdUpperRange": 5.0,
        "initialCD": 8.0,
        "publicCDGroup": "",
        "skillGroupCDID": 1,
        "HGAMDGAEIGO": "",
        "stateIDs": [
          "NoWeapon_Attack"
        ],
        "flagTargetReachable": "10",
        "flagSelfOnTemplateCollider": "01",
        "flagSelfInZone": "10",
        "flagTargetInZone": "11"
      },
      "211": {
        "name": "BirdieKick",
        "combatSkillType": "MeleeAttack",
        "enableSkillPrepare": true,
        "castCondition": {
          "pose": [
            1001
          ],
          "maxTargetAngleY": 45.0,
          "pickRangeMin": 2.5,
          "pickRangeMax": 6.0,
          "castRangeMin": 2.0,
          "castRangeMax": 4.5
        },
        "cd": 20.0,
        "cdUpperRange": 10.0,
        "initialCD": 20.0,
        "publicCDGroup": "",
        "skillGroupCDID": 1,
        "HGAMDGAEIGO": "",
        "stateIDs": [
          "BirdieKick"
        ],
        "flagTargetReachable": "10",
        "flagSelfOnTemplateCollider": "01",
        "flagSelfInZone": "10",
        "flagTargetInZone": "11"
      },
      "301": {
        "name": "ThrowingKnife",
        "combatSkillType": "RangedAttack",
        "castCondition": {
          "pose": [
            1001
          ],
          "pickRangeMin": 4.25,
          "pickRangeMax": 15.0,
          "castRangeMin": 4.25,
          "castRangeMax": 10.0
        },
        "cd": 3.0,
        "cdUpperRange": 1.0,
        "publicCDGroup": "",
        "skillGroupCDID": 2,
        "HGAMDGAEIGO": "",
        "stateIDs": [
          "ThrowingKnife_BS",
          "ThrowingKnife_Throw"
        ],
        "flagTargetReachable": "10",
        "flagSelfOnTemplateCollider": "01",
        "flagSelfInZone": "10",
        "flagTargetInZone": "11"
      },
      "302": {
        "name": "MultiThrow",
        "combatSkillType": "RangedAttack",
        "castCondition": {
          "pose": [
            9999
          ],
          "pickRangeMin": 4.25,
          "pickRangeMax": 15.0,
          "castRangeMin": 4.25,
          "castRangeMax": 10.0
        },
        "cd": 20.0,
        "cdUpperRange": 10.0,
        "initialCD": 20.0,
        "publicCDGroup": "",
        "skillGroupCDID": 2,
        "HGAMDGAEIGO": "",
        "stateIDs": [
          "MultiThrow_Ready",
          "MultiThrow_Throw01",
          "MultiThrow_Throw02",
          "MultiThrow_Throw03"
        ],
        "flagTargetReachable": "10",
        "flagSelfOnTemplateCollider": "01",
        "flagSelfInZone": "10",
        "flagTargetInZone": "11"
      },
      "304": {
        "name": "ThrowMolotovCocktail",
        "combatSkillType": "RangedAttack",
        "castCondition": {
          "pose": [
            1001
          ],
          "pickRangeMin": 4.25,
          "pickRangeMax": 15.0,
          "castRangeMin": 4.25,
          "castRangeMax": 10.0
        },
        "cd": 10.0,
        "cdUpperRange": 1.0,
        "publicCDGroup": "",
        "skillGroupCDID": 2,
        "HGAMDGAEIGO": "",
        "stateIDs": [
          "ThrowMolotovCocktail_BS",
          "ThrowMolotovCocktail_Throw"
        ],
        "flagTargetReachable": "10",
        "flagSelfOnTemplateCollider": "01",
        "flagSelfInZone": "10",
        "flagTargetInZone": "11"
      },
      "901": {
        "name": "Taunt",
        "faceTarget": true,
        "castCondition": {
          "pose": [
            1001
          ],
          "maxTargetAngleY": 45.0,
          "pickRangeMin": 5.0,
          "pickRangeMax": 20.0
        },
        "cd": 3.0,
        "cdUpperRange": 3.0,
        "initialCD": 10.0,
        "publicCDGroup": "RandomAction",
        "ignoreGCD": true,
        "triggerGCD": false,
        "HGAMDGAEIGO": "",
        "stateIDs": [
          "Taunt"
        ],
        "flagTargetReachable": "10",
        "flagSelfOnTemplateCollider": "01",
        "flagSelfInZone": "01",
        "flagTargetInZone": "11"
      },
      "902": {
        "name": "Taunt",
        "faceTarget": true,
        "castCondition": {
          "pose": [
            1001
          ],
          "maxTargetAngleY": 45.0,
          "pickRangeMin": 5.0,
          "pickRangeMax": 20.0
        },
        "cd": 3.0,
        "cdUpperRange": 3.0,
        "initialCD": 10.0,
        "publicCDGroup": "RandomAction",
        "ignoreGCD": true,
        "triggerGCD": false,
        "HGAMDGAEIGO": "",
        "stateIDs": [
          "Taunt"
        ],
        "flagTargetReachable": "01",
        "flagSelfOnTemplateCollider": "01",
        "flagSelfInZone": "10",
        "flagTargetInZone": "11"
      },
      "905": {
        "name": "Taunt",
        "faceTarget": true,
        "castCondition": {
          "pose": [
            1001
          ],
          "maxTargetAngleY": 45.0,
          "pickRangeMin": 10.0,
          "pickRangeMax": 15.0
        },
        "cd": 20.0,
        "cdUpperRange": 5.0,
        "initialCD": 15.0,
        "publicCDGroup": "RandomAction",
        "triggerGCD": false,
        "HGAMDGAEIGO": "",
        "stateIDs": [
          "Taunt"
        ],
        "flagTargetReachable": "10",
        "flagSelfOnTemplateCollider": "01",
        "flagSelfInZone": "10",
        "flagTargetInZone": "11"
      }
    },
    "skillGCD": 3.0,
    "combatFixedMoveTactic": [
      {
        "$type": "DIIPKNMAPAC",
        "enable": true,
        "FJANPNOAAFK": {
          "pose": [
            1001
          ]
        },
        "LMMKNFEMOMG": {
          "rangeMin": 4.5,
          "rangeMax": 7.0,
          "MMKHHBIBJEN": {
            "GEECPOOOMFC": 0.0,
            "NFMBIOFFKGK": 0.0,
            "JNJFKLDABCB": 5.0,
            "BEJLOBBENJJ": 5.0
          },
          "HEGPGPBKGFH": "1111",
          "AFCLIFKCEKM": "1111",
          "JOCOJHEICNA": ""
        }
      },
      {
        "$type": "IPCLAEOBOLJ",
        "FJANPNOAAFK": {
          "pose": [
            1001
          ]
        },
        "LMMKNFEMOMG": {
          "cd": 1.0,
          "DDMLFHAHADI": 1.0,
          "GJOPHKACMDL": 2.0
        }
      },
      {
        "$type": "GIMIMAJNOPH",
        "FJANPNOAAFK": {
          "pose": [
            1001
          ]
        },
        "LMMKNFEMOMG": {
          "cd": 2.5,
          "triggerDistance": 1.5,
          "IFCLJHAJFHD": 100.0,
          "NBBIJDCLJOF": 3.0,
          "MHMMABHJIIA": 5.0,
          "JHFLNKPOHHO": true,
          "JOCOJHEICNA": ""
        }
      },
      {
        "$type": "NCHKIPKMCLC",
        "enable": true,
        "FJANPNOAAFK": {
          "pose": [
            1
          ]
        }
      },
      {
        "$type": "BNAGECKMCIB",
        "enable": true,
        "FJANPNOAAFK": {
          "pose": [
            1001
          ]
        },
        "LMMKNFEMOMG": {
          "MPEMBMLOEDG": 9.0,
          "IJLGPEJGLEH": 50.0,
          "JKOGPCLFHCP": 6.5,
          "IHCAFCNDANA": 7.0,
          "JOCOJHEICNA": ""
        }
      },
      {
        "$type": "CMFCOLEFCJI",
        "enable": true,
        "LMMKNFEMOMG": {}
      },
      {
        "$type": "KMHBGMELMKD",
        "enable": true,
        "LMMKNFEMOMG": {
          "JOCOJHEICNA": "",
          "DBIELIMGBMC": ""
        }
      },
      {
        "$type": "GGKADEIBMLG",
        "enable": true,
        "FJANPNOAAFK": {
          "pose": [
            1
          ]
        },
        "LMMKNFEMOMG": {
          "JIFJFPJANHO": 3.0,
          "CBKHBGCPFBG": 1.5,
          "EKDHNAGGGAE": 15.0,
          "BFEJAKFKKFP": 3.75,
          "KOAMKCEFJED": 7.5,
          "JOCOJHEICNA": ""
        }
      }
    ]
  },
  "inputKeys": [
    {
      "keyID": 201,
      "inputKeyCode": 257,
      "abilityName": ""
    },
    {
      "keyID": 211,
      "inputKeyCode": 258,
      "abilityName": ""
    },
    {
      "keyID": 301,
      "inputKeyCode": 259,
      "abilityName": ""
    },
    {
      "keyID": 303,
      "inputKeyCode": 260,
      "abilityName": ""
    },
    {
      "keyID": 304,
      "inputKeyCode": 261,
      "abilityName": ""
    },
    {
      "keyID": 901,
      "inputKeyCode": 262,
      "abilityName": ""
    },
    {
      "keyID": 905,
      "inputKeyCode": 263,
      "abilityName": ""
    }
  ],
  "move": {
    "$type": "IIGPJJNGCLE",
    "MIPNOGBEANL": "FourDirection",
    "BEPOPLDKJOP": "StoopType",
    "FACNOEFNHIB": "RootNode"
  },
  "audio": {
    "KEEAIACIJBN": "",
    "animAudio": {},
    "disableEvent": {
      "text": ""
    },
    "destroyEvent": {
      "text": ""
    },
    "randomVariantSwitchGroup": {
      "text": ""
    },
    "randomVariantSwitchValues": [
      {
        "text": ""
      }
    ]
  }
}