{
  "MDJNFHAJPAD": {
    "FAIKDMCHPEL": {
      "$type": "DPGKNHENGLM",
      "DDDEJPIFECG": "EffectMesh"
    },
    "FINMNFLLAMB": 30.0,
    "NEBDNCNFDJC": 0.75,
    "MBMBBGOGNHF": true,
    "DIEPJBNIPBG": true,
    "CKECEGGMJOP": false,
    "JBIPDEEPIMN": true,
    "GJKLEPPOKDJ": true
  },
  "PJEANIPCFFN": {
    "CKAIGCFDCMG": "",
    "KHGAHHAIJFJ": "",
    "DFFKHFKJKEK": false
  },
  "MEMHBNEJBCL": {
    "PJBCJPKPOLB": 1.0
  },
  "GKIMHOOMGHB": {
    "DHBJGHDCMAA": {
      "LDAHGACLHII": "Monster_Minion",
      "LJGADHKDLLB": 30.0
    },
    "BPKIJDAHLGB": {
      "LKMLEJGEHAP": "",
      "LHMKDLOKKJG": true
    },
    "INCPHOFGIJA": {
      "FGJIHAKMLBG": "CircleLockEnemy",
      "BGMEKAEIOGA": "Avatar&Monster_Lv4"
    },
    "JCCJMILDEAM": {
      "GKFDFDFJJFB": 2.0,
      "FNIJBPMPCHA": 10.0,
      "BCHFMGGBEFN": ""
    }
  },
  "IGPKOOHPBFG": [
    {
      "FPLENFAEDIB": "Animal_Thoarder_Weasel_Alert",
      "KAJGDIHNKNE": "Animal_Thoarder_Weasel_Alert",
      "BIAMBCDKJKP": ""
    },
    {
      "FPLENFAEDIB": "Animal_Thoarder_Weasel_Drill",
      "KAJGDIHNKNE": "Animal_Thoarder_Weasel_Drill",
      "BIAMBCDKJKP": ""
    },
    {
      "FPLENFAEDIB": "Animal_Thoarder_Weasel_Jump",
      "KAJGDIHNKNE": "Animal_Thoarder_Weasel_Jump",
      "BIAMBCDKJKP": ""
    },
    {
      "FPLENFAEDIB": "Animal_Thoarder_Weasel_Flee",
      "KAJGDIHNKNE": "Animal_Thoarder_Weasel_Flee",
      "BIAMBCDKJKP": ""
    },
    {
      "FPLENFAEDIB": "Animal_Thoarder_Weasel_ToWander",
      "KAJGDIHNKNE": "Animal_Thoarder_Weasel_ToWander",
      "BIAMBCDKJKP": ""
    },
    {
      "FPLENFAEDIB": "Animal_Thoarder_Weasel_ToIdle",
      "KAJGDIHNKNE": "Animal_Thoarder_Weasel_ToIdle",
      "BIAMBCDKJKP": ""
    },
    {
      "FPLENFAEDIB": "Animal_Thoarder_Weasel_State",
      "KAJGDIHNKNE": "Animal_Thoarder_Weasel_State",
      "BIAMBCDKJKP": ""
    },
    {
      "FPLENFAEDIB": "",
      "KAJGDIHNKNE": "Animal_Thoarder_Weasel_Drill_Exit",
      "BIAMBCDKJKP": ""
    }
  ],
  "GGIOJAMBNPO": {
    "defaultLayer": {
      "$type": "EPAPJJAGHKG",
      "ACOCIAFGIAD": "",
      "LFGKIDDJIED": {
        "Born": {
          "$type": "IJOIMFMEGMM",
          "DLOHGBDFFGB": {
            "Born_Emergy": [
              "Animal_Thoarder_Weasel_Born",
              "Audio_Animal_Marten_Born"
            ],
            "Born_Jump": [
              "Animal_Thoarder_Weasel_Emerge",
              "Audio_Animal_Marten_Alert"
            ]
          },
          "DLAOMOCMANL": [
            "DoSkill"
          ]
        },
        "NormalIdle": {
          "$type": "IJOIMFMEGMM",
          "DLOHGBDFFGB": {
            "Standby": [
              "Audio_Creature_Weasel_Standby"
            ],
            "Standby_Special": [
              "Audio_Creature_Weasel_Standby"
            ],
            "Standby_Walk": [
              "Audio_Creature_Weasel_run"
            ],
            "WalkToStandby": [
              "Animal_Thoarder_Weasel_ToIdle"
            ]
          },
          "POLKCLOHPOO": true,
          "PGKCBIHGAOC": true,
          "DLAOMOCMANL": [
            "DoSkill"
          ]
        },
        "NormalMove": {
          "$type": "IJOIMFMEGMM",
          "DLOHGBDFFGB": {
            "Walk": [
              "Audio_Creature_Weasel_run"
            ],
            "Run": [
              "Audio_Creature_Weasel_run"
            ],
            "Disappear": [
              "Audio_Creature_Weasel_run"
            ]
          },
          "POLKCLOHPOO": true,
          "PGKCBIHGAOC": true,
          "DLAOMOCMANL": [
            "DoSkill"
          ],
          "LIPMJPLGIKD": true
        },
        "Die": {
          "$type": "IJOIMFMEGMM",
          "DLOHGBDFFGB": {
            "Die": [
              "Animal_Thoarder_Weasel_Die",
              "Audio_Creature_Weasel_Die"
            ],
            "Die_Disappear": [
              "Animal_Thoarder_Weasel_Disappear"
            ]
          }
        },
        "Alert": {
          "$type": "IJOIMFMEGMM",
          "DLOHGBDFFGB": {
            "Alert": [
              "Animal_Thoarder_Weasel_Alert",
              "Audio_Animal_Marten_Alert"
            ]
          },
          "POLKCLOHPOO": true,
          "DLAOMOCMANL": [
            "BeHit",
            "DoSkill"
          ],
          "LIPMJPLGIKD": true,
          "ODINBNMGLGA": true
        },
        "Personality_1": {
          "$type": "IJOIMFMEGMM",
          "DLOHGBDFFGB": {
            "Personality_1": [
              "Animal_Thoarder_Weasel_Personality1",
              "Audio_Creature_Weasel_Personality_1"
            ]
          },
          "POLKCLOHPOO": true,
          "DLAOMOCMANL": [
            "BeHit",
            "DoSkill"
          ]
        },
        "Personality_2": {
          "$type": "IJOIMFMEGMM",
          "DLOHGBDFFGB": {
            "Personality_2": [
              "Audio_Creature_Weasel_Personality_2"
            ]
          },
          "POLKCLOHPOO": true,
          "DLAOMOCMANL": [
            "BeHit",
            "DoSkill"
          ]
        },
        "Drill": {
          "$type": "IJOIMFMEGMM",
          "DLOHGBDFFGB": {
            "Drill": [
              "Animal_Thoarder_Weasel_Drill",
              "Audio_Creature_Weasel_Drill"
            ],
            "Drill_Disappear": [
              "Animal_Thoarder_Weasel_Drill_Exit",
              "Audio_Creature_Weasel_Drill"
            ]
          },
          "DLAOMOCMANL": [
            "BeHit",
            "DoSkill"
          ]
        },
        "ToWander": {
          "$type": "IJOIMFMEGMM",
          "DLOHGBDFFGB": {
            "ToWander": [
              "Animal_Thoarder_Weasel_ToWander"
            ]
          },
          "POLKCLOHPOO": true,
          "DLAOMOCMANL": [
            "BeHit",
            "DoSkill"
          ]
        }
      }
    }
  },
  "IEFGNHABHFH": {
    "$type": "PAOBAEKGGBC",
    "JBKMLLFNHAL": "BillboardAttach"
  },
  "IONIFBIBFNL": {
    "Default": {},
    "Normal": {
      "JAAABLNBKAP": 1,
      "PIEEIAOKMJB": {
        "GKGFCNLPILF": {
          "FleeState": "false",
          "Jump": "false",
          "Wander": "false",
          "OnlyFlee": "false",
          "CustomizedLoot": "false",
          "DrillExit": "false"
        }
      }
    },
    "OnlyFlee": {
      "JAAABLNBKAP": 9,
      "PIEEIAOKMJB": {
        "GKGFCNLPILF": {
          "FleeState": "false",
          "Jump": "false",
          "Wander": "false",
          "OnlyFlee": "true",
          "CustomizedLoot": "false",
          "DrillExit": "false"
        }
      }
    },
    "Jump": {
      "JAAABLNBKAP": 3,
      "PIEEIAOKMJB": {
        "GKGFCNLPILF": {
          "FleeState": "true",
          "Jump": "true",
          "Wander": "false",
          "OnlyFlee": "false",
          "CustomizedLoot": "false",
          "DrillExit": "false"
        }
      }
    },
    "OnlyFlee_AIFight": {
      "JAAABLNBKAP": 911,
      "PIEEIAOKMJB": {
        "GKGFCNLPILF": {
          "FleeState": "false",
          "Jump": "false",
          "Wander": "false",
          "OnlyFlee": "true",
          "CustomizedLoot": "false",
          "DrillExit": "false"
        }
      }
    },
    "Customized_Loot": {
      "JAAABLNBKAP": 921,
      "PIEEIAOKMJB": {
        "GKGFCNLPILF": {
          "FleeState": "false",
          "Jump": "false",
          "Wander": "false",
          "OnlyFlee": "false",
          "CustomizedLoot": "true",
          "DrillExit": "false"
        }
      }
    },
    "Drill_Exit": {
      "JAAABLNBKAP": 102,
      "PIEEIAOKMJB": {
        "GKGFCNLPILF": {
          "FleeState": "false",
          "Jump": "false",
          "Wander": "false",
          "OnlyFlee": "false",
          "CustomizedLoot": "false",
          "DrillExit": "true"
        }
      }
    }
  },
  "PDCDMABCPOA": {
    "ENLKMOKHELD": true,
    "BBIKFBPEPKO": 1,
    "KGDGKFHPJPO": {
      "NLGDNEMIKPE": "Undead01"
    },
    "OCBDDDCJANP": {
      "IJOBKDKBEME": {
        "Normal": {
          "PHDIIPOBJGA": 15.0,
          "COENEFGMPFK": 90.0,
          "MPEJKBDNFGB": 45.0,
          "BHOECAJIBOM": 10.0
        },
        "Jump": {
          "BHOECAJIBOM": 40.0
        }
      },
      "PKFGMCHOEBN": {
        "DefaultTemplate": {
          "1": "Normal",
          "2": "Normal",
          "9": "Normal",
          "3": "Jump"
        }
      }
    },
    "OFEGONBLOGP": {
      "DefaultSetting": [
        "HIT"
      ]
    },
    "EJOLGMGAECP": {
      "KICEOILEEPP": 50.0,
      "KDPOCNEHGBJ": 500.0,
      "JGFOPCOIJOI": ""
    },
    "PMNPDDIOHHJ": {
      "OKMHHFALCCH": 50.0
    },
    "HEOOEKIGDAL": {
      "GMFIDKOEKHA": false,
      "FLMOHOODJBA": ""
    },
    "BNIENJNLAIJ": {
      "1": {
        "NOKKDDHKGAK": "OnAlert",
        "IKMCLKEPDFP": "OnAlert",
        "NOPNCNPCPJE": "",
        "LLNBBNIEGGO": true,
        "IDPMFPAPNCE": false,
        "HGAMDGAEIGO": "",
        "LFGKIDDJIED": [
          "Alert"
        ],
        "PGPDNPMFFAG": "10",
        "CCEAGFDONFH": "01",
        "OKOFHICILMD": "10",
        "CCFFFOIDOLP": "11"
      },
      "101": {
        "NOKKDDHKGAK": "PersonalitySit1",
        "IKMCLKEPDFP": "Free",
        "ENKLFBHHOJI": {
          "CEKMINILIFB": [
            1,
            9
          ]
        },
        "PAHIDIJLGPF": 25.0,
        "GPMLADFJAAH": 25.0,
        "LKCFDIOMLCM": 20.0,
        "KKAEGIJIDLG": 20.0,
        "NOPNCNPCPJE": "",
        "HGAMDGAEIGO": "",
        "LFGKIDDJIED": [
          "Personality_1"
        ],
        "PGPDNPMFFAG": "10",
        "CCEAGFDONFH": "01",
        "OKOFHICILMD": "10",
        "CCFFFOIDOLP": "11"
      },
      "201": {
        "NOKKDDHKGAK": "PersonalitySit2",
        "IKMCLKEPDFP": "Free",
        "ENKLFBHHOJI": {
          "CEKMINILIFB": [
            1,
            9
          ]
        },
        "PAHIDIJLGPF": 20.0,
        "GPMLADFJAAH": 15.0,
        "LKCFDIOMLCM": 10.0,
        "KKAEGIJIDLG": 10.0,
        "NOPNCNPCPJE": "",
        "HGAMDGAEIGO": "",
        "LFGKIDDJIED": [
          "Personality_2"
        ],
        "PGPDNPMFFAG": "10",
        "CCEAGFDONFH": "01",
        "OKOFHICILMD": "10",
        "CCFFFOIDOLP": "11"
      },
      "301": {
        "NOKKDDHKGAK": "ToWander",
        "IKMCLKEPDFP": "Free",
        "ENKLFBHHOJI": {
          "CEKMINILIFB": [
            1,
            9
          ]
        },
        "PAHIDIJLGPF": 12.5,
        "GPMLADFJAAH": 7.5,
        "LKCFDIOMLCM": 5.0,
        "KKAEGIJIDLG": 5.0,
        "NOPNCNPCPJE": "",
        "HGAMDGAEIGO": "",
        "LFGKIDDJIED": [
          "ToWander"
        ],
        "PGPDNPMFFAG": "10",
        "CCEAGFDONFH": "01",
        "OKOFHICILMD": "10",
        "CCFFFOIDOLP": "11"
      },
      "401": {
        "NOKKDDHKGAK": "Drill",
        "IKMCLKEPDFP": "ActionPoint",
        "ENKLFBHHOJI": {
          "CEKMINILIFB": [
            101
          ]
        },
        "NOPNCNPCPJE": "",
        "HGAMDGAEIGO": "",
        "LFGKIDDJIED": [
          "Drill"
        ],
        "PGPDNPMFFAG": "10",
        "CCEAGFDONFH": "01",
        "OKOFHICILMD": "10",
        "CCFFFOIDOLP": "11"
      },
      "402": {
        "NOKKDDHKGAK": "Drill_Disappear",
        "IKMCLKEPDFP": "ActionPoint",
        "ENKLFBHHOJI": {
          "CEKMINILIFB": [
            102
          ]
        },
        "NOPNCNPCPJE": "",
        "HGAMDGAEIGO": "",
        "LFGKIDDJIED": [
          "Drill_Disappear"
        ],
        "PGPDNPMFFAG": "10",
        "CCEAGFDONFH": "01",
        "OKOFHICILMD": "10",
        "CCFFFOIDOLP": "11"
      }
    },
    "EMBHEEALPLD": 5.0,
    "EEKEAKJCMJO": [
      {
        "$type": "JLGOMJEEEOD",
        "ENLKMOKHELD": true,
        "FJANPNOAAFK": {
          "CEKMINILIFB": [
            101,
            102
          ]
        },
        "GMMKOLNMFJL": [
          "HIT"
        ],
        "LMMKNFEMOMG": {
          "LPJONBJGEKP": "MoleHolePoint",
          "KIHPEPHJMOG": 2,
          "GEAICNICJAJ": 2.5,
          "FCCFALOMHGM": 30.0,
          "DDMLFHAHADI": 10.0,
          "DMEANKABKMP": 401
        },
        "BIDHHBJEKHM": {
          "102": {
            "LPJONBJGEKP": "MoleHolePoint",
            "KIHPEPHJMOG": 2,
            "GEAICNICJAJ": 2.5,
            "FCCFALOMHGM": 30.0,
            "DDMLFHAHADI": 10.0,
            "DMEANKABKMP": 402
          }
        }
      },
      {
        "$type": "GIMIMAJNOPH",
        "ENLKMOKHELD": true,
        "FJANPNOAAFK": {
          "CEKMINILIFB": [
            901,
            911,
            921
          ]
        },
        "LMMKNFEMOMG": {
          "GEAICNICJAJ": 2.5,
          "PAHIDIJLGPF": 3.0,
          "OHLJIHFFMLB": 100.0,
          "IFCLJHAJFHD": 75.0,
          "GGIBBPIGEJF": 5,
          "PKFMEOPIHEO": 6,
          "NBBIJDCLJOF": 6.0,
          "MHMMABHJIIA": 8.0,
          "JHFLNKPOHHO": true,
          "JOCOJHEICNA": ""
        }
      },
      {
        "$type": "KMHBGMELMKD",
        "ENLKMOKHELD": true
      },
      {
        "$type": "GGKADEIBMLG",
        "ENLKMOKHELD": true,
        "FJANPNOAAFK": {
          "CEKMINILIFB": [
            2
          ]
        },
        "LMMKNFEMOMG": {
          "GEAICNICJAJ": 2.0,
          "JIFJFPJANHO": 5.0,
          "CBKHBGCPFBG": 3.0,
          "EKDHNAGGGAE": 5.0,
          "KOAMKCEFJED": 3.5,
          "JOCOJHEICNA": ""
        }
      }
    ]
  },
  "GIBHCHHOJFI": [
    {
      "NPDDCIDNKMH": 101,
      "KCAOBJOPJIC": 257,
      "KAJGDIHNKNE": ""
    },
    {
      "NPDDCIDNKMH": 201,
      "KCAOBJOPJIC": 258,
      "KAJGDIHNKNE": ""
    }
  ]
}