{
  "common": {
    "effectAttachShape": {
      "$type": "DPGKNHENGLM",
      "DDDEJPIFECG": "EffectMesh"
    },
    "mass": 999999.0,
    "viewSize": 2.0,
    "scale": 2.0
  },
  "model": {
    "bornEffect": "Eff_Monster_Oceanid_AnimalBorn",
    "attachEffect": "",
    "canBakeMesh": false
  },
  "dither": {
    "showDitherDuration": 3.0
  },
  "combat": {
    "property": {
      "endureType": "Monster_Boss_Other",
      "weight": 150.0
    },
    "beHit": {
      "hitBloodEffect": ""
    },
    "combatLock": {
      "lockShape": "CircleLockEnemy",
      "lockType": "Avatar&Monster_Lv4"
    },
    "die": {
      "hasAnimatorDie": true,
      "dieEndTime": 2.0,
      "dieForceDisappearTime": 5.0,
      "dieDisappearEffect": "",
      "muteHitBox": true,
      "dieDenyLockOn": true,
      "dieIsGhostToEnemy": true,
      "dieIgnoreTriggerBullet": true,
      "muteBillboard": true,
      "mutePushCollider": true
    },
    "animEvents": {
      "RushAtk": {
        "attackPattern": {
          "$type": "JIOCECPEDFM",
          "triggerType": "TriggerNoRepeat",
          "born": {
            "$type": "NKOODKOFELF",
            "offset": {
              "GNGDNIIPPNL": 0.0,
              "GIIMFINHIED": 0.75,
              "CLBCHJICOKH": 1.75
            }
          },
          "LOACHGCADCO": 1.5
        },
        "attackInfo": {
          "attackTag": "",
          "attenuationTag": "",
          "attenuationGroup": "default",
          "attackProperty": {
            "HOGNHNAHNML": 1.0,
            "BAPILBAGBOJ": 0.0,
            "elementType": "Water",
            "bonusCriticalHurt": 50.0,
            "strikeType": "Blunt",
            "enBreak": 200.0,
            "attackType": "Melee",
            "damagePercentage": 0.0
          },
          "hitPattern": {
            "onHitEffectName": "default",
            "hitImpulseType": "LV4",
            "retreatType": "ByTangent",
            "canBeDefenceHalt": true
          }
        }
      },
      "MeleeAtk": {
        "attackPattern": {
          "$type": "HGDDHLFAONH",
          "triggerType": "TriggerNoRepeat",
          "CMGJNPCOLLP": true,
          "born": {
            "$type": "NKOODKOFELF",
            "offset": {
              "GNGDNIIPPNL": 0.0,
              "GIIMFINHIED": 1.0,
              "CLBCHJICOKH": 0.5
            }
          },
          "musicSubStates": {
            "GNGDNIIPPNL": 2.0,
            "GIIMFINHIED": 2.0,
            "CLBCHJICOKH": 6.25
          }
        },
        "attackInfo": {
          "attackTag": "",
          "attenuationTag": "",
          "attenuationGroup": "default",
          "attackProperty": {
            "HOGNHNAHNML": 1.0,
            "BAPILBAGBOJ": 0.0,
            "elementType": "Water",
            "bonusCriticalHurt": 50.0,
            "strikeType": "Blunt",
            "enBreak": 200.0,
            "attackType": "Melee",
            "damagePercentage": 0.0
          },
          "hitPattern": {
            "onHitEffectName": "default",
            "hitImpulseType": "LV4",
            "canBeDefenceHalt": true
          }
        }
      }
    }
  },
  "abilities": [
    {
      "abilityID": "Monster_Oceanid_Boar_Steer",
      "abilityName": "Monster_Oceanid_Boar_Steer",
      "abilityOverride": ""
    },
    {
      "abilityID": "Monster_Oceanid_Boar_HealHp",
      "abilityName": "Monster_Oceanid_Boar_HealHp",
      "abilityOverride": ""
    },
    {
      "abilityID": "Monster_Oceanid_Boar_ElementState",
      "abilityName": "Monster_Oceanid_Boar_ElementState",
      "abilityOverride": ""
    },
    {
      "abilityID": "Monster_Common_WaterMuteHurt",
      "abilityName": "Monster_Common_WaterMuteHurt",
      "abilityOverride": ""
    },
    {
      "abilityID": "Monster_Oceanid_Animal_BeingHit",
      "abilityName": "Monster_Oceanid_Animal_BeingHit",
      "abilityOverride": ""
    },
    {
      "abilityID": "Monster_Oceanid_Animal_Die",
      "abilityName": "Monster_Oceanid_Animal_Die",
      "abilityOverride": ""
    },
    {
      "abilityID": "Monster_Oceanid_Boar_RushAtk",
      "abilityName": "Monster_Oceanid_Boar_RushAtk",
      "abilityOverride": ""
    }
  ],
  "stateLayers": {
    "defaultLayer": {
      "$type": "EPAPJJAGHKG",
      "ACOCIAFGIAD": "",
      "stateIDs": {
        "Born": {
          "$type": "IJOIMFMEGMM",
          "DLOHGBDFFGB": {
            "Born": []
          },
          "POLKCLOHPOO": true,
          "DLAOMOCMANL": [
            "DoSkill"
          ]
        },
        "NormalIdle": {
          "$type": "IJOIMFMEGMM",
          "DLOHGBDFFGB": {
            "Standby": []
          },
          "POLKCLOHPOO": true,
          "PGKCBIHGAOC": true,
          "DLAOMOCMANL": [
            "DoSkill"
          ]
        },
        "NormalMove": {
          "$type": "IJOIMFMEGMM",
          "DLOHGBDFFGB": {
            "Walk": [],
            "Run": []
          },
          "POLKCLOHPOO": true,
          "PGKCBIHGAOC": true,
          "DLAOMOCMANL": [
            "DoSkill"
          ],
          "LIPMJPLGIKD": true
        },
        "Turn": {
          "$type": "IJOIMFMEGMM",
          "DLOHGBDFFGB": {
            "TurnLeft": [],
            "TurnRight": []
          },
          "PGKCBIHGAOC": true,
          "DLAOMOCMANL": [
            "DoSkill"
          ],
          "LIPMJPLGIKD": true
        },
        "Die": {
          "$type": "IJOIMFMEGMM",
          "DLOHGBDFFGB": {
            "Die": [
              "Monster_Oceanid_Crane_Die"
            ]
          }
        },
        "Alert": {
          "$type": "IJOIMFMEGMM",
          "DLOHGBDFFGB": {
            "Alert": []
          },
          "POLKCLOHPOO": true,
          "DLAOMOCMANL": [
            "BeHit",
            "DoSkill"
          ]
        },
        "RushAtk_BS": {
          "$type": "IJOIMFMEGMM",
          "DLOHGBDFFGB": {
            "RushAtk_BS": [
              "Audio_Monster_Oceanid_Boar_RushAtk_BS"
            ]
          },
          "DLAOMOCMANL": [
            "BeHit",
            "DoSkill",
            "CrashTrigger"
          ],
          "LIPMJPLGIKD": true
        },
        "RushAtk": {
          "$type": "IJOIMFMEGMM",
          "DLOHGBDFFGB": {
            "RushAtk": []
          },
          "DLAOMOCMANL": [
            "BeHit",
            "DoSkill",
            "CrashTrigger",
            "RushAtkStop"
          ],
          "LIPMJPLGIKD": true
        },
        "RushAtk_AS": {
          "$type": "IJOIMFMEGMM",
          "DLOHGBDFFGB": {
            "RushAtk_AS": [
              "Audio_Monster_Oceanid_Boar_RushAtk_AS"
            ]
          },
          "DLAOMOCMANL": [
            "BeHit",
            "DoSkill",
            "CrashTrigger",
            "RushAtkStop"
          ],
          "LIPMJPLGIKD": true
        },
        "MeleeAtk": {
          "$type": "IJOIMFMEGMM",
          "DLOHGBDFFGB": {
            "MeleeAtk": [
              "Monster_Oceanid_Boar_MeleeAtk",
              "Audio_Monster_Oceanid_Boar_MeleeAtk"
            ]
          },
          "DLAOMOCMANL": [
            "BeHit",
            "DoSkill"
          ],
          "LIPMJPLGIKD": true
        },
        "RandomAction1": {
          "$type": "IJOIMFMEGMM",
          "DLOHGBDFFGB": {
            "RandomAction1": []
          },
          "DLAOMOCMANL": [
            "BeHit",
            "DoSkill"
          ],
          "LIPMJPLGIKD": true
        },
        "MeleeAttackTurn": {
          "$type": "IJOIMFMEGMM",
          "DLOHGBDFFGB": {
            "MeleeAttackTurn": []
          },
          "DLAOMOCMANL": [
            "BeHit",
            "DoSkill"
          ],
          "LIPMJPLGIKD": true
        },
        "MeleeAttackThrow": {
          "$type": "IJOIMFMEGMM",
          "DLOHGBDFFGB": {
            "MeleeAttackThrow": []
          },
          "DLAOMOCMANL": [
            "BeHit",
            "DoSkill"
          ],
          "LIPMJPLGIKD": true
        }
      }
    }
  },
  "billboard": {
    "$type": "PAOBAEKGGBC",
    "attachPoint": "BillboardAttach",
    "EMFFJPOKEKF": "Character",
    "LOMMBJLKPHE": 0.25,
    "KGHAGECNJPO": true,
    "JLCJBGKPEEC": 50.0,
    "musicSubStates": "Big"
  },
  "initialPoses": {
    "Default": {},
    "Free": {
      "initialPoseID": 2,
      "initialPoseParams": {
        "boolParams": {
          "Free": "true"
        }
      }
    },
    "Stand": {
      "initialPoseID": 3,
      "initialPoseParams": {
        "boolParams": {
          "Stand": "true"
        }
      }
    },
    "WindZone": {
      "initialPoseID": 4,
      "initialPoseParams": {
        "boolParams": {
          "WindZone": "true"
        }
      }
    }
  },
  "aibeta": {
    "enable": true,
    "moveSetting": {
      "moveCategory": "Amphibious",
      "useNavMesh": false,
      "navMeshAgentName": "Undead01"
    },
    "sensing": {
      "settings": {
        "DefaultSetting": {
          "feelRange": 50.0
        },
        "LowAlert": {
          "viewRange": 25.0,
          "horizontalFov": 90.0,
          "verticalFov": 45.0,
          "feelRange": 10.0
        },
        "StandAlert": {
          "viewRange": 0.0,
          "feelRange": 1.600000023841858
        },
        "SpecialLowAlert": {
          "feelRange": 8.0
        },
        "OnlyHitAlert": {
          "viewRange": 0.0,
          "hearAttractionRange": 0.0,
          "feelRange": 0.0,
          "sourcelessHitAttractionRange": 30.0
        }
      },
      "templates": {
        "DefaultTemplate": {
          "DefaultPoses": "DefaultSetting",
          "2": "LowAlert",
          "3": "StandAlert",
          "4": "StandAlert"
        },
        "LowAlertTemplate": {
          "DefaultPoses": "SpecialLowAlert",
          "2": "LowAlert",
          "3": "StandAlert",
          "4": "StandAlert"
        },
        "OnlyHitTemplate": {
          "DefaultPoses": "OnlyHitAlert"
        }
      }
    },
    "threat": {
      "feelThreatGrow": 100.0,
      "threatDecreaseSpeed": 100.0,
      "viewAttenuation": [
        {
          "x": 10.0,
          "y": 2.0
        },
        {
          "x": 15.0,
          "y": 1.25
        },
        {
          "x": 20.0,
          "y": 0.5
        }
      ],
      "JGFOPCOIJOI": ""
    },
    "defendArea": {
      "defendRange": 50.0
    },
    "skills": {
      "1": {
        "name": "OnAlert",
        "skillType": "OnAlert",
        "publicCDGroup": "",
        "ignoreGCD": true,
        "triggerGCD": false,
        "HGAMDGAEIGO": "",
        "stateIDs": [
          "Alert"
        ],
        "flagTargetReachable": "10",
        "flagSelfOnTemplateCollider": "01",
        "flagSelfInZone": "10",
        "flagTargetInZone": "11"
      },
      "201": {
        "name": "RushAtk",
        "castCondition": {
          "pose": [
            101
          ],
          "pickRangeMin": 7.5,
          "pickRangeMax": 15.0
        },
        "cd": 6.0,
        "cdUpperRange": 6.0,
        "initialCD": 2.5,
        "initialCDUpperRange": 2.5,
        "publicCDGroup": "Oceanid_meleeAttack_long",
        "HGAMDGAEIGO": "",
        "stateIDs": [
          "RushAtk",
          "RushAtk_BS",
          "RushAtk_AS"
        ],
        "flagTargetReachable": "10",
        "flagSelfOnTemplateCollider": "01",
        "flagSelfInZone": "10",
        "flagTargetInZone": "11"
      },
      "202": {
        "name": "RushAtk",
        "castCondition": {
          "pose": [
            101
          ],
          "pickRangeMax": 7.5
        },
        "cd": 15.0,
        "cdUpperRange": 10.0,
        "initialCD": 5.0,
        "initialCDUpperRange": 5.0,
        "publicCDGroup": "Oceanid_meleeAttack_long",
        "HGAMDGAEIGO": "",
        "stateIDs": [
          "RushAtk",
          "RushAtk_BS",
          "RushAtk_AS"
        ],
        "flagTargetReachable": "10",
        "flagSelfOnTemplateCollider": "01",
        "flagSelfInZone": "10",
        "flagTargetInZone": "11"
      },
      "211": {
        "name": "MeleeAtk",
        "castCondition": {
          "pose": [
            101
          ],
          "pickRangeMax": 6.5
        },
        "cd": 2.5,
        "cdUpperRange": 2.5,
        "publicCDGroup": "Oceanid_meleeAttack",
        "HGAMDGAEIGO": "",
        "stateIDs": [
          "MeleeAtk"
        ],
        "flagTargetReachable": "11",
        "flagSelfOnTemplateCollider": "01",
        "flagSelfInZone": "11",
        "flagTargetInZone": "11"
      },
      "301": {
        "name": "RandomAction1",
        "castCondition": {
          "pose": [
            101
          ]
        },
        "cd": 10.0,
        "cdUpperRange": 15.0,
        "initialCD": 10.0,
        "initialCDUpperRange": 5.0,
        "publicCDGroup": "",
        "HGAMDGAEIGO": "",
        "stateIDs": [
          "RandomAction1"
        ],
        "flagTargetReachable": "10",
        "flagSelfOnTemplateCollider": "01",
        "flagSelfInZone": "10",
        "flagTargetInZone": "11"
      },
      "302": {
        "name": "RandomAction1",
        "skillType": "Free",
        "castCondition": {
          "pose": [
            2
          ]
        },
        "cd": 5.0,
        "cdUpperRange": 5.0,
        "initialCDUpperRange": 5.0,
        "publicCDGroup": "",
        "HGAMDGAEIGO": "",
        "stateIDs": [
          "RandomAction1"
        ],
        "flagTargetReachable": "10",
        "flagSelfOnTemplateCollider": "01",
        "flagSelfInZone": "10",
        "flagTargetInZone": "11"
      },
      "303": {
        "name": "RandomAction1",
        "castCondition": {
          "pose": [
            4
          ]
        },
        "cd": 5.0,
        "cdUpperRange": 5.0,
        "publicCDGroup": "",
        "HGAMDGAEIGO": "",
        "stateIDs": [
          "RandomAction1"
        ],
        "flagTargetReachable": "10",
        "flagSelfOnTemplateCollider": "01",
        "flagSelfInZone": "10",
        "flagTargetInZone": "11"
      },
      "1001": {
        "name": "MeleeAttackWindZone",
        "castCondition": {
          "pose": [
            4
          ],
          "pickRangeMax": 2.5
        },
        "cd": 0.5,
        "publicCDGroup": "",
        "ignoreGCD": true,
        "triggerGCD": false,
        "HGAMDGAEIGO": "",
        "stateIDs": [
          "MeleeAttackTurn",
          "MeleeAttackThrow"
        ],
        "flagTargetReachable": "10",
        "flagSelfOnTemplateCollider": "01",
        "flagSelfInZone": "10",
        "flagTargetInZone": "11"
      }
    },
    "skillGCD": 3.0,
    "combatFixedMoveTactic": [
      {
        "$type": "BBIOKOJBHFG",
        "enable": true,
        "LMMKNFEMOMG": {
          "triggerDistance": 4.0,
          "IFCLJHAJFHD": 75.0,
          "NBBIJDCLJOF": 3.0,
          "MHMMABHJIIA": 5.0,
          "NLEBDDJGDAA": 0.5,
          "JOCOJHEICNA": ""
        }
      },
      {
        "$type": "BNAGECKMCIB",
        "enable": true,
        "FJANPNOAAFK": {
          "pose": [
            101
          ]
        },
        "LMMKNFEMOMG": {
          "KIHPEPHJMOG": 1,
          "GEAICNICJAJ": 1.0,
          "MPEMBMLOEDG": 3.5,
          "IJLGPEJGLEH": 99.0,
          "JKOGPCLFHCP": 3.5,
          "IHCAFCNDANA": 15.0,
          "JOCOJHEICNA": ""
        }
      },
      {
        "$type": "KMHBGMELMKD",
        "enable": true,
        "LMMKNFEMOMG": {
          "JOCOJHEICNA": "",
          "DBIELIMGBMC": ""
        }
      },
      {
        "$type": "GGKADEIBMLG",
        "enable": true,
        "FJANPNOAAFK": {
          "pose": [
            2
          ]
        },
        "LMMKNFEMOMG": {
          "GEAICNICJAJ": 0.25,
          "JIFJFPJANHO": 12.0,
          "CBKHBGCPFBG": 7.0,
          "EKDHNAGGGAE": 15.0,
          "BFEJAKFKKFP": 5.0,
          "KOAMKCEFJED": 7.0,
          "JOCOJHEICNA": ""
        }
      }
    ]
  },
  "inputKeys": [
    {
      "keyID": 201,
      "inputKeyCode": 257,
      "abilityName": ""
    },
    {
      "keyID": 211,
      "inputKeyCode": 258,
      "abilityName": ""
    },
    {
      "keyID": 301,
      "inputKeyCode": 259,
      "abilityName": ""
    }
  ],
  "move": {
    "$type": "IIGPJJNGCLE",
    "EIEIGIPKLAO": {
      "includeForces": [
        "RushMoveType"
      ]
    },
    "MEKENCHCEEN": false,
    "MLKCNHIIMCE": true,
    "FACNOEFNHIB": "RootNode"
  }
}