{
  "common": {
    "effectAttachShape": {
      "$type": "DPGKNHENGLM",
      "DDDEJPIFECG": "EffectMesh"
    },
    "mass": 80.0,
    "height": 0.6000000238418579,
    "viewSize": 1.75,
    "affectedByWorld": true,
    "checkInSurface": true,
    "clearAnimatorOnSetLightDeactive": true,
    "clearAIOnSetLightDeactive": true,
    "LOGFKHMLOOL": true
  },
  "headControl": {
    "$type": "NJIKCGBDNDF",
    "useHeadControl": true,
    "FMKKBCJKMPH": 45.0
  },
  "model": {
    "bornEffect": "",
    "attachEffect": "",
    "canBakeMesh": false
  },
  "dither": {
    "showDitherDuration": 2.0
  },
  "combat": {
    "property": {
      "endureType": "Monster_Grunt_Humanoid",
      "weight": 80.0
    },
    "beHit": {
      "hitBloodEffect": ""
    },
    "combatLock": {
      "lockShape": "CircleLockEnemy",
      "lockType": "Avatar&Monster_Lv4"
    },
    "die": {
      "dieEndTime": 0.20000000298023224,
      "dieForceDisappearTime": 1.0,
      "dieDisappearEffect": "",
      "dieShaderData": "MonsterDie",
      "muteHitBox": true,
      "dieDenyLockOn": true,
      "dieIsGhostToEnemy": true,
      "dieIgnoreTriggerBullet": true,
      "muteBillboard": true,
      "mutePushCollider": true
    },
    "animEvents": {
      "Activated_Barrage_Hit1": {
        "attackPattern": {
          "$type": "AGJFCPDIMCK",
          "triggerType": "TriggerNoRepeat",
          "born": {
            "$type": "PELLOJMAAMM",
            "offset": {
              "GNGDNIIPPNL": 0.0,
              "GIIMFINHIED": -2.0,
              "CLBCHJICOKH": 0.0
            },
            "attachPointName": "RootNode"
          },
          "height": 4.0,
          "LOACHGCADCO": 3.5
        },
        "attackInfo": {
          "attackTag": "",
          "attenuationTag": "",
          "attenuationGroup": "default",
          "attackProperty": {
            "HOGNHNAHNML": 1.0,
            "BAPILBAGBOJ": 0.0,
            "elementType": "Grass",
            "bonusCriticalHurt": 60.0,
            "strikeType": "Default",
            "enBreak": 100.0,
            "damagePercentage": 0.0
          },
          "hitPattern": {
            "onHitEffectName": "default",
            "hitImpulseType": "LV3",
            "retreatType": "ByHitDirection"
          },
          "canBeModifiedBy": "OriginOwner"
        }
      },
      "Activated_Barrage_Hit2": {
        "attackPattern": {
          "$type": "AGJFCPDIMCK",
          "triggerType": "TriggerNoRepeat",
          "born": {
            "$type": "PELLOJMAAMM",
            "offset": {
              "GNGDNIIPPNL": 0.0,
              "GIIMFINHIED": -2.0,
              "CLBCHJICOKH": 0.0
            },
            "attachPointName": "RootNode"
          },
          "height": 4.0,
          "LOACHGCADCO": 4.0
        },
        "attackInfo": {
          "attackTag": "",
          "attenuationTag": "",
          "attenuationGroup": "default",
          "attackProperty": {
            "HOGNHNAHNML": 1.0,
            "BAPILBAGBOJ": 0.0,
            "elementType": "Grass",
            "bonusCriticalHurt": 80.0,
            "strikeType": "Default",
            "enBreak": 100.0,
            "damagePercentage": 0.0
          },
          "hitPattern": {
            "onHitEffectName": "default",
            "hitImpulseType": "LV3",
            "retreatType": "ByHitDirection"
          },
          "canBeModifiedBy": "OriginOwner"
        }
      },
      "Activated_Barrage_Hit3": {
        "attackPattern": {
          "$type": "AGJFCPDIMCK",
          "triggerType": "TriggerNoRepeat",
          "born": {
            "$type": "PELLOJMAAMM",
            "offset": {
              "GNGDNIIPPNL": 0.0,
              "GIIMFINHIED": -2.0,
              "CLBCHJICOKH": 0.0
            },
            "attachPointName": "RootNode"
          },
          "height": 4.0,
          "LOACHGCADCO": 5.0
        },
        "attackInfo": {
          "attackTag": "",
          "attenuationTag": "",
          "attenuationGroup": "default",
          "attackProperty": {
            "HOGNHNAHNML": 1.0,
            "BAPILBAGBOJ": 0.0,
            "elementType": "Grass",
            "bonusCriticalHurt": 100.0,
            "strikeType": "Default",
            "enBreak": 100.0,
            "damagePercentage": 0.0
          },
          "hitPattern": {
            "onHitEffectName": "default",
            "hitImpulseType": "LV3",
            "retreatType": "ByHitDirection"
          },
          "canBeModifiedBy": "OriginOwner"
        }
      }
    }
  },
  "abilities": [
    {
      "abilityID": "",
      "abilityName": "Monster_Sylph_Activated_FaceChange",
      "abilityOverride": ""
    },
    {
      "abilityID": "",
      "abilityName": "Monster_Sylph_Grass_PoseHandler",
      "abilityOverride": ""
    },
    {
      "abilityID": "",
      "abilityName": "Monster_Sylph_Grass_PoseAction",
      "abilityOverride": ""
    },
    {
      "abilityID": "",
      "abilityName": "Monster_Sylph_Grass_Steer",
      "abilityOverride": ""
    },
    {
      "abilityID": "",
      "abilityName": "Monster_Sylph_Grass_ExitBattle",
      "abilityOverride": ""
    },
    {
      "abilityID": "",
      "abilityName": "Monster_Common_GrassMuteHurt",
      "abilityOverride": ""
    },
    {
      "abilityID": "",
      "abilityName": "Monster_Sylph_Grass_GrassBullet",
      "abilityOverride": ""
    },
    {
      "abilityID": "",
      "abilityName": "Monster_Sylph_Grass_GrassBulletTrigger",
      "abilityOverride": ""
    },
    {
      "abilityID": "",
      "abilityName": "Monster_Sylph_FlyHit",
      "abilityOverride": ""
    },
    {
      "abilityID": "",
      "abilityName": "Monster_Sylph_Grass_FlyHigh",
      "abilityOverride": ""
    },
    {
      "abilityID": "",
      "abilityName": "Monster_Sylph_Grass_Deathrattle",
      "abilityOverride": ""
    },
    {
      "abilityID": "",
      "abilityName": "Monster_Sylph_Grass_Activated_Barrage",
      "abilityOverride": ""
    },
    {
      "abilityID": "",
      "abilityName": "Monster_Sylph_Grass_Activated_Deathrattle",
      "abilityOverride": ""
    },
    {
      "abilityID": "",
      "abilityName": "Monster_Sylph_Deathrattle_PlayOnce",
      "abilityOverride": ""
    },
    {
      "abilityID": "",
      "abilityName": "Monster_Sylph_AlertnessTag",
      "abilityOverride": ""
    }
  ],
  "stateLayers": {
    "defaultLayer": {
      "$type": "EPAPJJAGHKG",
      "ACOCIAFGIAD": "",
      "stateIDs": {
        "Born": {
          "$type": "IJOIMFMEGMM",
          "DLOHGBDFFGB": {
            "Born": [
              "Monster_Sylph_Born"
            ]
          },
          "PGKCBIHGAOC": true,
          "DLAOMOCMANL": [
            "DoSkill"
          ]
        },
        "NormalIdle": {
          "$type": "IJOIMFMEGMM",
          "DLOHGBDFFGB": {
            "StandbyFree": [],
            "Standby": []
          },
          "POLKCLOHPOO": true,
          "PGKCBIHGAOC": true,
          "DLAOMOCMANL": [
            "DoSkill"
          ],
          "LIPMJPLGIKD": true
        },
        "Activated_Standby": {
          "$type": "IJOIMFMEGMM",
          "DLOHGBDFFGB": {
            "Activated_Standby": []
          },
          "POLKCLOHPOO": true,
          "PGKCBIHGAOC": true,
          "DLAOMOCMANL": [
            "DoSkill"
          ],
          "LIPMJPLGIKD": true
        },
        "NormalMove": {
          "$type": "IJOIMFMEGMM",
          "DLOHGBDFFGB": {
            "Activated_Fly": [],
            "Walk": [],
            "Activated_Walk": []
          },
          "POLKCLOHPOO": true,
          "PGKCBIHGAOC": true,
          "DLAOMOCMANL": [
            "DoSkill"
          ],
          "setAnimatorFloat": [
            {
              "name": "FlyMotionHor",
              "normalizeEnd": 0.0
            },
            {
              "name": "FlyMotionVer",
              "normalizeEnd": 0.0
            }
          ],
          "LIPMJPLGIKD": true
        },
        "NormalFly": {
          "$type": "IJOIMFMEGMM",
          "DLOHGBDFFGB": {
            "Fly": []
          },
          "POLKCLOHPOO": true,
          "PGKCBIHGAOC": true,
          "DLAOMOCMANL": [
            "DoSkill"
          ],
          "setAnimatorFloat": [
            {
              "name": "FlyMotionHor",
              "normalizeEnd": 0.0
            },
            {
              "name": "FlyMotionVer",
              "normalizeEnd": 0.0
            }
          ],
          "LIPMJPLGIKD": true,
          "PPKOODEDOFN": "BlendMove"
        },
        "HitThrow": {
          "$type": "IJOIMFMEGMM",
          "DLOHGBDFFGB": {
            "HitThrow": []
          },
          "PGKCBIHGAOC": true,
          "AJBLILDCLBO": [
            "BeHit"
          ],
          "JHAJFOOGLBA": true,
          "OOPPLFOAOGN": true
        },
        "HitThrowDrop": {
          "$type": "IJOIMFMEGMM",
          "DLOHGBDFFGB": {
            "HitThrowDrop": []
          },
          "PGKCBIHGAOC": true,
          "JHAJFOOGLBA": true,
          "OOPPLFOAOGN": true
        },
        "HitThrowToGround": {
          "$type": "IJOIMFMEGMM",
          "DLOHGBDFFGB": {
            "HitThrowToGround": []
          },
          "PGKCBIHGAOC": true,
          "DLAOMOCMANL": [
            "DoSkill"
          ],
          "JHAJFOOGLBA": true,
          "OOPPLFOAOGN": true
        },
        "Struggle": {
          "$type": "IJOIMFMEGMM",
          "DLOHGBDFFGB": {
            "Struggle": []
          },
          "AJBLILDCLBO": [
            "BeHit",
            "HitAir2HitDrop"
          ],
          "DLAOMOCMANL": [
            "DoSkill"
          ]
        },
        "BeHit": {
          "$type": "IJOIMFMEGMM",
          "DLOHGBDFFGB": {
            "Activated_Hit_H": []
          },
          "PGKCBIHGAOC": true,
          "AJBLILDCLBO": [
            "BeHit"
          ],
          "DLAOMOCMANL": [
            "DoSkill"
          ],
          "OOPPLFOAOGN": true
        },
        "Die": {
          "$type": "IJOIMFMEGMM",
          "DLOHGBDFFGB": {
            "Die": [
              "Audio_Monster_Sylph_Grass_Die"
            ],
            "Activated_Die": [
              "Audio_Monster_Sylph_Grass_Die_Activated"
            ]
          }
        },
        "Warning": {
          "$type": "IJOIMFMEGMM",
          "DLOHGBDFFGB": {
            "Warning": [
              "Monster_Sylph_Grass_Warning",
              "Audio_Monster_Sylph_Grass_Alert"
            ]
          },
          "PGKCBIHGAOC": true,
          "DLAOMOCMANL": [
            "BeHit",
            "DoSkill"
          ],
          "LIPMJPLGIKD": true
        },
        "GrassBullet": {
          "$type": "IJOIMFMEGMM",
          "DLOHGBDFFGB": {
            "GrassBullet": [
              "Monster_Sylph_Grass_GrassBullet",
              "Audio_Monster_Sylph_Grass_Bullet"
            ]
          },
          "LAKHIBAPNAB": true,
          "OGNDLAMHMPB": 0.009999999776482582,
          "DLAOMOCMANL": [
            "BeHit",
            "DoSkill"
          ],
          "LIPMJPLGIKD": true
        },
        "FlyHigh": {
          "$type": "IJOIMFMEGMM",
          "DLOHGBDFFGB": {
            "FlyHigh": [
              "Monster_Sylph_Grass_FlyHigh",
              "Audio_Monster_Sylph_Grass_FlyHigh"
            ]
          },
          "PGKCBIHGAOC": true,
          "LAKHIBAPNAB": true,
          "OGNDLAMHMPB": 0.009999999776482582,
          "DLAOMOCMANL": [
            "BeHit",
            "DoSkill"
          ],
          "LIPMJPLGIKD": true
        },
        "FlyHigh_AS1": {
          "$type": "IJOIMFMEGMM",
          "DLOHGBDFFGB": {
            "FlyHigh_AS1": [
              "Monster_Sylph_Grass_FlyHighAS1",
              "Audio_Monster_Sylph_Grass_FlyHigh_AS1"
            ]
          },
          "PGKCBIHGAOC": true,
          "LAKHIBAPNAB": true,
          "OGNDLAMHMPB": 0.009999999776482582,
          "DLAOMOCMANL": [
            "BeHit",
            "DoSkill"
          ],
          "LIPMJPLGIKD": true
        },
        "FlyHigh_AS2": {
          "$type": "IJOIMFMEGMM",
          "DLOHGBDFFGB": {
            "FlyHigh_AS2": [
              "Monster_Sylph_Grass_FlyHighAS2",
              "Audio_Monster_Sylph_Grass_FlyHigh_AS2"
            ]
          },
          "PGKCBIHGAOC": true,
          "LAKHIBAPNAB": true,
          "OGNDLAMHMPB": 0.009999999776482582,
          "DLAOMOCMANL": [
            "BeHit",
            "DoSkill"
          ],
          "LIPMJPLGIKD": true
        },
        "Deathrattle": {
          "$type": "IJOIMFMEGMM",
          "DLOHGBDFFGB": {
            "Deathrattle": [
              "Monster_Sylph_Die",
              "Monster_Sylph_Grass_Deathrattle_PlayOnce",
              "Audio_Monster_Sylph_Grass_Die"
            ]
          },
          "PGKCBIHGAOC": true,
          "DLAOMOCMANL": [
            "BeHit",
            "DoSkill"
          ]
        },
        "Activated": {
          "$type": "IJOIMFMEGMM",
          "DLOHGBDFFGB": {
            "Activated_BS": [
              "Monster_Sylph_Grass_Activated_Transform",
              "Audio_Monster_Sylph_Grass_Activated_BS"
            ],
            "Activated_AS": [
              "Audio_Monster_Sylph_Grass_Activated_AS"
            ]
          },
          "PGKCBIHGAOC": true,
          "DLAOMOCMANL": [
            "BeHit",
            "DoSkill"
          ]
        },
        "Activated_Barrage": {
          "$type": "IJOIMFMEGMM",
          "DLOHGBDFFGB": {
            "Activated_Barrage": [
              "Monster_Sylph_Grass_Activated_Barrage",
              "Audio_Monster_Sylph_Grass_Activated_Barrage"
            ]
          },
          "PGKCBIHGAOC": true,
          "LAKHIBAPNAB": true,
          "OGNDLAMHMPB": 0.009999999776482582,
          "DLAOMOCMANL": [
            "BeHit",
            "DoSkill"
          ],
          "LIPMJPLGIKD": true
        },
        "Activated_Deathrattle": {
          "$type": "IJOIMFMEGMM",
          "DLOHGBDFFGB": {
            "Activated_Deathrattle": [
              "Monster_Sylph_Grass_Deathrattle_PlayOnce",
              "Audio_Monster_Sylph_Grass_Die_Activated"
            ]
          },
          "PGKCBIHGAOC": true,
          "DLAOMOCMANL": [
            "BeHit",
            "DoSkill"
          ]
        },
        "Unactivated": {
          "$type": "IJOIMFMEGMM",
          "DLOHGBDFFGB": {
            "Unactivated": [
              "Audio_Monster_Sylph_Grass_Unactivated"
            ]
          },
          "PGKCBIHGAOC": true,
          "DLAOMOCMANL": [
            "BeHit",
            "DoSkill"
          ]
        }
      }
    }
  },
  "face": {
    "characterName": "Sylph_07",
    "baseFaceAnimation": "Default",
    "intervalFaceAnimation": "Blink",
    "minInterval": 1.5,
    "maxInterval": 5.5
  },
  "billboard": {
    "$type": "PAOBAEKGGBC",
    "attachPoint": "BillboardAttach",
    "offset": {
      "y": 0.5
    },
    "LOMMBJLKPHE": 1.0,
    "FMJAGHIMLEI": true,
    "KGHAGECNJPO": true
  },
  "initialPoses": {
    "Default": {
      "initialPoseID": 101
    }
  },
  "aibeta": {
    "enable": true,
    "moveSetting": {
      "useNavMesh": false,
      "navMeshAgentName": "Undead01"
    },
    "sensing": {
      "settings": {
        "DefaultSetting": {
          "viewRange": 22.0,
          "feelRange": 8.75
        }
      },
      "templates": {
        "DefaultTemplate": {
          "DefaultPoses": "DefaultSetting"
        }
      }
    },
    "threat": {
      "clearThreatTargetDistance": 30.0,
      "clearThreatEdgeDistance": 5.0,
      "clearThreatTimerByDistance": 2.0,
      "viewAttenuation": [
        {
          "x": 12.0,
          "y": 1.0
        },
        {
          "x": 20.0,
          "y": 0.5
        }
      ],
      "JGFOPCOIJOI": ""
    },
    "defendArea": {
      "defendRange": 50.0
    },
    "fly": {
      "enable": true,
      "floatingPoses": [
        101,
        201,
        301,
        211,
        311,
        901
      ]
    },
    "skills": {
      "100": {
        "name": "OnAlert",
        "skillType": "OnAlert",
        "faceTarget": true,
        "publicCDGroup": "",
        "triggerGCD": false,
        "HGAMDGAEIGO": "",
        "stateIDs": [
          "Warning"
        ],
        "skillQueryingTime": 3.0,
        "flagTargetReachable": "10",
        "flagSelfOnTemplateCollider": "01",
        "flagSelfInZone": "10",
        "flagTargetInZone": "11"
      },
      "201": {
        "name": "GrassBullet",
        "priority": 2,
        "castCondition": {
          "pose": [
            201
          ],
          "pickRangeMin": 5.0,
          "pickRangeMax": 18.0,
          "castRangeMin": 5.0,
          "castRangeMax": 15.0
        },
        "cd": 7.5,
        "publicCDGroup": "",
        "HGAMDGAEIGO": "",
        "stateIDs": [
          "GrassBullet"
        ],
        "flagTargetReachable": "11",
        "flagSelfOnTemplateCollider": "01",
        "flagSelfInZone": "11",
        "flagTargetInZone": "11"
      },
      "401": {
        "name": "FlyHigh",
        "castCondition": {
          "pose": [
            201
          ],
          "pickRangeMax": 12.0
        },
        "cd": 4.5,
        "publicCDGroup": "",
        "HGAMDGAEIGO": "",
        "stateIDs": [
          "FlyHigh",
          "FlyHigh_AS1",
          "FlyHigh_AS2"
        ],
        "flagTargetReachable": "11",
        "flagSelfOnTemplateCollider": "01",
        "flagSelfInZone": "11",
        "flagTargetInZone": "11"
      },
      "501": {
        "name": "Activated_Barrage",
        "castCondition": {
          "pose": [
            301
          ],
          "pickRangeMax": 3.5,
          "pickRangeYMax": 0.800000011920929,
          "castRangeMax": 3.5
        },
        "cd": 0.5,
        "publicCDGroup": "",
        "HGAMDGAEIGO": "",
        "stateIDs": [
          "Activated_Barrage"
        ],
        "flagTargetReachable": "11",
        "flagSelfOnTemplateCollider": "01",
        "flagSelfInZone": "11",
        "flagTargetInZone": "11"
      },
      "601": {
        "name": "Activated",
        "priority": 1,
        "castCondition": {
          "pose": [
            301
          ]
        },
        "cd": 999999.0,
        "initialCD": 9999999.0,
        "publicCDGroup": "",
        "HGAMDGAEIGO": "",
        "stateIDs": [
          "Activated"
        ],
        "flagTargetReachable": "11",
        "flagSelfOnTemplateCollider": "01",
        "flagSelfInZone": "11",
        "flagTargetInZone": "11"
      },
      "701": {
        "name": "Deathrattle",
        "priority": 1,
        "castCondition": {
          "pose": [
            211
          ]
        },
        "publicCDGroup": "",
        "HGAMDGAEIGO": "",
        "stateIDs": [
          "Deathrattle"
        ],
        "flagTargetReachable": "11",
        "flagSelfOnTemplateCollider": "01",
        "flagSelfInZone": "11",
        "flagTargetInZone": "11"
      },
      "801": {
        "name": "Activated_Deathrattle",
        "priority": 1,
        "castCondition": {
          "pose": [
            311
          ]
        },
        "publicCDGroup": "",
        "HGAMDGAEIGO": "",
        "stateIDs": [
          "Activated_Deathrattle"
        ],
        "flagTargetReachable": "11",
        "flagSelfOnTemplateCollider": "01",
        "flagSelfInZone": "11",
        "flagTargetInZone": "11"
      }
    },
    "skillGCD": 3.5,
    "combatFixedMoveTactic": [
      {
        "$type": "KMHBGMELMKD",
        "enable": true,
        "LMMKNFEMOMG": {
          "JOCGOKPMCKI": "Spacial",
          "JOCOJHEICNA": "",
          "DBIELIMGBMC": ""
        }
      },
      {
        "$type": "LFIIIPLGFDJ",
        "enable": true,
        "FJANPNOAAFK": {
          "pose": [
            201,
            301
          ]
        },
        "LMMKNFEMOMG": {
          "KIHPEPHJMOG": 2,
          "BDKHNABMMEK": 0.0,
          "NBAOLBHDNCP": 1.0,
          "JOCOJHEICNA": ""
        },
        "BIDHHBJEKHM": {
          "301": {
            "BDKHNABMMEK": -1.0,
            "NBAOLBHDNCP": 0.5,
            "JOCOJHEICNA": ""
          }
        }
      },
      {
        "$type": "APBKGIMHIEJ",
        "enable": true,
        "FJANPNOAAFK": {
          "pose": [
            201,
            301
          ]
        },
        "LMMKNFEMOMG": {
          "KIHPEPHJMOG": 2,
          "EJJMPMENNGE": 13.5,
          "GABOKKPIPGO": 5.5,
          "NCOONJCNMJO": 0.0,
          "EBNPDABAEEB": 1.0,
          "JOCOJHEICNA": "",
          "DBIELIMGBMC": ""
        },
        "BIDHHBJEKHM": {
          "301": {
            "KIHPEPHJMOG": 2,
            "EJJMPMENNGE": 3.5,
            "GABOKKPIPGO": 1.7999999523162842,
            "NCOONJCNMJO": 0.0,
            "EBNPDABAEEB": 0.5,
            "JOCOJHEICNA": "",
            "DBIELIMGBMC": ""
          }
        }
      },
      {
        "$type": "PJPGGLCGJNJ",
        "enable": true,
        "FJANPNOAAFK": {
          "pose": [
            201
          ]
        },
        "LMMKNFEMOMG": {
          "KIHPEPHJMOG": 2,
          "PKCPKDEDONG": 3.0,
          "AJCEMHKIMHA": 5.0,
          "JNMPGLIADPP": 8.5,
          "CCMODCEDODH": 1.0,
          "HJILEGNBBIJ": 1.5,
          "HKAMJKMPHDF": 3.0,
          "FDGLPPNHMLB": {
            "GECJAGFGHKL": 0.0,
            "GEECPOOOMFC": 0.20000000298023224,
            "KEFGIOIFNEO": 0.4000000059604645,
            "ALHLDKBBFON": 2.0,
            "JPDHFLJJOPA": 4.0,
            "LHDCEKHMLPD": 2.0,
            "BCLEGFPPNIG": 4.0,
            "PMHKNMGNLFB": 2.0,
            "CDGJBKJIKLO": 4.0,
            "CBBOCDCFLON": 1.0,
            "CAMIPILAAFF": 0.5,
            "BEBCCGKJANN": 2.0
          },
          "JOCOJHEICNA": "",
          "DBIELIMGBMC": ""
        }
      },
      {
        "$type": "PAHHOIMHFPA",
        "enable": true,
        "FJANPNOAAFK": {
          "pose": [
            101
          ]
        },
        "LMMKNFEMOMG": {
          "JIFJFPJANHO": 5.0,
          "CBKHBGCPFBG": 3.0,
          "LOJEKMFGAKH": 0.30000001192092896,
          "LFGIDEOEKIB": 1.0,
          "EKDHNAGGGAE": 12.0,
          "BFEJAKFKKFP": 4.0,
          "KOAMKCEFJED": 7.5,
          "OJNLFIJFJIN": true,
          "JOCOJHEICNA": "",
          "DBIELIMGBMC": ""
        }
      }
    ]
  },
  "inputKeys": [
    {
      "keyID": 100,
      "inputKeyCode": 257,
      "abilityName": ""
    },
    {
      "keyID": 201,
      "inputKeyCode": 258,
      "abilityName": ""
    },
    {
      "keyID": 301,
      "inputKeyCode": 259,
      "abilityName": ""
    },
    {
      "keyID": 401,
      "inputKeyCode": 260,
      "abilityName": ""
    },
    {
      "keyID": 501,
      "inputKeyCode": 261,
      "abilityName": ""
    },
    {
      "keyID": 601,
      "inputKeyCode": 262,
      "abilityName": ""
    },
    {
      "keyID": 701,
      "inputKeyCode": 263,
      "abilityName": ""
    },
    {
      "keyID": 801,
      "inputKeyCode": 264,
      "abilityName": ""
    }
  ],
  "move": {
    "$type": "IIGPJJNGCLE",
    "EIEIGIPKLAO": {
      "excludeForces": [
        "RetreatAirType"
      ]
    },
    "EPDJOKGCLPD": true,
    "MLKCNHIIMCE": true,
    "MIPNOGBEANL": "AirBlend",
    "IJMIGIDACLP": "AirBlend",
    "BEPOPLDKJOP": "SlimeType",
    "EKMHGNLHCNM": 2.0,
    "FACNOEFNHIB": "RootNode"
  },
  "audio": {
    "KEEAIACIJBN": "",
    "animAudio": {
      "onTransitionIn": [
        {
          "currentStateName": "",
          "audioEvent": {
            "text": ""
          }
        }
      ],
      "onTransitionOut": [
        {
          "currentStateName": "Hit_H_AS",
          "audioEvent": {
            "text": "Stop_sfx_monster_sylph_grass_hit_H_AS"
          }
        },
        {
          "currentStateName": "Activated_Barrage",
          "audioEvent": {
            "text": "Stop_sfx_monster_sylph_grass_activated_barrage"
          }
        },
        {
          "currentStateName": "FlyHigh",
          "audioEvent": {
            "text": "Stop_sfx_monster_sylph_grass_flyHigh"
          }
        }
      ]
    }
  }
}