{
  "common": {
    "effectAttachShape": {
      "$type": "DPGKNHENGLM",
      "DDDEJPIFECG": "EffectMesh"
    },
    "mass": 1000.0,
    "height": 1.2000000476837158,
    "modelHeight": 0.4000000059604645,
    "viewSize": 2.0,
    "shadowViewSizeRatio": 0.5,
    "affectedByWorld": true,
    "checkInSurface": true,
    "scale": 4.0,
    "useGrassDisplacement": true
  },
  "model": {
    "bornEffect": "",
    "attachEffect": "",
    "canBakeMesh": false
  },
  "combat": {
    "property": {
      "endureType": "Monster_Grunt_Other",
      "weight": 100.0
    },
    "beHit": {
      "hitBloodEffect": "",
      "hitAutoRedirect": false
    },
    "combatLock": {
      "lockShape": "CircleLockEnemy",
      "lockType": "Avatar&Monster_Lv4"
    },
    "die": {
      "dieEndTime": 2.0,
      "dieForceDisappearTime": 8.0,
      "dieDisappearEffect": "",
      "muteHitBox": true,
      "dieDenyLockOn": true,
      "dieIsGhostToEnemy": true,
      "dieIgnoreTriggerBullet": true,
      "muteBillboard": true,
      "mutePushCollider": true
    },
    "animEvents": {
      "NormalAtk": {
        "attackPattern": {
          "$type": "AGJFCPDIMCK",
          "triggerType": "TriggerNoRepeat",
          "born": {
            "$type": "NKOODKOFELF",
            "offset": {
              "GNGDNIIPPNL": 0.0,
              "GIIMFINHIED": 0.0,
              "CLBCHJICOKH": 0.5
            }
          },
          "IAMPMDAOKJL": 150.0,
          "LOACHGCADCO": 1.5
        },
        "attackInfo": {
          "attackTag": "",
          "attenuationTag": "",
          "attenuationGroup": "default",
          "attackProperty": {
            "HOGNHNAHNML": 0.3330000042915344,
            "BAPILBAGBOJ": 0.0,
            "bonusCriticalHurt": 100.0,
            "strikeType": "Blunt",
            "enBreak": 50.0,
            "attackType": "Melee",
            "damagePercentage": 0.0
          },
          "hitPattern": {
            "onHitEffectName": "default",
            "hitImpulseType": "LV4",
            "hitHaltTimeScale": 0.009999999776482582
          }
        }
      },
      "NormalAtk_Electric": {
        "attackPattern": {
          "$type": "AGJFCPDIMCK",
          "triggerType": "TriggerNoRepeat",
          "born": {
            "$type": "NKOODKOFELF",
            "offset": {
              "GNGDNIIPPNL": 0.0,
              "GIIMFINHIED": 0.0,
              "CLBCHJICOKH": 0.5
            }
          },
          "IAMPMDAOKJL": 150.0,
          "LOACHGCADCO": 1.5
        },
        "attackInfo": {
          "attackTag": "",
          "attenuationTag": "",
          "attenuationGroup": "default",
          "attackProperty": {
            "HOGNHNAHNML": 0.3330000042915344,
            "BAPILBAGBOJ": 0.0,
            "elementType": "Electric",
            "bonusCriticalHurt": 50.0,
            "strikeType": "Blunt",
            "enBreak": 100.0,
            "attackType": "Melee",
            "damagePercentage": 0.0
          },
          "hitPattern": {
            "onHitEffectName": "default",
            "hitImpulseType": "LV4",
            "hitHaltTimeScale": 0.009999999776482582
          }
        }
      }
    }
  },
  "equipController": {
    "sheathPoint": "",
    "attachPoints": {
      "equip01": "WeaponR",
      "equip02": "WeaponL"
    }
  },
  "abilities": [
    {
      "abilityID": "ResistShock",
      "abilityName": "Slime_Electric_ResistShock",
      "abilityOverride": ""
    },
    {
      "abilityID": "ElementState",
      "abilityName": "Slime_Electric_03_Positive_ElementState",
      "abilityOverride": ""
    },
    {
      "abilityID": "AnimationSteer",
      "abilityName": "Slime_Electric_AnimationSteer",
      "abilityOverride": ""
    },
    {
      "abilityID": "JumpGround_castShadow",
      "abilityName": "Slime_Electric_JumpGround_castShadow",
      "abilityOverride": ""
    },
    {
      "abilityID": "JumpGround_Alert",
      "abilityName": "Slime_Electric_JumpGround_Alert",
      "abilityOverride": ""
    },
    {
      "abilityID": "JumpGround_Attack",
      "abilityName": "Slime_Electric_JumpGround_Attack",
      "abilityOverride": ""
    },
    {
      "abilityID": "TestTool_Discharge",
      "abilityName": "Slime_Electric_TestTool_Discharge",
      "abilityOverride": "",
      "lightWeightRemove": true
    },
    {
      "abilityID": "ElecMuteHurt",
      "abilityName": "Monster_Common_ElecMuteHurt",
      "abilityOverride": ""
    }
  ],
  "stateLayers": {
    "defaultLayer": {
      "$type": "EPAPJJAGHKG",
      "ACOCIAFGIAD": "",
      "stateIDs": {
        "Born": {
          "$type": "IJOIMFMEGMM",
          "DLOHGBDFFGB": {
            "Born": [
              "Monster_Slime_Born_03",
              "Audio_Slime_03_Born_H"
            ]
          },
          "PGKCBIHGAOC": true,
          "DLAOMOCMANL": [
            "DoSkill"
          ]
        },
        "NormalIdle": {
          "$type": "IJOIMFMEGMM",
          "DLOHGBDFFGB": {
            "Standby": []
          },
          "POLKCLOHPOO": true,
          "PGKCBIHGAOC": true,
          "DLAOMOCMANL": [
            "DoSkill"
          ]
        },
        "NormalMove": {
          "$type": "IJOIMFMEGMM",
          "DLOHGBDFFGB": {
            "Walk": [
              "Audio_Slime_03_Walk_H"
            ],
            "Run": [
              "Audio_Slime_03_Run_H"
            ]
          },
          "POLKCLOHPOO": true,
          "PGKCBIHGAOC": true,
          "DLAOMOCMANL": [
            "DoSkill"
          ],
          "LIPMJPLGIKD": true
        },
        "Turn": {
          "$type": "IJOIMFMEGMM",
          "DLOHGBDFFGB": {
            "Turn": [
              "Audio_Slime_03_Run_H"
            ]
          },
          "POLKCLOHPOO": true,
          "PGKCBIHGAOC": true,
          "DLAOMOCMANL": [
            "DoSkill"
          ]
        },
        "BeHit": {
          "$type": "IJOIMFMEGMM",
          "DLOHGBDFFGB": {
            "Hit_L": [
              "Monster_Slime_BeHit",
              "Audio_Slime_03_Hit_L"
            ],
            "Hit_H": [
              "Monster_Slime_BeHit",
              "Audio_Slime_03_Hit_H"
            ]
          },
          "AJBLILDCLBO": [
            "BeHit"
          ],
          "DLAOMOCMANL": [
            "DoSkill"
          ]
        },
        "BeHitThrow": {
          "$type": "IJOIMFMEGMM",
          "DLOHGBDFFGB": {
            "HitThrow": [
              "Monster_Slime_BeHit",
              "Audio_Slime_03_HitThrow_H"
            ],
            "HitThrowDrop": [],
            "HitThrowToGround": [
              "Monster_Slime_ThrowToGround_03",
              "Audio_Slime_03_HitThrowToGround_H"
            ]
          },
          "AJBLILDCLBO": [
            "BeHit",
            "HitAir2HitDrop"
          ],
          "DLAOMOCMANL": [
            "DoSkill"
          ]
        },
        "Struggle": {
          "$type": "IJOIMFMEGMM",
          "DLOHGBDFFGB": {
            "Struggle": []
          },
          "AJBLILDCLBO": [
            "BeHit",
            "HitAir2HitDrop"
          ],
          "DLAOMOCMANL": [
            "DoSkill"
          ]
        },
        "Die": {
          "$type": "IJOIMFMEGMM",
          "DLOHGBDFFGB": {
            "Die": [
              "Monster_Slime_Die",
              "Monster_Slime_Electric_03_Positive_Die"
            ],
            "SwimDie": [
              "Monster_Slime_Die",
              "Monster_Slime_Electric_03_Positive_Die"
            ]
          }
        },
        "Warning": {
          "$type": "IJOIMFMEGMM",
          "DLOHGBDFFGB": {
            "Warning": [
              "Monster_Slime_Warning"
            ]
          },
          "DLAOMOCMANL": [
            "BeHit",
            "DoSkill"
          ]
        },
        "Charge": {
          "$type": "IJOIMFMEGMM",
          "DLOHGBDFFGB": {
            "Charge": [
              "Monster_Slime_Electric_03_Positive_Charge"
            ]
          },
          "OGNDLAMHMPB": 0.4000000059604645,
          "DLAOMOCMANL": [
            "BeHit",
            "DoSkill"
          ]
        },
        "TestTool_Discharge": {
          "$type": "IJOIMFMEGMM",
          "DLOHGBDFFGB": {
            "TestTool_Discharge": [
              "Monster_Slime_Electric_TestTool_Discharge"
            ]
          },
          "DLAOMOCMANL": [
            "BeHit",
            "DoSkill"
          ]
        },
        "NormalAttack": {
          "$type": "IJOIMFMEGMM",
          "DLOHGBDFFGB": {
            "NormalAttack": [
              "Monster_Slime_Electric_03_NormalAttack",
              "Audio_Slime_03_NormalAtk_H"
            ]
          },
          "DLAOMOCMANL": [
            "BeHit",
            "DoSkill"
          ]
        },
        "JumpAttack": {
          "$type": "IJOIMFMEGMM",
          "DLOHGBDFFGB": {
            "JumpAttack": [
              "Monster_Slime_Electric_JumpAttack",
              "Audio_Slime_03_JumpAtk_H"
            ]
          },
          "LAKHIBAPNAB": true,
          "OGNDLAMHMPB": 0.4000000059604645,
          "NKBIEPDEJAO": 20.0,
          "DLAOMOCMANL": [
            "BeHit",
            "DoSkill"
          ]
        }
      }
    }
  },
  "face": {
    "characterName": "Slime_01",
    "baseFaceAnimation": "Default",
    "intervalFaceAnimation": "Blink",
    "minInterval": 1.5,
    "maxInterval": 5.5
  },
  "billboard": {
    "$type": "PAOBAEKGGBC",
    "attachPoint": "BillboardAttach",
    "EMFFJPOKEKF": "Character",
    "LOMMBJLKPHE": 1.0,
    "KGHAGECNJPO": true,
    "musicSubStates": "Big"
  },
  "initialPoses": {
    "Default": {}
  },
  "aibeta": {
    "enable": true,
    "sensing": {
      "settings": {
        "DefaultSetting": {
          "viewRange": 20.0,
          "feelRange": 8.0
        },
        "NeverCombat": {
          "enableVision": false,
          "hearAttractionRange": 0.0,
          "feelRange": 0.0
        }
      },
      "templates": {
        "DefaultTemplate": {
          "DefaultPoses": "DefaultSetting"
        },
        "NeverCombatTemplate": {
          "DefaultPoses": "NeverCombat"
        }
      }
    },
    "neurons": {
      "DefaultSetting": [
        "HIT"
      ],
      "NeverCombat": []
    },
    "threat": {
      "clearThreatTargetDistance": 30.0,
      "clearThreatEdgeDistance": 2.5,
      "clearThreatTimerByDistance": 2.5,
      "viewAttenuation": [
        {
          "x": 12.0,
          "y": 1.0
        },
        {
          "x": 20.0,
          "y": 0.5
        }
      ],
      "JGFOPCOIJOI": ""
    },
    "profiling": {
      "moveCullingLevel": 2
    },
    "skills": {
      "100": {
        "name": "OnAlert",
        "skillType": "OnAlert",
        "faceTarget": true,
        "publicCDGroup": "",
        "triggerGCD": false,
        "HGAMDGAEIGO": "",
        "stateIDs": [
          "Warning"
        ],
        "skillQueryingTime": 3.0,
        "flagTargetReachable": "10",
        "flagSelfOnTemplateCollider": "01",
        "flagSelfInZone": "10",
        "flagTargetInZone": "11"
      },
      "209": {
        "name": "Reborn_Free",
        "skillType": "Free",
        "castCondition": {
          "pose": [
            1
          ]
        },
        "cd": 0.25,
        "publicCDGroup": "",
        "HGAMDGAEIGO": "",
        "stateIDs": [
          "Charge"
        ],
        "flagTargetReachable": "10",
        "flagSelfOnTemplateCollider": "01",
        "flagSelfInZone": "10",
        "flagTargetInZone": "11"
      },
      "201": {
        "name": "Reborn",
        "castCondition": {
          "pose": [
            2
          ]
        },
        "cd": 0.25,
        "publicCDGroup": "",
        "HGAMDGAEIGO": "",
        "stateIDs": [
          "Charge"
        ],
        "flagTargetReachable": "10",
        "flagSelfOnTemplateCollider": "01",
        "flagSelfInZone": "10",
        "flagTargetInZone": "11"
      },
      "202": {
        "name": "Reborn",
        "castCondition": {
          "pose": [
            2
          ]
        },
        "cd": 0.25,
        "publicCDGroup": "",
        "HGAMDGAEIGO": "",
        "stateIDs": [
          "Charge"
        ],
        "flagTargetReachable": "10",
        "flagSelfOnTemplateCollider": "01",
        "flagSelfInZone": "01",
        "flagTargetInZone": "11"
      },
      "203": {
        "name": "Reborn",
        "castCondition": {
          "pose": [
            2
          ]
        },
        "cd": 0.25,
        "publicCDGroup": "",
        "HGAMDGAEIGO": "",
        "stateIDs": [
          "Charge"
        ],
        "flagTargetReachable": "01",
        "flagSelfOnTemplateCollider": "01",
        "flagSelfInZone": "10",
        "flagTargetInZone": "11"
      },
      "204": {
        "name": "Reborn",
        "castCondition": {
          "pose": [
            2
          ]
        },
        "cd": 0.25,
        "publicCDGroup": "",
        "HGAMDGAEIGO": "",
        "stateIDs": [
          "Charge"
        ],
        "flagTargetReachable": "01",
        "flagSelfOnTemplateCollider": "01",
        "flagSelfInZone": "01",
        "flagTargetInZone": "11"
      },
      "301": {
        "name": "NormalAttack",
        "combatSkillType": "MeleeAttack",
        "castCondition": {
          "pose": [
            102
          ],
          "pickRangeMax": 2.25
        },
        "cd": 2.0,
        "cdUpperRange": 3.0,
        "publicCDGroup": "",
        "HGAMDGAEIGO": "",
        "stateIDs": [
          "NormalAttack"
        ],
        "flagTargetReachable": "10",
        "flagSelfOnTemplateCollider": "01",
        "flagSelfInZone": "10",
        "flagTargetInZone": "11"
      },
      "302": {
        "name": "NormalAttack",
        "combatSkillType": "MeleeAttack",
        "castCondition": {
          "pose": [
            102
          ],
          "pickRangeMax": 2.25
        },
        "cd": 2.0,
        "cdUpperRange": 3.0,
        "publicCDGroup": "",
        "HGAMDGAEIGO": "",
        "stateIDs": [
          "NormalAttack"
        ],
        "flagTargetReachable": "10",
        "flagSelfOnTemplateCollider": "01",
        "flagSelfInZone": "01",
        "flagTargetInZone": "11"
      },
      "303": {
        "name": "NormalAttack",
        "combatSkillType": "MeleeAttack",
        "castCondition": {
          "pose": [
            2,
            3
          ],
          "pickRangeMax": 2.25
        },
        "cd": 5.0,
        "cdUpperRange": 3.0,
        "publicCDGroup": "",
        "HGAMDGAEIGO": "",
        "stateIDs": [
          "NormalAttack"
        ],
        "flagTargetReachable": "10",
        "flagSelfOnTemplateCollider": "01",
        "flagSelfInZone": "10",
        "flagTargetInZone": "11"
      },
      "304": {
        "name": "NormalAttack",
        "combatSkillType": "MeleeAttack",
        "castCondition": {
          "pose": [
            2,
            3
          ],
          "pickRangeMax": 2.25
        },
        "cd": 5.0,
        "cdUpperRange": 3.0,
        "publicCDGroup": "",
        "HGAMDGAEIGO": "",
        "stateIDs": [
          "NormalAttack"
        ],
        "flagTargetReachable": "10",
        "flagSelfOnTemplateCollider": "01",
        "flagSelfInZone": "01",
        "flagTargetInZone": "11"
      },
      "305": {
        "name": "NormalAttack",
        "castCondition": {
          "pose": [
            103
          ],
          "pickRangeMax": 2.25
        },
        "cd": 3.0,
        "publicCDGroup": "",
        "HGAMDGAEIGO": "",
        "stateIDs": [
          "NormalAttack"
        ],
        "flagTargetReachable": "10",
        "flagSelfOnTemplateCollider": "01",
        "flagSelfInZone": "10",
        "flagTargetInZone": "11"
      },
      "306": {
        "name": "NormalAttack",
        "castCondition": {
          "pose": [
            103
          ],
          "pickRangeMax": 2.25
        },
        "cd": 3.0,
        "publicCDGroup": "",
        "HGAMDGAEIGO": "",
        "stateIDs": [
          "NormalAttack"
        ],
        "flagTargetReachable": "10",
        "flagSelfOnTemplateCollider": "01",
        "flagSelfInZone": "01",
        "flagTargetInZone": "11"
      },
      "501": {
        "name": "JumpAttack",
        "priority": 2,
        "castCondition": {
          "pose": [
            102
          ],
          "pickRangeMax": 7.5
        },
        "cd": 7.5,
        "cdUpperRange": 7.5,
        "initialCD": 2.0,
        "initialCDUpperRange": 3.0,
        "publicCDGroup": "meleeAttack_long",
        "HGAMDGAEIGO": "",
        "stateIDs": [
          "JumpAttack"
        ],
        "flagTargetReachable": "10",
        "flagSelfOnTemplateCollider": "01",
        "flagSelfInZone": "10",
        "flagTargetInZone": "11"
      },
      "502": {
        "name": "",
        "combatSkillType": "MeleeAttack",
        "priority": 2,
        "castCondition": {
          "pose": [
            2,
            3
          ],
          "pickRangeMax": 3.0
        },
        "cd": 5.0,
        "cdUpperRange": 5.0,
        "publicCDGroup": "",
        "HGAMDGAEIGO": "",
        "stateIDs": [
          "JumpAttack"
        ],
        "flagTargetReachable": "10",
        "flagSelfOnTemplateCollider": "01",
        "flagSelfInZone": "10",
        "flagTargetInZone": "11"
      }
    },
    "skillGCD": 3.0,
    "combatFixedMoveTactic": [
      {
        "$type": "DIIPKNMAPAC",
        "enable": true,
        "FJANPNOAAFK": {
          "pose": [
            103
          ]
        },
        "LMMKNFEMOMG": {
          "rangeMin": 0.0,
          "rangeMax": 12.5,
          "MMKHHBIBJEN": {
            "GEECPOOOMFC": 0.0,
            "NFMBIOFFKGK": 0.0,
            "JNJFKLDABCB": 0.0,
            "BEJLOBBENJJ": 0.0
          },
          "HEGPGPBKGFH": "1111",
          "AFCLIFKCEKM": "1111",
          "JOCOJHEICNA": ""
        }
      },
      {
        "$type": "BBIOKOJBHFG",
        "enable": true,
        "LMMKNFEMOMG": {
          "triggerDistance": 4.0,
          "IFCLJHAJFHD": 75.0,
          "NBBIJDCLJOF": 3.0,
          "MHMMABHJIIA": 5.0,
          "NLEBDDJGDAA": 0.5,
          "JOCOJHEICNA": ""
        }
      },
      {
        "$type": "BNAGECKMCIB",
        "enable": true,
        "FJANPNOAAFK": {
          "pose": [
            2,
            3,
            102,
            103
          ]
        },
        "LMMKNFEMOMG": {
          "MPEMBMLOEDG": 5.0,
          "IJLGPEJGLEH": 50.0,
          "JKOGPCLFHCP": 4.5,
          "NKGJBMONBFL": false,
          "JOCOJHEICNA": ""
        },
        "BIDHHBJEKHM": {
          "103": {
            "MPEMBMLOEDG": 12.5,
            "IJLGPEJGLEH": 50.0,
            "JKOGPCLFHCP": 12.5,
            "IHCAFCNDANA": 12.5,
            "NKGJBMONBFL": false,
            "JOCOJHEICNA": ""
          }
        }
      },
      {
        "$type": "KMHBGMELMKD",
        "enable": true
      },
      {
        "$type": "GGKADEIBMLG",
        "enable": true,
        "LMMKNFEMOMG": {
          "JIFJFPJANHO": 10.0,
          "CBKHBGCPFBG": 3.0,
          "EKDHNAGGGAE": 15.0,
          "BFEJAKFKKFP": 2.5,
          "KOAMKCEFJED": 7.5,
          "JOCOJHEICNA": ""
        }
      }
    ]
  },
  "inputKeys": [
    {
      "keyID": 1,
      "inputKeyCode": 257,
      "abilityName": ""
    },
    {
      "keyID": 201,
      "inputKeyCode": 258,
      "abilityName": ""
    },
    {
      "keyID": 301,
      "inputKeyCode": 259,
      "abilityName": ""
    },
    {
      "keyID": 5,
      "inputKeyCode": 260,
      "abilityName": ""
    },
    {
      "keyID": 701,
      "inputKeyCode": 261,
      "abilityName": ""
    },
    {
      "keyID": 9,
      "inputKeyCode": 262,
      "abilityName": ""
    }
  ],
  "move": {
    "$type": "IIGPJJNGCLE",
    "BEPOPLDKJOP": "SlimeType",
    "FACNOEFNHIB": "RootNode"
  },
  "audio": {
    "KEEAIACIJBN": "",
    "animAudio": {
      "onTransitionOut": [
        {
          "currentStateName": "JumpAttack",
          "audioEvent": {
            "text": "Stop_sfx_monster_slimeL_jumpAtk"
          }
        }
      ]
    }
  },
  "field": {
    "concernType": "CombatExcludeGWGO",
    "shape": "CircleR15",
    "ignoreScale": true,
    "fromShape": "",
    "triggerInfinite": true,
    "lifeInfinite": true,
    "checkInterval": 0.5,
    "overwriteCampType": true,
    "campType": "SelfCamp",
    "colliderName": "",
    "fromColliderName": ""
  }
}