{
  "common": {
    "effectAttachShape": {
      "$type": "DPGKNHENGLM",
      "DDDEJPIFECG": "EffectMesh"
    },
    "mass": 10000.0,
    "height": 2.799999952316284,
    "viewSize": 1.2000000476837158,
    "affectedByWorld": true,
    "checkInSurface": true,
    "scale": 1.5,
    "useGrassDisplacement": true,
    "clearAIOnSetLightDeactive": true,
    "BKPPECPBMBF": true,
    "LOGFKHMLOOL": true,
    "elementReactionScale": [
      {
        "HBFPHCHJMDP": "EffectMesh01Point",
        "NPHCJACKFPF": "EffectMesh01"
      },
      {
        "HBFPHCHJMDP": "EffectMesh02Point",
        "NPHCJACKFPF": "EffectMesh02"
      }
    ]
  },
  "headControl": {
    "$type": "NJIKCGBDNDF",
    "useHeadControl": true,
    "IKIJCPNMBHI": 45.0,
    "FMKKBCJKMPH": 10.0,
    "speed": 2.0,
    "FDPCOFKGCHG": [
      "NormalIdle/Standby",
      "TurnBack",
      "Attack_04_Jump_Hit",
      "Attack_04_Jump_2",
      "Attack_04",
      "Attack_05",
      "Attack_04_Jump",
      "Attack_02",
      "Attack_02_Jump_Back",
      "Attack_01_Hit",
      "Attack_01_RunHit",
      "Attack_01_BS",
      "Attack_01_Run",
      "Attack_01_Jump",
      "Alert"
    ]
  },
  "specialPoint": {
    "elementAbsorb": "RootNode",
    "elementPendant": "",
    "elementDrop": "RootNode",
    "bulletAim": "Knee",
    "selectedPoints": [
      "SelectedPoint1"
    ],
    "selectedPointRadius": 0.5
  },
  "model": {
    "bornEffect": "Eff_Monster_Common_Born",
    "attachEffect": ""
  },
  "dither": {
    "showDitherDuration": 2.0
  },
  "combat": {
    "property": {
      "endureType": "Monster_Demiboss_Other",
      "weight": 150.0
    },
    "beHit": {
      "hitBloodEffect": ""
    },
    "combatLock": {
      "lockShape": "CircleLockEnemy",
      "lockType": "Avatar&Monster_Lv4"
    },
    "die": {
      "hasAnimatorDie": true,
      "dieEndTime": 1.7999999523162842,
      "dieForceDisappearTime": 1.7999999523162842,
      "dieDisappearEffect": "Eff_Death_Common",
      "dieShaderData": "MonsterDie",
      "muteHitBox": true,
      "dieDenyLockOn": true,
      "dieIsGhostToEnemy": true,
      "dieIgnoreTriggerBullet": true,
      "muteBillboard": true,
      "mutePushCollider": true
    },
    "animEvents": {
      "AtkNo": {
        "attackPattern": {
          "$type": "AGJFCPDIMCK",
          "triggerType": "TriggerNoRepeat",
          "born": {
            "$type": "NKOODKOFELF",
            "offset": {
              "GNGDNIIPPNL": 0.0,
              "GIIMFINHIED": 0.0,
              "CLBCHJICOKH": -0.5
            }
          },
          "IAMPMDAOKJL": 60.0,
          "LOACHGCADCO": 1.5
        },
        "attackInfo": {
          "attackTag": "",
          "attenuationTag": "",
          "attenuationGroup": "default",
          "attackProperty": {
            "HOGNHNAHNML": 0.5,
            "BAPILBAGBOJ": 0.0,
            "bonusCriticalHurt": 100.0,
            "strikeType": "Blunt",
            "attackType": "Melee",
            "damagePercentage": 0.0
          },
          "hitPattern": {
            "onHitEffectName": "default",
            "hitImpulseType": "LV2",
            "hitHaltTimeScale": 0.009999999776482582
          }
        }
      },
      "Atk01_1": {
        "attackPattern": {
          "$type": "AGJFCPDIMCK",
          "triggerType": "TriggerNoRepeat",
          "born": {
            "$type": "NKOODKOFELF",
            "offset": {
              "GNGDNIIPPNL": 0.0,
              "GIIMFINHIED": 0.0,
              "CLBCHJICOKH": 0.0
            }
          },
          "height": 3.0,
          "IAMPMDAOKJL": 90.0,
          "LOACHGCADCO": 6.0
        },
        "attackInfo": {
          "attackTag": "",
          "attenuationTag": "",
          "attenuationGroup": "default",
          "attackProperty": {
            "HOGNHNAHNML": 0.30000001192092896,
            "BAPILBAGBOJ": 0.0,
            "elementType": "Grass",
            "bonusCriticalHurt": 30.0,
            "strikeType": "Blunt",
            "enBreak": 200.0,
            "attackType": "Melee",
            "damagePercentage": 0.0
          },
          "hitPattern": {
            "onHitEffectName": "default",
            "hitImpulseType": "LV4",
            "hitHaltTimeScale": 0.009999999776482582
          }
        }
      },
      "Atk01_2": {
        "attackPattern": {
          "$type": "AGJFCPDIMCK",
          "triggerType": "TriggerNoRepeat",
          "born": {
            "$type": "NKOODKOFELF",
            "offset": {
              "GNGDNIIPPNL": 0.0,
              "GIIMFINHIED": 0.0,
              "CLBCHJICOKH": 0.0
            }
          },
          "height": 3.0,
          "IAMPMDAOKJL": 90.0,
          "LOACHGCADCO": 6.0
        },
        "attackInfo": {
          "attackTag": "",
          "attenuationTag": "",
          "attenuationGroup": "default",
          "attackProperty": {
            "HOGNHNAHNML": 0.4000000059604645,
            "BAPILBAGBOJ": 0.0,
            "elementType": "Grass",
            "bonusCriticalHurt": 30.0,
            "strikeType": "Blunt",
            "enBreak": 200.0,
            "attackType": "Melee",
            "damagePercentage": 0.0
          },
          "hitPattern": {
            "onHitEffectName": "default",
            "hitImpulseType": "LV4",
            "hitHaltTimeScale": 0.009999999776482582
          }
        }
      },
      "SacredAttack01_Hit1": {
        "attackPattern": {
          "$type": "HGDDHLFAONH",
          "triggerType": "TriggerNoRepeat",
          "born": {
            "$type": "NKOODKOFELF",
            "offset": {
              "GNGDNIIPPNL": 0.0,
              "GIIMFINHIED": 0.0,
              "CLBCHJICOKH": 1.0
            }
          },
          "musicSubStates": {
            "GNGDNIIPPNL": 2.0,
            "GIIMFINHIED": 4.0,
            "CLBCHJICOKH": 2.0
          }
        },
        "attackInfo": {
          "attackTag": "",
          "attenuationTag": "",
          "attenuationGroup": "default",
          "attackProperty": {
            "HOGNHNAHNML": 0.30000001192092896,
            "BAPILBAGBOJ": 0.0,
            "elementType": "Grass",
            "bonusCriticalHurt": 30.0,
            "strikeType": "Blunt",
            "enBreak": 200.0,
            "attackType": "Melee",
            "damagePercentage": 0.0
          },
          "hitPattern": {
            "onHitEffectName": "default",
            "hitImpulseType": "LV3",
            "hitHaltTimeScale": 0.009999999776482582
          }
        }
      },
      "SacredAttack01_Hit2": {
        "attackPattern": {
          "$type": "AGJFCPDIMCK",
          "triggerType": "TriggerNoRepeat",
          "born": {
            "$type": "NKOODKOFELF",
            "offset": {
              "GNGDNIIPPNL": 0.0,
              "GIIMFINHIED": -1.0,
              "CLBCHJICOKH": 1.0
            }
          },
          "height": 4.0,
          "IAMPMDAOKJL": 120.0,
          "LOACHGCADCO": 4.0
        },
        "attackInfo": {
          "attackTag": "",
          "attenuationTag": "",
          "attenuationGroup": "default",
          "attackProperty": {
            "HOGNHNAHNML": 0.5,
            "BAPILBAGBOJ": 0.0,
            "elementType": "Grass",
            "bonusCriticalHurt": 30.0,
            "strikeType": "Blunt",
            "enBreak": 200.0,
            "attackType": "Melee",
            "damagePercentage": 0.0
          },
          "hitPattern": {
            "onHitEffectName": "default",
            "hitImpulseType": "LV3",
            "hitHaltTimeScale": 0.009999999776482582,
            "forceRetreat": true
          }
        }
      },
      "SacredAttack01_Hit3": {
        "attackPattern": {
          "$type": "AGJFCPDIMCK",
          "triggerType": "TriggerNoRepeat",
          "born": {
            "$type": "NKOODKOFELF",
            "offset": {
              "GNGDNIIPPNL": 0.0,
              "GIIMFINHIED": -1.0,
              "CLBCHJICOKH": 0.0
            }
          },
          "height": 4.0,
          "IAMPMDAOKJL": 240.0,
          "LOACHGCADCO": 5.0
        },
        "attackInfo": {
          "attackTag": "",
          "attenuationTag": "",
          "attenuationGroup": "default",
          "attackProperty": {
            "HOGNHNAHNML": 0.699999988079071,
            "BAPILBAGBOJ": 0.0,
            "elementType": "Grass",
            "bonusCriticalHurt": 30.0,
            "strikeType": "Blunt",
            "enBreak": 200.0,
            "attackType": "Melee",
            "damagePercentage": 0.0
          },
          "hitPattern": {
            "onHitEffectName": "default",
            "hitImpulseType": "LV3",
            "hitHaltTimeScale": 0.009999999776482582
          }
        }
      },
      "SacredAttack02_NearHit": {
        "attackPattern": {
          "$type": "HGDDHLFAONH",
          "triggerType": "TriggerNoRepeat",
          "born": {
            "$type": "NKOODKOFELF",
            "offset": {
              "GNGDNIIPPNL": 0.0,
              "GIIMFINHIED": 0.0,
              "CLBCHJICOKH": 0.0
            }
          },
          "musicSubStates": {
            "GNGDNIIPPNL": 8.0,
            "GIIMFINHIED": 4.0,
            "CLBCHJICOKH": 6.0
          }
        },
        "attackInfo": {
          "attackTag": "",
          "attenuationTag": "",
          "attenuationGroup": "default",
          "attackProperty": {
            "HOGNHNAHNML": 1.0,
            "BAPILBAGBOJ": 0.0,
            "elementType": "Grass",
            "bonusCriticalHurt": 30.0,
            "strikeType": "Blunt",
            "enBreak": 200.0,
            "damagePercentage": 0.0
          },
          "hitPattern": {
            "onHitEffectName": "default",
            "hitImpulseType": "LV5",
            "hitHaltTimeScale": 0.05000000074505806
          }
        }
      },
      "SacredAttack03_Hit1": {
        "attackPattern": {
          "$type": "AGJFCPDIMCK",
          "triggerType": "TriggerNoRepeat",
          "born": {
            "$type": "NKOODKOFELF",
            "offset": {
              "GNGDNIIPPNL": 0.0,
              "GIIMFINHIED": -1.0,
              "CLBCHJICOKH": 0.0
            }
          },
          "height": 4.0,
          "IAMPMDAOKJL": 120.0,
          "LOACHGCADCO": 4.199999809265137
        },
        "attackInfo": {
          "attackTag": "",
          "attenuationTag": "",
          "attenuationGroup": "default",
          "attackProperty": {
            "HOGNHNAHNML": 0.6000000238418579,
            "BAPILBAGBOJ": 0.0,
            "elementType": "Grass",
            "bonusCriticalHurt": 30.0,
            "strikeType": "Blunt",
            "enBreak": 200.0,
            "attackType": "Melee",
            "damagePercentage": 0.0
          },
          "hitPattern": {
            "onHitEffectName": "default",
            "hitImpulseType": "LV3",
            "hitHaltTimeScale": 0.009999999776482582
          }
        }
      },
      "SacredAttack03_Hit2": {
        "attackPattern": {
          "$type": "HGDDHLFAONH",
          "triggerType": "TriggerNoRepeat",
          "born": {
            "$type": "NKOODKOFELF",
            "offset": {
              "GNGDNIIPPNL": 1.0,
              "GIIMFINHIED": 0.0,
              "CLBCHJICOKH": 1.0
            }
          },
          "musicSubStates": {
            "GNGDNIIPPNL": 4.0,
            "GIIMFINHIED": 6.0,
            "CLBCHJICOKH": 3.0
          }
        },
        "attackInfo": {
          "attackTag": "",
          "attenuationTag": "",
          "attenuationGroup": "default",
          "attackProperty": {
            "HOGNHNAHNML": 0.699999988079071,
            "BAPILBAGBOJ": 0.0,
            "elementType": "Grass",
            "bonusCriticalHurt": 30.0,
            "strikeType": "Blunt",
            "enBreak": 200.0,
            "attackType": "Melee",
            "damagePercentage": 0.0
          },
          "hitPattern": {
            "onHitEffectName": "default",
            "hitImpulseType": "LV3",
            "hitHaltTimeScale": 0.009999999776482582
          }
        }
      },
      "SacredAttack04_PreHit": {
        "attackPattern": {
          "$type": "HGDDHLFAONH",
          "triggerType": "TriggerNoRepeat",
          "born": {
            "$type": "NKOODKOFELF",
            "offset": {
              "GNGDNIIPPNL": 0.0,
              "GIIMFINHIED": 0.0,
              "CLBCHJICOKH": 0.0
            }
          },
          "musicSubStates": {
            "GNGDNIIPPNL": 2.0,
            "GIIMFINHIED": 4.0,
            "CLBCHJICOKH": 3.0
          }
        },
        "attackInfo": {
          "attackTag": "",
          "attenuationTag": "",
          "attenuationGroup": "default",
          "attackProperty": {
            "HOGNHNAHNML": 0.10000000149011612,
            "BAPILBAGBOJ": 0.0,
            "elementType": "Grass",
            "bonusCriticalHurt": 30.0,
            "strikeType": "Blunt",
            "enBreak": 200.0,
            "damagePercentage": 0.0
          },
          "hitPattern": {
            "onHitEffectName": "default",
            "hitImpulseType": "LV3",
            "retreatType": "ByTangent",
            "hitHaltTimeScale": 0.05000000074505806
          }
        }
      },
      "SacredAttack04_Hit": {
        "attackPattern": {
          "$type": "AGJFCPDIMCK",
          "triggerType": "TriggerNoRepeat",
          "born": {
            "$type": "NKOODKOFELF",
            "offset": {
              "GNGDNIIPPNL": 0.0,
              "GIIMFINHIED": -1.0,
              "CLBCHJICOKH": 0.0
            }
          },
          "height": 4.0,
          "LOACHGCADCO": 4.5
        },
        "attackInfo": {
          "attackTag": "",
          "attenuationTag": "",
          "attenuationGroup": "default",
          "attackProperty": {
            "HOGNHNAHNML": 0.800000011920929,
            "BAPILBAGBOJ": 0.0,
            "elementType": "Grass",
            "bonusCriticalHurt": 30.0,
            "strikeType": "Blunt",
            "enBreak": 200.0,
            "attackType": "Melee",
            "damagePercentage": 0.0
          },
          "hitPattern": {
            "onHitEffectName": "default",
            "hitImpulseType": "LV3",
            "hitHaltTimeScale": 0.009999999776482582
          }
        }
      }
    }
  },
  "stateLayers": {
    "defaultLayer": {
      "$type": "EPAPJJAGHKG",
      "ACOCIAFGIAD": "",
      "stateIDs": {
        "NormalIdle": {
          "$type": "IJOIMFMEGMM",
          "DLOHGBDFFGB": {
            "Standby": [],
            "Born": []
          },
          "POLKCLOHPOO": true,
          "PGKCBIHGAOC": true,
          "DLAOMOCMANL": [
            "DoSkill"
          ]
        },
        "Sit": {
          "$type": "IJOIMFMEGMM",
          "DLOHGBDFFGB": {
            "Sit": []
          },
          "POLKCLOHPOO": true,
          "PGKCBIHGAOC": true,
          "DLAOMOCMANL": [
            "DoSkill"
          ]
        },
        "Lying": {
          "$type": "IJOIMFMEGMM",
          "DLOHGBDFFGB": {
            "Lying": []
          },
          "POLKCLOHPOO": true,
          "PGKCBIHGAOC": true,
          "DLAOMOCMANL": [
            "DoSkill"
          ]
        },
        "Run": {
          "$type": "IJOIMFMEGMM",
          "DLOHGBDFFGB": {
            "Run": []
          },
          "POLKCLOHPOO": true,
          "PGKCBIHGAOC": true,
          "DLAOMOCMANL": [
            "DoSkill"
          ],
          "LIPMJPLGIKD": true
        },
        "Walk": {
          "$type": "IJOIMFMEGMM",
          "DLOHGBDFFGB": {
            "WalkForward": [],
            "WalkBack": []
          },
          "POLKCLOHPOO": true,
          "PGKCBIHGAOC": true,
          "DLAOMOCMANL": [
            "DoSkill"
          ],
          "LIPMJPLGIKD": true
        },
        "Front_Jump": {
          "$type": "IJOIMFMEGMM",
          "DLOHGBDFFGB": {
            "Front_Jump": []
          },
          "PGKCBIHGAOC": true,
          "DLAOMOCMANL": [
            "DoSkill"
          ],
          "LIPMJPLGIKD": true
        },
        "Back_Jump": {
          "$type": "IJOIMFMEGMM",
          "DLOHGBDFFGB": {
            "Back_Jump": []
          },
          "PGKCBIHGAOC": true,
          "DLAOMOCMANL": [
            "DoSkill"
          ],
          "LIPMJPLGIKD": true
        },
        "NoTurn": {
          "$type": "IJOIMFMEGMM",
          "DLOHGBDFFGB": {
            "NoTurn": []
          },
          "POLKCLOHPOO": true,
          "PGKCBIHGAOC": true,
          "DLAOMOCMANL": [
            "DoSkill"
          ],
          "LIPMJPLGIKD": true
        },
        "TurnLeft": {
          "$type": "IJOIMFMEGMM",
          "DLOHGBDFFGB": {
            "TurnLeft": []
          },
          "POLKCLOHPOO": true,
          "DJOGMGLGAEN": 0.10000000149011612,
          "PGKCBIHGAOC": true,
          "DLAOMOCMANL": [
            "DoSkill"
          ],
          "LIPMJPLGIKD": true
        },
        "TurnRight": {
          "$type": "IJOIMFMEGMM",
          "DLOHGBDFFGB": {
            "TurnRight": []
          },
          "POLKCLOHPOO": true,
          "DJOGMGLGAEN": 0.10000000149011612,
          "PGKCBIHGAOC": true,
          "DLAOMOCMANL": [
            "DoSkill"
          ],
          "LIPMJPLGIKD": true
        },
        "TurnBack": {
          "$type": "IJOIMFMEGMM",
          "DLOHGBDFFGB": {
            "TurnBack": []
          },
          "POLKCLOHPOO": true,
          "DJOGMGLGAEN": 0.10000000149011612,
          "PGKCBIHGAOC": true,
          "DLAOMOCMANL": [
            "DoSkill"
          ],
          "LIPMJPLGIKD": true,
          "ODINBNMGLGA": true
        },
        "BeHit": {
          "$type": "IJOIMFMEGMM",
          "DLOHGBDFFGB": {
            "Hit_L": []
          },
          "AJBLILDCLBO": [
            "BeHit"
          ],
          "DLAOMOCMANL": [
            "DoSkill"
          ]
        },
        "Die": {
          "$type": "IJOIMFMEGMM",
          "DLOHGBDFFGB": {
            "Die": []
          },
          "AJBLILDCLBO": [
            "DoSkill"
          ]
        },
        "Personality1": {
          "$type": "IJOIMFMEGMM",
          "DLOHGBDFFGB": {
            "Personality1": []
          },
          "POLKCLOHPOO": true,
          "DLAOMOCMANL": [
            "BeHit",
            "DoSkill"
          ]
        },
        "Sacred_Attack04_BS": {
          "$type": "IJOIMFMEGMM",
          "DLOHGBDFFGB": {
            "Sacred_Attack04_BS": []
          },
          "PGKCBIHGAOC": true,
          "LAKHIBAPNAB": true,
          "OGNDLAMHMPB": 0.009999999776482582,
          "DLAOMOCMANL": [
            "BeHit",
            "DoSkill"
          ],
          "LIPMJPLGIKD": true
        },
        "Sacred_Attack04_Loop": {
          "$type": "IJOIMFMEGMM",
          "DLOHGBDFFGB": {
            "Sacred_Attack04_Loop": []
          },
          "LAKHIBAPNAB": true,
          "OGNDLAMHMPB": 0.009999999776482582,
          "DLAOMOCMANL": [
            "BeHit",
            "DoSkill"
          ],
          "LIPMJPLGIKD": true
        },
        "Sacred_Attack04_AS": {
          "$type": "IJOIMFMEGMM",
          "DLOHGBDFFGB": {
            "Sacred_Attack04_AS": []
          },
          "PGKCBIHGAOC": true,
          "LAKHIBAPNAB": true,
          "OGNDLAMHMPB": 0.009999999776482582,
          "DLAOMOCMANL": [
            "BeHit",
            "DoSkill"
          ],
          "LIPMJPLGIKD": true
        }
      }
    }
  },
  "billboard": {
    "$type": "PAOBAEKGGBC",
    "attachPoint": "BillboardAttach",
    "offset": {
      "x": -0.30000001192092896,
      "y": -0.5
    },
    "EMFFJPOKEKF": "Character",
    "showDistance": 48.0,
    "musicSubStates": "Grand"
  },
  "initialPoses": {
    "Default": {
      "initialPoseID": 1
    }
  },
  "aibeta": {
    "enable": true,
    "moveSetting": {
      "navMeshAgentName": "Undead01"
    },
    "sensing": {
      "settings": {
        "DefaultSetting": {
          "viewRange": 99.0,
          "feelRange": 99.0
        }
      },
      "templates": {
        "DefaultTemplate": {
          "DefaultPoses": "DefaultSetting"
        }
      }
    },
    "threat": {
      "clearThreatEdgeDistance": 2.0,
      "clearThreatByLostPath": true,
      "viewAttenuation": [
        {
          "x": 10.0,
          "y": 2.0
        },
        {
          "x": 15.0,
          "y": 0.800000011920929
        },
        {
          "x": 20.0,
          "y": 0.5
        },
        {
          "x": 25.0,
          "y": 0.30000001192092896
        },
        {
          "x": 30.0,
          "y": 0.20000000298023224
        }
      ],
      "resistTauntLevel": "Monster_TauntLevel_3",
      "JGFOPCOIJOI": ""
    },
    "order": {
      "commandSetting": {
        "DFPEGKHHOIC": [
          90301
        ]
      }
    },
    "defendArea": {
      "defendRange": 50.0
    },
    "network": {
      "syncSkill": true
    },
    "skills": {
      "501": {
        "name": "Front_Jump",
        "castCondition": {
          "pose": [
            201
          ],
          "pickRangeMin": 9.0
        },
        "cd": 8.0,
        "cdUpperRange": 4.0,
        "publicCDGroup": "",
        "HGAMDGAEIGO": "",
        "stateIDs": [
          "Front_Jump"
        ],
        "flagTargetReachable": "11",
        "flagSelfOnTemplateCollider": "11",
        "flagSelfInZone": "11",
        "flagTargetInZone": "11"
      },
      "502": {
        "name": "Back_Jump",
        "castCondition": {
          "pose": [
            201
          ],
          "pickRangeMax": 4.0
        },
        "cd": 8.0,
        "cdUpperRange": 4.0,
        "publicCDGroup": "",
        "HGAMDGAEIGO": "",
        "stateIDs": [
          "Back_Jump"
        ],
        "flagTargetReachable": "11",
        "flagSelfOnTemplateCollider": "11",
        "flagSelfInZone": "11",
        "flagTargetInZone": "11"
      },
      "631": {
        "name": "Sacred_Attack04",
        "combatSkillType": "RangedAttack",
        "castCondition": {
          "pose": [
            201
          ],
          "pickRangeMax": 99.0
        },
        "cd": 99.0,
        "cdUpperRange": 4.0,
        "publicCDGroup": "",
        "HGAMDGAEIGO": "",
        "stateIDs": [
          "Sacred_Attack04_BS",
          "Sacred_Attack04_Loop",
          "Sacred_Attack04_AS"
        ],
        "commandID": 90301,
        "flagTargetReachable": "11",
        "flagSelfOnTemplateCollider": "11",
        "flagSelfInZone": "11",
        "flagTargetInZone": "11"
      }
    },
    "combatFixedMoveTactic": [
      {
        "$type": "BBIOKOJBHFG",
        "enable": true,
        "LMMKNFEMOMG": {
          "KIHPEPHJMOG": 1,
          "IFCLJHAJFHD": 75.0,
          "NBBIJDCLJOF": 4.0,
          "MHMMABHJIIA": 6.0,
          "NLEBDDJGDAA": 0.5,
          "JOCOJHEICNA": ""
        }
      },
      {
        "$type": "DIIPKNMAPAC",
        "enable": true,
        "FJANPNOAAFK": {
          "pose": [
            201
          ]
        },
        "LMMKNFEMOMG": {
          "rangeMin": 18.0,
          "rangeMax": 45.0,
          "MMKHHBIBJEN": {
            "GECJAGFGHKL": 2.0,
            "GEECPOOOMFC": 0.5,
            "NFMBIOFFKGK": 0.5,
            "JNJFKLDABCB": 0.0,
            "BEJLOBBENJJ": 0.0
          },
          "HEGPGPBKGFH": "1111",
          "AFCLIFKCEKM": "1111",
          "JOCOJHEICNA": ""
        }
      }
    ]
  },
  "inputKeys": [
    {
      "keyID": 601,
      "inputKeyCode": 257,
      "abilityName": ""
    },
    {
      "keyID": 631,
      "inputKeyCode": 258,
      "abilityName": ""
    }
  ],
  "move": {
    "$type": "IIGPJJNGCLE",
    "EIEIGIPKLAO": {
      "excludeForces": [
        "RetreatAirType"
      ]
    },
    "MIPNOGBEANL": "ForwardBackward",
    "OMMMNBNJHAI": true,
    "ELNPBLONMHJ": true,
    "FACNOEFNHIB": "RootNode"
  },
  "audio": {
    "KEEAIACIJBN": "",
    "animAudio": {}
  }
}