{
  "common": {
    "effectAttachShape": {
      "$type": "DPGKNHENGLM",
      "DDDEJPIFECG": "EffectMesh"
    },
    "mass": 20.0,
    "height": 0.800000011920929,
    "viewSize": 3.0,
    "affectedByWorld": true,
    "checkInSurface": true,
    "scale": 3.0,
    "canTriggerElementReactionText": false,
    "clearAnimatorOnSetLightDeactive": true,
    "clearAIOnSetLightDeactive": true
  },
  "model": {
    "bornEffect": "",
    "attachEffect": "",
    "canBakeMesh": false
  },
  "dither": {
    "startDitherAction": {
      "enable": true
    }
  },
  "combat": {
    "property": {
      "endureType": "Monster_Minion",
      "weight": 30.0,
      "isInvincible": true
    },
    "beHit": {
      "hitBloodEffect": "",
      "muteAllHitText": true
    },
    "combatLock": {
      "lockShape": "CircleLockEnemy",
      "denyLockOn": true,
      "lockType": "Default"
    },
    "die": {
      "dieEndTime": 0.009999999776482582,
      "dieForceDisappearTime": 10.0,
      "dieDisappearEffect": ""
    }
  },
  "abilities": [
    {
      "abilityID": "",
      "abilityName": "Animal_Common_Initial",
      "abilityOverride": ""
    },
    {
      "abilityID": "",
      "abilityName": "Animal_Fishable_Ray_Stellamarisidae_02_StateManager",
      "abilityOverride": ""
    }
  ],
  "stateLayers": {
    "defaultLayer": {
      "$type": "EPAPJJAGHKG",
      "ACOCIAFGIAD": "",
      "stateIDs": {
        "Born": {
          "$type": "IJOIMFMEGMM",
          "DLOHGBDFFGB": {
            "Born": []
          },
          "PGKCBIHGAOC": true,
          "DLAOMOCMANL": [
            "DoSkill"
          ],
          "CFGLPEBAODG": true
        },
        "NormalIdle": {
          "$type": "IJOIMFMEGMM",
          "DLOHGBDFFGB": {
            "Standby": []
          },
          "PGKCBIHGAOC": true,
          "DLAOMOCMANL": [
            "DoSkill"
          ]
        },
        "NormalMove": {
          "$type": "IJOIMFMEGMM",
          "DLOHGBDFFGB": {
            "Walk": [],
            "Run": []
          },
          "PGKCBIHGAOC": true,
          "DLAOMOCMANL": [
            "DoSkill"
          ],
          "LIPMJPLGIKD": true
        },
        "Turn": {
          "$type": "IJOIMFMEGMM",
          "DLOHGBDFFGB": {
            "Turn_Walk": [],
            "Turn_Run": []
          },
          "PGKCBIHGAOC": true,
          "DLAOMOCMANL": [
            "DoSkill"
          ],
          "LIPMJPLGIKD": true
        },
        "BeHit": {
          "$type": "IJOIMFMEGMM",
          "DLOHGBDFFGB": {
            "Hit_L": []
          },
          "AJBLILDCLBO": [
            "BeHit"
          ],
          "DLAOMOCMANL": [
            "DoSkill"
          ]
        },
        "Die": {
          "$type": "IJOIMFMEGMM",
          "DLOHGBDFFGB": {
            "Die": []
          }
        }
      }
    }
  },
  "initialPoses": {
    "Default": {}
  },
  "aibeta": {
    "enable": true,
    "friendliness": 1,
    "decisionArchetype": "Animal_Ray",
    "moveSetting": {
      "useNavMesh": false,
      "navMeshAgentName": "Undead01"
    },
    "sensing": {
      "settings": {
        "DefaultSetting": {
          "enableVision": false,
          "hearAttractionRange": 9.0,
          "feelRange": 9.0
        }
      }
    },
    "neurons": {
      "DefaultSetting": [
        "HIT"
      ]
    },
    "threat": {
      "feelThreatGrow": 1000.0,
      "threatBroadcastRange": 5.0,
      "JGFOPCOIJOI": ""
    },
    "defendArea": {
      "defendRange": 100.0
    },
    "fly": {
      "enable": true,
      "floatingPoses": [
        101,
        102,
        201
      ]
    },
    "ui": {
      "hasDirectionIndicator": false,
      "FLMOHOODJBA": ""
    },
    "mixin": {
      "setControllerParameterOnBeHitByEntityType": [
        {
          "poseIDs": [
            1,
            2,
            101,
            201,
            401
          ],
          "settings": [
            {
              "entityTypes": [
                "Bullet",
                "Avatar",
                "Field",
                "Gadget"
              ],
              "onSuccess": {
                "setPoseBool": [
                  {
                    "boolID": "Flee_State",
                    "ratio": true
                  }
                ]
              },
              "onFail": {
                "setPoseBool": [
                  {
                    "boolID": "Flee_State",
                    "ratio": true
                  }
                ]
              }
            }
          ]
        }
      ]
    },
    "combatFixedMoveTactic": [
      {
        "$type": "PKJINFHNMGA",
        "enable": true,
        "FJANPNOAAFK": {
          "pose": [
            201
          ]
        },
        "LMMKNFEMOMG": {
          "GGPCLEBKNNO": ""
        }
      },
      {
        "$type": "CMCHFECOPPI",
        "enable": true,
        "FJANPNOAAFK": {
          "pose": [
            101,
            102
          ]
        },
        "LMMKNFEMOMG": {
          "DCEODHLDKCJ": 0.800000011920929,
          "GAHPENGCPFA": 0.800000011920929,
          "JOCGOKPMCKI": "Spacial",
          "JOCOJHEICNA": "",
          "DBIELIMGBMC": ""
        }
      }
    ]
  },
  "move": {
    "$type": "IIGPJJNGCLE",
    "EIEIGIPKLAO": {
      "excludeForces": [
        "RetreatType",
        "RetreatAirType",
        "WindZoneType",
        "AirflowType"
      ]
    },
    "FACNOEFNHIB": "RootNode"
  },
  "animal": {
    "hasCharacterRenderering": false
  }
}