{
  "18195": {
    "fishBornPosList": [
      {
        "rotation": {
          "x": 4.2316829779189805e+21,
          "z": 1.8167219796917852e+31
        }
      }
    ]
  },
  "104": {},
  "0": {},
  "65": {},
  "63": {},
  "132533402": {},
  "22": {},
  "33": {
    "maxFishCount": 5121,
    "fishBornPosList": [
      {},
      {},
      {},
      {
        "BOIJMPNEPFO": {
          "x": 2.3511683481077015e-38
        }
      },
      {
        "BOIJMPNEPFO": {
          "x": 4.4716969720351335e+21,
          "y": 6.325755352691562e+28,
          "z": 1.5274592377946387e+28
        }
      },
      {
        "BOIJMPNEPFO": {
          "x": 1.4935816890015043e+28,
          "z": 1.0900999370722084e+27
        }
      },
      {
        "BOIJMPNEPFO": {
          "z": 8.868768391696236e-33
        },
        "rotation": {
          "x": 2.157298985828056e-41,
          "y": 2388.0703125,
          "z": 13.962499618530273
        }
      },
      {
        "rotation": {
          "x": 1.7033015112459354e+19
        }
      },
      {
        "BOIJMPNEPFO": {
          "x": 1.8524801249896525e+28,
          "y": 6.8848288411067074e+22,
          "z": 6.730756194254735e+22
        },
        "rotation": {
          "y": 7.4936693461279935e+31,
          "z": 7.36040040491774e+22
        }
      },
      {
        "rotation": {
          "x": 2.350990383202732e-38
        }
      },
      {
        "rotation": {
          "z": 1.875746870473265e+28
        }
      },
      {
        "BOIJMPNEPFO": {},
        "rotation": {
          "x": 33.001220703125
        }
      },
      {
        "BOIJMPNEPFO": {
          "y": 9.125349044799805
        },
        "rotation": {
          "x": 1.7251429798782173e+19,
          "z": 1.1307535622618307e+24
        }
      },
      {
        "BOIJMPNEPFO": {
          "x": 1.7589389309047403e+22,
          "y": 9.740552562983973e-35
        },
        "rotation": {
          "z": 1.7780723226006764e+25
        }
      }
    ]
  },
  "108": {},
  "66": {},
  "6": {},
  "64": {},
  "1": {
    "maxFishCount": 1
  },
  "8352": {},
  "11": {}
}