{
  "MDJNFHAJPAD": {
    "FAIKDMCHPEL": {
      "$type": "DPGKNHENGLM",
      "DDDEJPIFECG": "EffectMesh"
    },
    "FINMNFLLAMB": 30.0,
    "MBMBBGOGNHF": true,
    "DIEPJBNIPBG": true,
    "FNLMEPDMMMD": 1.2000000476837158,
    "GJDONABEMOA": true,
    "JBIPDEEPIMN": true,
    "GJKLEPPOKDJ": true
  },
  "LBGLCHLIKJP": {
    "$type": "NJIKCGBDNDF",
    "HONCKGMDJEK": true,
    "FDPCOFKGCHG": [
      "NormalIdle/Standby",
      "NormalMove/Walk",
      "NormalMove/Run",
      "Turn/TurnLeft",
      "Turn/TurnRight"
    ]
  },
  "PJEANIPCFFN": {
    "CKAIGCFDCMG": "Eff_Monster_Common_Born",
    "KHGAHHAIJFJ": ""
  },
  "GKIMHOOMGHB": {
    "DHBJGHDCMAA": {
      "LDAHGACLHII": "Monster_Minion",
      "LJGADHKDLLB": 75.0
    },
    "BPKIJDAHLGB": {
      "LKMLEJGEHAP": ""
    },
    "INCPHOFGIJA": {
      "FGJIHAKMLBG": "CircleLockEnemy",
      "BGMEKAEIOGA": "Avatar&Monster_Lv4"
    },
    "JCCJMILDEAM": {
      "ODGDMCPOMAJ": true,
      "GKFDFDFJJFB": 2.0,
      "FNIJBPMPCHA": 4.0,
      "BCHFMGGBEFN": "Eff_Death_Common",
      "GDFMLKACHDB": "MonsterDie",
      "AHGCGJLAMJJ": true,
      "LEDBOLGDENF": true,
      "IEAKKMEDNDE": true,
      "AAEANOPIAAL": true,
      "IBBHGBHIHCI": true,
      "BKIBMIAJOHP": true,
      "MOFPBPPGPCL": true
    }
  },
  "EOGPAIHDBFM": {
    "EMHOEGGEKMH": "",
    "JLFHFMOAFHP": {
      "equip01": "BombAttachPoint"
    }
  },
  "IGPKOOHPBFG": [
    {
      "FPLENFAEDIB": "Alert",
      "KAJGDIHNKNE": "Hili_None_Alert",
      "BIAMBCDKJKP": "",
      "OLLMEBCBAOE": true
    },
    {
      "FPLENFAEDIB": "AwakeAlert",
      "KAJGDIHNKNE": "Hili_None_AwakeAlert",
      "BIAMBCDKJKP": "",
      "OLLMEBCBAOE": true
    },
    {
      "FPLENFAEDIB": "Hili_None_SpecialsState_Weapon",
      "KAJGDIHNKNE": "Hili_None_SpecialsState_Weapon",
      "BIAMBCDKJKP": "",
      "OLLMEBCBAOE": true
    },
    {
      "FPLENFAEDIB": "SpecialsState_AIStateInitial",
      "KAJGDIHNKNE": "Hili_None_SpecialsState_AIStateInitial",
      "BIAMBCDKJKP": "",
      "OLLMEBCBAOE": true
    },
    {
      "FPLENFAEDIB": "EquipFlagManager",
      "KAJGDIHNKNE": "Hili_None_EquipFlagManager",
      "BIAMBCDKJKP": ""
    },
    {
      "FPLENFAEDIB": "Hili_ActionPointRegister",
      "KAJGDIHNKNE": "Hili_None_ActionPointRegister",
      "BIAMBCDKJKP": "",
      "OLLMEBCBAOE": true
    },
    {
      "FPLENFAEDIB": "TurnToSleep",
      "KAJGDIHNKNE": "Hili_None_TurnToSleep",
      "BIAMBCDKJKP": "",
      "OLLMEBCBAOE": true
    },
    {
      "FPLENFAEDIB": "OutOfSleep",
      "KAJGDIHNKNE": "Hili_None_OutOfSleep",
      "BIAMBCDKJKP": "",
      "OLLMEBCBAOE": true
    },
    {
      "FPLENFAEDIB": "TurnToSit",
      "KAJGDIHNKNE": "Hili_None_TurnToSit",
      "BIAMBCDKJKP": "",
      "OLLMEBCBAOE": true
    },
    {
      "FPLENFAEDIB": "OutOfSit",
      "KAJGDIHNKNE": "Hili_None_OutOfSit",
      "BIAMBCDKJKP": "",
      "OLLMEBCBAOE": true
    },
    {
      "FPLENFAEDIB": "TurnToPractice",
      "KAJGDIHNKNE": "Hili_None_TurnToPractice",
      "BIAMBCDKJKP": "",
      "OLLMEBCBAOE": true
    },
    {
      "FPLENFAEDIB": "OutOfPractice",
      "KAJGDIHNKNE": "Hili_None_OutOfPractice",
      "BIAMBCDKJKP": "",
      "OLLMEBCBAOE": true
    },
    {
      "FPLENFAEDIB": "BombHold",
      "KAJGDIHNKNE": "Monster_Hili_Electric_BombHold",
      "BIAMBCDKJKP": ""
    },
    {
      "FPLENFAEDIB": "BombDrop",
      "KAJGDIHNKNE": "Monster_Hili_Electric_BombDrop",
      "BIAMBCDKJKP": ""
    },
    {
      "FPLENFAEDIB": "CreateBomb",
      "KAJGDIHNKNE": "Monster_Hili_Electric_CreateBomb",
      "BIAMBCDKJKP": ""
    },
    {
      "FPLENFAEDIB": "ThrowBomb",
      "KAJGDIHNKNE": "Monster_Hili_Electric_ThrowBomb",
      "BIAMBCDKJKP": ""
    },
    {
      "FPLENFAEDIB": "",
      "KAJGDIHNKNE": "Monster_Hili_Electric_EliteSet",
      "BIAMBCDKJKP": "",
      "OLLMEBCBAOE": true
    },
    {
      "FPLENFAEDIB": "",
      "KAJGDIHNKNE": "Hili_None_SpecialsState_HideWeapon",
      "BIAMBCDKJKP": "",
      "OLLMEBCBAOE": true
    }
  ],
  "GGIOJAMBNPO": {
    "defaultLayer": {
      "$type": "EPAPJJAGHKG",
      "ACOCIAFGIAD": "",
      "LFGKIDDJIED": {
        "NormalIdle": {
          "$type": "IJOIMFMEGMM",
          "DLOHGBDFFGB": {
            "Standby": [],
            "Born": []
          },
          "POLKCLOHPOO": true,
          "PGKCBIHGAOC": true,
          "DLAOMOCMANL": [
            "DoSkill"
          ]
        },
        "NormalMove": {
          "$type": "IJOIMFMEGMM",
          "DLOHGBDFFGB": {
            "WalkForward": [
              "Audio_Hili_Walk"
            ],
            "WalkBack": [
              "Audio_Hili_Walk"
            ],
            "WalkRight": [
              "Audio_Hili_Walk"
            ],
            "WalkLeft": [
              "Audio_Hili_Walk"
            ],
            "Run": [
              "Audio_Hili_Run"
            ]
          },
          "POLKCLOHPOO": true,
          "PGKCBIHGAOC": true,
          "DLAOMOCMANL": [
            "DoSkill"
          ],
          "LIPMJPLGIKD": true
        },
        "Turn": {
          "$type": "IJOIMFMEGMM",
          "DLOHGBDFFGB": {
            "TurnLeft": [
              "Audio_Hili_Walk"
            ],
            "TurnRight": [
              "Audio_Hili_Walk"
            ]
          },
          "POLKCLOHPOO": true,
          "PGKCBIHGAOC": true,
          "DLAOMOCMANL": [
            "DoSkill"
          ],
          "LIPMJPLGIKD": true,
          "HMPOMAMKBEF": true
        },
        "BeHit": {
          "$type": "IJOIMFMEGMM",
          "DLOHGBDFFGB": {
            "Hit_L": [
              "Audio_Hili_Hit_L"
            ],
            "Hit_H": [
              "Audio_Hili_Hit_H"
            ]
          },
          "AJBLILDCLBO": [
            "BeHit"
          ],
          "DLAOMOCMANL": [
            "DoSkill"
          ]
        },
        "BeHitThrow": {
          "$type": "IJOIMFMEGMM",
          "DLOHGBDFFGB": {
            "HitThrow": [
              "Audio_Hili_Hit_Throw"
            ],
            "HitThrowDrop": [],
            "HitThrowToGround": [
              "Audio_Hili_Hit_ThrowToGround"
            ]
          },
          "AJBLILDCLBO": [
            "BeHit",
            "HitAir2HitDrop"
          ],
          "DLAOMOCMANL": [
            "DoSkill"
          ]
        },
        "Die": {
          "$type": "IJOIMFMEGMM",
          "DLOHGBDFFGB": {
            "SwimDie": [
              "Monster_Hili_None_Die",
              "Audio_Hili_SwimDie"
            ],
            "SwimDie_AS": [
              "Audio_Hili_SwimDie"
            ]
          }
        },
        "Die_RagDoll": {
          "$type": "IJOIMFMEGMM",
          "DLOHGBDFFGB": {
            "Die1": [
              "Monster_Hili_None_Die",
              "Audio_Hili_Die1"
            ],
            "Die2": [
              "Monster_Hili_None_Die",
              "Audio_Hili_Die2"
            ],
            "AirDie": [
              "Monster_Hili_None_Die",
              "Audio_Hili_Die1"
            ]
          },
          "CPOLOGIELCD": true
        },
        "Struggle": {
          "$type": "IJOIMFMEGMM",
          "DLOHGBDFFGB": {
            "Struggle": []
          },
          "AJBLILDCLBO": [
            "BeHit",
            "HitAir2HitDrop"
          ],
          "DLAOMOCMANL": [
            "DoSkill"
          ]
        },
        "Life_Alert": {
          "$type": "IJOIMFMEGMM",
          "DLOHGBDFFGB": {
            "Alert": []
          },
          "DLAOMOCMANL": [
            "BeHit",
            "DoSkill"
          ]
        },
        "Life_Warning": {
          "$type": "IJOIMFMEGMM",
          "DLOHGBDFFGB": {
            "Warning": [
              "Monster_Undead01_Warning",
              "Monster_Hili_None_Alert",
              "Audio_Hili_Warning"
            ]
          },
          "DLAOMOCMANL": [
            "BeHit",
            "DoSkill"
          ]
        },
        "Life_Talk": {
          "$type": "IJOIMFMEGMM",
          "DLOHGBDFFGB": {
            "Talk_Sit": []
          },
          "POLKCLOHPOO": true,
          "DLAOMOCMANL": [
            "BeHit",
            "DoSkill"
          ]
        },
        "TurnToSit": {
          "$type": "IJOIMFMEGMM",
          "DLOHGBDFFGB": {
            "TurnToSit": [
              "Monster_Hili_None_TurnToSit"
            ]
          },
          "POLKCLOHPOO": true,
          "DLAOMOCMANL": [
            "BeHit",
            "DoSkill"
          ]
        },
        "OutOfSit": {
          "$type": "IJOIMFMEGMM",
          "DLOHGBDFFGB": {
            "OutOfSit": [
              "Monster_Hili_None_OutOfSit"
            ]
          },
          "POLKCLOHPOO": true,
          "DLAOMOCMANL": [
            "BeHit",
            "DoSkill"
          ]
        },
        "Sit": {
          "$type": "IJOIMFMEGMM",
          "DLOHGBDFFGB": {
            "Sit": []
          },
          "POLKCLOHPOO": true,
          "PGKCBIHGAOC": true,
          "DLAOMOCMANL": [
            "DoSkill"
          ]
        },
        "SitFree01": {
          "$type": "IJOIMFMEGMM",
          "DLOHGBDFFGB": {
            "SitFree01": []
          },
          "POLKCLOHPOO": true,
          "DLAOMOCMANL": [
            "BeHit",
            "DoSkill"
          ]
        },
        "TurnToSleep": {
          "$type": "IJOIMFMEGMM",
          "DLOHGBDFFGB": {
            "TurnToSleep": [
              "Monster_Hili_None_TurnToSleep"
            ]
          },
          "POLKCLOHPOO": true,
          "DLAOMOCMANL": [
            "BeHit",
            "DoSkill"
          ]
        },
        "OutOfSleep": {
          "$type": "IJOIMFMEGMM",
          "DLOHGBDFFGB": {
            "OutOfSleep": [
              "Monster_Hili_None_OutOfSleep"
            ]
          },
          "POLKCLOHPOO": true,
          "DLAOMOCMANL": [
            "BeHit",
            "DoSkill"
          ]
        },
        "Sleep": {
          "$type": "IJOIMFMEGMM",
          "DLOHGBDFFGB": {
            "Sleep": [
              "Audio_Hili_Sleep"
            ]
          },
          "POLKCLOHPOO": true,
          "PGKCBIHGAOC": true,
          "DLAOMOCMANL": [
            "DoSkill"
          ]
        },
        "SleepFree01": {
          "$type": "IJOIMFMEGMM",
          "DLOHGBDFFGB": {
            "SleepFree01": []
          },
          "POLKCLOHPOO": true,
          "DLAOMOCMANL": [
            "BeHit",
            "DoSkill"
          ]
        },
        "SleepFree02": {
          "$type": "IJOIMFMEGMM",
          "DLOHGBDFFGB": {
            "SleepFree02": []
          },
          "POLKCLOHPOO": true,
          "DLAOMOCMANL": [
            "BeHit",
            "DoSkill"
          ]
        },
        "SleepFree03": {
          "$type": "IJOIMFMEGMM",
          "DLOHGBDFFGB": {
            "SleepFree03": []
          },
          "POLKCLOHPOO": true,
          "DLAOMOCMANL": [
            "BeHit",
            "DoSkill"
          ]
        },
        "TurnToPractice": {
          "$type": "IJOIMFMEGMM",
          "DLOHGBDFFGB": {
            "TurnToPractice": [
              "Monster_Hili_None_TurnToPractice"
            ]
          },
          "POLKCLOHPOO": true,
          "DLAOMOCMANL": [
            "BeHit",
            "DoSkill"
          ]
        },
        "OutOfPractice": {
          "$type": "IJOIMFMEGMM",
          "DLOHGBDFFGB": {
            "OutOfPractice": [
              "Monster_Hili_None_OutOfPractice"
            ]
          },
          "POLKCLOHPOO": true,
          "DLAOMOCMANL": [
            "BeHit",
            "DoSkill"
          ]
        },
        "Practice": {
          "$type": "IJOIMFMEGMM",
          "DLOHGBDFFGB": {
            "Practice": []
          },
          "POLKCLOHPOO": true,
          "PGKCBIHGAOC": true,
          "DLAOMOCMANL": [
            "DoSkill"
          ]
        },
        "Practice_Action": {
          "$type": "IJOIMFMEGMM",
          "DLOHGBDFFGB": {
            "Practice_NoWeapon": [
              "Audio_Hili_Practice_NoWeapon"
            ],
            "Practice_NoWeapon_Back": [],
            "Practice_Sword": [
              "Audio_Hili_Practice_Sword"
            ],
            "Practice_Sword_Back": [],
            "Practice_Shoot_Aim": [],
            "Practice_Shoot_Attack": []
          },
          "POLKCLOHPOO": true,
          "PGKCBIHGAOC": true,
          "DLAOMOCMANL": [
            "DoSkill"
          ]
        },
        "Life_AwakeAlertBS": {
          "$type": "IJOIMFMEGMM",
          "DLOHGBDFFGB": {
            "AwakeAlert_BS": [
              "Monster_Hili_None_AwakeAlert"
            ]
          },
          "DLAOMOCMANL": [
            "BeHit",
            "DoSkill",
            "AwakeAlert"
          ]
        },
        "Life_AwakeAlertAS": {
          "$type": "IJOIMFMEGMM",
          "DLOHGBDFFGB": {
            "AwakeAlert_AS": []
          },
          "POLKCLOHPOO": true,
          "DLAOMOCMANL": [
            "BeHit",
            "DoSkill"
          ]
        },
        "CreateBomb": {
          "$type": "IJOIMFMEGMM",
          "DLOHGBDFFGB": {
            "CreateBomb_BS": [
              "Monster_Hili_Electric_CreateBombBS",
              "Audio_Hili_ice_createBomb"
            ],
            "CreateBomb_Loop": []
          },
          "DLAOMOCMANL": [
            "BeHit",
            "DoSkill"
          ]
        },
        "CreateBombAS": {
          "$type": "IJOIMFMEGMM",
          "DLOHGBDFFGB": {
            "CreateBomb_AS": [
              "Monster_Hili_Electric_CreateBombAS",
              "Audio_Hili_ice_throwBomb_AS"
            ]
          },
          "DLAOMOCMANL": [
            "BeHit",
            "DoSkill"
          ]
        },
        "ThrowBomb": {
          "$type": "IJOIMFMEGMM",
          "DLOHGBDFFGB": {
            "ThrowBomb": [
              "Audio_Hili_ice_throwBomb"
            ]
          },
          "DLAOMOCMANL": [
            "BeHit",
            "DoSkill"
          ],
          "LIPMJPLGIKD": true
        },
        "LearnBox": {
          "$type": "IJOIMFMEGMM",
          "DLOHGBDFFGB": {
            "LearnBox": []
          },
          "POLKCLOHPOO": true,
          "PGKCBIHGAOC": true,
          "DLAOMOCMANL": [
            "DoSkill"
          ]
        },
        "Life_LearnBox": {
          "$type": "IJOIMFMEGMM",
          "DLOHGBDFFGB": {
            "Boxing": []
          },
          "POLKCLOHPOO": true,
          "DLAOMOCMANL": [
            "BeHit",
            "DoSkill"
          ]
        }
      }
    }
  },
  "IEFGNHABHFH": {
    "$type": "PAOBAEKGGBC",
    "JBKMLLFNHAL": "BillboardAttach",
    "NDKBHOOPGNA": {
      "x": -0.05000000074505806
    },
    "EMFFJPOKEKF": "Character",
    "LOMMBJLKPHE": 0.25,
    "KGHAGECNJPO": true
  },
  "IONIFBIBFNL": {
    "Default": {},
    "Sleep": {
      "JAAABLNBKAP": 9002,
      "PIEEIAOKMJB": {
        "GKGFCNLPILF": {
          "Sleep": "true"
        }
      }
    },
    "Sit": {
      "JAAABLNBKAP": 9003,
      "PIEEIAOKMJB": {
        "GKGFCNLPILF": {
          "Sit": "true"
        }
      }
    },
    "Practice": {
      "JAAABLNBKAP": 9013,
      "PIEEIAOKMJB": {
        "GKGFCNLPILF": {
          "Practice": "true"
        }
      }
    },
    "LearnBox": {
      "JAAABLNBKAP": 9018,
      "PIEEIAOKMJB": {
        "GKGFCNLPILF": {
          "LearnBox": "true"
        }
      }
    }
  },
  "PDCDMABCPOA": {
    "ENLKMOKHELD": true,
    "OCBDDDCJANP": {
      "IJOBKDKBEME": {
        "DefaultSetting": {
          "BHOECAJIBOM": 8.0
        },
        "HighAlert": {
          "PHDIIPOBJGA": 40.0,
          "BHOECAJIBOM": 10.0
        },
        "Sleep": {
          "PHDIIPOBJGA": 0.0,
          "BHOECAJIBOM": 3.0
        },
        "Sit": {
          "PHDIIPOBJGA": 10.0
        },
        "LearnBox": {
          "PHDIIPOBJGA": 10.0
        }
      },
      "PKFGMCHOEBN": {
        "DefaultTemplate": {
          "DefaultPoses": "DefaultSetting",
          "9002": "Sleep",
          "9003": "Sit"
        },
        "HighAlertTemplate": {
          "DefaultPoses": "HighAlert",
          "9002": "Sleep",
          "9003": "Sit"
        }
      }
    },
    "OFEGONBLOGP": {
      "DefaultSetting": [
        "HIT"
      ],
      "Sleep": [
        "HIT",
        "ASLEEP",
        "AWAKE"
      ],
      "Sit": [
        "HIT",
        "SIT"
      ],
      "Practice": [
        "HIT",
        "TRAIN"
      ]
    },
    "EJOLGMGAECP": {
      "DMBNEKAFACI": true,
      "HJODDLMLPBJ": 3.0,
      "BJLBMJLOPIP": [
        {
          "LFALGCACJOF": 10.0,
          "IOHOACGNJHO": 2.0
        },
        {
          "LFALGCACJOF": 15.0,
          "IOHOACGNJHO": 0.800000011920929
        },
        {
          "LFALGCACJOF": 20.0,
          "IOHOACGNJHO": 0.5
        },
        {
          "LFALGCACJOF": 25.0,
          "IOHOACGNJHO": 0.30000001192092896
        },
        {
          "LFALGCACJOF": 30.0,
          "IOHOACGNJHO": 0.20000000298023224
        }
      ],
      "JGFOPCOIJOI": ""
    },
    "PMNPDDIOHHJ": {},
    "JLKBBPGPEAA": {
      "IHFAOEGNINI": [
        9002,
        9003
      ]
    },
    "IEMFHBCDJFP": [
      {
        "BIMBEJCAFLP": 0,
        "DIAPGOFDGLC": 7.0
      }
    ],
    "HEJKJODINHK": {
      "GMBKODANLGP": {
        "1": [
          201,
          202
        ],
        "2": [
          203,
          204
        ]
      }
    },
    "BNIENJNLAIJ": {
      "103": {
        "NOKKDDHKGAK": "OnAlert",
        "IKMCLKEPDFP": "OnAlert",
        "HAOJJHNOGHO": true,
        "NOPNCNPCPJE": "",
        "LLNBBNIEGGO": true,
        "IDPMFPAPNCE": false,
        "HGAMDGAEIGO": "",
        "LFGKIDDJIED": [
          "Life_Warning"
        ],
        "NNJBOCFBGJG": 3.0,
        "PGPDNPMFFAG": "10",
        "CCEAGFDONFH": "01",
        "OKOFHICILMD": "10",
        "CCFFFOIDOLP": "11"
      },
      "104": {
        "NOKKDDHKGAK": "OnAlert",
        "IKMCLKEPDFP": "OnNerve",
        "HAOJJHNOGHO": true,
        "ENKLFBHHOJI": {
          "CEKMINILIFB": [
            9003,
            9003,
            9013,
            9018
          ]
        },
        "NOPNCNPCPJE": "",
        "IDPMFPAPNCE": false,
        "HGAMDGAEIGO": "",
        "LFGKIDDJIED": [
          "Life_Warning"
        ],
        "NNJBOCFBGJG": 3.0,
        "PGPDNPMFFAG": "10",
        "CCEAGFDONFH": "01",
        "OKOFHICILMD": "10",
        "CCFFFOIDOLP": "11",
        "GMMKOLNMFJL": [
          "HIT"
        ]
      },
      "123": {
        "NOKKDDHKGAK": "Talk_Sit",
        "IKMCLKEPDFP": "Free",
        "ENKLFBHHOJI": {
          "CEKMINILIFB": [
            9003
          ]
        },
        "PAHIDIJLGPF": 15.0,
        "GPMLADFJAAH": 25.0,
        "LKCFDIOMLCM": 15.0,
        "KKAEGIJIDLG": 25.0,
        "NOPNCNPCPJE": "",
        "HGAMDGAEIGO": "",
        "LFGKIDDJIED": [
          "Life_Talk"
        ],
        "PGPDNPMFFAG": "10",
        "CCEAGFDONFH": "01",
        "OKOFHICILMD": "10",
        "CCFFFOIDOLP": "11"
      },
      "111": {
        "NOKKDDHKGAK": "TurnToSleep",
        "IKMCLKEPDFP": "ActionPoint",
        "ENKLFBHHOJI": {
          "CEKMINILIFB": [
            1
          ]
        },
        "NOPNCNPCPJE": "",
        "IDPMFPAPNCE": false,
        "HGAMDGAEIGO": "",
        "LFGKIDDJIED": [
          "TurnToSleep"
        ],
        "NNJBOCFBGJG": 3.0,
        "PGPDNPMFFAG": "10",
        "CCEAGFDONFH": "01",
        "OKOFHICILMD": "10",
        "CCFFFOIDOLP": "11"
      },
      "112": {
        "NOKKDDHKGAK": "OutOfSleep",
        "IKMCLKEPDFP": "OnNerve",
        "ENKLFBHHOJI": {
          "CEKMINILIFB": [
            9002
          ]
        },
        "NOPNCNPCPJE": "",
        "IDPMFPAPNCE": false,
        "HGAMDGAEIGO": "",
        "LFGKIDDJIED": [
          "OutOfSleep"
        ],
        "NNJBOCFBGJG": 3.0,
        "PGPDNPMFFAG": "10",
        "CCEAGFDONFH": "01",
        "OKOFHICILMD": "10",
        "CCFFFOIDOLP": "11",
        "GMMKOLNMFJL": [
          "AWAKE"
        ]
      },
      "124": {
        "NOKKDDHKGAK": "SleepFree01",
        "IKMCLKEPDFP": "Free",
        "ENKLFBHHOJI": {
          "CEKMINILIFB": [
            9002
          ]
        },
        "PAHIDIJLGPF": 15.0,
        "GPMLADFJAAH": 25.0,
        "LKCFDIOMLCM": 15.0,
        "KKAEGIJIDLG": 25.0,
        "NOPNCNPCPJE": "",
        "HGAMDGAEIGO": "",
        "LFGKIDDJIED": [
          "SleepFree01"
        ],
        "PGPDNPMFFAG": "10",
        "CCEAGFDONFH": "01",
        "OKOFHICILMD": "10",
        "CCFFFOIDOLP": "11"
      },
      "125": {
        "NOKKDDHKGAK": "SleepFree02",
        "IKMCLKEPDFP": "Free",
        "ENKLFBHHOJI": {
          "CEKMINILIFB": [
            9002
          ]
        },
        "PAHIDIJLGPF": 15.0,
        "GPMLADFJAAH": 25.0,
        "LKCFDIOMLCM": 15.0,
        "KKAEGIJIDLG": 25.0,
        "NOPNCNPCPJE": "",
        "HGAMDGAEIGO": "",
        "LFGKIDDJIED": [
          "SleepFree02"
        ],
        "PGPDNPMFFAG": "10",
        "CCEAGFDONFH": "01",
        "OKOFHICILMD": "10",
        "CCFFFOIDOLP": "11"
      },
      "126": {
        "NOKKDDHKGAK": "SleepFree03",
        "IKMCLKEPDFP": "Free",
        "ENKLFBHHOJI": {
          "CEKMINILIFB": [
            9002
          ]
        },
        "PAHIDIJLGPF": 15.0,
        "GPMLADFJAAH": 25.0,
        "LKCFDIOMLCM": 15.0,
        "KKAEGIJIDLG": 25.0,
        "NOPNCNPCPJE": "",
        "HGAMDGAEIGO": "",
        "LFGKIDDJIED": [
          "SleepFree03"
        ],
        "PGPDNPMFFAG": "10",
        "CCEAGFDONFH": "01",
        "OKOFHICILMD": "10",
        "CCFFFOIDOLP": "11"
      },
      "121": {
        "NOKKDDHKGAK": "TurnToSit",
        "IKMCLKEPDFP": "ActionPoint",
        "ENKLFBHHOJI": {
          "CEKMINILIFB": [
            1
          ]
        },
        "NOPNCNPCPJE": "",
        "IDPMFPAPNCE": false,
        "HGAMDGAEIGO": "",
        "LFGKIDDJIED": [
          "TurnToSit"
        ],
        "NNJBOCFBGJG": 3.0,
        "PGPDNPMFFAG": "10",
        "CCEAGFDONFH": "01",
        "OKOFHICILMD": "10",
        "CCFFFOIDOLP": "11"
      },
      "122": {
        "NOKKDDHKGAK": "OutOfSit",
        "IKMCLKEPDFP": "OnNerve",
        "ENKLFBHHOJI": {
          "CEKMINILIFB": [
            9003
          ]
        },
        "NOPNCNPCPJE": "",
        "IDPMFPAPNCE": false,
        "HGAMDGAEIGO": "",
        "LFGKIDDJIED": [
          "OutOfSit"
        ],
        "NNJBOCFBGJG": 3.0,
        "PGPDNPMFFAG": "10",
        "CCEAGFDONFH": "01",
        "OKOFHICILMD": "10",
        "CCFFFOIDOLP": "11",
        "GMMKOLNMFJL": [
          "AWAKE"
        ]
      },
      "127": {
        "NOKKDDHKGAK": "SitFree01",
        "IKMCLKEPDFP": "Free",
        "ENKLFBHHOJI": {
          "CEKMINILIFB": [
            9003
          ]
        },
        "PAHIDIJLGPF": 15.0,
        "GPMLADFJAAH": 15.0,
        "LKCFDIOMLCM": 15.0,
        "KKAEGIJIDLG": 15.0,
        "NOPNCNPCPJE": "",
        "HGAMDGAEIGO": "",
        "LFGKIDDJIED": [
          "SitFree01"
        ],
        "PGPDNPMFFAG": "10",
        "CCEAGFDONFH": "01",
        "OKOFHICILMD": "10",
        "CCFFFOIDOLP": "11"
      },
      "1001": {
        "NOKKDDHKGAK": "TurnToPractice",
        "IKMCLKEPDFP": "ActionPoint",
        "ENKLFBHHOJI": {
          "CEKMINILIFB": [
            1
          ]
        },
        "NOPNCNPCPJE": "",
        "IDPMFPAPNCE": false,
        "HGAMDGAEIGO": "",
        "LFGKIDDJIED": [
          "TurnToPractice"
        ],
        "NNJBOCFBGJG": 3.0,
        "PGPDNPMFFAG": "10",
        "CCEAGFDONFH": "01",
        "OKOFHICILMD": "10",
        "CCFFFOIDOLP": "11"
      },
      "1002": {
        "NOKKDDHKGAK": "OutOfPractice",
        "IKMCLKEPDFP": "OnNerve",
        "ENKLFBHHOJI": {
          "CEKMINILIFB": [
            9013
          ]
        },
        "NOPNCNPCPJE": "",
        "IDPMFPAPNCE": false,
        "HGAMDGAEIGO": "",
        "LFGKIDDJIED": [
          "OutOfPractice"
        ],
        "NNJBOCFBGJG": 3.0,
        "PGPDNPMFFAG": "10",
        "CCEAGFDONFH": "01",
        "OKOFHICILMD": "10",
        "CCFFFOIDOLP": "11",
        "GMMKOLNMFJL": [
          "ASLEEP",
          "WEATHER_BAD"
        ]
      },
      "1011": {
        "NOKKDDHKGAK": "Practice",
        "IKMCLKEPDFP": "Free",
        "ENKLFBHHOJI": {
          "CEKMINILIFB": [
            9013
          ]
        },
        "PAHIDIJLGPF": 3.0,
        "GPMLADFJAAH": 5.0,
        "LKCFDIOMLCM": 3.0,
        "NOPNCNPCPJE": "",
        "HGAMDGAEIGO": "",
        "LFGKIDDJIED": [
          "Practice_Action"
        ],
        "PGPDNPMFFAG": "10",
        "CCEAGFDONFH": "01",
        "OKOFHICILMD": "10",
        "CCFFFOIDOLP": "11"
      },
      "201": {
        "NOKKDDHKGAK": "CreateBomb",
        "ENKLFBHHOJI": {
          "CEKMINILIFB": [
            101
          ],
          "MLFAMHDFHMM": 20.0
        },
        "PAHIDIJLGPF": 10.0,
        "GPMLADFJAAH": 3.0,
        "NOPNCNPCPJE": "",
        "BIMBEJCAFLP": 0,
        "HGAMDGAEIGO": "",
        "LFGKIDDJIED": [
          "CreateBomb",
          "CreateBombAS"
        ],
        "PGPDNPMFFAG": "11",
        "CCEAGFDONFH": "01",
        "OKOFHICILMD": "10",
        "CCFFFOIDOLP": "11"
      },
      "202": {
        "NOKKDDHKGAK": "CreateBomb",
        "ENKLFBHHOJI": {
          "CEKMINILIFB": [
            101
          ],
          "MLFAMHDFHMM": 4.75
        },
        "PAHIDIJLGPF": 10.0,
        "GPMLADFJAAH": 3.0,
        "NOPNCNPCPJE": "",
        "BIMBEJCAFLP": 0,
        "HGAMDGAEIGO": "",
        "LFGKIDDJIED": [
          "CreateBomb",
          "CreateBombAS"
        ],
        "PGPDNPMFFAG": "11",
        "CCEAGFDONFH": "01",
        "OKOFHICILMD": "01",
        "CCFFFOIDOLP": "11"
      },
      "203": {
        "NOKKDDHKGAK": "CreateBomb",
        "OFLMMKCAHKM": "RangedAttack",
        "HAOJJHNOGHO": true,
        "ENKLFBHHOJI": {
          "CEKMINILIFB": [
            101
          ],
          "OLDIEKKCIOG": 5.0,
          "MLFAMHDFHMM": 22.5
        },
        "PAHIDIJLGPF": 6.0,
        "GPMLADFJAAH": 3.0,
        "LKCFDIOMLCM": 6.0,
        "NOPNCNPCPJE": "",
        "HGAMDGAEIGO": "",
        "LFGKIDDJIED": [
          "CreateBomb",
          "CreateBombAS"
        ],
        "PGPDNPMFFAG": "11",
        "CCEAGFDONFH": "11",
        "OKOFHICILMD": "11",
        "CCFFFOIDOLP": "11"
      },
      "204": {
        "NOKKDDHKGAK": "CreateBomb",
        "OFLMMKCAHKM": "RangedAttack",
        "HAOJJHNOGHO": true,
        "ENKLFBHHOJI": {
          "CEKMINILIFB": [
            111
          ],
          "MLFAMHDFHMM": 22.5
        },
        "NOPNCNPCPJE": "",
        "LLNBBNIEGGO": true,
        "HGAMDGAEIGO": "",
        "LFGKIDDJIED": [
          "CreateBomb",
          "CreateBombAS"
        ],
        "PGPDNPMFFAG": "11",
        "CCEAGFDONFH": "11",
        "OKOFHICILMD": "11",
        "CCFFFOIDOLP": "11"
      },
      "301": {
        "NOKKDDHKGAK": "ThrowBomb",
        "ENKLFBHHOJI": {
          "CEKMINILIFB": [
            201
          ],
          "MLFAMHDFHMM": 20.0
        },
        "NOPNCNPCPJE": "",
        "HGAMDGAEIGO": "",
        "LFGKIDDJIED": [
          "ThrowBomb"
        ],
        "PGPDNPMFFAG": "11",
        "CCEAGFDONFH": "01",
        "OKOFHICILMD": "11",
        "CCFFFOIDOLP": "11"
      },
      "1801": {
        "NOKKDDHKGAK": "Life_LearnBox",
        "IKMCLKEPDFP": "Free",
        "ENKLFBHHOJI": {
          "CEKMINILIFB": [
            9018
          ]
        },
        "PAHIDIJLGPF": 10.5,
        "GPMLADFJAAH": 7.5,
        "LKCFDIOMLCM": 4.0,
        "KKAEGIJIDLG": 10.0,
        "NOPNCNPCPJE": "",
        "HGAMDGAEIGO": "",
        "LFGKIDDJIED": [
          "Life_LearnBox"
        ],
        "PGPDNPMFFAG": "10",
        "CCEAGFDONFH": "01",
        "OKOFHICILMD": "10",
        "CCFFFOIDOLP": "11"
      }
    },
    "EEKEAKJCMJO": [
      {
        "$type": "DIIPKNMAPAC",
        "ENLKMOKHELD": true,
        "FJANPNOAAFK": {
          "CEKMINILIFB": [
            101,
            111
          ]
        },
        "LMMKNFEMOMG": {
          "AGCMPDABMIA": 5.0,
          "GDPAONNEBCO": 50.0,
          "MMKHHBIBJEN": {
            "GEECPOOOMFC": 0.0,
            "NFMBIOFFKGK": 0.0,
            "JNJFKLDABCB": 0.0,
            "BEJLOBBENJJ": 0.0
          },
          "HEGPGPBKGFH": "1111",
          "AFCLIFKCEKM": "1111",
          "JOCOJHEICNA": ""
        },
        "BIDHHBJEKHM": {
          "101": {
            "AGCMPDABMIA": 5.0,
            "GDPAONNEBCO": 20.0,
            "MMKHHBIBJEN": {
              "GEECPOOOMFC": 0.0,
              "NFMBIOFFKGK": 0.0,
              "JNJFKLDABCB": 0.20000000298023224,
              "BEJLOBBENJJ": 0.20000000298023224
            },
            "HEGPGPBKGFH": "1111",
            "AFCLIFKCEKM": "1111",
            "JOCOJHEICNA": ""
          },
          "111": {
            "AGCMPDABMIA": 5.0,
            "GDPAONNEBCO": 20.0,
            "MMKHHBIBJEN": {
              "GEECPOOOMFC": 0.0,
              "NFMBIOFFKGK": 0.0,
              "JNJFKLDABCB": 0.20000000298023224,
              "BEJLOBBENJJ": 0.20000000298023224
            },
            "HEGPGPBKGFH": "1111",
            "AFCLIFKCEKM": "1111",
            "JOCOJHEICNA": ""
          }
        }
      },
      {
        "$type": "BNAGECKMCIB",
        "ENLKMOKHELD": true,
        "FJANPNOAAFK": {
          "CEKMINILIFB": [
            101,
            201,
            111
          ]
        },
        "LMMKNFEMOMG": {
          "MPEMBMLOEDG": 10.0,
          "JKOGPCLFHCP": 9.0,
          "IHCAFCNDANA": 0.0,
          "JOCOJHEICNA": ""
        }
      },
      {
        "$type": "CMFCOLEFCJI",
        "ENLKMOKHELD": true,
        "LMMKNFEMOMG": {
          "BJBAALCCMGL": [
            {
              "LPJONBJGEKP": "SleepPoint",
              "FCCFALOMHGM": 15.0,
              "CEKMINILIFB": [
                1
              ],
              "GMMKOLNMFJL": [
                "ASLEEP"
              ],
              "DMEANKABKMP": 111
            },
            {
              "LPJONBJGEKP": "SitPoint",
              "FCCFALOMHGM": 15.0,
              "CEKMINILIFB": [
                1
              ],
              "GMMKOLNMFJL": [
                "SIT"
              ],
              "DMEANKABKMP": 121
            },
            {
              "LPJONBJGEKP": "TrainingPoint",
              "FCCFALOMHGM": 15.0,
              "CEKMINILIFB": [
                1
              ],
              "GMMKOLNMFJL": [
                "TRAIN"
              ],
              "DMEANKABKMP": 1001
            }
          ]
        }
      },
      {
        "$type": "KMHBGMELMKD",
        "ENLKMOKHELD": true,
        "LMMKNFEMOMG": {
          "JOCOJHEICNA": "",
          "DBIELIMGBMC": ""
        }
      },
      {
        "$type": "GGKADEIBMLG",
        "ENLKMOKHELD": true,
        "FJANPNOAAFK": {
          "CEKMINILIFB": [
            1
          ]
        },
        "LMMKNFEMOMG": {
          "JIFJFPJANHO": 5.0,
          "CBKHBGCPFBG": 2.0,
          "EKDHNAGGGAE": 15.0,
          "BFEJAKFKKFP": 5.0,
          "KOAMKCEFJED": 7.5,
          "JOCOJHEICNA": ""
        }
      }
    ]
  },
  "GIBHCHHOJFI": [
    {
      "NPDDCIDNKMH": 201,
      "KCAOBJOPJIC": 257,
      "KAJGDIHNKNE": ""
    },
    {
      "NPDDCIDNKMH": 202,
      "KCAOBJOPJIC": 258,
      "KAJGDIHNKNE": ""
    },
    {
      "NPDDCIDNKMH": 501,
      "KCAOBJOPJIC": 259,
      "KAJGDIHNKNE": ""
    },
    {
      "NPDDCIDNKMH": 111,
      "KCAOBJOPJIC": 260,
      "KAJGDIHNKNE": ""
    },
    {
      "NPDDCIDNKMH": 121,
      "KCAOBJOPJIC": 261,
      "KAJGDIHNKNE": ""
    }
  ],
  "ADIGBDHBCDP": {
    "$type": "IIGPJJNGCLE",
    "MIPNOGBEANL": "FourDirection",
    "BEPOPLDKJOP": "StoopType",
    "FACNOEFNHIB": "RootNode"
  },
  "BEGHJJDCLLK": {
    "KEEAIACIJBN": "",
    "JIOEGJGNLEC": {
      "NGKLCAOGKNG": [
        {
          "ILNHPFBOKNK": "OutOfBuild",
          "CDMEEHAPNGE": {
            "KMNBEAJOBPE": "Stop_sfx_monster_hili_build"
          }
        },
        {
          "ILNHPFBOKNK": "Alert",
          "CDMEEHAPNGE": {
            "KMNBEAJOBPE": "Stop_sfx_monster_hili_build"
          }
        },
        {
          "ILNHPFBOKNK": "BeHit",
          "CDMEEHAPNGE": {
            "KMNBEAJOBPE": "Stop_sfx_monster_hili_build"
          }
        },
        {
          "ILNHPFBOKNK": "Die",
          "CDMEEHAPNGE": {
            "KMNBEAJOBPE": "Stop_sfx_monster_hili_build"
          }
        },
        {
          "ILNHPFBOKNK": "Die1",
          "CDMEEHAPNGE": {
            "KMNBEAJOBPE": "Stop_sfx_monster_hili_build"
          }
        },
        {
          "ILNHPFBOKNK": "Die2",
          "CDMEEHAPNGE": {
            "KMNBEAJOBPE": "Stop_sfx_monster_hili_build"
          }
        },
        {
          "ILNHPFBOKNK": "OutOfMake",
          "CDMEEHAPNGE": {
            "KMNBEAJOBPE": "Stop_sfx_monster_hili_build"
          }
        },
        {
          "ILNHPFBOKNK": "Practice_Sword_Back",
          "CDMEEHAPNGE": {
            "KMNBEAJOBPE": "Play_sfx_monster_hili_practice_back"
          }
        },
        {
          "ILNHPFBOKNK": "Practice_NoWeapon_Back",
          "CDMEEHAPNGE": {
            "KMNBEAJOBPE": "Play_sfx_monster_hili_practice_back"
          }
        },
        {
          "ILNHPFBOKNK": "Practice_Shoot_Aim",
          "CDMEEHAPNGE": {
            "KMNBEAJOBPE": "Play_sfx_monster_hili_practice_shoot_aim"
          }
        },
        {
          "ILNHPFBOKNK": "Dance",
          "CDMEEHAPNGE": {
            "KMNBEAJOBPE": "Play_sfx_monster_hili_dance"
          }
        },
        {
          "ILNHPFBOKNK": "OutOfDance",
          "CDMEEHAPNGE": {
            "KMNBEAJOBPE": "Stop_sfx_monster_hili_dance"
          }
        },
        {
          "ILNHPFBOKNK": "SurroundFree01_Club",
          "CDMEEHAPNGE": {
            "KMNBEAJOBPE": "Play_sfx_monster_hili_dance"
          }
        },
        {
          "ILNHPFBOKNK": "SurroundFree01_NoWeapon",
          "CDMEEHAPNGE": {
            "KMNBEAJOBPE": "Play_sfx_monster_hili_dance"
          }
        },
        {
          "ILNHPFBOKNK": "OutOfSurround",
          "CDMEEHAPNGE": {
            "KMNBEAJOBPE": "Stop_sfx_monster_hili_dance"
          }
        },
        {
          "ILNHPFBOKNK": "Alert",
          "CDMEEHAPNGE": {
            "KMNBEAJOBPE": "Stop_sfx_monster_hili_dance"
          }
        },
        {
          "ILNHPFBOKNK": "BeHit",
          "CDMEEHAPNGE": {
            "KMNBEAJOBPE": "Stop_sfx_monster_hili_dance"
          }
        },
        {
          "ILNHPFBOKNK": "Die",
          "CDMEEHAPNGE": {
            "KMNBEAJOBPE": "Stop_sfx_monster_hili_dance"
          }
        },
        {
          "ILNHPFBOKNK": "Die1",
          "CDMEEHAPNGE": {
            "KMNBEAJOBPE": "Stop_sfx_monster_hili_dance"
          }
        },
        {
          "ILNHPFBOKNK": "Die2",
          "CDMEEHAPNGE": {
            "KMNBEAJOBPE": "Stop_sfx_monster_hili_dance"
          }
        },
        {
          "ILNHPFBOKNK": "ThreatFree01_NoWeapon",
          "CDMEEHAPNGE": {
            "KMNBEAJOBPE": "Play_sfx_monster_hili_dance"
          }
        },
        {
          "ILNHPFBOKNK": "ThreatFree02_NoWeapon",
          "CDMEEHAPNGE": {
            "KMNBEAJOBPE": "Play_sfx_monster_hili_dance"
          }
        },
        {
          "ILNHPFBOKNK": "ThreatFree01_Club",
          "CDMEEHAPNGE": {
            "KMNBEAJOBPE": "Play_sfx_monster_hili_dance"
          }
        },
        {
          "ILNHPFBOKNK": "ThreatFree02_Club",
          "CDMEEHAPNGE": {
            "KMNBEAJOBPE": "Play_sfx_monster_hili_dance"
          }
        },
        {
          "ILNHPFBOKNK": "OutOfThreat",
          "CDMEEHAPNGE": {
            "KMNBEAJOBPE": "Stop_sfx_monster_hili_dance"
          }
        }
      ],
      "MPLMIOAKNGG": [
        {
          "ILNHPFBOKNK": "Make",
          "CDMEEHAPNGE": {
            "KMNBEAJOBPE": "Stop_sfx_monster_hili_build"
          }
        },
        {
          "ILNHPFBOKNK": "Build",
          "CDMEEHAPNGE": {
            "KMNBEAJOBPE": "Stop_sfx_monster_hili_build"
          }
        },
        {
          "ILNHPFBOKNK": "Practice_Sword",
          "CDMEEHAPNGE": {
            "KMNBEAJOBPE": "Stop_sfx_monster_hili_practice_sword"
          }
        },
        {
          "ILNHPFBOKNK": "Practice_NoWeapon",
          "CDMEEHAPNGE": {
            "KMNBEAJOBPE": "Stop_sfx_monster_hili_practice_sword"
          }
        },
        {
          "ILNHPFBOKNK": "Practice_Sword_Back",
          "CDMEEHAPNGE": {
            "KMNBEAJOBPE": "Stop_sfx_monster_hili_practice_back"
          }
        },
        {
          "ILNHPFBOKNK": "Practice_NoWeapon_Back",
          "CDMEEHAPNGE": {
            "KMNBEAJOBPE": "Stop_sfx_monster_hili_practice_back"
          }
        },
        {
          "ILNHPFBOKNK": "Practice_Shoot_Aim",
          "CDMEEHAPNGE": {
            "KMNBEAJOBPE": "Stop_sfx_monster_hili_practice_shoot_aim"
          },
          "LFOAJJCBNPI": [
            "Practice_Shoot_Attack"
          ],
          "JKPDEGAANLH": "Except"
        },
        {
          "ILNHPFBOKNK": "Practice_Shoot_Attack",
          "CDMEEHAPNGE": {
            "KMNBEAJOBPE": "Stop_sfx_monster_hili_practice_shoot_aim"
          }
        },
        {
          "ILNHPFBOKNK": "Dance",
          "CDMEEHAPNGE": {
            "KMNBEAJOBPE": "Stop_sfx_monster_hili_dance"
          }
        },
        {
          "ILNHPFBOKNK": "SurroundFree01_Club",
          "CDMEEHAPNGE": {
            "KMNBEAJOBPE": "Stop_sfx_monster_hili_dance"
          }
        },
        {
          "ILNHPFBOKNK": "SurroundFree01_NoWeapon",
          "CDMEEHAPNGE": {
            "KMNBEAJOBPE": "Stop_sfx_monster_hili_dance"
          }
        },
        {
          "ILNHPFBOKNK": "ThreatFree01_NoWeapon",
          "CDMEEHAPNGE": {
            "KMNBEAJOBPE": "Stop_sfx_monster_hili_dance"
          }
        },
        {
          "ILNHPFBOKNK": "ThreatFree02_NoWeapon",
          "CDMEEHAPNGE": {
            "KMNBEAJOBPE": "Stop_sfx_monster_hili_dance"
          }
        },
        {
          "ILNHPFBOKNK": "ThreatFree01_Club",
          "CDMEEHAPNGE": {
            "KMNBEAJOBPE": "Stop_sfx_monster_hili_dance"
          }
        },
        {
          "ILNHPFBOKNK": "ThreatFree02_Club",
          "CDMEEHAPNGE": {
            "KMNBEAJOBPE": "Stop_sfx_monster_hili_dance"
          }
        }
      ]
    },
    "ILECIBOLHCO": {
      "KMNBEAJOBPE": "Stop_sfx_monster_hili_dance"
    },
    "KMDKAEHLABB": {
      "KMNBEAJOBPE": "Stop_sfx_monster_hili_dance"
    }
  }
}