{
  "MDJNFHAJPAD": {
    "FAIKDMCHPEL": {
      "$type": "DPGKNHENGLM",
      "DDDEJPIFECG": "EffectMesh"
    },
    "FINMNFLLAMB": 9999999.0,
    "NEBDNCNFDJC": 1.0,
    "MBMBBGOGNHF": true,
    "DIEPJBNIPBG": true,
    "CKECEGGMJOP": false,
    "GJDONABEMOA": true,
    "JBIPDEEPIMN": true,
    "GJKLEPPOKDJ": true
  },
  "PJEANIPCFFN": {
    "CKAIGCFDCMG": "",
    "KHGAHHAIJFJ": "",
    "DFFKHFKJKEK": false
  },
  "MEMHBNEJBCL": {
    "PJBCJPKPOLB": 1.0
  },
  "GKIMHOOMGHB": {
    "DHBJGHDCMAA": {
      "LDAHGACLHII": "Monster_Minion",
      "LJGADHKDLLB": 101.0,
      "ACOAHCMABGF": true
    },
    "BPKIJDAHLGB": {
      "LKMLEJGEHAP": "",
      "OFKMFHKFECF": true,
      "LHMKDLOKKJG": true
    },
    "INCPHOFGIJA": {
      "FGJIHAKMLBG": "CircleLockEnemy",
      "BGMEKAEIOGA": "Animal_Lv2"
    },
    "JCCJMILDEAM": {
      "GKFDFDFJJFB": 1.7999999523162842,
      "FNIJBPMPCHA": 2.0,
      "BCHFMGGBEFN": ""
    },
    "HBPHEONOLPB": {
      "MeleeAtk01": {
        "IDCAGFLHNBC": {
          "$type": "AGJFCPDIMCK",
          "JHMCMBLENNJ": "TriggerNoRepeat",
          "CGJJEPFIPAH": {
            "$type": "NKOODKOFELF",
            "NDKBHOOPGNA": {
              "GNGDNIIPPNL": 0.0,
              "GIIMFINHIED": -0.5,
              "CLBCHJICOKH": 0.0
            }
          },
          "NEBDNCNFDJC": 3.0,
          "IAMPMDAOKJL": 180.0,
          "LOACHGCADCO": 3.0
        },
        "DAHBCLPNNIF": {
          "EGJIJCBGKJG": "Electrohercules_MeleeAttack01",
          "LDGDNEICIGK": "",
          "FLPOJIPCNFI": "default",
          "JBODPMACBML": {
            "HOGNHNAHNML": 0.0,
            "BAPILBAGBOJ": 0.0,
            "PHIOAFANJGL": 100.0,
            "MCMDIPMIMJB": "Blunt",
            "MLOPAPDEAOH": 0.0,
            "JKALHBCIMGB": "Melee",
            "CFIIAFOMDOM": 0.0
          }
        }
      }
    }
  },
  "IGPKOOHPBFG": [
    {
      "FPLENFAEDIB": "",
      "KAJGDIHNKNE": "Animal_Electrohercules_Properties_02",
      "BIAMBCDKJKP": ""
    },
    {
      "FPLENFAEDIB": "",
      "KAJGDIHNKNE": "Animal_Electrohercules_BattleStateHandler",
      "BIAMBCDKJKP": ""
    },
    {
      "FPLENFAEDIB": "",
      "KAJGDIHNKNE": "Animal_Electrohercules_PositionLogicHandler",
      "BIAMBCDKJKP": ""
    },
    {
      "FPLENFAEDIB": "",
      "KAJGDIHNKNE": "Animal_Electrohercules_PlayAlert",
      "BIAMBCDKJKP": ""
    },
    {
      "FPLENFAEDIB": "",
      "KAJGDIHNKNE": "Animal_Electrohercules_Enemy02_SkillManager",
      "BIAMBCDKJKP": ""
    },
    {
      "FPLENFAEDIB": "",
      "KAJGDIHNKNE": "Animal_Electrohercules_Enemy_RangedAttack01_Chasing",
      "BIAMBCDKJKP": ""
    },
    {
      "FPLENFAEDIB": "",
      "KAJGDIHNKNE": "Animal_Electrohercules_TryBreakRangedAttack",
      "BIAMBCDKJKP": ""
    }
  ],
  "GGIOJAMBNPO": {
    "defaultLayer": {
      "$type": "EPAPJJAGHKG",
      "ACOCIAFGIAD": "",
      "LFGKIDDJIED": {
        "Born": {
          "$type": "IJOIMFMEGMM",
          "DLOHGBDFFGB": {
            "Born": []
          },
          "DLAOMOCMANL": [
            "DoSkill"
          ]
        },
        "NormalIdle": {
          "$type": "IJOIMFMEGMM",
          "DLOHGBDFFGB": {
            "Standby": []
          },
          "POLKCLOHPOO": true,
          "PGKCBIHGAOC": true,
          "AJBLILDCLBO": [
            "IsCharging"
          ],
          "DLAOMOCMANL": [
            "DoSkill"
          ]
        },
        "NormalMove": {
          "$type": "IJOIMFMEGMM",
          "DLOHGBDFFGB": {
            "WalkForward": [],
            "WalkBack": []
          },
          "POLKCLOHPOO": true,
          "DLAOMOCMANL": [
            "DoSkill"
          ]
        },
        "BeHit": {
          "$type": "IJOIMFMEGMM",
          "DLOHGBDFFGB": {
            "Hit_L": [
              "Audio_Animal_Electrohercules_01_Hit_L"
            ],
            "Hit_H": [
              "Audio_Animal_Electrohercules_01_Hit_H"
            ]
          },
          "AJBLILDCLBO": [
            "BeHit"
          ],
          "DLAOMOCMANL": [
            "DoSkill"
          ]
        },
        "BeHitThrow": {
          "$type": "IJOIMFMEGMM",
          "DLOHGBDFFGB": {
            "HitThrow": [],
            "HitThrowDrop": [],
            "HitThrowToGround": []
          },
          "AJBLILDCLBO": [
            "BeHit",
            "HitAir2HitDrop"
          ],
          "DLAOMOCMANL": [
            "DoSkill"
          ]
        },
        "Struggle": {
          "$type": "IJOIMFMEGMM",
          "DLOHGBDFFGB": {
            "Struggle": []
          },
          "AJBLILDCLBO": [
            "BeHit",
            "HitAir2HitDrop"
          ],
          "DLAOMOCMANL": [
            "DoSkill"
          ]
        },
        "Die": {
          "$type": "IJOIMFMEGMM",
          "DLOHGBDFFGB": {
            "Die": [
              "Audio_Animal_Electrohercules_01_Die"
            ]
          }
        },
        "Warning": {
          "$type": "IJOIMFMEGMM",
          "DLOHGBDFFGB": {
            "Alert": [
              "Audio_Animal_Electrohercules_01_Alert"
            ]
          },
          "PGKCBIHGAOC": true,
          "DLAOMOCMANL": [
            "BeHit",
            "DoSkill"
          ],
          "LIPMJPLGIKD": true
        },
        "MeleeAttack01_BS": {
          "$type": "IJOIMFMEGMM",
          "DLOHGBDFFGB": {
            "MeleeAttack01_01_BS": [
              "Animal_Electrohercules_01_JumpForward_Charging",
              "Animal_Electrohercules_01_MeleeAttack01_BS"
            ],
            "MeleeAttack01_01_BSLoop": [],
            "MeleeAttack01_02_BS": [
              "Animal_Electrohercules_01_JumpForward_Charging",
              "Animal_Electrohercules_01_MeleeAttack01_BS"
            ],
            "MeleeAttack01_02_BSLoop": [],
            "MeleeAttack01_03_BS": [
              "Animal_Electrohercules_01_JumpForward_Charging",
              "Animal_Electrohercules_01_MeleeAttack01_BS"
            ],
            "MeleeAttack01_03_BSLoop": []
          },
          "DLAOMOCMANL": [
            "BeHit",
            "DoSkill"
          ]
        },
        "MeleeAttack01": {
          "$type": "IJOIMFMEGMM",
          "DLOHGBDFFGB": {
            "MeleeAttack01_01": [
              "Animal_Electrohercules_01_JumpForward",
              "Audio_Animal_Electrohercules_01_JumpForward"
            ],
            "MeleeAttack01_01_AS": [],
            "MeleeAttack01_02": [
              "Animal_Electrohercules_01_JumpForward",
              "Audio_Animal_Electrohercules_01_JumpForward"
            ],
            "MeleeAttack01_02_AS": [],
            "MeleeAttack01_03": [
              "Animal_Electrohercules_01_JumpForward",
              "Audio_Animal_Electrohercules_01_JumpForward"
            ],
            "MeleeAttack01_03_AS": []
          },
          "DLAOMOCMANL": [
            "BeHit",
            "DoSkill"
          ]
        },
        "RangedAttack01": {
          "$type": "IJOIMFMEGMM",
          "DLOHGBDFFGB": {
            "RangedAttack01_BS": [
              "Animal_Electrohercules_01_RangedAttack01"
            ],
            "RangedAttack01_Loop": [],
            "RangedAttack01_AS": []
          },
          "DLAOMOCMANL": [
            "BeHit",
            "DoSkill"
          ]
        },
        "Recoil": {
          "$type": "IJOIMFMEGMM",
          "DLOHGBDFFGB": {
            "Recoil": []
          },
          "DLAOMOCMANL": [
            "BeHit",
            "DoSkill",
            "CriticalTrigger"
          ]
        },
        "Taunt01": {
          "$type": "IJOIMFMEGMM",
          "DLOHGBDFFGB": {
            "Taunt01": [
              "Audio_Animal_Electrohercules_01_Alert"
            ]
          },
          "DLAOMOCMANL": [
            "BeHit",
            "DoSkill"
          ]
        },
        "Taunt02": {
          "$type": "IJOIMFMEGMM",
          "DLOHGBDFFGB": {
            "Taunt02": [
              "Audio_Animal_Electrohercules_01_Taunt"
            ]
          },
          "DLAOMOCMANL": [
            "BeHit",
            "DoSkill"
          ]
        }
      }
    }
  },
  "IONIFBIBFNL": {
    "Default": {
      "JAAABLNBKAP": 1,
      "PIEEIAOKMJB": {
        "LHMPJOKLEHI": {
          "ActionState": "0"
        }
      }
    }
  },
  "PDCDMABCPOA": {
    "ENLKMOKHELD": true,
    "OCBDDDCJANP": {
      "IJOBKDKBEME": {
        "DefaultSetting": {
          "PHDIIPOBJGA": 25.0,
          "MELADMKNPHC": true,
          "BHOECAJIBOM": 25.0
        }
      }
    },
    "OFEGONBLOGP": {
      "DefaultSetting": []
    },
    "EJOLGMGAECP": {
      "HJODDLMLPBJ": 1.0,
      "KDPOCNEHGBJ": 500.0,
      "JGFOPCOIJOI": ""
    },
    "PMNPDDIOHHJ": {
      "OKMHHFALCCH": 50.0
    },
    "HEOOEKIGDAL": {
      "GMFIDKOEKHA": false,
      "FLMOHOODJBA": ""
    },
    "IEMFHBCDJFP": [
      {
        "BIMBEJCAFLP": 1,
        "DIAPGOFDGLC": 9.0
      }
    ],
    "BNIENJNLAIJ": {
      "1011": {
        "NOKKDDHKGAK": "MeleeAttack01",
        "ENKLFBHHOJI": {
          "CEKMINILIFB": [
            101
          ],
          "MLFAMHDFHMM": 3.0,
          "FNMKPCNDPFM": 8.0
        },
        "PAHIDIJLGPF": 3.0,
        "LKCFDIOMLCM": 1.0,
        "NOPNCNPCPJE": "",
        "HGAMDGAEIGO": "",
        "LFGKIDDJIED": [
          "MeleeAttack01_BS",
          "MeleeAttack01"
        ],
        "PGPDNPMFFAG": "11",
        "CCEAGFDONFH": "01",
        "OKOFHICILMD": "10",
        "CCFFFOIDOLP": "11"
      },
      "1211": {
        "NOKKDDHKGAK": "MeleeAttack01R",
        "ENKLFBHHOJI": {
          "CEKMINILIFB": [
            121
          ],
          "MLFAMHDFHMM": 3.0
        },
        "NOPNCNPCPJE": "",
        "HGAMDGAEIGO": "",
        "LFGKIDDJIED": [
          "MeleeAttack01_BS",
          "MeleeAttack01"
        ],
        "PGPDNPMFFAG": "11",
        "CCEAGFDONFH": "01",
        "OKOFHICILMD": "10",
        "CCFFFOIDOLP": "11"
      },
      "1012": {
        "NOKKDDHKGAK": "RangedAttack01",
        "ENKLFBHHOJI": {
          "CEKMINILIFB": [
            101
          ],
          "OLDIEKKCIOG": 1.5,
          "MLFAMHDFHMM": 99.0,
          "OCFGCKGEJAN": 8.0
        },
        "PAHIDIJLGPF": 10.0,
        "LKCFDIOMLCM": 10.0,
        "NOPNCNPCPJE": "",
        "HGAMDGAEIGO": "",
        "LFGKIDDJIED": [
          "RangedAttack01"
        ],
        "PGPDNPMFFAG": "11",
        "CCEAGFDONFH": "01",
        "OKOFHICILMD": "10",
        "CCFFFOIDOLP": "11"
      },
      "1112": {
        "NOKKDDHKGAK": "RangedAttack01L",
        "ENKLFBHHOJI": {
          "CEKMINILIFB": [
            111
          ],
          "OLDIEKKCIOG": 0.5,
          "MLFAMHDFHMM": 99.0,
          "OCFGCKGEJAN": 5.0
        },
        "PAHIDIJLGPF": 3.0,
        "LKCFDIOMLCM": 3.0,
        "NOPNCNPCPJE": "",
        "HGAMDGAEIGO": "",
        "LFGKIDDJIED": [
          "RangedAttack01"
        ],
        "PGPDNPMFFAG": "11",
        "CCEAGFDONFH": "01",
        "OKOFHICILMD": "10",
        "CCFFFOIDOLP": "11"
      },
      "1018": {
        "NOKKDDHKGAK": "Taunt01",
        "ENKLFBHHOJI": {
          "CEKMINILIFB": [
            101,
            111
          ],
          "OLDIEKKCIOG": 1.5,
          "MLFAMHDFHMM": 99.0
        },
        "PAHIDIJLGPF": 8.0,
        "LKCFDIOMLCM": 5.0,
        "NOPNCNPCPJE": "",
        "LLNBBNIEGGO": true,
        "BIMBEJCAFLP": 1,
        "HGAMDGAEIGO": "",
        "LFGKIDDJIED": [
          "Taunt01"
        ],
        "PGPDNPMFFAG": "11",
        "CCEAGFDONFH": "01",
        "OKOFHICILMD": "10",
        "CCFFFOIDOLP": "11"
      },
      "1019": {
        "NOKKDDHKGAK": "Taunt02",
        "ENKLFBHHOJI": {
          "CEKMINILIFB": [
            101,
            111
          ],
          "OLDIEKKCIOG": 1.5,
          "MLFAMHDFHMM": 99.0
        },
        "PAHIDIJLGPF": 8.0,
        "LKCFDIOMLCM": 5.0,
        "NOPNCNPCPJE": "",
        "LLNBBNIEGGO": true,
        "BIMBEJCAFLP": 1,
        "HGAMDGAEIGO": "",
        "LFGKIDDJIED": [
          "Taunt02"
        ],
        "PGPDNPMFFAG": "11",
        "CCEAGFDONFH": "01",
        "OKOFHICILMD": "10",
        "CCFFFOIDOLP": "11"
      }
    },
    "EEKEAKJCMJO": [
      {
        "$type": "DIIPKNMAPAC",
        "ENLKMOKHELD": true,
        "FJANPNOAAFK": {
          "CEKMINILIFB": [
            101,
            111,
            121
          ]
        },
        "LMMKNFEMOMG": {
          "AGCMPDABMIA": 1.4500000476837158,
          "GDPAONNEBCO": 1.9500000476837158,
          "AJCEMHKIMHA": 10.0,
          "JNMPGLIADPP": 4.0,
          "CCMODCEDODH": 0.5,
          "MMKHHBIBJEN": {
            "GECJAGFGHKL": 0.0,
            "JNJFKLDABCB": 0.0,
            "BEJLOBBENJJ": 0.0
          },
          "GPPLHEGALHI": false,
          "HEGPGPBKGFH": "1111",
          "AFCLIFKCEKM": "1111",
          "JOCOJHEICNA": ""
        },
        "BIDHHBJEKHM": {
          "111": {
            "AGCMPDABMIA": 2.450000047683716,
            "GDPAONNEBCO": 3.950000047683716,
            "AJCEMHKIMHA": 10.0,
            "JNMPGLIADPP": 4.0,
            "CCMODCEDODH": 1.0,
            "MMKHHBIBJEN": {
              "GECJAGFGHKL": 0.0,
              "JNJFKLDABCB": 0.0,
              "BEJLOBBENJJ": 0.0
            },
            "GPPLHEGALHI": false,
            "HEGPGPBKGFH": "1111",
            "AFCLIFKCEKM": "1111",
            "JOCOJHEICNA": ""
          },
          "121": {
            "AGCMPDABMIA": 0.44999998807907104,
            "GDPAONNEBCO": 2.950000047683716,
            "AJCEMHKIMHA": 10.0,
            "JNMPGLIADPP": 4.0,
            "CCMODCEDODH": 0.5,
            "MMKHHBIBJEN": {
              "GECJAGFGHKL": 0.0,
              "NFMBIOFFKGK": 0.0,
              "JNJFKLDABCB": 0.0,
              "BEJLOBBENJJ": 0.0
            },
            "GPPLHEGALHI": false,
            "HEGPGPBKGFH": "1111",
            "AFCLIFKCEKM": "1111",
            "JOCOJHEICNA": ""
          }
        }
      },
      {
        "$type": "BNAGECKMCIB",
        "ENLKMOKHELD": true,
        "FJANPNOAAFK": {
          "CEKMINILIFB": [
            101
          ]
        },
        "LMMKNFEMOMG": {
          "KIHPEPHJMOG": 1,
          "GEAICNICJAJ": 1.0,
          "MPEMBMLOEDG": 2.0,
          "IJLGPEJGLEH": 50.0,
          "IHCAFCNDANA": 0.0,
          "JOCOJHEICNA": ""
        }
      }
    ]
  },
  "GIBHCHHOJFI": [
    {
      "NPDDCIDNKMH": 1,
      "KCAOBJOPJIC": 257,
      "KAJGDIHNKNE": ""
    },
    {
      "NPDDCIDNKMH": 1011,
      "KCAOBJOPJIC": 258,
      "KAJGDIHNKNE": ""
    },
    {
      "NPDDCIDNKMH": 1012,
      "KCAOBJOPJIC": 259,
      "KAJGDIHNKNE": ""
    },
    {
      "NPDDCIDNKMH": 1013,
      "KCAOBJOPJIC": 260,
      "KAJGDIHNKNE": ""
    },
    {
      "NPDDCIDNKMH": 1014,
      "KCAOBJOPJIC": 261,
      "KAJGDIHNKNE": ""
    },
    {
      "NPDDCIDNKMH": 1015,
      "KCAOBJOPJIC": 262,
      "KAJGDIHNKNE": ""
    },
    {
      "NPDDCIDNKMH": 1016,
      "KCAOBJOPJIC": 263,
      "KAJGDIHNKNE": ""
    },
    {
      "NPDDCIDNKMH": 1017,
      "KCAOBJOPJIC": 264,
      "KAJGDIHNKNE": ""
    },
    {
      "NPDDCIDNKMH": 1018,
      "KCAOBJOPJIC": 265,
      "KAJGDIHNKNE": ""
    }
  ],
  "ADIGBDHBCDP": {
    "$type": "IIGPJJNGCLE",
    "MIPNOGBEANL": "ForwardBackward",
    "FACNOEFNHIB": "RootNode"
  },
  "BEGHJJDCLLK": {
    "KEEAIACIJBN": "",
    "JIOEGJGNLEC": {
      "NGKLCAOGKNG": [
        {
          "ILNHPFBOKNK": "WalkBack",
          "CDMEEHAPNGE": {
            "KMNBEAJOBPE": "Play_sfx_animal_electrohercules_walk_Loop"
          }
        },
        {
          "ILNHPFBOKNK": "WalkForward",
          "CDMEEHAPNGE": {
            "KMNBEAJOBPE": "Play_sfx_animal_electrohercules_walk_Loop"
          }
        }
      ],
      "MPLMIOAKNGG": [
        {
          "ILNHPFBOKNK": "WalkBack",
          "CDMEEHAPNGE": {
            "KMNBEAJOBPE": "Stop_sfx_animal_electrohercules_walk_Loop"
          }
        },
        {
          "ILNHPFBOKNK": "WalkForward",
          "CDMEEHAPNGE": {
            "KMNBEAJOBPE": "Stop_sfx_animal_electrohercules_walk_Loop"
          }
        }
      ]
    }
  },
  "KDLODKFKHPB": {
    "PIMGAEBNCBJ": false
  }
}