{
  "common": {
    "effectAttachShape": {
      "$type": "CMIPFEGOJCH",
      "EJAEFCDBDFB": "EffectMesh"
    },
    "mass": 30.0,
    "height": 1.2999999523162842,
    "modelHeight": 0.949999988079071,
    "affectedByWorld": true,
    "checkInSurface": true,
    "scale": 1.399999976158142,
    "DLFJJCMGIBH": true,
    "NICGCIINMFJ": true
  },
  "headControl": {
    "$type": "HLGPLMCNIFB",
    "useHeadControl": true,
    "BADCMJGBCHM": 45.0,
    "AIOGIMNHIGK": 10.0,
    "GDIAFJFLHCE": [
      "NormalIdle/Standby",
      "NormalMove/WalkForward",
      "NormalMove/MoveForward",
      "Run/RunForward",
      "Run/RunBack",
      "Run/RunLeft",
      "Run/RunRight",
      "Turn/TurnLeft",
      "Turn/TurnRight",
      "SurroundTurn/WalkLToR",
      "SurroundTurn/WalkRToL"
    ]
  },
  "model": {
    "bornEffect": "Eff_Monster_Common_Born",
    "attachEffect": "",
    "canBakeMesh": false
  },
  "combat": {
    "property": {
      "endureType": "Monster_Grunt_Other",
      "weight": 100.0
    },
    "beHit": {
      "hitBloodEffect": ""
    },
    "combatLock": {
      "lockShape": "CircleLockEnemy",
      "lockType": "Avatar&Monster_Lv4"
    },
    "die": {
      "hasAnimatorDie": true,
      "dieEndTime": 0.4000000059604645,
      "dieForceDisappearTime": 0.4000000059604645,
      "dieDisappearEffect": "Eff_Death_Abyss_Common",
      "dieShaderData": "MonsterDie",
      "LDOHFFOEPPI": true,
      "BMOKGIFNILM": true,
      "PHCLLDNDFNG": true,
      "CHBAHMJGJBE": true,
      "OPPHENIKFJA": true,
      "CCNGAIMLPIJ": true
    },
    "animEvents": {
      "WavePawR": {
        "attackPattern": {
          "$type": "HBFCINNBDFD",
          "triggerType": "TriggerNoRepeat",
          "born": {
            "$type": "KDEPFKAAHCG",
            "offset": {
              "HMHIOILIGBF": 0.0,
              "DPPJGBOHAAL": -0.30000001192092896,
              "DDOAGBLBCEF": 0.75
            },
            "GDHMBIJKMEF": {
              "$type": "DFEHJKCDGHN",
              "PKNBBHPAKCG": {
                "HMHIOILIGBF": 0.0,
                "DPPJGBOHAAL": 35.0,
                "DDOAGBLBCEF": 0.0
              }
            }
          },
          "height": 1.7999999523162842,
          "NPLOANBGDOK": 200.0,
          "DFMMIGEMOHH": 2.0
        },
        "attackInfo": {
          "attackTag": "Hound_Corruption_Tag",
          "attenuationTag": "",
          "attenuationGroup": "default",
          "attackProperty": {
            "PCFAAPMOCGJ": 0.6499999761581421,
            "LCCBNOKMNFG": 0.0,
            "elementType": "Rock",
            "bonusCritical": 25.0,
            "strikeType": "Default",
            "enBreak": 1.0,
            "FKGFPFNOJMN": 0.0
          },
          "hitPattern": {
            "onHitEffectName": "Eff_Monster_Riftstalker_Hit",
            "hitImpulseType": "LV2",
            "hitHaltTimeScale": 0.05000000074505806
          }
        }
      },
      "WavePawL": {
        "attackPattern": {
          "$type": "HBFCINNBDFD",
          "triggerType": "TriggerNoRepeat",
          "born": {
            "$type": "KDEPFKAAHCG",
            "offset": {
              "HMHIOILIGBF": 0.0,
              "DPPJGBOHAAL": -0.30000001192092896,
              "DDOAGBLBCEF": 0.75
            },
            "GDHMBIJKMEF": {
              "$type": "DFEHJKCDGHN",
              "PKNBBHPAKCG": {
                "HMHIOILIGBF": 0.0,
                "DPPJGBOHAAL": -70.0,
                "DDOAGBLBCEF": 0.0
              }
            }
          },
          "height": 1.7999999523162842,
          "NPLOANBGDOK": 220.0,
          "DFMMIGEMOHH": 2.0
        },
        "attackInfo": {
          "attackTag": "Hound_Corruption_Tag",
          "attenuationTag": "",
          "attenuationGroup": "default",
          "attackProperty": {
            "PCFAAPMOCGJ": 0.6499999761581421,
            "LCCBNOKMNFG": 0.0,
            "elementType": "Rock",
            "bonusCritical": 25.0,
            "strikeType": "Default",
            "enBreak": 1.0,
            "FKGFPFNOJMN": 0.0
          },
          "hitPattern": {
            "onHitEffectName": "Eff_Monster_Riftstalker_Hit",
            "hitImpulseType": "LV2",
            "hitHaltTimeScale": 0.05000000074505806
          }
        }
      },
      "Biting": {
        "attackPattern": {
          "$type": "GGBJACPDDCM",
          "triggerType": "TriggerNoRepeat",
          "born": {
            "$type": "KDEPFKAAHCG",
            "offset": {
              "HMHIOILIGBF": 0.0,
              "DPPJGBOHAAL": 0.8999999761581421,
              "DDOAGBLBCEF": -0.5
            }
          },
          "size": {
            "HMHIOILIGBF": 1.600000023841858,
            "DPPJGBOHAAL": 1.600000023841858,
            "DDOAGBLBCEF": 4.199999809265137
          }
        },
        "attackInfo": {
          "attackTag": "Hound_Corruption_Tag",
          "attenuationTag": "",
          "attenuationGroup": "default",
          "attackProperty": {
            "PCFAAPMOCGJ": 0.8500000238418579,
            "LCCBNOKMNFG": 0.0,
            "elementType": "Rock",
            "bonusCritical": 100.0,
            "strikeType": "Blunt",
            "enBreak": 1.0,
            "attackType": "Melee",
            "FKGFPFNOJMN": 0.0
          },
          "hitPattern": {
            "onHitEffectName": "Eff_Monster_Riftstalker_Hit",
            "hitImpulseType": "LV2"
          },
          "forceCameraShake": true,
          "cameraShake": {
            "shakeType": "HitVector"
          }
        }
      }
    }
  },
  "abilities": [
    {
      "abilityID": "",
      "abilityName": "Monster_Hound_Kanis_Rock_Pose",
      "abilityOverride": ""
    },
    {
      "abilityID": "",
      "abilityName": "Monster_Hound_Kanis_Rock_EyeEff_Add",
      "abilityOverride": ""
    },
    {
      "abilityID": "",
      "abilityName": "Monster_Hound_Kanis_Rock_EyeEff_Remove",
      "abilityOverride": ""
    },
    {
      "abilityID": "",
      "abilityName": "Monster_Hound_Kanis_Rock_Steer",
      "abilityOverride": ""
    },
    {
      "abilityID": "",
      "abilityName": "Monster_Hound_Kanis_Biting",
      "abilityOverride": ""
    },
    {
      "abilityID": "",
      "abilityName": "Monster_Hound_Kanis_WavePaw",
      "abilityOverride": ""
    },
    {
      "abilityID": "",
      "abilityName": "Monster_Hound_Kanis_Rock_Strike_State",
      "abilityOverride": ""
    },
    {
      "abilityID": "",
      "abilityName": "Monster_Hound_Kanis_Rock_Strike_FindBlinkPoint",
      "abilityOverride": ""
    },
    {
      "abilityID": "",
      "abilityName": "Monster_Hound_Kanis_Rock_Strike_DoBlink",
      "abilityOverride": ""
    },
    {
      "abilityID": "",
      "abilityName": "Monster_Hound_Kanis_Rock_Strike_Attack",
      "abilityOverride": ""
    },
    {
      "abilityID": "",
      "abilityName": "Monster_Hound_Kanis_Rock_Biting",
      "abilityOverride": ""
    },
    {
      "abilityID": "",
      "abilityName": "Monster_Hound_Kanis_Rock_Acitvated",
      "abilityOverride": ""
    },
    {
      "abilityID": "",
      "abilityName": "Monster_Hound_Corruption_LoseHP",
      "abilityOverride": ""
    },
    {
      "abilityID": "",
      "abilityName": "Monster_Hound_Kanis_KanisTag",
      "abilityOverride": ""
    },
    {
      "abilityID": "",
      "abilityName": "Monster_Hound_Kanis_ExitBattle",
      "abilityOverride": ""
    }
  ],
  "stateLayers": {
    "defaultLayer": {
      "$type": "KFHJINNNDPN",
      "BOPIBFKFKCA": "",
      "stateIDs": {
        "NormalIdle": {
          "$type": "MEECNDLIOBI",
          "HKPCLGHBKFD": {
            "Standby": [],
            "Born": []
          },
          "KNOHBHKACHA": true,
          "BAABNFCMKIO": true,
          "ADPGACLPFHN": [
            "DoSkill"
          ],
          "NPMGEMAFACP": true,
          "EOALJPNBEOI": true
        },
        "Run": {
          "$type": "MEECNDLIOBI",
          "HKPCLGHBKFD": {
            "RunForward": [],
            "RunBack": [],
            "RunRight": [],
            "RunLeft": []
          },
          "KNOHBHKACHA": true,
          "BAABNFCMKIO": true,
          "ADPGACLPFHN": [
            "DoSkill"
          ],
          "NPMGEMAFACP": true
        },
        "NormalMove": {
          "$type": "MEECNDLIOBI",
          "HKPCLGHBKFD": {
            "WalkForward": [],
            "MoveForward": []
          },
          "KNOHBHKACHA": true,
          "BAABNFCMKIO": true,
          "ADPGACLPFHN": [
            "DoSkill"
          ],
          "NPMGEMAFACP": true
        },
        "Turn": {
          "$type": "MEECNDLIOBI",
          "HKPCLGHBKFD": {
            "TurnLeft": [],
            "TurnRight": []
          },
          "KNOHBHKACHA": true,
          "BAABNFCMKIO": true,
          "ADPGACLPFHN": [
            "DoSkill"
          ],
          "NPMGEMAFACP": true
        },
        "SurroundTurn": {
          "$type": "MEECNDLIOBI",
          "HKPCLGHBKFD": {
            "WalkLToR": [],
            "WalkRToL": []
          },
          "ADPGACLPFHN": [
            "DoSkill"
          ],
          "NPMGEMAFACP": true,
          "DGECHOEBEBO": true
        },
        "BeHit": {
          "$type": "MEECNDLIOBI",
          "HKPCLGHBKFD": {
            "Hit_L": [
              "Audio_Monster_Hound_Kanis_Hit_L"
            ],
            "Hit_H": [
              "Audio_Monster_Hound_Kanis_Hit_H"
            ]
          },
          "PJFELLIJONH": [
            "BeHit"
          ],
          "ADPGACLPFHN": [
            "DoSkill"
          ]
        },
        "BeHitThrow": {
          "$type": "MEECNDLIOBI",
          "HKPCLGHBKFD": {
            "HitThrow": [
              "Audio_Monster_Hound_Kanis_Hit_H"
            ],
            "HitThrowDrop": [],
            "HitThrowToGround": [
              "Audio_Monster_Hound_Kanis_HitToGround"
            ]
          },
          "PJFELLIJONH": [
            "BeHit",
            "HitAir2HitDrop"
          ],
          "ADPGACLPFHN": [
            "DoSkill"
          ]
        },
        "Die": {
          "$type": "MEECNDLIOBI",
          "HKPCLGHBKFD": {
            "Die": [
              "Audio_Monster_Hound_Kanis_Die"
            ]
          }
        },
        "Alert": {
          "$type": "MEECNDLIOBI",
          "HKPCLGHBKFD": {
            "Alert": [
              "Audio_Monster_Hound_Kanis_Alert"
            ]
          },
          "ADPGACLPFHN": [
            "BeHit",
            "DoSkill"
          ]
        },
        "WavePaw": {
          "$type": "MEECNDLIOBI",
          "HKPCLGHBKFD": {
            "WavePaw": [
              "Monster_Hound_Kanis_Rock_WavePaw",
              "Audio_Monster_Hound_Kanis_WavePaw"
            ]
          },
          "BAABNFCMKIO": true,
          "ADPGACLPFHN": [
            "BeHit",
            "DoSkill"
          ],
          "NPMGEMAFACP": true
        },
        "Strike_BS": {
          "$type": "MEECNDLIOBI",
          "HKPCLGHBKFD": {
            "Strike_BS": [
              "Audio_Monster_Hound_Kanis_Strike_BS"
            ]
          },
          "ADPGACLPFHN": [
            "BeHit",
            "DoSkill"
          ],
          "NPMGEMAFACP": true
        },
        "Strike_Loop": {
          "$type": "MEECNDLIOBI",
          "HKPCLGHBKFD": {
            "Strike_Loop": []
          },
          "BAABNFCMKIO": true,
          "ADPGACLPFHN": [
            "BeHit",
            "DoSkill"
          ],
          "NPMGEMAFACP": true
        },
        "Strike_AS": {
          "$type": "MEECNDLIOBI",
          "HKPCLGHBKFD": {
            "Strike_AS": [
              "Monster_Hound_Kanis_Rock_Strike_AS",
              "Audio_Monster_Hound_Kanis_Strike_AS"
            ]
          },
          "ADPGACLPFHN": [
            "BeHit",
            "DoSkill"
          ],
          "NPMGEMAFACP": true
        },
        "Biting_BS": {
          "$type": "MEECNDLIOBI",
          "HKPCLGHBKFD": {
            "Biting_BS": [
              "Audio_Monster_Hound_Kanis_Biting_BS"
            ]
          },
          "ADPGACLPFHN": [
            "BeHit",
            "DoSkill"
          ],
          "NPMGEMAFACP": true
        },
        "Biting": {
          "$type": "MEECNDLIOBI",
          "HKPCLGHBKFD": {
            "Biting": [
              "Monster_Hound_Kanis_Rock_Biting",
              "Audio_Monster_Hound_Kanis_Biting"
            ]
          },
          "ADPGACLPFHN": [
            "BeHit",
            "DoSkill"
          ],
          "NPMGEMAFACP": true
        },
        "Biting_AS": {
          "$type": "MEECNDLIOBI",
          "HKPCLGHBKFD": {
            "Biting_AS": []
          },
          "ADPGACLPFHN": [
            "BeHit",
            "DoSkill"
          ],
          "NPMGEMAFACP": true
        },
        "JumpBack_BS": {
          "$type": "MEECNDLIOBI",
          "HKPCLGHBKFD": {
            "JumpBack_BS": [
              "Audio_Monster_Hound_Kanis_JumpBack_BS"
            ]
          },
          "ADPGACLPFHN": [
            "BeHit",
            "DoSkill"
          ],
          "NPMGEMAFACP": true
        },
        "JumpBack_AS": {
          "$type": "MEECNDLIOBI",
          "HKPCLGHBKFD": {
            "JumpBack_AS": []
          },
          "ADPGACLPFHN": [
            "BeHit",
            "DoSkill"
          ],
          "NPMGEMAFACP": true
        },
        "Activated": {
          "$type": "MEECNDLIOBI",
          "HKPCLGHBKFD": {
            "Activated": [
              "Monster_Hound_Kanis_Rock_Activated",
              "Audio_Monster_Hound_Kanis_Activated"
            ]
          },
          "ADPGACLPFHN": [
            "BeHit",
            "DoSkill"
          ]
        },
        "StandbyFree_Crystallization": {
          "$type": "MEECNDLIOBI",
          "HKPCLGHBKFD": {
            "StandbyFree_Crystallization_01": [],
            "StandbyFree_Crystallization_02": []
          },
          "KNOHBHKACHA": true,
          "BAABNFCMKIO": true,
          "ADPGACLPFHN": [
            "DoSkill"
          ]
        },
        "Alert_Crystallization_01": {
          "$type": "MEECNDLIOBI",
          "HKPCLGHBKFD": {
            "Alert_Crystallization_01": []
          },
          "BGJDNIJICNM": true,
          "PJFELLIJONH": [
            "BeHit"
          ],
          "ADPGACLPFHN": [
            "DoSkill"
          ]
        },
        "Alert_Crystallization_02": {
          "$type": "MEECNDLIOBI",
          "HKPCLGHBKFD": {
            "Alert_Crystallization_02": []
          },
          "BGJDNIJICNM": true,
          "PJFELLIJONH": [
            "BeHit"
          ],
          "ADPGACLPFHN": [
            "DoSkill"
          ]
        }
      }
    }
  },
  "billboard": {
    "$type": "HFEGKLAIGGI",
    "IIKEHINGEME": "BillboardAttach",
    "GEKOGJAPMMH": "Character",
    "HECLHMINJII": 0.25,
    "DMHOOGGGDKG": true
  },
  "initialPoses": {
    "Default": {
      "initialPoseID": 101
    },
    "Crystallization_01": {
      "initialPoseID": 111,
      "initialPoseParams": {
        "boolParams": {
          "Crystallization_01": "true"
        }
      }
    },
    "Crystallization_02": {
      "initialPoseID": 112,
      "initialPoseParams": {
        "boolParams": {
          "Crystallization_02": "true"
        }
      }
    }
  },
  "aibeta": {
    "enable": true,
    "sensing": {
      "settings": {
        "DefaultSetting": {
          "feelRange": 20.0
        },
        "Crystallization": {
          "enableVision": false,
          "hearAttractionRange": 0.0,
          "feelRange": 0.0
        }
      },
      "templates": {
        "DefaultTemplate": {
          "DefaultPoses": "DefaultSetting"
        },
        "NeverCombatTemplate": {
          "DefaultPoses": "DefaultSetting",
          "111": "Crystallization",
          "112": "Crystallization"
        }
      }
    },
    "neurons": {
      "DefaultSetting": [
        "HIT"
      ],
      "NeverCombat": []
    },
    "threat": {
      "clearThreatByLostPath": true,
      "clearThreatTimerByDistance": 5.0,
      "viewAttenuation": [
        {
          "x": 10.0,
          "y": 2.0
        },
        {
          "x": 15.0,
          "y": 1.2000000476837158
        },
        {
          "x": 20.0,
          "y": 0.800000011920929
        },
        {
          "x": 25.0,
          "y": 0.5
        },
        {
          "x": 30.0,
          "y": 0.30000001192092896
        }
      ]
    },
    "defendArea": {
      "defendRange": 50.0
    },
    "profiling": {
      "staticPoses": [
        111,
        112
      ]
    },
    "skillGroupCDConfigs": [
      {
        "skillGroupCDID": 1,
        "skillGroupCDTime": 5.0
      },
      {
        "skillGroupCDID": 2,
        "skillGroupCDTime": 15.0
      },
      {
        "skillGroupCDID": 3,
        "skillGroupCDTime": 10.0
      }
    ],
    "skillSetting": {},
    "skills": {
      "101": {
        "name": "OnAlert",
        "skillType": "OnAlert",
        "faceTarget": true,
        "castCondition": {
          "pose": [
            101
          ]
        },
        "publicCDGroup": "",
        "ignoreGCD": true,
        "triggerGCD": false,
        "CLEPNIDJOLN": "",
        "stateIDs": [
          "Alert"
        ],
        "skillQueryingTime": 3.0,
        "flagTargetReachable": "10",
        "flagSelfOnTemplateCollider": "01",
        "flagSelfInZone": "10",
        "flagTargetInZone": "11"
      },
      "111": {
        "name": "OnAlert",
        "skillType": "OnAlert",
        "castCondition": {
          "pose": [
            111
          ]
        },
        "publicCDGroup": "",
        "triggerGCD": false,
        "CLEPNIDJOLN": "",
        "stateIDs": [
          "Alert_Crystallization_01"
        ],
        "skillQueryingTime": 3.0,
        "flagTargetReachable": "10",
        "flagSelfOnTemplateCollider": "01",
        "flagSelfInZone": "10",
        "flagTargetInZone": "11"
      },
      "112": {
        "name": "OnAlert",
        "skillType": "OnAlert",
        "castCondition": {
          "pose": [
            112
          ]
        },
        "publicCDGroup": "",
        "triggerGCD": false,
        "CLEPNIDJOLN": "",
        "stateIDs": [
          "Alert_Crystallization_02"
        ],
        "skillQueryingTime": 3.0,
        "flagTargetReachable": "10",
        "flagSelfOnTemplateCollider": "01",
        "flagSelfInZone": "10",
        "flagTargetInZone": "11"
      },
      "201": {
        "name": "WavePaw",
        "priority": 2,
        "faceTarget": true,
        "enableSkillPrepare": true,
        "castCondition": {
          "pose": [
            201
          ],
          "pickRangeMin": 0.25,
          "pickRangeMax": 3.25,
          "pickRangeYMax": 3.0,
          "castRangeMax": 3.0
        },
        "cd": 7.5,
        "cdUpperRange": 1.0,
        "publicCDGroup": "",
        "CLEPNIDJOLN": "",
        "stateIDs": [
          "WavePaw"
        ],
        "flagTargetReachable": "10",
        "flagSelfOnTemplateCollider": "01",
        "flagSelfInZone": "10",
        "flagTargetInZone": "11"
      },
      "202": {
        "name": "WavePaw",
        "priority": 2,
        "faceTarget": true,
        "enableSkillPrepare": true,
        "castCondition": {
          "pose": [
            401
          ],
          "pickRangeMin": 0.25,
          "pickRangeMax": 3.25,
          "pickRangeYMax": 3.0,
          "castRangeMax": 3.0
        },
        "cd": 5.5,
        "cdUpperRange": 2.0,
        "publicCDGroup": "",
        "CLEPNIDJOLN": "",
        "stateIDs": [
          "WavePaw"
        ],
        "flagTargetReachable": "10",
        "flagSelfOnTemplateCollider": "01",
        "flagSelfInZone": "10",
        "flagTargetInZone": "11"
      },
      "301": {
        "name": "Strike",
        "priority": 2,
        "castCondition": {
          "pose": [
            201
          ],
          "maxTargetAngleY": 30.0,
          "pickRangeMin": 3.5,
          "pickRangeMax": 14.5,
          "pickRangeYMax": 5.5
        },
        "cd": 15.5,
        "cdUpperRange": 2.0,
        "initialCD": 3.0,
        "initialCDUpperRange": 5.0,
        "publicCDGroup": "Hound_Strike",
        "skillGroupCDID": 2,
        "CLEPNIDJOLN": "",
        "stateIDs": [
          "Strike_BS",
          "Strike_Loop",
          "Strike_AS"
        ],
        "flagTargetReachable": "11",
        "flagSelfOnTemplateCollider": "01",
        "flagSelfInZone": "10",
        "flagTargetInZone": "10"
      },
      "302": {
        "name": "Strike",
        "priority": 2,
        "castCondition": {
          "pose": [
            401
          ],
          "maxTargetAngleY": 30.0,
          "pickRangeMin": 3.5,
          "pickRangeMax": 14.5,
          "pickRangeYMax": 5.5
        },
        "cd": 10.5,
        "cdUpperRange": 2.0,
        "initialCD": 3.0,
        "initialCDUpperRange": 5.0,
        "publicCDGroup": "Hound_Strike",
        "skillGroupCDID": 3,
        "CLEPNIDJOLN": "",
        "stateIDs": [
          "Strike_BS",
          "Strike_Loop",
          "Strike_AS"
        ],
        "flagTargetReachable": "11",
        "flagSelfOnTemplateCollider": "01",
        "flagSelfInZone": "10",
        "flagTargetInZone": "10"
      },
      "303": {
        "name": "Strike",
        "priority": 1,
        "castCondition": {
          "pose": [
            201,
            401
          ],
          "maxTargetAngleY": 30.0,
          "pickRangeMin": 18.5,
          "pickRangeMax": 25.0,
          "pickRangeYMax": 5.5
        },
        "cd": 20.5,
        "cdUpperRange": 5.0,
        "initialCD": 3.0,
        "initialCDUpperRange": 7.5,
        "publicCDGroup": "",
        "skillGroupCDID": 2,
        "CLEPNIDJOLN": "",
        "stateIDs": [
          "Strike_BS",
          "Strike_Loop",
          "Strike_AS"
        ],
        "flagTargetReachable": "11",
        "flagSelfOnTemplateCollider": "01",
        "flagSelfInZone": "10",
        "flagTargetInZone": "10"
      },
      "304": {
        "name": "Strike",
        "priority": 1,
        "castCondition": {
          "pose": [
            201,
            401
          ],
          "maxTargetAngleY": 30.0,
          "pickRangeMin": 1.5,
          "pickRangeMax": 20.0,
          "pickRangeYMax": 5.5
        },
        "cd": 999999.0,
        "initialCD": 2.0,
        "initialCDUpperRange": 3.0,
        "publicCDGroup": "Hound_Strike",
        "CLEPNIDJOLN": "",
        "stateIDs": [
          "Strike_BS",
          "Strike_Loop",
          "Strike_AS"
        ],
        "flagTargetReachable": "11",
        "flagSelfOnTemplateCollider": "01",
        "flagSelfInZone": "10",
        "flagTargetInZone": "10"
      },
      "401": {
        "name": "Biting",
        "priority": 2,
        "faceTarget": true,
        "castCondition": {
          "pose": [
            201
          ],
          "pickRangeMax": 5.5,
          "pickRangeYMax": 3.0,
          "castRangeMax": 5.5
        },
        "cd": 7.5,
        "cdUpperRange": 2.0,
        "publicCDGroup": "",
        "CLEPNIDJOLN": "",
        "stateIDs": [
          "Biting_BS",
          "Biting",
          "Biting_AS"
        ],
        "flagTargetReachable": "11",
        "flagSelfOnTemplateCollider": "01",
        "flagSelfInZone": "11",
        "flagTargetInZone": "11"
      },
      "402": {
        "name": "Biting",
        "priority": 2,
        "faceTarget": true,
        "castCondition": {
          "pose": [
            401
          ],
          "pickRangeMax": 5.5,
          "pickRangeYMax": 3.0,
          "castRangeMax": 5.5
        },
        "cd": 5.5,
        "cdUpperRange": 2.0,
        "publicCDGroup": "",
        "CLEPNIDJOLN": "",
        "stateIDs": [
          "Biting_BS",
          "Biting",
          "Biting_AS"
        ],
        "flagTargetReachable": "11",
        "flagSelfOnTemplateCollider": "01",
        "flagSelfInZone": "11",
        "flagTargetInZone": "11"
      },
      "601": {
        "name": "Activated",
        "castCondition": {
          "pose": [
            301
          ]
        },
        "cd": 999999.0,
        "publicCDGroup": "",
        "ignoreGCD": true,
        "triggerGCD": false,
        "triggerCDOnStart": true,
        "KFIGEPOKGBN": false,
        "CLEPNIDJOLN": "",
        "stateIDs": [
          "Activated"
        ],
        "flagTargetReachable": "10",
        "flagSelfOnTemplateCollider": "11",
        "flagSelfInZone": "11",
        "flagTargetInZone": "11"
      }
    },
    "combatFixedMoveTactic": [
      {
        "$type": "HLPBLIEBJLM",
        "enable": true,
        "EGJMGEHLDOL": {
          "pose": [
            201,
            401
          ]
        },
        "NGIEOIGFFDH": {
          "GPKNKJPPCOM": 7.5,
          "NDCHJGOOLCF": 50.0,
          "FDNLEPNLLBP": 5.0,
          "DANCMNIMNAM": 0.0,
          "KLOEABKCIIP": 0,
          "FCFLCFFJKLO": ""
        }
      },
      {
        "$type": "GJGILIGEJMO",
        "enable": true,
        "NGIEOIGFFDH": {
          "FCFLCFFJKLO": "",
          "BKCOJDIDEGN": ""
        }
      },
      {
        "$type": "IKIHDEMELGB",
        "enable": true,
        "EGJMGEHLDOL": {
          "pose": [
            101
          ]
        },
        "NGIEOIGFFDH": {
          "HOKGJAONGHG": 5.0,
          "GJOBDMEBGLM": 2.0,
          "KDLAOJIPGHP": 15.0,
          "OEFFOIEOJNC": 5.0,
          "HAHMEDHEBKE": 7.5,
          "FCFLCFFJKLO": ""
        }
      }
    ]
  },
  "inputKeys": [
    {
      "keyID": 101,
      "inputKeyCode": 257,
      "abilityName": ""
    },
    {
      "keyID": 201,
      "inputKeyCode": 258,
      "abilityName": ""
    },
    {
      "keyID": 301,
      "inputKeyCode": 259,
      "abilityName": ""
    },
    {
      "keyID": 401,
      "inputKeyCode": 260,
      "abilityName": ""
    },
    {
      "keyID": 501,
      "inputKeyCode": 261,
      "abilityName": ""
    },
    {
      "keyID": 601,
      "inputKeyCode": 262,
      "abilityName": ""
    }
  ],
  "move": {
    "$type": "JKDLANFKJIL",
    "MFABCNMCIFB": true,
    "JHOFDBDBINH": false,
    "COJFNGPJCCL": true,
    "ADKJOFPNHNO": "ForwardBackward",
    "LDHGAEIKIEE": "SlimeType",
    "NKJKJFLNPPN": 2.0,
    "LPAKBBIADNC": "RootNode"
  },
  "audio": {
    "LKJIHNLBIJL": "",
    "animAudio": {
      "onTransitionIn": [
        {
          "currentStateName": "OutOfBuild",
          "audioEvent": {
            "text": "Stop_sfx_monster_hili_build"
          }
        },
        {
          "currentStateName": "Alert",
          "audioEvent": {
            "text": "Stop_sfx_monster_hili_build"
          }
        },
        {
          "currentStateName": "BeHit",
          "audioEvent": {
            "text": "Stop_sfx_monster_hili_build"
          }
        },
        {
          "currentStateName": "Die",
          "audioEvent": {
            "text": "Stop_sfx_monster_hili_build"
          }
        },
        {
          "currentStateName": "Die1",
          "audioEvent": {
            "text": "Stop_sfx_monster_hili_build"
          }
        },
        {
          "currentStateName": "Die2",
          "audioEvent": {
            "text": "Stop_sfx_monster_hili_build"
          }
        },
        {
          "currentStateName": "OutOfMake",
          "audioEvent": {
            "text": "Stop_sfx_monster_hili_build"
          }
        },
        {
          "currentStateName": "Practice_Sword_Back",
          "audioEvent": {
            "text": "Play_sfx_monster_hili_practice_back"
          }
        },
        {
          "currentStateName": "Practice_NoWeapon_Back",
          "audioEvent": {
            "text": "Play_sfx_monster_hili_practice_back"
          }
        },
        {
          "currentStateName": "Practice_Shoot_Aim",
          "audioEvent": {
            "text": "Play_sfx_monster_hili_practice_shoot_aim"
          }
        },
        {
          "currentStateName": "Dance",
          "audioEvent": {
            "text": "Play_sfx_monster_hili_dance"
          }
        },
        {
          "currentStateName": "OutOfDance",
          "audioEvent": {
            "text": "Stop_sfx_monster_hili_dance"
          }
        },
        {
          "currentStateName": "SurroundFree01_Club",
          "audioEvent": {
            "text": "Play_sfx_monster_hili_dance"
          }
        },
        {
          "currentStateName": "SurroundFree01_NoWeapon",
          "audioEvent": {
            "text": "Play_sfx_monster_hili_dance"
          }
        },
        {
          "currentStateName": "OutOfSurround",
          "audioEvent": {
            "text": "Stop_sfx_monster_hili_dance"
          }
        },
        {
          "currentStateName": "Alert",
          "audioEvent": {
            "text": "Stop_sfx_monster_hili_dance"
          }
        },
        {
          "currentStateName": "BeHit",
          "audioEvent": {
            "text": "Stop_sfx_monster_hili_dance"
          }
        },
        {
          "currentStateName": "Die",
          "audioEvent": {
            "text": "Stop_sfx_monster_hili_dance"
          }
        },
        {
          "currentStateName": "Die1",
          "audioEvent": {
            "text": "Stop_sfx_monster_hili_dance"
          }
        },
        {
          "currentStateName": "Die2",
          "audioEvent": {
            "text": "Stop_sfx_monster_hili_dance"
          }
        },
        {
          "currentStateName": "ThreatFree01_NoWeapon",
          "audioEvent": {
            "text": "Play_sfx_monster_hili_dance"
          }
        },
        {
          "currentStateName": "ThreatFree02_NoWeapon",
          "audioEvent": {
            "text": "Play_sfx_monster_hili_dance"
          }
        },
        {
          "currentStateName": "ThreatFree01_Club",
          "audioEvent": {
            "text": "Play_sfx_monster_hili_dance"
          }
        },
        {
          "currentStateName": "ThreatFree02_Club",
          "audioEvent": {
            "text": "Play_sfx_monster_hili_dance"
          }
        },
        {
          "currentStateName": "OutOfThreat",
          "audioEvent": {
            "text": "Stop_sfx_monster_hili_dance"
          }
        }
      ],
      "onTransitionOut": [
        {
          "currentStateName": "BombCreate",
          "audioEvent": {
            "text": "Stop_sfx_monster_hili_build"
          }
        },
        {
          "currentStateName": "Make",
          "audioEvent": {
            "text": "Stop_sfx_monster_hili_build"
          }
        },
        {
          "currentStateName": "Build",
          "audioEvent": {
            "text": "Stop_sfx_monster_hili_build"
          }
        },
        {
          "currentStateName": "Practice_Sword",
          "audioEvent": {
            "text": "Stop_sfx_monster_hili_practice_sword"
          }
        },
        {
          "currentStateName": "Practice_NoWeapon",
          "audioEvent": {
            "text": "Stop_sfx_monster_hili_practice_sword"
          }
        },
        {
          "currentStateName": "Practice_Sword_Back",
          "audioEvent": {
            "text": "Stop_sfx_monster_hili_practice_back"
          }
        },
        {
          "currentStateName": "Practice_NoWeapon_Back",
          "audioEvent": {
            "text": "Stop_sfx_monster_hili_practice_back"
          }
        },
        {
          "currentStateName": "Practice_Shoot_Aim",
          "audioEvent": {
            "text": "Stop_sfx_monster_hili_practice_shoot_aim"
          },
          "otherStateNames": [
            "Practice_Shoot_Attack"
          ],
          "usage": "Except"
        },
        {
          "currentStateName": "Practice_Shoot_Attack",
          "audioEvent": {
            "text": "Stop_sfx_monster_hili_practice_shoot_aim"
          }
        },
        {
          "currentStateName": "Dance",
          "audioEvent": {
            "text": "Stop_sfx_monster_hili_dance"
          }
        },
        {
          "currentStateName": "SurroundFree01_Club",
          "audioEvent": {
            "text": "Stop_sfx_monster_hili_dance"
          }
        },
        {
          "currentStateName": "SurroundFree01_NoWeapon",
          "audioEvent": {
            "text": "Stop_sfx_monster_hili_dance"
          }
        },
        {
          "currentStateName": "ThreatFree01_NoWeapon",
          "audioEvent": {
            "text": "Stop_sfx_monster_hili_dance"
          }
        },
        {
          "currentStateName": "ThreatFree02_NoWeapon",
          "audioEvent": {
            "text": "Stop_sfx_monster_hili_dance"
          }
        },
        {
          "currentStateName": "ThreatFree01_Club",
          "audioEvent": {
            "text": "Stop_sfx_monster_hili_dance"
          }
        },
        {
          "currentStateName": "ThreatFree02_Club",
          "audioEvent": {
            "text": "Stop_sfx_monster_hili_dance"
          }
        }
      ]
    },
    "disableEvent": {
      "text": "Stop_sfx_monster_hili_dance"
    },
    "destroyEvent": {
      "text": "Stop_sfx_monster_hili_dance"
    }
  }
}