{
  "common": {
    "effectAttachShape": {
      "$type": "CMIPFEGOJCH",
      "EJAEFCDBDFB": "Body"
    },
    "mass": 10000.0,
    "height": 3.0,
    "affectedByWorld": true,
    "checkInSurface": true,
    "scale": 1.2000000476837158
  },
  "model": {
    "bornEffect": "",
    "attachEffect": "",
    "canBakeMesh": false
  },
  "dither": {
    "showDitherDuration": 2.0,
    "normalBetweenCamera": {
      "detectDitherRange": 0.0
    }
  },
  "combat": {
    "property": {
      "endureType": "Monster_Boss_Other",
      "weight": 300.0
    },
    "beHit": {
      "hitBloodEffect": "",
      "hitAutoRedirect": false
    },
    "combatLock": {
      "lockShape": "CircleLockEnemy",
      "lockType": "Avatar&Monster_Lv4"
    },
    "die": {
      "dieEndTime": 1.0,
      "dieForceDisappearTime": 4.0,
      "dieDisappearEffect": "",
      "dieDisappearEffectDelay": 1.0,
      "LDOHFFOEPPI": true,
      "BMOKGIFNILM": true,
      "PHCLLDNDFNG": true,
      "CHBAHMJGJBE": true,
      "OPPHENIKFJA": true,
      "CCNGAIMLPIJ": true
    },
    "animEvents": {
      "AtkL01": {
        "attackPattern": {
          "$type": "HBFCINNBDFD",
          "triggerType": "TriggerNoRepeat",
          "born": {
            "$type": "KDEPFKAAHCG",
            "offset": {
              "HMHIOILIGBF": 0.0,
              "DPPJGBOHAAL": 0.0,
              "DDOAGBLBCEF": 0.0
            }
          },
          "height": 3.0,
          "NPLOANBGDOK": 150.0,
          "DFMMIGEMOHH": 7.0
        },
        "attackInfo": {
          "attackTag": "",
          "attenuationTag": "",
          "attenuationGroup": "default",
          "attackProperty": {
            "PCFAAPMOCGJ": 1.0,
            "LCCBNOKMNFG": 0.0,
            "elementType": "Wind",
            "bonusCritical": 50.0,
            "strikeType": "Blunt",
            "enBreak": 100.0,
            "attackType": "Melee",
            "FKGFPFNOJMN": 0.0
          },
          "hitPattern": {
            "onHitEffectName": "default",
            "hitImpulseType": "LV5",
            "hitHaltTimeScale": 0.009999999776482582
          },
          "forceCameraShake": true,
          "cameraShake": {
            "shakeRange": 2.0,
            "shakeTime": 0.4000000059604645,
            "shakeDistance": 30.0
          }
        }
      },
      "AtkL02": {
        "attackPattern": {
          "$type": "GGBJACPDDCM",
          "triggerType": "TriggerNoRepeat",
          "born": {
            "$type": "KDEPFKAAHCG",
            "offset": {
              "HMHIOILIGBF": 0.0,
              "DPPJGBOHAAL": 2.0,
              "DDOAGBLBCEF": 3.0
            }
          },
          "size": {
            "HMHIOILIGBF": 4.0,
            "DPPJGBOHAAL": 4.0,
            "DDOAGBLBCEF": 9.0
          }
        },
        "attackInfo": {
          "attackTag": "",
          "attenuationTag": "",
          "attenuationGroup": "default",
          "attackProperty": {
            "PCFAAPMOCGJ": 1.0,
            "LCCBNOKMNFG": 0.0,
            "elementType": "Electric",
            "bonusCritical": 50.0,
            "strikeType": "Blunt",
            "enBreak": 100.0,
            "attackType": "Melee",
            "FKGFPFNOJMN": 0.0
          },
          "hitPattern": {
            "onHitEffectName": "default",
            "hitImpulseType": "",
            "overrideHitImpulse": {
              "hitLevel": "Air",
              "BLHKKKALNDK": 900.0,
              "hitImpulseY": 600.0
            },
            "retreatType": "ByHitDirection",
            "hitHaltTimeScale": 0.009999999776482582
          }
        }
      },
      "AtkL03": {
        "attackPattern": {
          "$type": "HBFCINNBDFD",
          "triggerType": "TriggerNoRepeat",
          "born": {
            "$type": "KDEPFKAAHCG",
            "offset": {
              "HMHIOILIGBF": 0.0,
              "DPPJGBOHAAL": 0.0,
              "DDOAGBLBCEF": 1.0
            }
          },
          "height": 3.0,
          "NPLOANBGDOK": 150.0,
          "DFMMIGEMOHH": 5.0
        },
        "attackInfo": {
          "attackTag": "",
          "attenuationTag": "",
          "attenuationGroup": "default",
          "attackProperty": {
            "PCFAAPMOCGJ": 1.0,
            "LCCBNOKMNFG": 0.0,
            "elementType": "Electric",
            "bonusCritical": 50.0,
            "strikeType": "Blunt",
            "enBreak": 100.0,
            "attackType": "Melee",
            "FKGFPFNOJMN": 0.0
          },
          "hitPattern": {
            "onHitEffectName": "default",
            "hitImpulseType": "",
            "overrideHitImpulse": {
              "hitLevel": "Air",
              "BLHKKKALNDK": 900.0,
              "hitImpulseY": 600.0
            },
            "hitHaltTimeScale": 0.009999999776482582
          },
          "forceCameraShake": true,
          "cameraShake": {
            "shakeRange": 0.800000011920929,
            "shakeTime": 0.25,
            "shakeDistance": 30.0
          }
        }
      },
      "AtkL04": {
        "attackPattern": {
          "$type": "HBFCINNBDFD",
          "triggerType": "TriggerNoRepeat",
          "born": {
            "$type": "KDEPFKAAHCG",
            "offset": {
              "HMHIOILIGBF": 0.0,
              "DPPJGBOHAAL": 0.0,
              "DDOAGBLBCEF": 1.5
            }
          },
          "height": 3.0,
          "NPLOANBGDOK": 180.0,
          "DFMMIGEMOHH": 6.0
        },
        "attackInfo": {
          "attackTag": "",
          "attenuationTag": "",
          "attenuationGroup": "default",
          "attackProperty": {
            "PCFAAPMOCGJ": 1.0,
            "LCCBNOKMNFG": 0.0,
            "elementType": "Electric",
            "bonusCritical": 50.0,
            "strikeType": "Blunt",
            "enBreak": 100.0,
            "attackType": "Melee",
            "FKGFPFNOJMN": 0.0
          },
          "hitPattern": {
            "onHitEffectName": "default",
            "hitImpulseType": "",
            "overrideHitImpulse": {
              "hitLevel": "Air",
              "BLHKKKALNDK": 1000.0,
              "hitImpulseY": 600.0
            },
            "hitHaltTimeScale": 0.009999999776482582
          },
          "forceCameraShake": true,
          "cameraShake": {
            "shakeType": "CustomVector",
            "shakeRange": 1.0,
            "shakeTime": 0.25,
            "shakeDistance": 30.0
          }
        }
      }
    }
  },
  "equipController": {
    "sheathPoint": ""
  },
  "abilities": [
    {
      "abilityID": "Monster_Effigy_Wind_ShaderState1ToState2",
      "abilityName": "Monster_Effigy_Wind_ShaderState1ToState2",
      "abilityOverride": ""
    },
    {
      "abilityID": "Monster_Effigy_Wind_ShaderState2ToState1",
      "abilityName": "Monster_Effigy_Wind_ShaderState2ToState1",
      "abilityOverride": ""
    },
    {
      "abilityID": "Monster_Effigy_Wind_CoreOutAS",
      "abilityName": "Monster_Effigy_Wind_CoreOutAS",
      "abilityOverride": ""
    },
    {
      "abilityID": "Monster_Effigy_Wind_Shield",
      "abilityName": "Monster_Effigy_Wind_Shield",
      "abilityOverride": ""
    },
    {
      "abilityID": "Monster_Effigy_Wind_Core",
      "abilityName": "Monster_Effigy_Wind_Core",
      "abilityOverride": ""
    },
    {
      "abilityID": "Monster_Effigy_Wind_RebornState",
      "abilityName": "Monster_Effigy_Wind_RebornState",
      "abilityOverride": ""
    },
    {
      "abilityID": "Monster_Effigy_Wind_HpDetect",
      "abilityName": "Monster_Effigy_Wind_HpDetect",
      "abilityOverride": ""
    },
    {
      "abilityID": "Monster_Effigy_Wind_RebornStart",
      "abilityName": "Monster_Effigy_Wind_RebornStart",
      "abilityOverride": ""
    },
    {
      "abilityID": "Monster_Effigy_Wind_RebornElemBall",
      "abilityName": "Monster_Effigy_Wind_RebornElemBall",
      "abilityOverride": ""
    },
    {
      "abilityID": "Monster_Effigy_Wind_HealHp",
      "abilityName": "Monster_Effigy_Wind_HealHp",
      "abilityOverride": ""
    },
    {
      "abilityID": "Monster_Effigy_Wind_SetDyingPose",
      "abilityName": "Monster_Effigy_Wind_SetDyingPose",
      "abilityOverride": ""
    },
    {
      "abilityID": "Monster_Effigy_Wind_SetCoreOutPose",
      "abilityName": "Monster_Effigy_Wind_SetCoreOutPose",
      "abilityOverride": ""
    },
    {
      "abilityID": "Monster_Effigy_Wind_SetCoreInPose",
      "abilityName": "Monster_Effigy_Wind_SetCoreInPose",
      "abilityOverride": ""
    },
    {
      "abilityID": "Monster_Effigy_Wind_SetRebornPose",
      "abilityName": "Monster_Effigy_Wind_SetRebornPose",
      "abilityOverride": ""
    },
    {
      "abilityID": "Monster_Effigy_Wind_WindFall",
      "abilityName": "Monster_Effigy_Wind_WindFall",
      "abilityOverride": ""
    },
    {
      "abilityID": "Monster_Effigy_Wind_CreateTornadoEmitter",
      "abilityName": "Monster_Effigy_Wind_CreateTornadoEmitter",
      "abilityOverride": ""
    },
    {
      "abilityID": "Monster_Effigy_Wind_EnergyAbsorb",
      "abilityName": "Monster_Effigy_Wind_EnergyAbsorb",
      "abilityOverride": ""
    },
    {
      "abilityID": "Monster_Effigy_Wind_WindExplode",
      "abilityName": "Monster_Effigy_Wind_WindExplode",
      "abilityOverride": ""
    },
    {
      "abilityID": "Monster_Effigy_Wind_FireExplode",
      "abilityName": "Monster_Effigy_Wind_FireExplode",
      "abilityOverride": ""
    },
    {
      "abilityID": "Monster_Effigy_Wind_ElectricExplode",
      "abilityName": "Monster_Effigy_Wind_ElectricExplode",
      "abilityOverride": ""
    },
    {
      "abilityID": "Monster_Effigy_Wind_WaterExplode",
      "abilityName": "Monster_Effigy_Wind_WaterExplode",
      "abilityOverride": ""
    },
    {
      "abilityID": "Monster_Effigy_Wind_IceExplode",
      "abilityName": "Monster_Effigy_Wind_IceExplode",
      "abilityOverride": ""
    },
    {
      "abilityID": "Monster_Effigy_Wind_AirGun",
      "abilityName": "Monster_Effigy_Wind_AirGun",
      "abilityOverride": ""
    },
    {
      "abilityID": "Monster_Effigy_Wind_VortexWindZone",
      "abilityName": "Monster_Effigy_Wind_VortexWindZone",
      "abilityOverride": ""
    },
    {
      "abilityID": "Monster_Effigy_Wind_VortexExplode",
      "abilityName": "Monster_Effigy_Wind_VortexExplode",
      "abilityOverride": ""
    },
    {
      "abilityID": "Monster_Effigy_Wind_FindBlinkPos",
      "abilityName": "Monster_Effigy_Wind_FindBlinkPos",
      "abilityOverride": ""
    },
    {
      "abilityID": "Monster_Effigy_Wind_Blink",
      "abilityName": "Monster_Effigy_Wind_Blink",
      "abilityOverride": ""
    },
    {
      "abilityID": "Monster_Effigy_Wind_BlinkStart",
      "abilityName": "Monster_Effigy_Wind_BlinkStart",
      "abilityOverride": ""
    },
    {
      "abilityID": "Monster_Effigy_Wind_BlinkAS",
      "abilityName": "Monster_Effigy_Wind_BlinkAS",
      "abilityOverride": ""
    },
    {
      "abilityID": "Monster_Effigy_Wind_Storm",
      "abilityName": "Monster_Effigy_Wind_Storm",
      "abilityOverride": ""
    },
    {
      "abilityID": "Monster_Effigy_Wind_Steer",
      "abilityName": "Monster_Effigy_Wind_Steer",
      "abilityOverride": ""
    },
    {
      "abilityID": "Monster_Effigy_Wind_WindBlade",
      "abilityName": "Monster_Effigy_Wind_WindBlade",
      "abilityOverride": ""
    },
    {
      "abilityID": "Monster_Effigy_Wind_RandomMove",
      "abilityName": "Monster_Effigy_Wind_RandomMove",
      "abilityOverride": ""
    },
    {
      "abilityID": "Monster_Effigy_Wind_RandomMoveStart",
      "abilityName": "Monster_Effigy_Wind_RandomMoveStart",
      "abilityOverride": ""
    },
    {
      "abilityID": "Monster_Effigy_Wind_MultiAtk_Start",
      "abilityName": "Monster_Effigy_Wind_MultiAtk_Start",
      "abilityOverride": ""
    },
    {
      "abilityID": "Monster_Effigy_Wind_MultiAtk_Attack",
      "abilityName": "Monster_Effigy_Wind_MultiAtk_Attack",
      "abilityOverride": ""
    },
    {
      "abilityID": "Monster_Effigy_Wind_MultiAtk_SetCoreOutPose",
      "abilityName": "Monster_Effigy_Wind_MultiAtk_SetCoreOutPose",
      "abilityOverride": ""
    },
    {
      "abilityID": "Monster_Effigy_Wind_Reborn_FindBlinkPos",
      "abilityName": "Monster_Effigy_Wind_Reborn_FindBlinkPos",
      "abilityOverride": ""
    },
    {
      "abilityID": "Monster_Effigy_Wind_FindBlinkPos_EnergyAbsorbStart",
      "abilityName": "Monster_Effigy_Wind_FindBlinkPos_EnergyAbsorbStart",
      "abilityOverride": ""
    },
    {
      "abilityID": "Monster_Effigy_Wind_FindBlinkPos_EnergyAbsorb",
      "abilityName": "Monster_Effigy_Wind_FindBlinkPos_EnergyAbsorb",
      "abilityOverride": ""
    },
    {
      "abilityID": "Monster_Common_WindMuteHurt",
      "abilityName": "Monster_Common_WindMuteHurt",
      "abilityOverride": ""
    },
    {
      "abilityID": "Monster_Effigy_Wind_KillElemBall",
      "abilityName": "Monster_Effigy_Wind_KillElemBall",
      "abilityOverride": ""
    },
    {
      "abilityID": "Monster_Effigy_ReturnToBorn",
      "abilityName": "Monster_Effigy_ReturnToBorn",
      "abilityOverride": ""
    },
    {
      "abilityID": "Monster_Effigy_Wind_Elite_SetEffigyEliteFlag",
      "abilityName": "Monster_Effigy_Wind_Elite_SetEffigyEliteFlag",
      "abilityOverride": ""
    },
    {
      "abilityID": "Monster_Effigy_Wind_Elite_AirBlade",
      "abilityName": "Monster_Effigy_Wind_Elite_AirBlade",
      "abilityOverride": ""
    },
    {
      "abilityID": "Monster_Effigy_Wind_Elite_WindFall",
      "abilityName": "Monster_Effigy_Wind_Elite_WindFall",
      "abilityOverride": ""
    },
    {
      "abilityID": "Monster_Effigy_Wind_Elite_RebornElemBall",
      "abilityName": "Monster_Effigy_Wind_Elite_RebornElemBall",
      "abilityOverride": ""
    },
    {
      "abilityID": "Monster_Effigy_Wind_Elite_WindButterfly_Start",
      "abilityName": "Monster_Effigy_Wind_Elite_WindButterfly_Start",
      "abilityOverride": ""
    },
    {
      "abilityID": "Monster_Effigy_Wind_Elite_WindButterfly_Damage",
      "abilityName": "Monster_Effigy_Wind_Elite_WindButterfly_Damage",
      "abilityOverride": ""
    },
    {
      "abilityID": "Monster_Effigy_Wind_Elite_WindButterfly_Launch",
      "abilityName": "Monster_Effigy_Wind_Elite_WindButterfly_Launch",
      "abilityOverride": ""
    }
  ],
  "stateLayers": {
    "defaultLayer": {
      "$type": "KFHJINNNDPN",
      "BOPIBFKFKCA": "",
      "stateIDs": {
        "Born": {
          "$type": "MEECNDLIOBI",
          "HKPCLGHBKFD": {
            "Born": [
              "Audio_Effigy_Wind_Born"
            ]
          },
          "KNOHBHKACHA": true,
          "BAABNFCMKIO": true,
          "ADPGACLPFHN": [
            "DoSkill",
            "ToShaderState1"
          ]
        },
        "Standby_BS": {
          "$type": "MEECNDLIOBI",
          "HKPCLGHBKFD": {
            "Standby_BS": []
          },
          "BAABNFCMKIO": true,
          "BGJDNIJICNM": true,
          "ADPGACLPFHN": [
            "DoSkill",
            "ToShaderState1"
          ]
        },
        "Standby_AS": {
          "$type": "MEECNDLIOBI",
          "HKPCLGHBKFD": {
            "Standby_AS": []
          },
          "KNOHBHKACHA": true,
          "BAABNFCMKIO": true,
          "BGJDNIJICNM": true,
          "ADPGACLPFHN": [
            "DoSkill",
            "ToShaderState1"
          ]
        },
        "StandbyFree": {
          "$type": "MEECNDLIOBI",
          "HKPCLGHBKFD": {
            "StandbyFree": []
          },
          "KNOHBHKACHA": true,
          "BAABNFCMKIO": true,
          "BGJDNIJICNM": true,
          "ADPGACLPFHN": [
            "DoSkill",
            "ToShaderState1"
          ]
        },
        "BeHit": {
          "$type": "MEECNDLIOBI",
          "HKPCLGHBKFD": {
            "Hit_L": [],
            "Hit_H": []
          },
          "PJFELLIJONH": [
            "BeHit"
          ],
          "ADPGACLPFHN": [
            "DoSkill",
            "ToShaderState1"
          ]
        },
        "BeHitThrow": {
          "$type": "MEECNDLIOBI",
          "HKPCLGHBKFD": {
            "HitThrow": [],
            "HitThrowDrop": [],
            "HitThrowToGround": []
          },
          "PJFELLIJONH": [
            "BeHit",
            "HitAir2HitDrop"
          ],
          "ADPGACLPFHN": [
            "DoSkill",
            "ToShaderState1"
          ]
        },
        "Die": {
          "$type": "MEECNDLIOBI",
          "HKPCLGHBKFD": {
            "Die": [
              "Monster_Effigy_Wind_Die",
              "Audio_Effigy_Wind_Die"
            ],
            "SwimDie": [
              "Monster_Effigy_Wind_Die"
            ]
          },
          "BGJDNIJICNM": true
        },
        "Dying": {
          "$type": "MEECNDLIOBI",
          "HKPCLGHBKFD": {
            "Dying_Blink": [
              "Monster_Effigy_Wind_Reborn_Blink",
              "Audio_Effigy_Wind_Blink"
            ],
            "Dying": []
          },
          "BGJDNIJICNM": true,
          "PJFELLIJONH": [
            "DyingState"
          ],
          "ADPGACLPFHN": [
            "BeHit",
            "DoSkill",
            "DyingState"
          ]
        },
        "Dying_AS": {
          "$type": "MEECNDLIOBI",
          "HKPCLGHBKFD": {
            "Dying_AS": [
              "Monster_Effigy_Wind_DyingAS"
            ]
          },
          "BGJDNIJICNM": true,
          "PJFELLIJONH": [
            "DyingState"
          ],
          "ADPGACLPFHN": [
            "BeHit",
            "DoSkill",
            "DyingState"
          ]
        },
        "Warning": {
          "$type": "MEECNDLIOBI",
          "HKPCLGHBKFD": {
            "Warning": [
              "Audio_Effigy_Wind_Warning"
            ]
          },
          "ADPGACLPFHN": [
            "BeHit",
            "DoSkill",
            "ToShaderState1"
          ]
        },
        "RushAway": {
          "$type": "MEECNDLIOBI",
          "HKPCLGHBKFD": {
            "RushAway_BS": []
          },
          "BAABNFCMKIO": true,
          "BGJDNIJICNM": true,
          "ADPGACLPFHN": [
            "BeHit",
            "DoSkill"
          ]
        },
        "RushAway_AS": {
          "$type": "MEECNDLIOBI",
          "HKPCLGHBKFD": {
            "RushAway_AS": [
              "Audio_Effigy_Wind_Rush_AS"
            ]
          },
          "KNOHBHKACHA": true,
          "BAABNFCMKIO": true,
          "BGJDNIJICNM": true,
          "ADPGACLPFHN": [
            "BeHit",
            "DoSkill"
          ],
          "NPMGEMAFACP": true
        },
        "EnergyAbsorb": {
          "$type": "MEECNDLIOBI",
          "HKPCLGHBKFD": {
            "EnergyAbsorb_Blink": [
              "Monster_Effigy_Wind_EnergyAbsorb_Blink",
              "Audio_Effigy_Wind_Blink"
            ],
            "EnergyAbsorb_BS": [
              "Monster_Effigy_Wind_EnergyAbsorbBS",
              "Audio_Effigy_Wind_EnergyAbsorb_BS"
            ],
            "EnergyAbsorb_Loop1": [],
            "EnergyAbsorb_Loop2": [
              "Monster_Effigy_Wind_EnergyAbsorbLoop2"
            ],
            "EnergyAbsorb_AS1": [
              "Audio_Effigy_Wind_EnergyAbsorb_AS1"
            ],
            "EnergyAbsorb_AS2": [
              "Monster_Effigy_Wind_EnergyAbsorbAS2",
              "Monster_Effigy_Wind_RandomMoveRandomed",
              "Audio_Effigy_Wind_EnergyAbsorb_AS2"
            ]
          },
          "BAABNFCMKIO": true,
          "BGJDNIJICNM": true,
          "ADPGACLPFHN": [
            "BeHit",
            "DoSkill",
            "ToShaderState2",
            "RushAwayTrigger"
          ]
        },
        "Vortex": {
          "$type": "MEECNDLIOBI",
          "HKPCLGHBKFD": {
            "Vortex_BS": [
              "Monster_Effigy_Wind_VortexBS",
              "Audio_Effigy_Wind_Vortex_BS"
            ],
            "Vortex_Loop": [],
            "Vortex_AS": [
              "Monster_Effigy_Wind_VortexAS",
              "Audio_Effigy_Wind_Vortex_AS"
            ],
            "Vortex_CoreOutLoop": [],
            "Vortex_CoreOutAS": [
              "Monster_Effigy_Wind_SingleAtk_CoreOutAS",
              "Monster_Effigy_Wind_RandomMoveRandomed",
              "Audio_Effigy_Wind_CoreOut_AS"
            ]
          },
          "BGJDNIJICNM": true,
          "ADPGACLPFHN": [
            "BeHit",
            "DoSkill",
            "ToShaderState2",
            "RushAwayTrigger"
          ],
          "NPMGEMAFACP": true
        },
        "Vortex_Rush": {
          "$type": "MEECNDLIOBI",
          "HKPCLGHBKFD": {
            "Vortex_Rush": [
              "Monster_Effigy_Wind_Rush"
            ]
          },
          "BAABNFCMKIO": true,
          "BGJDNIJICNM": true,
          "ADPGACLPFHN": [
            "BeHit",
            "DoSkill",
            "ToShaderState2",
            "Vortex_RushStop"
          ],
          "NPMGEMAFACP": true
        },
        "WindFall": {
          "$type": "MEECNDLIOBI",
          "HKPCLGHBKFD": {
            "WindFall_BS": [
              "Monster_Effigy_Wind_WindFallBS",
              "Audio_Effigy_Wind_WindFall_BS"
            ],
            "WindFall_Loop": [],
            "WindFall_AS1": [
              "Monster_Effigy_Wind_WindFallAS1"
            ],
            "WindFall_AS2": [
              "Monster_Effigy_Wind_RandomMoveRandomed",
              "Monster_Effigy_Wind_WindFallAS2",
              "Audio_Effigy_Wind_CoreOut_AS"
            ]
          },
          "BGJDNIJICNM": true,
          "ADPGACLPFHN": [
            "BeHit",
            "DoSkill",
            "ElectricDefenceStopTrigger",
            "ToShaderState2",
            "RushAwayTrigger"
          ]
        },
        "SingleAtk": {
          "$type": "MEECNDLIOBI",
          "HKPCLGHBKFD": {
            "SingleAtk": [
              "Monster_Effigy_Wind_SingleAtk",
              "Audio_Effigy_Wind_SingleAtk"
            ],
            "SingleAtk_CoreOutLoop": [],
            "SingleAtk_CoreOutAS": [
              "Monster_Effigy_Wind_SingleAtk_CoreOutAS",
              "Monster_Effigy_Wind_RandomMoveRandomed",
              "Audio_Effigy_Wind_CoreOut_AS"
            ]
          },
          "BGJDNIJICNM": true,
          "ADPGACLPFHN": [
            "BeHit",
            "DoSkill",
            "RushAwayTrigger"
          ],
          "NPMGEMAFACP": true
        },
        "SingleAtk_Rush": {
          "$type": "MEECNDLIOBI",
          "HKPCLGHBKFD": {
            "SingleAtk_Rush": [
              "Monster_Effigy_Wind_Rush",
              "Audio_Effigy_Wind_SingleAtk_Rush"
            ]
          },
          "BAABNFCMKIO": true,
          "BGJDNIJICNM": true,
          "ADPGACLPFHN": [
            "BeHit",
            "DoSkill",
            "SingleAtk_RushStop"
          ],
          "NPMGEMAFACP": true
        },
        "MultiAtk": {
          "$type": "MEECNDLIOBI",
          "HKPCLGHBKFD": {
            "MultiAtk": [
              "Monster_Effigy_Wind_MultiAtk",
              "Audio_Effigy_Wind_MultiAtk"
            ],
            "MultiAtk_CoreOutLoop": [],
            "MultiAtk_CoreOutAS": [
              "Monster_Effigy_Wind_SingleAtk_CoreOutAS",
              "Monster_Effigy_Wind_RandomMoveRandomed",
              "Audio_Effigy_Wind_CoreOut_AS"
            ]
          },
          "BAABNFCMKIO": true,
          "BGJDNIJICNM": true,
          "ADPGACLPFHN": [
            "BeHit",
            "DoSkill",
            "ToShaderState2",
            "RushAwayTrigger"
          ],
          "NPMGEMAFACP": true
        },
        "MultiAtk_Rush": {
          "$type": "MEECNDLIOBI",
          "HKPCLGHBKFD": {
            "MultiAtk_Rush": [
              "Monster_Effigy_Wind_Rush"
            ]
          },
          "BAABNFCMKIO": true,
          "BGJDNIJICNM": true,
          "ADPGACLPFHN": [
            "BeHit",
            "DoSkill",
            "MultiAtk_RushStop"
          ],
          "NPMGEMAFACP": true
        },
        "Storm": {
          "$type": "MEECNDLIOBI",
          "HKPCLGHBKFD": {
            "Storm_Blink": [
              "Monster_Effigy_Wind_Blink",
              "Audio_Effigy_Wind_Blink"
            ],
            "Storm_BS": [
              "Monster_Effigy_Wind_StormBS",
              "Audio_Effigy_Wind_Storm_BS"
            ],
            "Storm_Loop1": [],
            "Storm_AS1": [
              "Monster_Effigy_Wind_StormAS1",
              "Audio_Effigy_Wind_Storm_AS1"
            ],
            "Storm_Loop2": [],
            "Storm_AS2": [
              "Monster_Effigy_Wind_StormAS2",
              "Monster_Effigy_Wind_RandomMoveRandomed"
            ]
          },
          "BGJDNIJICNM": true,
          "ADPGACLPFHN": [
            "BeHit",
            "DoSkill",
            "ToShaderState2",
            "RushAwayTrigger"
          ]
        },
        "Tornado": {
          "$type": "MEECNDLIOBI",
          "HKPCLGHBKFD": {
            "Tornado_Blink": [
              "Monster_Effigy_Wind_Blink"
            ],
            "Tornado_BS": [
              "Monster_Effigy_Wind_TornadoBS",
              "Audio_Effigy_Wind_Tornado_BS"
            ],
            "Tornado_Loop": [
              "Audio_Effigy_Wind_Tornado_Loop"
            ],
            "Tornado_AS": [
              "Monster_Effigy_Wind_TornadoAS",
              "Audio_Effigy_Wind_tornado_dissipate"
            ],
            "Tornado_CoreOutLoop": [],
            "Tornado_CoreOutAS": [
              "Monster_Effigy_Wind_SingleAtk_CoreOutAS",
              "Monster_Effigy_Wind_RandomMoveRandomed",
              "Audio_Effigy_Wind_CoreOut_AS"
            ]
          },
          "BAABNFCMKIO": true,
          "BGJDNIJICNM": true,
          "ADPGACLPFHN": [
            "BeHit",
            "DoSkill",
            "ToShaderState2",
            "RushAwayTrigger"
          ]
        },
        "AirGun": {
          "$type": "MEECNDLIOBI",
          "HKPCLGHBKFD": {
            "AirGun_BS": [
              "Monster_Effigy_Wind_AirGunBS",
              "Audio_Effigy_Wind_AirGun_BS"
            ],
            "AirGun_Loop": [],
            "AirGun_AS": [
              "Monster_Effigy_Wind_RandomMoveRandomed",
              "Monster_Effigy_Wind_AirGunAS",
              "Audio_Effigy_Wind_AirGun_AS"
            ]
          },
          "BGJDNIJICNM": true,
          "ADPGACLPFHN": [
            "BeHit",
            "DoSkill",
            "ToShaderState2",
            "RushAwayTrigger"
          ],
          "NPMGEMAFACP": true
        },
        "ReturnToBorn": {
          "$type": "MEECNDLIOBI",
          "HKPCLGHBKFD": {
            "ReturnToBorn": [],
            "ReturnToBorn_Blink": [
              "Monster_Effigy_Wind_ReturnToBorn",
              "Audio_Effigy_Wind_Blink"
            ],
            "ReturnToBorn_AS": []
          },
          "BAABNFCMKIO": true,
          "BGJDNIJICNM": true,
          "ADPGACLPFHN": [
            "BeHit",
            "DoSkill"
          ]
        },
        "WindButterfly": {
          "$type": "MEECNDLIOBI",
          "HKPCLGHBKFD": {
            "WindButterfly_BS": [
              "Monster_Effigy_Wind_Elite_WindButterfly_BS",
              "Aduio_Effigy_wind_WindButterFly_BS"
            ],
            "WindButterfly_Loop": [
              "Monster_Effigy_Wind_Elite_WindButterfly_Loop",
              "Aduio_Effigy_wind_WindButterFly_Loop"
            ],
            "WindButterfly_AS": [
              "Monster_Effigy_Wind_Elite_WindButterfly_AS",
              "Aduio_Effigy_wind_WindButterFly_AS"
            ],
            "WindButterfly_CoreOutLoop": [],
            "WindButterfly_CoreOutAS": [
              "Monster_Effigy_Wind_RandomMoveRandomed",
              "Aduio_Effigy_wind_WindButterFly_CourOutAS"
            ]
          },
          "BAABNFCMKIO": true,
          "BGJDNIJICNM": true,
          "ADPGACLPFHN": [
            "BeHit",
            "DoSkill",
            "ToShaderState2",
            "RushAwayTrigger"
          ]
        },
        "WindButterflyWeak": {
          "$type": "MEECNDLIOBI",
          "HKPCLGHBKFD": {
            "WindButterfly_CoreWeakBS": [
              "Monster_Effigy_Wind_Elite_WindButterfly_AS",
              "Aduio_Effigy_wind_WindButterFly_CourOutBS"
            ],
            "WindButterfly_CoreWeakLoop": [],
            "WindButterfly_CoreWeakAS": [
              "Monster_Effigy_Wind_RandomMoveRandomed",
              "Monster_Effigy_Wind_SingleAtk_CoreOutAS"
            ]
          },
          "BAABNFCMKIO": true,
          "BGJDNIJICNM": true,
          "PJFELLIJONH": [
            "BeHitByFallingAtk"
          ],
          "ADPGACLPFHN": [
            "BeHit",
            "DoSkill",
            "ToShaderState2",
            "RushAwayTrigger"
          ]
        },
        "WindButterflyBlink": {
          "$type": "MEECNDLIOBI",
          "HKPCLGHBKFD": {
            "WindButterfly_Blink": [
              "Monster_Effigy_Wind_Elite_WindButterfly_Blink",
              "Aduio_Effigy_wind_WindButterFly_Blink"
            ]
          },
          "BAABNFCMKIO": true,
          "BGJDNIJICNM": true,
          "ADPGACLPFHN": [
            "BeHit",
            "DoSkill",
            "ToShaderState2",
            "RushAwayTrigger"
          ]
        },
        "EliteWindFall": {
          "$type": "MEECNDLIOBI",
          "HKPCLGHBKFD": {
            "EliteWindFall_BS": [
              "Monster_Effigy_Wind_WindFallBS",
              "Audio_Effigy_Wind_WindFall_BS"
            ],
            "EliteWindFall_Loop": [],
            "EliteWindFall_AS1": [
              "Monster_Effigy_Wind_WindFallAS1"
            ],
            "EliteWindFall_AS2": [
              "Monster_Effigy_Wind_RandomMoveRandomed",
              "Monster_Effigy_Wind_WindFallAS2",
              "Audio_Effigy_Wind_CoreOut_AS"
            ]
          },
          "BGJDNIJICNM": true,
          "ADPGACLPFHN": [
            "BeHit",
            "DoSkill",
            "ElectricDefenceStopTrigger",
            "ToShaderState2",
            "RushAwayTrigger"
          ]
        },
        "EliteEnergyAbsorb": {
          "$type": "MEECNDLIOBI",
          "HKPCLGHBKFD": {
            "EliteEnergyAbsorb_Blink": [
              "Monster_Effigy_Wind_EnergyAbsorb_Blink",
              "Audio_Effigy_Wind_Blink"
            ],
            "EliteEnergyAbsorb_BS": [
              "Monster_Effigy_Wind_EnergyAbsorbBS",
              "Audio_Effigy_Wind_EnergyAbsorb_BS"
            ],
            "EliteEnergyAbsorb_Loop1": [],
            "EliteEnergyAbsorb_Loop2": [
              "Monster_Effigy_Wind_EnergyAbsorbLoop2"
            ],
            "EliteEnergyAbsorb_AS1": [
              "Audio_Effigy_Wind_EnergyAbsorb_AS1"
            ],
            "EliteEnergyAbsorb_AS2": [
              "Monster_Effigy_Wind_EnergyAbsorbAS2",
              "Monster_Effigy_Wind_RandomMoveRandomed",
              "Audio_Effigy_Wind_EnergyAbsorb_AS2"
            ]
          },
          "BAABNFCMKIO": true,
          "ADPGACLPFHN": [
            "BeHit",
            "DoSkill",
            "ToShaderState2",
            "RushAwayTrigger"
          ]
        }
      }
    }
  },
  "billboard": {
    "$type": "HFEGKLAIGGI",
    "IIKEHINGEME": "BillboardAttach",
    "offset": {
      "y": 1.5
    },
    "HECLHMINJII": 1.0,
    "ABJJCOBEPLC": true,
    "DMHOOGGGDKG": true,
    "size": "Big"
  },
  "initialPoses": {
    "Default": {}
  },
  "aibeta": {
    "enable": true,
    "moveSetting": {
      "useNavMesh": false,
      "navMeshAgentName": "Undead01"
    },
    "sensing": {
      "settings": {
        "DefaultSetting": {
          "viewRange": 15.0,
          "viewPanoramic": true,
          "feelRange": 7.5
        }
      },
      "templates": {
        "DefaultTemplate": {
          "DefaultPoses": "DefaultSetting"
        }
      }
    },
    "threat": {
      "clearThreatTargetDistance": 70.0,
      "clearThreatEdgeDistance": 7.5,
      "clearThreatByTargetOutOfZone": true,
      "viewThreatGrow": 35.0,
      "threatDecreaseSpeed": 100.0,
      "resistTauntLevel": "Monster_TauntLevel_4"
    },
    "defendArea": {
      "defendRange": 50.0
    },
    "profiling": {
      "lodStrategy": "Best"
    },
    "skillGroupCDConfigs": [
      {
        "skillGroupCDID": 0,
        "skillGroupCDTime": 20.0
      },
      {
        "skillGroupCDID": 1,
        "skillGroupCDTime": 20.0
      },
      {
        "skillGroupCDID": 2,
        "skillGroupCDTime": 20.0
      },
      {
        "skillGroupCDID": 3,
        "skillGroupCDTime": 45.0
      },
      {
        "skillGroupCDID": 4,
        "skillGroupCDTime": 45.0
      },
      {
        "skillGroupCDID": 5,
        "skillGroupCDTime": 45.0
      },
      {
        "skillGroupCDID": 6,
        "skillGroupCDTime": 45.0
      },
      {
        "skillGroupCDID": 7,
        "skillGroupCDTime": 45.0
      }
    ],
    "skillSetting": {
      "skillEliteSet": {
        "1": [
          201,
          202,
          301,
          302,
          401,
          402,
          701,
          801,
          901,
          902,
          1001
        ],
        "2": [
          203,
          204,
          303,
          304,
          403,
          404,
          702,
          802,
          1002,
          1101,
          1201
        ]
      }
    },
    "skills": {
      "100": {
        "name": "OnAlert",
        "skillType": "OnAlert",
        "faceTarget": true,
        "castCondition": {
          "pose": [
            1,
            101,
            201,
            1101,
            1201
          ],
          "pickRangeMax": 7.5
        },
        "publicCDGroup": "",
        "ignoreGCD": true,
        "triggerGCD": false,
        "CLEPNIDJOLN": "",
        "stateIDs": [
          "Warning"
        ],
        "skillQueryingTime": 3.0,
        "flagTargetReachable": "10",
        "flagSelfOnTemplateCollider": "01",
        "flagSelfInZone": "10",
        "flagTargetInZone": "11"
      },
      "201": {
        "name": "SingleAtk",
        "castCondition": {
          "pose": [
            101,
            1101
          ],
          "pickRangeMax": 7.5
        },
        "cd": 15.0,
        "cdUpperRange": 10.0,
        "publicCDGroup": "",
        "skillGroupCDID": 0,
        "CLEPNIDJOLN": "",
        "stateIDs": [
          "SingleAtk"
        ],
        "skillQueryingTime": 3.5,
        "flagTargetReachable": "10",
        "flagSelfOnTemplateCollider": "01",
        "flagSelfInZone": "10",
        "flagTargetInZone": "11"
      },
      "202": {
        "name": "SingleAtk",
        "priority": 4,
        "castCondition": {
          "pose": [
            101,
            1101
          ],
          "pickRangeMin": 10.0,
          "pickRangeMax": 25.0
        },
        "cd": 30.0,
        "cdUpperRange": 5.0,
        "publicCDGroup": "",
        "skillGroupCDID": 0,
        "CLEPNIDJOLN": "",
        "stateIDs": [
          "SingleAtk",
          "SingleAtk_Rush"
        ],
        "skillQueryingTime": 3.5,
        "flagTargetReachable": "10",
        "flagSelfOnTemplateCollider": "01",
        "flagSelfInZone": "10",
        "flagTargetInZone": "10"
      },
      "203": {
        "name": "SingleAtk",
        "priority": 3,
        "castCondition": {
          "pose": [
            101,
            1101
          ],
          "pickRangeMax": 10.0,
          "castRangeMax": 10.0
        },
        "cd": 30.0,
        "cdUpperRange": 10.0,
        "initialCD": 5.0,
        "initialCDUpperRange": 3.5,
        "publicCDGroup": "",
        "skillGroupCDID": 7,
        "CLEPNIDJOLN": "",
        "stateIDs": [
          "SingleAtk"
        ],
        "skillQueryingTime": 3.5,
        "flagTargetReachable": "11",
        "flagSelfOnTemplateCollider": "01",
        "flagSelfInZone": "10",
        "flagTargetInZone": "11"
      },
      "204": {
        "name": "SingleAtk",
        "priority": 3,
        "castCondition": {
          "pose": [
            101,
            1101
          ],
          "pickRangeMin": 10.0,
          "pickRangeMax": 20.0,
          "castRangeMin": 10.0,
          "castRangeMax": 20.0
        },
        "cd": 30.0,
        "cdUpperRange": 5.0,
        "initialCD": 5.0,
        "initialCDUpperRange": 3.5,
        "publicCDGroup": "",
        "skillGroupCDID": 7,
        "CLEPNIDJOLN": "",
        "stateIDs": [
          "SingleAtk",
          "SingleAtk_Rush"
        ],
        "skillQueryingTime": 3.5,
        "flagTargetReachable": "11",
        "flagSelfOnTemplateCollider": "01",
        "flagSelfInZone": "10",
        "flagTargetInZone": "10"
      },
      "301": {
        "name": "MultiAtk",
        "priority": 4,
        "castCondition": {
          "pose": [
            101,
            1101
          ],
          "pickRangeMin": 5.0,
          "pickRangeMax": 12.5
        },
        "cd": 15.0,
        "cdUpperRange": 7.5,
        "publicCDGroup": "",
        "skillGroupCDID": 1,
        "CLEPNIDJOLN": "",
        "stateIDs": [
          "MultiAtk"
        ],
        "skillQueryingTime": 3.5,
        "flagTargetReachable": "10",
        "flagSelfOnTemplateCollider": "01",
        "flagSelfInZone": "10",
        "flagTargetInZone": "11"
      },
      "302": {
        "name": "MultiAtk",
        "priority": 4,
        "castCondition": {
          "pose": [
            101,
            1101
          ],
          "pickRangeMin": 12.5,
          "pickRangeMax": 50.0
        },
        "cd": 15.0,
        "cdUpperRange": 7.5,
        "publicCDGroup": "",
        "skillGroupCDID": 1,
        "CLEPNIDJOLN": "",
        "stateIDs": [
          "MultiAtk",
          "MultiAtk_Rush"
        ],
        "skillQueryingTime": 3.5,
        "flagTargetReachable": "10",
        "flagSelfOnTemplateCollider": "01",
        "flagSelfInZone": "10",
        "flagTargetInZone": "10"
      },
      "303": {
        "name": "MultiAtk",
        "castCondition": {
          "pose": [
            101,
            1101
          ],
          "pickRangeMin": 5.0,
          "pickRangeMax": 12.5
        },
        "cd": 30.0,
        "cdUpperRange": 5.5,
        "initialCD": 5.0,
        "initialCDUpperRange": 3.5,
        "publicCDGroup": "",
        "skillGroupCDID": 1,
        "CLEPNIDJOLN": "",
        "stateIDs": [
          "MultiAtk"
        ],
        "skillQueryingTime": 3.5,
        "flagTargetReachable": "11",
        "flagSelfOnTemplateCollider": "01",
        "flagSelfInZone": "10",
        "flagTargetInZone": "11"
      },
      "304": {
        "name": "MultiAtk",
        "castCondition": {
          "pose": [
            101,
            1101
          ],
          "pickRangeMin": 12.5,
          "pickRangeMax": 50.0
        },
        "cd": 30.0,
        "cdUpperRange": 5.5,
        "initialCD": 5.0,
        "initialCDUpperRange": 3.5,
        "publicCDGroup": "",
        "skillGroupCDID": 1,
        "CLEPNIDJOLN": "",
        "stateIDs": [
          "MultiAtk",
          "MultiAtk_Rush"
        ],
        "skillQueryingTime": 3.5,
        "flagTargetReachable": "11",
        "flagSelfOnTemplateCollider": "01",
        "flagSelfInZone": "10",
        "flagTargetInZone": "10"
      },
      "401": {
        "name": "Vortex",
        "priority": 4,
        "castCondition": {
          "pose": [
            101,
            1101
          ],
          "pickRangeMax": 7.5
        },
        "cd": 15.0,
        "cdUpperRange": 7.5,
        "publicCDGroup": "",
        "skillGroupCDID": 2,
        "CLEPNIDJOLN": "",
        "stateIDs": [
          "Vortex"
        ],
        "skillQueryingTime": 3.5,
        "flagTargetReachable": "10",
        "flagSelfOnTemplateCollider": "01",
        "flagSelfInZone": "10",
        "flagTargetInZone": "11"
      },
      "402": {
        "name": "Vortex",
        "priority": 4,
        "castCondition": {
          "pose": [
            101,
            1101
          ],
          "pickRangeMin": 7.5,
          "pickRangeMax": 50.0
        },
        "cd": 15.0,
        "cdUpperRange": 7.5,
        "publicCDGroup": "",
        "skillGroupCDID": 2,
        "CLEPNIDJOLN": "",
        "stateIDs": [
          "Vortex",
          "Vortex_Rush"
        ],
        "skillQueryingTime": 3.5,
        "flagTargetReachable": "10",
        "flagSelfOnTemplateCollider": "01",
        "flagSelfInZone": "10",
        "flagTargetInZone": "10"
      },
      "403": {
        "name": "Vortex",
        "priority": 4,
        "castCondition": {
          "pose": [
            101,
            1101
          ],
          "pickRangeMax": 7.5
        },
        "cd": 60.0,
        "cdUpperRange": 7.5,
        "initialCD": 15.0,
        "initialCDUpperRange": 3.5,
        "publicCDGroup": "",
        "skillGroupCDID": 2,
        "CLEPNIDJOLN": "",
        "stateIDs": [
          "Vortex"
        ],
        "skillQueryingTime": 3.5,
        "flagTargetReachable": "11",
        "flagSelfOnTemplateCollider": "01",
        "flagSelfInZone": "10",
        "flagTargetInZone": "11"
      },
      "404": {
        "name": "Vortex",
        "priority": 4,
        "castCondition": {
          "pose": [
            101,
            1101
          ],
          "pickRangeMin": 7.5,
          "pickRangeMax": 50.0
        },
        "cd": 60.0,
        "cdUpperRange": 7.5,
        "initialCD": 15.0,
        "initialCDUpperRange": 3.5,
        "publicCDGroup": "",
        "skillGroupCDID": 2,
        "CLEPNIDJOLN": "",
        "stateIDs": [
          "Vortex",
          "Vortex_Rush"
        ],
        "skillQueryingTime": 3.5,
        "flagTargetReachable": "11",
        "flagSelfOnTemplateCollider": "01",
        "flagSelfInZone": "10",
        "flagTargetInZone": "10"
      },
      "701": {
        "name": "EnergyAbsorb",
        "priority": 2,
        "castCondition": {
          "pose": [
            1101
          ],
          "pickRangeMax": 70.0
        },
        "cd": 30.0,
        "cdUpperRange": 15.0,
        "initialCD": 30.0,
        "initialCDUpperRange": 10.0,
        "publicCDGroup": "",
        "ignoreGCD": true,
        "skillGroupCDID": 4,
        "CLEPNIDJOLN": "",
        "stateIDs": [
          "EnergyAbsorb"
        ],
        "skillQueryingTime": 3.5,
        "flagTargetReachable": "11",
        "flagSelfOnTemplateCollider": "01",
        "flagSelfInZone": "11",
        "flagTargetInZone": "11"
      },
      "702": {
        "name": "EliteEnergyAbsorb",
        "priority": 3,
        "castCondition": {
          "pose": [
            1101
          ],
          "pickRangeMax": 70.0
        },
        "cd": 100.0,
        "cdUpperRange": 15.0,
        "initialCD": 40.0,
        "initialCDUpperRange": 10.0,
        "publicCDGroup": "",
        "ignoreGCD": true,
        "skillGroupCDID": 4,
        "CLEPNIDJOLN": "",
        "stateIDs": [
          "EliteEnergyAbsorb"
        ],
        "skillQueryingTime": 3.5,
        "flagTargetReachable": "11",
        "flagSelfOnTemplateCollider": "01",
        "flagSelfInZone": "11",
        "flagTargetInZone": "11"
      },
      "801": {
        "name": "Tornado",
        "priority": 1,
        "castCondition": {
          "pose": [
            101
          ],
          "pickRangeMax": 70.0
        },
        "cd": 60.0,
        "cdUpperRange": 30.0,
        "initialCD": 40.0,
        "initialCDUpperRange": 15.0,
        "publicCDGroup": "",
        "ignoreGCD": true,
        "skillGroupCDID": 5,
        "CLEPNIDJOLN": "",
        "stateIDs": [
          "Tornado"
        ],
        "skillQueryingTime": 3.5,
        "flagTargetReachable": "11",
        "flagSelfOnTemplateCollider": "01",
        "flagSelfInZone": "11",
        "flagTargetInZone": "11"
      },
      "802": {
        "name": "Tornado",
        "priority": 2,
        "castCondition": {
          "pose": [
            101
          ],
          "pickRangeMax": 70.0
        },
        "cd": 30.0,
        "cdUpperRange": 5.0,
        "initialCD": 20.0,
        "initialCDUpperRange": 7.5,
        "publicCDGroup": "",
        "ignoreGCD": true,
        "skillGroupCDID": 5,
        "CLEPNIDJOLN": "",
        "stateIDs": [
          "Tornado"
        ],
        "skillQueryingTime": 3.5,
        "flagTargetReachable": "11",
        "flagSelfOnTemplateCollider": "01",
        "flagSelfInZone": "11",
        "flagTargetInZone": "11"
      },
      "901": {
        "name": "WindFall",
        "priority": 4,
        "castCondition": {
          "pose": [
            101
          ],
          "pickRangeMin": 7.5,
          "pickRangeMax": 70.0
        },
        "cd": 15.0,
        "cdUpperRange": 15.0,
        "initialCD": 15.0,
        "initialCDUpperRange": 15.0,
        "publicCDGroup": "",
        "ignoreGCD": true,
        "CLEPNIDJOLN": "",
        "stateIDs": [
          "WindFall"
        ],
        "skillQueryingTime": 3.5,
        "flagTargetReachable": "11",
        "flagSelfOnTemplateCollider": "01",
        "flagSelfInZone": "11",
        "flagTargetInZone": "11"
      },
      "902": {
        "name": "WindFall",
        "priority": 3,
        "castCondition": {
          "pose": [
            1101
          ],
          "pickRangeMin": 7.5,
          "pickRangeMax": 70.0
        },
        "cd": 15.0,
        "cdUpperRange": 15.0,
        "initialCD": 5.0,
        "initialCDUpperRange": 5.0,
        "publicCDGroup": "",
        "ignoreGCD": true,
        "CLEPNIDJOLN": "",
        "stateIDs": [
          "WindFall"
        ],
        "skillQueryingTime": 3.5,
        "flagTargetReachable": "11",
        "flagSelfOnTemplateCollider": "01",
        "flagSelfInZone": "11",
        "flagTargetInZone": "11"
      },
      "1001": {
        "name": "AirGun",
        "priority": 4,
        "castCondition": {
          "pose": [
            101,
            1101
          ],
          "pickRangeMin": 15.0,
          "pickRangeMax": 70.0
        },
        "cd": 15.0,
        "cdUpperRange": 15.0,
        "initialCD": 15.0,
        "initialCDUpperRange": 15.0,
        "publicCDGroup": "",
        "CLEPNIDJOLN": "",
        "stateIDs": [
          "AirGun"
        ],
        "skillQueryingTime": 3.5,
        "flagTargetReachable": "11",
        "flagSelfOnTemplateCollider": "01",
        "flagSelfInZone": "11",
        "flagTargetInZone": "11"
      },
      "1002": {
        "name": "AirGun",
        "priority": 4,
        "castCondition": {
          "pose": [
            101,
            1101
          ],
          "pickRangeMin": 12.5,
          "pickRangeMax": 70.0
        },
        "cd": 20.0,
        "cdUpperRange": 10.0,
        "initialCD": 5.0,
        "initialCDUpperRange": 3.5,
        "publicCDGroup": "",
        "CLEPNIDJOLN": "",
        "stateIDs": [
          "AirGun"
        ],
        "skillQueryingTime": 3.5,
        "flagTargetReachable": "11",
        "flagSelfOnTemplateCollider": "01",
        "flagSelfInZone": "11",
        "flagTargetInZone": "11"
      },
      "1101": {
        "name": "WindButterfly",
        "priority": 3,
        "castCondition": {
          "pose": [
            101,
            1101
          ],
          "pickRangeMax": 70.0
        },
        "cd": 60.0,
        "cdUpperRange": 10.0,
        "initialCD": 60.0,
        "initialCDUpperRange": 10.0,
        "publicCDGroup": "",
        "ignoreGCD": true,
        "skillGroupCDID": 6,
        "CLEPNIDJOLN": "",
        "stateIDs": [
          "WindButterfly",
          "WindButterflyWeak",
          "WindButterflyBlink"
        ],
        "skillQueryingTime": 3.5,
        "flagTargetReachable": "11",
        "flagSelfOnTemplateCollider": "01",
        "flagSelfInZone": "11",
        "flagTargetInZone": "11"
      },
      "1201": {
        "name": "EliteWindFall",
        "priority": 1,
        "castCondition": {
          "pose": [
            101,
            1101
          ],
          "pickRangeMin": 7.5,
          "pickRangeMax": 70.0
        },
        "cd": 50.0,
        "cdUpperRange": 10.0,
        "initialCD": 1.5,
        "initialCDUpperRange": 1.5,
        "publicCDGroup": "",
        "ignoreGCD": true,
        "CLEPNIDJOLN": "",
        "stateIDs": [
          "EliteWindFall"
        ],
        "skillQueryingTime": 3.5,
        "flagTargetReachable": "11",
        "flagSelfOnTemplateCollider": "01",
        "flagSelfInZone": "11",
        "flagTargetInZone": "11"
      }
    },
    "skillGCD": 1.5,
    "combatFixedMoveTactic": [
      {
        "$type": "GJGILIGEJMO",
        "enable": true,
        "EGJMGEHLDOL": {
          "pose": [
            1,
            2,
            101,
            1101
          ]
        },
        "NGIEOIGFFDH": {
          "NHPKGHAHIFA": 0,
          "JIFACJMKJID": 3.0,
          "HEMHHCFMJGB": 3.5,
          "FCFLCFFJKLO": "",
          "BKCOJDIDEGN": ""
        }
      },
      {
        "$type": "IKIHDEMELGB"
      }
    ]
  },
  "inputKeys": [
    {
      "keyID": 203,
      "inputKeyCode": 257,
      "abilityName": ""
    },
    {
      "keyID": 303,
      "inputKeyCode": 258,
      "abilityName": ""
    },
    {
      "keyID": 403,
      "inputKeyCode": 259,
      "abilityName": ""
    },
    {
      "keyID": 702,
      "inputKeyCode": 260,
      "abilityName": ""
    },
    {
      "keyID": 802,
      "inputKeyCode": 261,
      "abilityName": ""
    },
    {
      "keyID": 1201,
      "inputKeyCode": 262,
      "abilityName": ""
    },
    {
      "keyID": 1002,
      "inputKeyCode": 263,
      "abilityName": ""
    },
    {
      "keyID": 1101,
      "inputKeyCode": 264,
      "abilityName": ""
    },
    {
      "keyID": 901,
      "inputKeyCode": 265,
      "abilityName": ""
    }
  ],
  "move": {
    "$type": "JKDLANFKJIL",
    "FMOHEOLGBMD": "None",
    "BEICMHKFBPB": true,
    "LPAKBBIADNC": "RootNode"
  },
  "audio": {
    "LKJIHNLBIJL": "",
    "animAudio": {
      "onTransitionIn": [
        {
          "currentStateName": "ElectricEscape_BS",
          "audioEvent": {
            "text": "Play_sfx_monster_effigy_electricEscape_BS"
          }
        },
        {
          "currentStateName": "AirGun_Loop",
          "audioEvent": {
            "text": "Play_sfx_monster_effigy_wind_airgun_circle"
          }
        },
        {
          "currentStateName": "Storm_Loop1",
          "audioEvent": {
            "text": "Play_sfx_monster_effigy_wind_tornado_loop"
          }
        },
        {
          "currentStateName": "Storm_Loop2",
          "audioEvent": {
            "text": "Play_sfx_monster_effigy_wind_tornado_loop"
          }
        }
      ],
      "onTransitionOut": [
        {
          "currentStateName": "ElectricEscape_BS",
          "audioEvent": {
            "text": "Stop_sfx_monster_effigy_electricEscape_BS"
          },
          "otherStateNames": [
            "ElectricEscape_AS",
            "ElectricEscape_Loop1",
            "ElectricEscape_Loop2"
          ],
          "usage": "Except"
        },
        {
          "currentStateName": "Tornado_Loop",
          "audioEvent": {
            "text": "Stop_sfx_monster_effigy_wind_tornado_ground_loop"
          },
          "usage": "Except"
        },
        {
          "currentStateName": "AirGun_Loop",
          "audioEvent": {
            "text": "Stop_sfx_monster_effigy_wind_airgun_circle"
          },
          "usage": "Except"
        },
        {
          "currentStateName": "Storm_Loop1",
          "audioEvent": {
            "text": "Stop_sfx_monster_effigy_wind_tornado_loop"
          },
          "usage": "Except"
        },
        {
          "currentStateName": "Storm_Loop2",
          "audioEvent": {
            "text": "Stop_sfx_monster_effigy_wind_tornado_loop"
          },
          "usage": "Except"
        }
      ]
    }
  }
}