{
  "common": {
    "effectAttachShape": {
      "$type": "DPGKNHENGLM",
      "DDDEJPIFECG": "EffectMesh"
    },
    "mass": 80.0,
    "height": 0.6000000238418579,
    "affectedByWorld": true,
    "checkInSurface": true,
    "useGrassDisplacement": true,
    "clearAnimatorOnSetLightDeactive": true,
    "clearAIOnSetLightDeactive": true,
    "LOGFKHMLOOL": true
  },
  "model": {
    "bornEffect": "",
    "attachEffect": "",
    "canBakeMesh": false
  },
  "dither": {
    "showDitherDuration": 2.0
  },
  "combat": {
    "property": {
      "endureType": "Monster_Slime",
      "weight": 75.0
    },
    "beHit": {
      "hitBloodEffect": ""
    },
    "combatLock": {
      "lockShape": "CircleLockEnemy",
      "lockType": "Avatar&Monster_Lv4"
    },
    "die": {
      "hasAnimatorDie": true,
      "dieEndTime": 0.5,
      "dieForceDisappearTime": 1.5,
      "dieDisappearEffect": "Eff_Death_Common",
      "dieShaderData": "MonsterDie",
      "muteHitBox": true,
      "dieDenyLockOn": true,
      "dieIsGhostToEnemy": true,
      "dieIgnoreTriggerBullet": true,
      "muteBillboard": true,
      "mutePushCollider": true
    },
    "animEvents": {
      "MeleeAttackNormal": {
        "attackPattern": {
          "$type": "AGJFCPDIMCK",
          "triggerType": "TriggerNoRepeat",
          "born": {
            "$type": "NKOODKOFELF",
            "offset": {
              "GNGDNIIPPNL": 0.0,
              "GIIMFINHIED": 0.0,
              "CLBCHJICOKH": 0.0
            }
          },
          "height": 1.7999999523162842,
          "LOACHGCADCO": 2.5
        },
        "attackInfo": {
          "attackTag": "",
          "attenuationTag": "",
          "attenuationGroup": "default",
          "attackProperty": {
            "HOGNHNAHNML": 0.30000001192092896,
            "BAPILBAGBOJ": 0.0,
            "bonusCriticalHurt": 100.0,
            "strikeType": "Blunt",
            "enBreak": 80.0,
            "attackType": "Melee",
            "damagePercentage": 0.0
          },
          "hitPattern": {
            "onHitEffectName": "default",
            "hitImpulseType": "LV3"
          }
        }
      },
      "MeleeAttackDecay": {
        "attackPattern": {
          "$type": "AGJFCPDIMCK",
          "triggerType": "TriggerNoRepeat",
          "born": {
            "$type": "NKOODKOFELF",
            "offset": {
              "GNGDNIIPPNL": 0.0,
              "GIIMFINHIED": 0.0,
              "CLBCHJICOKH": 0.0
            }
          },
          "height": 2.0,
          "LOACHGCADCO": 3.5
        },
        "attackInfo": {
          "attackTag": "",
          "attenuationTag": "",
          "attenuationGroup": "default",
          "attackProperty": {
            "HOGNHNAHNML": 0.6000000238418579,
            "BAPILBAGBOJ": 0.0,
            "bonusCriticalHurt": 100.0,
            "strikeType": "Blunt",
            "enBreak": 150.0,
            "attackType": "Melee",
            "damagePercentage": 0.0
          },
          "hitPattern": {
            "onHitEffectName": "default",
            "hitImpulseType": "LV4"
          }
        }
      }
    }
  },
  "abilities": [
    {
      "abilityID": "",
      "abilityName": "Monster_Fungus_FungusStateManager",
      "abilityOverride": ""
    },
    {
      "abilityID": "",
      "abilityName": "Monster_Fungus_Un_ReturnToBornManager",
      "abilityOverride": ""
    },
    {
      "abilityID": "",
      "abilityName": "Monster_Fungus_Deux_Delta_Electric_HitThrowDropToGround",
      "abilityOverride": ""
    },
    {
      "abilityID": "",
      "abilityName": "Monster_Fungus_Deux_Delta_Electric_Steer",
      "abilityOverride": ""
    },
    {
      "abilityID": "",
      "abilityName": "Monster_Fungus_Deux_Delta_Electric_ShootNormal",
      "abilityOverride": ""
    },
    {
      "abilityID": "",
      "abilityName": "Monster_Fungus_Deux_Delta_Electric_ShootOverdose",
      "abilityOverride": ""
    },
    {
      "abilityID": "",
      "abilityName": "Monster_Fungus_Deux_Delta_Electric_ShootDecayed",
      "abilityOverride": ""
    },
    {
      "abilityID": "",
      "abilityName": "Monster_Fungus_Not_Un_Gamma_Water_Mark",
      "abilityOverride": ""
    }
  ],
  "stateLayers": {
    "defaultLayer": {
      "$type": "EPAPJJAGHKG",
      "ACOCIAFGIAD": "",
      "stateIDs": {
        "Born": {
          "$type": "IJOIMFMEGMM",
          "DLOHGBDFFGB": {
            "Born": []
          },
          "PGKCBIHGAOC": true,
          "DLAOMOCMANL": [
            "DoSkill"
          ]
        },
        "NormalIdle": {
          "$type": "IJOIMFMEGMM",
          "DLOHGBDFFGB": {
            "StandbyFree": [],
            "Standby": []
          },
          "POLKCLOHPOO": true,
          "PGKCBIHGAOC": true,
          "DLAOMOCMANL": [
            "DoSkill"
          ],
          "LIPMJPLGIKD": true,
          "HMPOMAMKBEF": true
        },
        "NormalMove": {
          "$type": "IJOIMFMEGMM",
          "DLOHGBDFFGB": {
            "WalkForward_BS": [
              "Monster_Fungus_Deux_WalkForward",
              "Audio_Monster_Fungus_Deux_Walk"
            ],
            "WalkForward_AS": [
              "Monster_Fungus_Deux_WalkForward",
              "Audio_Monster_Fungus_Deux_Walk_AS"
            ],
            "Run_Decay": [
              "Monster_Fungus_Deux_Run_Decay",
              "Audio_Monster_Fungus_Deux_Run"
            ]
          },
          "POLKCLOHPOO": true,
          "PGKCBIHGAOC": true,
          "DLAOMOCMANL": [
            "DoSkill"
          ],
          "LIPMJPLGIKD": true
        },
        "BeHit": {
          "$type": "IJOIMFMEGMM",
          "DLOHGBDFFGB": {
            "Hit_H": [
              "Audio_Monster_Fungus_Deux_HitThrow"
            ]
          },
          "PGKCBIHGAOC": true,
          "AJBLILDCLBO": [
            "BeHit"
          ],
          "DLAOMOCMANL": [
            "DoSkill"
          ],
          "OOPPLFOAOGN": true
        },
        "BeHitThrow": {
          "$type": "IJOIMFMEGMM",
          "DLOHGBDFFGB": {
            "HitThrow": [
              "Audio_Monster_Fungus_Deux_HitThrow"
            ],
            "HitThrowDrop": [],
            "HitThrowToGround": [
              "Monster_Fungus_Deux_Delta_Electric_HitThrowToGround",
              "Audio_Monster_Fungus_Deux_HitThrowToGround"
            ]
          },
          "AJBLILDCLBO": [
            "BeHit",
            "HitAir2HitDrop"
          ],
          "DLAOMOCMANL": [
            "DoSkill"
          ]
        },
        "Struggle": {
          "$type": "IJOIMFMEGMM",
          "DLOHGBDFFGB": {
            "Struggle": []
          },
          "AJBLILDCLBO": [
            "BeHit",
            "HitAir2HitDrop"
          ],
          "DLAOMOCMANL": [
            "DoSkill"
          ]
        },
        "Die": {
          "$type": "IJOIMFMEGMM",
          "DLOHGBDFFGB": {
            "Die_BS": [
              "Audio_Monster_Fungus_Deux_Die"
            ],
            "Die": [
              "Monster_Fungus_Deux_Die"
            ],
            "AirDie": [
              "Monster_Fungus_Deux_Die"
            ],
            "SwimDie_BS": [],
            "SwimDie": [
              "Monster_Fungus_Deux_Die"
            ]
          }
        },
        "Warning": {
          "$type": "IJOIMFMEGMM",
          "DLOHGBDFFGB": {
            "Warning": [
              "Audio_Monster_Fungus_Deux_Warning"
            ]
          },
          "PGKCBIHGAOC": true,
          "DLAOMOCMANL": [
            "BeHit",
            "DoSkill"
          ],
          "LIPMJPLGIKD": true
        },
        "ChangeState": {
          "$type": "IJOIMFMEGMM",
          "DLOHGBDFFGB": {
            "ChangeStateToOverdose": [
              "Audio_Monster_Fungus_Deux_ChanceState"
            ],
            "ChangeStateToDecayed": [
              "Audio_Monster_Fungus_Deux_ChanceState"
            ]
          },
          "PGKCBIHGAOC": true,
          "AJBLILDCLBO": [
            "BeHit"
          ],
          "DLAOMOCMANL": [
            "DoSkill"
          ],
          "OOPPLFOAOGN": true
        },
        "Dance": {
          "$type": "IJOIMFMEGMM",
          "DLOHGBDFFGB": {
            "Dance": [
              "Audio_Monster_Fungus_Deux_Dance"
            ]
          },
          "POLKCLOHPOO": true,
          "PGKCBIHGAOC": true,
          "DLAOMOCMANL": [
            "BeHit",
            "DoSkill"
          ],
          "LIPMJPLGIKD": true
        },
        "Tease": {
          "$type": "IJOIMFMEGMM",
          "DLOHGBDFFGB": {
            "Tease": [
              "Audio_Monster_Fungus_Deux_Tease"
            ]
          },
          "POLKCLOHPOO": true,
          "PGKCBIHGAOC": true,
          "DLAOMOCMANL": [
            "BeHit",
            "DoSkill"
          ],
          "LIPMJPLGIKD": true
        },
        "Absorb": {
          "$type": "IJOIMFMEGMM",
          "DLOHGBDFFGB": {
            "Absorb": [
              "Monster_Fungus_Deux_Absorb",
              "Audio_Monster_Fungus_Deux_Absorb"
            ]
          },
          "POLKCLOHPOO": true,
          "PGKCBIHGAOC": true,
          "DLAOMOCMANL": [
            "BeHit",
            "DoSkill"
          ],
          "LIPMJPLGIKD": true
        },
        "MeleeAttack": {
          "$type": "IJOIMFMEGMM",
          "DLOHGBDFFGB": {
            "MeleeAttackNormal_BS": [
              "Audio_Monster_Fungus_Deux_MeleeAttack_BS"
            ],
            "MeleeAttackNormal_Loop": [],
            "MeleeAttackNormal_Attack": [
              "Monster_Fungus_Deux_Delta_Electric_MeleeAttackNormal_Attack",
              "Audio_Monster_Fungus_Deux_MeleeAttack_Attack"
            ],
            "MeleeAttackNormal_AS": [],
            "MeleeAttackOverdose_BS": [
              "Audio_Monster_Fungus_Deux_MeleeAttack_BS"
            ],
            "MeleeAttackOverdose_Loop": [],
            "MeleeAttackOverdose_Attack": [
              "Monster_Fungus_Deux_Delta_Electric_MeleeAttackNormal_Attack",
              "Audio_Monster_Fungus_Deux_MeleeAttack_Attack"
            ],
            "MeleeAttackOverdose_AS": [],
            "MeleeAttackDecay_BS": [
              "Audio_Monster_Fungus_Deux_MeleeAttack_BS"
            ],
            "MeleeAttackDecay_Loop": [],
            "MeleeAttackDecay_Attack": [
              "Monster_Fungus_Deux_Delta_Electric_MeleeAttackDecay_Attack",
              "Audio_Monster_Fungus_Deux_MeleeAttack_Attack"
            ],
            "MeleeAttackDecay_AS": []
          },
          "PGKCBIHGAOC": true,
          "DLAOMOCMANL": [
            "BeHit",
            "DoSkill"
          ],
          "LIPMJPLGIKD": true
        },
        "Shoot_BS": {
          "$type": "IJOIMFMEGMM",
          "DLOHGBDFFGB": {
            "ShootNormal_BS": [
              "Audio_Monster_Fungus_Deux_Electric_Shoot_BS"
            ],
            "ShootNormal_Loop": [],
            "ShootOverdose_BS": [
              "Audio_Monster_Fungus_Deux_Electric_Shoot_BS"
            ],
            "ShootOverdose_Loop": [],
            "ShootDecay_BS": [
              "Audio_Monster_Fungus_Deux_Electric_Shoot_BS"
            ],
            "ShootDecay_Loop": []
          },
          "PGKCBIHGAOC": true,
          "DLAOMOCMANL": [
            "BeHit",
            "DoSkill"
          ],
          "LIPMJPLGIKD": true
        },
        "Shoot": {
          "$type": "IJOIMFMEGMM",
          "DLOHGBDFFGB": {
            "ShootNormal_Attack": [
              "Monster_Fungus_Deux_Delta_Electric_ShootNormal_Attack",
              "Audio_Monster_Fungus_Deux_Electric_Shoot_Attack"
            ],
            "ShootNormal_AS": [],
            "ShootOverdose_Attack01": [
              "Monster_Fungus_Deux_Delta_Electric_ShootNormal_Attack",
              "Audio_Monster_Fungus_Deux_Electric_Shoot_Attack"
            ],
            "ShootOverdose_Attack02": [
              "Monster_Fungus_Deux_Delta_Electric_ShootNormal_Attack",
              "Audio_Monster_Fungus_Deux_Electric_Shoot_Attack"
            ],
            "ShootOverdose_Attack03": [
              "Monster_Fungus_Deux_Delta_Electric_ShootNormal_Attack",
              "Audio_Monster_Fungus_Deux_Electric_Shoot_Attack"
            ],
            "ShootOverdose_AS": [],
            "ShootDecay_Attack": [
              "Monster_Fungus_Deux_Delta_Electric_ShootDecay_Attack",
              "Audio_Monster_Fungus_Deux_Electric_Shoot_Attack"
            ],
            "ShootDecay_AS": []
          },
          "PGKCBIHGAOC": true,
          "DLAOMOCMANL": [
            "BeHit",
            "DoSkill"
          ],
          "LIPMJPLGIKD": true
        },
        "ReturnToBorn": {
          "$type": "IJOIMFMEGMM",
          "DLOHGBDFFGB": {
            "ReturnToBorn_BS": [
              "Monster_Fungus_Deux_ReturnToBorn_BS",
              "Audio_Monster_Fungus_Deux_ReturnToBorn_BS"
            ],
            "ReturnToBorn_Loop": [],
            "ReturnToBorn_AS": [
              "Monster_Fungus_Deux_ReturnToBorn_AS",
              "Audio_Monster_Fungus_Deux_ReturnToBorn_AS"
            ]
          },
          "LAKHIBAPNAB": true,
          "DLAOMOCMANL": [
            "BeHit",
            "DoSkill"
          ]
        }
      }
    }
  },
  "billboard": {
    "$type": "PAOBAEKGGBC",
    "attachPoint": "BillboardAttach",
    "offset": {
      "y": 0.5
    },
    "LOMMBJLKPHE": 1.0,
    "FMJAGHIMLEI": true,
    "KGHAGECNJPO": true
  },
  "initialPoses": {
    "Default": {
      "initialPoseID": 101
    },
    "Dance": {
      "initialPoseID": 102,
      "initialPoseParams": {
        "boolParams": {
          "Dance": "true"
        }
      }
    },
    "Tease": {
      "initialPoseID": 103,
      "initialPoseParams": {
        "boolParams": {
          "Tease": "true"
        }
      }
    },
    "Absorb": {
      "initialPoseID": 104,
      "initialPoseParams": {
        "boolParams": {
          "Absorb": "true"
        }
      }
    }
  },
  "aibeta": {
    "enable": true,
    "moveSetting": {
      "navMeshAgentName": "Undead01"
    },
    "sensing": {
      "settings": {
        "DefaultSetting": {
          "viewRange": 22.0,
          "feelRange": 8.75
        },
        "Patrol": {
          "viewRange": 0.0,
          "feelRange": 6.0
        },
        "NoSensing": {
          "enableVision": false,
          "hearAttractionRange": 0.0,
          "feelRange": 0.0
        }
      },
      "templates": {
        "DefaultTemplate": {
          "DefaultPoses": "DefaultSetting"
        },
        "Patrol": {
          "DefaultPoses": "Patrol"
        },
        "NoSensing": {
          "DefaultPoses": "NoSensing"
        }
      }
    },
    "neurons": {
      "DefaultSetting": [
        "HIT"
      ],
      "NeverCombat": []
    },
    "threat": {
      "clearThreatTargetDistance": 30.0,
      "clearThreatEdgeDistance": 5.0,
      "clearThreatTimerByDistance": 2.0,
      "viewAttenuation": [
        {
          "x": 12.0,
          "y": 1.0
        },
        {
          "x": 20.0,
          "y": 0.5
        }
      ],
      "JGFOPCOIJOI": ""
    },
    "defendArea": {
      "defendRange": 50.0
    },
    "skillSetting": {
      "skillEliteSet": {
        "1": [],
        "2": [
          112
        ]
      }
    },
    "skills": {
      "100": {
        "name": "OnAlert",
        "skillType": "OnAlert",
        "faceTarget": true,
        "publicCDGroup": "",
        "triggerGCD": false,
        "HGAMDGAEIGO": "",
        "stateIDs": [
          "Warning"
        ],
        "skillQueryingTime": 3.0,
        "flagTargetReachable": "10",
        "flagSelfOnTemplateCollider": "01",
        "flagSelfInZone": "10",
        "flagTargetInZone": "11"
      },
      "102": {
        "name": "Dance",
        "skillType": "Free",
        "castCondition": {
          "pose": [
            102
          ]
        },
        "cd": 15.0,
        "initialCD": 5.0,
        "publicCDGroup": "",
        "triggerGCD": false,
        "HGAMDGAEIGO": "",
        "stateIDs": [
          "Dance"
        ],
        "skillQueryingTime": 3.0,
        "flagTargetReachable": "10",
        "flagSelfOnTemplateCollider": "01",
        "flagSelfInZone": "10",
        "flagTargetInZone": "11"
      },
      "112": {
        "name": "Tease2",
        "skillType": "Free",
        "castCondition": {
          "pose": [
            101,
            111,
            121
          ]
        },
        "cd": 0.5,
        "initialCD": 0.6000000238418579,
        "publicCDGroup": "",
        "triggerGCD": false,
        "HGAMDGAEIGO": "",
        "stateIDs": [
          "Tease"
        ],
        "skillQueryingTime": 3.0,
        "flagTargetReachable": "10",
        "flagSelfOnTemplateCollider": "01",
        "flagSelfInZone": "10",
        "flagTargetInZone": "11"
      },
      "103": {
        "name": "Tease",
        "skillType": "Free",
        "castCondition": {
          "pose": [
            103
          ]
        },
        "cd": 10.0,
        "cdUpperRange": 10.0,
        "initialCD": 5.0,
        "initialCDUpperRange": 10.0,
        "publicCDGroup": "",
        "triggerGCD": false,
        "HGAMDGAEIGO": "",
        "stateIDs": [
          "Tease"
        ],
        "skillQueryingTime": 3.0,
        "flagTargetReachable": "10",
        "flagSelfOnTemplateCollider": "01",
        "flagSelfInZone": "10",
        "flagTargetInZone": "11"
      },
      "104": {
        "name": "Absorb",
        "skillType": "Free",
        "castCondition": {
          "pose": [
            104
          ]
        },
        "cd": 10.0,
        "cdUpperRange": 10.0,
        "initialCD": 5.0,
        "initialCDUpperRange": 10.0,
        "publicCDGroup": "",
        "triggerGCD": false,
        "HGAMDGAEIGO": "",
        "stateIDs": [
          "Absorb"
        ],
        "skillQueryingTime": 3.0,
        "flagTargetReachable": "10",
        "flagSelfOnTemplateCollider": "01",
        "flagSelfInZone": "10",
        "flagTargetInZone": "11"
      },
      "301": {
        "name": "MeleeAttackNormalClose",
        "combatSkillType": "MeleeAttack",
        "castCondition": {
          "pose": [
            301
          ],
          "pickRangeMax": 3.0,
          "castRangeMax": 3.0
        },
        "cd": 5.0,
        "cdUpperRange": 5.0,
        "initialCD": 5.0,
        "publicCDGroup": "",
        "HGAMDGAEIGO": "",
        "stateIDs": [
          "MeleeAttack"
        ],
        "flagTargetReachable": "10",
        "flagSelfOnTemplateCollider": "01",
        "flagSelfInZone": "10",
        "flagTargetInZone": "11"
      },
      "311": {
        "name": "MeleeAttackOverdose",
        "combatSkillType": "MeleeAttack",
        "castCondition": {
          "pose": [
            311
          ],
          "pickRangeMax": 3.0,
          "castRangeMax": 3.0
        },
        "cd": 2.0,
        "cdUpperRange": 2.0,
        "initialCD": 5.0,
        "publicCDGroup": "",
        "HGAMDGAEIGO": "",
        "stateIDs": [
          "MeleeAttack"
        ],
        "flagTargetReachable": "10",
        "flagSelfOnTemplateCollider": "01",
        "flagSelfInZone": "10",
        "flagTargetInZone": "11"
      },
      "321": {
        "name": "MeleeAttackDecayed",
        "combatSkillType": "MeleeAttack",
        "castCondition": {
          "pose": [
            321
          ],
          "pickRangeMax": 3.0,
          "castRangeMax": 3.0
        },
        "cd": 7.0,
        "cdUpperRange": 7.0,
        "publicCDGroup": "",
        "HGAMDGAEIGO": "",
        "stateIDs": [
          "MeleeAttack"
        ],
        "flagTargetReachable": "10",
        "flagSelfOnTemplateCollider": "01",
        "flagSelfInZone": "10",
        "flagTargetInZone": "11"
      },
      "501": {
        "name": "ShootNormal",
        "combatSkillType": "RangedAttack",
        "castCondition": {
          "pose": [
            301
          ],
          "needReInitCD": true,
          "pickRangeMax": 12.0
        },
        "cd": 5.0,
        "cdUpperRange": 10.0,
        "initialCD": 1.0,
        "initialCDUpperRange": 2.5,
        "publicCDGroup": "",
        "HGAMDGAEIGO": "",
        "stateIDs": [
          "Shoot",
          "ShootNormal_BS"
        ],
        "flagTargetReachable": "11",
        "flagSelfOnTemplateCollider": "01",
        "flagSelfInZone": "11",
        "flagTargetInZone": "11"
      },
      "511": {
        "name": "ShootOverdose",
        "combatSkillType": "RangedAttack",
        "castCondition": {
          "pose": [
            311
          ],
          "needReInitCD": true,
          "pickRangeMax": 12.0
        },
        "cd": 5.0,
        "cdUpperRange": 3.0,
        "initialCD": 0.5,
        "initialCDUpperRange": 1.5,
        "publicCDGroup": "",
        "HGAMDGAEIGO": "",
        "stateIDs": [
          "Shoot",
          "ShootOverdose_BS"
        ],
        "flagTargetReachable": "11",
        "flagSelfOnTemplateCollider": "01",
        "flagSelfInZone": "11",
        "flagTargetInZone": "11"
      },
      "521": {
        "name": "ShootDecayed",
        "combatSkillType": "RangedAttack",
        "castCondition": {
          "pose": [
            321
          ],
          "needReInitCD": true,
          "pickRangeMax": 12.0
        },
        "cd": 6.0,
        "cdUpperRange": 6.0,
        "initialCD": 3.0,
        "initialCDUpperRange": 3.0,
        "publicCDGroup": "",
        "HGAMDGAEIGO": "",
        "stateIDs": [
          "Shoot",
          "ShootDecayed_BS"
        ],
        "flagTargetReachable": "11",
        "flagSelfOnTemplateCollider": "01",
        "flagSelfInZone": "11",
        "flagTargetInZone": "11"
      }
    },
    "skillGCD": 3.5,
    "combatFixedMoveTactic": [
      {
        "$type": "GIMIMAJNOPH",
        "enable": true,
        "FJANPNOAAFK": {
          "pose": [
            301,
            311
          ]
        },
        "LMMKNFEMOMG": {
          "KIHPEPHJMOG": 1,
          "GEAICNICJAJ": 2.5,
          "cd": 6.0,
          "triggerDistance": 4.0,
          "NBBIJDCLJOF": 5.0,
          "MHMMABHJIIA": 5.0,
          "JOCOJHEICNA": ""
        }
      },
      {
        "$type": "CMCHFECOPPI",
        "enable": true,
        "LMMKNFEMOMG": {
          "DCEODHLDKCJ": 1.0,
          "GAHPENGCPFA": 1.0,
          "JOCOJHEICNA": "",
          "DBIELIMGBMC": ""
        }
      },
      {
        "$type": "ADPPBLEBNLM",
        "enable": true,
        "FJANPNOAAFK": {
          "pose": [
            101,
            111,
            121
          ]
        },
        "LMMKNFEMOMG": {
          "KIHPEPHJMOG": 1,
          "JOCOJHEICNA": "",
          "DBIELIMGBMC": ""
        },
        "BIDHHBJEKHM": {
          "121": {
            "JOCOJHEICNA": "",
            "DBIELIMGBMC": ""
          }
        }
      },
      {
        "$type": "BNAGECKMCIB",
        "enable": true,
        "FJANPNOAAFK": {
          "pose": [
            301,
            311,
            321
          ]
        },
        "LMMKNFEMOMG": {
          "KIHPEPHJMOG": 1,
          "MPEMBMLOEDG": 10.0,
          "IJLGPEJGLEH": 50.0,
          "JKOGPCLFHCP": 9.0,
          "IHCAFCNDANA": 10.0,
          "JOCOJHEICNA": ""
        },
        "BIDHHBJEKHM": {
          "321": {
            "MPEMBMLOEDG": 10.0,
            "IJLGPEJGLEH": 50.0,
            "JKOGPCLFHCP": 3.0,
            "IHCAFCNDANA": 6.0,
            "OBDJFHBHOMP": 2,
            "JOCOJHEICNA": ""
          }
        }
      },
      {
        "$type": "KMHBGMELMKD",
        "enable": true,
        "LMMKNFEMOMG": {
          "KPOGGFBLNPE": 3.25,
          "JOCOJHEICNA": "",
          "DBIELIMGBMC": ""
        }
      },
      {
        "$type": "GGKADEIBMLG",
        "enable": true,
        "FJANPNOAAFK": {
          "pose": [
            101,
            111,
            121
          ]
        },
        "LMMKNFEMOMG": {
          "JIFJFPJANHO": 3.0,
          "CBKHBGCPFBG": 1.5,
          "EKDHNAGGGAE": 15.0,
          "BFEJAKFKKFP": 3.75,
          "KOAMKCEFJED": 7.5,
          "JOCOJHEICNA": ""
        }
      }
    ]
  },
  "inputKeys": [
    {
      "keyID": 301,
      "inputKeyCode": 257,
      "abilityName": ""
    },
    {
      "keyID": 501,
      "inputKeyCode": 258,
      "abilityName": ""
    },
    {
      "keyID": 311,
      "inputKeyCode": 259,
      "abilityName": ""
    },
    {
      "keyID": 511,
      "inputKeyCode": 260,
      "abilityName": ""
    },
    {
      "keyID": 321,
      "inputKeyCode": 261,
      "abilityName": ""
    },
    {
      "keyID": 521,
      "inputKeyCode": 262,
      "abilityName": ""
    },
    {
      "keyID": 102,
      "inputKeyCode": 263,
      "abilityName": ""
    },
    {
      "keyID": 103,
      "inputKeyCode": 264,
      "abilityName": ""
    },
    {
      "keyID": 104,
      "inputKeyCode": 265,
      "abilityName": ""
    },
    {
      "keyID": 9997,
      "inputKeyCode": 266,
      "abilityName": ""
    },
    {
      "keyID": 9998,
      "inputKeyCode": 267,
      "abilityName": ""
    },
    {
      "keyID": 9999,
      "inputKeyCode": 268,
      "abilityName": ""
    }
  ],
  "move": {
    "$type": "IIGPJJNGCLE",
    "IJMIGIDACLP": "AirBlend3D",
    "BEPOPLDKJOP": "SlimeType",
    "FACNOEFNHIB": "RootNode"
  },
  "audio": {
    "KEEAIACIJBN": "",
    "animAudio": {
      "onTransitionIn": [
        {
          "currentStateName": "",
          "audioEvent": {
            "text": ""
          }
        }
      ],
      "onTransitionOut": [
        {
          "currentStateName": "Absorb",
          "audioEvent": {
            "text": "Stop_sfx_monster_Fungus_Deux_absorb"
          }
        },
        {
          "currentStateName": "Dance",
          "audioEvent": {
            "text": "Stop_sfx_monster_Fungus_Deux_dance"
          }
        },
        {
          "currentStateName": "ShootNormal_BS",
          "audioEvent": {
            "text": "Stop_sfx_monster_Fungus_Deux_Electric_shoot_BS"
          }
        },
        {
          "currentStateName": "ShootDecay_BS",
          "audioEvent": {
            "text": "Stop_sfx_monster_Fungus_Deux_Electric_shoot_BS"
          }
        },
        {
          "currentStateName": "ShootOverdose_BS",
          "audioEvent": {
            "text": "Stop_sfx_monster_Fungus_Deux_Electric_shoot_BS"
          }
        }
      ]
    }
  }
}