{
  "MDJNFHAJPAD": {
    "FAIKDMCHPEL": {
      "$type": "DPGKNHENGLM",
      "DDDEJPIFECG": "EffectMesh"
    },
    "FINMNFLLAMB": 10000.0,
    "NEBDNCNFDJC": 2.0,
    "GJDONABEMOA": true,
    "GJKLEPPOKDJ": true,
    "BKPPECPBMBF": true,
    "LOGFKHMLOOL": true
  },
  "PJEANIPCFFN": {
    "CKAIGCFDCMG": "",
    "KHGAHHAIJFJ": "",
    "DFFKHFKJKEK": false
  },
  "MEMHBNEJBCL": {
    "PJBCJPKPOLB": 2.0
  },
  "GKIMHOOMGHB": {
    "DHBJGHDCMAA": {
      "LDAHGACLHII": "Monster_Boss_Other",
      "LJGADHKDLLB": 1000.0
    },
    "BPKIJDAHLGB": {
      "LKMLEJGEHAP": ""
    },
    "INCPHOFGIJA": {
      "FGJIHAKMLBG": "CircleLockEnemy",
      "BGMEKAEIOGA": "Avatar&Monster_Lv4"
    },
    "JCCJMILDEAM": {
      "ODGDMCPOMAJ": true,
      "GKFDFDFJJFB": 0.5,
      "FNIJBPMPCHA": 0.5,
      "BCHFMGGBEFN": "Eff_SceneObj_FungusBalloon_Die_01",
      "GDFMLKACHDB": "AvatarDie",
      "LEDBOLGDENF": true,
      "IEAKKMEDNDE": true,
      "AAEANOPIAAL": true,
      "BKIBMIAJOHP": true,
      "MOFPBPPGPCL": true
    }
  },
  "IGPKOOHPBFG": [
    {
      "FPLENFAEDIB": "",
      "KAJGDIHNKNE": "Monster_AutoMachine_FungusBalloon_Label",
      "BIAMBCDKJKP": ""
    },
    {
      "FPLENFAEDIB": "",
      "KAJGDIHNKNE": "Monster_AutoMachine_Balloon_Dither",
      "BIAMBCDKJKP": ""
    },
    {
      "FPLENFAEDIB": "",
      "KAJGDIHNKNE": "Monster_AutoMachine_Balloon_Effect",
      "BIAMBCDKJKP": ""
    }
  ],
  "GGIOJAMBNPO": {
    "defaultLayer": {
      "$type": "EPAPJJAGHKG",
      "ACOCIAFGIAD": "",
      "LFGKIDDJIED": {
        "Born": {
          "$type": "IJOIMFMEGMM",
          "DLOHGBDFFGB": {
            "Born": []
          },
          "PGKCBIHGAOC": true,
          "DLAOMOCMANL": [
            "DoSkill"
          ]
        },
        "Standby": {
          "$type": "IJOIMFMEGMM",
          "DLOHGBDFFGB": {
            "Standby": []
          },
          "POLKCLOHPOO": true,
          "PGKCBIHGAOC": true,
          "DLAOMOCMANL": [
            "DoSkill"
          ],
          "HMPOMAMKBEF": true
        },
        "WalkForward": {
          "$type": "IJOIMFMEGMM",
          "DLOHGBDFFGB": {
            "WalkForward": []
          },
          "POLKCLOHPOO": true,
          "PGKCBIHGAOC": true,
          "DLAOMOCMANL": [
            "DoSkill"
          ],
          "LIPMJPLGIKD": true
        },
        "Die": {
          "$type": "IJOIMFMEGMM",
          "DLOHGBDFFGB": {
            "Die": []
          },
          "DLAOMOCMANL": [
            "DoSkill"
          ]
        }
      }
    }
  },
  "BPKMBFGIKHE": {
    "LCCAAAFMJIN": 10002,
    "BDICGPJLOKA": true
  },
  "IONIFBIBFNL": {
    "Default": {
      "JAAABLNBKAP": 1
    }
  },
  "PDCDMABCPOA": {
    "ENLKMOKHELD": true,
    "OCBDDDCJANP": {
      "IJOBKDKBEME": {
        "DefaultSetting": {
          "FNIFPAHGINJ": false,
          "PHDIIPOBJGA": 0.0,
          "IINDLMAAMGD": 0.0,
          "BHOECAJIBOM": 0.0
        }
      },
      "PKFGMCHOEBN": {
        "DefaultTemplate": {
          "DefaultPoses": "DefaultSetting"
        }
      }
    },
    "EJOLGMGAECP": {
      "PLCPHNHGFAC": 0.0,
      "DMBNEKAFACI": true,
      "BKDOBJKGIGO": true,
      "GAIJJFPCMEG": 4.0,
      "BAOEBJPPKMK": 3.0,
      "KICEOILEEPP": 0.0,
      "DKMKABAEKJK": 0.0,
      "JEAMBMPMOAC": 0.0,
      "KNNHACDCGCF": 0.0,
      "IBGELAGCJFH": "Monster_TauntLevel_2",
      "JGFOPCOIJOI": ""
    },
    "PMNPDDIOHHJ": {},
    "CNAPABCFOAH": {
      "LNFOCHIGPKF": true
    },
    "EMBHEEALPLD": 3.0,
    "EEKEAKJCMJO": [
      {
        "$type": "LCIAFAFLKBC",
        "ENLKMOKHELD": true,
        "FJANPNOAAFK": {
          "CEKMINILIFB": [
            101
          ]
        },
        "LMMKNFEMOMG": {
          "KIHPEPHJMOG": 1,
          "MHMCEHINFNL": 1.3452465257518244e-43,
          "IPGHDLJJBAM": 2.0000154972076416,
          "DCEODHLDKCJ": 9.10844001811131e-44,
          "GAHPENGCPFA": 8.96831017167883e-44,
          "NOEBILEBKGP": 2.3693737374965166e-38,
          "HDACKBIMJFA": {
            "LKDDCABPJNN": 9.88178749356412e-38
          }
        }
      },
      {
        "$type": "JLJLJCIJPDI"
      }
    ]
  },
  "GIBHCHHOJFI": [
    {
      "NPDDCIDNKMH": 101,
      "KCAOBJOPJIC": 257,
      "KAJGDIHNKNE": ""
    },
    {
      "NPDDCIDNKMH": 102,
      "KCAOBJOPJIC": 258,
      "KAJGDIHNKNE": ""
    },
    {
      "NPDDCIDNKMH": 10000,
      "KCAOBJOPJIC": 259,
      "KAJGDIHNKNE": ""
    }
  ],
  "ADIGBDHBCDP": {
    "$type": "IIGPJJNGCLE",
    "EIEIGIPKLAO": {
      "BFHOPPHPHJK": [
        "RetreatAirType"
      ]
    },
    "FACNOEFNHIB": "RootNode"
  }
}