{
  "common": {
    "effectAttachShape": {
      "$type": "DPGKNHENGLM",
      "DDDEJPIFECG": "EffectMesh"
    },
    "mass": 150.0,
    "height": 2.200000047683716,
    "modelHeight": 2.0,
    "affectedByWorld": true,
    "checkInSurface": true,
    "shouldPauseAnimatorBeforeReady": true,
    "useGrassDisplacement": true,
    "BKPPECPBMBF": true,
    "LOGFKHMLOOL": true
  },
  "model": {
    "bornEffect": "Eff_Monster_Common_Born",
    "attachEffect": "",
    "canBakeMesh": false
  },
  "dither": {
    "showDitherDuration": 2.0,
    "hideEffectWhenDither": true
  },
  "combat": {
    "property": {
      "endureType": "Monster_Demiboss_Humanoid",
      "weight": 150.0
    },
    "beHit": {
      "hitBloodEffect": ""
    },
    "combatLock": {
      "lockShape": "CircleLockEnemy",
      "lockType": "Avatar&Monster_Lv4"
    },
    "die": {
      "hasAnimatorDie": true,
      "dieEndTime": 1.5,
      "dieForceDisappearTime": 2.0,
      "dieDisappearEffect": "Eff_Death_Common",
      "dieShaderData": "MonsterDie",
      "useRagDoll": true,
      "muteHitBox": true,
      "dieDenyLockOn": true,
      "dieIsGhostToEnemy": true,
      "dieIgnoreTriggerBullet": true,
      "muteBillboard": true,
      "mutePushCollider": true
    },
    "animEvents": {
      "NormalAtk": {
        "attackPattern": {
          "$type": "AGJFCPDIMCK",
          "triggerType": "TriggerNoRepeat",
          "born": {
            "$type": "NKOODKOFELF",
            "offset": {
              "GNGDNIIPPNL": 0.0,
              "GIIMFINHIED": -0.5,
              "CLBCHJICOKH": 1.2200000286102295
            },
            "JEOALPJGDJO": true
          },
          "height": 2.200000047683716,
          "LOACHGCADCO": 2.450000047683716
        },
        "attackInfo": {
          "attackTag": "",
          "attenuationTag": "",
          "attenuationGroup": "default",
          "attackProperty": {
            "HOGNHNAHNML": 1.0,
            "BAPILBAGBOJ": 0.0,
            "bonusCriticalHurt": 100.0,
            "strikeType": "Slash",
            "enBreak": 50.0,
            "attackType": "Melee",
            "damagePercentage": 0.0
          },
          "hitPattern": {
            "onHitEffectName": "default",
            "hitImpulseType": "LV3"
          }
        }
      }
    }
  },
  "abilities": [
    {
      "abilityID": "",
      "abilityName": "Monster_MachinaIustitia_Pylon_Pose",
      "abilityOverride": ""
    },
    {
      "abilityID": "",
      "abilityName": "Monster_MachinaIustitia_Pylon_Buddy",
      "abilityOverride": ""
    },
    {
      "abilityID": "",
      "abilityName": "Monster_MachinaIustitia_Pylon_Repair",
      "abilityOverride": ""
    },
    {
      "abilityID": "",
      "abilityName": "Monster_MachinaIustitia_Pylon_Recover",
      "abilityOverride": ""
    },
    {
      "abilityID": "",
      "abilityName": "Monster_MachinaIustitia_Pylon_EnhanceAdd_Pneuma",
      "abilityOverride": ""
    },
    {
      "abilityID": "",
      "abilityName": "Monster_MachinaIustitia_Pylon_EnhanceRemove_Pneuma",
      "abilityOverride": ""
    },
    {
      "abilityID": "",
      "abilityName": "Monster_MachinaIustitia_Pylon_EnhanceAdd_Effect",
      "abilityOverride": ""
    },
    {
      "abilityID": "",
      "abilityName": "Monster_MachinaIustitia_Pylon_EnhanceRemove_Effect",
      "abilityOverride": ""
    },
    {
      "abilityID": "",
      "abilityName": "Monster_MachinaIustitia_Pylon_Charge_Effect_Pneuma",
      "abilityOverride": ""
    },
    {
      "abilityID": "",
      "abilityName": "Monster_MachinaIustitia_Pylon_Charge_EffectLoop_Pneuma",
      "abilityOverride": ""
    },
    {
      "abilityID": "",
      "abilityName": "Monster_MachinaIustitia_Pylon_ChargeBeforeBattle",
      "abilityOverride": ""
    },
    {
      "abilityID": "",
      "abilityName": "Monster_MachinaIustitia_CoilHanler",
      "abilityOverride": ""
    },
    {
      "abilityID": "",
      "abilityName": "Monster_MachinaIustitia_Pylon_CoilEffect",
      "abilityOverride": ""
    },
    {
      "abilityID": "",
      "abilityName": "Monster_MachinaIustitia_Pylon_Steer",
      "abilityOverride": ""
    },
    {
      "abilityID": "",
      "abilityName": "Monster_MachinaIustitia_Pylon_Alert",
      "abilityOverride": ""
    },
    {
      "abilityID": "",
      "abilityName": "Monster_MachinaIustitia_Pylon_MoveType",
      "abilityOverride": ""
    }
  ],
  "stateLayers": {
    "defaultLayer": {
      "$type": "EPAPJJAGHKG",
      "ACOCIAFGIAD": "",
      "stateIDs": {
        "NormalIdle": {
          "$type": "IJOIMFMEGMM",
          "DLOHGBDFFGB": {
            "Standby_01": [],
            "Standby_02": [],
            "Standby_03": [],
            "Born": []
          },
          "POLKCLOHPOO": true,
          "PGKCBIHGAOC": true,
          "DLAOMOCMANL": [
            "DoSkill"
          ]
        },
        "NormalMove_BS": {
          "$type": "IJOIMFMEGMM",
          "DLOHGBDFFGB": {
            "WalkForward_BS1": [
              "Audio_Monster_MachinaIustitia_Pylon_Run_BS"
            ],
            "WalkForward_BS2": [
              "Audio_Monster_MachinaIustitia_Pylon_Run_BS"
            ],
            "WalkForward_BS3": [
              "Audio_Monster_MachinaIustitia_Pylon_Run_BS"
            ],
            "WalkBack_BS": [
              "Audio_Monster_MachinaIustitia_Pylon_Run_BS"
            ],
            "WalkRight_BS": [
              "Audio_Monster_MachinaIustitia_Pylon_Run_BS"
            ],
            "WalkLeft_BS": [
              "Audio_Monster_MachinaIustitia_Pylon_Run_BS"
            ],
            "Run_BS1": [
              "Audio_Monster_MachinaIustitia_Pylon_Run_BS"
            ],
            "Run_BS2": [
              "Audio_Monster_MachinaIustitia_Pylon_Run_BS"
            ],
            "Run_BS3": [
              "Audio_Monster_MachinaIustitia_Pylon_Run_BS"
            ]
          },
          "POLKCLOHPOO": true,
          "PGKCBIHGAOC": true,
          "DLAOMOCMANL": [
            "DoSkill"
          ],
          "LIPMJPLGIKD": true
        },
        "NormalMove": {
          "$type": "IJOIMFMEGMM",
          "DLOHGBDFFGB": {
            "WalkForward1": [
              "Audio_Monster_MachinaIustitia_Pylon_Run"
            ],
            "WalkForward2": [
              "Audio_Monster_MachinaIustitia_Pylon_Run"
            ],
            "WalkForward3": [
              "Audio_Monster_MachinaIustitia_Pylon_Run"
            ],
            "WalkBack": [
              "Audio_Monster_MachinaIustitia_Pylon_Run"
            ],
            "WalkRight": [
              "Audio_Monster_MachinaIustitia_Pylon_Run"
            ],
            "WalkLeft": [
              "Audio_Monster_MachinaIustitia_Pylon_Run"
            ],
            "Run1": [
              "Audio_Monster_MachinaIustitia_Pylon_Run"
            ],
            "Run2": [
              "Audio_Monster_MachinaIustitia_Pylon_Run"
            ],
            "Run3": [
              "Audio_Monster_MachinaIustitia_Pylon_Run"
            ]
          },
          "POLKCLOHPOO": true,
          "PGKCBIHGAOC": true,
          "DLAOMOCMANL": [
            "DoSkill"
          ],
          "LIPMJPLGIKD": true
        },
        "NormalMove_Other": {
          "$type": "IJOIMFMEGMM",
          "DLOHGBDFFGB": {
            "WalkOther_02": [],
            "WalkOther_03": []
          },
          "POLKCLOHPOO": true,
          "PGKCBIHGAOC": true,
          "DLAOMOCMANL": [
            "DoSkill"
          ]
        },
        "Turn_BS": {
          "$type": "IJOIMFMEGMM",
          "DLOHGBDFFGB": {
            "TurnLeft_BS": [
              "Audio_Monster_MachinaIustitia_Pylon_Run_BS"
            ],
            "TurnRight_BS": [
              "Audio_Monster_MachinaIustitia_Pylon_Run_BS"
            ]
          },
          "POLKCLOHPOO": true,
          "PGKCBIHGAOC": true,
          "DLAOMOCMANL": [
            "DoSkill"
          ],
          "LIPMJPLGIKD": true
        },
        "Turn": {
          "$type": "IJOIMFMEGMM",
          "DLOHGBDFFGB": {
            "TurnLeft": [
              "Audio_Monster_MachinaIustitia_Pylon_Run"
            ],
            "TurnRight": [
              "Audio_Monster_MachinaIustitia_Pylon_Run"
            ]
          },
          "POLKCLOHPOO": true,
          "PGKCBIHGAOC": true,
          "DLAOMOCMANL": [
            "DoSkill"
          ],
          "LIPMJPLGIKD": true
        },
        "BeHit": {
          "$type": "IJOIMFMEGMM",
          "DLOHGBDFFGB": {
            "Hit_H": [
              "Audio_Monster_MachinaIustitia_Pylon_Hit_H"
            ]
          },
          "AJBLILDCLBO": [
            "BeHit"
          ],
          "DLAOMOCMANL": [
            "DoSkill"
          ]
        },
        "HitSpecial": {
          "$type": "IJOIMFMEGMM",
          "DLOHGBDFFGB": {
            "HitSpecial_BS": [
              "Monster_MachinaIustitia_Pylon_Recover_BS",
              "Monster_MachinaIustitia_Pylon_EnhanceRemove_Pneuma3",
              "Audio_Monster_MachinaIustitia_Pylon_HitSpecial_BS"
            ],
            "HitSpecial_Loop": [
              "Audio_Monster_MachinaIustitia_Pylon_HitSpecial_Loop"
            ],
            "HitSpecial_AS": [
              "Audio_Monster_MachinaIustitia_Pylon_HitSpecial_AS"
            ],
            "HitSpecial_AS2": [
              "Monster_MachinaIustitia_Pylon_EnhanceAdd_Pneuma3",
              "Audio_Monster_MachinaIustitia_Pylon_HitSpecial_AS"
            ]
          },
          "OGNDLAMHMPB": 0.0,
          "DLAOMOCMANL": [
            "BeHit",
            "DoSkill"
          ]
        },
        "HitSpecial_NoBuddy": {
          "$type": "IJOIMFMEGMM",
          "DLOHGBDFFGB": {
            "HitSpecial_NoBuddy_BS": [
              "Monster_MachinaIustitia_Pylon_Recover_BS",
              "Audio_Monster_MachinaIustitia_Pylon_HitSpecial_NoBuddy_BS"
            ],
            "HitSpecial_NoBuddy_Loop": [
              "Audio_Monster_MachinaIustitia_Pylon_HitSpecial_Loop"
            ],
            "HitSpecial_NoBuddy_AS": [
              "Audio_Monster_MachinaIustitia_Pylon_HitSpecial_NoBuddy_AS"
            ],
            "HitSpecial_NoBuddy_AS2": [
              "Monster_MachinaIustitia_Pylon_EnhanceAdd_Pneuma2",
              "Audio_Monster_MachinaIustitia_Pylon_HitSpecial_NoBuddy_AS"
            ]
          },
          "OGNDLAMHMPB": 0.0,
          "DLAOMOCMANL": [
            "BeHit",
            "DoSkill"
          ]
        },
        "Die": {
          "$type": "IJOIMFMEGMM",
          "DLOHGBDFFGB": {
            "Die1": [
              "Audio_Monster_MachinaIustitia_Pylon_Die"
            ],
            "Die2": [
              "Audio_Monster_MachinaIustitia_Pylon_Die"
            ]
          },
          "AJBLILDCLBO": [
            "DoSkill"
          ]
        },
        "Die_RagDoll": {
          "$type": "IJOIMFMEGMM",
          "DLOHGBDFFGB": {
            "Die_RagDoll1": [],
            "Die_RagDoll2": []
          },
          "AJBLILDCLBO": [
            "DoSkill"
          ],
          "CPOLOGIELCD": true
        },
        "Standby_Change": {
          "$type": "IJOIMFMEGMM",
          "DLOHGBDFFGB": {
            "Standby_01To03": [
              "Monster_MachinaIustitia_Pylon_EnhanceAdd_Pneuma1",
              "Audio_Monster_MachinaIustitia_Pylon_HitSpecial_NoBuddy_AS"
            ],
            "Standby_02To01": [
              "Monster_MachinaIustitia_Pylon_EnhanceRemove_Pneuma1",
              "Audio_Monster_MachinaIustitia_Pylon_HitSpecial_AS2"
            ],
            "Standby_02To03": [
              "Monster_MachinaIustitia_Pylon_EnhanceAdd_Pneuma2",
              "Audio_Monster_MachinaIustitia_Pylon_HitSpecial_AS"
            ],
            "Standby_03To01": [
              "Monster_MachinaIustitia_Pylon_EnhanceRemove_Pneuma2",
              "Audio_Monster_MachinaIustitia_Pylon_HitSpecial_AS"
            ]
          },
          "DLAOMOCMANL": [
            "BeHit",
            "DoSkill"
          ]
        },
        "NormalAtk": {
          "$type": "IJOIMFMEGMM",
          "DLOHGBDFFGB": {
            "NormalAtk": [
              "Monster_MachinaIustitia_Pylon_NormalAtk",
              "Audio_Monster_MachinaIustitia_Pylon_NormalAtk"
            ]
          },
          "DLAOMOCMANL": [
            "BeHit",
            "DoSkill"
          ],
          "LIPMJPLGIKD": true
        },
        "Charge": {
          "$type": "IJOIMFMEGMM",
          "DLOHGBDFFGB": {
            "Charge": [
              "Monster_MachinaIustitia_Pylon_Charge_Pneuma",
              "Audio_Monster_MachinaIustitia_Pylon_Charge"
            ]
          },
          "DLAOMOCMANL": [
            "BeHit",
            "DoSkill"
          ]
        }
      }
    }
  },
  "billboard": {
    "$type": "PAOBAEKGGBC",
    "attachPoint": "BillboardAttach",
    "EMFFJPOKEKF": "Character",
    "LOMMBJLKPHE": 1.5,
    "KGHAGECNJPO": true
  },
  "initialPoses": {
    "Default": {
      "initialPoseID": 1,
      "initialPoseParams": {
        "boolParams": {
          "Charge": "false"
        }
      }
    },
    "Charge": {
      "initialPoseID": 9001,
      "initialPoseParams": {
        "boolParams": {
          "Charge": "true"
        }
      }
    }
  },
  "aibeta": {
    "enable": true,
    "buddySetting": {
      "enable": true,
      "buddyFeatureTagIDs": [
        4037
      ]
    },
    "sensing": {
      "settings": {
        "DefaultSetting": {
          "viewRange": 6.0,
          "feelRange": 3.0
        },
        "Charge": {
          "enableVision": false,
          "viewRange": 0.0,
          "feelRange": 0.0
        }
      },
      "templates": {
        "DefaultTemplate": {
          "DefaultPoses": "DefaultSetting"
        },
        "ChargeTemplate": {
          "DefaultPoses": "DefaultSetting",
          "9001": "Charge"
        }
      }
    },
    "neurons": {
      "DefaultSetting": [
        "HIT"
      ]
    },
    "threat": {
      "clearThreatByLostPath": true,
      "clearThreatTimerByLostPath": 3.0,
      "viewAttenuation": [
        {
          "x": 10.0,
          "y": 2.0
        },
        {
          "x": 15.0,
          "y": 0.800000011920929
        },
        {
          "x": 20.0,
          "y": 0.5
        },
        {
          "x": 25.0,
          "y": 0.30000001192092896
        },
        {
          "x": 30.0,
          "y": 0.20000000298023224
        }
      ],
      "resistTauntLevel": "Monster_TauntLevel_2",
      "JGFOPCOIJOI": ""
    },
    "defendArea": {
      "defendRange": 50.0
    },
    "profiling": {},
    "skillGroupCDConfigs": [
      {
        "skillGroupCDID": 0,
        "skillGroupCDTime": 3.0
      }
    ],
    "skillSetting": {},
    "skills": {
      "201": {
        "name": "NormalAtk",
        "combatSkillType": "MeleeAttack",
        "priority": 3,
        "enableSkillPrepare": true,
        "skillPrepareTimeout": 2.0,
        "skillPrepareGiveUp": true,
        "skillPrepareSpeedLevel": 1,
        "castCondition": {
          "pose": [
            211,
            311
          ],
          "pickRangeMax": 5.5,
          "pickRangeYMax": 2.0,
          "castRangeMax": 3.5
        },
        "cd": 3.0,
        "cdUpperRange": 2.0,
        "initialCD": 1.0,
        "initialCDUpperRange": 4.0,
        "publicCDGroup": "",
        "HGAMDGAEIGO": "",
        "stateIDs": [
          "NormalAtk"
        ],
        "skillQueryingTime": 3.0,
        "flagTargetReachable": "10",
        "flagSelfOnTemplateCollider": "01",
        "flagSelfInZone": "11",
        "flagTargetInZone": "11"
      },
      "301": {
        "name": "Charge",
        "skillType": "CombatBuddy",
        "priority": 1,
        "canUseCombatSkillCondition": true,
        "castCondition": {
          "pose": [
            221,
            321
          ],
          "globalValues": [
            "_MACHINAIUSTITIA_NEEDREPAIR_"
          ],
          "CHKHDKJBGCH": "BUDDY"
        },
        "cd": 1.0,
        "cdUpperRange": 1.0,
        "initialCD": 1.0,
        "publicCDGroup": "",
        "HGAMDGAEIGO": "MachinaIustitia_Pylon_Charge",
        "stateIDs": [
          "Charge"
        ],
        "flagTargetReachable": "10",
        "flagSelfOnTemplateCollider": "01",
        "flagSelfInZone": "10",
        "flagTargetInZone": "11",
        "buddySkillCondition": {
          "GJFPFGCNAOJ": true,
          "buddyScoring": {
            "roleScores": [
              1.0,
              1.0,
              1.0,
              1.0
            ],
            "JIJLFGGNILG": [
              {
                "$type": "ENCBMPBEOLM",
                "weight": 1,
                "max": 1.0,
                "ECKAPCALPJJ": "Greater",
                "globalValue": "_MACHINAIUSTITIA_NEEDREPAIR_"
              }
            ]
          }
        }
      }
    },
    "skillGCD": 3.0,
    "combatFixedMoveTactic": [
      {
        "$type": "DIIPKNMAPAC",
        "enable": true,
        "FJANPNOAAFK": {
          "pose": [
            211,
            311
          ]
        },
        "LMMKNFEMOMG": {
          "rangeMax": 6.0,
          "AJCEMHKIMHA": 5.0,
          "JNMPGLIADPP": 8.0,
          "CCMODCEDODH": 3.0,
          "MMKHHBIBJEN": {
            "GEECPOOOMFC": 0.0,
            "NFMBIOFFKGK": 0.0,
            "JNJFKLDABCB": 2.0,
            "BEJLOBBENJJ": 2.0
          },
          "HEGPGPBKGFH": "1111",
          "AFCLIFKCEKM": "1111",
          "JOCOJHEICNA": ""
        }
      },
      {
        "$type": "BNAGECKMCIB",
        "enable": true,
        "FJANPNOAAFK": {
          "pose": [
            201,
            301,
            211,
            311
          ]
        },
        "LMMKNFEMOMG": {
          "MPEMBMLOEDG": 10.0,
          "IJLGPEJGLEH": 20.0,
          "JKOGPCLFHCP": 3.0,
          "IHCAFCNDANA": 6.0,
          "JOCOJHEICNA": ""
        },
        "BIDHHBJEKHM": {
          "201": {
            "KIHPEPHJMOG": 1,
            "IJLGPEJGLEH": 20.0,
            "JKOGPCLFHCP": 10.0,
            "IHCAFCNDANA": 10.0,
            "JOCOJHEICNA": ""
          },
          "301": {
            "KIHPEPHJMOG": 1,
            "IJLGPEJGLEH": 20.0,
            "JKOGPCLFHCP": 10.0,
            "IHCAFCNDANA": 10.0,
            "JOCOJHEICNA": ""
          }
        }
      },
      {
        "$type": "KMHBGMELMKD",
        "enable": true,
        "LMMKNFEMOMG": {
          "JOCOJHEICNA": "",
          "DBIELIMGBMC": ""
        }
      },
      {
        "$type": "GGKADEIBMLG",
        "enable": true,
        "FJANPNOAAFK": {
          "pose": [
            1,
            11,
            21,
            9001
          ]
        },
        "LMMKNFEMOMG": {
          "GEAICNICJAJ": 2.0,
          "JIFJFPJANHO": 5.0,
          "CBKHBGCPFBG": 3.0,
          "EKDHNAGGGAE": 10.0,
          "KOAMKCEFJED": 5.0,
          "JOCOJHEICNA": ""
        },
        "BIDHHBJEKHM": {
          "9001": {
            "GEAICNICJAJ": 2.0,
            "JIFJFPJANHO": 10.0,
            "CBKHBGCPFBG": 2.0,
            "EKDHNAGGGAE": 8.0,
            "KOAMKCEFJED": 5.0,
            "JOCOJHEICNA": ""
          }
        }
      }
    ]
  },
  "inputKeys": [
    {
      "keyID": 101,
      "inputKeyCode": 257,
      "abilityName": ""
    },
    {
      "keyID": 102,
      "inputKeyCode": 258,
      "abilityName": ""
    },
    {
      "keyID": 103,
      "inputKeyCode": 259,
      "abilityName": ""
    },
    {
      "keyID": 104,
      "inputKeyCode": 260,
      "abilityName": ""
    },
    {
      "keyID": 201,
      "inputKeyCode": 261,
      "abilityName": ""
    },
    {
      "keyID": 301,
      "inputKeyCode": 262,
      "abilityName": ""
    },
    {
      "keyID": 401,
      "inputKeyCode": 263,
      "abilityName": ""
    }
  ],
  "move": {
    "$type": "IIGPJJNGCLE",
    "EIEIGIPKLAO": {
      "excludeForces": [
        "RetreatAirType"
      ]
    },
    "EPDJOKGCLPD": true,
    "MIPNOGBEANL": "FourDirection",
    "EKMHGNLHCNM": 2.0,
    "OMMMNBNJHAI": true,
    "FACNOEFNHIB": "RootNode"
  },
  "audio": {
    "KEEAIACIJBN": "",
    "animAudio": {},
    "disableEvent": {
      "text": ""
    },
    "destroyEvent": {
      "text": ""
    },
    "randomVariantSwitchGroup": {
      "text": ""
    },
    "randomVariantSwitchValues": [
      {
        "text": ""
      }
    ]
  },
  "field": {
    "concernType": "CombatExcludeGWGO",
    "shape": "CircleR20H3",
    "ignoreScale": true,
    "fromShape": "",
    "triggerInfinite": true,
    "lifeInfinite": true,
    "checkInterval": 0.5,
    "overwriteCampType": true,
    "campType": "Alliance",
    "colliderName": "",
    "fromColliderName": ""
  }
}