{
  "common": {
    "effectAttachShape": {
      "$type": "DPGKNHENGLM",
      "DDDEJPIFECG": "EffectMesh"
    },
    "mass": 30.0,
    "height": 0.6000000238418579,
    "checkInSurface": true,
    "BKPPECPBMBF": true,
    "LOGFKHMLOOL": true
  },
  "model": {
    "bornEffect": "",
    "attachEffect": ""
  },
  "dither": {
    "showDitherDuration": 2.0
  },
  "combat": {
    "property": {
      "endureType": "Monster_Grunt_Humanoid",
      "weight": 75.0,
      "isLockHP": true
    },
    "beHit": {
      "hitBloodEffect": "",
      "muteAllHit": true
    },
    "combatLock": {
      "lockShape": "CircleLockEnemy",
      "lockType": "Avatar&Monster_Lv4"
    },
    "die": {
      "hasAnimatorDie": true,
      "dieEndTime": 0.5,
      "dieForceDisappearTime": 4.0,
      "dieDisappearEffect": "Eff_Death_Common",
      "dieShaderData": "MonsterDie",
      "dieShaderEnableDurationTime": 0.10000000149011612,
      "dieModelFadeDelay": 0.5,
      "muteHitBox": true,
      "dieDenyLockOn": true,
      "dieIsGhostToEnemy": true,
      "dieIgnoreTriggerBullet": true,
      "muteBillboard": true,
      "mutePushCollider": true
    }
  },
  "abilities": [
    {
      "abilityID": "",
      "abilityName": "FauneAbyssale_HermitCrab_Larva_Born",
      "abilityOverride": ""
    },
    {
      "abilityID": "",
      "abilityName": "FauneAbyssale_Universal_AbilityAnimal",
      "abilityOverride": ""
    },
    {
      "abilityID": "",
      "abilityName": "FauneAbyssale_Universal_AbilityAnimal_HermitCrab",
      "abilityOverride": ""
    },
    {
      "abilityID": "",
      "abilityName": "FauneAbyssale_Universal_UnderwaterSettings",
      "abilityOverride": ""
    },
    {
      "abilityID": "",
      "abilityName": "FauneAbyssale_Universal_Special_Endure",
      "abilityOverride": ""
    }
  ],
  "OCKBFJHNIHA": [
    "Ability_Avatar_Dive_CrabShield"
  ],
  "stateLayers": {
    "defaultLayer": {
      "$type": "EPAPJJAGHKG",
      "ACOCIAFGIAD": "",
      "stateIDs": {
        "Born": {
          "$type": "IJOIMFMEGMM",
          "DLOHGBDFFGB": {
            "Born": []
          }
        },
        "NormalIdle": {
          "$type": "IJOIMFMEGMM",
          "DLOHGBDFFGB": {
            "Standby": []
          },
          "POLKCLOHPOO": true,
          "PGKCBIHGAOC": true,
          "DLAOMOCMANL": [
            "DoSkill"
          ],
          "LIPMJPLGIKD": true
        },
        "NormalMove": {
          "$type": "IJOIMFMEGMM",
          "DLOHGBDFFGB": {
            "WalkForward": [],
            "WalkBack": [],
            "WalkLeft": [],
            "WalkRight": [],
            "WalkForwardInWater": [],
            "WalkBackInWater": [],
            "WalkLeftInWater": [],
            "WalkRightInWater": []
          },
          "POLKCLOHPOO": true,
          "PGKCBIHGAOC": true,
          "DLAOMOCMANL": [
            "DoSkill"
          ],
          "LIPMJPLGIKD": true
        },
        "FlyInWater": {
          "$type": "IJOIMFMEGMM",
          "DLOHGBDFFGB": {
            "FlyInWater": []
          },
          "POLKCLOHPOO": true,
          "PGKCBIHGAOC": true,
          "DLAOMOCMANL": [
            "DoSkill"
          ],
          "LIPMJPLGIKD": true,
          "PPKOODEDOFN": "BlendMove",
          "DNHGAGILGCG": true
        },
        "BeHit": {
          "$type": "IJOIMFMEGMM",
          "DLOHGBDFFGB": {
            "Hit_H": []
          },
          "AJBLILDCLBO": [
            "BeHit"
          ],
          "DLAOMOCMANL": [
            "DoSkill"
          ],
          "OOPPLFOAOGN": true
        },
        "BeHitThrow": {
          "$type": "IJOIMFMEGMM",
          "DLOHGBDFFGB": {
            "HitThrow": [],
            "HitThrowToGround": [
              "Monster_FauneAbyssale_HermitCrab_Larva_HitThrowToGround"
            ],
            "Hit_Throw_From_Struggle": []
          },
          "AJBLILDCLBO": [
            "BeHit",
            "HitAir2HitDrop"
          ],
          "DLAOMOCMANL": [
            "DoSkill",
            "BeHit"
          ],
          "JHAJFOOGLBA": true
        },
        "Struggle": {
          "$type": "IJOIMFMEGMM",
          "DLOHGBDFFGB": {
            "Struggle": []
          },
          "AJBLILDCLBO": [
            "BeHit",
            "HitAir2HitDrop"
          ],
          "DLAOMOCMANL": [
            "DoSkill"
          ]
        },
        "Struggle_Absorbed": {
          "$type": "IJOIMFMEGMM",
          "DLOHGBDFFGB": {
            "Struggle_Absorbed": [
              "Audio_HermitCrab_Special_01_Struggle_Absorbed"
            ]
          },
          "AJBLILDCLBO": [
            "BeHit",
            "HitAir2HitDrop"
          ],
          "DLAOMOCMANL": [
            "DoSkill"
          ],
          "OOPPLFOAOGN": true
        },
        "Die": {
          "$type": "IJOIMFMEGMM",
          "DLOHGBDFFGB": {
            "Die": [
              "Monster_FauneAbyssale_HermitCrab_Die"
            ]
          },
          "AJBLILDCLBO": [
            "BeHit",
            "DoSkill",
            "BeHit",
            "WeakTrigger"
          ]
        },
        "DieInWater": {
          "$type": "IJOIMFMEGMM",
          "DLOHGBDFFGB": {
            "DieInWater": [
              "Monster_FauneAbyssale_HermitCrab_DieInWater"
            ]
          },
          "AJBLILDCLBO": [
            "BeHit",
            "DoSkill",
            "BeHit",
            "WeakTrigger"
          ]
        },
        "Land": {
          "$type": "IJOIMFMEGMM",
          "DLOHGBDFFGB": {
            "Land": []
          },
          "PGKCBIHGAOC": true,
          "DLAOMOCMANL": [
            "BeHit",
            "DoSkill"
          ],
          "LIPMJPLGIKD": true,
          "CFGLPEBAODG": true,
          "OOPPLFOAOGN": true
        },
        "Launch": {
          "$type": "IJOIMFMEGMM",
          "DLOHGBDFFGB": {
            "Launch": []
          },
          "PGKCBIHGAOC": true,
          "DLAOMOCMANL": [
            "BeHit",
            "DoSkill"
          ],
          "LIPMJPLGIKD": true,
          "CFGLPEBAODG": true,
          "OOPPLFOAOGN": true
        },
        "Personality1InWater": {
          "$type": "IJOIMFMEGMM",
          "DLOHGBDFFGB": {
            "Personality1InWater": [
              "Monster_FauneAbyssale_HermitCrab_Larva_Personality01_Water",
              "Audio_Monster_FauneAbyssale_HermitCrab_Larva_Personality1InWater"
            ]
          },
          "POLKCLOHPOO": true,
          "DLAOMOCMANL": [
            "BeHit",
            "DoSkill"
          ],
          "LIPMJPLGIKD": true
        },
        "Personality1": {
          "$type": "IJOIMFMEGMM",
          "DLOHGBDFFGB": {
            "Personality1": [
              "Monster_FauneAbyssale_HermitCrab_Larva_Personality01"
            ]
          },
          "POLKCLOHPOO": true,
          "DLAOMOCMANL": [
            "BeHit",
            "DoSkill"
          ],
          "LIPMJPLGIKD": true
        },
        "Personality2": {
          "$type": "IJOIMFMEGMM",
          "DLOHGBDFFGB": {
            "Personality2": [
              "Monster_FauneAbyssale_HermitCrab_Larva_Personality02",
              "Audio_Monster_FauneAbyssale_HermitCrab_Larva_Personality2"
            ]
          },
          "POLKCLOHPOO": true,
          "DLAOMOCMANL": [
            "BeHit",
            "DoSkill"
          ],
          "LIPMJPLGIKD": true
        },
        "Personality3": {
          "$type": "IJOIMFMEGMM",
          "DLOHGBDFFGB": {
            "Personality3": []
          },
          "POLKCLOHPOO": true,
          "DLAOMOCMANL": [
            "BeHit",
            "DoSkill"
          ],
          "LIPMJPLGIKD": true
        },
        "Personality4_BS": {
          "$type": "IJOIMFMEGMM",
          "DLOHGBDFFGB": {
            "Personality4_BS": [
              "Monster_FauneAbyssale_HermitCrab_Larva_Personality01_Water"
            ]
          },
          "POLKCLOHPOO": true,
          "DLAOMOCMANL": [
            "BeHit",
            "DoSkill"
          ],
          "LIPMJPLGIKD": true
        },
        "Personality4_Loop": {
          "$type": "IJOIMFMEGMM",
          "DLOHGBDFFGB": {
            "Personality4_Loop": []
          },
          "POLKCLOHPOO": true,
          "DLAOMOCMANL": [
            "BeHit",
            "DoSkill"
          ]
        },
        "Personality4_AS": {
          "$type": "IJOIMFMEGMM",
          "DLOHGBDFFGB": {
            "Personality4_AS": []
          },
          "POLKCLOHPOO": true,
          "DLAOMOCMANL": [
            "BeHit",
            "DoSkill"
          ],
          "LIPMJPLGIKD": true
        },
        "Personality5_BS": {
          "$type": "IJOIMFMEGMM",
          "DLOHGBDFFGB": {
            "Personality5_BS": [
              "Monster_FauneAbyssale_HermitCrab_Larva_Personality01"
            ]
          },
          "POLKCLOHPOO": true,
          "DLAOMOCMANL": [
            "BeHit",
            "DoSkill"
          ],
          "LIPMJPLGIKD": true
        },
        "Personality5_Loop": {
          "$type": "IJOIMFMEGMM",
          "DLOHGBDFFGB": {
            "Personality5_Loop": []
          },
          "POLKCLOHPOO": true,
          "DLAOMOCMANL": [
            "BeHit",
            "DoSkill"
          ]
        },
        "Personality5_AS": {
          "$type": "IJOIMFMEGMM",
          "DLOHGBDFFGB": {
            "Personality5_AS": []
          },
          "POLKCLOHPOO": true,
          "DLAOMOCMANL": [
            "BeHit",
            "DoSkill"
          ],
          "LIPMJPLGIKD": true
        }
      }
    }
  },
  "billboard": {
    "$type": "PAOBAEKGGBC",
    "attachPoint": "BillboardAttach",
    "offset": {
      "y": 0.5
    },
    "LOMMBJLKPHE": 1.0,
    "FLJJGOKEPDN": true
  },
  "initialPoses": {
    "Default": {
      "initialPoseID": 11,
      "initialPoseParams": {
        "intParams": {
          "SpacialState": "1",
          "FreeState": "1"
        }
      }
    },
    "LandInWater": {
      "initialPoseID": 1,
      "initialPoseParams": {
        "intParams": {
          "SpacialState": "0",
          "FreeState": "1"
        }
      }
    },
    "MuteOnFloorInWater": {
      "initialPoseID": 2,
      "initialPoseParams": {
        "intParams": {
          "SpacialState": "0",
          "FreeState": "2"
        }
      }
    },
    "MuteInWater": {
      "initialPoseID": 12,
      "initialPoseParams": {
        "intParams": {
          "SpacialState": "1",
          "FreeState": "2"
        }
      }
    },
    "MuteShellOnFloorLandInWater": {
      "initialPoseID": 3,
      "initialPoseParams": {
        "intParams": {
          "SpacialState": "0",
          "FreeState": "3"
        }
      }
    },
    "MuteShellOnFloorInWater": {
      "initialPoseID": 13,
      "initialPoseParams": {
        "intParams": {
          "SpacialState": "1",
          "FreeState": "3"
        }
      }
    },
    "LandInWaterInShell": {
      "initialPoseID": 31,
      "initialPoseParams": {
        "intParams": {
          "SpacialState": "0",
          "FreeState": "4"
        }
      }
    },
    "InWaterInShell": {
      "initialPoseID": 51,
      "initialPoseParams": {
        "intParams": {
          "SpacialState": "1",
          "FreeState": "4"
        }
      }
    }
  },
  "aibeta": {
    "enable": true,
    "moveSetting": {
      "moveCategory": "DiveSeafloorLandAmphibious",
      "useToTheMoon": true,
      "navMeshAgentName": "Undead01",
      "almostReachedDistanceWalk": 2.0,
      "almostReachedDistanceRun": 2.0
    },
    "sensing": {
      "settings": {
        "DefaultSetting": {
          "viewRange": 0.0,
          "hearAttractionRange": 0.0,
          "feelRange": 0.0
        }
      },
      "templates": {
        "DefaultTemplate": {
          "DefaultPoses": "DefaultSetting"
        }
      }
    },
    "neurons": {
      "DefaultSetting": []
    },
    "threat": {
      "clearThreatByLostPath": true,
      "clearThreatTimerByDistance": 0.0,
      "clearThreatTimerByLostPath": 0.0,
      "threatBroadcastRange": 0.0,
      "resistTauntLevel": "Monster_TauntLevel_6",
      "JGFOPCOIJOI": ""
    },
    "defendArea": {
      "defendRange": 20.0
    },
    "fly": {
      "enable": true,
      "JBBEJGNPNDL": [
        11,
        12,
        13,
        51,
        301,
        303,
        901,
        902,
        903
      ]
    },
    "skills": {
      "302": {
        "name": "Launch2",
        "skillType": "Free",
        "priority": 3,
        "canUseCombatSkillCondition": true,
        "castCondition": {
          "pose": [
            1,
            3
          ],
          "SkillAnchorRangeMin": -1.0,
          "HMELCPIMADB": -1.0,
          "TargetSkillAnchorRangeMin": 2.0
        },
        "cd": 15.0,
        "cdUpperRange": 2.0,
        "initialCD": 10.0,
        "publicCDGroup": "",
        "HGAMDGAEIGO": "",
        "stateIDs": [
          "Launch"
        ],
        "flagTargetReachable": "10",
        "flagSelfOnTemplateCollider": "01",
        "flagSelfInZone": "10",
        "flagTargetInZone": "11"
      },
      "312": {
        "name": "Land2",
        "skillType": "Free",
        "priority": 2,
        "canUseCombatSkillCondition": true,
        "castCondition": {
          "pose": [
            11,
            13
          ],
          "pickRangeByRaycast": [
            {
              "min": 0.25,
              "max": 1.2699999809265137,
              "raycastType": "DownToGroundOnlyInWater"
            }
          ],
          "SkillAnchorRangeMin": -1.0,
          "HMELCPIMADB": -1.0
        },
        "cd": 10.0,
        "cdUpperRange": 2.0,
        "initialCD": 10.0,
        "publicCDGroup": "",
        "HGAMDGAEIGO": "",
        "stateIDs": [
          "Land"
        ],
        "flagTargetReachable": "11",
        "flagSelfOnTemplateCollider": "11",
        "flagSelfInZone": "11",
        "flagTargetInZone": "11"
      },
      "101": {
        "name": "Personality1InWater",
        "skillType": "Free",
        "priority": 2,
        "castCondition": {
          "pose": [
            1
          ]
        },
        "cd": 15.0,
        "cdUpperRange": 2.0,
        "initialCD": 5.0,
        "publicCDGroup": "",
        "HGAMDGAEIGO": "",
        "stateIDs": [
          "Personality1InWater"
        ],
        "flagTargetReachable": "10",
        "flagSelfOnTemplateCollider": "01",
        "flagSelfInZone": "10",
        "flagTargetInZone": "11"
      },
      "102": {
        "name": "Personality1",
        "skillType": "Free",
        "priority": 2,
        "castCondition": {
          "pose": [
            21
          ]
        },
        "cd": 15.0,
        "cdUpperRange": 2.0,
        "initialCD": 5.0,
        "publicCDGroup": "",
        "HGAMDGAEIGO": "",
        "stateIDs": [
          "Personality1"
        ],
        "flagTargetReachable": "10",
        "flagSelfOnTemplateCollider": "01",
        "flagSelfInZone": "10",
        "flagTargetInZone": "11"
      },
      "111": {
        "name": "Personality2",
        "skillType": "Free",
        "priority": 2,
        "canUseCombatSkillCondition": true,
        "castCondition": {
          "pose": [
            11,
            13
          ],
          "pickRangeByRaycast": [
            {
              "min": 0.25,
              "max": -1.0,
              "raycastType": "DownToGroundOnlyInWater"
            }
          ],
          "SkillAnchorRangeMin": -1.0,
          "HMELCPIMADB": -1.0,
          "TargetSkillAnchorRangeMin": 2.0
        },
        "cd": 10.0,
        "cdUpperRange": 2.0,
        "initialCD": 5.0,
        "publicCDGroup": "",
        "HGAMDGAEIGO": "",
        "stateIDs": [
          "Personality2"
        ],
        "flagTargetReachable": "11",
        "flagSelfOnTemplateCollider": "11",
        "flagSelfInZone": "11",
        "flagTargetInZone": "11"
      },
      "121": {
        "name": "Personality3",
        "skillType": "Free",
        "priority": 2,
        "castCondition": {
          "pose": [
            1,
            21,
            3,
            23
          ]
        },
        "cd": 15.0,
        "cdUpperRange": 2.0,
        "initialCD": 5.0,
        "publicCDGroup": "",
        "HGAMDGAEIGO": "",
        "stateIDs": [
          "Personality3"
        ],
        "flagTargetReachable": "10",
        "flagSelfOnTemplateCollider": "01",
        "flagSelfInZone": "10",
        "flagTargetInZone": "11"
      },
      "131": {
        "name": "Personality4",
        "skillType": "Free",
        "priority": 2,
        "castCondition": {
          "pose": [
            31
          ]
        },
        "cd": 10.0,
        "cdUpperRange": 2.0,
        "publicCDGroup": "",
        "HGAMDGAEIGO": "",
        "stateIDs": [
          "Personality4_BS",
          "Personality4_Loop",
          "Personality4_AS"
        ],
        "flagTargetReachable": "10",
        "flagSelfOnTemplateCollider": "01",
        "flagSelfInZone": "10",
        "flagTargetInZone": "11"
      },
      "132": {
        "name": "Personality5",
        "skillType": "Free",
        "priority": 2,
        "castCondition": {
          "pose": [
            41
          ]
        },
        "cd": 10.0,
        "cdUpperRange": 2.0,
        "publicCDGroup": "",
        "HGAMDGAEIGO": "",
        "stateIDs": [
          "Personality5_BS",
          "Personality5_Loop",
          "Personality5_AS"
        ],
        "flagTargetReachable": "10",
        "flagSelfOnTemplateCollider": "01",
        "flagSelfInZone": "10",
        "flagTargetInZone": "11"
      }
    },
    "skillGCD": 3.5,
    "spacialWanderTactic": {
      "Temp1": {
        "PCOJGAMKDJG": 1.5,
        "NDEDMGDLDBA": 5.0,
        "DNBBFMBIOLL": 5.0,
        "GNPDKLBKICL": 5.0
      },
      "Temp2": {
        "PCOJGAMKDJG": 3.0,
        "NDEDMGDLDBA": 5.0,
        "DNBBFMBIOLL": 5.0,
        "GNPDKLBKICL": 5.0
      }
    },
    "combatFixedMoveTactic": [
      {
        "$type": "CMCHFECOPPI",
        "LMMKNFEMOMG": {
          "DCEODHLDKCJ": 2.0,
          "GAHPENGCPFA": 2.0,
          "JOCGOKPMCKI": "Auto",
          "JOCOJHEICNA": "Temp1",
          "DBIELIMGBMC": ""
        }
      },
      {
        "$type": "ADPPBLEBNLM",
        "LMMKNFEMOMG": {
          "KIHPEPHJMOG": 1,
          "JOCOJHEICNA": "Temp1",
          "DBIELIMGBMC": "",
          "JOCGOKPMCKI": "Auto"
        }
      },
      {
        "$type": "KDGMPAMMMJG",
        "enable": true,
        "FJANPNOAAFK": {
          "pose": [
            2,
            12,
            22
          ]
        },
        "LMMKNFEMOMG": {
          "KIHPEPHJMOG": 1,
          "JOCGOKPMCKI": "Auto",
          "JOCOJHEICNA": "Temp1",
          "DBIELIMGBMC": ""
        }
      },
      {
        "$type": "KMHBGMELMKD",
        "enable": true,
        "LMMKNFEMOMG": {
          "GEAICNICJAJ": 5.0,
          "JOCGOKPMCKI": "Auto",
          "JOCOJHEICNA": "Temp2",
          "DBIELIMGBMC": ""
        }
      },
      {
        "$type": "EONBNFNCMNG",
        "LMMKNFEMOMG": {
          "KIHPEPHJMOG": 1,
          "IBKLDKBINDG": true,
          "JOCOJHEICNA": "Temp1",
          "DBIELIMGBMC": ""
        }
      },
      {
        "$type": "JICKAIEGMCB",
        "enable": true,
        "FJANPNOAAFK": {
          "pose": [
            11,
            13,
            51
          ]
        },
        "LMMKNFEMOMG": {
          "KIHPEPHJMOG": 1,
          "CBIMEHHAGOA": {
            "CCHBGMMLKPI": 0.10000000149011612,
            "KEFGIOIFNEO": 3.5,
            "HMOAPLCPFOB": 7.5,
            "ALHLDKBBFON": 2.0,
            "JPDHFLJJOPA": 5.0,
            "LHDCEKHMLPD": 3.0,
            "BCLEGFPPNIG": 7.0,
            "PMHKNMGNLFB": 3.0,
            "CDGJBKJIKLO": 7.0,
            "CBNDNHHJOBI": 0.0,
            "HDEOOHOCEOM": 1.0
          },
          "GEAICNICJAJ": 2.0,
          "FAPJEBILPIF": 10.0,
          "JIFJFPJANHO": 0.20000000298023224,
          "CBKHBGCPFBG": 0.10000000149011612,
          "JOCOJHEICNA": "Temp1",
          "DBIELIMGBMC": "",
          "PPKJCDNJDJB": 1.5,
          "POKDCEGEACA": 3.0,
          "FCAIKJKJBCE": 1.0,
          "BPAKHJMOEEP": 1.5,
          "HAHLNLLKDCN": 0.5,
          "EOMGAGEBIMI": 0.33000001311302185,
          "LEPFNGCFDGC": -0.5,
          "LDEIFOFFKME": 0.5,
          "LFIPFPKJDKM": 0.6600000262260437
        }
      },
      {
        "$type": "GGKADEIBMLG",
        "enable": true,
        "FJANPNOAAFK": {
          "pose": [
            1,
            21,
            3,
            23
          ]
        },
        "LMMKNFEMOMG": {
          "GEAICNICJAJ": 2.0,
          "JIFJFPJANHO": 3.0,
          "CBKHBGCPFBG": 1.5,
          "EKDHNAGGGAE": 10.0,
          "BFEJAKFKKFP": 2.75,
          "KOAMKCEFJED": 4.5,
          "JOCOJHEICNA": ""
        }
      }
    ]
  },
  "inputKeys": [
    {
      "keyID": 101,
      "inputKeyCode": 257,
      "abilityName": ""
    },
    {
      "keyID": 111,
      "inputKeyCode": 258,
      "abilityName": ""
    },
    {
      "keyID": 121,
      "inputKeyCode": 259,
      "abilityName": ""
    },
    {
      "keyID": 201,
      "inputKeyCode": 260,
      "abilityName": ""
    },
    {
      "keyID": 301,
      "inputKeyCode": 261,
      "abilityName": ""
    },
    {
      "keyID": 311,
      "inputKeyCode": 262,
      "abilityName": ""
    },
    {
      "keyID": 1,
      "inputKeyCode": 263,
      "abilityName": ""
    }
  ],
  "move": {
    "$type": "IIGPJJNGCLE",
    "GNNEDIACIKG": [
      {
        "MEENFDAGFIO": 5.0,
        "raycastType": "DownToGroundOnlyInWater",
        "ANCIIKCNIJI": ""
      }
    ],
    "LBMLCBFLOII": true,
    "MIPNOGBEANL": "FourDirection",
    "IJMIGIDACLP": "AirBlend",
    "EKMHGNLHCNM": 2.0,
    "OMMMNBNJHAI": true,
    "FACNOEFNHIB": "RootNode",
    "NEPOBLEPLEG": 30.0,
    "CFDFNCLFFOG": true
  },
  "audio": {
    "KEEAIACIJBN": "",
    "animAudio": {
      "onTransitionIn": [
        {
          "currentStateName": "WalkForwardInWater",
          "audioEvent": {
            "text": "Play_Sfx_Monster_FauneAbyssale_HermitCrab_Mature_WalkForwardSeaBed_LP"
          },
          "otherStateNames": [
            "WalkForwardInWater"
          ],
          "usage": "Except"
        },
        {
          "currentStateName": "WalkBackInWater",
          "audioEvent": {
            "text": "Play_Sfx_Monster_FauneAbyssale_HermitCrab_Mature_WalkForwardSeaBed_LP"
          },
          "otherStateNames": [
            "WalkBackInWater"
          ],
          "usage": "Except"
        },
        {
          "currentStateName": "WalkLeftInWater",
          "audioEvent": {
            "text": "Play_Sfx_Monster_FauneAbyssale_HermitCrab_Mature_WalkForwardSeaBed_LP"
          },
          "otherStateNames": [
            "WalkLeftInWater"
          ],
          "usage": "Except"
        },
        {
          "currentStateName": "WalkRightInWater",
          "audioEvent": {
            "text": "Play_Sfx_Monster_FauneAbyssale_HermitCrab_Mature_WalkForwardSeaBed_LP"
          },
          "otherStateNames": [
            "WalkRightInWater"
          ],
          "usage": "Except"
        },
        {
          "currentStateName": "FlyInWater",
          "audioEvent": {
            "text": "Play_Sfx_HermitCrab_Special_FlyInWater_LP"
          },
          "otherStateNames": [
            "FlyInWater"
          ],
          "usage": "Except"
        }
      ],
      "onTransitionOut": [
        {
          "currentStateName": "WalkForwardInWater",
          "audioEvent": {
            "text": "Stop_Sfx_Monster_FauneAbyssale_HermitCrab_Mature_WalkForwardSeaBed_LP"
          },
          "otherStateNames": [
            "WalkForwardInWater"
          ],
          "usage": "Except"
        },
        {
          "currentStateName": "WalkBackInWater",
          "audioEvent": {
            "text": "Stop_Sfx_Monster_FauneAbyssale_HermitCrab_Mature_WalkForwardSeaBed_LP"
          },
          "otherStateNames": [
            "WalkBackInWater"
          ],
          "usage": "Except"
        },
        {
          "currentStateName": "WalkLeftInWater",
          "audioEvent": {
            "text": "Stop_Sfx_Monster_FauneAbyssale_HermitCrab_Mature_WalkForwardSeaBed_LP"
          },
          "otherStateNames": [
            "WalkLeftInWater"
          ],
          "usage": "Except"
        },
        {
          "currentStateName": "WalkRightInWater",
          "audioEvent": {
            "text": "Stop_Sfx_Monster_FauneAbyssale_HermitCrab_Mature_WalkForwardSeaBed_LP"
          },
          "otherStateNames": [
            "WalkRightInWater"
          ],
          "usage": "Except"
        },
        {
          "currentStateName": "FlyInWater",
          "audioEvent": {
            "text": "Stop_Sfx_HermitCrab_Special_FlyInWater_LP_01"
          },
          "otherStateNames": [
            "FlyInWater"
          ],
          "usage": "Except"
        }
      ]
    }
  }
}