{
  "behaviours": [
    {
      "name": "Character_Mona_Q_Golden",
      "onStart": [
        {
          "lastTime": 0.699999988079071,
          "actionGroups": [
            {
              "actions": [
                {
                  "$type": "PIIBMCGHDNL",
                  "targetSelector": {
                    "MLDBFKEGPEF": "Actor"
                  }
                },
                {
                  "$type": "HKAOFGLMNIL",
                  "targetSelector": {
                    "MLDBFKEGPEF": "Actor"
                  }
                },
                {
                  "$type": "OJOIGDLGMAC",
                  "targetSelector": {
                    "MLDBFKEGPEF": "Actor"
                  }
                },
                {
                  "$type": "BAAFCGGIEPP",
                  "targetSelector": {
                    "MLDBFKEGPEF": "Actor"
                  },
                  "effectName": "Eff_Gcg_Avatar_Mona_ElementalBurst_Spine",
                  "doWriteStencil": true,
                  "followSpineName": "",
                  "followSpineBoneName": "",
                  "bornRotate": {
                    "$type": "LKOJODICBKI"
                  }
                }
              ]
            }
          ]
        },
        {
          "lastTime": 0.4000000059604645,
          "actionGroups": [
            {
              "actions": [
                {
                  "$type": "BAAFCGGIEPP",
                  "targetSelector": {
                    "MLDBFKEGPEF": "MainTarget"
                  },
                  "effectName": "Eff_Gcg_Avatar_Mona_ElementalBurst_Hit",
                  "bornOffset": {
                    "y": 0.10000000149011612
                  },
                  "followSpineName": "",
                  "followSpineBoneName": "",
                  "bornRotate": {
                    "$type": "LKOJODICBKI"
                  }
                }
              ]
            }
          ]
        },
        {
          "lastTime": 0.05000000074505806,
          "actionGroups": [
            {
              "actions": [
                {
                  "$type": "CBKFPEIDMHH",
                  "targetSelector": {
                    "MLDBFKEGPEF": "MainTarget"
                  }
                },
                {
                  "$type": "BMGPEHMLOBG",
                  "targetSelector": {
                    "MLDBFKEGPEF": "MainTarget"
                  },
                  "script": "Common_ShakeScreen_Test_Q"
                }
              ]
            }
          ]
        },
        {
          "lastTime": 1.850000023841858,
          "actionGroups": [
            {
              "actions": [
                {
                  "$type": "BAAFCGGIEPP",
                  "targetSelector": {
                    "MLDBFKEGPEF": "Actor"
                  },
                  "effectName": "Eff_Gcg_Avatar_Mona_ElementalBurst_BS",
                  "bornOffset": {
                    "y": 1.2000000476837158
                  },
                  "doWriteStencil": true,
                  "followSpineName": "",
                  "followSpineBoneName": "",
                  "bornRotate": {
                    "$type": "LKOJODICBKI"
                  }
                }
              ]
            }
          ]
        },
        {
          "lastTime": 0.029999999329447746,
          "actionGroups": [
            {
              "actions": [
                {
                  "$type": "BAAFCGGIEPP",
                  "targetSelector": {
                    "MLDBFKEGPEF": "Actor"
                  },
                  "effectName": "Eff_Gcg_Common_Spine_ReturnToLoop",
                  "doWriteStencil": true,
                  "followSpineName": "",
                  "followSpineBoneName": "",
                  "bornRotate": {
                    "$type": "LKOJODICBKI"
                  }
                }
              ]
            }
          ]
        },
        {
          "actionGroups": [
            {
              "actions": [
                {
                  "$type": "PIIBMCGHDNL",
                  "targetSelector": {
                    "MLDBFKEGPEF": "Actor"
                  },
                  "isOpen": true
                },
                {
                  "$type": "HKAOFGLMNIL",
                  "targetSelector": {
                    "MLDBFKEGPEF": "Actor"
                  },
                  "isOpen": true
                }
              ]
            }
          ]
        }
      ]
    }
  ]
}