{
  "behaviours": [
    {
      "name": "Monster_Muscleman_Q_Golden",
      "onStart": [
        {
          "lastTime": 2.75,
          "actionGroups": [
            {
              "actions": [
                {
                  "$type": "PIIBMCGHDNL",
                  "targetSelector": {
                    "MLDBFKEGPEF": "Actor"
                  }
                },
                {
                  "$type": "HKAOFGLMNIL",
                  "targetSelector": {
                    "MLDBFKEGPEF": "Actor"
                  }
                },
                {
                  "$type": "OJOIGDLGMAC",
                  "targetSelector": {
                    "MLDBFKEGPEF": "Actor"
                  }
                },
                {
                  "$type": "BAAFCGGIEPP",
                  "targetSelector": {
                    "MLDBFKEGPEF": "Actor"
                  },
                  "effectName": "Eff_Gcg_Monster_Muscleman_ElementalBurst_Spine",
                  "doWriteStencil": true,
                  "followSpineName": "",
                  "followSpineBoneName": "",
                  "bornRotate": {
                    "$type": "LKOJODICBKI"
                  }
                }
              ]
            }
          ]
        },
        {
          "actionGroups": [
            {
              "actions": [
                {
                  "$type": "BAAFCGGIEPP",
                  "targetSelector": {
                    "MLDBFKEGPEF": "Actor"
                  },
                  "effectName": "Eff_Gcg_Monster_Muscleman_ElementalBurst_BS",
                  "followSpineName": "",
                  "followSpineBoneName": "",
                  "bornRotate": {
                    "$type": "LKOJODICBKI"
                  }
                }
              ]
            }
          ]
        },
        {
          "lastTime": 2.5199999809265137,
          "actionGroups": [
            {
              "actions": [
                {
                  "$type": "JAHBMNMPJOI",
                  "effectName": "Eff_Gcg_Monster_Muscleman_ElementalBurst",
                  "isLoopEffect": true,
                  "isAttack": true,
                  "bornTargetSelector": {
                    "MLDBFKEGPEF": "Actor"
                  },
                  "moveTargetSelector": {
                    "MLDBFKEGPEF": "MainTarget"
                  },
                  "bornRotate": {
                    "$type": "OGABKAJHCFD",
                    "targetSelector": {
                      "MLDBFKEGPEF": "MainTarget"
                    }
                  },
                  "moveScript": "Eff_Gcg_Motion_Avatar_Muscleman_ElementBurst",
                  "oppoMoveScript": "Eff_Gcg_Motion_Avatar_Muscleman_ElementBurst",
                  "events": [
                    {
                      "$type": "ALMLDDFKDCD",
                      "triggerPoint": "OnHit"
                    }
                  ]
                }
              ]
            }
          ]
        },
        {
          "lastTime": 0.029999999329447746,
          "actionGroups": [
            {
              "actions": [
                {
                  "$type": "BAAFCGGIEPP",
                  "targetSelector": {
                    "MLDBFKEGPEF": "Actor"
                  },
                  "effectName": "Eff_Gcg_Common_Spine_ReturnToLoop",
                  "doWriteStencil": true,
                  "followSpineName": "",
                  "followSpineBoneName": "",
                  "bornRotate": {
                    "$type": "LKOJODICBKI"
                  }
                }
              ]
            }
          ]
        },
        {
          "actionGroups": [
            {
              "actions": [
                {
                  "$type": "PIIBMCGHDNL",
                  "targetSelector": {
                    "MLDBFKEGPEF": "Actor"
                  },
                  "isOpen": true
                },
                {
                  "$type": "HKAOFGLMNIL",
                  "targetSelector": {
                    "MLDBFKEGPEF": "Actor"
                  },
                  "isOpen": true
                }
              ]
            }
          ]
        }
      ],
      "onHitLanded": [
        {
          "actionGroups": [
            {
              "actions": [
                {
                  "$type": "BAAFCGGIEPP",
                  "targetSelector": {
                    "MLDBFKEGPEF": "ContextTarget"
                  },
                  "effectName": "Eff_Gcg_Monster_Muscleman_ElementalBurst_Hit",
                  "followSpineName": "",
                  "followSpineBoneName": "",
                  "bornRotate": {
                    "$type": "OGABKAJHCFD",
                    "targetSelector": {
                      "MLDBFKEGPEF": "Actor"
                    }
                  }
                },
                {
                  "$type": "BMGPEHMLOBG",
                  "targetSelector": {
                    "MLDBFKEGPEF": "ContextTarget"
                  },
                  "script": "Common_ShakeScreen_Test_Q"
                }
              ]
            }
          ]
        }
      ]
    }
  ]
}