{
  "behaviours": [
    {
      "name": "Monster_Bruterock_Q_Golden",
      "onStart": [
        {
          "lastTime": 1.5,
          "actionGroups": [
            {
              "actions": [
                {
                  "$type": "PIIBMCGHDNL",
                  "targetSelector": {
                    "MLDBFKEGPEF": "Actor"
                  }
                },
                {
                  "$type": "HKAOFGLMNIL",
                  "targetSelector": {
                    "MLDBFKEGPEF": "Actor"
                  }
                },
                {
                  "$type": "OJOIGDLGMAC",
                  "targetSelector": {
                    "MLDBFKEGPEF": "Actor"
                  }
                },
                {
                  "$type": "BAAFCGGIEPP",
                  "targetSelector": {
                    "MLDBFKEGPEF": "Actor"
                  },
                  "effectName": "Eff_Gcg_Monster_Bruterock_ElementalBurst_Spine",
                  "doWriteStencil": true,
                  "followSpineName": "",
                  "followSpineBoneName": "",
                  "bornRotate": {
                    "$type": "LKOJODICBKI"
                  }
                }
              ]
            }
          ]
        },
        {
          "lastTime": 0.15000000596046448,
          "actionGroups": [
            {
              "actions": [
                {
                  "$type": "BAAFCGGIEPP",
                  "targetSelector": {
                    "MLDBFKEGPEF": "Actor"
                  },
                  "effectName": "Eff_Gcg_Monster_Bruterock_ElementalBurst_BS",
                  "doWriteStencil": true,
                  "followSpineName": "",
                  "followSpineBoneName": "",
                  "bornRotate": {
                    "$type": "LKOJODICBKI"
                  }
                }
              ]
            }
          ]
        },
        {
          "lastTime": 0.12999999523162842,
          "actionGroups": [
            {
              "actions": [
                {
                  "$type": "BAAFCGGIEPP",
                  "targetSelector": {
                    "MLDBFKEGPEF": "Actor"
                  },
                  "effectName": "Eff_Gcg_Monster_Bruterock_ElementalBurst",
                  "doWriteStencil": true,
                  "followSpineName": "",
                  "followSpineBoneName": "",
                  "bornRotate": {
                    "$type": "OGABKAJHCFD",
                    "targetSelector": {
                      "MLDBFKEGPEF": "MainTarget"
                    },
                    "percentageOffset": 0.3330000042915344
                  }
                }
              ]
            }
          ]
        },
        {
          "lastTime": 0.10000000149011612,
          "actionGroups": [
            {
              "actions": [
                {
                  "$type": "BAAFCGGIEPP",
                  "targetSelector": {
                    "MLDBFKEGPEF": "Actor"
                  },
                  "effectName": "Eff_Gcg_Monster_Bruterock_ElementalBurst",
                  "doWriteStencil": true,
                  "followSpineName": "",
                  "followSpineBoneName": "",
                  "bornRotate": {
                    "$type": "OGABKAJHCFD",
                    "targetSelector": {
                      "MLDBFKEGPEF": "MainTarget"
                    },
                    "percentageOffset": 0.6660000085830688
                  }
                }
              ]
            }
          ]
        },
        {
          "lastTime": 0.8199999928474426,
          "actionGroups": [
            {
              "actions": [
                {
                  "$type": "BAAFCGGIEPP",
                  "targetSelector": {
                    "MLDBFKEGPEF": "MainTarget"
                  },
                  "effectName": "Eff_Gcg_Monster_Bruterock_ElementalBurst_Hit",
                  "followSpineName": "",
                  "followSpineBoneName": "",
                  "bornRotate": {
                    "$type": "OGABKAJHCFD",
                    "targetSelector": {
                      "MLDBFKEGPEF": "Actor"
                    }
                  }
                },
                {
                  "$type": "CBKFPEIDMHH",
                  "targetSelector": {
                    "MLDBFKEGPEF": "MainTarget"
                  }
                },
                {
                  "$type": "BMGPEHMLOBG",
                  "targetSelector": {
                    "MLDBFKEGPEF": "MainTarget"
                  },
                  "script": "Common_ShakeScreen_Test_Q"
                },
                {
                  "$type": "DPEBLGLIMOM",
                  "moveScript": "GcgMotion_Hit04_03",
                  "oppoMoveScript": "",
                  "sourceSelector": {
                    "MLDBFKEGPEF": "MainTarget"
                  },
                  "targetSelector": {
                    "MLDBFKEGPEF": "Actor"
                  },
                  "resetCharPositionWhenFinish": true
                }
              ]
            }
          ]
        },
        {
          "lastTime": 0.029999999329447746,
          "actionGroups": [
            {
              "actions": [
                {
                  "$type": "BAAFCGGIEPP",
                  "targetSelector": {
                    "MLDBFKEGPEF": "Actor"
                  },
                  "effectName": "Eff_Gcg_Common_Spine_ReturnToLoop",
                  "doWriteStencil": true,
                  "followSpineName": "",
                  "followSpineBoneName": "",
                  "bornRotate": {
                    "$type": "LKOJODICBKI"
                  }
                }
              ]
            }
          ]
        },
        {
          "actionGroups": [
            {
              "actions": [
                {
                  "$type": "PIIBMCGHDNL",
                  "targetSelector": {
                    "MLDBFKEGPEF": "Actor"
                  },
                  "isOpen": true
                },
                {
                  "$type": "HKAOFGLMNIL",
                  "targetSelector": {
                    "MLDBFKEGPEF": "Actor"
                  },
                  "isOpen": true
                }
              ]
            }
          ]
        }
      ]
    }
  ]
}