{
  "behaviours": [
    {
      "name": "Character_Bennett_Q_Normal",
      "onStart": [
        {
          "lastTime": 0.44999998807907104,
          "actionGroups": [
            {
              "actions": [
                {
                  "$type": "HKAOFGLMNIL",
                  "targetSelector": {
                    "MLDBFKEGPEF": "Actor"
                  }
                },
                {
                  "$type": "BAAFCGGIEPP",
                  "targetSelector": {
                    "MLDBFKEGPEF": "Actor"
                  },
                  "effectName": "Eff_Gcg_Common_ElementalBurst_NormalCharge",
                  "followSpineName": "",
                  "followSpineBoneName": "",
                  "bornRotate": {
                    "$type": "LKOJODICBKI"
                  }
                }
              ]
            }
          ]
        },
        {
          "lastTime": 0.07000000029802322,
          "actionGroups": [
            {
              "actions": [
                {
                  "$type": "BAAFCGGIEPP",
                  "targetSelector": {
                    "MLDBFKEGPEF": "Actor"
                  },
                  "effectName": "Eff_Gcg_Avatar_Bennett_ElementalBurst_BS",
                  "followSpineName": "",
                  "followSpineBoneName": "",
                  "bornRotate": {
                    "$type": "LKOJODICBKI"
                  }
                },
                {
                  "$type": "GCFLDGEGDKH",
                  "targetSelector": {
                    "MLDBFKEGPEF": "Actor"
                  },
                  "eventName": {
                    "text": "Play_vfx_GCG_Avatar_Bennett_elementalBurst_BS_Normal"
                  }
                }
              ]
            }
          ]
        },
        {
          "lastTime": 0.10000000149011612,
          "actionGroups": [
            {
              "actions": [
                {
                  "$type": "BAAFCGGIEPP",
                  "targetSelector": {
                    "MLDBFKEGPEF": "MainTarget"
                  },
                  "effectName": "Eff_Gcg_Avatar_Bennett_ElementalBurst_Hit",
                  "bornOffset": {
                    "y": 0.4000000059604645
                  },
                  "followSpineName": "",
                  "followSpineBoneName": "",
                  "bornRotate": {
                    "$type": "LKOJODICBKI"
                  }
                }
              ]
            }
          ]
        },
        {
          "actionGroups": [
            {
              "actions": [
                {
                  "$type": "CBKFPEIDMHH",
                  "targetSelector": {
                    "MLDBFKEGPEF": "MainTarget"
                  }
                },
                {
                  "$type": "BMGPEHMLOBG",
                  "script": "Common_ShakeScreen_Test_E"
                }
              ]
            }
          ]
        }
      ],
      "onHitLanded": [
        {
          "lastTime": 0.5,
          "actionGroups": [
            {
              "actions": [
                {
                  "$type": "BMGPEHMLOBG",
                  "targetSelector": {
                    "MLDBFKEGPEF": "ContextTarget"
                  },
                  "script": "Common_ShakeScreen_Test_A"
                }
              ]
            }
          ]
        },
        {
          "actionGroups": [
            {
              "actions": [
                {
                  "$type": "HKAOFGLMNIL",
                  "targetSelector": {
                    "MLDBFKEGPEF": "Actor"
                  },
                  "isOpen": true
                }
              ]
            }
          ]
        }
      ]
    }
  ]
}