{
  "behaviours": [
    {
      "name": "Character_Kaeya_Q_Golden",
      "onStart": [
        {
          "lastTime": 0.6000000238418579,
          "actionGroups": [
            {
              "actions": [
                {
                  "$type": "PIIBMCGHDNL",
                  "targetSelector": {
                    "MLDBFKEGPEF": "Actor"
                  }
                },
                {
                  "$type": "HKAOFGLMNIL",
                  "targetSelector": {
                    "MLDBFKEGPEF": "Actor"
                  }
                },
                {
                  "$type": "OJOIGDLGMAC",
                  "targetSelector": {
                    "MLDBFKEGPEF": "Actor"
                  }
                },
                {
                  "$type": "BAAFCGGIEPP",
                  "targetSelector": {
                    "MLDBFKEGPEF": "Actor"
                  },
                  "effectName": "Eff_Gcg_Avatar_Kaeya_ElementalBurst_Spine",
                  "doWriteStencil": true,
                  "followSpineName": "",
                  "followSpineBoneName": "",
                  "bornRotate": {
                    "$type": "LKOJODICBKI"
                  }
                }
              ]
            }
          ]
        },
        {
          "lastTime": 1.8200000524520874,
          "actionGroups": [
            {
              "actions": [
                {
                  "$type": "BAAFCGGIEPP",
                  "targetSelector": {
                    "MLDBFKEGPEF": "Actor"
                  },
                  "effectName": "Eff_Gcg_Avatar_Kaeya_ElementalBurst_Spine_Coin",
                  "doWriteStencil": true,
                  "isFollowSpineBone": true,
                  "followSpineName": "Gcg_CardFace_Char_Avatar_Kaeya_Spine",
                  "followSpineBoneName": "EffectRoot_Coin",
                  "bornRotate": {
                    "$type": "LKOJODICBKI"
                  }
                }
              ]
            }
          ]
        },
        {
          "lastTime": 1.9800000190734863,
          "actionGroups": [
            {
              "actions": [
                {
                  "$type": "BAAFCGGIEPP",
                  "targetSelector": {
                    "MLDBFKEGPEF": "Actor"
                  },
                  "effectName": "Eff_Gcg_Avatar_Kaeya_ElementalBurst_BS",
                  "followSpineName": "",
                  "followSpineBoneName": "",
                  "bornRotate": {
                    "$type": "LKOJODICBKI"
                  }
                },
                {
                  "$type": "JAHBMNMPJOI",
                  "effectName": "Eff_Gcg_Avatar_Kaeya_ElementalBurst",
                  "isLoopEffect": true,
                  "isAttack": true,
                  "bornTargetSelector": {
                    "MLDBFKEGPEF": "Actor"
                  },
                  "moveTargetSelector": {
                    "MLDBFKEGPEF": "MainTarget"
                  },
                  "bornRotate": {
                    "$type": "OGABKAJHCFD",
                    "targetSelector": {
                      "MLDBFKEGPEF": "MainTarget"
                    }
                  },
                  "bornOffset": {
                    "z": -0.25
                  },
                  "moveScript": "Eff_Gcg_Motion_Avatar_Kaeya_ElementBurst",
                  "oppoMoveScript": "",
                  "events": [
                    {
                      "$type": "ALMLDDFKDCD",
                      "triggerPoint": "OnHit"
                    }
                  ]
                }
              ]
            }
          ]
        },
        {
          "lastTime": 0.029999999329447746,
          "actionGroups": [
            {
              "actions": [
                {
                  "$type": "BAAFCGGIEPP",
                  "targetSelector": {
                    "MLDBFKEGPEF": "Actor"
                  },
                  "effectName": "Eff_Gcg_Common_Spine_ReturnToLoop",
                  "doWriteStencil": true,
                  "followSpineName": "",
                  "followSpineBoneName": "",
                  "bornRotate": {
                    "$type": "LKOJODICBKI"
                  }
                }
              ]
            }
          ]
        },
        {
          "actionGroups": [
            {
              "actions": [
                {
                  "$type": "PIIBMCGHDNL",
                  "targetSelector": {
                    "MLDBFKEGPEF": "Actor"
                  },
                  "isOpen": true
                },
                {
                  "$type": "HKAOFGLMNIL",
                  "targetSelector": {
                    "MLDBFKEGPEF": "Actor"
                  },
                  "isOpen": true
                }
              ]
            }
          ]
        }
      ],
      "onHitLanded": [
        {
          "actionGroups": [
            {
              "actions": [
                {
                  "$type": "BAAFCGGIEPP",
                  "targetSelector": {
                    "MLDBFKEGPEF": "ContextTarget"
                  },
                  "effectName": "Eff_Gcg_Avatar_Kaeya_ElementalBurst_Hit",
                  "followSpineName": "",
                  "followSpineBoneName": "",
                  "bornRotate": {
                    "$type": "OGABKAJHCFD",
                    "targetSelector": {
                      "MLDBFKEGPEF": "Actor"
                    }
                  }
                },
                {
                  "$type": "BMGPEHMLOBG",
                  "targetSelector": {
                    "MLDBFKEGPEF": "ContextTarget"
                  },
                  "script": "Common_ShakeScreen_Test_A"
                }
              ]
            }
          ]
        }
      ]
    }
  ]
}