{
  "behaviours": [
    {
      "name": "Monster_Effigyice_Q_Normal",
      "onStart": [
        {
          "lastTime": 0.44999998807907104,
          "actionGroups": [
            {
              "actions": [
                {
                  "$type": "HKAOFGLMNIL",
                  "targetSelector": {
                    "MLDBFKEGPEF": "Actor"
                  }
                },
                {
                  "$type": "BAAFCGGIEPP",
                  "targetSelector": {
                    "MLDBFKEGPEF": "Actor"
                  },
                  "effectName": "Eff_Gcg_Common_ElementalBurst_NormalCharge",
                  "followSpineName": "",
                  "followSpineBoneName": "",
                  "bornRotate": {
                    "$type": "LKOJODICBKI"
                  }
                }
              ]
            }
          ]
        },
        {
          "lastTime": 0.05000000074505806,
          "actionGroups": [
            {
              "actions": [
                {
                  "$type": "BAAFCGGIEPP",
                  "targetSelector": {
                    "MLDBFKEGPEF": "MainTarget"
                  },
                  "effectName": "Eff_Gcg_Monster_Effigyice_ElementalBurst_Hit",
                  "followSpineName": "",
                  "followSpineBoneName": "",
                  "bornRotate": {
                    "$type": "JJINBFEBDAN"
                  },
                  "bornOppositeGestureAdjust": "HorizontalAxisFlip"
                }
              ]
            }
          ]
        },
        {
          "lastTime": 1.149999976158142,
          "actionGroups": [
            {
              "actions": [
                {
                  "$type": "BAAFCGGIEPP",
                  "targetSelector": {
                    "MLDBFKEGPEF": "SubTarget"
                  },
                  "effectName": "Eff_Gcg_Monster_Effigyice_ElementalBurst_Hit_02",
                  "followSpineName": "",
                  "followSpineBoneName": "",
                  "bornRotate": {
                    "$type": "JJINBFEBDAN"
                  },
                  "bornOppositeGestureAdjust": "HorizontalAxisFlip"
                }
              ]
            }
          ]
        },
        {
          "actionGroups": [
            {
              "actions": [
                {
                  "$type": "CBKFPEIDMHH",
                  "targetSelector": {
                    "MLDBFKEGPEF": "AllTarget"
                  }
                },
                {
                  "$type": "BMGPEHMLOBG",
                  "targetSelector": {
                    "MLDBFKEGPEF": "MainTarget"
                  },
                  "script": "Common_ShakeScreen_Test_Q"
                }
              ]
            }
          ]
        },
        {
          "actionGroups": [
            {
              "actions": [
                {
                  "$type": "HKAOFGLMNIL",
                  "targetSelector": {
                    "MLDBFKEGPEF": "Actor"
                  },
                  "isOpen": true
                }
              ]
            }
          ]
        }
      ]
    },
    {
      "name": "Monster_Effigyice_Zhaohuanwu",
      "onStart": [
        {
          "actionGroups": [
            {
              "actions": [
                {
                  "$type": "JAHBMNMPJOI",
                  "effectName": "Eff_Gcg_Common_Gadget_Ice_Bullet",
                  "isLoopEffect": true,
                  "isAttack": true,
                  "bornTargetSelector": {
                    "MLDBFKEGPEF": "Actor",
                    "includeNonCharacter": true
                  },
                  "moveTargetSelector": {
                    "MLDBFKEGPEF": "FirstTarget",
                    "campFilter": "ActorOppoCamp",
                    "tokenFilter": [
                      "GCG_TOKEN_HP"
                    ]
                  },
                  "bornRotate": {
                    "$type": "OGABKAJHCFD",
                    "targetSelector": {
                      "MLDBFKEGPEF": "MainTarget"
                    }
                  },
                  "bornOffset": {
                    "y": 0.5
                  },
                  "moveScript": "Eff_Gcg_Motion_Common_Gadget_Bullet",
                  "oppoMoveScript": "",
                  "events": [
                    {
                      "$type": "ALMLDDFKDCD",
                      "triggerPoint": "OnHit"
                    }
                  ]
                }
              ]
            }
          ]
        }
      ],
      "onHitLanded": [
        {
          "actionGroups": [
            {
              "actions": [
                {
                  "$type": "BAAFCGGIEPP",
                  "targetSelector": {
                    "MLDBFKEGPEF": "ContextTarget"
                  },
                  "effectName": "Eff_Gcg_Common_Gadget_Ice_Hit",
                  "followSpineName": "",
                  "followSpineBoneName": "",
                  "bornRotate": {
                    "$type": "OGABKAJHCFD",
                    "targetSelector": {
                      "MLDBFKEGPEF": "Actor",
                      "includeNonCharacter": true
                    }
                  }
                },
                {
                  "$type": "GCFLDGEGDKH",
                  "targetSelector": {
                    "MLDBFKEGPEF": "ContextTarget"
                  },
                  "playImmediately": true,
                  "eventName": {
                    "text": "Play_vfx_GCG_common_gadget_electric_hit"
                  }
                }
              ]
            }
          ]
        },
        {
          "predict": {
            "$type": "IHCNJCCMJJP",
            "skillIDList": [
              101,
              102,
              103,
              104,
              105,
              1061,
              107,
              108,
              109,
              110,
              111,
              112,
              113,
              114,
              115,
              116,
              117
            ]
          },
          "actionGroups": [
            {
              "predict": {
                "$type": "IHCNJCCMJJP",
                "skillIDList": [
                  101
                ]
              },
              "actions": [
                {
                  "$type": "BAAFCGGIEPP",
                  "targetSelector": {
                    "MLDBFKEGPEF": "ContextTarget"
                  },
                  "effectName": "Eff_Gcg_Common_Reaction_Melt",
                  "followSpineName": "",
                  "followSpineBoneName": "",
                  "bornRotate": {
                    "$type": "LKOJODICBKI"
                  }
                }
              ]
            },
            {
              "predict": {
                "$type": "IHCNJCCMJJP",
                "skillIDList": [
                  102
                ]
              },
              "actions": [
                {
                  "$type": "BAAFCGGIEPP",
                  "targetSelector": {
                    "MLDBFKEGPEF": "ContextTarget"
                  },
                  "effectName": "Eff_Gcg_Common_Reaction_Steam",
                  "followSpineName": "",
                  "followSpineBoneName": "",
                  "bornRotate": {
                    "$type": "LKOJODICBKI"
                  }
                }
              ]
            },
            {
              "predict": {
                "$type": "IHCNJCCMJJP",
                "skillIDList": [
                  103
                ]
              },
              "actions": [
                {
                  "$type": "BAAFCGGIEPP",
                  "targetSelector": {
                    "MLDBFKEGPEF": "ContextTarget"
                  },
                  "effectName": "Eff_Gcg_Common_Reaction_Overload",
                  "followSpineName": "",
                  "followSpineBoneName": "",
                  "bornRotate": {
                    "$type": "LKOJODICBKI"
                  }
                }
              ]
            },
            {
              "predict": {
                "$type": "IHCNJCCMJJP",
                "skillIDList": [
                  104
                ]
              },
              "actions": [
                {
                  "$type": "BAAFCGGIEPP",
                  "targetSelector": {
                    "MLDBFKEGPEF": "ContextTarget"
                  },
                  "effectName": "Eff_Gcg_Common_Reaction_Superconductor",
                  "followSpineName": "",
                  "followSpineBoneName": "",
                  "bornRotate": {
                    "$type": "LKOJODICBKI"
                  }
                }
              ]
            },
            {
              "predict": {
                "$type": "IHCNJCCMJJP",
                "skillIDList": [
                  105
                ]
              },
              "actions": [
                {
                  "$type": "BAAFCGGIEPP",
                  "targetSelector": {
                    "MLDBFKEGPEF": "ContextTarget"
                  },
                  "effectName": "Eff_Gcg_Common_Reaction_StickElectric",
                  "followSpineName": "",
                  "followSpineBoneName": "",
                  "bornRotate": {
                    "$type": "LKOJODICBKI"
                  }
                }
              ]
            },
            {
              "predict": {
                "$type": "IHCNJCCMJJP",
                "skillIDList": [
                  1061
                ]
              },
              "actions": [
                {
                  "$type": "BAAFCGGIEPP",
                  "targetSelector": {
                    "MLDBFKEGPEF": "ContextTarget"
                  },
                  "effectName": "Eff_Gcg_Common_Reaction_BreakIce",
                  "followSpineName": "",
                  "followSpineBoneName": "",
                  "bornRotate": {
                    "$type": "LKOJODICBKI"
                  }
                }
              ]
            },
            {
              "predict": {
                "$type": "IHCNJCCMJJP",
                "skillIDList": [
                  108
                ]
              },
              "actions": [
                {
                  "$type": "BAAFCGGIEPP",
                  "targetSelector": {
                    "MLDBFKEGPEF": "ContextTarget"
                  },
                  "effectName": "Eff_Gcg_Common_Reaction_Swirl_Water",
                  "followSpineName": "",
                  "followSpineBoneName": "",
                  "bornRotate": {
                    "$type": "LKOJODICBKI"
                  }
                }
              ]
            },
            {
              "predict": {
                "$type": "IHCNJCCMJJP",
                "skillIDList": [
                  107
                ]
              },
              "actions": [
                {
                  "$type": "BAAFCGGIEPP",
                  "targetSelector": {
                    "MLDBFKEGPEF": "ContextTarget"
                  },
                  "effectName": "Eff_Gcg_Common_Reaction_Swirl_Ice",
                  "followSpineName": "",
                  "followSpineBoneName": "",
                  "bornRotate": {
                    "$type": "LKOJODICBKI"
                  }
                }
              ]
            },
            {
              "predict": {
                "$type": "IHCNJCCMJJP",
                "skillIDList": [
                  109
                ]
              },
              "actions": [
                {
                  "$type": "BAAFCGGIEPP",
                  "targetSelector": {
                    "MLDBFKEGPEF": "ContextTarget"
                  },
                  "effectName": "Eff_Gcg_Common_Reaction_Swirl_Fire",
                  "followSpineName": "",
                  "followSpineBoneName": "",
                  "bornRotate": {
                    "$type": "LKOJODICBKI"
                  }
                }
              ]
            },
            {
              "predict": {
                "$type": "IHCNJCCMJJP",
                "skillIDList": [
                  110
                ]
              },
              "actions": [
                {
                  "$type": "BAAFCGGIEPP",
                  "targetSelector": {
                    "MLDBFKEGPEF": "ContextTarget"
                  },
                  "effectName": "Eff_Gcg_Common_Reaction_Swirl_Electric",
                  "followSpineName": "",
                  "followSpineBoneName": "",
                  "bornRotate": {
                    "$type": "LKOJODICBKI"
                  }
                }
              ]
            },
            {
              "predict": {
                "$type": "IHCNJCCMJJP",
                "skillIDList": [
                  111,
                  112,
                  113,
                  114
                ]
              },
              "actions": [
                {
                  "$type": "BAAFCGGIEPP",
                  "targetSelector": {
                    "MLDBFKEGPEF": "ContextTarget"
                  },
                  "effectName": "Eff_Gcg_Common_Reaction_Crystal",
                  "followSpineName": "",
                  "followSpineBoneName": "",
                  "bornRotate": {
                    "$type": "LKOJODICBKI"
                  }
                }
              ]
            },
            {
              "predict": {
                "$type": "IHCNJCCMJJP",
                "skillIDList": [
                  115
                ]
              },
              "actions": [
                {
                  "$type": "BAAFCGGIEPP",
                  "targetSelector": {
                    "MLDBFKEGPEF": "ContextTarget"
                  },
                  "effectName": "Eff_Gcg_Common_Reaction_Burning_Grass",
                  "followSpineName": "",
                  "followSpineBoneName": "",
                  "bornRotate": {
                    "$type": "LKOJODICBKI"
                  }
                }
              ]
            },
            {
              "predict": {
                "$type": "IHCNJCCMJJP",
                "skillIDList": [
                  116
                ]
              },
              "actions": [
                {
                  "$type": "BAAFCGGIEPP",
                  "targetSelector": {
                    "MLDBFKEGPEF": "ContextTarget"
                  },
                  "effectName": "Eff_Gcg_Common_Reaction_Overgrow",
                  "followSpineName": "",
                  "followSpineBoneName": "",
                  "bornRotate": {
                    "$type": "LKOJODICBKI"
                  }
                }
              ]
            },
            {
              "predict": {
                "$type": "IHCNJCCMJJP",
                "skillIDList": [
                  117
                ]
              },
              "actions": [
                {
                  "$type": "BAAFCGGIEPP",
                  "targetSelector": {
                    "MLDBFKEGPEF": "ContextTarget"
                  },
                  "effectName": "Eff_Gcg_Common_Reaction_Overdose",
                  "followSpineName": "",
                  "followSpineBoneName": "",
                  "bornRotate": {
                    "$type": "LKOJODICBKI"
                  }
                }
              ]
            }
          ]
        }
      ]
    },
    {
      "name": "Monster_Effigyice_A",
      "onStart": [
        {
          "lastTime": 0.5,
          "actionGroups": [
            {
              "actions": [
                {
                  "$type": "DPEBLGLIMOM",
                  "moveScript": "GcgMotion_Skill_A_Test_01",
                  "oppoMoveScript": "",
                  "sourceSelector": {
                    "MLDBFKEGPEF": "Actor"
                  },
                  "targetSelector": {
                    "MLDBFKEGPEF": "MainTarget",
                    "campFilter": "ActorOppoCamp",
                    "tokenFilter": [
                      "GCG_TOKEN_HP"
                    ]
                  },
                  "isAttack": true,
                  "targetDistOffsetRatio": 0.5,
                  "resetCharPositionWhenFinish": true
                },
                {
                  "$type": "HKAOFGLMNIL",
                  "targetSelector": {
                    "MLDBFKEGPEF": "Actor"
                  },
                  "noSwitchSpineEffect": true
                },
                {
                  "$type": "DDNDPEOCDCH",
                  "behaviourName": "CommonBehaviour",
                  "triggerName": "OnAttack"
                },
                {
                  "$type": "GCFLDGEGDKH",
                  "targetSelector": {
                    "MLDBFKEGPEF": "Actor"
                  },
                  "playImmediately": true,
                  "eventName": {
                    "text": "Play_sfx_GCG_common_normal_attack"
                  }
                }
              ]
            }
          ]
        }
      ],
      "onHitLanded": [
        {
          "predict": {
            "$type": "KDMNAFLFOIA",
            "targetSelector": {
              "MLDBFKEGPEF": "MainTarget"
            }
          },
          "actionGroups": [
            {
              "actions": [
                {
                  "$type": "BMGPEHMLOBG",
                  "targetSelector": {
                    "MLDBFKEGPEF": "ContextTarget"
                  },
                  "script": "Common_ShakeScreen_Test_E"
                },
                {
                  "$type": "DPEBLGLIMOM",
                  "moveScript": "GcgMotion_Hit04_02",
                  "oppoMoveScript": "",
                  "sourceSelector": {
                    "MLDBFKEGPEF": "ContextTarget"
                  },
                  "targetSelector": {
                    "MLDBFKEGPEF": "Actor"
                  },
                  "resetCharPositionWhenFinish": true
                },
                {
                  "$type": "HKAOFGLMNIL",
                  "targetSelector": {
                    "MLDBFKEGPEF": "Actor"
                  },
                  "isOpen": true,
                  "noSwitchSpineEffect": true
                },
                {
                  "$type": "DDNDPEOCDCH",
                  "behaviourName": "CommonBehaviour",
                  "triggerName": "OnBeingHit"
                }
              ]
            }
          ]
        },
        {
          "predict": {
            "$type": "HPFEOGFPEAN",
            "predicts": [
              {
                "$type": "KGEHNGKBPBJ",
                "targetSelector": {
                  "MLDBFKEGPEF": "Actor"
                },
                "configId": 121031
              },
              {
                "$type": "KDMNAFLFOIA",
                "targetSelector": {
                  "MLDBFKEGPEF": "MainTarget",
                  "campFilter": "ActorOppoCamp"
                }
              }
            ]
          },
          "actionGroups": [
            {
              "actions": [
                {
                  "$type": "CBKFPEIDMHH",
                  "targetSelector": {
                    "MLDBFKEGPEF": "SubTarget"
                  }
                },
                {
                  "$type": "BAAFCGGIEPP",
                  "targetSelector": {
                    "MLDBFKEGPEF": "MainTarget"
                  },
                  "effectName": "Eff_Gcg_Common_Attack_Hit_Aoe",
                  "followSpineName": "",
                  "followSpineBoneName": "",
                  "bornOppositeGestureAdjust": "HorizontalAxisFlip"
                }
              ]
            }
          ]
        }
      ]
    }
  ]
}