{
  "behaviours": [
    {
      "name": "Character_Kaeya_Q_Normal",
      "onStart": [
        {
          "lastTime": 0.44999998807907104,
          "actionGroups": [
            {
              "actions": [
                {
                  "$type": "HKAOFGLMNIL",
                  "targetSelector": {
                    "MLDBFKEGPEF": "Actor"
                  }
                },
                {
                  "$type": "BAAFCGGIEPP",
                  "targetSelector": {
                    "MLDBFKEGPEF": "Actor"
                  },
                  "effectName": "Eff_Gcg_Common_ElementalBurst_NormalCharge",
                  "followSpineName": "",
                  "followSpineBoneName": "",
                  "bornRotate": {
                    "$type": "LKOJODICBKI"
                  }
                }
              ]
            }
          ]
        },
        {
          "actionGroups": [
            {
              "actions": [
                {
                  "$type": "JAHBMNMPJOI",
                  "effectName": "Eff_Gcg_Avatar_Kaeya_ElementalBurst",
                  "isLoopEffect": true,
                  "isAttack": true,
                  "bornTargetSelector": {
                    "MLDBFKEGPEF": "Actor"
                  },
                  "moveTargetSelector": {
                    "MLDBFKEGPEF": "MainTarget"
                  },
                  "bornRotate": {
                    "$type": "OGABKAJHCFD",
                    "targetSelector": {
                      "MLDBFKEGPEF": "MainTarget"
                    }
                  },
                  "bornOffset": {
                    "z": -0.25
                  },
                  "moveScript": "Eff_Gcg_Motion_Avatar_Kaeya_ElementBurst",
                  "oppoMoveScript": "",
                  "events": [
                    {
                      "$type": "ALMLDDFKDCD",
                      "triggerPoint": "OnHit"
                    }
                  ]
                }
              ]
            }
          ]
        }
      ],
      "onHitLanded": [
        {
          "lastTime": 0.5,
          "actionGroups": [
            {
              "actions": [
                {
                  "$type": "BAAFCGGIEPP",
                  "targetSelector": {
                    "MLDBFKEGPEF": "ContextTarget"
                  },
                  "effectName": "Eff_Gcg_Avatar_Kaeya_ElementalBurst_Hit",
                  "followSpineName": "",
                  "followSpineBoneName": "",
                  "bornRotate": {
                    "$type": "OGABKAJHCFD",
                    "targetSelector": {
                      "MLDBFKEGPEF": "Actor"
                    }
                  }
                },
                {
                  "$type": "BMGPEHMLOBG",
                  "targetSelector": {
                    "MLDBFKEGPEF": "ContextTarget"
                  },
                  "script": "Common_ShakeScreen_Test_A"
                }
              ]
            }
          ]
        },
        {
          "actionGroups": [
            {
              "actions": [
                {
                  "$type": "HKAOFGLMNIL",
                  "targetSelector": {
                    "MLDBFKEGPEF": "Actor"
                  },
                  "isOpen": true
                }
              ]
            }
          ]
        }
      ]
    },
    {
      "name": "Character_Kaeya_Binglin",
      "onStart": [
        {
          "actionGroups": [
            {
              "actions": [
                {
                  "$type": "JAHBMNMPJOI",
                  "effectName": "Eff_Gcg_Avatar_Kaeya_ElementalBurst",
                  "isLoopEffect": true,
                  "isAttack": true,
                  "bornTargetSelector": {
                    "MLDBFKEGPEF": "Actor"
                  },
                  "moveTargetSelector": {
                    "MLDBFKEGPEF": "MainTarget"
                  },
                  "bornRotate": {
                    "$type": "OGABKAJHCFD",
                    "targetSelector": {
                      "MLDBFKEGPEF": "MainTarget"
                    }
                  },
                  "bornOffset": {
                    "z": -0.25
                  },
                  "moveScript": "Eff_Gcg_Motion_Avatar_Kaeya_ElementBurst",
                  "oppoMoveScript": "",
                  "events": [
                    {
                      "$type": "ALMLDDFKDCD",
                      "triggerPoint": "OnHit"
                    }
                  ]
                }
              ]
            }
          ]
        }
      ],
      "onHitLanded": [
        {
          "predict": {
            "$type": "HPFEOGFPEAN",
            "predicts": [
              {
                "$type": "IHCNJCCMJJP",
                "skillIDList": [
                  101,
                  102,
                  103,
                  104,
                  105,
                  106,
                  107,
                  108,
                  109,
                  110,
                  111,
                  112,
                  113,
                  114,
                  115,
                  116,
                  117
                ]
              },
              {
                "$type": "KDMNAFLFOIA",
                "targetSelector": {
                  "MLDBFKEGPEF": "MainTarget",
                  "campFilter": "ActorOppoCamp"
                }
              }
            ]
          },
          "actionGroups": [
            {
              "predict": {
                "$type": "IHCNJCCMJJP",
                "skillIDList": [
                  101
                ]
              },
              "actions": [
                {
                  "$type": "BAAFCGGIEPP",
                  "targetSelector": {
                    "MLDBFKEGPEF": "ContextTarget"
                  },
                  "effectName": "Eff_Gcg_Common_Reaction_Melt",
                  "followSpineName": "",
                  "followSpineBoneName": "",
                  "bornRotate": {
                    "$type": "LKOJODICBKI"
                  }
                }
              ]
            },
            {
              "predict": {
                "$type": "IHCNJCCMJJP",
                "skillIDList": [
                  102
                ]
              },
              "actions": [
                {
                  "$type": "BAAFCGGIEPP",
                  "targetSelector": {
                    "MLDBFKEGPEF": "ContextTarget"
                  },
                  "effectName": "Eff_Gcg_Common_Reaction_Steam",
                  "followSpineName": "",
                  "followSpineBoneName": "",
                  "bornRotate": {
                    "$type": "LKOJODICBKI"
                  }
                }
              ]
            },
            {
              "predict": {
                "$type": "IHCNJCCMJJP",
                "skillIDList": [
                  103
                ]
              },
              "actions": [
                {
                  "$type": "BAAFCGGIEPP",
                  "targetSelector": {
                    "MLDBFKEGPEF": "ContextTarget"
                  },
                  "effectName": "Eff_Gcg_Common_Reaction_Overload",
                  "followSpineName": "",
                  "followSpineBoneName": "",
                  "bornRotate": {
                    "$type": "LKOJODICBKI"
                  }
                }
              ]
            },
            {
              "predict": {
                "$type": "IHCNJCCMJJP",
                "skillIDList": [
                  104
                ]
              },
              "actions": [
                {
                  "$type": "BAAFCGGIEPP",
                  "targetSelector": {
                    "MLDBFKEGPEF": "ContextTarget"
                  },
                  "effectName": "Eff_Gcg_Common_Reaction_Superconductor",
                  "followSpineName": "",
                  "followSpineBoneName": "",
                  "bornRotate": {
                    "$type": "LKOJODICBKI"
                  }
                }
              ]
            },
            {
              "predict": {
                "$type": "IHCNJCCMJJP",
                "skillIDList": [
                  105
                ]
              },
              "actions": [
                {
                  "$type": "BAAFCGGIEPP",
                  "targetSelector": {
                    "MLDBFKEGPEF": "ContextTarget"
                  },
                  "effectName": "Eff_Gcg_Common_Reaction_StickElectric",
                  "followSpineName": "",
                  "followSpineBoneName": "",
                  "bornRotate": {
                    "$type": "LKOJODICBKI"
                  }
                }
              ]
            },
            {
              "predict": {
                "$type": "IHCNJCCMJJP",
                "skillIDList": [
                  1061
                ]
              },
              "actions": [
                {
                  "$type": "BAAFCGGIEPP",
                  "targetSelector": {
                    "MLDBFKEGPEF": "ContextTarget"
                  },
                  "effectName": "Eff_Gcg_Common_Reaction_BreakIce",
                  "followSpineName": "",
                  "followSpineBoneName": "",
                  "bornRotate": {
                    "$type": "LKOJODICBKI"
                  }
                }
              ]
            },
            {
              "predict": {
                "$type": "IHCNJCCMJJP",
                "skillIDList": [
                  108
                ]
              },
              "actions": [
                {
                  "$type": "BAAFCGGIEPP",
                  "targetSelector": {
                    "MLDBFKEGPEF": "ContextTarget"
                  },
                  "effectName": "Eff_Gcg_Common_Reaction_Swirl_Water",
                  "followSpineName": "",
                  "followSpineBoneName": "",
                  "bornRotate": {
                    "$type": "LKOJODICBKI"
                  }
                }
              ]
            },
            {
              "predict": {
                "$type": "IHCNJCCMJJP",
                "skillIDList": [
                  107
                ]
              },
              "actions": [
                {
                  "$type": "BAAFCGGIEPP",
                  "targetSelector": {
                    "MLDBFKEGPEF": "ContextTarget"
                  },
                  "effectName": "Eff_Gcg_Common_Reaction_Swirl_Ice",
                  "followSpineName": "",
                  "followSpineBoneName": "",
                  "bornRotate": {
                    "$type": "LKOJODICBKI"
                  }
                }
              ]
            },
            {
              "predict": {
                "$type": "IHCNJCCMJJP",
                "skillIDList": [
                  109
                ]
              },
              "actions": [
                {
                  "$type": "BAAFCGGIEPP",
                  "targetSelector": {
                    "MLDBFKEGPEF": "ContextTarget"
                  },
                  "effectName": "Eff_Gcg_Common_Reaction_Swirl_Fire",
                  "followSpineName": "",
                  "followSpineBoneName": "",
                  "bornRotate": {
                    "$type": "LKOJODICBKI"
                  }
                }
              ]
            },
            {
              "predict": {
                "$type": "IHCNJCCMJJP",
                "skillIDList": [
                  110
                ]
              },
              "actions": [
                {
                  "$type": "BAAFCGGIEPP",
                  "targetSelector": {
                    "MLDBFKEGPEF": "ContextTarget"
                  },
                  "effectName": "Eff_Gcg_Common_Reaction_Swirl_Electric",
                  "followSpineName": "",
                  "followSpineBoneName": "",
                  "bornRotate": {
                    "$type": "LKOJODICBKI"
                  }
                }
              ]
            },
            {
              "predict": {
                "$type": "IHCNJCCMJJP",
                "skillIDList": [
                  111,
                  112,
                  113,
                  114
                ]
              },
              "actions": [
                {
                  "$type": "BAAFCGGIEPP",
                  "targetSelector": {
                    "MLDBFKEGPEF": "ContextTarget"
                  },
                  "effectName": "Eff_Gcg_Common_Reaction_Crystal",
                  "followSpineName": "",
                  "followSpineBoneName": "",
                  "bornRotate": {
                    "$type": "LKOJODICBKI"
                  }
                }
              ]
            },
            {
              "predict": {
                "$type": "IHCNJCCMJJP",
                "skillIDList": [
                  115
                ]
              },
              "actions": [
                {
                  "$type": "BAAFCGGIEPP",
                  "targetSelector": {
                    "MLDBFKEGPEF": "ContextTarget"
                  },
                  "effectName": "Eff_Gcg_Common_Reaction_Burning_Grass",
                  "followSpineName": "",
                  "followSpineBoneName": "",
                  "bornRotate": {
                    "$type": "LKOJODICBKI"
                  }
                }
              ]
            },
            {
              "predict": {
                "$type": "IHCNJCCMJJP",
                "skillIDList": [
                  116
                ]
              },
              "actions": [
                {
                  "$type": "BAAFCGGIEPP",
                  "targetSelector": {
                    "MLDBFKEGPEF": "ContextTarget"
                  },
                  "effectName": "Eff_Gcg_Common_Reaction_Overgrow",
                  "followSpineName": "",
                  "followSpineBoneName": "",
                  "bornRotate": {
                    "$type": "LKOJODICBKI"
                  }
                }
              ]
            },
            {
              "predict": {
                "$type": "IHCNJCCMJJP",
                "skillIDList": [
                  117
                ]
              },
              "actions": [
                {
                  "$type": "BAAFCGGIEPP",
                  "targetSelector": {
                    "MLDBFKEGPEF": "ContextTarget"
                  },
                  "effectName": "Eff_Gcg_Common_Reaction_Overdose",
                  "followSpineName": "",
                  "followSpineBoneName": "",
                  "bornRotate": {
                    "$type": "LKOJODICBKI"
                  }
                }
              ]
            }
          ]
        },
        {
          "actionGroups": [
            {
              "actions": [
                {
                  "$type": "BAAFCGGIEPP",
                  "targetSelector": {
                    "MLDBFKEGPEF": "ContextTarget"
                  },
                  "effectName": "Eff_Gcg_Avatar_Kaeya_ElementalBurst_Hit",
                  "followSpineName": "",
                  "followSpineBoneName": "",
                  "bornRotate": {
                    "$type": "OGABKAJHCFD",
                    "targetSelector": {
                      "MLDBFKEGPEF": "Actor"
                    }
                  }
                },
                {
                  "$type": "BMGPEHMLOBG",
                  "targetSelector": {
                    "MLDBFKEGPEF": "ContextTarget"
                  },
                  "script": "Common_ShakeScreen_Test_A"
                }
              ]
            }
          ]
        }
      ]
    }
  ]
}