{
  "behaviours": [
    {
      "name": "Character_Diona_Q_Golden",
      "mainTargetDamageShowDelayTimeSelf": 1.399999976158142,
      "onStart": [
        {
          "lastTime": 0.800000011920929,
          "actionGroups": [
            {
              "actions": [
                {
                  "$type": "PIIBMCGHDNL",
                  "targetSelector": {
                    "MLDBFKEGPEF": "Actor"
                  }
                },
                {
                  "$type": "HKAOFGLMNIL",
                  "targetSelector": {
                    "MLDBFKEGPEF": "Actor"
                  }
                },
                {
                  "$type": "OJOIGDLGMAC",
                  "targetSelector": {
                    "MLDBFKEGPEF": "Actor"
                  }
                },
                {
                  "$type": "BAAFCGGIEPP",
                  "targetSelector": {
                    "MLDBFKEGPEF": "Actor"
                  },
                  "effectName": "Eff_Gcg_Avatar_Diona_ElementalBurst_Spine_Trail",
                  "doWriteStencil": true,
                  "followSpineName": "",
                  "followSpineBoneName": "",
                  "bornRotate": {
                    "$type": "LKOJODICBKI"
                  }
                }
              ]
            }
          ]
        },
        {
          "lastTime": 0.8999999761581421,
          "actionGroups": [
            {
              "actions": [
                {
                  "$type": "BAAFCGGIEPP",
                  "targetSelector": {
                    "MLDBFKEGPEF": "Actor"
                  },
                  "effectName": "Eff_Gcg_Avatar_Diona_ElementalBurst_Spine",
                  "doWriteStencil": true,
                  "isFollowSpineBone": true,
                  "followSpineName": "Gcg_CardFace_Char_Avatar_Diona_Spine",
                  "followSpineBoneName": "EffectRoot_bottle",
                  "bornRotate": {
                    "$type": "LKOJODICBKI"
                  }
                }
              ]
            }
          ]
        },
        {
          "lastTime": 2.2699999809265137,
          "actionGroups": [
            {
              "actions": [
                {
                  "$type": "BAAFCGGIEPP",
                  "targetSelector": {
                    "MLDBFKEGPEF": "Actor"
                  },
                  "effectName": "Eff_Gcg_Avatar_Diona_ElementalBurst_BS",
                  "doWriteStencil": true,
                  "followSpineName": "",
                  "followSpineBoneName": "",
                  "bornRotate": {
                    "$type": "LKOJODICBKI"
                  }
                },
                {
                  "$type": "JAHBMNMPJOI",
                  "effectName": "Eff_Gcg_Avatar_Diona_ElementalBurst",
                  "isLoopEffect": true,
                  "isAttack": true,
                  "bornTargetSelector": {
                    "MLDBFKEGPEF": "Actor"
                  },
                  "moveTargetSelector": {
                    "MLDBFKEGPEF": "MainTarget",
                    "campFilter": "ActorOppoCamp"
                  },
                  "bornRotate": {
                    "$type": "OGABKAJHCFD",
                    "targetSelector": {
                      "MLDBFKEGPEF": "MainTarget"
                    }
                  },
                  "moveScript": "Eff_Gcg_Motion_Avatar_Diona_ElementBurst",
                  "oppoMoveScript": "",
                  "events": [
                    {
                      "$type": "ALMLDDFKDCD",
                      "triggerPoint": "OnHit"
                    }
                  ]
                }
              ]
            }
          ]
        },
        {
          "lastTime": 0.029999999329447746,
          "actionGroups": [
            {
              "actions": [
                {
                  "$type": "BAAFCGGIEPP",
                  "targetSelector": {
                    "MLDBFKEGPEF": "Actor"
                  },
                  "effectName": "Eff_Gcg_Common_Spine_ReturnToLoop",
                  "doWriteStencil": true,
                  "followSpineName": "",
                  "followSpineBoneName": "",
                  "bornRotate": {
                    "$type": "LKOJODICBKI"
                  }
                }
              ]
            }
          ]
        },
        {
          "actionGroups": [
            {
              "actions": [
                {
                  "$type": "PIIBMCGHDNL",
                  "targetSelector": {
                    "MLDBFKEGPEF": "Actor"
                  },
                  "isOpen": true
                },
                {
                  "$type": "HKAOFGLMNIL",
                  "targetSelector": {
                    "MLDBFKEGPEF": "Actor"
                  },
                  "isOpen": true
                }
              ]
            }
          ]
        }
      ],
      "onHitLanded": [
        {
          "predict": {
            "$type": "KDMNAFLFOIA",
            "targetSelector": {
              "MLDBFKEGPEF": "MainTarget",
              "campFilter": "ActorOppoCamp"
            }
          },
          "lastTime": 0.05000000074505806,
          "actionGroups": [
            {
              "actions": [
                {
                  "$type": "BAAFCGGIEPP",
                  "targetSelector": {
                    "MLDBFKEGPEF": "MainTarget",
                    "campFilter": "ActorOppoCamp"
                  },
                  "effectName": "Eff_Gcg_Avatar_Diona_ElementalBurst_Hit",
                  "followSpineName": "",
                  "followSpineBoneName": "",
                  "bornRotate": {
                    "$type": "OGABKAJHCFD",
                    "targetSelector": {
                      "MLDBFKEGPEF": "Actor"
                    }
                  }
                },
                {
                  "$type": "CBKFPEIDMHH",
                  "targetSelector": {
                    "MLDBFKEGPEF": "AllTarget",
                    "campFilter": "ActorSameCamp"
                  }
                }
              ]
            }
          ]
        },
        {
          "predict": {
            "$type": "KDMNAFLFOIA",
            "targetSelector": {
              "MLDBFKEGPEF": "MainTarget",
              "campFilter": "ActorOppoCamp"
            }
          },
          "actionGroups": [
            {
              "actions": [
                {
                  "$type": "BMGPEHMLOBG",
                  "targetSelector": {
                    "MLDBFKEGPEF": "MainTarget",
                    "campFilter": "ActorOppoCamp"
                  },
                  "script": "Common_ShakeScreen_Test_A"
                }
              ]
            }
          ]
        },
        {
          "predict": {
            "$type": "KDMNAFLFOIA",
            "targetSelector": {
              "MLDBFKEGPEF": "MainTarget",
              "campFilter": "ActorSameCamp"
            }
          },
          "actionGroups": [
            {
              "actions": [
                {
                  "$type": "BAAFCGGIEPP",
                  "targetSelector": {
                    "MLDBFKEGPEF": "MainTarget",
                    "campFilter": "ActorSameCamp"
                  },
                  "effectName": "Eff_Gcg_Common_ElementalArt_Healing_Hit",
                  "followSpineName": "",
                  "followSpineBoneName": "",
                  "bornRotate": {
                    "$type": "OGABKAJHCFD",
                    "targetSelector": {
                      "MLDBFKEGPEF": "Actor"
                    }
                  }
                }
              ]
            }
          ]
        }
      ]
    }
  ]
}