{
  "behaviours": [
    {
      "name": "Character_Chongyun_Q_Normal",
      "onStart": [
        {
          "lastTime": 0.44999998807907104,
          "actionGroups": [
            {
              "actions": [
                {
                  "$type": "HKAOFGLMNIL",
                  "targetSelector": {
                    "MLDBFKEGPEF": "Actor"
                  }
                },
                {
                  "$type": "BAAFCGGIEPP",
                  "targetSelector": {
                    "MLDBFKEGPEF": "Actor"
                  },
                  "effectName": "Eff_Gcg_Common_ElementalBurst_NormalCharge",
                  "followSpineName": "",
                  "followSpineBoneName": "",
                  "bornRotate": {
                    "$type": "LKOJODICBKI"
                  }
                }
              ]
            }
          ]
        },
        {
          "lastTime": 1.2000000476837158,
          "actionGroups": [
            {
              "actions": [
                {
                  "$type": "BAAFCGGIEPP",
                  "targetSelector": {
                    "MLDBFKEGPEF": "MainTarget"
                  },
                  "effectName": "Eff_Gcg_Avatar_Chongyun_ElementalBurst_Hit_NoSpine",
                  "followSpineName": "",
                  "followSpineBoneName": "",
                  "bornRotate": {
                    "$type": "JJINBFEBDAN"
                  },
                  "bornOppositeGestureAdjust": "HorizontalAxisFlip"
                },
                {
                  "$type": "BAAFCGGIEPP",
                  "targetSelector": {
                    "MLDBFKEGPEF": "Actor"
                  },
                  "effectName": "Eff_Gcg_Avatar_Chongyun_ElementalBurst_BS",
                  "bornOffset": {
                    "y": 0.5
                  },
                  "followSpineName": "",
                  "followSpineBoneName": "",
                  "bornRotate": {
                    "$type": "LKOJODICBKI"
                  }
                }
              ]
            }
          ]
        },
        {
          "lastTime": 0.5,
          "actionGroups": [
            {
              "actions": [
                {
                  "$type": "CBKFPEIDMHH",
                  "targetSelector": {
                    "MLDBFKEGPEF": "MainTarget"
                  }
                },
                {
                  "$type": "BMGPEHMLOBG",
                  "targetSelector": {
                    "MLDBFKEGPEF": "MainTarget"
                  },
                  "script": "Common_ShakeScreen_Test_Q"
                }
              ]
            }
          ]
        },
        {
          "actionGroups": [
            {
              "actions": [
                {
                  "$type": "HKAOFGLMNIL",
                  "targetSelector": {
                    "MLDBFKEGPEF": "Actor"
                  },
                  "isOpen": true
                }
              ]
            }
          ]
        }
      ]
    }
  ]
}