{
  "behaviours": [
    {
      "name": "Monster_Dahaka_Q_Normal",
      "onStart": [
        {
          "lastTime": 0.44999998807907104,
          "actionGroups": [
            {
              "actions": [
                {
                  "$type": "HKAOFGLMNIL",
                  "targetSelector": {
                    "MLDBFKEGPEF": "Actor"
                  }
                },
                {
                  "$type": "BAAFCGGIEPP",
                  "targetSelector": {
                    "MLDBFKEGPEF": "Actor"
                  },
                  "effectName": "Eff_Gcg_Common_ElementalBurst_NormalCharge",
                  "followSpineName": "",
                  "followSpineBoneName": "",
                  "bornRotate": {
                    "$type": "LKOJODICBKI"
                  }
                }
              ]
            }
          ]
        },
        {
          "lastTime": 0.949999988079071,
          "actionGroups": [
            {
              "actions": [
                {
                  "$type": "BAAFCGGIEPP",
                  "targetSelector": {
                    "MLDBFKEGPEF": "MainTarget",
                    "campFilter": "ActorOppoCamp"
                  },
                  "effectName": "Eff_Gcg_Monster_Dahaka_ElementalBurst_Hit",
                  "followSpineName": "",
                  "followSpineBoneName": "",
                  "bornRotate": {
                    "$type": "JJINBFEBDAN"
                  },
                  "bornOppositeGestureAdjust": "HorizontalAxisFlip"
                }
              ]
            }
          ]
        },
        {
          "actionGroups": [
            {
              "actions": [
                {
                  "$type": "BAAFCGGIEPP",
                  "targetSelector": {
                    "MLDBFKEGPEF": "Actor"
                  },
                  "effectName": "Eff_Gcg_Monster_Dahaka_ElementalBurst_BS",
                  "followSpineName": "",
                  "followSpineBoneName": "",
                  "bornRotate": {
                    "$type": "LKOJODICBKI"
                  }
                }
              ]
            }
          ]
        },
        {
          "actionGroups": [
            {
              "actions": [
                {
                  "$type": "CBKFPEIDMHH",
                  "targetSelector": {
                    "MLDBFKEGPEF": "MainTarget",
                    "campFilter": "ActorOppoCamp"
                  }
                },
                {
                  "$type": "BMGPEHMLOBG",
                  "targetSelector": {
                    "MLDBFKEGPEF": "MainTarget"
                  },
                  "script": "Common_ShakeScreen_Test_Q"
                }
              ]
            }
          ]
        },
        {
          "actionGroups": [
            {
              "actions": [
                {
                  "$type": "HKAOFGLMNIL",
                  "targetSelector": {
                    "MLDBFKEGPEF": "Actor"
                  },
                  "isOpen": true
                }
              ]
            }
          ]
        }
      ]
    }
  ]
}