{
  "luaDataPath": "",
  "entityBan": "",
  "isKeyInteraction": false,
  "group": [
    [
      {
        "$type": "EFHODGEJOHJ",
        "type": "CAMERA_MOVE",
        "duration": 0.75,
        "camPosOffset": {
          "x": -1.2519999742507935,
          "y": 1.9989999532699585,
          "z": 6.138999938964844
        },
        "camForwardTargetOffset": {
          "x": -1.7979999780654907,
          "y": 1.4140000343322754,
          "z": 6.138999938964844
        },
        "camFov": 27.0,
        "cameraBlendType": "EaseInOutQuad",
        "MDKBPBJCMHH": {},
        "openCameraDither": false,
        "targetNpcAlias": "",
        "closeTreeLeafDither": true,
        "PHGBNNGCJKJ": "",
        "NFILMKCFHEB": "",
        "BGPNGHDAECF": ""
      }
    ]
  ]
}