{
  "luaDataPath": "",
  "entityBan": "",
  "disableNpcLod": true,
  "isAutoBanNpc": true,
  "isBanWidgetPet": true,
  "protectNpcMobileLod": true,
  "startFade": {
    "startFadeOutDuration": 0.0
  },
  "endFade": {
    "startFadeOutDuration": 0.0
  },
  "actors": [
    {
      "alias": "Avatar",
      "visible": true,
      "bornPointName": "",
      "relativePosType": "AVATAR_NEW",
      "relativePosNpcAlias": "",
      "_bindMovingTargetKey": ""
    },
    {
      "configID": 20653,
      "alias": "20653",
      "visible": true,
      "bornPointName": "Q7302201_N4195",
      "relativePosType": "AVATAR_NEW",
      "relativePosNpcAlias": "",
      "_bindMovingTargetKey": ""
    },
    {
      "configID": 1005,
      "alias": "1005",
      "visible": true,
      "bornPointName": "",
      "useRelativePos": true,
      "relativePos": {
        "x": 0.5,
        "z": 0.20000000298023224
      },
      "removeActorType": "REMOVE_WITH_DISAPPEAR",
      "relativePosType": "AVATAR_NEW",
      "relativePosNpcAlias": "",
      "_bindMovingTargetKey": ""
    }
  ],
  "group": [
    [
      {
        "$type": "MoleMole.Config.ConfigTimeProtectAction",
        "type": "TIME_PROTECT",
        "duration": 0.10000000149011612
      }
    ],
    [
      {
        "$type": "IEKHMHNHENB",
        "type": "STEER_TO",
        "duration": 0.5,
        "aliasList": [
          "Avatar"
        ],
        "steerType": "TO_TARGET_ADVANCED",
        "useSteerAnim": true,
        "targetNpcAlias": "20653",
        "BHGPHGNFCBF": ""
      },
      {
        "$type": "NPCNMEOCADD",
        "type": "LOOK_AT",
        "aliasList": [
          "Avatar"
        ],
        "enableHead": true,
        "headTurnTime": 0.5,
        "targetNpcAlias": "20653",
        "openBackProtect": true,
        "targetNpcLookAtPoint": "",
        "BHGPHGNFCBF": ""
      },
      {
        "$type": "MJFAIFFAGOF",
        "type": "DIALOG",
        "aliasList": [
          "20653"
        ],
        "dialogID": 730220301,
        "protectTime": 0.5
      },
      {
        "$type": "IEKHMHNHENB",
        "type": "STEER_TO",
        "duration": 0.5,
        "aliasList": [
          "20653"
        ],
        "steerType": "TO_TARGET_ADVANCED",
        "useSteerAnim": true,
        "targetNpcAlias": "Avatar",
        "BHGPHGNFCBF": ""
      },
      {
        "$type": "NPCNMEOCADD",
        "type": "LOOK_AT",
        "aliasList": [
          "20653"
        ],
        "enableHead": true,
        "headTurnTime": 0.5,
        "targetNpcAlias": "Avatar",
        "openBackProtect": true,
        "targetNpcLookAtPoint": "",
        "BHGPHGNFCBF": ""
      },
      {
        "$type": "IEKHMHNHENB",
        "type": "STEER_TO",
        "duration": 0.5,
        "aliasList": [
          "1005"
        ],
        "steerType": "TO_TARGET_ADVANCED",
        "useSteerAnim": true,
        "targetNpcAlias": "20653",
        "BHGPHGNFCBF": ""
      },
      {
        "$type": "NPCNMEOCADD",
        "type": "LOOK_AT",
        "aliasList": [
          "1005"
        ],
        "enableHead": true,
        "headTurnTime": 0.5,
        "targetNpcAlias": "20653",
        "openBackProtect": true,
        "targetNpcLookAtPoint": "",
        "BHGPHGNFCBF": ""
      }
    ],
    [
      {
        "$type": "MJFAIFFAGOF",
        "type": "DIALOG",
        "aliasList": [
          "20653"
        ],
        "dialogID": 730220302,
        "protectTime": 0.5
      }
    ],
    [
      {
        "$type": "MJFAIFFAGOF",
        "type": "DIALOG",
        "aliasList": [
          "1005"
        ],
        "dialogID": 730220303,
        "protectTime": 0.5
      },
      {
        "$type": "EDCHPJLDKIN",
        "type": "BODY_LANG",
        "aliasList": [
          "1005"
        ],
        "bodyLangParam": 1300,
        "forceDoFreeStyle": true,
        "canDoRepeatFreeStyle": false,
        "eventPatternSuiteKey": ""
      }
    ],
    [
      {
        "$type": "MJFAIFFAGOF",
        "type": "DIALOG",
        "aliasList": [
          "20653"
        ],
        "dialogID": 730220304,
        "protectTime": 0.5
      }
    ],
    [
      {
        "$type": "MJFAIFFAGOF",
        "type": "DIALOG",
        "aliasList": [
          "20653"
        ],
        "dialogID": 730220305,
        "protectTime": 0.5
      }
    ],
    [
      {
        "$type": "MJFAIFFAGOF",
        "type": "DIALOG",
        "aliasList": [
          "1005"
        ],
        "dialogID": 730220306,
        "protectTime": 0.5
      }
    ],
    [
      {
        "$type": "MJFAIFFAGOF",
        "type": "DIALOG",
        "aliasList": [
          "20653"
        ],
        "dialogID": 730220307,
        "protectTime": 0.5
      }
    ],
    [
      {
        "$type": "MJFAIFFAGOF",
        "type": "DIALOG",
        "aliasList": [
          "20653"
        ],
        "dialogID": 730220308,
        "protectTime": 0.5
      }
    ],
    [
      {
        "$type": "MJFAIFFAGOF",
        "type": "DIALOG",
        "aliasList": [
          "1005"
        ],
        "dialogID": 730220309,
        "protectTime": 0.5
      },
      {
        "$type": "OBCDECFOOBC",
        "type": "DIALOG_SELECT",
        "delayTime": 0.4000000059604645,
        "aliasList": [
          "Avatar"
        ],
        "dialogIDList": [
          730220310
        ],
        "grpIDList": [
          271797065
        ],
        "useGrpId": true
      }
    ],
    [
      {
        "$type": "MJFAIFFAGOF",
        "type": "DIALOG",
        "aliasList": [
          "20653"
        ],
        "dialogID": 730220311,
        "protectTime": 0.5
      }
    ],
    [
      {
        "$type": "MJFAIFFAGOF",
        "type": "DIALOG",
        "aliasList": [
          "1005"
        ],
        "dialogID": 730220312,
        "protectTime": 0.5
      }
    ],
    [
      {
        "$type": "MJFAIFFAGOF",
        "type": "DIALOG",
        "aliasList": [
          "20653"
        ],
        "dialogID": 730220313,
        "protectTime": 0.5
      },
      {
        "$type": "OBCDECFOOBC",
        "type": "DIALOG_SELECT",
        "delayTime": 0.4000000059604645,
        "aliasList": [
          "Avatar"
        ],
        "dialogIDList": [
          730220314,
          730220317
        ],
        "grpIDList": [
          271797068,
          271797070
        ],
        "useGrpId": true
      }
    ],
    [
      {
        "$type": "MJFAIFFAGOF",
        "type": "DIALOG",
        "aliasList": [
          "20653"
        ],
        "dialogID": 730220315,
        "protectTime": 0.5
      },
      {
        "$type": "EDCHPJLDKIN",
        "type": "BODY_LANG",
        "aliasList": [
          "20653"
        ],
        "bodyLangParam": 1090,
        "forceDoFreeStyle": true,
        "canDoRepeatFreeStyle": false,
        "eventPatternSuiteKey": ""
      }
    ],
    [
      {
        "$type": "MJFAIFFAGOF",
        "type": "DIALOG",
        "aliasList": [
          "1005"
        ],
        "dialogID": 730220316,
        "protectTime": 0.5
      }
    ],
    [
      {
        "$type": "MJFAIFFAGOF",
        "type": "DIALOG",
        "aliasList": [
          "20653"
        ],
        "dialogID": 730220318,
        "protectTime": 0.5
      },
      {
        "$type": "EDCHPJLDKIN",
        "type": "BODY_LANG",
        "aliasList": [
          "20653"
        ],
        "bodyLangParam": 1020,
        "forceDoFreeStyle": true,
        "canDoRepeatFreeStyle": false,
        "eventPatternSuiteKey": ""
      }
    ],
    [
      {
        "$type": "MJFAIFFAGOF",
        "type": "DIALOG",
        "aliasList": [
          "1005"
        ],
        "dialogID": 730220319,
        "protectTime": 0.5
      }
    ],
    [
      {
        "$type": "MJFAIFFAGOF",
        "type": "DIALOG",
        "aliasList": [
          "20653"
        ],
        "dialogID": 730220320,
        "protectTime": 0.5
      }
    ],
    [
      {
        "$type": "MJFAIFFAGOF",
        "type": "DIALOG",
        "aliasList": [
          "1005"
        ],
        "dialogID": 730220321,
        "protectTime": 0.5
      }
    ],
    [
      {
        "$type": "MJFAIFFAGOF",
        "type": "DIALOG",
        "aliasList": [
          "20653"
        ],
        "dialogID": 730220322,
        "protectTime": 0.5
      }
    ],
    [
      {
        "$type": "MJFAIFFAGOF",
        "type": "DIALOG",
        "aliasList": [
          "1005"
        ],
        "dialogID": 730220323,
        "protectTime": 0.5
      }
    ],
    [
      {
        "$type": "MJFAIFFAGOF",
        "type": "DIALOG",
        "aliasList": [
          "1005"
        ],
        "dialogID": 730220324,
        "protectTime": 0.5
      },
      {
        "$type": "OBCDECFOOBC",
        "type": "DIALOG_SELECT",
        "delayTime": 0.4000000059604645,
        "aliasList": [
          "Avatar"
        ],
        "dialogIDList": [
          730220325,
          730220327
        ],
        "grpIDList": [
          271797098,
          271797099
        ],
        "useGrpId": true
      }
    ],
    [
      {
        "$type": "MJFAIFFAGOF",
        "type": "DIALOG",
        "aliasList": [
          "1005"
        ],
        "dialogID": 730220326,
        "protectTime": 0.5
      }
    ],
    [
      {
        "$type": "MJFAIFFAGOF",
        "type": "DIALOG",
        "aliasList": [
          "1005"
        ],
        "dialogID": 730220328,
        "protectTime": 0.5
      }
    ],
    [
      {
        "$type": "MJFAIFFAGOF",
        "type": "DIALOG",
        "aliasList": [
          "20653"
        ],
        "dialogID": 730220329,
        "protectTime": 0.5
      }
    ],
    [
      {
        "$type": "MJFAIFFAGOF",
        "type": "DIALOG",
        "aliasList": [
          "1005"
        ],
        "dialogID": 730220330,
        "protectTime": 0.5
      }
    ],
    [
      {
        "$type": "MoleMole.Config.ConfigSimpleBlackScreenAction",
        "type": "SIMPLE_BLACK_SCREEN",
        "durationToBlack": 0.5,
        "durationKeepBlack": 3.0,
        "durationFromBlack": 0.5,
        "textMapID": "",
        "useTextFade": true,
        "_dialogID": 730220331
      },
      {
        "$type": "MJFAIFFAGOF",
        "type": "DIALOG_CLEAR"
      }
    ],
    [
      {
        "$type": "MJFAIFFAGOF",
        "type": "DIALOG",
        "aliasList": [
          "20653"
        ],
        "dialogID": 730220332,
        "protectTime": 0.5
      }
    ],
    [
      {
        "$type": "MJFAIFFAGOF",
        "type": "DIALOG",
        "aliasList": [
          "1005"
        ],
        "dialogID": 730220333,
        "protectTime": 0.5
      }
    ],
    [
      {
        "$type": "MJFAIFFAGOF",
        "type": "DIALOG",
        "aliasList": [
          "20653"
        ],
        "dialogID": 730220334,
        "protectTime": 0.5
      }
    ],
    [
      {
        "$type": "MJFAIFFAGOF",
        "type": "DIALOG",
        "aliasList": [
          "1005"
        ],
        "dialogID": 730220335,
        "protectTime": 0.5
      }
    ],
    [
      {
        "$type": "MJFAIFFAGOF",
        "type": "DIALOG",
        "aliasList": [
          "20653"
        ],
        "dialogID": 730220336,
        "protectTime": 0.5
      }
    ],
    [
      {
        "$type": "MJFAIFFAGOF",
        "type": "DIALOG",
        "aliasList": [
          "1005"
        ],
        "dialogID": 730220337,
        "protectTime": 0.5
      }
    ],
    [
      {
        "$type": "MJFAIFFAGOF",
        "type": "DIALOG",
        "aliasList": [
          "20653"
        ],
        "dialogID": 730220338,
        "protectTime": 0.5
      }
    ],
    [
      {
        "$type": "MJFAIFFAGOF",
        "type": "DIALOG",
        "aliasList": [
          "20653"
        ],
        "dialogID": 730220339,
        "protectTime": 0.5
      },
      {
        "$type": "OBCDECFOOBC",
        "type": "DIALOG_SELECT",
        "delayTime": 0.4000000059604645,
        "aliasList": [
          "Avatar"
        ],
        "dialogIDList": [
          730220340,
          730220341,
          730220342
        ],
        "grpIDList": [
          271797133,
          271797133,
          271797132
        ],
        "useGrpId": true
      }
    ],
    [
      {
        "$type": "MJFAIFFAGOF",
        "type": "DIALOG",
        "aliasList": [
          "1005"
        ],
        "dialogID": 730220343,
        "protectTime": 0.5
      }
    ],
    [
      {
        "$type": "MJFAIFFAGOF",
        "type": "DIALOG",
        "aliasList": [
          "20653"
        ],
        "dialogID": 730220344,
        "protectTime": 0.5
      }
    ],
    [
      {
        "$type": "MJFAIFFAGOF",
        "type": "DIALOG",
        "aliasList": [
          "20653"
        ],
        "dialogID": 730220345,
        "protectTime": 0.5
      }
    ],
    [
      {
        "$type": "MJFAIFFAGOF",
        "type": "DIALOG",
        "aliasList": [
          "20653"
        ],
        "dialogID": 730220346,
        "protectTime": 0.5
      }
    ],
    [
      {
        "$type": "MJFAIFFAGOF",
        "type": "DIALOG",
        "aliasList": [
          "20653"
        ],
        "dialogID": 730220347,
        "protectTime": 0.5
      }
    ],
    [
      {
        "$type": "MJFAIFFAGOF",
        "type": "DIALOG",
        "aliasList": [
          "1005"
        ],
        "dialogID": 730220348,
        "protectTime": 0.5
      }
    ],
    [
      {
        "$type": "MJFAIFFAGOF",
        "type": "DIALOG",
        "aliasList": [
          "20653"
        ],
        "dialogID": 730220349,
        "protectTime": 0.5
      }
    ],
    [
      {
        "$type": "MJFAIFFAGOF",
        "type": "DIALOG",
        "aliasList": [
          "20653"
        ],
        "dialogID": 730220350,
        "protectTime": 0.5
      }
    ],
    [
      {
        "$type": "MJFAIFFAGOF",
        "type": "DIALOG",
        "aliasList": [
          "20653"
        ],
        "dialogID": 730220351,
        "protectTime": 0.5
      }
    ],
    [
      {
        "$type": "MJFAIFFAGOF",
        "type": "DIALOG",
        "aliasList": [
          "20653"
        ],
        "dialogID": 730220352,
        "protectTime": 0.5
      }
    ],
    [
      {
        "$type": "MJFAIFFAGOF",
        "type": "DIALOG",
        "aliasList": [
          "20653"
        ],
        "dialogID": 730220353,
        "protectTime": 0.5
      }
    ],
    [
      {
        "$type": "MJFAIFFAGOF",
        "type": "DIALOG",
        "aliasList": [
          "20653"
        ],
        "dialogID": 730220354,
        "protectTime": 0.5
      }
    ],
    [
      {
        "$type": "MJFAIFFAGOF",
        "type": "DIALOG",
        "aliasList": [
          "1005"
        ],
        "dialogID": 730220355,
        "protectTime": 0.5
      }
    ],
    [
      {
        "$type": "MJFAIFFAGOF",
        "type": "DIALOG",
        "aliasList": [
          "20653"
        ],
        "dialogID": 730220356,
        "protectTime": 0.5
      }
    ],
    [
      {
        "$type": "MJFAIFFAGOF",
        "type": "DIALOG",
        "aliasList": [
          "20653"
        ],
        "dialogID": 730220357,
        "protectTime": 0.5
      }
    ],
    [
      {
        "$type": "MJFAIFFAGOF",
        "type": "DIALOG",
        "aliasList": [
          "1005"
        ],
        "dialogID": 730220358,
        "protectTime": 0.5
      }
    ],
    [
      {
        "$type": "MJFAIFFAGOF",
        "type": "DIALOG",
        "aliasList": [
          "20653"
        ],
        "dialogID": 730220359,
        "protectTime": 0.5
      }
    ],
    [
      {
        "$type": "MJFAIFFAGOF",
        "type": "DIALOG",
        "aliasList": [
          "20653"
        ],
        "dialogID": 730220360,
        "protectTime": 0.5
      }
    ],
    [
      {
        "$type": "MJFAIFFAGOF",
        "type": "DIALOG",
        "aliasList": [
          "1005"
        ],
        "dialogID": 730220361,
        "protectTime": 0.5
      }
    ],
    [
      {
        "$type": "MJFAIFFAGOF",
        "type": "DIALOG",
        "aliasList": [
          "1005"
        ],
        "dialogID": 730220362,
        "protectTime": 0.5
      },
      {
        "$type": "OBCDECFOOBC",
        "type": "DIALOG_SELECT",
        "delayTime": 0.4000000059604645,
        "aliasList": [
          "Avatar"
        ],
        "dialogIDList": [
          730220363,
          730220364
        ],
        "grpIDList": [
          271797194,
          271797194
        ],
        "useGrpId": true
      }
    ],
    [
      {
        "$type": "MJFAIFFAGOF",
        "type": "DIALOG",
        "aliasList": [
          "1005"
        ],
        "dialogID": 730220365,
        "protectTime": 0.5
      },
      {
        "$type": "OBCDECFOOBC",
        "type": "DIALOG_SELECT",
        "delayTime": 0.4000000059604645,
        "aliasList": [
          "Avatar"
        ],
        "dialogIDList": [
          730220366
        ],
        "grpIDList": [
          271797195
        ],
        "useGrpId": true
      }
    ],
    [
      {
        "$type": "MJFAIFFAGOF",
        "type": "DIALOG",
        "aliasList": [
          "1005"
        ],
        "dialogID": 730220367,
        "protectTime": 0.5
      }
    ],
    [
      {
        "$type": "MJFAIFFAGOF",
        "type": "DIALOG",
        "aliasList": [
          "1005"
        ],
        "dialogID": 730220368,
        "protectTime": 0.5
      }
    ],
    [
      {
        "$type": "MoleMole.Config.ConfigTimeProtectAction",
        "type": "TIME_PROTECT",
        "duration": 0.10000000149011612
      }
    ]
  ],
  "groupId": [
    {
      "grpId": 2502619624,
      "nextGrpId": 2502619625
    },
    {
      "index": 1,
      "grpId": 2502619625,
      "nextGrpId": 2502619626
    },
    {
      "index": 2,
      "grpId": 2502619626,
      "nextGrpId": 2502619627
    },
    {
      "index": 3,
      "grpId": 2502619627,
      "nextGrpId": 2502619628
    },
    {
      "index": 4,
      "grpId": 2502619628,
      "nextGrpId": 2502619629
    },
    {
      "index": 5,
      "grpId": 2502619629,
      "nextGrpId": 2502619630
    },
    {
      "index": 6,
      "grpId": 2502619630,
      "nextGrpId": 2502619631
    },
    {
      "index": 7,
      "grpId": 2502619631,
      "nextGrpId": 2502619632
    },
    {
      "index": 8,
      "grpId": 2502619632,
      "nextGrpId": 271797064
    },
    {
      "index": 9,
      "grpId": 271797064,
      "nextGrpId": 271797065
    },
    {
      "index": 10,
      "grpId": 271797065,
      "nextGrpId": 271797066
    },
    {
      "index": 11,
      "grpId": 271797066,
      "nextGrpId": 271797067
    },
    {
      "index": 12,
      "grpId": 271797067,
      "nextGrpId": 271797068
    },
    {
      "index": 13,
      "grpId": 271797068,
      "nextGrpId": 271797069
    },
    {
      "index": 14,
      "grpId": 271797069,
      "nextGrpId": 271797070
    },
    {
      "index": 15,
      "grpId": 271797070,
      "nextGrpId": 271797071
    },
    {
      "index": 16,
      "grpId": 271797071,
      "nextGrpId": 271797072
    },
    {
      "index": 17,
      "grpId": 271797072,
      "nextGrpId": 271797073
    },
    {
      "index": 18,
      "grpId": 271797073,
      "nextGrpId": 271797095
    },
    {
      "index": 19,
      "grpId": 271797095,
      "nextGrpId": 271797096
    },
    {
      "index": 20,
      "grpId": 271797096,
      "nextGrpId": 271797097
    },
    {
      "index": 21,
      "grpId": 271797097,
      "nextGrpId": 271797098
    },
    {
      "index": 22,
      "grpId": 271797098,
      "nextGrpId": 271797100
    },
    {
      "index": 23,
      "grpId": 271797099,
      "nextGrpId": 271797100
    },
    {
      "index": 24,
      "grpId": 271797100,
      "nextGrpId": 271797101
    },
    {
      "index": 25,
      "grpId": 271797101,
      "nextGrpId": 271797102
    },
    {
      "index": 26,
      "grpId": 271797102,
      "nextGrpId": 271797103
    },
    {
      "index": 27,
      "grpId": 271797103,
      "nextGrpId": 271797104
    },
    {
      "index": 28,
      "grpId": 271797104,
      "nextGrpId": 271797126
    },
    {
      "index": 29,
      "grpId": 271797126,
      "nextGrpId": 271797127
    },
    {
      "index": 30,
      "grpId": 271797127,
      "nextGrpId": 271797128
    },
    {
      "index": 31,
      "grpId": 271797128,
      "nextGrpId": 271797129
    },
    {
      "index": 32,
      "grpId": 271797129,
      "nextGrpId": 271797130
    },
    {
      "index": 33,
      "grpId": 271797130,
      "nextGrpId": 271797131
    },
    {
      "index": 34,
      "grpId": 271797131,
      "nextGrpId": 271797132
    },
    {
      "index": 35,
      "grpId": 271797132,
      "nextGrpId": 271797133
    },
    {
      "index": 36,
      "grpId": 271797133,
      "nextGrpId": 271797134
    },
    {
      "index": 37,
      "grpId": 271797134,
      "nextGrpId": 271797135
    },
    {
      "index": 38,
      "grpId": 271797135,
      "nextGrpId": 271797157
    },
    {
      "index": 39,
      "grpId": 271797157,
      "nextGrpId": 271797158
    },
    {
      "index": 40,
      "grpId": 271797158,
      "nextGrpId": 271797159
    },
    {
      "index": 41,
      "grpId": 271797159,
      "nextGrpId": 271797160
    },
    {
      "index": 42,
      "grpId": 271797160,
      "nextGrpId": 271797161
    },
    {
      "index": 43,
      "grpId": 271797161,
      "nextGrpId": 271797162
    },
    {
      "index": 44,
      "grpId": 271797162,
      "nextGrpId": 271797163
    },
    {
      "index": 45,
      "grpId": 271797163,
      "nextGrpId": 271797164
    },
    {
      "index": 46,
      "grpId": 271797164,
      "nextGrpId": 271797165
    },
    {
      "index": 47,
      "grpId": 271797165,
      "nextGrpId": 271797166
    },
    {
      "index": 48,
      "grpId": 271797166,
      "nextGrpId": 271797188
    },
    {
      "index": 49,
      "grpId": 271797188,
      "nextGrpId": 271797189
    },
    {
      "index": 50,
      "grpId": 271797189,
      "nextGrpId": 271797190
    },
    {
      "index": 51,
      "grpId": 271797190,
      "nextGrpId": 271797191
    },
    {
      "index": 52,
      "grpId": 271797191,
      "nextGrpId": 271797192
    },
    {
      "index": 53,
      "grpId": 271797192,
      "nextGrpId": 271797193
    },
    {
      "index": 54,
      "grpId": 271797193,
      "nextGrpId": 271797194
    },
    {
      "index": 55,
      "grpId": 271797194,
      "nextGrpId": 271797195
    },
    {
      "index": 56,
      "grpId": 271797195,
      "nextGrpId": 271797196
    },
    {
      "index": 57,
      "grpId": 271797196,
      "nextGrpId": 271797197
    },
    {
      "index": 58,
      "grpId": 271797197,
      "nextGrpId": 271797219
    }
  ],
  "freeStyleDic": {
    "20653": [
      1090,
      1020
    ]
  }
}