{
  "luaDataPath": "",
  "entityBan": "",
  "disableNpcLod": true,
  "isAutoBanNpc": true,
  "isBanWidgetPet": true,
  "protectNpcMobileLod": true,
  "startFade": {
    "startFadeOutDuration": 0.0
  },
  "endFade": {
    "startFadeOutDuration": 0.0
  },
  "actors": [
    {
      "alias": "Avatar",
      "visible": true,
      "bornPointName": "",
      "relativePosType": "AVATAR_NEW",
      "relativePosNpcAlias": "",
      "_bindMovingTargetKey": ""
    },
    {
      "configID": 20576,
      "alias": "20576",
      "visible": true,
      "bornPointName": "",
      "relativePosType": "AVATAR_NEW",
      "relativePosNpcAlias": "",
      "_bindMovingTargetKey": ""
    },
    {
      "configID": 1005,
      "alias": "1005",
      "visible": true,
      "bornPointName": "",
      "useRelativePos": true,
      "relativePos": {
        "x": 0.5,
        "z": 0.5
      },
      "removeActorType": "REMOVE_WITH_DISAPPEAR",
      "relativePosType": "AVATAR_NEW",
      "relativePosNpcAlias": "",
      "_bindMovingTargetKey": ""
    }
  ],
  "group": [
    [
      {
        "$type": "EFHODGEJOHJ",
        "type": "CAMERA_MOVE",
        "duration": 1.0,
        "actionId": 145,
        "camPosOffset": {
          "x": -168.55299377441406,
          "y": 230.95399475097656,
          "z": 2292.7041015625
        },
        "camForwardTargetOffset": {
          "x": -169.0989990234375,
          "y": 230.92799377441406,
          "z": 2291.866943359375
        },
        "camFov": 30.0,
        "lerpPattern": 6,
        "cameraBlendType": "EaseInOutCubic",
        "MDKBPBJCMHH": {},
        "needZAxisRotate": true,
        "rotateAngle": 1.003999948501587,
        "openCameraDither": false,
        "targetNpcAlias": "",
        "closeTreeLeafDither": true,
        "PHGBNNGCJKJ": "",
        "NFILMKCFHEB": "",
        "BGPNGHDAECF": ""
      },
      {
        "$type": "NPCNMEOCADD",
        "type": "LOOK_AT",
        "aliasList": [
          "1005"
        ],
        "actionId": 144,
        "enableHead": true,
        "useTargetPos": true,
        "enableAbsolute": true,
        "targetPosition": {
          "x": -169.4530029296875,
          "y": 230.98300170898438,
          "z": 2290.93310546875
        },
        "headTurnTime": 0.5,
        "targetNpcAlias": "",
        "lookAtTargetType": "NONE",
        "openBackProtect": true,
        "targetNpcLookAtPoint": "",
        "BHGPHGNFCBF": ""
      },
      {
        "$type": "EDCHPJLDKIN",
        "type": "BODY_LANG",
        "aliasList": [
          "20576"
        ],
        "actionId": 144,
        "isContinue": true,
        "forceDoFreeStyle": true,
        "canDoRepeatFreeStyle": false,
        "cantBackToIdleWhenSitLoop": true,
        "eventPatternSuiteKey": ""
      },
      {
        "$type": "MoleMole.Config.ConfigSetModelTransform",
        "type": "SET_MODEL_TRANSFORM",
        "aliasList": [
          "20576"
        ],
        "actionId": 143,
        "groudHight": 0.5
      },
      {
        "$type": "MoleMole.Config.ConfigTeleportToAction",
        "type": "TELEPORT_TO",
        "aliasList": [
          "20576"
        ],
        "actionId": 142,
        "position": {
          "x": -169.41000366210938,
          "y": 229.906005859375,
          "z": 2290.89794921875
        },
        "forward": {
          "x": -0.8500000238418579,
          "z": -0.2759999930858612
        },
        "openLongDisTeleport": true,
        "_posBindMovingTargetKey": "",
        "_forwardBindMovingTargetKey": ""
      },
      {
        "$type": "MoleMole.Config.ConfigTeleportToAction",
        "type": "TELEPORT_TO",
        "aliasList": [
          "1005"
        ],
        "actionId": 147,
        "position": {
          "x": -170.88800048828125,
          "y": 229.74600219726562,
          "z": 2289.882080078125
        },
        "forward": {
          "x": 2.0369999408721924,
          "y": 0.39500001072883606,
          "z": 1.3589999675750732
        },
        "openLongDisTeleport": true,
        "_posBindMovingTargetKey": "",
        "_forwardBindMovingTargetKey": ""
      },
      {
        "$type": "MJFAIFFAGOF",
        "type": "DIALOG",
        "aliasList": [
          "20576"
        ],
        "dialogID": 730613702,
        "protectTime": 0.5
      },
      {
        "$type": "NPCNMEOCADD",
        "type": "LOOK_AT",
        "aliasList": [
          "20576"
        ],
        "actionId": 141,
        "enableHead": true,
        "useTargetPos": true,
        "enableAbsolute": true,
        "targetPosition": {
          "x": -170.7469940185547,
          "y": 231.11700439453125,
          "z": 2289.988037109375
        },
        "headTurnTime": 0.5,
        "targetNpcAlias": "",
        "lookAtTargetType": "NONE",
        "openBackProtect": true,
        "targetNpcLookAtPoint": "",
        "BHGPHGNFCBF": ""
      },
      {
        "$type": "NPCNMEOCADD",
        "type": "LOOK_AT",
        "aliasList": [
          "Avatar"
        ],
        "actionId": 120,
        "enableHead": true,
        "useTargetPos": true,
        "enableAbsolute": true,
        "targetPosition": {
          "x": -169.5,
          "y": 230.86700439453125,
          "z": 2291.10498046875
        },
        "headTurnTime": 0.5,
        "targetNpcAlias": "",
        "lookAtTargetType": "NONE",
        "openBackProtect": true,
        "targetNpcLookAtPoint": "",
        "BHGPHGNFCBF": ""
      },
      {
        "$type": "MoleMole.Config.ConfigTeleportToAction",
        "type": "TELEPORT_TO",
        "aliasList": [
          "Avatar"
        ],
        "actionId": 119,
        "position": {
          "x": -171.16299438476562,
          "y": 229.76499938964844,
          "z": 2290.634033203125
        },
        "forward": {
          "x": 0.9240000247955322,
          "y": 0.5009999871253967,
          "z": 0.23899999260902405
        },
        "openLongDisTeleport": true,
        "_posBindMovingTargetKey": "",
        "_forwardBindMovingTargetKey": ""
      },
      {
        "$type": "HGDDIPABPCA",
        "type": "LOOK_AT_EYECTRL",
        "aliasList": [
          "Avatar"
        ],
        "actionId": 153,
        "useTargetPos": false,
        "eyeRotateVecLeft": {
          "y": 5.0
        },
        "eyeRotateVecRight": {
          "y": -5.0
        },
        "turnTime": 1.0,
        "targetNpcAlias": "",
        "targetPoint": "Face"
      },
      {
        "$type": "MoleMole.Config.ConfigSetModelTransform",
        "type": "SET_MODEL_TRANSFORM",
        "aliasList": [
          "1005"
        ],
        "actionId": 172,
        "groudHight": 0.5
      },
      {
        "$type": "EFHODGEJOHJ",
        "type": "CAMERA_MOVE",
        "delayTime": 0.10000000149011612,
        "duration": 3.1670000553131104,
        "actionId": 156,
        "camPosOffset": {
          "x": -168.66099548339844,
          "y": 230.95599365234375,
          "z": 2292.77392578125
        },
        "camForwardTargetOffset": {
          "x": -169.20700073242188,
          "y": 230.92999267578125,
          "z": 2291.93603515625
        },
        "camFov": 30.0,
        "cameraBlendType": "EaseOutQuad",
        "MDKBPBJCMHH": {},
        "needZAxisRotate": true,
        "rotateAngle": 1.003999948501587,
        "openCameraDither": false,
        "targetNpcAlias": "",
        "closeTreeLeafDither": true,
        "PHGBNNGCJKJ": "",
        "NFILMKCFHEB": "",
        "BGPNGHDAECF": ""
      },
      {
        "$type": "EDCHPJLDKIN",
        "type": "BODY_LANG",
        "delayTime": 0.3240000009536743,
        "aliasList": [
          "20576"
        ],
        "actionId": 147,
        "bodyLangParam": 6070,
        "forceDoFreeStyle": true,
        "canDoRepeatFreeStyle": false,
        "cantBackToIdleWhenSitLoop": true,
        "eventPatternSuiteKey": ""
      },
      {
        "$type": "EDCHPJLDKIN",
        "type": "BODY_LANG",
        "delayTime": 0.4009999930858612,
        "aliasList": [
          "Avatar"
        ],
        "actionId": 151,
        "bodyLangParam": 1230,
        "forceDoFreeStyle": true,
        "canDoRepeatFreeStyle": false,
        "cantBackToIdleWhenSitLoop": true,
        "eventPatternSuiteKey": ""
      },
      {
        "$type": "ICHLNKHGCAG",
        "type": "EMO_SYNC",
        "delayTime": 0.4309999942779541,
        "aliasList": [
          "Avatar"
        ],
        "actionId": 152,
        "dataPath": "",
        "phonemePath": "Cs_Emo_Avatar_Common/Cs_Emo_Avatar_Angry02",
        "emotionPath": "Cs_Emo_Avatar_Common/Cs_Emo_Avatar_Angry01_B",
        "mateDataPath": "",
        "matePhonemePath": "",
        "mateEmotionPath": "",
        "phonemePathHashList": [
          9079369598195085523,
          12257893830083629476,
          17312525641519871385,
          8522458870559476085
        ],
        "emotionPathHashList": [
          12827270931485377071,
          477271327041930928,
          15631992893087520179,
          3915791412555494663
        ],
        "PACNIGOOENN": "",
        "PIBDNPHIAGC": ""
      },
      {
        "$type": "EDCHPJLDKIN",
        "type": "BODY_LANG",
        "delayTime": 3.256999969482422,
        "aliasList": [
          "20576"
        ],
        "actionId": 155,
        "isContinue": true,
        "forceDoFreeStyle": true,
        "canDoRepeatFreeStyle": false,
        "cantBackToIdleWhenSitLoop": true,
        "eventPatternSuiteKey": ""
      }
    ],
    [
      {
        "$type": "EFHODGEJOHJ",
        "type": "CAMERA_MOVE",
        "duration": 1.0,
        "actionId": 154,
        "camPosOffset": {
          "x": -173.23500061035156,
          "y": 231.5019989013672,
          "z": 2291.55810546875
        },
        "camForwardTargetOffset": {
          "x": -172.3159942626953,
          "y": 231.26800537109375,
          "z": 2291.241943359375
        },
        "camFov": 30.0,
        "lerpPattern": 6,
        "cameraBlendType": "EaseInOutCubic",
        "MDKBPBJCMHH": {},
        "needZAxisRotate": true,
        "rotateAngle": 1.031999945640564,
        "openCameraDither": false,
        "targetNpcAlias": "",
        "closeTreeLeafDither": true,
        "PHGBNNGCJKJ": "",
        "NFILMKCFHEB": "",
        "BGPNGHDAECF": ""
      },
      {
        "$type": "MJFAIFFAGOF",
        "type": "DIALOG",
        "aliasList": [
          "20576"
        ],
        "dialogID": 730613703,
        "protectTime": 0.5
      },
      {
        "$type": "EDCHPJLDKIN",
        "type": "BODY_LANG",
        "aliasList": [
          "20576"
        ],
        "actionId": 157,
        "bodyLangParam": 6060,
        "forceDoFreeStyle": true,
        "canDoRepeatFreeStyle": false,
        "cantBackToIdleWhenSitLoop": true,
        "eventPatternSuiteKey": ""
      },
      {
        "$type": "EFHODGEJOHJ",
        "type": "CAMERA_MOVE",
        "delayTime": 0.10000000149011612,
        "duration": 2.0369999408721924,
        "actionId": 158,
        "camPosOffset": {
          "x": -173.03900146484375,
          "y": 231.45199584960938,
          "z": 2291.489990234375
        },
        "camForwardTargetOffset": {
          "x": -172.1199951171875,
          "y": 231.218994140625,
          "z": 2291.173095703125
        },
        "camFov": 30.0,
        "cameraBlendType": "EaseOutQuad",
        "MDKBPBJCMHH": {},
        "needZAxisRotate": true,
        "rotateAngle": 1.031999945640564,
        "openCameraDither": false,
        "targetNpcAlias": "",
        "closeTreeLeafDither": true,
        "PHGBNNGCJKJ": "",
        "NFILMKCFHEB": "",
        "BGPNGHDAECF": ""
      }
    ],
    [
      {
        "$type": "EFHODGEJOHJ",
        "type": "CAMERA_MOVE",
        "duration": 1.0,
        "actionId": 159,
        "camPosOffset": {
          "x": -168.59500122070312,
          "y": 231.20399475097656,
          "z": 2292.27587890625
        },
        "camForwardTargetOffset": {
          "x": -169.24899291992188,
          "y": 231.10899353027344,
          "z": 2291.52587890625
        },
        "camFov": 30.0,
        "lerpPattern": 6,
        "cameraBlendType": "EaseInOutCubic",
        "MDKBPBJCMHH": {},
        "needZAxisRotate": true,
        "rotateAngle": 1.0080000162124634,
        "openCameraDither": false,
        "targetNpcAlias": "",
        "closeTreeLeafDither": true,
        "PHGBNNGCJKJ": "",
        "NFILMKCFHEB": "",
        "BGPNGHDAECF": ""
      },
      {
        "$type": "EDCHPJLDKIN",
        "type": "BODY_LANG",
        "aliasList": [
          "Avatar"
        ],
        "actionId": 163,
        "isContinue": true,
        "forceDoFreeStyle": true,
        "canDoRepeatFreeStyle": false,
        "cantBackToIdleWhenSitLoop": true,
        "eventPatternSuiteKey": ""
      },
      {
        "$type": "MJFAIFFAGOF",
        "type": "DIALOG",
        "aliasList": [
          "1005"
        ],
        "dialogID": 730613704,
        "protectTime": 0.5
      },
      {
        "$type": "EDCHPJLDKIN",
        "type": "BODY_LANG",
        "aliasList": [
          "1005"
        ],
        "actionId": 161,
        "bodyLangParam": 1250,
        "forceDoFreeStyle": true,
        "canDoRepeatFreeStyle": false,
        "cantBackToIdleWhenSitLoop": true,
        "eventPatternSuiteKey": ""
      },
      {
        "$type": "ICHLNKHGCAG",
        "type": "EMO_SYNC",
        "delayTime": 0.32100000977516174,
        "aliasList": [
          "1005"
        ],
        "actionId": 162,
        "dataPath": "",
        "phonemePath": "Cs_Emo_Pet_Common/Cs_Emo_Paimon_Smile01",
        "emotionPath": "Cs_Emo_Pet_Common/Cs_Emo_Paimon_Normal02_B",
        "mateDataPath": "",
        "matePhonemePath": "",
        "mateEmotionPath": "",
        "phonemePathHashList": [
          14444568113189515118,
          6334906583242748066,
          8352861918685421043,
          6062231986990823827
        ],
        "emotionPathHashList": [
          8193175980003048155,
          1264945116173066023,
          9863698042095554948,
          6125281388361076342
        ],
        "PACNIGOOENN": "",
        "PIBDNPHIAGC": ""
      },
      {
        "$type": "ICHLNKHGCAG",
        "type": "EMO_SYNC",
        "delayTime": 0.4009999930858612,
        "aliasList": [
          "Avatar"
        ],
        "actionId": 166,
        "dataPath": "",
        "phonemePath": "Cs_Emo_Avatar_Common/Cs_Emo_Avatar_Smile01",
        "emotionPath": "Cs_Emo_Avatar_Common/Cs_Emo_Avatar_Normal02_B",
        "mateDataPath": "",
        "matePhonemePath": "",
        "mateEmotionPath": "",
        "phonemePathHashList": [
          10690861126541730163,
          10307265193832958374,
          9401534900849971975,
          18440618347769519338
        ],
        "emotionPathHashList": [
          10207524410485606206,
          783930019878876805,
          5913389397642645946,
          16488022828473814120
        ],
        "PACNIGOOENN": "",
        "PIBDNPHIAGC": ""
      }
    ],
    [
      {
        "$type": "EFHODGEJOHJ",
        "type": "CAMERA_MOVE",
        "duration": 1.0,
        "actionId": 164,
        "camPosOffset": {
          "x": -183.25799560546875,
          "y": 234.6300048828125,
          "z": 2290.431884765625
        },
        "camForwardTargetOffset": {
          "x": -182.33399963378906,
          "y": 234.2760009765625,
          "z": 2290.284912109375
        },
        "camFov": 30.0,
        "lerpPattern": 6,
        "cameraBlendType": "EaseInOutCubic",
        "MDKBPBJCMHH": {},
        "needZAxisRotate": true,
        "rotateAngle": 0.8149999976158142,
        "openCameraDither": false,
        "targetNpcAlias": "",
        "closeTreeLeafDither": true,
        "PHGBNNGCJKJ": "",
        "NFILMKCFHEB": "",
        "BGPNGHDAECF": ""
      },
      {
        "$type": "MJFAIFFAGOF",
        "type": "DIALOG",
        "aliasList": [
          "20576"
        ],
        "dialogID": 730613705,
        "protectTime": 0.5
      },
      {
        "$type": "EDCHPJLDKIN",
        "type": "BODY_LANG",
        "aliasList": [
          "20576"
        ],
        "actionId": 167,
        "bodyLangParam": 6040,
        "forceDoFreeStyle": true,
        "canDoRepeatFreeStyle": false,
        "cantBackToIdleWhenSitLoop": true,
        "eventPatternSuiteKey": ""
      },
      {
        "$type": "EFHODGEJOHJ",
        "type": "CAMERA_MOVE",
        "delayTime": 0.10000000149011612,
        "duration": 3.996999979019165,
        "actionId": 205,
        "camPosOffset": {
          "x": -183.6529998779297,
          "y": 234.781005859375,
          "z": 2290.493896484375
        },
        "camForwardTargetOffset": {
          "x": -182.72900390625,
          "y": 234.427001953125,
          "z": 2290.346923828125
        },
        "camFov": 30.0,
        "cameraBlendType": "EaseOutQuad",
        "MDKBPBJCMHH": {},
        "needZAxisRotate": true,
        "rotateAngle": 0.8149999976158142,
        "openCameraDither": false,
        "targetNpcAlias": "",
        "closeTreeLeafDither": true,
        "PHGBNNGCJKJ": "",
        "NFILMKCFHEB": "",
        "BGPNGHDAECF": ""
      },
      {
        "$type": "EDCHPJLDKIN",
        "type": "BODY_LANG",
        "delayTime": 2.065999984741211,
        "aliasList": [
          "20576"
        ],
        "actionId": 168,
        "bodyLangParam": 6060,
        "forceDoFreeStyle": true,
        "canDoRepeatFreeStyle": false,
        "cantBackToIdleWhenSitLoop": true,
        "eventPatternSuiteKey": ""
      }
    ],
    [
      {
        "$type": "EFHODGEJOHJ",
        "type": "CAMERA_MOVE",
        "duration": 1.0,
        "actionId": 170,
        "camPosOffset": {
          "x": -168.66700744628906,
          "y": 231.00399780273438,
          "z": 2292.3359375
        },
        "camForwardTargetOffset": {
          "x": -169.36700439453125,
          "y": 230.97500610351562,
          "z": 2291.623046875
        },
        "camFov": 20.0,
        "lerpPattern": 6,
        "cameraBlendType": "EaseInOutCubic",
        "MDKBPBJCMHH": {},
        "needZAxisRotate": true,
        "rotateAngle": 1.003999948501587,
        "openCameraDither": false,
        "targetNpcAlias": "",
        "closeTreeLeafDither": true,
        "PHGBNNGCJKJ": "",
        "NFILMKCFHEB": "",
        "BGPNGHDAECF": ""
      },
      {
        "$type": "EDCHPJLDKIN",
        "type": "BODY_LANG",
        "aliasList": [
          "20576"
        ],
        "actionId": 169,
        "bodyLangParam": 6060,
        "forceDoFreeStyle": true,
        "canDoRepeatFreeStyle": false,
        "cantBackToIdleWhenSitLoop": true,
        "eventPatternSuiteKey": ""
      },
      {
        "$type": "MJFAIFFAGOF",
        "type": "DIALOG",
        "aliasList": [
          "1005"
        ],
        "dialogID": 730613706,
        "protectTime": 0.5
      },
      {
        "$type": "EDCHPJLDKIN",
        "type": "BODY_LANG",
        "aliasList": [
          "1005"
        ],
        "actionId": 174,
        "bodyLangParam": 1180,
        "forceDoFreeStyle": true,
        "canDoRepeatFreeStyle": false,
        "cantBackToIdleWhenSitLoop": true,
        "eventPatternSuiteKey": ""
      },
      {
        "$type": "ICHLNKHGCAG",
        "type": "EMO_SYNC",
        "aliasList": [
          "1005"
        ],
        "actionId": 175,
        "dataPath": "",
        "phonemePath": "Cs_Emo_Pet_Common/Cs_Emo_Paimon_Smile01",
        "emotionPath": "Cs_Emo_Pet_Common/Cs_Emo_Paimon_Normal01_B",
        "mateDataPath": "",
        "matePhonemePath": "",
        "mateEmotionPath": "",
        "phonemePathHashList": [
          14444568113189515118,
          6334906583242748066,
          8352861918685421043,
          6062231986990823827
        ],
        "emotionPathHashList": [
          14892026956990897578,
          7647528750435710781,
          2171559387429051042,
          15358483104891988261
        ],
        "PACNIGOOENN": "",
        "PIBDNPHIAGC": ""
      },
      {
        "$type": "EFHODGEJOHJ",
        "type": "CAMERA_MOVE",
        "delayTime": 0.05299999937415123,
        "duration": 2.3010001182556152,
        "actionId": 173,
        "camPosOffset": {
          "x": -168.5260009765625,
          "y": 231.00999450683594,
          "z": 2292.47998046875
        },
        "camForwardTargetOffset": {
          "x": -169.2259979248047,
          "y": 230.9810028076172,
          "z": 2291.76708984375
        },
        "camFov": 20.0,
        "cameraBlendType": "EaseOutQuad",
        "MDKBPBJCMHH": {},
        "needZAxisRotate": true,
        "rotateAngle": 1.003999948501587,
        "openCameraDither": false,
        "targetNpcAlias": "",
        "closeTreeLeafDither": true,
        "PHGBNNGCJKJ": "",
        "NFILMKCFHEB": "",
        "BGPNGHDAECF": ""
      },
      {
        "$type": "EDCHPJLDKIN",
        "type": "BODY_LANG",
        "delayTime": 2.2690000534057617,
        "aliasList": [
          "1005"
        ],
        "actionId": 176,
        "isContinue": true,
        "forceDoFreeStyle": true,
        "canDoRepeatFreeStyle": false,
        "cantBackToIdleWhenSitLoop": true,
        "eventPatternSuiteKey": ""
      }
    ],
    [
      {
        "$type": "EFHODGEJOHJ",
        "type": "CAMERA_MOVE",
        "duration": 1.0,
        "actionId": 177,
        "camPosOffset": {
          "x": -155.01400756835938,
          "y": 232.5050048828125,
          "z": 2312.409912109375
        },
        "camForwardTargetOffset": {
          "x": -155.59300231933594,
          "y": 232.4499969482422,
          "z": 2311.596923828125
        },
        "camFov": 20.0,
        "lerpPattern": 6,
        "cameraBlendType": "EaseInOutCubic",
        "MDKBPBJCMHH": {},
        "needZAxisRotate": true,
        "rotateAngle": 0.7639999985694885,
        "openCameraDither": false,
        "targetNpcAlias": "",
        "closeTreeLeafDither": true,
        "PHGBNNGCJKJ": "",
        "NFILMKCFHEB": "",
        "BGPNGHDAECF": ""
      },
      {
        "$type": "MJFAIFFAGOF",
        "type": "DIALOG",
        "aliasList": [
          "20576"
        ],
        "dialogID": 730613707,
        "protectTime": 0.5
      },
      {
        "$type": "EDCHPJLDKIN",
        "type": "BODY_LANG",
        "aliasList": [
          "20576"
        ],
        "actionId": 179,
        "bodyLangParam": 6030,
        "forceDoFreeStyle": true,
        "canDoRepeatFreeStyle": false,
        "cantBackToIdleWhenSitLoop": true,
        "eventPatternSuiteKey": ""
      },
      {
        "$type": "EFHODGEJOHJ",
        "type": "CAMERA_MOVE",
        "delayTime": 0.10000000149011612,
        "duration": 2.177000045776367,
        "actionId": 203,
        "camPosOffset": {
          "x": -155.5469970703125,
          "y": 232.45399475097656,
          "z": 2311.662109375
        },
        "camForwardTargetOffset": {
          "x": -156.12600708007812,
          "y": 232.3990020751953,
          "z": 2310.84912109375
        },
        "camFov": 20.0,
        "cameraBlendType": "EaseOutQuad",
        "MDKBPBJCMHH": {},
        "needZAxisRotate": true,
        "rotateAngle": 0.7639999985694885,
        "openCameraDither": false,
        "targetNpcAlias": "",
        "closeTreeLeafDither": true,
        "PHGBNNGCJKJ": "",
        "NFILMKCFHEB": "",
        "BGPNGHDAECF": ""
      },
      {
        "$type": "EDCHPJLDKIN",
        "type": "BODY_LANG",
        "delayTime": 2.0269999504089355,
        "aliasList": [
          "20576"
        ],
        "actionId": 180,
        "isContinue": true,
        "forceDoFreeStyle": true,
        "canDoRepeatFreeStyle": false,
        "cantBackToIdleWhenSitLoop": true,
        "eventPatternSuiteKey": ""
      }
    ],
    [
      {
        "$type": "EFHODGEJOHJ",
        "type": "CAMERA_MOVE",
        "duration": 1.0,
        "actionId": 181,
        "camPosOffset": {
          "x": -169.0590057373047,
          "y": 230.71200561523438,
          "z": 2292.5390625
        },
        "camForwardTargetOffset": {
          "x": -169.70700073242188,
          "y": 230.79400634765625,
          "z": 2291.781982421875
        },
        "camFov": 20.0,
        "lerpPattern": 6,
        "cameraBlendType": "EaseInOutCubic",
        "MDKBPBJCMHH": {},
        "needZAxisRotate": true,
        "rotateAngle": 1.0069999694824219,
        "openCameraDither": false,
        "targetNpcAlias": "",
        "closeTreeLeafDither": true,
        "PHGBNNGCJKJ": "",
        "NFILMKCFHEB": "",
        "BGPNGHDAECF": ""
      },
      {
        "$type": "MJFAIFFAGOF",
        "type": "DIALOG",
        "aliasList": [
          "1005"
        ],
        "dialogID": 730613708,
        "protectTime": 0.5
      },
      {
        "$type": "EDCHPJLDKIN",
        "type": "BODY_LANG",
        "aliasList": [
          "1005"
        ],
        "actionId": 182,
        "bodyLangParam": 1230,
        "forceDoFreeStyle": true,
        "canDoRepeatFreeStyle": false,
        "cantBackToIdleWhenSitLoop": true,
        "eventPatternSuiteKey": ""
      },
      {
        "$type": "ICHLNKHGCAG",
        "type": "EMO_SYNC",
        "aliasList": [
          "1005"
        ],
        "actionId": 184,
        "dataPath": "",
        "phonemePath": "Cs_Emo_Pet_Common/Cs_Emo_Paimon_Angry01",
        "emotionPath": "Cs_Emo_Pet_Common/Cs_Emo_Paimon_Angry01_B",
        "mateDataPath": "",
        "matePhonemePath": "",
        "mateEmotionPath": "",
        "phonemePathHashList": [
          8887624181441475292,
          18209086005751125871,
          3291038487434063407,
          2002509548947436691
        ],
        "emotionPathHashList": [
          13881928724929073215,
          7603214701309324592,
          1219334094693683373,
          13358599274641292023
        ],
        "PACNIGOOENN": "",
        "PIBDNPHIAGC": ""
      },
      {
        "$type": "OBCDECFOOBC",
        "type": "DIALOG_SELECT",
        "delayTime": 0.4000000059604645,
        "aliasList": [
          "Avatar"
        ],
        "dialogIDList": [
          730613709,
          730613710
        ],
        "grpIDList": [
          1313611184,
          1313611184
        ],
        "useGrpId": true
      },
      {
        "$type": "EDCHPJLDKIN",
        "type": "BODY_LANG",
        "delayTime": 1.2289999723434448,
        "aliasList": [
          "Avatar"
        ],
        "actionId": 186,
        "bodyLangParam": 1030,
        "forceDoFreeStyle": true,
        "canDoRepeatFreeStyle": false,
        "cantBackToIdleWhenSitLoop": true,
        "eventPatternSuiteKey": ""
      },
      {
        "$type": "ICHLNKHGCAG",
        "type": "EMO_SYNC",
        "delayTime": 1.3179999589920044,
        "aliasList": [
          "Avatar"
        ],
        "actionId": 187,
        "dataPath": "",
        "phonemePath": "Cs_Emo_Avatar_Common/Cs_Emo_Avatar_Smile01",
        "emotionPath": "Cs_Emo_Avatar_Common/Cs_Emo_Avatar_Normal01_B",
        "mateDataPath": "",
        "matePhonemePath": "",
        "mateEmotionPath": "",
        "phonemePathHashList": [
          10690861126541730163,
          10307265193832958374,
          9401534900849971975,
          18440618347769519338
        ],
        "emotionPathHashList": [
          12958401574658666588,
          15474241282904027449,
          9323653209111416134,
          8508374650737503979
        ],
        "PACNIGOOENN": "",
        "PIBDNPHIAGC": ""
      },
      {
        "$type": "EDCHPJLDKIN",
        "type": "BODY_LANG",
        "delayTime": 1.496999979019165,
        "aliasList": [
          "1005"
        ],
        "actionId": 183,
        "bodyLangParam": 1180,
        "forceDoFreeStyle": true,
        "canDoRepeatFreeStyle": false,
        "cantBackToIdleWhenSitLoop": true,
        "eventPatternSuiteKey": ""
      },
      {
        "$type": "ICHLNKHGCAG",
        "type": "EMO_SYNC",
        "delayTime": 1.6410000324249268,
        "aliasList": [
          "1005"
        ],
        "actionId": 185,
        "dataPath": "",
        "phonemePath": "Cs_Emo_Pet_Common/Cs_Emo_Paimon_Smile01",
        "emotionPath": "Cs_Emo_Pet_Common/Cs_Emo_Paimon_Normal02_B",
        "mateDataPath": "",
        "matePhonemePath": "",
        "mateEmotionPath": "",
        "phonemePathHashList": [
          14444568113189515118,
          6334906583242748066,
          8352861918685421043,
          6062231986990823827
        ],
        "emotionPathHashList": [
          8193175980003048155,
          1264945116173066023,
          9863698042095554948,
          6125281388361076342
        ],
        "PACNIGOOENN": "",
        "PIBDNPHIAGC": ""
      }
    ],
    [
      {
        "$type": "EFHODGEJOHJ",
        "type": "CAMERA_MOVE",
        "duration": 1.0,
        "actionId": 190,
        "camPosOffset": {
          "x": -188.89599609375,
          "y": 236.91200256347656,
          "z": 2297.6240234375
        },
        "camForwardTargetOffset": {
          "x": -188.02099609375,
          "y": 236.58099365234375,
          "z": 2297.27001953125
        },
        "camFov": 20.0,
        "lerpPattern": 6,
        "cameraBlendType": "EaseInOutCubic",
        "MDKBPBJCMHH": {},
        "needZAxisRotate": true,
        "rotateAngle": 1.062999963760376,
        "openCameraDither": false,
        "targetNpcAlias": "",
        "closeTreeLeafDither": true,
        "PHGBNNGCJKJ": "",
        "NFILMKCFHEB": "",
        "BGPNGHDAECF": ""
      },
      {
        "$type": "ICHLNKHGCAG",
        "type": "EMO_SYNC",
        "aliasList": [
          "Avatar"
        ],
        "actionId": 189,
        "dataPath": "",
        "phonemePath": "Cs_Emo_Avatar_Common/Cs_Emo_Avatar_Smile01",
        "emotionPath": "Cs_Emo_Avatar_Common/Cs_Emo_Avatar_Normal01_B",
        "mateDataPath": "",
        "matePhonemePath": "",
        "mateEmotionPath": "",
        "phonemePathHashList": [
          10690861126541730163,
          10307265193832958374,
          9401534900849971975,
          18440618347769519338
        ],
        "emotionPathHashList": [
          12958401574658666588,
          15474241282904027449,
          9323653209111416134,
          8508374650737503979
        ],
        "PACNIGOOENN": "",
        "PIBDNPHIAGC": ""
      },
      {
        "$type": "EDCHPJLDKIN",
        "type": "BODY_LANG",
        "aliasList": [
          "Avatar"
        ],
        "actionId": 192,
        "isContinue": true,
        "forceDoFreeStyle": true,
        "canDoRepeatFreeStyle": false,
        "cantBackToIdleWhenSitLoop": true,
        "eventPatternSuiteKey": ""
      },
      {
        "$type": "MJFAIFFAGOF",
        "type": "DIALOG",
        "aliasList": [
          "20576"
        ],
        "dialogID": 730613711,
        "protectTime": 0.5
      },
      {
        "$type": "EDCHPJLDKIN",
        "type": "BODY_LANG",
        "aliasList": [
          "20576"
        ],
        "actionId": 195,
        "bodyLangParam": 8010,
        "forceDoFreeStyle": true,
        "canDoRepeatFreeStyle": false,
        "cantBackToIdleWhenSitLoop": true,
        "eventPatternSuiteKey": ""
      },
      {
        "$type": "EDCHPJLDKIN",
        "type": "BODY_LANG",
        "aliasList": [
          "1005"
        ],
        "actionId": 200,
        "isContinue": true,
        "forceDoFreeStyle": true,
        "canDoRepeatFreeStyle": false,
        "cantBackToIdleWhenSitLoop": true,
        "eventPatternSuiteKey": ""
      },
      {
        "$type": "EFHODGEJOHJ",
        "type": "CAMERA_MOVE",
        "delayTime": 0.10000000149011612,
        "duration": 4.15500020980835,
        "actionId": 204,
        "camPosOffset": {
          "x": -189.01100158691406,
          "y": 236.91700744628906,
          "z": 2297.3330078125
        },
        "camForwardTargetOffset": {
          "x": -188.13600158691406,
          "y": 236.58599853515625,
          "z": 2296.97900390625
        },
        "camFov": 20.0,
        "cameraBlendType": "EaseOutQuad",
        "MDKBPBJCMHH": {},
        "needZAxisRotate": true,
        "rotateAngle": 1.062999963760376,
        "openCameraDither": false,
        "targetNpcAlias": "",
        "closeTreeLeafDither": true,
        "PHGBNNGCJKJ": "",
        "NFILMKCFHEB": "",
        "BGPNGHDAECF": ""
      },
      {
        "$type": "EDCHPJLDKIN",
        "type": "BODY_LANG",
        "delayTime": 2.322000026702881,
        "aliasList": [
          "20576"
        ],
        "actionId": 196,
        "isContinue": true,
        "forceDoFreeStyle": true,
        "canDoRepeatFreeStyle": false,
        "cantBackToIdleWhenSitLoop": true,
        "eventPatternSuiteKey": ""
      }
    ],
    [
      {
        "$type": "MoleMole.Config.ConfigSimpleBlackScreenAction",
        "type": "SIMPLE_BLACK_SCREEN",
        "durationToBlack": 0.5,
        "durationKeepBlack": 1.0,
        "durationFromBlack": 0.5,
        "textMapID": ""
      },
      {
        "$type": "MoleMole.Config.ConfigTimeProtectAction",
        "type": "TIME_PROTECT",
        "duration": 0.699999988079071
      },
      {
        "$type": "EDCHPJLDKIN",
        "type": "BODY_LANG",
        "aliasList": [
          "20576"
        ],
        "actionId": 197,
        "isContinue": true,
        "forceDoFreeStyle": true,
        "canDoRepeatFreeStyle": false,
        "cantBackToIdleWhenSitLoop": true,
        "eventPatternSuiteKey": ""
      },
      {
        "$type": "EFHODGEJOHJ",
        "type": "CAMERA_MOVE",
        "delayTime": 0.6000000238418579,
        "duration": 0.10000000149011612,
        "actionId": 202,
        "camPosOffset": {
          "x": -173.63499450683594,
          "y": 230.802001953125,
          "z": 2290.2490234375
        },
        "camForwardTargetOffset": {
          "x": -172.6510009765625,
          "y": 230.71299743652344,
          "z": 2290.402099609375
        },
        "lerpPattern": 6,
        "cameraBlendType": "EaseInOutCubic",
        "MDKBPBJCMHH": {},
        "needZAxisRotate": true,
        "rotateAngle": 1.0069999694824219,
        "openCameraDither": false,
        "targetNpcAlias": "",
        "closeTreeLeafDither": true,
        "PHGBNNGCJKJ": "",
        "NFILMKCFHEB": "",
        "BGPNGHDAECF": ""
      }
    ]
  ],
  "groupId": [
    {
      "grpId": 1313611177,
      "nextGrpId": 1313611178
    },
    {
      "index": 1,
      "grpId": 1313611178,
      "nextGrpId": 1313611179
    },
    {
      "index": 2,
      "grpId": 1313611179,
      "nextGrpId": 1313611180
    },
    {
      "index": 3,
      "grpId": 1313611180,
      "nextGrpId": 1313611181
    },
    {
      "index": 4,
      "grpId": 1313611181,
      "nextGrpId": 1313611182
    },
    {
      "index": 5,
      "grpId": 1313611182,
      "nextGrpId": 1313611183
    },
    {
      "index": 6,
      "grpId": 1313611183,
      "nextGrpId": 1313611184
    },
    {
      "index": 7,
      "grpId": 1313611184,
      "nextGrpId": 1313611185
    },
    {
      "index": 8,
      "grpId": 1313611185,
      "nextGrpId": 2067240871
    }
  ],
  "freeStyleDic": {
    "20576": [
      6070,
      6060,
      6040,
      6030,
      8010
    ]
  }
}