{
  "common": {
    "effectAttachShape": {
      "$type": "DPGKNHENGLM",
      "DDDEJPIFECG": "EffectMesh"
    },
    "mass": 80.0,
    "height": 0.6000000238418579,
    "affectedByWorld": true,
    "checkInSurface": true,
    "scale": 1.2999999523162842,
    "clearAIOnSetLightDeactive": true,
    "BKPPECPBMBF": true,
    "LOGFKHMLOOL": true
  },
  "model": {
    "bornEffect": "",
    "attachEffect": "",
    "canBakeMesh": false
  },
  "dither": {
    "showDitherDuration": 2.0
  },
  "globalValue": {
    "serverGlobalValues": [
      "SGV_Fungus_StartBurst_Immediately"
    ],
    "initServerGlobalValues": {
      "SGV_Fungus_StartBurst_Immediately": 0.0
    }
  },
  "combat": {
    "property": {
      "endureType": "Monster_Fungus_Battle",
      "weight": 75.0
    },
    "beHit": {
      "hitBloodEffect": ""
    },
    "combatLock": {
      "lockShape": "CircleLockEnemy",
      "lockType": "Avatar&Monster_Lv4"
    },
    "die": {
      "hasAnimatorDie": true,
      "dieEndTime": 0.5,
      "dieForceDisappearTime": 1.5,
      "dieDisappearEffect": "Eff_Death_Common",
      "dieShaderData": "MonsterDie",
      "muteHitBox": true,
      "dieDenyLockOn": true,
      "dieIsGhostToEnemy": true,
      "dieIgnoreTriggerBullet": true,
      "muteBillboard": true,
      "mutePushCollider": true
    },
    "animEvents": {
      "AE_MeleeAttack": {
        "attackPattern": {
          "$type": "AGJFCPDIMCK",
          "triggerType": "TriggerNoRepeat",
          "height": 1.2000000476837158,
          "LOACHGCADCO": 3.5999999046325684
        },
        "attackInfo": {
          "attackTag": "",
          "attenuationTag": "AE_MeleeAttack",
          "attenuationGroup": "FungusFightV2_Seq1",
          "attackProperty": {
            "HOGNHNAHNML": 1.5,
            "BAPILBAGBOJ": 0.0,
            "elementType": "Ice",
            "bonusCriticalHurt": 25.0,
            "damagePercentage": 0.0
          },
          "hitPattern": {
            "onHitEffectName": "default",
            "hitImpulseType": "LV2"
          }
        }
      }
    }
  },
  "abilities": [
    {
      "abilityID": "",
      "abilityName": "Affix_FungusFighterV2_Fungus_ElemMastery",
      "abilityOverride": ""
    },
    {
      "abilityID": "",
      "abilityName": "Fungus_BVB_Universal_ElementalBlast_Immediately",
      "abilityOverride": ""
    },
    {
      "abilityID": "",
      "abilityName": "FungusFighter_Universal_LineMixin",
      "abilityOverride": ""
    },
    {
      "abilityID": "",
      "abilityName": "Fungus_BVB_Un_Water_Bubble_Reject",
      "abilityOverride": ""
    },
    {
      "abilityID": "",
      "abilityName": "Monster_Fungus_Trois_RotationVFX",
      "abilityOverride": ""
    },
    {
      "abilityID": "",
      "abilityName": "Fungus_Trois_BVB_Ice_Blizzard",
      "abilityOverride": ""
    },
    {
      "abilityID": "",
      "abilityName": "Fungus_Trois_BVB_Ice_Passive",
      "abilityOverride": ""
    },
    {
      "abilityID": "",
      "abilityName": "FungusFight_V3_Level3InuDisappear_Adapter",
      "abilityOverride": ""
    }
  ],
  "stateLayers": {
    "defaultLayer": {
      "$type": "EPAPJJAGHKG",
      "ACOCIAFGIAD": "",
      "stateIDs": {
        "Born": {
          "$type": "IJOIMFMEGMM",
          "DLOHGBDFFGB": {
            "Born": []
          },
          "DLAOMOCMANL": [
            "DoSkill"
          ]
        },
        "NormalIdle": {
          "$type": "IJOIMFMEGMM",
          "DLOHGBDFFGB": {
            "StandbyFree": [],
            "Standby": []
          },
          "POLKCLOHPOO": true,
          "PGKCBIHGAOC": true,
          "DLAOMOCMANL": [
            "DoSkill"
          ],
          "LIPMJPLGIKD": true,
          "HMPOMAMKBEF": true
        },
        "NormalMove": {
          "$type": "IJOIMFMEGMM",
          "DLOHGBDFFGB": {
            "WalkForward": [],
            "WalkBack": [],
            "WalkLeft": [],
            "WalkRight": []
          },
          "POLKCLOHPOO": true,
          "PGKCBIHGAOC": true,
          "DLAOMOCMANL": [
            "DoSkill"
          ],
          "LIPMJPLGIKD": true
        },
        "BeHit": {
          "$type": "IJOIMFMEGMM",
          "DLOHGBDFFGB": {
            "Hit_L": [
              "Audio_Monster_Fungus_Trois_HitThrow"
            ],
            "Hit_H": [
              "Audio_Monster_Fungus_Trois_HitThrow"
            ]
          },
          "AJBLILDCLBO": [
            "BeHit"
          ],
          "DLAOMOCMANL": [
            "DoSkill"
          ],
          "PBAOEAEEBNB": [
            {
              "name": "CantMove",
              "normalizeEnd": 0.5
            }
          ],
          "OOPPLFOAOGN": true
        },
        "BeHitThrowAir": {
          "$type": "IJOIMFMEGMM",
          "DLOHGBDFFGB": {
            "HitThrow": [
              "Audio_Monster_Fungus_Trois_HitThrow"
            ],
            "HitThrowDrop": []
          },
          "AJBLILDCLBO": [
            "BeHit",
            "HitAir2HitDrop"
          ],
          "DLAOMOCMANL": [
            "DoSkill"
          ],
          "PBAOEAEEBNB": [
            {
              "name": "BurstUnavailable"
            },
            {
              "name": "CantMove"
            }
          ]
        },
        "BeHitThrow": {
          "$type": "IJOIMFMEGMM",
          "DLOHGBDFFGB": {
            "HitThrowToGround": [
              "Monster_Fungus_Trois_Gamma_Fire_HitThrowToGround",
              "Audio_Monster_Fungus_Trois_HitThrowToGround"
            ]
          },
          "DLAOMOCMANL": [
            "DoSkill"
          ],
          "PBAOEAEEBNB": [
            {
              "name": "CantMove",
              "normalizeEnd": 0.4399999976158142
            }
          ]
        },
        "Struggle": {
          "$type": "IJOIMFMEGMM",
          "DLOHGBDFFGB": {
            "Struggle": []
          },
          "AJBLILDCLBO": [
            "BeHit",
            "HitAir2HitDrop"
          ],
          "DLAOMOCMANL": [
            "DoSkill"
          ],
          "PBAOEAEEBNB": [
            {
              "name": "BurstUnavailable"
            }
          ]
        },
        "Die": {
          "$type": "IJOIMFMEGMM",
          "DLOHGBDFFGB": {
            "Die_BS": [
              "Audio_Monster_Fungus_Trois_Die"
            ],
            "Die": [
              "Monster_Fungus_Trois_Die"
            ],
            "AirDie": [
              "Monster_Fungus_Trois_Die"
            ],
            "SwimDie_BS": [],
            "SwimDie": [
              "Monster_Fungus_Trois_Die"
            ]
          }
        },
        "Warning": {
          "$type": "IJOIMFMEGMM",
          "DLOHGBDFFGB": {
            "Warning": [
              "Audio_Monster_Fungus_Trois_Warning"
            ]
          },
          "PGKCBIHGAOC": true,
          "DLAOMOCMANL": [
            "BeHit",
            "DoSkill"
          ],
          "LIPMJPLGIKD": true
        },
        "ReturnToBorn": {
          "$type": "IJOIMFMEGMM",
          "DLOHGBDFFGB": {
            "ReturnToBorn_BS": [
              "Monster_Fungus_Trois_ReturnToBorn_BS",
              "Audio_Monster_Fungus_Trois_ReturnToBorn_BS"
            ],
            "ReturnToBorn_Loop": [],
            "ReturnToBorn_AS": [
              "Monster_Fungus_Trois_ReturnToBorn_AS",
              "Audio_Monster_Fungus_Trois_ReturnToBorn_AS"
            ]
          },
          "LAKHIBAPNAB": true,
          "DLAOMOCMANL": [
            "BeHit",
            "DoSkill"
          ]
        },
        "NormalAttack": {
          "$type": "IJOIMFMEGMM",
          "DLOHGBDFFGB": {
            "MeleeAttack": [
              "Monster_Fungus_Trois_Ice_Melee",
              "Audio_Monster_Fungus_Activity_Trois_Ice_MeleeAttack"
            ]
          },
          "OGNDLAMHMPB": 0.5,
          "DLAOMOCMANL": [
            "BeHit",
            "DoSkill"
          ]
        },
        "UnionBurst": {
          "$type": "IJOIMFMEGMM",
          "DLOHGBDFFGB": {
            "IceShield": [
              "Monster_Fungus_Trois_Ice_Blizzard",
              "Audio_Monster_Fungus_Activity_Trois_Ice_IceShield"
            ]
          },
          "OGNDLAMHMPB": 0.0,
          "DLAOMOCMANL": [
            "BeHit",
            "DoSkill"
          ]
        }
      }
    }
  },
  "billboard": {
    "$type": "PAOBAEKGGBC",
    "attachPoint": "BillboardAttach",
    "offset": {
      "y": 0.5
    },
    "LOMMBJLKPHE": 1.0,
    "FMJAGHIMLEI": true,
    "showDistance": 100.0,
    "CCFHLFLEJDN": true,
    "KGHAGECNJPO": true
  },
  "initialPoses": {
    "Default": {}
  },
  "aibeta": {
    "enable": true,
    "moveSetting": {
      "navMeshAgentName": "Undead01"
    },
    "sensing": {
      "settings": {
        "DefaultSetting": {
          "viewRange": 22.0,
          "feelRange": 30.0
        },
        "NoSensing": {
          "enableVision": false,
          "hearAttractionRange": 0.0,
          "feelRange": 0.0
        }
      },
      "templates": {
        "DefaultTemplate": {
          "DefaultPoses": "DefaultSetting"
        },
        "NoSensing": {
          "DefaultPoses": "NoSensing"
        }
      }
    },
    "neurons": {
      "DefaultSetting": [
        "HIT"
      ],
      "NeverCombat": []
    },
    "threat": {
      "clearThreatTargetDistance": 30.0,
      "clearThreatEdgeDistance": 5.0,
      "clearThreatTimerByDistance": 2.0,
      "viewAttenuation": [
        {
          "x": 12.0,
          "y": 1.0
        },
        {
          "x": 20.0,
          "y": 0.5
        }
      ],
      "JGFOPCOIJOI": "",
      "targetDistanceScoreSystem": {
        "weight": 100,
        "value": 8.0,
        "max": 30.0,
        "enable": true
      }
    },
    "defendArea": {
      "defendRange": 50.0
    },
    "scriptedMoveToTactic": {
      "enable": true
    },
    "profiling": {
      "lodStrategy": "Best"
    },
    "skills": {
      "201": {
        "name": "NormalAttack",
        "castCondition": {
          "pose": [
            1001,
            1002
          ],
          "pickRangeMax": 3.6500000953674316
        },
        "cd": 3.0,
        "publicCDGroup": "",
        "triggerCDOnStart": true,
        "HGAMDGAEIGO": "",
        "stateIDs": [
          "NormalAttack"
        ],
        "flagTargetReachable": "10",
        "flagSelfOnTemplateCollider": "01",
        "flagSelfInZone": "11",
        "flagTargetInZone": "11"
      },
      "401": {
        "name": "UnionBurst",
        "castCondition": {
          "pose": [
            233
          ]
        },
        "publicCDGroup": "",
        "HGAMDGAEIGO": "",
        "stateIDs": [
          "UnionBurst"
        ],
        "flagTargetReachable": "10",
        "flagSelfOnTemplateCollider": "01",
        "flagSelfInZone": "10",
        "flagTargetInZone": "11"
      }
    },
    "skillGCD": 0.25,
    "target": {
      "defaultTargetPrioritys": [
        "COMMAND",
        "POINT",
        "THREAT"
      ]
    },
    "combatFixedMoveTactic": [
      {
        "$type": "BNAGECKMCIB",
        "enable": true,
        "FJANPNOAAFK": {
          "pose": [
            1001,
            1002
          ]
        },
        "LMMKNFEMOMG": {
          "KIHPEPHJMOG": 1,
          "MPEMBMLOEDG": 3.5,
          "JKOGPCLFHCP": 3.5,
          "JOCOJHEICNA": ""
        }
      },
      {
        "$type": "CGEJNPOBJMA",
        "enable": true,
        "LMMKNFEMOMG": {
          "JKOGPCLFHCP": 0.4000000059604645
        }
      }
    ]
  },
  "inputKeys": [
    {
      "keyID": 201,
      "inputKeyCode": 257,
      "abilityName": ""
    },
    {
      "keyID": 401,
      "inputKeyCode": 259,
      "abilityName": ""
    }
  ],
  "move": {
    "$type": "IIGPJJNGCLE",
    "MIPNOGBEANL": "FourDirection",
    "IJMIGIDACLP": "AirBlend3D",
    "BEPOPLDKJOP": "SlimeType",
    "EKMHGNLHCNM": 6.619999885559082,
    "FACNOEFNHIB": "RootNode"
  }
}