{
  "common": {
    "effectAttachShape": {
      "$type": "DPGKNHENGLM",
      "DDDEJPIFECG": "EffectMesh"
    },
    "mass": 40.0,
    "height": 0.8999999761581421,
    "modelHeight": 0.8999999761581421,
    "affectedByWorld": true,
    "checkInSurface": true,
    "scale": 1.2999999523162842,
    "clearAIOnSetLightDeactive": true,
    "BKPPECPBMBF": true,
    "LOGFKHMLOOL": true
  },
  "model": {
    "bornEffect": "",
    "attachEffect": "",
    "canBakeMesh": false
  },
  "dither": {
    "showDitherDuration": 2.0
  },
  "globalValue": {
    "serverGlobalValues": [
      "SGV_Fungus_StartBurst_Immediately"
    ],
    "initServerGlobalValues": {
      "SGV_Fungus_StartBurst_Immediately": 0.0
    }
  },
  "combat": {
    "property": {
      "endureType": "Monster_Fungus_Battle",
      "weight": 75.0
    },
    "beHit": {
      "hitBloodEffect": ""
    },
    "combatLock": {
      "lockShape": "CircleLockEnemy",
      "lockType": "Avatar&Monster_Lv4"
    },
    "die": {
      "hasAnimatorDie": true,
      "dieEndTime": 0.5,
      "dieForceDisappearTime": 1.5,
      "dieDisappearEffect": "Eff_Death_Common",
      "dieShaderData": "MonsterDie",
      "muteHitBox": true,
      "dieDenyLockOn": true,
      "dieIsGhostToEnemy": true,
      "dieIgnoreTriggerBullet": true,
      "muteBillboard": true,
      "mutePushCollider": true
    }
  },
  "abilities": [
    {
      "abilityID": "",
      "abilityName": "Affix_FungusFighterV2_Fungus_ElemMastery",
      "abilityOverride": ""
    },
    {
      "abilityID": "",
      "abilityName": "Fungus_BVB_Universal_ElementalBlast_Immediately",
      "abilityOverride": ""
    },
    {
      "abilityID": "",
      "abilityName": "FungusFighter_Universal_LineMixin",
      "abilityOverride": ""
    },
    {
      "abilityID": "",
      "abilityName": "Fungus_BVB_Un_Water_Bubble_Reject",
      "abilityOverride": ""
    },
    {
      "abilityID": "",
      "abilityName": "Monster_Fungus_Un_FlyStateManager",
      "abilityOverride": ""
    },
    {
      "abilityID": "",
      "abilityName": "Fungus_Un_BVB_Dendro_Bullet_Trigger",
      "abilityOverride": ""
    },
    {
      "abilityID": "",
      "abilityName": "Fungus_Un_BVB_Dendro_LeafBlessing",
      "abilityOverride": ""
    },
    {
      "abilityID": "",
      "abilityName": "Fungus_Un_BVB_Dendro_Bullet_UnionBurstTrigger",
      "abilityOverride": ""
    },
    {
      "abilityID": "",
      "abilityName": "FungusFight_V3_Level3InuDisappear_Adapter",
      "abilityOverride": ""
    }
  ],
  "stateLayers": {
    "defaultLayer": {
      "$type": "EPAPJJAGHKG",
      "ACOCIAFGIAD": "",
      "stateIDs": {
        "Born": {
          "$type": "IJOIMFMEGMM",
          "DLOHGBDFFGB": {
            "Born": []
          },
          "PGKCBIHGAOC": true,
          "DLAOMOCMANL": [
            "DoSkill"
          ]
        },
        "NormalIdle": {
          "$type": "IJOIMFMEGMM",
          "DLOHGBDFFGB": {
            "StandbyFree": [],
            "Standby": []
          },
          "POLKCLOHPOO": true,
          "PGKCBIHGAOC": true,
          "DLAOMOCMANL": [
            "DoSkill"
          ],
          "LIPMJPLGIKD": true,
          "HMPOMAMKBEF": true
        },
        "NormalMove": {
          "$type": "IJOIMFMEGMM",
          "DLOHGBDFFGB": {
            "Walk": [
              "Audio_Monster_Fungus_Un_Gamma_Water_Walk"
            ]
          },
          "POLKCLOHPOO": true,
          "PGKCBIHGAOC": true,
          "DLAOMOCMANL": [
            "DoSkill"
          ],
          "setAnimatorFloat": [
            {
              "name": "FlyMotionHor",
              "normalizeEnd": 0.0
            },
            {
              "name": "FlyMotionVer",
              "normalizeEnd": 0.0
            }
          ],
          "LIPMJPLGIKD": true
        },
        "NormalFly": {
          "$type": "IJOIMFMEGMM",
          "DLOHGBDFFGB": {
            "Fly": []
          },
          "POLKCLOHPOO": true,
          "PGKCBIHGAOC": true,
          "DLAOMOCMANL": [
            "DoSkill"
          ],
          "setAnimatorFloat": [
            {
              "name": "FlyMotionHor",
              "normalizeEnd": 0.0
            },
            {
              "name": "FlyMotionVer",
              "normalizeEnd": 0.0
            }
          ],
          "LIPMJPLGIKD": true,
          "PPKOODEDOFN": "BlendMove3D"
        },
        "BeHit": {
          "$type": "IJOIMFMEGMM",
          "DLOHGBDFFGB": {
            "Hit_H": [
              "Audio_Monster_Fungus_Un_Gamma_Water_Hit"
            ]
          },
          "PGKCBIHGAOC": true,
          "AJBLILDCLBO": [
            "BeHit"
          ],
          "DLAOMOCMANL": [
            "DoSkill"
          ],
          "OOPPLFOAOGN": true
        },
        "BeHitThrowAir": {
          "$type": "IJOIMFMEGMM",
          "DLOHGBDFFGB": {
            "HitThrow": [
              "Audio_Monster_Fungus_Un_Gamma_Water_Hit"
            ],
            "HitThrowDrop": []
          },
          "AJBLILDCLBO": [
            "BeHit",
            "HitAir2HitDrop"
          ],
          "DLAOMOCMANL": [
            "DoSkill"
          ],
          "PBAOEAEEBNB": [
            {
              "name": "BurstUnavailable"
            }
          ],
          "JHAJFOOGLBA": true
        },
        "BeHitThrow": {
          "$type": "IJOIMFMEGMM",
          "DLOHGBDFFGB": {
            "HitThrowToGround": [
              "Monster_Fungus_Un_Gamma_Water_HitThrowToGround",
              "Audio_Monster_Fungus_Un_Gamma_Water_HitToGround"
            ]
          },
          "DLAOMOCMANL": [
            "DoSkill"
          ],
          "JHAJFOOGLBA": true
        },
        "Struggle": {
          "$type": "IJOIMFMEGMM",
          "DLOHGBDFFGB": {
            "Struggle": []
          },
          "AJBLILDCLBO": [
            "BeHit",
            "HitAir2HitDrop"
          ],
          "DLAOMOCMANL": [
            "DoSkill"
          ],
          "PBAOEAEEBNB": [
            {
              "name": "BurstUnavailable"
            }
          ]
        },
        "Die": {
          "$type": "IJOIMFMEGMM",
          "DLOHGBDFFGB": {
            "Die_BS": [
              "Audio_Monster_Fungus_Un_Gamma_Water_Die"
            ],
            "Die": [
              "Monster_Fungus_Un_Die"
            ],
            "AirDie": [
              "Monster_Fungus_Un_Die"
            ],
            "SwimDie_BS": [],
            "SwimDie": [
              "Monster_Fungus_Un_Die"
            ]
          }
        },
        "Warning": {
          "$type": "IJOIMFMEGMM",
          "DLOHGBDFFGB": {
            "Warning": [
              "Audio_Monster_Fungus_Un_Gamma_Water_Warning"
            ]
          },
          "PGKCBIHGAOC": true,
          "DLAOMOCMANL": [
            "BeHit",
            "DoSkill"
          ],
          "LIPMJPLGIKD": true
        },
        "Jump_BS": {
          "$type": "IJOIMFMEGMM",
          "DLOHGBDFFGB": {
            "Jump_BS": [
              "Audio_Monster_Fungus_Un_Gamma_Water_Jump_BS"
            ]
          },
          "PGKCBIHGAOC": true,
          "DLAOMOCMANL": [
            "DoSkill"
          ],
          "LIPMJPLGIKD": true,
          "OOPPLFOAOGN": true
        },
        "JumpProcess": {
          "$type": "IJOIMFMEGMM",
          "DLOHGBDFFGB": {
            "Launch_Loop": [],
            "Jump_AS": [
              "Audio_Monster_Fungus_Un_Jump_AS"
            ],
            "Drop_Loop": []
          },
          "POLKCLOHPOO": true,
          "PGKCBIHGAOC": true,
          "DLAOMOCMANL": [
            "DoSkill",
            "Launch"
          ],
          "LIPMJPLGIKD": true,
          "OOPPLFOAOGN": true
        },
        "Land_AS": {
          "$type": "IJOIMFMEGMM",
          "DLOHGBDFFGB": {
            "Land_AS": [
              "Audio_Monster_Fungus_Un_Jump_AS"
            ]
          },
          "PGKCBIHGAOC": true,
          "AJBLILDCLBO": [
            "Land",
            "BeHit",
            "HitAir2HitDrop"
          ],
          "DLAOMOCMANL": [
            "DoSkill",
            "Land"
          ],
          "LIPMJPLGIKD": true,
          "OOPPLFOAOGN": true
        },
        "ReturnToBorn": {
          "$type": "IJOIMFMEGMM",
          "DLOHGBDFFGB": {
            "ReturnToBorn_BS": [
              "Monster_Fungus_Un_ReturnToBorn_BS",
              "Audio_Monster_Fungus_Un_Gamma_Water_ReturnToBorn_BS"
            ],
            "ReturnToBorn_Loop": [],
            "ReturnToBorn_AS": [
              "Monster_Fungus_Un_ReturnToBorn_AS",
              "Audio_Monster_Fungus_Un_Gamma_Water_ReturnToBorn_AS"
            ]
          },
          "LAKHIBAPNAB": true,
          "DLAOMOCMANL": [
            "BeHit",
            "DoSkill"
          ]
        },
        "NormalAttack": {
          "$type": "IJOIMFMEGMM",
          "DLOHGBDFFGB": {
            "Shoot_BS": [
              "Audio_Monster_Fungus_FighterV2_Un_Delta_Grass_Shoot_BS"
            ],
            "Shoot_Loop": [
              "Audio_Monster_Fungus_FighterV2_Un_Delta_Grass_Shoot"
            ],
            "Shoot_Attack": [
              "Monster_Fungus_Un_Grass_Bullet",
              "Audio_Monster_Fungus_FighterV2_Un_Delta_Grass_Shoot_Attack"
            ],
            "Shoot_AS": []
          },
          "OGNDLAMHMPB": 0.800000011920929,
          "DLAOMOCMANL": [
            "BeHit",
            "DoSkill"
          ]
        },
        "UnionBurst": {
          "$type": "IJOIMFMEGMM",
          "DLOHGBDFFGB": {
            "Burst_BS": [
              "Audio_Monster_Fungus_FighterV2_Un_Delta_Grass_Shoot"
            ],
            "Burst_Loop": [
              "Monster_Fungus_Un_Grass_UnionBurstShoot_BS",
              "Audio_Monster_Fungus_FighterV2_Un_Delta_Grass_Burst_Loop"
            ],
            "Burst_Attack01": [
              "Monster_Fungus_Un_Grass_UnionBurstShoot",
              "Audio_Monster_Fungus_FighterV2_Un_Delta_Grass_Burst_Attack"
            ],
            "Burst_Attack02": [
              "Monster_Fungus_Un_Grass_UnionBurstShoot",
              "Audio_Monster_Fungus_FighterV2_Un_Delta_Grass_Burst_Attack"
            ],
            "Burst_Attack03": [
              "Monster_Fungus_Un_Grass_UnionBurstShoot_3",
              "Audio_Monster_Fungus_FighterV2_Un_Delta_Grass_Burst_Attack"
            ],
            "Burst_AS": []
          },
          "OGNDLAMHMPB": 0.0,
          "DLAOMOCMANL": [
            "BeHit",
            "DoSkill"
          ],
          "setAnimatorFloat": [
            {
              "name": "FlyMotionHor",
              "normalizeEnd": 0.0
            },
            {
              "name": "FlyMotionVer",
              "normalizeEnd": 0.0
            }
          ],
          "OOPPLFOAOGN": true
        }
      }
    }
  },
  "billboard": {
    "$type": "PAOBAEKGGBC",
    "attachPoint": "BillboardAttach",
    "offset": {
      "y": 0.5
    },
    "LOMMBJLKPHE": 1.0,
    "FMJAGHIMLEI": true,
    "showDistance": 100.0,
    "CCFHLFLEJDN": true,
    "KGHAGECNJPO": true
  },
  "initialPoses": {
    "Default": {}
  },
  "aibeta": {
    "enable": true,
    "moveSetting": {
      "navMeshAgentName": "Undead01",
      "almostReachedDistanceRun": 0.3199999928474426
    },
    "sensing": {
      "settings": {
        "DefaultSetting": {
          "viewPanoramic": true,
          "feelRange": 50.0
        }
      },
      "templates": {
        "DefaultTemplate": {
          "DefaultPoses": "DefaultSetting"
        }
      }
    },
    "threat": {
      "clearThreatTargetDistance": 30.0,
      "clearThreatEdgeDistance": 5.0,
      "clearThreatTimerByDistance": 2.0,
      "viewAttenuation": [
        {
          "x": 12.0,
          "y": 1.0
        },
        {
          "x": 20.0,
          "y": 0.5
        }
      ],
      "JGFOPCOIJOI": "",
      "targetDistanceScoreSystem": {
        "weight": 100,
        "value": 8.0,
        "max": 30.0,
        "enable": true
      }
    },
    "defendArea": {
      "defendRange": 50.0
    },
    "fly": {
      "enable": true,
      "floatingPoses": [
        201,
        501,
        551,
        511
      ]
    },
    "scriptedMoveToTactic": {
      "enable": true
    },
    "profiling": {
      "lodStrategy": "Best"
    },
    "skills": {
      "201": {
        "name": "NormalAttack",
        "castCondition": {
          "pose": [
            501,
            551
          ],
          "pickRangeMax": 8.300000190734863,
          "pickRangeYMax": 3.5
        },
        "cd": 4.0,
        "publicCDGroup": "",
        "triggerCDOnStart": true,
        "HGAMDGAEIGO": "",
        "stateIDs": [
          "NormalAttack"
        ],
        "flagTargetReachable": "11",
        "flagSelfOnTemplateCollider": "01",
        "flagSelfInZone": "11",
        "flagTargetInZone": "11"
      },
      "401": {
        "name": "UnionBurst",
        "castCondition": {
          "pose": [
            233
          ]
        },
        "publicCDGroup": "",
        "HGAMDGAEIGO": "",
        "stateIDs": [
          "UnionBurst"
        ],
        "flagTargetReachable": "10",
        "flagSelfOnTemplateCollider": "01",
        "flagSelfInZone": "10",
        "flagTargetInZone": "11"
      }
    },
    "skillGCD": 0.25,
    "target": {
      "defaultTargetPrioritys": [
        "COMMAND",
        "POINT",
        "THREAT"
      ]
    },
    "combatFixedMoveTactic": [
      {
        "$type": "BNAGECKMCIB",
        "enable": true,
        "FJANPNOAAFK": {
          "pose": [
            301
          ]
        },
        "LMMKNFEMOMG": {
          "MPEMBMLOEDG": 0.10000000149011612,
          "JKOGPCLFHCP": 0.10000000149011612,
          "OBDJFHBHOMP": 2,
          "JOCOJHEICNA": ""
        }
      },
      {
        "$type": "CGEJNPOBJMA",
        "enable": true,
        "LMMKNFEMOMG": {
          "JKOGPCLFHCP": 0.5,
          "IBOHBDCPDED": true,
          "KHNIOIHHBAH": 2.200000047683716,
          "IAGNNJOPEFG": 0.20000000298023224
        }
      },
      {
        "$type": "APBKGIMHIEJ",
        "enable": true,
        "FJANPNOAAFK": {
          "pose": [
            501,
            551
          ]
        },
        "LMMKNFEMOMG": {
          "KIHPEPHJMOG": 2,
          "GABOKKPIPGO": 7.5,
          "NCOONJCNMJO": 0.0,
          "EBNPDABAEEB": 5.0,
          "JOCOJHEICNA": "",
          "DBIELIMGBMC": ""
        }
      },
      {
        "$type": "LFIIIPLGFDJ",
        "enable": true,
        "FJANPNOAAFK": {
          "pose": [
            501,
            551
          ]
        },
        "LMMKNFEMOMG": {
          "KIHPEPHJMOG": 2,
          "BDKHNABMMEK": 1.5,
          "NBAOLBHDNCP": 2.200000047683716,
          "JOCOJHEICNA": ""
        }
      }
    ]
  },
  "inputKeys": [
    {
      "keyID": 201,
      "inputKeyCode": 257,
      "abilityName": ""
    },
    {
      "keyID": 401,
      "inputKeyCode": 259,
      "abilityName": ""
    }
  ],
  "move": {
    "$type": "IIGPJJNGCLE",
    "GNNEDIACIKG": [
      {
        "MEENFDAGFIO": 5.0,
        "raycastType": "DownToGroundAndWaterOnlyInAir",
        "ANCIIKCNIJI": ""
      }
    ],
    "MIPNOGBEANL": "ForwardBackward",
    "IJMIGIDACLP": "AirBlend3D",
    "BEPOPLDKJOP": "SlimeType",
    "EKMHGNLHCNM": 20.0,
    "OGIOAPHNFJA": [
      "Launch_Loop"
    ],
    "JFGGLIDEODN": [
      "Drop_Loop"
    ],
    "OMMMNBNJHAI": true,
    "FACNOEFNHIB": "RootNode"
  }
}