{
  "luaDataPath": "",
  "startBlackKeepTime": 0.5,
  "entityBan": "",
  "disableNpcLod": true,
  "isAutoBanNpc": true,
  "isBanWidgetPet": true,
  "protectNpcMobileLod": true,
  "startFade": {
    "startFadeInDuration": 0.5,
    "startFadeOutDuration": 0.5
  },
  "endFade": {
    "startFadeOutDuration": 0.0
  },
  "actors": [
    {
      "alias": "Avatar",
      "visible": true,
      "bornPointName": "guide_Q7902520",
      "relativePosNpcAlias": "",
      "_bindMovingTargetKey": ""
    },
    {
      "configID": 1005,
      "alias": "1005",
      "visible": true,
      "bornPointName": "guide_Q7902520",
      "removeActorType": "REMOVE_WITH_DISAPPEAR",
      "relativePosNpcAlias": "",
      "_bindMovingTargetKey": ""
    },
    {
      "configID": 20641,
      "alias": "20641",
      "visible": true,
      "bornPointName": "guide_Q7902520",
      "relativePosNpcAlias": "",
      "_bindMovingTargetKey": ""
    },
    {
      "configID": 20614,
      "alias": "20614",
      "visible": true,
      "bornPointName": "guide_Q7902520",
      "relativePosNpcAlias": "",
      "_bindMovingTargetKey": ""
    }
  ],
  "group": [
    [
      {
        "$type": "MoleMole.Config.ConfigTimeProtectAction",
        "type": "TIME_PROTECT",
        "duration": 0.5,
        "actionId": 121
      },
      {
        "$type": "MoleMole.Config.ConfigBlackScreenAction",
        "type": "BLACK_SCREEN",
        "actionId": 134,
        "blackScreenType": "KEEP_BLACK",
        "durationKeepBlack": 0.5,
        "inteePos": "",
        "textMapID": "",
        "useTextFade": true
      },
      {
        "$type": "EFHODGEJOHJ",
        "type": "CAMERA_MOVE",
        "duration": 0.5,
        "actionId": 163,
        "camPosOffset": {
          "x": -355.0849914550781,
          "y": 165.64599609375,
          "z": -616.7579956054688
        },
        "camForwardTargetOffset": {
          "x": -355.385986328125,
          "y": 165.1750030517578,
          "z": -615.9290161132812
        },
        "camFov": 30.0,
        "lerpPattern": 6,
        "cameraBlendType": "EaseInOutCubic",
        "MDKBPBJCMHH": {},
        "needZAxisRotate": true,
        "openCameraDither": false,
        "targetNpcAlias": "",
        "closeTreeLeafDither": true,
        "PHGBNNGCJKJ": "",
        "NFILMKCFHEB": "",
        "BGPNGHDAECF": ""
      },
      {
        "$type": "MoleMole.Config.ConfigTeleportToAction",
        "type": "TELEPORT_TO",
        "aliasList": [
          "Avatar"
        ],
        "actionId": 308,
        "position": {
          "x": -358.3590087890625,
          "y": 161.2519989013672,
          "z": -611.35400390625
        },
        "forward": {
          "x": 0.30000001192092896,
          "z": 0.9539999961853027
        },
        "openLongDisTeleport": true,
        "_posBindMovingTargetKey": "",
        "_forwardBindMovingTargetKey": ""
      },
      {
        "$type": "NPCNMEOCADD",
        "type": "LOOK_AT",
        "aliasList": [
          "Avatar"
        ],
        "actionId": 197,
        "enableHead": true,
        "headTurnTime": 0.5,
        "targetNpcAlias": "20641",
        "targetNpcLookAtPoint": "",
        "BHGPHGNFCBF": ""
      },
      {
        "$type": "MoleMole.Config.ConfigTeleportToAction",
        "type": "TELEPORT_TO",
        "aliasList": [
          "1005"
        ],
        "actionId": 308,
        "position": {
          "x": -356.0660095214844,
          "y": 161.13600158691406,
          "z": -610.1199951171875
        },
        "forward": {
          "x": -0.8619999885559082,
          "z": 0.5080000162124634
        },
        "openLongDisTeleport": true,
        "_posBindMovingTargetKey": "",
        "_forwardBindMovingTargetKey": ""
      },
      {
        "$type": "NPCNMEOCADD",
        "type": "LOOK_AT",
        "aliasList": [
          "1005"
        ],
        "actionId": 198,
        "enableHead": true,
        "headTurnTime": 0.5,
        "targetNpcAlias": "20614",
        "targetNpcLookAtPoint": "",
        "BHGPHGNFCBF": ""
      },
      {
        "$type": "MoleMole.Config.ConfigTeleportToAction",
        "type": "TELEPORT_TO",
        "aliasList": [
          "20641"
        ],
        "actionId": 308,
        "position": {
          "x": -358.10400390625,
          "y": 161.0709991455078,
          "z": -610.43701171875
        },
        "forward": {
          "x": 0.39100000262260437,
          "z": 0.9200000166893005
        },
        "openLongDisTeleport": true,
        "_posBindMovingTargetKey": "",
        "_forwardBindMovingTargetKey": ""
      },
      {
        "$type": "MoleMole.Config.ConfigVisibleInterAction",
        "type": "VISIBLE",
        "aliasList": [
          "20641"
        ],
        "actionId": 305,
        "_extraParam": ""
      },
      {
        "$type": "NPCNMEOCADD",
        "type": "LOOK_AT",
        "aliasList": [
          "20641"
        ],
        "actionId": 245,
        "enableHead": true,
        "headTurnTime": 0.5,
        "targetNpcAlias": "1005",
        "targetNpcLookAtPoint": "",
        "BHGPHGNFCBF": ""
      },
      {
        "$type": "MoleMole.Config.ConfigVisibleInterAction",
        "type": "VISIBLE",
        "aliasList": [
          "20614"
        ],
        "actionId": 305,
        "_extraParam": ""
      },
      {
        "$type": "MoleMole.Config.ConfigTeleportToAction",
        "type": "TELEPORT_TO",
        "aliasList": [
          "20614"
        ],
        "actionId": 308,
        "position": {
          "x": -356.9519958496094,
          "y": 160.96600341796875,
          "z": -609.6010131835938
        },
        "forward": {
          "x": -0.8299999833106995,
          "z": 0.5580000281333923
        },
        "openLongDisTeleport": true,
        "_posBindMovingTargetKey": "",
        "_forwardBindMovingTargetKey": ""
      },
      {
        "$type": "NPCNMEOCADD",
        "type": "LOOK_AT",
        "aliasList": [
          "20614"
        ],
        "actionId": 245,
        "enableHead": true,
        "headTurnTime": 0.5,
        "targetNpcAlias": "1005",
        "targetNpcLookAtPoint": "",
        "BHGPHGNFCBF": ""
      }
    ],
    [
      {
        "$type": "MoleMole.Config.ConfigBlackScreenAction",
        "type": "BLACK_SCREEN",
        "actionId": 134,
        "blackScreenType": "FROM_BLACK",
        "durationFromBlack": 0.5,
        "inteePos": "",
        "textMapID": "",
        "useTextFade": true
      },
      {
        "$type": "MoleMole.Config.ConfigTimeProtectAction",
        "type": "TIME_PROTECT",
        "duration": 0.5,
        "actionId": 261
      },
      {
        "$type": "MoleMole.Config.ConfigPlayEffectAction",
        "type": "PLAY_EFFECT",
        "aliasList": [
          "20641"
        ],
        "actionId": 188,
        "effectIndex": "1",
        "patternName": "Eff_Animal_Inu_Tanuki_Blink_Appear",
        "_pos": {
          "x": -358.10400390625,
          "y": 161.0709991455078,
          "z": -610.43701171875
        },
        "euler": {
          "y": 23.0049991607666
        },
        "scale": {
          "x": 1.0,
          "y": 1.0,
          "z": 1.0
        },
        "attachToEntity": true,
        "_otherTargetNpcAlias": ""
      },
      {
        "$type": "MoleMole.Config.ConfigVisibleInterAction",
        "type": "VISIBLE",
        "aliasList": [
          "20641"
        ],
        "actionId": 305,
        "isVisible": true,
        "_extraParam": ""
      },
      {
        "$type": "EDCHPJLDKIN",
        "type": "BODY_LANG",
        "aliasList": [
          "20641"
        ],
        "actionId": 317,
        "bodyLangParam": 4,
        "forceDoFreeStyle": true,
        "canDoRepeatFreeStyle": false,
        "eventPatternSuiteKey": ""
      },
      {
        "$type": "MoleMole.Config.ConfigPlayEffectAction",
        "type": "PLAY_EFFECT",
        "delayTime": 0.20000000298023224,
        "aliasList": [
          "20614"
        ],
        "actionId": 188,
        "effectIndex": "1",
        "patternName": "Eff_Animal_Inu_Tanuki_Blink_Appear",
        "_pos": {
          "x": -356.9519958496094,
          "y": 160.96600341796875,
          "z": -609.6010131835938
        },
        "euler": {
          "y": 303.92401123046875
        },
        "scale": {
          "x": 1.0,
          "y": 1.0,
          "z": 1.0
        },
        "attachToEntity": true,
        "_otherTargetNpcAlias": ""
      },
      {
        "$type": "MoleMole.Config.ConfigVisibleInterAction",
        "type": "VISIBLE",
        "delayTime": 0.20000000298023224,
        "aliasList": [
          "20614"
        ],
        "actionId": 305,
        "isVisible": true,
        "_extraParam": ""
      },
      {
        "$type": "EDCHPJLDKIN",
        "type": "BODY_LANG",
        "delayTime": 0.20000000298023224,
        "aliasList": [
          "20614"
        ],
        "actionId": 317,
        "bodyLangParam": 4,
        "forceDoFreeStyle": true,
        "canDoRepeatFreeStyle": false,
        "eventPatternSuiteKey": ""
      }
    ],
    [
      {
        "$type": "MJFAIFFAGOF",
        "type": "DIALOG",
        "aliasList": [
          "20614"
        ],
        "dialogID": 790252301,
        "protectTime": 0.5
      },
      {
        "$type": "EDCHPJLDKIN",
        "type": "BODY_LANG",
        "aliasList": [
          "20614"
        ],
        "actionId": 262,
        "bodyLangParam": 2,
        "forceDoFreeStyle": true,
        "canDoRepeatFreeStyle": false,
        "eventPatternSuiteKey": ""
      },
      {
        "$type": "MoleMole.Config.ConfigEmojiBubbleAction",
        "type": "EMOJI_BUBBLE",
        "delayTime": 0.30000001192092896,
        "aliasList": [
          "20614"
        ],
        "actionId": 263,
        "pattarnName": "EmojiBubble_Emoji_Exciting"
      }
    ],
    [
      {
        "$type": "MJFAIFFAGOF",
        "type": "DIALOG",
        "aliasList": [
          "1005"
        ],
        "dialogID": 790252302,
        "protectTime": 0.5
      },
      {
        "$type": "EDCHPJLDKIN",
        "type": "BODY_LANG",
        "aliasList": [
          "1005"
        ],
        "actionId": 196,
        "bodyLangParam": 1250,
        "forceDoFreeStyle": true,
        "canDoRepeatFreeStyle": false,
        "eventPatternSuiteKey": ""
      },
      {
        "$type": "OBCDECFOOBC",
        "type": "DIALOG_SELECT",
        "delayTime": 0.4000000059604645,
        "aliasList": [
          "Avatar"
        ],
        "dialogIDList": [
          790252303
        ],
        "grpIDList": [
          1415663666
        ],
        "useGrpId": true
      }
    ],
    [
      {
        "$type": "MJFAIFFAGOF",
        "type": "DIALOG",
        "aliasList": [
          "1005"
        ],
        "dialogID": 790252304,
        "protectTime": 0.5
      },
      {
        "$type": "EDCHPJLDKIN",
        "type": "BODY_LANG",
        "aliasList": [
          "1005"
        ],
        "actionId": 247,
        "bodyLangParam": 1300,
        "forceDoFreeStyle": true,
        "canDoRepeatFreeStyle": false,
        "eventPatternSuiteKey": ""
      }
    ],
    [
      {
        "$type": "MJFAIFFAGOF",
        "type": "DIALOG",
        "aliasList": [
          "20614"
        ],
        "dialogID": 790252305,
        "protectTime": 1.2999999523162842
      },
      {
        "$type": "IEKHMHNHENB",
        "type": "STEER_TO",
        "duration": 1.0,
        "aliasList": [
          "20614"
        ],
        "actionId": 256,
        "steerType": "ABSOLUTE",
        "steerDir": {
          "x": -356.9830017089844,
          "y": 160.72799682617188,
          "z": -608.5079956054688
        },
        "targetNpcAlias": "",
        "BHGPHGNFCBF": ""
      },
      {
        "$type": "EDCHPJLDKIN",
        "type": "BODY_LANG",
        "aliasList": [
          "20614"
        ],
        "actionId": 212,
        "bodyLangParam": 1,
        "forceDoFreeStyle": true,
        "canDoRepeatFreeStyle": false,
        "eventPatternSuiteKey": ""
      }
    ],
    [
      {
        "$type": "MJFAIFFAGOF",
        "type": "DIALOG",
        "aliasList": [
          "20641"
        ],
        "dialogID": 790252306,
        "protectTime": 0.5
      },
      {
        "$type": "MoleMole.Config.ConfigEmojiBubbleAction",
        "type": "EMOJI_BUBBLE",
        "aliasList": [
          "20641"
        ],
        "actionId": 264,
        "pattarnName": "EmojiBubble_Emoji_Exciting"
      },
      {
        "$type": "EDCHPJLDKIN",
        "type": "BODY_LANG",
        "aliasList": [
          "20641"
        ],
        "actionId": 213,
        "bodyLangParam": 2,
        "forceDoFreeStyle": true,
        "canDoRepeatFreeStyle": false,
        "eventPatternSuiteKey": ""
      }
    ],
    [
      {
        "$type": "NPCNMEOCADD",
        "type": "LOOK_AT",
        "aliasList": [
          "Avatar"
        ],
        "actionId": 252,
        "headTurnTime": 0.5,
        "targetNpcAlias": "",
        "targetNpcLookAtPoint": "",
        "BHGPHGNFCBF": ""
      },
      {
        "$type": "MJFAIFFAGOF",
        "type": "DIALOG",
        "aliasList": [
          "1005"
        ],
        "dialogID": 790252307,
        "protectTime": 0.5
      },
      {
        "$type": "EDCHPJLDKIN",
        "type": "BODY_LANG",
        "aliasList": [
          "1005"
        ],
        "actionId": 239,
        "bodyLangParam": 4030,
        "forceDoFreeStyle": true,
        "canDoRepeatFreeStyle": false,
        "eventPatternSuiteKey": ""
      },
      {
        "$type": "OBCDECFOOBC",
        "type": "DIALOG_SELECT",
        "delayTime": 0.4000000059604645,
        "aliasList": [
          "Avatar"
        ],
        "dialogIDList": [
          790252308
        ],
        "grpIDList": [
          1415663670
        ],
        "useGrpId": true
      }
    ],
    [
      {
        "$type": "MJFAIFFAGOF",
        "type": "DIALOG",
        "duration": 2.0,
        "aliasList": [
          "1005"
        ],
        "dialogID": 790252309,
        "protectTime": 0.5
      },
      {
        "$type": "EDCHPJLDKIN",
        "type": "BODY_LANG",
        "aliasList": [
          "1005"
        ],
        "actionId": 240,
        "bodyLangParam": 1230,
        "forceDoFreeStyle": true,
        "canDoRepeatFreeStyle": false,
        "eventPatternSuiteKey": ""
      },
      {
        "$type": "NPCNMEOCADD",
        "type": "LOOK_AT",
        "aliasList": [
          "1005"
        ],
        "actionId": 248,
        "enableHead": true,
        "headTurnTime": 0.5,
        "targetNpcAlias": "Avatar",
        "targetNpcLookAtPoint": "",
        "BHGPHGNFCBF": ""
      },
      {
        "$type": "NPCNMEOCADD",
        "type": "LOOK_AT",
        "delayTime": 1.3339999914169312,
        "aliasList": [
          "Avatar"
        ],
        "actionId": 253,
        "headTurnTime": 0.5,
        "targetNpcAlias": "",
        "targetNpcLookAtPoint": "",
        "BHGPHGNFCBF": ""
      },
      {
        "$type": "EDCHPJLDKIN",
        "type": "BODY_LANG",
        "delayTime": 1.399999976158142,
        "aliasList": [
          "20614"
        ],
        "actionId": 214,
        "isContinue": true,
        "forceDoFreeStyle": true,
        "canDoRepeatFreeStyle": false,
        "eventPatternSuiteKey": ""
      },
      {
        "$type": "MoleMole.Config.ConfigEmojiBubbleAction",
        "type": "EMOJI_BUBBLE",
        "delayTime": 1.4880000352859497,
        "aliasList": [
          "20641"
        ],
        "actionId": 243,
        "pattarnName": "EmojiBubble_Emoji_Insight"
      },
      {
        "$type": "NPCNMEOCADD",
        "type": "LOOK_AT",
        "delayTime": 1.5750000476837158,
        "aliasList": [
          "1005"
        ],
        "actionId": 249,
        "headTurnTime": 0.5,
        "targetNpcAlias": "",
        "targetNpcLookAtPoint": "",
        "BHGPHGNFCBF": ""
      },
      {
        "$type": "EDCHPJLDKIN",
        "type": "BODY_LANG",
        "delayTime": 1.5950000286102295,
        "aliasList": [
          "1005"
        ],
        "actionId": 241,
        "isContinue": true,
        "forceDoFreeStyle": true,
        "canDoRepeatFreeStyle": false,
        "eventPatternSuiteKey": ""
      },
      {
        "$type": "MoleMole.Config.ConfigEmojiBubbleAction",
        "type": "EMOJI_BUBBLE",
        "delayTime": 1.6799999475479126,
        "aliasList": [
          "20614"
        ],
        "actionId": 243,
        "pattarnName": "EmojiBubble_Emoji_Insight"
      }
    ],
    [
      {
        "$type": "MoleMole.Config.ConfigSimpleBlackScreenAction",
        "type": "SIMPLE_BLACK_SCREEN",
        "durationToBlack": 0.5,
        "durationKeepBlack": 3.0,
        "durationFromBlack": 0.5,
        "textMapID": "",
        "useTextFade": true,
        "_dialogID": 790252310
      },
      {
        "$type": "MJFAIFFAGOF",
        "type": "DIALOG_CLEAR"
      },
      {
        "$type": "MoleMole.Config.ConfigTimeProtectAction",
        "type": "TIME_PROTECT",
        "duration": 4.0,
        "actionId": 158
      },
      {
        "$type": "NPCNMEOCADD",
        "type": "LOOK_AT",
        "aliasList": [
          "Avatar"
        ],
        "actionId": 254,
        "enableHead": true,
        "useTargetPos": true,
        "enableAbsolute": true,
        "targetPosition": {
          "x": -358.6919860839844,
          "y": 162.33599853515625,
          "z": -610.4609985351562
        },
        "headTurnTime": 0.5,
        "targetNpcAlias": "",
        "lookAtTargetType": "NONE",
        "targetNpcLookAtPoint": "",
        "BHGPHGNFCBF": ""
      },
      {
        "$type": "EDCHPJLDKIN",
        "type": "BODY_LANG",
        "aliasList": [
          "1005"
        ],
        "actionId": 242,
        "isContinue": true,
        "forceDoFreeStyle": true,
        "canDoRepeatFreeStyle": false,
        "eventPatternSuiteKey": ""
      },
      {
        "$type": "NPCNMEOCADD",
        "type": "LOOK_AT",
        "aliasList": [
          "1005"
        ],
        "actionId": 254,
        "enableHead": true,
        "useTargetPos": true,
        "enableAbsolute": true,
        "targetPosition": {
          "x": -356.9859924316406,
          "y": 161.9949951171875,
          "z": -608.6619873046875
        },
        "headTurnTime": 0.5,
        "targetNpcAlias": "",
        "lookAtTargetType": "NONE",
        "targetNpcLookAtPoint": "",
        "BHGPHGNFCBF": ""
      }
    ],
    [
      {
        "$type": "MJFAIFFAGOF",
        "type": "DIALOG",
        "duration": 1.600000023841858,
        "aliasList": [
          "20641"
        ],
        "dialogID": 790252311,
        "protectTime": 2.0
      },
      {
        "$type": "EDCHPJLDKIN",
        "type": "BODY_LANG",
        "aliasList": [
          "20641"
        ],
        "actionId": 317,
        "bodyLangParam": 5,
        "forceDoFreeStyle": true,
        "canDoRepeatFreeStyle": false,
        "eventPatternSuiteKey": ""
      },
      {
        "$type": "MoleMole.Config.ConfigEmojiBubbleAction",
        "type": "EMOJI_BUBBLE",
        "delayTime": 0.02199999988079071,
        "aliasList": [
          "20641"
        ],
        "actionId": 140,
        "pattarnName": "EmojiBubble_Emoji_Insight"
      },
      {
        "$type": "MoleMole.Config.ConfigPlayEffectAction",
        "type": "PLAY_EFFECT",
        "delayTime": 1.25,
        "aliasList": [
          "20641"
        ],
        "actionId": 188,
        "effectIndex": "1",
        "patternName": "Eff_Animal_Inu_Tanuki_Blink_Disappear",
        "_pos": {
          "x": -358.10400390625,
          "y": 161.0709991455078,
          "z": -610.43701171875
        },
        "euler": {
          "y": 23.024999618530273
        },
        "scale": {
          "x": 1.0,
          "y": 1.0,
          "z": 1.0
        },
        "attachToEntity": true,
        "_otherTargetNpcAlias": ""
      },
      {
        "$type": "MoleMole.Config.ConfigVisibleInterAction",
        "type": "VISIBLE",
        "delayTime": 1.2999999523162842,
        "aliasList": [
          "20641"
        ],
        "actionId": 305,
        "_extraParam": ""
      }
    ],
    [
      {
        "$type": "MJFAIFFAGOF",
        "type": "DIALOG",
        "duration": 1.600000023841858,
        "aliasList": [
          "20614"
        ],
        "dialogID": 790252312,
        "protectTime": 2.0
      },
      {
        "$type": "EDCHPJLDKIN",
        "type": "BODY_LANG",
        "aliasList": [
          "20614"
        ],
        "actionId": 317,
        "bodyLangParam": 5,
        "forceDoFreeStyle": true,
        "canDoRepeatFreeStyle": false,
        "eventPatternSuiteKey": ""
      },
      {
        "$type": "MoleMole.Config.ConfigEmojiBubbleAction",
        "type": "EMOJI_BUBBLE",
        "delayTime": 0.02199999988079071,
        "aliasList": [
          "20614"
        ],
        "actionId": 140,
        "pattarnName": "EmojiBubble_Emoji_Insight"
      },
      {
        "$type": "MoleMole.Config.ConfigPlayEffectAction",
        "type": "PLAY_EFFECT",
        "delayTime": 1.25,
        "aliasList": [
          "20614"
        ],
        "actionId": 188,
        "effectIndex": "1",
        "patternName": "Eff_Animal_Inu_Tanuki_Blink_Disappear",
        "_pos": {
          "x": -356.9519958496094,
          "y": 160.96600341796875,
          "z": -609.6010131835938
        },
        "euler": {
          "y": 303.9129943847656
        },
        "scale": {
          "x": 1.0,
          "y": 1.0,
          "z": 1.0
        },
        "attachToEntity": true,
        "_otherTargetNpcAlias": ""
      },
      {
        "$type": "MoleMole.Config.ConfigVisibleInterAction",
        "type": "VISIBLE",
        "delayTime": 1.2999999523162842,
        "aliasList": [
          "20614"
        ],
        "actionId": 305,
        "_extraParam": ""
      }
    ],
    [
      {
        "$type": "MJFAIFFAGOF",
        "type": "DIALOG",
        "aliasList": [
          "1005"
        ],
        "dialogID": 790252313,
        "protectTime": 2.5999999046325684
      },
      {
        "$type": "EDCHPJLDKIN",
        "type": "BODY_LANG",
        "aliasList": [
          "1005"
        ],
        "actionId": 265,
        "bodyLangParam": 1060,
        "forceDoFreeStyle": true,
        "canDoRepeatFreeStyle": false,
        "eventPatternSuiteKey": ""
      },
      {
        "$type": "MoleMole.Config.ConfigTeleportToAction",
        "type": "TELEPORT_TO",
        "aliasList": [
          "20641"
        ],
        "actionId": 164,
        "position": {
          "x": -362.8370056152344,
          "y": 159.16799926757812,
          "z": -602.093994140625
        },
        "forward": {
          "x": 0.4480000138282776,
          "z": -0.8939999938011169
        },
        "openLongDisTeleport": true,
        "_posBindMovingTargetKey": "",
        "_forwardBindMovingTargetKey": ""
      },
      {
        "$type": "MoleMole.Config.ConfigPlayEffectAction",
        "type": "PLAY_EFFECT",
        "delayTime": 0.30000001192092896,
        "aliasList": [
          "20641"
        ],
        "actionId": 188,
        "effectIndex": "1",
        "patternName": "Eff_Animal_Inu_Tanuki_Blink_Appear",
        "_pos": {
          "x": -362.8370056152344,
          "y": 159.16799926757812,
          "z": -602.093994140625
        },
        "euler": {
          "y": 153.37100219726562
        },
        "scale": {
          "x": 1.0,
          "y": 1.0,
          "z": 1.0
        },
        "attachToEntity": true,
        "_otherTargetNpcAlias": ""
      },
      {
        "$type": "MoleMole.Config.ConfigVisibleInterAction",
        "type": "VISIBLE",
        "delayTime": 0.30000001192092896,
        "aliasList": [
          "20641"
        ],
        "actionId": 305,
        "isVisible": true,
        "_extraParam": ""
      },
      {
        "$type": "EDCHPJLDKIN",
        "type": "BODY_LANG",
        "delayTime": 0.30000001192092896,
        "aliasList": [
          "20641"
        ],
        "actionId": 317,
        "bodyLangParam": 4,
        "forceDoFreeStyle": true,
        "canDoRepeatFreeStyle": false,
        "eventPatternSuiteKey": ""
      },
      {
        "$type": "EDCHPJLDKIN",
        "type": "BODY_LANG",
        "delayTime": 1.3539999723434448,
        "aliasList": [
          "20641"
        ],
        "actionId": 154,
        "bodyLangParam": 5,
        "forceDoFreeStyle": true,
        "canDoRepeatFreeStyle": false,
        "eventPatternSuiteKey": ""
      },
      {
        "$type": "MoleMole.Config.ConfigVisibleInterAction",
        "type": "VISIBLE",
        "delayTime": 2.5,
        "aliasList": [
          "20641"
        ],
        "actionId": 305,
        "_extraParam": ""
      },
      {
        "$type": "MoleMole.Config.ConfigPlayEffectAction",
        "type": "PLAY_EFFECT",
        "delayTime": 2.5,
        "aliasList": [
          "20641"
        ],
        "actionId": 188,
        "effectIndex": "1",
        "patternName": "Eff_Animal_Inu_Tanuki_Blink_Disappear",
        "_pos": {
          "x": -362.8370056152344,
          "y": 159.16799926757812,
          "z": -602.093994140625
        },
        "euler": {
          "y": 153.37100219726562
        },
        "scale": {
          "x": 1.0,
          "y": 1.0,
          "z": 1.0
        },
        "attachToEntity": true,
        "_otherTargetNpcAlias": ""
      }
    ],
    [
      {
        "$type": "MJFAIFFAGOF",
        "type": "DIALOG",
        "aliasList": [
          "1005"
        ],
        "dialogID": 790252314,
        "protectTime": 0.5
      },
      {
        "$type": "EDCHPJLDKIN",
        "type": "BODY_LANG",
        "aliasList": [
          "1005"
        ],
        "actionId": 266,
        "isContinue": true,
        "forceDoFreeStyle": true,
        "canDoRepeatFreeStyle": false,
        "eventPatternSuiteKey": ""
      },
      {
        "$type": "MoleMole.Config.ConfigTeleportToAction",
        "type": "TELEPORT_TO",
        "aliasList": [
          "20614"
        ],
        "actionId": 164,
        "position": {
          "x": -363.3299865722656,
          "y": 157.59800720214844,
          "z": -597.4450073242188
        },
        "forward": {
          "x": 0.3179999887943268,
          "z": -0.9480000138282776
        },
        "openLongDisTeleport": true,
        "_posBindMovingTargetKey": "",
        "_forwardBindMovingTargetKey": ""
      },
      {
        "$type": "NPCNMEOCADD",
        "type": "LOOK_AT",
        "delayTime": 0.30000001192092896,
        "aliasList": [
          "Avatar"
        ],
        "actionId": 269,
        "enableHead": true,
        "headTurnTime": 0.5,
        "targetNpcAlias": "1005",
        "targetNpcLookAtPoint": "",
        "BHGPHGNFCBF": ""
      },
      {
        "$type": "MoleMole.Config.ConfigPlayEffectAction",
        "type": "PLAY_EFFECT",
        "delayTime": 0.30000001192092896,
        "aliasList": [
          "20614"
        ],
        "actionId": 188,
        "effectIndex": "1",
        "patternName": "Eff_Animal_Inu_Tanuki_Blink_Appear",
        "_pos": {
          "x": -363.3299865722656,
          "y": 157.59800720214844,
          "z": -597.4450073242188
        },
        "euler": {
          "y": 161.45599365234375
        },
        "scale": {
          "x": 1.0,
          "y": 1.0,
          "z": 1.0
        },
        "attachToEntity": true,
        "_otherTargetNpcAlias": ""
      },
      {
        "$type": "MoleMole.Config.ConfigVisibleInterAction",
        "type": "VISIBLE",
        "delayTime": 0.30000001192092896,
        "aliasList": [
          "20614"
        ],
        "actionId": 305,
        "isVisible": true,
        "_extraParam": ""
      },
      {
        "$type": "EDCHPJLDKIN",
        "type": "BODY_LANG",
        "delayTime": 0.30000001192092896,
        "aliasList": [
          "20614"
        ],
        "actionId": 317,
        "bodyLangParam": 4,
        "forceDoFreeStyle": true,
        "canDoRepeatFreeStyle": false,
        "eventPatternSuiteKey": ""
      },
      {
        "$type": "NPCNMEOCADD",
        "type": "LOOK_AT",
        "delayTime": 0.4000000059604645,
        "aliasList": [
          "1005"
        ],
        "actionId": 267,
        "enableHead": true,
        "headTurnTime": 0.5,
        "targetNpcAlias": "Avatar",
        "targetNpcLookAtPoint": "",
        "BHGPHGNFCBF": ""
      },
      {
        "$type": "EDCHPJLDKIN",
        "type": "BODY_LANG",
        "delayTime": 1.3539999723434448,
        "aliasList": [
          "20614"
        ],
        "actionId": 154,
        "bodyLangParam": 5,
        "forceDoFreeStyle": true,
        "canDoRepeatFreeStyle": false,
        "eventPatternSuiteKey": ""
      },
      {
        "$type": "MoleMole.Config.ConfigVisibleInterAction",
        "type": "VISIBLE",
        "delayTime": 2.5,
        "aliasList": [
          "20614"
        ],
        "actionId": 305,
        "_extraParam": ""
      },
      {
        "$type": "MoleMole.Config.ConfigPlayEffectAction",
        "type": "PLAY_EFFECT",
        "delayTime": 2.5,
        "aliasList": [
          "20614"
        ],
        "actionId": 188,
        "effectIndex": "1",
        "patternName": "Eff_Animal_Inu_Tanuki_Blink_Disappear",
        "_pos": {
          "x": -363.3299865722656,
          "y": 157.59800720214844,
          "z": -597.4450073242188
        },
        "euler": {
          "y": 161.45599365234375
        },
        "scale": {
          "x": 1.0,
          "y": 1.0,
          "z": 1.0
        },
        "attachToEntity": true,
        "_otherTargetNpcAlias": ""
      }
    ],
    [
      {
        "$type": "MoleMole.Config.ConfigSimpleBlackScreenAction",
        "type": "SIMPLE_BLACK_SCREEN",
        "durationToBlack": 0.5,
        "durationKeepBlack": 1.0,
        "durationFromBlack": 0.5,
        "textMapID": ""
      },
      {
        "$type": "MoleMole.Config.ConfigTimeProtectAction",
        "type": "TIME_PROTECT",
        "duration": 0.699999988079071
      },
      {
        "$type": "NPCNMEOCADD",
        "type": "LOOK_AT",
        "aliasList": [
          "Avatar"
        ],
        "actionId": 270,
        "headTurnTime": 0.5,
        "targetNpcAlias": "",
        "targetNpcLookAtPoint": "",
        "BHGPHGNFCBF": ""
      },
      {
        "$type": "NPCNMEOCADD",
        "type": "LOOK_AT",
        "aliasList": [
          "1005"
        ],
        "actionId": 268,
        "headTurnTime": 0.5,
        "targetNpcAlias": "",
        "targetNpcLookAtPoint": "",
        "BHGPHGNFCBF": ""
      },
      {
        "$type": "EDCHPJLDKIN",
        "type": "BODY_LANG",
        "aliasList": [
          "1005"
        ],
        "actionId": 271,
        "forceDoFreeStyle": true,
        "canDoRepeatFreeStyle": false,
        "eventPatternSuiteKey": ""
      },
      {
        "$type": "EFHODGEJOHJ",
        "type": "CAMERA_MOVE",
        "delayTime": 0.6000000238418579,
        "duration": 0.10000000149011612,
        "actionId": 167,
        "camPosOffset": {
          "x": -357.0260009765625,
          "y": 163.81700134277344,
          "z": -615.0800170898438
        },
        "camForwardTargetOffset": {
          "x": -357.3429870605469,
          "y": 163.43299865722656,
          "z": -614.2130126953125
        },
        "lerpPattern": 6,
        "cameraBlendType": "EaseInOutCubic",
        "MDKBPBJCMHH": {},
        "openCameraDither": false,
        "targetNpcAlias": "",
        "closeTreeLeafDither": true,
        "PHGBNNGCJKJ": "",
        "NFILMKCFHEB": "",
        "BGPNGHDAECF": ""
      },
      {
        "$type": "MoleMole.Config.ConfigVisibleInterAction",
        "type": "VISIBLE",
        "delayTime": 0.6000000238418579,
        "aliasList": [
          "20641"
        ],
        "actionId": 234,
        "_extraParam": ""
      },
      {
        "$type": "MoleMole.Config.ConfigVisibleInterAction",
        "type": "VISIBLE",
        "delayTime": 0.6000000238418579,
        "aliasList": [
          "20614"
        ],
        "actionId": 234,
        "_extraParam": ""
      }
    ]
  ],
  "groupId": [
    {
      "grpId": 1415663662,
      "nextGrpId": 1415663663
    },
    {
      "index": 1,
      "grpId": 1415663663,
      "nextGrpId": 1415663664
    },
    {
      "index": 2,
      "grpId": 1415663664,
      "nextGrpId": 1415663665
    },
    {
      "index": 3,
      "grpId": 1415663665,
      "nextGrpId": 1415663666
    },
    {
      "index": 4,
      "grpId": 1415663666,
      "nextGrpId": 1415663667
    },
    {
      "index": 5,
      "grpId": 1415663667,
      "nextGrpId": 1415663668
    },
    {
      "index": 6,
      "grpId": 1415663668,
      "nextGrpId": 1415663669
    },
    {
      "index": 7,
      "grpId": 1415663669,
      "nextGrpId": 1415663670
    },
    {
      "index": 8,
      "grpId": 1415663670,
      "nextGrpId": 935900610
    },
    {
      "index": 9,
      "grpId": 935900610,
      "nextGrpId": 935900611
    },
    {
      "index": 10,
      "grpId": 935900611,
      "nextGrpId": 935900612
    },
    {
      "index": 11,
      "grpId": 935900612,
      "nextGrpId": 935900613
    },
    {
      "index": 12,
      "grpId": 935900613,
      "nextGrpId": 935900614
    },
    {
      "index": 13,
      "grpId": 935900614,
      "nextGrpId": 935900615
    },
    {
      "index": 14,
      "grpId": 935900615,
      "nextGrpId": 935900616
    }
  ]
}