{
  "luaDataPath": "",
  "startBlackKeepTime": 0.5,
  "entityBan": "",
  "disableNpcLod": true,
  "isAutoBanNpc": true,
  "isBanWidgetPet": true,
  "protectNpcMobileLod": true,
  "startFade": {
    "startFadeInDuration": 0.5,
    "startFadeOutDuration": 0.5
  },
  "endFade": {
    "startFadeOutDuration": 0.0
  },
  "actors": [
    {
      "alias": "Avatar",
      "visible": true,
      "bornPointName": "T7151501_N10000005",
      "relativePosType": "AVATAR_NEW",
      "relativePosNpcAlias": "",
      "_bindMovingTargetKey": ""
    },
    {
      "configID": 30306,
      "alias": "30306",
      "visible": true,
      "bornPointName": "Q7151601_N30306",
      "forceCreateDaily": true,
      "relativePosType": "AVATAR_NEW",
      "relativePosNpcAlias": "",
      "_bindMovingTargetKey": ""
    },
    {
      "configID": 1005,
      "alias": "1005",
      "visible": true,
      "bornPointName": "",
      "useRelativePos": true,
      "relativePos": {
        "x": -0.5,
        "z": 0.5
      },
      "removeActorType": "NEW_REMOVE_WITH_DISAPPEAR",
      "relativePosType": "AVATAR_NEW",
      "relativePosNpcAlias": "",
      "_bindMovingTargetKey": ""
    }
  ],
  "group": [
    [
      {
        "$type": "MoleMole.Config.ConfigTimeProtectAction",
        "type": "TIME_PROTECT",
        "duration": 1.0,
        "actionId": 104
      },
      {
        "$type": "MoleMole.Config.ConfigBlackScreenAction",
        "type": "BLACK_SCREEN",
        "duration": 1.0,
        "actionId": 167,
        "blackScreenType": "KEEP_BLACK",
        "durationToBlack": 0.5,
        "durationKeepBlack": 1.0,
        "durationFromBlack": 0.5,
        "inteePos": "",
        "textMapID": "",
        "useTextFade": true
      }
    ],
    [
      {
        "$type": "MoleMole.Config.ConfigBlackScreenAction",
        "type": "BLACK_SCREEN",
        "duration": 0.5,
        "actionId": 168,
        "blackScreenType": "FROM_BLACK",
        "durationToBlack": 0.5,
        "durationKeepBlack": 0.5,
        "durationFromBlack": 0.5,
        "inteePos": "",
        "textMapID": "",
        "useTextFade": true
      },
      {
        "$type": "MJFAIFFAGOF",
        "type": "DIALOG",
        "aliasList": [
          "30306"
        ],
        "actionId": 107,
        "dialogID": 715160101,
        "protectTime": 0.5
      },
      {
        "$type": "OBCDECFOOBC",
        "type": "DIALOG_SELECT",
        "delayTime": 0.4000000059604645,
        "aliasList": [
          "Avatar"
        ],
        "actionId": 108,
        "dialogIDList": [
          715160102,
          715160104
        ],
        "grpIDList": [
          1859201435,
          1859201436
        ],
        "useGrpId": true,
        "countDownGrpId": 1859201432
      }
    ],
    [
      {
        "$type": "MJFAIFFAGOF",
        "type": "DIALOG",
        "aliasList": [
          "30306"
        ],
        "actionId": 110,
        "dialogID": 715160103,
        "protectTime": 0.5
      }
    ],
    [
      {
        "$type": "MJFAIFFAGOF",
        "type": "DIALOG",
        "aliasList": [
          "30306"
        ],
        "actionId": 112,
        "dialogID": 715160105,
        "protectTime": 0.5
      }
    ],
    [
      {
        "$type": "MJFAIFFAGOF",
        "type": "DIALOG",
        "aliasList": [
          "1005"
        ],
        "actionId": 114,
        "dialogID": 715160106,
        "protectTime": 0.5
      }
    ],
    [
      {
        "$type": "MJFAIFFAGOF",
        "type": "DIALOG",
        "aliasList": [
          "30306"
        ],
        "actionId": 116,
        "dialogID": 715160107,
        "protectTime": 0.5
      }
    ],
    [
      {
        "$type": "MJFAIFFAGOF",
        "type": "DIALOG",
        "aliasList": [
          "30306"
        ],
        "actionId": 118,
        "dialogID": 715160108,
        "protectTime": 0.5
      }
    ],
    [
      {
        "$type": "MJFAIFFAGOF",
        "type": "DIALOG",
        "aliasList": [
          "1005"
        ],
        "actionId": 120,
        "dialogID": 715160109,
        "protectTime": 0.5
      }
    ],
    [
      {
        "$type": "MJFAIFFAGOF",
        "type": "DIALOG",
        "aliasList": [
          "30306"
        ],
        "actionId": 122,
        "dialogID": 715160110,
        "protectTime": 0.5
      }
    ],
    [
      {
        "$type": "MJFAIFFAGOF",
        "type": "DIALOG",
        "aliasList": [
          "30306"
        ],
        "actionId": 124,
        "dialogID": 715160111,
        "protectTime": 0.5
      }
    ],
    [
      {
        "$type": "MJFAIFFAGOF",
        "type": "DIALOG",
        "aliasList": [
          "30306"
        ],
        "actionId": 126,
        "dialogID": 715160112,
        "protectTime": 0.5
      }
    ],
    [
      {
        "$type": "MJFAIFFAGOF",
        "type": "DIALOG",
        "aliasList": [
          "30306"
        ],
        "actionId": 128,
        "dialogID": 715160113,
        "protectTime": 0.5
      }
    ],
    [
      {
        "$type": "MJFAIFFAGOF",
        "type": "DIALOG",
        "aliasList": [
          "30306"
        ],
        "actionId": 130,
        "dialogID": 715160114,
        "protectTime": 0.5
      }
    ],
    [
      {
        "$type": "MJFAIFFAGOF",
        "type": "DIALOG",
        "aliasList": [
          "30306"
        ],
        "actionId": 132,
        "dialogID": 715160115,
        "protectTime": 0.5
      },
      {
        "$type": "OBCDECFOOBC",
        "type": "DIALOG_SELECT",
        "delayTime": 0.4000000059604645,
        "aliasList": [
          "Avatar"
        ],
        "actionId": 133,
        "dialogIDList": [
          715160116
        ],
        "grpIDList": [
          1800669628
        ],
        "useGrpId": true,
        "countDownGrpId": 1859201432
      }
    ],
    [
      {
        "$type": "MJFAIFFAGOF",
        "type": "DIALOG",
        "aliasList": [
          "30306"
        ],
        "actionId": 135,
        "dialogID": 715160117,
        "protectTime": 0.5
      },
      {
        "$type": "OBCDECFOOBC",
        "type": "DIALOG_SELECT",
        "delayTime": 0.4000000059604645,
        "aliasList": [
          "Avatar"
        ],
        "actionId": 136,
        "dialogIDList": [
          715160118,
          715160119
        ],
        "grpIDList": [
          1800669629,
          1800669629
        ],
        "useGrpId": true,
        "countDownGrpId": 1859201432
      }
    ],
    [
      {
        "$type": "MJFAIFFAGOF",
        "type": "DIALOG",
        "aliasList": [
          "30306"
        ],
        "actionId": 138,
        "dialogID": 715160120,
        "protectTime": 0.5
      }
    ],
    [
      {
        "$type": "MJFAIFFAGOF",
        "type": "DIALOG",
        "aliasList": [
          "30306"
        ],
        "actionId": 140,
        "dialogID": 715160121,
        "protectTime": 0.5
      }
    ],
    [
      {
        "$type": "MJFAIFFAGOF",
        "type": "DIALOG",
        "aliasList": [
          "1005"
        ],
        "actionId": 142,
        "dialogID": 715160122,
        "protectTime": 0.5
      }
    ],
    [
      {
        "$type": "MJFAIFFAGOF",
        "type": "DIALOG",
        "aliasList": [
          "30306"
        ],
        "actionId": 144,
        "dialogID": 715160123,
        "protectTime": 0.5
      },
      {
        "$type": "OBCDECFOOBC",
        "type": "DIALOG_SELECT",
        "delayTime": 0.4000000059604645,
        "aliasList": [
          "Avatar"
        ],
        "actionId": 145,
        "dialogIDList": [
          715160124
        ],
        "grpIDList": [
          1800669654
        ],
        "useGrpId": true,
        "countDownGrpId": 1859201432
      }
    ],
    [
      {
        "$type": "MJFAIFFAGOF",
        "type": "DIALOG",
        "aliasList": [
          "30306"
        ],
        "actionId": 147,
        "dialogID": 715160125,
        "protectTime": 0.5
      }
    ],
    [
      {
        "$type": "MJFAIFFAGOF",
        "type": "DIALOG",
        "aliasList": [
          "30306"
        ],
        "actionId": 149,
        "dialogID": 715160126,
        "protectTime": 0.5
      }
    ],
    [
      {
        "$type": "MJFAIFFAGOF",
        "type": "DIALOG",
        "aliasList": [
          "30306"
        ],
        "actionId": 151,
        "dialogID": 715160127,
        "protectTime": 0.5
      }
    ],
    [
      {
        "$type": "MJFAIFFAGOF",
        "type": "DIALOG",
        "aliasList": [
          "1005"
        ],
        "actionId": 153,
        "dialogID": 715160128,
        "protectTime": 0.5
      }
    ],
    [
      {
        "$type": "MJFAIFFAGOF",
        "type": "DIALOG",
        "aliasList": [
          "30306"
        ],
        "actionId": 155,
        "dialogID": 715160129,
        "protectTime": 0.5
      }
    ],
    [
      {
        "$type": "MJFAIFFAGOF",
        "type": "DIALOG",
        "aliasList": [
          "30306"
        ],
        "actionId": 157,
        "dialogID": 715160130,
        "protectTime": 0.5
      }
    ],
    [
      {
        "$type": "MJFAIFFAGOF",
        "type": "DIALOG",
        "aliasList": [
          "30306"
        ],
        "actionId": 159,
        "dialogID": 715160131,
        "protectTime": 0.5
      },
      {
        "$type": "OBCDECFOOBC",
        "type": "DIALOG_SELECT",
        "delayTime": 0.4000000059604645,
        "aliasList": [
          "Avatar"
        ],
        "actionId": 160,
        "dialogIDList": [
          715160132
        ],
        "grpIDList": [
          1800669661
        ],
        "useGrpId": true,
        "countDownGrpId": 1859201432
      }
    ],
    [
      {
        "$type": "MJFAIFFAGOF",
        "type": "DIALOG",
        "aliasList": [
          "1005"
        ],
        "actionId": 162,
        "dialogID": 715160133,
        "protectTime": 0.5
      }
    ],
    [
      {
        "$type": "MJFAIFFAGOF",
        "type": "DIALOG",
        "aliasList": [
          "30306"
        ],
        "actionId": 164,
        "dialogID": 715160134,
        "protectTime": 0.5
      }
    ],
    [
      {
        "$type": "MoleMole.Config.ConfigTimeProtectAction",
        "type": "TIME_PROTECT",
        "duration": 0.10000000149011612,
        "actionId": 105
      },
      {
        "$type": "MoleMole.Config.ConfigSimpleBlackScreenAction",
        "type": "SIMPLE_BLACK_SCREEN",
        "actionId": 165,
        "durationToBlack": 0.5,
        "durationKeepBlack": 1.0,
        "durationFromBlack": 0.5,
        "textMapID": ""
      },
      {
        "$type": "MoleMole.Config.ConfigTimeProtectAction",
        "type": "TIME_PROTECT",
        "duration": 0.699999988079071,
        "actionId": 166
      },
      {
        "$type": "EFHODGEJOHJ",
        "type": "CAMERA_MOVE",
        "delayTime": 0.5,
        "duration": 0.10000000149011612,
        "actionId": 169,
        "camForwardTargetOffset": {
          "z": 1.0
        },
        "camFov": 30.0,
        "lerpPattern": 5,
        "cameraBlendType": "EaseInOutCubic",
        "MDKBPBJCMHH": {},
        "openCameraDither": false,
        "targetNpcAlias": "",
        "closeTreeLeafDither": true,
        "PHGBNNGCJKJ": "",
        "NFILMKCFHEB": "",
        "BGPNGHDAECF": ""
      }
    ]
  ],
  "groupId": [
    {
      "grpId": 1859201433,
      "nextGrpId": 1859201434
    },
    {
      "index": 1,
      "grpId": 1859201434,
      "nextGrpId": 1859201435
    },
    {
      "index": 2,
      "grpId": 1859201435,
      "nextGrpId": 1859201437
    },
    {
      "index": 3,
      "grpId": 1859201436,
      "nextGrpId": 1859201437
    },
    {
      "index": 4,
      "grpId": 1859201437,
      "nextGrpId": 1859201438
    },
    {
      "index": 5,
      "grpId": 1859201438,
      "nextGrpId": 1859201439
    },
    {
      "index": 6,
      "grpId": 1859201439,
      "nextGrpId": 1859201440
    },
    {
      "index": 7,
      "grpId": 1859201440,
      "nextGrpId": 1859201441
    },
    {
      "index": 8,
      "grpId": 1859201441,
      "nextGrpId": 1800669623
    },
    {
      "index": 9,
      "grpId": 1800669623,
      "nextGrpId": 1800669624
    },
    {
      "index": 10,
      "grpId": 1800669624,
      "nextGrpId": 1800669625
    },
    {
      "index": 11,
      "grpId": 1800669625,
      "nextGrpId": 1800669626
    },
    {
      "index": 12,
      "grpId": 1800669626,
      "nextGrpId": 1800669627
    },
    {
      "index": 13,
      "grpId": 1800669627,
      "nextGrpId": 1800669628
    },
    {
      "index": 14,
      "grpId": 1800669628,
      "nextGrpId": 1800669629
    },
    {
      "index": 15,
      "grpId": 1800669629,
      "nextGrpId": 1800669630
    },
    {
      "index": 16,
      "grpId": 1800669630,
      "nextGrpId": 1800669631
    },
    {
      "index": 17,
      "grpId": 1800669631,
      "nextGrpId": 1800669632
    },
    {
      "index": 18,
      "grpId": 1800669632,
      "nextGrpId": 1800669654
    },
    {
      "index": 19,
      "grpId": 1800669654,
      "nextGrpId": 1800669655
    },
    {
      "index": 20,
      "grpId": 1800669655,
      "nextGrpId": 1800669656
    },
    {
      "index": 21,
      "grpId": 1800669656,
      "nextGrpId": 1800669657
    },
    {
      "index": 22,
      "grpId": 1800669657,
      "nextGrpId": 1800669658
    },
    {
      "index": 23,
      "grpId": 1800669658,
      "nextGrpId": 1800669659
    },
    {
      "index": 24,
      "grpId": 1800669659,
      "nextGrpId": 1800669660
    },
    {
      "index": 25,
      "grpId": 1800669660,
      "nextGrpId": 1800669661
    },
    {
      "index": 26,
      "grpId": 1800669661,
      "nextGrpId": 1800669662
    },
    {
      "index": 27,
      "grpId": 1800669662,
      "nextGrpId": 1800669663
    },
    {
      "index": 28,
      "grpId": 1800669663,
      "nextGrpId": 1800669685
    }
  ],
  "freeStyleDic": {
    "30306": []
  }
}