{
  "roomID": 3,
  "EEKOBCNNAJL": 250,
  "LLMPHNOCHJF": 200,
  "basicData": {
    "deployStartPos": {
      "x": -50.0,
      "z": -37.0
    },
    "deployBound": {
      "x": 35.0,
      "y": 40.0,
      "z": 80.0
    },
    "bornPos": {
      "x": -33.0,
      "z": -27.0
    }
  },
  "AHDCJBEAMEC": [
    {
      "configId": 1001,
      "pos": {
        "x": 18.0,
        "z": 9.0
      }
    },
    {
      "configId": 1002,
      "pos": {
        "x": 18.0,
        "z": 5.0
      }
    }
  ]
}