{
  "context": {
    "ActivitySubPage_AnimalView": {
      "actionGroups": {
        "Default": [
          {
            "priority": 4,
            "eventType": "DPadUpEvent",
            "contextEvent": "MenuNavigationUp"
          },
          {
            "priority": 4,
            "eventType": "DPadLeftEvent",
            "contextEvent": "MenuNavigationLeft"
          },
          {
            "eventType": "MenuConfirmEvent",
            "contextEvent": "ConfirmEvent"
          },
          {
            "eventType": "MenuBackEvent",
            "contextEvent": "BackEvent"
          },
          {
            "priority": 4,
            "eventType": "LeftStickLeftEvent",
            "contextEvent": "CommonLeftStickLeftEvent"
          },
          {
            "priority": 4,
            "eventType": "LeftStickRightEvent",
            "contextEvent": "CommonLeftStickRightEvent"
          },
          {
            "priority": 4,
            "eventType": "LeftStickVerticalEvent",
            "contextEvent": "ScrollPrimaryScrollerEvent"
          },
          {
            "eventType": "RightStickButtonEvent",
            "contextEvent": "ShowItemDetailEvent"
          }
        ]
      },
      "stateActions": {
        "0": {
          "keyboardTouch": "Default",
          "keyboardMouse": "Default",
          "joypad": "Default"
        }
      },
      "enableInputPenetrate": true,
      "enableJoypadVirtualCursor": false
    },
    "AnimalViewStagePageContext": {
      "actionGroups": {
        "Default": [
          {
            "priority": 10,
            "eventType": "MenuBackEvent",
            "contextEvent": "BackEvent"
          },
          {
            "priority": 10,
            "eventType": "MenuConfirmEvent",
            "contextEvent": "ConfirmEvent"
          },
          {
            "priority": 8,
            "eventType": "MenuUpEvent",
            "contextEvent": "CommonMenuUpEvent"
          },
          {
            "eventType": "DPadUpEvent",
            "contextEvent": "MenuNavigationUp"
          },
          {
            "eventType": "RightStickButtonEvent",
            "contextEvent": "ShowItemDetailEvent"
          },
          {
            "priority": 5,
            "eventType": "LeftStickUpEvent",
            "contextEvent": "CommonLeftStickUpEvent"
          },
          {
            "priority": 5,
            "eventType": "LeftStickDownEvent",
            "contextEvent": "CommonLeftStickDownEvent"
          },
          {
            "priority": 5,
            "eventType": "LeftStickLeftEvent",
            "contextEvent": "CommonLeftStickLeftEvent"
          },
          {
            "priority": 5,
            "eventType": "LeftStickRightEvent",
            "contextEvent": "CommonLeftStickRightEvent"
          },
          {
            "eventType": "LeftStickVerticalEvent",
            "contextEvent": "CommonLeftStickVerticalEvent"
          },
          {
            "eventType": "RightStickVerticalEvent",
            "contextEvent": "CommonRightStickVerticalEvent"
          }
        ]
      },
      "stateActions": {
        "0": {
          "keyboardTouch": "Default",
          "keyboardMouse": "Default",
          "joypad": "Default"
        }
      },
      "enableJoypadVirtualCursor": false
    },
    "AnimalViewMirrorPageContext": {
      "actionGroups": {
        "Default": [
          {
            "priority": 10,
            "eventType": "MenuBackEvent",
            "contextEvent": "BackEvent"
          },
          {
            "eventType": "ChangeViewEvent"
          },
          {
            "priority": 14,
            "eventType": "TriggerChangeWithSkillEvent"
          },
          {
            "priority": 14,
            "eventType": "CancelChangeWithSkillEvent"
          }
        ]
      },
      "stateActions": {
        "0": {
          "keyboardTouch": "Default",
          "keyboardMouse": "Default",
          "joypad": "Default"
        }
      },
      "enableJoypadVirtualCursor": false
    }
  }
}