{
  "context": {
    "InLevelMapPage": {
      "actionGroups": {
        "Default": [
          {
            "eventType": "MenuConfirmEvent"
          },
          {
            "eventType": "MenuLeftEvent"
          },
          {
            "priority": 5,
            "eventType": "MoveEvent"
          },
          {
            "priority": 6,
            "eventType": "ChangeViewEvent"
          },
          {
            "priority": 7,
            "eventType": "LeftTriggerEvent"
          },
          {
            "priority": 8,
            "eventType": "RightTriggerEvent"
          },
          {
            "priority": 9,
            "eventType": "MenuBackEvent",
            "contextEvent": "BackEvent"
          },
          {
            "priority": 9,
            "eventType": "OpenMapEvent",
            "contextEvent": "CloseEvent"
          },
          {
            "priority": 10,
            "eventType": "ZoomCameraEvent",
            "contextEvent": "UIZoomCameraEvent"
          }
        ],
        "Joypad": [
          {
            "eventType": "MenuBackEvent",
            "contextEvent": "BackEvent"
          },
          {
            "eventType": "MenuConfirmEvent",
            "nextToHandle": "FrameEnd",
            "contextEvent": "ConfirmEvent"
          },
          {
            "priority": 5,
            "eventType": "MoveEvent",
            "contextEvent": "MoveCursorEvent"
          },
          {
            "priority": 6,
            "eventType": "LeftTriggerAxisEvent",
            "contextEvent": "ZoomInMapEvent"
          },
          {
            "priority": 7,
            "eventType": "RightTriggerAxisEvent",
            "contextEvent": "ZoomOutMapEvent"
          },
          {
            "priority": 7,
            "eventType": "DPadRightEvent",
            "nextToHandle": "FrameEnd",
            "contextEvent": "BuyResin"
          },
          {
            "priority": 7,
            "eventType": "LeftStickButtonEvent",
            "nextToHandle": "FrameEnd",
            "contextEvent": "ChangeFocusZone"
          },
          {
            "priority": 7,
            "eventType": "MenuLeftEvent",
            "nextToHandle": "FrameEnd",
            "contextEvent": "ShowCycleDungeonOnly"
          },
          {
            "priority": 7,
            "eventType": "DPadLeftEvent",
            "nextToHandle": "FrameEnd",
            "contextEvent": "ShowHelpTips"
          },
          {
            "priority": 7,
            "eventType": "DPadLeftEvent",
            "nextToHandle": "FrameEnd",
            "contextEvent": "UIDetails"
          },
          {
            "priority": 7,
            "eventType": "MenuUpEvent",
            "nextToHandle": "FrameEnd",
            "contextEvent": "CommonMenuUpEvent"
          },
          {
            "priority": 7,
            "eventType": "RightStickButtonEvent",
            "nextToHandle": "FrameEnd",
            "contextEvent": "CommonRightStickButtonEvent"
          },
          {
            "priority": 7,
            "eventType": "DPadUpEvent",
            "contextEvent": "MenuNavigationUp"
          },
          {
            "priority": 7,
            "eventType": "RightStickVerticalEvent",
            "nextToHandle": "FrameEnd",
            "contextEvent": "CommonRightStickVerticalEvent"
          },
          {
            "priority": 7,
            "eventType": "DPadRightEvent",
            "nextToHandle": "FrameEnd",
            "contextEvent": "ActionEastEvent"
          },
          {
            "priority": 7,
            "eventType": "DPadDownEvent",
            "nextToHandle": "FrameEnd",
            "contextEvent": "ActionSouthEvent"
          }
        ],
        "MarkTips": [
          {
            "priority": 8,
            "eventType": "MenuBackEvent",
            "nextToHandle": "FrameEnd",
            "contextEvent": "BackEvent"
          },
          {
            "priority": 8,
            "eventType": "MenuConfirmEvent",
            "nextToHandle": "FrameEnd",
            "contextEvent": "ConfirmEvent"
          },
          {
            "priority": 7,
            "eventType": "MenuUpEvent",
            "nextToHandle": "FrameEnd",
            "contextEvent": "ChangeCustomMarkName"
          },
          {
            "priority": 7,
            "eventType": "MenuLeftEvent",
            "nextToHandle": "FrameEnd",
            "contextEvent": "RemoveCustomMark"
          },
          {
            "priority": 2,
            "eventType": "LeftStickUpEvent",
            "contextEvent": "MenuNavigationUp"
          },
          {
            "priority": 2,
            "eventType": "LeftStickDownEvent",
            "contextEvent": "MenuNavigationDown"
          },
          {
            "priority": 2,
            "eventType": "LeftStickLeftEvent",
            "contextEvent": "MenuNavigationLeft"
          },
          {
            "priority": 2,
            "eventType": "LeftStickRightEvent",
            "contextEvent": "MenuNavigationRight"
          },
          {
            "eventType": "LeftStickMoveEvent",
            "contextEvent": "ScrollPrimaryScrollerEvent"
          },
          {
            "priority": 7,
            "eventType": "DPadUpEvent",
            "nextToHandle": "FrameEnd",
            "contextEvent": "ShowHelpTips"
          },
          {
            "priority": 7,
            "eventType": "DPadLeftEvent",
            "nextToHandle": "FrameEnd",
            "contextEvent": "UIDetails"
          },
          {
            "priority": 4,
            "eventType": "RightStickButtonEvent",
            "nextToHandle": "FrameEnd",
            "contextEvent": "CommonRightStickButtonEvent"
          },
          {
            "priority": 7,
            "eventType": "MenuUpEvent",
            "nextToHandle": "FrameEnd",
            "contextEvent": "CommonMenuUpEvent"
          },
          {
            "priority": 10,
            "eventType": "ZoomCameraEvent",
            "contextEvent": "UIZoomCameraEvent"
          },
          {
            "priority": 11,
            "eventType": "DPadRightEvent",
            "nextToHandle": "FrameEnd",
            "contextEvent": "ActionEastEvent"
          }
        ],
        "RewardTips": [
          {
            "eventType": "MenuBackEvent",
            "contextEvent": "BackEvent"
          },
          {
            "eventType": "MenuConfirmEvent",
            "contextEvent": "ConfirmEvent"
          },
          {
            "eventType": "LeftStickUpEvent",
            "contextEvent": "MenuNavigationUp"
          },
          {
            "eventType": "LeftStickDownEvent",
            "contextEvent": "MenuNavigationDown"
          },
          {
            "eventType": "LeftStickButtonEvent",
            "contextEvent": "ChangeFocusZone"
          }
        ]
      },
      "stateActions": {
        "0": {
          "keyboardTouch": "Default",
          "keyboardMouse": "Default",
          "joypad": "Joypad"
        },
        "1": {
          "keyboardTouch": "",
          "keyboardMouse": "",
          "joypad": ""
        },
        "2": {
          "keyboardTouch": "MarkTips",
          "keyboardMouse": "MarkTips",
          "joypad": "MarkTips"
        },
        "3": {
          "keyboardTouch": "RewardTips",
          "keyboardMouse": "RewardTips",
          "joypad": "RewardTips"
        }
      },
      "enableJoypadVirtualCursor": false
    },
    "InLevelMapMarkSelectDialog": {
      "actionGroups": {
        "Default": [
          {
            "eventType": "MenuConfirmEvent",
            "nextToHandle": "FrameEnd",
            "contextEvent": "ConfirmEvent"
          },
          {
            "eventType": "MenuBackEvent",
            "nextToHandle": "FrameEnd",
            "contextEvent": "CloseEvent"
          },
          {
            "eventType": "DPadUpEvent",
            "contextEvent": "MenuNavigationUp"
          },
          {
            "eventType": "DPadDownEvent",
            "contextEvent": "MenuNavigationDown"
          },
          {
            "eventType": "LeftStickUpEvent",
            "contextEvent": "MenuNavigationUp"
          },
          {
            "eventType": "LeftStickDownEvent",
            "contextEvent": "MenuNavigationDown"
          },
          {
            "priority": 7,
            "eventType": "RightStickButtonEvent",
            "nextToHandle": "FrameEnd",
            "contextEvent": "CommonRightStickButtonEvent"
          }
        ]
      },
      "stateActions": {
        "0": {
          "keyboardTouch": "Default",
          "keyboardMouse": "Default",
          "joypad": "Default"
        }
      },
      "enableJoypadVirtualCursor": false
    },
    "DungeonExpendDialog": {
      "actionGroups": {
        "Default": [
          {
            "eventType": "MenuConfirmEvent",
            "nextToHandle": "FrameEnd",
            "contextEvent": "ConfirmEvent"
          },
          {
            "eventType": "MenuBackEvent",
            "nextToHandle": "FrameEnd",
            "contextEvent": "BackEvent"
          },
          {
            "eventType": "RightStickButtonEvent",
            "nextToHandle": "FrameEnd",
            "contextEvent": "ShowItemDetailEvent"
          }
        ]
      },
      "stateActions": {
        "0": {
          "keyboardTouch": "Default",
          "keyboardMouse": "Default",
          "joypad": "Default"
        },
        "1": {
          "keyboardTouch": "Default",
          "keyboardMouse": "Default",
          "joypad": "Default"
        }
      },
      "enableJoypadVirtualCursor": false
    },
    "InLevelMapSettingDialog": {
      "actionGroups": {
        "Default": [
          {
            "priority": 10,
            "eventType": "MenuConfirmEvent",
            "contextEvent": "ConfirmEvent"
          },
          {
            "priority": 10,
            "eventType": "MenuBackEvent",
            "nextToHandle": "FrameEnd",
            "contextEvent": "BackEvent"
          },
          {
            "priority": 6,
            "eventType": "LeftShoulderEvent",
            "contextEvent": "CommonLeftShoulderEvent"
          },
          {
            "priority": 6,
            "eventType": "RightShoulderEvent",
            "contextEvent": "CommonRightShoulderEvent"
          },
          {
            "priority": 6,
            "eventType": "LeftShoulderReleaseEvent",
            "contextEvent": "CommonLeftShoulderReleaseEvent"
          },
          {
            "priority": 6,
            "eventType": "RightShoulderReleaseEvent",
            "contextEvent": "CommonRightShoulderReleaseEvent"
          },
          {
            "priority": 5,
            "eventType": "LeftShoulderPressingEvent",
            "contextEvent": "CommonLeftShoulderPressingEvent"
          },
          {
            "priority": 5,
            "eventType": "RightShoulderPressingEvent",
            "contextEvent": "CommonRightShoulderPressingEvent"
          },
          {
            "priority": 1,
            "eventType": "LeftStickUpEvent",
            "contextEvent": "CommonLeftStickUpEvent"
          },
          {
            "priority": 1,
            "eventType": "LeftStickDownEvent",
            "contextEvent": "CommonLeftStickDownEvent"
          }
        ]
      },
      "stateActions": {
        "0": {
          "keyboardTouch": "Default",
          "keyboardMouse": "Default",
          "joypad": "Default"
        }
      },
      "enableJoypadVirtualCursor": false,
      "HIAHBHMBNCJ": [
        "UIZoomCameraEvent",
        "ZoomInMapEvent",
        "ZoomOutMapEvent"
      ]
    }
  }
}