{
  "activityId": 30112,
  "talks": [
    {
      "id": 7051001,
      "beginWay": "TALK_BEGIN_MANUAL",
      "priority": 5,
      "nextTalks": [
        7051002,
        7051005,
        7051003
      ],
      "initDialog": 705100101,
      "npcId": [
        30112
      ],
      "performCfg": "",
      "heroTalk": "TALK_HERO_MAIN",
      "assetIndex": 3735464754412991540,
      "prePerformCfg": "",
      "lowPriority": true
    },
    {
      "id": 7051002,
      "priority": 5,
      "initDialog": 705100201,
      "npcId": [
        30112
      ],
      "performCfg": "",
      "heroTalk": "TALK_HERO_MAIN",
      "assetIndex": 17860548550641254442,
      "prePerformCfg": "",
      "lowPriority": true,
      "finishExec": [
        {
          "KPGKDHAFHFE": "TALK_EXEC_TRANS_SCENE_DUMMY_POINT",
          "param": [
            "1068",
            "Q7050202_Trans"
          ]
        }
      ]
    },
    {
      "id": 7051003,
      "priority": 5,
      "initDialog": 705100301,
      "npcId": [
        30112
      ],
      "performCfg": "",
      "heroTalk": "TALK_HERO_MAIN",
      "assetIndex": 9145563442661553180,
      "prePerformCfg": "",
      "lowPriority": true
    },
    {
      "id": 7051005,
      "priority": 5,
      "nextTalks": [
        7051006,
        7051007
      ],
      "initDialog": 705100501,
      "npcId": [
        30112
      ],
      "performCfg": "",
      "heroTalk": "TALK_HERO_MAIN",
      "assetIndex": 7512522199292252069,
      "prePerformCfg": "",
      "lowPriority": true
    },
    {
      "id": 7051006,
      "priority": 5,
      "initDialog": 705100601,
      "npcId": [
        30112
      ],
      "performCfg": "",
      "heroTalk": "TALK_HERO_MAIN",
      "assetIndex": 8121379893066074397,
      "prePerformCfg": "",
      "lowPriority": true
    },
    {
      "id": 7051007,
      "priority": 5,
      "initDialog": 705100701,
      "npcId": [
        30112
      ],
      "performCfg": "",
      "heroTalk": "TALK_HERO_MAIN",
      "assetIndex": 8057893629771231984,
      "prePerformCfg": "",
      "lowPriority": true
    }
  ]
}