{
  "activityId": 5313,
  "talks": [
    {
      "id": 6531301,
      "beginWay": "TALK_BEGIN_MANUAL",
      "beginCondComb": "LOGIC_OR",
      "beginCond": [
        {
          "type": "QUEST_COND_STATE_EQUAL",
          "_param": [
            "7400716",
            "2"
          ]
        },
        {
          "type": "QUEST_COND_QUEST_NOT_RECEIVE",
          "_param": [
            "7400716",
            "1"
          ]
        }
      ],
      "priority": 3,
      "nextTalks": [
        6531302,
        6531340,
        6531303
      ],
      "nextRandomTalks": [
        6531338,
        6531310
      ],
      "EIJGGNNHMLI": 1,
      "LGPIKNJKMPL": [
        2,
        1
      ],
      "initDialog": 653130101,
      "npcId": [
        5313
      ],
      "performCfg": "",
      "assetIndex": 16513366941252470092,
      "prePerformCfg": ""
    },
    {
      "id": 6531302,
      "priority": 1,
      "nextTalks": [
        6531304,
        6531305
      ],
      "initDialog": 653130201,
      "npcId": [
        5313
      ],
      "performCfg": "",
      "assetIndex": 12259428663135442154,
      "prePerformCfg": ""
    },
    {
      "id": 6531303,
      "priority": 1,
      "initDialog": 653130301,
      "npcId": [
        5313
      ],
      "performCfg": "",
      "assetIndex": 7270270136149411174,
      "prePerformCfg": ""
    },
    {
      "id": 6531304,
      "priority": 1,
      "initDialog": 653130401,
      "npcId": [
        5313
      ],
      "performCfg": "",
      "assetIndex": 312345094745270873,
      "prePerformCfg": ""
    },
    {
      "id": 6531305,
      "priority": 1,
      "initDialog": 653130501,
      "npcId": [
        5313
      ],
      "performCfg": "",
      "assetIndex": 8841347540822210815,
      "prePerformCfg": ""
    },
    {
      "id": 6531306,
      "beginWay": "TALK_BEGIN_MANUAL",
      "beginCond": [
        {
          "type": "QUEST_COND_STATE_EQUAL",
          "_param": [
            "7400716",
            "3"
          ]
        }
      ],
      "priority": 4,
      "nextTalks": [
        6531307,
        7491301,
        6531303
      ],
      "nextRandomTalks": [
        6531338,
        6531310
      ],
      "EIJGGNNHMLI": 1,
      "LGPIKNJKMPL": [
        2,
        1
      ],
      "showRandomTalkCount": 3,
      "initDialog": 653130601,
      "npcId": [
        5313
      ],
      "performCfg": "",
      "assetIndex": 4745307052872539838,
      "prePerformCfg": ""
    },
    {
      "id": 6531307,
      "priority": 1,
      "nextTalks": [
        6531304,
        6531305
      ],
      "initDialog": 653130701,
      "npcId": [
        5313
      ],
      "performCfg": "",
      "assetIndex": 2993299778799998880,
      "prePerformCfg": ""
    },
    {
      "id": 6531308,
      "beginWay": "TALK_BEGIN_MANUAL",
      "beginCond": [
        {
          "type": "QUEST_COND_STATE_EQUAL",
          "_param": [
            "7404416",
            "3"
          ]
        }
      ],
      "priority": 5,
      "nextTalks": [
        6531307,
        7491301,
        6531309
      ],
      "nextRandomTalks": [
        6531338,
        6531310
      ],
      "EIJGGNNHMLI": 1,
      "LGPIKNJKMPL": [
        2,
        1
      ],
      "showRandomTalkCount": 3,
      "initDialog": 653130801,
      "npcId": [
        5313
      ],
      "performCfg": "",
      "assetIndex": 8529145326256300099,
      "prePerformCfg": ""
    },
    {
      "id": 6531309,
      "priority": 1,
      "initDialog": 653130901,
      "npcId": [
        5313
      ],
      "performCfg": "",
      "assetIndex": 6644183049131883550,
      "prePerformCfg": ""
    },
    {
      "id": 6531310,
      "beginCondComb": "LOGIC_OR",
      "beginCond": [
        {
          "type": "QUEST_COND_QUEST_NOT_RECEIVE",
          "_param": [
            "7400606",
            "1"
          ]
        },
        {
          "type": "QUEST_COND_STATE_EQUAL",
          "_param": [
            "7400716",
            "3"
          ]
        }
      ],
      "priority": 1,
      "nextRandomTalks": [
        6531311,
        6531312,
        6531313,
        6531314,
        6531315,
        6531316,
        6531317,
        6531318,
        6531339
      ],
      "EIJGGNNHMLI": 1,
      "LGPIKNJKMPL": [
        2,
        2,
        2,
        2,
        2,
        2,
        2,
        2,
        1
      ],
      "initDialog": 653131001,
      "npcId": [
        5313
      ],
      "performCfg": "",
      "assetIndex": 1000258721603024561,
      "prePerformCfg": ""
    },
    {
      "id": 6531311,
      "beginCondComb": "LOGIC_A_AND_ETCOR",
      "beginCond": [
        {
          "type": "QUEST_COND_QUEST_GLOBAL_VAR_GREATER",
          "_param": [
            "74042",
            "0"
          ]
        },
        {
          "type": "QUEST_COND_QUEST_NOT_RECEIVE",
          "_param": [
            "7402905",
            "1"
          ]
        },
        {
          "type": "QUEST_COND_STATE_EQUAL",
          "_param": [
            "7402905",
            "2"
          ]
        }
      ],
      "priority": 1,
      "nextTalks": [
        6531319
      ],
      "initDialog": 653131101,
      "npcId": [
        5313
      ],
      "performCfg": "",
      "assetIndex": 13612584000525335376,
      "prePerformCfg": ""
    },
    {
      "id": 6531312,
      "beginCondComb": "LOGIC_A_AND_ETCOR",
      "beginCond": [
        {
          "type": "QUEST_COND_QUEST_GLOBAL_VAR_EQUAL",
          "_param": [
            "74042",
            "0"
          ]
        },
        {
          "type": "QUEST_COND_QUEST_NOT_RECEIVE",
          "_param": [
            "7402905",
            "1"
          ]
        },
        {
          "type": "QUEST_COND_STATE_EQUAL",
          "_param": [
            "7402905",
            "2"
          ]
        }
      ],
      "priority": 1,
      "nextTalks": [
        6531320
      ],
      "initDialog": 653131201,
      "npcId": [
        5313
      ],
      "performCfg": "",
      "assetIndex": 16503975909666731294,
      "prePerformCfg": ""
    },
    {
      "id": 6531313,
      "beginCondComb": "LOGIC_OR",
      "beginCond": [
        {
          "type": "QUEST_COND_QUEST_NOT_RECEIVE",
          "_param": [
            "7403908",
            "1"
          ]
        },
        {
          "type": "QUEST_COND_STATE_EQUAL",
          "_param": [
            "7403908",
            "2"
          ]
        }
      ],
      "priority": 1,
      "nextTalks": [
        6531321
      ],
      "initDialog": 653131301,
      "npcId": [
        5313
      ],
      "performCfg": "",
      "assetIndex": 11450161820517635933,
      "prePerformCfg": ""
    },
    {
      "id": 6531314,
      "beginCondComb": "LOGIC_A_AND_B_AND_ETCOR",
      "beginCond": [
        {
          "type": "QUEST_COND_QUEST_GLOBAL_VAR_EQUAL",
          "_param": [
            "7400702",
            "1"
          ]
        },
        {
          "type": "QUEST_COND_STATE_EQUAL",
          "_param": [
            "7403908",
            "3"
          ]
        },
        {
          "type": "QUEST_COND_QUEST_NOT_RECEIVE",
          "_param": [
            "7404019",
            "1"
          ]
        },
        {
          "type": "QUEST_COND_STATE_EQUAL",
          "_param": [
            "7404019",
            "2"
          ]
        }
      ],
      "priority": 1,
      "nextTalks": [
        6531322,
        6531323
      ],
      "initDialog": 653131401,
      "npcId": [
        5313
      ],
      "performCfg": "",
      "assetIndex": 10845041514487686355,
      "prePerformCfg": ""
    },
    {
      "id": 6531315,
      "beginCondComb": "LOGIC_A_AND_B_AND_ETCOR",
      "beginCond": [
        {
          "type": "QUEST_COND_QUEST_GLOBAL_VAR_EQUAL",
          "_param": [
            "7400702",
            "0"
          ]
        },
        {
          "type": "QUEST_COND_STATE_EQUAL",
          "_param": [
            "7403908",
            "3"
          ]
        },
        {
          "type": "QUEST_COND_QUEST_NOT_RECEIVE",
          "_param": [
            "7404019",
            "1"
          ]
        },
        {
          "type": "QUEST_COND_STATE_EQUAL",
          "_param": [
            "7404019",
            "2"
          ]
        }
      ],
      "priority": 1,
      "nextTalks": [
        6531324
      ],
      "initDialog": 653131501,
      "npcId": [
        5313
      ],
      "performCfg": "",
      "assetIndex": 14425569795123073188,
      "prePerformCfg": ""
    },
    {
      "id": 6531316,
      "beginCondComb": "LOGIC_OR",
      "beginCond": [
        {
          "type": "QUEST_COND_QUEST_NOT_RECEIVE",
          "_param": [
            "7401005",
            "1"
          ]
        },
        {
          "type": "QUEST_COND_STATE_EQUAL",
          "_param": [
            "7401005",
            "2"
          ]
        }
      ],
      "priority": 1,
      "nextTalks": [
        6531325,
        6531326
      ],
      "initDialog": 653131601,
      "npcId": [
        5313
      ],
      "performCfg": "",
      "assetIndex": 11381189018455384829,
      "prePerformCfg": ""
    },
    {
      "id": 6531317,
      "beginCondComb": "LOGIC_OR",
      "beginCond": [
        {
          "type": "QUEST_COND_STATE_EQUAL",
          "_param": [
            "7401101",
            "2"
          ]
        }
      ],
      "priority": 1,
      "nextTalks": [
        6531327
      ],
      "initDialog": 653131701,
      "npcId": [
        5313
      ],
      "performCfg": "",
      "assetIndex": 4559688635310546493,
      "prePerformCfg": ""
    },
    {
      "id": 6531318,
      "beginCondComb": "LOGIC_A_AND_ETCOR",
      "beginCond": [
        {
          "type": "QUEST_COND_STATE_EQUAL",
          "_param": [
            "7400716",
            "3"
          ]
        },
        {
          "type": "QUEST_COND_QUEST_NOT_RECEIVE",
          "_param": [
            "7405807",
            "1"
          ]
        },
        {
          "type": "QUEST_COND_STATE_EQUAL",
          "_param": [
            "7405807",
            "2"
          ]
        }
      ],
      "priority": 1,
      "nextTalks": [
        6531328
      ],
      "initDialog": 653131801,
      "npcId": [
        5313
      ],
      "performCfg": "",
      "assetIndex": 6361541859646223737,
      "prePerformCfg": ""
    },
    {
      "id": 6531319,
      "priority": 1,
      "nextTalks": [
        6531329,
        6531330
      ],
      "initDialog": 653131901,
      "npcId": [
        5313
      ],
      "performCfg": "",
      "assetIndex": 10029302900806760804,
      "prePerformCfg": ""
    },
    {
      "id": 6531320,
      "priority": 1,
      "nextTalks": [
        6531331,
        6531332
      ],
      "initDialog": 653132001,
      "npcId": [
        5313
      ],
      "performCfg": "",
      "assetIndex": 15970245237817297494,
      "prePerformCfg": ""
    },
    {
      "id": 6531321,
      "priority": 1,
      "initDialog": 653132101,
      "npcId": [
        5313
      ],
      "performCfg": "",
      "assetIndex": 11841714398040908158,
      "prePerformCfg": ""
    },
    {
      "id": 6531322,
      "priority": 1,
      "nextTalks": [
        6531333
      ],
      "initDialog": 653132201,
      "npcId": [
        5313
      ],
      "performCfg": "",
      "assetIndex": 18255403846989750292,
      "prePerformCfg": ""
    },
    {
      "id": 6531323,
      "priority": 1,
      "nextTalks": [
        6531333
      ],
      "initDialog": 653132301,
      "npcId": [
        5313
      ],
      "performCfg": "",
      "assetIndex": 91042518857953832,
      "prePerformCfg": ""
    },
    {
      "id": 6531324,
      "priority": 1,
      "nextTalks": [
        6531334
      ],
      "initDialog": 653132401,
      "npcId": [
        5313
      ],
      "performCfg": "",
      "assetIndex": 430510905072102460,
      "prePerformCfg": ""
    },
    {
      "id": 6531325,
      "priority": 1,
      "nextTalks": [
        6531335
      ],
      "initDialog": 653132501,
      "npcId": [
        5313
      ],
      "performCfg": "",
      "assetIndex": 3622387544031649866,
      "prePerformCfg": ""
    },
    {
      "id": 6531326,
      "priority": 1,
      "nextTalks": [
        6531335
      ],
      "initDialog": 653132601,
      "npcId": [
        5313
      ],
      "performCfg": "",
      "assetIndex": 3204231533814873275,
      "prePerformCfg": ""
    },
    {
      "id": 6531327,
      "priority": 1,
      "initDialog": 653132701,
      "npcId": [
        5313
      ],
      "performCfg": "",
      "assetIndex": 9356078208243098394,
      "prePerformCfg": ""
    },
    {
      "id": 6531328,
      "priority": 1,
      "initDialog": 653132801,
      "npcId": [
        5313
      ],
      "performCfg": "",
      "assetIndex": 11473996933068298821,
      "prePerformCfg": ""
    },
    {
      "id": 6531329,
      "priority": 1,
      "nextTalks": [
        6531336,
        6531337
      ],
      "initDialog": 653132901,
      "npcId": [
        5313
      ],
      "performCfg": "",
      "assetIndex": 7403509275248668203,
      "prePerformCfg": ""
    },
    {
      "id": 6531330,
      "priority": 1,
      "nextTalks": [
        6531336,
        6531337
      ],
      "initDialog": 653133001,
      "npcId": [
        5313
      ],
      "performCfg": "",
      "assetIndex": 17055922562264890424,
      "prePerformCfg": ""
    },
    {
      "id": 6531331,
      "priority": 1,
      "initDialog": 653133101,
      "npcId": [
        5313
      ],
      "performCfg": "",
      "assetIndex": 4882894069162199767,
      "prePerformCfg": ""
    },
    {
      "id": 6531332,
      "priority": 1,
      "initDialog": 653133201,
      "npcId": [
        5313
      ],
      "performCfg": "",
      "assetIndex": 9877497284799027370,
      "prePerformCfg": ""
    },
    {
      "id": 6531333,
      "priority": 1,
      "initDialog": 653133301,
      "npcId": [
        5313
      ],
      "performCfg": "",
      "assetIndex": 3322263651929056596,
      "prePerformCfg": ""
    },
    {
      "id": 6531334,
      "priority": 1,
      "initDialog": 653133401,
      "npcId": [
        5313
      ],
      "performCfg": "",
      "assetIndex": 11032572464820587288,
      "prePerformCfg": ""
    },
    {
      "id": 6531335,
      "priority": 1,
      "initDialog": 653133501,
      "npcId": [
        5313
      ],
      "performCfg": "",
      "assetIndex": 17242166322352479352,
      "prePerformCfg": ""
    },
    {
      "id": 6531336,
      "priority": 1,
      "initDialog": 653133601,
      "npcId": [
        5313
      ],
      "performCfg": "",
      "assetIndex": 12418272226610173630,
      "prePerformCfg": ""
    },
    {
      "id": 6531337,
      "priority": 1,
      "initDialog": 653133701,
      "npcId": [
        5313
      ],
      "performCfg": "",
      "assetIndex": 522053975464732808,
      "prePerformCfg": ""
    },
    {
      "id": 6531338,
      "beginCondComb": "LOGIC_AND",
      "beginCond": [
        {
          "type": "QUEST_COND_STATE_EQUAL",
          "_param": [
            "7402905",
            "3"
          ]
        },
        {
          "type": "QUEST_COND_STATE_EQUAL",
          "_param": [
            "7403908",
            "3"
          ]
        },
        {
          "type": "QUEST_COND_STATE_EQUAL",
          "_param": [
            "7404019",
            "3"
          ]
        },
        {
          "type": "QUEST_COND_STATE_EQUAL",
          "_param": [
            "7401005",
            "3"
          ]
        },
        {
          "type": "QUEST_COND_STATE_EQUAL",
          "_param": [
            "7401123",
            "3"
          ]
        },
        {
          "type": "QUEST_COND_STATE_EQUAL",
          "_param": [
            "7405807",
            "3"
          ]
        }
      ],
      "priority": 1,
      "initDialog": 653133801,
      "npcId": [
        5313
      ],
      "performCfg": "",
      "assetIndex": 9032693442141731995,
      "prePerformCfg": ""
    },
    {
      "id": 6531339,
      "priority": 1,
      "initDialog": 653133901,
      "npcId": [
        5313
      ],
      "performCfg": "",
      "assetIndex": 17178840490939316443,
      "prePerformCfg": ""
    },
    {
      "id": 6531340,
      "beginCond": [
        {
          "type": "QUEST_COND_QUEST_GLOBAL_VAR_EQUAL",
          "_param": [
            "7400703",
            "1"
          ]
        }
      ],
      "priority": 1,
      "initDialog": 653134001,
      "npcId": [
        5313
      ],
      "performCfg": "",
      "assetIndex": 13360044609326189661,
      "prePerformCfg": ""
    },
    {
      "id": 7491301,
      "beginWay": "TALK_BEGIN_MANUAL",
      "beginCondComb": "LOGIC_AND",
      "beginCond": [
        {
          "type": "QUEST_COND_QUEST_NOT_RECEIVE",
          "_param": [
            "7491301",
            "1"
          ]
        },
        {
          "type": "QUEST_COND_STATE_EQUAL",
          "_param": [
            "7400716",
            "3"
          ]
        }
      ],
      "initDialog": 749130101,
      "npcId": [
        5313
      ],
      "performCfg": "",
      "assetIndex": 16353510763085576553,
      "dontBlockDaily": true,
      "prePerformCfg": ""
    }
  ]
}