[
  {
    "Default": {
      "$type": "MoleMole.Config.GNKCLKNDOAK",
      "abilityName": "Activity_ActivityTeamChain_TeamControlBuff",
      "PIDAPNFJNDF": [
        {
          "$type": "MoleMole.Config.AttachModifierToSelfGlobalValueMixin",
          "globalValueKey": "_GO_CJB_TRIGGER",
          "KADKJMOFOLI": 0.0,
          "FJEPHJNDEAI": [
            -0.5,
            0.5,
            1.5
          ],
          "IJEPHCMOAPE": [
            "No_CJB_Trigger",
            "Has_CJB_Trigger"
          ]
        }
      ],
      "LLLCANIGIOE": {
        "AvatarBuffDuration": 0.0,
        "CJBDamageRatio": 0.0,
        "CJBCD": 0.0,
        "ChooseCD": 0.0,
        "MaxCJBNum": 0.0
      },
      "BFBDNNJCDLH": {
        "No_CJB_Trigger": {
          "modifierName": "",
          "elementDurability": 100.0
        },
        "Has_CJB_Trigger": {
          "modifierName": "",
          "elementDurability": 100.0,
          "OAOGLLGGJPD": [
            {
              "$type": "MoleMole.Config.ApplyModifier",
              "modifierName": "ChooseMonster_CD"
            },
            {
              "$type": "MoleMole.Config.SetGlobalValue",
              "value": 1.0,
              "key": "_CJB_NUM",
              "maxValue": 0.0,
              "GCEOGBJIFCP": 0.0
            },
            {
              "$type": "MoleMole.Config.ApplyModifier",
              "modifierName": "Reset_CJB_Value"
            }
          ]
        },
        "Reset_CJB_Value": {
          "modifierName": "",
          "duration": 0.30000001192092896,
          "elementDurability": 100.0,
          "MINFJCDAIBB": [
            {
              "$type": "MoleMole.Config.SetGlobalValue",
              "value": 0.0,
              "key": "_GO_CJB_TRIGGER",
              "maxValue": 0.0,
              "GCEOGBJIFCP": 0.0
            }
          ]
        },
        "ChooseMonster_CD": {
          "modifierName": "",
          "duration": "ChooseCD",
          "elementDurability": 100.0,
          "OAOGLLGGJPD": [
            {
              "$type": "MoleMole.Config.SetGlobalValue",
              "value": 1.0,
              "key": "_CHOOSE_IN_CD",
              "maxValue": 0.0,
              "GCEOGBJIFCP": 0.0
            }
          ],
          "MINFJCDAIBB": [
            {
              "$type": "MoleMole.Config.SetGlobalValue",
              "value": 0.0,
              "key": "_CHOOSE_IN_CD",
              "maxValue": 0.0,
              "GCEOGBJIFCP": 0.0
            }
          ]
        },
        "Activity_ActivityTeamChain_AvatarCJBBuff": {
          "modifierName": "",
          "elementDurability": 100.0,
          "JPIFFPJJEMK": [
            {
              "$type": "MoleMole.Config.CurLocalAvatarMixinV2",
              "modifierName": "Activity_ActivityTeamChain_AvatarCJBBuff_OnBattle"
            }
          ]
        },
        "CJB_DAMAGE_INCD": {
          "modifierName": "",
          "duration": "CJBCD",
          "elementDurability": 100.0,
          "OAOGLLGGJPD": [
            {
              "$type": "MoleMole.Config.SetGlobalValue",
              "value": 1.0,
              "key": "_CJB_IN_CD",
              "maxValue": 0.0,
              "GCEOGBJIFCP": 0.0
            },
            {
              "$type": "MoleMole.Config.AddGlobalValue",
              "value": 1.0,
              "key": "_CJB_NUM",
              "HPICGAMGEGA": true,
              "maxValue": 10.0,
              "GCEOGBJIFCP": 0.0
            }
          ],
          "MINFJCDAIBB": [
            {
              "$type": "MoleMole.Config.SetGlobalValue",
              "value": 0.0,
              "key": "_CJB_IN_CD",
              "maxValue": 0.0,
              "GCEOGBJIFCP": 0.0
            }
          ]
        },
        "Activity_ActivityTeamChain_AvatarCJBBuff_OnBattle": {
          "modifierName": "",
          "elementDurability": 100.0,
          "GAPANNMIBJA": [
            {
              "$type": "MoleMole.Config.Predicated",
              "MLDBFKEGPEF": "Other",
              "CKBKOCJPJMM": [
                {
                  "$type": "DLLOJMFICPG",
                  "JBEIOINCLFB": [
                    "Monster"
                  ]
                },
                {
                  "$type": "IPGGGPIJONN",
                  "MLDBFKEGPEF": "Team",
                  "key": "_CJB_IN_CD",
                  "value": 0.0,
                  "compareType": "NoneOrEqual"
                },
                {
                  "$type": "IPGGGPIJONN",
                  "MLDBFKEGPEF": "Team",
                  "key": "_CJB_NUM",
                  "value": "MaxCJBNum",
                  "compareType": "LessAndEqual"
                },
                {
                  "$type": "IPGGGPIJONN",
                  "MLDBFKEGPEF": "Team",
                  "key": "_CHOOSE_IN_CD",
                  "value": 1.0
                }
              ],
              "successActions": [
                {
                  "$type": "MoleMole.Config.FireEffect",
                  "MLDBFKEGPEF": "Other",
                  "effectPattern": "Eff_EnergyDisk_ElementalBurst_Wave_R40",
                  "born": {
                    "$type": "INKMBJGOPCK"
                  },
                  "effectTempleteID": -1.0
                },
                {
                  "$type": "MoleMole.Config.TriggerAttackEvent",
                  "MLDBFKEGPEF": "CurLocalAvatar",
                  "doOffStage": false,
                  "attackEvent": {
                    "attackPattern": {
                      "$type": "IJCIPLFIDAK",
                      "triggerType": "TriggerNoRepeat",
                      "born": {
                        "$type": "DALKAHOBDMD"
                      },
                      "MFGGJCPPBGA": 4.0
                    },
                    "attackInfo": {
                      "attackTag": "",
                      "attenuationTag": "",
                      "attenuationGroup": "default",
                      "attackProperty": {
                        "damagePercentageRatio": 0.0,
                        "elementDurability": 0.0,
                        "ignoreAttackerProperty": true,
                        "enBreak": 25.0,
                        "attackType": "Melee",
                        "damageExtra": [
                          "CJBDamageRatio",
                          "DamageSystemValue",
                          "MUL"
                        ],
                        "trueDamage": true,
                        "ignoreModifyDamage": true,
                        "damagePercentage": 0.0
                      },
                      "hitPattern": {
                        "onHitEffectName": "default",
                        "hitImpulseY": "",
                        "hitImpulseType": "LV2",
                        "hitHaltTimeScale": 0.019999999552965164
                      }
                    }
                  },
                  "targetType": "Enemy"
                },
                {
                  "$type": "MoleMole.Config.ApplyModifier",
                  "MLDBFKEGPEF": "Team",
                  "modifierName": "CJB_DAMAGE_INCD"
                }
              ]
            }
          ]
        }
      },
      "OAOGLLGGJPD": [
        {
          "$type": "MoleMole.Config.SetSystemValueToOverrideMap",
          "key": "DamageSystemValue",
          "KPGKDHAFHFE": "ElementLevelCo"
        },
        {
          "$type": "MoleMole.Config.ApplyModifier",
          "modifierName": "Activity_ActivityTeamChain_AvatarCJBBuff"
        }
      ],
      "LLNGCHGGPLC": true
    }
  },
  {
    "Default": {
      "$type": "MoleMole.Config.GNKCLKNDOAK",
      "abilityName": "Activity_ActivityTeamChainV3.4_TideBuff",
      "PIDAPNFJNDF": [
        {
          "$type": "MoleMole.Config.AttachModifierToGlobalValueMixin",
          "globalValueKey": "_IN_HIGH_TIDE_V3.4",
          "FJEPHJNDEAI": [
            -0.5,
            0.5,
            1.5
          ],
          "IJEPHCMOAPE": [
            "Crazy_In_Peace",
            "Crazy_DamageUp"
          ]
        },
        {
          "$type": "MoleMole.Config.ServerUpdateGlobalValueMixin",
          "key": "_IN_HIGH_TIDE_V3.4",
          "HPICGAMGEGA": true,
          "maxValue": 1.0,
          "GCEOGBJIFCP": 0.0
        }
      ],
      "LLLCANIGIOE": {
        "DamageUp": 0.0
      },
      "BFBDNNJCDLH": {
        "Crazy_In_Peace": {
          "modifierName": "",
          "elementDurability": 100.0
        },
        "Crazy_DamageUp": {
          "modifierName": "",
          "elementDurability": 100.0,
          "JPIFFPJJEMK": [
            {
              "$type": "MoleMole.Config.CurLocalAvatarMixinV2",
              "modifierName": "Crazy_DamageUp_TeamChainV3.4_Eff"
            }
          ],
          "OAOGLLGGJPD": [
            {
              "$type": "MoleMole.Config.AttachModifier",
              "MLDBFKEGPEF": "AllPlayerAvatars",
              "modifierName": "Crazy_DamageUp_TeamChainV3.4"
            }
          ]
        },
        "Crazy_DamageUp_TeamChainV3.4": {
          "modifierName": "",
          "elementDurability": 100.0,
          "EPKCPIKGJOJ": {
            "Actor_FireAddHurtDelta": "DamageUp",
            "Actor_ElecAddHurtDelta": "DamageUp",
            "Actor_WaterAddHurtDelta": "DamageUp",
            "Actor_GrassAddHurtDelta": "DamageUp",
            "Actor_WindAddHurtDelta": "DamageUp",
            "Actor_IceAddHurtDelta": "DamageUp",
            "Actor_RockAddHurtDelta": "DamageUp",
            "Actor_PhysicalAddHurtDelta": "DamageUp"
          },
          "state": "AttackUp"
        },
        "Crazy_DamageUp_TeamChainV3.4_Eff": {
          "modifierName": "",
          "elementDurability": 100.0
        }
      },
      "OAOGLLGGJPD": [
        {
          "$type": "MoleMole.Config.SetGlobalValue",
          "value": 0.0,
          "key": "_IN_HIGH_TIDE_V3.4",
          "maxValue": 0.0,
          "GCEOGBJIFCP": 0.0
        }
      ],
      "LLNGCHGGPLC": true
    }
  },
  {
    "Default": {
      "$type": "MoleMole.Config.GNKCLKNDOAK",
      "abilityName": "Activity_TeamChain_LockedAvatar",
      "LLLCANIGIOE": {
        "DamageUpRatio": 0.0,
        "OffStageInterval": 0.0,
        "Energy": 0.0
      },
      "BFBDNNJCDLH": {
        "UNIQUE_TeamChain_LockedAvatar": {
          "modifierName": "",
          "LLIJGLMEHFK": true,
          "elementDurability": 100.0,
          "JPIFFPJJEMK": [
            {
              "$type": "MoleMole.Config.ModifyDamageMixin",
              "AJGLAJPHEPD": true,
              "damagePercentageRatio": "DamageUpRatio"
            }
          ]
        },
        "UNIQUE_TeamChain_LockedAvatar_OffStage": {
          "EODJPKICNGG": "Unique",
          "modifierName": "",
          "LLIJGLMEHFK": true,
          "elementDurability": 100.0,
          "BNJENAIMDPL": "OffStageInterval",
          "PJKELBNICOI": [
            {
              "$type": "MoleMole.Config.Predicated",
              "doOffStage": true,
              "CKBKOCJPJMM": [
                {
                  "$type": "BPMNCCOGFOG"
                }
              ],
              "successActions": [
                {
                  "$type": "MoleMole.Config.Predicated",
                  "doOffStage": true,
                  "CKBKOCJPJMM": [
                    {
                      "$type": "DBDFKPKPBAB",
                      "MLDBFKEGPEF": "Self"
                    }
                  ],
                  "failActions": [
                    {
                      "$type": "MoleMole.Config.ReviveElemEnergy",
                      "doOffStage": true,
                      "value": "Energy"
                    }
                  ]
                }
              ]
            }
          ]
        }
      },
      "OAOGLLGGJPD": [
        {
          "$type": "MoleMole.Config.AttachModifier",
          "modifierName": "UNIQUE_TeamChain_LockedAvatar"
        },
        {
          "$type": "MoleMole.Config.AttachModifier",
          "doOffStage": true,
          "modifierName": "UNIQUE_TeamChain_LockedAvatar_OffStage"
        }
      ],
      "LLNGCHGGPLC": true
    }
  },
  {
    "Default": {
      "$type": "MoleMole.Config.GNKCLKNDOAK",
      "abilityName": "Activity_TeamChain_ElementAddHurt_Swirl",
      "LLLCANIGIOE": {
        "ElementAddHurt_Swirl": 0.0
      },
      "BFBDNNJCDLH": {
        "UNIQUE_TeamChain_ElementAddHurt_Swirl": {
          "EODJPKICNGG": "Unique",
          "modifierName": "",
          "LLIJGLMEHFK": true,
          "elementDurability": 100.0,
          "EPKCPIKGJOJ": {
            "Actor_ElemReactSwirlFireDelta": "ElementAddHurt_Swirl",
            "Actor_ElemReactSwirlWaterDelta": "ElementAddHurt_Swirl",
            "Actor_ElemReactSwirlIceDelta": "ElementAddHurt_Swirl",
            "Actor_ElemReactSwirlElectricDelta": "ElementAddHurt_Swirl"
          },
          "MLEHCOACPPM": true
        }
      },
      "OAOGLLGGJPD": [
        {
          "$type": "MoleMole.Config.AttachModifier",
          "modifierName": "UNIQUE_TeamChain_ElementAddHurt_Swirl"
        }
      ],
      "LLNGCHGGPLC": true
    }
  },
  {
    "Default": {
      "$type": "MoleMole.Config.GNKCLKNDOAK",
      "abilityName": "Activity_TeamChain_Frozen_PercentageRatio",
      "LLLCANIGIOE": {
        "damagePercentageRatio": 0.0
      },
      "BFBDNNJCDLH": {
        "Activity_TeamChain_Frozen_PercentageRatio": {
          "modifierName": "",
          "elementDurability": 100.0,
          "JPIFFPJJEMK": [
            {
              "$type": "MoleMole.Config.ModifyDamageMixin",
              "AJGLAJPHEPD": true,
              "damagePercentageRatio": "damagePercentageRatio",
              "predicates": [
                {
                  "$type": "GEEHPIJOEHM",
                  "EPKEHKFABDD": "ElementFrozen"
                }
              ]
            }
          ]
        }
      },
      "OAOGLLGGJPD": [
        {
          "$type": "MoleMole.Config.AttachModifier",
          "modifierName": "Activity_TeamChain_Frozen_PercentageRatio"
        }
      ],
      "LLNGCHGGPLC": true
    }
  },
  {
    "Default": {
      "$type": "MoleMole.Config.GNKCLKNDOAK",
      "abilityName": "Activity_TeamChain_BurstDamageUp_ReduceCD",
      "LLLCANIGIOE": {
        "ElementalBurst_Rate": 0.0,
        "Actor_SkillCDMinusRatio": 0.0
      },
      "BFBDNNJCDLH": {
        "UNIQUE_TeamChain_BurstDamageUp_ReduceCD": {
          "modifierName": "",
          "LLIJGLMEHFK": true,
          "elementDurability": 100.0,
          "JPIFFPJJEMK": [
            {
              "$type": "MoleMole.Config.ModifyDamageMixin",
              "attackTags": [
                "Elemental_Burst"
              ],
              "damagePercentageRatio": "ElementalBurst_Rate"
            }
          ],
          "EPKCPIKGJOJ": {
            "Actor_SkillCDMinusRatio": "Actor_SkillCDMinusRatio"
          }
        }
      },
      "OAOGLLGGJPD": [
        {
          "$type": "MoleMole.Config.AttachModifier",
          "modifierName": "UNIQUE_TeamChain_BurstDamageUp_ReduceCD"
        }
      ],
      "LLNGCHGGPLC": true
    }
  },
  {
    "Default": {
      "$type": "MoleMole.Config.GNKCLKNDOAK",
      "abilityName": "Activity_TeamChain_UltGainEnergy",
      "LLLCANIGIOE": {
        "Duration": 0.0,
        "Interval": 0.0,
        "Energy": 0.0
      },
      "BFBDNNJCDLH": {
        "UNIQUE_Activity_TeamChain_UltGainEnergy_Handler": {
          "modifierName": "",
          "LLIJGLMEHFK": true,
          "elementDurability": 100.0,
          "JPIFFPJJEMK": [
            {
              "$type": "MoleMole.Config.OnAvatarUseSkillMixin",
              "PEOLNCKHHLK": [
                {
                  "$type": "MoleMole.Config.ApplyModifier",
                  "doOffStage": true,
                  "modifierName": "UNIQUE_Activity_TeamChain_UltGainEnergy_Effect"
                }
              ],
              "LDBMACDFMBC": 0.20000000298023224
            }
          ]
        },
        "UNIQUE_Activity_TeamChain_UltGainEnergy_Effect": {
          "modifierName": "",
          "LLIJGLMEHFK": true,
          "duration": "Duration",
          "elementDurability": 100.0,
          "BNJENAIMDPL": "Interval",
          "PJKELBNICOI": [
            {
              "$type": "MoleMole.Config.ReviveElemEnergy",
              "doOffStage": true,
              "value": "Energy"
            }
          ]
        }
      },
      "OAOGLLGGJPD": [
        {
          "$type": "MoleMole.Config.AttachModifier",
          "doOffStage": true,
          "modifierName": "UNIQUE_Activity_TeamChain_UltGainEnergy_Handler"
        }
      ],
      "LLNGCHGGPLC": true
    }
  },
  {
    "Default": {
      "$type": "MoleMole.Config.GNKCLKNDOAK",
      "abilityName": "Activity_TeamChain_GrassReaction_ElemMasteryDelta",
      "LLLCANIGIOE": {
        "GrassReaction_ElemMasteryDelta": 0.0,
        "BuffTime": 0.0,
        "BuffMaxLevel": 0.0,
        "Multiple_CdTime": 0.0
      },
      "BFBDNNJCDLH": {
        "UNIQUE_TeamChain_GrassReaction_ElemMasteryDelta_Handler": {
          "modifierName": "",
          "LLIJGLMEHFK": true,
          "elementDurability": 100.0,
          "JPIFFPJJEMK": [
            {
              "$type": "MoleMole.Config.DoActionByElementReactionMixin",
              "JBEIOINCLFB": [
                "Monster"
              ],
              "NDAGPIMPPKE": [
                "Burning",
                "Overdose",
                "Overgrow",
                "OverdoseGrass",
                "OverdoseElectric",
                "OvergrowMushroomElectric",
                "OvergrowMushroomFire"
              ],
              "actions": [
                {
                  "$type": "MoleMole.Config.ApplyModifier",
                  "MLDBFKEGPEF": "Team",
                  "doOffStage": true,
                  "modifierName": "UNIQUE_TeamChain_GrassReaction_ElemMasteryDelta_Multiple_Handler"
                }
              ]
            }
          ]
        },
        "UNIQUE_TeamChain_GrassReaction_ElemMasteryDelta_Multiple_Handler": {
          "EODJPKICNGG": "Unique",
          "modifierName": "",
          "LLIJGLMEHFK": true,
          "duration": "Multiple_CdTime",
          "elementDurability": 100.0,
          "OAOGLLGGJPD": [
            {
              "$type": "MoleMole.Config.ApplyModifier",
              "MLDBFKEGPEF": "CurTeamAvatars",
              "doOffStage": true,
              "modifierName": "UNIQUE_TeamChain_GrassReaction_ElemMasteryDelta_MultipleEffect"
            }
          ]
        },
        "UNIQUE_TeamChain_GrassReaction_ElemMasteryDelta_MultipleEffect": {
          "EODJPKICNGG": "MultipleRefreshNoRemove",
          "MPHEFFBDDNI": {
            "DFCKOFNNADO": "",
            "PDBIGMFIALF": "BuffMaxLevel",
            "AIPKMDBHOMN": true
          },
          "modifierName": "",
          "LLIJGLMEHFK": true,
          "duration": "BuffTime",
          "elementDurability": 100.0,
          "EPKCPIKGJOJ": {
            "Actor_ElemMasteryDelta": "GrassReaction_ElemMasteryDelta"
          },
          "state": "AttackUp"
        }
      },
      "OAOGLLGGJPD": [
        {
          "$type": "MoleMole.Config.AttachModifier",
          "doOffStage": true,
          "modifierName": "UNIQUE_TeamChain_GrassReaction_ElemMasteryDelta_Handler"
        }
      ],
      "LLNGCHGGPLC": true
    }
  },
  {
    "Default": {
      "$type": "MoleMole.Config.GNKCLKNDOAK",
      "abilityName": "Activity_TeamChain_NormalAttackAndElementalArt_DamageUp",
      "LLLCANIGIOE": {
        "NormalAttackRate": 0.0,
        "ElementalArtRate": 0.0
      },
      "BFBDNNJCDLH": {
        "UNIQUE_TeamChain_NormalAttackAndElementalArt_DamageUp": {
          "modifierName": "",
          "LLIJGLMEHFK": true,
          "elementDurability": 100.0,
          "JPIFFPJJEMK": [
            {
              "$type": "MoleMole.Config.ModifyDamageMixin",
              "attackTags": [
                "NormalAttack_01",
                "NormalAttack_02",
                "NormalAttack_03",
                "NormalAttack_04",
                "NormalAttack_05",
                "NormalAttack_06"
              ],
              "damagePercentageRatio": "NormalAttackRate"
            },
            {
              "$type": "MoleMole.Config.ModifyDamageMixin",
              "attackTags": [
                "Elemental_Art",
                "Elemental_Art_Hold",
                "Elemental_Art_Extra"
              ],
              "damagePercentageRatio": "ElementalArtRate"
            }
          ]
        }
      },
      "OAOGLLGGJPD": [
        {
          "$type": "MoleMole.Config.ApplyModifier",
          "modifierName": "UNIQUE_TeamChain_NormalAttackAndElementalArt_DamageUp"
        }
      ],
      "LLNGCHGGPLC": true
    }
  },
  {
    "Default": {
      "$type": "MoleMole.Config.GNKCLKNDOAK",
      "abilityName": "Activity_TeamChain_FallingWindZone",
      "LLLCANIGIOE": {
        "FallingDamageUp": 0.0,
        "WindZone_CD": 0.0
      },
      "BFBDNNJCDLH": {
        "UNIQUE_TeamChain_FallingWindZone_Handler": {
          "modifierName": "",
          "LLIJGLMEHFK": true,
          "elementDurability": 100.0,
          "JPIFFPJJEMK": [
            {
              "$type": "MoleMole.Config.ModifyDamageMixin",
              "attackTags": [
                "FallingAttack"
              ],
              "damagePercentageRatio": "FallingDamageUp"
            }
          ],
          "GAPANNMIBJA": [
            {
              "$type": "MoleMole.Config.Predicated",
              "MLDBFKEGPEF": "Other",
              "CKBKOCJPJMM": [
                {
                  "$type": "DLLOJMFICPG",
                  "JBEIOINCLFB": [
                    "Monster"
                  ]
                },
                {
                  "$type": "IPGGGPIJONN",
                  "MLDBFKEGPEF": "Team",
                  "key": "RogueV2_FallingWindZone_CD",
                  "value": 0.0,
                  "compareType": "NoneOrEqual"
                },
                {
                  "$type": "AIIEFALBANL",
                  "MLDBFKEGPEF": "Self",
                  "attackTags": [
                    "FallingAttack"
                  ]
                }
              ],
              "successActions": [
                {
                  "$type": "MoleMole.Config.ApplyModifier",
                  "doOffStage": true,
                  "modifierName": "TeamChain_FallingWindZone_WindZoneEffect"
                }
              ]
            }
          ]
        },
        "TeamChain_FallingWindZone_WindZoneEffect": {
          "modifierName": "",
          "duration": 0.20000000298023224,
          "elementDurability": 100.0,
          "MINFJCDAIBB": [
            {
              "$type": "MoleMole.Config.CreateGadget",
              "doOffStage": true,
              "born": {
                "$type": "KPFCCIOJAMK",
                "offset": {
                  "GOAPOLCAJBP": 0.0,
                  "FMOPCJGGFMH": 0.5,
                  "EJJEPFCDDAM": 0.0
                },
                "useRotation": true
              },
              "gadgetID": 44000428,
              "campID": 1001,
              "FAMCBLCIFCJ": "Enemy"
            },
            {
              "$type": "MoleMole.Config.ApplyModifier",
              "MLDBFKEGPEF": "Team",
              "doOffStage": true,
              "modifierName": "UNIQUE_TeamChain_FallingWindZone_WindZone_CD"
            }
          ]
        },
        "UNIQUE_TeamChain_FallingWindZone_WindZone_CD": {
          "EODJPKICNGG": "Unique",
          "modifierName": "",
          "LLIJGLMEHFK": true,
          "duration": "WindZone_CD",
          "elementDurability": 100.0,
          "OAOGLLGGJPD": [
            {
              "$type": "MoleMole.Config.SetGlobalValue",
              "value": -1.0,
              "key": "RogueV2_FallingWindZone_CD",
              "maxValue": 0.0,
              "GCEOGBJIFCP": 0.0
            }
          ],
          "MINFJCDAIBB": [
            {
              "$type": "MoleMole.Config.SetGlobalValue",
              "value": 0.0,
              "key": "RogueV2_FallingWindZone_CD",
              "maxValue": 0.0,
              "GCEOGBJIFCP": 0.0
            }
          ]
        }
      },
      "OAOGLLGGJPD": [
        {
          "$type": "MoleMole.Config.AttachModifier",
          "modifierName": "UNIQUE_TeamChain_FallingWindZone_Handler"
        }
      ],
      "LLNGCHGGPLC": true
    }
  },
  {
    "Default": {
      "$type": "MoleMole.Config.GNKCLKNDOAK",
      "abilityName": "Activity_TeamChain_Mastery_DamageUp",
      "LLLCANIGIOE": {
        "DamageUpTime": 0.0,
        "DamageUpRatio": 0.0
      },
      "BFBDNNJCDLH": {
        "UNIQUE_TeamChain_Mastery_DamageUp": {
          "modifierName": "",
          "LLIJGLMEHFK": true,
          "elementDurability": 100.0,
          "JPIFFPJJEMK": [
            {
              "$type": "MoleMole.Config.DoActionByElementReactionMixin",
              "JBEIOINCLFB": [
                "Monster"
              ],
              "NDAGPIMPPKE": [
                "SwirlFire",
                "SwirlElectric",
                "SwirlWater",
                "SwirlIce"
              ],
              "actions": [
                {
                  "$type": "MoleMole.Config.AttachModifier",
                  "MLDBFKEGPEF": "CurTeamAvatars",
                  "doOffStage": true,
                  "modifierName": "TeamChain_Mastery_BuffEffect"
                }
              ]
            }
          ]
        },
        "TeamChain_Mastery_BuffEffect": {
          "modifierName": "",
          "duration": "DamageUpTime",
          "elementDurability": 100.0,
          "JPIFFPJJEMK": [
            {
              "$type": "MoleMole.Config.ModifyDamageMixin",
              "AJGLAJPHEPD": true,
              "damagePercentageRatio": "DamageUpRatio"
            }
          ]
        }
      },
      "OAOGLLGGJPD": [
        {
          "$type": "MoleMole.Config.AttachModifier",
          "doOffStage": true,
          "modifierName": "UNIQUE_TeamChain_Mastery_DamageUp"
        }
      ],
      "LLNGCHGGPLC": true
    }
  },
  {
    "Default": {
      "$type": "MoleMole.Config.GNKCLKNDOAK",
      "abilityName": "Activity_TeamChain_AttackSpeedRatio",
      "LLLCANIGIOE": {
        "AttackSpeedRatio": 0.0,
        "CriticalUpValue": 0.0
      },
      "BFBDNNJCDLH": {
        "UNIQUE_Activity_TeamChain_AttackSpeedRatio": {
          "EODJPKICNGG": "Unique",
          "modifierName": "",
          "LLIJGLMEHFK": true,
          "elementDurability": 100.0,
          "JPIFFPJJEMK": [
            {
              "$type": "MoleMole.Config.ModifyDamageMixin",
              "attackTags": [
                "NormalAttack_01",
                "NormalAttack_02",
                "NormalAttack_03",
                "NormalAttack_04",
                "NormalAttack_05",
                "NormalAttack_06"
              ],
              "damagePercentageRatio": 0.0,
              "bonusCritical": "CriticalUpValue"
            }
          ],
          "EPKCPIKGJOJ": {
            "Animator_AttackSpeedRatio": "AttackSpeedRatio"
          },
          "MLEHCOACPPM": true
        }
      },
      "OAOGLLGGJPD": [
        {
          "$type": "MoleMole.Config.AttachModifier",
          "modifierName": "UNIQUE_Activity_TeamChain_AttackSpeedRatio"
        }
      ],
      "LLNGCHGGPLC": true
    }
  },
  {
    "Default": {
      "$type": "MoleMole.Config.GNKCLKNDOAK",
      "abilityName": "Activity_TeamChain_NormalAttackDamageUp",
      "LLLCANIGIOE": {
        "Rate": 0.0
      },
      "BFBDNNJCDLH": {
        "UNIQUE_TeamChain_NormalAttackDamageUp": {
          "modifierName": "",
          "LLIJGLMEHFK": true,
          "elementDurability": 100.0,
          "JPIFFPJJEMK": [
            {
              "$type": "MoleMole.Config.ModifyDamageMixin",
              "attackTags": [
                "NormalAttack_01",
                "NormalAttack_02",
                "NormalAttack_03",
                "NormalAttack_04",
                "NormalAttack_05",
                "NormalAttack_06"
              ],
              "damagePercentageRatio": "Rate"
            }
          ]
        }
      },
      "OAOGLLGGJPD": [
        {
          "$type": "MoleMole.Config.ApplyModifier",
          "modifierName": "UNIQUE_TeamChain_NormalAttackDamageUp"
        }
      ],
      "LLNGCHGGPLC": true
    }
  },
  {
    "Default": {
      "$type": "MoleMole.Config.GNKCLKNDOAK",
      "abilityName": "Activity_TeamChain_AttackRatio",
      "LLLCANIGIOE": {
        "AttackRatio": 0.0
      },
      "BFBDNNJCDLH": {
        "UNIQUE_Activity_TeamChain_AttackRatio": {
          "EODJPKICNGG": "Unique",
          "modifierName": "",
          "LLIJGLMEHFK": true,
          "elementDurability": 100.0,
          "EPKCPIKGJOJ": {
            "Actor_AttackRatio": "AttackRatio"
          },
          "MLEHCOACPPM": true
        }
      },
      "OAOGLLGGJPD": [
        {
          "$type": "MoleMole.Config.AttachModifier",
          "modifierName": "UNIQUE_Activity_TeamChain_AttackRatio"
        }
      ],
      "LLNGCHGGPLC": true
    }
  },
  {
    "Default": {
      "$type": "MoleMole.Config.GNKCLKNDOAK",
      "abilityName": "Activity_TeamChain_CriticalHurtDelta",
      "LLLCANIGIOE": {
        "CriticalHurt": 0.0
      },
      "BFBDNNJCDLH": {
        "UNIQUE_Activity_TeamChain_CriticalHurtDelta": {
          "EODJPKICNGG": "Unique",
          "modifierName": "",
          "LLIJGLMEHFK": true,
          "elementDurability": 100.0,
          "EPKCPIKGJOJ": {
            "Actor_CriticalHurtDelta": "CriticalHurt"
          },
          "MLEHCOACPPM": true
        }
      },
      "OAOGLLGGJPD": [
        {
          "$type": "MoleMole.Config.AttachModifier",
          "modifierName": "UNIQUE_Activity_TeamChain_CriticalHurtDelta"
        }
      ],
      "LLNGCHGGPLC": true
    }
  },
  {
    "Default": {
      "$type": "MoleMole.Config.GNKCLKNDOAK",
      "abilityName": "Activity_TeamChain_ElemMasteryDeltaUp",
      "LLLCANIGIOE": {
        "ElemMasteryDelta": 0.0
      },
      "BFBDNNJCDLH": {
        "UNIQUE_Activity_TeamChain_ElemMasteryDeltaUp": {
          "EODJPKICNGG": "Unique",
          "modifierName": "",
          "LLIJGLMEHFK": true,
          "elementDurability": 100.0,
          "EPKCPIKGJOJ": {
            "Actor_ElemMasteryDelta": "ElemMasteryDelta"
          },
          "MLEHCOACPPM": true
        }
      },
      "OAOGLLGGJPD": [
        {
          "$type": "MoleMole.Config.AttachModifier",
          "modifierName": "UNIQUE_Activity_TeamChain_ElemMasteryDeltaUp"
        }
      ],
      "LLNGCHGGPLC": true
    }
  },
  {
    "Default": {
      "$type": "MoleMole.Config.GNKCLKNDOAK",
      "abilityName": "Activity_TeamChain_BurstDamageUp",
      "LLLCANIGIOE": {
        "Rate": 0.0
      },
      "BFBDNNJCDLH": {
        "UNIQUE_TeamChain_BurstDamageUp": {
          "modifierName": "",
          "LLIJGLMEHFK": true,
          "elementDurability": 100.0,
          "JPIFFPJJEMK": [
            {
              "$type": "MoleMole.Config.ModifyDamageMixin",
              "attackTags": [
                "Elemental_Burst"
              ],
              "damagePercentageRatio": "Rate"
            }
          ]
        }
      },
      "OAOGLLGGJPD": [
        {
          "$type": "MoleMole.Config.ApplyModifier",
          "modifierName": "UNIQUE_TeamChain_BurstDamageUp"
        }
      ],
      "LLNGCHGGPLC": true
    }
  },
  {
    "Default": {
      "$type": "MoleMole.Config.GNKCLKNDOAK",
      "abilityName": "Activity_TeamChain_ElementAddHurt_Wind",
      "LLLCANIGIOE": {
        "ElementAddHurt": 0.0
      },
      "BFBDNNJCDLH": {
        "UNIQUE_Activity_TeamChain_ElementAddHurt_Wind": {
          "EODJPKICNGG": "Unique",
          "modifierName": "",
          "LLIJGLMEHFK": true,
          "elementDurability": 100.0,
          "EPKCPIKGJOJ": {
            "Actor_WindAddHurtDelta": "ElementAddHurt"
          },
          "MLEHCOACPPM": true
        }
      },
      "OAOGLLGGJPD": [
        {
          "$type": "MoleMole.Config.AttachModifier",
          "modifierName": "UNIQUE_Activity_TeamChain_ElementAddHurt_Wind"
        }
      ],
      "LLNGCHGGPLC": true
    }
  },
  {
    "Default": {
      "$type": "MoleMole.Config.GNKCLKNDOAK",
      "abilityName": "Activity_TeamChain_ElementAddHurt_Fire",
      "LLLCANIGIOE": {
        "ElementAddHurt": 0.0
      },
      "BFBDNNJCDLH": {
        "UNIQUE_Activity_TeamChain_ElementAddHurt_Fire": {
          "EODJPKICNGG": "Unique",
          "modifierName": "",
          "LLIJGLMEHFK": true,
          "elementDurability": 100.0,
          "EPKCPIKGJOJ": {
            "Actor_FireAddHurtDelta": "ElementAddHurt"
          },
          "MLEHCOACPPM": true
        }
      },
      "OAOGLLGGJPD": [
        {
          "$type": "MoleMole.Config.AttachModifier",
          "modifierName": "UNIQUE_Activity_TeamChain_ElementAddHurt_Fire"
        }
      ],
      "LLNGCHGGPLC": true
    }
  },
  {
    "Default": {
      "$type": "MoleMole.Config.GNKCLKNDOAK",
      "abilityName": "Activity_TeamChain_ElementAddHurt_Elec",
      "LLLCANIGIOE": {
        "ElementAddHurt": 0.0
      },
      "BFBDNNJCDLH": {
        "UNIQUE_Activity_TeamChain_ElementAddHurt_Elec": {
          "EODJPKICNGG": "Unique",
          "modifierName": "",
          "LLIJGLMEHFK": true,
          "elementDurability": 100.0,
          "EPKCPIKGJOJ": {
            "Actor_ElecAddHurtDelta": "ElementAddHurt"
          },
          "MLEHCOACPPM": true
        }
      },
      "OAOGLLGGJPD": [
        {
          "$type": "MoleMole.Config.AttachModifier",
          "modifierName": "UNIQUE_Activity_TeamChain_ElementAddHurt_Elec"
        }
      ],
      "LLNGCHGGPLC": true
    }
  },
  {
    "Default": {
      "$type": "MoleMole.Config.GNKCLKNDOAK",
      "abilityName": "Activity_TeamChain_ElementAddHurt_Water",
      "LLLCANIGIOE": {
        "ElementAddHurt": 0.0
      },
      "BFBDNNJCDLH": {
        "UNIQUE_Activity_TeamChain_ElementAddHurt_Water": {
          "EODJPKICNGG": "Unique",
          "modifierName": "",
          "LLIJGLMEHFK": true,
          "elementDurability": 100.0,
          "EPKCPIKGJOJ": {
            "Actor_WaterAddHurtDelta": "ElementAddHurt"
          },
          "MLEHCOACPPM": true
        }
      },
      "OAOGLLGGJPD": [
        {
          "$type": "MoleMole.Config.AttachModifier",
          "modifierName": "UNIQUE_Activity_TeamChain_ElementAddHurt_Water"
        }
      ],
      "LLNGCHGGPLC": true
    }
  },
  {
    "Default": {
      "$type": "MoleMole.Config.GNKCLKNDOAK",
      "abilityName": "Activity_TeamChain_ElementAddHurt_Grass",
      "LLLCANIGIOE": {
        "ElementAddHurt": 0.0
      },
      "BFBDNNJCDLH": {
        "UNIQUE_Activity_TeamChain_ElementAddHurt_Grass": {
          "EODJPKICNGG": "Unique",
          "modifierName": "",
          "LLIJGLMEHFK": true,
          "elementDurability": 100.0,
          "EPKCPIKGJOJ": {
            "Actor_GrassAddHurtDelta": "ElementAddHurt"
          },
          "MLEHCOACPPM": true
        }
      },
      "OAOGLLGGJPD": [
        {
          "$type": "MoleMole.Config.AttachModifier",
          "modifierName": "UNIQUE_Activity_TeamChain_ElementAddHurt_Grass"
        }
      ],
      "LLNGCHGGPLC": true
    }
  },
  {
    "Default": {
      "$type": "MoleMole.Config.GNKCLKNDOAK",
      "abilityName": "Activity_TeamChain_ElementAddHurt_Ice",
      "LLLCANIGIOE": {
        "ElementAddHurt": 0.0
      },
      "BFBDNNJCDLH": {
        "UNIQUE_Activity_TeamChain_ElementAddHurt_Ice": {
          "EODJPKICNGG": "Unique",
          "modifierName": "",
          "LLIJGLMEHFK": true,
          "elementDurability": 100.0,
          "EPKCPIKGJOJ": {
            "Actor_IceAddHurtDelta": "ElementAddHurt"
          },
          "MLEHCOACPPM": true
        }
      },
      "OAOGLLGGJPD": [
        {
          "$type": "MoleMole.Config.AttachModifier",
          "modifierName": "UNIQUE_Activity_TeamChain_ElementAddHurt_Ice"
        }
      ],
      "LLNGCHGGPLC": true
    }
  }
]