{
  "luaDataPath": "",
  "startBlackKeepTime": 0.5,
  "entityBan": "",
  "disableNpcLod": true,
  "isBanWidgetPet": true,
  "protectNpcMobileLod": true,
  "talkFlag": 5,
  "startFade": {
    "startFadeInDuration": 0.5,
    "startFadeOutDuration": 0.5
  },
  "endFade": {
    "startFadeOutDuration": 0.0
  },
  "actors": [
    {
      "alias": "Avatar",
      "visible": true,
      "bornPointName": "N10000005_T7333007",
      "relativePosType": "AVATAR_NEW",
      "relativePosNpcAlias": "",
      "_bindMovingTargetKey": ""
    },
    {
      "configID": 20883,
      "alias": "20883",
      "visible": true,
      "bornPointName": "N20883_T7333007",
      "removeActorType": "REMOVE",
      "relativePosType": "AVATAR_NEW",
      "relativePosNpcAlias": "",
      "_bindMovingTargetKey": ""
    },
    {
      "configID": 20966,
      "alias": "20966",
      "visible": true,
      "bornPointName": "Q7333006_N20966",
      "relativePosType": "AVATAR_NEW",
      "relativePosNpcAlias": "",
      "_bindMovingTargetKey": ""
    },
    {
      "configID": 1005,
      "alias": "1005",
      "visible": true,
      "bornPointName": "N1005_T7333007",
      "removeActorType": "REMOVE_WITH_DISAPPEAR",
      "relativePosType": "AVATAR_NEW",
      "relativePosNpcAlias": "",
      "_bindMovingTargetKey": ""
    },
    {
      "configID": 20990,
      "alias": "20990",
      "visible": true,
      "bornPointName": "Q7333006_N20966",
      "removeActorType": "NEW_REMOVE",
      "relativePosType": "AVATAR_NEW",
      "relativePosNpcAlias": "",
      "_bindMovingTargetKey": ""
    },
    {
      "configID": 20992,
      "alias": "20992",
      "visible": true,
      "bornPointName": "Q7333006_N20966",
      "removeActorType": "NEW_REMOVE",
      "relativePosType": "AVATAR_NEW",
      "relativePosNpcAlias": "",
      "_bindMovingTargetKey": ""
    }
  ],
  "group": [
    [
      {
        "$type": "MoleMole.Config.ConfigTimeProtectAction",
        "type": "TIME_PROTECT",
        "duration": 0.10000000149011612,
        "actionId": 104
      },
      {
        "$type": "MoleMole.Config.ConfigBlackScreenAction",
        "type": "BLACK_SCREEN",
        "actionId": 138,
        "blackScreenType": "KEEP_BLACK",
        "durationToBlack": 0.5,
        "durationKeepBlack": 1.0,
        "durationFromBlack": 0.5,
        "inteePos": "",
        "textMapID": ""
      },
      {
        "$type": "EFHODGEJOHJ",
        "type": "CAMERA_MOVE",
        "duration": 0.5,
        "actionId": 267,
        "camPosOffset": {
          "x": 673.8350219726562,
          "y": 308.78900146484375,
          "z": 6199.701171875
        },
        "camForwardTargetOffset": {
          "x": 673.2030029296875,
          "y": 308.54400634765625,
          "z": 6200.43603515625
        },
        "camFov": 35.0,
        "lerpPattern": 6,
        "cameraBlendType": "EaseInOutCubic",
        "MDKBPBJCMHH": {},
        "needZAxisRotate": true,
        "openCameraDither": false,
        "targetNpcAlias": "",
        "closeTreeLeafDither": true,
        "PHGBNNGCJKJ": "",
        "NFILMKCFHEB": "",
        "BGPNGHDAECF": ""
      },
      {
        "$type": "NPCNMEOCADD",
        "type": "LOOK_AT",
        "aliasList": [
          "Avatar"
        ],
        "actionId": 152,
        "enableHead": true,
        "targetPosition": {
          "x": 578.9639892578125,
          "y": 324.5790100097656,
          "z": 6154.85107421875
        },
        "headTurnTime": 0.5,
        "targetNpcAlias": "20966",
        "openBackProtect": true,
        "targetNpcLookAtPoint": "",
        "BHGPHGNFCBF": ""
      },
      {
        "$type": "MoleMole.Config.ConfigTeleportToAction",
        "type": "TELEPORT_TO",
        "aliasList": [
          "Avatar"
        ],
        "actionId": 266,
        "position": {
          "x": 660.5170288085938,
          "y": 301.65399169921875,
          "z": 6218.953125
        },
        "forward": {
          "x": -1.4450000524520874,
          "y": 0.06400000303983688,
          "z": -1.690000057220459
        },
        "openLongDisTeleport": true,
        "_posBindMovingTargetKey": "",
        "_forwardBindMovingTargetKey": ""
      },
      {
        "$type": "MoleMole.Config.ConfigTeleportToAction",
        "type": "TELEPORT_TO",
        "aliasList": [
          "20883"
        ],
        "actionId": 146,
        "position": {
          "x": 660.0,
          "y": 301.83599853515625,
          "z": 6219.77001953125
        },
        "forward": {
          "x": -0.5669999718666077,
          "z": -0.8240000009536743
        },
        "openLongDisTeleport": true,
        "_posBindMovingTargetKey": "",
        "_forwardBindMovingTargetKey": ""
      },
      {
        "$type": "NPCNMEOCADD",
        "type": "LOOK_AT",
        "aliasList": [
          "20883"
        ],
        "actionId": 249,
        "enableHead": true,
        "headTurnTime": 0.5,
        "targetNpcAlias": "20966",
        "openBackProtect": true,
        "targetNpcLookAtPoint": "",
        "BHGPHGNFCBF": ""
      },
      {
        "$type": "MoleMole.Config.ConfigTeleportToAction",
        "type": "TELEPORT_TO",
        "aliasList": [
          "20966"
        ],
        "actionId": 140,
        "position": {
          "x": 656.5919799804688,
          "y": 301.2850036621094,
          "z": 6214.2568359375
        },
        "forward": {
          "x": 2.2320001125335693,
          "y": 0.2639999985694885,
          "z": 2.559999942779541
        },
        "openLongDisTeleport": true,
        "_posBindMovingTargetKey": "",
        "_forwardBindMovingTargetKey": ""
      },
      {
        "$type": "NPCNMEOCADD",
        "type": "LOOK_AT",
        "aliasList": [
          "20966"
        ],
        "actionId": 157,
        "headTurnTime": 0.5,
        "targetNpcAlias": "",
        "openBackProtect": true,
        "targetNpcLookAtPoint": "",
        "BHGPHGNFCBF": ""
      },
      {
        "$type": "MoleMole.Config.ConfigTeleportToAction",
        "type": "TELEPORT_TO",
        "aliasList": [
          "1005"
        ],
        "actionId": 145,
        "position": {
          "x": 661.301025390625,
          "y": 301.58599853515625,
          "z": 6218.5
        },
        "forward": {
          "x": -0.7879999876022339,
          "z": -0.6169999837875366
        },
        "openLongDisTeleport": true,
        "_posBindMovingTargetKey": "",
        "_forwardBindMovingTargetKey": ""
      },
      {
        "$type": "NPCNMEOCADD",
        "type": "LOOK_AT",
        "aliasList": [
          "1005"
        ],
        "actionId": 154,
        "enableHead": true,
        "targetPosition": {
          "x": 578.9639892578125,
          "y": 324.5790100097656,
          "z": 6154.85107421875
        },
        "headTurnTime": 0.5,
        "targetNpcAlias": "20966",
        "openBackProtect": true,
        "targetNpcLookAtPoint": "",
        "BHGPHGNFCBF": ""
      },
      {
        "$type": "MoleMole.Config.ConfigSetModelTransform",
        "type": "SET_MODEL_TRANSFORM",
        "aliasList": [
          "1005"
        ],
        "actionId": 167,
        "groudHight": 0.6000000238418579
      },
      {
        "$type": "MoleMole.Config.ConfigTeleportToAction",
        "type": "TELEPORT_TO",
        "aliasList": [
          "20990"
        ],
        "actionId": 217,
        "position": {
          "x": 656.864990234375,
          "y": 301.57598876953125,
          "z": 6210.4150390625
        },
        "forward": {
          "x": 0.33799999952316284,
          "z": 0.9409999847412109
        },
        "openLongDisTeleport": true,
        "_posBindMovingTargetKey": "",
        "_forwardBindMovingTargetKey": ""
      },
      {
        "$type": "MoleMole.Config.ConfigTeleportToAction",
        "type": "TELEPORT_TO",
        "aliasList": [
          "20992"
        ],
        "actionId": 219,
        "position": {
          "x": 654.8499755859375,
          "y": 301.52099609375,
          "z": 6214.66015625
        },
        "forward": {
          "x": 0.8330000042915344,
          "y": 0.03700000047683716,
          "z": 0.5529999732971191
        },
        "openLongDisTeleport": true,
        "_posBindMovingTargetKey": "",
        "_forwardBindMovingTargetKey": ""
      }
    ],
    [
      {
        "$type": "MoleMole.Config.ConfigBlackScreenAction",
        "type": "BLACK_SCREEN",
        "actionId": 141,
        "blackScreenType": "FROM_BLACK",
        "durationToBlack": 0.5,
        "durationKeepBlack": 0.5,
        "durationFromBlack": 0.5,
        "inteePos": "",
        "textMapID": "",
        "useTextFade": true
      },
      {
        "$type": "EFHODGEJOHJ",
        "type": "CAMERA_MOVE",
        "duration": 0.5,
        "actionId": 151,
        "camPosOffset": {
          "x": 673.8350219726562,
          "y": 308.78900146484375,
          "z": 6199.701171875
        },
        "camForwardTargetOffset": {
          "x": 673.2030029296875,
          "y": 308.54400634765625,
          "z": 6200.43603515625
        },
        "camFov": 35.0,
        "lerpPattern": 6,
        "cameraBlendType": "EaseInOutCubic",
        "MDKBPBJCMHH": {},
        "needZAxisRotate": true,
        "openCameraDither": false,
        "targetNpcAlias": "",
        "closeTreeLeafDither": true,
        "PHGBNNGCJKJ": "",
        "NFILMKCFHEB": "",
        "BGPNGHDAECF": ""
      },
      {
        "$type": "MoleMole.Config.ConfigTeleportToAction",
        "type": "TELEPORT_TO",
        "aliasList": [
          "Avatar"
        ],
        "actionId": 265,
        "position": {
          "x": 660.5170288085938,
          "y": 301.65399169921875,
          "z": 6218.953125
        },
        "forward": {
          "x": -1.4450000524520874,
          "y": 0.06400000303983688,
          "z": -1.690000057220459
        },
        "openLongDisTeleport": true,
        "_posBindMovingTargetKey": "",
        "_forwardBindMovingTargetKey": ""
      },
      {
        "$type": "MJFAIFFAGOF",
        "type": "DIALOG",
        "aliasList": [
          "20883"
        ],
        "actionId": 107,
        "dialogID": 733300701,
        "protectTime": 2.5460000038146973
      },
      {
        "$type": "MoleMole.Config.ConfigMoveToAction",
        "type": "MOVE_TO",
        "aliasList": [
          "20883"
        ],
        "actionId": 147,
        "moveType": "WALK",
        "routeList": [
          {
            "x": 659.2319946289062,
            "y": 301.5570068359375,
            "z": 6218.65283203125
          }
        ],
        "exactlyMove": true,
        "closeNavMesh": true,
        "openSetPos": true,
        "_bindMovingTargetKey": ""
      },
      {
        "$type": "NPCNMEOCADD",
        "type": "LOOK_AT",
        "aliasList": [
          "20966"
        ],
        "actionId": 229,
        "enableHead": true,
        "headTurnTime": 0.5,
        "targetNpcAlias": "20883",
        "openBackProtect": true,
        "targetNpcLookAtPoint": "",
        "BHGPHGNFCBF": ""
      },
      {
        "$type": "NPCNMEOCADD",
        "type": "LOOK_AT",
        "aliasList": [
          "20990"
        ],
        "actionId": 230,
        "enableHead": true,
        "headTurnTime": 0.5,
        "targetNpcAlias": "20883",
        "openBackProtect": true,
        "targetNpcLookAtPoint": "",
        "BHGPHGNFCBF": ""
      },
      {
        "$type": "NPCNMEOCADD",
        "type": "LOOK_AT",
        "aliasList": [
          "20992"
        ],
        "actionId": 232,
        "enableHead": true,
        "headTurnTime": 0.5,
        "targetNpcAlias": "20883",
        "openBackProtect": true,
        "targetNpcLookAtPoint": "",
        "BHGPHGNFCBF": ""
      },
      {
        "$type": "EFHODGEJOHJ",
        "type": "CAMERA_MOVE",
        "delayTime": 0.10000000149011612,
        "duration": 10.324000358581543,
        "actionId": 139,
        "camPosOffset": {
          "x": 672.9840087890625,
          "y": 308.7820129394531,
          "z": 6198.96484375
        },
        "camForwardTargetOffset": {
          "x": 672.3519897460938,
          "y": 308.5369873046875,
          "z": 6199.7001953125
        },
        "camFov": 35.0,
        "cameraBlendType": "EaseOutQuad",
        "MDKBPBJCMHH": {},
        "needZAxisRotate": true,
        "openCameraDither": false,
        "targetNpcAlias": "",
        "closeTreeLeafDither": true,
        "PHGBNNGCJKJ": "",
        "NFILMKCFHEB": "",
        "BGPNGHDAECF": ""
      },
      {
        "$type": "EDCHPJLDKIN",
        "type": "BODY_LANG",
        "delayTime": 2.132999897003174,
        "aliasList": [
          "20883"
        ],
        "actionId": 155,
        "bodyLangParam": 6030,
        "forceDoFreeStyle": true,
        "canDoRepeatFreeStyle": false,
        "cantBackToIdleWhenSitLoop": true,
        "eventPatternSuiteKey": ""
      },
      {
        "$type": "EDCHPJLDKIN",
        "type": "BODY_LANG",
        "delayTime": 3.7200000286102295,
        "aliasList": [
          "20883"
        ],
        "actionId": 156,
        "isContinue": true,
        "forceDoFreeStyle": true,
        "canDoRepeatFreeStyle": false,
        "cantBackToIdleWhenSitLoop": true,
        "eventPatternSuiteKey": ""
      }
    ],
    [
      {
        "$type": "EFHODGEJOHJ",
        "type": "CAMERA_MOVE",
        "duration": 0.5,
        "actionId": 163,
        "camPosOffset": {
          "x": 659.114990234375,
          "y": 302.5899963378906,
          "z": 6218.41796875
        },
        "camForwardTargetOffset": {
          "x": 658.6199951171875,
          "y": 302.62799072265625,
          "z": 6217.5498046875
        },
        "camFov": 35.0,
        "lerpPattern": 6,
        "cameraBlendType": "EaseInOutCubic",
        "MDKBPBJCMHH": {},
        "needZAxisRotate": true,
        "rotateAngle": 7.931000232696533,
        "openCameraDither": false,
        "targetNpcAlias": "",
        "closeTreeLeafDither": true,
        "PHGBNNGCJKJ": "",
        "NFILMKCFHEB": "",
        "BGPNGHDAECF": ""
      },
      {
        "$type": "MoleMole.Config.ConfigTeleportToAction",
        "type": "TELEPORT_TO",
        "aliasList": [
          "20883"
        ],
        "actionId": 245,
        "position": {
          "x": 659.2319946289062,
          "y": 301.5570068359375,
          "z": 6218.65283203125
        },
        "forward": {
          "x": -0.5659999847412109,
          "z": -0.8240000009536743
        },
        "openLongDisTeleport": true,
        "_posBindMovingTargetKey": "",
        "_forwardBindMovingTargetKey": ""
      },
      {
        "$type": "EDCHPJLDKIN",
        "type": "BODY_LANG",
        "aliasList": [
          "20883"
        ],
        "actionId": 271,
        "isContinue": true,
        "forceDoFreeStyle": true,
        "canDoRepeatFreeStyle": false,
        "cantBackToIdleWhenSitLoop": true,
        "eventPatternSuiteKey": ""
      },
      {
        "$type": "MJFAIFFAGOF",
        "type": "DIALOG",
        "aliasList": [
          "20966"
        ],
        "actionId": 109,
        "dialogID": 733300702,
        "protectTime": 0.5
      },
      {
        "$type": "NPCNMEOCADD",
        "type": "LOOK_AT",
        "aliasList": [
          "20966"
        ],
        "actionId": 158,
        "enableHead": true,
        "targetPosition": {
          "x": 580.1400146484375,
          "y": 324.6239929199219,
          "z": 6154.9599609375
        },
        "headTurnTime": 0.5,
        "targetNpcAlias": "20883",
        "openBackProtect": true,
        "targetNpcLookAtPoint": "",
        "BHGPHGNFCBF": ""
      },
      {
        "$type": "MoleMole.Config.ConfigTeleportToAction",
        "type": "TELEPORT_TO",
        "aliasList": [
          "20966"
        ],
        "actionId": 244,
        "position": {
          "x": 656.5919799804688,
          "y": 301.2850036621094,
          "z": 6214.2568359375
        },
        "forward": {
          "x": 0.4300000071525574,
          "z": 0.9800000190734863
        },
        "openLongDisTeleport": true,
        "_posBindMovingTargetKey": "",
        "_forwardBindMovingTargetKey": ""
      },
      {
        "$type": "NPCNMEOCADD",
        "type": "LOOK_AT",
        "aliasList": [
          "20990"
        ],
        "actionId": 235,
        "enableHead": true,
        "headTurnTime": 0.5,
        "targetNpcAlias": "20883",
        "openBackProtect": true,
        "targetNpcLookAtPoint": "",
        "BHGPHGNFCBF": ""
      },
      {
        "$type": "MoleMole.Config.ConfigTeleportToAction",
        "type": "TELEPORT_TO",
        "aliasList": [
          "20990"
        ],
        "actionId": 238,
        "position": {
          "x": 657.10400390625,
          "y": 301.4540100097656,
          "z": 6211.5751953125
        },
        "forward": {
          "x": 0.04100000113248825,
          "y": 0.010999999940395355,
          "z": 1.0290000438690186
        },
        "openLongDisTeleport": true,
        "_posBindMovingTargetKey": "",
        "_forwardBindMovingTargetKey": ""
      },
      {
        "$type": "NPCNMEOCADD",
        "type": "LOOK_AT",
        "aliasList": [
          "20992"
        ],
        "actionId": 233,
        "enableHead": true,
        "headTurnTime": 0.5,
        "targetNpcAlias": "20883",
        "openBackProtect": true,
        "targetNpcLookAtPoint": "",
        "BHGPHGNFCBF": ""
      },
      {
        "$type": "MoleMole.Config.ConfigTeleportToAction",
        "type": "TELEPORT_TO",
        "aliasList": [
          "20992"
        ],
        "actionId": 236,
        "position": {
          "x": 655.0469970703125,
          "y": 301.4849853515625,
          "z": 6214.36279296875
        },
        "forward": {
          "x": 0.8330000042915344,
          "z": 0.5529999732971191
        },
        "openLongDisTeleport": true,
        "_posBindMovingTargetKey": "",
        "_forwardBindMovingTargetKey": ""
      },
      {
        "$type": "EFHODGEJOHJ",
        "type": "CAMERA_MOVE",
        "delayTime": 0.10000000149011612,
        "duration": 7.8379998207092285,
        "actionId": 161,
        "camPosOffset": {
          "x": 659.1209716796875,
          "y": 302.9540100097656,
          "z": 6218.43017578125
        },
        "camForwardTargetOffset": {
          "x": 658.6259765625,
          "y": 302.9930114746094,
          "z": 6217.56298828125
        },
        "camFov": 35.0,
        "cameraBlendType": "EaseOutQuad",
        "MDKBPBJCMHH": {},
        "needZAxisRotate": true,
        "rotateAngle": 7.931000232696533,
        "openCameraDither": false,
        "targetNpcAlias": "",
        "closeTreeLeafDither": true,
        "PHGBNNGCJKJ": "",
        "NFILMKCFHEB": "",
        "BGPNGHDAECF": ""
      },
      {
        "$type": "EDCHPJLDKIN",
        "type": "BODY_LANG",
        "delayTime": 2.437999963760376,
        "aliasList": [
          "20990"
        ],
        "actionId": 239,
        "bodyLangParam": 1280,
        "forceDoFreeStyle": true,
        "canDoRepeatFreeStyle": false,
        "cantBackToIdleWhenSitLoop": true,
        "eventPatternSuiteKey": ""
      }
    ],
    [
      {
        "$type": "NPCNMEOCADD",
        "type": "LOOK_AT",
        "aliasList": [
          "Avatar"
        ],
        "actionId": 248,
        "enableHead": true,
        "headTurnTime": 0.5,
        "targetNpcAlias": "20966",
        "openBackProtect": true,
        "targetNpcLookAtPoint": "",
        "BHGPHGNFCBF": ""
      },
      {
        "$type": "NPCNMEOCADD",
        "type": "LOOK_AT",
        "aliasList": [
          "20883"
        ],
        "actionId": 250,
        "enableHead": true,
        "headTurnTime": 0.5,
        "targetNpcAlias": "20966",
        "openBackProtect": true,
        "targetNpcLookAtPoint": "",
        "BHGPHGNFCBF": ""
      },
      {
        "$type": "MJFAIFFAGOF",
        "type": "DIALOG",
        "aliasList": [
          "20966"
        ],
        "actionId": 111,
        "dialogID": 733300703,
        "protectTime": 2.6740000247955322
      },
      {
        "$type": "NPCNMEOCADD",
        "type": "LOOK_AT",
        "aliasList": [
          "20966"
        ],
        "actionId": 165,
        "enableHead": true,
        "targetPosition": {
          "x": 580.1400146484375,
          "y": 324.58599853515625,
          "z": 6154.57421875
        },
        "headTurnTime": 0.5,
        "targetNpcAlias": "Avatar",
        "openBackProtect": true,
        "targetNpcLookAtPoint": "",
        "BHGPHGNFCBF": ""
      },
      {
        "$type": "MoleMole.Config.ConfigSetModelTransform",
        "type": "SET_MODEL_TRANSFORM",
        "aliasList": [
          "1005"
        ],
        "actionId": 246,
        "groudHight": 0.6000000238418579
      },
      {
        "$type": "NPCNMEOCADD",
        "type": "LOOK_AT",
        "aliasList": [
          "1005"
        ],
        "actionId": 270,
        "enableHead": true,
        "useTargetPos": true,
        "enableAbsolute": true,
        "targetPosition": {
          "x": 660.1619873046875,
          "y": 303.2239990234375,
          "z": 6218.13818359375
        },
        "headTurnTime": 0.5,
        "targetNpcAlias": "20966",
        "lookAtTargetType": "NONE",
        "openBackProtect": true,
        "targetNpcLookAtPoint": "",
        "BHGPHGNFCBF": ""
      },
      {
        "$type": "EFHODGEJOHJ",
        "type": "CAMERA_MOVE",
        "delayTime": 1.0,
        "duration": 0.5,
        "actionId": 168,
        "camPosOffset": {
          "x": 659.5750122070312,
          "y": 303.4320068359375,
          "z": 6217.85986328125
        },
        "camForwardTargetOffset": {
          "x": 660.3099975585938,
          "y": 303.1700134277344,
          "z": 6218.48486328125
        },
        "camFov": 30.0,
        "lerpPattern": 6,
        "cameraBlendType": "EaseInOutCubic",
        "MDKBPBJCMHH": {},
        "needZAxisRotate": true,
        "openCameraDither": false,
        "targetNpcAlias": "",
        "closeTreeLeafDither": true,
        "PHGBNNGCJKJ": "",
        "NFILMKCFHEB": "",
        "BGPNGHDAECF": ""
      },
      {
        "$type": "MoleMole.Config.ConfigTeleportToAction",
        "type": "TELEPORT_TO",
        "delayTime": 1.0,
        "aliasList": [
          "Avatar"
        ],
        "actionId": 264,
        "position": {
          "x": 660.7589721679688,
          "y": 301.7179870605469,
          "z": 6219.2060546875
        },
        "forward": {
          "x": -0.6980000138282776,
          "z": -0.7160000205039978
        },
        "openLongDisTeleport": true,
        "_posBindMovingTargetKey": "",
        "_forwardBindMovingTargetKey": ""
      },
      {
        "$type": "MoleMole.Config.ConfigTeleportToAction",
        "type": "TELEPORT_TO",
        "delayTime": 1.0,
        "aliasList": [
          "1005"
        ],
        "actionId": 247,
        "position": {
          "x": 661.1339721679688,
          "y": 301.61700439453125,
          "z": 6218.6689453125
        },
        "forward": {
          "x": -0.7760000228881836,
          "y": -0.03099999949336052,
          "z": -0.7850000262260437
        },
        "openLongDisTeleport": true,
        "_posBindMovingTargetKey": "",
        "_forwardBindMovingTargetKey": ""
      },
      {
        "$type": "EFHODGEJOHJ",
        "type": "CAMERA_MOVE",
        "delayTime": 1.100000023841858,
        "duration": 7.84499979019165,
        "actionId": 166,
        "camPosOffset": {
          "x": 659.6380004882812,
          "y": 303.4540100097656,
          "z": 6217.796875
        },
        "camForwardTargetOffset": {
          "x": 660.3729858398438,
          "y": 303.1919860839844,
          "z": 6218.421875
        },
        "camFov": 30.0,
        "cameraBlendType": "EaseOutQuad",
        "MDKBPBJCMHH": {},
        "needZAxisRotate": true,
        "openCameraDither": false,
        "targetNpcAlias": "",
        "closeTreeLeafDither": true,
        "PHGBNNGCJKJ": "",
        "NFILMKCFHEB": "",
        "BGPNGHDAECF": ""
      },
      {
        "$type": "EDCHPJLDKIN",
        "type": "BODY_LANG",
        "delayTime": 1.5399999618530273,
        "aliasList": [
          "1005"
        ],
        "actionId": 170,
        "bodyLangParam": 1120,
        "forceDoFreeStyle": true,
        "canDoRepeatFreeStyle": false,
        "cantBackToIdleWhenSitLoop": true,
        "eventPatternSuiteKey": ""
      },
      {
        "$type": "EDCHPJLDKIN",
        "type": "BODY_LANG",
        "delayTime": 2.0409998893737793,
        "aliasList": [
          "Avatar"
        ],
        "actionId": 171,
        "bodyLangParam": 1230,
        "forceDoFreeStyle": true,
        "canDoRepeatFreeStyle": false,
        "cantBackToIdleWhenSitLoop": true,
        "eventPatternSuiteKey": ""
      }
    ],
    [
      {
        "$type": "MJFAIFFAGOF",
        "type": "DIALOG",
        "aliasList": [
          "1005"
        ],
        "actionId": 113,
        "dialogID": 733300704,
        "protectTime": 0.5
      },
      {
        "$type": "EDCHPJLDKIN",
        "type": "BODY_LANG",
        "aliasList": [
          "1005"
        ],
        "actionId": 172,
        "isContinue": true,
        "forceDoFreeStyle": true,
        "canDoRepeatFreeStyle": false,
        "cantBackToIdleWhenSitLoop": true,
        "eventPatternSuiteKey": ""
      },
      {
        "$type": "NPCNMEOCADD",
        "type": "LOOK_AT",
        "aliasList": [
          "1005"
        ],
        "actionId": 269,
        "enableHead": true,
        "useTargetPos": true,
        "enableAbsolute": true,
        "targetPosition": {
          "x": 660.1619873046875,
          "y": 303.2239990234375,
          "z": 6218.13818359375
        },
        "headTurnTime": 0.5,
        "targetNpcAlias": "20966",
        "lookAtTargetType": "NONE",
        "openBackProtect": true,
        "targetNpcLookAtPoint": "",
        "BHGPHGNFCBF": ""
      },
      {
        "$type": "ICHLNKHGCAG",
        "type": "EMO_SYNC",
        "aliasList": [
          "1005"
        ],
        "actionId": 285,
        "dataPath": "",
        "phonemePath": "Cs_Emo_Pet_Common/Cs_Emo_Paimon_Angry01",
        "emotionPath": "Cs_Emo_Pet_Common/Cs_Emo_Paimon_Angry02_B",
        "mateDataPath": "",
        "matePhonemePath": "",
        "mateEmotionPath": "",
        "phonemePathHashList": [
          8887624181441475292,
          18209086005751125871,
          3291038487434063407,
          2002509548947436691
        ],
        "emotionPathHashList": [
          17564854430185311448,
          15336386892457435266,
          13355413565010624331,
          327259496702149863
        ],
        "PACNIGOOENN": "",
        "PIBDNPHIAGC": ""
      },
      {
        "$type": "EDCHPJLDKIN",
        "type": "BODY_LANG",
        "delayTime": 0.414000004529953,
        "aliasList": [
          "1005"
        ],
        "actionId": 173,
        "bodyLangParam": 1280,
        "forceDoFreeStyle": true,
        "canDoRepeatFreeStyle": false,
        "cantBackToIdleWhenSitLoop": true,
        "eventPatternSuiteKey": ""
      },
      {
        "$type": "EDCHPJLDKIN",
        "type": "BODY_LANG",
        "delayTime": 2.243000030517578,
        "aliasList": [
          "1005"
        ],
        "actionId": 174,
        "bodyLangParam": 1300,
        "forceDoFreeStyle": true,
        "canDoRepeatFreeStyle": false,
        "cantBackToIdleWhenSitLoop": true,
        "eventPatternSuiteKey": ""
      }
    ],
    [
      {
        "$type": "EFHODGEJOHJ",
        "type": "CAMERA_MOVE",
        "duration": 0.5,
        "actionId": 176,
        "camPosOffset": {
          "x": 662.1179809570312,
          "y": 303.05499267578125,
          "z": 6219.9482421875
        },
        "camForwardTargetOffset": {
          "x": 661.4299926757812,
          "y": 303.0329895019531,
          "z": 6219.22314453125
        },
        "camFov": 30.0,
        "lerpPattern": 6,
        "cameraBlendType": "EaseInOutCubic",
        "MDKBPBJCMHH": {},
        "needZAxisRotate": true,
        "openCameraDither": false,
        "targetNpcAlias": "",
        "closeTreeLeafDither": true,
        "PHGBNNGCJKJ": "",
        "NFILMKCFHEB": "",
        "BGPNGHDAECF": ""
      },
      {
        "$type": "MoleMole.Config.ConfigVisibleInterAction",
        "type": "VISIBLE",
        "aliasList": [
          "20883"
        ],
        "actionId": 184,
        "isVisible": true,
        "_extraParam": ""
      },
      {
        "$type": "MoleMole.Config.ConfigTeleportToAction",
        "type": "TELEPORT_TO",
        "aliasList": [
          "20883"
        ],
        "actionId": 272,
        "position": {
          "x": 658.8300170898438,
          "y": 301.62298583984375,
          "z": 6218.93017578125
        },
        "forward": {
          "x": -0.5659999847412109,
          "z": -0.8240000009536743
        },
        "openLongDisTeleport": true,
        "_posBindMovingTargetKey": "",
        "_forwardBindMovingTargetKey": ""
      },
      {
        "$type": "EDCHPJLDKIN",
        "type": "BODY_LANG",
        "aliasList": [
          "20883"
        ],
        "actionId": 273,
        "isContinue": true,
        "forceDoFreeStyle": true,
        "canDoRepeatFreeStyle": false,
        "cantBackToIdleWhenSitLoop": true,
        "eventPatternSuiteKey": ""
      },
      {
        "$type": "MJFAIFFAGOF",
        "type": "DIALOG",
        "aliasList": [
          "20966"
        ],
        "actionId": 115,
        "dialogID": 733300705,
        "protectTime": 0.5
      },
      {
        "$type": "MoleMole.Config.ConfigTeleportToAction",
        "type": "TELEPORT_TO",
        "aliasList": [
          "1005"
        ],
        "actionId": 275,
        "position": {
          "x": 661.3820190429688,
          "y": 301.5719909667969,
          "z": 6218.423828125
        },
        "forward": {
          "x": -0.703000009059906,
          "z": -0.7110000252723694
        },
        "openLongDisTeleport": true,
        "_posBindMovingTargetKey": "",
        "_forwardBindMovingTargetKey": ""
      },
      {
        "$type": "MoleMole.Config.ConfigTeleportToAction",
        "type": "TELEPORT_TO",
        "aliasList": [
          "20990"
        ],
        "actionId": 253,
        "position": {
          "x": 655.9929809570312,
          "y": 301.6210021972656,
          "z": 6210.93798828125
        },
        "forward": {
          "x": 0.03999999910593033,
          "z": 0.9990000128746033
        },
        "openLongDisTeleport": true,
        "_posBindMovingTargetKey": "",
        "_forwardBindMovingTargetKey": ""
      },
      {
        "$type": "MoleMole.Config.ConfigTeleportToAction",
        "type": "TELEPORT_TO",
        "aliasList": [
          "20992"
        ],
        "actionId": 255,
        "position": {
          "x": 654.968017578125,
          "y": 301.5,
          "z": 6214.48193359375
        },
        "forward": {
          "x": 0.8330000042915344,
          "z": 0.5529999732971191
        },
        "openLongDisTeleport": true,
        "_posBindMovingTargetKey": "",
        "_forwardBindMovingTargetKey": ""
      },
      {
        "$type": "EFHODGEJOHJ",
        "type": "CAMERA_MOVE",
        "delayTime": 0.10000000149011612,
        "duration": 9.562999725341797,
        "actionId": 175,
        "camPosOffset": {
          "x": 661.9500122070312,
          "y": 303.04901123046875,
          "z": 6219.77099609375
        },
        "camForwardTargetOffset": {
          "x": 661.2620239257812,
          "y": 303.0270080566406,
          "z": 6219.044921875
        },
        "camFov": 30.0,
        "cameraBlendType": "EaseOutQuad",
        "MDKBPBJCMHH": {},
        "needZAxisRotate": true,
        "openCameraDither": false,
        "targetNpcAlias": "",
        "closeTreeLeafDither": true,
        "PHGBNNGCJKJ": "",
        "NFILMKCFHEB": "",
        "BGPNGHDAECF": ""
      }
    ],
    [
      {
        "$type": "EFHODGEJOHJ",
        "type": "CAMERA_MOVE",
        "duration": 0.5,
        "actionId": 182,
        "camPosOffset": {
          "x": 658.3519897460938,
          "y": 303.3190002441406,
          "z": 6215.8427734375
        },
        "camForwardTargetOffset": {
          "x": 657.6329956054688,
          "y": 303.5060119628906,
          "z": 6215.173828125
        },
        "camFov": 30.0,
        "lerpPattern": 6,
        "cameraBlendType": "EaseInOutCubic",
        "MDKBPBJCMHH": {},
        "needZAxisRotate": true,
        "rotateAngle": 5.0,
        "openCameraDither": false,
        "targetNpcAlias": "",
        "closeTreeLeafDither": true,
        "PHGBNNGCJKJ": "",
        "NFILMKCFHEB": "",
        "BGPNGHDAECF": ""
      },
      {
        "$type": "MJFAIFFAGOF",
        "type": "DIALOG",
        "aliasList": [
          "20966"
        ],
        "actionId": 117,
        "dialogID": 733300706,
        "protectTime": 0.5
      },
      {
        "$type": "MoleMole.Config.ConfigTeleportToAction",
        "type": "TELEPORT_TO",
        "aliasList": [
          "20966"
        ],
        "actionId": 256,
        "position": {
          "x": 656.5919799804688,
          "y": 301.2850036621094,
          "z": 6214.2568359375
        },
        "forward": {
          "x": 0.48100000619888306,
          "z": 0.9089999794960022
        },
        "openLongDisTeleport": true,
        "_posBindMovingTargetKey": "",
        "_forwardBindMovingTargetKey": ""
      },
      {
        "$type": "MoleMole.Config.ConfigTeleportToAction",
        "type": "TELEPORT_TO",
        "aliasList": [
          "1005"
        ],
        "actionId": 276,
        "position": {
          "x": 661.1339721679688,
          "y": 301.61700439453125,
          "z": 6218.6689453125
        },
        "forward": {
          "x": -0.7760000228881836,
          "y": -0.03099999949336052,
          "z": -0.7850000262260437
        },
        "openLongDisTeleport": true,
        "_posBindMovingTargetKey": "",
        "_forwardBindMovingTargetKey": ""
      },
      {
        "$type": "EFHODGEJOHJ",
        "type": "CAMERA_MOVE",
        "delayTime": 0.10000000149011612,
        "duration": 9.0,
        "actionId": 177,
        "camPosOffset": {
          "x": 658.1010131835938,
          "y": 303.3840026855469,
          "z": 6215.60888671875
        },
        "camForwardTargetOffset": {
          "x": 657.3820190429688,
          "y": 303.5710144042969,
          "z": 6214.93994140625
        },
        "camFov": 30.0,
        "cameraBlendType": "EaseOutQuad",
        "MDKBPBJCMHH": {},
        "needZAxisRotate": true,
        "rotateAngle": 5.0,
        "openCameraDither": false,
        "targetNpcAlias": "",
        "closeTreeLeafDither": true,
        "PHGBNNGCJKJ": "",
        "NFILMKCFHEB": "",
        "BGPNGHDAECF": ""
      },
      {
        "$type": "OBCDECFOOBC",
        "type": "DIALOG_SELECT",
        "delayTime": 0.4000000059604645,
        "aliasList": [
          "Avatar"
        ],
        "actionId": 118,
        "dialogIDList": [
          733300707,
          733300708
        ],
        "grpIDList": [
          3123672308,
          3123672307
        ],
        "useGrpId": true,
        "countDownGrpId": 3123672299
      }
    ],
    [
      {
        "$type": "EFHODGEJOHJ",
        "type": "CAMERA_MOVE",
        "duration": 0.5,
        "actionId": 290,
        "camPosOffset": {
          "x": 628.7760009765625,
          "y": 311.7279968261719,
          "z": 6203.6708984375
        },
        "camForwardTargetOffset": {
          "x": 629.676025390625,
          "y": 311.4649963378906,
          "z": 6204.01806640625
        },
        "camFov": 30.0,
        "lerpPattern": 6,
        "cameraBlendType": "EaseInOutCubic",
        "MDKBPBJCMHH": {},
        "openCameraDither": false,
        "targetNpcAlias": "",
        "closeTreeLeafDither": true,
        "PHGBNNGCJKJ": "",
        "NFILMKCFHEB": "",
        "BGPNGHDAECF": ""
      },
      {
        "$type": "MJFAIFFAGOF",
        "type": "DIALOG",
        "aliasList": [
          "1005"
        ],
        "actionId": 120,
        "dialogID": 733300709,
        "protectTime": 0.5
      },
      {
        "$type": "EDCHPJLDKIN",
        "type": "BODY_LANG",
        "aliasList": [
          "1005"
        ],
        "actionId": 180,
        "bodyLangParam": 1230,
        "forceDoFreeStyle": true,
        "canDoRepeatFreeStyle": false,
        "cantBackToIdleWhenSitLoop": true,
        "eventPatternSuiteKey": ""
      }
    ],
    [
      {
        "$type": "EFHODGEJOHJ",
        "type": "CAMERA_MOVE",
        "duration": 0.5,
        "actionId": 187,
        "camPosOffset": {
          "x": 628.7760009765625,
          "y": 311.7279968261719,
          "z": 6203.6708984375
        },
        "camForwardTargetOffset": {
          "x": 629.676025390625,
          "y": 311.4649963378906,
          "z": 6204.01806640625
        },
        "camFov": 30.0,
        "lerpPattern": 6,
        "cameraBlendType": "EaseInOutCubic",
        "MDKBPBJCMHH": {},
        "openCameraDither": false,
        "targetNpcAlias": "",
        "closeTreeLeafDither": true,
        "PHGBNNGCJKJ": "",
        "NFILMKCFHEB": "",
        "BGPNGHDAECF": ""
      },
      {
        "$type": "MJFAIFFAGOF",
        "type": "DIALOG",
        "aliasList": [
          "20966"
        ],
        "actionId": 122,
        "dialogID": 733300710,
        "protectTime": 0.5
      },
      {
        "$type": "EDCHPJLDKIN",
        "type": "BODY_LANG",
        "aliasList": [
          "1005"
        ],
        "actionId": 199,
        "isContinue": true,
        "forceDoFreeStyle": true,
        "canDoRepeatFreeStyle": false,
        "cantBackToIdleWhenSitLoop": true,
        "eventPatternSuiteKey": ""
      }
    ],
    [
      {
        "$type": "MJFAIFFAGOF",
        "type": "DIALOG",
        "aliasList": [
          "20966"
        ],
        "actionId": 124,
        "dialogID": 733300711,
        "protectTime": 0.5
      }
    ],
    [
      {
        "$type": "EFHODGEJOHJ",
        "type": "CAMERA_MOVE",
        "duration": 0.5,
        "actionId": 188,
        "camPosOffset": {
          "x": 658.0490112304688,
          "y": 302.8659973144531,
          "z": 6217.287109375
        },
        "camForwardTargetOffset": {
          "x": 658.4650268554688,
          "y": 302.92498779296875,
          "z": 6218.19384765625
        },
        "camFov": 30.0,
        "lerpPattern": 6,
        "cameraBlendType": "EaseInOutCubic",
        "MDKBPBJCMHH": {},
        "needZAxisRotate": true,
        "openCameraDither": false,
        "targetNpcAlias": "",
        "closeTreeLeafDither": true,
        "PHGBNNGCJKJ": "",
        "NFILMKCFHEB": "",
        "BGPNGHDAECF": ""
      },
      {
        "$type": "MJFAIFFAGOF",
        "type": "DIALOG",
        "aliasList": [
          "20883"
        ],
        "actionId": 126,
        "dialogID": 733300712,
        "protectTime": 0.5
      },
      {
        "$type": "EDCHPJLDKIN",
        "type": "BODY_LANG",
        "aliasList": [
          "20883"
        ],
        "actionId": 189,
        "bodyLangParam": 6070,
        "forceDoFreeStyle": true,
        "canDoRepeatFreeStyle": false,
        "cantBackToIdleWhenSitLoop": true,
        "eventPatternSuiteKey": ""
      },
      {
        "$type": "MoleMole.Config.ConfigTeleportToAction",
        "type": "TELEPORT_TO",
        "aliasList": [
          "20883"
        ],
        "actionId": 281,
        "position": {
          "x": 658.8300170898438,
          "y": 301.62298583984375,
          "z": 6218.93017578125
        },
        "forward": {
          "x": -0.5659999847412109,
          "z": -0.8240000009536743
        },
        "openLongDisTeleport": true,
        "_posBindMovingTargetKey": "",
        "_forwardBindMovingTargetKey": ""
      }
    ],
    [
      {
        "$type": "EFHODGEJOHJ",
        "type": "CAMERA_MOVE",
        "duration": 0.5,
        "actionId": 191,
        "camPosOffset": {
          "x": 660.3150024414062,
          "y": 303.1000061035156,
          "z": 6218.48193359375
        },
        "camForwardTargetOffset": {
          "x": 661.2930297851562,
          "y": 303.01800537109375,
          "z": 6218.67578125
        },
        "camFov": 30.0,
        "lerpPattern": 6,
        "cameraBlendType": "EaseInOutCubic",
        "MDKBPBJCMHH": {},
        "needZAxisRotate": true,
        "openCameraDither": false,
        "targetNpcAlias": "",
        "closeTreeLeafDither": true,
        "PHGBNNGCJKJ": "",
        "NFILMKCFHEB": "",
        "BGPNGHDAECF": ""
      },
      {
        "$type": "MoleMole.Config.ConfigVisibleInterAction",
        "type": "VISIBLE",
        "aliasList": [
          "Avatar"
        ],
        "actionId": 286,
        "_extraParam": ""
      },
      {
        "$type": "MJFAIFFAGOF",
        "type": "DIALOG",
        "aliasList": [
          "1005"
        ],
        "actionId": 128,
        "dialogID": 733300713,
        "protectTime": 0.5
      },
      {
        "$type": "EDCHPJLDKIN",
        "type": "BODY_LANG",
        "aliasList": [
          "1005"
        ],
        "actionId": 200,
        "bodyLangParam": 1280,
        "forceDoFreeStyle": true,
        "canDoRepeatFreeStyle": false,
        "cantBackToIdleWhenSitLoop": true,
        "eventPatternSuiteKey": ""
      },
      {
        "$type": "ICHLNKHGCAG",
        "type": "EMO_SYNC",
        "aliasList": [
          "1005"
        ],
        "actionId": 282,
        "dataPath": "",
        "phonemePath": "Cs_Emo_Pet_Common/Cs_Emo_Paimon_Angry01",
        "emotionPath": "Cs_Emo_Pet_Common/Cs_Emo_Paimon_Angry02_B",
        "mateDataPath": "",
        "matePhonemePath": "",
        "mateEmotionPath": "",
        "phonemePathHashList": [
          8887624181441475292,
          18209086005751125871,
          3291038487434063407,
          2002509548947436691
        ],
        "emotionPathHashList": [
          17564854430185311448,
          15336386892457435266,
          13355413565010624331,
          327259496702149863
        ],
        "PACNIGOOENN": "",
        "PIBDNPHIAGC": ""
      },
      {
        "$type": "EFHODGEJOHJ",
        "type": "CAMERA_MOVE",
        "delayTime": 0.10000000149011612,
        "duration": 7.0,
        "actionId": 190,
        "camPosOffset": {
          "x": 660.3150024414062,
          "y": 303.1000061035156,
          "z": 6218.48193359375
        },
        "camForwardTargetOffset": {
          "x": 661.2930297851562,
          "y": 303.01800537109375,
          "z": 6218.67578125
        },
        "camFov": 30.0,
        "cameraBlendType": "EaseOutQuad",
        "MDKBPBJCMHH": {},
        "needZAxisRotate": true,
        "openCameraDither": false,
        "targetNpcAlias": "",
        "closeTreeLeafDither": true,
        "PHGBNNGCJKJ": "",
        "NFILMKCFHEB": "",
        "BGPNGHDAECF": ""
      },
      {
        "$type": "EDCHPJLDKIN",
        "type": "BODY_LANG",
        "delayTime": 2.6410000324249268,
        "aliasList": [
          "1005"
        ],
        "actionId": 201,
        "bodyLangParam": 1120,
        "forceDoFreeStyle": true,
        "canDoRepeatFreeStyle": false,
        "cantBackToIdleWhenSitLoop": true,
        "eventPatternSuiteKey": ""
      }
    ],
    [
      {
        "$type": "EFHODGEJOHJ",
        "type": "CAMERA_MOVE",
        "duration": 0.5,
        "actionId": 203,
        "camPosOffset": {
          "x": 661.2689819335938,
          "y": 303.1239929199219,
          "z": 6218.95703125
        },
        "camForwardTargetOffset": {
          "x": 660.2780151367188,
          "y": 303.06298828125,
          "z": 6219.0791015625
        },
        "camFov": 30.0,
        "lerpPattern": 6,
        "cameraBlendType": "EaseInOutCubic",
        "MDKBPBJCMHH": {},
        "needZAxisRotate": true,
        "openCameraDither": false,
        "targetNpcAlias": "",
        "closeTreeLeafDither": true,
        "PHGBNNGCJKJ": "",
        "NFILMKCFHEB": "",
        "BGPNGHDAECF": ""
      },
      {
        "$type": "MoleMole.Config.ConfigTeleportToAction",
        "type": "TELEPORT_TO",
        "aliasList": [
          "Avatar"
        ],
        "actionId": 257,
        "position": {
          "x": 660.7589721679688,
          "y": 301.7179870605469,
          "z": 6219.2060546875
        },
        "forward": {
          "x": -0.6980000138282776,
          "z": -0.7160000205039978
        },
        "openLongDisTeleport": true,
        "_posBindMovingTargetKey": "",
        "_forwardBindMovingTargetKey": ""
      },
      {
        "$type": "MoleMole.Config.ConfigVisibleInterAction",
        "type": "VISIBLE",
        "aliasList": [
          "Avatar"
        ],
        "actionId": 287,
        "isVisible": true,
        "_extraParam": ""
      },
      {
        "$type": "EDCHPJLDKIN",
        "type": "BODY_LANG",
        "aliasList": [
          "Avatar"
        ],
        "actionId": 288,
        "isContinue": true,
        "forceDoFreeStyle": true,
        "canDoRepeatFreeStyle": false,
        "cantBackToIdleWhenSitLoop": true,
        "eventPatternSuiteKey": ""
      },
      {
        "$type": "MJFAIFFAGOF",
        "type": "DIALOG",
        "aliasList": [
          "20883"
        ],
        "actionId": 130,
        "dialogID": 733300714,
        "protectTime": 1.2999999523162842
      },
      {
        "$type": "EDCHPJLDKIN",
        "type": "BODY_LANG",
        "aliasList": [
          "1005"
        ],
        "actionId": 202,
        "isContinue": true,
        "forceDoFreeStyle": true,
        "canDoRepeatFreeStyle": false,
        "cantBackToIdleWhenSitLoop": true,
        "eventPatternSuiteKey": ""
      },
      {
        "$type": "EFHODGEJOHJ",
        "type": "CAMERA_MOVE",
        "delayTime": 0.10000000149011612,
        "duration": 7.320000171661377,
        "actionId": 192,
        "camPosOffset": {
          "x": 661.2689819335938,
          "y": 303.1239929199219,
          "z": 6218.95703125
        },
        "camForwardTargetOffset": {
          "x": 660.2780151367188,
          "y": 303.06298828125,
          "z": 6219.0791015625
        },
        "camFov": 30.0,
        "cameraBlendType": "EaseOutQuad",
        "MDKBPBJCMHH": {},
        "needZAxisRotate": true,
        "openCameraDither": false,
        "targetNpcAlias": "",
        "closeTreeLeafDither": true,
        "PHGBNNGCJKJ": "",
        "NFILMKCFHEB": "",
        "BGPNGHDAECF": ""
      },
      {
        "$type": "NPCNMEOCADD",
        "type": "LOOK_AT",
        "delayTime": 0.24199999868869781,
        "aliasList": [
          "1005"
        ],
        "actionId": 198,
        "enableHead": true,
        "useTargetPos": true,
        "enableAbsolute": true,
        "targetPosition": {
          "x": 581.6519775390625,
          "y": 322.989990234375,
          "z": 6155.4130859375
        },
        "headTurnTime": 0.5,
        "targetNpcAlias": "",
        "lookAtTargetType": "NONE",
        "openBackProtect": true,
        "targetNpcLookAtPoint": "",
        "BHGPHGNFCBF": ""
      },
      {
        "$type": "NPCNMEOCADD",
        "type": "LOOK_AT",
        "delayTime": 0.25099998712539673,
        "aliasList": [
          "20883"
        ],
        "actionId": 194,
        "enableHead": true,
        "targetPosition": {
          "x": 582.8259887695312,
          "y": 322.989990234375,
          "z": 6154.3408203125
        },
        "headTurnTime": 0.5,
        "targetNpcAlias": "Avatar",
        "openBackProtect": true,
        "targetNpcLookAtPoint": "",
        "BHGPHGNFCBF": ""
      },
      {
        "$type": "IEKHMHNHENB",
        "type": "STEER_TO",
        "delayTime": 0.30000001192092896,
        "duration": 1.0,
        "aliasList": [
          "20883"
        ],
        "actionId": 195,
        "steerType": "ABSOLUTE",
        "steerDir": {
          "x": 659.6699829101562,
          "y": 301.6419982910156,
          "z": 6218.99609375
        },
        "useSteerAnim": true,
        "interruptFreestyle": true,
        "forceSteer": true,
        "targetNpcAlias": "",
        "ignoreY": true,
        "fixInterNull": true,
        "BHGPHGNFCBF": ""
      },
      {
        "$type": "NPCNMEOCADD",
        "type": "LOOK_AT",
        "delayTime": 0.5130000114440918,
        "aliasList": [
          "Avatar"
        ],
        "actionId": 197,
        "enableHead": true,
        "targetPosition": {
          "x": 581.6519775390625,
          "y": 322.989990234375,
          "z": 6155.4130859375
        },
        "headTurnTime": 0.5,
        "targetNpcAlias": "20883",
        "openBackProtect": true,
        "targetNpcLookAtPoint": "",
        "BHGPHGNFCBF": ""
      }
    ],
    [
      {
        "$type": "EFHODGEJOHJ",
        "type": "CAMERA_MOVE",
        "duration": 0.5,
        "actionId": 213,
        "camPosOffset": {
          "x": 657.4879760742188,
          "y": 303.0710144042969,
          "z": 6217.85498046875
        },
        "camForwardTargetOffset": {
          "x": 658.3790283203125,
          "y": 303.0249938964844,
          "z": 6218.30615234375
        },
        "camFov": 30.0,
        "lerpPattern": 6,
        "cameraBlendType": "EaseInOutCubic",
        "MDKBPBJCMHH": {},
        "needZAxisRotate": true,
        "openCameraDither": false,
        "targetNpcAlias": "",
        "closeTreeLeafDither": true,
        "PHGBNNGCJKJ": "",
        "NFILMKCFHEB": "",
        "BGPNGHDAECF": ""
      },
      {
        "$type": "MJFAIFFAGOF",
        "type": "DIALOG",
        "aliasList": [
          "1005"
        ],
        "actionId": 132,
        "dialogID": 733300715,
        "protectTime": 1.2999999523162842
      },
      {
        "$type": "NPCNMEOCADD",
        "type": "LOOK_AT",
        "aliasList": [
          "1005"
        ],
        "actionId": 205,
        "enableHead": true,
        "targetPosition": {
          "x": 583.2969970703125,
          "y": 323.0329895019531,
          "z": 6154.39501953125
        },
        "headTurnTime": 0.5,
        "targetNpcAlias": "20883",
        "openBackProtect": true,
        "targetNpcLookAtPoint": "",
        "BHGPHGNFCBF": ""
      },
      {
        "$type": "IEKHMHNHENB",
        "type": "STEER_TO",
        "duration": 1.0,
        "aliasList": [
          "1005"
        ],
        "actionId": 207,
        "steerType": "ABSOLUTE",
        "steerDir": {
          "x": 660.1099853515625,
          "y": 301.59698486328125,
          "z": 6218.76806640625
        },
        "useSteerAnim": true,
        "interruptFreestyle": true,
        "forceSteer": true,
        "targetNpcAlias": "",
        "ignoreY": true,
        "fixInterNull": true,
        "BHGPHGNFCBF": ""
      },
      {
        "$type": "ICHLNKHGCAG",
        "type": "EMO_SYNC",
        "aliasList": [
          "1005"
        ],
        "actionId": 283,
        "dataPath": "",
        "phonemePath": "Cs_Emo_Pet_Common/Cs_Emo_Paimon_None",
        "emotionPath": "Cs_Emo_Pet_Common/Cs_Emo_Paimon_Normal01_B",
        "mateDataPath": "",
        "matePhonemePath": "",
        "mateEmotionPath": "",
        "phonemePathHashList": [
          1796869206626684908,
          2049648015653630001,
          14015965774222061559,
          873259039409222856
        ],
        "emotionPathHashList": [
          14892026956990897578,
          7647528750435710781,
          2171559387429051042,
          15358483104891988261
        ],
        "PACNIGOOENN": "",
        "PIBDNPHIAGC": ""
      },
      {
        "$type": "EFHODGEJOHJ",
        "type": "CAMERA_MOVE",
        "delayTime": 0.10000000149011612,
        "duration": 9.0,
        "actionId": 204,
        "camPosOffset": {
          "x": 657.5430297851562,
          "y": 303.0669860839844,
          "z": 6217.74609375
        },
        "camForwardTargetOffset": {
          "x": 658.4340209960938,
          "y": 303.02099609375,
          "z": 6218.19677734375
        },
        "camFov": 30.0,
        "cameraBlendType": "EaseOutQuad",
        "MDKBPBJCMHH": {},
        "needZAxisRotate": true,
        "openCameraDither": false,
        "targetNpcAlias": "",
        "closeTreeLeafDither": true,
        "PHGBNNGCJKJ": "",
        "NFILMKCFHEB": "",
        "BGPNGHDAECF": ""
      },
      {
        "$type": "NPCNMEOCADD",
        "type": "LOOK_AT",
        "delayTime": 0.31299999356269836,
        "aliasList": [
          "Avatar"
        ],
        "actionId": 209,
        "enableHead": true,
        "targetPosition": {
          "x": 582.8770141601562,
          "y": 323.0119934082031,
          "z": 6153.7080078125
        },
        "headTurnTime": 0.5,
        "targetNpcAlias": "1005",
        "openBackProtect": true,
        "targetNpcLookAtPoint": "",
        "BHGPHGNFCBF": ""
      }
    ],
    [
      {
        "$type": "EFHODGEJOHJ",
        "type": "CAMERA_MOVE",
        "duration": 0.5,
        "actionId": 284,
        "camPosOffset": {
          "x": 663.0089721679688,
          "y": 302.7239990234375,
          "z": 6216.59814453125
        },
        "camForwardTargetOffset": {
          "x": 662.22998046875,
          "y": 302.7380065917969,
          "z": 6217.22509765625
        },
        "camFov": 30.0,
        "lerpPattern": 6,
        "cameraBlendType": "EaseInOutCubic",
        "MDKBPBJCMHH": {},
        "needZAxisRotate": true,
        "openCameraDither": false,
        "targetNpcAlias": "",
        "closeTreeLeafDither": true,
        "PHGBNNGCJKJ": "",
        "NFILMKCFHEB": "",
        "BGPNGHDAECF": ""
      },
      {
        "$type": "NPCNMEOCADD",
        "type": "LOOK_AT",
        "aliasList": [
          "Avatar"
        ],
        "actionId": 262,
        "enableHead": true,
        "targetPosition": {
          "x": 583.2969970703125,
          "y": 323.0329895019531,
          "z": 6154.39501953125
        },
        "headTurnTime": 0.5,
        "targetNpcAlias": "20883",
        "openBackProtect": true,
        "targetNpcLookAtPoint": "",
        "BHGPHGNFCBF": ""
      },
      {
        "$type": "MJFAIFFAGOF",
        "type": "DIALOG",
        "aliasList": [
          "20883"
        ],
        "actionId": 134,
        "dialogID": 733300716,
        "protectTime": 1.0290000438690186
      },
      {
        "$type": "EDCHPJLDKIN",
        "type": "BODY_LANG",
        "aliasList": [
          "20883"
        ],
        "actionId": 211,
        "bodyLangParam": 6070,
        "forceDoFreeStyle": true,
        "canDoRepeatFreeStyle": false,
        "cantBackToIdleWhenSitLoop": true,
        "eventPatternSuiteKey": ""
      },
      {
        "$type": "MoleMole.Config.ConfigTeleportToAction",
        "type": "TELEPORT_TO",
        "aliasList": [
          "1005"
        ],
        "actionId": 259,
        "position": {
          "x": 660.8179931640625,
          "y": 301.5790100097656,
          "z": 6218.505859375
        },
        "forward": {
          "x": -0.9950000047683716,
          "z": 0.09600000083446503
        },
        "openLongDisTeleport": true,
        "_posBindMovingTargetKey": "",
        "_forwardBindMovingTargetKey": ""
      },
      {
        "$type": "EFHODGEJOHJ",
        "type": "CAMERA_MOVE",
        "delayTime": 0.10000000149011612,
        "duration": 10.038000106811523,
        "actionId": 210,
        "camPosOffset": {
          "x": 663.0089721679688,
          "y": 302.7239990234375,
          "z": 6216.59814453125
        },
        "camForwardTargetOffset": {
          "x": 662.22998046875,
          "y": 302.7380065917969,
          "z": 6217.22509765625
        },
        "camFov": 30.0,
        "cameraBlendType": "EaseOutQuad",
        "MDKBPBJCMHH": {},
        "needZAxisRotate": true,
        "openCameraDither": false,
        "targetNpcAlias": "",
        "closeTreeLeafDither": true,
        "PHGBNNGCJKJ": "",
        "NFILMKCFHEB": "",
        "BGPNGHDAECF": ""
      }
    ],
    [
      {
        "$type": "MoleMole.Config.ConfigTimeProtectAction",
        "type": "TIME_PROTECT",
        "duration": 0.699999988079071,
        "actionId": 105
      },
      {
        "$type": "MoleMole.Config.ConfigSimpleBlackScreenAction",
        "type": "SIMPLE_BLACK_SCREEN",
        "actionId": 142,
        "durationToBlack": 0.5,
        "durationKeepBlack": 1.0,
        "durationFromBlack": 0.5,
        "textMapID": "",
        "useTextFade": true
      },
      {
        "$type": "EDCHPJLDKIN",
        "type": "BODY_LANG",
        "aliasList": [
          "20883"
        ],
        "actionId": 212,
        "isContinue": true,
        "forceDoFreeStyle": true,
        "canDoRepeatFreeStyle": false,
        "cantBackToIdleWhenSitLoop": true,
        "eventPatternSuiteKey": ""
      },
      {
        "$type": "EFHODGEJOHJ",
        "type": "CAMERA_MOVE",
        "delayTime": 0.6000000238418579,
        "duration": 0.10000000149011612,
        "actionId": 143,
        "camPosOffset": {
          "x": 586.177978515625,
          "y": 322.91400146484375,
          "z": 6153.708984375
        },
        "camForwardTargetOffset": {
          "x": 585.2169799804688,
          "y": 322.7929992675781,
          "z": 6153.9560546875
        },
        "lerpPattern": 6,
        "cameraBlendType": "EaseInOutCubic",
        "MDKBPBJCMHH": {},
        "needZAxisRotate": true,
        "openCameraDither": false,
        "targetNpcAlias": "",
        "closeTreeLeafDither": true,
        "PHGBNNGCJKJ": "",
        "NFILMKCFHEB": "",
        "BGPNGHDAECF": ""
      },
      {
        "$type": "MoleMole.Config.ConfigVisibleInterAction",
        "type": "VISIBLE",
        "delayTime": 0.6000000238418579,
        "aliasList": [
          "20883"
        ],
        "actionId": 214,
        "_extraParam": ""
      },
      {
        "$type": "MoleMole.Config.ConfigVisibleInterAction",
        "type": "VISIBLE",
        "delayTime": 0.6000000238418579,
        "aliasList": [
          "20966"
        ],
        "actionId": 215,
        "_extraParam": ""
      }
    ]
  ],
  "groupId": [
    {
      "grpId": 3123672300,
      "nextGrpId": 3123672301
    },
    {
      "index": 1,
      "grpId": 3123672301,
      "nextGrpId": 3123672302
    },
    {
      "index": 2,
      "grpId": 3123672302,
      "nextGrpId": 3123672303
    },
    {
      "index": 3,
      "grpId": 3123672303,
      "nextGrpId": 3123672304
    },
    {
      "index": 4,
      "grpId": 3123672304,
      "nextGrpId": 3123672305
    },
    {
      "index": 5,
      "grpId": 3123672305,
      "nextGrpId": 3123672306
    },
    {
      "index": 6,
      "grpId": 3123672306,
      "nextGrpId": 3123672307
    },
    {
      "index": 7,
      "grpId": 3123672307,
      "nextGrpId": 3123672308
    },
    {
      "index": 8,
      "grpId": 3123672308,
      "nextGrpId": 2344560836
    },
    {
      "index": 9,
      "grpId": 2344560836,
      "nextGrpId": 2344560837
    },
    {
      "index": 10,
      "grpId": 2344560837,
      "nextGrpId": 2344560838
    },
    {
      "index": 11,
      "grpId": 2344560838,
      "nextGrpId": 2344560839
    },
    {
      "index": 12,
      "grpId": 2344560839,
      "nextGrpId": 2344560840
    },
    {
      "index": 13,
      "grpId": 2344560840,
      "nextGrpId": 2344560841
    },
    {
      "index": 14,
      "grpId": 2344560841,
      "nextGrpId": 2344560842
    },
    {
      "index": 15,
      "grpId": 2344560842,
      "nextGrpId": 2344560843
    }
  ],
  "freeStyleDic": {
    "20883": [
      6030,
      6070
    ]
  }
}