{
  "flyDirectionRtpcKey": {
    "text": "Param_flyDir"
  },
  "flyDirectionRtpcFront": 50.0,
  "flyDirectionRtpcSide": 100.0,
  "flyDirectionRtpcBack": 50.0,
  "lastFrameSpeedInAirRtpcKey": {
    "text": "Param_landSpeed"
  },
  "eventFallInWater": {
    "text": "Play_sfx_char_land_splash"
  },
  "altitudeRtpcKey": {
    "text": "Param_gradient"
  },
  "slopeRtpcKey": {
    "text": "Param_walkAngle"
  },
  "flyTurnEvent": {
    "text": ""
  },
  "flySpeedRtpcKey": {
    "text": "Param_flySpeed"
  },
  "airflowSpeedGain": 2.0,
  "airflowGainFadeLength": 0.5,
  "climbVerticalScalerRtpcKey": {
    "text": "Param_climbDir"
  },
  "climbVerticalScalerAnimatorKey": {
    "text": "ClimbVer"
  },
  "cameraAngleXRtpcKey": {
    "text": "Param_cameraX"
  },
  "cameraAngleYRtpcKey": {
    "text": "Param_cameraY"
  },
  "enterSpeedupFieldEvent": {
    "text": ""
  },
  "fallOnWaterRtpcKey": {
    "text": "Param_splash"
  },
  "DFCDHKLDILK": {
    "text": "Param_avatarmove_Y_absolute"
  },
  "DCIJPGMOONC": {
    "text": "StateGroup_movementState"
  },
  "NPNFMFFINMP": {
    "UNDEFINED": {
      "text": "None"
    },
    "MOVE": {
      "text": "State_onLand"
    },
    "AIR": {
      "text": "State_inAir"
    },
    "FLY": {
      "text": "State_inAir"
    },
    "SWIM": {
      "text": "State_inWater"
    },
    "BOAT": {
      "text": "State_inBoat"
    },
    "ROLLER_COASTER": {
      "text": "State_inCoaster"
    },
    "DIVE": {
      "text": "State_inDiving"
    }
  },
  "DNMNEGJADAH": {
    "text": "StateGroup_musicVehicle"
  },
  "KFBPHELMNEB": {
    "UNDEFINED": {
      "text": "None"
    },
    "WATER_SHIP": {
      "text": "State_WaterShip"
    }
  },
  "CFNBPNPNDMJ": "",
  "KCGPCELOEOB": [
    {
      "stateName": "IN_WATER",
      "OCEGKAAACKJ": [
        {
          "action": {
            "$type": "APPGADPEGJE",
            "HOODGCCKJFI": "AMBIENCE",
            "eventName": {
              "text": "Play_Amb_FD40_UnderWater_Trigger"
            }
          }
        },
        {
          "action": {
            "$type": "APPGADPEGJE",
            "HOODGCCKJFI": "AMBIENCE",
            "eventName": {
              "text": "Play_Amb_FD40_UnderWater_Surface_2_0"
            }
          }
        },
        {
          "action": {
            "$type": "LGGHDLGPBIA",
            "stateGroup": {
              "text": "StateGroup_gameDiving"
            },
            "stateValue": {
              "text": "State_inDiving"
            }
          }
        },
        {
          "action": {
            "$type": "FGMDPNIPLBH",
            "rtpcKey": {
              "text": ""
            },
            "CDOPOCNGCBL": "DiveRawRelativeYaw",
            "MDODMDNMHJB": 3
          }
        },
        {
          "action": {
            "$type": "CLAIOMBNDEL",
            "configName": "config_water"
          }
        },
        {
          "action": {
            "$type": "ENDJFCONNFK",
            "AEKLEMAFMDI": "Aux_Underwater_Vo",
            "order": 1
          }
        },
        {
          "action": {
            "$type": "NDDGOBPCKJN",
            "FDNHBOGIENM": 2,
            "NOMMINILGIN": [
              0,
              1,
              2,
              3,
              4
            ]
          }
        }
      ],
      "LKBEKJOGNHG": [
        {
          "action": {
            "$type": "NDDGOBPCKJN",
            "enable": true,
            "FDNHBOGIENM": 2,
            "NOMMINILGIN": [
              4,
              3,
              2,
              1,
              0
            ]
          }
        },
        {
          "action": {
            "$type": "NJEMBNCDOLN",
            "configName": "config_water"
          }
        },
        {
          "action": {
            "$type": "CPNGMMFBEJF",
            "rtpcKey": {
              "text": ""
            },
            "CDOPOCNGCBL": "DiveRawRelativeYaw"
          }
        },
        {
          "action": {
            "$type": "APPGADPEGJE",
            "HOODGCCKJFI": "AMBIENCE",
            "eventName": {
              "text": "Stop_Amb_FD40_UnderWater_Trigger"
            }
          }
        },
        {
          "action": {
            "$type": "APPGADPEGJE",
            "HOODGCCKJFI": "AMBIENCE",
            "eventName": {
              "text": "Stop_Amb_FD40_UnderWater_Surface_2_0"
            }
          }
        },
        {
          "action": {
            "$type": "LGGHDLGPBIA",
            "stateGroup": {
              "text": "StateGroup_movementState"
            },
            "stateValue": {
              "text": "None"
            }
          }
        },
        {
          "action": {
            "$type": "NJHIIMOKAIF",
            "MHDLHGGGNFJ": "Aux_Underwater_Vo"
          }
        }
      ]
    },
    {
      "stateName": "OUT_OF_WATER",
      "OCEGKAAACKJ": [
        {
          "action": {
            "$type": "LGGHDLGPBIA",
            "stateGroup": {
              "text": "StateGroup_gameDiving"
            },
            "stateValue": {
              "text": "State_outDiving"
            }
          }
        }
      ]
    }
  ],
  "LHFLFNLLEFN": {
    "text": "Param_avatarmove_duration"
  },
  "DFAJOFHAJME": 30.0,
  "DNNIFHCDOMI": {
    "text": "Param_avatarmove_diveSpeed"
  },
  "LAKECECLKIL": {
    "text": "Param_avatarmove_diveSpeed_amb"
  },
  "NILKMKEKDMN": 10.0,
  "OGPBGAPBBGL": {
    "text": "Param_avatarImpulseSpeed"
  },
  "EFKCHBHNEIL": {
    "text": "Play_sfx_char_dive_impact_explore"
  },
  "NHANABOGJBF": {
    "text": "SwitchGrp_Climb_SurfaceType"
  },
  "DAAJANFDILH": {
    "Invalid": {
      "text": "Switch_Unknown"
    },
    "Grass": {
      "text": "Switch_Grass"
    },
    "Dirt": {
      "text": "Switch_Dirt"
    },
    "Rock": {
      "text": "Switch_Rock"
    },
    "Snow": {
      "text": "Switch_Snow"
    },
    "Water": {
      "text": "Switch_Unknown"
    },
    "Tile": {
      "text": "Switch_Unknown"
    },
    "Sand": {
      "text": "Switch_Unknown"
    },
    "Wood": {
      "text": "Switch_Wood"
    },
    "Iron": {
      "text": "Switch_Iron"
    },
    "Tree": {
      "text": "Switch_Tree"
    },
    "Ice": {
      "text": "Switch_Ice"
    },
    "Marble": {
      "text": "Switch_Unknown"
    },
    "Carpet": {
      "text": "Switch_Unknown"
    },
    "WoodLog": {
      "text": "Switch_Unknown"
    },
    "Cloud": {
      "text": "Switch_Unknown"
    },
    "Coin": {
      "text": "Switch_Unknown"
    },
    "SnowRock": {
      "text": "Switch_SnowRock"
    },
    "ElectricWater": {
      "text": "Switch_Unknown"
    },
    "Sakura": {
      "text": "Switch_Unknown"
    },
    "BlackMud": {
      "text": "Switch_Unknown"
    },
    "TransparentBrick": {
      "text": "Switch_Unknown"
    },
    "Desert": {
      "text": "Switch_Desert"
    },
    "Glass": {
      "text": "Switch_Glass"
    }
  },
  "OKFINJHDMCC": {
    "text": "Switch_Unknown"
  },
  "OBDENAGFABC": {
    "text": "Switch_NotClimb"
  }
}