{
  "id": 1801,
  "regionPolygons": [
    {
      "minArea": {
        "x": 360.8962097167969,
        "y": 147.04356384277344,
        "z": 2278.726318359375
      },
      "maxArea": {
        "x": 482.3651123046875,
        "y": 204.96688842773438,
        "z": 2358.76806640625
      },
      "roadPoints": [
        {
          "x": 391.0120544433594,
          "y": 147.04356384277344,
          "z": 2287.706298828125
        },
        {
          "x": 375.841552734375,
          "y": 147.04356384277344,
          "z": 2293.740478515625
        },
        {
          "x": 360.8962097167969,
          "y": 147.04356384277344,
          "z": 2310.51708984375
        },
        {
          "x": 367.8262634277344,
          "y": 147.04356384277344,
          "z": 2343.947265625
        },
        {
          "x": 402.9930725097656,
          "y": 147.04356384277344,
          "z": 2358.76806640625
        },
        {
          "x": 449.5661926269531,
          "y": 147.04356384277344,
          "z": 2341.262451171875
        },
        {
          "x": 459.13336181640625,
          "y": 147.04356384277344,
          "z": 2349.86669921875
        },
        {
          "x": 482.3651123046875,
          "y": 147.04356384277344,
          "z": 2342.004150390625
        },
        {
          "x": 470.8009338378906,
          "y": 147.04356384277344,
          "z": 2314.368408203125
        },
        {
          "x": 462.5108642578125,
          "y": 147.04356384277344,
          "z": 2309.49462890625
        },
        {
          "x": 454.18255615234375,
          "y": 147.04356384277344,
          "z": 2300.765869140625
        },
        {
          "x": 410.94427490234375,
          "y": 147.04356384277344,
          "z": 2315.469970703125
        },
        {
          "x": 391.49237060546875,
          "y": 147.04356384277344,
          "z": 2278.726318359375
        }
      ]
    },
    {
      "minArea": {
        "x": 377.60003662109375,
        "y": 64.09443664550781,
        "z": 2295.26025390625
      },
      "maxArea": {
        "x": 672.4885864257812,
        "y": 221.92208862304688,
        "z": 2627.90478515625
      },
      "roadPoints": [
        {
          "x": 471.2655334472656,
          "y": 64.09443664550781,
          "z": 2295.26025390625
        },
        {
          "x": 517.6399536132812,
          "y": 64.09443664550781,
          "z": 2313.09423828125
        },
        {
          "x": 548.8500366210938,
          "y": 64.09443664550781,
          "z": 2344.589111328125
        },
        {
          "x": 576.8366088867188,
          "y": 64.09443664550781,
          "z": 2410.950439453125
        },
        {
          "x": 615.314208984375,
          "y": 64.09443664550781,
          "z": 2436.607421875
        },
        {
          "x": 649.254638671875,
          "y": 64.09443664550781,
          "z": 2507.053466796875
        },
        {
          "x": 666.8878173828125,
          "y": 64.09443664550781,
          "z": 2539.759033203125
        },
        {
          "x": 672.4885864257812,
          "y": 64.09443664550781,
          "z": 2558.82373046875
        },
        {
          "x": 665.6558837890625,
          "y": 64.09443664550781,
          "z": 2569.48779296875
        },
        {
          "x": 592.1482543945312,
          "y": 64.09443664550781,
          "z": 2619.046875
        },
        {
          "x": 545.4034423828125,
          "y": 64.09443664550781,
          "z": 2627.90478515625
        },
        {
          "x": 444.89520263671875,
          "y": 64.09443664550781,
          "z": 2603.509765625
        },
        {
          "x": 387.9566650390625,
          "y": 64.09443664550781,
          "z": 2543.29052734375
        },
        {
          "x": 377.60003662109375,
          "y": 64.09443664550781,
          "z": 2508.953125
        },
        {
          "x": 389.49896240234375,
          "y": 64.09443664550781,
          "z": 2435.4765625
        },
        {
          "x": 391.8210754394531,
          "y": 64.09443664550781,
          "z": 2394.874267578125
        },
        {
          "x": 408.5698547363281,
          "y": 64.09443664550781,
          "z": 2358.89306640625
        },
        {
          "x": 426.9680480957031,
          "y": 64.09443664550781,
          "z": 2320.774169921875
        },
        {
          "x": 464.55462646484375,
          "y": 64.09443664550781,
          "z": 2309.964111328125
        }
      ]
    }
  ],
  "limitShapes": [
    {
      "pos": {
        "x": 385.5267333984375,
        "y": 207.83889770507812,
        "z": 2320.400390625
      },
      "shape": {
        "$type": "GLNLJIJMDJD",
        "useHeight": true,
        "height": 20.0,
        "radius": 25.0
      }
    }
  ],
  "routePoints": [
    {
      "id": 18010001,
      "KPGKDHAFHFE": "REGION_ENTRANCE",
      "pos": {
        "x": 379.7734069824219,
        "y": 205.84771728515625,
        "z": 2308.328369140625
      },
      "ODGMJMJBOEG": {
        "offset": {
          "y": 1.0
        }
      },
      "condslogicType": "LOGIC_AND",
      "adjacencies": [
        18010002
      ],
      "routeRegionId": 4294967295,
      "routePointId": 4294967295
    }
  ],
  "isRoutePointsFullyConnected": true,
  "points": [
    {
      "id": 18010001,
      "KPGKDHAFHFE": "REGION_ENTRANCE",
      "pos": {
        "x": 379.7734069824219,
        "y": 205.84771728515625,
        "z": 2308.328369140625
      },
      "ODGMJMJBOEG": {
        "offset": {
          "y": 1.0
        }
      },
      "condslogicType": "LOGIC_AND",
      "adjacencies": [
        18010002
      ],
      "routeRegionId": 4294967295,
      "routePointId": 4294967295
    },
    {
      "id": 18010002,
      "pos": {
        "x": 443.0385437011719,
        "y": 152.967041015625,
        "z": 2323.6240234375
      },
      "ODGMJMJBOEG": {
        "offset": {
          "y": 1.0
        }
      },
      "condslogicType": "LOGIC_AND",
      "adjacencies": [
        18010001,
        18010003
      ]
    },
    {
      "id": 18010003,
      "pos": {
        "x": 465.4336853027344,
        "y": 154.60110473632812,
        "z": 2338.320556640625
      },
      "condslogicType": "LOGIC_AND",
      "adjacencies": [
        18010002
      ]
    }
  ]
}