{
  "id": 1101,
  "regionPolygons": [
    {
      "minArea": {
        "x": -1808.536376953125,
        "y": 84.14820098876953,
        "z": 2008.1497802734375
      },
      "maxArea": {
        "x": -1479.6715087890625,
        "y": 283.66827392578125,
        "z": 2373.178466796875
      },
      "roadPoints": [
        {
          "x": -1479.6715087890625,
          "y": 84.14820098876953,
          "z": 2139.59423828125
        },
        {
          "x": -1514.4732666015625,
          "y": 84.14820098876953,
          "z": 2029.244384765625
        },
        {
          "x": -1617.0030517578125,
          "y": 84.14820098876953,
          "z": 2014.2076416015625
        },
        {
          "x": -1735.3135986328125,
          "y": 84.14820098876953,
          "z": 2008.1497802734375
        },
        {
          "x": -1793.2611083984375,
          "y": 84.14820098876953,
          "z": 2104.32666015625
        },
        {
          "x": -1804.2989501953125,
          "y": 84.14820098876953,
          "z": 2245.8330078125
        },
        {
          "x": -1808.536376953125,
          "y": 84.14820098876953,
          "z": 2355.976318359375
        },
        {
          "x": -1731.024658203125,
          "y": 84.14820098876953,
          "z": 2373.178466796875
        },
        {
          "x": -1600.2977294921875,
          "y": 84.14820098876953,
          "z": 2368.853515625
        },
        {
          "x": -1553.379150390625,
          "y": 84.14820098876953,
          "z": 2308.219970703125
        },
        {
          "x": -1487.1082763671875,
          "y": 84.14820098876953,
          "z": 2252.62548828125
        }
      ]
    }
  ],
  "routePoints": [
    {
      "id": 11010001,
      "KPGKDHAFHFE": "REGION_ENTRANCE",
      "pos": {
        "x": -1495.262451171875,
        "y": 195.87384033203125,
        "z": 2255.9052734375
      },
      "ODGMJMJBOEG": {
        "offset": {
          "y": 1.0
        },
        "NKHJCEPLNCA": true
      },
      "condslogicType": "LOGIC_AND",
      "adjacencies": [
        11010002
      ],
      "routeRegionId": 4294967295,
      "routePointId": 4294967295
    }
  ],
  "isRoutePointsFullyConnected": true,
  "points": [
    {
      "id": 11010002,
      "pos": {
        "x": -1536.0465087890625,
        "y": 156.56654357910156,
        "z": 2237.006103515625
      },
      "layout": "CAVE_POLYGON",
      "ODGMJMJBOEG": {
        "offset": {
          "y": 1.0
        },
        "NKHJCEPLNCA": true
      },
      "condslogicType": "LOGIC_AND",
      "adjacencies": [
        11010001
      ]
    },
    {
      "id": 11010001,
      "KPGKDHAFHFE": "REGION_ENTRANCE",
      "pos": {
        "x": -1495.262451171875,
        "y": 195.87384033203125,
        "z": 2255.9052734375
      },
      "ODGMJMJBOEG": {
        "offset": {
          "y": 1.0
        },
        "NKHJCEPLNCA": true
      },
      "condslogicType": "LOGIC_AND",
      "adjacencies": [
        11010002
      ],
      "routeRegionId": 4294967295,
      "routePointId": 4294967295
    }
  ]
}