{
  "luaDataPath": "",
  "startBlackKeepTime": 0.4000000059604645,
  "entityBan": "",
  "disableNpcLod": true,
  "startFade": {
    "startFadeInDuration": 0.30000001192092896,
    "startFadeOutDuration": 0.30000001192092896
  },
  "endFade": {
    "startFadeOutDuration": 0.0
  },
  "actors": [
    {
      "alias": "Avatar",
      "visible": true,
      "bornPointName": "",
      "relativePosNpcAlias": "",
      "_bindMovingTargetKey": ""
    },
    {
      "configID": 1022,
      "alias": "1022",
      "visible": true,
      "bornPointName": "",
      "relativePosNpcAlias": "",
      "_bindMovingTargetKey": ""
    }
  ],
  "group": [
    [
      {
        "$type": "EFHODGEJOHJ",
        "type": "CAMERA_MOVE",
        "duration": 1.0,
        "camPosOffset": {
          "x": 2128.411376953125,
          "y": 206.37863159179688,
          "z": -1157.0146484375
        },
        "camForwardTargetOffset": {
          "x": 2128.964599609375,
          "y": 206.63027954101562,
          "z": -1157.808837890625
        },
        "camFov": 35.0,
        "lerpPattern": 6,
        "cameraBlendType": "EaseInOutCubic",
        "MDKBPBJCMHH": {},
        "targetNpcAlias": "",
        "PHGBNNGCJKJ": "",
        "NFILMKCFHEB": "",
        "BGPNGHDAECF": ""
      },
      {
        "$type": "EFHODGEJOHJ",
        "type": "CAMERA_MOVE",
        "delayTime": 0.10000000149011612,
        "duration": 10.0,
        "camPosOffset": {
          "x": 2128.5673828125,
          "y": 205.4875946044922,
          "z": -1157.1898193359375
        },
        "camForwardTargetOffset": {
          "x": 2129.114013671875,
          "y": 205.77964782714844,
          "z": -1157.974609375
        },
        "camFov": 35.0,
        "cameraBlendType": "EaseInOutQuad",
        "MDKBPBJCMHH": {},
        "targetNpcAlias": "",
        "PHGBNNGCJKJ": "",
        "NFILMKCFHEB": "",
        "BGPNGHDAECF": ""
      },
      {
        "$type": "MoleMole.Config.ConfigTimeProtectAction",
        "type": "TIME_PROTECT",
        "duration": 2.0
      },
      {
        "$type": "MoleMole.Config.ConfigCameraDOFAction",
        "type": "CAMERA_DOF",
        "enabled": true,
        "focusDistance": 20.0,
        "focusRange": 20.0,
        "nearFocalDistance": 5.0,
        "nearFocalTransDistance": 2.0,
        "quality": 3
      },
      {
        "$type": "MoleMole.Config.ConfigCameraDOFAction",
        "type": "CAMERA_DOF",
        "delayTime": 1.0,
        "duration": 2.0,
        "enabled": true,
        "focusDistance": 20.0,
        "focusRange": 20.0,
        "nearFocalDistance": 2.0,
        "nearFocalTransDistance": 2.0,
        "quality": 3
      },
      {
        "$type": "MoleMole.Config.ConfigMoveToAction",
        "type": "MOVE_TO",
        "aliasList": [
          "Avatar"
        ],
        "routeList": [
          {
            "x": 2130.86572265625,
            "y": 204.9866943359375,
            "z": -1157.938720703125
          }
        ],
        "_bindMovingTargetKey": ""
      },
      {
        "$type": "IEKHMHNHENB",
        "type": "STEER_TO",
        "delayTime": 0.10000000149011612,
        "aliasList": [
          "Avatar"
        ],
        "steerType": "ABSOLUTE",
        "steerDir": {
          "x": 2132.24267578125,
          "y": 204.9866943359375,
          "z": -1161.03173828125
        },
        "targetNpcAlias": "",
        "BHGPHGNFCBF": ""
      },
      {
        "$type": "NPCNMEOCADD",
        "type": "LOOK_AT",
        "aliasList": [
          "Avatar"
        ],
        "enableHead": true,
        "useTargetPos": true,
        "enableAbsolute": true,
        "targetPosition": {
          "x": 2133.4970703125,
          "y": 207.78082275390625,
          "z": -1163.6690673828125
        },
        "headTurnTime": 0.5,
        "targetNpcAlias": "",
        "lookAtTargetType": "NONE",
        "targetNpcLookAtPoint": "",
        "BHGPHGNFCBF": ""
      },
      {
        "$type": "HGDDIPABPCA",
        "type": "LOOK_AT_EYECTRL",
        "aliasList": [
          "Avatar"
        ],
        "useTargetPos": false,
        "turnTime": 1.0,
        "targetNpcAlias": "",
        "targetPoint": "Face"
      },
      {
        "$type": "MJFAIFFAGOF",
        "type": "DIALOG",
        "delayTime": 2.0,
        "aliasList": [
          "1022"
        ],
        "dialogID": 180000601,
        "protectTime": 0.5
      },
      {
        "$type": "MoleMole.Config.ConfigMoveToAction",
        "type": "MOVE_TO",
        "aliasList": [
          "1022"
        ],
        "routeList": [
          {
            "x": 2130.769287109375,
            "y": 204.9866943359375,
            "z": -1159.2908935546875
          }
        ],
        "_bindMovingTargetKey": ""
      },
      {
        "$type": "IEKHMHNHENB",
        "type": "STEER_TO",
        "delayTime": 0.10000000149011612,
        "aliasList": [
          "1022"
        ],
        "steerType": "ABSOLUTE",
        "steerDir": {
          "x": 2132.015625,
          "y": 204.9866943359375,
          "z": -1161.143310546875
        },
        "targetNpcAlias": "",
        "BHGPHGNFCBF": ""
      },
      {
        "$type": "NPCNMEOCADD",
        "type": "LOOK_AT",
        "aliasList": [
          "1022"
        ],
        "enableHead": true,
        "useTargetPos": true,
        "enableAbsolute": true,
        "targetPosition": {
          "x": 2132.01513671875,
          "y": 206.7205352783203,
          "z": -1161.9154052734375
        },
        "headTurnTime": 0.5,
        "targetNpcAlias": "",
        "lookAtTargetType": "NONE",
        "targetNpcLookAtPoint": "",
        "BHGPHGNFCBF": ""
      },
      {
        "$type": "HGDDIPABPCA",
        "type": "LOOK_AT_EYECTRL",
        "aliasList": [
          "1022"
        ],
        "useTargetPos": false,
        "eyeRotateVecLeft": {
          "z": -1.0
        },
        "eyeRotateVecRight": {
          "z": -1.0
        },
        "turnTime": 1.0,
        "targetNpcAlias": "",
        "targetPoint": "Face"
      },
      {
        "$type": "ICHLNKHGCAG",
        "type": "EMO_SYNC",
        "delayTime": 2.0,
        "aliasList": [
          "1022"
        ],
        "dataPath": "Cs_Emo_Avatar_Simple_Common_Set/Cs_Emo_Avatar_Talk/Cs_Emo_WorldQuest/Cs_Emo_Mengde_18000_Dain/Cs_Emo_180000601",
        "phonemePath": "",
        "emotionPath": "",
        "mateDataPath": "",
        "matePhonemePath": "",
        "mateEmotionPath": "",
        "dataPathHashList": [
          314723588060966506,
          16820368850544841341,
          549041181421365572,
          3097900119609316458
        ],
        "PACNIGOOENN": "",
        "PIBDNPHIAGC": ""
      }
    ],
    [
      {
        "$type": "EFHODGEJOHJ",
        "type": "CAMERA_MOVE",
        "duration": 1.0,
        "camPosOffset": {
          "x": 2131.1748046875,
          "y": 206.998046875,
          "z": -1160.663330078125
        },
        "camForwardTargetOffset": {
          "x": 2130.897705078125,
          "y": 206.74130249023438,
          "z": -1159.7374267578125
        },
        "camFov": 20.0,
        "lerpPattern": 6,
        "cameraBlendType": "EaseInOutCubic",
        "MDKBPBJCMHH": {},
        "targetNpcAlias": "",
        "PHGBNNGCJKJ": "",
        "NFILMKCFHEB": "",
        "BGPNGHDAECF": ""
      },
      {
        "$type": "EFHODGEJOHJ",
        "type": "CAMERA_MOVE",
        "delayTime": 0.10000000149011612,
        "duration": 10.0,
        "camPosOffset": {
          "x": 2131.20654296875,
          "y": 207.00430297851562,
          "z": -1160.7552490234375
        },
        "camForwardTargetOffset": {
          "x": 2130.929443359375,
          "y": 206.74755859375,
          "z": -1159.829345703125
        },
        "camFov": 20.0,
        "cameraBlendType": "EaseInOutQuad",
        "MDKBPBJCMHH": {},
        "targetNpcAlias": "",
        "PHGBNNGCJKJ": "",
        "NFILMKCFHEB": "",
        "BGPNGHDAECF": ""
      },
      {
        "$type": "MoleMole.Config.ConfigCameraDOFAction",
        "type": "CAMERA_DOF",
        "enabled": true,
        "focusDistance": 5.0,
        "focusRange": 5.0,
        "quality": 3
      },
      {
        "$type": "OBCDECFOOBC",
        "type": "DIALOG_SELECT",
        "delayTime": 1.899999976158142,
        "aliasList": [
          "Avatar"
        ],
        "dialogIDList": [
          180000603
        ],
        "grpIDList": [
          3637301720
        ],
        "useGrpId": true
      },
      {
        "$type": "NPCNMEOCADD",
        "type": "LOOK_AT",
        "delayTime": 1.899999976158142,
        "aliasList": [
          "Avatar"
        ],
        "enableHead": true,
        "useTargetPos": true,
        "enableAbsolute": true,
        "targetPosition": {
          "x": 2131.176513671875,
          "y": 206.58685302734375,
          "z": -1159.312255859375
        },
        "headTurnTime": 0.5,
        "targetNpcAlias": "",
        "lookAtTargetType": "NONE",
        "targetNpcLookAtPoint": "",
        "BHGPHGNFCBF": ""
      },
      {
        "$type": "HGDDIPABPCA",
        "type": "LOOK_AT_EYECTRL",
        "delayTime": 1.899999976158142,
        "aliasList": [
          "Avatar"
        ],
        "useTargetPos": false,
        "eyeRotateVecLeft": {
          "x": 5.0,
          "z": -2.0
        },
        "eyeRotateVecRight": {
          "x": 4.0,
          "z": -2.0
        },
        "turnTime": 1.0,
        "targetNpcAlias": "",
        "targetPoint": "Face"
      },
      {
        "$type": "MJFAIFFAGOF",
        "type": "DIALOG",
        "aliasList": [
          "1022"
        ],
        "dialogID": 180000602,
        "protectTime": 2.0
      },
      {
        "$type": "ICHLNKHGCAG",
        "type": "EMO_SYNC",
        "aliasList": [
          "1022"
        ],
        "dataPath": "Cs_Emo_Avatar_Simple_Common_Set/Cs_Emo_Avatar_Talk/Cs_Emo_WorldQuest/Cs_Emo_Mengde_18000_Dain/Cs_Emo_180000602",
        "phonemePath": "",
        "emotionPath": "",
        "mateDataPath": "",
        "matePhonemePath": "",
        "mateEmotionPath": "",
        "dataPathHashList": [
          13476221566709357628,
          9457593371792824368,
          2196257694884792289,
          12679062866400812083
        ],
        "PACNIGOOENN": "",
        "PIBDNPHIAGC": ""
      }
    ],
    [
      {
        "$type": "EFHODGEJOHJ",
        "type": "CAMERA_MOVE",
        "duration": 1.0,
        "camPosOffset": {
          "x": 2133.477294921875,
          "y": 206.37771606445312,
          "z": -1156.1912841796875
        },
        "camForwardTargetOffset": {
          "x": 2132.73046875,
          "y": 206.3490753173828,
          "z": -1156.8555908203125
        },
        "camFov": 20.0,
        "lerpPattern": 6,
        "cameraBlendType": "EaseInOutCubic",
        "MDKBPBJCMHH": {},
        "targetNpcAlias": "",
        "PHGBNNGCJKJ": "",
        "NFILMKCFHEB": "",
        "BGPNGHDAECF": ""
      },
      {
        "$type": "EFHODGEJOHJ",
        "type": "CAMERA_MOVE",
        "delayTime": 0.10000000149011612,
        "duration": 3.0,
        "camPosOffset": {
          "x": 2133.477294921875,
          "y": 206.37771606445312,
          "z": -1156.1912841796875
        },
        "camForwardTargetOffset": {
          "x": 2132.722412109375,
          "y": 206.3460693359375,
          "z": -1156.846435546875
        },
        "camFov": 20.0,
        "cameraBlendType": "EaseInOutQuad",
        "MDKBPBJCMHH": {},
        "targetNpcAlias": "",
        "PHGBNNGCJKJ": "",
        "NFILMKCFHEB": "",
        "BGPNGHDAECF": ""
      },
      {
        "$type": "MoleMole.Config.ConfigCameraDOFAction",
        "type": "CAMERA_DOF",
        "enabled": true,
        "focusDistance": 5.0,
        "focusRange": 10.0,
        "quality": 3
      },
      {
        "$type": "MJFAIFFAGOF",
        "type": "DIALOG",
        "aliasList": [
          "1022"
        ],
        "dialogID": 180000604
      },
      {
        "$type": "NPCNMEOCADD",
        "type": "LOOK_AT",
        "aliasList": [
          "1022"
        ],
        "enableHead": true,
        "enableAbsolute": true,
        "targetPosition": {
          "x": 2132.859619140625,
          "y": 207.7308349609375,
          "z": -1163.6690673828125
        },
        "headTurnTime": 0.6000000238418579,
        "targetNpcAlias": "Avatar",
        "targetNpcLookAtPoint": "",
        "BHGPHGNFCBF": ""
      },
      {
        "$type": "HGDDIPABPCA",
        "type": "LOOK_AT_EYECTRL",
        "aliasList": [
          "1022"
        ],
        "useTargetPos": false,
        "eyeRotateVecLeft": {
          "x": -8.0,
          "z": 2.0
        },
        "eyeRotateVecRight": {
          "x": -8.0,
          "z": 2.0
        },
        "turnTime": 1.0,
        "targetNpcAlias": "",
        "targetPoint": "Face"
      },
      {
        "$type": "ICHLNKHGCAG",
        "type": "EMO_SYNC",
        "aliasList": [
          "1022"
        ],
        "dataPath": "Cs_Emo_Avatar_Simple_Common_Set/Cs_Emo_Avatar_Talk/Cs_Emo_WorldQuest/Cs_Emo_Mengde_18000_Dain/Cs_Emo_180000604",
        "phonemePath": "",
        "emotionPath": "",
        "mateDataPath": "",
        "matePhonemePath": "",
        "mateEmotionPath": "",
        "dataPathHashList": [
          1243935229732345422,
          16167541683152540707,
          9613596367569579397,
          1348157932930657676
        ],
        "PACNIGOOENN": "",
        "PIBDNPHIAGC": ""
      }
    ],
    [
      {
        "$type": "MoleMole.Config.ConfigSimpleBlackScreenAction",
        "type": "SIMPLE_BLACK_SCREEN",
        "durationToBlack": 0.5,
        "durationKeepBlack": 1.0,
        "durationFromBlack": 0.5,
        "textMapID": ""
      },
      {
        "$type": "MoleMole.Config.ConfigTimeProtectAction",
        "type": "TIME_PROTECT",
        "duration": 0.699999988079071
      },
      {
        "$type": "EFHODGEJOHJ",
        "type": "CAMERA_MOVE",
        "delayTime": 0.6000000238418579,
        "duration": 0.10000000149011612,
        "camPosOffset": {
          "x": 2129.16748046875,
          "y": 206.48031616210938,
          "z": -1153.850830078125
        },
        "camForwardTargetOffset": {
          "x": 2129.55126953125,
          "y": 206.40074157714844,
          "z": -1154.7708740234375
        },
        "lerpPattern": 6,
        "cameraBlendType": "EaseInOutCubic",
        "MDKBPBJCMHH": {},
        "targetNpcAlias": "",
        "PHGBNNGCJKJ": "",
        "NFILMKCFHEB": "",
        "BGPNGHDAECF": ""
      },
      {
        "$type": "MoleMole.Config.ConfigVisibleInterAction",
        "type": "VISIBLE",
        "delayTime": 0.6000000238418579,
        "aliasList": [
          "1022"
        ],
        "_extraParam": ""
      }
    ]
  ],
  "groupId": [
    {
      "grpId": 3637301718,
      "nextGrpId": 3637301719
    },
    {
      "index": 1,
      "grpId": 3637301719,
      "nextGrpId": 3637301720
    },
    {
      "index": 2,
      "grpId": 3637301720,
      "nextGrpId": 3637301721
    },
    {
      "index": 3,
      "grpId": 3637301721,
      "nextGrpId": 3637301722
    }
  ],
  "freeStyleDic": {
    "1022": []
  }
}