{
  "id": 1027,
  "series": 1207,
  "titleTextMapHash": 1466678287,
  "descTextMapHash": 2048486734,
  "showType": "QUEST_HIDDEN",
  "subQuests": [
    {
      "subId": 102701,
      "mainId": 1027,
      "order": 1,
      "descTextMapHash": 379288204,
      "showType": "QUEST_HIDDEN",
      "finishCond": [
        {
          "KPGKDHAFHFE": "QUEST_CONTENT_QUEST_STATE_EQUAL",
          "param": [
            102901,
            2
          ]
        }
      ],
      "guide": {},
      "guideHint": {
        "param1": ""
      },
      "finishParent": true,
      "isRewind": true,
      "versionBegin": "",
      "versionEnd": ""
    }
  ]
}