{
  "id": 12037,
  "series": 2031,
  "KPGKDHAFHFE": "LQ",
  "titleTextMapHash": 1755093303,
  "descTextMapHash": 573368670,
  "suggestTrackMainQuestList": [
    12038
  ],
  "rewardIdList": [
    112037
  ],
  "chapterId": 2031,
  "subQuests": [
    {
      "subId": 1203701,
      "mainId": 12037,
      "order": 1,
      "descTextMapHash": 3188478172,
      "GMKDJFPEFFF": [
        322003
      ],
      "finishCond": [
        {
          "KPGKDHAFHFE": "QUEST_CONTENT_FINISH_PLOT",
          "param": [
            1203701,
            0
          ]
        }
      ],
      "guide": {
        "KPGKDHAFHFE": "QUEST_GUIDE_LOCATION",
        "param": [
          "guide_Q1203701"
        ],
        "guideScene": 3,
        "guideStyle": "QUEST_GUIDE_STYLE_POINT",
        "guideLayer": "QUEST_GUIDE_LAYER_SCENE"
      },
      "guideHint": {
        "param1": ""
      },
      "isRewind": true,
      "versionBegin": "",
      "versionEnd": ""
    },
    {
      "subId": 1203702,
      "mainId": 12037,
      "order": 2,
      "descTextMapHash": 4263282284,
      "GMKDJFPEFFF": [
        322003
      ],
      "finishCond": [
        {
          "KPGKDHAFHFE": "QUEST_CONTENT_COMPLETE_TALK",
          "param": [
            1203702,
            0
          ]
        }
      ],
      "guide": {
        "KPGKDHAFHFE": "QUEST_GUIDE_NPC",
        "param": [
          "12589"
        ],
        "guideScene": 3,
        "guideStyle": "QUEST_GUIDE_STYLE_TARGET",
        "guideLayer": "QUEST_GUIDE_LAYER_SCENE"
      },
      "guideHint": {
        "param1": ""
      },
      "versionBegin": "",
      "versionEnd": ""
    },
    {
      "subId": 1203703,
      "mainId": 12037,
      "order": 3,
      "isMpBlock": true,
      "descTextMapHash": 2753629236,
      "stepDescTextMapHash": 2808651165,
      "GMKDJFPEFFF": [
        322003
      ],
      "finishCond": [
        {
          "KPGKDHAFHFE": "QUEST_CONTENT_LUA_NOTIFY",
          "param": [
            0,
            0
          ],
          "count": 1
        }
      ],
      "failCond": [
        {
          "KPGKDHAFHFE": "QUEST_CONTENT_LEAVE_SCENE_RANGE",
          "param": [
            3,
            40
          ]
        },
        {
          "KPGKDHAFHFE": "QUEST_CONTENT_TEAM_DEAD",
          "param": [
            0,
            0
          ]
        },
        {
          "KPGKDHAFHFE": "QUEST_CONTENT_ANY_MANUAL_TRANSPORT",
          "param": [
            0,
            0
          ]
        }
      ],
      "guide": {
        "KPGKDHAFHFE": "QUEST_GUIDE_LOCATION",
        "param": [
          "guide_Q1203703",
          "30"
        ],
        "guideScene": 3,
        "guideStyle": "QUEST_GUIDE_STYLE_POINT",
        "guideLayer": "QUEST_GUIDE_LAYER_SCENE"
      },
      "guideHint": {
        "param1": ""
      },
      "finishExec": [
        {
          "KPGKDHAFHFE": "QUEST_EXEC_NOTIFY_GROUP_LUA",
          "param": [
            "3",
            "133220776"
          ]
        },
        {
          "KPGKDHAFHFE": "QUEST_EXEC_UNREGISTER_DYNAMIC_GROUP",
          "param": [
            "133220776",
            "1"
          ]
        }
      ],
      "failExec": [
        {
          "KPGKDHAFHFE": "QUEST_EXEC_UNREGISTER_DYNAMIC_GROUP",
          "param": [
            "133220776",
            "0"
          ]
        },
        {
          "KPGKDHAFHFE": "QUEST_EXEC_ROLLBACK_QUEST",
          "param": [
            "1203701"
          ]
        }
      ],
      "versionBegin": "",
      "versionEnd": ""
    },
    {
      "subId": 1203704,
      "mainId": 12037,
      "order": 4,
      "descTextMapHash": 2737011308,
      "GMKDJFPEFFF": [
        322003
      ],
      "finishCond": [
        {
          "KPGKDHAFHFE": "QUEST_CONTENT_COMPLETE_TALK",
          "param": [
            1203704,
            0
          ]
        }
      ],
      "guide": {
        "KPGKDHAFHFE": "QUEST_GUIDE_NPC",
        "param": [
          "12589"
        ],
        "guideScene": 3,
        "guideStyle": "QUEST_GUIDE_STYLE_TARGET",
        "guideLayer": "QUEST_GUIDE_LAYER_SCENE"
      },
      "guideHint": {
        "param1": ""
      },
      "isRewind": true,
      "versionBegin": "",
      "versionEnd": ""
    },
    {
      "subId": 1203705,
      "mainId": 12037,
      "order": 5,
      "descTextMapHash": 2551219308,
      "GMKDJFPEFFF": [
        320904
      ],
      "finishCond": [
        {
          "KPGKDHAFHFE": "QUEST_CONTENT_COMPLETE_TALK",
          "param": [
            1203705,
            0
          ]
        }
      ],
      "guide": {
        "KPGKDHAFHFE": "QUEST_GUIDE_NPC",
        "param": [
          "12590"
        ],
        "guideScene": 3,
        "guideStyle": "QUEST_GUIDE_STYLE_TARGET",
        "guideLayer": "QUEST_GUIDE_LAYER_SCENE"
      },
      "guideHint": {
        "param1": ""
      },
      "isRewind": true,
      "versionBegin": "",
      "versionEnd": ""
    },
    {
      "subId": 1203706,
      "mainId": 12037,
      "order": 6,
      "descTextMapHash": 3378667436,
      "GMKDJFPEFFF": [
        320904
      ],
      "finishCond": [
        {
          "KPGKDHAFHFE": "QUEST_CONTENT_COMPLETE_TALK",
          "param": [
            1203706,
            0
          ]
        }
      ],
      "guide": {
        "KPGKDHAFHFE": "QUEST_GUIDE_NPC",
        "param": [
          "3054"
        ],
        "guideScene": 1064,
        "guideStyle": "QUEST_GUIDE_STYLE_TARGET",
        "guideLayer": "QUEST_GUIDE_LAYER_SCENE"
      },
      "guideHint": {
        "param1": ""
      },
      "finishParent": true,
      "isRewind": true,
      "versionBegin": "",
      "versionEnd": ""
    }
  ]
}