{
  "id": 19093,
  "series": 101501,
  "KPGKDHAFHFE": "LQ",
  "titleTextMapHash": 340937479,
  "descTextMapHash": 2750347822,
  "suggestTrackMainQuestList": [
    19094,
    19095
  ],
  "chapterId": 101501,
  "subQuests": [
    {
      "subId": 1909301,
      "mainId": 19093,
      "order": 1,
      "descTextMapHash": 3856568564,
      "GMKDJFPEFFF": [
        1907301,
        330604,
        300406
      ],
      "finishCond": [
        {
          "KPGKDHAFHFE": "QUEST_CONTENT_MAIN_COOP_ENTER_SAVE_POINT",
          "param": [
            101501,
            190930101
          ]
        },
        {
          "KPGKDHAFHFE": "QUEST_CONTENT_MAIN_COOP_ENTER_SAVE_POINT",
          "param": [
            101501,
            190930102
          ]
        }
      ],
      "guide": {
        "KPGKDHAFHFE": "QUEST_GUIDE_LOCATION",
        "param": [
          "[3_4217:2183.860,210.020,-1041.082,0.000,196.100,0.000]"
        ],
        "guideScene": 3,
        "guideStyle": "QUEST_GUIDE_STYLE_POINT",
        "guideLayer": "QUEST_GUIDE_LAYER_SCENE"
      },
      "guideHint": {
        "param1": ""
      },
      "finishParent": true,
      "isRewind": true,
      "finishExec": [
        {
          "KPGKDHAFHFE": "QUEST_EXEC_SET_GAME_TIME",
          "param": [
            "16"
          ]
        },
        {
          "KPGKDHAFHFE": "QUEST_EXEC_UNREGISTER_DYNAMIC_GROUP",
          "param": [
            "133304598,133304600"
          ]
        }
      ],
      "versionBegin": "",
      "versionEnd": ""
    }
  ]
}