{
  "id": 19100,
  "KPGKDHAFHFE": "LQ",
  "titleTextMapHash": 4189800047,
  "rewardIdList": [
    119100
  ],
  "showType": "QUEST_HIDDEN",
  "subQuests": [
    {
      "subId": 1910001,
      "mainId": 19100,
      "order": 1,
      "showType": "QUEST_HIDDEN",
      "finishCond": [
        {
          "KPGKDHAFHFE": "QUEST_CONTENT_FINISH_PLOT",
          "param": [
            1910001,
            0
          ]
        }
      ],
      "guide": {},
      "guideHint": {
        "param1": ""
      },
      "finishParent": true,
      "isRewind": true,
      "versionBegin": "",
      "versionEnd": ""
    }
  ]
}