{
  "id": 19150,
  "series": 107401,
  "KPGKDHAFHFE": "LQ",
  "titleTextMapHash": 651953167,
  "descTextMapHash": 3472699214,
  "suggestTrackMainQuestList": [
    19151,
    19157
  ],
  "chapterId": 107401,
  "PAIEEMIAKBH": true,
  "subQuests": [
    {
      "subId": 1915002,
      "mainId": 19150,
      "order": 1,
      "descTextMapHash": 139754924,
      "GMKDJFPEFFF": [
        330235
      ],
      "finishCond": [
        {
          "KPGKDHAFHFE": "QUEST_CONTENT_MAIN_COOP_ENTER_SAVE_POINT",
          "param": [
            107401,
            191500201
          ]
        },
        {
          "KPGKDHAFHFE": "QUEST_CONTENT_MAIN_COOP_ENTER_SAVE_POINT",
          "param": [
            107401,
            191500202
          ]
        }
      ],
      "guide": {
        "KPGKDHAFHFE": "QUEST_GUIDE_LOCATION",
        "param": [
          "Q1915002_N10000005",
          "20"
        ],
        "guideScene": 3,
        "guideStyle": "QUEST_GUIDE_STYLE_POINT",
        "guideLayer": "QUEST_GUIDE_LAYER_SCENE"
      },
      "guideHint": {
        "param1": ""
      },
      "finishParent": true,
      "isRewind": true,
      "finishExec": [
        {
          "KPGKDHAFHFE": "QUEST_EXEC_SET_QUEST_GLOBAL_VAR",
          "param": [
            "1915001",
            "1"
          ]
        }
      ],
      "versionBegin": "",
      "versionEnd": ""
    }
  ]
}