{
  "id": 19186,
  "KPGKDHAFHFE": "LQ",
  "titleTextMapHash": 1581910671,
  "descTextMapHash": 2934499614,
  "subQuests": [
    {
      "subId": 1918601,
      "mainId": 19186,
      "order": 99,
      "descTextMapHash": 141540828,
      "finishCond": [
        {
          "KPGKDHAFHFE": "QUEST_CONTENT_MAIN_COOP_ENTER_SAVE_POINT",
          "param": [
            108301,
            191860101
          ]
        }
      ],
      "guide": {
        "KPGKDHAFHFE": "QUEST_GUIDE_NPC",
        "param": [
          "518"
        ],
        "guideScene": 3,
        "guideStyle": "QUEST_GUIDE_STYLE_TARGET",
        "guideLayer": "QUEST_GUIDE_LAYER_SCENE"
      },
      "guideHint": {
        "param1": ""
      },
      "finishParent": true,
      "isRewind": true,
      "versionBegin": "",
      "versionEnd": ""
    }
  ]
}