{
  "id": 19184,
  "series": 108301,
  "KPGKDHAFHFE": "LQ",
  "titleTextMapHash": 2737981663,
  "descTextMapHash": 377073718,
  "chapterId": 108301,
  "PAIEEMIAKBH": true,
  "subQuests": [
    {
      "subId": 1918401,
      "mainId": 19184,
      "order": 1,
      "descTextMapHash": 2564648052,
      "GMKDJFPEFFF": [
        108501,
        108502
      ],
      "finishCond": [
        {
          "KPGKDHAFHFE": "QUEST_CONTENT_MAIN_COOP_ENTER_SAVE_POINT",
          "param": [
            108301,
            191840101
          ]
        }
      ],
      "guide": {
        "KPGKDHAFHFE": "QUEST_GUIDE_LOCATION",
        "param": [
          "[1085_404:33.586,16.239,75.758]"
        ],
        "guideScene": 1085,
        "guideStyle": "QUEST_GUIDE_STYLE_POINT",
        "guideLayer": "QUEST_GUIDE_LAYER_SCENE"
      },
      "guideHint": {
        "param1": ""
      },
      "finishParent": true,
      "isRewind": true,
      "versionBegin": "",
      "versionEnd": ""
    }
  ]
}