{
  "id": 22030,
  "KPGKDHAFHFE": "IQ",
  "titleTextMapHash": 62175639,
  "descTextMapHash": 2037035806,
  "taskID": 41230,
  "subQuests": [
    {
      "subId": 2203001,
      "mainId": 22030,
      "order": 1,
      "descTextMapHash": 746916300,
      "GMKDJFPEFFF": [
        3001
      ],
      "finishCond": [
        {
          "KPGKDHAFHFE": "QUEST_CONTENT_COMPLETE_TALK",
          "param": [
            2203001,
            0
          ]
        }
      ],
      "guide": {
        "KPGKDHAFHFE": "QUEST_GUIDE_NPC",
        "autoGuide": "QUEST_GUIDE_AUTO_ENABLE",
        "param": [
          "20271"
        ],
        "guideScene": 3,
        "guideStyle": "QUEST_GUIDE_STYLE_START",
        "guideLayer": "QUEST_GUIDE_LAYER_UI"
      },
      "guideHint": {
        "param1": ""
      },
      "isRewind": true,
      "versionBegin": "",
      "versionEnd": ""
    },
    {
      "subId": 2203002,
      "mainId": 22030,
      "order": 2,
      "descTextMapHash": 236973596,
      "GMKDJFPEFFF": [
        3001
      ],
      "finishCond": [
        {
          "KPGKDHAFHFE": "QUEST_CONTENT_FINISH_PLOT",
          "param": [
            2203002,
            0
          ]
        }
      ],
      "guide": {
        "KPGKDHAFHFE": "QUEST_GUIDE_LOCATION",
        "autoGuide": "QUEST_GUIDE_AUTO_ENABLE",
        "param": [
          "Q22030_01"
        ],
        "guideScene": 3,
        "guideStyle": "QUEST_GUIDE_STYLE_POINT",
        "guideLayer": "QUEST_GUIDE_LAYER_UI"
      },
      "guideHint": {
        "param1": ""
      },
      "isRewind": true,
      "versionBegin": "",
      "versionEnd": ""
    },
    {
      "subId": 2203003,
      "mainId": 22030,
      "order": 3,
      "descTextMapHash": 1928851044,
      "showType": "QUEST_HIDDEN",
      "finishCond": [
        {
          "KPGKDHAFHFE": "QUEST_CONTENT_COMPLETE_TALK",
          "param": [
            2203004,
            0
          ]
        }
      ],
      "failCond": [
        {
          "KPGKDHAFHFE": "QUEST_CONTENT_QUEST_STATE_EQUAL",
          "param": [
            2203004,
            3
          ]
        }
      ],
      "guide": {},
      "guideHint": {
        "param1": ""
      },
      "versionBegin": "",
      "versionEnd": ""
    },
    {
      "subId": 2203004,
      "mainId": 22030,
      "order": 4,
      "descTextMapHash": 408942068,
      "showType": "QUEST_HIDDEN",
      "finishCond": [
        {
          "KPGKDHAFHFE": "QUEST_CONTENT_COMPLETE_TALK",
          "param": [
            2203003,
            0
          ]
        }
      ],
      "failCond": [
        {
          "KPGKDHAFHFE": "QUEST_CONTENT_QUEST_STATE_EQUAL",
          "param": [
            2203003,
            3
          ]
        }
      ],
      "guide": {},
      "guideHint": {
        "param1": ""
      },
      "versionBegin": "",
      "versionEnd": ""
    },
    {
      "subId": 2203005,
      "mainId": 22030,
      "order": 5,
      "descTextMapHash": 4049331596,
      "finishCond": [
        {
          "KPGKDHAFHFE": "QUEST_CONTENT_LUA_NOTIFY",
          "param": [
            0,
            0
          ],
          "count": 1
        }
      ],
      "guide": {
        "KPGKDHAFHFE": "QUEST_GUIDE_LOCATION",
        "autoGuide": "QUEST_GUIDE_AUTO_ENABLE",
        "param": [
          "Q22030_02",
          "30"
        ],
        "guideScene": 3,
        "guideStyle": "QUEST_GUIDE_STYLE_TARGET",
        "guideLayer": "QUEST_GUIDE_LAYER_UI"
      },
      "guideHint": {
        "param1": ""
      },
      "isRewind": true,
      "versionBegin": "",
      "versionEnd": ""
    },
    {
      "subId": 2203006,
      "mainId": 22030,
      "order": 6,
      "descTextMapHash": 937390724,
      "finishCond": [
        {
          "KPGKDHAFHFE": "QUEST_CONTENT_LUA_NOTIFY",
          "param": [
            0,
            0
          ],
          "count": 1
        }
      ],
      "guide": {
        "KPGKDHAFHFE": "QUEST_GUIDE_LOCATION",
        "autoGuide": "QUEST_GUIDE_AUTO_ENABLE",
        "param": [
          "Q22030_03",
          "30"
        ],
        "guideScene": 3,
        "guideStyle": "QUEST_GUIDE_STYLE_TARGET",
        "guideLayer": "QUEST_GUIDE_LAYER_UI"
      },
      "guideHint": {
        "param1": ""
      },
      "isRewind": true,
      "versionBegin": "",
      "versionEnd": ""
    },
    {
      "subId": 2203007,
      "mainId": 22030,
      "order": 7,
      "descTextMapHash": 3763579996,
      "finishCond": [
        {
          "KPGKDHAFHFE": "QUEST_CONTENT_INTERACT_GADGET",
          "param": [
            70710041,
            0
          ],
          "count": 1
        }
      ],
      "guide": {
        "KPGKDHAFHFE": "QUEST_GUIDE_LOCATION",
        "autoGuide": "QUEST_GUIDE_AUTO_ENABLE",
        "param": [
          "Q22030_02",
          "20"
        ],
        "guideScene": 3,
        "guideStyle": "QUEST_GUIDE_STYLE_TARGET",
        "guideLayer": "QUEST_GUIDE_LAYER_UI"
      },
      "guideHint": {
        "param1": ""
      },
      "isRewind": true,
      "versionBegin": "",
      "versionEnd": ""
    },
    {
      "subId": 2203008,
      "mainId": 22030,
      "order": 8,
      "descTextMapHash": 4290411460,
      "finishCond": [
        {
          "KPGKDHAFHFE": "QUEST_CONTENT_INTERACT_GADGET",
          "param": [
            70710041,
            0
          ],
          "count": 1
        }
      ],
      "guide": {
        "KPGKDHAFHFE": "QUEST_GUIDE_LOCATION",
        "autoGuide": "QUEST_GUIDE_AUTO_ENABLE",
        "param": [
          "Q22030_03",
          "20"
        ],
        "guideScene": 3,
        "guideStyle": "QUEST_GUIDE_STYLE_TARGET",
        "guideLayer": "QUEST_GUIDE_LAYER_UI"
      },
      "guideHint": {
        "param1": ""
      },
      "isRewind": true,
      "versionBegin": "",
      "versionEnd": ""
    },
    {
      "subId": 2203009,
      "mainId": 22030,
      "order": 9,
      "descTextMapHash": 824110700,
      "finishCond": [
        {
          "KPGKDHAFHFE": "QUEST_CONTENT_FINISH_ITEM_GIVING",
          "param": [
            2203001,
            0
          ]
        }
      ],
      "guide": {
        "KPGKDHAFHFE": "QUEST_GUIDE_NPC",
        "autoGuide": "QUEST_GUIDE_AUTO_ENABLE",
        "param": [
          "20271"
        ],
        "guideScene": 3,
        "guideStyle": "QUEST_GUIDE_STYLE_TARGET",
        "guideLayer": "QUEST_GUIDE_LAYER_UI"
      },
      "guideHint": {
        "param1": ""
      },
      "isRewind": true,
      "versionBegin": "",
      "versionEnd": ""
    },
    {
      "subId": 2203010,
      "mainId": 22030,
      "order": 10,
      "descTextMapHash": 2427544788,
      "finishCond": [
        {
          "KPGKDHAFHFE": "QUEST_CONTENT_FINISH_ITEM_GIVING",
          "param": [
            2203001,
            0
          ]
        }
      ],
      "guide": {
        "KPGKDHAFHFE": "QUEST_GUIDE_NPC",
        "autoGuide": "QUEST_GUIDE_AUTO_ENABLE",
        "param": [
          "20271"
        ],
        "guideScene": 3,
        "guideStyle": "QUEST_GUIDE_STYLE_TARGET",
        "guideLayer": "QUEST_GUIDE_LAYER_UI"
      },
      "guideHint": {
        "param1": ""
      },
      "isRewind": true,
      "versionBegin": "",
      "versionEnd": ""
    },
    {
      "subId": 2203011,
      "mainId": 22030,
      "order": 12,
      "descTextMapHash": 4286755092,
      "finishCond": [
        {
          "KPGKDHAFHFE": "QUEST_CONTENT_COMPLETE_TALK",
          "param": [
            2203006,
            0
          ]
        }
      ],
      "guide": {
        "KPGKDHAFHFE": "QUEST_GUIDE_NPC",
        "autoGuide": "QUEST_GUIDE_AUTO_ENABLE",
        "param": [
          "20271"
        ],
        "guideScene": 3,
        "guideStyle": "QUEST_GUIDE_STYLE_FINISH",
        "guideLayer": "QUEST_GUIDE_LAYER_UI"
      },
      "guideHint": {
        "param1": ""
      },
      "finishParent": true,
      "isRewind": true,
      "finishExec": [
        {
          "KPGKDHAFHFE": "QUEST_EXEC_UNREGISTER_DYNAMIC_GROUP",
          "param": [
            "133220391",
            "1"
          ]
        },
        {
          "KPGKDHAFHFE": "QUEST_EXEC_UNREGISTER_DYNAMIC_GROUP",
          "param": [
            "133209020",
            "1"
          ]
        },
        {
          "KPGKDHAFHFE": "QUEST_EXEC_UNREGISTER_DYNAMIC_GROUP",
          "param": [
            "133209022",
            "1"
          ]
        },
        {
          "KPGKDHAFHFE": "QUEST_EXEC_SET_DAILY_TASK_VAR",
          "param": [
            "41230",
            "2",
            "50"
          ]
        },
        {
          "KPGKDHAFHFE": "QUEST_EXEC_NOTIFY_DAILY_TASK",
          "param": [
            "41230"
          ]
        }
      ],
      "versionBegin": "",
      "versionEnd": ""
    },
    {
      "subId": 2203012,
      "mainId": 22030,
      "order": 13,
      "descTextMapHash": 1525378460,
      "finishCond": [
        {
          "KPGKDHAFHFE": "QUEST_CONTENT_COMPLETE_TALK",
          "param": [
            2203007,
            0
          ]
        }
      ],
      "guide": {
        "KPGKDHAFHFE": "QUEST_GUIDE_NPC",
        "autoGuide": "QUEST_GUIDE_AUTO_ENABLE",
        "param": [
          "20271"
        ],
        "guideScene": 3,
        "guideStyle": "QUEST_GUIDE_STYLE_FINISH",
        "guideLayer": "QUEST_GUIDE_LAYER_UI"
      },
      "guideHint": {
        "param1": ""
      },
      "finishParent": true,
      "isRewind": true,
      "finishExec": [
        {
          "KPGKDHAFHFE": "QUEST_EXEC_UNREGISTER_DYNAMIC_GROUP",
          "param": [
            "133220390",
            "1"
          ]
        },
        {
          "KPGKDHAFHFE": "QUEST_EXEC_UNREGISTER_DYNAMIC_GROUP",
          "param": [
            "133209022",
            "1"
          ]
        },
        {
          "KPGKDHAFHFE": "QUEST_EXEC_UNREGISTER_DYNAMIC_GROUP",
          "param": [
            "133209020",
            "1"
          ]
        },
        {
          "KPGKDHAFHFE": "QUEST_EXEC_SET_DAILY_TASK_VAR",
          "param": [
            "41230",
            "3",
            "50"
          ]
        },
        {
          "KPGKDHAFHFE": "QUEST_EXEC_NOTIFY_DAILY_TASK",
          "param": [
            "41230"
          ]
        }
      ],
      "versionBegin": "",
      "versionEnd": ""
    },
    {
      "subId": 2203013,
      "mainId": 22030,
      "order": 11,
      "showType": "QUEST_HIDDEN",
      "finishCond": [
        {
          "KPGKDHAFHFE": "QUEST_CONTENT_FINISH_ITEM_GIVING",
          "param": [
            2203001,
            0
          ]
        }
      ],
      "guide": {},
      "guideHint": {
        "param1": ""
      },
      "versionBegin": "",
      "versionEnd": ""
    }
  ]
}