{
  "id": 25006,
  "KPGKDHAFHFE": "WQ",
  "titleTextMapHash": 3750577425,
  "descTextMapHash": 2762650431,
  "showType": "QUEST_HIDDEN",
  "subQuests": [
    {
      "subId": 2500601,
      "mainId": 25006,
      "order": 1,
      "descTextMapHash": 4185173327,
      "showType": "QUEST_HIDDEN",
      "finishCond": [
        {
          "KPGKDHAFHFE": "QUEST_CONTENT_PLAYER_LEVEL_UP",
          "param": [
            0,
            0
          ],
          "count": 40
        }
      ],
      "guide": {},
      "guideHint": {
        "param1": ""
      },
      "finishParent": true,
      "versionBegin": "",
      "versionEnd": ""
    }
  ]
}