{
  "id": 25005,
  "KPGKDHAFHFE": "WQ",
  "titleTextMapHash": 1359816337,
  "descTextMapHash": 159379879,
  "rewardIdList": [
    125005
  ],
  "subQuests": [
    {
      "subId": 2500501,
      "mainId": 25005,
      "order": 1,
      "descTextMapHash": 3402812575,
      "finishCond": [
        {
          "KPGKDHAFHFE": "QUEST_CONTENT_ENTER_DUNGEON",
          "param": [
            2012,
            48
          ]
        }
      ],
      "guide": {
        "KPGKDHAFHFE": "QUEST_GUIDE_LOCATION",
        "param": [
          "Q25005Target"
        ],
        "guideScene": 3,
        "guideStyle": "QUEST_GUIDE_STYLE_TARGET",
        "guideLayer": "QUEST_GUIDE_LAYER_SCENE"
      },
      "guideHint": {
        "param1": ""
      },
      "isRewind": true,
      "versionBegin": "",
      "versionEnd": ""
    },
    {
      "subId": 2500502,
      "mainId": 25005,
      "order": 2,
      "descTextMapHash": 462062671,
      "finishCond": [
        {
          "KPGKDHAFHFE": "QUEST_CONTENT_FINISH_DUNGEON",
          "param": [
            2012,
            48
          ]
        }
      ],
      "failCond": [
        {
          "KPGKDHAFHFE": "QUEST_CONTENT_FAIL_DUNGEON",
          "param": [
            2012,
            0
          ]
        }
      ],
      "guide": {},
      "guideHint": {
        "param1": ""
      },
      "finishParent": true,
      "failExec": [
        {
          "KPGKDHAFHFE": "QUEST_EXEC_ROLLBACK_QUEST",
          "param": [
            "2500501"
          ]
        }
      ],
      "versionBegin": "",
      "versionEnd": ""
    }
  ]
}