{
  "id": 399,
  "series": 1003,
  "titleTextMapHash": 332268625,
  "descTextMapHash": 213008543,
  "rewardIdList": [
    100399
  ],
  "showType": "QUEST_HIDDEN",
  "chapterId": 1003,
  "subQuests": [
    {
      "subId": 39901,
      "mainId": 399,
      "order": 1,
      "descTextMapHash": 3451845839,
      "showType": "QUEST_HIDDEN",
      "finishCond": [
        {
          "KPGKDHAFHFE": "QUEST_CONTENT_COMPLETE_TALK",
          "param": [
            39811,
            0
          ]
        }
      ],
      "failCond": [
        {
          "KPGKDHAFHFE": "QUEST_CONTENT_ADD_QUEST_PROGRESS",
          "param": [
            398151,
            0
          ],
          "count": 1
        }
      ],
      "guide": {
        "KPGKDHAFHFE": "QUEST_GUIDE_NPC",
        "param": [
          "1483"
        ],
        "guideScene": 3,
        "guideStyle": "QUEST_GUIDE_STYLE_TARGET",
        "guideLayer": "QUEST_GUIDE_LAYER_SCENE"
      },
      "guideHint": {
        "param1": ""
      },
      "finishParent": true,
      "isRewind": true,
      "versionBegin": "",
      "versionEnd": ""
    }
  ]
}