{
  "id": 40152,
  "series": 40139,
  "KPGKDHAFHFE": "EQ",
  "descTextMapHash": 1168789566,
  "rewardIdList": [
    140152
  ],
  "showType": "QUEST_HIDDEN",
  "subQuests": [
    {
      "subId": 4015201,
      "mainId": 40152,
      "order": 1,
      "showType": "QUEST_HIDDEN",
      "finishCond": [
        {
          "KPGKDHAFHFE": "QUEST_CONTENT_FINISH_PLOT",
          "param": [
            4015201,
            0
          ]
        }
      ],
      "guide": {},
      "guideHint": {
        "param1": ""
      },
      "finishParent": true,
      "finishExec": [
        {
          "KPGKDHAFHFE": "QUEST_EXEC_SET_QUEST_GLOBAL_VAR",
          "param": [
            "4015201",
            "1"
          ]
        }
      ],
      "versionBegin": "",
      "versionEnd": ""
    }
  ]
}