{
  "id": 41142,
  "KPGKDHAFHFE": "EQ",
  "titleTextMapHash": 300866831,
  "descTextMapHash": 274119334,
  "rewardIdList": [
    3001013
  ],
  "subQuests": [
    {
      "subId": 4114201,
      "mainId": 41142,
      "order": 2,
      "descTextMapHash": 1759089860,
      "finishCond": [
        {
          "KPGKDHAFHFE": "QUEST_CONTENT_FINISH_PLOT",
          "param": [
            4114201,
            0
          ]
        }
      ],
      "guide": {
        "KPGKDHAFHFE": "QUEST_GUIDE_NPC",
        "autoGuide": "QUEST_GUIDE_AUTO_ENABLE",
        "param": [
          "2045"
        ],
        "guideScene": 3,
        "guideStyle": "QUEST_GUIDE_STYLE_TARGET",
        "guideLayer": "QUEST_GUIDE_LAYER_UI"
      },
      "guideHint": {
        "param1": ""
      },
      "isRewind": true,
      "versionBegin": "",
      "versionEnd": ""
    },
    {
      "subId": 4114202,
      "mainId": 41142,
      "order": 3,
      "isMpBlock": true,
      "descTextMapHash": 2312113812,
      "stepDescTextMapHash": 1220865381,
      "banType": "BAN_GROUP_TRANSPOR_GOTO_SCENE",
      "finishCond": [
        {
          "KPGKDHAFHFE": "QUEST_CONTENT_COMPLETE_TALK",
          "param": [
            4114202,
            0
          ]
        }
      ],
      "failCond": [
        {
          "KPGKDHAFHFE": "QUEST_CONTENT_NOT_FINISH_PLOT",
          "param": [
            4114202,
            0
          ]
        },
        {
          "KPGKDHAFHFE": "QUEST_CONTENT_ITEM_LESS_THAN",
          "param": [
            100648,
            1
          ]
        },
        {
          "KPGKDHAFHFE": "QUEST_CONTENT_ACTIVITY_TRIGGER_FAILED",
          "param": [
            5006,
            0
          ]
        }
      ],
      "guide": {
        "KPGKDHAFHFE": "QUEST_GUIDE_NPC",
        "autoGuide": "QUEST_GUIDE_AUTO_ENABLE",
        "param": [
          "30028"
        ],
        "guideScene": 3,
        "guideStyle": "QUEST_GUIDE_STYLE_FINISH",
        "guideLayer": "QUEST_GUIDE_LAYER_UI"
      },
      "guideHint": {
        "param1": ""
      },
      "finishExec": [
        {
          "KPGKDHAFHFE": "QUEST_EXEC_DEL_PACK_ITEM",
          "param": [
            "100648",
            "1"
          ]
        }
      ],
      "failExec": [
        {
          "KPGKDHAFHFE": "QUEST_EXEC_DEL_PACK_ITEM",
          "param": [
            "100648",
            "1"
          ]
        },
        {
          "KPGKDHAFHFE": "QUEST_EXEC_ROLLBACK_QUEST",
          "param": [
            "4114201"
          ]
        }
      ],
      "versionBegin": "",
      "versionEnd": ""
    },
    {
      "subId": 4114203,
      "mainId": 41142,
      "order": 4,
      "descTextMapHash": 126622444,
      "finishCond": [
        {
          "KPGKDHAFHFE": "QUEST_CONTENT_COMPLETE_TALK",
          "param": [
            4114206,
            0
          ]
        }
      ],
      "guide": {
        "KPGKDHAFHFE": "QUEST_GUIDE_NPC",
        "autoGuide": "QUEST_GUIDE_AUTO_ENABLE",
        "param": [
          "30028"
        ],
        "guideScene": 3,
        "guideStyle": "QUEST_GUIDE_STYLE_FINISH",
        "guideLayer": "QUEST_GUIDE_LAYER_UI"
      },
      "guideHint": {
        "param1": ""
      },
      "finishParent": true,
      "isRewind": true,
      "versionBegin": "",
      "versionEnd": ""
    },
    {
      "subId": 4114204,
      "mainId": 41142,
      "order": 1,
      "showType": "QUEST_HIDDEN",
      "finishCond": [
        {
          "KPGKDHAFHFE": "QUEST_CONTENT_FINISH_PLOT",
          "param": [
            4114204,
            0
          ]
        }
      ],
      "guide": {},
      "guideHint": {
        "param1": ""
      },
      "versionBegin": "",
      "versionEnd": ""
    }
  ]
}