{
  "id": 41220,
  "KPGKDHAFHFE": "EQ",
  "titleTextMapHash": 1548182127,
  "showType": "QUEST_HIDDEN",
  "subQuests": [
    {
      "subId": 4122001,
      "mainId": 41220,
      "order": 1,
      "finishCond": [
        {
          "KPGKDHAFHFE": "QUEST_CONTENT_FINISH_PLOT",
          "param": [
            41220,
            0
          ]
        }
      ],
      "guide": {},
      "showGuide": "QUEST_GUIDE_ITEM_DISABLE",
      "guideHint": {
        "param1": ""
      },
      "isRewind": true,
      "versionBegin": "",
      "versionEnd": ""
    }
  ]
}