{
  "id": 428,
  "KPGKDHAFHFE": "WQ",
  "titleTextMapHash": 1471032225,
  "descTextMapHash": 448127879,
  "subQuests": [
    {
      "subId": 42801,
      "mainId": 428,
      "order": 1,
      "descTextMapHash": 72431063,
      "showType": "QUEST_HIDDEN",
      "finishCond": [
        {
          "KPGKDHAFHFE": "QUEST_CONTENT_ENTER_ROOM",
          "param": [
            1016,
            0
          ]
        }
      ],
      "guide": {},
      "guideHint": {
        "param1": ""
      },
      "versionBegin": "",
      "versionEnd": ""
    },
    {
      "subId": 42802,
      "mainId": 428,
      "order": 2,
      "descTextMapHash": 1303840271,
      "finishCond": [
        {
          "KPGKDHAFHFE": "QUEST_CONTENT_FINISH_PLOT",
          "param": [
            42802,
            0
          ]
        }
      ],
      "guide": {},
      "guideHint": {
        "param1": ""
      },
      "isRewind": true,
      "versionBegin": "",
      "versionEnd": ""
    },
    {
      "subId": 42803,
      "mainId": 428,
      "order": 3,
      "descTextMapHash": 3904820751,
      "finishCond": [
        {
          "KPGKDHAFHFE": "QUEST_CONTENT_FINISH_PLOT",
          "param": [
            42803,
            0
          ]
        }
      ],
      "guide": {},
      "guideHint": {
        "param1": ""
      },
      "finishParent": true,
      "isRewind": true,
      "versionBegin": "",
      "versionEnd": ""
    }
  ]
}