{
  "id": 70531,
  "KPGKDHAFHFE": "WQ",
  "mainQuestTag": "MAINQUEST_TAG_GUIDE",
  "titleTextMapHash": 984453343,
  "descTextMapHash": 4034919102,
  "rewardIdList": [
    170531
  ],
  "subQuests": [
    {
      "subId": 7053101,
      "mainId": 70531,
      "order": 1,
      "descTextMapHash": 456291404,
      "finishCond": [
        {
          "KPGKDHAFHFE": "QUEST_CONTENT_COMPLETE_TALK",
          "param": [
            7053101,
            0
          ]
        }
      ],
      "guide": {
        "KPGKDHAFHFE": "QUEST_GUIDE_NPC",
        "param": [
          "30380"
        ],
        "guideScene": 3
      },
      "guideHint": {
        "param1": ""
      },
      "finishParent": true,
      "isRewind": true,
      "versionBegin": "",
      "versionEnd": ""
    }
  ]
}