{
  "id": 70907,
  "KPGKDHAFHFE": "WQ",
  "titleTextMapHash": 2601603191,
  "descTextMapHash": 2386454806,
  "rewardIdList": [
    551003
  ],
  "showType": "QUEST_HIDDEN",
  "subQuests": [
    {
      "subId": 7090701,
      "mainId": 70907,
      "order": 1,
      "showType": "QUEST_HIDDEN",
      "finishCond": [
        {
          "KPGKDHAFHFE": "QUEST_CONTENT_COMPLETE_TALK",
          "param": [
            7090701,
            0
          ]
        }
      ],
      "guide": {},
      "guideHint": {
        "param1": ""
      },
      "finishParent": true,
      "versionBegin": "",
      "versionEnd": ""
    }
  ]
}