{
  "id": 70915,
  "KPGKDHAFHFE": "WQ",
  "titleTextMapHash": 2468620103,
  "descTextMapHash": 3489424606,
  "rewardIdList": [
    551011
  ],
  "showType": "QUEST_HIDDEN",
  "subQuests": [
    {
      "subId": 7091501,
      "mainId": 70915,
      "order": 1,
      "showType": "QUEST_HIDDEN",
      "finishCond": [
        {
          "KPGKDHAFHFE": "QUEST_CONTENT_COMPLETE_TALK",
          "param": [
            7091501,
            0
          ]
        }
      ],
      "guide": {},
      "guideHint": {
        "param1": ""
      },
      "finishParent": true,
      "versionBegin": "",
      "versionEnd": ""
    }
  ]
}