{
  "id": 70921,
  "KPGKDHAFHFE": "WQ",
  "titleTextMapHash": 2844150527,
  "descTextMapHash": 3415893550,
  "rewardIdList": [
    551019
  ],
  "showType": "QUEST_HIDDEN",
  "subQuests": [
    {
      "subId": 7092101,
      "mainId": 70921,
      "order": 1,
      "showType": "QUEST_HIDDEN",
      "finishCond": [
        {
          "KPGKDHAFHFE": "QUEST_CONTENT_COMPLETE_TALK",
          "param": [
            7092101,
            0
          ]
        }
      ],
      "guide": {},
      "guideHint": {
        "param1": ""
      },
      "finishParent": true,
      "versionBegin": "",
      "versionEnd": ""
    }
  ]
}