{
  "id": 70935,
  "KPGKDHAFHFE": "WQ",
  "titleTextMapHash": 2386697847,
  "descTextMapHash": 839680998,
  "rewardIdList": [
    551033
  ],
  "showType": "QUEST_HIDDEN",
  "subQuests": [
    {
      "subId": 7093501,
      "mainId": 70935,
      "order": 1,
      "showType": "QUEST_HIDDEN",
      "finishCond": [
        {
          "KPGKDHAFHFE": "QUEST_CONTENT_COMPLETE_TALK",
          "param": [
            7093501,
            0
          ]
        }
      ],
      "guide": {},
      "guideHint": {
        "param1": ""
      },
      "finishParent": true,
      "versionBegin": "",
      "versionEnd": ""
    }
  ]
}