{
  "id": 71072,
  "KPGKDHAFHFE": "WQ",
  "titleTextMapHash": 2459293591,
  "descTextMapHash": 296329726,
  "rewardIdList": [
    171072
  ],
  "showType": "QUEST_HIDDEN",
  "subQuests": [
    {
      "subId": 7107201,
      "mainId": 71072,
      "order": 1,
      "showType": "QUEST_HIDDEN",
      "finishCond": [
        {
          "KPGKDHAFHFE": "QUEST_CONTENT_QUEST_STATE_EQUAL",
          "param": [
            7103704,
            3
          ]
        }
      ],
      "guide": {},
      "guideHint": {
        "param1": ""
      },
      "finishParent": true,
      "isRewind": true,
      "versionBegin": "",
      "versionEnd": ""
    }
  ]
}