{
  "id": 71087,
  "KPGKDHAFHFE": "WQ",
  "titleTextMapHash": 3954376903,
  "descTextMapHash": 2029267798,
  "rewardIdList": [
    171087
  ],
  "showType": "QUEST_HIDDEN",
  "subQuests": [
    {
      "subId": 7108701,
      "mainId": 71087,
      "order": 1,
      "descTextMapHash": 1745044556,
      "stepDescTextMapHash": 4067657845,
      "showType": "QUEST_HIDDEN",
      "finishCond": [
        {
          "KPGKDHAFHFE": "QUEST_CONTENT_COMPLETE_TALK",
          "param": [
            7103806,
            0
          ]
        }
      ],
      "guide": {},
      "guideHint": {
        "param1": ""
      },
      "finishParent": true,
      "isRewind": true,
      "versionBegin": "",
      "versionEnd": ""
    }
  ]
}