{
  "id": 71825,
  "KPGKDHAFHFE": "WQ",
  "titleTextMapHash": 1950639911,
  "rewardIdList": [
    171825
  ],
  "showType": "QUEST_HIDDEN",
  "subQuests": [
    {
      "subId": 7182501,
      "mainId": 71825,
      "order": 1,
      "showType": "QUEST_HIDDEN",
      "finishCond": [
        {
          "KPGKDHAFHFE": "QUEST_CONTENT_COMPLETE_TALK",
          "param": [
            7181509,
            0
          ]
        }
      ],
      "guide": {},
      "showGuide": "QUEST_GUIDE_ITEM_DISABLE",
      "guideHint": {
        "param1": ""
      },
      "finishParent": true,
      "isRewind": true,
      "versionBegin": "",
      "versionEnd": ""
    }
  ]
}