{
  "id": 71917,
  "KPGKDHAFHFE": "WQ",
  "titleTextMapHash": 2867116303,
  "descTextMapHash": 2867390502,
  "rewardIdList": [
    552020
  ],
  "showType": "QUEST_HIDDEN",
  "subQuests": [
    {
      "subId": 7191701,
      "mainId": 71917,
      "order": 1,
      "showType": "QUEST_HIDDEN",
      "finishCond": [
        {
          "KPGKDHAFHFE": "QUEST_CONTENT_COMPLETE_TALK",
          "param": [
            7191701,
            0
          ]
        }
      ],
      "guide": {},
      "guideHint": {
        "param1": ""
      },
      "finishParent": true,
      "versionBegin": "",
      "versionEnd": ""
    }
  ]
}