{
  "id": 71929,
  "KPGKDHAFHFE": "WQ",
  "titleTextMapHash": 3494803935,
  "descTextMapHash": 308000518,
  "rewardIdList": [
    552033
  ],
  "showType": "QUEST_HIDDEN",
  "subQuests": [
    {
      "subId": 7192901,
      "mainId": 71929,
      "order": 1,
      "showType": "QUEST_HIDDEN",
      "finishCond": [
        {
          "KPGKDHAFHFE": "QUEST_CONTENT_COMPLETE_TALK",
          "param": [
            7192901,
            0
          ]
        }
      ],
      "guide": {},
      "guideHint": {
        "param1": ""
      },
      "finishParent": true,
      "versionBegin": "",
      "versionEnd": ""
    }
  ]
}