{
  "id": 71925,
  "KPGKDHAFHFE": "WQ",
  "titleTextMapHash": 454873175,
  "descTextMapHash": 1286579486,
  "rewardIdList": [
    552029
  ],
  "showType": "QUEST_HIDDEN",
  "subQuests": [
    {
      "subId": 7192501,
      "mainId": 71925,
      "order": 1,
      "showType": "QUEST_HIDDEN",
      "finishCond": [
        {
          "KPGKDHAFHFE": "QUEST_CONTENT_COMPLETE_TALK",
          "param": [
            7192501,
            0
          ]
        }
      ],
      "guide": {},
      "guideHint": {
        "param1": ""
      },
      "finishParent": true,
      "versionBegin": "",
      "versionEnd": ""
    }
  ]
}