{
  "id": 71952,
  "KPGKDHAFHFE": "WQ",
  "titleTextMapHash": 2574920167,
  "descTextMapHash": 1609141406,
  "rewardIdList": [
    552026
  ],
  "showType": "QUEST_HIDDEN",
  "subQuests": [
    {
      "subId": 7195201,
      "mainId": 71952,
      "order": 1,
      "showType": "QUEST_HIDDEN",
      "finishCond": [
        {
          "KPGKDHAFHFE": "QUEST_CONTENT_COMPLETE_TALK",
          "param": [
            7195201,
            0
          ]
        }
      ],
      "guide": {},
      "guideHint": {
        "param1": ""
      },
      "finishParent": true,
      "versionBegin": "",
      "versionEnd": ""
    }
  ]
}