{
  "id": 72130,
  "KPGKDHAFHFE": "WQ",
  "titleTextMapHash": 3334183007,
  "descTextMapHash": 744646318,
  "rewardIdList": [
    172130
  ],
  "chapterId": 10037,
  "subQuests": [
    {
      "subId": 7213004,
      "mainId": 72130,
      "order": 4,
      "descTextMapHash": 381259804,
      "stepDescTextMapHash": 2508459053,
      "showType": "QUEST_HIDDEN",
      "finishCond": [
        {
          "KPGKDHAFHFE": "QUEST_CONTENT_COMPLETE_TALK",
          "param": [
            7213301,
            0
          ]
        }
      ],
      "guide": {},
      "guideHint": {
        "param1": ""
      },
      "versionBegin": "",
      "versionEnd": ""
    },
    {
      "subId": 7213005,
      "mainId": 72130,
      "order": 5,
      "descTextMapHash": 3942672660,
      "stepDescTextMapHash": 941894765,
      "finishCond": [
        {
          "KPGKDHAFHFE": "QUEST_CONTENT_COMPLETE_TALK",
          "param": [
            7213002,
            0
          ]
        }
      ],
      "guide": {
        "KPGKDHAFHFE": "QUEST_GUIDE_NPC",
        "param": [
          "20235",
          "SELECT_NPC_NONE"
        ]
      },
      "guideHint": {
        "param1": ""
      },
      "isRewind": true,
      "versionBegin": "",
      "versionEnd": ""
    },
    {
      "subId": 7213006,
      "mainId": 72130,
      "order": 6,
      "descTextMapHash": 1352989180,
      "stepDescTextMapHash": 716710277,
      "guideTipsTextMapHash": 108975206,
      "finishCond": [
        {
          "KPGKDHAFHFE": "QUEST_CONTENT_FINISH_ITEM_GIVING",
          "param": [
            7213006,
            0
          ]
        }
      ],
      "guide": {
        "KPGKDHAFHFE": "QUEST_GUIDE_NPC",
        "autoGuide": "QUEST_GUIDE_AUTO_ENABLE",
        "param": [
          "20235"
        ],
        "guideScene": 3,
        "guideStyle": "QUEST_GUIDE_STYLE_POINT",
        "guideLayer": "QUEST_GUIDE_LAYER_UI"
      },
      "guideHint": {
        "param1": ""
      },
      "finishParent": true,
      "isRewind": true,
      "finishExec": [
        {
          "KPGKDHAFHFE": "QUEST_EXEC_NOTIFY_GROUP_LUA",
          "param": [
            "3",
            "133212034"
          ]
        },
        {
          "KPGKDHAFHFE": "QUEST_EXEC_SET_WEATHER_GADGET",
          "param": [
            "3009",
            "0"
          ]
        },
        {
          "KPGKDHAFHFE": "QUEST_EXEC_SET_WEATHER_GADGET",
          "param": [
            "3136",
            "0"
          ]
        },
        {
          "KPGKDHAFHFE": "QUEST_EXEC_SET_WEATHER_GADGET",
          "param": [
            "3141",
            "0"
          ]
        },
        {
          "KPGKDHAFHFE": "QUEST_EXEC_SET_WEATHER_GADGET",
          "param": [
            "3181",
            "0"
          ]
        }
      ],
      "versionBegin": "",
      "versionEnd": ""
    },
    {
      "subId": 7213007,
      "mainId": 72130,
      "order": 7,
      "descTextMapHash": 1687088804,
      "showType": "QUEST_HIDDEN",
      "guide": {},
      "guideHint": {
        "param1": ""
      },
      "versionBegin": "",
      "versionEnd": ""
    },
    {
      "subId": 7213008,
      "mainId": 72130,
      "order": 8,
      "descTextMapHash": 801568708,
      "showType": "QUEST_HIDDEN",
      "guide": {},
      "guideHint": {
        "param1": ""
      },
      "versionBegin": "",
      "versionEnd": ""
    },
    {
      "subId": 7213009,
      "mainId": 72130,
      "order": 9,
      "descTextMapHash": 1138831172,
      "showType": "QUEST_HIDDEN",
      "finishCond": [
        {
          "KPGKDHAFHFE": "QUEST_CONTENT_FINISH_PLOT",
          "param": [
            7213009,
            0
          ]
        }
      ],
      "guide": {},
      "guideHint": {
        "param1": ""
      },
      "finishExec": [
        {
          "KPGKDHAFHFE": "QUEST_EXEC_NOTIFY_GROUP_LUA",
          "param": [
            "3",
            "133212034"
          ]
        }
      ],
      "versionBegin": "",
      "versionEnd": ""
    }
  ]
}