{
  "id": 72133,
  "KPGKDHAFHFE": "WQ",
  "titleTextMapHash": 4155151279,
  "descTextMapHash": 3266313670,
  "rewardIdList": [
    172133
  ],
  "chapterId": 10037,
  "subQuests": [
    {
      "subId": 7213301,
      "mainId": 72133,
      "order": 1,
      "descTextMapHash": 1810252292,
      "stepDescTextMapHash": 3191733501,
      "showType": "QUEST_HIDDEN",
      "finishCond": [
        {
          "KPGKDHAFHFE": "QUEST_CONTENT_COMPLETE_TALK",
          "param": [
            7213301,
            0
          ]
        }
      ],
      "guide": {},
      "showGuide": "QUEST_GUIDE_ITEM_DISABLE",
      "guideHint": {
        "param1": ""
      },
      "finishParent": true,
      "failParentShow": "QUEST_HIDDEN",
      "isRewind": true,
      "versionBegin": "",
      "versionEnd": ""
    }
  ]
}