{
  "id": 72180,
  "KPGKDHAFHFE": "WQ",
  "titleTextMapHash": 1978060311,
  "showType": "QUEST_HIDDEN",
  "subQuests": [
    {
      "subId": 7218001,
      "mainId": 72180,
      "order": 1,
      "descTextMapHash": 2965514244,
      "showType": "QUEST_HIDDEN",
      "finishCond": [
        {
          "KPGKDHAFHFE": "QUEST_CONTENT_LUA_NOTIFY",
          "param": [
            0,
            0
          ],
          "count": 1
        }
      ],
      "guide": {},
      "guideHint": {
        "param1": ""
      },
      "finishParent": true,
      "isRewind": true,
      "finishExec": [
        {
          "KPGKDHAFHFE": "QUEST_EXEC_LOCK_POINT",
          "param": [
            "3",
            "354"
          ]
        }
      ],
      "versionBegin": "",
      "versionEnd": ""
    }
  ]
}