{
  "id": 72194,
  "KPGKDHAFHFE": "WQ",
  "titleTextMapHash": 2169637535,
  "descTextMapHash": 354424422,
  "showType": "QUEST_HIDDEN",
  "subQuests": [
    {
      "subId": 7219401,
      "mainId": 72194,
      "order": 1,
      "descTextMapHash": 4033664668,
      "showType": "QUEST_HIDDEN",
      "finishCond": [
        {
          "KPGKDHAFHFE": "QUEST_CONTENT_GAME_TIME_TICK",
          "param": [
            0,
            0
          ]
        }
      ],
      "guide": {},
      "guideHint": {
        "param1": ""
      },
      "finishParent": true,
      "isRewind": true,
      "finishExec": [
        {
          "KPGKDHAFHFE": "QUEST_EXEC_UNLOCK_POINT",
          "param": [
            "3",
            "241"
          ]
        },
        {
          "KPGKDHAFHFE": "QUEST_EXEC_NOTIFY_GROUP_LUA",
          "param": [
            "3",
            "133220200"
          ]
        }
      ],
      "versionBegin": "",
      "versionEnd": ""
    }
  ]
}