{
  "id": 72223,
  "KPGKDHAFHFE": "WQ",
  "titleTextMapHash": 1634798255,
  "descTextMapHash": 1098211670,
  "showType": "QUEST_HIDDEN",
  "subQuests": [
    {
      "subId": 7222301,
      "mainId": 72223,
      "order": 1,
      "showType": "QUEST_HIDDEN",
      "guide": {},
      "showGuide": "QUEST_GUIDE_ITEM_DISABLE",
      "guideHint": {
        "param1": ""
      },
      "finishParent": true,
      "failParentShow": "QUEST_HIDDEN",
      "versionBegin": "",
      "versionEnd": ""
    }
  ]
}