{
  "id": 72259,
  "KPGKDHAFHFE": "WQ",
  "titleTextMapHash": 245639967,
  "descTextMapHash": 143999798,
  "showType": "QUEST_HIDDEN",
  "subQuests": [
    {
      "subId": 7225901,
      "mainId": 72259,
      "order": 1,
      "showType": "QUEST_HIDDEN",
      "finishCond": [
        {
          "KPGKDHAFHFE": "QUEST_CONTENT_FINISH_ITEM_GIVING",
          "param": [
            7224408,
            0
          ]
        }
      ],
      "guide": {},
      "guideHint": {
        "param1": ""
      },
      "finishParent": true,
      "isRewind": true,
      "finishExec": [
        {
          "KPGKDHAFHFE": "QUEST_EXEC_NOTIFY_GROUP_LUA",
          "param": [
            "5",
            "155006047"
          ]
        }
      ],
      "versionBegin": "",
      "versionEnd": ""
    }
  ]
}