{
  "id": 72735,
  "series": 72730,
  "KPGKDHAFHFE": "WQ",
  "titleTextMapHash": 688750431,
  "descTextMapHash": 3039150,
  "showType": "QUEST_HIDDEN",
  "subQuests": [
    {
      "subId": 7273501,
      "mainId": 72735,
      "order": 1,
      "descTextMapHash": 2222531700,
      "showType": "QUEST_HIDDEN",
      "finishCond": [
        {
          "KPGKDHAFHFE": "QUEST_CONTENT_COMPLETE_TALK",
          "param": [
            7273501,
            0
          ]
        }
      ],
      "guide": {
        "KPGKDHAFHFE": "QUEST_GUIDE_NPC",
        "param": [
          "13090"
        ],
        "guideScene": 3,
        "guideStyle": "QUEST_GUIDE_STYLE_TARGET",
        "guideLayer": "QUEST_GUIDE_LAYER_SCENE"
      },
      "guideHint": {
        "param1": ""
      },
      "finishParent": true,
      "isRewind": true,
      "finishExec": [
        {
          "KPGKDHAFHFE": "QUEST_EXEC_REGISTER_DYNAMIC_GROUP",
          "param": [
            "3",
            "133209115"
          ]
        }
      ],
      "versionBegin": "",
      "versionEnd": ""
    }
  ]
}