{
  "id": 72907,
  "KPGKDHAFHFE": "WQ",
  "titleTextMapHash": 403411695,
  "descTextMapHash": 2064094446,
  "rewardIdList": [
    553006
  ],
  "showType": "QUEST_HIDDEN",
  "subQuests": [
    {
      "subId": 7290701,
      "mainId": 72907,
      "order": 1,
      "showType": "QUEST_HIDDEN",
      "finishCond": [
        {
          "KPGKDHAFHFE": "QUEST_CONTENT_COMPLETE_TALK",
          "param": [
            7290701,
            0
          ]
        }
      ],
      "guide": {},
      "guideHint": {
        "param1": ""
      },
      "finishParent": true,
      "versionBegin": "",
      "versionEnd": ""
    }
  ]
}