{
  "id": 72918,
  "KPGKDHAFHFE": "WQ",
  "titleTextMapHash": 1468153079,
  "descTextMapHash": 337268470,
  "rewardIdList": [
    553020
  ],
  "showType": "QUEST_HIDDEN",
  "subQuests": [
    {
      "subId": 7291801,
      "mainId": 72918,
      "order": 1,
      "showType": "QUEST_HIDDEN",
      "finishCond": [
        {
          "KPGKDHAFHFE": "QUEST_CONTENT_COMPLETE_TALK",
          "param": [
            7291801,
            0
          ]
        }
      ],
      "guide": {},
      "guideHint": {
        "param1": ""
      },
      "finishParent": true,
      "versionBegin": "",
      "versionEnd": ""
    }
  ]
}