{
  "id": 72942,
  "KPGKDHAFHFE": "WQ",
  "titleTextMapHash": 1941336943,
  "descTextMapHash": 2776365654,
  "rewardIdList": [
    553033
  ],
  "showType": "QUEST_HIDDEN",
  "subQuests": [
    {
      "subId": 7294201,
      "mainId": 72942,
      "order": 1,
      "showType": "QUEST_HIDDEN",
      "finishCond": [
        {
          "KPGKDHAFHFE": "QUEST_CONTENT_COMPLETE_TALK",
          "param": [
            7294201,
            0
          ]
        }
      ],
      "guide": {},
      "guideHint": {
        "param1": ""
      },
      "finishParent": true,
      "versionBegin": "",
      "versionEnd": ""
    }
  ]
}