{
  "id": 73139,
  "KPGKDHAFHFE": "WQ",
  "titleTextMapHash": 1680973479,
  "rewardIdList": [
    210010
  ],
  "showType": "QUEST_HIDDEN",
  "subQuests": [
    {
      "subId": 7313901,
      "mainId": 73139,
      "order": 1,
      "showType": "QUEST_HIDDEN",
      "finishCond": [
        {
          "KPGKDHAFHFE": "QUEST_CONTENT_GAME_TIME_TICK",
          "param": [
            0,
            0
          ]
        }
      ],
      "guide": {},
      "guideHint": {
        "param1": ""
      },
      "failParentShow": "QUEST_HIDDEN",
      "versionBegin": "",
      "versionEnd": ""
    },
    {
      "subId": 7313902,
      "mainId": 73139,
      "order": 2,
      "showType": "QUEST_HIDDEN",
      "finishCond": [
        {
          "KPGKDHAFHFE": "QUEST_CONTENT_GADGET_STATE_CHANGE",
          "param": [
            133302525,
            525001
          ]
        }
      ],
      "guide": {},
      "guideHint": {
        "param1": ""
      },
      "failParentShow": "QUEST_HIDDEN",
      "isRewind": true,
      "versionBegin": "",
      "versionEnd": ""
    },
    {
      "subId": 7313903,
      "mainId": 73139,
      "order": 3,
      "showType": "QUEST_HIDDEN",
      "finishCond": [
        {
          "KPGKDHAFHFE": "QUEST_CONTENT_COMPLETE_TALK",
          "param": [
            7313901,
            0
          ]
        }
      ],
      "guide": {},
      "guideHint": {
        "param1": ""
      },
      "finishParent": true,
      "failParentShow": "QUEST_HIDDEN",
      "isRewind": true,
      "finishExec": [
        {
          "KPGKDHAFHFE": "QUEST_EXEC_INC_QUEST_GLOBAL_VAR",
          "param": [
            "73100",
            "1"
          ]
        },
        {
          "KPGKDHAFHFE": "QUEST_EXEC_REFRESH_GROUP_SUITE",
          "param": [
            "3",
            "133302525,3"
          ]
        }
      ],
      "versionBegin": "",
      "versionEnd": ""
    }
  ]
}