{
  "id": 73192,
  "KPGKDHAFHFE": "WQ",
  "titleTextMapHash": 430639479,
  "rewardIdList": [
    173192
  ],
  "showType": "QUEST_HIDDEN",
  "subQuests": [
    {
      "subId": 7319201,
      "mainId": 73192,
      "order": 1,
      "showType": "QUEST_HIDDEN",
      "finishCond": [
        {
          "KPGKDHAFHFE": "QUEST_CONTENT_QUEST_STATE_EQUAL",
          "param": [
            7302515,
            3
          ]
        }
      ],
      "guide": {},
      "guideHint": {
        "param1": ""
      },
      "finishParent": true,
      "isRewind": true,
      "versionBegin": "",
      "versionEnd": ""
    }
  ]
}