{
  "id": 73202,
  "KPGKDHAFHFE": "WQ",
  "titleTextMapHash": 2329814959,
  "showType": "QUEST_HIDDEN",
  "subQuests": [
    {
      "subId": 7320201,
      "mainId": 73202,
      "order": 1,
      "showType": "QUEST_HIDDEN",
      "finishCond": [
        {
          "KPGKDHAFHFE": "QUEST_CONTENT_FINISH_PLOT",
          "param": [
            7320201,
            0
          ]
        }
      ],
      "guide": {},
      "guideHint": {
        "param1": ""
      },
      "versionBegin": "",
      "versionEnd": ""
    }
  ]
}