{
  "id": 73214,
  "KPGKDHAFHFE": "WQ",
  "titleTextMapHash": 1988310935,
  "rewardIdList": [
    173214
  ],
  "showType": "QUEST_HIDDEN",
  "specialShowRewardId": [
    173214
  ],
  "subQuests": [
    {
      "subId": 7321401,
      "mainId": 73214,
      "order": 1,
      "showType": "QUEST_HIDDEN",
      "finishCond": [
        {
          "KPGKDHAFHFE": "QUEST_CONTENT_QUEST_STATE_EQUAL",
          "param": [
            7306106,
            3
          ]
        },
        {
          "KPGKDHAFHFE": "QUEST_CONTENT_QUEST_STATE_EQUAL",
          "param": [
            7306305,
            3
          ]
        }
      ],
      "guide": {},
      "showGuide": "QUEST_GUIDE_ITEM_DISABLE",
      "guideHint": {
        "param1": ""
      },
      "finishParent": true,
      "isRewind": true,
      "versionBegin": "",
      "versionEnd": ""
    }
  ]
}