{
  "id": 73221,
  "KPGKDHAFHFE": "WQ",
  "titleTextMapHash": 3906486263,
  "showType": "QUEST_HIDDEN",
  "subQuests": [
    {
      "subId": 7322101,
      "mainId": 73221,
      "order": 1,
      "showType": "QUEST_HIDDEN",
      "finishCond": [
        {
          "KPGKDHAFHFE": "QUEST_CONTENT_LUA_NOTIFY",
          "param": [
            0,
            0
          ],
          "count": 1
        }
      ],
      "guide": {},
      "guideHint": {
        "param1": ""
      },
      "finishParent": true,
      "finishExec": [
        {
          "KPGKDHAFHFE": "QUEST_EXEC_INC_QUEST_GLOBAL_VAR",
          "param": [
            "73083",
            "1"
          ]
        }
      ],
      "versionBegin": "",
      "versionEnd": ""
    }
  ]
}