{
  "id": 73248,
  "KPGKDHAFHFE": "WQ",
  "titleTextMapHash": 3801428759,
  "descTextMapHash": 3475916102,
  "subQuests": [
    {
      "subId": 7324801,
      "mainId": 73248,
      "order": 1,
      "descTextMapHash": 3355602908,
      "guideTipsTextMapHash": 3934415742,
      "finishCond": [
        {
          "KPGKDHAFHFE": "QUEST_CONTENT_QUEST_STATE_EQUAL",
          "param": [
            7308103,
            3
          ]
        }
      ],
      "guide": {
        "KPGKDHAFHFE": "QUEST_GUIDE_LOCATION",
        "param": [
          "Q7308101_N20656",
          "25",
          "11",
          "38"
        ],
        "guideScene": 3,
        "guideStyle": "QUEST_GUIDE_STYLE_POINT"
      },
      "guideHint": {
        "param1": ""
      },
      "finishParent": true,
      "isRewind": true,
      "versionBegin": "",
      "versionEnd": ""
    }
  ]
}