{
  "id": 73274,
  "series": 73223,
  "KPGKDHAFHFE": "WQ",
  "titleTextMapHash": 3436785303,
  "rewardIdList": [
    173274
  ],
  "showType": "QUEST_HIDDEN",
  "subQuests": [
    {
      "subId": 7327401,
      "mainId": 73274,
      "order": 1,
      "descTextMapHash": 1878034940,
      "showType": "QUEST_HIDDEN",
      "finishCond": [
        {
          "KPGKDHAFHFE": "QUEST_CONTENT_COMPLETE_TALK",
          "param": [
            7327503,
            0
          ]
        }
      ],
      "guide": {},
      "guideHint": {
        "param1": ""
      },
      "finishParent": true,
      "versionBegin": "",
      "versionEnd": ""
    },
    {
      "subId": 7327402,
      "mainId": 73274,
      "order": 2,
      "showType": "QUEST_HIDDEN",
      "finishCond": [
        {
          "KPGKDHAFHFE": "QUEST_CONTENT_COMPLETE_TALK",
          "param": [
            7327503,
            0
          ]
        }
      ],
      "guide": {},
      "guideHint": {
        "param1": ""
      },
      "versionBegin": "",
      "versionEnd": ""
    }
  ]
}