{
  "id": 73276,
  "KPGKDHAFHFE": "WQ",
  "titleTextMapHash": 2708988615,
  "descTextMapHash": 1626996726,
  "showType": "QUEST_HIDDEN",
  "subQuests": [
    {
      "subId": 7327601,
      "mainId": 73276,
      "order": 1,
      "showType": "QUEST_HIDDEN",
      "finishCond": [
        {
          "KPGKDHAFHFE": "QUEST_CONTENT_COMPLETE_TALK",
          "param": [
            7323621,
            0
          ]
        }
      ],
      "guide": {},
      "guideHint": {
        "param1": ""
      },
      "finishParent": true,
      "isRewind": true,
      "versionBegin": "",
      "versionEnd": ""
    }
  ]
}