{
  "id": 73308,
  "KPGKDHAFHFE": "WQ",
  "descTextMapHash": 2362346142,
  "rewardIdList": [
    173308
  ],
  "showType": "QUEST_HIDDEN",
  "subQuests": [
    {
      "subId": 7330801,
      "mainId": 73308,
      "order": 1,
      "showType": "QUEST_HIDDEN",
      "finishCond": [
        {
          "KPGKDHAFHFE": "QUEST_CONTENT_GAME_TIME_TICK",
          "param": [
            0,
            0
          ]
        }
      ],
      "guide": {},
      "showGuide": "QUEST_GUIDE_ITEM_DISABLE",
      "guideHint": {
        "param1": ""
      },
      "finishParent": true,
      "isRewind": true,
      "versionBegin": "",
      "versionEnd": ""
    }
  ]
}