{
  "id": 73909,
  "KPGKDHAFHFE": "WQ",
  "titleTextMapHash": 2811217375,
  "descTextMapHash": 3825544902,
  "rewardIdList": [
    554033
  ],
  "showType": "QUEST_HIDDEN",
  "subQuests": [
    {
      "subId": 7390901,
      "mainId": 73909,
      "order": 1,
      "showType": "QUEST_HIDDEN",
      "finishCond": [
        {
          "KPGKDHAFHFE": "QUEST_CONTENT_COMPLETE_TALK",
          "param": [
            7390901,
            0
          ]
        }
      ],
      "guide": {},
      "guideHint": {
        "param1": ""
      },
      "finishParent": true,
      "versionBegin": "",
      "versionEnd": ""
    }
  ]
}