{
  "id": 73917,
  "KPGKDHAFHFE": "WQ",
  "titleTextMapHash": 3300905471,
  "descTextMapHash": 1606104974,
  "rewardIdList": [
    554041
  ],
  "showType": "QUEST_HIDDEN",
  "subQuests": [
    {
      "subId": 7391701,
      "mainId": 73917,
      "order": 1,
      "showType": "QUEST_HIDDEN",
      "finishCond": [
        {
          "KPGKDHAFHFE": "QUEST_CONTENT_COMPLETE_TALK",
          "param": [
            7391701,
            0
          ]
        }
      ],
      "guide": {},
      "guideHint": {
        "param1": ""
      },
      "finishParent": true,
      "versionBegin": "",
      "versionEnd": ""
    }
  ]
}