{
  "id": 73924,
  "KPGKDHAFHFE": "WQ",
  "titleTextMapHash": 2376980327,
  "descTextMapHash": 2040551430,
  "rewardIdList": [
    554006
  ],
  "showType": "QUEST_HIDDEN",
  "subQuests": [
    {
      "subId": 7392401,
      "mainId": 73924,
      "order": 1,
      "showType": "QUEST_HIDDEN",
      "finishCond": [
        {
          "KPGKDHAFHFE": "QUEST_CONTENT_COMPLETE_TALK",
          "param": [
            7392401,
            0
          ]
        }
      ],
      "guide": {},
      "guideHint": {
        "param1": ""
      },
      "finishParent": true,
      "versionBegin": "",
      "versionEnd": ""
    }
  ]
}