{
  "id": 73946,
  "KPGKDHAFHFE": "WQ",
  "titleTextMapHash": 2437840119,
  "descTextMapHash": 2492511046,
  "rewardIdList": [
    554028
  ],
  "showType": "QUEST_HIDDEN",
  "subQuests": [
    {
      "subId": 7394601,
      "mainId": 73946,
      "order": 1,
      "showType": "QUEST_HIDDEN",
      "finishCond": [
        {
          "KPGKDHAFHFE": "QUEST_CONTENT_COMPLETE_TALK",
          "param": [
            7394601,
            0
          ]
        }
      ],
      "guide": {},
      "guideHint": {
        "param1": ""
      },
      "finishParent": true,
      "versionBegin": "",
      "versionEnd": ""
    }
  ]
}