{
  "id": 73949,
  "KPGKDHAFHFE": "WQ",
  "titleTextMapHash": 332995895,
  "descTextMapHash": 2987054110,
  "rewardIdList": [
    554050
  ],
  "showType": "QUEST_HIDDEN",
  "subQuests": [
    {
      "subId": 7394901,
      "mainId": 73949,
      "order": 1,
      "showType": "QUEST_HIDDEN",
      "finishCond": [
        {
          "KPGKDHAFHFE": "QUEST_CONTENT_COMPLETE_TALK",
          "param": [
            7394901,
            0
          ]
        }
      ],
      "guide": {},
      "guideHint": {
        "param1": ""
      },
      "finishParent": true,
      "versionBegin": "",
      "versionEnd": ""
    }
  ]
}