{
  "id": 73950,
  "KPGKDHAFHFE": "WQ",
  "titleTextMapHash": 3783774935,
  "descTextMapHash": 4096017070,
  "rewardIdList": [
    554051
  ],
  "showType": "QUEST_HIDDEN",
  "subQuests": [
    {
      "subId": 7395001,
      "mainId": 73950,
      "order": 1,
      "showType": "QUEST_HIDDEN",
      "finishCond": [
        {
          "KPGKDHAFHFE": "QUEST_CONTENT_COMPLETE_TALK",
          "param": [
            7395001,
            0
          ]
        }
      ],
      "guide": {},
      "guideHint": {
        "param1": ""
      },
      "finishParent": true,
      "versionBegin": "",
      "versionEnd": ""
    }
  ]
}