{
  "id": 73967,
  "KPGKDHAFHFE": "WQ",
  "titleTextMapHash": 3338180831,
  "descTextMapHash": 1795688838,
  "rewardIdList": [
    554074
  ],
  "showType": "QUEST_HIDDEN",
  "subQuests": [
    {
      "subId": 7396701,
      "mainId": 73967,
      "order": 1,
      "showType": "QUEST_HIDDEN",
      "finishCond": [
        {
          "KPGKDHAFHFE": "QUEST_CONTENT_COMPLETE_TALK",
          "param": [
            7396701,
            0
          ]
        }
      ],
      "guide": {},
      "guideHint": {
        "param1": ""
      },
      "finishParent": true,
      "versionBegin": "",
      "versionEnd": ""
    }
  ]
}