{
  "id": 74038,
  "KPGKDHAFHFE": "WQ",
  "titleTextMapHash": 1537872167,
  "descTextMapHash": 2271003606,
  "rewardIdList": [
    174038
  ],
  "subQuests": [
    {
      "subId": 7403801,
      "mainId": 74038,
      "order": 1,
      "descTextMapHash": 2458519004,
      "showType": "QUEST_HIDDEN",
      "finishCond": [
        {
          "KPGKDHAFHFE": "QUEST_CONTENT_COMPLETE_TALK",
          "param": [
            7403801,
            0
          ]
        }
      ],
      "guide": {},
      "showGuide": "QUEST_GUIDE_ITEM_DISABLE",
      "guideHint": {
        "param1": ""
      },
      "isRewind": true,
      "versionBegin": "",
      "versionEnd": ""
    },
    {
      "subId": 7403802,
      "mainId": 74038,
      "order": 14,
      "descTextMapHash": 320075396,
      "stepDescTextMapHash": 2787901285,
      "finishCond": [
        {
          "KPGKDHAFHFE": "QUEST_CONTENT_COMPLETE_TALK",
          "param": [
            7403814,
            0
          ]
        }
      ],
      "guide": {
        "KPGKDHAFHFE": "QUEST_GUIDE_LOCATION",
        "autoGuide": "QUEST_GUIDE_AUTO_ENABLE",
        "param": [
          "[3_340300158:2210.875,142.117,4695.980]",
          "15"
        ],
        "guideScene": 3,
        "guideStyle": "QUEST_GUIDE_STYLE_TARGET",
        "guideLayer": "QUEST_GUIDE_LAYER_SCENE"
      },
      "guideHint": {
        "param1": ""
      },
      "isRewind": true,
      "finishExec": [
        {
          "KPGKDHAFHFE": "QUEST_EXEC_REFRESH_GROUP_SUITE",
          "param": [
            "3",
            "133403058,1"
          ]
        }
      ],
      "versionBegin": "",
      "versionEnd": ""
    },
    {
      "subId": 7403803,
      "mainId": 74038,
      "order": 3,
      "descTextMapHash": 2300892116,
      "finishCond": [
        {
          "KPGKDHAFHFE": "QUEST_CONTENT_COMPLETE_TALK",
          "param": [
            7403802,
            0
          ]
        }
      ],
      "guide": {
        "KPGKDHAFHFE": "QUEST_GUIDE_NPC",
        "autoGuide": "QUEST_GUIDE_AUTO_ENABLE",
        "param": [
          "21054"
        ],
        "guideScene": 3,
        "guideStyle": "QUEST_GUIDE_STYLE_TARGET",
        "guideLayer": "QUEST_GUIDE_LAYER_SCENE"
      },
      "guideHint": {
        "param1": ""
      },
      "isRewind": true,
      "finishExec": [
        {
          "KPGKDHAFHFE": "QUEST_EXEC_UNREGISTER_DYNAMIC_GROUP",
          "param": [
            "133403261",
            "1"
          ]
        },
        {
          "KPGKDHAFHFE": "QUEST_EXEC_DEL_PACK_ITEM",
          "param": [
            "120488",
            "1"
          ]
        }
      ],
      "versionBegin": "",
      "versionEnd": ""
    },
    {
      "subId": 7403804,
      "mainId": 74038,
      "order": 4,
      "descTextMapHash": 194756588,
      "finishCond": [
        {
          "KPGKDHAFHFE": "QUEST_CONTENT_COMPLETE_TALK",
          "param": [
            7403803,
            0
          ]
        }
      ],
      "guide": {
        "KPGKDHAFHFE": "QUEST_GUIDE_LOCATION",
        "autoGuide": "QUEST_GUIDE_AUTO_ENABLE",
        "param": [
          "[3_4520:2385.194,189.554,4941.174]",
          "15"
        ],
        "guideScene": 3,
        "guideStyle": "QUEST_GUIDE_STYLE_TARGET",
        "guideLayer": "QUEST_GUIDE_LAYER_SCENE"
      },
      "guideHint": {
        "param1": ""
      },
      "isRewind": true,
      "versionBegin": "",
      "versionEnd": ""
    },
    {
      "subId": 7403805,
      "mainId": 74038,
      "order": 6,
      "descTextMapHash": 3399279156,
      "finishCond": [
        {
          "KPGKDHAFHFE": "QUEST_CONTENT_LUA_NOTIFY",
          "param": [
            0,
            0
          ],
          "count": 1
        },
        {
          "KPGKDHAFHFE": "QUEST_CONTENT_GADGET_STATE_CHANGE",
          "param": [
            133403144,
            144002
          ]
        }
      ],
      "guide": {
        "KPGKDHAFHFE": "QUEST_GUIDE_LOCATION",
        "autoGuide": "QUEST_GUIDE_AUTO_ENABLE",
        "param": [
          "[3_4532:2394.977,188.661,4951.056,0.000,254.629,0.000]",
          "30"
        ],
        "guideScene": 3,
        "guideStyle": "QUEST_GUIDE_STYLE_TARGET",
        "guideLayer": "QUEST_GUIDE_LAYER_SCENE"
      },
      "guideHint": {
        "param1": ""
      },
      "isRewind": true,
      "versionBegin": "",
      "versionEnd": ""
    },
    {
      "subId": 7403806,
      "mainId": 74038,
      "order": 7,
      "descTextMapHash": 475902004,
      "finishCond": [
        {
          "KPGKDHAFHFE": "QUEST_CONTENT_COMPLETE_TALK",
          "param": [
            7403804,
            0
          ]
        }
      ],
      "guide": {
        "KPGKDHAFHFE": "QUEST_GUIDE_LOCATION",
        "autoGuide": "QUEST_GUIDE_AUTO_ENABLE",
        "param": [
          "Q7403805_N5323",
          "0"
        ],
        "guideScene": 3,
        "guideStyle": "QUEST_GUIDE_STYLE_POINT",
        "guideLayer": "QUEST_GUIDE_LAYER_SCENE"
      },
      "guideHint": {
        "param1": ""
      },
      "isRewind": true,
      "versionBegin": "",
      "versionEnd": ""
    },
    {
      "subId": 7403807,
      "mainId": 74038,
      "order": 16,
      "descTextMapHash": 3429980628,
      "showType": "QUEST_HIDDEN",
      "finishCond": [
        {
          "KPGKDHAFHFE": "QUEST_CONTENT_LUA_NOTIFY",
          "param": [
            0,
            0
          ],
          "count": 1
        }
      ],
      "guide": {
        "autoGuide": "QUEST_GUIDE_AUTO_ENABLE",
        "guideScene": 3,
        "guideStyle": "QUEST_GUIDE_STYLE_TARGET",
        "guideLayer": "QUEST_GUIDE_LAYER_SCENE"
      },
      "showGuide": "QUEST_GUIDE_ITEM_DISABLE",
      "guideHint": {
        "param1": ""
      },
      "isRewind": true,
      "versionBegin": "",
      "versionEnd": ""
    },
    {
      "subId": 7403808,
      "mainId": 74038,
      "order": 102,
      "descTextMapHash": 852043060,
      "finishCond": [
        {
          "KPGKDHAFHFE": "QUEST_CONTENT_LUA_NOTIFY",
          "param": [
            0,
            0
          ],
          "count": 1
        }
      ],
      "guide": {
        "KPGKDHAFHFE": "QUEST_GUIDE_LOCATION",
        "autoGuide": "QUEST_GUIDE_AUTO_ENABLE",
        "param": [
          "[3_4543:2378.172,194.591,4954.099]"
        ],
        "guideScene": 3,
        "guideStyle": "QUEST_GUIDE_STYLE_TARGET",
        "guideLayer": "QUEST_GUIDE_LAYER_SCENE"
      },
      "guideHint": {
        "param1": ""
      },
      "isRewind": true,
      "versionBegin": "",
      "versionEnd": ""
    },
    {
      "subId": 7403809,
      "mainId": 74038,
      "order": 9,
      "descTextMapHash": 1428010908,
      "finishCond": [
        {
          "KPGKDHAFHFE": "QUEST_CONTENT_LUA_NOTIFY",
          "param": [
            0,
            0
          ],
          "count": 1
        }
      ],
      "guide": {
        "KPGKDHAFHFE": "QUEST_GUIDE_LOCATION",
        "autoGuide": "QUEST_GUIDE_AUTO_ENABLE",
        "param": [
          "[3_4544:2263.703,282.808,5069.490]",
          "15"
        ],
        "guideScene": 3,
        "guideStyle": "QUEST_GUIDE_STYLE_TARGET",
        "guideLayer": "QUEST_GUIDE_LAYER_SCENE"
      },
      "guideHint": {
        "param1": ""
      },
      "isRewind": true,
      "finishExec": [
        {
          "KPGKDHAFHFE": "QUEST_EXEC_REFRESH_GROUP_SUITE",
          "param": [
            "3",
            "133403144,4"
          ]
        },
        {
          "KPGKDHAFHFE": "QUEST_EXEC_UNREGISTER_DYNAMIC_GROUP",
          "param": [
            "133403147",
            "0"
          ]
        }
      ],
      "versionBegin": "",
      "versionEnd": ""
    },
    {
      "subId": 7403810,
      "mainId": 74038,
      "order": 10,
      "descTextMapHash": 1626480220,
      "finishCond": [
        {
          "KPGKDHAFHFE": "QUEST_CONTENT_LUA_NOTIFY",
          "param": [
            0,
            0
          ],
          "count": 1
        }
      ],
      "guide": {
        "KPGKDHAFHFE": "QUEST_GUIDE_LOCATION",
        "autoGuide": "QUEST_GUIDE_AUTO_ENABLE",
        "param": [
          "[3_4544:2263.703,282.808,5069.490]",
          "30"
        ],
        "guideScene": 3,
        "guideStyle": "QUEST_GUIDE_STYLE_TARGET",
        "guideLayer": "QUEST_GUIDE_LAYER_SCENE"
      },
      "guideHint": {
        "param1": ""
      },
      "isRewind": true,
      "finishExec": [
        {
          "KPGKDHAFHFE": "QUEST_EXEC_UNREGISTER_DYNAMIC_GROUP",
          "param": [
            "133403148",
            "0"
          ]
        },
        {
          "KPGKDHAFHFE": "QUEST_EXEC_UNREGISTER_DYNAMIC_GROUP",
          "param": [
            "133403672",
            "1"
          ]
        }
      ],
      "versionBegin": "",
      "versionEnd": ""
    },
    {
      "subId": 7403811,
      "mainId": 74038,
      "order": 11,
      "descTextMapHash": 3360776748,
      "finishCond": [
        {
          "KPGKDHAFHFE": "QUEST_CONTENT_COMPLETE_TALK",
          "param": [
            7403806,
            0
          ]
        }
      ],
      "guide": {
        "KPGKDHAFHFE": "QUEST_GUIDE_LOCATION",
        "autoGuide": "QUEST_GUIDE_AUTO_ENABLE",
        "param": [
          "[3_5286:2328.004,289.382,4999.722]",
          "0"
        ],
        "guideScene": 3,
        "guideStyle": "QUEST_GUIDE_STYLE_TARGET",
        "guideLayer": "QUEST_GUIDE_LAYER_SCENE"
      },
      "guideHint": {
        "param1": ""
      },
      "isRewind": true,
      "versionBegin": "",
      "versionEnd": ""
    },
    {
      "subId": 7403812,
      "mainId": 74038,
      "order": 12,
      "descTextMapHash": 2065726724,
      "stepDescTextMapHash": 3996779013,
      "finishCond": [
        {
          "KPGKDHAFHFE": "QUEST_CONTENT_COMPLETE_TALK",
          "param": [
            7403807,
            0
          ]
        }
      ],
      "guide": {
        "KPGKDHAFHFE": "QUEST_GUIDE_LOCATION",
        "autoGuide": "QUEST_GUIDE_AUTO_ENABLE",
        "param": [
          "[3_4553:3637.471,446.167,4496.428]",
          "20"
        ],
        "guideScene": 3,
        "guideStyle": "QUEST_GUIDE_STYLE_TARGET",
        "guideLayer": "QUEST_GUIDE_LAYER_SCENE"
      },
      "guideHint": {
        "param1": ""
      },
      "isRewind": true,
      "versionBegin": "",
      "versionEnd": ""
    },
    {
      "subId": 7403813,
      "mainId": 74038,
      "order": 13,
      "descTextMapHash": 2492206268,
      "finishCond": [
        {
          "KPGKDHAFHFE": "QUEST_CONTENT_COMPLETE_TALK",
          "param": [
            7403808,
            0
          ]
        }
      ],
      "guide": {
        "KPGKDHAFHFE": "QUEST_GUIDE_NPC",
        "autoGuide": "QUEST_GUIDE_AUTO_ENABLE",
        "param": [
          "5323"
        ],
        "guideScene": 3,
        "guideStyle": "QUEST_GUIDE_STYLE_TARGET",
        "guideLayer": "QUEST_GUIDE_LAYER_SCENE"
      },
      "guideHint": {
        "param1": ""
      },
      "isRewind": true,
      "finishExec": [
        {
          "KPGKDHAFHFE": "QUEST_EXEC_DEL_PACK_ITEM",
          "param": [
            "120473",
            "1"
          ]
        }
      ],
      "versionBegin": "",
      "versionEnd": ""
    },
    {
      "subId": 7403814,
      "mainId": 74038,
      "order": 15,
      "descTextMapHash": 2093276316,
      "finishCond": [
        {
          "KPGKDHAFHFE": "QUEST_CONTENT_FINISH_PLOT",
          "param": [
            7403814,
            0
          ]
        }
      ],
      "guide": {
        "KPGKDHAFHFE": "QUEST_GUIDE_LOCATION",
        "autoGuide": "QUEST_GUIDE_AUTO_ENABLE",
        "param": [
          "[3_4566:2182.276,154.558,4689.434]",
          "5"
        ],
        "guideScene": 3,
        "guideStyle": "QUEST_GUIDE_STYLE_TARGET",
        "guideLayer": "QUEST_GUIDE_LAYER_SCENE"
      },
      "guideHint": {
        "param1": ""
      },
      "isRewind": true,
      "finishExec": [
        {
          "KPGKDHAFHFE": "QUEST_EXEC_UNREGISTER_DYNAMIC_GROUP",
          "param": [
            "133403155",
            "0"
          ]
        },
        {
          "KPGKDHAFHFE": "QUEST_EXEC_DEL_PACK_ITEM",
          "param": [
            "120474",
            "1"
          ]
        }
      ],
      "versionBegin": "",
      "versionEnd": ""
    },
    {
      "subId": 7403815,
      "mainId": 74038,
      "order": 17,
      "descTextMapHash": 3949065956,
      "finishCond": [
        {
          "KPGKDHAFHFE": "QUEST_CONTENT_LUA_NOTIFY",
          "param": [
            0,
            0
          ],
          "count": 1
        }
      ],
      "guide": {
        "KPGKDHAFHFE": "QUEST_GUIDE_LOCATION",
        "autoGuide": "QUEST_GUIDE_AUTO_ENABLE",
        "param": [
          "[3_4567:2191.901,149.226,4682.238]",
          "0"
        ],
        "guideScene": 3,
        "guideStyle": "QUEST_GUIDE_STYLE_TARGET",
        "guideLayer": "QUEST_GUIDE_LAYER_SCENE"
      },
      "guideHint": {
        "param1": ""
      },
      "isRewind": true,
      "finishExec": [
        {
          "KPGKDHAFHFE": "QUEST_EXEC_UNREGISTER_DYNAMIC_GROUP",
          "param": [
            "133403236",
            "0"
          ]
        }
      ],
      "versionBegin": "",
      "versionEnd": ""
    },
    {
      "subId": 7403816,
      "mainId": 74038,
      "order": 18,
      "descTextMapHash": 3984994692,
      "finishCond": [
        {
          "KPGKDHAFHFE": "QUEST_CONTENT_LUA_NOTIFY",
          "param": [
            0,
            0
          ],
          "count": 1
        }
      ],
      "guide": {
        "KPGKDHAFHFE": "QUEST_GUIDE_LOCATION",
        "autoGuide": "QUEST_GUIDE_AUTO_ENABLE",
        "param": [
          "[3_4568:2196.428,139.939,4682.951]",
          "10"
        ],
        "guideScene": 3,
        "guideStyle": "QUEST_GUIDE_STYLE_TARGET",
        "guideLayer": "QUEST_GUIDE_LAYER_SCENE"
      },
      "guideHint": {
        "param1": ""
      },
      "isRewind": true,
      "finishExec": [
        {
          "KPGKDHAFHFE": "QUEST_EXEC_UNREGISTER_DYNAMIC_GROUP",
          "param": [
            "133403156",
            "0"
          ]
        }
      ],
      "versionBegin": "",
      "versionEnd": ""
    },
    {
      "subId": 7403817,
      "mainId": 74038,
      "order": 19,
      "descTextMapHash": 979312692,
      "finishCond": [
        {
          "KPGKDHAFHFE": "QUEST_CONTENT_COMPLETE_TALK",
          "param": [
            7403809,
            0
          ]
        }
      ],
      "guide": {
        "KPGKDHAFHFE": "QUEST_GUIDE_NPC",
        "autoGuide": "QUEST_GUIDE_AUTO_ENABLE",
        "param": [
          "5323"
        ],
        "guideScene": 3,
        "guideStyle": "QUEST_GUIDE_STYLE_TARGET",
        "guideLayer": "QUEST_GUIDE_LAYER_SCENE"
      },
      "guideHint": {
        "param1": ""
      },
      "finishParent": true,
      "isRewind": true,
      "finishExec": [
        {
          "KPGKDHAFHFE": "QUEST_EXEC_SET_QUEST_GLOBAL_VAR",
          "param": [
            "74038",
            "2"
          ]
        },
        {
          "KPGKDHAFHFE": "QUEST_EXEC_INC_QUEST_GLOBAL_VAR",
          "param": [
            "7404401",
            "1"
          ]
        },
        {
          "KPGKDHAFHFE": "QUEST_EXEC_REFRESH_GROUP_SUITE",
          "param": [
            "3",
            "133403725,2"
          ]
        }
      ],
      "versionBegin": "",
      "versionEnd": ""
    },
    {
      "subId": 7403818,
      "mainId": 74038,
      "order": 5,
      "showType": "QUEST_HIDDEN",
      "finishCond": [
        {
          "KPGKDHAFHFE": "QUEST_CONTENT_FINISH_PLOT",
          "param": [
            7403818,
            0
          ]
        }
      ],
      "guide": {},
      "showGuide": "QUEST_GUIDE_ITEM_DISABLE",
      "guideHint": {
        "param1": ""
      },
      "failParentShow": "QUEST_HIDDEN",
      "finishExec": [
        {
          "KPGKDHAFHFE": "QUEST_EXEC_REFRESH_GROUP_SUITE",
          "param": [
            "3",
            "133403144,2"
          ]
        }
      ],
      "versionBegin": "",
      "versionEnd": ""
    }
  ]
}