{
  "id": 74055,
  "KPGKDHAFHFE": "WQ",
  "titleTextMapHash": 3113362223,
  "showType": "QUEST_HIDDEN",
  "subQuests": [
    {
      "subId": 7405501,
      "mainId": 74055,
      "order": 1,
      "descTextMapHash": 2622189948,
      "showType": "QUEST_HIDDEN",
      "finishCond": [
        {
          "KPGKDHAFHFE": "QUEST_CONTENT_LUA_NOTIFY",
          "param": [
            0,
            0
          ],
          "count": 1
        }
      ],
      "guide": {},
      "guideHint": {
        "param1": ""
      },
      "isRewind": true,
      "versionBegin": "",
      "versionEnd": ""
    },
    {
      "subId": 7405502,
      "mainId": 74055,
      "order": 2,
      "descTextMapHash": 32557052,
      "showType": "QUEST_HIDDEN",
      "finishCond": [
        {
          "KPGKDHAFHFE": "QUEST_CONTENT_QUEST_STATE_EQUAL",
          "param": [
            7402615,
            3
          ]
        }
      ],
      "failCond": [
        {
          "KPGKDHAFHFE": "QUEST_CONTENT_ENTER_DUNGEON",
          "param": [
            2193,
            945
          ]
        }
      ],
      "guide": {},
      "guideHint": {
        "param1": ""
      },
      "isRewind": true,
      "failExec": [
        {
          "KPGKDHAFHFE": "QUEST_EXEC_ROLLBACK_QUEST",
          "param": [
            "7405501"
          ]
        }
      ],
      "versionBegin": "",
      "versionEnd": ""
    },
    {
      "subId": 7405503,
      "mainId": 74055,
      "order": 3,
      "descTextMapHash": 2487416316,
      "showType": "QUEST_HIDDEN",
      "finishCond": [
        {
          "KPGKDHAFHFE": "QUEST_CONTENT_QUEST_STATE_EQUAL",
          "param": [
            7402615,
            3
          ]
        }
      ],
      "guide": {},
      "guideHint": {
        "param1": ""
      },
      "finishParent": true,
      "isRewind": true,
      "versionBegin": "",
      "versionEnd": ""
    }
  ]
}