{
  "id": 74147,
  "KPGKDHAFHFE": "WQ",
  "titleTextMapHash": 2536877983,
  "showType": "QUEST_HIDDEN",
  "subQuests": [
    {
      "subId": 7414701,
      "mainId": 74147,
      "order": 1,
      "descTextMapHash": 1605132940,
      "showType": "QUEST_HIDDEN",
      "finishCond": [
        {
          "KPGKDHAFHFE": "QUEST_CONTENT_OBTAIN_ITEM",
          "param": [
            120458,
            0
          ],
          "count": 7
        }
      ],
      "guide": {},
      "guideHint": {
        "param1": ""
      },
      "finishParent": true,
      "isRewind": true,
      "finishExec": [
        {
          "KPGKDHAFHFE": "QUEST_EXEC_DEL_ALL_SPECIFIC_PACK_ITEM",
          "param": [
            "120458"
          ]
        }
      ],
      "versionBegin": "",
      "versionEnd": ""
    }
  ]
}