{
  "id": 74158,
  "KPGKDHAFHFE": "WQ",
  "titleTextMapHash": 1096917895,
  "showType": "QUEST_HIDDEN",
  "subQuests": [
    {
      "subId": 7415801,
      "mainId": 74158,
      "order": 1,
      "showType": "QUEST_HIDDEN",
      "finishCond": [
        {
          "KPGKDHAFHFE": "QUEST_CONTENT_FINISH_PLOT",
          "param": [
            7415801,
            0
          ]
        }
      ],
      "guide": {},
      "guideHint": {
        "param1": ""
      },
      "finishParent": true,
      "isRewind": true,
      "versionBegin": "",
      "versionEnd": ""
    }
  ]
}