{
  "id": 74209,
  "KPGKDHAFHFE": "WQ",
  "titleTextMapHash": 3756164575,
  "rewardIdList": [
    174209
  ],
  "showType": "QUEST_HIDDEN",
  "subQuests": [
    {
      "subId": 7420901,
      "mainId": 74209,
      "order": 1,
      "descTextMapHash": 3173868436,
      "showType": "QUEST_HIDDEN",
      "finishCond": [
        {
          "KPGKDHAFHFE": "QUEST_CONTENT_QUEST_STATE_EQUAL",
          "param": [
            7416406,
            3
          ]
        }
      ],
      "guide": {},
      "guideHint": {
        "param1": ""
      },
      "finishParent": true,
      "isRewind": true,
      "versionBegin": "",
      "versionEnd": ""
    }
  ]
}