{
  "id": 74201,
  "KPGKDHAFHFE": "WQ",
  "titleTextMapHash": 4010037287,
  "rewardIdList": [
    174201
  ],
  "showType": "QUEST_HIDDEN",
  "subQuests": [
    {
      "subId": 7420101,
      "mainId": 74201,
      "order": 1,
      "showType": "QUEST_HIDDEN",
      "finishCond": [
        {
          "KPGKDHAFHFE": "QUEST_CONTENT_QUEST_STATE_EQUAL",
          "param": [
            7417905,
            3
          ]
        }
      ],
      "guide": {},
      "guideHint": {
        "param1": ""
      },
      "finishParent": true,
      "isRewind": true,
      "versionBegin": "",
      "versionEnd": ""
    }
  ]
}