{
  "id": 74225,
  "KPGKDHAFHFE": "WQ",
  "titleTextMapHash": 2938580895,
  "descTextMapHash": 3390855654,
  "rewardIdList": [
    174225
  ],
  "showType": "QUEST_HIDDEN",
  "subQuests": [
    {
      "subId": 7422501,
      "mainId": 74225,
      "order": 2,
      "descTextMapHash": 1777568676,
      "showType": "QUEST_HIDDEN",
      "finishCond": [
        {
          "KPGKDHAFHFE": "QUEST_CONTENT_LUA_NOTIFY",
          "param": [
            0,
            0
          ]
        }
      ],
      "failCond": [
        {
          "KPGKDHAFHFE": "QUEST_CONTENT_QUEST_GLOBAL_VAR_EQUAL",
          "param": [
            7419601,
            1
          ]
        }
      ],
      "guide": {
        "param": [
          "30"
        ],
        "guideScene": 3
      },
      "guideHint": {
        "param1": ""
      },
      "failParent": true,
      "isRewind": true,
      "versionBegin": "",
      "versionEnd": ""
    },
    {
      "subId": 7422502,
      "mainId": 74225,
      "order": 3,
      "descTextMapHash": 1975493564,
      "showType": "QUEST_HIDDEN",
      "finishCond": [
        {
          "KPGKDHAFHFE": "QUEST_CONTENT_COMPLETE_TALK",
          "param": [
            7422502,
            0
          ]
        }
      ],
      "failCond": [
        {
          "KPGKDHAFHFE": "QUEST_CONTENT_QUEST_GLOBAL_VAR_EQUAL",
          "param": [
            7419601,
            1
          ]
        }
      ],
      "guide": {
        "KPGKDHAFHFE": "QUEST_GUIDE_NPC",
        "param": [
          "5353"
        ],
        "guideScene": 3,
        "guideStyle": "QUEST_GUIDE_STYLE_TARGET",
        "guideLayer": "QUEST_GUIDE_LAYER_SCENE"
      },
      "guideHint": {
        "param1": ""
      },
      "finishParent": true,
      "failParent": true,
      "isRewind": true,
      "finishExec": [
        {
          "KPGKDHAFHFE": "QUEST_EXEC_SET_QUEST_GLOBAL_VAR",
          "param": [
            "7422501",
            "1"
          ]
        }
      ],
      "versionBegin": "",
      "versionEnd": ""
    },
    {
      "subId": 7422503,
      "mainId": 74225,
      "order": 1,
      "descTextMapHash": 53467108,
      "showType": "QUEST_HIDDEN",
      "finishCond": [
        {
          "KPGKDHAFHFE": "QUEST_CONTENT_FINISH_PLOT",
          "param": [
            7422503,
            0
          ]
        }
      ],
      "failCond": [
        {
          "KPGKDHAFHFE": "QUEST_CONTENT_QUEST_GLOBAL_VAR_EQUAL",
          "param": [
            7419601,
            1
          ]
        }
      ],
      "guide": {},
      "guideHint": {
        "param1": ""
      },
      "failParent": true,
      "isRewind": true,
      "versionBegin": "",
      "versionEnd": ""
    }
  ]
}