{
  "id": 74233,
  "KPGKDHAFHFE": "WQ",
  "titleTextMapHash": 169793551,
  "rewardIdList": [
    174233
  ],
  "showType": "QUEST_HIDDEN",
  "subQuests": [
    {
      "subId": 7423301,
      "mainId": 74233,
      "order": 1,
      "showType": "QUEST_HIDDEN",
      "finishCond": [
        {
          "KPGKDHAFHFE": "QUEST_CONTENT_FINISH_PLOT",
          "param": [
            7423301,
            0
          ]
        }
      ],
      "guide": {},
      "guideHint": {
        "param1": ""
      },
      "finishParent": true,
      "isRewind": true,
      "versionBegin": "",
      "versionEnd": ""
    }
  ]
}