{
  "id": 74901,
  "KPGKDHAFHFE": "WQ",
  "titleTextMapHash": 842464327,
  "descTextMapHash": 2556581862,
  "rewardIdList": [
    555002
  ],
  "showType": "QUEST_HIDDEN",
  "subQuests": [
    {
      "subId": 7490101,
      "mainId": 74901,
      "order": 1,
      "showType": "QUEST_HIDDEN",
      "finishCond": [
        {
          "KPGKDHAFHFE": "QUEST_CONTENT_COMPLETE_TALK",
          "param": [
            7490101,
            0
          ]
        }
      ],
      "guide": {},
      "guideHint": {
        "param1": ""
      },
      "finishParent": true,
      "versionBegin": "",
      "versionEnd": ""
    }
  ]
}