{
  "id": 74908,
  "KPGKDHAFHFE": "WQ",
  "titleTextMapHash": 1210341783,
  "descTextMapHash": 2142075110,
  "rewardIdList": [
    555009
  ],
  "showType": "QUEST_HIDDEN",
  "subQuests": [
    {
      "subId": 7490801,
      "mainId": 74908,
      "order": 1,
      "showType": "QUEST_HIDDEN",
      "finishCond": [
        {
          "KPGKDHAFHFE": "QUEST_CONTENT_COMPLETE_TALK",
          "param": [
            7490801,
            0
          ]
        }
      ],
      "guide": {},
      "guideHint": {
        "param1": ""
      },
      "finishParent": true,
      "versionBegin": "",
      "versionEnd": ""
    }
  ]
}