{
  "id": 74900,
  "KPGKDHAFHFE": "WQ",
  "titleTextMapHash": 3486346031,
  "descTextMapHash": 2862259478,
  "rewardIdList": [
    555001
  ],
  "showType": "QUEST_HIDDEN",
  "subQuests": [
    {
      "subId": 7490001,
      "mainId": 74900,
      "order": 1,
      "showType": "QUEST_HIDDEN",
      "finishCond": [
        {
          "KPGKDHAFHFE": "QUEST_CONTENT_COMPLETE_TALK",
          "param": [
            7490001,
            0
          ]
        },
        {
          "KPGKDHAFHFE": "QUEST_CONTENT_COMPLETE_TALK",
          "param": [
            7490002,
            0
          ]
        }
      ],
      "guide": {},
      "guideHint": {
        "param1": ""
      },
      "finishParent": true,
      "versionBegin": "",
      "versionEnd": ""
    }
  ]
}