{
  "id": 74924,
  "KPGKDHAFHFE": "WQ",
  "titleTextMapHash": 2875760311,
  "descTextMapHash": 546322862,
  "rewardIdList": [
    555025
  ],
  "showType": "QUEST_HIDDEN",
  "subQuests": [
    {
      "subId": 7492401,
      "mainId": 74924,
      "order": 1,
      "showType": "QUEST_HIDDEN",
      "finishCond": [
        {
          "KPGKDHAFHFE": "QUEST_CONTENT_COMPLETE_TALK",
          "param": [
            7492401,
            0
          ]
        }
      ],
      "guide": {},
      "guideHint": {
        "param1": ""
      },
      "finishParent": true,
      "versionBegin": "",
      "versionEnd": ""
    }
  ]
}