{
  "id": 79038,
  "KPGKDHAFHFE": "WQ",
  "rewardIdList": [
    179038
  ],
  "showType": "QUEST_HIDDEN",
  "subQuests": [
    {
      "subId": 7903801,
      "mainId": 79038,
      "order": 1,
      "showType": "QUEST_HIDDEN",
      "finishCond": [
        {
          "KPGKDHAFHFE": "QUEST_CONTENT_QUEST_STATE_EQUAL",
          "param": [
            7902707,
            3
          ]
        }
      ],
      "guide": {},
      "showGuide": "QUEST_GUIDE_ITEM_DISABLE",
      "guideHint": {
        "param1": ""
      },
      "finishParent": true,
      "versionBegin": "",
      "versionEnd": ""
    }
  ]
}