{
  "id": 8004,
  "series": 1206,
  "titleTextMapHash": 348908255,
  "descTextMapHash": 2119734318,
  "suggestTrackMainQuestList": [
    8005
  ],
  "rewardIdList": [
    108004
  ],
  "chapterId": 1206,
  "subQuests": [
    {
      "subId": 800401,
      "mainId": 8004,
      "order": 1,
      "descTextMapHash": 2681593820,
      "finishCond": [
        {
          "KPGKDHAFHFE": "QUEST_CONTENT_COMPLETE_TALK",
          "param": [
            800401,
            0
          ]
        }
      ],
      "guide": {
        "KPGKDHAFHFE": "QUEST_GUIDE_NPC",
        "param": [
          "2078"
        ],
        "guideScene": 3,
        "guideStyle": "QUEST_GUIDE_STYLE_START",
        "guideLayer": "QUEST_GUIDE_LAYER_UI"
      },
      "guideHint": {
        "param1": ""
      },
      "isRewind": true,
      "versionBegin": "",
      "versionEnd": ""
    },
    {
      "subId": 800402,
      "mainId": 8004,
      "order": 2,
      "descTextMapHash": 3453257228,
      "finishCond": [
        {
          "KPGKDHAFHFE": "QUEST_CONTENT_COMPLETE_TALK",
          "param": [
            800402,
            0
          ]
        }
      ],
      "guide": {
        "KPGKDHAFHFE": "QUEST_GUIDE_NPC",
        "param": [
          "12423"
        ],
        "guideScene": 3,
        "guideStyle": "QUEST_GUIDE_STYLE_TARGET",
        "guideLayer": "QUEST_GUIDE_LAYER_SCENE"
      },
      "guideHint": {
        "param1": ""
      },
      "isRewind": true,
      "versionBegin": "",
      "versionEnd": ""
    },
    {
      "subId": 800403,
      "mainId": 8004,
      "order": 5,
      "descTextMapHash": 1459253780,
      "stepDescTextMapHash": 1209589933,
      "finishCond": [
        {
          "KPGKDHAFHFE": "QUEST_CONTENT_COMPLETE_TALK",
          "param": [
            800403,
            0
          ]
        },
        {
          "KPGKDHAFHFE": "QUEST_CONTENT_COMPLETE_TALK",
          "param": [
            800404,
            0
          ]
        }
      ],
      "failCond": [
        {
          "KPGKDHAFHFE": "QUEST_CONTENT_NOT_FINISH_PLOT",
          "param": [
            800403,
            0
          ]
        }
      ],
      "guide": {
        "KPGKDHAFHFE": "QUEST_GUIDE_LOCATION",
        "param": [
          "Q800403_guide"
        ],
        "guideScene": 6,
        "guideStyle": "QUEST_GUIDE_STYLE_POINT",
        "guideLayer": "QUEST_GUIDE_LAYER_SCENE"
      },
      "guideHint": {
        "param1": ""
      },
      "finishParent": true,
      "isRewind": true,
      "versionBegin": "",
      "versionEnd": ""
    },
    {
      "subId": 800404,
      "mainId": 8004,
      "order": 7,
      "descTextMapHash": 1555008556,
      "stepDescTextMapHash": 1077715997,
      "finishCond": [
        {
          "KPGKDHAFHFE": "QUEST_CONTENT_COMPLETE_TALK",
          "param": [
            800403,
            0
          ]
        },
        {
          "KPGKDHAFHFE": "QUEST_CONTENT_COMPLETE_TALK",
          "param": [
            800404,
            0
          ]
        }
      ],
      "guide": {
        "KPGKDHAFHFE": "QUEST_GUIDE_LOCATION",
        "param": [
          "Q800403_guide"
        ],
        "guideScene": 6,
        "guideStyle": "QUEST_GUIDE_STYLE_POINT",
        "guideLayer": "QUEST_GUIDE_LAYER_SCENE"
      },
      "guideHint": {
        "param1": ""
      },
      "finishParent": true,
      "isRewind": true,
      "versionBegin": "",
      "versionEnd": ""
    },
    {
      "subId": 800405,
      "mainId": 8004,
      "order": 6,
      "descTextMapHash": 3699268532,
      "stepDescTextMapHash": 2137823877,
      "guideTipsTextMapHash": 1127415774,
      "finishCond": [
        {
          "KPGKDHAFHFE": "QUEST_CONTENT_QUEST_STATE_EQUAL",
          "param": [
            7104228,
            3
          ]
        },
        {
          "KPGKDHAFHFE": "QUEST_CONTENT_UNLOCK_TRANS_POINT",
          "param": [
            6,
            11
          ]
        }
      ],
      "guide": {},
      "guideHint": {
        "param1": ""
      },
      "isRewind": true,
      "versionBegin": "",
      "versionEnd": ""
    },
    {
      "subId": 800406,
      "mainId": 8004,
      "order": 4,
      "showType": "QUEST_HIDDEN",
      "finishCond": [
        {
          "KPGKDHAFHFE": "QUEST_CONTENT_UNLOCK_TRANS_POINT",
          "param": [
            6,
            11
          ]
        }
      ],
      "failCond": [
        {
          "KPGKDHAFHFE": "QUEST_CONTENT_COMPLETE_TALK",
          "param": [
            800403,
            0
          ]
        }
      ],
      "guide": {},
      "guideHint": {
        "param1": ""
      },
      "isRewind": true,
      "finishExec": [
        {
          "KPGKDHAFHFE": "QUEST_EXEC_SET_QUEST_GLOBAL_VAR",
          "param": [
            "800402",
            "1"
          ]
        }
      ],
      "failExec": [
        {
          "KPGKDHAFHFE": "QUEST_EXEC_SET_QUEST_GLOBAL_VAR",
          "param": [
            "800402",
            "0"
          ]
        }
      ],
      "versionBegin": "",
      "versionEnd": ""
    },
    {
      "subId": 800407,
      "mainId": 8004,
      "order": 3,
      "descTextMapHash": 3350540972,
      "stepDescTextMapHash": 2153309645,
      "finishCond": [
        {
          "KPGKDHAFHFE": "QUEST_CONTENT_ENTER_MY_WORLD_SCENE",
          "param": [
            6,
            0
          ]
        }
      ],
      "guide": {
        "KPGKDHAFHFE": "QUEST_GUIDE_LOCATION",
        "param": [
          "Q800403_guide"
        ],
        "guideScene": 6,
        "guideStyle": "QUEST_GUIDE_STYLE_POINT",
        "guideLayer": "QUEST_GUIDE_LAYER_SCENE"
      },
      "guideHint": {
        "param1": ""
      },
      "isRewind": true,
      "versionBegin": "",
      "versionEnd": ""
    }
  ]
}