{
  "sceneId": 3,
  "KEHEOMOJOCD": [
    {
      "_groupID": 340500001,
      "_name": "340500001-LevelCurveObj",
      "_tag": "OceanCurrent",
      "_points": [
        {
          "BAPHICDLNEF": 1,
          "OENDOGHGDBD": 0.000202556315343827,
          "pos": {
            "x": 1195.04833984375,
            "y": 218.55728149414062,
            "z": 4198.705078125
          },
          "ODCNGBNKHIN": {
            "x": 1194.8880615234375,
            "y": 222.6571807861328,
            "z": 4202.10595703125
          },
          "LADLFFHCFGJ": {
            "x": 1195.2086181640625,
            "y": 214.45738220214844,
            "z": 4195.30419921875
          },
          "OKGDDDIEFCC": [
            {
              "interval": [
                0.0,
                0.0
              ],
              "JJFHDGGNAKE": "SetGroupVariable",
              "floatParams": [
                0.0,
                1.0
              ]
            },
            {
              "ratio": 0.15000000596046448,
              "interval": [
                0.0,
                0.0
              ],
              "JJFHDGGNAKE": "SetGroupVariable",
              "floatParams": [
                0.0,
                2.0
              ]
            },
            {
              "ratio": 0.20000000298023224,
              "interval": [
                0.0,
                0.0
              ],
              "JJFHDGGNAKE": "SetGroupVariable",
              "floatParams": [
                0.0,
                4.0
              ]
            }
          ],
          "JNHGOBJHEFJ": {
            "x": 0.036216747015714645,
            "y": 0.6388623714447021,
            "z": -0.7684680819511414
          },
          "DDGMCOKCOIP": {
            "$type": "IJOMJFBGNHL",
            "KIILEHLDGPO": 2.0
          }
        },
        {
          "BAPHICDLNEF": 9,
          "OENDOGHGDBD": 0.00020360130292829126,
          "pos": {
            "x": 1199.717529296875,
            "y": 197.11940002441406,
            "z": 4178.90234375
          },
          "ODCNGBNKHIN": {
            "x": 1196.3524169921875,
            "y": 205.77783203125,
            "z": 4187.208984375
          },
          "LADLFFHCFGJ": {
            "x": 1203.0826416015625,
            "y": 188.46096801757812,
            "z": 4170.595703125
          },
          "JNHGOBJHEFJ": {
            "x": 0.2608794867992401,
            "y": 0.7191969156265259,
            "z": -0.6439701914787292
          },
          "DDGMCOKCOIP": {
            "$type": "IJOMJFBGNHL",
            "KIILEHLDGPO": 3.0
          }
        },
        {
          "BAPHICDLNEF": 10,
          "OENDOGHGDBD": 9.629056876292452e-05,
          "pos": {
            "x": 1215.406005859375,
            "y": 176.64830017089844,
            "z": 4166.57861328125
          },
          "ODCNGBNKHIN": {
            "x": 1213.457275390625,
            "y": 185.52340698242188,
            "z": 4167.45458984375
          },
          "LADLFFHCFGJ": {
            "x": 1217.354736328125,
            "y": 167.773193359375,
            "z": 4165.70263671875
          },
          "JNHGOBJHEFJ": {
            "x": 0.8867546319961548,
            "y": 0.23404963314533234,
            "z": -0.3986063003540039
          },
          "DDGMCOKCOIP": {
            "$type": "IJOMJFBGNHL",
            "KIILEHLDGPO": 3.0
          }
        },
        {
          "BAPHICDLNEF": 4,
          "OENDOGHGDBD": 0.00018395562074147165,
          "pos": {
            "x": 1226.848388671875,
            "y": 116.67529296875,
            "z": 4156.4013671875
          },
          "ODCNGBNKHIN": {
            "x": 1226.5718994140625,
            "y": 127.07283020019531,
            "z": 4163.59228515625
          },
          "LADLFFHCFGJ": {
            "x": 1227.1248779296875,
            "y": 106.27775573730469,
            "z": 4149.21044921875
          },
          "JNHGOBJHEFJ": {
            "x": 0.031592708081007004,
            "y": 0.5690996646881104,
            "z": -0.8216614723205566
          },
          "DDGMCOKCOIP": {
            "$type": "IJOMJFBGNHL",
            "KIILEHLDGPO": 3.0
          }
        },
        {
          "BAPHICDLNEF": 5,
          "OENDOGHGDBD": 0.0003580599441193044,
          "pos": {
            "x": 1222.6378173828125,
            "y": 96.97594451904297,
            "z": 4131.1767578125
          },
          "ODCNGBNKHIN": {
            "x": 1223.3797607421875,
            "y": 99.42683410644531,
            "z": 4135.13623046875
          },
          "LADLFFHCFGJ": {
            "x": 1221.8958740234375,
            "y": 94.52505493164062,
            "z": 4127.21728515625
          },
          "JNHGOBJHEFJ": {
            "x": -0.0957297757267952,
            "y": 0.8543089032173157,
            "z": -0.5108737945556641
          },
          "DDGMCOKCOIP": {
            "$type": "IJOMJFBGNHL",
            "KIILEHLDGPO": 2.5
          }
        },
        {
          "BAPHICDLNEF": 6,
          "OENDOGHGDBD": 0.0002096651296596974,
          "pos": {
            "x": 1219.33154296875,
            "y": 86.76808166503906,
            "z": 4118.32421875
          },
          "ODCNGBNKHIN": {
            "x": 1219.6663818359375,
            "y": 87.78471374511719,
            "z": 4119.45751953125
          },
          "LADLFFHCFGJ": {
            "x": 1218.9967041015625,
            "y": 85.75144958496094,
            "z": 4117.19091796875
          },
          "OKGDDDIEFCC": [
            {
              "interval": [
                0.0,
                0.0
              ],
              "JJFHDGGNAKE": "SetGroupVariable",
              "floatParams": [
                0.0,
                3.0
              ]
            }
          ],
          "JNHGOBJHEFJ": {
            "x": -0.18478871881961823,
            "y": 0.7580762505531311,
            "z": -0.6254387497901917
          },
          "DDGMCOKCOIP": {
            "$type": "IJOMJFBGNHL",
            "KIILEHLDGPO": 3.0
          }
        }
      ],
      "_ocp_name": "OCP_Fd_Default_DeepSea"
    },
    {
      "_groupID": 340500002,
      "_name": "340500002-LevelCurveObj",
      "_tag": "",
      "_points": [
        {
          "BAPHICDLNEF": 1,
          "OENDOGHGDBD": 0.0007897635805420578,
          "pos": {
            "x": 1324.110107421875,
            "y": 290.15771484375,
            "z": 4332.9853515625
          },
          "ODCNGBNKHIN": {
            "x": 1326.19970703125,
            "y": 287.58905029296875,
            "z": 4336.4248046875
          },
          "LADLFFHCFGJ": {
            "x": 1322.0205078125,
            "y": 292.72637939453125,
            "z": 4329.5458984375
          },
          "JNHGOBJHEFJ": {
            "x": 0.27935075759887695,
            "y": 0.84293532371521,
            "z": 0.4598076641559601
          }
        },
        {
          "BAPHICDLNEF": 3,
          "OENDOGHGDBD": 0.0006951780524104834,
          "pos": {
            "x": 1294.8062744140625,
            "y": 331.4464111328125,
            "z": 4295.17724609375
          },
          "ODCNGBNKHIN": {
            "x": 1306.8018798828125,
            "y": 316.2187194824219,
            "z": 4305.84521484375
          },
          "LADLFFHCFGJ": {
            "x": 1282.8106689453125,
            "y": 346.6741027832031,
            "z": 4284.50927734375
          },
          "JNHGOBJHEFJ": {
            "x": 0.5142637491226196,
            "y": 0.7255114316940308,
            "z": 0.4573466181755066
          }
        },
        {
          "BAPHICDLNEF": 5,
          "pos": {
            "x": 1243.160400390625,
            "y": 373.06048583984375,
            "z": 4268.26611328125
          },
          "ODCNGBNKHIN": {
            "x": 1246.5447998046875,
            "y": 372.73980712890625,
            "z": 4269.97119140625
          },
          "LADLFFHCFGJ": {
            "x": 1239.7760009765625,
            "y": 373.38116455078125,
            "z": 4266.56103515625
          },
          "JNHGOBJHEFJ": {
            "x": 0.07530158013105392,
            "y": 0.9964388608932495,
            "z": 0.03793732821941376
          }
        }
      ],
      "_ocp_name": ""
    },
    {
      "_groupID": 340500003,
      "_name": "340500003-LevelCurveObj",
      "_tag": "",
      "_points": [
        {
          "BAPHICDLNEF": 1,
          "OENDOGHGDBD": 0.007015140727162361,
          "pos": {
            "x": 1228.0706787109375,
            "y": 350.262451171875,
            "z": 4276.212890625
          },
          "ODCNGBNKHIN": {
            "x": 1229.92236328125,
            "y": 351.9103698730469,
            "z": 4276.9150390625
          },
          "LADLFFHCFGJ": {
            "x": 1226.218994140625,
            "y": 348.6145324707031,
            "z": 4275.5107421875
          },
          "JNHGOBJHEFJ": {
            "x": -0.5980871319770813,
            "y": 0.7686725854873657,
            "z": -0.22679129242897034
          }
        },
        {
          "BAPHICDLNEF": 3,
          "OENDOGHGDBD": 0.007862870581448078,
          "pos": {
            "x": 1222.6094970703125,
            "y": 346.1881103515625,
            "z": 4274.138671875
          },
          "ODCNGBNKHIN": {
            "x": 1224.416015625,
            "y": 347.6361389160156,
            "z": 4274.6923828125
          },
          "LADLFFHCFGJ": {
            "x": 1220.802978515625,
            "y": 344.7400817871094,
            "z": 4273.5849609375
          },
          "JNHGOBJHEFJ": {
            "x": -0.5815761685371399,
            "y": 0.7937212586402893,
            "z": -0.1782572865486145
          }
        },
        {
          "BAPHICDLNEF": 4,
          "OENDOGHGDBD": 0.005031204782426357,
          "pos": {
            "x": 1216.563232421875,
            "y": 346.4583435058594,
            "z": 4273.60205078125
          },
          "ODCNGBNKHIN": {
            "x": 1218.1600341796875,
            "y": 346.3762512207031,
            "z": 4273.1787109375
          },
          "LADLFFHCFGJ": {
            "x": 1214.9664306640625,
            "y": 346.5404357910156,
            "z": 4274.025390625
          },
          "JNHGOBJHEFJ": {
            "x": 0.047975048422813416,
            "y": 0.9987675547599792,
            "z": -0.012719018384814262
          }
        },
        {
          "BAPHICDLNEF": 5,
          "OENDOGHGDBD": 0.007473230827599764,
          "pos": {
            "x": 1210.8231201171875,
            "y": 339.37091064453125,
            "z": 4276.99072265625
          },
          "ODCNGBNKHIN": {
            "x": 1212.9073486328125,
            "y": 339.8507385253906,
            "z": 4276.12060546875
          },
          "LADLFFHCFGJ": {
            "x": 1208.7388916015625,
            "y": 338.8910827636719,
            "z": 4277.86083984375
          },
          "JNHGOBJHEFJ": {
            "x": -0.19176965951919556,
            "y": 0.9781692028045654,
            "z": 0.08005939424037933
          }
        },
        {
          "BAPHICDLNEF": 6,
          "OENDOGHGDBD": 0.006207403726875782,
          "pos": {
            "x": 1204.9803466796875,
            "y": 341.59820556640625,
            "z": 4278.9375
          },
          "ODCNGBNKHIN": {
            "x": 1206.8447265625,
            "y": 341.544189453125,
            "z": 4278.5439453125
          },
          "LADLFFHCFGJ": {
            "x": 1203.115966796875,
            "y": 341.6522216796875,
            "z": 4279.3310546875
          },
          "JNHGOBJHEFJ": {
            "x": 0.027725620195269585,
            "y": 0.9995984435081482,
            "z": -0.00585264153778553
          }
        },
        {
          "BAPHICDLNEF": 7,
          "OENDOGHGDBD": 0.004305634181946516,
          "pos": {
            "x": 1199.201416015625,
            "y": 336.384521484375,
            "z": 4279.578125
          },
          "ODCNGBNKHIN": {
            "x": 1200.740966796875,
            "y": 338.7314453125,
            "z": 4279.45849609375
          },
          "LADLFFHCFGJ": {
            "x": 1197.661865234375,
            "y": 334.03759765625,
            "z": 4279.69775390625
          },
          "JNHGOBJHEFJ": {
            "x": -0.832879900932312,
            "y": 0.5496569871902466,
            "z": 0.06471791118383408
          }
        },
        {
          "BAPHICDLNEF": 10,
          "OENDOGHGDBD": 0.002903847023844719,
          "pos": {
            "x": 1192.755126953125,
            "y": 326.7884521484375,
            "z": 4279.52978515625
          },
          "ODCNGBNKHIN": {
            "x": 1196.4876708984375,
            "y": 331.5984802246094,
            "z": 4280.509765625
          },
          "LADLFFHCFGJ": {
            "x": 1189.0225830078125,
            "y": 321.9784240722656,
            "z": 4278.5498046875
          },
          "JNHGOBJHEFJ": {
            "x": -0.754426896572113,
            "y": 0.6257845163345337,
            "z": -0.19807499647140503
          }
        },
        {
          "BAPHICDLNEF": 9,
          "pos": {
            "x": 1182.2230224609375,
            "y": 314.5177917480469,
            "z": 4274.04443359375
          },
          "ODCNGBNKHIN": {
            "x": 1185.3768310546875,
            "y": 318.3471374511719,
            "z": 4277.30615234375
          },
          "LADLFFHCFGJ": {
            "x": 1179.0692138671875,
            "y": 310.6884460449219,
            "z": 4270.78271484375
          },
          "JNHGOBJHEFJ": {
            "x": -0.44833895564079285,
            "y": 0.764194905757904,
            "z": -0.4636792242527008
          }
        }
      ],
      "_ocp_name": ""
    },
    {
      "_groupID": 340500004,
      "_name": "340500004-LevelCurveObj",
      "_tag": "",
      "_points": [
        {
          "BAPHICDLNEF": 1,
          "OENDOGHGDBD": 0.0009472727542743087,
          "pos": {
            "x": 1324.4830322265625,
            "y": 289.9613952636719,
            "z": 4333.85986328125
          },
          "ODCNGBNKHIN": {
            "x": 1326.0753173828125,
            "y": 285.85467529296875,
            "z": 4342.85498046875
          },
          "LADLFFHCFGJ": {
            "x": 1322.8907470703125,
            "y": 294.068115234375,
            "z": 4324.86474609375
          },
          "JNHGOBJHEFJ": {
            "x": 0.07147125899791718,
            "y": 0.9120713472366333,
            "z": 0.40375450253486633
          }
        },
        {
          "BAPHICDLNEF": 3,
          "OENDOGHGDBD": 0.0011761786881834269,
          "pos": {
            "x": 1304.2330322265625,
            "y": 310.65716552734375,
            "z": 4290.4921875
          },
          "ODCNGBNKHIN": {
            "x": 1315.6912841796875,
            "y": 303.6051330566406,
            "z": 4300.38330078125
          },
          "LADLFFHCFGJ": {
            "x": 1292.7747802734375,
            "y": 317.7091979980469,
            "z": 4280.60107421875
          },
          "JNHGOBJHEFJ": {
            "x": 0.3196724057197571,
            "y": 0.9064549207687378,
            "z": 0.27595099806785583
          }
        },
        {
          "BAPHICDLNEF": 5,
          "pos": {
            "x": 1268.076904296875,
            "y": 327.0671081542969,
            "z": 4277.484375
          },
          "ODCNGBNKHIN": {
            "x": 1276.6199951171875,
            "y": 324.4557189941406,
            "z": 4277.24267578125
          },
          "LADLFFHCFGJ": {
            "x": 1259.5338134765625,
            "y": 329.6784973144531,
            "z": 4277.72607421875
          },
          "JNHGOBJHEFJ": {
            "x": 0.29209718108177185,
            "y": 0.9563530087471008,
            "z": -0.008263948373496532
          }
        }
      ],
      "_ocp_name": ""
    },
    {
      "_groupID": 340500006,
      "_name": "340500006-【朝向相反】源自 - 340500001-LevelCurveObj",
      "_tag": "OceanCurrent",
      "_points": [
        {
          "BAPHICDLNEF": 5,
          "OENDOGHGDBD": 0.0001874146837508306,
          "pos": {
            "x": 1222.4688720703125,
            "y": 96.97594451904297,
            "z": 4132.05126953125
          },
          "ODCNGBNKHIN": {
            "x": 1221.3311767578125,
            "y": 93.21131896972656,
            "z": 4125.8408203125
          },
          "LADLFFHCFGJ": {
            "x": 1223.6065673828125,
            "y": 100.74057006835938,
            "z": 4138.26171875
          },
          "OKGDDDIEFCC": [
            {
              "ratio": 0.20000000298023224,
              "interval": [
                0.0,
                0.0
              ],
              "JJFHDGGNAKE": "SetGroupVariable",
              "floatParams": [
                0.0,
                1.0
              ]
            }
          ],
          "JNHGOBJHEFJ": {
            "x": -0.09228131920099258,
            "y": 0.8589091897010803,
            "z": -0.5037451386451721
          },
          "DDGMCOKCOIP": {
            "$type": "IJOMJFBGNHL",
            "KIILEHLDGPO": 2.5
          }
        },
        {
          "BAPHICDLNEF": 4,
          "OENDOGHGDBD": 0.0001148712108260952,
          "pos": {
            "x": 1225.845947265625,
            "y": 116.67529296875,
            "z": 4156.58740234375
          },
          "ODCNGBNKHIN": {
            "x": 1226.699462890625,
            "y": 106.27775573730469,
            "z": 4149.32421875
          },
          "LADLFFHCFGJ": {
            "x": 1224.992431640625,
            "y": 127.07283020019531,
            "z": 4163.8505859375
          },
          "JNHGOBJHEFJ": {
            "x": 0.09546146541833878,
            "y": 0.5753027200698853,
            "z": -0.8123508095741272
          },
          "DDGMCOKCOIP": {
            "$type": "IJOMJFBGNHL",
            "KIILEHLDGPO": 3.0
          }
        },
        {
          "BAPHICDLNEF": 10,
          "OENDOGHGDBD": 0.00014649415970779955,
          "pos": {
            "x": 1219.6756591796875,
            "y": 167.04476928710938,
            "z": 4167.28759765625
          },
          "ODCNGBNKHIN": {
            "x": 1221.6243896484375,
            "y": 161.14328002929688,
            "z": 4166.41162109375
          },
          "LADLFFHCFGJ": {
            "x": 1217.7269287109375,
            "y": 172.94625854492188,
            "z": 4168.16357421875
          },
          "JNHGOBJHEFJ": {
            "x": 0.8576140999794006,
            "y": 0.34041476249694824,
            "z": -0.3855073153972626
          },
          "DDGMCOKCOIP": {
            "$type": "IJOMJFBGNHL",
            "KIILEHLDGPO": 3.0
          }
        },
        {
          "BAPHICDLNEF": 9,
          "OENDOGHGDBD": 0.00013887429668102413,
          "pos": {
            "x": 1199.3958740234375,
            "y": 199.8949737548828,
            "z": 4179.0068359375
          },
          "ODCNGBNKHIN": {
            "x": 1203.3282470703125,
            "y": 191.8369598388672,
            "z": 4170.310546875
          },
          "LADLFFHCFGJ": {
            "x": 1195.4635009765625,
            "y": 207.95298767089844,
            "z": 4187.703125
          },
          "JNHGOBJHEFJ": {
            "x": 0.2658023238182068,
            "y": 0.764085590839386,
            "z": -0.5878114700317383
          },
          "DDGMCOKCOIP": {
            "$type": "IJOMJFBGNHL",
            "KIILEHLDGPO": 2.0
          }
        },
        {
          "BAPHICDLNEF": 1,
          "OENDOGHGDBD": 0.000277658982668072,
          "pos": {
            "x": 1196.2901611328125,
            "y": 229.53419494628906,
            "z": 4210.080078125
          },
          "ODCNGBNKHIN": {
            "x": 1196.142578125,
            "y": 227.94900512695312,
            "z": 4208.16796875
          },
          "LADLFFHCFGJ": {
            "x": 1196.437744140625,
            "y": 231.119384765625,
            "z": 4211.9921875
          },
          "OKGDDDIEFCC": [
            {
              "interval": [
                0.0,
                0.0
              ],
              "JJFHDGGNAKE": "SetGroupVariable",
              "floatParams": [
                0.0,
                2.0
              ]
            }
          ],
          "JNHGOBJHEFJ": {
            "x": -0.04902784526348114,
            "y": 0.770779550075531,
            "z": -0.6352127194404602
          },
          "DDGMCOKCOIP": {
            "$type": "IJOMJFBGNHL",
            "KIILEHLDGPO": 2.0
          }
        }
      ],
      "_ocp_name": "OCP_Fd_Default_DeepSea"
    }
  ]
}