[
  {
    "Default": {
      "$type": "MoleMole.Config.GNKCLKNDOAK",
      "abilityName": "Avatar_Xiangling_ExtraAttack",
      "PIDAPNFJNDF": [
        {
          "$type": "MoleMole.Config.AttachToStateIDMixin",
          "stateIDs": [
            "ExtraAttack"
          ],
          "modifierName": "ExtraAttack_FX",
          "MJFJKAHGHDJ": ""
        },
        {
          "$type": "MoleMole.Config.AttachToStateIDMixin",
          "stateIDs": [
            "ExtraAttack_BS"
          ],
          "modifierName": "ExtraAttack_BS_FX",
          "MJFJKAHGHDJ": ""
        },
        {
          "$type": "MoleMole.Config.AttachToStateIDMixin",
          "stateIDs": [
            "ExtraAttack"
          ],
          "modifierName": "ExtraAttack_CloseCollider",
          "MJFJKAHGHDJ": ""
        },
        {
          "$type": "MoleMole.Config.ButtonHoldChargeMixin",
          "skillID": 10231,
          "LNLJPHCMKBI": 0.11999999731779099,
          "GDDPDOICDAO": 0.20000000298023224,
          "FABKBACKNJD": [
            {
              "$type": "MoleMole.Config.SetAnimatorTrigger",
              "triggerID": "DoSkill"
            },
            {
              "$type": "MoleMole.Config.SetAnimatorInt",
              "predicates": [
                {
                  "$type": "LNALCOIFPDK",
                  "predicates": [
                    {
                      "$type": "AKOMJJFEAFI",
                      "logic": "Equal",
                      "value": 0,
                      "parameter": "ComboCount"
                    },
                    {
                      "$type": "AKOMJJFEAFI",
                      "logic": "Equal",
                      "value": 5,
                      "parameter": "ComboCount"
                    }
                  ]
                }
              ],
              "intID": "SkillID",
              "value": 99.0
            },
            {
              "$type": "MoleMole.Config.SetAnimatorBool",
              "KIAGMJMPHPG": "IsCharging"
            }
          ],
          "GJGJBOCMOJH": [
            {
              "$type": "MoleMole.Config.SetAnimatorInt",
              "intID": "SkillID",
              "value": 1.0
            }
          ],
          "OFOOOJHPKLB": [
            {
              "$type": "MoleMole.Config.SetAnimatorBool",
              "KIAGMJMPHPG": "IsCharging",
              "value": true
            }
          ],
          "HHOBONFOENE": [
            {
              "$type": "MoleMole.Config.SetAnimatorBool",
              "KIAGMJMPHPG": "IsCharging"
            },
            {
              "$type": "MoleMole.Config.SetAnimatorInt",
              "intID": "SkillID",
              "value": 1.0
            }
          ],
          "PEIDOGOFODL": [
            {
              "$type": "MoleMole.Config.SetAnimatorTrigger",
              "predicates": [
                {
                  "$type": "POPFKBMDPMN",
                  "logic": "GreaterOrEqual",
                  "stamina": [
                    "ExtraAttack_Pole_Stamina_Cost",
                    "Flexible_Stamina",
                    "ADD"
                  ]
                }
              ],
              "triggerID": "DoSkill"
            },
            {
              "$type": "MoleMole.Config.SetAnimatorInt",
              "predicates": [
                {
                  "$type": "POPFKBMDPMN",
                  "logic": "GreaterOrEqual",
                  "stamina": [
                    "ExtraAttack_Pole_Stamina_Cost",
                    "Flexible_Stamina",
                    "ADD"
                  ]
                }
              ],
              "intID": "SkillID",
              "value": 6.0
            },
            {
              "$type": "MoleMole.Config.SetAnimatorBool",
              "KIAGMJMPHPG": "IsCharging"
            }
          ],
          "ECAICIFHNMJ": [
            "Attack01",
            "Attack02",
            "Attack03",
            "Attack04",
            "Run"
          ]
        },
        {
          "$type": "MoleMole.Config.AttachToStateIDMixin",
          "stateIDs": [
            "ExtraAttack"
          ],
          "modifierName": "ExtraAttack_StaminaCost",
          "MJFJKAHGHDJ": ""
        }
      ],
      "LLLCANIGIOE": {
        "ExtraAttack_Pole_Stamina_Cost": 0.0,
        "Flexible_Stamina": -2.0
      },
      "BFBDNNJCDLH": {
        "ExtraAttack_StaminaCost": {
          "modifierName": "",
          "elementDurability": 100.0,
          "OAOGLLGGJPD": [
            {
              "$type": "MoleMole.Config.AvatarSkillStart",
              "skillID": 10002,
              "NMIGBFNNFKL": 1.0,
              "AGCOINPAHEO": "ExtraAttack_Pole_Stamina_Cost"
            }
          ]
        },
        "ExtraAttack_FX": {
          "modifierName": "",
          "elementDurability": 100.0,
          "OAOGLLGGJPD": [
            {
              "$type": "MoleMole.Config.AttachEffect",
              "effectPattern": "Eff_Avatar_Girl_Pole_Xiangling_ExtraAttack_Sprint",
              "born": {
                "$type": "INKMBJGOPCK",
                "offset": {
                  "GOAPOLCAJBP": 0.0,
                  "FMOPCJGGFMH": -0.30000001192092896,
                  "EJJEPFCDDAM": 0.0
                }
              },
              "effectTempleteID": -1.0
            }
          ]
        },
        "ExtraAttack_BS_FX": {
          "modifierName": "",
          "elementDurability": 100.0,
          "OAOGLLGGJPD": [
            {
              "$type": "MoleMole.Config.AttachEffect",
              "effectPattern": "Eff_Avatar_Girl_Pole_Xiangling_ExtraAttack",
              "born": {
                "$type": "INKMBJGOPCK",
                "offset": {
                  "GOAPOLCAJBP": 0.0,
                  "FMOPCJGGFMH": -0.30000001192092896,
                  "EJJEPFCDDAM": 0.0
                }
              },
              "effectTempleteID": -1.0
            }
          ]
        },
        "ExtraAttack_CloseCollider": {
          "modifierName": "",
          "elementDurability": 100.0,
          "OAOGLLGGJPD": [
            {
              "$type": "MoleMole.Config.TriggerSetPassThrough",
              "doOffStage": true,
              "KAPALEIDILG": true
            },
            {
              "$type": "MoleMole.Config.EnableHDMesh",
              "ALNBNPFFNIM": "Default"
            }
          ],
          "MINFJCDAIBB": [
            {
              "$type": "MoleMole.Config.TriggerSetPassThrough",
              "doOffStage": true,
              "canBeHandledOnRecover": true
            },
            {
              "$type": "MoleMole.Config.EnableHDMesh",
              "canBeHandledOnRecover": true,
              "enable": true,
              "ALNBNPFFNIM": "Default"
            },
            {
              "$type": "MoleMole.Config.KillGadget",
              "doOffStage": true,
              "GBDKOCEAFOO": {
                "configID": 41023001
              }
            }
          ]
        }
      }
    }
  },
  {
    "Default": {
      "$type": "MoleMole.Config.GNKCLKNDOAK",
      "abilityName": "Avatar_Xiangling_ExtraAttack_CreateBullet",
      "EIIHGJGFDHC": [
        {
          "$type": "MoleMole.Config.TriggerBullet",
          "DCNFGAGBCMP": 41023001
        }
      ]
    }
  },
  {
    "Default": {
      "$type": "MoleMole.Config.GNKCLKNDOAK",
      "abilityName": "Avatar_Xiangling_ExtraAttack_Bullet",
      "LLLCANIGIOE": {
        "ExtraAttack": 0.0
      },
      "EIIHGJGFDHC": [
        {
          "$type": "MoleMole.Config.Predicated",
          "MLDBFKEGPEF": "Target",
          "CKBKOCJPJMM": [
            {
              "$type": "DLLOJMFICPG",
              "JBEIOINCLFB": [
                "MonsterEquip"
              ]
            }
          ],
          "successActions": [
            {
              "$type": "MoleMole.Config.DamageByAttackValue",
              "MLDBFKEGPEF": "Target",
              "attackInfo": {
                "attackTag": "ExtraAttack",
                "attenuationTag": "ExtraAttack",
                "attenuationGroup": "Avatar_Pole_ExtraAttack",
                "attackProperty": {
                  "JMLMDDCBIAO": "ExtraAttack",
                  "damagePercentageRatio": 0.0,
                  "elementDurability": 25.0,
                  "overrideByWeapon": true,
                  "strikeType": "Spear",
                  "enBreak": 58.400001525878906,
                  "attackType": "Melee",
                  "damagePercentage": 0.0
                },
                "hitPattern": {
                  "onHitEffectName": "default",
                  "hitImpulseY": "",
                  "hitImpulseType": "LV6",
                  "hitHaltTimeScale": 0.009999999776482582,
                  "canBeDefenceHalt": true
                },
                "cameraShake": {
                  "shakeType": "CustomVector",
                  "shakeRange": 0.36000001430511475,
                  "shakeTime": 0.11999999731779099,
                  "shakeDistance": 30.0,
                  "shakeDir": {
                    "y": -1.0
                  }
                },
                "canBeModifiedBy": "OriginOwner"
              }
            }
          ],
          "failActions": [
            {
              "$type": "MoleMole.Config.TriggerAttackEvent",
              "attackEvent": {
                "attackPattern": {
                  "$type": "IJCIPLFIDAK",
                  "triggerType": "TriggerNoRepeat",
                  "born": {
                    "$type": "AGPIGGAPILF",
                    "offset": {
                      "GOAPOLCAJBP": 0.0,
                      "FMOPCJGGFMH": 0.0,
                      "EJJEPFCDDAM": 0.0
                    }
                  },
                  "MFGGJCPPBGA": 0.800000011920929
                },
                "attackInfo": {
                  "attackTag": "ExtraAttack",
                  "attenuationTag": "ExtraAttack",
                  "attenuationGroup": "Avatar_Pole_ExtraAttack",
                  "attackProperty": {
                    "JMLMDDCBIAO": "ExtraAttack",
                    "damagePercentageRatio": 0.0,
                    "elementDurability": 25.0,
                    "overrideByWeapon": true,
                    "strikeType": "Spear",
                    "enBreak": 58.400001525878906,
                    "attackType": "Melee",
                    "damagePercentage": 0.0
                  },
                  "hitPattern": {
                    "onHitEffectName": "default",
                    "hitImpulseY": "",
                    "hitImpulseType": "LV5",
                    "hitHaltTimeScale": 0.009999999776482582,
                    "canBeDefenceHalt": true
                  },
                  "cameraShake": {
                    "shakeType": "CustomVector",
                    "shakeRange": 0.36000001430511475,
                    "shakeTime": 0.11999999731779099,
                    "shakeDistance": 30.0,
                    "shakeDir": {
                      "y": -1.0
                    }
                  },
                  "canBeModifiedBy": "OriginOwner"
                }
              },
              "targetType": "Enemy"
            }
          ]
        }
      ]
    }
  },
  {
    "Default": {
      "$type": "MoleMole.Config.GNKCLKNDOAK",
      "abilityName": "Avatar_Xiangling_Eff_Attack_04",
      "PIDAPNFJNDF": [
        {
          "$type": "MoleMole.Config.AttachToStateIDMixin",
          "stateIDs": [
            "Attack04"
          ],
          "modifierName": "Eff_Attack04_Flag",
          "MJFJKAHGHDJ": ""
        }
      ],
      "BFBDNNJCDLH": {
        "Eff_Attack04_Flag": {
          "modifierName": "",
          "elementDurability": 100.0,
          "MINFJCDAIBB": [
            {
              "$type": "MoleMole.Config.RemoveModifier",
              "modifierName": "Eff_Attack04"
            }
          ]
        },
        "Eff_Attack04": {
          "EODJPKICNGG": "Multiple",
          "modifierName": "",
          "duration": 1.2000000476837158,
          "elementDurability": 100.0,
          "OAOGLLGGJPD": [
            {
              "$type": "MoleMole.Config.AttachEffect",
              "effectPattern": "Eff_Avatar_Girl_Pole_Xiangling_Attack_04",
              "effectTempleteID": -1.0
            }
          ]
        }
      },
      "EIIHGJGFDHC": [
        {
          "$type": "MoleMole.Config.ApplyModifier",
          "modifierName": "Eff_Attack04"
        }
      ]
    }
  },
  {
    "Default": {
      "$type": "MoleMole.Config.GNKCLKNDOAK",
      "abilityName": "Avatar_Xiangling_PandaBornEffect",
      "EIIHGJGFDHC": [
        {
          "$type": "MoleMole.Config.FireEffect",
          "effectPattern": "Eff_Avatar_Girl_Pole_Xiangling_PandaBorn",
          "born": {
            "$type": "INKMBJGOPCK",
            "offset": {
              "GOAPOLCAJBP": 0.0,
              "FMOPCJGGFMH": 0.0,
              "EJJEPFCDDAM": 1.2999999523162842
            }
          },
          "effectTempleteID": -1.0
        }
      ]
    }
  },
  {
    "Default": {
      "$type": "MoleMole.Config.GNKCLKNDOAK",
      "abilityName": "Avatar_Xiangling_PandaBornEffect_Run",
      "EIIHGJGFDHC": [
        {
          "$type": "MoleMole.Config.FireEffect",
          "effectPattern": "Eff_Avatar_Girl_Pole_Xiangling_PandaBorn",
          "born": {
            "$type": "INKMBJGOPCK",
            "offset": {
              "GOAPOLCAJBP": 0.0,
              "FMOPCJGGFMH": 0.0,
              "EJJEPFCDDAM": 1.7999999523162842
            }
          },
          "effectTempleteID": -1.0
        }
      ]
    }
  },
  {
    "Default": {
      "$type": "MoleMole.Config.GNKCLKNDOAK",
      "abilityName": "Avatar_Xiangling_PandaFire",
      "EIIHGJGFDHC": [
        {
          "$type": "MoleMole.Config.AvatarSkillStart",
          "skillID": 10232,
          "NMIGBFNNFKL": 1.0,
          "AGCOINPAHEO": 1.0
        },
        {
          "$type": "MoleMole.Config.CreateGadget",
          "born": {
            "$type": "INKMBJGOPCK",
            "offset": {
              "GOAPOLCAJBP": 0.0,
              "FMOPCJGGFMH": 0.0,
              "EJJEPFCDDAM": 1.2999999523162842
            }
          },
          "KHPDGANCHDI": {
            "enable": true,
            "MLLEOPGDACC": 2.0,
            "HBKILFIKAGI": 0.0,
            "DHJOKBOICHC": false
          },
          "gadgetID": 41023011,
          "campID": 1001,
          "FAMCBLCIFCJ": "Enemy"
        }
      ]
    }
  },
  {
    "Default": {
      "$type": "MoleMole.Config.GNKCLKNDOAK",
      "abilityName": "Avatar_Xiangling_PandaFire_Run",
      "EIIHGJGFDHC": [
        {
          "$type": "MoleMole.Config.AvatarSkillStart",
          "skillID": 10232,
          "NMIGBFNNFKL": 1.0,
          "AGCOINPAHEO": 1.0
        },
        {
          "$type": "MoleMole.Config.CreateGadget",
          "born": {
            "$type": "INKMBJGOPCK",
            "offset": {
              "GOAPOLCAJBP": 0.0,
              "FMOPCJGGFMH": 0.0,
              "EJJEPFCDDAM": 1.7000000476837158
            }
          },
          "KHPDGANCHDI": {
            "enable": true,
            "MLLEOPGDACC": 2.0,
            "HBKILFIKAGI": 0.0,
            "DHJOKBOICHC": false
          },
          "gadgetID": 41023011,
          "campID": 1001,
          "FAMCBLCIFCJ": "Enemy"
        }
      ]
    }
  },
  {
    "Default": {
      "$type": "MoleMole.Config.GNKCLKNDOAK",
      "abilityName": "Avatar_Xiangling_PandaFireAim",
      "PIDAPNFJNDF": [
        {
          "$type": "MoleMole.Config.AttachToStateIDMixin",
          "stateIDs": [
            "Attack"
          ],
          "modifierName": "GenerateElemBall_PandaFire",
          "MJFJKAHGHDJ": ""
        }
      ],
      "LLLCANIGIOE": {
        "DummyHp": 0.30000001192092896,
        "GetElementRatio": 1.0,
        "Xiangling_Talent_231_P1_FireDefDown": 0.0,
        "Xiangling_Talent_231_P2_FireDefDownTime": 0.0
      },
      "BFBDNNJCDLH": {
        "FireAttack": {
          "modifierName": "",
          "elementDurability": 100.0,
          "BNJENAIMDPL": 1.600000023841858,
          "PJKELBNICOI": [
            {
              "$type": "MoleMole.Config.SetSelfAttackTarget",
              "otherTargets": {
                "$type": "DOMPKGOHKNB",
                "KHHAHILDJDO": 1,
                "sortType": "HigherScore",
                "shapeName": "CircleR8",
                "FAMCBLCIFCJ": "Enemy",
                "CONEFMBNECE": 1.0
              },
              "predicates": [
                {
                  "$type": "DLLOJMFICPG",
                  "JBEIOINCLFB": [
                    "Gadget",
                    "Gear",
                    "Monster"
                  ]
                }
              ],
              "CCJPKLDHIIJ": true
            },
            {
              "$type": "MoleMole.Config.ApplyModifier",
              "modifierName": "ElementFire"
            },
            {
              "$type": "MoleMole.Config.SetAnimatorTrigger",
              "triggerID": "Panda_Attack_Trigger",
              "HLKBAOMMIGG": true
            }
          ]
        },
        "ElementFire": {
          "modifierName": "",
          "duration": 0.5,
          "elementType": "Fire",
          "elementDurability": 20.0
        },
        "GenerateElemBall_PandaFire": {
          "modifierName": "",
          "elementDurability": 100.0,
          "GAPANNMIBJA": [
            {
              "$type": "MoleMole.Config.Predicated",
              "MLDBFKEGPEF": "Target",
              "CKBKOCJPJMM": [
                {
                  "$type": "DLLOJMFICPG",
                  "JBEIOINCLFB": [
                    "Monster"
                  ]
                },
                {
                  "$type": "IPGGGPIJONN",
                  "key": "_ANIMAL_ENTITY_TYPE",
                  "value": 0.0,
                  "compareType": "NoneOrEqual"
                }
              ],
              "successActions": [
                {
                  "$type": "MoleMole.Config.AttachModifier",
                  "modifierName": "Ball"
                }
              ]
            },
            {
              "$type": "MoleMole.Config.Predicated",
              "MLDBFKEGPEF": "Target",
              "CKBKOCJPJMM": [
                {
                  "$type": "DLLOJMFICPG",
                  "JBEIOINCLFB": [
                    "Monster"
                  ]
                }
              ],
              "successActions": [
                {
                  "$type": "MoleMole.Config.RemoveUniqueModifier",
                  "MLDBFKEGPEF": "Target",
                  "predicates": [
                    {
                      "$type": "ABHDLPFHDCB",
                      "talentParam": "Xiangling_Talent_231"
                    }
                  ],
                  "modifierName": "UNIQUE_Xiangling_Talent_231"
                },
                {
                  "$type": "MoleMole.Config.ApplyModifier",
                  "MLDBFKEGPEF": "Target",
                  "predicates": [
                    {
                      "$type": "ABHDLPFHDCB",
                      "talentParam": "Xiangling_Talent_231"
                    }
                  ],
                  "modifierName": "UNIQUE_Xiangling_Talent_231"
                }
              ]
            }
          ]
        },
        "Ball": {
          "EODJPKICNGG": "Unique",
          "modifierName": "",
          "duration": 1.0,
          "elementDurability": 100.0,
          "OAOGLLGGJPD": [
            {
              "$type": "MoleMole.Config.Randomed",
              "HIMGGNECCNH": 1.0,
              "successActions": [
                {
                  "$type": "MoleMole.Config.GenerateElemBall",
                  "MLDBFKEGPEF": "SelfAttackTarget",
                  "configID": 2017,
                  "born": {
                    "$type": "INKMBJGOPCK",
                    "offset": {
                      "GOAPOLCAJBP": 0.0,
                      "FMOPCJGGFMH": 0.0,
                      "EJJEPFCDDAM": 0.0
                    }
                  },
                  "ratio": "GetElementRatio",
                  "AOHBMEIPJHE": 3.0
                }
              ]
            }
          ]
        },
        "UNIQUE_Xiangling_Talent_231": {
          "modifierName": "",
          "LLIJGLMEHFK": true,
          "duration": "Xiangling_Talent_231_P2_FireDefDownTime",
          "elementDurability": 100.0,
          "EPKCPIKGJOJ": {
            "Actor_FireSubHurtDelta": "Xiangling_Talent_231_P1_FireDefDown"
          },
          "state": "DefenseDown",
          "MLEHCOACPPM": true
        }
      },
      "OAOGLLGGJPD": [
        {
          "$type": "MoleMole.Config.ApplyModifier",
          "modifierName": "FireAttack"
        }
      ],
      "DOFDCKKDGHL": [
        {
          "$type": "MoleMole.Config.Randomed",
          "predicates": [
            {
              "$type": "ABHDLPFHDCB",
              "talentParam": "Xiangling_ProudSkill_24"
            }
          ],
          "HIMGGNECCNH": 1.0,
          "successActions": [
            {
              "$type": "MoleMole.Config.CreateGadget",
              "born": {
                "$type": "INKMBJGOPCK",
                "offset": {
                  "GOAPOLCAJBP": 0.0,
                  "FMOPCJGGFMH": 0.0,
                  "EJJEPFCDDAM": 0.0
                }
              },
              "gadgetID": 41023003,
              "campID": 1001,
              "FAMCBLCIFCJ": "Enemy"
            }
          ]
        }
      ]
    }
  },
  {
    "Default": {
      "$type": "MoleMole.Config.GNKCLKNDOAK",
      "abilityName": "Avatar_Xiangling_PandaFire_Effect",
      "LLLCANIGIOE": {
        "Xiangling_ProudSkill_24_Level": 0.0
      },
      "EIIHGJGFDHC": [
        {
          "$type": "MoleMole.Config.FireEffect",
          "predicates": [
            {
              "$type": "JNLEGGEGABE",
              "logic": "Equal",
              "NOKCPJMKGDG": "",
              "BHBHIEHIPFI": "Xiangling_ProudSkill_24_Level",
              "NALLGAAJHOD": 1.0
            }
          ],
          "effectPattern": "Eff_Avatar_Girl_Pole_Xiangling_PandaFire_Fire1",
          "effectTempleteID": -1.0
        },
        {
          "$type": "MoleMole.Config.FireEffect",
          "predicates": [
            {
              "$type": "JNLEGGEGABE",
              "logic": "Equal",
              "NOKCPJMKGDG": "",
              "BHBHIEHIPFI": "Xiangling_ProudSkill_24_Level",
              "NALLGAAJHOD": 0.0
            }
          ],
          "effectPattern": "Eff_Avatar_Girl_Pole_Xiangling_PandaFire_Fire",
          "effectTempleteID": -1.0
        }
      ]
    }
  },
  {
    "Default": {
      "$type": "MoleMole.Config.GNKCLKNDOAK",
      "abilityName": "Avatar_Xiangling_PandaFire_Attack",
      "LLLCANIGIOE": {
        "Xiangling_ProudSkill_23_P1_Range": 0.0,
        "XiangLing_ProudSkill32_P1_Damage_Percentage": 0.0
      },
      "EIIHGJGFDHC": [
        {
          "$type": "MoleMole.Config.TriggerAttackEvent",
          "attackEvent": {
            "attackPattern": {
              "$type": "LGEKKELKDAN",
              "triggerType": "TriggerNoRepeat",
              "born": {
                "$type": "KPFCCIOJAMK",
                "offset": {
                  "GOAPOLCAJBP": 0.0,
                  "FMOPCJGGFMH": -1.0,
                  "EJJEPFCDDAM": 0.0
                }
              },
              "height": 2.0,
              "fanAngle": 60.0,
              "MFGGJCPPBGA": [
                5.0,
                "Xiangling_ProudSkill_23_P1_Range",
                "MUL",
                5.0,
                "ADD"
              ]
            },
            "attackInfo": {
              "attackTag": "Elemental_Art",
              "attenuationTag": "",
              "attenuationGroup": "default",
              "attackProperty": {
                "JMLMDDCBIAO": "XiangLing_ProudSkill32_P1_Damage_Percentage",
                "damagePercentageRatio": 0.0,
                "elementType": "Fire",
                "elementDurability": 25.0,
                "strikeType": "Default",
                "enBreak": 32.0,
                "attackType": "Range",
                "damagePercentage": 0.0
              },
              "hitPattern": {
                "onHitEffectName": "default",
                "hitImpulseY": "",
                "hitImpulseType": "LV3",
                "hitHaltTimeScale": 0.009999999776482582
              },
              "canBeModifiedBy": "OriginOwner"
            }
          },
          "targetType": "Enemy"
        }
      ]
    }
  },
  {
    "Default": {
      "$type": "MoleMole.Config.GNKCLKNDOAK",
      "abilityName": "Avatar_Xiangling_PandaPepper",
      "LLLCANIGIOE": {
        "Xiangling_ProudSkill24_P1_AttackUpRate": 0.0,
        "Xiangling_ProudSkill24_P2_AttackUpTime": 0.0
      },
      "BFBDNNJCDLH": {
        "Timer": {
          "modifierName": "",
          "duration": 0.5,
          "elementDurability": 100.0,
          "MINFJCDAIBB": [
            {
              "$type": "MoleMole.Config.ApplyModifier",
              "modifierName": "CheckAlliance"
            }
          ]
        },
        "CheckAlliance": {
          "modifierName": "",
          "elementDurability": 100.0,
          "BNJENAIMDPL": 0.10000000149011612,
          "PJKELBNICOI": [
            {
              "$type": "MoleMole.Config.Predicated",
              "otherTargets": {
                "$type": "DOMPKGOHKNB",
                "shapeName": "CircleR1",
                "FAMCBLCIFCJ": "Alliance",
                "CONEFMBNECE": 1.0
              },
              "CKBKOCJPJMM": [
                {
                  "$type": "DLLOJMFICPG",
                  "JBEIOINCLFB": [
                    "Avatar"
                  ]
                }
              ],
              "successActions": [
                {
                  "$type": "MoleMole.Config.RemoveUniqueModifier",
                  "MLDBFKEGPEF": "Target",
                  "modifierName": "UNIQUE_PanderPepper_Attackup"
                },
                {
                  "$type": "MoleMole.Config.ApplyModifier",
                  "MLDBFKEGPEF": "Target",
                  "modifierName": "UNIQUE_PanderPepper_Attackup"
                },
                {
                  "$type": "MoleMole.Config.KillSelf"
                }
              ]
            }
          ]
        },
        "UNIQUE_PanderPepper_Attackup": {
          "modifierName": "",
          "LLIJGLMEHFK": true,
          "duration": "Xiangling_ProudSkill24_P2_AttackUpTime",
          "elementDurability": 100.0,
          "EPKCPIKGJOJ": {
            "Actor_AttackRatio": "Xiangling_ProudSkill24_P1_AttackUpRate"
          },
          "state": "AttackUp",
          "MLEHCOACPPM": true
        }
      },
      "OAOGLLGGJPD": [
        {
          "$type": "MoleMole.Config.ApplyModifier",
          "modifierName": "Timer"
        },
        {
          "$type": "MoleMole.Config.AttachEffect",
          "effectPattern": "Eff_Avatar_Girl_Pole_Xiangling_Pepper",
          "effectTempleteID": -1.0
        }
      ]
    }
  },
  {
    "Default": {
      "$type": "MoleMole.Config.GNKCLKNDOAK",
      "abilityName": "Avatar_Xiangling_FireCircleSkillStart",
      "PIDAPNFJNDF": [
        {
          "$type": "MoleMole.Config.AttachToStateIDMixin",
          "stateIDs": [
            "Xiangling_FireCircle"
          ],
          "modifierName": "invincible",
          "MJFJKAHGHDJ": ""
        },
        {
          "$type": "MoleMole.Config.AttachToStateIDMixin",
          "stateIDs": [
            "Xiangling_FireCircle"
          ],
          "modifierName": "isGhost",
          "MJFJKAHGHDJ": ""
        },
        {
          "$type": "MoleMole.Config.AttachToNormalizedTimeMixin",
          "GOPFOAFEKLC": "FireCircle",
          "modifierName": "Camera_Handler",
          "normalizeEnd": 0.6740000247955322,
          "MJFJKAHGHDJ": ""
        }
      ],
      "LLLCANIGIOE": {
        "FireUp": 0.10000000149011612
      },
      "BFBDNNJCDLH": {
        "isGhost": {
          "modifierName": "",
          "elementDurability": 100.0,
          "OAOGLLGGJPD": [
            {
              "$type": "MoleMole.Config.AttachAbilityStateResistance",
              "OHNGCCEOFAM": 11002
            }
          ]
        },
        "invincible": {
          "modifierName": "",
          "elementDurability": 100.0,
          "state": "Invincible"
        },
        "Camera_Handler": {
          "modifierName": "",
          "elementDurability": 100.0,
          "MINFJCDAIBB": [
            {
              "$type": "MoleMole.Config.AvatarCameraParam",
              "cameraParam": {
                "forceRadius": 5.5,
                "forceRadiusDuration": 0.6000000238418579,
                "shouldKeepForceRadius": true
              }
            },
            {
              "$type": "MoleMole.Config.AvatarExitCameraShot"
            }
          ],
          "JOHFNNOKAOA": [
            {
              "$type": "MoleMole.Config.AvatarCameraParam",
              "doOffStage": true,
              "cameraParam": {
                "forceRadius": 5.5,
                "forceRadiusDuration": 0.6000000238418579,
                "shouldKeepForceRadius": true
              }
            },
            {
              "$type": "MoleMole.Config.AvatarExitCameraShot",
              "doOffStage": true
            }
          ]
        }
      }
    }
  },
  {
    "Default": {
      "$type": "MoleMole.Config.GNKCLKNDOAK",
      "abilityName": "Avatar_Xiangling_FireCircle01",
      "LLLCANIGIOE": {
        "XiangLing_ProudSkill33_P2_Damage_Percentage": 0.0
      },
      "EIIHGJGFDHC": [
        {
          "$type": "MoleMole.Config.AvatarSkillStart",
          "skillID": 10235,
          "NMIGBFNNFKL": 1.0,
          "AGCOINPAHEO": 1.0
        },
        {
          "$type": "MoleMole.Config.TriggerAttackEvent",
          "predicates": [
            {
              "$type": "OFEHCLIGCND",
              "predicates": [
                {
                  "$type": "DLLOJMFICPG",
                  "JBEIOINCLFB": [
                    "Grass",
                    "Water"
                  ]
                }
              ]
            }
          ],
          "attackEvent": {
            "attackPattern": {
              "$type": "LGEKKELKDAN",
              "triggerType": "TriggerNoRepeat",
              "born": {
                "$type": "KPFCCIOJAMK",
                "offset": {
                  "GOAPOLCAJBP": 0.0,
                  "FMOPCJGGFMH": 0.0,
                  "EJJEPFCDDAM": 0.0
                }
              },
              "MFGGJCPPBGA": 2.5
            },
            "attackInfo": {
              "attackTag": "Elemental_Burst",
              "attenuationTag": "Elemental_Burst",
              "attenuationGroup": "default",
              "attackProperty": {
                "JMLMDDCBIAO": "XiangLing_ProudSkill33_P2_Damage_Percentage",
                "damagePercentageRatio": 0.0,
                "elementType": "Fire",
                "elementRank": 3.0,
                "elementDurability": 25.0,
                "strikeType": "Spear",
                "attackType": "Melee",
                "damagePercentage": 0.0
              },
              "hitPattern": {
                "onHitEffectName": "default",
                "hitImpulseY": "",
                "hitImpulseType": "LV3",
                "retreatType": "ByHitDirection",
                "hitHaltTime": 0.029999999329447746,
                "hitHaltTimeScale": 0.009999999776482582,
                "canBeDefenceHalt": true
              },
              "cameraShake": {
                "shakeType": "CustomVector",
                "shakeRange": 0.11999999731779099,
                "shakeTime": 0.09000000357627869,
                "shakeDistance": 30.0,
                "shakeDir": {
                  "x": -1.0
                }
              }
            }
          },
          "targetType": "Enemy"
        }
      ]
    }
  },
  {
    "Default": {
      "$type": "MoleMole.Config.GNKCLKNDOAK",
      "abilityName": "Avatar_Xiangling_FireCircle02",
      "LLLCANIGIOE": {
        "XiangLing_ProudSkill33_P3_Damage_Percentage": 0.0
      },
      "EIIHGJGFDHC": [
        {
          "$type": "MoleMole.Config.TriggerAttackEvent",
          "predicates": [
            {
              "$type": "OFEHCLIGCND",
              "predicates": [
                {
                  "$type": "DLLOJMFICPG",
                  "JBEIOINCLFB": [
                    "Grass",
                    "Water"
                  ]
                }
              ]
            }
          ],
          "attackEvent": {
            "attackPattern": {
              "$type": "LGEKKELKDAN",
              "triggerType": "TriggerNoRepeat",
              "born": {
                "$type": "KPFCCIOJAMK",
                "offset": {
                  "GOAPOLCAJBP": 0.0,
                  "FMOPCJGGFMH": 0.0,
                  "EJJEPFCDDAM": 0.0
                }
              },
              "MFGGJCPPBGA": 2.5
            },
            "attackInfo": {
              "attackTag": "Elemental_Burst",
              "attenuationTag": "Elemental_Burst",
              "attenuationGroup": "default",
              "attackProperty": {
                "JMLMDDCBIAO": "XiangLing_ProudSkill33_P3_Damage_Percentage",
                "damagePercentageRatio": 0.0,
                "elementType": "Fire",
                "elementRank": 3.0,
                "elementDurability": 25.0,
                "strikeType": "Spear",
                "attackType": "Melee",
                "damagePercentage": 0.0
              },
              "hitPattern": {
                "onHitEffectName": "default",
                "hitImpulseY": "",
                "hitImpulseType": "LV3",
                "retreatType": "ByHitDirection",
                "hitHaltTime": 0.029999999329447746,
                "hitHaltTimeScale": 0.009999999776482582,
                "canBeDefenceHalt": true
              },
              "cameraShake": {
                "shakeType": "CustomVector",
                "shakeRange": 0.11999999731779099,
                "shakeTime": 0.09000000357627869,
                "shakeDistance": 30.0,
                "shakeDir": {
                  "x": -1.0
                }
              }
            }
          },
          "targetType": "Enemy"
        }
      ]
    }
  },
  {
    "Default": {
      "$type": "MoleMole.Config.GNKCLKNDOAK",
      "abilityName": "Avatar_Xiangling_FireCircle03",
      "LLLCANIGIOE": {
        "XiangLing_ProudSkill33_P4_Damage_Percentage": 0.0
      },
      "EIIHGJGFDHC": [
        {
          "$type": "MoleMole.Config.TriggerAttackEvent",
          "attackEvent": {
            "attackPattern": {
              "$type": "LGEKKELKDAN",
              "triggerType": "TriggerNoRepeat",
              "born": {
                "$type": "KPFCCIOJAMK",
                "offset": {
                  "GOAPOLCAJBP": 0.0,
                  "FMOPCJGGFMH": 0.0,
                  "EJJEPFCDDAM": 0.0
                }
              },
              "MFGGJCPPBGA": 3.0
            },
            "attackInfo": {
              "attackTag": "Elemental_Burst",
              "attenuationTag": "Elemental_Burst",
              "attenuationGroup": "default",
              "attackProperty": {
                "JMLMDDCBIAO": "XiangLing_ProudSkill33_P4_Damage_Percentage",
                "damagePercentageRatio": 0.0,
                "elementType": "Fire",
                "elementRank": 3.0,
                "elementDurability": 25.0,
                "strikeType": "Spear",
                "attackType": "Melee",
                "damagePercentage": 0.0
              },
              "hitPattern": {
                "onHitEffectName": "default",
                "hitImpulseY": "",
                "hitImpulseType": "LV3",
                "retreatType": "ByHitDirection",
                "hitHaltTime": 0.029999999329447746,
                "hitHaltTimeScale": 0.009999999776482582,
                "canBeDefenceHalt": true
              },
              "cameraShake": {
                "shakeType": "CustomVector",
                "shakeRange": 0.15000000596046448,
                "shakeTime": 0.11999999731779099,
                "shakeDistance": 30.0,
                "shakeDir": {
                  "x": -1.0,
                  "y": -0.30000001192092896
                }
              }
            }
          },
          "targetType": "Enemy"
        }
      ]
    }
  },
  {
    "Default": {
      "$type": "MoleMole.Config.GNKCLKNDOAK",
      "abilityName": "Avatar_Xiangling_FireCircle",
      "EIIHGJGFDHC": [
        {
          "$type": "MoleMole.Config.TriggerBullet",
          "DCNFGAGBCMP": 41023004,
          "born": {
            "$type": "INKMBJGOPCK",
            "offset": {
              "GOAPOLCAJBP": -0.6000000238418579,
              "FMOPCJGGFMH": 1.0,
              "EJJEPFCDDAM": 0.6000000238418579
            }
          },
          "DGEKFHHECPG": "Caster"
        }
      ]
    }
  },
  {
    "Default": {
      "$type": "MoleMole.Config.GNKCLKNDOAK",
      "abilityName": "Avatar_Xiangling_FireCircle_Material",
      "LLLCANIGIOE": {
        "Dua": 0.5,
        "XiangLing_ProudSkill33_P1_Damage_Percentage": 0.0,
        "Xiangling_Talent_236_P1_FireAddHurtDelta": 0.0,
        "Time_Rate": 0.0,
        "FireCircleTime": 0.0
      },
      "BFBDNNJCDLH": {
        "Effect_Modifier": {
          "modifierName": "",
          "elementDurability": 100.0,
          "OAOGLLGGJPD": [
            {
              "$type": "MoleMole.Config.AttachEffect",
              "effectPattern": "Eff_Avatar_Girl_Pole_Xiangling_FireCircle_01",
              "born": {
                "$type": "CDIHEPNNOON",
                "offset": {
                  "GOAPOLCAJBP": 0.0,
                  "FMOPCJGGFMH": 0.0,
                  "EJJEPFCDDAM": 0.0
                },
                "direction": {
                  "$type": "LIHFBAPJMCK",
                  "angleOffset": {
                    "GOAPOLCAJBP": 0.0,
                    "FMOPCJGGFMH": 0.0,
                    "EJJEPFCDDAM": 0.0
                  }
                }
              },
              "effectTempleteID": -1.0
            }
          ]
        },
        "Collider_Open_Timer": {
          "modifierName": "",
          "duration": 0.4000000059604645,
          "elementDurability": 100.0,
          "MINFJCDAIBB": [
            {
              "$type": "MoleMole.Config.EnablePushColliderName",
              "DOFAFEMMILL": [
                "AttackBox"
              ],
              "NJKBCLADIBK": true
            }
          ]
        },
        "Timeline1": {
          "modifierName": "",
          "duration": 1.100000023841858,
          "elementDurability": 100.0,
          "BNJENAIMDPL": 0.5,
          "PJKELBNICOI": [
            {
              "$type": "MoleMole.Config.ApplyModifier",
              "modifierName": "Change_Radius"
            }
          ]
        },
        "Xiangling_Talent_236_FireAttackUpHandler": {
          "modifierName": "",
          "duration": 15.0,
          "elementDurability": 100.0,
          "BNJENAIMDPL": 0.6000000238418579,
          "OAOGLLGGJPD": [
            {
              "$type": "MoleMole.Config.ApplyModifier",
              "MLDBFKEGPEF": "AllPlayerAvatars",
              "doOffStage": true,
              "predicates": [
                {
                  "$type": "BKCFCDOEENL",
                  "logic": "LesserOrEqual",
                  "value": 40.0,
                  "EGBKHFGDFLF": ""
                }
              ],
              "modifierName": "UNIQUE_Xiangling_Talent_236_FireAttackUp"
            }
          ],
          "PJKELBNICOI": [
            {
              "$type": "MoleMole.Config.ApplyModifier",
              "MLDBFKEGPEF": "AllPlayerAvatars",
              "doOffStage": true,
              "predicates": [
                {
                  "$type": "BKCFCDOEENL",
                  "logic": "LesserOrEqual",
                  "value": 40.0,
                  "EGBKHFGDFLF": ""
                }
              ],
              "modifierName": "UNIQUE_Xiangling_Talent_236_FireAttackUp"
            }
          ]
        },
        "UNIQUE_Xiangling_Talent_236_FireAttackUp": {
          "modifierName": "",
          "LLIJGLMEHFK": true,
          "duration": 1.0,
          "elementDurability": 100.0,
          "EPKCPIKGJOJ": {
            "Actor_FireAddHurtDelta": "Xiangling_Talent_236_P1_FireAddHurtDelta"
          },
          "state": "AttackUp",
          "MLEHCOACPPM": true
        },
        "Xiangling_ProudSkill_33": {
          "modifierName": "",
          "elementDurability": 100.0,
          "JPIFFPJJEMK": [
            {
              "$type": "MoleMole.Config.ModifyDamageMixin",
              "attackTags": [
                "Elemental_Burst"
              ],
              "JMLMDDCBIAO": "XiangLing_ProudSkill33_P1_Damage_Percentage",
              "damagePercentageRatio": 0.0
            }
          ]
        },
        "Change_Radius": {
          "EODJPKICNGG": "Multiple",
          "modifierName": "",
          "elementDurability": 100.0,
          "EPKCPIKGJOJ": {
            "Actor_BulletMoveSurroundRadiusRatio": 0.3499999940395355
          }
        },
        "Xiangling_FireCircle_Time": {
          "modifierName": "",
          "duration": [
            "Time_Rate",
            "FireCircleTime",
            "MUL",
            "FireCircleTime",
            "ADD"
          ],
          "elementDurability": 100.0,
          "MINFJCDAIBB": [
            {
              "$type": "MoleMole.Config.KillSelf"
            }
          ]
        }
      },
      "OAOGLLGGJPD": [
        {
          "$type": "MoleMole.Config.AttachModifier",
          "modifierName": "Effect_Modifier"
        },
        {
          "$type": "MoleMole.Config.ApplyModifier",
          "modifierName": "Xiangling_FireCircle_Time"
        },
        {
          "$type": "MoleMole.Config.ApplyModifier",
          "modifierName": "Change_Radius"
        },
        {
          "$type": "MoleMole.Config.ApplyModifier",
          "modifierName": "Timeline1"
        },
        {
          "$type": "MoleMole.Config.AttachModifier",
          "predicates": [
            {
              "$type": "ABHDLPFHDCB",
              "talentParam": "Xiangling_Talent_236"
            }
          ],
          "modifierName": "Xiangling_Talent_236_FireAttackUpHandler"
        },
        {
          "$type": "MoleMole.Config.RemoveModifier",
          "predicates": [
            {
              "$type": "OFEHCLIGCND",
              "predicates": [
                {
                  "$type": "ABHDLPFHDCB",
                  "talentParam": "Xiangling_Talent_236"
                }
              ]
            }
          ],
          "modifierName": "Xiangling_Talent_236_FireAttackUpHandler"
        },
        {
          "$type": "MoleMole.Config.ApplyModifier",
          "modifierName": "Xiangling_ProudSkill_33"
        },
        {
          "$type": "MoleMole.Config.ApplyModifier",
          "modifierName": "Collider_Open_Timer"
        }
      ]
    }
  },
  {
    "Default": {
      "$type": "MoleMole.Config.GNKCLKNDOAK",
      "abilityName": "Avatar_Xiangling_Talent_NormalMoveWeapon",
      "PIDAPNFJNDF": [
        {
          "$type": "MoleMole.Config.AttachToStateIDMixin",
          "stateIDs": [
            "NormalMove"
          ],
          "modifierName": "MoveSpeed",
          "MJFJKAHGHDJ": ""
        }
      ],
      "LLLCANIGIOE": {
        "MoveSpeed": 0.019999999552965164
      },
      "BFBDNNJCDLH": {
        "MoveSpeed": {
          "modifierName": "",
          "elementDurability": 100.0,
          "EPKCPIKGJOJ": {
            "Animator_OverallSpeedRatio": "MoveSpeed"
          }
        }
      }
    }
  },
  {
    "Default": {
      "$type": "MoleMole.Config.GNKCLKNDOAK",
      "abilityName": "Avatar_Xiangling_TalentBomb",
      "LLLCANIGIOE": {
        "Xiangling_Talent_232_P1_Bomb_Time": 0.0,
        "Xiangling_Talent_232_P2_Bomb_Range": 0.0,
        "Xiangling_Talent_232_P3_Bomb_Damage": 0.0
      },
      "BFBDNNJCDLH": {
        "TalentBomb_Handler": {
          "modifierName": "",
          "elementDurability": 100.0,
          "MINFJCDAIBB": [
            {
              "$type": "MoleMole.Config.ApplyModifier",
              "doOffStage": true,
              "modifierName": "TalentBomb_Cd"
            }
          ],
          "GAPANNMIBJA": [
            {
              "$type": "MoleMole.Config.Predicated",
              "MLDBFKEGPEF": "Target",
              "CKBKOCJPJMM": [
                {
                  "$type": "AIIEFALBANL",
                  "attackTags": [
                    "NormalAttack_05"
                  ]
                },
                {
                  "$type": "DLLOJMFICPG",
                  "JBEIOINCLFB": [
                    "Monster"
                  ]
                }
              ],
              "successActions": [
                {
                  "$type": "MoleMole.Config.ApplyModifier",
                  "MLDBFKEGPEF": "Target",
                  "modifierName": "Bomb"
                },
                {
                  "$type": "MoleMole.Config.RemoveModifier",
                  "modifierName": "TalentBomb_Handler"
                }
              ]
            }
          ]
        },
        "TalentBomb_Cd": {
          "EODJPKICNGG": "Unique",
          "modifierName": "",
          "duration": 1.0,
          "elementDurability": 100.0,
          "MINFJCDAIBB": [
            {
              "$type": "MoleMole.Config.ApplyModifier",
              "doOffStage": true,
              "modifierName": "TalentBomb_Handler"
            }
          ]
        },
        "Bomb": {
          "modifierName": "",
          "duration": [
            "Xiangling_Talent_232_P1_Bomb_Time",
            0.5,
            "ADD"
          ],
          "elementDurability": 100.0,
          "BNJENAIMDPL": "Xiangling_Talent_232_P1_Bomb_Time",
          "OAOGLLGGJPD": [
            {
              "$type": "MoleMole.Config.AttachEffect",
              "effectPattern": "Eff_Avatar_Girl_Pole_Xiangling_TalentBomb",
              "effectTempleteID": -1.0
            }
          ],
          "PJKELBNICOI": [
            {
              "$type": "MoleMole.Config.FireEffect",
              "effectPattern": "Eff_Avatar_Girl_Pole_Xiangling_TalentBombExplode",
              "effectTempleteID": -1.0
            },
            {
              "$type": "MoleMole.Config.TriggerAttackEvent",
              "MLDBFKEGPEF": "Caster",
              "attackEvent": {
                "attackPattern": {
                  "$type": "LGEKKELKDAN",
                  "triggerType": "TriggerNoRepeat",
                  "ignoreMassive": true,
                  "born": {
                    "$type": "KPFCCIOJAMK",
                    "offset": {
                      "GOAPOLCAJBP": 0.0,
                      "FMOPCJGGFMH": -0.20000000298023224,
                      "EJJEPFCDDAM": 0.0
                    }
                  },
                  "height": 2.0,
                  "MFGGJCPPBGA": "Xiangling_Talent_232_P2_Bomb_Range"
                },
                "attackInfo": {
                  "attackTag": "",
                  "attenuationTag": "",
                  "attenuationGroup": "default",
                  "attackProperty": {
                    "JMLMDDCBIAO": "Xiangling_Talent_232_P3_Bomb_Damage",
                    "damagePercentageRatio": 0.0,
                    "elementType": "Fire",
                    "elementDurability": 25.0,
                    "strikeType": "Default",
                    "enBreak": 8.800000190734863,
                    "attackType": "Range",
                    "damagePercentage": 0.0
                  },
                  "hitPattern": {
                    "onHitEffectName": "default",
                    "hitImpulseY": "",
                    "hitImpulseType": "LV2",
                    "retreatType": "ByHitDirection",
                    "hitHaltTimeScale": 0.009999999776482582
                  },
                  "canBeModifiedBy": "OriginOwner"
                }
              },
              "targetType": "Enemy"
            }
          ]
        }
      },
      "OAOGLLGGJPD": [
        {
          "$type": "MoleMole.Config.ApplyModifier",
          "modifierName": "TalentBomb_Handler"
        }
      ],
      "LLNGCHGGPLC": true
    }
  },
  {
    "Default": {
      "$type": "MoleMole.Config.GNKCLKNDOAK",
      "abilityName": "Avatar_Xiangling_TalentBombGadget",
      "LLLCANIGIOE": {
        "Bomb_Damage": 0.20000000298023224,
        "Xiangling_Talent_232_P1_Bomb_Time": 0.0,
        "Xiangling_Talent_232_P2_Bomb_Range": 0.0,
        "Xiangling_Talent_232_P3_Bomb_Damage": 0.0
      },
      "OAOGLLGGJPD": [
        {
          "$type": "MoleMole.Config.AttachEffect",
          "effectPattern": "Eff_Avatar_Girl_Pole_Xiangling_TalentBomb",
          "effectTempleteID": -1.0
        }
      ],
      "EIIHGJGFDHC": [
        {
          "$type": "MoleMole.Config.FireEffect",
          "effectPattern": "Eff_Avatar_Girl_Pole_Xiangling_TalentBombExplode",
          "effectTempleteID": -1.0
        },
        {
          "$type": "MoleMole.Config.TriggerAttackEvent",
          "attackEvent": {
            "attackPattern": {
              "$type": "LGEKKELKDAN",
              "triggerType": "TriggerNoRepeat",
              "ignoreMassive": true,
              "born": {
                "$type": "KPFCCIOJAMK",
                "offset": {
                  "GOAPOLCAJBP": 0.0,
                  "FMOPCJGGFMH": -0.20000000298023224,
                  "EJJEPFCDDAM": 0.0
                }
              },
              "height": 2.0,
              "MFGGJCPPBGA": 2.5
            },
            "attackInfo": {
              "attackTag": "",
              "attenuationTag": "",
              "attenuationGroup": "default",
              "attackProperty": {
                "JMLMDDCBIAO": "Xiangling_Talent_232_P3_Bomb_Damage",
                "damagePercentageRatio": 0.0,
                "elementType": "Fire",
                "elementDurability": 25.0,
                "strikeType": "Default",
                "enBreak": 8.800000190734863,
                "attackType": "Range",
                "damagePercentage": 0.0
              },
              "hitPattern": {
                "onHitEffectName": "default",
                "hitImpulseY": "",
                "hitImpulseType": "LV2",
                "retreatType": "ByHitDirection",
                "hitHaltTimeScale": 0.009999999776482582
              },
              "canBeModifiedBy": "OriginOwner"
            }
          },
          "targetType": "Enemy"
        }
      ]
    }
  },
  {
    "Default": {
      "$type": "MoleMole.Config.GNKCLKNDOAK",
      "abilityName": "Avatar_Xiangling_NormalAttackDamage",
      "PIDAPNFJNDF": [
        {
          "$type": "MoleMole.Config.ModifyDamageMixin",
          "attackTags": [
            "NormalAttack_01"
          ],
          "JMLMDDCBIAO": "Attack01",
          "damagePercentageRatio": 0.0
        },
        {
          "$type": "MoleMole.Config.ModifyDamageMixin",
          "attackTags": [
            "NormalAttack_02"
          ],
          "JMLMDDCBIAO": "Attack02",
          "damagePercentageRatio": 0.0
        },
        {
          "$type": "MoleMole.Config.ModifyDamageMixin",
          "attackTags": [
            "NormalAttack_03"
          ],
          "JMLMDDCBIAO": "Attack03",
          "damagePercentageRatio": 0.0
        },
        {
          "$type": "MoleMole.Config.ModifyDamageMixin",
          "attackTags": [
            "NormalAttack_04"
          ],
          "JMLMDDCBIAO": "Attack04",
          "damagePercentageRatio": 0.0
        },
        {
          "$type": "MoleMole.Config.ModifyDamageMixin",
          "attackTags": [
            "NormalAttack_05"
          ],
          "JMLMDDCBIAO": "Attack05",
          "damagePercentageRatio": 0.0
        }
      ],
      "LLLCANIGIOE": {
        "Attack01": 0.0,
        "Attack02": 0.0,
        "Attack03": 0.0,
        "Attack04": 0.0,
        "Attack05": 0.0
      }
    }
  },
  {
    "Default": {
      "$type": "MoleMole.Config.GNKCLKNDOAK",
      "abilityName": "Avatar_Xiangling_Show01_RandomEffect",
      "PIDAPNFJNDF": [
        {
          "$type": "MoleMole.Config.AttachToAnimatorStateIDMixin",
          "stateIDs": [
            "StandbyShow_01"
          ],
          "modifierName": "RandomEffect",
          "MJFJKAHGHDJ": ""
        }
      ],
      "BFBDNNJCDLH": {
        "RandomEffect": {
          "modifierName": "",
          "elementDurability": 100.0,
          "OAOGLLGGJPD": [
            {
              "$type": "MoleMole.Config.Randomed",
              "HIMGGNECCNH": 0.5,
              "successActions": [
                {
                  "$type": "MoleMole.Config.AttachEffect",
                  "effectPattern": "Eff_Avatar_Girl_Pole_Xiangling_Show01_00",
                  "effectTempleteID": -1.0
                }
              ],
              "failActions": [
                {
                  "$type": "MoleMole.Config.AttachEffect",
                  "effectPattern": "Eff_Avatar_Girl_Pole_Xiangling_Show02_00",
                  "effectTempleteID": -1.0
                }
              ]
            }
          ]
        }
      }
    }
  },
  {
    "Default": {
      "$type": "MoleMole.Config.GNKCLKNDOAK",
      "abilityName": "Avatar_Xiangling_FallingAnthem",
      "PIDAPNFJNDF": [
        {
          "$type": "MoleMole.Config.AvatarChangeSkillMixin",
          "KGEMAFCBDNE": 5023010,
          "PCPPHBHAHCD": 5023010
        },
        {
          "$type": "MoleMole.Config.AttachToStateIDMixin",
          "stateIDs": [
            "FallingAnthem_BS"
          ],
          "modifierName": "FallingAnthem_BS_Material",
          "MJFJKAHGHDJ": ""
        },
        {
          "$type": "MoleMole.Config.AttachToStateIDMixin",
          "stateIDs": [
            "FallingAnthem_Loop"
          ],
          "modifierName": "FallingAnthem_Loop_Normal",
          "MJFJKAHGHDJ": ""
        },
        {
          "$type": "MoleMole.Config.AttachToStateIDMixin",
          "stateIDs": [
            "FallingAnthem_Loop"
          ],
          "modifierName": "FallingAnthem_LoopDamage",
          "MJFJKAHGHDJ": ""
        },
        {
          "$type": "MoleMole.Config.AttachToStateIDMixin",
          "stateIDs": [
            "FallingAnthem_BS"
          ],
          "modifierName": "FallingAnthem_BS_VelocityForce_Initialize",
          "MJFJKAHGHDJ": ""
        },
        {
          "$type": "MoleMole.Config.AttachToStateIDMixin",
          "stateIDs": [
            "FallingAnthem_BS",
            "FallingAnthem_Loop",
            "FallingAnthem_AS_1",
            "FallingAnthem_AS_2"
          ],
          "modifierName": "FallingAnthem_Height_Detect",
          "MJFJKAHGHDJ": ""
        },
        {
          "$type": "MoleMole.Config.AttachToStateIDMixin",
          "stateIDs": [
            "FallingAnthem_BS",
            "FallingAnthem_Loop",
            "FallingAnthem_AS_1",
            "FallingAnthem_AS_2"
          ],
          "modifierName": "FallingAnthem_FallingDamageImmune_01",
          "MJFJKAHGHDJ": ""
        },
        {
          "$type": "MoleMole.Config.AttachToStateIDMixin",
          "stateIDs": [
            "FallingAnthem_BS",
            "FallingAnthem_Loop"
          ],
          "modifierName": "Inertia",
          "MJFJKAHGHDJ": ""
        },
        {
          "$type": "MoleMole.Config.AttachToStateIDMixin",
          "stateIDs": [
            "FallingAnthem_BS",
            "FallingAnthem_Loop",
            "FallingAnthem_AS_1",
            "FallingAnthem_AS_2"
          ],
          "modifierName": "FallingAnthem_OverHead_Camera",
          "MJFJKAHGHDJ": ""
        },
        {
          "$type": "MoleMole.Config.AttachToStateIDMixin",
          "stateIDs": [
            "FallingAnthem_BS"
          ],
          "modifierName": "FallingAnthem_ClearVelocityForce",
          "MJFJKAHGHDJ": ""
        }
      ],
      "LLLCANIGIOE": {
        "FallingAnthem_Normal_Loop_Damage": 0.0,
        "FallingAnthem_Normal_Rank_1_Damage": 0.0,
        "FallingAnthem_Normal_Rank_2_Damage": 0.0,
        "FallingAnthem_Altitude_Lv0": 20.0,
        "FallingAnthem_Altitude_Lv1": 40.0,
        "FallingAnthem_Altitude_Lv2": 60.0,
        "FallingAnthem_Altitude_Lv3": 100.0,
        "FallingAnthem_Altitude_Lv4": 200.0,
        "FallingAnthem_FallingDamageRatio_Lv0": -1.0,
        "FallingAnthem_FallingDamageRatio_Lv1": -1.0,
        "FallingAnthem_FallingDamageRatio_Lv2": -0.8999999761581421,
        "FallingAnthem_FallingDamageRatio_Lv3": -0.800000011920929,
        "FallingAnthem_FallingDamageRatio_Lv4": -0.6000000238418579,
        "FallingAnthem_FallingDamageRatio": 0.0
      },
      "BFBDNNJCDLH": {
        "FallingAnthem_BS_Material": {
          "modifierName": "",
          "duration": 0.5299999713897705,
          "elementDurability": 100.0,
          "OAOGLLGGJPD": [
            {
              "$type": "MoleMole.Config.FireEffect",
              "effectPattern": "Eff_Avatar_Pole_FallingAnthem_BS_Normal",
              "effectTempleteID": -1.0
            },
            {
              "$type": "MoleMole.Config.FireEffect",
              "effectPattern": "Eff_Avatar_Sprint_Boost",
              "effectTempleteID": -1.0
            }
          ],
          "MINFJCDAIBB": [
            {
              "$type": "MoleMole.Config.ActCameraRadialBlur",
              "BNKAAOANKPF": {
                "KGALJHJDKGI": 0.30000001192092896,
                "HGJOOLFGKGB": 0.30000001192092896,
                "DKGOEPPEFPN": 0.15000000596046448
              }
            }
          ]
        },
        "FallingAnthem_BS_VelocityForce_Initialize": {
          "modifierName": "",
          "elementDurability": 100.0,
          "EPKCPIKGJOJ": {
            "Actor_AddGravityScale": -2.0
          },
          "OAOGLLGGJPD": [
            {
              "$type": "MoleMole.Config.RemoveVelocityForce",
              "forces": [
                "RushMoveType"
              ]
            }
          ]
        },
        "FallingAnthem_LoopDamage": {
          "modifierName": "",
          "elementDurability": 100.0,
          "BNJENAIMDPL": 0.30000001192092896,
          "OAOGLLGGJPD": [
            {
              "$type": "MoleMole.Config.TriggerAttackEvent",
              "attackEvent": {
                "attackPattern": {
                  "$type": "IJCIPLFIDAK",
                  "triggerType": "TriggerNoRepeat",
                  "born": {
                    "$type": "KPFCCIOJAMK",
                    "offset": {
                      "GOAPOLCAJBP": 0.0,
                      "FMOPCJGGFMH": 0.0,
                      "EJJEPFCDDAM": 1.0
                    }
                  },
                  "MFGGJCPPBGA": 1.0
                },
                "attackInfo": {
                  "attackTag": "FallingAttack",
                  "attenuationTag": "",
                  "attenuationGroup": "default",
                  "attackProperty": {
                    "JMLMDDCBIAO": "FallingAnthem_Normal_Loop_Damage",
                    "damagePercentageRatio": 0.0,
                    "elementDurability": 0.0,
                    "overrideByWeapon": true,
                    "strikeType": "Slash",
                    "enBreak": 25.0,
                    "attackType": "Melee",
                    "damagePercentage": 0.0
                  },
                  "hitPattern": {
                    "onHitEffectName": "default",
                    "hitImpulseY": "",
                    "hitImpulseType": "LV2",
                    "hitHaltTimeScale": 0.019999999552965164
                  }
                }
              },
              "targetType": "Enemy"
            }
          ],
          "PJKELBNICOI": [
            {
              "$type": "MoleMole.Config.TriggerAttackEvent",
              "attackEvent": {
                "attackPattern": {
                  "$type": "IJCIPLFIDAK",
                  "triggerType": "TriggerNoRepeat",
                  "born": {
                    "$type": "KPFCCIOJAMK",
                    "offset": {
                      "GOAPOLCAJBP": 0.0,
                      "FMOPCJGGFMH": 0.0,
                      "EJJEPFCDDAM": 1.0
                    }
                  },
                  "MFGGJCPPBGA": 1.0
                },
                "attackInfo": {
                  "attackTag": "FallingAttack",
                  "attenuationTag": "",
                  "attenuationGroup": "default",
                  "attackProperty": {
                    "JMLMDDCBIAO": "FallingAnthem_Normal_Loop_Damage",
                    "damagePercentageRatio": 0.0,
                    "elementDurability": 0.0,
                    "overrideByWeapon": true,
                    "strikeType": "Slash",
                    "enBreak": 25.0,
                    "attackType": "Melee",
                    "damagePercentage": 0.0
                  },
                  "hitPattern": {
                    "onHitEffectName": "default",
                    "hitImpulseY": "",
                    "hitImpulseType": "LV4",
                    "hitHaltTimeScale": 0.019999999552965164
                  }
                }
              },
              "targetType": "Enemy"
            }
          ]
        },
        "FallingAnthem_FallingDamageImmune_01": {
          "modifierName": "",
          "elementDurability": 100.0,
          "OAOGLLGGJPD": [
            {
              "$type": "MoleMole.Config.ClearGlobalValue",
              "key": "_ABILITY_FallingAttack_Altitude"
            },
            {
              "$type": "MoleMole.Config.AddGlobalValue",
              "predicates": [
                {
                  "$type": "KICGNCCKIBK",
                  "logic": "LesserOrEqual",
                  "value": "FallingAnthem_Altitude_Lv0"
                }
              ],
              "value": "FallingAnthem_FallingDamageRatio_Lv0",
              "key": "_ABILITY_FallingAttack_Altitude",
              "HPICGAMGEGA": true,
              "maxValue": "FallingAnthem_FallingDamageRatio_Lv0",
              "GCEOGBJIFCP": "FallingAnthem_FallingDamageRatio_Lv0"
            },
            {
              "$type": "MoleMole.Config.AddGlobalValue",
              "predicates": [
                {
                  "$type": "KICGNCCKIBK",
                  "logic": "LesserOrEqual",
                  "value": "FallingAnthem_Altitude_Lv1"
                },
                {
                  "$type": "KICGNCCKIBK",
                  "value": "FallingAnthem_Altitude_Lv0"
                }
              ],
              "value": "FallingAnthem_FallingDamageRatio_Lv1",
              "key": "_ABILITY_FallingAttack_Altitude",
              "HPICGAMGEGA": true,
              "maxValue": "FallingAnthem_FallingDamageRatio_Lv1",
              "GCEOGBJIFCP": "FallingAnthem_FallingDamageRatio_Lv1"
            },
            {
              "$type": "MoleMole.Config.AddGlobalValue",
              "predicates": [
                {
                  "$type": "KICGNCCKIBK",
                  "logic": "LesserOrEqual",
                  "value": "FallingAnthem_Altitude_Lv2"
                },
                {
                  "$type": "KICGNCCKIBK",
                  "value": "FallingAnthem_Altitude_Lv1"
                }
              ],
              "value": "FallingAnthem_FallingDamageRatio_Lv2",
              "key": "_ABILITY_FallingAttack_Altitude",
              "HPICGAMGEGA": true,
              "maxValue": "FallingAnthem_FallingDamageRatio_Lv2",
              "GCEOGBJIFCP": "FallingAnthem_FallingDamageRatio_Lv2"
            },
            {
              "$type": "MoleMole.Config.AddGlobalValue",
              "predicates": [
                {
                  "$type": "KICGNCCKIBK",
                  "logic": "LesserOrEqual",
                  "value": "FallingAnthem_Altitude_Lv3"
                },
                {
                  "$type": "KICGNCCKIBK",
                  "value": "FallingAnthem_Altitude_Lv2"
                }
              ],
              "value": "FallingAnthem_FallingDamageRatio_Lv3",
              "key": "_ABILITY_FallingAttack_Altitude",
              "HPICGAMGEGA": true,
              "maxValue": "FallingAnthem_FallingDamageRatio_Lv3",
              "GCEOGBJIFCP": "FallingAnthem_FallingDamageRatio_Lv3"
            },
            {
              "$type": "MoleMole.Config.AddGlobalValue",
              "predicates": [
                {
                  "$type": "KICGNCCKIBK",
                  "value": "FallingAnthem_Altitude_Lv3"
                }
              ],
              "value": "FallingAnthem_FallingDamageRatio_Lv4",
              "key": "_ABILITY_FallingAttack_Altitude",
              "HPICGAMGEGA": true,
              "maxValue": "FallingAnthem_FallingDamageRatio_Lv4",
              "GCEOGBJIFCP": "FallingAnthem_FallingDamageRatio_Lv4"
            },
            {
              "$type": "MoleMole.Config.AttachModifier",
              "modifierName": "FallingAnthem_FallingDamageImmune_02"
            }
          ]
        },
        "FallingAnthem_FallingDamageImmune_02": {
          "modifierName": "",
          "elementDurability": 100.0,
          "OAOGLLGGJPD": [
            {
              "$type": "MoleMole.Config.SetGlobalValueToOverrideMap",
              "globalValueKey": "_ABILITY_FallingAttack_Altitude",
              "FDKJEIGEABF": "FallingAnthem_FallingDamageRatio"
            },
            {
              "$type": "MoleMole.Config.AttachModifier",
              "modifierName": "FallingAnthem_FallingDamageImmune_03"
            }
          ]
        },
        "FallingAnthem_FallingDamageImmune_03": {
          "modifierName": "",
          "elementDurability": 100.0,
          "EPKCPIKGJOJ": {
            "Actor_FallingDamageRatio": "FallingAnthem_FallingDamageRatio"
          }
        },
        "FallingAnthem_Loop_Normal": {
          "modifierName": "",
          "elementDurability": 100.0,
          "JPIFFPJJEMK": [
            {
              "$type": "MoleMole.Config.AttachModifierToSelfGlobalValueMixin",
              "globalValueKey": "_ABILITY_FallingAnthem_UseCamera",
              "KADKJMOFOLI": 0.0,
              "FJEPHJNDEAI": [
                -1.0,
                0.5,
                1.5
              ],
              "IJEPHCMOAPE": [
                "FallingAnthem_Loop_Normal_Rank_1",
                "FallingAnthem_Loop_Normal_Rank_2"
              ]
            }
          ]
        },
        "FallingAnthem_Loop_Normal_Rank_1": {
          "modifierName": "",
          "elementDurability": 100.0,
          "OAOGLLGGJPD": [
            {
              "$type": "MoleMole.Config.FireEffect",
              "effectPattern": "Eff_Avatar_Pole_FallingAnthem_Loop_01_Normal",
              "effectTempleteID": -1.0
            }
          ]
        },
        "FallingAnthem_Loop_Normal_Rank_2": {
          "modifierName": "",
          "elementDurability": 100.0,
          "OAOGLLGGJPD": [
            {
              "$type": "MoleMole.Config.AttachEffect",
              "effectPattern": "Eff_Avatar_Pole_FallingAnthem_Loop_02_Normal",
              "effectTempleteID": -1.0
            }
          ]
        },
        "Inertia": {
          "modifierName": "",
          "elementDurability": 100.0,
          "JPIFFPJJEMK": [
            {
              "$type": "MoleMole.Config.ApplyInertiaVelocityMixin",
              "OKLIOOHGELP": false,
              "HPHNLMJFFFO": false
            }
          ]
        },
        "FallingAnthem_Height_Detect": {
          "modifierName": "",
          "elementDurability": 100.0,
          "OAOGLLGGJPD": [
            {
              "$type": "MoleMole.Config.AddGlobalValue",
              "predicates": [
                {
                  "$type": "KICGNCCKIBK",
                  "logic": "LesserOrEqual",
                  "value": 2.4000000953674316
                }
              ],
              "value": 0.0,
              "key": "_ABILITY_FallingAnthem_UseCamera",
              "HPICGAMGEGA": true,
              "maxValue": 0.0,
              "GCEOGBJIFCP": 0.0
            },
            {
              "$type": "MoleMole.Config.AddGlobalValue",
              "predicates": [
                {
                  "$type": "KICGNCCKIBK",
                  "value": 2.4000000953674316
                }
              ],
              "value": 5.0,
              "key": "_ABILITY_FallingAnthem_UseCamera",
              "HPICGAMGEGA": true,
              "maxValue": 1.0,
              "GCEOGBJIFCP": 0.0
            },
            {
              "$type": "MoleMole.Config.SetAnimatorFloat",
              "predicates": [
                {
                  "$type": "KICGNCCKIBK",
                  "logic": "LesserOrEqual",
                  "value": 2.4000000953674316
                }
              ],
              "floatID": "FallingAnthem_UseCamera",
              "value": 0.0
            },
            {
              "$type": "MoleMole.Config.SetAnimatorFloat",
              "predicates": [
                {
                  "$type": "KICGNCCKIBK",
                  "value": 2.4000000953674316
                }
              ],
              "floatID": "FallingAnthem_UseCamera",
              "value": 1.0
            }
          ],
          "MINFJCDAIBB": [
            {
              "$type": "MoleMole.Config.SetAnimatorFloat",
              "floatID": "FallingAnthem_UseCamera",
              "value": 0.0
            },
            {
              "$type": "MoleMole.Config.AddGlobalValue",
              "value": 0.0,
              "key": "_ABILITY_FallingAnthem_UseCamera",
              "HPICGAMGEGA": true,
              "maxValue": 0.0,
              "GCEOGBJIFCP": 0.0
            }
          ]
        },
        "FallingAnthem_OverHead_Camera": {
          "modifierName": "",
          "elementDurability": 100.0,
          "OAOGLLGGJPD": [
            {
              "$type": "MoleMole.Config.AvatarCameraParam",
              "predicates": [
                {
                  "$type": "MMIJILGEJIB",
                  "logic": "Equal",
                  "value": 1.0,
                  "parameter": "FallingAnthem_UseCamera"
                }
              ],
              "cameraParam": {
                "forceRadius": 4.5,
                "forceRadiusDuration": 0.20000000298023224,
                "shouldKeepForceRadius": true
              }
            }
          ]
        },
        "FallingAnthem_OverHead_Camera_Remover": {
          "modifierName": "",
          "elementDurability": 100.0,
          "OAOGLLGGJPD": [
            {
              "$type": "MoleMole.Config.AvatarExitCameraShot",
              "doOffStage": true
            }
          ]
        },
        "FallingAnthem_Landed_Camera": {
          "modifierName": "",
          "elementDurability": 100.0,
          "OAOGLLGGJPD": [
            {
              "$type": "MoleMole.Config.AvatarCameraParam",
              "predicates": [
                {
                  "$type": "MMIJILGEJIB",
                  "logic": "Equal",
                  "value": 1.0,
                  "parameter": "FallingAnthem_UseCamera"
                }
              ],
              "cameraParam": {
                "forceRadius": 6.0,
                "forceRadiusDuration": 0.10000000149011612,
                "shouldKeepForceRadius": true
              }
            }
          ]
        },
        "FallingAnthem_ClearVelocityForce": {
          "modifierName": "",
          "elementDurability": 100.0,
          "OAOGLLGGJPD": [
            {
              "$type": "MoleMole.Config.RemoveVelocityForce",
              "forces": [
                "RushMoveType",
                "InertiaType"
              ]
            }
          ]
        }
      },
      "EIIHGJGFDHC": [
        {
          "$type": "MoleMole.Config.TriggerAttackEvent",
          "predicates": [
            {
              "$type": "IPGGGPIJONN",
              "key": "_ABILITY_FallingAnthem_UseCamera",
              "value": 0.0,
              "IGOHNEMDKPG": true,
              "compareType": "NoneOrEqual"
            }
          ],
          "attackEvent": {
            "attackPattern": {
              "$type": "LGEKKELKDAN",
              "triggerType": "TriggerNoRepeat",
              "born": {
                "$type": "INKMBJGOPCK",
                "offset": {
                  "GOAPOLCAJBP": 0.0,
                  "FMOPCJGGFMH": -0.5,
                  "EJJEPFCDDAM": 1.0
                }
              },
              "height": 2.0,
              "MFGGJCPPBGA": 3.0
            },
            "attackInfo": {
              "attackTag": "FallingAttack",
              "attenuationTag": "",
              "attenuationGroup": "default",
              "attackProperty": {
                "JMLMDDCBIAO": "FallingAnthem_Normal_Rank_1_Damage",
                "damagePercentageRatio": 0.0,
                "elementDurability": 25.0,
                "overrideByWeapon": true,
                "strikeType": "Blunt",
                "enBreak": 100.0,
                "attackType": "Melee",
                "damagePercentage": 0.0
              },
              "hitPattern": {
                "onHitEffectName": "none",
                "hitImpulseY": "",
                "hitImpulseType": "LV4",
                "hitHaltTimeScale": 0.10000000149011612
              },
              "forceCameraShake": true,
              "cameraShake": {
                "shakeType": "CustomVector",
                "shakeRange": 0.23999999463558197,
                "shakeTime": 0.11999999731779099,
                "shakeDistance": 30.0,
                "shakeDir": {
                  "y": 1.0
                },
                "extension": {
                  "baseCycle": 0.23999999463558197,
                  "cycleDamping": 0.0,
                  "rangeAttenuation": 0.30000001192092896
                }
              }
            }
          },
          "targetType": "Enemy"
        },
        {
          "$type": "MoleMole.Config.TriggerAttackEvent",
          "predicates": [
            {
              "$type": "IPGGGPIJONN",
              "key": "_ABILITY_FallingAnthem_UseCamera",
              "value": 1.0,
              "IGOHNEMDKPG": true
            }
          ],
          "attackEvent": {
            "attackPattern": {
              "$type": "LGEKKELKDAN",
              "triggerType": "TriggerNoRepeat",
              "born": {
                "$type": "INKMBJGOPCK",
                "offset": {
                  "GOAPOLCAJBP": 0.0,
                  "FMOPCJGGFMH": -0.5,
                  "EJJEPFCDDAM": 1.0
                }
              },
              "height": 2.0,
              "MFGGJCPPBGA": 5.0
            },
            "attackInfo": {
              "attackTag": "FallingAttack",
              "attenuationTag": "",
              "attenuationGroup": "default",
              "attackProperty": {
                "JMLMDDCBIAO": "FallingAnthem_Normal_Rank_2_Damage",
                "damagePercentageRatio": 0.0,
                "elementDurability": 25.0,
                "overrideByWeapon": true,
                "strikeType": "Blunt",
                "enBreak": 150.0,
                "attackType": "Melee",
                "damagePercentage": 0.0
              },
              "hitPattern": {
                "onHitEffectName": "none",
                "hitImpulseY": "",
                "hitImpulseType": "LV7",
                "hitHaltTimeScale": 0.10000000149011612
              },
              "forceCameraShake": true,
              "cameraShake": {
                "shakeType": "CustomVector",
                "shakeRange": 0.5,
                "shakeTime": 0.20000000298023224,
                "shakeDistance": 30.0,
                "shakeDir": {
                  "y": 1.0,
                  "z": 1.0
                },
                "extension": {
                  "baseCycle": 0.4000000059604645,
                  "cycleDamping": 0.0,
                  "rangeAttenuation": 0.30000001192092896
                }
              }
            }
          },
          "targetType": "Enemy"
        },
        {
          "$type": "MoleMole.Config.FireEffect",
          "predicates": [
            {
              "$type": "IPGGGPIJONN",
              "key": "_ABILITY_FallingAnthem_UseCamera",
              "value": 0.0,
              "IGOHNEMDKPG": true,
              "compareType": "NoneOrEqual"
            }
          ],
          "effectPattern": "Eff_Avatar_Pole_FallingAnthem_Strike_01_Normal",
          "effectTempleteID": -1.0
        },
        {
          "$type": "MoleMole.Config.FireEffect",
          "predicates": [
            {
              "$type": "IPGGGPIJONN",
              "key": "_ABILITY_FallingAnthem_UseCamera",
              "value": 1.0,
              "IGOHNEMDKPG": true
            }
          ],
          "effectPattern": "Eff_Avatar_Pole_FallingAnthem_Strike_02_Normal",
          "effectTempleteID": -1.0
        }
      ]
    }
  }
]