{
  "activityID": 5159,
  "preQuestConfig": {
    "preQuestList": [
      {
        "HGLLMJKBOPO": [
          396
        ],
        "untakeDisplay": [
          {
            "$type": "ECFHFFBINBG",
            "overrideText": ""
          }
        ],
        "takeDisplay": [
          {
            "$type": "ECFHFFBINBG",
            "overrideText": ""
          }
        ]
      },
      {
        "HGLLMJKBOPO": [
          74671
        ],
        "takeBehaviour": [
          {
            "$type": "KIBOLPFOFMN"
          }
        ],
        "takeDisplay": [
          {
            "$type": "DMBBIJKCBEA",
            "overrideText": ""
          }
        ]
      }
    ],
    "quickOpenConfirmTitle": "",
    "quickOpenConfirmDesc": "",
    "redPointGroup": [
      [
        396
      ],
      [
        74671
      ]
    ]
  }
}