{
  "activityID": 5118,
  "preQuestConfig": {
    "preQuestList": [
      {
        "HGLLMJKBOPO": [
          2013
        ],
        "untakeDisplay": [
          {
            "$type": "ECFHFFBINBG",
            "overrideText": ""
          }
        ],
        "takeDisplay": [
          {
            "$type": "ECFHFFBINBG",
            "overrideText": ""
          }
        ]
      },
      {
        "HGLLMJKBOPO": [
          11008,
          2021,
          12026,
          12042,
          71045
        ],
        "skipList": [
          {
            "$type": "JNDCAFEIFCG"
          }
        ],
        "untakeBehaviour": [
          {
            "$type": "CINMMPCCBGA",
            "questGroupList": [
              {
                "questGroup": [
                  11008
                ],
                "desc": "UI_ACTIVITY_ELECTROHERCULESBATTLE_QUESTREQUIRED4"
              },
              {
                "questGroup": [
                  2021
                ],
                "desc": "UI_ACTIVITY_ELECTROHERCULESBATTLE_QUESTREQUIRED1"
              },
              {
                "questGroup": [
                  12026
                ],
                "desc": "UI_ACTIVITY_ELECTROHERCULESBATTLE_QUESTREQUIRED2"
              },
              {
                "questGroup": [
                  12042
                ],
                "desc": "UI_ACTIVITY_ELECTROHERCULESBATTLE_QUESTREQUIRED3"
              },
              {
                "questGroup": [
                  71045
                ],
                "desc": "UI_ACTIVITY_ELECTROHERCULESBATTLE_QUESTREQUIRED5"
              }
            ],
            "playerLevel": 40
          }
        ],
        "untakeDisplay": [
          {
            "$type": "NNNJLLHEJCF",
            "overrideBannerText": "UI_ACTIVITY_JUXTAPOSITIONQUEST_YELLOWBAR",
            "overrideButtonText": ""
          }
        ],
        "takeBehaviour": [
          {
            "$type": "CINMMPCCBGA",
            "questGroupList": [
              {
                "questGroup": [
                  11008
                ],
                "desc": "UI_ACTIVITY_ELECTROHERCULESBATTLE_QUESTREQUIRED4"
              },
              {
                "questGroup": [
                  2021
                ],
                "desc": "UI_ACTIVITY_ELECTROHERCULESBATTLE_QUESTREQUIRED1"
              },
              {
                "questGroup": [
                  12026
                ],
                "desc": "UI_ACTIVITY_ELECTROHERCULESBATTLE_QUESTREQUIRED2"
              },
              {
                "questGroup": [
                  12042
                ],
                "desc": "UI_ACTIVITY_ELECTROHERCULESBATTLE_QUESTREQUIRED3"
              },
              {
                "questGroup": [
                  71045
                ],
                "desc": "UI_ACTIVITY_ELECTROHERCULESBATTLE_QUESTREQUIRED5"
              }
            ],
            "playerLevel": 40
          }
        ],
        "takeDisplay": [
          {
            "$type": "NNNJLLHEJCF",
            "overrideBannerText": "UI_ACTIVITY_JUXTAPOSITIONQUEST_YELLOWBAR",
            "overrideButtonText": ""
          }
        ]
      },
      {
        "HGLLMJKBOPO": [
          1019,
          1028,
          1029,
          1030,
          1031
        ],
        "skipList": [
          {
            "$type": "JNDCAFEIFCG"
          }
        ],
        "untakeBehaviour": [
          {
            "$type": "KIBOLPFOFMN"
          }
        ],
        "untakeDisplay": [
          {
            "$type": "NNNJLLHEJCF",
            "overrideBannerText": "",
            "overrideButtonText": ""
          }
        ],
        "takeBehaviour": [
          {
            "$type": "KIBOLPFOFMN"
          }
        ],
        "takeDisplay": [
          {
            "$type": "NNNJLLHEJCF",
            "overrideBannerText": "",
            "overrideButtonText": ""
          }
        ]
      },
      {
        "HGLLMJKBOPO": [
          72730
        ],
        "untakeBehaviour": [
          {
            "$type": "KIBOLPFOFMN"
          }
        ],
        "untakeDisplay": [
          {
            "$type": "DMBBIJKCBEA",
            "overrideText": ""
          }
        ],
        "takeBehaviour": [
          {
            "$type": "KIBOLPFOFMN"
          }
        ],
        "takeDisplay": [
          {
            "$type": "DMBBIJKCBEA",
            "overrideText": ""
          }
        ]
      }
    ],
    "quickOpenConfirmTitle": "",
    "quickOpenConfirmDesc": "UI_ACTIVITY_ELECTROHERCULESBATTLE_QUICKSTART_DES",
    "redPointGroup": [
      [
        2013
      ],
      [
        11008,
        2021,
        12026,
        12042,
        71045,
        1019,
        1028,
        1029,
        1030,
        1031
      ],
      [
        72730
      ]
    ]
  }
}