{
  "activityID": 2029,
  "preQuestConfig": {
    "preQuestList": [
      {
        "HGLLMJKBOPO": [
          396
        ],
        "untakeDisplay": [
          {
            "$type": "ECFHFFBINBG",
            "overrideText": "UI_ACTIVITY_PRE_UNFINISHED_CHAPTER"
          }
        ],
        "takeDisplay": [
          {
            "$type": "ECFHFFBINBG",
            "overrideText": "UI_ACTIVITY_PRE_UNFINISHED_CHAPTER"
          }
        ]
      },
      {
        "HGLLMJKBOPO": [
          4014409
        ],
        "isMainQuestID": false,
        "takeBehaviour": [
          {
            "$type": "KIBOLPFOFMN"
          }
        ],
        "takeDisplay": [
          {
            "$type": "DMBBIJKCBEA",
            "overrideText": ""
          }
        ]
      }
    ],
    "quickOpenConfirmTitle": "",
    "quickOpenConfirmDesc": "",
    "redPointGroup": [
      [
        396
      ],
      [
        4014409
      ]
    ],
    "recommendConfig": {
      "OLBBAILEOOP": [
        396
      ],
      "FPGKEFENFLD": [
        4025,
        10122
      ]
    }
  }
}