{
  "activityID": 5175,
  "preQuestConfig": {
    "preQuestList": [
      {
        "HGLLMJKBOPO": [
          396
        ],
        "untakeDisplay": [
          {
            "$type": "ECFHFFBINBG",
            "overrideText": "UI_ACTIVITY_PRE_UNFINISHED_CHAPTER"
          }
        ],
        "takeDisplay": [
          {
            "$type": "ECFHFFBINBG",
            "overrideText": "UI_ACTIVITY_PRE_UNFINISHED_CHAPTER"
          }
        ]
      }
    ],
    "quickOpenConfirmTitle": "",
    "quickOpenConfirmDesc": "",
    "redPointGroup": [
      [
        396
      ]
    ]
  }
}