{
  "minArea": {
    "x": -3377.323974609375,
    "z": -3227.195068359375
  },
  "maxArea": {
    "x": -3357.323974609375,
    "z": -3207.195068359375
  },
  "roadPoints": [
    {
      "x": -3357.323974609375,
      "y": 200.0,
      "z": -3217.195068359375
    },
    {
      "x": -3358.663818359375,
      "y": 200.0,
      "z": -3212.195068359375
    },
    {
      "x": -3362.323974609375,
      "y": 200.0,
      "z": -3208.534912109375
    },
    {
      "x": -3367.323974609375,
      "y": 200.0,
      "z": -3207.195068359375
    },
    {
      "x": -3372.323974609375,
      "y": 200.0,
      "z": -3208.534912109375
    },
    {
      "x": -3375.984130859375,
      "y": 200.0,
      "z": -3212.195068359375
    },
    {
      "x": -3377.323974609375,
      "y": 200.0,
      "z": -3217.195068359375
    },
    {
      "x": -3375.984130859375,
      "y": 200.0,
      "z": -3222.195068359375
    },
    {
      "x": -3372.323974609375,
      "y": 200.0,
      "z": -3225.855224609375
    },
    {
      "x": -3367.323974609375,
      "y": 200.0,
      "z": -3227.195068359375
    },
    {
      "x": -3362.323974609375,
      "y": 200.0,
      "z": -3225.855224609375
    },
    {
      "x": -3358.663818359375,
      "y": 200.0,
      "z": -3222.195068359375
    }
  ]
}