{
  "minArea": {
    "x": -4447.439453125,
    "z": -4160.796875
  },
  "maxArea": {
    "x": -4439.82861328125,
    "z": -4151.6357421875
  },
  "roadPoints": [
    {
      "x": -4442.8466796875,
      "y": 200.0,
      "z": -4152.3203125
    },
    {
      "x": -4442.666015625,
      "y": 200.0,
      "z": -4153.00830078125
    },
    {
      "x": -4443.28662109375,
      "y": 200.0,
      "z": -4153.58740234375
    },
    {
      "x": -4443.95654296875,
      "y": 200.0,
      "z": -4153.18505859375
    },
    {
      "x": -4444.67138671875,
      "y": 200.0,
      "z": -4153.072265625
    },
    {
      "x": -4446.38818359375,
      "y": 200.0,
      "z": -4153.9833984375
    },
    {
      "x": -4445.451171875,
      "y": 200.0,
      "z": -4157.44384765625
    },
    {
      "x": -4447.439453125,
      "y": 200.0,
      "z": -4159.041015625
    },
    {
      "x": -4446.3095703125,
      "y": 200.0,
      "z": -4160.796875
    },
    {
      "x": -4441.9248046875,
      "y": 200.215087890625,
      "z": -4156.6669921875
    },
    {
      "x": -4439.82861328125,
      "y": 200.0,
      "z": -4151.771484375
    },
    {
      "x": -4442.1630859375,
      "y": 200.0,
      "z": -4151.6357421875
    }
  ]
}