{
  "minArea": {
    "x": 2957.0458984375,
    "z": 3818.855224609375
  },
  "maxArea": {
    "x": 2961.020751953125,
    "z": 3824.90478515625
  },
  "roadPoints": [
    {
      "x": 2960.326904296875,
      "y": 440.0,
      "z": 3824.369140625
    },
    {
      "x": 2957.666748046875,
      "y": 440.0,
      "z": 3824.90478515625
    },
    {
      "x": 2957.0458984375,
      "y": 440.0,
      "z": 3824.3974609375
    },
    {
      "x": 2957.150634765625,
      "y": 440.0047607421875,
      "z": 3822.43896484375
    },
    {
      "x": 2958.454345703125,
      "y": 440.0129699707031,
      "z": 3821.6220703125
    },
    {
      "x": 2959.370361328125,
      "y": 440.0928955078125,
      "z": 3820.05859375
    },
    {
      "x": 2959.91552734375,
      "y": 440.0486755371094,
      "z": 3819.2607421875
    },
    {
      "x": 2960.96484375,
      "y": 440.2032165527344,
      "z": 3818.855224609375
    },
    {
      "x": 2961.020751953125,
      "y": 440.0,
      "z": 3821.42919921875
    }
  ]
}