{
  "minArea": {
    "x": 3385.868896484375,
    "z": 4047.69482421875
  },
  "maxArea": {
    "x": 3397.769775390625,
    "z": 4057.369384765625
  },
  "roadPoints": [
    {
      "x": 3385.868896484375,
      "y": 440.0,
      "z": 4050.077392578125
    },
    {
      "x": 3386.952880859375,
      "y": 440.0,
      "z": 4047.69482421875
    },
    {
      "x": 3392.23291015625,
      "y": 440.87774658203125,
      "z": 4051.059814453125
    },
    {
      "x": 3397.769775390625,
      "y": 441.35736083984375,
      "z": 4055.4677734375
    },
    {
      "x": 3395.185791015625,
      "y": 440.0,
      "z": 4057.369384765625
    }
  ]
}