{
  "minArea": {
    "x": 782.9330444335938,
    "z": 637.4730834960938
  },
  "maxArea": {
    "x": 788.9238891601562,
    "z": 645.2079467773438
  },
  "roadPoints": [
    {
      "x": 784.0726928710938,
      "y": 791.0,
      "z": 641.6956176757812
    },
    {
      "x": 782.9330444335938,
      "y": 791.0,
      "z": 640.7047729492188
    },
    {
      "x": 783.2482299804688,
      "y": 791.0,
      "z": 637.4730834960938
    },
    {
      "x": 785.8670043945312,
      "y": 791.0,
      "z": 638.6840209960938
    },
    {
      "x": 787.8617553710938,
      "y": 791.5233764648438,
      "z": 640.9554443359375
    },
    {
      "x": 788.9238891601562,
      "y": 791.4286499023438,
      "z": 643.021240234375
    },
    {
      "x": 788.9219970703125,
      "y": 791.0,
      "z": 645.2079467773438
    },
    {
      "x": 784.5681762695312,
      "y": 791.0,
      "z": 644.1123657226562
    }
  ]
}