{
  "minArea": {
    "x": 1302.324951171875,
    "z": 420.6951904296875
  },
  "maxArea": {
    "x": 1317.123291015625,
    "z": 428.7150573730469
  },
  "roadPoints": [
    {
      "x": 1304.2918701171875,
      "y": 200.01571655273438,
      "z": 427.2339782714844
    },
    {
      "x": 1302.324951171875,
      "y": 200.07449340820312,
      "z": 422.04791259765625
    },
    {
      "x": 1306.6624755859375,
      "y": 200.0,
      "z": 420.6951904296875
    },
    {
      "x": 1307.5947265625,
      "y": 200.0,
      "z": 424.6735534667969
    },
    {
      "x": 1316.0318603515625,
      "y": 200.0,
      "z": 422.5889587402344
    },
    {
      "x": 1317.123291015625,
      "y": 200.0,
      "z": 426.24737548828125
    },
    {
      "x": 1314.70166015625,
      "y": 200.0648193359375,
      "z": 426.8445129394531
    },
    {
      "x": 1313.7587890625,
      "y": 200.0,
      "z": 423.1360778808594
    },
    {
      "x": 1307.851806640625,
      "y": 200.0,
      "z": 424.5967102050781
    },
    {
      "x": 1308.2587890625,
      "y": 200.0,
      "z": 428.7150573730469
    }
  ]
}