{
  "luaDataPath": "",
  "dontUseDefaultFinish": true,
  "startBlackKeepTime": 0.5,
  "entityBan": "",
  "disableNpcLod": true,
  "isAutoBanNpc": true,
  "isBanWidgetPet": true,
  "protectNpcMobileLod": true,
  "talkFlag": 7,
  "startFade": {
    "startFadeInDuration": 0.5,
    "startFadeOutDuration": 0.5
  },
  "endFade": {
    "startFadeOutDuration": 0.0
  },
  "actors": [
    {
      "alias": "Avatar",
      "visible": true,
      "bornPointName": "[3_6045:4400.085,484.950,4137.420,0.000,265.570,0.000]",
      "relativePosType": "AVATAR_NEW",
      "relativePosNpcAlias": "",
      "_notDestroyInTalk": true,
      "_bindMovingTargetKey": ""
    },
    {
      "alias": "AvatarNpc",
      "visible": true,
      "bornPointName": "[3_6045:4400.085,484.950,4137.420,0.000,265.570,0.000]",
      "removeActorType": "NEW_REMOVE",
      "relativePosType": "AVATAR_NEW",
      "relativePosNpcAlias": "",
      "_notDestroyInTalk": true,
      "_bindMovingTargetKey": ""
    },
    {
      "configID": 5084,
      "alias": "5084",
      "visible": true,
      "bornPointName": "[3_6047:4399.945,484.950,4138.557,0.000,268.630,0.000]",
      "forceCreateDaily": true,
      "relativePosType": "AVATAR_NEW",
      "relativePosNpcAlias": "",
      "_notDestroyInTalk": true,
      "_bindMovingTargetKey": ""
    },
    {
      "configID": 1005,
      "alias": "1005",
      "visible": true,
      "bornPointName": "",
      "useRelativePos": true,
      "relativePos": {
        "x": -1.0,
        "z": 0.5
      },
      "removeActorType": "NEW_REMOVE_WITH_DISAPPEAR",
      "relativePosType": "AVATAR_NEW",
      "relativePosNpcAlias": "",
      "_notDestroyInTalk": true,
      "_bindMovingTargetKey": ""
    }
  ],
  "group": [
    [
      {
        "$type": "MoleMole.Config.ConfigTimeProtectAction",
        "type": "TIME_PROTECT",
        "duration": 1.0,
        "actionId": 104
      },
      {
        "$type": "MoleMole.Config.ConfigBlackScreenAction",
        "type": "BLACK_SCREEN",
        "duration": 1.0,
        "actionId": 132,
        "_flag": 2048,
        "blackScreenType": "KEEP_BLACK",
        "durationToBlack": 0.5,
        "durationKeepBlack": 1.0,
        "durationFromBlack": 0.5,
        "inteePos": "",
        "textMapID": "",
        "useTextFade": true,
        "_changeAudioState": true
      },
      {
        "$type": "MoleMole.Config.ConfigSitOrStandAction",
        "type": "SIT_OR_STAND",
        "aliasList": [
          "Avatar"
        ],
        "actionId": 139,
        "banResetFreestyle": true
      },
      {
        "$type": "MoleMole.Config.ConfigVisibleInterAction",
        "type": "VISIBLE",
        "aliasList": [
          "Avatar"
        ],
        "actionId": 145,
        "_extraParam": ""
      },
      {
        "$type": "MoleMole.Config.ConfigTeleportToAction",
        "type": "TELEPORT_TO",
        "aliasList": [
          "Avatar"
        ],
        "actionId": 185,
        "position": {
          "x": 4400.2060546875,
          "y": 484.95001220703125,
          "z": 4137.71484375
        },
        "forward": {
          "x": -13.01099967956543,
          "z": -1.9980000257492065
        },
        "openLongDisTeleport": true,
        "syncForward": true,
        "_posBindMovingTargetKey": "",
        "_forwardBindMovingTargetKey": ""
      },
      {
        "$type": "MoleMole.Config.ConfigTeleportToAction",
        "type": "TELEPORT_TO",
        "aliasList": [
          "AvatarNpc"
        ],
        "actionId": 135,
        "position": {
          "x": 4400.2060546875,
          "y": 484.95001220703125,
          "z": 4137.71484375
        },
        "forward": {
          "x": -13.01099967956543,
          "z": -1.9980000257492065
        },
        "openLongDisTeleport": true,
        "syncForward": true,
        "_posBindMovingTargetKey": "",
        "_forwardBindMovingTargetKey": ""
      },
      {
        "$type": "MoleMole.Config.ConfigPlayerNPCEnergyTypeAction",
        "type": "SET_PLAYER_NPC_ENERGY_TYPE",
        "aliasList": [
          "AvatarNpc"
        ],
        "actionId": 140,
        "setHeroEngergyType": true
      },
      {
        "$type": "EDCHPJLDKIN",
        "type": "BODY_LANG",
        "aliasList": [
          "AvatarNpc"
        ],
        "actionId": 141,
        "isContinue": true,
        "forceDoFreeStyle": true,
        "canDoRepeatFreeStyle": false,
        "eventPatternSuiteKey": ""
      },
      {
        "$type": "EDCHPJLDKIN",
        "type": "BODY_LANG",
        "aliasList": [
          "5084"
        ],
        "actionId": 125,
        "isContinue": true,
        "forceDoFreeStyle": true,
        "canDoRepeatFreeStyle": false,
        "eventPatternSuiteKey": ""
      },
      {
        "$type": "MoleMole.Config.ConfigTeleportToAction",
        "type": "TELEPORT_TO",
        "aliasList": [
          "5084"
        ],
        "actionId": 130,
        "position": {
          "x": 4399.94384765625,
          "y": 484.95001220703125,
          "z": 4138.55615234375
        },
        "forward": {
          "x": -12.038000106811523,
          "z": -4.25
        },
        "openLongDisTeleport": true,
        "syncForward": true,
        "_posBindMovingTargetKey": "",
        "_forwardBindMovingTargetKey": ""
      },
      {
        "$type": "EDCHPJLDKIN",
        "type": "BODY_LANG",
        "aliasList": [
          "1005"
        ],
        "actionId": 127,
        "isContinue": true,
        "forceDoFreeStyle": true,
        "canDoRepeatFreeStyle": false,
        "eventPatternSuiteKey": ""
      },
      {
        "$type": "MoleMole.Config.ConfigTeleportToAction",
        "type": "TELEPORT_TO",
        "aliasList": [
          "1005"
        ],
        "actionId": 131,
        "position": {
          "x": 4400.20703125,
          "y": 484.95001220703125,
          "z": 4137.0078125
        },
        "forward": {
          "x": -9.354000091552734,
          "z": -0.6700000166893005
        },
        "openLongDisTeleport": true,
        "syncForward": true,
        "_posBindMovingTargetKey": "",
        "_forwardBindMovingTargetKey": ""
      }
    ],
    [
      {
        "$type": "MoleMole.Config.ConfigBlackScreenAction",
        "type": "BLACK_SCREEN",
        "duration": 0.5,
        "actionId": 133,
        "_flag": 2048,
        "blackScreenType": "FROM_BLACK",
        "durationToBlack": 0.5,
        "durationKeepBlack": 0.5,
        "durationFromBlack": 0.5,
        "inteePos": "",
        "textMapID": "",
        "useTextFade": true,
        "_changeAudioState": true
      },
      {
        "$type": "EFHODGEJOHJ",
        "type": "CAMERA_MOVE",
        "duration": 1.0,
        "actionId": 149,
        "camPosOffset": {
          "x": 4404.51806640625,
          "y": 485.5060119628906,
          "z": 4138.69189453125
        },
        "camForwardTargetOffset": {
          "x": 4403.58203125,
          "y": 485.8009948730469,
          "z": 4138.501953125
        },
        "camFov": 60.0,
        "lerpPattern": 6,
        "cameraBlendType": "EaseInOutCubic",
        "MDKBPBJCMHH": {},
        "needZAxisRotate": true,
        "openCameraDither": false,
        "targetNpcAlias": "",
        "closeTreeLeafDither": true,
        "PHGBNNGCJKJ": "",
        "NFILMKCFHEB": "",
        "BGPNGHDAECF": ""
      },
      {
        "$type": "NPCNMEOCADD",
        "type": "LOOK_AT",
        "aliasList": [
          "Avatar"
        ],
        "actionId": 146,
        "_flag": 64,
        "enableHead": true,
        "headTurnTime": 0.5,
        "targetNpcAlias": "5084",
        "openBackProtect": true,
        "backProtectAngle": 10.0,
        "targetNpcLookAtPoint": "",
        "BHGPHGNFCBF": ""
      },
      {
        "$type": "NPCNMEOCADD",
        "type": "LOOK_AT",
        "aliasList": [
          "AvatarNpc"
        ],
        "actionId": 147,
        "_flag": 64,
        "enableHead": true,
        "headRotateVec": {
          "x": 348.3399963378906,
          "y": 324.989990234375
        },
        "headTurnTime": 0.5,
        "targetNpcAlias": "5084",
        "lookAtTargetType": "NONE",
        "openBackProtect": true,
        "backProtectAngle": 10.0,
        "targetNpcLookAtPoint": "",
        "BHGPHGNFCBF": ""
      },
      {
        "$type": "MJFAIFFAGOF",
        "type": "DIALOG",
        "aliasList": [
          "5084"
        ],
        "actionId": 107,
        "dialogID": 741270301,
        "protectTime": 0.5
      },
      {
        "$type": "NPCNMEOCADD",
        "type": "LOOK_AT",
        "aliasList": [
          "5084"
        ],
        "actionId": 169,
        "_flag": 64,
        "enableHead": true,
        "headRotateVec": {
          "x": 348.3399963378906,
          "y": 324.989990234375
        },
        "headTurnTime": 0.5,
        "targetNpcAlias": "5084",
        "lookAtTargetType": "NONE",
        "openBackProtect": true,
        "backProtectAngle": 10.0,
        "targetNpcLookAtPoint": "",
        "BHGPHGNFCBF": ""
      },
      {
        "$type": "NPCNMEOCADD",
        "type": "LOOK_AT",
        "aliasList": [
          "1005"
        ],
        "actionId": 170,
        "_flag": 64,
        "enableHead": true,
        "headRotateVec": {
          "x": 348.3399963378906,
          "y": 324.989990234375
        },
        "headTurnTime": 0.5,
        "targetNpcAlias": "5084",
        "lookAtTargetType": "NONE",
        "openBackProtect": true,
        "backProtectAngle": 10.0,
        "targetNpcLookAtPoint": "",
        "BHGPHGNFCBF": ""
      },
      {
        "$type": "EFHODGEJOHJ",
        "type": "CAMERA_MOVE",
        "delayTime": 0.10000000149011612,
        "duration": 7.064000129699707,
        "actionId": 168,
        "camPosOffset": {
          "x": 4404.51806640625,
          "y": 485.5060119628906,
          "z": 4138.69189453125
        },
        "camForwardTargetOffset": {
          "x": 4403.6220703125,
          "y": 485.9110107421875,
          "z": 4138.509765625
        },
        "camFov": 60.0,
        "cameraBlendType": "EaseOutQuad",
        "MDKBPBJCMHH": {},
        "needZAxisRotate": true,
        "openCameraDither": false,
        "targetNpcAlias": "",
        "closeTreeLeafDither": true,
        "PHGBNNGCJKJ": "",
        "NFILMKCFHEB": "",
        "BGPNGHDAECF": ""
      }
    ],
    [
      {
        "$type": "EFHODGEJOHJ",
        "type": "CAMERA_MOVE",
        "duration": 1.0,
        "actionId": 166,
        "camPosOffset": {
          "x": 4395.90185546875,
          "y": 486.7860107421875,
          "z": 4139.62890625
        },
        "camForwardTargetOffset": {
          "x": 4396.81689453125,
          "y": 486.65399169921875,
          "z": 4139.248046875
        },
        "camFov": 20.0,
        "lerpPattern": 6,
        "cameraBlendType": "EaseInOutCubic",
        "MDKBPBJCMHH": {},
        "needZAxisRotate": true,
        "openCameraDither": false,
        "targetNpcAlias": "",
        "closeTreeLeafDither": true,
        "PHGBNNGCJKJ": "",
        "NFILMKCFHEB": "",
        "BGPNGHDAECF": ""
      },
      {
        "$type": "NPCNMEOCADD",
        "type": "LOOK_AT",
        "aliasList": [
          "Avatar"
        ],
        "actionId": 161,
        "_flag": 64,
        "enableHead": true,
        "headTurnTime": 0.5,
        "targetNpcAlias": "5084",
        "openBackProtect": true,
        "backProtectAngle": 10.0,
        "targetNpcLookAtPoint": "",
        "BHGPHGNFCBF": ""
      },
      {
        "$type": "NPCNMEOCADD",
        "type": "LOOK_AT",
        "aliasList": [
          "AvatarNpc"
        ],
        "actionId": 162,
        "_flag": 64,
        "enableHead": true,
        "headTurnTime": 0.5,
        "targetNpcAlias": "5084",
        "openBackProtect": true,
        "backProtectAngle": 10.0,
        "targetNpcLookAtPoint": "",
        "BHGPHGNFCBF": ""
      },
      {
        "$type": "IEKHMHNHENB",
        "type": "STEER_TO",
        "duration": 1.0,
        "aliasList": [
          "AvatarNpc"
        ],
        "actionId": 171,
        "_flag": 32,
        "steerType": "ABSOLUTE",
        "steerDir": {
          "x": 4399.65478515625,
          "y": 484.95001220703125,
          "z": 4138.5830078125
        },
        "useSteerAnim": true,
        "interruptFreestyle": true,
        "forceSteer": true,
        "targetNpcAlias": "",
        "ignoreY": true,
        "fixInterNull": true,
        "BHGPHGNFCBF": ""
      },
      {
        "$type": "MJFAIFFAGOF",
        "type": "DIALOG",
        "aliasList": [
          "5084"
        ],
        "actionId": 109,
        "dialogID": 741270302,
        "protectTime": 1.781000018119812
      },
      {
        "$type": "NPCNMEOCADD",
        "type": "LOOK_AT",
        "aliasList": [
          "1005"
        ],
        "actionId": 163,
        "_flag": 64,
        "enableHead": true,
        "headTurnTime": 0.5,
        "targetNpcAlias": "5084",
        "openBackProtect": true,
        "backProtectAngle": 10.0,
        "targetNpcLookAtPoint": "",
        "BHGPHGNFCBF": ""
      },
      {
        "$type": "MoleMole.Config.ConfigTeleportToAction",
        "type": "TELEPORT_TO",
        "aliasList": [
          "1005"
        ],
        "actionId": 174,
        "position": {
          "x": 4399.7119140625,
          "y": 484.95001220703125,
          "z": 4137.158203125
        },
        "forward": {
          "x": -0.515999972820282,
          "z": -0.12999999523162842
        },
        "openLongDisTeleport": true,
        "syncForward": true,
        "_posBindMovingTargetKey": "",
        "_forwardBindMovingTargetKey": ""
      },
      {
        "$type": "EFHODGEJOHJ",
        "type": "CAMERA_MOVE",
        "delayTime": 0.10000000149011612,
        "duration": 9.277000427246094,
        "actionId": 175,
        "camPosOffset": {
          "x": 4395.97119140625,
          "y": 486.7820129394531,
          "z": 4139.7919921875
        },
        "camForwardTargetOffset": {
          "x": 4396.88623046875,
          "y": 486.6510009765625,
          "z": 4139.4111328125
        },
        "camFov": 20.0,
        "cameraBlendType": "EaseOutQuad",
        "MDKBPBJCMHH": {},
        "needZAxisRotate": true,
        "openCameraDither": false,
        "targetNpcAlias": "",
        "closeTreeLeafDither": true,
        "PHGBNNGCJKJ": "",
        "NFILMKCFHEB": "",
        "BGPNGHDAECF": ""
      },
      {
        "$type": "OBCDECFOOBC",
        "type": "DIALOG_SELECT",
        "delayTime": 0.4000000059604645,
        "aliasList": [
          "AvatarNpc"
        ],
        "actionId": 136,
        "dialogIDList": [
          741270303,
          741270304
        ],
        "grpIDList": [
          3027797050,
          3027797050
        ],
        "useGrpId": true,
        "countDownGrpId": 3027797046
      },
      {
        "$type": "IEKHMHNHENB",
        "type": "STEER_TO",
        "delayTime": 0.42399999499320984,
        "duration": 1.0,
        "aliasList": [
          "1005"
        ],
        "actionId": 173,
        "_flag": 32,
        "steerType": "ABSOLUTE",
        "steerDir": {
          "x": 4399.94384765625,
          "y": 484.95001220703125,
          "z": 4138.10400390625
        },
        "useSteerAnim": true,
        "interruptFreestyle": true,
        "forceSteer": true,
        "targetNpcAlias": "",
        "ignoreY": true,
        "fixInterNull": true,
        "BHGPHGNFCBF": ""
      }
    ],
    [
      {
        "$type": "MJFAIFFAGOF",
        "type": "DIALOG",
        "aliasList": [
          "5084"
        ],
        "actionId": 112,
        "dialogID": 741270305,
        "protectTime": 1.402999997138977
      },
      {
        "$type": "OBCDECFOOBC",
        "type": "DIALOG_SELECT",
        "delayTime": 0.4000000059604645,
        "aliasList": [
          "AvatarNpc"
        ],
        "actionId": 137,
        "dialogIDList": [
          741270306
        ],
        "grpIDList": [
          3027797051
        ],
        "useGrpId": true,
        "countDownGrpId": 3027797046
      }
    ],
    [
      {
        "$type": "EFHODGEJOHJ",
        "type": "CAMERA_MOVE",
        "duration": 0.5,
        "actionId": 180,
        "camPosOffset": {
          "x": 4398.587890625,
          "y": 487.0350036621094,
          "z": 4139.6767578125
        },
        "camForwardTargetOffset": {
          "x": 4399.2041015625,
          "y": 486.7309875488281,
          "z": 4138.94921875
        },
        "camFov": 20.0,
        "lerpPattern": 6,
        "cameraBlendType": "EaseInOutCubic",
        "MDKBPBJCMHH": {},
        "needZAxisRotate": true,
        "openCameraDither": false,
        "targetNpcAlias": "",
        "closeTreeLeafDither": true,
        "PHGBNNGCJKJ": "",
        "NFILMKCFHEB": "",
        "BGPNGHDAECF": ""
      },
      {
        "$type": "MJFAIFFAGOF",
        "type": "DIALOG",
        "aliasList": [
          "5084"
        ],
        "actionId": 115,
        "dialogID": 741270307,
        "protectTime": 1.3799999952316284
      },
      {
        "$type": "IEKHMHNHENB",
        "type": "STEER_TO",
        "duration": 1.0,
        "aliasList": [
          "5084"
        ],
        "actionId": 178,
        "_flag": 32,
        "steerType": "ABSOLUTE",
        "steerDir": {
          "x": 4400.0029296875,
          "y": 484.95001220703125,
          "z": 4137.240234375
        },
        "useSteerAnim": true,
        "interruptFreestyle": true,
        "forceSteer": true,
        "targetNpcAlias": "",
        "ignoreY": true,
        "fixInterNull": true,
        "BHGPHGNFCBF": ""
      },
      {
        "$type": "NPCNMEOCADD",
        "type": "LOOK_AT",
        "aliasList": [
          "5084"
        ],
        "actionId": 179,
        "_flag": 64,
        "enableHead": true,
        "headTurnTime": 0.5,
        "targetNpcAlias": "AvatarNpc",
        "openBackProtect": true,
        "backProtectAngle": 10.0,
        "targetNpcLookAtPoint": "",
        "BHGPHGNFCBF": ""
      },
      {
        "$type": "MoleMole.Config.ConfigTeleportToAction",
        "type": "TELEPORT_TO",
        "aliasList": [
          "1005"
        ],
        "actionId": 181,
        "position": {
          "x": 4399.921875,
          "y": 484.95001220703125,
          "z": 4137.1259765625
        },
        "forward": {
          "x": 0.02800000086426735,
          "z": 1.003000020980835
        },
        "openLongDisTeleport": true,
        "syncForward": true,
        "_posBindMovingTargetKey": "",
        "_forwardBindMovingTargetKey": ""
      }
    ],
    [
      {
        "$type": "MJFAIFFAGOF",
        "type": "DIALOG",
        "aliasList": [
          "5084"
        ],
        "actionId": 117,
        "dialogID": 741270308,
        "protectTime": 0.5
      },
      {
        "$type": "EDCHPJLDKIN",
        "type": "BODY_LANG",
        "aliasList": [
          "5084"
        ],
        "actionId": 182,
        "bodyLangParam": 1173,
        "forceDoFreeStyle": true,
        "canDoRepeatFreeStyle": false,
        "cantBackToIdleWhenSitLoop": true,
        "eventPatternSuiteKey": ""
      }
    ],
    [
      {
        "$type": "EFHODGEJOHJ",
        "type": "CAMERA_MOVE",
        "duration": 0.5,
        "actionId": 183,
        "camPosOffset": {
          "x": 4412.865234375,
          "y": 486.447998046875,
          "z": 4141.34814453125
        },
        "camForwardTargetOffset": {
          "x": 4411.92822265625,
          "y": 486.3970031738281,
          "z": 4141.0029296875
        },
        "camFov": 20.0,
        "lerpPattern": 6,
        "cameraBlendType": "EaseInOutCubic",
        "MDKBPBJCMHH": {},
        "needZAxisRotate": true,
        "openCameraDither": false,
        "targetNpcAlias": "",
        "closeTreeLeafDither": true,
        "PHGBNNGCJKJ": "",
        "NFILMKCFHEB": "",
        "BGPNGHDAECF": ""
      },
      {
        "$type": "MJFAIFFAGOF",
        "type": "DIALOG",
        "aliasList": [
          "5084"
        ],
        "actionId": 119,
        "dialogID": 741270309,
        "protectTime": 0.5
      },
      {
        "$type": "EFHODGEJOHJ",
        "type": "CAMERA_MOVE",
        "delayTime": 0.10000000149011612,
        "duration": 7.52400016784668,
        "actionId": 184,
        "camPosOffset": {
          "x": 4412.7900390625,
          "y": 486.4320068359375,
          "z": 4141.55517578125
        },
        "camForwardTargetOffset": {
          "x": 4411.85302734375,
          "y": 486.3819885253906,
          "z": 4141.2099609375
        },
        "camFov": 20.0,
        "cameraBlendType": "EaseOutQuad",
        "MDKBPBJCMHH": {},
        "needZAxisRotate": true,
        "openCameraDither": false,
        "targetNpcAlias": "",
        "closeTreeLeafDither": true,
        "PHGBNNGCJKJ": "",
        "NFILMKCFHEB": "",
        "BGPNGHDAECF": ""
      },
      {
        "$type": "OBCDECFOOBC",
        "type": "DIALOG_SELECT",
        "delayTime": 0.4000000059604645,
        "aliasList": [
          "AvatarNpc"
        ],
        "actionId": 138,
        "dialogIDList": [
          741270310
        ],
        "grpIDList": [
          3027797054
        ],
        "useGrpId": true,
        "countDownGrpId": 3027797046
      }
    ],
    [
      {
        "$type": "MoleMole.Config.ConfigTimeProtectAction",
        "type": "TIME_PROTECT",
        "duration": 0.10000000149011612,
        "actionId": 122
      }
    ],
    [
      {
        "$type": "MoleMole.Config.ConfigTimeProtectAction",
        "type": "TIME_PROTECT",
        "duration": 0.10000000149011612,
        "actionId": 105
      },
      {
        "$type": "MoleMole.Config.ConfigSimpleBlackScreenAction",
        "type": "SIMPLE_BLACK_SCREEN",
        "actionId": 123,
        "durationToBlack": 0.5,
        "durationKeepBlack": 1.5,
        "durationFromBlack": 0.5,
        "textMapID": ""
      },
      {
        "$type": "MoleMole.Config.ConfigTimeProtectAction",
        "type": "TIME_PROTECT",
        "duration": 0.699999988079071,
        "actionId": 124
      },
      {
        "$type": "EFHODGEJOHJ",
        "type": "CAMERA_MOVE",
        "delayTime": 0.5,
        "duration": 0.10000000149011612,
        "actionId": 134,
        "cameraPosType": "EXIT",
        "camForwardTargetOffset": {
          "z": 1.0
        },
        "camFov": 30.0,
        "lerpPattern": 5,
        "cameraBlendType": "EaseInOutCubic",
        "MDKBPBJCMHH": {},
        "openCameraDither": false,
        "targetNpcAlias": "",
        "closeTreeLeafDither": true,
        "PHGBNNGCJKJ": "",
        "NFILMKCFHEB": "",
        "BGPNGHDAECF": ""
      },
      {
        "$type": "MoleMole.Config.ConfigVisibleInterAction",
        "type": "VISIBLE",
        "delayTime": 0.6000000238418579,
        "aliasList": [
          "Avatar"
        ],
        "actionId": 144,
        "isVisible": true,
        "_extraParam": ""
      },
      {
        "$type": "EDCHPJLDKIN",
        "type": "BODY_LANG",
        "delayTime": 0.6000000238418579,
        "aliasList": [
          "AvatarNpc"
        ],
        "actionId": 142,
        "isContinue": true,
        "forceDoFreeStyle": true,
        "canDoRepeatFreeStyle": false,
        "eventPatternSuiteKey": ""
      },
      {
        "$type": "MoleMole.Config.ConfigVisibleInterAction",
        "type": "VISIBLE",
        "delayTime": 0.6000000238418579,
        "aliasList": [
          "AvatarNpc"
        ],
        "actionId": 186,
        "_extraParam": ""
      },
      {
        "$type": "EDCHPJLDKIN",
        "type": "BODY_LANG",
        "delayTime": 0.6000000238418579,
        "aliasList": [
          "5084"
        ],
        "actionId": 126,
        "isContinue": true,
        "forceDoFreeStyle": true,
        "canDoRepeatFreeStyle": false,
        "eventPatternSuiteKey": ""
      },
      {
        "$type": "EDCHPJLDKIN",
        "type": "BODY_LANG",
        "delayTime": 0.6000000238418579,
        "aliasList": [
          "1005"
        ],
        "actionId": 128,
        "isContinue": true,
        "forceDoFreeStyle": true,
        "canDoRepeatFreeStyle": false,
        "eventPatternSuiteKey": ""
      }
    ]
  ],
  "groupId": [
    {
      "grpId": 3027797047,
      "nextGrpId": 3027797048
    },
    {
      "index": 1,
      "grpId": 3027797048,
      "nextGrpId": 3027797049
    },
    {
      "index": 2,
      "grpId": 3027797049,
      "nextGrpId": 3027797050
    },
    {
      "index": 3,
      "grpId": 3027797050,
      "nextGrpId": 3027797051
    },
    {
      "index": 4,
      "grpId": 3027797051,
      "nextGrpId": 3027797052
    },
    {
      "index": 5,
      "grpId": 3027797052,
      "nextGrpId": 3027797053
    },
    {
      "index": 6,
      "grpId": 3027797053,
      "nextGrpId": 3027797054
    },
    {
      "index": 7,
      "grpId": 3027797054,
      "nextGrpId": 3027797055
    },
    {
      "index": 8,
      "grpId": 3027797055,
      "nextGrpId": 3667395289
    }
  ],
  "freeStyleDic": {
    "1025": [],
    "1026": [],
    "5084": [
      1173
    ]
  },
  "GHHKLKIGEOD": {
    "5084": [
      "SitChat01AS",
      "SitHoldArm01AS",
      "SitPutArm01AS",
      "SitRaiseHand01AS",
      "SitRead01AS"
    ]
  }
}