{
  "luaDataPath": "",
  "isSimpleTalk": true,
  "entityBan": "",
  "disableNpcLod": true,
  "protectNpcMobileLod": true,
  "talkFlag": 7,
  "startFade": {
    "startFadeOutDuration": 0.0
  },
  "endFade": {
    "startFadeOutDuration": 0.0
  },
  "actors": [
    {
      "alias": "Avatar",
      "visible": true,
      "bornPointName": "",
      "relativePosType": "AVATAR_NEW",
      "relativePosNpcAlias": "",
      "_notDestroyInTalk": true,
      "_bindMovingTargetKey": ""
    },
    {
      "configID": 3173,
      "alias": "3173",
      "visible": true,
      "bornPointName": "",
      "forceCreateDaily": true,
      "relativePosType": "AVATAR_NEW",
      "relativePosNpcAlias": "",
      "_notDestroyInTalk": true,
      "_bindMovingTargetKey": ""
    }
  ],
  "group": [
    [
      {
        "$type": "OBCDECFOOBC",
        "type": "DIALOG_SELECT",
        "aliasList": [
          "Avatar"
        ],
        "actionId": 122,
        "dialogIDList": [
          728140101
        ],
        "grpIDList": [
          3528908913
        ],
        "useGrpId": true,
        "countDownGrpId": 3528908911
      }
    ],
    [
      {
        "$type": "MJFAIFFAGOF",
        "type": "DIALOG",
        "aliasList": [
          "3173"
        ],
        "actionId": 109,
        "dialogID": 728140102,
        "protectTime": 0.5
      },
      {
        "$type": "OBCDECFOOBC",
        "type": "DIALOG_SELECT",
        "delayTime": 0.4000000059604645,
        "aliasList": [
          "Avatar"
        ],
        "actionId": 110,
        "dialogIDList": [
          728140103
        ],
        "grpIDList": [
          3528908914
        ],
        "useGrpId": true,
        "countDownGrpId": 3528908911
      }
    ],
    [
      {
        "$type": "MJFAIFFAGOF",
        "type": "DIALOG",
        "aliasList": [
          "3173"
        ],
        "actionId": 112,
        "dialogID": 728140104,
        "protectTime": 0.5
      }
    ],
    [
      {
        "$type": "MJFAIFFAGOF",
        "type": "DIALOG",
        "aliasList": [
          "3173"
        ],
        "actionId": 114,
        "dialogID": 728140105,
        "protectTime": 0.5
      }
    ],
    [
      {
        "$type": "MJFAIFFAGOF",
        "type": "DIALOG",
        "aliasList": [
          "3173"
        ],
        "actionId": 116,
        "dialogID": 728140106,
        "protectTime": 0.5
      }
    ],
    [
      {
        "$type": "MJFAIFFAGOF",
        "type": "DIALOG",
        "aliasList": [
          "3173"
        ],
        "actionId": 118,
        "dialogID": 728140107,
        "protectTime": 0.5
      }
    ],
    [
      {
        "$type": "MoleMole.Config.ConfigTimeProtectAction",
        "type": "TIME_PROTECT",
        "duration": 0.10000000149011612,
        "actionId": 105
      },
      {
        "$type": "IEKHMHNHENB",
        "type": "STEER_TO",
        "duration": 1.0,
        "aliasList": [
          "3173"
        ],
        "actionId": 121,
        "_flag": 32,
        "steerType": "RETURN",
        "useSteerAnim": true,
        "interruptFreestyle": true,
        "forceSteer": true,
        "targetNpcAlias": "",
        "ignoreY": true,
        "fixInterNull": true,
        "BHGPHGNFCBF": ""
      }
    ]
  ],
  "groupId": [
    {
      "grpId": 3528908912,
      "nextGrpId": 3528908913,
      "_noCircleNextGrpId": 3528908913
    },
    {
      "index": 1,
      "grpId": 3528908913,
      "nextGrpId": 3528908914,
      "_noCircleNextGrpId": 3528908914
    },
    {
      "index": 2,
      "grpId": 3528908914,
      "nextGrpId": 3528908915,
      "_noCircleNextGrpId": 3528908915
    },
    {
      "index": 3,
      "grpId": 3528908915,
      "nextGrpId": 3528908916,
      "_noCircleNextGrpId": 3528908916
    },
    {
      "index": 4,
      "grpId": 3528908916,
      "nextGrpId": 3528908917,
      "_noCircleNextGrpId": 3528908917
    },
    {
      "index": 5,
      "grpId": 3528908917,
      "nextGrpId": 3528908918,
      "_noCircleNextGrpId": 3528908918
    },
    {
      "index": 6,
      "grpId": 3528908918,
      "nextGrpId": 3528908919,
      "_noCircleNextGrpId": 3528908919
    }
  ],
  "freeStyleDic": {
    "3173": []
  },
  "GOCHGPDDIEK": {
    "GLDEKKOPHPB": "",
    "MONBEELCJPA": ""
  },
  "IDMJJGEMEPG": 3528908918,
  "DJNHOINPCOI": {
    "BMLEPIJCLCL": ""
  }
}