{
  "talkId": 20927,
  "KPGKDHAFHFE": "FREE",
  "dialogList": [
    {
      "id": 1017209270,
      "talkRole": {
        "type": "TALK_ROLE_NPC",
        "_id": "20927"
      },
      "talkContentTextMapHash": 3305896154,
      "talkAssetPath": "",
      "talkAssetPathAlter": "",
      "talkAudioName": "",
      "actionBefore": "",
      "actionWhile": "",
      "actionAfter": "",
      "optionIcon": "",
      "iconPath": ""
    },
    {
      "id": 1017209271,
      "talkRole": {
        "type": "TALK_ROLE_NPC",
        "_id": "20927"
      },
      "talkContentTextMapHash": 756024722,
      "talkAssetPath": "",
      "talkAssetPathAlter": "",
      "talkAudioName": "",
      "actionBefore": "",
      "actionWhile": "",
      "actionAfter": "",
      "optionIcon": "",
      "iconPath": ""
    }
  ]
}