{
  "talkId": 21424,
  "KPGKDHAFHFE": "FREE",
  "dialogList": [
    {
      "id": 1017214240,
      "talkRole": {
        "type": "TALK_ROLE_NPC",
        "_id": "21424"
      },
      "talkContentTextMapHash": 1179701114,
      "talkAssetPath": "",
      "talkAssetPathAlter": "",
      "talkAudioName": "",
      "actionBefore": "",
      "actionWhile": "",
      "actionAfter": "",
      "optionIcon": "",
      "iconPath": ""
    }
  ]
}