{
  "talkId": 2263,
  "KPGKDHAFHFE": "FREE",
  "dialogList": [
    {
      "id": 1016226300,
      "talkRole": {
        "type": "TALK_ROLE_NPC",
        "_id": "2263"
      },
      "talkContentTextMapHash": 4197897738,
      "talkAssetPath": "",
      "talkAssetPathAlter": "",
      "talkAudioName": "",
      "actionBefore": "",
      "actionWhile": "",
      "actionAfter": "",
      "optionIcon": "",
      "iconPath": ""
    }
  ]
}