{
  "talkId": 2264,
  "KPGKDHAFHFE": "FREE",
  "dialogList": [
    {
      "id": 1016226400,
      "talkRole": {
        "type": "TALK_ROLE_NPC",
        "_id": "2264"
      },
      "talkContentTextMapHash": 2394825610,
      "talkAssetPath": "",
      "talkAssetPathAlter": "",
      "talkAudioName": "",
      "actionBefore": "",
      "actionWhile": "",
      "actionAfter": "",
      "optionIcon": "",
      "iconPath": ""
    }
  ]
}