{
  "talkId": 2265,
  "KPGKDHAFHFE": "FREE",
  "dialogList": [
    {
      "id": 1016226500,
      "talkRole": {
        "type": "TALK_ROLE_NPC",
        "_id": "2265"
      },
      "talkContentTextMapHash": 2178648898,
      "talkAssetPath": "",
      "talkAssetPathAlter": "",
      "talkAudioName": "",
      "actionBefore": "",
      "actionWhile": "",
      "actionAfter": "",
      "optionIcon": "",
      "iconPath": ""
    }
  ]
}