{
  "talkId": 2315,
  "KPGKDHAFHFE": "FREE",
  "dialogList": [
    {
      "id": 1016231500,
      "talkRole": {
        "type": "TALK_ROLE_NPC",
        "_id": "2315"
      },
      "talkContentTextMapHash": 3772705010,
      "talkAssetPath": "",
      "talkAssetPathAlter": "",
      "talkAudioName": "",
      "actionBefore": "",
      "actionWhile": "",
      "actionAfter": "",
      "optionIcon": "",
      "iconPath": ""
    }
  ]
}