{
  "talkId": 2505,
  "KPGKDHAFHFE": "FREE",
  "dialogList": [
    {
      "id": 1016250500,
      "talkRole": {
        "type": "TALK_ROLE_NPC",
        "_id": "2505"
      },
      "talkContentTextMapHash": 834814474,
      "talkAssetPath": "",
      "talkAssetPathAlter": "",
      "talkAudioName": "",
      "actionBefore": "",
      "actionWhile": "",
      "actionAfter": "",
      "optionIcon": "",
      "iconPath": ""
    }
  ]
}