{
  "talkId": 2508,
  "KPGKDHAFHFE": "FREE",
  "dialogList": [
    {
      "id": 1016250800,
      "talkRole": {
        "type": "TALK_ROLE_NPC",
        "_id": "2508"
      },
      "talkContentTextMapHash": 1292947010,
      "talkAssetPath": "",
      "talkAssetPathAlter": "",
      "talkAudioName": "",
      "actionBefore": "",
      "actionWhile": "",
      "actionAfter": "",
      "optionIcon": "",
      "iconPath": ""
    }
  ]
}