{
  "talkId": 2514,
  "KPGKDHAFHFE": "FREE",
  "dialogList": [
    {
      "id": 1016251400,
      "talkRole": {
        "type": "TALK_ROLE_NPC",
        "_id": "2514"
      },
      "talkContentTextMapHash": 3921822450,
      "talkAssetPath": "",
      "talkAssetPathAlter": "",
      "talkAudioName": "",
      "actionBefore": "",
      "actionWhile": "",
      "actionAfter": "",
      "optionIcon": "",
      "iconPath": ""
    }
  ]
}