{
  "talkId": 2519,
  "KPGKDHAFHFE": "FREE",
  "dialogList": [
    {
      "id": 1016251900,
      "talkRole": {
        "type": "TALK_ROLE_NPC",
        "_id": "2519"
      },
      "talkContentTextMapHash": 622160922,
      "talkAssetPath": "",
      "talkAssetPathAlter": "",
      "talkAudioName": "",
      "actionBefore": "",
      "actionWhile": "",
      "actionAfter": "",
      "optionIcon": "",
      "iconPath": ""
    }
  ]
}