{
  "talkId": 2522,
  "KPGKDHAFHFE": "FREE",
  "dialogList": [
    {
      "id": 1016252200,
      "talkRole": {
        "type": "TALK_ROLE_NPC",
        "_id": "2522"
      },
      "talkContentTextMapHash": 4236079242,
      "talkAssetPath": "",
      "talkAssetPathAlter": "",
      "talkAudioName": "",
      "actionBefore": "",
      "actionWhile": "",
      "actionAfter": "",
      "optionIcon": "",
      "iconPath": ""
    }
  ]
}