{
  "talkId": 30243,
  "KPGKDHAFHFE": "FREE",
  "dialogList": [
    {
      "id": 1017302430,
      "talkRole": {
        "type": "TALK_ROLE_NPC",
        "_id": "30243"
      },
      "talkContentTextMapHash": 2745817130,
      "talkAssetPath": "",
      "talkAssetPathAlter": "",
      "talkAudioName": "",
      "actionBefore": "",
      "actionWhile": "",
      "actionAfter": "",
      "optionIcon": "",
      "iconPath": ""
    }
  ]
}