{
  "talkId": 30308,
  "KPGKDHAFHFE": "FREE",
  "dialogList": [
    {
      "id": 1017303080,
      "talkRole": {
        "type": "TALK_ROLE_NPC",
        "_id": "30308"
      },
      "talkContentTextMapHash": 3475956050,
      "talkAssetPath": "",
      "talkAssetPathAlter": "",
      "talkAudioName": "",
      "actionBefore": "",
      "actionWhile": "",
      "actionAfter": "",
      "optionIcon": "",
      "iconPath": ""
    }
  ]
}