{
  "talkId": 30306,
  "KPGKDHAFHFE": "FREE",
  "dialogList": [
    {
      "id": 1017303060,
      "talkRole": {
        "type": "TALK_ROLE_NPC",
        "_id": "30306"
      },
      "talkContentTextMapHash": 1806867242,
      "talkAssetPath": "",
      "talkAssetPathAlter": "",
      "talkAudioName": "",
      "actionBefore": "",
      "actionWhile": "",
      "actionAfter": "",
      "optionIcon": "",
      "iconPath": ""
    }
  ]
}