{
  "talkId": 30477,
  "KPGKDHAFHFE": "FREE",
  "dialogList": [
    {
      "id": 1017304770,
      "talkRole": {
        "type": "TALK_ROLE_NPC",
        "_id": "30477"
      },
      "talkContentTextMapHash": 452291882,
      "talkAssetPath": "",
      "talkAssetPathAlter": "",
      "talkAudioName": "",
      "actionBefore": "",
      "actionWhile": "",
      "actionAfter": "",
      "optionIcon": "",
      "iconPath": ""
    }
  ]
}