{
  "talkId": 4004,
  "KPGKDHAFHFE": "FREE",
  "dialogList": [
    {
      "id": 1016400400,
      "talkRole": {
        "type": "TALK_ROLE_NPC",
        "_id": "4004"
      },
      "talkContentTextMapHash": 3591963138,
      "talkAssetPath": "",
      "talkAssetPathAlter": "",
      "talkAudioName": "",
      "actionBefore": "",
      "actionWhile": "",
      "actionAfter": "",
      "optionIcon": "",
      "iconPath": ""
    },
    {
      "id": 1016400401,
      "talkRole": {
        "type": "TALK_ROLE_NPC",
        "_id": "4004"
      },
      "talkContentTextMapHash": 2919606298,
      "talkAssetPath": "",
      "talkAssetPathAlter": "",
      "talkAudioName": "",
      "actionBefore": "",
      "actionWhile": "",
      "actionAfter": "",
      "optionIcon": "",
      "iconPath": ""
    }
  ]
}