{
  "talkId": 4012,
  "KPGKDHAFHFE": "FREE",
  "dialogList": [
    {
      "id": 1016401200,
      "talkRole": {
        "type": "TALK_ROLE_NPC",
        "_id": "4012"
      },
      "talkContentTextMapHash": 2978293690,
      "talkAssetPath": "",
      "talkAssetPathAlter": "",
      "talkAudioName": "",
      "actionBefore": "",
      "actionWhile": "",
      "actionAfter": "",
      "optionIcon": "",
      "iconPath": ""
    }
  ]
}