{
  "talkId": 4019,
  "KPGKDHAFHFE": "FREE",
  "dialogList": [
    {
      "id": 1016401900,
      "talkRole": {
        "type": "TALK_ROLE_NPC",
        "_id": "4019"
      },
      "talkContentTextMapHash": 2848485066,
      "talkAssetPath": "",
      "talkAssetPathAlter": "",
      "talkAudioName": "",
      "actionBefore": "",
      "actionWhile": "",
      "actionAfter": "",
      "optionIcon": "",
      "iconPath": ""
    },
    {
      "id": 1016401901,
      "talkRole": {
        "type": "TALK_ROLE_NPC",
        "_id": "4019"
      },
      "talkContentTextMapHash": 3821379010,
      "talkAssetPath": "",
      "talkAssetPathAlter": "",
      "talkAudioName": "",
      "actionBefore": "",
      "actionWhile": "",
      "actionAfter": "",
      "optionIcon": "",
      "iconPath": ""
    }
  ]
}