{
  "talkId": 4059,
  "KPGKDHAFHFE": "FREE",
  "dialogList": [
    {
      "id": 1016405900,
      "talkRole": {
        "type": "TALK_ROLE_NPC",
        "_id": "4059"
      },
      "talkContentTextMapHash": 2411777338,
      "talkAssetPath": "",
      "talkAssetPathAlter": "",
      "talkAudioName": "",
      "actionBefore": "",
      "actionWhile": "",
      "actionAfter": "",
      "optionIcon": "",
      "iconPath": ""
    },
    {
      "id": 1016405901,
      "talkRole": {
        "type": "TALK_ROLE_NPC",
        "_id": "4059"
      },
      "talkContentTextMapHash": 276907474,
      "talkAssetPath": "",
      "talkAssetPathAlter": "",
      "talkAudioName": "",
      "actionBefore": "",
      "actionWhile": "",
      "actionAfter": "",
      "optionIcon": "",
      "iconPath": ""
    }
  ]
}