{
  "talkId": 4074,
  "KPGKDHAFHFE": "FREE",
  "dialogList": [
    {
      "id": 1016407400,
      "talkRole": {
        "type": "TALK_ROLE_NPC",
        "_id": "4074"
      },
      "talkContentTextMapHash": 1408517258,
      "talkAssetPath": "",
      "talkAssetPathAlter": "",
      "talkAudioName": "",
      "actionBefore": "",
      "actionWhile": "",
      "actionAfter": "",
      "optionIcon": "",
      "iconPath": ""
    }
  ]
}