{
  "talkId": 4083,
  "KPGKDHAFHFE": "FREE",
  "dialogList": [
    {
      "id": 1016408300,
      "talkRole": {
        "type": "TALK_ROLE_NPC",
        "_id": "4083"
      },
      "talkContentTextMapHash": 1357593578,
      "talkAssetPath": "",
      "talkAssetPathAlter": "",
      "talkAudioName": "",
      "actionBefore": "",
      "actionWhile": "",
      "actionAfter": "",
      "optionIcon": "",
      "iconPath": ""
    },
    {
      "id": 1016408301,
      "talkRole": {
        "type": "TALK_ROLE_NPC",
        "_id": "4083"
      },
      "talkContentTextMapHash": 3144668338,
      "talkAssetPath": "",
      "talkAssetPathAlter": "",
      "talkAudioName": "",
      "actionBefore": "",
      "actionWhile": "",
      "actionAfter": "",
      "optionIcon": "",
      "iconPath": ""
    }
  ]
}