{
  "talkId": 4134,
  "KPGKDHAFHFE": "FREE",
  "dialogList": [
    {
      "id": 1016413400,
      "talkRole": {
        "type": "TALK_ROLE_NPC",
        "_id": "4134"
      },
      "talkContentTextMapHash": 737747594,
      "talkAssetPath": "",
      "talkAssetPathAlter": "",
      "talkAudioName": "",
      "actionBefore": "",
      "actionWhile": "",
      "actionAfter": "",
      "optionIcon": "",
      "iconPath": ""
    }
  ]
}