{
  "talkId": 4150,
  "KPGKDHAFHFE": "FREE",
  "dialogList": [
    {
      "id": 1016415000,
      "talkRole": {
        "type": "TALK_ROLE_NPC",
        "_id": "4150"
      },
      "talkContentTextMapHash": 74310898,
      "talkAssetPath": "",
      "talkAssetPathAlter": "",
      "talkAudioName": "",
      "actionBefore": "",
      "actionWhile": "",
      "actionAfter": "",
      "optionIcon": "",
      "iconPath": ""
    }
  ]
}