{
  "talkId": 4161,
  "KPGKDHAFHFE": "FREE",
  "dialogList": [
    {
      "id": 1016416100,
      "talkRole": {
        "type": "TALK_ROLE_NPC",
        "_id": "4161"
      },
      "talkContentTextMapHash": 2604525650,
      "talkAssetPath": "",
      "talkAssetPathAlter": "",
      "talkAudioName": "",
      "actionBefore": "",
      "actionWhile": "",
      "actionAfter": "",
      "optionIcon": "",
      "iconPath": ""
    }
  ]
}