{
  "talkId": 4174,
  "KPGKDHAFHFE": "FREE",
  "dialogList": [
    {
      "id": 1016417400,
      "talkRole": {
        "type": "TALK_ROLE_NPC",
        "_id": "4174"
      },
      "talkContentTextMapHash": 3372141434,
      "talkAssetPath": "",
      "talkAssetPathAlter": "",
      "talkAudioName": "",
      "actionBefore": "",
      "actionWhile": "",
      "actionAfter": "",
      "optionIcon": "",
      "iconPath": ""
    }
  ]
}