{
  "talkId": 4181,
  "KPGKDHAFHFE": "FREE",
  "dialogList": [
    {
      "id": 1016418100,
      "talkRole": {
        "type": "TALK_ROLE_NPC",
        "_id": "4181"
      },
      "talkContentTextMapHash": 569684434,
      "talkAssetPath": "",
      "talkAssetPathAlter": "",
      "talkAudioName": "",
      "actionBefore": "",
      "actionWhile": "",
      "actionAfter": "",
      "optionIcon": "",
      "iconPath": ""
    }
  ]
}