{
  "talkId": 4212,
  "KPGKDHAFHFE": "FREE",
  "dialogList": [
    {
      "id": 1016421200,
      "talkRole": {
        "type": "TALK_ROLE_NPC",
        "_id": "4212"
      },
      "talkContentTextMapHash": 1195827282,
      "talkAssetPath": "",
      "talkAssetPathAlter": "",
      "talkAudioName": "",
      "actionBefore": "",
      "actionWhile": "",
      "actionAfter": "",
      "optionIcon": "",
      "iconPath": ""
    },
    {
      "id": 1016421201,
      "talkRole": {
        "type": "TALK_ROLE_NPC",
        "_id": "4212"
      },
      "talkContentTextMapHash": 232148882,
      "talkAssetPath": "",
      "talkAssetPathAlter": "",
      "talkAudioName": "",
      "actionBefore": "",
      "actionWhile": "",
      "actionAfter": "",
      "optionIcon": "",
      "iconPath": ""
    },
    {
      "id": 1016421202,
      "talkRole": {
        "type": "TALK_ROLE_NPC",
        "_id": "4212"
      },
      "talkContentTextMapHash": 2916793562,
      "talkAssetPath": "",
      "talkAssetPathAlter": "",
      "talkAudioName": "",
      "actionBefore": "",
      "actionWhile": "",
      "actionAfter": "",
      "optionIcon": "",
      "iconPath": ""
    }
  ]
}