{
  "talkId": 4233,
  "KPGKDHAFHFE": "FREE",
  "dialogList": [
    {
      "id": 1016423300,
      "talkRole": {
        "type": "TALK_ROLE_NPC",
        "_id": "4233"
      },
      "talkContentTextMapHash": 1413522994,
      "talkAssetPath": "",
      "talkAssetPathAlter": "",
      "talkAudioName": "",
      "actionBefore": "",
      "actionWhile": "",
      "actionAfter": "",
      "optionIcon": "",
      "iconPath": ""
    }
  ]
}