{
  "talkId": 4302,
  "KPGKDHAFHFE": "FREE",
  "dialogList": [
    {
      "id": 1016430200,
      "talkRole": {
        "type": "TALK_ROLE_NPC",
        "_id": "4302"
      },
      "talkContentTextMapHash": 354875410,
      "talkAssetPath": "",
      "talkAssetPathAlter": "",
      "talkAudioName": "",
      "actionBefore": "",
      "actionWhile": "",
      "actionAfter": "",
      "optionIcon": "",
      "iconPath": ""
    }
  ]
}