{
  "talkId": 4314,
  "KPGKDHAFHFE": "FREE",
  "dialogList": [
    {
      "id": 1016431400,
      "talkRole": {
        "type": "TALK_ROLE_NPC",
        "_id": "4314"
      },
      "talkContentTextMapHash": 932804722,
      "talkAssetPath": "",
      "talkAssetPathAlter": "",
      "talkAudioName": "",
      "actionBefore": "",
      "actionWhile": "",
      "actionAfter": "",
      "optionIcon": "",
      "iconPath": ""
    }
  ]
}