{
  "talkId": 4329,
  "KPGKDHAFHFE": "FREE",
  "dialogList": [
    {
      "id": 1016432900,
      "talkRole": {
        "type": "TALK_ROLE_NPC",
        "_id": "4329"
      },
      "talkContentTextMapHash": 1391914154,
      "talkAssetPath": "",
      "talkAssetPathAlter": "",
      "talkAudioName": "",
      "actionBefore": "",
      "actionWhile": "",
      "actionAfter": "",
      "optionIcon": "",
      "iconPath": ""
    }
  ]
}