{
  "talkId": 4339,
  "KPGKDHAFHFE": "FREE",
  "dialogList": [
    {
      "id": 1016433900,
      "talkRole": {
        "type": "TALK_ROLE_NPC",
        "_id": "4339"
      },
      "talkContentTextMapHash": 375459066,
      "talkAssetPath": "",
      "talkAssetPathAlter": "",
      "talkAudioName": "",
      "actionBefore": "",
      "actionWhile": "",
      "actionAfter": "",
      "optionIcon": "",
      "iconPath": ""
    }
  ]
}