{
  "talkId": 4340,
  "KPGKDHAFHFE": "FREE",
  "dialogList": [
    {
      "id": 1016434000,
      "talkRole": {
        "type": "TALK_ROLE_NPC",
        "_id": "4340"
      },
      "talkContentTextMapHash": 1377507514,
      "talkAssetPath": "",
      "talkAssetPathAlter": "",
      "talkAudioName": "",
      "actionBefore": "",
      "actionWhile": "",
      "actionAfter": "",
      "optionIcon": "",
      "iconPath": ""
    }
  ]
}