{
  "talkId": 4353,
  "KPGKDHAFHFE": "FREE",
  "dialogList": [
    {
      "id": 1016435300,
      "talkRole": {
        "type": "TALK_ROLE_NPC",
        "_id": "4353"
      },
      "talkContentTextMapHash": 4172824498,
      "talkAssetPath": "",
      "talkAssetPathAlter": "",
      "talkAudioName": "",
      "actionBefore": "",
      "actionWhile": "",
      "actionAfter": "",
      "optionIcon": "",
      "iconPath": ""
    }
  ]
}