{
  "talkId": 4358,
  "KPGKDHAFHFE": "FREE",
  "dialogList": [
    {
      "id": 1016435800,
      "talkRole": {
        "type": "TALK_ROLE_NPC",
        "_id": "4358"
      },
      "talkContentTextMapHash": 2074829258,
      "talkAssetPath": "",
      "talkAssetPathAlter": "",
      "talkAudioName": "",
      "actionBefore": "",
      "actionWhile": "",
      "actionAfter": "",
      "optionIcon": "",
      "iconPath": ""
    }
  ]
}