{
  "talkId": 4362,
  "KPGKDHAFHFE": "FREE",
  "dialogList": [
    {
      "id": 1016436200,
      "talkRole": {
        "type": "TALK_ROLE_NPC",
        "_id": "4362"
      },
      "talkContentTextMapHash": 1911091410,
      "talkAssetPath": "",
      "talkAssetPathAlter": "",
      "talkAudioName": "",
      "actionBefore": "",
      "actionWhile": "",
      "actionAfter": "",
      "optionIcon": "",
      "iconPath": ""
    }
  ]
}