{
  "talkId": 4364,
  "KPGKDHAFHFE": "FREE",
  "dialogList": [
    {
      "id": 1016436400,
      "talkRole": {
        "type": "TALK_ROLE_NPC",
        "_id": "4364"
      },
      "talkContentTextMapHash": 3587206330,
      "talkAssetPath": "",
      "talkAssetPathAlter": "",
      "talkAudioName": "",
      "actionBefore": "",
      "actionWhile": "",
      "actionAfter": "",
      "optionIcon": "",
      "iconPath": ""
    }
  ]
}