{
  "talkId": 4381,
  "KPGKDHAFHFE": "FREE",
  "dialogList": [
    {
      "id": 1016438100,
      "talkRole": {
        "type": "TALK_ROLE_NPC",
        "_id": "4381"
      },
      "talkContentTextMapHash": 2040483738,
      "talkAssetPath": "",
      "talkAssetPathAlter": "",
      "talkAudioName": "",
      "actionBefore": "",
      "actionWhile": "",
      "actionAfter": "",
      "optionIcon": "",
      "iconPath": ""
    },
    {
      "id": 1016438101,
      "talkRole": {
        "type": "TALK_ROLE_NPC",
        "_id": "4381"
      },
      "talkContentTextMapHash": 1032175098,
      "talkAssetPath": "",
      "talkAssetPathAlter": "",
      "talkAudioName": "",
      "actionBefore": "",
      "actionWhile": "",
      "actionAfter": "",
      "optionIcon": "",
      "iconPath": ""
    }
  ]
}