{
  "talkId": 4411,
  "KPGKDHAFHFE": "FREE",
  "dialogList": [
    {
      "id": 1016441100,
      "talkRole": {
        "type": "TALK_ROLE_NPC",
        "_id": "4411"
      },
      "talkContentTextMapHash": 3666777650,
      "talkAssetPath": "",
      "talkAssetPathAlter": "",
      "talkAudioName": "",
      "actionBefore": "",
      "actionWhile": "",
      "actionAfter": "",
      "optionIcon": "",
      "iconPath": ""
    }
  ]
}