{
  "talkId": 4427,
  "KPGKDHAFHFE": "FREE",
  "dialogList": [
    {
      "id": 1016442700,
      "talkRole": {
        "type": "TALK_ROLE_NPC",
        "_id": "4427"
      },
      "talkContentTextMapHash": 2012231090,
      "talkAssetPath": "",
      "talkAssetPathAlter": "",
      "talkAudioName": "",
      "actionBefore": "",
      "actionWhile": "",
      "actionAfter": "",
      "optionIcon": "",
      "iconPath": ""
    }
  ]
}