{
  "talkId": 4477,
  "KPGKDHAFHFE": "FREE",
  "dialogList": [
    {
      "id": 1016447700,
      "talkRole": {
        "type": "TALK_ROLE_NPC",
        "_id": "4477"
      },
      "talkContentTextMapHash": 1841783482,
      "talkAssetPath": "",
      "talkAssetPathAlter": "",
      "talkAudioName": "",
      "actionBefore": "",
      "actionWhile": "",
      "actionAfter": "",
      "optionIcon": "",
      "iconPath": ""
    }
  ]
}