{
  "talkId": 5003,
  "KPGKDHAFHFE": "FREE",
  "dialogList": [
    {
      "id": 1016500300,
      "talkRole": {
        "type": "TALK_ROLE_NPC",
        "_id": "5003"
      },
      "talkContentTextMapHash": 4240668578,
      "talkAssetPath": "",
      "talkAssetPathAlter": "",
      "talkAudioName": "",
      "actionBefore": "",
      "actionWhile": "",
      "actionAfter": "",
      "optionIcon": "",
      "iconPath": ""
    }
  ]
}