{
  "talkId": 5010,
  "KPGKDHAFHFE": "FREE",
  "dialogList": [
    {
      "id": 1016501000,
      "talkRole": {
        "type": "TALK_ROLE_NPC",
        "_id": "5010"
      },
      "talkContentTextMapHash": 2875238306,
      "talkAssetPath": "",
      "talkAssetPathAlter": "",
      "talkAudioName": "",
      "actionBefore": "",
      "actionWhile": "",
      "actionAfter": "",
      "optionIcon": "",
      "iconPath": ""
    }
  ]
}