{
  "talkId": 5020,
  "KPGKDHAFHFE": "FREE",
  "dialogList": [
    {
      "id": 1016502000,
      "talkRole": {
        "type": "TALK_ROLE_NPC",
        "_id": "5020"
      },
      "talkContentTextMapHash": 1784276426,
      "talkAssetPath": "",
      "talkAssetPathAlter": "",
      "talkAudioName": "",
      "actionBefore": "",
      "actionWhile": "",
      "actionAfter": "",
      "optionIcon": "",
      "iconPath": ""
    }
  ]
}