{
  "talkId": 5033,
  "KPGKDHAFHFE": "FREE",
  "dialogList": [
    {
      "id": 1016503300,
      "talkRole": {
        "type": "TALK_ROLE_NPC",
        "_id": "5033"
      },
      "talkContentTextMapHash": 2921662418,
      "talkAssetPath": "",
      "talkAssetPathAlter": "",
      "talkAudioName": "",
      "actionBefore": "",
      "actionWhile": "",
      "actionAfter": "",
      "optionIcon": "",
      "iconPath": ""
    }
  ]
}