{
  "talkId": 5045,
  "KPGKDHAFHFE": "FREE",
  "dialogList": [
    {
      "id": 1016504500,
      "talkRole": {
        "type": "TALK_ROLE_NPC",
        "_id": "5045"
      },
      "talkContentTextMapHash": 1282371914,
      "talkAssetPath": "",
      "talkAssetPathAlter": "",
      "talkAudioName": "",
      "actionBefore": "",
      "actionWhile": "",
      "actionAfter": "",
      "optionIcon": "",
      "iconPath": ""
    }
  ]
}