{
  "talkId": 5052,
  "KPGKDHAFHFE": "FREE",
  "dialogList": [
    {
      "id": 1016505200,
      "talkRole": {
        "type": "TALK_ROLE_NPC",
        "_id": "5052"
      },
      "talkContentTextMapHash": 24660498,
      "talkAssetPath": "",
      "talkAssetPathAlter": "",
      "talkAudioName": "",
      "actionBefore": "",
      "actionWhile": "",
      "actionAfter": "",
      "optionIcon": "",
      "iconPath": ""
    }
  ]
}