{
  "talkId": 5066,
  "KPGKDHAFHFE": "FREE",
  "dialogList": [
    {
      "id": 1016506600,
      "talkRole": {
        "type": "TALK_ROLE_NPC",
        "_id": "5066"
      },
      "talkContentTextMapHash": 2655659018,
      "talkAssetPath": "",
      "talkAssetPathAlter": "",
      "talkAudioName": "",
      "actionBefore": "",
      "actionWhile": "",
      "actionAfter": "",
      "optionIcon": "",
      "iconPath": ""
    }
  ]
}