{
  "talkId": 5073,
  "KPGKDHAFHFE": "FREE",
  "dialogList": [
    {
      "id": 1016507300,
      "talkRole": {
        "type": "TALK_ROLE_NPC",
        "_id": "5073"
      },
      "talkContentTextMapHash": 2761267818,
      "talkAssetPath": "",
      "talkAssetPathAlter": "",
      "talkAudioName": "",
      "actionBefore": "",
      "actionWhile": "",
      "actionAfter": "",
      "optionIcon": "",
      "iconPath": ""
    }
  ]
}