{
  "talkId": 5083,
  "KPGKDHAFHFE": "FREE",
  "dialogList": [
    {
      "id": 1016508300,
      "talkRole": {
        "type": "TALK_ROLE_NPC",
        "_id": "5083"
      },
      "talkContentTextMapHash": 3125742986,
      "talkAssetPath": "",
      "talkAssetPathAlter": "",
      "talkAudioName": "",
      "actionBefore": "",
      "actionWhile": "",
      "actionAfter": "",
      "optionIcon": "",
      "iconPath": ""
    },
    {
      "id": 1016508301,
      "talkRole": {
        "type": "TALK_ROLE_NPC",
        "_id": "5083"
      },
      "talkContentTextMapHash": 4086205018,
      "talkAssetPath": "",
      "talkAssetPathAlter": "",
      "talkAudioName": "",
      "actionBefore": "",
      "actionWhile": "",
      "actionAfter": "",
      "optionIcon": "",
      "iconPath": ""
    }
  ]
}