{
  "talkId": 5107,
  "KPGKDHAFHFE": "FREE",
  "dialogList": [
    {
      "id": 1016510700,
      "talkRole": {
        "type": "TALK_ROLE_NPC",
        "_id": "5107"
      },
      "talkContentTextMapHash": 2525945778,
      "talkAssetPath": "",
      "talkAssetPathAlter": "",
      "talkAudioName": "",
      "actionBefore": "",
      "actionWhile": "",
      "actionAfter": "",
      "optionIcon": "",
      "iconPath": ""
    }
  ]
}