{
  "talkId": 5113,
  "KPGKDHAFHFE": "FREE",
  "dialogList": [
    {
      "id": 1016511300,
      "talkRole": {
        "type": "TALK_ROLE_NPC",
        "_id": "5113"
      },
      "talkContentTextMapHash": 3872798842,
      "talkAssetPath": "",
      "talkAssetPathAlter": "",
      "talkAudioName": "",
      "actionBefore": "",
      "actionWhile": "",
      "actionAfter": "",
      "optionIcon": "",
      "iconPath": ""
    }
  ]
}