{
  "talkId": 5122,
  "KPGKDHAFHFE": "FREE",
  "dialogList": [
    {
      "id": 1016512200,
      "talkRole": {
        "type": "TALK_ROLE_NPC",
        "_id": "5122"
      },
      "talkContentTextMapHash": 3687088738,
      "talkAssetPath": "",
      "talkAssetPathAlter": "",
      "talkAudioName": "",
      "actionBefore": "",
      "actionWhile": "",
      "actionAfter": "",
      "optionIcon": "",
      "iconPath": ""
    }
  ]
}