{
  "talkId": 5141,
  "KPGKDHAFHFE": "FREE",
  "dialogList": [
    {
      "id": 1016514100,
      "talkRole": {
        "type": "TALK_ROLE_NPC",
        "_id": "5141"
      },
      "talkContentTextMapHash": 2708009794,
      "talkAssetPath": "",
      "talkAssetPathAlter": "",
      "talkAudioName": "",
      "actionBefore": "",
      "actionWhile": "",
      "actionAfter": "",
      "optionIcon": "",
      "iconPath": ""
    }
  ]
}