{
  "talkId": 5145,
  "KPGKDHAFHFE": "FREE",
  "dialogList": [
    {
      "id": 1016514500,
      "talkRole": {
        "type": "TALK_ROLE_NPC",
        "_id": "5145"
      },
      "talkContentTextMapHash": 2733330562,
      "talkAssetPath": "",
      "talkAssetPathAlter": "",
      "talkAudioName": "",
      "actionBefore": "",
      "actionWhile": "",
      "actionAfter": "",
      "optionIcon": "",
      "iconPath": ""
    }
  ]
}