{
  "talkId": 5185,
  "KPGKDHAFHFE": "FREE",
  "dialogList": [
    {
      "id": 1016518500,
      "talkRole": {
        "type": "TALK_ROLE_NPC",
        "_id": "5185"
      },
      "talkContentTextMapHash": 2756305546,
      "talkAssetPath": "",
      "talkAssetPathAlter": "",
      "talkAudioName": "",
      "actionBefore": "",
      "actionWhile": "",
      "actionAfter": "",
      "optionIcon": "",
      "iconPath": ""
    }
  ]
}