{
  "talkId": 5196,
  "KPGKDHAFHFE": "FREE",
  "dialogList": [
    {
      "id": 1016519600,
      "talkRole": {
        "type": "TALK_ROLE_NPC",
        "_id": "5196"
      },
      "talkContentTextMapHash": 215646450,
      "talkAssetPath": "",
      "talkAssetPathAlter": "",
      "talkAudioName": "",
      "actionBefore": "",
      "actionWhile": "",
      "actionAfter": "",
      "optionIcon": "",
      "iconPath": ""
    }
  ]
}