{
  "talkId": 5199,
  "KPGKDHAFHFE": "FREE",
  "dialogList": [
    {
      "id": 1016519900,
      "talkRole": {
        "type": "TALK_ROLE_NPC",
        "_id": "5199"
      },
      "talkContentTextMapHash": 866844106,
      "talkAssetPath": "",
      "talkAssetPathAlter": "",
      "talkAudioName": "",
      "actionBefore": "",
      "actionWhile": "",
      "actionAfter": "",
      "optionIcon": "",
      "iconPath": ""
    }
  ]
}