{
  "talkId": 5201,
  "KPGKDHAFHFE": "FREE",
  "dialogList": [
    {
      "id": 1016520100,
      "talkRole": {
        "type": "TALK_ROLE_NPC",
        "_id": "5201"
      },
      "talkContentTextMapHash": 941553938,
      "talkAssetPath": "",
      "talkAssetPathAlter": "",
      "talkAudioName": "",
      "actionBefore": "",
      "actionWhile": "",
      "actionAfter": "",
      "optionIcon": "",
      "iconPath": ""
    }
  ]
}