{
  "talkId": 5205,
  "KPGKDHAFHFE": "FREE",
  "dialogList": [
    {
      "id": 1016520500,
      "talkRole": {
        "type": "TALK_ROLE_NPC",
        "_id": "5205"
      },
      "talkContentTextMapHash": 4152467058,
      "talkAssetPath": "",
      "talkAssetPathAlter": "",
      "talkAudioName": "",
      "actionBefore": "",
      "actionWhile": "",
      "actionAfter": "",
      "optionIcon": "",
      "iconPath": ""
    }
  ]
}