{
  "talkId": 5209,
  "KPGKDHAFHFE": "FREE",
  "dialogList": [
    {
      "id": 1016520900,
      "talkRole": {
        "type": "TALK_ROLE_NPC",
        "_id": "5209"
      },
      "talkContentTextMapHash": 922286426,
      "talkAssetPath": "",
      "talkAssetPathAlter": "",
      "talkAudioName": "",
      "actionBefore": "",
      "actionWhile": "",
      "actionAfter": "",
      "optionIcon": "",
      "iconPath": ""
    }
  ]
}