{
  "talkId": 5215,
  "KPGKDHAFHFE": "FREE",
  "dialogList": [
    {
      "id": 1016521500,
      "talkRole": {
        "type": "TALK_ROLE_NPC",
        "_id": "5215"
      },
      "talkContentTextMapHash": 1267128090,
      "talkAssetPath": "",
      "talkAssetPathAlter": "",
      "talkAudioName": "",
      "actionBefore": "",
      "actionWhile": "",
      "actionAfter": "",
      "optionIcon": "",
      "iconPath": ""
    }
  ]
}