{
  "talkId": 5216,
  "KPGKDHAFHFE": "FREE",
  "dialogList": [
    {
      "id": 1016521600,
      "talkRole": {
        "type": "TALK_ROLE_NPC",
        "_id": "5216"
      },
      "talkContentTextMapHash": 707375810,
      "talkAssetPath": "",
      "talkAssetPathAlter": "",
      "talkAudioName": "",
      "actionBefore": "",
      "actionWhile": "",
      "actionAfter": "",
      "optionIcon": "",
      "iconPath": ""
    }
  ]
}