{
  "talkId": 5232,
  "KPGKDHAFHFE": "FREE",
  "dialogList": [
    {
      "id": 1016523200,
      "talkRole": {
        "type": "TALK_ROLE_NPC",
        "_id": "5232"
      },
      "talkContentTextMapHash": 2290238114,
      "talkAssetPath": "",
      "talkAssetPathAlter": "",
      "talkAudioName": "",
      "actionBefore": "",
      "actionWhile": "",
      "actionAfter": "",
      "optionIcon": "",
      "iconPath": ""
    }
  ]
}