{
  "talkId": 5242,
  "KPGKDHAFHFE": "FREE",
  "dialogList": [
    {
      "id": 1016524200,
      "talkRole": {
        "type": "TALK_ROLE_NPC",
        "_id": "5242"
      },
      "talkContentTextMapHash": 2957694018,
      "talkAssetPath": "",
      "talkAssetPathAlter": "",
      "talkAudioName": "",
      "actionBefore": "",
      "actionWhile": "",
      "actionAfter": "",
      "optionIcon": "",
      "iconPath": ""
    }
  ]
}