{
  "talkId": 5258,
  "KPGKDHAFHFE": "FREE",
  "dialogList": [
    {
      "id": 1016525800,
      "talkRole": {
        "type": "TALK_ROLE_NPC",
        "_id": "5258"
      },
      "talkContentTextMapHash": 43027634,
      "talkAssetPath": "",
      "talkAssetPathAlter": "",
      "talkAudioName": "",
      "actionBefore": "",
      "actionWhile": "",
      "actionAfter": "",
      "optionIcon": "",
      "iconPath": ""
    }
  ]
}