{
  "talkId": 5271,
  "KPGKDHAFHFE": "FREE",
  "dialogList": [
    {
      "id": 1016527100,
      "talkRole": {
        "type": "TALK_ROLE_NPC",
        "_id": "5271"
      },
      "talkContentTextMapHash": 434573722,
      "talkAssetPath": "",
      "talkAssetPathAlter": "",
      "talkAudioName": "",
      "actionBefore": "",
      "actionWhile": "",
      "actionAfter": "",
      "optionIcon": "",
      "iconPath": ""
    }
  ]
}