{
  "talkId": 5285,
  "KPGKDHAFHFE": "FREE",
  "dialogList": [
    {
      "id": 1016528500,
      "talkRole": {
        "type": "TALK_ROLE_NPC",
        "_id": "5285"
      },
      "talkContentTextMapHash": 2220181738,
      "talkAssetPath": "",
      "talkAssetPathAlter": "",
      "talkAudioName": "",
      "actionBefore": "",
      "actionWhile": "",
      "actionAfter": "",
      "optionIcon": "",
      "iconPath": ""
    }
  ]
}