{
  "talkId": 5316,
  "KPGKDHAFHFE": "FREE",
  "dialogList": [
    {
      "id": 1016531600,
      "talkRole": {
        "type": "TALK_ROLE_NPC",
        "_id": "5316"
      },
      "talkContentTextMapHash": 3661446914,
      "talkAssetPath": "",
      "talkAssetPathAlter": "",
      "talkAudioName": "",
      "actionBefore": "",
      "actionWhile": "",
      "actionAfter": "",
      "optionIcon": "",
      "iconPath": ""
    }
  ]
}