{
  "luaDataPath": "",
  "isSimpleTalk": true,
  "entityBan": "",
  "disableNpcLod": true,
  "startFade": {
    "startFadeOutDuration": 0.0
  },
  "endFade": {
    "startFadeOutDuration": 0.0
  },
  "actors": [
    {
      "alias": "Avatar",
      "visible": true,
      "bornPointName": "",
      "relativePosNpcAlias": "",
      "_bindMovingTargetKey": ""
    },
    {
      "configID": 140101,
      "alias": "140101",
      "bornPointName": "",
      "relativePosNpcAlias": "",
      "_bindMovingTargetKey": ""
    }
  ],
  "group": [
    [
      {
        "$type": "EFHODGEJOHJ",
        "type": "CAMERA_FOCUS",
        "duration": 0.10000000149011612,
        "targetNpcAlias": "",
        "PHGBNNGCJKJ": "",
        "NFILMKCFHEB": "",
        "BGPNGHDAECF": ""
      },
      {
        "$type": "MoleMole.Config.ConfigTimeProtectAction",
        "type": "TIME_PROTECT",
        "duration": 0.10000000149011612
      },
      {
        "$type": "IEKHMHNHENB",
        "type": "STEER_TO",
        "duration": 0.800000011920929,
        "aliasList": [
          "Avatar"
        ],
        "steerType": "TO_TARGET",
        "useSteerAnim": true,
        "targetNpcAlias": "140101",
        "BHGPHGNFCBF": ""
      },
      {
        "$type": "NPCNMEOCADD",
        "type": "LOOK_AT",
        "aliasList": [
          "Avatar"
        ],
        "enableHead": true,
        "headTurnTime": 0.5,
        "targetNpcAlias": "140101",
        "targetNpcLookAtPoint": "",
        "BHGPHGNFCBF": ""
      },
      {
        "$type": "IEKHMHNHENB",
        "type": "STEER_TO",
        "duration": 0.800000011920929,
        "aliasList": [
          "140101"
        ],
        "steerType": "TO_LOCAL_AVATAR",
        "useSteerAnim": true,
        "targetNpcAlias": "Avatar",
        "BHGPHGNFCBF": ""
      },
      {
        "$type": "NPCNMEOCADD",
        "type": "LOOK_AT",
        "aliasList": [
          "140101"
        ],
        "enableHead": true,
        "headTurnTime": 0.5,
        "targetNpcAlias": "Avatar",
        "targetNpcLookAtPoint": "",
        "BHGPHGNFCBF": ""
      }
    ],
    [
      {
        "$type": "MJFAIFFAGOF",
        "type": "DIALOG",
        "aliasList": [
          "140101"
        ],
        "dialogID": 190680301,
        "protectTime": 0.5
      },
      {
        "$type": "EDCHPJLDKIN",
        "type": "BODY_LANG",
        "aliasList": [
          "140101"
        ],
        "bodyLangParam": 1040,
        "forceDoFreeStyle": true,
        "eventPatternSuiteKey": ""
      },
      {
        "$type": "ICHLNKHGCAG",
        "type": "EMO_SYNC",
        "aliasList": [
          "140101"
        ],
        "dataPath": "Cs_Emo_Avatar_Simple_Common_Set/Cs_Emo_Avatar_Talk/Cs_Emo_Coop_Common/Cs_Emo_Coop_Noel_01/Cs_Emo_190680301",
        "phonemePath": "",
        "emotionPath": "",
        "mateDataPath": "",
        "matePhonemePath": "",
        "mateEmotionPath": "",
        "dataPathHashList": [
          16983959893869128510,
          5592565237332912315,
          10613062920620372588,
          18036487413837678670
        ],
        "PACNIGOOENN": "",
        "PIBDNPHIAGC": ""
      }
    ],
    [
      {
        "$type": "MJFAIFFAGOF",
        "type": "DIALOG",
        "aliasList": [
          "140101"
        ],
        "dialogID": 190680302,
        "protectTime": 0.5
      },
      {
        "$type": "EDCHPJLDKIN",
        "type": "BODY_LANG",
        "aliasList": [
          "140101"
        ],
        "isContinue": true,
        "forceDoFreeStyle": true,
        "eventPatternSuiteKey": ""
      },
      {
        "$type": "EDCHPJLDKIN",
        "type": "BODY_LANG",
        "delayTime": 0.5603154897689819,
        "aliasList": [
          "140101"
        ],
        "bodyLangParam": 1090,
        "forceDoFreeStyle": true,
        "eventPatternSuiteKey": ""
      },
      {
        "$type": "ICHLNKHGCAG",
        "type": "EMO_SYNC",
        "aliasList": [
          "140101"
        ],
        "dataPath": "Cs_Emo_Avatar_Simple_Common_Set/Cs_Emo_Avatar_Talk/Cs_Emo_Coop_Common/Cs_Emo_Coop_Noel_01/Cs_Emo_190680302",
        "phonemePath": "",
        "emotionPath": "",
        "mateDataPath": "",
        "matePhonemePath": "",
        "mateEmotionPath": "",
        "dataPathHashList": [
          2451531235051051635,
          6256316441252244432,
          18295113104798487067,
          11599151552641580245
        ],
        "PACNIGOOENN": "",
        "PIBDNPHIAGC": ""
      }
    ],
    [
      {
        "$type": "MJFAIFFAGOF",
        "type": "DIALOG",
        "aliasList": [
          "140101"
        ],
        "dialogID": 190680303,
        "protectTime": 0.5
      },
      {
        "$type": "EDCHPJLDKIN",
        "type": "BODY_LANG",
        "aliasList": [
          "140101"
        ],
        "isContinue": true,
        "forceDoFreeStyle": true,
        "eventPatternSuiteKey": ""
      },
      {
        "$type": "EDCHPJLDKIN",
        "type": "BODY_LANG",
        "delayTime": 0.6203793883323669,
        "aliasList": [
          "140101"
        ],
        "bodyLangParam": 1190,
        "forceDoFreeStyle": true,
        "eventPatternSuiteKey": ""
      },
      {
        "$type": "ICHLNKHGCAG",
        "type": "EMO_SYNC",
        "aliasList": [
          "140101"
        ],
        "dataPath": "Cs_Emo_Avatar_Simple_Common_Set/Cs_Emo_Avatar_Talk/Cs_Emo_Coop_Common/Cs_Emo_Coop_Noel_01/Cs_Emo_190680303",
        "phonemePath": "",
        "emotionPath": "",
        "mateDataPath": "",
        "matePhonemePath": "",
        "mateEmotionPath": "",
        "dataPathHashList": [
          8256091811170630861,
          12057585405643458360,
          10947668930389715330,
          15555332731460591223
        ],
        "PACNIGOOENN": "",
        "PIBDNPHIAGC": ""
      }
    ],
    [
      {
        "$type": "MoleMole.Config.ConfigTimeProtectAction",
        "type": "TIME_PROTECT",
        "duration": 0.10000000149011612
      },
      {
        "$type": "NPCNMEOCADD",
        "type": "LOOK_AT",
        "aliasList": [
          "Avatar"
        ],
        "headTurnTime": 0.5,
        "targetNpcAlias": "",
        "lookAtTargetType": "NONE",
        "targetNpcLookAtPoint": "",
        "BHGPHGNFCBF": ""
      },
      {
        "$type": "EDCHPJLDKIN",
        "type": "BODY_LANG",
        "aliasList": [
          "140101"
        ],
        "isContinue": true,
        "forceDoFreeStyle": true,
        "eventPatternSuiteKey": ""
      },
      {
        "$type": "IEKHMHNHENB",
        "type": "STEER_TO",
        "duration": 0.800000011920929,
        "aliasList": [
          "140101"
        ],
        "steerType": "RETURN",
        "useSteerAnim": true,
        "targetNpcAlias": "Avatar",
        "BHGPHGNFCBF": ""
      }
    ]
  ],
  "groupId": [
    {
      "grpId": 4145967278,
      "nextGrpId": 4145967279
    },
    {
      "index": 1,
      "grpId": 4145967279,
      "nextGrpId": 4145967280
    },
    {
      "index": 2,
      "grpId": 4145967280,
      "nextGrpId": 4145967281
    },
    {
      "index": 3,
      "grpId": 4145967281,
      "nextGrpId": 4145967282
    },
    {
      "index": 4,
      "grpId": 4145967282,
      "nextGrpId": 4145967283
    }
  ],
  "freeStyleDic": {
    "140101": [
      1040,
      1090,
      1190
    ]
  }
}