[
  {
    "crowdGroupID": 2,
    "boundCenter": {
      "x": 809.7908935546875,
      "y": 24.66048812866211,
      "z": 522.6240234375
    },
    "boundSize": {
      "x": 53.904541015625,
      "y": 5.047019958496094,
      "z": 47.1234130859375
    },
    "spawnByDefault": false,
    "crowdRestrictionGroups": [
      {
        "GICFIDJNKEH": [
          {
            "questID1": 1400622,
            "questID2": 1400614
          }
        ]
      }
    ],
    "canBeOptimized": true
  },
  {
    "crowdGroupID": 3,
    "boundCenter": {
      "x": 809.446533203125,
      "y": 24.011690139770508,
      "z": 394.64215087890625
    },
    "boundSize": {
      "x": 5.40155029296875,
      "y": 0.2768402099609375,
      "z": 26.08367919921875
    },
    "spawnByDefault": false,
    "crowdRestrictionGroups": [
      {
        "GICFIDJNKEH": [
          {
            "questID1": 1400627,
            "questID2": 1400614
          }
        ]
      }
    ],
    "canBeOptimized": true
  }
]