[
  {
    "crowdGroupID": 1,
    "boundCenter": {
      "x": 1558.50146484375,
      "y": 243.23484802246094,
      "z": 467.53424072265625
    },
    "boundSize": {
      "x": 47.3009033203125,
      "y": 13.040313720703125,
      "z": 63.176513671875
    },
    "spawnByDefault": false,
    "crowdRestrictionGroups": [
      {
        "questRes": [
          {
            "questID": 1903001,
            "questStates": [
              "QUEST_STATE_UNFINISHED"
            ]
          }
        ],
        "KBGJFBIBNNH": [
          {
            "mainQuestId": 19030
          }
        ]
      }
    ],
    "KPGKDHAFHFE": "QUEST"
  },
  {
    "crowdGroupID": 2,
    "boundCenter": {
      "x": 1550.3896484375,
      "y": 250.25149536132812,
      "z": 432.4819030761719
    },
    "boundSize": {
      "x": 24.6051025390625,
      "y": 1.440185546875,
      "z": 6.35418701171875
    },
    "spawnByDefault": false,
    "crowdRestrictionGroups": [
      {
        "questRes": [
          {
            "questID": 1903001,
            "questStates": [
              "QUEST_STATE_UNFINISHED"
            ]
          }
        ],
        "KBGJFBIBNNH": [
          {
            "mainQuestId": 19030
          }
        ]
      }
    ],
    "KPGKDHAFHFE": "QUEST"
  },
  {
    "crowdGroupID": 3,
    "boundCenter": {
      "x": 1754.615966796875,
      "y": 235.4813995361328,
      "z": 652.168212890625
    },
    "boundSize": {
      "x": 79.446044921875,
      "y": 22.8953857421875,
      "z": 35.22216796875
    },
    "spawnByDefault": false,
    "crowdRestrictionGroups": [
      {
        "activityRes": [
          {
            "activityType": 2402,
            "condID": 2010203
          }
        ]
      }
    ],
    "KPGKDHAFHFE": "ACTIVITY"
  },
  {
    "crowdGroupID": 4,
    "boundCenter": {
      "x": 1564.12451171875,
      "y": 220.89759826660156,
      "z": 255.46762084960938
    },
    "boundSize": {
      "x": 35.8330078125,
      "y": 4.283203125,
      "z": 19.309036254882812
    },
    "spawnByDefault": false,
    "crowdRestrictionGroups": [
      {
        "activityRes": [
          {
            "activityType": 4102,
            "condID": 2025001
          }
        ]
      }
    ],
    "KPGKDHAFHFE": "ACTIVITY"
  }
]