{
  "LanV4PartyLionSurvival": {
    "$type": "LHHIDHIFDKC",
    "LIGEFONDPBL": "DisableLanV4PartyLionDungeon",
    "uiEntryDisableList": [
      "ACTIVITY_NORMAL_BTN",
      "PAIMON_MENU_BTN",
      "GACHA_BTN",
      "HANDBOOK_BTN",
      "HOMEWORLD_HANDBOOK_BTN",
      "BATTLE_PASS_BTN",
      "BAG_BTN",
      "CHARACTER_BTN",
      "QUEST_BTN",
      "REUNION_BTN"
    ],
    "LDGGHPIEBGO": [
      "TeamPanelSkillButton",
      "TeamPanelChangeAvatar",
      "TeamPanelLongPress",
      "VirtualDialActivitySkill"
    ],
    "LFLEDPBGEMI": "",
    "dungeonType": "DUNGEON_LAN_V4_PARTY_LION_SURVIVAL",
    "LHIOMAIABGJ": "",
    "PFNHKEKLBGK": "",
    "NOFEILKMNIH": "",
    "CNEMBJIBELN": ""
  }
}