{
  "InstableSpray": {
    "$type": "LHHIDHIFDKC",
    "LIGEFONDPBL": "",
    "uiEntryDisableList": [
      "ACTIVITY_NORMAL_BTN",
      "BAG_BTN",
      "HANDBOOK_BTN",
      "GACHA_BTN",
      "BATTLE_PASS_BTN",
      "MULTIPLAYER_BTN",
      "QUEST_BTN"
    ],
    "KAMJLNDIMHI": true,
    "HKFNBGNCLCG": true,
    "DCGCAGMHMEE": true,
    "LFLEDPBGEMI": "UI_BtnIcon_ActivityTips",
    "dungeonType": "DUNGEON_INSTABLE_SPRAY",
    "GIOLFLLDGCM": true,
    "MIIMPAKLDMM": true,
    "LHIOMAIABGJ": "UI_COMMON_TIPS_TITLE",
    "PFNHKEKLBGK": "UI_STC_Intee_DungeonExit",
    "NOFEILKMNIH": "",
    "CNEMBJIBELN": ""
  }
}