{
  "id": 400401,
  "DBODAALDMBK": "REFUTE_400601_TITLETEXTTEXTMAP_134",
  "HOCBBCJLPPH": -2,
  "KIACGKEJAKJ": 2,
  "IEGIKGIDJNC": "REFUTE_400601_ENEMYNAMETEXTMAP_135",
  "FJFFLDLHBML": "UI_NPC_Quest_Furina",
  "JGFJIEOCEJE": 40065108,
  "FHGOPPJKBMD": [
    13316
  ],
  "KDABHDAIAHL": "REFUTE_400601_SELFNAMETEXTMAP_136",
  "CPECAALOJEO": "UI_AvatarIcon_PlayerGirl",
  "FEDBPIBOOPA": true,
  "FNJDFBMFNNO": 40065501,
  "HKMBAEIPEPN": [
    0,
    1005
  ],
  "ABODGKFLBCG": 400620,
  "BLMDPEICKEE": [
    {
      "id": 40040101,
      "title": "REFUTEBULLET_400601_TITLETEXTMAP_152",
      "OIHFGGNDFLL": "REFUTEBULLET_400601_TITLECORRECTTEXTMAP_153",
      "AIMPJLAFAKH": 40065101,
      "HFJPDOBFGOC": "UI_QuestRefute_400401_01",
      "MADOJNMNCJP": "UI_QuestRefuteSmall_400401_01",
      "icon": "",
      "MFIMFHEHNOO": "REFUTEBULLET_400601_DESCRIPTIONTEXTMAP_154",
      "KBGMLAGJIEP": "REFUTEBULLET_400601_DESCRIPTIONCORRECTTEXTMAP_155"
    },
    {
      "id": 40040102,
      "title": "REFUTEBULLET_400601_TITLETEXTMAP_144",
      "OIHFGGNDFLL": "REFUTEBULLET_400601_TITLECORRECTTEXTMAP_145",
      "AIMPJLAFAKH": 40065102,
      "HFJPDOBFGOC": "UI_QuestRefute_400401_02e",
      "MADOJNMNCJP": "UI_QuestRefuteSmall_400401_02e",
      "icon": "",
      "MFIMFHEHNOO": "REFUTEBULLET_400601_DESCRIPTIONTEXTMAP_146",
      "KBGMLAGJIEP": "REFUTEBULLET_400601_DESCRIPTIONCORRECTTEXTMAP_147"
    },
    {
      "id": 40040103,
      "title": "REFUTEBULLET_400601_TITLETEXTMAP_168",
      "OIHFGGNDFLL": "REFUTEBULLET_400601_TITLECORRECTTEXTMAP_169",
      "AIMPJLAFAKH": 40065104,
      "HFJPDOBFGOC": "UI_QuestRefute_400401_03e",
      "MADOJNMNCJP": "UI_QuestRefuteSmall_400401_03e",
      "icon": "",
      "MFIMFHEHNOO": "REFUTEBULLET_400601_DESCRIPTIONTEXTMAP_170",
      "KBGMLAGJIEP": "REFUTEBULLET_400601_DESCRIPTIONCORRECTTEXTMAP_171"
    },
    {
      "id": 40040104,
      "title": "REFUTEBULLET_400601_TITLETEXTMAP_156",
      "OIHFGGNDFLL": "REFUTEBULLET_400601_TITLECORRECTTEXTMAP_157",
      "AIMPJLAFAKH": 40065105,
      "HFJPDOBFGOC": "UI_QuestRefute_400401_04e",
      "MADOJNMNCJP": "UI_QuestRefuteSmall_400401_04e",
      "icon": "",
      "MFIMFHEHNOO": "REFUTEBULLET_400601_DESCRIPTIONTEXTMAP_158",
      "KBGMLAGJIEP": "REFUTEBULLET_400601_DESCRIPTIONCORRECTTEXTMAP_159"
    },
    {
      "id": 40040105,
      "title": "REFUTEBULLET_400601_TITLETEXTMAP_160",
      "OIHFGGNDFLL": "REFUTEBULLET_400601_TITLECORRECTTEXTMAP_161",
      "AIMPJLAFAKH": 40065107,
      "HFJPDOBFGOC": "UI_QuestRefute_400401_05",
      "MADOJNMNCJP": "UI_QuestRefuteSmall_400401_05",
      "icon": "",
      "MFIMFHEHNOO": "REFUTEBULLET_400601_DESCRIPTIONTEXTMAP_162",
      "KBGMLAGJIEP": "REFUTEBULLET_400601_DESCRIPTIONCORRECTTEXTMAP_163"
    }
  ],
  "OMCNIGGONDG": [
    {
      "id": 40040106,
      "title": "REFUTEBULLET_400601_TITLETEXTMAP_172",
      "OIHFGGNDFLL": "REFUTEBULLET_400601_TITLECORRECTTEXTMAP_173",
      "CHJEEILPBJA": [
        {
          "JHACBEGAFBG": 40065201,
          "IPPCCHKLFPI": "UI_AvatarIcon_PlayerGirl",
          "isSelf": true
        }
      ],
      "JDPPPOJOOFN": [
        {
          "JHACBEGAFBG": 40069910,
          "IPPCCHKLFPI": "UI_AvatarIcon_PlayerGirl",
          "isSelf": true
        }
      ],
      "HFJPDOBFGOC": "UI_QuestRefute_400401_02s",
      "MADOJNMNCJP": "UI_QuestRefuteSmall_400401_02s",
      "icon": "UI_NPC_Quest_Liney",
      "MFIMFHEHNOO": "REFUTEBULLET_400601_DESCRIPTIONTEXTMAP_174",
      "KBGMLAGJIEP": "REFUTEBULLET_400601_DESCRIPTIONCORRECTTEXTMAP_175",
      "NPCNBJOAGJD": [
        40040102
      ]
    },
    {
      "id": 40040107,
      "title": "REFUTEBULLET_400601_TITLETEXTMAP_176",
      "OIHFGGNDFLL": "REFUTEBULLET_400601_TITLECORRECTTEXTMAP_177",
      "JDPPPOJOOFN": [
        {
          "JHACBEGAFBG": 40069910,
          "IPPCCHKLFPI": "UI_AvatarIcon_PlayerGirl",
          "isSelf": true
        }
      ],
      "HFJPDOBFGOC": "",
      "MADOJNMNCJP": "",
      "icon": "UI_QuestIcon_400411",
      "MFIMFHEHNOO": "REFUTEBULLET_400601_DESCRIPTIONTEXTMAP_178",
      "KBGMLAGJIEP": "REFUTEBULLET_400601_DESCRIPTIONCORRECTTEXTMAP_179"
    },
    {
      "id": 40040108,
      "title": "REFUTEBULLET_400601_TITLETEXTMAP_180",
      "OIHFGGNDFLL": "REFUTEBULLET_400601_TITLECORRECTTEXTMAP_181",
      "CHJEEILPBJA": [
        {
          "JHACBEGAFBG": 40065301,
          "IPPCCHKLFPI": "UI_AvatarIcon_PlayerGirl",
          "isSelf": true
        }
      ],
      "JDPPPOJOOFN": [
        {
          "JHACBEGAFBG": 40069910,
          "IPPCCHKLFPI": "UI_AvatarIcon_PlayerGirl",
          "isSelf": true
        }
      ],
      "HFJPDOBFGOC": "UI_QuestRefute_400401_03s",
      "MADOJNMNCJP": "UI_QuestRefuteSmall_400401_03s",
      "icon": "UI_QuestIcon_400414",
      "MFIMFHEHNOO": "REFUTEBULLET_400601_DESCRIPTIONTEXTMAP_182",
      "KBGMLAGJIEP": "REFUTEBULLET_400601_DESCRIPTIONCORRECTTEXTMAP_183",
      "NPCNBJOAGJD": [
        40040103
      ]
    },
    {
      "id": 40040109,
      "title": "REFUTEBULLET_400601_TITLETEXTMAP_184",
      "OIHFGGNDFLL": "REFUTEBULLET_400601_TITLECORRECTTEXTMAP_185",
      "CHJEEILPBJA": [
        {
          "JHACBEGAFBG": 40065401,
          "IPPCCHKLFPI": "UI_AvatarIcon_PlayerGirl",
          "isSelf": true
        }
      ],
      "JDPPPOJOOFN": [
        {
          "JHACBEGAFBG": 40069910,
          "IPPCCHKLFPI": "UI_AvatarIcon_PlayerGirl",
          "isSelf": true
        }
      ],
      "HFJPDOBFGOC": "UI_QuestRefute_400401_04s",
      "MADOJNMNCJP": "UI_QuestRefuteSmall_400401_04s",
      "icon": "UI_QuestIcon_400403",
      "MFIMFHEHNOO": "REFUTEBULLET_400601_DESCRIPTIONTEXTMAP_186",
      "KBGMLAGJIEP": "REFUTEBULLET_400601_DESCRIPTIONCORRECTTEXTMAP_187",
      "NPCNBJOAGJD": [
        40040104
      ]
    },
    {
      "id": 40040110,
      "title": "REFUTEBULLET_400601_TITLETEXTMAP_188",
      "OIHFGGNDFLL": "REFUTEBULLET_400601_TITLECORRECTTEXTMAP_189",
      "JDPPPOJOOFN": [
        {
          "JHACBEGAFBG": 40069910,
          "IPPCCHKLFPI": "UI_AvatarIcon_PlayerGirl",
          "isSelf": true
        }
      ],
      "HFJPDOBFGOC": "",
      "MADOJNMNCJP": "",
      "icon": "UI_QuestIcon_400412",
      "MFIMFHEHNOO": "REFUTEBULLET_400601_DESCRIPTIONTEXTMAP_190",
      "KBGMLAGJIEP": "REFUTEBULLET_400601_DESCRIPTIONCORRECTTEXTMAP_191"
    }
  ],
  "KIBKCCPBLAE": 1548,
  "answer": [
    [
      40040101,
      40040106,
      40040108,
      40040109,
      40040105
    ]
  ],
  "mainQuestID": 4006,
  "JFIJELMAELG": ""
}