{
  "RainbowPrince": {
    "$type": "LHHIDHIFDKC",
    "LIGEFONDPBL": "",
    "uiEntryDisableList": [
      "ACTIVITY_NORMAL_BTN",
      "HANDBOOK_BTN",
      "GACHA_BTN",
      "BATTLE_PASS_BTN",
      "MULTIPLAYER_BTN"
    ],
    "GFNKMOOKHEJ": [
      "PlayerVars"
    ],
    "KAMJLNDIMHI": true,
    "DCGCAGMHMEE": true,
    "LFLEDPBGEMI": "UI_BtnIcon_ActivityTips",
    "dungeonType": "DUNGEON_RAINBOW_PRINCE",
    "JEBDEKFDKJJ": true,
    "GIOLFLLDGCM": true,
    "MIIMPAKLDMM": true,
    "LHIOMAIABGJ": "UI_TEXT_PROMPT",
    "PFNHKEKLBGK": "UI_STC_Intee_DungeonExit",
    "EPJMDLADJKN": true,
    "NOFEILKMNIH": "UI_TEXT_PROMPT",
    "CNEMBJIBELN": "UI_ACTIVITY_RAINBOWPRINCE_DUNGEON_EXITTIPS"
  },
  "RainbowPrincePlot": {
    "$type": "LHHIDHIFDKC",
    "LIGEFONDPBL": "",
    "uiEntryDisableList": [
      "ACTIVITY_NORMAL_BTN",
      "HANDBOOK_BTN",
      "GACHA_BTN",
      "BATTLE_PASS_BTN",
      "MULTIPLAYER_BTN"
    ],
    "KAMJLNDIMHI": true,
    "DCGCAGMHMEE": true,
    "LFLEDPBGEMI": "UI_BtnIcon_ActivityTips",
    "dungeonType": "DUNGEON_RAINBOW_PRINCE_PLOT",
    "LHIOMAIABGJ": "",
    "PFNHKEKLBGK": "",
    "NOFEILKMNIH": "",
    "CNEMBJIBELN": ""
  }
}