{
  "DIMNNMOIPGO": {
    "1": {
      "NFNFCKKBIAF": [
        1,
        2
      ],
      "MDEGDMIDCBH": {
        "ONIGKMEJCDM": [
          1
        ],
        "PJCFEICJEBK": [
          1,
          2
        ]
      },
      "FDMIOPBCBOH": {
        "DOOHHLIDEKP": [
          1,
          2,
          3
        ],
        "APNKIFAJJBO": [
          1,
          2
        ]
      }
    },
    "2": {
      "MDEGDMIDCBH": {},
      "FDMIOPBCBOH": {
        "DOOHHLIDEKP": [
          2,
          3
        ]
      }
    },
    "3": {
      "MDEGDMIDCBH": {
        "ONIGKMEJCDM": [
          1
        ],
        "PJCFEICJEBK": [
          5
        ]
      },
      "FDMIOPBCBOH": {
        "DOOHHLIDEKP": [
          2,
          3
        ]
      }
    },
    "4": {
      "NFNFCKKBIAF": [
        4,
        6
      ],
      "MDEGDMIDCBH": {
        "ONIGKMEJCDM": [
          1
        ],
        "PJCFEICJEBK": [
          5
        ]
      },
      "FDMIOPBCBOH": {
        "DOOHHLIDEKP": [
          1,
          2,
          3
        ],
        "APNKIFAJJBO": [
          4,
          6
        ]
      }
    },
    "5": {
      "NFNFCKKBIAF": [
        4,
        6
      ],
      "MDEGDMIDCBH": {
        "ONIGKMEJCDM": [
          1
        ],
        "PJCFEICJEBK": [
          5
        ]
      },
      "FDMIOPBCBOH": {
        "DOOHHLIDEKP": [
          1,
          2,
          3
        ],
        "APNKIFAJJBO": [
          4,
          6
        ]
      }
    },
    "6": {
      "NFNFCKKBIAF": [
        10,
        11,
        12,
        21,
        13,
        18,
        19,
        20,
        22,
        23,
        24,
        25,
        26,
        27,
        28,
        29
      ],
      "MDEGDMIDCBH": {},
      "FDMIOPBCBOH": {
        "DOOHHLIDEKP": [
          2,
          3
        ]
      }
    },
    "7": {
      "NFNFCKKBIAF": [
        14,
        15
      ],
      "MDEGDMIDCBH": {
        "ONIGKMEJCDM": [
          1
        ],
        "PJCFEICJEBK": [
          14,
          15,
          16
        ]
      },
      "FDMIOPBCBOH": {
        "DOOHHLIDEKP": [
          1,
          2,
          3
        ],
        "APNKIFAJJBO": [
          14,
          15
        ]
      }
    },
    "8": {
      "JMEGMHCDLHN": false,
      "MDEGDMIDCBH": {},
      "FDMIOPBCBOH": {}
    },
    "9": {
      "MDEGDMIDCBH": {
        "ONIGKMEJCDM": [
          4
        ]
      },
      "FDMIOPBCBOH": {
        "DOOHHLIDEKP": [
          2,
          3
        ]
      }
    },
    "10": {
      "NFNFCKKBIAF": [
        4,
        5
      ],
      "MDEGDMIDCBH": {
        "ONIGKMEJCDM": [
          1
        ],
        "PJCFEICJEBK": [
          4,
          5,
          17
        ]
      },
      "FDMIOPBCBOH": {
        "DOOHHLIDEKP": [
          1,
          2
        ],
        "APNKIFAJJBO": [
          4,
          17
        ]
      }
    },
    "11": {
      "NFNFCKKBIAF": [
        4
      ],
      "MDEGDMIDCBH": {
        "ONIGKMEJCDM": [
          1
        ],
        "PJCFEICJEBK": [
          5
        ]
      },
      "FDMIOPBCBOH": {
        "DOOHHLIDEKP": [
          1,
          2,
          3
        ],
        "APNKIFAJJBO": [
          4,
          5
        ]
      }
    },
    "12": {
      "MDEGDMIDCBH": {
        "ONIGKMEJCDM": [
          1
        ],
        "PJCFEICJEBK": [
          5
        ]
      },
      "FDMIOPBCBOH": {
        "DOOHHLIDEKP": [
          2,
          3
        ]
      }
    },
    "13": {
      "JMEGMHCDLHN": false,
      "NFNFCKKBIAF": [
        7,
        8
      ],
      "MDEGDMIDCBH": {
        "ONIGKMEJCDM": [
          1
        ],
        "PJCFEICJEBK": [
          7,
          8
        ]
      },
      "FDMIOPBCBOH": {
        "DOOHHLIDEKP": [
          1
        ],
        "APNKIFAJJBO": [
          7,
          8
        ]
      }
    },
    "14": {
      "MDEGDMIDCBH": {},
      "FDMIOPBCBOH": {
        "DOOHHLIDEKP": [
          2
        ]
      }
    },
    "15": {
      "AMIBFLLCDHC": 201,
      "NFNFCKKBIAF": [
        5,
        4
      ],
      "MDEGDMIDCBH": {
        "ONIGKMEJCDM": [
          1
        ],
        "PJCFEICJEBK": [
          4,
          5
        ]
      },
      "FDMIOPBCBOH": {
        "DOOHHLIDEKP": [
          1,
          2,
          3
        ],
        "APNKIFAJJBO": [
          4,
          5
        ]
      }
    }
  }
}