{
  "HideAndSeekV4": {
    "$type": "LHHIDHIFDKC",
    "LIGEFONDPBL": "",
    "uiEntryDisableList": [
      "REUNION_BTN",
      "ACTIVITY_NORMAL_BTN",
      "BATTLE_PASS_BTN",
      "BAG_BTN",
      "GACHA_BTN",
      "HANDBOOK_BTN",
      "CHARACTER_BTN",
      "QUEST_BTN",
      "OPEN_MAP"
    ],
    "LDGGHPIEBGO": [
      "TeamPanelLongPress",
      "TeamPanelSkillButton",
      "TeamPanelChangeAvatar"
    ],
    "JGAKIHPJMOE": [
      "Kick",
      "ChangeAvatar",
      "Photograph",
      "Time",
      "Team",
      "QuickWidget",
      "Friends",
      "MapTransport",
      "TrainingGuide"
    ],
    "GFNKMOOKHEJ": [
      "PlayerVars",
      "HomeWorld"
    ],
    "GEPKFEGEMBI": true,
    "LFLEDPBGEMI": "",
    "dungeonType": "DUNGEON_HIDE_AND_SEEK_V4",
    "LHIOMAIABGJ": "",
    "PFNHKEKLBGK": "",
    "NOFEILKMNIH": "",
    "CNEMBJIBELN": ""
  }
}