{
  "15": {
    "trackID": 15,
    "groupID": 511020002,
    "KLDEECLCHCD": 2002,
    "FPPEEOKFDGI": "GoldenHallTrack",
    "BCIJFMIPLBF": [
      {
        "$type": "EJCAAOCJLPC",
        "NNBDKMNJNAP": 6002,
        "FPPEEOKFDGI": "",
        "CIJGNNPFCIC": [
          {
            "groupID": 511020002,
            "KLDEECLCHCD": 2002,
            "FPPEEOKFDGI": "InitSuccessTarget"
          }
        ],
        "ODIOFNMFBGC": [
          {
            "$type": "GPAOJOMNGMI",
            "paramList": {
              "TargetSuccessCount": 6.0
            }
          }
        ]
      },
      {
        "$type": "EJCAAOCJLPC",
        "NNBDKMNJNAP": 6001,
        "FPPEEOKFDGI": "",
        "CIJGNNPFCIC": [
          {
            "groupID": 511020002,
            "KLDEECLCHCD": 2002,
            "FPPEEOKFDGI": "SuccessCheck"
          }
        ],
        "ODIOFNMFBGC": [
          {
            "$type": "GPAOJOMNGMI",
            "HPBBFPFKEOJ": 22.0,
            "paramList": {
              "NextStage": 8.0
            }
          },
          {
            "$type": "GPAOJOMNGMI",
            "HPBBFPFKEOJ": 30.0,
            "paramList": {
              "NextStage": 3.0
            }
          }
        ]
      },
      {
        "$type": "EJCAAOCJLPC",
        "NNBDKMNJNAP": 6003,
        "FPPEEOKFDGI": "",
        "CIJGNNPFCIC": [
          {
            "groupID": 511020002,
            "KLDEECLCHCD": 2003,
            "FPPEEOKFDGI": "EventReceiver"
          }
        ],
        "ODIOFNMFBGC": [
          {
            "$type": "GPAOJOMNGMI",
            "HPBBFPFKEOJ": 4.0,
            "paramList": {
              "qteID": 17.0
            }
          }
        ]
      },
      {
        "$type": "EJCAAOCJLPC",
        "NNBDKMNJNAP": 6004,
        "FPPEEOKFDGI": "",
        "CIJGNNPFCIC": [
          {
            "groupID": 511020002,
            "KLDEECLCHCD": 2061,
            "FPPEEOKFDGI": "EventReceiver"
          }
        ],
        "ODIOFNMFBGC": [
          {
            "$type": "GPAOJOMNGMI",
            "HPBBFPFKEOJ": 4.0,
            "paramList": {
              "qteID": 18.0
            }
          }
        ]
      },
      {
        "$type": "EJCAAOCJLPC",
        "NNBDKMNJNAP": 6005,
        "FPPEEOKFDGI": "",
        "CIJGNNPFCIC": [
          {
            "groupID": 511020002,
            "KLDEECLCHCD": 2062,
            "FPPEEOKFDGI": "EventReceiver"
          }
        ],
        "ODIOFNMFBGC": [
          {
            "$type": "GPAOJOMNGMI",
            "HPBBFPFKEOJ": 4.0,
            "paramList": {
              "qteID": 19.0
            }
          }
        ]
      },
      {
        "$type": "EJCAAOCJLPC",
        "NNBDKMNJNAP": 6009,
        "FPPEEOKFDGI": "",
        "CIJGNNPFCIC": [
          {
            "groupID": 511020002,
            "KLDEECLCHCD": 2070,
            "FPPEEOKFDGI": "EventReceiver"
          }
        ],
        "ODIOFNMFBGC": [
          {
            "$type": "GPAOJOMNGMI",
            "HPBBFPFKEOJ": 4.0,
            "paramList": {
              "qteID": 20.0
            }
          }
        ]
      },
      {
        "$type": "EJCAAOCJLPC",
        "NNBDKMNJNAP": 6010,
        "FPPEEOKFDGI": "",
        "CIJGNNPFCIC": [
          {
            "groupID": 511020002,
            "KLDEECLCHCD": 2069,
            "FPPEEOKFDGI": "EventReceiver"
          }
        ],
        "ODIOFNMFBGC": [
          {
            "$type": "GPAOJOMNGMI",
            "HPBBFPFKEOJ": 13.0,
            "paramList": {
              "qteID": 21.0
            }
          }
        ]
      },
      {
        "$type": "EJCAAOCJLPC",
        "NNBDKMNJNAP": 6011,
        "FPPEEOKFDGI": "",
        "CIJGNNPFCIC": [
          {
            "groupID": 511020002,
            "KLDEECLCHCD": 2068,
            "FPPEEOKFDGI": "EventReceiver"
          }
        ],
        "ODIOFNMFBGC": [
          {
            "$type": "GPAOJOMNGMI",
            "HPBBFPFKEOJ": 13.0,
            "paramList": {
              "qteID": 22.0
            }
          }
        ]
      },
      {
        "$type": "EJCAAOCJLPC",
        "NNBDKMNJNAP": 6006,
        "FPPEEOKFDGI": "",
        "CIJGNNPFCIC": [
          {
            "groupID": 511020002,
            "KLDEECLCHCD": 2003,
            "FPPEEOKFDGI": "Event_ShowGoal"
          }
        ],
        "ODIOFNMFBGC": [
          {
            "$type": "GPAOJOMNGMI",
            "HPBBFPFKEOJ": 8.5
          }
        ]
      },
      {
        "$type": "EJCAAOCJLPC",
        "NNBDKMNJNAP": 6007,
        "FPPEEOKFDGI": "",
        "CIJGNNPFCIC": [
          {
            "groupID": 511020002,
            "KLDEECLCHCD": 2061,
            "FPPEEOKFDGI": "Event_ShowGoal"
          }
        ],
        "ODIOFNMFBGC": [
          {
            "$type": "GPAOJOMNGMI",
            "HPBBFPFKEOJ": 8.0
          }
        ]
      },
      {
        "$type": "EJCAAOCJLPC",
        "NNBDKMNJNAP": 6008,
        "FPPEEOKFDGI": "",
        "CIJGNNPFCIC": [
          {
            "groupID": 511020002,
            "KLDEECLCHCD": 2062,
            "FPPEEOKFDGI": "Event_ShowGoal"
          }
        ],
        "ODIOFNMFBGC": [
          {
            "$type": "GPAOJOMNGMI",
            "HPBBFPFKEOJ": 9.5
          }
        ]
      },
      {
        "$type": "EJCAAOCJLPC",
        "NNBDKMNJNAP": 6012,
        "FPPEEOKFDGI": "",
        "CIJGNNPFCIC": [
          {
            "groupID": 511020002,
            "KLDEECLCHCD": 2070,
            "FPPEEOKFDGI": "Event_ShowGoal"
          }
        ],
        "ODIOFNMFBGC": [
          {
            "$type": "GPAOJOMNGMI",
            "HPBBFPFKEOJ": 10.0
          }
        ]
      },
      {
        "$type": "EJCAAOCJLPC",
        "NNBDKMNJNAP": 6013,
        "FPPEEOKFDGI": "",
        "CIJGNNPFCIC": [
          {
            "groupID": 511020002,
            "KLDEECLCHCD": 2069,
            "FPPEEOKFDGI": "Event_ShowGoal"
          }
        ],
        "ODIOFNMFBGC": [
          {
            "$type": "GPAOJOMNGMI",
            "HPBBFPFKEOJ": 16.0
          }
        ]
      },
      {
        "$type": "EJCAAOCJLPC",
        "NNBDKMNJNAP": 6014,
        "FPPEEOKFDGI": "",
        "CIJGNNPFCIC": [
          {
            "groupID": 511020002,
            "KLDEECLCHCD": 2068,
            "FPPEEOKFDGI": "Event_ShowGoal"
          }
        ],
        "ODIOFNMFBGC": [
          {
            "$type": "GPAOJOMNGMI",
            "HPBBFPFKEOJ": 16.0
          }
        ]
      },
      {
        "$type": "EJCAAOCJLPC",
        "NNBDKMNJNAP": 6015,
        "FPPEEOKFDGI": "",
        "CIJGNNPFCIC": [
          {
            "groupID": 511020002,
            "KLDEECLCHCD": 2002,
            "FPPEEOKFDGI": "CheckSuccAndSLC"
          }
        ],
        "ODIOFNMFBGC": [
          {
            "$type": "GPAOJOMNGMI",
            "HPBBFPFKEOJ": 19.600000381469727
          }
        ]
      },
      {
        "$type": "EJCAAOCJLPC",
        "NNBDKMNJNAP": 6016,
        "FPPEEOKFDGI": "",
        "CIJGNNPFCIC": [
          {
            "groupID": 511020002,
            "KLDEECLCHCD": 2098,
            "FPPEEOKFDGI": "EventReceiver"
          }
        ],
        "ODIOFNMFBGC": [
          {
            "$type": "GPAOJOMNGMI",
            "paramList": {
              "qteID": 23.0
            }
          }
        ]
      },
      {
        "$type": "EJCAAOCJLPC",
        "NNBDKMNJNAP": 6017,
        "FPPEEOKFDGI": "",
        "CIJGNNPFCIC": [
          {
            "groupID": 511020002,
            "KLDEECLCHCD": 2003,
            "FPPEEOKFDGI": "Event_StartQTE"
          }
        ],
        "ODIOFNMFBGC": [
          {
            "$type": "GPAOJOMNGMI",
            "HPBBFPFKEOJ": 9.5,
            "paramList": {
              "QTETime": 0.0
            }
          }
        ]
      },
      {
        "$type": "EJCAAOCJLPC",
        "NNBDKMNJNAP": 6018,
        "FPPEEOKFDGI": "",
        "CIJGNNPFCIC": [
          {
            "groupID": 511020002,
            "KLDEECLCHCD": 2061,
            "FPPEEOKFDGI": "Event_StartQTE"
          }
        ],
        "ODIOFNMFBGC": [
          {
            "$type": "GPAOJOMNGMI",
            "HPBBFPFKEOJ": 8.5,
            "paramList": {
              "QTETime": 0.0
            }
          }
        ]
      },
      {
        "$type": "EJCAAOCJLPC",
        "NNBDKMNJNAP": 6019,
        "FPPEEOKFDGI": "",
        "CIJGNNPFCIC": [
          {
            "groupID": 511020002,
            "KLDEECLCHCD": 2062,
            "FPPEEOKFDGI": "Event_StartQTE"
          }
        ],
        "ODIOFNMFBGC": [
          {
            "$type": "GPAOJOMNGMI",
            "HPBBFPFKEOJ": 10.0,
            "paramList": {
              "QTETime": 0.0
            }
          }
        ]
      },
      {
        "$type": "EJCAAOCJLPC",
        "NNBDKMNJNAP": 6020,
        "FPPEEOKFDGI": "",
        "CIJGNNPFCIC": [
          {
            "groupID": 511020002,
            "KLDEECLCHCD": 2070,
            "FPPEEOKFDGI": "Event_StartQTE"
          }
        ],
        "ODIOFNMFBGC": [
          {
            "$type": "GPAOJOMNGMI",
            "HPBBFPFKEOJ": 10.5,
            "paramList": {
              "QTETime": 0.0
            }
          }
        ]
      },
      {
        "$type": "EJCAAOCJLPC",
        "NNBDKMNJNAP": 6021,
        "FPPEEOKFDGI": "",
        "CIJGNNPFCIC": [
          {
            "groupID": 511020002,
            "KLDEECLCHCD": 2069,
            "FPPEEOKFDGI": "Event_StartQTE"
          }
        ],
        "ODIOFNMFBGC": [
          {
            "$type": "GPAOJOMNGMI",
            "HPBBFPFKEOJ": 16.5,
            "paramList": {
              "QTETime": 0.0
            }
          }
        ]
      },
      {
        "$type": "EJCAAOCJLPC",
        "NNBDKMNJNAP": 6022,
        "FPPEEOKFDGI": "",
        "CIJGNNPFCIC": [
          {
            "groupID": 511020002,
            "KLDEECLCHCD": 2068,
            "FPPEEOKFDGI": "Event_StartQTE"
          }
        ],
        "ODIOFNMFBGC": [
          {
            "$type": "GPAOJOMNGMI",
            "HPBBFPFKEOJ": 17.5,
            "paramList": {
              "QTETime": 0.0
            }
          }
        ]
      }
    ],
    "EBLNCLHLMHP": 22.43899917602539,
    "KONBPAKNKCA": true,
    "MBPCCIACFIB": "",
    "BHONKIOJBME": 3,
    "JCOMLHGOKOI": "Part06"
  }
}