{
  "RoleCombat": {
    "$type": "LHHIDHIFDKC",
    "LIGEFONDPBL": "",
    "uiEntryDisableList": [
      "ACTIVITY_NORMAL_BTN",
      "CHARACTER_BTN",
      "BAG_BTN",
      "HANDBOOK_BTN",
      "BATTLE_PASS_BTN",
      "GACHA_BTN"
    ],
    "JGAKIHPJMOE": [
      "Team"
    ],
    "GEPKFEGEMBI": true,
    "HKFNBGNCLCG": true,
    "LFLEDPBGEMI": "",
    "dungeonType": "DUNGEON_ROLE_COMBAT",
    "LHIOMAIABGJ": "",
    "PFNHKEKLBGK": "",
    "NOFEILKMNIH": "",
    "CNEMBJIBELN": ""
  }
}