{
  "ONJKPNJBGON": 4021,
  "KOHDKIGOBEE": {
    "402101": {
      "$type": "NLJAKIECMCN",
      "IDOMICDCGGO": 402101,
      "EEECACLLBBN": 4022,
      "GJCJMOBINBC": true,
      "itemType": "Clues",
      "GJGKBBOCDKG": 402101,
      "sortID": 1,
      "NAODLMAEFLM": "UI_NPC_Quest_Liney",
      "title": "EVENTSITEM_4021_TITLETEXTMAP_448",
      "desc": "EVENTSITEM_4021_DESCTEXTMAP_449",
      "LIGEIIOKCKN": "EVENTSITEM_4021_LOCKDESCTEXTMAP_450",
      "JHACBEGAFBG": 40211083,
      "LAHCDGBDLJB": "UI_AvatarIcon_Charlotte",
      "itemIcon": "UI_BtnIcon_QuestEvents_Book_Event",
      "CGNPJIBEBOI": "",
      "KFOIGDPLGIM": ""
    },
    "402102": {
      "$type": "NLJAKIECMCN",
      "IDOMICDCGGO": 402102,
      "EEECACLLBBN": 4022,
      "GJCJMOBINBC": true,
      "itemType": "Clues",
      "GJGKBBOCDKG": 402101,
      "sortID": 2,
      "NAODLMAEFLM": "UI_NPC_Quest_Marcelle",
      "title": "EVENTSITEM_4021_TITLETEXTMAP_451",
      "desc": "EVENTSITEM_4021_DESCTEXTMAP_452",
      "LIGEIIOKCKN": "EVENTSITEM_4021_LOCKDESCTEXTMAP_453",
      "JHACBEGAFBG": 40211084,
      "LAHCDGBDLJB": "UI_AvatarIcon_Charlotte",
      "itemIcon": "UI_BtnIcon_QuestEvents_Book_Event",
      "CGNPJIBEBOI": "",
      "KFOIGDPLGIM": ""
    },
    "402103": {
      "$type": "NLJAKIECMCN",
      "IDOMICDCGGO": 402103,
      "EEECACLLBBN": 4022,
      "GJCJMOBINBC": true,
      "itemType": "Clues",
      "GJGKBBOCDKG": 402101,
      "sortID": 3,
      "NAODLMAEFLM": "UI_QuestIcon_402103",
      "title": "EVENTSITEM_4021_TITLETEXTMAP_454",
      "desc": "EVENTSITEM_4021_DESCTEXTMAP_455",
      "LIGEIIOKCKN": "EVENTSITEM_4021_LOCKDESCTEXTMAP_456",
      "JHACBEGAFBG": 40211085,
      "LAHCDGBDLJB": "UI_AvatarIcon_Charlotte",
      "itemIcon": "UI_BtnIcon_QuestEvents_Book_Event",
      "CGNPJIBEBOI": "",
      "KFOIGDPLGIM": ""
    },
    "402104": {
      "$type": "NLJAKIECMCN",
      "IDOMICDCGGO": 402104,
      "EEECACLLBBN": 4022,
      "GJCJMOBINBC": true,
      "itemType": "Clues",
      "GJGKBBOCDKG": 402104,
      "sortID": 4,
      "NAODLMAEFLM": "UI_QuestIcon_402104",
      "title": "EVENTSITEM_4021_TITLETEXTMAP_457",
      "desc": "EVENTSITEM_4021_DESCTEXTMAP_458",
      "LIGEIIOKCKN": "EVENTSITEM_4021_LOCKDESCTEXTMAP_459",
      "JHACBEGAFBG": 40211086,
      "LAHCDGBDLJB": "UI_AvatarIcon_Charlotte",
      "itemIcon": "UI_BtnIcon_QuestEvents_Book_Event",
      "CGNPJIBEBOI": "",
      "KFOIGDPLGIM": ""
    },
    "402105": {
      "$type": "NLJAKIECMCN",
      "IDOMICDCGGO": 402105,
      "EEECACLLBBN": 4022,
      "GJCJMOBINBC": true,
      "itemType": "Clues",
      "GJGKBBOCDKG": 402105,
      "sortID": 5,
      "NAODLMAEFLM": "UI_NPC_Quest_Neuvillette",
      "title": "EVENTSITEM_4021_TITLETEXTMAP_460",
      "desc": "EVENTSITEM_4021_DESCTEXTMAP_461",
      "LIGEIIOKCKN": "EVENTSITEM_4021_LOCKDESCTEXTMAP_462",
      "JHACBEGAFBG": 40211087,
      "LAHCDGBDLJB": "UI_AvatarIcon_Charlotte",
      "itemIcon": "UI_BtnIcon_QuestEvents_Book_Event",
      "CGNPJIBEBOI": "",
      "KFOIGDPLGIM": ""
    },
    "402106": {
      "$type": "NLJAKIECMCN",
      "IDOMICDCGGO": 402106,
      "EEECACLLBBN": 4021,
      "GJCJMOBINBC": true,
      "itemType": "Clues",
      "GJGKBBOCDKG": 402105,
      "sortID": 6,
      "NAODLMAEFLM": "UI_QuestIcon_402106",
      "title": "EVENTSITEM_4021_TITLETEXTMAP_463",
      "desc": "EVENTSITEM_4021_DESCTEXTMAP_464",
      "LIGEIIOKCKN": "EVENTSITEM_4021_LOCKDESCTEXTMAP_465",
      "JHACBEGAFBG": 40211088,
      "LAHCDGBDLJB": "UI_AvatarIcon_Charlotte",
      "itemIcon": "UI_BtnIcon_QuestEvents_Book_Event",
      "CGNPJIBEBOI": "",
      "KFOIGDPLGIM": ""
    },
    "402107": {
      "$type": "NLJAKIECMCN",
      "IDOMICDCGGO": 402107,
      "EEECACLLBBN": 4022,
      "GJCJMOBINBC": true,
      "itemType": "Clues",
      "GJGKBBOCDKG": 402107,
      "sortID": 7,
      "NAODLMAEFLM": "UI_NPC_Quest_Navia",
      "title": "EVENTSITEM_4021_TITLETEXTMAP_466",
      "desc": "EVENTSITEM_4021_DESCTEXTMAP_467",
      "LIGEIIOKCKN": "EVENTSITEM_4021_LOCKDESCTEXTMAP_468",
      "JHACBEGAFBG": 40211089,
      "LAHCDGBDLJB": "UI_AvatarIcon_Charlotte",
      "itemIcon": "UI_BtnIcon_QuestEvents_Book_Event",
      "CGNPJIBEBOI": "",
      "KFOIGDPLGIM": ""
    },
    "402108": {
      "$type": "NLJAKIECMCN",
      "IDOMICDCGGO": 402108,
      "EEECACLLBBN": 4022,
      "GJCJMOBINBC": true,
      "itemType": "Clues",
      "GJGKBBOCDKG": 402108,
      "sortID": 8,
      "NAODLMAEFLM": "UI_QuestIcon_402108",
      "title": "EVENTSITEM_4021_TITLETEXTMAP_469",
      "desc": "EVENTSITEM_4021_DESCTEXTMAP_470",
      "LIGEIIOKCKN": "EVENTSITEM_4021_LOCKDESCTEXTMAP_471",
      "JHACBEGAFBG": 40211090,
      "LAHCDGBDLJB": "UI_AvatarIcon_Charlotte",
      "itemIcon": "UI_BtnIcon_QuestEvents_Book_Event",
      "CGNPJIBEBOI": "",
      "KFOIGDPLGIM": ""
    }
  },
  "HKHKEJHAIAL": [
    {
      "LGNLMCHAAAD": 402101,
      "name": "EVENTSLOCATION_4021_NAMETEXTMAP_475"
    },
    {
      "LGNLMCHAAAD": 402104,
      "name": "EVENTSLOCATION_4021_NAMETEXTMAP_476"
    },
    {
      "LGNLMCHAAAD": 402105,
      "name": "EVENTSLOCATION_4021_NAMETEXTMAP_477"
    },
    {
      "LGNLMCHAAAD": 402107,
      "name": "EVENTSLOCATION_4021_NAMETEXTMAP_478"
    },
    {
      "LGNLMCHAAAD": 402108,
      "name": "EVENTSLOCATION_4021_NAMETEXTMAP_479"
    }
  ],
  "ABODGKFLBCG": 402110,
  "PDFLIKLLIHL": true
}