{
  "14": {
    "trackID": 14,
    "groupID": 511020002,
    "KLDEECLCHCD": 2002,
    "FPPEEOKFDGI": "GoldenHallTrack",
    "BCIJFMIPLBF": [
      {
        "$type": "EJCAAOCJLPC",
        "NNBDKMNJNAP": 6002,
        "FPPEEOKFDGI": "",
        "CIJGNNPFCIC": [
          {
            "groupID": 511020002,
            "KLDEECLCHCD": 2002,
            "FPPEEOKFDGI": "InitSuccessTarget"
          }
        ],
        "ODIOFNMFBGC": [
          {
            "$type": "GPAOJOMNGMI",
            "paramList": {
              "TargetSuccessCount": 2.0
            }
          }
        ]
      },
      {
        "$type": "EJCAAOCJLPC",
        "NNBDKMNJNAP": 6001,
        "FPPEEOKFDGI": "",
        "CIJGNNPFCIC": [
          {
            "groupID": 511020002,
            "KLDEECLCHCD": 2002,
            "FPPEEOKFDGI": "SuccessCheck"
          }
        ],
        "ODIOFNMFBGC": [
          {
            "$type": "GPAOJOMNGMI",
            "HPBBFPFKEOJ": 11.0,
            "paramList": {
              "NextStage": 7.0
            }
          },
          {
            "$type": "GPAOJOMNGMI",
            "HPBBFPFKEOJ": 15.0,
            "paramList": {
              "NextStage": 5.0
            }
          },
          {
            "$type": "GPAOJOMNGMI",
            "HPBBFPFKEOJ": 30.0,
            "paramList": {
              "NextStage": 3.0
            }
          }
        ]
      },
      {
        "$type": "EJCAAOCJLPC",
        "NNBDKMNJNAP": 6003,
        "FPPEEOKFDGI": "",
        "CIJGNNPFCIC": [
          {
            "groupID": 511020002,
            "KLDEECLCHCD": 2003,
            "FPPEEOKFDGI": "EventReceiver"
          }
        ],
        "ODIOFNMFBGC": [
          {
            "$type": "GPAOJOMNGMI",
            "paramList": {
              "qteID": 14.0
            }
          },
          {
            "$type": "GPAOJOMNGMI",
            "HPBBFPFKEOJ": 20.030000686645508,
            "paramList": {
              "qteID": 12.0
            }
          }
        ]
      },
      {
        "$type": "EJCAAOCJLPC",
        "NNBDKMNJNAP": 6004,
        "FPPEEOKFDGI": "",
        "CIJGNNPFCIC": [
          {
            "groupID": 511020002,
            "KLDEECLCHCD": 2061,
            "FPPEEOKFDGI": "EventReceiver"
          }
        ],
        "ODIOFNMFBGC": [
          {
            "$type": "GPAOJOMNGMI",
            "HPBBFPFKEOJ": 3.200000047683716,
            "paramList": {
              "qteID": 15.0
            }
          }
        ]
      },
      {
        "$type": "EJCAAOCJLPC",
        "NNBDKMNJNAP": 6005,
        "FPPEEOKFDGI": "",
        "CIJGNNPFCIC": [
          {
            "groupID": 511020002,
            "KLDEECLCHCD": 2062,
            "FPPEEOKFDGI": "EventReceiver"
          }
        ],
        "ODIOFNMFBGC": [
          {
            "$type": "GPAOJOMNGMI",
            "HPBBFPFKEOJ": 3.0,
            "paramList": {
              "qteID": 16.0
            }
          }
        ]
      },
      {
        "$type": "EJCAAOCJLPC",
        "NNBDKMNJNAP": 6007,
        "FPPEEOKFDGI": "",
        "CIJGNNPFCIC": [
          {
            "groupID": 511020002,
            "KLDEECLCHCD": 2061,
            "FPPEEOKFDGI": "Event_ShowGoal"
          }
        ],
        "ODIOFNMFBGC": [
          {
            "$type": "GPAOJOMNGMI",
            "HPBBFPFKEOJ": 4.199999809265137
          }
        ]
      },
      {
        "$type": "EJCAAOCJLPC",
        "NNBDKMNJNAP": 6008,
        "FPPEEOKFDGI": "",
        "CIJGNNPFCIC": [
          {
            "groupID": 511020002,
            "KLDEECLCHCD": 2062,
            "FPPEEOKFDGI": "Event_ShowGoal"
          }
        ],
        "ODIOFNMFBGC": [
          {
            "$type": "GPAOJOMNGMI",
            "HPBBFPFKEOJ": 7.300000190734863
          }
        ]
      },
      {
        "$type": "EJCAAOCJLPC",
        "NNBDKMNJNAP": 6010,
        "FPPEEOKFDGI": "",
        "CIJGNNPFCIC": [
          {
            "groupID": 511020002,
            "KLDEECLCHCD": 2061,
            "FPPEEOKFDGI": "Event_StartQTE"
          }
        ],
        "ODIOFNMFBGC": [
          {
            "$type": "GPAOJOMNGMI",
            "HPBBFPFKEOJ": 6.300000190734863,
            "paramList": {
              "QTETime": 0.0
            }
          }
        ]
      },
      {
        "$type": "EJCAAOCJLPC",
        "NNBDKMNJNAP": 6011,
        "FPPEEOKFDGI": "",
        "CIJGNNPFCIC": [
          {
            "groupID": 511020002,
            "KLDEECLCHCD": 2062,
            "FPPEEOKFDGI": "Event_StartQTE"
          }
        ],
        "ODIOFNMFBGC": [
          {
            "$type": "GPAOJOMNGMI",
            "HPBBFPFKEOJ": 8.100000381469727,
            "paramList": {
              "QTETime": 0.0
            }
          }
        ]
      },
      {
        "$type": "EJCAAOCJLPC",
        "NNBDKMNJNAP": 6012,
        "FPPEEOKFDGI": "",
        "CIJGNNPFCIC": [
          {
            "groupID": 511020002,
            "KLDEECLCHCD": 2002,
            "FPPEEOKFDGI": "CheckSuccAndSLC"
          }
        ],
        "ODIOFNMFBGC": [
          {
            "$type": "GPAOJOMNGMI",
            "HPBBFPFKEOJ": 10.5
          }
        ]
      }
    ],
    "EBLNCLHLMHP": 12.000000953674316,
    "KONBPAKNKCA": true,
    "MBPCCIACFIB": "",
    "BHONKIOJBME": 3,
    "JCOMLHGOKOI": "Part05"
  }
}