{
  "50": {
    "trackID": 50,
    "groupID": 133413058,
    "KLDEECLCHCD": 58002,
    "FPPEEOKFDGI": "RemusStageMuralWind_TimeTrackPlayer",
    "BCIJFMIPLBF": [
      {
        "$type": "EJCAAOCJLPC",
        "NNBDKMNJNAP": 50001,
        "FPPEEOKFDGI": "",
        "CIJGNNPFCIC": [
          {
            "groupID": 133413058,
            "KLDEECLCHCD": 58001,
            "FPPEEOKFDGI": "RemusStageMuralWind_TimeTrackPlayer"
          }
        ],
        "ODIOFNMFBGC": [
          {
            "$type": "GPAOJOMNGMI",
            "paramList": {
              "RemusStageMuralWind_Trigger": 3.0
            }
          },
          {
            "$type": "GPAOJOMNGMI",
            "HPBBFPFKEOJ": 6.0,
            "paramList": {
              "RemusStageMuralWind_Trigger": 3.0
            }
          },
          {
            "$type": "GPAOJOMNGMI",
            "HPBBFPFKEOJ": 12.0,
            "paramList": {
              "RemusStageMuralWind_Trigger": 3.0
            }
          }
        ]
      }
    ],
    "EBLNCLHLMHP": 18.0,
    "KONBPAKNKCA": true,
    "MBPCCIACFIB": "",
    "JCOMLHGOKOI": ""
  }
}