{
  "id": 7411501,
  "MCIOOLMBDGP": "INFERENCEGAME_7411501_QUESTIONTEXTTEXTMAP_420",
  "ABODGKFLBCG": 74115,
  "BGJHNPIDOJC": [
    {
      "id": 11312,
      "title": "INFERENCEGAMEEXHIBIT_7411501_TITLETEXTMAP_421",
      "GEMOOBECBMH": 741159952,
      "MIAAGAIDCDH": 741159952,
      "MFIMFHEHNOO": "INFERENCEGAMEEXHIBIT_7411501_DESCRIPTIONTEXTMAP_422",
      "icon": "UI_NPC_Quest_Rocher_Circle",
      "PLMMMCBHKAK": true,
      "CHEEFAGAOPF": 1
    },
    {
      "id": 11315,
      "title": "INFERENCEGAMEEXHIBIT_7411501_TITLETEXTMAP_423",
      "GEMOOBECBMH": 741159951,
      "MIAAGAIDCDH": 741159951,
      "MFIMFHEHNOO": "INFERENCEGAMEEXHIBIT_7411501_DESCRIPTIONTEXTMAP_424",
      "icon": "UI_NPC_Quest_Baulard_Circle",
      "PLMMMCBHKAK": true,
      "CHEEFAGAOPF": 2
    },
    {
      "id": 11314,
      "title": "INFERENCEGAMEEXHIBIT_7411501_TITLETEXTMAP_425",
      "GEMOOBECBMH": 741159950,
      "MIAAGAIDCDH": 741159950,
      "MFIMFHEHNOO": "INFERENCEGAMEEXHIBIT_7411501_DESCRIPTIONTEXTMAP_426",
      "icon": "UI_NPC_Quest_Valberry_Circle",
      "PLMMMCBHKAK": true,
      "CHEEFAGAOPF": 3
    },
    {
      "id": 11313,
      "title": "INFERENCEGAMEEXHIBIT_7411501_TITLETEXTMAP_427",
      "GEMOOBECBMH": 741159953,
      "MIAAGAIDCDH": 741159953,
      "MFIMFHEHNOO": "INFERENCEGAMEEXHIBIT_7411501_DESCRIPTIONTEXTMAP_428",
      "icon": "UI_NPC_Quest_Kevin_Circle",
      "PLMMMCBHKAK": true,
      "CHEEFAGAOPF": 4
    }
  ],
  "MKIMMEJIDPB": [
    {
      "order": 1,
      "MGJCMFBLGKL": "INFERENCEGAMEGEAR_7411501_QUESTIONDESCTEXTMAP_431"
    },
    {
      "order": 2,
      "MGJCMFBLGKL": "INFERENCEGAMEGEAR_7411501_QUESTIONDESCTEXTMAP_432"
    },
    {
      "order": 3,
      "MGJCMFBLGKL": "INFERENCEGAMEGEAR_7411501_QUESTIONDESCTEXTMAP_433"
    },
    {
      "order": 4,
      "MGJCMFBLGKL": "INFERENCEGAMEGEAR_7411501_QUESTIONDESCTEXTMAP_434"
    }
  ],
  "mainQuestID": 74115
}