{
  "id": 400604,
  "MCIOOLMBDGP": "INFERENCEGAME_400604_QUESTIONTEXTTEXTMAP_81",
  "KIBKCCPBLAE": 1547,
  "ABODGKFLBCG": 400607,
  "BGJHNPIDOJC": [
    {
      "id": 40060401,
      "title": "INFERENCEGAMEEXHIBIT_400604_TITLETEXTMAP_122",
      "GEMOOBECBMH": 40069924,
      "MFIMFHEHNOO": "INFERENCEGAMEEXHIBIT_400604_DESCRIPTIONTEXTMAP_123",
      "icon": "UI_QuestIcon_400401"
    },
    {
      "id": 40060402,
      "title": "INFERENCEGAMEEXHIBIT_400604_TITLETEXTMAP_124",
      "GEMOOBECBMH": 40069911,
      "MIAAGAIDCDH": 40069934,
      "MFIMFHEHNOO": "INFERENCEGAMEEXHIBIT_400604_DESCRIPTIONTEXTMAP_125",
      "icon": "UI_NPC_Quest_Cowell_QuestInference",
      "PLMMMCBHKAK": true,
      "CHEEFAGAOPF": 1
    },
    {
      "id": 40060403,
      "title": "INFERENCEGAMEEXHIBIT_400604_TITLETEXTMAP_126",
      "GEMOOBECBMH": 40069920,
      "MIAAGAIDCDH": 40069935,
      "MFIMFHEHNOO": "INFERENCEGAMEEXHIBIT_400604_DESCRIPTIONTEXTMAP_127",
      "icon": "UI_QuestIcon_400405",
      "PLMMMCBHKAK": true,
      "CHEEFAGAOPF": 2
    },
    {
      "id": 40060404,
      "title": "INFERENCEGAMEEXHIBIT_400604_TITLETEXTMAP_128",
      "GEMOOBECBMH": 40069921,
      "MIAAGAIDCDH": 40069936,
      "MFIMFHEHNOO": "INFERENCEGAMEEXHIBIT_400604_DESCRIPTIONTEXTMAP_129",
      "icon": "UI_QuestIcon_400404",
      "PLMMMCBHKAK": true,
      "CHEEFAGAOPF": 3
    },
    {
      "id": 40060405,
      "title": "INFERENCEGAMEEXHIBIT_400604_TITLETEXTMAP_130",
      "GEMOOBECBMH": 40069923,
      "MFIMFHEHNOO": "INFERENCEGAMEEXHIBIT_400604_DESCRIPTIONTEXTMAP_131",
      "icon": "UI_QuestIcon_400408"
    },
    {
      "id": 40060406,
      "title": "INFERENCEGAMEEXHIBIT_400604_TITLETEXTMAP_132",
      "GEMOOBECBMH": 40069922,
      "MIAAGAIDCDH": 40069937,
      "MFIMFHEHNOO": "INFERENCEGAMEEXHIBIT_400604_DESCRIPTIONTEXTMAP_133",
      "icon": "UI_QuestIcon_400407",
      "PLMMMCBHKAK": true,
      "CHEEFAGAOPF": 4
    }
  ],
  "MKIMMEJIDPB": [
    {
      "order": 1,
      "MGJCMFBLGKL": "INFERENCEGAMEGEAR_400604_QUESTIONDESCTEXTMAP_118"
    },
    {
      "order": 2,
      "MGJCMFBLGKL": "INFERENCEGAMEGEAR_400604_QUESTIONDESCTEXTMAP_119"
    },
    {
      "order": 3,
      "MGJCMFBLGKL": "INFERENCEGAMEGEAR_400604_QUESTIONDESCTEXTMAP_120"
    },
    {
      "order": 4,
      "MGJCMFBLGKL": "INFERENCEGAMEGEAR_400604_QUESTIONDESCTEXTMAP_121"
    }
  ],
  "mainQuestID": 4006
}