{
  "BigWorld_1_4_Area_XZ01_01_Inside_Vd": {
    "$type": "EHOAKHCMJJG",
    "useHeight": true,
    "height": 122.64309692382812,
    "centerType": "Center",
    "width": 309.4060974121094,
    "length": 441.6186828613281
  },
  "BigWorld_1_4_Area_XZ01_02_Inside_Vd": {
    "$type": "EHOAKHCMJJG",
    "useHeight": true,
    "height": 199.23043823242188,
    "centerType": "Center",
    "width": 241.56137084960938,
    "length": 362.9652099609375
  },
  "BigWorld_1_4_Area_XZ01_03_Inside_Vd": {
    "$type": "EHOAKHCMJJG",
    "useHeight": true,
    "height": 217.90402221679688,
    "centerType": "Center",
    "width": 400.3644714355469,
    "length": 401.2966613769531
  },
  "BigWorld_1_4_Area_XZ01_01_Outside_Vd": {
    "$type": "EHOAKHCMJJG",
    "useHeight": true,
    "height": 139.73028564453125,
    "centerType": "Center",
    "width": 315.0,
    "length": 451.7260437011719
  },
  "BigWorld_1_4_Area_XZ01_02_Outside_Vd": {
    "$type": "EHOAKHCMJJG",
    "useHeight": true,
    "height": 212.6040802001953,
    "centerType": "Center",
    "width": 268.7103576660156,
    "length": 366.6277160644531
  },
  "BigWorld_1_4_Area_XZ01_03_Outside_Vd": {
    "$type": "EHOAKHCMJJG",
    "useHeight": true,
    "height": 217.90402221679688,
    "centerType": "Center",
    "width": 400.3644714355469,
    "length": 401.2966613769531
  },
  "BigWorld_1_4_ColoredShadow_ForceEnableOnHighPlatform_FDG_Inside_Vgm": {
    "$type": "GLNLJIJMDJD",
    "useHeight": true,
    "height": 388.6781311035156,
    "radius": 194.3390655517578
  },
  "BigWorld_1_4_GlobalFarFog_Bigworld_Inside_Vdgo": {
    "$type": "EHOAKHCMJJG",
    "useHeight": true,
    "height": 1000.0,
    "centerType": "Center",
    "width": 3072.0,
    "length": 3072.0
  },
  "BigWorld_1_4_GlobalFarFog_External_0_3_LY_LXS_After_Inside_Vdgo": {
    "$type": "EHOAKHCMJJG",
    "useHeight": true,
    "height": 1000.0,
    "centerType": "Center",
    "width": 3072.0,
    "length": 3072.0
  },
  "BigWorld_1_4_GlobalFarFog_External_0_3_Inside_Vdgo": {
    "$type": "EHOAKHCMJJG",
    "useHeight": true,
    "height": 1000.0,
    "centerType": "Center",
    "width": 3072.0,
    "length": 3072.0
  },
  "BigWorld_1_4_GlobalFarFog_External_0_4_Bigworld_Inside_Vdgo": {
    "$type": "EHOAKHCMJJG",
    "useHeight": true,
    "height": 1000.0,
    "centerType": "Center",
    "width": 3072.0,
    "length": 3072.0
  },
  "BigWorld_1_4_GlobalFarFog_External_0_5_Bigworld_Inside_Vdgo": {
    "$type": "EHOAKHCMJJG",
    "useHeight": true,
    "height": 1000.0,
    "centerType": "Center",
    "width": 3072.0,
    "length": 3072.0
  },
  "BigWorld_1_4_GlobalFarFog_External_1_3_LY_LXS_After_Inside_Vdgo": {
    "$type": "EHOAKHCMJJG",
    "useHeight": true,
    "height": 1000.0,
    "centerType": "Center",
    "width": 3072.0,
    "length": 3072.0
  },
  "BigWorld_1_4_GlobalFarFog_External_1_3_Inside_Vdgo": {
    "$type": "EHOAKHCMJJG",
    "useHeight": true,
    "height": 1000.0,
    "centerType": "Center",
    "width": 3072.0,
    "length": 3072.0
  },
  "BigWorld_1_4_GlobalFarFog_External_1_5_Bigworld_Inside_Vdgo": {
    "$type": "EHOAKHCMJJG",
    "useHeight": true,
    "height": 1000.0,
    "centerType": "Center",
    "width": 3072.0,
    "length": 3072.0
  },
  "BigWorld_1_4_GlobalFarFog_External_2_3_LY_LXS_After_Inside_Vdgo": {
    "$type": "EHOAKHCMJJG",
    "useHeight": true,
    "height": 1000.0,
    "centerType": "Center",
    "width": 3072.0,
    "length": 3072.0
  },
  "BigWorld_1_4_GlobalFarFog_External_2_3_Inside_Vdgo": {
    "$type": "EHOAKHCMJJG",
    "useHeight": true,
    "height": 1000.0,
    "centerType": "Center",
    "width": 3072.0,
    "length": 3072.0
  },
  "BigWorld_1_4_Town_BackMount_Inside_Ve": {
    "$type": "GLNLJIJMDJD",
    "useHeight": true,
    "height": 76.4018325805664,
    "radius": 52.62355422973633
  },
  "BigWorld_1_4_Town_Tunnel_Inside_Ve": {
    "$type": "MNMPFNCILOP",
    "useHeight": true,
    "height": 72.56074523925781,
    "width": 51.295692443847656,
    "length": 40.907257080078125
  },
  "BigWorld_1_4_Town_Tunnel_Inst_Inside_Ve": {
    "$type": "MNMPFNCILOP",
    "useHeight": true,
    "height": 28.373323440551758,
    "width": 23.6058349609375,
    "length": 17.524532318115234
  },
  "BigWorld_1_4_Town_Cave_01_Inside_Ve": {
    "$type": "EHOAKHCMJJG",
    "useHeight": true,
    "height": 24.900829315185547,
    "centerType": "Center",
    "width": 51.0918083190918,
    "length": 29.773738861083984
  },
  "BigWorld_1_4_Town_Cave_02_Inside_Ve": {
    "$type": "MNMPFNCILOP",
    "useHeight": true,
    "height": 15.720338821411133,
    "width": 17.95389747619629,
    "length": 46.555137634277344
  },
  "BigWorld_1_4_Town_Square_01_Inside_Ve": {
    "$type": "GLNLJIJMDJD",
    "useHeight": true,
    "height": 44.17314529418945,
    "radius": 39.258846282958984
  },
  "BigWorld_1_4_Town_Square_02_Inside_Ve": {
    "$type": "EHOAKHCMJJG",
    "useHeight": true,
    "height": 54.3580436706543,
    "centerType": "Center",
    "width": 53.65870666503906,
    "length": 29.740955352783203
  },
  "BigWorld_1_4_Tunnel_SJ01_City_01_Outside_Vs": {
    "$type": "EHOAKHCMJJG",
    "useHeight": true,
    "height": 150.32081604003906,
    "centerType": "Center",
    "width": 220.13287353515625,
    "length": 201.31419372558594
  },
  "BigWorld_1_4_Tunnel_SJ01_City_02_Outside_Vs": {
    "$type": "EHOAKHCMJJG",
    "useHeight": true,
    "height": 232.69879150390625,
    "centerType": "Center",
    "width": 182.1631317138672,
    "length": 318.0785827636719
  },
  "BigWorld_1_4_Volume_FDG_SheiNei01_Inside_Ve": {
    "$type": "GLNLJIJMDJD",
    "useHeight": true,
    "height": 36.05419921875,
    "radius": 28.338842391967773
  },
  "BigWorld_1_4_Volume_FDG_SheiNei02_Inside_Ve": {
    "$type": "GLNLJIJMDJD",
    "useHeight": true,
    "height": 182.06573486328125,
    "radius": 6.978451251983643
  },
  "BigWorld_1_4_Volume_FDG_SheiNei03_Inside_Ve": {
    "$type": "GLNLJIJMDJD",
    "useHeight": true,
    "height": 20.116973876953125,
    "radius": 23.083141326904297
  },
  "BigWorld_1_4_Volume_FDG_SheiNei04_Inside_Ve": {
    "$type": "EHOAKHCMJJG",
    "useHeight": true,
    "height": 22.673019409179688,
    "centerType": "Center",
    "width": 32.37431716918945,
    "length": 24.327457427978516
  },
  "BigWorld_1_4_Volume_FDG_SheiNei05_Inside_Ve": {
    "$type": "GLNLJIJMDJD",
    "useHeight": true,
    "height": 202.40203857421875,
    "radius": 5.0
  },
  "BigWorld_1_4_Volume_FDG_SheiNei06_Inside_Ve": {
    "$type": "GLNLJIJMDJD",
    "useHeight": true,
    "height": 14.095977783203125,
    "radius": 8.855713844299316
  }
}