{
  "BigWorld_0_0_GlobalFarFog_External_0_1_LY_LXS_After_Inside_Vdgo": {
    "$type": "EHOAKHCMJJG",
    "useHeight": true,
    "height": 1000.0,
    "centerType": "Center",
    "width": 3072.0,
    "length": 3072.0
  },
  "BigWorld_0_0_GlobalFarFog_External_0_1_Inside_Vdgo": {
    "$type": "EHOAKHCMJJG",
    "useHeight": true,
    "height": 1000.0,
    "centerType": "Center",
    "width": 3072.0,
    "length": 3072.0
  },
  "BigWorld_0_0_GlobalFarFog_External_1_1_LY_LXS_After_Inside_Vdgo": {
    "$type": "EHOAKHCMJJG",
    "useHeight": true,
    "height": 1000.0,
    "centerType": "Center",
    "width": 3072.0,
    "length": 3072.0
  },
  "BigWorld_0_0_GlobalFarFog_External_1_1_Inside_Vdgo": {
    "$type": "EHOAKHCMJJG",
    "useHeight": true,
    "height": 1000.0,
    "centerType": "Center",
    "width": 3072.0,
    "length": 3072.0
  }
}