{
  "BigWorld_4_5_KXT_Forest_1_Inside_Ve": {
    "$type": "GLNLJIJMDJD",
    "useHeight": true,
    "height": 43.04176712036133,
    "radius": 8.842464447021484
  },
  "BigWorld_4_5_KXT_Forest_2_Inside_Ve": {
    "$type": "EHOAKHCMJJG",
    "useHeight": true,
    "height": 11.130830764770508,
    "centerType": "Center",
    "width": 11.5781888961792,
    "length": 5.570700168609619
  },
  "BigWorld_4_5_KXT_Forest_3_Inside_Ve": {
    "$type": "GLNLJIJMDJD",
    "useHeight": true,
    "height": 14.576966285705566,
    "radius": 7.991907119750977
  }
}