{
  "BigWorld_3_3_BWLJ01_Inside_Vs": {
    "$type": "EHOAKHCMJJG",
    "useHeight": true,
    "height": 54.53943634033203,
    "centerType": "Center",
    "width": 101.02743530273438,
    "length": 113.90446472167969
  },
  "BigWorld_3_3_BWLJ01_01_Outside_Vs": {
    "$type": "EHOAKHCMJJG",
    "useHeight": true,
    "height": 77.54297637939453,
    "centerType": "Center",
    "width": 103.45379638671875,
    "length": 115.04351043701172
  },
  "BigWorld_3_3_BWLJ01_02_Outside_Vs": {
    "$type": "EHOAKHCMJJG",
    "useHeight": true,
    "height": 80.2530288696289,
    "centerType": "Center",
    "width": 98.8609390258789,
    "length": 151.88699340820312
  },
  "BigWorld_3_3_BWLJ01_03_Outside_Vs": {
    "$type": "EHOAKHCMJJG",
    "useHeight": true,
    "height": 70.54048156738281,
    "centerType": "Center",
    "width": 117.04534912109375,
    "length": 61.7281608581543
  },
  "BigWorld_3_3_Cave01_Inside_Ve": {
    "$type": "EHOAKHCMJJG",
    "useHeight": true,
    "height": 38.94382095336914,
    "centerType": "Center",
    "width": 35.53163146972656,
    "length": 44.69852828979492
  },
  "BigWorld_3_3_Cave02_Inside_Ve": {
    "$type": "EHOAKHCMJJG",
    "useHeight": true,
    "height": 33.473541259765625,
    "centerType": "Center",
    "width": 37.83530807495117,
    "length": 50.051902770996094
  },
  "BigWorld_3_3_Cave03_Inside_Ve": {
    "$type": "MNMPFNCILOP",
    "useHeight": true,
    "height": 19.4224853515625,
    "width": 25.88739013671875,
    "length": 32.957916259765625
  },
  "BigWorld_3_3_BWLJ01_Inside_Vd": {
    "$type": "AIMBNANKLBH",
    "polygonConfigPath": "BigWorld_3_3_BWLJ01_Inside_Vd"
  },
  "BigWorld_3_3_BWLJ01_Outside_Vd": {
    "$type": "AIMBNANKLBH",
    "polygonConfigPath": "BigWorld_3_3_BWLJ01_Outside_Vd"
  },
  "BigWorld_3_3_ColoredShadow_ForceEnableOnHighPlatform_GJY_Inside_Vgm": {
    "$type": "GLNLJIJMDJD",
    "useHeight": true,
    "height": 219.6092071533203,
    "radius": 154.23703002929688
  },
  "BigWorld_3_3_DPQS_01_Outside_Vd": {
    "$type": "AIMBNANKLBH",
    "polygonConfigPath": "BigWorld_3_3_DPQS_01_Outside_Vd"
  },
  "BigWorld_3_3_DS01_01_Outside_Vs": {
    "$type": "EHOAKHCMJJG",
    "useHeight": true,
    "height": 89.70384979248047,
    "centerType": "Center",
    "width": 123.17062377929688,
    "length": 198.2870330810547
  },
  "BigWorld_3_3_DS01_02_Outside_Vs": {
    "$type": "EHOAKHCMJJG",
    "useHeight": true,
    "height": 27.537389755249023,
    "centerType": "Center",
    "width": 207.3961639404297,
    "length": 291.729736328125
  },
  "BigWorld_3_3_DS01_03_Outside_Vs": {
    "$type": "EHOAKHCMJJG",
    "useHeight": true,
    "height": 27.822338104248047,
    "centerType": "Center",
    "width": 120.5154800415039,
    "length": 200.41323852539062
  },
  "BigWorld_3_3_Foulness_PlanarHeight1_Inside_Vsp": {
    "$type": "EHOAKHCMJJG",
    "useHeight": true,
    "height": 320.0,
    "centerType": "Center",
    "width": 320.0,
    "length": 320.0
  },
  "BigWorld_3_3_Foulness_PlanarHeight2_Inside_Vsp": {
    "$type": "EHOAKHCMJJG",
    "useHeight": true,
    "height": 125.02113342285156,
    "centerType": "Center",
    "width": 227.9499053955078,
    "length": 194.47732543945312
  },
  "BigWorld_3_3_GJY_ColoredShadow_Inside_Vsp": {
    "$type": "GLNLJIJMDJD",
    "useHeight": true,
    "height": 100.0,
    "radius": 75.0
  },
  "BigWorld_3_3_GlobalFarFog_External_2_2_LY_LXS_After_Inside_Vdgo": {
    "$type": "EHOAKHCMJJG",
    "useHeight": true,
    "height": 1000.0,
    "centerType": "Center",
    "width": 3072.0,
    "length": 3072.0
  },
  "BigWorld_3_3_GlobalFarFog_External_2_2_Inside_Vdgo": {
    "$type": "EHOAKHCMJJG",
    "useHeight": true,
    "height": 1000.0,
    "centerType": "Center",
    "width": 3072.0,
    "length": 3072.0
  },
  "BigWorld_3_3_GlobalFarFog_External_2_3_LY_LXS_After_Inside_Vdgo": {
    "$type": "EHOAKHCMJJG",
    "useHeight": true,
    "height": 1000.0,
    "centerType": "Center",
    "width": 3072.0,
    "length": 3072.0
  },
  "BigWorld_3_3_GlobalFarFog_External_2_3_Inside_Vdgo": {
    "$type": "EHOAKHCMJJG",
    "useHeight": true,
    "height": 1000.0,
    "centerType": "Center",
    "width": 3072.0,
    "length": 3072.0
  },
  "BigWorld_3_3_HZPQ02_01_Outside_Vs": {
    "$type": "EHOAKHCMJJG",
    "useHeight": true,
    "height": 87.60140991210938,
    "centerType": "Center",
    "width": 129.93484497070312,
    "length": 114.00267028808594
  },
  "BigWorld_3_3_HZPQ02_02_Outside_Vs": {
    "$type": "EHOAKHCMJJG",
    "useHeight": true,
    "height": 98.0125503540039,
    "centerType": "Center",
    "width": 140.2195587158203,
    "length": 89.66216278076172
  },
  "BigWorld_3_3_HZPQ02_03_Outside_Vs": {
    "$type": "EHOAKHCMJJG",
    "useHeight": true,
    "height": 86.99848937988281,
    "centerType": "Center",
    "width": 122.60681915283203,
    "length": 114.82563781738281
  },
  "BigWorld_3_3_HZPQD01_Inside_Vs": {
    "$type": "EHOAKHCMJJG",
    "useHeight": true,
    "height": 90.61906433105469,
    "centerType": "Center",
    "width": 102.21986389160156,
    "length": 97.75960540771484
  },
  "BigWorld_3_3_HZPQD01_01_Outside_Vs": {
    "$type": "EHOAKHCMJJG",
    "useHeight": true,
    "height": 90.61906433105469,
    "centerType": "Center",
    "width": 102.21986389160156,
    "length": 97.75960540771484
  },
  "BigWorld_3_3_HZPQD01_02_Outside_Vs": {
    "$type": "EHOAKHCMJJG",
    "useHeight": true,
    "height": 131.85891723632812,
    "centerType": "Center",
    "width": 71.4859848022461,
    "length": 126.45404815673828
  },
  "BigWorld_3_3_HZPQD01_03_Outside_Vs": {
    "$type": "EHOAKHCMJJG",
    "useHeight": true,
    "height": 99.74427795410156,
    "centerType": "Center",
    "width": 71.08631134033203,
    "length": 124.33668518066406
  },
  "BigWorld_3_3_HZPQ_LocalWindControl_Inside_Vsp": {
    "$type": "AIMBNANKLBH",
    "polygonConfigPath": "BigWorld_3_3_HZPQ_LocalWindControl_Inside_Vsp"
  },
  "BigWorld_3_3_HZPQ01_Inside_Vd": {
    "$type": "AIMBNANKLBH",
    "polygonConfigPath": "BigWorld_3_3_HZPQ01_Inside_Vd"
  },
  "BigWorld_3_3_HZPQ01_Outside_Vd": {
    "$type": "AIMBNANKLBH",
    "polygonConfigPath": "BigWorld_3_3_HZPQ01_Outside_Vd"
  },
  "BigWorld_3_3_LSSG_High_Inside_Ve": {
    "$type": "AIMBNANKLBH",
    "polygonConfigPath": "BigWorld_3_3_LSSG_High_Inside_Ve"
  },
  "BigWorld_3_3_LSSG_UW_Inside_Ve": {
    "$type": "AIMBNANKLBH",
    "polygonConfigPath": "BigWorld_3_3_LSSG_UW_Inside_Ve"
  },
  "BigWorld_3_3_PQS01_01_Outside_Vs": {
    "$type": "EHOAKHCMJJG",
    "useHeight": true,
    "height": 78.60437774658203,
    "centerType": "Center",
    "width": 113.40839385986328,
    "length": 121.95499420166016
  },
  "BigWorld_3_3_PQS01_02_Outside_Vs": {
    "$type": "EHOAKHCMJJG",
    "useHeight": true,
    "height": 86.99848937988281,
    "centerType": "Center",
    "width": 122.60681915283203,
    "length": 114.82563781738281
  },
  "BigWorld_3_3_PQS02_01_Outside_Vs": {
    "$type": "EHOAKHCMJJG",
    "useHeight": true,
    "height": 96.11284637451172,
    "centerType": "Center",
    "width": 144.39834594726562,
    "length": 89.3938217163086
  },
  "BigWorld_3_3_PQS02_02_Outside_Vs": {
    "$type": "EHOAKHCMJJG",
    "useHeight": true,
    "height": 75.49524688720703,
    "centerType": "Center",
    "width": 73.009521484375,
    "length": 171.00692749023438
  },
  "BigWorld_3_3_PQS02_03_Outside_Vs": {
    "$type": "EHOAKHCMJJG",
    "useHeight": true,
    "height": 97.74772644042969,
    "centerType": "Center",
    "width": 78.88815307617188,
    "length": 68.46971130371094
  },
  "BigWorld_3_3_PQS03_01_Outside_Vs": {
    "$type": "EHOAKHCMJJG",
    "useHeight": true,
    "height": 95.81734466552734,
    "centerType": "Center",
    "width": 92.19364166259766,
    "length": 92.16339111328125
  },
  "BigWorld_3_3_PQS03_02_Outside_Vs": {
    "$type": "EHOAKHCMJJG",
    "useHeight": true,
    "height": 85.70125579833984,
    "centerType": "Center",
    "width": 75.65115356445312,
    "length": 105.99575805664062
  },
  "BigWorld_3_3_PQS03_03_Outside_Vs": {
    "$type": "EHOAKHCMJJG",
    "useHeight": true,
    "height": 58.329200744628906,
    "centerType": "Center",
    "width": 57.24317932128906,
    "length": 51.64247512817383
  },
  "BigWorld_3_3_Tunnel01_Inside_Ve": {
    "$type": "MNMPFNCILOP",
    "useHeight": true,
    "height": 33.01835632324219,
    "width": 39.35728073120117,
    "length": 48.13814926147461
  },
  "BigWorld_3_3_Tunnel02_Inside_Ve": {
    "$type": "EHOAKHCMJJG",
    "useHeight": true,
    "height": 46.08616256713867,
    "centerType": "Center",
    "width": 67.4947280883789,
    "length": 54.93686294555664
  },
  "BigWorld_3_3_Tunnel03_Inside_Ve": {
    "$type": "EHOAKHCMJJG",
    "useHeight": true,
    "height": 47.52642059326172,
    "centerType": "Center",
    "width": 60.257633209228516,
    "length": 49.25564193725586
  },
  "BigWorld_3_3_Tunnel04_Inside_Ve": {
    "$type": "EHOAKHCMJJG",
    "useHeight": true,
    "height": 71.02268981933594,
    "centerType": "Center",
    "width": 145.87161254882812,
    "length": 74.7663803100586
  },
  "BigWorld_3_3_Tunnel05_Inside_Ve": {
    "$type": "MNMPFNCILOP",
    "useHeight": true,
    "height": 30.689205169677734,
    "width": 38.761295318603516,
    "length": 30.611936569213867
  },
  "BigWorld_3_3_Tunnel06_Inside_Ve": {
    "$type": "MNMPFNCILOP",
    "useHeight": true,
    "height": 38.181636810302734,
    "width": 103.5625991821289,
    "length": 51.4326057434082
  },
  "BigWorld_3_3_Tunnel07_Inside_Ve": {
    "$type": "MNMPFNCILOP",
    "useHeight": true,
    "height": 37.8358268737793,
    "width": 59.55889129638672,
    "length": 41.48250961303711
  },
  "BigWorld_3_3_Tunnel08_Inside_Ve": {
    "$type": "EHOAKHCMJJG",
    "useHeight": true,
    "height": 41.63462448120117,
    "centerType": "Center",
    "width": 39.24652099609375,
    "length": 34.677032470703125
  },
  "BigWorld_3_3_Tunnel01_Inside_Inside_Ve": {
    "$type": "EHOAKHCMJJG",
    "useHeight": true,
    "height": 57.105709075927734,
    "centerType": "Center",
    "width": 52.210968017578125,
    "length": 85.13088989257812
  },
  "BigWorld_3_3_PQS_Upwater_After01_Inside_Ve": {
    "$type": "AIMBNANKLBH",
    "polygonConfigPath": "BigWorld_3_3_PQS_Upwater_After01_Inside_Ve"
  },
  "BigWorld_3_3_PQS_Upwater_Before01_Inside_Ve": {
    "$type": "AIMBNANKLBH",
    "polygonConfigPath": "BigWorld_3_3_PQS_Upwater_Before01_Inside_Ve"
  },
  "BigWorld_3_3_PQS01_Inside_Vd": {
    "$type": "AIMBNANKLBH",
    "polygonConfigPath": "BigWorld_3_3_PQS01_Inside_Vd"
  },
  "BigWorld_3_3_PQS02_Outside_Vd": {
    "$type": "AIMBNANKLBH",
    "polygonConfigPath": "BigWorld_3_3_PQS02_Outside_Vd"
  },
  "BigWorld_3_3_SGZD01_01_Outside_Vs": {
    "$type": "EHOAKHCMJJG",
    "useHeight": true,
    "height": 105.60546112060547,
    "centerType": "Center",
    "width": 118.95066833496094,
    "length": 155.79945373535156
  },
  "BigWorld_3_3_SGZD01_02_Outside_Vs": {
    "$type": "EHOAKHCMJJG",
    "useHeight": true,
    "height": 103.55209350585938,
    "centerType": "Center",
    "width": 202.0701141357422,
    "length": 151.7704620361328
  },
  "BigWorld_3_3_SGZD01_03_Outside_Vs": {
    "$type": "EHOAKHCMJJG",
    "useHeight": true,
    "height": 86.99848937988281,
    "centerType": "Center",
    "width": 122.60681915283203,
    "length": 114.82563781738281
  },
  "BigWorld_3_3_SGZD01_04_Outside_Vs": {
    "$type": "MNMPFNCILOP",
    "useHeight": true,
    "height": 65.06829071044922,
    "width": 95.67115783691406,
    "length": 64.81050109863281
  },
  "BigWorld_3_3_SGZD02_01_Inside_Vs": {
    "$type": "EHOAKHCMJJG",
    "useHeight": true,
    "height": 60.26757049560547,
    "centerType": "Center",
    "width": 57.91555404663086,
    "length": 69.62614440917969
  },
  "BigWorld_3_3_SGZD02_01_Outside_Vs": {
    "$type": "EHOAKHCMJJG",
    "useHeight": true,
    "height": 60.26757049560547,
    "centerType": "Center",
    "width": 57.91555404663086,
    "length": 69.62614440917969
  },
  "BigWorld_3_3_SGZD02_02_Outside_Vs": {
    "$type": "EHOAKHCMJJG",
    "useHeight": true,
    "height": 84.67837524414062,
    "centerType": "Center",
    "width": 71.70979309082031,
    "length": 98.93186950683594
  },
  "BigWorld_3_3_SGZD02_03_Outside_Vs": {
    "$type": "EHOAKHCMJJG",
    "useHeight": true,
    "height": 57.52705383300781,
    "centerType": "Center",
    "width": 69.26274871826172,
    "length": 50.055328369140625
  },
  "BigWorld_3_3_SGZD02_04_Outside_Vs": {
    "$type": "EHOAKHCMJJG",
    "useHeight": true,
    "height": 56.56991958618164,
    "centerType": "Center",
    "width": 52.76850509643555,
    "length": 116.12843322753906
  },
  "BigWorld_3_3_SGZDQZ01_01_Outside_Vs": {
    "$type": "EHOAKHCMJJG",
    "useHeight": true,
    "height": 187.56362915039062,
    "centerType": "Center",
    "width": 100.2635726928711,
    "length": 100.26355743408203
  },
  "BigWorld_3_3_SGZDQZ01_02_Outside_Vs": {
    "$type": "EHOAKHCMJJG",
    "useHeight": true,
    "height": 124.54927062988281,
    "centerType": "Center",
    "width": 147.85797119140625,
    "length": 100.26355743408203
  },
  "BigWorld_3_3_SGZDQZ01_03_Outside_Vs": {
    "$type": "EHOAKHCMJJG",
    "useHeight": true,
    "height": 88.86736297607422,
    "centerType": "Center",
    "width": 63.851131439208984,
    "length": 63.851104736328125
  },
  "BigWorld_3_3_SGZDQZ_Inside_Vs": {
    "$type": "EHOAKHCMJJG",
    "useHeight": true,
    "height": 160.25010681152344,
    "centerType": "Center",
    "width": 143.65802001953125,
    "length": 147.56455993652344
  },
  "BigWorld_3_3_SGZDQZ_01_Outside_Vs": {
    "$type": "EHOAKHCMJJG",
    "useHeight": true,
    "height": 161.85260009765625,
    "centerType": "Center",
    "width": 145.0946044921875,
    "length": 149.0402069091797
  },
  "BigWorld_3_3_SGZDQZ_02_Outside_Vs": {
    "$type": "EHOAKHCMJJG",
    "useHeight": true,
    "height": 159.81402587890625,
    "centerType": "Center",
    "width": 103.7040786743164,
    "length": 108.78561401367188
  },
  "BigWorld_3_3_SGZDQZ_03_Outside_Vs": {
    "$type": "EHOAKHCMJJG",
    "useHeight": true,
    "height": 91.87064361572266,
    "centerType": "Center",
    "width": 104.0814437866211,
    "length": 98.28514099121094
  },
  "BigWorld_3_3_SGZD_BeforeRoom_UnderWater01_Inside_Ve": {
    "$type": "EHOAKHCMJJG",
    "useHeight": true,
    "height": 40.96841049194336,
    "centerType": "Center",
    "width": 45.35954666137695,
    "length": 86.1594009399414
  },
  "BigWorld_3_3_SGZD_BeforeRoom_UpWater01_Inside_Ve": {
    "$type": "EHOAKHCMJJG",
    "useHeight": true,
    "height": 75.66956329345703,
    "centerType": "Center",
    "width": 104.6510238647461,
    "length": 162.3655242919922
  },
  "BigWorld_3_3_SGZD_BeforeRoom_Upwater02_Inside_Ve": {
    "$type": "EHOAKHCMJJG",
    "useHeight": true,
    "height": 31.99460220336914,
    "centerType": "Center",
    "width": 19.02920913696289,
    "length": 17.34756851196289
  },
  "BigWorld_3_3_SGZD_Down_UpWater_Inside_Ve": {
    "$type": "EHOAKHCMJJG",
    "useHeight": true,
    "height": 25.647756576538086,
    "centerType": "Center",
    "width": 180.29718017578125,
    "length": 148.04188537597656
  },
  "BigWorld_3_3_SGZD_Down_UW01_Inside_Ve": {
    "$type": "MNMPFNCILOP",
    "useHeight": true,
    "height": 57.2117919921875,
    "width": 149.31240844726562,
    "length": 137.3721923828125
  },
  "BigWorld_3_3_SGZD_Jing_Inside_Ve": {
    "$type": "GLNLJIJMDJD",
    "useHeight": true,
    "height": 28.772682189941406,
    "radius": 8.295166015625
  },
  "BigWorld_3_3_SGZD_To_PQS01_Inside_Ve": {
    "$type": "MNMPFNCILOP",
    "useHeight": true,
    "height": 29.455121994018555,
    "width": 30.208946228027344,
    "length": 39.91187286376953
  },
  "BigWorld_3_3_SGZD_To_PQS02_Inside_Ve": {
    "$type": "EHOAKHCMJJG",
    "useHeight": true,
    "height": 26.848529815673828,
    "centerType": "Center",
    "width": 28.370176315307617,
    "length": 35.34101867675781
  },
  "BigWorld_3_3_SGZD_To_PQS03_Inside_Ve": {
    "$type": "EHOAKHCMJJG",
    "useHeight": true,
    "height": 26.478378295898438,
    "centerType": "Center",
    "width": 28.18366241455078,
    "length": 41.68625259399414
  },
  "BigWorld_3_3_SGZD_To_PQS04_Inside_Ve": {
    "$type": "MNMPFNCILOP",
    "useHeight": true,
    "height": 47.11680603027344,
    "width": 46.104610443115234,
    "length": 74.78673553466797
  },
  "BigWorld_3_3_SGZD_To_PQS05_Inside_Ve": {
    "$type": "EHOAKHCMJJG",
    "useHeight": true,
    "height": 31.91956901550293,
    "centerType": "Center",
    "width": 48.53548812866211,
    "length": 70.63358306884766
  },
  "BigWorld_3_3_SGZD_To_PQS06_Inside_Ve": {
    "$type": "EHOAKHCMJJG",
    "useHeight": true,
    "height": 22.15256690979004,
    "centerType": "Center",
    "width": 25.457033157348633,
    "length": 33.69034957885742
  },
  "BigWorld_3_3_SGZD_Inside_Vs": {
    "$type": "EHOAKHCMJJG",
    "useHeight": true,
    "height": 127.92351531982422,
    "centerType": "Center",
    "width": 183.40985107421875,
    "length": 182.673095703125
  },
  "BigWorld_3_3_SGZD_01_Outside_Vs": {
    "$type": "EHOAKHCMJJG",
    "useHeight": true,
    "height": 132.2910919189453,
    "centerType": "Center",
    "width": 188.9973907470703,
    "length": 192.2620391845703
  },
  "BigWorld_3_3_SGZD_02_Outside_Vs": {
    "$type": "EHOAKHCMJJG",
    "useHeight": true,
    "height": 82.0308609008789,
    "centerType": "Center",
    "width": 132.89625549316406,
    "length": 155.38339233398438
  },
  "BigWorld_3_3_SGZD_03_Outside_Vs": {
    "$type": "MNMPFNCILOP",
    "useHeight": true,
    "height": 132.47532653808594,
    "width": 115.21163940429688,
    "length": 97.45645141601562
  },
  "BigWorld_3_3_SPD_01_Inside_Vd": {
    "$type": "AIMBNANKLBH",
    "polygonConfigPath": "BigWorld_3_3_SPD_01_Inside_Vd"
  },
  "BigWorld_3_3_SPD_01_Outside_Vd": {
    "$type": "AIMBNANKLBH",
    "polygonConfigPath": "BigWorld_3_3_SPD_01_Outside_Vd"
  },
  "BigWorld_3_3_SXBHS_01_Inside_Ve": {
    "$type": "AIMBNANKLBH",
    "polygonConfigPath": "BigWorld_3_3_SXBHS_01_Inside_Ve"
  },
  "BigWorld_3_3_SXBHS_02_Inside_Ve": {
    "$type": "PAKGFKEMFFN",
    "radius": 8.4938383102417
  },
  "BigWorld_3_3_SXFYA01_Inside_Ve": {
    "$type": "EHOAKHCMJJG",
    "useHeight": true,
    "height": 57.52745819091797,
    "centerType": "Center",
    "width": 103.34869384765625,
    "length": 90.49879455566406
  },
  "BigWorld_3_3_TZKJ01_Inside_Ve": {
    "$type": "EHOAKHCMJJG",
    "useHeight": true,
    "height": 18.964975357055664,
    "centerType": "Center",
    "width": 28.217370986938477,
    "length": 32.80738067626953
  },
  "BigWorld_3_3_TS_01_Inside_Ve": {
    "$type": "GLNLJIJMDJD",
    "useHeight": true,
    "height": 112.75171661376953,
    "radius": 13.72118854522705
  },
  "BigWorld_3_3_TS_02_Inside_Ve": {
    "$type": "EHOAKHCMJJG",
    "useHeight": true,
    "height": 84.56367492675781,
    "centerType": "Center",
    "width": 136.55804443359375,
    "length": 303.86163330078125
  },
  "BigWorld_3_3_02_Inside_Vd": {
    "$type": "AIMBNANKLBH",
    "polygonConfigPath": "BigWorld_3_3_02_Inside_Vd"
  },
  "BigWorld_3_3_02_Outside_Vd": {
    "$type": "AIMBNANKLBH",
    "polygonConfigPath": "BigWorld_3_3_02_Outside_Vd"
  },
  "BigWorld_3_3_01_Inside_Vd": {
    "$type": "AIMBNANKLBH",
    "polygonConfigPath": "BigWorld_3_3_01_Inside_Vd"
  },
  "BigWorld_3_3_01_Outside_Vd": {
    "$type": "AIMBNANKLBH",
    "polygonConfigPath": "BigWorld_3_3_01_Outside_Vd"
  }
}