{
  "Level_Fd_Laiousili_01_E_Inside_Ve": {
    "$type": "EHOAKHCMJJG",
    "useHeight": true,
    "height": 66.2896499633789,
    "centerType": "Center",
    "width": 57.60216522216797,
    "length": 138.46702575683594
  },
  "Level_Fd_Laiousili_01_F_01_Inside_Ve": {
    "$type": "EHOAKHCMJJG",
    "useHeight": true,
    "height": 69.45360565185547,
    "centerType": "Center",
    "width": 50.91625213623047,
    "length": 29.176740646362305
  },
  "Level_Fd_Laiousili_01_G_Inside_Ve": {
    "$type": "EHOAKHCMJJG",
    "useHeight": true,
    "height": 136.7256317138672,
    "centerType": "Center",
    "width": 181.60287475585938,
    "length": 108.33891296386719
  },
  "Level_Fd_Laiousili_01_I_Inside_Ve": {
    "$type": "EHOAKHCMJJG",
    "useHeight": true,
    "height": 99.11396789550781,
    "centerType": "Center",
    "width": 115.90373992919922,
    "length": 178.18309020996094
  },
  "Level_Fd_Laiousili_01_I_01_Inside_Ve": {
    "$type": "EHOAKHCMJJG",
    "useHeight": true,
    "height": 86.74642944335938,
    "centerType": "Center",
    "width": 75.17638397216797,
    "length": 30.112117767333984
  }
}