{
  "Level_HangMystification_01_01_Inside_Vh": {
    "$type": "EHOAKHCMJJG",
    "useHeight": true,
    "height": 52.281158447265625,
    "centerType": "Center",
    "width": 53.72920227050781,
    "length": 80.635986328125
  },
  "Level_HangMystification_01_02_Inside_Vh": {
    "$type": "EHOAKHCMJJG",
    "useHeight": true,
    "height": 17.671722412109375,
    "centerType": "Center",
    "width": 13.449539184570312,
    "length": 44.985504150390625
  },
  "Level_HangMystification_02_01_Inside_Vh": {
    "$type": "EHOAKHCMJJG",
    "useHeight": true,
    "height": 45.61445617675781,
    "centerType": "Center",
    "width": 66.84393310546875,
    "length": 84.88223266601562
  },
  "Level_HangMystification_03_01_Inside_Vh": {
    "$type": "EHOAKHCMJJG",
    "useHeight": true,
    "height": 128.565185546875,
    "centerType": "Center",
    "width": 116.53005981445312,
    "length": 71.06036376953125
  },
  "Level_HangMystification_03_02_Inside_Vh": {
    "$type": "EHOAKHCMJJG",
    "useHeight": true,
    "height": 128.565185546875,
    "centerType": "Center",
    "width": 94.52798461914062,
    "length": 76.148681640625
  },
  "Level_HangMystification_03_03_Inside_Vh": {
    "$type": "EHOAKHCMJJG",
    "useHeight": true,
    "height": 128.565185546875,
    "centerType": "Center",
    "width": 29.66979217529297,
    "length": 25.226470947265625
  },
  "Level_HangMystification_04_01_Inside_Vh": {
    "$type": "EHOAKHCMJJG",
    "useHeight": true,
    "height": 111.073486328125,
    "centerType": "Center",
    "width": 100.0,
    "length": 109.74478149414062
  },
  "Level_HangMystification_FourthRoom01_Inside_Ve": {
    "$type": "EHOAKHCMJJG",
    "useHeight": true,
    "height": 86.51263427734375,
    "centerType": "Center",
    "width": 98.70347595214844,
    "length": 107.94978332519531
  },
  "Level_HangMystification_SecondRoom01_Inside_Ve": {
    "$type": "EHOAKHCMJJG",
    "useHeight": true,
    "height": 44.99456787109375,
    "centerType": "Center",
    "width": 45.14215087890625,
    "length": 82.84658813476562
  },
  "Level_HangMystification_SecondRoom02_Inside_Ve": {
    "$type": "EHOAKHCMJJG",
    "useHeight": true,
    "height": 19.30181884765625,
    "centerType": "Center",
    "width": 14.235397338867188,
    "length": 38.5404052734375
  },
  "Level_HangMystification_SecondRoom03_Inside_Ve": {
    "$type": "EHOAKHCMJJG",
    "useHeight": true,
    "height": 19.1923828125,
    "centerType": "Center",
    "width": 32.91510772705078,
    "length": 12.95294189453125
  },
  "Level_HangMystification_Start01_Inside_Ve": {
    "$type": "EHOAKHCMJJG",
    "useHeight": true,
    "height": 65.15681457519531,
    "centerType": "Center",
    "width": 136.115478515625,
    "length": 88.98031616210938
  },
  "Level_HangMystification_Start02_Inside_Ve": {
    "$type": "EHOAKHCMJJG",
    "useHeight": true,
    "height": 30.911224365234375,
    "centerType": "Center",
    "width": 40.689300537109375,
    "length": 21.283599853515625
  },
  "Level_HangMystification_Start03_Inside_Ve": {
    "$type": "EHOAKHCMJJG",
    "useHeight": true,
    "height": 23.233596801757812,
    "centerType": "Center",
    "width": 19.708240509033203,
    "length": 21.197160720825195
  },
  "Level_HangMystification_ThirdRoom01_Inside_Ve": {
    "$type": "EHOAKHCMJJG",
    "useHeight": true,
    "height": 74.93649291992188,
    "centerType": "Center",
    "width": 89.14559173583984,
    "length": 100.38247680664062
  },
  "Level_HangMystification_ThirdRoom02_Inside_Ve": {
    "$type": "EHOAKHCMJJG",
    "useHeight": true,
    "height": 52.33477783203125,
    "centerType": "Center",
    "width": 52.91709899902344,
    "length": 43.8848876953125
  }
}