{
  "DeepSea_1_4_JYQRK_City_01_Inside_Vs": {
    "$type": "EHOAKHCMJJG",
    "useHeight": true,
    "height": 116.41034698486328,
    "centerType": "Center",
    "width": 82.86233520507812,
    "length": 97.64801025390625
  },
  "DeepSea_1_4_JYQRK_City_02_Inside_Vs": {
    "$type": "EHOAKHCMJJG",
    "useHeight": true,
    "height": 85.36592102050781,
    "centerType": "Center",
    "width": 84.29205322265625,
    "length": 114.55166625976562
  },
  "DeepSea_1_4_JYQRK_City_03_Inside_Vs": {
    "$type": "MNMPFNCILOP",
    "useHeight": true,
    "height": 45.86516189575195,
    "width": 65.16439819335938,
    "length": 85.42215728759766
  },
  "DeepSea_1_4_JYQRK_City_01_Outside_Vs": {
    "$type": "EHOAKHCMJJG",
    "useHeight": true,
    "height": 128.67335510253906,
    "centerType": "Center",
    "width": 92.91324615478516,
    "length": 109.47906494140625
  },
  "DeepSea_1_4_JYQRK_City_02_Outside_Vs": {
    "$type": "EHOAKHCMJJG",
    "useHeight": true,
    "height": 106.54371643066406,
    "centerType": "Center",
    "width": 111.12788391113281,
    "length": 126.66764831542969
  },
  "DeepSea_1_4_JYQRK_City_03_Outside_Vs": {
    "$type": "MNMPFNCILOP",
    "useHeight": true,
    "height": 64.31153869628906,
    "width": 82.7461166381836,
    "length": 112.4678955078125
  },
  "DeepSea_1_4_JYQRK_City_04_Outside_Vs": {
    "$type": "EHOAKHCMJJG",
    "useHeight": true,
    "height": 95.63742065429688,
    "centerType": "Center",
    "width": 87.99136352539062,
    "length": 160.16644287109375
  },
  "DeepSea_1_4_BST02_Inside_Ve": {
    "$type": "AIMBNANKLBH",
    "polygonConfigPath": "DeepSea_1_4_BST02_Inside_Ve"
  },
  "DeepSea_1_4_Cavern_JYQDSC_City_Inside_Vs": {
    "$type": "EHOAKHCMJJG",
    "useHeight": true,
    "height": 117.46577453613281,
    "centerType": "Center",
    "width": 205.0875244140625,
    "length": 140.6219024658203
  },
  "DeepSea_1_4_Cavern_JYQDSC_City_01_Outside_Vs": {
    "$type": "EHOAKHCMJJG",
    "useHeight": true,
    "height": 122.6240463256836,
    "centerType": "Center",
    "width": 243.10000610351562,
    "length": 190.42001342773438
  },
  "DeepSea_1_4_Cavern_JYQDSC_City_02_Outside_Vs": {
    "$type": "EHOAKHCMJJG",
    "useHeight": true,
    "height": 66.20571899414062,
    "centerType": "Center",
    "width": 89.86239624023438,
    "length": 144.12033081054688
  },
  "DeepSea_1_4_Cavern_JYQSHQ_City_01_Inside_Vs": {
    "$type": "EHOAKHCMJJG",
    "useHeight": true,
    "height": 123.70795440673828,
    "centerType": "Center",
    "width": 106.72190856933594,
    "length": 158.27235412597656
  },
  "DeepSea_1_4_Cavern_JYQSHQ_City_02_Inside_Vs": {
    "$type": "EHOAKHCMJJG",
    "useHeight": true,
    "height": 34.024871826171875,
    "centerType": "Center",
    "width": 23.351716995239258,
    "length": 75.77420043945312
  },
  "DeepSea_1_4_Cavern_JYQSHQ_City_03_Inside_Vs": {
    "$type": "EHOAKHCMJJG",
    "useHeight": true,
    "height": 58.19161605834961,
    "centerType": "Center",
    "width": 23.5742244720459,
    "length": 119.9629898071289
  },
  "DeepSea_1_4_Cavern_JYQSHQ_City_04_Inside_Vs": {
    "$type": "EHOAKHCMJJG",
    "useHeight": true,
    "height": 5.0,
    "centerType": "Center",
    "width": 5.0,
    "length": 5.808684349060059
  },
  "DeepSea_1_4_Cavern_JYQSHQ_City_01_Outside_Vs": {
    "$type": "EHOAKHCMJJG",
    "useHeight": true,
    "height": 144.1909637451172,
    "centerType": "Center",
    "width": 186.638671875,
    "length": 341.862548828125
  },
  "DeepSea_1_4_JYQSHQ_City_02_Outside_Vs": {
    "$type": "EHOAKHCMJJG",
    "useHeight": true,
    "height": 84.99905395507812,
    "centerType": "Center",
    "width": 150.82542419433594,
    "length": 95.5365982055664
  },
  "DeepSea_1_4_Cavern_JYQTD_City_01_Outside_Vs": {
    "$type": "EHOAKHCMJJG",
    "useHeight": true,
    "height": 382.35003662109375,
    "centerType": "Center",
    "width": 102.05551147460938,
    "length": 105.17871856689453
  },
  "DeepSea_1_4_Cavern_JYQTD_City_02_Outside_Vs": {
    "$type": "EHOAKHCMJJG",
    "useHeight": true,
    "height": 323.47210693359375,
    "centerType": "Center",
    "width": 149.39010620117188,
    "length": 130.64076232910156
  },
  "DeepSea_1_4_Cavern_JYQTD_City_03_Outside_Vs": {
    "$type": "EHOAKHCMJJG",
    "useHeight": true,
    "height": 259.8212890625,
    "centerType": "Center",
    "width": 233.5779571533203,
    "length": 308.0086364746094
  },
  "DeepSea_1_4_Cavern_JYQTD_City_04_Outside_Vs": {
    "$type": "EHOAKHCMJJG",
    "useHeight": true,
    "height": 181.48162841796875,
    "centerType": "Center",
    "width": 188.87274169921875,
    "length": 199.1234893798828
  },
  "DeepSea_1_4_JYQ01_01_Inside_Vd": {
    "$type": "PAKGFKEMFFN",
    "radius": 300.0
  },
  "DeepSea_1_4_JYQ01_01_Outside_Vd": {
    "$type": "PAKGFKEMFFN",
    "radius": 310.0
  },
  "DeepSea_1_4_KPM_Tunnel_Down01_Inside_Ve": {
    "$type": "MNMPFNCILOP",
    "useHeight": true,
    "height": 63.72825241088867,
    "width": 198.9864501953125,
    "length": 232.397705078125
  },
  "DeepSea_1_4_KPM_Tunnel_Down02_Inside_Ve": {
    "$type": "MNMPFNCILOP",
    "useHeight": true,
    "height": 113.08838653564453,
    "width": 94.74978637695312,
    "length": 96.9304428100586
  },
  "DeepSea_1_4_KPM_Tunnel_Down03_Inside_Ve": {
    "$type": "MNMPFNCILOP",
    "useHeight": true,
    "height": 223.86415100097656,
    "width": 216.34063720703125,
    "length": 174.69776916503906
  },
  "DeepSea_1_4_KPM_Tunnel_Up01_Inside_Ve": {
    "$type": "EHOAKHCMJJG",
    "useHeight": true,
    "height": 176.42762756347656,
    "centerType": "Center",
    "width": 122.54154205322266,
    "length": 97.37321472167969
  },
  "DeepSea_1_4_KPMtunnel_01_Inside_Ve": {
    "$type": "MNMPFNCILOP",
    "useHeight": true,
    "height": 283.4826354980469,
    "width": 479.2819519042969,
    "length": 384.671142578125
  },
  "DeepSea_1_4_KPMtunnel_02_Inside_Ve": {
    "$type": "EHOAKHCMJJG",
    "useHeight": true,
    "height": 166.21453857421875,
    "centerType": "Center",
    "width": 196.26002502441406,
    "length": 103.99494934082031
  },
  "DeepSea_1_4_03_Inside_Ve": {
    "$type": "MNMPFNCILOP",
    "useHeight": true,
    "height": 89.20510864257812,
    "width": 126.0142822265625,
    "length": 84.64907836914062
  },
  "DeepSea_1_4_LMS_Tunnel_01_Inside_Ve": {
    "$type": "EHOAKHCMJJG",
    "useHeight": true,
    "height": 38.7354621887207,
    "centerType": "Center",
    "width": 55.2315673828125,
    "length": 58.75693893432617
  },
  "DeepSea_1_4_LMS_Tunnel_02_Inside_Ve": {
    "$type": "EHOAKHCMJJG",
    "useHeight": true,
    "height": 27.664875030517578,
    "centerType": "Center",
    "width": 46.858951568603516,
    "length": 31.551103591918945
  },
  "DeepSea_1_4_LMS_Tunnel_03_Inside_Ve": {
    "$type": "EHOAKHCMJJG",
    "useHeight": true,
    "height": 54.56304931640625,
    "centerType": "Center",
    "width": 73.27804565429688,
    "length": 30.660776138305664
  },
  "DeepSea_1_4_LMS_Tunnel_04_Inside_Ve": {
    "$type": "EHOAKHCMJJG",
    "useHeight": true,
    "height": 25.046762466430664,
    "centerType": "Center",
    "width": 20.633092880249023,
    "length": 17.964075088500977
  },
  "DeepSea_1_4_LMS_Tunnel_05_Inside_Ve": {
    "$type": "EHOAKHCMJJG",
    "useHeight": true,
    "height": 18.556621551513672,
    "centerType": "Center",
    "width": 54.17058563232422,
    "length": 39.25214385986328
  },
  "DeepSea_1_4_PSHY_LMS_01_Inside_Ve": {
    "$type": "EHOAKHCMJJG",
    "useHeight": true,
    "height": 129.99679565429688,
    "centerType": "Center",
    "width": 106.0384292602539,
    "length": 139.48037719726562
  },
  "DeepSea_1_4_PSHY_LMS_UW_01_Inside_Ve": {
    "$type": "EHOAKHCMJJG",
    "useHeight": true,
    "height": 61.68686294555664,
    "centerType": "Center",
    "width": 56.27754592895508,
    "length": 55.905555725097656
  },
  "DeepSea_1_4_PSHY_LMS_03_Inside_Ve": {
    "$type": "EHOAKHCMJJG",
    "useHeight": true,
    "height": 106.85379791259766,
    "centerType": "Center",
    "width": 76.68021392822266,
    "length": 77.58222198486328
  },
  "DeepSea_1_4_PSHY_LMS_04_Inside_Ve": {
    "$type": "MNMPFNCILOP",
    "useHeight": true,
    "height": 25.140031814575195,
    "width": 38.25111770629883,
    "length": 66.4773178100586
  },
  "DeepSea_1_4_PSHY_LMS_05_Inside_Ve": {
    "$type": "MNMPFNCILOP",
    "useHeight": true,
    "height": 37.966522216796875,
    "width": 19.923988342285156,
    "length": 24.318777084350586
  },
  "DeepSea_1_4_PSHY_LMS_06_Inside_Ve": {
    "$type": "EHOAKHCMJJG",
    "useHeight": true,
    "height": 23.621862411499023,
    "centerType": "Center",
    "width": 40.95154571533203,
    "length": 26.116579055786133
  },
  "DeepSea_1_4_PSHY_SQZT_Middle_Inside_Ve": {
    "$type": "AIMBNANKLBH",
    "polygonConfigPath": "DeepSea_1_4_PSHY_SQZT_Middle_Inside_Ve"
  },
  "DeepSea_1_4_PSHY_SQZT_Middle_02_Inside_Ve": {
    "$type": "EHOAKHCMJJG",
    "useHeight": true,
    "height": 15.336713790893555,
    "centerType": "Center",
    "width": 253.24609375,
    "length": 161.48703002929688
  },
  "DeepSea_1_4_PSHY_Tunnel_01_Inside_Ve": {
    "$type": "MNMPFNCILOP",
    "useHeight": true,
    "height": 87.8236312866211,
    "width": 84.61201477050781,
    "length": 123.98261260986328
  },
  "DeepSea_1_4_PSHY_Tunnel_02_Inside_Ve": {
    "$type": "MNMPFNCILOP",
    "useHeight": true,
    "height": 191.7144317626953,
    "width": 120.24909973144531,
    "length": 154.73696899414062
  },
  "DeepSea_1_4_PSHY_Tunnel_03_Inside_Ve": {
    "$type": "MNMPFNCILOP",
    "useHeight": true,
    "height": 55.43291091918945,
    "width": 64.564208984375,
    "length": 131.26023864746094
  },
  "DeepSea_1_4_SQZT_Deep_Inside_Ve": {
    "$type": "AIMBNANKLBH",
    "polygonConfigPath": "DeepSea_1_4_SQZT_Deep_Inside_Ve"
  },
  "DeepSea_1_4_SQZT_Deep_02_Inside_Ve": {
    "$type": "AIMBNANKLBH",
    "polygonConfigPath": "DeepSea_1_4_SQZT_Deep_02_Inside_Ve"
  },
  "DeepSea_1_4_Unload_JYQ_01_Inside_Vs": {
    "$type": "EHOAKHCMJJG",
    "useHeight": true,
    "height": 566.3043823242188,
    "centerType": "Center",
    "width": 813.4818115234375,
    "length": 782.3544311523438
  },
  "DeepSea_1_4_Unload_JYQ_02_Inside_Vs": {
    "$type": "EHOAKHCMJJG",
    "useHeight": true,
    "height": 129.907958984375,
    "centerType": "Center",
    "width": 183.0941925048828,
    "length": 188.89059448242188
  },
  "DeepSea_1_4_Unload_JYQ_03_Inside_Vs": {
    "$type": "EHOAKHCMJJG",
    "useHeight": true,
    "height": 248.1544952392578,
    "centerType": "Center",
    "width": 237.72450256347656,
    "length": 175.4324493408203
  },
  "DeepSea_1_4_Unload_JYQ_01_Outside_Vs": {
    "$type": "EHOAKHCMJJG",
    "useHeight": true,
    "height": 672.86669921875,
    "centerType": "Center",
    "width": 885.4437866210938,
    "length": 850.5379638671875
  },
  "DeepSea_1_4_Unload_JYQ_02_Outside_Vs": {
    "$type": "EHOAKHCMJJG",
    "useHeight": true,
    "height": 130.0,
    "centerType": "Center",
    "width": 185.0,
    "length": 190.0
  },
  "DeepSea_1_4_Unload_JYQ_03_Outside_Vs": {
    "$type": "EHOAKHCMJJG",
    "useHeight": true,
    "height": 250.0,
    "centerType": "Center",
    "width": 240.0,
    "length": 470.0
  },
  "DeepSea_1_4_XLJC_Cave_Inside_Ve": {
    "$type": "EHOAKHCMJJG",
    "useHeight": true,
    "height": 16.92107391357422,
    "centerType": "Center",
    "width": 70.30072021484375,
    "length": 58.49162292480469
  },
  "DeepSea_1_4_XLJC_Cave_02_Inside_Ve": {
    "$type": "EHOAKHCMJJG",
    "useHeight": true,
    "height": 17.605695724487305,
    "centerType": "Center",
    "width": 44.49223327636719,
    "length": 31.566822052001953
  },
  "DeepSea_1_4_XLJC_Keyview_Inside_Ve": {
    "$type": "EHOAKHCMJJG",
    "useHeight": true,
    "height": 170.22903442382812,
    "centerType": "Center",
    "width": 204.9181671142578,
    "length": 117.99256134033203
  },
  "DeepSea_1_4_XLJC_Inside_Ve": {
    "$type": "EHOAKHCMJJG",
    "useHeight": true,
    "height": 147.65802001953125,
    "centerType": "Center",
    "width": 187.4065399169922,
    "length": 177.31126403808594
  },
  "DeepSea_1_4_XLJC_02_Inside_Ve": {
    "$type": "EHOAKHCMJJG",
    "useHeight": true,
    "height": 70.04804992675781,
    "centerType": "Center",
    "width": 99.33433532714844,
    "length": 146.91925048828125
  },
  "DeepSea_1_4_XLJC_03_Inside_Ve": {
    "$type": "EHOAKHCMJJG",
    "useHeight": true,
    "height": 46.56708526611328,
    "centerType": "Center",
    "width": 118.29610443115234,
    "length": 151.88539123535156
  },
  "DeepSea_1_4_XLJC_04_Inside_Ve": {
    "$type": "EHOAKHCMJJG",
    "useHeight": true,
    "height": 22.31609344482422,
    "centerType": "Center",
    "width": 43.34248352050781,
    "length": 19.612668991088867
  }
}