{
  "TheChasm_1_0_KCKQ01_01_Outside_Vs": {
    "$type": "EHOAKHCMJJG",
    "useHeight": true,
    "height": 350.853515625,
    "centerType": "Center",
    "width": 465.95086669921875,
    "length": 620.6403198242188
  },
  "TheChasm_1_0_KCKQ01_02_Outside_Vs": {
    "$type": "EHOAKHCMJJG",
    "useHeight": true,
    "height": 273.908447265625,
    "centerType": "Center",
    "width": 259.73968505859375,
    "length": 289.63079833984375
  },
  "TheChasm_1_0_KCKQ01_03_Outside_Vs": {
    "$type": "EHOAKHCMJJG",
    "useHeight": true,
    "height": 271.1805419921875,
    "centerType": "Center",
    "width": 354.20050048828125,
    "length": 541.3062744140625
  },
  "TheChasm_1_0_KCKQ01_04_Outside_Vs": {
    "$type": "EHOAKHCMJJG",
    "useHeight": true,
    "height": 143.4339599609375,
    "centerType": "Center",
    "width": 160.51177978515625,
    "length": 160.29904174804688
  },
  "TheChasm_1_0_QSJD01_01_Outside_Vs": {
    "$type": "EHOAKHCMJJG",
    "useHeight": true,
    "height": 257.402587890625,
    "centerType": "Center",
    "width": 388.89312744140625,
    "length": 417.89825439453125
  },
  "TheChasm_1_0_QSJD01_02_Outside_Vs": {
    "$type": "EHOAKHCMJJG",
    "useHeight": true,
    "height": 233.2845458984375,
    "centerType": "Center",
    "width": 327.3712158203125,
    "length": 358.00360107421875
  },
  "TheChasm_1_0_QSJD01_03_Outside_Vs": {
    "$type": "EHOAKHCMJJG",
    "useHeight": true,
    "height": 77.64208984375,
    "centerType": "Center",
    "width": 78.71533203125,
    "length": 125.2523193359375
  },
  "TheChasm_1_0_Interior_Inside_Ve": {
    "$type": "AIMBNANKLBH",
    "polygonConfigPath": "TheChasm_1_0_Interior_Inside_Ve"
  }
}