{
  "luaDataPath": "",
  "entityBan": "",
  "disableNpcLod": true,
  "startFade": {
    "startFadeOutDuration": 0.0
  },
  "endFade": {
    "startFadeOutDuration": 0.0
  },
  "actors": [
    {
      "alias": "Avatar",
      "visible": true,
      "bornPointName": "",
      "relativePosNpcAlias": "",
      "_bindMovingTargetKey": ""
    },
    {
      "configID": 20450,
      "alias": "20450",
      "visible": true,
      "bornPointName": "",
      "relativePosNpcAlias": "",
      "_bindMovingTargetKey": ""
    },
    {
      "configID": 20451,
      "alias": "20451",
      "visible": true,
      "bornPointName": "",
      "relativePosNpcAlias": "",
      "_bindMovingTargetKey": ""
    }
  ],
  "group": [
    [
      {
        "$type": "IEKHMHNHENB",
        "type": "STEER_TO",
        "duration": 0.800000011920929,
        "aliasList": [
          "Avatar"
        ],
        "steerType": "TO_TARGET_ADVANCED",
        "useSteerAnim": true,
        "targetNpcAlias": "20451",
        "BHGPHGNFCBF": ""
      },
      {
        "$type": "MoleMole.Config.ConfigTimeProtectAction",
        "type": "TIME_PROTECT",
        "duration": 0.10000000149011612
      },
      {
        "$type": "EFHODGEJOHJ",
        "type": "CAMERA_FOCUS",
        "duration": 0.10000000149011612,
        "targetNpcAlias": "",
        "PHGBNNGCJKJ": "",
        "NFILMKCFHEB": "",
        "BGPNGHDAECF": ""
      }
    ],
    [
      {
        "$type": "MJFAIFFAGOF",
        "type": "DIALOG",
        "aliasList": [
          "20450"
        ],
        "dialogID": 721671901,
        "protectTime": 0.5
      }
    ],
    [
      {
        "$type": "MJFAIFFAGOF",
        "type": "DIALOG",
        "aliasList": [
          "20451"
        ],
        "dialogID": 721671902,
        "protectTime": 0.5
      }
    ],
    [
      {
        "$type": "MJFAIFFAGOF",
        "type": "DIALOG",
        "aliasList": [
          "20450"
        ],
        "dialogID": 721671903,
        "protectTime": 0.5
      }
    ],
    [
      {
        "$type": "MJFAIFFAGOF",
        "type": "DIALOG",
        "aliasList": [
          "20450"
        ],
        "dialogID": 721671904,
        "protectTime": 0.5
      }
    ],
    [
      {
        "$type": "MJFAIFFAGOF",
        "type": "DIALOG",
        "aliasList": [
          "20451"
        ],
        "dialogID": 721671905,
        "protectTime": 0.5
      }
    ],
    [
      {
        "$type": "MJFAIFFAGOF",
        "type": "DIALOG",
        "aliasList": [
          "20451"
        ],
        "dialogID": 721671906,
        "protectTime": 0.5
      }
    ],
    [
      {
        "$type": "MJFAIFFAGOF",
        "type": "DIALOG",
        "aliasList": [
          "20450"
        ],
        "dialogID": 721671907,
        "protectTime": 0.5
      }
    ],
    [
      {
        "$type": "MoleMole.Config.ConfigTimeProtectAction",
        "type": "TIME_PROTECT",
        "duration": 0.10000000149011612
      }
    ]
  ],
  "groupId": [
    {
      "grpId": 2755840505,
      "nextGrpId": 2755840506
    },
    {
      "index": 1,
      "grpId": 2755840506,
      "nextGrpId": 2755840507
    },
    {
      "index": 2,
      "grpId": 2755840507,
      "nextGrpId": 2755840508
    },
    {
      "index": 3,
      "grpId": 2755840508,
      "nextGrpId": 2755840509
    },
    {
      "index": 4,
      "grpId": 2755840509,
      "nextGrpId": 2755840510
    },
    {
      "index": 5,
      "grpId": 2755840510,
      "nextGrpId": 2755840511
    },
    {
      "index": 6,
      "grpId": 2755840511,
      "nextGrpId": 2755840512
    },
    {
      "index": 7,
      "grpId": 2755840512,
      "nextGrpId": 2755840513
    },
    {
      "index": 8,
      "grpId": 2755840513,
      "nextGrpId": 3826677079
    }
  ],
  "freeStyleDic": {
    "20450": [],
    "20451": []
  }
}