{
  "yMax": 626.209716796875,
  "yMin": 438.2608642578125,
  "vertices": [
    {
      "x": 4912.9462890625,
      "y": 438.2608642578125,
      "z": 3471.79248046875
    },
    {
      "x": 4945.0341796875,
      "y": 438.2608642578125,
      "z": 3737.2451171875
    },
    {
      "x": 4865.35791015625,
      "y": 438.2608642578125,
      "z": 3933.07275390625
    },
    {
      "x": 4574.43701171875,
      "y": 438.2608642578125,
      "z": 4195.49755859375
    },
    {
      "x": 5189.32666015625,
      "y": 438.2608642578125,
      "z": 4225.81689453125
    },
    {
      "x": 5196.12353515625,
      "y": 438.2608642578125,
      "z": 3475.37646484375
    }
  ]
}