{
  "yMax": 420.0,
  "yMin": 174.5604248046875,
  "vertices": [
    {
      "x": 2252.037109375,
      "y": 174.5604248046875,
      "z": 3660.1328125
    },
    {
      "x": 2388.099609375,
      "y": 174.5604248046875,
      "z": 3829.539306640625
    },
    {
      "x": 2692.94677734375,
      "y": 174.5604248046875,
      "z": 3928.393310546875
    },
    {
      "x": 2940.4970703125,
      "y": 174.5604248046875,
      "z": 3849.3330078125
    },
    {
      "x": 2971.0849609375,
      "y": 174.5604248046875,
      "z": 3567.857177734375
    },
    {
      "x": 2835.92919921875,
      "y": 174.5604248046875,
      "z": 3454.0146484375
    },
    {
      "x": 2599.35693359375,
      "y": 174.5604248046875,
      "z": 3396.342041015625
    },
    {
      "x": 2437.31103515625,
      "y": 174.5604248046875,
      "z": 3356.834228515625
    },
    {
      "x": 2328.087890625,
      "y": 174.5604248046875,
      "z": 3475.39013671875
    }
  ]
}