{
  "localPolygonId": 3938375222,
  "yMax": 1000.0,
  "vertices": [
    {
      "x": 260.1738586425781,
      "y": 348.4193115234375,
      "z": 87.56297302246094
    },
    {
      "x": 340.4007263183594,
      "y": 333.3174133300781,
      "z": 133.5277862548828
    },
    {
      "x": 408.7677307128906,
      "y": 305.9004211425781,
      "z": 278.05364990234375
    },
    {
      "x": 349.2552795410156,
      "y": 286.5294494628906,
      "z": 417.5830078125
    },
    {
      "x": 223.88595581054688,
      "y": 286.6166076660156,
      "z": 450.04833984375
    },
    {
      "x": 85.13075256347656,
      "y": 243.61178588867188,
      "z": 340.4653015136719
    },
    {
      "x": 110.15248107910156,
      "y": 301.32794189453125,
      "z": 187.59024047851562
    }
  ]
}