{
  "yMax": 676.4185180664062,
  "yMin": 198.16250610351562,
  "vertices": [
    {
      "x": 2998.036376953125,
      "y": 198.16250610351562,
      "z": 3940.536865234375
    },
    {
      "x": 2816.56005859375,
      "y": 198.16250610351562,
      "z": 4067.736328125
    },
    {
      "x": 2463.351318359375,
      "y": 198.16250610351562,
      "z": 4215.10888671875
    },
    {
      "x": 2226.216796875,
      "y": 198.16250610351562,
      "z": 4093.552490234375
    },
    {
      "x": 2077.6240234375,
      "y": 198.16250610351562,
      "z": 3889.0126953125
    },
    {
      "x": 2030.38134765625,
      "y": 198.16250610351562,
      "z": 3537.02099609375
    },
    {
      "x": 2247.3642578125,
      "y": 198.16250610351562,
      "z": 3092.072998046875
    },
    {
      "x": 2526.654541015625,
      "y": 198.16250610351562,
      "z": 2866.615234375
    },
    {
      "x": 3235.43896484375,
      "y": 198.16250610351562,
      "z": 2624.54541015625
    },
    {
      "x": 3214.558349609375,
      "y": 198.16250610351562,
      "z": 3703.17333984375
    }
  ]
}