{
  "localPolygonId": 1993818661,
  "yMax": 1000.0,
  "vertices": [
    {
      "x": 1607.8406982421875,
      "y": 273.47589111328125,
      "z": -905.5789184570312
    },
    {
      "x": 1386.1861572265625,
      "y": 275.9562072753906,
      "z": -1188.0467529296875
    },
    {
      "x": 996.2565307617188,
      "y": 198.419921875,
      "z": -1335.1290283203125
    },
    {
      "x": 617.12890625,
      "y": 200.50991821289062,
      "z": -1182.2838134765625
    },
    {
      "x": 578.5745239257812,
      "y": 200.02938842773438,
      "z": -792.744873046875
    },
    {
      "x": 729.51953125,
      "y": 291.998046875,
      "z": -482.3372802734375
    },
    {
      "x": 987.856689453125,
      "y": 275.276123046875,
      "z": -338.53289794921875
    },
    {
      "x": 1415.5645751953125,
      "y": 261.92535400390625,
      "z": -345.35003662109375
    }
  ]
}