{
  "yMax": 489.85791015625,
  "yMin": 462.70001220703125,
  "vertices": [
    {
      "x": 3634.98095703125,
      "y": 462.70001220703125,
      "z": 3266.3271484375
    },
    {
      "x": 3666.8818359375,
      "y": 462.70001220703125,
      "z": 3249.681640625
    },
    {
      "x": 3675.822265625,
      "y": 462.70001220703125,
      "z": 3208.252685546875
    },
    {
      "x": 3740.55224609375,
      "y": 462.70001220703125,
      "z": 3306.18310546875
    },
    {
      "x": 3697.40087890625,
      "y": 462.70001220703125,
      "z": 3298.56298828125
    },
    {
      "x": 3658.2470703125,
      "y": 462.70001220703125,
      "z": 3318.165771484375
    }
  ]
}