{
  "yMax": 412.82281494140625,
  "yMin": 203.56344604492188,
  "vertices": [
    {
      "x": 2689.2021484375,
      "y": 203.56344604492188,
      "z": 3896.55810546875
    },
    {
      "x": 2329.0537109375,
      "y": 203.56344604492188,
      "z": 3759.62646484375
    },
    {
      "x": 2230.5751953125,
      "y": 203.56344604492188,
      "z": 3575.80078125
    },
    {
      "x": 2464.109375,
      "y": 203.56344604492188,
      "z": 3373.21728515625
    },
    {
      "x": 2642.3076171875,
      "y": 203.56344604492188,
      "z": 3405.10546875
    },
    {
      "x": 2890.84765625,
      "y": 203.56344604492188,
      "z": 3494.20458984375
    },
    {
      "x": 3034.4619140625,
      "y": 203.56344604492188,
      "z": 3682.14306640625
    },
    {
      "x": 2948.40966796875,
      "y": 203.56344604492188,
      "z": 3846.822265625
    }
  ]
}