{
  "yMax": 280.0,
  "yMin": 215.0,
  "vertices": [
    {
      "x": -2283.660400390625,
      "y": 215.04791259765625,
      "z": 5477.5009765625
    },
    {
      "x": -2282.517333984375,
      "y": 215.07452392578125,
      "z": 5487.93505859375
    },
    {
      "x": -2285.365234375,
      "y": 214.91201782226562,
      "z": 5519.2275390625
    },
    {
      "x": -2281.1396484375,
      "y": 213.28233337402344,
      "z": 5538.58544921875
    },
    {
      "x": -2280.77490234375,
      "y": 213.15707397460938,
      "z": 5568.58544921875
    },
    {
      "x": -2304.2998046875,
      "y": 215.38629150390625,
      "z": 5588.7373046875
    },
    {
      "x": -2334.25439453125,
      "y": 215.3572235107422,
      "z": 5589.24365234375
    },
    {
      "x": -2394.079833984375,
      "y": 218.72842407226562,
      "z": 5588.55322265625
    },
    {
      "x": -2394.93408203125,
      "y": 218.5607147216797,
      "z": 5509.439453125
    },
    {
      "x": -2369.875732421875,
      "y": 218.6549072265625,
      "z": 5507.84814453125
    },
    {
      "x": -2286.907470703125,
      "y": 215.24000549316406,
      "z": 5477.4697265625
    }
  ]
}