{
  "localPolygonId": 2031053545,
  "yMax": 135.0,
  "yMin": 92.0,
  "vertices": [
    {
      "x": 113.84098052978516,
      "y": 120.53363037109375,
      "z": 3007.70263671875
    },
    {
      "x": 122.89664459228516,
      "y": 121.94487762451172,
      "z": 2981.84521484375
    },
    {
      "x": 122.23624420166016,
      "y": 118.96598052978516,
      "z": 2973.518798828125
    },
    {
      "x": 118.76199340820312,
      "y": 112.35936737060547,
      "z": 2959.930908203125
    },
    {
      "x": 138.68441772460938,
      "y": 112.40213012695312,
      "z": 2938.888427734375
    },
    {
      "x": 131.9160919189453,
      "y": 108.06482696533203,
      "z": 2932.626953125
    },
    {
      "x": 151.3888702392578,
      "y": 106.61138153076172,
      "z": 2923.523193359375
    },
    {
      "x": 165.55751037597656,
      "y": 106.61820983886719,
      "z": 2908.01904296875
    },
    {
      "x": 184.98020935058594,
      "y": 106.25569152832031,
      "z": 2913.68310546875
    },
    {
      "x": 187.99363708496094,
      "y": 108.29090118408203,
      "z": 2922.86865234375
    },
    {
      "x": 189.0291748046875,
      "y": 107.43168640136719,
      "z": 2937.361572265625
    },
    {
      "x": 193.95445251464844,
      "y": 108.44599151611328,
      "z": 2960.70263671875
    },
    {
      "x": 184.26376342773438,
      "y": 110.56132507324219,
      "z": 2959.63720703125
    },
    {
      "x": 175.06517028808594,
      "y": 109.92143249511719,
      "z": 2978.725830078125
    },
    {
      "x": 159.67796325683594,
      "y": 110.35017395019531,
      "z": 2991.4462890625
    },
    {
      "x": 154.07330322265625,
      "y": 116.94947052001953,
      "z": 3002.254638671875
    },
    {
      "x": 149.5276336669922,
      "y": 122.47584533691406,
      "z": 3010.842529296875
    },
    {
      "x": 141.91746520996094,
      "y": 125.1545639038086,
      "z": 3014.133544921875
    },
    {
      "x": 129.0233612060547,
      "y": 126.2641372680664,
      "z": 3020.212646484375
    },
    {
      "x": 120.35980987548828,
      "y": 127.87974548339844,
      "z": 3014.034423828125
    }
  ]
}