{
  "yMax": 748.8950805664062,
  "yMin": 198.1624755859375,
  "vertices": [
    {
      "x": 4276.37060546875,
      "y": 198.1624755859375,
      "z": 3522.051513671875
    },
    {
      "x": 4110.5302734375,
      "y": 198.1624755859375,
      "z": 3836.658935546875
    },
    {
      "x": 3973.6455078125,
      "y": 198.1624755859375,
      "z": 3898.01123046875
    },
    {
      "x": 3898.887451171875,
      "y": 198.1624755859375,
      "z": 3809.832763671875
    },
    {
      "x": 3849.818603515625,
      "y": 198.1624755859375,
      "z": 3649.51513671875
    },
    {
      "x": 3580.313720703125,
      "y": 198.1624755859375,
      "z": 3538.80322265625
    },
    {
      "x": 3000.10986328125,
      "y": 198.1624755859375,
      "z": 3760.522705078125
    },
    {
      "x": 3005.242919921875,
      "y": 198.1624755859375,
      "z": 2987.49951171875
    },
    {
      "x": 4248.20166015625,
      "y": 198.1624755859375,
      "z": 2993.6435546875
    }
  ]
}