{
  "yMax": 290.0,
  "yMin": 250.0,
  "vertices": [
    {
      "x": -3004.44873046875,
      "y": 275.5617980957031,
      "z": 4808.80517578125
    },
    {
      "x": -3011.6220703125,
      "y": 275.5270080566406,
      "z": 4799.49658203125
    },
    {
      "x": -3030.185546875,
      "y": 275.2902526855469,
      "z": 4805.40673828125
    },
    {
      "x": -3041.43603515625,
      "y": 265.2662048339844,
      "z": 4829.14111328125
    },
    {
      "x": -3063.76025390625,
      "y": 260.7177429199219,
      "z": 4858.00341796875
    },
    {
      "x": -3046.37646484375,
      "y": 261.64111328125,
      "z": 4887.74267578125
    },
    {
      "x": -3003.226806640625,
      "y": 257.0329284667969,
      "z": 4877.03662109375
    },
    {
      "x": -2996.54736328125,
      "y": 262.92431640625,
      "z": 4855.39990234375
    },
    {
      "x": -2995.789794921875,
      "y": 275.26409912109375,
      "z": 4821.03369140625
    }
  ]
}