{
  "yMax": 900.0,
  "yMin": 644.0,
  "vertices": [
    {
      "x": 1291.3935546875,
      "y": 644.0,
      "z": 4285.1865234375
    },
    {
      "x": 1283.519775390625,
      "y": 644.0,
      "z": 4447.076171875
    },
    {
      "x": 1344.989013671875,
      "y": 644.0,
      "z": 4617.7060546875
    },
    {
      "x": 1500.37548828125,
      "y": 644.0,
      "z": 4579.751953125
    },
    {
      "x": 1541.7735595703125,
      "y": 644.0,
      "z": 4587.41796875
    },
    {
      "x": 1578.93115234375,
      "y": 644.0,
      "z": 4634.4296875
    },
    {
      "x": 1672.750244140625,
      "y": 644.0,
      "z": 4784.4375
    },
    {
      "x": 1792.855224609375,
      "y": 644.0,
      "z": 4740.5546875
    },
    {
      "x": 1875.713134765625,
      "y": 644.0,
      "z": 4601.103515625
    },
    {
      "x": 1883.258544921875,
      "y": 644.0,
      "z": 4458.5126953125
    },
    {
      "x": 1867.14306640625,
      "y": 644.0,
      "z": 4327.9921875
    },
    {
      "x": 1810.29296875,
      "y": 644.0,
      "z": 4228.734375
    },
    {
      "x": 1699.0986328125,
      "y": 644.0,
      "z": 4171.3740234375
    },
    {
      "x": 1536.384033203125,
      "y": 644.0,
      "z": 4152.041015625
    },
    {
      "x": 1381.6982421875,
      "y": 644.0,
      "z": 4181.765625
    }
  ]
}