{
  "yMax": 90.65666198730469,
  "yMin": -16.60567855834961,
  "vertices": [
    {
      "x": 234.3350067138672,
      "y": -16.60567855834961,
      "z": 15.587700843811035
    },
    {
      "x": 234.82923889160156,
      "y": -16.60567855834961,
      "z": -23.748804092407227
    },
    {
      "x": 247.13880920410156,
      "y": -16.60567855834961,
      "z": -48.92279815673828
    },
    {
      "x": 359.8782958984375,
      "y": -16.60567855834961,
      "z": -49.99815368652344
    },
    {
      "x": 385.31463623046875,
      "y": -16.60567855834961,
      "z": -28.41462516784668
    },
    {
      "x": 382.3846435546875,
      "y": -16.60567855834961,
      "z": 31.919658660888672
    },
    {
      "x": 333.66851806640625,
      "y": -16.60567855834961,
      "z": 51.06787109375
    },
    {
      "x": 248.1192626953125,
      "y": -16.60567855834961,
      "z": 47.497962951660156
    }
  ]
}