{
  "yMax": 80.0,
  "vertices": [
    {
      "x": 342.3804931640625,
      "z": 195.70211791992188
    },
    {
      "x": 369.8917236328125,
      "z": 193.62115478515625
    },
    {
      "x": 380.18890380859375,
      "z": 166.38519287109375
    },
    {
      "x": 361.06268310546875,
      "z": 133.78341674804688
    },
    {
      "x": 328.45306396484375,
      "z": 128.89639282226562
    },
    {
      "x": 279.9802551269531,
      "z": 130.6552734375
    },
    {
      "x": 204.41700744628906,
      "z": 129.49774169921875
    },
    {
      "x": 200.8682861328125,
      "z": 213.81610107421875
    },
    {
      "x": 249.89450073242188,
      "z": 233.96694946289062
    },
    {
      "x": 314.5545654296875,
      "z": 224.90321350097656
    },
    {
      "x": 339.99041748046875,
      "z": 223.7866973876953
    }
  ]
}