{
  "localPolygonId": 3786836306,
  "yMax": 1000.0,
  "vertices": [
    {
      "x": -210.0,
      "y": 100.0,
      "z": -210.0
    },
    {
      "x": -210.0,
      "y": 100.0,
      "z": 210.0
    },
    {
      "x": 210.0,
      "y": 100.0,
      "z": 210.0
    },
    {
      "x": 210.0,
      "y": 100.0,
      "z": -210.0
    }
  ]
}