{
  "yMax": 400.0,
  "yMin": 90.0,
  "vertices": [
    {
      "x": 830.4685668945312,
      "y": 284.47412109375,
      "z": 944.5568237304688
    },
    {
      "x": 816.9244995117188,
      "y": 277.38153076171875,
      "z": 956.97900390625
    },
    {
      "x": 812.9310913085938,
      "y": 278.69622802734375,
      "z": 982.4429321289062
    },
    {
      "x": 844.873779296875,
      "y": 288.3488464355469,
      "z": 1027.7042236328125
    },
    {
      "x": 819.7587890625,
      "y": 326.5970153808594,
      "z": 1150.249755859375
    },
    {
      "x": 771.0144653320312,
      "y": 310.8291015625,
      "z": 1162.065673828125
    },
    {
      "x": 708.3703002929688,
      "y": 286.9852600097656,
      "z": 1122.27001953125
    },
    {
      "x": 676.2039794921875,
      "y": 280.3973083496094,
      "z": 1067.96826171875
    },
    {
      "x": 673.2376708984375,
      "y": 270.1833801269531,
      "z": 984.0299072265625
    },
    {
      "x": 683.1762084960938,
      "y": 278.7640380859375,
      "z": 927.1633911132812
    },
    {
      "x": 700.4640502929688,
      "y": 278.5538330078125,
      "z": 900.8263549804688
    },
    {
      "x": 726.5628662109375,
      "y": 243.3757781982422,
      "z": 885.937255859375
    },
    {
      "x": 747.3624267578125,
      "y": 227.6869354248047,
      "z": 891.4435424804688
    },
    {
      "x": 768.2344360351562,
      "y": 219.6518096923828,
      "z": 896.8015747070312
    },
    {
      "x": 818.6478271484375,
      "y": 252.39657592773438,
      "z": 943.3500366210938
    }
  ]
}