{
  "sceneId": 10,
  "monsters": [
    {
      "groupId": 510020019,
      "mapInstId": 19059,
      "aiGroupID": 510020019,
      "aiNeuronSetting": "DefaultSetting",
      "aiSensingTemplate": "DefaultTemplate",
      "reuseNotRemoveAbilityTag": "",
      "enterCombatTemplate": ""
    },
    {
      "groupId": 510020019,
      "mapInstId": 19060,
      "aiGroupID": 510020019,
      "aiNeuronSetting": "DefaultSetting",
      "aiSensingTemplate": "DefaultTemplate",
      "reuseNotRemoveAbilityTag": "",
      "enterCombatTemplate": ""
    },
    {
      "groupId": 510020019,
      "mapInstId": 19061,
      "aiGroupID": 510020019,
      "aiNeuronSetting": "DefaultSetting",
      "aiSensingTemplate": "DefaultTemplate",
      "reuseNotRemoveAbilityTag": "",
      "enterCombatTemplate": ""
    },
    {
      "groupId": 510020019,
      "mapInstId": 19062,
      "aiGroupID": 510020019,
      "aiNeuronSetting": "DefaultSetting",
      "aiSensingTemplate": "DefaultTemplate",
      "reuseNotRemoveAbilityTag": "",
      "enterCombatTemplate": ""
    },
    {
      "groupId": 510020034,
      "mapInstId": 34001,
      "aiGroupID": 510020034,
      "aiNeuronSetting": "DefaultSetting",
      "aiSensingTemplate": "DefaultTemplate",
      "reuseNotRemoveAbilityTag": "",
      "enterCombatTemplate": ""
    },
    {
      "groupId": 510020036,
      "mapInstId": 36007,
      "aiGroupID": 510020036,
      "aiNeuronSetting": "DefaultSetting",
      "aiSensingTemplate": "DefaultTemplate",
      "disableWander": true,
      "reuseNotRemoveAbilityTag": "",
      "enterCombatTemplate": ""
    },
    {
      "groupId": 510020036,
      "mapInstId": 36009,
      "aiGroupID": 510020036,
      "aiNeuronSetting": "DefaultSetting",
      "aiSensingTemplate": "DefaultTemplate",
      "disableWander": true,
      "reuseNotRemoveAbilityTag": "",
      "enterCombatTemplate": ""
    },
    {
      "groupId": 510020036,
      "mapInstId": 36010,
      "aiGroupID": 510020036,
      "aiNeuronSetting": "DefaultSetting",
      "aiSensingTemplate": "DefaultTemplate",
      "disableWander": true,
      "reuseNotRemoveAbilityTag": "",
      "enterCombatTemplate": ""
    },
    {
      "groupId": 510020041,
      "mapInstId": 41013,
      "aiGroupID": 510020041,
      "aiNeuronSetting": "DefaultSetting",
      "aiSensingTemplate": "OnlyHitTemplate",
      "reuseNotRemoveAbilityTag": "",
      "overrideEnterCombatTemplate": true,
      "enterCombatTemplate": "OnlyHitTemplate"
    },
    {
      "groupId": 510020041,
      "mapInstId": 41014,
      "aiGroupID": 510020041,
      "aiNeuronSetting": "DefaultSetting",
      "aiSensingTemplate": "OnlyHitTemplate",
      "reuseNotRemoveAbilityTag": "",
      "overrideEnterCombatTemplate": true,
      "enterCombatTemplate": "OnlyHitTemplate"
    },
    {
      "groupId": 510020041,
      "mapInstId": 41015,
      "aiGroupID": 510020041,
      "aiNeuronSetting": "DefaultSetting",
      "aiSensingTemplate": "OnlyHitTemplate",
      "reuseNotRemoveAbilityTag": "",
      "overrideEnterCombatTemplate": true,
      "enterCombatTemplate": "OnlyHitTemplate"
    },
    {
      "groupId": 510020043,
      "mapInstId": 43004,
      "aiGroupID": 510020043,
      "aiNeuronSetting": "DefaultSetting",
      "aiSensingTemplate": "DefaultTemplate",
      "disableWander": true,
      "reuseNotRemoveAbilityTag": "",
      "enterCombatTemplate": ""
    },
    {
      "groupId": 510020043,
      "mapInstId": 43006,
      "aiGroupID": 510020043,
      "aiNeuronSetting": "DefaultSetting",
      "aiSensingTemplate": "DefaultTemplate",
      "disableWander": true,
      "reuseNotRemoveAbilityTag": "",
      "enterCombatTemplate": ""
    },
    {
      "groupId": 510020043,
      "mapInstId": 43007,
      "aiGroupID": 510020043,
      "aiNeuronSetting": "DefaultSetting",
      "aiSensingTemplate": "DefaultTemplate",
      "disableWander": true,
      "reuseNotRemoveAbilityTag": "",
      "enterCombatTemplate": ""
    },
    {
      "groupId": 510020043,
      "mapInstId": 43011,
      "aiGroupID": 510020043,
      "aiNeuronSetting": "DefaultSetting",
      "aiSensingTemplate": "DefaultTemplate",
      "disableWander": true,
      "reuseNotRemoveAbilityTag": "",
      "enterCombatTemplate": ""
    },
    {
      "groupId": 510020045,
      "mapInstId": 45001,
      "aiGroupID": 510020045,
      "aiNeuronSetting": "DefaultSetting",
      "aiSensingTemplate": "DefaultTemplate",
      "disableWander": true,
      "reuseNotRemoveAbilityTag": "",
      "enterCombatTemplate": ""
    },
    {
      "groupId": 510020047,
      "mapInstId": 47001,
      "aiGroupID": 510020091,
      "aiNeuronSetting": "DefaultSetting",
      "aiSensingTemplate": "DefaultTemplate",
      "disableWander": true,
      "reuseNotRemoveAbilityTag": "",
      "enterCombatTemplate": ""
    },
    {
      "groupId": 510020047,
      "mapInstId": 47004,
      "aiGroupID": 510020091,
      "aiNeuronSetting": "DefaultSetting",
      "aiSensingTemplate": "DefaultTemplate",
      "disableWander": true,
      "reuseNotRemoveAbilityTag": "",
      "enterCombatTemplate": ""
    },
    {
      "groupId": 510020047,
      "mapInstId": 47005,
      "aiGroupID": 510020091,
      "aiNeuronSetting": "DefaultSetting",
      "aiSensingTemplate": "DefaultTemplate",
      "disableWander": true,
      "reuseNotRemoveAbilityTag": "",
      "enterCombatTemplate": ""
    },
    {
      "groupId": 510020059,
      "mapInstId": 59002,
      "aiGroupID": 510020059,
      "aiNeuronSetting": "DefaultSetting",
      "aiSensingTemplate": "DefaultTemplate",
      "disableWander": true,
      "reuseNotRemoveAbilityTag": "",
      "enterCombatTemplate": ""
    },
    {
      "groupId": 510020063,
      "mapInstId": 63001,
      "aiGroupID": 510020063,
      "aiNeuronSetting": "DefaultSetting",
      "aiSensingTemplate": "DefaultTemplate",
      "reuseNotRemoveAbilityTag": "",
      "enterCombatTemplate": ""
    },
    {
      "groupId": 510020064,
      "mapInstId": 64006,
      "aiGroupID": 510020064,
      "aiNeuronSetting": "DefaultSetting",
      "aiSensingTemplate": "DefaultTemplate",
      "forceCombatOnSpawn": true,
      "reuseNotRemoveAbilityTag": "",
      "enterCombatTemplate": ""
    },
    {
      "groupId": 510020064,
      "mapInstId": 64009,
      "aiGroupID": 510020064,
      "aiNeuronSetting": "DefaultSetting",
      "aiSensingTemplate": "DefaultTemplate",
      "forceCombatOnSpawn": true,
      "reuseNotRemoveAbilityTag": "",
      "enterCombatTemplate": ""
    },
    {
      "groupId": 510020064,
      "mapInstId": 64010,
      "aiGroupID": 510020064,
      "aiNeuronSetting": "DefaultSetting",
      "aiSensingTemplate": "DefaultTemplate",
      "forceCombatOnSpawn": true,
      "reuseNotRemoveAbilityTag": "",
      "enterCombatTemplate": ""
    },
    {
      "groupId": 510020064,
      "mapInstId": 64011,
      "aiGroupID": 510020064,
      "aiNeuronSetting": "DefaultSetting",
      "aiSensingTemplate": "DefaultTemplate",
      "forceCombatOnSpawn": true,
      "reuseNotRemoveAbilityTag": "",
      "enterCombatTemplate": ""
    },
    {
      "groupId": 510020073,
      "mapInstId": 73001,
      "aiGroupID": 510020073,
      "aiNeuronSetting": "DefaultSetting",
      "aiSensingTemplate": "DefaultTemplate",
      "disableWander": true,
      "reuseNotRemoveAbilityTag": "",
      "enterCombatTemplate": ""
    },
    {
      "groupId": 510020073,
      "mapInstId": 73004,
      "aiGroupID": 510020073,
      "aiNeuronSetting": "DefaultSetting",
      "aiSensingTemplate": "DefaultTemplate",
      "reuseNotRemoveAbilityTag": "",
      "enterCombatTemplate": ""
    },
    {
      "groupId": 510020073,
      "mapInstId": 73005,
      "aiGroupID": 510020073,
      "aiNeuronSetting": "DefaultSetting",
      "aiSensingTemplate": "DefaultTemplate",
      "reuseNotRemoveAbilityTag": "",
      "enterCombatTemplate": ""
    },
    {
      "groupId": 510020073,
      "mapInstId": 73006,
      "aiGroupID": 510020073,
      "aiNeuronSetting": "DefaultSetting",
      "aiSensingTemplate": "DefaultTemplate",
      "reuseNotRemoveAbilityTag": "",
      "enterCombatTemplate": ""
    },
    {
      "groupId": 510020077,
      "mapInstId": 77001,
      "aiGroupID": 510020077,
      "aiNeuronSetting": "DefaultSetting",
      "aiSensingTemplate": "DefaultTemplate",
      "reuseNotRemoveAbilityTag": "",
      "enterCombatTemplate": ""
    },
    {
      "groupId": 510020077,
      "mapInstId": 77002,
      "aiGroupID": 510020077,
      "aiNeuronSetting": "DefaultSetting",
      "aiSensingTemplate": "DefaultTemplate",
      "reuseNotRemoveAbilityTag": "",
      "enterCombatTemplate": ""
    },
    {
      "groupId": 510020077,
      "mapInstId": 77003,
      "aiGroupID": 510020077,
      "aiNeuronSetting": "DefaultSetting",
      "aiSensingTemplate": "DefaultTemplate",
      "reuseNotRemoveAbilityTag": "",
      "enterCombatTemplate": ""
    },
    {
      "groupId": 510020077,
      "mapInstId": 77004,
      "aiGroupID": 510020077,
      "aiNeuronSetting": "DefaultSetting",
      "aiSensingTemplate": "DefaultTemplate",
      "reuseNotRemoveAbilityTag": "",
      "enterCombatTemplate": ""
    },
    {
      "groupId": 510020081,
      "mapInstId": 81001,
      "aiGroupID": 510020081,
      "aiNeuronSetting": "DefaultSetting",
      "aiSensingTemplate": "DefaultTemplate",
      "disableWander": true,
      "reuseNotRemoveAbilityTag": "",
      "enterCombatTemplate": ""
    },
    {
      "groupId": 510020081,
      "mapInstId": 81002,
      "aiGroupID": 510020081,
      "aiNeuronSetting": "DefaultSetting",
      "aiSensingTemplate": "DefaultTemplate",
      "reuseNotRemoveAbilityTag": "",
      "enterCombatTemplate": ""
    },
    {
      "groupId": 510020081,
      "mapInstId": 81003,
      "aiGroupID": 510020081,
      "aiNeuronSetting": "DefaultSetting",
      "aiSensingTemplate": "DefaultTemplate",
      "reuseNotRemoveAbilityTag": "",
      "enterCombatTemplate": ""
    },
    {
      "groupId": 510020081,
      "mapInstId": 81004,
      "aiGroupID": 510020081,
      "aiNeuronSetting": "DefaultSetting",
      "aiSensingTemplate": "DefaultTemplate",
      "reuseNotRemoveAbilityTag": "",
      "enterCombatTemplate": ""
    },
    {
      "groupId": 510020081,
      "mapInstId": 81005,
      "aiGroupID": 510020081,
      "aiNeuronSetting": "DefaultSetting",
      "aiSensingTemplate": "DefaultTemplate",
      "reuseNotRemoveAbilityTag": "",
      "enterCombatTemplate": ""
    },
    {
      "groupId": 510020081,
      "mapInstId": 81006,
      "aiNeuronSetting": "DefaultSetting",
      "aiSensingTemplate": "OnlyHitTemplate",
      "reuseNotRemoveAbilityTag": "",
      "overrideEnterCombatTemplate": true,
      "enterCombatTemplate": "OnlyHitTemplate"
    },
    {
      "groupId": 510020081,
      "mapInstId": 81007,
      "aiGroupID": 510020081,
      "aiNeuronSetting": "DefaultSetting",
      "aiSensingTemplate": "DefaultTemplate",
      "reuseNotRemoveAbilityTag": "",
      "enterCombatTemplate": ""
    },
    {
      "groupId": 510020089,
      "mapInstId": 89001,
      "aiGroupID": 510020052,
      "aiNeuronSetting": "DefaultSetting",
      "aiSensingTemplate": "DefaultTemplate",
      "disableWander": true,
      "reuseNotRemoveAbilityTag": "",
      "enterCombatTemplate": ""
    },
    {
      "groupId": 510020089,
      "mapInstId": 89004,
      "aiGroupID": 510020052,
      "aiNeuronSetting": "DefaultSetting",
      "aiSensingTemplate": "DefaultTemplate",
      "disableWander": true,
      "reuseNotRemoveAbilityTag": "",
      "enterCombatTemplate": ""
    },
    {
      "groupId": 510020089,
      "mapInstId": 89005,
      "aiGroupID": 510020052,
      "aiNeuronSetting": "DefaultSetting",
      "aiSensingTemplate": "DefaultTemplate",
      "disableWander": true,
      "reuseNotRemoveAbilityTag": "",
      "enterCombatTemplate": ""
    },
    {
      "groupId": 510020089,
      "mapInstId": 89011,
      "aiGroupID": 510020089,
      "aiNeuronSetting": "DefaultSetting",
      "aiSensingTemplate": "DefaultTemplate",
      "disableWander": true,
      "reuseNotRemoveAbilityTag": "",
      "enterCombatTemplate": ""
    },
    {
      "groupId": 510020090,
      "mapInstId": 90001,
      "aiGroupID": 510020076,
      "aiNeuronSetting": "DefaultSetting",
      "aiSensingTemplate": "DefaultTemplate",
      "disableWander": true,
      "reuseNotRemoveAbilityTag": "",
      "enterCombatTemplate": ""
    },
    {
      "groupId": 510020090,
      "mapInstId": 90004,
      "aiGroupID": 510020076,
      "aiNeuronSetting": "DefaultSetting",
      "aiSensingTemplate": "DefaultTemplate",
      "disableWander": true,
      "reuseNotRemoveAbilityTag": "",
      "enterCombatTemplate": ""
    },
    {
      "groupId": 510020090,
      "mapInstId": 90005,
      "aiGroupID": 510020076,
      "aiNeuronSetting": "DefaultSetting",
      "aiSensingTemplate": "DefaultTemplate",
      "disableWander": true,
      "reuseNotRemoveAbilityTag": "",
      "enterCombatTemplate": ""
    },
    {
      "groupId": 510020107,
      "mapInstId": 107001,
      "aiGroupID": 510020107,
      "aiNeuronSetting": "DefaultSetting",
      "aiSensingTemplate": "DefaultTemplate",
      "reuseNotRemoveAbilityTag": "",
      "enterCombatTemplate": ""
    },
    {
      "groupId": 510020107,
      "mapInstId": 107002,
      "aiGroupID": 510020107,
      "aiNeuronSetting": "DefaultSetting",
      "aiSensingTemplate": "DefaultTemplate",
      "reuseNotRemoveAbilityTag": "",
      "enterCombatTemplate": ""
    },
    {
      "groupId": 510020109,
      "mapInstId": 109001,
      "aiGroupID": 510020109,
      "aiNeuronSetting": "DefaultSetting",
      "aiSensingTemplate": "OnlyHitTemplate",
      "reuseNotRemoveAbilityTag": "",
      "overrideEnterCombatTemplate": true,
      "enterCombatTemplate": "OnlyHitTemplate"
    },
    {
      "groupId": 510020109,
      "mapInstId": 109004,
      "aiGroupID": 510020109,
      "aiNeuronSetting": "DefaultSetting",
      "aiSensingTemplate": "OnlyHitTemplate",
      "reuseNotRemoveAbilityTag": "",
      "overrideEnterCombatTemplate": true,
      "enterCombatTemplate": "OnlyHitTemplate"
    },
    {
      "groupId": 510020117,
      "mapInstId": 117001,
      "aiGroupID": 510020117,
      "aiNeuronSetting": "DefaultSetting",
      "aiSensingTemplate": "DefaultTemplate",
      "reuseNotRemoveAbilityTag": "",
      "enterCombatTemplate": ""
    },
    {
      "groupId": 510020117,
      "mapInstId": 117002,
      "aiGroupID": 510020117,
      "aiNeuronSetting": "DefaultSetting",
      "aiSensingTemplate": "DefaultTemplate",
      "reuseNotRemoveAbilityTag": "",
      "enterCombatTemplate": ""
    },
    {
      "groupId": 510020119,
      "mapInstId": 119001,
      "aiGroupID": 510020119,
      "aiNeuronSetting": "DefaultSetting",
      "aiSensingTemplate": "DefaultTemplate",
      "reuseNotRemoveAbilityTag": "",
      "enterCombatTemplate": ""
    },
    {
      "groupId": 510020119,
      "mapInstId": 119002,
      "aiGroupID": 510020119,
      "aiNeuronSetting": "DefaultSetting",
      "aiSensingTemplate": "DefaultTemplate",
      "reuseNotRemoveAbilityTag": "",
      "enterCombatTemplate": ""
    },
    {
      "groupId": 510020123,
      "mapInstId": 123001,
      "aiGroupID": 510020123,
      "aiNeuronSetting": "DefaultSetting",
      "aiSensingTemplate": "DefaultTemplate",
      "reuseNotRemoveAbilityTag": "",
      "enterCombatTemplate": ""
    },
    {
      "groupId": 510020123,
      "mapInstId": 123002,
      "aiGroupID": 510020123,
      "aiNeuronSetting": "DefaultSetting",
      "aiSensingTemplate": "DefaultTemplate",
      "reuseNotRemoveAbilityTag": "",
      "enterCombatTemplate": ""
    },
    {
      "groupId": 510020124,
      "mapInstId": 124001,
      "aiGroupID": 510020124,
      "aiNeuronSetting": "DefaultSetting",
      "aiSensingTemplate": "DefaultTemplate",
      "reuseNotRemoveAbilityTag": "",
      "enterCombatTemplate": ""
    },
    {
      "groupId": 510020124,
      "mapInstId": 124002,
      "aiGroupID": 510020124,
      "aiNeuronSetting": "DefaultSetting",
      "aiSensingTemplate": "DefaultTemplate",
      "reuseNotRemoveAbilityTag": "",
      "enterCombatTemplate": ""
    },
    {
      "groupId": 510020124,
      "mapInstId": 124003,
      "aiGroupID": 510020124,
      "aiNeuronSetting": "DefaultSetting",
      "aiSensingTemplate": "DefaultTemplate",
      "reuseNotRemoveAbilityTag": "",
      "enterCombatTemplate": ""
    },
    {
      "groupId": 510020129,
      "mapInstId": 129001,
      "aiGroupID": 510020129,
      "aiNeuronSetting": "DefaultSetting",
      "aiSensingTemplate": "OnlyHitTemplate",
      "reuseNotRemoveAbilityTag": "",
      "overrideEnterCombatTemplate": true,
      "enterCombatTemplate": "OnlyHitTemplate"
    },
    {
      "groupId": 510020140,
      "mapInstId": 140028,
      "aiGroupID": 510020140,
      "aiNeuronSetting": "DefaultSetting",
      "aiSensingTemplate": "DefaultTemplate",
      "disableWander": true,
      "reuseNotRemoveAbilityTag": "",
      "enterCombatTemplate": ""
    },
    {
      "groupId": 510020140,
      "mapInstId": 140029,
      "aiGroupID": 510020140,
      "aiNeuronSetting": "DefaultSetting",
      "aiSensingTemplate": "DefaultTemplate",
      "disableWander": true,
      "reuseNotRemoveAbilityTag": "",
      "enterCombatTemplate": ""
    },
    {
      "groupId": 510020140,
      "mapInstId": 140030,
      "aiGroupID": 510020140,
      "aiNeuronSetting": "DefaultSetting",
      "aiSensingTemplate": "DefaultTemplate",
      "disableWander": true,
      "reuseNotRemoveAbilityTag": "",
      "enterCombatTemplate": ""
    },
    {
      "groupId": 510020147,
      "mapInstId": 147020,
      "aiGroupID": 510020147,
      "aiNeuronSetting": "DefaultSetting",
      "aiSensingTemplate": "DefaultTemplate",
      "reuseNotRemoveAbilityTag": "",
      "enterCombatTemplate": ""
    },
    {
      "groupId": 510020147,
      "mapInstId": 147021,
      "aiGroupID": 510020147,
      "aiNeuronSetting": "DefaultSetting",
      "aiSensingTemplate": "DefaultTemplate",
      "reuseNotRemoveAbilityTag": "",
      "enterCombatTemplate": ""
    },
    {
      "groupId": 510020147,
      "mapInstId": 147022,
      "aiGroupID": 510020147,
      "aiNeuronSetting": "DefaultSetting",
      "aiSensingTemplate": "DefaultTemplate",
      "reuseNotRemoveAbilityTag": "",
      "enterCombatTemplate": ""
    },
    {
      "groupId": 510020147,
      "mapInstId": 147023,
      "aiGroupID": 510020147,
      "aiNeuronSetting": "DefaultSetting",
      "aiSensingTemplate": "DefaultTemplate",
      "reuseNotRemoveAbilityTag": "",
      "enterCombatTemplate": ""
    },
    {
      "groupId": 510020147,
      "mapInstId": 147028,
      "aiGroupID": 510020147,
      "aiNeuronSetting": "DefaultSetting",
      "aiSensingTemplate": "DefaultTemplate",
      "reuseNotRemoveAbilityTag": "",
      "enterCombatTemplate": ""
    },
    {
      "groupId": 510020147,
      "mapInstId": 147029,
      "aiGroupID": 510020147,
      "aiNeuronSetting": "DefaultSetting",
      "aiSensingTemplate": "DefaultTemplate",
      "reuseNotRemoveAbilityTag": "",
      "enterCombatTemplate": ""
    },
    {
      "groupId": 510020147,
      "mapInstId": 147030,
      "aiGroupID": 510020147,
      "aiNeuronSetting": "DefaultSetting",
      "aiSensingTemplate": "DefaultTemplate",
      "reuseNotRemoveAbilityTag": "",
      "enterCombatTemplate": ""
    },
    {
      "groupId": 510020147,
      "mapInstId": 147031,
      "aiGroupID": 510020147,
      "aiNeuronSetting": "DefaultSetting",
      "aiSensingTemplate": "DefaultTemplate",
      "reuseNotRemoveAbilityTag": "",
      "enterCombatTemplate": ""
    },
    {
      "groupId": 510020153,
      "mapInstId": 153001,
      "aiGroupID": 510020153,
      "aiNeuronSetting": "DefaultSetting",
      "aiSensingTemplate": "DefaultTemplate",
      "reuseNotRemoveAbilityTag": "",
      "enterCombatTemplate": ""
    },
    {
      "groupId": 510020153,
      "mapInstId": 153002,
      "aiGroupID": 510020153,
      "aiNeuronSetting": "DefaultSetting",
      "aiSensingTemplate": "DefaultTemplate",
      "reuseNotRemoveAbilityTag": "",
      "enterCombatTemplate": ""
    },
    {
      "groupId": 510020153,
      "mapInstId": 153003,
      "aiGroupID": 510020153,
      "aiNeuronSetting": "DefaultSetting",
      "aiSensingTemplate": "DefaultTemplate",
      "reuseNotRemoveAbilityTag": "",
      "enterCombatTemplate": ""
    },
    {
      "groupId": 510020162,
      "mapInstId": 162001,
      "aiNeuronSetting": "DefaultSetting",
      "aiSensingTemplate": "OnlyHitTemplate",
      "reuseNotRemoveAbilityTag": "",
      "overrideEnterCombatTemplate": true,
      "enterCombatTemplate": "OnlyHitTemplate"
    },
    {
      "groupId": 510020164,
      "mapInstId": 164001,
      "aiGroupID": 510020164,
      "aiNeuronSetting": "DefaultSetting",
      "aiSensingTemplate": "DefaultTemplate",
      "reuseNotRemoveAbilityTag": "",
      "enterCombatTemplate": ""
    },
    {
      "groupId": 510020164,
      "mapInstId": 164002,
      "aiGroupID": 510020164,
      "aiNeuronSetting": "DefaultSetting",
      "aiSensingTemplate": "DefaultTemplate",
      "reuseNotRemoveAbilityTag": "",
      "enterCombatTemplate": ""
    },
    {
      "groupId": 510020164,
      "mapInstId": 164003,
      "aiGroupID": 510020164,
      "aiNeuronSetting": "DefaultSetting",
      "aiSensingTemplate": "DefaultTemplate",
      "reuseNotRemoveAbilityTag": "",
      "enterCombatTemplate": ""
    },
    {
      "groupId": 510020164,
      "mapInstId": 164004,
      "aiGroupID": 510020164,
      "aiNeuronSetting": "DefaultSetting",
      "aiSensingTemplate": "DefaultTemplate",
      "reuseNotRemoveAbilityTag": "",
      "enterCombatTemplate": ""
    },
    {
      "groupId": 510020164,
      "mapInstId": 164005,
      "aiGroupID": 510020164,
      "aiNeuronSetting": "DefaultSetting",
      "aiSensingTemplate": "DefaultTemplate",
      "reuseNotRemoveAbilityTag": "",
      "enterCombatTemplate": ""
    },
    {
      "groupId": 510020166,
      "mapInstId": 166001,
      "aiGroupID": 510020166,
      "aiNeuronSetting": "DefaultSetting",
      "aiSensingTemplate": "DefaultTemplate",
      "reuseNotRemoveAbilityTag": "",
      "enterCombatTemplate": ""
    },
    {
      "groupId": 510020166,
      "mapInstId": 166002,
      "aiGroupID": 510020166,
      "aiNeuronSetting": "DefaultSetting",
      "aiSensingTemplate": "DefaultTemplate",
      "reuseNotRemoveAbilityTag": "",
      "enterCombatTemplate": ""
    },
    {
      "groupId": 510020166,
      "mapInstId": 166003,
      "aiGroupID": 510020166,
      "aiNeuronSetting": "DefaultSetting",
      "aiSensingTemplate": "DefaultTemplate",
      "reuseNotRemoveAbilityTag": "",
      "enterCombatTemplate": ""
    },
    {
      "groupId": 510020166,
      "mapInstId": 166004,
      "aiGroupID": 510020166,
      "aiNeuronSetting": "DefaultSetting",
      "aiSensingTemplate": "DefaultTemplate",
      "reuseNotRemoveAbilityTag": "",
      "enterCombatTemplate": ""
    },
    {
      "groupId": 510020173,
      "mapInstId": 173008,
      "aiGroupID": 510020173,
      "aiNeuronSetting": "DefaultSetting",
      "aiSensingTemplate": "DefaultTemplate",
      "forceCombatOnSpawn": true,
      "disableWander": true,
      "reuseNotRemoveAbilityTag": "",
      "enterCombatTemplate": ""
    },
    {
      "groupId": 510020173,
      "mapInstId": 173009,
      "aiGroupID": 510020173,
      "aiNeuronSetting": "DefaultSetting",
      "aiSensingTemplate": "DefaultTemplate",
      "forceCombatOnSpawn": true,
      "disableWander": true,
      "reuseNotRemoveAbilityTag": "",
      "enterCombatTemplate": ""
    },
    {
      "groupId": 510020176,
      "mapInstId": 176006,
      "aiGroupID": 510020176,
      "aiNeuronSetting": "DefaultSetting",
      "aiSensingTemplate": "DefaultTemplate",
      "disableWander": true,
      "reuseNotRemoveAbilityTag": "",
      "enterCombatTemplate": ""
    },
    {
      "groupId": 510020176,
      "mapInstId": 176007,
      "aiGroupID": 510020176,
      "aiNeuronSetting": "DefaultSetting",
      "aiSensingTemplate": "DefaultTemplate",
      "disableWander": true,
      "reuseNotRemoveAbilityTag": "",
      "enterCombatTemplate": ""
    },
    {
      "groupId": 510020179,
      "mapInstId": 179001,
      "aiGroupID": 510020179,
      "aiNeuronSetting": "DefaultSetting",
      "aiSensingTemplate": "DefaultTemplate",
      "reuseNotRemoveAbilityTag": "",
      "enterCombatTemplate": ""
    },
    {
      "groupId": 510020194,
      "mapInstId": 194001,
      "aiGroupID": 510020194,
      "aiNeuronSetting": "DefaultSetting",
      "aiSensingTemplate": "HighAlertTemplate",
      "disableWander": true,
      "billboardHasUIBar": true,
      "billboardUIBarNeedEnterCombat": true,
      "billboardHpBarStyle": "Elite",
      "reuseNotRemoveAbilityTag": "",
      "enterCombatTemplate": ""
    },
    {
      "groupId": 510020194,
      "mapInstId": 194002,
      "aiGroupID": 510020194,
      "aiNeuronSetting": "DefaultSetting",
      "aiSensingTemplate": "HighAlertTemplate",
      "disableWander": true,
      "reuseNotRemoveAbilityTag": "",
      "enterCombatTemplate": ""
    },
    {
      "groupId": 510020194,
      "mapInstId": 194003,
      "aiGroupID": 510020194,
      "aiNeuronSetting": "DefaultSetting",
      "aiSensingTemplate": "HighAlertTemplate",
      "disableWander": true,
      "reuseNotRemoveAbilityTag": "",
      "enterCombatTemplate": ""
    },
    {
      "groupId": 510020194,
      "mapInstId": 194008,
      "aiGroupID": 510020194,
      "aiNeuronSetting": "DefaultSetting",
      "aiSensingTemplate": "NeverCombatTemplate",
      "disableWander": true,
      "billboardHasUIBar": true,
      "billboardUIBarNeedEnterCombat": true,
      "billboardHpBarStyle": "Elite",
      "reuseNotRemoveAbilityTag": "",
      "enterCombatTemplate": ""
    },
    {
      "groupId": 510020194,
      "mapInstId": 194009,
      "aiGroupID": 510020194,
      "aiNeuronSetting": "DefaultSetting",
      "aiSensingTemplate": "NeverCombatTemplate",
      "disableWander": true,
      "reuseNotRemoveAbilityTag": "",
      "enterCombatTemplate": ""
    },
    {
      "groupId": 510020194,
      "mapInstId": 194010,
      "aiGroupID": 510020194,
      "aiNeuronSetting": "DefaultSetting",
      "aiSensingTemplate": "NeverCombatTemplate",
      "disableWander": true,
      "reuseNotRemoveAbilityTag": "",
      "enterCombatTemplate": ""
    },
    {
      "groupId": 510020206,
      "mapInstId": 206001,
      "routeId": 200022,
      "aiGroupID": 510020206,
      "aiNeuronSetting": "DefaultSetting",
      "aiSensingTemplate": "DefaultTemplate",
      "reuseNotRemoveAbilityTag": "",
      "enterCombatTemplate": ""
    },
    {
      "groupId": 510020206,
      "mapInstId": 206002,
      "routeId": 200023,
      "aiGroupID": 510020206,
      "aiNeuronSetting": "DefaultSetting",
      "aiSensingTemplate": "DefaultTemplate",
      "reuseNotRemoveAbilityTag": "",
      "enterCombatTemplate": ""
    },
    {
      "groupId": 510020206,
      "mapInstId": 206003,
      "routeId": 200024,
      "aiGroupID": 510020206,
      "aiNeuronSetting": "DefaultSetting",
      "aiSensingTemplate": "DefaultTemplate",
      "reuseNotRemoveAbilityTag": "",
      "enterCombatTemplate": ""
    },
    {
      "groupId": 510020206,
      "mapInstId": 206004,
      "aiGroupID": 510020206,
      "aiNeuronSetting": "DefaultSetting",
      "aiSensingTemplate": "DefaultTemplate",
      "reuseNotRemoveAbilityTag": "",
      "enterCombatTemplate": ""
    },
    {
      "groupId": 510020207,
      "mapInstId": 207001,
      "aiGroupID": 510020207,
      "aiNeuronSetting": "DefaultSetting",
      "aiSensingTemplate": "DefaultTemplate",
      "disableWander": true,
      "reuseNotRemoveAbilityTag": "",
      "enterCombatTemplate": ""
    },
    {
      "groupId": 510020207,
      "mapInstId": 207002,
      "aiGroupID": 510020207,
      "aiNeuronSetting": "DefaultSetting",
      "aiSensingTemplate": "DefaultTemplate",
      "disableWander": true,
      "reuseNotRemoveAbilityTag": "",
      "enterCombatTemplate": ""
    },
    {
      "groupId": 510020208,
      "mapInstId": 208001,
      "aiGroupID": 510020208,
      "aiNeuronSetting": "DefaultSetting",
      "aiSensingTemplate": "DefaultTemplate",
      "reuseNotRemoveAbilityTag": "",
      "enterCombatTemplate": ""
    },
    {
      "groupId": 510020211,
      "mapInstId": 211001,
      "aiNeuronSetting": "DefaultSetting",
      "aiSensingTemplate": "OnlyHitTemplate",
      "reuseNotRemoveAbilityTag": "",
      "overrideEnterCombatTemplate": true,
      "enterCombatTemplate": "OnlyHitTemplate"
    },
    {
      "groupId": 510020213,
      "mapInstId": 213001,
      "aiGroupID": 510020213,
      "aiNeuronSetting": "DefaultSetting",
      "aiSensingTemplate": "DefaultTemplate",
      "reuseNotRemoveAbilityTag": "",
      "enterCombatTemplate": ""
    }
  ]
}