{
  "sceneId": 50050,
  "monsters": [
    {
      "groupId": 250050001,
      "mapInstId": 1003,
      "aiNeuronSetting": "DefaultSetting",
      "aiSensingTemplate": "DefaultTemplate",
      "billboardHasUIBar": true,
      "billboardShowUIBarDis": 10.0,
      "billboardHideUIBarDis": 20.0,
      "billboardMultiBarSortId": 1,
      "billboardMultiBarNum": 3,
      "reuseNotRemoveAbilityTag": "",
      "enterCombatTemplate": ""
    },
    {
      "groupId": 250050001,
      "mapInstId": 1004,
      "aiNeuronSetting": "DefaultSetting",
      "aiSensingTemplate": "DefaultTemplate",
      "billboardHasUIBar": true,
      "billboardShowUIBarDis": 10.0,
      "billboardHideUIBarDis": 20.0,
      "billboardMultiBarSortId": 2,
      "billboardMultiBarNum": 3,
      "reuseNotRemoveAbilityTag": "",
      "enterCombatTemplate": ""
    },
    {
      "groupId": 250050001,
      "mapInstId": 1007,
      "aiNeuronSetting": "DefaultSetting",
      "aiSensingTemplate": "DefaultTemplate",
      "billboardHasUIBar": true,
      "billboardShowUIBarDis": 10.0,
      "billboardHideUIBarDis": 20.0,
      "billboardMultiBarSortId": 2,
      "billboardMultiBarNum": 3,
      "reuseNotRemoveAbilityTag": "",
      "enterCombatTemplate": ""
    },
    {
      "groupId": 250050001,
      "mapInstId": 1008,
      "aiNeuronSetting": "DefaultSetting",
      "aiSensingTemplate": "DefaultTemplate",
      "billboardHasUIBar": true,
      "billboardShowUIBarDis": 10.0,
      "billboardHideUIBarDis": 20.0,
      "billboardMultiBarSortId": 4,
      "billboardMultiBarNum": 3,
      "reuseNotRemoveAbilityTag": "",
      "enterCombatTemplate": ""
    },
    {
      "groupId": 250050001,
      "mapInstId": 1017,
      "aiNeuronSetting": "DefaultSetting",
      "aiSensingTemplate": "DefaultTemplate",
      "billboardHasUIBar": true,
      "reuseNotRemoveAbilityTag": "",
      "enterCombatTemplate": ""
    }
  ]
}