{
  "sceneId": 35954,
  "monsters": [
    {
      "groupId": 235954001,
      "mapInstId": 1056,
      "aiGroupID": 235954001,
      "aiNeuronSetting": "DefaultSetting",
      "aiSensingTemplate": "DefaultTemplate",
      "hideBornEffect": true,
      "HLGGEMHLGMK": true,
      "reuseNotRemoveAbilityTag": "",
      "enterCombatTemplate": ""
    },
    {
      "groupId": 235954001,
      "mapInstId": 1057,
      "aiGroupID": 235954001,
      "aiNeuronSetting": "DefaultSetting",
      "aiSensingTemplate": "DefaultTemplate",
      "hideBornEffect": true,
      "HLGGEMHLGMK": true,
      "reuseNotRemoveAbilityTag": "",
      "enterCombatTemplate": ""
    },
    {
      "groupId": 235954001,
      "mapInstId": 1058,
      "aiGroupID": 235954001,
      "aiNeuronSetting": "DefaultSetting",
      "aiSensingTemplate": "DefaultTemplate",
      "hideBornEffect": true,
      "HLGGEMHLGMK": true,
      "reuseNotRemoveAbilityTag": "",
      "enterCombatTemplate": ""
    },
    {
      "groupId": 235954001,
      "mapInstId": 1059,
      "aiGroupID": 235954001,
      "aiNeuronSetting": "DefaultSetting",
      "aiSensingTemplate": "DefaultTemplate",
      "hideBornEffect": true,
      "HLGGEMHLGMK": true,
      "reuseNotRemoveAbilityTag": "",
      "enterCombatTemplate": ""
    },
    {
      "groupId": 235954001,
      "mapInstId": 1060,
      "aiGroupID": 235954001,
      "aiNeuronSetting": "DefaultSetting",
      "aiSensingTemplate": "DefaultTemplate",
      "hideBornEffect": true,
      "HLGGEMHLGMK": true,
      "reuseNotRemoveAbilityTag": "",
      "enterCombatTemplate": ""
    },
    {
      "groupId": 235954001,
      "mapInstId": 1061,
      "aiGroupID": 235954001,
      "aiNeuronSetting": "DefaultSetting",
      "aiSensingTemplate": "DefaultTemplate",
      "hideBornEffect": true,
      "HLGGEMHLGMK": true,
      "reuseNotRemoveAbilityTag": "",
      "enterCombatTemplate": ""
    },
    {
      "groupId": 235954001,
      "mapInstId": 1062,
      "aiGroupID": 235954001,
      "aiNeuronSetting": "DefaultSetting",
      "aiSensingTemplate": "DefaultTemplate",
      "HLGGEMHLGMK": true,
      "reuseNotRemoveAbilityTag": "",
      "enterCombatTemplate": ""
    },
    {
      "groupId": 235954001,
      "mapInstId": 1063,
      "aiGroupID": 235954001,
      "aiNeuronSetting": "DefaultSetting",
      "aiSensingTemplate": "DefaultTemplate",
      "HLGGEMHLGMK": true,
      "reuseNotRemoveAbilityTag": "",
      "enterCombatTemplate": ""
    },
    {
      "groupId": 235954001,
      "mapInstId": 1064,
      "aiGroupID": 235954001,
      "aiNeuronSetting": "DefaultSetting",
      "aiSensingTemplate": "DefaultTemplate",
      "HLGGEMHLGMK": true,
      "reuseNotRemoveAbilityTag": "",
      "enterCombatTemplate": ""
    },
    {
      "groupId": 235954001,
      "mapInstId": 1065,
      "aiGroupID": 235954001,
      "aiNeuronSetting": "DefaultSetting",
      "aiSensingTemplate": "DefaultTemplate",
      "HLGGEMHLGMK": true,
      "reuseNotRemoveAbilityTag": "",
      "enterCombatTemplate": ""
    },
    {
      "groupId": 235954001,
      "mapInstId": 1066,
      "aiGroupID": 235954001,
      "aiNeuronSetting": "DefaultSetting",
      "aiSensingTemplate": "DefaultTemplate",
      "HLGGEMHLGMK": true,
      "reuseNotRemoveAbilityTag": "",
      "enterCombatTemplate": ""
    },
    {
      "groupId": 235954001,
      "mapInstId": 1067,
      "aiGroupID": 235954001,
      "aiNeuronSetting": "DefaultSetting",
      "aiSensingTemplate": "DefaultTemplate",
      "HLGGEMHLGMK": true,
      "reuseNotRemoveAbilityTag": "",
      "enterCombatTemplate": ""
    },
    {
      "groupId": 235954001,
      "mapInstId": 1079,
      "aiGroupID": 235954001,
      "aiNeuronSetting": "DefaultSetting",
      "aiSensingTemplate": "DefaultTemplate",
      "HLGGEMHLGMK": true,
      "reuseNotRemoveAbilityTag": "",
      "enterCombatTemplate": ""
    },
    {
      "groupId": 235954001,
      "mapInstId": 1080,
      "aiGroupID": 235954001,
      "aiNeuronSetting": "DefaultSetting",
      "aiSensingTemplate": "DefaultTemplate",
      "hideBornEffect": true,
      "HLGGEMHLGMK": true,
      "reuseNotRemoveAbilityTag": "",
      "enterCombatTemplate": ""
    },
    {
      "groupId": 235954001,
      "mapInstId": 1081,
      "aiGroupID": 235954001,
      "aiNeuronSetting": "DefaultSetting",
      "aiSensingTemplate": "DefaultTemplate",
      "hideBornEffect": true,
      "HLGGEMHLGMK": true,
      "reuseNotRemoveAbilityTag": "",
      "enterCombatTemplate": ""
    },
    {
      "groupId": 235954001,
      "mapInstId": 1082,
      "aiGroupID": 235954001,
      "aiNeuronSetting": "DefaultSetting",
      "aiSensingTemplate": "DefaultTemplate",
      "hideBornEffect": true,
      "HLGGEMHLGMK": true,
      "reuseNotRemoveAbilityTag": "",
      "enterCombatTemplate": ""
    },
    {
      "groupId": 235954001,
      "mapInstId": 1083,
      "aiGroupID": 235954001,
      "aiNeuronSetting": "DefaultSetting",
      "aiSensingTemplate": "DefaultTemplate",
      "HLGGEMHLGMK": true,
      "reuseNotRemoveAbilityTag": "",
      "enterCombatTemplate": ""
    },
    {
      "groupId": 235954001,
      "mapInstId": 1084,
      "aiGroupID": 235954001,
      "aiNeuronSetting": "DefaultSetting",
      "aiSensingTemplate": "DefaultTemplate",
      "HLGGEMHLGMK": true,
      "reuseNotRemoveAbilityTag": "",
      "enterCombatTemplate": ""
    },
    {
      "groupId": 235954001,
      "mapInstId": 1085,
      "aiGroupID": 235954001,
      "aiNeuronSetting": "DefaultSetting",
      "aiSensingTemplate": "DefaultTemplate",
      "hideBornEffect": true,
      "HLGGEMHLGMK": true,
      "reuseNotRemoveAbilityTag": "",
      "enterCombatTemplate": ""
    },
    {
      "groupId": 235954001,
      "mapInstId": 1086,
      "aiGroupID": 235954001,
      "aiNeuronSetting": "DefaultSetting",
      "aiSensingTemplate": "DefaultTemplate",
      "hideBornEffect": true,
      "HLGGEMHLGMK": true,
      "reuseNotRemoveAbilityTag": "",
      "enterCombatTemplate": ""
    },
    {
      "groupId": 235954001,
      "mapInstId": 1087,
      "aiGroupID": 235954001,
      "aiNeuronSetting": "DefaultSetting",
      "aiSensingTemplate": "DefaultTemplate",
      "HLGGEMHLGMK": true,
      "reuseNotRemoveAbilityTag": "",
      "enterCombatTemplate": ""
    },
    {
      "groupId": 235954001,
      "mapInstId": 1088,
      "aiGroupID": 235954001,
      "aiNeuronSetting": "DefaultSetting",
      "aiSensingTemplate": "DefaultTemplate",
      "hideBornEffect": true,
      "HLGGEMHLGMK": true,
      "reuseNotRemoveAbilityTag": "",
      "enterCombatTemplate": ""
    },
    {
      "groupId": 235954001,
      "mapInstId": 1089,
      "aiGroupID": 235954001,
      "aiNeuronSetting": "DefaultSetting",
      "aiSensingTemplate": "DefaultTemplate",
      "hideBornEffect": true,
      "HLGGEMHLGMK": true,
      "reuseNotRemoveAbilityTag": "",
      "enterCombatTemplate": ""
    },
    {
      "groupId": 235954001,
      "mapInstId": 1090,
      "aiGroupID": 235954001,
      "aiNeuronSetting": "DefaultSetting",
      "aiSensingTemplate": "DefaultTemplate",
      "HLGGEMHLGMK": true,
      "reuseNotRemoveAbilityTag": "",
      "enterCombatTemplate": ""
    },
    {
      "groupId": 235954001,
      "mapInstId": 1102,
      "aiGroupID": 235954001,
      "aiNeuronSetting": "DefaultSetting",
      "aiSensingTemplate": "DefaultTemplate",
      "hideBornEffect": true,
      "HLGGEMHLGMK": true,
      "reuseNotRemoveAbilityTag": "",
      "enterCombatTemplate": ""
    },
    {
      "groupId": 235954001,
      "mapInstId": 1103,
      "aiGroupID": 235954001,
      "aiNeuronSetting": "DefaultSetting",
      "aiSensingTemplate": "DefaultTemplate",
      "hideBornEffect": true,
      "HLGGEMHLGMK": true,
      "reuseNotRemoveAbilityTag": "",
      "enterCombatTemplate": ""
    },
    {
      "groupId": 235954001,
      "mapInstId": 1104,
      "aiGroupID": 235954001,
      "aiNeuronSetting": "DefaultSetting",
      "aiSensingTemplate": "DefaultTemplate",
      "hideBornEffect": true,
      "HLGGEMHLGMK": true,
      "reuseNotRemoveAbilityTag": "",
      "enterCombatTemplate": ""
    },
    {
      "groupId": 235954001,
      "mapInstId": 1105,
      "aiGroupID": 235954001,
      "aiNeuronSetting": "DefaultSetting",
      "aiSensingTemplate": "DefaultTemplate",
      "hideBornEffect": true,
      "HLGGEMHLGMK": true,
      "reuseNotRemoveAbilityTag": "",
      "enterCombatTemplate": ""
    },
    {
      "groupId": 235954001,
      "mapInstId": 1106,
      "aiGroupID": 235954001,
      "aiNeuronSetting": "DefaultSetting",
      "aiSensingTemplate": "DefaultTemplate",
      "hideBornEffect": true,
      "HLGGEMHLGMK": true,
      "reuseNotRemoveAbilityTag": "",
      "enterCombatTemplate": ""
    },
    {
      "groupId": 235954001,
      "mapInstId": 1107,
      "aiGroupID": 235954001,
      "aiNeuronSetting": "DefaultSetting",
      "aiSensingTemplate": "DefaultTemplate",
      "hideBornEffect": true,
      "HLGGEMHLGMK": true,
      "reuseNotRemoveAbilityTag": "",
      "enterCombatTemplate": ""
    },
    {
      "groupId": 235954001,
      "mapInstId": 1114,
      "aiGroupID": 235954001,
      "aiNeuronSetting": "DefaultSetting",
      "aiSensingTemplate": "DefaultTemplate",
      "hideBornEffect": true,
      "HLGGEMHLGMK": true,
      "reuseNotRemoveAbilityTag": "",
      "enterCombatTemplate": ""
    },
    {
      "groupId": 235954001,
      "mapInstId": 1115,
      "aiGroupID": 235954001,
      "aiNeuronSetting": "DefaultSetting",
      "aiSensingTemplate": "DefaultTemplate",
      "hideBornEffect": true,
      "HLGGEMHLGMK": true,
      "reuseNotRemoveAbilityTag": "",
      "enterCombatTemplate": ""
    },
    {
      "groupId": 235954001,
      "mapInstId": 1116,
      "aiGroupID": 235954001,
      "aiNeuronSetting": "DefaultSetting",
      "aiSensingTemplate": "DefaultTemplate",
      "HLGGEMHLGMK": true,
      "reuseNotRemoveAbilityTag": "",
      "enterCombatTemplate": ""
    },
    {
      "groupId": 235954001,
      "mapInstId": 1117,
      "aiGroupID": 235954001,
      "aiNeuronSetting": "DefaultSetting",
      "aiSensingTemplate": "DefaultTemplate",
      "hideBornEffect": true,
      "HLGGEMHLGMK": true,
      "reuseNotRemoveAbilityTag": "",
      "enterCombatTemplate": ""
    },
    {
      "groupId": 235954001,
      "mapInstId": 1118,
      "aiGroupID": 235954001,
      "aiNeuronSetting": "DefaultSetting",
      "aiSensingTemplate": "DefaultTemplate",
      "hideBornEffect": true,
      "HLGGEMHLGMK": true,
      "reuseNotRemoveAbilityTag": "",
      "enterCombatTemplate": ""
    },
    {
      "groupId": 235954001,
      "mapInstId": 1119,
      "aiGroupID": 235954001,
      "aiNeuronSetting": "DefaultSetting",
      "aiSensingTemplate": "DefaultTemplate",
      "HLGGEMHLGMK": true,
      "reuseNotRemoveAbilityTag": "",
      "enterCombatTemplate": ""
    },
    {
      "groupId": 235954001,
      "mapInstId": 1120,
      "aiGroupID": 235954001,
      "aiNeuronSetting": "DefaultSetting",
      "aiSensingTemplate": "DefaultTemplate",
      "hideBornEffect": true,
      "HLGGEMHLGMK": true,
      "reuseNotRemoveAbilityTag": "",
      "enterCombatTemplate": ""
    },
    {
      "groupId": 235954001,
      "mapInstId": 1121,
      "aiGroupID": 235954001,
      "aiNeuronSetting": "DefaultSetting",
      "aiSensingTemplate": "DefaultTemplate",
      "hideBornEffect": true,
      "HLGGEMHLGMK": true,
      "reuseNotRemoveAbilityTag": "",
      "enterCombatTemplate": ""
    },
    {
      "groupId": 235954001,
      "mapInstId": 1122,
      "aiGroupID": 235954001,
      "aiNeuronSetting": "DefaultSetting",
      "aiSensingTemplate": "DefaultTemplate",
      "HLGGEMHLGMK": true,
      "reuseNotRemoveAbilityTag": "",
      "enterCombatTemplate": ""
    },
    {
      "groupId": 235954001,
      "mapInstId": 1123,
      "aiGroupID": 235954001,
      "aiNeuronSetting": "DefaultSetting",
      "aiSensingTemplate": "DefaultTemplate",
      "hideBornEffect": true,
      "HLGGEMHLGMK": true,
      "reuseNotRemoveAbilityTag": "",
      "enterCombatTemplate": ""
    },
    {
      "groupId": 235954001,
      "mapInstId": 1124,
      "aiGroupID": 235954001,
      "aiNeuronSetting": "DefaultSetting",
      "aiSensingTemplate": "DefaultTemplate",
      "hideBornEffect": true,
      "HLGGEMHLGMK": true,
      "reuseNotRemoveAbilityTag": "",
      "enterCombatTemplate": ""
    },
    {
      "groupId": 235954001,
      "mapInstId": 1125,
      "aiGroupID": 235954001,
      "aiNeuronSetting": "DefaultSetting",
      "aiSensingTemplate": "DefaultTemplate",
      "HLGGEMHLGMK": true,
      "reuseNotRemoveAbilityTag": "",
      "enterCombatTemplate": ""
    },
    {
      "groupId": 235954001,
      "mapInstId": 1126,
      "aiGroupID": 235954001,
      "aiNeuronSetting": "DefaultSetting",
      "aiSensingTemplate": "DefaultTemplate",
      "hideBornEffect": true,
      "HLGGEMHLGMK": true,
      "reuseNotRemoveAbilityTag": "",
      "enterCombatTemplate": ""
    },
    {
      "groupId": 235954001,
      "mapInstId": 1127,
      "aiGroupID": 235954001,
      "aiNeuronSetting": "DefaultSetting",
      "aiSensingTemplate": "DefaultTemplate",
      "hideBornEffect": true,
      "HLGGEMHLGMK": true,
      "reuseNotRemoveAbilityTag": "",
      "enterCombatTemplate": ""
    },
    {
      "groupId": 235954001,
      "mapInstId": 1128,
      "aiGroupID": 235954001,
      "aiNeuronSetting": "DefaultSetting",
      "aiSensingTemplate": "DefaultTemplate",
      "HLGGEMHLGMK": true,
      "reuseNotRemoveAbilityTag": "",
      "enterCombatTemplate": ""
    },
    {
      "groupId": 235954001,
      "mapInstId": 1129,
      "aiGroupID": 235954001,
      "aiNeuronSetting": "DefaultSetting",
      "aiSensingTemplate": "DefaultTemplate",
      "hideBornEffect": true,
      "HLGGEMHLGMK": true,
      "reuseNotRemoveAbilityTag": "",
      "enterCombatTemplate": ""
    },
    {
      "groupId": 235954001,
      "mapInstId": 1130,
      "aiGroupID": 235954001,
      "aiNeuronSetting": "DefaultSetting",
      "aiSensingTemplate": "DefaultTemplate",
      "hideBornEffect": true,
      "HLGGEMHLGMK": true,
      "reuseNotRemoveAbilityTag": "",
      "enterCombatTemplate": ""
    },
    {
      "groupId": 235954001,
      "mapInstId": 1133,
      "aiGroupID": 235954001,
      "aiNeuronSetting": "DefaultSetting",
      "aiSensingTemplate": "DefaultTemplate",
      "HLGGEMHLGMK": true,
      "reuseNotRemoveAbilityTag": "",
      "enterCombatTemplate": ""
    },
    {
      "groupId": 235954001,
      "mapInstId": 1134,
      "aiGroupID": 235954001,
      "aiNeuronSetting": "DefaultSetting",
      "aiSensingTemplate": "DefaultTemplate",
      "HLGGEMHLGMK": true,
      "reuseNotRemoveAbilityTag": "",
      "enterCombatTemplate": ""
    },
    {
      "groupId": 235954001,
      "mapInstId": 1135,
      "aiGroupID": 235954001,
      "aiNeuronSetting": "DefaultSetting",
      "aiSensingTemplate": "DefaultTemplate",
      "HLGGEMHLGMK": true,
      "reuseNotRemoveAbilityTag": "",
      "enterCombatTemplate": ""
    },
    {
      "groupId": 235954001,
      "mapInstId": 1152,
      "aiGroupID": 235954001,
      "aiNeuronSetting": "DefaultSetting",
      "aiSensingTemplate": "DefaultTemplate",
      "hideBornEffect": true,
      "HLGGEMHLGMK": true,
      "reuseNotRemoveAbilityTag": "",
      "enterCombatTemplate": ""
    },
    {
      "groupId": 235954001,
      "mapInstId": 1153,
      "aiGroupID": 235954001,
      "aiNeuronSetting": "DefaultSetting",
      "aiSensingTemplate": "DefaultTemplate",
      "hideBornEffect": true,
      "HLGGEMHLGMK": true,
      "reuseNotRemoveAbilityTag": "",
      "enterCombatTemplate": ""
    },
    {
      "groupId": 235954001,
      "mapInstId": 1154,
      "aiGroupID": 235954001,
      "aiNeuronSetting": "DefaultSetting",
      "aiSensingTemplate": "DefaultTemplate",
      "HLGGEMHLGMK": true,
      "reuseNotRemoveAbilityTag": "",
      "enterCombatTemplate": ""
    },
    {
      "groupId": 235954001,
      "mapInstId": 1155,
      "aiGroupID": 235954001,
      "aiNeuronSetting": "DefaultSetting",
      "aiSensingTemplate": "DefaultTemplate",
      "hideBornEffect": true,
      "HLGGEMHLGMK": true,
      "reuseNotRemoveAbilityTag": "",
      "enterCombatTemplate": ""
    },
    {
      "groupId": 235954001,
      "mapInstId": 1156,
      "aiGroupID": 235954001,
      "aiNeuronSetting": "DefaultSetting",
      "aiSensingTemplate": "DefaultTemplate",
      "hideBornEffect": true,
      "HLGGEMHLGMK": true,
      "reuseNotRemoveAbilityTag": "",
      "enterCombatTemplate": ""
    },
    {
      "groupId": 235954001,
      "mapInstId": 1157,
      "aiGroupID": 235954001,
      "aiNeuronSetting": "DefaultSetting",
      "aiSensingTemplate": "DefaultTemplate",
      "HLGGEMHLGMK": true,
      "reuseNotRemoveAbilityTag": "",
      "enterCombatTemplate": ""
    },
    {
      "groupId": 235954001,
      "mapInstId": 1158,
      "aiGroupID": 235954001,
      "aiNeuronSetting": "DefaultSetting",
      "aiSensingTemplate": "DefaultTemplate",
      "hideBornEffect": true,
      "HLGGEMHLGMK": true,
      "reuseNotRemoveAbilityTag": "",
      "enterCombatTemplate": ""
    },
    {
      "groupId": 235954001,
      "mapInstId": 1159,
      "aiGroupID": 235954001,
      "aiNeuronSetting": "DefaultSetting",
      "aiSensingTemplate": "DefaultTemplate",
      "hideBornEffect": true,
      "HLGGEMHLGMK": true,
      "reuseNotRemoveAbilityTag": "",
      "enterCombatTemplate": ""
    },
    {
      "groupId": 235954001,
      "mapInstId": 1160,
      "aiGroupID": 235954001,
      "aiNeuronSetting": "DefaultSetting",
      "aiSensingTemplate": "DefaultTemplate",
      "HLGGEMHLGMK": true,
      "reuseNotRemoveAbilityTag": "",
      "enterCombatTemplate": ""
    },
    {
      "groupId": 235954001,
      "mapInstId": 1161,
      "aiGroupID": 235954001,
      "aiNeuronSetting": "DefaultSetting",
      "aiSensingTemplate": "DefaultTemplate",
      "hideBornEffect": true,
      "HLGGEMHLGMK": true,
      "reuseNotRemoveAbilityTag": "",
      "enterCombatTemplate": ""
    },
    {
      "groupId": 235954001,
      "mapInstId": 1162,
      "aiGroupID": 235954001,
      "aiNeuronSetting": "DefaultSetting",
      "aiSensingTemplate": "DefaultTemplate",
      "hideBornEffect": true,
      "HLGGEMHLGMK": true,
      "reuseNotRemoveAbilityTag": "",
      "enterCombatTemplate": ""
    },
    {
      "groupId": 235954001,
      "mapInstId": 1163,
      "aiGroupID": 235954001,
      "aiNeuronSetting": "DefaultSetting",
      "aiSensingTemplate": "DefaultTemplate",
      "HLGGEMHLGMK": true,
      "reuseNotRemoveAbilityTag": "",
      "enterCombatTemplate": ""
    },
    {
      "groupId": 235954001,
      "mapInstId": 1164,
      "aiGroupID": 235954001,
      "aiNeuronSetting": "DefaultSetting",
      "aiSensingTemplate": "DefaultTemplate",
      "hideBornEffect": true,
      "HLGGEMHLGMK": true,
      "reuseNotRemoveAbilityTag": "",
      "enterCombatTemplate": ""
    },
    {
      "groupId": 235954001,
      "mapInstId": 1165,
      "aiGroupID": 235954001,
      "aiNeuronSetting": "DefaultSetting",
      "aiSensingTemplate": "DefaultTemplate",
      "hideBornEffect": true,
      "HLGGEMHLGMK": true,
      "reuseNotRemoveAbilityTag": "",
      "enterCombatTemplate": ""
    },
    {
      "groupId": 235954001,
      "mapInstId": 1166,
      "aiGroupID": 235954001,
      "aiNeuronSetting": "DefaultSetting",
      "aiSensingTemplate": "DefaultTemplate",
      "HLGGEMHLGMK": true,
      "reuseNotRemoveAbilityTag": "",
      "enterCombatTemplate": ""
    },
    {
      "groupId": 235954001,
      "mapInstId": 1167,
      "aiGroupID": 235954001,
      "aiNeuronSetting": "DefaultSetting",
      "aiSensingTemplate": "DefaultTemplate",
      "hideBornEffect": true,
      "HLGGEMHLGMK": true,
      "reuseNotRemoveAbilityTag": "",
      "enterCombatTemplate": ""
    },
    {
      "groupId": 235954001,
      "mapInstId": 1168,
      "aiGroupID": 235954001,
      "aiNeuronSetting": "DefaultSetting",
      "aiSensingTemplate": "DefaultTemplate",
      "hideBornEffect": true,
      "HLGGEMHLGMK": true,
      "reuseNotRemoveAbilityTag": "",
      "enterCombatTemplate": ""
    },
    {
      "groupId": 235954001,
      "mapInstId": 1169,
      "aiGroupID": 235954001,
      "aiNeuronSetting": "DefaultSetting",
      "aiSensingTemplate": "DefaultTemplate",
      "HLGGEMHLGMK": true,
      "reuseNotRemoveAbilityTag": "",
      "enterCombatTemplate": ""
    },
    {
      "groupId": 235954001,
      "mapInstId": 1170,
      "aiGroupID": 235954001,
      "aiNeuronSetting": "DefaultSetting",
      "aiSensingTemplate": "DefaultTemplate",
      "HLGGEMHLGMK": true,
      "reuseNotRemoveAbilityTag": "",
      "enterCombatTemplate": ""
    },
    {
      "groupId": 235954001,
      "mapInstId": 1171,
      "aiGroupID": 235954001,
      "aiNeuronSetting": "DefaultSetting",
      "aiSensingTemplate": "DefaultTemplate",
      "HLGGEMHLGMK": true,
      "reuseNotRemoveAbilityTag": "",
      "enterCombatTemplate": ""
    },
    {
      "groupId": 235954001,
      "mapInstId": 1172,
      "aiGroupID": 235954001,
      "aiNeuronSetting": "DefaultSetting",
      "aiSensingTemplate": "DefaultTemplate",
      "hideBornEffect": true,
      "HLGGEMHLGMK": true,
      "reuseNotRemoveAbilityTag": "",
      "enterCombatTemplate": ""
    },
    {
      "groupId": 235954001,
      "mapInstId": 1173,
      "aiGroupID": 235954001,
      "aiNeuronSetting": "DefaultSetting",
      "aiSensingTemplate": "DefaultTemplate",
      "HLGGEMHLGMK": true,
      "reuseNotRemoveAbilityTag": "",
      "enterCombatTemplate": ""
    },
    {
      "groupId": 235954001,
      "mapInstId": 1174,
      "aiGroupID": 235954001,
      "aiNeuronSetting": "DefaultSetting",
      "aiSensingTemplate": "DefaultTemplate",
      "HLGGEMHLGMK": true,
      "reuseNotRemoveAbilityTag": "",
      "enterCombatTemplate": ""
    },
    {
      "groupId": 235954001,
      "mapInstId": 1175,
      "aiGroupID": 235954001,
      "aiNeuronSetting": "DefaultSetting",
      "aiSensingTemplate": "DefaultTemplate",
      "hideBornEffect": true,
      "HLGGEMHLGMK": true,
      "reuseNotRemoveAbilityTag": "",
      "enterCombatTemplate": ""
    },
    {
      "groupId": 235954001,
      "mapInstId": 1189,
      "aiGroupID": 235954001,
      "aiNeuronSetting": "DefaultSetting",
      "aiSensingTemplate": "DefaultTemplate",
      "HLGGEMHLGMK": true,
      "reuseNotRemoveAbilityTag": "",
      "enterCombatTemplate": ""
    },
    {
      "groupId": 235954001,
      "mapInstId": 1190,
      "aiGroupID": 235954001,
      "aiNeuronSetting": "DefaultSetting",
      "aiSensingTemplate": "DefaultTemplate",
      "HLGGEMHLGMK": true,
      "reuseNotRemoveAbilityTag": "",
      "enterCombatTemplate": ""
    },
    {
      "groupId": 235954001,
      "mapInstId": 1191,
      "aiGroupID": 235954001,
      "aiNeuronSetting": "DefaultSetting",
      "aiSensingTemplate": "DefaultTemplate",
      "hideBornEffect": true,
      "HLGGEMHLGMK": true,
      "reuseNotRemoveAbilityTag": "",
      "enterCombatTemplate": ""
    },
    {
      "groupId": 235954001,
      "mapInstId": 1192,
      "aiGroupID": 235954001,
      "aiNeuronSetting": "DefaultSetting",
      "aiSensingTemplate": "DefaultTemplate",
      "HLGGEMHLGMK": true,
      "reuseNotRemoveAbilityTag": "",
      "enterCombatTemplate": ""
    },
    {
      "groupId": 235954001,
      "mapInstId": 1193,
      "aiGroupID": 235954001,
      "aiNeuronSetting": "DefaultSetting",
      "aiSensingTemplate": "DefaultTemplate",
      "HLGGEMHLGMK": true,
      "reuseNotRemoveAbilityTag": "",
      "enterCombatTemplate": ""
    },
    {
      "groupId": 235954001,
      "mapInstId": 1194,
      "aiGroupID": 235954001,
      "aiNeuronSetting": "DefaultSetting",
      "aiSensingTemplate": "DefaultTemplate",
      "hideBornEffect": true,
      "HLGGEMHLGMK": true,
      "reuseNotRemoveAbilityTag": "",
      "enterCombatTemplate": ""
    }
  ]
}