{
  "sceneId": 35843,
  "monsters": [
    {
      "groupId": 235843001,
      "mapInstId": 1002,
      "aiGroupID": 235843001,
      "overrideDefendAreaRange": true,
      "defendAreaRange": 99.0,
      "overrideClearThreatTargetDistance": true,
      "clearThreatTargetDistance": 99.0,
      "aiNeuronSetting": "DefaultSetting",
      "aiSensingTemplate": "DefaultTemplate",
      "forceCombatOnSpawn": true,
      "disableWander": true,
      "reuseNotRemoveAbilityTag": "",
      "enterCombatTemplate": ""
    },
    {
      "groupId": 235843001,
      "mapInstId": 1003,
      "aiGroupID": 235843001,
      "overrideDefendAreaRange": true,
      "defendAreaRange": 99.0,
      "overrideClearThreatTargetDistance": true,
      "clearThreatTargetDistance": 99.0,
      "aiNeuronSetting": "DefaultSetting",
      "aiSensingTemplate": "DefaultTemplate",
      "forceCombatOnSpawn": true,
      "disableWander": true,
      "reuseNotRemoveAbilityTag": "",
      "enterCombatTemplate": ""
    },
    {
      "groupId": 235843001,
      "mapInstId": 1004,
      "aiGroupID": 235843001,
      "overrideDefendAreaRange": true,
      "defendAreaRange": 99.0,
      "overrideClearThreatTargetDistance": true,
      "clearThreatTargetDistance": 99.0,
      "aiNeuronSetting": "DefaultSetting",
      "aiSensingTemplate": "DefaultTemplate",
      "forceCombatOnSpawn": true,
      "disableWander": true,
      "reuseNotRemoveAbilityTag": "",
      "enterCombatTemplate": ""
    },
    {
      "groupId": 235843001,
      "mapInstId": 1005,
      "aiGroupID": 235843001,
      "overrideDefendAreaRange": true,
      "defendAreaRange": 99.0,
      "overrideClearThreatTargetDistance": true,
      "clearThreatTargetDistance": 99.0,
      "aiNeuronSetting": "DefaultSetting",
      "aiSensingTemplate": "DefaultTemplate",
      "forceCombatOnSpawn": true,
      "disableWander": true,
      "reuseNotRemoveAbilityTag": "",
      "enterCombatTemplate": ""
    },
    {
      "groupId": 235843001,
      "mapInstId": 1006,
      "aiGroupID": 235843001,
      "overrideDefendAreaRange": true,
      "defendAreaRange": 99.0,
      "overrideClearThreatTargetDistance": true,
      "clearThreatTargetDistance": 99.0,
      "aiNeuronSetting": "DefaultSetting",
      "aiSensingTemplate": "DefaultTemplate",
      "forceCombatOnSpawn": true,
      "disableWander": true,
      "reuseNotRemoveAbilityTag": "",
      "enterCombatTemplate": ""
    },
    {
      "groupId": 235843001,
      "mapInstId": 1007,
      "aiGroupID": 235843001,
      "overrideDefendAreaRange": true,
      "defendAreaRange": 99.0,
      "overrideClearThreatTargetDistance": true,
      "clearThreatTargetDistance": 99.0,
      "aiNeuronSetting": "DefaultSetting",
      "aiSensingTemplate": "DefaultTemplate",
      "forceCombatOnSpawn": true,
      "disableWander": true,
      "reuseNotRemoveAbilityTag": "",
      "enterCombatTemplate": ""
    },
    {
      "groupId": 235843001,
      "mapInstId": 1008,
      "aiGroupID": 235843001,
      "overrideDefendAreaRange": true,
      "defendAreaRange": 99.0,
      "overrideClearThreatTargetDistance": true,
      "clearThreatTargetDistance": 99.0,
      "aiNeuronSetting": "DefaultSetting",
      "aiSensingTemplate": "DefaultTemplate",
      "forceCombatOnSpawn": true,
      "disableWander": true,
      "reuseNotRemoveAbilityTag": "",
      "enterCombatTemplate": ""
    },
    {
      "groupId": 235843001,
      "mapInstId": 1009,
      "aiGroupID": 235843001,
      "overrideDefendAreaRange": true,
      "defendAreaRange": 99.0,
      "overrideClearThreatTargetDistance": true,
      "clearThreatTargetDistance": 99.0,
      "aiNeuronSetting": "DefaultSetting",
      "aiSensingTemplate": "DefaultTemplate",
      "forceCombatOnSpawn": true,
      "disableWander": true,
      "reuseNotRemoveAbilityTag": "",
      "enterCombatTemplate": ""
    },
    {
      "groupId": 235843001,
      "mapInstId": 1010,
      "aiGroupID": 235843001,
      "overrideDefendAreaRange": true,
      "defendAreaRange": 99.0,
      "overrideClearThreatTargetDistance": true,
      "clearThreatTargetDistance": 99.0,
      "aiNeuronSetting": "DefaultSetting",
      "aiSensingTemplate": "DefaultTemplate",
      "forceCombatOnSpawn": true,
      "disableWander": true,
      "reuseNotRemoveAbilityTag": "",
      "enterCombatTemplate": ""
    },
    {
      "groupId": 235843001,
      "mapInstId": 1011,
      "aiGroupID": 235843001,
      "overrideDefendAreaRange": true,
      "defendAreaRange": 99.0,
      "overrideClearThreatTargetDistance": true,
      "clearThreatTargetDistance": 99.0,
      "aiNeuronSetting": "DefaultSetting",
      "aiSensingTemplate": "DefaultTemplate",
      "forceCombatOnSpawn": true,
      "disableWander": true,
      "reuseNotRemoveAbilityTag": "",
      "enterCombatTemplate": ""
    },
    {
      "groupId": 235843001,
      "mapInstId": 1012,
      "aiGroupID": 235843001,
      "overrideDefendAreaRange": true,
      "defendAreaRange": 99.0,
      "overrideClearThreatTargetDistance": true,
      "clearThreatTargetDistance": 99.0,
      "aiNeuronSetting": "DefaultSetting",
      "aiSensingTemplate": "DefaultTemplate",
      "forceCombatOnSpawn": true,
      "disableWander": true,
      "reuseNotRemoveAbilityTag": "",
      "enterCombatTemplate": ""
    },
    {
      "groupId": 235843001,
      "mapInstId": 1013,
      "aiGroupID": 235843001,
      "overrideDefendAreaRange": true,
      "defendAreaRange": 99.0,
      "overrideClearThreatTargetDistance": true,
      "clearThreatTargetDistance": 99.0,
      "aiNeuronSetting": "DefaultSetting",
      "aiSensingTemplate": "DefaultTemplate",
      "forceCombatOnSpawn": true,
      "disableWander": true,
      "reuseNotRemoveAbilityTag": "",
      "enterCombatTemplate": ""
    },
    {
      "groupId": 235843001,
      "mapInstId": 1014,
      "aiGroupID": 235843001,
      "overrideDefendAreaRange": true,
      "defendAreaRange": 99.0,
      "overrideClearThreatTargetDistance": true,
      "clearThreatTargetDistance": 99.0,
      "aiNeuronSetting": "DefaultSetting",
      "aiSensingTemplate": "DefaultTemplate",
      "forceCombatOnSpawn": true,
      "disableWander": true,
      "reuseNotRemoveAbilityTag": "",
      "enterCombatTemplate": ""
    },
    {
      "groupId": 235843001,
      "mapInstId": 1025,
      "aiGroupID": 235843001,
      "overrideDefendAreaRange": true,
      "defendAreaRange": 99.0,
      "overrideClearThreatTargetDistance": true,
      "clearThreatTargetDistance": 99.0,
      "aiNeuronSetting": "DefaultSetting",
      "aiSensingTemplate": "DefaultTemplate",
      "forceCombatOnSpawn": true,
      "disableWander": true,
      "reuseNotRemoveAbilityTag": "",
      "enterCombatTemplate": ""
    },
    {
      "groupId": 235843001,
      "mapInstId": 1026,
      "aiGroupID": 235843001,
      "overrideDefendAreaRange": true,
      "defendAreaRange": 99.0,
      "overrideClearThreatTargetDistance": true,
      "clearThreatTargetDistance": 99.0,
      "aiNeuronSetting": "DefaultSetting",
      "aiSensingTemplate": "DefaultTemplate",
      "forceCombatOnSpawn": true,
      "disableWander": true,
      "reuseNotRemoveAbilityTag": "",
      "enterCombatTemplate": ""
    },
    {
      "groupId": 235843001,
      "mapInstId": 1027,
      "aiGroupID": 235843001,
      "overrideDefendAreaRange": true,
      "defendAreaRange": 99.0,
      "overrideClearThreatTargetDistance": true,
      "clearThreatTargetDistance": 99.0,
      "aiNeuronSetting": "DefaultSetting",
      "aiSensingTemplate": "DefaultTemplate",
      "forceCombatOnSpawn": true,
      "disableWander": true,
      "reuseNotRemoveAbilityTag": "",
      "enterCombatTemplate": ""
    },
    {
      "groupId": 235843001,
      "mapInstId": 1028,
      "aiGroupID": 235843001,
      "overrideDefendAreaRange": true,
      "defendAreaRange": 99.0,
      "overrideClearThreatTargetDistance": true,
      "clearThreatTargetDistance": 99.0,
      "aiNeuronSetting": "DefaultSetting",
      "aiSensingTemplate": "DefaultTemplate",
      "forceCombatOnSpawn": true,
      "disableWander": true,
      "reuseNotRemoveAbilityTag": "",
      "enterCombatTemplate": ""
    },
    {
      "groupId": 235843001,
      "mapInstId": 1042,
      "aiGroupID": 235843001,
      "overrideDefendAreaRange": true,
      "defendAreaRange": 99.0,
      "overrideClearThreatTargetDistance": true,
      "clearThreatTargetDistance": 99.0,
      "aiNeuronSetting": "DefaultSetting",
      "aiSensingTemplate": "DefaultTemplate",
      "forceCombatOnSpawn": true,
      "disableWander": true,
      "reuseNotRemoveAbilityTag": "",
      "enterCombatTemplate": ""
    },
    {
      "groupId": 235843001,
      "mapInstId": 1043,
      "aiGroupID": 235843001,
      "overrideDefendAreaRange": true,
      "defendAreaRange": 99.0,
      "overrideClearThreatTargetDistance": true,
      "clearThreatTargetDistance": 99.0,
      "aiNeuronSetting": "DefaultSetting",
      "aiSensingTemplate": "DefaultTemplate",
      "forceCombatOnSpawn": true,
      "disableWander": true,
      "reuseNotRemoveAbilityTag": "",
      "enterCombatTemplate": ""
    },
    {
      "groupId": 235843002,
      "mapInstId": 2001,
      "aiGroupID": 235843002,
      "overrideDefendAreaRange": true,
      "defendAreaRange": 99.0,
      "overrideClearThreatTargetDistance": true,
      "clearThreatTargetDistance": 99.0,
      "aiNeuronSetting": "DefaultSetting",
      "aiSensingTemplate": "DefaultTemplate",
      "forceCombatOnSpawn": true,
      "disableWander": true,
      "reuseNotRemoveAbilityTag": "",
      "enterCombatTemplate": ""
    },
    {
      "groupId": 235843002,
      "mapInstId": 2002,
      "aiGroupID": 235843002,
      "overrideDefendAreaRange": true,
      "defendAreaRange": 99.0,
      "overrideClearThreatTargetDistance": true,
      "clearThreatTargetDistance": 99.0,
      "aiNeuronSetting": "DefaultSetting",
      "aiSensingTemplate": "DefaultTemplate",
      "forceCombatOnSpawn": true,
      "disableWander": true,
      "reuseNotRemoveAbilityTag": "",
      "enterCombatTemplate": ""
    },
    {
      "groupId": 235843002,
      "mapInstId": 2003,
      "aiGroupID": 235843002,
      "overrideDefendAreaRange": true,
      "defendAreaRange": 99.0,
      "overrideClearThreatTargetDistance": true,
      "clearThreatTargetDistance": 99.0,
      "aiNeuronSetting": "DefaultSetting",
      "aiSensingTemplate": "DefaultTemplate",
      "forceCombatOnSpawn": true,
      "disableWander": true,
      "reuseNotRemoveAbilityTag": "",
      "enterCombatTemplate": ""
    },
    {
      "groupId": 235843002,
      "mapInstId": 2004,
      "aiGroupID": 235843002,
      "overrideDefendAreaRange": true,
      "defendAreaRange": 99.0,
      "overrideClearThreatTargetDistance": true,
      "clearThreatTargetDistance": 99.0,
      "aiNeuronSetting": "DefaultSetting",
      "aiSensingTemplate": "DefaultTemplate",
      "forceCombatOnSpawn": true,
      "disableWander": true,
      "reuseNotRemoveAbilityTag": "",
      "enterCombatTemplate": ""
    },
    {
      "groupId": 235843002,
      "mapInstId": 2005,
      "aiGroupID": 235843002,
      "overrideDefendAreaRange": true,
      "defendAreaRange": 99.0,
      "overrideClearThreatTargetDistance": true,
      "clearThreatTargetDistance": 99.0,
      "aiNeuronSetting": "DefaultSetting",
      "aiSensingTemplate": "DefaultTemplate",
      "forceCombatOnSpawn": true,
      "disableWander": true,
      "reuseNotRemoveAbilityTag": "",
      "enterCombatTemplate": ""
    },
    {
      "groupId": 235843002,
      "mapInstId": 2006,
      "aiGroupID": 235843002,
      "overrideDefendAreaRange": true,
      "defendAreaRange": 99.0,
      "overrideClearThreatTargetDistance": true,
      "clearThreatTargetDistance": 99.0,
      "aiNeuronSetting": "DefaultSetting",
      "aiSensingTemplate": "DefaultTemplate",
      "forceCombatOnSpawn": true,
      "disableWander": true,
      "reuseNotRemoveAbilityTag": "",
      "enterCombatTemplate": ""
    },
    {
      "groupId": 235843002,
      "mapInstId": 2007,
      "aiGroupID": 235843002,
      "overrideDefendAreaRange": true,
      "defendAreaRange": 99.0,
      "overrideClearThreatTargetDistance": true,
      "clearThreatTargetDistance": 99.0,
      "aiNeuronSetting": "DefaultSetting",
      "aiSensingTemplate": "DefaultTemplate",
      "forceCombatOnSpawn": true,
      "disableWander": true,
      "reuseNotRemoveAbilityTag": "",
      "enterCombatTemplate": ""
    },
    {
      "groupId": 235843002,
      "mapInstId": 2008,
      "aiGroupID": 235843002,
      "overrideDefendAreaRange": true,
      "defendAreaRange": 99.0,
      "overrideClearThreatTargetDistance": true,
      "clearThreatTargetDistance": 99.0,
      "aiNeuronSetting": "DefaultSetting",
      "aiSensingTemplate": "DefaultTemplate",
      "forceCombatOnSpawn": true,
      "disableWander": true,
      "reuseNotRemoveAbilityTag": "",
      "enterCombatTemplate": ""
    },
    {
      "groupId": 235843002,
      "mapInstId": 2009,
      "aiGroupID": 235843002,
      "overrideDefendAreaRange": true,
      "defendAreaRange": 99.0,
      "overrideClearThreatTargetDistance": true,
      "clearThreatTargetDistance": 99.0,
      "aiNeuronSetting": "DefaultSetting",
      "aiSensingTemplate": "DefaultTemplate",
      "forceCombatOnSpawn": true,
      "disableWander": true,
      "reuseNotRemoveAbilityTag": "",
      "enterCombatTemplate": ""
    },
    {
      "groupId": 235843002,
      "mapInstId": 2010,
      "aiGroupID": 235843002,
      "overrideDefendAreaRange": true,
      "defendAreaRange": 99.0,
      "overrideClearThreatTargetDistance": true,
      "clearThreatTargetDistance": 99.0,
      "aiNeuronSetting": "DefaultSetting",
      "aiSensingTemplate": "DefaultTemplate",
      "forceCombatOnSpawn": true,
      "disableWander": true,
      "reuseNotRemoveAbilityTag": "",
      "enterCombatTemplate": ""
    },
    {
      "groupId": 235843002,
      "mapInstId": 2011,
      "aiGroupID": 235843002,
      "overrideDefendAreaRange": true,
      "defendAreaRange": 99.0,
      "overrideClearThreatTargetDistance": true,
      "clearThreatTargetDistance": 99.0,
      "aiNeuronSetting": "DefaultSetting",
      "aiSensingTemplate": "DefaultTemplate",
      "forceCombatOnSpawn": true,
      "disableWander": true,
      "reuseNotRemoveAbilityTag": "",
      "enterCombatTemplate": ""
    },
    {
      "groupId": 235843002,
      "mapInstId": 2012,
      "aiGroupID": 235843002,
      "overrideDefendAreaRange": true,
      "defendAreaRange": 99.0,
      "overrideClearThreatTargetDistance": true,
      "clearThreatTargetDistance": 99.0,
      "aiNeuronSetting": "DefaultSetting",
      "aiSensingTemplate": "DefaultTemplate",
      "forceCombatOnSpawn": true,
      "disableWander": true,
      "reuseNotRemoveAbilityTag": "",
      "enterCombatTemplate": ""
    },
    {
      "groupId": 235843002,
      "mapInstId": 2013,
      "aiGroupID": 235843002,
      "overrideDefendAreaRange": true,
      "defendAreaRange": 99.0,
      "overrideClearThreatTargetDistance": true,
      "clearThreatTargetDistance": 99.0,
      "aiNeuronSetting": "DefaultSetting",
      "aiSensingTemplate": "DefaultTemplate",
      "forceCombatOnSpawn": true,
      "disableWander": true,
      "reuseNotRemoveAbilityTag": "",
      "enterCombatTemplate": ""
    },
    {
      "groupId": 235843002,
      "mapInstId": 2014,
      "aiGroupID": 235843002,
      "overrideDefendAreaRange": true,
      "defendAreaRange": 99.0,
      "overrideClearThreatTargetDistance": true,
      "clearThreatTargetDistance": 99.0,
      "aiNeuronSetting": "DefaultSetting",
      "aiSensingTemplate": "DefaultTemplate",
      "forceCombatOnSpawn": true,
      "disableWander": true,
      "reuseNotRemoveAbilityTag": "",
      "enterCombatTemplate": ""
    },
    {
      "groupId": 235843002,
      "mapInstId": 2015,
      "aiGroupID": 235843002,
      "overrideDefendAreaRange": true,
      "defendAreaRange": 99.0,
      "overrideClearThreatTargetDistance": true,
      "clearThreatTargetDistance": 99.0,
      "aiNeuronSetting": "DefaultSetting",
      "aiSensingTemplate": "DefaultTemplate",
      "forceCombatOnSpawn": true,
      "disableWander": true,
      "reuseNotRemoveAbilityTag": "",
      "enterCombatTemplate": ""
    },
    {
      "groupId": 235843002,
      "mapInstId": 2016,
      "aiGroupID": 235843002,
      "overrideDefendAreaRange": true,
      "defendAreaRange": 99.0,
      "overrideClearThreatTargetDistance": true,
      "clearThreatTargetDistance": 99.0,
      "aiNeuronSetting": "DefaultSetting",
      "aiSensingTemplate": "DefaultTemplate",
      "forceCombatOnSpawn": true,
      "disableWander": true,
      "reuseNotRemoveAbilityTag": "",
      "enterCombatTemplate": ""
    },
    {
      "groupId": 235843002,
      "mapInstId": 2017,
      "aiGroupID": 235843002,
      "overrideDefendAreaRange": true,
      "defendAreaRange": 99.0,
      "overrideClearThreatTargetDistance": true,
      "clearThreatTargetDistance": 99.0,
      "aiNeuronSetting": "DefaultSetting",
      "aiSensingTemplate": "DefaultTemplate",
      "forceCombatOnSpawn": true,
      "disableWander": true,
      "reuseNotRemoveAbilityTag": "",
      "enterCombatTemplate": ""
    },
    {
      "groupId": 235843002,
      "mapInstId": 2018,
      "aiGroupID": 235843002,
      "overrideDefendAreaRange": true,
      "defendAreaRange": 99.0,
      "overrideClearThreatTargetDistance": true,
      "clearThreatTargetDistance": 99.0,
      "aiNeuronSetting": "DefaultSetting",
      "aiSensingTemplate": "DefaultTemplate",
      "forceCombatOnSpawn": true,
      "disableWander": true,
      "reuseNotRemoveAbilityTag": "",
      "enterCombatTemplate": ""
    },
    {
      "groupId": 235843002,
      "mapInstId": 2023,
      "aiGroupID": 235843002,
      "overrideDefendAreaRange": true,
      "defendAreaRange": 99.0,
      "overrideClearThreatTargetDistance": true,
      "clearThreatTargetDistance": 99.0,
      "aiNeuronSetting": "DefaultSetting",
      "aiSensingTemplate": "DefaultTemplate",
      "forceCombatOnSpawn": true,
      "disableWander": true,
      "reuseNotRemoveAbilityTag": "",
      "enterCombatTemplate": ""
    },
    {
      "groupId": 235843002,
      "mapInstId": 2024,
      "aiGroupID": 235843002,
      "overrideDefendAreaRange": true,
      "defendAreaRange": 99.0,
      "overrideClearThreatTargetDistance": true,
      "clearThreatTargetDistance": 99.0,
      "aiNeuronSetting": "DefaultSetting",
      "aiSensingTemplate": "DefaultTemplate",
      "forceCombatOnSpawn": true,
      "disableWander": true,
      "reuseNotRemoveAbilityTag": "",
      "enterCombatTemplate": ""
    },
    {
      "groupId": 235843002,
      "mapInstId": 2025,
      "aiGroupID": 235843002,
      "overrideDefendAreaRange": true,
      "defendAreaRange": 99.0,
      "overrideClearThreatTargetDistance": true,
      "clearThreatTargetDistance": 99.0,
      "aiNeuronSetting": "DefaultSetting",
      "aiSensingTemplate": "DefaultTemplate",
      "forceCombatOnSpawn": true,
      "disableWander": true,
      "reuseNotRemoveAbilityTag": "",
      "enterCombatTemplate": ""
    },
    {
      "groupId": 235843002,
      "mapInstId": 2026,
      "aiGroupID": 235843002,
      "overrideDefendAreaRange": true,
      "defendAreaRange": 99.0,
      "overrideClearThreatTargetDistance": true,
      "clearThreatTargetDistance": 99.0,
      "aiNeuronSetting": "DefaultSetting",
      "aiSensingTemplate": "DefaultTemplate",
      "forceCombatOnSpawn": true,
      "disableWander": true,
      "reuseNotRemoveAbilityTag": "",
      "enterCombatTemplate": ""
    },
    {
      "groupId": 235843002,
      "mapInstId": 2027,
      "aiGroupID": 235843002,
      "overrideDefendAreaRange": true,
      "defendAreaRange": 99.0,
      "overrideClearThreatTargetDistance": true,
      "clearThreatTargetDistance": 99.0,
      "aiNeuronSetting": "DefaultSetting",
      "aiSensingTemplate": "DefaultTemplate",
      "forceCombatOnSpawn": true,
      "disableWander": true,
      "reuseNotRemoveAbilityTag": "",
      "enterCombatTemplate": ""
    },
    {
      "groupId": 235843002,
      "mapInstId": 2028,
      "aiGroupID": 235843002,
      "overrideDefendAreaRange": true,
      "defendAreaRange": 99.0,
      "overrideClearThreatTargetDistance": true,
      "clearThreatTargetDistance": 99.0,
      "aiNeuronSetting": "DefaultSetting",
      "aiSensingTemplate": "DefaultTemplate",
      "forceCombatOnSpawn": true,
      "disableWander": true,
      "reuseNotRemoveAbilityTag": "",
      "enterCombatTemplate": ""
    }
  ]
}