{
  "sceneId": 31502,
  "monsters": [
    {
      "groupId": 231502003,
      "mapInstId": 3001,
      "aiNeuronSetting": "DefaultSetting",
      "aiSensingTemplate": "DefaultTemplate",
      "forceCombatOnSpawn": true,
      "reuseNotRemoveAbilityTag": "",
      "enterCombatTemplate": ""
    },
    {
      "groupId": 231502003,
      "mapInstId": 3002,
      "aiNeuronSetting": "DefaultSetting",
      "aiSensingTemplate": "DefaultTemplate",
      "forceCombatOnSpawn": true,
      "reuseNotRemoveAbilityTag": "",
      "enterCombatTemplate": ""
    },
    {
      "groupId": 231502003,
      "mapInstId": 3003,
      "aiNeuronSetting": "DefaultSetting",
      "aiSensingTemplate": "DefaultTemplate",
      "forceCombatOnSpawn": true,
      "reuseNotRemoveAbilityTag": "",
      "enterCombatTemplate": ""
    },
    {
      "groupId": 231502003,
      "mapInstId": 3004,
      "aiNeuronSetting": "DefaultSetting",
      "aiSensingTemplate": "DefaultTemplate",
      "forceCombatOnSpawn": true,
      "reuseNotRemoveAbilityTag": "",
      "enterCombatTemplate": ""
    },
    {
      "groupId": 231502003,
      "mapInstId": 3005,
      "aiNeuronSetting": "DefaultSetting",
      "aiSensingTemplate": "DefaultTemplate",
      "forceCombatOnSpawn": true,
      "reuseNotRemoveAbilityTag": "",
      "enterCombatTemplate": ""
    },
    {
      "groupId": 231502003,
      "mapInstId": 3010,
      "aiNeuronSetting": "DefaultSetting",
      "aiSensingTemplate": "DefaultTemplate",
      "forceCombatOnSpawn": true,
      "reuseNotRemoveAbilityTag": "",
      "enterCombatTemplate": ""
    },
    {
      "groupId": 231502003,
      "mapInstId": 3011,
      "aiNeuronSetting": "DefaultSetting",
      "aiSensingTemplate": "DefaultTemplate",
      "forceCombatOnSpawn": true,
      "reuseNotRemoveAbilityTag": "",
      "enterCombatTemplate": ""
    },
    {
      "groupId": 231502003,
      "mapInstId": 3012,
      "aiNeuronSetting": "DefaultSetting",
      "aiSensingTemplate": "DefaultTemplate",
      "forceCombatOnSpawn": true,
      "reuseNotRemoveAbilityTag": "",
      "enterCombatTemplate": ""
    },
    {
      "groupId": 231502003,
      "mapInstId": 3013,
      "aiNeuronSetting": "DefaultSetting",
      "aiSensingTemplate": "DefaultTemplate",
      "forceCombatOnSpawn": true,
      "reuseNotRemoveAbilityTag": "",
      "enterCombatTemplate": ""
    },
    {
      "groupId": 231502003,
      "mapInstId": 3018,
      "aiNeuronSetting": "DefaultSetting",
      "aiSensingTemplate": "DefaultTemplate",
      "forceCombatOnSpawn": true,
      "reuseNotRemoveAbilityTag": "",
      "enterCombatTemplate": ""
    },
    {
      "groupId": 231502003,
      "mapInstId": 3019,
      "aiNeuronSetting": "DefaultSetting",
      "aiSensingTemplate": "DefaultTemplate",
      "forceCombatOnSpawn": true,
      "reuseNotRemoveAbilityTag": "",
      "enterCombatTemplate": ""
    },
    {
      "groupId": 231502003,
      "mapInstId": 3020,
      "aiNeuronSetting": "DefaultSetting",
      "aiSensingTemplate": "DefaultTemplate",
      "forceCombatOnSpawn": true,
      "reuseNotRemoveAbilityTag": "",
      "enterCombatTemplate": ""
    },
    {
      "groupId": 231502003,
      "mapInstId": 3022,
      "aiNeuronSetting": "DefaultSetting",
      "aiSensingTemplate": "DefaultTemplate",
      "forceCombatOnSpawn": true,
      "reuseNotRemoveAbilityTag": "",
      "enterCombatTemplate": ""
    },
    {
      "groupId": 231502003,
      "mapInstId": 3023,
      "aiNeuronSetting": "DefaultSetting",
      "aiSensingTemplate": "DefaultTemplate",
      "forceCombatOnSpawn": true,
      "reuseNotRemoveAbilityTag": "",
      "enterCombatTemplate": ""
    }
  ]
}