{
  "sceneId": 40791,
  "monsters": [
    {
      "groupId": 240791002,
      "mapInstId": 2005,
      "aiGroupID": 240791002,
      "overrideDefendAreaRange": true,
      "defendAreaRange": 999.0,
      "aiNeuronSetting": "DefaultSetting",
      "aiSensingTemplate": "DefaultTemplate",
      "forceCombatOnSpawn": true,
      "disableWander": true,
      "reuseNotRemoveAbilityTag": "",
      "enterCombatTemplate": ""
    },
    {
      "groupId": 240791002,
      "mapInstId": 2006,
      "aiGroupID": 240791002,
      "overrideDefendAreaRange": true,
      "defendAreaRange": 999.0,
      "aiNeuronSetting": "DefaultSetting",
      "aiSensingTemplate": "DefaultTemplate",
      "forceCombatOnSpawn": true,
      "disableWander": true,
      "reuseNotRemoveAbilityTag": "",
      "enterCombatTemplate": ""
    },
    {
      "groupId": 240791002,
      "mapInstId": 2007,
      "aiGroupID": 240791002,
      "overrideDefendAreaRange": true,
      "defendAreaRange": 999.0,
      "aiNeuronSetting": "DefaultSetting",
      "aiSensingTemplate": "DefaultTemplate",
      "forceCombatOnSpawn": true,
      "disableWander": true,
      "reuseNotRemoveAbilityTag": "",
      "enterCombatTemplate": ""
    },
    {
      "groupId": 240791002,
      "mapInstId": 2008,
      "aiGroupID": 240791002,
      "overrideDefendAreaRange": true,
      "defendAreaRange": 999.0,
      "aiNeuronSetting": "DefaultSetting",
      "aiSensingTemplate": "DefaultTemplate",
      "forceCombatOnSpawn": true,
      "disableWander": true,
      "reuseNotRemoveAbilityTag": "",
      "enterCombatTemplate": ""
    },
    {
      "groupId": 240791002,
      "mapInstId": 2022,
      "aiGroupID": 240791002,
      "overrideDefendAreaRange": true,
      "defendAreaRange": 999.0,
      "aiNeuronSetting": "DefaultSetting",
      "aiSensingTemplate": "DefaultTemplate",
      "forceCombatOnSpawn": true,
      "disableWander": true,
      "reuseNotRemoveAbilityTag": "",
      "enterCombatTemplate": ""
    }
  ]
}