{
  "sceneId": 20190,
  "monsters": [
    {
      "groupId": 220190001,
      "mapInstId": 1001,
      "aiGroupID": 220190001,
      "overrideDefendAreaRange": true,
      "defendAreaRange": 999.0,
      "aiNeuronSetting": "DefaultSetting",
      "aiSensingTemplate": "DefaultTemplate",
      "forceCombatOnSpawn": true,
      "reuseNotRemoveAbilityTag": "",
      "enterCombatTemplate": ""
    },
    {
      "groupId": 220190001,
      "mapInstId": 1002,
      "aiGroupID": 220190001,
      "overrideDefendAreaRange": true,
      "defendAreaRange": 999.0,
      "aiNeuronSetting": "DefaultSetting",
      "aiSensingTemplate": "DefaultTemplate",
      "forceCombatOnSpawn": true,
      "reuseNotRemoveAbilityTag": "",
      "enterCombatTemplate": ""
    },
    {
      "groupId": 220190001,
      "mapInstId": 1003,
      "aiGroupID": 220190001,
      "overrideDefendAreaRange": true,
      "defendAreaRange": 999.0,
      "aiNeuronSetting": "DefaultSetting",
      "aiSensingTemplate": "DefaultTemplate",
      "forceCombatOnSpawn": true,
      "reuseNotRemoveAbilityTag": "",
      "enterCombatTemplate": ""
    },
    {
      "groupId": 220190001,
      "mapInstId": 1004,
      "aiGroupID": 220190001,
      "overrideDefendAreaRange": true,
      "defendAreaRange": 999.0,
      "aiNeuronSetting": "DefaultSetting",
      "aiSensingTemplate": "DefaultTemplate",
      "forceCombatOnSpawn": true,
      "reuseNotRemoveAbilityTag": "",
      "enterCombatTemplate": ""
    },
    {
      "groupId": 220190001,
      "mapInstId": 1007,
      "aiGroupID": 220190001,
      "overrideDefendAreaRange": true,
      "defendAreaRange": 999.0,
      "aiNeuronSetting": "DefaultSetting",
      "aiSensingTemplate": "DefaultTemplate",
      "forceCombatOnSpawn": true,
      "reuseNotRemoveAbilityTag": "",
      "enterCombatTemplate": ""
    },
    {
      "groupId": 220190001,
      "mapInstId": 1008,
      "aiGroupID": 220190001,
      "overrideDefendAreaRange": true,
      "defendAreaRange": 999.0,
      "aiNeuronSetting": "DefaultSetting",
      "aiSensingTemplate": "DefaultTemplate",
      "forceCombatOnSpawn": true,
      "reuseNotRemoveAbilityTag": "",
      "enterCombatTemplate": ""
    },
    {
      "groupId": 220190001,
      "mapInstId": 1009,
      "aiGroupID": 220190001,
      "aiNeuronSetting": "DefaultSetting",
      "aiSensingTemplate": "DefaultTemplate",
      "forceCombatOnSpawn": true,
      "billboardHasUIBar": true,
      "reuseNotRemoveAbilityTag": "",
      "enterCombatTemplate": ""
    },
    {
      "groupId": 220190001,
      "mapInstId": 1011,
      "aiGroupID": 220190001,
      "overrideDefendAreaRange": true,
      "defendAreaRange": 999.0,
      "aiNeuronSetting": "DefaultSetting",
      "aiSensingTemplate": "DefaultTemplate",
      "forceCombatOnSpawn": true,
      "reuseNotRemoveAbilityTag": "",
      "enterCombatTemplate": ""
    },
    {
      "groupId": 220190001,
      "mapInstId": 1012,
      "aiGroupID": 220190001,
      "overrideDefendAreaRange": true,
      "defendAreaRange": 999.0,
      "aiNeuronSetting": "DefaultSetting",
      "aiSensingTemplate": "DefaultTemplate",
      "forceCombatOnSpawn": true,
      "reuseNotRemoveAbilityTag": "",
      "enterCombatTemplate": ""
    },
    {
      "groupId": 220190001,
      "mapInstId": 1014,
      "aiGroupID": 220190001,
      "overrideDefendAreaRange": true,
      "defendAreaRange": 999.0,
      "aiNeuronSetting": "DefaultSetting",
      "aiSensingTemplate": "DefaultTemplate",
      "forceCombatOnSpawn": true,
      "reuseNotRemoveAbilityTag": "",
      "enterCombatTemplate": ""
    },
    {
      "groupId": 220190001,
      "mapInstId": 1015,
      "aiGroupID": 220190001,
      "overrideDefendAreaRange": true,
      "defendAreaRange": 999.0,
      "aiNeuronSetting": "DefaultSetting",
      "aiSensingTemplate": "DefaultTemplate",
      "forceCombatOnSpawn": true,
      "reuseNotRemoveAbilityTag": "",
      "enterCombatTemplate": ""
    },
    {
      "groupId": 220190001,
      "mapInstId": 1016,
      "aiGroupID": 220190001,
      "overrideDefendAreaRange": true,
      "defendAreaRange": 999.0,
      "aiNeuronSetting": "DefaultSetting",
      "aiSensingTemplate": "DefaultTemplate",
      "forceCombatOnSpawn": true,
      "reuseNotRemoveAbilityTag": "",
      "enterCombatTemplate": ""
    },
    {
      "groupId": 220190001,
      "mapInstId": 1017,
      "aiGroupID": 220190001,
      "overrideDefendAreaRange": true,
      "defendAreaRange": 999.0,
      "aiNeuronSetting": "DefaultSetting",
      "aiSensingTemplate": "DefaultTemplate",
      "forceCombatOnSpawn": true,
      "reuseNotRemoveAbilityTag": "",
      "enterCombatTemplate": ""
    },
    {
      "groupId": 220190001,
      "mapInstId": 1018,
      "aiGroupID": 220190001,
      "overrideDefendAreaRange": true,
      "defendAreaRange": 999.0,
      "aiNeuronSetting": "DefaultSetting",
      "aiSensingTemplate": "DefaultTemplate",
      "forceCombatOnSpawn": true,
      "reuseNotRemoveAbilityTag": "",
      "enterCombatTemplate": ""
    },
    {
      "groupId": 220190001,
      "mapInstId": 1019,
      "aiGroupID": 220190001,
      "overrideDefendAreaRange": true,
      "defendAreaRange": 999.0,
      "aiNeuronSetting": "DefaultSetting",
      "aiSensingTemplate": "DefaultTemplate",
      "forceCombatOnSpawn": true,
      "reuseNotRemoveAbilityTag": "",
      "enterCombatTemplate": ""
    },
    {
      "groupId": 220190001,
      "mapInstId": 1020,
      "aiGroupID": 220190001,
      "overrideDefendAreaRange": true,
      "defendAreaRange": 999.0,
      "aiNeuronSetting": "DefaultSetting",
      "aiSensingTemplate": "DefaultTemplate",
      "forceCombatOnSpawn": true,
      "reuseNotRemoveAbilityTag": "",
      "enterCombatTemplate": ""
    },
    {
      "groupId": 220190001,
      "mapInstId": 1021,
      "aiGroupID": 220190001,
      "overrideDefendAreaRange": true,
      "defendAreaRange": 999.0,
      "aiNeuronSetting": "DefaultSetting",
      "aiSensingTemplate": "DefaultTemplate",
      "forceCombatOnSpawn": true,
      "reuseNotRemoveAbilityTag": "",
      "enterCombatTemplate": ""
    },
    {
      "groupId": 220190001,
      "mapInstId": 1042,
      "aiGroupID": 220190001,
      "overrideDefendAreaRange": true,
      "defendAreaRange": 999.0,
      "aiNeuronSetting": "DefaultSetting",
      "aiSensingTemplate": "DefaultTemplate",
      "forceCombatOnSpawn": true,
      "reuseNotRemoveAbilityTag": "",
      "enterCombatTemplate": ""
    },
    {
      "groupId": 220190001,
      "mapInstId": 1043,
      "aiGroupID": 220190001,
      "overrideDefendAreaRange": true,
      "defendAreaRange": 999.0,
      "aiNeuronSetting": "DefaultSetting",
      "aiSensingTemplate": "DefaultTemplate",
      "forceCombatOnSpawn": true,
      "reuseNotRemoveAbilityTag": "",
      "enterCombatTemplate": ""
    },
    {
      "groupId": 220190001,
      "mapInstId": 1044,
      "aiGroupID": 220190001,
      "overrideDefendAreaRange": true,
      "defendAreaRange": 999.0,
      "aiNeuronSetting": "DefaultSetting",
      "aiSensingTemplate": "DefaultTemplate",
      "forceCombatOnSpawn": true,
      "reuseNotRemoveAbilityTag": "",
      "enterCombatTemplate": ""
    },
    {
      "groupId": 220190001,
      "mapInstId": 1045,
      "aiGroupID": 220190001,
      "overrideDefendAreaRange": true,
      "defendAreaRange": 999.0,
      "aiNeuronSetting": "DefaultSetting",
      "aiSensingTemplate": "DefaultTemplate",
      "forceCombatOnSpawn": true,
      "reuseNotRemoveAbilityTag": "",
      "enterCombatTemplate": ""
    },
    {
      "groupId": 220190001,
      "mapInstId": 1046,
      "aiGroupID": 220190001,
      "overrideDefendAreaRange": true,
      "defendAreaRange": 999.0,
      "aiNeuronSetting": "DefaultSetting",
      "aiSensingTemplate": "DefaultTemplate",
      "forceCombatOnSpawn": true,
      "reuseNotRemoveAbilityTag": "",
      "enterCombatTemplate": ""
    },
    {
      "groupId": 220190001,
      "mapInstId": 1047,
      "aiGroupID": 220190001,
      "overrideDefendAreaRange": true,
      "defendAreaRange": 999.0,
      "aiNeuronSetting": "DefaultSetting",
      "aiSensingTemplate": "DefaultTemplate",
      "forceCombatOnSpawn": true,
      "reuseNotRemoveAbilityTag": "",
      "enterCombatTemplate": ""
    },
    {
      "groupId": 220190001,
      "mapInstId": 1059,
      "aiGroupID": 220190001,
      "overrideDefendAreaRange": true,
      "defendAreaRange": 999.0,
      "aiNeuronSetting": "DefaultSetting",
      "aiSensingTemplate": "DefaultTemplate",
      "forceCombatOnSpawn": true,
      "reuseNotRemoveAbilityTag": "",
      "enterCombatTemplate": ""
    },
    {
      "groupId": 220190001,
      "mapInstId": 1060,
      "aiGroupID": 220190001,
      "overrideDefendAreaRange": true,
      "defendAreaRange": 999.0,
      "aiNeuronSetting": "DefaultSetting",
      "aiSensingTemplate": "DefaultTemplate",
      "forceCombatOnSpawn": true,
      "reuseNotRemoveAbilityTag": "",
      "enterCombatTemplate": ""
    },
    {
      "groupId": 220190001,
      "mapInstId": 1061,
      "aiGroupID": 220190001,
      "overrideDefendAreaRange": true,
      "defendAreaRange": 999.0,
      "aiNeuronSetting": "DefaultSetting",
      "aiSensingTemplate": "DefaultTemplate",
      "forceCombatOnSpawn": true,
      "reuseNotRemoveAbilityTag": "",
      "enterCombatTemplate": ""
    },
    {
      "groupId": 220190001,
      "mapInstId": 1063,
      "aiGroupID": 220190001,
      "overrideDefendAreaRange": true,
      "defendAreaRange": 999.0,
      "aiNeuronSetting": "DefaultSetting",
      "aiSensingTemplate": "DefaultTemplate",
      "forceCombatOnSpawn": true,
      "reuseNotRemoveAbilityTag": "",
      "enterCombatTemplate": ""
    },
    {
      "groupId": 220190001,
      "mapInstId": 1064,
      "aiGroupID": 220190001,
      "overrideDefendAreaRange": true,
      "defendAreaRange": 999.0,
      "aiNeuronSetting": "DefaultSetting",
      "aiSensingTemplate": "DefaultTemplate",
      "forceCombatOnSpawn": true,
      "reuseNotRemoveAbilityTag": "",
      "enterCombatTemplate": ""
    },
    {
      "groupId": 220190001,
      "mapInstId": 1065,
      "aiGroupID": 220190001,
      "overrideDefendAreaRange": true,
      "defendAreaRange": 999.0,
      "aiNeuronSetting": "DefaultSetting",
      "aiSensingTemplate": "DefaultTemplate",
      "forceCombatOnSpawn": true,
      "reuseNotRemoveAbilityTag": "",
      "enterCombatTemplate": ""
    },
    {
      "groupId": 220190001,
      "mapInstId": 1067,
      "aiGroupID": 220190001,
      "overrideDefendAreaRange": true,
      "defendAreaRange": 999.0,
      "aiNeuronSetting": "DefaultSetting",
      "aiSensingTemplate": "DefaultTemplate",
      "forceCombatOnSpawn": true,
      "reuseNotRemoveAbilityTag": "",
      "enterCombatTemplate": ""
    },
    {
      "groupId": 220190001,
      "mapInstId": 1068,
      "aiGroupID": 220190001,
      "overrideDefendAreaRange": true,
      "defendAreaRange": 999.0,
      "aiNeuronSetting": "DefaultSetting",
      "aiSensingTemplate": "DefaultTemplate",
      "forceCombatOnSpawn": true,
      "reuseNotRemoveAbilityTag": "",
      "enterCombatTemplate": ""
    },
    {
      "groupId": 220190001,
      "mapInstId": 1069,
      "aiGroupID": 220190001,
      "overrideDefendAreaRange": true,
      "defendAreaRange": 999.0,
      "aiNeuronSetting": "DefaultSetting",
      "aiSensingTemplate": "DefaultTemplate",
      "forceCombatOnSpawn": true,
      "reuseNotRemoveAbilityTag": "",
      "enterCombatTemplate": ""
    }
  ]
}