{
  "sceneId": 46312,
  "monsters": [
    {
      "groupId": 246312001,
      "mapInstId": 1004,
      "aiGroupID": 246312001,
      "overrideDefendAreaRange": true,
      "defendAreaRange": 200.0,
      "overrideForceAlertDistance": true,
      "forceAlertDistanceLimit": 200.0,
      "overrideClearThreatTargetDistance": true,
      "clearThreatTargetDistance": 200.0,
      "aiNeuronSetting": "DefaultSetting",
      "aiSensingTemplate": "DefaultTemplate",
      "forceCombatOnSpawn": true,
      "disableWander": true,
      "reuseNotRemoveAbilityTag": "",
      "enterCombatTemplate": ""
    },
    {
      "groupId": 246312001,
      "mapInstId": 1005,
      "aiGroupID": 246312001,
      "overrideDefendAreaRange": true,
      "defendAreaRange": 200.0,
      "overrideForceAlertDistance": true,
      "forceAlertDistanceLimit": 200.0,
      "overrideClearThreatTargetDistance": true,
      "clearThreatTargetDistance": 200.0,
      "aiNeuronSetting": "DefaultSetting",
      "aiSensingTemplate": "DefaultTemplate",
      "forceCombatOnSpawn": true,
      "disableWander": true,
      "reuseNotRemoveAbilityTag": "",
      "enterCombatTemplate": ""
    },
    {
      "groupId": 246312001,
      "mapInstId": 1006,
      "aiGroupID": 246312001,
      "overrideDefendAreaRange": true,
      "defendAreaRange": 200.0,
      "overrideForceAlertDistance": true,
      "forceAlertDistanceLimit": 200.0,
      "overrideClearThreatTargetDistance": true,
      "clearThreatTargetDistance": 200.0,
      "aiNeuronSetting": "DefaultSetting",
      "aiSensingTemplate": "DefaultTemplate",
      "forceCombatOnSpawn": true,
      "disableWander": true,
      "reuseNotRemoveAbilityTag": "",
      "enterCombatTemplate": ""
    }
  ]
}