{
  "sceneId": 20165,
  "monsters": [
    {
      "groupId": 220165002,
      "mapInstId": 2003,
      "routeId": 7,
      "aiGroupID": 220165002,
      "aiNeuronSetting": "DefaultSetting",
      "aiSensingTemplate": "DefaultTemplate",
      "disableWander": true,
      "reuseNotRemoveAbilityTag": "",
      "enterCombatTemplate": ""
    },
    {
      "groupId": 220165002,
      "mapInstId": 2004,
      "routeId": 7,
      "aiGroupID": 220165002,
      "aiNeuronSetting": "DefaultSetting",
      "aiSensingTemplate": "DefaultTemplate",
      "disableWander": true,
      "reuseNotRemoveAbilityTag": "",
      "enterCombatTemplate": ""
    },
    {
      "groupId": 220165002,
      "mapInstId": 2005,
      "routeId": 7,
      "aiGroupID": 220165002,
      "aiNeuronSetting": "DefaultSetting",
      "aiSensingTemplate": "DefaultTemplate",
      "disableWander": true,
      "reuseNotRemoveAbilityTag": "",
      "enterCombatTemplate": ""
    },
    {
      "groupId": 220165002,
      "mapInstId": 2006,
      "routeId": 7,
      "aiGroupID": 220165002,
      "aiNeuronSetting": "DefaultSetting",
      "aiSensingTemplate": "DefaultTemplate",
      "disableWander": true,
      "reuseNotRemoveAbilityTag": "",
      "enterCombatTemplate": ""
    },
    {
      "groupId": 220165002,
      "mapInstId": 2021,
      "routeId": 7,
      "aiGroupID": 220165002,
      "aiNeuronSetting": "DefaultSetting",
      "aiSensingTemplate": "DefaultTemplate",
      "disableWander": true,
      "reuseNotRemoveAbilityTag": "",
      "enterCombatTemplate": ""
    },
    {
      "groupId": 220165002,
      "mapInstId": 2025,
      "aiGroupID": 220165002,
      "aiNeuronSetting": "DefaultSetting",
      "aiSensingTemplate": "DefaultTemplate",
      "forceCombatOnSpawn": true,
      "disableWander": true,
      "reuseNotRemoveAbilityTag": "",
      "enterCombatTemplate": ""
    },
    {
      "groupId": 220165002,
      "mapInstId": 2026,
      "aiGroupID": 220165002,
      "aiNeuronSetting": "DefaultSetting",
      "aiSensingTemplate": "DefaultTemplate",
      "forceCombatOnSpawn": true,
      "disableWander": true,
      "reuseNotRemoveAbilityTag": "",
      "enterCombatTemplate": ""
    },
    {
      "groupId": 220165002,
      "mapInstId": 2027,
      "aiGroupID": 220165002,
      "aiNeuronSetting": "DefaultSetting",
      "aiSensingTemplate": "DefaultTemplate",
      "forceCombatOnSpawn": true,
      "disableWander": true,
      "reuseNotRemoveAbilityTag": "",
      "enterCombatTemplate": ""
    },
    {
      "groupId": 220165002,
      "mapInstId": 2028,
      "aiGroupID": 220165002,
      "aiNeuronSetting": "DefaultSetting",
      "aiSensingTemplate": "DefaultTemplate",
      "forceCombatOnSpawn": true,
      "disableWander": true,
      "reuseNotRemoveAbilityTag": "",
      "enterCombatTemplate": ""
    },
    {
      "groupId": 220165004,
      "mapInstId": 4007,
      "aiGroupID": 220165004,
      "aiNeuronSetting": "DefaultSetting",
      "aiSensingTemplate": "DefaultTemplate",
      "reuseNotRemoveAbilityTag": "",
      "enterCombatTemplate": ""
    },
    {
      "groupId": 220165004,
      "mapInstId": 4010,
      "aiGroupID": 220165004,
      "aiNeuronSetting": "DefaultSetting",
      "aiSensingTemplate": "DefaultTemplate",
      "reuseNotRemoveAbilityTag": "",
      "enterCombatTemplate": ""
    },
    {
      "groupId": 220165004,
      "mapInstId": 4011,
      "aiGroupID": 220165004,
      "aiNeuronSetting": "DefaultSetting",
      "aiSensingTemplate": "DefaultTemplate",
      "reuseNotRemoveAbilityTag": "",
      "enterCombatTemplate": ""
    },
    {
      "groupId": 220165004,
      "mapInstId": 4012,
      "aiGroupID": 220165004,
      "aiNeuronSetting": "DefaultSetting",
      "aiSensingTemplate": "DefaultTemplate",
      "reuseNotRemoveAbilityTag": "",
      "enterCombatTemplate": ""
    },
    {
      "groupId": 220165004,
      "mapInstId": 4013,
      "aiGroupID": 220165004,
      "aiNeuronSetting": "DefaultSetting",
      "aiSensingTemplate": "DefaultTemplate",
      "reuseNotRemoveAbilityTag": "",
      "enterCombatTemplate": ""
    },
    {
      "groupId": 220165004,
      "mapInstId": 4018,
      "aiGroupID": 220165004,
      "aiNeuronSetting": "DefaultSetting",
      "aiSensingTemplate": "DefaultTemplate",
      "forceCombatOnSpawn": true,
      "disableWander": true,
      "reuseNotRemoveAbilityTag": "",
      "enterCombatTemplate": ""
    },
    {
      "groupId": 220165004,
      "mapInstId": 4019,
      "aiGroupID": 220165004,
      "aiNeuronSetting": "DefaultSetting",
      "aiSensingTemplate": "DefaultTemplate",
      "forceCombatOnSpawn": true,
      "disableWander": true,
      "reuseNotRemoveAbilityTag": "",
      "enterCombatTemplate": ""
    },
    {
      "groupId": 220165004,
      "mapInstId": 4030,
      "aiGroupID": 220165004,
      "aiNeuronSetting": "DefaultSetting",
      "aiSensingTemplate": "DefaultTemplate",
      "forceCombatOnSpawn": true,
      "disableWander": true,
      "reuseNotRemoveAbilityTag": "",
      "enterCombatTemplate": ""
    },
    {
      "groupId": 220165005,
      "mapInstId": 5021,
      "routeId": 9,
      "aiGroupID": 220165005,
      "aiNeuronSetting": "DefaultSetting",
      "aiSensingTemplate": "DefaultTemplate",
      "reuseNotRemoveAbilityTag": "",
      "enterCombatTemplate": ""
    },
    {
      "groupId": 220165005,
      "mapInstId": 5031,
      "aiGroupID": 220165005,
      "aiNeuronSetting": "DefaultSetting",
      "aiSensingTemplate": "DefaultTemplate",
      "forceCombatOnSpawn": true,
      "disableWander": true,
      "reuseNotRemoveAbilityTag": "",
      "enterCombatTemplate": ""
    },
    {
      "groupId": 220165005,
      "mapInstId": 5032,
      "aiGroupID": 220165005,
      "aiNeuronSetting": "DefaultSetting",
      "aiSensingTemplate": "DefaultTemplate",
      "forceCombatOnSpawn": true,
      "disableWander": true,
      "reuseNotRemoveAbilityTag": "",
      "enterCombatTemplate": ""
    },
    {
      "groupId": 220165005,
      "mapInstId": 5033,
      "aiGroupID": 220165005,
      "aiNeuronSetting": "DefaultSetting",
      "aiSensingTemplate": "DefaultTemplate",
      "forceCombatOnSpawn": true,
      "disableWander": true,
      "reuseNotRemoveAbilityTag": "",
      "enterCombatTemplate": ""
    },
    {
      "groupId": 220165005,
      "mapInstId": 5034,
      "aiGroupID": 220165005,
      "aiNeuronSetting": "DefaultSetting",
      "aiSensingTemplate": "DefaultTemplate",
      "forceCombatOnSpawn": true,
      "disableWander": true,
      "reuseNotRemoveAbilityTag": "",
      "enterCombatTemplate": ""
    },
    {
      "groupId": 220165005,
      "mapInstId": 5035,
      "aiGroupID": 220165005,
      "aiNeuronSetting": "DefaultSetting",
      "aiSensingTemplate": "DefaultTemplate",
      "forceCombatOnSpawn": true,
      "disableWander": true,
      "reuseNotRemoveAbilityTag": "",
      "enterCombatTemplate": ""
    },
    {
      "groupId": 220165006,
      "mapInstId": 6001,
      "aiGroupID": 220165006,
      "overrideDefendAreaRange": true,
      "defendAreaRange": 199.0,
      "overrideForceAlertDistance": true,
      "forceAlertDistanceLimit": 199.0,
      "aiNeuronSetting": "DefaultSetting",
      "aiSensingTemplate": "DefaultTemplate",
      "forceCombatOnSpawn": true,
      "billboardHasUIBar": true,
      "billboardShowUIBarDis": 100.0,
      "billboardHideUIBarDis": 200.0,
      "reuseNotRemoveAbilityTag": "",
      "enterCombatTemplate": ""
    },
    {
      "groupId": 220165006,
      "mapInstId": 6002,
      "aiGroupID": 220165006,
      "overrideDefendAreaRange": true,
      "defendAreaRange": 199.0,
      "overrideForceAlertDistance": true,
      "forceAlertDistanceLimit": 199.0,
      "aiNeuronSetting": "DefaultSetting",
      "aiSensingTemplate": "DefaultTemplate",
      "forceCombatOnSpawn": true,
      "reuseNotRemoveAbilityTag": "",
      "enterCombatTemplate": ""
    },
    {
      "groupId": 220165006,
      "mapInstId": 6003,
      "aiGroupID": 220165006,
      "overrideDefendAreaRange": true,
      "defendAreaRange": 199.0,
      "overrideForceAlertDistance": true,
      "forceAlertDistanceLimit": 199.0,
      "aiNeuronSetting": "DefaultSetting",
      "aiSensingTemplate": "DefaultTemplate",
      "forceCombatOnSpawn": true,
      "reuseNotRemoveAbilityTag": "",
      "enterCombatTemplate": ""
    },
    {
      "groupId": 220165006,
      "mapInstId": 6004,
      "aiGroupID": 220165006,
      "overrideDefendAreaRange": true,
      "defendAreaRange": 199.0,
      "overrideForceAlertDistance": true,
      "forceAlertDistanceLimit": 199.0,
      "aiNeuronSetting": "DefaultSetting",
      "aiSensingTemplate": "DefaultTemplate",
      "forceCombatOnSpawn": true,
      "reuseNotRemoveAbilityTag": "",
      "enterCombatTemplate": ""
    },
    {
      "groupId": 220165006,
      "mapInstId": 6009,
      "aiGroupID": 220165006,
      "overrideDefendAreaRange": true,
      "defendAreaRange": 199.0,
      "overrideForceAlertDistance": true,
      "forceAlertDistanceLimit": 199.0,
      "aiNeuronSetting": "DefaultSetting",
      "aiSensingTemplate": "DefaultTemplate",
      "forceCombatOnSpawn": true,
      "reuseNotRemoveAbilityTag": "",
      "enterCombatTemplate": ""
    },
    {
      "groupId": 220165007,
      "mapInstId": 7001,
      "aiGroupID": 220165007,
      "overrideDefendAreaRange": true,
      "defendAreaRange": 199.0,
      "overrideForceAlertDistance": true,
      "forceAlertDistanceLimit": 199.0,
      "aiNeuronSetting": "DefaultSetting",
      "aiSensingTemplate": "DefaultTemplate",
      "forceCombatOnSpawn": true,
      "reuseNotRemoveAbilityTag": "",
      "enterCombatTemplate": ""
    },
    {
      "groupId": 220165007,
      "mapInstId": 7002,
      "aiGroupID": 220165007,
      "overrideDefendAreaRange": true,
      "defendAreaRange": 199.0,
      "overrideForceAlertDistance": true,
      "forceAlertDistanceLimit": 199.0,
      "aiNeuronSetting": "DefaultSetting",
      "aiSensingTemplate": "DefaultTemplate",
      "forceCombatOnSpawn": true,
      "reuseNotRemoveAbilityTag": "",
      "enterCombatTemplate": ""
    },
    {
      "groupId": 220165007,
      "mapInstId": 7003,
      "aiGroupID": 220165007,
      "overrideDefendAreaRange": true,
      "defendAreaRange": 199.0,
      "overrideForceAlertDistance": true,
      "forceAlertDistanceLimit": 199.0,
      "aiNeuronSetting": "DefaultSetting",
      "aiSensingTemplate": "DefaultTemplate",
      "forceCombatOnSpawn": true,
      "reuseNotRemoveAbilityTag": "",
      "enterCombatTemplate": ""
    },
    {
      "groupId": 220165007,
      "mapInstId": 7004,
      "aiGroupID": 220165007,
      "overrideDefendAreaRange": true,
      "defendAreaRange": 199.0,
      "overrideForceAlertDistance": true,
      "forceAlertDistanceLimit": 199.0,
      "aiNeuronSetting": "DefaultSetting",
      "aiSensingTemplate": "DefaultTemplate",
      "forceCombatOnSpawn": true,
      "reuseNotRemoveAbilityTag": "",
      "enterCombatTemplate": ""
    },
    {
      "groupId": 220165007,
      "mapInstId": 7005,
      "aiGroupID": 220165007,
      "overrideDefendAreaRange": true,
      "defendAreaRange": 199.0,
      "overrideForceAlertDistance": true,
      "forceAlertDistanceLimit": 199.0,
      "aiNeuronSetting": "DefaultSetting",
      "aiSensingTemplate": "DefaultTemplate",
      "forceCombatOnSpawn": true,
      "reuseNotRemoveAbilityTag": "",
      "enterCombatTemplate": ""
    },
    {
      "groupId": 220165007,
      "mapInstId": 7006,
      "aiGroupID": 220165007,
      "overrideDefendAreaRange": true,
      "defendAreaRange": 199.0,
      "overrideForceAlertDistance": true,
      "forceAlertDistanceLimit": 199.0,
      "aiNeuronSetting": "DefaultSetting",
      "aiSensingTemplate": "DefaultTemplate",
      "forceCombatOnSpawn": true,
      "reuseNotRemoveAbilityTag": "",
      "enterCombatTemplate": ""
    },
    {
      "groupId": 220165007,
      "mapInstId": 7007,
      "aiGroupID": 220165007,
      "overrideDefendAreaRange": true,
      "defendAreaRange": 199.0,
      "overrideForceAlertDistance": true,
      "forceAlertDistanceLimit": 199.0,
      "aiNeuronSetting": "DefaultSetting",
      "aiSensingTemplate": "DefaultTemplate",
      "forceCombatOnSpawn": true,
      "reuseNotRemoveAbilityTag": "",
      "enterCombatTemplate": ""
    },
    {
      "groupId": 220165007,
      "mapInstId": 7008,
      "aiGroupID": 220165007,
      "overrideDefendAreaRange": true,
      "defendAreaRange": 199.0,
      "overrideForceAlertDistance": true,
      "forceAlertDistanceLimit": 199.0,
      "aiNeuronSetting": "DefaultSetting",
      "aiSensingTemplate": "DefaultTemplate",
      "forceCombatOnSpawn": true,
      "reuseNotRemoveAbilityTag": "",
      "enterCombatTemplate": ""
    },
    {
      "groupId": 220165007,
      "mapInstId": 7010,
      "aiGroupID": 220165007,
      "overrideDefendAreaRange": true,
      "defendAreaRange": 199.0,
      "overrideForceAlertDistance": true,
      "forceAlertDistanceLimit": 199.0,
      "aiNeuronSetting": "DefaultSetting",
      "aiSensingTemplate": "DefaultTemplate",
      "forceCombatOnSpawn": true,
      "reuseNotRemoveAbilityTag": "",
      "enterCombatTemplate": ""
    },
    {
      "groupId": 220165007,
      "mapInstId": 7011,
      "aiGroupID": 220165007,
      "overrideDefendAreaRange": true,
      "defendAreaRange": 199.0,
      "overrideForceAlertDistance": true,
      "forceAlertDistanceLimit": 199.0,
      "aiNeuronSetting": "DefaultSetting",
      "aiSensingTemplate": "DefaultTemplate",
      "forceCombatOnSpawn": true,
      "reuseNotRemoveAbilityTag": "",
      "enterCombatTemplate": ""
    },
    {
      "groupId": 220165007,
      "mapInstId": 7014,
      "aiGroupID": 220165007,
      "overrideDefendAreaRange": true,
      "defendAreaRange": 199.0,
      "overrideForceAlertDistance": true,
      "forceAlertDistanceLimit": 199.0,
      "aiNeuronSetting": "DefaultSetting",
      "aiSensingTemplate": "DefaultTemplate",
      "forceCombatOnSpawn": true,
      "reuseNotRemoveAbilityTag": "",
      "enterCombatTemplate": ""
    },
    {
      "groupId": 220165007,
      "mapInstId": 7015,
      "aiGroupID": 220165007,
      "overrideDefendAreaRange": true,
      "defendAreaRange": 199.0,
      "overrideForceAlertDistance": true,
      "forceAlertDistanceLimit": 199.0,
      "aiNeuronSetting": "DefaultSetting",
      "aiSensingTemplate": "DefaultTemplate",
      "forceCombatOnSpawn": true,
      "reuseNotRemoveAbilityTag": "",
      "enterCombatTemplate": ""
    },
    {
      "groupId": 220165007,
      "mapInstId": 7016,
      "aiGroupID": 220165007,
      "overrideDefendAreaRange": true,
      "defendAreaRange": 199.0,
      "overrideForceAlertDistance": true,
      "forceAlertDistanceLimit": 199.0,
      "aiNeuronSetting": "DefaultSetting",
      "aiSensingTemplate": "DefaultTemplate",
      "forceCombatOnSpawn": true,
      "reuseNotRemoveAbilityTag": "",
      "enterCombatTemplate": ""
    },
    {
      "groupId": 220165007,
      "mapInstId": 7017,
      "aiGroupID": 220165007,
      "overrideDefendAreaRange": true,
      "defendAreaRange": 199.0,
      "overrideForceAlertDistance": true,
      "forceAlertDistanceLimit": 199.0,
      "aiNeuronSetting": "DefaultSetting",
      "aiSensingTemplate": "DefaultTemplate",
      "forceCombatOnSpawn": true,
      "reuseNotRemoveAbilityTag": "",
      "enterCombatTemplate": ""
    },
    {
      "groupId": 220165007,
      "mapInstId": 7018,
      "aiGroupID": 220165007,
      "overrideDefendAreaRange": true,
      "defendAreaRange": 199.0,
      "overrideForceAlertDistance": true,
      "forceAlertDistanceLimit": 199.0,
      "aiNeuronSetting": "DefaultSetting",
      "aiSensingTemplate": "DefaultTemplate",
      "forceCombatOnSpawn": true,
      "reuseNotRemoveAbilityTag": "",
      "enterCombatTemplate": ""
    }
  ]
}