{
  "sceneId": 50024,
  "monsters": [
    {
      "groupId": 250024003,
      "mapInstId": 3004,
      "aiGroupID": 250024003,
      "aiNeuronSetting": "DefaultSetting",
      "aiSensingTemplate": "DefaultTemplate",
      "forceCombatOnSpawn": true,
      "reuseNotRemoveAbilityTag": "",
      "enterCombatTemplate": ""
    },
    {
      "groupId": 250024003,
      "mapInstId": 3005,
      "aiGroupID": 250024003,
      "aiNeuronSetting": "DefaultSetting",
      "aiSensingTemplate": "DefaultTemplate",
      "forceCombatOnSpawn": true,
      "reuseNotRemoveAbilityTag": "",
      "enterCombatTemplate": ""
    }
  ]
}