{
  "sceneId": 40789,
  "monsters": [
    {
      "groupId": 240789002,
      "mapInstId": 2004,
      "aiGroupID": 240789002,
      "overrideDefendAreaRange": true,
      "defendAreaRange": 999.0,
      "aiNeuronSetting": "DefaultSetting",
      "aiSensingTemplate": "DefaultTemplate",
      "forceCombatOnSpawn": true,
      "disableWander": true,
      "reuseNotRemoveAbilityTag": "",
      "enterCombatTemplate": ""
    },
    {
      "groupId": 240789002,
      "mapInstId": 2007,
      "aiGroupID": 240789002,
      "overrideDefendAreaRange": true,
      "defendAreaRange": 999.0,
      "aiNeuronSetting": "DefaultSetting",
      "aiSensingTemplate": "DefaultTemplate",
      "forceCombatOnSpawn": true,
      "disableWander": true,
      "reuseNotRemoveAbilityTag": "",
      "enterCombatTemplate": ""
    },
    {
      "groupId": 240789002,
      "mapInstId": 2008,
      "aiGroupID": 240789002,
      "overrideDefendAreaRange": true,
      "defendAreaRange": 999.0,
      "aiNeuronSetting": "DefaultSetting",
      "aiSensingTemplate": "DefaultTemplate",
      "forceCombatOnSpawn": true,
      "disableWander": true,
      "reuseNotRemoveAbilityTag": "",
      "enterCombatTemplate": ""
    },
    {
      "groupId": 240789002,
      "mapInstId": 2010,
      "aiGroupID": 240789002,
      "overrideDefendAreaRange": true,
      "defendAreaRange": 999.0,
      "aiNeuronSetting": "DefaultSetting",
      "aiSensingTemplate": "DefaultTemplate",
      "forceCombatOnSpawn": true,
      "disableWander": true,
      "reuseNotRemoveAbilityTag": "",
      "enterCombatTemplate": ""
    },
    {
      "groupId": 240789002,
      "mapInstId": 2011,
      "aiGroupID": 240789002,
      "overrideDefendAreaRange": true,
      "defendAreaRange": 999.0,
      "aiNeuronSetting": "DefaultSetting",
      "aiSensingTemplate": "DefaultTemplate",
      "forceCombatOnSpawn": true,
      "disableWander": true,
      "reuseNotRemoveAbilityTag": "",
      "enterCombatTemplate": ""
    },
    {
      "groupId": 240789002,
      "mapInstId": 2014,
      "aiGroupID": 240789002,
      "overrideDefendAreaRange": true,
      "defendAreaRange": 999.0,
      "aiNeuronSetting": "DefaultSetting",
      "aiSensingTemplate": "DefaultTemplate",
      "forceCombatOnSpawn": true,
      "disableWander": true,
      "reuseNotRemoveAbilityTag": "",
      "enterCombatTemplate": ""
    },
    {
      "groupId": 240789002,
      "mapInstId": 2019,
      "aiGroupID": 240789002,
      "overrideDefendAreaRange": true,
      "defendAreaRange": 999.0,
      "aiNeuronSetting": "DefaultSetting",
      "aiSensingTemplate": "DefaultTemplate",
      "forceCombatOnSpawn": true,
      "disableWander": true,
      "reuseNotRemoveAbilityTag": "",
      "enterCombatTemplate": ""
    },
    {
      "groupId": 240789002,
      "mapInstId": 2020,
      "aiGroupID": 240789002,
      "overrideDefendAreaRange": true,
      "defendAreaRange": 999.0,
      "aiNeuronSetting": "DefaultSetting",
      "aiSensingTemplate": "DefaultTemplate",
      "forceCombatOnSpawn": true,
      "disableWander": true,
      "reuseNotRemoveAbilityTag": "",
      "enterCombatTemplate": ""
    },
    {
      "groupId": 240789002,
      "mapInstId": 2021,
      "aiGroupID": 240789002,
      "overrideDefendAreaRange": true,
      "defendAreaRange": 999.0,
      "aiNeuronSetting": "DefaultSetting",
      "aiSensingTemplate": "DefaultTemplate",
      "forceCombatOnSpawn": true,
      "disableWander": true,
      "reuseNotRemoveAbilityTag": "",
      "enterCombatTemplate": ""
    },
    {
      "groupId": 240789002,
      "mapInstId": 2023,
      "aiGroupID": 240789002,
      "overrideDefendAreaRange": true,
      "defendAreaRange": 999.0,
      "aiNeuronSetting": "DefaultSetting",
      "aiSensingTemplate": "DefaultTemplate",
      "forceCombatOnSpawn": true,
      "disableWander": true,
      "reuseNotRemoveAbilityTag": "",
      "enterCombatTemplate": ""
    }
  ]
}