{
  "luaDataPath": "",
  "startBlackKeepTime": 0.5,
  "entityBan": "",
  "disableNpcLod": true,
  "isAutoBanNpc": true,
  "isBanWidgetPet": true,
  "protectNpcMobileLod": true,
  "startFade": {
    "startFadeInDuration": 0.5,
    "startFadeOutDuration": 0.5
  },
  "endFade": {
    "startFadeOutDuration": 0.0
  },
  "actors": [
    {
      "alias": "Avatar",
      "visible": true,
      "bornPointName": "T7305523_N10000005",
      "relativePosType": "AVATAR_NEW",
      "relativePosNpcAlias": "",
      "_bindMovingTargetKey": ""
    },
    {
      "configID": 1005,
      "alias": "1005",
      "visible": true,
      "bornPointName": "T7305523_N1005",
      "removeActorType": "REMOVE_WITH_DISAPPEAR",
      "relativePosType": "AVATAR_NEW",
      "relativePosNpcAlias": "",
      "_bindMovingTargetKey": ""
    },
    {
      "configID": 4218,
      "alias": "4218",
      "visible": true,
      "bornPointName": "T7305523_N4218",
      "forceCreateDaily": true,
      "relativePosType": "AVATAR_NEW",
      "relativePosNpcAlias": "",
      "_bindMovingTargetKey": ""
    },
    {
      "configID": 20722,
      "alias": "20722",
      "visible": true,
      "bornPointName": "T7305523_N20722",
      "relativePosType": "AVATAR_NEW",
      "relativePosNpcAlias": "",
      "_bindMovingTargetKey": ""
    },
    {
      "configID": 20724,
      "alias": "20724",
      "visible": true,
      "bornPointName": "T7305523_N20724",
      "relativePosType": "AVATAR_NEW",
      "relativePosNpcAlias": "",
      "_bindMovingTargetKey": ""
    },
    {
      "configID": 20723,
      "alias": "20723",
      "visible": true,
      "bornPointName": "T7305523_N20723",
      "relativePosType": "AVATAR_NEW",
      "relativePosNpcAlias": "",
      "_bindMovingTargetKey": ""
    }
  ],
  "group": [
    [
      {
        "$type": "MoleMole.Config.ConfigTimeProtectAction",
        "type": "TIME_PROTECT",
        "duration": 0.10000000149011612,
        "actionId": 104
      },
      {
        "$type": "MoleMole.Config.ConfigBlackScreenAction",
        "type": "BLACK_SCREEN",
        "actionId": 131,
        "blackScreenType": "KEEP_BLACK",
        "durationKeepBlack": 0.5,
        "inteePos": "",
        "textMapID": "",
        "useTextFade": true
      },
      {
        "$type": "MoleMole.Config.ConfigTeleportToAction",
        "type": "TELEPORT_TO",
        "aliasList": [
          "Avatar"
        ],
        "actionId": 137,
        "position": {
          "x": -1491.5439453125,
          "y": 89.9219970703125,
          "z": 4439.6328125
        },
        "forward": {
          "x": -0.5490000247955322,
          "z": -2.934000015258789
        },
        "openLongDisTeleport": true,
        "_posBindMovingTargetKey": "",
        "_forwardBindMovingTargetKey": ""
      },
      {
        "$type": "MoleMole.Config.ConfigTeleportToAction",
        "type": "TELEPORT_TO",
        "aliasList": [
          "1005"
        ],
        "actionId": 138,
        "position": {
          "x": -1492.43505859375,
          "y": 89.9219970703125,
          "z": 4438.89404296875
        },
        "forward": {
          "x": -0.3840000033378601,
          "z": -2.2200000286102295
        },
        "openLongDisTeleport": true,
        "_posBindMovingTargetKey": "",
        "_forwardBindMovingTargetKey": ""
      },
      {
        "$type": "MoleMole.Config.ConfigTeleportToAction",
        "type": "TELEPORT_TO",
        "aliasList": [
          "4218"
        ],
        "actionId": 141,
        "position": {
          "x": -1493.135009765625,
          "y": 89.9219970703125,
          "z": 4438.72705078125
        },
        "forward": {
          "x": -0.5709999799728394,
          "z": -3.6419999599456787
        },
        "openLongDisTeleport": true,
        "_posBindMovingTargetKey": "",
        "_forwardBindMovingTargetKey": ""
      },
      {
        "$type": "MoleMole.Config.ConfigTeleportToAction",
        "type": "TELEPORT_TO",
        "aliasList": [
          "20722"
        ],
        "actionId": 142,
        "position": {
          "x": -1490.5830078125,
          "y": 89.9219970703125,
          "z": 4439.130859375
        },
        "forward": {
          "x": -0.6380000114440918,
          "z": -4.441999912261963
        },
        "openLongDisTeleport": true,
        "_posBindMovingTargetKey": "",
        "_forwardBindMovingTargetKey": ""
      },
      {
        "$type": "MoleMole.Config.ConfigTeleportToAction",
        "type": "TELEPORT_TO",
        "aliasList": [
          "20724"
        ],
        "actionId": 143,
        "position": {
          "x": -1489.156005859375,
          "y": 90.04499816894531,
          "z": 4438.02880859375
        },
        "forward": {
          "x": -1.1970000267028809,
          "y": -0.12300000339746475,
          "z": -7.209000110626221
        },
        "openLongDisTeleport": true,
        "_posBindMovingTargetKey": "",
        "_forwardBindMovingTargetKey": ""
      },
      {
        "$type": "MoleMole.Config.ConfigTeleportToAction",
        "type": "TELEPORT_TO",
        "aliasList": [
          "20723"
        ],
        "actionId": 144,
        "position": {
          "x": -1490.0789794921875,
          "y": 89.9219970703125,
          "z": 4437.93212890625
        },
        "forward": {
          "x": -1.0379999876022339,
          "y": 1.0,
          "z": -5.974999904632568
        },
        "openLongDisTeleport": true,
        "_posBindMovingTargetKey": "",
        "_forwardBindMovingTargetKey": ""
      },
      {
        "$type": "MoleMole.Config.ConfigMoveToAction",
        "type": "MOVE_TO",
        "delayTime": 0.10000000149011612,
        "aliasList": [
          "Avatar"
        ],
        "actionId": 139,
        "moveType": "WALK",
        "routeList": [
          {
            "x": -1491.97900390625,
            "y": 89.9219970703125,
            "z": 4437.56298828125
          }
        ],
        "exactlyMove": true,
        "_bindMovingTargetKey": ""
      },
      {
        "$type": "MoleMole.Config.ConfigMoveToAction",
        "type": "MOVE_TO",
        "delayTime": 0.10000000149011612,
        "aliasList": [
          "1005"
        ],
        "actionId": 140,
        "moveType": "WALK",
        "routeList": [
          {
            "x": -1492.7320556640625,
            "y": 89.9219970703125,
            "z": 4437.55908203125
          }
        ],
        "exactlyMove": true,
        "_bindMovingTargetKey": ""
      },
      {
        "$type": "MoleMole.Config.ConfigMoveToAction",
        "type": "MOVE_TO",
        "delayTime": 0.11599999666213989,
        "aliasList": [
          "20724"
        ],
        "actionId": 148,
        "moveType": "DIRECT",
        "routeList": [
          {
            "x": -1489.384033203125,
            "y": 90.04499816894531,
            "z": 4435.90380859375
          }
        ],
        "closeNavMesh": true,
        "directMoveSpeed": 1.0,
        "_bindMovingTargetKey": ""
      },
      {
        "$type": "MoleMole.Config.ConfigMoveToAction",
        "type": "MOVE_TO",
        "delayTime": 0.11599999666213989,
        "aliasList": [
          "20723"
        ],
        "actionId": 147,
        "moveType": "WALK",
        "routeList": [
          {
            "x": -1490.655029296875,
            "y": 89.9219970703125,
            "z": 4434.2451171875
          }
        ],
        "exactlyMove": true,
        "_bindMovingTargetKey": ""
      },
      {
        "$type": "MoleMole.Config.ConfigMoveToAction",
        "type": "MOVE_TO",
        "delayTime": 0.17399999499320984,
        "aliasList": [
          "20722"
        ],
        "actionId": 146,
        "moveType": "WALK",
        "routeList": [
          {
            "x": -1490.529052734375,
            "y": 89.9219970703125,
            "z": 4437.54296875
          }
        ],
        "exactlyMove": true,
        "_bindMovingTargetKey": ""
      },
      {
        "$type": "MoleMole.Config.ConfigMoveToAction",
        "type": "MOVE_TO",
        "delayTime": 0.20000000298023224,
        "aliasList": [
          "4218"
        ],
        "actionId": 145,
        "moveType": "WALK",
        "routeList": [
          {
            "x": -1493.5009765625,
            "y": 89.9219970703125,
            "z": 4437.1298828125
          }
        ],
        "exactlyMove": true,
        "_bindMovingTargetKey": ""
      }
    ],
    [
      {
        "$type": "MoleMole.Config.ConfigBlackScreenAction",
        "type": "BLACK_SCREEN",
        "actionId": 132,
        "blackScreenType": "FROM_BLACK",
        "durationFromBlack": 0.5,
        "inteePos": "",
        "textMapID": "",
        "useTextFade": true
      },
      {
        "$type": "EFHODGEJOHJ",
        "type": "CAMERA_MOVE",
        "duration": 0.5,
        "actionId": 135,
        "camPosOffset": {
          "x": -1482.5379638671875,
          "y": 98.35399627685547,
          "z": 4417.0927734375
        },
        "camForwardTargetOffset": {
          "x": -1483.14599609375,
          "y": 98.07499694824219,
          "z": 4417.8359375
        },
        "camFov": 35.0,
        "lerpPattern": 6,
        "cameraBlendType": "EaseInOutCubic",
        "MDKBPBJCMHH": {},
        "needZAxisRotate": true,
        "openCameraDither": false,
        "targetNpcAlias": "",
        "closeTreeLeafDither": true,
        "PHGBNNGCJKJ": "",
        "NFILMKCFHEB": "",
        "BGPNGHDAECF": ""
      },
      {
        "$type": "MJFAIFFAGOF",
        "type": "DIALOG",
        "aliasList": [
          "1005"
        ],
        "actionId": 107,
        "dialogID": 730552301,
        "protectTime": 3.0
      },
      {
        "$type": "EFHODGEJOHJ",
        "type": "CAMERA_MOVE",
        "delayTime": 0.10000000149011612,
        "duration": 10.225000381469727,
        "actionId": 136,
        "camPosOffset": {
          "x": -1482.218017578125,
          "y": 98.38800048828125,
          "z": 4417.3681640625
        },
        "camForwardTargetOffset": {
          "x": -1482.8260498046875,
          "y": 98.10900115966797,
          "z": 4418.11181640625
        },
        "camFov": 35.0,
        "cameraBlendType": "EaseOutQuad",
        "MDKBPBJCMHH": {},
        "needZAxisRotate": true,
        "openCameraDither": false,
        "targetNpcAlias": "",
        "closeTreeLeafDither": true,
        "PHGBNNGCJKJ": "",
        "NFILMKCFHEB": "",
        "BGPNGHDAECF": ""
      },
      {
        "$type": "NPCNMEOCADD",
        "type": "LOOK_AT",
        "delayTime": 0.9409999847412109,
        "aliasList": [
          "20723"
        ],
        "actionId": 161,
        "enableHead": true,
        "useTargetPos": true,
        "enableAbsolute": true,
        "targetPosition": {
          "x": -1496.06298828125,
          "y": 91.20700073242188,
          "z": 4435.373046875
        },
        "headTurnTime": 0.5,
        "targetNpcAlias": "",
        "lookAtTargetType": "NONE",
        "openBackProtect": true,
        "targetNpcLookAtPoint": "",
        "BHGPHGNFCBF": ""
      },
      {
        "$type": "NPCNMEOCADD",
        "type": "LOOK_AT",
        "delayTime": 1.0140000581741333,
        "aliasList": [
          "Avatar"
        ],
        "actionId": 155,
        "enableHead": true,
        "useTargetPos": true,
        "enableAbsolute": true,
        "targetPosition": {
          "x": -1491.43798828125,
          "y": 91.20700073242188,
          "z": 4434.2890625
        },
        "headTurnTime": 0.5,
        "targetNpcAlias": "",
        "lookAtTargetType": "NONE",
        "openBackProtect": true,
        "targetNpcLookAtPoint": "",
        "BHGPHGNFCBF": ""
      },
      {
        "$type": "NPCNMEOCADD",
        "type": "LOOK_AT",
        "delayTime": 1.3029999732971191,
        "aliasList": [
          "20722"
        ],
        "actionId": 159,
        "enableHead": true,
        "useTargetPos": true,
        "enableAbsolute": true,
        "targetPosition": {
          "x": -1488.4739990234375,
          "y": 91.20700073242188,
          "z": 4434.18896484375
        },
        "headTurnTime": 0.5,
        "targetNpcAlias": "",
        "lookAtTargetType": "NONE",
        "openBackProtect": true,
        "targetNpcLookAtPoint": "",
        "BHGPHGNFCBF": ""
      },
      {
        "$type": "NPCNMEOCADD",
        "type": "LOOK_AT",
        "delayTime": 1.534000039100647,
        "aliasList": [
          "1005"
        ],
        "actionId": 149,
        "enableHead": true,
        "useTargetPos": true,
        "enableAbsolute": true,
        "targetPosition": {
          "x": -1494.375,
          "y": 91.20700073242188,
          "z": 4435.708984375
        },
        "headTurnTime": 0.5,
        "targetNpcAlias": "",
        "lookAtTargetType": "NONE",
        "openBackProtect": true,
        "targetNpcLookAtPoint": "",
        "BHGPHGNFCBF": ""
      },
      {
        "$type": "IEKHMHNHENB",
        "type": "STEER_TO",
        "delayTime": 1.7799999713897705,
        "duration": 1.0,
        "aliasList": [
          "1005"
        ],
        "actionId": 150,
        "steerType": "ABSOLUTE",
        "steerDir": {
          "x": -1493.989013671875,
          "y": 90.08200073242188,
          "z": 4436.64111328125
        },
        "targetNpcAlias": "",
        "BHGPHGNFCBF": ""
      },
      {
        "$type": "NPCNMEOCADD",
        "type": "LOOK_AT",
        "delayTime": 1.8240000009536743,
        "aliasList": [
          "4218"
        ],
        "actionId": 156,
        "enableHead": true,
        "useTargetPos": true,
        "enableAbsolute": true,
        "targetPosition": {
          "x": -1490.925048828125,
          "y": 91.20700073242188,
          "z": 4434.69921875
        },
        "headTurnTime": 0.5,
        "targetNpcAlias": "",
        "lookAtTargetType": "NONE",
        "openBackProtect": true,
        "targetNpcLookAtPoint": "",
        "BHGPHGNFCBF": ""
      },
      {
        "$type": "NPCNMEOCADD",
        "type": "LOOK_AT",
        "delayTime": 3.8350000381469727,
        "aliasList": [
          "Avatar"
        ],
        "actionId": 154,
        "enableHead": true,
        "useTargetPos": true,
        "enableAbsolute": true,
        "targetPosition": {
          "x": -1494.375,
          "y": 91.20700073242188,
          "z": 4435.708984375
        },
        "headTurnTime": 0.5,
        "targetNpcAlias": "",
        "lookAtTargetType": "NONE",
        "openBackProtect": true,
        "targetNpcLookAtPoint": "",
        "BHGPHGNFCBF": ""
      },
      {
        "$type": "NPCNMEOCADD",
        "type": "LOOK_AT",
        "delayTime": 4.0370001792907715,
        "aliasList": [
          "20723"
        ],
        "actionId": 162,
        "enableHead": true,
        "useTargetPos": true,
        "enableAbsolute": true,
        "targetPosition": {
          "x": -1489.824951171875,
          "y": 91.20700073242188,
          "z": 4432.05419921875
        },
        "headTurnTime": 0.5,
        "targetNpcAlias": "",
        "lookAtTargetType": "NONE",
        "openBackProtect": true,
        "targetNpcLookAtPoint": "",
        "BHGPHGNFCBF": ""
      },
      {
        "$type": "NPCNMEOCADD",
        "type": "LOOK_AT",
        "delayTime": 4.514999866485596,
        "aliasList": [
          "20722"
        ],
        "actionId": 160,
        "enableHead": true,
        "useTargetPos": true,
        "enableAbsolute": true,
        "targetPosition": {
          "x": -1496.06298828125,
          "y": 91.20700073242188,
          "z": 4435.373046875
        },
        "headTurnTime": 0.5,
        "targetNpcAlias": "",
        "lookAtTargetType": "NONE",
        "openBackProtect": true,
        "targetNpcLookAtPoint": "",
        "BHGPHGNFCBF": ""
      },
      {
        "$type": "NPCNMEOCADD",
        "type": "LOOK_AT",
        "delayTime": 4.703000068664551,
        "aliasList": [
          "1005"
        ],
        "actionId": 152,
        "enableHead": true,
        "useTargetPos": true,
        "enableAbsolute": true,
        "targetPosition": {
          "x": -1491.43798828125,
          "y": 91.20700073242188,
          "z": 4434.2890625
        },
        "headTurnTime": 0.5,
        "targetNpcAlias": "",
        "lookAtTargetType": "NONE",
        "openBackProtect": true,
        "targetNpcLookAtPoint": "",
        "BHGPHGNFCBF": ""
      },
      {
        "$type": "IEKHMHNHENB",
        "type": "STEER_TO",
        "delayTime": 4.861999988555908,
        "duration": 1.0,
        "aliasList": [
          "1005"
        ],
        "actionId": 153,
        "steerType": "ABSOLUTE",
        "steerDir": {
          "x": -1491.759033203125,
          "y": 89.9219970703125,
          "z": 4435.52294921875
        },
        "targetNpcAlias": "",
        "BHGPHGNFCBF": ""
      },
      {
        "$type": "NPCNMEOCADD",
        "type": "LOOK_AT",
        "delayTime": 5.006999969482422,
        "aliasList": [
          "4218"
        ],
        "actionId": 157,
        "enableHead": true,
        "useTargetPos": true,
        "enableAbsolute": true,
        "targetPosition": {
          "x": -1496.529052734375,
          "y": 91.20700073242188,
          "z": 4434.5
        },
        "headTurnTime": 0.5,
        "targetNpcAlias": "",
        "lookAtTargetType": "NONE",
        "openBackProtect": true,
        "targetNpcLookAtPoint": "",
        "BHGPHGNFCBF": ""
      }
    ],
    [
      {
        "$type": "EFHODGEJOHJ",
        "type": "CAMERA_MOVE",
        "duration": 0.5,
        "actionId": 165,
        "camPosOffset": {
          "x": -1490.291015625,
          "y": 91.28700256347656,
          "z": 4436.40283203125
        },
        "camForwardTargetOffset": {
          "x": -1491.2139892578125,
          "y": 91.25299835205078,
          "z": 4436.7861328125
        },
        "camFov": 25.0,
        "lerpPattern": 6,
        "cameraBlendType": "EaseInOutCubic",
        "MDKBPBJCMHH": {},
        "needZAxisRotate": true,
        "openCameraDither": false,
        "targetNpcAlias": "",
        "closeTreeLeafDither": true,
        "PHGBNNGCJKJ": "",
        "NFILMKCFHEB": "",
        "BGPNGHDAECF": ""
      },
      {
        "$type": "MoleMole.Config.ConfigTeleportToAction",
        "type": "TELEPORT_TO",
        "aliasList": [
          "Avatar"
        ],
        "actionId": 211,
        "position": {
          "x": -1491.97900390625,
          "y": 89.9219970703125,
          "z": 4437.56298828125
        },
        "forward": {
          "x": -0.20600000023841858,
          "z": -0.9789999723434448
        },
        "openLongDisTeleport": true,
        "_posBindMovingTargetKey": "",
        "_forwardBindMovingTargetKey": ""
      },
      {
        "$type": "MoleMole.Config.ConfigTeleportToAction",
        "type": "TELEPORT_TO",
        "aliasList": [
          "1005"
        ],
        "actionId": 173,
        "position": {
          "x": -1492.7320556640625,
          "y": 89.9219970703125,
          "z": 4437.55908203125
        },
        "forward": {
          "x": 0.029999999329447746,
          "z": -0.9890000224113464
        },
        "openLongDisTeleport": true,
        "_posBindMovingTargetKey": "",
        "_forwardBindMovingTargetKey": ""
      },
      {
        "$type": "MJFAIFFAGOF",
        "type": "DIALOG",
        "aliasList": [
          "4218"
        ],
        "actionId": 109,
        "dialogID": 730552302,
        "protectTime": 0.5
      },
      {
        "$type": "IEKHMHNHENB",
        "type": "STEER_TO",
        "duration": 1.0,
        "aliasList": [
          "4218"
        ],
        "actionId": 163,
        "steerType": "ABSOLUTE",
        "steerDir": {
          "x": -1492.635009765625,
          "y": 89.9219970703125,
          "z": 4437.36279296875
        },
        "useSteerAnim": true,
        "interruptFreestyle": true,
        "forceSteer": true,
        "targetNpcAlias": "",
        "BHGPHGNFCBF": ""
      },
      {
        "$type": "MoleMole.Config.ConfigTeleportToAction",
        "type": "TELEPORT_TO",
        "aliasList": [
          "4218"
        ],
        "actionId": 164,
        "position": {
          "x": -1493.7049560546875,
          "y": 89.9219970703125,
          "z": 4437.02587890625
        },
        "forward": {
          "x": -0.14100000262260437,
          "z": -0.8399999737739563
        },
        "openLongDisTeleport": true,
        "_posBindMovingTargetKey": "",
        "_forwardBindMovingTargetKey": ""
      },
      {
        "$type": "NPCNMEOCADD",
        "type": "LOOK_AT",
        "aliasList": [
          "4218"
        ],
        "actionId": 171,
        "enableHead": true,
        "headTurnTime": 0.5,
        "targetNpcAlias": "1005",
        "targetNpcRotateVecPlus": {
          "x": 0.5519999861717224,
          "y": 350.6679992675781
        },
        "openBackProtect": true,
        "targetNpcLookAtPoint": "",
        "BHGPHGNFCBF": ""
      },
      {
        "$type": "EFHODGEJOHJ",
        "type": "CAMERA_MOVE",
        "delayTime": 0.10000000149011612,
        "duration": 23.128999710083008,
        "actionId": 176,
        "camPosOffset": {
          "x": -1490.343994140625,
          "y": 91.28299713134766,
          "z": 4436.27392578125
        },
        "camForwardTargetOffset": {
          "x": -1491.2669677734375,
          "y": 91.2490005493164,
          "z": 4436.6572265625
        },
        "camFov": 25.0,
        "cameraBlendType": "EaseOutQuad",
        "MDKBPBJCMHH": {},
        "needZAxisRotate": true,
        "openCameraDither": false,
        "targetNpcAlias": "",
        "closeTreeLeafDither": true,
        "PHGBNNGCJKJ": "",
        "NFILMKCFHEB": "",
        "BGPNGHDAECF": ""
      },
      {
        "$type": "NPCNMEOCADD",
        "type": "LOOK_AT",
        "delayTime": 0.2980000078678131,
        "aliasList": [
          "1005"
        ],
        "actionId": 174,
        "enableHead": true,
        "headTurnTime": 0.5,
        "targetNpcAlias": "4218",
        "openBackProtect": true,
        "targetNpcLookAtPoint": "",
        "BHGPHGNFCBF": ""
      },
      {
        "$type": "NPCNMEOCADD",
        "type": "LOOK_AT",
        "delayTime": 0.5009999871253967,
        "aliasList": [
          "Avatar"
        ],
        "actionId": 175,
        "enableHead": true,
        "headTurnTime": 0.5,
        "targetNpcAlias": "4218",
        "openBackProtect": true,
        "targetNpcLookAtPoint": "",
        "BHGPHGNFCBF": ""
      },
      {
        "$type": "EDCHPJLDKIN",
        "type": "BODY_LANG",
        "delayTime": 1.2769999504089355,
        "aliasList": [
          "4218"
        ],
        "actionId": 166,
        "bodyLangParam": 1171,
        "forceDoFreeStyle": true,
        "canDoRepeatFreeStyle": false,
        "cantBackToIdleWhenSitLoop": true,
        "eventPatternSuiteKey": ""
      },
      {
        "$type": "EDCHPJLDKIN",
        "type": "BODY_LANG",
        "delayTime": 2.7869999408721924,
        "aliasList": [
          "4218"
        ],
        "actionId": 168,
        "bodyLangParam": 4040,
        "forceDoFreeStyle": true,
        "canDoRepeatFreeStyle": false,
        "cantBackToIdleWhenSitLoop": true,
        "eventPatternSuiteKey": ""
      },
      {
        "$type": "EDCHPJLDKIN",
        "type": "BODY_LANG",
        "delayTime": 4.9710001945495605,
        "aliasList": [
          "4218"
        ],
        "actionId": 167,
        "bodyLangParam": 1190,
        "forceDoFreeStyle": true,
        "canDoRepeatFreeStyle": false,
        "cantBackToIdleWhenSitLoop": true,
        "eventPatternSuiteKey": ""
      },
      {
        "$type": "NPCNMEOCADD",
        "type": "LOOK_AT",
        "delayTime": 5.0289998054504395,
        "aliasList": [
          "4218"
        ],
        "actionId": 170,
        "headTurnTime": 0.5,
        "targetNpcAlias": "",
        "openBackProtect": true,
        "targetNpcLookAtPoint": "",
        "BHGPHGNFCBF": ""
      },
      {
        "$type": "EDCHPJLDKIN",
        "type": "BODY_LANG",
        "delayTime": 8.215999603271484,
        "aliasList": [
          "4218"
        ],
        "actionId": 179,
        "bodyLangParam": 4040,
        "forceDoFreeStyle": true,
        "canDoRepeatFreeStyle": false,
        "cantBackToIdleWhenSitLoop": true,
        "eventPatternSuiteKey": ""
      }
    ],
    [
      {
        "$type": "MJFAIFFAGOF",
        "type": "DIALOG",
        "aliasList": [
          "4218"
        ],
        "actionId": 111,
        "dialogID": 730552303,
        "protectTime": 5.0
      },
      {
        "$type": "EDCHPJLDKIN",
        "type": "BODY_LANG",
        "aliasList": [
          "4218"
        ],
        "actionId": 177,
        "isContinue": true,
        "forceDoFreeStyle": true,
        "canDoRepeatFreeStyle": false,
        "cantBackToIdleWhenSitLoop": true,
        "eventPatternSuiteKey": ""
      },
      {
        "$type": "NPCNMEOCADD",
        "type": "LOOK_AT",
        "aliasList": [
          "4218"
        ],
        "actionId": 193,
        "enableHead": true,
        "headTurnTime": 0.5,
        "targetNpcAlias": "Avatar",
        "openBackProtect": true,
        "targetNpcLookAtPoint": "",
        "BHGPHGNFCBF": ""
      },
      {
        "$type": "EDCHPJLDKIN",
        "type": "BODY_LANG",
        "delayTime": 0.3529999852180481,
        "aliasList": [
          "4218"
        ],
        "actionId": 178,
        "bodyLangParam": 1173,
        "forceDoFreeStyle": true,
        "canDoRepeatFreeStyle": false,
        "cantBackToIdleWhenSitLoop": true,
        "eventPatternSuiteKey": ""
      },
      {
        "$type": "IEKHMHNHENB",
        "type": "STEER_TO",
        "delayTime": 4.089000225067139,
        "duration": 1.0,
        "aliasList": [
          "4218"
        ],
        "actionId": 180,
        "steerType": "ABSOLUTE",
        "steerDir": {
          "x": -1493.822998046875,
          "y": 89.9219970703125,
          "z": 4435.97802734375
        },
        "useSteerAnim": true,
        "interruptFreestyle": true,
        "forceSteer": true,
        "targetNpcAlias": "",
        "BHGPHGNFCBF": ""
      },
      {
        "$type": "NPCNMEOCADD",
        "type": "LOOK_AT",
        "delayTime": 4.380000114440918,
        "aliasList": [
          "4218"
        ],
        "actionId": 183,
        "enableHead": true,
        "useTargetPos": true,
        "enableAbsolute": true,
        "targetPosition": {
          "x": -1495.114990234375,
          "y": 94.96299743652344,
          "z": 4422.60302734375
        },
        "headTurnTime": 0.5,
        "targetNpcAlias": "",
        "lookAtTargetType": "NONE",
        "openBackProtect": true,
        "targetNpcLookAtPoint": "",
        "BHGPHGNFCBF": ""
      },
      {
        "$type": "EFHODGEJOHJ",
        "type": "CAMERA_MOVE",
        "delayTime": 4.5,
        "duration": 0.5,
        "actionId": 181,
        "camPosOffset": {
          "x": -1495.31103515625,
          "y": 105.8239974975586,
          "z": 4387.97314453125
        },
        "camForwardTargetOffset": {
          "x": -1495.2550048828125,
          "y": 105.5250015258789,
          "z": 4388.92578125
        },
        "camFov": 20.0,
        "lerpPattern": 6,
        "cameraBlendType": "EaseInOutCubic",
        "MDKBPBJCMHH": {},
        "needZAxisRotate": true,
        "openCameraDither": false,
        "targetNpcAlias": "",
        "closeTreeLeafDither": true,
        "PHGBNNGCJKJ": "",
        "NFILMKCFHEB": "",
        "BGPNGHDAECF": ""
      },
      {
        "$type": "MoleMole.Config.ConfigTeleportToAction",
        "type": "TELEPORT_TO",
        "delayTime": 4.5,
        "aliasList": [
          "20722"
        ],
        "actionId": 192,
        "position": {
          "x": -1491.2110595703125,
          "y": 89.9219970703125,
          "z": 4436.798828125
        },
        "forward": {
          "x": -0.5709999799728394,
          "z": -1.6670000553131104
        },
        "openLongDisTeleport": true,
        "_posBindMovingTargetKey": "",
        "_forwardBindMovingTargetKey": ""
      },
      {
        "$type": "EFHODGEJOHJ",
        "type": "CAMERA_MOVE",
        "delayTime": 4.599999904632568,
        "duration": 7.835000038146973,
        "actionId": 182,
        "camPosOffset": {
          "x": -1495.373046875,
          "y": 106.15599822998047,
          "z": 4386.9169921875
        },
        "camForwardTargetOffset": {
          "x": -1495.3170166015625,
          "y": 105.85700225830078,
          "z": 4387.8701171875
        },
        "camFov": 20.0,
        "cameraBlendType": "EaseOutQuad",
        "MDKBPBJCMHH": {},
        "needZAxisRotate": true,
        "openCameraDither": false,
        "targetNpcAlias": "",
        "closeTreeLeafDither": true,
        "PHGBNNGCJKJ": "",
        "NFILMKCFHEB": "",
        "BGPNGHDAECF": ""
      },
      {
        "$type": "NPCNMEOCADD",
        "type": "LOOK_AT",
        "delayTime": 4.714000225067139,
        "aliasList": [
          "20722"
        ],
        "actionId": 186,
        "enableHead": true,
        "useTargetPos": true,
        "enableAbsolute": true,
        "targetPosition": {
          "x": -1492.625,
          "y": 95.23100280761719,
          "z": 4422.60302734375
        },
        "headTurnTime": 0.5,
        "targetNpcAlias": "",
        "lookAtTargetType": "NONE",
        "openBackProtect": true,
        "targetNpcLookAtPoint": "",
        "BHGPHGNFCBF": ""
      },
      {
        "$type": "NPCNMEOCADD",
        "type": "LOOK_AT",
        "delayTime": 4.736999988555908,
        "aliasList": [
          "1005"
        ],
        "actionId": 184,
        "enableHead": true,
        "useTargetPos": true,
        "enableAbsolute": true,
        "targetPosition": {
          "x": -1495.114990234375,
          "y": 94.96299743652344,
          "z": 4422.60302734375
        },
        "headTurnTime": 0.5,
        "targetNpcAlias": "",
        "lookAtTargetType": "NONE",
        "openBackProtect": true,
        "targetNpcLookAtPoint": "",
        "BHGPHGNFCBF": ""
      },
      {
        "$type": "NPCNMEOCADD",
        "type": "LOOK_AT",
        "delayTime": 4.914999961853027,
        "aliasList": [
          "Avatar"
        ],
        "actionId": 185,
        "enableHead": true,
        "useTargetPos": true,
        "enableAbsolute": true,
        "targetPosition": {
          "x": -1494.1949462890625,
          "y": 95.09100341796875,
          "z": 4422.60302734375
        },
        "headTurnTime": 0.5,
        "targetNpcAlias": "",
        "lookAtTargetType": "NONE",
        "openBackProtect": true,
        "targetNpcLookAtPoint": "",
        "BHGPHGNFCBF": ""
      },
      {
        "$type": "NPCNMEOCADD",
        "type": "LOOK_AT",
        "delayTime": 5.0269999504089355,
        "aliasList": [
          "20723"
        ],
        "actionId": 187,
        "enableHead": true,
        "useTargetPos": true,
        "enableAbsolute": true,
        "targetPosition": {
          "x": -1492.5789794921875,
          "y": 95.11900329589844,
          "z": 4422.20703125
        },
        "headTurnTime": 0.5,
        "targetNpcAlias": "",
        "lookAtTargetType": "NONE",
        "openBackProtect": true,
        "targetNpcLookAtPoint": "",
        "BHGPHGNFCBF": ""
      },
      {
        "$type": "EDCHPJLDKIN",
        "type": "BODY_LANG",
        "delayTime": 5.204999923706055,
        "aliasList": [
          "4218"
        ],
        "actionId": 191,
        "bodyLangParam": 1172,
        "forceDoFreeStyle": true,
        "canDoRepeatFreeStyle": false,
        "cantBackToIdleWhenSitLoop": true,
        "eventPatternSuiteKey": ""
      }
    ],
    [
      {
        "$type": "EFHODGEJOHJ",
        "type": "CAMERA_MOVE",
        "duration": 0.5,
        "actionId": 194,
        "camPosOffset": {
          "x": -1488.8699951171875,
          "y": 91.42500305175781,
          "z": 4452.64794921875
        },
        "camForwardTargetOffset": {
          "x": -1488.9959716796875,
          "y": 91.55000305175781,
          "z": 4451.6640625
        },
        "camFov": 35.0,
        "lerpPattern": 6,
        "cameraBlendType": "EaseInOutCubic",
        "MDKBPBJCMHH": {},
        "needZAxisRotate": true,
        "openCameraDither": false,
        "targetNpcAlias": "",
        "closeTreeLeafDither": true,
        "PHGBNNGCJKJ": "",
        "NFILMKCFHEB": "",
        "BGPNGHDAECF": ""
      },
      {
        "$type": "MoleMole.Config.ConfigTeleportToAction",
        "type": "TELEPORT_TO",
        "aliasList": [
          "20723"
        ],
        "actionId": 195,
        "position": {
          "x": -1490.364013671875,
          "y": 89.9219970703125,
          "z": 4435.9912109375
        },
        "forward": {
          "x": -0.2630000114440918,
          "z": -1.5670000314712524
        },
        "openLongDisTeleport": true,
        "_posBindMovingTargetKey": "",
        "_forwardBindMovingTargetKey": ""
      },
      {
        "$type": "MoleMole.Config.ConfigTeleportToAction",
        "type": "TELEPORT_TO",
        "aliasList": [
          "20724"
        ],
        "actionId": 196,
        "position": {
          "x": -1489.3780517578125,
          "y": 90.10800170898438,
          "z": 4436.27880859375
        },
        "forward": {
          "x": -0.17000000178813934,
          "y": -0.06300000101327896,
          "z": -1.3619999885559082
        },
        "openLongDisTeleport": true,
        "_posBindMovingTargetKey": "",
        "_forwardBindMovingTargetKey": ""
      },
      {
        "$type": "MoleMole.Config.ConfigTeleportToAction",
        "type": "TELEPORT_TO",
        "aliasList": [
          "4218"
        ],
        "actionId": 212,
        "position": {
          "x": -1493.7049560546875,
          "y": 89.9219970703125,
          "z": 4437.02587890625
        },
        "forward": {
          "x": -0.1120000034570694,
          "z": -0.9940000176429749
        },
        "openLongDisTeleport": true,
        "_posBindMovingTargetKey": "",
        "_forwardBindMovingTargetKey": ""
      },
      {
        "$type": "MJFAIFFAGOF",
        "type": "DIALOG",
        "aliasList": [
          "20722"
        ],
        "actionId": 113,
        "dialogID": 730552304,
        "protectTime": 7.0
      },
      {
        "$type": "MoleMole.Config.ConfigMoveToAction",
        "type": "MOVE_TO",
        "aliasList": [
          "20722"
        ],
        "actionId": 188,
        "moveType": "WALK",
        "routeList": [
          {
            "x": -1491.791015625,
            "y": 89.9219970703125,
            "z": 4435.1201171875
          }
        ],
        "exactlyMove": true,
        "_bindMovingTargetKey": ""
      },
      {
        "$type": "EFHODGEJOHJ",
        "type": "CAMERA_MOVE",
        "delayTime": 0.10000000149011612,
        "duration": 9.689000129699707,
        "actionId": 201,
        "camPosOffset": {
          "x": -1488.9010009765625,
          "y": 90.68099975585938,
          "z": 4452.55810546875
        },
        "camForwardTargetOffset": {
          "x": -1489.0269775390625,
          "y": 90.80599975585938,
          "z": 4451.57421875
        },
        "camFov": 35.0,
        "cameraBlendType": "EaseOutQuad",
        "MDKBPBJCMHH": {},
        "needZAxisRotate": true,
        "openCameraDither": false,
        "targetNpcAlias": "",
        "closeTreeLeafDither": true,
        "PHGBNNGCJKJ": "",
        "NFILMKCFHEB": "",
        "BGPNGHDAECF": ""
      },
      {
        "$type": "NPCNMEOCADD",
        "type": "LOOK_AT",
        "delayTime": 0.15600000321865082,
        "aliasList": [
          "1005"
        ],
        "actionId": 205,
        "enableHead": true,
        "headTurnTime": 0.5,
        "targetNpcAlias": "20722",
        "openBackProtect": true,
        "targetNpcLookAtPoint": "",
        "BHGPHGNFCBF": ""
      },
      {
        "$type": "NPCNMEOCADD",
        "type": "LOOK_AT",
        "delayTime": 0.2680000066757202,
        "aliasList": [
          "20723"
        ],
        "actionId": 203,
        "enableHead": true,
        "headTurnTime": 0.5,
        "targetNpcAlias": "20722",
        "openBackProtect": true,
        "targetNpcLookAtPoint": "",
        "BHGPHGNFCBF": ""
      },
      {
        "$type": "NPCNMEOCADD",
        "type": "LOOK_AT",
        "delayTime": 0.31299999356269836,
        "aliasList": [
          "Avatar"
        ],
        "actionId": 204,
        "enableHead": true,
        "headTurnTime": 0.5,
        "targetNpcAlias": "20722",
        "openBackProtect": true,
        "targetNpcLookAtPoint": "",
        "BHGPHGNFCBF": ""
      },
      {
        "$type": "NPCNMEOCADD",
        "type": "LOOK_AT",
        "delayTime": 0.33500000834465027,
        "aliasList": [
          "4218"
        ],
        "actionId": 206,
        "enableHead": true,
        "headTurnTime": 0.5,
        "targetNpcAlias": "20722",
        "openBackProtect": true,
        "targetNpcLookAtPoint": "",
        "BHGPHGNFCBF": ""
      },
      {
        "$type": "NPCNMEOCADD",
        "type": "LOOK_AT",
        "delayTime": 1.1130000352859497,
        "aliasList": [
          "20722"
        ],
        "actionId": 197,
        "enableHead": true,
        "useTargetPos": true,
        "enableAbsolute": true,
        "targetPosition": {
          "x": -1495.5679931640625,
          "y": 91.86199951171875,
          "z": 4432.537109375
        },
        "headTurnTime": 0.5,
        "targetNpcAlias": "",
        "lookAtTargetType": "NONE",
        "openBackProtect": true,
        "targetNpcLookAtPoint": "",
        "BHGPHGNFCBF": ""
      },
      {
        "$type": "NPCNMEOCADD",
        "type": "LOOK_AT",
        "delayTime": 3.2119998931884766,
        "aliasList": [
          "20722"
        ],
        "actionId": 198,
        "enableHead": true,
        "useTargetPos": true,
        "enableAbsolute": true,
        "targetPosition": {
          "x": -1490.404052734375,
          "y": 91.86199951171875,
          "z": 4430.626953125
        },
        "headTurnTime": 0.5,
        "targetNpcAlias": "",
        "lookAtTargetType": "NONE",
        "openBackProtect": true,
        "targetNpcLookAtPoint": "",
        "BHGPHGNFCBF": ""
      },
      {
        "$type": "IEKHMHNHENB",
        "type": "STEER_TO",
        "delayTime": 4.630000114440918,
        "duration": 1.0,
        "aliasList": [
          "20722"
        ],
        "actionId": 190,
        "steerType": "ABSOLUTE",
        "steerDir": {
          "x": -1491.8199462890625,
          "y": 89.9219970703125,
          "z": 4436.14111328125
        },
        "useSteerAnim": true,
        "interruptFreestyle": true,
        "forceSteer": true,
        "targetNpcAlias": "",
        "BHGPHGNFCBF": ""
      },
      {
        "$type": "NPCNMEOCADD",
        "type": "LOOK_AT",
        "delayTime": 5.043000221252441,
        "aliasList": [
          "20722"
        ],
        "actionId": 199,
        "enableHead": true,
        "headTurnTime": 0.5,
        "targetNpcAlias": "Avatar",
        "openBackProtect": true,
        "targetNpcLookAtPoint": "",
        "BHGPHGNFCBF": ""
      },
      {
        "$type": "MoleMole.Config.ConfigTeleportToAction",
        "type": "TELEPORT_TO",
        "delayTime": 5.199999809265137,
        "aliasList": [
          "4218"
        ],
        "actionId": 214,
        "position": {
          "x": -1493.625,
          "y": 89.9219970703125,
          "z": 4437.1318359375
        },
        "forward": {
          "x": 0.8019999861717224,
          "z": -0.5770000219345093
        },
        "openLongDisTeleport": true,
        "_posBindMovingTargetKey": "",
        "_forwardBindMovingTargetKey": ""
      },
      {
        "$type": "EFHODGEJOHJ",
        "type": "CAMERA_MOVE",
        "delayTime": 5.199999809265137,
        "duration": 0.5,
        "actionId": 202,
        "camPosOffset": {
          "x": -1488.6920166015625,
          "y": 92.15899658203125,
          "z": 4433.35400390625
        },
        "camForwardTargetOffset": {
          "x": -1489.428955078125,
          "y": 91.97100067138672,
          "z": 4434.0029296875
        },
        "camFov": 25.0,
        "lerpPattern": 6,
        "cameraBlendType": "EaseInOutCubic",
        "MDKBPBJCMHH": {},
        "needZAxisRotate": true,
        "openCameraDither": false,
        "targetNpcAlias": "",
        "closeTreeLeafDither": true,
        "PHGBNNGCJKJ": "",
        "NFILMKCFHEB": "",
        "BGPNGHDAECF": ""
      },
      {
        "$type": "EFHODGEJOHJ",
        "type": "CAMERA_MOVE",
        "delayTime": 5.300000190734863,
        "duration": 16.40399932861328,
        "actionId": 208,
        "camPosOffset": {
          "x": -1488.66796875,
          "y": 92.03900146484375,
          "z": 4433.34716796875
        },
        "camForwardTargetOffset": {
          "x": -1489.405029296875,
          "y": 91.85099792480469,
          "z": 4433.9970703125
        },
        "camFov": 25.0,
        "cameraBlendType": "EaseOutQuad",
        "MDKBPBJCMHH": {},
        "needZAxisRotate": true,
        "openCameraDither": false,
        "targetNpcAlias": "",
        "closeTreeLeafDither": true,
        "PHGBNNGCJKJ": "",
        "NFILMKCFHEB": "",
        "BGPNGHDAECF": ""
      },
      {
        "$type": "IEKHMHNHENB",
        "type": "STEER_TO",
        "delayTime": 5.763000011444092,
        "duration": 1.0,
        "aliasList": [
          "4218"
        ],
        "actionId": 210,
        "steerType": "ABSOLUTE",
        "steerDir": {
          "x": -1492.5660400390625,
          "y": 89.9219970703125,
          "z": 4436.4189453125
        },
        "useSteerAnim": true,
        "interruptFreestyle": true,
        "forceSteer": true,
        "targetNpcAlias": "",
        "BHGPHGNFCBF": ""
      },
      {
        "$type": "IEKHMHNHENB",
        "type": "STEER_TO",
        "delayTime": 6.13700008392334,
        "duration": 1.0,
        "aliasList": [
          "20723"
        ],
        "actionId": 207,
        "steerType": "ABSOLUTE",
        "steerDir": {
          "x": -1491.2850341796875,
          "y": 89.9219970703125,
          "z": 4436.10791015625
        },
        "useSteerAnim": true,
        "interruptFreestyle": true,
        "forceSteer": true,
        "targetNpcAlias": "",
        "BHGPHGNFCBF": ""
      }
    ],
    [
      {
        "$type": "EFHODGEJOHJ",
        "type": "CAMERA_MOVE",
        "duration": 0.5,
        "actionId": 215,
        "camPosOffset": {
          "x": -1491.126953125,
          "y": 91.45899963378906,
          "z": 4435.8681640625
        },
        "camForwardTargetOffset": {
          "x": -1491.720947265625,
          "y": 91.34500122070312,
          "z": 4436.6640625
        },
        "camFov": 20.0,
        "lerpPattern": 6,
        "cameraBlendType": "EaseInOutCubic",
        "MDKBPBJCMHH": {},
        "needZAxisRotate": true,
        "openCameraDither": false,
        "targetNpcAlias": "",
        "closeTreeLeafDither": true,
        "PHGBNNGCJKJ": "",
        "NFILMKCFHEB": "",
        "BGPNGHDAECF": ""
      },
      {
        "$type": "MJFAIFFAGOF",
        "type": "DIALOG",
        "aliasList": [
          "1005"
        ],
        "actionId": 115,
        "dialogID": 730552305,
        "protectTime": 0.5
      },
      {
        "$type": "EDCHPJLDKIN",
        "type": "BODY_LANG",
        "aliasList": [
          "1005"
        ],
        "actionId": 216,
        "bodyLangParam": 1300,
        "forceDoFreeStyle": true,
        "canDoRepeatFreeStyle": false,
        "cantBackToIdleWhenSitLoop": true,
        "eventPatternSuiteKey": ""
      },
      {
        "$type": "MoleMole.Config.ConfigTeleportToAction",
        "type": "TELEPORT_TO",
        "aliasList": [
          "4218"
        ],
        "actionId": 239,
        "position": {
          "x": -1493.625,
          "y": 89.9219970703125,
          "z": 4437.1318359375
        },
        "forward": {
          "x": 0.8299999833106995,
          "z": -0.5580000281333923
        },
        "openLongDisTeleport": true,
        "_posBindMovingTargetKey": "",
        "_forwardBindMovingTargetKey": ""
      },
      {
        "$type": "MoleMole.Config.ConfigTeleportToAction",
        "type": "TELEPORT_TO",
        "aliasList": [
          "20722"
        ],
        "actionId": 238,
        "position": {
          "x": -1491.791015625,
          "y": 89.9219970703125,
          "z": 4435.1201171875
        },
        "forward": {
          "x": -0.02800000086426735,
          "z": 1.0
        },
        "openLongDisTeleport": true,
        "_posBindMovingTargetKey": "",
        "_forwardBindMovingTargetKey": ""
      },
      {
        "$type": "NPCNMEOCADD",
        "type": "LOOK_AT",
        "aliasList": [
          "20723"
        ],
        "actionId": 230,
        "enableHead": true,
        "headTurnTime": 0.5,
        "targetNpcAlias": "1005",
        "targetNpcRotateVecPlus": {
          "y": 358.0369873046875
        },
        "openBackProtect": true,
        "targetNpcLookAtPoint": "",
        "BHGPHGNFCBF": ""
      },
      {
        "$type": "MoleMole.Config.ConfigTeleportToAction",
        "type": "TELEPORT_TO",
        "aliasList": [
          "20723"
        ],
        "actionId": 237,
        "position": {
          "x": -1490.364013671875,
          "y": 89.9219970703125,
          "z": 4435.9912109375
        },
        "forward": {
          "x": -0.9919999837875366,
          "z": 0.12600000202655792
        },
        "openLongDisTeleport": true,
        "_posBindMovingTargetKey": "",
        "_forwardBindMovingTargetKey": ""
      },
      {
        "$type": "NPCNMEOCADD",
        "type": "LOOK_AT",
        "delayTime": 0.2669999897480011,
        "aliasList": [
          "Avatar"
        ],
        "actionId": 218,
        "enableHead": true,
        "headTurnTime": 0.5,
        "targetNpcAlias": "1005",
        "targetNpcRotateVecPlus": {
          "x": 1.437000036239624,
          "y": 351.5669860839844
        },
        "openBackProtect": true,
        "targetNpcLookAtPoint": "",
        "BHGPHGNFCBF": ""
      }
    ],
    [
      {
        "$type": "EFHODGEJOHJ",
        "type": "CAMERA_MOVE",
        "duration": 0.5,
        "actionId": 226,
        "camPosOffset": {
          "x": -1493.676025390625,
          "y": 91.34200286865234,
          "z": 4437.42822265625
        },
        "camForwardTargetOffset": {
          "x": -1492.6829833984375,
          "y": 91.28700256347656,
          "z": 4437.53076171875
        },
        "camFov": 25.0,
        "lerpPattern": 6,
        "cameraBlendType": "EaseInOutCubic",
        "MDKBPBJCMHH": {},
        "needZAxisRotate": true,
        "openCameraDither": false,
        "targetNpcAlias": "",
        "closeTreeLeafDither": true,
        "PHGBNNGCJKJ": "",
        "NFILMKCFHEB": "",
        "BGPNGHDAECF": ""
      },
      {
        "$type": "MoleMole.Config.ConfigTeleportToAction",
        "type": "TELEPORT_TO",
        "aliasList": [
          "Avatar"
        ],
        "actionId": 227,
        "position": {
          "x": -1491.990966796875,
          "y": 89.9219970703125,
          "z": 4437.47607421875
        },
        "forward": {
          "x": -0.8339999914169312,
          "z": -0.3700000047683716
        },
        "openLongDisTeleport": true,
        "_posBindMovingTargetKey": "",
        "_forwardBindMovingTargetKey": ""
      },
      {
        "$type": "MJFAIFFAGOF",
        "type": "DIALOG",
        "aliasList": [
          "1005"
        ],
        "actionId": 117,
        "dialogID": 730552306,
        "protectTime": 0.5
      },
      {
        "$type": "IEKHMHNHENB",
        "type": "STEER_TO",
        "duration": 1.0,
        "aliasList": [
          "1005"
        ],
        "actionId": 217,
        "steerType": "ABSOLUTE",
        "steerDir": {
          "x": -1491.9749755859375,
          "y": 89.9219970703125,
          "z": 4437.4609375
        },
        "targetNpcAlias": "",
        "BHGPHGNFCBF": ""
      },
      {
        "$type": "NPCNMEOCADD",
        "type": "LOOK_AT",
        "aliasList": [
          "1005"
        ],
        "actionId": 223,
        "enableHead": true,
        "headTurnTime": 0.5,
        "targetNpcAlias": "Avatar",
        "openBackProtect": true,
        "targetNpcLookAtPoint": "",
        "BHGPHGNFCBF": ""
      },
      {
        "$type": "MoleMole.Config.ConfigTeleportToAction",
        "type": "TELEPORT_TO",
        "aliasList": [
          "1005"
        ],
        "actionId": 228,
        "position": {
          "x": -1492.6639404296875,
          "y": 89.9219970703125,
          "z": 4437.72412109375
        },
        "forward": {
          "x": 0.25600001215934753,
          "z": -0.8849999904632568
        },
        "openLongDisTeleport": true,
        "_posBindMovingTargetKey": "",
        "_forwardBindMovingTargetKey": ""
      },
      {
        "$type": "EFHODGEJOHJ",
        "type": "CAMERA_MOVE",
        "delayTime": 0.10000000149011612,
        "duration": 12.097999572753906,
        "actionId": 235,
        "camPosOffset": {
          "x": -1493.6710205078125,
          "y": 91.3499984741211,
          "z": 4437.47216796875
        },
        "camForwardTargetOffset": {
          "x": -1492.6729736328125,
          "y": 91.28299713134766,
          "z": 4437.47900390625
        },
        "camFov": 25.0,
        "cameraBlendType": "EaseOutQuad",
        "MDKBPBJCMHH": {},
        "needZAxisRotate": true,
        "openCameraDither": false,
        "targetNpcAlias": "",
        "closeTreeLeafDither": true,
        "PHGBNNGCJKJ": "",
        "NFILMKCFHEB": "",
        "BGPNGHDAECF": ""
      },
      {
        "$type": "EDCHPJLDKIN",
        "type": "BODY_LANG",
        "delayTime": 0.2800000011920929,
        "aliasList": [
          "Avatar"
        ],
        "actionId": 236,
        "bodyLangParam": 1230,
        "forceDoFreeStyle": true,
        "canDoRepeatFreeStyle": false,
        "cantBackToIdleWhenSitLoop": true,
        "eventPatternSuiteKey": ""
      },
      {
        "$type": "EDCHPJLDKIN",
        "type": "BODY_LANG",
        "delayTime": 1.2519999742507935,
        "aliasList": [
          "1005"
        ],
        "actionId": 219,
        "bodyLangParam": 1170,
        "forceDoFreeStyle": true,
        "canDoRepeatFreeStyle": false,
        "cantBackToIdleWhenSitLoop": true,
        "eventPatternSuiteKey": ""
      },
      {
        "$type": "IEKHMHNHENB",
        "type": "STEER_TO",
        "delayTime": 3.0880000591278076,
        "duration": 1.0,
        "aliasList": [
          "20724"
        ],
        "actionId": 229,
        "steerType": "ABSOLUTE",
        "steerDir": {
          "x": -1488.739990234375,
          "y": 89.95600128173828,
          "z": 4435.1279296875
        },
        "targetNpcAlias": "",
        "BHGPHGNFCBF": ""
      },
      {
        "$type": "EDCHPJLDKIN",
        "type": "BODY_LANG",
        "delayTime": 3.8359999656677246,
        "aliasList": [
          "1005"
        ],
        "actionId": 220,
        "isContinue": true,
        "forceDoFreeStyle": true,
        "canDoRepeatFreeStyle": false,
        "cantBackToIdleWhenSitLoop": true,
        "eventPatternSuiteKey": ""
      },
      {
        "$type": "EDCHPJLDKIN",
        "type": "BODY_LANG",
        "delayTime": 4.627999782562256,
        "aliasList": [
          "1005"
        ],
        "actionId": 221,
        "bodyLangParam": 1270,
        "forceDoFreeStyle": true,
        "canDoRepeatFreeStyle": false,
        "cantBackToIdleWhenSitLoop": true,
        "eventPatternSuiteKey": ""
      }
    ],
    [
      {
        "$type": "EFHODGEJOHJ",
        "type": "CAMERA_MOVE",
        "duration": 0.5,
        "actionId": 225,
        "camPosOffset": {
          "x": -1490.3270263671875,
          "y": 90.90699768066406,
          "z": 4433.94189453125
        },
        "camForwardTargetOffset": {
          "x": -1489.8260498046875,
          "y": 90.95700073242188,
          "z": 4434.80615234375
        },
        "camFov": 20.0,
        "lerpPattern": 6,
        "cameraBlendType": "EaseInOutCubic",
        "MDKBPBJCMHH": {},
        "needZAxisRotate": true,
        "openCameraDither": false,
        "targetNpcAlias": "",
        "closeTreeLeafDither": true,
        "PHGBNNGCJKJ": "",
        "NFILMKCFHEB": "",
        "BGPNGHDAECF": ""
      },
      {
        "$type": "EDCHPJLDKIN",
        "type": "BODY_LANG",
        "aliasList": [
          "Avatar"
        ],
        "actionId": 248,
        "isContinue": true,
        "forceDoFreeStyle": true,
        "canDoRepeatFreeStyle": false,
        "cantBackToIdleWhenSitLoop": true,
        "eventPatternSuiteKey": ""
      },
      {
        "$type": "MJFAIFFAGOF",
        "type": "DIALOG",
        "aliasList": [
          "20724"
        ],
        "actionId": 119,
        "dialogID": 730552307,
        "protectTime": 0.5
      },
      {
        "$type": "EDCHPJLDKIN",
        "type": "BODY_LANG",
        "aliasList": [
          "20724"
        ],
        "actionId": 232,
        "bodyLangParam": 9030,
        "forceDoFreeStyle": true,
        "canDoRepeatFreeStyle": false,
        "cantBackToIdleWhenSitLoop": true,
        "eventPatternSuiteKey": ""
      },
      {
        "$type": "EFHODGEJOHJ",
        "type": "CAMERA_MOVE",
        "delayTime": 0.10000000149011612,
        "duration": 9.168999671936035,
        "actionId": 231,
        "camPosOffset": {
          "x": -1489.6710205078125,
          "y": 90.76399993896484,
          "z": 4432.68310546875
        },
        "camForwardTargetOffset": {
          "x": -1489.1700439453125,
          "y": 90.81400299072266,
          "z": 4433.546875
        },
        "camFov": 20.0,
        "cameraBlendType": "EaseInOutQuart",
        "MDKBPBJCMHH": {},
        "needZAxisRotate": true,
        "openCameraDither": false,
        "targetNpcAlias": "",
        "closeTreeLeafDither": true,
        "PHGBNNGCJKJ": "",
        "NFILMKCFHEB": "",
        "BGPNGHDAECF": ""
      },
      {
        "$type": "EDCHPJLDKIN",
        "type": "BODY_LANG",
        "delayTime": 2.069999933242798,
        "aliasList": [
          "20724"
        ],
        "actionId": 233,
        "isContinue": true,
        "forceDoFreeStyle": true,
        "canDoRepeatFreeStyle": false,
        "cantBackToIdleWhenSitLoop": true,
        "eventPatternSuiteKey": ""
      },
      {
        "$type": "MoleMole.Config.ConfigMoveToAction",
        "type": "MOVE_TO",
        "delayTime": 2.861999988555908,
        "aliasList": [
          "20724"
        ],
        "actionId": 234,
        "moveType": "DIRECT",
        "routeList": [
          {
            "x": -1485.3380126953125,
            "y": 89.03299713134766,
            "z": 4432.57080078125
          }
        ],
        "closeNavMesh": true,
        "directMoveSpeed": 3.0,
        "_bindMovingTargetKey": ""
      }
    ],
    [
      {
        "$type": "EFHODGEJOHJ",
        "type": "CAMERA_MOVE",
        "duration": 0.5,
        "actionId": 240,
        "camPosOffset": {
          "x": -1492.4520263671875,
          "y": 91.552001953125,
          "z": 4437.171875
        },
        "camForwardTargetOffset": {
          "x": -1491.56103515625,
          "y": 91.43800354003906,
          "z": 4436.73291015625
        },
        "camFov": 20.0,
        "lerpPattern": 6,
        "cameraBlendType": "EaseInOutCubic",
        "MDKBPBJCMHH": {},
        "needZAxisRotate": true,
        "openCameraDither": false,
        "targetNpcAlias": "",
        "closeTreeLeafDither": true,
        "PHGBNNGCJKJ": "",
        "NFILMKCFHEB": "",
        "BGPNGHDAECF": ""
      },
      {
        "$type": "NPCNMEOCADD",
        "type": "LOOK_AT",
        "aliasList": [
          "20723"
        ],
        "actionId": 242,
        "enableHead": true,
        "headTurnTime": 0.5,
        "targetNpcAlias": "20724",
        "openBackProtect": true,
        "targetNpcLookAtPoint": "",
        "BHGPHGNFCBF": ""
      },
      {
        "$type": "MJFAIFFAGOF",
        "type": "DIALOG",
        "aliasList": [
          "20723"
        ],
        "actionId": 121,
        "dialogID": 730552308,
        "protectTime": 6.0
      },
      {
        "$type": "MoleMole.Config.ConfigTeleportToAction",
        "type": "TELEPORT_TO",
        "aliasList": [
          "Avatar"
        ],
        "actionId": 250,
        "position": {
          "x": -1492.2220458984375,
          "y": 89.9219970703125,
          "z": 4437.3251953125
        },
        "forward": {
          "x": 0.9539999961853027,
          "z": -1.1030000448226929
        },
        "openLongDisTeleport": true,
        "_posBindMovingTargetKey": "",
        "_forwardBindMovingTargetKey": ""
      },
      {
        "$type": "MoleMole.Config.ConfigTeleportToAction",
        "type": "TELEPORT_TO",
        "aliasList": [
          "20724"
        ],
        "actionId": 244,
        "position": {
          "x": -1486.9520263671875,
          "y": 90.00199890136719,
          "z": 4434.9638671875
        },
        "forward": {
          "x": 3.7790000438690186,
          "y": -0.3409999907016754,
          "z": -3.196000099182129
        },
        "openLongDisTeleport": true,
        "_posBindMovingTargetKey": "",
        "_forwardBindMovingTargetKey": ""
      },
      {
        "$type": "MoleMole.Config.ConfigTeleportToAction",
        "type": "TELEPORT_TO",
        "aliasList": [
          "20722"
        ],
        "actionId": 264,
        "position": {
          "x": -1492.43896484375,
          "y": 89.9219970703125,
          "z": 4434.5458984375
        },
        "forward": {
          "x": 0.17100000381469727,
          "z": 1.4670000076293945
        },
        "openLongDisTeleport": true,
        "_posBindMovingTargetKey": "",
        "_forwardBindMovingTargetKey": ""
      },
      {
        "$type": "MoleMole.Config.ConfigTeleportToAction",
        "type": "TELEPORT_TO",
        "aliasList": [
          "1005"
        ],
        "actionId": 252,
        "position": {
          "x": -1492.8929443359375,
          "y": 89.9219970703125,
          "z": 4437.5322265625
        },
        "forward": {
          "x": 1.465000033378601,
          "z": -1.5750000476837158
        },
        "openLongDisTeleport": true,
        "_posBindMovingTargetKey": "",
        "_forwardBindMovingTargetKey": ""
      },
      {
        "$type": "NPCNMEOCADD",
        "type": "LOOK_AT",
        "aliasList": [
          "20722"
        ],
        "actionId": 260,
        "enableHead": true,
        "headTurnTime": 0.5,
        "targetNpcAlias": "20723",
        "openBackProtect": true,
        "targetNpcLookAtPoint": "",
        "BHGPHGNFCBF": ""
      },
      {
        "$type": "EFHODGEJOHJ",
        "type": "CAMERA_MOVE",
        "delayTime": 0.10000000149011612,
        "duration": 5.0,
        "actionId": 241,
        "camPosOffset": {
          "x": -1492.5660400390625,
          "y": 91.56700134277344,
          "z": 4436.77783203125
        },
        "camForwardTargetOffset": {
          "x": -1491.675048828125,
          "y": 91.4530029296875,
          "z": 4436.3388671875
        },
        "camFov": 20.0,
        "MDKBPBJCMHH": {},
        "needZAxisRotate": true,
        "openCameraDither": false,
        "targetNpcAlias": "",
        "closeTreeLeafDither": true,
        "PHGBNNGCJKJ": "",
        "NFILMKCFHEB": "",
        "BGPNGHDAECF": ""
      },
      {
        "$type": "MoleMole.Config.ConfigMoveToAction",
        "type": "MOVE_TO",
        "delayTime": 0.10000000149011612,
        "aliasList": [
          "20724"
        ],
        "actionId": 245,
        "moveType": "DIRECT",
        "routeList": [
          {
            "x": -1470.0009765625,
            "y": 88.88999938964844,
            "z": 4420.68017578125
          }
        ],
        "closeNavMesh": true,
        "directMoveSpeed": 3.0,
        "_bindMovingTargetKey": ""
      },
      {
        "$type": "IEKHMHNHENB",
        "type": "STEER_TO",
        "delayTime": 0.5189999938011169,
        "duration": 1.0,
        "aliasList": [
          "20723"
        ],
        "actionId": 243,
        "steerType": "ABSOLUTE",
        "steerDir": {
          "x": -1488.58203125,
          "y": 89.73999786376953,
          "z": 4434.6591796875
        },
        "useSteerAnim": true,
        "interruptFreestyle": true,
        "forceSteer": true,
        "targetNpcAlias": "",
        "BHGPHGNFCBF": ""
      },
      {
        "$type": "NPCNMEOCADD",
        "type": "LOOK_AT",
        "delayTime": 1.2430000305175781,
        "aliasList": [
          "Avatar"
        ],
        "actionId": 254,
        "headTurnTime": 0.5,
        "targetNpcAlias": "",
        "openBackProtect": true,
        "targetNpcLookAtPoint": "",
        "BHGPHGNFCBF": ""
      },
      {
        "$type": "MoleMole.Config.ConfigMoveToAction",
        "type": "MOVE_TO",
        "delayTime": 2.0,
        "aliasList": [
          "1005"
        ],
        "actionId": 253,
        "moveType": "WALK",
        "routeList": [
          {
            "x": -1491.7550048828125,
            "y": 89.9219970703125,
            "z": 4436.44482421875
          }
        ],
        "exactlyMove": true,
        "_bindMovingTargetKey": ""
      },
      {
        "$type": "NPCNMEOCADD",
        "type": "LOOK_AT",
        "delayTime": 2.069000005722046,
        "aliasList": [
          "1005"
        ],
        "actionId": 255,
        "headTurnTime": 0.5,
        "targetNpcAlias": "",
        "openBackProtect": true,
        "targetNpcLookAtPoint": "",
        "BHGPHGNFCBF": ""
      },
      {
        "$type": "MoleMole.Config.ConfigMoveToAction",
        "type": "MOVE_TO",
        "delayTime": 2.5,
        "aliasList": [
          "Avatar"
        ],
        "actionId": 251,
        "moveType": "WALK",
        "routeList": [
          {
            "x": -1491.0140380859375,
            "y": 89.9219970703125,
            "z": 4436.31005859375
          }
        ],
        "exactlyMove": true,
        "_bindMovingTargetKey": ""
      },
      {
        "$type": "IEKHMHNHENB",
        "type": "STEER_TO",
        "delayTime": 3.447000026702881,
        "duration": 1.0,
        "aliasList": [
          "20722"
        ],
        "actionId": 262,
        "steerType": "ABSOLUTE",
        "steerDir": {
          "x": -1491.074951171875,
          "y": 89.9219970703125,
          "z": 4434.69091796875
        },
        "useSteerAnim": true,
        "interruptFreestyle": true,
        "forceSteer": true,
        "targetNpcAlias": "",
        "BHGPHGNFCBF": ""
      },
      {
        "$type": "EFHODGEJOHJ",
        "type": "CAMERA_MOVE",
        "delayTime": 3.5,
        "duration": 0.5,
        "actionId": 247,
        "camPosOffset": {
          "x": -1489.5579833984375,
          "y": 91.33200073242188,
          "z": 4433.88818359375
        },
        "camForwardTargetOffset": {
          "x": -1490.0250244140625,
          "y": 91.31900024414062,
          "z": 4434.77197265625
        },
        "camFov": 20.0,
        "lerpPattern": 6,
        "cameraBlendType": "EaseInOutCubic",
        "MDKBPBJCMHH": {},
        "needZAxisRotate": true,
        "openCameraDither": false,
        "targetNpcAlias": "",
        "closeTreeLeafDither": true,
        "PHGBNNGCJKJ": "",
        "NFILMKCFHEB": "",
        "BGPNGHDAECF": ""
      },
      {
        "$type": "EFHODGEJOHJ",
        "type": "CAMERA_MOVE",
        "delayTime": 3.5999999046325684,
        "duration": 5.0,
        "actionId": 258,
        "camPosOffset": {
          "x": -1489.625,
          "y": 91.33699798583984,
          "z": 4433.85302734375
        },
        "camForwardTargetOffset": {
          "x": -1490.092041015625,
          "y": 91.3239974975586,
          "z": 4434.73681640625
        },
        "camFov": 20.0,
        "cameraBlendType": "EaseOutQuad",
        "MDKBPBJCMHH": {},
        "needZAxisRotate": true,
        "openCameraDither": false,
        "targetNpcAlias": "",
        "closeTreeLeafDither": true,
        "PHGBNNGCJKJ": "",
        "NFILMKCFHEB": "",
        "BGPNGHDAECF": ""
      },
      {
        "$type": "NPCNMEOCADD",
        "type": "LOOK_AT",
        "delayTime": 4.275000095367432,
        "aliasList": [
          "1005"
        ],
        "actionId": 257,
        "enableHead": true,
        "headTurnTime": 0.5,
        "targetNpcAlias": "20723",
        "targetNpcRotateVecPlus": {
          "x": 2.437999963760376,
          "y": 351.9309997558594
        },
        "openBackProtect": true,
        "targetNpcLookAtPoint": "",
        "BHGPHGNFCBF": ""
      },
      {
        "$type": "NPCNMEOCADD",
        "type": "LOOK_AT",
        "delayTime": 4.550000190734863,
        "aliasList": [
          "20723"
        ],
        "actionId": 259,
        "enableHead": true,
        "headTurnTime": 0.5,
        "targetNpcAlias": "1005",
        "targetNpcRotateVecPlus": {
          "x": 359.5150146484375,
          "y": 349.0
        },
        "openBackProtect": true,
        "targetNpcLookAtPoint": "",
        "BHGPHGNFCBF": ""
      },
      {
        "$type": "NPCNMEOCADD",
        "type": "LOOK_AT",
        "delayTime": 5.0329999923706055,
        "aliasList": [
          "Avatar"
        ],
        "actionId": 256,
        "enableHead": true,
        "headTurnTime": 0.5,
        "targetNpcAlias": "20723",
        "targetNpcRotateVecPlus": {
          "x": 7.309999942779541,
          "y": 327.33099365234375
        },
        "openBackProtect": true,
        "targetNpcLookAtPoint": "",
        "BHGPHGNFCBF": ""
      },
      {
        "$type": "HGDDIPABPCA",
        "type": "LOOK_AT_EYECTRL",
        "delayTime": 5.10099983215332,
        "aliasList": [
          "Avatar"
        ],
        "actionId": 310,
        "useTargetPos": false,
        "eyeRotateVecLeft": {
          "z": -2.0
        },
        "eyeRotateVecRight": {
          "z": -2.0
        },
        "turnTime": 0.20000000298023224,
        "targetNpcAlias": "",
        "targetPoint": "Face"
      }
    ],
    [
      {
        "$type": "EFHODGEJOHJ",
        "type": "CAMERA_MOVE",
        "duration": 0.5,
        "actionId": 265,
        "camPosOffset": {
          "x": -1501.8409423828125,
          "y": 93.02899932861328,
          "z": 4442.078125
        },
        "camForwardTargetOffset": {
          "x": -1500.967041015625,
          "y": 92.84300231933594,
          "z": 4441.6279296875
        },
        "camFov": 20.0,
        "lerpPattern": 6,
        "cameraBlendType": "EaseInOutCubic",
        "MDKBPBJCMHH": {},
        "needZAxisRotate": true,
        "openCameraDither": false,
        "targetNpcAlias": "",
        "closeTreeLeafDither": true,
        "PHGBNNGCJKJ": "",
        "NFILMKCFHEB": "",
        "BGPNGHDAECF": ""
      },
      {
        "$type": "MoleMole.Config.ConfigTeleportToAction",
        "type": "TELEPORT_TO",
        "aliasList": [
          "Avatar"
        ],
        "actionId": 267,
        "position": {
          "x": -1491.3690185546875,
          "y": 89.9219970703125,
          "z": 4435.93896484375
        },
        "forward": {
          "x": 2.377000093460083,
          "z": -1.899999976158142
        },
        "openLongDisTeleport": true,
        "_posBindMovingTargetKey": "",
        "_forwardBindMovingTargetKey": ""
      },
      {
        "$type": "NPCNMEOCADD",
        "type": "LOOK_AT",
        "aliasList": [
          "Avatar"
        ],
        "actionId": 277,
        "enableHead": true,
        "headTurnTime": 0.5,
        "targetNpcAlias": "20724",
        "openBackProtect": true,
        "targetNpcLookAtPoint": "",
        "BHGPHGNFCBF": ""
      },
      {
        "$type": "HGDDIPABPCA",
        "type": "LOOK_AT_EYECTRL",
        "aliasList": [
          "Avatar"
        ],
        "actionId": 311,
        "useTargetPos": false,
        "turnTime": 0.20000000298023224,
        "targetNpcAlias": "",
        "targetPoint": "Face"
      },
      {
        "$type": "MJFAIFFAGOF",
        "type": "DIALOG",
        "aliasList": [
          "1005"
        ],
        "actionId": 123,
        "dialogID": 730552309,
        "protectTime": 0.5
      },
      {
        "$type": "MoleMole.Config.ConfigTeleportToAction",
        "type": "TELEPORT_TO",
        "aliasList": [
          "1005"
        ],
        "actionId": 268,
        "position": {
          "x": -1492.136962890625,
          "y": 89.9219970703125,
          "z": 4435.69189453125
        },
        "forward": {
          "x": 2.938999891281128,
          "z": -1.965999960899353
        },
        "openLongDisTeleport": true,
        "_posBindMovingTargetKey": "",
        "_forwardBindMovingTargetKey": ""
      },
      {
        "$type": "EDCHPJLDKIN",
        "type": "BODY_LANG",
        "aliasList": [
          "1005"
        ],
        "actionId": 272,
        "bodyLangParam": 1060,
        "forceDoFreeStyle": true,
        "canDoRepeatFreeStyle": false,
        "cantBackToIdleWhenSitLoop": true,
        "eventPatternSuiteKey": ""
      },
      {
        "$type": "NPCNMEOCADD",
        "type": "LOOK_AT",
        "aliasList": [
          "20722"
        ],
        "actionId": 279,
        "enableHead": true,
        "headTurnTime": 0.5,
        "targetNpcAlias": "20724",
        "openBackProtect": true,
        "targetNpcLookAtPoint": "",
        "BHGPHGNFCBF": ""
      },
      {
        "$type": "MoleMole.Config.ConfigTeleportToAction",
        "type": "TELEPORT_TO",
        "aliasList": [
          "20723"
        ],
        "actionId": 271,
        "position": {
          "x": -1490.364013671875,
          "y": 89.9219970703125,
          "z": 4435.9912109375
        },
        "forward": {
          "x": 0.8009999990463257,
          "z": -0.5989999771118164
        },
        "openLongDisTeleport": true,
        "_posBindMovingTargetKey": "",
        "_forwardBindMovingTargetKey": ""
      },
      {
        "$type": "MoleMole.Config.ConfigTeleportToAction",
        "type": "TELEPORT_TO",
        "aliasList": [
          "20722"
        ],
        "actionId": 270,
        "position": {
          "x": -1492.510009765625,
          "y": 89.9219970703125,
          "z": 4434.19921875
        },
        "forward": {
          "x": 0.9570000171661377,
          "z": -0.28999999165534973
        },
        "openLongDisTeleport": true,
        "_posBindMovingTargetKey": "",
        "_forwardBindMovingTargetKey": ""
      },
      {
        "$type": "MoleMole.Config.ConfigTeleportToAction",
        "type": "TELEPORT_TO",
        "aliasList": [
          "4218"
        ],
        "actionId": 269,
        "position": {
          "x": -1492.8800048828125,
          "y": 89.9219970703125,
          "z": 4435.35888671875
        },
        "forward": {
          "x": 0.9990000128746033,
          "z": -0.05400000140070915
        },
        "openLongDisTeleport": true,
        "_posBindMovingTargetKey": "",
        "_forwardBindMovingTargetKey": ""
      },
      {
        "$type": "EFHODGEJOHJ",
        "type": "CAMERA_MOVE",
        "delayTime": 0.10000000149011612,
        "duration": 11.37399959564209,
        "actionId": 266,
        "camPosOffset": {
          "x": -1501.7569580078125,
          "y": 93.48400115966797,
          "z": 4442.05322265625
        },
        "camForwardTargetOffset": {
          "x": -1500.883056640625,
          "y": 93.2979965209961,
          "z": 4441.60302734375
        },
        "camFov": 20.0,
        "cameraBlendType": "EaseOutQuad",
        "MDKBPBJCMHH": {},
        "needZAxisRotate": true,
        "openCameraDither": false,
        "targetNpcAlias": "",
        "closeTreeLeafDither": true,
        "PHGBNNGCJKJ": "",
        "NFILMKCFHEB": "",
        "BGPNGHDAECF": ""
      },
      {
        "$type": "NPCNMEOCADD",
        "type": "LOOK_AT",
        "delayTime": 0.1379999965429306,
        "aliasList": [
          "4218"
        ],
        "actionId": 278,
        "enableHead": true,
        "headTurnTime": 0.5,
        "targetNpcAlias": "20724",
        "openBackProtect": true,
        "targetNpcLookAtPoint": "",
        "BHGPHGNFCBF": ""
      },
      {
        "$type": "NPCNMEOCADD",
        "type": "LOOK_AT",
        "delayTime": 0.13899999856948853,
        "aliasList": [
          "1005"
        ],
        "actionId": 276,
        "enableHead": true,
        "headTurnTime": 0.5,
        "targetNpcAlias": "20724",
        "openBackProtect": true,
        "targetNpcLookAtPoint": "",
        "BHGPHGNFCBF": ""
      },
      {
        "$type": "NPCNMEOCADD",
        "type": "LOOK_AT",
        "delayTime": 0.2409999966621399,
        "aliasList": [
          "20723"
        ],
        "actionId": 280,
        "enableHead": true,
        "headTurnTime": 0.5,
        "targetNpcAlias": "20724",
        "openBackProtect": true,
        "targetNpcLookAtPoint": "",
        "BHGPHGNFCBF": ""
      },
      {
        "$type": "EDCHPJLDKIN",
        "type": "BODY_LANG",
        "delayTime": 0.9660000205039978,
        "aliasList": [
          "1005"
        ],
        "actionId": 273,
        "isContinue": true,
        "forceDoFreeStyle": true,
        "canDoRepeatFreeStyle": false,
        "cantBackToIdleWhenSitLoop": true,
        "eventPatternSuiteKey": ""
      },
      {
        "$type": "EDCHPJLDKIN",
        "type": "BODY_LANG",
        "delayTime": 1.7929999828338623,
        "aliasList": [
          "1005"
        ],
        "actionId": 274,
        "bodyLangParam": 1110,
        "forceDoFreeStyle": true,
        "canDoRepeatFreeStyle": false,
        "cantBackToIdleWhenSitLoop": true,
        "eventPatternSuiteKey": ""
      },
      {
        "$type": "EDCHPJLDKIN",
        "type": "BODY_LANG",
        "delayTime": 2.069000005722046,
        "aliasList": [
          "4218"
        ],
        "actionId": 281,
        "bodyLangParam": 1190,
        "forceDoFreeStyle": true,
        "canDoRepeatFreeStyle": false,
        "cantBackToIdleWhenSitLoop": true,
        "eventPatternSuiteKey": ""
      },
      {
        "$type": "NPCNMEOCADD",
        "type": "LOOK_AT",
        "delayTime": 2.240999937057495,
        "aliasList": [
          "4218"
        ],
        "actionId": 283,
        "headTurnTime": 0.5,
        "targetNpcAlias": "",
        "openBackProtect": true,
        "targetNpcLookAtPoint": "",
        "BHGPHGNFCBF": ""
      },
      {
        "$type": "EDCHPJLDKIN",
        "type": "BODY_LANG",
        "delayTime": 4.136000156402588,
        "aliasList": [
          "1005"
        ],
        "actionId": 275,
        "isContinue": true,
        "forceDoFreeStyle": true,
        "canDoRepeatFreeStyle": false,
        "cantBackToIdleWhenSitLoop": true,
        "eventPatternSuiteKey": ""
      }
    ],
    [
      {
        "$type": "EFHODGEJOHJ",
        "type": "CAMERA_MOVE",
        "duration": 0.5,
        "actionId": 282,
        "camPosOffset": {
          "x": -1492.406005859375,
          "y": 92.06900024414062,
          "z": 4433.091796875
        },
        "camForwardTargetOffset": {
          "x": -1492.279052734375,
          "y": 91.75900268554688,
          "z": 4434.0341796875
        },
        "camFov": 20.0,
        "lerpPattern": 6,
        "cameraBlendType": "EaseInOutCubic",
        "MDKBPBJCMHH": {},
        "needZAxisRotate": true,
        "openCameraDither": false,
        "targetNpcAlias": "",
        "closeTreeLeafDither": true,
        "PHGBNNGCJKJ": "",
        "NFILMKCFHEB": "",
        "BGPNGHDAECF": ""
      },
      {
        "$type": "MoleMole.Config.ConfigTeleportToAction",
        "type": "TELEPORT_TO",
        "aliasList": [
          "1005"
        ],
        "actionId": 289,
        "position": {
          "x": -1491.946044921875,
          "y": 89.9219970703125,
          "z": 4435.75
        },
        "forward": {
          "x": 0.03500000014901161,
          "z": -0.6449999809265137
        },
        "openLongDisTeleport": true,
        "_posBindMovingTargetKey": "",
        "_forwardBindMovingTargetKey": ""
      },
      {
        "$type": "EDCHPJLDKIN",
        "type": "BODY_LANG",
        "aliasList": [
          "1005"
        ],
        "actionId": 294,
        "isContinue": true,
        "forceDoFreeStyle": true,
        "canDoRepeatFreeStyle": false,
        "cantBackToIdleWhenSitLoop": true,
        "eventPatternSuiteKey": ""
      },
      {
        "$type": "MJFAIFFAGOF",
        "type": "DIALOG",
        "aliasList": [
          "4218"
        ],
        "actionId": 125,
        "dialogID": 730552310,
        "protectTime": 2.743000030517578
      },
      {
        "$type": "NPCNMEOCADD",
        "type": "LOOK_AT",
        "aliasList": [
          "4218"
        ],
        "actionId": 284,
        "headTurnTime": 0.5,
        "targetNpcAlias": "",
        "openBackProtect": true,
        "targetNpcLookAtPoint": "",
        "BHGPHGNFCBF": ""
      },
      {
        "$type": "EDCHPJLDKIN",
        "type": "BODY_LANG",
        "aliasList": [
          "4218"
        ],
        "actionId": 285,
        "bodyLangParam": 1190,
        "forceDoFreeStyle": true,
        "canDoRepeatFreeStyle": false,
        "cantBackToIdleWhenSitLoop": true,
        "eventPatternSuiteKey": ""
      },
      {
        "$type": "MoleMole.Config.ConfigTeleportToAction",
        "type": "TELEPORT_TO",
        "aliasList": [
          "4218"
        ],
        "actionId": 290,
        "position": {
          "x": -1492.427978515625,
          "y": 89.9219970703125,
          "z": 4434.97900390625
        },
        "forward": {
          "x": 0.7160000205039978,
          "z": -0.13300000131130219
        },
        "openLongDisTeleport": true,
        "_posBindMovingTargetKey": "",
        "_forwardBindMovingTargetKey": ""
      },
      {
        "$type": "MoleMole.Config.ConfigTeleportToAction",
        "type": "TELEPORT_TO",
        "aliasList": [
          "20722"
        ],
        "actionId": 291,
        "position": {
          "x": -1492.6920166015625,
          "y": 89.9219970703125,
          "z": 4433.63623046875
        },
        "forward": {
          "x": 1.4270000457763672,
          "z": -0.32899999618530273
        },
        "openLongDisTeleport": true,
        "_posBindMovingTargetKey": "",
        "_forwardBindMovingTargetKey": ""
      },
      {
        "$type": "MoleMole.Config.ConfigTeleportToAction",
        "type": "TELEPORT_TO",
        "aliasList": [
          "20723"
        ],
        "actionId": 292,
        "position": {
          "x": -1490.3509521484375,
          "y": 89.9219970703125,
          "z": 4436.43798828125
        },
        "forward": {
          "x": 0.871999979019165,
          "z": -0.9520000219345093
        },
        "openLongDisTeleport": true,
        "_posBindMovingTargetKey": "",
        "_forwardBindMovingTargetKey": ""
      },
      {
        "$type": "EFHODGEJOHJ",
        "type": "CAMERA_MOVE",
        "delayTime": 0.10000000149011612,
        "duration": 7.998000144958496,
        "actionId": 293,
        "camPosOffset": {
          "x": -1492.3079833984375,
          "y": 92.072998046875,
          "z": 4433.080078125
        },
        "camForwardTargetOffset": {
          "x": -1492.1810302734375,
          "y": 91.76300048828125,
          "z": 4434.02197265625
        },
        "camFov": 20.0,
        "cameraBlendType": "EaseOutQuad",
        "MDKBPBJCMHH": {},
        "needZAxisRotate": true,
        "openCameraDither": false,
        "targetNpcAlias": "",
        "closeTreeLeafDither": true,
        "PHGBNNGCJKJ": "",
        "NFILMKCFHEB": "",
        "BGPNGHDAECF": ""
      },
      {
        "$type": "NPCNMEOCADD",
        "type": "LOOK_AT",
        "delayTime": 0.5569999814033508,
        "aliasList": [
          "1005"
        ],
        "actionId": 288,
        "enableHead": true,
        "headTurnTime": 0.5,
        "targetNpcAlias": "4218",
        "openBackProtect": true,
        "targetNpcLookAtPoint": "",
        "BHGPHGNFCBF": ""
      },
      {
        "$type": "ICHLNKHGCAG",
        "type": "EMO_SYNC",
        "delayTime": 0.5979999899864197,
        "aliasList": [
          "4218"
        ],
        "actionId": 301,
        "dataPath": "",
        "phonemePath": "Cs_Emo_NPC_Common/Cs_Emo_NPC_Angry01",
        "emotionPath": "Cs_Emo_NPC_Common/Cs_Emo_NPC_Sad01_B",
        "mateDataPath": "",
        "matePhonemePath": "",
        "mateEmotionPath": "",
        "phonemePathHashList": [
          9218657655395275517,
          6356428425152214583,
          11840959722219800112,
          50070356133267922
        ],
        "emotionPathHashList": [
          13608203086706346087,
          8983880955149441812,
          6168896623321060702,
          13508183777270633601
        ],
        "PACNIGOOENN": "",
        "PIBDNPHIAGC": ""
      },
      {
        "$type": "NPCNMEOCADD",
        "type": "LOOK_AT",
        "delayTime": 0.7639999985694885,
        "aliasList": [
          "Avatar"
        ],
        "actionId": 287,
        "enableHead": true,
        "headTurnTime": 0.5,
        "targetNpcAlias": "4218",
        "openBackProtect": true,
        "targetNpcLookAtPoint": "",
        "BHGPHGNFCBF": ""
      },
      {
        "$type": "IEKHMHNHENB",
        "type": "STEER_TO",
        "delayTime": 1.3839999437332153,
        "duration": 1.0,
        "aliasList": [
          "Avatar"
        ],
        "actionId": 286,
        "steerType": "ABSOLUTE",
        "steerDir": {
          "x": -1491.8170166015625,
          "y": 89.9219970703125,
          "z": 4435.44091796875
        },
        "useSteerAnim": true,
        "interruptFreestyle": true,
        "forceSteer": true,
        "targetNpcAlias": "",
        "BHGPHGNFCBF": ""
      },
      {
        "$type": "OBCDECFOOBC",
        "type": "DIALOG_SELECT",
        "delayTime": 2.743000030517578,
        "aliasList": [
          "Avatar"
        ],
        "actionId": 126,
        "dialogIDList": [
          730552311
        ],
        "grpIDList": [
          625157708
        ],
        "useGrpId": true
      }
    ],
    [
      {
        "$type": "EFHODGEJOHJ",
        "type": "CAMERA_MOVE",
        "duration": 0.5,
        "actionId": 296,
        "camPosOffset": {
          "x": -1489.875,
          "y": 91.36799621582031,
          "z": 4436.14306640625
        },
        "camForwardTargetOffset": {
          "x": -1490.8370361328125,
          "y": 91.36699676513672,
          "z": 4435.869140625
        },
        "camFov": 20.0,
        "lerpPattern": 6,
        "cameraBlendType": "EaseInOutCubic",
        "MDKBPBJCMHH": {},
        "needZAxisRotate": true,
        "openCameraDither": false,
        "targetNpcAlias": "",
        "closeTreeLeafDither": true,
        "PHGBNNGCJKJ": "",
        "NFILMKCFHEB": "",
        "BGPNGHDAECF": ""
      },
      {
        "$type": "MoleMole.Config.ConfigTeleportToAction",
        "type": "TELEPORT_TO",
        "aliasList": [
          "1005"
        ],
        "actionId": 308,
        "position": {
          "x": -1491.97802734375,
          "y": 89.9219970703125,
          "z": 4435.5908203125
        },
        "forward": {
          "x": 0.0860000029206276,
          "z": -0.8389999866485596
        },
        "openLongDisTeleport": true,
        "_posBindMovingTargetKey": "",
        "_forwardBindMovingTargetKey": ""
      },
      {
        "$type": "MJFAIFFAGOF",
        "type": "DIALOG",
        "aliasList": [
          "4218"
        ],
        "actionId": 128,
        "dialogID": 730552312,
        "protectTime": 0.5
      },
      {
        "$type": "EDCHPJLDKIN",
        "type": "BODY_LANG",
        "aliasList": [
          "4218"
        ],
        "actionId": 295,
        "isContinue": true,
        "forceDoFreeStyle": true,
        "canDoRepeatFreeStyle": false,
        "cantBackToIdleWhenSitLoop": true,
        "eventPatternSuiteKey": ""
      },
      {
        "$type": "IEKHMHNHENB",
        "type": "STEER_TO",
        "duration": 1.0,
        "aliasList": [
          "4218"
        ],
        "actionId": 299,
        "steerType": "ABSOLUTE",
        "steerDir": {
          "x": -1491.614990234375,
          "y": 89.9219970703125,
          "z": 4435.619140625
        },
        "useSteerAnim": true,
        "interruptFreestyle": true,
        "forceSteer": true,
        "targetNpcAlias": "",
        "BHGPHGNFCBF": ""
      },
      {
        "$type": "NPCNMEOCADD",
        "type": "LOOK_AT",
        "aliasList": [
          "4218"
        ],
        "actionId": 309,
        "enableHead": true,
        "headTurnTime": 0.5,
        "targetNpcAlias": "Avatar",
        "openBackProtect": true,
        "targetNpcLookAtPoint": "",
        "BHGPHGNFCBF": ""
      },
      {
        "$type": "EFHODGEJOHJ",
        "type": "CAMERA_MOVE",
        "delayTime": 0.10000000149011612,
        "duration": 5.0,
        "actionId": 297,
        "camPosOffset": {
          "x": -1489.8609619140625,
          "y": 91.36399841308594,
          "z": 4436.09423828125
        },
        "camForwardTargetOffset": {
          "x": -1490.822998046875,
          "y": 91.36299896240234,
          "z": 4435.81982421875
        },
        "camFov": 20.0,
        "cameraBlendType": "EaseOutQuad",
        "MDKBPBJCMHH": {},
        "needZAxisRotate": true,
        "openCameraDither": false,
        "targetNpcAlias": "",
        "closeTreeLeafDither": true,
        "PHGBNNGCJKJ": "",
        "NFILMKCFHEB": "",
        "BGPNGHDAECF": ""
      },
      {
        "$type": "ICHLNKHGCAG",
        "type": "EMO_SYNC",
        "delayTime": 0.21699999272823334,
        "aliasList": [
          "4218"
        ],
        "actionId": 302,
        "dataPath": "",
        "phonemePath": "Cs_Emo_NPC_Common/Cs_Emo_NPC_Normal01",
        "emotionPath": "Cs_Emo_NPC_Common/Cs_Emo_NPC_Normal01_B",
        "mateDataPath": "",
        "matePhonemePath": "",
        "mateEmotionPath": "",
        "phonemePathHashList": [
          12803840960998583578,
          3437050431160283015,
          6548526936325855136,
          1274732080047098512
        ],
        "emotionPathHashList": [
          15191155715402440098,
          420038106395935518,
          2651432695756251320,
          4209314551981667660
        ],
        "PACNIGOOENN": "",
        "PIBDNPHIAGC": ""
      },
      {
        "$type": "EDCHPJLDKIN",
        "type": "BODY_LANG",
        "delayTime": 0.5289999842643738,
        "aliasList": [
          "4218"
        ],
        "actionId": 298,
        "bodyLangParam": 4030,
        "forceDoFreeStyle": true,
        "canDoRepeatFreeStyle": false,
        "cantBackToIdleWhenSitLoop": true,
        "eventPatternSuiteKey": ""
      },
      {
        "$type": "EDCHPJLDKIN",
        "type": "BODY_LANG",
        "delayTime": 2.4590001106262207,
        "aliasList": [
          "4218"
        ],
        "actionId": 300,
        "bodyLangParam": 1173,
        "forceDoFreeStyle": true,
        "canDoRepeatFreeStyle": false,
        "cantBackToIdleWhenSitLoop": true,
        "eventPatternSuiteKey": ""
      }
    ],
    [
      {
        "$type": "MoleMole.Config.ConfigSimpleBlackScreenAction",
        "type": "SIMPLE_BLACK_SCREEN",
        "actionId": 129,
        "durationToBlack": 0.5,
        "durationKeepBlack": 1.0,
        "durationFromBlack": 0.5,
        "textMapID": ""
      },
      {
        "$type": "MoleMole.Config.ConfigTimeProtectAction",
        "type": "TIME_PROTECT",
        "duration": 0.699999988079071,
        "actionId": 130
      },
      {
        "$type": "EFHODGEJOHJ",
        "type": "CAMERA_MOVE",
        "delayTime": 0.6000000238418579,
        "duration": 0.10000000149011612,
        "actionId": 307,
        "camPosOffset": {
          "x": -1489.0350341796875,
          "y": 91.60800170898438,
          "z": 4438.24609375
        },
        "camForwardTargetOffset": {
          "x": -1489.7139892578125,
          "y": 91.37300109863281,
          "z": 4437.55078125
        },
        "lerpPattern": 6,
        "cameraBlendType": "EaseInOutCubic",
        "MDKBPBJCMHH": {},
        "openCameraDither": false,
        "targetNpcAlias": "",
        "closeTreeLeafDither": true,
        "PHGBNNGCJKJ": "",
        "NFILMKCFHEB": "",
        "BGPNGHDAECF": ""
      },
      {
        "$type": "MoleMole.Config.ConfigVisibleInterAction",
        "type": "VISIBLE",
        "delayTime": 0.6000000238418579,
        "aliasList": [
          "4218"
        ],
        "actionId": 303,
        "_extraParam": ""
      },
      {
        "$type": "MoleMole.Config.ConfigVisibleInterAction",
        "type": "VISIBLE",
        "delayTime": 0.6000000238418579,
        "aliasList": [
          "20722"
        ],
        "actionId": 304,
        "_extraParam": ""
      },
      {
        "$type": "MoleMole.Config.ConfigVisibleInterAction",
        "type": "VISIBLE",
        "delayTime": 0.6000000238418579,
        "aliasList": [
          "20724"
        ],
        "actionId": 305,
        "_extraParam": ""
      },
      {
        "$type": "MoleMole.Config.ConfigVisibleInterAction",
        "type": "VISIBLE",
        "delayTime": 0.6000000238418579,
        "aliasList": [
          "20723"
        ],
        "actionId": 306,
        "_extraParam": ""
      }
    ]
  ],
  "groupId": [
    {
      "grpId": 2098376358,
      "nextGrpId": 2098376359
    },
    {
      "index": 1,
      "grpId": 2098376359,
      "nextGrpId": 2098376360
    },
    {
      "index": 2,
      "grpId": 2098376360,
      "nextGrpId": 2098376361
    },
    {
      "index": 3,
      "grpId": 2098376361,
      "nextGrpId": 2098376362
    },
    {
      "index": 4,
      "grpId": 2098376362,
      "nextGrpId": 2098376363
    },
    {
      "index": 5,
      "grpId": 2098376363,
      "nextGrpId": 2098376364
    },
    {
      "index": 6,
      "grpId": 2098376364,
      "nextGrpId": 2098376365
    },
    {
      "index": 7,
      "grpId": 2098376365,
      "nextGrpId": 2098376366
    },
    {
      "index": 8,
      "grpId": 2098376366,
      "nextGrpId": 625157706
    },
    {
      "index": 9,
      "grpId": 625157706,
      "nextGrpId": 625157707
    },
    {
      "index": 10,
      "grpId": 625157707,
      "nextGrpId": 625157708
    },
    {
      "index": 11,
      "grpId": 625157708,
      "nextGrpId": 625157709
    },
    {
      "index": 12,
      "grpId": 625157709,
      "nextGrpId": 625157710
    }
  ],
  "freeStyleDic": {
    "4218": [
      1171,
      1190,
      4040,
      1173,
      1172,
      4030
    ]
  }
}