{
  "luaDataPath": "",
  "dontUseDefaultFinish": true,
  "entityBan": "",
  "disableNpcLod": true,
  "isAutoBanNpc": true,
  "isBanWidgetPet": true,
  "protectNpcMobileLod": true,
  "startFade": {
    "startFadeOutDuration": 0.0
  },
  "endFade": {
    "startFadeOutDuration": 0.0
  },
  "actors": [
    {
      "alias": "Avatar",
      "visible": true,
      "bornPointName": "",
      "relativePosNpcAlias": "",
      "_bindMovingTargetKey": ""
    },
    {
      "configID": 1005,
      "alias": "1005",
      "visible": true,
      "bornPointName": "",
      "relativePos": {
        "x": -1.0,
        "z": 0.5
      },
      "relativePosNpcAlias": "",
      "_bindMovingTargetKey": ""
    },
    {
      "configID": 12554,
      "alias": "12554",
      "visible": true,
      "bornPointName": "",
      "relativePosNpcAlias": "",
      "_bindMovingTargetKey": ""
    },
    {
      "configID": 12557,
      "alias": "12557",
      "visible": true,
      "bornPointName": "Q300301_N12557",
      "relativePosType": "AVATAR_NEW",
      "relativePosNpcAlias": "",
      "_bindMovingTargetKey": ""
    }
  ],
  "group": [
    [
      {
        "$type": "MoleMole.Config.ConfigTimeProtectAction",
        "type": "TIME_PROTECT",
        "duration": 0.10000000149011612
      },
      {
        "$type": "MoleMole.Config.ConfigTeleportToAction",
        "type": "TELEPORT_TO",
        "aliasList": [
          "Avatar"
        ],
        "actionId": 117,
        "position": {
          "x": -908.6329956054688,
          "y": 165.69500732421875,
          "z": 2201.6201171875
        },
        "forward": {
          "x": -0.46399998664855957,
          "z": -0.8859999775886536
        },
        "openLongDisTeleport": true,
        "_posBindMovingTargetKey": "",
        "_forwardBindMovingTargetKey": ""
      },
      {
        "$type": "NPCNMEOCADD",
        "type": "LOOK_AT",
        "aliasList": [
          "Avatar"
        ],
        "actionId": 120,
        "enableHead": true,
        "headTurnTime": 0.5,
        "targetNpcAlias": "12554",
        "openBackProtect": true,
        "targetNpcLookAtPoint": "",
        "BHGPHGNFCBF": ""
      },
      {
        "$type": "MoleMole.Config.ConfigTeleportToAction",
        "type": "TELEPORT_TO",
        "aliasList": [
          "1005"
        ],
        "actionId": 118,
        "position": {
          "x": -908.176025390625,
          "y": 165.6790008544922,
          "z": 2200.958984375
        },
        "forward": {
          "x": -0.6679999828338623,
          "z": -0.7440000176429749
        },
        "openLongDisTeleport": true,
        "_posBindMovingTargetKey": "",
        "_forwardBindMovingTargetKey": ""
      },
      {
        "$type": "NPCNMEOCADD",
        "type": "LOOK_AT",
        "aliasList": [
          "1005"
        ],
        "actionId": 122,
        "enableHead": true,
        "headTurnTime": 0.5,
        "targetNpcAlias": "12554",
        "openBackProtect": true,
        "targetNpcLookAtPoint": "",
        "BHGPHGNFCBF": ""
      },
      {
        "$type": "MoleMole.Config.ConfigTeleportToAction",
        "type": "TELEPORT_TO",
        "aliasList": [
          "12554"
        ],
        "actionId": 119,
        "position": {
          "x": -909.9520263671875,
          "y": 166.25,
          "z": 2199.366943359375
        },
        "forward": {
          "x": 0.7210000157356262,
          "z": 0.6930000185966492
        },
        "openLongDisTeleport": true,
        "_posBindMovingTargetKey": "",
        "_forwardBindMovingTargetKey": ""
      },
      {
        "$type": "NPCNMEOCADD",
        "type": "LOOK_AT",
        "aliasList": [
          "12554"
        ],
        "actionId": 124,
        "enableHead": true,
        "headTurnTime": 0.5,
        "targetNpcAlias": "Avatar",
        "openBackProtect": true,
        "targetNpcLookAtPoint": "",
        "BHGPHGNFCBF": ""
      },
      {
        "$type": "EDCHPJLDKIN",
        "type": "BODY_LANG",
        "aliasList": [
          "12554"
        ],
        "actionId": 126,
        "bodyLangParam": 4100,
        "forceDoFreeStyle": true,
        "canDoRepeatFreeStyle": false,
        "cantBackToIdleWhenSitLoop": true,
        "eventPatternSuiteKey": ""
      },
      {
        "$type": "MoleMole.Config.ConfigTeleportToAction",
        "type": "TELEPORT_TO",
        "aliasList": [
          "12557"
        ],
        "actionId": 129,
        "position": {
          "x": -892.4669799804688,
          "y": 164.2949981689453,
          "z": 2230.6669921875
        },
        "forward": {
          "x": 0.5989999771118164,
          "z": 0.800000011920929
        },
        "openLongDisTeleport": true,
        "_posBindMovingTargetKey": "",
        "_forwardBindMovingTargetKey": ""
      },
      {
        "$type": "MoleMole.Config.ConfigVisibleInterAction",
        "type": "VISIBLE",
        "aliasList": [
          "12557"
        ],
        "actionId": 228,
        "isVisible": true,
        "_extraParam": ""
      }
    ],
    [
      {
        "$type": "EFHODGEJOHJ",
        "type": "CAMERA_MOVE",
        "duration": 0.30000001192092896,
        "actionId": 131,
        "camPosOffset": {
          "x": -900.301025390625,
          "y": 167.7220001220703,
          "z": 2200.615966796875
        },
        "camForwardTargetOffset": {
          "x": -901.2880249023438,
          "y": 167.58700561523438,
          "z": 2200.532958984375
        },
        "camFov": 18.0,
        "lerpPattern": 6,
        "cameraBlendType": "EaseInOutCubic",
        "MDKBPBJCMHH": {},
        "openCameraDither": false,
        "targetNpcAlias": "",
        "closeTreeLeafDither": true,
        "PHGBNNGCJKJ": "",
        "NFILMKCFHEB": "",
        "BGPNGHDAECF": ""
      },
      {
        "$type": "MJFAIFFAGOF",
        "type": "DIALOG",
        "aliasList": [
          "12554"
        ],
        "dialogID": 30031401,
        "protectTime": 6.0,
        "autoTalkUseNewProtectTime": true,
        "autoTalkProtectTime": 8.0
      },
      {
        "$type": "ICHLNKHGCAG",
        "type": "EMO_SYNC",
        "aliasList": [
          "12554"
        ],
        "dataPath": "Cs_Emo_Avatar_Simple_Common_Set/Cs_Emo_Avatar_Talk/Cs_Emo_Avatar_MainLine/Cs_Emo_Avatar_Sumeru1/Cs_Emo_30031401",
        "phonemePath": "",
        "emotionPath": "",
        "mateDataPath": "",
        "matePhonemePath": "",
        "mateEmotionPath": "",
        "dataPathHashList": [
          10799755093098800804,
          6429692268822248485,
          4338507719775074168,
          9121276655512232852
        ],
        "PACNIGOOENN": "",
        "PIBDNPHIAGC": ""
      },
      {
        "$type": "MoleMole.Config.ConfigVisibleInterAction",
        "type": "VISIBLE",
        "aliasList": [
          "12557"
        ],
        "actionId": 229,
        "isVisible": true,
        "_extraParam": ""
      },
      {
        "$type": "EFHODGEJOHJ",
        "type": "CAMERA_MOVE",
        "delayTime": 0.20000000298023224,
        "duration": 18.618000030517578,
        "actionId": 142,
        "camPosOffset": {
          "x": -900.27197265625,
          "y": 167.73500061035156,
          "z": 2200.1298828125
        },
        "camForwardTargetOffset": {
          "x": -901.2589721679688,
          "y": 167.60000610351562,
          "z": 2200.047119140625
        },
        "camFov": 18.0,
        "cameraBlendType": "EaseOutQuad",
        "MDKBPBJCMHH": {},
        "needZAxisRotate": true,
        "openCameraDither": false,
        "targetNpcAlias": "",
        "closeTreeLeafDither": true,
        "PHGBNNGCJKJ": "",
        "NFILMKCFHEB": "",
        "BGPNGHDAECF": ""
      }
    ],
    [
      {
        "$type": "MoleMole.Config.ConfigSimpleBlackScreenAction",
        "type": "SIMPLE_BLACK_SCREEN",
        "actionId": 181,
        "durationToBlack": 0.5,
        "durationKeepBlack": 0.800000011920929,
        "durationFromBlack": 0.5,
        "textMapID": "",
        "useTextFade": true
      },
      {
        "$type": "MoleMole.Config.ConfigTimeProtectAction",
        "type": "TIME_PROTECT",
        "duration": 1.2999999523162842,
        "actionId": 217
      },
      {
        "$type": "MoleMole.Config.ConfigTeleportToAction",
        "type": "TELEPORT_TO",
        "aliasList": [
          "12554"
        ],
        "actionId": 214,
        "position": {
          "x": -904.1619873046875,
          "y": 165.24400329589844,
          "z": 2223.717041015625
        },
        "forward": {
          "x": 0.7210000157356262,
          "z": 0.6930000185966492
        },
        "openLongDisTeleport": true,
        "_posBindMovingTargetKey": "",
        "_forwardBindMovingTargetKey": ""
      },
      {
        "$type": "NPCNMEOCADD",
        "type": "LOOK_AT",
        "aliasList": [
          "12554"
        ],
        "actionId": 215,
        "headTurnTime": 0.5,
        "targetNpcAlias": "",
        "openBackProtect": true,
        "targetNpcLookAtPoint": "",
        "BHGPHGNFCBF": ""
      },
      {
        "$type": "EDCHPJLDKIN",
        "type": "BODY_LANG",
        "aliasList": [
          "12554"
        ],
        "actionId": 216,
        "bodyLangParam": 8010,
        "forceDoFreeStyle": true,
        "canDoRepeatFreeStyle": false,
        "cantBackToIdleWhenSitLoop": true,
        "eventPatternSuiteKey": ""
      },
      {
        "$type": "MoleMole.Config.ConfigPlayPostEffectAction",
        "type": "PLAY_POST_EFFECT",
        "delayTime": 0.6000000238418579,
        "actionId": 182,
        "assetName": "PostEffect_Scene_MemoryEffect01"
      },
      {
        "$type": "EFHODGEJOHJ",
        "type": "CAMERA_MOVE",
        "delayTime": 0.6050000190734863,
        "duration": 0.10000000149011612,
        "actionId": 183,
        "camPosOffset": {
          "x": -891.3049926757812,
          "y": 166.11199951171875,
          "z": 2234.863037109375
        },
        "camForwardTargetOffset": {
          "x": -892.1589965820312,
          "y": 166.04800415039062,
          "z": 2234.345947265625
        },
        "camFov": 18.0,
        "lerpPattern": 6,
        "cameraBlendType": "EaseInOutCubic",
        "MDKBPBJCMHH": {},
        "needZAxisRotate": true,
        "openCameraDither": false,
        "targetNpcAlias": "",
        "closeTreeLeafDither": true,
        "dissolveTime": 0.5,
        "PHGBNNGCJKJ": "",
        "NFILMKCFHEB": "",
        "BGPNGHDAECF": ""
      }
    ],
    [
      {
        "$type": "EFHODGEJOHJ",
        "type": "CAMERA_MOVE",
        "duration": 0.10000000149011612,
        "actionId": 173,
        "camPosOffset": {
          "x": -892.6539916992188,
          "y": 166.21099853515625,
          "z": 2233.277099609375
        },
        "camForwardTargetOffset": {
          "x": -893.468017578125,
          "y": 166.17100524902344,
          "z": 2232.697021484375
        },
        "camFov": 18.0,
        "lerpPattern": 6,
        "cameraBlendType": "EaseInOutCubic",
        "MDKBPBJCMHH": {},
        "needZAxisRotate": true,
        "openCameraDither": false,
        "targetNpcAlias": "",
        "closeTreeLeafDither": true,
        "dissolveTime": 0.5,
        "PHGBNNGCJKJ": "",
        "NFILMKCFHEB": "",
        "BGPNGHDAECF": ""
      },
      {
        "$type": "MJFAIFFAGOF",
        "type": "DIALOG",
        "aliasList": [
          "12554"
        ],
        "dialogID": 30031402,
        "protectTime": 0.5
      },
      {
        "$type": "ICHLNKHGCAG",
        "type": "EMO_SYNC",
        "aliasList": [
          "12554"
        ],
        "dataPath": "Cs_Emo_Avatar_Simple_Common_Set/Cs_Emo_Avatar_Talk/Cs_Emo_Avatar_MainLine/Cs_Emo_Avatar_Sumeru1/Cs_Emo_30031402",
        "phonemePath": "",
        "emotionPath": "",
        "mateDataPath": "",
        "matePhonemePath": "",
        "mateEmotionPath": "",
        "dataPathHashList": [
          236744540473053111,
          1582022524856342831,
          9909628204030352516,
          10864107095638063048
        ],
        "PACNIGOOENN": "",
        "PIBDNPHIAGC": ""
      },
      {
        "$type": "EFHODGEJOHJ",
        "type": "CAMERA_MOVE",
        "delayTime": 0.05700000002980232,
        "duration": 11.300000190734863,
        "actionId": 175,
        "camPosOffset": {
          "x": -892.6719970703125,
          "y": 166.1840057373047,
          "z": 2232.4580078125
        },
        "camForwardTargetOffset": {
          "x": -893.5330200195312,
          "y": 166.14100646972656,
          "z": 2231.950927734375
        },
        "camFov": 18.0,
        "cameraBlendType": "EaseOutQuad",
        "MDKBPBJCMHH": {},
        "openCameraDither": false,
        "targetNpcAlias": "",
        "closeTreeLeafDither": true,
        "useDissolve": true,
        "dissolveTime": 0.5,
        "PHGBNNGCJKJ": "",
        "NFILMKCFHEB": "",
        "BGPNGHDAECF": ""
      }
    ],
    [
      {
        "$type": "EFHODGEJOHJ",
        "type": "CAMERA_MOVE",
        "duration": 0.30000001192092896,
        "actionId": 143,
        "camPosOffset": {
          "x": -905.656005859375,
          "y": 166.4709930419922,
          "z": 2222.110107421875
        },
        "camForwardTargetOffset": {
          "x": -904.906982421875,
          "y": 166.40699768066406,
          "z": 2222.77001953125
        },
        "camFov": 18.0,
        "lerpPattern": 6,
        "cameraBlendType": "EaseInOutCubic",
        "MDKBPBJCMHH": {},
        "needZAxisRotate": true,
        "openCameraDither": false,
        "targetNpcAlias": "",
        "closeTreeLeafDither": true,
        "PHGBNNGCJKJ": "",
        "NFILMKCFHEB": "",
        "BGPNGHDAECF": ""
      },
      {
        "$type": "MJFAIFFAGOF",
        "type": "DIALOG",
        "aliasList": [
          "12554"
        ],
        "dialogID": 30031403,
        "protectTime": 0.5
      },
      {
        "$type": "NPCNMEOCADD",
        "type": "LOOK_AT",
        "aliasList": [
          "12554"
        ],
        "actionId": 157,
        "enableHead": true,
        "headTurnTime": 0.5,
        "targetNpcAlias": "12557",
        "openBackProtect": true,
        "targetNpcLookAtPoint": "",
        "BHGPHGNFCBF": ""
      },
      {
        "$type": "ICHLNKHGCAG",
        "type": "EMO_SYNC",
        "aliasList": [
          "12554"
        ],
        "dataPath": "Cs_Emo_Avatar_Simple_Common_Set/Cs_Emo_Avatar_Talk/Cs_Emo_Avatar_MainLine/Cs_Emo_Avatar_Sumeru1/Cs_Emo_30031403",
        "phonemePath": "",
        "emotionPath": "",
        "mateDataPath": "",
        "matePhonemePath": "",
        "mateEmotionPath": "",
        "dataPathHashList": [
          6485279756176660112,
          3475347913180456035,
          16801116849853161289,
          11727179402011488611
        ],
        "PACNIGOOENN": "",
        "PIBDNPHIAGC": ""
      },
      {
        "$type": "EDCHPJLDKIN",
        "type": "BODY_LANG",
        "aliasList": [
          "12557"
        ],
        "actionId": 166,
        "bodyLangParam": 1050,
        "forceDoFreeStyle": true,
        "canDoRepeatFreeStyle": false,
        "cantBackToIdleWhenSitLoop": true,
        "eventPatternSuiteKey": ""
      },
      {
        "$type": "EFHODGEJOHJ",
        "type": "CAMERA_MOVE",
        "delayTime": 0.20000000298023224,
        "duration": 13.54699993133545,
        "actionId": 156,
        "camPosOffset": {
          "x": -905.4450073242188,
          "y": 166.4530029296875,
          "z": 2222.294921875
        },
        "camForwardTargetOffset": {
          "x": -904.6959838867188,
          "y": 166.38900756835938,
          "z": 2222.9541015625
        },
        "camFov": 18.0,
        "cameraBlendType": "EaseOutQuad",
        "MDKBPBJCMHH": {},
        "needZAxisRotate": true,
        "openCameraDither": false,
        "targetNpcAlias": "",
        "closeTreeLeafDither": true,
        "PHGBNNGCJKJ": "",
        "NFILMKCFHEB": "",
        "BGPNGHDAECF": ""
      }
    ],
    [
      {
        "$type": "EFHODGEJOHJ",
        "type": "CAMERA_MOVE",
        "duration": 0.30000001192092896,
        "actionId": 148,
        "camPosOffset": {
          "x": -889.4459838867188,
          "y": 165.7779998779297,
          "z": 2229.7958984375
        },
        "camForwardTargetOffset": {
          "x": -890.3629760742188,
          "y": 165.48500061035156,
          "z": 2230.06591796875
        },
        "camFov": 25.0,
        "lerpPattern": 6,
        "cameraBlendType": "EaseInOutCubic",
        "MDKBPBJCMHH": {},
        "needZAxisRotate": true,
        "openCameraDither": false,
        "targetNpcAlias": "",
        "closeTreeLeafDither": true,
        "PHGBNNGCJKJ": "",
        "NFILMKCFHEB": "",
        "BGPNGHDAECF": ""
      },
      {
        "$type": "MJFAIFFAGOF",
        "type": "DIALOG",
        "aliasList": [
          "12554"
        ],
        "dialogID": 30031404,
        "protectTime": 1.0
      },
      {
        "$type": "MoleMole.Config.ConfigTeleportToAction",
        "type": "TELEPORT_TO",
        "aliasList": [
          "12554"
        ],
        "actionId": 153,
        "position": {
          "x": -901.2579956054688,
          "y": 165.11300659179688,
          "z": 2223.73095703125
        },
        "forward": {
          "x": 5.017000198364258,
          "y": -0.39100000262260437,
          "z": 3.7339999675750732
        },
        "openLongDisTeleport": true,
        "_posBindMovingTargetKey": "",
        "_forwardBindMovingTargetKey": ""
      },
      {
        "$type": "ICHLNKHGCAG",
        "type": "EMO_SYNC",
        "aliasList": [
          "12554"
        ],
        "dataPath": "Cs_Emo_Avatar_Simple_Common_Set/Cs_Emo_Avatar_Talk/Cs_Emo_Avatar_MainLine/Cs_Emo_Avatar_Sumeru1/Cs_Emo_30031404",
        "phonemePath": "",
        "emotionPath": "",
        "mateDataPath": "",
        "matePhonemePath": "",
        "mateEmotionPath": "",
        "dataPathHashList": [
          12653734081386903046,
          15942510390031934419,
          1350930703049699788,
          12131800051534708818
        ],
        "PACNIGOOENN": "",
        "PIBDNPHIAGC": ""
      },
      {
        "$type": "MoleMole.Config.ConfigVisibleInterAction",
        "type": "VISIBLE",
        "aliasList": [
          "12554"
        ],
        "actionId": 227,
        "_extraParam": ""
      },
      {
        "$type": "EDCHPJLDKIN",
        "type": "BODY_LANG",
        "aliasList": [
          "12557"
        ],
        "actionId": 165,
        "bodyLangParam": 1040,
        "forceDoFreeStyle": true,
        "canDoRepeatFreeStyle": false,
        "cantBackToIdleWhenSitLoop": true,
        "eventPatternSuiteKey": ""
      },
      {
        "$type": "MoleMole.Config.ConfigMoveToAction",
        "type": "MOVE_TO",
        "delayTime": 0.10000000149011612,
        "aliasList": [
          "12554"
        ],
        "actionId": 154,
        "moveType": "WALK",
        "routeList": [
          {
            "x": -893.156005859375,
            "y": 164.3780059814453,
            "z": 2229.697998046875
          }
        ],
        "exactlyMove": true,
        "closeNavMesh": true,
        "_bindMovingTargetKey": ""
      },
      {
        "$type": "EFHODGEJOHJ",
        "type": "CAMERA_MOVE",
        "delayTime": 0.20000000298023224,
        "duration": 14.369000434875488,
        "actionId": 158,
        "camPosOffset": {
          "x": -889.625,
          "y": 165.7209930419922,
          "z": 2229.847900390625
        },
        "camForwardTargetOffset": {
          "x": -890.5419921875,
          "y": 165.42799377441406,
          "z": 2230.117919921875
        },
        "camFov": 25.0,
        "cameraBlendType": "EaseOutQuad",
        "MDKBPBJCMHH": {},
        "needZAxisRotate": true,
        "openCameraDither": false,
        "targetNpcAlias": "",
        "closeTreeLeafDither": true,
        "PHGBNNGCJKJ": "",
        "NFILMKCFHEB": "",
        "BGPNGHDAECF": ""
      }
    ],
    [
      {
        "$type": "EFHODGEJOHJ",
        "type": "CAMERA_MOVE",
        "duration": 0.30000001192092896,
        "actionId": 149,
        "camPosOffset": {
          "x": -895.8560180664062,
          "y": 167.20399475097656,
          "z": 2227.742919921875
        },
        "camForwardTargetOffset": {
          "x": -895.2059936523438,
          "y": 166.71400451660156,
          "z": 2228.323974609375
        },
        "camFov": 20.0,
        "lerpPattern": 6,
        "cameraBlendType": "EaseInOutCubic",
        "MDKBPBJCMHH": {},
        "needZAxisRotate": true,
        "rotateAngle": 4.177999973297119,
        "openCameraDither": false,
        "targetNpcAlias": "",
        "closeTreeLeafDither": true,
        "PHGBNNGCJKJ": "",
        "NFILMKCFHEB": "",
        "BGPNGHDAECF": ""
      },
      {
        "$type": "MJFAIFFAGOF",
        "type": "DIALOG",
        "aliasList": [
          "12554"
        ],
        "dialogID": 30031405,
        "protectTime": 0.5
      },
      {
        "$type": "ICHLNKHGCAG",
        "type": "EMO_SYNC",
        "aliasList": [
          "12554"
        ],
        "dataPath": "Cs_Emo_Avatar_Simple_Common_Set/Cs_Emo_Avatar_Talk/Cs_Emo_Avatar_MainLine/Cs_Emo_Avatar_Sumeru1/Cs_Emo_30031405",
        "phonemePath": "",
        "emotionPath": "",
        "mateDataPath": "",
        "matePhonemePath": "",
        "mateEmotionPath": "",
        "dataPathHashList": [
          1127070885656816412,
          955780135696610542,
          1073639918687057839,
          9253517637976134932
        ],
        "PACNIGOOENN": "",
        "PIBDNPHIAGC": ""
      },
      {
        "$type": "MoleMole.Config.ConfigVisibleInterAction",
        "type": "VISIBLE",
        "aliasList": [
          "12554"
        ],
        "actionId": 218,
        "_extraParam": ""
      },
      {
        "$type": "EDCHPJLDKIN",
        "type": "BODY_LANG",
        "aliasList": [
          "12554"
        ],
        "actionId": 221,
        "bodyLangParam": 4100,
        "forceDoFreeStyle": true,
        "canDoRepeatFreeStyle": false,
        "cantBackToIdleWhenSitLoop": true,
        "eventPatternSuiteKey": ""
      },
      {
        "$type": "MoleMole.Config.ConfigTeleportToAction",
        "type": "TELEPORT_TO",
        "aliasList": [
          "12554"
        ],
        "actionId": 222,
        "position": {
          "x": -909.9520263671875,
          "y": 166.25,
          "z": 2199.366943359375
        },
        "forward": {
          "x": 0.7210000157356262,
          "z": 0.6930000185966492
        },
        "openLongDisTeleport": true,
        "_posBindMovingTargetKey": "",
        "_forwardBindMovingTargetKey": ""
      },
      {
        "$type": "EDCHPJLDKIN",
        "type": "BODY_LANG",
        "aliasList": [
          "12557"
        ],
        "actionId": 226,
        "isContinue": true,
        "forceDoFreeStyle": true,
        "canDoRepeatFreeStyle": false,
        "cantBackToIdleWhenSitLoop": true,
        "eventPatternSuiteKey": ""
      },
      {
        "$type": "EFHODGEJOHJ",
        "type": "CAMERA_MOVE",
        "delayTime": 0.1589999943971634,
        "duration": 3.2309999465942383,
        "actionId": 169,
        "camPosOffset": {
          "x": -894.7969970703125,
          "y": 165.3300018310547,
          "z": 2228.449951171875
        },
        "camForwardTargetOffset": {
          "x": -894.0999755859375,
          "y": 165.16000366210938,
          "z": 2229.14599609375
        },
        "camFov": 20.0,
        "cameraBlendType": "EaseOutQuad",
        "MDKBPBJCMHH": {},
        "needZAxisRotate": true,
        "rotateAngle": 3.694999933242798,
        "openCameraDither": false,
        "targetNpcAlias": "",
        "closeTreeLeafDither": true,
        "PHGBNNGCJKJ": "",
        "NFILMKCFHEB": "",
        "BGPNGHDAECF": ""
      },
      {
        "$type": "IEKHMHNHENB",
        "type": "STEER_TO",
        "delayTime": 1.6959999799728394,
        "duration": 1.0,
        "aliasList": [
          "12557"
        ],
        "actionId": 160,
        "steerType": "ABSOLUTE",
        "steerDir": {
          "x": -893.2130126953125,
          "y": 164.36399841308594,
          "z": 2229.949951171875
        },
        "useSteerAnim": true,
        "targetNpcAlias": "",
        "BHGPHGNFCBF": ""
      },
      {
        "$type": "EDCHPJLDKIN",
        "type": "BODY_LANG",
        "delayTime": 3.4130001068115234,
        "aliasList": [
          "12557"
        ],
        "actionId": 164,
        "bodyLangParam": 1020,
        "forceDoFreeStyle": true,
        "canDoRepeatFreeStyle": false,
        "cantBackToIdleWhenSitLoop": true,
        "eventPatternSuiteKey": ""
      }
    ],
    [
      {
        "$type": "MoleMole.Config.ConfigPlayPostEffectAction",
        "type": "PLAY_POST_EFFECT",
        "actionId": 185,
        "assetName": ""
      },
      {
        "$type": "EFHODGEJOHJ",
        "type": "CAMERA_MOVE",
        "duration": 0.30000001192092896,
        "actionId": 191,
        "camPosOffset": {
          "x": -908.3480224609375,
          "y": 166.7480010986328,
          "z": 2199.05810546875
        },
        "camForwardTargetOffset": {
          "x": -908.3519897460938,
          "y": 166.8489990234375,
          "z": 2200.052978515625
        },
        "camFov": 20.0,
        "lerpPattern": 6,
        "cameraBlendType": "EaseInOutCubic",
        "MDKBPBJCMHH": {},
        "needZAxisRotate": true,
        "openCameraDither": false,
        "targetNpcAlias": "",
        "closeTreeLeafDither": true,
        "PHGBNNGCJKJ": "",
        "NFILMKCFHEB": "",
        "BGPNGHDAECF": ""
      },
      {
        "$type": "MoleMole.Config.ConfigTimeProtectAction",
        "type": "TIME_PROTECT",
        "duration": 1.0,
        "actionId": 200
      },
      {
        "$type": "NPCNMEOCADD",
        "type": "LOOK_AT",
        "aliasList": [
          "Avatar"
        ],
        "actionId": 223,
        "enableHead": true,
        "useTargetPos": true,
        "enableAbsolute": true,
        "targetPosition": {
          "x": -909.8049926757812,
          "y": 166.9669952392578,
          "z": 2199.56591796875
        },
        "headTurnTime": -1.0,
        "targetNpcAlias": "",
        "lookAtTargetType": "NONE",
        "openBackProtect": true,
        "targetNpcLookAtPoint": "",
        "BHGPHGNFCBF": ""
      },
      {
        "$type": "MJFAIFFAGOF",
        "type": "DIALOG",
        "aliasList": [
          "1005"
        ],
        "dialogID": 30031406,
        "protectTime": 2.0
      },
      {
        "$type": "EDCHPJLDKIN",
        "type": "BODY_LANG",
        "aliasList": [
          "1005"
        ],
        "actionId": 189,
        "bodyLangParam": 1060,
        "forceDoFreeStyle": true,
        "canDoRepeatFreeStyle": false,
        "cantBackToIdleWhenSitLoop": true,
        "eventPatternSuiteKey": ""
      },
      {
        "$type": "ICHLNKHGCAG",
        "type": "EMO_SYNC",
        "aliasList": [
          "1005"
        ],
        "dataPath": "Cs_Emo_Avatar_Simple_Common_Set/Cs_Emo_Avatar_Talk/Cs_Emo_Avatar_MainLine/Cs_Emo_Avatar_Sumeru1/Cs_Emo_30031406",
        "phonemePath": "",
        "emotionPath": "",
        "mateDataPath": "",
        "matePhonemePath": "",
        "mateEmotionPath": "",
        "dataPathHashList": [
          15035971073635791328,
          1442132481600689769,
          142888080831312826,
          3475878937346654553
        ],
        "PACNIGOOENN": "",
        "PIBDNPHIAGC": ""
      },
      {
        "$type": "NPCNMEOCADD",
        "type": "LOOK_AT",
        "aliasList": [
          "12554"
        ],
        "actionId": 187,
        "enableHead": true,
        "headTurnTime": 0.5,
        "targetNpcAlias": "Avatar",
        "openBackProtect": true,
        "targetNpcLookAtPoint": "",
        "BHGPHGNFCBF": ""
      },
      {
        "$type": "MoleMole.Config.ConfigVisibleInterAction",
        "type": "VISIBLE",
        "aliasList": [
          "12554"
        ],
        "actionId": 219,
        "isVisible": true,
        "_extraParam": ""
      },
      {
        "$type": "EDCHPJLDKIN",
        "type": "BODY_LANG",
        "aliasList": [
          "12554"
        ],
        "actionId": 224,
        "bodyLangParam": 4100,
        "forceDoFreeStyle": true,
        "canDoRepeatFreeStyle": false,
        "cantBackToIdleWhenSitLoop": true,
        "eventPatternSuiteKey": ""
      },
      {
        "$type": "EFHODGEJOHJ",
        "type": "CAMERA_MOVE",
        "delayTime": 0.18299999833106995,
        "duration": 3.236999988555908,
        "actionId": 192,
        "camPosOffset": {
          "x": -908.3489990234375,
          "y": 166.76800537109375,
          "z": 2199.256103515625
        },
        "camForwardTargetOffset": {
          "x": -908.35302734375,
          "y": 166.86900329589844,
          "z": 2200.2509765625
        },
        "camFov": 20.0,
        "cameraBlendType": "EaseOutQuad",
        "MDKBPBJCMHH": {},
        "needZAxisRotate": true,
        "openCameraDither": false,
        "targetNpcAlias": "",
        "closeTreeLeafDither": true,
        "PHGBNNGCJKJ": "",
        "NFILMKCFHEB": "",
        "BGPNGHDAECF": ""
      }
    ],
    [
      {
        "$type": "EFHODGEJOHJ",
        "type": "CAMERA_MOVE",
        "duration": 0.30000001192092896,
        "actionId": 151,
        "camPosOffset": {
          "x": -911.1119995117188,
          "y": 169.8260040283203,
          "z": 2192.990966796875
        },
        "camForwardTargetOffset": {
          "x": -910.9210205078125,
          "y": 169.4429931640625,
          "z": 2193.89501953125
        },
        "camFov": 18.0,
        "lerpPattern": 6,
        "cameraBlendType": "EaseInOutCubic",
        "MDKBPBJCMHH": {},
        "needZAxisRotate": true,
        "openCameraDither": false,
        "targetNpcAlias": "",
        "closeTreeLeafDither": true,
        "PHGBNNGCJKJ": "",
        "NFILMKCFHEB": "",
        "BGPNGHDAECF": ""
      },
      {
        "$type": "EDCHPJLDKIN",
        "type": "BODY_LANG",
        "aliasList": [
          "1005"
        ],
        "actionId": 190,
        "isContinue": true,
        "forceDoFreeStyle": true,
        "canDoRepeatFreeStyle": false,
        "cantBackToIdleWhenSitLoop": true,
        "eventPatternSuiteKey": ""
      },
      {
        "$type": "MJFAIFFAGOF",
        "type": "DIALOG",
        "aliasList": [
          "12554"
        ],
        "dialogID": 30031407,
        "protectTime": 0.5
      },
      {
        "$type": "NPCNMEOCADD",
        "type": "LOOK_AT",
        "aliasList": [
          "12554"
        ],
        "actionId": 201,
        "enableHead": true,
        "useTargetPos": true,
        "enableAbsolute": true,
        "targetPosition": {
          "x": -909.489990234375,
          "y": 166.76199340820312,
          "z": 2199.797119140625
        },
        "headTurnTime": 0.5,
        "targetNpcAlias": "",
        "lookAtTargetType": "NONE",
        "openBackProtect": true,
        "targetNpcLookAtPoint": "",
        "BHGPHGNFCBF": ""
      },
      {
        "$type": "ICHLNKHGCAG",
        "type": "EMO_SYNC",
        "aliasList": [
          "12554"
        ],
        "dataPath": "Cs_Emo_Avatar_Simple_Common_Set/Cs_Emo_Avatar_Talk/Cs_Emo_Avatar_MainLine/Cs_Emo_Avatar_Sumeru1/Cs_Emo_30031407",
        "phonemePath": "",
        "emotionPath": "",
        "mateDataPath": "",
        "matePhonemePath": "",
        "mateEmotionPath": "",
        "dataPathHashList": [
          224905485908678715,
          1664337341630100883,
          17624620878991416192,
          8288415305756404666
        ],
        "PACNIGOOENN": "",
        "PIBDNPHIAGC": ""
      },
      {
        "$type": "MoleMole.Config.ConfigVisibleInterAction",
        "type": "VISIBLE",
        "aliasList": [
          "12557"
        ],
        "actionId": 152,
        "_extraParam": ""
      },
      {
        "$type": "EFHODGEJOHJ",
        "type": "CAMERA_MOVE",
        "delayTime": 0.20000000298023224,
        "duration": 12.883999824523926,
        "actionId": 172,
        "camPosOffset": {
          "x": -910.3419799804688,
          "y": 169.78599548339844,
          "z": 2192.85791015625
        },
        "camForwardTargetOffset": {
          "x": -910.2570190429688,
          "y": 169.4080047607422,
          "z": 2193.780029296875
        },
        "camFov": 18.0,
        "cameraBlendType": "EaseOutQuad",
        "MDKBPBJCMHH": {},
        "needZAxisRotate": true,
        "openCameraDither": false,
        "targetNpcAlias": "",
        "closeTreeLeafDither": true,
        "PHGBNNGCJKJ": "",
        "NFILMKCFHEB": "",
        "BGPNGHDAECF": ""
      },
      {
        "$type": "NPCNMEOCADD",
        "type": "LOOK_AT",
        "delayTime": 2.5899999141693115,
        "aliasList": [
          "12554"
        ],
        "actionId": 193,
        "enableHead": true,
        "useTargetPos": true,
        "enableAbsolute": true,
        "targetPosition": {
          "x": -907.9000244140625,
          "y": 167.0189971923828,
          "z": 2201.178955078125
        },
        "headTurnTime": 0.5,
        "targetNpcAlias": "1005",
        "lookAtTargetType": "NONE",
        "openBackProtect": true,
        "targetNpcLookAtPoint": "",
        "BHGPHGNFCBF": ""
      }
    ],
    [
      {
        "$type": "EFHODGEJOHJ",
        "type": "CAMERA_MOVE",
        "duration": 0.30000001192092896,
        "actionId": 171,
        "camPosOffset": {
          "x": -908.85400390625,
          "y": 166.8489990234375,
          "z": 2199.591064453125
        },
        "camForwardTargetOffset": {
          "x": -909.8510131835938,
          "y": 166.90499877929688,
          "z": 2199.5439453125
        },
        "camFov": 20.0,
        "lerpPattern": 6,
        "cameraBlendType": "EaseInOutCubic",
        "MDKBPBJCMHH": {},
        "needZAxisRotate": true,
        "openCameraDither": false,
        "targetNpcAlias": "",
        "closeTreeLeafDither": true,
        "PHGBNNGCJKJ": "",
        "NFILMKCFHEB": "",
        "BGPNGHDAECF": ""
      },
      {
        "$type": "MoleMole.Config.ConfigTeleportToAction",
        "type": "TELEPORT_TO",
        "aliasList": [
          "Avatar"
        ],
        "actionId": 117,
        "position": {
          "x": -908.6329956054688,
          "y": 165.69500732421875,
          "z": 2201.6201171875
        },
        "forward": {
          "x": -0.46399998664855957,
          "z": -0.8859999775886536
        },
        "openLongDisTeleport": true,
        "_posBindMovingTargetKey": "",
        "_forwardBindMovingTargetKey": ""
      },
      {
        "$type": "NPCNMEOCADD",
        "type": "LOOK_AT",
        "aliasList": [
          "Avatar"
        ],
        "actionId": 120,
        "enableHead": true,
        "headTurnTime": 0.5,
        "targetNpcAlias": "12554",
        "openBackProtect": true,
        "targetNpcLookAtPoint": "",
        "BHGPHGNFCBF": ""
      },
      {
        "$type": "MoleMole.Config.ConfigTeleportToAction",
        "type": "TELEPORT_TO",
        "aliasList": [
          "1005"
        ],
        "actionId": 118,
        "position": {
          "x": -908.176025390625,
          "y": 165.6790008544922,
          "z": 2200.958984375
        },
        "forward": {
          "x": -0.6679999828338623,
          "z": -0.7440000176429749
        },
        "openLongDisTeleport": true,
        "_posBindMovingTargetKey": "",
        "_forwardBindMovingTargetKey": ""
      },
      {
        "$type": "NPCNMEOCADD",
        "type": "LOOK_AT",
        "aliasList": [
          "1005"
        ],
        "actionId": 122,
        "enableHead": true,
        "headTurnTime": 0.5,
        "targetNpcAlias": "12554",
        "openBackProtect": true,
        "targetNpcLookAtPoint": "",
        "BHGPHGNFCBF": ""
      },
      {
        "$type": "MJFAIFFAGOF",
        "type": "DIALOG",
        "aliasList": [
          "12554"
        ],
        "dialogID": 30031408,
        "protectTime": 0.5
      },
      {
        "$type": "EDCHPJLDKIN",
        "type": "BODY_LANG",
        "aliasList": [
          "12554"
        ],
        "actionId": 197,
        "bodyLangParam": 4040,
        "forceDoFreeStyle": true,
        "canDoRepeatFreeStyle": false,
        "cantBackToIdleWhenSitLoop": true,
        "eventPatternSuiteKey": ""
      },
      {
        "$type": "NPCNMEOCADD",
        "type": "LOOK_AT",
        "aliasList": [
          "12554"
        ],
        "actionId": 198,
        "enableHead": true,
        "useTargetPos": true,
        "enableAbsolute": true,
        "targetPosition": {
          "x": -909.489990234375,
          "y": 166.68600463867188,
          "z": 2199.797119140625
        },
        "headTurnTime": 0.5,
        "targetNpcAlias": "",
        "lookAtTargetType": "NONE",
        "openBackProtect": true,
        "targetNpcLookAtPoint": "",
        "BHGPHGNFCBF": ""
      },
      {
        "$type": "HGDDIPABPCA",
        "type": "LOOK_AT_EYECTRL",
        "aliasList": [
          "12554"
        ],
        "actionId": 202,
        "useTargetPos": false,
        "eyeRotateVecLeft": {
          "z": 4.0
        },
        "eyeRotateVecRight": {
          "z": 4.0
        },
        "turnTime": 0.20000000298023224,
        "targetNpcAlias": "",
        "targetPoint": "Face"
      },
      {
        "$type": "ICHLNKHGCAG",
        "type": "EMO_SYNC",
        "aliasList": [
          "12554"
        ],
        "dataPath": "Cs_Emo_Avatar_Simple_Common_Set/Cs_Emo_Avatar_Talk/Cs_Emo_Avatar_MainLine/Cs_Emo_Avatar_Sumeru1/Cs_Emo_30031408",
        "phonemePath": "",
        "emotionPath": "",
        "mateDataPath": "",
        "matePhonemePath": "",
        "mateEmotionPath": "",
        "dataPathHashList": [
          1527823075237369005,
          13997561030711745303,
          3834939298878552991,
          460950786476005417
        ],
        "PACNIGOOENN": "",
        "PIBDNPHIAGC": ""
      },
      {
        "$type": "EFHODGEJOHJ",
        "type": "CAMERA_MOVE",
        "delayTime": 0.20000000298023224,
        "duration": 18.27199935913086,
        "actionId": 196,
        "camPosOffset": {
          "x": -908.85302734375,
          "y": 166.84800720214844,
          "z": 2199.556884765625
        },
        "camForwardTargetOffset": {
          "x": -909.8499755859375,
          "y": 166.9040069580078,
          "z": 2199.510009765625
        },
        "camFov": 20.0,
        "cameraBlendType": "EaseOutQuad",
        "MDKBPBJCMHH": {},
        "needZAxisRotate": true,
        "openCameraDither": false,
        "targetNpcAlias": "",
        "closeTreeLeafDither": true,
        "PHGBNNGCJKJ": "",
        "NFILMKCFHEB": "",
        "BGPNGHDAECF": ""
      },
      {
        "$type": "HGDDIPABPCA",
        "type": "LOOK_AT_EYECTRL",
        "delayTime": 3.244999885559082,
        "aliasList": [
          "12554"
        ],
        "actionId": 203,
        "useTargetPos": false,
        "turnTime": 0.20000000298023224,
        "targetNpcAlias": "",
        "targetPoint": "Face"
      },
      {
        "$type": "NPCNMEOCADD",
        "type": "LOOK_AT",
        "delayTime": 3.325000047683716,
        "aliasList": [
          "12554"
        ],
        "actionId": 195,
        "enableHead": true,
        "useTargetPos": true,
        "enableAbsolute": true,
        "targetPosition": {
          "x": -907.9000244140625,
          "y": 167.0189971923828,
          "z": 2201.178955078125
        },
        "headTurnTime": 0.5,
        "targetNpcAlias": "1005",
        "lookAtTargetType": "NONE",
        "openBackProtect": true,
        "targetNpcLookAtPoint": "",
        "BHGPHGNFCBF": ""
      }
    ],
    [
      {
        "$type": "MoleMole.Config.ConfigTimeProtectAction",
        "type": "TIME_PROTECT",
        "duration": 0.10000000149011612
      },
      {
        "$type": "HGDDIPABPCA",
        "type": "LOOK_AT_EYECTRL",
        "aliasList": [
          "12554"
        ],
        "actionId": 205,
        "useTargetPos": false,
        "turnTime": 0.20000000298023224,
        "targetNpcAlias": "",
        "targetPoint": "Face"
      }
    ]
  ],
  "groupId": [
    {
      "grpId": 3299365753,
      "nextGrpId": 3299365754
    },
    {
      "index": 1,
      "grpId": 3299365754,
      "nextGrpId": 3299365755
    },
    {
      "index": 2,
      "grpId": 3299365755,
      "nextGrpId": 3299365756
    },
    {
      "index": 3,
      "grpId": 3299365756,
      "nextGrpId": 3299365757
    },
    {
      "index": 4,
      "grpId": 3299365757,
      "nextGrpId": 3299365758
    },
    {
      "index": 5,
      "grpId": 3299365758,
      "nextGrpId": 3299365759
    },
    {
      "index": 6,
      "grpId": 3299365759,
      "nextGrpId": 3299365760
    },
    {
      "index": 7,
      "grpId": 3299365760,
      "nextGrpId": 3299365761
    },
    {
      "index": 8,
      "grpId": 3299365761,
      "nextGrpId": 3496090583
    },
    {
      "index": 9,
      "grpId": 3496090583,
      "nextGrpId": 3496090584
    },
    {
      "index": 10,
      "grpId": 3496090584,
      "nextGrpId": 3496090585
    }
  ],
  "freeStyleDic": {
    "12554": [
      4100,
      8010,
      4040
    ],
    "12557": [
      1050,
      1040,
      1020
    ]
  }
}