{
  "luaDataPath": "",
  "isSimpleTalk": true,
  "entityBan": "",
  "disableNpcLod": true,
  "isBanWidgetPet": true,
  "protectNpcMobileLod": true,
  "talkFlag": 5,
  "startFade": {
    "startFadeOutDuration": 0.0
  },
  "endFade": {
    "startFadeOutDuration": 0.0
  },
  "actors": [
    {
      "alias": "Avatar",
      "visible": true,
      "bornPointName": "[3_4022:565.998,106.692,6590.936,0.000,20.000,0.000]",
      "relativePosType": "AVATAR_NEW",
      "relativePosNpcAlias": "",
      "_bindMovingTargetKey": ""
    },
    {
      "configID": 20987,
      "alias": "20987",
      "visible": true,
      "bornPointName": "",
      "removeActorType": "NEW_REMOVE_WITH_DISAPPEAR",
      "relativePosType": "AVATAR_NEW",
      "relativePosNpcAlias": "",
      "_bindMovingTargetKey": ""
    },
    {
      "configID": 1005,
      "alias": "1005",
      "visible": true,
      "bornPointName": "",
      "useRelativePos": true,
      "relativePos": {
        "x": -0.6000000238418579,
        "z": -0.20000000298023224
      },
      "removeActorType": "NEW_REMOVE_WITH_DISAPPEAR",
      "relativePosType": "AVATAR_NEW",
      "relativePosNpcAlias": "",
      "_bindMovingTargetKey": ""
    }
  ],
  "group": [
    [
      {
        "$type": "EFHODGEJOHJ",
        "type": "CAMERA_FOCUS",
        "duration": 0.10000000149011612,
        "actionId": 103,
        "targetNpcAlias": "",
        "PHGBNNGCJKJ": "",
        "NFILMKCFHEB": "",
        "BGPNGHDAECF": ""
      },
      {
        "$type": "MoleMole.Config.ConfigTimeProtectAction",
        "type": "TIME_PROTECT",
        "duration": 0.10000000149011612,
        "actionId": 104
      },
      {
        "$type": "IEKHMHNHENB",
        "type": "STEER_TO",
        "delayTime": 0.30000001192092896,
        "duration": 0.800000011920929,
        "aliasList": [
          "Avatar"
        ],
        "actionId": 152,
        "steerType": "TO_TARGET_ADVANCED",
        "useSteerAnim": true,
        "interruptFreestyle": true,
        "forceSteer": true,
        "targetNpcAlias": "20987",
        "fixInterNull": true,
        "BHGPHGNFCBF": ""
      }
    ],
    [
      {
        "$type": "MJFAIFFAGOF",
        "type": "DIALOG",
        "aliasList": [
          "20987"
        ],
        "actionId": 107,
        "dialogID": 733160201,
        "protectTime": 0.5
      }
    ],
    [
      {
        "$type": "MJFAIFFAGOF",
        "type": "DIALOG",
        "aliasList": [
          "1005"
        ],
        "actionId": 109,
        "dialogID": 733160202,
        "protectTime": 0.5
      }
    ],
    [
      {
        "$type": "MJFAIFFAGOF",
        "type": "DIALOG",
        "aliasList": [
          "20987"
        ],
        "actionId": 111,
        "dialogID": 733160203,
        "protectTime": 0.5
      }
    ],
    [
      {
        "$type": "MJFAIFFAGOF",
        "type": "DIALOG",
        "aliasList": [
          "1005"
        ],
        "actionId": 113,
        "dialogID": 733160204,
        "protectTime": 0.5
      }
    ],
    [
      {
        "$type": "MJFAIFFAGOF",
        "type": "DIALOG",
        "aliasList": [
          "1005"
        ],
        "actionId": 115,
        "dialogID": 733160205,
        "protectTime": 0.5
      },
      {
        "$type": "OBCDECFOOBC",
        "type": "DIALOG_SELECT",
        "delayTime": 0.4000000059604645,
        "aliasList": [
          "Avatar"
        ],
        "actionId": 116,
        "dialogIDList": [
          733160206,
          733160207
        ],
        "grpIDList": [
          138285357,
          138285357
        ],
        "useGrpId": true,
        "countDownGrpId": 138285350
      }
    ],
    [
      {
        "$type": "MJFAIFFAGOF",
        "type": "DIALOG",
        "aliasList": [
          "1005"
        ],
        "actionId": 118,
        "dialogID": 733160208,
        "protectTime": 0.5
      }
    ],
    [
      {
        "$type": "MJFAIFFAGOF",
        "type": "DIALOG",
        "aliasList": [
          "20987"
        ],
        "actionId": 120,
        "dialogID": 733160209,
        "protectTime": 0.5
      }
    ],
    [
      {
        "$type": "MJFAIFFAGOF",
        "type": "DIALOG",
        "aliasList": [
          "1005"
        ],
        "actionId": 122,
        "dialogID": 733160210,
        "protectTime": 0.5
      }
    ],
    [
      {
        "$type": "MJFAIFFAGOF",
        "type": "DIALOG",
        "aliasList": [
          "20987"
        ],
        "actionId": 124,
        "dialogID": 733160211,
        "protectTime": 0.5
      }
    ],
    [
      {
        "$type": "MJFAIFFAGOF",
        "type": "DIALOG",
        "aliasList": [
          "20987"
        ],
        "actionId": 126,
        "dialogID": 733160212,
        "protectTime": 0.5
      }
    ],
    [
      {
        "$type": "MJFAIFFAGOF",
        "type": "DIALOG",
        "aliasList": [
          "1005"
        ],
        "actionId": 128,
        "dialogID": 733160213,
        "protectTime": 0.5
      }
    ],
    [
      {
        "$type": "MJFAIFFAGOF",
        "type": "DIALOG",
        "aliasList": [
          "20987"
        ],
        "actionId": 130,
        "dialogID": 733160214,
        "protectTime": 0.5
      }
    ],
    [
      {
        "$type": "MJFAIFFAGOF",
        "type": "DIALOG",
        "aliasList": [
          "20987"
        ],
        "actionId": 132,
        "dialogID": 733160215,
        "protectTime": 0.5
      }
    ],
    [
      {
        "$type": "MJFAIFFAGOF",
        "type": "DIALOG",
        "aliasList": [
          "20987"
        ],
        "actionId": 134,
        "dialogID": 733160216,
        "protectTime": 0.5
      }
    ],
    [
      {
        "$type": "MJFAIFFAGOF",
        "type": "DIALOG",
        "aliasList": [
          "20987"
        ],
        "actionId": 136,
        "dialogID": 733160217,
        "protectTime": 0.5
      }
    ],
    [
      {
        "$type": "MJFAIFFAGOF",
        "type": "DIALOG",
        "aliasList": [
          "20987"
        ],
        "actionId": 138,
        "dialogID": 733160218,
        "protectTime": 0.5
      },
      {
        "$type": "OBCDECFOOBC",
        "type": "DIALOG_SELECT",
        "delayTime": 0.4000000059604645,
        "aliasList": [
          "Avatar"
        ],
        "actionId": 139,
        "dialogIDList": [
          733160219,
          733160220
        ],
        "grpIDList": [
          4286845937,
          4286845937
        ],
        "useGrpId": true,
        "countDownGrpId": 138285350
      }
    ],
    [
      {
        "$type": "MJFAIFFAGOF",
        "type": "DIALOG",
        "aliasList": [
          "1005"
        ],
        "actionId": 141,
        "dialogID": 733160221,
        "protectTime": 0.5
      }
    ],
    [
      {
        "$type": "MJFAIFFAGOF",
        "type": "DIALOG",
        "aliasList": [
          "20987"
        ],
        "actionId": 143,
        "dialogID": 733160222,
        "protectTime": 0.5
      }
    ],
    [
      {
        "$type": "MJFAIFFAGOF",
        "type": "DIALOG",
        "aliasList": [
          "1005"
        ],
        "actionId": 145,
        "dialogID": 733160223,
        "protectTime": 0.5
      }
    ],
    [
      {
        "$type": "MJFAIFFAGOF",
        "type": "DIALOG",
        "aliasList": [
          "1005"
        ],
        "actionId": 147,
        "dialogID": 733160224,
        "protectTime": 0.5
      }
    ],
    [
      {
        "$type": "MJFAIFFAGOF",
        "type": "DIALOG",
        "aliasList": [
          "20987"
        ],
        "actionId": 149,
        "dialogID": 733160225,
        "protectTime": 0.5
      }
    ],
    [
      {
        "$type": "MJFAIFFAGOF",
        "type": "DIALOG",
        "aliasList": [
          "20987"
        ],
        "actionId": 151,
        "dialogID": 733160226,
        "protectTime": 0.5
      }
    ],
    [
      {
        "$type": "MoleMole.Config.ConfigTimeProtectAction",
        "type": "TIME_PROTECT",
        "duration": 0.10000000149011612,
        "actionId": 105
      }
    ]
  ],
  "groupId": [
    {
      "grpId": 138285351,
      "nextGrpId": 138285352
    },
    {
      "index": 1,
      "grpId": 138285352,
      "nextGrpId": 138285353
    },
    {
      "index": 2,
      "grpId": 138285353,
      "nextGrpId": 138285354
    },
    {
      "index": 3,
      "grpId": 138285354,
      "nextGrpId": 138285355
    },
    {
      "index": 4,
      "grpId": 138285355,
      "nextGrpId": 138285356
    },
    {
      "index": 5,
      "grpId": 138285356,
      "nextGrpId": 138285357
    },
    {
      "index": 6,
      "grpId": 138285357,
      "nextGrpId": 138285358
    },
    {
      "index": 7,
      "grpId": 138285358,
      "nextGrpId": 138285359
    },
    {
      "index": 8,
      "grpId": 138285359,
      "nextGrpId": 4286845929
    },
    {
      "index": 9,
      "grpId": 4286845929,
      "nextGrpId": 4286845930
    },
    {
      "index": 10,
      "grpId": 4286845930,
      "nextGrpId": 4286845931
    },
    {
      "index": 11,
      "grpId": 4286845931,
      "nextGrpId": 4286845932
    },
    {
      "index": 12,
      "grpId": 4286845932,
      "nextGrpId": 4286845933
    },
    {
      "index": 13,
      "grpId": 4286845933,
      "nextGrpId": 4286845934
    },
    {
      "index": 14,
      "grpId": 4286845934,
      "nextGrpId": 4286845935
    },
    {
      "index": 15,
      "grpId": 4286845935,
      "nextGrpId": 4286845936
    },
    {
      "index": 16,
      "grpId": 4286845936,
      "nextGrpId": 4286845937
    },
    {
      "index": 17,
      "grpId": 4286845937,
      "nextGrpId": 4286845938
    },
    {
      "index": 18,
      "grpId": 4286845938,
      "nextGrpId": 4286845960
    },
    {
      "index": 19,
      "grpId": 4286845960,
      "nextGrpId": 4286845961
    },
    {
      "index": 20,
      "grpId": 4286845961,
      "nextGrpId": 4286845962
    },
    {
      "index": 21,
      "grpId": 4286845962,
      "nextGrpId": 4286845963
    },
    {
      "index": 22,
      "grpId": 4286845963,
      "nextGrpId": 4286845964
    },
    {
      "index": 23,
      "grpId": 4286845964,
      "nextGrpId": 4286845965
    }
  ],
  "freeStyleDic": {
    "20987": []
  }
}