{
  "luaDataPath": "",
  "isSimpleTalk": true,
  "entityBan": "",
  "disableNpcLod": true,
  "protectNpcMobileLod": true,
  "talkFlag": 1,
  "startFade": {
    "startFadeOutDuration": 0.0
  },
  "endFade": {
    "startFadeOutDuration": 0.0
  },
  "actors": [
    {
      "alias": "Avatar",
      "visible": true,
      "bornPointName": "",
      "relativePosType": "AVATAR_NEW",
      "relativePosNpcAlias": "",
      "_bindMovingTargetKey": ""
    },
    {
      "configID": 30046,
      "alias": "30046",
      "visible": true,
      "bornPointName": "",
      "relativePosType": "AVATAR_NEW",
      "relativePosNpcAlias": "",
      "_bindMovingTargetKey": ""
    }
  ],
  "group": [
    [
      {
        "$type": "EFHODGEJOHJ",
        "type": "CAMERA_FOCUS",
        "duration": 0.10000000149011612,
        "actionId": 103,
        "targetNpcAlias": "",
        "PHGBNNGCJKJ": "",
        "NFILMKCFHEB": "",
        "BGPNGHDAECF": ""
      },
      {
        "$type": "MoleMole.Config.ConfigTimeProtectAction",
        "type": "TIME_PROTECT",
        "duration": 0.10000000149011612,
        "actionId": 104
      },
      {
        "$type": "IEKHMHNHENB",
        "type": "STEER_TO",
        "delayTime": 0.30000001192092896,
        "duration": 0.800000011920929,
        "aliasList": [
          "Avatar"
        ],
        "actionId": 145,
        "steerType": "TO_TARGET_ADVANCED",
        "useSteerAnim": true,
        "interruptFreestyle": true,
        "forceSteer": true,
        "targetNpcAlias": "30046",
        "fixInterNull": true,
        "BHGPHGNFCBF": ""
      },
      {
        "$type": "IEKHMHNHENB",
        "type": "STEER_TO",
        "delayTime": 0.30000001192092896,
        "duration": 0.800000011920929,
        "aliasList": [
          "30046"
        ],
        "actionId": 146,
        "steerType": "TO_LOCAL_AVATAR_ADVANCED",
        "useSteerAnim": true,
        "interruptFreestyle": true,
        "forceSteer": true,
        "targetNpcAlias": "",
        "fixInterNull": true,
        "BHGPHGNFCBF": ""
      }
    ],
    [
      {
        "$type": "MJFAIFFAGOF",
        "type": "DIALOG",
        "aliasList": [
          "30046"
        ],
        "actionId": 107,
        "dialogID": 705290401,
        "protectTime": 0.5
      }
    ],
    [
      {
        "$type": "MJFAIFFAGOF",
        "type": "DIALOG",
        "aliasList": [
          "30046"
        ],
        "actionId": 109,
        "dialogID": 705290402,
        "protectTime": 0.5
      },
      {
        "$type": "OBCDECFOOBC",
        "type": "DIALOG_SELECT",
        "delayTime": 0.4000000059604645,
        "aliasList": [
          "Avatar"
        ],
        "actionId": 110,
        "dialogIDList": [
          705290403,
          705290404
        ],
        "grpIDList": [
          823610468,
          823610468
        ],
        "useGrpId": true,
        "countDownGrpId": 823610464
      }
    ],
    [
      {
        "$type": "MJFAIFFAGOF",
        "type": "DIALOG",
        "aliasList": [
          "30046"
        ],
        "actionId": 112,
        "dialogID": 705290405,
        "protectTime": 0.5
      }
    ],
    [
      {
        "$type": "MJFAIFFAGOF",
        "type": "DIALOG",
        "aliasList": [
          "30046"
        ],
        "actionId": 114,
        "dialogID": 705290406,
        "protectTime": 0.5
      }
    ],
    [
      {
        "$type": "MJFAIFFAGOF",
        "type": "DIALOG",
        "aliasList": [
          "30046"
        ],
        "actionId": 116,
        "dialogID": 705290407,
        "protectTime": 0.5
      }
    ],
    [
      {
        "$type": "MJFAIFFAGOF",
        "type": "DIALOG",
        "aliasList": [
          "30046"
        ],
        "actionId": 118,
        "dialogID": 705290408,
        "protectTime": 0.5
      },
      {
        "$type": "OBCDECFOOBC",
        "type": "DIALOG_SELECT",
        "delayTime": 0.4000000059604645,
        "aliasList": [
          "Avatar"
        ],
        "actionId": 119,
        "dialogIDList": [
          705290409
        ],
        "grpIDList": [
          823610472
        ],
        "useGrpId": true,
        "countDownGrpId": 823610464
      }
    ],
    [
      {
        "$type": "MJFAIFFAGOF",
        "type": "DIALOG",
        "aliasList": [
          "30046"
        ],
        "actionId": 121,
        "dialogID": 705290410,
        "protectTime": 0.5
      }
    ],
    [
      {
        "$type": "MJFAIFFAGOF",
        "type": "DIALOG",
        "aliasList": [
          "30046"
        ],
        "actionId": 123,
        "dialogID": 705290411,
        "protectTime": 0.5
      }
    ],
    [
      {
        "$type": "MJFAIFFAGOF",
        "type": "DIALOG",
        "aliasList": [
          "30046"
        ],
        "actionId": 125,
        "dialogID": 705290412,
        "protectTime": 0.5
      }
    ],
    [
      {
        "$type": "MJFAIFFAGOF",
        "type": "DIALOG",
        "aliasList": [
          "30046"
        ],
        "actionId": 127,
        "dialogID": 705290413,
        "protectTime": 0.5
      }
    ],
    [
      {
        "$type": "MJFAIFFAGOF",
        "type": "DIALOG",
        "aliasList": [
          "30046"
        ],
        "actionId": 129,
        "dialogID": 705290414,
        "protectTime": 0.5
      }
    ],
    [
      {
        "$type": "MJFAIFFAGOF",
        "type": "DIALOG",
        "aliasList": [
          "30046"
        ],
        "actionId": 131,
        "dialogID": 705290415,
        "protectTime": 0.5
      },
      {
        "$type": "OBCDECFOOBC",
        "type": "DIALOG_SELECT",
        "delayTime": 0.4000000059604645,
        "aliasList": [
          "Avatar"
        ],
        "actionId": 132,
        "dialogIDList": [
          705290416,
          705290417,
          705290418
        ],
        "grpIDList": [
          4057087987,
          4057087988,
          4057087989
        ],
        "useGrpId": true,
        "countDownGrpId": 823610464
      }
    ],
    [
      {
        "$type": "MoleMole.Config.ConfigUITriggerInterAction",
        "type": "UI_TRIGGER",
        "duration": 0.0,
        "actionId": 151,
        "contextName": "MusicInstrument",
        "_param": "1"
      }
    ],
    [
      {
        "$type": "MoleMole.Config.ConfigUITriggerInterAction",
        "type": "UI_TRIGGER",
        "duration": 0.0,
        "actionId": 153,
        "contextName": "MusicInstrument",
        "_param": "2"
      }
    ],
    [
      {
        "$type": "MoleMole.Config.ConfigUITriggerInterAction",
        "type": "UI_TRIGGER",
        "duration": 0.0,
        "actionId": 154,
        "contextName": "MusicInstrument",
        "_param": "5"
      }
    ],
    [
      {
        "$type": "MJFAIFFAGOF",
        "type": "DIALOG",
        "aliasList": [
          "30046"
        ],
        "actionId": 134,
        "dialogID": 705290419,
        "protectTime": 0.5
      }
    ],
    [
      {
        "$type": "MJFAIFFAGOF",
        "type": "DIALOG",
        "aliasList": [
          "30046"
        ],
        "actionId": 136,
        "dialogID": 705290420,
        "protectTime": 0.5
      }
    ],
    [
      {
        "$type": "MJFAIFFAGOF",
        "type": "DIALOG",
        "aliasList": [
          "30046"
        ],
        "actionId": 138,
        "dialogID": 705290421,
        "protectTime": 0.5
      }
    ],
    [
      {
        "$type": "MJFAIFFAGOF",
        "type": "DIALOG",
        "aliasList": [
          "30046"
        ],
        "actionId": 140,
        "dialogID": 705290422,
        "protectTime": 0.5
      }
    ],
    [
      {
        "$type": "MoleMole.Config.ConfigUITriggerInterAction",
        "type": "UI_TRIGGER",
        "actionId": 152,
        "contextName": "MusicCalibration",
        "_param": ""
      }
    ],
    [
      {
        "$type": "MJFAIFFAGOF",
        "type": "DIALOG",
        "aliasList": [
          "30046"
        ],
        "actionId": 142,
        "dialogID": 705290423,
        "protectTime": 0.5
      }
    ],
    [
      {
        "$type": "MJFAIFFAGOF",
        "type": "DIALOG",
        "aliasList": [
          "30046"
        ],
        "actionId": 144,
        "dialogID": 705290424,
        "protectTime": 0.5
      }
    ],
    [
      {
        "$type": "MoleMole.Config.ConfigUITriggerInterAction",
        "type": "UI_TRIGGER",
        "actionId": 158,
        "contextName": "MusicV3SelectPageContext",
        "_param": ""
      },
      {
        "$type": "MJFAIFFAGOF",
        "type": "DIALOG_CLEAR",
        "actionId": 156
      },
      {
        "$type": "MoleMole.Config.ConfigTimeProtectAction",
        "type": "TIME_PROTECT",
        "duration": 0.10000000149011612,
        "actionId": 157
      }
    ],
    [
      {
        "$type": "MoleMole.Config.ConfigTimeProtectAction",
        "type": "TIME_PROTECT",
        "duration": 0.10000000149011612,
        "actionId": 105
      }
    ]
  ],
  "groupId": [
    {
      "grpId": 823610465,
      "nextGrpId": 823610466
    },
    {
      "index": 1,
      "grpId": 823610466,
      "nextGrpId": 823610467
    },
    {
      "index": 2,
      "grpId": 823610467,
      "nextGrpId": 823610468
    },
    {
      "index": 3,
      "grpId": 823610468,
      "nextGrpId": 823610469
    },
    {
      "index": 4,
      "grpId": 823610469,
      "nextGrpId": 823610470
    },
    {
      "index": 5,
      "grpId": 823610470,
      "nextGrpId": 823610471
    },
    {
      "index": 6,
      "grpId": 823610471,
      "nextGrpId": 823610472
    },
    {
      "index": 7,
      "grpId": 823610472,
      "nextGrpId": 823610473
    },
    {
      "index": 8,
      "grpId": 823610473,
      "nextGrpId": 4057087983
    },
    {
      "index": 9,
      "grpId": 4057087983,
      "nextGrpId": 4057087984
    },
    {
      "index": 10,
      "grpId": 4057087984,
      "nextGrpId": 4057087985
    },
    {
      "index": 11,
      "grpId": 4057087985,
      "nextGrpId": 4057087986
    },
    {
      "index": 12,
      "grpId": 4057087986,
      "nextGrpId": 4057087987
    },
    {
      "index": 13,
      "grpId": 4057087987,
      "nextGrpId": 4057087990
    },
    {
      "index": 14,
      "grpId": 4057087988,
      "nextGrpId": 4057087990
    },
    {
      "index": 15,
      "grpId": 4057087989,
      "nextGrpId": 4057087990
    },
    {
      "index": 16,
      "grpId": 4057087990,
      "nextGrpId": 4057087991
    },
    {
      "index": 17,
      "grpId": 4057087991,
      "nextGrpId": 4057087992
    },
    {
      "index": 18,
      "grpId": 4057087992,
      "nextGrpId": 4057088014
    },
    {
      "index": 19,
      "grpId": 4057088014,
      "nextGrpId": 4057088015
    },
    {
      "index": 20,
      "grpId": 4057088015,
      "nextGrpId": 4057088016
    },
    {
      "index": 21,
      "grpId": 4057088016,
      "nextGrpId": 4057088017
    },
    {
      "index": 22,
      "grpId": 4057088017,
      "nextGrpId": 4057088018
    },
    {
      "index": 23,
      "grpId": 4057088018,
      "nextGrpId": 4057088019
    },
    {
      "index": 24,
      "grpId": 4057088019,
      "nextGrpId": 4057088020
    }
  ],
  "freeStyleDic": {
    "30046": []
  }
}