{
  "luaDataPath": "",
  "startBlackKeepTime": 0.4000000059604645,
  "entityBan": "",
  "startFade": {
    "startFadeInDuration": 0.30000001192092896,
    "startFadeOutDuration": 0.30000001192092896
  },
  "endFade": {
    "startFadeOutDuration": 0.0
  },
  "actors": [
    {
      "alias": "Avatar",
      "visible": true,
      "bornPointName": "Q39702Player",
      "relativePosNpcAlias": "",
      "_bindMovingTargetKey": ""
    },
    {
      "configID": 1001,
      "alias": "1001",
      "visible": true,
      "bornPointName": "Q39702Wendy",
      "relativePosNpcAlias": "",
      "_bindMovingTargetKey": ""
    },
    {
      "configID": 1009,
      "alias": "1009",
      "visible": true,
      "bornPointName": "Q39702Diluc",
      "relativePosNpcAlias": "",
      "_bindMovingTargetKey": ""
    },
    {
      "configID": 1006,
      "alias": "1006",
      "visible": true,
      "bornPointName": "Q39702Qin",
      "relativePosNpcAlias": "",
      "_bindMovingTargetKey": ""
    },
    {
      "configID": 1005,
      "alias": "1005",
      "visible": true,
      "bornPointName": "Q39702Paimon",
      "relativePosNpcAlias": "",
      "_bindMovingTargetKey": ""
    }
  ],
  "group": [
    [
      {
        "$type": "EFHODGEJOHJ",
        "type": "CAMERA_MOVE",
        "duration": 1.0,
        "camPosOffset": {
          "x": 1778.6085205078125,
          "y": 223.283447265625,
          "z": -389.7119445800781
        },
        "camForwardTargetOffset": {
          "x": 1777.6563720703125,
          "y": 223.19876098632812,
          "z": -390.00543212890625
        },
        "camFov": 20.0,
        "lerpRatio": 7.0,
        "lerpPattern": 6,
        "MDKBPBJCMHH": {},
        "targetNpcAlias": "",
        "PHGBNNGCJKJ": "",
        "NFILMKCFHEB": "",
        "BGPNGHDAECF": ""
      },
      {
        "$type": "MoleMole.Config.ConfigCameraDOFAction",
        "type": "CAMERA_DOF",
        "enabled": true,
        "focusDistance": 15.0,
        "focusRange": 5.0,
        "quality": 3
      },
      {
        "$type": "EFHODGEJOHJ",
        "type": "CAMERA_MOVE",
        "delayTime": 0.10000000149011612,
        "duration": 15.0,
        "camPosOffset": {
          "x": 1778.53515625,
          "y": 223.2681884765625,
          "z": -389.4845275878906
        },
        "camForwardTargetOffset": {
          "x": 1777.5928955078125,
          "y": 223.18649291992188,
          "z": -389.8093566894531
        },
        "camFov": 20.0,
        "lerpRatio": 7.0,
        "cameraBlendType": "EaseInOutQuad",
        "MDKBPBJCMHH": {},
        "targetNpcAlias": "",
        "PHGBNNGCJKJ": "",
        "NFILMKCFHEB": "",
        "BGPNGHDAECF": ""
      },
      {
        "$type": "NPCNMEOCADD",
        "type": "LOOK_AT",
        "aliasList": [
          "Avatar"
        ],
        "enableHead": true,
        "useTargetPos": true,
        "enableAbsolute": true,
        "targetPosition": {
          "x": 1772.64013671875,
          "y": 223.52557373046875,
          "z": -392.7275390625
        },
        "headRotateVec": {
          "x": 322.1561279296875,
          "y": 351.8335876464844
        },
        "bodyAngle": 346.94049072265625,
        "headTurnTime": 0.10000000149011612,
        "targetNpcAlias": "",
        "targetNpcLookAtPoint": "",
        "BHGPHGNFCBF": ""
      },
      {
        "$type": "NPCNMEOCADD",
        "type": "LOOK_AT",
        "aliasList": [
          "1001"
        ],
        "enableHead": true,
        "useTargetPos": true,
        "enableAbsolute": true,
        "targetPosition": {
          "x": 1772.463134765625,
          "y": 223.47840881347656,
          "z": -392.62884521484375
        },
        "headRotateVec": {
          "x": 68.96219635009766,
          "y": 347.3250427246094
        },
        "bodyAngle": 25.595020294189453,
        "headTurnTime": 0.10000000149011612,
        "targetNpcAlias": "",
        "targetNpcLookAtPoint": "",
        "BHGPHGNFCBF": ""
      },
      {
        "$type": "MJFAIFFAGOF",
        "type": "DIALOG",
        "aliasList": [
          "1009"
        ],
        "dialogID": 3970201,
        "protectTime": 0.10000000149011612
      },
      {
        "$type": "IEKHMHNHENB",
        "type": "STEER_TO",
        "aliasList": [
          "1009"
        ],
        "steerDir": {
          "x": -0.0070831966586411,
          "y": 0.03964453190565109,
          "z": 0.9991887211799622
        },
        "targetNpcAlias": "",
        "BHGPHGNFCBF": ""
      },
      {
        "$type": "EDCHPJLDKIN",
        "type": "BODY_LANG",
        "aliasList": [
          "1009"
        ],
        "bodyLangParam": 1120,
        "eventPatternSuiteKey": ""
      },
      {
        "$type": "NPCNMEOCADD",
        "type": "LOOK_AT",
        "aliasList": [
          "1009"
        ],
        "enableHead": true,
        "useTargetPos": true,
        "enableAbsolute": true,
        "targetPosition": {
          "x": 1773.0035400390625,
          "y": 223.2895965576172,
          "z": -391.4677734375
        },
        "headRotateVec": {
          "x": 358.616455078125,
          "y": 8.067431449890137
        },
        "targetNpcAlias": "",
        "targetNpcLookAtPoint": "",
        "BHGPHGNFCBF": ""
      },
      {
        "$type": "ICHLNKHGCAG",
        "type": "EMO_SYNC",
        "aliasList": [
          "1009"
        ],
        "dataPath": "Cs_Emo_Avatar_Simple_Common_Set/Cs_Emo_Avatar_Talk/Cs_Emo_Avatar_MainLine/Cs_Emo_Avatar_MengDe/Cs_Emo_3970201",
        "phonemePath": "",
        "emotionPath": "",
        "mateDataPath": "",
        "matePhonemePath": "",
        "mateEmotionPath": "",
        "dataPathHashList": [
          14496572757404016257,
          13626779798994511034,
          532870010540546529,
          2102579717577200925
        ],
        "PACNIGOOENN": "",
        "PIBDNPHIAGC": ""
      },
      {
        "$type": "NPCNMEOCADD",
        "type": "LOOK_AT",
        "aliasList": [
          "1006"
        ],
        "enableHead": true,
        "useTargetPos": true,
        "enableAbsolute": true,
        "targetPosition": {
          "x": 1772.5726318359375,
          "y": 223.51805114746094,
          "z": -392.6223449707031
        },
        "headRotateVec": {
          "x": 38.93473815917969,
          "y": 356.8099365234375
        },
        "headTurnTime": 0.10000000149011612,
        "targetNpcAlias": "",
        "targetNpcLookAtPoint": "",
        "BHGPHGNFCBF": ""
      },
      {
        "$type": "EDCHPJLDKIN",
        "type": "BODY_LANG",
        "aliasList": [
          "1006"
        ],
        "bodyLangParam": 1190,
        "eventPatternSuiteKey": ""
      },
      {
        "$type": "IEKHMHNHENB",
        "type": "STEER_TO",
        "aliasList": [
          "1006"
        ],
        "steerDir": {
          "x": 0.8476517200469971,
          "z": -0.5305530428886414
        },
        "targetNpcAlias": "",
        "BHGPHGNFCBF": ""
      },
      {
        "$type": "NPCNMEOCADD",
        "type": "LOOK_AT",
        "aliasList": [
          "1005"
        ],
        "enableHead": true,
        "headRotateVec": {
          "x": 359.681884765625,
          "y": 354.14697265625
        },
        "bodyAngle": 358.6059265136719,
        "headTurnTime": 0.10000000149011612,
        "targetNpcAlias": "",
        "targetNpcLookAtPoint": "",
        "BHGPHGNFCBF": ""
      },
      {
        "$type": "IEKHMHNHENB",
        "type": "STEER_TO",
        "aliasList": [
          "1005"
        ],
        "steerDir": {
          "x": -0.0018940108129754663,
          "z": -0.9999982118606567
        },
        "targetNpcAlias": "",
        "BHGPHGNFCBF": ""
      }
    ],
    [
      {
        "$type": "MJFAIFFAGOF",
        "type": "DIALOG",
        "aliasList": [
          "1009"
        ],
        "dialogID": 3970202
      },
      {
        "$type": "ICHLNKHGCAG",
        "type": "EMO_SYNC",
        "aliasList": [
          "1009"
        ],
        "dataPath": "Cs_Emo_Avatar_Simple_Common_Set/Cs_Emo_Avatar_Talk/Cs_Emo_Avatar_MainLine/Cs_Emo_Avatar_MengDe/Cs_Emo_3970202",
        "phonemePath": "",
        "emotionPath": "",
        "mateDataPath": "",
        "matePhonemePath": "",
        "mateEmotionPath": "",
        "dataPathHashList": [
          9942995088575560955,
          7430628010692206291,
          7143319543311041956,
          12327880452936857992
        ],
        "PACNIGOOENN": "",
        "PIBDNPHIAGC": ""
      }
    ],
    [
      {
        "$type": "NPCNMEOCADD",
        "type": "LOOK_AT",
        "delayTime": 0.49074089527130127,
        "aliasList": [
          "Avatar"
        ],
        "enableHead": true,
        "useTargetPos": true,
        "enableAbsolute": true,
        "targetPosition": {
          "x": 1772.4775390625,
          "y": 223.28330993652344,
          "z": -391.39202880859375
        },
        "headRotateVec": {
          "x": 354.27984619140625,
          "y": 357.82562255859375
        },
        "headTurnTime": 0.30000001192092896,
        "targetNpcAlias": "",
        "targetNpcLookAtPoint": "",
        "BHGPHGNFCBF": ""
      },
      {
        "$type": "MJFAIFFAGOF",
        "type": "DIALOG",
        "aliasList": [
          "1001"
        ],
        "dialogID": 3970203,
        "protectTime": 2.0074074268341064
      },
      {
        "$type": "EDCHPJLDKIN",
        "type": "BODY_LANG",
        "aliasList": [
          "1001"
        ],
        "bodyLangParam": 1170,
        "eventPatternSuiteKey": ""
      },
      {
        "$type": "EDCHPJLDKIN",
        "type": "BODY_LANG",
        "delayTime": 1.907407522201538,
        "aliasList": [
          "1001"
        ],
        "isContinue": true,
        "eventPatternSuiteKey": ""
      },
      {
        "$type": "ICHLNKHGCAG",
        "type": "EMO_SYNC",
        "aliasList": [
          "1001"
        ],
        "dataPath": "Cs_Emo_Avatar_Simple_Common_Set/Cs_Emo_Avatar_Talk/Cs_Emo_Avatar_MainLine/Cs_Emo_Avatar_MengDe/Cs_Emo_3970203",
        "phonemePath": "",
        "emotionPath": "",
        "mateDataPath": "",
        "matePhonemePath": "",
        "mateEmotionPath": "",
        "dataPathHashList": [
          13541887822845754675,
          1261051839571628067,
          5562327927623637319,
          17880155584591792138
        ],
        "PACNIGOOENN": "",
        "PIBDNPHIAGC": ""
      },
      {
        "$type": "NPCNMEOCADD",
        "type": "LOOK_AT",
        "delayTime": 0.25000011920928955,
        "aliasList": [
          "1009"
        ],
        "enableHead": true,
        "useTargetPos": true,
        "enableAbsolute": true,
        "targetPosition": {
          "x": 1771.4080810546875,
          "y": 223.10780334472656,
          "z": -391.8542175292969
        },
        "headRotateVec": {
          "x": 301.0419921875,
          "y": 7.861039161682129
        },
        "bodyAngle": 347.0636901855469,
        "headTurnTime": 0.4000000059604645,
        "targetNpcAlias": "",
        "targetNpcLookAtPoint": "",
        "BHGPHGNFCBF": ""
      },
      {
        "$type": "ICHLNKHGCAG",
        "type": "EMO_SYNC",
        "delayTime": 0.24999938905239105,
        "aliasList": [
          "1009"
        ],
        "dataPath": "Cs_Emo_Avatar_Simple_Common_Set/Cs_Emo_Avatar_Common_Normal",
        "phonemePath": "",
        "emotionPath": "",
        "mateDataPath": "",
        "matePhonemePath": "",
        "mateEmotionPath": "",
        "dataPathHashList": [
          1254595151211172457,
          11740135046283525816,
          13690962357574067534,
          4569976534232268451
        ],
        "PACNIGOOENN": "",
        "PIBDNPHIAGC": ""
      },
      {
        "$type": "NPCNMEOCADD",
        "type": "LOOK_AT",
        "delayTime": 0.7407407760620117,
        "aliasList": [
          "1006"
        ],
        "enableHead": true,
        "useTargetPos": true,
        "enableAbsolute": true,
        "targetPosition": {
          "x": 1771.3558349609375,
          "y": 223.30728149414062,
          "z": -392.0577392578125
        },
        "headRotateVec": {
          "x": 64.95117950439453,
          "y": 1.4489355087280273
        },
        "bodyAngle": 25.88543128967285,
        "headTurnTime": 0.30000001192092896,
        "targetNpcAlias": "",
        "targetNpcLookAtPoint": "",
        "BHGPHGNFCBF": ""
      },
      {
        "$type": "EDCHPJLDKIN",
        "type": "BODY_LANG",
        "delayTime": 0.7953331470489502,
        "aliasList": [
          "1006"
        ],
        "isContinue": true,
        "eventPatternSuiteKey": ""
      },
      {
        "$type": "NPCNMEOCADD",
        "type": "LOOK_AT",
        "delayTime": 0.4629628658294678,
        "aliasList": [
          "1005"
        ],
        "enableHead": true,
        "useTargetPos": true,
        "enableAbsolute": true,
        "targetPosition": {
          "x": 1772.0504150390625,
          "y": 223.27769470214844,
          "z": -390.9283447265625
        },
        "headRotateVec": {
          "x": 32.5593376159668,
          "y": 358.1123962402344
        },
        "enableBody": true,
        "bodyAngle": 22.08986473083496,
        "headTurnTime": 0.4000000059604645,
        "targetNpcAlias": "",
        "targetNpcLookAtPoint": "",
        "BHGPHGNFCBF": ""
      }
    ],
    [
      {
        "$type": "EFHODGEJOHJ",
        "type": "CAMERA_MOVE",
        "duration": 1.0,
        "camPosOffset": {
          "x": 1770.8123779296875,
          "y": 223.37570190429688,
          "z": -395.35693359375
        },
        "camForwardTargetOffset": {
          "x": 1771.1478271484375,
          "y": 223.2671356201172,
          "z": -394.4211730957031
        },
        "camFov": 25.0,
        "lerpPattern": 6,
        "cameraBlendType": "EaseInOutCubic",
        "MDKBPBJCMHH": {},
        "targetNpcAlias": "",
        "PHGBNNGCJKJ": "",
        "NFILMKCFHEB": "",
        "BGPNGHDAECF": ""
      },
      {
        "$type": "MoleMole.Config.ConfigCameraDOFAction",
        "type": "CAMERA_DOF",
        "enabled": true,
        "focusDistance": 5.0,
        "focusRange": 10.0,
        "quality": 3
      },
      {
        "$type": "EFHODGEJOHJ",
        "type": "CAMERA_MOVE",
        "delayTime": 0.10000000149011612,
        "duration": 15.0,
        "camPosOffset": {
          "x": 1770.6453857421875,
          "y": 223.2989501953125,
          "z": -395.3030090332031
        },
        "camForwardTargetOffset": {
          "x": 1771.0032958984375,
          "y": 223.193359375,
          "z": -394.375244140625
        },
        "camFov": 25.0,
        "cameraBlendType": "EaseInOutQuad",
        "MDKBPBJCMHH": {},
        "targetNpcAlias": "",
        "PHGBNNGCJKJ": "",
        "NFILMKCFHEB": "",
        "BGPNGHDAECF": ""
      },
      {
        "$type": "NPCNMEOCADD",
        "type": "LOOK_AT",
        "delayTime": 0.2870367467403412,
        "aliasList": [
          "1001"
        ],
        "enableHead": true,
        "headRotateVec": {
          "x": 346.1153259277344
        },
        "enableBody": true,
        "bodyAngle": 356.1720275878906,
        "headTurnTime": 0.4000000059604645,
        "targetNpcAlias": "",
        "targetNpcLookAtPoint": "",
        "BHGPHGNFCBF": ""
      },
      {
        "$type": "ICHLNKHGCAG",
        "type": "EMO_SYNC",
        "delayTime": 0.2833327054977417,
        "aliasList": [
          "1001"
        ],
        "dataPath": "Cs_Emo_Avatar_Simple_Common_Set/Cs_Emo_Avatar_Common_Normal",
        "phonemePath": "",
        "emotionPath": "",
        "mateDataPath": "",
        "matePhonemePath": "",
        "mateEmotionPath": "",
        "dataPathHashList": [
          1254595151211172457,
          11740135046283525816,
          13690962357574067534,
          4569976534232268451
        ],
        "PACNIGOOENN": "",
        "PIBDNPHIAGC": ""
      },
      {
        "$type": "MJFAIFFAGOF",
        "type": "DIALOG",
        "aliasList": [
          "1005"
        ],
        "dialogID": 3970204,
        "protectTime": 0.3870367407798767
      },
      {
        "$type": "EDCHPJLDKIN",
        "type": "BODY_LANG",
        "aliasList": [
          "1005"
        ],
        "bodyLangParam": 1170,
        "eventPatternSuiteKey": ""
      },
      {
        "$type": "ICHLNKHGCAG",
        "type": "EMO_SYNC",
        "aliasList": [
          "1005"
        ],
        "dataPath": "Cs_Emo_Avatar_Simple_Common_Set/Cs_Emo_Avatar_Talk/Cs_Emo_Avatar_MainLine/Cs_Emo_Avatar_MengDe/Cs_Emo_3970204",
        "phonemePath": "",
        "emotionPath": "",
        "mateDataPath": "",
        "matePhonemePath": "",
        "mateEmotionPath": "",
        "dataPathHashList": [
          9205935880218385323,
          10264539644676332671,
          6002423028904795413,
          10421586459967422074
        ],
        "PACNIGOOENN": "",
        "PIBDNPHIAGC": ""
      }
    ],
    [
      {
        "$type": "EFHODGEJOHJ",
        "type": "CAMERA_MOVE",
        "duration": 1.0,
        "camPosOffset": {
          "x": 1772.3106689453125,
          "y": 223.14895629882812,
          "z": -390.5880126953125
        },
        "camForwardTargetOffset": {
          "x": 1771.71923828125,
          "y": 223.14773559570312,
          "z": -391.3944091796875
        },
        "camFov": 25.0,
        "lerpRatio": 7.0,
        "lerpPattern": 6,
        "MDKBPBJCMHH": {},
        "targetNpcAlias": "",
        "PHGBNNGCJKJ": "",
        "NFILMKCFHEB": "",
        "BGPNGHDAECF": ""
      },
      {
        "$type": "MoleMole.Config.ConfigCameraDOFAction",
        "type": "CAMERA_DOF",
        "enabled": true,
        "focusDistance": 2.0,
        "focusRange": 3.0,
        "quality": 3
      },
      {
        "$type": "MJFAIFFAGOF",
        "type": "DIALOG",
        "aliasList": [
          "1001"
        ],
        "dialogID": 3970205,
        "protectTime": 1.8944453001022339
      },
      {
        "$type": "EDCHPJLDKIN",
        "type": "BODY_LANG",
        "aliasList": [
          "1001"
        ],
        "bodyLangParam": 1110,
        "eventPatternSuiteKey": ""
      },
      {
        "$type": "EDCHPJLDKIN",
        "type": "BODY_LANG",
        "delayTime": 1.794445276260376,
        "aliasList": [
          "1001"
        ],
        "isContinue": true,
        "eventPatternSuiteKey": ""
      },
      {
        "$type": "ICHLNKHGCAG",
        "type": "EMO_SYNC",
        "aliasList": [
          "1001"
        ],
        "dataPath": "Cs_Emo_Avatar_Simple_Common_Set/Cs_Emo_Avatar_Talk/Cs_Emo_Avatar_MainLine/Cs_Emo_Avatar_MengDe/Cs_Emo_3970205",
        "phonemePath": "",
        "emotionPath": "",
        "mateDataPath": "",
        "matePhonemePath": "",
        "mateEmotionPath": "",
        "dataPathHashList": [
          14319084901502423475,
          15902079349596367878,
          17871856147233745864,
          17490061668017373795
        ],
        "PACNIGOOENN": "",
        "PIBDNPHIAGC": ""
      },
      {
        "$type": "EDCHPJLDKIN",
        "type": "BODY_LANG",
        "delayTime": 0.5370362997055054,
        "aliasList": [
          "1006"
        ],
        "isContinue": true,
        "eventPatternSuiteKey": ""
      },
      {
        "$type": "EDCHPJLDKIN",
        "type": "BODY_LANG",
        "delayTime": 0.15740740299224854,
        "aliasList": [
          "1005"
        ],
        "isContinue": true,
        "eventPatternSuiteKey": ""
      },
      {
        "$type": "ICHLNKHGCAG",
        "type": "EMO_SYNC",
        "delayTime": 0.14806409180164337,
        "aliasList": [
          "1005"
        ],
        "dataPath": "Cs_Emo_Avatar_Simple_Common_Set/Cs_Emo_Avatar_Paimon/Cs_Emo_Pet_Paimon_Normal_01",
        "phonemePath": "",
        "emotionPath": "",
        "mateDataPath": "",
        "matePhonemePath": "",
        "mateEmotionPath": "",
        "dataPathHashList": [
          2327328236696044360,
          12338418010740210543,
          5776394525372018320,
          8916958471179128575
        ],
        "PACNIGOOENN": "",
        "PIBDNPHIAGC": ""
      }
    ],
    [
      {
        "$type": "MJFAIFFAGOF",
        "type": "DIALOG",
        "aliasList": [
          "1001"
        ],
        "dialogID": 3970206,
        "protectTime": 0.4148148000240326
      },
      {
        "$type": "EDCHPJLDKIN",
        "type": "BODY_LANG",
        "delayTime": 0.31481480598449707,
        "aliasList": [
          "1001"
        ],
        "bodyLangParam": 1170,
        "eventPatternSuiteKey": ""
      },
      {
        "$type": "ICHLNKHGCAG",
        "type": "EMO_SYNC",
        "aliasList": [
          "1001"
        ],
        "dataPath": "Cs_Emo_Avatar_Simple_Common_Set/Cs_Emo_Avatar_Talk/Cs_Emo_Avatar_MainLine/Cs_Emo_Avatar_MengDe/Cs_Emo_3970206",
        "phonemePath": "",
        "emotionPath": "",
        "mateDataPath": "",
        "matePhonemePath": "",
        "mateEmotionPath": "",
        "dataPathHashList": [
          4095517107915784008,
          12976324896792728445,
          9078026277756413203,
          2713427511668059373
        ],
        "PACNIGOOENN": "",
        "PIBDNPHIAGC": ""
      }
    ],
    [
      {
        "$type": "MJFAIFFAGOF",
        "type": "DIALOG",
        "aliasList": [
          "1001"
        ],
        "dialogID": 3970207
      },
      {
        "$type": "ICHLNKHGCAG",
        "type": "EMO_SYNC",
        "aliasList": [
          "1001"
        ],
        "dataPath": "Cs_Emo_Avatar_Simple_Common_Set/Cs_Emo_Avatar_Talk/Cs_Emo_Avatar_MainLine/Cs_Emo_Avatar_MengDe/Cs_Emo_3970207",
        "phonemePath": "",
        "emotionPath": "",
        "mateDataPath": "",
        "matePhonemePath": "",
        "mateEmotionPath": "",
        "dataPathHashList": [
          3856298819922614559,
          16094212272111357552,
          12862781373258812430,
          14607619124466934658
        ],
        "PACNIGOOENN": "",
        "PIBDNPHIAGC": ""
      }
    ],
    [
      {
        "$type": "MJFAIFFAGOF",
        "type": "DIALOG",
        "aliasList": [
          "1001"
        ],
        "dialogID": 3970208,
        "protectTime": 1.174074411392212
      },
      {
        "$type": "EDCHPJLDKIN",
        "type": "BODY_LANG",
        "aliasList": [
          "1001"
        ],
        "isContinue": true,
        "eventPatternSuiteKey": ""
      },
      {
        "$type": "ICHLNKHGCAG",
        "type": "EMO_SYNC",
        "aliasList": [
          "1001"
        ],
        "dataPath": "Cs_Emo_Avatar_Simple_Common_Set/Cs_Emo_Avatar_Talk/Cs_Emo_Avatar_MainLine/Cs_Emo_Avatar_MengDe/Cs_Emo_3970208",
        "phonemePath": "",
        "emotionPath": "",
        "mateDataPath": "",
        "matePhonemePath": "",
        "mateEmotionPath": "",
        "dataPathHashList": [
          13290699387690482091,
          13785642754772540943,
          3211313344986097692,
          6926130266550586480
        ],
        "PACNIGOOENN": "",
        "PIBDNPHIAGC": ""
      }
    ],
    [
      {
        "$type": "EFHODGEJOHJ",
        "type": "CAMERA_MOVE",
        "duration": 1.0,
        "camPosOffset": {
          "x": 1772.380126953125,
          "y": 223.22491455078125,
          "z": -393.0113220214844
        },
        "camForwardTargetOffset": {
          "x": 1771.771728515625,
          "y": 223.19371032714844,
          "z": -392.2182922363281
        },
        "camFov": 25.0,
        "lerpRatio": 7.0,
        "lerpPattern": 6,
        "MDKBPBJCMHH": {},
        "targetNpcAlias": "",
        "PHGBNNGCJKJ": "",
        "NFILMKCFHEB": "",
        "BGPNGHDAECF": ""
      },
      {
        "$type": "MoleMole.Config.ConfigCameraDOFAction",
        "type": "CAMERA_DOF",
        "enabled": true,
        "focusDistance": 5.0,
        "focusRange": 5.0,
        "quality": 3
      },
      {
        "$type": "EFHODGEJOHJ",
        "type": "CAMERA_MOVE",
        "delayTime": 0.10000000149011612,
        "duration": 10.0,
        "camPosOffset": {
          "x": 1772.3173828125,
          "y": 223.2364044189453,
          "z": -393.0577697753906
        },
        "camForwardTargetOffset": {
          "x": 1771.7379150390625,
          "y": 223.2021942138672,
          "z": -392.2434387207031
        },
        "camFov": 25.0,
        "lerpRatio": 7.0,
        "cameraBlendType": "EaseInOutQuad",
        "MDKBPBJCMHH": {},
        "targetNpcAlias": "",
        "PHGBNNGCJKJ": "",
        "NFILMKCFHEB": "",
        "BGPNGHDAECF": ""
      },
      {
        "$type": "NPCNMEOCADD",
        "type": "LOOK_AT",
        "delayTime": 0.44444459676742554,
        "aliasList": [
          "Avatar"
        ],
        "enableHead": true,
        "useTargetPos": true,
        "enableAbsolute": true,
        "targetPosition": {
          "x": 1771.0614013671875,
          "y": 223.42672729492188,
          "z": -390.7408752441406
        },
        "headRotateVec": {
          "x": 25.171154022216797,
          "y": 355.5821838378906
        },
        "bodyAngle": 11.024470329284668,
        "headTurnTime": 0.30000001192092896,
        "targetNpcAlias": "",
        "targetNpcLookAtPoint": "",
        "BHGPHGNFCBF": ""
      },
      {
        "$type": "NPCNMEOCADD",
        "type": "LOOK_AT",
        "delayTime": 0.32407400012016296,
        "aliasList": [
          "1001"
        ],
        "enableHead": true,
        "useTargetPos": true,
        "enableAbsolute": true,
        "targetPosition": {
          "x": 1771.09423828125,
          "y": 223.45233154296875,
          "z": -390.6114807128906
        },
        "headRotateVec": {
          "x": 306.2863464355469,
          "y": 353.72332763671875
        },
        "bodyAngle": 338.69281005859375,
        "headTurnTime": 0.4000000059604645,
        "targetNpcAlias": "",
        "targetNpcLookAtPoint": "",
        "BHGPHGNFCBF": ""
      },
      {
        "$type": "ICHLNKHGCAG",
        "type": "EMO_SYNC",
        "delayTime": 0.3230687975883484,
        "aliasList": [
          "1001"
        ],
        "dataPath": "Cs_Emo_Avatar_Simple_Common_Set/Cs_Emo_Avatar_Common_Normal",
        "phonemePath": "",
        "emotionPath": "",
        "mateDataPath": "",
        "matePhonemePath": "",
        "mateEmotionPath": "",
        "dataPathHashList": [
          1254595151211172457,
          11740135046283525816,
          13690962357574067534,
          4569976534232268451
        ],
        "PACNIGOOENN": "",
        "PIBDNPHIAGC": ""
      },
      {
        "$type": "MJFAIFFAGOF",
        "type": "DIALOG",
        "aliasList": [
          "1006"
        ],
        "dialogID": 3970209,
        "protectTime": 0.5444446206092834
      },
      {
        "$type": "EDCHPJLDKIN",
        "type": "BODY_LANG",
        "aliasList": [
          "1006"
        ],
        "bodyLangParam": 1130,
        "eventPatternSuiteKey": ""
      },
      {
        "$type": "ICHLNKHGCAG",
        "type": "EMO_SYNC",
        "aliasList": [
          "1006"
        ],
        "dataPath": "Cs_Emo_Avatar_Simple_Common_Set/Cs_Emo_Avatar_Talk/Cs_Emo_Avatar_MainLine/Cs_Emo_Avatar_MengDe/Cs_Emo_3970209",
        "phonemePath": "",
        "emotionPath": "",
        "mateDataPath": "",
        "matePhonemePath": "",
        "mateEmotionPath": "",
        "dataPathHashList": [
          3799337812716641654,
          8362474854927887256,
          17371046547311697832,
          11440161365345792076
        ],
        "PACNIGOOENN": "",
        "PIBDNPHIAGC": ""
      },
      {
        "$type": "NPCNMEOCADD",
        "type": "LOOK_AT",
        "delayTime": 0.20000000298023224,
        "aliasList": [
          "1005"
        ],
        "enableHead": true,
        "useTargetPos": true,
        "enableAbsolute": true,
        "targetPosition": {
          "x": 1771.04541015625,
          "y": 223.40904235839844,
          "z": -390.6904602050781
        },
        "headRotateVec": {
          "x": 67.47196960449219,
          "y": 355.6292419433594
        },
        "bodyAngle": 54.420501708984375,
        "headTurnTime": 0.25,
        "targetNpcAlias": "",
        "targetNpcLookAtPoint": "",
        "BHGPHGNFCBF": ""
      },
      {
        "$type": "IEKHMHNHENB",
        "type": "STEER_TO",
        "delayTime": 0.20000000298023224,
        "duration": 0.5,
        "aliasList": [
          "1005"
        ],
        "steerDir": {
          "x": -0.7270365357398987,
          "z": -0.6865988373756409
        },
        "targetNpcAlias": "",
        "BHGPHGNFCBF": ""
      }
    ],
    [
      {
        "$type": "EFHODGEJOHJ",
        "type": "CAMERA_MOVE",
        "duration": 1.0,
        "camPosOffset": {
          "x": 1771.4056396484375,
          "y": 223.16673278808594,
          "z": -390.939208984375
        },
        "camForwardTargetOffset": {
          "x": 1772.199951171875,
          "y": 223.1517333984375,
          "z": -390.3318786621094
        },
        "camFov": 25.0,
        "lerpRatio": 7.0,
        "lerpPattern": 6,
        "MDKBPBJCMHH": {},
        "targetNpcAlias": "",
        "PHGBNNGCJKJ": "",
        "NFILMKCFHEB": "",
        "BGPNGHDAECF": ""
      },
      {
        "$type": "MoleMole.Config.ConfigCameraDOFAction",
        "type": "CAMERA_DOF",
        "enabled": true,
        "focusDistance": 2.0,
        "focusRange": 5.0,
        "quality": 3
      },
      {
        "$type": "EDCHPJLDKIN",
        "type": "BODY_LANG",
        "delayTime": 0.31481480598449707,
        "aliasList": [
          "1006"
        ],
        "isContinue": true,
        "eventPatternSuiteKey": ""
      },
      {
        "$type": "NPCNMEOCADD",
        "type": "LOOK_AT",
        "delayTime": 0.2703690528869629,
        "aliasList": [
          "1006"
        ],
        "enableHead": true,
        "headRotateVec": {
          "x": 339.0133056640625,
          "y": 5.145946025848389
        },
        "enableBody": true,
        "bodyAngle": 351.3036804199219,
        "headTurnTime": 0.4000000059604645,
        "targetNpcAlias": "",
        "targetNpcLookAtPoint": "",
        "BHGPHGNFCBF": ""
      },
      {
        "$type": "ICHLNKHGCAG",
        "type": "EMO_SYNC",
        "delayTime": 0.26473551988601685,
        "aliasList": [
          "1006"
        ],
        "dataPath": "Cs_Emo_Avatar_Simple_Common_Set/Cs_Emo_Avatar_Common_Normal",
        "phonemePath": "",
        "emotionPath": "",
        "mateDataPath": "",
        "matePhonemePath": "",
        "mateEmotionPath": "",
        "dataPathHashList": [
          1254595151211172457,
          11740135046283525816,
          13690962357574067534,
          4569976534232268451
        ],
        "PACNIGOOENN": "",
        "PIBDNPHIAGC": ""
      },
      {
        "$type": "MJFAIFFAGOF",
        "type": "DIALOG",
        "aliasList": [
          "1005"
        ],
        "dialogID": 3970210,
        "protectTime": 0.4148148000240326
      },
      {
        "$type": "EDCHPJLDKIN",
        "type": "BODY_LANG",
        "aliasList": [
          "1005"
        ],
        "bodyLangParam": 1090,
        "eventPatternSuiteKey": ""
      },
      {
        "$type": "ICHLNKHGCAG",
        "type": "EMO_SYNC",
        "aliasList": [
          "1005"
        ],
        "dataPath": "Cs_Emo_Avatar_Simple_Common_Set/Cs_Emo_Avatar_Talk/Cs_Emo_Avatar_MainLine/Cs_Emo_Avatar_MengDe/Cs_Emo_3970210",
        "phonemePath": "",
        "emotionPath": "",
        "mateDataPath": "",
        "matePhonemePath": "",
        "mateEmotionPath": "",
        "dataPathHashList": [
          3482314328055172434,
          1364855078177171732,
          3643411247966705457,
          16406866658801770134
        ],
        "PACNIGOOENN": "",
        "PIBDNPHIAGC": ""
      }
    ],
    [
      {
        "$type": "MJFAIFFAGOF",
        "type": "DIALOG",
        "aliasList": [
          "1005"
        ],
        "dialogID": 3970211
      },
      {
        "$type": "EDCHPJLDKIN",
        "type": "BODY_LANG",
        "aliasList": [
          "1005"
        ],
        "bodyLangParam": 1110,
        "eventPatternSuiteKey": ""
      },
      {
        "$type": "ICHLNKHGCAG",
        "type": "EMO_SYNC",
        "aliasList": [
          "1005"
        ],
        "dataPath": "Cs_Emo_Avatar_Simple_Common_Set/Cs_Emo_Avatar_Talk/Cs_Emo_Avatar_MainLine/Cs_Emo_Avatar_MengDe/Cs_Emo_3970211",
        "phonemePath": "",
        "emotionPath": "",
        "mateDataPath": "",
        "matePhonemePath": "",
        "mateEmotionPath": "",
        "dataPathHashList": [
          15846741222832085284,
          16901335551057789008,
          8472722276100485494,
          1197515938520294450
        ],
        "PACNIGOOENN": "",
        "PIBDNPHIAGC": ""
      }
    ],
    [
      {
        "$type": "EFHODGEJOHJ",
        "type": "CAMERA_MOVE",
        "duration": 1.0,
        "camPosOffset": {
          "x": 1775.2156982421875,
          "y": 223.54034423828125,
          "z": -390.9943542480469
        },
        "camForwardTargetOffset": {
          "x": 1774.2645263671875,
          "y": 223.36349487304688,
          "z": -391.24737548828125
        },
        "camFov": 30.0,
        "lerpRatio": 7.0,
        "lerpPattern": 6,
        "MDKBPBJCMHH": {},
        "targetNpcAlias": "",
        "PHGBNNGCJKJ": "",
        "NFILMKCFHEB": "",
        "BGPNGHDAECF": ""
      },
      {
        "$type": "MoleMole.Config.ConfigCameraDOFAction",
        "type": "CAMERA_DOF",
        "enabled": true,
        "focusDistance": 15.0,
        "focusRange": 5.0,
        "quality": 3
      },
      {
        "$type": "NPCNMEOCADD",
        "type": "LOOK_AT",
        "delayTime": 0.34259283542633057,
        "aliasList": [
          "Avatar"
        ],
        "enableHead": true,
        "useTargetPos": true,
        "enableAbsolute": true,
        "targetPosition": {
          "x": 1771.2630615234375,
          "y": 223.2920379638672,
          "z": -392.10711669921875
        },
        "headRotateVec": {
          "x": 354.1812438964844,
          "y": 358.0030517578125
        },
        "bodyAngle": 353.989501953125,
        "headTurnTime": 0.30000001192092896,
        "targetNpcAlias": "",
        "targetNpcLookAtPoint": "",
        "BHGPHGNFCBF": ""
      },
      {
        "$type": "MJFAIFFAGOF",
        "type": "DIALOG",
        "aliasList": [
          "1001"
        ],
        "dialogID": 3970212,
        "protectTime": 2.076261043548584
      },
      {
        "$type": "NPCNMEOCADD",
        "type": "LOOK_AT",
        "aliasList": [
          "1001"
        ],
        "enableHead": true,
        "useTargetPos": true,
        "enableAbsolute": true,
        "targetPosition": {
          "x": 1773.3369140625,
          "y": 223.2624969482422,
          "z": -390.9068908691406
        },
        "headRotateVec": {
          "x": 12.72651481628418
        },
        "bodyAngle": 4.506892204284668,
        "headTurnTime": 0.30000001192092896,
        "targetNpcAlias": "",
        "targetNpcLookAtPoint": "",
        "BHGPHGNFCBF": ""
      },
      {
        "$type": "EDCHPJLDKIN",
        "type": "BODY_LANG",
        "delayTime": 0.15218578279018402,
        "aliasList": [
          "1001"
        ],
        "bodyLangParam": 1110,
        "eventPatternSuiteKey": ""
      },
      {
        "$type": "EDCHPJLDKIN",
        "type": "BODY_LANG",
        "delayTime": 1.976261019706726,
        "aliasList": [
          "1001"
        ],
        "isContinue": true,
        "eventPatternSuiteKey": ""
      },
      {
        "$type": "ICHLNKHGCAG",
        "type": "EMO_SYNC",
        "aliasList": [
          "1001"
        ],
        "dataPath": "Cs_Emo_Avatar_Simple_Common_Set/Cs_Emo_Avatar_Talk/Cs_Emo_Avatar_MainLine/Cs_Emo_Avatar_MengDe/Cs_Emo_3970212",
        "phonemePath": "",
        "emotionPath": "",
        "mateDataPath": "",
        "matePhonemePath": "",
        "mateEmotionPath": "",
        "dataPathHashList": [
          13606271467141478608,
          12630264563203652183,
          2549149510908601217,
          10100317388926997756
        ],
        "PACNIGOOENN": "",
        "PIBDNPHIAGC": ""
      },
      {
        "$type": "NPCNMEOCADD",
        "type": "LOOK_AT",
        "delayTime": 0.10833333432674408,
        "aliasList": [
          "1006"
        ],
        "enableHead": true,
        "useTargetPos": true,
        "enableAbsolute": true,
        "targetPosition": {
          "x": 1771.355224609375,
          "y": 223.319091796875,
          "z": -392.06982421875
        },
        "headRotateVec": {
          "x": 64.95117950439453,
          "y": 1.4489355087280273
        },
        "bodyAngle": 25.88543128967285,
        "headTurnTime": 0.4000000059604645,
        "targetNpcAlias": "",
        "targetNpcLookAtPoint": "",
        "BHGPHGNFCBF": ""
      },
      {
        "$type": "IEKHMHNHENB",
        "type": "STEER_TO",
        "delayTime": 0.3199999928474426,
        "duration": 0.5,
        "aliasList": [
          "1005"
        ],
        "steerDir": {
          "x": -0.657369077205658,
          "z": -0.753568708896637
        },
        "targetNpcAlias": "",
        "BHGPHGNFCBF": ""
      },
      {
        "$type": "NPCNMEOCADD",
        "type": "LOOK_AT",
        "delayTime": 0.3199999928474426,
        "aliasList": [
          "1005"
        ],
        "enableHead": true,
        "useTargetPos": true,
        "enableAbsolute": true,
        "targetPosition": {
          "x": 1771.3594970703125,
          "y": 223.3289794921875,
          "z": -392.0495300292969
        },
        "headRotateVec": {
          "x": 346.71527099609375,
          "y": 358.1171875
        },
        "bodyAngle": 14.12235164642334,
        "headTurnTime": 0.25,
        "targetNpcAlias": "",
        "targetNpcLookAtPoint": "",
        "BHGPHGNFCBF": ""
      },
      {
        "$type": "EDCHPJLDKIN",
        "type": "BODY_LANG",
        "aliasList": [
          "1005"
        ],
        "isContinue": true,
        "eventPatternSuiteKey": ""
      },
      {
        "$type": "ICHLNKHGCAG",
        "type": "EMO_SYNC",
        "delayTime": 0.32306408882141113,
        "aliasList": [
          "1005"
        ],
        "dataPath": "Cs_Emo_Avatar_Simple_Common_Set/Cs_Emo_Avatar_Paimon/Cs_Emo_Pet_Paimon_Normal_01",
        "phonemePath": "",
        "emotionPath": "",
        "mateDataPath": "",
        "matePhonemePath": "",
        "mateEmotionPath": "",
        "dataPathHashList": [
          2327328236696044360,
          12338418010740210543,
          5776394525372018320,
          8916958471179128575
        ],
        "PACNIGOOENN": "",
        "PIBDNPHIAGC": ""
      }
    ],
    [
      {
        "$type": "OBCDECFOOBC",
        "type": "DIALOG_SELECT",
        "delayTime": 0.5,
        "aliasList": [
          "Avatar"
        ],
        "dialogIDList": [
          3970214,
          3970215
        ],
        "grpIDList": [
          766175245,
          766175245
        ],
        "useGrpId": true
      },
      {
        "$type": "MJFAIFFAGOF",
        "type": "DIALOG",
        "aliasList": [
          "1001"
        ],
        "dialogID": 3970213,
        "protectTime": 0.6000000238418579
      },
      {
        "$type": "ICHLNKHGCAG",
        "type": "EMO_SYNC",
        "aliasList": [
          "1001"
        ],
        "dataPath": "Cs_Emo_Avatar_Simple_Common_Set/Cs_Emo_Avatar_Talk/Cs_Emo_Avatar_MainLine/Cs_Emo_Avatar_MengDe/Cs_Emo_3970213",
        "phonemePath": "",
        "emotionPath": "",
        "mateDataPath": "",
        "matePhonemePath": "",
        "mateEmotionPath": "",
        "dataPathHashList": [
          5117420696256716431,
          9105204826498008054,
          9970589897514813377,
          1969146108967368394
        ],
        "PACNIGOOENN": "",
        "PIBDNPHIAGC": ""
      }
    ],
    [
      {
        "$type": "EFHODGEJOHJ",
        "type": "CAMERA_MOVE",
        "delayTime": 0.2750000059604645,
        "duration": 0.5,
        "camPosOffset": {
          "x": 1775.26220703125,
          "y": 223.15834045410156,
          "z": -390.98046875
        },
        "camForwardTargetOffset": {
          "x": 1774.2998046875,
          "y": 223.07664489746094,
          "z": -391.23956298828125
        },
        "camFov": 25.0,
        "lerpRatio": 7.0,
        "cameraBlendType": "EaseInOutQuad",
        "MDKBPBJCMHH": {},
        "targetNpcAlias": "",
        "PHGBNNGCJKJ": "",
        "NFILMKCFHEB": "",
        "BGPNGHDAECF": ""
      },
      {
        "$type": "MoleMole.Config.ConfigCameraDOFAction",
        "type": "CAMERA_DOF",
        "delayTime": 0.2750000059604645,
        "duration": 0.5,
        "enabled": true,
        "focusDistance": 10.0,
        "focusRange": 5.0,
        "quality": 3
      },
      {
        "$type": "MJFAIFFAGOF",
        "type": "DIALOG",
        "aliasList": [
          "1001"
        ],
        "dialogID": 3970216,
        "protectTime": 0.375
      },
      {
        "$type": "EDCHPJLDKIN",
        "type": "BODY_LANG",
        "aliasList": [
          "1001"
        ],
        "bodyLangParam": 1130,
        "eventPatternSuiteKey": ""
      },
      {
        "$type": "ICHLNKHGCAG",
        "type": "EMO_SYNC",
        "aliasList": [
          "1001"
        ],
        "dataPath": "Cs_Emo_Avatar_Simple_Common_Set/Cs_Emo_Avatar_Talk/Cs_Emo_Avatar_MainLine/Cs_Emo_Avatar_MengDe/Cs_Emo_3970216",
        "phonemePath": "",
        "emotionPath": "",
        "mateDataPath": "",
        "matePhonemePath": "",
        "mateEmotionPath": "",
        "dataPathHashList": [
          7875274357050861672,
          12907309872359755274,
          3197076447578300094,
          14317286529746800480
        ],
        "PACNIGOOENN": "",
        "PIBDNPHIAGC": ""
      }
    ],
    [
      {
        "$type": "EFHODGEJOHJ",
        "type": "CAMERA_MOVE",
        "duration": 1.0,
        "camPosOffset": {
          "x": 1774.877197265625,
          "y": 223.36331176757812,
          "z": -391.9902648925781
        },
        "camForwardTargetOffset": {
          "x": 1773.89990234375,
          "y": 223.3051300048828,
          "z": -392.194091796875
        },
        "camFov": 25.0,
        "lerpPattern": 6,
        "cameraBlendType": "EaseInOutCubic",
        "MDKBPBJCMHH": {},
        "targetNpcAlias": "",
        "PHGBNNGCJKJ": "",
        "NFILMKCFHEB": "",
        "BGPNGHDAECF": ""
      },
      {
        "$type": "MoleMole.Config.ConfigCameraDOFAction",
        "type": "CAMERA_DOF",
        "enabled": true,
        "focusDistance": 15.0,
        "focusRange": 5.0,
        "quality": 3
      },
      {
        "$type": "NPCNMEOCADD",
        "type": "LOOK_AT",
        "delayTime": 0.3333335816860199,
        "aliasList": [
          "Avatar"
        ],
        "enableHead": true,
        "useTargetPos": true,
        "enableAbsolute": true,
        "targetPosition": {
          "x": 1772.665283203125,
          "y": 223.51544189453125,
          "z": -392.7860107421875
        },
        "headRotateVec": {
          "x": 319.6578674316406,
          "y": 352.2329406738281
        },
        "bodyAngle": 335.04681396484375,
        "headTurnTime": 0.30000001192092896,
        "targetNpcAlias": "",
        "targetNpcLookAtPoint": "",
        "BHGPHGNFCBF": ""
      },
      {
        "$type": "EDCHPJLDKIN",
        "type": "BODY_LANG",
        "aliasList": [
          "1001"
        ],
        "isContinue": true,
        "eventPatternSuiteKey": ""
      },
      {
        "$type": "NPCNMEOCADD",
        "type": "LOOK_AT",
        "delayTime": 0.44166669249534607,
        "aliasList": [
          "1001"
        ],
        "enableHead": true,
        "useTargetPos": true,
        "enableAbsolute": true,
        "targetPosition": {
          "x": 1772.463134765625,
          "y": 223.47840881347656,
          "z": -392.62884521484375
        },
        "headRotateVec": {
          "x": 68.96219635009766,
          "y": 347.3250427246094
        },
        "bodyAngle": 25.595020294189453,
        "headTurnTime": 0.30000001192092896,
        "targetNpcAlias": "",
        "targetNpcLookAtPoint": "",
        "BHGPHGNFCBF": ""
      },
      {
        "$type": "ICHLNKHGCAG",
        "type": "EMO_SYNC",
        "delayTime": 0.4397355020046234,
        "aliasList": [
          "1001"
        ],
        "dataPath": "Cs_Emo_Avatar_Simple_Common_Set/Cs_Emo_Avatar_Common_Normal",
        "phonemePath": "",
        "emotionPath": "",
        "mateDataPath": "",
        "matePhonemePath": "",
        "mateEmotionPath": "",
        "dataPathHashList": [
          1254595151211172457,
          11740135046283525816,
          13690962357574067534,
          4569976534232268451
        ],
        "PACNIGOOENN": "",
        "PIBDNPHIAGC": ""
      },
      {
        "$type": "MJFAIFFAGOF",
        "type": "DIALOG",
        "aliasList": [
          "1009"
        ],
        "dialogID": 3970217,
        "protectTime": 0.5722220540046692
      },
      {
        "$type": "NPCNMEOCADD",
        "type": "LOOK_AT",
        "aliasList": [
          "1009"
        ],
        "enableHead": true,
        "useTargetPos": true,
        "enableAbsolute": true,
        "targetPosition": {
          "x": 1773.0035400390625,
          "y": 223.2895965576172,
          "z": -391.4677734375
        },
        "headRotateVec": {
          "x": 358.616455078125,
          "y": 8.067431449890137
        },
        "headTurnTime": 0.30000001192092896,
        "targetNpcAlias": "",
        "targetNpcLookAtPoint": "",
        "BHGPHGNFCBF": ""
      },
      {
        "$type": "ICHLNKHGCAG",
        "type": "EMO_SYNC",
        "aliasList": [
          "1009"
        ],
        "dataPath": "Cs_Emo_Avatar_Simple_Common_Set/Cs_Emo_Avatar_Talk/Cs_Emo_Avatar_MainLine/Cs_Emo_Avatar_MengDe/Cs_Emo_3970217",
        "phonemePath": "",
        "emotionPath": "",
        "mateDataPath": "",
        "matePhonemePath": "",
        "mateEmotionPath": "",
        "dataPathHashList": [
          11115555092657284821,
          6590347773883545906,
          17357790742223391007,
          13364629686386991252
        ],
        "PACNIGOOENN": "",
        "PIBDNPHIAGC": ""
      },
      {
        "$type": "NPCNMEOCADD",
        "type": "LOOK_AT",
        "delayTime": 0.2750000059604645,
        "aliasList": [
          "1006"
        ],
        "enableHead": true,
        "useTargetPos": true,
        "enableAbsolute": true,
        "targetPosition": {
          "x": 1772.6112060546875,
          "y": 223.5398712158203,
          "z": -392.6370544433594
        },
        "headRotateVec": {
          "x": 38.93473815917969,
          "y": 356.8099365234375
        },
        "headTurnTime": 0.30000001192092896,
        "targetNpcAlias": "",
        "targetNpcLookAtPoint": "",
        "BHGPHGNFCBF": ""
      },
      {
        "$type": "NPCNMEOCADD",
        "type": "LOOK_AT",
        "delayTime": 0.4000000059604645,
        "aliasList": [
          "1005"
        ],
        "enableHead": true,
        "useTargetPos": true,
        "enableAbsolute": true,
        "targetPosition": {
          "x": 1772.686279296875,
          "y": 223.47808837890625,
          "z": -392.8387145996094
        },
        "headRotateVec": {
          "x": 312.3407897949219,
          "y": 354.1404113769531
        },
        "bodyAngle": 13.648185729980469,
        "headTurnTime": 0.25,
        "targetNpcAlias": "",
        "targetNpcLookAtPoint": "",
        "BHGPHGNFCBF": ""
      },
      {
        "$type": "IEKHMHNHENB",
        "type": "STEER_TO",
        "delayTime": 0.4000000059604645,
        "duration": 0.5,
        "aliasList": [
          "1005"
        ],
        "steerDir": {
          "x": -0.210611492395401,
          "z": -0.9775698781013489
        },
        "targetNpcAlias": "",
        "BHGPHGNFCBF": ""
      }
    ],
    [
      {
        "$type": "EFHODGEJOHJ",
        "type": "CAMERA_MOVE",
        "duration": 1.0,
        "camPosOffset": {
          "x": 1778.6085205078125,
          "y": 223.283447265625,
          "z": -389.7119445800781
        },
        "camForwardTargetOffset": {
          "x": 1777.6563720703125,
          "y": 223.19876098632812,
          "z": -390.00543212890625
        },
        "camFov": 20.0,
        "lerpRatio": 7.0,
        "lerpPattern": 6,
        "cameraBlendType": "EaseInOutCubic",
        "MDKBPBJCMHH": {},
        "targetNpcAlias": "",
        "PHGBNNGCJKJ": "",
        "NFILMKCFHEB": "",
        "BGPNGHDAECF": ""
      },
      {
        "$type": "MJFAIFFAGOF",
        "type": "DIALOG",
        "aliasList": [
          "1009"
        ],
        "dialogID": 3970218,
        "protectTime": 0.10000000149011612
      },
      {
        "$type": "NPCNMEOCADD",
        "type": "LOOK_AT",
        "aliasList": [
          "1009"
        ],
        "enableHead": true,
        "useTargetPos": true,
        "enableAbsolute": true,
        "targetPosition": {
          "x": 1773.242919921875,
          "y": 223.24139404296875,
          "z": -391.6101989746094
        },
        "headRotateVec": {
          "x": 358.616455078125,
          "y": 8.067431449890137
        },
        "headTurnTime": 0.30000001192092896,
        "targetNpcAlias": "",
        "targetNpcLookAtPoint": "",
        "BHGPHGNFCBF": ""
      },
      {
        "$type": "EDCHPJLDKIN",
        "type": "BODY_LANG",
        "aliasList": [
          "1009"
        ],
        "isContinue": true,
        "eventPatternSuiteKey": ""
      },
      {
        "$type": "ICHLNKHGCAG",
        "type": "EMO_SYNC",
        "aliasList": [
          "1009"
        ],
        "dataPath": "Cs_Emo_Avatar_Simple_Common_Set/Cs_Emo_Avatar_Talk/Cs_Emo_Avatar_MainLine/Cs_Emo_Avatar_MengDe/Cs_Emo_3970218",
        "phonemePath": "",
        "emotionPath": "",
        "mateDataPath": "",
        "matePhonemePath": "",
        "mateEmotionPath": "",
        "dataPathHashList": [
          1206973702487288989,
          6239746498914641690,
          2448434976268017654,
          16514624284268128670
        ],
        "PACNIGOOENN": "",
        "PIBDNPHIAGC": ""
      }
    ],
    [
      {
        "$type": "MJFAIFFAGOF",
        "type": "DIALOG",
        "aliasList": [
          "1009"
        ],
        "dialogID": 3970219,
        "protectTime": 1.9833332300186157
      },
      {
        "$type": "EDCHPJLDKIN",
        "type": "BODY_LANG",
        "delayTime": 1.8833332061767578,
        "aliasList": [
          "1009"
        ],
        "isContinue": true,
        "eventPatternSuiteKey": ""
      },
      {
        "$type": "EDCHPJLDKIN",
        "type": "BODY_LANG",
        "aliasList": [
          "1009"
        ],
        "bodyLangParam": 1170,
        "eventPatternSuiteKey": ""
      },
      {
        "$type": "ICHLNKHGCAG",
        "type": "EMO_SYNC",
        "aliasList": [
          "1009"
        ],
        "dataPath": "Cs_Emo_Avatar_Simple_Common_Set/Cs_Emo_Avatar_Talk/Cs_Emo_Avatar_MainLine/Cs_Emo_Avatar_MengDe/Cs_Emo_3970219",
        "phonemePath": "",
        "emotionPath": "",
        "mateDataPath": "",
        "matePhonemePath": "",
        "mateEmotionPath": "",
        "dataPathHashList": [
          11416072697193087457,
          7321387608469005087,
          3249746590708793846,
          15312377059215219808
        ],
        "PACNIGOOENN": "",
        "PIBDNPHIAGC": ""
      }
    ],
    [
      {
        "$type": "EFHODGEJOHJ",
        "type": "CAMERA_MOVE",
        "duration": 0.5,
        "camPosOffset": {
          "x": 1773.3831787109375,
          "y": 223.1746826171875,
          "z": -390.58563232421875
        },
        "camForwardTargetOffset": {
          "x": 1772.383544921875,
          "y": 223.17689514160156,
          "z": -390.6116027832031
        },
        "camFov": 25.0,
        "lerpPattern": 6,
        "cameraBlendType": "EaseInOutCubic",
        "MDKBPBJCMHH": {},
        "targetNpcAlias": "",
        "PHGBNNGCJKJ": "",
        "NFILMKCFHEB": "",
        "BGPNGHDAECF": ""
      },
      {
        "$type": "MoleMole.Config.ConfigCameraDOFAction",
        "type": "CAMERA_DOF",
        "enabled": true,
        "focusDistance": 2.0,
        "focusRange": 5.0,
        "quality": 3
      },
      {
        "$type": "OBCDECFOOBC",
        "type": "DIALOG_SELECT",
        "delayTime": 0.5,
        "aliasList": [
          "Avatar"
        ],
        "dialogIDList": [
          3970221
        ],
        "grpIDList": [
          766175250
        ],
        "useGrpId": true
      },
      {
        "$type": "NPCNMEOCADD",
        "type": "LOOK_AT",
        "delayTime": 0.3033694326877594,
        "aliasList": [
          "Avatar"
        ],
        "enableHead": true,
        "useTargetPos": true,
        "enableAbsolute": true,
        "targetPosition": {
          "x": 1771.074462890625,
          "y": 223.46624755859375,
          "z": -390.6833801269531
        },
        "headRotateVec": {
          "x": 25.496572494506836,
          "y": 355.6281433105469
        },
        "bodyAngle": 16.31702423095703,
        "headTurnTime": 0.4000000059604645,
        "targetNpcAlias": "",
        "targetNpcLookAtPoint": "",
        "BHGPHGNFCBF": ""
      },
      {
        "$type": "NPCNMEOCADD",
        "type": "LOOK_AT",
        "delayTime": 0.15740741789340973,
        "aliasList": [
          "1001"
        ],
        "enableHead": true,
        "headRotateVec": {
          "x": 306.2863464355469,
          "y": 353.72332763671875
        },
        "enableBody": true,
        "bodyAngle": 338.69281005859375,
        "headTurnTime": 0.30000001192092896,
        "targetNpcAlias": "",
        "targetNpcLookAtPoint": "",
        "BHGPHGNFCBF": ""
      },
      {
        "$type": "NPCNMEOCADD",
        "type": "LOOK_AT",
        "delayTime": 0.26851850748062134,
        "aliasList": [
          "1009"
        ],
        "enableHead": true,
        "headRotateVec": {
          "x": 323.6726379394531,
          "y": 1.9205162525177002
        },
        "enableBody": true,
        "bodyAngle": 354.0230407714844,
        "headTurnTime": 0.4000000059604645,
        "targetNpcAlias": "",
        "targetNpcLookAtPoint": "",
        "BHGPHGNFCBF": ""
      },
      {
        "$type": "ICHLNKHGCAG",
        "type": "EMO_SYNC",
        "delayTime": 0.2647356688976288,
        "aliasList": [
          "1009"
        ],
        "dataPath": "Cs_Emo_Avatar_Simple_Common_Set/Cs_Emo_Avatar_Common_Normal",
        "phonemePath": "",
        "emotionPath": "",
        "mateDataPath": "",
        "matePhonemePath": "",
        "mateEmotionPath": "",
        "dataPathHashList": [
          1254595151211172457,
          11740135046283525816,
          13690962357574067534,
          4569976534232268451
        ],
        "PACNIGOOENN": "",
        "PIBDNPHIAGC": ""
      },
      {
        "$type": "MJFAIFFAGOF",
        "type": "DIALOG",
        "aliasList": [
          "1006"
        ],
        "dialogID": 3970220,
        "protectTime": 1.826521635055542
      },
      {
        "$type": "NPCNMEOCADD",
        "type": "LOOK_AT",
        "aliasList": [
          "1006"
        ],
        "enableHead": true,
        "useTargetPos": true,
        "enableAbsolute": true,
        "targetPosition": {
          "x": 1772.8536376953125,
          "y": 223.30506896972656,
          "z": -390.6907653808594
        },
        "headTurnTime": 0.4000000059604645,
        "targetNpcAlias": "",
        "targetNpcLookAtPoint": "",
        "BHGPHGNFCBF": ""
      },
      {
        "$type": "EDCHPJLDKIN",
        "type": "BODY_LANG",
        "aliasList": [
          "1006"
        ],
        "bodyLangParam": 1170,
        "eventPatternSuiteKey": ""
      },
      {
        "$type": "EDCHPJLDKIN",
        "type": "BODY_LANG",
        "delayTime": 1.726521611213684,
        "aliasList": [
          "1006"
        ],
        "isContinue": true,
        "eventPatternSuiteKey": ""
      },
      {
        "$type": "ICHLNKHGCAG",
        "type": "EMO_SYNC",
        "aliasList": [
          "1006"
        ],
        "dataPath": "Cs_Emo_Avatar_Simple_Common_Set/Cs_Emo_Avatar_Talk/Cs_Emo_Avatar_MainLine/Cs_Emo_Avatar_MengDe/Cs_Emo_3970220",
        "phonemePath": "",
        "emotionPath": "",
        "mateDataPath": "",
        "matePhonemePath": "",
        "mateEmotionPath": "",
        "dataPathHashList": [
          10292261595727603822,
          17239497098338764284,
          18373309432983431003,
          5747133333507169378
        ],
        "PACNIGOOENN": "",
        "PIBDNPHIAGC": ""
      },
      {
        "$type": "IEKHMHNHENB",
        "type": "STEER_TO",
        "delayTime": 0.20000000298023224,
        "duration": 0.5,
        "aliasList": [
          "1005"
        ],
        "steerDir": {
          "x": -0.7916539907455444,
          "z": -0.6109696626663208
        },
        "targetNpcAlias": "",
        "BHGPHGNFCBF": ""
      },
      {
        "$type": "NPCNMEOCADD",
        "type": "LOOK_AT",
        "delayTime": 0.20000000298023224,
        "aliasList": [
          "1005"
        ],
        "enableHead": true,
        "useTargetPos": true,
        "enableAbsolute": true,
        "targetPosition": {
          "x": 1771.0648193359375,
          "y": 223.4302215576172,
          "z": -390.7076721191406
        },
        "headRotateVec": {
          "x": 55.86392593383789,
          "y": 352.4781188964844
        },
        "bodyAngle": 13.869298934936523,
        "headTurnTime": 0.25,
        "targetNpcAlias": "",
        "targetNpcLookAtPoint": "",
        "BHGPHGNFCBF": ""
      }
    ],
    [
      {
        "$type": "MJFAIFFAGOF",
        "type": "DIALOG_CLEAR",
        "delayTime": 0.30000001192092896
      },
      {
        "$type": "MoleMole.Config.ConfigBlackScreenAction",
        "type": "BLACK_SCREEN",
        "blackScreenType": "TO_BLACK",
        "durationToBlack": 0.5,
        "inteePos": "",
        "textMapID": ""
      },
      {
        "$type": "MoleMole.Config.ConfigTimeProtectAction",
        "type": "TIME_PROTECT",
        "duration": 0.5
      }
    ],
    [
      {
        "$type": "MoleMole.Config.ConfigBlackScreenAction",
        "type": "BLACK_SCREEN",
        "duration": 0.5,
        "blackScreenType": "KEEP_BLACK",
        "durationKeepBlack": 0.5,
        "inteePos": "",
        "textMapID": ""
      },
      {
        "$type": "EFHODGEJOHJ",
        "type": "CAMERA_MOVE",
        "duration": 0.10000000149011612,
        "camPosOffset": {
          "x": 1776.28857421875,
          "y": 223.62440490722656,
          "z": -389.8094177246094
        },
        "camForwardTargetOffset": {
          "x": 1775.3797607421875,
          "y": 223.35980224609375,
          "z": -390.13189697265625
        },
        "lerpPattern": 6,
        "cameraBlendType": "EaseInOutCubic",
        "MDKBPBJCMHH": {},
        "targetNpcAlias": "",
        "PHGBNNGCJKJ": "",
        "NFILMKCFHEB": "",
        "BGPNGHDAECF": ""
      },
      {
        "$type": "MoleMole.Config.ConfigCameraDOFAction",
        "type": "CAMERA_DOF",
        "focusDistance": 2.0,
        "focusRange": 5.0,
        "quality": 3
      },
      {
        "$type": "MoleMole.Config.ConfigTimeProtectAction",
        "type": "TIME_PROTECT",
        "duration": 0.5
      },
      {
        "$type": "MoleMole.Config.ConfigVisibleInterAction",
        "type": "VISIBLE",
        "aliasList": [
          "1001"
        ],
        "_extraParam": ""
      },
      {
        "$type": "MoleMole.Config.ConfigVisibleInterAction",
        "type": "VISIBLE",
        "aliasList": [
          "1009"
        ],
        "_extraParam": ""
      },
      {
        "$type": "MoleMole.Config.ConfigVisibleInterAction",
        "type": "VISIBLE",
        "aliasList": [
          "1006"
        ],
        "_extraParam": ""
      }
    ],
    [
      {
        "$type": "MoleMole.Config.ConfigBlackScreenAction",
        "type": "BLACK_SCREEN",
        "duration": 0.5,
        "blackScreenType": "FROM_BLACK",
        "durationFromBlack": 0.5,
        "inteePos": "",
        "textMapID": ""
      },
      {
        "$type": "MoleMole.Config.ConfigTimeProtectAction",
        "type": "TIME_PROTECT",
        "duration": 0.5
      }
    ],
    [
      {
        "$type": "NPCNMEOCADD",
        "type": "LOOK_AT",
        "aliasList": [
          "Avatar"
        ],
        "targetNpcAlias": "",
        "targetNpcLookAtPoint": "",
        "BHGPHGNFCBF": ""
      },
      {
        "$type": "NPCNMEOCADD",
        "type": "LOOK_AT",
        "aliasList": [
          "1001"
        ],
        "targetNpcAlias": "",
        "targetNpcLookAtPoint": "",
        "BHGPHGNFCBF": ""
      },
      {
        "$type": "NPCNMEOCADD",
        "type": "LOOK_AT",
        "aliasList": [
          "1009"
        ],
        "targetNpcAlias": "",
        "targetNpcLookAtPoint": "",
        "BHGPHGNFCBF": ""
      },
      {
        "$type": "NPCNMEOCADD",
        "type": "LOOK_AT",
        "aliasList": [
          "1006"
        ],
        "targetNpcAlias": "",
        "targetNpcLookAtPoint": "",
        "BHGPHGNFCBF": ""
      },
      {
        "$type": "NPCNMEOCADD",
        "type": "LOOK_AT",
        "aliasList": [
          "1005"
        ],
        "targetNpcAlias": "",
        "targetNpcLookAtPoint": "",
        "BHGPHGNFCBF": ""
      }
    ]
  ],
  "groupId": [
    {
      "grpId": 2380019975,
      "nextGrpId": 2380019976
    },
    {
      "index": 1,
      "grpId": 2380019976,
      "nextGrpId": 2380019977
    },
    {
      "index": 2,
      "grpId": 2380019977,
      "nextGrpId": 2380019978
    },
    {
      "index": 3,
      "grpId": 2380019978,
      "nextGrpId": 2380019979
    },
    {
      "index": 4,
      "grpId": 2380019979,
      "nextGrpId": 2380019980
    },
    {
      "index": 5,
      "grpId": 2380019980,
      "nextGrpId": 2380019981
    },
    {
      "index": 6,
      "grpId": 2380019981,
      "nextGrpId": 2380019982
    },
    {
      "index": 7,
      "grpId": 2380019982,
      "nextGrpId": 2380019983
    },
    {
      "index": 8,
      "grpId": 2380019983,
      "nextGrpId": 766175241
    },
    {
      "index": 9,
      "grpId": 766175241,
      "nextGrpId": 766175242
    },
    {
      "index": 10,
      "grpId": 766175242,
      "nextGrpId": 766175243
    },
    {
      "index": 11,
      "grpId": 766175243,
      "nextGrpId": 766175244
    },
    {
      "index": 12,
      "grpId": 766175244,
      "nextGrpId": 766175245
    },
    {
      "index": 13,
      "grpId": 766175245,
      "nextGrpId": 766175246
    },
    {
      "index": 14,
      "grpId": 766175246,
      "nextGrpId": 766175247
    },
    {
      "index": 15,
      "grpId": 766175247,
      "nextGrpId": 766175248
    },
    {
      "index": 16,
      "grpId": 766175248,
      "nextGrpId": 766175249
    },
    {
      "index": 17,
      "grpId": 766175249,
      "nextGrpId": 766175250
    },
    {
      "index": 18,
      "grpId": 766175250,
      "nextGrpId": 766175272
    },
    {
      "index": 19,
      "grpId": 766175272,
      "nextGrpId": 766175273
    },
    {
      "index": 20,
      "grpId": 766175273,
      "nextGrpId": 766175274
    },
    {
      "index": 21,
      "grpId": 766175274,
      "nextGrpId": 766175275
    }
  ],
  "freeStyleDic": {
    "1001": [
      1170,
      1110,
      1130
    ],
    "1009": [
      1120,
      1170
    ],
    "1006": [
      1190,
      1130,
      1170
    ]
  }
}