{
  "luaDataPath": "Actor/InterLua/Q414_41400",
  "entityBan": "",
  "actors": [
    {
      "alias": "Avatar",
      "visible": true,
      "bornPointName": "Q414Player1",
      "relativePosNpcAlias": "",
      "_bindMovingTargetKey": ""
    },
    {
      "configID": 1001,
      "alias": "1001",
      "visible": true,
      "bornPointName": "Q414WendyBorn",
      "relativePosNpcAlias": "",
      "_bindMovingTargetKey": ""
    },
    {
      "configID": 1005,
      "alias": "1005",
      "visible": true,
      "bornPointName": "Q414Paimon1",
      "relativePosNpcAlias": "",
      "_bindMovingTargetKey": ""
    }
  ],
  "group": [
    [
      {
        "$type": "MJFAIFFAGOF",
        "type": "DIALOG",
        "aliasList": [
          "1001"
        ],
        "dialogID": 4140101
      },
      {
        "$type": "EFHODGEJOHJ",
        "type": "CAMERA_MOVE",
        "aliasList": [
          "1001"
        ],
        "camPosOffset": {
          "x": 2265.552978515625,
          "y": 217.38099670410156,
          "z": -4975.35986328125
        },
        "camForwardTargetOffset": {
          "x": 2266.460693359375,
          "y": 217.38099670410156,
          "z": -4975.779296875
        },
        "lerpRatio": 4.0,
        "targetNpcAlias": "",
        "PHGBNNGCJKJ": "",
        "NFILMKCFHEB": "",
        "BGPNGHDAECF": ""
      }
    ],
    [
      {
        "$type": "MJFAIFFAGOF",
        "type": "DIALOG",
        "aliasList": [
          "1005"
        ],
        "dialogID": 4140102
      },
      {
        "$type": "EFHODGEJOHJ",
        "type": "CAMERA_MOVE",
        "aliasList": [
          "1005"
        ],
        "camPosOffset": {
          "x": 2266.806884765625,
          "y": 217.11399841308594,
          "z": -4976.583984375
        },
        "camForwardTargetOffset": {
          "x": 2266.035888671875,
          "y": 217.34771728515625,
          "z": -4975.99169921875
        },
        "lerpRatio": 5.0,
        "lerpPattern": 1,
        "targetNpcAlias": "",
        "PHGBNNGCJKJ": "",
        "NFILMKCFHEB": "",
        "BGPNGHDAECF": ""
      },
      {
        "$type": "NPCNMEOCADD",
        "type": "LOOK_AT",
        "aliasList": [
          "1005"
        ],
        "enableBody": true,
        "bodyAngle": -40.0,
        "targetNpcAlias": "",
        "targetNpcLookAtPoint": "",
        "BHGPHGNFCBF": ""
      }
    ],
    [
      {
        "$type": "MJFAIFFAGOF",
        "type": "DIALOG",
        "aliasList": [
          "1001"
        ],
        "dialogID": 4140103
      },
      {
        "$type": "EFHODGEJOHJ",
        "type": "CAMERA_MOVE",
        "aliasList": [
          "1001"
        ],
        "camPosOffset": {
          "x": 2265.552978515625,
          "y": 217.38099670410156,
          "z": -4975.35986328125
        },
        "camForwardTargetOffset": {
          "x": 2266.460693359375,
          "y": 217.38099670410156,
          "z": -4975.779296875
        },
        "targetNpcAlias": "",
        "PHGBNNGCJKJ": "",
        "NFILMKCFHEB": "",
        "BGPNGHDAECF": ""
      }
    ],
    [
      {
        "$type": "MJFAIFFAGOF",
        "type": "DIALOG",
        "aliasList": [
          "1005"
        ],
        "dialogID": 4140104
      },
      {
        "$type": "EFHODGEJOHJ",
        "type": "CAMERA_MOVE",
        "aliasList": [
          "1005"
        ],
        "camPosOffset": {
          "x": 2265.919921875,
          "y": 217.3470001220703,
          "z": -4975.92578125
        },
        "camForwardTargetOffset": {
          "x": 2265.0341796875,
          "y": 217.3470001220703,
          "z": -4975.46142578125
        },
        "targetNpcAlias": "",
        "PHGBNNGCJKJ": "",
        "NFILMKCFHEB": "",
        "BGPNGHDAECF": ""
      }
    ],
    [
      {
        "$type": "MJFAIFFAGOF",
        "type": "DIALOG",
        "aliasList": [
          "1001"
        ],
        "dialogID": 4140105
      },
      {
        "$type": "EFHODGEJOHJ",
        "type": "CAMERA_MOVE",
        "aliasList": [
          "1001"
        ],
        "camPosOffset": {
          "x": 2265.552978515625,
          "y": 217.38099670410156,
          "z": -4975.35986328125
        },
        "camForwardTargetOffset": {
          "x": 2266.460693359375,
          "y": 217.38099670410156,
          "z": -4975.779296875
        },
        "storyDither": true,
        "targetNpcAlias": "",
        "PHGBNNGCJKJ": "",
        "NFILMKCFHEB": "",
        "BGPNGHDAECF": ""
      }
    ],
    [
      {
        "$type": "MJFAIFFAGOF",
        "type": "DIALOG",
        "aliasList": [
          "1001"
        ],
        "dialogID": 4140106
      }
    ],
    [
      {
        "$type": "MJFAIFFAGOF",
        "type": "DIALOG",
        "aliasList": [
          "Avatar"
        ],
        "dialogID": 4140201
      },
      {
        "$type": "EFHODGEJOHJ",
        "type": "CAMERA_MOVE",
        "aliasList": [
          "Avatar"
        ],
        "camPosOffset": {
          "x": 2266.117919921875,
          "y": 217.34800720214844,
          "z": -4975.69384765625
        },
        "camForwardTargetOffset": {
          "x": 2265.13720703125,
          "y": 217.2991180419922,
          "z": -4975.88330078125
        },
        "targetNpcAlias": "",
        "PHGBNNGCJKJ": "",
        "NFILMKCFHEB": "",
        "BGPNGHDAECF": ""
      },
      {
        "$type": "NPCNMEOCADD",
        "type": "LOOK_AT",
        "aliasList": [
          "Avatar"
        ],
        "enableBody": true,
        "bodyAngle": -20.0,
        "targetNpcAlias": "",
        "targetNpcLookAtPoint": "",
        "BHGPHGNFCBF": ""
      },
      {
        "$type": "NPCNMEOCADD",
        "type": "LOOK_AT",
        "aliasList": [
          "1005"
        ],
        "enableBody": true,
        "bodyAngle": -45.0,
        "targetNpcAlias": "",
        "targetNpcLookAtPoint": "",
        "BHGPHGNFCBF": ""
      }
    ],
    [
      {
        "$type": "MJFAIFFAGOF",
        "type": "DIALOG",
        "aliasList": [
          "1001"
        ],
        "dialogID": 4140202
      },
      {
        "$type": "EFHODGEJOHJ",
        "type": "CAMERA_MOVE",
        "aliasList": [
          "1001"
        ],
        "camPosOffset": {
          "x": 2265.552978515625,
          "y": 217.38099670410156,
          "z": -4975.35986328125
        },
        "camForwardTargetOffset": {
          "x": 2266.460693359375,
          "y": 217.38099670410156,
          "z": -4975.779296875
        },
        "targetNpcAlias": "",
        "PHGBNNGCJKJ": "",
        "NFILMKCFHEB": "",
        "BGPNGHDAECF": ""
      },
      {
        "$type": "NPCNMEOCADD",
        "type": "LOOK_AT",
        "aliasList": [
          "1001"
        ],
        "enableBody": true,
        "targetNpcAlias": "",
        "targetNpcLookAtPoint": "",
        "BHGPHGNFCBF": ""
      }
    ],
    [
      {
        "$type": "MJFAIFFAGOF",
        "type": "DIALOG",
        "aliasList": [
          "1001"
        ],
        "dialogID": 4140401
      }
    ],
    [
      {
        "$type": "MJFAIFFAGOF",
        "type": "DIALOG",
        "aliasList": [
          "1001"
        ],
        "dialogID": 4140402
      }
    ],
    [
      {
        "$type": "MJFAIFFAGOF",
        "type": "DIALOG",
        "aliasList": [
          "1005"
        ],
        "dialogID": 4140403
      },
      {
        "$type": "EFHODGEJOHJ",
        "type": "CAMERA_MOVE",
        "aliasList": [
          "1005"
        ],
        "camPosOffset": {
          "x": 2265.919921875,
          "y": 217.3470001220703,
          "z": -4975.92578125
        },
        "camForwardTargetOffset": {
          "x": 2265.0341796875,
          "y": 217.3470001220703,
          "z": -4975.46142578125
        },
        "targetNpcAlias": "",
        "PHGBNNGCJKJ": "",
        "NFILMKCFHEB": "",
        "BGPNGHDAECF": ""
      },
      {
        "$type": "NPCNMEOCADD",
        "type": "LOOK_AT",
        "aliasList": [
          "1005"
        ],
        "enableBody": true,
        "bodyAngle": -10.0,
        "targetNpcAlias": "",
        "targetNpcLookAtPoint": "",
        "BHGPHGNFCBF": ""
      }
    ],
    [
      {
        "$type": "MJFAIFFAGOF",
        "type": "DIALOG",
        "aliasList": [
          "1001"
        ],
        "dialogID": 4140404
      },
      {
        "$type": "EFHODGEJOHJ",
        "type": "CAMERA_MOVE",
        "aliasList": [
          "1001"
        ],
        "camPosOffset": {
          "x": 2265.552978515625,
          "y": 217.38099670410156,
          "z": -4975.35986328125
        },
        "camForwardTargetOffset": {
          "x": 2266.460693359375,
          "y": 217.38099670410156,
          "z": -4975.779296875
        },
        "targetNpcAlias": "",
        "PHGBNNGCJKJ": "",
        "NFILMKCFHEB": "",
        "BGPNGHDAECF": ""
      }
    ],
    [
      {
        "$type": "MJFAIFFAGOF",
        "type": "DIALOG",
        "aliasList": [
          "1001"
        ],
        "dialogID": 4140405
      }
    ],
    [
      {
        "$type": "MJFAIFFAGOF",
        "type": "DIALOG",
        "aliasList": [
          "1001"
        ],
        "dialogID": 4140406
      }
    ],
    [
      {
        "$type": "MJFAIFFAGOF",
        "type": "DIALOG",
        "aliasList": [
          "Avatar"
        ],
        "dialogID": 4140501
      },
      {
        "$type": "EFHODGEJOHJ",
        "type": "CAMERA_MOVE",
        "aliasList": [
          "Avatar"
        ],
        "camPosOffset": {
          "x": 2265.9970703125,
          "y": 217.43600463867188,
          "z": -4975.623046875
        },
        "camForwardTargetOffset": {
          "x": 2265.208740234375,
          "y": 217.43600463867188,
          "z": -4976.23828125
        },
        "targetNpcAlias": "",
        "PHGBNNGCJKJ": "",
        "NFILMKCFHEB": "",
        "BGPNGHDAECF": ""
      },
      {
        "$type": "NPCNMEOCADD",
        "type": "LOOK_AT",
        "aliasList": [
          "Avatar"
        ],
        "enableBody": true,
        "bodyAngle": -15.0,
        "targetNpcAlias": "",
        "targetNpcLookAtPoint": "",
        "BHGPHGNFCBF": ""
      }
    ],
    [
      {
        "$type": "MJFAIFFAGOF",
        "type": "DIALOG",
        "aliasList": [
          "1001"
        ],
        "dialogID": 4140502
      },
      {
        "$type": "EFHODGEJOHJ",
        "type": "CAMERA_MOVE",
        "aliasList": [
          "1001"
        ],
        "camPosOffset": {
          "x": 2265.552978515625,
          "y": 217.38099670410156,
          "z": -4975.35986328125
        },
        "camForwardTargetOffset": {
          "x": 2266.460693359375,
          "y": 217.38099670410156,
          "z": -4975.779296875
        },
        "targetNpcAlias": "",
        "PHGBNNGCJKJ": "",
        "NFILMKCFHEB": "",
        "BGPNGHDAECF": ""
      }
    ],
    [
      {
        "$type": "MJFAIFFAGOF",
        "type": "DIALOG",
        "aliasList": [
          "1001"
        ],
        "dialogID": 4140701
      }
    ],
    [
      {
        "$type": "MJFAIFFAGOF",
        "type": "DIALOG",
        "aliasList": [
          "1001"
        ],
        "dialogID": 4140702
      }
    ],
    [
      {
        "$type": "MJFAIFFAGOF",
        "type": "DIALOG",
        "aliasList": [
          "1005"
        ],
        "dialogID": 4140703
      },
      {
        "$type": "EFHODGEJOHJ",
        "type": "CAMERA_MOVE",
        "aliasList": [
          "1005"
        ],
        "camPosOffset": {
          "x": 2265.919921875,
          "y": 217.3470001220703,
          "z": -4975.92578125
        },
        "camForwardTargetOffset": {
          "x": 2265.0341796875,
          "y": 217.3470001220703,
          "z": -4975.46142578125
        },
        "targetNpcAlias": "",
        "PHGBNNGCJKJ": "",
        "NFILMKCFHEB": "",
        "BGPNGHDAECF": ""
      }
    ],
    [
      {
        "$type": "MJFAIFFAGOF",
        "type": "DIALOG",
        "aliasList": [
          "1001"
        ],
        "dialogID": 4140704
      },
      {
        "$type": "EFHODGEJOHJ",
        "type": "CAMERA_MOVE",
        "aliasList": [
          "1001"
        ],
        "camPosOffset": {
          "x": 2265.552978515625,
          "y": 217.38099670410156,
          "z": -4975.35986328125
        },
        "camForwardTargetOffset": {
          "x": 2266.460693359375,
          "y": 217.38099670410156,
          "z": -4975.779296875
        },
        "targetNpcAlias": "",
        "PHGBNNGCJKJ": "",
        "NFILMKCFHEB": "",
        "BGPNGHDAECF": ""
      }
    ],
    [
      {
        "$type": "MJFAIFFAGOF",
        "type": "DIALOG",
        "aliasList": [
          "1001"
        ],
        "dialogID": 4140705
      }
    ],
    [
      {
        "$type": "MJFAIFFAGOF",
        "type": "DIALOG",
        "aliasList": [
          "1001"
        ],
        "dialogID": 4140706
      }
    ],
    [
      {
        "$type": "MJFAIFFAGOF",
        "type": "DIALOG",
        "aliasList": [
          "1005"
        ],
        "dialogID": 4140707
      },
      {
        "$type": "EFHODGEJOHJ",
        "type": "CAMERA_MOVE",
        "aliasList": [
          "1005"
        ],
        "camPosOffset": {
          "x": 2265.919921875,
          "y": 217.3470001220703,
          "z": -4975.92578125
        },
        "camForwardTargetOffset": {
          "x": 2265.0341796875,
          "y": 217.3470001220703,
          "z": -4975.46142578125
        },
        "lerpRatio": 5.0,
        "lerpPattern": 1,
        "targetNpcAlias": "",
        "PHGBNNGCJKJ": "",
        "NFILMKCFHEB": "",
        "BGPNGHDAECF": ""
      }
    ],
    [
      {
        "$type": "MJFAIFFAGOF",
        "type": "DIALOG",
        "aliasList": [
          "Avatar"
        ],
        "dialogID": 4140801
      },
      {
        "$type": "EFHODGEJOHJ",
        "type": "CAMERA_MOVE",
        "duration": 1.0,
        "aliasList": [
          "Avatar"
        ],
        "camPosOffset": {
          "x": 2265.9970703125,
          "y": 217.43600463867188,
          "z": -4975.623046875
        },
        "camForwardTargetOffset": {
          "x": 2265.208740234375,
          "y": 217.43600463867188,
          "z": -4976.23828125
        },
        "lerpRatio": 5.0,
        "lerpPattern": 1,
        "targetNpcAlias": "",
        "PHGBNNGCJKJ": "",
        "NFILMKCFHEB": "",
        "BGPNGHDAECF": ""
      }
    ],
    [
      {
        "$type": "MJFAIFFAGOF",
        "type": "DIALOG",
        "aliasList": [
          "1001"
        ],
        "dialogID": 4141001
      },
      {
        "$type": "EFHODGEJOHJ",
        "type": "CAMERA_MOVE",
        "aliasList": [
          "1001"
        ],
        "camPosOffset": {
          "x": 2265.552978515625,
          "y": 217.38099670410156,
          "z": -4975.35986328125
        },
        "camForwardTargetOffset": {
          "x": 2266.460693359375,
          "y": 217.38099670410156,
          "z": -4975.779296875
        },
        "targetNpcAlias": "",
        "PHGBNNGCJKJ": "",
        "NFILMKCFHEB": "",
        "BGPNGHDAECF": ""
      }
    ],
    [
      {
        "$type": "MJFAIFFAGOF",
        "type": "DIALOG",
        "aliasList": [
          "1001"
        ],
        "dialogID": 4141002
      }
    ],
    [
      {
        "$type": "MJFAIFFAGOF",
        "type": "DIALOG",
        "aliasList": [
          "1001"
        ],
        "dialogID": 4141003
      }
    ],
    [
      {
        "$type": "MJFAIFFAGOF",
        "type": "DIALOG",
        "aliasList": [
          "1001"
        ],
        "dialogID": 4141004
      }
    ],
    [
      {
        "$type": "MJFAIFFAGOF",
        "type": "DIALOG",
        "aliasList": [
          "1005"
        ],
        "dialogID": 4141005
      },
      {
        "$type": "EFHODGEJOHJ",
        "type": "CAMERA_MOVE",
        "aliasList": [
          "1005"
        ],
        "camPosOffset": {
          "x": 2266.117919921875,
          "y": 217.34800720214844,
          "z": -4975.69384765625
        },
        "camForwardTargetOffset": {
          "x": 2265.13720703125,
          "y": 217.2991180419922,
          "z": -4975.88330078125
        },
        "targetNpcAlias": "",
        "PHGBNNGCJKJ": "",
        "NFILMKCFHEB": "",
        "BGPNGHDAECF": ""
      },
      {
        "$type": "NPCNMEOCADD",
        "type": "LOOK_AT",
        "aliasList": [
          "1005"
        ],
        "enableBody": true,
        "bodyAngle": -30.0,
        "targetNpcAlias": "",
        "targetNpcLookAtPoint": "",
        "BHGPHGNFCBF": ""
      }
    ],
    [
      {
        "$type": "MJFAIFFAGOF",
        "type": "DIALOG",
        "aliasList": [
          "1001"
        ],
        "dialogID": 4141006
      },
      {
        "$type": "EFHODGEJOHJ",
        "type": "CAMERA_MOVE",
        "aliasList": [
          "1001"
        ],
        "camPosOffset": {
          "x": 2265.552978515625,
          "y": 217.38099670410156,
          "z": -4975.35986328125
        },
        "camForwardTargetOffset": {
          "x": 2266.460693359375,
          "y": 217.38099670410156,
          "z": -4975.779296875
        },
        "targetNpcAlias": "",
        "PHGBNNGCJKJ": "",
        "NFILMKCFHEB": "",
        "BGPNGHDAECF": ""
      }
    ],
    [
      {
        "$type": "MJFAIFFAGOF",
        "type": "DIALOG",
        "aliasList": [
          "1001"
        ],
        "dialogID": 4141007
      }
    ],
    [
      {
        "$type": "MJFAIFFAGOF",
        "type": "DIALOG",
        "aliasList": [
          "1001"
        ],
        "dialogID": 4141008
      }
    ],
    [
      {
        "$type": "MJFAIFFAGOF",
        "type": "DIALOG",
        "aliasList": [
          "1001"
        ],
        "dialogID": 4141009
      },
      {
        "$type": "EFHODGEJOHJ",
        "type": "CAMERA_MOVE",
        "duration": 1.0,
        "aliasList": [
          "1001"
        ],
        "camPosOffset": {
          "x": 2265.160888671875,
          "y": 217.6529998779297,
          "z": -4975.59716796875
        },
        "camForwardTargetOffset": {
          "x": 2266.072021484375,
          "y": 217.3079833984375,
          "z": -4975.822265625
        },
        "lerpRatio": 5.0,
        "lerpPattern": 1,
        "storyDither": true,
        "targetNpcAlias": "",
        "PHGBNNGCJKJ": "",
        "NFILMKCFHEB": "",
        "BGPNGHDAECF": ""
      },
      {
        "$type": "NPCNMEOCADD",
        "type": "LOOK_AT",
        "aliasList": [
          "1001"
        ],
        "enableBody": true,
        "bodyAngle": -20.0,
        "targetNpcAlias": "",
        "targetNpcLookAtPoint": "",
        "BHGPHGNFCBF": ""
      }
    ],
    [
      {
        "$type": "MJFAIFFAGOF",
        "type": "DIALOG",
        "aliasList": [
          "1001"
        ],
        "dialogID": 4141010
      },
      {
        "$type": "EFHODGEJOHJ",
        "type": "CAMERA_MOVE",
        "duration": 2.0,
        "aliasList": [
          "1001"
        ],
        "camPosOffset": {
          "x": 2226.41796875,
          "y": 227.88900756835938,
          "z": -5008.2412109375
        },
        "camForwardTargetOffset": {
          "x": 2226.72509765625,
          "y": 228.09628295898438,
          "z": -5007.3125
        },
        "lerpRatio": 4.0,
        "lerpPattern": 1,
        "targetNpcAlias": "",
        "PHGBNNGCJKJ": "",
        "NFILMKCFHEB": "",
        "BGPNGHDAECF": ""
      }
    ],
    [
      {
        "$type": "MJFAIFFAGOF",
        "type": "DIALOG",
        "aliasList": [
          "1001"
        ],
        "dialogID": 4141011
      },
      {
        "$type": "EFHODGEJOHJ",
        "type": "CAMERA_MOVE",
        "duration": 2.0,
        "aliasList": [
          "1001"
        ],
        "camPosOffset": {
          "x": 2224.4189453125,
          "y": 237.3209991455078,
          "z": -4972.369140625
        },
        "camForwardTargetOffset": {
          "x": 2225.046142578125,
          "y": 237.1349334716797,
          "z": -4971.61279296875
        },
        "lerpRatio": 5.0,
        "lerpPattern": 1,
        "targetNpcAlias": "",
        "PHGBNNGCJKJ": "",
        "NFILMKCFHEB": "",
        "BGPNGHDAECF": ""
      }
    ],
    [
      {
        "$type": "MJFAIFFAGOF",
        "type": "DIALOG",
        "aliasList": [
          "1001"
        ],
        "dialogID": 4141012
      },
      {
        "$type": "EFHODGEJOHJ",
        "type": "CAMERA_MOVE",
        "duration": 2.0,
        "aliasList": [
          "1001"
        ],
        "camPosOffset": {
          "x": 2336.260009765625,
          "y": 270.9159851074219,
          "z": -4894.2568359375
        },
        "camForwardTargetOffset": {
          "x": 2336.260009765625,
          "y": 270.5387878417969,
          "z": -4893.33056640625
        },
        "lerpRatio": 5.0,
        "lerpPattern": 1,
        "targetNpcAlias": "",
        "PHGBNNGCJKJ": "",
        "NFILMKCFHEB": "",
        "BGPNGHDAECF": ""
      }
    ],
    [
      {
        "$type": "MJFAIFFAGOF",
        "type": "DIALOG",
        "aliasList": [
          "1001"
        ],
        "dialogID": 4141013
      },
      {
        "$type": "EFHODGEJOHJ",
        "type": "CAMERA_MOVE",
        "duration": 2.0,
        "aliasList": [
          "1001"
        ],
        "camPosOffset": {
          "x": 2386.83203125,
          "y": 296.12701416015625,
          "z": -4818.41015625
        },
        "camForwardTargetOffset": {
          "x": 2387.326904296875,
          "y": 295.5675354003906,
          "z": -4817.7451171875
        },
        "lerpRatio": 5.0,
        "lerpPattern": 1,
        "targetNpcAlias": "",
        "PHGBNNGCJKJ": "",
        "NFILMKCFHEB": "",
        "BGPNGHDAECF": ""
      }
    ],
    [
      {
        "$type": "MJFAIFFAGOF",
        "type": "DIALOG",
        "aliasList": [
          "1001"
        ],
        "dialogID": 4141014
      },
      {
        "$type": "EFHODGEJOHJ",
        "type": "CAMERA_MOVE",
        "aliasList": [
          "1001"
        ],
        "camPosOffset": {
          "x": 2265.160888671875,
          "y": 217.6529998779297,
          "z": -4975.59716796875
        },
        "camForwardTargetOffset": {
          "x": 2266.072021484375,
          "y": 217.3079833984375,
          "z": -4975.822265625
        },
        "targetNpcAlias": "",
        "PHGBNNGCJKJ": "",
        "NFILMKCFHEB": "",
        "BGPNGHDAECF": ""
      }
    ],
    [
      {
        "$type": "MJFAIFFAGOF",
        "type": "DIALOG",
        "aliasList": [
          "1001"
        ],
        "dialogID": 4141015
      },
      {
        "$type": "EFHODGEJOHJ",
        "type": "CAMERA_MOVE",
        "duration": 1.0,
        "aliasList": [
          "1001"
        ],
        "camPosOffset": {
          "x": 2265.552978515625,
          "y": 217.38099670410156,
          "z": -4975.35986328125
        },
        "camForwardTargetOffset": {
          "x": 2266.460693359375,
          "y": 217.38099670410156,
          "z": -4975.779296875
        },
        "lerpRatio": 5.0,
        "lerpPattern": 1,
        "targetNpcAlias": "",
        "PHGBNNGCJKJ": "",
        "NFILMKCFHEB": "",
        "BGPNGHDAECF": ""
      },
      {
        "$type": "NPCNMEOCADD",
        "type": "LOOK_AT",
        "aliasList": [
          "1001"
        ],
        "enableBody": true,
        "bodyAngle": 5.0,
        "targetNpcAlias": "",
        "targetNpcLookAtPoint": "",
        "BHGPHGNFCBF": ""
      }
    ],
    [
      {
        "$type": "IEKHMHNHENB",
        "type": "STEER_TO",
        "aliasList": [
          "Avatar"
        ],
        "steerType": "RETURN",
        "targetNpcAlias": "",
        "BHGPHGNFCBF": ""
      },
      {
        "$type": "NPCNMEOCADD",
        "type": "LOOK_AT",
        "aliasList": [
          "Avatar"
        ],
        "targetNpcAlias": "",
        "targetNpcLookAtPoint": "",
        "BHGPHGNFCBF": ""
      },
      {
        "$type": "IEKHMHNHENB",
        "type": "STEER_TO",
        "aliasList": [
          "1001"
        ],
        "steerType": "RETURN",
        "targetNpcAlias": "",
        "BHGPHGNFCBF": ""
      },
      {
        "$type": "NPCNMEOCADD",
        "type": "LOOK_AT",
        "aliasList": [
          "1001"
        ],
        "targetNpcAlias": "",
        "targetNpcLookAtPoint": "",
        "BHGPHGNFCBF": ""
      },
      {
        "$type": "IEKHMHNHENB",
        "type": "STEER_TO",
        "aliasList": [
          "1005"
        ],
        "steerType": "RETURN",
        "targetNpcAlias": "",
        "BHGPHGNFCBF": ""
      },
      {
        "$type": "NPCNMEOCADD",
        "type": "LOOK_AT",
        "aliasList": [
          "1005"
        ],
        "targetNpcAlias": "",
        "targetNpcLookAtPoint": "",
        "BHGPHGNFCBF": ""
      }
    ]
  ]
}