{
  "luaDataPath": "",
  "startBlackKeepTime": 1.0,
  "entityBan": "",
  "disableNpcLod": true,
  "protectNpcMobileLod": true,
  "startFade": {
    "startFadeInDuration": 0.5,
    "startFadeOutDuration": 0.5
  },
  "endFade": {
    "startFadeOutDuration": 0.0
  },
  "actors": [
    {
      "alias": "Avatar",
      "visible": true,
      "bornPointName": "Q23032_PLAYER",
      "relativePosType": "AVATAR_NEW",
      "relativePosNpcAlias": "",
      "_bindMovingTargetKey": ""
    },
    {
      "configID": 1517,
      "alias": "1517",
      "visible": true,
      "bornPointName": "Q2303201_N1517",
      "forceCreateDaily": true,
      "relativePosType": "AVATAR_NEW",
      "relativePosNpcAlias": "",
      "_bindMovingTargetKey": ""
    },
    {
      "configID": 12763,
      "alias": "12763",
      "visible": true,
      "bornPointName": "Q2303201_GUIDE",
      "relativePos": {
        "x": 0.800000011920929,
        "z": 0.800000011920929
      },
      "removeActorType": "REMOVE",
      "relativePosType": "AVATAR_NEW",
      "relativePosNpcAlias": "",
      "_bindMovingTargetKey": ""
    }
  ],
  "group": [
    [
      {
        "$type": "EFHODGEJOHJ",
        "type": "CAMERA_FOCUS",
        "duration": 0.10000000149011612,
        "targetNpcAlias": "",
        "PHGBNNGCJKJ": "",
        "NFILMKCFHEB": "",
        "BGPNGHDAECF": ""
      },
      {
        "$type": "MoleMole.Config.ConfigTimeProtectAction",
        "type": "TIME_PROTECT",
        "duration": 0.10000000149011612
      },
      {
        "$type": "IEKHMHNHENB",
        "type": "STEER_TO",
        "delayTime": 0.30000001192092896,
        "duration": 0.800000011920929,
        "aliasList": [
          "Avatar"
        ],
        "steerType": "TO_TARGET_ADVANCED",
        "useSteerAnim": true,
        "interruptFreestyle": true,
        "forceSteer": true,
        "targetNpcAlias": "1517",
        "BHGPHGNFCBF": ""
      },
      {
        "$type": "IEKHMHNHENB",
        "type": "STEER_TO",
        "delayTime": 0.30000001192092896,
        "duration": 0.800000011920929,
        "aliasList": [
          "1517"
        ],
        "steerType": "TO_LOCAL_AVATAR_ADVANCED",
        "useSteerAnim": true,
        "interruptFreestyle": true,
        "forceSteer": true,
        "targetNpcAlias": "",
        "BHGPHGNFCBF": ""
      },
      {
        "$type": "IEKHMHNHENB",
        "type": "STEER_TO",
        "delayTime": 0.30000001192092896,
        "duration": 0.800000011920929,
        "aliasList": [
          "12763"
        ],
        "steerType": "TO_LOCAL_AVATAR_ADVANCED",
        "useSteerAnim": true,
        "interruptFreestyle": true,
        "forceSteer": true,
        "targetNpcAlias": "",
        "BHGPHGNFCBF": ""
      }
    ],
    [
      {
        "$type": "NPCNMEOCADD",
        "type": "LOOK_AT",
        "aliasList": [
          "Avatar"
        ],
        "enableHead": true,
        "headTurnTime": 0.5,
        "targetNpcAlias": "1517",
        "openBackProtect": true,
        "targetNpcLookAtPoint": "",
        "BHGPHGNFCBF": ""
      },
      {
        "$type": "MJFAIFFAGOF",
        "type": "DIALOG",
        "aliasList": [
          "1517"
        ],
        "dialogID": 230322101,
        "protectTime": 0.5
      },
      {
        "$type": "NPCNMEOCADD",
        "type": "LOOK_AT",
        "aliasList": [
          "1517"
        ],
        "actionId": 165,
        "enableHead": true,
        "headTurnTime": 0.5,
        "targetNpcAlias": "Avatar",
        "openBackProtect": true,
        "targetNpcLookAtPoint": "",
        "BHGPHGNFCBF": ""
      },
      {
        "$type": "NPCNMEOCADD",
        "type": "LOOK_AT",
        "aliasList": [
          "12763"
        ],
        "enableHead": true,
        "headTurnTime": 0.5,
        "targetNpcAlias": "1517",
        "openBackProtect": true,
        "targetNpcLookAtPoint": "",
        "BHGPHGNFCBF": ""
      }
    ],
    [
      {
        "$type": "MoleMole.Config.ConfigSimpleBlackScreenAction",
        "type": "SIMPLE_BLACK_SCREEN",
        "durationToBlack": 0.5,
        "durationKeepBlack": 3.0,
        "durationFromBlack": 0.5,
        "textMapID": "",
        "useTextFade": true,
        "_dialogID": 230322102
      },
      {
        "$type": "MJFAIFFAGOF",
        "type": "DIALOG_CLEAR"
      }
    ],
    [
      {
        "$type": "MJFAIFFAGOF",
        "type": "DIALOG",
        "aliasList": [
          "1517"
        ],
        "dialogID": 230322103,
        "protectTime": 0.5
      }
    ],
    [
      {
        "$type": "MJFAIFFAGOF",
        "type": "DIALOG",
        "aliasList": [
          "1517"
        ],
        "dialogID": 230322104,
        "protectTime": 0.5
      }
    ],
    [
      {
        "$type": "NPCNMEOCADD",
        "type": "LOOK_AT",
        "aliasList": [
          "Avatar"
        ],
        "enableHead": true,
        "headTurnTime": 0.5,
        "targetNpcAlias": "12763",
        "openBackProtect": true,
        "targetNpcLookAtPoint": "",
        "BHGPHGNFCBF": ""
      },
      {
        "$type": "NPCNMEOCADD",
        "type": "LOOK_AT",
        "aliasList": [
          "1517"
        ],
        "enableHead": true,
        "headTurnTime": 0.5,
        "targetNpcAlias": "12763",
        "openBackProtect": true,
        "targetNpcLookAtPoint": "",
        "BHGPHGNFCBF": ""
      },
      {
        "$type": "MJFAIFFAGOF",
        "type": "DIALOG",
        "aliasList": [
          "12763"
        ],
        "dialogID": 230322105,
        "protectTime": 0.5
      }
    ],
    [
      {
        "$type": "NPCNMEOCADD",
        "type": "LOOK_AT",
        "aliasList": [
          "Avatar"
        ],
        "enableHead": true,
        "headTurnTime": 0.5,
        "targetNpcAlias": "1517",
        "openBackProtect": true,
        "targetNpcLookAtPoint": "",
        "BHGPHGNFCBF": ""
      },
      {
        "$type": "MJFAIFFAGOF",
        "type": "DIALOG",
        "aliasList": [
          "1517"
        ],
        "dialogID": 230322106,
        "protectTime": 0.5
      },
      {
        "$type": "NPCNMEOCADD",
        "type": "LOOK_AT",
        "aliasList": [
          "12763"
        ],
        "enableHead": true,
        "headTurnTime": 0.5,
        "targetNpcAlias": "1517",
        "openBackProtect": true,
        "targetNpcLookAtPoint": "",
        "BHGPHGNFCBF": ""
      }
    ],
    [
      {
        "$type": "MJFAIFFAGOF",
        "type": "DIALOG",
        "aliasList": [
          "1517"
        ],
        "dialogID": 230322107,
        "protectTime": 0.5
      }
    ],
    [
      {
        "$type": "MJFAIFFAGOF",
        "type": "DIALOG",
        "aliasList": [
          "1517"
        ],
        "dialogID": 230322108,
        "protectTime": 0.5
      },
      {
        "$type": "OBCDECFOOBC",
        "type": "DIALOG_SELECT",
        "delayTime": 0.4000000059604645,
        "aliasList": [
          "Avatar"
        ],
        "dialogIDList": [
          230322109
        ],
        "grpIDList": [
          2883788862
        ],
        "useGrpId": true
      }
    ],
    [
      {
        "$type": "NPCNMEOCADD",
        "type": "LOOK_AT",
        "aliasList": [
          "Avatar"
        ],
        "enableHead": true,
        "headTurnTime": 0.5,
        "targetNpcAlias": "12763",
        "openBackProtect": true,
        "targetNpcLookAtPoint": "",
        "BHGPHGNFCBF": ""
      },
      {
        "$type": "NPCNMEOCADD",
        "type": "LOOK_AT",
        "aliasList": [
          "1517"
        ],
        "enableHead": true,
        "headTurnTime": 0.5,
        "targetNpcAlias": "12763",
        "openBackProtect": true,
        "targetNpcLookAtPoint": "",
        "BHGPHGNFCBF": ""
      },
      {
        "$type": "MJFAIFFAGOF",
        "type": "DIALOG",
        "aliasList": [
          "12763"
        ],
        "dialogID": 230322110,
        "protectTime": 0.5
      },
      {
        "$type": "NPCNMEOCADD",
        "type": "LOOK_AT",
        "aliasList": [
          "12763"
        ],
        "actionId": 163,
        "enableHead": true,
        "headTurnTime": 0.5,
        "targetNpcAlias": "Avatar",
        "openBackProtect": true,
        "targetNpcLookAtPoint": "",
        "BHGPHGNFCBF": ""
      }
    ],
    [
      {
        "$type": "MJFAIFFAGOF",
        "type": "DIALOG",
        "aliasList": [
          "12763"
        ],
        "dialogID": 230322111,
        "protectTime": 0.5
      }
    ],
    [
      {
        "$type": "MJFAIFFAGOF",
        "type": "DIALOG",
        "aliasList": [
          "12763"
        ],
        "dialogID": 230322112,
        "protectTime": 0.5
      }
    ],
    [
      {
        "$type": "NPCNMEOCADD",
        "type": "LOOK_AT",
        "aliasList": [
          "1517"
        ],
        "actionId": 166,
        "enableHead": true,
        "headTurnTime": 0.5,
        "targetNpcAlias": "Avatar",
        "openBackProtect": true,
        "targetNpcLookAtPoint": "",
        "BHGPHGNFCBF": ""
      },
      {
        "$type": "MJFAIFFAGOF",
        "type": "DIALOG",
        "aliasList": [
          "12763"
        ],
        "dialogID": 230322113,
        "protectTime": 0.5
      },
      {
        "$type": "OBCDECFOOBC",
        "type": "DIALOG_SELECT",
        "delayTime": 0.4000000059604645,
        "aliasList": [
          "Avatar"
        ],
        "dialogIDList": [
          230322114,
          230322115
        ],
        "grpIDList": [
          2883788866,
          2883788866
        ],
        "useGrpId": true
      }
    ],
    [
      {
        "$type": "NPCNMEOCADD",
        "type": "LOOK_AT",
        "aliasList": [
          "Avatar"
        ],
        "enableHead": true,
        "headTurnTime": 0.5,
        "targetNpcAlias": "1517",
        "openBackProtect": true,
        "targetNpcLookAtPoint": "",
        "BHGPHGNFCBF": ""
      },
      {
        "$type": "MJFAIFFAGOF",
        "type": "DIALOG",
        "aliasList": [
          "1517"
        ],
        "dialogID": 230322116,
        "protectTime": 0.5
      },
      {
        "$type": "NPCNMEOCADD",
        "type": "LOOK_AT",
        "aliasList": [
          "1517"
        ],
        "actionId": 167,
        "enableHead": true,
        "headTurnTime": 0.5,
        "targetNpcAlias": "12763",
        "openBackProtect": true,
        "targetNpcLookAtPoint": "",
        "BHGPHGNFCBF": ""
      },
      {
        "$type": "NPCNMEOCADD",
        "type": "LOOK_AT",
        "aliasList": [
          "12763"
        ],
        "enableHead": true,
        "headTurnTime": 0.5,
        "targetNpcAlias": "1517",
        "openBackProtect": true,
        "targetNpcLookAtPoint": "",
        "BHGPHGNFCBF": ""
      }
    ],
    [
      {
        "$type": "NPCNMEOCADD",
        "type": "LOOK_AT",
        "aliasList": [
          "Avatar"
        ],
        "enableHead": true,
        "headTurnTime": 0.5,
        "targetNpcAlias": "12763",
        "openBackProtect": true,
        "targetNpcLookAtPoint": "",
        "BHGPHGNFCBF": ""
      },
      {
        "$type": "NPCNMEOCADD",
        "type": "LOOK_AT",
        "aliasList": [
          "1517"
        ],
        "enableHead": true,
        "headTurnTime": 0.5,
        "targetNpcAlias": "12763",
        "openBackProtect": true,
        "targetNpcLookAtPoint": "",
        "BHGPHGNFCBF": ""
      },
      {
        "$type": "MJFAIFFAGOF",
        "type": "DIALOG",
        "aliasList": [
          "12763"
        ],
        "dialogID": 230322117,
        "protectTime": 0.5
      }
    ],
    [
      {
        "$type": "MJFAIFFAGOF",
        "type": "DIALOG",
        "aliasList": [
          "12763"
        ],
        "dialogID": 230322118,
        "protectTime": 0.5
      },
      {
        "$type": "OBCDECFOOBC",
        "type": "DIALOG_SELECT",
        "delayTime": 0.4000000059604645,
        "aliasList": [
          "Avatar"
        ],
        "dialogIDList": [
          230322119
        ],
        "grpIDList": [
          2883788869
        ],
        "useGrpId": true
      }
    ],
    [
      {
        "$type": "MJFAIFFAGOF",
        "type": "DIALOG",
        "aliasList": [
          "12763"
        ],
        "dialogID": 230322120,
        "protectTime": 0.5
      },
      {
        "$type": "NPCNMEOCADD",
        "type": "LOOK_AT",
        "aliasList": [
          "12763"
        ],
        "actionId": 164,
        "enableHead": true,
        "headTurnTime": 0.5,
        "targetNpcAlias": "Avatar",
        "openBackProtect": true,
        "targetNpcLookAtPoint": "",
        "BHGPHGNFCBF": ""
      }
    ],
    [
      {
        "$type": "MJFAIFFAGOF",
        "type": "DIALOG",
        "aliasList": [
          "12763"
        ],
        "dialogID": 230322121,
        "protectTime": 0.5
      }
    ],
    [
      {
        "$type": "MJFAIFFAGOF",
        "type": "DIALOG",
        "aliasList": [
          "12763"
        ],
        "dialogID": 230322122,
        "protectTime": 0.5
      }
    ],
    [
      {
        "$type": "MoleMole.Config.ConfigTimeProtectAction",
        "type": "TIME_PROTECT",
        "duration": 0.10000000149011612
      },
      {
        "$type": "MoleMole.Config.ConfigSimpleBlackScreenAction",
        "type": "SIMPLE_BLACK_SCREEN",
        "actionId": 149,
        "durationToBlack": 0.5,
        "durationKeepBlack": 1.0,
        "durationFromBlack": 0.5,
        "textMapID": "",
        "useTextFade": true
      }
    ]
  ],
  "groupId": [
    {
      "grpId": 508667442,
      "nextGrpId": 508667443
    },
    {
      "index": 1,
      "grpId": 508667443,
      "nextGrpId": 508667444
    },
    {
      "index": 2,
      "grpId": 508667444,
      "nextGrpId": 508667445
    },
    {
      "index": 3,
      "grpId": 508667445,
      "nextGrpId": 508667446
    },
    {
      "index": 4,
      "grpId": 508667446,
      "nextGrpId": 508667447
    },
    {
      "index": 5,
      "grpId": 508667447,
      "nextGrpId": 508667448
    },
    {
      "index": 6,
      "grpId": 508667448,
      "nextGrpId": 508667449
    },
    {
      "index": 7,
      "grpId": 508667449,
      "nextGrpId": 508667450
    },
    {
      "index": 8,
      "grpId": 508667450,
      "nextGrpId": 2883788862
    },
    {
      "index": 9,
      "grpId": 2883788862,
      "nextGrpId": 2883788863
    },
    {
      "index": 10,
      "grpId": 2883788863,
      "nextGrpId": 2883788864
    },
    {
      "index": 11,
      "grpId": 2883788864,
      "nextGrpId": 2883788865
    },
    {
      "index": 12,
      "grpId": 2883788865,
      "nextGrpId": 2883788866
    },
    {
      "index": 13,
      "grpId": 2883788866,
      "nextGrpId": 2883788867
    },
    {
      "index": 14,
      "grpId": 2883788867,
      "nextGrpId": 2883788868
    },
    {
      "index": 15,
      "grpId": 2883788868,
      "nextGrpId": 2883788869
    },
    {
      "index": 16,
      "grpId": 2883788869,
      "nextGrpId": 2883788870
    },
    {
      "index": 17,
      "grpId": 2883788870,
      "nextGrpId": 2883788871
    },
    {
      "index": 18,
      "grpId": 2883788871,
      "nextGrpId": 2883788893
    },
    {
      "index": 19,
      "grpId": 2883788893,
      "nextGrpId": 2883788894
    }
  ],
  "freeStyleDic": {
    "1517": [],
    "12763": []
  }
}