{
  "RogueOperator_Indicator": {
    "icon": {
      "param": "",
      "originValue": "UI_MarkQuest_Box"
    },
    "distanceShow": "ToAvatar",
    "indicator": [
      {
        "iConditions": [
          {
            "$type": "AFFAGMAKGDC",
            "toState": 203
          },
          {
            "$type": "PJPCNBHPNIE",
            "distance": {
              "param": "",
              "originValue": 30.0
            }
          }
        ]
      },
      {
        "iOperator": "Or",
        "iConditions": [
          {
            "$type": "AFFAGMAKGDC",
            "fromState": 203
          },
          {
            "$type": "PJPCNBHPNIE",
            "distance": {
              "param": "",
              "originValue": 40.0
            }
          }
        ]
      }
    ]
  },
  "Desert_HourGlass_Indicator": {
    "icon": {
      "param": "",
      "originValue": "UI_MarkQuest_Branch_Proce"
    },
    "distanceShow": "ToAvatar",
    "indicator": [
      {
        "iConditions": [
          {
            "$type": "AFFAGMAKGDC",
            "toState": 201
          },
          {
            "$type": "PJPCNBHPNIE",
            "distance": {
              "param": "",
              "originValue": 160.0
            }
          }
        ]
      },
      {
        "iOperator": "Or",
        "iConditions": [
          {
            "$type": "AFFAGMAKGDC",
            "fromState": 201
          },
          {
            "$type": "PJPCNBHPNIE",
            "distance": {
              "param": "",
              "originValue": 170.0
            }
          }
        ]
      }
    ]
  },
  "TransPointUnlock_Indicator": {
    "icon": {
      "param": "",
      "originValue": "UI_MarkTransPoint_NotActive"
    },
    "distanceShow": "ToAvatar",
    "indicator": [
      {
        "iConditions": [
          {
            "$type": "PJEKGCLKLMN",
            "level": 2
          },
          {
            "$type": "FIGKOLJECKB"
          },
          {
            "$type": "PJPCNBHPNIE",
            "distance": {
              "param": "",
              "originValue": 30.0
            }
          },
          {
            "$type": "KCMGMFOIHDM"
          }
        ]
      },
      {
        "iOperator": "Or",
        "iConditions": [
          {
            "$type": "FIGKOLJECKB",
            "unlocked": true
          },
          {
            "$type": "PJPCNBHPNIE",
            "distance": {
              "param": "",
              "originValue": 40.0
            }
          }
        ]
      }
    ]
  },
  "UGCGateway_Indicator": {
    "icon": {
      "param": "",
      "originValue": "UI_MarkPonint_Ugc_Indicator"
    },
    "distanceShow": "ToAvatar",
    "indicator": [
      {
        "iConditions": [
          {
            "$type": "AFFAGMAKGDC",
            "toState": 201
          },
          {
            "$type": "PJPCNBHPNIE",
            "distance": {
              "param": "",
              "originValue": 30.0
            }
          }
        ]
      },
      {
        "iOperator": "Or",
        "iConditions": [
          {
            "$type": "AFFAGMAKGDC",
            "fromState": 201
          },
          {
            "$type": "PJPCNBHPNIE",
            "distance": {
              "param": "",
              "originValue": 40.0
            }
          }
        ]
      }
    ]
  },
  "Normal_Chest_Icon": {
    "icon": {
      "param": "",
      "originValue": "UI_MarkQuest_Box"
    },
    "distanceShow": "ToAvatar",
    "indicator": [
      {
        "iConditions": [
          {
            "$type": "AFFAGMAKGDC",
            "toState": 0
          },
          {
            "$type": "PJPCNBHPNIE",
            "distance": {
              "param": "show_distance",
              "originValue": 60.0
            }
          }
        ]
      },
      {
        "iOperator": "Or",
        "iConditions": [
          {
            "$type": "EJBCFPJBICB"
          },
          {
            "$type": "AFFAGMAKGDC",
            "fromState": 0
          },
          {
            "$type": "PJPCNBHPNIE",
            "distance": {
              "param": "hide_distance",
              "originValue": 70.0
            }
          }
        ]
      }
    ]
  },
  "RockChest_Create_Icon": {
    "icon": {
      "param": "",
      "originValue": "UI_MarkQuest_Box"
    },
    "distanceShow": "ToAvatar",
    "indicator": [
      {
        "iConditions": [
          {
            "$type": "AFFAGMAKGDC",
            "toState": 106
          },
          {
            "$type": "PJPCNBHPNIE",
            "distance": {
              "param": "show_distance",
              "originValue": 60.0
            }
          }
        ]
      },
      {
        "iOperator": "Or",
        "iConditions": [
          {
            "$type": "EJBCFPJBICB"
          },
          {
            "$type": "AFFAGMAKGDC",
            "fromState": 0
          },
          {
            "$type": "PJPCNBHPNIE",
            "distance": {
              "param": "hide_distance",
              "originValue": 70.0
            }
          }
        ]
      }
    ]
  },
  "ChestUnlock_Icon": {
    "icon": {
      "param": "",
      "originValue": "UI_MarkQuest_Box"
    },
    "distanceShow": "ToAvatar",
    "indicator": [
      {
        "iConditions": [
          {
            "$type": "AFFAGMAKGDC",
            "fromState": 101,
            "toState": 0
          },
          {
            "$type": "PJPCNBHPNIE",
            "distance": {
              "param": "",
              "originValue": 60.0
            }
          }
        ]
      },
      {
        "iOperator": "Or",
        "iConditions": [
          {
            "$type": "AFFAGMAKGDC",
            "fromState": 0
          },
          {
            "$type": "PJPCNBHPNIE",
            "distance": {
              "param": "",
              "originValue": 70.0
            }
          }
        ]
      }
    ]
  },
  "ChestUnlock_Icon_FollowMove": {
    "icon": {
      "param": "",
      "originValue": "UI_MarkQuest_Box"
    },
    "distanceShow": "ToAvatar",
    "followMove": true,
    "indicator": [
      {
        "iConditions": [
          {
            "$type": "AFFAGMAKGDC",
            "fromState": 101,
            "toState": 0
          },
          {
            "$type": "PJPCNBHPNIE",
            "distance": {
              "param": "",
              "originValue": 60.0
            }
          }
        ]
      },
      {
        "iOperator": "Or",
        "iConditions": [
          {
            "$type": "AFFAGMAKGDC",
            "fromState": 0
          },
          {
            "$type": "PJPCNBHPNIE",
            "distance": {
              "param": "",
              "originValue": 70.0
            }
          }
        ]
      }
    ]
  },
  "Blossom_Chest_Icon": {
    "icon": {
      "param": "",
      "originValue": "UI_MarkQuest_Box"
    },
    "distanceShow": "ToAvatar",
    "indicator": [
      {
        "iConditions": [
          {
            "$type": "AFFAGMAKGDC",
            "toState": 0
          },
          {
            "$type": "PJPCNBHPNIE",
            "distance": {
              "param": "",
              "originValue": 60.0
            }
          }
        ]
      },
      {
        "iOperator": "Or",
        "iConditions": [
          {
            "$type": "PJPCNBHPNIE",
            "distance": {
              "param": "",
              "originValue": 70.0
            }
          }
        ]
      }
    ]
  },
  "GadgetCreate_Icon": {
    "icon": {
      "param": "",
      "originValue": "UI_MarkQuest_Branch_Proce"
    },
    "distanceShow": "ToAvatar",
    "indicator": [
      {
        "iConditions": [
          {
            "$type": "AFFAGMAKGDC",
            "toState": 0
          },
          {
            "$type": "PJPCNBHPNIE",
            "distance": {
              "param": "",
              "originValue": 120.0
            }
          }
        ]
      },
      {
        "iOperator": "Or",
        "iConditions": [
          {
            "$type": "AFFAGMAKGDC",
            "fromState": 0
          },
          {
            "$type": "PJPCNBHPNIE",
            "distance": {
              "param": "",
              "originValue": 120.0
            }
          }
        ]
      }
    ]
  },
  "GadgetCreate_Icon_Follow": {
    "icon": {
      "param": "",
      "originValue": "UI_MarkQuest_Branch_Proce"
    },
    "distanceShow": "ToAvatar",
    "followMove": true,
    "indicator": [
      {
        "iConditions": [
          {
            "$type": "AFFAGMAKGDC",
            "toState": 0
          },
          {
            "$type": "PJPCNBHPNIE",
            "distance": {
              "param": "",
              "originValue": 120.0
            }
          }
        ]
      },
      {
        "iOperator": "Or",
        "iConditions": [
          {
            "$type": "AFFAGMAKGDC",
            "fromState": 0
          },
          {
            "$type": "PJPCNBHPNIE",
            "distance": {
              "param": "",
              "originValue": 120.0
            }
          }
        ]
      }
    ]
  },
  "Normal_DailyTask_Icon": {
    "icon": {
      "param": "",
      "originValue": "UI_MarkQuest_Events_Proce"
    },
    "distanceShow": "ToAvatar",
    "indicator": [
      {
        "iConditions": [
          {
            "$type": "JMMCNNIBFJG",
            "key": {
              "param": "TaskDummy",
              "originValue": "Event_10100"
            },
            "distance": {
              "param": "TaskDummyS",
              "originValue": 30.0
            }
          }
        ]
      },
      {
        "iOperator": "Or",
        "iConditions": [
          {
            "$type": "JMMCNNIBFJG",
            "key": {
              "param": "TaskDummy",
              "originValue": "Event_10100"
            },
            "distance": {
              "param": "TaskDummyS",
              "originValue": 30.0
            }
          }
        ]
      }
    ]
  },
  "Normal_DailyTask_Icon_StateChange": {
    "icon": {
      "param": "",
      "originValue": "UI_MarkQuest_Events_Proce"
    },
    "distanceShow": "ToAvatar",
    "indicator": [
      {
        "iConditions": [
          {
            "$type": "PJPCNBHPNIE",
            "distance": {
              "param": "show_distance",
              "originValue": 30.0
            }
          },
          {
            "$type": "AFFAGMAKGDC",
            "toState": 0
          }
        ]
      },
      {
        "iOperator": "Or",
        "iConditions": [
          {
            "$type": "AFFAGMAKGDC",
            "fromState": 0
          },
          {
            "$type": "AFFAGMAKGDC",
            "fromState": 201
          },
          {
            "$type": "AFFAGMAKGDC",
            "fromState": 202
          },
          {
            "$type": "PJPCNBHPNIE",
            "distance": {
              "param": "hide_distance",
              "originValue": 40.0
            }
          }
        ]
      }
    ]
  },
  "Normal_DailyTask_Icon_GravityBoard": {
    "icon": {
      "param": "",
      "originValue": "UI_MarkQuest_Events_Proce"
    },
    "distanceShow": "ToAvatar",
    "indicator": [
      {
        "iConditions": [
          {
            "$type": "PJPCNBHPNIE",
            "distance": {
              "param": "show_distance",
              "originValue": 30.0
            }
          },
          {
            "$type": "AFFAGMAKGDC",
            "toState": 0
          }
        ]
      },
      {
        "iOperator": "Or",
        "iConditions": [
          {
            "$type": "AFFAGMAKGDC",
            "toState": 201
          },
          {
            "$type": "PJPCNBHPNIE",
            "distance": {
              "param": "hide_distance",
              "originValue": 40.0
            }
          }
        ]
      }
    ]
  },
  "Normal_DailyTask_Icon_Platform": {
    "icon": {
      "param": "",
      "originValue": "UI_MarkQuest_Events_Proce"
    },
    "distanceShow": "ToAvatar",
    "followMove": true,
    "indicator": [
      {
        "iConditions": [
          {
            "$type": "PJPCNBHPNIE",
            "distance": {
              "param": "hide_distance",
              "originValue": 39.0
            }
          },
          {
            "$type": "AFFAGMAKGDC",
            "toState": 0
          }
        ]
      },
      {
        "iOperator": "Or",
        "iConditions": [
          {
            "$type": "PJPCNBHPNIE",
            "distance": {
              "param": "hide_distance",
              "originValue": 40.0
            }
          },
          {
            "$type": "AFFAGMAKGDC",
            "toState": 204
          }
        ]
      }
    ]
  },
  "Normal_DailyTask_Icon_HillCart": {
    "icon": {
      "param": "",
      "originValue": "UI_MarkQuest_Events_Proce"
    },
    "distanceShow": "ToAvatar",
    "followMove": true,
    "indicator": [
      {
        "iConditions": [
          {
            "$type": "PJPCNBHPNIE",
            "distance": {
              "param": "hide_distance",
              "originValue": 39.0
            }
          }
        ]
      },
      {
        "iOperator": "Or",
        "iConditions": [
          {
            "$type": "PJPCNBHPNIE",
            "distance": {
              "param": "hide_distance",
              "originValue": 40.0
            }
          }
        ]
      }
    ]
  },
  "Normal_DailyTask_Icon_GuidePoint": {
    "icon": {
      "param": "",
      "originValue": "UI_MarkQuest_Events_Proce"
    },
    "distanceShow": "ToAvatar",
    "indicator": [
      {
        "iConditions": [
          {
            "$type": "AFFAGMAKGDC",
            "toState": 0
          }
        ]
      },
      {
        "iOperator": "Or",
        "iConditions": [
          {
            "$type": "AFFAGMAKGDC",
            "fromState": 0
          }
        ]
      }
    ]
  },
  "Normal_RandTask_Icon_GuidePoint": {
    "icon": {
      "param": "",
      "originValue": "UI_MarkQuest_Random_Proce"
    },
    "distanceShow": "ToAvatar",
    "indicator": [
      {
        "iConditions": [
          {
            "$type": "AFFAGMAKGDC",
            "toState": 0
          }
        ]
      },
      {
        "iOperator": "Or",
        "iConditions": [
          {
            "$type": "AFFAGMAKGDC",
            "fromState": 0
          }
        ]
      }
    ]
  },
  "Normal_BigWorld_Icon_GuidePoint": {
    "icon": {
      "param": "",
      "originValue": "UI_MarkQuest_Random_Proce"
    },
    "distanceShow": "ToAvatar",
    "indicator": [
      {
        "iConditions": [
          {
            "$type": "AFFAGMAKGDC",
            "toState": 0
          }
        ]
      },
      {
        "iOperator": "Or",
        "iConditions": [
          {
            "$type": "AFFAGMAKGDC",
            "fromState": 0
          }
        ]
      }
    ]
  },
  "Normal_BigWorld_Icon_3.6Aborigine": {
    "icon": {
      "param": "",
      "originValue": "UI_MarkQuest_Main_Proce"
    },
    "distanceShow": "ToAvatar",
    "indicator": [
      {
        "iConditions": [
          {
            "$type": "AFFAGMAKGDC",
            "toState": 0
          }
        ]
      },
      {
        "iOperator": "Or",
        "iConditions": [
          {
            "$type": "AFFAGMAKGDC",
            "fromState": 0
          }
        ]
      }
    ]
  },
  "Normal_BigWorld_Icon_3.6WQGuidePoint": {
    "icon": {
      "param": "",
      "originValue": "UI_MarkQuest_Common_Proce"
    },
    "distanceShow": "ToAvatar",
    "indicator": [
      {
        "iConditions": [
          {
            "$type": "AFFAGMAKGDC",
            "toState": 0
          }
        ]
      },
      {
        "iOperator": "Or",
        "iConditions": [
          {
            "$type": "AFFAGMAKGDC",
            "fromState": 0
          }
        ]
      }
    ]
  },
  "Normal_Quest_Icon_GuidePoint": {
    "icon": {
      "param": "",
      "originValue": "UI_MarkQuest_Branch_Proce"
    },
    "distanceShow": "ToAvatar",
    "indicator": [
      {
        "iConditions": [
          {
            "$type": "PJPCNBHPNIE",
            "distance": {
              "param": "",
              "originValue": 30.0
            }
          }
        ]
      },
      {
        "iOperator": "Or",
        "iConditions": [
          {
            "$type": "PJPCNBHPNIE",
            "distance": {
              "param": "",
              "originValue": 31.0
            }
          }
        ]
      }
    ]
  },
  "Normal_Platform_Icon_To_End": {
    "icon": {
      "param": "",
      "originValue": "UI_MarkQuest_Events_Proce"
    },
    "distanceShow": "RemainingDistance",
    "indicator": [
      {
        "iConditions": [
          {
            "$type": "PJPCNBHPNIE",
            "distance": {
              "param": "",
              "originValue": 60.0
            }
          }
        ]
      },
      {
        "iOperator": "Or",
        "iConditions": [
          {
            "$type": "PJPCNBHPNIE",
            "distance": {
              "param": "",
              "originValue": 70.0
            }
          }
        ]
      }
    ]
  },
  "Normal_Gear_Is_Starting_Icon": {
    "icon": {
      "param": "",
      "originValue": "UI_MarkQuest_Branch_Proce"
    },
    "distanceShow": "ToAvatar",
    "indicator": [
      {
        "iConditions": [
          {
            "$type": "AFFAGMAKGDC",
            "toState": 201
          },
          {
            "$type": "PJPCNBHPNIE",
            "distance": {
              "param": "show_distance",
              "originValue": 60.0
            }
          }
        ]
      },
      {
        "iOperator": "Or",
        "iConditions": [
          {
            "$type": "AFFAGMAKGDC",
            "fromState": 201
          },
          {
            "$type": "PJPCNBHPNIE",
            "distance": {
              "param": "hide_distance",
              "originValue": 70.0
            }
          }
        ]
      }
    ]
  },
  "Normal_Gear_Is_StartingFollow_Icon": {
    "icon": {
      "param": "",
      "originValue": "UI_MarkQuest_Branch_Proce"
    },
    "distanceShow": "ToAvatar",
    "followMove": true,
    "indicator": [
      {
        "iConditions": [
          {
            "$type": "AFFAGMAKGDC",
            "toState": 201
          },
          {
            "$type": "PJPCNBHPNIE",
            "distance": {
              "param": "show_distance",
              "originValue": 60.0
            }
          }
        ]
      },
      {
        "iOperator": "Or",
        "iConditions": [
          {
            "$type": "AFFAGMAKGDC",
            "fromState": 201
          },
          {
            "$type": "PJPCNBHPNIE",
            "distance": {
              "param": "hide_distance",
              "originValue": 70.0
            }
          }
        ]
      }
    ]
  },
  "Flychanllage_Gadget_Create": {
    "icon": {
      "param": "",
      "originValue": "UI_MarkPoint_FlightChallenge"
    },
    "distanceShow": "ToAvatar",
    "indicator": [
      {
        "iConditions": [
          {
            "$type": "AFFAGMAKGDC",
            "toState": 0
          },
          {
            "$type": "PJPCNBHPNIE",
            "distance": {
              "param": "",
              "originValue": 120.0
            }
          }
        ]
      },
      {
        "iOperator": "Or",
        "iConditions": [
          {
            "$type": "AFFAGMAKGDC",
            "fromState": 0
          },
          {
            "$type": "PJPCNBHPNIE",
            "distance": {
              "param": "",
              "originValue": 120.0
            }
          }
        ]
      }
    ]
  },
  "GanyuChallenge_Moving_Target": {
    "icon": {
      "param": "",
      "originValue": "UI_MarkQuest_Main_Proce"
    },
    "distanceShow": "ToAvatar",
    "followMove": true,
    "indicator": [
      {
        "iConditions": [
          {
            "$type": "AFFAGMAKGDC",
            "toState": 0
          }
        ]
      },
      {
        "iConditions": [
          {
            "$type": "AFFAGMAKGDC",
            "toState": 201
          }
        ]
      }
    ]
  },
  "Normal_WorldTask_Icon_Platform": {
    "icon": {
      "param": "",
      "originValue": "UI_MarkQuest_Common_Proce"
    },
    "distanceShow": "ToAvatar",
    "followMove": true,
    "indicator": [
      {
        "iConditions": [
          {
            "$type": "PJPCNBHPNIE",
            "distance": {
              "param": "hide_distance",
              "originValue": 39.0
            }
          },
          {
            "$type": "AFFAGMAKGDC",
            "toState": 0
          }
        ]
      },
      {
        "iOperator": "Or",
        "iConditions": [
          {
            "$type": "PJPCNBHPNIE",
            "distance": {
              "param": "hide_distance",
              "originValue": 40.0
            }
          },
          {
            "$type": "AFFAGMAKGDC",
            "toState": 204
          }
        ]
      }
    ]
  },
  "Normal_WorldTask_Icon_Platform_Penumbra": {
    "icon": {
      "param": "",
      "originValue": "UI_MarkQuest_Common_Proce"
    },
    "distanceShow": "ToAvatar",
    "followMove": true,
    "indicator": [
      {
        "iConditions": [
          {
            "$type": "PJPCNBHPNIE",
            "distance": {
              "param": "hide_distance",
              "originValue": 39.0
            }
          }
        ]
      },
      {
        "iOperator": "Or",
        "iConditions": [
          {
            "$type": "PJPCNBHPNIE",
            "distance": {
              "param": "hide_distance",
              "originValue": 40.0
            }
          }
        ]
      }
    ]
  },
  "FleurFairBalloonGame_Icon": {
    "icon": {
      "param": "",
      "originValue": "UI_MarkPoint_FleurFairBalloonGame"
    },
    "distanceShow": "ToAvatar",
    "indicator": [
      {
        "iConditions": [
          {
            "$type": "AFFAGMAKGDC",
            "toState": 0
          },
          {
            "$type": "PJPCNBHPNIE",
            "distance": {
              "param": "show_distance",
              "originValue": 60.0
            }
          }
        ]
      },
      {
        "iOperator": "Or",
        "iConditions": [
          {
            "$type": "EJBCFPJBICB"
          },
          {
            "$type": "AFFAGMAKGDC",
            "toState": 901
          },
          {
            "$type": "PJPCNBHPNIE",
            "distance": {
              "param": "hide_distance",
              "originValue": 70.0
            }
          }
        ]
      }
    ]
  },
  "FleurFairFallGame_Icon": {
    "icon": {
      "param": "",
      "originValue": "UI_MarkPoint_FleurFairFallGame"
    },
    "distanceShow": "ToAvatar",
    "indicator": [
      {
        "iConditions": [
          {
            "$type": "AFFAGMAKGDC",
            "toState": 0
          },
          {
            "$type": "PJPCNBHPNIE",
            "distance": {
              "param": "show_distance",
              "originValue": 60.0
            }
          }
        ]
      },
      {
        "iOperator": "Or",
        "iConditions": [
          {
            "$type": "EJBCFPJBICB"
          },
          {
            "$type": "AFFAGMAKGDC",
            "toState": 901
          },
          {
            "$type": "PJPCNBHPNIE",
            "distance": {
              "param": "hide_distance",
              "originValue": 70.0
            }
          }
        ]
      }
    ]
  },
  "ChannellerSlabUnlock_Icon": {
    "icon": {
      "param": "",
      "originValue": "UI_MarkQuest_Box"
    },
    "distanceShow": "ToAvatar",
    "indicator": [
      {
        "iConditions": [
          {
            "$type": "AFFAGMAKGDC",
            "toState": 201
          },
          {
            "$type": "PJPCNBHPNIE",
            "distance": {
              "param": "show_distance",
              "originValue": 60.0
            }
          }
        ]
      },
      {
        "iOperator": "Or",
        "iConditions": [
          {
            "$type": "EJBCFPJBICB"
          },
          {
            "$type": "PJPCNBHPNIE",
            "distance": {
              "param": "hide_distance",
              "originValue": 70.0
            }
          }
        ]
      }
    ]
  },
  "BadmintonBoard_Icon": {
    "icon": {
      "param": "",
      "originValue": "UI_MarkPoint_BounceConjuring"
    },
    "distanceShow": "ToAvatar",
    "indicator": [
      {
        "iConditions": [
          {
            "$type": "AFFAGMAKGDC",
            "toState": 201
          },
          {
            "$type": "PJPCNBHPNIE",
            "distance": {
              "param": "show_distance",
              "originValue": 60.0
            }
          }
        ]
      },
      {
        "iOperator": "Or",
        "iConditions": [
          {
            "$type": "EJBCFPJBICB"
          },
          {
            "$type": "AFFAGMAKGDC",
            "toState": 0
          },
          {
            "$type": "PJPCNBHPNIE",
            "distance": {
              "param": "hide_distance",
              "originValue": 70.0
            }
          }
        ]
      }
    ]
  },
  "Normal_BigWorld_Icon_GuidePointWithDistance": {
    "icon": {
      "param": "",
      "originValue": "UI_MarkQuest_Random_Proce"
    },
    "distanceShow": "ToAvatar",
    "indicator": [
      {
        "iConditions": [
          {
            "$type": "AFFAGMAKGDC",
            "toState": 0
          },
          {
            "$type": "PJPCNBHPNIE",
            "distance": {
              "param": "show_distance",
              "originValue": 50.0
            }
          }
        ]
      },
      {
        "iOperator": "Or",
        "iConditions": [
          {
            "$type": "EJBCFPJBICB"
          },
          {
            "$type": "AFFAGMAKGDC",
            "fromState": 0
          },
          {
            "$type": "PJPCNBHPNIE",
            "distance": {
              "param": "hide_distance",
              "originValue": 60.0
            }
          }
        ]
      }
    ]
  },
  "BlitzRush01_Icon": {
    "icon": {
      "param": "",
      "originValue": "UI_NPCTopIcon_Activity_BlitzRush_1"
    },
    "indicator": [
      {
        "iConditions": [
          {
            "$type": "AFFAGMAKGDC",
            "toState": 0
          },
          {
            "$type": "PJPCNBHPNIE",
            "distance": {
              "param": "show_distance",
              "originValue": 60.0
            }
          }
        ]
      },
      {
        "iOperator": "Or",
        "iConditions": [
          {
            "$type": "EJBCFPJBICB"
          },
          {
            "$type": "AFFAGMAKGDC",
            "fromState": 0
          },
          {
            "$type": "PJPCNBHPNIE",
            "distance": {
              "param": "hide_distance",
              "originValue": 70.0
            }
          }
        ]
      }
    ]
  },
  "BlitzRush02_Icon": {
    "icon": {
      "param": "",
      "originValue": "UI_NPCTopIcon_Activity_BlitzRush_2"
    },
    "indicator": [
      {
        "iConditions": [
          {
            "$type": "AFFAGMAKGDC",
            "toState": 0
          },
          {
            "$type": "PJPCNBHPNIE",
            "distance": {
              "param": "show_distance",
              "originValue": 60.0
            }
          }
        ]
      },
      {
        "iOperator": "Or",
        "iConditions": [
          {
            "$type": "EJBCFPJBICB"
          },
          {
            "$type": "AFFAGMAKGDC",
            "fromState": 0
          },
          {
            "$type": "PJPCNBHPNIE",
            "distance": {
              "param": "hide_distance",
              "originValue": 70.0
            }
          }
        ]
      }
    ]
  },
  "BlitzRush03_Icon": {
    "icon": {
      "param": "",
      "originValue": "UI_NPCTopIcon_Activity_BlitzRush_3"
    },
    "indicator": [
      {
        "iConditions": [
          {
            "$type": "AFFAGMAKGDC",
            "toState": 0
          },
          {
            "$type": "PJPCNBHPNIE",
            "distance": {
              "param": "show_distance",
              "originValue": 60.0
            }
          }
        ]
      },
      {
        "iOperator": "Or",
        "iConditions": [
          {
            "$type": "EJBCFPJBICB"
          },
          {
            "$type": "AFFAGMAKGDC",
            "fromState": 0
          },
          {
            "$type": "PJPCNBHPNIE",
            "distance": {
              "param": "hide_distance",
              "originValue": 70.0
            }
          }
        ]
      }
    ]
  },
  "Exploration01_Icon": {
    "icon": {
      "param": "",
      "originValue": "UI_NPCTopIcon_R1"
    },
    "indicator": [
      {
        "iConditions": [
          {
            "$type": "AFFAGMAKGDC",
            "toState": 0
          },
          {
            "$type": "PJPCNBHPNIE",
            "distance": {
              "param": "show_distance",
              "originValue": 60.0
            }
          }
        ]
      },
      {
        "iOperator": "Or",
        "iConditions": [
          {
            "$type": "EJBCFPJBICB"
          },
          {
            "$type": "AFFAGMAKGDC",
            "fromState": 0
          },
          {
            "$type": "PJPCNBHPNIE",
            "distance": {
              "param": "hide_distance",
              "originValue": 70.0
            }
          }
        ]
      }
    ]
  },
  "Exploration02_Icon": {
    "icon": {
      "param": "",
      "originValue": "UI_NPCTopIcon_R2"
    },
    "indicator": [
      {
        "iConditions": [
          {
            "$type": "AFFAGMAKGDC",
            "toState": 0
          },
          {
            "$type": "PJPCNBHPNIE",
            "distance": {
              "param": "show_distance",
              "originValue": 60.0
            }
          }
        ]
      },
      {
        "iOperator": "Or",
        "iConditions": [
          {
            "$type": "EJBCFPJBICB"
          },
          {
            "$type": "AFFAGMAKGDC",
            "fromState": 0
          },
          {
            "$type": "PJPCNBHPNIE",
            "distance": {
              "param": "hide_distance",
              "originValue": 70.0
            }
          }
        ]
      }
    ]
  },
  "Exploration03_Icon": {
    "icon": {
      "param": "",
      "originValue": "UI_NPCTopIcon_R3"
    },
    "indicator": [
      {
        "iConditions": [
          {
            "$type": "AFFAGMAKGDC",
            "toState": 0
          },
          {
            "$type": "PJPCNBHPNIE",
            "distance": {
              "param": "show_distance",
              "originValue": 60.0
            }
          }
        ]
      },
      {
        "iOperator": "Or",
        "iConditions": [
          {
            "$type": "EJBCFPJBICB"
          },
          {
            "$type": "AFFAGMAKGDC",
            "fromState": 0
          },
          {
            "$type": "PJPCNBHPNIE",
            "distance": {
              "param": "hide_distance",
              "originValue": 70.0
            }
          }
        ]
      }
    ]
  },
  "ExplorationMark_Icon": {
    "icon": {
      "param": "",
      "originValue": "UI_NPCTopIcon_Dig"
    },
    "indicator": [
      {
        "iConditions": [
          {
            "$type": "AFFAGMAKGDC",
            "toState": 0
          },
          {
            "$type": "PJPCNBHPNIE",
            "distance": {
              "param": "show_distance",
              "originValue": 60.0
            }
          }
        ]
      },
      {
        "iOperator": "Or",
        "iConditions": [
          {
            "$type": "EJBCFPJBICB"
          },
          {
            "$type": "AFFAGMAKGDC",
            "toState": 201
          },
          {
            "$type": "AFFAGMAKGDC",
            "toState": 202
          },
          {
            "$type": "PJPCNBHPNIE",
            "distance": {
              "param": "hide_distance",
              "originValue": 70.0
            }
          }
        ]
      }
    ]
  },
  "OnmyoMaze_Icon": {
    "icon": {
      "param": "",
      "originValue": "UI_MarkPonint_OnmyoMaze_Card"
    },
    "distanceShow": "ToAvatar",
    "indicator": [
      {
        "iConditions": [
          {
            "$type": "AFFAGMAKGDC",
            "toState": 203
          },
          {
            "$type": "PJPCNBHPNIE",
            "distance": {
              "param": "show_distance",
              "originValue": 50.0
            }
          }
        ]
      },
      {
        "iOperator": "Or",
        "iConditions": [
          {
            "$type": "EJBCFPJBICB"
          },
          {
            "$type": "AFFAGMAKGDC",
            "fromState": 203
          },
          {
            "$type": "PJPCNBHPNIE",
            "distance": {
              "param": "hide_distance",
              "originValue": 50.0
            }
          }
        ]
      }
    ]
  },
  "HachiSneak_Icon": {
    "icon": {
      "param": "",
      "originValue": "UI_NPCTopIcon_Activity_Hachi"
    },
    "indicator": [
      {
        "iConditions": [
          {
            "$type": "AFFAGMAKGDC",
            "toState": 0
          },
          {
            "$type": "PJPCNBHPNIE",
            "distance": {
              "param": "show_distance",
              "originValue": 60.0
            }
          }
        ]
      },
      {
        "iOperator": "Or",
        "iConditions": [
          {
            "$type": "EJBCFPJBICB"
          },
          {
            "$type": "AFFAGMAKGDC",
            "fromState": 0
          },
          {
            "$type": "PJPCNBHPNIE",
            "distance": {
              "param": "hide_distance",
              "originValue": 70.0
            }
          }
        ]
      }
    ]
  },
  "WinterCamp_Battle_Icon": {
    "icon": {
      "param": "",
      "originValue": "UI_NPCTopIcon_Activity_WinterCamp_Battle"
    },
    "indicator": [
      {
        "iConditions": [
          {
            "$type": "AFFAGMAKGDC",
            "toState": 0
          },
          {
            "$type": "PJPCNBHPNIE",
            "distance": {
              "param": "show_distance",
              "originValue": 60.0
            }
          }
        ]
      },
      {
        "iOperator": "Or",
        "iConditions": [
          {
            "$type": "EJBCFPJBICB"
          },
          {
            "$type": "AFFAGMAKGDC",
            "fromState": 0
          },
          {
            "$type": "PJPCNBHPNIE",
            "distance": {
              "param": "hide_distance",
              "originValue": 70.0
            }
          }
        ]
      }
    ]
  },
  "WinterCamp_Explore_Icon": {
    "icon": {
      "param": "",
      "originValue": "UI_NPCTopIcon_Activity_WinterCamp_Explore "
    },
    "indicator": [
      {
        "iConditions": [
          {
            "$type": "AFFAGMAKGDC",
            "toState": 0
          },
          {
            "$type": "PJPCNBHPNIE",
            "distance": {
              "param": "show_distance",
              "originValue": 60.0
            }
          }
        ]
      },
      {
        "iOperator": "Or",
        "iConditions": [
          {
            "$type": "EJBCFPJBICB"
          },
          {
            "$type": "AFFAGMAKGDC",
            "fromState": 0
          },
          {
            "$type": "PJPCNBHPNIE",
            "distance": {
              "param": "hide_distance",
              "originValue": 70.0
            }
          }
        ]
      }
    ]
  },
  "WinterCamp_Race_Icon": {
    "icon": {
      "param": "",
      "originValue": "UI_NPCTopIcon_Activity_WinterCamp_Race"
    },
    "indicator": [
      {
        "iConditions": [
          {
            "$type": "AFFAGMAKGDC",
            "toState": 0
          },
          {
            "$type": "PJPCNBHPNIE",
            "distance": {
              "param": "show_distance",
              "originValue": 60.0
            }
          }
        ]
      },
      {
        "iOperator": "Or",
        "iConditions": [
          {
            "$type": "EJBCFPJBICB"
          },
          {
            "$type": "AFFAGMAKGDC",
            "fromState": 0
          },
          {
            "$type": "PJPCNBHPNIE",
            "distance": {
              "param": "hide_distance",
              "originValue": 70.0
            }
          }
        ]
      }
    ]
  },
  "ToyBattle_Current_Icon": {
    "icon": {
      "param": "",
      "originValue": "UI_MarkPoint_ToyBattleCurrent"
    },
    "indicator": [
      {
        "iConditions": [
          {
            "$type": "AFFAGMAKGDC",
            "toState": 0
          },
          {
            "$type": "PJPCNBHPNIE",
            "distance": {
              "param": "show_distance",
              "originValue": 60.0
            }
          }
        ]
      },
      {
        "iOperator": "Or",
        "iConditions": [
          {
            "$type": "EJBCFPJBICB"
          },
          {
            "$type": "AFFAGMAKGDC",
            "fromState": 0
          },
          {
            "$type": "PJPCNBHPNIE",
            "distance": {
              "param": "hide_distance",
              "originValue": 70.0
            }
          }
        ]
      }
    ]
  },
  "CoinCollect_Board_Icon": {
    "icon": {
      "param": "",
      "originValue": "UI_NPCTopIcon_Activity_CoinCollect"
    },
    "indicator": [
      {
        "iConditions": [
          {
            "$type": "AFFAGMAKGDC",
            "toState": 0
          },
          {
            "$type": "PJPCNBHPNIE",
            "distance": {
              "param": "show_distance",
              "originValue": 60.0
            }
          }
        ]
      },
      {
        "iOperator": "Or",
        "iConditions": [
          {
            "$type": "EJBCFPJBICB"
          },
          {
            "$type": "AFFAGMAKGDC",
            "fromState": 0
          },
          {
            "$type": "PJPCNBHPNIE",
            "distance": {
              "param": "hide_distance",
              "originValue": 70.0
            }
          }
        ]
      }
    ]
  },
  "GCG_GcgGongGao_Icon": {
    "icon": {
      "param": "",
      "originValue": "UI_NPCTopIcon_GcgGongGao"
    },
    "indicator": [
      {
        "iConditions": [
          {
            "$type": "AFFAGMAKGDC",
            "toState": 0
          },
          {
            "$type": "PJPCNBHPNIE",
            "distance": {
              "param": "show_distance",
              "originValue": 60.0
            }
          }
        ]
      },
      {
        "iOperator": "Or",
        "iConditions": [
          {
            "$type": "EJBCFPJBICB"
          },
          {
            "$type": "AFFAGMAKGDC",
            "fromState": 0
          },
          {
            "$type": "PJPCNBHPNIE",
            "distance": {
              "param": "hide_distance",
              "originValue": 70.0
            }
          }
        ]
      }
    ]
  },
  "SummerTimeV2_Race_Icon": {
    "icon": {
      "param": "",
      "originValue": "UI_MarkPoint_SummerTimeV2_Salvage05"
    },
    "indicator": [
      {
        "iConditions": [
          {
            "$type": "AFFAGMAKGDC",
            "toState": 0
          },
          {
            "$type": "PJPCNBHPNIE",
            "distance": {
              "param": "show_distance",
              "originValue": 60.0
            }
          }
        ]
      },
      {
        "iOperator": "Or",
        "iConditions": [
          {
            "$type": "EJBCFPJBICB"
          },
          {
            "$type": "AFFAGMAKGDC",
            "fromState": 0
          },
          {
            "$type": "PJPCNBHPNIE",
            "distance": {
              "param": "hide_distance",
              "originValue": 70.0
            }
          }
        ]
      }
    ]
  },
  "GadgetCreate_Icon_HideOnKill": {
    "icon": {
      "param": "",
      "originValue": "UI_MarkQuest_Branch_Proce"
    },
    "distanceShow": "ToAvatar",
    "indicator": [
      {
        "iConditions": [
          {
            "$type": "AFFAGMAKGDC",
            "toState": 0
          },
          {
            "$type": "PJPCNBHPNIE",
            "distance": {
              "param": "",
              "originValue": 120.0
            }
          }
        ]
      },
      {
        "iOperator": "Or",
        "iConditions": [
          {
            "$type": "EJBCFPJBICB"
          },
          {
            "$type": "AFFAGMAKGDC",
            "fromState": 0
          },
          {
            "$type": "PJPCNBHPNIE",
            "distance": {
              "param": "",
              "originValue": 120.0
            }
          }
        ]
      }
    ]
  },
  "UI_NPCTopIcon_Ballon": {
    "icon": {
      "param": "",
      "originValue": "UI_NPCTopIcon_Ballon"
    },
    "indicator": [
      {
        "iConditions": [
          {
            "$type": "AFFAGMAKGDC",
            "toState": 0
          },
          {
            "$type": "PJPCNBHPNIE",
            "distance": {
              "param": "show_distance",
              "originValue": 60.0
            }
          }
        ]
      },
      {
        "iOperator": "Or",
        "iConditions": [
          {
            "$type": "EJBCFPJBICB"
          },
          {
            "$type": "AFFAGMAKGDC",
            "fromState": 0
          },
          {
            "$type": "PJPCNBHPNIE",
            "distance": {
              "param": "hide_distance",
              "originValue": 70.0
            }
          }
        ]
      }
    ]
  },
  "UI_NPCTopIcon_Ship": {
    "icon": {
      "param": "",
      "originValue": "UI_NPCTopIcon_Ship"
    },
    "indicator": [
      {
        "iConditions": [
          {
            "$type": "AFFAGMAKGDC",
            "toState": 0
          },
          {
            "$type": "PJPCNBHPNIE",
            "distance": {
              "param": "show_distance",
              "originValue": 60.0
            }
          }
        ]
      },
      {
        "iOperator": "Or",
        "iConditions": [
          {
            "$type": "EJBCFPJBICB"
          },
          {
            "$type": "AFFAGMAKGDC",
            "fromState": 0
          },
          {
            "$type": "PJPCNBHPNIE",
            "distance": {
              "param": "hide_distance",
              "originValue": 70.0
            }
          }
        ]
      }
    ]
  },
  "UI_NPCTopIcon_Boss": {
    "icon": {
      "param": "",
      "originValue": "UI_NPCTopIcon_Boss"
    },
    "indicator": [
      {
        "iConditions": [
          {
            "$type": "AFFAGMAKGDC",
            "toState": 0
          },
          {
            "$type": "PJPCNBHPNIE",
            "distance": {
              "param": "show_distance",
              "originValue": 60.0
            }
          }
        ]
      },
      {
        "iOperator": "Or",
        "iConditions": [
          {
            "$type": "EJBCFPJBICB"
          },
          {
            "$type": "AFFAGMAKGDC",
            "fromState": 0
          },
          {
            "$type": "PJPCNBHPNIE",
            "distance": {
              "param": "hide_distance",
              "originValue": 70.0
            }
          }
        ]
      }
    ]
  },
  "3_8_FerriswheelCarriage": {
    "icon": {
      "param": "",
      "originValue": "UI_MarkQuest_Main_Proce"
    },
    "distanceShow": "ToAvatar",
    "followMove": true,
    "indicator": [
      {
        "iConditions": [
          {
            "$type": "PJPCNBHPNIE",
            "distance": {
              "param": "",
              "originValue": 150.0
            }
          },
          {
            "$type": "AFFAGMAKGDC",
            "toState": 202
          }
        ]
      },
      {
        "iOperator": "Or",
        "iConditions": [
          {
            "$type": "PJPCNBHPNIE",
            "distance": {
              "param": "",
              "originValue": 160.0
            }
          },
          {
            "$type": "AFFAGMAKGDC",
            "toState": 201
          }
        ]
      }
    ]
  },
  "2_7_Activity_Rogue_Entrance_01": {
    "icon": {
      "param": "",
      "originValue": "UI_MarkPoint_RogueDiaryDungeon"
    },
    "indicator": [
      {
        "iConditions": [
          {
            "$type": "PJPCNBHPNIE",
            "distance": {
              "param": "show_distance",
              "originValue": 60.0
            }
          }
        ]
      },
      {
        "iOperator": "Or",
        "iConditions": [
          {
            "$type": "EJBCFPJBICB"
          },
          {
            "$type": "PJPCNBHPNIE",
            "distance": {
              "param": "hide_distance",
              "originValue": 70.0
            }
          }
        ]
      }
    ]
  },
  "2_7_Activity_Rogue_Entrance_02": {
    "icon": {
      "param": "",
      "originValue": "UI_MarkPoint_RogueDiary"
    },
    "indicator": [
      {
        "iConditions": [
          {
            "$type": "AFFAGMAKGDC",
            "toState": 0
          },
          {
            "$type": "PJPCNBHPNIE",
            "distance": {
              "param": "show_distance",
              "originValue": 60.0
            }
          }
        ]
      },
      {
        "iOperator": "Or",
        "iConditions": [
          {
            "$type": "EJBCFPJBICB"
          },
          {
            "$type": "AFFAGMAKGDC",
            "fromState": 0
          },
          {
            "$type": "PJPCNBHPNIE",
            "distance": {
              "param": "hide_distance",
              "originValue": 70.0
            }
          }
        ]
      }
    ]
  },
  "2_7_Activity_Rogue_Operator": {
    "icon": {
      "param": "",
      "originValue": "UI_MarkPoint_WinterCamp_Battle"
    },
    "distanceShow": "ToAvatar",
    "indicator": [
      {
        "iConditions": [
          {
            "$type": "PJPCNBHPNIE",
            "distance": {
              "param": "",
              "originValue": 30.0
            }
          },
          {
            "$type": "AFFAGMAKGDC",
            "toState": 201
          }
        ]
      },
      {
        "iOperator": "Or",
        "iConditions": [
          {
            "$type": "PJPCNBHPNIE",
            "distance": {
              "param": "",
              "originValue": 40.0
            }
          },
          {
            "$type": "AFFAGMAKGDC",
            "toState": 0
          }
        ]
      }
    ]
  },
  "2_7_Activity_Rogue_Operator_02": {
    "icon": {
      "param": "",
      "originValue": "UI_MarkPoint_RogueDiary"
    },
    "distanceShow": "ToAvatar",
    "indicator": [
      {
        "iConditions": [
          {
            "$type": "PJPCNBHPNIE",
            "distance": {
              "param": "",
              "originValue": 30.0
            }
          },
          {
            "$type": "AFFAGMAKGDC",
            "toState": 201
          }
        ]
      },
      {
        "iOperator": "Or",
        "iConditions": [
          {
            "$type": "PJPCNBHPNIE",
            "distance": {
              "param": "",
              "originValue": 40.0
            }
          },
          {
            "$type": "AFFAGMAKGDC",
            "toState": 0
          }
        ]
      }
    ]
  },
  "2_7_Activity_Rogue_Operator_03": {
    "icon": {
      "param": "",
      "originValue": "UI_MarkPoint_RogueDiary"
    },
    "distanceShow": "ToAvatar",
    "indicator": [
      {
        "iConditions": [
          {
            "$type": "PJPCNBHPNIE",
            "distance": {
              "param": "",
              "originValue": 30.0
            }
          }
        ]
      },
      {
        "iConditions": [
          {
            "$type": "PJPCNBHPNIE",
            "distance": {
              "param": "",
              "originValue": 40.0
            }
          }
        ]
      }
    ]
  },
  "MichiaeMatsuri_Battle_Icon": {
    "icon": {
      "param": "",
      "originValue": "UI_NPCTopIcon_ArenaChallenge"
    },
    "indicator": [
      {
        "iConditions": [
          {
            "$type": "AFFAGMAKGDC",
            "toState": 0
          },
          {
            "$type": "PJPCNBHPNIE",
            "distance": {
              "param": "show_distance",
              "originValue": 60.0
            }
          }
        ]
      },
      {
        "iOperator": "Or",
        "iConditions": [
          {
            "$type": "EJBCFPJBICB"
          },
          {
            "$type": "AFFAGMAKGDC",
            "fromState": 0
          },
          {
            "$type": "PJPCNBHPNIE",
            "distance": {
              "param": "hide_distance",
              "originValue": 70.0
            }
          }
        ]
      }
    ]
  },
  "UI_NPCTopIcon_Blessing": {
    "icon": {
      "param": "",
      "originValue": "UI_NPCTopIcon_Blessing"
    },
    "indicator": [
      {
        "iConditions": [
          {
            "$type": "AFFAGMAKGDC",
            "toState": 0
          },
          {
            "$type": "PJPCNBHPNIE",
            "distance": {
              "param": "show_distance",
              "originValue": 60.0
            }
          }
        ]
      },
      {
        "iOperator": "Or",
        "iConditions": [
          {
            "$type": "EJBCFPJBICB"
          },
          {
            "$type": "AFFAGMAKGDC",
            "fromState": 0
          },
          {
            "$type": "PJPCNBHPNIE",
            "distance": {
              "param": "hide_distance",
              "originValue": 70.0
            }
          }
        ]
      }
    ]
  },
  "UI_NPCTopIcon_Activity_BrickBreaker": {
    "icon": {
      "param": "",
      "originValue": "UI_NPCTopIcon_Activity_BrickBreaker"
    },
    "indicator": [
      {
        "iConditions": [
          {
            "$type": "AFFAGMAKGDC",
            "toState": 0
          },
          {
            "$type": "PJPCNBHPNIE",
            "distance": {
              "param": "show_distance",
              "originValue": 60.0
            }
          }
        ]
      },
      {
        "iOperator": "Or",
        "iConditions": [
          {
            "$type": "EJBCFPJBICB"
          },
          {
            "$type": "AFFAGMAKGDC",
            "fromState": 0
          },
          {
            "$type": "PJPCNBHPNIE",
            "distance": {
              "param": "hide_distance",
              "originValue": 70.0
            }
          }
        ]
      }
    ]
  },
  "SocialActivity_Target_Icon": {
    "icon": {
      "param": "",
      "originValue": "UI_MarkQuest_Branch_Proce"
    },
    "distanceShow": "ToAvatar",
    "indicator": [
      {
        "iConditions": [
          {
            "$type": "PJPCNBHPNIE",
            "distance": {
              "param": "",
              "originValue": 1000.0
            }
          }
        ]
      },
      {
        "iOperator": "Or",
        "iConditions": [
          {
            "$type": "PJPCNBHPNIE",
            "distance": {
              "param": "",
              "originValue": 1000.0
            }
          }
        ]
      }
    ]
  },
  "LanV3BoatGame_ShipPVPGhostMark": {
    "icon": {
      "param": "",
      "originValue": "UI_MarkQuest_LanV3BoatGame_Broken"
    },
    "indicator": [
      {
        "iConditions": [
          {
            "$type": "AFFAGMAKGDC",
            "toState": 0
          },
          {
            "$type": "PJPCNBHPNIE",
            "distance": {
              "param": "show_distance",
              "originValue": 60.0
            }
          }
        ]
      },
      {
        "iOperator": "Or",
        "iConditions": [
          {
            "$type": "EJBCFPJBICB"
          },
          {
            "$type": "AFFAGMAKGDC",
            "fromState": 0
          },
          {
            "$type": "PJPCNBHPNIE",
            "distance": {
              "param": "hide_distance",
              "originValue": 70.0
            }
          }
        ]
      }
    ]
  },
  "SocialActivity_Start_Worktop_Icon": {
    "icon": {
      "param": "",
      "originValue": "UI_NPCTopIcon_Activity_IslandParty"
    },
    "indicator": [
      {
        "iConditions": [
          {
            "$type": "AFFAGMAKGDC",
            "toState": 0
          },
          {
            "$type": "PJPCNBHPNIE",
            "distance": {
              "param": "show_distance",
              "originValue": 60.0
            }
          }
        ]
      },
      {
        "iOperator": "Or",
        "iConditions": [
          {
            "$type": "EJBCFPJBICB"
          },
          {
            "$type": "AFFAGMAKGDC",
            "fromState": 0
          },
          {
            "$type": "PJPCNBHPNIE",
            "distance": {
              "param": "hide_distance",
              "originValue": 70.0
            }
          }
        ]
      }
    ]
  },
  "3_1_Activity_Gift_Chest": {
    "icon": {
      "param": "",
      "originValue": "UI_MarkQuest_Box"
    },
    "distanceShow": "ToAvatar",
    "indicator": [
      {
        "iConditions": [
          {
            "$type": "PJPCNBHPNIE",
            "distance": {
              "param": "",
              "originValue": 30.0
            }
          },
          {
            "$type": "AFFAGMAKGDC",
            "toState": 0
          }
        ]
      },
      {
        "iOperator": "Or",
        "iConditions": [
          {
            "$type": "PJPCNBHPNIE",
            "distance": {
              "param": "",
              "originValue": 30.0
            }
          },
          {
            "$type": "AFFAGMAKGDC",
            "toState": 201
          }
        ]
      }
    ]
  },
  "3_1_Activity_Maze_GuidePoint": {
    "icon": {
      "param": "",
      "originValue": "UI_MarkQuest_Branch_Proce"
    },
    "distanceShow": "ToAvatar",
    "indicator": [
      {
        "iConditions": [
          {
            "$type": "PJPCNBHPNIE",
            "distance": {
              "param": "",
              "originValue": 5000.0
            }
          }
        ]
      },
      {
        "iOperator": "Or",
        "iConditions": [
          {
            "$type": "PJPCNBHPNIE",
            "distance": {
              "param": "",
              "originValue": 5001.0
            }
          },
          {
            "$type": "AFFAGMAKGDC",
            "toState": 201
          }
        ]
      }
    ]
  },
  "SocialActivity_Engine_Icon": {
    "icon": {
      "param": "",
      "originValue": "UI_MarkQuest_Branch_Proce"
    },
    "distanceShow": "ToAvatar",
    "followMove": true,
    "indicator": [
      {
        "iConditions": [
          {
            "$type": "PJPCNBHPNIE",
            "distance": {
              "param": "",
              "originValue": 80.0
            }
          }
        ]
      },
      {
        "iOperator": "Or",
        "iConditions": [
          {
            "$type": "PJPCNBHPNIE",
            "distance": {
              "param": "",
              "originValue": 81.0
            }
          }
        ]
      }
    ]
  },
  "ActivitySandwormCannon_Target_Icon": {
    "icon": {
      "param": "",
      "originValue": "UI_MarkQuest_Branch_Proce"
    },
    "distanceShow": "ToAvatar",
    "indicator": [
      {
        "iConditions": [
          {
            "$type": "PJPCNBHPNIE",
            "distance": {
              "param": "show_distance",
              "originValue": 200.0
            }
          }
        ]
      },
      {
        "iOperator": "Or",
        "iConditions": [
          {
            "$type": "EJBCFPJBICB"
          },
          {
            "$type": "PJPCNBHPNIE",
            "distance": {
              "param": "hide_distance",
              "originValue": 200.0
            }
          }
        ]
      }
    ]
  },
  "ActivitySandwormCannon_Buffball_Icon": {
    "icon": {
      "param": "",
      "originValue": "UI_MarkQuest_Branch_Proce"
    },
    "distanceShow": "ToAvatar",
    "indicator": [
      {
        "iConditions": [
          {
            "$type": "PJPCNBHPNIE",
            "distance": {
              "param": "show_distance",
              "originValue": 10.0
            }
          }
        ]
      },
      {
        "iOperator": "Or",
        "iConditions": [
          {
            "$type": "EJBCFPJBICB"
          },
          {
            "$type": "PJPCNBHPNIE",
            "distance": {
              "param": "hide_distance",
              "originValue": 10.0
            }
          }
        ]
      }
    ]
  },
  "WorldQuest_PortableFarr_Icon": {
    "icon": {
      "param": "",
      "originValue": "UI_MarkQuest_PortableFarr"
    },
    "distanceShow": "ToAvatar",
    "indicator": [
      {
        "iConditions": [
          {
            "$type": "PJPCNBHPNIE",
            "distance": {
              "param": "show_distance",
              "originValue": 150.0
            }
          },
          {
            "$type": "AFFAGMAKGDC",
            "toState": 201
          }
        ]
      },
      {
        "iOperator": "Or",
        "iConditions": [
          {
            "$type": "EJBCFPJBICB"
          },
          {
            "$type": "PJPCNBHPNIE",
            "distance": {
              "param": "hide_distance",
              "originValue": 150.0
            }
          },
          {
            "$type": "AFFAGMAKGDC",
            "toState": 0
          }
        ]
      }
    ]
  },
  "SorushTrail_Hitman_Indicator": {
    "icon": {
      "param": "",
      "originValue": "UI_MarkPoint_SorushTrial_Hitman"
    },
    "indicator": [
      {
        "iConditions": [
          {
            "$type": "PJPCNBHPNIE",
            "distance": {
              "param": "",
              "originValue": 25.0
            }
          },
          {
            "$type": "AFFAGMAKGDC",
            "toState": 0
          }
        ]
      },
      {
        "iOperator": "Or",
        "iConditions": [
          {
            "$type": "PJPCNBHPNIE",
            "distance": {
              "param": "",
              "originValue": 25.0
            }
          },
          {
            "$type": "AFFAGMAKGDC",
            "toState": 201
          }
        ]
      }
    ]
  },
  "SorushTrail_Race_Indicator": {
    "icon": {
      "param": "",
      "originValue": "UI_MarkPoint_SorushTrial_Parkour"
    },
    "indicator": [
      {
        "iConditions": [
          {
            "$type": "PJPCNBHPNIE",
            "distance": {
              "param": "",
              "originValue": 25.0
            }
          },
          {
            "$type": "AFFAGMAKGDC",
            "toState": 0
          }
        ]
      },
      {
        "iOperator": "Or",
        "iConditions": [
          {
            "$type": "PJPCNBHPNIE",
            "distance": {
              "param": "",
              "originValue": 25.0
            }
          },
          {
            "$type": "AFFAGMAKGDC",
            "toState": 201
          }
        ]
      }
    ]
  },
  "SorushTrail_Photo_Indicator": {
    "icon": {
      "param": "",
      "originValue": "UI_MarkPoint_SorushTrial_Perspective"
    },
    "indicator": [
      {
        "iConditions": [
          {
            "$type": "PJPCNBHPNIE",
            "distance": {
              "param": "",
              "originValue": 25.0
            }
          },
          {
            "$type": "AFFAGMAKGDC",
            "toState": 0
          }
        ]
      },
      {
        "iOperator": "Or",
        "iConditions": [
          {
            "$type": "PJPCNBHPNIE",
            "distance": {
              "param": "",
              "originValue": 25.0
            }
          },
          {
            "$type": "AFFAGMAKGDC",
            "toState": 201
          }
        ]
      }
    ]
  },
  "ActivityJourney_MarkStand_Icon": {
    "icon": {
      "param": "",
      "originValue": "UI_NPCTopIcon_Activity_Jourey"
    },
    "distanceShow": "ToAvatar",
    "indicator": [
      {
        "iConditions": [
          {
            "$type": "PJPCNBHPNIE",
            "distance": {
              "param": "show_distance",
              "originValue": 60.0
            }
          }
        ]
      },
      {
        "iOperator": "Or",
        "iConditions": [
          {
            "$type": "EJBCFPJBICB"
          },
          {
            "$type": "PJPCNBHPNIE",
            "distance": {
              "param": "hide_distance",
              "originValue": 70.0
            }
          }
        ]
      }
    ]
  },
  "ActivityJourney_ChallengeStand_Icon": {
    "icon": {
      "param": "",
      "originValue": "UI_NPCTopIcon_Activity_WinterCamp_Race"
    },
    "distanceShow": "ToAvatar",
    "indicator": [
      {
        "iConditions": [
          {
            "$type": "AFFAGMAKGDC",
            "toState": 0
          },
          {
            "$type": "PJPCNBHPNIE",
            "distance": {
              "param": "show_distance",
              "originValue": 60.0
            }
          }
        ]
      },
      {
        "iOperator": "Or",
        "iConditions": [
          {
            "$type": "EJBCFPJBICB"
          },
          {
            "$type": "AFFAGMAKGDC",
            "fromState": 0
          },
          {
            "$type": "PJPCNBHPNIE",
            "distance": {
              "param": "hide_distance",
              "originValue": 70.0
            }
          }
        ]
      }
    ]
  },
  "HM_Play_Shoot_Bomb_Icon": {
    "icon": {
      "param": "",
      "originValue": "UI_MarkQuest_Branch_Proce"
    },
    "distanceShow": "ToAvatar",
    "indicator": [
      {
        "iConditions": [
          {
            "$type": "AFFAGMAKGDC",
            "toState": 0
          },
          {
            "$type": "DOCMKJEKJEB",
            "DCBBKBHCDKE": [
              410003
            ]
          },
          {
            "$type": "PJPCNBHPNIE",
            "distance": {
              "param": "",
              "originValue": 120.0
            }
          }
        ]
      },
      {
        "iOperator": "Or",
        "iConditions": [
          {
            "$type": "AFFAGMAKGDC",
            "fromState": 0
          },
          {
            "$type": "PJPCNBHPNIE",
            "distance": {
              "param": "",
              "originValue": 120.0
            }
          }
        ]
      }
    ]
  },
  "ActivityAnimalView_CatchOperator_Indicator": {
    "icon": {
      "param": "",
      "originValue": "UI_MarkQuest_Activity_AnimalView"
    },
    "distanceShow": "ToAvatar",
    "indicator": [
      {
        "iConditions": [
          {
            "$type": "PJPCNBHPNIE",
            "distance": {
              "param": "show_distance",
              "originValue": 20.0
            }
          }
        ]
      },
      {
        "iOperator": "Or",
        "iConditions": [
          {
            "$type": "EJBCFPJBICB"
          },
          {
            "$type": "PJPCNBHPNIE",
            "distance": {
              "param": "hide_distance",
              "originValue": 20.0
            }
          }
        ]
      }
    ]
  },
  "ActivityJourney_Gear_Icon": {
    "icon": {
      "param": "",
      "originValue": "UI_NPCTopIcon_Activity_Gear"
    },
    "distanceShow": "ToAvatar",
    "indicator": [
      {
        "iConditions": [
          {
            "$type": "AFFAGMAKGDC",
            "toState": 0
          },
          {
            "$type": "PJPCNBHPNIE",
            "distance": {
              "param": "show_distance",
              "originValue": 60.0
            }
          }
        ]
      },
      {
        "iOperator": "Or",
        "iConditions": [
          {
            "$type": "EJBCFPJBICB"
          },
          {
            "$type": "AFFAGMAKGDC",
            "fromState": 0
          },
          {
            "$type": "PJPCNBHPNIE",
            "distance": {
              "param": "hide_distance",
              "originValue": 70.0
            }
          }
        ]
      }
    ]
  },
  "Activity_PoetryFestival_PaintingPoint_Icon": {
    "icon": {
      "param": "",
      "originValue": "UI_MarkQuest_PortableFarr"
    },
    "distanceShow": "ToAvatar",
    "indicator": [
      {
        "iConditions": [
          {
            "$type": "PJPCNBHPNIE",
            "distance": {
              "param": "show_distance",
              "originValue": 50.0
            }
          },
          {
            "$type": "AFFAGMAKGDC",
            "toState": 0
          }
        ]
      },
      {
        "iOperator": "Or",
        "iConditions": [
          {
            "$type": "EJBCFPJBICB"
          },
          {
            "$type": "PJPCNBHPNIE",
            "distance": {
              "param": "hide_distance",
              "originValue": 50.0
            }
          },
          {
            "$type": "AFFAGMAKGDC",
            "toState": 201
          }
        ]
      }
    ]
  },
  "Activity_V4_2_RainbowPriceSearch": {
    "icon": {
      "param": "",
      "originValue": "UI_MarkPoint_RainbowPrinceSearch"
    },
    "distanceShow": "ToAvatar",
    "indicator": [
      {
        "iConditions": [
          {
            "$type": "PJPCNBHPNIE",
            "distance": {
              "param": "show_distance",
              "originValue": 50.0
            }
          },
          {
            "$type": "AFFAGMAKGDC",
            "toState": 0
          }
        ]
      },
      {
        "iOperator": "Or",
        "iConditions": [
          {
            "$type": "EJBCFPJBICB"
          },
          {
            "$type": "PJPCNBHPNIE",
            "distance": {
              "param": "hide_distance",
              "originValue": 55.0
            }
          },
          {
            "$type": "AFFAGMAKGDC",
            "toState": 201
          },
          {
            "$type": "AFFAGMAKGDC",
            "toState": 202
          }
        ]
      }
    ]
  },
  "Activity_UnderSeaCollection_Icon": {
    "icon": {
      "param": "",
      "originValue": "UI_MarkPoint_CollectUnderwater"
    },
    "indicator": [
      {
        "iConditions": [
          {
            "$type": "PJPCNBHPNIE",
            "distance": {
              "param": "show_distance",
              "originValue": 60.0
            }
          },
          {
            "$type": "AFFAGMAKGDC",
            "toState": 0
          }
        ]
      },
      {
        "iOperator": "Or",
        "iConditions": [
          {
            "$type": "EJBCFPJBICB"
          },
          {
            "$type": "PJPCNBHPNIE",
            "distance": {
              "param": "hide_distance",
              "originValue": 60.0
            }
          },
          {
            "$type": "AFFAGMAKGDC",
            "toState": 201
          }
        ]
      }
    ]
  },
  "Activity_UnderSeaJelly_Icon": {
    "icon": {
      "param": "",
      "originValue": "UI_MarkQuest_Branch_Proce"
    },
    "indicator": [
      {
        "iConditions": [
          {
            "$type": "PJPCNBHPNIE",
            "distance": {
              "param": "show_distance",
              "originValue": 300.0
            }
          },
          {
            "$type": "AFFAGMAKGDC",
            "toState": 201
          }
        ]
      },
      {
        "iOperator": "Or",
        "iConditions": [
          {
            "$type": "EJBCFPJBICB"
          },
          {
            "$type": "AFFAGMAKGDC",
            "toState": 0
          }
        ]
      }
    ]
  },
  "Activity_FilmfestShooting_Icon": {
    "icon": {
      "param": "",
      "originValue": "UI_MarkPoint_FilmfestShooting"
    },
    "indicator": [
      {
        "iConditions": [
          {
            "$type": "IIENOFDINJO",
            "KFIEMNGKFOL": 3,
            "markType": "ScenePoint",
            "markId": 1134
          },
          {
            "$type": "PJPCNBHPNIE",
            "distance": {
              "param": "show_distance",
              "originValue": 60.0
            }
          }
        ]
      },
      {
        "iOperator": "Or",
        "iConditions": [
          {
            "$type": "IIENOFDINJO",
            "KFIEMNGKFOL": 3,
            "markType": "ScenePoint",
            "markId": 1134
          },
          {
            "$type": "PJPCNBHPNIE",
            "distance": {
              "param": "hide_distance",
              "originValue": 70.0
            }
          }
        ]
      }
    ]
  },
  "Activity_FilmfestBallGame_Indicator": {
    "icon": {
      "param": "",
      "originValue": "UI_MarkQuest_Activity_Filmfest"
    },
    "PFLHGKANNOO": true,
    "indicator": [
      {
        "iConditions": [
          {
            "$type": "EOLPNBNDLDG"
          }
        ]
      },
      {
        "iOperator": "Or",
        "iConditions": [
          {
            "$type": "EOLPNBNDLDG",
            "GCKFMPDHEJD": false
          },
          {
            "$type": "EJBCFPJBICB"
          },
          {
            "$type": "AFFAGMAKGDC",
            "fromState": 0
          }
        ]
      }
    ]
  },
  "TreasureSeekingSeelie_Fontaine_BubbleMark": {
    "icon": {
      "param": "",
      "originValue": "UI_MarkQuest_Activity_TreasureHunt"
    },
    "followMove": true,
    "indicator": [
      {
        "iConditions": [
          {
            "$type": "AFFAGMAKGDC",
            "toState": 201
          },
          {
            "$type": "PJPCNBHPNIE",
            "distance": {
              "param": "show_distance",
              "originValue": 50.0
            }
          },
          {
            "$type": "HAOCPJBAJND",
            "value": 1.0,
            "CDBJDDLHFKP": "SGV_DiveAbilityType",
            "isTeam": true
          }
        ]
      },
      {
        "iOperator": "Or",
        "iConditions": [
          {
            "$type": "EJBCFPJBICB"
          },
          {
            "$type": "AFFAGMAKGDC",
            "fromState": 201
          },
          {
            "$type": "PJPCNBHPNIE",
            "distance": {
              "param": "hide_distance",
              "originValue": 50.0
            }
          },
          {
            "$type": "HAOCPJBAJND",
            "value": 2.0,
            "CDBJDDLHFKP": "SGV_DiveAbilityType",
            "compareType": "MoreThanAndEqual",
            "isTeam": true
          },
          {
            "$type": "HAOCPJBAJND",
            "CDBJDDLHFKP": "SGV_DiveAbilityType",
            "compareType": "LessAndEqual",
            "isTeam": true
          }
        ]
      }
    ]
  },
  "TreasureSeekingSeelie_Fontaine_EnergyBallMark": {
    "icon": {
      "param": "",
      "originValue": "UI_MarkQuest_Activity_TreasureHunt"
    },
    "followMove": true,
    "indicator": [
      {
        "iConditions": [
          {
            "$type": "AFFAGMAKGDC",
            "toState": 203
          },
          {
            "$type": "PJPCNBHPNIE",
            "distance": {
              "param": "show_distance",
              "originValue": 50.0
            }
          }
        ]
      },
      {
        "iOperator": "Or",
        "iConditions": [
          {
            "$type": "EJBCFPJBICB"
          },
          {
            "$type": "AFFAGMAKGDC",
            "fromState": 203
          },
          {
            "$type": "PJPCNBHPNIE",
            "distance": {
              "param": "hide_distance",
              "originValue": 50.0
            }
          }
        ]
      }
    ]
  },
  "TreasureSeekingSeelie_Fontaine_AbilityMark": {
    "icon": {
      "param": "",
      "originValue": "UI_MarkQuest_Activity_TreasureHunt"
    },
    "followMove": true,
    "indicator": [
      {
        "iConditions": [
          {
            "$type": "AFFAGMAKGDC",
            "toState": 0
          },
          {
            "$type": "PJPCNBHPNIE",
            "distance": {
              "param": "show_distance",
              "originValue": 50.0
            }
          },
          {
            "$type": "HAOCPJBAJND",
            "CDBJDDLHFKP": "SGV_DiveAbilityType",
            "isTeam": true
          }
        ]
      },
      {
        "iOperator": "Or",
        "iConditions": [
          {
            "$type": "EJBCFPJBICB"
          },
          {
            "$type": "AFFAGMAKGDC",
            "fromState": 0
          },
          {
            "$type": "PJPCNBHPNIE",
            "distance": {
              "param": "hide_distance",
              "originValue": 50.0
            }
          },
          {
            "$type": "HAOCPJBAJND",
            "value": 1.0,
            "CDBJDDLHFKP": "SGV_DiveAbilityType",
            "compareType": "MoreThanAndEqual",
            "isTeam": true
          }
        ]
      }
    ]
  },
  "Activity_LanternRite_V4_Indicator": {
    "icon": {
      "param": "",
      "originValue": "UI_MarkQuest_Box"
    },
    "followMove": true,
    "IENFDKLEHPJ": true,
    "PFLHGKANNOO": true,
    "indicator": [
      {
        "iConditions": [
          {
            "$type": "EOLPNBNDLDG",
            "GCKFMPDHEJD": false
          }
        ]
      },
      {
        "iOperator": "Or",
        "iConditions": [
          {
            "$type": "EOLPNBNDLDG"
          },
          {
            "$type": "EJBCFPJBICB"
          },
          {
            "$type": "AFFAGMAKGDC",
            "fromState": 0
          }
        ]
      }
    ],
    "LKIOCNOIKEP": true
  },
  "CarpJumpRunner_Board_Icon": {
    "icon": {
      "param": "",
      "originValue": "UI_NPCTopIcon_Activity_LanV4CarpJump"
    },
    "indicator": [
      {
        "iConditions": [
          {
            "$type": "AFFAGMAKGDC",
            "toState": 0
          },
          {
            "$type": "PJPCNBHPNIE",
            "distance": {
              "param": "show_distance",
              "originValue": 60.0
            }
          }
        ]
      },
      {
        "iOperator": "Or",
        "iConditions": [
          {
            "$type": "EJBCFPJBICB"
          },
          {
            "$type": "AFFAGMAKGDC",
            "fromState": 0
          },
          {
            "$type": "PJPCNBHPNIE",
            "distance": {
              "param": "hide_distance",
              "originValue": 70.0
            }
          }
        ]
      }
    ]
  },
  "LostSamachurl_Mark": {
    "icon": {
      "param": "",
      "originValue": "UI_MarkPoint_LostSamachurl"
    },
    "followMove": true,
    "indicator": [
      {
        "iConditions": [
          {
            "$type": "PJPCNBHPNIE",
            "distance": {
              "param": "show_distance",
              "originValue": 50.0
            }
          }
        ]
      },
      {
        "iOperator": "Or",
        "iConditions": [
          {
            "$type": "EJBCFPJBICB"
          },
          {
            "$type": "PJPCNBHPNIE",
            "distance": {
              "param": "hide_distance",
              "originValue": 60.0
            }
          }
        ]
      }
    ]
  },
  "Activity_Catcafe_CatTable": {
    "icon": {
      "param": "",
      "originValue": "UI_NPCTopIcon_Activity_Catcafe"
    },
    "followMove": true,
    "indicator": [
      {
        "iConditions": [
          {
            "$type": "PJPCNBHPNIE",
            "distance": {
              "param": "show_distance",
              "originValue": 50.0
            }
          }
        ]
      },
      {
        "iOperator": "Or",
        "iConditions": [
          {
            "$type": "EJBCFPJBICB"
          },
          {
            "$type": "PJPCNBHPNIE",
            "distance": {
              "param": "hide_distance",
              "originValue": 60.0
            }
          }
        ]
      }
    ]
  },
  "RoleCombat_Chest_Icon": {
    "icon": {
      "param": "",
      "originValue": "UI_MarkQuest_Box"
    },
    "distanceShow": "ToAvatar",
    "indicator": [
      {
        "iConditions": [
          {
            "$type": "AFFAGMAKGDC",
            "toState": 201
          },
          {
            "$type": "PJPCNBHPNIE",
            "distance": {
              "param": "show_distance",
              "originValue": 60.0
            }
          }
        ]
      },
      {
        "iOperator": "Or",
        "iConditions": [
          {
            "$type": "EJBCFPJBICB"
          },
          {
            "$type": "AFFAGMAKGDC",
            "toState": 0
          },
          {
            "$type": "PJPCNBHPNIE",
            "distance": {
              "param": "hide_distance",
              "originValue": 70.0
            }
          }
        ]
      }
    ]
  },
  "Activity_Catcafe_Level1": {
    "icon": {
      "param": "",
      "originValue": "UI_NPCTopIcon_R1"
    },
    "followMove": true,
    "indicator": [
      {
        "iConditions": [
          {
            "$type": "PJPCNBHPNIE",
            "distance": {
              "param": "show_distance",
              "originValue": 50.0
            }
          }
        ]
      },
      {
        "iOperator": "Or",
        "iConditions": [
          {
            "$type": "EJBCFPJBICB"
          },
          {
            "$type": "PJPCNBHPNIE",
            "distance": {
              "param": "hide_distance",
              "originValue": 60.0
            }
          }
        ]
      }
    ]
  },
  "Activity_Catcafe_Level2": {
    "icon": {
      "param": "",
      "originValue": "UI_NPCTopIcon_R2"
    },
    "followMove": true,
    "indicator": [
      {
        "iConditions": [
          {
            "$type": "PJPCNBHPNIE",
            "distance": {
              "param": "show_distance",
              "originValue": 50.0
            }
          }
        ]
      },
      {
        "iOperator": "Or",
        "iConditions": [
          {
            "$type": "EJBCFPJBICB"
          },
          {
            "$type": "PJPCNBHPNIE",
            "distance": {
              "param": "hide_distance",
              "originValue": 60.0
            }
          }
        ]
      }
    ]
  },
  "Activity_Catcafe_Level3": {
    "icon": {
      "param": "",
      "originValue": "UI_NPCTopIcon_R3"
    },
    "followMove": true,
    "indicator": [
      {
        "iConditions": [
          {
            "$type": "PJPCNBHPNIE",
            "distance": {
              "param": "show_distance",
              "originValue": 50.0
            }
          }
        ]
      },
      {
        "iOperator": "Or",
        "iConditions": [
          {
            "$type": "EJBCFPJBICB"
          },
          {
            "$type": "PJPCNBHPNIE",
            "distance": {
              "param": "hide_distance",
              "originValue": 60.0
            }
          }
        ]
      }
    ]
  },
  "Activity_Catcafe_Level4": {
    "icon": {
      "param": "",
      "originValue": "UI_NPCTopIcon_R4"
    },
    "followMove": true,
    "indicator": [
      {
        "iConditions": [
          {
            "$type": "PJPCNBHPNIE",
            "distance": {
              "param": "show_distance",
              "originValue": 50.0
            }
          }
        ]
      },
      {
        "iOperator": "Or",
        "iConditions": [
          {
            "$type": "EJBCFPJBICB"
          },
          {
            "$type": "PJPCNBHPNIE",
            "distance": {
              "param": "hide_distance",
              "originValue": 60.0
            }
          }
        ]
      }
    ]
  },
  "Activity_Catcafe_Level5": {
    "icon": {
      "param": "",
      "originValue": "UI_NPCTopIcon_R5"
    },
    "followMove": true,
    "indicator": [
      {
        "iConditions": [
          {
            "$type": "PJPCNBHPNIE",
            "distance": {
              "param": "show_distance",
              "originValue": 50.0
            }
          }
        ]
      },
      {
        "iOperator": "Or",
        "iConditions": [
          {
            "$type": "EJBCFPJBICB"
          },
          {
            "$type": "PJPCNBHPNIE",
            "distance": {
              "param": "hide_distance",
              "originValue": 60.0
            }
          }
        ]
      }
    ]
  },
  "Activity_AlchemySim_Potion": {
    "icon": {
      "param": "",
      "originValue": "UI_MarkPoint_AlchemySim_Potion"
    },
    "followMove": true,
    "indicator": [
      {
        "iConditions": [
          {
            "$type": "PJPCNBHPNIE",
            "distance": {
              "param": "show_distance",
              "originValue": 50.0
            }
          }
        ]
      },
      {
        "iOperator": "Or",
        "iConditions": [
          {
            "$type": "EJBCFPJBICB"
          },
          {
            "$type": "PJPCNBHPNIE",
            "distance": {
              "param": "hide_distance",
              "originValue": 60.0
            }
          }
        ]
      }
    ]
  },
  "Activity_AlchemySim_Crop": {
    "icon": {
      "param": "",
      "originValue": "UI_MarkPoint_AlchemySim_Crop"
    },
    "followMove": true,
    "indicator": [
      {
        "iConditions": [
          {
            "$type": "PJPCNBHPNIE",
            "distance": {
              "param": "show_distance",
              "originValue": 50.0
            }
          }
        ]
      },
      {
        "iOperator": "Or",
        "iConditions": [
          {
            "$type": "EJBCFPJBICB"
          },
          {
            "$type": "PJPCNBHPNIE",
            "distance": {
              "param": "hide_distance",
              "originValue": 60.0
            }
          }
        ]
      }
    ]
  },
  "Activity_AlchemySim_Sell": {
    "icon": {
      "param": "",
      "originValue": "UI_MarkPoint_AlchemySim_Sell"
    },
    "followMove": true,
    "indicator": [
      {
        "iConditions": [
          {
            "$type": "PJPCNBHPNIE",
            "distance": {
              "param": "show_distance",
              "originValue": 50.0
            }
          }
        ]
      },
      {
        "iOperator": "Or",
        "iConditions": [
          {
            "$type": "EJBCFPJBICB"
          },
          {
            "$type": "PJPCNBHPNIE",
            "distance": {
              "param": "hide_distance",
              "originValue": 60.0
            }
          }
        ]
      }
    ]
  },
  "Activity_AlchemySim_Refine": {
    "icon": {
      "param": "",
      "originValue": "UI_MarkPoint_AlchemySim_Sell"
    },
    "followMove": true,
    "indicator": [
      {
        "iConditions": [
          {
            "$type": "PJPCNBHPNIE",
            "distance": {
              "param": "show_distance",
              "originValue": 50.0
            }
          }
        ]
      },
      {
        "iOperator": "Or",
        "iConditions": [
          {
            "$type": "EJBCFPJBICB"
          },
          {
            "$type": "PJPCNBHPNIE",
            "distance": {
              "param": "hide_distance",
              "originValue": 60.0
            }
          }
        ]
      }
    ]
  },
  "Activity_GreatFestivalV2_JiFang": {
    "icon": {
      "param": "",
      "originValue": "UI_MarkPoint_GreatFestivalV2_Music"
    },
    "followMove": true,
    "indicator": [
      {
        "iConditions": [
          {
            "$type": "IIENOFDINJO",
            "KFIEMNGKFOL": 3,
            "markType": "ScenePoint",
            "markId": 1278
          },
          {
            "$type": "PJPCNBHPNIE",
            "distance": {
              "param": "show_distance",
              "originValue": 60.0
            }
          }
        ]
      },
      {
        "iOperator": "Or",
        "iConditions": [
          {
            "$type": "IIENOFDINJO",
            "KFIEMNGKFOL": 3,
            "markType": "ScenePoint",
            "markId": 1278
          },
          {
            "$type": "PJPCNBHPNIE",
            "distance": {
              "param": "hide_distance",
              "originValue": 70.0
            }
          }
        ]
      }
    ]
  },
  "Activity_GreatFestivalV2_Charles": {
    "icon": {
      "param": "",
      "originValue": "UI_MarkPoint_GreatFestivalV2_Music"
    },
    "indicator": [
      {
        "iConditions": [
          {
            "$type": "IIENOFDINJO",
            "KFIEMNGKFOL": 3,
            "markType": "ScenePoint",
            "markId": 1281
          },
          {
            "$type": "PJPCNBHPNIE",
            "distance": {
              "param": "show_distance",
              "originValue": 60.0
            }
          }
        ]
      },
      {
        "iOperator": "Or",
        "iConditions": [
          {
            "$type": "IIENOFDINJO",
            "KFIEMNGKFOL": 3,
            "markType": "ScenePoint",
            "markId": 1281
          },
          {
            "$type": "PJPCNBHPNIE",
            "distance": {
              "param": "hide_distance",
              "originValue": 70.0
            }
          }
        ]
      }
    ]
  },
  "MonsterVsMonster_Icon": {
    "icon": {
      "param": "",
      "originValue": "UI_NPCTopIcon_MonsterVsMonster"
    },
    "indicator": [
      {
        "iConditions": [
          {
            "$type": "AFFAGMAKGDC",
            "toState": 0
          },
          {
            "$type": "PJPCNBHPNIE",
            "distance": {
              "param": "show_distance",
              "originValue": 60.0
            }
          }
        ]
      },
      {
        "iOperator": "Or",
        "iConditions": [
          {
            "$type": "EJBCFPJBICB"
          },
          {
            "$type": "AFFAGMAKGDC",
            "fromState": 0
          },
          {
            "$type": "PJPCNBHPNIE",
            "distance": {
              "param": "hide_distance",
              "originValue": 70.0
            }
          }
        ]
      }
    ]
  }
}