{
  "luaDataPath": "",
  "isSimpleTalk": true,
  "entityBan": "",
  "disableNpcLod": true,
  "protectNpcMobileLod": true,
  "talkFlag": 5,
  "startFade": {
    "startFadeOutDuration": 0.0
  },
  "endFade": {
    "startFadeOutDuration": 0.0
  },
  "actors": [
    {
      "alias": "Avatar",
      "visible": true,
      "bornPointName": "",
      "relativePosType": "AVATAR_NEW",
      "relativePosNpcAlias": "",
      "_bindMovingTargetKey": ""
    },
    {
      "configID": 5005,
      "alias": "5005",
      "visible": true,
      "bornPointName": "",
      "forceCreateDaily": true,
      "relativePosType": "AVATAR_NEW",
      "relativePosNpcAlias": "",
      "_bindMovingTargetKey": ""
    }
  ],
  "group": [
    [
      {
        "$type": "EFHODGEJOHJ",
        "type": "CAMERA_FOCUS",
        "duration": 0.10000000149011612,
        "actionId": 103,
        "targetNpcAlias": "",
        "PHGBNNGCJKJ": "",
        "NFILMKCFHEB": "",
        "BGPNGHDAECF": ""
      },
      {
        "$type": "MoleMole.Config.ConfigTimeProtectAction",
        "type": "TIME_PROTECT",
        "duration": 0.10000000149011612,
        "actionId": 104
      },
      {
        "$type": "IEKHMHNHENB",
        "type": "STEER_TO",
        "delayTime": 0.30000001192092896,
        "duration": 0.800000011920929,
        "aliasList": [
          "Avatar"
        ],
        "actionId": 144,
        "_flag": 32,
        "steerType": "TO_TARGET_ADVANCED",
        "useSteerAnim": true,
        "interruptFreestyle": true,
        "forceSteer": true,
        "targetNpcAlias": "5005",
        "fixInterNull": true,
        "BHGPHGNFCBF": ""
      },
      {
        "$type": "IEKHMHNHENB",
        "type": "STEER_TO",
        "delayTime": 0.30000001192092896,
        "duration": 0.800000011920929,
        "aliasList": [
          "5005"
        ],
        "actionId": 145,
        "_flag": 32,
        "steerType": "TO_LOCAL_AVATAR_ADVANCED",
        "useSteerAnim": true,
        "interruptFreestyle": true,
        "forceSteer": true,
        "targetNpcAlias": "",
        "fixInterNull": true,
        "BHGPHGNFCBF": ""
      }
    ],
    [
      {
        "$type": "MJFAIFFAGOF",
        "type": "DIALOG",
        "aliasList": [
          "5005"
        ],
        "actionId": 107,
        "dialogID": 240020101,
        "protectTime": 0.5
      }
    ],
    [
      {
        "$type": "MJFAIFFAGOF",
        "type": "DIALOG",
        "aliasList": [
          "5005"
        ],
        "actionId": 109,
        "dialogID": 240020102,
        "protectTime": 0.5
      },
      {
        "$type": "OBCDECFOOBC",
        "type": "DIALOG_SELECT",
        "delayTime": 0.4000000059604645,
        "aliasList": [
          "Avatar"
        ],
        "actionId": 110,
        "dialogIDList": [
          240020103
        ],
        "grpIDList": [
          501752230
        ],
        "useGrpId": true,
        "countDownGrpId": 501752226
      }
    ],
    [
      {
        "$type": "MJFAIFFAGOF",
        "type": "DIALOG",
        "aliasList": [
          "5005"
        ],
        "actionId": 112,
        "dialogID": 240020104,
        "protectTime": 0.5
      },
      {
        "$type": "EDCHPJLDKIN",
        "type": "BODY_LANG",
        "aliasList": [
          "5005"
        ],
        "actionId": 147,
        "randomParamList": [
          1172
        ],
        "forceDoFreeStyle": true,
        "canDoRepeatFreeStyle": false,
        "eventPatternSuiteKey": ""
      },
      {
        "$type": "OBCDECFOOBC",
        "type": "DIALOG_SELECT",
        "delayTime": 0.4000000059604645,
        "aliasList": [
          "Avatar"
        ],
        "actionId": 113,
        "dialogIDList": [
          240020105,
          240020106
        ],
        "grpIDList": [
          501752231,
          501752231
        ],
        "useGrpId": true,
        "countDownGrpId": 501752226
      }
    ],
    [
      {
        "$type": "MJFAIFFAGOF",
        "type": "DIALOG",
        "aliasList": [
          "5005"
        ],
        "actionId": 115,
        "dialogID": 240020107,
        "protectTime": 0.5
      }
    ],
    [
      {
        "$type": "MJFAIFFAGOF",
        "type": "DIALOG",
        "aliasList": [
          "5005"
        ],
        "actionId": 117,
        "dialogID": 240020108,
        "protectTime": 0.5
      },
      {
        "$type": "EDCHPJLDKIN",
        "type": "BODY_LANG",
        "aliasList": [
          "5005"
        ],
        "actionId": 148,
        "randomParamList": [
          1230
        ],
        "forceDoFreeStyle": true,
        "canDoRepeatFreeStyle": false,
        "eventPatternSuiteKey": ""
      }
    ],
    [
      {
        "$type": "MJFAIFFAGOF",
        "type": "DIALOG",
        "aliasList": [
          "5005"
        ],
        "actionId": 119,
        "dialogID": 240020109,
        "protectTime": 0.5
      }
    ],
    [
      {
        "$type": "MJFAIFFAGOF",
        "type": "DIALOG",
        "aliasList": [
          "5005"
        ],
        "actionId": 121,
        "dialogID": 240020110,
        "protectTime": 0.5
      }
    ],
    [
      {
        "$type": "MJFAIFFAGOF",
        "type": "DIALOG",
        "aliasList": [
          "5005"
        ],
        "actionId": 123,
        "dialogID": 240020111,
        "protectTime": 0.5
      }
    ],
    [
      {
        "$type": "MJFAIFFAGOF",
        "type": "DIALOG",
        "aliasList": [
          "5005"
        ],
        "actionId": 125,
        "dialogID": 240020112,
        "protectTime": 0.5
      },
      {
        "$type": "EDCHPJLDKIN",
        "type": "BODY_LANG",
        "aliasList": [
          "5005"
        ],
        "actionId": 149,
        "randomParamList": [
          1120
        ],
        "forceDoFreeStyle": true,
        "canDoRepeatFreeStyle": false,
        "eventPatternSuiteKey": ""
      },
      {
        "$type": "OBCDECFOOBC",
        "type": "DIALOG_SELECT",
        "delayTime": 0.4000000059604645,
        "aliasList": [
          "Avatar"
        ],
        "actionId": 126,
        "dialogIDList": [
          240020113
        ],
        "grpIDList": [
          2669417198
        ],
        "useGrpId": true,
        "countDownGrpId": 501752226
      }
    ],
    [
      {
        "$type": "MJFAIFFAGOF",
        "type": "DIALOG",
        "aliasList": [
          "5005"
        ],
        "actionId": 128,
        "dialogID": 240020114,
        "protectTime": 0.5
      }
    ],
    [
      {
        "$type": "MJFAIFFAGOF",
        "type": "DIALOG",
        "aliasList": [
          "5005"
        ],
        "actionId": 130,
        "dialogID": 240020115,
        "protectTime": 0.5
      }
    ],
    [
      {
        "$type": "MJFAIFFAGOF",
        "type": "DIALOG",
        "aliasList": [
          "5005"
        ],
        "actionId": 132,
        "dialogID": 240020116,
        "protectTime": 0.5
      },
      {
        "$type": "EDCHPJLDKIN",
        "type": "BODY_LANG",
        "aliasList": [
          "5005"
        ],
        "actionId": 150,
        "randomParamList": [
          1171
        ],
        "forceDoFreeStyle": true,
        "canDoRepeatFreeStyle": false,
        "eventPatternSuiteKey": ""
      }
    ],
    [
      {
        "$type": "MJFAIFFAGOF",
        "type": "DIALOG",
        "aliasList": [
          "5005"
        ],
        "actionId": 134,
        "dialogID": 240020117,
        "protectTime": 0.5
      },
      {
        "$type": "OBCDECFOOBC",
        "type": "DIALOG_SELECT",
        "delayTime": 0.4000000059604645,
        "aliasList": [
          "Avatar"
        ],
        "actionId": 135,
        "dialogIDList": [
          240020118,
          240020119
        ],
        "grpIDList": [
          2669417202,
          2669417202
        ],
        "useGrpId": true,
        "countDownGrpId": 501752226
      }
    ],
    [
      {
        "$type": "MJFAIFFAGOF",
        "type": "DIALOG",
        "aliasList": [
          "5005"
        ],
        "actionId": 137,
        "dialogID": 240020120,
        "protectTime": 0.5
      }
    ],
    [
      {
        "$type": "MJFAIFFAGOF",
        "type": "DIALOG",
        "aliasList": [
          "5005"
        ],
        "actionId": 139,
        "dialogID": 240020121,
        "protectTime": 0.5
      }
    ],
    [
      {
        "$type": "MJFAIFFAGOF",
        "type": "DIALOG",
        "aliasList": [
          "5005"
        ],
        "actionId": 141,
        "dialogID": 240020122,
        "protectTime": 0.5
      }
    ],
    [
      {
        "$type": "MJFAIFFAGOF",
        "type": "DIALOG",
        "aliasList": [
          "5005"
        ],
        "actionId": 143,
        "dialogID": 240020123,
        "protectTime": 0.5
      }
    ],
    [
      {
        "$type": "MoleMole.Config.ConfigTimeProtectAction",
        "type": "TIME_PROTECT",
        "duration": 0.10000000149011612,
        "actionId": 105
      },
      {
        "$type": "MoleMole.Config.ConfigSimpleBlackScreenAction",
        "type": "SIMPLE_BLACK_SCREEN",
        "duration": 3.0,
        "actionId": 151,
        "durationToBlack": 0.5,
        "durationKeepBlack": 2.0,
        "durationFromBlack": 0.5,
        "textMapID": "",
        "useTextFade": true,
        "_changeAudioState": true
      },
      {
        "$type": "IEKHMHNHENB",
        "type": "STEER_TO",
        "duration": 1.0,
        "aliasList": [
          "5005"
        ],
        "actionId": 146,
        "_flag": 32,
        "steerType": "RETURN",
        "useSteerAnim": true,
        "interruptFreestyle": true,
        "forceSteer": true,
        "targetNpcAlias": "",
        "ignoreY": true,
        "fixInterNull": true,
        "BHGPHGNFCBF": ""
      }
    ]
  ],
  "groupId": [
    {
      "grpId": 501752227,
      "nextGrpId": 501752228
    },
    {
      "index": 1,
      "grpId": 501752228,
      "nextGrpId": 501752229
    },
    {
      "index": 2,
      "grpId": 501752229,
      "nextGrpId": 501752230
    },
    {
      "index": 3,
      "grpId": 501752230,
      "nextGrpId": 501752231
    },
    {
      "index": 4,
      "grpId": 501752231,
      "nextGrpId": 501752232
    },
    {
      "index": 5,
      "grpId": 501752232,
      "nextGrpId": 501752233
    },
    {
      "index": 6,
      "grpId": 501752233,
      "nextGrpId": 501752234
    },
    {
      "index": 7,
      "grpId": 501752234,
      "nextGrpId": 501752235
    },
    {
      "index": 8,
      "grpId": 501752235,
      "nextGrpId": 2669417197
    },
    {
      "index": 9,
      "grpId": 2669417197,
      "nextGrpId": 2669417198
    },
    {
      "index": 10,
      "grpId": 2669417198,
      "nextGrpId": 2669417199
    },
    {
      "index": 11,
      "grpId": 2669417199,
      "nextGrpId": 2669417200
    },
    {
      "index": 12,
      "grpId": 2669417200,
      "nextGrpId": 2669417201
    },
    {
      "index": 13,
      "grpId": 2669417201,
      "nextGrpId": 2669417202
    },
    {
      "index": 14,
      "grpId": 2669417202,
      "nextGrpId": 2669417203
    },
    {
      "index": 15,
      "grpId": 2669417203,
      "nextGrpId": 2669417204
    },
    {
      "index": 16,
      "grpId": 2669417204,
      "nextGrpId": 2669417205
    },
    {
      "index": 17,
      "grpId": 2669417205,
      "nextGrpId": 2669417206
    },
    {
      "index": 18,
      "grpId": 2669417206,
      "nextGrpId": 2669417228
    }
  ],
  "freeStyleDic": {
    "5005": [
      1172,
      1230,
      1120,
      1171
    ]
  }
}