{
  "luaDataPath": "",
  "entityBan": "",
  "disableNpcLod": true,
  "isAutoBanNpc": true,
  "isBanWidgetPet": true,
  "protectNpcMobileLod": true,
  "startFade": {
    "startFadeOutDuration": 0.0
  },
  "endFade": {
    "startFadeOutDuration": 0.0
  },
  "actors": [
    {
      "alias": "Avatar",
      "visible": true,
      "bornPointName": "",
      "relativePosNpcAlias": "",
      "_bindMovingTargetKey": ""
    },
    {
      "configID": 1005,
      "alias": "1005",
      "visible": true,
      "bornPointName": "",
      "useRelativePos": true,
      "relativePos": {
        "x": 0.5
      },
      "removeActorType": "REMOVE_WITH_DISAPPEAR",
      "relativePosNpcAlias": "",
      "_bindMovingTargetKey": ""
    },
    {
      "configID": 30192,
      "alias": "30192",
      "visible": true,
      "bornPointName": "",
      "removeActorType": "REMOVE",
      "relativePosNpcAlias": "",
      "_bindMovingTargetKey": ""
    }
  ],
  "group": [
    [
      {
        "$type": "MoleMole.Config.ConfigTimeProtectAction",
        "type": "TIME_PROTECT",
        "duration": 1.3450000286102295
      },
      {
        "$type": "EFHODGEJOHJ",
        "type": "CAMERA_FOCUS",
        "duration": 0.10000000149011612,
        "actionId": 142,
        "targetNpcAlias": "",
        "PHGBNNGCJKJ": "",
        "NFILMKCFHEB": "",
        "BGPNGHDAECF": ""
      },
      {
        "$type": "NPCNMEOCADD",
        "type": "LOOK_AT",
        "aliasList": [
          "Avatar"
        ],
        "actionId": 123,
        "enableHead": true,
        "useTargetPos": true,
        "enableAbsolute": true,
        "targetPosition": {
          "x": 12.873000144958496,
          "y": 1.5870000123977661,
          "z": -3.4719998836517334
        },
        "headTurnTime": 0.5,
        "targetNpcAlias": "30192",
        "lookAtTargetType": "NONE",
        "targetNpcLookAtPoint": "",
        "BHGPHGNFCBF": ""
      },
      {
        "$type": "NPCNMEOCADD",
        "type": "LOOK_AT",
        "aliasList": [
          "1005"
        ],
        "actionId": 123,
        "enableHead": true,
        "useTargetPos": true,
        "enableAbsolute": true,
        "targetPosition": {
          "x": 12.873000144958496,
          "y": 1.6069999933242798,
          "z": -3.4719998836517334
        },
        "headTurnTime": 0.5,
        "targetNpcAlias": "30192",
        "lookAtTargetType": "NONE",
        "targetNpcLookAtPoint": "",
        "BHGPHGNFCBF": ""
      },
      {
        "$type": "IEKHMHNHENB",
        "type": "STEER_TO",
        "delayTime": 0.15199999511241913,
        "duration": 1.0,
        "aliasList": [
          "Avatar"
        ],
        "actionId": 121,
        "steerType": "ABSOLUTE",
        "steerDir": {
          "x": 12.883000373840332,
          "z": -3.378000020980835
        },
        "useSteerAnim": true,
        "interruptFreestyle": true,
        "forceSteer": true,
        "targetNpcAlias": "30192",
        "BHGPHGNFCBF": ""
      },
      {
        "$type": "IEKHMHNHENB",
        "type": "STEER_TO",
        "delayTime": 0.15199999511241913,
        "duration": 1.0,
        "aliasList": [
          "1005"
        ],
        "actionId": 121,
        "steerType": "ABSOLUTE",
        "steerDir": {
          "x": 12.883000373840332,
          "z": -3.378000020980835
        },
        "useSteerAnim": true,
        "interruptFreestyle": true,
        "forceSteer": true,
        "targetNpcAlias": "30192",
        "BHGPHGNFCBF": ""
      },
      {
        "$type": "NPCNMEOCADD",
        "type": "LOOK_AT",
        "delayTime": 0.871999979019165,
        "aliasList": [
          "Avatar"
        ],
        "actionId": 123,
        "enableHead": true,
        "useTargetPos": true,
        "enableAbsolute": true,
        "targetPosition": {
          "x": 12.873000144958496,
          "y": 1.5870000123977661,
          "z": -3.4719998836517334
        },
        "headTurnTime": 0.5,
        "targetNpcAlias": "30192",
        "lookAtTargetType": "NONE",
        "targetNpcLookAtPoint": "",
        "BHGPHGNFCBF": ""
      },
      {
        "$type": "NPCNMEOCADD",
        "type": "LOOK_AT",
        "delayTime": 0.9049999713897705,
        "aliasList": [
          "1005"
        ],
        "actionId": 123,
        "enableHead": true,
        "useTargetPos": true,
        "enableAbsolute": true,
        "targetPosition": {
          "x": 12.873000144958496,
          "y": 1.6069999933242798,
          "z": -3.4719998836517334
        },
        "headTurnTime": 0.5,
        "targetNpcAlias": "30192",
        "lookAtTargetType": "NONE",
        "targetNpcLookAtPoint": "",
        "BHGPHGNFCBF": ""
      }
    ],
    [
      {
        "$type": "MJFAIFFAGOF",
        "type": "DIALOG",
        "aliasList": [
          "1005"
        ],
        "dialogID": 705160101,
        "protectTime": 0.5
      },
      {
        "$type": "EDCHPJLDKIN",
        "type": "BODY_LANG",
        "aliasList": [
          "1005"
        ],
        "actionId": 152,
        "bodyLangParam": 1190,
        "forceDoFreeStyle": true,
        "canDoRepeatFreeStyle": false,
        "eventPatternSuiteKey": ""
      },
      {
        "$type": "ICHLNKHGCAG",
        "type": "EMO_SYNC",
        "aliasList": [
          "1005"
        ],
        "dataPath": "Cs_Emo_Avatar_Simple_Common_Set/Cs_Emo_Avatar_Talk/Cs_Emo_Avatar_Event/Cs_Emo_HuangYingXinLiu/Cs_Emo_705160101",
        "phonemePath": "",
        "emotionPath": "",
        "mateDataPath": "",
        "matePhonemePath": "",
        "mateEmotionPath": "",
        "dataPathHashList": [
          4969721191980255953,
          4292585775602834131,
          7770771681435641805,
          10307179217810442629
        ],
        "PACNIGOOENN": "",
        "PIBDNPHIAGC": ""
      }
    ],
    [
      {
        "$type": "MJFAIFFAGOF",
        "type": "DIALOG",
        "aliasList": [
          "1005"
        ],
        "dialogID": 705160102,
        "protectTime": 0.5
      },
      {
        "$type": "EDCHPJLDKIN",
        "type": "BODY_LANG",
        "aliasList": [
          "1005"
        ],
        "actionId": 153,
        "isContinue": true,
        "forceDoFreeStyle": true,
        "canDoRepeatFreeStyle": false,
        "eventPatternSuiteKey": ""
      },
      {
        "$type": "ICHLNKHGCAG",
        "type": "EMO_SYNC",
        "aliasList": [
          "1005"
        ],
        "dataPath": "Cs_Emo_Avatar_Simple_Common_Set/Cs_Emo_Avatar_Talk/Cs_Emo_Avatar_Event/Cs_Emo_HuangYingXinLiu/Cs_Emo_705160102",
        "phonemePath": "",
        "emotionPath": "",
        "mateDataPath": "",
        "matePhonemePath": "",
        "mateEmotionPath": "",
        "dataPathHashList": [
          17037318803521651807,
          14073028370845645762,
          18189064985811578261,
          15757121349599749468
        ],
        "PACNIGOOENN": "",
        "PIBDNPHIAGC": ""
      },
      {
        "$type": "OBCDECFOOBC",
        "type": "DIALOG_SELECT",
        "delayTime": 0.4000000059604645,
        "aliasList": [
          "Avatar"
        ],
        "dialogIDList": [
          705160103,
          705160108,
          705160115
        ],
        "grpIDList": [
          511195156,
          511195160,
          2962147907
        ],
        "useGrpId": true
      }
    ],
    [
      {
        "$type": "MJFAIFFAGOF",
        "type": "DIALOG",
        "aliasList": [
          "30192"
        ],
        "dialogID": 705160104,
        "protectTime": 0.5
      }
    ],
    [
      {
        "$type": "MJFAIFFAGOF",
        "type": "DIALOG",
        "aliasList": [
          "30192"
        ],
        "dialogID": 705160105,
        "protectTime": 0.5
      }
    ],
    [
      {
        "$type": "MJFAIFFAGOF",
        "type": "DIALOG",
        "aliasList": [
          "30192"
        ],
        "dialogID": 705160106,
        "protectTime": 0.5
      }
    ],
    [
      {
        "$type": "MJFAIFFAGOF",
        "type": "DIALOG",
        "aliasList": [
          "30192"
        ],
        "dialogID": 705160107,
        "protectTime": 0.5
      }
    ],
    [
      {
        "$type": "MJFAIFFAGOF",
        "type": "DIALOG",
        "aliasList": [
          "30192"
        ],
        "dialogID": 705160109,
        "protectTime": 0.5
      }
    ],
    [
      {
        "$type": "MJFAIFFAGOF",
        "type": "DIALOG",
        "aliasList": [
          "30192"
        ],
        "dialogID": 705160110,
        "protectTime": 0.5
      }
    ],
    [
      {
        "$type": "MJFAIFFAGOF",
        "type": "DIALOG",
        "aliasList": [
          "30192"
        ],
        "dialogID": 705160111,
        "protectTime": 0.5
      }
    ],
    [
      {
        "$type": "MJFAIFFAGOF",
        "type": "DIALOG",
        "aliasList": [
          "30192"
        ],
        "dialogID": 705160112,
        "protectTime": 0.5
      }
    ],
    [
      {
        "$type": "MJFAIFFAGOF",
        "type": "DIALOG",
        "aliasList": [
          "30192"
        ],
        "dialogID": 705160113,
        "protectTime": 0.5
      }
    ],
    [
      {
        "$type": "MJFAIFFAGOF",
        "type": "DIALOG",
        "aliasList": [
          "30192"
        ],
        "dialogID": 705160114,
        "protectTime": 0.5
      }
    ],
    [
      {
        "$type": "MJFAIFFAGOF",
        "type": "DIALOG",
        "aliasList": [
          "30192"
        ],
        "dialogID": 705160116,
        "protectTime": 0.5
      }
    ],
    [
      {
        "$type": "MJFAIFFAGOF",
        "type": "DIALOG",
        "aliasList": [
          "30192"
        ],
        "dialogID": 705160117,
        "protectTime": 0.5
      }
    ],
    [
      {
        "$type": "MJFAIFFAGOF",
        "type": "DIALOG",
        "aliasList": [
          "30192"
        ],
        "dialogID": 705160118,
        "protectTime": 0.5
      }
    ],
    [
      {
        "$type": "MJFAIFFAGOF",
        "type": "DIALOG",
        "aliasList": [
          "30192"
        ],
        "dialogID": 705160119,
        "protectTime": 0.5
      }
    ],
    [
      {
        "$type": "MJFAIFFAGOF",
        "type": "DIALOG",
        "aliasList": [
          "30192"
        ],
        "dialogID": 705160120,
        "protectTime": 0.5
      }
    ],
    [
      {
        "$type": "MoleMole.Config.ConfigTimeProtectAction",
        "type": "TIME_PROTECT",
        "duration": 0.10000000149011612
      }
    ],
    [
      {
        "$type": "MoleMole.Config.ConfigTimeProtectAction",
        "type": "TIME_PROTECT",
        "duration": 0.10000000149011612
      },
      {
        "$type": "MoleMole.Config.ConfigVisibleInterAction",
        "type": "VISIBLE",
        "aliasList": [
          "30192"
        ],
        "_extraParam": ""
      }
    ]
  ],
  "groupId": [
    {
      "grpId": 511195153,
      "nextGrpId": 511195154
    },
    {
      "index": 1,
      "grpId": 511195154,
      "nextGrpId": 511195155
    },
    {
      "index": 2,
      "grpId": 511195155,
      "nextGrpId": 511195156
    },
    {
      "index": 3,
      "grpId": 511195156,
      "nextGrpId": 511195157
    },
    {
      "index": 4,
      "grpId": 511195157,
      "nextGrpId": 511195158
    },
    {
      "index": 5,
      "grpId": 511195158,
      "nextGrpId": 511195159
    },
    {
      "index": 6,
      "grpId": 511195159,
      "nextGrpId": 2962147912
    },
    {
      "index": 7,
      "grpId": 511195160,
      "nextGrpId": 511195161
    },
    {
      "index": 8,
      "grpId": 511195161,
      "nextGrpId": 2962147903
    },
    {
      "index": 9,
      "grpId": 2962147903,
      "nextGrpId": 2962147904
    },
    {
      "index": 10,
      "grpId": 2962147904,
      "nextGrpId": 2962147905
    },
    {
      "index": 11,
      "grpId": 2962147905,
      "nextGrpId": 2962147906
    },
    {
      "index": 12,
      "grpId": 2962147906,
      "nextGrpId": 2962147912
    },
    {
      "index": 13,
      "grpId": 2962147907,
      "nextGrpId": 2962147908
    },
    {
      "index": 14,
      "grpId": 2962147908,
      "nextGrpId": 2962147909
    },
    {
      "index": 15,
      "grpId": 2962147909,
      "nextGrpId": 2962147910
    },
    {
      "index": 16,
      "grpId": 2962147910,
      "nextGrpId": 2962147911
    },
    {
      "index": 17,
      "grpId": 2962147911,
      "nextGrpId": 2962147912
    },
    {
      "index": 18,
      "grpId": 2962147912,
      "nextGrpId": 2962147934
    },
    {
      "index": 19,
      "grpId": 2962147934,
      "nextGrpId": 2962147935
    }
  ]
}