{
  "luaDataPath": "",
  "entityBan": "",
  "disableNpcLod": true,
  "isAutoBanNpc": true,
  "isBanWidgetPet": true,
  "protectNpcMobileLod": true,
  "startFade": {
    "startFadeOutDuration": 0.0
  },
  "endFade": {
    "startFadeOutDuration": 0.0
  },
  "actors": [
    {
      "alias": "Avatar",
      "visible": true,
      "bornPointName": "",
      "relativePosNpcAlias": "",
      "_bindMovingTargetKey": ""
    },
    {
      "configID": 1005,
      "alias": "1005",
      "visible": true,
      "bornPointName": "",
      "useRelativePos": true,
      "relativePos": {
        "x": 0.5,
        "z": -0.20000000298023224
      },
      "removeActorType": "REMOVE_WITH_DISAPPEAR",
      "relativePosNpcAlias": "",
      "_bindMovingTargetKey": ""
    },
    {
      "configID": 30192,
      "alias": "30192",
      "visible": true,
      "bornPointName": "",
      "removeActorType": "REMOVE",
      "relativePosNpcAlias": "",
      "_bindMovingTargetKey": ""
    }
  ],
  "group": [
    [
      {
        "$type": "MoleMole.Config.ConfigTimeProtectAction",
        "type": "TIME_PROTECT",
        "duration": 1.3450000286102295
      },
      {
        "$type": "NPCNMEOCADD",
        "type": "LOOK_AT",
        "aliasList": [
          "Avatar"
        ],
        "actionId": 123,
        "enableHead": true,
        "useTargetPos": true,
        "enableAbsolute": true,
        "targetPosition": {
          "x": 11.723999977111816,
          "y": 1.5479999780654907,
          "z": -10.12600040435791
        },
        "headTurnTime": 0.5,
        "targetNpcAlias": "30192",
        "lookAtTargetType": "NONE",
        "targetNpcLookAtPoint": "",
        "BHGPHGNFCBF": ""
      },
      {
        "$type": "NPCNMEOCADD",
        "type": "LOOK_AT",
        "aliasList": [
          "1005"
        ],
        "actionId": 123,
        "enableHead": true,
        "useTargetPos": true,
        "enableAbsolute": true,
        "targetPosition": {
          "x": 11.723999977111816,
          "y": 1.5479999780654907,
          "z": -10.12600040435791
        },
        "headTurnTime": 0.5,
        "targetNpcAlias": "30192",
        "lookAtTargetType": "NONE",
        "targetNpcLookAtPoint": "",
        "BHGPHGNFCBF": ""
      },
      {
        "$type": "EFHODGEJOHJ",
        "type": "CAMERA_FOCUS",
        "delayTime": 0.008999999612569809,
        "duration": 0.10000000149011612,
        "actionId": 142,
        "targetNpcAlias": "",
        "PHGBNNGCJKJ": "",
        "NFILMKCFHEB": "",
        "BGPNGHDAECF": ""
      },
      {
        "$type": "IEKHMHNHENB",
        "type": "STEER_TO",
        "delayTime": 0.15199999511241913,
        "duration": 1.0,
        "aliasList": [
          "Avatar"
        ],
        "actionId": 121,
        "steerType": "ABSOLUTE",
        "steerDir": {
          "x": 11.767999649047852,
          "z": -10.206000328063965
        },
        "useSteerAnim": true,
        "interruptFreestyle": true,
        "forceSteer": true,
        "targetNpcAlias": "30192",
        "BHGPHGNFCBF": ""
      },
      {
        "$type": "IEKHMHNHENB",
        "type": "STEER_TO",
        "delayTime": 0.15199999511241913,
        "duration": 1.0,
        "aliasList": [
          "1005"
        ],
        "actionId": 121,
        "steerType": "ABSOLUTE",
        "steerDir": {
          "x": 11.767999649047852,
          "z": -10.206000328063965
        },
        "useSteerAnim": true,
        "interruptFreestyle": true,
        "forceSteer": true,
        "targetNpcAlias": "30192",
        "BHGPHGNFCBF": ""
      },
      {
        "$type": "NPCNMEOCADD",
        "type": "LOOK_AT",
        "delayTime": 0.8460000157356262,
        "aliasList": [
          "Avatar"
        ],
        "actionId": 123,
        "enableHead": true,
        "useTargetPos": true,
        "enableAbsolute": true,
        "targetPosition": {
          "x": 11.723999977111816,
          "y": 1.5479999780654907,
          "z": -10.12600040435791
        },
        "headTurnTime": 0.5,
        "targetNpcAlias": "30192",
        "lookAtTargetType": "NONE",
        "targetNpcLookAtPoint": "",
        "BHGPHGNFCBF": ""
      },
      {
        "$type": "NPCNMEOCADD",
        "type": "LOOK_AT",
        "delayTime": 0.8460000157356262,
        "aliasList": [
          "1005"
        ],
        "actionId": 123,
        "enableHead": true,
        "useTargetPos": true,
        "enableAbsolute": true,
        "targetPosition": {
          "x": 11.723999977111816,
          "y": 1.5479999780654907,
          "z": -10.12600040435791
        },
        "headTurnTime": 0.5,
        "targetNpcAlias": "30192",
        "lookAtTargetType": "NONE",
        "targetNpcLookAtPoint": "",
        "BHGPHGNFCBF": ""
      }
    ],
    [
      {
        "$type": "MJFAIFFAGOF",
        "type": "DIALOG",
        "aliasList": [
          "1005"
        ],
        "dialogID": 705160701,
        "protectTime": 0.5
      },
      {
        "$type": "EDCHPJLDKIN",
        "type": "BODY_LANG",
        "aliasList": [
          "1005"
        ],
        "actionId": 151,
        "bodyLangParam": 1090,
        "forceDoFreeStyle": true,
        "canDoRepeatFreeStyle": false,
        "eventPatternSuiteKey": ""
      },
      {
        "$type": "ICHLNKHGCAG",
        "type": "EMO_SYNC",
        "aliasList": [
          "1005"
        ],
        "dataPath": "Cs_Emo_Avatar_Simple_Common_Set/Cs_Emo_Avatar_Talk/Cs_Emo_Avatar_Event/Cs_Emo_HuangYingXinLiu/Cs_Emo_705160701",
        "phonemePath": "",
        "emotionPath": "",
        "mateDataPath": "",
        "matePhonemePath": "",
        "mateEmotionPath": "",
        "dataPathHashList": [
          3884241333481728791,
          5072705924388483960,
          3544784667710508769,
          13099072095782650365
        ],
        "PACNIGOOENN": "",
        "PIBDNPHIAGC": ""
      }
    ],
    [
      {
        "$type": "MJFAIFFAGOF",
        "type": "DIALOG",
        "aliasList": [
          "1005"
        ],
        "dialogID": 705160702,
        "protectTime": 1.0019999742507935
      },
      {
        "$type": "EDCHPJLDKIN",
        "type": "BODY_LANG",
        "aliasList": [
          "1005"
        ],
        "actionId": 152,
        "isContinue": true,
        "forceDoFreeStyle": true,
        "canDoRepeatFreeStyle": false,
        "eventPatternSuiteKey": ""
      },
      {
        "$type": "ICHLNKHGCAG",
        "type": "EMO_SYNC",
        "aliasList": [
          "1005"
        ],
        "dataPath": "Cs_Emo_Avatar_Simple_Common_Set/Cs_Emo_Avatar_Talk/Cs_Emo_Avatar_Event/Cs_Emo_HuangYingXinLiu/Cs_Emo_705160702",
        "phonemePath": "",
        "emotionPath": "",
        "mateDataPath": "",
        "matePhonemePath": "",
        "mateEmotionPath": "",
        "dataPathHashList": [
          17418553204388245092,
          7506524679153418772,
          15978311473082129524,
          13929981415078811671
        ],
        "PACNIGOOENN": "",
        "PIBDNPHIAGC": ""
      },
      {
        "$type": "OBCDECFOOBC",
        "type": "DIALOG_SELECT",
        "delayTime": 0.640999972820282,
        "aliasList": [
          "Avatar"
        ],
        "dialogIDList": [
          705160703,
          705160709,
          705160714
        ],
        "grpIDList": [
          511200922,
          2962326649,
          2962326655
        ],
        "useGrpId": true
      }
    ],
    [
      {
        "$type": "MJFAIFFAGOF",
        "type": "DIALOG",
        "aliasList": [
          "30192"
        ],
        "dialogID": 705160704,
        "protectTime": 0.5
      }
    ],
    [
      {
        "$type": "MJFAIFFAGOF",
        "type": "DIALOG",
        "aliasList": [
          "30192"
        ],
        "dialogID": 705160705,
        "protectTime": 0.5
      }
    ],
    [
      {
        "$type": "MJFAIFFAGOF",
        "type": "DIALOG",
        "aliasList": [
          "30192"
        ],
        "dialogID": 705160706,
        "protectTime": 0.5
      }
    ],
    [
      {
        "$type": "MJFAIFFAGOF",
        "type": "DIALOG",
        "aliasList": [
          "30192"
        ],
        "dialogID": 705160707,
        "protectTime": 0.5
      }
    ],
    [
      {
        "$type": "MJFAIFFAGOF",
        "type": "DIALOG",
        "aliasList": [
          "30192"
        ],
        "dialogID": 705160708,
        "protectTime": 0.5
      }
    ],
    [
      {
        "$type": "MJFAIFFAGOF",
        "type": "DIALOG",
        "aliasList": [
          "30192"
        ],
        "dialogID": 705160720,
        "protectTime": 0.5
      }
    ],
    [
      {
        "$type": "MJFAIFFAGOF",
        "type": "DIALOG",
        "aliasList": [
          "30192"
        ],
        "dialogID": 705160710,
        "protectTime": 0.5
      }
    ],
    [
      {
        "$type": "MJFAIFFAGOF",
        "type": "DIALOG",
        "aliasList": [
          "30192"
        ],
        "dialogID": 705160711,
        "protectTime": 0.5
      }
    ],
    [
      {
        "$type": "MJFAIFFAGOF",
        "type": "DIALOG",
        "aliasList": [
          "30192"
        ],
        "dialogID": 705160712,
        "protectTime": 0.5
      }
    ],
    [
      {
        "$type": "MJFAIFFAGOF",
        "type": "DIALOG",
        "aliasList": [
          "30192"
        ],
        "dialogID": 705160713,
        "protectTime": 0.5
      }
    ],
    [
      {
        "$type": "MJFAIFFAGOF",
        "type": "DIALOG",
        "aliasList": [
          "30192"
        ],
        "dialogID": 705160721,
        "protectTime": 0.5
      }
    ],
    [
      {
        "$type": "MJFAIFFAGOF",
        "type": "DIALOG",
        "aliasList": [
          "30192"
        ],
        "dialogID": 705160722,
        "protectTime": 0.5
      }
    ],
    [
      {
        "$type": "MJFAIFFAGOF",
        "type": "DIALOG",
        "aliasList": [
          "30192"
        ],
        "dialogID": 705160715,
        "protectTime": 0.5
      }
    ],
    [
      {
        "$type": "MJFAIFFAGOF",
        "type": "DIALOG",
        "aliasList": [
          "30192"
        ],
        "dialogID": 705160716,
        "protectTime": 0.5
      }
    ],
    [
      {
        "$type": "MJFAIFFAGOF",
        "type": "DIALOG",
        "aliasList": [
          "30192"
        ],
        "dialogID": 705160717,
        "protectTime": 0.5
      }
    ],
    [
      {
        "$type": "MJFAIFFAGOF",
        "type": "DIALOG",
        "aliasList": [
          "30192"
        ],
        "dialogID": 705160718,
        "protectTime": 0.5
      }
    ],
    [
      {
        "$type": "MJFAIFFAGOF",
        "type": "DIALOG",
        "aliasList": [
          "30192"
        ],
        "dialogID": 705160719,
        "protectTime": 0.5
      }
    ],
    [
      {
        "$type": "MoleMole.Config.ConfigTimeProtectAction",
        "type": "TIME_PROTECT",
        "duration": 0.10000000149011612
      }
    ],
    [
      {
        "$type": "MoleMole.Config.ConfigTimeProtectAction",
        "type": "TIME_PROTECT",
        "duration": 0.10000000149011612
      },
      {
        "$type": "MoleMole.Config.ConfigVisibleInterAction",
        "type": "VISIBLE",
        "aliasList": [
          "30192"
        ],
        "_extraParam": ""
      }
    ]
  ],
  "groupId": [
    {
      "grpId": 511200919,
      "nextGrpId": 511200920
    },
    {
      "index": 1,
      "grpId": 511200920,
      "nextGrpId": 511200921
    },
    {
      "index": 2,
      "grpId": 511200921,
      "nextGrpId": 511200922
    },
    {
      "index": 3,
      "grpId": 511200922,
      "nextGrpId": 511200923
    },
    {
      "index": 4,
      "grpId": 511200923,
      "nextGrpId": 511200924
    },
    {
      "index": 5,
      "grpId": 511200924,
      "nextGrpId": 511200925
    },
    {
      "index": 6,
      "grpId": 511200925,
      "nextGrpId": 511200926
    },
    {
      "index": 7,
      "grpId": 511200926,
      "nextGrpId": 511200927
    },
    {
      "index": 8,
      "grpId": 511200927,
      "nextGrpId": 2962326681
    },
    {
      "index": 9,
      "grpId": 2962326649,
      "nextGrpId": 2962326650
    },
    {
      "index": 10,
      "grpId": 2962326650,
      "nextGrpId": 2962326651
    },
    {
      "index": 11,
      "grpId": 2962326651,
      "nextGrpId": 2962326652
    },
    {
      "index": 12,
      "grpId": 2962326652,
      "nextGrpId": 2962326653
    },
    {
      "index": 13,
      "grpId": 2962326653,
      "nextGrpId": 2962326654
    },
    {
      "index": 14,
      "grpId": 2962326654,
      "nextGrpId": 2962326681
    },
    {
      "index": 15,
      "grpId": 2962326655,
      "nextGrpId": 2962326656
    },
    {
      "index": 16,
      "grpId": 2962326656,
      "nextGrpId": 2962326657
    },
    {
      "index": 17,
      "grpId": 2962326657,
      "nextGrpId": 2962326658
    },
    {
      "index": 18,
      "grpId": 2962326658,
      "nextGrpId": 2962326680
    },
    {
      "index": 19,
      "grpId": 2962326680,
      "nextGrpId": 2962326681
    },
    {
      "index": 20,
      "grpId": 2962326681,
      "nextGrpId": 2962326682
    },
    {
      "index": 21,
      "grpId": 2962326682,
      "nextGrpId": 2962326683
    }
  ]
}