{
  "luaDataPath": "",
  "dontUseDefaultFinish": true,
  "entityBan": "",
  "disableNpcLod": true,
  "isAutoBanNpc": true,
  "isBanWidgetPet": true,
  "protectNpcMobileLod": true,
  "startFade": {
    "startFadeOutDuration": 0.0
  },
  "endFade": {
    "startFadeOutDuration": 0.0
  },
  "actors": [
    {
      "alias": "Avatar",
      "visible": true,
      "bornPointName": "",
      "relativePosNpcAlias": "",
      "_bindMovingTargetKey": ""
    },
    {
      "configID": 30192,
      "alias": "30192",
      "visible": true,
      "bornPointName": "",
      "relativePosNpcAlias": "",
      "_bindMovingTargetKey": ""
    }
  ],
  "group": [
    [
      {
        "$type": "MoleMole.Config.ConfigTimeProtectAction",
        "type": "TIME_PROTECT",
        "duration": 0.10000000149011612
      }
    ],
    [
      {
        "$type": "MJFAIFFAGOF",
        "type": "DIALOG",
        "aliasList": [
          "30192"
        ],
        "dialogID": 705132202,
        "protectTime": 0.5
      }
    ],
    [
      {
        "$type": "MJFAIFFAGOF",
        "type": "DIALOG",
        "aliasList": [
          "30192"
        ],
        "dialogID": 705132203,
        "protectTime": 0.5
      }
    ],
    [
      {
        "$type": "MJFAIFFAGOF",
        "type": "DIALOG",
        "aliasList": [
          "30192"
        ],
        "dialogID": 705132204,
        "protectTime": 0.5
      }
    ],
    [
      {
        "$type": "MJFAIFFAGOF",
        "type": "DIALOG",
        "aliasList": [
          "30192"
        ],
        "dialogID": 705132205,
        "protectTime": 0.5
      }
    ],
    [
      {
        "$type": "MJFAIFFAGOF",
        "type": "DIALOG",
        "aliasList": [
          "30192"
        ],
        "dialogID": 705132206,
        "protectTime": 0.5
      }
    ],
    [
      {
        "$type": "MJFAIFFAGOF",
        "type": "DIALOG",
        "aliasList": [
          "30192"
        ],
        "dialogID": 705132207,
        "protectTime": 0.5
      }
    ],
    [
      {
        "$type": "MJFAIFFAGOF",
        "type": "DIALOG",
        "aliasList": [
          "30192"
        ],
        "dialogID": 705132208,
        "protectTime": 0.5
      }
    ],
    [
      {
        "$type": "MJFAIFFAGOF",
        "type": "DIALOG",
        "aliasList": [
          "30192"
        ],
        "dialogID": 705132209,
        "protectTime": 0.5
      }
    ],
    [
      {
        "$type": "MJFAIFFAGOF",
        "type": "DIALOG",
        "aliasList": [
          "30192"
        ],
        "dialogID": 705132210,
        "protectTime": 0.5
      }
    ],
    [
      {
        "$type": "MJFAIFFAGOF",
        "type": "DIALOG",
        "aliasList": [
          "30192"
        ],
        "dialogID": 705132211,
        "protectTime": 0.5
      }
    ],
    [
      {
        "$type": "MJFAIFFAGOF",
        "type": "DIALOG",
        "aliasList": [
          "30192"
        ],
        "dialogID": 705132212,
        "protectTime": 0.5
      }
    ],
    [
      {
        "$type": "MoleMole.Config.ConfigTimeProtectAction",
        "type": "TIME_PROTECT",
        "duration": 0.10000000149011612
      }
    ]
  ],
  "groupId": [
    {
      "grpId": 511231671,
      "nextGrpId": 511231672
    },
    {
      "index": 1,
      "grpId": 511231672,
      "nextGrpId": 511231673
    },
    {
      "index": 2,
      "grpId": 511231673,
      "nextGrpId": 511231674
    },
    {
      "index": 3,
      "grpId": 511231674,
      "nextGrpId": 511231675
    },
    {
      "index": 4,
      "grpId": 511231675,
      "nextGrpId": 511231676
    },
    {
      "index": 5,
      "grpId": 511231676,
      "nextGrpId": 511231677
    },
    {
      "index": 6,
      "grpId": 511231677,
      "nextGrpId": 511231678
    },
    {
      "index": 7,
      "grpId": 511231678,
      "nextGrpId": 511231679
    },
    {
      "index": 8,
      "grpId": 511231679,
      "nextGrpId": 2963279961
    },
    {
      "index": 9,
      "grpId": 2963279961,
      "nextGrpId": 2963279962
    },
    {
      "index": 10,
      "grpId": 2963279962,
      "nextGrpId": 2963279963
    },
    {
      "index": 11,
      "grpId": 2963279963,
      "nextGrpId": 2963279964
    },
    {
      "index": 12,
      "grpId": 2963279964,
      "nextGrpId": 2963279965
    }
  ]
}