{
  "Nahida_ExtraAttack_Gadget": {
    "$type": "PAAKDFFLFIN",
    "common": {
      "effectAttachShape": {
        "$type": "AFBBHIMPGKH"
      }
    },
    "combat": {
      "property": {
        "useCreatorProperty": true,
        "hp": 99999.0,
        "defense": 99999.0,
        "isInvincible": true,
        "isGhostToAllied": true,
        "isGhostToEnemy": true
      },
      "beHit": {
        "hitBloodEffect": "",
        "muteAllHit": true,
        "muteAllHitEffect": true,
        "muteAllHitText": true
      },
      "combatLock": {
        "lockShape": "CircleLockEnemy",
        "denyLockOn": true,
        "lockType": "Gadget_Lv1"
      }
    },
    "combatTemplate": "",
    "abilities": [
      {
        "abilityID": "Avatar_Nahida_ExtraAttack_Gadget",
        "abilityName": "Avatar_Nahida_ExtraAttack_Gadget",
        "abilityOverride": ""
      }
    ],
    "timer": {
      "lifeTime": 2.0
    }
  },
  "Nahida_ElementalBurst_Hollow": {
    "$type": "PAAKDFFLFIN",
    "common": {
      "effectAttachShape": {
        "$type": "AFBBHIMPGKH"
      }
    },
    "combat": {
      "property": {
        "useCreatorProperty": true,
        "hp": 99999.0,
        "defense": 99999.0,
        "isInvincible": true,
        "isGhostToAllied": true,
        "isGhostToEnemy": true
      },
      "beHit": {
        "hitBloodEffect": "",
        "muteAllHit": true,
        "muteAllHitEffect": true,
        "muteAllHitText": true
      },
      "combatLock": {
        "lockShape": "CircleLockEnemy",
        "denyLockOn": true,
        "lockType": "Gadget_Lv1"
      }
    },
    "combatTemplate": "",
    "abilities": [
      {
        "abilityID": "Avatar_Nahida_ElementalBurst_Hollow_Gadget",
        "abilityName": "Avatar_Nahida_ElementalBurst_Hollow_Gadget",
        "abilityOverride": ""
      }
    ],
    "field": {
      "concernType": "AllTeams",
      "shape": "CircleR20H20",
      "fromShape": "",
      "triggerInfinite": true,
      "checkInterval": 0.029999999329447746,
      "lifeTime": 25.0,
      "useCollider": false,
      "colliderName": "",
      "fromColliderName": ""
    },
    "timer": {
      "lifeTime": 25.0
    }
  }
}