{
  "FlightGear_Normal_01": {
    "$type": "PAAKDFFLFIN",
    "common": {
      "effectAttachShape": {
        "$type": "AFBBHIMPGKH"
      },
      "mass": 10.0
    },
    "specialPoint": {
      "elementAbsorb": "RootNode",
      "elementPendant": "",
      "elementDrop": "RootNode",
      "bulletAim": "BulletAim"
    },
    "hasModel": true,
    "combat": {
      "property": {
        "hp": 10000.0,
        "attack": 100.0,
        "weight": 500.0,
        "denyElementStick": true
      },
      "combatLock": {
        "lockShape": "CircleLockEnemy",
        "lockType": "Gadget_Lv1"
      },
      "die": {
        "dieForceDisappearTime": 0.0,
        "dieDisappearEffect": ""
      }
    },
    "combatTemplate": "",
    "abilities": [
      {
        "abilityID": "Vehicle_FlightGear_Normal_01",
        "abilityName": "Vehicle_FlightGear_Normal_01",
        "abilityOverride": ""
      },
      {
        "abilityID": "Vehicle_Sorush_AutoHeal",
        "abilityName": "Vehicle_Sorush_AutoHeal",
        "abilityOverride": ""
      },
      {
        "abilityID": "SorushStatue_WithOutAvatar",
        "abilityName": "SorushStatue_WithOutAvatar",
        "abilityOverride": ""
      },
      {
        "abilityID": "SorushStatue_WithAvatar",
        "abilityName": "SorushStatue_WithAvatar",
        "abilityOverride": ""
      },
      {
        "abilityID": "Vehicle_Sorush_ActionSkill",
        "abilityName": "Vehicle_Sorush_ActionSkill",
        "abilityOverride": ""
      },
      {
        "abilityID": "Vehicle_Sorush_ChargeSkill",
        "abilityName": "Vehicle_Sorush_ChargeSkill",
        "abilityOverride": ""
      },
      {
        "abilityID": "Vehicle_Sorush_GrapplingHookSkill",
        "abilityName": "Vehicle_Sorush_GrapplingHookSkill",
        "abilityOverride": ""
      },
      {
        "abilityID": "ActivityAbility_Hitman_Sorush_FireBomb",
        "abilityName": "ActivityAbility_Hitman_Sorush_FireBomb",
        "abilityOverride": ""
      },
      {
        "abilityID": "Vehicle_Sorush_HookPoint_DropHandler",
        "abilityName": "Vehicle_Sorush_HookPoint_DropHandler",
        "abilityOverride": ""
      }
    ],
    "field": {
      "concernType": "AllAvatars",
      "shape": "CircleR4",
      "fromShape": "",
      "triggerInfinite": true,
      "lifeInfinite": true,
      "checkInterval": 0.5,
      "colliderName": "",
      "fromColliderName": ""
    },
    "move": {
      "$type": "GIAEFHAAGKH"
    },
    "gadget": {
      "$type": "BCODFCEBNJN"
    },
    "stateLayers": {
      "defaultLayer": {
        "$type": "AEMHOACJLIB",
        "layerIndexName": "",
        "GCIDDLIDFAE": "",
        "stateIDs": {
          "Born": {
            "$type": "BCNJGNDHFGP",
            "animatorStates": {
              "Born": []
            },
            "canDoSkill": true,
            "massRatio": 10000.0,
            "animatorTriggerOnLanded": ""
          },
          "Idle": {
            "$type": "BCNJGNDHFGP",
            "animatorStates": {
              "Idle": []
            },
            "canDoSkill": true,
            "massRatio": 100.0,
            "animatorTriggerOnLanded": ""
          },
          "Move": {
            "$type": "BCNJGNDHFGP",
            "animatorStates": {
              "Move": []
            },
            "canDoSkill": true,
            "massRatio": 1.0,
            "animatorTriggerOnLanded": ""
          },
          "Sprint": {
            "$type": "BCNJGNDHFGP",
            "animatorStates": {
              "Sprint": []
            },
            "canDoSkill": true,
            "massRatio": 1.0,
            "animatorTriggerOnLanded": ""
          },
          "ActionSkill_BS": {
            "$type": "BCNJGNDHFGP",
            "animatorStates": {
              "Skill_BS": [
                "Sorush_Skill_BS"
              ]
            },
            "canDoSkill": true,
            "massRatio": 100.0,
            "animatorTriggerOnLanded": ""
          },
          "ActionSkill_Loop": {
            "$type": "BCNJGNDHFGP",
            "animatorStates": {
              "Skill_Loop": []
            },
            "canDoSkill": true,
            "massRatio": 100.0,
            "animatorTriggerOnLanded": ""
          },
          "ActionSkill_AS": {
            "$type": "BCNJGNDHFGP",
            "animatorStates": {
              "Skill_AS": []
            },
            "canDoSkill": true,
            "massRatio": 100.0,
            "animatorTriggerOnLanded": ""
          },
          "FastSkill": {
            "$type": "BCNJGNDHFGP",
            "animatorStates": {
              "FastSkill": [
                "Sorush_FastSkill"
              ]
            },
            "canDoSkill": true,
            "massRatio": 1.0,
            "animatorTriggerOnLanded": ""
          },
          "ChargeSkill": {
            "$type": "BCNJGNDHFGP",
            "animatorStates": {
              "ChargeSkill": []
            },
            "canDoSkill": true,
            "massRatio": 1.0,
            "animatorTriggerOnLanded": ""
          }
        }
      }
    },
    "audio": {
      "$type": "JKKKIPPOPJL",
      "overrideEmitterName": "",
      "collisionEvent": {
        "text": "Play_amb_sceneObj_Boat_Impact"
      },
      "maxVelocity": 6.0,
      "collisionAudioTriggerCooldown": 100,
      "collisionAudioTriggerThreshold": 0.10000000149011612
    },
    "vehicle": {
      "vehicleType": "Sorush",
      "playMode": "Vehicle_Sorush",
      "cameraMode": "",
      "maxSeatCount": 1,
      "seats": [
        {
          "attachTo": "AvatarSeat",
          "optionID": 1001
        }
      ],
      "defaultLevel": 30,
      "serverBuffId": 600301,
      "stamina": {
        "staminaUpperLimit": 240.0,
        "staminaRecoverSpeed": 25.0,
        "staminaRecoverWaitTime": 1.5,
        "extraStaminaUpperLimit": 200.0,
        "sprintStaminaCost": 1.0,
        "dashStaminaCost": 10.199999809265137
      },
      "minDitherDis": 1.0,
      "maxDitherDis": 1.5,
      "showInteraction": false,
      "muteControlStates": [
        "Born",
        "Skill_BS",
        "Skill_Loop",
        "Skill_AS"
      ]
    }
  }
}