{
  "Brute_DoubleSmash_RockWave": {
    "$type": "PAAKDFFLFIN",
    "common": {
      "effectAttachShape": {
        "$type": "AFBBHIMPGKH"
      }
    },
    "combat": {
      "property": {
        "useCreatorProperty": true,
        "hp": 999999.0,
        "attack": 10.0,
        "defense": 999999.0,
        "isInvincible": true,
        "isGhostToAllied": true,
        "isGhostToEnemy": true
      },
      "beHit": {
        "hitBloodEffect": "",
        "muteAllHit": true,
        "muteAllHitEffect": true,
        "muteAllHitText": true
      },
      "combatLock": {
        "lockShape": "CircleLockEnemy",
        "denyLockOn": true,
        "lockType": "Default"
      }
    },
    "combatTemplate": "",
    "abilities": [
      {
        "abilityID": "Brute_Rock_EarthWavePointAttack",
        "abilityName": "Brute_Rock_EarthWavePointAttack",
        "abilityOverride": ""
      }
    ],
    "timer": {
      "lifeTime": 0.6000000238418579
    },
    "move": {
      "$type": "AHGMNDFKPGD",
      "speed": 15.0,
      "stickToGround": {
        "maxStepHeight": 4.0,
        "maxSlopeAngle": 30.0,
        "heightToGround": 0.5,
        "flexibleRange": 0.10000000149011612,
        "unstickWhenDownSlide": "Keep",
        "unstickWhenUpSlide": "Keep"
      }
    },
    "gadget": {
      "$type": "INBEOAJKHGD",
      "collision": {
        "triggerType": "TriggerNoRepeat",
        "targetType": "Enemy",
        "ignoreScene": true
      }
    }
  },
  "Brute_RockWave": {
    "$type": "PAAKDFFLFIN",
    "common": {
      "effectAttachShape": {
        "$type": "AFBBHIMPGKH"
      }
    },
    "combat": {
      "property": {
        "useCreatorProperty": true,
        "hp": 999999.0,
        "attack": 10.0,
        "defense": 999999.0,
        "isInvincible": true,
        "isGhostToAllied": true,
        "isGhostToEnemy": true
      },
      "beHit": {
        "hitBloodEffect": "",
        "muteAllHit": true,
        "muteAllHitEffect": true,
        "muteAllHitText": true
      },
      "combatLock": {
        "lockShape": "CircleLockEnemy",
        "denyLockOn": true,
        "lockType": "Default"
      }
    },
    "combatTemplate": "",
    "abilities": [
      {
        "abilityID": "Brute_Rock_EarthWavePointAttack",
        "abilityName": "Brute_Rock_EarthWavePointAttack",
        "abilityOverride": ""
      }
    ],
    "timer": {
      "lifeTime": 1.0
    },
    "move": {
      "$type": "AHGMNDFKPGD",
      "speed": 15.0,
      "stickToGround": {
        "maxStepHeight": 4.0,
        "maxSlopeAngle": 90.0,
        "heightToGround": 0.5,
        "flexibleRange": 0.10000000149011612,
        "unstickWhenDownSlide": "Keep",
        "unstickWhenUpSlide": "Keep"
      }
    },
    "gadget": {
      "$type": "INBEOAJKHGD",
      "collision": {
        "triggerType": "TriggerNoRepeat",
        "targetType": "Enemy",
        "ignoreScene": true
      }
    },
    "audio": {
      "$type": "EJBGPCDMPHN",
      "overrideEmitterName": "",
      "animAudio": {},
      "enableEvent": {
        "text": "Play_sfx_monster_brute_rock_power_jumpAtk_explode_expand"
      },
      "disableEvent": {
        "text": ""
      },
      "destroyEvent": {
        "text": ""
      }
    }
  },
  "Brute_RockWaveFinal": {
    "$type": "PAAKDFFLFIN",
    "common": {
      "effectAttachShape": {
        "$type": "AFBBHIMPGKH"
      }
    },
    "combat": {
      "property": {
        "useCreatorProperty": true,
        "hp": 999999.0,
        "attack": 10.0,
        "defense": 999999.0,
        "isInvincible": true,
        "isGhostToAllied": true,
        "isGhostToEnemy": true
      },
      "beHit": {
        "hitBloodEffect": "",
        "muteAllHit": true,
        "muteAllHitEffect": true,
        "muteAllHitText": true
      },
      "combatLock": {
        "lockShape": "CircleLockEnemy",
        "denyLockOn": true,
        "lockType": "Default"
      }
    },
    "combatTemplate": "",
    "abilities": [
      {
        "abilityID": "Brute_Rock_EarthWavePointAttack",
        "abilityName": "Brute_Rock_EarthWavePointAttack_Final",
        "abilityOverride": ""
      }
    ],
    "timer": {
      "lifeTime": 1.0
    },
    "move": {
      "$type": "AHGMNDFKPGD",
      "speed": 30.0,
      "stickToGround": {
        "maxStepHeight": 4.0,
        "maxSlopeAngle": 90.0,
        "heightToGround": 0.5,
        "flexibleRange": 0.10000000149011612,
        "unstickWhenDownSlide": "Keep",
        "unstickWhenUpSlide": "Keep"
      }
    },
    "gadget": {
      "$type": "INBEOAJKHGD",
      "collision": {
        "triggerType": "TriggerNoRepeat",
        "targetType": "Enemy",
        "ignoreScene": true
      }
    },
    "audio": {
      "$type": "EJBGPCDMPHN",
      "overrideEmitterName": "",
      "animAudio": {},
      "enableEvent": {
        "text": "Play_sfx_monster_brute_rock_power_thumpEarth03_expand"
      },
      "disableEvent": {
        "text": ""
      },
      "destroyEvent": {
        "text": ""
      }
    }
  },
  "Brute_Rock_BigSlime": {
    "$type": "PAAKDFFLFIN",
    "common": {
      "effectAttachShape": {
        "$type": "AFBBHIMPGKH"
      },
      "affectedByWorld": true,
      "checkInSurface": true
    },
    "combat": {
      "property": {
        "useCreatorProperty": true,
        "hp": 999999.0,
        "attack": 15.0,
        "defense": 999999.0,
        "weight": 60.0,
        "isLockHP": true,
        "canTriggerBullet": false
      },
      "combatLock": {
        "lockShape": "CircleLockEnemy",
        "denyLockOn": true,
        "lockType": "Default"
      }
    },
    "combatTemplate": "",
    "abilities": [
      {
        "abilityID": "RockSlime_Explode",
        "abilityName": "Brute_Rock_BigSlime_Explode",
        "abilityOverride": ""
      }
    ],
    "timer": {
      "lifeTime": 10.0
    },
    "move": {
      "$type": "EBELDBHINMB",
      "speed": 40.0,
      "LADLDOGAMLI": {
        "$type": "GLPIGCIKICP"
      },
      "syncToRemote": true,
      "angleOffHor": 60.0,
      "gravityOfAcceleration": 40.0,
      "correction": {
        "$type": "ELDDGNNGEAK",
        "deviation": 1.0,
        "fixAngleOfVer": 5.0,
        "minSpeed": 4.0,
        "maxSpeed": 40.0
      }
    },
    "gadget": {
      "$type": "INBEOAJKHGD",
      "collision": {
        "targetType": "Enemy",
        "bornWithTriggerEnabled": false
      },
      "triggerActions": [
        {
          "$type": "HEAANEHEBIK",
          "abilityName": "Brute_Rock_BigSlime_Explode"
        }
      ]
    }
  },
  "Brute_Rock_SmallSlime": {
    "$type": "PAAKDFFLFIN",
    "common": {
      "effectAttachShape": {
        "$type": "AFBBHIMPGKH"
      },
      "affectedByWorld": true,
      "checkInSurface": true
    },
    "combat": {
      "property": {
        "useCreatorProperty": true,
        "hp": 999999.0,
        "attack": 15.0,
        "defense": 999999.0,
        "weight": 60.0,
        "isLockHP": true,
        "canTriggerBullet": false
      },
      "combatLock": {
        "lockShape": "CircleLockEnemy",
        "denyLockOn": true,
        "lockType": "Default"
      }
    },
    "combatTemplate": "",
    "abilities": [
      {
        "abilityID": "RockSlime_Explode",
        "abilityName": "Brute_Rock_SmallSlime_Explode",
        "abilityOverride": ""
      }
    ],
    "timer": {
      "lifeTime": 5.0
    },
    "move": {
      "$type": "EBELDBHINMB",
      "speed": 30.0,
      "LADLDOGAMLI": {
        "$type": "GLPIGCIKICP"
      },
      "syncToRemote": true,
      "angleOffHor": 60.0,
      "gravityOfAcceleration": 40.0,
      "correction": {
        "$type": "ELDDGNNGEAK",
        "deviation": 5.0,
        "fixAngleOfVer": 15.0,
        "minSpeed": 6.0,
        "maxSpeed": 24.0
      }
    },
    "gadget": {
      "$type": "INBEOAJKHGD",
      "collision": {
        "targetType": "Enemy",
        "bornWithTriggerEnabled": false
      },
      "triggerActions": [
        {
          "$type": "HEAANEHEBIK",
          "abilityName": "Brute_Rock_SmallSlime_Explode"
        }
      ]
    }
  },
  "Brute_Ice_BigSlime": {
    "$type": "PAAKDFFLFIN",
    "common": {
      "effectAttachShape": {
        "$type": "AFBBHIMPGKH"
      },
      "affectedByWorld": true,
      "checkInSurface": true
    },
    "combat": {
      "property": {
        "useCreatorProperty": true,
        "hp": 999999.0,
        "attack": 15.0,
        "defense": 999999.0,
        "weight": 60.0,
        "isLockHP": true,
        "canTriggerBullet": false
      },
      "combatLock": {
        "lockShape": "CircleLockEnemy",
        "denyLockOn": true,
        "lockType": "Default"
      }
    },
    "combatTemplate": "",
    "abilities": [
      {
        "abilityID": "Slime_Explode",
        "abilityName": "Monster_Brute_Ice_BigSlime_Explode",
        "abilityOverride": ""
      }
    ],
    "timer": {
      "lifeTime": 10.0
    },
    "move": {
      "$type": "EBELDBHINMB",
      "speed": 40.0,
      "LADLDOGAMLI": {
        "$type": "GLPIGCIKICP"
      },
      "syncToRemote": true,
      "angleOffHor": 60.0,
      "gravityOfAcceleration": 40.0,
      "correction": {
        "$type": "ELDDGNNGEAK",
        "deviation": 1.0,
        "fixAngleOfVer": 5.0,
        "minSpeed": 4.0,
        "maxSpeed": 40.0
      }
    },
    "gadget": {
      "$type": "INBEOAJKHGD",
      "collision": {
        "targetType": "Enemy",
        "bornWithTriggerEnabled": false
      },
      "triggerActions": [
        {
          "$type": "HEAANEHEBIK",
          "abilityName": "Monster_Brute_Ice_BigSlime_Explode"
        }
      ]
    }
  },
  "Brute_Ice_SmallSlime": {
    "$type": "PAAKDFFLFIN",
    "common": {
      "effectAttachShape": {
        "$type": "AFBBHIMPGKH"
      },
      "affectedByWorld": true,
      "checkInSurface": true
    },
    "combat": {
      "property": {
        "useCreatorProperty": true,
        "hp": 999999.0,
        "attack": 15.0,
        "defense": 999999.0,
        "weight": 60.0,
        "isLockHP": true,
        "canTriggerBullet": false
      },
      "combatLock": {
        "lockShape": "CircleLockEnemy",
        "denyLockOn": true,
        "lockType": "Default"
      }
    },
    "combatTemplate": "",
    "abilities": [
      {
        "abilityID": "Slime_Explode",
        "abilityName": "Monster_Brute_Ice_SmallSlime_Explode",
        "abilityOverride": ""
      }
    ],
    "timer": {
      "lifeTime": 5.0
    },
    "move": {
      "$type": "EBELDBHINMB",
      "speed": 30.0,
      "LADLDOGAMLI": {
        "$type": "GLPIGCIKICP"
      },
      "syncToRemote": true,
      "angleOffHor": 60.0,
      "gravityOfAcceleration": 40.0,
      "correction": {
        "$type": "ELDDGNNGEAK",
        "deviation": 5.0,
        "fixAngleOfVer": 15.0,
        "minSpeed": 6.0,
        "maxSpeed": 24.0
      }
    },
    "gadget": {
      "$type": "INBEOAJKHGD",
      "collision": {
        "targetType": "Enemy",
        "bornWithTriggerEnabled": false
      },
      "triggerActions": [
        {
          "$type": "HEAANEHEBIK",
          "abilityName": "Monster_Brute_Ice_SmallSlime_Explode"
        }
      ]
    }
  },
  "Brute_Ice_IceSpear": {
    "$type": "PAAKDFFLFIN",
    "common": {
      "effectAttachShape": {
        "$type": "AFBBHIMPGKH"
      }
    },
    "combat": {
      "property": {
        "useCreatorProperty": true,
        "hp": 999999.0,
        "attack": 10.0,
        "defense": 999999.0,
        "isInvincible": true,
        "isGhostToAllied": true,
        "isGhostToEnemy": true
      },
      "beHit": {
        "hitBloodEffect": "",
        "muteAllHit": true,
        "muteAllHitEffect": true,
        "muteAllHitText": true
      },
      "combatLock": {
        "lockShape": "CircleLockEnemy",
        "denyLockOn": true,
        "lockType": "Default"
      }
    },
    "combatTemplate": "",
    "abilities": [
      {
        "abilityID": "Monster_Brute_Ice_IceSpearExplode",
        "abilityName": "Monster_Brute_Ice_IceSpearExplode",
        "abilityOverride": ""
      }
    ],
    "timer": {
      "lifeTime": 0.5
    },
    "move": {
      "$type": "AHGMNDFKPGD",
      "speed": 30.0
    },
    "gadget": {
      "$type": "INBEOAJKHGD",
      "collision": {
        "triggerType": "TriggerNoRepeat",
        "targetType": "Enemy",
        "ignoreScene": true
      },
      "triggerActions": [
        {
          "$type": "HEAANEHEBIK",
          "abilityName": "Monster_Brute_Ice_IceSpearExplode"
        }
      ],
      "triggerLifeOverActions": [
        {
          "$type": "HEAANEHEBIK",
          "abilityName": "Monster_Brute_Ice_IceSpearExplode"
        }
      ]
    }
  },
  "Brute_Ice_IceArea": {
    "$type": "PAAKDFFLFIN",
    "combat": {
      "property": {
        "useCreatorProperty": true,
        "hp": 1000000.0,
        "attack": 10.0,
        "isGhostToAllied": true,
        "isGhostToEnemy": true,
        "canTriggerBullet": false
      },
      "combatLock": {
        "lockShape": "CircleLockEnemy",
        "denyLockOn": true,
        "lockType": "Gadget_Lv1"
      }
    },
    "combatTemplate": "",
    "abilities": [
      {
        "abilityID": "Monster_Brute_Ice_IceArea",
        "abilityName": "Monster_Brute_Ice_IceArea",
        "abilityOverride": ""
      }
    ],
    "timer": {
      "lifeTime": 10.0
    }
  },
  "Brute_Ice_Crystal": {
    "$type": "PAAKDFFLFIN",
    "common": {
      "effectAttachShape": {
        "$type": "AFBBHIMPGKH"
      }
    },
    "combat": {
      "property": {
        "useCreatorProperty": true,
        "hp": 999999.0,
        "attack": 10.0,
        "defense": 999999.0,
        "isInvincible": true,
        "isGhostToAllied": true,
        "isGhostToEnemy": true
      },
      "beHit": {
        "hitBloodEffect": "",
        "muteAllHit": true,
        "muteAllHitEffect": true,
        "muteAllHitText": true
      },
      "combatLock": {
        "lockShape": "CircleLockEnemy",
        "denyLockOn": true,
        "lockType": "Default"
      }
    },
    "combatTemplate": "",
    "abilities": [
      {
        "abilityID": "Monster_Brute_Ice_CrystalExplode",
        "abilityName": "Monster_Brute_Ice_CrystalExplode",
        "abilityOverride": ""
      }
    ],
    "timer": {
      "lifeTime": 5.0
    },
    "move": {
      "$type": "AHGMNDFKPGD"
    },
    "gadget": {
      "$type": "INBEOAJKHGD",
      "collision": {
        "targetType": "Enemy",
        "ignoreScene": true
      },
      "triggerActions": [
        {
          "$type": "HEAANEHEBIK",
          "abilityName": "Monster_Brute_Ice_CrystalExplode"
        }
      ],
      "triggerLifeOverActions": [
        {
          "$type": "HEAANEHEBIK",
          "abilityName": "Monster_Brute_Ice_CrystalExplode"
        }
      ]
    }
  },
  "Brute_Axe_FireWave01": {
    "$type": "PAAKDFFLFIN",
    "common": {
      "effectAttachShape": {
        "$type": "AFBBHIMPGKH"
      }
    },
    "combat": {
      "property": {
        "useCreatorProperty": true,
        "hp": 999999.0,
        "attack": 15.0,
        "defense": 999999.0,
        "isInvincible": true,
        "isGhostToAllied": true,
        "isGhostToEnemy": true,
        "canTriggerBullet": false
      },
      "beHit": {
        "hitBloodEffect": "",
        "muteAllHit": true,
        "muteAllHitEffect": true,
        "muteAllHitText": true
      },
      "combatLock": {
        "lockShape": "CircleLockEnemy",
        "denyLockOn": true,
        "lockType": "Default"
      }
    },
    "combatTemplate": "",
    "abilities": [
      {
        "abilityID": "FireWave01_Wave",
        "abilityName": "Brute_Axe_FireWave01_Wave",
        "abilityOverride": ""
      }
    ],
    "timer": {
      "lifeTime": 2.0
    },
    "move": {
      "$type": "AHGMNDFKPGD",
      "speed": 10.0
    },
    "gadget": {
      "$type": "INBEOAJKHGD",
      "collision": {
        "triggerType": "TriggerNoRepeat",
        "targetType": "Enemy",
        "ignoreScene": true
      },
      "triggerActions": [
        {
          "$type": "HEAANEHEBIK",
          "abilityName": "Brute_Axe_FireWave01_Wave"
        }
      ]
    }
  },
  "Brute_Axe_FireWave02": {
    "$type": "PAAKDFFLFIN",
    "common": {
      "effectAttachShape": {
        "$type": "AFBBHIMPGKH"
      }
    },
    "combat": {
      "property": {
        "useCreatorProperty": true,
        "hp": 999999.0,
        "attack": 15.0,
        "defense": 999999.0,
        "isInvincible": true,
        "isGhostToAllied": true,
        "isGhostToEnemy": true,
        "canTriggerBullet": false
      },
      "beHit": {
        "hitBloodEffect": "",
        "muteAllHit": true,
        "muteAllHitEffect": true,
        "muteAllHitText": true
      },
      "combatLock": {
        "lockShape": "CircleLockEnemy",
        "denyLockOn": true,
        "lockType": "Default"
      }
    },
    "combatTemplate": "",
    "abilities": [
      {
        "abilityID": "FireWave01_Wave",
        "abilityName": "Brute_Axe_FireWave02_Wave",
        "abilityOverride": ""
      }
    ],
    "timer": {
      "lifeTime": 1.0
    },
    "move": {
      "$type": "AHGMNDFKPGD",
      "speed": 8.0
    },
    "gadget": {
      "$type": "INBEOAJKHGD",
      "collision": {
        "triggerType": "TriggerNoRepeat",
        "targetType": "Enemy",
        "ignoreScene": true
      }
    }
  },
  "Brute_Axe_FireSlime_Fire": {
    "$type": "PAAKDFFLFIN",
    "common": {
      "effectAttachShape": {
        "$type": "AFBBHIMPGKH"
      },
      "affectedByWorld": true,
      "checkInSurface": true
    },
    "combat": {
      "property": {
        "useCreatorProperty": true,
        "hp": 999999.0,
        "attack": 15.0,
        "defense": 999999.0,
        "weight": 60.0,
        "isLockHP": true,
        "canTriggerBullet": false
      },
      "combatLock": {
        "lockShape": "CircleLockEnemy",
        "denyLockOn": true,
        "lockType": "Default"
      }
    },
    "combatTemplate": "",
    "abilities": [
      {
        "abilityID": "FireSlime_Fire",
        "abilityName": "Brute_Axe_FireSlime_Fire",
        "abilityOverride": ""
      },
      {
        "abilityID": "FireSlime_Explode",
        "abilityName": "Brute_Axe_FireSlime_Explode",
        "abilityOverride": ""
      }
    ],
    "timer": {
      "lifeTime": 10.0
    },
    "move": {
      "$type": "EBELDBHINMB",
      "speed": 10.0,
      "LADLDOGAMLI": {
        "$type": "GLPIGCIKICP"
      },
      "syncToRemote": true,
      "angleOffHor": 36.0,
      "gravityOfAcceleration": 40.0,
      "correction": {
        "$type": "ELDDGNNGEAK",
        "deviation": 1.5,
        "fixAngleOfVer": 15.0,
        "minSpeed": 4.0,
        "maxSpeed": 24.0
      }
    },
    "gadget": {
      "$type": "INBEOAJKHGD",
      "collision": {
        "targetType": "Enemy"
      },
      "triggerActions": [
        {
          "$type": "HEAANEHEBIK",
          "abilityName": "Brute_Axe_FireSlime_Explode"
        }
      ]
    },
    "audio": {
      "$type": "EJBGPCDMPHN",
      "overrideEmitterName": "",
      "animAudio": {}
    }
  },
  "Brute_Axe_FireSlime_None": {
    "$type": "PAAKDFFLFIN",
    "common": {
      "effectAttachShape": {
        "$type": "AFBBHIMPGKH"
      },
      "affectedByWorld": true,
      "checkInSurface": true
    },
    "combat": {
      "property": {
        "useCreatorProperty": true,
        "hp": 999999.0,
        "attack": 15.0,
        "defense": 999999.0,
        "weight": 60.0,
        "isLockHP": true,
        "canTriggerBullet": false
      },
      "combatLock": {
        "lockShape": "CircleLockEnemy",
        "denyLockOn": true,
        "lockType": "Default"
      }
    },
    "combatTemplate": "",
    "abilities": [
      {
        "abilityID": "FireSlime_Explode",
        "abilityName": "Brute_Axe_FireSlime_Explode",
        "abilityOverride": ""
      }
    ],
    "timer": {
      "lifeTime": 10.0
    },
    "move": {
      "$type": "EBELDBHINMB",
      "speed": 10.0,
      "LADLDOGAMLI": {
        "$type": "GLPIGCIKICP"
      },
      "syncToRemote": true,
      "angleOffHor": 45.0,
      "gravityOfAcceleration": 30.0,
      "correction": {
        "$type": "ELDDGNNGEAK",
        "deviation": 1.5,
        "fixAngleOfVer": 15.0,
        "minSpeed": 4.0,
        "maxSpeed": 24.0
      }
    },
    "gadget": {
      "$type": "INBEOAJKHGD",
      "collision": {
        "targetType": "Enemy"
      },
      "triggerActions": [
        {
          "$type": "HEAANEHEBIK",
          "abilityName": "Brute_Axe_FireSlime_Explode"
        }
      ]
    },
    "audio": {
      "$type": "EJBGPCDMPHN",
      "overrideEmitterName": "",
      "animAudio": {
        "onTransitionOut": [
          {
            "currentStateName": "Throw",
            "audioEvent": {
              "text": "Stop_sfx_monster_brute_axe_throw_slime_lp"
            }
          }
        ]
      }
    }
  },
  "Brute_Shield_GrassSlime": {
    "$type": "PAAKDFFLFIN",
    "common": {
      "effectAttachShape": {
        "$type": "AFBBHIMPGKH"
      },
      "affectedByWorld": true,
      "checkInSurface": true
    },
    "combat": {
      "property": {
        "useCreatorProperty": true,
        "hp": 999999.0,
        "attack": 15.0,
        "defense": 999999.0,
        "weight": 60.0,
        "isLockHP": true,
        "canTriggerBullet": false
      },
      "combatLock": {
        "lockShape": "CircleLockEnemy",
        "denyLockOn": true,
        "lockType": "Default"
      }
    },
    "combatTemplate": "",
    "abilities": [
      {
        "abilityID": "GrassSlime_Explode",
        "abilityName": "Brute_Shield_GrassSlime_Explode",
        "abilityOverride": ""
      }
    ],
    "timer": {
      "lifeTime": 10.0
    },
    "move": {
      "$type": "EBELDBHINMB",
      "speed": 10.0,
      "LADLDOGAMLI": {
        "$type": "GLPIGCIKICP"
      },
      "syncToRemote": true,
      "angleOffHor": 45.0,
      "gravityOfAcceleration": 20.0,
      "correction": {
        "$type": "ELDDGNNGEAK",
        "deviation": 1.5,
        "fixAngleOfVer": 15.0,
        "minSpeed": 4.0,
        "maxSpeed": 24.0
      }
    },
    "gadget": {
      "$type": "INBEOAJKHGD",
      "collision": {
        "targetType": "Enemy"
      },
      "triggerActions": [
        {
          "$type": "HEAANEHEBIK",
          "abilityName": "Brute_Shield_GrassSlime_Explode"
        }
      ]
    }
  },
  "Brute_Shield_RockSlime": {
    "$type": "PAAKDFFLFIN",
    "common": {
      "effectAttachShape": {
        "$type": "AFBBHIMPGKH"
      },
      "affectedByWorld": true,
      "checkInSurface": true
    },
    "combat": {
      "property": {
        "useCreatorProperty": true,
        "hp": 999999.0,
        "attack": 15.0,
        "defense": 999999.0,
        "weight": 60.0,
        "isLockHP": true,
        "canTriggerBullet": false
      },
      "combatLock": {
        "lockShape": "CircleLockEnemy",
        "denyLockOn": true,
        "lockType": "Default"
      }
    },
    "combatTemplate": "",
    "abilities": [
      {
        "abilityID": "RockSlime_Explode",
        "abilityName": "Brute_Shield_RockSlime_Explode",
        "abilityOverride": ""
      }
    ],
    "timer": {
      "lifeTime": 10.0
    },
    "move": {
      "$type": "EBELDBHINMB",
      "speed": 10.0,
      "LADLDOGAMLI": {
        "$type": "GLPIGCIKICP"
      },
      "syncToRemote": true,
      "angleOffHor": 45.0,
      "gravityOfAcceleration": 20.0,
      "correction": {
        "$type": "ELDDGNNGEAK",
        "deviation": 1.5,
        "fixAngleOfVer": 15.0,
        "minSpeed": 4.0,
        "maxSpeed": 24.0
      }
    },
    "gadget": {
      "$type": "INBEOAJKHGD",
      "collision": {
        "targetType": "Enemy"
      },
      "triggerActions": [
        {
          "$type": "HEAANEHEBIK",
          "abilityName": "Brute_Shield_RockSlime_Explode"
        }
      ]
    }
  },
  "Brute_Electric_Axe_ElectricSlime_Small": {
    "$type": "PAAKDFFLFIN",
    "common": {
      "effectAttachShape": {
        "$type": "AFBBHIMPGKH"
      },
      "affectedByWorld": true,
      "checkInSurface": true
    },
    "combat": {
      "property": {
        "useCreatorProperty": true,
        "hp": 999999.0,
        "attack": 15.0,
        "defense": 999999.0,
        "weight": 60.0,
        "isLockHP": true,
        "canTriggerBullet": false
      },
      "combatLock": {
        "lockShape": "CircleLockEnemy",
        "denyLockOn": true,
        "lockType": "Default"
      }
    },
    "combatTemplate": "",
    "abilities": [
      {
        "abilityID": "Brute_Electric_Axe_ElectricSlime_Explode_Small",
        "abilityName": "Brute_Electric_Axe_ElectricSlime_Explode_Small",
        "abilityOverride": ""
      }
    ],
    "timer": {
      "lifeTime": 10.0
    },
    "move": {
      "$type": "EBELDBHINMB",
      "speed": 10.0,
      "LADLDOGAMLI": {
        "$type": "GLPIGCIKICP"
      },
      "syncToRemote": true,
      "angleOffHor": 36.0,
      "gravityOfAcceleration": 40.0,
      "correction": {
        "$type": "ELDDGNNGEAK",
        "deviation": 1.5,
        "fixAngleOfVer": 15.0,
        "minSpeed": 4.0,
        "maxSpeed": 24.0
      }
    },
    "gadget": {
      "$type": "INBEOAJKHGD",
      "collision": {
        "targetType": "Enemy"
      },
      "triggerActions": [
        {
          "$type": "HEAANEHEBIK",
          "abilityName": "Brute_Electric_Axe_ElectricSlime_Explode_Small"
        }
      ]
    }
  },
  "Brute_Electric_Axe_ElectricSlime": {
    "$type": "PAAKDFFLFIN",
    "common": {
      "effectAttachShape": {
        "$type": "AFBBHIMPGKH"
      },
      "affectedByWorld": true,
      "checkInSurface": true
    },
    "combat": {
      "property": {
        "useCreatorProperty": true,
        "hp": 999999.0,
        "attack": 15.0,
        "defense": 999999.0,
        "weight": 60.0,
        "isLockHP": true,
        "canTriggerBullet": false
      },
      "combatLock": {
        "lockShape": "CircleLockEnemy",
        "denyLockOn": true,
        "lockType": "Default"
      }
    },
    "combatTemplate": "",
    "abilities": [
      {
        "abilityID": "Brute_Electric_Axe_ElectricSlime_Explode",
        "abilityName": "Brute_Electric_Axe_ElectricSlime_Explode",
        "abilityOverride": ""
      }
    ],
    "timer": {
      "lifeTime": 10.0
    },
    "move": {
      "$type": "EBELDBHINMB",
      "speed": 10.0,
      "LADLDOGAMLI": {
        "$type": "GLPIGCIKICP"
      },
      "syncToRemote": true,
      "angleOffHor": 36.0,
      "gravityOfAcceleration": 40.0,
      "correction": {
        "$type": "ELDDGNNGEAK",
        "deviation": 1.5,
        "fixAngleOfVer": 15.0,
        "minSpeed": 4.0,
        "maxSpeed": 24.0
      }
    },
    "gadget": {
      "$type": "INBEOAJKHGD",
      "collision": {
        "targetType": "Enemy"
      },
      "triggerActions": [
        {
          "$type": "HEAANEHEBIK",
          "abilityName": "Brute_Electric_Axe_ElectricSlime_Explode"
        }
      ]
    }
  },
  "Brute_Electric_Axe_ElectricSlime_Positive": {
    "$type": "PAAKDFFLFIN",
    "common": {
      "effectAttachShape": {
        "$type": "AFBBHIMPGKH"
      },
      "affectedByWorld": true,
      "checkInSurface": true
    },
    "combat": {
      "property": {
        "useCreatorProperty": true,
        "hp": 999999.0,
        "attack": 15.0,
        "defense": 999999.0,
        "weight": 60.0,
        "isLockHP": true,
        "canTriggerBullet": false
      },
      "combatLock": {
        "lockShape": "CircleLockEnemy",
        "denyLockOn": true,
        "lockType": "Default"
      }
    },
    "combatTemplate": "",
    "abilities": [
      {
        "abilityID": "Brute_Electric_Axe_ElectricSlime_Explode_Positive",
        "abilityName": "Brute_Electric_Axe_ElectricSlime_Explode_Positive",
        "abilityOverride": ""
      }
    ],
    "timer": {
      "lifeTime": 10.0
    },
    "move": {
      "$type": "EBELDBHINMB",
      "speed": 10.0,
      "LADLDOGAMLI": {
        "$type": "GLPIGCIKICP"
      },
      "syncToRemote": true,
      "angleOffHor": 36.0,
      "gravityOfAcceleration": 40.0,
      "correction": {
        "$type": "ELDDGNNGEAK",
        "deviation": 1.5,
        "fixAngleOfVer": 15.0,
        "minSpeed": 4.0,
        "maxSpeed": 24.0
      }
    },
    "gadget": {
      "$type": "INBEOAJKHGD",
      "collision": {
        "targetType": "Enemy"
      },
      "triggerActions": [
        {
          "$type": "HEAANEHEBIK",
          "abilityName": "Brute_Electric_Axe_ElectricSlime_Explode_Positive"
        }
      ]
    }
  },
  "Brute_Electric_Crystal": {
    "$type": "PAAKDFFLFIN",
    "common": {
      "mass": 999999.0
    },
    "specialPoint": {
      "elementAbsorb": "RootNode",
      "elementPendant": "",
      "elementDrop": "RootNode",
      "bulletAim": "BulletAimPoint",
      "hitPoints": [
        "BulletAimPoint"
      ],
      "selectedPoints": [
        "BulletAimPoint"
      ]
    },
    "hasAbility": true,
    "combat": {
      "property": {
        "useCreatorProperty": true,
        "hp": 999999.0,
        "defense": 999999.0,
        "weight": 999999.0,
        "isLockHP": true
      },
      "beHit": {
        "hitBloodEffect": "",
        "muteAllHitText": true
      },
      "combatLock": {
        "lockShape": "CircleLockEnemy",
        "lockType": "Gear_Lv3"
      }
    },
    "combatTemplate": "",
    "abilities": [
      {
        "abilityID": "Brute_Electric_Crystal_ElementShield",
        "abilityName": "Brute_Electric_Crystal_ElementShield",
        "abilityOverride": ""
      },
      {
        "abilityID": "Brute_Electric_Crystal_Kill",
        "abilityName": "Brute_Electric_Crystal_Kill",
        "abilityOverride": ""
      }
    ],
    "timer": {
      "lifeTime": 25.0
    },
    "billboard": {
      "$type": "IBDGIBAFPPH",
      "attachPoint": "BillboardAttach",
      "offset": {
        "y": 0.20000000298023224
      },
      "radiusOffset": 0.5,
      "showHPBar": true,
      "forceShowDistance": 18.0,
      "shieldBarOnly": true
    }
  },
  "Brute_Electric_LightningArea": {
    "$type": "PAAKDFFLFIN",
    "combat": {
      "property": {
        "useCreatorProperty": true,
        "hp": 100.0,
        "weight": 150.0,
        "isLockHP": true,
        "isGhostToEnemy": true
      },
      "beHit": {
        "hitBloodEffect": "",
        "muteAllHitEffect": true,
        "muteAllHitText": true
      },
      "combatLock": {
        "lockShape": "CircleLockEnemy",
        "denyLockOn": true,
        "lockType": "Default"
      }
    },
    "combatTemplate": "",
    "abilities": [
      {
        "abilityID": "Brute_Electric_LightningArea",
        "abilityName": "Brute_Electric_LightningArea",
        "abilityOverride": ""
      }
    ],
    "timer": {
      "lifeTime": 5.0
    }
  },
  "Brute_Electric_None_ElectricSlime": {
    "$type": "PAAKDFFLFIN",
    "common": {
      "effectAttachShape": {
        "$type": "AFBBHIMPGKH"
      },
      "affectedByWorld": true,
      "checkInSurface": true
    },
    "combat": {
      "property": {
        "useCreatorProperty": true,
        "hp": 999999.0,
        "attack": 15.0,
        "defense": 999999.0,
        "weight": 60.0,
        "isLockHP": true,
        "canTriggerBullet": false
      },
      "combatLock": {
        "lockShape": "CircleLockEnemy",
        "denyLockOn": true,
        "lockType": "Default"
      }
    },
    "combatTemplate": "",
    "abilities": [
      {
        "abilityID": "Brute_Electric_None_ElectricSlime_Explode",
        "abilityName": "Brute_Electric_None_ElectricSlime_Explode",
        "abilityOverride": ""
      }
    ],
    "timer": {
      "lifeTime": 10.0
    },
    "move": {
      "$type": "EBELDBHINMB",
      "speed": 40.0,
      "LADLDOGAMLI": {
        "$type": "GLPIGCIKICP"
      },
      "syncToRemote": true,
      "angleOffHor": 60.0,
      "gravityOfAcceleration": 40.0,
      "correction": {
        "$type": "ELDDGNNGEAK",
        "deviation": 1.0,
        "fixAngleOfVer": 5.0,
        "minSpeed": 4.0,
        "maxSpeed": 40.0
      }
    },
    "gadget": {
      "$type": "INBEOAJKHGD",
      "collision": {
        "targetType": "Enemy",
        "bornWithTriggerEnabled": false
      },
      "triggerActions": [
        {
          "$type": "HEAANEHEBIK",
          "abilityName": "Brute_Electric_None_ElectricSlime_Explode"
        }
      ]
    }
  },
  "Brute_Electric_None_ElectricSlime_Positive": {
    "$type": "PAAKDFFLFIN",
    "common": {
      "effectAttachShape": {
        "$type": "AFBBHIMPGKH"
      },
      "affectedByWorld": true,
      "checkInSurface": true
    },
    "combat": {
      "property": {
        "useCreatorProperty": true,
        "hp": 999999.0,
        "attack": 15.0,
        "defense": 999999.0,
        "weight": 60.0,
        "isLockHP": true,
        "canTriggerBullet": false
      },
      "combatLock": {
        "lockShape": "CircleLockEnemy",
        "denyLockOn": true,
        "lockType": "Default"
      }
    },
    "combatTemplate": "",
    "abilities": [
      {
        "abilityID": "Brute_Electric_None_ElectricSlime_Positive_Explode",
        "abilityName": "Brute_Electric_None_ElectricSlime_Positive_Explode",
        "abilityOverride": ""
      }
    ],
    "timer": {
      "lifeTime": 10.0
    },
    "move": {
      "$type": "EBELDBHINMB",
      "speed": 40.0,
      "LADLDOGAMLI": {
        "$type": "GLPIGCIKICP"
      },
      "syncToRemote": true,
      "angleOffHor": 60.0,
      "gravityOfAcceleration": 40.0,
      "correction": {
        "$type": "ELDDGNNGEAK",
        "deviation": 1.0,
        "fixAngleOfVer": 5.0,
        "minSpeed": 4.0,
        "maxSpeed": 40.0
      }
    },
    "gadget": {
      "$type": "INBEOAJKHGD",
      "collision": {
        "targetType": "Enemy",
        "bornWithTriggerEnabled": false
      },
      "triggerActions": [
        {
          "$type": "HEAANEHEBIK",
          "abilityName": "Brute_Electric_None_ElectricSlime_Positive_Explode"
        }
      ]
    }
  },
  "Brute_Electric_None_ElectricSlime_Big": {
    "$type": "PAAKDFFLFIN",
    "common": {
      "effectAttachShape": {
        "$type": "AFBBHIMPGKH"
      },
      "affectedByWorld": true,
      "checkInSurface": true
    },
    "combat": {
      "property": {
        "useCreatorProperty": true,
        "hp": 999999.0,
        "attack": 15.0,
        "defense": 999999.0,
        "weight": 60.0,
        "isLockHP": true,
        "canTriggerBullet": false
      },
      "combatLock": {
        "lockShape": "CircleLockEnemy",
        "denyLockOn": true,
        "lockType": "Default"
      }
    },
    "combatTemplate": "",
    "abilities": [
      {
        "abilityID": "Brute_Electric_None_ElectricSlime_Big_Explode",
        "abilityName": "Brute_Electric_None_ElectricSlime_Big_Explode",
        "abilityOverride": ""
      }
    ],
    "timer": {
      "lifeTime": 10.0
    },
    "move": {
      "$type": "EBELDBHINMB",
      "speed": 40.0,
      "LADLDOGAMLI": {
        "$type": "GLPIGCIKICP"
      },
      "syncToRemote": true,
      "angleOffHor": 60.0,
      "gravityOfAcceleration": 40.0,
      "correction": {
        "$type": "ELDDGNNGEAK",
        "deviation": 1.0,
        "fixAngleOfVer": 5.0,
        "minSpeed": 4.0,
        "maxSpeed": 40.0
      }
    },
    "gadget": {
      "$type": "INBEOAJKHGD",
      "collision": {
        "targetType": "Enemy",
        "bornWithTriggerEnabled": false
      },
      "triggerActions": [
        {
          "$type": "HEAANEHEBIK",
          "abilityName": "Brute_Electric_None_ElectricSlime_Big_Explode"
        }
      ]
    }
  },
  "Brute_Electric_None_ElectricSlime_Positive_Big": {
    "$type": "PAAKDFFLFIN",
    "common": {
      "effectAttachShape": {
        "$type": "AFBBHIMPGKH"
      },
      "affectedByWorld": true,
      "checkInSurface": true
    },
    "combat": {
      "property": {
        "useCreatorProperty": true,
        "hp": 999999.0,
        "attack": 15.0,
        "defense": 999999.0,
        "weight": 60.0,
        "isLockHP": true,
        "canTriggerBullet": false
      },
      "combatLock": {
        "lockShape": "CircleLockEnemy",
        "denyLockOn": true,
        "lockType": "Default"
      }
    },
    "combatTemplate": "",
    "abilities": [
      {
        "abilityID": "Brute_Electric_None_ElectricSlime_Positive_Big_Explode",
        "abilityName": "Brute_Electric_None_ElectricSlime_Positive_Big_Explode",
        "abilityOverride": ""
      }
    ],
    "timer": {
      "lifeTime": 10.0
    },
    "move": {
      "$type": "EBELDBHINMB",
      "speed": 40.0,
      "LADLDOGAMLI": {
        "$type": "GLPIGCIKICP"
      },
      "syncToRemote": true,
      "angleOffHor": 60.0,
      "gravityOfAcceleration": 40.0,
      "correction": {
        "$type": "ELDDGNNGEAK",
        "deviation": 1.0,
        "fixAngleOfVer": 5.0,
        "minSpeed": 4.0,
        "maxSpeed": 40.0
      }
    },
    "gadget": {
      "$type": "INBEOAJKHGD",
      "collision": {
        "targetType": "Enemy",
        "bornWithTriggerEnabled": false
      },
      "triggerActions": [
        {
          "$type": "HEAANEHEBIK",
          "abilityName": "Brute_Electric_None_ElectricSlime_Positive_Big_Explode"
        }
      ]
    }
  },
  "Brute_Electric_None_ElectricSlime_Positive_Shrapnel": {
    "$type": "PAAKDFFLFIN",
    "common": {
      "effectAttachShape": {
        "$type": "AFBBHIMPGKH"
      },
      "affectedByWorld": true,
      "checkInSurface": true
    },
    "combat": {
      "property": {
        "useCreatorProperty": true,
        "hp": 999999.0,
        "attack": 15.0,
        "defense": 999999.0,
        "weight": 60.0,
        "isLockHP": true,
        "canTriggerBullet": false
      },
      "combatLock": {
        "lockShape": "CircleLockEnemy",
        "denyLockOn": true,
        "lockType": "Default"
      }
    },
    "combatTemplate": "",
    "abilities": [
      {
        "abilityID": "Brute_Electric_None_ElectricSlime_Positive_Shrapnel",
        "abilityName": "Brute_Electric_None_ElectricSlime_Positive_Shrapnel",
        "abilityOverride": ""
      }
    ],
    "timer": {
      "lifeTime": 10.0
    },
    "move": {
      "$type": "EBELDBHINMB",
      "speed": 19.0,
      "acceleration": -3.0,
      "LADLDOGAMLI": {
        "$type": "GLPIGCIKICP"
      },
      "angleOffHor": 50.0,
      "gravityOfAcceleration": 40.0,
      "correction": {
        "$type": "ELDDGNNGEAK",
        "deviation": 2.0,
        "minSpeed": 5.0,
        "maxSpeed": 21.0
      }
    },
    "gadget": {
      "$type": "INBEOAJKHGD",
      "collision": {
        "targetType": "Enemy",
        "bornWithTriggerEnabled": false
      },
      "triggerActions": [
        {
          "$type": "HEAANEHEBIK",
          "abilityName": "Brute_Electric_None_ElectricSlime_Positive_Shrapnel"
        }
      ],
      "enableCollisionDelay": 0.30000001192092896
    }
  },
  "Brute_Electric_None_ElectricSlime_Positive_ShrapnelPosition": {
    "$type": "PAAKDFFLFIN",
    "combat": {
      "property": {
        "useCreatorProperty": true,
        "hp": 100.0,
        "attack": 10.0,
        "isInvincible": true,
        "isGhostToAllied": true,
        "isGhostToEnemy": true
      },
      "combatLock": {
        "lockShape": "CircleLockEnemy",
        "denyLockOn": true,
        "lockType": "Default"
      }
    },
    "combatTemplate": "",
    "abilities": [
      {
        "abilityID": "Brute_Electric_None_ElectricSlime_Positive_ShrapnelPosition",
        "abilityName": "Brute_Electric_None_ElectricSlime_Positive_ShrapnelPosition",
        "abilityOverride": ""
      }
    ],
    "timer": {
      "lifeTime": 1.0
    }
  },
  "Brute_Electric_Axe_LightningArea": {
    "$type": "PAAKDFFLFIN",
    "combat": {
      "property": {
        "useCreatorProperty": true,
        "hp": 100.0,
        "weight": 150.0,
        "isLockHP": true,
        "isGhostToEnemy": true
      },
      "beHit": {
        "hitBloodEffect": "",
        "muteAllHitEffect": true,
        "muteAllHitText": true
      },
      "combatLock": {
        "lockShape": "CircleLockEnemy",
        "denyLockOn": true,
        "lockType": "Default"
      }
    },
    "combatTemplate": "",
    "abilities": [
      {
        "abilityID": "",
        "abilityName": "Brute_Electric_Axe_LightningArea",
        "abilityOverride": ""
      }
    ],
    "timer": {
      "lifeTime": 5.0
    }
  }
}