{
  "SceneObj_Activity_Common_Property_Ani_Prop_SlimeCannon_Cannon_01": {
    "$type": "PAAKDFFLFIN",
    "hasModel": true,
    "combat": {
      "property": {
        "hp": 100.0,
        "isInvincible": true,
        "isLockHP": true
      },
      "combatLock": {
        "lockShape": "CircleLockEnemy",
        "denyLockOn": true,
        "lockType": "Default"
      }
    },
    "combatTemplate": "",
    "abilities": [
      {
        "abilityID": "SceneObj_Activity_Common_Property_Ani_Prop_SlimeCannon_Cannon_01",
        "abilityName": "SceneObj_Activity_Common_Property_Ani_Prop_SlimeCannon_Cannon_01",
        "abilityOverride": ""
      },
      {
        "abilityID": "SceneObj_Activity_Common_Property_Ani_Prop_SlimeCannon_Cannon_AutoShoot_01",
        "abilityName": "SceneObj_Activity_Common_Property_Ani_Prop_SlimeCannon_Cannon_AutoShoot_01",
        "abilityOverride": ""
      },
      {
        "abilityID": "SceneObj_Activity_Common_Property_Ani_Prop_SlimeCannon_Cannon_ElementShoot_01",
        "abilityName": "SceneObj_Activity_Common_Property_Ani_Prop_SlimeCannon_Cannon_ElementShoot_01",
        "abilityOverride": ""
      }
    ],
    "field": {
      "concernType": "LocalAvatar",
      "shape": "",
      "fromShape": "",
      "triggerInfinite": true,
      "lifeInfinite": true,
      "checkInterval": 0.20000000298023224,
      "overwriteCampType": true,
      "colliderName": "",
      "fromColliderName": ""
    },
    "stateLayers": {
      "defaultLayer": {
        "$type": "AEMHOACJLIB",
        "layerIndexName": "",
        "GCIDDLIDFAE": "",
        "stateIDs": {
          "All": {
            "$type": "EMHNNDOPLDB",
            "animatorStates": {
              "Shoot": [],
              "PhysicShoot": []
            }
          }
        }
      }
    },
    "partControl": {
      "parts": [
        {
          "$type": "FJMAGLFLDGG",
          "angularSpeed": 720.0,
          "partRootName": "ShootControl",
          "forwardByTransName": "",
          "limitHorizontal": 360.0,
          "limitVertical": 0.0
        }
      ]
    }
  },
  "SceneObj_Activity_Common_Property_Ani_Prop_SlimeCannon_ShootBall_01": {
    "$type": "PAAKDFFLFIN",
    "common": {
      "disableTickDistance": 100000.0
    },
    "hasModel": true,
    "combat": {
      "property": {
        "hp": 100.0,
        "isLockHP": true,
        "isGhostToAllied": true
      },
      "combatLock": {
        "lockShape": "CircleLockEnemy",
        "denyLockOn": true,
        "lockType": "Default"
      }
    },
    "combatTemplate": "",
    "abilities": [
      {
        "abilityID": "SceneObj_Activity_Common_Property_Ani_Prop_SlimeCannon_ShootBall_01",
        "abilityName": "SceneObj_Activity_Common_Property_Ani_Prop_SlimeCannon_ShootBall_01",
        "abilityOverride": ""
      },
      {
        "abilityID": "SceneObj_Activity_Common_Property_Ani_Prop_SlimeCannon_BallCommon_01",
        "abilityName": "SceneObj_Activity_Common_Property_Ani_Prop_SlimeCannon_BallCommon_01",
        "abilityOverride": ""
      }
    ],
    "stateLayers": {
      "defaultLayer": {
        "$type": "AEMHOACJLIB",
        "layerIndexName": "",
        "GCIDDLIDFAE": "",
        "stateIDs": {
          "All": {
            "$type": "EMHNNDOPLDB",
            "animatorStates": {
              "Show": [],
              "Idle": [],
              "Leave": []
            }
          }
        }
      }
    },
    "gadgetAction": {
      "gadgetStateActionList": [
        {
          "$type": "DPGGKEHEODN",
          "intID": "GadgetState",
          "syncState": true
        }
      ]
    }
  },
  "SceneObj_Activity_Common_Property_Ani_Prop_SlimeCannon_KillAllBall_01": {
    "$type": "PAAKDFFLFIN",
    "common": {
      "disableTickDistance": 100000.0
    },
    "hasModel": true,
    "combat": {
      "property": {
        "hp": 100.0,
        "isLockHP": true,
        "isGhostToAllied": true
      },
      "combatLock": {
        "lockShape": "CircleLockEnemy",
        "denyLockOn": true,
        "lockType": "Default"
      }
    },
    "combatTemplate": "",
    "abilities": [
      {
        "abilityID": "SceneObj_Activity_Common_Property_Ani_Prop_SlimeCannon_KillAllBall_01",
        "abilityName": "SceneObj_Activity_Common_Property_Ani_Prop_SlimeCannon_KillAllBall_01",
        "abilityOverride": ""
      },
      {
        "abilityID": "SceneObj_Activity_Common_Property_Ani_Prop_SlimeCannon_BallCommon_01",
        "abilityName": "SceneObj_Activity_Common_Property_Ani_Prop_SlimeCannon_BallCommon_01",
        "abilityOverride": ""
      }
    ],
    "stateLayers": {
      "defaultLayer": {
        "$type": "AEMHOACJLIB",
        "layerIndexName": "",
        "GCIDDLIDFAE": "",
        "stateIDs": {
          "All": {
            "$type": "EMHNNDOPLDB",
            "animatorStates": {
              "Show": [],
              "Idle": [],
              "Leave": []
            }
          }
        }
      }
    },
    "gadgetAction": {
      "gadgetStateActionList": [
        {
          "$type": "DPGGKEHEODN",
          "intID": "GadgetState",
          "syncState": true
        }
      ]
    }
  },
  "SceneObj_Activity_Common_Property_Ani_Prop_SlimeCannon_KillAllBall_02": {
    "$type": "PAAKDFFLFIN",
    "hasModel": true,
    "combat": {
      "property": {
        "hp": 100.0,
        "isLockHP": true,
        "isGhostToAllied": true
      },
      "combatLock": {
        "lockShape": "CircleLockEnemy",
        "denyLockOn": true,
        "lockType": "Default"
      }
    },
    "combatTemplate": "",
    "abilities": [
      {
        "abilityID": "SceneObj_Activity_Common_Property_Ani_Prop_SlimeCannon_KillAllBall_02",
        "abilityName": "SceneObj_Activity_Common_Property_Ani_Prop_SlimeCannon_KillAllBall_02",
        "abilityOverride": ""
      },
      {
        "abilityID": "SceneObj_Activity_Common_Property_Ani_Prop_SlimeCannon_BallCommon_01",
        "abilityName": "SceneObj_Activity_Common_Property_Ani_Prop_SlimeCannon_BallCommon_01",
        "abilityOverride": ""
      }
    ],
    "stateLayers": {
      "defaultLayer": {
        "$type": "AEMHOACJLIB",
        "layerIndexName": "",
        "GCIDDLIDFAE": "",
        "stateIDs": {
          "All": {
            "$type": "EMHNNDOPLDB",
            "animatorStates": {
              "Show": [],
              "Idle": [],
              "Leave": []
            }
          }
        }
      }
    },
    "gadgetAction": {
      "gadgetStateActionList": [
        {
          "$type": "DPGGKEHEODN",
          "intID": "GadgetState",
          "syncState": true
        }
      ]
    }
  },
  "SceneObj_Activity_Common_Property_Ani_Prop_SlimeCannon_KillAllBall_03": {
    "$type": "PAAKDFFLFIN",
    "hasModel": true,
    "combat": {
      "property": {
        "hp": 100.0,
        "isLockHP": true,
        "isGhostToAllied": true
      },
      "combatLock": {
        "lockShape": "CircleLockEnemy",
        "denyLockOn": true,
        "lockType": "Default"
      }
    },
    "combatTemplate": "",
    "abilities": [
      {
        "abilityID": "SceneObj_Activity_Common_Property_Ani_Prop_SlimeCannon_KillAllBall_03",
        "abilityName": "SceneObj_Activity_Common_Property_Ani_Prop_SlimeCannon_KillAllBall_03",
        "abilityOverride": ""
      },
      {
        "abilityID": "SceneObj_Activity_Common_Property_Ani_Prop_SlimeCannon_BallCommon_01",
        "abilityName": "SceneObj_Activity_Common_Property_Ani_Prop_SlimeCannon_BallCommon_01",
        "abilityOverride": ""
      }
    ],
    "stateLayers": {
      "defaultLayer": {
        "$type": "AEMHOACJLIB",
        "layerIndexName": "",
        "GCIDDLIDFAE": "",
        "stateIDs": {
          "All": {
            "$type": "EMHNNDOPLDB",
            "animatorStates": {
              "Show": [],
              "Idle": [],
              "Leave": []
            }
          }
        }
      }
    },
    "gadgetAction": {
      "gadgetStateActionList": [
        {
          "$type": "DPGGKEHEODN",
          "intID": "GadgetState",
          "syncState": true
        }
      ]
    }
  },
  "SceneObj_Activity_Common_Property_Ani_Prop_SlimeCannon_KillAllBall_04": {
    "$type": "PAAKDFFLFIN",
    "hasModel": true,
    "combat": {
      "property": {
        "hp": 100.0,
        "isLockHP": true,
        "isGhostToAllied": true
      },
      "combatLock": {
        "lockShape": "CircleLockEnemy",
        "denyLockOn": true,
        "lockType": "Default"
      }
    },
    "combatTemplate": "",
    "abilities": [
      {
        "abilityID": "SceneObj_Activity_Common_Property_Ani_Prop_SlimeCannon_KillAllBall_04",
        "abilityName": "SceneObj_Activity_Common_Property_Ani_Prop_SlimeCannon_KillAllBall_04",
        "abilityOverride": ""
      },
      {
        "abilityID": "SceneObj_Activity_Common_Property_Ani_Prop_SlimeCannon_BallCommon_01",
        "abilityName": "SceneObj_Activity_Common_Property_Ani_Prop_SlimeCannon_BallCommon_01",
        "abilityOverride": ""
      }
    ],
    "stateLayers": {
      "defaultLayer": {
        "$type": "AEMHOACJLIB",
        "layerIndexName": "",
        "GCIDDLIDFAE": "",
        "stateIDs": {
          "All": {
            "$type": "EMHNNDOPLDB",
            "animatorStates": {
              "Show": [],
              "Idle": [],
              "Leave": []
            }
          }
        }
      }
    },
    "gadgetAction": {
      "gadgetStateActionList": [
        {
          "$type": "DPGGKEHEODN",
          "intID": "GadgetState",
          "syncState": true
        }
      ]
    }
  },
  "SceneObj_Activity_Common_Property_Ani_Prop_SlimeCannon_KillAllBall_05": {
    "$type": "PAAKDFFLFIN",
    "common": {
      "disableTickDistance": 100000.0
    },
    "globalValue": {
      "serverGlobalValues": [
        "SGV_KillAllBall_StartElement"
      ],
      "initServerGlobalValues": {
        "SGV_KillAllBall_StartElement": 0.0
      }
    },
    "hasModel": true,
    "combat": {
      "property": {
        "hp": 100.0,
        "isLockHP": true,
        "isGhostToAllied": true
      },
      "combatLock": {
        "lockShape": "CircleLockEnemy",
        "denyLockOn": true,
        "lockType": "Default"
      }
    },
    "combatTemplate": "",
    "abilities": [
      {
        "abilityID": "SceneObj_Activity_Common_Property_Ani_Prop_SlimeCannon_KillAllBall_05",
        "abilityName": "SceneObj_Activity_Common_Property_Ani_Prop_SlimeCannon_KillAllBall_05",
        "abilityOverride": ""
      },
      {
        "abilityID": "SceneObj_Activity_Common_Property_Ani_Prop_SlimeCannon_BallCommon_01",
        "abilityName": "SceneObj_Activity_Common_Property_Ani_Prop_SlimeCannon_BallCommon_01",
        "abilityOverride": ""
      }
    ],
    "stateLayers": {
      "defaultLayer": {
        "$type": "AEMHOACJLIB",
        "layerIndexName": "",
        "GCIDDLIDFAE": "",
        "stateIDs": {
          "All": {
            "$type": "EMHNNDOPLDB",
            "animatorStates": {
              "Show": [],
              "Idle": [],
              "Leave": []
            }
          }
        }
      }
    },
    "gadgetAction": {
      "gadgetStateActionList": [
        {
          "$type": "DPGGKEHEODN",
          "intID": "GadgetState",
          "syncState": true
        }
      ]
    }
  },
  "SceneObj_Activity_Common_Property_Ani_Prop_SlimeCannon_TransfuseCircle_01": {
    "$type": "PAAKDFFLFIN",
    "hasModel": true,
    "combat": {
      "property": {
        "hp": 100.0,
        "isLockHP": true,
        "isGhostToAllied": true
      },
      "combatLock": {
        "lockShape": "CircleLockEnemy",
        "denyLockOn": true,
        "lockType": "Default"
      }
    },
    "combatTemplate": "",
    "abilities": [
      {
        "abilityID": "SceneObj_Activity_Common_Property_Ani_Prop_SlimeCannon_TransfuseCircle_01",
        "abilityName": "SceneObj_Activity_Common_Property_Ani_Prop_SlimeCannon_TransfuseCircle_01",
        "abilityOverride": ""
      },
      {
        "abilityID": "SceneObj_Activity_Common_Property_Ani_Prop_SlimeCannon_BallCommon_01",
        "abilityName": "SceneObj_Activity_Common_Property_Ani_Prop_SlimeCannon_BallCommon_01",
        "abilityOverride": ""
      }
    ],
    "stateLayers": {
      "defaultLayer": {
        "$type": "AEMHOACJLIB",
        "layerIndexName": "",
        "GCIDDLIDFAE": "",
        "stateIDs": {
          "All": {
            "$type": "EMHNNDOPLDB",
            "animatorStates": {
              "Show": [],
              "Idle": [],
              "Leave": []
            }
          }
        }
      }
    }
  },
  "SceneObj_Activity_Common_Property_Ani_Prop_SlimeCannon_KillCircle_01": {
    "$type": "PAAKDFFLFIN",
    "common": {
      "disableTickDistance": 100000.0
    },
    "hasModel": true,
    "combat": {
      "property": {
        "hp": 100.0,
        "isLockHP": true,
        "isGhostToAllied": true
      },
      "combatLock": {
        "lockShape": "CircleLockEnemy",
        "denyLockOn": true,
        "lockType": "Default"
      }
    },
    "combatTemplate": "",
    "abilities": [
      {
        "abilityID": "SceneObj_Activity_Common_Property_Ani_Prop_SlimeCannon_KillCircle_01",
        "abilityName": "SceneObj_Activity_Common_Property_Ani_Prop_SlimeCannon_KillCircle_01",
        "abilityOverride": ""
      },
      {
        "abilityID": "SceneObj_Activity_Common_Property_Ani_Prop_SlimeCannon_BallCommon_01",
        "abilityName": "SceneObj_Activity_Common_Property_Ani_Prop_SlimeCannon_BallCommon_01",
        "abilityOverride": ""
      }
    ],
    "stateLayers": {
      "defaultLayer": {
        "$type": "AEMHOACJLIB",
        "layerIndexName": "",
        "GCIDDLIDFAE": "",
        "stateIDs": {
          "All": {
            "$type": "EMHNNDOPLDB",
            "animatorStates": {
              "Show": [],
              "Idle": [],
              "Leave": []
            }
          }
        }
      }
    },
    "gadgetAction": {
      "gadgetStateActionList": [
        {
          "$type": "DPGGKEHEODN",
          "intID": "GadgetState",
          "syncState": true
        }
      ]
    }
  },
  "SceneObj_Activity_Common_Property_Ani_Prop_SlimeCannon_KillCircle_02": {
    "$type": "PAAKDFFLFIN",
    "common": {
      "disableTickDistance": 100000.0
    },
    "hasModel": true,
    "combat": {
      "property": {
        "hp": 100.0,
        "isLockHP": true,
        "isGhostToAllied": true
      },
      "combatLock": {
        "lockShape": "CircleLockEnemy",
        "denyLockOn": true,
        "lockType": "Default"
      }
    },
    "combatTemplate": "",
    "abilities": [
      {
        "abilityID": "SceneObj_Activity_Common_Property_Ani_Prop_SlimeCannon_KillCircle_02",
        "abilityName": "SceneObj_Activity_Common_Property_Ani_Prop_SlimeCannon_KillCircle_02",
        "abilityOverride": ""
      },
      {
        "abilityID": "SceneObj_Activity_Common_Property_Ani_Prop_SlimeCannon_BallCommon_01",
        "abilityName": "SceneObj_Activity_Common_Property_Ani_Prop_SlimeCannon_BallCommon_01",
        "abilityOverride": ""
      }
    ],
    "stateLayers": {
      "defaultLayer": {
        "$type": "AEMHOACJLIB",
        "layerIndexName": "",
        "GCIDDLIDFAE": "",
        "stateIDs": {
          "All": {
            "$type": "EMHNNDOPLDB",
            "animatorStates": {
              "Show": [],
              "Idle": [],
              "Leave": []
            }
          }
        }
      }
    },
    "gadgetAction": {
      "gadgetStateActionList": [
        {
          "$type": "DPGGKEHEODN",
          "intID": "GadgetState",
          "syncState": true
        }
      ]
    }
  },
  "SceneObj_Activity_Common_Property_Ani_Prop_SlimeCannon_KillLine_01": {
    "$type": "PAAKDFFLFIN",
    "hasModel": true,
    "combat": {
      "property": {
        "hp": 100.0,
        "isLockHP": true,
        "isGhostToAllied": true
      },
      "combatLock": {
        "lockShape": "CircleLockEnemy",
        "denyLockOn": true,
        "lockType": "Default"
      }
    },
    "combatTemplate": "",
    "abilities": [
      {
        "abilityID": "SceneObj_Activity_Common_Property_Ani_Prop_SlimeCannon_KillLine_01",
        "abilityName": "SceneObj_Activity_Common_Property_Ani_Prop_SlimeCannon_KillLine_01",
        "abilityOverride": ""
      }
    ],
    "field": {
      "concernType": "CombatExcludeGWGO",
      "shape": "",
      "fromShape": "",
      "triggerInfinite": true,
      "lifeInfinite": true,
      "checkInterval": 0.10000000149011612,
      "overwriteCampType": true,
      "campType": "Enemy",
      "colliderName": "",
      "fromColliderName": ""
    }
  },
  "SceneObj_Activity_Common_Property_Ani_Prop_SlimeCannon_KillField_01": {
    "$type": "PAAKDFFLFIN",
    "hasModel": true,
    "combat": {
      "property": {
        "hp": 100.0,
        "isInvincible": true,
        "isLockHP": true,
        "isGhostToAllied": true
      },
      "combatLock": {
        "lockShape": "CircleLockEnemy",
        "denyLockOn": true,
        "lockType": "Default"
      }
    },
    "combatTemplate": "",
    "abilities": [
      {
        "abilityID": "SceneObj_Activity_Common_Property_Ani_Prop_SlimeCannon_KillField_01",
        "abilityName": "SceneObj_Activity_Common_Property_Ani_Prop_SlimeCannon_KillField_01",
        "abilityOverride": ""
      }
    ],
    "field": {
      "concernType": "CombatExcludeGWGO",
      "shape": "RectW80L80H9_5",
      "fromShape": "",
      "triggerInfinite": true,
      "lifeInfinite": true,
      "checkInterval": 0.20000000298023224,
      "overwriteCampType": true,
      "campType": "Enemy",
      "colliderName": "",
      "fromColliderName": ""
    }
  },
  "SceneObj_Activity_Common_Property_Ani_Prop_SlimeCannon_Obstacle_01": {
    "$type": "PAAKDFFLFIN",
    "common": {
      "disableTickDistance": 150000.0
    },
    "model": {
      "bornEffect": "",
      "attachEffect": ""
    },
    "hasModel": true,
    "combat": {
      "property": {
        "hp": 100.0,
        "isLockHP": true,
        "isGhostToAllied": true
      },
      "combatLock": {
        "lockShape": "CircleLockEnemy",
        "denyLockOn": true,
        "lockType": "Default"
      },
      "die": {
        "dieEndTime": 0.5,
        "dieForceDisappearTime": 0.5,
        "dieDisappearEffect": ""
      }
    },
    "combatTemplate": "",
    "abilities": [
      {
        "abilityID": "SceneObj_Activity_Common_Property_Ani_Prop_SlimeCannon_Obstacle_01",
        "abilityName": "SceneObj_Activity_Common_Property_Ani_Prop_SlimeCannon_Obstacle_01",
        "abilityOverride": ""
      }
    ],
    "move": {
      "$type": "EGIPFLCINDM"
    }
  },
  "SceneObj_Activity_Common_Property_Ani_Prop_SlimeCannon_Bullet_01": {
    "$type": "PAAKDFFLFIN",
    "model": {
      "bornEffect": "",
      "attachEffect": "Eff_SceneObj_SlimeCannon_NormalCommonTrail_01_Light"
    },
    "hasModel": true,
    "combat": {
      "property": {
        "hp": 999999.0,
        "attack": 10.0,
        "defense": 999999.0,
        "isLockHP": true,
        "isGhostToAllied": true,
        "isGhostToEnemy": true,
        "canTriggerBullet": false
      },
      "beHit": {
        "hitBloodEffect": "",
        "hitAutoRedirect": false,
        "muteAllHit": true,
        "muteAllHitText": true
      },
      "combatLock": {
        "lockShape": "CircleLockEnemy",
        "denyLockOn": true,
        "lockType": "Default"
      }
    },
    "combatTemplate": "",
    "abilities": [
      {
        "abilityID": "",
        "abilityName": "SceneObj_Activity_Common_Property_Ani_Prop_SlimeCannon_Bullet_01",
        "abilityOverride": ""
      },
      {
        "abilityID": "",
        "abilityName": "SceneObj_Activity_Common_Property_Ani_Prop_SlimeCannon_Overdrive",
        "abilityOverride": ""
      },
      {
        "abilityID": "",
        "abilityName": "SceneObj_Activity_Common_Property_Ani_Prop_SlimeCannon_Superconductor",
        "abilityOverride": ""
      }
    ],
    "timer": {
      "lifeTime": 10.0
    },
    "move": {
      "$type": "AHGMNDFKPGD",
      "velocityForce": {
        "muteAll": true
      },
      "speed": 25.0
    },
    "gadget": {
      "$type": "INBEOAJKHGD",
      "collision": {
        "targetType": "Enemy"
      },
      "triggerActions": [
        {
          "$type": "HEAANEHEBIK",
          "abilityName": "SceneObj_Activity_Common_Property_Ani_Prop_SlimeCannon_Bullet_01"
        }
      ],
      "killByOther": true
    },
    "GMDIJOFECGC": "Gadget"
  },
  "SceneObj_Activity_Common_Property_Ani_Prop_SlimeCannon_Bullet_02": {
    "$type": "PAAKDFFLFIN",
    "model": {
      "bornEffect": "",
      "attachEffect": "Eff_SceneObj_SlimeCannon_NormalCommonTrail_01_Fire"
    },
    "hasModel": true,
    "combat": {
      "property": {
        "hp": 999999.0,
        "attack": 10.0,
        "defense": 999999.0,
        "isLockHP": true,
        "isGhostToAllied": true,
        "isGhostToEnemy": true,
        "canTriggerBullet": false
      },
      "beHit": {
        "hitBloodEffect": "",
        "hitAutoRedirect": false,
        "muteAllHit": true,
        "muteAllHitText": true
      },
      "combatLock": {
        "lockShape": "CircleLockEnemy",
        "denyLockOn": true,
        "lockType": "Default"
      }
    },
    "combatTemplate": "",
    "abilities": [
      {
        "abilityID": "",
        "abilityName": "SceneObj_Activity_Common_Property_Ani_Prop_SlimeCannon_Bullet_02",
        "abilityOverride": ""
      },
      {
        "abilityID": "",
        "abilityName": "SceneObj_Activity_Common_Property_Ani_Prop_SlimeCannon_Overdrive",
        "abilityOverride": ""
      },
      {
        "abilityID": "",
        "abilityName": "SceneObj_Activity_Common_Property_Ani_Prop_SlimeCannon_Melt",
        "abilityOverride": ""
      }
    ],
    "timer": {
      "lifeTime": 10.0
    },
    "move": {
      "$type": "AHGMNDFKPGD",
      "velocityForce": {
        "muteAll": true
      },
      "speed": 25.0
    },
    "gadget": {
      "$type": "INBEOAJKHGD",
      "collision": {
        "targetType": "Enemy"
      },
      "triggerActions": [
        {
          "$type": "HEAANEHEBIK",
          "abilityName": "SceneObj_Activity_Common_Property_Ani_Prop_SlimeCannon_Bullet_02"
        }
      ],
      "killByOther": true
    },
    "GMDIJOFECGC": "Gadget"
  },
  "SceneObj_Activity_Common_Property_Ani_Prop_SlimeCannon_Bullet_03": {
    "$type": "PAAKDFFLFIN",
    "model": {
      "bornEffect": "",
      "attachEffect": "Eff_SceneObj_SlimeCannon_NormalCommonTrail_01_Ice"
    },
    "hasModel": true,
    "combat": {
      "property": {
        "hp": 999999.0,
        "attack": 10.0,
        "defense": 999999.0,
        "isLockHP": true,
        "isGhostToAllied": true,
        "isGhostToEnemy": true,
        "canTriggerBullet": false
      },
      "beHit": {
        "hitBloodEffect": "",
        "hitAutoRedirect": false,
        "muteAllHit": true,
        "muteAllHitText": true
      },
      "combatLock": {
        "lockShape": "CircleLockEnemy",
        "denyLockOn": true,
        "lockType": "Default"
      }
    },
    "combatTemplate": "",
    "abilities": [
      {
        "abilityID": "",
        "abilityName": "SceneObj_Activity_Common_Property_Ani_Prop_SlimeCannon_Bullet_03",
        "abilityOverride": ""
      },
      {
        "abilityID": "",
        "abilityName": "SceneObj_Activity_Common_Property_Ani_Prop_SlimeCannon_Superconductor",
        "abilityOverride": ""
      },
      {
        "abilityID": "",
        "abilityName": "SceneObj_Activity_Common_Property_Ani_Prop_SlimeCannon_Melt",
        "abilityOverride": ""
      }
    ],
    "timer": {
      "lifeTime": 10.0
    },
    "move": {
      "$type": "AHGMNDFKPGD",
      "velocityForce": {
        "muteAll": true
      },
      "speed": 25.0
    },
    "gadget": {
      "$type": "INBEOAJKHGD",
      "collision": {
        "targetType": "Enemy"
      },
      "triggerActions": [
        {
          "$type": "HEAANEHEBIK",
          "abilityName": "SceneObj_Activity_Common_Property_Ani_Prop_SlimeCannon_Bullet_03"
        }
      ],
      "killByOther": true
    }
  },
  "SceneObj_Activity_Common_Property_Ani_Prop_SlimeCannon_Bullet_04": {
    "$type": "PAAKDFFLFIN",
    "model": {
      "bornEffect": "",
      "attachEffect": "Eff_SceneObj_SlimeCannon_HightCommonTrail_01_Light"
    },
    "hasModel": true,
    "combat": {
      "property": {
        "hp": 999999.0,
        "attack": 10.0,
        "defense": 999999.0,
        "isLockHP": true,
        "isGhostToAllied": true,
        "isGhostToEnemy": true,
        "canTriggerBullet": false
      },
      "beHit": {
        "hitBloodEffect": "",
        "hitAutoRedirect": false,
        "muteAllHit": true,
        "muteAllHitText": true
      },
      "combatLock": {
        "lockShape": "CircleLockEnemy",
        "denyLockOn": true,
        "lockType": "Default"
      }
    },
    "combatTemplate": "",
    "abilities": [
      {
        "abilityID": "",
        "abilityName": "SceneObj_Activity_Common_Property_Ani_Prop_SlimeCannon_Bullet_04",
        "abilityOverride": ""
      },
      {
        "abilityID": "",
        "abilityName": "SceneObj_Activity_Common_Property_Ani_Prop_SlimeCannon_Superconductor",
        "abilityOverride": ""
      },
      {
        "abilityID": "",
        "abilityName": "SceneObj_Activity_Common_Property_Ani_Prop_SlimeCannon_Overdrive",
        "abilityOverride": ""
      }
    ],
    "timer": {
      "lifeTime": 3.0
    },
    "move": {
      "$type": "AHGMNDFKPGD",
      "velocityForce": {
        "muteAll": true
      },
      "speed": 50.0
    },
    "gadget": {
      "$type": "INBEOAJKHGD",
      "collision": {
        "triggerType": "TriggerNoRepeat",
        "targetType": "Enemy",
        "ignoreScene": true
      },
      "triggerActions": [
        {
          "$type": "HEAANEHEBIK",
          "abilityName": "SceneObj_Activity_Common_Property_Ani_Prop_SlimeCannon_Bullet_04"
        }
      ],
      "killByOther": true
    },
    "GMDIJOFECGC": "Gadget"
  },
  "SceneObj_Activity_Common_Property_Ani_Prop_SlimeCannon_Bullet_05": {
    "$type": "PAAKDFFLFIN",
    "model": {
      "bornEffect": "",
      "attachEffect": "Eff_SceneObj_SlimeCannon_HightCommonTrail_01_Fire"
    },
    "hasModel": true,
    "combat": {
      "property": {
        "hp": 999999.0,
        "attack": 10.0,
        "defense": 999999.0,
        "isLockHP": true,
        "isGhostToAllied": true,
        "isGhostToEnemy": true,
        "canTriggerBullet": false
      },
      "beHit": {
        "hitBloodEffect": "",
        "hitAutoRedirect": false,
        "muteAllHit": true,
        "muteAllHitText": true
      },
      "combatLock": {
        "lockShape": "CircleLockEnemy",
        "denyLockOn": true,
        "lockType": "Default"
      }
    },
    "combatTemplate": "",
    "abilities": [
      {
        "abilityID": "",
        "abilityName": "SceneObj_Activity_Common_Property_Ani_Prop_SlimeCannon_Bullet_05",
        "abilityOverride": ""
      },
      {
        "abilityID": "",
        "abilityName": "SceneObj_Activity_Common_Property_Ani_Prop_SlimeCannon_Overdrive",
        "abilityOverride": ""
      },
      {
        "abilityID": "",
        "abilityName": "SceneObj_Activity_Common_Property_Ani_Prop_SlimeCannon_Melt",
        "abilityOverride": ""
      }
    ],
    "timer": {
      "lifeTime": 3.0
    },
    "move": {
      "$type": "AHGMNDFKPGD",
      "velocityForce": {
        "muteAll": true
      },
      "speed": 50.0
    },
    "gadget": {
      "$type": "INBEOAJKHGD",
      "collision": {
        "triggerType": "TriggerNoRepeat",
        "targetType": "Enemy",
        "ignoreScene": true
      },
      "triggerActions": [
        {
          "$type": "HEAANEHEBIK",
          "abilityName": "SceneObj_Activity_Common_Property_Ani_Prop_SlimeCannon_Bullet_05"
        }
      ],
      "killByOther": true
    },
    "GMDIJOFECGC": "Gadget"
  },
  "SceneObj_Activity_Common_Property_Ani_Prop_SlimeCannon_Bullet_06": {
    "$type": "PAAKDFFLFIN",
    "model": {
      "bornEffect": "",
      "attachEffect": "Eff_SceneObj_SlimeCannon_HightCommonTrail_01_Ice"
    },
    "hasModel": true,
    "combat": {
      "property": {
        "hp": 999999.0,
        "attack": 10.0,
        "defense": 999999.0,
        "isLockHP": true,
        "isGhostToAllied": true,
        "isGhostToEnemy": true,
        "canTriggerBullet": false
      },
      "beHit": {
        "hitBloodEffect": "",
        "hitAutoRedirect": false,
        "muteAllHit": true,
        "muteAllHitText": true
      },
      "combatLock": {
        "lockShape": "CircleLockEnemy",
        "denyLockOn": true,
        "lockType": "Default"
      }
    },
    "combatTemplate": "",
    "abilities": [
      {
        "abilityID": "",
        "abilityName": "SceneObj_Activity_Common_Property_Ani_Prop_SlimeCannon_Bullet_06",
        "abilityOverride": ""
      },
      {
        "abilityID": "",
        "abilityName": "SceneObj_Activity_Common_Property_Ani_Prop_SlimeCannon_Superconductor",
        "abilityOverride": ""
      },
      {
        "abilityID": "",
        "abilityName": "SceneObj_Activity_Common_Property_Ani_Prop_SlimeCannon_Melt",
        "abilityOverride": ""
      }
    ],
    "timer": {
      "lifeTime": 3.0
    },
    "move": {
      "$type": "AHGMNDFKPGD",
      "velocityForce": {
        "muteAll": true
      },
      "speed": 50.0
    },
    "gadget": {
      "$type": "INBEOAJKHGD",
      "collision": {
        "triggerType": "TriggerNoRepeat",
        "targetType": "Enemy",
        "ignoreScene": true
      },
      "triggerActions": [
        {
          "$type": "HEAANEHEBIK",
          "abilityName": "SceneObj_Activity_Common_Property_Ani_Prop_SlimeCannon_Bullet_06"
        }
      ],
      "killByOther": true
    }
  },
  "SceneObj_Activity_Common_Property_Ani_Prop_SlimeCannon_Bullet_07": {
    "$type": "PAAKDFFLFIN",
    "model": {
      "bornEffect": "",
      "attachEffect": "Eff_SceneObj_SlimeCannon_NormalCommonTrail_01"
    },
    "hasModel": true,
    "combat": {
      "property": {
        "hp": 999999.0,
        "attack": 10.0,
        "defense": 999999.0,
        "isLockHP": true,
        "isGhostToAllied": true,
        "isGhostToEnemy": true,
        "canTriggerBullet": false
      },
      "beHit": {
        "hitBloodEffect": "",
        "hitAutoRedirect": false,
        "muteAllHit": true,
        "muteAllHitText": true
      },
      "combatLock": {
        "lockShape": "CircleLockEnemy",
        "denyLockOn": true,
        "lockType": "Default"
      }
    },
    "combatTemplate": "",
    "abilities": [
      {
        "abilityID": "",
        "abilityName": "SceneObj_Activity_Common_Property_Ani_Prop_SlimeCannon_Bullet_07",
        "abilityOverride": ""
      }
    ],
    "timer": {
      "lifeTime": 10.0
    },
    "move": {
      "$type": "AHGMNDFKPGD",
      "velocityForce": {
        "muteAll": true
      },
      "speed": 25.0
    },
    "gadget": {
      "$type": "INBEOAJKHGD",
      "collision": {
        "targetType": "Enemy"
      },
      "triggerActions": [
        {
          "$type": "HEAANEHEBIK",
          "abilityName": "SceneObj_Activity_Common_Property_Ani_Prop_SlimeCannon_Bullet_07"
        }
      ],
      "killByOther": true
    }
  },
  "SceneObj_Activity_Common_Property_Ani_Prop_SlimeCannon_Bullet_08": {
    "$type": "PAAKDFFLFIN",
    "model": {
      "bornEffect": "",
      "attachEffect": "Eff_SceneObj_SlimeCannon_HightCommonTrail_01"
    },
    "hasModel": true,
    "combat": {
      "property": {
        "hp": 999999.0,
        "attack": 10.0,
        "defense": 999999.0,
        "isLockHP": true,
        "isGhostToAllied": true,
        "isGhostToEnemy": true,
        "canTriggerBullet": false
      },
      "beHit": {
        "hitBloodEffect": "",
        "hitAutoRedirect": false,
        "muteAllHit": true,
        "muteAllHitText": true
      },
      "combatLock": {
        "lockShape": "CircleLockEnemy",
        "denyLockOn": true,
        "lockType": "Default"
      }
    },
    "combatTemplate": "",
    "abilities": [
      {
        "abilityID": "",
        "abilityName": "SceneObj_Activity_Common_Property_Ani_Prop_SlimeCannon_Bullet_08",
        "abilityOverride": ""
      }
    ],
    "timer": {
      "lifeTime": 20.0
    },
    "move": {
      "$type": "AHGMNDFKPGD",
      "velocityForce": {
        "muteAll": true
      },
      "speed": 50.0
    },
    "gadget": {
      "$type": "INBEOAJKHGD",
      "collision": {
        "triggerType": "TriggerNoRepeat",
        "targetType": "Enemy"
      },
      "triggerActions": [
        {
          "$type": "HEAANEHEBIK",
          "abilityName": "SceneObj_Activity_Common_Property_Ani_Prop_SlimeCannon_Bullet_08"
        }
      ],
      "killByOther": true
    }
  },
  "SceneObj_Activity_Common_Property_Ani_Prop_SlimeCannon_PartController_01": {
    "$type": "PAAKDFFLFIN",
    "hasModel": true,
    "combatTemplate": "canBeSelect",
    "move": {
      "$type": "IGIJLNOIMEL",
      "attachPoint": "MoveCollider",
      "EHCIGNEDGDO": ""
    }
  },
  "SceneObj_Activity_Common_Property_Ani_Prop_SlimeCannon_FollowPet_01": {
    "$type": "PAAKDFFLFIN",
    "model": {
      "bornEffect": "",
      "attachEffect": ""
    },
    "hasModel": true,
    "combat": {
      "property": {
        "hp": 100.0,
        "attack": 10.0,
        "isInvincible": true,
        "isGhostToAllied": true,
        "isGhostToEnemy": true,
        "canTriggerBullet": false
      },
      "combatLock": {
        "lockShape": "CircleLockEnemy",
        "denyLockOn": true,
        "lockType": "Default"
      }
    },
    "combatTemplate": "",
    "move": {
      "$type": "IGIJLNOIMEL",
      "attachPoint": "",
      "followRotation": true,
      "offset": {
        "x": -1.25,
        "y": 1.25
      },
      "followPositionSmoothedDampTime": 0.6000000238418579,
      "followRotationSmoothedDampTime": 0.125,
      "EHCIGNEDGDO": ""
    }
  },
  "SceneObj_Activity_Common_Property_Ani_Prop_AutoTimeStop_Barrage_Launcher_01": {
    "$type": "PAAKDFFLFIN",
    "globalValue": {
      "serverGlobalValues": [
        "SGV_EffectAngleOffsetY"
      ],
      "initServerGlobalValues": {
        "SGV_EffectAngleOffsetY": 0.0
      }
    },
    "hasModel": true,
    "combat": {
      "property": {
        "hp": 99999.0,
        "isInvincible": true,
        "isLockHP": true,
        "isGhostToAllied": true,
        "isGhostToEnemy": true
      },
      "combatLock": {
        "lockShape": "CircleLockEnemy",
        "denyLockOn": true,
        "lockType": "Default"
      }
    },
    "combatTemplate": "",
    "abilities": [
      {
        "abilityID": "SceneObj_Activity_Common_Property_Ani_Prop_AutoTimeStop_Barrage_Launcher_01",
        "abilityName": "SceneObj_Activity_Common_Property_Ani_Prop_AutoTimeStop_Barrage_Launcher_01",
        "abilityOverride": ""
      },
      {
        "abilityID": "Scene_RockGadget_Summon_Detect",
        "abilityName": "Scene_RockGadget_Summon_Detect",
        "abilityOverride": ""
      }
    ]
  },
  "SceneObj_Activity_Common_Property_Ani_Prop_AutoTimeStop_Barrage_Bullet_01": {
    "$type": "PAAKDFFLFIN",
    "common": {
      "effectAttachShape": {
        "$type": "AFBBHIMPGKH"
      },
      "affectedByWorld": true
    },
    "combat": {
      "property": {
        "hp": 999999.0,
        "isGhostToAllied": true,
        "isGhostToEnemy": true,
        "canTriggerBullet": false
      },
      "beHit": {
        "hitBloodEffect": "",
        "hitAutoRedirect": false,
        "muteAllHit": true,
        "muteAllHitText": true
      },
      "combatLock": {
        "lockShape": "CircleLockEnemy",
        "denyLockOn": true,
        "lockType": "Default"
      },
      "die": {
        "dieEndTime": 1.0,
        "dieDisappearEffect": ""
      }
    },
    "combatTemplate": "",
    "abilities": [
      {
        "abilityID": "",
        "abilityName": "SceneObj_Activity_Common_Property_Ani_Prop_AutoTimeStop_Barrage_Bullet_01_Ability",
        "abilityOverride": ""
      }
    ],
    "timer": {
      "lifeInfinite": true
    },
    "move": {
      "$type": "AHGMNDFKPGD",
      "velocityForce": {
        "muteAll": true
      },
      "speed": 10.0
    },
    "gadget": {
      "$type": "INBEOAJKHGD",
      "collision": {
        "targetType": "Enemy"
      },
      "triggerActions": [
        {
          "$type": "HEAANEHEBIK",
          "abilityName": "SceneObj_Activity_Common_Property_Ani_Prop_AutoTimeStop_Barrage_Bullet_01_Ability"
        }
      ],
      "killByOther": true,
      "dieDelayTime": 0.0
    }
  },
  "SceneObj_Activity_Common_Property_Ani_Prop_AutoTimeStop_Barrage_Bullet_02": {
    "$type": "PAAKDFFLFIN",
    "common": {
      "effectAttachShape": {
        "$type": "AFBBHIMPGKH"
      },
      "affectedByWorld": true
    },
    "combat": {
      "property": {
        "hp": 1000.0,
        "isGhostToAllied": true,
        "isGhostToEnemy": true,
        "canTriggerBullet": false
      },
      "beHit": {
        "hitBloodEffect": "",
        "hitAutoRedirect": false,
        "muteAllHit": true,
        "muteAllHitText": true
      },
      "combatLock": {
        "lockShape": "CircleLockEnemy",
        "denyLockOn": true,
        "lockType": "Default"
      },
      "die": {
        "dieEndTime": 1.0,
        "dieDisappearEffect": ""
      }
    },
    "combatTemplate": "",
    "abilities": [
      {
        "abilityID": "",
        "abilityName": "SceneObj_Activity_Common_Property_Ani_Prop_AutoTimeStop_Barrage_Bullet_02_Ability",
        "abilityOverride": ""
      }
    ],
    "timer": {
      "lifeInfinite": true
    },
    "move": {
      "$type": "MEFFBNAGNKM",
      "velocityForce": {
        "muteAll": true
      },
      "speed": 10.0,
      "maxSpeed": 18.0,
      "anglerVelocity": 30.0,
      "acceleration": 3.0,
      "LADLDOGAMLI": {
        "$type": "GLPIGCIKICP"
      },
      "delay": 0.10000000149011612,
      "traceOnYAxis": true
    },
    "gadget": {
      "$type": "INBEOAJKHGD",
      "collision": {
        "targetType": "Enemy"
      },
      "triggerActions": [
        {
          "$type": "HEAANEHEBIK",
          "abilityName": "SceneObj_Activity_Common_Property_Ani_Prop_AutoTimeStop_Barrage_Bullet_02_Ability"
        }
      ],
      "triggerLifeOverActions": [
        {
          "$type": "HEAANEHEBIK",
          "abilityName": "SceneObj_Activity_Common_Property_Ani_Prop_AutoTimeStop_Barrage_Bullet_02_Ability"
        }
      ],
      "killByOther": true,
      "dieDelayTime": 0.0
    }
  },
  "SceneObj_Activity_Common_Property_Ani_Prop_AutoTimeStop_Barrage_Bullet_03": {
    "$type": "PAAKDFFLFIN",
    "common": {
      "effectAttachShape": {
        "$type": "AFBBHIMPGKH"
      },
      "affectedByWorld": true
    },
    "combat": {
      "property": {
        "hp": 1000.0,
        "isGhostToAllied": true,
        "isGhostToEnemy": true,
        "canTriggerBullet": false
      },
      "beHit": {
        "hitBloodEffect": "",
        "hitAutoRedirect": false,
        "muteAllHit": true,
        "muteAllHitText": true
      },
      "combatLock": {
        "lockShape": "CircleLockEnemy",
        "denyLockOn": true,
        "lockType": "Default"
      },
      "die": {
        "dieEndTime": 1.0,
        "dieDisappearEffect": ""
      }
    },
    "combatTemplate": "",
    "abilities": [
      {
        "abilityID": "",
        "abilityName": "SceneObj_Activity_Common_Property_Ani_Prop_AutoTimeStop_Barrage_Bullet_03_Ability",
        "abilityOverride": ""
      }
    ],
    "timer": {
      "lifeInfinite": true
    },
    "move": {
      "$type": "AHGMNDFKPGD",
      "velocityForce": {
        "muteAll": true
      },
      "speed": 6.0
    },
    "gadget": {
      "$type": "INBEOAJKHGD",
      "collision": {
        "targetType": "Enemy"
      },
      "triggerActions": [
        {
          "$type": "HEAANEHEBIK",
          "abilityName": "SceneObj_Activity_Common_Property_Ani_Prop_AutoTimeStop_Barrage_Bullet_03_Ability"
        }
      ],
      "triggerLifeOverActions": [
        {
          "$type": "HEAANEHEBIK",
          "abilityName": "SceneObj_Activity_Common_Property_Ani_Prop_AutoTimeStop_Barrage_Bullet_03_Ability"
        }
      ],
      "killByOther": true,
      "dieDelayTime": 0.0
    }
  },
  "SceneObj_Indoor_Md_Build_CatCafe_Lmt_A_01": {
    "$type": "PAAKDFFLFIN",
    "hasModel": true,
    "combat": {
      "property": {
        "hp": 99999.0,
        "isInvincible": true,
        "isLockHP": true,
        "isGhostToAllied": true,
        "isGhostToEnemy": true
      },
      "combatLock": {
        "lockShape": "CircleLockEnemy",
        "denyLockOn": true,
        "lockType": "Default"
      }
    },
    "combatTemplate": "",
    "abilities": [
      {
        "abilityID": "SceneObj_Indoor_Md_Build_CatCafe_Lmt_A_01",
        "abilityName": "SceneObj_Indoor_Md_Build_CatCafe_Lmt_A_01",
        "abilityOverride": ""
      },
      {
        "abilityID": "General_DisableGadgetExtraButton0",
        "abilityName": "General_DisableGadgetExtraButton0",
        "abilityOverride": ""
      }
    ],
    "field": {
      "concernType": "AllAvatars",
      "shape": "CircleR3H3",
      "fromShape": "",
      "triggerInfinite": true,
      "lifeInfinite": true,
      "checkInterval": 0.5,
      "overwriteCampType": true,
      "campType": "SelfCamp",
      "colliderName": "",
      "fromColliderName": ""
    },
    "uiInteract": {
      "gadgetUIBtnCfgPath": "TEST/TEST_Chest_Btn",
      "uiName": "",
      "icon": "",
      "groupName": "",
      "confirmDialogTitle": "",
      "confirmDialogContent": "",
      "gadgetUIExtraItems": [
        {
          "gadgetUIBtnCfgPath": "UI/open_actvity_CatCafeSelectPage",
          "uiName": "UI_ACTIVITY_CATCAFE_PLAY_INTERACTNAME",
          "showCombType": "LOGIC_AND",
          "icon": "",
          "groupName": "",
          "confirmDialogTitle": "",
          "confirmDialogContent": "",
          "showCondTypesV2": [
            "HOST"
          ]
        }
      ]
    },
    "misc": {
      "escapeEffect": "",
      "needTurnGrey": true,
      "disableDuration": 2.0
    },
    "intee": {
      "triggerRadius": 1.2000000476837158,
      "triggerHeight": 3.0,
      "triggerOffset": {
        "z": 2.200000047683716
      },
      "JBKCBOIMBLB": ""
    },
    "uiSetting": {
      "DEOFLLJCHDO": {
        "FMNGGNGAEBA": {
          "showDistance": 30.0,
          "OBNIJLKICKN": "BillboardAttach",
          "worldOffset": {
            "y": 2.0
          }
        }
      }
    }
  },
  "SceneObj_Area_Common_Property_Prop_Catcafe_FollowmoveInteract_01": {
    "$type": "PAAKDFFLFIN",
    "globalValue": {
      "serverGlobalValues": [
        "SGV_Catcafe_Level"
      ],
      "initServerGlobalValues": {
        "SGV_Catcafe_Level": 1.0
      }
    },
    "hasModel": true,
    "combat": {
      "property": {
        "hp": 99999.0,
        "isInvincible": true,
        "isLockHP": true,
        "isGhostToAllied": true,
        "isGhostToEnemy": true
      },
      "combatLock": {
        "lockShape": "CircleLockEnemy",
        "denyLockOn": true,
        "lockType": "Default"
      }
    },
    "combatTemplate": "",
    "abilities": [
      {
        "abilityID": "General_DisableGadgetExtraButton0",
        "abilityName": "General_DisableGadgetExtraButton0",
        "abilityOverride": ""
      }
    ],
    "field": {
      "concernType": "AllAvatars",
      "shape": "CircleR2H2",
      "fromShape": "",
      "triggerInfinite": true,
      "lifeInfinite": true,
      "checkInterval": 0.25,
      "overwriteCampType": true,
      "campType": "SelfCamp",
      "colliderName": "",
      "fromColliderName": ""
    },
    "move": {
      "$type": "IGIJLNOIMEL",
      "MLDBFKEGPEF": "GroupMonsterEntity",
      "attachPoint": "",
      "syncTransToServer": true,
      "syncInterval": 0.5,
      "EHCIGNEDGDO": ""
    },
    "uiInteract": {
      "gadgetUIBtnCfgPath": "TEST/TEST_Chest_Btn",
      "uiName": "",
      "icon": "",
      "groupName": "",
      "confirmDialogTitle": "",
      "confirmDialogContent": "",
      "gadgetUIExtraItems": [
        {
          "gadgetUIBtnCfgPath": "UI/open_actvity_CatCafeMonsterInteractPage",
          "uiName": "UI_ACTIVITY_CATCAFE_PLAY_INTERACTNAME",
          "showCombType": "LOGIC_AND",
          "icon": "",
          "groupName": "",
          "confirmDialogTitle": "",
          "confirmDialogContent": "",
          "showCondTypesV2": [
            "HOST"
          ]
        }
      ]
    },
    "misc": {
      "escapeEffect": "",
      "needTurnGrey": true,
      "disableDuration": 2.0
    },
    "intee": {
      "triggerRadius": 2.0,
      "triggerHeight": 3.0,
      "JBKCBOIMBLB": ""
    }
  },
  "SceneObj_Area_Md_Prop_AlchemySim_04": {
    "$type": "PAAKDFFLFIN",
    "common": {
      "affectedByWorld": true
    },
    "hasModel": true,
    "combatTemplate": "",
    "uiInteract": {
      "gadgetUIBtnCfgPath": "TEST/TEST_Chest_Btn",
      "uiName": "",
      "icon": "",
      "groupName": "",
      "confirmDialogTitle": "",
      "confirmDialogContent": "",
      "canInteractInCombat": false
    },
    "intee": {
      "triggerRadius": 1.5,
      "triggerHeight": 1.5,
      "JBKCBOIMBLB": ""
    }
  },
  "SceneObj_Area_Common_Property_Ani_Prop_AlchemySimLand_01": {
    "$type": "PAAKDFFLFIN",
    "hasModel": true,
    "combat": {
      "property": {
        "hp": 99999.0,
        "isInvincible": true,
        "isLockHP": true,
        "isGhostToAllied": true,
        "isGhostToEnemy": true
      },
      "combatLock": {
        "lockShape": "CircleLockEnemy",
        "denyLockOn": true,
        "lockType": "Default"
      }
    },
    "combatTemplate": "",
    "abilities": [
      {
        "abilityID": "SceneObj_Area_Common_Property_Ani_Prop_AlchemySimLand_01",
        "abilityName": "SceneObj_Area_Common_Property_Ani_Prop_AlchemySimLand_01",
        "abilityOverride": ""
      },
      {
        "abilityID": "Scene_RockGadget_Summon_Detect",
        "abilityName": "Scene_RockGadget_Summon_Detect",
        "abilityOverride": ""
      },
      {
        "abilityID": "SceneObj_Area_Common_Property_Ani_Prop_AlchemySimLand_Eff",
        "abilityName": "SceneObj_Area_Common_Property_Ani_Prop_AlchemySimLand_Eff",
        "abilityOverride": ""
      }
    ]
  },
  "SceneObj_Area_Common_Property_Ani_Prop_AlchemySimLandInteract_01": {
    "$type": "PAAKDFFLFIN",
    "hasModel": true,
    "combat": {
      "property": {
        "hp": 99999.0,
        "isInvincible": true,
        "isLockHP": true,
        "isGhostToAllied": true,
        "isGhostToEnemy": true
      },
      "combatLock": {
        "lockShape": "CircleLockEnemy",
        "denyLockOn": true,
        "lockType": "Default"
      }
    },
    "combatTemplate": "",
    "abilities": [
      {
        "abilityID": "General_DisableGadgetExtraButton0",
        "abilityName": "General_DisableGadgetExtraButton0",
        "abilityOverride": ""
      },
      {
        "abilityID": "Scene_RockGadget_Summon_Detect",
        "abilityName": "Scene_RockGadget_Summon_Detect",
        "abilityOverride": ""
      },
      {
        "abilityID": "SceneObj_Area_Common_Property_Ani_Prop_AlchemySimLandInteract_Ability",
        "abilityName": "SceneObj_Area_Common_Property_Ani_Prop_AlchemySimLandInteract_Ability",
        "abilityOverride": ""
      }
    ],
    "uiInteract": {
      "gadgetUIBtnCfgPath": "TEST/TEST_Chest_Btn",
      "uiName": "",
      "icon": "",
      "groupName": "",
      "confirmDialogTitle": "",
      "confirmDialogContent": "",
      "gadgetUIExtraItems": [
        {
          "gadgetUIBtnCfgPath": "TEST/TEST_Chest_Btn",
          "uiName": "UI_ACTIVITY_ALCHEMYSIM_CROP_LAND",
          "onTouch": "WidgetMPSupport",
          "touchParams": [
            "SceneObj_Area_Common_Property_Ani_Prop_AlchemySimLandInteract_Ability"
          ],
          "showCombType": "LOGIC_AND",
          "icon": "UI_Icon_Intee_AlchemySim_Crop",
          "groupName": "",
          "confirmDialogTitle": "",
          "confirmDialogContent": "",
          "showCondTypesV2": [
            "SINGLE"
          ]
        }
      ]
    },
    "misc": {
      "escapeEffect": "",
      "needTurnGrey": true,
      "disableDuration": 2.0
    },
    "intee": {
      "triggerRadius": 4.0,
      "triggerHeight": 3.0,
      "JBKCBOIMBLB": ""
    }
  },
  "SceneObj_Area_Common_Property_Ani_Prop_AlchemySimCauldron_01": {
    "$type": "PAAKDFFLFIN",
    "globalValue": {
      "serverGlobalValues": [
        "SGV_AlchemySimCauldron_Level"
      ],
      "initServerGlobalValues": {
        "SGV_AlchemySimCauldron_Level": 1.0
      }
    },
    "hasModel": true,
    "combat": {
      "property": {
        "hp": 99999.0,
        "isInvincible": true,
        "isLockHP": true,
        "isGhostToAllied": true,
        "isGhostToEnemy": true
      },
      "combatLock": {
        "lockShape": "CircleLockEnemy",
        "denyLockOn": true,
        "lockType": "Default"
      }
    },
    "combatTemplate": "",
    "abilities": [
      {
        "abilityID": "General_DisableGadgetExtraButton0",
        "abilityName": "General_DisableGadgetExtraButton0",
        "abilityOverride": ""
      },
      {
        "abilityID": "Scene_RockGadget_Summon_Detect",
        "abilityName": "Scene_RockGadget_Summon_Detect",
        "abilityOverride": ""
      },
      {
        "abilityID": "SceneObj_Area_Common_Property_Ani_Prop_AlchemySimCauldron_Ability",
        "abilityName": "SceneObj_Area_Common_Property_Ani_Prop_AlchemySimCauldron_Ability",
        "abilityOverride": ""
      }
    ],
    "uiInteract": {
      "gadgetUIBtnCfgPath": "TEST/TEST_Chest_Btn",
      "uiName": "",
      "icon": "",
      "groupName": "",
      "confirmDialogTitle": "",
      "confirmDialogContent": "",
      "gadgetUIExtraItems": [
        {
          "gadgetUIBtnCfgPath": "UI/open_actvity_AlchemySimPotionPage_page",
          "uiName": "UI_ACTIVITY_ALCHEMYSIM_POTION_POT_NORMAL",
          "showCombType": "LOGIC_AND",
          "icon": "UI_Icon_Intee_AlchemySim_Potion_01",
          "groupName": "",
          "confirmDialogTitle": "",
          "confirmDialogContent": "",
          "showCondTypesV2": [
            "SINGLE"
          ]
        },
        {
          "gadgetUIBtnCfgPath": "UI/open_actvity_AlchemySimPotionQuickUpPage_page",
          "uiName": "UI_ACTIVITY_ALCHEMYSIM_POTION_UPGRADE",
          "showCombType": "LOGIC_AND",
          "icon": "UI_Icon_Intee_AlchemySim_Potion_03",
          "groupName": "",
          "confirmDialogTitle": "",
          "confirmDialogContent": "",
          "showCondTypesV2": [
            "SINGLE"
          ],
          "extraId": 2
        },
        {
          "gadgetUIBtnCfgPath": "UI/open_actvity_AlchemySimTemplatePotionPage",
          "uiName": "UI_ACTIVITY_ALCHEMYSIM_POTION_POT_FAST",
          "showCombType": "LOGIC_AND",
          "icon": "UI_Icon_Intee_AlchemySim_Potion_02",
          "groupName": "",
          "confirmDialogTitle": "",
          "confirmDialogContent": "",
          "showCondTypesV2": [
            "SINGLE"
          ],
          "extraId": 3
        }
      ]
    },
    "misc": {
      "escapeEffect": "",
      "needTurnGrey": true,
      "disableDuration": 2.0
    },
    "intee": {
      "triggerRadius": 2.0,
      "triggerHeight": 3.0,
      "JBKCBOIMBLB": ""
    }
  },
  "SceneObj_Area_Common_Property_Ani_Prop_AlchemySimRefine_01": {
    "$type": "PAAKDFFLFIN",
    "hasModel": true,
    "combat": {
      "property": {
        "hp": 99999.0,
        "isInvincible": true,
        "isLockHP": true,
        "isGhostToAllied": true,
        "isGhostToEnemy": true
      },
      "combatLock": {
        "lockShape": "CircleLockEnemy",
        "denyLockOn": true,
        "lockType": "Default"
      }
    },
    "combatTemplate": "",
    "abilities": [
      {
        "abilityID": "General_DisableGadgetExtraButton0",
        "abilityName": "General_DisableGadgetExtraButton0",
        "abilityOverride": ""
      },
      {
        "abilityID": "Scene_RockGadget_Summon_Detect",
        "abilityName": "Scene_RockGadget_Summon_Detect",
        "abilityOverride": ""
      },
      {
        "abilityID": "SceneObj_Area_Common_Property_Ani_Prop_AlchemySimRefine_Ability",
        "abilityName": "SceneObj_Area_Common_Property_Ani_Prop_AlchemySimRefine_Ability",
        "abilityOverride": ""
      }
    ],
    "uiInteract": {
      "gadgetUIBtnCfgPath": "TEST/TEST_Chest_Btn",
      "uiName": "",
      "icon": "",
      "groupName": "",
      "confirmDialogTitle": "",
      "confirmDialogContent": "",
      "gadgetUIExtraItems": [
        {
          "gadgetUIBtnCfgPath": "UI/open_actvity_AlchemySimCropUpgradePage_page",
          "uiName": "UI_ACTIVITY_ALCHEMYSIM_CROP_REFINE",
          "showCombType": "LOGIC_AND",
          "icon": "UI_Icon_Intee_AlchemySim_Refine",
          "groupName": "",
          "confirmDialogTitle": "",
          "confirmDialogContent": "",
          "showCondTypesV2": [
            "SINGLE"
          ]
        }
      ]
    },
    "misc": {
      "escapeEffect": "",
      "needTurnGrey": true,
      "disableDuration": 2.0
    },
    "intee": {
      "triggerRadius": 4.0,
      "triggerHeight": 3.0,
      "JBKCBOIMBLB": ""
    }
  },
  "SceneObj_Area_Common_Property_Ani_Prop_AlchemySimChair_01": {
    "$type": "PAAKDFFLFIN",
    "hasModel": true,
    "combat": {
      "property": {
        "hp": 99999.0,
        "isInvincible": true,
        "isLockHP": true,
        "isGhostToAllied": true,
        "isGhostToEnemy": true
      },
      "combatLock": {
        "lockShape": "CircleLockEnemy",
        "denyLockOn": true,
        "lockType": "Default"
      }
    },
    "combatTemplate": "",
    "abilities": [
      {
        "abilityID": "General_DisableGadgetExtraButton0",
        "abilityName": "General_DisableGadgetExtraButton0",
        "abilityOverride": ""
      },
      {
        "abilityID": "SceneObj_Area_Common_Property_Ani_Prop_AlchemySimChair_Ability",
        "abilityName": "SceneObj_Area_Common_Property_Ani_Prop_AlchemySimChair_Ability",
        "abilityOverride": ""
      }
    ],
    "field": {
      "concernType": "AllAvatars",
      "shape": "CircleR1H2",
      "fromShape": "",
      "triggerInfinite": true,
      "lifeInfinite": true,
      "checkInterval": 0.30000001192092896,
      "overwriteCampType": true,
      "campType": "SelfCamp",
      "colliderName": "",
      "fromColliderName": ""
    },
    "uiInteract": {
      "gadgetUIBtnCfgPath": "TEST/TEST_Chest_Btn",
      "uiName": "",
      "icon": "",
      "groupName": "",
      "confirmDialogTitle": "",
      "confirmDialogContent": "",
      "gadgetUIExtraItems": [
        {
          "gadgetUIBtnCfgPath": "UI/open_actvity_AlchemySimFinishRound_page",
          "uiName": "UI_ACTIVITY_ALCHEMYSIM_CHAIR",
          "showCombType": "LOGIC_AND",
          "icon": "UI_Icon_Intee_AlchemySim_Chair",
          "groupName": "",
          "confirmDialogTitle": "",
          "confirmDialogContent": "",
          "showCondTypesV2": [
            "SINGLE"
          ]
        }
      ]
    },
    "misc": {
      "escapeEffect": "",
      "needTurnGrey": true,
      "disableDuration": 2.0
    }
  },
  "SceneObj_Area_Common_Property_Ani_Prop_AlchemySimCrowd_01": {
    "$type": "PAAKDFFLFIN",
    "hasModel": true,
    "combat": {
      "property": {
        "hp": 99999.0,
        "isInvincible": true,
        "isLockHP": true,
        "isGhostToAllied": true,
        "isGhostToEnemy": true
      },
      "combatLock": {
        "lockShape": "CircleLockEnemy",
        "denyLockOn": true,
        "lockType": "Default"
      }
    },
    "combatTemplate": ""
  },
  "SceneObj_Area_Common_Property_Ani_Prop_AlchemySimCrowd_02": {
    "$type": "PAAKDFFLFIN",
    "hasModel": true,
    "combat": {
      "property": {
        "hp": 99999.0,
        "isInvincible": true,
        "isLockHP": true,
        "isGhostToAllied": true,
        "isGhostToEnemy": true
      },
      "combatLock": {
        "lockShape": "CircleLockEnemy",
        "denyLockOn": true,
        "lockType": "Default"
      }
    },
    "combatTemplate": ""
  },
  "SceneObj_Area_Common_Property_Ani_Prop_AlchemySimCrowd_03": {
    "$type": "PAAKDFFLFIN",
    "hasModel": true,
    "combat": {
      "property": {
        "hp": 99999.0,
        "isInvincible": true,
        "isLockHP": true,
        "isGhostToAllied": true,
        "isGhostToEnemy": true
      },
      "combatLock": {
        "lockShape": "CircleLockEnemy",
        "denyLockOn": true,
        "lockType": "Default"
      }
    },
    "combatTemplate": ""
  },
  "SceneObj_Area_Common_Property_Ani_Prop_AlchemySimCrowd_04": {
    "$type": "PAAKDFFLFIN",
    "hasModel": true,
    "combat": {
      "property": {
        "hp": 99999.0,
        "isInvincible": true,
        "isLockHP": true,
        "isGhostToAllied": true,
        "isGhostToEnemy": true
      },
      "combatLock": {
        "lockShape": "CircleLockEnemy",
        "denyLockOn": true,
        "lockType": "Default"
      }
    },
    "combatTemplate": ""
  },
  "SceneObj_Area_Common_Property_Ani_Prop_AlchemySimCrowd_05": {
    "$type": "PAAKDFFLFIN",
    "hasModel": true,
    "combat": {
      "property": {
        "hp": 99999.0,
        "isInvincible": true,
        "isLockHP": true,
        "isGhostToAllied": true,
        "isGhostToEnemy": true
      },
      "combatLock": {
        "lockShape": "CircleLockEnemy",
        "denyLockOn": true,
        "lockType": "Default"
      }
    },
    "combatTemplate": ""
  },
  "SceneObj_Area_Common_Property_Ani_Prop_AlchemySimCrowd_06": {
    "$type": "PAAKDFFLFIN",
    "hasModel": true,
    "combat": {
      "property": {
        "hp": 99999.0,
        "isInvincible": true,
        "isLockHP": true,
        "isGhostToAllied": true,
        "isGhostToEnemy": true
      },
      "combatLock": {
        "lockShape": "CircleLockEnemy",
        "denyLockOn": true,
        "lockType": "Default"
      }
    },
    "combatTemplate": ""
  },
  "SceneObj_Area_Common_Property_Ani_Prop_AlchemySimCrowd_07": {
    "$type": "PAAKDFFLFIN",
    "hasModel": true,
    "combat": {
      "property": {
        "hp": 99999.0,
        "isInvincible": true,
        "isLockHP": true,
        "isGhostToAllied": true,
        "isGhostToEnemy": true
      },
      "combatLock": {
        "lockShape": "CircleLockEnemy",
        "denyLockOn": true,
        "lockType": "Default"
      }
    },
    "combatTemplate": ""
  },
  "SceneObj_Area_Common_Property_Ani_Prop_AlchemySimCrowd_08": {
    "$type": "PAAKDFFLFIN",
    "hasModel": true,
    "combat": {
      "property": {
        "hp": 99999.0,
        "isInvincible": true,
        "isLockHP": true,
        "isGhostToAllied": true,
        "isGhostToEnemy": true
      },
      "combatLock": {
        "lockShape": "CircleLockEnemy",
        "denyLockOn": true,
        "lockType": "Default"
      }
    },
    "combatTemplate": ""
  },
  "SceneObj_Area_Common_Property_Ani_Prop_AlchemySimCrowd_09": {
    "$type": "PAAKDFFLFIN",
    "hasModel": true,
    "combat": {
      "property": {
        "hp": 99999.0,
        "isInvincible": true,
        "isLockHP": true,
        "isGhostToAllied": true,
        "isGhostToEnemy": true
      },
      "combatLock": {
        "lockShape": "CircleLockEnemy",
        "denyLockOn": true,
        "lockType": "Default"
      }
    },
    "combatTemplate": ""
  },
  "SceneObj_Area_Common_Property_Prop_DelucChallengeAirwall_02": {
    "$type": "PAAKDFFLFIN",
    "combat": {
      "property": {
        "hp": 99999.0,
        "attack": 200.0,
        "weight": 50.0,
        "isInvincible": true,
        "isLockHP": true,
        "isGhostToAllied": true,
        "isGhostToEnemy": true
      },
      "beHit": {
        "hitBloodEffect": "",
        "hitAutoRedirect": false,
        "muteAllHitText": true
      },
      "combatLock": {
        "lockShape": "CircleLockEnemy",
        "denyLockOn": true,
        "lockType": "Gadget_Lv1"
      },
      "die": {
        "dieForceDisappearTime": 3.0,
        "dieDisappearEffect": "Eff_Stages_Common_DelucChallengeAirwall_03"
      }
    },
    "combatTemplate": "",
    "abilities": [
      {
        "abilityID": "SceneObj_Area_Common_Property_Prop_DelucChallengeAirwall_01",
        "abilityName": "SceneObj_Area_Common_Property_Prop_DelucChallengeAirwall_01",
        "abilityOverride": ""
      }
    ]
  }
}