{
  "Tighnari_Arrow_01": {
    "$type": "PAAKDFFLFIN",
    "common": {
      "effectAttachShape": {
        "$type": "AFBBHIMPGKH",
        "scaleX": 0.5,
        "scaleY": 0.5
      },
      "affectedByWorld": true
    },
    "combat": {
      "property": {
        "useCreatorProperty": true,
        "isInvincible": true,
        "canTriggerBullet": false
      },
      "beHit": {
        "hitBloodEffect": "",
        "muteAllHit": true,
        "muteAllHitEffect": true,
        "muteAllHitText": true
      },
      "combatLock": {
        "lockShape": "CircleLockEnemy",
        "denyLockOn": true,
        "lockType": "Default"
      },
      "animEvents": {
        "Arrow_ATK01": {
          "attackPattern": {
            "$type": "CKCNJHBMNGJ",
            "triggerType": "TriggerNoRepeat",
            "checkHitLayerType": "Both",
            "born": {
              "$type": "AGPIGGAPILF",
              "offset": {
                "GOAPOLCAJBP": 0.0,
                "FMOPCJGGFMH": 0.0,
                "EJJEPFCDDAM": -0.5
              }
            },
            "size": {
              "GOAPOLCAJBP": 0.10000000149011612,
              "FMOPCJGGFMH": 0.10000000149011612,
              "EJJEPFCDDAM": 1.0
            }
          },
          "attackInfo": {
            "attackTag": "NormalAttack_01",
            "attenuationTag": "",
            "attenuationGroup": "default",
            "attackProperty": {
              "JMLMDDCBIAO": 0.0,
              "damagePercentageRatio": 0.0,
              "elementDurability": 100.0,
              "strikeType": "Pierce",
              "enBreak": 16.5,
              "damagePercentage": 0.0
            },
            "hitPattern": {
              "onHitEffectName": "default",
              "hitImpulseY": "",
              "hitImpulseType": "LV1"
            },
            "cameraShake": {
              "shakeRange": 0.019999999552965164,
              "shakeTime": 0.10000000149011612
            },
            "canBeModifiedBy": "OriginOwner"
          }
        }
      }
    },
    "combatTemplate": "",
    "abilities": [
      {
        "abilityID": "Bullet_Tighnari_ArrowDamage_Handler",
        "abilityName": "Bullet_Tighnari_ArrowDamage_Handler",
        "abilityOverride": ""
      },
      {
        "abilityID": "Bullet_Tighnari_Arrow_Material_Small",
        "abilityName": "Bullet_Tighnari_Arrow_Material_Small",
        "abilityOverride": ""
      }
    ],
    "timer": {
      "lifeTime": 8.0
    },
    "move": {
      "$type": "KPMONKJIGAM",
      "speed": 40.0,
      "LADLDOGAMLI": {
        "$type": "GLPIGCIKICP"
      },
      "straightRange": 7.0,
      "gravityOfAcceleration": 15.0,
      "airResistance": 0.009999999776482582
    },
    "gadget": {
      "$type": "INBEOAJKHGD",
      "collision": {
        "targetType": "Enemy"
      },
      "triggerActions": [
        {
          "$type": "JLJCHBAEAMN",
          "attackEvent": "Arrow_ATK01"
        },
        {
          "$type": "HEAANEHEBIK",
          "abilityName": "Bullet_Tighnari_Arrow_Material_Small"
        }
      ],
      "fireAISoundEvent": true
    }
  },
  "Tighnari_Arrow_02": {
    "$type": "PAAKDFFLFIN",
    "common": {
      "effectAttachShape": {
        "$type": "AFBBHIMPGKH",
        "scaleX": 0.5,
        "scaleY": 0.5
      },
      "affectedByWorld": true
    },
    "combat": {
      "property": {
        "useCreatorProperty": true,
        "isInvincible": true,
        "canTriggerBullet": false
      },
      "beHit": {
        "hitBloodEffect": "",
        "muteAllHit": true,
        "muteAllHitEffect": true,
        "muteAllHitText": true
      },
      "combatLock": {
        "lockShape": "CircleLockEnemy",
        "denyLockOn": true,
        "lockType": "Default"
      },
      "animEvents": {
        "Arrow_ATK02": {
          "attackPattern": {
            "$type": "CKCNJHBMNGJ",
            "triggerType": "TriggerNoRepeat",
            "checkHitLayerType": "Both",
            "born": {
              "$type": "AGPIGGAPILF",
              "offset": {
                "GOAPOLCAJBP": 0.0,
                "FMOPCJGGFMH": 0.0,
                "EJJEPFCDDAM": -0.5
              }
            },
            "size": {
              "GOAPOLCAJBP": 0.10000000149011612,
              "FMOPCJGGFMH": 0.10000000149011612,
              "EJJEPFCDDAM": 1.0
            }
          },
          "attackInfo": {
            "attackTag": "NormalAttack_02",
            "attenuationTag": "",
            "attenuationGroup": "default",
            "attackProperty": {
              "JMLMDDCBIAO": 0.0,
              "damagePercentageRatio": 0.0,
              "elementDurability": 100.0,
              "strikeType": "Pierce",
              "enBreak": 15.899999618530273,
              "damagePercentage": 0.0
            },
            "hitPattern": {
              "onHitEffectName": "default",
              "hitImpulseY": "",
              "hitImpulseType": "LV1"
            },
            "cameraShake": {
              "shakeRange": 0.019999999552965164,
              "shakeTime": 0.10000000149011612
            },
            "canBeModifiedBy": "OriginOwner"
          }
        }
      }
    },
    "combatTemplate": "",
    "abilities": [
      {
        "abilityID": "Bullet_Tighnari_ArrowDamage_Handler",
        "abilityName": "Bullet_Tighnari_ArrowDamage_Handler",
        "abilityOverride": ""
      },
      {
        "abilityID": "Bullet_Tighnari_Arrow_Material_Small",
        "abilityName": "Bullet_Tighnari_Arrow_Material_Small",
        "abilityOverride": ""
      }
    ],
    "timer": {
      "lifeTime": 8.0
    },
    "move": {
      "$type": "KPMONKJIGAM",
      "speed": 40.0,
      "LADLDOGAMLI": {
        "$type": "GLPIGCIKICP"
      },
      "straightRange": 7.0,
      "gravityOfAcceleration": 15.0,
      "airResistance": 0.009999999776482582
    },
    "gadget": {
      "$type": "INBEOAJKHGD",
      "collision": {
        "targetType": "Enemy"
      },
      "triggerActions": [
        {
          "$type": "JLJCHBAEAMN",
          "attackEvent": "Arrow_ATK02"
        },
        {
          "$type": "HEAANEHEBIK",
          "abilityName": "Bullet_Tighnari_Arrow_Material_Small"
        }
      ],
      "fireAISoundEvent": true
    }
  },
  "Tighnari_Arrow_03": {
    "$type": "PAAKDFFLFIN",
    "common": {
      "effectAttachShape": {
        "$type": "AFBBHIMPGKH",
        "scaleX": 0.5,
        "scaleY": 0.5
      },
      "affectedByWorld": true
    },
    "combat": {
      "property": {
        "useCreatorProperty": true,
        "isInvincible": true,
        "canTriggerBullet": false
      },
      "beHit": {
        "hitBloodEffect": "",
        "muteAllHit": true,
        "muteAllHitEffect": true,
        "muteAllHitText": true
      },
      "combatLock": {
        "lockShape": "CircleLockEnemy",
        "denyLockOn": true,
        "lockType": "Default"
      },
      "animEvents": {
        "Arrow_ATK03": {
          "attackPattern": {
            "$type": "CKCNJHBMNGJ",
            "triggerType": "TriggerNoRepeat",
            "checkHitLayerType": "Both",
            "born": {
              "$type": "AGPIGGAPILF",
              "offset": {
                "GOAPOLCAJBP": 0.0,
                "FMOPCJGGFMH": 0.0,
                "EJJEPFCDDAM": -0.5
              }
            },
            "size": {
              "GOAPOLCAJBP": 0.10000000149011612,
              "FMOPCJGGFMH": 0.10000000149011612,
              "EJJEPFCDDAM": 1.0
            }
          },
          "attackInfo": {
            "attackTag": "NormalAttack_03",
            "attenuationTag": "",
            "attenuationGroup": "default",
            "attackProperty": {
              "JMLMDDCBIAO": 0.0,
              "damagePercentageRatio": 0.0,
              "elementDurability": 100.0,
              "strikeType": "Pierce",
              "enBreak": 9.75,
              "damagePercentage": 0.0
            },
            "hitPattern": {
              "onHitEffectName": "default",
              "hitImpulseY": "",
              "hitImpulseType": "LV1"
            },
            "cameraShake": {
              "shakeRange": 0.019999999552965164,
              "shakeTime": 0.10000000149011612
            },
            "canBeModifiedBy": "OriginOwner"
          }
        }
      }
    },
    "combatTemplate": "",
    "abilities": [
      {
        "abilityID": "Bullet_Tighnari_ArrowDamage_Handler",
        "abilityName": "Bullet_Tighnari_ArrowDamage_Handler",
        "abilityOverride": ""
      },
      {
        "abilityID": "Bullet_Tighnari_Arrow_Material_Small",
        "abilityName": "Bullet_Tighnari_Arrow_Material_Small",
        "abilityOverride": ""
      }
    ],
    "timer": {
      "lifeTime": 8.0
    },
    "move": {
      "$type": "KPMONKJIGAM",
      "speed": 40.0,
      "LADLDOGAMLI": {
        "$type": "GLPIGCIKICP"
      },
      "straightRange": 7.0,
      "gravityOfAcceleration": 15.0,
      "airResistance": 0.009999999776482582
    },
    "gadget": {
      "$type": "INBEOAJKHGD",
      "collision": {
        "targetType": "Enemy"
      },
      "triggerActions": [
        {
          "$type": "JLJCHBAEAMN",
          "attackEvent": "Arrow_ATK03"
        },
        {
          "$type": "HEAANEHEBIK",
          "abilityName": "Bullet_Tighnari_Arrow_Material_Small"
        }
      ],
      "fireAISoundEvent": true
    }
  },
  "Tighnari_Arrow_04": {
    "$type": "PAAKDFFLFIN",
    "common": {
      "effectAttachShape": {
        "$type": "AFBBHIMPGKH",
        "scaleX": 0.5,
        "scaleY": 0.5
      },
      "affectedByWorld": true
    },
    "combat": {
      "property": {
        "useCreatorProperty": true,
        "isInvincible": true,
        "canTriggerBullet": false
      },
      "beHit": {
        "hitBloodEffect": "",
        "muteAllHit": true,
        "muteAllHitEffect": true,
        "muteAllHitText": true
      },
      "combatLock": {
        "lockShape": "CircleLockEnemy",
        "denyLockOn": true,
        "lockType": "Default"
      },
      "animEvents": {
        "Arrow_ATK04": {
          "attackPattern": {
            "$type": "CKCNJHBMNGJ",
            "triggerType": "TriggerNoRepeat",
            "checkHitLayerType": "Both",
            "born": {
              "$type": "AGPIGGAPILF",
              "offset": {
                "GOAPOLCAJBP": 0.0,
                "FMOPCJGGFMH": 0.0,
                "EJJEPFCDDAM": -0.5
              }
            },
            "size": {
              "GOAPOLCAJBP": 0.10000000149011612,
              "FMOPCJGGFMH": 0.10000000149011612,
              "EJJEPFCDDAM": 1.0
            }
          },
          "attackInfo": {
            "attackTag": "NormalAttack_04",
            "attenuationTag": "",
            "attenuationGroup": "default",
            "attackProperty": {
              "JMLMDDCBIAO": 0.0,
              "damagePercentageRatio": 0.0,
              "elementDurability": 100.0,
              "strikeType": "Pierce",
              "enBreak": 25.5,
              "damagePercentage": 0.0
            },
            "hitPattern": {
              "onHitEffectName": "default",
              "hitImpulseY": "",
              "hitImpulseType": "LV1"
            },
            "cameraShake": {
              "shakeRange": 0.019999999552965164,
              "shakeTime": 0.10000000149011612
            },
            "canBeModifiedBy": "OriginOwner"
          }
        }
      }
    },
    "combatTemplate": "",
    "abilities": [
      {
        "abilityID": "Bullet_Tighnari_ArrowDamage_Handler",
        "abilityName": "Bullet_Tighnari_ArrowDamage_Handler",
        "abilityOverride": ""
      },
      {
        "abilityID": "Bullet_Tighnari_Arrow_Material_Big",
        "abilityName": "Bullet_Tighnari_Arrow_Material_Big",
        "abilityOverride": ""
      }
    ],
    "timer": {
      "lifeTime": 8.0
    },
    "move": {
      "$type": "KPMONKJIGAM",
      "speed": 70.0,
      "LADLDOGAMLI": {
        "$type": "GLPIGCIKICP"
      },
      "straightRange": 15.0,
      "gravityOfAcceleration": 30.0,
      "airResistance": 0.009999999776482582
    },
    "gadget": {
      "$type": "INBEOAJKHGD",
      "collision": {
        "targetType": "Enemy"
      },
      "triggerActions": [
        {
          "$type": "JLJCHBAEAMN",
          "attackEvent": "Arrow_ATK04"
        },
        {
          "$type": "HEAANEHEBIK",
          "abilityName": "Bullet_Tighnari_Arrow_Material_Big"
        }
      ],
      "fireAISoundEvent": true
    }
  },
  "Tighnari_AimingArrow_NoGrass": {
    "$type": "PAAKDFFLFIN",
    "common": {
      "effectAttachShape": {
        "$type": "AFBBHIMPGKH",
        "scaleX": 0.5,
        "scaleY": 0.5
      },
      "affectedByWorld": true
    },
    "combat": {
      "property": {
        "useCreatorProperty": true,
        "isInvincible": true,
        "canTriggerBullet": false
      },
      "beHit": {
        "hitBloodEffect": "",
        "muteAllHit": true,
        "muteAllHitEffect": true,
        "muteAllHitText": true
      },
      "combatLock": {
        "lockShape": "CircleLockEnemy",
        "denyLockOn": true,
        "lockType": "Default"
      }
    },
    "combatTemplate": "",
    "abilities": [
      {
        "abilityID": "Bullet_Tighnari_Arrow_NoGrass_Material",
        "abilityName": "Bullet_Tighnari_Arrow_NoGrass_Material",
        "abilityOverride": ""
      }
    ],
    "timer": {
      "lifeTime": 20.0
    },
    "move": {
      "$type": "KPMONKJIGAM",
      "speed": 50.0,
      "LADLDOGAMLI": {
        "$type": "GLPIGCIKICP"
      },
      "straightRange": 25.0,
      "gravityOfAcceleration": 5.5,
      "airResistance": 0.009999999776482582
    },
    "gadget": {
      "$type": "INBEOAJKHGD",
      "collision": {
        "targetType": "Enemy"
      },
      "triggerActions": [
        {
          "$type": "HEAANEHEBIK",
          "abilityName": "Bullet_Tighnari_Arrow_NoGrass_Material"
        }
      ],
      "fireAISoundEvent": true
    }
  },
  "Tighnari_AimingArrow_WithGrass": {
    "$type": "PAAKDFFLFIN",
    "common": {
      "effectAttachShape": {
        "$type": "AFBBHIMPGKH",
        "scaleX": 0.5,
        "scaleY": 0.5
      },
      "affectedByWorld": true
    },
    "combat": {
      "property": {
        "useCreatorProperty": true,
        "isInvincible": true,
        "canTriggerBullet": false
      },
      "beHit": {
        "hitBloodEffect": "",
        "muteAllHit": true,
        "muteAllHitEffect": true,
        "muteAllHitText": true
      },
      "combatLock": {
        "lockShape": "CircleLockEnemy",
        "denyLockOn": true,
        "lockType": "Default"
      }
    },
    "combatTemplate": "",
    "abilities": [
      {
        "abilityID": "Bullet_Tighnari_Arrow_WithGrass_Material",
        "abilityName": "Bullet_Tighnari_Arrow_WithGrass_Material",
        "abilityOverride": ""
      }
    ],
    "timer": {
      "lifeTime": 20.0
    },
    "move": {
      "$type": "KPMONKJIGAM",
      "speed": 50.0,
      "LADLDOGAMLI": {
        "$type": "GLPIGCIKICP"
      },
      "straightRange": 25.0,
      "gravityOfAcceleration": 5.5,
      "airResistance": 0.009999999776482582
    },
    "gadget": {
      "$type": "INBEOAJKHGD",
      "collision": {
        "targetType": "Enemy"
      },
      "triggerActions": [
        {
          "$type": "HEAANEHEBIK",
          "abilityName": "Bullet_Tighnari_Arrow_WithGrass_Material"
        }
      ],
      "fireAISoundEvent": true
    }
  },
  "Tighnari_AimingArrow_BeforeFission": {
    "$type": "PAAKDFFLFIN",
    "common": {
      "effectAttachShape": {
        "$type": "AFBBHIMPGKH"
      },
      "affectedByWorld": true
    },
    "combat": {
      "property": {
        "useCreatorProperty": true,
        "isInvincible": true,
        "canTriggerBullet": false
      },
      "beHit": {
        "hitBloodEffect": "",
        "muteAllHit": true,
        "muteAllHitEffect": true,
        "muteAllHitText": true
      },
      "combatLock": {
        "lockShape": "CircleLockEnemy",
        "denyLockOn": true,
        "lockType": "Default"
      }
    },
    "combatTemplate": "",
    "abilities": [
      {
        "abilityID": "Tighnari_AimingArrow_BeforeFission_Material",
        "abilityName": "Tighnari_AimingArrow_BeforeFission_Material",
        "abilityOverride": ""
      }
    ],
    "timer": {
      "lifeTime": 20.0
    },
    "move": {
      "$type": "KPMONKJIGAM",
      "speed": 50.0,
      "LADLDOGAMLI": {
        "$type": "GLPIGCIKICP"
      },
      "straightRange": 25.0,
      "gravityOfAcceleration": 5.5,
      "airResistance": 0.009999999776482582
    },
    "gadget": {
      "$type": "INBEOAJKHGD",
      "collision": {
        "targetType": "Enemy"
      },
      "triggerActions": [
        {
          "$type": "HEAANEHEBIK",
          "abilityName": "Tighnari_AimingArrow_BeforeFission_Material"
        }
      ],
      "triggerLifeOverActions": [
        {
          "$type": "HEAANEHEBIK",
          "abilityName": "Tighnari_AimingArrow_BeforeFission_Material"
        }
      ],
      "fireAISoundEvent": true
    }
  },
  "Tighnari_AimingArrow_Fission": {
    "$type": "PAAKDFFLFIN",
    "common": {
      "effectAttachShape": {
        "$type": "AFBBHIMPGKH"
      },
      "affectedByWorld": true
    },
    "combat": {
      "property": {
        "useCreatorProperty": true,
        "isInvincible": true,
        "canTriggerBullet": false
      },
      "beHit": {
        "hitBloodEffect": "",
        "muteAllHit": true,
        "muteAllHitEffect": true,
        "muteAllHitText": true
      },
      "combatLock": {
        "lockShape": "CircleLockEnemy",
        "denyLockOn": true,
        "lockType": "Default"
      }
    },
    "combatTemplate": "",
    "abilities": [
      {
        "abilityID": "Tighnari_AimingArrow_Fission_Material",
        "abilityName": "Tighnari_AimingArrow_Fission_Material",
        "abilityOverride": ""
      },
      {
        "abilityID": "Tighnari_AimingArrow_Fission_LifeOver",
        "abilityName": "Tighnari_AimingArrow_Fission_LifeOver",
        "abilityOverride": ""
      }
    ],
    "timer": {
      "lifeTime": 2.0
    },
    "move": {
      "$type": "MEFFBNAGNKM",
      "velocityForce": {
        "muteAll": true
      },
      "speed": 14.0,
      "anglerVelocity": 20.0,
      "acceleration": -2.0,
      "accelerationTime": 2.0,
      "LADLDOGAMLI": {
        "$type": "GLPIGCIKICP"
      },
      "delay": 0.05000000074505806,
      "traceOnYAxis": true,
      "whenNoTarget": {
        "$type": "GGMMCINKNKP",
        "defaultTarget": {
          "$type": "KPFCCIOJAMK",
          "offset": {
            "GOAPOLCAJBP": 0.0,
            "FMOPCJGGFMH": 0.0,
            "EJJEPFCDDAM": 0.009999999776482582
          }
        },
        "radius": 0.5,
        "detectDelay": 0.30000001192092896
      }
    },
    "gadget": {
      "$type": "INBEOAJKHGD",
      "collision": {
        "targetType": "Enemy"
      },
      "triggerActions": [
        {
          "$type": "HEAANEHEBIK",
          "abilityName": "Tighnari_AimingArrow_Fission_Material"
        }
      ],
      "triggerLifeOverActions": [
        {
          "$type": "HEAANEHEBIK",
          "abilityName": "Tighnari_AimingArrow_Fission_LifeOver"
        }
      ],
      "fireAISoundEvent": true,
      "enableCollisionDelay": 0.30000001192092896,
      "resetLastPosOnDelayEnd": true,
      "reTriggerOnDelayEnd": true
    }
  },
  "Tighnari_AimingArrow_Fission_Talent": {
    "$type": "PAAKDFFLFIN",
    "common": {
      "effectAttachShape": {
        "$type": "AFBBHIMPGKH"
      },
      "affectedByWorld": true
    },
    "combat": {
      "property": {
        "useCreatorProperty": true,
        "isInvincible": true,
        "canTriggerBullet": false
      },
      "beHit": {
        "hitBloodEffect": "",
        "muteAllHit": true,
        "muteAllHitEffect": true,
        "muteAllHitText": true
      },
      "combatLock": {
        "lockShape": "CircleLockEnemy",
        "denyLockOn": true,
        "lockType": "Default"
      }
    },
    "combatTemplate": "",
    "abilities": [
      {
        "abilityID": "Tighnari_AimingArrow_Fission_Material_Talent",
        "abilityName": "Tighnari_AimingArrow_Fission_Material_Talent",
        "abilityOverride": ""
      },
      {
        "abilityID": "Tighnari_AimingArrow_Fission_LifeOver_Talent",
        "abilityName": "Tighnari_AimingArrow_Fission_LifeOver_Talent",
        "abilityOverride": ""
      }
    ],
    "timer": {
      "lifeTime": 2.0
    },
    "move": {
      "$type": "MEFFBNAGNKM",
      "velocityForce": {
        "muteAll": true
      },
      "speed": 14.0,
      "anglerVelocity": 20.0,
      "acceleration": -2.0,
      "accelerationTime": 2.0,
      "LADLDOGAMLI": {
        "$type": "GLPIGCIKICP"
      },
      "delay": 0.05000000074505806,
      "traceOnYAxis": true,
      "whenNoTarget": {
        "$type": "GGMMCINKNKP",
        "defaultTarget": {
          "$type": "KPFCCIOJAMK",
          "offset": {
            "GOAPOLCAJBP": 0.0,
            "FMOPCJGGFMH": 0.0,
            "EJJEPFCDDAM": 0.009999999776482582
          }
        },
        "radius": 0.5,
        "detectDelay": 0.30000001192092896
      }
    },
    "gadget": {
      "$type": "INBEOAJKHGD",
      "collision": {
        "targetType": "Enemy"
      },
      "triggerActions": [
        {
          "$type": "HEAANEHEBIK",
          "abilityName": "Tighnari_AimingArrow_Fission_Material_Talent"
        }
      ],
      "triggerLifeOverActions": [
        {
          "$type": "HEAANEHEBIK",
          "abilityName": "Tighnari_AimingArrow_Fission_LifeOver_Talent"
        }
      ],
      "fireAISoundEvent": true,
      "enableCollisionDelay": 0.30000001192092896,
      "resetLastPosOnDelayEnd": true,
      "reTriggerOnDelayEnd": true
    }
  },
  "Tighnari_ElementalArt_Bullet": {
    "$type": "PAAKDFFLFIN",
    "common": {
      "effectAttachShape": {
        "$type": "AFBBHIMPGKH"
      }
    },
    "combat": {
      "property": {
        "useCreatorProperty": true,
        "isGhostToAllied": true,
        "isGhostToEnemy": true,
        "canTriggerBullet": false
      },
      "beHit": {
        "hitBloodEffect": "",
        "muteAllHit": true,
        "muteAllHitEffect": true,
        "muteAllHitText": true
      },
      "combatLock": {
        "lockShape": "CircleLockEnemy",
        "denyLockOn": true,
        "lockType": "Gadget_Lv1"
      }
    },
    "combatTemplate": "",
    "abilities": [
      {
        "abilityID": "SkillObj_Tighnari_ElementalArt_Ball_Material",
        "abilityName": "SkillObj_Tighnari_ElementalArt_Ball_Material",
        "abilityOverride": ""
      }
    ],
    "timer": {
      "lifeTime": 4.0
    },
    "move": {
      "$type": "EBELDBHINMB",
      "velocityForce": {
        "muteAll": true
      },
      "speed": 15.0,
      "angleOffHor": 20.0,
      "gravityOfAcceleration": 30.0,
      "correction": {
        "$type": "ELDDGNNGEAK",
        "fixAngleOfVer": 15.0,
        "minSpeed": 4.0,
        "maxSpeed": 18.0
      }
    },
    "gadget": {
      "$type": "INBEOAJKHGD",
      "collision": {
        "targetType": "Enemy"
      },
      "triggerActions": [
        {
          "$type": "HEAANEHEBIK",
          "abilityName": "SkillObj_Tighnari_ElementalArt_Ball_Material"
        }
      ],
      "triggerLifeOverActions": [
        {
          "$type": "HEAANEHEBIK",
          "abilityName": "SkillObj_Tighnari_ElementalArt_Ball_Material"
        }
      ]
    }
  },
  "Tighnari_ElementalArt_CenterGadget": {
    "$type": "PAAKDFFLFIN",
    "common": {
      "effectAttachShape": {
        "$type": "AFBBHIMPGKH"
      }
    },
    "combat": {
      "property": {
        "useCreatorProperty": true,
        "isInvincible": true,
        "isGhostToAllied": true,
        "isGhostToEnemy": true,
        "canTriggerBullet": false
      },
      "beHit": {
        "hitBloodEffect": "",
        "muteAllHit": true,
        "muteAllHitEffect": true,
        "muteAllHitText": true
      },
      "combatLock": {
        "lockShape": "CircleLockEnemy",
        "denyLockOn": true,
        "lockType": "Default"
      },
      "die": {
        "dieEndTime": 0.5,
        "dieDisappearEffect": ""
      }
    },
    "combatTemplate": "",
    "abilities": [
      {
        "abilityID": "SkillObj_Tighnari_ElementalArt_CenterGadget_Material",
        "abilityName": "SkillObj_Tighnari_ElementalArt_CenterGadget_Material",
        "abilityOverride": ""
      }
    ],
    "timer": {
      "lifeTime": 10.0
    }
  },
  "Tighnari_ElementalArt_TauntGadget": {
    "$type": "PAAKDFFLFIN",
    "common": {
      "effectAttachShape": {
        "$type": "AFBBHIMPGKH"
      },
      "affectedByWorld": true
    },
    "specialPoint": {
      "elementAbsorb": "RootNode",
      "elementPendant": "",
      "elementDrop": "RootNode",
      "bulletAim": "RootNode"
    },
    "combat": {
      "property": {
        "useCreatorProperty": true,
        "isInvincible": true,
        "isGhostToAllied": true,
        "isGhostToEnemy": true,
        "canTriggerBullet": false,
        "denyElementStick": true
      },
      "beHit": {
        "hitBloodEffect": "",
        "muteAllHit": true,
        "muteAllHitEffect": true,
        "muteAllHitText": true
      },
      "combatLock": {
        "lockShape": "CircleLockEnemy",
        "denyLockOn": true,
        "lockType": "Avatar&Monster_Lv4"
      },
      "die": {
        "dieEndTime": 0.5,
        "dieDisappearEffect": ""
      }
    },
    "combatTemplate": "",
    "abilities": [
      {
        "abilityID": "SkillObj_Tighnari_ElementalArt_TauntGadget_Material",
        "abilityName": "SkillObj_Tighnari_ElementalArt_TauntGadget_Material",
        "abilityOverride": ""
      }
    ],
    "timer": {
      "lifeTime": 10.0
    }
  },
  "Tighnari_ExtraAttack_Count": {
    "$type": "PAAKDFFLFIN",
    "common": {
      "effectAttachShape": {
        "$type": "AFBBHIMPGKH"
      }
    },
    "combat": {
      "property": {
        "useCreatorProperty": true,
        "isInvincible": true,
        "isGhostToAllied": true,
        "isGhostToEnemy": true
      },
      "beHit": {
        "hitBloodEffect": "",
        "muteAllHit": true,
        "muteAllHitEffect": true,
        "muteAllHitText": true
      },
      "combatLock": {
        "lockShape": "CircleLockEnemy",
        "denyLockOn": true,
        "lockType": "Gadget_Lv1"
      }
    },
    "combatTemplate": "",
    "abilities": [
      {
        "abilityID": "Skillobj_Tighnari_ExtraAttack_CountBuff",
        "abilityName": "Skillobj_Tighnari_ExtraAttack_CountBuff",
        "abilityOverride": ""
      }
    ],
    "timer": {
      "lifeTime": 20.0
    },
    "move": {
      "$type": "IGIJLNOIMEL",
      "velocityForce": {
        "muteAll": true
      },
      "attachPoint": "CameraLook",
      "followRotation": true,
      "DJPAKKKHBJH": {
        "z": 1.0
      },
      "followOwnerInvisible": true,
      "syncTransToServer": true,
      "EHCIGNEDGDO": ""
    },
    "dontDestroyByPerform": true
  },
  "Tighnari_ElementalBurst_BulletTrigger": {
    "$type": "PAAKDFFLFIN",
    "common": {
      "effectAttachShape": {
        "$type": "AFBBHIMPGKH"
      }
    },
    "combat": {
      "property": {
        "useCreatorProperty": true,
        "isGhostToAllied": true,
        "isGhostToEnemy": true
      },
      "beHit": {
        "hitBloodEffect": "",
        "muteAllHitEffect": true,
        "muteAllHitText": true
      },
      "combatLock": {
        "lockShape": "CircleLockEnemy",
        "denyLockOn": true,
        "lockType": "Gadget_Lv1"
      }
    },
    "combatTemplate": "",
    "abilities": [
      {
        "abilityID": "Avatar_Tighnari_ElementalBurst_BulletTrigger",
        "abilityName": "Avatar_Tighnari_ElementalBurst_BulletTrigger",
        "abilityOverride": ""
      }
    ],
    "timer": {
      "lifeTime": 2.0
    }
  },
  "Tighnari_ElementalBurst_TrackBullet1": {
    "$type": "PAAKDFFLFIN",
    "common": {
      "effectAttachShape": {
        "$type": "AFBBHIMPGKH"
      }
    },
    "combat": {
      "property": {
        "useCreatorProperty": true,
        "isGhostToAllied": true,
        "isGhostToEnemy": true,
        "canTriggerBullet": false
      },
      "beHit": {
        "hitBloodEffect": "",
        "muteAllHit": true,
        "muteAllHitEffect": true,
        "muteAllHitText": true
      },
      "combatLock": {
        "lockShape": "CircleLockEnemy",
        "denyLockOn": true,
        "lockType": "Gadget_Lv1"
      }
    },
    "combatTemplate": "",
    "abilities": [
      {
        "abilityID": "TriggerDamage",
        "abilityName": "Avatar_Tighnari_ElementalBurst_Bullet_Damage1",
        "abilityOverride": ""
      },
      {
        "abilityID": "Bullet_Material",
        "abilityName": "Avatar_Tighnari_ElementalBurst_Bullet_1_Material",
        "abilityOverride": ""
      }
    ],
    "timer": {
      "lifeTime": 2.0
    },
    "move": {
      "$type": "MEFFBNAGNKM",
      "velocityForce": {
        "muteAll": true
      },
      "speed": 10.0,
      "maxSpeed": 30.0,
      "minSpeed": 10.0,
      "anglerVelocity": 90.0,
      "acceleration": 15.0,
      "LADLDOGAMLI": {
        "$type": "GLPIGCIKICP",
        "traceLerpCoef": 360.0,
        "isSmoothRotation": true
      },
      "traceOnYAxis": true,
      "whenNoTarget": {
        "$type": "GGMMCINKNKP",
        "defaultTarget": {
          "$type": "CDIHEPNNOON",
          "offset": {
            "GOAPOLCAJBP": 0.0,
            "FMOPCJGGFMH": 0.0,
            "EJJEPFCDDAM": 20.0
          },
          "onGround": true
        },
        "radius": 3.5
      }
    },
    "gadget": {
      "$type": "INBEOAJKHGD",
      "collision": {
        "targetType": "Enemy"
      },
      "triggerActions": [
        {
          "$type": "HEAANEHEBIK",
          "abilityName": "Avatar_Tighnari_ElementalBurst_Bullet_Damage1"
        }
      ],
      "triggerLifeOverActions": [
        {
          "$type": "HEAANEHEBIK",
          "abilityName": "Avatar_Tighnari_ElementalBurst_Bullet_Damage1"
        }
      ],
      "enableCollisionDelay": 0.30000001192092896,
      "resetLastPosOnDelayEnd": true,
      "reTriggerOnDelayEnd": true
    }
  },
  "Tighnari_ElementalBurst_TrackBullet2": {
    "$type": "PAAKDFFLFIN",
    "common": {
      "effectAttachShape": {
        "$type": "AFBBHIMPGKH"
      }
    },
    "combat": {
      "property": {
        "useCreatorProperty": true,
        "isGhostToAllied": true,
        "isGhostToEnemy": true,
        "canTriggerBullet": false
      },
      "beHit": {
        "hitBloodEffect": "",
        "muteAllHit": true,
        "muteAllHitEffect": true,
        "muteAllHitText": true
      },
      "combatLock": {
        "lockShape": "CircleLockEnemy",
        "denyLockOn": true,
        "lockType": "Gadget_Lv1"
      }
    },
    "combatTemplate": "",
    "abilities": [
      {
        "abilityID": "TriggerDamage",
        "abilityName": "Avatar_Tighnari_ElementalBurst_Bullet_Damage2",
        "abilityOverride": ""
      },
      {
        "abilityID": "Bullet_Material",
        "abilityName": "Avatar_Tighnari_ElementalBurst_Bullet_2_Material",
        "abilityOverride": ""
      }
    ],
    "timer": {
      "lifeTime": 2.0
    },
    "move": {
      "$type": "MEFFBNAGNKM",
      "velocityForce": {
        "muteAll": true
      },
      "speed": 10.0,
      "maxSpeed": 20.0,
      "minSpeed": 10.0,
      "anglerVelocity": 20.0,
      "acceleration": 5.0,
      "LADLDOGAMLI": {
        "$type": "GLPIGCIKICP",
        "traceLerpCoef": 360.0,
        "isSmoothRotation": true
      },
      "delay": 0.10000000149011612,
      "traceOnYAxis": true,
      "whenNoTarget": {
        "$type": "GGMMCINKNKP",
        "defaultTarget": {
          "$type": "KPFCCIOJAMK",
          "offset": {
            "GOAPOLCAJBP": 0.0,
            "FMOPCJGGFMH": 0.0,
            "EJJEPFCDDAM": 0.009999999776482582
          }
        },
        "radius": 0.5,
        "detectDelay": 0.30000001192092896
      }
    },
    "gadget": {
      "$type": "INBEOAJKHGD",
      "collision": {
        "targetType": "Enemy"
      },
      "triggerActions": [
        {
          "$type": "HEAANEHEBIK",
          "abilityName": "Avatar_Tighnari_ElementalBurst_Bullet_Damage2"
        }
      ],
      "triggerLifeOverActions": [
        {
          "$type": "HEAANEHEBIK",
          "abilityName": "Avatar_Tighnari_ElementalBurst_Bullet_Damage2"
        }
      ],
      "enableCollisionDelay": 0.30000001192092896,
      "resetLastPosOnDelayEnd": true,
      "reTriggerOnDelayEnd": true
    }
  }
}