{
  "Chrysopelea_Attack01_Bullet": {
    "$type": "PAAKDFFLFIN",
    "common": {
      "effectAttachShape": {
        "$type": "AFBBHIMPGKH"
      }
    },
    "combat": {
      "property": {
        "useCreatorProperty": true,
        "hp": 999999.0,
        "attack": 10.0,
        "defense": 999999.0,
        "isInvincible": true,
        "isGhostToAllied": true,
        "isGhostToEnemy": true
      },
      "beHit": {
        "hitBloodEffect": "",
        "muteAllHit": true,
        "muteAllHitEffect": true,
        "muteAllHitText": true
      },
      "combatLock": {
        "lockShape": "CircleLockEnemy",
        "denyLockOn": true,
        "lockType": "Default"
      }
    },
    "combatTemplate": "",
    "abilities": [
      {
        "abilityID": "",
        "abilityName": "Monster_Chrysopelea_Attack01_Bullet",
        "abilityOverride": ""
      }
    ],
    "timer": {
      "lifeTime": 6.0
    },
    "move": {
      "$type": "AFLMLLJFENB",
      "velocityForce": {
        "excludeForces": [
          "WindZoneType"
        ]
      },
      "speed": 10.0,
      "maxSpeed": 20.0,
      "minSpeed": 10.0,
      "anglerVelocity": 200.0,
      "acceleration": 1.0,
      "LADLDOGAMLI": {
        "$type": "GLPIGCIKICP"
      },
      "guidanceSpeedChange": false,
      "guidanceDuration": 0.20000000298023224
    },
    "gadget": {
      "$type": "INBEOAJKHGD",
      "collision": {
        "targetType": "Enemy"
      },
      "triggerActions": [
        {
          "$type": "HEAANEHEBIK",
          "abilityName": "Monster_Chrysopelea_Attack01_Bullet"
        }
      ]
    }
  },
  "Chrysopelea_Sacred_Attack01_Bullet": {
    "$type": "PAAKDFFLFIN",
    "common": {
      "effectAttachShape": {
        "$type": "AFBBHIMPGKH"
      }
    },
    "combat": {
      "property": {
        "useCreatorProperty": true,
        "hp": 999999.0,
        "attack": 10.0,
        "defense": 999999.0,
        "isInvincible": true,
        "isGhostToAllied": true,
        "isGhostToEnemy": true
      },
      "beHit": {
        "hitBloodEffect": "",
        "muteAllHit": true,
        "muteAllHitEffect": true,
        "muteAllHitText": true
      },
      "combatLock": {
        "lockShape": "CircleLockEnemy",
        "denyLockOn": true,
        "lockType": "Default"
      }
    },
    "combatTemplate": "",
    "abilities": [
      {
        "abilityID": "",
        "abilityName": "Monster_Chrysopelea_Sacred_AnimalAttack01_Bullet",
        "abilityOverride": ""
      }
    ],
    "timer": {
      "lifeTime": 8.0
    },
    "move": {
      "$type": "AFLMLLJFENB",
      "velocityForce": {
        "excludeForces": [
          "WindZoneType"
        ]
      },
      "speed": 8.0,
      "maxSpeed": 16.0,
      "minSpeed": 5.0,
      "anglerVelocity": 0.0,
      "acceleration": 1.0,
      "LADLDOGAMLI": {
        "$type": "GLPIGCIKICP"
      },
      "guidanceDelay": 99.0,
      "guidanceSpeedChange": false,
      "guidanceDuration": 0.0
    },
    "gadget": {
      "$type": "INBEOAJKHGD",
      "collision": {
        "targetType": "Enemy"
      },
      "triggerActions": [
        {
          "$type": "HEAANEHEBIK",
          "abilityName": "Monster_Chrysopelea_Sacred_AnimalAttack01_Bullet"
        }
      ]
    }
  },
  "Chrysopelea_Sacred_Attack01_WindZone": {
    "$type": "PAAKDFFLFIN",
    "combat": {
      "property": {
        "useCreatorProperty": true,
        "hp": 999999.0,
        "attack": 10.0,
        "isInvincible": true,
        "isGhostToAllied": true,
        "isGhostToEnemy": true
      },
      "combatLock": {
        "lockShape": "CircleLockEnemy",
        "denyLockOn": true,
        "lockType": "Default"
      }
    },
    "combatTemplate": "",
    "abilities": [
      {
        "abilityID": "WindArea",
        "abilityName": "Monster_Chrysopelea_Sacred_Attack01_WindZone",
        "abilityOverride": ""
      }
    ],
    "timer": {
      "lifeTime": 5.0
    },
    "canRemoveByClient": true
  },
  "Chrysopelea_Sacred_Attack02_WindBlade": {
    "$type": "PAAKDFFLFIN",
    "common": {
      "effectAttachShape": {
        "$type": "AFBBHIMPGKH"
      }
    },
    "combat": {
      "property": {
        "useCreatorProperty": true,
        "hp": 999999.0,
        "attack": 10.0,
        "defense": 999999.0,
        "isInvincible": true,
        "isGhostToAllied": true,
        "isGhostToEnemy": true
      },
      "beHit": {
        "hitBloodEffect": "",
        "muteAllHit": true,
        "muteAllHitEffect": true,
        "muteAllHitText": true
      },
      "combatLock": {
        "lockShape": "CircleLockEnemy",
        "denyLockOn": true,
        "lockType": "Default"
      },
      "simulatePhysics": {
        "radius": 0.30000001192092896
      }
    },
    "combatTemplate": "",
    "abilities": [
      {
        "abilityID": "",
        "abilityName": "Monster_Chrysopelea_Sacred_Attack02_WindBlade",
        "abilityOverride": ""
      }
    ],
    "timer": {
      "lifeTime": 6.0
    },
    "move": {
      "$type": "KIKKGNJDDIL",
      "velocityForce": {
        "excludeForces": [
          "WindZoneType"
        ]
      }
    },
    "gadget": {
      "$type": "KGFDPADDBCP",
      "collision": {
        "targetType": "Enemy"
      },
      "triggerActions": [
        {
          "$type": "HEAANEHEBIK",
          "abilityName": "Monster_Chrysopelea_Sacred_Attack02_WindBlade"
        }
      ],
      "triggerLifeOverActions": [
        {
          "$type": "HEAANEHEBIK",
          "abilityName": "Monster_Chrysopelea_Sacred_Attack02_WindBlade"
        }
      ],
      "killByOther": true,
      "multiBulletConfig": {
        "$type": "ABMIABPCJBA",
        "effectPattern": "Eff_Monster_Chrysopelea_Sacred_SacredAttack02_WindBlade"
      }
    },
    "useRetreatType": true
  },
  "Chrysopelea_Sacred_Attack02_WindBlade02": {
    "$type": "PAAKDFFLFIN",
    "common": {
      "effectAttachShape": {
        "$type": "AFBBHIMPGKH"
      }
    },
    "combat": {
      "property": {
        "useCreatorProperty": true,
        "hp": 999999.0,
        "attack": 10.0,
        "defense": 999999.0,
        "isInvincible": true,
        "isGhostToAllied": true,
        "isGhostToEnemy": true
      },
      "beHit": {
        "hitBloodEffect": "",
        "muteAllHit": true,
        "muteAllHitEffect": true,
        "muteAllHitText": true
      },
      "combatLock": {
        "lockShape": "CircleLockEnemy",
        "denyLockOn": true,
        "lockType": "Default"
      },
      "simulatePhysics": {
        "radius": 0.30000001192092896
      }
    },
    "combatTemplate": "",
    "abilities": [
      {
        "abilityID": "",
        "abilityName": "Monster_Chrysopelea_Sacred_Attack02_WindBlade",
        "abilityOverride": ""
      }
    ],
    "timer": {
      "lifeTime": 6.0
    },
    "move": {
      "$type": "KIKKGNJDDIL",
      "velocityForce": {
        "excludeForces": [
          "WindZoneType"
        ]
      }
    },
    "gadget": {
      "$type": "KGFDPADDBCP",
      "collision": {
        "targetType": "Enemy"
      },
      "triggerActions": [
        {
          "$type": "HEAANEHEBIK",
          "abilityName": "Monster_Chrysopelea_Sacred_Attack02_WindBlade"
        }
      ],
      "triggerLifeOverActions": [
        {
          "$type": "HEAANEHEBIK",
          "abilityName": "Monster_Chrysopelea_Sacred_Attack02_WindBlade"
        }
      ],
      "killByOther": true,
      "multiBulletConfig": {
        "$type": "ABMIABPCJBA",
        "effectPattern": "Eff_Monster_Chrysopelea_Sacred_SacredAttack02_WindBlade02"
      }
    }
  },
  "Chrysopelea_Sacred_Attack02_WindBlade03": {
    "$type": "PAAKDFFLFIN",
    "common": {
      "effectAttachShape": {
        "$type": "AFBBHIMPGKH"
      }
    },
    "combat": {
      "property": {
        "useCreatorProperty": true,
        "hp": 999999.0,
        "attack": 10.0,
        "defense": 999999.0,
        "isInvincible": true,
        "isGhostToAllied": true,
        "isGhostToEnemy": true
      },
      "beHit": {
        "hitBloodEffect": "",
        "muteAllHit": true,
        "muteAllHitEffect": true,
        "muteAllHitText": true
      },
      "combatLock": {
        "lockShape": "CircleLockEnemy",
        "denyLockOn": true,
        "lockType": "Default"
      },
      "simulatePhysics": {
        "radius": 0.30000001192092896
      }
    },
    "combatTemplate": "",
    "abilities": [
      {
        "abilityID": "",
        "abilityName": "Monster_Chrysopelea_Sacred_Attack02_WindBlade",
        "abilityOverride": ""
      }
    ],
    "timer": {
      "lifeTime": 6.0
    },
    "move": {
      "$type": "KIKKGNJDDIL",
      "velocityForce": {
        "excludeForces": [
          "WindZoneType"
        ]
      }
    },
    "gadget": {
      "$type": "KGFDPADDBCP",
      "collision": {
        "targetType": "Enemy"
      },
      "triggerActions": [
        {
          "$type": "HEAANEHEBIK",
          "abilityName": "Monster_Chrysopelea_Sacred_Attack02_WindBlade"
        }
      ],
      "triggerLifeOverActions": [
        {
          "$type": "HEAANEHEBIK",
          "abilityName": "Monster_Chrysopelea_Sacred_Attack02_WindBlade"
        }
      ],
      "killByOther": true,
      "multiBulletConfig": {
        "$type": "ABMIABPCJBA",
        "effectPattern": "Eff_Monster_Chrysopelea_Sacred_SacredAttack02_WindBlade03"
      }
    }
  },
  "Chrysopelea_Sacred_Attack04_WindZone": {
    "$type": "PAAKDFFLFIN",
    "combat": {
      "property": {
        "useCreatorProperty": true,
        "hp": 999999.0,
        "attack": 10.0,
        "isInvincible": true,
        "isGhostToAllied": true,
        "isGhostToEnemy": true
      },
      "combatLock": {
        "lockShape": "CircleLockEnemy",
        "denyLockOn": true,
        "lockType": "Default"
      }
    },
    "combatTemplate": "",
    "abilities": [
      {
        "abilityID": "WindArea",
        "abilityName": "Monster_Chrysopelea_Sacred_Attack04_WindZone",
        "abilityOverride": ""
      }
    ],
    "timer": {
      "lifeTime": 5.0
    },
    "canRemoveByClient": true
  },
  "Chrysopelea_Sacred_Attack05_Bullet": {
    "$type": "PAAKDFFLFIN",
    "common": {
      "effectAttachShape": {
        "$type": "AFBBHIMPGKH"
      }
    },
    "combat": {
      "property": {
        "useCreatorProperty": true,
        "hp": 999999.0,
        "attack": 10.0,
        "defense": 999999.0,
        "isInvincible": true,
        "isGhostToAllied": true,
        "isGhostToEnemy": true
      },
      "beHit": {
        "hitBloodEffect": "",
        "muteAllHit": true,
        "muteAllHitEffect": true,
        "muteAllHitText": true
      },
      "combatLock": {
        "lockShape": "CircleLockEnemy",
        "denyLockOn": true,
        "lockType": "Default"
      }
    },
    "combatTemplate": "",
    "abilities": [
      {
        "abilityID": "",
        "abilityName": "Monster_Chrysopelea_Sacred_Attack05_Bullet",
        "abilityOverride": ""
      }
    ],
    "timer": {
      "lifeTime": 8.0
    },
    "move": {
      "$type": "AFLMLLJFENB",
      "velocityForce": {
        "excludeForces": [
          "WindZoneType"
        ]
      },
      "speed": 4.0,
      "maxSpeed": 12.0,
      "minSpeed": 4.0,
      "anglerVelocity": 240.0,
      "acceleration": 3.0,
      "LADLDOGAMLI": {
        "$type": "GLPIGCIKICP"
      },
      "guidanceDelay": 0.20000000298023224,
      "guidanceSpeedChange": false,
      "guidanceDuration": 1.7999999523162842
    },
    "gadget": {
      "$type": "INBEOAJKHGD",
      "collision": {
        "targetType": "Enemy"
      },
      "triggerActions": [
        {
          "$type": "HEAANEHEBIK",
          "abilityName": "Monster_Chrysopelea_Sacred_Attack05_Bullet"
        }
      ],
      "triggerLifeOverActions": [
        {
          "$type": "HEAANEHEBIK",
          "abilityName": "Monster_Chrysopelea_Sacred_Attack05_Bullet"
        }
      ]
    }
  },
  "Chrysopelea_Sacred_Attack05_WindBlade": {
    "$type": "PAAKDFFLFIN",
    "common": {
      "effectAttachShape": {
        "$type": "AFBBHIMPGKH"
      }
    },
    "combat": {
      "property": {
        "useCreatorProperty": true,
        "isLockHP": true,
        "canTriggerBullet": false
      },
      "beHit": {
        "hitBloodEffect": "",
        "muteAllHit": true,
        "muteAllHitEffect": true,
        "muteAllHitText": true
      },
      "combatLock": {
        "lockShape": "CircleLockEnemy",
        "denyLockOn": true,
        "lockType": "Default"
      }
    },
    "combatTemplate": "",
    "abilities": [
      {
        "abilityID": "",
        "abilityName": "Monster_Chrysopelea_Sacred_Attack05_WindBlade",
        "abilityOverride": ""
      }
    ],
    "timer": {
      "lifeTime": 4.0
    },
    "move": {
      "$type": "AHGMNDFKPGD",
      "velocityForce": {
        "excludeForces": [
          "WindZoneType"
        ]
      },
      "speed": 25.0,
      "maxSpeed": 40.0,
      "acceleration": 10.0,
      "LADLDOGAMLI": {
        "$type": "GLPIGCIKICP"
      }
    },
    "gadget": {
      "$type": "INBEOAJKHGD",
      "collision": {
        "triggerType": "TriggerNoRepeat",
        "targetType": "Enemy",
        "ignoreScene": true
      },
      "triggerActions": [
        {
          "$type": "HEAANEHEBIK",
          "abilityName": "Monster_Chrysopelea_Sacred_Attack05_WindBlade"
        }
      ]
    }
  },
  "Chrysopelea_Sacred_SacredEnergy_Detect": {
    "$type": "PAAKDFFLFIN",
    "common": {
      "effectAttachShape": {
        "$type": "AFBBHIMPGKH"
      }
    },
    "combat": {
      "property": {
        "useCreatorProperty": true,
        "hp": 999999.0,
        "defense": 999999.0,
        "isInvincible": true,
        "isGhostToAllied": true,
        "isGhostToEnemy": true
      },
      "beHit": {
        "hitBloodEffect": "",
        "muteAllHit": true,
        "muteAllHitEffect": true,
        "muteAllHitText": true
      },
      "combatLock": {
        "lockShape": "CircleLockEnemy",
        "denyLockOn": true,
        "lockType": "Default"
      }
    },
    "combatTemplate": "",
    "abilities": [
      {
        "abilityID": "",
        "abilityName": "Monster_Chrysopelea_Sacred_SacredEnergy_Create",
        "abilityOverride": ""
      },
      {
        "abilityID": "",
        "abilityName": "Monster_Chrysopelea_Sacred_SacredEnergy_CreateO",
        "abilityOverride": ""
      }
    ],
    "timer": {
      "lifeTime": 0.10000000149011612
    },
    "move": {
      "$type": "AHGMNDFKPGD",
      "velocityForce": {
        "excludeForces": [
          "WindZoneType"
        ]
      },
      "speed": 40.0
    },
    "gadget": {
      "$type": "INBEOAJKHGD",
      "collision": {
        "targetType": "Enemy"
      },
      "triggerActions": [
        {
          "$type": "HEAANEHEBIK",
          "abilityName": "Monster_Chrysopelea_Sacred_SacredEnergy_Create"
        }
      ],
      "triggerLifeOverActions": [
        {
          "$type": "HEAANEHEBIK",
          "abilityName": "Monster_Chrysopelea_Sacred_SacredEnergy_CreateO"
        }
      ]
    }
  },
  "Chrysopelea_Sacred_SacredEnergy_Accum": {
    "$type": "PAAKDFFLFIN",
    "common": {
      "effectAttachShape": {
        "$type": "AFBBHIMPGKH"
      }
    },
    "combat": {
      "property": {
        "useCreatorProperty": true,
        "hp": 999999.0,
        "attack": 10.0,
        "defense": 999999.0,
        "isInvincible": true,
        "isGhostToAllied": true,
        "isGhostToEnemy": true
      },
      "beHit": {
        "hitBloodEffect": "",
        "muteAllHit": true,
        "muteAllHitEffect": true,
        "muteAllHitText": true
      },
      "combatLock": {
        "lockShape": "CircleLockEnemy",
        "denyLockOn": true,
        "lockType": "Default"
      },
      "simulatePhysics": {}
    },
    "combatTemplate": "",
    "abilities": [
      {
        "abilityID": "",
        "abilityName": "Monster_Chrysopelea_Sacred_SacredEnergy_Accum",
        "abilityOverride": ""
      }
    ],
    "timer": {
      "lifeTime": 5.0
    },
    "move": {
      "$type": "KIKKGNJDDIL",
      "velocityForce": {
        "excludeForces": [
          "WindZoneType"
        ]
      }
    },
    "gadget": {
      "$type": "KGFDPADDBCP",
      "collision": {
        "ignoreScene": true
      },
      "killByOther": true,
      "multiBulletConfig": {
        "$type": "ABMIABPCJBA",
        "effectPattern": "Eff_Monster_Chrysopelea_Sacred_SacredAttack05_SacredEnergy_Bullet"
      }
    }
  },
  "Chrysopelea_Sacred_SacredEnergy_Gadget": {
    "$type": "PAAKDFFLFIN",
    "common": {
      "effectAttachShape": {
        "$type": "AFBBHIMPGKH"
      }
    },
    "specialPoint": {
      "elementAbsorb": "RootNode",
      "elementPendant": "",
      "elementDrop": "RootNode",
      "bulletAim": "BulletAimPoint",
      "hitPoints": [
        "BulletAimPoint"
      ],
      "selectedPoints": [
        "BulletAimPoint"
      ]
    },
    "combat": {
      "property": {
        "useCreatorProperty": true,
        "hp": 999999.0,
        "attack": 10.0,
        "defense": 999999.0,
        "isLockHP": true
      },
      "beHit": {
        "hitBloodEffect": "",
        "hitAutoRedirect": false,
        "muteAllHitEffect": true,
        "muteAllHitText": true
      },
      "combatLock": {
        "lockShape": "CircleLockEnemy",
        "lockType": "Avatar&Monster_Lv4"
      }
    },
    "combatTemplate": "",
    "abilities": [
      {
        "abilityID": "",
        "abilityName": "Monster_Chrysopelea_Sacred_SacredEnergy_Gadget",
        "abilityOverride": ""
      }
    ],
    "timer": {
      "lifeTime": 15.0
    },
    "billboard": {
      "$type": "IBDGIBAFPPH",
      "attachPoint": "BillboardAttach",
      "radiusOffset": 3.0,
      "showDistance": 48.0,
      "showHPBar": true,
      "forceShowDistance": 48.0,
      "size": "Grand",
      "shieldBarOnly": true
    }
  },
  "Chrysopelea_Sacred_SacredEnergy_Bullet": {
    "$type": "PAAKDFFLFIN",
    "common": {
      "effectAttachShape": {
        "$type": "AFBBHIMPGKH"
      }
    },
    "combat": {
      "property": {
        "useCreatorProperty": true,
        "hp": 999999.0,
        "attack": 10.0,
        "defense": 999999.0,
        "isInvincible": true,
        "isGhostToAllied": true,
        "isGhostToEnemy": true
      },
      "beHit": {
        "hitBloodEffect": "",
        "muteAllHit": true,
        "muteAllHitEffect": true,
        "muteAllHitText": true
      },
      "combatLock": {
        "lockShape": "CircleLockEnemy",
        "denyLockOn": true,
        "lockType": "Default"
      }
    },
    "combatTemplate": "",
    "abilities": [
      {
        "abilityID": "",
        "abilityName": "Monster_Chrysopelea_Sacred_SacredEnergy_Bullet",
        "abilityOverride": ""
      }
    ],
    "timer": {
      "lifeTime": 7.5
    },
    "move": {
      "$type": "MEFFBNAGNKM",
      "velocityForce": {
        "excludeForces": [
          "WindZoneType"
        ]
      },
      "speed": 10.0,
      "maxSpeed": 20.0,
      "acceleration": 10.0,
      "LADLDOGAMLI": {
        "$type": "GLPIGCIKICP"
      },
      "delay": 0.6000000238418579,
      "traceOnYAxis": true
    },
    "gadget": {
      "$type": "INBEOAJKHGD",
      "collision": {
        "triggerType": "TriggerAlways",
        "targetType": "Enemy",
        "ignoreScene": true
      },
      "triggerActions": [
        {
          "$type": "HEAANEHEBIK",
          "abilityName": "Monster_Chrysopelea_Sacred_SacredEnergy_Bullet"
        }
      ],
      "killByOther": true
    }
  },
  "Chrysopelea_Sacred_SacredEnergy_Bullet_ToMonster": {
    "$type": "PAAKDFFLFIN",
    "common": {
      "effectAttachShape": {
        "$type": "AFBBHIMPGKH"
      }
    },
    "combat": {
      "property": {
        "useCreatorProperty": true,
        "hp": 999999.0,
        "attack": 10.0,
        "defense": 999999.0,
        "isInvincible": true,
        "isGhostToAllied": true,
        "isGhostToEnemy": true
      },
      "beHit": {
        "hitBloodEffect": "",
        "muteAllHit": true,
        "muteAllHitEffect": true,
        "muteAllHitText": true
      },
      "combatLock": {
        "lockShape": "CircleLockEnemy",
        "denyLockOn": true,
        "lockType": "Default"
      }
    },
    "combatTemplate": "",
    "abilities": [
      {
        "abilityID": "",
        "abilityName": "Monster_Chrysopelea_Sacred_SacredEnergy_Bullet_ToMonster",
        "abilityOverride": ""
      }
    ],
    "timer": {
      "lifeTime": 10.0
    },
    "move": {
      "$type": "MEFFBNAGNKM",
      "velocityForce": {
        "excludeForces": [
          "WindZoneType"
        ]
      },
      "speed": 10.0,
      "maxSpeed": 20.0,
      "acceleration": 10.0,
      "LADLDOGAMLI": {
        "$type": "GLPIGCIKICP"
      },
      "delay": 0.4000000059604645,
      "traceOnYAxis": true
    },
    "gadget": {
      "$type": "INBEOAJKHGD",
      "collision": {
        "triggerType": "TriggerNoRepeat",
        "targetType": "AllExceptSelf",
        "ignoreScene": true
      },
      "triggerActions": [
        {
          "$type": "HEAANEHEBIK",
          "abilityName": "Monster_Chrysopelea_Sacred_SacredEnergy_Bullet_ToMonster"
        }
      ],
      "killByOther": true
    }
  }
}