{
  "Drake_DeepSea_MagicIceBall": {
    "$type": "PAAKDFFLFIN",
    "common": {
      "effectAttachShape": {
        "$type": "AFBBHIMPGKH"
      },
      "viewSize": 1.2999999523162842,
      "affectedByWorld": true,
      "checkInSurface": true,
      "scale": 1.7999999523162842
    },
    "combat": {
      "property": {
        "useCreatorProperty": true,
        "isInvincible": true,
        "canTriggerBullet": false
      },
      "beHit": {
        "hitBloodEffect": "",
        "muteAllHit": true,
        "muteAllHitEffect": true,
        "muteAllHitText": true
      },
      "combatLock": {
        "lockShape": "CircleLockEnemy",
        "denyLockOn": true,
        "lockType": "Default"
      }
    },
    "combatTemplate": "",
    "abilities": [
      {
        "abilityID": "",
        "abilityName": "Monster_Drake_DeepSea_MagicIceBall",
        "abilityOverride": ""
      }
    ],
    "timer": {
      "lifeTime": 3.0
    },
    "move": {
      "$type": "AHGMNDFKPGD",
      "speed": 25.0
    },
    "gadget": {
      "$type": "INBEOAJKHGD",
      "collision": {
        "targetType": "Enemy",
        "ignoreWater": true
      },
      "triggerActions": [
        {
          "$type": "HEAANEHEBIK",
          "abilityName": "Monster_Drake_DeepSea_MagicIceBall"
        }
      ]
    }
  },
  "Drake_DeepSea_MagicElectricBall": {
    "$type": "PAAKDFFLFIN",
    "common": {
      "effectAttachShape": {
        "$type": "AFBBHIMPGKH"
      },
      "viewSize": 1.2999999523162842,
      "affectedByWorld": true,
      "checkInSurface": true,
      "scale": 1.7999999523162842
    },
    "combat": {
      "property": {
        "useCreatorProperty": true,
        "isInvincible": true,
        "canTriggerBullet": false
      },
      "beHit": {
        "hitBloodEffect": "",
        "muteAllHit": true,
        "muteAllHitEffect": true,
        "muteAllHitText": true
      },
      "combatLock": {
        "lockShape": "CircleLockEnemy",
        "denyLockOn": true,
        "lockType": "Default"
      }
    },
    "combatTemplate": "",
    "abilities": [
      {
        "abilityID": "",
        "abilityName": "Monster_Drake_DeepSea_MagicElectricBall",
        "abilityOverride": ""
      }
    ],
    "timer": {
      "lifeTime": 3.0
    },
    "move": {
      "$type": "AHGMNDFKPGD",
      "speed": 25.0
    },
    "gadget": {
      "$type": "INBEOAJKHGD",
      "collision": {
        "targetType": "Enemy",
        "ignoreWater": true
      },
      "triggerActions": [
        {
          "$type": "HEAANEHEBIK",
          "abilityName": "Monster_Drake_DeepSea_MagicElectricBall"
        }
      ]
    }
  },
  "Drake_DeepSea_MagicWaterBall": {
    "$type": "PAAKDFFLFIN",
    "common": {
      "effectAttachShape": {
        "$type": "AFBBHIMPGKH"
      },
      "affectedByWorld": true,
      "checkInSurface": true,
      "scale": 0.699999988079071
    },
    "combat": {
      "property": {
        "useCreatorProperty": true,
        "isInvincible": true,
        "canTriggerBullet": false
      },
      "beHit": {
        "hitBloodEffect": "",
        "muteAllHit": true,
        "muteAllHitEffect": true,
        "muteAllHitText": true
      },
      "combatLock": {
        "lockShape": "CircleLockEnemy",
        "denyLockOn": true,
        "lockType": "Default"
      }
    },
    "combatTemplate": "",
    "abilities": [
      {
        "abilityID": "",
        "abilityName": "Monster_Drake_DeepSea_MagicWaterBall",
        "abilityOverride": ""
      }
    ],
    "timer": {
      "lifeTime": 4.0
    },
    "move": {
      "$type": "AHGMNDFKPGD",
      "speed": 25.0
    },
    "gadget": {
      "$type": "INBEOAJKHGD",
      "collision": {
        "targetType": "Enemy",
        "ignoreWater": true
      },
      "triggerActions": [
        {
          "$type": "HEAANEHEBIK",
          "abilityName": "Monster_Drake_DeepSea_MagicWaterBall"
        }
      ]
    }
  },
  "Drake_DeepSea_TaiRangeAttack_IceSpear": {
    "$type": "PAAKDFFLFIN",
    "common": {
      "effectAttachShape": {
        "$type": "AFBBHIMPGKH"
      },
      "affectedByWorld": true,
      "checkInSurface": true
    },
    "combat": {
      "property": {
        "useCreatorProperty": true,
        "isInvincible": true,
        "canTriggerBullet": false
      },
      "beHit": {
        "hitBloodEffect": "",
        "muteAllHit": true,
        "muteAllHitEffect": true,
        "muteAllHitText": true
      },
      "combatLock": {
        "lockShape": "CircleLockEnemy",
        "denyLockOn": true,
        "lockType": "Default"
      }
    },
    "combatTemplate": "",
    "abilities": [
      {
        "abilityID": "",
        "abilityName": "Monster_Drake_DeepSea_TaiRangeAttack_IceSpear",
        "abilityOverride": ""
      }
    ],
    "timer": {
      "lifeTime": 7.0
    },
    "move": {
      "$type": "EBELDBHINMB",
      "speed": 30.0,
      "LADLDOGAMLI": {
        "$type": "GLPIGCIKICP"
      },
      "syncToRemote": true,
      "angleOffHor": 60.0,
      "gravityOfAcceleration": 40.0,
      "correction": {
        "$type": "ELDDGNNGEAK",
        "deviation": 7.0,
        "fixAngleOfVer": 30.0,
        "minSpeed": 6.0,
        "maxSpeed": 24.0
      }
    },
    "gadget": {
      "$type": "INBEOAJKHGD",
      "collision": {
        "targetType": "Enemy"
      },
      "triggerActions": [
        {
          "$type": "HEAANEHEBIK",
          "abilityName": "Monster_Drake_DeepSea_TaiRangeAttack_IceSpear"
        }
      ]
    }
  },
  "Drake_DeepSea_TaiRangeAttack_ElectricSpear": {
    "$type": "PAAKDFFLFIN",
    "combat": {
      "property": {
        "useCreatorProperty": true,
        "isInvincible": true,
        "canTriggerBullet": false
      },
      "beHit": {
        "hitBloodEffect": "",
        "muteAllHit": true,
        "muteAllHitEffect": true,
        "muteAllHitText": true
      },
      "combatLock": {
        "lockShape": "CircleLockEnemy",
        "denyLockOn": true,
        "lockType": "Default"
      }
    },
    "combatTemplate": "",
    "abilities": [
      {
        "abilityID": "",
        "abilityName": "Monster_Drake_DeepSea_TaiRangeAttack_ElectricSpear",
        "abilityOverride": ""
      }
    ],
    "timer": {
      "lifeTime": 3.0
    },
    "move": {
      "$type": "AFLMLLJFENB",
      "speed": 10.0,
      "maxSpeed": 25.0,
      "minSpeed": 15.0,
      "anglerVelocity": 1000.0,
      "acceleration": 10.0,
      "LADLDOGAMLI": {
        "$type": "GLPIGCIKICP"
      },
      "guidanceDelay": 0.30000001192092896,
      "guidanceMinAnglerVelocity": 500.0,
      "guidanceDuration": 0.20000000298023224
    },
    "gadget": {
      "$type": "INBEOAJKHGD",
      "collision": {
        "targetType": "Enemy"
      },
      "triggerActions": [
        {
          "$type": "HEAANEHEBIK",
          "abilityName": "Monster_Drake_DeepSea_TaiRangeAttack_ElectricSpear"
        }
      ]
    }
  },
  "Drake_DeepSea_TaiRangeAttack_WaterSpear": {
    "$type": "PAAKDFFLFIN",
    "common": {
      "effectAttachShape": {
        "$type": "AFBBHIMPGKH"
      },
      "viewSize": 0.5,
      "affectedByWorld": true,
      "checkInSurface": true,
      "scale": 0.5
    },
    "combat": {
      "property": {
        "useCreatorProperty": true,
        "isInvincible": true,
        "canTriggerBullet": false
      },
      "beHit": {
        "hitBloodEffect": "",
        "muteAllHit": true,
        "muteAllHitEffect": true,
        "muteAllHitText": true
      },
      "combatLock": {
        "lockShape": "CircleLockEnemy",
        "denyLockOn": true,
        "lockType": "Default"
      }
    },
    "combatTemplate": "",
    "abilities": [
      {
        "abilityID": "",
        "abilityName": "Monster_Drake_DeepSea_TaiRangeAttack_WaterSpear",
        "abilityOverride": ""
      }
    ],
    "timer": {
      "lifeTime": 5.0
    },
    "move": {
      "$type": "AHGMNDFKPGD",
      "speed": 30.0
    },
    "gadget": {
      "$type": "INBEOAJKHGD",
      "collision": {
        "targetType": "Enemy"
      },
      "triggerActions": [
        {
          "$type": "HEAANEHEBIK",
          "abilityName": "Monster_Drake_DeepSea_TaiRangeAttack_WaterSpear"
        }
      ]
    }
  },
  "Drake_DeepSea_WaterSpear_Earth": {
    "$type": "PAAKDFFLFIN",
    "common": {
      "effectAttachShape": {
        "$type": "AFBBHIMPGKH"
      },
      "viewSize": 0.5,
      "affectedByWorld": true,
      "checkInSurface": true,
      "scale": 0.5
    },
    "combat": {
      "property": {
        "useCreatorProperty": true,
        "isInvincible": true,
        "canTriggerBullet": false
      },
      "beHit": {
        "hitBloodEffect": "",
        "muteAllHit": true,
        "muteAllHitEffect": true,
        "muteAllHitText": true
      },
      "combatLock": {
        "lockShape": "CircleLockEnemy",
        "denyLockOn": true,
        "lockType": "Default"
      }
    },
    "combatTemplate": "",
    "abilities": [
      {
        "abilityID": "",
        "abilityName": "Monster_Drake_DeepSea_WaterSpear_Earth",
        "abilityOverride": ""
      }
    ],
    "timer": {
      "lifeTime": 5.0
    },
    "move": {
      "$type": "AHGMNDFKPGD",
      "speed": 30.0
    },
    "gadget": {
      "$type": "INBEOAJKHGD",
      "collision": {
        "triggerType": "TriggerNoRepeat",
        "targetType": "Enemy"
      },
      "triggerActions": [
        {
          "$type": "HEAANEHEBIK",
          "abilityName": "Monster_Drake_DeepSea_WaterSpear_Earth"
        }
      ]
    }
  },
  "Drake_DeepSea_TraceIceBall": {
    "$type": "PAAKDFFLFIN",
    "common": {
      "effectAttachShape": {
        "$type": "AFBBHIMPGKH"
      },
      "affectedByWorld": true,
      "checkInSurface": true,
      "scale": 1.7999999523162842
    },
    "combat": {
      "property": {
        "useCreatorProperty": true,
        "isInvincible": true,
        "canTriggerBullet": false
      },
      "beHit": {
        "hitBloodEffect": "",
        "muteAllHit": true,
        "muteAllHitEffect": true,
        "muteAllHitText": true
      },
      "combatLock": {
        "lockShape": "CircleLockEnemy",
        "denyLockOn": true,
        "lockType": "Default"
      }
    },
    "combatTemplate": "",
    "abilities": [
      {
        "abilityID": "",
        "abilityName": "Monster_Drake_DeepSea_TraceIceBall",
        "abilityOverride": ""
      }
    ],
    "timer": {
      "lifeTime": 8.0
    },
    "move": {
      "$type": "AFLMLLJFENB",
      "speed": 7.0,
      "maxSpeed": 15.0,
      "minSpeed": 10.0,
      "anglerVelocity": 1000.0,
      "LADLDOGAMLI": {
        "$type": "GLPIGCIKICP"
      },
      "guidanceDelay": 0.4000000059604645,
      "guidanceMinAnglerVelocity": 1000.0,
      "guidanceDuration": 2.0
    },
    "gadget": {
      "$type": "INBEOAJKHGD",
      "collision": {
        "targetType": "Enemy"
      },
      "triggerActions": [
        {
          "$type": "HEAANEHEBIK",
          "abilityName": "Monster_Drake_DeepSea_TraceIceBall"
        }
      ]
    }
  },
  "Drake_DeepSea_TraceElectricBall": {
    "$type": "PAAKDFFLFIN",
    "common": {
      "effectAttachShape": {
        "$type": "AFBBHIMPGKH"
      },
      "affectedByWorld": true,
      "checkInSurface": true,
      "scale": 1.7999999523162842
    },
    "combat": {
      "property": {
        "useCreatorProperty": true,
        "isInvincible": true,
        "canTriggerBullet": false
      },
      "beHit": {
        "hitBloodEffect": "",
        "muteAllHit": true,
        "muteAllHitEffect": true,
        "muteAllHitText": true
      },
      "combatLock": {
        "lockShape": "CircleLockEnemy",
        "denyLockOn": true,
        "lockType": "Default"
      }
    },
    "combatTemplate": "",
    "abilities": [
      {
        "abilityID": "",
        "abilityName": "Monster_Drake_DeepSea_TraceElectricBall",
        "abilityOverride": ""
      }
    ],
    "timer": {
      "lifeTime": 8.0
    },
    "move": {
      "$type": "AFLMLLJFENB",
      "speed": 7.0,
      "maxSpeed": 15.0,
      "minSpeed": 10.0,
      "anglerVelocity": 1000.0,
      "LADLDOGAMLI": {
        "$type": "GLPIGCIKICP"
      },
      "guidanceDelay": 0.4000000059604645,
      "guidanceMinAnglerVelocity": 1000.0,
      "guidanceDuration": 2.0
    },
    "gadget": {
      "$type": "INBEOAJKHGD",
      "collision": {
        "targetType": "Enemy"
      },
      "triggerActions": [
        {
          "$type": "HEAANEHEBIK",
          "abilityName": "Monster_Drake_DeepSea_TraceElectricBall"
        }
      ]
    }
  },
  "Drake_DeepSea_ChargeAttackIceSpear": {
    "$type": "PAAKDFFLFIN",
    "combat": {
      "property": {
        "useCreatorProperty": true,
        "isInvincible": true,
        "canTriggerBullet": false
      },
      "beHit": {
        "hitBloodEffect": "",
        "muteAllHit": true,
        "muteAllHitEffect": true,
        "muteAllHitText": true
      },
      "combatLock": {
        "lockShape": "CircleLockEnemy",
        "denyLockOn": true,
        "lockType": "Default"
      }
    },
    "combatTemplate": "",
    "abilities": [
      {
        "abilityID": "",
        "abilityName": "Monster_Drake_DeepSea_ChargeAttackIceSpear",
        "abilityOverride": ""
      }
    ],
    "timer": {
      "lifeTime": 5.0
    }
  },
  "Drake_DeepSea_ChargeAttackElectricSpear": {
    "$type": "PAAKDFFLFIN",
    "combat": {
      "property": {
        "useCreatorProperty": true,
        "isInvincible": true,
        "canTriggerBullet": false
      },
      "beHit": {
        "hitBloodEffect": "",
        "muteAllHit": true,
        "muteAllHitEffect": true,
        "muteAllHitText": true
      },
      "combatLock": {
        "lockShape": "CircleLockEnemy",
        "denyLockOn": true,
        "lockType": "Default"
      }
    },
    "combatTemplate": "",
    "abilities": [
      {
        "abilityID": "",
        "abilityName": "Monster_Drake_DeepSea_ChargeAttackElectricSpear",
        "abilityOverride": ""
      }
    ],
    "timer": {
      "lifeTime": 5.0
    }
  },
  "Drake_DeepSea_ChargeAttackWaterSpear": {
    "$type": "PAAKDFFLFIN",
    "combat": {
      "property": {
        "useCreatorProperty": true,
        "isInvincible": true,
        "canTriggerBullet": false
      },
      "beHit": {
        "hitBloodEffect": "",
        "muteAllHit": true,
        "muteAllHitEffect": true,
        "muteAllHitText": true
      },
      "combatLock": {
        "lockShape": "CircleLockEnemy",
        "denyLockOn": true,
        "lockType": "Default"
      }
    },
    "combatTemplate": "",
    "abilities": [
      {
        "abilityID": "",
        "abilityName": "Monster_Drake_DeepSea_ChargeAttackWaterSpear",
        "abilityOverride": ""
      }
    ],
    "timer": {
      "lifeTime": 5.0
    }
  },
  "Drake_DeepSea_LaserIce": {
    "$type": "PAAKDFFLFIN",
    "combat": {
      "property": {
        "useCreatorProperty": true,
        "isInvincible": true,
        "canTriggerBullet": false
      },
      "beHit": {
        "hitBloodEffect": "",
        "muteAllHit": true,
        "muteAllHitEffect": true,
        "muteAllHitText": true
      },
      "combatLock": {
        "lockShape": "CircleLockEnemy",
        "denyLockOn": true,
        "lockType": "Default"
      }
    },
    "combatTemplate": "",
    "abilities": [
      {
        "abilityID": "",
        "abilityName": "Monster_Drake_DeepSea_Ice_Laser",
        "abilityOverride": ""
      }
    ],
    "timer": {
      "lifeTime": 7.0
    },
    "move": {
      "$type": "IGIJLNOIMEL",
      "MLDBFKEGPEF": "TargetEntity",
      "attachPoint": "MouthLaserPoint",
      "followRotation": true,
      "followInFixedUpdate": true,
      "fixedFollowPosMaxSpeed": 8.399999618530273,
      "fixedFollowRotMaxSpeed": 128.0,
      "EHCIGNEDGDO": ""
    },
    "gadget": {
      "$type": "INBEOAJKHGD",
      "collision": {
        "ccd": {
          "KPGKDHAFHFE": "Always"
        },
        "triggerType": "TriggerAlways",
        "triggerCD": 0.10000000149011612,
        "targetType": "Enemy",
        "ignoreScene": true
      },
      "triggerActions": [
        {
          "$type": "HEAANEHEBIK",
          "abilityName": "Monster_Drake_DeepSea_Ice_Laser"
        }
      ]
    }
  },
  "Drake_DeepSea_LaserElectric": {
    "$type": "PAAKDFFLFIN",
    "combat": {
      "property": {
        "useCreatorProperty": true,
        "isInvincible": true,
        "canTriggerBullet": false
      },
      "beHit": {
        "hitBloodEffect": "",
        "muteAllHit": true,
        "muteAllHitEffect": true,
        "muteAllHitText": true
      },
      "combatLock": {
        "lockShape": "CircleLockEnemy",
        "denyLockOn": true,
        "lockType": ""
      }
    },
    "combatTemplate": "",
    "abilities": [
      {
        "abilityID": "",
        "abilityName": "Monster_Drake_DeepSea_Electric_Laser",
        "abilityOverride": ""
      }
    ],
    "timer": {
      "lifeTime": 7.0
    },
    "move": {
      "$type": "IGIJLNOIMEL",
      "MLDBFKEGPEF": "TargetEntity",
      "attachPoint": "MouthLaserPoint",
      "followRotation": true,
      "followInFixedUpdate": true,
      "fixedFollowPosMaxSpeed": 8.399999618530273,
      "fixedFollowRotMaxSpeed": 128.0,
      "EHCIGNEDGDO": ""
    },
    "gadget": {
      "$type": "INBEOAJKHGD",
      "collision": {
        "ccd": {
          "KPGKDHAFHFE": "Always"
        },
        "triggerType": "TriggerAlways",
        "triggerCD": 0.10000000149011612,
        "targetType": "Enemy",
        "ignoreScene": true
      },
      "triggerActions": [
        {
          "$type": "HEAANEHEBIK",
          "abilityName": "Monster_Drake_DeepSea_Electric_Laser"
        }
      ]
    }
  },
  "Drake_DeepSea_Laser_HitWall": {
    "$type": "PAAKDFFLFIN",
    "combat": {
      "property": {
        "useCreatorProperty": true,
        "isInvincible": true,
        "canTriggerBullet": false
      },
      "beHit": {
        "hitBloodEffect": "",
        "muteAllHit": true,
        "muteAllHitEffect": true,
        "muteAllHitText": true
      },
      "combatLock": {
        "lockShape": "CircleLockEnemy",
        "denyLockOn": true,
        "lockType": "Default"
      }
    },
    "combatTemplate": "",
    "abilities": [
      {
        "abilityID": "",
        "abilityName": "Monster_Drake_DeepSea_Laser_HitWall",
        "abilityOverride": ""
      }
    ],
    "timer": {
      "lifeTime": 7.0
    },
    "move": {
      "$type": "IGIJLNOIMEL",
      "MLDBFKEGPEF": "TargetEntity",
      "attachPoint": "MouthLaserPoint",
      "followRotation": true,
      "followInFixedUpdate": true,
      "fixedFollowPosMaxSpeed": 8.399999618530273,
      "fixedFollowRotMaxSpeed": 128.0,
      "EHCIGNEDGDO": ""
    },
    "gadget": {
      "$type": "INBEOAJKHGD",
      "collision": {
        "ccd": {
          "KPGKDHAFHFE": "Always"
        },
        "triggerType": "TriggerAlways",
        "targetType": "Alliance"
      },
      "triggerActions": [
        {
          "$type": "HEAANEHEBIK",
          "abilityName": "Monster_Drake_DeepSea_Laser_HitWall"
        }
      ]
    }
  },
  "Drake_DeepSea_BrokeRock": {
    "$type": "PAAKDFFLFIN",
    "combat": {
      "property": {
        "useCreatorProperty": true,
        "isInvincible": true,
        "canTriggerBullet": false
      },
      "beHit": {
        "hitBloodEffect": "",
        "muteAllHit": true,
        "muteAllHitEffect": true,
        "muteAllHitText": true
      },
      "combatLock": {
        "lockShape": "CircleLockEnemy",
        "denyLockOn": true,
        "lockType": "Default"
      }
    },
    "combatTemplate": "",
    "abilities": [
      {
        "abilityID": "SprintAtk_Scene",
        "abilityName": "Monster_Drake_DeepSea_BrokeRock_Bullet",
        "abilityOverride": ""
      }
    ],
    "timer": {
      "lifeTime": 3.0
    },
    "move": {
      "$type": "IGIJLNOIMEL",
      "MLDBFKEGPEF": "TargetEntity",
      "attachPoint": "",
      "followRotation": true,
      "EHCIGNEDGDO": ""
    },
    "gadget": {
      "$type": "INBEOAJKHGD",
      "collision": {
        "ccd": {
          "KPGKDHAFHFE": "Always"
        },
        "triggerType": "TriggerNoRepeat",
        "targetType": "AllExceptSelf"
      },
      "triggerActions": [
        {
          "$type": "HEAANEHEBIK",
          "abilityName": "Monster_Drake_DeepSea_BrokeRock_Bullet"
        }
      ]
    }
  },
  "Drake_DeepSea_MagicIceBall_Small": {
    "$type": "PAAKDFFLFIN",
    "common": {
      "effectAttachShape": {
        "$type": "AFBBHIMPGKH"
      },
      "affectedByWorld": true,
      "checkInSurface": true
    },
    "combat": {
      "property": {
        "useCreatorProperty": true,
        "isInvincible": true,
        "canTriggerBullet": false
      },
      "beHit": {
        "hitBloodEffect": "",
        "muteAllHit": true,
        "muteAllHitEffect": true,
        "muteAllHitText": true
      },
      "combatLock": {
        "lockShape": "CircleLockEnemy",
        "denyLockOn": true,
        "lockType": "Default"
      }
    },
    "combatTemplate": "",
    "abilities": [
      {
        "abilityID": "",
        "abilityName": "Monster_Drake_DeepSea_MagicIceBall_Small",
        "abilityOverride": ""
      }
    ],
    "timer": {
      "lifeTime": 3.0
    },
    "move": {
      "$type": "AHGMNDFKPGD",
      "speed": 25.0
    },
    "gadget": {
      "$type": "INBEOAJKHGD",
      "collision": {
        "targetType": "Enemy",
        "ignoreWater": true
      },
      "triggerActions": [
        {
          "$type": "HEAANEHEBIK",
          "abilityName": "Monster_Drake_DeepSea_MagicIceBall_Small"
        }
      ]
    }
  },
  "Drake_DeepSea_MagicElectricBall_Small": {
    "$type": "PAAKDFFLFIN",
    "common": {
      "effectAttachShape": {
        "$type": "AFBBHIMPGKH"
      },
      "affectedByWorld": true,
      "checkInSurface": true
    },
    "combat": {
      "property": {
        "useCreatorProperty": true,
        "isInvincible": true,
        "canTriggerBullet": false
      },
      "beHit": {
        "hitBloodEffect": "",
        "muteAllHit": true,
        "muteAllHitEffect": true,
        "muteAllHitText": true
      },
      "combatLock": {
        "lockShape": "CircleLockEnemy",
        "denyLockOn": true,
        "lockType": "Default"
      }
    },
    "combatTemplate": "",
    "abilities": [
      {
        "abilityID": "",
        "abilityName": "Monster_Drake_DeepSea_MagicElectricBall_Small",
        "abilityOverride": ""
      }
    ],
    "timer": {
      "lifeTime": 3.0
    },
    "move": {
      "$type": "AHGMNDFKPGD",
      "speed": 25.0
    },
    "gadget": {
      "$type": "INBEOAJKHGD",
      "collision": {
        "targetType": "Enemy",
        "ignoreWater": true
      },
      "triggerActions": [
        {
          "$type": "HEAANEHEBIK",
          "abilityName": "Monster_Drake_DeepSea_MagicElectricBall_Small"
        }
      ]
    }
  },
  "Drake_DeepSea_MagicWaterBall_Small": {
    "$type": "PAAKDFFLFIN",
    "common": {
      "effectAttachShape": {
        "$type": "AFBBHIMPGKH"
      },
      "affectedByWorld": true,
      "checkInSurface": true
    },
    "combat": {
      "property": {
        "useCreatorProperty": true,
        "isInvincible": true,
        "canTriggerBullet": false
      },
      "beHit": {
        "hitBloodEffect": "",
        "muteAllHit": true,
        "muteAllHitEffect": true,
        "muteAllHitText": true
      },
      "combatLock": {
        "lockShape": "CircleLockEnemy",
        "denyLockOn": true,
        "lockType": "Default"
      }
    },
    "combatTemplate": "",
    "abilities": [
      {
        "abilityID": "",
        "abilityName": "Monster_Drake_DeepSea_MagicWaterBall_Small",
        "abilityOverride": ""
      }
    ],
    "timer": {
      "lifeTime": 4.0
    },
    "move": {
      "$type": "AHGMNDFKPGD",
      "speed": 25.0
    },
    "gadget": {
      "$type": "INBEOAJKHGD",
      "collision": {
        "targetType": "Enemy",
        "ignoreWater": true
      },
      "triggerActions": [
        {
          "$type": "HEAANEHEBIK",
          "abilityName": "Monster_Drake_DeepSea_MagicWaterBall_Small"
        }
      ]
    }
  },
  "Drake_DeepSea_TaiRangeAttack_IceSpear_Small": {
    "$type": "PAAKDFFLFIN",
    "common": {
      "effectAttachShape": {
        "$type": "AFBBHIMPGKH"
      },
      "viewSize": 0.699999988079071,
      "affectedByWorld": true,
      "checkInSurface": true,
      "scale": 0.5
    },
    "combat": {
      "property": {
        "useCreatorProperty": true,
        "isInvincible": true,
        "canTriggerBullet": false
      },
      "beHit": {
        "hitBloodEffect": "",
        "muteAllHit": true,
        "muteAllHitEffect": true,
        "muteAllHitText": true
      },
      "combatLock": {
        "lockShape": "CircleLockEnemy",
        "denyLockOn": true,
        "lockType": "Default"
      }
    },
    "combatTemplate": "",
    "abilities": [
      {
        "abilityID": "",
        "abilityName": "Monster_Drake_DeepSea_TaiRangeAttack_IceSpear_Small",
        "abilityOverride": ""
      }
    ],
    "timer": {
      "lifeTime": 7.0
    },
    "move": {
      "$type": "EBELDBHINMB",
      "speed": 20.0,
      "LADLDOGAMLI": {
        "$type": "GLPIGCIKICP"
      },
      "syncToRemote": true,
      "angleOffHor": 60.0,
      "gravityOfAcceleration": 40.0,
      "correction": {
        "$type": "ELDDGNNGEAK",
        "deviation": 7.0,
        "fixAngleOfVer": 30.0,
        "minSpeed": 6.0,
        "maxSpeed": 24.0
      }
    },
    "gadget": {
      "$type": "INBEOAJKHGD",
      "collision": {
        "targetType": "Enemy"
      },
      "triggerActions": [
        {
          "$type": "HEAANEHEBIK",
          "abilityName": "Monster_Drake_DeepSea_TaiRangeAttack_IceSpear_Small"
        }
      ]
    }
  },
  "Drake_DeepSea_TaiRangeAttack_ElectricSpear_Small": {
    "$type": "PAAKDFFLFIN",
    "common": {
      "effectAttachShape": {
        "$type": "AFBBHIMPGKH"
      },
      "viewSize": 0.699999988079071,
      "affectedByWorld": true,
      "checkInSurface": true,
      "scale": 0.5
    },
    "combat": {
      "property": {
        "useCreatorProperty": true,
        "isInvincible": true,
        "canTriggerBullet": false
      },
      "beHit": {
        "hitBloodEffect": "",
        "muteAllHit": true,
        "muteAllHitEffect": true,
        "muteAllHitText": true
      },
      "combatLock": {
        "lockShape": "CircleLockEnemy",
        "denyLockOn": true,
        "lockType": "Default"
      }
    },
    "combatTemplate": "",
    "abilities": [
      {
        "abilityID": "",
        "abilityName": "Monster_Drake_DeepSea_TaiRangeAttack_ElectricSpear_Small",
        "abilityOverride": ""
      }
    ],
    "timer": {
      "lifeTime": 3.0
    },
    "move": {
      "$type": "AFLMLLJFENB",
      "speed": 10.0,
      "maxSpeed": 25.0,
      "minSpeed": 15.0,
      "anglerVelocity": 1000.0,
      "acceleration": 10.0,
      "LADLDOGAMLI": {
        "$type": "GLPIGCIKICP"
      },
      "guidanceDelay": 0.30000001192092896,
      "guidanceMinAnglerVelocity": 1000.0,
      "guidanceDuration": 0.10000000149011612
    },
    "gadget": {
      "$type": "INBEOAJKHGD",
      "collision": {
        "targetType": "Enemy"
      },
      "triggerActions": [
        {
          "$type": "HEAANEHEBIK",
          "abilityName": "Monster_Drake_DeepSea_TaiRangeAttack_ElectricSpear_Small"
        }
      ]
    }
  },
  "Drake_DeepSea_FitBullet_Ice": {
    "$type": "PAAKDFFLFIN",
    "common": {
      "effectAttachShape": {
        "$type": "AFBBHIMPGKH"
      },
      "affectedByWorld": true,
      "checkInSurface": true
    },
    "combat": {
      "property": {
        "useCreatorProperty": true,
        "isInvincible": true,
        "canTriggerBullet": false
      },
      "beHit": {
        "hitBloodEffect": "",
        "muteAllHit": true,
        "muteAllHitEffect": true,
        "muteAllHitText": true
      },
      "combatLock": {
        "lockShape": "CircleLockEnemy",
        "denyLockOn": true,
        "lockType": "Default"
      }
    },
    "combatTemplate": "",
    "abilities": [
      {
        "abilityID": "",
        "abilityName": "Monster_Drake_DeepSea_FitBullet_Ice",
        "abilityOverride": ""
      }
    ],
    "timer": {
      "lifeTime": 3.0
    },
    "move": {
      "$type": "AHGMNDFKPGD",
      "speed": 25.0
    },
    "gadget": {
      "$type": "INBEOAJKHGD",
      "collision": {
        "targetType": "Enemy"
      },
      "triggerActions": [
        {
          "$type": "HEAANEHEBIK",
          "abilityName": "Monster_Drake_DeepSea_FitBullet_Ice"
        }
      ]
    }
  },
  "Drake_DeepSea_FitBullet_Electric": {
    "$type": "PAAKDFFLFIN",
    "common": {
      "effectAttachShape": {
        "$type": "AFBBHIMPGKH"
      },
      "affectedByWorld": true,
      "checkInSurface": true
    },
    "combat": {
      "property": {
        "useCreatorProperty": true,
        "isInvincible": true,
        "canTriggerBullet": false
      },
      "beHit": {
        "hitBloodEffect": "",
        "muteAllHit": true,
        "muteAllHitEffect": true,
        "muteAllHitText": true
      },
      "combatLock": {
        "lockShape": "CircleLockEnemy",
        "denyLockOn": true,
        "lockType": "Default"
      }
    },
    "combatTemplate": "",
    "abilities": [
      {
        "abilityID": "",
        "abilityName": "Monster_Drake_DeepSea_FitBullet_Electric",
        "abilityOverride": ""
      }
    ],
    "timer": {
      "lifeTime": 3.0
    },
    "move": {
      "$type": "AHGMNDFKPGD",
      "speed": 25.0
    },
    "gadget": {
      "$type": "INBEOAJKHGD",
      "collision": {
        "targetType": "Enemy"
      },
      "triggerActions": [
        {
          "$type": "HEAANEHEBIK",
          "abilityName": "Monster_Drake_DeepSea_FitBullet_Electric"
        }
      ]
    }
  },
  "Drake_DeepSea_Swim_IceSpear": {
    "$type": "PAAKDFFLFIN",
    "common": {
      "effectAttachShape": {
        "$type": "AFBBHIMPGKH"
      },
      "viewSize": 2.0,
      "affectedByWorld": true,
      "checkInSurface": true,
      "scale": 2.0
    },
    "combat": {
      "property": {
        "useCreatorProperty": true,
        "isInvincible": true,
        "canTriggerBullet": false
      },
      "beHit": {
        "hitBloodEffect": "",
        "muteAllHit": true,
        "muteAllHitEffect": true,
        "muteAllHitText": true
      },
      "combatLock": {
        "lockShape": "CircleLockEnemy",
        "denyLockOn": true,
        "lockType": "Default"
      }
    },
    "combatTemplate": "",
    "abilities": [
      {
        "abilityID": "",
        "abilityName": "Monster_Drake_DeepSea_TaiRangeAttack_IceSpear",
        "abilityOverride": ""
      }
    ],
    "timer": {
      "lifeTime": 7.0
    },
    "move": {
      "$type": "AFLMLLJFENB",
      "speed": 15.0,
      "maxSpeed": 30.0,
      "minSpeed": 15.0,
      "anglerVelocity": 1000.0,
      "acceleration": 10.0,
      "LADLDOGAMLI": {
        "$type": "GLPIGCIKICP"
      },
      "guidanceDelay": 0.5,
      "guidanceMinAnglerVelocity": 1000.0,
      "guidanceDuration": 1.0
    },
    "gadget": {
      "$type": "INBEOAJKHGD",
      "collision": {
        "targetType": "Enemy"
      },
      "triggerActions": [
        {
          "$type": "HEAANEHEBIK",
          "abilityName": "Monster_Drake_DeepSea_TaiRangeAttack_IceSpear"
        }
      ]
    }
  },
  "Drake_DeepSea_Swim_ElectricSpear": {
    "$type": "PAAKDFFLFIN",
    "common": {
      "effectAttachShape": {
        "$type": "AFBBHIMPGKH"
      },
      "viewSize": 2.0,
      "affectedByWorld": true,
      "checkInSurface": true,
      "scale": 2.0
    },
    "combat": {
      "property": {
        "useCreatorProperty": true,
        "isInvincible": true,
        "canTriggerBullet": false
      },
      "beHit": {
        "hitBloodEffect": "",
        "muteAllHit": true,
        "muteAllHitEffect": true,
        "muteAllHitText": true
      },
      "combatLock": {
        "lockShape": "CircleLockEnemy",
        "denyLockOn": true,
        "lockType": "Default"
      }
    },
    "combatTemplate": "",
    "abilities": [
      {
        "abilityID": "",
        "abilityName": "Monster_Drake_DeepSea_TaiRangeAttack_ElectricSpear",
        "abilityOverride": ""
      }
    ],
    "timer": {
      "lifeTime": 3.0
    },
    "move": {
      "$type": "AFLMLLJFENB",
      "speed": 10.0,
      "maxSpeed": 25.0,
      "minSpeed": 15.0,
      "anglerVelocity": 1000.0,
      "acceleration": 10.0,
      "LADLDOGAMLI": {
        "$type": "GLPIGCIKICP"
      },
      "guidanceDelay": 0.5,
      "guidanceMinAnglerVelocity": 1000.0,
      "guidanceDuration": 1.0
    },
    "gadget": {
      "$type": "INBEOAJKHGD",
      "collision": {
        "targetType": "Enemy"
      },
      "triggerActions": [
        {
          "$type": "HEAANEHEBIK",
          "abilityName": "Monster_Drake_DeepSea_TaiRangeAttack_ElectricSpear"
        }
      ]
    }
  },
  "Drake_DeepSea_ElectricSpearTarget": {
    "$type": "PAAKDFFLFIN",
    "combat": {
      "property": {
        "useCreatorProperty": true,
        "isInvincible": true,
        "isGhostToEnemy": true,
        "canTriggerBullet": false
      },
      "beHit": {
        "hitBloodEffect": "",
        "muteAllHit": true,
        "muteAllHitEffect": true,
        "muteAllHitText": true
      },
      "combatLock": {
        "lockShape": "CircleLockEnemy",
        "denyLockOn": true,
        "lockType": "Default"
      }
    },
    "combatTemplate": "",
    "abilities": [
      {
        "abilityID": "",
        "abilityName": "Monster_Drake_DeepSea_ElectricSpearTarget",
        "abilityOverride": ""
      }
    ],
    "timer": {
      "lifeTime": 3.0
    }
  },
  "Drake_DeepSea_BlackBall": {
    "$type": "PAAKDFFLFIN",
    "combat": {
      "property": {
        "hp": 9999.0,
        "attack": 99.0,
        "isInvincible": true,
        "canTriggerBullet": false
      },
      "beHit": {
        "hitBloodEffect": "",
        "muteAllHit": true,
        "muteAllHitEffect": true,
        "muteAllHitText": true
      },
      "combatLock": {
        "lockShape": "CircleLockEnemy",
        "denyLockOn": true,
        "lockType": "Default"
      }
    },
    "combatTemplate": "",
    "abilities": [
      {
        "abilityID": "",
        "abilityName": "Monster_Drake_DeepSea_BlackBall",
        "abilityOverride": ""
      }
    ],
    "timer": {
      "lifeInfinite": true
    }
  },
  "Drake_DeepSea_IcePillar": {
    "$type": "PAAKDFFLFIN",
    "specialPoint": {
      "elementAbsorb": "RootNode",
      "elementPendant": "",
      "elementDrop": "RootNode",
      "bulletAim": "BulletAim"
    },
    "combat": {
      "property": {
        "useCreatorProperty": true,
        "isLockHP": true
      },
      "beHit": {
        "hitBloodEffect": "",
        "muteAllHitText": true
      },
      "combatLock": {
        "lockShape": "CircleLockEnemy",
        "lockType": "Avatar&Monster_Lv4"
      }
    },
    "combatTemplate": "",
    "abilities": [
      {
        "abilityID": "",
        "abilityName": "Monster_Drake_DeepSea_IcePillar",
        "abilityOverride": ""
      }
    ],
    "timer": {
      "lifeInfinite": true,
      "lifeTime": 999.0
    },
    "billboard": {
      "$type": "IBDGIBAFPPH",
      "attachPoint": "BillboardAttach",
      "radiusOffset": 3.0,
      "showDistance": 48.0,
      "showHPBar": true,
      "forceShowDistance": 48.0,
      "size": "Grand",
      "shieldBarOnly": true
    }
  },
  "Drake_DeepSea_ElectricArea": {
    "$type": "PAAKDFFLFIN",
    "combat": {
      "property": {
        "useCreatorProperty": true,
        "isInvincible": true,
        "canTriggerBullet": false
      },
      "beHit": {
        "hitBloodEffect": "",
        "muteAllHit": true,
        "muteAllHitEffect": true,
        "muteAllHitText": true
      },
      "combatLock": {
        "lockShape": "CircleLockEnemy",
        "denyLockOn": true,
        "lockType": "Default"
      }
    },
    "combatTemplate": "",
    "abilities": [
      {
        "abilityID": "",
        "abilityName": "Monster_Drake_DeepSea_ElementBurst_ElectricArea",
        "abilityOverride": ""
      }
    ],
    "timer": {
      "lifeTime": 5.0
    }
  },
  "Drake_DeepSea_IceArea": {
    "$type": "PAAKDFFLFIN",
    "combat": {
      "property": {
        "useCreatorProperty": true,
        "isInvincible": true,
        "canTriggerBullet": false
      },
      "beHit": {
        "hitBloodEffect": "",
        "muteAllHit": true,
        "muteAllHitEffect": true,
        "muteAllHitText": true
      },
      "combatLock": {
        "lockShape": "CircleLockEnemy",
        "denyLockOn": true,
        "lockType": "Default"
      }
    },
    "combatTemplate": "",
    "abilities": [
      {
        "abilityID": "",
        "abilityName": "Monster_Drake_DeepSea_ElementBurst_IceArea",
        "abilityOverride": ""
      }
    ],
    "timer": {
      "lifeTime": 5.0
    }
  },
  "Drake_DeepSea_MagicWaterBall_Small_SP": {
    "$type": "PAAKDFFLFIN",
    "common": {
      "effectAttachShape": {
        "$type": "AFBBHIMPGKH"
      },
      "viewSize": 0.800000011920929,
      "affectedByWorld": true,
      "checkInSurface": true,
      "scale": 0.800000011920929
    },
    "combat": {
      "property": {
        "useCreatorProperty": true,
        "isInvincible": true,
        "isGhostToAllied": true,
        "isGhostToEnemy": true,
        "canTriggerBullet": false
      },
      "beHit": {
        "hitBloodEffect": "",
        "muteAllHit": true,
        "muteAllHitEffect": true,
        "muteAllHitText": true
      },
      "combatLock": {
        "lockShape": "CircleLockEnemy",
        "denyLockOn": true,
        "lockType": "Default"
      }
    },
    "combatTemplate": "",
    "abilities": [
      {
        "abilityID": "",
        "abilityName": "Monster_Drake_DeepSea_MagicWaterBall_Small_SP",
        "abilityOverride": ""
      }
    ],
    "timer": {
      "lifeTime": 4.0
    },
    "move": {
      "$type": "AHGMNDFKPGD",
      "speed": 25.0
    },
    "gadget": {
      "$type": "INBEOAJKHGD",
      "collision": {
        "targetType": "Enemy",
        "ignoreWater": true
      },
      "triggerActions": [
        {
          "$type": "HEAANEHEBIK",
          "abilityName": "Monster_Drake_DeepSea_MagicWaterBall_Small_SP"
        }
      ]
    }
  },
  "Drake_DeepSea_MagicWaterBall_Big_SP": {
    "$type": "PAAKDFFLFIN",
    "common": {
      "effectAttachShape": {
        "$type": "AFBBHIMPGKH"
      },
      "affectedByWorld": true,
      "checkInSurface": true
    },
    "combat": {
      "property": {
        "useCreatorProperty": true,
        "isInvincible": true,
        "isGhostToAllied": true,
        "isGhostToEnemy": true,
        "canTriggerBullet": false
      },
      "beHit": {
        "hitBloodEffect": "",
        "muteAllHit": true,
        "muteAllHitEffect": true,
        "muteAllHitText": true
      },
      "combatLock": {
        "lockShape": "CircleLockEnemy",
        "denyLockOn": true,
        "lockType": "Default"
      }
    },
    "combatTemplate": "",
    "abilities": [
      {
        "abilityID": "",
        "abilityName": "Monster_Drake_DeepSea_MagicWaterBall_Big_SP",
        "abilityOverride": ""
      }
    ],
    "timer": {
      "lifeTime": 4.0
    },
    "move": {
      "$type": "AHGMNDFKPGD",
      "speed": 25.0
    },
    "gadget": {
      "$type": "INBEOAJKHGD",
      "collision": {
        "targetType": "Enemy",
        "ignoreWater": true
      },
      "triggerActions": [
        {
          "$type": "HEAANEHEBIK",
          "abilityName": "Monster_Drake_DeepSea_MagicWaterBall_Big_SP"
        }
      ]
    }
  }
}