{
  "Cyno_ElementalArt_Blade": {
    "$type": "PAAKDFFLFIN",
    "common": {
      "effectAttachShape": {
        "$type": "AFBBHIMPGKH"
      }
    },
    "combat": {
      "property": {
        "useCreatorProperty": true,
        "isInvincible": true,
        "isGhostToAllied": true,
        "isGhostToEnemy": true,
        "canTriggerBullet": false
      },
      "beHit": {
        "hitBloodEffect": "",
        "muteAllHit": true,
        "muteAllHitEffect": true,
        "muteAllHitText": true
      },
      "combatLock": {
        "lockShape": "CircleLockEnemy",
        "denyLockOn": true,
        "lockType": "Default"
      }
    },
    "combatTemplate": "",
    "abilities": [
      {
        "abilityID": "Cyno_ElementalArt_Blade_Hit",
        "abilityName": "Cyno_ElementalArt_Blade_Hit",
        "abilityOverride": ""
      }
    ],
    "timer": {
      "lifeTime": 0.6000000238418579
    },
    "move": {
      "$type": "AHGMNDFKPGD",
      "velocityForce": {
        "muteAll": true
      },
      "speed": 20.0,
      "stickToGround": {
        "maxStepHeight": 1.5,
        "maxSlopeAngle": 40.0,
        "heightToGround": 0.800000011920929,
        "flexibleRange": 0.800000011920929,
        "isStickToWater": true,
        "unstickWhenDownSlide": "Keep",
        "unstickWhenUpSlide": "Keep"
      }
    },
    "gadget": {
      "$type": "INBEOAJKHGD",
      "collision": {
        "triggerType": "TriggerAlways",
        "triggerCD": 1.0,
        "targetType": "Enemy",
        "ignoreScene": true
      },
      "triggerActions": [
        {
          "$type": "HEAANEHEBIK",
          "abilityName": "Cyno_ElementalArt_Blade_Hit"
        }
      ]
    }
  },
  "Cyno_Constellation_6_Blade": {
    "$type": "PAAKDFFLFIN",
    "common": {
      "effectAttachShape": {
        "$type": "AFBBHIMPGKH"
      }
    },
    "combat": {
      "property": {
        "useCreatorProperty": true,
        "isInvincible": true,
        "isGhostToAllied": true,
        "isGhostToEnemy": true,
        "canTriggerBullet": false
      },
      "beHit": {
        "hitBloodEffect": "",
        "muteAllHit": true,
        "muteAllHitEffect": true,
        "muteAllHitText": true
      },
      "combatLock": {
        "lockShape": "CircleLockEnemy",
        "denyLockOn": true,
        "lockType": "Default"
      }
    },
    "combatTemplate": "",
    "abilities": [
      {
        "abilityID": "Cyno_Constellation_6_Blade",
        "abilityName": "Cyno_Constellation_6_Blade",
        "abilityOverride": ""
      }
    ],
    "timer": {
      "lifeTime": 0.6000000238418579
    },
    "move": {
      "$type": "AHGMNDFKPGD",
      "velocityForce": {
        "muteAll": true
      },
      "speed": 20.0,
      "stickToGround": {
        "maxStepHeight": 1.5,
        "maxSlopeAngle": 40.0,
        "heightToGround": 0.800000011920929,
        "flexibleRange": 0.800000011920929,
        "isStickToWater": true,
        "unstickWhenDownSlide": "Keep",
        "unstickWhenUpSlide": "Keep"
      }
    },
    "gadget": {
      "$type": "INBEOAJKHGD",
      "collision": {
        "triggerType": "TriggerAlways",
        "triggerCD": 1.0,
        "targetType": "Enemy",
        "ignoreScene": true
      },
      "triggerActions": [
        {
          "$type": "HEAANEHEBIK",
          "abilityName": "Cyno_Constellation_6_Blade"
        }
      ]
    }
  },
  "Cyno_ElementalArt_Bullet": {
    "$type": "PAAKDFFLFIN",
    "common": {
      "effectAttachShape": {
        "$type": "AFBBHIMPGKH"
      }
    },
    "combat": {
      "property": {
        "useCreatorProperty": true,
        "isInvincible": true,
        "isGhostToAllied": true,
        "isGhostToEnemy": true,
        "canTriggerBullet": false
      },
      "beHit": {
        "hitBloodEffect": "",
        "muteAllHit": true,
        "muteAllHitEffect": true,
        "muteAllHitText": true
      },
      "combatLock": {
        "lockShape": "CircleLockEnemy",
        "denyLockOn": true,
        "lockType": "Default"
      }
    },
    "combatTemplate": "",
    "abilities": [
      {
        "abilityID": "TriggerDamage",
        "abilityName": "Avatar_Cyno_ElementalArt_Bullet",
        "abilityOverride": ""
      }
    ],
    "timer": {
      "lifeTime": 0.20000000298023224
    },
    "move": {
      "$type": "IGIJLNOIMEL",
      "attachPoint": "RootNode",
      "followRotation": true,
      "DJPAKKKHBJH": {
        "z": 1.0
      },
      "EHCIGNEDGDO": ""
    },
    "gadget": {
      "$type": "INBEOAJKHGD",
      "collision": {
        "ccd": {
          "KPGKDHAFHFE": "Always"
        },
        "triggerType": "TriggerNoRepeat",
        "targetType": "Enemy",
        "ignoreScene": true
      },
      "triggerActions": [
        {
          "$type": "HEAANEHEBIK",
          "abilityName": "Avatar_Cyno_ElementalArt_Bullet"
        }
      ]
    }
  },
  "Cyno_ExtraAttack_Bullet": {
    "$type": "PAAKDFFLFIN",
    "common": {
      "effectAttachShape": {
        "$type": "AFBBHIMPGKH"
      }
    },
    "combat": {
      "property": {
        "useCreatorProperty": true,
        "isInvincible": true,
        "isGhostToAllied": true,
        "isGhostToEnemy": true,
        "canTriggerBullet": false
      },
      "beHit": {
        "hitBloodEffect": "",
        "muteAllHit": true,
        "muteAllHitEffect": true,
        "muteAllHitText": true
      },
      "combatLock": {
        "lockShape": "CircleLockEnemy",
        "denyLockOn": true,
        "lockType": "Default"
      }
    },
    "combatTemplate": "",
    "abilities": [
      {
        "abilityID": "Avatar_Cyno_ExtraAttack_Bullet",
        "abilityName": "Avatar_Cyno_ExtraAttack_Bullet",
        "abilityOverride": ""
      }
    ],
    "timer": {
      "lifeTime": 0.5
    },
    "move": {
      "$type": "IGIJLNOIMEL",
      "attachPoint": "",
      "followRotation": true,
      "offset": {
        "y": 0.8999999761581421
      },
      "DJPAKKKHBJH": {
        "z": 1.0
      },
      "EHCIGNEDGDO": ""
    },
    "gadget": {
      "$type": "INBEOAJKHGD",
      "collision": {
        "ccd": {
          "KPGKDHAFHFE": "Always"
        },
        "triggerType": "TriggerNoRepeat",
        "targetType": "Enemy",
        "ignoreScene": true
      },
      "triggerActions": [
        {
          "$type": "HEAANEHEBIK",
          "abilityName": "Avatar_Cyno_ExtraAttack_Bullet"
        }
      ]
    }
  },
  "Cyno_BurstMode_ExtraAttack_Bullet": {
    "$type": "PAAKDFFLFIN",
    "common": {
      "effectAttachShape": {
        "$type": "AFBBHIMPGKH"
      }
    },
    "combat": {
      "property": {
        "useCreatorProperty": true,
        "isInvincible": true,
        "isGhostToAllied": true,
        "isGhostToEnemy": true,
        "canTriggerBullet": false
      },
      "beHit": {
        "hitBloodEffect": "",
        "muteAllHit": true,
        "muteAllHitEffect": true,
        "muteAllHitText": true
      },
      "combatLock": {
        "lockShape": "CircleLockEnemy",
        "denyLockOn": true,
        "lockType": "Default"
      }
    },
    "combatTemplate": "",
    "abilities": [
      {
        "abilityID": "Avatar_Cyno_BurstMode_ExtraAttack_Bullet",
        "abilityName": "Avatar_Cyno_BurstMode_ExtraAttack_Bullet",
        "abilityOverride": ""
      }
    ],
    "timer": {
      "lifeTime": 0.5
    },
    "move": {
      "$type": "IGIJLNOIMEL",
      "attachPoint": "",
      "followRotation": true,
      "offset": {
        "y": 0.8999999761581421
      },
      "DJPAKKKHBJH": {
        "z": 1.0
      },
      "EHCIGNEDGDO": ""
    },
    "gadget": {
      "$type": "INBEOAJKHGD",
      "collision": {
        "ccd": {
          "KPGKDHAFHFE": "Always"
        },
        "triggerType": "TriggerNoRepeat",
        "targetType": "Enemy",
        "ignoreScene": true
      },
      "triggerActions": [
        {
          "$type": "HEAANEHEBIK",
          "abilityName": "Avatar_Cyno_BurstMode_ExtraAttack_Bullet"
        }
      ]
    }
  }
}