{
  "Sucrose_NormalAttack_04": {
    "$type": "PAAKDFFLFIN",
    "common": {
      "effectAttachShape": {
        "$type": "AFBBHIMPGKH"
      }
    },
    "combat": {
      "property": {
        "useCreatorProperty": true,
        "isInvincible": true,
        "isGhostToAllied": true,
        "isGhostToEnemy": true,
        "canTriggerBullet": false
      },
      "beHit": {
        "hitBloodEffect": "",
        "muteAllHit": true,
        "muteAllHitEffect": true,
        "muteAllHitText": true
      }
    },
    "combatTemplate": "",
    "abilities": [
      {
        "abilityID": "Sucrose_Attack04_Gadget",
        "abilityName": "Avatar_Sucrose_Attack04_Gadget",
        "abilityOverride": ""
      }
    ],
    "timer": {
      "lifeTime": 5.0
    }
  },
  "Sucrose_WindBlackHole": {
    "$type": "PAAKDFFLFIN",
    "common": {
      "effectAttachShape": {
        "$type": "AFBBHIMPGKH"
      }
    },
    "combat": {
      "property": {
        "useCreatorProperty": true,
        "isInvincible": true,
        "isGhostToAllied": true,
        "isGhostToEnemy": true,
        "canTriggerBullet": false
      },
      "beHit": {
        "hitBloodEffect": "",
        "muteAllHit": true,
        "muteAllHitEffect": true,
        "muteAllHitText": true
      }
    },
    "combatTemplate": "",
    "abilities": [
      {
        "abilityID": "WindBlackHole",
        "abilityName": "Avatar_Sucrose_WindBlackHole_Gadget",
        "abilityOverride": ""
      }
    ],
    "timer": {
      "lifeTime": 5.0
    }
  },
  "Sucrose_DemiHurricane_Flusk": {
    "$type": "PAAKDFFLFIN",
    "common": {
      "effectAttachShape": {
        "$type": "AFBBHIMPGKH"
      },
      "mass": 5.0,
      "affectedByWorld": true,
      "checkInSurface": true
    },
    "combat": {
      "property": {
        "useCreatorProperty": true,
        "weight": 50.0,
        "isInvincible": true,
        "isLockHP": true,
        "isGhostToAllied": true
      }
    },
    "combatTemplate": "",
    "abilities": [
      {
        "abilityID": "DemiHurricane_Flusk",
        "abilityName": "Avatar_Sucrose_DemiHurricane_Flusk",
        "abilityOverride": ""
      }
    ],
    "timer": {
      "lifeTime": 2.4000000953674316
    },
    "move": {
      "$type": "EBELDBHINMB",
      "velocityForce": {
        "muteAll": true
      },
      "speed": 10.0,
      "syncToRemote": true,
      "angleOffHor": 45.0,
      "gravityOfAcceleration": 30.0
    },
    "gadget": {
      "$type": "INBEOAJKHGD",
      "collision": {},
      "triggerActions": [
        {
          "$type": "HEAANEHEBIK",
          "abilityName": "Avatar_Sucrose_DemiHurricane_Flusk"
        }
      ],
      "triggerLifeOverActions": [
        {
          "$type": "HEAANEHEBIK",
          "abilityName": "Avatar_Sucrose_DemiHurricane_Flusk"
        }
      ],
      "killByOther": true
    }
  },
  "Sucrose_DemiHurricane": {
    "$type": "PAAKDFFLFIN",
    "common": {
      "effectAttachShape": {
        "$type": "AFBBHIMPGKH"
      }
    },
    "combat": {
      "property": {
        "useCreatorProperty": true,
        "isInvincible": true,
        "isGhostToAllied": true,
        "isGhostToEnemy": true,
        "canTriggerBullet": false
      },
      "beHit": {
        "hitBloodEffect": "",
        "muteAllHit": true,
        "muteAllHitEffect": true,
        "muteAllHitText": true
      }
    },
    "combatTemplate": "",
    "abilities": [
      {
        "abilityID": "DemiHurricane_Gadget",
        "abilityName": "Avatar_Sucrose_DemiHurricane_Gadget",
        "abilityOverride": ""
      },
      {
        "abilityID": "DemiHurricane_Mix",
        "abilityName": "Avatar_Sucrose_DemiHurricane_Mix",
        "abilityOverride": ""
      },
      {
        "abilityID": "DemiHurricane_Dissipate",
        "abilityName": "Avatar_Sucrose_DemiHurricane_Dissipate",
        "abilityOverride": ""
      },
      {
        "abilityID": "DemiHurricane_Damage",
        "abilityName": "Avatar_Sucrose_DemiHurricane_Damage",
        "abilityOverride": ""
      }
    ],
    "timer": {
      "lifeTime": 15.0
    }
  },
  "Sucrose_BunnyLeap": {
    "$type": "PAAKDFFLFIN",
    "common": {
      "effectAttachShape": {
        "$type": "AFBBHIMPGKH"
      }
    },
    "combat": {
      "property": {
        "useCreatorProperty": true,
        "isInvincible": true,
        "isGhostToAllied": true,
        "isGhostToEnemy": true,
        "canTriggerBullet": false
      },
      "beHit": {
        "hitBloodEffect": "",
        "muteAllHit": true,
        "muteAllHitEffect": true,
        "muteAllHitText": true
      }
    },
    "combatTemplate": "",
    "timer": {
      "lifeTime": 5.0
    }
  }
}