{
  "SceneObj_Area_Common_Property_Ani_Prop_AkaFesRhythmBoar_01": {
    "$type": "PAAKDFFLFIN",
    "hasModel": true,
    "combatTemplate": "default",
    "abilities": [
      {
        "abilityID": "",
        "abilityName": "SceneObj_Area_Common_Property_Ani_Prop_AkaFesRhythmBoar_01_Ability",
        "abilityOverride": ""
      }
    ],
    "stateLayers": {
      "defaultLayer": {
        "$type": "AEMHOACJLIB",
        "layerIndexName": "",
        "GCIDDLIDFAE": "",
        "stateIDs": {
          "All": {
            "$type": "HHFDCADFGDM",
            "animatorStates": {
              "Standby": [],
              "Run": [],
              "Attack": []
            },
            "cullingModelAlwaysAnimate": true
          }
        }
      }
    }
  },
  "SceneObj_Area_Common_Property_Ani_Prop_AkaFesRhythmFence_01": {
    "$type": "PAAKDFFLFIN",
    "hasModel": true,
    "combatTemplate": "default",
    "abilities": [
      {
        "abilityID": "",
        "abilityName": "SceneObj_Area_Common_Property_Ani_Prop_AkaFesRhythmFence_01_Ability",
        "abilityOverride": ""
      }
    ]
  },
  "SceneObj_Area_Common_Property_Ani_Prop_AkaFesRhythmFerret_01": {
    "$type": "PAAKDFFLFIN",
    "hasModel": true,
    "combatTemplate": "default",
    "abilities": [
      {
        "abilityID": "",
        "abilityName": "SceneObj_Area_Common_Property_Ani_Prop_AkaFesRhythmFerret_01_BounceLow",
        "abilityOverride": ""
      },
      {
        "abilityID": "",
        "abilityName": "SceneObj_Area_Common_Property_Ani_Prop_AkaFesRhythmFerret_01_BounceHigh",
        "abilityOverride": ""
      }
    ],
    "stateLayers": {
      "defaultLayer": {
        "$type": "AEMHOACJLIB",
        "layerIndexName": "",
        "GCIDDLIDFAE": "",
        "stateIDs": {
          "All": {
            "$type": "EMHNNDOPLDB",
            "animatorStates": {
              "Run": [],
              "BounceLow": [
                "Animal_Thoarder_Weasel_Bounce01",
                "Animal_Thoarder_Weasel_Bounce02"
              ],
              "BounceHigh": [
                "Animal_Thoarder_Weasel_Bounce01",
                "Animal_Thoarder_Weasel_Bounce02",
                "Animal_Thoarder_Weasel_HighBounce"
              ]
            },
            "cullingModelAlwaysAnimate": true
          }
        }
      }
    }
  },
  "SceneObj_Area_Common_Property_Ani_Prop_AkaFesRhythmCoin_01": {
    "$type": "PAAKDFFLFIN",
    "hasModel": true,
    "combatTemplate": "default",
    "abilities": [
      {
        "abilityID": "",
        "abilityName": "SceneObj_Area_Common_Property_Ani_Prop_AkaFesRhythmCoin_01_Ability",
        "abilityOverride": ""
      }
    ]
  },
  "SceneObj_Area_Common_Property_Ani_Prop_AkaFesRhythmFish_01": {
    "$type": "PAAKDFFLFIN",
    "hasModel": true,
    "combatTemplate": "default",
    "abilities": [
      {
        "abilityID": "",
        "abilityName": "SceneObj_Area_Common_Property_Ani_Prop_AkaFesRhythmFish_01_Ability",
        "abilityOverride": ""
      }
    ],
    "stateLayers": {
      "defaultLayer": {
        "$type": "AEMHOACJLIB",
        "layerIndexName": "",
        "GCIDDLIDFAE": "",
        "stateIDs": {
          "All": {
            "$type": "EMHNNDOPLDB",
            "animatorStates": {
              "IdleFree": [
                "Animal_Fishable_Maritime_IdleFree01"
              ]
            },
            "cullingModelAlwaysAnimate": true
          }
        }
      }
    }
  }
}