{
  "LaSignora_AirWall_01": {
    "$type": "PAAKDFFLFIN",
    "model": {
      "bornEffect": "",
      "attachEffect": "Eff_Monster_LaSignora_AirWall_01"
    },
    "hasModel": true,
    "combatTemplate": ""
  },
  "LaSignora_AirWall_02": {
    "$type": "PAAKDFFLFIN",
    "model": {
      "bornEffect": "",
      "attachEffect": "Eff_Monster_LaSignora_AirWall_02"
    },
    "hasModel": true,
    "combatTemplate": ""
  },
  "LaSignora_Alert_CameraAnchor": {
    "$type": "PAAKDFFLFIN",
    "combat": {
      "property": {
        "hp": 999.0,
        "isInvincible": true,
        "canTriggerBullet": false
      },
      "combatLock": {
        "lockShape": "CircleLockEnemy",
        "denyLockOn": true,
        "lockType": "Default"
      }
    },
    "combatTemplate": "",
    "abilities": [
      {
        "abilityID": "",
        "abilityName": "LaSignora_Alert_CameraAnchor",
        "abilityOverride": ""
      }
    ],
    "timer": {
      "lifeTime": 10.0
    }
  },
  "LaSignora_Climate_AIController": {
    "$type": "PAAKDFFLFIN",
    "combatTemplate": "",
    "abilities": [
      {
        "abilityID": "",
        "abilityName": "LaSignora_Climate_AIController",
        "abilityOverride": ""
      }
    ],
    "timer": {
      "lifeInfinite": true
    }
  },
  "LaSignora_IceCocoon_Climate_AIController": {
    "$type": "PAAKDFFLFIN",
    "combatTemplate": "",
    "abilities": [
      {
        "abilityID": "",
        "abilityName": "LaSignora_Climate_AIClear",
        "abilityOverride": ""
      },
      {
        "abilityID": "",
        "abilityName": "LaSignora_Harbinger_Climate_AIClear",
        "abilityOverride": ""
      }
    ],
    "timer": {
      "lifeInfinite": true
    }
  },
  "LaSignora_Harbinger_Climate_AIController": {
    "$type": "PAAKDFFLFIN",
    "combatTemplate": "",
    "abilities": [
      {
        "abilityID": "",
        "abilityName": "LaSignora_Harbinger_Climate_AIController",
        "abilityOverride": ""
      }
    ],
    "timer": {
      "lifeInfinite": true
    }
  },
  "LaSignora_ShatteredHeart": {
    "$type": "PAAKDFFLFIN",
    "common": {},
    "combat": {
      "property": {
        "useCreatorProperty": true,
        "isLockHP": true,
        "isGhostToAllied": true,
        "ignoreDamageToSelf": true
      },
      "beHit": {
        "hitBloodEffect": "",
        "hitAutoRedirect": false,
        "muteAllHitText": true
      },
      "combatLock": {
        "lockShape": "CircleLockEnemy",
        "lockType": "Gear_Lv3"
      }
    },
    "combatTemplate": "",
    "abilities": [
      {
        "abilityID": "",
        "abilityName": "LaSignora_ShatteredHeart",
        "abilityOverride": ""
      }
    ],
    "billboard": {
      "$type": "IBDGIBAFPPH",
      "attachPoint": "BillboardAttach",
      "offset": {
        "y": 1.350000023841858
      },
      "radiusOffset": 0.5,
      "showDistance": 48.0,
      "showHPBar": true,
      "forceShowDistance": 48.0,
      "size": "Small",
      "shieldBarOnly": true
    }
  },
  "LaSignora_ShatteredHeart_01": {
    "$type": "PAAKDFFLFIN",
    "common": {},
    "combat": {
      "property": {
        "useCreatorProperty": true,
        "isLockHP": true,
        "isGhostToAllied": true,
        "ignoreDamageToSelf": true
      },
      "beHit": {
        "hitBloodEffect": "",
        "hitAutoRedirect": false,
        "muteAllHitText": true
      },
      "combatLock": {
        "lockShape": "CircleLockEnemy",
        "lockType": "Gear_Lv3"
      }
    },
    "combatTemplate": "",
    "abilities": [
      {
        "abilityID": "",
        "abilityName": "LaSignora_ShatteredHeart",
        "abilityOverride": ""
      },
      {
        "abilityID": "",
        "abilityName": "LaSignora_ShatteredHeart_01",
        "abilityOverride": ""
      }
    ],
    "billboard": {
      "$type": "IBDGIBAFPPH",
      "attachPoint": "BillboardAttach",
      "offset": {
        "y": 1.350000023841858
      },
      "radiusOffset": 0.5,
      "showDistance": 48.0,
      "showHPBar": true,
      "forceShowDistance": 48.0,
      "size": "Small",
      "shieldBarOnly": true
    }
  },
  "LaSignora_ShatteredHeart_02": {
    "$type": "PAAKDFFLFIN",
    "common": {},
    "combat": {
      "property": {
        "useCreatorProperty": true,
        "isLockHP": true,
        "isGhostToAllied": true,
        "ignoreDamageToSelf": true
      },
      "beHit": {
        "hitBloodEffect": "",
        "hitAutoRedirect": false,
        "muteAllHitText": true
      },
      "combatLock": {
        "lockShape": "CircleLockEnemy",
        "lockType": "Gear_Lv3"
      }
    },
    "combatTemplate": "",
    "abilities": [
      {
        "abilityID": "",
        "abilityName": "LaSignora_ShatteredHeart",
        "abilityOverride": ""
      },
      {
        "abilityID": "",
        "abilityName": "LaSignora_ShatteredHeart_02",
        "abilityOverride": ""
      }
    ],
    "billboard": {
      "$type": "IBDGIBAFPPH",
      "attachPoint": "BillboardAttach",
      "offset": {
        "y": 1.350000023841858
      },
      "radiusOffset": 0.5,
      "showDistance": 48.0,
      "showHPBar": true,
      "forceShowDistance": 48.0,
      "size": "Small",
      "shieldBarOnly": true
    }
  },
  "LaSignora_ShatteredHeart_03": {
    "$type": "PAAKDFFLFIN",
    "common": {},
    "combat": {
      "property": {
        "useCreatorProperty": true,
        "isLockHP": true,
        "isGhostToAllied": true,
        "ignoreDamageToSelf": true
      },
      "beHit": {
        "hitBloodEffect": "",
        "hitAutoRedirect": false,
        "muteAllHitText": true
      },
      "combatLock": {
        "lockShape": "CircleLockEnemy",
        "lockType": "Gear_Lv3"
      }
    },
    "combatTemplate": "",
    "abilities": [
      {
        "abilityID": "",
        "abilityName": "LaSignora_ShatteredHeart",
        "abilityOverride": ""
      },
      {
        "abilityID": "",
        "abilityName": "LaSignora_ShatteredHeart_03",
        "abilityOverride": ""
      }
    ],
    "billboard": {
      "$type": "IBDGIBAFPPH",
      "attachPoint": "BillboardAttach",
      "offset": {
        "y": 1.350000023841858
      },
      "radiusOffset": 0.5,
      "showDistance": 48.0,
      "showHPBar": true,
      "forceShowDistance": 48.0,
      "size": "Small",
      "shieldBarOnly": true
    }
  },
  "LaSignora_ShatteredHeart_04": {
    "$type": "PAAKDFFLFIN",
    "common": {},
    "combat": {
      "property": {
        "useCreatorProperty": true,
        "isLockHP": true,
        "isGhostToAllied": true,
        "ignoreDamageToSelf": true
      },
      "beHit": {
        "hitBloodEffect": "",
        "hitAutoRedirect": false,
        "muteAllHitText": true
      },
      "combatLock": {
        "lockShape": "CircleLockEnemy",
        "lockType": "Gear_Lv3"
      }
    },
    "combatTemplate": "",
    "abilities": [
      {
        "abilityID": "",
        "abilityName": "LaSignora_ShatteredHeart",
        "abilityOverride": ""
      },
      {
        "abilityID": "",
        "abilityName": "LaSignora_ShatteredHeart_04",
        "abilityOverride": ""
      }
    ],
    "billboard": {
      "$type": "IBDGIBAFPPH",
      "attachPoint": "BillboardAttach",
      "offset": {
        "y": 1.350000023841858
      },
      "radiusOffset": 0.5,
      "showDistance": 48.0,
      "showHPBar": true,
      "forceShowDistance": 48.0,
      "size": "Small",
      "shieldBarOnly": true
    }
  },
  "LaSignora_MeleeAtk01_BulletAnchor": {
    "$type": "PAAKDFFLFIN",
    "combatTemplate": "",
    "abilities": [
      {
        "abilityID": "",
        "abilityName": "LaSignora_MeleeAtk01_BulletAnchor",
        "abilityOverride": ""
      }
    ],
    "timer": {
      "lifeTime": 3.0
    }
  },
  "LaSignora_FrostBlume_Bullet": {
    "$type": "PAAKDFFLFIN",
    "combat": {
      "property": {
        "useCreatorProperty": true,
        "hp": 999999.0,
        "attack": 10.0,
        "defense": 999999.0,
        "isInvincible": true,
        "isGhostToAllied": true,
        "isGhostToEnemy": true
      },
      "beHit": {
        "hitBloodEffect": "",
        "muteAllHit": true,
        "muteAllHitEffect": true,
        "muteAllHitText": true
      },
      "combatLock": {
        "lockShape": "CircleLockEnemy",
        "denyLockOn": true,
        "lockType": "Default"
      }
    },
    "combatTemplate": "",
    "abilities": [
      {
        "abilityID": "",
        "abilityName": "LaSignora_FrostBlume_Bullet",
        "abilityOverride": ""
      }
    ],
    "timer": {
      "lifeTime": 5.0
    },
    "move": {
      "$type": "AHGMNDFKPGD",
      "speed": 20.0,
      "LADLDOGAMLI": {
        "$type": "GLPIGCIKICP"
      }
    },
    "gadget": {
      "$type": "INBEOAJKHGD",
      "collision": {},
      "triggerActions": [
        {
          "$type": "HEAANEHEBIK",
          "abilityName": "LaSignora_FrostBlume_Bullet"
        }
      ]
    }
  },
  "LaSignora_FrostBlume_Hor_Bullet": {
    "$type": "PAAKDFFLFIN",
    "combat": {
      "property": {
        "useCreatorProperty": true,
        "hp": 999999.0,
        "attack": 10.0,
        "defense": 999999.0,
        "isInvincible": true,
        "isGhostToAllied": true,
        "isGhostToEnemy": true
      },
      "beHit": {
        "hitBloodEffect": "",
        "muteAllHit": true,
        "muteAllHitEffect": true,
        "muteAllHitText": true
      },
      "combatLock": {
        "lockShape": "CircleLockEnemy",
        "denyLockOn": true,
        "lockType": "Default"
      }
    },
    "combatTemplate": "",
    "abilities": [
      {
        "abilityID": "",
        "abilityName": "LaSignora_FrostBlume_Hor_Bullet",
        "abilityOverride": ""
      }
    ],
    "timer": {
      "lifeTime": 2.0
    },
    "move": {
      "$type": "AHGMNDFKPGD",
      "velocityForce": {
        "muteAll": true
      },
      "speed": 20.0,
      "LADLDOGAMLI": {
        "$type": "GLPIGCIKICP"
      }
    },
    "gadget": {
      "$type": "INBEOAJKHGD",
      "collision": {
        "triggerType": "TriggerNoRepeat",
        "targetType": "Enemy"
      },
      "triggerActions": [
        {
          "$type": "HEAANEHEBIK",
          "abilityName": "LaSignora_FrostBlume_Hor_Bullet"
        }
      ]
    }
  },
  "LaSignora_FrostBlume_Ver_Bullet": {
    "$type": "PAAKDFFLFIN",
    "combat": {
      "property": {
        "useCreatorProperty": true,
        "hp": 999999.0,
        "attack": 10.0,
        "defense": 999999.0,
        "isInvincible": true,
        "isGhostToAllied": true,
        "isGhostToEnemy": true
      },
      "beHit": {
        "hitBloodEffect": "",
        "muteAllHit": true,
        "muteAllHitEffect": true,
        "muteAllHitText": true
      },
      "combatLock": {
        "lockShape": "CircleLockEnemy",
        "denyLockOn": true,
        "lockType": "Default"
      }
    },
    "combatTemplate": "",
    "timer": {
      "lifeTime": 3.0
    },
    "move": {
      "$type": "MEFFBNAGNKM",
      "speed": 6.0,
      "anglerVelocity": 90.0,
      "LADLDOGAMLI": {
        "$type": "GLPIGCIKICP"
      },
      "traceOnYAxis": true
    },
    "gadget": {
      "$type": "INBEOAJKHGD",
      "collision": {
        "targetType": "Enemy"
      }
    }
  },
  "LaSignora_FrostBlume_Trace_Bullet": {
    "$type": "PAAKDFFLFIN",
    "combat": {
      "property": {
        "useCreatorProperty": true,
        "hp": 999999.0,
        "attack": 10.0,
        "defense": 999999.0,
        "isInvincible": true,
        "isGhostToAllied": true,
        "isGhostToEnemy": true
      },
      "beHit": {
        "hitBloodEffect": "",
        "muteAllHit": true,
        "muteAllHitEffect": true,
        "muteAllHitText": true
      },
      "combatLock": {
        "lockShape": "CircleLockEnemy",
        "denyLockOn": true,
        "lockType": "Default"
      }
    },
    "combatTemplate": "",
    "abilities": [
      {
        "abilityID": "",
        "abilityName": "LaSignora_FrostBlume_Trace_Bullet",
        "abilityOverride": ""
      },
      {
        "abilityID": "",
        "abilityName": "LaSignora_FrostBlume_Trace_Bullet_Damage",
        "abilityOverride": ""
      }
    ],
    "timer": {
      "lifeTime": 3.0
    },
    "move": {
      "$type": "MEFFBNAGNKM",
      "speed": 10.0,
      "maxSpeed": 15.0,
      "minSpeed": 10.0,
      "anglerVelocity": 90.0,
      "acceleration": 5.0,
      "LADLDOGAMLI": {
        "$type": "GLPIGCIKICP"
      }
    },
    "gadget": {
      "$type": "INBEOAJKHGD",
      "collision": {
        "triggerType": "TriggerNoRepeat",
        "targetType": "Enemy"
      },
      "triggerActions": [
        {
          "$type": "HEAANEHEBIK",
          "abilityName": "LaSignora_FrostBlume_Trace_Bullet_Damage"
        }
      ],
      "triggerLifeOverActions": [
        {
          "$type": "HEAANEHEBIK",
          "abilityName": "LaSignora_FrostBlume_Trace_Bullet"
        }
      ]
    }
  },
  "LaSignora_FrostBlume_Gadget": {
    "$type": "PAAKDFFLFIN",
    "common": {},
    "combat": {
      "property": {
        "useCreatorProperty": true,
        "hp": 999999.0,
        "attack": 15.0,
        "defense": 999999.0,
        "isInvincible": true,
        "isGhostToAllied": true,
        "isGhostToEnemy": true
      },
      "beHit": {
        "hitBloodEffect": "",
        "muteAllHit": true,
        "muteAllHitEffect": true,
        "muteAllHitText": true
      },
      "combatLock": {
        "lockShape": "CircleLockEnemy",
        "denyLockOn": true,
        "lockType": "Default"
      }
    },
    "combatTemplate": "",
    "abilities": [
      {
        "abilityID": "",
        "abilityName": "LaSignora_FrostBlume_Gadget",
        "abilityOverride": ""
      }
    ],
    "timer": {
      "lifeTime": 10.0
    }
  },
  "LaSignora_BaneChisel_Single_Bullet": {
    "$type": "PAAKDFFLFIN",
    "combat": {
      "property": {
        "useCreatorProperty": true,
        "hp": 999999.0,
        "attack": 10.0,
        "defense": 999999.0,
        "isInvincible": true,
        "isGhostToAllied": true,
        "isGhostToEnemy": true
      },
      "beHit": {
        "hitBloodEffect": "",
        "muteAllHit": true,
        "muteAllHitEffect": true,
        "muteAllHitText": true
      },
      "combatLock": {
        "lockShape": "CircleLockEnemy",
        "denyLockOn": true,
        "lockType": "Default"
      }
    },
    "combatTemplate": "",
    "abilities": [
      {
        "abilityID": "",
        "abilityName": "LaSignora_BaneChisel_Single_Bullet",
        "abilityOverride": ""
      }
    ],
    "timer": {
      "lifeTime": 10.0
    },
    "move": {
      "$type": "AFLMLLJFENB",
      "speed": 15.0,
      "maxSpeed": 20.0,
      "minSpeed": 15.0,
      "anglerVelocity": 1080.0,
      "acceleration": 3.0,
      "LADLDOGAMLI": {
        "$type": "GLPIGCIKICP"
      },
      "itanoCircusStartAngler": 60.0,
      "guidanceDelay": 0.30000001192092896,
      "guidanceMinAnglerVelocity": 1080.0,
      "guidanceDuration": 0.5
    },
    "gadget": {
      "$type": "INBEOAJKHGD",
      "collision": {
        "targetType": "Enemy"
      },
      "triggerActions": [
        {
          "$type": "HEAANEHEBIK",
          "abilityName": "LaSignora_BaneChisel_Single_Bullet"
        }
      ]
    }
  },
  "LaSignora_BaneChisel_Rect_Bullet": {
    "$type": "PAAKDFFLFIN",
    "combat": {
      "property": {
        "useCreatorProperty": true,
        "hp": 999999.0,
        "attack": 10.0,
        "defense": 999999.0,
        "isInvincible": true,
        "isGhostToAllied": true,
        "isGhostToEnemy": true
      },
      "beHit": {
        "hitBloodEffect": "",
        "muteAllHit": true,
        "muteAllHitEffect": true,
        "muteAllHitText": true
      },
      "combatLock": {
        "lockShape": "CircleLockEnemy",
        "denyLockOn": true,
        "lockType": "Default"
      }
    },
    "combatTemplate": "",
    "timer": {
      "lifeTime": 10.0
    },
    "move": {
      "$type": "AHGMNDFKPGD",
      "velocityForce": {
        "muteAll": true
      },
      "speed": 20.0,
      "LADLDOGAMLI": {
        "$type": "GLPIGCIKICP"
      }
    },
    "gadget": {
      "$type": "INBEOAJKHGD",
      "collision": {
        "triggerType": "TriggerNoRepeat"
      }
    }
  },
  "LaSignora_MeleeAtk02_Ver_BulletAnchor": {
    "$type": "PAAKDFFLFIN",
    "combat": {
      "property": {
        "isInvincible": true,
        "isGhostToEnemy": true
      },
      "beHit": {
        "hitBloodEffect": "",
        "muteAllHit": true,
        "muteAllHitEffect": true,
        "muteAllHitText": true
      },
      "combatLock": {
        "lockShape": "CircleLockEnemy",
        "denyLockOn": true,
        "lockType": "Default"
      }
    },
    "combatTemplate": "",
    "abilities": [
      {
        "abilityID": "",
        "abilityName": "LaSignora_BaneChisel_Bullet_Target",
        "abilityOverride": ""
      }
    ],
    "timer": {
      "lifeTime": 7.0
    }
  },
  "LaSignora_BaneChisel_Bullet": {
    "$type": "PAAKDFFLFIN",
    "combat": {
      "property": {
        "useCreatorProperty": true,
        "hp": 999999.0,
        "attack": 10.0,
        "defense": 999999.0,
        "isInvincible": true,
        "isGhostToAllied": true,
        "isGhostToEnemy": true
      },
      "beHit": {
        "hitBloodEffect": "",
        "muteAllHit": true,
        "muteAllHitEffect": true,
        "muteAllHitText": true
      },
      "combatLock": {
        "lockShape": "CircleLockEnemy",
        "denyLockOn": true,
        "lockType": "Default"
      }
    },
    "combatTemplate": "",
    "abilities": [
      {
        "abilityID": "",
        "abilityName": "LaSignora_BaneChisel_Bullet",
        "abilityOverride": ""
      }
    ],
    "timer": {
      "lifeTime": 5.0
    },
    "move": {
      "$type": "AHGMNDFKPGD",
      "velocityForce": {
        "muteAll": true
      },
      "speed": 30.0,
      "acceleration": 10.0,
      "LADLDOGAMLI": {
        "$type": "GLPIGCIKICP"
      }
    },
    "gadget": {
      "$type": "INBEOAJKHGD",
      "collision": {
        "ccd": {
          "KPGKDHAFHFE": "Always"
        },
        "triggerType": "TriggerNoRepeat",
        "targetType": "All",
        "ignoreScene": true
      },
      "triggerActions": [
        {
          "$type": "HEAANEHEBIK",
          "abilityName": "LaSignora_BaneChisel_Bullet"
        }
      ]
    }
  },
  "LaSignora_BaneChisel_Bullet_Anchor": {
    "$type": "PAAKDFFLFIN",
    "combat": {
      "property": {
        "useCreatorProperty": true,
        "hp": 999999.0,
        "attack": 10.0,
        "defense": 999999.0,
        "isInvincible": true,
        "isGhostToAllied": true,
        "isGhostToEnemy": true
      },
      "beHit": {
        "hitBloodEffect": "",
        "muteAllHit": true,
        "muteAllHitEffect": true,
        "muteAllHitText": true
      },
      "combatLock": {
        "lockShape": "CircleLockEnemy",
        "denyLockOn": true,
        "lockType": "Default"
      }
    },
    "combatTemplate": "",
    "abilities": [
      {
        "abilityID": "",
        "abilityName": "LaSignora_BaneChisel_Bullet_Anchor",
        "abilityOverride": ""
      }
    ],
    "timer": {
      "lifeTime": 10.0
    },
    "move": {
      "$type": "MEFFBNAGNKM",
      "velocityForce": {
        "muteAll": true
      },
      "speed": 0.10000000149011612,
      "LADLDOGAMLI": {
        "$type": "GLPIGCIKICP",
        "traceLerpCoef": 360.0
      },
      "traceOnYAxis": true
    },
    "gadget": {
      "$type": "INBEOAJKHGD",
      "collision": {
        "triggerType": "TriggerNoRepeat"
      }
    }
  },
  "LaSignora_BaneChisel_Bullet_Damage": {
    "$type": "PAAKDFFLFIN",
    "combat": {
      "property": {
        "useCreatorProperty": true,
        "hp": 999999.0,
        "attack": 10.0,
        "defense": 999999.0,
        "isInvincible": true,
        "isGhostToAllied": true,
        "isGhostToEnemy": true
      },
      "beHit": {
        "hitBloodEffect": "",
        "muteAllHit": true,
        "muteAllHitEffect": true,
        "muteAllHitText": true
      },
      "combatLock": {
        "lockShape": "CircleLockEnemy",
        "denyLockOn": true,
        "lockType": "Default"
      }
    },
    "combatTemplate": "",
    "abilities": [
      {
        "abilityID": "",
        "abilityName": "LaSignora_BaneChisel_Bullet_Damage",
        "abilityOverride": ""
      }
    ],
    "timer": {
      "lifeTime": 5.0
    }
  },
  "LaSignora_Wrap_Follow": {
    "$type": "PAAKDFFLFIN",
    "combat": {
      "property": {
        "useCreatorProperty": true,
        "hp": 999999.0,
        "attack": 10.0,
        "defense": 999999.0,
        "isInvincible": true,
        "isGhostToAllied": true,
        "isGhostToEnemy": true
      },
      "beHit": {
        "hitBloodEffect": "",
        "muteAllHit": true,
        "muteAllHitEffect": true,
        "muteAllHitText": true
      },
      "combatLock": {
        "lockShape": "CircleLockEnemy",
        "denyLockOn": true,
        "lockType": "Default"
      }
    },
    "combatTemplate": "",
    "timer": {
      "lifeTime": 10.0
    },
    "move": {
      "$type": "MEFFBNAGNKM",
      "velocityForce": {
        "muteAll": true
      },
      "speed": 0.10000000149011612,
      "traceOnYAxis": true
    },
    "gadget": {
      "$type": "INBEOAJKHGD",
      "collision": {}
    }
  },
  "LaSignora_IceCocoon": {
    "$type": "PAAKDFFLFIN",
    "common": {
      "effectAttachShape": {
        "$type": "ODDIEGMAAKC",
        "mesh": "EffectMesh"
      },
      "affectedByWorld": true,
      "scale": 1.5
    },
    "specialPoint": {
      "elementAbsorb": "RootNode",
      "elementPendant": "",
      "elementDrop": "RootNode",
      "bulletAim": "AimPoint"
    },
    "hasModel": true,
    "combat": {
      "property": {
        "hp": 999999.0,
        "attack": 10.0,
        "defense": 999999.0,
        "isLockHP": true
      },
      "beHit": {
        "hitBloodEffect": "",
        "muteAllHitText": true
      },
      "combatLock": {
        "lockShape": "CircleLockEnemy",
        "lockType": "Avatar&Monster_Lv4"
      }
    },
    "combatTemplate": "",
    "abilities": [
      {
        "abilityID": "",
        "abilityName": "LaSignora_IceCocoon",
        "abilityOverride": ""
      }
    ],
    "timer": {
      "lifeInfinite": true
    }
  },
  "LaSignora_FlameDesire": {
    "$type": "PAAKDFFLFIN",
    "combatTemplate": "",
    "abilities": [
      {
        "abilityID": "",
        "abilityName": "LaSignora_FlameDesire",
        "abilityOverride": ""
      }
    ],
    "timer": {
      "lifeInfinite": true
    },
    "uiInteract": {
      "gadgetUIBtnCfgPath": "TEST/TEST_Chest_Btn",
      "uiName": "",
      "onTouch": "WidgetMPSupport",
      "touchParams": [
        "LaSignora_FlameDesire"
      ],
      "icon": "",
      "groupName": "",
      "confirmDialogTitle": "",
      "confirmDialogContent": ""
    }
  },
  "LaSignora_IceCocoon_FrostBlume_Anchor": {
    "$type": "PAAKDFFLFIN",
    "common": {},
    "combat": {
      "property": {
        "useCreatorProperty": true,
        "hp": 999999.0,
        "attack": 15.0,
        "defense": 999999.0,
        "isInvincible": true,
        "isGhostToAllied": true,
        "isGhostToEnemy": true
      },
      "beHit": {
        "hitBloodEffect": "",
        "muteAllHit": true,
        "muteAllHitEffect": true,
        "muteAllHitText": true
      },
      "combatLock": {
        "lockShape": "CircleLockEnemy",
        "denyLockOn": true,
        "lockType": "Default"
      }
    },
    "combatTemplate": "",
    "abilities": [
      {
        "abilityID": "",
        "abilityName": "LaSignora_IceCocoon_FrostBlume_Anchor",
        "abilityOverride": ""
      }
    ],
    "timer": {
      "lifeTime": 10.0
    }
  },
  "LaSignora_IceCocoon_FrostBlume_Bullet": {
    "$type": "PAAKDFFLFIN",
    "combat": {
      "property": {
        "useCreatorProperty": true,
        "hp": 999999.0,
        "attack": 10.0,
        "defense": 999999.0,
        "isInvincible": true,
        "isGhostToAllied": true,
        "isGhostToEnemy": true
      },
      "beHit": {
        "hitBloodEffect": "",
        "muteAllHit": true,
        "muteAllHitEffect": true,
        "muteAllHitText": true
      },
      "combatLock": {
        "lockShape": "CircleLockEnemy",
        "denyLockOn": true,
        "lockType": "Default"
      }
    },
    "combatTemplate": "",
    "abilities": [
      {
        "abilityID": "",
        "abilityName": "LaSignora_IceCocoon_FrostBlume_Bullet",
        "abilityOverride": ""
      }
    ],
    "timer": {
      "lifeTime": 2.0
    },
    "move": {
      "$type": "AHGMNDFKPGD",
      "speed": 10.0,
      "acceleration": 10.0,
      "LADLDOGAMLI": {
        "$type": "GLPIGCIKICP"
      }
    },
    "gadget": {
      "$type": "INBEOAJKHGD",
      "collision": {
        "triggerType": "TriggerNoRepeat",
        "targetType": "Enemy"
      },
      "triggerActions": [
        {
          "$type": "HEAANEHEBIK",
          "abilityName": "LaSignora_IceCocoon_FrostBlume_Bullet"
        }
      ]
    }
  },
  "LaSignora_IceCocoon_FrostBlume_Gadget": {
    "$type": "PAAKDFFLFIN",
    "common": {},
    "combat": {
      "property": {
        "useCreatorProperty": true,
        "hp": 999999.0,
        "attack": 15.0,
        "defense": 999999.0,
        "isInvincible": true,
        "isGhostToAllied": true,
        "isGhostToEnemy": true
      },
      "beHit": {
        "hitBloodEffect": "",
        "muteAllHit": true,
        "muteAllHitEffect": true,
        "muteAllHitText": true
      },
      "combatLock": {
        "lockShape": "CircleLockEnemy",
        "denyLockOn": true,
        "lockType": "Default"
      }
    },
    "combatTemplate": "",
    "abilities": [
      {
        "abilityID": "",
        "abilityName": "LaSignora_IceCocoon_FrostBlume_Gadget",
        "abilityOverride": ""
      }
    ],
    "timer": {
      "lifeTime": 10.0
    }
  },
  "LaSignora_IceCocoon_BaneChisel_Single_Bullet": {
    "$type": "PAAKDFFLFIN",
    "combat": {
      "property": {
        "useCreatorProperty": true,
        "hp": 999999.0,
        "attack": 10.0,
        "defense": 999999.0,
        "isInvincible": true,
        "isGhostToAllied": true,
        "isGhostToEnemy": true
      },
      "beHit": {
        "hitBloodEffect": "",
        "muteAllHit": true,
        "muteAllHitEffect": true,
        "muteAllHitText": true
      },
      "combatLock": {
        "lockShape": "CircleLockEnemy",
        "denyLockOn": true,
        "lockType": "Default"
      }
    },
    "combatTemplate": "",
    "abilities": [
      {
        "abilityID": "",
        "abilityName": "LaSignora_IceCocoon_BaneChisel_Single_Bullet",
        "abilityOverride": ""
      }
    ],
    "timer": {
      "lifeTime": 10.0
    },
    "move": {
      "$type": "AFLMLLJFENB",
      "speed": 15.0,
      "maxSpeed": 20.0,
      "minSpeed": 15.0,
      "anglerVelocity": 1080.0,
      "acceleration": 3.0,
      "LADLDOGAMLI": {
        "$type": "GLPIGCIKICP"
      },
      "itanoCircusStartAngler": 60.0,
      "guidanceDelay": 0.30000001192092896,
      "guidanceMinAnglerVelocity": 1080.0,
      "guidanceDuration": 0.5
    },
    "gadget": {
      "$type": "INBEOAJKHGD",
      "collision": {
        "targetType": "Enemy"
      },
      "triggerActions": [
        {
          "$type": "HEAANEHEBIK",
          "abilityName": "LaSignora_IceCocoon_BaneChisel_Single_Bullet"
        }
      ]
    }
  },
  "LaSignora_Harbinger_ShatteredDelusion": {
    "$type": "PAAKDFFLFIN",
    "common": {},
    "combat": {
      "property": {
        "useCreatorProperty": true,
        "isLockHP": true,
        "isGhostToAllied": true,
        "ignoreDamageToSelf": true
      },
      "beHit": {
        "hitBloodEffect": "",
        "hitAutoRedirect": false,
        "muteAllHitText": true
      },
      "combatLock": {
        "lockShape": "CircleLockEnemy",
        "lockType": "Gear_Lv3"
      }
    },
    "combatTemplate": "",
    "abilities": [
      {
        "abilityID": "",
        "abilityName": "LaSignora_Harbinger_ShatteredDelusion",
        "abilityOverride": ""
      }
    ],
    "billboard": {
      "$type": "IBDGIBAFPPH",
      "attachPoint": "BillboardAttach",
      "offset": {
        "y": 1.350000023841858
      },
      "radiusOffset": 0.5,
      "showDistance": 48.0,
      "showHPBar": true,
      "forceShowDistance": 48.0,
      "size": "Small",
      "shieldBarOnly": true
    }
  },
  "LaSignora_Harbinger_ShatteredDelusion_01": {
    "$type": "PAAKDFFLFIN",
    "common": {},
    "combat": {
      "property": {
        "useCreatorProperty": true,
        "isLockHP": true,
        "isGhostToAllied": true,
        "ignoreDamageToSelf": true
      },
      "beHit": {
        "hitBloodEffect": "",
        "hitAutoRedirect": false,
        "muteAllHitText": true
      },
      "combatLock": {
        "lockShape": "CircleLockEnemy",
        "lockType": "Gear_Lv3"
      }
    },
    "combatTemplate": "",
    "abilities": [
      {
        "abilityID": "",
        "abilityName": "LaSignora_Harbinger_ShatteredDelusion",
        "abilityOverride": ""
      },
      {
        "abilityID": "",
        "abilityName": "LaSignora_Harbinger_ShatteredDelusion_01",
        "abilityOverride": ""
      }
    ],
    "billboard": {
      "$type": "IBDGIBAFPPH",
      "attachPoint": "BillboardAttach",
      "offset": {
        "y": 1.350000023841858
      },
      "radiusOffset": 0.5,
      "showDistance": 48.0,
      "showHPBar": true,
      "forceShowDistance": 48.0,
      "size": "Small",
      "shieldBarOnly": true
    }
  },
  "LaSignora_Harbinger_ShatteredDelusion_02": {
    "$type": "PAAKDFFLFIN",
    "common": {},
    "combat": {
      "property": {
        "useCreatorProperty": true,
        "isLockHP": true,
        "isGhostToAllied": true,
        "ignoreDamageToSelf": true
      },
      "beHit": {
        "hitBloodEffect": "",
        "hitAutoRedirect": false,
        "muteAllHitText": true
      },
      "combatLock": {
        "lockShape": "CircleLockEnemy",
        "lockType": "Gear_Lv3"
      }
    },
    "combatTemplate": "",
    "abilities": [
      {
        "abilityID": "",
        "abilityName": "LaSignora_Harbinger_ShatteredDelusion",
        "abilityOverride": ""
      },
      {
        "abilityID": "",
        "abilityName": "LaSignora_Harbinger_ShatteredDelusion_02",
        "abilityOverride": ""
      }
    ],
    "billboard": {
      "$type": "IBDGIBAFPPH",
      "attachPoint": "BillboardAttach",
      "offset": {
        "y": 1.350000023841858
      },
      "radiusOffset": 0.5,
      "showDistance": 48.0,
      "showHPBar": true,
      "forceShowDistance": 48.0,
      "size": "Small",
      "shieldBarOnly": true
    }
  },
  "LaSignora_Harbinger_ShatteredDelusion_03": {
    "$type": "PAAKDFFLFIN",
    "common": {},
    "combat": {
      "property": {
        "useCreatorProperty": true,
        "isLockHP": true,
        "isGhostToAllied": true,
        "ignoreDamageToSelf": true
      },
      "beHit": {
        "hitBloodEffect": "",
        "hitAutoRedirect": false,
        "muteAllHitText": true
      },
      "combatLock": {
        "lockShape": "CircleLockEnemy",
        "lockType": "Gear_Lv3"
      }
    },
    "combatTemplate": "",
    "abilities": [
      {
        "abilityID": "",
        "abilityName": "LaSignora_Harbinger_ShatteredDelusion",
        "abilityOverride": ""
      },
      {
        "abilityID": "",
        "abilityName": "LaSignora_Harbinger_ShatteredDelusion_03",
        "abilityOverride": ""
      }
    ],
    "billboard": {
      "$type": "IBDGIBAFPPH",
      "attachPoint": "BillboardAttach",
      "offset": {
        "y": 1.350000023841858
      },
      "radiusOffset": 0.5,
      "showDistance": 48.0,
      "showHPBar": true,
      "forceShowDistance": 48.0,
      "size": "Small",
      "shieldBarOnly": true
    }
  },
  "LaSignora_Harbinger_ShatteredDelusion_04": {
    "$type": "PAAKDFFLFIN",
    "common": {},
    "combat": {
      "property": {
        "useCreatorProperty": true,
        "isLockHP": true,
        "isGhostToAllied": true,
        "ignoreDamageToSelf": true
      },
      "beHit": {
        "hitBloodEffect": "",
        "hitAutoRedirect": false,
        "muteAllHitText": true
      },
      "combatLock": {
        "lockShape": "CircleLockEnemy",
        "lockType": "Gear_Lv3"
      }
    },
    "combatTemplate": "",
    "abilities": [
      {
        "abilityID": "",
        "abilityName": "LaSignora_Harbinger_ShatteredDelusion",
        "abilityOverride": ""
      },
      {
        "abilityID": "",
        "abilityName": "LaSignora_Harbinger_ShatteredDelusion_04",
        "abilityOverride": ""
      }
    ],
    "billboard": {
      "$type": "IBDGIBAFPPH",
      "attachPoint": "BillboardAttach",
      "offset": {
        "y": 1.350000023841858
      },
      "radiusOffset": 0.5,
      "showDistance": 48.0,
      "showHPBar": true,
      "forceShowDistance": 48.0,
      "size": "Small",
      "shieldBarOnly": true
    }
  },
  "LaSignora_Harbinger_FrameWave_Bullet": {
    "$type": "PAAKDFFLFIN",
    "combat": {
      "property": {
        "useCreatorProperty": true,
        "hp": 999999.0,
        "attack": 10.0,
        "defense": 999999.0,
        "isInvincible": true,
        "isGhostToAllied": true,
        "isGhostToEnemy": true
      },
      "beHit": {
        "hitBloodEffect": "",
        "muteAllHit": true,
        "muteAllHitEffect": true,
        "muteAllHitText": true
      },
      "combatLock": {
        "lockShape": "CircleLockEnemy",
        "denyLockOn": true,
        "lockType": "Default"
      }
    },
    "combatTemplate": "",
    "abilities": [
      {
        "abilityID": "",
        "abilityName": "LaSignora_Harbinger_FrameWave_Bullet",
        "abilityOverride": ""
      },
      {
        "abilityID": "",
        "abilityName": "LaSignora_Harbinger_FrameWave_Bullet_Damage",
        "abilityOverride": ""
      }
    ],
    "timer": {
      "lifeTime": 5.0
    },
    "move": {
      "$type": "MEFFBNAGNKM",
      "speed": 8.0,
      "anglerVelocity": 90.0,
      "LADLDOGAMLI": {
        "$type": "GLPIGCIKICP"
      },
      "traceOnYAxis": true
    },
    "gadget": {
      "$type": "INBEOAJKHGD",
      "collision": {
        "triggerType": "TriggerAlways",
        "triggerCD": 1.0,
        "targetType": "Enemy",
        "ignoreScene": true
      },
      "triggerActions": [
        {
          "$type": "HEAANEHEBIK",
          "abilityName": "LaSignora_Harbinger_FrameWave_Bullet_Damage"
        }
      ],
      "triggerLifeOverActions": [
        {
          "$type": "HEAANEHEBIK",
          "abilityName": "LaSignora_Harbinger_FrameWave_Bullet"
        }
      ]
    }
  },
  "LaSignora_Harbinger_EarthShake_Anchor": {
    "$type": "PAAKDFFLFIN",
    "common": {},
    "combat": {
      "property": {
        "useCreatorProperty": true,
        "hp": 999999.0,
        "attack": 15.0,
        "defense": 999999.0,
        "isInvincible": true,
        "isGhostToAllied": true,
        "isGhostToEnemy": true
      },
      "beHit": {
        "hitBloodEffect": "",
        "muteAllHit": true,
        "muteAllHitEffect": true,
        "muteAllHitText": true
      },
      "combatLock": {
        "lockShape": "CircleLockEnemy",
        "denyLockOn": true,
        "lockType": "Default"
      }
    },
    "combatTemplate": "",
    "abilities": [
      {
        "abilityID": "",
        "abilityName": "LaSignora_Harbinger_EarthShake_Anchor",
        "abilityOverride": ""
      }
    ],
    "timer": {
      "lifeTime": 3.0
    }
  },
  "LaSignora_Harbinger_RushMove_Anchor": {
    "$type": "PAAKDFFLFIN",
    "combatTemplate": "",
    "timer": {
      "lifeTime": 10.0
    }
  },
  "LaSignora_Harbinger_RushMove_Bullet": {
    "$type": "PAAKDFFLFIN",
    "combat": {
      "property": {
        "useCreatorProperty": true,
        "hp": 999999.0,
        "attack": 10.0,
        "defense": 999999.0,
        "isInvincible": true,
        "isGhostToAllied": true,
        "isGhostToEnemy": true
      },
      "beHit": {
        "hitBloodEffect": "",
        "muteAllHit": true,
        "muteAllHitEffect": true,
        "muteAllHitText": true
      },
      "combatLock": {
        "lockShape": "CircleLockEnemy",
        "denyLockOn": true,
        "lockType": "Default"
      }
    },
    "combatTemplate": "",
    "abilities": [
      {
        "abilityID": "",
        "abilityName": "LaSignora_Harbinger_RushMove_Bullet",
        "abilityOverride": ""
      }
    ],
    "timer": {
      "lifeTime": 8.0
    },
    "move": {
      "$type": "IGIJLNOIMEL",
      "velocityForce": {
        "muteAll": true
      },
      "MLDBFKEGPEF": "TargetEntity",
      "attachPoint": "",
      "followRotation": true,
      "EHCIGNEDGDO": ""
    },
    "gadget": {
      "$type": "INBEOAJKHGD",
      "collision": {
        "triggerType": "TriggerAlways",
        "triggerCD": 1.0,
        "targetType": "Enemy",
        "ignoreScene": true
      },
      "triggerActions": [
        {
          "$type": "HEAANEHEBIK",
          "abilityName": "LaSignora_Harbinger_RushMove_Bullet"
        }
      ]
    }
  },
  "LaSignora_Harbinger_RushMove_Bullet_Scene": {
    "$type": "PAAKDFFLFIN",
    "combat": {
      "property": {
        "useCreatorProperty": true,
        "hp": 999999.0,
        "attack": 10.0,
        "defense": 999999.0,
        "isInvincible": true,
        "isGhostToAllied": true,
        "isGhostToEnemy": true
      },
      "beHit": {
        "hitBloodEffect": "",
        "muteAllHit": true,
        "muteAllHitEffect": true,
        "muteAllHitText": true
      },
      "combatLock": {
        "lockShape": "CircleLockEnemy",
        "denyLockOn": true,
        "lockType": "Default"
      }
    },
    "combatTemplate": "",
    "abilities": [
      {
        "abilityID": "",
        "abilityName": "LaSignora_Harbinger_RushMove_Bullet_Scene",
        "abilityOverride": ""
      }
    ],
    "timer": {
      "lifeTime": 8.0
    },
    "move": {
      "$type": "IGIJLNOIMEL",
      "velocityForce": {
        "muteAll": true
      },
      "MLDBFKEGPEF": "TargetEntity",
      "attachPoint": "",
      "followRotation": true,
      "EHCIGNEDGDO": ""
    },
    "gadget": {
      "$type": "INBEOAJKHGD",
      "collision": {
        "triggerType": "TriggerAlways",
        "targetType": "Enemy",
        "ignoreScene": true
      },
      "triggerActions": [
        {
          "$type": "HEAANEHEBIK",
          "abilityName": "LaSignora_Harbinger_RushMove_Bullet_Scene"
        }
      ]
    }
  },
  "LaSignora_Harbinger_Fury_Bullet_Anchor": {
    "$type": "PAAKDFFLFIN",
    "combat": {
      "property": {
        "useCreatorProperty": true,
        "hp": 999999.0,
        "attack": 10.0,
        "defense": 999999.0,
        "isInvincible": true,
        "isGhostToAllied": true,
        "isGhostToEnemy": true
      },
      "beHit": {
        "hitBloodEffect": "",
        "muteAllHit": true,
        "muteAllHitEffect": true,
        "muteAllHitText": true
      },
      "combatLock": {
        "lockShape": "CircleLockEnemy",
        "denyLockOn": true,
        "lockType": "Default"
      }
    },
    "combatTemplate": "",
    "abilities": [
      {
        "abilityID": "",
        "abilityName": "LaSignora_Harbinger_Fury_Bullet_Anchor",
        "abilityOverride": ""
      }
    ],
    "timer": {
      "lifeTime": 10.0
    }
  },
  "LaSignora_Harbinger_Fury_Bullet": {
    "$type": "PAAKDFFLFIN",
    "combat": {
      "property": {
        "useCreatorProperty": true,
        "hp": 999999.0,
        "attack": 10.0,
        "defense": 999999.0,
        "isInvincible": true,
        "isGhostToAllied": true,
        "isGhostToEnemy": true
      },
      "beHit": {
        "hitBloodEffect": "",
        "muteAllHit": true,
        "muteAllHitEffect": true,
        "muteAllHitText": true
      },
      "combatLock": {
        "lockShape": "CircleLockEnemy",
        "denyLockOn": true,
        "lockType": "Default"
      }
    },
    "combatTemplate": "",
    "abilities": [
      {
        "abilityID": "",
        "abilityName": "LaSignora_Harbinger_Fury_Bullet",
        "abilityOverride": ""
      }
    ],
    "timer": {
      "lifeTime": 5.0
    },
    "move": {
      "$type": "AHGMNDFKPGD",
      "velocityForce": {
        "muteAll": true
      },
      "speed": 20.0,
      "acceleration": 10.0,
      "LADLDOGAMLI": {
        "$type": "GLPIGCIKICP"
      }
    },
    "gadget": {
      "$type": "INBEOAJKHGD",
      "collision": {
        "triggerType": "TriggerNoRepeat"
      }
    }
  },
  "LaSignora_Harbinger_MagmaCurtain_Bullet": {
    "$type": "PAAKDFFLFIN",
    "combat": {
      "property": {
        "useCreatorProperty": true,
        "hp": 999999.0,
        "attack": 10.0,
        "defense": 999999.0,
        "isInvincible": true,
        "isGhostToAllied": true,
        "isGhostToEnemy": true
      },
      "beHit": {
        "hitBloodEffect": "",
        "muteAllHit": true,
        "muteAllHitEffect": true,
        "muteAllHitText": true
      },
      "combatLock": {
        "lockShape": "CircleLockEnemy",
        "denyLockOn": true,
        "lockType": "Default"
      }
    },
    "combatTemplate": "",
    "abilities": [
      {
        "abilityID": "",
        "abilityName": "LaSignora_Harbinger_MagmaCurtain_Bullet",
        "abilityOverride": ""
      }
    ],
    "timer": {
      "lifeTime": 5.0
    },
    "move": {
      "$type": "KPMONKJIGAM",
      "velocityForce": {
        "muteAll": true
      },
      "speed": 12.0,
      "LADLDOGAMLI": {
        "$type": "GLPIGCIKICP"
      },
      "straightRange": 0.5,
      "gravityOfAcceleration": 30.0
    },
    "gadget": {
      "$type": "INBEOAJKHGD",
      "collision": {},
      "triggerActions": [
        {
          "$type": "HEAANEHEBIK",
          "abilityName": "LaSignora_Harbinger_MagmaCurtain_Bullet"
        }
      ]
    }
  },
  "LaSignora_Harbinger_FrameSeeker_Bullet": {
    "$type": "PAAKDFFLFIN",
    "combat": {
      "property": {
        "useCreatorProperty": true,
        "hp": 999999.0,
        "attack": 10.0,
        "defense": 999999.0,
        "isInvincible": true,
        "isGhostToAllied": true,
        "isGhostToEnemy": true
      },
      "beHit": {
        "hitBloodEffect": "",
        "muteAllHit": true,
        "muteAllHitEffect": true,
        "muteAllHitText": true
      },
      "combatLock": {
        "lockShape": "CircleLockEnemy",
        "denyLockOn": true,
        "lockType": "Default"
      }
    },
    "combatTemplate": "",
    "abilities": [
      {
        "abilityID": "",
        "abilityName": "LaSignora_Harbinger_FrameSeeker_Bullet",
        "abilityOverride": ""
      }
    ],
    "timer": {
      "lifeTime": 5.0
    },
    "move": {
      "$type": "AHGMNDFKPGD",
      "velocityForce": {
        "muteAll": true
      },
      "speed": 15.0,
      "acceleration": -5.0,
      "LADLDOGAMLI": {
        "$type": "GLPIGCIKICP"
      }
    },
    "gadget": {
      "$type": "INBEOAJKHGD",
      "collision": {
        "triggerType": "TriggerAlways",
        "triggerCD": 1.0,
        "targetType": "Enemy",
        "ignoreScene": true
      },
      "triggerActions": [
        {
          "$type": "HEAANEHEBIK",
          "abilityName": "LaSignora_Harbinger_FrameSeeker_Bullet"
        }
      ]
    }
  },
  "LaSignora_Harbinger_Tornado_Bullet_Follow": {
    "$type": "PAAKDFFLFIN",
    "combat": {
      "property": {
        "useCreatorProperty": true,
        "hp": 999999.0,
        "attack": 10.0,
        "defense": 999999.0,
        "isInvincible": true,
        "isGhostToAllied": true,
        "isGhostToEnemy": true
      },
      "beHit": {
        "hitBloodEffect": "",
        "muteAllHit": true,
        "muteAllHitEffect": true,
        "muteAllHitText": true
      },
      "combatLock": {
        "lockShape": "CircleLockEnemy",
        "denyLockOn": true,
        "lockType": "Default"
      }
    },
    "combatTemplate": "",
    "abilities": [
      {
        "abilityID": "",
        "abilityName": "LaSignora_Harbinger_Tornado_Bullet_Follow",
        "abilityOverride": ""
      }
    ],
    "timer": {
      "lifeTime": 15.0
    },
    "move": {
      "$type": "IGIJLNOIMEL",
      "velocityForce": {
        "muteAll": true
      },
      "MLDBFKEGPEF": "TargetEntity",
      "attachPoint": "RootNode",
      "EHCIGNEDGDO": ""
    },
    "gadget": {
      "$type": "INBEOAJKHGD",
      "collision": {
        "triggerType": "TriggerAlways",
        "triggerCD": 1.0,
        "targetType": "Enemy",
        "ignoreScene": true
      },
      "triggerActions": [
        {
          "$type": "HEAANEHEBIK",
          "abilityName": "LaSignora_Harbinger_Tornado_Bullet_Follow"
        }
      ]
    }
  },
  "LaSignora_Harbinger_Tornado_Bullet_Gap": {
    "$type": "PAAKDFFLFIN",
    "combat": {
      "property": {
        "useCreatorProperty": true,
        "hp": 999999.0,
        "attack": 10.0,
        "defense": 999999.0,
        "isInvincible": true,
        "isGhostToAllied": true,
        "isGhostToEnemy": true
      },
      "beHit": {
        "hitBloodEffect": "",
        "muteAllHit": true,
        "muteAllHitEffect": true,
        "muteAllHitText": true
      },
      "combatLock": {
        "lockShape": "CircleLockEnemy",
        "denyLockOn": true,
        "lockType": "Default"
      }
    },
    "combatTemplate": "",
    "abilities": [
      {
        "abilityID": "",
        "abilityName": "LaSignora_Harbinger_Tornado_Bullet_Gap",
        "abilityOverride": ""
      },
      {
        "abilityID": "",
        "abilityName": "LaSignora_Harbinger_Tornado_Bullet_Gap_Damage",
        "abilityOverride": ""
      }
    ],
    "timer": {
      "lifeTime": 2.0
    },
    "move": {
      "$type": "AHGMNDFKPGD",
      "velocityForce": {
        "muteAll": true
      },
      "speed": 12.0,
      "LADLDOGAMLI": {
        "$type": "GLPIGCIKICP"
      }
    },
    "gadget": {
      "$type": "INBEOAJKHGD",
      "collision": {
        "triggerType": "TriggerAlways",
        "triggerCD": 1.0,
        "targetType": "Enemy",
        "ignoreScene": true
      },
      "triggerActions": [
        {
          "$type": "HEAANEHEBIK",
          "abilityName": "LaSignora_Harbinger_Tornado_Bullet_Gap_Damage"
        }
      ],
      "triggerLifeOverActions": [
        {
          "$type": "HEAANEHEBIK",
          "abilityName": "LaSignora_Harbinger_Tornado_Bullet_Gap"
        }
      ]
    }
  },
  "LaSignora_Harbinger_Tornado_Bullet_Stay": {
    "$type": "PAAKDFFLFIN",
    "combat": {
      "property": {
        "useCreatorProperty": true,
        "hp": 999999.0,
        "attack": 10.0,
        "defense": 999999.0,
        "isInvincible": true,
        "isGhostToAllied": true,
        "isGhostToEnemy": true
      },
      "beHit": {
        "hitBloodEffect": "",
        "muteAllHit": true,
        "muteAllHitEffect": true,
        "muteAllHitText": true
      },
      "combatLock": {
        "lockShape": "CircleLockEnemy",
        "denyLockOn": true,
        "lockType": "Default"
      }
    },
    "combatTemplate": "",
    "abilities": [
      {
        "abilityID": "",
        "abilityName": "LaSignora_Harbinger_Tornado_Bullet_Stay",
        "abilityOverride": ""
      },
      {
        "abilityID": "",
        "abilityName": "LaSignora_Harbinger_Tornado_Bullet_Stay_Damage",
        "abilityOverride": ""
      }
    ],
    "timer": {
      "lifeTime": 12.0
    },
    "move": {
      "$type": "KOFAJKIPDEA",
      "velocityForce": {
        "muteAll": true
      },
      "speed": 7.0,
      "delay": 0.25,
      "radius": 7.0,
      "destroyWhenTargetDie": true,
      "reboundInterval": 0.20000000298023224,
      "outOfRangeFixCD": 0.5
    },
    "gadget": {
      "$type": "INBEOAJKHGD",
      "collision": {
        "triggerType": "TriggerAlways",
        "triggerCD": 1.0,
        "targetType": "Enemy",
        "ignoreScene": true
      },
      "triggerActions": [
        {
          "$type": "HEAANEHEBIK",
          "abilityName": "LaSignora_Harbinger_Tornado_Bullet_Stay_Damage"
        }
      ],
      "triggerLifeOverActions": [
        {
          "$type": "HEAANEHEBIK",
          "abilityName": "LaSignora_Harbinger_Tornado_Bullet_Stay"
        }
      ]
    }
  },
  "LaSignora_Harbinger_Tornado_BulletAnchor_Stay": {
    "$type": "PAAKDFFLFIN",
    "combat": {
      "property": {
        "isInvincible": true,
        "isGhostToAllied": true,
        "isGhostToEnemy": true,
        "canTriggerBullet": false
      },
      "beHit": {
        "hitBloodEffect": "",
        "muteAllHit": true,
        "muteAllHitEffect": true,
        "muteAllHitText": true
      },
      "combatLock": {
        "lockShape": "CircleLockEnemy",
        "denyLockOn": true,
        "lockType": "Default"
      }
    },
    "combatTemplate": "",
    "abilities": [
      {
        "abilityID": "",
        "abilityName": "LaSignora_Harbinger_Tornado_BulletAnchor_Stay",
        "abilityOverride": ""
      }
    ],
    "timer": {
      "lifeTime": 15.0
    }
  }
}