{
  "SceneObj_Gear_TowerDefence_HeadControl": {
    "$type": "IOHCOOOBCPH",
    "common": {
      "disableTickDistance": 100001.0
    },
    "model": {
      "bornEffect": "",
      "attachEffect": "Eff_SceneObj_TowerPhysics_01_Idle"
    },
    "globalValue": {
      "serverGlobalValues": [
        "SGV_TDCanDoAttack",
        "SGV_TDLevel",
        "SGV_TDUpGrade_Special",
        "SGV_TDAttackDamage_A",
        "SGV_TDAttackSpeed_A",
        "SGV_TDAttackRange_A",
        "SGV_TDAttackRange_B",
        "SGV_TDAttackDamage_B",
        "SGV_TDAttackSpeed_B",
        "SGV_TDElementMastery",
        "SGV_TDAttackSpeed_C"
      ]
    },
    "KNGBEDDABOM": true,
    "combat": {
      "property": {
        "useAbilityProperty": true,
        "HP": 99999.0,
        "attack": 300.0,
        "weight": 50.0,
        "isLockHP": true,
        "denyElementStick": true
      },
      "beHit": {
        "hitBloodEffect": "",
        "hitAutoRedirect": false,
        "muteAllHitText": true
      },
      "combatLock": {
        "lockShape": "CircleLockEnemy",
        "denyLockOn": true,
        "lockType": "Gadget_Lv1"
      },
      "die": {
        "dieForceDisappearTime": 3.0,
        "dieDisappearEffect": ""
      }
    },
    "attackAttenuation": "",
    "abilities": [
      {
        "abilityID": "SceneObj_Gear_TowerDefence_HeadControl",
        "abilityName": "SceneObj_Gear_TowerDefence_HeadControl",
        "abilityOverride": ""
      }
    ],
    "move": {
      "$type": "AOAMMBMNHEH"
    },
    "stateLayers": {
      "defaultLayer": {
        "$type": "KFHJINNNDPN",
        "BOPIBFKFKCA": "",
        "stateIDs": {
          "Shoot": {
            "$type": "ILLKEGMDAEF",
            "HKPCLGHBKFD": {
              "Shoot": []
            }
          },
          "Charge": {
            "$type": "ILLKEGMDAEF",
            "HKPCLGHBKFD": {
              "Charge": []
            }
          }
        }
      }
    },
    "partControl": {
      "parts": [
        {
          "$type": "PMGKKACOLIC",
          "angularSpeed": 180.0,
          "BGKPNLALNPD": "ShootControl",
          "AJBEMCBABJF": "",
          "GPAPEPNEEMC": 360.0,
          "OGNBJMIOCPO": 360.0
        },
        {
          "$type": "PMGKKACOLIC",
          "angularSpeed": 180.0,
          "BGKPNLALNPD": "DirControl",
          "AJBEMCBABJF": "",
          "GPAPEPNEEMC": 360.0,
          "OGNBJMIOCPO": 20.0
        }
      ]
    }
  },
  "SceneObj_Gear_TowerDefence_Wind": {
    "$type": "IOHCOOOBCPH",
    "common": {
      "disableTickDistance": 100001.0
    },
    "globalValue": {
      "serverGlobalValues": [
        "SGV_TDCanDoAttack",
        "SGV_TDLevel",
        "SGV_TDUpGrade_Special",
        "SGV_TDAttackDamage_A",
        "SGV_TDAttackSpeed_A",
        "SGV_TDAttackRange_A",
        "SGV_TDAttackRange_B",
        "SGV_TDAttackDamage_B",
        "SGV_TDAttackSpeed_B",
        "SGV_TDElementMastery",
        "SGV_TDAttackSpeed_C"
      ]
    },
    "KNGBEDDABOM": true,
    "combat": {
      "property": {
        "useAbilityProperty": true,
        "HP": 99999.0,
        "attack": 300.0,
        "weight": 50.0,
        "isLockHP": true,
        "denyElementStick": true,
        "JPJIIBGCMJD": true
      },
      "beHit": {
        "hitBloodEffect": "",
        "hitAutoRedirect": false,
        "muteAllHitText": true
      },
      "combatLock": {
        "lockShape": "CircleLockEnemy",
        "denyLockOn": true,
        "lockType": "Gadget_Lv1"
      },
      "die": {
        "dieForceDisappearTime": 3.0,
        "dieDisappearEffect": ""
      }
    },
    "attackAttenuation": "",
    "abilities": [
      {
        "abilityID": "SceneObj_Gear_TowerDefence_Wind",
        "abilityName": "SceneObj_Gear_TowerDefence_Wind",
        "abilityOverride": ""
      }
    ],
    "move": {
      "$type": "AOAMMBMNHEH"
    },
    "stateLayers": {
      "defaultLayer": {
        "$type": "KFHJINNNDPN",
        "BOPIBFKFKCA": "",
        "stateIDs": {
          "Shoot": {
            "$type": "ILLKEGMDAEF",
            "HKPCLGHBKFD": {
              "Shoot": []
            }
          },
          "Charge": {
            "$type": "ILLKEGMDAEF",
            "HKPCLGHBKFD": {
              "Charge": []
            }
          }
        }
      }
    }
  },
  "SceneObj_Gear_TowerDefence_Electric": {
    "$type": "IOHCOOOBCPH",
    "common": {
      "disableTickDistance": 100001.0
    },
    "globalValue": {
      "serverGlobalValues": [
        "SGV_TDCanDoAttack",
        "SGV_TDLevel",
        "SGV_TDUpGrade_Special",
        "SGV_TDAttackDamage_A",
        "SGV_TDAttackSpeed_A",
        "SGV_TDAttackRange_A",
        "SGV_TDAttackRange_B",
        "SGV_TDAttackDamage_B",
        "SGV_TDAttackSpeed_B",
        "SGV_TDElementMastery",
        "SGV_TDAttackSpeed_C"
      ]
    },
    "KNGBEDDABOM": true,
    "combat": {
      "property": {
        "useAbilityProperty": true,
        "HP": 99999.0,
        "attack": 200.0,
        "weight": 50.0,
        "isLockHP": true,
        "denyElementStick": true,
        "JPJIIBGCMJD": true
      },
      "beHit": {
        "hitBloodEffect": "",
        "hitAutoRedirect": false,
        "muteAllHitText": true
      },
      "combatLock": {
        "lockShape": "CircleLockEnemy",
        "denyLockOn": true,
        "lockType": "Gadget_Lv1"
      },
      "die": {
        "dieForceDisappearTime": 3.0,
        "dieDisappearEffect": ""
      }
    },
    "attackAttenuation": "",
    "abilities": [
      {
        "abilityID": "SceneObj_Gear_TowerDefence_Electric",
        "abilityName": "SceneObj_Gear_TowerDefence_Electric",
        "abilityOverride": ""
      }
    ],
    "move": {
      "$type": "AOAMMBMNHEH"
    },
    "stateLayers": {
      "defaultLayer": {
        "$type": "KFHJINNNDPN",
        "BOPIBFKFKCA": "",
        "stateIDs": {
          "Shoot": {
            "$type": "ILLKEGMDAEF",
            "HKPCLGHBKFD": {
              "Shoot": []
            }
          }
        }
      }
    }
  },
  "SceneObj_Gear_TowerDefence_Fire": {
    "$type": "IOHCOOOBCPH",
    "common": {
      "disableTickDistance": 100001.0
    },
    "globalValue": {
      "serverGlobalValues": [
        "SGV_TDCanDoAttack",
        "SGV_TDLevel",
        "SGV_TDUpGrade_Special",
        "SGV_TDAttackDamage_A",
        "SGV_TDAttackSpeed_A",
        "SGV_TDAttackRange_A",
        "SGV_TDAttackRange_B",
        "SGV_TDAttackDamage_B",
        "SGV_TDAttackSpeed_B",
        "SGV_TDElementMastery",
        "SGV_TDAttackSpeed_C"
      ]
    },
    "KNGBEDDABOM": true,
    "combat": {
      "property": {
        "useAbilityProperty": true,
        "HP": 99999.0,
        "attack": 500.0,
        "weight": 50.0,
        "isLockHP": true,
        "denyElementStick": true,
        "JPJIIBGCMJD": true
      },
      "beHit": {
        "hitBloodEffect": "",
        "hitAutoRedirect": false,
        "muteAllHitText": true
      },
      "combatLock": {
        "lockShape": "CircleLockEnemy",
        "denyLockOn": true,
        "lockType": "Gadget_Lv1"
      },
      "die": {
        "dieForceDisappearTime": 3.0,
        "dieDisappearEffect": ""
      }
    },
    "attackAttenuation": "",
    "abilities": [
      {
        "abilityID": "SceneObj_Gear_TowerDefence_Fire",
        "abilityName": "SceneObj_Gear_TowerDefence_Fire",
        "abilityOverride": ""
      }
    ],
    "move": {
      "$type": "AOAMMBMNHEH"
    },
    "stateLayers": {
      "defaultLayer": {
        "$type": "KFHJINNNDPN",
        "BOPIBFKFKCA": "",
        "stateIDs": {
          "Shoot": {
            "$type": "ILLKEGMDAEF",
            "HKPCLGHBKFD": {
              "Shoot": []
            }
          }
        }
      }
    }
  },
  "SceneObj_Gear_TowerDefence_Ice": {
    "$type": "IOHCOOOBCPH",
    "common": {
      "disableTickDistance": 100001.0
    },
    "globalValue": {
      "serverGlobalValues": [
        "SGV_TDCanDoAttack",
        "SGV_TDLevel",
        "SGV_TDUpGrade_Special",
        "SGV_TDAttackDamage_A",
        "SGV_TDAttackSpeed_A",
        "SGV_TDAttackRange_A",
        "SGV_TDAttackRange_B",
        "SGV_TDAttackDamage_B",
        "SGV_TDAttackSpeed_B",
        "SGV_TDElementMastery",
        "SGV_TDAttackSpeed_C"
      ]
    },
    "KNGBEDDABOM": true,
    "combat": {
      "property": {
        "useAbilityProperty": true,
        "HP": 99999.0,
        "attack": 100.0,
        "weight": 50.0,
        "isLockHP": true,
        "denyElementStick": true,
        "JPJIIBGCMJD": true
      },
      "beHit": {
        "hitBloodEffect": "",
        "hitAutoRedirect": false,
        "muteAllHitText": true
      },
      "combatLock": {
        "lockShape": "CircleLockEnemy",
        "denyLockOn": true,
        "lockType": "Gadget_Lv1"
      },
      "die": {
        "dieForceDisappearTime": 3.0,
        "dieDisappearEffect": ""
      }
    },
    "attackAttenuation": "",
    "abilities": [
      {
        "abilityID": "SceneObj_Gear_TowerDefence_Ice",
        "abilityName": "SceneObj_Gear_TowerDefence_Ice",
        "abilityOverride": ""
      }
    ],
    "move": {
      "$type": "AOAMMBMNHEH"
    },
    "stateLayers": {
      "defaultLayer": {
        "$type": "KFHJINNNDPN",
        "BOPIBFKFKCA": "",
        "stateIDs": {
          "Shoot": {
            "$type": "ILLKEGMDAEF",
            "HKPCLGHBKFD": {
              "Shoot": []
            }
          }
        }
      }
    }
  },
  "SceneObj_Gear_TowerDefence_Water": {
    "$type": "IOHCOOOBCPH",
    "common": {
      "disableTickDistance": 100001.0
    },
    "globalValue": {
      "serverGlobalValues": [
        "SGV_TDCanDoAttack",
        "SGV_TDLevel",
        "SGV_TDUpGrade_Special",
        "SGV_TDAttackDamage_A",
        "SGV_TDAttackSpeed_A",
        "SGV_TDAttackRange_A",
        "SGV_TDAttackRange_B",
        "SGV_TDAttackDamage_B",
        "SGV_TDAttackSpeed_B",
        "SGV_TDElementMastery",
        "SGV_TDAttackSpeed_C"
      ]
    },
    "KNGBEDDABOM": true,
    "combat": {
      "property": {
        "useAbilityProperty": true,
        "HP": 99999.0,
        "attack": 250.0,
        "weight": 50.0,
        "isLockHP": true,
        "denyElementStick": true,
        "JPJIIBGCMJD": true
      },
      "beHit": {
        "hitBloodEffect": "",
        "hitAutoRedirect": false,
        "muteAllHitText": true
      },
      "combatLock": {
        "lockShape": "CircleLockEnemy",
        "denyLockOn": true,
        "lockType": "Gadget_Lv1"
      },
      "die": {
        "dieForceDisappearTime": 3.0,
        "dieDisappearEffect": ""
      }
    },
    "attackAttenuation": "",
    "abilities": [
      {
        "abilityID": "SceneObj_Gear_TowerDefence_Water",
        "abilityName": "SceneObj_Gear_TowerDefence_Water",
        "abilityOverride": ""
      }
    ],
    "move": {
      "$type": "AOAMMBMNHEH"
    },
    "stateLayers": {
      "defaultLayer": {
        "$type": "KFHJINNNDPN",
        "BOPIBFKFKCA": "",
        "stateIDs": {
          "Shoot": {
            "$type": "ILLKEGMDAEF",
            "HKPCLGHBKFD": {
              "Shoot": []
            }
          }
        }
      }
    }
  },
  "SceneObj_Gear_TowerDefence_HeadControlBullet": {
    "$type": "IOHCOOOBCPH",
    "combat": {
      "property": {
        "useCreatorProperty": true,
        "useAbilityProperty": true,
        "HP": 99999.0,
        "attack": 400.0,
        "defense": 99999.0,
        "weight": 1.0,
        "ignorePurgeRate": false
      },
      "beHit": {
        "hitBloodEffect": "",
        "GKIOKIDJLCA": true,
        "JEPGCKHKDDD": true,
        "muteAllHitText": true
      },
      "combatLock": {
        "lockShape": "CircleLockEnemy",
        "denyLockOn": true,
        "lockType": "Gadget_Lv1"
      }
    },
    "attackAttenuation": "",
    "abilities": [
      {
        "abilityID": "SceneObj_Gear_TowerDefence_HeadControlBullet",
        "abilityName": "SceneObj_Gear_TowerDefence_HeadControlBullet",
        "abilityOverride": ""
      }
    ],
    "BDPGABAMMPP": {
      "lifeTime": 5.0
    },
    "move": {
      "$type": "CJBKMBOOPHF",
      "NOFDPFHMFNM": 30.0,
      "BLECDCEAOFM": {
        "$type": "HMFDMPDLMCJ"
      }
    },
    "MNNPNOAELLI": {
      "$type": "AFPECAAHDNC",
      "collision": {
        "targetType": "Enemy"
      },
      "HDABNDJLLCO": [
        {
          "$type": "HLFEAMOONEP",
          "abilityName": "SceneObj_Gear_TowerDefence_HeadControlBullet"
        }
      ]
    }
  },
  "SceneObj_Gear_TowerDefence_HeadControlBullet_LV2": {
    "$type": "IOHCOOOBCPH",
    "combat": {
      "property": {
        "useCreatorProperty": true,
        "useAbilityProperty": true,
        "HP": 99999.0,
        "attack": 400.0,
        "defense": 99999.0,
        "weight": 1.0,
        "ignorePurgeRate": false
      },
      "beHit": {
        "hitBloodEffect": "",
        "GKIOKIDJLCA": true,
        "JEPGCKHKDDD": true,
        "muteAllHitText": true
      },
      "combatLock": {
        "lockShape": "CircleLockEnemy",
        "denyLockOn": true,
        "lockType": "Gadget_Lv1"
      }
    },
    "attackAttenuation": "",
    "abilities": [
      {
        "abilityID": "SceneObj_Gear_TowerDefence_HeadControlBullet_LV2",
        "abilityName": "SceneObj_Gear_TowerDefence_HeadControlBullet_LV2",
        "abilityOverride": ""
      }
    ],
    "BDPGABAMMPP": {
      "lifeTime": 5.0
    },
    "move": {
      "$type": "CJBKMBOOPHF",
      "NOFDPFHMFNM": 30.0,
      "BLECDCEAOFM": {
        "$type": "HMFDMPDLMCJ"
      }
    },
    "MNNPNOAELLI": {
      "$type": "AFPECAAHDNC",
      "collision": {
        "targetType": "Enemy"
      },
      "HDABNDJLLCO": [
        {
          "$type": "HLFEAMOONEP",
          "abilityName": "SceneObj_Gear_TowerDefence_HeadControlBullet_LV2"
        }
      ]
    }
  },
  "SceneObj_Gear_TowerDefence_HeadControlBullet_LV3": {
    "$type": "IOHCOOOBCPH",
    "combat": {
      "property": {
        "useCreatorProperty": true,
        "useAbilityProperty": true,
        "HP": 99999.0,
        "attack": 400.0,
        "defense": 99999.0,
        "weight": 1.0,
        "ignorePurgeRate": false
      },
      "beHit": {
        "hitBloodEffect": "",
        "GKIOKIDJLCA": true,
        "JEPGCKHKDDD": true,
        "muteAllHitText": true
      },
      "combatLock": {
        "lockShape": "CircleLockEnemy",
        "denyLockOn": true,
        "lockType": "Gadget_Lv1"
      }
    },
    "attackAttenuation": "",
    "abilities": [
      {
        "abilityID": "SceneObj_Gear_TowerDefence_HeadControlBullet_LV2",
        "abilityName": "SceneObj_Gear_TowerDefence_HeadControlBullet_LV2",
        "abilityOverride": ""
      }
    ],
    "BDPGABAMMPP": {
      "lifeTime": 5.0
    },
    "move": {
      "$type": "EHIGOGOLKOO",
      "NOFDPFHMFNM": 20.0,
      "maxSpeed": 30.0,
      "minSpeed": 20.0,
      "NDLHJKADBGC": 200.0,
      "EILJBCHMAIH": 25.0,
      "CAMKOAKMJHD": 0.20000000298023224,
      "HFFPPCEMOGJ": true
    },
    "MNNPNOAELLI": {
      "$type": "AFPECAAHDNC",
      "collision": {
        "targetType": "Enemy"
      },
      "HDABNDJLLCO": [
        {
          "$type": "HLFEAMOONEP",
          "abilityName": "SceneObj_Gear_TowerDefence_HeadControlBullet_LV2"
        }
      ]
    }
  },
  "SceneObj_Gear_TowerDefence_FireBullet": {
    "$type": "IOHCOOOBCPH",
    "common": {
      "disableTickDistance": 10000.0
    },
    "model": {
      "bornEffect": "Eff_SceneObj_TowerFire_01_Fire",
      "attachEffect": ""
    },
    "KNGBEDDABOM": true,
    "combat": {
      "property": {
        "useCreatorProperty": true,
        "HP": 99999.0,
        "attack": 400.0,
        "defense": 99999.0,
        "weight": 1.0,
        "ignorePurgeRate": false
      },
      "beHit": {
        "hitBloodEffect": "",
        "GKIOKIDJLCA": true,
        "JEPGCKHKDDD": true,
        "muteAllHitText": true
      },
      "combatLock": {
        "lockShape": "CircleLockEnemy",
        "denyLockOn": true,
        "lockType": "Gadget_Lv1"
      }
    },
    "attackAttenuation": "",
    "abilities": [
      {
        "abilityID": "SceneObj_Gear_TowerDefence_FireBullet",
        "abilityName": "SceneObj_Gear_TowerDefence_FireBullet",
        "abilityOverride": ""
      }
    ],
    "BDPGABAMMPP": {
      "lifeTime": 5.0
    },
    "move": {
      "$type": "LIEFJMKKLOF",
      "NOFDPFHMFNM": 35.0,
      "BLECDCEAOFM": {
        "$type": "CLEMPDDFPIP",
        "BECECFANBMC": {
          "x": -900.0
        }
      },
      "HBECHHMLGEP": 15.0,
      "EPLFGAAFNIM": 10.0,
      "HDBDFEKENOD": {
        "$type": "CDOBEEBHCCO",
        "GACCDPNMLNP": 0.5,
        "DNOPAINEKPG": 15.0,
        "minSpeed": 5.0,
        "maxSpeed": 20.0
      }
    },
    "MNNPNOAELLI": {
      "$type": "AFPECAAHDNC",
      "collision": {
        "targetType": "Enemy"
      },
      "HDABNDJLLCO": [
        {
          "$type": "HLFEAMOONEP",
          "abilityName": "SceneObj_Gear_TowerDefence_FireBullet"
        }
      ],
      "MHOEMLCBJOO": [
        {
          "$type": "HLFEAMOONEP",
          "abilityName": "SceneObj_Gear_TowerDefence_FireBullet"
        }
      ]
    }
  },
  "SceneObj_Gear_TowerDefence_FireBullet_LV2": {
    "$type": "IOHCOOOBCPH",
    "common": {
      "disableTickDistance": 10000.0
    },
    "model": {
      "bornEffect": "Eff_SceneObj_TowerFire_01_Fire",
      "attachEffect": ""
    },
    "KNGBEDDABOM": true,
    "combat": {
      "property": {
        "useCreatorProperty": true,
        "HP": 99999.0,
        "attack": 400.0,
        "defense": 99999.0,
        "weight": 1.0,
        "ignorePurgeRate": false
      },
      "beHit": {
        "hitBloodEffect": "",
        "GKIOKIDJLCA": true,
        "JEPGCKHKDDD": true,
        "muteAllHitText": true
      },
      "combatLock": {
        "lockShape": "CircleLockEnemy",
        "denyLockOn": true,
        "lockType": "Gadget_Lv1"
      }
    },
    "attackAttenuation": "",
    "abilities": [
      {
        "abilityID": "SceneObj_Gear_TowerDefence_FireBullet_LV2",
        "abilityName": "SceneObj_Gear_TowerDefence_FireBullet_LV2",
        "abilityOverride": ""
      }
    ],
    "BDPGABAMMPP": {
      "lifeTime": 5.0
    },
    "move": {
      "$type": "LIEFJMKKLOF",
      "NOFDPFHMFNM": 35.0,
      "BLECDCEAOFM": {
        "$type": "CLEMPDDFPIP",
        "BECECFANBMC": {
          "x": -900.0
        }
      },
      "HBECHHMLGEP": 15.0,
      "EPLFGAAFNIM": 10.0,
      "HDBDFEKENOD": {
        "$type": "CDOBEEBHCCO",
        "GACCDPNMLNP": 0.5,
        "DNOPAINEKPG": 15.0,
        "minSpeed": 5.0,
        "maxSpeed": 20.0
      }
    },
    "MNNPNOAELLI": {
      "$type": "AFPECAAHDNC",
      "collision": {
        "targetType": "Enemy"
      },
      "HDABNDJLLCO": [
        {
          "$type": "HLFEAMOONEP",
          "abilityName": "SceneObj_Gear_TowerDefence_FireBullet_LV2"
        }
      ],
      "MHOEMLCBJOO": [
        {
          "$type": "HLFEAMOONEP",
          "abilityName": "SceneObj_Gear_TowerDefence_FireBullet_LV2"
        }
      ]
    }
  },
  "SceneObj_Gear_TowerDefence_FireBullet_LV3": {
    "$type": "IOHCOOOBCPH",
    "common": {
      "disableTickDistance": 10000.0
    },
    "model": {
      "bornEffect": "Eff_SceneObj_TowerFire_01_Fire",
      "attachEffect": ""
    },
    "KNGBEDDABOM": true,
    "combat": {
      "property": {
        "useCreatorProperty": true,
        "HP": 99999.0,
        "attack": 400.0,
        "defense": 99999.0,
        "weight": 1.0,
        "ignorePurgeRate": false
      },
      "beHit": {
        "hitBloodEffect": "",
        "GKIOKIDJLCA": true,
        "JEPGCKHKDDD": true,
        "muteAllHitText": true
      },
      "combatLock": {
        "lockShape": "CircleLockEnemy",
        "denyLockOn": true,
        "lockType": "Gadget_Lv1"
      }
    },
    "attackAttenuation": "",
    "abilities": [
      {
        "abilityID": "SceneObj_Gear_TowerDefence_FireBullet_LV3",
        "abilityName": "SceneObj_Gear_TowerDefence_FireBullet_LV3",
        "abilityOverride": ""
      }
    ],
    "BDPGABAMMPP": {
      "lifeTime": 5.0
    },
    "move": {
      "$type": "LIEFJMKKLOF",
      "NOFDPFHMFNM": 35.0,
      "BLECDCEAOFM": {
        "$type": "CLEMPDDFPIP",
        "BECECFANBMC": {
          "x": -900.0
        }
      },
      "HBECHHMLGEP": 15.0,
      "EPLFGAAFNIM": 10.0,
      "HDBDFEKENOD": {
        "$type": "CDOBEEBHCCO",
        "GACCDPNMLNP": 0.5,
        "DNOPAINEKPG": 15.0,
        "minSpeed": 5.0,
        "maxSpeed": 20.0
      }
    },
    "MNNPNOAELLI": {
      "$type": "AFPECAAHDNC",
      "collision": {
        "targetType": "Enemy"
      },
      "HDABNDJLLCO": [
        {
          "$type": "HLFEAMOONEP",
          "abilityName": "SceneObj_Gear_TowerDefence_FireBullet_LV3"
        }
      ],
      "MHOEMLCBJOO": [
        {
          "$type": "HLFEAMOONEP",
          "abilityName": "SceneObj_Gear_TowerDefence_FireBullet_LV3"
        }
      ]
    }
  },
  "SceneObj_Gear_TowerDefence_Fire_LV3_FireFloor": {
    "$type": "IOHCOOOBCPH",
    "common": {
      "disableTickDistance": 100001.0
    },
    "KNGBEDDABOM": true,
    "combat": {
      "property": {
        "useCreatorProperty": true,
        "useAbilityProperty": true,
        "HP": 99999.0,
        "attack": 200.0,
        "weight": 50.0,
        "isLockHP": true,
        "denyElementStick": true,
        "JPJIIBGCMJD": true
      },
      "beHit": {
        "hitBloodEffect": "",
        "hitAutoRedirect": false,
        "muteAllHitText": true
      },
      "combatLock": {
        "lockShape": "CircleLockEnemy",
        "denyLockOn": true,
        "lockType": "Gadget_Lv1"
      },
      "die": {
        "dieForceDisappearTime": 3.0,
        "dieDisappearEffect": ""
      }
    },
    "attackAttenuation": "",
    "abilities": [
      {
        "abilityID": "SceneObj_Gear_TowerDefence_Fire_LV3_FireFloor",
        "abilityName": "SceneObj_Gear_TowerDefence_Fire_LV3_FireFloor",
        "abilityOverride": ""
      }
    ]
  },
  "SceneObj_Gear_TowerDefence_IceBullet": {
    "$type": "IOHCOOOBCPH",
    "common": {
      "disableTickDistance": 10000.0
    },
    "model": {
      "bornEffect": "Eff_SceneObj_TowerIce_01_Fire",
      "attachEffect": ""
    },
    "KNGBEDDABOM": true,
    "combat": {
      "property": {
        "useCreatorProperty": true,
        "HP": 99999.0,
        "attack": 150.0,
        "defense": 99999.0,
        "weight": 1.0,
        "ignorePurgeRate": false
      },
      "beHit": {
        "hitBloodEffect": "",
        "GKIOKIDJLCA": true,
        "JEPGCKHKDDD": true,
        "muteAllHitText": true
      },
      "combatLock": {
        "lockShape": "CircleLockEnemy",
        "denyLockOn": true,
        "lockType": "Gadget_Lv1"
      }
    },
    "attackAttenuation": "",
    "abilities": [
      {
        "abilityID": "SceneObj_Gear_TowerDefence_IceBullet",
        "abilityName": "SceneObj_Gear_TowerDefence_IceBullet",
        "abilityOverride": ""
      }
    ],
    "BDPGABAMMPP": {
      "lifeTime": 5.0
    },
    "move": {
      "$type": "CJBKMBOOPHF",
      "NOFDPFHMFNM": 30.0
    },
    "MNNPNOAELLI": {
      "$type": "AFPECAAHDNC",
      "collision": {
        "targetType": "Enemy"
      },
      "HDABNDJLLCO": [
        {
          "$type": "HLFEAMOONEP",
          "abilityName": "SceneObj_Gear_TowerDefence_IceBullet"
        }
      ],
      "MHOEMLCBJOO": [
        {
          "$type": "HLFEAMOONEP",
          "abilityName": "SceneObj_Gear_TowerDefence_IceBullet"
        }
      ]
    }
  },
  "SceneObj_Gear_TowerDefence_IceBullet_LV2": {
    "$type": "IOHCOOOBCPH",
    "common": {
      "disableTickDistance": 10000.0
    },
    "model": {
      "bornEffect": "Eff_SceneObj_TowerIce_01_Fire",
      "attachEffect": ""
    },
    "KNGBEDDABOM": true,
    "combat": {
      "property": {
        "useCreatorProperty": true,
        "HP": 99999.0,
        "attack": 150.0,
        "defense": 99999.0,
        "weight": 1.0,
        "ignorePurgeRate": false
      },
      "beHit": {
        "hitBloodEffect": "",
        "GKIOKIDJLCA": true,
        "JEPGCKHKDDD": true,
        "muteAllHitText": true
      },
      "combatLock": {
        "lockShape": "CircleLockEnemy",
        "denyLockOn": true,
        "lockType": "Gadget_Lv1"
      }
    },
    "attackAttenuation": "",
    "abilities": [
      {
        "abilityID": "SceneObj_Gear_TowerDefence_IceBullet_LV2",
        "abilityName": "SceneObj_Gear_TowerDefence_IceBullet_LV2",
        "abilityOverride": ""
      }
    ],
    "BDPGABAMMPP": {
      "lifeTime": 5.0
    },
    "move": {
      "$type": "CJBKMBOOPHF",
      "NOFDPFHMFNM": 30.0
    },
    "MNNPNOAELLI": {
      "$type": "AFPECAAHDNC",
      "collision": {
        "targetType": "Enemy"
      },
      "HDABNDJLLCO": [
        {
          "$type": "HLFEAMOONEP",
          "abilityName": "SceneObj_Gear_TowerDefence_IceBullet_LV2"
        }
      ],
      "MHOEMLCBJOO": [
        {
          "$type": "HLFEAMOONEP",
          "abilityName": "SceneObj_Gear_TowerDefence_IceBullet_LV2"
        }
      ]
    }
  },
  "SceneObj_Gear_TowerDefence_IceBullet_LV3": {
    "$type": "IOHCOOOBCPH",
    "common": {
      "disableTickDistance": 10000.0
    },
    "model": {
      "bornEffect": "Eff_SceneObj_TowerIce_01_Fire",
      "attachEffect": ""
    },
    "KNGBEDDABOM": true,
    "combat": {
      "property": {
        "useCreatorProperty": true,
        "HP": 99999.0,
        "attack": 150.0,
        "defense": 99999.0,
        "weight": 1.0,
        "ignorePurgeRate": false
      },
      "beHit": {
        "hitBloodEffect": "",
        "GKIOKIDJLCA": true,
        "JEPGCKHKDDD": true,
        "muteAllHitText": true
      },
      "combatLock": {
        "lockShape": "CircleLockEnemy",
        "denyLockOn": true,
        "lockType": "Gadget_Lv1"
      }
    },
    "attackAttenuation": "",
    "abilities": [
      {
        "abilityID": "SceneObj_Gear_TowerDefence_IceBullet_LV3",
        "abilityName": "SceneObj_Gear_TowerDefence_IceBullet_LV3",
        "abilityOverride": ""
      }
    ],
    "BDPGABAMMPP": {
      "lifeTime": 5.0
    },
    "move": {
      "$type": "CJBKMBOOPHF",
      "NOFDPFHMFNM": 30.0
    },
    "MNNPNOAELLI": {
      "$type": "AFPECAAHDNC",
      "collision": {
        "targetType": "Enemy"
      },
      "HDABNDJLLCO": [
        {
          "$type": "HLFEAMOONEP",
          "abilityName": "SceneObj_Gear_TowerDefence_IceBullet_LV3"
        }
      ],
      "MHOEMLCBJOO": [
        {
          "$type": "HLFEAMOONEP",
          "abilityName": "SceneObj_Gear_TowerDefence_IceBullet_LV3"
        }
      ]
    }
  },
  "SceneObj_Gear_TowerDefence_WaterBullet": {
    "$type": "IOHCOOOBCPH",
    "common": {
      "disableTickDistance": 10000.0
    },
    "combat": {
      "property": {
        "useCreatorProperty": true,
        "HP": 99999.0,
        "attack": 150.0,
        "defense": 99999.0,
        "weight": 1.0,
        "ignorePurgeRate": false
      },
      "beHit": {
        "hitBloodEffect": "",
        "GKIOKIDJLCA": true,
        "JEPGCKHKDDD": true,
        "muteAllHitText": true
      },
      "combatLock": {
        "lockShape": "CircleLockEnemy",
        "denyLockOn": true,
        "lockType": "Gadget_Lv1"
      }
    },
    "attackAttenuation": "",
    "abilities": [
      {
        "abilityID": "SceneObj_Gear_TowerDefence_WaterBullet",
        "abilityName": "SceneObj_Gear_TowerDefence_WaterBullet",
        "abilityOverride": ""
      }
    ],
    "BDPGABAMMPP": {
      "lifeTime": 1.0
    },
    "move": {
      "$type": "CJBKMBOOPHF",
      "NOFDPFHMFNM": 0.009999999776482582
    },
    "MNNPNOAELLI": {
      "$type": "AFPECAAHDNC",
      "collision": {
        "triggerType": "TriggerAlways",
        "targetType": "Enemy"
      }
    }
  },
  "SceneObj_Gear_TowerDefence_WaterBullet_LV2": {
    "$type": "IOHCOOOBCPH",
    "common": {
      "disableTickDistance": 10000.0
    },
    "combat": {
      "property": {
        "useCreatorProperty": true,
        "HP": 99999.0,
        "attack": 150.0,
        "defense": 99999.0,
        "weight": 1.0,
        "ignorePurgeRate": false
      },
      "beHit": {
        "hitBloodEffect": "",
        "GKIOKIDJLCA": true,
        "JEPGCKHKDDD": true,
        "muteAllHitText": true
      },
      "combatLock": {
        "lockShape": "CircleLockEnemy",
        "denyLockOn": true,
        "lockType": "Gadget_Lv1"
      }
    },
    "attackAttenuation": "",
    "abilities": [
      {
        "abilityID": "SceneObj_Gear_TowerDefence_WaterBullet_LV2",
        "abilityName": "SceneObj_Gear_TowerDefence_WaterBullet_LV2",
        "abilityOverride": ""
      }
    ],
    "BDPGABAMMPP": {
      "lifeTime": 1.0
    },
    "move": {
      "$type": "CJBKMBOOPHF",
      "NOFDPFHMFNM": 0.009999999776482582
    },
    "MNNPNOAELLI": {
      "$type": "AFPECAAHDNC",
      "collision": {
        "triggerType": "TriggerAlways",
        "targetType": "Enemy"
      }
    }
  },
  "SceneObj_Gear_TowerDefence_WaterBullet_LV3": {
    "$type": "IOHCOOOBCPH",
    "common": {
      "disableTickDistance": 10000.0
    },
    "combat": {
      "property": {
        "useCreatorProperty": true,
        "HP": 99999.0,
        "attack": 150.0,
        "defense": 99999.0,
        "weight": 1.0,
        "ignorePurgeRate": false
      },
      "beHit": {
        "hitBloodEffect": "",
        "GKIOKIDJLCA": true,
        "JEPGCKHKDDD": true,
        "muteAllHitText": true
      },
      "combatLock": {
        "lockShape": "CircleLockEnemy",
        "denyLockOn": true,
        "lockType": "Gadget_Lv1"
      }
    },
    "attackAttenuation": "",
    "abilities": [
      {
        "abilityID": "SceneObj_Gear_TowerDefence_WaterBullet_LV3",
        "abilityName": "SceneObj_Gear_TowerDefence_WaterBullet_LV3",
        "abilityOverride": ""
      }
    ],
    "BDPGABAMMPP": {
      "lifeTime": 1.0
    },
    "move": {
      "$type": "CJBKMBOOPHF",
      "NOFDPFHMFNM": 0.009999999776482582
    },
    "MNNPNOAELLI": {
      "$type": "AFPECAAHDNC",
      "collision": {
        "triggerType": "TriggerAlways",
        "targetType": "Enemy"
      }
    }
  },
  "SceneObj_Gear_TowerDefence_WindBullet": {
    "$type": "IOHCOOOBCPH",
    "common": {
      "disableTickDistance": 10000.0
    },
    "combat": {
      "property": {
        "useCreatorProperty": true,
        "HP": 99999.0,
        "attack": 150.0,
        "defense": 99999.0,
        "weight": 1.0,
        "ignorePurgeRate": false
      },
      "beHit": {
        "hitBloodEffect": "",
        "GKIOKIDJLCA": true,
        "JEPGCKHKDDD": true,
        "muteAllHitText": true
      },
      "combatLock": {
        "lockShape": "CircleLockEnemy",
        "denyLockOn": true,
        "lockType": "Gadget_Lv1"
      }
    },
    "attackAttenuation": "",
    "abilities": [
      {
        "abilityID": "SceneObj_Gear_TowerDefence_WindBullet",
        "abilityName": "SceneObj_Gear_TowerDefence_WindBullet",
        "abilityOverride": ""
      }
    ],
    "BDPGABAMMPP": {
      "lifeTime": 1.0
    },
    "move": {
      "$type": "CJBKMBOOPHF",
      "NOFDPFHMFNM": 0.009999999776482582
    },
    "MNNPNOAELLI": {
      "$type": "AFPECAAHDNC",
      "collision": {
        "triggerType": "TriggerAlways",
        "targetType": "Enemy"
      }
    }
  },
  "SceneObj_Gear_TowerDefence_ElectricBullet": {
    "$type": "IOHCOOOBCPH",
    "common": {
      "disableTickDistance": 10000.0
    },
    "combat": {
      "property": {
        "useCreatorProperty": true,
        "HP": 99999.0,
        "attack": 150.0,
        "defense": 99999.0,
        "weight": 1.0,
        "ignorePurgeRate": false
      },
      "beHit": {
        "hitBloodEffect": "",
        "GKIOKIDJLCA": true,
        "JEPGCKHKDDD": true,
        "muteAllHitText": true
      },
      "combatLock": {
        "lockShape": "CircleLockEnemy",
        "denyLockOn": true,
        "lockType": "Gadget_Lv1"
      }
    },
    "attackAttenuation": "",
    "abilities": [
      {
        "abilityID": "SceneObj_Gear_TowerDefence_ElectricBullet",
        "abilityName": "SceneObj_Gear_TowerDefence_ElectricBullet",
        "abilityOverride": ""
      }
    ],
    "BDPGABAMMPP": {
      "lifeTime": 1.0
    },
    "move": {
      "$type": "CJBKMBOOPHF",
      "NOFDPFHMFNM": 0.009999999776482582
    },
    "MNNPNOAELLI": {
      "$type": "AFPECAAHDNC",
      "collision": {
        "triggerType": "TriggerAlways",
        "targetType": "Enemy"
      }
    }
  },
  "SceneObj_Gear_TowerDefence_ElectricBullet_LV2": {
    "$type": "IOHCOOOBCPH",
    "common": {
      "disableTickDistance": 10000.0
    },
    "combat": {
      "property": {
        "useCreatorProperty": true,
        "HP": 99999.0,
        "attack": 150.0,
        "defense": 99999.0,
        "weight": 1.0,
        "ignorePurgeRate": false
      },
      "beHit": {
        "hitBloodEffect": "",
        "GKIOKIDJLCA": true,
        "JEPGCKHKDDD": true,
        "muteAllHitText": true
      },
      "combatLock": {
        "lockShape": "CircleLockEnemy",
        "denyLockOn": true,
        "lockType": "Gadget_Lv1"
      }
    },
    "attackAttenuation": "",
    "abilities": [
      {
        "abilityID": "SceneObj_Gear_TowerDefence_ElectricBullet_LV2",
        "abilityName": "SceneObj_Gear_TowerDefence_ElectricBullet_LV2",
        "abilityOverride": ""
      }
    ],
    "BDPGABAMMPP": {
      "lifeTime": 1.0
    },
    "move": {
      "$type": "CJBKMBOOPHF",
      "NOFDPFHMFNM": 0.009999999776482582
    },
    "MNNPNOAELLI": {
      "$type": "AFPECAAHDNC",
      "collision": {
        "triggerType": "TriggerAlways",
        "targetType": "Enemy"
      }
    }
  },
  "SceneObj_Gear_TowerDefence_Water_LV2": {
    "$type": "IOHCOOOBCPH",
    "common": {
      "disableTickDistance": 10000.0
    },
    "KNGBEDDABOM": true,
    "combat": {
      "property": {
        "useAbilityProperty": true,
        "HP": 99999.0,
        "attack": 300.0,
        "weight": 50.0,
        "isLockHP": true,
        "denyElementStick": true,
        "JPJIIBGCMJD": true
      },
      "beHit": {
        "hitBloodEffect": "",
        "hitAutoRedirect": false,
        "muteAllHitText": true
      },
      "combatLock": {
        "lockShape": "CircleLockEnemy",
        "denyLockOn": true,
        "lockType": "Gadget_Lv1"
      },
      "die": {
        "dieForceDisappearTime": 3.0,
        "dieDisappearEffect": ""
      }
    },
    "attackAttenuation": "",
    "abilities": [
      {
        "abilityID": "SceneObj_Gear_TowerDefence_Water_LV2",
        "abilityName": "SceneObj_Gear_TowerDefence_Water_LV2",
        "abilityOverride": ""
      }
    ],
    "stateLayers": {
      "defaultLayer": {
        "$type": "KFHJINNNDPN",
        "BOPIBFKFKCA": "",
        "stateIDs": {
          "Shoot": {
            "$type": "ILLKEGMDAEF",
            "HKPCLGHBKFD": {
              "Shoot": []
            }
          }
        }
      }
    },
    "aibeta": {
      "enable": true,
      "moveSetting": {
        "enable": false,
        "navMeshAgentName": "Undead01"
      }
    }
  },
  "SceneObj_Gear_TowerDefence_Water_LV3": {
    "$type": "IOHCOOOBCPH",
    "common": {
      "disableTickDistance": 10000.0
    },
    "KNGBEDDABOM": true,
    "combat": {
      "property": {
        "useAbilityProperty": true,
        "HP": 99999.0,
        "attack": 300.0,
        "weight": 50.0,
        "isLockHP": true,
        "denyElementStick": true,
        "JPJIIBGCMJD": true
      },
      "beHit": {
        "hitBloodEffect": "",
        "hitAutoRedirect": false,
        "muteAllHitText": true
      },
      "combatLock": {
        "lockShape": "CircleLockEnemy",
        "denyLockOn": true,
        "lockType": "Gadget_Lv1"
      },
      "die": {
        "dieForceDisappearTime": 3.0,
        "dieDisappearEffect": ""
      }
    },
    "attackAttenuation": "",
    "abilities": [
      {
        "abilityID": "SceneObj_Gear_TowerDefence_Water_LV3",
        "abilityName": "SceneObj_Gear_TowerDefence_Water_LV3",
        "abilityOverride": ""
      }
    ],
    "stateLayers": {
      "defaultLayer": {
        "$type": "KFHJINNNDPN",
        "BOPIBFKFKCA": "",
        "stateIDs": {
          "Shoot": {
            "$type": "ILLKEGMDAEF",
            "HKPCLGHBKFD": {
              "Shoot": []
            }
          }
        }
      }
    },
    "aibeta": {
      "enable": true,
      "moveSetting": {
        "enable": false,
        "navMeshAgentName": "Undead01"
      }
    }
  },
  "SceneObj_Gear_TowerDefence_Water_Blister": {
    "$type": "IOHCOOOBCPH",
    "common": {
      "disableTickDistance": 100000.0
    },
    "combat": {
      "property": {
        "useCreatorProperty": true,
        "HP": 99999.0,
        "attack": 200.0,
        "weight": 50.0,
        "isLockHP": true,
        "denyElementStick": true,
        "JPJIIBGCMJD": true
      },
      "beHit": {
        "hitBloodEffect": "",
        "hitAutoRedirect": false,
        "muteAllHitText": true
      },
      "combatLock": {
        "lockShape": "CircleLockEnemy",
        "denyLockOn": true,
        "lockType": "Gadget_Lv1"
      },
      "die": {
        "dieForceDisappearTime": 3.0,
        "dieDisappearEffect": ""
      }
    },
    "attackAttenuation": "",
    "abilities": [
      {
        "abilityID": "SceneObj_Gear_TowerDefence_Water_Blister",
        "abilityName": "SceneObj_Gear_TowerDefence_Water_Blister",
        "abilityOverride": ""
      }
    ],
    "BDPGABAMMPP": {
      "lifeTime": 3.0
    },
    "move": {
      "$type": "EHIGOGOLKOO",
      "NOFDPFHMFNM": 3.0,
      "NDLHJKADBGC": 720.0,
      "LOFPGDFOCLJ": true,
      "HFFPPCEMOGJ": true
    },
    "MNNPNOAELLI": {
      "$type": "AFPECAAHDNC",
      "collision": {
        "targetType": "Enemy",
        "ignoreScene": true
      },
      "HDABNDJLLCO": [
        {
          "$type": "HLFEAMOONEP",
          "abilityName": "SceneObj_Gear_TowerDefence_Water_Blister"
        }
      ]
    }
  },
  "SceneObj_Gear_TowerDefence_Water_Blister04": {
    "$type": "IOHCOOOBCPH",
    "common": {
      "disableTickDistance": 100000.0
    },
    "combat": {
      "property": {
        "useCreatorProperty": true,
        "HP": 99999.0,
        "attack": 200.0,
        "weight": 50.0,
        "isLockHP": true,
        "denyElementStick": true,
        "JPJIIBGCMJD": true
      },
      "beHit": {
        "hitBloodEffect": "",
        "hitAutoRedirect": false,
        "muteAllHitText": true
      },
      "combatLock": {
        "lockShape": "CircleLockEnemy",
        "denyLockOn": true,
        "lockType": "Gadget_Lv1"
      },
      "die": {
        "dieForceDisappearTime": 3.0,
        "dieDisappearEffect": ""
      }
    },
    "attackAttenuation": "",
    "abilities": [
      {
        "abilityID": "SceneObj_Gear_TowerDefence_Water_Blister04",
        "abilityName": "SceneObj_Gear_TowerDefence_Water_Blister04",
        "abilityOverride": ""
      }
    ],
    "field": {
      "shape": "CircleR2",
      "AGKCOGKCAGC": "",
      "triggerInfinite": true,
      "lifeInfinite": true,
      "checkInterval": 0.5,
      "overwriteCampType": true,
      "campType": "All",
      "PKBIFJFAJEK": "",
      "CJIOPEJJHDM": ""
    }
  },
  "SceneObj_Gear_TowerDefence_Water_Blister02": {
    "$type": "IOHCOOOBCPH",
    "common": {
      "disableTickDistance": 100000.0
    },
    "combat": {
      "property": {
        "useCreatorProperty": true,
        "HP": 99999.0,
        "attack": 200.0,
        "weight": 50.0,
        "isLockHP": true,
        "denyElementStick": true,
        "JPJIIBGCMJD": true
      },
      "beHit": {
        "hitBloodEffect": "",
        "hitAutoRedirect": false,
        "muteAllHitText": true
      },
      "combatLock": {
        "lockShape": "CircleLockEnemy",
        "denyLockOn": true,
        "lockType": "Gadget_Lv1"
      },
      "die": {
        "dieForceDisappearTime": 3.0,
        "dieDisappearEffect": ""
      }
    },
    "attackAttenuation": "",
    "abilities": [
      {
        "abilityID": "SceneObj_Gear_TowerDefence_Water_Blister02",
        "abilityName": "SceneObj_Gear_TowerDefence_Water_Blister02",
        "abilityOverride": ""
      }
    ],
    "field": {
      "shape": "CircleR2",
      "AGKCOGKCAGC": "",
      "triggerInfinite": true,
      "lifeInfinite": true,
      "checkInterval": 0.5,
      "overwriteCampType": true,
      "campType": "All",
      "PKBIFJFAJEK": "",
      "CJIOPEJJHDM": ""
    }
  },
  "SceneObj_Gear_TowerDefence_Water_Blister03": {
    "$type": "IOHCOOOBCPH",
    "common": {
      "disableTickDistance": 100000.0
    },
    "combat": {
      "property": {
        "useCreatorProperty": true,
        "HP": 99999.0,
        "attack": 200.0,
        "weight": 50.0,
        "isLockHP": true,
        "denyElementStick": true,
        "JPJIIBGCMJD": true
      },
      "beHit": {
        "hitBloodEffect": "",
        "hitAutoRedirect": false,
        "muteAllHitText": true
      },
      "combatLock": {
        "lockShape": "CircleLockEnemy",
        "denyLockOn": true,
        "lockType": "Gadget_Lv1"
      },
      "die": {
        "dieForceDisappearTime": 3.0,
        "dieDisappearEffect": ""
      }
    },
    "attackAttenuation": "",
    "abilities": [
      {
        "abilityID": "SceneObj_Gear_TowerDefence_Water_Blister03",
        "abilityName": "SceneObj_Gear_TowerDefence_Water_Blister03",
        "abilityOverride": ""
      }
    ],
    "field": {
      "shape": "CircleR2",
      "AGKCOGKCAGC": "",
      "triggerInfinite": true,
      "lifeInfinite": true,
      "checkInterval": 0.5,
      "overwriteCampType": true,
      "campType": "All",
      "PKBIFJFAJEK": "",
      "CJIOPEJJHDM": ""
    }
  },
  "SceneObj_Gear_TowerDefence_Ice_LV2": {
    "$type": "IOHCOOOBCPH",
    "common": {
      "disableTickDistance": 10000.0
    },
    "KNGBEDDABOM": true,
    "combat": {
      "property": {
        "useAbilityProperty": true,
        "HP": 99999.0,
        "attack": 150.0,
        "weight": 50.0,
        "isLockHP": true,
        "denyElementStick": true,
        "JPJIIBGCMJD": true
      },
      "beHit": {
        "hitBloodEffect": "",
        "hitAutoRedirect": false,
        "muteAllHitText": true
      },
      "combatLock": {
        "lockShape": "CircleLockEnemy",
        "denyLockOn": true,
        "lockType": "Gadget_Lv1"
      },
      "die": {
        "dieForceDisappearTime": 3.0,
        "dieDisappearEffect": ""
      }
    },
    "attackAttenuation": "",
    "abilities": [
      {
        "abilityID": "SceneObj_Gear_TowerDefence_Ice_LV2",
        "abilityName": "SceneObj_Gear_TowerDefence_Ice_LV2",
        "abilityOverride": ""
      }
    ],
    "stateLayers": {
      "defaultLayer": {
        "$type": "KFHJINNNDPN",
        "BOPIBFKFKCA": "",
        "stateIDs": {
          "Shoot": {
            "$type": "ILLKEGMDAEF",
            "HKPCLGHBKFD": {
              "Shoot": []
            }
          }
        }
      }
    },
    "aibeta": {
      "enable": true,
      "moveSetting": {
        "enable": false,
        "navMeshAgentName": "Undead01"
      }
    }
  },
  "SceneObj_Gear_TowerDefence_Ice_LV3": {
    "$type": "IOHCOOOBCPH",
    "common": {
      "disableTickDistance": 10000.0
    },
    "KNGBEDDABOM": true,
    "combat": {
      "property": {
        "useAbilityProperty": true,
        "HP": 99999.0,
        "attack": 150.0,
        "weight": 50.0,
        "isLockHP": true,
        "denyElementStick": true,
        "JPJIIBGCMJD": true
      },
      "beHit": {
        "hitBloodEffect": "",
        "hitAutoRedirect": false,
        "muteAllHitText": true
      },
      "combatLock": {
        "lockShape": "CircleLockEnemy",
        "denyLockOn": true,
        "lockType": "Gadget_Lv1"
      },
      "die": {
        "dieForceDisappearTime": 3.0,
        "dieDisappearEffect": ""
      }
    },
    "attackAttenuation": "",
    "abilities": [
      {
        "abilityID": "SceneObj_Gear_TowerDefence_Ice_LV3",
        "abilityName": "SceneObj_Gear_TowerDefence_Ice_LV3",
        "abilityOverride": ""
      }
    ],
    "stateLayers": {
      "defaultLayer": {
        "$type": "KFHJINNNDPN",
        "BOPIBFKFKCA": "",
        "stateIDs": {
          "Shoot": {
            "$type": "ILLKEGMDAEF",
            "HKPCLGHBKFD": {
              "Shoot": []
            }
          }
        }
      }
    },
    "aibeta": {
      "enable": true,
      "moveSetting": {
        "enable": false,
        "navMeshAgentName": "Undead01"
      }
    }
  },
  "SceneObj_Gear_TowerDefence_IceBullet_LV3_DropIce": {
    "$type": "IOHCOOOBCPH",
    "common": {
      "disableTickDistance": 10000.0
    },
    "combat": {
      "property": {
        "useCreatorProperty": true,
        "HP": 99999.0,
        "attack": 20.0,
        "weight": 50.0,
        "isLockHP": true
      },
      "beHit": {
        "hitBloodEffect": "",
        "GKIOKIDJLCA": true,
        "JEPGCKHKDDD": true,
        "muteAllHitText": true
      },
      "combatLock": {
        "lockShape": "CircleLockEnemy",
        "denyLockOn": true,
        "lockType": "Gadget_Lv1"
      },
      "die": {
        "dieEndTime": 0.009999999776482582,
        "dieDisappearEffect": ""
      }
    },
    "attackAttenuation": "",
    "abilities": [
      {
        "abilityID": "Ability_01",
        "abilityName": "SceneObj_Gear_TowerDefence_IceBullet_LV3_DropIce",
        "abilityOverride": ""
      }
    ],
    "BDPGABAMMPP": {
      "lifeTime": 3.0
    },
    "move": {
      "$type": "CJBKMBOOPHF",
      "NOFDPFHMFNM": 5.0,
      "EILJBCHMAIH": 10.0
    },
    "MNNPNOAELLI": {
      "$type": "AFPECAAHDNC",
      "collision": {
        "targetType": "Enemy"
      },
      "HDABNDJLLCO": [
        {
          "$type": "HLFEAMOONEP",
          "abilityName": "SceneObj_SnowMountain_DorpIceBullet"
        }
      ]
    }
  },
  "SceneObj_Gear_TowerDefence_Wind_LV2": {
    "$type": "IOHCOOOBCPH",
    "common": {
      "disableTickDistance": 10000.0
    },
    "KNGBEDDABOM": true,
    "combat": {
      "property": {
        "useAbilityProperty": true,
        "HP": 99999.0,
        "attack": 400.0,
        "weight": 50.0,
        "isLockHP": true,
        "denyElementStick": true,
        "JPJIIBGCMJD": true
      },
      "beHit": {
        "hitBloodEffect": "",
        "hitAutoRedirect": false,
        "muteAllHitText": true
      },
      "combatLock": {
        "lockShape": "CircleLockEnemy",
        "denyLockOn": true,
        "lockType": "Gadget_Lv1"
      },
      "die": {
        "dieForceDisappearTime": 3.0,
        "dieDisappearEffect": ""
      }
    },
    "attackAttenuation": "",
    "abilities": [
      {
        "abilityID": "SceneObj_Gear_TowerDefence_Wind_LV2",
        "abilityName": "SceneObj_Gear_TowerDefence_Wind_LV2",
        "abilityOverride": ""
      }
    ],
    "stateLayers": {
      "defaultLayer": {
        "$type": "KFHJINNNDPN",
        "BOPIBFKFKCA": "",
        "stateIDs": {
          "Shoot": {
            "$type": "ILLKEGMDAEF",
            "HKPCLGHBKFD": {
              "Shoot": []
            }
          },
          "Charge": {
            "$type": "ILLKEGMDAEF",
            "HKPCLGHBKFD": {
              "Charge": []
            }
          }
        }
      }
    },
    "aibeta": {
      "enable": true,
      "moveSetting": {
        "enable": false,
        "navMeshAgentName": "Undead01"
      }
    }
  },
  "SceneObj_Gear_TowerDefence_Wind_LV3": {
    "$type": "IOHCOOOBCPH",
    "common": {
      "disableTickDistance": 10000.0
    },
    "KNGBEDDABOM": true,
    "combat": {
      "property": {
        "useAbilityProperty": true,
        "HP": 99999.0,
        "attack": 400.0,
        "weight": 50.0,
        "isLockHP": true,
        "denyElementStick": true,
        "JPJIIBGCMJD": true
      },
      "beHit": {
        "hitBloodEffect": "",
        "hitAutoRedirect": false,
        "muteAllHitText": true
      },
      "combatLock": {
        "lockShape": "CircleLockEnemy",
        "denyLockOn": true,
        "lockType": "Gadget_Lv1"
      },
      "die": {
        "dieForceDisappearTime": 3.0,
        "dieDisappearEffect": ""
      }
    },
    "attackAttenuation": "",
    "abilities": [
      {
        "abilityID": "SceneObj_Gear_TowerDefence_Wind_LV3",
        "abilityName": "SceneObj_Gear_TowerDefence_Wind_LV3",
        "abilityOverride": ""
      }
    ],
    "stateLayers": {
      "defaultLayer": {
        "$type": "KFHJINNNDPN",
        "BOPIBFKFKCA": "",
        "stateIDs": {
          "Shoot": {
            "$type": "ILLKEGMDAEF",
            "HKPCLGHBKFD": {
              "Shoot": []
            }
          },
          "Charge": {
            "$type": "ILLKEGMDAEF",
            "HKPCLGHBKFD": {
              "Charge": []
            }
          }
        }
      }
    },
    "aibeta": {
      "enable": true,
      "moveSetting": {
        "enable": false,
        "navMeshAgentName": "Undead01"
      }
    }
  },
  "SceneObj_Gear_TowerDefence_Fire_LV2": {
    "$type": "IOHCOOOBCPH",
    "common": {
      "disableTickDistance": 10000.0
    },
    "KNGBEDDABOM": true,
    "combat": {
      "property": {
        "useAbilityProperty": true,
        "HP": 99999.0,
        "attack": 400.0,
        "weight": 50.0,
        "isLockHP": true,
        "denyElementStick": true,
        "JPJIIBGCMJD": true
      },
      "beHit": {
        "hitBloodEffect": "",
        "hitAutoRedirect": false,
        "muteAllHitText": true
      },
      "combatLock": {
        "lockShape": "CircleLockEnemy",
        "denyLockOn": true,
        "lockType": "Gadget_Lv1"
      },
      "die": {
        "dieForceDisappearTime": 3.0,
        "dieDisappearEffect": ""
      }
    },
    "attackAttenuation": "",
    "abilities": [
      {
        "abilityID": "SceneObj_Gear_TowerDefence_Fire_LV2",
        "abilityName": "SceneObj_Gear_TowerDefence_Fire_LV2",
        "abilityOverride": ""
      }
    ],
    "stateLayers": {
      "defaultLayer": {
        "$type": "KFHJINNNDPN",
        "BOPIBFKFKCA": "",
        "stateIDs": {
          "Shoot": {
            "$type": "ILLKEGMDAEF",
            "HKPCLGHBKFD": {
              "Shoot": []
            }
          }
        }
      }
    },
    "aibeta": {
      "enable": true,
      "moveSetting": {
        "enable": false,
        "navMeshAgentName": "Undead01"
      }
    }
  },
  "SceneObj_Gear_TowerDefence_Fire_LV3": {
    "$type": "IOHCOOOBCPH",
    "common": {
      "disableTickDistance": 10000.0
    },
    "KNGBEDDABOM": true,
    "combat": {
      "property": {
        "useAbilityProperty": true,
        "HP": 99999.0,
        "attack": 400.0,
        "weight": 50.0,
        "isLockHP": true,
        "denyElementStick": true,
        "JPJIIBGCMJD": true
      },
      "beHit": {
        "hitBloodEffect": "",
        "hitAutoRedirect": false,
        "muteAllHitText": true
      },
      "combatLock": {
        "lockShape": "CircleLockEnemy",
        "denyLockOn": true,
        "lockType": "Gadget_Lv1"
      },
      "die": {
        "dieForceDisappearTime": 3.0,
        "dieDisappearEffect": ""
      }
    },
    "attackAttenuation": "",
    "abilities": [
      {
        "abilityID": "SceneObj_Gear_TowerDefence_Fire_LV3",
        "abilityName": "SceneObj_Gear_TowerDefence_Fire_LV3",
        "abilityOverride": ""
      }
    ],
    "stateLayers": {
      "defaultLayer": {
        "$type": "KFHJINNNDPN",
        "BOPIBFKFKCA": "",
        "stateIDs": {
          "Shoot": {
            "$type": "ILLKEGMDAEF",
            "HKPCLGHBKFD": {
              "Shoot": []
            }
          }
        }
      }
    },
    "aibeta": {
      "enable": true,
      "moveSetting": {
        "enable": false,
        "navMeshAgentName": "Undead01"
      }
    }
  },
  "SceneObj_Gear_TowerDefence_Electric_LV2": {
    "$type": "IOHCOOOBCPH",
    "common": {
      "disableTickDistance": 10000.0
    },
    "KNGBEDDABOM": true,
    "combat": {
      "property": {
        "useAbilityProperty": true,
        "HP": 99999.0,
        "attack": 200.0,
        "weight": 50.0,
        "isLockHP": true,
        "denyElementStick": true,
        "JPJIIBGCMJD": true
      },
      "beHit": {
        "hitBloodEffect": "",
        "hitAutoRedirect": false,
        "muteAllHitText": true
      },
      "combatLock": {
        "lockShape": "CircleLockEnemy",
        "denyLockOn": true,
        "lockType": "Gadget_Lv1"
      },
      "die": {
        "dieForceDisappearTime": 3.0,
        "dieDisappearEffect": ""
      }
    },
    "attackAttenuation": "",
    "abilities": [
      {
        "abilityID": "SceneObj_Gear_TowerDefence_Electric_LV2",
        "abilityName": "SceneObj_Gear_TowerDefence_Electric_LV2",
        "abilityOverride": ""
      }
    ],
    "stateLayers": {
      "defaultLayer": {
        "$type": "KFHJINNNDPN",
        "BOPIBFKFKCA": "",
        "stateIDs": {
          "Shoot": {
            "$type": "ILLKEGMDAEF",
            "HKPCLGHBKFD": {
              "Shoot": []
            }
          }
        }
      }
    },
    "aibeta": {
      "enable": true,
      "moveSetting": {
        "enable": false,
        "navMeshAgentName": "Undead01"
      }
    }
  },
  "SceneObj_Gear_TowerDefence_Electric_LV3": {
    "$type": "IOHCOOOBCPH",
    "common": {
      "disableTickDistance": 10000.0
    },
    "KNGBEDDABOM": true,
    "combat": {
      "property": {
        "useAbilityProperty": true,
        "HP": 99999.0,
        "attack": 200.0,
        "weight": 50.0,
        "isLockHP": true,
        "denyElementStick": true,
        "JPJIIBGCMJD": true
      },
      "beHit": {
        "hitBloodEffect": "",
        "hitAutoRedirect": false,
        "muteAllHitText": true
      },
      "combatLock": {
        "lockShape": "CircleLockEnemy",
        "denyLockOn": true,
        "lockType": "Gadget_Lv1"
      },
      "die": {
        "dieForceDisappearTime": 3.0,
        "dieDisappearEffect": ""
      }
    },
    "attackAttenuation": "",
    "abilities": [
      {
        "abilityID": "SceneObj_Gear_TowerDefence_Electric_LV3",
        "abilityName": "SceneObj_Gear_TowerDefence_Electric_LV3",
        "abilityOverride": ""
      }
    ],
    "stateLayers": {
      "defaultLayer": {
        "$type": "KFHJINNNDPN",
        "BOPIBFKFKCA": "",
        "stateIDs": {
          "Shoot": {
            "$type": "ILLKEGMDAEF",
            "HKPCLGHBKFD": {
              "Shoot": []
            }
          }
        }
      }
    },
    "aibeta": {
      "enable": true,
      "moveSetting": {
        "enable": false,
        "navMeshAgentName": "Undead01"
      }
    }
  },
  "SceneObj_Gear_TowerDefence_Basic": {
    "$type": "IOHCOOOBCPH",
    "common": {
      "disableTickDistance": 10000.0
    },
    "KNGBEDDABOM": true,
    "combat": {
      "property": {
        "useAbilityProperty": true,
        "HP": 99999.0,
        "attack": 200.0,
        "weight": 50.0,
        "isLockHP": true,
        "denyElementStick": true,
        "JPJIIBGCMJD": true
      },
      "beHit": {
        "hitBloodEffect": "",
        "hitAutoRedirect": false,
        "muteAllHitText": true
      },
      "combatLock": {
        "lockShape": "CircleLockEnemy",
        "denyLockOn": true,
        "lockType": "Gadget_Lv1"
      },
      "die": {
        "dieForceDisappearTime": 3.0,
        "dieDisappearEffect": ""
      }
    },
    "attackAttenuation": "",
    "field": {
      "concernType": "AllAvatars",
      "shape": "CircleR2",
      "AGKCOGKCAGC": "",
      "triggerInfinite": true,
      "lifeInfinite": true,
      "checkInterval": 0.5,
      "overwriteCampType": true,
      "campType": "All",
      "PKBIFJFAJEK": "",
      "CJIOPEJJHDM": ""
    }
  },
  "SceneObj_Gear_TowerDefence_Basic_Offical": {
    "$type": "IOHCOOOBCPH",
    "common": {
      "disableTickDistance": 100001.0
    },
    "KNGBEDDABOM": true,
    "attackAttenuation": "",
    "field": {
      "concernType": "AllAvatars",
      "shape": "CircleR1.5",
      "AGKCOGKCAGC": "",
      "triggerInfinite": true,
      "lifeInfinite": true,
      "checkInterval": 0.5,
      "overwriteCampType": true,
      "campType": "All",
      "PKBIFJFAJEK": "",
      "CJIOPEJJHDM": ""
    }
  },
  "SceneObj_Gear_TowerDefence_HeadControl_LV2": {
    "$type": "IOHCOOOBCPH",
    "common": {
      "disableTickDistance": 10000.0
    },
    "combat": {
      "property": {
        "useAbilityProperty": true,
        "HP": 99999.0,
        "attack": 150.0,
        "weight": 50.0,
        "isLockHP": true,
        "denyElementStick": true
      },
      "beHit": {
        "hitBloodEffect": "",
        "hitAutoRedirect": false,
        "muteAllHitText": true
      },
      "combatLock": {
        "lockShape": "CircleLockEnemy",
        "denyLockOn": true,
        "lockType": "Gadget_Lv1"
      },
      "die": {
        "dieForceDisappearTime": 3.0,
        "dieDisappearEffect": ""
      }
    },
    "attackAttenuation": "",
    "abilities": [
      {
        "abilityID": "SceneObj_Gear_TowerDefence_HeadControl_LV2",
        "abilityName": "SceneObj_Gear_TowerDefence_HeadControl_LV2",
        "abilityOverride": ""
      }
    ],
    "stateLayers": {
      "defaultLayer": {
        "$type": "KFHJINNNDPN",
        "BOPIBFKFKCA": "",
        "stateIDs": {
          "Shoot": {
            "$type": "ILLKEGMDAEF",
            "HKPCLGHBKFD": {
              "Shoot": []
            }
          },
          "Charge": {
            "$type": "ILLKEGMDAEF",
            "HKPCLGHBKFD": {
              "Charge": []
            }
          }
        }
      }
    },
    "aibeta": {
      "enable": true,
      "moveSetting": {
        "enable": false,
        "navMeshAgentName": "Undead01"
      }
    },
    "partControl": {
      "parts": [
        {
          "$type": "PMGKKACOLIC",
          "angularSpeed": 60.0,
          "BGKPNLALNPD": "ShootControl",
          "AJBEMCBABJF": "",
          "GPAPEPNEEMC": 360.0,
          "OGNBJMIOCPO": 360.0
        }
      ]
    }
  },
  "SceneObj_Gear_TowerDefence_HeadControl_LV3": {
    "$type": "IOHCOOOBCPH",
    "common": {
      "disableTickDistance": 10000.0
    },
    "combat": {
      "property": {
        "useAbilityProperty": true,
        "HP": 99999.0,
        "attack": 150.0,
        "weight": 50.0,
        "isLockHP": true,
        "denyElementStick": true
      },
      "beHit": {
        "hitBloodEffect": "",
        "hitAutoRedirect": false,
        "muteAllHitText": true
      },
      "combatLock": {
        "lockShape": "CircleLockEnemy",
        "denyLockOn": true,
        "lockType": "Gadget_Lv1"
      },
      "die": {
        "dieForceDisappearTime": 3.0,
        "dieDisappearEffect": ""
      }
    },
    "attackAttenuation": "",
    "abilities": [
      {
        "abilityID": "SceneObj_Gear_TowerDefence_HeadControl_LV3",
        "abilityName": "SceneObj_Gear_TowerDefence_HeadControl_LV3",
        "abilityOverride": ""
      }
    ],
    "stateLayers": {
      "defaultLayer": {
        "$type": "KFHJINNNDPN",
        "BOPIBFKFKCA": "",
        "stateIDs": {
          "Shoot": {
            "$type": "ILLKEGMDAEF",
            "HKPCLGHBKFD": {
              "Shoot": []
            }
          },
          "Charge": {
            "$type": "ILLKEGMDAEF",
            "HKPCLGHBKFD": {
              "Charge": []
            }
          }
        }
      }
    },
    "aibeta": {
      "enable": true,
      "moveSetting": {
        "enable": false,
        "navMeshAgentName": "Undead01"
      }
    },
    "partControl": {
      "parts": [
        {
          "$type": "PMGKKACOLIC",
          "angularSpeed": 60.0,
          "BGKPNLALNPD": "ShootControl",
          "AJBEMCBABJF": "",
          "GPAPEPNEEMC": 360.0,
          "OGNBJMIOCPO": 360.0
        },
        {
          "$type": "PMGKKACOLIC",
          "angularSpeed": 60.0,
          "BGKPNLALNPD": "DirControl",
          "AJBEMCBABJF": "",
          "GPAPEPNEEMC": 360.0,
          "OGNBJMIOCPO": 0.0
        }
      ]
    }
  },
  "SceneObj_Gear_TowerDefence_Gravity": {
    "$type": "IOHCOOOBCPH",
    "KNGBEDDABOM": true,
    "combat": {
      "property": {
        "HP": 99999.0,
        "weight": 50.0,
        "isLockHP": true,
        "canTriggerBullet": true,
        "denyElementStick": true
      },
      "beHit": {
        "hitBloodEffect": "",
        "hitAutoRedirect": false,
        "muteAllHitText": true
      },
      "combatLock": {
        "lockShape": "CircleLockEnemy",
        "denyLockOn": true,
        "lockType": "Gadget_Lv1"
      }
    },
    "attackAttenuation": "",
    "abilities": [
      {
        "abilityID": "Ability_01",
        "abilityName": "SceneObj_Gear_TowerDefence_Gravity",
        "abilityOverride": ""
      }
    ],
    "DDOEFBHBEPJ": {
      "HGJJHLBEICG": "",
      "JCBHMPCFFDI": 1.149999976158142
    }
  },
  "SceneObj_Gear_TowerDefence_Seal": {
    "$type": "IOHCOOOBCPH",
    "combat": {
      "property": {
        "HP": 500.0,
        "weight": 50.0,
        "isLockHP": true,
        "canTriggerBullet": true,
        "denyElementStick": true
      },
      "beHit": {
        "hitBloodEffect": "",
        "hitAutoRedirect": false,
        "muteAllHitText": true
      },
      "combatLock": {
        "lockShape": "CircleLockEnemy",
        "denyLockOn": true,
        "lockType": "Gadget_Lv1"
      },
      "die": {
        "dieForceDisappearTime": 0.0,
        "dieDisappearEffect": ""
      }
    },
    "attackAttenuation": "",
    "abilities": [
      {
        "abilityID": "Ability_01",
        "abilityName": "SceneObj_Gear_TowerDefence_Seal",
        "abilityOverride": ""
      }
    ]
  },
  "SceneObj_Gear_TowerDefence_TheatreMechanicus": {
    "$type": "IOHCOOOBCPH",
    "KNGBEDDABOM": true,
    "attackAttenuation": ""
  },
  "SceneObj_Level_Common_Property_Prop_TowerEnhancer_01_LV1": {
    "$type": "IOHCOOOBCPH",
    "globalValue": {
      "serverGlobalValues": [
        "SGV_TDLevel",
        "SGV_TDAttackSpeed_C"
      ]
    },
    "KNGBEDDABOM": true,
    "combat": {
      "property": {
        "useAbilityProperty": true,
        "HP": 99999.0,
        "attack": 200.0,
        "weight": 50.0,
        "isLockHP": true,
        "denyElementStick": true,
        "JPJIIBGCMJD": true
      },
      "beHit": {
        "hitBloodEffect": "",
        "hitAutoRedirect": false,
        "muteAllHitText": true
      },
      "combatLock": {
        "lockShape": "CircleLockEnemy",
        "denyLockOn": true,
        "lockType": "Gadget_Lv1"
      },
      "die": {
        "dieForceDisappearTime": 3.0,
        "dieDisappearEffect": ""
      }
    },
    "attackAttenuation": "",
    "abilities": [
      {
        "abilityID": "SceneObj_Level_Common_Property_Prop_TowerEnhancer_01_LV1",
        "abilityName": "SceneObj_Level_Common_Property_Prop_TowerEnhancer_01_LV1",
        "abilityOverride": ""
      }
    ]
  },
  "SceneObj_Level_Common_Property_Prop_TowerEnhancer_01_LV2": {
    "$type": "IOHCOOOBCPH",
    "KNGBEDDABOM": true,
    "combat": {
      "property": {
        "useAbilityProperty": true,
        "HP": 99999.0,
        "attack": 200.0,
        "weight": 50.0,
        "isLockHP": true,
        "denyElementStick": true,
        "JPJIIBGCMJD": true
      },
      "beHit": {
        "hitBloodEffect": "",
        "hitAutoRedirect": false,
        "muteAllHitText": true
      },
      "combatLock": {
        "lockShape": "CircleLockEnemy",
        "denyLockOn": true,
        "lockType": "Gadget_Lv1"
      },
      "die": {
        "dieForceDisappearTime": 3.0,
        "dieDisappearEffect": ""
      }
    },
    "attackAttenuation": "",
    "abilities": [
      {
        "abilityID": "SceneObj_Level_Common_Property_Prop_TowerEnhancer_01_LV2",
        "abilityName": "SceneObj_Level_Common_Property_Prop_TowerEnhancer_01_LV2",
        "abilityOverride": ""
      }
    ]
  },
  "SceneObj_Level_Common_Property_Prop_TowerEnhancer_01_LV3": {
    "$type": "IOHCOOOBCPH",
    "KNGBEDDABOM": true,
    "combat": {
      "property": {
        "useAbilityProperty": true,
        "HP": 99999.0,
        "attack": 200.0,
        "weight": 50.0,
        "isLockHP": true,
        "denyElementStick": true,
        "JPJIIBGCMJD": true
      },
      "beHit": {
        "hitBloodEffect": "",
        "hitAutoRedirect": false,
        "muteAllHitText": true
      },
      "combatLock": {
        "lockShape": "CircleLockEnemy",
        "denyLockOn": true,
        "lockType": "Gadget_Lv1"
      },
      "die": {
        "dieForceDisappearTime": 3.0,
        "dieDisappearEffect": ""
      }
    },
    "attackAttenuation": "",
    "abilities": [
      {
        "abilityID": "SceneObj_Level_Common_Property_Prop_TowerEnhancer_01_LV3",
        "abilityName": "SceneObj_Level_Common_Property_Prop_TowerEnhancer_01_LV3",
        "abilityOverride": ""
      }
    ]
  },
  "SceneObj_Level_Common_Property_Prop_TowerAbsorber_01": {
    "$type": "IOHCOOOBCPH",
    "model": {
      "bornEffect": "",
      "attachEffect": "Eff_SceneObj_TowerAbsorber_01_Idle"
    },
    "globalValue": {
      "serverGlobalValues": [
        "SGV_TDLevel",
        "SGV_TDUpGrade_Special"
      ]
    },
    "KNGBEDDABOM": true,
    "combat": {
      "property": {
        "useAbilityProperty": true,
        "HP": 99999.0,
        "attack": 200.0,
        "weight": 50.0,
        "isLockHP": true,
        "denyElementStick": true,
        "JPJIIBGCMJD": true
      },
      "beHit": {
        "hitBloodEffect": "",
        "hitAutoRedirect": false,
        "muteAllHitText": true
      },
      "combatLock": {
        "lockShape": "CircleLockEnemy",
        "denyLockOn": true,
        "lockType": "Gadget_Lv1"
      },
      "die": {
        "dieForceDisappearTime": 3.0,
        "dieDisappearEffect": ""
      }
    },
    "attackAttenuation": "",
    "abilities": [
      {
        "abilityID": "SceneObj_Level_Common_Property_Prop_TowerAbsorber_01",
        "abilityName": "SceneObj_Level_Common_Property_Prop_TowerAbsorber_01",
        "abilityOverride": ""
      }
    ]
  },
  "SceneObj_Gear_TowerDefence_PumpkinBomb": {
    "$type": "IOHCOOOBCPH",
    "globalValue": {
      "serverGlobalValues": [
        "SGV_TDCanDoAttack",
        "SGV_TDLevel",
        "SGV_TDUpGrade_Special",
        "SGV_TDAttackDamage_A",
        "SGV_TDAttackSpeed_A",
        "SGV_TDAttackRange_A",
        "SGV_TDAttackRange_B",
        "SGV_TDAttackDamage_B",
        "SGV_TDAttackSpeed_B",
        "SGV_TDElementMastery",
        "SGV_TDAttackSpeed_C"
      ]
    },
    "KNGBEDDABOM": true,
    "combat": {
      "property": {
        "useAbilityProperty": true,
        "HP": 99999.0,
        "attack": 800.0,
        "weight": 50.0,
        "isLockHP": true,
        "ignorePurgeRate": false
      },
      "beHit": {
        "hitBloodEffect": "",
        "hitAutoRedirect": false,
        "muteAllHitText": true
      },
      "combatLock": {
        "lockShape": "CircleLockEnemy",
        "lockType": "Gadget_Lv1"
      },
      "die": {
        "dieEndTime": 0.10000000149011612,
        "dieForceDisappearTime": 0.10000000149011612,
        "dieDisappearEffect": ""
      }
    },
    "attackAttenuation": "",
    "abilities": [
      {
        "abilityID": "SceneObj_Gear_TowerDefence_PumpkinBomb",
        "abilityName": "SceneObj_Gear_TowerDefence_PumpkinBomb",
        "abilityOverride": ""
      }
    ],
    "field": {
      "shape": "CircleR2",
      "AGKCOGKCAGC": "",
      "triggerInfinite": true,
      "lifeInfinite": true,
      "checkInterval": 0.75,
      "overwriteCampType": true,
      "campType": "All",
      "PKBIFJFAJEK": "",
      "CJIOPEJJHDM": ""
    }
  },
  "SceneObj_Gear_TowerDefence_PumpkinBomb_LV2": {
    "$type": "IOHCOOOBCPH",
    "KNGBEDDABOM": true,
    "combat": {
      "property": {
        "useAbilityProperty": true,
        "HP": 99999.0,
        "attack": 800.0,
        "weight": 50.0,
        "isLockHP": true,
        "ignorePurgeRate": false
      },
      "beHit": {
        "hitBloodEffect": "",
        "hitAutoRedirect": false,
        "muteAllHitText": true
      },
      "combatLock": {
        "lockShape": "CircleLockEnemy",
        "lockType": "Gadget_Lv1"
      },
      "die": {
        "dieEndTime": 0.10000000149011612,
        "dieForceDisappearTime": 0.10000000149011612,
        "dieDisappearEffect": ""
      }
    },
    "attackAttenuation": "",
    "abilities": [
      {
        "abilityID": "SceneObj_Gear_TowerDefence_PumpkinBomb_LV2",
        "abilityName": "SceneObj_Gear_TowerDefence_PumpkinBomb_LV2",
        "abilityOverride": ""
      }
    ],
    "field": {
      "shape": "CircleR2",
      "AGKCOGKCAGC": "",
      "triggerInfinite": true,
      "lifeInfinite": true,
      "checkInterval": 0.75,
      "overwriteCampType": true,
      "campType": "All",
      "PKBIFJFAJEK": "",
      "CJIOPEJJHDM": ""
    }
  },
  "SceneObj_Gear_TowerDefence_PumpkinBomb_LV3": {
    "$type": "IOHCOOOBCPH",
    "KNGBEDDABOM": true,
    "combat": {
      "property": {
        "useAbilityProperty": true,
        "HP": 99999.0,
        "attack": 800.0,
        "weight": 50.0,
        "isLockHP": true,
        "ignorePurgeRate": false
      },
      "beHit": {
        "hitBloodEffect": "",
        "hitAutoRedirect": false,
        "muteAllHitText": true
      },
      "combatLock": {
        "lockShape": "CircleLockEnemy",
        "lockType": "Gadget_Lv1"
      },
      "die": {
        "dieEndTime": 0.10000000149011612,
        "dieForceDisappearTime": 0.10000000149011612,
        "dieDisappearEffect": ""
      }
    },
    "attackAttenuation": "",
    "abilities": [
      {
        "abilityID": "SceneObj_Gear_TowerDefence_PumpkinBomb_LV3",
        "abilityName": "SceneObj_Gear_TowerDefence_PumpkinBomb_LV3",
        "abilityOverride": ""
      }
    ],
    "field": {
      "shape": "CircleR2",
      "AGKCOGKCAGC": "",
      "triggerInfinite": true,
      "lifeInfinite": true,
      "checkInterval": 0.75,
      "overwriteCampType": true,
      "campType": "All",
      "PKBIFJFAJEK": "",
      "CJIOPEJJHDM": ""
    }
  },
  "SceneObj_Level_Common_Property_Prop_TowerWaypoint_01": {
    "$type": "IOHCOOOBCPH",
    "model": {
      "bornEffect": "",
      "attachEffect": "Eff_SceneObj_TowerWaypoint_01"
    },
    "KNGBEDDABOM": true,
    "combat": {
      "property": {
        "HP": 99999.0,
        "attack": 200.0,
        "weight": 50.0,
        "isLockHP": true,
        "denyElementStick": true,
        "JPJIIBGCMJD": true
      },
      "beHit": {
        "hitBloodEffect": "",
        "hitAutoRedirect": false,
        "muteAllHitText": true
      },
      "combatLock": {
        "lockShape": "CircleLockEnemy",
        "denyLockOn": true,
        "lockType": "Gadget_Lv1"
      },
      "die": {
        "dieForceDisappearTime": 3.0,
        "dieDisappearEffect": ""
      }
    },
    "attackAttenuation": "",
    "abilities": [
      {
        "abilityID": "SceneObj_Level_Common_Property_Prop_TowerWaypoint_01",
        "abilityName": "SceneObj_Level_Common_Property_Prop_TowerWaypoint_01",
        "abilityOverride": ""
      }
    ],
    "move": {
      "$type": "AOAMMBMNHEH"
    }
  },
  "SceneObj_Gear_TowerDefence_Attack_Disable": {
    "$type": "IOHCOOOBCPH",
    "combat": {
      "property": {
        "useAbilityProperty": true,
        "HP": 99999.0,
        "attack": 200.0,
        "weight": 50.0,
        "isLockHP": true,
        "denyElementStick": true,
        "JPJIIBGCMJD": true
      },
      "beHit": {
        "hitBloodEffect": "",
        "hitAutoRedirect": false,
        "muteAllHitText": true
      },
      "combatLock": {
        "lockShape": "CircleLockEnemy",
        "denyLockOn": true,
        "lockType": "Gadget_Lv1"
      },
      "die": {
        "dieForceDisappearTime": 3.0,
        "dieDisappearEffect": ""
      }
    },
    "attackAttenuation": "",
    "abilities": [
      {
        "abilityID": "SceneObj_Gear_TowerDefence_Attack_Disable",
        "abilityName": "SceneObj_Gear_TowerDefence_Attack_Disable",
        "abilityOverride": ""
      }
    ]
  },
  "SceneObj_Gear_TowerDefence_Speed_Down": {
    "$type": "IOHCOOOBCPH",
    "combat": {
      "property": {
        "useAbilityProperty": true,
        "HP": 99999.0,
        "attack": 200.0,
        "weight": 50.0,
        "isLockHP": true,
        "denyElementStick": true,
        "JPJIIBGCMJD": true
      },
      "beHit": {
        "hitBloodEffect": "",
        "hitAutoRedirect": false,
        "muteAllHitText": true
      },
      "combatLock": {
        "lockShape": "CircleLockEnemy",
        "denyLockOn": true,
        "lockType": "Gadget_Lv1"
      },
      "die": {
        "dieForceDisappearTime": 3.0,
        "dieDisappearEffect": ""
      }
    },
    "attackAttenuation": "",
    "abilities": [
      {
        "abilityID": "SceneObj_Gear_TowerDefence_Speed_Down",
        "abilityName": "SceneObj_Gear_TowerDefence_Speed_Down",
        "abilityOverride": ""
      }
    ]
  },
  "SceneObj_Gear_TowerDefence_RockGadget_Detect_Platform": {
    "$type": "IOHCOOOBCPH",
    "combat": {
      "property": {
        "useAbilityProperty": true,
        "HP": 99999.0,
        "attack": 200.0,
        "weight": 50.0,
        "isLockHP": true,
        "canTriggerBullet": true,
        "denyElementStick": true,
        "JPJIIBGCMJD": true
      },
      "beHit": {
        "hitBloodEffect": "",
        "hitAutoRedirect": false,
        "muteAllHitText": true
      },
      "combatLock": {
        "lockShape": "CircleLockEnemy",
        "denyLockOn": true,
        "lockType": "Gadget_Lv1"
      },
      "die": {
        "dieForceDisappearTime": 3.0,
        "dieDisappearEffect": ""
      }
    },
    "attackAttenuation": "",
    "abilities": [
      {
        "abilityID": "Scene_RockGadget_Summon_Detect",
        "abilityName": "Scene_RockGadget_Summon_Detect",
        "abilityOverride": ""
      }
    ]
  }
}