{
  "Thoarder_ThrowingKnife": {
    "$type": "PAAKDFFLFIN",
    "common": {
      "effectAttachShape": {
        "$type": "AFBBHIMPGKH",
        "scaleX": 0.5,
        "scaleY": 0.5
      }
    },
    "combat": {
      "property": {
        "useCreatorProperty": true,
        "isLockHP": true,
        "canTriggerBullet": false
      },
      "beHit": {
        "hitBloodEffect": "",
        "muteAllHit": true,
        "muteAllHitEffect": true,
        "muteAllHitText": true
      },
      "combatLock": {
        "lockShape": "CircleLockEnemy",
        "denyLockOn": true,
        "lockType": "Default"
      },
      "animEvents": {
        "ATK01": {
          "attackPattern": {
            "$type": "CKCNJHBMNGJ",
            "triggerType": "TriggerNoRepeat",
            "born": {
              "$type": "AGPIGGAPILF",
              "offset": {
                "GOAPOLCAJBP": 0.0,
                "FMOPCJGGFMH": 0.0,
                "EJJEPFCDDAM": -0.5
              }
            },
            "size": {
              "GOAPOLCAJBP": 0.10000000149011612,
              "FMOPCJGGFMH": 0.10000000149011612,
              "EJJEPFCDDAM": 1.0
            }
          },
          "attackInfo": {
            "attackTag": "",
            "attenuationTag": "",
            "attenuationGroup": "default",
            "attackProperty": {
              "JMLMDDCBIAO": 0.5,
              "damagePercentageRatio": 0.0,
              "elementDurability": 100.0,
              "strikeType": "Pierce",
              "enBreak": 50.0,
              "damagePercentage": 0.0
            },
            "hitPattern": {
              "onHitEffectName": "default",
              "hitImpulseY": "",
              "hitImpulseType": "LV2",
              "hitHaltTimeScale": 0.009999999776482582
            },
            "cameraShake": {
              "shakeRange": 0.05999999865889549,
              "shakeTime": 0.09000000357627869
            },
            "canBeModifiedBy": "OriginOwner"
          }
        }
      }
    },
    "combatTemplate": "",
    "abilities": [
      {
        "abilityID": "ThrowingKnife_Effect",
        "abilityName": "Thoarder_ThrowingKnife_Effect",
        "abilityOverride": ""
      }
    ],
    "timer": {
      "lifeTime": 8.0
    },
    "move": {
      "$type": "KPMONKJIGAM",
      "speed": 30.0,
      "LADLDOGAMLI": {
        "$type": "GLPIGCIKICP"
      },
      "straightRange": 40.0,
      "gravityOfAcceleration": 10.0,
      "airResistance": 0.009999999776482582
    },
    "gadget": {
      "$type": "INBEOAJKHGD",
      "collision": {
        "targetType": "Enemy"
      },
      "triggerActions": [
        {
          "$type": "JLJCHBAEAMN",
          "attackEvent": "ATK01"
        }
      ]
    }
  },
  "Thoarder_Bomb": {
    "$type": "PAAKDFFLFIN",
    "common": {
      "effectAttachShape": {
        "$type": "AFBBHIMPGKH",
        "scaleZ": 0.4000000059604645
      }
    },
    "combat": {
      "property": {
        "useCreatorProperty": true,
        "hp": 999999.0,
        "attack": 10.0,
        "defense": 999999.0,
        "isLockHP": true
      },
      "beHit": {
        "hitBloodEffect": "",
        "muteAllHit": true,
        "muteAllHitEffect": true,
        "muteAllHitText": true
      },
      "combatLock": {
        "lockShape": "CircleLockEnemy",
        "denyLockOn": true,
        "lockType": "Default"
      }
    },
    "combatTemplate": "",
    "abilities": [
      {
        "abilityID": "Bomb_Loop",
        "abilityName": "Thoarder_Bomb_Loop",
        "abilityOverride": ""
      },
      {
        "abilityID": "Bomb_Explode",
        "abilityName": "Thoarder_Bomb_Explode",
        "abilityOverride": ""
      }
    ],
    "timer": {
      "lifeTime": 5.0
    },
    "move": {
      "$type": "EBELDBHINMB",
      "speed": 15.0,
      "LADLDOGAMLI": {
        "$type": "GLPIGCIKICP"
      },
      "angleOffHor": 50.0,
      "gravityOfAcceleration": 30.0,
      "correction": {
        "$type": "ELDDGNNGEAK",
        "deviation": 0.75,
        "fixAngleOfVer": 15.0,
        "minSpeed": 4.0,
        "maxSpeed": 24.0
      }
    },
    "gadget": {
      "$type": "INBEOAJKHGD",
      "collision": {
        "targetType": "Enemy"
      },
      "triggerActions": [
        {
          "$type": "HEAANEHEBIK",
          "abilityName": "Thoarder_Bomb_Explode"
        }
      ],
      "killByOther": true
    }
  },
  "Thoarder_MolotovCocktail": {
    "$type": "PAAKDFFLFIN",
    "common": {
      "effectAttachShape": {
        "$type": "AFBBHIMPGKH",
        "scaleZ": 0.4000000059604645
      }
    },
    "combat": {
      "property": {
        "useCreatorProperty": true,
        "hp": 999999.0,
        "attack": 10.0,
        "defense": 999999.0,
        "isLockHP": true
      },
      "beHit": {
        "hitBloodEffect": "",
        "muteAllHit": true,
        "muteAllHitEffect": true,
        "muteAllHitText": true
      },
      "combatLock": {
        "lockShape": "CircleLockEnemy",
        "denyLockOn": true,
        "lockType": "Default"
      }
    },
    "combatTemplate": "",
    "abilities": [
      {
        "abilityID": "MolotovCocktail_Loop",
        "abilityName": "Thoarder_MolotovCocktail_Loop",
        "abilityOverride": ""
      },
      {
        "abilityID": "MolotovCocktail_Explode",
        "abilityName": "Thoarder_MolotovCocktail_Explode",
        "abilityOverride": ""
      }
    ],
    "timer": {
      "lifeTime": 5.0
    },
    "move": {
      "$type": "EBELDBHINMB",
      "speed": 15.0,
      "LADLDOGAMLI": {
        "$type": "GLPIGCIKICP"
      },
      "angleOffHor": 30.0,
      "gravityOfAcceleration": 15.0,
      "correction": {
        "$type": "ELDDGNNGEAK",
        "deviation": 1.5,
        "fixAngleOfVer": 15.0,
        "minSpeed": 4.0,
        "maxSpeed": 24.0
      }
    },
    "gadget": {
      "$type": "INBEOAJKHGD",
      "collision": {
        "targetType": "Enemy"
      },
      "triggerActions": [
        {
          "$type": "HEAANEHEBIK",
          "abilityName": "Thoarder_MolotovCocktail_Explode"
        }
      ],
      "killByOther": true
    }
  },
  "Thoarder_Bomb_Water_01": {
    "$type": "PAAKDFFLFIN",
    "common": {
      "effectAttachShape": {
        "$type": "AFBBHIMPGKH",
        "scaleZ": 0.4000000059604645
      }
    },
    "combat": {
      "property": {
        "useCreatorProperty": true,
        "hp": 999999.0,
        "attack": 10.0,
        "defense": 999999.0,
        "isLockHP": true
      },
      "beHit": {
        "hitBloodEffect": "",
        "muteAllHit": true,
        "muteAllHitEffect": true,
        "muteAllHitText": true
      },
      "combatLock": {
        "lockShape": "CircleLockEnemy",
        "denyLockOn": true,
        "lockType": "Default"
      }
    },
    "combatTemplate": "",
    "abilities": [
      {
        "abilityID": "Bomb_Water_01_Loop",
        "abilityName": "Thoarder_Bomb_Water_01_Loop",
        "abilityOverride": ""
      },
      {
        "abilityID": "Bomb_Water_01_Explode",
        "abilityName": "Thoarder_Bomb_Water_01_Explode",
        "abilityOverride": ""
      }
    ],
    "timer": {
      "lifeTime": 5.0
    },
    "move": {
      "$type": "EBELDBHINMB",
      "speed": 15.0,
      "LADLDOGAMLI": {
        "$type": "GLPIGCIKICP"
      },
      "angleOffHor": 30.0,
      "gravityOfAcceleration": 15.0,
      "correction": {
        "$type": "ELDDGNNGEAK",
        "deviation": 1.5,
        "fixAngleOfVer": 15.0,
        "minSpeed": 4.0,
        "maxSpeed": 24.0
      }
    },
    "gadget": {
      "$type": "INBEOAJKHGD",
      "collision": {
        "targetType": "Enemy"
      },
      "triggerActions": [
        {
          "$type": "HEAANEHEBIK",
          "abilityName": "Thoarder_Bomb_Water_01_Explode"
        }
      ],
      "killByOther": true
    }
  },
  "Thoarder_Bomb_Ice_01": {
    "$type": "PAAKDFFLFIN",
    "common": {
      "effectAttachShape": {
        "$type": "AFBBHIMPGKH",
        "scaleZ": 0.4000000059604645
      }
    },
    "combat": {
      "property": {
        "useCreatorProperty": true,
        "hp": 999999.0,
        "attack": 10.0,
        "defense": 999999.0,
        "isLockHP": true
      },
      "beHit": {
        "hitBloodEffect": "",
        "muteAllHit": true,
        "muteAllHitEffect": true,
        "muteAllHitText": true
      },
      "combatLock": {
        "lockShape": "CircleLockEnemy",
        "denyLockOn": true,
        "lockType": "Default"
      }
    },
    "combatTemplate": "",
    "abilities": [
      {
        "abilityID": "Bomb_Ice_01_Loop",
        "abilityName": "Thoarder_Bomb_Ice_01_Loop",
        "abilityOverride": ""
      },
      {
        "abilityID": "Bomb_Ice_01_Explode",
        "abilityName": "Thoarder_Bomb_Ice_01_Explode",
        "abilityOverride": ""
      }
    ],
    "timer": {
      "lifeTime": 5.0
    },
    "move": {
      "$type": "EBELDBHINMB",
      "speed": 15.0,
      "LADLDOGAMLI": {
        "$type": "GLPIGCIKICP"
      },
      "angleOffHor": 30.0,
      "gravityOfAcceleration": 15.0,
      "correction": {
        "$type": "ELDDGNNGEAK",
        "deviation": 1.5,
        "fixAngleOfVer": 15.0,
        "minSpeed": 4.0,
        "maxSpeed": 24.0
      }
    },
    "gadget": {
      "$type": "INBEOAJKHGD",
      "collision": {
        "targetType": "Enemy"
      },
      "triggerActions": [
        {
          "$type": "HEAANEHEBIK",
          "abilityName": "Thoarder_Bomb_Ice_01_Explode"
        }
      ],
      "killByOther": true
    }
  },
  "Thoarder_Bomb_Electric_01": {
    "$type": "PAAKDFFLFIN",
    "common": {
      "effectAttachShape": {
        "$type": "AFBBHIMPGKH",
        "scaleZ": 0.4000000059604645
      }
    },
    "combat": {
      "property": {
        "useCreatorProperty": true,
        "hp": 999999.0,
        "attack": 10.0,
        "defense": 999999.0,
        "isLockHP": true
      },
      "beHit": {
        "hitBloodEffect": "",
        "muteAllHit": true,
        "muteAllHitEffect": true,
        "muteAllHitText": true
      },
      "combatLock": {
        "lockShape": "CircleLockEnemy",
        "denyLockOn": true,
        "lockType": "Default"
      }
    },
    "combatTemplate": "",
    "abilities": [
      {
        "abilityID": "Bomb_Electric_01_Loop",
        "abilityName": "Thoarder_Bomb_Electric_01_Loop",
        "abilityOverride": ""
      },
      {
        "abilityID": "Bomb_Electric_01_Explode",
        "abilityName": "Thoarder_Bomb_Electric_01_Explode",
        "abilityOverride": ""
      }
    ],
    "timer": {
      "lifeTime": 5.0
    },
    "move": {
      "$type": "EBELDBHINMB",
      "speed": 15.0,
      "LADLDOGAMLI": {
        "$type": "GLPIGCIKICP"
      },
      "angleOffHor": 30.0,
      "gravityOfAcceleration": 15.0,
      "correction": {
        "$type": "ELDDGNNGEAK",
        "deviation": 1.5,
        "fixAngleOfVer": 15.0,
        "minSpeed": 4.0,
        "maxSpeed": 24.0
      }
    },
    "gadget": {
      "$type": "INBEOAJKHGD",
      "collision": {
        "targetType": "Enemy"
      },
      "triggerActions": [
        {
          "$type": "HEAANEHEBIK",
          "abilityName": "Thoarder_Bomb_Electric_01_Explode"
        }
      ],
      "killByOther": true
    }
  },
  "Thoarder_Bomb_ElementalEffect_Fire": {
    "$type": "PAAKDFFLFIN",
    "common": {
      "effectAttachShape": {
        "$type": "AFBBHIMPGKH",
        "scaleZ": 0.4000000059604645
      }
    },
    "combat": {
      "property": {
        "useCreatorProperty": true,
        "hp": 999999.0,
        "attack": 10.0,
        "defense": 999999.0,
        "isLockHP": true
      },
      "beHit": {
        "hitBloodEffect": "",
        "muteAllHit": true,
        "muteAllHitEffect": true,
        "muteAllHitText": true
      },
      "combatLock": {
        "lockShape": "CircleLockEnemy",
        "denyLockOn": true,
        "lockType": "Default"
      }
    },
    "combatTemplate": "",
    "abilities": [
      {
        "abilityID": "ElementalEffect",
        "abilityName": "Thoarder_Bomb_ElementalEffect_Fire",
        "abilityOverride": ""
      }
    ],
    "timer": {
      "lifeTime": 3.5
    }
  },
  "Thoarder_Bomb_ElementalEffect_Water": {
    "$type": "PAAKDFFLFIN",
    "common": {
      "effectAttachShape": {
        "$type": "AFBBHIMPGKH",
        "scaleZ": 0.4000000059604645
      }
    },
    "combat": {
      "property": {
        "useCreatorProperty": true,
        "hp": 999999.0,
        "attack": 10.0,
        "defense": 999999.0,
        "isLockHP": true
      },
      "beHit": {
        "hitBloodEffect": "",
        "muteAllHit": true,
        "muteAllHitEffect": true,
        "muteAllHitText": true
      },
      "combatLock": {
        "lockShape": "CircleLockEnemy",
        "denyLockOn": true,
        "lockType": "Default"
      }
    },
    "combatTemplate": "",
    "abilities": [
      {
        "abilityID": "ElementalEffect",
        "abilityName": "Thoarder_Bomb_ElementalEffect_Water",
        "abilityOverride": ""
      }
    ],
    "timer": {
      "lifeTime": 3.5
    }
  },
  "Thoarder_Bomb_ElementalEffect_Ice": {
    "$type": "PAAKDFFLFIN",
    "common": {
      "effectAttachShape": {
        "$type": "AFBBHIMPGKH",
        "scaleZ": 0.4000000059604645
      }
    },
    "combat": {
      "property": {
        "useCreatorProperty": true,
        "hp": 999999.0,
        "attack": 10.0,
        "defense": 999999.0,
        "isLockHP": true
      },
      "beHit": {
        "hitBloodEffect": "",
        "muteAllHit": true,
        "muteAllHitEffect": true,
        "muteAllHitText": true
      },
      "combatLock": {
        "lockShape": "CircleLockEnemy",
        "denyLockOn": true,
        "lockType": "Default"
      }
    },
    "combatTemplate": "",
    "abilities": [
      {
        "abilityID": "ElementalEffect",
        "abilityName": "Thoarder_Bomb_ElementalEffect_Ice",
        "abilityOverride": ""
      }
    ],
    "timer": {
      "lifeTime": 3.5
    }
  },
  "Thoarder_Bomb_ElementalEffect_Electric": {
    "$type": "PAAKDFFLFIN",
    "common": {
      "effectAttachShape": {
        "$type": "AFBBHIMPGKH",
        "scaleZ": 0.4000000059604645
      }
    },
    "combat": {
      "property": {
        "useCreatorProperty": true,
        "hp": 999999.0,
        "attack": 10.0,
        "defense": 999999.0,
        "isLockHP": true
      },
      "beHit": {
        "hitBloodEffect": "",
        "muteAllHit": true,
        "muteAllHitEffect": true,
        "muteAllHitText": true
      },
      "combatLock": {
        "lockShape": "CircleLockEnemy",
        "denyLockOn": true,
        "lockType": "Default"
      }
    },
    "combatTemplate": "",
    "abilities": [
      {
        "abilityID": "ElementalEffect",
        "abilityName": "Thoarder_Bomb_ElementalEffect_Electric",
        "abilityOverride": ""
      }
    ],
    "timer": {
      "lifeTime": 3.5
    }
  },
  "Thoarder_Shovel_MuddyBullet": {
    "$type": "PAAKDFFLFIN",
    "common": {
      "effectAttachShape": {
        "$type": "AFBBHIMPGKH",
        "scaleZ": 0.4000000059604645
      }
    },
    "combat": {
      "property": {
        "useCreatorProperty": true,
        "hp": 999999.0,
        "attack": 10.0,
        "defense": 999999.0,
        "isLockHP": true
      },
      "beHit": {
        "hitBloodEffect": "",
        "muteAllHit": true,
        "muteAllHitEffect": true,
        "muteAllHitText": true
      },
      "combatLock": {
        "lockShape": "CircleLockEnemy",
        "denyLockOn": true,
        "lockType": "Default"
      }
    },
    "combatTemplate": "",
    "abilities": [
      {
        "abilityID": "MuddyBullet_Loop",
        "abilityName": "Thoarder_MuddyBullet_Loop",
        "abilityOverride": ""
      },
      {
        "abilityID": "MuddyBullet_OnHit",
        "abilityName": "Thoarder_MuddyBullet_OnHit",
        "abilityOverride": ""
      }
    ],
    "timer": {
      "lifeTime": 5.0
    },
    "move": {
      "$type": "EBELDBHINMB",
      "speed": 20.0,
      "LADLDOGAMLI": {
        "$type": "GLPIGCIKICP"
      },
      "angleOffHor": 36.0,
      "gravityOfAcceleration": 15.0,
      "correction": {
        "$type": "ELDDGNNGEAK",
        "deviation": 0.75,
        "fixAngleOfVer": 15.0,
        "minSpeed": 4.0,
        "maxSpeed": 24.0
      }
    },
    "gadget": {
      "$type": "INBEOAJKHGD",
      "collision": {
        "targetType": "Enemy"
      },
      "triggerActions": [
        {
          "$type": "HEAANEHEBIK",
          "abilityName": "Thoarder_MuddyBullet_OnHit"
        }
      ],
      "killByOther": true
    }
  },
  "Thoarder_Fat_Shovel_MuddyBullet": {
    "$type": "PAAKDFFLFIN",
    "common": {
      "effectAttachShape": {
        "$type": "AFBBHIMPGKH",
        "scaleZ": 0.4000000059604645
      }
    },
    "combat": {
      "property": {
        "useCreatorProperty": true,
        "hp": 999999.0,
        "attack": 10.0,
        "defense": 999999.0,
        "isLockHP": true
      },
      "beHit": {
        "hitBloodEffect": "",
        "muteAllHit": true,
        "muteAllHitEffect": true,
        "muteAllHitText": true
      },
      "combatLock": {
        "lockShape": "CircleLockEnemy",
        "denyLockOn": true,
        "lockType": "Default"
      }
    },
    "combatTemplate": "",
    "abilities": [
      {
        "abilityID": "MuddyBullet_Loop",
        "abilityName": "Thoarder_StoneBullet_Loop",
        "abilityOverride": ""
      },
      {
        "abilityID": "MuddyBullet_OnHit",
        "abilityName": "Monster_Thoarder_Male_Fat_Shovel_MuddyBullet_OnHit",
        "abilityOverride": ""
      }
    ],
    "timer": {
      "lifeTime": 5.0
    },
    "move": {
      "$type": "EBELDBHINMB",
      "speed": 40.0,
      "LADLDOGAMLI": {
        "$type": "GLPIGCIKICP"
      },
      "angleOffHor": 30.0,
      "gravityOfAcceleration": 20.0,
      "correction": {
        "$type": "ELDDGNNGEAK",
        "deviation": 5.0,
        "fixAngleOfVer": 20.0,
        "minSpeed": 4.0,
        "maxSpeed": 24.0
      }
    },
    "gadget": {
      "$type": "INBEOAJKHGD",
      "collision": {
        "targetType": "Enemy"
      },
      "triggerActions": [
        {
          "$type": "HEAANEHEBIK",
          "abilityName": "Monster_Thoarder_Male_Fat_Shovel_MuddyBullet_OnHit"
        }
      ],
      "killByOther": true
    }
  },
  "Thoarder_HatchetThrow": {
    "$type": "PAAKDFFLFIN",
    "common": {
      "effectAttachShape": {
        "$type": "AFBBHIMPGKH",
        "scaleZ": 0.4000000059604645
      }
    },
    "combat": {
      "property": {
        "useCreatorProperty": true,
        "hp": 999999.0,
        "attack": 10.0,
        "defense": 999999.0,
        "isLockHP": true
      },
      "beHit": {
        "hitBloodEffect": "",
        "muteAllHit": true,
        "muteAllHitEffect": true,
        "muteAllHitText": true
      },
      "combatLock": {
        "lockShape": "CircleLockEnemy",
        "denyLockOn": true,
        "lockType": "Default"
      }
    },
    "combatTemplate": "",
    "abilities": [
      {
        "abilityID": "HatchetThrow_Loop",
        "abilityName": "Thoarder_HatchetThrow_Loop",
        "abilityOverride": ""
      },
      {
        "abilityID": "HatchetThrow_Damage",
        "abilityName": "Thoarder_HatchetThrow_Damage",
        "abilityOverride": ""
      }
    ],
    "timer": {
      "lifeTime": 5.0
    },
    "move": {
      "$type": "EBELDBHINMB",
      "speed": 20.0,
      "LADLDOGAMLI": {
        "$type": "GLPIGCIKICP"
      },
      "angleOffHor": 36.0,
      "gravityOfAcceleration": 15.0,
      "correction": {
        "$type": "ELDDGNNGEAK",
        "deviation": 0.75,
        "fixAngleOfVer": 15.0,
        "minSpeed": 4.0,
        "maxSpeed": 24.0
      }
    },
    "gadget": {
      "$type": "INBEOAJKHGD",
      "collision": {
        "triggerType": "TriggerNoRepeat",
        "triggerCD": 0.10000000149011612,
        "targetType": "Enemy"
      },
      "triggerActions": [
        {
          "$type": "HEAANEHEBIK",
          "abilityName": "Thoarder_HatchetThrow_Damage"
        }
      ],
      "killByOther": true
    }
  },
  "Thoarder_HatchetThrow_Plus": {
    "$type": "PAAKDFFLFIN",
    "common": {
      "effectAttachShape": {
        "$type": "AFBBHIMPGKH",
        "scaleZ": 0.4000000059604645
      }
    },
    "combat": {
      "property": {
        "useCreatorProperty": true,
        "hp": 999999.0,
        "attack": 10.0,
        "defense": 999999.0,
        "isLockHP": true
      },
      "beHit": {
        "hitBloodEffect": "",
        "muteAllHit": true,
        "muteAllHitEffect": true,
        "muteAllHitText": true
      },
      "combatLock": {
        "lockShape": "CircleLockEnemy",
        "denyLockOn": true,
        "lockType": "Default"
      }
    },
    "combatTemplate": "",
    "abilities": [
      {
        "abilityID": "HatchetThrow_Loop",
        "abilityName": "Thoarder_HatchetThrow_Bullet",
        "abilityOverride": ""
      },
      {
        "abilityID": "HatchetThrow_Damage",
        "abilityName": "Thoarder_Female_Hatchet_Anego_ThrowPlus_Damage",
        "abilityOverride": ""
      }
    ],
    "timer": {
      "lifeTime": 5.0
    },
    "move": {
      "$type": "EBELDBHINMB",
      "speed": 20.0,
      "LADLDOGAMLI": {
        "$type": "GLPIGCIKICP"
      },
      "angleOffHor": 36.0,
      "gravityOfAcceleration": 20.0,
      "correction": {
        "$type": "ELDDGNNGEAK",
        "deviation": 0.25,
        "fixAngleOfVer": 15.0,
        "minSpeed": 4.0,
        "maxSpeed": 40.0
      }
    },
    "gadget": {
      "$type": "INBEOAJKHGD",
      "collision": {
        "targetType": "Enemy"
      },
      "triggerActions": [
        {
          "$type": "HEAANEHEBIK",
          "abilityName": "Thoarder_Female_Hatchet_Anego_ThrowPlus_Damage"
        }
      ],
      "killByOther": true
    }
  },
  "Thoarder_HatchetThrow_New": {
    "$type": "PAAKDFFLFIN",
    "common": {
      "effectAttachShape": {
        "$type": "AFBBHIMPGKH",
        "scaleZ": 0.4000000059604645
      }
    },
    "combat": {
      "property": {
        "useCreatorProperty": true,
        "hp": 999999.0,
        "attack": 10.0,
        "defense": 999999.0,
        "isLockHP": true
      },
      "beHit": {
        "hitBloodEffect": "",
        "muteAllHit": true,
        "muteAllHitEffect": true,
        "muteAllHitText": true
      },
      "combatLock": {
        "lockShape": "CircleLockEnemy",
        "denyLockOn": true,
        "lockType": "Default"
      }
    },
    "combatTemplate": "",
    "abilities": [
      {
        "abilityID": "HatchetThrow_Loop",
        "abilityName": "Thoarder_HatchetThrow_Bullet",
        "abilityOverride": ""
      },
      {
        "abilityID": "HatchetThrow_Damage",
        "abilityName": "Thoarder_Female_Hatchet_Anego_ThrowPlus_Damage_V2",
        "abilityOverride": ""
      }
    ],
    "timer": {
      "lifeTime": 5.0
    },
    "move": {
      "$type": "EBELDBHINMB",
      "speed": 30.0,
      "LADLDOGAMLI": {
        "$type": "GLPIGCIKICP"
      },
      "angleOffHor": 20.0,
      "gravityOfAcceleration": 30.0,
      "correction": {
        "$type": "ELDDGNNGEAK",
        "deviation": 0.25,
        "fixAngleOfVer": 15.0,
        "minSpeed": 10.0,
        "maxSpeed": 50.0
      }
    },
    "gadget": {
      "$type": "INBEOAJKHGD",
      "collision": {
        "ccd": {
          "KPGKDHAFHFE": "Always"
        },
        "targetType": "Enemy"
      },
      "triggerActions": [
        {
          "$type": "HEAANEHEBIK",
          "abilityName": "Thoarder_Female_Hatchet_Anego_ThrowPlus_Damage_V2"
        }
      ],
      "killByOther": true
    }
  },
  "Thoarder_HammerThrow": {
    "$type": "PAAKDFFLFIN",
    "common": {
      "effectAttachShape": {
        "$type": "AFBBHIMPGKH",
        "scaleX": 2.0,
        "scaleY": 2.0,
        "scaleZ": 0.800000011920929
      }
    },
    "combat": {
      "property": {
        "useCreatorProperty": true,
        "hp": 999999.0,
        "attack": 10.0,
        "defense": 999999.0,
        "isLockHP": true
      },
      "beHit": {
        "hitBloodEffect": "",
        "muteAllHit": true,
        "muteAllHitEffect": true,
        "muteAllHitText": true
      },
      "combatLock": {
        "lockShape": "CircleLockEnemy",
        "denyLockOn": true,
        "lockType": "Default"
      }
    },
    "combatTemplate": "",
    "abilities": [
      {
        "abilityID": "HatchetThrow_Loop",
        "abilityName": "Thoarder_HatchetThrow_Loop",
        "abilityOverride": ""
      },
      {
        "abilityID": "HatchetThrow_Damage",
        "abilityName": "Thoarder_HatchetThrow_Damage",
        "abilityOverride": ""
      }
    ],
    "timer": {
      "lifeTime": 5.0
    },
    "move": {
      "$type": "EBELDBHINMB",
      "speed": 50.0,
      "LADLDOGAMLI": {
        "$type": "GLPIGCIKICP"
      },
      "angleOffHor": 5.0,
      "gravityOfAcceleration": 50.0,
      "correction": {
        "$type": "ELDDGNNGEAK",
        "deviation": 0.25,
        "fixAngleOfVer": 15.0,
        "minSpeed": 30.0,
        "maxSpeed": 50.0
      }
    },
    "gadget": {
      "$type": "INBEOAJKHGD",
      "collision": {
        "triggerType": "TriggerNoRepeat",
        "targetType": "Enemy"
      },
      "triggerActions": [
        {
          "$type": "HEAANEHEBIK",
          "abilityName": "Thoarder_HatchetThrow_Damage"
        }
      ],
      "killByOther": true
    }
  },
  "Thoarder_Slippie_Fire_Arrow": {
    "$type": "PAAKDFFLFIN",
    "common": {
      "effectAttachShape": {
        "$type": "AFBBHIMPGKH",
        "scaleX": 0.5,
        "scaleY": 0.5
      }
    },
    "combat": {
      "property": {
        "useCreatorProperty": true,
        "isLockHP": true,
        "canTriggerBullet": false
      },
      "beHit": {
        "hitBloodEffect": "",
        "muteAllHit": true,
        "muteAllHitEffect": true,
        "muteAllHitText": true
      },
      "combatLock": {
        "lockShape": "CircleLockEnemy",
        "denyLockOn": true,
        "lockType": "Default"
      }
    },
    "combatTemplate": "",
    "abilities": [
      {
        "abilityID": "Damage",
        "abilityName": "Thoarder_Male_Slippie_FireArrow_Damage",
        "abilityOverride": ""
      }
    ],
    "timer": {
      "lifeTime": 8.0
    },
    "move": {
      "$type": "KPMONKJIGAM",
      "speed": 30.0,
      "LADLDOGAMLI": {
        "$type": "GLPIGCIKICP"
      },
      "straightRange": 40.0,
      "gravityOfAcceleration": 10.0,
      "airResistance": 0.009999999776482582
    },
    "gadget": {
      "$type": "INBEOAJKHGD",
      "collision": {
        "targetType": "Enemy"
      },
      "triggerActions": [
        {
          "$type": "HEAANEHEBIK",
          "abilityName": "Thoarder_Male_Slippie_FireArrow_Damage"
        }
      ]
    }
  },
  "Thoarder_ThrowingKnife_ShootingActivity": {
    "$type": "PAAKDFFLFIN",
    "common": {
      "effectAttachShape": {
        "$type": "AFBBHIMPGKH",
        "scaleX": 0.5,
        "scaleY": 0.5
      },
      "disableTickDistance": 10000.0
    },
    "combat": {
      "property": {
        "useCreatorProperty": true,
        "isLockHP": true,
        "canTriggerBullet": false
      },
      "beHit": {
        "hitBloodEffect": "",
        "muteAllHit": true,
        "muteAllHitEffect": true,
        "muteAllHitText": true
      },
      "combatLock": {
        "lockShape": "CircleLockEnemy",
        "denyLockOn": true,
        "lockType": "Default"
      },
      "animEvents": {
        "ATK01": {
          "attackPattern": {
            "$type": "CKCNJHBMNGJ",
            "triggerType": "TriggerNoRepeat",
            "born": {
              "$type": "AGPIGGAPILF",
              "offset": {
                "GOAPOLCAJBP": 0.0,
                "FMOPCJGGFMH": 0.0,
                "EJJEPFCDDAM": -0.5
              }
            },
            "size": {
              "GOAPOLCAJBP": 0.10000000149011612,
              "FMOPCJGGFMH": 0.10000000149011612,
              "EJJEPFCDDAM": 1.0
            }
          },
          "attackInfo": {
            "attackTag": "",
            "attenuationTag": "",
            "attenuationGroup": "default",
            "attackProperty": {
              "JMLMDDCBIAO": 0.5,
              "damagePercentageRatio": 0.0,
              "elementDurability": 100.0,
              "strikeType": "Pierce",
              "enBreak": 50.0,
              "damagePercentage": 0.0
            },
            "hitPattern": {
              "onHitEffectName": "default",
              "hitImpulseY": "",
              "hitImpulseType": "LV2",
              "hitHaltTimeScale": 0.009999999776482582
            },
            "cameraShake": {
              "shakeRange": 0.05999999865889549,
              "shakeTime": 0.09000000357627869
            },
            "canBeModifiedBy": "OriginOwner"
          }
        }
      }
    },
    "combatTemplate": "",
    "abilities": [
      {
        "abilityID": "ThrowingKnife_Effect",
        "abilityName": "Thoarder_ThrowingKnife_Effect",
        "abilityOverride": ""
      }
    ],
    "timer": {
      "lifeTime": 8.0
    },
    "move": {
      "$type": "KPMONKJIGAM",
      "speed": 30.0,
      "LADLDOGAMLI": {
        "$type": "GLPIGCIKICP"
      },
      "straightRange": 40.0,
      "gravityOfAcceleration": 10.0,
      "airResistance": 0.009999999776482582
    },
    "gadget": {
      "$type": "INBEOAJKHGD",
      "collision": {
        "targetType": "Enemy"
      },
      "triggerActions": [
        {
          "$type": "JLJCHBAEAMN",
          "attackEvent": "ATK01"
        }
      ]
    }
  }
}