{
  "Cicin_IceSpear": {
    "$type": "PAAKDFFLFIN",
    "common": {
      "effectAttachShape": {
        "$type": "AFBBHIMPGKH"
      }
    },
    "combat": {
      "property": {
        "useCreatorProperty": true,
        "hp": 999999.0,
        "attack": 10.0,
        "defense": 999999.0,
        "isInvincible": true,
        "isGhostToAllied": true,
        "isGhostToEnemy": true
      },
      "beHit": {
        "hitBloodEffect": "",
        "muteAllHit": true,
        "muteAllHitEffect": true,
        "muteAllHitText": true
      },
      "combatLock": {
        "lockShape": "CircleLockEnemy",
        "denyLockOn": true,
        "lockType": "Default"
      }
    },
    "combatTemplate": "",
    "abilities": [
      {
        "abilityID": "Monster_Cicin_IceSpear_Hit",
        "abilityName": "Monster_Cicin_Ice_IceSpear_Hit",
        "abilityOverride": ""
      }
    ],
    "timer": {
      "lifeTime": 4.0
    },
    "move": {
      "$type": "KPMONKJIGAM",
      "speed": 15.0,
      "LADLDOGAMLI": {
        "$type": "GLPIGCIKICP"
      },
      "straightRange": 15.0,
      "gravityOfAcceleration": 10.0,
      "airResistance": 0.009999999776482582
    },
    "gadget": {
      "$type": "INBEOAJKHGD",
      "collision": {
        "targetType": "Enemy"
      },
      "triggerActions": [
        {
          "$type": "HEAANEHEBIK",
          "abilityName": "Monster_Cicin_Ice_IceSpear_Hit"
        }
      ],
      "triggerLifeOverActions": [
        {
          "$type": "HEAANEHEBIK",
          "abilityName": "Monster_Cicin_Ice_IceSpear_Hit"
        }
      ]
    }
  },
  "Cicin_IceShieldEnergy": {
    "$type": "PAAKDFFLFIN",
    "combat": {
      "property": {
        "useCreatorProperty": true,
        "hp": 999999.0,
        "attack": 10.0,
        "defense": 999999.0,
        "isInvincible": true,
        "isGhostToAllied": true,
        "isGhostToEnemy": true
      },
      "beHit": {
        "hitBloodEffect": "",
        "muteAllHit": true,
        "muteAllHitEffect": true,
        "muteAllHitText": true
      },
      "combatLock": {
        "lockShape": "CircleLockEnemy",
        "denyLockOn": true,
        "lockType": "Default"
      }
    },
    "combatTemplate": "",
    "abilities": [
      {
        "abilityID": "Monster_Cicin_IceShieldEnergyGet",
        "abilityName": "Monster_Cicin_IceShieldEnergyGet",
        "abilityOverride": ""
      },
      {
        "abilityID": "Monster_Cicin_IceShieldEnergyGetFail",
        "abilityName": "Monster_Cicin_IceShieldEnergyGetFail",
        "abilityOverride": ""
      }
    ],
    "timer": {
      "lifeTime": 4.0
    },
    "move": {
      "$type": "MEFFBNAGNKM",
      "speed": 5.0,
      "acceleration": 7.5,
      "LADLDOGAMLI": {
        "$type": "GLPIGCIKICP"
      },
      "destroyWhenTargetDie": true,
      "traceOnYAxis": true
    },
    "gadget": {
      "$type": "INBEOAJKHGD",
      "collision": {
        "triggerType": "TriggerNoRepeat",
        "targetType": "Alliance"
      },
      "triggerActions": [
        {
          "$type": "HEAANEHEBIK",
          "abilityName": "Monster_Cicin_IceShieldEnergyGet"
        }
      ],
      "triggerLifeOverActions": [
        {
          "$type": "HEAANEHEBIK",
          "abilityName": "Monster_Cicin_IceShieldEnergyGetFail"
        }
      ],
      "killByOther": true
    }
  },
  "Cicin_ElectricBall": {
    "$type": "PAAKDFFLFIN",
    "common": {
      "effectAttachShape": {
        "$type": "AFBBHIMPGKH"
      }
    },
    "combat": {
      "property": {
        "useCreatorProperty": true,
        "hp": 999999.0,
        "attack": 10.0,
        "defense": 999999.0,
        "isInvincible": true,
        "isGhostToAllied": true,
        "isGhostToEnemy": true
      },
      "beHit": {
        "hitBloodEffect": "",
        "muteAllHit": true,
        "muteAllHitEffect": true,
        "muteAllHitText": true
      },
      "combatLock": {
        "lockShape": "CircleLockEnemy",
        "denyLockOn": true,
        "lockType": "Default"
      }
    },
    "combatTemplate": "",
    "abilities": [
      {
        "abilityID": "Monster_Cicin_ElectricBall_Hit",
        "abilityName": "Monster_Cicin_ElectricBall_Hit",
        "abilityOverride": ""
      },
      {
        "abilityID": "Monster_Cicin_ElectricBall_Effect",
        "abilityName": "Monster_Cicin_ElectricBall_Effect",
        "abilityOverride": ""
      }
    ],
    "timer": {
      "lifeTime": 4.0
    },
    "move": {
      "$type": "KPMONKJIGAM",
      "speed": 15.0,
      "LADLDOGAMLI": {
        "$type": "GLPIGCIKICP"
      },
      "straightRange": 15.0,
      "gravityOfAcceleration": 10.0,
      "airResistance": 0.009999999776482582
    },
    "gadget": {
      "$type": "INBEOAJKHGD",
      "collision": {
        "targetType": "Enemy"
      },
      "triggerActions": [
        {
          "$type": "HEAANEHEBIK",
          "abilityName": "Monster_Cicin_ElectricBall_Hit"
        }
      ],
      "triggerLifeOverActions": [
        {
          "$type": "HEAANEHEBIK",
          "abilityName": "Monster_Cicin_ElectricBall_Hit"
        }
      ]
    }
  },
  "Cicin_BlinkPoint": {
    "$type": "PAAKDFFLFIN",
    "combat": {
      "property": {
        "useCreatorProperty": true,
        "hp": 100.0,
        "attack": 10.0,
        "isInvincible": true,
        "isGhostToAllied": true,
        "isGhostToEnemy": true,
        "canTriggerBullet": false
      },
      "combatLock": {
        "lockShape": "CircleLockEnemy",
        "denyLockOn": true,
        "lockType": "Default"
      }
    },
    "combatTemplate": "",
    "timer": {
      "lifeTime": 15.0
    }
  },
  "Fatuus_Summoner_ElectricField": {
    "$type": "PAAKDFFLFIN",
    "common": {
      "effectAttachShape": {
        "$type": "AFBBHIMPGKH"
      }
    },
    "combat": {
      "property": {
        "useCreatorProperty": true,
        "hp": 999999.0,
        "attack": 15.0,
        "defense": 999999.0,
        "isGhostToAllied": true,
        "isGhostToEnemy": true,
        "canTriggerBullet": false
      },
      "beHit": {
        "hitBloodEffect": "",
        "muteAllHit": true,
        "muteAllHitEffect": true,
        "muteAllHitText": true
      },
      "combatLock": {
        "lockShape": "CircleLockEnemy",
        "denyLockOn": true,
        "lockType": "Default"
      }
    },
    "combatTemplate": "",
    "abilities": [
      {
        "abilityID": "Fatuus_Summoner_RangeAtk_Damage",
        "abilityName": "Fatuus_Summoner_RangeAtk_Damage",
        "abilityOverride": ""
      }
    ],
    "timer": {
      "lifeTime": 15.0
    }
  },
  "Fatuus_Summoner_LifeSkill": {
    "$type": "PAAKDFFLFIN",
    "combat": {
      "property": {
        "useCreatorProperty": true,
        "hp": 100.0,
        "attack": 10.0,
        "isInvincible": true,
        "isGhostToAllied": true,
        "isGhostToEnemy": true,
        "canTriggerBullet": false
      },
      "combatLock": {
        "lockShape": "CircleLockEnemy",
        "denyLockOn": true,
        "lockType": "Default"
      }
    },
    "combatTemplate": "",
    "abilities": [
      {
        "abilityID": "Fatuus_Summoner_Random2_Timer",
        "abilityName": "Fatuus_Summoner_Random2_Timer",
        "abilityOverride": ""
      }
    ],
    "timer": {
      "lifeTime": 6.0
    }
  },
  "Cicin_ThunderEnergy": {
    "$type": "PAAKDFFLFIN",
    "combat": {
      "property": {
        "useCreatorProperty": true,
        "hp": 999999.0,
        "attack": 10.0,
        "defense": 999999.0,
        "isInvincible": true,
        "isGhostToAllied": true,
        "isGhostToEnemy": true
      },
      "beHit": {
        "hitBloodEffect": "",
        "muteAllHit": true,
        "muteAllHitEffect": true,
        "muteAllHitText": true
      },
      "combatLock": {
        "lockShape": "CircleLockEnemy",
        "denyLockOn": true,
        "lockType": "Default"
      }
    },
    "combatTemplate": "",
    "abilities": [
      {
        "abilityID": "Monster_Cicin_ThunderEnergy",
        "abilityName": "Monster_Cicin_ThunderEnergy",
        "abilityOverride": ""
      },
      {
        "abilityID": "Monster_Cicin_ThunderEnergyAS",
        "abilityName": "Monster_Cicin_ThunderEnergyAS",
        "abilityOverride": ""
      }
    ],
    "timer": {
      "lifeTime": 4.0
    },
    "move": {
      "$type": "MEFFBNAGNKM",
      "speed": 5.0,
      "acceleration": 7.5,
      "LADLDOGAMLI": {
        "$type": "GLPIGCIKICP"
      },
      "destroyWhenTargetDie": true,
      "traceOnYAxis": true
    },
    "gadget": {
      "$type": "INBEOAJKHGD",
      "collision": {
        "triggerType": "TriggerNoRepeat",
        "targetType": "AllExceptSelf"
      },
      "triggerActions": [
        {
          "$type": "HEAANEHEBIK",
          "abilityName": "Monster_Cicin_ThunderEnergy"
        }
      ],
      "triggerLifeOverActions": [
        {
          "$type": "HEAANEHEBIK",
          "abilityName": "Monster_Cicin_ThunderEnergyAS"
        }
      ],
      "killByOther": true
    }
  },
  "Cicin_WaterBall": {
    "$type": "PAAKDFFLFIN",
    "common": {
      "effectAttachShape": {
        "$type": "AFBBHIMPGKH"
      }
    },
    "combat": {
      "property": {
        "useCreatorProperty": true,
        "hp": 999999.0,
        "attack": 10.0,
        "defense": 999999.0,
        "isInvincible": true,
        "isGhostToAllied": true,
        "isGhostToEnemy": true
      },
      "beHit": {
        "hitBloodEffect": "",
        "muteAllHit": true,
        "muteAllHitEffect": true,
        "muteAllHitText": true
      },
      "combatLock": {
        "lockShape": "CircleLockEnemy",
        "denyLockOn": true,
        "lockType": "Default"
      }
    },
    "combatTemplate": "",
    "abilities": [
      {
        "abilityID": "Monster_Cicin_WaterBall_Hit",
        "abilityName": "Monster_Cicin_WaterBall_Hit",
        "abilityOverride": ""
      },
      {
        "abilityID": "Monster_Cicin_WaterBall_Effect",
        "abilityName": "Monster_Cicin_WaterBall_Effect",
        "abilityOverride": ""
      }
    ],
    "timer": {
      "lifeTime": 4.0
    },
    "move": {
      "$type": "KPMONKJIGAM",
      "speed": 15.0,
      "LADLDOGAMLI": {
        "$type": "GLPIGCIKICP"
      },
      "straightRange": 15.0,
      "gravityOfAcceleration": 10.0,
      "airResistance": 0.009999999776482582
    },
    "gadget": {
      "$type": "INBEOAJKHGD",
      "collision": {
        "targetType": "Enemy"
      },
      "triggerActions": [
        {
          "$type": "HEAANEHEBIK",
          "abilityName": "Monster_Cicin_WaterBall_Hit"
        }
      ],
      "triggerLifeOverActions": [
        {
          "$type": "HEAANEHEBIK",
          "abilityName": "Monster_Cicin_WaterBall_Hit"
        }
      ]
    }
  }
}