{
  "SceneObj_Gear_Combat_Spray_Fire_Rotating": {
    "$type": "IOHCOOOBCPH",
    "common": {
      "effectAttachShape": {
        "$type": "PBGINMMOLDC",
        "OBEFFBEFICB": 0.4000000059604645
      }
    },
    "combat": {
      "property": {
        "HP": 99999.0,
        "attack": 200.0,
        "weight": 50.0,
        "isLockHP": true,
        "canTriggerBullet": true
      },
      "beHit": {
        "hitBloodEffect": "",
        "hitAutoRedirect": false,
        "muteAllHitText": true
      },
      "combatLock": {
        "lockShape": "CircleLockEnemy",
        "lockType": "Gadget_Lv1"
      },
      "die": {
        "dieForceDisappearTime": 3.0,
        "dieDisappearEffect": ""
      }
    },
    "attackAttenuation": "",
    "abilities": [
      {
        "abilityID": "FireSpray",
        "abilityName": "SceneObj_Gear_Combat_Spray_Fire_Rotating",
        "abilityOverride": ""
      }
    ],
    "stateLayers": {
      "defaultLayer": {
        "$type": "KFHJINNNDPN",
        "BOPIBFKFKCA": "",
        "stateIDs": {
          "Stop": {
            "$type": "ILLKEGMDAEF",
            "HKPCLGHBKFD": {
              "Ani_Gear_Spray_End": [
                "Audio_Gear_Spray_Ice_End",
                "Audio_Gear_Spray_Ice_Loop_End"
              ],
              "Ani_Gear_Spray_Rest": []
            },
            "ADPGACLPFHN": [
              "DoSkill"
            ]
          },
          "Start": {
            "$type": "ILLKEGMDAEF",
            "HKPCLGHBKFD": {
              "Ani_Gear_Spray_Active": []
            },
            "ADPGACLPFHN": [
              "DoSkill"
            ]
          },
          "Idle": {
            "$type": "ILLKEGMDAEF",
            "HKPCLGHBKFD": {
              "Ani_Gear_Spray_Start": [
                "Audio_Gear_Spray_Ice_Start"
              ]
            },
            "ADPGACLPFHN": [
              "DoSkill"
            ]
          }
        }
      }
    },
    "NEPNGCGEAOL": {
      "MJDNEHMOFEA": [
        {
          "$type": "FHCNELPNCPL",
          "intID": "GadgetState"
        },
        {
          "$type": "FHCNELPNCPL",
          "GEBLEANKIHJ": "GearStart",
          "intID": "GadgetState",
          "value": 201
        },
        {
          "$type": "FHCNELPNCPL",
          "GEBLEANKIHJ": "GearStop",
          "intID": "GadgetState"
        }
      ]
    }
  },
  "SceneObj_Gear_Combat_Spray_Fire": {
    "$type": "IOHCOOOBCPH",
    "common": {
      "effectAttachShape": {
        "$type": "DNEEEIMONPN",
        "EJAEFCDBDFB": "EffectMesh"
      },
      "affectedByWorld": true
    },
    "KNGBEDDABOM": true,
    "combat": {
      "property": {
        "HP": 99999.0,
        "attack": 200.0,
        "weight": 50.0,
        "isLockHP": true,
        "JPJIIBGCMJD": true
      },
      "beHit": {
        "hitBloodEffect": "",
        "hitAutoRedirect": false,
        "muteAllHitText": true
      },
      "combatLock": {
        "lockShape": "CircleLockEnemy",
        "lockType": "Gadget_Lv1"
      },
      "die": {
        "dieForceDisappearTime": 3.0,
        "dieDisappearEffect": ""
      }
    },
    "attackAttenuation": "",
    "abilities": [
      {
        "abilityID": "FireSpray",
        "abilityName": "SceneObj_Gear_Combat_Spray_Fire",
        "abilityOverride": ""
      }
    ],
    "stateLayers": {
      "defaultLayer": {
        "$type": "KFHJINNNDPN",
        "BOPIBFKFKCA": "",
        "stateIDs": {
          "Stop": {
            "$type": "ILLKEGMDAEF",
            "HKPCLGHBKFD": {
              "Ani_Gear_Spray_End": [
                "Audio_Gear_Spray_Ice_End",
                "Audio_Gear_Spray_Ice_Loop_End"
              ],
              "Ani_Gear_Spray_Rest": []
            },
            "ADPGACLPFHN": [
              "DoSkill"
            ]
          },
          "Start": {
            "$type": "ILLKEGMDAEF",
            "HKPCLGHBKFD": {
              "Ani_Gear_Spray_Active": []
            },
            "ADPGACLPFHN": [
              "DoSkill"
            ]
          },
          "Idle": {
            "$type": "ILLKEGMDAEF",
            "HKPCLGHBKFD": {
              "Ani_Gear_Spray_Start": [
                "Audio_Gear_Spray_Ice_Start"
              ]
            },
            "ADPGACLPFHN": [
              "DoSkill"
            ]
          }
        }
      }
    },
    "NEPNGCGEAOL": {
      "MJDNEHMOFEA": [
        {
          "$type": "FHCNELPNCPL",
          "intID": "GadgetState"
        },
        {
          "$type": "FHCNELPNCPL",
          "GEBLEANKIHJ": "GearStart",
          "intID": "GadgetState",
          "value": 201
        },
        {
          "$type": "FHCNELPNCPL",
          "GEBLEANKIHJ": "GearStop",
          "intID": "GadgetState"
        }
      ]
    }
  },
  "SceneObj_Gear_Combat_Shooter_Elec": {
    "$type": "IOHCOOOBCPH",
    "common": {
      "effectAttachShape": {
        "$type": "PBGINMMOLDC",
        "OBEFFBEFICB": 0.4000000059604645
      }
    },
    "headControl": {
      "$type": "HLGPLMCNIFB",
      "useHeadControl": true,
      "BADCMJGBCHM": 60.0
    },
    "combat": {
      "property": {
        "HP": 99999.0,
        "attack": 150.0,
        "weight": 50.0,
        "isLockHP": true,
        "canTriggerBullet": true
      },
      "beHit": {
        "hitBloodEffect": "",
        "hitAutoRedirect": false,
        "muteAllHitText": true
      },
      "combatLock": {
        "lockShape": "CircleLockEnemy",
        "denyLockOn": true,
        "lockType": "Gadget_Lv1"
      },
      "die": {
        "dieForceDisappearTime": 3.0,
        "dieDisappearEffect": ""
      }
    },
    "attackAttenuation": "",
    "abilities": [
      {
        "abilityID": "Shooter_Shoot",
        "abilityName": "SceneObj_Gear_Combat_Shoot_Elec_test",
        "abilityOverride": ""
      },
      {
        "abilityID": "Shooter_DenyLockOn",
        "abilityName": "SceneObj_Gear_Combat_Shoot_Denylockon",
        "abilityOverride": ""
      },
      {
        "abilityID": "Shooter_Charging",
        "abilityName": "SceneObj_Gear_Combat_Shoot_Charging",
        "abilityOverride": ""
      },
      {
        "abilityID": "Shooter_Warning",
        "abilityName": "SceneObj_Gear_Combat_Shoot_Warning",
        "abilityOverride": ""
      },
      {
        "abilityID": "Shooter_Aiming",
        "abilityName": "SceneObj_Gear_Combat_Shoot_Aiming",
        "abilityOverride": ""
      }
    ],
    "DDOEFBHBEPJ": {
      "MBCCKAODCDE": {
        "JEGCLBDHDLB": "Ray",
        "JODJJMBHFBM": "Electric",
        "NBHINIIFLKL": 16,
        "OEPKBLJMNJA": 8
      },
      "HGJJHLBEICG": ""
    },
    "stateLayers": {
      "defaultLayer": {
        "$type": "KFHJINNNDPN",
        "BOPIBFKFKCA": "",
        "stateIDs": {
          "Born": {
            "$type": "ILLKEGMDAEF",
            "HKPCLGHBKFD": {
              "Ani_Gear_Shooter_Born": []
            },
            "ADPGACLPFHN": [
              "DoSkill"
            ]
          },
          "Normal": {
            "$type": "ILLKEGMDAEF",
            "HKPCLGHBKFD": {
              "Ani_Gear_Shooter_Sleep": []
            },
            "KNOHBHKACHA": true,
            "ADPGACLPFHN": [
              "DoSkill"
            ]
          },
          "Active": {
            "$type": "ILLKEGMDAEF",
            "HKPCLGHBKFD": {
              "Ani_Gear_Shooter_Activing": []
            },
            "KNOHBHKACHA": true,
            "ADPGACLPFHN": [
              "DoSkill"
            ]
          },
          "Charge": {
            "$type": "ILLKEGMDAEF",
            "HKPCLGHBKFD": {
              "Ani_Gear_Shooter_Charge": []
            },
            "ADPGACLPFHN": [
              "DoSkill"
            ]
          },
          "Shoot": {
            "$type": "ILLKEGMDAEF",
            "HKPCLGHBKFD": {
              "Ani_Gear_Shooter_Shoot": [
                "Gear_Shooter_Elec"
              ]
            },
            "ADPGACLPFHN": [
              "DoSkill"
            ]
          }
        }
      }
    },
    "aibeta": {
      "enable": true,
      "moveSetting": {
        "enable": false,
        "navMeshAgentName": "Undead01"
      },
      "sensing": {
        "settings": {
          "DefaultSetting": {
            "viewRange": 15.0,
            "horizontalFov": 180.0,
            "verticalFov": 30.0,
            "feelRange": 2.0
          }
        }
      },
      "threat": {
        "clearThreatTargetDistance": 15.0,
        "clearThreatEdgeDistance": 0.0,
        "clearThreatTimerByDistance": 0.10000000149011612,
        "viewThreatGrow": 20.0,
        "feelThreatGrow": 20.0,
        "threatDecreaseSpeed": 10.0
      },
      "defendArea": {
        "defendRange": 15.0
      },
      "skills": {
        "1": {
          "name": "Shoot",
          "castCondition": {
            "pose": [
              3
            ],
            "maxTargetAngleXZ": 50.0,
            "pickRangeMax": 20.0
          },
          "cd": 5.0,
          "cdUpperRange": 5.0,
          "publicCDGroup": "",
          "CLEPNIDJOLN": "",
          "stateIDs": [
            "Active"
          ],
          "flagTargetReachable": "10",
          "flagSelfOnTemplateCollider": "01",
          "flagSelfInZone": "10",
          "flagTargetInZone": "11"
        }
      }
    }
  },
  "SceneObj_Gear_Combat_Test_FM03": {
    "$type": "IOHCOOOBCPH",
    "common": {
      "effectAttachShape": {
        "$type": "PBGINMMOLDC",
        "OBEFFBEFICB": 0.4000000059604645
      }
    },
    "combat": {
      "property": {
        "HP": 99999.0,
        "attack": 200.0,
        "weight": 50.0,
        "isLockHP": true,
        "canTriggerBullet": true
      },
      "beHit": {
        "hitBloodEffect": "",
        "hitAutoRedirect": false,
        "muteAllHitText": true
      },
      "combatLock": {
        "lockShape": "CircleLockEnemy",
        "denyLockOn": true,
        "lockType": "Gadget_Lv1"
      }
    },
    "attackAttenuation": "",
    "abilities": [
      {
        "abilityID": "Ability_01",
        "abilityName": "SceneObj_Gear_Combat_Spray_Ice_Rotating",
        "abilityOverride": ""
      }
    ],
    "move": {
      "$type": "BELFBLEANMG",
      "target": "GroupGadgetEntity",
      "IIKEHINGEME": "FollowMove02",
      "ABIHJGPBBFD": true,
      "IHAJOCLBEOK": ""
    },
    "DDOEFBHBEPJ": {
      "HGJJHLBEICG": ""
    },
    "stateLayers": {
      "defaultLayer": {
        "$type": "KFHJINNNDPN",
        "BOPIBFKFKCA": "",
        "stateIDs": {
          "Attack": {
            "$type": "ILLKEGMDAEF",
            "HKPCLGHBKFD": {
              "Ani_Gear_Spray_End": [
                "Audio_Gear_Spray_Ice_End",
                "Audio_Gear_Spray_Ice_Loop_End"
              ]
            }
          },
          "Idle": {
            "$type": "ILLKEGMDAEF",
            "HKPCLGHBKFD": {
              "Ani_Gear_Spray_Start": [
                "Audio_Gear_Spray_Ice_Start"
              ]
            }
          },
          "Reset": {
            "$type": "ILLKEGMDAEF",
            "HKPCLGHBKFD": {
              "Ani_Gear_Spray_Rest": []
            }
          }
        }
      }
    }
  },
  "SceneObj_Gear_Combat_Test_FM01": {
    "$type": "IOHCOOOBCPH",
    "common": {
      "effectAttachShape": {
        "$type": "PBGINMMOLDC",
        "OBEFFBEFICB": 0.4000000059604645
      }
    },
    "combat": {
      "property": {
        "HP": 99999.0,
        "attack": 200.0,
        "weight": 50.0,
        "isLockHP": true,
        "canTriggerBullet": true
      },
      "beHit": {
        "hitBloodEffect": "",
        "hitAutoRedirect": false,
        "muteAllHitText": true
      },
      "combatLock": {
        "lockShape": "CircleLockEnemy",
        "lockType": "Gadget_Lv1"
      },
      "die": {
        "dieForceDisappearTime": 3.0,
        "dieDisappearEffect": ""
      }
    },
    "attackAttenuation": "",
    "abilities": [
      {
        "abilityID": "FireSpray",
        "abilityName": "SceneObj_Gear_Combat_Spray_Fire_Rotating",
        "abilityOverride": ""
      }
    ],
    "move": {
      "$type": "BELFBLEANMG",
      "target": "GroupGadgetEntity",
      "IIKEHINGEME": "FollowMove02",
      "ABIHJGPBBFD": true,
      "IHAJOCLBEOK": ""
    },
    "stateLayers": {
      "defaultLayer": {
        "$type": "KFHJINNNDPN",
        "BOPIBFKFKCA": "",
        "stateIDs": {
          "Stop": {
            "$type": "ILLKEGMDAEF",
            "HKPCLGHBKFD": {
              "Ani_Gear_Spray_End": [
                "Audio_Gear_Spray_Ice_End",
                "Audio_Gear_Spray_Ice_Loop_End"
              ],
              "Ani_Gear_Spray_Rest": []
            },
            "ADPGACLPFHN": [
              "DoSkill"
            ]
          },
          "Start": {
            "$type": "ILLKEGMDAEF",
            "HKPCLGHBKFD": {
              "Ani_Gear_Spray_Active": []
            },
            "ADPGACLPFHN": [
              "DoSkill"
            ]
          },
          "Idle": {
            "$type": "ILLKEGMDAEF",
            "HKPCLGHBKFD": {
              "Ani_Gear_Spray_Start": [
                "Audio_Gear_Spray_Ice_Start"
              ]
            },
            "ADPGACLPFHN": [
              "DoSkill"
            ]
          }
        }
      }
    },
    "NEPNGCGEAOL": {
      "MJDNEHMOFEA": [
        {
          "$type": "FHCNELPNCPL",
          "intID": "GadgetState"
        },
        {
          "$type": "FHCNELPNCPL",
          "GEBLEANKIHJ": "GearStart",
          "intID": "GadgetState",
          "value": 201
        },
        {
          "$type": "FHCNELPNCPL",
          "GEBLEANKIHJ": "GearStop",
          "intID": "GadgetState"
        }
      ]
    }
  },
  "SceneObj_Gear_Combat_SpikeTrap": {
    "$type": "IOHCOOOBCPH",
    "combat": {
      "property": {
        "HP": 100.0,
        "attack": 10.0,
        "weight": 75.0,
        "canTriggerBullet": true,
        "denyElementStick": true
      },
      "combatLock": {
        "lockShape": "CircleLockEnemy",
        "denyLockOn": true,
        "lockType": "Gadget_Lv1"
      }
    },
    "attackAttenuation": "",
    "abilities": [
      {
        "abilityID": "ATK",
        "abilityName": "SceneObj_Gear_Combat_Test_FieldExplode",
        "abilityOverride": ""
      }
    ],
    "field": {
      "shape": "CircleR3",
      "AGKCOGKCAGC": "",
      "lifeInfinite": true,
      "checkInterval": 0.5,
      "triggerCount": 1,
      "PKBIFJFAJEK": "",
      "CJIOPEJJHDM": ""
    }
  },
  "SceneObj_Gear_Combat_Spray_Fire_Reform": {
    "$type": "IOHCOOOBCPH",
    "common": {
      "effectAttachShape": {
        "$type": "DNEEEIMONPN",
        "EJAEFCDBDFB": "EffectMesh"
      },
      "affectedByWorld": true
    },
    "KNGBEDDABOM": true,
    "combat": {
      "property": {
        "HP": 99999.0,
        "attack": 200.0,
        "weight": 50.0,
        "isLockHP": true,
        "canTriggerBullet": true,
        "JPJIIBGCMJD": true
      },
      "beHit": {
        "hitBloodEffect": "",
        "hitAutoRedirect": false,
        "muteAllHitText": true
      },
      "combatLock": {
        "lockShape": "CircleLockEnemy",
        "denyLockOn": true,
        "lockType": "Gadget_Lv1"
      },
      "die": {
        "dieForceDisappearTime": 3.0,
        "dieDisappearEffect": ""
      }
    },
    "attackAttenuation": "",
    "abilities": [
      {
        "abilityID": "Ability_01",
        "abilityName": "SceneObj_Gear_Combat_Spray_Fire",
        "abilityOverride": ""
      }
    ],
    "stateLayers": {
      "defaultLayer": {
        "$type": "KFHJINNNDPN",
        "BOPIBFKFKCA": "",
        "stateIDs": {
          "Stop": {
            "$type": "ILLKEGMDAEF",
            "HKPCLGHBKFD": {
              "Ani_Gear_Spray_End": [
                "Audio_Gear_Spray_Ice_End",
                "Audio_Gear_Spray_Ice_Loop_End"
              ],
              "Ani_Gear_Spray_Rest": []
            }
          },
          "Start": {
            "$type": "ILLKEGMDAEF",
            "HKPCLGHBKFD": {
              "Ani_Gear_Spray_Active": []
            }
          },
          "Idle": {
            "$type": "ILLKEGMDAEF",
            "HKPCLGHBKFD": {
              "Ani_Gear_Spray_Start": [
                "Audio_Gear_Spray_Ice_Start"
              ]
            }
          }
        }
      }
    },
    "NEPNGCGEAOL": {
      "MJDNEHMOFEA": [
        {
          "$type": "FHCNELPNCPL",
          "intID": "GadgetState"
        },
        {
          "$type": "FHCNELPNCPL",
          "GEBLEANKIHJ": "GearStart",
          "intID": "GadgetState",
          "value": 201
        },
        {
          "$type": "FHCNELPNCPL",
          "GEBLEANKIHJ": "GearStop",
          "intID": "GadgetState"
        }
      ]
    }
  },
  "SceneObj_Gear_Combat_ElemCore_Reform": {
    "$type": "IOHCOOOBCPH",
    "common": {
      "effectAttachShape": {
        "$type": "DNEEEIMONPN",
        "EJAEFCDBDFB": "EffectMesh"
      },
      "viewSize": 2.0,
      "affectedByWorld": true
    },
    "KNGBEDDABOM": true,
    "combat": {
      "property": {
        "HP": 99999.0,
        "attack": 200.0,
        "weight": 50.0,
        "isLockHP": true,
        "canTriggerBullet": true,
        "JPJIIBGCMJD": true
      },
      "beHit": {
        "hitBloodEffect": "",
        "hitAutoRedirect": false,
        "muteAllHitText": true
      },
      "combatLock": {
        "lockShape": "CircleLockEnemy",
        "denyLockOn": true,
        "lockType": "Gadget_Lv1"
      },
      "die": {
        "dieForceDisappearTime": 3.0,
        "dieDisappearEffect": ""
      }
    },
    "attackAttenuation": "",
    "abilities": [
      {
        "abilityID": "Ability_01",
        "abilityName": "SceneObj_Gear_Combat_ElemCore_Reform_Interact",
        "abilityOverride": ""
      }
    ],
    "move": {
      "$type": "BELFBLEANMG",
      "target": "GroupGadgetEntity",
      "IIKEHINGEME": "ElemCore",
      "ABIHJGPBBFD": true,
      "IHAJOCLBEOK": ""
    },
    "billboard": {
      "$type": "HFEGKLAIGGI",
      "IIKEHINGEME": "BillboardAttach",
      "offset": {
        "y": 2.0999999046325684
      },
      "HECLHMINJII": 1.0,
      "showDistance": 0.0,
      "DMHOOGGGDKG": true,
      "GFHHHAEBHHL": true
    }
  },
  "SceneObj_Gear_Combat_GroupTrigger": {
    "$type": "IOHCOOOBCPH",
    "attackAttenuation": ""
  },
  "SceneObj_Gear_Combat_WindCreate_Gear": {
    "$type": "IOHCOOOBCPH",
    "common": {
      "disableTickDistance": 10000.0
    },
    "combat": {
      "property": {
        "useCreatorProperty": true,
        "HP": 99999.0,
        "defense": 99999.0,
        "weight": 1.0
      },
      "beHit": {
        "hitBloodEffect": "",
        "GKIOKIDJLCA": true,
        "JEPGCKHKDDD": true,
        "muteAllHitText": true
      },
      "combatLock": {
        "lockShape": "CircleLockEnemy",
        "denyLockOn": true,
        "lockType": "Gadget_Lv1"
      },
      "die": {
        "hasAnimatorDie": true,
        "dieEndTime": 3.0,
        "dieForceDisappearTime": 3.0,
        "dieDisappearEffect": ""
      }
    },
    "attackAttenuation": "",
    "abilities": [
      {
        "abilityID": "SceneObj_Gear_Combat_WindCreate_Gear",
        "abilityName": "SceneObj_Gear_Combat_WindCreate_Gear",
        "abilityOverride": ""
      }
    ]
  },
  "SceneObj_Environment_DungeonWindField_Controller": {
    "$type": "IOHCOOOBCPH",
    "combat": {
      "property": {
        "HP": 1.0,
        "canTriggerBullet": true,
        "denyElementStick": true
      },
      "combatLock": {
        "lockShape": "CircleLockEnemy",
        "denyLockOn": true,
        "lockType": "Gadget_Lv1"
      }
    },
    "attackAttenuation": "",
    "abilities": [
      {
        "abilityID": "Ability_01",
        "abilityName": "SceneObj_Environment_DungeonWindField_Controller",
        "abilityOverride": ""
      }
    ],
    "IEKDGJJNMGH": false
  },
  "SceneObj_Gear_Combat_Power_Charge": {
    "$type": "IOHCOOOBCPH",
    "common": {
      "affectedByWorld": true
    },
    "model": {
      "bornEffect": "",
      "attachEffect": "Eff_SceneObj_Gear_Dungeon_Electric_Source"
    },
    "KNGBEDDABOM": true,
    "combat": {
      "property": {
        "HP": 99999.0,
        "weight": 50.0
      },
      "beHit": {
        "hitBloodEffect": "",
        "hitAutoRedirect": false,
        "muteAllHitText": true
      },
      "combatLock": {
        "lockShape": "CircleLockEnemy",
        "denyLockOn": true,
        "lockType": "Gadget_Lv1"
      }
    },
    "attackAttenuation": "",
    "abilities": [
      {
        "abilityID": "SceneObj_Gear_Combat_Power_Charge",
        "abilityName": "SceneObj_Gear_Combat_Power_Charge",
        "abilityOverride": ""
      }
    ],
    "DDOEFBHBEPJ": {
      "HGJJHLBEICG": ""
    },
    "stateLayers": {
      "defaultLayer": {
        "$type": "KFHJINNNDPN",
        "BOPIBFKFKCA": "",
        "stateIDs": {
          "All": {
            "$type": "ILLKEGMDAEF",
            "HKPCLGHBKFD": {
              "Stage_Ani_Grear_Dungeon_Electric_Enabled": [],
              "Ani_Gear_Dungeon_Electric_Source_ToDisabled": [],
              "Stage_Ani_Grear_Dungeon_Electric_Disable": []
            }
          }
        }
      }
    },
    "audio": {
      "$type": "IGNGMHPHOEP",
      "LKJIHNLBIJL": "",
      "animAudio": {
        "onTransitionIn": [
          {
            "currentStateName": "Stage_Ani_Grear_Dungeon_Electric_Enabled",
            "audioEvent": {
              "text": "Play_amb_sceneObj_gear_electric_switchOn_lp"
            }
          }
        ],
        "onTransitionOut": [
          {
            "currentStateName": "Stage_Ani_Grear_Dungeon_Electric_Enabled",
            "audioEvent": {
              "text": "Stop_amb_sceneObj_gear_electric_switchOn_lp"
            }
          }
        ]
      },
      "disableEvent": {
        "text": "Stop_amb_sceneObj_gear_electric_switchOn_lp"
      },
      "destroyEvent": {
        "text": "Stop_amb_sceneObj_gear_electric_switchOn_lp"
      }
    },
    "NEPNGCGEAOL": {
      "MJDNEHMOFEA": [
        {
          "$type": "FHCNELPNCPL",
          "intID": "gadgetState",
          "EBNFFBOBCHB": true
        },
        {
          "$type": "DLMIEELFJNB",
          "parameter": "gadgetState",
          "type": "Int",
          "healLimitedByCasterMaxHPRatio": "Eff_SceneObj_Gear_Dungeon_Electric_Source"
        },
        {
          "$type": "DLMIEELFJNB",
          "GEBLEANKIHJ": "GearStart",
          "parameter": "gadgetState",
          "type": "Int",
          "value": 201,
          "healLimitedByCasterMaxHPRatio": "Eff_SceneObj_Gear_Dungeon_Electric_Source"
        },
        {
          "$type": "DLMIEELFJNB",
          "GEBLEANKIHJ": "GearStop",
          "parameter": "gadgetState",
          "type": "Int",
          "value": 202,
          "healLimitedByCasterMaxHPRatio": "Eff_SceneObj_Gear_Dungeon_Electric_Source"
        }
      ]
    }
  },
  "SceneObj_Gear_Combat_Power_Charge_Dungeon": {
    "$type": "IOHCOOOBCPH",
    "common": {
      "affectedByWorld": true
    },
    "KNGBEDDABOM": true,
    "combat": {
      "property": {
        "HP": 100.0,
        "weight": 50.0
      },
      "beHit": {
        "hitBloodEffect": "",
        "hitAutoRedirect": false,
        "muteAllHitText": true
      },
      "combatLock": {
        "lockShape": "CircleLockEnemy",
        "lockType": "Gadget_Lv1"
      }
    },
    "attackAttenuation": "",
    "abilities": [
      {
        "abilityID": "SceneObj_Gear_Combat_Power_Charge",
        "abilityName": "SceneObj_Gear_Combat_Power_Charge",
        "abilityOverride": ""
      }
    ],
    "DDOEFBHBEPJ": {
      "HGJJHLBEICG": ""
    },
    "billboard": {
      "$type": "HFEGKLAIGGI",
      "IIKEHINGEME": "attachPoint3",
      "offset": {
        "y": 1.5
      },
      "HECLHMINJII": 3.0,
      "showDistance": 48.0,
      "DMHOOGGGDKG": true,
      "size": "Grand"
    }
  },
  "SceneObj_Gear_Combat_Power_Charge_Tmp": {
    "$type": "IOHCOOOBCPH",
    "common": {
      "affectedByWorld": true
    },
    "KNGBEDDABOM": true,
    "combat": {
      "property": {
        "HP": 99999.0,
        "weight": 50.0
      },
      "beHit": {
        "hitBloodEffect": "",
        "hitAutoRedirect": false
      },
      "combatLock": {
        "lockShape": "CircleLockEnemy",
        "denyLockOn": true,
        "lockType": "Gadget_Lv1"
      }
    },
    "attackAttenuation": "",
    "abilities": [
      {
        "abilityID": "SceneObj_Gear_Combat_Power_Charge",
        "abilityName": "SceneObj_Gear_Combat_Power_Charge",
        "abilityOverride": ""
      }
    ],
    "BDPGABAMMPP": {
      "lifeTime": 8.0
    },
    "DDOEFBHBEPJ": {
      "HGJJHLBEICG": ""
    },
    "billboard": {
      "$type": "HFEGKLAIGGI",
      "IIKEHINGEME": "BillboardAttach",
      "offset": {
        "y": 1.5
      },
      "HECLHMINJII": 1.0,
      "DMHOOGGGDKG": true,
      "GFHHHAEBHHL": true
    }
  },
  "SceneObj_Gear_Combat_Electric_Pile02": {
    "$type": "IOHCOOOBCPH",
    "KNGBEDDABOM": true,
    "combat": {
      "property": {
        "HP": 99999.0,
        "weight": 50.0,
        "isLockHP": true
      },
      "beHit": {
        "hitBloodEffect": "",
        "hitAutoRedirect": false,
        "JEPGCKHKDDD": true,
        "muteAllHitText": true
      },
      "combatLock": {
        "lockShape": "CircleLockEnemy",
        "lockType": "Gadget_Lv1",
        "overrideRange": 5.0
      }
    },
    "attackAttenuation": "",
    "abilities": [
      {
        "abilityID": "SceneObj_Gear_Combat_Electric_Pile02",
        "abilityName": "SceneObj_Gear_Combat_Electric_Pile02",
        "abilityOverride": ""
      }
    ]
  },
  "SceneObj_Gear_Combat_Electric_Pile_Dungeon": {
    "$type": "IOHCOOOBCPH",
    "KNGBEDDABOM": true,
    "combat": {
      "property": {
        "HP": 99999.0,
        "weight": 50.0
      },
      "beHit": {
        "hitBloodEffect": "",
        "hitAutoRedirect": false
      },
      "combatLock": {
        "lockShape": "CircleLockEnemy",
        "denyLockOn": true,
        "lockType": "Gadget_Lv1"
      }
    },
    "attackAttenuation": "",
    "abilities": [
      {
        "abilityID": "SceneObj_Gear_Combat_Electric_Pile_Dungeon",
        "abilityName": "SceneObj_Gear_Combat_Electric_Pile_Dungeon",
        "abilityOverride": ""
      }
    ],
    "billboard": {
      "$type": "HFEGKLAIGGI",
      "IIKEHINGEME": "BillboardAttach",
      "offset": {
        "y": 1.5
      },
      "HECLHMINJII": 1.0,
      "DMHOOGGGDKG": true,
      "GFHHHAEBHHL": true
    }
  },
  "SceneObj_Gear_Combat_Shooter_Laser": {
    "$type": "IOHCOOOBCPH",
    "common": {
      "effectAttachShape": {
        "$type": "PBGINMMOLDC",
        "OBEFFBEFICB": 0.4000000059604645
      }
    },
    "specialPoint": {
      "elementAbsorb": "RootNode",
      "elementPendant": "",
      "elementDrop": "RootNode",
      "bulletAim": "bulletAim"
    },
    "KNGBEDDABOM": true,
    "combat": {
      "property": {
        "HP": 5000.0,
        "attack": 150.0,
        "weight": 50.0
      },
      "beHit": {
        "hitBloodEffect": "",
        "hitAutoRedirect": false
      },
      "combatLock": {
        "lockShape": "CircleLockEnemy",
        "lockType": "Avatar&Monster_Lv4"
      },
      "die": {
        "hasAnimatorDie": true,
        "dieEndTime": 0.4000000059604645,
        "dieForceDisappearTime": 0.4000000059604645,
        "dieDisappearEffect": "",
        "dieModelFadeDelay": 0.4000000059604645
      }
    },
    "attackAttenuation": "",
    "abilities": [
      {
        "abilityID": "Shooter_State",
        "abilityName": "SceneObj_Gear_Combat_Laser_State",
        "abilityOverride": ""
      },
      {
        "abilityID": "Shooter_Targetting",
        "abilityName": "SceneObj_Gear_Combat_Laser_Targetting",
        "abilityOverride": ""
      },
      {
        "abilityID": "Shooter_Charging",
        "abilityName": "SceneObj_Gear_Combat_Laser_Charging",
        "abilityOverride": ""
      },
      {
        "abilityID": "Shooter_Shooting",
        "abilityName": "SceneObj_Gear_Combat_Laser_Shooting",
        "abilityOverride": ""
      }
    ],
    "field": {
      "shape": "CircleR10",
      "AGKCOGKCAGC": "",
      "triggerInfinite": true,
      "lifeInfinite": true,
      "checkInterval": 0.5,
      "PKBIFJFAJEK": "",
      "CJIOPEJJHDM": ""
    },
    "move": {
      "$type": "AOAMMBMNHEH"
    },
    "DDOEFBHBEPJ": {
      "HGJJHLBEICG": ""
    },
    "stateLayers": {
      "defaultLayer": {
        "$type": "KFHJINNNDPN",
        "BOPIBFKFKCA": "",
        "stateIDs": {
          "Born": {
            "$type": "ILLKEGMDAEF",
            "HKPCLGHBKFD": {
              "Ani_Gear_Shooter_Born": []
            }
          },
          "Normal": {
            "$type": "ILLKEGMDAEF",
            "HKPCLGHBKFD": {
              "Ani_Gear_Shooter_Sleep": [
                "SentryTurrets_Hitbox_On"
              ]
            },
            "KNOHBHKACHA": true
          },
          "Active": {
            "$type": "ILLKEGMDAEF",
            "HKPCLGHBKFD": {
              "Ani_Gear_Shooter_Activing": [
                "SentryTurrets_Hitbox_On"
              ]
            },
            "KNOHBHKACHA": true
          },
          "Charge": {
            "$type": "ILLKEGMDAEF",
            "HKPCLGHBKFD": {
              "Ani_Gear_Shooter_Charge": []
            },
            "ADPGACLPFHN": [
              "Fire"
            ]
          },
          "Shoot": {
            "$type": "ILLKEGMDAEF",
            "HKPCLGHBKFD": {
              "Ani_Gear_Shooter_Shoot": []
            },
            "ADPGACLPFHN": [
              "Fire"
            ]
          },
          "Rise": {
            "$type": "ILLKEGMDAEF",
            "HKPCLGHBKFD": {
              "Ani_Gear_Shooter_Rise": []
            }
          },
          "Die": {
            "$type": "ILLKEGMDAEF",
            "HKPCLGHBKFD": {
              "Ani_Prop_SentryTurrets_Die": []
            }
          },
          "Default": {
            "$type": "ILLKEGMDAEF",
            "HKPCLGHBKFD": {
              "Ani_Gear_Shooter_Default": []
            }
          }
        }
      }
    },
    "aibeta": {
      "enable": true,
      "moveSetting": {
        "enable": false,
        "navMeshAgentName": "Undead01"
      }
    },
    "partControl": {
      "parts": [
        {
          "$type": "PMGKKACOLIC",
          "angularSpeed": 60.0,
          "BGKPNLALNPD": "LaserControl",
          "NOGNNDABDHA": "RotateToForward",
          "AJBEMCBABJF": "",
          "GPAPEPNEEMC": 360.0,
          "OGNBJMIOCPO": 360.0
        }
      ]
    },
    "NEPNGCGEAOL": {
      "MJDNEHMOFEA": [
        {
          "$type": "FHCNELPNCPL",
          "intID": "GadgetState"
        },
        {
          "$type": "FHCNELPNCPL",
          "GEBLEANKIHJ": "GearStart",
          "intID": "GadgetState",
          "value": 201
        },
        {
          "$type": "FHCNELPNCPL",
          "GEBLEANKIHJ": "GearAction1",
          "intID": "GadgetState",
          "value": 203
        },
        {
          "$type": "FHCNELPNCPL",
          "GEBLEANKIHJ": "GearStop",
          "intID": "GadgetState",
          "value": 202
        }
      ]
    },
    "billboard": {
      "$type": "HFEGKLAIGGI",
      "IIKEHINGEME": "LaserControl",
      "offset": {
        "y": 2.0
      },
      "HECLHMINJII": 1.0,
      "showDistance": 25.0,
      "DMHOOGGGDKG": true,
      "size": "Grand"
    }
  },
  "SceneObj_Gear_Combat_DropIce": {
    "$type": "IOHCOOOBCPH",
    "combat": {
      "property": {
        "HP": 99999.0,
        "attack": 20.0,
        "weight": 50.0,
        "isLockHP": true
      },
      "beHit": {
        "hitBloodEffect": "",
        "hitAutoRedirect": false,
        "muteAllHitText": true
      },
      "combatLock": {
        "lockShape": "CircleLockEnemy",
        "denyLockOn": true,
        "lockType": "Gadget_Lv1"
      },
      "die": {
        "dieEndTime": 0.009999999776482582,
        "dieDisappearEffect": ""
      }
    },
    "attackAttenuation": "",
    "abilities": [
      {
        "abilityID": "SceneObj_Gear_Combat_DropIce",
        "abilityName": "SceneObj_Gear_Combat_DropIce",
        "abilityOverride": ""
      }
    ],
    "field": {
      "shape": "RectW10L10H30",
      "AGKCOGKCAGC": "",
      "triggerInfinite": true,
      "lifeInfinite": true,
      "checkInterval": 0.5,
      "PKBIFJFAJEK": "",
      "CJIOPEJJHDM": ""
    },
    "DDOEFBHBEPJ": {
      "MBCCKAODCDE": {
        "JODJJMBHFBM": "Ice"
      },
      "HGJJHLBEICG": ""
    }
  },
  "Hili_Electric_Throw_Test": {
    "$type": "IOHCOOOBCPH",
    "common": {
      "effectAttachShape": {
        "$type": "PBGINMMOLDC"
      },
      "mass": 5.0,
      "affectedByWorld": true,
      "checkInSurface": true,
      "scale": 1.149999976158142
    },
    "combat": {
      "property": {
        "useCreatorProperty": true,
        "HP": 99999.0,
        "weight": 50.0,
        "isLockHP": true,
        "canTriggerBullet": true
      },
      "combatLock": {
        "lockShape": "CircleLockEnemy",
        "denyLockOn": true,
        "lockType": "Gadget_Lv1"
      }
    },
    "attackAttenuation": "",
    "abilities": [
      {
        "abilityID": "Hili_Electric_Throw_Explode_Test",
        "abilityName": "Hili_Electric_Throw_Explode_Test",
        "abilityOverride": ""
      },
      {
        "abilityID": "Hili_Electric_Throw_Bullet_TriggerOpen_Test",
        "abilityName": "Hili_Electric_Throw_Bullet_TriggerOpen_Test",
        "abilityOverride": ""
      }
    ],
    "BDPGABAMMPP": {
      "lifeTime": 3.0
    },
    "move": {
      "$type": "LIEFJMKKLOF",
      "BGKIHCPJBMO": {
        "includeForces": [
          "RetreatType",
          "RetreatAirType",
          "WindZoneType"
        ]
      },
      "NOFDPFHMFNM": 15.0,
      "BLECDCEAOFM": {
        "$type": "CLEMPDDFPIP",
        "BECECFANBMC": {
          "x": -900.0
        }
      },
      "HBECHHMLGEP": 45.0,
      "EPLFGAAFNIM": 10.0,
      "HDBDFEKENOD": {
        "$type": "CDOBEEBHCCO",
        "GACCDPNMLNP": 1.0,
        "DNOPAINEKPG": 15.0,
        "minSpeed": 5.0,
        "maxSpeed": 20.0
      }
    },
    "MNNPNOAELLI": {
      "$type": "AFPECAAHDNC",
      "collision": {
        "targetType": "Enemy",
        "bornWithTriggerEnabled": false
      },
      "HDABNDJLLCO": [
        {
          "$type": "HLFEAMOONEP",
          "abilityName": "Hili_Electric_Throw_Explode_Test"
        }
      ],
      "MHOEMLCBJOO": [
        {
          "$type": "HLFEAMOONEP",
          "abilityName": "Hili_Electric_Throw_Explode_Test"
        }
      ]
    },
    "NEHHDOLJIGC": {
      "LNIFFMOHJJB": "equip03",
      "JEGKBBGGPIE": "",
      "OHEBFGHJDGJ": "",
      "CCCHFOMAKIK": "Spear"
    }
  },
  "SceneObj_Gear_Combat_DropIce_Bullet": {
    "$type": "IOHCOOOBCPH",
    "common": {
      "effectAttachShape": {
        "$type": "PBGINMMOLDC"
      }
    },
    "combat": {
      "property": {
        "useCreatorProperty": true,
        "HP": 99999.0,
        "attack": 20.0,
        "weight": 50.0,
        "isLockHP": true
      },
      "beHit": {
        "hitBloodEffect": "",
        "GKIOKIDJLCA": true,
        "JEPGCKHKDDD": true,
        "muteAllHitText": true
      },
      "combatLock": {
        "lockShape": "CircleLockEnemy",
        "denyLockOn": true,
        "lockType": "Gadget_Lv1"
      },
      "die": {
        "dieEndTime": 0.009999999776482582,
        "dieDisappearEffect": ""
      }
    },
    "attackAttenuation": "",
    "abilities": [
      {
        "abilityID": "Ability_01",
        "abilityName": "SceneObj_Gear_Combat_DropIce_Crash",
        "abilityOverride": ""
      }
    ],
    "BDPGABAMMPP": {
      "lifeTime": 3.0
    },
    "move": {
      "$type": "CJBKMBOOPHF",
      "NOFDPFHMFNM": 5.0,
      "EILJBCHMAIH": 10.0
    },
    "MNNPNOAELLI": {
      "$type": "AFPECAAHDNC",
      "collision": {
        "triggerType": "TriggerNoRepeat",
        "targetType": "Alliance"
      },
      "HDABNDJLLCO": [
        {
          "$type": "HLFEAMOONEP",
          "abilityName": "SceneObj_Gear_Combat_DropIce_Crash"
        }
      ]
    }
  },
  "SceneObj_Gear_Combat_EnergyTmp": {
    "$type": "IOHCOOOBCPH",
    "common": {
      "effectAttachShape": {
        "$type": "PBGINMMOLDC"
      }
    },
    "combat": {
      "property": {
        "useCreatorProperty": true,
        "HP": 99999.0,
        "defense": 99999.0,
        "weight": 1.0
      },
      "beHit": {
        "hitBloodEffect": "",
        "GKIOKIDJLCA": true,
        "JEPGCKHKDDD": true,
        "muteAllHitText": true
      },
      "combatLock": {
        "lockShape": "CircleLockEnemy",
        "denyLockOn": true,
        "lockType": "Gadget_Lv1"
      }
    },
    "attackAttenuation": "",
    "abilities": [
      {
        "abilityID": "Ability_01",
        "abilityName": "SceneObj_Gear_Combat_EnergyTmp",
        "abilityOverride": ""
      }
    ]
  },
  "SceneObj_Gear_Combat_DropedIce": {
    "$type": "IOHCOOOBCPH",
    "combat": {
      "property": {
        "HP": 99999.0,
        "attack": 20.0,
        "weight": 50.0,
        "isLockHP": true
      },
      "beHit": {
        "hitBloodEffect": "",
        "hitAutoRedirect": false,
        "muteAllHitText": true
      },
      "combatLock": {
        "lockShape": "CircleLockEnemy",
        "denyLockOn": true,
        "lockType": "Gadget_Lv1"
      },
      "die": {
        "dieEndTime": 0.009999999776482582,
        "dieDisappearEffect": ""
      }
    },
    "attackAttenuation": "",
    "abilities": [
      {
        "abilityID": "SceneObj_Gear_Combat_DropedIce",
        "abilityName": "SceneObj_Gear_Combat_DropedIce",
        "abilityOverride": ""
      }
    ],
    "DDOEFBHBEPJ": {
      "MBCCKAODCDE": {
        "JODJJMBHFBM": "Ice"
      },
      "HGJJHLBEICG": ""
    }
  },
  "SceneObj_Gear_Combat_Shooter_Laser_Stable": {
    "$type": "IOHCOOOBCPH",
    "common": {
      "effectAttachShape": {
        "$type": "PBGINMMOLDC",
        "OBEFFBEFICB": 0.4000000059604645
      }
    },
    "combat": {
      "property": {
        "HP": 99999.0,
        "attack": 150.0,
        "weight": 50.0,
        "isLockHP": true,
        "canTriggerBullet": true
      },
      "beHit": {
        "hitBloodEffect": "",
        "hitAutoRedirect": false,
        "muteAllHitText": true
      },
      "combatLock": {
        "lockShape": "CircleLockEnemy",
        "denyLockOn": true,
        "lockType": "Gadget_Lv1"
      },
      "die": {
        "dieForceDisappearTime": 3.0,
        "dieDisappearEffect": ""
      }
    },
    "attackAttenuation": "",
    "abilities": [
      {
        "abilityID": "Shooter_State",
        "abilityName": "SceneObj_Gear_Combat_Laser_Stable_State",
        "abilityOverride": ""
      }
    ],
    "field": {
      "shape": "CircleR10",
      "AGKCOGKCAGC": "",
      "triggerInfinite": true,
      "lifeInfinite": true,
      "checkInterval": 0.5,
      "PKBIFJFAJEK": "",
      "CJIOPEJJHDM": ""
    }
  },
  "SceneObj_Gear_Combat_Shooter_Laser_Stable_HitPlayer": {
    "$type": "IOHCOOOBCPH",
    "common": {
      "effectAttachShape": {
        "$type": "PBGINMMOLDC",
        "OBEFFBEFICB": 0.4000000059604645
      }
    },
    "combat": {
      "property": {
        "HP": 99999.0,
        "attack": 150.0,
        "weight": 50.0,
        "isLockHP": true,
        "canTriggerBullet": true
      },
      "beHit": {
        "hitBloodEffect": "",
        "hitAutoRedirect": false,
        "muteAllHitText": true
      },
      "combatLock": {
        "lockShape": "CircleLockEnemy",
        "denyLockOn": true,
        "lockType": "Gadget_Lv1"
      },
      "die": {
        "dieForceDisappearTime": 3.0,
        "dieDisappearEffect": ""
      }
    },
    "attackAttenuation": "",
    "abilities": [
      {
        "abilityID": "Shooter_State",
        "abilityName": "SceneObj_Gear_Combat_Laser_Stable_HitPlayer",
        "abilityOverride": ""
      }
    ],
    "NEPNGCGEAOL": {
      "MJDNEHMOFEA": [
        {
          "$type": "FHCNELPNCPL",
          "intID": "gadgetState",
          "EBNFFBOBCHB": true
        }
      ]
    }
  },
  "SceneObj_Gear_Combat_Shooter_Laser_Moveable": {
    "$type": "IOHCOOOBCPH",
    "common": {
      "effectAttachShape": {
        "$type": "PBGINMMOLDC",
        "OBEFFBEFICB": 0.4000000059604645
      }
    },
    "combat": {
      "property": {
        "HP": 99999.0,
        "attack": 150.0,
        "weight": 50.0,
        "isLockHP": true,
        "canTriggerBullet": true
      },
      "beHit": {
        "hitBloodEffect": "",
        "hitAutoRedirect": false,
        "muteAllHitText": true
      },
      "combatLock": {
        "lockShape": "CircleLockEnemy",
        "denyLockOn": true,
        "lockType": "Gadget_Lv1"
      },
      "die": {
        "dieForceDisappearTime": 3.0,
        "dieDisappearEffect": ""
      }
    },
    "attackAttenuation": "",
    "abilities": [
      {
        "abilityID": "Shooter_State",
        "abilityName": "SceneObj_Gear_Combat_Shooter_Laser_Moveable",
        "abilityOverride": ""
      }
    ],
    "field": {
      "shape": "CircleR10",
      "AGKCOGKCAGC": "",
      "triggerInfinite": true,
      "lifeInfinite": true,
      "checkInterval": 0.5,
      "PKBIFJFAJEK": "",
      "CJIOPEJJHDM": ""
    },
    "move": {
      "$type": "AOAMMBMNHEH"
    },
    "NEPNGCGEAOL": {
      "MJDNEHMOFEA": [
        {
          "$type": "FHCNELPNCPL",
          "intID": "gadgetState",
          "EBNFFBOBCHB": true
        }
      ]
    }
  },
  "SceneObj_Gear_Combat_Shooter_Laser_Moveable_Gongzi": {
    "$type": "IOHCOOOBCPH",
    "common": {
      "effectAttachShape": {
        "$type": "PBGINMMOLDC",
        "OBEFFBEFICB": 0.4000000059604645
      }
    },
    "combat": {
      "property": {
        "HP": 99999.0,
        "attack": 150.0,
        "weight": 50.0,
        "isLockHP": true,
        "canTriggerBullet": true
      },
      "beHit": {
        "hitBloodEffect": "",
        "hitAutoRedirect": false,
        "muteAllHitText": true
      },
      "combatLock": {
        "lockShape": "CircleLockEnemy",
        "denyLockOn": true,
        "lockType": "Gadget_Lv1"
      },
      "die": {
        "dieForceDisappearTime": 3.0,
        "dieDisappearEffect": ""
      }
    },
    "attackAttenuation": "",
    "abilities": [
      {
        "abilityID": "Shooter_State",
        "abilityName": "SceneObj_Gear_Combat_Shooter_Laser_Moveable_Gongzi",
        "abilityOverride": ""
      }
    ],
    "field": {
      "shape": "CircleR10",
      "AGKCOGKCAGC": "",
      "triggerInfinite": true,
      "lifeInfinite": true,
      "checkInterval": 0.5,
      "PKBIFJFAJEK": "",
      "CJIOPEJJHDM": ""
    },
    "move": {
      "$type": "AOAMMBMNHEH"
    },
    "NEPNGCGEAOL": {
      "MJDNEHMOFEA": [
        {
          "$type": "FHCNELPNCPL",
          "intID": "gadgetState",
          "EBNFFBOBCHB": true
        }
      ]
    }
  },
  "SceneObj_Gear_Combat_Electric_Pile_Moveable": {
    "$type": "IOHCOOOBCPH",
    "KNGBEDDABOM": true,
    "combat": {
      "property": {
        "HP": 99999.0,
        "weight": 50.0
      },
      "beHit": {
        "hitBloodEffect": "",
        "hitAutoRedirect": false
      },
      "combatLock": {
        "lockShape": "CircleLockEnemy",
        "denyLockOn": true,
        "lockType": "Gadget_Lv1"
      }
    },
    "attackAttenuation": "",
    "abilities": [
      {
        "abilityID": "SceneObj_Gear_Combat_Electric_Pile02",
        "abilityName": "SceneObj_Gear_Combat_Electric_Pile02",
        "abilityOverride": ""
      }
    ],
    "move": {
      "$type": "BELFBLEANMG",
      "target": "GroupGadgetEntity",
      "IIKEHINGEME": "FollowMove03",
      "ABIHJGPBBFD": true,
      "IHAJOCLBEOK": ""
    },
    "billboard": {
      "$type": "HFEGKLAIGGI",
      "IIKEHINGEME": "BillboardAttach",
      "offset": {
        "y": 1.5
      },
      "HECLHMINJII": 1.0,
      "DMHOOGGGDKG": true,
      "GFHHHAEBHHL": true
    }
  },
  "SceneObj_Gear_Combat_Shooter_Laser_Moveable_Test": {
    "$type": "IOHCOOOBCPH",
    "common": {
      "effectAttachShape": {
        "$type": "PBGINMMOLDC",
        "OBEFFBEFICB": 0.4000000059604645
      }
    },
    "combat": {
      "property": {
        "HP": 99999.0,
        "attack": 150.0,
        "weight": 50.0,
        "isLockHP": true,
        "canTriggerBullet": true
      },
      "beHit": {
        "hitBloodEffect": "",
        "hitAutoRedirect": false,
        "muteAllHitText": true
      },
      "combatLock": {
        "lockShape": "CircleLockEnemy",
        "denyLockOn": true,
        "lockType": "Gadget_Lv1"
      },
      "die": {
        "dieForceDisappearTime": 3.0,
        "dieDisappearEffect": ""
      }
    },
    "attackAttenuation": "",
    "abilities": [
      {
        "abilityID": "Shooter_State",
        "abilityName": "SceneObj_Gear_Combat_Shooter_Laser_Moveable_Test",
        "abilityOverride": ""
      }
    ],
    "field": {
      "shape": "CircleR10",
      "AGKCOGKCAGC": "",
      "triggerInfinite": true,
      "lifeInfinite": true,
      "checkInterval": 0.5,
      "PKBIFJFAJEK": "",
      "CJIOPEJJHDM": ""
    },
    "move": {
      "$type": "AOAMMBMNHEH"
    }
  },
  "SceneObj_Gear_Combat_Piranha": {
    "$type": "IOHCOOOBCPH",
    "combat": {
      "property": {
        "HP": 99999.0,
        "attack": 20.0,
        "weight": 50.0,
        "isLockHP": true
      },
      "beHit": {
        "hitBloodEffect": "",
        "hitAutoRedirect": false,
        "muteAllHitText": true
      },
      "combatLock": {
        "lockShape": "CircleLockEnemy",
        "denyLockOn": true,
        "lockType": "Gadget_Lv1"
      },
      "die": {
        "dieEndTime": 0.009999999776482582,
        "dieDisappearEffect": ""
      }
    },
    "attackAttenuation": "",
    "abilities": [
      {
        "abilityID": "SceneObj_Gear_Combat_Piranha",
        "abilityName": "SceneObj_Gear_Combat_Piranha",
        "abilityOverride": ""
      }
    ],
    "field": {
      "shape": "CircleR5",
      "AGKCOGKCAGC": "",
      "triggerInfinite": true,
      "lifeInfinite": true,
      "checkInterval": 0.5,
      "PKBIFJFAJEK": "",
      "CJIOPEJJHDM": ""
    }
  },
  "SceneObj_Gear_Combat_Piranha_Bullet": {
    "$type": "IOHCOOOBCPH",
    "common": {
      "effectAttachShape": {
        "$type": "PBGINMMOLDC"
      }
    },
    "combat": {
      "property": {
        "useCreatorProperty": true,
        "HP": 99999.0,
        "defense": 99999.0,
        "weight": 1.0
      },
      "beHit": {
        "hitBloodEffect": "",
        "GKIOKIDJLCA": true,
        "JEPGCKHKDDD": true,
        "muteAllHitText": true
      },
      "combatLock": {
        "lockShape": "CircleLockEnemy",
        "denyLockOn": true,
        "lockType": "Gadget_Lv1"
      }
    },
    "attackAttenuation": "",
    "abilities": [
      {
        "abilityID": "Ability_01",
        "abilityName": "SceneObj_Gear_Combat_Piranha_Crash",
        "abilityOverride": ""
      },
      {
        "abilityID": "Ability_02",
        "abilityName": "SceneObj_Gear_Combat_Piranha_End",
        "abilityOverride": ""
      }
    ],
    "BDPGABAMMPP": {
      "lifeTime": 0.5
    },
    "move": {
      "$type": "CJBKMBOOPHF",
      "NOFDPFHMFNM": 10.0,
      "EILJBCHMAIH": 10.0
    },
    "MNNPNOAELLI": {
      "$type": "AFPECAAHDNC",
      "collision": {
        "triggerType": "TriggerAlways",
        "targetType": "Enemy",
        "ignoreScene": true
      },
      "HDABNDJLLCO": [
        {
          "$type": "HLFEAMOONEP",
          "abilityName": "SceneObj_Gear_Combat_Piranha_Crash"
        }
      ],
      "MHOEMLCBJOO": [
        {
          "$type": "HLFEAMOONEP",
          "abilityName": "SceneObj_Gear_Combat_Piranha_End"
        }
      ]
    }
  },
  "SceneObj_Gear_Combat_Xiangling_IceGear_Controller": {
    "$type": "IOHCOOOBCPH",
    "KNGBEDDABOM": true,
    "combat": {
      "property": {
        "HP": 99999.0,
        "attack": 50.0,
        "weight": 50.0,
        "isLockHP": true,
        "canTriggerBullet": true,
        "denyElementStick": true
      },
      "beHit": {
        "hitBloodEffect": "",
        "hitAutoRedirect": false,
        "muteAllHitText": true
      },
      "combatLock": {
        "lockShape": "CircleLockEnemy",
        "denyLockOn": true,
        "lockType": "Gadget_Lv1"
      }
    },
    "attackAttenuation": "",
    "abilities": [
      {
        "abilityID": "SceneObj_Gear_Combat_Xiangling_IceGear_Controller",
        "abilityName": "SceneObj_Gear_Combat_Xiangling_IceGear_Controller",
        "abilityOverride": ""
      }
    ],
    "DDOEFBHBEPJ": {
      "HGJJHLBEICG": ""
    },
    "NEPNGCGEAOL": {
      "MJDNEHMOFEA": [
        {
          "$type": "FHCNELPNCPL",
          "intID": "gadgetState",
          "EBNFFBOBCHB": true
        }
      ]
    }
  },
  "SceneObj_Gear_Combat_MonseterPowerUp": {
    "$type": "IOHCOOOBCPH",
    "common": {
      "effectAttachShape": {
        "$type": "PBGINMMOLDC"
      }
    },
    "combat": {
      "property": {
        "useCreatorProperty": true,
        "HP": 99999.0,
        "defense": 99999.0,
        "weight": 1.0,
        "canTriggerBullet": true,
        "denyElementStick": true
      },
      "beHit": {
        "hitBloodEffect": "",
        "GKIOKIDJLCA": true,
        "JEPGCKHKDDD": true,
        "muteAllHitText": true
      },
      "combatLock": {
        "lockShape": "CircleLockEnemy",
        "denyLockOn": true,
        "lockType": "Gadget_Lv1"
      }
    },
    "attackAttenuation": "",
    "stateLayers": {
      "defaultLayer": {
        "$type": "KFHJINNNDPN",
        "BOPIBFKFKCA": "",
        "stateIDs": {
          "All": {
            "$type": "ILLKEGMDAEF",
            "HKPCLGHBKFD": {
              "Stop": [
                "ShowCollider"
              ],
              "Close": [
                "ShowCollider"
              ],
              "Open": [
                "HideCollider"
              ],
              "Start": [
                "HideCollider"
              ]
            }
          }
        }
      }
    },
    "NEPNGCGEAOL": {
      "MJDNEHMOFEA": [
        {
          "$type": "FHCNELPNCPL",
          "intID": "gadgetState",
          "EBNFFBOBCHB": true
        }
      ]
    }
  },
  "SceneObj_Gear_Combat_MonseterPowerUp_Thorns": {
    "$type": "IOHCOOOBCPH",
    "common": {
      "effectAttachShape": {
        "$type": "PBGINMMOLDC"
      }
    },
    "combat": {
      "property": {
        "useCreatorProperty": true,
        "HP": 99999.0,
        "defense": 99999.0,
        "weight": 1.0,
        "canTriggerBullet": true,
        "denyElementStick": true
      },
      "beHit": {
        "hitBloodEffect": "",
        "GKIOKIDJLCA": true,
        "JEPGCKHKDDD": true,
        "muteAllHitText": true
      },
      "combatLock": {
        "lockShape": "CircleLockEnemy",
        "denyLockOn": true,
        "lockType": "Gadget_Lv1"
      }
    },
    "attackAttenuation": "",
    "abilities": [
      {
        "abilityID": "MonsterPowerUp_Amplifier_Electric",
        "abilityName": "MonsterPowerUp_Amplifier_Electric",
        "abilityOverride": ""
      }
    ],
    "stateLayers": {
      "defaultLayer": {
        "$type": "KFHJINNNDPN",
        "BOPIBFKFKCA": "",
        "stateIDs": {
          "All": {
            "$type": "ILLKEGMDAEF",
            "HKPCLGHBKFD": {
              "Stop": [
                "ShowCollider"
              ],
              "Close": [
                "ShowCollider"
              ],
              "Open": [
                "HideCollider"
              ],
              "Start": [
                "HideCollider"
              ]
            }
          }
        }
      }
    },
    "NEPNGCGEAOL": {
      "MJDNEHMOFEA": [
        {
          "$type": "FHCNELPNCPL",
          "intID": "gadgetState",
          "EBNFFBOBCHB": true
        }
      ]
    }
  },
  "SceneObj_Gear_Combat_MonseterPowerUp_RandomThunder": {
    "$type": "IOHCOOOBCPH",
    "common": {
      "effectAttachShape": {
        "$type": "PBGINMMOLDC"
      }
    },
    "combat": {
      "property": {
        "useCreatorProperty": true,
        "HP": 99999.0,
        "defense": 99999.0,
        "weight": 1.0,
        "canTriggerBullet": true,
        "denyElementStick": true
      },
      "beHit": {
        "hitBloodEffect": "",
        "GKIOKIDJLCA": true,
        "JEPGCKHKDDD": true,
        "muteAllHitText": true
      },
      "combatLock": {
        "lockShape": "CircleLockEnemy",
        "denyLockOn": true,
        "lockType": "Gadget_Lv1"
      }
    },
    "attackAttenuation": "",
    "abilities": [
      {
        "abilityID": "MonsterAffix_WhiteBox_RandomThunder",
        "abilityName": "MonsterAffix_WhiteBox_RandomThunder",
        "abilityOverride": ""
      }
    ],
    "stateLayers": {
      "defaultLayer": {
        "$type": "KFHJINNNDPN",
        "BOPIBFKFKCA": "",
        "stateIDs": {
          "All": {
            "$type": "ILLKEGMDAEF",
            "HKPCLGHBKFD": {
              "Stop": [
                "ShowCollider"
              ],
              "Close": [
                "ShowCollider"
              ],
              "Open": [
                "HideCollider"
              ],
              "Start": [
                "HideCollider"
              ]
            }
          }
        }
      }
    },
    "NEPNGCGEAOL": {
      "MJDNEHMOFEA": [
        {
          "$type": "FHCNELPNCPL",
          "intID": "gadgetState",
          "EBNFFBOBCHB": true
        }
      ]
    }
  },
  "SceneObj_Gear_Combat_MonseterPowerUp_EnergyLeakage": {
    "$type": "IOHCOOOBCPH",
    "common": {
      "effectAttachShape": {
        "$type": "PBGINMMOLDC"
      }
    },
    "combat": {
      "property": {
        "useCreatorProperty": true,
        "HP": 99999.0,
        "defense": 99999.0,
        "weight": 1.0,
        "canTriggerBullet": true,
        "denyElementStick": true
      },
      "beHit": {
        "hitBloodEffect": "",
        "GKIOKIDJLCA": true,
        "JEPGCKHKDDD": true,
        "muteAllHitText": true
      },
      "combatLock": {
        "lockShape": "CircleLockEnemy",
        "denyLockOn": true,
        "lockType": "Gadget_Lv1"
      }
    },
    "attackAttenuation": "",
    "abilities": [
      {
        "abilityID": "MonsterPowerUp_Amplifier_Fire",
        "abilityName": "MonsterPowerUp_Amplifier_Fire",
        "abilityOverride": ""
      }
    ],
    "stateLayers": {
      "defaultLayer": {
        "$type": "KFHJINNNDPN",
        "BOPIBFKFKCA": "",
        "stateIDs": {
          "All": {
            "$type": "ILLKEGMDAEF",
            "HKPCLGHBKFD": {
              "Stop": [
                "ShowCollider"
              ],
              "Close": [
                "ShowCollider"
              ],
              "Open": [
                "HideCollider"
              ],
              "Start": [
                "HideCollider"
              ]
            }
          }
        }
      }
    },
    "audio": {
      "$type": "IGNGMHPHOEP",
      "LKJIHNLBIJL": "",
      "animAudio": {
        "onTransitionIn": [
          {
            "currentStateName": "Start",
            "audioEvent": {
              "text": "Play_amb_sceneObj_gear_monsterPowerUp_thorns_loop"
            }
          },
          {
            "currentStateName": "Stop",
            "audioEvent": {
              "text": "Play_amb_sceneObj_gear_monsterPowerUp_loop"
            }
          }
        ],
        "onTransitionOut": [
          {
            "currentStateName": "Start",
            "audioEvent": {
              "text": "Stop_amb_sceneObj_gear_monsterPowerUp_thorns_loop"
            }
          },
          {
            "currentStateName": "Stop",
            "audioEvent": {
              "text": "Stop_amb_sceneObj_gear_monsterPowerUp_loop"
            }
          }
        ]
      },
      "disableEvent": {
        "text": "Stop_amb_sceneObj_gear_monsterPowerUp_stopALL"
      },
      "destroyEvent": {
        "text": "Stop_amb_sceneObj_gear_monsterPowerUp_stopALL"
      }
    },
    "NEPNGCGEAOL": {
      "MJDNEHMOFEA": [
        {
          "$type": "FHCNELPNCPL",
          "intID": "gadgetState",
          "EBNFFBOBCHB": true
        }
      ]
    }
  },
  "SceneObj_Gear_Combat_MonseterPowerUp_CoolDown_Increase": {
    "$type": "IOHCOOOBCPH",
    "common": {
      "effectAttachShape": {
        "$type": "PBGINMMOLDC"
      }
    },
    "combat": {
      "property": {
        "useCreatorProperty": true,
        "HP": 99999.0,
        "defense": 99999.0,
        "weight": 1.0,
        "canTriggerBullet": true,
        "denyElementStick": true
      },
      "beHit": {
        "hitBloodEffect": "",
        "GKIOKIDJLCA": true,
        "JEPGCKHKDDD": true,
        "muteAllHitText": true
      },
      "combatLock": {
        "lockShape": "CircleLockEnemy",
        "denyLockOn": true,
        "lockType": "Gadget_Lv1"
      }
    },
    "attackAttenuation": "",
    "abilities": [
      {
        "abilityID": "MonsterPowerUp_Amplifier_Ice",
        "abilityName": "MonsterPowerUp_Amplifier_Ice",
        "abilityOverride": ""
      }
    ],
    "stateLayers": {
      "defaultLayer": {
        "$type": "KFHJINNNDPN",
        "BOPIBFKFKCA": "",
        "stateIDs": {
          "All": {
            "$type": "ILLKEGMDAEF",
            "HKPCLGHBKFD": {
              "Stop": [
                "ShowCollider"
              ],
              "Close": [
                "ShowCollider"
              ],
              "Open": [
                "HideCollider"
              ],
              "Start": [
                "HideCollider"
              ]
            }
          }
        }
      }
    },
    "NEPNGCGEAOL": {
      "MJDNEHMOFEA": [
        {
          "$type": "FHCNELPNCPL",
          "intID": "gadgetState",
          "EBNFFBOBCHB": true
        }
      ]
    }
  },
  "SceneObj_Gear_Combat_QingceTreasure_Bullet": {
    "$type": "IOHCOOOBCPH",
    "common": {
      "effectAttachShape": {
        "$type": "PBGINMMOLDC"
      }
    },
    "combat": {
      "property": {
        "useCreatorProperty": true,
        "HP": 99999.0,
        "attack": 20.0,
        "weight": 50.0,
        "isLockHP": true
      },
      "beHit": {
        "hitBloodEffect": "",
        "GKIOKIDJLCA": true,
        "JEPGCKHKDDD": true,
        "muteAllHitText": true
      },
      "combatLock": {
        "lockShape": "CircleLockEnemy",
        "denyLockOn": true,
        "lockType": "Gadget_Lv1"
      },
      "die": {
        "dieEndTime": 0.009999999776482582,
        "dieDisappearEffect": ""
      }
    },
    "attackAttenuation": "",
    "abilities": [
      {
        "abilityID": "Ability_01",
        "abilityName": "SceneObj_Gear_Combat_QingceTreasure_Bullet",
        "abilityOverride": ""
      }
    ],
    "move": {
      "$type": "CJBKMBOOPHF",
      "NOFDPFHMFNM": 5.0,
      "EILJBCHMAIH": 10.0
    },
    "MNNPNOAELLI": {
      "$type": "AFPECAAHDNC",
      "collision": {
        "triggerType": "TriggerNoRepeat",
        "targetType": "Enemy"
      },
      "HDABNDJLLCO": [
        {
          "$type": "HLFEAMOONEP",
          "abilityName": "SceneObj_Gear_Combat_QingceTreasure_Bullet"
        }
      ]
    }
  },
  "SceneObj_Area_Common_Property_Ani_Prop_CampEnhancer_01": {
    "$type": "IOHCOOOBCPH",
    "common": {
      "effectAttachShape": {
        "$type": "PBGINMMOLDC"
      }
    },
    "KNGBEDDABOM": true,
    "combat": {
      "property": {
        "useCreatorProperty": true,
        "HP": 5000.0,
        "attack": 1.0,
        "defense": 1.0,
        "canTriggerBullet": true
      },
      "beHit": {
        "hitBloodEffect": "",
        "hitAutoRedirect": false,
        "muteAllHitText": true
      },
      "combatLock": {
        "lockShape": "CircleLockEnemy",
        "lockType": "Gear_Lv3"
      }
    },
    "attackAttenuation": "",
    "abilities": [
      {
        "abilityID": "Ability_01",
        "abilityName": "SceneObj_Area_Common_Property_Ani_Prop_CampEnhancer_01_Ability",
        "abilityOverride": ""
      },
      {
        "abilityID": "Ability_02",
        "abilityName": "Scene_RockGadget_Summon_Detect",
        "abilityOverride": ""
      }
    ],
    "field": {
      "shape": "CircleR50",
      "AGKCOGKCAGC": "",
      "triggerInfinite": true,
      "lifeInfinite": true,
      "checkInterval": 0.5,
      "campType": "AllExceptSelf",
      "PKBIFJFAJEK": "",
      "CJIOPEJJHDM": ""
    },
    "billboard": {
      "$type": "HFEGKLAIGGI",
      "IIKEHINGEME": "HpBarNode",
      "offset": {
        "y": 1.7999999523162842
      },
      "HECLHMINJII": 1.5,
      "showDistance": 48.0,
      "DMHOOGGGDKG": true,
      "GFHHHAEBHHL": true
    }
  },
  "SceneObj_Area_Common_Property_Ani_Prop_CampEnhancerBase_01": {
    "$type": "IOHCOOOBCPH",
    "combat": {
      "property": {
        "HP": 99999.0,
        "isInvincible": true,
        "isLockHP": true,
        "denyElementStick": true,
        "ABKGDMJEMJJ": true
      }
    },
    "attackAttenuation": "",
    "abilities": [
      {
        "abilityID": "Ability_01",
        "abilityName": "SceneObj_Area_Common_Property_Ani_Prop_CampEnhancerBase_01_Ability",
        "abilityOverride": ""
      }
    ]
  },
  "SceneObj_Gear_Combat_TracingEnergyBall_CreatorGadget": {
    "$type": "IOHCOOOBCPH",
    "common": {
      "effectAttachShape": {
        "$type": "PBGINMMOLDC"
      }
    },
    "combat": {
      "property": {
        "HP": 1000000000.0,
        "attack": 15.0,
        "defense": 999999.0,
        "weight": 251.0,
        "isLockHP": true,
        "canTriggerBullet": true,
        "denyElementStick": true,
        "ignorePurgeRate": false
      },
      "beHit": {
        "hitBloodEffect": "",
        "GKIOKIDJLCA": true,
        "JEPGCKHKDDD": true,
        "muteAllHitText": true
      },
      "combatLock": {
        "lockShape": "CircleLockEnemy",
        "denyLockOn": true,
        "lockType": "Default"
      }
    },
    "attackAttenuation": "",
    "abilities": [
      {
        "abilityID": "SceneObj_Gear_Combat_TracingEnergyBall_CreatorGadget",
        "abilityName": "SceneObj_Gear_Combat_TracingEnergyBall_CreatorGadget",
        "abilityOverride": ""
      }
    ],
    "BDPGABAMMPP": {
      "lifeInfinite": true
    }
  },
  "SceneObj_Gear_Combat_TracingEnergyBall": {
    "$type": "IOHCOOOBCPH",
    "common": {
      "effectAttachShape": {
        "$type": "PBGINMMOLDC"
      }
    },
    "combat": {
      "property": {
        "HP": 1000000000.0,
        "attack": 15.0,
        "defense": 999999.0,
        "weight": 251.0,
        "canTriggerBullet": true,
        "denyElementStick": true,
        "ignorePurgeRate": false
      },
      "beHit": {
        "hitBloodEffect": "",
        "GKIOKIDJLCA": true,
        "JEPGCKHKDDD": true,
        "muteAllHitText": true
      },
      "combatLock": {
        "lockShape": "CircleLockEnemy",
        "denyLockOn": true,
        "lockType": "Default"
      }
    },
    "attackAttenuation": "",
    "abilities": [
      {
        "abilityID": "SceneObj_Gear_Combat_TracingEnergyBall",
        "abilityName": "SceneObj_Gear_Combat_TracingEnergyBall",
        "abilityOverride": ""
      }
    ],
    "BDPGABAMMPP": {
      "lifeTime": 30.0
    },
    "move": {
      "$type": "MNCDFIAEMIA",
      "NOFDPFHMFNM": 1.0,
      "maxSpeed": 15.0,
      "minSpeed": 1.0,
      "NDLHJKADBGC": 1080.0,
      "EILJBCHMAIH": 0.30000001192092896,
      "BLECDCEAOFM": {
        "$type": "HMFDMPDLMCJ"
      },
      "CAMKOAKMJHD": 2.0,
      "MLLDAINGCPD": {
        "LDGCOFBNILL": 4.0,
        "IDPIALMIAEG": 30.0,
        "JPJMEPGMIBM": 0.20000000298023224,
        "EBNKPFBIDBP": 0.10000000149011612,
        "FHFBJGOKDBP": "Keep",
        "OMEEHJNLOMB": "Keep"
      },
      "ELPLIOJMJND": 60.0,
      "JKPFKNHDNKE": 1080.0,
      "NIMNPPDBKIH": 20.0
    },
    "MNNPNOAELLI": {
      "$type": "AFPECAAHDNC",
      "collision": {
        "triggerType": "TriggerAlways",
        "triggerCD": 0.4000000059604645,
        "targetType": "All",
        "ignoreScene": true
      },
      "HDABNDJLLCO": [
        {
          "$type": "HLFEAMOONEP",
          "abilityName": "SceneObj_Gear_Combat_TracingEnergyBall"
        }
      ]
    }
  },
  "SceneObj_Gear_Combat_TracingEnergyBall_HighSpeed": {
    "$type": "IOHCOOOBCPH",
    "common": {
      "effectAttachShape": {
        "$type": "PBGINMMOLDC"
      }
    },
    "combat": {
      "property": {
        "HP": 1000000000.0,
        "attack": 15.0,
        "defense": 999999.0,
        "weight": 251.0,
        "canTriggerBullet": true,
        "denyElementStick": true,
        "ignorePurgeRate": false
      },
      "beHit": {
        "hitBloodEffect": "",
        "GKIOKIDJLCA": true,
        "JEPGCKHKDDD": true,
        "muteAllHitText": true
      },
      "combatLock": {
        "lockShape": "CircleLockEnemy",
        "denyLockOn": true,
        "lockType": "Default"
      }
    },
    "attackAttenuation": "",
    "abilities": [
      {
        "abilityID": "SceneObj_Gear_Combat_TracingEnergyBall",
        "abilityName": "SceneObj_Gear_Combat_TracingEnergyBall",
        "abilityOverride": ""
      }
    ],
    "BDPGABAMMPP": {
      "lifeTime": 30.0
    },
    "move": {
      "$type": "MNCDFIAEMIA",
      "NOFDPFHMFNM": 3.0,
      "maxSpeed": 15.0,
      "minSpeed": 1.0,
      "NDLHJKADBGC": 1080.0,
      "EILJBCHMAIH": 0.30000001192092896,
      "BLECDCEAOFM": {
        "$type": "HMFDMPDLMCJ"
      },
      "CAMKOAKMJHD": 2.0,
      "MLLDAINGCPD": {
        "LDGCOFBNILL": 4.0,
        "IDPIALMIAEG": 30.0,
        "JPJMEPGMIBM": 0.20000000298023224,
        "EBNKPFBIDBP": 0.10000000149011612,
        "FHFBJGOKDBP": "Keep",
        "OMEEHJNLOMB": "Keep"
      },
      "ELPLIOJMJND": 60.0,
      "JKPFKNHDNKE": 1080.0,
      "NIMNPPDBKIH": 20.0
    },
    "MNNPNOAELLI": {
      "$type": "AFPECAAHDNC",
      "collision": {
        "triggerType": "TriggerAlways",
        "triggerCD": 0.4000000059604645,
        "targetType": "All",
        "ignoreScene": true
      },
      "HDABNDJLLCO": [
        {
          "$type": "HLFEAMOONEP",
          "abilityName": "SceneObj_Gear_Combat_TracingEnergyBall"
        }
      ]
    }
  },
  "SceneObj_Gear_Combat_ThunderArea": {
    "$type": "IOHCOOOBCPH",
    "common": {
      "effectAttachShape": {
        "$type": "PBGINMMOLDC"
      }
    },
    "combat": {
      "property": {
        "HP": 1000000000.0,
        "attack": 15.0,
        "defense": 999999.0,
        "weight": 251.0,
        "isLockHP": true,
        "denyElementStick": true,
        "ignorePurgeRate": false
      },
      "beHit": {
        "hitBloodEffect": "",
        "GKIOKIDJLCA": true,
        "JEPGCKHKDDD": true,
        "muteAllHitText": true
      },
      "combatLock": {
        "lockShape": "CircleLockEnemy",
        "denyLockOn": true,
        "lockType": "Default"
      }
    },
    "attackAttenuation": "",
    "abilities": [
      {
        "abilityID": "SceneObj_Gear_Combat_ThunderStorm_Manager",
        "abilityName": "SceneObj_Gear_Combat_ThunderStorm_Manager",
        "abilityOverride": ""
      }
    ],
    "BDPGABAMMPP": {
      "lifeInfinite": true
    }
  },
  "SceneObj_Gear_Combat_ThunderArea_ForTower": {
    "$type": "IOHCOOOBCPH",
    "common": {
      "effectAttachShape": {
        "$type": "PBGINMMOLDC"
      }
    },
    "combat": {
      "property": {
        "HP": 1000000000.0,
        "attack": 15.0,
        "defense": 999999.0,
        "weight": 251.0,
        "isLockHP": true,
        "denyElementStick": true,
        "ignorePurgeRate": false
      },
      "beHit": {
        "hitBloodEffect": "",
        "GKIOKIDJLCA": true,
        "JEPGCKHKDDD": true,
        "muteAllHitText": true
      },
      "combatLock": {
        "lockShape": "CircleLockEnemy",
        "denyLockOn": true,
        "lockType": "Default"
      }
    },
    "attackAttenuation": "",
    "abilities": [
      {
        "abilityID": "",
        "abilityName": "SceneObj_Gear_Combat_ThunderStorm_Manager",
        "abilityOverride": ""
      },
      {
        "abilityID": "",
        "abilityName": "SceneObj_Gear_Combat_ThunderStorm_Manager_ModifyType1",
        "abilityOverride": ""
      }
    ],
    "BDPGABAMMPP": {
      "lifeInfinite": true
    }
  },
  "SceneObj_Gear_Combat_ThunderArea_Stage1": {
    "$type": "IOHCOOOBCPH",
    "common": {
      "effectAttachShape": {
        "$type": "PBGINMMOLDC"
      }
    },
    "combat": {
      "property": {
        "HP": 1000000000.0,
        "attack": 15.0,
        "defense": 999999.0,
        "weight": 251.0,
        "isLockHP": true,
        "canTriggerBullet": true,
        "denyElementStick": true,
        "ignorePurgeRate": false
      },
      "beHit": {
        "hitBloodEffect": "",
        "GKIOKIDJLCA": true,
        "JEPGCKHKDDD": true,
        "muteAllHitText": true
      },
      "combatLock": {
        "lockShape": "CircleLockEnemy",
        "denyLockOn": true,
        "lockType": "Default"
      }
    },
    "attackAttenuation": "",
    "abilities": [
      {
        "abilityID": "SceneObj_Gear_Combat_ThunderStorm",
        "abilityName": "SceneObj_Gear_Combat_ThunderStorm",
        "abilityOverride": ""
      }
    ],
    "field": {
      "concernType": "AllAvatars",
      "shape": "",
      "AGKCOGKCAGC": "",
      "triggerInfinite": true,
      "lifeInfinite": true,
      "checkInterval": 0.10000000149011612,
      "PKBIFJFAJEK": "",
      "CJIOPEJJHDM": ""
    }
  },
  "SceneObj_Gear_Combat_ThunderArea_Stage2": {
    "$type": "IOHCOOOBCPH",
    "common": {
      "effectAttachShape": {
        "$type": "PBGINMMOLDC"
      }
    },
    "combat": {
      "property": {
        "HP": 1000000000.0,
        "attack": 15.0,
        "defense": 999999.0,
        "weight": 251.0,
        "isLockHP": true,
        "canTriggerBullet": true,
        "denyElementStick": true,
        "ignorePurgeRate": false
      },
      "beHit": {
        "hitBloodEffect": "",
        "GKIOKIDJLCA": true,
        "JEPGCKHKDDD": true,
        "muteAllHitText": true
      },
      "combatLock": {
        "lockShape": "CircleLockEnemy",
        "denyLockOn": true,
        "lockType": "Default"
      }
    },
    "attackAttenuation": "",
    "abilities": [
      {
        "abilityID": "SceneObj_Gear_Combat_ThunderStorm",
        "abilityName": "SceneObj_Gear_Combat_ThunderStorm",
        "abilityOverride": ""
      }
    ],
    "field": {
      "concernType": "AllAvatars",
      "shape": "",
      "AGKCOGKCAGC": "",
      "triggerInfinite": true,
      "lifeInfinite": true,
      "checkInterval": 0.10000000149011612,
      "PKBIFJFAJEK": "",
      "CJIOPEJJHDM": ""
    }
  },
  "SceneObj_Gear_Combat_ThunderArea_Stage3": {
    "$type": "IOHCOOOBCPH",
    "common": {
      "effectAttachShape": {
        "$type": "PBGINMMOLDC"
      }
    },
    "combat": {
      "property": {
        "HP": 1000000000.0,
        "attack": 15.0,
        "defense": 999999.0,
        "weight": 251.0,
        "isLockHP": true,
        "canTriggerBullet": true,
        "denyElementStick": true,
        "ignorePurgeRate": false
      },
      "beHit": {
        "hitBloodEffect": "",
        "GKIOKIDJLCA": true,
        "JEPGCKHKDDD": true,
        "muteAllHitText": true
      },
      "combatLock": {
        "lockShape": "CircleLockEnemy",
        "denyLockOn": true,
        "lockType": "Default"
      }
    },
    "attackAttenuation": "",
    "abilities": [
      {
        "abilityID": "SceneObj_Gear_Combat_ThunderStorm",
        "abilityName": "SceneObj_Gear_Combat_ThunderStorm",
        "abilityOverride": ""
      }
    ],
    "field": {
      "concernType": "AllAvatars",
      "shape": "",
      "AGKCOGKCAGC": "",
      "triggerInfinite": true,
      "lifeInfinite": true,
      "checkInterval": 0.10000000149011612,
      "PKBIFJFAJEK": "",
      "CJIOPEJJHDM": ""
    }
  },
  "SceneObj_Gear_Combat_ThunderStorm_Manager_MultiCharacter": {
    "$type": "IOHCOOOBCPH",
    "common": {
      "effectAttachShape": {
        "$type": "PBGINMMOLDC"
      }
    },
    "combat": {
      "property": {
        "HP": 1000000000.0,
        "attack": 15.0,
        "defense": 999999.0,
        "weight": 251.0,
        "isLockHP": true,
        "denyElementStick": true,
        "ignorePurgeRate": false
      },
      "beHit": {
        "hitBloodEffect": "",
        "GKIOKIDJLCA": true,
        "JEPGCKHKDDD": true,
        "muteAllHitText": true
      },
      "combatLock": {
        "lockShape": "CircleLockEnemy",
        "denyLockOn": true,
        "lockType": "Default"
      }
    },
    "attackAttenuation": "",
    "abilities": [
      {
        "abilityID": "SceneObj_Gear_Combat_ThunderStorm_Manager_MultiCharacter",
        "abilityName": "SceneObj_Gear_Combat_ThunderStorm_Manager_MultiCharacter",
        "abilityOverride": ""
      }
    ],
    "BDPGABAMMPP": {
      "lifeInfinite": true
    }
  },
  "SceneObj_Gear_Combat_ThunderArea_Stage1_MultiCharacter": {
    "$type": "IOHCOOOBCPH",
    "common": {
      "effectAttachShape": {
        "$type": "PBGINMMOLDC"
      }
    },
    "combat": {
      "property": {
        "HP": 1000000000.0,
        "attack": 15.0,
        "defense": 999999.0,
        "weight": 251.0,
        "isLockHP": true,
        "canTriggerBullet": true,
        "denyElementStick": true,
        "ignorePurgeRate": false
      },
      "beHit": {
        "hitBloodEffect": "",
        "GKIOKIDJLCA": true,
        "JEPGCKHKDDD": true,
        "muteAllHitText": true
      },
      "combatLock": {
        "lockShape": "CircleLockEnemy",
        "denyLockOn": true,
        "lockType": "Default"
      }
    },
    "attackAttenuation": "",
    "abilities": [
      {
        "abilityID": "SceneObj_Gear_Combat_ThunderStorm_MultiCharacter",
        "abilityName": "SceneObj_Gear_Combat_ThunderStorm_MultiCharacter",
        "abilityOverride": ""
      }
    ],
    "field": {
      "concernType": "AllAvatars",
      "shape": "",
      "AGKCOGKCAGC": "",
      "triggerInfinite": true,
      "lifeInfinite": true,
      "checkInterval": 0.10000000149011612,
      "PKBIFJFAJEK": "",
      "CJIOPEJJHDM": ""
    }
  },
  "SceneObj_Gear_Combat_ThunderArea_Stage2_MultiCharacter": {
    "$type": "IOHCOOOBCPH",
    "common": {
      "effectAttachShape": {
        "$type": "PBGINMMOLDC"
      }
    },
    "combat": {
      "property": {
        "HP": 1000000000.0,
        "attack": 15.0,
        "defense": 999999.0,
        "weight": 251.0,
        "isLockHP": true,
        "canTriggerBullet": true,
        "denyElementStick": true,
        "ignorePurgeRate": false
      },
      "beHit": {
        "hitBloodEffect": "",
        "GKIOKIDJLCA": true,
        "JEPGCKHKDDD": true,
        "muteAllHitText": true
      },
      "combatLock": {
        "lockShape": "CircleLockEnemy",
        "denyLockOn": true,
        "lockType": "Default"
      }
    },
    "attackAttenuation": "",
    "abilities": [
      {
        "abilityID": "SceneObj_Gear_Combat_ThunderStorm_MultiCharacter",
        "abilityName": "SceneObj_Gear_Combat_ThunderStorm_MultiCharacter",
        "abilityOverride": ""
      }
    ],
    "field": {
      "concernType": "AllAvatars",
      "shape": "",
      "AGKCOGKCAGC": "",
      "triggerInfinite": true,
      "lifeInfinite": true,
      "checkInterval": 0.10000000149011612,
      "PKBIFJFAJEK": "",
      "CJIOPEJJHDM": ""
    }
  },
  "SceneObj_Gear_Combat_ThunderArea_Stage3_MultiCharacter": {
    "$type": "IOHCOOOBCPH",
    "common": {
      "effectAttachShape": {
        "$type": "PBGINMMOLDC"
      }
    },
    "combat": {
      "property": {
        "HP": 1000000000.0,
        "attack": 15.0,
        "defense": 999999.0,
        "weight": 251.0,
        "isLockHP": true,
        "canTriggerBullet": true,
        "denyElementStick": true,
        "ignorePurgeRate": false
      },
      "beHit": {
        "hitBloodEffect": "",
        "GKIOKIDJLCA": true,
        "JEPGCKHKDDD": true,
        "muteAllHitText": true
      },
      "combatLock": {
        "lockShape": "CircleLockEnemy",
        "denyLockOn": true,
        "lockType": "Default"
      }
    },
    "attackAttenuation": "",
    "abilities": [
      {
        "abilityID": "SceneObj_Gear_Combat_ThunderStorm_MultiCharacter",
        "abilityName": "SceneObj_Gear_Combat_ThunderStorm_MultiCharacter",
        "abilityOverride": ""
      }
    ],
    "field": {
      "concernType": "AllAvatars",
      "shape": "",
      "AGKCOGKCAGC": "",
      "triggerInfinite": true,
      "lifeInfinite": true,
      "checkInterval": 0.10000000149011612,
      "PKBIFJFAJEK": "",
      "CJIOPEJJHDM": ""
    }
  },
  "SceneObj_Stages_Property_Prop_StaticThunderArea_01": {
    "$type": "IOHCOOOBCPH",
    "common": {
      "effectAttachShape": {
        "$type": "PBGINMMOLDC"
      }
    },
    "combat": {
      "property": {
        "HP": 1000000000.0,
        "attack": 15.0,
        "defense": 999999.0,
        "weight": 251.0,
        "isLockHP": true,
        "canTriggerBullet": true,
        "ignorePurgeRate": false
      },
      "beHit": {
        "hitBloodEffect": "",
        "GKIOKIDJLCA": true,
        "JEPGCKHKDDD": true,
        "muteAllHitText": true
      },
      "combatLock": {
        "lockShape": "CircleLockEnemy",
        "denyLockOn": true,
        "lockType": "Default"
      }
    },
    "attackAttenuation": "",
    "abilities": [
      {
        "abilityID": "Ability_01",
        "abilityName": "SceneObj_Stages_Property_Prop_StaticThunderArea_01_Ability",
        "abilityOverride": ""
      }
    ]
  },
  "SceneObj_Stages_Property_Prop_StaticThunderArea_01_Hard": {
    "$type": "IOHCOOOBCPH",
    "common": {
      "effectAttachShape": {
        "$type": "PBGINMMOLDC"
      }
    },
    "combat": {
      "property": {
        "HP": 1000000000.0,
        "attack": 15.0,
        "defense": 999999.0,
        "weight": 251.0,
        "isLockHP": true,
        "canTriggerBullet": true,
        "ignorePurgeRate": false
      },
      "beHit": {
        "hitBloodEffect": "",
        "GKIOKIDJLCA": true,
        "JEPGCKHKDDD": true,
        "muteAllHitText": true
      },
      "combatLock": {
        "lockShape": "CircleLockEnemy",
        "denyLockOn": true,
        "lockType": "Default"
      }
    },
    "attackAttenuation": "",
    "abilities": [
      {
        "abilityID": "Ability_01",
        "abilityName": "SceneObj_Stages_Property_Prop_StaticThunderArea_01_Ability",
        "abilityOverride": ""
      },
      {
        "abilityID": "Ability_02",
        "abilityName": "SceneObj_Stages_Property_Prop_StaticThunderArea_01_Hard_GlobalValue",
        "abilityOverride": ""
      }
    ]
  },
  "SceneObj_Stages_Property_Ani_Prop_RoleElectricBombArena_01": {
    "$type": "IOHCOOOBCPH",
    "common": {
      "disableTickDistance": 100000.0
    },
    "KNGBEDDABOM": true,
    "combat": {
      "property": {
        "HP": 99999.0,
        "attack": 20.0,
        "weight": 50.0,
        "isLockHP": true,
        "ABKGDMJEMJJ": true
      },
      "beHit": {
        "hitBloodEffect": "",
        "hitAutoRedirect": false,
        "muteAllHitText": true
      },
      "combatLock": {
        "lockShape": "CircleLockEnemy",
        "lockType": "Gadget_Lv1"
      }
    },
    "attackAttenuation": "",
    "abilities": [
      {
        "abilityID": "SceneObj_Stages_Property_Ani_Prop_RoleElectricBombArena_01",
        "abilityName": "SceneObj_Stages_Property_Ani_Prop_RoleElectricBombArena_01",
        "abilityOverride": ""
      },
      {
        "abilityID": "Scene_RockGadget_Summon_Detect",
        "abilityName": "Scene_RockGadget_Summon_Detect",
        "abilityOverride": ""
      }
    ],
    "NEPNGCGEAOL": {
      "MJDNEHMOFEA": [
        {
          "$type": "FHCNELPNCPL",
          "intID": "State",
          "EBNFFBOBCHB": true
        }
      ]
    },
    "billboard": {
      "$type": "HFEGKLAIGGI",
      "IIKEHINGEME": "RootNode",
      "HECLHMINJII": 3.0,
      "showDistance": 48.0,
      "DMHOOGGGDKG": true,
      "size": "Grand",
      "GFHHHAEBHHL": true
    }
  },
  "SceneObj_Stages_Property_Ani_Prop_RoleElectricBombArena_02": {
    "$type": "IOHCOOOBCPH",
    "common": {
      "disableTickDistance": 100000.0
    },
    "KNGBEDDABOM": true,
    "combat": {
      "property": {
        "HP": 99999.0,
        "attack": 20.0,
        "weight": 50.0,
        "isLockHP": true,
        "ABKGDMJEMJJ": true
      },
      "beHit": {
        "hitBloodEffect": "",
        "hitAutoRedirect": false,
        "muteAllHitText": true
      },
      "combatLock": {
        "lockShape": "CircleLockEnemy",
        "lockType": "Gadget_Lv1"
      }
    },
    "attackAttenuation": "",
    "abilities": [
      {
        "abilityID": "SceneObj_Stages_Property_Ani_Prop_RoleElectricBombArena_02",
        "abilityName": "SceneObj_Stages_Property_Ani_Prop_RoleElectricBombArena_02",
        "abilityOverride": ""
      },
      {
        "abilityID": "Scene_RockGadget_Summon_Detect",
        "abilityName": "Scene_RockGadget_Summon_Detect",
        "abilityOverride": ""
      }
    ],
    "NEPNGCGEAOL": {
      "MJDNEHMOFEA": [
        {
          "$type": "FHCNELPNCPL",
          "intID": "State",
          "EBNFFBOBCHB": true
        }
      ]
    },
    "billboard": {
      "$type": "HFEGKLAIGGI",
      "IIKEHINGEME": "RootNode",
      "HECLHMINJII": 3.0,
      "showDistance": 48.0,
      "DMHOOGGGDKG": true,
      "size": "Grand",
      "GFHHHAEBHHL": true
    }
  },
  "SceneObj_Gear_Combat_TracingEnergyBall_Grass_CreatorGadget": {
    "$type": "IOHCOOOBCPH",
    "common": {
      "effectAttachShape": {
        "$type": "PBGINMMOLDC"
      }
    },
    "combat": {
      "property": {
        "HP": 1000000000.0,
        "attack": 15.0,
        "defense": 999999.0,
        "weight": 251.0,
        "isLockHP": true,
        "canTriggerBullet": true,
        "denyElementStick": true,
        "ignorePurgeRate": false
      },
      "beHit": {
        "hitBloodEffect": "",
        "GKIOKIDJLCA": true,
        "JEPGCKHKDDD": true,
        "muteAllHitText": true
      },
      "combatLock": {
        "lockShape": "CircleLockEnemy",
        "denyLockOn": true,
        "lockType": "Default"
      }
    },
    "attackAttenuation": "",
    "abilities": [
      {
        "abilityID": "",
        "abilityName": "SceneObj_Gear_Combat_TracingEnergyBall_Grass_CreatorGadget",
        "abilityOverride": ""
      }
    ],
    "BDPGABAMMPP": {
      "lifeInfinite": true
    }
  },
  "SceneObj_Gear_Combat_TracingEnergyBall_Grass": {
    "$type": "IOHCOOOBCPH",
    "common": {
      "effectAttachShape": {
        "$type": "PBGINMMOLDC"
      }
    },
    "combat": {
      "property": {
        "HP": 1000000000.0,
        "attack": 15.0,
        "defense": 999999.0,
        "weight": 251.0,
        "canTriggerBullet": true,
        "denyElementStick": true,
        "ignorePurgeRate": false
      },
      "beHit": {
        "hitBloodEffect": "",
        "GKIOKIDJLCA": true,
        "JEPGCKHKDDD": true,
        "muteAllHitText": true
      },
      "combatLock": {
        "lockShape": "CircleLockEnemy",
        "denyLockOn": true,
        "lockType": "Default"
      }
    },
    "attackAttenuation": "",
    "abilities": [
      {
        "abilityID": "",
        "abilityName": "SceneObj_Gear_Combat_TracingEnergyBall_Grass",
        "abilityOverride": ""
      }
    ],
    "BDPGABAMMPP": {
      "lifeTime": 30.0
    },
    "move": {
      "$type": "MNCDFIAEMIA",
      "NOFDPFHMFNM": 1.0,
      "maxSpeed": 15.0,
      "minSpeed": 1.0,
      "NDLHJKADBGC": 1080.0,
      "EILJBCHMAIH": 0.30000001192092896,
      "BLECDCEAOFM": {
        "$type": "HMFDMPDLMCJ"
      },
      "CAMKOAKMJHD": 2.0,
      "MLLDAINGCPD": {
        "LDGCOFBNILL": 4.0,
        "IDPIALMIAEG": 30.0,
        "JPJMEPGMIBM": 0.20000000298023224,
        "EBNKPFBIDBP": 0.10000000149011612,
        "FHFBJGOKDBP": "Keep",
        "OMEEHJNLOMB": "Keep"
      },
      "ELPLIOJMJND": 60.0,
      "JKPFKNHDNKE": 1080.0,
      "NIMNPPDBKIH": 20.0
    },
    "MNNPNOAELLI": {
      "$type": "AFPECAAHDNC",
      "collision": {
        "triggerType": "TriggerAlways",
        "triggerCD": 0.4000000059604645,
        "targetType": "All",
        "ignoreScene": true
      },
      "HDABNDJLLCO": [
        {
          "$type": "HLFEAMOONEP",
          "abilityName": "SceneObj_Gear_Combat_TracingEnergyBall_Grass"
        }
      ]
    }
  }
}