{
  "SceneObj_Environment_WindField_AirflowField": {
    "$type": "PAAKDFFLFIN",
    "combatTemplate": "",
    "misc": {
      "forceField": {
        "$type": "MIHBFBGHMLF",
        "specialTipsIconPath": "",
        "velocity": 10.0,
        "scale": 1.5,
        "stayEffect": "Eff_Windfield_Stay",
        "enterEffect": "Eff_Windfield_Enter"
      },
      "escapeEffect": ""
    }
  },
  "Airflow_Block3001": {
    "$type": "PAAKDFFLFIN",
    "combatTemplate": "",
    "misc": {
      "forceField": {
        "$type": "MIHBFBGHMLF",
        "specialTipsIconPath": "",
        "velocity": 10.0,
        "stayEffect": "Eff_Windfield_Stay",
        "enterEffect": "Eff_Windfield_Enter"
      },
      "escapeEffect": ""
    }
  },
  "SceneObj_Environment_WindField_PeriodWindField_Plus": {
    "$type": "PAAKDFFLFIN",
    "combat": {
      "property": {
        "hp": 300.0,
        "attack": 10.0,
        "isLockHP": true,
        "isGhostToAllied": true,
        "ignorePurgeRate": true
      },
      "combatLock": {
        "lockShape": "CircleLockEnemy",
        "denyLockOn": true,
        "lockType": "Gadget_Lv1"
      },
      "die": {
        "hasAnimatorDie": true,
        "dieEndTime": 2.0,
        "dieForceDisappearTime": 2.0,
        "dieDisappearEffect": ""
      }
    },
    "combatTemplate": "",
    "misc": {
      "gear": {},
      "forceField": {
        "$type": "MIHBFBGHMLF",
        "specialTipsIconPath": "",
        "velocity": 10.0,
        "scale": 1.5,
        "stayEffect": "Eff_Windfield_Stay",
        "enterEffect": "Eff_Windfield_Enter"
      },
      "escapeEffect": ""
    },
    "gadgetAction": {
      "gadgetStateActionList": [
        {
          "$type": "JBMAAIBPING",
          "enable": true
        },
        {
          "$type": "DPGGKEHEODN",
          "GCDLBDMPEMJ": "Action01",
          "intID": "DieFlag",
          "value": 1
        },
        {
          "$type": "JBMAAIBPING",
          "GCDLBDMPEMJ": "Action02"
        },
        {
          "$type": "DPGGKEHEODN",
          "GCDLBDMPEMJ": "Action02",
          "intID": "DieFlag"
        }
      ]
    }
  },
  "SceneObj_Environment_WindField_PeriodWindField": {
    "$type": "PAAKDFFLFIN",
    "combat": {
      "property": {
        "hp": 300.0,
        "attack": 10.0,
        "isLockHP": true,
        "isGhostToAllied": true,
        "ignorePurgeRate": true
      },
      "combatLock": {
        "lockShape": "CircleLockEnemy",
        "denyLockOn": true,
        "lockType": "Gadget_Lv1"
      },
      "die": {
        "hasAnimatorDie": true,
        "dieEndTime": 2.0,
        "dieForceDisappearTime": 2.0,
        "dieDisappearEffect": ""
      }
    },
    "combatTemplate": "",
    "field": {
      "concernType": "AllAvatars",
      "shape": "CircleR8",
      "fromShape": "",
      "triggerInfinite": true,
      "checkInterval": 8.0,
      "lifeTime": 8.0,
      "colliderName": "",
      "fromColliderName": ""
    },
    "misc": {
      "forceField": {
        "$type": "MIHBFBGHMLF",
        "specialTipsIconPath": "",
        "velocity": 10.0,
        "scale": 1.5,
        "stayEffect": "Eff_Windfield_Stay",
        "enterEffect": "Eff_Windfield_Enter"
      },
      "escapeEffect": ""
    }
  },
  "AirflowFieldBlue": {
    "$type": "PAAKDFFLFIN",
    "combatTemplate": "",
    "misc": {
      "forceField": {
        "$type": "MIHBFBGHMLF",
        "specialTipsIconPath": "",
        "velocity": 10.0,
        "scale": 1.5,
        "stayEffect": "Eff_Windfield_Stay_Blue",
        "enterEffect": "Eff_Windfield_Enter_Blue"
      },
      "escapeEffect": ""
    }
  },
  "SceneObj_Environment_WindField_SpeedupField": {
    "$type": "PAAKDFFLFIN",
    "combat": {
      "property": {
        "hp": 99999.0,
        "attack": 50.0,
        "weight": 0.0,
        "isLockHP": true
      },
      "beHit": {
        "hitBloodEffect": "",
        "hitAutoRedirect": false,
        "muteAllHitText": true
      },
      "combatLock": {
        "lockShape": "CircleLockEnemy",
        "denyLockOn": true,
        "lockType": "Gadget_Lv1"
      }
    },
    "combatTemplate": "",
    "misc": {
      "forceField": {
        "$type": "FDBMIMNMPDC",
        "specialTipsIconPath": "",
        "velocity": 19.0,
        "attenuation": 2.299999952316284
      },
      "escapeEffect": ""
    }
  },
  "SceneObj_Environment_WindField_SpeedSlowField": {
    "$type": "PAAKDFFLFIN",
    "combat": {
      "property": {
        "hp": 99999.0,
        "attack": 50.0,
        "weight": 0.0,
        "isLockHP": true
      },
      "beHit": {
        "hitBloodEffect": "",
        "hitAutoRedirect": false,
        "muteAllHitText": true
      },
      "combatLock": {
        "lockShape": "CircleLockEnemy",
        "denyLockOn": true,
        "lockType": "Gadget_Lv1"
      }
    },
    "combatTemplate": "",
    "abilities": [
      {
        "abilityID": "Ability_01",
        "abilityName": "SceneObj_Environment_WindField_SpeedSlowField",
        "abilityOverride": ""
      }
    ],
    "field": {
      "concernType": "AllAvatars",
      "shape": "CircleR1",
      "fromShape": "",
      "triggerInfinite": true,
      "checkInterval": 0.5,
      "colliderName": "",
      "fromColliderName": ""
    }
  },
  "SceneObj_Environment_WindField_BombField": {
    "$type": "PAAKDFFLFIN",
    "combat": {
      "property": {
        "hp": 99999.0,
        "attack": 50.0,
        "weight": 0.0,
        "isLockHP": true
      },
      "beHit": {
        "hitBloodEffect": "",
        "hitAutoRedirect": false,
        "muteAllHitText": true
      },
      "combatLock": {
        "lockShape": "CircleLockEnemy",
        "denyLockOn": true,
        "lockType": "Gadget_Lv1"
      }
    },
    "combatTemplate": "",
    "abilities": [
      {
        "abilityID": "Ability_01",
        "abilityName": "SceneObj_Environment_WindField_BombField",
        "abilityOverride": ""
      }
    ]
  },
  "SceneObj_Environment_WindField_FleurVortexField": {
    "$type": "PAAKDFFLFIN",
    "model": {
      "bornEffect": "",
      "attachEffect": "Eff_SceneObj_FleurVortex_01_Float"
    },
    "hasModel": true,
    "combat": {
      "property": {
        "hp": 99999.0,
        "attack": 50.0,
        "weight": 0.0,
        "isLockHP": true
      },
      "beHit": {
        "hitBloodEffect": "",
        "hitAutoRedirect": false,
        "muteAllHitText": true
      },
      "combatLock": {
        "lockShape": "CircleLockEnemy",
        "denyLockOn": true,
        "lockType": "Gadget_Lv1"
      },
      "die": {
        "hasAnimatorDie": true,
        "dieEndTime": 0.10000000149011612,
        "dieForceDisappearTime": 0.10000000149011612,
        "dieDisappearEffect": "Eff_SceneObj_FleurVortex_01_Disappear"
      }
    },
    "combatTemplate": "",
    "abilities": [
      {
        "abilityID": "Ability_01",
        "abilityName": "SceneObj_Environment_WindField_FleurVortexField",
        "abilityOverride": ""
      }
    ]
  },
  "SceneObj_Environment_WindField_FleurDownField": {
    "$type": "PAAKDFFLFIN",
    "model": {
      "bornEffect": "",
      "attachEffect": "Eff_SceneObj_FleurDown_01_Float"
    },
    "hasModel": true,
    "combat": {
      "property": {
        "hp": 99999.0,
        "attack": 50.0,
        "weight": 0.0,
        "isLockHP": true
      },
      "beHit": {
        "hitBloodEffect": "",
        "hitAutoRedirect": false,
        "muteAllHitText": true
      },
      "combatLock": {
        "lockShape": "CircleLockEnemy",
        "denyLockOn": true,
        "lockType": "Gadget_Lv1"
      }
    },
    "combatTemplate": "",
    "abilities": [
      {
        "abilityID": "SceneObj_Environment_WindField_FleurDownField",
        "abilityName": "SceneObj_Environment_WindField_FleurDownField",
        "abilityOverride": ""
      }
    ],
    "misc": {
      "forceField": {
        "$type": "MIHBFBGHMLF",
        "specialTipsIconPath": "",
        "velocity": 10.0,
        "stayEffect": "Eff_Windfield_Stay",
        "enterEffect": "Eff_Windfield_Enter"
      },
      "escapeEffect": ""
    }
  },
  "SceneObj_Environment_WindField_CannonField": {
    "$type": "PAAKDFFLFIN",
    "combatTemplate": "",
    "misc": {
      "forceField": {
        "$type": "NAOBIHKDMIH",
        "specialTipsIconPath": "",
        "velocity": 19.0,
        "attenuation": 2.299999952316284
      },
      "escapeEffect": ""
    }
  },
  "SceneObj_Environment_WindField_AirflowAgent": {
    "$type": "PAAKDFFLFIN",
    "combat": {
      "property": {
        "hp": 300.0,
        "attack": 10.0,
        "isLockHP": true,
        "isGhostToAllied": true,
        "isGhostToEnemy": true,
        "ignorePurgeRate": true
      },
      "combatLock": {
        "lockShape": "CircleLockEnemy",
        "denyLockOn": true,
        "lockType": "Gadget_Lv1"
      }
    },
    "combatTemplate": "",
    "abilities": [
      {
        "abilityID": "Ability_01",
        "abilityName": "SceneObj_Environment_WindField_AirflowAgent",
        "abilityOverride": ""
      }
    ],
    "keepModifierOutSight": false
  },
  "SceneObj_Environment_WindField_AirflowAgent2": {
    "$type": "PAAKDFFLFIN",
    "combat": {
      "property": {
        "hp": 300.0,
        "attack": 10.0,
        "isLockHP": true,
        "isGhostToAllied": true,
        "isGhostToEnemy": true,
        "ignorePurgeRate": true
      },
      "combatLock": {
        "lockShape": "CircleLockEnemy",
        "denyLockOn": true,
        "lockType": "Gadget_Lv1"
      }
    },
    "combatTemplate": "",
    "abilities": [
      {
        "abilityID": "Ability_01",
        "abilityName": "SceneObj_Environment_WindField_AirflowAgent2",
        "abilityOverride": ""
      }
    ],
    "keepModifierOutSight": false
  },
  "SceneObj_Environment_WindField_AirflowAgent3": {
    "$type": "PAAKDFFLFIN",
    "combat": {
      "property": {
        "hp": 300.0,
        "attack": 10.0,
        "isLockHP": true,
        "isGhostToAllied": true,
        "isGhostToEnemy": true,
        "ignorePurgeRate": true
      },
      "combatLock": {
        "lockShape": "CircleLockEnemy",
        "denyLockOn": true,
        "lockType": "Gadget_Lv1"
      }
    },
    "combatTemplate": "",
    "abilities": [
      {
        "abilityID": "Ability_01",
        "abilityName": "SceneObj_Environment_WindField_AirflowAgent3",
        "abilityOverride": ""
      }
    ],
    "keepModifierOutSight": false
  },
  "SceneObj_Environment_WindField_AirflowAgent4": {
    "$type": "PAAKDFFLFIN",
    "combat": {
      "property": {
        "hp": 300.0,
        "attack": 10.0,
        "isLockHP": true,
        "isGhostToAllied": true,
        "isGhostToEnemy": true,
        "ignorePurgeRate": true
      },
      "combatLock": {
        "lockShape": "CircleLockEnemy",
        "denyLockOn": true,
        "lockType": "Gadget_Lv1"
      }
    },
    "combatTemplate": "",
    "abilities": [
      {
        "abilityID": "Ability_01",
        "abilityName": "SceneObj_Environment_WindField_AirflowAgent4",
        "abilityOverride": ""
      }
    ],
    "keepModifierOutSight": false
  },
  "SceneObj_Environment_WindField_AirflowAgent5": {
    "$type": "PAAKDFFLFIN",
    "combat": {
      "property": {
        "hp": 300.0,
        "attack": 10.0,
        "isLockHP": true,
        "isGhostToAllied": true,
        "isGhostToEnemy": true,
        "ignorePurgeRate": true
      },
      "combatLock": {
        "lockShape": "CircleLockEnemy",
        "denyLockOn": true,
        "lockType": "Gadget_Lv1"
      }
    },
    "combatTemplate": "",
    "abilities": [
      {
        "abilityID": "Ability_01",
        "abilityName": "SceneObj_Environment_WindField_AirflowAgent5",
        "abilityOverride": ""
      }
    ],
    "keepModifierOutSight": false
  },
  "SceneObj_Environment_WindField_PushField01": {
    "$type": "PAAKDFFLFIN",
    "combat": {
      "property": {
        "hp": 1000.0,
        "isInvincible": true,
        "isGhostToAllied": true,
        "isGhostToEnemy": true
      },
      "combatLock": {
        "lockShape": "CircleLockEnemy",
        "denyLockOn": true,
        "lockType": "Gadget_Lv1"
      }
    },
    "combatTemplate": "",
    "abilities": [
      {
        "abilityID": "Ability_01",
        "abilityName": "SceneObj_Environment_WindField_PushForce_01",
        "abilityOverride": ""
      }
    ],
    "field": {
      "concernType": "AllAvatars",
      "shape": "CircleR10H40",
      "fromShape": "",
      "triggerInfinite": true,
      "lifeInfinite": true,
      "checkInterval": 0.5,
      "colliderName": "",
      "fromColliderName": ""
    },
    "gadget": {
      "$type": "NIBKNKIINFI",
      "collision": {
        "triggerType": "TriggerAlways",
        "targetType": "All"
      },
      "collisionActions": [
        {
          "$type": "HEAANEHEBIK",
          "abilityName": "SceneObj_Environment_WindField_PushForce_01"
        }
      ],
      "thisColliderName": "Collider",
      "targetColliderName": "InteeTrigger"
    }
  },
  "SceneObj_Environment_WindField_PushField02": {
    "$type": "PAAKDFFLFIN",
    "combat": {
      "property": {
        "hp": 1000.0,
        "isInvincible": true,
        "isGhostToAllied": true,
        "isGhostToEnemy": true
      },
      "combatLock": {
        "lockShape": "CircleLockEnemy",
        "denyLockOn": true,
        "lockType": "Gadget_Lv1"
      }
    },
    "combatTemplate": "",
    "abilities": [
      {
        "abilityID": "Ability_01",
        "abilityName": "SceneObj_Environment_WindField_PushForce_02",
        "abilityOverride": ""
      }
    ],
    "field": {
      "concernType": "AllAvatars",
      "shape": "CircleR10",
      "fromShape": "",
      "triggerInfinite": true,
      "lifeInfinite": true,
      "checkInterval": 0.5,
      "colliderName": "",
      "fromColliderName": ""
    },
    "gadget": {
      "$type": "NIBKNKIINFI",
      "collision": {
        "triggerType": "TriggerAlways",
        "targetType": "All"
      },
      "collisionActions": [
        {
          "$type": "HEAANEHEBIK",
          "abilityName": "SceneObj_Environment_WindField_PushForce_02"
        }
      ],
      "thisColliderName": "Collider",
      "targetColliderName": "InteeTrigger"
    }
  },
  "SceneObj_Environment_WindField_PushField03": {
    "$type": "PAAKDFFLFIN",
    "combat": {
      "property": {
        "hp": 1000.0,
        "isInvincible": true,
        "isGhostToAllied": true,
        "isGhostToEnemy": true
      },
      "combatLock": {
        "lockShape": "CircleLockEnemy",
        "denyLockOn": true,
        "lockType": "Gadget_Lv1"
      }
    },
    "combatTemplate": "",
    "abilities": [
      {
        "abilityID": "Ability_01",
        "abilityName": "SceneObj_Environment_WindField_PushForce_03",
        "abilityOverride": ""
      }
    ],
    "field": {
      "concernType": "AllAvatars",
      "shape": "CircleR15",
      "fromShape": "",
      "triggerInfinite": true,
      "lifeInfinite": true,
      "checkInterval": 0.5,
      "colliderName": "",
      "fromColliderName": ""
    },
    "gadget": {
      "$type": "NIBKNKIINFI",
      "collision": {
        "triggerType": "TriggerAlways",
        "targetType": "All"
      },
      "collisionActions": [
        {
          "$type": "HEAANEHEBIK",
          "abilityName": "SceneObj_Environment_WindField_PushForce_03"
        }
      ],
      "thisColliderName": "Collider",
      "targetColliderName": "InteeTrigger"
    }
  },
  "SceneObj_Environment_WindField_PushField03_FollowMove": {
    "$type": "PAAKDFFLFIN",
    "common": {
      "disableTickDistance": 150000.0
    },
    "combat": {
      "property": {
        "hp": 1000.0,
        "isInvincible": true,
        "isGhostToAllied": true,
        "isGhostToEnemy": true
      },
      "combatLock": {
        "lockShape": "CircleLockEnemy",
        "denyLockOn": true,
        "lockType": "Gadget_Lv1"
      }
    },
    "combatTemplate": "",
    "abilities": [
      {
        "abilityID": "Ability_01",
        "abilityName": "SceneObj_Environment_WindField_PushForce_03_Follow",
        "abilityOverride": ""
      }
    ],
    "field": {
      "concernType": "AllAvatars",
      "shape": "CircleR15",
      "fromShape": "",
      "triggerInfinite": true,
      "lifeInfinite": true,
      "checkInterval": 0.5,
      "colliderName": "",
      "fromColliderName": ""
    },
    "move": {
      "$type": "IGIJLNOIMEL",
      "MLDBFKEGPEF": "GroupGadgetEntity",
      "attachPoint": "",
      "followRotation": true,
      "EHCIGNEDGDO": ""
    },
    "gadget": {
      "$type": "NIBKNKIINFI",
      "collision": {
        "triggerType": "TriggerAlways",
        "targetType": "All"
      },
      "collisionActions": [
        {
          "$type": "HEAANEHEBIK",
          "abilityName": "SceneObj_Environment_WindField_PushForce_03_Follow"
        }
      ],
      "thisColliderName": "Collider",
      "targetColliderName": "InteeTrigger"
    }
  },
  "SceneObj_Environment_WindField_PushField04": {
    "$type": "PAAKDFFLFIN",
    "combat": {
      "property": {
        "hp": 1000.0,
        "isInvincible": true,
        "isGhostToAllied": true,
        "isGhostToEnemy": true
      },
      "combatLock": {
        "lockShape": "CircleLockEnemy",
        "denyLockOn": true,
        "lockType": "Gadget_Lv1"
      }
    },
    "combatTemplate": "",
    "abilities": [
      {
        "abilityID": "Ability_01",
        "abilityName": "SceneObj_Environment_WindField_PushForce_04",
        "abilityOverride": ""
      }
    ],
    "field": {
      "concernType": "AllAvatars",
      "shape": "CircleR10H40",
      "fromShape": "",
      "triggerInfinite": true,
      "lifeInfinite": true,
      "checkInterval": 0.5,
      "colliderName": "",
      "fromColliderName": ""
    },
    "gadget": {
      "$type": "NIBKNKIINFI",
      "collision": {
        "triggerType": "TriggerAlways",
        "targetType": "All"
      },
      "collisionActions": [
        {
          "$type": "HEAANEHEBIK",
          "abilityName": "SceneObj_Environment_WindField_PushForce_04"
        }
      ],
      "thisColliderName": "Collider",
      "targetColliderName": "InteeTrigger"
    }
  },
  "SceneObj_Environment_WindField_DragonNest_Barrier": {
    "$type": "PAAKDFFLFIN",
    "common": {
      "disableTickDistance": 450.0
    },
    "model": {
      "matLinearChangedByDistance": [
        {
          "transformName": "LinearMat",
          "floatProperty": [
            "_ColorBrightness"
          ],
          "minRatio": 1.0,
          "minDistance": 150.0,
          "maxDistance": 300.0
        },
        {
          "transformName": "LinearMat",
          "floatProperty": [
            "_AlphaBrightness"
          ],
          "minRatio": 1.0,
          "maxRatio": 0.25,
          "minDistance": 150.0,
          "maxDistance": 300.0
        },
        {
          "transformName": "LinearMat",
          "textureProperty": [
            "_BaseTex",
            "_NoiseTex01",
            "_MaskTexture",
            "_MaskTexture02"
          ],
          "minRatio": 1.0,
          "maxRatio": 2.0,
          "minDistance": 150.0,
          "maxDistance": 300.0
        },
        {
          "transformName": "SurfaceCloudMat",
          "floatProperty": [
            "_FresnelPower"
          ],
          "minRatio": 1.0,
          "maxRatio": 0.20000000298023224,
          "minDistance": 150.0,
          "maxDistance": 300.0
        },
        {
          "transformName": "UVmoveMat",
          "textureProperty": [
            "_BaseTex",
            "_NoiseTex01",
            "_MaskTexture"
          ],
          "minRatio": 1.0,
          "maxRatio": 2.0,
          "minDistance": 150.0,
          "maxDistance": 300.0
        }
      ],
      "bornEffect": "",
      "attachEffect": ""
    },
    "hasModel": true,
    "combat": {
      "property": {
        "hp": 5000.0,
        "attack": 10.0,
        "weight": 50.0,
        "isLockHP": true
      },
      "beHit": {
        "hitBloodEffect": "",
        "hitAutoRedirect": false,
        "muteAllHitText": true
      },
      "combatLock": {
        "lockShape": "CircleLockEnemy",
        "denyLockOn": true,
        "lockType": "Gadget_Lv1"
      },
      "die": {
        "dieDisappearEffect": ""
      }
    },
    "combatTemplate": "",
    "abilities": [
      {
        "abilityID": "Ability_01",
        "abilityName": "SceneObj_Environment_WindField_DragonNest_Barrier_Attack",
        "abilityOverride": ""
      },
      {
        "abilityID": "Ability_02",
        "abilityName": "SceneObj_Environment_WindField_DragonNest_Element",
        "abilityOverride": ""
      }
    ],
    "gadget": {
      "$type": "NIBKNKIINFI",
      "collision": {
        "triggerType": "TriggerAlways",
        "targetType": "All"
      },
      "collisionActions": [
        {
          "$type": "HEAANEHEBIK",
          "abilityName": "SceneObj_Environment_WindField_DragonNest_Barrier_Attack"
        }
      ],
      "thisColliderName": "Collider",
      "targetColliderName": "InteeTrigger"
    }
  },
  "SceneObj_Environment_WindField_Desert_Island": {
    "$type": "PAAKDFFLFIN",
    "common": {
      "disableTickDistance": 450.0
    },
    "model": {
      "matLinearChangedByDistance": [
        {
          "transformName": "LinearMat",
          "floatProperty": [
            "_ColorBrightness"
          ],
          "minRatio": 1.0,
          "minDistance": 150.0,
          "maxDistance": 300.0
        },
        {
          "transformName": "LinearMat",
          "floatProperty": [
            "_AlphaBrightness"
          ],
          "minRatio": 1.0,
          "maxRatio": 0.25,
          "minDistance": 150.0,
          "maxDistance": 300.0
        },
        {
          "transformName": "LinearMat",
          "textureProperty": [
            "_BaseTex",
            "_NoiseTex01",
            "_MaskTexture",
            "_MaskTexture02"
          ],
          "minRatio": 1.0,
          "maxRatio": 2.0,
          "minDistance": 150.0,
          "maxDistance": 300.0
        },
        {
          "transformName": "SurfaceCloudMat",
          "floatProperty": [
            "_FresnelPower"
          ],
          "minRatio": 1.0,
          "maxRatio": 0.20000000298023224,
          "minDistance": 150.0,
          "maxDistance": 300.0
        },
        {
          "transformName": "UVmoveMat",
          "textureProperty": [
            "_BaseTex",
            "_NoiseTex01",
            "_MaskTexture"
          ],
          "minRatio": 1.0,
          "maxRatio": 2.0,
          "minDistance": 150.0,
          "maxDistance": 300.0
        }
      ],
      "bornEffect": "",
      "attachEffect": ""
    },
    "hasModel": true,
    "combat": {
      "property": {
        "hp": 5000.0,
        "attack": 10.0,
        "weight": 0.0,
        "isLockHP": true
      },
      "beHit": {
        "hitBloodEffect": "",
        "hitAutoRedirect": false,
        "muteAllHitText": true
      },
      "combatLock": {
        "lockShape": "CircleLockEnemy",
        "denyLockOn": true,
        "lockType": "Gadget_Lv1"
      },
      "die": {
        "dieDisappearEffect": ""
      }
    },
    "combatTemplate": "",
    "abilities": [
      {
        "abilityID": "Ability_02",
        "abilityName": "SceneObj_Environment_WindField_DragonNest_Element",
        "abilityOverride": ""
      }
    ],
    "gadgetAction": {
      "gadgetStateActionList": [
        {
          "$type": "DPGGKEHEODN",
          "intID": "State",
          "syncState": true
        }
      ]
    }
  },
  "DragonNest_Tornado_WindField_Controller": {
    "$type": "PAAKDFFLFIN",
    "common": {
      "disableTickDistance": 450.0
    },
    "combat": {
      "property": {
        "hp": 5000.0,
        "attack": 10.0,
        "weight": 50.0,
        "isLockHP": true
      },
      "combatLock": {
        "lockShape": "CircleLockEnemy",
        "denyLockOn": true,
        "lockType": "Gadget_Lv1"
      }
    },
    "combatTemplate": "",
    "abilities": [
      {
        "abilityID": "Ability_01",
        "abilityName": "DragonNest_Tornado_WindField_DragonNest_Tornado_Controller",
        "abilityOverride": ""
      }
    ]
  },
  "SceneObj_Environment_WindField_DragonNest_Tornado_Bullet": {
    "$type": "PAAKDFFLFIN",
    "common": {
      "effectAttachShape": {
        "$type": "AFBBHIMPGKH"
      },
      "disableTickDistance": 450.0
    },
    "model": {
      "bornEffect": "",
      "attachEffect": "Eff_DragonNest_Tornado"
    },
    "hasModel": true,
    "combat": {
      "property": {
        "useCreatorProperty": true,
        "hp": 99999.0,
        "defense": 99999.0
      },
      "beHit": {
        "hitBloodEffect": "",
        "muteAllHit": true,
        "muteAllHitEffect": true,
        "muteAllHitText": true
      },
      "combatLock": {
        "lockShape": "CircleLockEnemy",
        "denyLockOn": true,
        "lockType": "Gadget_Lv1"
      },
      "die": {
        "hasAnimatorDie": true,
        "dieEndTime": 3.0,
        "dieForceDisappearTime": 3.0,
        "dieDisappearEffect": ""
      }
    },
    "combatTemplate": "",
    "abilities": [
      {
        "abilityID": "Ability_01",
        "abilityName": "SceneObj_Environment_WindField_DragonNest_Tornado_Bullet",
        "abilityOverride": ""
      }
    ],
    "move": {
      "$type": "AHGMNDFKPGD",
      "velocityForce": {
        "excludeForces": [
          "WindZoneType",
          "AirflowType",
          "RiseType",
          "SpeedupType",
          "AirflowAccType"
        ]
      },
      "speed": 1.0,
      "delay": 1.0,
      "stickToGround": {
        "maxStepHeight": 1.0,
        "maxSlopeAngle": 45.0,
        "heightToGround": 0.10000000149011612,
        "flexibleRange": 0.5,
        "isStickToWater": true,
        "unstickWhenDownSlide": "Keep",
        "unstickWhenUpSlide": "Keep"
      },
      "syncToRemote": true
    },
    "gadget": {
      "$type": "INBEOAJKHGD",
      "collision": {
        "triggerType": "TriggerAlways",
        "triggerCD": 0.5,
        "targetType": "Enemy",
        "ignoreScene": true
      }
    }
  },
  "SceneObj_Environment_WindField_DragonNest_Tornado_Tiny": {
    "$type": "PAAKDFFLFIN",
    "common": {
      "disableTickDistance": 450.0
    },
    "combat": {
      "property": {
        "hp": 5000.0,
        "attack": 10.0,
        "weight": 50.0
      },
      "combatLock": {
        "lockShape": "CircleLockEnemy",
        "denyLockOn": true,
        "lockType": "Gadget_Lv1"
      }
    },
    "combatTemplate": "",
    "abilities": [
      {
        "abilityID": "Ability_01",
        "abilityName": "SceneObj_Environment_WindField_DragonNest_Tornado_Tiny",
        "abilityOverride": ""
      }
    ]
  },
  "SceneObj_Environment_WindField_DragonNest_StrongWind": {
    "$type": "PAAKDFFLFIN",
    "common": {
      "disableTickDistance": 800.0
    },
    "combat": {
      "property": {
        "hp": 1.0,
        "attack": 25.0,
        "isGhostToAllied": true,
        "isGhostToEnemy": true
      },
      "combatLock": {
        "lockShape": "CircleLockEnemy",
        "denyLockOn": true,
        "lockType": "Gadget_Lv1"
      }
    },
    "combatTemplate": "",
    "abilities": [
      {
        "abilityID": "Ability_01",
        "abilityName": "SceneObj_Environment_WindField_StrongWindAbility",
        "abilityOverride": ""
      }
    ]
  },
  "DragonNest_StrongWindSafeRegion": {
    "$type": "PAAKDFFLFIN",
    "combat": {
      "property": {
        "hp": 300.0,
        "attack": 10.0,
        "isLockHP": true,
        "isGhostToAllied": true,
        "ignorePurgeRate": true
      },
      "combatLock": {
        "lockShape": "CircleLockEnemy",
        "denyLockOn": true,
        "lockType": "Gadget_Lv1"
      }
    },
    "combatTemplate": "",
    "abilities": [
      {
        "abilityID": "Ability_01",
        "abilityName": "StrongWindSafeRegion",
        "abilityOverride": ""
      }
    ],
    "field": {
      "concernType": "LocalAvatar",
      "shape": "",
      "fromShape": "",
      "triggerInfinite": true,
      "lifeInfinite": true,
      "colliderName": "",
      "fromColliderName": ""
    }
  },
  "SceneObj_Environment_WindField_PeriodWindField_Continue": {
    "$type": "PAAKDFFLFIN",
    "combat": {
      "property": {
        "hp": 5000.0,
        "attack": 10.0,
        "weight": 0.0,
        "isLockHP": true
      },
      "beHit": {
        "hitBloodEffect": "",
        "muteAllHit": true,
        "muteAllHitEffect": true,
        "muteAllHitText": true
      },
      "combatLock": {
        "lockShape": "CircleLockEnemy",
        "denyLockOn": true,
        "lockType": "Gadget_Lv1"
      },
      "die": {
        "hasAnimatorDie": true,
        "dieEndTime": 2.0,
        "dieForceDisappearTime": 2.0,
        "dieDisappearEffect": ""
      }
    },
    "combatTemplate": "",
    "misc": {
      "forceField": {
        "$type": "MIHBFBGHMLF",
        "specialTipsIconPath": "",
        "velocity": 10.0,
        "scale": 1.5,
        "stayEffect": "Eff_Windfield_Stay",
        "enterEffect": "Eff_Windfield_Enter"
      },
      "escapeEffect": ""
    },
    "keepModifierOutSight": false
  },
  "SceneObj_Environment_WindField_PeriodWindField_H50": {
    "$type": "PAAKDFFLFIN",
    "common": {
      "disableTickDistance": 10000.0
    },
    "model": {
      "bornEffect": "",
      "attachEffect": "Eff_Stage_PeriodVerticalWindField_H50_Continue"
    },
    "hasModel": true,
    "combat": {
      "property": {
        "hp": 5000.0,
        "attack": 10.0,
        "weight": 0.0,
        "isLockHP": true
      },
      "beHit": {
        "hitBloodEffect": "",
        "muteAllHit": true,
        "muteAllHitEffect": true,
        "muteAllHitText": true
      },
      "combatLock": {
        "lockShape": "CircleLockEnemy",
        "denyLockOn": true,
        "lockType": "Gadget_Lv1"
      },
      "die": {
        "hasAnimatorDie": true,
        "dieEndTime": 2.0,
        "dieForceDisappearTime": 2.0,
        "dieDisappearEffect": ""
      }
    },
    "combatTemplate": "",
    "misc": {
      "forceField": {
        "$type": "MIHBFBGHMLF",
        "specialTipsIconPath": "",
        "velocity": 10.0,
        "scale": 1.5,
        "stayEffect": "Eff_Windfield_Stay",
        "enterEffect": "Eff_Windfield_Enter"
      },
      "escapeEffect": ""
    },
    "keepModifierOutSight": false
  },
  "SceneObj_Environment_WindField_PeriodWindField_H20": {
    "$type": "PAAKDFFLFIN",
    "common": {
      "disableTickDistance": 100000.0
    },
    "model": {
      "bornEffect": "",
      "attachEffect": "Eff_Stage_PeriodVerticalWindField_H20_Continue"
    },
    "hasModel": true,
    "combat": {
      "property": {
        "hp": 5000.0,
        "attack": 10.0,
        "weight": 0.0,
        "isLockHP": true
      },
      "beHit": {
        "hitBloodEffect": "",
        "muteAllHit": true,
        "muteAllHitEffect": true,
        "muteAllHitText": true
      },
      "combatLock": {
        "lockShape": "CircleLockEnemy",
        "denyLockOn": true,
        "lockType": "Gadget_Lv1"
      },
      "die": {
        "hasAnimatorDie": true,
        "dieEndTime": 2.0,
        "dieForceDisappearTime": 2.0,
        "dieDisappearEffect": ""
      }
    },
    "combatTemplate": "",
    "misc": {
      "forceField": {
        "$type": "MIHBFBGHMLF",
        "specialTipsIconPath": "",
        "velocity": 10.0,
        "stayEffect": "Eff_Windfield_Stay",
        "enterEffect": "Eff_Windfield_Enter"
      },
      "escapeEffect": ""
    },
    "keepModifierOutSight": false
  },
  "SceneObj_Environment_WindField_PeriodWindField_H30": {
    "$type": "PAAKDFFLFIN",
    "common": {
      "disableTickDistance": 100000.0
    },
    "model": {
      "bornEffect": "",
      "attachEffect": "Eff_Stage_PeriodVerticalWindField_H30_Continue"
    },
    "hasModel": true,
    "combat": {
      "property": {
        "hp": 5000.0,
        "attack": 10.0,
        "weight": 0.0,
        "isLockHP": true
      },
      "beHit": {
        "hitBloodEffect": "",
        "muteAllHit": true,
        "muteAllHitEffect": true,
        "muteAllHitText": true
      },
      "combatLock": {
        "lockShape": "CircleLockEnemy",
        "denyLockOn": true,
        "lockType": "Gadget_Lv1"
      },
      "die": {
        "hasAnimatorDie": true,
        "dieEndTime": 2.0,
        "dieForceDisappearTime": 2.0,
        "dieDisappearEffect": ""
      }
    },
    "combatTemplate": "",
    "misc": {
      "forceField": {
        "$type": "MIHBFBGHMLF",
        "specialTipsIconPath": "",
        "velocity": 10.0,
        "stayEffect": "Eff_Windfield_Stay",
        "enterEffect": "Eff_Windfield_Enter"
      },
      "escapeEffect": ""
    },
    "keepModifierOutSight": false
  },
  "SceneObj_Environment_WindField_PeriodWindField_TowerDefense_H30": {
    "$type": "PAAKDFFLFIN",
    "common": {
      "disableTickDistance": 100000.0
    },
    "model": {
      "bornEffect": "",
      "attachEffect": "Eff_Stage_PeriodVerticalWindField_H30_Continue"
    },
    "hasModel": true,
    "combat": {
      "property": {
        "hp": 5000.0,
        "attack": 10.0,
        "weight": 0.0,
        "isLockHP": true
      },
      "beHit": {
        "hitBloodEffect": "",
        "muteAllHit": true,
        "muteAllHitEffect": true,
        "muteAllHitText": true
      },
      "combatLock": {
        "lockShape": "CircleLockEnemy",
        "denyLockOn": true,
        "lockType": "Gadget_Lv1"
      },
      "die": {
        "hasAnimatorDie": true,
        "dieEndTime": 2.0,
        "dieForceDisappearTime": 2.0,
        "dieDisappearEffect": ""
      }
    },
    "combatTemplate": "",
    "abilities": [
      {
        "abilityID": "SceneObj_Environment_WindField_PeriodWindField_TowerDefense_H30",
        "abilityName": "SceneObj_Environment_WindField_PeriodWindField_TowerDefense_H30",
        "abilityOverride": ""
      }
    ],
    "timer": {
      "lifeTime": 55.0
    },
    "misc": {
      "forceField": {
        "$type": "MIHBFBGHMLF",
        "specialTipsIconPath": "",
        "velocity": 10.0,
        "stayEffect": "Eff_Windfield_Stay",
        "enterEffect": "Eff_Windfield_Enter"
      },
      "escapeEffect": ""
    },
    "keepModifierOutSight": false
  },
  "SceneObj_Environment_WindField_PeriodWindField_ContinueNoScale": {
    "$type": "PAAKDFFLFIN",
    "common": {
      "disableTickDistance": 100001.0
    },
    "combat": {
      "property": {
        "hp": 5000.0,
        "attack": 10.0,
        "weight": 0.0,
        "isLockHP": true
      },
      "beHit": {
        "hitBloodEffect": "",
        "muteAllHit": true,
        "muteAllHitEffect": true,
        "muteAllHitText": true
      },
      "combatLock": {
        "lockShape": "CircleLockEnemy",
        "denyLockOn": true,
        "lockType": "Gadget_Lv1"
      },
      "die": {
        "hasAnimatorDie": true,
        "dieEndTime": 2.0,
        "dieForceDisappearTime": 2.0,
        "dieDisappearEffect": ""
      }
    },
    "combatTemplate": "",
    "misc": {
      "forceField": {
        "$type": "MIHBFBGHMLF",
        "specialTipsIconPath": "",
        "velocity": 10.0,
        "stayEffect": "Eff_Windfield_Stay",
        "enterEffect": "Eff_Windfield_Enter"
      },
      "escapeEffect": ""
    },
    "keepModifierOutSight": false
  },
  "SceneObj_Environment_WindField_Dungeon": {
    "$type": "PAAKDFFLFIN",
    "common": {
      "disableTickDistance": 10000.0
    },
    "combat": {
      "property": {
        "hp": 5000.0,
        "attack": 10.0,
        "weight": 0.0,
        "isLockHP": true
      },
      "beHit": {
        "hitBloodEffect": "",
        "muteAllHit": true,
        "muteAllHitEffect": true,
        "muteAllHitText": true
      },
      "combatLock": {
        "lockShape": "CircleLockEnemy",
        "denyLockOn": true,
        "lockType": "Gadget_Lv1"
      }
    },
    "combatTemplate": "",
    "misc": {
      "forceField": {
        "$type": "MIHBFBGHMLF",
        "specialTipsIconPath": "",
        "velocity": 10.0,
        "stayEffect": "Eff_Windfield_Stay",
        "enterEffect": "Eff_Windfield_Enter"
      },
      "escapeEffect": ""
    },
    "keepModifierOutSight": false
  },
  "SceneObj_Environment_WindField_PeriodWindField_Normal50": {
    "$type": "PAAKDFFLFIN",
    "common": {
      "disableTickDistance": 10000.0
    },
    "model": {
      "bornEffect": "",
      "attachEffect": "Eff_Stage_PeriodVerticalWindField_H50_Continue"
    },
    "hasModel": true,
    "combat": {
      "property": {
        "hp": 5000.0,
        "attack": 10.0,
        "weight": 0.0,
        "isLockHP": true
      },
      "beHit": {
        "hitBloodEffect": "",
        "muteAllHit": true,
        "muteAllHitEffect": true,
        "muteAllHitText": true
      },
      "combatLock": {
        "lockShape": "CircleLockEnemy",
        "denyLockOn": true,
        "lockType": "Gadget_Lv1"
      },
      "die": {
        "hasAnimatorDie": true,
        "dieEndTime": 2.0,
        "dieForceDisappearTime": 2.0,
        "dieDisappearEffect": ""
      }
    },
    "combatTemplate": "",
    "misc": {
      "forceField": {
        "$type": "MIHBFBGHMLF",
        "specialTipsIconPath": "",
        "velocity": 10.0,
        "stayEffect": "Eff_Windfield_Stay",
        "enterEffect": "Eff_Windfield_Enter"
      },
      "escapeEffect": ""
    },
    "keepModifierOutSight": false
  },
  "SceneObj_Environment_WindField_PeriodWindField_Invisible50": {
    "$type": "PAAKDFFLFIN",
    "common": {
      "disableTickDistance": 10000.0
    },
    "hasModel": true,
    "combat": {
      "property": {
        "hp": 5000.0,
        "attack": 10.0,
        "weight": 0.0,
        "isLockHP": true
      },
      "beHit": {
        "hitBloodEffect": "",
        "muteAllHit": true,
        "muteAllHitEffect": true,
        "muteAllHitText": true
      },
      "combatLock": {
        "lockShape": "CircleLockEnemy",
        "denyLockOn": true,
        "lockType": "Gadget_Lv1"
      },
      "die": {
        "hasAnimatorDie": true,
        "dieEndTime": 2.0,
        "dieForceDisappearTime": 2.0,
        "dieDisappearEffect": ""
      }
    },
    "combatTemplate": "",
    "misc": {
      "forceField": {
        "$type": "MIHBFBGHMLF",
        "specialTipsIconPath": "",
        "velocity": 10.0,
        "stayEffect": "Eff_Windfield_Stay",
        "enterEffect": "Eff_Windfield_Enter"
      },
      "escapeEffect": ""
    },
    "keepModifierOutSight": false
  },
  "SceneObj_Other_Property_Prop_WindField_BigTree_01": {
    "$type": "PAAKDFFLFIN",
    "common": {
      "disableTickDistance": 150000.0
    },
    "hasModel": true,
    "combat": {
      "property": {
        "hp": 5000.0,
        "attack": 10.0,
        "weight": 0.0,
        "isLockHP": true
      },
      "beHit": {
        "hitBloodEffect": "",
        "muteAllHit": true,
        "muteAllHitEffect": true,
        "muteAllHitText": true
      },
      "combatLock": {
        "lockShape": "CircleLockEnemy",
        "denyLockOn": true,
        "lockType": "Gadget_Lv1"
      },
      "die": {
        "hasAnimatorDie": true,
        "dieEndTime": 2.0,
        "dieForceDisappearTime": 2.0,
        "dieDisappearEffect": ""
      }
    },
    "combatTemplate": "",
    "misc": {
      "forceField": {
        "$type": "MIHBFBGHMLF",
        "specialTipsIconPath": "",
        "velocity": 3.0,
        "stayEffect": "Eff_Windfield_Stay",
        "enterEffect": "Eff_Windfield_Enter"
      },
      "escapeEffect": ""
    },
    "keepModifierOutSight": false
  },
  "Element_WindCream": {
    "$type": "PAAKDFFLFIN",
    "common": {
      "enableCrashDamage": false
    },
    "hasModel": true,
    "combat": {
      "property": {
        "useCreatorProperty": true,
        "hp": 999999.0,
        "attack": 15.0,
        "defense": 999999.0,
        "weight": 60.0
      },
      "beHit": {
        "hitBloodEffect": "",
        "muteAllHit": true,
        "muteAllHitEffect": true,
        "muteAllHitText": true
      },
      "combatLock": {
        "lockShape": "CircleLockEnemy",
        "denyLockOn": true,
        "lockType": "Gadget_Lv1"
      }
    },
    "combatTemplate": "",
    "abilities": [
      {
        "abilityID": "Element_WindCream",
        "abilityName": "Element_WindCream",
        "abilityOverride": ""
      }
    ],
    "timer": {
      "lifeTime": 30.0
    },
    "move": {
      "$type": "OBOKKDILLDO"
    },
    "misc": {
      "windSeed": {},
      "escapeEffect": ""
    }
  },
  "SceneObj_Environment_WindField_Anbai_FlyTest_01": {
    "$type": "PAAKDFFLFIN",
    "model": {
      "bornEffect": "",
      "attachEffect": "Eff_WindField_Vertical_Cushion"
    },
    "hasModel": true,
    "combatTemplate": "",
    "misc": {
      "forceField": {
        "$type": "MIHBFBGHMLF",
        "specialTipsIconPath": "",
        "velocity": 10.0,
        "scale": 1.5,
        "stayEffect": "Eff_Windfield_Stay_Blue",
        "enterEffect": "Eff_Windfield_Enter_Blue"
      },
      "escapeEffect": ""
    }
  },
  "SceneObj_Environment_WindField_Anbai_FlyTest_02": {
    "$type": "PAAKDFFLFIN",
    "model": {
      "bornEffect": "",
      "attachEffect": "Eff_WindField_Vertical_Cushion02"
    },
    "hasModel": true,
    "combatTemplate": "",
    "misc": {
      "forceField": {
        "$type": "MIHBFBGHMLF",
        "specialTipsIconPath": "",
        "velocity": 10.0,
        "scale": 1.5,
        "stayEffect": "Eff_Windfield_Stay_Blue",
        "enterEffect": "Eff_Windfield_Enter_Blue"
      },
      "escapeEffect": ""
    }
  },
  "SceneObj_Environment_WindField_Anbai_FlyTest_03": {
    "$type": "PAAKDFFLFIN",
    "model": {
      "bornEffect": "",
      "attachEffect": "Eff_WindField_Vertical_Cushion03"
    },
    "hasModel": true,
    "combatTemplate": "",
    "misc": {
      "forceField": {
        "$type": "MIHBFBGHMLF",
        "specialTipsIconPath": "",
        "velocity": 10.0,
        "scale": 1.5,
        "stayEffect": "Eff_Windfield_Stay_Blue",
        "enterEffect": "Eff_Windfield_Enter_Blue"
      },
      "escapeEffect": ""
    }
  },
  "SceneObj_Environment_WindField_ShootFeather_Vertical_Feather": {
    "$type": "PAAKDFFLFIN",
    "model": {
      "bornEffect": "",
      "attachEffect": "Eff_WindField_Vertical_Feather_02"
    },
    "hasModel": true,
    "combatTemplate": "",
    "misc": {
      "forceField": {
        "$type": "MIHBFBGHMLF",
        "specialTipsIconPath": "",
        "velocity": 10.0,
        "scale": 1.5,
        "stayEffect": "Eff_Windfield_Stay_Blue",
        "enterEffect": "Eff_Windfield_Enter_Blue"
      },
      "escapeEffect": ""
    }
  },
  "SceneObj_Environment_WindField_Anbai_Vertical_Feather": {
    "$type": "PAAKDFFLFIN",
    "model": {
      "bornEffect": "",
      "attachEffect": "Eff_WindField_Vertical_Feather_03"
    },
    "hasModel": true,
    "combatTemplate": "",
    "misc": {
      "forceField": {
        "$type": "MIHBFBGHMLF",
        "specialTipsIconPath": "",
        "velocity": 10.0,
        "scale": 1.5,
        "stayEffect": "Eff_Windfield_Stay_Blue",
        "enterEffect": "Eff_Windfield_Enter_Blue"
      },
      "escapeEffect": ""
    }
  },
  "Widget_Gadget_WindField": {
    "$type": "PAAKDFFLFIN",
    "common": {
      "disableTickDistance": 100000.0
    },
    "model": {
      "bornEffect": "",
      "attachEffect": "Eff_SceneObj_Widget_WindField"
    },
    "hasModel": true,
    "combat": {
      "property": {
        "isLockHP": true,
        "isGhostToAllied": true,
        "isGhostToEnemy": true,
        "canTriggerBullet": false
      },
      "beHit": {
        "hitBloodEffect": "",
        "muteAllHit": true,
        "muteAllHitEffect": true,
        "muteAllHitText": true
      },
      "combatLock": {
        "lockShape": "CircleLockEnemy",
        "denyLockOn": true,
        "lockType": "Gadget_Lv1"
      },
      "die": {
        "hasAnimatorDie": true,
        "dieEndTime": 2.5,
        "dieForceDisappearTime": 2.5,
        "dieDisappearEffect": ""
      }
    },
    "combatTemplate": "",
    "timer": {
      "lifeTime": 3.0
    },
    "misc": {
      "forceField": {
        "$type": "MIHBFBGHMLF",
        "specialTipsIconPath": "",
        "velocity": 10.0,
        "stayEffect": "Eff_Windfield_Stay",
        "enterEffect": "Eff_Windfield_Enter"
      },
      "escapeEffect": ""
    }
  }
}