{
  "Itto_ExtraAttack_Mask": {
    "$type": "PAAKDFFLFIN",
    "common": {
      "effectAttachShape": {
        "$type": "AFBBHIMPGKH"
      }
    },
    "combat": {
      "property": {
        "useCreatorProperty": true,
        "isGhostToAllied": true,
        "isGhostToEnemy": true,
        "canTriggerBullet": false
      },
      "beHit": {
        "hitBloodEffect": "",
        "muteAllHit": true,
        "muteAllHitEffect": true,
        "muteAllHitText": true
      },
      "combatLock": {
        "lockShape": "CircleLockEnemy",
        "denyLockOn": true,
        "lockType": "Gadget_Lv1"
      },
      "die": {
        "dieEndTime": 0.5,
        "dieForceDisappearTime": 0.5,
        "dieDisappearEffect": ""
      }
    },
    "combatTemplate": "",
    "abilities": [
      {
        "abilityID": "Avatar_Itto_ExtraAttack_Mask",
        "abilityName": "Avatar_Itto_ExtraAttack_Mask",
        "abilityOverride": ""
      }
    ],
    "timer": {
      "lifeInfinite": true
    },
    "move": {
      "$type": "IGIJLNOIMEL",
      "attachPoint": "CameraLook",
      "followRotation": true,
      "DJPAKKKHBJH": {
        "z": 1.0
      },
      "followOwnerInvisible": true,
      "syncTransToServer": true,
      "EHCIGNEDGDO": ""
    },
    "dontDestroyByPerform": true
  },
  "Itto_ElementalArt_OniBull_Bullet": {
    "$type": "PAAKDFFLFIN",
    "common": {
      "effectAttachShape": {
        "$type": "AFBBHIMPGKH"
      }
    },
    "combat": {
      "property": {
        "useCreatorProperty": true,
        "isGhostToAllied": true,
        "isGhostToEnemy": true,
        "canTriggerBullet": false
      },
      "beHit": {
        "hitBloodEffect": "",
        "muteAllHit": true,
        "muteAllHitEffect": true,
        "muteAllHitText": true
      },
      "combatLock": {
        "lockShape": "CircleLockEnemy",
        "denyLockOn": true,
        "lockType": "Gadget_Lv1"
      }
    },
    "combatTemplate": "",
    "abilities": [
      {
        "abilityID": "Avatar_Itto_Gadget_OniBull_Bullet",
        "abilityName": "Avatar_Itto_Gadget_OniBull_Bullet",
        "abilityOverride": ""
      }
    ],
    "timer": {
      "lifeTime": 2.0
    },
    "move": {
      "$type": "KPMONKJIGAM",
      "speed": 30.0,
      "LADLDOGAMLI": {
        "$type": "GLPIGCIKICP"
      },
      "straightRange": 3.0,
      "gravityOfAcceleration": 15.0,
      "airResistance": 0.009999999776482582
    },
    "gadget": {
      "$type": "INBEOAJKHGD",
      "collision": {
        "ccd": {
          "KPGKDHAFHFE": "Always"
        },
        "targetType": "Enemy"
      },
      "triggerActions": [
        {
          "$type": "HEAANEHEBIK",
          "abilityName": "Avatar_Itto_Gadget_OniBull_Bullet"
        }
      ],
      "triggerLifeOverActions": [
        {
          "$type": "HEAANEHEBIK",
          "abilityName": "Avatar_Itto_Gadget_OniBull_Bullet"
        }
      ],
      "fireAISoundEvent": true
    }
  },
  "Itto_ElementalArt_OniBull": {
    "$type": "PAAKDFFLFIN",
    "common": {
      "effectAttachShape": {
        "$type": "AFBBHIMPGKH"
      },
      "enableCrashDamage": false
    },
    "model": {
      "bornEffect": "",
      "attachEffect": "",
      "hasCharacterRenderering": true
    },
    "hasModel": true,
    "combat": {
      "property": {
        "endureType": "Monster_Boss_Humanoid",
        "useCreatorProperty": true,
        "weight": 200.0
      },
      "beHit": {
        "hitBloodEffect": ""
      },
      "combatLock": {
        "lockShape": "CircleLockEnemy",
        "denyLockOn": true,
        "lockType": "Gadget_Lv1"
      }
    },
    "combatTemplate": "",
    "abilities": [
      {
        "abilityID": "Avatar_Itto_Gadget_OniBull",
        "abilityName": "Avatar_Itto_Gadget_OniBull",
        "abilityOverride": ""
      },
      {
        "abilityID": "RockGadget_Summon_Detect",
        "abilityName": "Avatar_RockGadget_Summon_Detect",
        "abilityOverride": ""
      },
      {
        "abilityID": "WeightRatio",
        "abilityName": "RocketGadget_WeightRatio",
        "abilityOverride": ""
      },
      {
        "abilityID": "",
        "abilityName": "Avatar_RockGadget_KillByBlunt",
        "abilityOverride": ""
      }
    ],
    "timer": {
      "lifeTime": 10.0
    },
    "move": {
      "$type": "OBOKKDILLDO",
      "velocityForce": {
        "includeForces": [
          "RetreatType",
          "RetreatAirType",
          "WindZoneType"
        ]
      },
      "useAniamtorVelocity": true,
      "ignoreEnableRigidbodyDist": true
    },
    "characterRendering": {
      "overrideTickInterval": 1
    },
    "canRemoveByClient": true
  },
  "Itto_Symbol_Bullet": {
    "$type": "PAAKDFFLFIN",
    "common": {
      "effectAttachShape": {
        "$type": "AFBBHIMPGKH"
      }
    },
    "combat": {
      "property": {
        "useCreatorProperty": true,
        "isGhostToAllied": true,
        "isGhostToEnemy": true,
        "canTriggerBullet": false
      },
      "beHit": {
        "hitBloodEffect": "",
        "muteAllHit": true,
        "muteAllHitEffect": true,
        "muteAllHitText": true
      },
      "combatLock": {
        "lockShape": "CircleLockEnemy",
        "denyLockOn": true,
        "lockType": "Gadget_Lv1"
      }
    },
    "combatTemplate": "",
    "timer": {
      "lifeTime": 3.0
    },
    "move": {
      "$type": "MEFFBNAGNKM",
      "speed": 20.0,
      "maxSpeed": 40.0,
      "minSpeed": 20.0,
      "anglerVelocity": 90.0,
      "acceleration": 10.0,
      "traceOnYAxis": true
    },
    "gadget": {
      "$type": "INBEOAJKHGD",
      "collision": {
        "targetType": "SelfCamp",
        "ignoreScene": true,
        "ignoreWater": true
      }
    }
  }
}