{
  "Nada_Circle_Electric": {
    "$type": "IOHCOOOBCPH",
    "combat": {
      "property": {
        "useCreatorProperty": true,
        "HP": 100.0,
        "attack": 10.0,
        "isInvincible": true,
        "canTriggerBullet": true,
        "ignorePurgeRate": false
      },
      "combatLock": {
        "lockShape": "CircleLockEnemy",
        "denyLockOn": true,
        "lockType": "Default"
      }
    },
    "attackAttenuation": "",
    "abilities": [
      {
        "abilityID": "",
        "abilityName": "Nada_Circle_Electric_Control",
        "abilityOverride": ""
      }
    ],
    "field": {
      "concernType": "AllAvatars",
      "shape": "",
      "AGKCOGKCAGC": "",
      "triggerInfinite": true,
      "lifeInfinite": true,
      "checkInterval": 0.10000000149011612,
      "lifeTime": 10.0,
      "PKBIFJFAJEK": "Trigger",
      "CJIOPEJJHDM": ""
    },
    "BDPGABAMMPP": {
      "lifeInfinite": true,
      "lifeTime": 20.0
    }
  },
  "Nada_Circle_Electric_Mirror": {
    "$type": "IOHCOOOBCPH",
    "combat": {
      "property": {
        "useCreatorProperty": true,
        "HP": 100.0,
        "attack": 10.0,
        "isInvincible": true,
        "canTriggerBullet": true,
        "ignorePurgeRate": false
      },
      "combatLock": {
        "lockShape": "CircleLockEnemy",
        "denyLockOn": true,
        "lockType": "Default"
      }
    },
    "attackAttenuation": "",
    "abilities": [
      {
        "abilityID": "",
        "abilityName": "Nada_Circle_Electric_Mirror_Control",
        "abilityOverride": ""
      }
    ],
    "field": {
      "concernType": "AllAvatars",
      "shape": "",
      "AGKCOGKCAGC": "",
      "triggerInfinite": true,
      "lifeInfinite": true,
      "checkInterval": 0.10000000149011612,
      "lifeTime": 10.0,
      "PKBIFJFAJEK": "Trigger",
      "CJIOPEJJHDM": ""
    },
    "BDPGABAMMPP": {
      "lifeInfinite": true,
      "lifeTime": 20.0
    }
  },
  "Nada_Circle_Fire": {
    "$type": "IOHCOOOBCPH",
    "combat": {
      "property": {
        "useCreatorProperty": true,
        "HP": 100.0,
        "attack": 10.0,
        "isInvincible": true,
        "canTriggerBullet": true,
        "ignorePurgeRate": false
      },
      "combatLock": {
        "lockShape": "CircleLockEnemy",
        "denyLockOn": true,
        "lockType": "Default"
      }
    },
    "attackAttenuation": "",
    "abilities": [
      {
        "abilityID": "",
        "abilityName": "Nada_Circle_Fire_Control",
        "abilityOverride": ""
      }
    ],
    "field": {
      "concernType": "AllAvatars",
      "shape": "",
      "AGKCOGKCAGC": "",
      "triggerInfinite": true,
      "lifeInfinite": true,
      "checkInterval": 0.10000000149011612,
      "lifeTime": 10.0,
      "PKBIFJFAJEK": "Trigger",
      "CJIOPEJJHDM": ""
    },
    "BDPGABAMMPP": {
      "lifeInfinite": true,
      "lifeTime": 20.0
    }
  },
  "Nada_Circle_Ice": {
    "$type": "IOHCOOOBCPH",
    "combat": {
      "property": {
        "useCreatorProperty": true,
        "HP": 100.0,
        "attack": 10.0,
        "isInvincible": true,
        "canTriggerBullet": true,
        "ignorePurgeRate": false
      },
      "combatLock": {
        "lockShape": "CircleLockEnemy",
        "denyLockOn": true,
        "lockType": "Default"
      }
    },
    "attackAttenuation": "",
    "abilities": [
      {
        "abilityID": "",
        "abilityName": "Nada_Circle_Ice_Control",
        "abilityOverride": ""
      }
    ],
    "field": {
      "concernType": "AllAvatars",
      "shape": "",
      "AGKCOGKCAGC": "",
      "triggerInfinite": true,
      "lifeInfinite": true,
      "checkInterval": 0.10000000149011612,
      "lifeTime": 10.0,
      "PKBIFJFAJEK": "Trigger",
      "CJIOPEJJHDM": ""
    },
    "BDPGABAMMPP": {
      "lifeTime": 20.0
    }
  },
  "Nada_Circle_Wind": {
    "$type": "IOHCOOOBCPH",
    "combat": {
      "property": {
        "useCreatorProperty": true,
        "HP": 100.0,
        "attack": 10.0,
        "isInvincible": true,
        "canTriggerBullet": true,
        "ignorePurgeRate": false
      },
      "combatLock": {
        "lockShape": "CircleLockEnemy",
        "denyLockOn": true,
        "lockType": "Default"
      }
    },
    "attackAttenuation": "",
    "abilities": [
      {
        "abilityID": "",
        "abilityName": "Nada_Circle_Wind_Control",
        "abilityOverride": ""
      }
    ],
    "field": {
      "concernType": "AllAvatars",
      "shape": "",
      "AGKCOGKCAGC": "",
      "triggerInfinite": true,
      "lifeInfinite": true,
      "checkInterval": 0.10000000149011612,
      "lifeTime": 10.0,
      "PKBIFJFAJEK": "Trigger",
      "CJIOPEJJHDM": ""
    },
    "BDPGABAMMPP": {
      "lifeTime": 20.0
    }
  },
  "Nada_Circle_Water": {
    "$type": "IOHCOOOBCPH",
    "combat": {
      "property": {
        "useCreatorProperty": true,
        "HP": 100.0,
        "attack": 10.0,
        "isInvincible": true,
        "canTriggerBullet": true,
        "ignorePurgeRate": false
      },
      "combatLock": {
        "lockShape": "CircleLockEnemy",
        "denyLockOn": true,
        "lockType": "Default"
      }
    },
    "attackAttenuation": "",
    "abilities": [
      {
        "abilityID": "",
        "abilityName": "Nada_Circle_Water_Control",
        "abilityOverride": ""
      }
    ],
    "field": {
      "concernType": "AllAvatars",
      "shape": "",
      "AGKCOGKCAGC": "",
      "triggerInfinite": true,
      "lifeInfinite": true,
      "checkInterval": 0.10000000149011612,
      "lifeTime": 10.0,
      "PKBIFJFAJEK": "Trigger",
      "CJIOPEJJHDM": ""
    },
    "BDPGABAMMPP": {
      "lifeTime": 20.0
    }
  },
  "Nada_WeakAtk_EnergyBullet_Wind": {
    "$type": "IOHCOOOBCPH",
    "combat": {
      "property": {
        "useCreatorProperty": true,
        "HP": 100.0,
        "attack": 10.0,
        "isInvincible": true,
        "canTriggerBullet": true,
        "ignorePurgeRate": false
      },
      "combatLock": {
        "lockShape": "CircleLockEnemy",
        "denyLockOn": true,
        "lockType": "Default"
      }
    },
    "attackAttenuation": "",
    "abilities": [
      {
        "abilityID": "",
        "abilityName": "Nada_WeakAtk_EnergyBullet_Wind_Explode",
        "abilityOverride": ""
      }
    ],
    "BDPGABAMMPP": {
      "lifeTime": 3.0
    },
    "move": {
      "$type": "CJBKMBOOPHF",
      "NOFDPFHMFNM": 30.0
    },
    "MNNPNOAELLI": {
      "$type": "AFPECAAHDNC",
      "collision": {
        "triggerType": "TriggerNoRepeat",
        "targetType": "Enemy"
      },
      "HDABNDJLLCO": [
        {
          "$type": "HLFEAMOONEP",
          "abilityName": "Nada_WeakAtk_EnergyBullet_Wind_Explode"
        }
      ]
    }
  },
  "Nada_WeakAtk_EnergyBullet_Water": {
    "$type": "IOHCOOOBCPH",
    "combat": {
      "property": {
        "useCreatorProperty": true,
        "HP": 100.0,
        "attack": 10.0,
        "isInvincible": true,
        "canTriggerBullet": true,
        "ignorePurgeRate": false
      },
      "combatLock": {
        "lockShape": "CircleLockEnemy",
        "denyLockOn": true,
        "lockType": "Default"
      }
    },
    "attackAttenuation": "",
    "abilities": [
      {
        "abilityID": "",
        "abilityName": "Nada_WeakAtk_EnergyBullet_Water_Explode",
        "abilityOverride": ""
      }
    ],
    "BDPGABAMMPP": {
      "lifeTime": 3.0
    },
    "move": {
      "$type": "CJBKMBOOPHF",
      "NOFDPFHMFNM": 30.0
    },
    "MNNPNOAELLI": {
      "$type": "AFPECAAHDNC",
      "collision": {
        "triggerType": "TriggerNoRepeat",
        "targetType": "Enemy"
      },
      "HDABNDJLLCO": [
        {
          "$type": "HLFEAMOONEP",
          "abilityName": "Nada_WeakAtk_EnergyBullet_Water_Explode"
        }
      ]
    }
  },
  "Nada_EnergyFIre_EnergyBullet_Wind": {
    "$type": "IOHCOOOBCPH",
    "common": {
      "effectAttachShape": {
        "$type": "PBGINMMOLDC"
      }
    },
    "combat": {
      "property": {
        "useCreatorProperty": true,
        "HP": 999999.0,
        "attack": 10.0,
        "defense": 999999.0,
        "isInvincible": true,
        "canTriggerBullet": true,
        "denyElementStick": true
      },
      "beHit": {
        "hitBloodEffect": "",
        "GKIOKIDJLCA": true,
        "JEPGCKHKDDD": true,
        "muteAllHitText": true
      },
      "combatLock": {
        "lockShape": "CircleLockEnemy",
        "denyLockOn": true,
        "lockType": "Default"
      },
      "JLOMBNMJCLL": {
        "enable": true,
        "radius": 0.5
      }
    },
    "attackAttenuation": "",
    "abilities": [
      {
        "abilityID": "",
        "abilityName": "Nada_EnergyFire_EnergyBullet_Wind_Explode",
        "abilityOverride": ""
      }
    ],
    "BDPGABAMMPP": {
      "lifeTime": 5.0
    },
    "move": {
      "$type": "CBDOHADLMPD"
    },
    "MNNPNOAELLI": {
      "$type": "CJFAOCEMMFK",
      "collision": {},
      "HDABNDJLLCO": [
        {
          "$type": "HLFEAMOONEP",
          "abilityName": "Nada_EnergyFire_EnergyBullet_Wind_Explode"
        }
      ],
      "MHOEMLCBJOO": [
        {
          "$type": "HLFEAMOONEP",
          "abilityName": "Nada_EnergyFire_EnergyBullet_Wind_Explode"
        }
      ],
      "GOMGCHKCHKI": true,
      "DPNINCLDJBF": {
        "$type": "ELMJDPBOJFP",
        "healLimitedByCasterMaxHPRatio": "Eff_Monster_Nada_EnergyFire_EnergyBulletLoop_Wind"
      }
    }
  },
  "Nada_EnergyFIre_EnergyBullet_Water": {
    "$type": "IOHCOOOBCPH",
    "common": {
      "effectAttachShape": {
        "$type": "PBGINMMOLDC"
      }
    },
    "combat": {
      "property": {
        "useCreatorProperty": true,
        "HP": 999999.0,
        "attack": 10.0,
        "defense": 999999.0,
        "isInvincible": true,
        "canTriggerBullet": true,
        "denyElementStick": true
      },
      "beHit": {
        "hitBloodEffect": "",
        "GKIOKIDJLCA": true,
        "JEPGCKHKDDD": true,
        "muteAllHitText": true
      },
      "combatLock": {
        "lockShape": "CircleLockEnemy",
        "denyLockOn": true,
        "lockType": "Default"
      },
      "JLOMBNMJCLL": {
        "enable": true,
        "radius": 0.5
      }
    },
    "attackAttenuation": "",
    "abilities": [
      {
        "abilityID": "",
        "abilityName": "Nada_EnergyFire_EnergyBullet_Water_Explode",
        "abilityOverride": ""
      }
    ],
    "BDPGABAMMPP": {
      "lifeTime": 5.0
    },
    "move": {
      "$type": "CBDOHADLMPD"
    },
    "MNNPNOAELLI": {
      "$type": "CJFAOCEMMFK",
      "collision": {},
      "HDABNDJLLCO": [
        {
          "$type": "HLFEAMOONEP",
          "abilityName": "Nada_EnergyFire_EnergyBullet_Water_Explode"
        }
      ],
      "MHOEMLCBJOO": [
        {
          "$type": "HLFEAMOONEP",
          "abilityName": "Nada_EnergyFire_EnergyBullet_Water_Explode"
        }
      ],
      "GOMGCHKCHKI": true,
      "DPNINCLDJBF": {
        "$type": "ELMJDPBOJFP",
        "healLimitedByCasterMaxHPRatio": "Eff_Monster_Nada_EnergyFire_EnergyBulletLoop_Water"
      }
    }
  },
  "Nada_EnergyFire_TargetPos_Wind": {
    "$type": "IOHCOOOBCPH",
    "combat": {
      "property": {
        "useCreatorProperty": true,
        "HP": 100.0,
        "attack": 10.0,
        "isInvincible": true,
        "canTriggerBullet": true,
        "denyElementStick": true,
        "ignorePurgeRate": false
      },
      "combatLock": {
        "lockShape": "CircleLockEnemy",
        "denyLockOn": true,
        "lockType": "Default"
      }
    },
    "attackAttenuation": "",
    "abilities": [
      {
        "abilityID": "",
        "abilityName": "Nada_EnergyFire_TargetPos",
        "abilityOverride": ""
      }
    ],
    "BDPGABAMMPP": {
      "lifeTime": 20.0
    }
  },
  "Nada_EnergyFire_TargetPos_Water": {
    "$type": "IOHCOOOBCPH",
    "combat": {
      "property": {
        "useCreatorProperty": true,
        "HP": 100.0,
        "attack": 10.0,
        "isInvincible": true,
        "canTriggerBullet": true,
        "denyElementStick": true,
        "ignorePurgeRate": false
      },
      "combatLock": {
        "lockShape": "CircleLockEnemy",
        "denyLockOn": true,
        "lockType": "Default"
      }
    },
    "attackAttenuation": "",
    "abilities": [
      {
        "abilityID": "",
        "abilityName": "Nada_EnergyFire_TargetPos",
        "abilityOverride": ""
      }
    ],
    "BDPGABAMMPP": {
      "lifeTime": 20.0
    }
  },
  "Nada_EnergyFire_LastBullet_Wind": {
    "$type": "IOHCOOOBCPH",
    "combat": {
      "property": {
        "useCreatorProperty": true,
        "HP": 100.0,
        "attack": 10.0,
        "isInvincible": true,
        "canTriggerBullet": true,
        "denyElementStick": true,
        "ignorePurgeRate": false
      },
      "combatLock": {
        "lockShape": "CircleLockEnemy",
        "denyLockOn": true,
        "lockType": "Default"
      }
    },
    "attackAttenuation": "",
    "abilities": [
      {
        "abilityID": "",
        "abilityName": "Nada_EnergyFire_LastBullet_Wind_Explode",
        "abilityOverride": ""
      }
    ],
    "BDPGABAMMPP": {
      "lifeTime": 5.0
    },
    "move": {
      "$type": "MNCDFIAEMIA",
      "NOFDPFHMFNM": 6.0,
      "maxSpeed": 12.0,
      "minSpeed": 6.0,
      "NDLHJKADBGC": 360.0,
      "EILJBCHMAIH": 3.0,
      "BLECDCEAOFM": {
        "$type": "HMFDMPDLMCJ"
      },
      "ELPLIOJMJND": 360.0,
      "NNDCMFPMIFK": 0.20000000298023224,
      "NIMNPPDBKIH": 0.6000000238418579
    },
    "MNNPNOAELLI": {
      "$type": "AFPECAAHDNC",
      "collision": {
        "triggerType": "TriggerNoRepeat",
        "targetType": "Enemy"
      },
      "HDABNDJLLCO": [
        {
          "$type": "HLFEAMOONEP",
          "abilityName": "Nada_EnergyFire_LastBullet_Wind_Explode"
        }
      ]
    }
  },
  "Nada_EnergyFire_LastBullet_Water": {
    "$type": "IOHCOOOBCPH",
    "combat": {
      "property": {
        "useCreatorProperty": true,
        "HP": 100.0,
        "attack": 10.0,
        "isInvincible": true,
        "canTriggerBullet": true,
        "denyElementStick": true,
        "ignorePurgeRate": false
      },
      "combatLock": {
        "lockShape": "CircleLockEnemy",
        "denyLockOn": true,
        "lockType": "Default"
      }
    },
    "attackAttenuation": "",
    "abilities": [
      {
        "abilityID": "",
        "abilityName": "Nada_EnergyFire_LastBullet_Water_Explode",
        "abilityOverride": ""
      }
    ],
    "BDPGABAMMPP": {
      "lifeTime": 5.0
    },
    "move": {
      "$type": "MNCDFIAEMIA",
      "NOFDPFHMFNM": 6.0,
      "maxSpeed": 12.0,
      "minSpeed": 6.0,
      "NDLHJKADBGC": 360.0,
      "EILJBCHMAIH": 3.0,
      "BLECDCEAOFM": {
        "$type": "HMFDMPDLMCJ"
      },
      "ELPLIOJMJND": 360.0,
      "NNDCMFPMIFK": 0.20000000298023224,
      "NIMNPPDBKIH": 0.6000000238418579
    },
    "MNNPNOAELLI": {
      "$type": "AFPECAAHDNC",
      "collision": {
        "triggerType": "TriggerNoRepeat",
        "targetType": "Enemy"
      },
      "HDABNDJLLCO": [
        {
          "$type": "HLFEAMOONEP",
          "abilityName": "Nada_EnergyFire_LastBullet_Water_Explode"
        }
      ]
    }
  },
  "Nada_EnergySpire_TornadoPos": {
    "$type": "IOHCOOOBCPH",
    "combat": {
      "property": {
        "useCreatorProperty": true,
        "HP": 100.0,
        "attack": 10.0,
        "isInvincible": true,
        "canTriggerBullet": true,
        "denyElementStick": true,
        "ignorePurgeRate": false
      },
      "combatLock": {
        "lockShape": "CircleLockEnemy",
        "denyLockOn": true,
        "lockType": "Default"
      }
    },
    "attackAttenuation": "",
    "abilities": [
      {
        "abilityID": "",
        "abilityName": "Nada_EnergySpire_TornadoPos",
        "abilityOverride": ""
      }
    ],
    "BDPGABAMMPP": {
      "lifeTime": 20.0
    }
  },
  "Nada_EnergySpire_Tornado": {
    "$type": "IOHCOOOBCPH",
    "combat": {
      "property": {
        "useCreatorProperty": true,
        "HP": 100.0,
        "attack": 10.0,
        "isInvincible": true,
        "canTriggerBullet": true,
        "denyElementStick": true,
        "ignorePurgeRate": false
      },
      "combatLock": {
        "lockShape": "CircleLockEnemy",
        "denyLockOn": true,
        "lockType": "Default"
      }
    },
    "attackAttenuation": "",
    "abilities": [
      {
        "abilityID": "",
        "abilityName": "Nada_EnergySpire_Tornado",
        "abilityOverride": ""
      }
    ],
    "BDPGABAMMPP": {
      "lifeTime": 12.0
    },
    "move": {
      "$type": "DDKFBOMNHAJ",
      "BGKIHCPJBMO": {
        "excludeForces": [
          "WindZoneType",
          "AirflowType",
          "RiseType",
          "SpeedupType",
          "AirflowAccType"
        ]
      },
      "NOFDPFHMFNM": 3.5,
      "BLECDCEAOFM": {
        "$type": "HMFDMPDLMCJ",
        "LMMIHLFCHOD": 360.0
      },
      "CAMKOAKMJHD": 1.7999999523162842,
      "radius": 6.0,
      "HFFPPCEMOGJ": true,
      "MPIHEFDEJPH": 60.0,
      "FHNHGAMGOKE": 0.20000000298023224,
      "HGJFIENGDNH": 0.5
    }
  },
  "Nada_LarrayArray": {
    "$type": "IOHCOOOBCPH",
    "combat": {
      "property": {
        "useCreatorProperty": true,
        "HP": 100.0,
        "attack": 10.0,
        "isInvincible": true,
        "canTriggerBullet": true,
        "denyElementStick": true,
        "ignorePurgeRate": false
      },
      "combatLock": {
        "lockShape": "CircleLockEnemy",
        "denyLockOn": true,
        "lockType": "Default"
      }
    },
    "attackAttenuation": "",
    "abilities": [
      {
        "abilityID": "",
        "abilityName": "Nada_LaserArrayAtk",
        "abilityOverride": ""
      }
    ],
    "BDPGABAMMPP": {
      "lifeTime": 10.5
    },
    "MNNPNOAELLI": {
      "$type": "AFPECAAHDNC",
      "collision": {
        "triggerType": "TriggerAlways",
        "triggerCD": 0.5,
        "targetType": "Enemy"
      },
      "HDABNDJLLCO": [
        {
          "$type": "HLFEAMOONEP",
          "abilityName": "Nada_LaserArrayAtk"
        }
      ]
    }
  },
  "Nada_CoreExlpode_ElectricPulse": {
    "$type": "IOHCOOOBCPH",
    "combat": {
      "property": {
        "useCreatorProperty": true,
        "HP": 100.0,
        "attack": 10.0,
        "isInvincible": true,
        "canTriggerBullet": true,
        "denyElementStick": true,
        "ignorePurgeRate": false
      },
      "combatLock": {
        "lockShape": "CircleLockEnemy",
        "denyLockOn": true,
        "lockType": "Default"
      }
    },
    "attackAttenuation": "",
    "abilities": [
      {
        "abilityID": "",
        "abilityName": "Shougun_Mitakenarukami_Burst01_Vajra",
        "abilityOverride": ""
      }
    ],
    "BDPGABAMMPP": {
      "lifeTime": 20.0
    }
  },
  "Nada_SwapAtkL": {
    "$type": "IOHCOOOBCPH",
    "combat": {
      "property": {
        "useCreatorProperty": true,
        "HP": 100.0,
        "attack": 10.0,
        "isInvincible": true,
        "canTriggerBullet": true,
        "denyElementStick": true,
        "ignorePurgeRate": false
      },
      "combatLock": {
        "lockShape": "CircleLockEnemy",
        "denyLockOn": true,
        "lockType": "Default"
      }
    },
    "attackAttenuation": "",
    "abilities": [
      {
        "abilityID": "",
        "abilityName": "Nada_SwapAtkL_Attack",
        "abilityOverride": ""
      }
    ],
    "BDPGABAMMPP": {
      "lifeTime": 0.6000000238418579
    },
    "move": {
      "$type": "BELFBLEANMG",
      "target": "TargetEntity",
      "IIKEHINGEME": "HandEffectAttachPointL01",
      "IHAJOCLBEOK": ""
    },
    "MNNPNOAELLI": {
      "$type": "AFPECAAHDNC",
      "collision": {
        "triggerType": "TriggerNoRepeat",
        "targetType": "Enemy",
        "ignoreScene": true
      },
      "HDABNDJLLCO": [
        {
          "$type": "HLFEAMOONEP",
          "abilityName": "Nada_SwapAtkL_Attack"
        }
      ]
    }
  },
  "Nada_SwapAtkR": {
    "$type": "IOHCOOOBCPH",
    "combat": {
      "property": {
        "useCreatorProperty": true,
        "HP": 100.0,
        "attack": 10.0,
        "isInvincible": true,
        "canTriggerBullet": true,
        "denyElementStick": true,
        "ignorePurgeRate": false
      },
      "combatLock": {
        "lockShape": "CircleLockEnemy",
        "denyLockOn": true,
        "lockType": "Default"
      }
    },
    "attackAttenuation": "",
    "abilities": [
      {
        "abilityID": "",
        "abilityName": "Nada_SwapAtkR_Attack",
        "abilityOverride": ""
      }
    ],
    "BDPGABAMMPP": {
      "lifeTime": 0.6000000238418579
    },
    "move": {
      "$type": "BELFBLEANMG",
      "target": "TargetEntity",
      "IIKEHINGEME": "HandEffectAttachPointR01",
      "ABIHJGPBBFD": true,
      "IHAJOCLBEOK": ""
    },
    "MNNPNOAELLI": {
      "$type": "AFPECAAHDNC",
      "collision": {
        "triggerType": "TriggerNoRepeat",
        "targetType": "Enemy"
      },
      "HDABNDJLLCO": [
        {
          "$type": "HLFEAMOONEP",
          "abilityName": "Nada_SwapAtkR_Attack"
        }
      ]
    }
  },
  "Nada_Airflow": {
    "$type": "IOHCOOOBCPH",
    "attackAttenuation": "",
    "BDPGABAMMPP": {
      "lifeTime": 20.0
    },
    "DDOEFBHBEPJ": {
      "CAPPPCGOCIH": {
        "$type": "GPFENCHGIDA",
        "alias": "",
        "velocity": 10.0,
        "stayEffect": "Eff_Windfield_Stay",
        "enterEffect": "Eff_Windfield_Enter"
      },
      "HGJJHLBEICG": ""
    }
  },
  "Nada_WaterShield": {
    "$type": "IOHCOOOBCPH",
    "combat": {
      "property": {
        "HP": 100.0,
        "attack": 10.0,
        "weight": 9999.0,
        "isLockHP": true,
        "canTriggerBullet": true
      },
      "beHit": {
        "hitBloodEffect": "",
        "JEPGCKHKDDD": true,
        "muteAllHitText": true
      },
      "combatLock": {
        "lockShape": "CircleLockEnemy",
        "denyLockOn": true,
        "lockType": "Default"
      }
    },
    "attackAttenuation": "",
    "abilities": [
      {
        "abilityID": "Nada_WaterShield_Settings",
        "abilityName": "Nada_WaterShield_Settings",
        "abilityOverride": ""
      }
    ],
    "field": {
      "concernType": "AllTeams",
      "shape": "CircleR3.5H2",
      "AGKCOGKCAGC": "",
      "triggerInfinite": true,
      "checkInterval": 0.20000000298023224,
      "lifeTime": 20.0,
      "useCollider": false,
      "PKBIFJFAJEK": "",
      "CJIOPEJJHDM": ""
    },
    "BDPGABAMMPP": {
      "lifeTime": 20.0
    }
  },
  "Nada_Stomp_ElectricCircle": {
    "$type": "IOHCOOOBCPH",
    "combat": {
      "property": {
        "useCreatorProperty": true,
        "HP": 100.0,
        "attack": 10.0,
        "isInvincible": true,
        "canTriggerBullet": true,
        "denyElementStick": true,
        "ignorePurgeRate": false
      },
      "combatLock": {
        "lockShape": "CircleLockEnemy",
        "denyLockOn": true,
        "lockType": "Default"
      }
    },
    "attackAttenuation": "",
    "abilities": [
      {
        "abilityID": "",
        "abilityName": "Nada_Stomp_ElectricCircle_Hit",
        "abilityOverride": ""
      }
    ],
    "BDPGABAMMPP": {
      "lifeTime": 3.0
    },
    "MNNPNOAELLI": {
      "$type": "AFPECAAHDNC",
      "collision": {
        "triggerType": "TriggerNoRepeat",
        "targetType": "Enemy"
      },
      "HDABNDJLLCO": [
        {
          "$type": "HLFEAMOONEP",
          "abilityName": "Nada_Stomp_ElectricCircle_Hit"
        }
      ]
    }
  },
  "Nada_ElementBomb_FireBullet": {
    "$type": "IOHCOOOBCPH",
    "common": {
      "effectAttachShape": {
        "$type": "PBGINMMOLDC"
      }
    },
    "combat": {
      "property": {
        "useCreatorProperty": true,
        "HP": 999999.0,
        "attack": 10.0,
        "defense": 999999.0,
        "isInvincible": true,
        "canTriggerBullet": true,
        "denyElementStick": true
      },
      "beHit": {
        "hitBloodEffect": "",
        "GKIOKIDJLCA": true,
        "JEPGCKHKDDD": true,
        "muteAllHitText": true
      },
      "combatLock": {
        "lockShape": "CircleLockEnemy",
        "denyLockOn": true,
        "lockType": "Default"
      },
      "JLOMBNMJCLL": {
        "enable": true,
        "radius": 0.5
      }
    },
    "attackAttenuation": "",
    "abilities": [
      {
        "abilityID": "",
        "abilityName": "Nada_ElementBomb_FireBullet_Explode",
        "abilityOverride": ""
      }
    ],
    "BDPGABAMMPP": {
      "lifeTime": 7.5
    },
    "move": {
      "$type": "CBDOHADLMPD"
    },
    "MNNPNOAELLI": {
      "$type": "CJFAOCEMMFK",
      "collision": {},
      "HDABNDJLLCO": [
        {
          "$type": "HLFEAMOONEP",
          "abilityName": "Nada_ElementBomb_FireBullet_Explode"
        }
      ],
      "MHOEMLCBJOO": [
        {
          "$type": "HLFEAMOONEP",
          "abilityName": "Nada_ElementBomb_FireBullet_Explode"
        }
      ],
      "GOMGCHKCHKI": true,
      "DPNINCLDJBF": {
        "$type": "ELMJDPBOJFP",
        "healLimitedByCasterMaxHPRatio": "Eff_Monster_Nada_ElementalBomb_Fire"
      }
    }
  },
  "Nada_ElementBomb_IceBullet": {
    "$type": "IOHCOOOBCPH",
    "common": {
      "effectAttachShape": {
        "$type": "PBGINMMOLDC"
      }
    },
    "combat": {
      "property": {
        "useCreatorProperty": true,
        "HP": 999999.0,
        "attack": 10.0,
        "defense": 999999.0,
        "isInvincible": true,
        "canTriggerBullet": true,
        "denyElementStick": true
      },
      "beHit": {
        "hitBloodEffect": "",
        "GKIOKIDJLCA": true,
        "JEPGCKHKDDD": true,
        "muteAllHitText": true
      },
      "combatLock": {
        "lockShape": "CircleLockEnemy",
        "denyLockOn": true,
        "lockType": "Default"
      },
      "JLOMBNMJCLL": {
        "enable": true,
        "radius": 0.5
      }
    },
    "attackAttenuation": "",
    "abilities": [
      {
        "abilityID": "",
        "abilityName": "Nada_ElementBomb_IceBullet_Explode",
        "abilityOverride": ""
      }
    ],
    "BDPGABAMMPP": {
      "lifeTime": 7.5
    },
    "move": {
      "$type": "CBDOHADLMPD"
    },
    "MNNPNOAELLI": {
      "$type": "CJFAOCEMMFK",
      "collision": {},
      "HDABNDJLLCO": [
        {
          "$type": "HLFEAMOONEP",
          "abilityName": "Nada_ElementBomb_IceBullet_Explode"
        }
      ],
      "MHOEMLCBJOO": [
        {
          "$type": "HLFEAMOONEP",
          "abilityName": "Nada_ElementBomb_IceBullet_Explode"
        }
      ],
      "GOMGCHKCHKI": true,
      "DPNINCLDJBF": {
        "$type": "ELMJDPBOJFP",
        "healLimitedByCasterMaxHPRatio": "Eff_Monster_Nada_ElementalBomb_Ice"
      }
    }
  },
  "Nada_ElementBomb_WindBullet": {
    "$type": "IOHCOOOBCPH",
    "common": {
      "effectAttachShape": {
        "$type": "PBGINMMOLDC"
      }
    },
    "combat": {
      "property": {
        "useCreatorProperty": true,
        "HP": 999999.0,
        "attack": 10.0,
        "defense": 999999.0,
        "isInvincible": true,
        "canTriggerBullet": true,
        "denyElementStick": true
      },
      "beHit": {
        "hitBloodEffect": "",
        "GKIOKIDJLCA": true,
        "JEPGCKHKDDD": true,
        "muteAllHitText": true
      },
      "combatLock": {
        "lockShape": "CircleLockEnemy",
        "denyLockOn": true,
        "lockType": "Default"
      },
      "JLOMBNMJCLL": {
        "enable": true,
        "radius": 0.5
      }
    },
    "attackAttenuation": "",
    "abilities": [
      {
        "abilityID": "",
        "abilityName": "Nada_ElementBomb_WindBullet_Explode",
        "abilityOverride": ""
      }
    ],
    "BDPGABAMMPP": {
      "lifeTime": 7.5
    },
    "move": {
      "$type": "CBDOHADLMPD"
    },
    "MNNPNOAELLI": {
      "$type": "CJFAOCEMMFK",
      "collision": {},
      "HDABNDJLLCO": [
        {
          "$type": "HLFEAMOONEP",
          "abilityName": "Nada_ElementBomb_WindBullet_Explode"
        }
      ],
      "MHOEMLCBJOO": [
        {
          "$type": "HLFEAMOONEP",
          "abilityName": "Nada_ElementBomb_WindBullet_Explode"
        }
      ],
      "GOMGCHKCHKI": true,
      "DPNINCLDJBF": {
        "$type": "ELMJDPBOJFP",
        "healLimitedByCasterMaxHPRatio": "Eff_Monster_Nada_ElementalBomb_Wind"
      }
    }
  },
  "Nada_ElementBomb_WaterBullet": {
    "$type": "IOHCOOOBCPH",
    "common": {
      "effectAttachShape": {
        "$type": "PBGINMMOLDC"
      }
    },
    "combat": {
      "property": {
        "useCreatorProperty": true,
        "HP": 999999.0,
        "attack": 10.0,
        "defense": 999999.0,
        "isInvincible": true,
        "canTriggerBullet": true,
        "denyElementStick": true
      },
      "beHit": {
        "hitBloodEffect": "",
        "GKIOKIDJLCA": true,
        "JEPGCKHKDDD": true,
        "muteAllHitText": true
      },
      "combatLock": {
        "lockShape": "CircleLockEnemy",
        "denyLockOn": true,
        "lockType": "Default"
      },
      "JLOMBNMJCLL": {
        "enable": true,
        "radius": 0.5
      }
    },
    "attackAttenuation": "",
    "abilities": [
      {
        "abilityID": "",
        "abilityName": "Nada_ElementBomb_WaterBullet_Explode",
        "abilityOverride": ""
      }
    ],
    "BDPGABAMMPP": {
      "lifeTime": 7.5
    },
    "move": {
      "$type": "CBDOHADLMPD"
    },
    "MNNPNOAELLI": {
      "$type": "CJFAOCEMMFK",
      "collision": {},
      "HDABNDJLLCO": [
        {
          "$type": "HLFEAMOONEP",
          "abilityName": "Nada_ElementBomb_WaterBullet_Explode"
        }
      ],
      "MHOEMLCBJOO": [
        {
          "$type": "HLFEAMOONEP",
          "abilityName": "Nada_ElementBomb_WaterBullet_Explode"
        }
      ],
      "GOMGCHKCHKI": true,
      "DPNINCLDJBF": {
        "$type": "ELMJDPBOJFP",
        "healLimitedByCasterMaxHPRatio": "Eff_Monster_Nada_ElementalBomb_Water"
      }
    }
  },
  "Nada_ElementBomb_FireBomb": {
    "$type": "IOHCOOOBCPH",
    "specialPoint": {
      "elementAbsorb": "RootNode",
      "elementPendant": "",
      "elementDrop": "RootNode",
      "bulletAim": "BulletAim"
    },
    "combat": {
      "property": {
        "useCreatorProperty": true,
        "HP": 100.0,
        "attack": 10.0,
        "isLockHP": true,
        "canTriggerBullet": true
      },
      "beHit": {
        "hitBloodEffect": "",
        "muteAllHitText": true
      },
      "combatLock": {
        "lockShape": "CircleLockEnemy",
        "lockType": "Boss_Lv5"
      }
    },
    "attackAttenuation": "",
    "abilities": [
      {
        "abilityID": "",
        "abilityName": "Nada_ElementBomb_FireBomb_Explode",
        "abilityOverride": ""
      }
    ],
    "BDPGABAMMPP": {
      "lifeTime": 20.0
    },
    "billboard": {
      "$type": "HFEGKLAIGGI",
      "IIKEHINGEME": "BillboardAttach",
      "offset": {
        "y": 1.75
      },
      "HECLHMINJII": 0.5,
      "showDistance": 48.0,
      "DMHOOGGGDKG": true,
      "KAJOCAAOIFN": 48.0,
      "GFHHHAEBHHL": true
    }
  },
  "Nada_ElementBomb_IceBomb": {
    "$type": "IOHCOOOBCPH",
    "specialPoint": {
      "elementAbsorb": "RootNode",
      "elementPendant": "",
      "elementDrop": "RootNode",
      "bulletAim": "BulletAim"
    },
    "combat": {
      "property": {
        "useCreatorProperty": true,
        "HP": 100.0,
        "attack": 10.0,
        "isLockHP": true,
        "canTriggerBullet": true
      },
      "beHit": {
        "hitBloodEffect": "",
        "muteAllHitText": true
      },
      "combatLock": {
        "lockShape": "CircleLockEnemy",
        "lockType": "Boss_Lv5"
      }
    },
    "attackAttenuation": "",
    "abilities": [
      {
        "abilityID": "",
        "abilityName": "Nada_ElementBomb_IceBomb_Explode",
        "abilityOverride": ""
      }
    ],
    "BDPGABAMMPP": {
      "lifeTime": 20.0
    },
    "billboard": {
      "$type": "HFEGKLAIGGI",
      "IIKEHINGEME": "BillboardAttach",
      "offset": {
        "y": 1.75
      },
      "HECLHMINJII": 0.5,
      "showDistance": 48.0,
      "DMHOOGGGDKG": true,
      "KAJOCAAOIFN": 48.0,
      "GFHHHAEBHHL": true
    }
  },
  "Nada_ElementBomb_WindBomb": {
    "$type": "IOHCOOOBCPH",
    "specialPoint": {
      "elementAbsorb": "RootNode",
      "elementPendant": "",
      "elementDrop": "RootNode",
      "bulletAim": "BulletAim"
    },
    "combat": {
      "property": {
        "useCreatorProperty": true,
        "HP": 100.0,
        "attack": 10.0,
        "isLockHP": true,
        "canTriggerBullet": true
      },
      "beHit": {
        "hitBloodEffect": "",
        "muteAllHitText": true
      },
      "combatLock": {
        "lockShape": "CircleLockEnemy",
        "lockType": "Boss_Lv5"
      }
    },
    "attackAttenuation": "",
    "abilities": [
      {
        "abilityID": "",
        "abilityName": "Nada_ElementBomb_WindBomb_Explode",
        "abilityOverride": ""
      }
    ],
    "BDPGABAMMPP": {
      "lifeTime": 20.0
    },
    "billboard": {
      "$type": "HFEGKLAIGGI",
      "IIKEHINGEME": "BillboardAttach",
      "offset": {
        "y": 1.75
      },
      "HECLHMINJII": 0.5,
      "showDistance": 48.0,
      "DMHOOGGGDKG": true,
      "KAJOCAAOIFN": 48.0,
      "GFHHHAEBHHL": true
    }
  },
  "Nada_ElementBomb_WaterBomb": {
    "$type": "IOHCOOOBCPH",
    "specialPoint": {
      "elementAbsorb": "RootNode",
      "elementPendant": "",
      "elementDrop": "RootNode",
      "bulletAim": "BulletAim"
    },
    "combat": {
      "property": {
        "useCreatorProperty": true,
        "HP": 100.0,
        "attack": 10.0,
        "isLockHP": true,
        "canTriggerBullet": true
      },
      "beHit": {
        "hitBloodEffect": "",
        "muteAllHitText": true
      },
      "combatLock": {
        "lockShape": "CircleLockEnemy",
        "lockType": "Boss_Lv5"
      }
    },
    "attackAttenuation": "",
    "abilities": [
      {
        "abilityID": "",
        "abilityName": "Nada_ElementBomb_WaterBomb_Explode",
        "abilityOverride": ""
      }
    ],
    "BDPGABAMMPP": {
      "lifeTime": 20.0
    },
    "billboard": {
      "$type": "HFEGKLAIGGI",
      "IIKEHINGEME": "BillboardAttach",
      "offset": {
        "y": 1.75
      },
      "HECLHMINJII": 0.5,
      "showDistance": 48.0,
      "DMHOOGGGDKG": true,
      "KAJOCAAOIFN": 48.0,
      "GFHHHAEBHHL": true
    }
  },
  "Nada_ElementCircle_Wind": {
    "$type": "IOHCOOOBCPH",
    "combat": {
      "property": {
        "useCreatorProperty": true,
        "HP": 100.0,
        "attack": 10.0,
        "isInvincible": true,
        "canTriggerBullet": true,
        "denyElementStick": true,
        "ignorePurgeRate": false
      },
      "beHit": {
        "hitBloodEffect": "",
        "muteAllHitText": true
      },
      "combatLock": {
        "lockShape": "CircleLockEnemy",
        "denyLockOn": true,
        "lockType": "Default"
      }
    },
    "attackAttenuation": "",
    "abilities": [
      {
        "abilityID": "",
        "abilityName": "Shougun_Mitakenarukami_Burst01_Vajra",
        "abilityOverride": ""
      }
    ],
    "BDPGABAMMPP": {
      "lifeTime": 20.0
    }
  },
  "Nada_ElementCircle_Water": {
    "$type": "IOHCOOOBCPH",
    "combat": {
      "property": {
        "useCreatorProperty": true,
        "HP": 100.0,
        "attack": 10.0,
        "isInvincible": true,
        "canTriggerBullet": true,
        "denyElementStick": true,
        "ignorePurgeRate": false
      },
      "combatLock": {
        "lockShape": "CircleLockEnemy",
        "denyLockOn": true,
        "lockType": "Default"
      }
    },
    "attackAttenuation": "",
    "abilities": [
      {
        "abilityID": "",
        "abilityName": "Shougun_Mitakenarukami_Burst01_Vajra",
        "abilityOverride": ""
      }
    ],
    "BDPGABAMMPP": {
      "lifeTime": 20.0
    }
  },
  "Nada_BarrageArray_Array": {
    "$type": "IOHCOOOBCPH",
    "combat": {
      "property": {
        "useCreatorProperty": true,
        "HP": 100.0,
        "attack": 10.0,
        "isInvincible": true,
        "canTriggerBullet": true,
        "ignorePurgeRate": false
      },
      "combatLock": {
        "lockShape": "CircleLockEnemy",
        "denyLockOn": true,
        "lockType": "Default"
      }
    },
    "attackAttenuation": "",
    "abilities": [
      {
        "abilityID": "",
        "abilityName": "Nada_BarrageArray_Array",
        "abilityOverride": ""
      }
    ],
    "BDPGABAMMPP": {
      "lifeTime": 30.0
    },
    "move": {
      "$type": "EHIGOGOLKOO",
      "NOFDPFHMFNM": 4.0,
      "CAMKOAKMJHD": 4.0
    },
    "MNNPNOAELLI": {
      "$type": "AFPECAAHDNC",
      "collision": {
        "triggerType": "TriggerNoRepeat",
        "targetType": "Enemy"
      }
    }
  },
  "Nada_BarrageArray_Bullet": {
    "$type": "IOHCOOOBCPH",
    "common": {
      "effectAttachShape": {
        "$type": "PBGINMMOLDC"
      }
    },
    "combat": {
      "property": {
        "useCreatorProperty": true,
        "HP": 999999.0,
        "attack": 10.0,
        "defense": 999999.0,
        "isInvincible": true,
        "canTriggerBullet": true,
        "denyElementStick": true
      },
      "beHit": {
        "hitBloodEffect": "",
        "GKIOKIDJLCA": true,
        "JEPGCKHKDDD": true,
        "muteAllHitText": true
      },
      "combatLock": {
        "lockShape": "CircleLockEnemy",
        "denyLockOn": true,
        "lockType": "Default"
      },
      "JLOMBNMJCLL": {
        "enable": true,
        "radius": 0.5
      }
    },
    "attackAttenuation": "",
    "abilities": [
      {
        "abilityID": "",
        "abilityName": "Nada_BarrageArray_Bullet_Explode",
        "abilityOverride": ""
      }
    ],
    "BDPGABAMMPP": {
      "lifeTime": 20.0
    },
    "move": {
      "$type": "CBDOHADLMPD"
    },
    "MNNPNOAELLI": {
      "$type": "CJFAOCEMMFK",
      "collision": {},
      "HDABNDJLLCO": [
        {
          "$type": "HLFEAMOONEP",
          "abilityName": "Nada_BarrageArray_Bullet_Explode"
        }
      ],
      "MHOEMLCBJOO": [
        {
          "$type": "HLFEAMOONEP",
          "abilityName": "Nada_BarrageArray_Bullet_Explode"
        }
      ],
      "GOMGCHKCHKI": true,
      "DPNINCLDJBF": {
        "$type": "ELMJDPBOJFP",
        "healLimitedByCasterMaxHPRatio": "Eff_Monster_Nada_BarrageArray_Bullet"
      }
    }
  },
  "Nada_FistDrop_Charge_Fire": {
    "$type": "IOHCOOOBCPH",
    "combat": {
      "property": {
        "useCreatorProperty": true,
        "HP": 100.0,
        "attack": 10.0,
        "isInvincible": true,
        "canTriggerBullet": true,
        "denyElementStick": true,
        "ignorePurgeRate": false
      },
      "combatLock": {
        "lockShape": "CircleLockEnemy",
        "denyLockOn": true,
        "lockType": "Default"
      }
    },
    "attackAttenuation": "",
    "abilities": [
      {
        "abilityID": "",
        "abilityName": "Nada_FistDrop_Charge_Fire",
        "abilityOverride": ""
      }
    ],
    "BDPGABAMMPP": {
      "lifeTime": 0.699999988079071
    },
    "move": {
      "$type": "BELFBLEANMG",
      "target": "TargetEntity",
      "IIKEHINGEME": "RootNode",
      "ABIHJGPBBFD": true,
      "IHAJOCLBEOK": ""
    },
    "MNNPNOAELLI": {
      "$type": "AFPECAAHDNC",
      "collision": {
        "triggerType": "TriggerNoRepeat",
        "targetType": "Enemy"
      },
      "HDABNDJLLCO": [
        {
          "$type": "HLFEAMOONEP",
          "abilityName": "Nada_FistDrop_Charge_Fire"
        }
      ]
    }
  },
  "Nada_FistDrop_Charge_Ice": {
    "$type": "IOHCOOOBCPH",
    "combat": {
      "property": {
        "useCreatorProperty": true,
        "HP": 100.0,
        "attack": 10.0,
        "isInvincible": true,
        "canTriggerBullet": true,
        "denyElementStick": true,
        "ignorePurgeRate": false
      },
      "combatLock": {
        "lockShape": "CircleLockEnemy",
        "denyLockOn": true,
        "lockType": "Default"
      }
    },
    "attackAttenuation": "",
    "abilities": [
      {
        "abilityID": "",
        "abilityName": "Nada_FistDrop_Charge_Ice",
        "abilityOverride": ""
      }
    ],
    "BDPGABAMMPP": {
      "lifeTime": 0.699999988079071
    },
    "move": {
      "$type": "BELFBLEANMG",
      "target": "TargetEntity",
      "IIKEHINGEME": "RootNode",
      "ABIHJGPBBFD": true,
      "IHAJOCLBEOK": ""
    },
    "MNNPNOAELLI": {
      "$type": "AFPECAAHDNC",
      "collision": {
        "triggerType": "TriggerNoRepeat",
        "targetType": "Enemy"
      },
      "HDABNDJLLCO": [
        {
          "$type": "HLFEAMOONEP",
          "abilityName": "Nada_FistDrop_Charge_Ice"
        }
      ]
    }
  },
  "Nada_FistDrop_Area_Fire": {
    "$type": "IOHCOOOBCPH",
    "combat": {
      "property": {
        "useCreatorProperty": true,
        "HP": 100.0,
        "attack": 10.0,
        "isInvincible": true,
        "canTriggerBullet": true,
        "denyElementStick": true,
        "ignorePurgeRate": false
      },
      "combatLock": {
        "lockShape": "CircleLockEnemy",
        "denyLockOn": true,
        "lockType": "Default"
      }
    },
    "attackAttenuation": "",
    "abilities": [
      {
        "abilityID": "",
        "abilityName": "Nada_FistDrop_Area_Fire",
        "abilityOverride": ""
      }
    ],
    "BDPGABAMMPP": {
      "lifeTime": 5.0
    }
  },
  "Nada_FistDrop_Area_Ice": {
    "$type": "IOHCOOOBCPH",
    "combat": {
      "property": {
        "useCreatorProperty": true,
        "HP": 100.0,
        "attack": 10.0,
        "isInvincible": true,
        "canTriggerBullet": true,
        "denyElementStick": true,
        "ignorePurgeRate": false
      },
      "combatLock": {
        "lockShape": "CircleLockEnemy",
        "denyLockOn": true,
        "lockType": "Default"
      }
    },
    "attackAttenuation": "",
    "abilities": [
      {
        "abilityID": "",
        "abilityName": "Nada_FistDrop_Area_Ice",
        "abilityOverride": ""
      }
    ],
    "BDPGABAMMPP": {
      "lifeTime": 5.0
    }
  },
  "Nada_ElementBomb_FireBullet02": {
    "$type": "IOHCOOOBCPH",
    "common": {
      "effectAttachShape": {
        "$type": "PBGINMMOLDC"
      }
    },
    "combat": {
      "property": {
        "useCreatorProperty": true,
        "HP": 999999.0,
        "attack": 10.0,
        "defense": 999999.0,
        "isInvincible": true,
        "canTriggerBullet": true,
        "denyElementStick": true
      },
      "beHit": {
        "hitBloodEffect": "",
        "GKIOKIDJLCA": true,
        "JEPGCKHKDDD": true,
        "muteAllHitText": true
      },
      "combatLock": {
        "lockShape": "CircleLockEnemy",
        "denyLockOn": true,
        "lockType": "Default"
      },
      "JLOMBNMJCLL": {
        "enable": true,
        "radius": 0.5
      }
    },
    "attackAttenuation": "",
    "abilities": [
      {
        "abilityID": "",
        "abilityName": "Nada_ElementBomb_FireBullet02_Explode",
        "abilityOverride": ""
      }
    ],
    "BDPGABAMMPP": {
      "lifeTime": 7.5
    },
    "move": {
      "$type": "CBDOHADLMPD"
    },
    "MNNPNOAELLI": {
      "$type": "CJFAOCEMMFK",
      "collision": {},
      "HDABNDJLLCO": [
        {
          "$type": "HLFEAMOONEP",
          "abilityName": "Nada_ElementBomb_FireBullet02_Explode"
        }
      ],
      "MHOEMLCBJOO": [
        {
          "$type": "HLFEAMOONEP",
          "abilityName": "Nada_ElementBomb_FireBullet02_Explode"
        }
      ],
      "GOMGCHKCHKI": true,
      "DPNINCLDJBF": {
        "$type": "ELMJDPBOJFP",
        "healLimitedByCasterMaxHPRatio": "Eff_Monster_Nada_ElementalBomb_Fire02"
      }
    }
  },
  "Nada_ElementBomb_IceBullet02": {
    "$type": "IOHCOOOBCPH",
    "common": {
      "effectAttachShape": {
        "$type": "PBGINMMOLDC"
      }
    },
    "combat": {
      "property": {
        "useCreatorProperty": true,
        "HP": 999999.0,
        "attack": 10.0,
        "defense": 999999.0,
        "isInvincible": true,
        "canTriggerBullet": true,
        "denyElementStick": true
      },
      "beHit": {
        "hitBloodEffect": "",
        "GKIOKIDJLCA": true,
        "JEPGCKHKDDD": true,
        "muteAllHitText": true
      },
      "combatLock": {
        "lockShape": "CircleLockEnemy",
        "denyLockOn": true,
        "lockType": "Default"
      },
      "JLOMBNMJCLL": {
        "enable": true,
        "radius": 0.5
      }
    },
    "attackAttenuation": "",
    "abilities": [
      {
        "abilityID": "",
        "abilityName": "Nada_ElementBomb_IceBullet02_Explode",
        "abilityOverride": ""
      }
    ],
    "BDPGABAMMPP": {
      "lifeTime": 7.5
    },
    "move": {
      "$type": "CBDOHADLMPD"
    },
    "MNNPNOAELLI": {
      "$type": "CJFAOCEMMFK",
      "collision": {},
      "HDABNDJLLCO": [
        {
          "$type": "HLFEAMOONEP",
          "abilityName": "Nada_ElementBomb_IceBullet02_Explode"
        }
      ],
      "MHOEMLCBJOO": [
        {
          "$type": "HLFEAMOONEP",
          "abilityName": "Nada_ElementBomb_IceBullet02_Explode"
        }
      ],
      "GOMGCHKCHKI": true,
      "DPNINCLDJBF": {
        "$type": "ELMJDPBOJFP",
        "healLimitedByCasterMaxHPRatio": "Eff_Monster_Nada_ElementalBomb_Ice02"
      }
    }
  },
  "Nada_ElementBomb_WindBullet02": {
    "$type": "IOHCOOOBCPH",
    "common": {
      "effectAttachShape": {
        "$type": "PBGINMMOLDC"
      }
    },
    "combat": {
      "property": {
        "useCreatorProperty": true,
        "HP": 999999.0,
        "attack": 10.0,
        "defense": 999999.0,
        "isInvincible": true,
        "canTriggerBullet": true,
        "denyElementStick": true
      },
      "beHit": {
        "hitBloodEffect": "",
        "GKIOKIDJLCA": true,
        "JEPGCKHKDDD": true,
        "muteAllHitText": true
      },
      "combatLock": {
        "lockShape": "CircleLockEnemy",
        "denyLockOn": true,
        "lockType": "Default"
      },
      "JLOMBNMJCLL": {
        "enable": true,
        "radius": 0.5
      }
    },
    "attackAttenuation": "",
    "abilities": [
      {
        "abilityID": "",
        "abilityName": "Nada_ElementBomb_WindBullet02_Explode",
        "abilityOverride": ""
      }
    ],
    "BDPGABAMMPP": {
      "lifeTime": 7.5
    },
    "move": {
      "$type": "CBDOHADLMPD"
    },
    "MNNPNOAELLI": {
      "$type": "CJFAOCEMMFK",
      "collision": {},
      "HDABNDJLLCO": [
        {
          "$type": "HLFEAMOONEP",
          "abilityName": "Nada_ElementBomb_WindBullet02_Explode"
        }
      ],
      "MHOEMLCBJOO": [
        {
          "$type": "HLFEAMOONEP",
          "abilityName": "Nada_ElementBomb_WindBullet02_Explode"
        }
      ],
      "GOMGCHKCHKI": true,
      "DPNINCLDJBF": {
        "$type": "ELMJDPBOJFP",
        "healLimitedByCasterMaxHPRatio": "Eff_Monster_Nada_ElementalBomb_Wind02"
      }
    }
  },
  "Nada_ElementBomb_WaterBullet02": {
    "$type": "IOHCOOOBCPH",
    "common": {
      "effectAttachShape": {
        "$type": "PBGINMMOLDC"
      }
    },
    "combat": {
      "property": {
        "useCreatorProperty": true,
        "HP": 999999.0,
        "attack": 10.0,
        "defense": 999999.0,
        "isInvincible": true,
        "canTriggerBullet": true,
        "denyElementStick": true
      },
      "beHit": {
        "hitBloodEffect": "",
        "GKIOKIDJLCA": true,
        "JEPGCKHKDDD": true,
        "muteAllHitText": true
      },
      "combatLock": {
        "lockShape": "CircleLockEnemy",
        "denyLockOn": true,
        "lockType": "Default"
      },
      "JLOMBNMJCLL": {
        "enable": true,
        "radius": 0.5
      }
    },
    "attackAttenuation": "",
    "abilities": [
      {
        "abilityID": "",
        "abilityName": "Nada_ElementBomb_WaterBullet02_Explode",
        "abilityOverride": ""
      }
    ],
    "BDPGABAMMPP": {
      "lifeTime": 7.5
    },
    "move": {
      "$type": "CBDOHADLMPD"
    },
    "MNNPNOAELLI": {
      "$type": "CJFAOCEMMFK",
      "collision": {},
      "HDABNDJLLCO": [
        {
          "$type": "HLFEAMOONEP",
          "abilityName": "Nada_ElementBomb_WaterBullet02_Explode"
        }
      ],
      "MHOEMLCBJOO": [
        {
          "$type": "HLFEAMOONEP",
          "abilityName": "Nada_ElementBomb_WaterBullet02_Explode"
        }
      ],
      "GOMGCHKCHKI": true,
      "DPNINCLDJBF": {
        "$type": "ELMJDPBOJFP",
        "healLimitedByCasterMaxHPRatio": "Eff_Monster_Nada_ElementalBomb_Water02"
      }
    }
  },
  "Nada_BornAnchor": {
    "$type": "IOHCOOOBCPH",
    "combat": {
      "property": {
        "useCreatorProperty": true,
        "HP": 100.0,
        "attack": 10.0,
        "isInvincible": true,
        "canTriggerBullet": true,
        "denyElementStick": true,
        "ignorePurgeRate": false
      },
      "combatLock": {
        "lockShape": "CircleLockEnemy",
        "denyLockOn": true,
        "lockType": "Default"
      }
    },
    "attackAttenuation": "",
    "abilities": [
      {
        "abilityID": "",
        "abilityName": "Nada_BornAnchor_CreateBlinkAnchor",
        "abilityOverride": ""
      }
    ],
    "BDPGABAMMPP": {
      "lifeInfinite": true,
      "lifeTime": 20.0
    }
  },
  "Nada_BlinkAnchor": {
    "$type": "IOHCOOOBCPH",
    "combat": {
      "property": {
        "useCreatorProperty": true,
        "HP": 100.0,
        "attack": 10.0,
        "isInvincible": true,
        "canTriggerBullet": true,
        "denyElementStick": true,
        "ignorePurgeRate": false
      },
      "combatLock": {
        "lockShape": "CircleLockEnemy",
        "denyLockOn": true,
        "lockType": "Default"
      }
    },
    "attackAttenuation": "",
    "abilities": [
      {
        "abilityID": "",
        "abilityName": "Nada_BlinkAnchor_SetBlinkPosToOwner",
        "abilityOverride": ""
      }
    ],
    "BDPGABAMMPP": {
      "lifeTime": 5.0
    }
  },
  "Nada_FortInAir": {
    "$type": "IOHCOOOBCPH",
    "common": {
      "mass": 1000000000.0,
      "scale": 1.2999999523162842,
      "disableTickDistance": 100000.0
    },
    "combat": {
      "property": {
        "useCreatorProperty": true,
        "HP": 100.0,
        "attack": 10.0,
        "canTriggerBullet": true
      },
      "beHit": {
        "hitBloodEffect": "",
        "hitAutoRedirect": false,
        "muteAllHitText": true
      },
      "combatLock": {
        "lockShape": "CircleLockEnemy",
        "lockType": "Avatar&Monster_Lv4"
      }
    },
    "attackAttenuation": "",
    "abilities": [
      {
        "abilityID": "",
        "abilityName": "Nada_FortInAir_Control",
        "abilityOverride": ""
      }
    ],
    "BDPGABAMMPP": {
      "lifeInfinite": true,
      "lifeTime": 25.0
    },
    "MNNPNOAELLI": {
      "$type": "GPJNFBDFPCK",
      "collision": {}
    },
    "stateLayers": {
      "defaultLayer": {
        "$type": "KFHJINNNDPN",
        "BOPIBFKFKCA": "",
        "stateIDs": {
          "Standby": {
            "$type": "ILLKEGMDAEF",
            "HKPCLGHBKFD": {
              "Standby": []
            }
          },
          "ChargeAtk": {
            "$type": "ILLKEGMDAEF",
            "HKPCLGHBKFD": {
              "ChargeAtk_BS": [],
              "ChargeAtk_AS": []
            }
          }
        }
      }
    },
    "aibeta": {
      "enable": true,
      "moveSetting": {
        "enable": false,
        "navMeshAgentName": "Undead01"
      },
      "sensing": {
        "settings": {
          "DefaultSetting": {
            "feelRange": 100.0
          }
        }
      },
      "threat": {
        "feelThreatGrow": 1000.0
      }
    },
    "partControl": {
      "parts": [
        {
          "$type": "PMGKKACOLIC",
          "angularSpeed": 120.0,
          "BGKPNLALNPD": "AutoShootAim",
          "AJBEMCBABJF": "",
          "GPAPEPNEEMC": 360.0,
          "OGNBJMIOCPO": 35.0
        }
      ]
    },
    "billboard": {
      "$type": "HFEGKLAIGGI",
      "IIKEHINGEME": "BillboardAttach",
      "offset": {
        "y": 0.25
      },
      "showDistance": 100.0,
      "DMHOOGGGDKG": true,
      "KAJOCAAOIFN": 100.0,
      "GFHHHAEBHHL": true
    },
    "JMMIKMOFAMO": true
  },
  "Nada_FortOnGround": {
    "$type": "IOHCOOOBCPH",
    "common": {
      "mass": 1000000000.0,
      "scale": 1.2999999523162842,
      "disableTickDistance": 100000.0
    },
    "combat": {
      "property": {
        "useCreatorProperty": true,
        "HP": 100.0,
        "attack": 10.0,
        "canTriggerBullet": true
      },
      "beHit": {
        "hitBloodEffect": "",
        "hitAutoRedirect": false,
        "muteAllHitText": true
      },
      "combatLock": {
        "lockShape": "CircleLockEnemy",
        "lockType": "Avatar&Monster_Lv4"
      }
    },
    "attackAttenuation": "",
    "abilities": [
      {
        "abilityID": "",
        "abilityName": "Nada_FortOnGround_Control",
        "abilityOverride": ""
      }
    ],
    "BDPGABAMMPP": {
      "lifeInfinite": true,
      "lifeTime": 25.0
    },
    "MNNPNOAELLI": {
      "$type": "GPJNFBDFPCK",
      "collision": {}
    },
    "stateLayers": {
      "defaultLayer": {
        "$type": "KFHJINNNDPN",
        "BOPIBFKFKCA": "",
        "stateIDs": {
          "Standby": {
            "$type": "ILLKEGMDAEF",
            "HKPCLGHBKFD": {
              "Standby": []
            }
          },
          "ChargeAtk": {
            "$type": "ILLKEGMDAEF",
            "HKPCLGHBKFD": {
              "ChargeAtk_BS": [],
              "ChargeAtk_Loop": [],
              "ChargeAtk_AS": []
            },
            "KNOHBHKACHA": true
          }
        }
      }
    },
    "aibeta": {
      "enable": true,
      "moveSetting": {
        "enable": false,
        "navMeshAgentName": "Undead01"
      },
      "sensing": {
        "settings": {
          "DefaultSetting": {
            "feelRange": 100.0
          }
        }
      },
      "threat": {
        "feelThreatGrow": 1000.0
      }
    },
    "partControl": {
      "parts": [
        {
          "$type": "PMGKKACOLIC",
          "angularSpeed": 45.0,
          "BGKPNLALNPD": "AutoShootAim",
          "NOGNNDABDHA": "RotateToForward",
          "AJBEMCBABJF": "",
          "GPAPEPNEEMC": 360.0,
          "OGNBJMIOCPO": 15.0
        }
      ]
    },
    "billboard": {
      "$type": "HFEGKLAIGGI",
      "IIKEHINGEME": "BillboardAttach",
      "offset": {
        "y": 0.25
      },
      "showDistance": 100.0,
      "DMHOOGGGDKG": true,
      "KAJOCAAOIFN": 100.0,
      "size": "Big",
      "GFHHHAEBHHL": true
    },
    "JMMIKMOFAMO": true
  },
  "Nada_Dummy_AnkleL": {
    "$type": "IOHCOOOBCPH",
    "combat": {
      "property": {
        "useCreatorProperty": true,
        "HP": 999999.0,
        "attack": 15.0,
        "defense": 999999.0,
        "isLockHP": true,
        "canTriggerBullet": true
      },
      "beHit": {
        "hitBloodEffect": "",
        "JEPGCKHKDDD": true,
        "muteAllHitText": true
      },
      "combatLock": {
        "lockShape": "CircleLockEnemy",
        "lockType": "Boss_Lv5"
      }
    },
    "attackAttenuation": "",
    "abilities": [
      {
        "abilityID": "Nada_Dummy_AnkleL",
        "abilityName": "Nada_Dummy_AnkleL",
        "abilityOverride": ""
      }
    ],
    "BDPGABAMMPP": {
      "lifeInfinite": true,
      "lifeTime": 15.0
    },
    "move": {
      "$type": "BELFBLEANMG",
      "target": "TargetEntity",
      "IIKEHINGEME": "LockPoint05",
      "KEDHAOHPJKL": true,
      "IHAJOCLBEOK": ""
    }
  },
  "Nada_Dummy_AnkleR": {
    "$type": "IOHCOOOBCPH",
    "combat": {
      "property": {
        "useCreatorProperty": true,
        "HP": 999999.0,
        "attack": 15.0,
        "defense": 999999.0,
        "isLockHP": true,
        "canTriggerBullet": true
      },
      "beHit": {
        "hitBloodEffect": "",
        "JEPGCKHKDDD": true,
        "muteAllHitText": true
      },
      "combatLock": {
        "lockShape": "CircleLockEnemy",
        "lockType": "Boss_Lv5"
      }
    },
    "attackAttenuation": "",
    "abilities": [
      {
        "abilityID": "Nada_Dummy_AnkleR",
        "abilityName": "Nada_Dummy_AnkleR",
        "abilityOverride": ""
      }
    ],
    "BDPGABAMMPP": {
      "lifeInfinite": true,
      "lifeTime": 15.0
    },
    "move": {
      "$type": "BELFBLEANMG",
      "target": "TargetEntity",
      "IIKEHINGEME": "LockPoint06",
      "KEDHAOHPJKL": true,
      "IHAJOCLBEOK": ""
    }
  },
  "Nada_Dummy_WristL": {
    "$type": "IOHCOOOBCPH",
    "combat": {
      "property": {
        "useCreatorProperty": true,
        "HP": 999999.0,
        "attack": 15.0,
        "defense": 999999.0,
        "isLockHP": true,
        "canTriggerBullet": true
      },
      "beHit": {
        "hitBloodEffect": "",
        "JEPGCKHKDDD": true,
        "muteAllHitText": true
      },
      "combatLock": {
        "lockShape": "CircleLockEnemy",
        "lockType": "Boss_Lv5"
      }
    },
    "attackAttenuation": "",
    "BDPGABAMMPP": {
      "lifeInfinite": true,
      "lifeTime": 15.0
    },
    "move": {
      "$type": "BELFBLEANMG",
      "target": "TargetEntity",
      "IIKEHINGEME": "LockPoint17",
      "IHAJOCLBEOK": ""
    }
  },
  "Nada_Dummy_WristR": {
    "$type": "IOHCOOOBCPH",
    "combat": {
      "property": {
        "useCreatorProperty": true,
        "HP": 999999.0,
        "attack": 15.0,
        "defense": 999999.0,
        "isLockHP": true,
        "canTriggerBullet": true
      },
      "beHit": {
        "hitBloodEffect": "",
        "JEPGCKHKDDD": true,
        "muteAllHitText": true
      },
      "combatLock": {
        "lockShape": "CircleLockEnemy",
        "lockType": "Boss_Lv5"
      }
    },
    "attackAttenuation": "",
    "BDPGABAMMPP": {
      "lifeInfinite": true,
      "lifeTime": 15.0
    },
    "move": {
      "$type": "BELFBLEANMG",
      "target": "TargetEntity",
      "IIKEHINGEME": "LockPoint18",
      "IHAJOCLBEOK": ""
    }
  },
  "Nada_Dummy_Chest": {
    "$type": "IOHCOOOBCPH",
    "combat": {
      "property": {
        "useCreatorProperty": true,
        "HP": 999999.0,
        "attack": 15.0,
        "defense": 999999.0,
        "isLockHP": true,
        "canTriggerBullet": true
      },
      "beHit": {
        "hitBloodEffect": "",
        "JEPGCKHKDDD": true,
        "muteAllHitText": true
      },
      "combatLock": {
        "lockShape": "CircleLockEnemy",
        "lockType": "Boss_Lv5"
      }
    },
    "attackAttenuation": "",
    "abilities": [
      {
        "abilityID": "Nada_Dummy_Chest",
        "abilityName": "Nada_Dummy_Chest",
        "abilityOverride": ""
      }
    ],
    "BDPGABAMMPP": {
      "lifeInfinite": true,
      "lifeTime": 15.0
    },
    "move": {
      "$type": "BELFBLEANMG",
      "target": "TargetEntity",
      "IIKEHINGEME": "LockPoint01",
      "ABIHJGPBBFD": true,
      "KEDHAOHPJKL": true,
      "IHAJOCLBEOK": ""
    }
  },
  "Nada_BarrageArray_Laser01": {
    "$type": "IOHCOOOBCPH",
    "common": {
      "effectAttachShape": {
        "$type": "PBGINMMOLDC"
      }
    },
    "combat": {
      "property": {
        "useCreatorProperty": true,
        "HP": 999999.0,
        "attack": 10.0,
        "defense": 999999.0,
        "isInvincible": true,
        "canTriggerBullet": true,
        "denyElementStick": true
      },
      "beHit": {
        "hitBloodEffect": "",
        "GKIOKIDJLCA": true,
        "JEPGCKHKDDD": true,
        "muteAllHitText": true
      },
      "combatLock": {
        "lockShape": "CircleLockEnemy",
        "denyLockOn": true,
        "lockType": "Default"
      },
      "JLOMBNMJCLL": {
        "enable": true,
        "radius": 0.5
      }
    },
    "attackAttenuation": "",
    "abilities": [
      {
        "abilityID": "",
        "abilityName": "Nada_BarrageArray_Laser01_Hit",
        "abilityOverride": ""
      }
    ],
    "BDPGABAMMPP": {
      "lifeTime": 20.0
    },
    "move": {
      "$type": "CBDOHADLMPD"
    },
    "MNNPNOAELLI": {
      "$type": "CJFAOCEMMFK",
      "collision": {
        "triggerType": "TriggerNoRepeat",
        "targetType": "Enemy",
        "ignoreScene": true
      },
      "HDABNDJLLCO": [
        {
          "$type": "HLFEAMOONEP",
          "abilityName": "Nada_BarrageArray_Laser01_Hit"
        }
      ],
      "MHOEMLCBJOO": [
        {
          "$type": "HLFEAMOONEP",
          "abilityName": "Nada_BarrageArray_Laser01_Hit"
        }
      ],
      "GOMGCHKCHKI": true,
      "DPNINCLDJBF": {
        "$type": "ELMJDPBOJFP",
        "healLimitedByCasterMaxHPRatio": "Eff_Monster_Nada_BarrageArray_Laser01"
      }
    }
  },
  "Nada_FortInAir_ChargeAtk": {
    "$type": "IOHCOOOBCPH",
    "common": {
      "effectAttachShape": {
        "$type": "PBGINMMOLDC"
      }
    },
    "combat": {
      "property": {
        "useCreatorProperty": true,
        "HP": 999999.0,
        "attack": 10.0,
        "defense": 999999.0,
        "isInvincible": true,
        "canTriggerBullet": true,
        "denyElementStick": true
      },
      "beHit": {
        "hitBloodEffect": "",
        "GKIOKIDJLCA": true,
        "JEPGCKHKDDD": true,
        "muteAllHitText": true
      },
      "combatLock": {
        "lockShape": "CircleLockEnemy",
        "denyLockOn": true,
        "lockType": "Default"
      },
      "JLOMBNMJCLL": {
        "enable": true,
        "radius": 0.5
      }
    },
    "attackAttenuation": "",
    "abilities": [
      {
        "abilityID": "",
        "abilityName": "Nada_ElementBomb_IceBullet02_Explode",
        "abilityOverride": ""
      }
    ],
    "BDPGABAMMPP": {
      "lifeTime": 7.5
    },
    "move": {
      "$type": "CBDOHADLMPD"
    },
    "MNNPNOAELLI": {
      "$type": "CJFAOCEMMFK",
      "collision": {},
      "HDABNDJLLCO": [
        {
          "$type": "HLFEAMOONEP",
          "abilityName": "Nada_ElementBomb_IceBullet02_Explode"
        }
      ],
      "MHOEMLCBJOO": [
        {
          "$type": "HLFEAMOONEP",
          "abilityName": "Nada_ElementBomb_IceBullet02_Explode"
        }
      ],
      "GOMGCHKCHKI": true,
      "DPNINCLDJBF": {
        "$type": "ELMJDPBOJFP",
        "healLimitedByCasterMaxHPRatio": "Eff_Monster_Nada_ElementalBomb_Ice02"
      }
    }
  },
  "Nada_FortOnGround_ChargeAtk": {
    "$type": "IOHCOOOBCPH",
    "common": {
      "effectAttachShape": {
        "$type": "PBGINMMOLDC"
      }
    },
    "combat": {
      "property": {
        "useCreatorProperty": true,
        "HP": 999999.0,
        "attack": 10.0,
        "defense": 999999.0,
        "isInvincible": true,
        "canTriggerBullet": true,
        "denyElementStick": true
      },
      "beHit": {
        "hitBloodEffect": "",
        "GKIOKIDJLCA": true,
        "JEPGCKHKDDD": true,
        "muteAllHitText": true
      },
      "combatLock": {
        "lockShape": "CircleLockEnemy",
        "denyLockOn": true,
        "lockType": "Default"
      },
      "JLOMBNMJCLL": {
        "enable": true,
        "radius": 0.10000000149011612
      }
    },
    "attackAttenuation": "",
    "abilities": [
      {
        "abilityID": "",
        "abilityName": "Nada_FortOnGround_ChargeAtk_Hit",
        "abilityOverride": ""
      }
    ],
    "BDPGABAMMPP": {
      "lifeTime": 10.0
    },
    "move": {
      "$type": "CBDOHADLMPD"
    },
    "MNNPNOAELLI": {
      "$type": "CJFAOCEMMFK",
      "collision": {
        "targetType": "Enemy"
      },
      "HDABNDJLLCO": [
        {
          "$type": "HLFEAMOONEP",
          "abilityName": "Nada_FortOnGround_ChargeAtk_Hit"
        }
      ],
      "GOMGCHKCHKI": true,
      "DPNINCLDJBF": {
        "$type": "ELMJDPBOJFP",
        "healLimitedByCasterMaxHPRatio": "Eff_Monster_Nada_FortOnGround_Fire_EnergyBullet"
      }
    },
    "JMMIKMOFAMO": true
  },
  "Nada_ElectricBall_Pos": {
    "$type": "IOHCOOOBCPH",
    "combat": {
      "property": {
        "useCreatorProperty": true,
        "HP": 100.0,
        "attack": 10.0,
        "isInvincible": true,
        "canTriggerBullet": true,
        "denyElementStick": true,
        "ignorePurgeRate": false
      },
      "combatLock": {
        "lockShape": "CircleLockEnemy",
        "denyLockOn": true,
        "lockType": "Default"
      }
    },
    "attackAttenuation": "",
    "abilities": [
      {
        "abilityID": "Nada_ElectricBall_Pos_CreateElectricBall",
        "abilityName": "Nada_ElectricBall_Pos_CreateElectricBall",
        "abilityOverride": ""
      }
    ],
    "BDPGABAMMPP": {
      "lifeTime": 15.0
    }
  },
  "Nada_ElectricBall": {
    "$type": "IOHCOOOBCPH",
    "combat": {
      "property": {
        "useCreatorProperty": true,
        "HP": 100.0,
        "attack": 10.0,
        "isInvincible": true,
        "canTriggerBullet": true,
        "denyElementStick": true,
        "ignorePurgeRate": false
      },
      "combatLock": {
        "lockShape": "CircleLockEnemy",
        "denyLockOn": true,
        "lockType": "Default"
      }
    },
    "attackAttenuation": "",
    "abilities": [
      {
        "abilityID": "Nada_ElectricBall_Hit",
        "abilityName": "Nada_ElectricBall_Hit",
        "abilityOverride": ""
      }
    ],
    "BDPGABAMMPP": {
      "lifeTime": 7.5
    },
    "move": {
      "$type": "CJBKMBOOPHF",
      "NOFDPFHMFNM": 60.0,
      "EILJBCHMAIH": 20.0,
      "BLECDCEAOFM": {
        "$type": "HMFDMPDLMCJ"
      }
    },
    "MNNPNOAELLI": {
      "$type": "AFPECAAHDNC",
      "collision": {
        "triggerType": "TriggerNoRepeat",
        "targetType": "Enemy"
      },
      "HDABNDJLLCO": [
        {
          "$type": "HLFEAMOONEP",
          "abilityName": "Nada_ElectricBall_Hit"
        }
      ]
    }
  },
  "Gagana_Controller": {
    "$type": "IOHCOOOBCPH",
    "common": {
      "effectAttachShape": {
        "$type": "CMIPFEGOJCH",
        "EJAEFCDBDFB": "EffectMesh"
      },
      "mass": 1000000000.0,
      "scale": 1.2000000476837158,
      "disableTickDistance": 100000.0
    },
    "model": {
      "bornEffect": "",
      "attachEffect": "",
      "hasCharacterRenderering": true
    },
    "KNGBEDDABOM": true,
    "combat": {
      "property": {
        "HP": 100.0,
        "attack": 10.0,
        "isInvincible": true,
        "canTriggerBullet": true,
        "denyElementStick": true,
        "ignorePurgeRate": false
      },
      "combatLock": {
        "lockShape": "CircleLockEnemy",
        "denyLockOn": true,
        "lockType": "Default"
      }
    },
    "attackAttenuation": "",
    "abilities": [
      {
        "abilityID": "",
        "abilityName": "Gagana_Controller",
        "abilityOverride": ""
      }
    ],
    "BDPGABAMMPP": {
      "lifeInfinite": true,
      "lifeTime": 25.0
    },
    "move": {
      "$type": "BELFBLEANMG",
      "IIKEHINGEME": "",
      "ABIHJGPBBFD": true,
      "offset": {
        "x": -1.75,
        "y": 1.25
      },
      "KEDHAOHPJKL": true,
      "AEJBDAJOLBP": 0.6000000238418579,
      "FNHHLGJFBPL": 0.125,
      "IHAJOCLBEOK": ""
    },
    "MNNPNOAELLI": {
      "$type": "GPJNFBDFPCK",
      "collision": {}
    },
    "stateLayers": {
      "defaultLayer": {
        "$type": "KFHJINNNDPN",
        "BOPIBFKFKCA": "",
        "stateIDs": {
          "Standby": {
            "$type": "ILLKEGMDAEF",
            "HKPCLGHBKFD": {
              "Standby": []
            }
          },
          "Move": {
            "$type": "ILLKEGMDAEF",
            "HKPCLGHBKFD": {
              "Move": []
            },
            "BAABNFCMKIO": true
          },
          "AutoShoot_BS": {
            "$type": "ILLKEGMDAEF",
            "HKPCLGHBKFD": {
              "AutoShoot_BS": []
            },
            "KNOHBHKACHA": true,
            "PJFELLIJONH": [
              "AutoShootStart",
              "AutoShootEnd"
            ]
          },
          "AutoShoot_Loop": {
            "$type": "ILLKEGMDAEF",
            "HKPCLGHBKFD": {
              "AutoShoot_Loop": []
            },
            "KNOHBHKACHA": true
          },
          "AutoShoot_AS": {
            "$type": "ILLKEGMDAEF",
            "HKPCLGHBKFD": {
              "AutoShoot_AS": []
            },
            "KNOHBHKACHA": true,
            "ADPGACLPFHN": [
              "AutoShootEnd"
            ]
          },
          "ChargeAtk_BS": {
            "$type": "ILLKEGMDAEF",
            "HKPCLGHBKFD": {
              "ChargeAtk_BS": []
            },
            "KNOHBHKACHA": true,
            "PJFELLIJONH": [
              "ChargeAtkStart",
              "ChargeAtkEnd"
            ]
          },
          "ChargeAtk_Loop": {
            "$type": "ILLKEGMDAEF",
            "HKPCLGHBKFD": {
              "ChargeAtk_Loop": []
            },
            "KNOHBHKACHA": true
          },
          "ChargeAtk_AS": {
            "$type": "ILLKEGMDAEF",
            "HKPCLGHBKFD": {
              "ChargeAtk_AS": []
            },
            "KNOHBHKACHA": true,
            "ADPGACLPFHN": [
              "ChargeAtkEnd"
            ]
          },
          "Blink": {
            "$type": "ILLKEGMDAEF",
            "HKPCLGHBKFD": {
              "Blink_BS": [],
              "Blink_AS": []
            },
            "KNOHBHKACHA": true
          },
          "Control": {
            "$type": "ILLKEGMDAEF",
            "HKPCLGHBKFD": {
              "Control": []
            },
            "KNOHBHKACHA": true,
            "PJFELLIJONH": [
              "Control"
            ]
          }
        }
      }
    },
    "audio": {
      "$type": "IGNGMHPHOEP",
      "LKJIHNLBIJL": "",
      "animAudio": {
        "onTransitionIn": [
          {
            "currentStateName": "AutoShoot_Loop",
            "audioEvent": {
              "text": "Play_vfx_monster_Nada_Gagana_energyBullet_Loop"
            },
            "otherStateNames": [
              "AutoShoot_Loop"
            ],
            "usage": "Except"
          }
        ],
        "onTransitionOut": [
          {
            "currentStateName": "AutoShoot_Loop",
            "audioEvent": {
              "text": "Stop_vfx_monster_Nada_Gagana_energyBullet_Loop"
            },
            "otherStateNames": [
              "AutoShoot_Loop"
            ],
            "usage": "Except"
          }
        ]
      }
    },
    "aibeta": {
      "enable": true,
      "moveSetting": {
        "enable": false,
        "navMeshAgentName": "Undead01"
      },
      "sensing": {
        "settings": {
          "DefaultSetting": {
            "feelRange": 200.0
          }
        }
      },
      "threat": {
        "feelThreatGrow": 1000.0
      },
      "defendArea": {
        "enable": false
      }
    },
    "partControl": {
      "parts": [
        {
          "$type": "PMGKKACOLIC",
          "angularSpeed": 360.0,
          "BGKPNLALNPD": "AutoShootAim",
          "NOGNNDABDHA": "RotateToForward",
          "AJBEMCBABJF": "",
          "GPAPEPNEEMC": 360.0,
          "OGNBJMIOCPO": 30.0
        }
      ]
    },
    "billboard": {
      "$type": "HFEGKLAIGGI",
      "IIKEHINGEME": "BillboardAttach",
      "showDistance": 48.0,
      "DMHOOGGGDKG": true,
      "KAJOCAAOIFN": 48.0,
      "size": "Grand",
      "GFHHHAEBHHL": true
    }
  },
  "Gagana_EnergyCube": {
    "$type": "IOHCOOOBCPH",
    "common": {
      "mass": 1000000000.0,
      "scale": 1.2000000476837158,
      "disableTickDistance": 100000.0
    },
    "combat": {
      "property": {
        "HP": 100.0,
        "attack": 10.0,
        "isInvincible": true,
        "canTriggerBullet": true,
        "denyElementStick": true,
        "ignorePurgeRate": false
      },
      "combatLock": {
        "lockShape": "CircleLockEnemy",
        "denyLockOn": true,
        "lockType": "Default"
      }
    },
    "attackAttenuation": "",
    "abilities": [
      {
        "abilityID": "",
        "abilityName": "Ganaga_EnergyCubeController",
        "abilityOverride": ""
      }
    ],
    "field": {
      "concernType": "AllTeams",
      "shape": "CircleR1.5",
      "AGKCOGKCAGC": "",
      "checkInterval": 0.20000000298023224,
      "triggerCount": 1,
      "lifeTime": 15.5,
      "useCollider": false,
      "PKBIFJFAJEK": "",
      "CJIOPEJJHDM": ""
    },
    "BDPGABAMMPP": {
      "lifeTime": 20.0
    }
  },
  "Gagana_EnergyCube_Large": {
    "$type": "IOHCOOOBCPH",
    "common": {
      "mass": 1000000000.0,
      "scale": 1.2000000476837158,
      "disableTickDistance": 100000.0
    },
    "combat": {
      "property": {
        "HP": 100.0,
        "attack": 10.0,
        "isInvincible": true,
        "canTriggerBullet": true,
        "denyElementStick": true,
        "ignorePurgeRate": false
      },
      "combatLock": {
        "lockShape": "CircleLockEnemy",
        "denyLockOn": true,
        "lockType": "Default"
      }
    },
    "attackAttenuation": "",
    "abilities": [
      {
        "abilityID": "",
        "abilityName": "Ganaga_EnergyCubeLargeController",
        "abilityOverride": ""
      }
    ],
    "field": {
      "concernType": "AllTeams",
      "shape": "CircleR1.5",
      "AGKCOGKCAGC": "",
      "checkInterval": 0.20000000298023224,
      "triggerCount": 1,
      "lifeTime": 18.0,
      "useCollider": false,
      "PKBIFJFAJEK": "",
      "CJIOPEJJHDM": ""
    },
    "BDPGABAMMPP": {
      "lifeTime": 20.0
    }
  },
  "Gagana_EnergyCube_Small": {
    "$type": "IOHCOOOBCPH",
    "common": {
      "mass": 1000000000.0,
      "scale": 1.2000000476837158,
      "disableTickDistance": 100000.0
    },
    "combat": {
      "property": {
        "HP": 100.0,
        "attack": 10.0,
        "isInvincible": true,
        "canTriggerBullet": true,
        "denyElementStick": true,
        "ignorePurgeRate": false
      },
      "combatLock": {
        "lockShape": "CircleLockEnemy",
        "denyLockOn": true,
        "lockType": "Default"
      }
    },
    "attackAttenuation": "",
    "abilities": [
      {
        "abilityID": "",
        "abilityName": "Ganaga_EnergyCubeSmallController",
        "abilityOverride": ""
      }
    ],
    "BDPGABAMMPP": {
      "lifeTime": 10.0
    },
    "move": {
      "$type": "MNCDFIAEMIA",
      "NOFDPFHMFNM": 5.0,
      "maxSpeed": 25.0,
      "minSpeed": 5.0,
      "EILJBCHMAIH": 10.0,
      "BLECDCEAOFM": {
        "$type": "HMFDMPDLMCJ"
      },
      "ELPLIOJMJND": 180.0,
      "NNDCMFPMIFK": 0.30000001192092896,
      "NIMNPPDBKIH": 10.0
    },
    "MNNPNOAELLI": {
      "$type": "AFPECAAHDNC",
      "collision": {
        "targetType": "Alliance",
        "ignoreScene": true
      },
      "HDABNDJLLCO": [
        {
          "$type": "HLFEAMOONEP",
          "abilityName": "Ganaga_EnergyCubeSmallController"
        }
      ],
      "DKKLBGFLJBK": 0.30000001192092896
    }
  },
  "Gagana_EnergyCubeSpecial": {
    "$type": "IOHCOOOBCPH",
    "common": {
      "mass": 1000000000.0,
      "scale": 1.2000000476837158,
      "disableTickDistance": 100000.0
    },
    "combat": {
      "property": {
        "HP": 100.0,
        "attack": 10.0,
        "isInvincible": true,
        "canTriggerBullet": true,
        "denyElementStick": true,
        "ignorePurgeRate": false
      },
      "combatLock": {
        "lockShape": "CircleLockEnemy",
        "denyLockOn": true,
        "lockType": "Default"
      }
    },
    "attackAttenuation": "",
    "abilities": [
      {
        "abilityID": "",
        "abilityName": "Ganaga_EnergyCubeSpecialController",
        "abilityOverride": ""
      }
    ],
    "field": {
      "concernType": "AllTeams",
      "shape": "CircleR1.5",
      "AGKCOGKCAGC": "",
      "checkInterval": 0.20000000298023224,
      "triggerCount": 1,
      "lifeTime": 39.5,
      "useCollider": false,
      "PKBIFJFAJEK": "",
      "CJIOPEJJHDM": ""
    },
    "BDPGABAMMPP": {
      "lifeTime": 40.0
    }
  },
  "Gagana_AutoShootBullet": {
    "$type": "IOHCOOOBCPH",
    "common": {
      "effectAttachShape": {
        "$type": "PBGINMMOLDC"
      }
    },
    "combat": {
      "property": {
        "useCreatorProperty": true,
        "HP": 999999.0,
        "attack": 10.0,
        "defense": 999999.0,
        "isInvincible": true,
        "canTriggerBullet": true,
        "denyElementStick": true
      },
      "beHit": {
        "hitBloodEffect": "",
        "GKIOKIDJLCA": true,
        "JEPGCKHKDDD": true,
        "muteAllHitText": true
      },
      "combatLock": {
        "lockShape": "CircleLockEnemy",
        "denyLockOn": true,
        "lockType": "Default"
      },
      "JLOMBNMJCLL": {
        "enable": true,
        "radius": 0.10000000149011612
      }
    },
    "attackAttenuation": "",
    "abilities": [
      {
        "abilityID": "",
        "abilityName": "Gagana_AutoShootBullet_Hit",
        "abilityOverride": ""
      }
    ],
    "BDPGABAMMPP": {
      "lifeTime": 240.0
    },
    "move": {
      "$type": "CBDOHADLMPD"
    },
    "MNNPNOAELLI": {
      "$type": "CJFAOCEMMFK",
      "collision": {
        "targetType": "Enemy"
      },
      "HDABNDJLLCO": [
        {
          "$type": "HLFEAMOONEP",
          "abilityName": "Gagana_AutoShootBullet_Hit"
        }
      ],
      "GOMGCHKCHKI": true,
      "DPNINCLDJBF": {
        "$type": "ELMJDPBOJFP",
        "healLimitedByCasterMaxHPRatio": "Eff_SkillObj_Gagana_EnergyBullet"
      }
    }
  },
  "Gagana_ChargeAtkBullet": {
    "$type": "IOHCOOOBCPH",
    "common": {
      "effectAttachShape": {
        "$type": "PBGINMMOLDC"
      }
    },
    "combat": {
      "property": {
        "useCreatorProperty": true,
        "HP": 999999.0,
        "attack": 10.0,
        "defense": 999999.0,
        "isInvincible": true,
        "canTriggerBullet": true,
        "denyElementStick": true
      },
      "beHit": {
        "hitBloodEffect": "",
        "GKIOKIDJLCA": true,
        "JEPGCKHKDDD": true,
        "muteAllHitText": true
      },
      "combatLock": {
        "lockShape": "CircleLockEnemy",
        "denyLockOn": true,
        "lockType": "Default"
      }
    },
    "attackAttenuation": "",
    "abilities": [
      {
        "abilityID": "",
        "abilityName": "Gagana_ChargeAtkBullet_Hit",
        "abilityOverride": ""
      }
    ],
    "BDPGABAMMPP": {
      "lifeTime": 5.0
    },
    "move": {
      "$type": "EHIGOGOLKOO",
      "NOFDPFHMFNM": 30.0,
      "maxSpeed": 60.0,
      "minSpeed": 30.0,
      "NDLHJKADBGC": 20.0,
      "EILJBCHMAIH": 15.0,
      "BLECDCEAOFM": {
        "$type": "HMFDMPDLMCJ",
        "LMMIHLFCHOD": 360.0
      },
      "HFFPPCEMOGJ": true
    },
    "MNNPNOAELLI": {
      "$type": "AFPECAAHDNC",
      "collision": {
        "triggerType": "TriggerNoRepeat",
        "targetType": "Enemy"
      },
      "HDABNDJLLCO": [
        {
          "$type": "HLFEAMOONEP",
          "abilityName": "Gagana_ChargeAtkBullet_Hit"
        }
      ]
    },
    "JMMIKMOFAMO": true
  },
  "Gagana_EnergyShield": {
    "$type": "IOHCOOOBCPH",
    "common": {
      "mass": 1000000000.0,
      "scale": 1.2000000476837158,
      "disableTickDistance": 100000.0
    },
    "combat": {
      "property": {
        "HP": 100.0,
        "attack": 10.0,
        "isInvincible": true,
        "canTriggerBullet": true,
        "denyElementStick": true,
        "ignorePurgeRate": false
      },
      "combatLock": {
        "lockShape": "CircleLockEnemy",
        "denyLockOn": true,
        "lockType": "Default"
      }
    },
    "attackAttenuation": "",
    "abilities": [
      {
        "abilityID": "",
        "abilityName": "Ganaga_EnergyCubeController",
        "abilityOverride": ""
      }
    ],
    "BDPGABAMMPP": {
      "lifeTime": 10.5
    }
  },
  "Gagana_ChargeAtkBullet_Failed": {
    "$type": "IOHCOOOBCPH",
    "common": {
      "effectAttachShape": {
        "$type": "PBGINMMOLDC"
      }
    },
    "combat": {
      "property": {
        "useCreatorProperty": true,
        "HP": 999999.0,
        "attack": 10.0,
        "defense": 999999.0,
        "isInvincible": true,
        "canTriggerBullet": true,
        "denyElementStick": true
      },
      "beHit": {
        "hitBloodEffect": "",
        "GKIOKIDJLCA": true,
        "JEPGCKHKDDD": true,
        "muteAllHitText": true
      },
      "combatLock": {
        "lockShape": "CircleLockEnemy",
        "denyLockOn": true,
        "lockType": "Default"
      }
    },
    "attackAttenuation": "",
    "abilities": [
      {
        "abilityID": "",
        "abilityName": "Gagana_ChargeAtkBullet_Hit",
        "abilityOverride": ""
      }
    ],
    "BDPGABAMMPP": {
      "lifeTime": 7.5
    },
    "move": {
      "$type": "CJBKMBOOPHF",
      "NOFDPFHMFNM": 30.0,
      "minSpeed": 30.0
    },
    "MNNPNOAELLI": {
      "$type": "AFPECAAHDNC",
      "collision": {
        "targetType": "Enemy"
      },
      "HDABNDJLLCO": [
        {
          "$type": "HLFEAMOONEP",
          "abilityName": "Gagana_ChargeAtkBullet_Hit"
        }
      ]
    }
  },
  "Gagana_EnergyCube_ForDrop": {
    "$type": "IOHCOOOBCPH",
    "combat": {
      "property": {
        "useCreatorProperty": true,
        "HP": 999999.0,
        "attack": 10.0,
        "defense": 999999.0,
        "isInvincible": true,
        "canTriggerBullet": true,
        "denyElementStick": true,
        "ignorePurgeRate": false
      },
      "combatLock": {
        "lockShape": "CircleLockEnemy",
        "denyLockOn": true,
        "lockType": "Default"
      }
    },
    "attackAttenuation": "",
    "abilities": [
      {
        "abilityID": "",
        "abilityName": "Gagana_EnergyCube_ForDrop_CreateEnergyCube",
        "abilityOverride": ""
      }
    ],
    "BDPGABAMMPP": {
      "lifeTime": 5.0
    },
    "move": {
      "$type": "LIEFJMKKLOF",
      "NOFDPFHMFNM": 10.0,
      "EILJBCHMAIH": -2.5,
      "HBECHHMLGEP": 60.0,
      "EPLFGAAFNIM": 40.0,
      "HDBDFEKENOD": {
        "$type": "CDOBEEBHCCO",
        "GACCDPNMLNP": 2.0,
        "minSpeed": 7.5,
        "maxSpeed": 12.5
      }
    },
    "MNNPNOAELLI": {
      "$type": "AFPECAAHDNC",
      "collision": {
        "triggerType": "TriggerNoRepeat",
        "targetType": "All"
      },
      "HDABNDJLLCO": [
        {
          "$type": "HLFEAMOONEP",
          "abilityName": "Gagana_EnergyCube_ForDrop_CreateEnergyCube"
        }
      ],
      "DKKLBGFLJBK": 0.20000000298023224
    }
  },
  "Nada_Platform": {
    "$type": "IOHCOOOBCPH",
    "common": {
      "mass": 1000000000.0,
      "disableTickDistance": 100000.0
    },
    "combat": {
      "property": {
        "HP": 100.0,
        "attack": 10.0,
        "isInvincible": true,
        "canTriggerBullet": true,
        "denyElementStick": true,
        "ignorePurgeRate": false
      },
      "combatLock": {
        "lockShape": "CircleLockEnemy",
        "denyLockOn": true,
        "lockType": "Default"
      }
    },
    "attackAttenuation": "",
    "abilities": [
      {
        "abilityID": "",
        "abilityName": "Nada_Platform_Effect",
        "abilityOverride": ""
      }
    ],
    "field": {
      "concernType": "AllAvatars",
      "shape": "",
      "AGKCOGKCAGC": "",
      "triggerInfinite": true,
      "lifeInfinite": true,
      "checkInterval": 0.10000000149011612,
      "lifeTime": 40.0,
      "PKBIFJFAJEK": "Trigger",
      "CJIOPEJJHDM": ""
    },
    "BDPGABAMMPP": {
      "lifeInfinite": true,
      "lifeTime": 10.5
    }
  },
  "Gagana_AutoShootBullet_Powerful": {
    "$type": "IOHCOOOBCPH",
    "common": {
      "effectAttachShape": {
        "$type": "PBGINMMOLDC"
      }
    },
    "combat": {
      "property": {
        "useCreatorProperty": true,
        "HP": 999999.0,
        "attack": 10.0,
        "defense": 999999.0,
        "isInvincible": true,
        "canTriggerBullet": true,
        "denyElementStick": true
      },
      "beHit": {
        "hitBloodEffect": "",
        "GKIOKIDJLCA": true,
        "JEPGCKHKDDD": true,
        "muteAllHitText": true
      },
      "combatLock": {
        "lockShape": "CircleLockEnemy",
        "denyLockOn": true,
        "lockType": "Default"
      },
      "JLOMBNMJCLL": {
        "enable": true,
        "radius": 0.10000000149011612
      }
    },
    "attackAttenuation": "",
    "abilities": [
      {
        "abilityID": "",
        "abilityName": "Gagana_AutoShootBullet_Powerful_Hit",
        "abilityOverride": ""
      }
    ],
    "BDPGABAMMPP": {
      "lifeTime": 10.0
    },
    "move": {
      "$type": "CBDOHADLMPD"
    },
    "MNNPNOAELLI": {
      "$type": "CJFAOCEMMFK",
      "collision": {
        "targetType": "Enemy"
      },
      "HDABNDJLLCO": [
        {
          "$type": "HLFEAMOONEP",
          "abilityName": "Gagana_AutoShootBullet_Powerful_Hit"
        }
      ],
      "GOMGCHKCHKI": true,
      "DPNINCLDJBF": {
        "$type": "ELMJDPBOJFP",
        "healLimitedByCasterMaxHPRatio": "Eff_SkillObj_Gagana_EnergyBullet02"
      }
    },
    "JMMIKMOFAMO": true
  }
}