{
  "SceneObj_Environment_WoodenMaterial_BrambleWall01": {
    "$type": "PAAKDFFLFIN",
    "common": {
      "effectAttachShape": {
        "$type": "ODDIEGMAAKC",
        "mesh": "EffectMesh"
      },
      "viewSize": 2.5,
      "affectedByWorld": true
    },
    "customAttackShape": {
      "box": {
        "customAttackBoxSizeX": 5.0,
        "customAttackBoxSizeY": 1.7999999523162842,
        "customAttackBoxSizeZ": 1.600000023841858
      }
    },
    "hasModel": true,
    "combat": {
      "property": {
        "hp": 5000.0,
        "attack": 15.0,
        "weight": 50.0,
        "isLockHP": true
      },
      "beHit": {
        "hitBloodEffect": "",
        "hitAutoRedirect": false,
        "muteAllHitText": true
      },
      "combatLock": {
        "lockShape": "CircleLockEnemy",
        "denyLockOn": true,
        "lockType": "Gadget_Lv1"
      },
      "die": {
        "dieEndTime": 0.009999999776482582,
        "dieDisappearEffect": ""
      }
    },
    "combatTemplate": "",
    "abilities": [
      {
        "abilityID": "BrambleWall_Interact",
        "abilityName": "SceneObj_Environment_WoodenMaterial_Bramble_Interact",
        "abilityOverride": ""
      },
      {
        "abilityID": "BrambleWall_Attack",
        "abilityName": "SceneObj_Environment_WoodenMaterial_Bramble_Attack",
        "abilityOverride": ""
      }
    ],
    "gadget": {
      "$type": "NIBKNKIINFI",
      "collision": {
        "triggerType": "TriggerAlways",
        "targetType": "All"
      },
      "collisionActions": [
        {
          "$type": "HEAANEHEBIK",
          "abilityName": "SceneObj_Environment_WoodenMaterial_Bramble_Attack"
        }
      ],
      "thisColliderName": "Collider",
      "targetColliderName": "InteeTrigger"
    },
    "billboard": {
      "$type": "IBDGIBAFPPH",
      "attachPoint": "BillboardAttach",
      "offset": {
        "y": 1.5
      },
      "radiusOffset": 1.0,
      "showDistance": 0.0,
      "showHPBar": true,
      "shieldBarOnly": true
    }
  },
  "SceneObj_Environment_WoodenMaterial_WoodenObject": {
    "$type": "PAAKDFFLFIN",
    "common": {
      "effectAttachShape": {
        "$type": "ODDIEGMAAKC",
        "mesh": "EffectMesh"
      },
      "viewSize": 2.0,
      "affectedByWorld": true
    },
    "hasModel": true,
    "combat": {
      "property": {
        "hp": 50.0,
        "attack": 50.0,
        "weight": 50.0
      },
      "beHit": {
        "hitBloodEffect": "",
        "hitAutoRedirect": false,
        "muteAllHitText": true
      },
      "combatLock": {
        "lockShape": "CircleLockEnemy",
        "lockType": "Gadget_Lv1"
      },
      "die": {
        "dieEndTime": 0.009999999776482582,
        "dieDisappearEffect": ""
      }
    },
    "combatTemplate": "",
    "abilities": [
      {
        "abilityID": "ability_01",
        "abilityName": "SceneObj_Environment_WoodenMaterial_WoodenObject_Interact",
        "abilityOverride": ""
      }
    ],
    "misc": {
      "pickup": {
        "dropPointMinSpeed": 5.0,
        "bornEffect": "",
        "dropEffect": "",
        "attractAudio": ""
      },
      "escapeEffect": ""
    }
  },
  "SceneObj_Environment_WoodenMaterial_FirewoodStacks": {
    "$type": "PAAKDFFLFIN",
    "common": {
      "effectAttachShape": {
        "$type": "ODDIEGMAAKC",
        "mesh": "EffectMesh"
      },
      "viewSize": 2.0,
      "affectedByWorld": true
    },
    "hasModel": true,
    "combat": {
      "property": {
        "hp": 99999.0,
        "attack": 20.0,
        "weight": 50.0,
        "isInvincible": true,
        "canTriggerBullet": false
      },
      "beHit": {
        "hitBloodEffect": "",
        "muteAllHit": true,
        "muteAllHitEffect": true
      },
      "combatLock": {
        "lockShape": "CircleLockEnemy",
        "denyLockOn": true,
        "lockType": "Gadget_Lv1"
      },
      "die": {
        "dieEndTime": 0.30000001192092896,
        "dieForceDisappearTime": 0.3499999940395355,
        "dieDisappearEffect": ""
      }
    },
    "combatTemplate": "",
    "abilities": [
      {
        "abilityID": "SceneObj_Environment_WoodenMaterial_FirewoodStacks_Interact",
        "abilityName": "SceneObj_Environment_WoodenMaterial_FirewoodStacks_Interact",
        "abilityOverride": ""
      }
    ]
  },
  "SceneObj_Environment_WoodenMaterial_BrambleWorld": {
    "$type": "PAAKDFFLFIN",
    "common": {
      "effectAttachShape": {
        "$type": "ODDIEGMAAKC",
        "mesh": "EffectMesh"
      },
      "viewSize": 2.5,
      "affectedByWorld": true
    },
    "hasModel": true,
    "combat": {
      "property": {
        "hp": 5000.0,
        "attack": 15.0,
        "weight": 50.0,
        "isLockHP": true
      },
      "beHit": {
        "hitBloodEffect": "",
        "hitAutoRedirect": false,
        "muteAllHitText": true
      },
      "combatLock": {
        "lockShape": "CircleLockEnemy",
        "denyLockOn": true,
        "lockType": "Gadget_Lv1"
      },
      "die": {
        "dieEndTime": 0.009999999776482582,
        "dieDisappearEffect": ""
      }
    },
    "combatTemplate": "",
    "abilities": [
      {
        "abilityID": "BrambleWorld_Interact",
        "abilityName": "SceneObj_Environment_WoodenMaterial_BrambleWorld_Interact",
        "abilityOverride": ""
      },
      {
        "abilityID": "BrambleWorld_Attack",
        "abilityName": "SceneObj_Environment_WoodenMaterial_BrambleWorld_Attack",
        "abilityOverride": ""
      }
    ],
    "gadget": {
      "$type": "NIBKNKIINFI",
      "collision": {
        "triggerType": "TriggerAlways",
        "targetType": "All"
      },
      "collisionActions": [
        {
          "$type": "HEAANEHEBIK",
          "abilityName": "SceneObj_Environment_WoodenMaterial_BrambleWorld_Attack"
        }
      ],
      "thisColliderName": "Collider",
      "targetColliderName": "InteeTrigger"
    },
    "billboard": {
      "$type": "IBDGIBAFPPH",
      "attachPoint": "BillboardAttach",
      "offset": {
        "y": 1.0
      },
      "radiusOffset": 1.0,
      "showDistance": 0.0,
      "showHPBar": true,
      "shieldBarOnly": true
    }
  },
  "SceneObj_Environment_WoodenMaterial_AppleTree": {
    "$type": "PAAKDFFLFIN",
    "common": {
      "mass": 200.0
    },
    "combat": {
      "property": {
        "hp": 8000.0,
        "isLockHP": true
      },
      "beHit": {
        "hitBloodEffect": "",
        "hitAutoRedirect": false,
        "muteAllHitText": true
      },
      "combatLock": {
        "lockShape": "CircleLockEnemy",
        "denyLockOn": true,
        "lockType": "Gadget_Lv1"
      }
    },
    "combatTemplate": ""
  },
  "SceneObj_Environment_WoodenMaterial_WoodenShelf": {
    "$type": "PAAKDFFLFIN",
    "common": {
      "effectAttachShape": {
        "$type": "ODDIEGMAAKC",
        "mesh": "EffectMesh"
      },
      "mass": 500.0,
      "viewSize": 3.0,
      "affectedByWorld": true
    },
    "hasModel": true,
    "combat": {
      "property": {
        "hp": 99999.0,
        "attack": 50.0,
        "weight": 200.0,
        "isLockHP": true,
        "isGhostToAllied": true
      },
      "beHit": {
        "hitBloodEffect": "",
        "hitAutoRedirect": false,
        "muteAllHitText": true
      },
      "combatLock": {
        "lockShape": "CircleLockEnemy",
        "denyLockOn": true,
        "lockType": "Gadget_Lv1"
      },
      "die": {
        "dieEndTime": 0.009999999776482582,
        "dieDisappearEffect": ""
      }
    },
    "combatTemplate": ""
  },
  "SceneObj_Environment_WoodenMaterial_Barrel": {
    "$type": "PAAKDFFLFIN",
    "combatTemplate": ""
  },
  "SceneObj_Environment_Quest_GrapeStick": {
    "$type": "PAAKDFFLFIN",
    "common": {
      "effectAttachShape": {
        "$type": "ODDIEGMAAKC",
        "mesh": "EffectMesh"
      },
      "viewSize": 2.0,
      "affectedByWorld": true
    },
    "combat": {
      "property": {
        "hp": 100.0,
        "attack": 20.0,
        "weight": 50.0,
        "isGhostToAllied": true
      },
      "beHit": {
        "hitBloodEffect": ""
      },
      "combatLock": {
        "lockShape": "CircleLockEnemy",
        "denyLockOn": true,
        "lockType": "Gadget_Lv1"
      },
      "die": {
        "dieEndTime": 0.30000001192092896,
        "dieForceDisappearTime": 0.3499999940395355,
        "dieDisappearEffect": "Eff_SceneObj_WoodenObject_Broken"
      }
    },
    "combatTemplate": "",
    "billboard": {
      "$type": "IBDGIBAFPPH",
      "attachPoint": "attachPoint3",
      "offset": {
        "y": 0.5
      },
      "radiusOffset": 3.0,
      "showDistance": 48.0,
      "showHPBar": true,
      "size": "Grand"
    }
  },
  "SceneObj_Environment_WoodenMaterial_GinSengTree": {
    "$type": "PAAKDFFLFIN",
    "common": {
      "mass": 200.0
    },
    "combat": {
      "property": {
        "hp": 8000.0
      },
      "beHit": {
        "hitBloodEffect": "",
        "hitAutoRedirect": false,
        "muteAllHitText": true
      },
      "combatLock": {
        "lockShape": "CircleLockEnemy",
        "denyLockOn": true,
        "lockType": "Gadget_Lv1"
      }
    },
    "combatTemplate": "",
    "abilities": [
      {
        "abilityID": "Ability_01",
        "abilityName": "SceneObj_Environment_WoodenMaterial_GinSengTree",
        "abilityOverride": ""
      }
    ],
    "field": {
      "concernType": "AllAvatars",
      "shape": "",
      "fromShape": "",
      "triggerInfinite": true,
      "lifeInfinite": true,
      "checkInterval": 0.5,
      "overwriteCampType": true,
      "campType": "All",
      "colliderName": "",
      "fromColliderName": ""
    }
  }
}