{
  "SceneObj_Environment_WaterMaterial_Poison": {
    "$type": "PAAKDFFLFIN",
    "combat": {
      "property": {
        "hp": 99999.0,
        "attack": 10.0,
        "weight": 50.0,
        "isLockHP": true,
        "isGhostToAllied": true
      },
      "beHit": {
        "hitBloodEffect": "",
        "hitAutoRedirect": false,
        "muteAllHitText": true
      },
      "combatLock": {
        "lockShape": "CircleLockEnemy",
        "denyLockOn": true,
        "lockType": "Gadget_Lv1"
      }
    },
    "combatTemplate": "",
    "abilities": [
      {
        "abilityID": "SceneObj_Environment_WaterMaterial_PoisonWater",
        "abilityName": "SceneObj_Environment_WaterMaterial_PoisonAttack",
        "abilityOverride": ""
      }
    ]
  },
  "Cold_WhiteBox_ChargeDummy": {
    "$type": "PAAKDFFLFIN",
    "combat": {
      "property": {
        "useCreatorProperty": true,
        "hp": 999999.0,
        "attack": 15.0,
        "defense": 999999.0,
        "weight": 50.0,
        "isGhostToAllied": true,
        "isGhostToEnemy": true,
        "canTriggerBullet": false
      },
      "beHit": {
        "hitBloodEffect": "",
        "muteAllHit": true,
        "muteAllHitEffect": true,
        "muteAllHitText": true
      },
      "combatLock": {
        "lockShape": "CircleLockEnemy",
        "denyLockOn": true,
        "lockType": "Gadget_Lv1"
      }
    },
    "combatTemplate": "",
    "abilities": [
      {
        "abilityID": "Cold_WhiteBox_ChargeDummy_StartCharge",
        "abilityName": "Cold_WhiteBox_ChargeDummy_StartCharge",
        "abilityOverride": ""
      }
    ],
    "move": {
      "$type": "IGIJLNOIMEL",
      "attachPoint": "Neck",
      "EHCIGNEDGDO": ""
    },
    "billboard": {
      "$type": "IBDGIBAFPPH",
      "attachPoint": "BillboardAttach",
      "offset": {
        "y": 0.4000000059604645
      },
      "radiusOffset": 0.5,
      "showDistance": 48.0,
      "showHPBar": true,
      "size": "Big",
      "shieldBarOnly": true
    }
  },
  "Cold_WhiteBox_AuroraTest": {
    "$type": "PAAKDFFLFIN",
    "model": {
      "bornEffect": "",
      "attachEffect": "Aurora_Test"
    },
    "hasModel": true,
    "combatTemplate": ""
  }
}