{
  "Absorb_CrabShield_Hitbox": {
    "$type": "PAAKDFFLFIN",
    "common": {
      "effectAttachShape": {
        "$type": "AFBBHIMPGKH"
      }
    },
    "combat": {
      "property": {
        "useCreatorProperty": true,
        "hp": 999999.0,
        "isLockHP": true,
        "denyElementStick": true
      },
      "beHit": {
        "hitBloodEffect": ""
      },
      "combatLock": {
        "lockShape": "CircleLockEnemy",
        "denyLockOn": true,
        "lockType": "Gadget_Lv1"
      },
      "die": {
        "dieEndTime": 0.5,
        "dieForceDisappearTime": 0.5,
        "dieDisappearEffect": ""
      }
    },
    "combatTemplate": "",
    "abilities": [
      {
        "abilityID": "Avatar_Dive_CrabShield_HitBox",
        "abilityName": "Avatar_Dive_CrabShield_HitBox",
        "abilityOverride": ""
      }
    ],
    "timer": {
      "lifeTime": 1.5
    },
    "move": {
      "$type": "IGIJLNOIMEL",
      "attachPoint": "",
      "followRotation": true,
      "DJPAKKKHBJH": {
        "z": 1.0
      },
      "followOwnerInvisible": true,
      "syncTransToServer": true,
      "EHCIGNEDGDO": ""
    },
    "canRemoveByClient": true
  },
  "Absorb_CrabShield_Hitbox_Long": {
    "$type": "PAAKDFFLFIN",
    "common": {
      "effectAttachShape": {
        "$type": "AFBBHIMPGKH"
      }
    },
    "combat": {
      "property": {
        "useCreatorProperty": true,
        "hp": 999999.0,
        "isLockHP": true,
        "denyElementStick": true
      },
      "beHit": {
        "hitBloodEffect": ""
      },
      "combatLock": {
        "lockShape": "CircleLockEnemy",
        "denyLockOn": true,
        "lockType": "Gadget_Lv1"
      },
      "die": {
        "dieEndTime": 0.5,
        "dieForceDisappearTime": 0.5,
        "dieDisappearEffect": ""
      }
    },
    "combatTemplate": "",
    "abilities": [
      {
        "abilityID": "Avatar_Dive_CrabShield_HitBox",
        "abilityName": "Avatar_Dive_CrabShield_HitBox",
        "abilityOverride": ""
      }
    ],
    "timer": {
      "lifeTime": 10.0
    },
    "move": {
      "$type": "AHGMNDFKPGD",
      "speed": 15.0,
      "maxSpeed": 20.0,
      "minSpeed": 15.0,
      "acceleration": 5.0
    },
    "canRemoveByClient": true
  },
  "Absorb_CrabShield_Back_Bullet_01": {
    "$type": "PAAKDFFLFIN",
    "common": {
      "effectAttachShape": {
        "$type": "AFBBHIMPGKH",
        "scaleZ": 0.4000000059604645
      }
    },
    "combat": {
      "property": {
        "useCreatorProperty": true,
        "hp": 999999.0,
        "defense": 999999.0,
        "isInvincible": true,
        "isLockHP": true,
        "isGhostToAllied": true,
        "isGhostToEnemy": true
      },
      "beHit": {
        "hitBloodEffect": "",
        "muteAllHit": true,
        "muteAllHitEffect": true,
        "muteAllHitText": true
      },
      "combatLock": {
        "lockShape": "CircleLockEnemy",
        "denyLockOn": true,
        "lockType": "Default"
      }
    },
    "combatTemplate": "",
    "abilities": [
      {
        "abilityID": "Absorb_CrabShield_Back_Bullet_01",
        "abilityName": "Absorb_CrabShield_Back_Bullet_01",
        "abilityOverride": ""
      }
    ],
    "timer": {
      "lifeTime": 5.0
    },
    "move": {
      "$type": "MEFFBNAGNKM",
      "velocityForce": {
        "muteAll": true
      },
      "speed": 20.0,
      "maxSpeed": 20.0,
      "acceleration": 5.0,
      "LADLDOGAMLI": {
        "$type": "GLPIGCIKICP"
      },
      "updateAngle": {
        "EINFBJJELOD": true
      },
      "traceOnYAxis": true
    },
    "gadget": {
      "$type": "INBEOAJKHGD",
      "collision": {
        "targetType": "Enemy",
        "ignoreWater": true
      },
      "triggerActions": [
        {
          "$type": "HEAANEHEBIK",
          "abilityName": "Absorb_CrabShield_Back_Bullet_01"
        }
      ],
      "triggerLifeOverActions": [
        {
          "$type": "HEAANEHEBIK",
          "abilityName": "Absorb_CrabShield_Back_Bullet_01"
        }
      ],
      "killByOther": true,
      "dieDelayTime": 0.5,
      "fireAISoundEvent": true
    }
  },
  "Absorb_CrabShield_Back_Bullet_02": {
    "$type": "PAAKDFFLFIN",
    "common": {
      "effectAttachShape": {
        "$type": "AFBBHIMPGKH",
        "scaleZ": 0.4000000059604645
      }
    },
    "combat": {
      "property": {
        "useCreatorProperty": true,
        "hp": 999999.0,
        "defense": 999999.0,
        "isInvincible": true,
        "isLockHP": true
      },
      "beHit": {
        "hitBloodEffect": "",
        "muteAllHit": true,
        "muteAllHitEffect": true,
        "muteAllHitText": true
      },
      "combatLock": {
        "lockShape": "CircleLockEnemy",
        "denyLockOn": true,
        "lockType": "Default"
      }
    },
    "combatTemplate": "",
    "abilities": [
      {
        "abilityID": "Absorb_CrabShield_Back_Bullet_01",
        "abilityName": "Absorb_CrabShield_Back_Bullet_01",
        "abilityOverride": ""
      }
    ],
    "timer": {
      "lifeTime": 5.0
    },
    "move": {
      "$type": "AHGMNDFKPGD",
      "velocityForce": {
        "muteAll": true
      },
      "speed": 20.0,
      "maxSpeed": 20.0,
      "minSpeed": 15.0,
      "acceleration": 5.0,
      "updateAngle": {
        "EINFBJJELOD": true
      }
    },
    "gadget": {
      "$type": "INBEOAJKHGD",
      "collision": {
        "targetType": "Enemy",
        "ignoreWater": true
      },
      "triggerActions": [
        {
          "$type": "HEAANEHEBIK",
          "abilityName": "Absorb_CrabShield_Back_Bullet_01"
        }
      ],
      "triggerLifeOverActions": [
        {
          "$type": "HEAANEHEBIK",
          "abilityName": "Absorb_CrabShield_Back_Bullet_01"
        }
      ],
      "killByOther": true,
      "dieDelayTime": 0.5,
      "fireAISoundEvent": true
    }
  },
  "Absorb_Echo_Bullet_02": {
    "$type": "PAAKDFFLFIN",
    "common": {
      "effectAttachShape": {
        "$type": "AFBBHIMPGKH"
      }
    },
    "combat": {
      "property": {
        "useCreatorProperty": true,
        "isInvincible": true,
        "isGhostToAllied": true,
        "isGhostToEnemy": true
      },
      "beHit": {
        "hitBloodEffect": "",
        "muteAllHit": true,
        "muteAllHitEffect": true,
        "muteAllHitText": true
      },
      "combatLock": {
        "lockShape": "CircleLockEnemy",
        "denyLockOn": true,
        "lockType": "Gadget_Lv1"
      }
    },
    "combatTemplate": "",
    "abilities": [
      {
        "abilityID": "Absorb_SealEcho_Bullet_02",
        "abilityName": "Absorb_SealEcho_Bullet_02",
        "abilityOverride": ""
      }
    ],
    "timer": {
      "lifeTime": 1.5
    },
    "move": {
      "$type": "AHGMNDFKPGD",
      "velocityForce": {
        "muteAll": true
      },
      "speed": 10.0,
      "maxSpeed": 20.0,
      "minSpeed": 10.0,
      "acceleration": 2.0,
      "updateAngle": {
        "EINFBJJELOD": true
      }
    },
    "gadget": {
      "$type": "INBEOAJKHGD",
      "collision": {
        "ccd": {
          "KPGKDHAFHFE": "Always"
        },
        "triggerType": "TriggerNoRepeat",
        "targetType": "Enemy",
        "ignoreScene": true,
        "ignoreWater": true
      },
      "triggerActions": [
        {
          "$type": "HEAANEHEBIK",
          "abilityName": "Absorb_SealEcho_Bullet_02"
        }
      ]
    }
  },
  "Absorb_Echo_Bullet_01": {
    "$type": "PAAKDFFLFIN",
    "common": {
      "effectAttachShape": {
        "$type": "AFBBHIMPGKH"
      }
    },
    "combat": {
      "property": {
        "useCreatorProperty": true,
        "isInvincible": true,
        "isGhostToAllied": true,
        "isGhostToEnemy": true
      },
      "beHit": {
        "hitBloodEffect": "",
        "muteAllHit": true,
        "muteAllHitEffect": true,
        "muteAllHitText": true
      },
      "combatLock": {
        "lockShape": "CircleLockEnemy",
        "denyLockOn": true,
        "lockType": "Gadget_Lv1"
      }
    },
    "combatTemplate": "",
    "abilities": [
      {
        "abilityID": "Absorb_SealEcho_Bullet_01",
        "abilityName": "Absorb_SealEcho_Bullet_01",
        "abilityOverride": ""
      }
    ],
    "timer": {
      "lifeTime": 2.0
    },
    "move": {
      "$type": "AHGMNDFKPGD",
      "velocityForce": {
        "muteAll": true
      },
      "speed": 10.0,
      "maxSpeed": 20.0,
      "minSpeed": 10.0,
      "acceleration": 2.0,
      "updateAngle": {
        "EINFBJJELOD": true
      }
    },
    "gadget": {
      "$type": "INBEOAJKHGD",
      "collision": {
        "ccd": {
          "KPGKDHAFHFE": "Always"
        },
        "triggerType": "TriggerNoRepeat",
        "targetType": "Enemy",
        "ignoreScene": true,
        "ignoreWater": true
      },
      "triggerActions": [
        {
          "$type": "HEAANEHEBIK",
          "abilityName": "Absorb_SealEcho_Bullet_01"
        }
      ]
    }
  },
  "Absorb_Aim_Driver_CrabShield": {
    "$type": "PAAKDFFLFIN",
    "common": {
      "effectAttachShape": {
        "$type": "AFBBHIMPGKH"
      }
    },
    "combat": {
      "property": {
        "useCreatorProperty": true,
        "hp": 99999.0,
        "defense": 99999.0,
        "isInvincible": true,
        "isGhostToAllied": true,
        "isGhostToEnemy": true
      },
      "beHit": {
        "hitBloodEffect": "",
        "muteAllHit": true,
        "muteAllHitEffect": true,
        "muteAllHitText": true
      },
      "combatLock": {
        "lockShape": "CircleLockEnemy",
        "denyLockOn": true,
        "lockType": "Gadget_Lv1"
      }
    },
    "combatTemplate": "",
    "abilities": [
      {
        "abilityID": "Avatar_Dive_Lock_Collider_Driver_CrabShield",
        "abilityName": "Avatar_Dive_Lock_Collider_Driver_CrabShield",
        "abilityOverride": ""
      }
    ],
    "timer": {
      "lifeTime": 30.0
    },
    "move": {
      "$type": "IGIJLNOIMEL",
      "velocityForce": {
        "muteAll": true
      },
      "attachPoint": "RootNode",
      "followRotation": true,
      "EHCIGNEDGDO": ""
    }
  },
  "Absorb_JellyfishBomb_Short": {
    "$type": "PAAKDFFLFIN",
    "common": {
      "effectAttachShape": {
        "$type": "AFBBHIMPGKH"
      }
    },
    "combat": {
      "property": {
        "useCreatorProperty": true,
        "hp": 999999.0,
        "isInvincible": true,
        "isLockHP": true,
        "isGhostToAllied": true,
        "isGhostToEnemy": true,
        "denyElementStick": true
      },
      "beHit": {
        "hitBloodEffect": "",
        "muteAllHit": true,
        "muteAllHitEffect": true,
        "muteAllHitText": true
      },
      "combatLock": {
        "lockShape": "CircleLockEnemy",
        "denyLockOn": true,
        "lockType": "Gadget_Lv1"
      },
      "die": {
        "dieEndTime": 0.5,
        "dieForceDisappearTime": 0.5,
        "dieDisappearEffect": ""
      }
    },
    "combatTemplate": "",
    "abilities": [
      {
        "abilityID": "Ability_Absorb_JellyfishBomb_Short",
        "abilityName": "Ability_Absorb_JellyfishBomb_Short",
        "abilityOverride": ""
      }
    ],
    "timer": {
      "lifeTime": 60.0
    },
    "canRemoveByClient": true
  },
  "Absorb_JellyfishBomb_Hold": {
    "$type": "PAAKDFFLFIN",
    "common": {
      "effectAttachShape": {
        "$type": "AFBBHIMPGKH"
      }
    },
    "combat": {
      "property": {
        "useCreatorProperty": true,
        "hp": 999999.0,
        "attack": 50.0,
        "defense": 999999.0,
        "isInvincible": true,
        "isLockHP": true,
        "isGhostToAllied": true,
        "isGhostToEnemy": true
      },
      "beHit": {
        "hitBloodEffect": "",
        "muteAllHit": true,
        "muteAllHitEffect": true,
        "muteAllHitText": true
      },
      "combatLock": {
        "lockShape": "CircleLockEnemy",
        "denyLockOn": true,
        "lockType": "Default"
      }
    },
    "combatTemplate": "",
    "abilities": [
      {
        "abilityID": "Ability_Absorb_JellyfishBomb_Hold",
        "abilityName": "Ability_Absorb_JellyfishBomb_Hold",
        "abilityOverride": ""
      }
    ],
    "timer": {
      "lifeTime": 60.0
    },
    "move": {
      "$type": "AHGMNDFKPGD",
      "velocityForce": {
        "muteAll": true
      },
      "speed": 3.0,
      "maxSpeed": 20.0,
      "minSpeed": 15.0,
      "acceleration": 5.0,
      "updateAngle": {
        "EINFBJJELOD": true
      }
    },
    "gadget": {
      "$type": "INBEOAJKHGD",
      "collision": {
        "ccd": {
          "KPGKDHAFHFE": "Always",
          "detectCD": 0.10000000149011612
        },
        "triggerType": "TriggerAlways",
        "targetType": "Enemy"
      },
      "triggerActions": [
        {
          "$type": "HEAANEHEBIK",
          "abilityName": "Ability_Absorb_JellyfishBomb_Hold"
        }
      ],
      "triggerLifeOverActions": [
        {
          "$type": "HEAANEHEBIK",
          "abilityName": "Ability_Absorb_JellyfishBomb_Hold"
        }
      ],
      "killByOther": true,
      "fireAISoundEvent": true
    }
  },
  "Absorb_Aim_Driver_Octopus": {
    "$type": "PAAKDFFLFIN",
    "common": {
      "effectAttachShape": {
        "$type": "AFBBHIMPGKH"
      }
    },
    "combat": {
      "property": {
        "useCreatorProperty": true,
        "hp": 99999.0,
        "defense": 99999.0,
        "isInvincible": true,
        "isGhostToAllied": true,
        "isGhostToEnemy": true
      },
      "beHit": {
        "hitBloodEffect": "",
        "muteAllHit": true,
        "muteAllHitEffect": true,
        "muteAllHitText": true
      },
      "combatLock": {
        "lockShape": "CircleLockEnemy",
        "denyLockOn": true,
        "lockType": "Gadget_Lv1"
      }
    },
    "combatTemplate": "",
    "abilities": [
      {
        "abilityID": "Avatar_DiveSkill_Octopus_AimGadget",
        "abilityName": "Avatar_DiveSkill_Octopus_AimGadget",
        "abilityOverride": ""
      }
    ],
    "timer": {
      "lifeTime": 30.0
    },
    "move": {
      "$type": "IGIJLNOIMEL",
      "velocityForce": {
        "muteAll": true
      },
      "attachPoint": "RootNode",
      "followRotation": true,
      "EHCIGNEDGDO": ""
    }
  }
}