{
  "SceneObj_Area_Common_Property_Ani_WaterWheel_Pullback_01": {
    "$type": "PAAKDFFLFIN",
    "common": {
      "disableTickDistance": 100000.0,
      "isForceRefreshAuthotiryToHost": true
    },
    "globalValue": {
      "serverGlobalValues": [
        "SGV_WheelDriveTag",
        "SGV_WheelDriveTag_Other",
        "SGV_LongPushForceAcc",
        "SGV_ShortPushForceAcc",
        "SGV_FrictionAcc",
        "SGV_InitRound",
        "SGV_PullbackAcc",
        "SGV_ClockwiseMaxRound",
        "SGV_AnticlockwiseMaxRound",
        "SGV_OneRoundTime",
        "SGV_PullbackTime",
        "SGV_IsDeltaSync",
        "SGV_InitNodeCount",
        "SGV_MaxNodeCount"
      ],
      "initServerGlobalValues": {
        "SGV_WheelDriveTag": -1.0,
        "SGV_WheelDriveTag_Other": -1.0,
        "SGV_LongPushForceAcc": 0.20000000298023224,
        "SGV_ShortPushForceAcc": 1.0,
        "SGV_FrictionAcc": 1.0,
        "SGV_InitRound": 0.0,
        "SGV_PullbackAcc": 10.0,
        "SGV_ClockwiseMaxRound": 10.199999809265137,
        "SGV_AnticlockwiseMaxRound": 0.20000000298023224,
        "SGV_OneRoundTime": 3.0,
        "SGV_PullbackTime": 2.0,
        "SGV_IsDeltaSync": 1.0,
        "SGV_InitNodeCount": 1.0,
        "SGV_MaxNodeCount": 1.0
      }
    },
    "hasModel": true,
    "combat": {
      "property": {
        "hp": 400.0,
        "attack": 15.0,
        "weight": 50.0,
        "isInvincible": true,
        "isLockHP": true
      },
      "beHit": {
        "hitBloodEffect": "",
        "hitAutoRedirect": false,
        "muteAllHit": true,
        "muteAllHitEffect": true,
        "muteAllHitText": true
      },
      "combatLock": {
        "lockShape": "CircleLockEnemy",
        "denyLockOn": true,
        "lockType": "Gadget_Lv1"
      }
    },
    "combatTemplate": "",
    "abilities": [
      {
        "abilityID": "SceneObj_Area_Common_Property_Ani_WaterWheel_Pullback_01",
        "abilityName": "SceneObj_Area_Common_Property_Ani_WaterWheel_Pullback_01",
        "abilityOverride": ""
      },
      {
        "abilityID": "Ability_Enshrine_WheelNode",
        "abilityName": "Ability_Enshrine_WheelNode",
        "abilityOverride": ""
      },
      {
        "abilityID": "Ability_WaterWheel_Common_01",
        "abilityName": "Ability_WaterWheel_Common_01",
        "abilityOverride": ""
      },
      {
        "abilityID": "Ability_SprayGunReceiver_01",
        "abilityName": "Ability_SprayGunReceiver_01",
        "abilityOverride": ""
      },
      {
        "abilityID": "Ability_SprayGunReceiverEffect_01",
        "abilityName": "Ability_SprayGunReceiverEffect_01",
        "abilityOverride": ""
      }
    ],
    "field": {
      "concernType": "AllAvatars",
      "shape": "CircleR3H3",
      "fromShape": "",
      "triggerInfinite": true,
      "lifeInfinite": true,
      "checkInterval": 0.10000000149011612,
      "overwriteCampType": true,
      "campType": "All",
      "colliderName": "",
      "fromColliderName": ""
    },
    "GMDIJOFECGC": "Gadget",
    "openWatcher": true
  },
  "SceneObj_Area_Common_Property_Ani_WaterWheel_Adjust_01": {
    "$type": "PAAKDFFLFIN",
    "common": {
      "disableTickDistance": 100000.0,
      "isForceRefreshAuthotiryToHost": true
    },
    "globalValue": {
      "serverGlobalValues": [
        "SGV_WheelDriveTag",
        "SGV_WheelDriveTag_Other",
        "SGV_LongPushForceAcc",
        "SGV_ShortPushForceAcc",
        "SGV_FrictionAcc",
        "SGV_InitRound",
        "SGV_PullbackAcc",
        "SGV_ClockwiseMaxRound",
        "SGV_AnticlockwiseMaxRound",
        "SGV_OneRoundTime",
        "SGV_PullbackTime",
        "SGV_IsDeltaSync",
        "SGV_InitNodeCount",
        "SGV_MaxNodeCount"
      ],
      "initServerGlobalValues": {
        "SGV_WheelDriveTag": -1.0,
        "SGV_WheelDriveTag_Other": -1.0,
        "SGV_LongPushForceAcc": 0.20000000298023224,
        "SGV_ShortPushForceAcc": 1.0,
        "SGV_FrictionAcc": 1.0,
        "SGV_InitRound": 0.0,
        "SGV_PullbackAcc": 0.0,
        "SGV_ClockwiseMaxRound": -1.0,
        "SGV_AnticlockwiseMaxRound": -1.0,
        "SGV_OneRoundTime": 5.0,
        "SGV_PullbackTime": 0.0,
        "SGV_IsDeltaSync": 1.0,
        "SGV_InitNodeCount": 2.0,
        "SGV_MaxNodeCount": 2.0
      }
    },
    "hasModel": true,
    "combat": {
      "property": {
        "hp": 400.0,
        "attack": 15.0,
        "weight": 50.0,
        "isInvincible": true,
        "isLockHP": true
      },
      "beHit": {
        "hitBloodEffect": "",
        "hitAutoRedirect": false,
        "muteAllHit": true,
        "muteAllHitEffect": true,
        "muteAllHitText": true
      },
      "combatLock": {
        "lockShape": "CircleLockEnemy",
        "denyLockOn": true,
        "lockType": "Gadget_Lv1"
      }
    },
    "combatTemplate": "",
    "abilities": [
      {
        "abilityID": "SceneObj_Area_Common_Property_Ani_WaterWheel_Adjust_01",
        "abilityName": "SceneObj_Area_Common_Property_Ani_WaterWheel_Adjust_01",
        "abilityOverride": ""
      },
      {
        "abilityID": "Ability_Enshrine_WheelNode",
        "abilityName": "Ability_Enshrine_WheelNode",
        "abilityOverride": ""
      },
      {
        "abilityID": "Ability_WaterWheel_Common_01",
        "abilityName": "Ability_WaterWheel_Common_01",
        "abilityOverride": ""
      },
      {
        "abilityID": "Ability_SprayGunReceiver_01",
        "abilityName": "Ability_SprayGunReceiver_01",
        "abilityOverride": ""
      },
      {
        "abilityID": "Ability_SprayGunReceiverEffect_01",
        "abilityName": "Ability_SprayGunReceiverEffect_01",
        "abilityOverride": ""
      }
    ],
    "field": {
      "concernType": "AllAvatars",
      "shape": "CircleR3H3",
      "fromShape": "",
      "triggerInfinite": true,
      "lifeInfinite": true,
      "checkInterval": 0.10000000149011612,
      "overwriteCampType": true,
      "campType": "All",
      "colliderName": "",
      "fromColliderName": ""
    },
    "GMDIJOFECGC": "Gadget",
    "openWatcher": true
  },
  "SceneObj_Area_Common_Property_Ani_WheelAlignTarget_01": {
    "$type": "PAAKDFFLFIN",
    "common": {
      "disableTickDistance": 100000.0,
      "isForceRefreshAuthotiryToHost": true
    },
    "globalValue": {
      "serverGlobalValues": [
        "SGV_AutoAlignAngle",
        "SGV_AlignRange"
      ],
      "initServerGlobalValues": {
        "SGV_AutoAlignAngle": 0.0,
        "SGV_AlignRange": 0.014999999664723873
      }
    },
    "hasModel": true,
    "combat": {
      "property": {
        "hp": 400.0,
        "attack": 15.0,
        "weight": 50.0,
        "isInvincible": true,
        "isLockHP": true
      },
      "beHit": {
        "hitBloodEffect": "",
        "hitAutoRedirect": false,
        "muteAllHit": true,
        "muteAllHitEffect": true,
        "muteAllHitText": true
      },
      "combatLock": {
        "lockShape": "CircleLockEnemy",
        "denyLockOn": true,
        "lockType": "Gadget_Lv1"
      }
    },
    "combatTemplate": "",
    "abilities": [
      {
        "abilityID": "SceneObj_Area_Common_Property_Ani_WheelAlignTarget_01",
        "abilityName": "SceneObj_Area_Common_Property_Ani_WheelAlignTarget_01",
        "abilityOverride": ""
      }
    ],
    "forceSetEntityType": "Gadget"
  },
  "SceneObj_Area_Common_Property_Ani_WaterWheel_ConnectNode_01": {
    "$type": "PAAKDFFLFIN",
    "common": {
      "disableTickDistance": 100000.0,
      "isForceRefreshAuthotiryToHost": true
    },
    "hasModel": true,
    "combat": {
      "property": {
        "hp": 400.0,
        "attack": 15.0,
        "weight": 50.0,
        "isInvincible": true,
        "isLockHP": true
      },
      "beHit": {
        "hitBloodEffect": "",
        "hitAutoRedirect": false,
        "muteAllHit": true,
        "muteAllHitEffect": true,
        "muteAllHitText": true
      },
      "combatLock": {
        "lockShape": "CircleLockEnemy",
        "denyLockOn": true,
        "lockType": "Gadget_Lv1"
      }
    },
    "combatTemplate": "",
    "abilities": [
      {
        "abilityID": "SceneObj_Area_Common_Property_Ani_WaterWheel_ConnectNode_01",
        "abilityName": "SceneObj_Area_Common_Property_Ani_WaterWheel_ConnectNode_01",
        "abilityOverride": ""
      }
    ],
    "field": {
      "concernType": "AllAvatars",
      "shape": "CircleR3H3",
      "fromShape": "",
      "triggerInfinite": true,
      "lifeInfinite": true,
      "checkInterval": 0.10000000149011612,
      "overwriteCampType": true,
      "campType": "All",
      "colliderName": "",
      "fromColliderName": ""
    },
    "forceSetEntityType": "Gadget"
  },
  "SceneObj_Area_Common_Property_Ani_WaterWheel_WindmillWheel_01": {
    "$type": "PAAKDFFLFIN",
    "common": {
      "disableTickDistance": 100000.0,
      "isForceRefreshAuthotiryToHost": true
    },
    "globalValue": {
      "serverGlobalValues": [
        "SGV_WheelDriveTag",
        "SGV_LongPushForceAcc",
        "SGV_ShortPushForceAcc",
        "SGV_FlowerWheel_activeDuration",
        "SGV_InitRound",
        "SGV_PullbackAcc",
        "SGV_ClockwiseMaxRound",
        "SGV_AnticlockwiseMaxRound",
        "SGV_OneRoundTime",
        "SGV_PullbackTime",
        "SGV_IsDeltaSync",
        "SGV_SpeedThreshold"
      ],
      "initServerGlobalValues": {
        "SGV_WheelDriveTag": 0.0,
        "SGV_LongPushForceAcc": 1.0,
        "SGV_ShortPushForceAcc": 1.0,
        "SGV_FlowerWheel_activeDuration": 10.0,
        "SGV_InitRound": 0.0,
        "SGV_PullbackAcc": 0.0,
        "SGV_ClockwiseMaxRound": -1.0,
        "SGV_AnticlockwiseMaxRound": -1.0,
        "SGV_OneRoundTime": 0.6000000238418579,
        "SGV_PullbackTime": 0.30000001192092896,
        "SGV_IsDeltaSync": 1.0,
        "SGV_SpeedThreshold": 1.0
      }
    },
    "hasModel": true,
    "combat": {
      "property": {
        "hp": 400.0,
        "attack": 15.0,
        "weight": 50.0,
        "isInvincible": true,
        "isLockHP": true
      },
      "beHit": {
        "hitBloodEffect": "",
        "hitAutoRedirect": false,
        "muteAllHit": true,
        "muteAllHitEffect": true,
        "muteAllHitText": true
      },
      "combatLock": {
        "lockShape": "CircleLockEnemy",
        "denyLockOn": true,
        "lockType": "Gadget_Lv1"
      }
    },
    "combatTemplate": "",
    "abilities": [
      {
        "abilityID": "Ability_WaterWheel_WindmillWheel_01",
        "abilityName": "Ability_WaterWheel_WindmillWheel_01",
        "abilityOverride": ""
      },
      {
        "abilityID": "Ability_SprayGunReceiver_01",
        "abilityName": "Ability_SprayGunReceiver_01",
        "abilityOverride": ""
      },
      {
        "abilityID": "Scene_RockGadget_Summon_Detect",
        "abilityName": "Scene_RockGadget_Summon_Detect",
        "abilityOverride": ""
      },
      {
        "abilityID": "Ability_WaterWheel_WindmillWheel_effectController_01",
        "abilityName": "Ability_WaterWheel_WindmillWheel_effectController_01",
        "abilityOverride": ""
      }
    ],
    "GMDIJOFECGC": "Gadget",
    "openWatcher": true
  },
  "SceneObj_Area_Common_Property_Ani_WaterWheel_WindmillWheel_02": {
    "$type": "PAAKDFFLFIN",
    "common": {
      "disableTickDistance": 100000.0,
      "isForceRefreshAuthotiryToHost": true
    },
    "globalValue": {
      "serverGlobalValues": [
        "SGV_WheelDriveTag",
        "SGV_LongPushForceAcc",
        "SGV_ShortPushForceAcc",
        "SGV_FlowerWheel_activeDuration",
        "SGV_InitRound",
        "SGV_PullbackAcc",
        "SGV_ClockwiseMaxRound",
        "SGV_AnticlockwiseMaxRound",
        "SGV_OneRoundTime",
        "SGV_PullbackTime",
        "SGV_IsDeltaSync",
        "SGV_SpeedThreshold"
      ],
      "initServerGlobalValues": {
        "SGV_WheelDriveTag": 0.0,
        "SGV_LongPushForceAcc": 1.0,
        "SGV_ShortPushForceAcc": 1.0,
        "SGV_FlowerWheel_activeDuration": 10.0,
        "SGV_InitRound": 0.0,
        "SGV_PullbackAcc": 0.0,
        "SGV_ClockwiseMaxRound": -1.0,
        "SGV_AnticlockwiseMaxRound": -1.0,
        "SGV_OneRoundTime": 0.6000000238418579,
        "SGV_PullbackTime": 0.30000001192092896,
        "SGV_IsDeltaSync": 1.0,
        "SGV_SpeedThreshold": 1.0
      }
    },
    "hasModel": true,
    "combat": {
      "property": {
        "hp": 400.0,
        "attack": 15.0,
        "weight": 50.0,
        "isInvincible": true,
        "isLockHP": true
      },
      "beHit": {
        "hitBloodEffect": "",
        "hitAutoRedirect": false,
        "muteAllHit": true,
        "muteAllHitEffect": true,
        "muteAllHitText": true
      },
      "combatLock": {
        "lockShape": "CircleLockEnemy",
        "denyLockOn": true,
        "lockType": "Gadget_Lv1"
      }
    },
    "combatTemplate": "",
    "abilities": [
      {
        "abilityID": "Ability_WaterWheel_WindmillWheel_01",
        "abilityName": "Ability_WaterWheel_WindmillWheel_01",
        "abilityOverride": ""
      },
      {
        "abilityID": "Ability_SprayGunReceiver_01",
        "abilityName": "Ability_SprayGunReceiver_01",
        "abilityOverride": ""
      },
      {
        "abilityID": "Scene_RockGadget_Summon_Detect",
        "abilityName": "Scene_RockGadget_Summon_Detect",
        "abilityOverride": ""
      },
      {
        "abilityID": "Ability_WaterWheel_WindmillWheel_effectController_01",
        "abilityName": "Ability_WaterWheel_WindmillWheel_effectController_01",
        "abilityOverride": ""
      }
    ],
    "move": {
      "$type": "EGIPFLCINDM"
    },
    "GMDIJOFECGC": "Gadget",
    "openWatcher": true
  },
  "SceneObj_Area_Common_Property_Ani_WaterWheel_WindmillWheel_03": {
    "$type": "PAAKDFFLFIN",
    "common": {
      "disableTickDistance": 100000.0
    },
    "globalValue": {
      "serverGlobalValues": [
        "SGV_WheelDriveTag",
        "SGV_LongPushForceAcc",
        "SGV_ShortPushForceAcc",
        "SGV_FlowerWheel_activeDuration",
        "SGV_InitRound",
        "SGV_PullbackAcc",
        "SGV_ClockwiseMaxRound",
        "SGV_AnticlockwiseMaxRound",
        "SGV_OneRoundTime",
        "SGV_PullbackTime",
        "SGV_IsDeltaSync",
        "SGV_SpeedThreshold"
      ],
      "initServerGlobalValues": {
        "SGV_WheelDriveTag": 0.0,
        "SGV_LongPushForceAcc": 1.0,
        "SGV_ShortPushForceAcc": 1.0,
        "SGV_FlowerWheel_activeDuration": 10.0,
        "SGV_InitRound": 0.0,
        "SGV_PullbackAcc": 0.0,
        "SGV_ClockwiseMaxRound": -1.0,
        "SGV_AnticlockwiseMaxRound": -1.0,
        "SGV_OneRoundTime": 0.6000000238418579,
        "SGV_PullbackTime": 0.30000001192092896,
        "SGV_IsDeltaSync": 1.0,
        "SGV_SpeedThreshold": 1.0
      }
    },
    "hasModel": true,
    "combat": {
      "property": {
        "hp": 400.0,
        "attack": 15.0,
        "weight": 50.0,
        "isInvincible": true,
        "isLockHP": true
      },
      "beHit": {
        "hitBloodEffect": "",
        "hitAutoRedirect": false,
        "muteAllHit": true,
        "muteAllHitEffect": true,
        "muteAllHitText": true
      },
      "combatLock": {
        "lockShape": "CircleLockEnemy",
        "denyLockOn": true,
        "lockType": "Gadget_Lv1"
      }
    },
    "combatTemplate": "",
    "abilities": [
      {
        "abilityID": "Ability_WaterWheel_WindmillWheel_01",
        "abilityName": "Ability_WaterWheel_WindmillWheel_01",
        "abilityOverride": ""
      },
      {
        "abilityID": "Ability_SprayGunReceiver_01",
        "abilityName": "Ability_SprayGunReceiver_01",
        "abilityOverride": ""
      },
      {
        "abilityID": "Scene_RockGadget_Summon_Detect",
        "abilityName": "Scene_RockGadget_Summon_Detect",
        "abilityOverride": ""
      },
      {
        "abilityID": "Ability_WaterWheel_WindmillWheel_effectController_02",
        "abilityName": "Ability_WaterWheel_WindmillWheel_effectController_02",
        "abilityOverride": ""
      }
    ],
    "GMDIJOFECGC": "Gadget",
    "openWatcher": true
  },
  "SceneObj_Area_Common_Property_Ani_WaterWheel_WindmillWheel_04": {
    "$type": "PAAKDFFLFIN",
    "common": {
      "disableTickDistance": 100000.0
    },
    "globalValue": {
      "serverGlobalValues": [
        "SGV_WheelDriveTag",
        "SGV_LongPushForceAcc",
        "SGV_ShortPushForceAcc",
        "SGV_FlowerWheel_activeDuration",
        "SGV_InitRound",
        "SGV_PullbackAcc",
        "SGV_ClockwiseMaxRound",
        "SGV_AnticlockwiseMaxRound",
        "SGV_OneRoundTime",
        "SGV_PullbackTime",
        "SGV_IsDeltaSync",
        "SGV_SpeedThreshold"
      ],
      "initServerGlobalValues": {
        "SGV_WheelDriveTag": 0.0,
        "SGV_LongPushForceAcc": 1.0,
        "SGV_ShortPushForceAcc": 1.0,
        "SGV_FlowerWheel_activeDuration": 10.0,
        "SGV_InitRound": 0.0,
        "SGV_PullbackAcc": 0.0,
        "SGV_ClockwiseMaxRound": -1.0,
        "SGV_AnticlockwiseMaxRound": -1.0,
        "SGV_OneRoundTime": 0.6000000238418579,
        "SGV_PullbackTime": 0.30000001192092896,
        "SGV_IsDeltaSync": 1.0,
        "SGV_SpeedThreshold": 1.0
      }
    },
    "hasModel": true,
    "combat": {
      "property": {
        "hp": 400.0,
        "attack": 15.0,
        "weight": 50.0,
        "isInvincible": true,
        "isLockHP": true
      },
      "beHit": {
        "hitBloodEffect": "",
        "hitAutoRedirect": false,
        "muteAllHit": true,
        "muteAllHitEffect": true,
        "muteAllHitText": true
      },
      "combatLock": {
        "lockShape": "CircleLockEnemy",
        "denyLockOn": true,
        "lockType": "Gadget_Lv1"
      }
    },
    "combatTemplate": "",
    "abilities": [
      {
        "abilityID": "Ability_WaterWheel_WindmillWheel_01",
        "abilityName": "Ability_WaterWheel_WindmillWheel_01",
        "abilityOverride": ""
      },
      {
        "abilityID": "Ability_SprayGunReceiver_01",
        "abilityName": "Ability_SprayGunReceiver_01",
        "abilityOverride": ""
      },
      {
        "abilityID": "Scene_RockGadget_Summon_Detect",
        "abilityName": "Scene_RockGadget_Summon_Detect",
        "abilityOverride": ""
      },
      {
        "abilityID": "Ability_WaterWheel_WindmillWheel_effectController_02",
        "abilityName": "Ability_WaterWheel_WindmillWheel_effectController_02",
        "abilityOverride": ""
      }
    ],
    "move": {
      "$type": "EGIPFLCINDM"
    },
    "GMDIJOFECGC": "Gadget",
    "openWatcher": true
  }
}