{
  "Ganyu_Arrow_01": {
    "$type": "PAAKDFFLFIN",
    "common": {
      "effectAttachShape": {
        "$type": "AFBBHIMPGKH",
        "scaleX": 0.5,
        "scaleY": 0.5
      },
      "affectedByWorld": true
    },
    "combat": {
      "property": {
        "useCreatorProperty": true,
        "isInvincible": true,
        "canTriggerBullet": false
      },
      "beHit": {
        "hitBloodEffect": "",
        "muteAllHit": true,
        "muteAllHitEffect": true,
        "muteAllHitText": true
      },
      "combatLock": {
        "lockShape": "CircleLockEnemy",
        "denyLockOn": true,
        "lockType": "Default"
      },
      "animEvents": {
        "Arrow_ATK01": {
          "attackPattern": {
            "$type": "CKCNJHBMNGJ",
            "triggerType": "TriggerNoRepeat",
            "checkHitLayerType": "Both",
            "born": {
              "$type": "AGPIGGAPILF",
              "offset": {
                "GOAPOLCAJBP": 0.0,
                "FMOPCJGGFMH": 0.0,
                "EJJEPFCDDAM": -0.5
              }
            },
            "size": {
              "GOAPOLCAJBP": 0.10000000149011612,
              "FMOPCJGGFMH": 0.10000000149011612,
              "EJJEPFCDDAM": 1.0
            }
          },
          "attackInfo": {
            "attackTag": "NormalAttack_01",
            "attenuationTag": "",
            "attenuationGroup": "default",
            "attackProperty": {
              "JMLMDDCBIAO": 0.0,
              "damagePercentageRatio": 0.0,
              "elementDurability": 100.0,
              "strikeType": "Pierce",
              "enBreak": 11.069999694824219,
              "damagePercentage": 0.0
            },
            "hitPattern": {
              "onHitEffectName": "default",
              "hitImpulseY": "",
              "hitImpulseType": "LV1"
            },
            "cameraShake": {
              "shakeRange": 0.019999999552965164,
              "shakeTime": 0.10000000149011612
            },
            "canBeModifiedBy": "OriginOwner"
          }
        }
      }
    },
    "combatTemplate": "",
    "abilities": [
      {
        "abilityID": "Bullet_Ganyu_ShootArrow",
        "abilityName": "Bullet_Ganyu_ShootArrow",
        "abilityOverride": ""
      },
      {
        "abilityID": "Bullet_Ganyu_ShootArrow_LightFX",
        "abilityName": "Bullet_Ganyu_ShootArrow_LightFX",
        "abilityOverride": ""
      }
    ],
    "timer": {
      "lifeTime": 8.0
    },
    "move": {
      "$type": "KPMONKJIGAM",
      "speed": 40.0,
      "LADLDOGAMLI": {
        "$type": "GLPIGCIKICP"
      },
      "straightRange": 7.0,
      "gravityOfAcceleration": 15.0,
      "airResistance": 0.009999999776482582
    },
    "gadget": {
      "$type": "INBEOAJKHGD",
      "collision": {
        "targetType": "Enemy"
      },
      "triggerActions": [
        {
          "$type": "JLJCHBAEAMN",
          "attackEvent": "Arrow_ATK01"
        },
        {
          "$type": "HEAANEHEBIK",
          "abilityName": "Bullet_Ganyu_ShootArrow"
        }
      ],
      "fireAISoundEvent": true
    }
  },
  "Ganyu_Arrow_02": {
    "$type": "PAAKDFFLFIN",
    "common": {
      "effectAttachShape": {
        "$type": "AFBBHIMPGKH",
        "scaleX": 0.5,
        "scaleY": 0.5
      },
      "affectedByWorld": true
    },
    "combat": {
      "property": {
        "useCreatorProperty": true,
        "isInvincible": true,
        "canTriggerBullet": false
      },
      "beHit": {
        "hitBloodEffect": "",
        "muteAllHit": true,
        "muteAllHitEffect": true,
        "muteAllHitText": true
      },
      "combatLock": {
        "lockShape": "CircleLockEnemy",
        "denyLockOn": true,
        "lockType": "Default"
      },
      "animEvents": {
        "Arrow_ATK02": {
          "attackPattern": {
            "$type": "CKCNJHBMNGJ",
            "triggerType": "TriggerNoRepeat",
            "checkHitLayerType": "Both",
            "born": {
              "$type": "AGPIGGAPILF",
              "offset": {
                "GOAPOLCAJBP": 0.0,
                "FMOPCJGGFMH": 0.0,
                "EJJEPFCDDAM": -0.5
              }
            },
            "size": {
              "GOAPOLCAJBP": 0.10000000149011612,
              "FMOPCJGGFMH": 0.10000000149011612,
              "EJJEPFCDDAM": 1.0
            }
          },
          "attackInfo": {
            "attackTag": "NormalAttack_02",
            "attenuationTag": "",
            "attenuationGroup": "default",
            "attackProperty": {
              "JMLMDDCBIAO": 0.0,
              "damagePercentageRatio": 0.0,
              "elementDurability": 100.0,
              "strikeType": "Pierce",
              "enBreak": 12.420000076293945,
              "damagePercentage": 0.0
            },
            "hitPattern": {
              "onHitEffectName": "default",
              "hitImpulseY": "",
              "hitImpulseType": "LV1"
            },
            "cameraShake": {
              "shakeRange": 0.019999999552965164,
              "shakeTime": 0.10000000149011612
            },
            "canBeModifiedBy": "OriginOwner"
          }
        }
      }
    },
    "combatTemplate": "",
    "abilities": [
      {
        "abilityID": "Bullet_Ganyu_ShootArrow",
        "abilityName": "Bullet_Ganyu_ShootArrow",
        "abilityOverride": ""
      },
      {
        "abilityID": "Bullet_Ganyu_ShootArrow_LightFX",
        "abilityName": "Bullet_Ganyu_ShootArrow_LightFX",
        "abilityOverride": ""
      }
    ],
    "timer": {
      "lifeTime": 8.0
    },
    "move": {
      "$type": "KPMONKJIGAM",
      "speed": 40.0,
      "LADLDOGAMLI": {
        "$type": "GLPIGCIKICP"
      },
      "straightRange": 7.0,
      "gravityOfAcceleration": 15.0,
      "airResistance": 0.009999999776482582
    },
    "gadget": {
      "$type": "INBEOAJKHGD",
      "collision": {
        "targetType": "Enemy"
      },
      "triggerActions": [
        {
          "$type": "JLJCHBAEAMN",
          "attackEvent": "Arrow_ATK02"
        },
        {
          "$type": "HEAANEHEBIK",
          "abilityName": "Bullet_Ganyu_ShootArrow"
        }
      ],
      "fireAISoundEvent": true
    }
  },
  "Ganyu_Arrow_03": {
    "$type": "PAAKDFFLFIN",
    "common": {
      "effectAttachShape": {
        "$type": "AFBBHIMPGKH",
        "scaleX": 0.5,
        "scaleY": 0.5
      },
      "affectedByWorld": true
    },
    "combat": {
      "property": {
        "useCreatorProperty": true,
        "isInvincible": true,
        "canTriggerBullet": false
      },
      "beHit": {
        "hitBloodEffect": "",
        "muteAllHit": true,
        "muteAllHitEffect": true,
        "muteAllHitText": true
      },
      "combatLock": {
        "lockShape": "CircleLockEnemy",
        "denyLockOn": true,
        "lockType": "Default"
      },
      "animEvents": {
        "Arrow_ATK03": {
          "attackPattern": {
            "$type": "CKCNJHBMNGJ",
            "triggerType": "TriggerNoRepeat",
            "checkHitLayerType": "Both",
            "born": {
              "$type": "AGPIGGAPILF",
              "offset": {
                "GOAPOLCAJBP": 0.0,
                "FMOPCJGGFMH": 0.0,
                "EJJEPFCDDAM": -0.5
              }
            },
            "size": {
              "GOAPOLCAJBP": 0.10000000149011612,
              "FMOPCJGGFMH": 0.10000000149011612,
              "EJJEPFCDDAM": 1.0
            }
          },
          "attackInfo": {
            "attackTag": "NormalAttack_03",
            "attenuationTag": "",
            "attenuationGroup": "default",
            "attackProperty": {
              "JMLMDDCBIAO": 0.0,
              "damagePercentageRatio": 0.0,
              "elementDurability": 100.0,
              "strikeType": "Pierce",
              "enBreak": 15.869999885559082,
              "damagePercentage": 0.0
            },
            "hitPattern": {
              "onHitEffectName": "default",
              "hitImpulseY": "",
              "hitImpulseType": "LV1"
            },
            "cameraShake": {
              "shakeRange": 0.019999999552965164,
              "shakeTime": 0.10000000149011612
            },
            "canBeModifiedBy": "OriginOwner"
          }
        }
      }
    },
    "combatTemplate": "",
    "abilities": [
      {
        "abilityID": "Bullet_Ganyu_ShootArrow",
        "abilityName": "Bullet_Ganyu_ShootArrow",
        "abilityOverride": ""
      },
      {
        "abilityID": "Bullet_Ganyu_ShootArrow_HeavyFX",
        "abilityName": "Bullet_Ganyu_ShootArrow_HeavyFX",
        "abilityOverride": ""
      }
    ],
    "timer": {
      "lifeTime": 8.0
    },
    "move": {
      "$type": "KPMONKJIGAM",
      "speed": 40.0,
      "LADLDOGAMLI": {
        "$type": "GLPIGCIKICP"
      },
      "straightRange": 7.0,
      "gravityOfAcceleration": 15.0,
      "airResistance": 0.009999999776482582
    },
    "gadget": {
      "$type": "INBEOAJKHGD",
      "collision": {
        "targetType": "Enemy"
      },
      "triggerActions": [
        {
          "$type": "JLJCHBAEAMN",
          "attackEvent": "Arrow_ATK03"
        },
        {
          "$type": "HEAANEHEBIK",
          "abilityName": "Bullet_Ganyu_ShootArrow"
        }
      ],
      "fireAISoundEvent": true
    }
  },
  "Ganyu_Arrow_04": {
    "$type": "PAAKDFFLFIN",
    "common": {
      "effectAttachShape": {
        "$type": "AFBBHIMPGKH",
        "scaleX": 0.5,
        "scaleY": 0.5
      },
      "affectedByWorld": true
    },
    "combat": {
      "property": {
        "useCreatorProperty": true,
        "isInvincible": true,
        "canTriggerBullet": false
      },
      "beHit": {
        "hitBloodEffect": "",
        "muteAllHit": true,
        "muteAllHitEffect": true,
        "muteAllHitText": true
      },
      "combatLock": {
        "lockShape": "CircleLockEnemy",
        "denyLockOn": true,
        "lockType": "Default"
      },
      "animEvents": {
        "Arrow_ATK04": {
          "attackPattern": {
            "$type": "CKCNJHBMNGJ",
            "triggerType": "TriggerNoRepeat",
            "checkHitLayerType": "Both",
            "born": {
              "$type": "AGPIGGAPILF",
              "offset": {
                "GOAPOLCAJBP": 0.0,
                "FMOPCJGGFMH": 0.0,
                "EJJEPFCDDAM": -0.5
              }
            },
            "size": {
              "GOAPOLCAJBP": 0.10000000149011612,
              "FMOPCJGGFMH": 0.10000000149011612,
              "EJJEPFCDDAM": 1.0
            }
          },
          "attackInfo": {
            "attackTag": "NormalAttack_04",
            "attenuationTag": "",
            "attenuationGroup": "default",
            "attackProperty": {
              "JMLMDDCBIAO": 0.0,
              "damagePercentageRatio": 0.0,
              "elementDurability": 100.0,
              "strikeType": "Pierce",
              "enBreak": 15.869999885559082,
              "damagePercentage": 0.0
            },
            "hitPattern": {
              "onHitEffectName": "default",
              "hitImpulseY": "",
              "hitImpulseType": "LV1"
            },
            "cameraShake": {
              "shakeRange": 0.019999999552965164,
              "shakeTime": 0.10000000149011612
            },
            "canBeModifiedBy": "OriginOwner"
          }
        }
      }
    },
    "combatTemplate": "",
    "abilities": [
      {
        "abilityID": "Bullet_Ganyu_ShootArrow",
        "abilityName": "Bullet_Ganyu_ShootArrow",
        "abilityOverride": ""
      },
      {
        "abilityID": "Bullet_Ganyu_ShootArrow_LightFX",
        "abilityName": "Bullet_Ganyu_ShootArrow_LightFX",
        "abilityOverride": ""
      }
    ],
    "timer": {
      "lifeTime": 8.0
    },
    "move": {
      "$type": "KPMONKJIGAM",
      "speed": 40.0,
      "LADLDOGAMLI": {
        "$type": "GLPIGCIKICP"
      },
      "straightRange": 7.0,
      "gravityOfAcceleration": 15.0,
      "airResistance": 0.009999999776482582
    },
    "gadget": {
      "$type": "INBEOAJKHGD",
      "collision": {
        "targetType": "Enemy"
      },
      "triggerActions": [
        {
          "$type": "JLJCHBAEAMN",
          "attackEvent": "Arrow_ATK04"
        },
        {
          "$type": "HEAANEHEBIK",
          "abilityName": "Bullet_Ganyu_ShootArrow"
        }
      ],
      "fireAISoundEvent": true
    }
  },
  "Ganyu_Arrow_05": {
    "$type": "PAAKDFFLFIN",
    "common": {
      "effectAttachShape": {
        "$type": "AFBBHIMPGKH",
        "scaleX": 0.5,
        "scaleY": 0.5
      },
      "affectedByWorld": true
    },
    "combat": {
      "property": {
        "useCreatorProperty": true,
        "isInvincible": true,
        "canTriggerBullet": false
      },
      "beHit": {
        "hitBloodEffect": "",
        "muteAllHit": true,
        "muteAllHitEffect": true,
        "muteAllHitText": true
      },
      "combatLock": {
        "lockShape": "CircleLockEnemy",
        "denyLockOn": true,
        "lockType": "Default"
      },
      "animEvents": {
        "Arrow_ATK05": {
          "attackPattern": {
            "$type": "CKCNJHBMNGJ",
            "triggerType": "TriggerNoRepeat",
            "checkHitLayerType": "Both",
            "born": {
              "$type": "AGPIGGAPILF",
              "offset": {
                "GOAPOLCAJBP": 0.0,
                "FMOPCJGGFMH": 0.0,
                "EJJEPFCDDAM": -0.5
              }
            },
            "size": {
              "GOAPOLCAJBP": 0.10000000149011612,
              "FMOPCJGGFMH": 0.10000000149011612,
              "EJJEPFCDDAM": 1.0
            }
          },
          "attackInfo": {
            "attackTag": "NormalAttack_05",
            "attenuationTag": "",
            "attenuationGroup": "default",
            "attackProperty": {
              "JMLMDDCBIAO": 0.0,
              "damagePercentageRatio": 0.0,
              "elementDurability": 100.0,
              "strikeType": "Pierce",
              "enBreak": 16.829999923706055,
              "damagePercentage": 0.0
            },
            "hitPattern": {
              "onHitEffectName": "default",
              "hitImpulseY": "",
              "hitImpulseType": "LV1"
            },
            "cameraShake": {
              "shakeRange": 0.019999999552965164,
              "shakeTime": 0.10000000149011612
            },
            "canBeModifiedBy": "OriginOwner"
          }
        }
      }
    },
    "combatTemplate": "",
    "abilities": [
      {
        "abilityID": "Bullet_Ganyu_ShootArrow",
        "abilityName": "Bullet_Ganyu_ShootArrow",
        "abilityOverride": ""
      },
      {
        "abilityID": "Bullet_Ganyu_ShootArrow_HeavyFX",
        "abilityName": "Bullet_Ganyu_ShootArrow_HeavyFX",
        "abilityOverride": ""
      }
    ],
    "timer": {
      "lifeTime": 8.0
    },
    "move": {
      "$type": "KPMONKJIGAM",
      "speed": 40.0,
      "LADLDOGAMLI": {
        "$type": "GLPIGCIKICP"
      },
      "straightRange": 7.0,
      "gravityOfAcceleration": 15.0,
      "airResistance": 0.009999999776482582
    },
    "gadget": {
      "$type": "INBEOAJKHGD",
      "collision": {
        "targetType": "Enemy"
      },
      "triggerActions": [
        {
          "$type": "JLJCHBAEAMN",
          "attackEvent": "Arrow_ATK05"
        },
        {
          "$type": "HEAANEHEBIK",
          "abilityName": "Bullet_Ganyu_ShootArrow"
        }
      ],
      "fireAISoundEvent": true
    }
  },
  "Ganyu_Arrow_06": {
    "$type": "PAAKDFFLFIN",
    "common": {
      "effectAttachShape": {
        "$type": "AFBBHIMPGKH",
        "scaleX": 0.5,
        "scaleY": 0.5
      },
      "affectedByWorld": true
    },
    "combat": {
      "property": {
        "useCreatorProperty": true,
        "isInvincible": true,
        "canTriggerBullet": false
      },
      "beHit": {
        "hitBloodEffect": "",
        "muteAllHit": true,
        "muteAllHitEffect": true,
        "muteAllHitText": true
      },
      "combatLock": {
        "lockShape": "CircleLockEnemy",
        "denyLockOn": true,
        "lockType": "Default"
      },
      "animEvents": {
        "Arrow_ATK06": {
          "attackPattern": {
            "$type": "CKCNJHBMNGJ",
            "triggerType": "TriggerNoRepeat",
            "checkHitLayerType": "Both",
            "born": {
              "$type": "AGPIGGAPILF",
              "offset": {
                "GOAPOLCAJBP": 0.0,
                "FMOPCJGGFMH": 0.0,
                "EJJEPFCDDAM": -0.5
              }
            },
            "size": {
              "GOAPOLCAJBP": 0.10000000149011612,
              "FMOPCJGGFMH": 0.10000000149011612,
              "EJJEPFCDDAM": 1.0
            }
          },
          "attackInfo": {
            "attackTag": "NormalAttack_06",
            "attenuationTag": "",
            "attenuationGroup": "default",
            "attackProperty": {
              "JMLMDDCBIAO": 0.0,
              "damagePercentageRatio": 0.0,
              "elementDurability": 100.0,
              "strikeType": "Pierce",
              "enBreak": 20.100000381469727,
              "damagePercentage": 0.0
            },
            "hitPattern": {
              "onHitEffectName": "default",
              "hitImpulseY": "",
              "hitImpulseType": "LV1"
            },
            "cameraShake": {
              "shakeRange": 0.019999999552965164,
              "shakeTime": 0.10000000149011612
            },
            "canBeModifiedBy": "OriginOwner"
          }
        }
      }
    },
    "combatTemplate": "",
    "abilities": [
      {
        "abilityID": "Bullet_Ganyu_ShootArrow",
        "abilityName": "Bullet_Ganyu_ShootArrow",
        "abilityOverride": ""
      },
      {
        "abilityID": "Bullet_Ganyu_ShootArrow_HeavyFX",
        "abilityName": "Bullet_Ganyu_ShootArrow_HeavyFX",
        "abilityOverride": ""
      }
    ],
    "timer": {
      "lifeTime": 8.0
    },
    "move": {
      "$type": "KPMONKJIGAM",
      "speed": 70.0,
      "LADLDOGAMLI": {
        "$type": "GLPIGCIKICP"
      },
      "straightRange": 15.0,
      "gravityOfAcceleration": 30.0,
      "airResistance": 0.009999999776482582
    },
    "gadget": {
      "$type": "INBEOAJKHGD",
      "collision": {
        "targetType": "Enemy"
      },
      "triggerActions": [
        {
          "$type": "JLJCHBAEAMN",
          "attackEvent": "Arrow_ATK06"
        },
        {
          "$type": "HEAANEHEBIK",
          "abilityName": "Bullet_Ganyu_ShootArrow"
        }
      ],
      "fireAISoundEvent": true
    }
  },
  "Ganyu_AimingArrow_WithoutIce": {
    "$type": "PAAKDFFLFIN",
    "common": {
      "effectAttachShape": {
        "$type": "AFBBHIMPGKH",
        "scaleX": 0.5,
        "scaleY": 0.5
      },
      "affectedByWorld": true
    },
    "combat": {
      "property": {
        "useCreatorProperty": true,
        "isInvincible": true,
        "canTriggerBullet": false
      },
      "beHit": {
        "hitBloodEffect": "",
        "muteAllHit": true,
        "muteAllHitEffect": true,
        "muteAllHitText": true
      },
      "combatLock": {
        "lockShape": "CircleLockEnemy",
        "denyLockOn": true,
        "lockType": "Default"
      }
    },
    "combatTemplate": "",
    "abilities": [
      {
        "abilityID": "Arrow_WithoutIce",
        "abilityName": "Avatar_Ganyu_ShootArrow_Enchanted_WithoutIce",
        "abilityOverride": ""
      }
    ],
    "timer": {
      "lifeTime": 20.0
    },
    "move": {
      "$type": "KPMONKJIGAM",
      "speed": 50.0,
      "LADLDOGAMLI": {
        "$type": "GLPIGCIKICP"
      },
      "straightRange": 25.0,
      "gravityOfAcceleration": 5.5,
      "airResistance": 0.009999999776482582
    },
    "gadget": {
      "$type": "INBEOAJKHGD",
      "collision": {
        "targetType": "Enemy"
      },
      "triggerActions": [
        {
          "$type": "HEAANEHEBIK",
          "abilityName": "Avatar_Ganyu_ShootArrow_Enchanted_WithoutIce"
        }
      ],
      "fireAISoundEvent": true
    }
  },
  "Ganyu_AimingArrow_WithIce": {
    "$type": "PAAKDFFLFIN",
    "common": {
      "effectAttachShape": {
        "$type": "AFBBHIMPGKH",
        "scaleX": 0.5,
        "scaleY": 0.5
      },
      "affectedByWorld": true
    },
    "combat": {
      "property": {
        "useCreatorProperty": true,
        "isInvincible": true,
        "canTriggerBullet": false
      },
      "beHit": {
        "hitBloodEffect": "",
        "muteAllHit": true,
        "muteAllHitEffect": true,
        "muteAllHitText": true
      },
      "combatLock": {
        "lockShape": "CircleLockEnemy",
        "denyLockOn": true,
        "lockType": "Default"
      }
    },
    "combatTemplate": "",
    "abilities": [
      {
        "abilityID": "Bullet_Ganyu_ShootArrow_WithIce",
        "abilityName": "Bullet_Ganyu_ShootArrow_WithIce",
        "abilityOverride": ""
      }
    ],
    "timer": {
      "lifeTime": 20.0
    },
    "move": {
      "$type": "KPMONKJIGAM",
      "speed": 50.0,
      "LADLDOGAMLI": {
        "$type": "GLPIGCIKICP"
      },
      "straightRange": 25.0,
      "gravityOfAcceleration": 5.5,
      "airResistance": 0.009999999776482582
    },
    "gadget": {
      "$type": "INBEOAJKHGD",
      "collision": {
        "targetType": "Enemy"
      },
      "triggerActions": [
        {
          "$type": "HEAANEHEBIK",
          "abilityName": "Bullet_Ganyu_ShootArrow_WithIce"
        }
      ],
      "fireAISoundEvent": true
    }
  },
  "Ganyu_AimingArrow_BeforeFission": {
    "$type": "PAAKDFFLFIN",
    "common": {
      "effectAttachShape": {
        "$type": "AFBBHIMPGKH",
        "scaleX": 0.5,
        "scaleY": 0.5
      },
      "affectedByWorld": true
    },
    "combat": {
      "property": {
        "useCreatorProperty": true,
        "isInvincible": true,
        "canTriggerBullet": false
      },
      "beHit": {
        "hitBloodEffect": "",
        "muteAllHit": true,
        "muteAllHitEffect": true,
        "muteAllHitText": true
      },
      "combatLock": {
        "lockShape": "CircleLockEnemy",
        "denyLockOn": true,
        "lockType": "Default"
      }
    },
    "combatTemplate": "",
    "abilities": [
      {
        "abilityID": "Bullet_Ganyu_ShootArrow_WithIce_BeforeFission",
        "abilityName": "Bullet_Ganyu_ShootArrow_WithIce_BeforeFission",
        "abilityOverride": ""
      },
      {
        "abilityID": "Bullet_Ganyu_ShootArrow_WithIce_AfterFission",
        "abilityName": "Bullet_Ganyu_ShootArrow_WithIce_AfterFission",
        "abilityOverride": ""
      }
    ],
    "timer": {
      "lifeTime": 20.0
    },
    "move": {
      "$type": "KPMONKJIGAM",
      "speed": 50.0,
      "LADLDOGAMLI": {
        "$type": "GLPIGCIKICP"
      },
      "straightRange": 25.0,
      "gravityOfAcceleration": 5.5,
      "airResistance": 0.009999999776482582
    },
    "gadget": {
      "$type": "INBEOAJKHGD",
      "collision": {
        "triggerType": "TriggerAlways",
        "triggerCD": 5.0,
        "targetType": "Enemy"
      },
      "triggerActions": [
        {
          "$type": "HEAANEHEBIK",
          "abilityName": "Bullet_Ganyu_ShootArrow_WithIce_BeforeFission"
        }
      ],
      "fireAISoundEvent": true
    }
  },
  "Ganyu_AimingArrow_FissionAgent": {
    "$type": "PAAKDFFLFIN",
    "common": {
      "effectAttachShape": {
        "$type": "AFBBHIMPGKH",
        "scaleX": 0.5,
        "scaleY": 0.5
      },
      "affectedByWorld": true
    },
    "combat": {
      "property": {
        "useCreatorProperty": true,
        "isInvincible": true,
        "isGhostToAllied": true,
        "isGhostToEnemy": true,
        "canTriggerBullet": false
      },
      "beHit": {
        "hitBloodEffect": "",
        "muteAllHit": true,
        "muteAllHitEffect": true,
        "muteAllHitText": true
      },
      "combatLock": {
        "lockShape": "CircleLockEnemy",
        "denyLockOn": true,
        "lockType": "Default"
      }
    },
    "combatTemplate": "",
    "abilities": [
      {
        "abilityID": "SkillObj_AimingArrow_FissionAgent",
        "abilityName": "SkillObj_AimingArrow_FissionAgent",
        "abilityOverride": ""
      }
    ],
    "timer": {
      "lifeTime": 1.0
    }
  },
  "Ganyu_IceBreaker_Dummy": {
    "$type": "PAAKDFFLFIN",
    "common": {
      "effectAttachShape": {
        "$type": "AFBBHIMPGKH"
      },
      "affectedByWorld": true
    },
    "specialPoint": {
      "elementAbsorb": "RootNode",
      "elementPendant": "",
      "elementDrop": "RootNode",
      "bulletAim": "RootNode"
    },
    "combat": {
      "property": {
        "useCreatorProperty": true,
        "denyElementStick": true
      },
      "combatLock": {
        "lockShape": "CircleLockEnemy",
        "denyLockOn": true,
        "lockType": "Avatar&Monster_Lv4"
      }
    },
    "combatTemplate": "",
    "abilities": [
      {
        "abilityID": "SkillObj_Ganyu_IceBreaker_Dummy",
        "abilityName": "SkillObj_Ganyu_IceBreaker_Dummy",
        "abilityOverride": ""
      }
    ],
    "timer": {
      "lifeTime": 10.0
    }
  },
  "Ganyu_IceBreaker_Dummy_EndBoom": {
    "$type": "PAAKDFFLFIN",
    "common": {
      "effectAttachShape": {
        "$type": "AFBBHIMPGKH"
      },
      "affectedByWorld": true
    },
    "combat": {
      "property": {
        "useCreatorProperty": true,
        "isInvincible": true,
        "isGhostToAllied": true,
        "isGhostToEnemy": true,
        "denyElementStick": true
      },
      "beHit": {
        "hitBloodEffect": "",
        "muteAllHit": true,
        "muteAllHitEffect": true,
        "muteAllHitText": true
      },
      "combatLock": {
        "lockShape": "CircleLockEnemy",
        "denyLockOn": true,
        "lockType": "Default"
      }
    },
    "combatTemplate": "",
    "abilities": [
      {
        "abilityID": "SkillObj_Ganyu_IceBreaker_Dummy_EndBoom",
        "abilityName": "SkillObj_Ganyu_IceBreaker_Dummy_EndBoom",
        "abilityOverride": ""
      }
    ],
    "timer": {
      "lifeTime": 2.0
    }
  },
  "Ganyu_UnbreakableIce_Dummy": {
    "$type": "PAAKDFFLFIN",
    "common": {
      "effectAttachShape": {
        "$type": "AFBBHIMPGKH",
        "scaleX": 0.5,
        "scaleY": 0.5
      },
      "affectedByWorld": true
    },
    "combat": {
      "property": {
        "useCreatorProperty": true,
        "isInvincible": true,
        "isGhostToAllied": true,
        "isGhostToEnemy": true,
        "canTriggerBullet": false
      },
      "beHit": {
        "hitBloodEffect": "",
        "muteAllHit": true,
        "muteAllHitEffect": true,
        "muteAllHitText": true
      },
      "combatLock": {
        "lockShape": "CircleLockEnemy",
        "denyLockOn": true,
        "lockType": "Default"
      }
    },
    "combatTemplate": "",
    "abilities": [
      {
        "abilityID": "SkillObj_Ganyu_UnbreakableIce_Dummy",
        "abilityName": "SkillObj_Ganyu_UnbreakableIce_Dummy",
        "abilityOverride": ""
      },
      {
        "abilityID": "SkillObj_Ganyu_UnbreakableIce_Dummy_WeatherChange",
        "abilityName": "SkillObj_Ganyu_UnbreakableIce_Dummy_WeatherChange",
        "abilityOverride": ""
      }
    ],
    "timer": {
      "lifeTime": 20.0
    }
  },
  "Ganyu_UnbreakableIce_Iceberg1": {
    "$type": "PAAKDFFLFIN",
    "common": {
      "effectAttachShape": {
        "$type": "AFBBHIMPGKH",
        "scaleX": 0.5,
        "scaleY": 0.5
      },
      "affectedByWorld": true
    },
    "combat": {
      "property": {
        "useCreatorProperty": true,
        "isInvincible": true,
        "isGhostToAllied": true,
        "isGhostToEnemy": true,
        "canTriggerBullet": false
      },
      "beHit": {
        "hitBloodEffect": "",
        "muteAllHit": true,
        "muteAllHitEffect": true,
        "muteAllHitText": true
      },
      "combatLock": {
        "lockShape": "CircleLockEnemy",
        "denyLockOn": true,
        "lockType": "Default"
      }
    },
    "combatTemplate": "",
    "abilities": [
      {
        "abilityID": "Bullet_Ganyu_UnbreakableIce_Iceberg1",
        "abilityName": "Bullet_Ganyu_UnbreakableIce_Iceberg1",
        "abilityOverride": ""
      }
    ],
    "timer": {
      "lifeTime": 2.0
    },
    "move": {
      "$type": "AHGMNDFKPGD",
      "velocityForce": {
        "muteAll": true
      },
      "speed": 20.0,
      "maxSpeed": 40.0,
      "acceleration": 30.0
    },
    "gadget": {
      "$type": "INBEOAJKHGD",
      "collision": {
        "targetType": "Enemy"
      },
      "triggerActions": [
        {
          "$type": "HEAANEHEBIK",
          "abilityName": "Bullet_Ganyu_UnbreakableIce_Iceberg1"
        }
      ],
      "fireAISoundEvent": true
    }
  }
}