{
  "SceneObj_Gear_Other_Spiral_Abyss_Controller": {
    "$type": "PAAKDFFLFIN",
    "combat": {
      "property": {
        "hp": 10000.0,
        "attack": 30.0,
        "isLockHP": true,
        "isGhostToAllied": true,
        "isGhostToEnemy": true,
        "ignorePurgeRate": true
      },
      "beHit": {
        "hitBloodEffect": "",
        "hitAutoRedirect": false,
        "muteAllHitEffect": true
      },
      "combatLock": {
        "lockShape": "CircleLockEnemy",
        "denyLockOn": true,
        "lockType": "Gadget_Lv1"
      },
      "die": {
        "dieEndTime": 3.0,
        "dieForceDisappearTime": 3.0,
        "dieDisappearEffect": "",
        "dieModelFadeDelay": 2.0
      }
    },
    "combatTemplate": "",
    "abilities": [
      {
        "abilityID": "Ability_01",
        "abilityName": "SceneObj_Gear_Other_Spiral_Abyss_Controller",
        "abilityOverride": ""
      }
    ]
  },
  "SceneObj_Gear_Other_Spiral_Abyss_Ball_Controller": {
    "$type": "PAAKDFFLFIN",
    "combat": {
      "property": {
        "hp": 10000.0,
        "attack": 30.0,
        "isLockHP": true,
        "isGhostToAllied": true,
        "isGhostToEnemy": true,
        "ignorePurgeRate": true
      },
      "beHit": {
        "hitBloodEffect": "",
        "hitAutoRedirect": false,
        "muteAllHitEffect": true
      },
      "combatLock": {
        "lockShape": "CircleLockEnemy",
        "denyLockOn": true,
        "lockType": "Gadget_Lv1"
      },
      "die": {
        "dieEndTime": 3.0,
        "dieForceDisappearTime": 3.0,
        "dieDisappearEffect": "",
        "dieModelFadeDelay": 2.0
      }
    },
    "combatTemplate": "",
    "abilities": [
      {
        "abilityID": "Ability_01",
        "abilityName": "SceneObj_Gear_Other_Spiral_Abyss_Ball_Controller",
        "abilityOverride": ""
      }
    ]
  },
  "SceneObj_Gear_Other_Spiral_Abyss_Charge": {
    "$type": "PAAKDFFLFIN",
    "combat": {
      "property": {
        "hp": 10000.0,
        "attack": 30.0,
        "isLockHP": true,
        "isGhostToAllied": true,
        "isGhostToEnemy": true,
        "ignorePurgeRate": true
      },
      "beHit": {
        "hitBloodEffect": "",
        "hitAutoRedirect": false,
        "muteAllHitEffect": true
      },
      "combatLock": {
        "lockShape": "CircleLockEnemy",
        "denyLockOn": true,
        "lockType": "Gadget_Lv1"
      },
      "die": {
        "dieEndTime": 3.0,
        "dieForceDisappearTime": 3.0,
        "dieDisappearEffect": "",
        "dieModelFadeDelay": 2.0
      }
    },
    "combatTemplate": "",
    "abilities": [
      {
        "abilityID": "Ability_01",
        "abilityName": "SceneObj_Gear_Other_Spiral_Abyss_Charge",
        "abilityOverride": ""
      }
    ],
    "field": {
      "concernType": "AllAvatars",
      "shape": "CircleR4",
      "fromShape": "",
      "triggerInfinite": true,
      "lifeInfinite": true,
      "checkInterval": 0.5,
      "overwriteCampType": true,
      "campType": "All",
      "colliderName": "",
      "fromColliderName": ""
    }
  },
  "SceneObj_Gear_Other_Spiral_Abyss_AttackSpeed": {
    "$type": "PAAKDFFLFIN",
    "combat": {
      "property": {
        "hp": 10000.0,
        "attack": 30.0,
        "isLockHP": true,
        "isGhostToAllied": true,
        "isGhostToEnemy": true,
        "ignorePurgeRate": true
      },
      "beHit": {
        "hitBloodEffect": "",
        "hitAutoRedirect": false,
        "muteAllHitEffect": true
      },
      "combatLock": {
        "lockShape": "CircleLockEnemy",
        "denyLockOn": true,
        "lockType": "Gadget_Lv1"
      },
      "die": {
        "dieEndTime": 3.0,
        "dieForceDisappearTime": 3.0,
        "dieDisappearEffect": "",
        "dieModelFadeDelay": 2.0
      }
    },
    "combatTemplate": "",
    "abilities": [
      {
        "abilityID": "Ability_01",
        "abilityName": "SceneObj_Gear_Other_Spiral_Abyss_AttackSpeed",
        "abilityOverride": ""
      }
    ],
    "field": {
      "concernType": "AllAvatars",
      "shape": "CircleR4",
      "fromShape": "",
      "triggerInfinite": true,
      "lifeInfinite": true,
      "checkInterval": 0.5,
      "overwriteCampType": true,
      "campType": "All",
      "colliderName": "",
      "fromColliderName": ""
    }
  },
  "SceneObj_Gear_Other_Spiral_Abyss_ShieldUp": {
    "$type": "PAAKDFFLFIN",
    "common": {
      "viewSize": 1.7999999523162842
    },
    "combat": {
      "property": {
        "hp": 10000.0,
        "attack": 30.0,
        "isLockHP": true,
        "isGhostToAllied": true,
        "isGhostToEnemy": true,
        "ignorePurgeRate": true
      },
      "beHit": {
        "hitBloodEffect": "",
        "hitAutoRedirect": false,
        "muteAllHitEffect": true
      },
      "combatLock": {
        "lockShape": "CircleLockEnemy",
        "denyLockOn": true,
        "lockType": "Gadget_Lv1"
      },
      "die": {
        "dieEndTime": 3.0,
        "dieForceDisappearTime": 3.0,
        "dieDisappearEffect": "",
        "dieModelFadeDelay": 2.0
      }
    },
    "combatTemplate": "",
    "abilities": [
      {
        "abilityID": "Ability_01",
        "abilityName": "SceneObj_Gear_Other_Spiral_Abyss_ShieldUp",
        "abilityOverride": ""
      }
    ],
    "field": {
      "concernType": "AllAvatars",
      "shape": "CircleR7_5",
      "fromShape": "",
      "triggerInfinite": true,
      "lifeInfinite": true,
      "checkInterval": 0.5,
      "overwriteCampType": true,
      "campType": "All",
      "colliderName": "",
      "fromColliderName": ""
    }
  },
  "SceneObj_Gear_Other_Spiral_Abyss_CostReduce": {
    "$type": "PAAKDFFLFIN",
    "common": {
      "viewSize": 1.7999999523162842
    },
    "combat": {
      "property": {
        "hp": 10000.0,
        "attack": 30.0,
        "isLockHP": true,
        "isGhostToAllied": true,
        "isGhostToEnemy": true,
        "ignorePurgeRate": true
      },
      "beHit": {
        "hitBloodEffect": "",
        "hitAutoRedirect": false,
        "muteAllHitEffect": true
      },
      "combatLock": {
        "lockShape": "CircleLockEnemy",
        "denyLockOn": true,
        "lockType": "Gadget_Lv1"
      },
      "die": {
        "dieEndTime": 3.0,
        "dieForceDisappearTime": 3.0,
        "dieDisappearEffect": "",
        "dieModelFadeDelay": 2.0
      }
    },
    "combatTemplate": "",
    "abilities": [
      {
        "abilityID": "Ability_01",
        "abilityName": "SceneObj_Gear_Other_Spiral_Abyss_CostReduce",
        "abilityOverride": ""
      }
    ],
    "field": {
      "concernType": "AllAvatars",
      "shape": "CircleR7_5",
      "fromShape": "",
      "triggerInfinite": true,
      "lifeInfinite": true,
      "checkInterval": 0.5,
      "overwriteCampType": true,
      "campType": "All",
      "colliderName": "",
      "fromColliderName": ""
    }
  },
  "SceneObj_Gear_Other_Spiral_Abyss_Ball_AttackUp": {
    "$type": "PAAKDFFLFIN",
    "combat": {
      "property": {
        "useCreatorProperty": true,
        "hp": 10000.0,
        "attack": 30.0,
        "isLockHP": true,
        "isGhostToAllied": true,
        "isGhostToEnemy": true,
        "ignorePurgeRate": true
      },
      "beHit": {
        "hitBloodEffect": "",
        "hitAutoRedirect": false,
        "muteAllHitEffect": true
      },
      "combatLock": {
        "lockShape": "CircleLockEnemy",
        "denyLockOn": true,
        "lockType": "Gadget_Lv1"
      },
      "die": {
        "dieForceDisappearTime": 0.30000001192092896,
        "dieDisappearEffect": ""
      }
    },
    "combatTemplate": "",
    "abilities": [
      {
        "abilityID": "Ability_01",
        "abilityName": "SceneObj_Gear_Other_Spiral_Abyss_Ball_AttackUp",
        "abilityOverride": ""
      }
    ],
    "field": {
      "concernType": "AllAvatars",
      "shape": "CircleR2",
      "fromShape": "",
      "triggerInfinite": true,
      "lifeInfinite": true,
      "checkInterval": 0.5,
      "overwriteCampType": true,
      "campType": "All",
      "colliderName": "",
      "fromColliderName": ""
    }
  },
  "SceneObj_Gear_Other_Spiral_Abyss_Ball_Heal": {
    "$type": "PAAKDFFLFIN",
    "combat": {
      "property": {
        "useCreatorProperty": true,
        "hp": 10000.0,
        "attack": 30.0,
        "isLockHP": true,
        "isGhostToAllied": true,
        "isGhostToEnemy": true,
        "ignorePurgeRate": true
      },
      "beHit": {
        "hitBloodEffect": "",
        "hitAutoRedirect": false,
        "muteAllHitEffect": true
      },
      "combatLock": {
        "lockShape": "CircleLockEnemy",
        "denyLockOn": true,
        "lockType": "Gadget_Lv1"
      },
      "die": {
        "dieForceDisappearTime": 0.30000001192092896,
        "dieDisappearEffect": ""
      }
    },
    "combatTemplate": "",
    "abilities": [
      {
        "abilityID": "Ability_01",
        "abilityName": "SceneObj_Gear_Other_Spiral_Abyss_Ball_Heal",
        "abilityOverride": ""
      }
    ],
    "field": {
      "concernType": "AllAvatars",
      "shape": "CircleR2",
      "fromShape": "",
      "triggerInfinite": true,
      "lifeInfinite": true,
      "checkInterval": 0.5,
      "overwriteCampType": true,
      "campType": "All",
      "colliderName": "",
      "fromColliderName": ""
    }
  },
  "SceneObj_Gear_Other_Spiral_Abyss_Ball_SpeedUp": {
    "$type": "PAAKDFFLFIN",
    "combat": {
      "property": {
        "useCreatorProperty": true,
        "hp": 10000.0,
        "attack": 30.0,
        "isLockHP": true,
        "isGhostToAllied": true,
        "isGhostToEnemy": true,
        "ignorePurgeRate": true
      },
      "beHit": {
        "hitBloodEffect": "",
        "hitAutoRedirect": false,
        "muteAllHitEffect": true
      },
      "combatLock": {
        "lockShape": "CircleLockEnemy",
        "denyLockOn": true,
        "lockType": "Gadget_Lv1"
      },
      "die": {
        "dieForceDisappearTime": 0.30000001192092896,
        "dieDisappearEffect": ""
      }
    },
    "combatTemplate": "",
    "abilities": [
      {
        "abilityID": "Ability_01",
        "abilityName": "SceneObj_Gear_Other_Spiral_Abyss_Ball_SpeedUp",
        "abilityOverride": ""
      }
    ],
    "field": {
      "concernType": "AllAvatars",
      "shape": "CircleR2",
      "fromShape": "",
      "triggerInfinite": true,
      "lifeInfinite": true,
      "checkInterval": 0.5,
      "overwriteCampType": true,
      "campType": "All",
      "colliderName": "",
      "fromColliderName": ""
    }
  },
  "SceneObj_Gear_Other_Spiral_Abyss_Ball_DefenceUp": {
    "$type": "PAAKDFFLFIN",
    "combat": {
      "property": {
        "useCreatorProperty": true,
        "hp": 10000.0,
        "attack": 30.0,
        "isLockHP": true,
        "isGhostToAllied": true,
        "isGhostToEnemy": true,
        "ignorePurgeRate": true
      },
      "beHit": {
        "hitBloodEffect": "",
        "hitAutoRedirect": false,
        "muteAllHitEffect": true
      },
      "combatLock": {
        "lockShape": "CircleLockEnemy",
        "denyLockOn": true,
        "lockType": "Gadget_Lv1"
      },
      "die": {
        "dieForceDisappearTime": 0.30000001192092896,
        "dieDisappearEffect": ""
      }
    },
    "combatTemplate": "",
    "abilities": [
      {
        "abilityID": "Ability_01",
        "abilityName": "SceneObj_Gear_Other_Spiral_Abyss_Ball_DefenceUp",
        "abilityOverride": ""
      }
    ],
    "field": {
      "concernType": "AllAvatars",
      "shape": "CircleR2",
      "fromShape": "",
      "triggerInfinite": true,
      "lifeInfinite": true,
      "checkInterval": 0.5,
      "overwriteCampType": true,
      "campType": "All",
      "colliderName": "",
      "fromColliderName": ""
    }
  },
  "SceneObj_Gear_Spiral_Abyss_Water_RainController": {
    "$type": "PAAKDFFLFIN",
    "combat": {
      "property": {
        "hp": 300.0,
        "attack": 10.0,
        "isLockHP": true,
        "isGhostToAllied": true,
        "isGhostToEnemy": true,
        "ignorePurgeRate": true
      },
      "beHit": {
        "hitBloodEffect": "",
        "hitAutoRedirect": false,
        "muteAllHitEffect": true
      },
      "combatLock": {
        "lockShape": "CircleLockEnemy",
        "denyLockOn": true,
        "lockType": "Gadget_Lv1"
      },
      "die": {
        "dieEndTime": 0.10000000149011612,
        "dieForceDisappearTime": 0.10000000149011612,
        "dieDisappearEffect": ""
      }
    },
    "combatTemplate": "",
    "abilities": [
      {
        "abilityID": "SceneObj_Gear_Spiral_Abyss_Water_RainController",
        "abilityName": "SceneObj_Gear_Spiral_Abyss_Water_RainController",
        "abilityOverride": ""
      }
    ],
    "billboard": {
      "$type": "IBDGIBAFPPH",
      "attachPoint": "RootNode",
      "offset": {
        "y": 0.5
      },
      "radiusOffset": 3.0,
      "showDistance": 48.0,
      "showHPBar": true
    }
  },
  "SceneObj_Gear_Spiral_Abyss_Water_HealArea": {
    "$type": "PAAKDFFLFIN",
    "combat": {
      "property": {
        "hp": 300.0,
        "attack": 10.0,
        "isLockHP": true,
        "isGhostToAllied": true,
        "isGhostToEnemy": true,
        "ignorePurgeRate": true
      },
      "beHit": {
        "hitBloodEffect": "",
        "hitAutoRedirect": false,
        "muteAllHitEffect": true
      },
      "combatLock": {
        "lockShape": "CircleLockEnemy",
        "denyLockOn": true,
        "lockType": "Gadget_Lv1"
      },
      "die": {
        "dieEndTime": 0.10000000149011612,
        "dieForceDisappearTime": 0.10000000149011612,
        "dieDisappearEffect": ""
      }
    },
    "combatTemplate": "",
    "abilities": [
      {
        "abilityID": "SceneObj_Gear_Spiral_Abyss_Water_HealArea",
        "abilityName": "SceneObj_Gear_Spiral_Abyss_Water_HealArea",
        "abilityOverride": ""
      }
    ]
  },
  "SceneObj_Gear_Spiral_Abyss_FireController": {
    "$type": "PAAKDFFLFIN",
    "combat": {
      "property": {
        "hp": 1000.0,
        "attack": 30.0,
        "isLockHP": true,
        "isGhostToAllied": true,
        "isGhostToEnemy": true,
        "ignorePurgeRate": true
      },
      "beHit": {
        "hitBloodEffect": "",
        "hitAutoRedirect": false,
        "muteAllHitEffect": true
      },
      "combatLock": {
        "lockShape": "CircleLockEnemy",
        "denyLockOn": true,
        "lockType": "Gadget_Lv1"
      },
      "die": {
        "dieForceDisappearTime": 0.30000001192092896,
        "dieDisappearEffect": ""
      }
    },
    "combatTemplate": "",
    "abilities": [
      {
        "abilityID": "Ability_01",
        "abilityName": "SceneObj_Gear_Spiral_Abyss_FireController",
        "abilityOverride": ""
      }
    ]
  },
  "SceneObj_Gear_Spiral_Abyss_WaterController": {
    "$type": "PAAKDFFLFIN",
    "combat": {
      "property": {
        "hp": 1000.0,
        "attack": 30.0,
        "isLockHP": true,
        "isGhostToAllied": true,
        "isGhostToEnemy": true,
        "ignorePurgeRate": true
      },
      "beHit": {
        "hitBloodEffect": "",
        "hitAutoRedirect": false,
        "muteAllHitEffect": true
      },
      "combatLock": {
        "lockShape": "CircleLockEnemy",
        "denyLockOn": true,
        "lockType": "Gadget_Lv1"
      },
      "die": {
        "dieForceDisappearTime": 0.30000001192092896,
        "dieDisappearEffect": ""
      }
    },
    "combatTemplate": "",
    "abilities": [
      {
        "abilityID": "Ability_01",
        "abilityName": "SceneObj_Gear_Spiral_Abyss_WaterController",
        "abilityOverride": ""
      }
    ]
  },
  "SceneObj_Gear_Spiral_Abyss_IceController": {
    "$type": "PAAKDFFLFIN",
    "combat": {
      "property": {
        "hp": 1000.0,
        "attack": 30.0,
        "isLockHP": true,
        "isGhostToAllied": true,
        "isGhostToEnemy": true,
        "ignorePurgeRate": true
      },
      "beHit": {
        "hitBloodEffect": "",
        "hitAutoRedirect": false,
        "muteAllHitEffect": true
      },
      "combatLock": {
        "lockShape": "CircleLockEnemy",
        "denyLockOn": true,
        "lockType": "Gadget_Lv1"
      },
      "die": {
        "dieForceDisappearTime": 0.30000001192092896,
        "dieDisappearEffect": ""
      }
    },
    "combatTemplate": "",
    "abilities": [
      {
        "abilityID": "Ability_01",
        "abilityName": "SceneObj_Gear_Spiral_Abyss_IceController",
        "abilityOverride": ""
      }
    ]
  },
  "SceneObj_Gear_Spiral_Abyss_DropIce": {
    "$type": "PAAKDFFLFIN",
    "common": {
      "effectAttachShape": {
        "$type": "AFBBHIMPGKH"
      }
    },
    "combat": {
      "property": {
        "useCreatorProperty": true,
        "hp": 99999.0,
        "attack": 20.0,
        "weight": 50.0,
        "isLockHP": true
      },
      "beHit": {
        "hitBloodEffect": "",
        "muteAllHit": true,
        "muteAllHitEffect": true,
        "muteAllHitText": true
      },
      "combatLock": {
        "lockShape": "CircleLockEnemy",
        "denyLockOn": true,
        "lockType": "Gadget_Lv1"
      },
      "die": {
        "dieEndTime": 0.009999999776482582,
        "dieDisappearEffect": ""
      }
    },
    "combatTemplate": "",
    "abilities": [
      {
        "abilityID": "Ability_01",
        "abilityName": "SceneObj_Gear_Spiral_Abyss_DropIce",
        "abilityOverride": ""
      }
    ],
    "move": {
      "$type": "AHGMNDFKPGD",
      "speed": 5.0,
      "acceleration": 10.0
    },
    "gadget": {
      "$type": "INBEOAJKHGD",
      "collision": {
        "triggerType": "TriggerNoRepeat",
        "targetType": "Alliance"
      },
      "triggerActions": [
        {
          "$type": "HEAANEHEBIK",
          "abilityName": "SceneObj_Gear_Spiral_Abyss_DropIce"
        }
      ]
    }
  },
  "SceneObj_Gear_Spiral_Abyss_ElectricController": {
    "$type": "PAAKDFFLFIN",
    "combat": {
      "property": {
        "hp": 1000.0,
        "attack": 30.0,
        "isLockHP": true,
        "isGhostToAllied": true,
        "isGhostToEnemy": true,
        "ignorePurgeRate": true
      },
      "beHit": {
        "hitBloodEffect": "",
        "hitAutoRedirect": false,
        "muteAllHitEffect": true
      },
      "combatLock": {
        "lockShape": "CircleLockEnemy",
        "denyLockOn": true,
        "lockType": "Gadget_Lv1"
      },
      "die": {
        "dieForceDisappearTime": 0.30000001192092896,
        "dieDisappearEffect": ""
      }
    },
    "combatTemplate": "",
    "abilities": [
      {
        "abilityID": "Ability_01",
        "abilityName": "SceneObj_Gear_Spiral_Abyss_ElectricController",
        "abilityOverride": ""
      }
    ]
  },
  "SceneObj_Gear_Spiral_Abyss_ThunderBall": {
    "$type": "PAAKDFFLFIN",
    "combat": {
      "property": {
        "useCreatorProperty": true,
        "hp": 10000.0,
        "attack": 30.0,
        "isLockHP": true,
        "isGhostToAllied": true,
        "ignorePurgeRate": true
      },
      "beHit": {
        "hitBloodEffect": "",
        "hitAutoRedirect": false,
        "muteAllHitEffect": true
      },
      "combatLock": {
        "lockShape": "CircleLockEnemy",
        "denyLockOn": true,
        "lockType": "Gadget_Lv1"
      },
      "die": {
        "dieForceDisappearTime": 0.30000001192092896,
        "dieDisappearEffect": ""
      }
    },
    "combatTemplate": "",
    "abilities": [
      {
        "abilityID": "Ability_01",
        "abilityName": "SceneObj_Gear_Spiral_Abyss_ThunderBall",
        "abilityOverride": ""
      }
    ]
  },
  "SceneObj_Gear_Spiral_Abyss_AncientHeatSource": {
    "$type": "PAAKDFFLFIN",
    "common": {
      "affectedByWorld": true
    },
    "hasModel": true,
    "combat": {
      "property": {
        "hp": 99999.0,
        "attack": 20.0,
        "weight": 50.0,
        "isLockHP": true,
        "ignoreDamageToSelf": true
      },
      "beHit": {
        "hitBloodEffect": "",
        "hitAutoRedirect": false,
        "muteAllHitText": true
      },
      "combatLock": {
        "lockShape": "CircleLockEnemy",
        "denyLockOn": true,
        "lockType": "Gadget_Lv1"
      }
    },
    "combatTemplate": "",
    "abilities": [
      {
        "abilityID": "SceneObj_Gear_Spiral_Abyss_AncientHeatSource",
        "abilityName": "SceneObj_Gear_Spiral_Abyss_AncientHeatSource",
        "abilityOverride": ""
      }
    ],
    "stateLayers": {
      "defaultLayer": {
        "$type": "AEMHOACJLIB",
        "layerIndexName": "",
        "GCIDDLIDFAE": "",
        "stateIDs": {
          "IdleEffect": {
            "$type": "EMHNNDOPLDB",
            "animatorStates": {
              "ActiveIdle": [],
              "ActiveIdleLimited": []
            }
          },
          "Warm": {
            "$type": "EMHNNDOPLDB",
            "animatorStates": {
              "Active": [],
              "Active2Deactive": []
            }
          },
          "Lock": {
            "$type": "EMHNNDOPLDB",
            "animatorStates": {
              "Lock": []
            }
          }
        }
      }
    },
    "gadgetAction": {
      "gadgetStateActionList": [
        {
          "$type": "DPGGKEHEODN",
          "intID": "State",
          "syncState": true
        }
      ]
    }
  },
  "SceneObj_Gear_Spiral_Abyss_IceStormR25": {
    "$type": "PAAKDFFLFIN",
    "common": {
      "affectedByWorld": true
    },
    "model": {
      "bornEffect": "",
      "attachEffect": "Eff_SceneObj_IceStormR25_01"
    },
    "hasModel": true,
    "combat": {
      "property": {
        "hp": 99999.0,
        "attack": 20.0,
        "weight": 50.0,
        "isLockHP": true,
        "ignoreDamageToSelf": true
      },
      "beHit": {
        "hitBloodEffect": "",
        "hitAutoRedirect": false,
        "muteAllHitText": true
      },
      "combatLock": {
        "lockShape": "CircleLockEnemy",
        "denyLockOn": true,
        "lockType": "Gadget_Lv1"
      }
    },
    "combatTemplate": "",
    "abilities": [
      {
        "abilityID": "SceneObj_Gear_Spiral_Abyss_IceStormR25",
        "abilityName": "SceneObj_Gear_Spiral_Abyss_IceStormR25",
        "abilityOverride": ""
      }
    ],
    "field": {
      "concernType": "AllAvatars",
      "shape": "CircleR25",
      "fromShape": "",
      "triggerInfinite": true,
      "lifeInfinite": true,
      "checkInterval": 0.5,
      "overwriteCampType": true,
      "campType": "All",
      "colliderName": "",
      "fromColliderName": ""
    },
    "gadgetAction": {
      "gadgetStateActionList": [
        {
          "$type": "DMEAPFGKEGH",
          "parameter": "gadgetState",
          "KPGKDHAFHFE": "Int",
          "effectPattern": "Eff_SceneObj_IceStormR25_01"
        },
        {
          "$type": "DMEAPFGKEGH",
          "GCDLBDMPEMJ": "GearStop",
          "parameter": "gadgetState",
          "KPGKDHAFHFE": "Int",
          "value": 202,
          "effectPattern": "Eff_SceneObj_IceStormR25_01"
        }
      ]
    }
  },
  "SceneObj_Gear_Spiral_Abyss_IceStormR30": {
    "$type": "PAAKDFFLFIN",
    "common": {
      "affectedByWorld": true
    },
    "model": {
      "bornEffect": "",
      "attachEffect": "Eff_SceneObj_IceStormR25_01"
    },
    "hasModel": true,
    "combat": {
      "property": {
        "hp": 99999.0,
        "attack": 20.0,
        "weight": 50.0,
        "isLockHP": true,
        "ignoreDamageToSelf": true
      },
      "beHit": {
        "hitBloodEffect": "",
        "hitAutoRedirect": false,
        "muteAllHitText": true
      },
      "combatLock": {
        "lockShape": "CircleLockEnemy",
        "denyLockOn": true,
        "lockType": "Gadget_Lv1"
      }
    },
    "combatTemplate": "",
    "abilities": [
      {
        "abilityID": "SceneObj_Gear_Spiral_Abyss_IceStormR25",
        "abilityName": "SceneObj_Gear_Spiral_Abyss_IceStormR25",
        "abilityOverride": ""
      }
    ],
    "field": {
      "concernType": "AllAvatars",
      "shape": "CircleR30",
      "fromShape": "",
      "triggerInfinite": true,
      "lifeInfinite": true,
      "checkInterval": 0.5,
      "overwriteCampType": true,
      "campType": "All",
      "colliderName": "",
      "fromColliderName": ""
    },
    "gadgetAction": {
      "gadgetStateActionList": [
        {
          "$type": "DMEAPFGKEGH",
          "parameter": "gadgetState",
          "KPGKDHAFHFE": "Int",
          "effectPattern": "Eff_SceneObj_IceStormR25_01"
        },
        {
          "$type": "DMEAPFGKEGH",
          "GCDLBDMPEMJ": "GearStop",
          "parameter": "gadgetState",
          "KPGKDHAFHFE": "Int",
          "value": 202,
          "effectPattern": "Eff_SceneObj_IceStormR25_01"
        }
      ]
    }
  },
  "SceneObj_Gear_Spiral_Abyss_FireSeelie": {
    "$type": "PAAKDFFLFIN",
    "common": {
      "disableTickDistance": 1500.0
    },
    "combat": {
      "property": {
        "hp": 1000.0,
        "attack": 100.0,
        "weight": 50.0,
        "isLockHP": true
      },
      "beHit": {
        "hitBloodEffect": "",
        "hitAutoRedirect": false,
        "muteAllHitEffect": true,
        "muteAllHitText": true
      },
      "combatLock": {
        "lockShape": "CircleLockEnemy",
        "denyLockOn": true,
        "lockType": "Gadget_Lv1"
      },
      "die": {
        "hasAnimatorDie": true,
        "dieEndTime": 0.5,
        "dieForceDisappearTime": 0.5,
        "dieDisappearEffect": ""
      }
    },
    "combatTemplate": "",
    "abilities": [
      {
        "abilityID": "ability_01",
        "abilityName": "SceneObj_Gear_Spiral_Abyss_FireSeelie",
        "abilityOverride": ""
      },
      {
        "abilityID": "Heat_Producer_Buff",
        "abilityName": "Heat_Producer_Buff_Abyss",
        "abilityOverride": ""
      }
    ],
    "move": {
      "$type": "EGIPFLCINDM",
      "avatarTriggerEventDistance": 3.0
    },
    "audio": {
      "$type": "EJBGPCDMPHN",
      "overrideEmitterName": "",
      "animAudio": {
        "onTransitionIn": [
          {
            "currentStateName": "Move",
            "audioEvent": {
              "text": "Play_amb_sceneObj_gear_seelie_move"
            }
          }
        ],
        "onTransitionOut": [
          {
            "currentStateName": "Move",
            "audioEvent": {
              "text": "Stop_amb_sceneObj_gear_seelie_move"
            }
          }
        ]
      },
      "disableEvent": {
        "text": ""
      },
      "destroyEvent": {
        "text": ""
      }
    },
    "gadgetAction": {
      "platformActionList": [
        {
          "$type": "DPGGKEHEODN",
          "predicate": {
            "$type": "KMNLFIKCJLG",
            "isStart": true
          },
          "intID": "IsFlying",
          "value": 1
        },
        {
          "$type": "DPGGKEHEODN",
          "predicate": {
            "$type": "KMNLFIKCJLG"
          },
          "intID": "IsFlying"
        }
      ]
    }
  }
}