{
  "Dahaka_Sting_Rock": {
    "$type": "PAAKDFFLFIN",
    "combat": {
      "property": {
        "useCreatorProperty": true,
        "hp": 100.0,
        "attack": 10.0,
        "isInvincible": true,
        "isGhostToAllied": true,
        "isGhostToEnemy": true,
        "canTriggerBullet": false
      },
      "combatLock": {
        "lockShape": "CircleLockEnemy",
        "denyLockOn": true,
        "lockType": "Default"
      }
    },
    "combatTemplate": "",
    "abilities": [
      {
        "abilityID": "Dahaka_Sting_Rock_Hit",
        "abilityName": "Dahaka_Sting_Rock_Hit",
        "abilityOverride": ""
      },
      {
        "abilityID": "Dahaka_Sting_Rock_Effect",
        "abilityName": "Dahaka_Sting_Rock_Effect",
        "abilityOverride": ""
      }
    ],
    "timer": {
      "lifeTime": 5.0
    },
    "move": {
      "$type": "AHGMNDFKPGD",
      "speed": 30.0,
      "acceleration": 10.0
    },
    "gadget": {
      "$type": "INBEOAJKHGD",
      "collision": {
        "triggerType": "TriggerNoRepeat",
        "targetType": "Enemy"
      },
      "triggerActions": [
        {
          "$type": "HEAANEHEBIK",
          "abilityName": "Dahaka_Sting_Rock_Hit"
        }
      ]
    }
  },
  "Dahaka_Sting_Ice": {
    "$type": "PAAKDFFLFIN",
    "combat": {
      "property": {
        "useCreatorProperty": true,
        "hp": 100.0,
        "attack": 10.0,
        "isInvincible": true,
        "isGhostToAllied": true,
        "isGhostToEnemy": true,
        "canTriggerBullet": false
      },
      "combatLock": {
        "lockShape": "CircleLockEnemy",
        "denyLockOn": true,
        "lockType": "Default"
      }
    },
    "combatTemplate": "",
    "abilities": [
      {
        "abilityID": "Dahaka_Sting_Ice_Hit",
        "abilityName": "Dahaka_Sting_Ice_Hit",
        "abilityOverride": ""
      },
      {
        "abilityID": "Dahaka_Sting_Ice_Effect",
        "abilityName": "Dahaka_Sting_Ice_Effect",
        "abilityOverride": ""
      }
    ],
    "timer": {
      "lifeTime": 5.0
    },
    "move": {
      "$type": "AHGMNDFKPGD",
      "speed": 30.0,
      "acceleration": 10.0
    },
    "gadget": {
      "$type": "INBEOAJKHGD",
      "collision": {
        "triggerType": "TriggerNoRepeat",
        "targetType": "Enemy"
      },
      "triggerActions": [
        {
          "$type": "HEAANEHEBIK",
          "abilityName": "Dahaka_Sting_Ice_Hit"
        }
      ]
    }
  },
  "Dahaka_Sting_Electric": {
    "$type": "PAAKDFFLFIN",
    "combat": {
      "property": {
        "useCreatorProperty": true,
        "hp": 100.0,
        "attack": 10.0,
        "isInvincible": true,
        "isGhostToAllied": true,
        "isGhostToEnemy": true,
        "canTriggerBullet": false
      },
      "combatLock": {
        "lockShape": "CircleLockEnemy",
        "denyLockOn": true,
        "lockType": "Default"
      }
    },
    "combatTemplate": "",
    "abilities": [
      {
        "abilityID": "Dahaka_Sting_Electric_Hit",
        "abilityName": "Dahaka_Sting_Electric_Hit",
        "abilityOverride": ""
      },
      {
        "abilityID": "Dahaka_Sting_Electric_Effect",
        "abilityName": "Dahaka_Sting_Electric_Effect",
        "abilityOverride": ""
      }
    ],
    "timer": {
      "lifeTime": 5.0
    },
    "move": {
      "$type": "AHGMNDFKPGD",
      "speed": 30.0,
      "acceleration": 10.0
    },
    "gadget": {
      "$type": "INBEOAJKHGD",
      "collision": {
        "triggerType": "TriggerNoRepeat",
        "targetType": "Enemy"
      },
      "triggerActions": [
        {
          "$type": "HEAANEHEBIK",
          "abilityName": "Dahaka_Sting_Electric_Hit"
        }
      ]
    }
  },
  "Dahaka_Sting_Rock_Effect": {
    "$type": "PAAKDFFLFIN",
    "combat": {
      "property": {
        "useCreatorProperty": true,
        "hp": 100.0,
        "attack": 10.0,
        "isInvincible": true,
        "isGhostToAllied": true,
        "isGhostToEnemy": true,
        "canTriggerBullet": false
      },
      "combatLock": {
        "lockShape": "CircleLockEnemy",
        "denyLockOn": true,
        "lockType": "Default"
      }
    },
    "combatTemplate": "",
    "abilities": [
      {
        "abilityID": "Dahaka_Sting_Rock_Effect",
        "abilityName": "Dahaka_Sting_Rock_Effect",
        "abilityOverride": ""
      }
    ],
    "timer": {
      "lifeTime": 2.0
    },
    "move": {
      "$type": "AHGMNDFKPGD",
      "speed": 35.0
    }
  },
  "Dahaka_Sting_Ice_Effect": {
    "$type": "PAAKDFFLFIN",
    "combat": {
      "property": {
        "useCreatorProperty": true,
        "hp": 100.0,
        "attack": 10.0,
        "isInvincible": true,
        "isGhostToAllied": true,
        "isGhostToEnemy": true,
        "canTriggerBullet": false
      },
      "combatLock": {
        "lockShape": "CircleLockEnemy",
        "denyLockOn": true,
        "lockType": "Default"
      }
    },
    "combatTemplate": "",
    "abilities": [
      {
        "abilityID": "Dahaka_Sting_Ice_Effect",
        "abilityName": "Dahaka_Sting_Ice_Effect",
        "abilityOverride": ""
      }
    ],
    "timer": {
      "lifeTime": 2.0
    },
    "move": {
      "$type": "AHGMNDFKPGD",
      "speed": 35.0
    }
  },
  "Dahaka_Sting_Electric_Effect": {
    "$type": "PAAKDFFLFIN",
    "combat": {
      "property": {
        "useCreatorProperty": true,
        "hp": 100.0,
        "attack": 10.0,
        "isInvincible": true,
        "isGhostToAllied": true,
        "isGhostToEnemy": true,
        "canTriggerBullet": false
      },
      "combatLock": {
        "lockShape": "CircleLockEnemy",
        "denyLockOn": true,
        "lockType": "Default"
      }
    },
    "combatTemplate": "",
    "abilities": [
      {
        "abilityID": "Dahaka_Sting_Electric_Effect",
        "abilityName": "Dahaka_Sting_Electric_Effect",
        "abilityOverride": ""
      }
    ],
    "timer": {
      "lifeTime": 2.0
    },
    "move": {
      "$type": "AHGMNDFKPGD",
      "speed": 25.0
    }
  },
  "Dahaka_Sting_Rock_Explode": {
    "$type": "PAAKDFFLFIN",
    "combat": {
      "property": {
        "useCreatorProperty": true,
        "hp": 100.0,
        "attack": 10.0,
        "isInvincible": true,
        "isGhostToAllied": true,
        "isGhostToEnemy": true,
        "canTriggerBullet": false
      },
      "combatLock": {
        "lockShape": "CircleLockEnemy",
        "denyLockOn": true,
        "lockType": "Default"
      }
    },
    "combatTemplate": "",
    "abilities": [
      {
        "abilityID": "Dahaka_Sting_Rock_Explode",
        "abilityName": "Dahaka_Sting_Rock_Explode",
        "abilityOverride": ""
      }
    ],
    "timer": {
      "lifeTime": 5.0
    }
  },
  "Dahaka_Sting_Ice_Pos": {
    "$type": "PAAKDFFLFIN",
    "combat": {
      "property": {
        "useCreatorProperty": true,
        "hp": 100.0,
        "attack": 10.0,
        "isInvincible": true,
        "isGhostToAllied": true,
        "isGhostToEnemy": true,
        "canTriggerBullet": false
      },
      "combatLock": {
        "lockShape": "CircleLockEnemy",
        "denyLockOn": true,
        "lockType": "Default"
      }
    },
    "combatTemplate": "",
    "abilities": [
      {
        "abilityID": "Dahaka_Sting_Ice_Pos",
        "abilityName": "Dahaka_Sting_Ice_Pos",
        "abilityOverride": ""
      },
      {
        "abilityID": "Dahaka_Sting_Ice_Explode",
        "abilityName": "Dahaka_Sting_Ice_Explode",
        "abilityOverride": ""
      }
    ],
    "timer": {
      "lifeTime": 10.0
    }
  },
  "Dahaka_Sting_Rock_Pos": {
    "$type": "PAAKDFFLFIN",
    "combat": {
      "property": {
        "useCreatorProperty": true,
        "hp": 100.0,
        "attack": 10.0,
        "isInvincible": true,
        "isGhostToAllied": true,
        "isGhostToEnemy": true,
        "canTriggerBullet": false
      },
      "combatLock": {
        "lockShape": "CircleLockEnemy",
        "denyLockOn": true,
        "lockType": "Default"
      }
    },
    "combatTemplate": "",
    "abilities": [
      {
        "abilityID": "Dahaka_Sting_Rock_Pos",
        "abilityName": "Dahaka_Sting_Rock_Pos",
        "abilityOverride": ""
      },
      {
        "abilityID": "Dahaka_Sting_Rock_Pos_CreateExplodeSting",
        "abilityName": "Dahaka_Sting_Rock_Pos_CreateExplodeSting",
        "abilityOverride": ""
      }
    ],
    "timer": {
      "lifeTime": 10.0
    }
  },
  "Dahaka_Sting_Electric_Pos": {
    "$type": "PAAKDFFLFIN",
    "combat": {
      "property": {
        "useCreatorProperty": true,
        "hp": 100.0,
        "attack": 10.0,
        "isInvincible": true,
        "isGhostToAllied": true,
        "isGhostToEnemy": true,
        "canTriggerBullet": false
      },
      "combatLock": {
        "lockShape": "CircleLockEnemy",
        "denyLockOn": true,
        "lockType": "Default"
      }
    },
    "combatTemplate": "",
    "abilities": [
      {
        "abilityID": "Dahaka_Sting_Electric_Pos",
        "abilityName": "Dahaka_Sting_Electric_Pos",
        "abilityOverride": ""
      },
      {
        "abilityID": "Dahaka_Sting_Electirc_Explode",
        "abilityName": "Dahaka_Sting_Electirc_Explode",
        "abilityOverride": ""
      }
    ],
    "timer": {
      "lifeTime": 5.0
    }
  },
  "Dahaka_SlamGround_Rock": {
    "$type": "PAAKDFFLFIN",
    "combat": {
      "property": {
        "useCreatorProperty": true,
        "hp": 100.0,
        "attack": 10.0,
        "isInvincible": true,
        "isGhostToAllied": true,
        "isGhostToEnemy": true,
        "canTriggerBullet": false
      },
      "combatLock": {
        "lockShape": "CircleLockEnemy",
        "denyLockOn": true,
        "lockType": "Default"
      }
    },
    "combatTemplate": "",
    "abilities": [
      {
        "abilityID": "Dahaka_SlamGround_Rock_Hit",
        "abilityName": "Dahaka_SlamGround_Rock_Hit",
        "abilityOverride": ""
      }
    ],
    "timer": {
      "lifeTime": 0.550000011920929
    },
    "move": {
      "$type": "AHGMNDFKPGD",
      "speed": 40.0
    },
    "gadget": {
      "$type": "INBEOAJKHGD",
      "collision": {
        "triggerType": "TriggerNoRepeat",
        "targetType": "Enemy",
        "ignoreScene": true
      },
      "triggerActions": [
        {
          "$type": "HEAANEHEBIK",
          "abilityName": "Dahaka_SlamGround_Rock_Hit"
        }
      ]
    }
  },
  "Dahaka_SlamGround_Water_Fountain": {
    "$type": "PAAKDFFLFIN",
    "combat": {
      "property": {
        "useCreatorProperty": true,
        "hp": 100.0,
        "attack": 10.0,
        "isInvincible": true,
        "isGhostToAllied": true,
        "isGhostToEnemy": true,
        "canTriggerBullet": false
      },
      "combatLock": {
        "lockShape": "CircleLockEnemy",
        "denyLockOn": true,
        "lockType": "Default"
      }
    },
    "combatTemplate": "",
    "abilities": [
      {
        "abilityID": "Dahaka_SlamGround_Water_Fountain",
        "abilityName": "Dahaka_SlamGround_Water_Fountain",
        "abilityOverride": ""
      }
    ],
    "timer": {
      "lifeTime": 10.0
    }
  },
  "Dahaka_SlamGround_Fire": {
    "$type": "PAAKDFFLFIN",
    "combat": {
      "property": {
        "useCreatorProperty": true,
        "hp": 100.0,
        "attack": 10.0,
        "isInvincible": true,
        "isGhostToAllied": true,
        "isGhostToEnemy": true,
        "canTriggerBullet": false
      },
      "combatLock": {
        "lockShape": "CircleLockEnemy",
        "denyLockOn": true,
        "lockType": "Default"
      }
    },
    "combatTemplate": "",
    "abilities": [
      {
        "abilityID": "Dahaka_SlamGround_Fire_Hit",
        "abilityName": "Dahaka_SlamGround_Fire_Hit",
        "abilityOverride": ""
      }
    ],
    "timer": {
      "lifeTime": 0.550000011920929
    },
    "move": {
      "$type": "AHGMNDFKPGD",
      "speed": 40.0
    },
    "gadget": {
      "$type": "INBEOAJKHGD",
      "collision": {
        "triggerType": "TriggerNoRepeat",
        "targetType": "Enemy",
        "ignoreScene": true
      },
      "triggerActions": [
        {
          "$type": "HEAANEHEBIK",
          "abilityName": "Dahaka_SlamGround_Fire_Hit"
        }
      ]
    }
  },
  "Dahaka_Swim_Sting_Rock": {
    "$type": "PAAKDFFLFIN",
    "combat": {
      "property": {
        "useCreatorProperty": true,
        "hp": 100.0,
        "attack": 10.0,
        "isInvincible": true,
        "isGhostToAllied": true,
        "isGhostToEnemy": true,
        "canTriggerBullet": false
      },
      "combatLock": {
        "lockShape": "CircleLockEnemy",
        "denyLockOn": true,
        "lockType": "Default"
      }
    },
    "combatTemplate": "",
    "timer": {
      "lifeTime": 10.0
    }
  },
  "Dahaka_Roar_Meteor_Pos": {
    "$type": "PAAKDFFLFIN",
    "combat": {
      "property": {
        "useCreatorProperty": true,
        "hp": 100.0,
        "attack": 10.0,
        "isInvincible": true,
        "isGhostToAllied": true,
        "isGhostToEnemy": true,
        "canTriggerBullet": false
      },
      "combatLock": {
        "lockShape": "CircleLockEnemy",
        "denyLockOn": true,
        "lockType": "Default"
      }
    },
    "combatTemplate": "",
    "abilities": [
      {
        "abilityID": "Dahaka_Roar_Meteor_Pos",
        "abilityName": "Dahaka_Roar_Meteor_Pos",
        "abilityOverride": ""
      },
      {
        "abilityID": "Dahaka_Meteor_Pos_CreateLava",
        "abilityName": "Dahaka_Meteor_Pos_CreateLava",
        "abilityOverride": ""
      }
    ],
    "timer": {
      "lifeTime": 10.0
    }
  },
  "Dahaka_Roar_Meteor": {
    "$type": "PAAKDFFLFIN",
    "combat": {
      "property": {
        "useCreatorProperty": true,
        "hp": 100.0,
        "attack": 10.0,
        "isInvincible": true,
        "isGhostToAllied": true,
        "isGhostToEnemy": true,
        "canTriggerBullet": false
      },
      "combatLock": {
        "lockShape": "CircleLockEnemy",
        "denyLockOn": true,
        "lockType": "Default"
      }
    },
    "combatTemplate": "",
    "abilities": [
      {
        "abilityID": "Dahaka_Meteor_Hit",
        "abilityName": "Dahaka_Meteor_Hit",
        "abilityOverride": ""
      }
    ],
    "timer": {
      "lifeTime": 5.0
    },
    "move": {
      "$type": "AHGMNDFKPGD",
      "speed": 30.0
    },
    "gadget": {
      "$type": "INBEOAJKHGD",
      "collision": {
        "triggerType": "TriggerNoRepeat",
        "targetType": "Enemy"
      },
      "triggerActions": [
        {
          "$type": "HEAANEHEBIK",
          "abilityName": "Dahaka_Meteor_Hit"
        }
      ]
    }
  },
  "Dahaka_Roar_WaterBall_Pos": {
    "$type": "PAAKDFFLFIN",
    "combat": {
      "property": {
        "useCreatorProperty": true,
        "hp": 100.0,
        "attack": 10.0,
        "isInvincible": true,
        "isGhostToAllied": true,
        "isGhostToEnemy": true,
        "canTriggerBullet": false
      },
      "combatLock": {
        "lockShape": "CircleLockEnemy",
        "denyLockOn": true,
        "lockType": "Default"
      }
    },
    "combatTemplate": "",
    "abilities": [
      {
        "abilityID": "Dahaka_Roar_WaterBall_Pos_CreateWaterBall",
        "abilityName": "Dahaka_Roar_WaterBall_Pos_CreateWaterBall",
        "abilityOverride": ""
      }
    ],
    "timer": {
      "lifeTime": 40.0
    }
  },
  "Dahaka_Roar_WaterBall": {
    "$type": "PAAKDFFLFIN",
    "combat": {
      "property": {
        "useCreatorProperty": true,
        "hp": 100.0,
        "attack": 10.0,
        "isInvincible": true,
        "isGhostToAllied": true,
        "isGhostToEnemy": true,
        "canTriggerBullet": false
      },
      "combatLock": {
        "lockShape": "CircleLockEnemy",
        "denyLockOn": true,
        "lockType": "Default"
      }
    },
    "combatTemplate": "",
    "abilities": [
      {
        "abilityID": "Dahaka_WaterBall_Hit",
        "abilityName": "Dahaka_WaterBall_Hit",
        "abilityOverride": ""
      }
    ],
    "timer": {
      "lifeTime": 27.5
    },
    "move": {
      "$type": "ANFDOCCIIAF",
      "speed": 5.0,
      "anglerVelocity": 360.0,
      "LADLDOGAMLI": {
        "$type": "GLPIGCIKICP"
      },
      "delay": 2.0,
      "radius": 17.5,
      "destroyWhenTargetDie": true
    },
    "gadget": {
      "$type": "INBEOAJKHGD",
      "collision": {
        "triggerType": "TriggerNoRepeat",
        "targetType": "Enemy",
        "ignoreScene": true
      },
      "triggerActions": [
        {
          "$type": "HEAANEHEBIK",
          "abilityName": "Dahaka_WaterBall_Hit"
        }
      ],
      "killByOther": true
    }
  },
  "Dahaka_Roar_WaterBall_Middle": {
    "$type": "PAAKDFFLFIN",
    "combat": {
      "property": {
        "useCreatorProperty": true,
        "hp": 100.0,
        "attack": 10.0,
        "isInvincible": true,
        "isGhostToAllied": true,
        "isGhostToEnemy": true,
        "canTriggerBullet": false
      },
      "combatLock": {
        "lockShape": "CircleLockEnemy",
        "denyLockOn": true,
        "lockType": "Default"
      }
    },
    "combatTemplate": "",
    "abilities": [
      {
        "abilityID": "Dahaka_WaterBall_Hit",
        "abilityName": "Dahaka_WaterBall_Hit",
        "abilityOverride": ""
      }
    ],
    "timer": {
      "lifeTime": 27.5
    },
    "move": {
      "$type": "ANFDOCCIIAF",
      "speed": 9.0,
      "anglerVelocity": 360.0,
      "LADLDOGAMLI": {
        "$type": "GLPIGCIKICP"
      },
      "delay": 2.0,
      "radius": 30.0,
      "destroyWhenTargetDie": true
    },
    "gadget": {
      "$type": "INBEOAJKHGD",
      "collision": {
        "triggerType": "TriggerNoRepeat",
        "targetType": "Enemy",
        "ignoreScene": true
      },
      "triggerActions": [
        {
          "$type": "HEAANEHEBIK",
          "abilityName": "Dahaka_WaterBall_Hit"
        }
      ],
      "killByOther": true
    }
  },
  "Dahaka_Roar_WaterBall_Far": {
    "$type": "PAAKDFFLFIN",
    "combat": {
      "property": {
        "useCreatorProperty": true,
        "hp": 100.0,
        "attack": 10.0,
        "isInvincible": true,
        "isGhostToAllied": true,
        "isGhostToEnemy": true,
        "canTriggerBullet": false
      },
      "combatLock": {
        "lockShape": "CircleLockEnemy",
        "denyLockOn": true,
        "lockType": "Default"
      }
    },
    "combatTemplate": "",
    "abilities": [
      {
        "abilityID": "Dahaka_WaterBall_Hit",
        "abilityName": "Dahaka_WaterBall_Hit",
        "abilityOverride": ""
      }
    ],
    "timer": {
      "lifeTime": 27.5
    },
    "move": {
      "$type": "ANFDOCCIIAF",
      "speed": 12.5,
      "anglerVelocity": 360.0,
      "LADLDOGAMLI": {
        "$type": "GLPIGCIKICP"
      },
      "delay": 2.0,
      "radius": 42.5,
      "destroyWhenTargetDie": true
    },
    "gadget": {
      "$type": "INBEOAJKHGD",
      "collision": {
        "triggerType": "TriggerNoRepeat",
        "targetType": "Enemy",
        "ignoreScene": true
      },
      "triggerActions": [
        {
          "$type": "HEAANEHEBIK",
          "abilityName": "Dahaka_WaterBall_Hit"
        }
      ],
      "killByOther": true
    }
  },
  "Dahaka_Lava": {
    "$type": "PAAKDFFLFIN",
    "combat": {
      "property": {
        "useCreatorProperty": true,
        "hp": 100.0,
        "attack": 10.0,
        "isInvincible": true,
        "isGhostToAllied": true,
        "isGhostToEnemy": true,
        "canTriggerBullet": false
      },
      "combatLock": {
        "lockShape": "CircleLockEnemy",
        "denyLockOn": true,
        "lockType": "Default"
      }
    },
    "combatTemplate": "",
    "abilities": [
      {
        "abilityID": "Dahaka_Lava_Explode",
        "abilityName": "Dahaka_Lava_Explode",
        "abilityOverride": ""
      }
    ],
    "timer": {
      "lifeTime": 5.0
    },
    "move": {
      "$type": "KPMONKJIGAM",
      "speed": 7.5,
      "straightRange": 3.0,
      "gravityOfAcceleration": 15.0
    },
    "gadget": {
      "$type": "INBEOAJKHGD",
      "collision": {
        "triggerType": "TriggerNoRepeat",
        "targetType": "Enemy"
      },
      "triggerActions": [
        {
          "$type": "HEAANEHEBIK",
          "abilityName": "Dahaka_Lava_Explode"
        }
      ]
    }
  },
  "Dahaka_FireArea": {
    "$type": "PAAKDFFLFIN",
    "combat": {
      "property": {
        "useCreatorProperty": true,
        "hp": 100.0,
        "attack": 10.0,
        "isInvincible": true,
        "isGhostToAllied": true,
        "isGhostToEnemy": true,
        "canTriggerBullet": false
      },
      "combatLock": {
        "lockShape": "CircleLockEnemy",
        "denyLockOn": true,
        "lockType": "Default"
      }
    },
    "combatTemplate": "",
    "abilities": [
      {
        "abilityID": "Dahaka_FireArea",
        "abilityName": "Dahaka_FireArea",
        "abilityOverride": ""
      }
    ],
    "timer": {
      "lifeTime": 35.0
    }
  },
  "Dahaka_WaterWave": {
    "$type": "PAAKDFFLFIN",
    "combat": {
      "property": {
        "useCreatorProperty": true,
        "hp": 100.0,
        "attack": 10.0,
        "isInvincible": true,
        "isGhostToAllied": true,
        "isGhostToEnemy": true,
        "canTriggerBullet": false
      },
      "combatLock": {
        "lockShape": "CircleLockEnemy",
        "denyLockOn": true,
        "lockType": "Default"
      }
    },
    "combatTemplate": "",
    "abilities": [
      {
        "abilityID": "Dahaka_WaterWave",
        "abilityName": "Dahaka_WaterWave",
        "abilityOverride": ""
      }
    ],
    "timer": {
      "lifeTime": 3.5
    },
    "move": {
      "$type": "AHGMNDFKPGD",
      "speed": 30.0,
      "stickToGround": {
        "maxStepHeight": 2.0,
        "maxSlopeAngle": 45.0,
        "heightToGround": 0.5,
        "flexibleRange": 0.20000000298023224,
        "unstickWhenDownSlide": "Keep",
        "unstickWhenUpSlide": "Keep"
      }
    },
    "gadget": {
      "$type": "INBEOAJKHGD",
      "collision": {
        "triggerType": "TriggerNoRepeat",
        "targetType": "Enemy"
      },
      "triggerActions": [
        {
          "$type": "HEAANEHEBIK",
          "abilityName": "Dahaka_WaterWave"
        }
      ]
    }
  },
  "Dahaka_TrackWaterWave": {
    "$type": "PAAKDFFLFIN",
    "combat": {
      "property": {
        "useCreatorProperty": true,
        "hp": 100.0,
        "attack": 10.0,
        "isInvincible": true,
        "isGhostToAllied": true,
        "isGhostToEnemy": true,
        "canTriggerBullet": false
      },
      "combatLock": {
        "lockShape": "CircleLockEnemy",
        "denyLockOn": true,
        "lockType": "Default"
      }
    },
    "combatTemplate": "",
    "timer": {
      "lifeTime": 3.5
    }
  },
  "Dahaka_Icecone_Pos": {
    "$type": "PAAKDFFLFIN",
    "combat": {
      "property": {
        "useCreatorProperty": true,
        "hp": 100.0,
        "attack": 10.0,
        "isInvincible": true,
        "isGhostToAllied": true,
        "isGhostToEnemy": true,
        "canTriggerBullet": false
      },
      "combatLock": {
        "lockShape": "CircleLockEnemy",
        "denyLockOn": true,
        "lockType": "Default"
      }
    },
    "combatTemplate": "",
    "abilities": [
      {
        "abilityID": "Dahaka_CreateIceball",
        "abilityName": "Dahaka_CreateIceball",
        "abilityOverride": ""
      }
    ],
    "timer": {
      "lifeTime": 30.0
    }
  },
  "Dahaka_Icecone": {
    "$type": "PAAKDFFLFIN",
    "combat": {
      "property": {
        "useCreatorProperty": true,
        "hp": 100.0,
        "attack": 10.0,
        "isInvincible": true,
        "isGhostToAllied": true,
        "isGhostToEnemy": true,
        "canTriggerBullet": false
      },
      "combatLock": {
        "lockShape": "CircleLockEnemy",
        "denyLockOn": true,
        "lockType": "Default"
      }
    },
    "combatTemplate": "",
    "abilities": [
      {
        "abilityID": "Dahaka_Icecone_Hit",
        "abilityName": "Dahaka_Icecone_Hit",
        "abilityOverride": ""
      }
    ],
    "timer": {
      "lifeTime": 5.0
    },
    "move": {
      "$type": "AFLMLLJFENB",
      "speed": 10.0,
      "maxSpeed": 40.0,
      "minSpeed": 10.0,
      "anglerVelocity": 720.0,
      "acceleration": 15.0,
      "LADLDOGAMLI": {
        "$type": "GLPIGCIKICP"
      },
      "itanoCircusStartAngler": 240.0,
      "guidanceDelay": 0.699999988079071,
      "guidanceDuration": 0.6000000238418579
    },
    "gadget": {
      "$type": "INBEOAJKHGD",
      "collision": {
        "targetType": "Enemy"
      },
      "triggerActions": [
        {
          "$type": "HEAANEHEBIK",
          "abilityName": "Dahaka_Icecone_Hit"
        }
      ]
    }
  },
  "Dahaka_IceBall_Pos": {
    "$type": "PAAKDFFLFIN",
    "combat": {
      "property": {
        "useCreatorProperty": true,
        "hp": 100.0,
        "attack": 10.0,
        "isInvincible": true,
        "isGhostToAllied": true,
        "isGhostToEnemy": true,
        "canTriggerBullet": false
      },
      "combatLock": {
        "lockShape": "CircleLockEnemy",
        "denyLockOn": true,
        "lockType": "Default"
      }
    },
    "combatTemplate": "",
    "abilities": [
      {
        "abilityID": "Dahaka_CreateIcecone",
        "abilityName": "Dahaka_CreateIcecone",
        "abilityOverride": ""
      }
    ],
    "timer": {
      "lifeTime": 30.0
    },
    "move": {
      "$type": "KOFAJKIPDEA",
      "speed": 4.0,
      "anglerVelocity": 720.0,
      "delay": 2.5,
      "radius": 10.0,
      "randomBackAngleAdded": 45.0,
      "reboundInterval": 0.20000000298023224,
      "outOfRangeFixCD": 0.5
    }
  },
  "Dahaka_ElectricBall_Pos": {
    "$type": "PAAKDFFLFIN",
    "combat": {
      "property": {
        "useCreatorProperty": true,
        "hp": 100.0,
        "attack": 10.0,
        "isInvincible": true,
        "isGhostToAllied": true,
        "isGhostToEnemy": true,
        "canTriggerBullet": false
      },
      "combatLock": {
        "lockShape": "CircleLockEnemy",
        "denyLockOn": true,
        "lockType": "Default"
      }
    },
    "combatTemplate": "",
    "abilities": [
      {
        "abilityID": "Dahaka_ElectricBall_Pos",
        "abilityName": "Dahaka_ElectricBall_Pos",
        "abilityOverride": ""
      }
    ],
    "timer": {
      "lifeTime": 15.0
    }
  },
  "Dahaka_ElectricBall": {
    "$type": "PAAKDFFLFIN",
    "combat": {
      "property": {
        "useCreatorProperty": true,
        "hp": 100.0,
        "attack": 10.0,
        "isInvincible": true,
        "isGhostToAllied": true,
        "isGhostToEnemy": true,
        "canTriggerBullet": false
      },
      "combatLock": {
        "lockShape": "CircleLockEnemy",
        "denyLockOn": true,
        "lockType": "Default"
      }
    },
    "combatTemplate": "",
    "abilities": [
      {
        "abilityID": "Dahaka_ElectricBall_Hit",
        "abilityName": "Dahaka_ElectricBall_Hit",
        "abilityOverride": ""
      }
    ],
    "timer": {
      "lifeTime": 5.0
    },
    "move": {
      "$type": "AHGMNDFKPGD",
      "speed": 60.0,
      "acceleration": 20.0,
      "LADLDOGAMLI": {
        "$type": "GLPIGCIKICP"
      }
    },
    "gadget": {
      "$type": "INBEOAJKHGD",
      "collision": {
        "targetType": "Enemy"
      },
      "triggerActions": [
        {
          "$type": "HEAANEHEBIK",
          "abilityName": "Dahaka_ElectricBall_Hit"
        }
      ]
    }
  },
  "Dahaka_IceBlock_Pos": {
    "$type": "PAAKDFFLFIN",
    "combat": {
      "property": {
        "useCreatorProperty": true,
        "hp": 100.0,
        "attack": 10.0,
        "isInvincible": true,
        "isGhostToAllied": true,
        "isGhostToEnemy": true,
        "canTriggerBullet": false
      },
      "combatLock": {
        "lockShape": "CircleLockEnemy",
        "denyLockOn": true,
        "lockType": "Default"
      }
    },
    "combatTemplate": "",
    "abilities": [
      {
        "abilityID": "Dahaka_IceBlock_Pos",
        "abilityName": "Dahaka_IceBlock_Pos",
        "abilityOverride": ""
      },
      {
        "abilityID": "Dahaka_IceBlock_Explode",
        "abilityName": "Dahaka_IceBlock_Explode",
        "abilityOverride": ""
      }
    ],
    "timer": {
      "lifeTime": 10.0
    }
  },
  "Dahaka_IceBlock": {
    "$type": "PAAKDFFLFIN",
    "combat": {
      "property": {
        "useCreatorProperty": true,
        "hp": 100.0,
        "attack": 10.0,
        "isInvincible": true,
        "isGhostToAllied": true,
        "isGhostToEnemy": true,
        "canTriggerBullet": false
      },
      "combatLock": {
        "lockShape": "CircleLockEnemy",
        "denyLockOn": true,
        "lockType": "Default"
      }
    },
    "combatTemplate": "",
    "abilities": [
      {
        "abilityID": "Dahaka_IceBlock_Hit",
        "abilityName": "Dahaka_IceBlock_Hit",
        "abilityOverride": ""
      }
    ],
    "timer": {
      "lifeTime": 5.0
    },
    "move": {
      "$type": "AHGMNDFKPGD",
      "speed": 40.0,
      "acceleration": 10.0,
      "delay": 0.4000000059604645
    },
    "gadget": {
      "$type": "INBEOAJKHGD",
      "collision": {
        "triggerType": "TriggerNoRepeat",
        "targetType": "Enemy"
      },
      "triggerActions": [
        {
          "$type": "HEAANEHEBIK",
          "abilityName": "Dahaka_IceBlock_Hit"
        }
      ]
    }
  },
  "Dahaka_ElectricNet_Pos": {
    "$type": "PAAKDFFLFIN",
    "combat": {
      "property": {
        "useCreatorProperty": true,
        "hp": 100.0,
        "attack": 10.0,
        "isInvincible": true,
        "isGhostToAllied": true,
        "isGhostToEnemy": true,
        "canTriggerBullet": false
      },
      "combatLock": {
        "lockShape": "CircleLockEnemy",
        "denyLockOn": true,
        "lockType": "Default"
      }
    },
    "combatTemplate": "",
    "abilities": [
      {
        "abilityID": "Dahaka_ElectricNet_Pos",
        "abilityName": "Dahaka_ElectricNet_Pos",
        "abilityOverride": ""
      }
    ],
    "timer": {
      "lifeTime": 30.0
    }
  },
  "Dahaka_ElectricNet_Wave1": {
    "$type": "PAAKDFFLFIN",
    "combat": {
      "property": {
        "useCreatorProperty": true,
        "hp": 100.0,
        "attack": 10.0,
        "isInvincible": true,
        "isGhostToAllied": true,
        "isGhostToEnemy": true,
        "canTriggerBullet": false
      },
      "combatLock": {
        "lockShape": "CircleLockEnemy",
        "denyLockOn": true,
        "lockType": "Default"
      }
    },
    "combatTemplate": "",
    "abilities": [
      {
        "abilityID": "Dahaka_ElectricNet_Wave1",
        "abilityName": "Dahaka_ElectricNet_Wave1",
        "abilityOverride": ""
      }
    ],
    "timer": {
      "lifeTime": 10.0
    }
  },
  "Dahaka_ElectricNet_Wave2": {
    "$type": "PAAKDFFLFIN",
    "combat": {
      "property": {
        "useCreatorProperty": true,
        "hp": 100.0,
        "attack": 10.0,
        "isInvincible": true,
        "isGhostToAllied": true,
        "isGhostToEnemy": true,
        "canTriggerBullet": false
      },
      "combatLock": {
        "lockShape": "CircleLockEnemy",
        "denyLockOn": true,
        "lockType": "Default"
      }
    },
    "combatTemplate": "",
    "abilities": [
      {
        "abilityID": "Dahaka_ElectricNet_Wave2",
        "abilityName": "Dahaka_ElectricNet_Wave2",
        "abilityOverride": ""
      }
    ],
    "timer": {
      "lifeTime": 10.0
    }
  },
  "Dahaka_ElectricNet_Wave3": {
    "$type": "PAAKDFFLFIN",
    "combat": {
      "property": {
        "useCreatorProperty": true,
        "hp": 100.0,
        "attack": 10.0,
        "isInvincible": true,
        "isGhostToAllied": true,
        "isGhostToEnemy": true,
        "canTriggerBullet": false
      },
      "combatLock": {
        "lockShape": "CircleLockEnemy",
        "denyLockOn": true,
        "lockType": "Default"
      }
    },
    "combatTemplate": "",
    "abilities": [
      {
        "abilityID": "Dahaka_ElectricNet_Wave3",
        "abilityName": "Dahaka_ElectricNet_Wave3",
        "abilityOverride": ""
      }
    ],
    "timer": {
      "lifeTime": 10.0
    }
  },
  "Dahaka_ElectricNet_Wave4": {
    "$type": "PAAKDFFLFIN",
    "combat": {
      "property": {
        "useCreatorProperty": true,
        "hp": 100.0,
        "attack": 10.0,
        "isInvincible": true,
        "isGhostToAllied": true,
        "isGhostToEnemy": true,
        "canTriggerBullet": false
      },
      "combatLock": {
        "lockShape": "CircleLockEnemy",
        "denyLockOn": true,
        "lockType": "Default"
      }
    },
    "combatTemplate": "",
    "abilities": [
      {
        "abilityID": "Dahaka_ElectricNet_Wave4",
        "abilityName": "Dahaka_ElectricNet_Wave4",
        "abilityOverride": ""
      }
    ],
    "timer": {
      "lifeTime": 10.0
    }
  },
  "Dahaka_ElectricNet": {
    "$type": "PAAKDFFLFIN",
    "combat": {
      "property": {
        "useCreatorProperty": true,
        "hp": 100.0,
        "attack": 10.0,
        "isInvincible": true,
        "isGhostToAllied": true,
        "isGhostToEnemy": true,
        "canTriggerBullet": false
      },
      "combatLock": {
        "lockShape": "CircleLockEnemy",
        "denyLockOn": true,
        "lockType": "Default"
      }
    },
    "combatTemplate": "",
    "abilities": [
      {
        "abilityID": "Dahaka_ElectricNet",
        "abilityName": "Dahaka_ElectricNet",
        "abilityOverride": ""
      }
    ],
    "timer": {
      "lifeTime": 10.0
    }
  },
  "Dahaka_ElectricNet_Thunder": {
    "$type": "PAAKDFFLFIN",
    "combat": {
      "property": {
        "useCreatorProperty": true,
        "hp": 100.0,
        "attack": 10.0,
        "isInvincible": true,
        "isGhostToAllied": true,
        "isGhostToEnemy": true,
        "canTriggerBullet": false
      },
      "combatLock": {
        "lockShape": "CircleLockEnemy",
        "denyLockOn": true,
        "lockType": "Default"
      }
    },
    "combatTemplate": "",
    "abilities": [
      {
        "abilityID": "Dahaka_ElectricNet",
        "abilityName": "Dahaka_ElectricNet",
        "abilityOverride": ""
      }
    ],
    "timer": {
      "lifeTime": 5.0
    }
  },
  "Dahaka_Sealed_Circle": {
    "$type": "PAAKDFFLFIN",
    "combat": {
      "property": {
        "hp": 100.0,
        "attack": 10.0,
        "isInvincible": true,
        "isGhostToAllied": true,
        "isGhostToEnemy": true,
        "canTriggerBullet": false
      },
      "combatLock": {
        "lockShape": "CircleLockEnemy",
        "denyLockOn": true,
        "lockType": "Default"
      }
    },
    "combatTemplate": "",
    "abilities": [
      {
        "abilityID": "Dahaka_Sealed_CircleEffect",
        "abilityName": "Dahaka_Sealed_CircleEffect",
        "abilityOverride": ""
      }
    ],
    "timer": {
      "lifeTime": 60.0
    }
  },
  "Dahaka_Sealed_Circle_Quest": {
    "$type": "PAAKDFFLFIN",
    "combat": {
      "property": {
        "hp": 100.0,
        "attack": 10.0,
        "isInvincible": true,
        "isGhostToAllied": true,
        "isGhostToEnemy": true,
        "canTriggerBullet": false
      },
      "combatLock": {
        "lockShape": "CircleLockEnemy",
        "denyLockOn": true,
        "lockType": "Default"
      }
    },
    "combatTemplate": "",
    "abilities": [
      {
        "abilityID": "Dahaka_Sealed_CircleEffect",
        "abilityName": "Dahaka_Sealed_CircleEffect",
        "abilityOverride": ""
      }
    ],
    "timer": {
      "lifeTime": 6.0
    }
  },
  "Dahaka_BornAnchor": {
    "$type": "PAAKDFFLFIN",
    "combat": {
      "property": {
        "hp": 100.0,
        "attack": 10.0,
        "isInvincible": true,
        "isGhostToAllied": true,
        "isGhostToEnemy": true,
        "canTriggerBullet": false
      },
      "combatLock": {
        "lockShape": "CircleLockEnemy",
        "denyLockOn": true,
        "lockType": "Default"
      }
    },
    "combatTemplate": "",
    "timer": {
      "lifeTime": 10.0
    }
  },
  "Dahaka_Swim_RockArea": {
    "$type": "PAAKDFFLFIN",
    "combat": {
      "property": {
        "useCreatorProperty": true,
        "hp": 100.0,
        "attack": 10.0,
        "isInvincible": true,
        "isGhostToAllied": true,
        "isGhostToEnemy": true,
        "canTriggerBullet": false
      },
      "combatLock": {
        "lockShape": "CircleLockEnemy",
        "denyLockOn": true,
        "lockType": "Default"
      }
    },
    "combatTemplate": "",
    "abilities": [
      {
        "abilityID": "Dahaka_Swim_RockArea",
        "abilityName": "Dahaka_Swim_RockArea",
        "abilityOverride": ""
      }
    ],
    "timer": {
      "lifeTime": 5.0
    }
  },
  "Dahaka_Swim_RockFall": {
    "$type": "PAAKDFFLFIN",
    "combat": {
      "property": {
        "useCreatorProperty": true,
        "hp": 100.0,
        "attack": 10.0,
        "isInvincible": true,
        "isGhostToAllied": true,
        "isGhostToEnemy": true,
        "canTriggerBullet": false
      },
      "combatLock": {
        "lockShape": "CircleLockEnemy",
        "denyLockOn": true,
        "lockType": "Default"
      }
    },
    "combatTemplate": "",
    "abilities": [
      {
        "abilityID": "Dahaka_Swim_RockFallHit",
        "abilityName": "Dahaka_Swim_RockFallHit",
        "abilityOverride": ""
      }
    ],
    "timer": {
      "lifeTime": 5.0
    },
    "move": {
      "$type": "AHGMNDFKPGD",
      "speed": 30.0,
      "acceleration": 10.0
    },
    "gadget": {
      "$type": "INBEOAJKHGD",
      "collision": {
        "triggerType": "TriggerNoRepeat",
        "targetType": "Enemy"
      },
      "triggerActions": [
        {
          "$type": "HEAANEHEBIK",
          "abilityName": "Dahaka_Swim_RockFallHit"
        }
      ]
    }
  },
  "Dahaka_Crystal": {
    "$type": "PAAKDFFLFIN",
    "common": {
      "disableTickDistance": 100000.0
    },
    "combat": {
      "property": {
        "useCreatorProperty": true,
        "hp": 100.0,
        "attack": 10.0,
        "isInvincible": true,
        "isGhostToAllied": true,
        "isGhostToEnemy": true,
        "canTriggerBullet": false
      },
      "combatLock": {
        "lockShape": "CircleLockEnemy",
        "denyLockOn": true,
        "lockType": "Default"
      }
    },
    "combatTemplate": "",
    "abilities": [
      {
        "abilityID": "Dahaka_Crystal_ElementType",
        "abilityName": "Dahaka_Crystal_ElementType",
        "abilityOverride": ""
      }
    ],
    "timer": {
      "lifeInfinite": true,
      "lifeTime": 5.0
    }
  },
  "Dahaka_Grub_Bullet": {
    "$type": "PAAKDFFLFIN",
    "combat": {
      "property": {
        "useCreatorProperty": true,
        "hp": 999999.0,
        "attack": 15.0,
        "defense": 999999.0,
        "isLockHP": true,
        "isGhostToAllied": true
      },
      "beHit": {
        "hitBloodEffect": "",
        "muteAllHitEffect": true,
        "muteAllHitText": true
      },
      "combatLock": {
        "lockShape": "CircleLockEnemy",
        "lockType": "Boss_Lv5"
      }
    },
    "combatTemplate": "",
    "abilities": [
      {
        "abilityID": "Dahaka_Grub_Hit",
        "abilityName": "Dahaka_Grub_Hit",
        "abilityOverride": ""
      }
    ],
    "timer": {
      "lifeTime": 5.0
    },
    "move": {
      "$type": "IGIJLNOIMEL",
      "MLDBFKEGPEF": "TargetEntity",
      "attachPoint": "RootNode",
      "followRotation": true,
      "offset": {
        "z": 5.0
      },
      "EHCIGNEDGDO": ""
    },
    "gadget": {
      "$type": "INBEOAJKHGD",
      "collision": {
        "triggerType": "TriggerNoRepeat",
        "targetType": "Enemy",
        "ignoreScene": true
      },
      "triggerActions": [
        {
          "$type": "HEAANEHEBIK",
          "abilityName": "Dahaka_Grub_Hit"
        }
      ]
    }
  },
  "Dahaka_LockDummy": {
    "$type": "PAAKDFFLFIN",
    "combat": {
      "property": {
        "useCreatorProperty": true,
        "hp": 999999.0,
        "attack": 15.0,
        "defense": 999999.0,
        "isLockHP": true,
        "isGhostToAllied": true,
        "canTriggerBullet": false
      },
      "beHit": {
        "hitBloodEffect": "",
        "muteAllHitEffect": true,
        "muteAllHitText": true
      },
      "combatLock": {
        "lockShape": "CircleLockEnemy",
        "lockType": "Boss_Lv5"
      }
    },
    "combatTemplate": "",
    "abilities": [
      {
        "abilityID": "Dahaka_LockDummy",
        "abilityName": "Dahaka_LockDummy",
        "abilityOverride": ""
      }
    ],
    "timer": {
      "lifeTime": 30.0
    },
    "move": {
      "$type": "IGIJLNOIMEL",
      "MLDBFKEGPEF": "TargetEntity",
      "attachPoint": "LockDummyAttachPoint",
      "EHCIGNEDGDO": ""
    }
  },
  "Dahaka_Swap_Bomb": {
    "$type": "PAAKDFFLFIN",
    "combat": {
      "property": {
        "useCreatorProperty": true,
        "hp": 100.0,
        "attack": 10.0,
        "isInvincible": true,
        "isGhostToAllied": true,
        "isGhostToEnemy": true,
        "canTriggerBullet": false
      },
      "combatLock": {
        "lockShape": "CircleLockEnemy",
        "denyLockOn": true,
        "lockType": "Default"
      }
    },
    "combatTemplate": "",
    "abilities": [
      {
        "abilityID": "Dahaka_IceBomb",
        "abilityName": "Dahaka_IceBomb",
        "abilityOverride": ""
      }
    ],
    "timer": {
      "lifeTime": 10.0
    }
  },
  "Dahaka_Swap_ChargePos": {
    "$type": "PAAKDFFLFIN",
    "combat": {
      "property": {
        "useCreatorProperty": true,
        "hp": 100.0,
        "attack": 10.0,
        "isInvincible": true,
        "isGhostToAllied": true,
        "isGhostToEnemy": true,
        "canTriggerBullet": false
      },
      "combatLock": {
        "lockShape": "CircleLockEnemy",
        "denyLockOn": true,
        "lockType": "Default"
      }
    },
    "combatTemplate": "",
    "abilities": [
      {
        "abilityID": "Dahaka_ChargePos",
        "abilityName": "Dahaka_ChargePos",
        "abilityOverride": ""
      }
    ],
    "timer": {
      "lifeTime": 10.0
    }
  },
  "Dahaka_Swap_Charge": {
    "$type": "PAAKDFFLFIN",
    "combat": {
      "property": {
        "useCreatorProperty": true,
        "hp": 100.0,
        "attack": 10.0,
        "isInvincible": true,
        "isGhostToAllied": true,
        "isGhostToEnemy": true,
        "canTriggerBullet": false
      },
      "combatLock": {
        "lockShape": "CircleLockEnemy",
        "denyLockOn": true,
        "lockType": "Default"
      }
    },
    "combatTemplate": "",
    "abilities": [
      {
        "abilityID": "Dahaka_Charge_Hit",
        "abilityName": "Dahaka_Charge_Hit",
        "abilityOverride": ""
      }
    ],
    "timer": {
      "lifeTime": 10.0
    },
    "move": {
      "$type": "KOFAJKIPDEA",
      "velocityForce": {
        "excludeForces": [
          "WindZoneType",
          "AirflowType",
          "RiseType",
          "SpeedupType",
          "AirflowAccType"
        ]
      },
      "speed": 4.5,
      "delay": 0.25,
      "radius": 12.5,
      "destroyWhenTargetDie": true,
      "randomBackAngleAdded": 45.0,
      "reboundInterval": 0.20000000298023224,
      "outOfRangeFixCD": 0.5
    },
    "gadget": {
      "$type": "INBEOAJKHGD",
      "collision": {
        "triggerType": "TriggerAlways",
        "triggerCD": 0.75,
        "targetType": "Enemy",
        "ignoreScene": true
      },
      "triggerActions": [
        {
          "$type": "HEAANEHEBIK",
          "abilityName": "Dahaka_Charge_Hit"
        }
      ]
    }
  },
  "Dahaka_AirWall": {
    "$type": "PAAKDFFLFIN",
    "combat": {
      "property": {
        "useCreatorProperty": true,
        "hp": 100.0,
        "attack": 10.0,
        "isInvincible": true,
        "isGhostToAllied": true,
        "isGhostToEnemy": true,
        "canTriggerBullet": false
      },
      "combatLock": {
        "lockShape": "CircleLockEnemy",
        "denyLockOn": true,
        "lockType": "Default"
      }
    },
    "combatTemplate": "",
    "abilities": [
      {
        "abilityID": "Dahaka_AirWall_Effect",
        "abilityName": "Dahaka_AirWall_Effect",
        "abilityOverride": ""
      }
    ],
    "timer": {
      "lifeInfinite": true,
      "lifeTime": 10.0
    }
  },
  "Dahaka_Strike_ForwardCompare": {
    "$type": "PAAKDFFLFIN",
    "combat": {
      "property": {
        "useCreatorProperty": true,
        "hp": 100.0,
        "attack": 10.0,
        "isInvincible": true,
        "isGhostToAllied": true,
        "isGhostToEnemy": true,
        "canTriggerBullet": false
      },
      "combatLock": {
        "lockShape": "CircleLockEnemy",
        "denyLockOn": true,
        "lockType": "Default"
      }
    },
    "combatTemplate": "",
    "abilities": [
      {
        "abilityID": "Dahaka_Strike_ForwardCompare",
        "abilityName": "Dahaka_Strike_ForwardCompare",
        "abilityOverride": ""
      }
    ],
    "timer": {
      "lifeTime": 3.0
    }
  },
  "Dahaka_Swap_ForwardCompare": {
    "$type": "PAAKDFFLFIN",
    "combat": {
      "property": {
        "useCreatorProperty": true,
        "hp": 100.0,
        "attack": 10.0,
        "isInvincible": true,
        "isGhostToAllied": true,
        "isGhostToEnemy": true,
        "canTriggerBullet": false
      },
      "combatLock": {
        "lockShape": "CircleLockEnemy",
        "denyLockOn": true,
        "lockType": "Default"
      }
    },
    "combatTemplate": "",
    "abilities": [
      {
        "abilityID": "Dahaka_Swap_ForwardCompare",
        "abilityName": "Dahaka_Swap_ForwardCompare",
        "abilityOverride": ""
      }
    ],
    "timer": {
      "lifeTime": 3.0
    }
  }
}