{
  "JumpDrug_Whitbox_01": {
    "$type": "PAAKDFFLFIN",
    "common": {
      "effectAttachShape": {
        "$type": "AFBBHIMPGKH"
      }
    },
    "combat": {
      "property": {
        "useCreatorProperty": true,
        "hp": 999999.0,
        "attack": 30.0,
        "defense": 999999.0
      },
      "beHit": {
        "hitBloodEffect": "",
        "muteAllHit": true,
        "muteAllHitEffect": true,
        "muteAllHitText": true
      },
      "combatLock": {
        "lockShape": "CircleLockEnemy",
        "denyLockOn": true,
        "lockType": "Default"
      }
    },
    "combatTemplate": "",
    "abilities": [
      {
        "abilityID": "Jumping_Drug_Explode",
        "abilityName": "Jumping_Drug_Explode",
        "abilityOverride": ""
      }
    ],
    "timer": {
      "lifeTime": 3.0
    },
    "move": {
      "$type": "EBELDBHINMB",
      "speed": 8.0,
      "delay": 0.029999999329447746,
      "angleOffHor": 40.0,
      "gravityOfAcceleration": 30.0,
      "correction": {
        "$type": "ELDDGNNGEAK",
        "deviation": 0.5,
        "fixAngleOfVer": 5.0,
        "minSpeed": 8.0,
        "maxSpeed": 9.0
      }
    },
    "gadget": {
      "$type": "INBEOAJKHGD",
      "collision": {
        "targetType": "Enemy"
      },
      "triggerActions": [
        {
          "$type": "HEAANEHEBIK",
          "abilityName": "Jumping_Drug_Explode"
        }
      ]
    }
  },
  "JumpDrug_Whitbox_02": {
    "$type": "PAAKDFFLFIN",
    "common": {
      "effectAttachShape": {
        "$type": "AFBBHIMPGKH"
      }
    },
    "combat": {
      "property": {
        "useCreatorProperty": true,
        "hp": 999999.0,
        "attack": 30.0,
        "defense": 999999.0
      },
      "beHit": {
        "hitBloodEffect": "",
        "muteAllHit": true,
        "muteAllHitEffect": true,
        "muteAllHitText": true
      },
      "combatLock": {
        "lockShape": "CircleLockEnemy",
        "denyLockOn": true,
        "lockType": "Default"
      }
    },
    "combatTemplate": "",
    "abilities": [
      {
        "abilityID": "Jumping_Drug_Explode",
        "abilityName": "Jumping_Drug_Explode",
        "abilityOverride": ""
      }
    ],
    "timer": {
      "lifeTime": 3.0
    },
    "move": {
      "$type": "EBELDBHINMB",
      "speed": 8.0,
      "delay": 0.029999999329447746,
      "angleOffHor": 40.0,
      "gravityOfAcceleration": 30.0,
      "correction": {
        "$type": "ELDDGNNGEAK",
        "deviation": 0.5,
        "fixAngleOfVer": 5.0,
        "minSpeed": 8.0,
        "maxSpeed": 9.0
      }
    },
    "gadget": {
      "$type": "INBEOAJKHGD",
      "collision": {
        "targetType": "Enemy"
      },
      "triggerActions": [
        {
          "$type": "HEAANEHEBIK",
          "abilityName": "Jumping_Drug_Explode"
        }
      ]
    }
  },
  "JumpDrug_Whitbox_03": {
    "$type": "PAAKDFFLFIN",
    "common": {
      "effectAttachShape": {
        "$type": "AFBBHIMPGKH"
      }
    },
    "combat": {
      "property": {
        "useCreatorProperty": true,
        "hp": 999999.0,
        "attack": 30.0,
        "defense": 999999.0
      },
      "beHit": {
        "hitBloodEffect": "",
        "muteAllHit": true,
        "muteAllHitEffect": true,
        "muteAllHitText": true
      },
      "combatLock": {
        "lockShape": "CircleLockEnemy",
        "denyLockOn": true,
        "lockType": "Default"
      }
    },
    "combatTemplate": "",
    "abilities": [
      {
        "abilityID": "Jumping_Drug_Explode",
        "abilityName": "Jumping_Drug_Explode",
        "abilityOverride": ""
      }
    ],
    "timer": {
      "lifeTime": 3.0
    },
    "move": {
      "$type": "EBELDBHINMB",
      "speed": 8.0,
      "delay": 0.029999999329447746,
      "angleOffHor": 40.0,
      "gravityOfAcceleration": 30.0,
      "correction": {
        "$type": "ELDDGNNGEAK",
        "deviation": 0.5,
        "fixAngleOfVer": 5.0,
        "minSpeed": 8.0,
        "maxSpeed": 9.0
      }
    },
    "gadget": {
      "$type": "INBEOAJKHGD",
      "collision": {
        "targetType": "Enemy"
      },
      "triggerActions": [
        {
          "$type": "HEAANEHEBIK",
          "abilityName": "Jumping_Drug_Explode"
        }
      ]
    }
  }
}