{
  "SceneObj_Stages_Property_Build_RecordFloor_01": {
    "$type": "PAAKDFFLFIN",
    "combat": {
      "property": {
        "hp": 99999.0,
        "isInvincible": true,
        "isLockHP": true,
        "isGhostToAllied": true,
        "isGhostToEnemy": true
      }
    },
    "combatTemplate": "",
    "abilities": [
      {
        "abilityID": "SceneObj_Stages_Property_Build_RecordFloor_01_Ability",
        "abilityName": "SceneObj_Stages_Property_Build_RecordFloor_01_Ability",
        "abilityOverride": ""
      }
    ],
    "gadget": {
      "$type": "NIBKNKIINFI",
      "collision": {
        "triggerType": "TriggerAlways",
        "triggerCD": 0.20000000298023224,
        "targetType": "AllExceptSelf"
      },
      "collisionActions": [
        {
          "$type": "HEAANEHEBIK",
          "abilityName": "SceneObj_Stages_Property_Build_RecordFloor_01_Ability"
        }
      ],
      "thisColliderName": "Collider",
      "targetColliderName": "InteeTrigger"
    }
  },
  "SceneObj_Stages_Property_Ani_Build_RecordFloorBreakable_01": {
    "$type": "PAAKDFFLFIN",
    "common": {
      "disableTickDistance": 200000.0
    },
    "combat": {
      "property": {
        "hp": 99999.0,
        "isInvincible": true,
        "isLockHP": true,
        "isGhostToAllied": true,
        "isGhostToEnemy": true
      }
    },
    "combatTemplate": "",
    "abilities": [
      {
        "abilityID": "Ability_01",
        "abilityName": "SceneObj_Stages_Property_Ani_Build_RecordFloorBreakable_01_Ability",
        "abilityOverride": ""
      },
      {
        "abilityID": "Ability_02",
        "abilityName": "Scene_RockGadget_Summon_Detect",
        "abilityOverride": ""
      }
    ]
  },
  "SceneObj_Stages_Property_Ani_Build_RecordFloorBreakable_01_01": {
    "$type": "PAAKDFFLFIN",
    "common": {
      "disableTickDistance": 200000.0
    },
    "combat": {
      "property": {
        "hp": 99999.0,
        "isInvincible": true,
        "isLockHP": true,
        "isGhostToAllied": true,
        "isGhostToEnemy": true
      }
    },
    "combatTemplate": "",
    "abilities": [
      {
        "abilityID": "Ability_01",
        "abilityName": "SceneObj_Stages_Property_Ani_Build_RecordFloorBreakable_01_01_Ability",
        "abilityOverride": ""
      },
      {
        "abilityID": "Ability_02",
        "abilityName": "Scene_RockGadget_Summon_Detect",
        "abilityOverride": ""
      }
    ]
  },
  "SceneObj_Stages_Property_Ani_Build_RecordFloorBreakable_01_02": {
    "$type": "PAAKDFFLFIN",
    "common": {
      "disableTickDistance": 200000.0
    },
    "combat": {
      "property": {
        "hp": 99999.0,
        "isInvincible": true,
        "isLockHP": true,
        "isGhostToAllied": true,
        "isGhostToEnemy": true
      }
    },
    "combatTemplate": "",
    "abilities": [
      {
        "abilityID": "Ability_01",
        "abilityName": "SceneObj_Stages_Property_Ani_Build_RecordFloorBreakable_01_02_Ability",
        "abilityOverride": ""
      },
      {
        "abilityID": "Ability_02",
        "abilityName": "Scene_RockGadget_Summon_Detect",
        "abilityOverride": ""
      }
    ]
  },
  "SceneObj_Stages_Property_Ani_Build_RecordFloorBreakable_01_03": {
    "$type": "PAAKDFFLFIN",
    "common": {
      "disableTickDistance": 200000.0
    },
    "combat": {
      "property": {
        "hp": 99999.0,
        "isInvincible": true,
        "isLockHP": true,
        "isGhostToAllied": true,
        "isGhostToEnemy": true
      }
    },
    "combatTemplate": "",
    "abilities": [
      {
        "abilityID": "Ability_01",
        "abilityName": "SceneObj_Stages_Property_Ani_Build_RecordFloorBreakable_01_03_Ability",
        "abilityOverride": ""
      },
      {
        "abilityID": "Ability_02",
        "abilityName": "Scene_RockGadget_Summon_Detect",
        "abilityOverride": ""
      }
    ]
  },
  "SceneObj_Stages_Property_Ani_Build_RecordFloorMemory_01": {
    "$type": "PAAKDFFLFIN",
    "common": {
      "disableTickDistance": 20000.0
    },
    "combat": {
      "property": {
        "hp": 99999.0,
        "isInvincible": true,
        "isLockHP": true,
        "isGhostToAllied": true,
        "isGhostToEnemy": true
      }
    },
    "combatTemplate": "",
    "abilities": [
      {
        "abilityID": "Ability_01",
        "abilityName": "SceneObj_Stages_Property_Ani_Build_RecordFloorMemory_01_Ability",
        "abilityOverride": ""
      },
      {
        "abilityID": "Ability_02",
        "abilityName": "Scene_RockGadget_Summon_Detect",
        "abilityOverride": ""
      }
    ],
    "gadget": {
      "$type": "NIBKNKIINFI",
      "collision": {
        "triggerType": "TriggerAlways",
        "triggerCD": 1.0,
        "targetType": "AllExceptSelf"
      },
      "collisionActions": [
        {
          "$type": "HEAANEHEBIK",
          "abilityName": "SceneObj_Stages_Property_Ani_Build_RecordFloorMemory_01_Ability"
        }
      ],
      "thisColliderName": "Collider",
      "targetColliderName": "InteeTrigger"
    },
    "canBeTriggeredByAvatarRay": true
  },
  "SceneObj_Stages_Property_Ani_Build_RecordFloorTransparent_01": {
    "$type": "PAAKDFFLFIN",
    "common": {
      "disableTickDistance": 20000.0
    },
    "combat": {
      "property": {
        "hp": 99999.0,
        "isInvincible": true,
        "isLockHP": true,
        "isGhostToAllied": true,
        "isGhostToEnemy": true
      }
    },
    "combatTemplate": "",
    "abilities": [
      {
        "abilityID": "Ability_01",
        "abilityName": "SceneObj_Stages_Property_Ani_Build_RecordFloorTransparent_01_Ability",
        "abilityOverride": ""
      },
      {
        "abilityID": "Ability_02",
        "abilityName": "Scene_RockGadget_Summon_Detect",
        "abilityOverride": ""
      }
    ]
  },
  "SceneObj_Stages_Property_Build_RecordFloorBurnFeet_01": {
    "$type": "PAAKDFFLFIN",
    "common": {
      "disableTickDistance": 20000.0
    },
    "combat": {
      "property": {
        "hp": 99999.0,
        "isInvincible": true,
        "isLockHP": true,
        "isGhostToAllied": true,
        "isGhostToEnemy": true
      }
    },
    "combatTemplate": "",
    "abilities": [
      {
        "abilityID": "Ability_01",
        "abilityName": "SceneObj_Stages_Property_Build_RecordFloorBurnFeet_01_Ability",
        "abilityOverride": ""
      }
    ]
  },
  "SceneObj_Level_Common_Property_Prop_WindFloraAirWall_01": {
    "$type": "PAAKDFFLFIN",
    "common": {
      "disableTickDistance": 20000.0
    },
    "combat": {
      "property": {
        "hp": 99999.0,
        "isInvincible": true,
        "isLockHP": true,
        "isGhostToAllied": true,
        "isGhostToEnemy": true
      }
    },
    "combatTemplate": "",
    "abilities": [
      {
        "abilityID": "Ability_01",
        "abilityName": "SceneObj_Level_Common_Property_Prop_WindFloraAirWall_01_Ability",
        "abilityOverride": ""
      }
    ]
  },
  "SceneObj_Level_Common_Property_Prop_WindFloraAirWall_02": {
    "$type": "PAAKDFFLFIN",
    "common": {
      "disableTickDistance": 20000.0
    },
    "combat": {
      "property": {
        "hp": 99999.0,
        "isInvincible": true,
        "isLockHP": true,
        "isGhostToAllied": true,
        "isGhostToEnemy": true
      }
    },
    "combatTemplate": "",
    "abilities": [
      {
        "abilityID": "SceneObj_Level_Common_Property_Prop_WindFloraAirWall_02_Ability",
        "abilityName": "SceneObj_Level_Common_Property_Prop_WindFloraAirWall_02_Ability",
        "abilityOverride": ""
      }
    ]
  },
  "SceneObj_Level_Common_Property_Prop_WindFloraAirWall_03": {
    "$type": "PAAKDFFLFIN",
    "common": {
      "disableTickDistance": 20000.0
    },
    "combat": {
      "property": {
        "hp": 99999.0,
        "isInvincible": true,
        "isLockHP": true,
        "isGhostToAllied": true,
        "isGhostToEnemy": true
      }
    },
    "combatTemplate": "",
    "abilities": [
      {
        "abilityID": "SceneObj_Level_Common_Property_Prop_WindFloraAirWall_03_Ability",
        "abilityName": "SceneObj_Level_Common_Property_Prop_WindFloraAirWall_03_Ability",
        "abilityOverride": ""
      }
    ]
  },
  "SceneObj_Level_Common_Property_Prop_WindFloraAirWall_04": {
    "$type": "PAAKDFFLFIN",
    "common": {
      "disableTickDistance": 20000.0
    },
    "combat": {
      "property": {
        "hp": 99999.0,
        "isInvincible": true,
        "isLockHP": true,
        "isGhostToAllied": true,
        "isGhostToEnemy": true
      }
    },
    "combatTemplate": "",
    "abilities": [
      {
        "abilityID": "SceneObj_Level_Common_Property_Prop_WindFloraAirWall_04_Ability",
        "abilityName": "SceneObj_Level_Common_Property_Prop_WindFloraAirWall_04_Ability",
        "abilityOverride": ""
      }
    ]
  },
  "SceneObj_Level_Common_Property_Prop_WindFloraAirWall_05": {
    "$type": "PAAKDFFLFIN",
    "common": {
      "disableTickDistance": 20000.0
    },
    "combat": {
      "property": {
        "hp": 99999.0,
        "isInvincible": true,
        "isLockHP": true,
        "isGhostToAllied": true,
        "isGhostToEnemy": true
      }
    },
    "combatTemplate": "",
    "abilities": [
      {
        "abilityID": "SceneObj_Level_Common_Property_Prop_WindFloraAirWall_05_Ability",
        "abilityName": "SceneObj_Level_Common_Property_Prop_WindFloraAirWall_05_Ability",
        "abilityOverride": ""
      }
    ]
  },
  "SceneObj_WindFlower_HealBall_Creator": {
    "$type": "PAAKDFFLFIN",
    "combat": {
      "property": {
        "hp": 99999.0,
        "isInvincible": true,
        "isLockHP": true,
        "isGhostToAllied": true,
        "isGhostToEnemy": true
      },
      "combatLock": {
        "lockShape": "CircleLockEnemy",
        "denyLockOn": true,
        "lockType": "Gadget_Lv1"
      }
    },
    "combatTemplate": "",
    "abilities": [
      {
        "abilityID": "SceneObj_WindFlower_HealBall_Creator",
        "abilityName": "SceneObj_WindFlower_HealBall_Creator",
        "abilityOverride": ""
      }
    ]
  },
  "SceneObj_WindFlower_HealBall": {
    "$type": "PAAKDFFLFIN",
    "combat": {
      "property": {
        "useCreatorProperty": true,
        "hp": 10000.0,
        "attack": 30.0,
        "isLockHP": true,
        "isGhostToAllied": true,
        "isGhostToEnemy": true,
        "ignorePurgeRate": true
      },
      "beHit": {
        "hitBloodEffect": "",
        "hitAutoRedirect": false,
        "muteAllHitEffect": true
      },
      "combatLock": {
        "lockShape": "CircleLockEnemy",
        "denyLockOn": true,
        "lockType": "Gadget_Lv1"
      },
      "die": {
        "dieForceDisappearTime": 0.30000001192092896,
        "dieDisappearEffect": ""
      }
    },
    "combatTemplate": "",
    "abilities": [
      {
        "abilityID": "Ability_01",
        "abilityName": "SceneObj_Gear_Other_Spiral_Abyss_Ball_Heal",
        "abilityOverride": ""
      }
    ],
    "field": {
      "concernType": "AllAvatars",
      "shape": "CircleR2",
      "fromShape": "",
      "triggerInfinite": true,
      "lifeInfinite": true,
      "checkInterval": 0.5,
      "overwriteCampType": true,
      "campType": "All",
      "colliderName": "",
      "fromColliderName": ""
    }
  },
  "SceneObj_WindFlower_WindFlora_Creator": {
    "$type": "PAAKDFFLFIN",
    "combat": {
      "property": {
        "hp": 99999.0,
        "isInvincible": true,
        "isLockHP": true,
        "isGhostToAllied": true,
        "isGhostToEnemy": true
      },
      "combatLock": {
        "lockShape": "CircleLockEnemy",
        "denyLockOn": true,
        "lockType": "Gadget_Lv1"
      }
    },
    "combatTemplate": "",
    "abilities": [
      {
        "abilityID": "SceneObj_WindFlower_WindFlora_Creator",
        "abilityName": "SceneObj_WindFlower_WindFlora_Creator",
        "abilityOverride": ""
      }
    ]
  },
  "SceneObj_WindFlower_WindFlora_RangeCreator": {
    "$type": "PAAKDFFLFIN",
    "combat": {
      "property": {
        "hp": 99999.0,
        "isInvincible": true,
        "isLockHP": true,
        "isGhostToAllied": true,
        "isGhostToEnemy": true
      },
      "combatLock": {
        "lockShape": "CircleLockEnemy",
        "denyLockOn": true,
        "lockType": "Gadget_Lv1"
      }
    },
    "combatTemplate": "",
    "abilities": [
      {
        "abilityID": "SceneObj_WindFlower_WindFlora_RangeCreator",
        "abilityName": "SceneObj_WindFlower_WindFlora_RangeCreator",
        "abilityOverride": ""
      }
    ]
  },
  "SceneObj_WindFlower_WindFlora": {
    "$type": "PAAKDFFLFIN",
    "common": {
      "disableTickDistance": 100001.0
    },
    "hasModel": true,
    "combat": {
      "property": {
        "useCreatorProperty": true,
        "hp": 99999.0,
        "attack": 20.0,
        "weight": 50.0,
        "isLockHP": true
      },
      "beHit": {
        "hitBloodEffect": "",
        "muteAllHit": true,
        "muteAllHitEffect": true,
        "muteAllHitText": true
      },
      "combatLock": {
        "lockShape": "CircleLockEnemy",
        "denyLockOn": true,
        "lockType": "Gadget_Lv1"
      }
    },
    "combatTemplate": "",
    "abilities": [
      {
        "abilityID": "SceneObj_WindFlower_WindFlora",
        "abilityName": "SceneObj_WindFlower_WindFlora",
        "abilityOverride": ""
      }
    ],
    "timer": {
      "lifeTime": 30.0
    },
    "move": {
      "$type": "AHGMNDFKPGD",
      "velocityForce": {
        "muteAll": true
      },
      "speed": 1.0
    },
    "gadget": {
      "$type": "INBEOAJKHGD",
      "collision": {
        "targetType": "Enemy"
      },
      "triggerActions": [
        {
          "$type": "HEAANEHEBIK",
          "abilityName": "SceneObj_WindFlower_WindFlora"
        }
      ]
    }
  },
  "SceneObj_WindFlower_WindFlora_Normal": {
    "$type": "PAAKDFFLFIN",
    "common": {
      "disableTickDistance": 100001.0
    },
    "hasModel": true,
    "combat": {
      "property": {
        "hp": 99999.0,
        "attack": 200.0,
        "weight": 50.0,
        "isLockHP": true,
        "isGhostToEnemy": true,
        "ignorePurgeRate": true
      },
      "beHit": {
        "hitBloodEffect": "",
        "hitAutoRedirect": false,
        "muteAllHitText": true
      },
      "combatLock": {
        "lockShape": "CircleLockEnemy",
        "denyLockOn": true,
        "lockType": "Gadget_Lv1"
      }
    },
    "combatTemplate": "",
    "abilities": [
      {
        "abilityID": "SceneObj_WindFlower_WindFlora_Normal",
        "abilityName": "SceneObj_WindFlower_WindFlora_Normal",
        "abilityOverride": ""
      }
    ],
    "field": {
      "concernType": "AllAvatars",
      "shape": "CircleR1",
      "fromShape": "",
      "triggerInfinite": true,
      "lifeInfinite": true,
      "checkInterval": 0.5,
      "overwriteCampType": true,
      "campType": "All",
      "colliderName": "",
      "fromColliderName": ""
    }
  },
  "SceneObj_WindFlower_WindFlora_Common": {
    "$type": "PAAKDFFLFIN",
    "common": {
      "disableTickDistance": 100001.0
    },
    "model": {
      "bornEffect": "Eff_SceneObj_ActivityFlower_02_Born",
      "attachEffect": ""
    },
    "hasModel": true,
    "combat": {
      "property": {
        "hp": 99999.0,
        "attack": 200.0,
        "weight": 50.0,
        "isLockHP": true,
        "isGhostToEnemy": true,
        "ignorePurgeRate": true
      },
      "beHit": {
        "hitBloodEffect": "",
        "hitAutoRedirect": false,
        "muteAllHitText": true
      },
      "combatLock": {
        "lockShape": "CircleLockEnemy",
        "denyLockOn": true,
        "lockType": "Gadget_Lv1"
      }
    },
    "combatTemplate": "",
    "abilities": [
      {
        "abilityID": "SceneObj_WindFlower_WindFlora_Common",
        "abilityName": "SceneObj_WindFlower_WindFlora_Common",
        "abilityOverride": ""
      }
    ],
    "field": {
      "concernType": "AllAvatars",
      "shape": "CircleR1",
      "fromShape": "",
      "triggerInfinite": true,
      "lifeInfinite": true,
      "checkInterval": 0.5,
      "overwriteCampType": true,
      "campType": "All",
      "colliderName": "",
      "fromColliderName": ""
    }
  },
  "SceneObj_Level_Md_Property_Flower_ActivityFlowerHide_02": {
    "$type": "PAAKDFFLFIN",
    "hasModel": true,
    "combat": {
      "property": {
        "hp": 99999.0,
        "isInvincible": true,
        "isLockHP": true,
        "isGhostToAllied": true,
        "isGhostToEnemy": true
      }
    },
    "combatTemplate": "",
    "abilities": [
      {
        "abilityID": "Ability_01",
        "abilityName": "SceneObj_Level_Md_Property_Flower_ActivityFlowerHide_02_Ability",
        "abilityOverride": ""
      }
    ],
    "field": {
      "concernType": "AllAvatars",
      "shape": "CircleR1",
      "fromShape": "",
      "triggerInfinite": true,
      "lifeInfinite": true,
      "checkInterval": 0.5,
      "overwriteCampType": true,
      "campType": "All",
      "colliderName": "",
      "fromColliderName": ""
    }
  },
  "SceneObj_WindFlower_WindFlora_Normal02": {
    "$type": "PAAKDFFLFIN",
    "common": {
      "disableTickDistance": 100001.0
    },
    "hasModel": true,
    "combat": {
      "property": {
        "hp": 99999.0,
        "attack": 200.0,
        "weight": 50.0,
        "isLockHP": true,
        "isGhostToEnemy": true,
        "ignorePurgeRate": true
      },
      "beHit": {
        "hitBloodEffect": "",
        "hitAutoRedirect": false,
        "muteAllHitText": true
      },
      "combatLock": {
        "lockShape": "CircleLockEnemy",
        "denyLockOn": true,
        "lockType": "Gadget_Lv1"
      }
    },
    "combatTemplate": "",
    "abilities": [
      {
        "abilityID": "SceneObj_WindFlower_WindFlora_Normal02",
        "abilityName": "SceneObj_WindFlower_WindFlora_Normal02",
        "abilityOverride": ""
      }
    ],
    "field": {
      "concernType": "AllAvatars",
      "shape": "CircleR1",
      "fromShape": "",
      "triggerInfinite": true,
      "lifeInfinite": true,
      "checkInterval": 0.5,
      "overwriteCampType": true,
      "campType": "All",
      "colliderName": "",
      "fromColliderName": ""
    },
    "timer": {
      "lifeTime": 30.0
    }
  },
  "SceneObj_WindFlower_WindFlora_Bomb": {
    "$type": "PAAKDFFLFIN",
    "common": {
      "disableTickDistance": 100001.0
    },
    "hasModel": true,
    "combat": {
      "property": {
        "hp": 99999.0,
        "attack": 200.0,
        "weight": 50.0,
        "isLockHP": true,
        "isGhostToEnemy": true,
        "ignorePurgeRate": true
      },
      "beHit": {
        "hitBloodEffect": "",
        "hitAutoRedirect": false,
        "muteAllHitText": true
      },
      "combatLock": {
        "lockShape": "CircleLockEnemy",
        "denyLockOn": true,
        "lockType": "Gadget_Lv1"
      }
    },
    "combatTemplate": "",
    "abilities": [
      {
        "abilityID": "SceneObj_WindFlower_WindFlora_Bomb",
        "abilityName": "SceneObj_WindFlower_WindFlora_Bomb",
        "abilityOverride": ""
      }
    ],
    "field": {
      "concernType": "AllAvatars",
      "shape": "CircleR1",
      "fromShape": "",
      "triggerInfinite": true,
      "lifeInfinite": true,
      "checkInterval": 0.5,
      "overwriteCampType": true,
      "campType": "All",
      "colliderName": "",
      "fromColliderName": ""
    }
  },
  "SceneObj_WindFlower_WindFlora_BubblePlatform": {
    "$type": "PAAKDFFLFIN",
    "model": {
      "bornEffect": "",
      "attachEffect": "Eff_SceneObj_BubbleShoot_01_Greaten"
    },
    "hasModel": true,
    "combat": {
      "property": {
        "hp": 1000.0,
        "attack": 100.0,
        "weight": 50.0,
        "isLockHP": true,
        "isGhostToAllied": true,
        "isGhostToEnemy": true
      },
      "beHit": {
        "hitBloodEffect": "",
        "hitAutoRedirect": false,
        "muteAllHitEffect": true,
        "muteAllHitText": true
      },
      "combatLock": {
        "lockShape": "CircleLockEnemy",
        "denyLockOn": true,
        "lockType": "Gadget_Lv1"
      },
      "die": {
        "dieForceDisappearTime": 0.0,
        "dieDisappearEffect": ""
      }
    },
    "combatTemplate": "",
    "abilities": [
      {
        "abilityID": "SceneObj_WindFlower_WindFlora_BubblePlatform",
        "abilityName": "SceneObj_WindFlower_WindFlora_BubblePlatform",
        "abilityOverride": ""
      }
    ],
    "field": {
      "concernType": "AllAvatars",
      "shape": "CircleR1.5",
      "fromShape": "",
      "triggerInfinite": true,
      "lifeInfinite": true,
      "checkInterval": 0.5,
      "overwriteCampType": true,
      "campType": "All",
      "colliderName": "",
      "fromColliderName": ""
    },
    "move": {
      "$type": "EGIPFLCINDM"
    }
  },
  "SceneObj_WindFlower_BulletCreator": {
    "$type": "PAAKDFFLFIN",
    "globalValue": {
      "serverGlobalValues": [
        "SGV_BulletType"
      ]
    },
    "combat": {
      "property": {
        "hp": 99999.0,
        "isInvincible": true,
        "isLockHP": true,
        "isGhostToAllied": true,
        "isGhostToEnemy": true
      },
      "combatLock": {
        "lockShape": "CircleLockEnemy",
        "denyLockOn": true,
        "lockType": "Gadget_Lv1"
      }
    },
    "combatTemplate": "",
    "abilities": [
      {
        "abilityID": "SceneObj_WindFlower_BulletCreator",
        "abilityName": "SceneObj_WindFlower_BulletCreator",
        "abilityOverride": ""
      }
    ],
    "gadgetAction": {
      "gadgetStateActionList": [
        {
          "$type": "DPGGKEHEODN",
          "intID": "State",
          "syncState": true
        }
      ]
    }
  },
  "SceneObj_WindFlower_HorizontalBullet_Grow": {
    "$type": "PAAKDFFLFIN",
    "hasModel": true,
    "combat": {
      "property": {
        "useCreatorProperty": true,
        "hp": 99999.0,
        "weight": 50.0,
        "isLockHP": true
      },
      "beHit": {
        "hitBloodEffect": "",
        "muteAllHit": true,
        "muteAllHitEffect": true,
        "muteAllHitText": true
      },
      "combatLock": {
        "lockShape": "CircleLockEnemy",
        "denyLockOn": true,
        "lockType": "Gadget_Lv1"
      },
      "die": {
        "dieEndTime": 0.009999999776482582,
        "dieDisappearEffect": ""
      }
    },
    "combatTemplate": "",
    "abilities": [
      {
        "abilityID": "SceneObj_WindFlower_HorizontalBullet_Grow",
        "abilityName": "SceneObj_WindFlower_HorizontalBullet_Grow",
        "abilityOverride": ""
      }
    ],
    "timer": {
      "lifeTime": 4.5
    },
    "gadget": {
      "$type": "INBEOAJKHGD",
      "collision": {
        "triggerType": "TriggerNoRepeat",
        "targetType": "Enemy",
        "ignoreScene": true
      },
      "triggerActions": [
        {
          "$type": "HEAANEHEBIK",
          "abilityName": "SceneObj_WindFlower_HorizontalBullet_Grow"
        }
      ]
    }
  },
  "SceneObj_WindFlower_HorizontalBullet_Grow_Ele": {
    "$type": "PAAKDFFLFIN",
    "hasModel": true,
    "combat": {
      "property": {
        "useCreatorProperty": true,
        "hp": 99999.0,
        "weight": 50.0,
        "isLockHP": true
      },
      "beHit": {
        "hitBloodEffect": "",
        "muteAllHit": true,
        "muteAllHitEffect": true,
        "muteAllHitText": true
      },
      "combatLock": {
        "lockShape": "CircleLockEnemy",
        "denyLockOn": true,
        "lockType": "Gadget_Lv1"
      },
      "die": {
        "dieEndTime": 0.009999999776482582,
        "dieDisappearEffect": ""
      }
    },
    "combatTemplate": "",
    "abilities": [
      {
        "abilityID": "SceneObj_WindFlower_HorizontalBullet_Grow_Ele",
        "abilityName": "SceneObj_WindFlower_HorizontalBullet_Grow_Ele",
        "abilityOverride": ""
      }
    ],
    "timer": {
      "lifeTime": 4.5
    },
    "gadget": {
      "$type": "INBEOAJKHGD",
      "collision": {
        "triggerType": "TriggerNoRepeat",
        "targetType": "Enemy",
        "ignoreScene": true
      },
      "triggerActions": [
        {
          "$type": "HEAANEHEBIK",
          "abilityName": "SceneObj_WindFlower_HorizontalBullet_Grow_Ele"
        }
      ]
    }
  },
  "SceneObj_WindFlower_HorizontalBullet_Grow_Ice": {
    "$type": "PAAKDFFLFIN",
    "hasModel": true,
    "combat": {
      "property": {
        "useCreatorProperty": true,
        "hp": 99999.0,
        "weight": 50.0,
        "isLockHP": true
      },
      "beHit": {
        "hitBloodEffect": "",
        "muteAllHit": true,
        "muteAllHitEffect": true,
        "muteAllHitText": true
      },
      "combatLock": {
        "lockShape": "CircleLockEnemy",
        "denyLockOn": true,
        "lockType": "Gadget_Lv1"
      },
      "die": {
        "dieEndTime": 0.009999999776482582,
        "dieDisappearEffect": ""
      }
    },
    "combatTemplate": "",
    "abilities": [
      {
        "abilityID": "SceneObj_WindFlower_HorizontalBullet_Grow_Ice",
        "abilityName": "SceneObj_WindFlower_HorizontalBullet_Grow_Ice",
        "abilityOverride": ""
      }
    ],
    "timer": {
      "lifeTime": 4.5
    },
    "gadget": {
      "$type": "INBEOAJKHGD",
      "collision": {
        "triggerType": "TriggerNoRepeat",
        "targetType": "Enemy",
        "ignoreScene": true
      },
      "triggerActions": [
        {
          "$type": "HEAANEHEBIK",
          "abilityName": "SceneObj_WindFlower_HorizontalBullet_Grow_Ice"
        }
      ]
    }
  },
  "SceneObj_WindFlower_HorizontalBullet_Grow_Fire": {
    "$type": "PAAKDFFLFIN",
    "hasModel": true,
    "combat": {
      "property": {
        "useCreatorProperty": true,
        "hp": 99999.0,
        "weight": 50.0,
        "isLockHP": true
      },
      "beHit": {
        "hitBloodEffect": "",
        "muteAllHit": true,
        "muteAllHitEffect": true,
        "muteAllHitText": true
      },
      "combatLock": {
        "lockShape": "CircleLockEnemy",
        "denyLockOn": true,
        "lockType": "Gadget_Lv1"
      },
      "die": {
        "dieEndTime": 0.009999999776482582,
        "dieDisappearEffect": ""
      }
    },
    "combatTemplate": "",
    "abilities": [
      {
        "abilityID": "SceneObj_WindFlower_HorizontalBullet_Grow_Fire",
        "abilityName": "SceneObj_WindFlower_HorizontalBullet_Grow_Fire",
        "abilityOverride": ""
      }
    ],
    "timer": {
      "lifeTime": 4.5
    },
    "gadget": {
      "$type": "INBEOAJKHGD",
      "collision": {
        "triggerType": "TriggerNoRepeat",
        "targetType": "Enemy",
        "ignoreScene": true
      },
      "triggerActions": [
        {
          "$type": "HEAANEHEBIK",
          "abilityName": "SceneObj_WindFlower_HorizontalBullet_Grow_Fire"
        }
      ]
    }
  },
  "SceneObj_WindFlower_HorizontalBullet_Grow_Water": {
    "$type": "PAAKDFFLFIN",
    "hasModel": true,
    "combat": {
      "property": {
        "useCreatorProperty": true,
        "hp": 99999.0,
        "weight": 50.0,
        "isLockHP": true
      },
      "beHit": {
        "hitBloodEffect": "",
        "muteAllHit": true,
        "muteAllHitEffect": true,
        "muteAllHitText": true
      },
      "combatLock": {
        "lockShape": "CircleLockEnemy",
        "denyLockOn": true,
        "lockType": "Gadget_Lv1"
      },
      "die": {
        "dieEndTime": 0.009999999776482582,
        "dieDisappearEffect": ""
      }
    },
    "combatTemplate": "",
    "abilities": [
      {
        "abilityID": "SceneObj_WindFlower_HorizontalBullet_Grow_Water",
        "abilityName": "SceneObj_WindFlower_HorizontalBullet_Grow_Water",
        "abilityOverride": ""
      }
    ],
    "timer": {
      "lifeTime": 4.5
    },
    "gadget": {
      "$type": "INBEOAJKHGD",
      "collision": {
        "triggerType": "TriggerNoRepeat",
        "targetType": "Enemy",
        "ignoreScene": true
      },
      "triggerActions": [
        {
          "$type": "HEAANEHEBIK",
          "abilityName": "SceneObj_WindFlower_HorizontalBullet_Grow_Water"
        }
      ]
    }
  },
  "SceneObj_WindFlower_HorizontalBullet": {
    "$type": "PAAKDFFLFIN",
    "hasModel": true,
    "combat": {
      "property": {
        "useCreatorProperty": true,
        "hp": 99999.0,
        "weight": 50.0,
        "isLockHP": true
      },
      "beHit": {
        "hitBloodEffect": "",
        "muteAllHit": true,
        "muteAllHitEffect": true,
        "muteAllHitText": true
      },
      "combatLock": {
        "lockShape": "CircleLockEnemy",
        "denyLockOn": true,
        "lockType": "Gadget_Lv1"
      },
      "die": {
        "dieEndTime": 0.009999999776482582,
        "dieDisappearEffect": ""
      }
    },
    "combatTemplate": "",
    "abilities": [
      {
        "abilityID": "SceneObj_WindFlower_HorizontalBullet",
        "abilityName": "SceneObj_WindFlower_HorizontalBullet",
        "abilityOverride": ""
      }
    ],
    "timer": {
      "lifeTime": 2.5999999046325684
    },
    "move": {
      "$type": "AHGMNDFKPGD",
      "velocityForce": {
        "muteAll": true
      },
      "speed": 5.0
    },
    "gadget": {
      "$type": "INBEOAJKHGD",
      "collision": {
        "targetType": "Enemy",
        "ignoreScene": true
      },
      "triggerActions": [
        {
          "$type": "HEAANEHEBIK",
          "abilityName": "SceneObj_WindFlower_HorizontalBullet"
        }
      ]
    }
  },
  "SceneObj_WindFlower_HorizontalBullet_Fire": {
    "$type": "PAAKDFFLFIN",
    "hasModel": true,
    "combat": {
      "property": {
        "useCreatorProperty": true,
        "hp": 99999.0,
        "weight": 50.0,
        "isLockHP": true
      },
      "beHit": {
        "hitBloodEffect": "",
        "muteAllHit": true,
        "muteAllHitEffect": true,
        "muteAllHitText": true
      },
      "combatLock": {
        "lockShape": "CircleLockEnemy",
        "denyLockOn": true,
        "lockType": "Gadget_Lv1"
      },
      "die": {
        "dieEndTime": 0.009999999776482582,
        "dieDisappearEffect": ""
      }
    },
    "combatTemplate": "",
    "abilities": [
      {
        "abilityID": "SceneObj_WindFlower_HorizontalBullet_Fire",
        "abilityName": "SceneObj_WindFlower_HorizontalBullet_Fire",
        "abilityOverride": ""
      }
    ],
    "timer": {
      "lifeTime": 2.5999999046325684
    },
    "move": {
      "$type": "AHGMNDFKPGD",
      "velocityForce": {
        "muteAll": true
      },
      "speed": 5.0
    },
    "gadget": {
      "$type": "INBEOAJKHGD",
      "collision": {
        "targetType": "Enemy",
        "ignoreScene": true
      },
      "triggerActions": [
        {
          "$type": "HEAANEHEBIK",
          "abilityName": "SceneObj_WindFlower_HorizontalBullet_Fire"
        }
      ]
    }
  },
  "SceneObj_WindFlower_HorizontalBullet_Water": {
    "$type": "PAAKDFFLFIN",
    "hasModel": true,
    "combat": {
      "property": {
        "useCreatorProperty": true,
        "hp": 99999.0,
        "weight": 50.0,
        "isLockHP": true
      },
      "beHit": {
        "hitBloodEffect": "",
        "muteAllHit": true,
        "muteAllHitEffect": true,
        "muteAllHitText": true
      },
      "combatLock": {
        "lockShape": "CircleLockEnemy",
        "denyLockOn": true,
        "lockType": "Gadget_Lv1"
      },
      "die": {
        "dieEndTime": 0.009999999776482582,
        "dieDisappearEffect": ""
      }
    },
    "combatTemplate": "",
    "abilities": [
      {
        "abilityID": "SceneObj_WindFlower_HorizontalBullet_Water",
        "abilityName": "SceneObj_WindFlower_HorizontalBullet_Water",
        "abilityOverride": ""
      }
    ],
    "timer": {
      "lifeTime": 2.5999999046325684
    },
    "move": {
      "$type": "AHGMNDFKPGD",
      "velocityForce": {
        "muteAll": true
      },
      "speed": 5.0
    },
    "gadget": {
      "$type": "INBEOAJKHGD",
      "collision": {
        "targetType": "Enemy",
        "ignoreScene": true
      },
      "triggerActions": [
        {
          "$type": "HEAANEHEBIK",
          "abilityName": "SceneObj_WindFlower_HorizontalBullet_Water"
        }
      ]
    }
  },
  "SceneObj_WindFlower_HorizontalBullet_Ice": {
    "$type": "PAAKDFFLFIN",
    "hasModel": true,
    "combat": {
      "property": {
        "useCreatorProperty": true,
        "hp": 99999.0,
        "weight": 50.0,
        "isLockHP": true
      },
      "beHit": {
        "hitBloodEffect": "",
        "muteAllHit": true,
        "muteAllHitEffect": true,
        "muteAllHitText": true
      },
      "combatLock": {
        "lockShape": "CircleLockEnemy",
        "denyLockOn": true,
        "lockType": "Gadget_Lv1"
      },
      "die": {
        "dieEndTime": 0.009999999776482582,
        "dieDisappearEffect": ""
      }
    },
    "combatTemplate": "",
    "abilities": [
      {
        "abilityID": "SceneObj_WindFlower_HorizontalBullet_Ice",
        "abilityName": "SceneObj_WindFlower_HorizontalBullet_Ice",
        "abilityOverride": ""
      }
    ],
    "timer": {
      "lifeTime": 2.5999999046325684
    },
    "move": {
      "$type": "AHGMNDFKPGD",
      "velocityForce": {
        "muteAll": true
      },
      "speed": 5.0
    },
    "gadget": {
      "$type": "INBEOAJKHGD",
      "collision": {
        "targetType": "Enemy",
        "ignoreScene": true
      },
      "triggerActions": [
        {
          "$type": "HEAANEHEBIK",
          "abilityName": "SceneObj_WindFlower_HorizontalBullet_Ice"
        }
      ]
    }
  },
  "SceneObj_WindFlower_HorizontalBullet_LowSpeed": {
    "$type": "PAAKDFFLFIN",
    "model": {
      "bornEffect": "",
      "attachEffect": "Eff_SceneObj_Barrage_Bullet_01"
    },
    "hasModel": true,
    "combat": {
      "property": {
        "useCreatorProperty": true,
        "hp": 99999.0,
        "weight": 50.0,
        "isLockHP": true
      },
      "beHit": {
        "hitBloodEffect": "",
        "muteAllHit": true,
        "muteAllHitEffect": true,
        "muteAllHitText": true
      },
      "combatLock": {
        "lockShape": "CircleLockEnemy",
        "denyLockOn": true,
        "lockType": "Gadget_Lv1"
      },
      "die": {
        "dieEndTime": 0.009999999776482582,
        "dieDisappearEffect": ""
      }
    },
    "combatTemplate": "",
    "abilities": [
      {
        "abilityID": "SceneObj_WindFlower_HorizontalBullet_LowSpeed",
        "abilityName": "SceneObj_WindFlower_HorizontalBullet_LowSpeed",
        "abilityOverride": ""
      },
      {
        "abilityID": "SceneObj_WindFlower_HorizontalBullet_LowSpeed2",
        "abilityName": "SceneObj_WindFlower_HorizontalBullet_LowSpeed2",
        "abilityOverride": ""
      }
    ],
    "timer": {
      "lifeTime": 2.0
    },
    "move": {
      "$type": "AHGMNDFKPGD",
      "velocityForce": {
        "muteAll": true
      },
      "speed": 0.5
    },
    "gadget": {
      "$type": "INBEOAJKHGD",
      "collision": {
        "targetType": "Enemy",
        "ignoreScene": true
      },
      "triggerActions": [
        {
          "$type": "HEAANEHEBIK",
          "abilityName": "SceneObj_WindFlower_HorizontalBullet_LowSpeed"
        }
      ],
      "triggerLifeOverActions": [
        {
          "$type": "HEAANEHEBIK",
          "abilityName": "SceneObj_WindFlower_HorizontalBullet_LowSpeed2"
        }
      ]
    }
  },
  "SceneObj_WindFlower_HorizontalBullet_HighSpeed": {
    "$type": "PAAKDFFLFIN",
    "model": {
      "bornEffect": "",
      "attachEffect": "Eff_SceneObj_Barrage_Bullet_01"
    },
    "hasModel": true,
    "combat": {
      "property": {
        "useCreatorProperty": true,
        "hp": 99999.0,
        "weight": 50.0,
        "isLockHP": true
      },
      "beHit": {
        "hitBloodEffect": "",
        "muteAllHit": true,
        "muteAllHitEffect": true,
        "muteAllHitText": true
      },
      "combatLock": {
        "lockShape": "CircleLockEnemy",
        "denyLockOn": true,
        "lockType": "Gadget_Lv1"
      },
      "die": {
        "dieEndTime": 0.009999999776482582,
        "dieDisappearEffect": ""
      }
    },
    "combatTemplate": "",
    "abilities": [
      {
        "abilityID": "SceneObj_WindFlower_HorizontalBullet_HighSpeed",
        "abilityName": "SceneObj_WindFlower_HorizontalBullet_HighSpeed",
        "abilityOverride": ""
      }
    ],
    "timer": {
      "lifeTime": 5.0
    },
    "move": {
      "$type": "AHGMNDFKPGD",
      "velocityForce": {
        "muteAll": true
      },
      "speed": 10.0
    },
    "gadget": {
      "$type": "INBEOAJKHGD",
      "collision": {
        "targetType": "Enemy",
        "ignoreScene": true
      },
      "triggerActions": [
        {
          "$type": "HEAANEHEBIK",
          "abilityName": "SceneObj_WindFlower_HorizontalBullet_HighSpeed"
        }
      ]
    }
  },
  "SceneObj_Level_Common_Property_Prop_CoopPerformController_01": {
    "$type": "PAAKDFFLFIN",
    "combat": {
      "property": {
        "hp": 99999.0,
        "isInvincible": true,
        "isLockHP": true,
        "isGhostToAllied": true,
        "isGhostToEnemy": true
      },
      "combatLock": {
        "lockShape": "CircleLockEnemy",
        "denyLockOn": true,
        "lockType": "Gadget_Lv1"
      }
    },
    "combatTemplate": "",
    "abilities": [
      {
        "abilityID": "SceneObj_Level_Common_Property_Prop_CoopPerformController_01",
        "abilityName": "SceneObj_Level_Common_Property_Prop_CoopPerformController_01",
        "abilityOverride": ""
      }
    ]
  },
  "SceneObj_WindFlower_Laser": {
    "$type": "PAAKDFFLFIN",
    "hasModel": true,
    "combat": {
      "property": {
        "hp": 5000.0,
        "attack": 15.0,
        "weight": 50.0,
        "isLockHP": true,
        "isGhostToAllied": true,
        "isGhostToEnemy": true
      },
      "beHit": {
        "hitBloodEffect": "",
        "hitAutoRedirect": false,
        "muteAllHitText": true
      },
      "combatLock": {
        "lockShape": "CircleLockEnemy",
        "denyLockOn": true,
        "lockType": "Gadget_Lv1"
      },
      "die": {
        "dieEndTime": 0.009999999776482582,
        "dieDisappearEffect": ""
      }
    },
    "combatTemplate": "",
    "abilities": [
      {
        "abilityID": "SceneObj_WindFlower_Laser",
        "abilityName": "SceneObj_WindFlower_Laser",
        "abilityOverride": ""
      }
    ],
    "move": {
      "$type": "EGIPFLCINDM"
    },
    "gadget": {
      "$type": "NIBKNKIINFI",
      "collision": {
        "triggerType": "TriggerAlways",
        "targetType": "All"
      },
      "collisionActions": [
        {
          "$type": "HEAANEHEBIK",
          "abilityName": "SceneObj_WindFlower_Laser"
        }
      ],
      "thisColliderName": "Collider",
      "targetColliderName": "InteeTrigger"
    }
  },
  "SceneObj_WindFlower_BubbleCreator": {
    "$type": "PAAKDFFLFIN",
    "common": {
      "disableTickDistance": 100001.0
    },
    "combat": {
      "property": {
        "hp": 99999.0,
        "isInvincible": true,
        "isLockHP": true,
        "isGhostToAllied": true,
        "isGhostToEnemy": true
      },
      "combatLock": {
        "lockShape": "CircleLockEnemy",
        "denyLockOn": true,
        "lockType": "Gadget_Lv1"
      }
    },
    "combatTemplate": "",
    "abilities": [
      {
        "abilityID": "SceneObj_WindFlower_BubbleCreator",
        "abilityName": "SceneObj_WindFlower_BubbleCreator",
        "abilityOverride": ""
      }
    ],
    "gadgetAction": {
      "gadgetStateActionList": [
        {
          "$type": "DPGGKEHEODN",
          "intID": "GadgetState",
          "syncState": true
        }
      ]
    }
  },
  "SceneObj_WindFlower_Arenashake": {
    "$type": "PAAKDFFLFIN",
    "hasModel": true,
    "combat": {
      "property": {
        "hp": 5000.0,
        "attack": 15.0,
        "weight": 50.0,
        "isLockHP": true,
        "isGhostToAllied": true,
        "isGhostToEnemy": true
      },
      "beHit": {
        "hitBloodEffect": "",
        "hitAutoRedirect": false,
        "muteAllHitText": true
      },
      "combatLock": {
        "lockShape": "CircleLockEnemy",
        "denyLockOn": true,
        "lockType": "Gadget_Lv1"
      },
      "die": {
        "dieEndTime": 0.009999999776482582,
        "dieDisappearEffect": ""
      }
    },
    "combatTemplate": "",
    "abilities": [
      {
        "abilityID": "SceneObj_WindFlower_Arenashake",
        "abilityName": "SceneObj_WindFlower_Arenashake",
        "abilityOverride": ""
      }
    ]
  },
  "SceneObj_WindFlower_WindFlora_BubbleNoMove": {
    "$type": "PAAKDFFLFIN",
    "model": {
      "bornEffect": "",
      "attachEffect": "Eff_Monster_Slime_Water_Bubble"
    },
    "hasModel": true,
    "combat": {
      "property": {
        "hp": 1000.0,
        "attack": 100.0,
        "weight": 50.0,
        "isLockHP": true,
        "isGhostToAllied": true,
        "isGhostToEnemy": true
      },
      "beHit": {
        "hitBloodEffect": "",
        "hitAutoRedirect": false,
        "muteAllHitEffect": true,
        "muteAllHitText": true
      },
      "combatLock": {
        "lockShape": "CircleLockEnemy",
        "denyLockOn": true,
        "lockType": "Gadget_Lv1"
      },
      "die": {
        "dieForceDisappearTime": 0.0,
        "dieDisappearEffect": ""
      }
    },
    "combatTemplate": "",
    "abilities": [
      {
        "abilityID": "SceneObj_WindFlower_WindFlora_BubbleNoMove",
        "abilityName": "SceneObj_WindFlower_WindFlora_BubbleNoMove",
        "abilityOverride": ""
      }
    ],
    "field": {
      "concernType": "AllAvatars",
      "shape": "CircleR1.5",
      "fromShape": "",
      "triggerInfinite": true,
      "lifeInfinite": true,
      "checkInterval": 0.5,
      "overwriteCampType": true,
      "campType": "All",
      "colliderName": "",
      "fromColliderName": ""
    },
    "move": {
      "$type": "EGIPFLCINDM"
    }
  },
  "SceneObj_WindFlower_WindFlora_AttackCirecle": {
    "$type": "PAAKDFFLFIN",
    "combat": {
      "property": {
        "hp": 10000.0,
        "attack": 30.0,
        "isLockHP": true,
        "isGhostToAllied": true,
        "isGhostToEnemy": true,
        "ignorePurgeRate": true
      },
      "beHit": {
        "hitBloodEffect": "",
        "hitAutoRedirect": false,
        "muteAllHitEffect": true
      },
      "combatLock": {
        "lockShape": "CircleLockEnemy",
        "denyLockOn": true,
        "lockType": "Gadget_Lv1"
      },
      "die": {
        "dieEndTime": 3.0,
        "dieForceDisappearTime": 3.0,
        "dieDisappearEffect": "",
        "dieModelFadeDelay": 2.0
      }
    },
    "combatTemplate": "",
    "abilities": [
      {
        "abilityID": "SceneObj_WindFlower_WindFlora_AttackCirecle",
        "abilityName": "SceneObj_WindFlower_WindFlora_AttackCirecle",
        "abilityOverride": ""
      }
    ],
    "field": {
      "concernType": "AllAvatars",
      "shape": "CircleR4",
      "fromShape": "",
      "triggerInfinite": true,
      "lifeInfinite": true,
      "checkInterval": 0.5,
      "overwriteCampType": true,
      "campType": "All",
      "colliderName": "",
      "fromColliderName": ""
    }
  },
  "SceneObj_WindFlower_WindFlora_AttackCirecle_419": {
    "$type": "PAAKDFFLFIN",
    "common": {
      "viewSize": 0.699999988079071
    },
    "combat": {
      "property": {
        "hp": 10000.0,
        "attack": 30.0,
        "isLockHP": true,
        "isGhostToAllied": true,
        "isGhostToEnemy": true,
        "ignorePurgeRate": true
      },
      "beHit": {
        "hitBloodEffect": "",
        "hitAutoRedirect": false,
        "muteAllHitEffect": true
      },
      "combatLock": {
        "lockShape": "CircleLockEnemy",
        "denyLockOn": true,
        "lockType": "Gadget_Lv1"
      },
      "die": {
        "dieEndTime": 3.0,
        "dieForceDisappearTime": 3.0,
        "dieDisappearEffect": "",
        "dieModelFadeDelay": 2.0
      }
    },
    "combatTemplate": "",
    "abilities": [
      {
        "abilityID": "SceneObj_WindFlower_WindFlora_AttackCirecle_419",
        "abilityName": "SceneObj_WindFlower_WindFlora_AttackCirecle_419",
        "abilityOverride": ""
      }
    ],
    "field": {
      "concernType": "AllAvatars",
      "shape": "CircleR3",
      "fromShape": "",
      "triggerInfinite": true,
      "lifeInfinite": true,
      "checkInterval": 0.5,
      "overwriteCampType": true,
      "campType": "All",
      "colliderName": "",
      "fromColliderName": ""
    }
  },
  "SceneObj_WindFlower_ElementFall": {
    "$type": "PAAKDFFLFIN",
    "combat": {
      "property": {
        "hp": 10000.0,
        "attack": 500.0,
        "isLockHP": true,
        "isGhostToAllied": true,
        "isGhostToEnemy": true,
        "ignorePurgeRate": true
      },
      "beHit": {
        "hitBloodEffect": "",
        "hitAutoRedirect": false,
        "muteAllHitEffect": true
      },
      "combatLock": {
        "lockShape": "CircleLockEnemy",
        "denyLockOn": true,
        "lockType": "Gadget_Lv1"
      },
      "die": {
        "dieForceDisappearTime": 0.30000001192092896,
        "dieDisappearEffect": ""
      }
    },
    "combatTemplate": "",
    "abilities": [
      {
        "abilityID": "SceneObj_WindFlower_ElementFall",
        "abilityName": "SceneObj_WindFlower_ElementFall",
        "abilityOverride": ""
      }
    ]
  },
  "SceneObj_WindFlower_IceFall_Bullet": {
    "$type": "PAAKDFFLFIN",
    "combat": {
      "property": {
        "useCreatorProperty": true,
        "hp": 99999.0,
        "attack": 20.0,
        "weight": 50.0,
        "isLockHP": true
      },
      "beHit": {
        "hitBloodEffect": "",
        "muteAllHit": true,
        "muteAllHitEffect": true,
        "muteAllHitText": true
      },
      "combatLock": {
        "lockShape": "CircleLockEnemy",
        "denyLockOn": true,
        "lockType": "Gadget_Lv1"
      },
      "die": {
        "dieEndTime": 0.009999999776482582,
        "dieDisappearEffect": ""
      }
    },
    "combatTemplate": "",
    "abilities": [
      {
        "abilityID": "SceneObj_WindFlower_IceFall_Bullet",
        "abilityName": "SceneObj_WindFlower_IceFall_Bullet",
        "abilityOverride": ""
      }
    ],
    "move": {
      "$type": "AHGMNDFKPGD",
      "velocityForce": {
        "muteAll": true
      },
      "speed": 5.0,
      "acceleration": 10.0
    },
    "gadget": {
      "$type": "INBEOAJKHGD",
      "collision": {
        "triggerType": "TriggerNoRepeat",
        "targetType": "Enemy"
      },
      "triggerActions": [
        {
          "$type": "HEAANEHEBIK",
          "abilityName": "SceneObj_WindFlower_IceFall_Bullet"
        }
      ]
    }
  },
  "SceneObj_WindFlower_FireFall_Bullet": {
    "$type": "PAAKDFFLFIN",
    "combat": {
      "property": {
        "useCreatorProperty": true,
        "hp": 99999.0,
        "attack": 20.0,
        "weight": 50.0,
        "isLockHP": true
      },
      "beHit": {
        "hitBloodEffect": "",
        "muteAllHit": true,
        "muteAllHitEffect": true,
        "muteAllHitText": true
      },
      "combatLock": {
        "lockShape": "CircleLockEnemy",
        "denyLockOn": true,
        "lockType": "Gadget_Lv1"
      },
      "die": {
        "dieEndTime": 0.009999999776482582,
        "dieDisappearEffect": ""
      }
    },
    "combatTemplate": "",
    "abilities": [
      {
        "abilityID": "SceneObj_WindFlower_FireFall_Bullet",
        "abilityName": "SceneObj_WindFlower_FireFall_Bullet",
        "abilityOverride": ""
      }
    ],
    "move": {
      "$type": "AHGMNDFKPGD",
      "velocityForce": {
        "muteAll": true
      },
      "speed": 5.0,
      "acceleration": 10.0
    },
    "gadget": {
      "$type": "INBEOAJKHGD",
      "collision": {
        "triggerType": "TriggerNoRepeat",
        "targetType": "Enemy"
      },
      "triggerActions": [
        {
          "$type": "HEAANEHEBIK",
          "abilityName": "SceneObj_WindFlower_FireFall_Bullet"
        }
      ]
    }
  },
  "SceneObj_WindFlower_ThunderFall": {
    "$type": "PAAKDFFLFIN",
    "combat": {
      "property": {
        "useCreatorProperty": true,
        "hp": 99999.0,
        "attack": 20.0,
        "weight": 50.0,
        "isLockHP": true,
        "isGhostToAllied": true,
        "isGhostToEnemy": true
      },
      "beHit": {
        "hitBloodEffect": "",
        "muteAllHit": true,
        "muteAllHitEffect": true,
        "muteAllHitText": true
      },
      "combatLock": {
        "lockShape": "CircleLockEnemy",
        "denyLockOn": true,
        "lockType": "Gadget_Lv1"
      },
      "die": {
        "dieEndTime": 0.009999999776482582,
        "dieDisappearEffect": ""
      }
    },
    "combatTemplate": "",
    "abilities": [
      {
        "abilityID": "SceneObj_WindFlower_ThunderFall",
        "abilityName": "SceneObj_WindFlower_ThunderFall",
        "abilityOverride": ""
      }
    ]
  },
  "SceneObj_WindFlower_ThunderBall": {
    "$type": "PAAKDFFLFIN",
    "hasModel": true,
    "combat": {
      "property": {
        "useCreatorProperty": true,
        "hp": 99999.0,
        "attack": 20.0,
        "weight": 50.0,
        "isLockHP": true,
        "isGhostToAllied": true,
        "isGhostToEnemy": true
      },
      "beHit": {
        "hitBloodEffect": "",
        "muteAllHit": true,
        "muteAllHitEffect": true,
        "muteAllHitText": true
      },
      "combatLock": {
        "lockShape": "CircleLockEnemy",
        "denyLockOn": true,
        "lockType": "Gadget_Lv1"
      },
      "die": {
        "dieEndTime": 0.009999999776482582,
        "dieDisappearEffect": ""
      }
    },
    "combatTemplate": "",
    "abilities": [
      {
        "abilityID": "SceneObj_WindFlower_ThunderBall",
        "abilityName": "SceneObj_WindFlower_ThunderBall",
        "abilityOverride": ""
      }
    ]
  },
  "SceneObj_WindFlower_BulletTrip_Water": {
    "$type": "PAAKDFFLFIN",
    "hasModel": true,
    "combat": {
      "property": {
        "hp": 99999.0,
        "isInvincible": true,
        "isLockHP": true,
        "isGhostToAllied": true,
        "isGhostToEnemy": true
      },
      "combatLock": {
        "lockShape": "CircleLockEnemy",
        "denyLockOn": true,
        "lockType": "Gadget_Lv1"
      }
    },
    "combatTemplate": "",
    "abilities": [
      {
        "abilityID": "SceneObj_WindFlower_BulletTrip_Water",
        "abilityName": "SceneObj_WindFlower_BulletTrip_Water",
        "abilityOverride": ""
      }
    ]
  },
  "SceneObj_WindFlower_BulletTrip_Fire": {
    "$type": "PAAKDFFLFIN",
    "hasModel": true,
    "combat": {
      "property": {
        "hp": 99999.0,
        "isInvincible": true,
        "isLockHP": true,
        "isGhostToAllied": true,
        "isGhostToEnemy": true
      },
      "combatLock": {
        "lockShape": "CircleLockEnemy",
        "denyLockOn": true,
        "lockType": "Gadget_Lv1"
      }
    },
    "combatTemplate": "",
    "abilities": [
      {
        "abilityID": "SceneObj_WindFlower_BulletTrip_Fire",
        "abilityName": "SceneObj_WindFlower_BulletTrip_Fire",
        "abilityOverride": ""
      }
    ]
  },
  "SceneObj_WindFlower_BulletTrip_Ice": {
    "$type": "PAAKDFFLFIN",
    "hasModel": true,
    "combat": {
      "property": {
        "hp": 99999.0,
        "isInvincible": true,
        "isLockHP": true,
        "isGhostToAllied": true,
        "isGhostToEnemy": true
      },
      "combatLock": {
        "lockShape": "CircleLockEnemy",
        "denyLockOn": true,
        "lockType": "Gadget_Lv1"
      }
    },
    "combatTemplate": "",
    "abilities": [
      {
        "abilityID": "SceneObj_WindFlower_BulletTrip_Ice",
        "abilityName": "SceneObj_WindFlower_BulletTrip_Ice",
        "abilityOverride": ""
      }
    ]
  },
  "SceneObj_WindFlower_BulletTrip_Electric": {
    "$type": "PAAKDFFLFIN",
    "hasModel": true,
    "combat": {
      "property": {
        "hp": 99999.0,
        "isInvincible": true,
        "isLockHP": true,
        "isGhostToAllied": true,
        "isGhostToEnemy": true
      },
      "combatLock": {
        "lockShape": "CircleLockEnemy",
        "denyLockOn": true,
        "lockType": "Gadget_Lv1"
      }
    },
    "combatTemplate": "",
    "abilities": [
      {
        "abilityID": "SceneObj_WindFlower_BulletTrip_Electric",
        "abilityName": "SceneObj_WindFlower_BulletTrip_Electric",
        "abilityOverride": ""
      }
    ]
  },
  "SceneObj_WindFlower_WindFlora_BubbleBullet": {
    "$type": "PAAKDFFLFIN",
    "common": {
      "disableTickDistance": 100001.0
    },
    "hasModel": true,
    "combat": {
      "property": {
        "useCreatorProperty": true,
        "hp": 99999.0,
        "attack": 20.0,
        "weight": 50.0,
        "isLockHP": true,
        "isGhostToAllied": true,
        "isGhostToEnemy": true
      },
      "beHit": {
        "hitBloodEffect": "",
        "muteAllHit": true,
        "muteAllHitEffect": true,
        "muteAllHitText": true
      },
      "combatLock": {
        "lockShape": "CircleLockEnemy",
        "denyLockOn": true,
        "lockType": "Gadget_Lv1"
      },
      "die": {
        "dieEndTime": 0.009999999776482582,
        "dieDisappearEffect": ""
      }
    },
    "combatTemplate": "",
    "abilities": [
      {
        "abilityID": "SceneObj_WindFlower_WindFlora_BubbleBullet",
        "abilityName": "SceneObj_WindFlower_WindFlora_BubbleBullet",
        "abilityOverride": ""
      }
    ],
    "move": {
      "$type": "AHGMNDFKPGD",
      "velocityForce": {
        "muteAll": true
      },
      "speed": 8.0
    },
    "gadget": {
      "$type": "INBEOAJKHGD",
      "collision": {
        "triggerType": "TriggerNoRepeat",
        "targetType": "Enemy",
        "ignoreScene": true
      },
      "triggerActions": [
        {
          "$type": "HEAANEHEBIK",
          "abilityName": "SceneObj_WindFlower_WindFlora_BubbleBullet"
        }
      ]
    }
  },
  "SceneObj_WindFlower_WindFlora_Airwall": {
    "$type": "PAAKDFFLFIN",
    "combat": {
      "property": {
        "hp": 5000.0,
        "attack": 15.0,
        "weight": 50.0,
        "isLockHP": true
      },
      "beHit": {
        "hitBloodEffect": "",
        "hitAutoRedirect": false,
        "muteAllHitText": true
      },
      "combatLock": {
        "lockShape": "CircleLockEnemy",
        "denyLockOn": true,
        "lockType": "Gadget_Lv1"
      }
    },
    "combatTemplate": "",
    "abilities": [
      {
        "abilityID": "SceneObj_WindFlower_WindFlora_Airwall",
        "abilityName": "SceneObj_WindFlower_WindFlora_Airwall",
        "abilityOverride": ""
      }
    ],
    "gadget": {
      "$type": "NIBKNKIINFI",
      "collision": {
        "triggerType": "TriggerAlways",
        "targetType": "All"
      },
      "collisionActions": [
        {
          "$type": "HEAANEHEBIK",
          "abilityName": "SceneObj_WindFlower_WindFlora_Airwall"
        }
      ],
      "thisColliderName": "Collider",
      "targetColliderName": "InteeTrigger"
    }
  }
}