{
  "luaDataPath": "",
  "isSimpleTalk": true,
  "entityBan": "",
  "disableNpcLod": true,
  "startFade": {
    "startFadeOutDuration": 0.0
  },
  "endFade": {
    "startFadeOutDuration": 0.0
  },
  "actors": [
    {
      "alias": "Avatar",
      "visible": true,
      "bornPointName": "",
      "relativePosNpcAlias": "",
      "_bindMovingTargetKey": ""
    },
    {
      "configID": 20481,
      "alias": "20481",
      "visible": true,
      "bornPointName": "",
      "forceCreateDaily": true,
      "relativePosNpcAlias": "",
      "_bindMovingTargetKey": ""
    },
    {
      "configID": 1005,
      "alias": "1005",
      "visible": true,
      "bornPointName": "",
      "useRelativePos": true,
      "relativePos": {
        "x": -0.5,
        "z": 0.5
      },
      "removeActorType": "REMOVE_WITH_DISAPPEAR",
      "relativePosNpcAlias": "",
      "_bindMovingTargetKey": ""
    }
  ],
  "group": [
    [
      {
        "$type": "MoleMole.Config.ConfigTimeProtectAction",
        "type": "TIME_PROTECT",
        "duration": 0.10000000149011612
      },
      {
        "$type": "EFHODGEJOHJ",
        "type": "CAMERA_FOCUS",
        "duration": 0.10000000149011612,
        "targetNpcAlias": "",
        "PHGBNNGCJKJ": "",
        "NFILMKCFHEB": "",
        "BGPNGHDAECF": ""
      },
      {
        "$type": "IEKHMHNHENB",
        "type": "STEER_TO",
        "delayTime": 0.30000001192092896,
        "duration": 0.800000011920929,
        "aliasList": [
          "20481"
        ],
        "steerType": "TO_LOCAL_AVATAR",
        "useSteerAnim": true,
        "interruptFreestyle": true,
        "forceSteer": true,
        "targetNpcAlias": "",
        "BHGPHGNFCBF": ""
      },
      {
        "$type": "IEKHMHNHENB",
        "type": "STEER_TO",
        "delayTime": 0.30000001192092896,
        "duration": 0.800000011920929,
        "aliasList": [
          "Avatar"
        ],
        "steerType": "TO_TARGET",
        "useSteerAnim": true,
        "interruptFreestyle": true,
        "forceSteer": true,
        "targetNpcAlias": "20481",
        "BHGPHGNFCBF": ""
      }
    ],
    [
      {
        "$type": "MJFAIFFAGOF",
        "type": "DIALOG",
        "aliasList": [
          "20481"
        ],
        "dialogID": 722400101,
        "protectTime": 0.5
      }
    ],
    [
      {
        "$type": "MJFAIFFAGOF",
        "type": "DIALOG",
        "aliasList": [
          "1005"
        ],
        "dialogID": 722400102,
        "protectTime": 0.5
      }
    ],
    [
      {
        "$type": "MJFAIFFAGOF",
        "type": "DIALOG",
        "aliasList": [
          "20481"
        ],
        "dialogID": 722400103,
        "protectTime": 0.5
      }
    ],
    [
      {
        "$type": "MJFAIFFAGOF",
        "type": "DIALOG",
        "aliasList": [
          "1005"
        ],
        "dialogID": 722400104,
        "protectTime": 0.5
      }
    ],
    [
      {
        "$type": "MJFAIFFAGOF",
        "type": "DIALOG",
        "aliasList": [
          "20481"
        ],
        "dialogID": 722400105,
        "protectTime": 0.5
      }
    ],
    [
      {
        "$type": "MJFAIFFAGOF",
        "type": "DIALOG",
        "aliasList": [
          "1005"
        ],
        "dialogID": 722400106,
        "protectTime": 0.5
      }
    ],
    [
      {
        "$type": "MJFAIFFAGOF",
        "type": "DIALOG",
        "aliasList": [
          "20481"
        ],
        "dialogID": 722400107,
        "protectTime": 0.5
      }
    ],
    [
      {
        "$type": "MJFAIFFAGOF",
        "type": "DIALOG",
        "aliasList": [
          "20481"
        ],
        "dialogID": 722400108,
        "protectTime": 0.5
      }
    ],
    [
      {
        "$type": "MJFAIFFAGOF",
        "type": "DIALOG",
        "aliasList": [
          "20481"
        ],
        "dialogID": 722400109,
        "protectTime": 0.5
      },
      {
        "$type": "OBCDECFOOBC",
        "type": "DIALOG_SELECT",
        "delayTime": 0.4000000059604645,
        "aliasList": [
          "Avatar"
        ],
        "dialogIDList": [
          722400110
        ],
        "grpIDList": [
          3870436959
        ],
        "useGrpId": true
      }
    ],
    [
      {
        "$type": "MJFAIFFAGOF",
        "type": "DIALOG",
        "aliasList": [
          "20481"
        ],
        "dialogID": 722400111,
        "protectTime": 0.5
      }
    ],
    [
      {
        "$type": "MJFAIFFAGOF",
        "type": "DIALOG",
        "aliasList": [
          "20481"
        ],
        "dialogID": 722400112,
        "protectTime": 0.5
      }
    ],
    [
      {
        "$type": "MJFAIFFAGOF",
        "type": "DIALOG",
        "aliasList": [
          "20481"
        ],
        "dialogID": 722400113,
        "protectTime": 0.5
      }
    ],
    [
      {
        "$type": "MJFAIFFAGOF",
        "type": "DIALOG",
        "aliasList": [
          "20481"
        ],
        "dialogID": 722400114,
        "protectTime": 0.5
      }
    ],
    [
      {
        "$type": "MJFAIFFAGOF",
        "type": "DIALOG",
        "aliasList": [
          "1005"
        ],
        "dialogID": 722400115,
        "protectTime": 0.5
      }
    ],
    [
      {
        "$type": "MJFAIFFAGOF",
        "type": "DIALOG",
        "aliasList": [
          "20481"
        ],
        "dialogID": 722400116,
        "protectTime": 0.5
      }
    ],
    [
      {
        "$type": "MJFAIFFAGOF",
        "type": "DIALOG",
        "aliasList": [
          "20481"
        ],
        "dialogID": 722400129,
        "protectTime": 0.5
      }
    ],
    [
      {
        "$type": "MJFAIFFAGOF",
        "type": "DIALOG",
        "aliasList": [
          "20481"
        ],
        "dialogID": 722400117,
        "protectTime": 0.5
      }
    ],
    [
      {
        "$type": "MJFAIFFAGOF",
        "type": "DIALOG",
        "aliasList": [
          "1005"
        ],
        "dialogID": 722400118,
        "protectTime": 0.5
      }
    ],
    [
      {
        "$type": "MJFAIFFAGOF",
        "type": "DIALOG",
        "aliasList": [
          "20481"
        ],
        "dialogID": 722400119,
        "protectTime": 0.5
      }
    ],
    [
      {
        "$type": "MJFAIFFAGOF",
        "type": "DIALOG",
        "aliasList": [
          "1005"
        ],
        "dialogID": 722400120,
        "protectTime": 0.5
      }
    ],
    [
      {
        "$type": "MJFAIFFAGOF",
        "type": "DIALOG",
        "aliasList": [
          "20481"
        ],
        "dialogID": 722400121,
        "protectTime": 0.5
      }
    ],
    [
      {
        "$type": "MJFAIFFAGOF",
        "type": "DIALOG",
        "aliasList": [
          "20481"
        ],
        "dialogID": 722400122,
        "protectTime": 0.5
      }
    ],
    [
      {
        "$type": "MJFAIFFAGOF",
        "type": "DIALOG",
        "aliasList": [
          "1005"
        ],
        "dialogID": 722400123,
        "protectTime": 0.5
      }
    ],
    [
      {
        "$type": "MJFAIFFAGOF",
        "type": "DIALOG",
        "aliasList": [
          "20481"
        ],
        "dialogID": 722400124,
        "protectTime": 0.5
      }
    ],
    [
      {
        "$type": "MJFAIFFAGOF",
        "type": "DIALOG",
        "aliasList": [
          "1005"
        ],
        "dialogID": 722400125,
        "protectTime": 0.5
      }
    ],
    [
      {
        "$type": "MJFAIFFAGOF",
        "type": "DIALOG",
        "aliasList": [
          "20481"
        ],
        "dialogID": 722400126,
        "protectTime": 0.5
      }
    ],
    [
      {
        "$type": "MJFAIFFAGOF",
        "type": "DIALOG",
        "aliasList": [
          "1005"
        ],
        "dialogID": 722400127,
        "protectTime": 0.5
      }
    ],
    [
      {
        "$type": "MJFAIFFAGOF",
        "type": "DIALOG",
        "aliasList": [
          "20481"
        ],
        "dialogID": 722400128,
        "protectTime": 0.5
      }
    ],
    [
      {
        "$type": "MoleMole.Config.ConfigTimeProtectAction",
        "type": "TIME_PROTECT",
        "duration": 0.10000000149011612
      }
    ]
  ],
  "groupId": [
    {
      "grpId": 2757252114,
      "nextGrpId": 2757252115
    },
    {
      "index": 1,
      "grpId": 2757252115,
      "nextGrpId": 2757252116
    },
    {
      "index": 2,
      "grpId": 2757252116,
      "nextGrpId": 2757252117
    },
    {
      "index": 3,
      "grpId": 2757252117,
      "nextGrpId": 2757252118
    },
    {
      "index": 4,
      "grpId": 2757252118,
      "nextGrpId": 2757252119
    },
    {
      "index": 5,
      "grpId": 2757252119,
      "nextGrpId": 2757252120
    },
    {
      "index": 6,
      "grpId": 2757252120,
      "nextGrpId": 2757252121
    },
    {
      "index": 7,
      "grpId": 2757252121,
      "nextGrpId": 2757252122
    },
    {
      "index": 8,
      "grpId": 2757252122,
      "nextGrpId": 3870436958
    },
    {
      "index": 9,
      "grpId": 3870436958,
      "nextGrpId": 3870436959
    },
    {
      "index": 10,
      "grpId": 3870436959,
      "nextGrpId": 3870436960
    },
    {
      "index": 11,
      "grpId": 3870436960,
      "nextGrpId": 3870436961
    },
    {
      "index": 12,
      "grpId": 3870436961,
      "nextGrpId": 3870436962
    },
    {
      "index": 13,
      "grpId": 3870436962,
      "nextGrpId": 3870436963
    },
    {
      "index": 14,
      "grpId": 3870436963,
      "nextGrpId": 3870436964
    },
    {
      "index": 15,
      "grpId": 3870436964,
      "nextGrpId": 3870436965
    },
    {
      "index": 16,
      "grpId": 3870436965,
      "nextGrpId": 3870436966
    },
    {
      "index": 17,
      "grpId": 3870436966,
      "nextGrpId": 3870436967
    },
    {
      "index": 18,
      "grpId": 3870436967,
      "nextGrpId": 3870436989
    },
    {
      "index": 19,
      "grpId": 3870436989,
      "nextGrpId": 3870436990
    },
    {
      "index": 20,
      "grpId": 3870436990,
      "nextGrpId": 3870436991
    },
    {
      "index": 21,
      "grpId": 3870436991,
      "nextGrpId": 3870436992
    },
    {
      "index": 22,
      "grpId": 3870436992,
      "nextGrpId": 3870436993
    },
    {
      "index": 23,
      "grpId": 3870436993,
      "nextGrpId": 3870436994
    },
    {
      "index": 24,
      "grpId": 3870436994,
      "nextGrpId": 3870436995
    },
    {
      "index": 25,
      "grpId": 3870436995,
      "nextGrpId": 3870436996
    },
    {
      "index": 26,
      "grpId": 3870436996,
      "nextGrpId": 3870436997
    },
    {
      "index": 27,
      "grpId": 3870436997,
      "nextGrpId": 3870436998
    },
    {
      "index": 28,
      "grpId": 3870436998,
      "nextGrpId": 3870437020
    },
    {
      "index": 29,
      "grpId": 3870437020,
      "nextGrpId": 3870437021
    }
  ],
  "freeStyleDic": {
    "20481": []
  }
}