{
  "143bbc90-f1f1-47a0-ab2a-d547ba0e3880": {
    "guid": "143bbc90-f1f1-47a0-ab2a-d547ba0e3880",
    "playRate": 1.0,
    "gameTrigger": "Dialog",
    "gameTriggerArgs": 400145406,
    "personalConfig": 2,
    "parentID": "b0bab19e-20e4-4cef-97e9-2bdea8abc0bc",
    "sourceNames": [
      {
        "sourceFileName": "VO_freetalk\\VO_chongyun\\vo_dialog_EQZYJ001_chongyun_03.wem",
        "rate": 1.0,
        "avatarName": "",
        "emotion": ""
      }
    ]
  },
  "362e8db0-7fea-4fab-b217-4f33087db143": {
    "guid": "362e8db0-7fea-4fab-b217-4f33087db143",
    "playRate": 1.0,
    "gameTrigger": "Dialog",
    "gameTriggerArgs": 400961006,
    "personalConfig": 2,
    "parentID": "b0bab19e-20e4-4cef-97e9-2bdea8abc0bc",
    "sourceNames": [
      {
        "sourceFileName": "VO_freetalk\\VO_chongyun\\vo_dialog_talk_EQHDJ201_chongyun_03.wem",
        "rate": 1.0,
        "avatarName": "",
        "emotion": ""
      }
    ]
  },
  "452a4042-53eb-4413-8fe8-1c5456530f3f": {
    "guid": "452a4042-53eb-4413-8fe8-1c5456530f3f",
    "playRate": 1.0,
    "gameTrigger": "Dialog",
    "gameTriggerArgs": 401231301,
    "personalConfig": 2,
    "parentID": "b0bab19e-20e4-4cef-97e9-2bdea8abc0bc",
    "sourceNames": [
      {
        "sourceFileName": "VO_freetalk\\VO_chongyun\\vo_dialog_SGEQ001_chongyun_01.wem",
        "rate": 1.0,
        "avatarName": "",
        "emotion": ""
      }
    ]
  },
  "5bd291c1-6aa2-47d8-86f5-e73a50a3a0ac": {
    "guid": "5bd291c1-6aa2-47d8-86f5-e73a50a3a0ac",
    "playRate": 1.0,
    "gameTrigger": "Dialog",
    "gameTriggerArgs": 400145402,
    "personalConfig": 2,
    "parentID": "b0bab19e-20e4-4cef-97e9-2bdea8abc0bc",
    "sourceNames": [
      {
        "sourceFileName": "VO_freetalk\\VO_chongyun\\vo_dialog_EQZYJ001_chongyun_01.wem",
        "rate": 1.0,
        "avatarName": "",
        "emotion": ""
      }
    ]
  },
  "5cfc180a-71f4-4f97-8480-20ef993b5686": {
    "guid": "5cfc180a-71f4-4f97-8480-20ef993b5686",
    "playRate": 1.0,
    "gameTrigger": "Dialog",
    "gameTriggerArgs": 401231303,
    "personalConfig": 2,
    "parentID": "b0bab19e-20e4-4cef-97e9-2bdea8abc0bc",
    "sourceNames": [
      {
        "sourceFileName": "VO_freetalk\\VO_chongyun\\vo_dialog_SGEQ001_chongyun_02.wem",
        "rate": 1.0,
        "avatarName": "",
        "emotion": ""
      }
    ]
  },
  "625c2837-73fd-4821-ba6f-524926f2c642": {
    "guid": "625c2837-73fd-4821-ba6f-524926f2c642",
    "playRate": 1.0,
    "gameTrigger": "Dialog",
    "gameTriggerArgs": 400145404,
    "personalConfig": 2,
    "parentID": "b0bab19e-20e4-4cef-97e9-2bdea8abc0bc",
    "sourceNames": [
      {
        "sourceFileName": "VO_freetalk\\VO_chongyun\\vo_dialog_EQZYJ001_chongyun_02.wem",
        "rate": 1.0,
        "avatarName": "",
        "emotion": ""
      }
    ]
  },
  "89fe72ff-1d1a-4acd-abe0-bbbb3dbdf174": {
    "guid": "89fe72ff-1d1a-4acd-abe0-bbbb3dbdf174",
    "playRate": 1.0,
    "gameTrigger": "Dialog",
    "gameTriggerArgs": 400961001,
    "personalConfig": 2,
    "parentID": "b0bab19e-20e4-4cef-97e9-2bdea8abc0bc",
    "sourceNames": [
      {
        "sourceFileName": "VO_freetalk\\VO_chongyun\\vo_dialog_talk_EQHDJ201_chongyun_01.wem",
        "rate": 1.0,
        "avatarName": "",
        "emotion": ""
      }
    ]
  },
  "d8b6f208-8730-402e-868b-d4aad0c0628c": {
    "guid": "d8b6f208-8730-402e-868b-d4aad0c0628c",
    "playRate": 1.0,
    "gameTrigger": "Dialog",
    "gameTriggerArgs": 400961003,
    "personalConfig": 2,
    "parentID": "b0bab19e-20e4-4cef-97e9-2bdea8abc0bc",
    "sourceNames": [
      {
        "sourceFileName": "VO_freetalk\\VO_chongyun\\vo_dialog_talk_EQHDJ201_chongyun_02.wem",
        "rate": 1.0,
        "avatarName": "",
        "emotion": ""
      }
    ]
  }
}