{
  "080aa1c6-140f-423a-aa25-77245ed49f4c": {
    "guid": "080aa1c6-140f-423a-aa25-77245ed49f4c",
    "playRate": 1.0,
    "gameTrigger": "Dialog",
    "gameTriggerArgs": 401133306,
    "personalConfig": 2,
    "parentID": "29f4618a-8d84-4d4b-a5a6-0f755ff87e39",
    "sourceNames": [
      {
        "sourceFileName": "VO_freetalk\\VO_collei\\vo_dialog_YQEQ202_collei_03.wem",
        "rate": 1.0,
        "avatarName": "",
        "emotion": ""
      }
    ]
  },
  "0e33103a-5153-4aed-996b-b4f8b5c31db4": {
    "guid": "0e33103a-5153-4aed-996b-b4f8b5c31db4",
    "playRate": 1.0,
    "gameTrigger": "Dialog",
    "gameTriggerArgs": 30015102,
    "personalConfig": 2,
    "parentID": "29f4618a-8d84-4d4b-a5a6-0f755ff87e39",
    "sourceNames": [
      {
        "sourceFileName": "VO_AQ\\VO_collei\\vo_dialog_XMAQ002_collei_02.wem",
        "rate": 1.0,
        "avatarName": "",
        "emotion": ""
      }
    ]
  },
  "0e6d9efb-ad01-40f2-b5a4-9303e0fa3d91": {
    "guid": "0e6d9efb-ad01-40f2-b5a4-9303e0fa3d91",
    "playRate": 1.0,
    "gameTrigger": "Dialog",
    "gameTriggerArgs": 400972311,
    "personalConfig": 2,
    "parentID": "29f4618a-8d84-4d4b-a5a6-0f755ff87e39",
    "sourceNames": [
      {
        "sourceFileName": "VO_freetalk\\VO_collei\\vo_dialog_EQFH101_collei_09.wem",
        "rate": 1.0,
        "avatarName": "",
        "emotion": ""
      }
    ]
  },
  "11a2b404-2a62-467f-a8d1-4522f6d4678f": {
    "guid": "11a2b404-2a62-467f-a8d1-4522f6d4678f",
    "playRate": 1.0,
    "gameTrigger": "Dialog",
    "gameTriggerArgs": 735005401,
    "personalConfig": 2,
    "parentID": "29f4618a-8d84-4d4b-a5a6-0f755ff87e39",
    "sourceNames": [
      {
        "sourceFileName": "VO_EQ\\VO_collei\\vo_dialog_MKEQ001_collei_01.wem",
        "rate": 1.0,
        "avatarName": "",
        "emotion": ""
      }
    ]
  },
  "19eb2b29-5b3b-46e4-9b26-0665017fb152": {
    "guid": "19eb2b29-5b3b-46e4-9b26-0665017fb152",
    "playRate": 1.0,
    "gameTrigger": "Dialog",
    "gameTriggerArgs": 401133302,
    "personalConfig": 2,
    "parentID": "29f4618a-8d84-4d4b-a5a6-0f755ff87e39",
    "sourceNames": [
      {
        "sourceFileName": "VO_freetalk\\VO_collei\\vo_dialog_YQEQ202_collei_01.wem",
        "rate": 1.0,
        "avatarName": "",
        "emotion": ""
      }
    ]
  },
  "23d27b9f-98a8-4641-95c7-5ac89fccb320": {
    "guid": "23d27b9f-98a8-4641-95c7-5ac89fccb320",
    "playRate": 1.0,
    "gameTrigger": "Dialog",
    "gameTriggerArgs": 400992302,
    "personalConfig": 2,
    "parentID": "29f4618a-8d84-4d4b-a5a6-0f755ff87e39",
    "sourceNames": [
      {
        "sourceFileName": "VO_freetalk\\VO_collei\\vo_dialog_EQFH103_collei_01.wem",
        "rate": 1.0,
        "avatarName": "",
        "emotion": ""
      }
    ]
  },
  "2526ecf6-9292-4f3d-ab72-80c598afec25": {
    "guid": "2526ecf6-9292-4f3d-ab72-80c598afec25",
    "playRate": 1.0,
    "gameTrigger": "Dialog",
    "gameTriggerArgs": 400972305,
    "personalConfig": 2,
    "parentID": "29f4618a-8d84-4d4b-a5a6-0f755ff87e39",
    "sourceNames": [
      {
        "sourceFileName": "VO_freetalk\\VO_collei\\vo_dialog_EQFH101_collei_05.wem",
        "rate": 1.0,
        "avatarName": "",
        "emotion": ""
      }
    ]
  },
  "28e82572-98dc-4cf9-8237-8323f709a826": {
    "guid": "28e82572-98dc-4cf9-8237-8323f709a826",
    "playRate": 1.0,
    "gameTrigger": "Dialog",
    "gameTriggerArgs": 130365303,
    "personalConfig": 2,
    "parentID": "29f4618a-8d84-4d4b-a5a6-0f755ff87e39",
    "sourceNames": [
      {
        "sourceFileName": "VO_freetalk\\VO_collei\\vo_dialog_CNLQ102_collei_03.wem",
        "rate": 1.0,
        "avatarName": "",
        "emotion": ""
      }
    ]
  },
  "44163396-c16e-44c1-809c-c151b503879e": {
    "guid": "44163396-c16e-44c1-809c-c151b503879e",
    "playRate": 1.0,
    "gameTrigger": "Dialog",
    "gameTriggerArgs": 400972307,
    "personalConfig": 2,
    "parentID": "29f4618a-8d84-4d4b-a5a6-0f755ff87e39",
    "sourceNames": [
      {
        "sourceFileName": "VO_freetalk\\VO_collei\\vo_dialog_EQFH101_collei_07.wem",
        "rate": 1.0,
        "avatarName": "",
        "emotion": ""
      }
    ]
  },
  "4567b148-09a8-4a8b-8ea8-0c892aa4b5e6": {
    "guid": "4567b148-09a8-4a8b-8ea8-0c892aa4b5e6",
    "playRate": 1.0,
    "gameTrigger": "Dialog",
    "gameTriggerArgs": 735063612,
    "personalConfig": 2,
    "parentID": "29f4618a-8d84-4d4b-a5a6-0f755ff87e39",
    "sourceNames": [
      {
        "sourceFileName": "VO_freetalk\\VO_collei\\vo_dialog_LXEQ002_collei_06.wem",
        "rate": 1.0,
        "avatarName": "",
        "emotion": ""
      }
    ]
  },
  "456cbb73-e650-44c9-ac66-9aee0091a973": {
    "guid": "456cbb73-e650-44c9-ac66-9aee0091a973",
    "playRate": 1.0,
    "gameTrigger": "Dialog",
    "gameTriggerArgs": 30260904,
    "personalConfig": 2,
    "parentID": "29f4618a-8d84-4d4b-a5a6-0f755ff87e39",
    "sourceNames": [
      {
        "sourceFileName": "VO_freetalk\\VO_collei\\vo_dialog_XMAQ305_collei_03.wem",
        "rate": 1.0,
        "avatarName": "",
        "emotion": ""
      }
    ]
  },
  "4830dbc0-deef-4bf4-886b-e5748a35bf35": {
    "guid": "4830dbc0-deef-4bf4-886b-e5748a35bf35",
    "playRate": 1.0,
    "gameTrigger": "Dialog",
    "gameTriggerArgs": 400992314,
    "personalConfig": 2,
    "parentID": "29f4618a-8d84-4d4b-a5a6-0f755ff87e39",
    "sourceNames": [
      {
        "sourceFileName": "VO_freetalk\\VO_collei\\vo_dialog_EQFH103_collei_05.wem",
        "rate": 1.0,
        "avatarName": "",
        "emotion": ""
      }
    ]
  },
  "49dd9a5e-78b0-46c2-a71a-a3bb7552e975": {
    "guid": "49dd9a5e-78b0-46c2-a71a-a3bb7552e975",
    "playRate": 1.0,
    "gameTrigger": "Dialog",
    "gameTriggerArgs": 401133304,
    "personalConfig": 2,
    "parentID": "29f4618a-8d84-4d4b-a5a6-0f755ff87e39",
    "sourceNames": [
      {
        "sourceFileName": "VO_freetalk\\VO_collei\\vo_dialog_YQEQ202_collei_02.wem",
        "rate": 1.0,
        "avatarName": "",
        "emotion": ""
      }
    ]
  },
  "4b200009-dd7f-4df9-b1f3-34f284e8f4d2": {
    "guid": "4b200009-dd7f-4df9-b1f3-34f284e8f4d2",
    "playRate": 1.0,
    "gameTrigger": "Dialog",
    "gameTriggerArgs": 735063709,
    "personalConfig": 2,
    "parentID": "29f4618a-8d84-4d4b-a5a6-0f755ff87e39",
    "sourceNames": [
      {
        "sourceFileName": "VO_freetalk\\VO_collei\\vo_dialog_LXEQ002_collei_11.wem",
        "rate": 1.0,
        "avatarName": "",
        "emotion": ""
      }
    ]
  },
  "545374b4-7912-44e5-b0b6-a2547d04fe41": {
    "guid": "545374b4-7912-44e5-b0b6-a2547d04fe41",
    "playRate": 1.0,
    "gameTrigger": "Dialog",
    "gameTriggerArgs": 400971701,
    "personalConfig": 2,
    "parentID": "29f4618a-8d84-4d4b-a5a6-0f755ff87e39",
    "sourceNames": [
      {
        "sourceFileName": "VO_freetalk\\VO_collei\\vo_dialog_EQFH101_collei_01.wem",
        "rate": 1.0,
        "avatarName": "",
        "emotion": ""
      }
    ]
  },
  "554b025c-98ac-4b65-abd1-0f2e8b6654cd": {
    "guid": "554b025c-98ac-4b65-abd1-0f2e8b6654cd",
    "playRate": 1.0,
    "gameTrigger": "Dialog",
    "gameTriggerArgs": 735063611,
    "personalConfig": 2,
    "parentID": "29f4618a-8d84-4d4b-a5a6-0f755ff87e39",
    "sourceNames": [
      {
        "sourceFileName": "VO_freetalk\\VO_collei\\vo_dialog_LXEQ002_collei_05.wem",
        "rate": 1.0,
        "avatarName": "",
        "emotion": ""
      }
    ]
  },
  "55519ada-126b-48f4-9a83-4ee055bf19b1": {
    "guid": "55519ada-126b-48f4-9a83-4ee055bf19b1",
    "playRate": 1.0,
    "gameTrigger": "Dialog",
    "gameTriggerArgs": 735063603,
    "personalConfig": 2,
    "parentID": "29f4618a-8d84-4d4b-a5a6-0f755ff87e39",
    "sourceNames": [
      {
        "sourceFileName": "VO_freetalk\\VO_collei\\vo_dialog_LXEQ002_collei_02.wem",
        "rate": 1.0,
        "avatarName": "",
        "emotion": ""
      }
    ]
  },
  "58d0425e-3cd1-4326-ba4d-2a444f06ff61": {
    "guid": "58d0425e-3cd1-4326-ba4d-2a444f06ff61",
    "playRate": 1.0,
    "gameTrigger": "Dialog",
    "gameTriggerArgs": 30170801,
    "personalConfig": 2,
    "parentID": "29f4618a-8d84-4d4b-a5a6-0f755ff87e39",
    "sourceNames": [
      {
        "sourceFileName": "VO_freetalk\\VO_collei\\vo_dialog_XMAQ102_collei_01.wem",
        "rate": 1.0,
        "avatarName": "",
        "emotion": ""
      }
    ]
  },
  "5c0b8448-24a0-424b-9705-13b44eb21f29": {
    "guid": "5c0b8448-24a0-424b-9705-13b44eb21f29",
    "playRate": 1.0,
    "gameTrigger": "Dialog",
    "gameTriggerArgs": 400972303,
    "personalConfig": 2,
    "parentID": "29f4618a-8d84-4d4b-a5a6-0f755ff87e39",
    "sourceNames": [
      {
        "sourceFileName": "VO_freetalk\\VO_collei\\vo_dialog_EQFH101_collei_04.wem",
        "rate": 1.0,
        "avatarName": "",
        "emotion": ""
      }
    ]
  },
  "5c60d069-f2de-4a66-9e36-eb2cd524d5b0": {
    "guid": "5c60d069-f2de-4a66-9e36-eb2cd524d5b0",
    "playRate": 1.0,
    "gameTrigger": "Dialog",
    "gameTriggerArgs": 130365306,
    "personalConfig": 2,
    "parentID": "29f4618a-8d84-4d4b-a5a6-0f755ff87e39",
    "sourceNames": [
      {
        "sourceFileName": "VO_freetalk\\VO_collei\\vo_dialog_CNLQ102_collei_05.wem",
        "rate": 1.0,
        "avatarName": "",
        "emotion": ""
      }
    ]
  },
  "66d61384-bbba-4739-9c4c-f8fe8fd64dd0": {
    "guid": "66d61384-bbba-4739-9c4c-f8fe8fd64dd0",
    "playRate": 1.0,
    "gameTrigger": "Dialog",
    "gameTriggerArgs": 400972306,
    "personalConfig": 2,
    "parentID": "29f4618a-8d84-4d4b-a5a6-0f755ff87e39",
    "sourceNames": [
      {
        "sourceFileName": "VO_freetalk\\VO_collei\\vo_dialog_EQFH101_collei_06.wem",
        "rate": 1.0,
        "avatarName": "",
        "emotion": ""
      }
    ]
  },
  "671b30a5-b992-4ada-99b3-ac14da16bc48": {
    "guid": "671b30a5-b992-4ada-99b3-ac14da16bc48",
    "playRate": 1.0,
    "gameTrigger": "Dialog",
    "gameTriggerArgs": 30015101,
    "personalConfig": 2,
    "parentID": "29f4618a-8d84-4d4b-a5a6-0f755ff87e39",
    "sourceNames": [
      {
        "sourceFileName": "VO_AQ\\VO_collei\\vo_dialog_XMAQ002_collei_01.wem",
        "rate": 1.0,
        "avatarName": "",
        "emotion": ""
      }
    ]
  },
  "6852b3cd-1989-4923-b058-087ac74cfb74": {
    "guid": "6852b3cd-1989-4923-b058-087ac74cfb74",
    "playRate": 1.0,
    "gameTrigger": "Dialog",
    "gameTriggerArgs": 130365301,
    "personalConfig": 2,
    "parentID": "29f4618a-8d84-4d4b-a5a6-0f755ff87e39",
    "sourceNames": [
      {
        "sourceFileName": "VO_freetalk\\VO_collei\\vo_dialog_CNLQ102_collei_02.wem",
        "rate": 1.0,
        "avatarName": "",
        "emotion": ""
      }
    ]
  },
  "6e0da1f8-3e75-4de0-9031-0a28041ccb85": {
    "guid": "6e0da1f8-3e75-4de0-9031-0a28041ccb85",
    "playRate": 1.0,
    "gameTrigger": "Dialog",
    "gameTriggerArgs": 735063607,
    "personalConfig": 2,
    "parentID": "29f4618a-8d84-4d4b-a5a6-0f755ff87e39",
    "sourceNames": [
      {
        "sourceFileName": "VO_freetalk\\VO_collei\\vo_dialog_LXEQ002_collei_03a.wem",
        "rate": 1.0,
        "avatarName": "",
        "emotion": "",
        "gender": 2
      },
      {
        "sourceFileName": "VO_freetalk\\VO_collei\\vo_dialog_LXEQ002_collei_03b.wem",
        "rate": 1.0,
        "avatarName": "",
        "emotion": "",
        "gender": 1
      }
    ]
  },
  "702a680b-a7c9-40c7-b163-7c5fd2590828": {
    "guid": "702a680b-a7c9-40c7-b163-7c5fd2590828",
    "playRate": 1.0,
    "gameTrigger": "Dialog",
    "gameTriggerArgs": 400992310,
    "personalConfig": 2,
    "parentID": "29f4618a-8d84-4d4b-a5a6-0f755ff87e39",
    "sourceNames": [
      {
        "sourceFileName": "VO_freetalk\\VO_collei\\vo_dialog_EQFH103_collei_03.wem",
        "rate": 1.0,
        "avatarName": "",
        "emotion": ""
      }
    ]
  },
  "776e47ef-44b3-46b3-bef6-2cdddbda05e4": {
    "guid": "776e47ef-44b3-46b3-bef6-2cdddbda05e4",
    "playRate": 1.0,
    "gameTrigger": "Dialog",
    "gameTriggerArgs": 400972302,
    "personalConfig": 2,
    "parentID": "29f4618a-8d84-4d4b-a5a6-0f755ff87e39",
    "sourceNames": [
      {
        "sourceFileName": "VO_freetalk\\VO_collei\\vo_dialog_EQFH101_collei_03.wem",
        "rate": 1.0,
        "avatarName": "",
        "emotion": ""
      }
    ]
  },
  "798337c3-46b0-4c3e-a371-434104eab95c": {
    "guid": "798337c3-46b0-4c3e-a371-434104eab95c",
    "playRate": 1.0,
    "gameTrigger": "Dialog",
    "gameTriggerArgs": 30260901,
    "personalConfig": 2,
    "parentID": "29f4618a-8d84-4d4b-a5a6-0f755ff87e39",
    "sourceNames": [
      {
        "sourceFileName": "VO_freetalk\\VO_collei\\vo_dialog_XMAQ305_collei_01.wem",
        "rate": 1.0,
        "avatarName": "",
        "emotion": ""
      }
    ]
  },
  "7a20d837-622c-4ab9-9d18-83cf18e80e88": {
    "guid": "7a20d837-622c-4ab9-9d18-83cf18e80e88",
    "playRate": 1.0,
    "gameTrigger": "Dialog",
    "gameTriggerArgs": 400972310,
    "personalConfig": 2,
    "parentID": "29f4618a-8d84-4d4b-a5a6-0f755ff87e39",
    "sourceNames": [
      {
        "sourceFileName": "VO_freetalk\\VO_collei\\vo_dialog_EQFH101_collei_08.wem",
        "rate": 1.0,
        "avatarName": "",
        "emotion": ""
      }
    ]
  },
  "7b35c80f-d3c6-42e5-a1c1-1e293843c5cb": {
    "guid": "7b35c80f-d3c6-42e5-a1c1-1e293843c5cb",
    "playRate": 1.0,
    "gameTrigger": "Dialog",
    "gameTriggerArgs": 130365308,
    "personalConfig": 2,
    "parentID": "29f4618a-8d84-4d4b-a5a6-0f755ff87e39",
    "sourceNames": [
      {
        "sourceFileName": "VO_freetalk\\VO_collei\\vo_dialog_CNLQ102_collei_06.wem",
        "rate": 1.0,
        "avatarName": "",
        "emotion": ""
      }
    ]
  },
  "7d3c68fb-9fa5-4ffa-9d68-23c68c0bc30e": {
    "guid": "7d3c68fb-9fa5-4ffa-9d68-23c68c0bc30e",
    "playRate": 1.0,
    "gameTrigger": "Dialog",
    "gameTriggerArgs": 735063601,
    "personalConfig": 2,
    "parentID": "29f4618a-8d84-4d4b-a5a6-0f755ff87e39",
    "sourceNames": [
      {
        "sourceFileName": "VO_freetalk\\VO_collei\\vo_dialog_LXEQ002_collei_01.wem",
        "rate": 1.0,
        "avatarName": "",
        "emotion": ""
      }
    ]
  },
  "973bcbcb-15ad-4d9a-b51a-c6133cac98bd": {
    "guid": "973bcbcb-15ad-4d9a-b51a-c6133cac98bd",
    "playRate": 1.0,
    "gameTrigger": "Dialog",
    "gameTriggerArgs": 130365304,
    "personalConfig": 2,
    "parentID": "29f4618a-8d84-4d4b-a5a6-0f755ff87e39",
    "sourceNames": [
      {
        "sourceFileName": "VO_freetalk\\VO_collei\\vo_dialog_CNLQ102_collei_04.wem",
        "rate": 1.0,
        "avatarName": "",
        "emotion": ""
      }
    ]
  },
  "9971a493-ed65-4f66-b894-eb1b313efc8c": {
    "guid": "9971a493-ed65-4f66-b894-eb1b313efc8c",
    "playRate": 1.0,
    "gameTrigger": "Dialog",
    "gameTriggerArgs": 735063610,
    "personalConfig": 2,
    "parentID": "29f4618a-8d84-4d4b-a5a6-0f755ff87e39",
    "sourceNames": [
      {
        "sourceFileName": "VO_freetalk\\VO_collei\\vo_dialog_LXEQ002_collei_04.wem",
        "rate": 1.0,
        "avatarName": "",
        "emotion": ""
      }
    ]
  },
  "9b74a333-8fac-4b38-bbb0-b75452a58b40": {
    "guid": "9b74a333-8fac-4b38-bbb0-b75452a58b40",
    "playRate": 1.0,
    "gameTrigger": "Dialog",
    "gameTriggerArgs": 400992305,
    "personalConfig": 2,
    "parentID": "29f4618a-8d84-4d4b-a5a6-0f755ff87e39",
    "sourceNames": [
      {
        "sourceFileName": "VO_freetalk\\VO_collei\\vo_dialog_EQFH103_collei_02.wem",
        "rate": 1.0,
        "avatarName": "",
        "emotion": ""
      }
    ]
  },
  "a7332e56-d91c-4c8b-9595-4ec28faa4724": {
    "guid": "a7332e56-d91c-4c8b-9595-4ec28faa4724",
    "playRate": 1.0,
    "gameTrigger": "Dialog",
    "gameTriggerArgs": 735063707,
    "personalConfig": 2,
    "parentID": "29f4618a-8d84-4d4b-a5a6-0f755ff87e39",
    "sourceNames": [
      {
        "sourceFileName": "VO_freetalk\\VO_collei\\vo_dialog_LXEQ002_collei_09.wem",
        "rate": 1.0,
        "avatarName": "",
        "emotion": ""
      }
    ]
  },
  "a9b5caec-71e9-4e6f-a8ad-293c0f6dbe8c": {
    "guid": "a9b5caec-71e9-4e6f-a8ad-293c0f6dbe8c",
    "playRate": 1.0,
    "gameTrigger": "Dialog",
    "gameTriggerArgs": 400992312,
    "personalConfig": 2,
    "parentID": "29f4618a-8d84-4d4b-a5a6-0f755ff87e39",
    "sourceNames": [
      {
        "sourceFileName": "VO_freetalk\\VO_collei\\vo_dialog_EQFH103_collei_04.wem",
        "rate": 1.0,
        "avatarName": "",
        "emotion": ""
      }
    ]
  },
  "ac04f835-60e1-4a55-99ac-1d00c4515ca3": {
    "guid": "ac04f835-60e1-4a55-99ac-1d00c4515ca3",
    "playRate": 1.0,
    "gameTrigger": "Dialog",
    "gameTriggerArgs": 401045205,
    "personalConfig": 2,
    "parentID": "29f4618a-8d84-4d4b-a5a6-0f755ff87e39",
    "sourceNames": [
      {
        "sourceFileName": "VO_freetalk\\VO_collei\\vo_dialog_XYJEQ005_collei_01.wem",
        "rate": 1.0,
        "avatarName": "",
        "emotion": ""
      }
    ]
  },
  "b03d70da-9b0d-4e4d-9593-d642c306dc07": {
    "guid": "b03d70da-9b0d-4e4d-9593-d642c306dc07",
    "playRate": 1.0,
    "gameTrigger": "Dialog",
    "gameTriggerArgs": 30047101,
    "personalConfig": 2,
    "parentID": "29f4618a-8d84-4d4b-a5a6-0f755ff87e39",
    "sourceNames": [
      {
        "sourceFileName": "VO_AQ\\VO_collei\\vo_dialog_XMAQ005_collei_01.wem",
        "rate": 1.0,
        "avatarName": "",
        "emotion": ""
      }
    ]
  },
  "caa3f881-6158-433f-b6ae-d75d8585afa3": {
    "guid": "caa3f881-6158-433f-b6ae-d75d8585afa3",
    "playRate": 1.0,
    "gameTrigger": "Dialog",
    "gameTriggerArgs": 130369909,
    "personalConfig": 2,
    "NJKDHJOHKCM": 1,
    "parentID": "29f4618a-8d84-4d4b-a5a6-0f755ff87e39",
    "sourceNames": [
      {
        "sourceFileName": "VO_freetalk\\VO_collei\\vo_dialog_CNLQ102_collei_07.wem",
        "rate": 1.0,
        "avatarName": "",
        "emotion": ""
      }
    ]
  },
  "ce5db2b4-81ae-41de-91a2-96d4e5f3d53f": {
    "guid": "ce5db2b4-81ae-41de-91a2-96d4e5f3d53f",
    "playRate": 1.0,
    "gameTrigger": "Dialog",
    "gameTriggerArgs": 400972301,
    "personalConfig": 2,
    "parentID": "29f4618a-8d84-4d4b-a5a6-0f755ff87e39",
    "sourceNames": [
      {
        "sourceFileName": "VO_freetalk\\VO_collei\\vo_dialog_EQFH101_collei_02.wem",
        "rate": 1.0,
        "avatarName": "",
        "emotion": ""
      }
    ]
  },
  "cf132570-8b38-44cd-b42a-43f1908819cc": {
    "guid": "cf132570-8b38-44cd-b42a-43f1908819cc",
    "playRate": 1.0,
    "gameTrigger": "Dialog",
    "gameTriggerArgs": 401006102,
    "personalConfig": 2,
    "parentID": "29f4618a-8d84-4d4b-a5a6-0f755ff87e39",
    "sourceNames": [
      {
        "sourceFileName": "VO_freetalk\\VO_collei\\vo_dialog_XYJEQ001_collei_01.wem",
        "rate": 1.0,
        "avatarName": "",
        "emotion": ""
      }
    ]
  },
  "d7ab4d39-0f7f-4118-b8d1-ba232feecbf4": {
    "guid": "d7ab4d39-0f7f-4118-b8d1-ba232feecbf4",
    "playRate": 1.0,
    "gameTrigger": "Dialog",
    "gameTriggerArgs": 735063701,
    "personalConfig": 2,
    "parentID": "29f4618a-8d84-4d4b-a5a6-0f755ff87e39",
    "sourceNames": [
      {
        "sourceFileName": "VO_freetalk\\VO_collei\\vo_dialog_LXEQ002_collei_07.wem",
        "rate": 1.0,
        "avatarName": "",
        "emotion": ""
      }
    ]
  },
  "d93234c8-c991-4eba-8ae4-c6b0fb2fd3d1": {
    "guid": "d93234c8-c991-4eba-8ae4-c6b0fb2fd3d1",
    "playRate": 1.0,
    "gameTrigger": "Dialog",
    "gameTriggerArgs": 735063708,
    "personalConfig": 2,
    "parentID": "29f4618a-8d84-4d4b-a5a6-0f755ff87e39",
    "sourceNames": [
      {
        "sourceFileName": "VO_freetalk\\VO_collei\\vo_dialog_LXEQ002_collei_10.wem",
        "rate": 1.0,
        "avatarName": "",
        "emotion": ""
      }
    ]
  },
  "dd010277-76cf-496f-8c09-95d285391828": {
    "guid": "dd010277-76cf-496f-8c09-95d285391828",
    "playRate": 1.0,
    "gameTrigger": "Dialog",
    "gameTriggerArgs": 401133308,
    "personalConfig": 2,
    "parentID": "29f4618a-8d84-4d4b-a5a6-0f755ff87e39",
    "sourceNames": [
      {
        "sourceFileName": "VO_freetalk\\VO_collei\\vo_dialog_YQEQ202_collei_04.wem",
        "rate": 1.0,
        "avatarName": "",
        "emotion": ""
      }
    ]
  },
  "e8994898-a62d-44a9-8f2b-c946500b19d7": {
    "guid": "e8994898-a62d-44a9-8f2b-c946500b19d7",
    "playRate": 1.0,
    "gameTrigger": "Dialog",
    "gameTriggerArgs": 735063705,
    "personalConfig": 2,
    "parentID": "29f4618a-8d84-4d4b-a5a6-0f755ff87e39",
    "sourceNames": [
      {
        "sourceFileName": "VO_freetalk\\VO_collei\\vo_dialog_LXEQ002_collei_08.wem",
        "rate": 1.0,
        "avatarName": "",
        "emotion": ""
      }
    ]
  },
  "ec21334c-c86f-4330-8e51-59c51f9c3c00": {
    "guid": "ec21334c-c86f-4330-8e51-59c51f9c3c00",
    "playRate": 1.0,
    "gameTrigger": "Dialog",
    "gameTriggerArgs": 401190301,
    "personalConfig": 2,
    "parentID": "29f4618a-8d84-4d4b-a5a6-0f755ff87e39",
    "sourceNames": [
      {
        "sourceFileName": "VO_freetalk\\VO_collei\\vo_dialog_YQEQ206_collei_01.wem",
        "rate": 1.0,
        "avatarName": "",
        "emotion": ""
      }
    ]
  },
  "f40ee7ca-b7d7-4cbe-b1c5-cfa6fcc53b29": {
    "guid": "f40ee7ca-b7d7-4cbe-b1c5-cfa6fcc53b29",
    "playRate": 1.0,
    "gameTrigger": "Dialog",
    "gameTriggerArgs": 735005402,
    "personalConfig": 2,
    "parentID": "29f4618a-8d84-4d4b-a5a6-0f755ff87e39",
    "sourceNames": [
      {
        "sourceFileName": "VO_EQ\\VO_collei\\vo_dialog_MKEQ001_collei_02.wem",
        "rate": 1.0,
        "avatarName": "",
        "emotion": ""
      }
    ]
  },
  "fc903068-8994-435f-98ca-9ebdc6a77481": {
    "guid": "fc903068-8994-435f-98ca-9ebdc6a77481",
    "playRate": 1.0,
    "gameTrigger": "Dialog",
    "gameTriggerArgs": 30260902,
    "personalConfig": 2,
    "parentID": "29f4618a-8d84-4d4b-a5a6-0f755ff87e39",
    "sourceNames": [
      {
        "sourceFileName": "VO_freetalk\\VO_collei\\vo_dialog_XMAQ305_collei_02.wem",
        "rate": 1.0,
        "avatarName": "",
        "emotion": ""
      }
    ]
  }
}