{
  "075a504d-04f2-4701-bfce-e17da13f2c9c": {
    "guid": "075a504d-04f2-4701-bfce-e17da13f2c9c",
    "playRate": 1.0,
    "gameTrigger": "Dialog",
    "gameTriggerArgs": 130310667,
    "personalConfig": 2,
    "parentID": "cb52d00e-85cb-42a9-9113-42db798a09d2",
    "sourceNames": [
      {
        "sourceFileName": "VO_LQ\\VO_npc\\vo_XGLQ202_6_ahangar_19.wem",
        "rate": 1.0,
        "avatarName": "",
        "emotion": ""
      }
    ]
  },
  "07920fc5-8a75-4860-acaf-0517650f0bd9": {
    "guid": "07920fc5-8a75-4860-acaf-0517650f0bd9",
    "playRate": 1.0,
    "gameTrigger": "Dialog",
    "gameTriggerArgs": 130310608,
    "personalConfig": 2,
    "parentID": "cb52d00e-85cb-42a9-9113-42db798a09d2",
    "sourceNames": [
      {
        "sourceFileName": "VO_LQ\\VO_yoimiya\\vo_XGLQ202_6_yoimiya_02.wem",
        "rate": 1.0,
        "avatarName": "",
        "emotion": ""
      }
    ]
  },
  "0db7da5a-9bdc-4326-ba7a-ac34ab2c0250": {
    "guid": "0db7da5a-9bdc-4326-ba7a-ac34ab2c0250",
    "playRate": 1.0,
    "gameTrigger": "Dialog",
    "gameTriggerArgs": 130310627,
    "personalConfig": 2,
    "parentID": "cb52d00e-85cb-42a9-9113-42db798a09d2",
    "sourceNames": [
      {
        "sourceFileName": "VO_LQ\\VO_npc\\vo_XGLQ202_6_ahangar_13.wem",
        "rate": 1.0,
        "avatarName": "",
        "emotion": ""
      }
    ]
  },
  "10a9ac5d-b94e-4ecf-ba1c-2438d8049e48": {
    "guid": "10a9ac5d-b94e-4ecf-ba1c-2438d8049e48",
    "playRate": 1.0,
    "gameTrigger": "Dialog",
    "gameTriggerArgs": 130310663,
    "personalConfig": 2,
    "parentID": "cb52d00e-85cb-42a9-9113-42db798a09d2",
    "sourceNames": [
      {
        "sourceFileName": "VO_LQ\\VO_yoimiya\\vo_XGLQ202_6_yoimiya_18.wem",
        "rate": 1.0,
        "avatarName": "",
        "emotion": ""
      }
    ]
  },
  "14c0be4a-f1ed-4f4b-8ee8-a9546f649a26": {
    "guid": "14c0be4a-f1ed-4f4b-8ee8-a9546f649a26",
    "playRate": 1.0,
    "gameTrigger": "Dialog",
    "gameTriggerArgs": 130310652,
    "personalConfig": 2,
    "parentID": "cb52d00e-85cb-42a9-9113-42db798a09d2",
    "sourceNames": [
      {
        "sourceFileName": "VO_LQ\\VO_npc\\vo_XGLQ202_6_niousha_06.wem",
        "rate": 1.0,
        "avatarName": "",
        "emotion": ""
      }
    ]
  },
  "14e384b0-aae2-4df7-9a01-722f5783b526": {
    "guid": "14e384b0-aae2-4df7-9a01-722f5783b526",
    "playRate": 1.0,
    "gameTrigger": "Dialog",
    "gameTriggerArgs": 130319910,
    "personalConfig": 2,
    "NJKDHJOHKCM": 1,
    "parentID": "cb52d00e-85cb-42a9-9113-42db798a09d2",
    "sourceNames": [
      {
        "sourceFileName": "VO_LQ\\VO_npc\\vo_XGLQ202_6_sadegh_01.wem",
        "rate": 1.0,
        "avatarName": "",
        "emotion": ""
      }
    ]
  },
  "19d00f66-7289-4710-906c-5e01bc4002cf": {
    "guid": "19d00f66-7289-4710-906c-5e01bc4002cf",
    "playRate": 1.0,
    "gameTrigger": "Dialog",
    "gameTriggerArgs": 130310642,
    "personalConfig": 2,
    "parentID": "cb52d00e-85cb-42a9-9113-42db798a09d2",
    "sourceNames": [
      {
        "sourceFileName": "VO_LQ\\VO_npc\\vo_XGLQ202_6_farid_01.wem",
        "rate": 1.0,
        "avatarName": "",
        "emotion": ""
      }
    ]
  },
  "1d493dd7-7b13-4f32-acab-5f959d785599": {
    "guid": "1d493dd7-7b13-4f32-acab-5f959d785599",
    "playRate": 1.0,
    "gameTrigger": "Dialog",
    "gameTriggerArgs": 130310632,
    "personalConfig": 2,
    "parentID": "cb52d00e-85cb-42a9-9113-42db798a09d2",
    "sourceNames": [
      {
        "sourceFileName": "VO_LQ\\VO_npc\\vo_XGLQ202_6_ahangar_17.wem",
        "rate": 1.0,
        "avatarName": "",
        "emotion": ""
      }
    ]
  },
  "20f3949f-8382-4b76-855a-88c6af0f1acd": {
    "guid": "20f3949f-8382-4b76-855a-88c6af0f1acd",
    "playRate": 1.0,
    "gameTrigger": "Dialog",
    "gameTriggerArgs": 130310616,
    "personalConfig": 2,
    "NJKDHJOHKCM": 1,
    "parentID": "cb52d00e-85cb-42a9-9113-42db798a09d2",
    "sourceNames": [
      {
        "sourceFileName": "VO_LQ\\VO_paimon\\vo_XGLQ202_6_paimon_03.wem",
        "rate": 1.0,
        "avatarName": "",
        "emotion": ""
      }
    ]
  },
  "21948b28-ea4b-42d3-a882-e5f8b5637e3f": {
    "guid": "21948b28-ea4b-42d3-a882-e5f8b5637e3f",
    "playRate": 1.0,
    "gameTrigger": "Dialog",
    "gameTriggerArgs": 130310620,
    "personalConfig": 2,
    "parentID": "cb52d00e-85cb-42a9-9113-42db798a09d2",
    "sourceNames": [
      {
        "sourceFileName": "VO_LQ\\VO_yoimiya\\vo_XGLQ202_6_yoimiya_05.wem",
        "rate": 1.0,
        "avatarName": "",
        "emotion": ""
      }
    ]
  },
  "2d1e9e8d-df47-49d6-85de-33124069f1a8": {
    "guid": "2d1e9e8d-df47-49d6-85de-33124069f1a8",
    "playRate": 1.0,
    "gameTrigger": "Dialog",
    "gameTriggerArgs": 130310673,
    "personalConfig": 2,
    "parentID": "cb52d00e-85cb-42a9-9113-42db798a09d2",
    "sourceNames": [
      {
        "sourceFileName": "VO_LQ\\VO_yoimiya\\vo_XGLQ202_6_yoimiya_22.wem",
        "rate": 1.0,
        "avatarName": "",
        "emotion": ""
      }
    ]
  },
  "2d4df9b6-7994-4729-a098-682bb29708f2": {
    "guid": "2d4df9b6-7994-4729-a098-682bb29708f2",
    "playRate": 1.0,
    "gameTrigger": "Dialog",
    "gameTriggerArgs": 130310607,
    "personalConfig": 2,
    "parentID": "cb52d00e-85cb-42a9-9113-42db798a09d2",
    "sourceNames": [
      {
        "sourceFileName": "VO_LQ\\VO_yoimiya\\vo_XGLQ202_6_yoimiya_01.wem",
        "rate": 1.0,
        "avatarName": "",
        "emotion": ""
      }
    ]
  },
  "32d445cf-b355-4baf-adf8-f013d867dd62": {
    "guid": "32d445cf-b355-4baf-adf8-f013d867dd62",
    "playRate": 1.0,
    "gameTrigger": "Dialog",
    "gameTriggerArgs": 130310611,
    "personalConfig": 2,
    "parentID": "cb52d00e-85cb-42a9-9113-42db798a09d2",
    "sourceNames": [
      {
        "sourceFileName": "VO_LQ\\VO_npc\\vo_XGLQ202_6_ahangar_05.wem",
        "rate": 1.0,
        "avatarName": "",
        "emotion": ""
      }
    ]
  },
  "32de293e-5eb8-4158-b0db-47bf4a095941": {
    "guid": "32de293e-5eb8-4158-b0db-47bf4a095941",
    "playRate": 1.0,
    "gameTrigger": "Dialog",
    "gameTriggerArgs": 130310658,
    "personalConfig": 2,
    "parentID": "cb52d00e-85cb-42a9-9113-42db798a09d2",
    "sourceNames": [
      {
        "sourceFileName": "VO_LQ\\VO_npc\\vo_XGLQ202_6_niousha_10.wem",
        "rate": 1.0,
        "avatarName": "",
        "emotion": ""
      }
    ]
  },
  "330fb441-8202-4513-b444-db3c47c42c54": {
    "guid": "330fb441-8202-4513-b444-db3c47c42c54",
    "playRate": 1.0,
    "gameTrigger": "Dialog",
    "gameTriggerArgs": 130310630,
    "personalConfig": 2,
    "parentID": "cb52d00e-85cb-42a9-9113-42db798a09d2",
    "sourceNames": [
      {
        "sourceFileName": "VO_LQ\\VO_yoimiya\\vo_XGLQ202_6_yoimiya_06.wem",
        "rate": 1.0,
        "avatarName": "",
        "emotion": ""
      }
    ]
  },
  "35e633bb-387c-43bc-a2fb-a125f9236663": {
    "guid": "35e633bb-387c-43bc-a2fb-a125f9236663",
    "playRate": 1.0,
    "gameTrigger": "Dialog",
    "gameTriggerArgs": 130310669,
    "personalConfig": 2,
    "parentID": "cb52d00e-85cb-42a9-9113-42db798a09d2",
    "sourceNames": [
      {
        "sourceFileName": "VO_LQ\\VO_npc\\vo_XGLQ202_6_ahangar_21.wem",
        "rate": 1.0,
        "avatarName": "",
        "emotion": ""
      }
    ]
  },
  "42e208bd-34c9-4496-9eb3-0872914454f4": {
    "guid": "42e208bd-34c9-4496-9eb3-0872914454f4",
    "playRate": 1.0,
    "gameTrigger": "Dialog",
    "gameTriggerArgs": 130310646,
    "personalConfig": 2,
    "parentID": "cb52d00e-85cb-42a9-9113-42db798a09d2",
    "sourceNames": [
      {
        "sourceFileName": "VO_LQ\\VO_npc\\vo_XGLQ202_6_niousha_02.wem",
        "rate": 1.0,
        "avatarName": "",
        "emotion": ""
      }
    ]
  },
  "4e17deb2-8cb2-4e6f-9226-2f622eb75a95": {
    "guid": "4e17deb2-8cb2-4e6f-9226-2f622eb75a95",
    "playRate": 1.0,
    "gameTrigger": "Dialog",
    "gameTriggerArgs": 130310645,
    "personalConfig": 2,
    "parentID": "cb52d00e-85cb-42a9-9113-42db798a09d2",
    "sourceNames": [
      {
        "sourceFileName": "VO_LQ\\VO_yoimiya\\vo_XGLQ202_6_yoimiya_12.wem",
        "rate": 1.0,
        "avatarName": "",
        "emotion": ""
      }
    ]
  },
  "4ec9f0aa-ac79-4798-af97-b3f273bac138": {
    "guid": "4ec9f0aa-ac79-4798-af97-b3f273bac138",
    "playRate": 1.0,
    "gameTrigger": "Dialog",
    "gameTriggerArgs": 130310648,
    "personalConfig": 2,
    "parentID": "cb52d00e-85cb-42a9-9113-42db798a09d2",
    "sourceNames": [
      {
        "sourceFileName": "VO_LQ\\VO_npc\\vo_XGLQ202_6_niousha_04.wem",
        "rate": 1.0,
        "avatarName": "",
        "emotion": ""
      }
    ]
  },
  "4f67399b-95b0-4c71-9c0c-25ff7747262b": {
    "guid": "4f67399b-95b0-4c71-9c0c-25ff7747262b",
    "playRate": 1.0,
    "gameTrigger": "Dialog",
    "gameTriggerArgs": 130310629,
    "personalConfig": 2,
    "parentID": "cb52d00e-85cb-42a9-9113-42db798a09d2",
    "sourceNames": [
      {
        "sourceFileName": "VO_LQ\\VO_npc\\vo_XGLQ202_6_ahangar_15.wem",
        "rate": 1.0,
        "avatarName": "",
        "emotion": ""
      }
    ]
  },
  "517965f5-1a88-4802-a934-588afdadf920": {
    "guid": "517965f5-1a88-4802-a934-588afdadf920",
    "playRate": 1.0,
    "gameTrigger": "Dialog",
    "gameTriggerArgs": 130310659,
    "personalConfig": 2,
    "parentID": "cb52d00e-85cb-42a9-9113-42db798a09d2",
    "sourceNames": [
      {
        "sourceFileName": "VO_LQ\\VO_npc\\vo_XGLQ202_6_niousha_11.wem",
        "rate": 1.0,
        "avatarName": "",
        "emotion": ""
      }
    ]
  },
  "57f93cba-47ad-469e-8959-e61bae3ca00e": {
    "guid": "57f93cba-47ad-469e-8959-e61bae3ca00e",
    "playRate": 1.0,
    "gameTrigger": "Dialog",
    "gameTriggerArgs": 130310609,
    "personalConfig": 2,
    "parentID": "cb52d00e-85cb-42a9-9113-42db798a09d2",
    "sourceNames": [
      {
        "sourceFileName": "VO_LQ\\VO_npc\\vo_XGLQ202_6_ahangar_04.wem",
        "rate": 1.0,
        "avatarName": "",
        "emotion": ""
      }
    ]
  },
  "589f0a46-a4c7-4bcf-80ec-05f08539daf0": {
    "guid": "589f0a46-a4c7-4bcf-80ec-05f08539daf0",
    "playRate": 1.0,
    "gameTrigger": "Dialog",
    "gameTriggerArgs": 130310651,
    "personalConfig": 2,
    "parentID": "cb52d00e-85cb-42a9-9113-42db798a09d2",
    "sourceNames": [
      {
        "sourceFileName": "VO_LQ\\VO_yoimiya\\vo_XGLQ202_6_yoimiya_14.wem",
        "rate": 1.0,
        "avatarName": "",
        "emotion": ""
      }
    ]
  },
  "5b7b4c70-5284-4a4b-916b-5c37df886262": {
    "guid": "5b7b4c70-5284-4a4b-916b-5c37df886262",
    "playRate": 1.0,
    "gameTrigger": "Dialog",
    "gameTriggerArgs": 130310653,
    "personalConfig": 2,
    "parentID": "cb52d00e-85cb-42a9-9113-42db798a09d2",
    "sourceNames": [
      {
        "sourceFileName": "VO_LQ\\VO_npc\\vo_XGLQ202_6_niousha_07.wem",
        "rate": 1.0,
        "avatarName": "",
        "emotion": ""
      }
    ]
  },
  "5b9ca74b-f7a0-4374-a895-40595b57225f": {
    "guid": "5b9ca74b-f7a0-4374-a895-40595b57225f",
    "playRate": 1.0,
    "gameTrigger": "Dialog",
    "gameTriggerArgs": 130310610,
    "personalConfig": 2,
    "parentID": "cb52d00e-85cb-42a9-9113-42db798a09d2",
    "sourceNames": [
      {
        "sourceFileName": "VO_LQ\\VO_yoimiya\\vo_XGLQ202_6_yoimiya_03.wem",
        "rate": 1.0,
        "avatarName": "",
        "emotion": ""
      }
    ]
  },
  "5bbc8a2d-32c7-4e12-9b09-3c6ae1e4f28b": {
    "guid": "5bbc8a2d-32c7-4e12-9b09-3c6ae1e4f28b",
    "playRate": 1.0,
    "gameTrigger": "Dialog",
    "gameTriggerArgs": 130310619,
    "personalConfig": 2,
    "parentID": "cb52d00e-85cb-42a9-9113-42db798a09d2",
    "sourceNames": [
      {
        "sourceFileName": "VO_LQ\\VO_yoimiya\\vo_XGLQ202_6_yoimiya_04.wem",
        "rate": 1.0,
        "avatarName": "",
        "emotion": ""
      }
    ]
  },
  "60bb7121-9e0a-47a6-ab9e-eb467932fb01": {
    "guid": "60bb7121-9e0a-47a6-ab9e-eb467932fb01",
    "playRate": 1.0,
    "gameTrigger": "Dialog",
    "gameTriggerArgs": 130310641,
    "personalConfig": 2,
    "parentID": "cb52d00e-85cb-42a9-9113-42db798a09d2",
    "sourceNames": [
      {
        "sourceFileName": "VO_LQ\\VO_paimon\\vo_XGLQ202_6_paimon_07.wem",
        "rate": 1.0,
        "avatarName": "",
        "emotion": ""
      }
    ]
  },
  "61c6baed-c31f-4fd8-98aa-a22fd7847f2a": {
    "guid": "61c6baed-c31f-4fd8-98aa-a22fd7847f2a",
    "playRate": 1.0,
    "gameTrigger": "Dialog",
    "gameTriggerArgs": 130310665,
    "personalConfig": 2,
    "parentID": "cb52d00e-85cb-42a9-9113-42db798a09d2",
    "sourceNames": [
      {
        "sourceFileName": "VO_LQ\\VO_paimon\\vo_XGLQ202_6_paimon_08.wem",
        "rate": 1.0,
        "avatarName": "",
        "emotion": ""
      }
    ]
  },
  "61d6af4c-ffe9-4bd2-aa63-da6948cad6f7": {
    "guid": "61d6af4c-ffe9-4bd2-aa63-da6948cad6f7",
    "playRate": 1.0,
    "gameTrigger": "Dialog",
    "gameTriggerArgs": 130310672,
    "personalConfig": 2,
    "parentID": "cb52d00e-85cb-42a9-9113-42db798a09d2",
    "sourceNames": [
      {
        "sourceFileName": "VO_LQ\\VO_yoimiya\\vo_XGLQ202_6_yoimiya_21.wem",
        "rate": 1.0,
        "avatarName": "",
        "emotion": ""
      }
    ]
  },
  "6562000f-0274-485d-aaa6-af70f3f22127": {
    "guid": "6562000f-0274-485d-aaa6-af70f3f22127",
    "playRate": 1.0,
    "gameTrigger": "Dialog",
    "gameTriggerArgs": 130310647,
    "personalConfig": 2,
    "parentID": "cb52d00e-85cb-42a9-9113-42db798a09d2",
    "sourceNames": [
      {
        "sourceFileName": "VO_LQ\\VO_npc\\vo_XGLQ202_6_niousha_03.wem",
        "rate": 1.0,
        "avatarName": "",
        "emotion": ""
      }
    ]
  },
  "6715a38b-ae75-460c-9dc4-58f18e68e3aa": {
    "guid": "6715a38b-ae75-460c-9dc4-58f18e68e3aa",
    "playRate": 1.0,
    "gameTrigger": "Dialog",
    "gameTriggerArgs": 130310603,
    "personalConfig": 2,
    "parentID": "cb52d00e-85cb-42a9-9113-42db798a09d2",
    "sourceNames": [
      {
        "sourceFileName": "VO_LQ\\VO_npc\\vo_XGLQ202_6_ahangar_02.wem",
        "rate": 1.0,
        "avatarName": "",
        "emotion": ""
      }
    ]
  },
  "685be2c4-555a-479c-b44a-5338a3593569": {
    "guid": "685be2c4-555a-479c-b44a-5338a3593569",
    "playRate": 1.0,
    "gameTrigger": "Dialog",
    "gameTriggerArgs": 130310602,
    "personalConfig": 2,
    "parentID": "cb52d00e-85cb-42a9-9113-42db798a09d2",
    "sourceNames": [
      {
        "sourceFileName": "VO_LQ\\VO_npc\\vo_XGLQ202_6_ahangar_01.wem",
        "rate": 1.0,
        "avatarName": "",
        "emotion": ""
      }
    ]
  },
  "6ad5899a-8f1b-4b9d-a21e-40c34ed7b9aa": {
    "guid": "6ad5899a-8f1b-4b9d-a21e-40c34ed7b9aa",
    "playRate": 1.0,
    "gameTrigger": "Dialog",
    "gameTriggerArgs": 130310634,
    "personalConfig": 2,
    "parentID": "cb52d00e-85cb-42a9-9113-42db798a09d2",
    "sourceNames": [
      {
        "sourceFileName": "VO_LQ\\VO_yoimiya\\vo_XGLQ202_6_yoimiya_07.wem",
        "rate": 1.0,
        "avatarName": "",
        "emotion": ""
      }
    ]
  },
  "6bed0038-4c5f-4cef-aca0-d2e420786e0f": {
    "guid": "6bed0038-4c5f-4cef-aca0-d2e420786e0f",
    "playRate": 1.0,
    "gameTrigger": "Dialog",
    "gameTriggerArgs": 130310655,
    "personalConfig": 2,
    "parentID": "cb52d00e-85cb-42a9-9113-42db798a09d2",
    "sourceNames": [
      {
        "sourceFileName": "VO_LQ\\VO_yoimiya\\vo_XGLQ202_6_yoimiya_15.wem",
        "rate": 1.0,
        "avatarName": "",
        "emotion": ""
      }
    ]
  },
  "6ec962b5-074d-45bb-85c1-1089a1a17fbe": {
    "guid": "6ec962b5-074d-45bb-85c1-1089a1a17fbe",
    "playRate": 1.0,
    "gameTrigger": "Dialog",
    "gameTriggerArgs": 130310661,
    "personalConfig": 2,
    "parentID": "cb52d00e-85cb-42a9-9113-42db798a09d2",
    "sourceNames": [
      {
        "sourceFileName": "VO_LQ\\VO_npc\\vo_XGLQ202_6_niousha_13.wem",
        "rate": 1.0,
        "avatarName": "",
        "emotion": ""
      }
    ]
  },
  "6ee99ef1-48a4-4210-9d2b-18460daea0b5": {
    "guid": "6ee99ef1-48a4-4210-9d2b-18460daea0b5",
    "playRate": 1.0,
    "gameTrigger": "Dialog",
    "gameTriggerArgs": 130310613,
    "personalConfig": 2,
    "NJKDHJOHKCM": 1,
    "parentID": "cb52d00e-85cb-42a9-9113-42db798a09d2",
    "sourceNames": [
      {
        "sourceFileName": "VO_LQ\\VO_paimon\\vo_XGLQ202_6_paimon_02.wem",
        "rate": 1.0,
        "avatarName": "",
        "emotion": ""
      }
    ]
  },
  "72b4d35e-36c7-49e5-9184-71dc67038894": {
    "guid": "72b4d35e-36c7-49e5-9184-71dc67038894",
    "playRate": 1.0,
    "gameTrigger": "Dialog",
    "gameTriggerArgs": 130310660,
    "personalConfig": 2,
    "parentID": "cb52d00e-85cb-42a9-9113-42db798a09d2",
    "sourceNames": [
      {
        "sourceFileName": "VO_LQ\\VO_npc\\vo_XGLQ202_6_niousha_12.wem",
        "rate": 1.0,
        "avatarName": "",
        "emotion": ""
      }
    ]
  },
  "775f6ade-3d0f-40fd-bd32-fb35917a85ac": {
    "guid": "775f6ade-3d0f-40fd-bd32-fb35917a85ac",
    "playRate": 1.0,
    "gameTrigger": "Dialog",
    "gameTriggerArgs": 130310662,
    "personalConfig": 2,
    "parentID": "cb52d00e-85cb-42a9-9113-42db798a09d2",
    "sourceNames": [
      {
        "sourceFileName": "VO_LQ\\VO_yoimiya\\vo_XGLQ202_6_yoimiya_17.wem",
        "rate": 1.0,
        "avatarName": "",
        "emotion": ""
      }
    ]
  },
  "77693723-bf61-4774-81ed-742566acdb49": {
    "guid": "77693723-bf61-4774-81ed-742566acdb49",
    "playRate": 1.0,
    "gameTrigger": "Dialog",
    "gameTriggerArgs": 130310654,
    "personalConfig": 2,
    "parentID": "cb52d00e-85cb-42a9-9113-42db798a09d2",
    "sourceNames": [
      {
        "sourceFileName": "VO_LQ\\VO_npc\\vo_XGLQ202_6_niousha_08.wem",
        "rate": 1.0,
        "avatarName": "",
        "emotion": ""
      }
    ]
  },
  "8347a34d-e9a8-490d-bbd9-6af4691b3272": {
    "guid": "8347a34d-e9a8-490d-bbd9-6af4691b3272",
    "playRate": 1.0,
    "gameTrigger": "Dialog",
    "gameTriggerArgs": 130310656,
    "personalConfig": 2,
    "parentID": "cb52d00e-85cb-42a9-9113-42db798a09d2",
    "sourceNames": [
      {
        "sourceFileName": "VO_LQ\\VO_yoimiya\\vo_XGLQ202_6_yoimiya_16.wem",
        "rate": 1.0,
        "avatarName": "",
        "emotion": ""
      }
    ]
  },
  "83eb0e30-358d-4b9d-975e-37402b76a78c": {
    "guid": "83eb0e30-358d-4b9d-975e-37402b76a78c",
    "playRate": 1.0,
    "gameTrigger": "Dialog",
    "gameTriggerArgs": 130310670,
    "personalConfig": 2,
    "parentID": "cb52d00e-85cb-42a9-9113-42db798a09d2",
    "sourceNames": [
      {
        "sourceFileName": "VO_LQ\\VO_yoimiya\\vo_XGLQ202_6_yoimiya_20.wem",
        "rate": 1.0,
        "avatarName": "",
        "emotion": ""
      }
    ]
  },
  "85076cba-46ea-4fa2-8d6b-14b4955c0ca5": {
    "guid": "85076cba-46ea-4fa2-8d6b-14b4955c0ca5",
    "playRate": 1.0,
    "gameTrigger": "Dialog",
    "gameTriggerArgs": 130310622,
    "personalConfig": 2,
    "parentID": "cb52d00e-85cb-42a9-9113-42db798a09d2",
    "sourceNames": [
      {
        "sourceFileName": "VO_LQ\\VO_npc\\vo_XGLQ202_6_ahangar_09.wem",
        "rate": 1.0,
        "avatarName": "",
        "emotion": ""
      }
    ]
  },
  "8a31d2da-61d0-4367-8105-997aa824ada6": {
    "guid": "8a31d2da-61d0-4367-8105-997aa824ada6",
    "playRate": 1.0,
    "gameTrigger": "Dialog",
    "gameTriggerArgs": 130319909,
    "personalConfig": 2,
    "NJKDHJOHKCM": 1,
    "parentID": "cb52d00e-85cb-42a9-9113-42db798a09d2",
    "sourceNames": [
      {
        "sourceFileName": "VO_LQ\\VO_npc\\vo_XGLQ202_6_ahangar_23.wem",
        "rate": 1.0,
        "avatarName": "",
        "emotion": ""
      }
    ]
  },
  "8a925329-33e8-4272-b416-f57d71cc9722": {
    "guid": "8a925329-33e8-4272-b416-f57d71cc9722",
    "playRate": 1.0,
    "gameTrigger": "Dialog",
    "gameTriggerArgs": 130310635,
    "personalConfig": 2,
    "parentID": "cb52d00e-85cb-42a9-9113-42db798a09d2",
    "sourceNames": [
      {
        "sourceFileName": "VO_LQ\\VO_yoimiya\\vo_XGLQ202_6_yoimiya_08.wem",
        "rate": 1.0,
        "avatarName": "",
        "emotion": ""
      }
    ]
  },
  "8e8673d1-7c1e-4117-b90e-931d6493df77": {
    "guid": "8e8673d1-7c1e-4117-b90e-931d6493df77",
    "playRate": 1.0,
    "gameTrigger": "Dialog",
    "gameTriggerArgs": 130310624,
    "personalConfig": 2,
    "parentID": "cb52d00e-85cb-42a9-9113-42db798a09d2",
    "sourceNames": [
      {
        "sourceFileName": "VO_LQ\\VO_npc\\vo_XGLQ202_6_ahangar_11.wem",
        "rate": 1.0,
        "avatarName": "",
        "emotion": ""
      }
    ]
  },
  "911f1c30-5b05-4d80-a21f-0b0f7db34f01": {
    "guid": "911f1c30-5b05-4d80-a21f-0b0f7db34f01",
    "playRate": 1.0,
    "gameTrigger": "Dialog",
    "gameTriggerArgs": 130310633,
    "personalConfig": 2,
    "parentID": "cb52d00e-85cb-42a9-9113-42db798a09d2",
    "sourceNames": [
      {
        "sourceFileName": "VO_LQ\\VO_npc\\vo_XGLQ202_6_ahangar_18.wem",
        "rate": 1.0,
        "avatarName": "",
        "emotion": ""
      }
    ]
  },
  "940e8910-5281-4e58-8dfc-5f622be620b4": {
    "guid": "940e8910-5281-4e58-8dfc-5f622be620b4",
    "playRate": 1.0,
    "gameTrigger": "Dialog",
    "gameTriggerArgs": 130310649,
    "personalConfig": 2,
    "parentID": "cb52d00e-85cb-42a9-9113-42db798a09d2",
    "sourceNames": [
      {
        "sourceFileName": "VO_LQ\\VO_npc\\vo_XGLQ202_6_niousha_05.wem",
        "rate": 1.0,
        "avatarName": "",
        "emotion": ""
      }
    ]
  },
  "9798282c-8dbb-406a-85c5-832cff61bb0f": {
    "guid": "9798282c-8dbb-406a-85c5-832cff61bb0f",
    "playRate": 1.0,
    "gameTrigger": "Dialog",
    "gameTriggerArgs": 130310657,
    "personalConfig": 2,
    "parentID": "cb52d00e-85cb-42a9-9113-42db798a09d2",
    "sourceNames": [
      {
        "sourceFileName": "VO_LQ\\VO_npc\\vo_XGLQ202_6_niousha_09.wem",
        "rate": 1.0,
        "avatarName": "",
        "emotion": ""
      }
    ]
  },
  "98d1f3f9-777f-42d3-8ad9-357c14050045": {
    "guid": "98d1f3f9-777f-42d3-8ad9-357c14050045",
    "playRate": 1.0,
    "gameTrigger": "Dialog",
    "gameTriggerArgs": 130310614,
    "personalConfig": 2,
    "parentID": "cb52d00e-85cb-42a9-9113-42db798a09d2",
    "sourceNames": [
      {
        "sourceFileName": "VO_LQ\\VO_npc\\vo_XGLQ202_6_ahangar_06.wem",
        "rate": 1.0,
        "avatarName": "",
        "emotion": ""
      }
    ]
  },
  "a0c8b30b-4ab4-4b94-8e93-f2ea5d453a2b": {
    "guid": "a0c8b30b-4ab4-4b94-8e93-f2ea5d453a2b",
    "playRate": 1.0,
    "gameTrigger": "Dialog",
    "gameTriggerArgs": 130310640,
    "personalConfig": 2,
    "parentID": "cb52d00e-85cb-42a9-9113-42db798a09d2",
    "sourceNames": [
      {
        "sourceFileName": "VO_LQ\\VO_yoimiya\\vo_XGLQ202_6_yoimiya_10.wem",
        "rate": 1.0,
        "avatarName": "",
        "emotion": ""
      }
    ]
  },
  "a49c57b9-0822-4cd7-a1f5-a768f4b7caca": {
    "guid": "a49c57b9-0822-4cd7-a1f5-a768f4b7caca",
    "playRate": 1.0,
    "gameTrigger": "Dialog",
    "gameTriggerArgs": 130310666,
    "personalConfig": 2,
    "parentID": "cb52d00e-85cb-42a9-9113-42db798a09d2",
    "sourceNames": [
      {
        "sourceFileName": "VO_LQ\\VO_yoimiya\\vo_XGLQ202_6_yoimiya_19.wem",
        "rate": 1.0,
        "avatarName": "",
        "emotion": ""
      }
    ]
  },
  "a9d6d294-fb2f-4717-aa59-4b3d7548e291": {
    "guid": "a9d6d294-fb2f-4717-aa59-4b3d7548e291",
    "playRate": 1.0,
    "gameTrigger": "Dialog",
    "gameTriggerArgs": 130310650,
    "personalConfig": 2,
    "parentID": "cb52d00e-85cb-42a9-9113-42db798a09d2",
    "sourceNames": [
      {
        "sourceFileName": "VO_LQ\\VO_yoimiya\\vo_XGLQ202_6_yoimiya_13.wem",
        "rate": 1.0,
        "avatarName": "",
        "emotion": ""
      }
    ]
  },
  "b0228690-ce30-41ab-b5b4-95dcd349fe0e": {
    "guid": "b0228690-ce30-41ab-b5b4-95dcd349fe0e",
    "playRate": 1.0,
    "gameTrigger": "Dialog",
    "gameTriggerArgs": 130310636,
    "personalConfig": 2,
    "parentID": "cb52d00e-85cb-42a9-9113-42db798a09d2",
    "sourceNames": [
      {
        "sourceFileName": "VO_LQ\\VO_paimon\\vo_XGLQ202_6_paimon_06.wem",
        "rate": 1.0,
        "avatarName": "",
        "emotion": ""
      }
    ]
  },
  "b2fd6cb0-17d0-4a98-a27e-4df51aecd29d": {
    "guid": "b2fd6cb0-17d0-4a98-a27e-4df51aecd29d",
    "playRate": 1.0,
    "gameTrigger": "Dialog",
    "gameTriggerArgs": 130310615,
    "personalConfig": 2,
    "parentID": "cb52d00e-85cb-42a9-9113-42db798a09d2",
    "sourceNames": [
      {
        "sourceFileName": "VO_LQ\\VO_npc\\vo_XGLQ202_6_ahangar_07.wem",
        "rate": 1.0,
        "avatarName": "",
        "emotion": ""
      }
    ]
  },
  "b9b7ecb0-77c6-41fe-b100-bc18c8d1b7d7": {
    "guid": "b9b7ecb0-77c6-41fe-b100-bc18c8d1b7d7",
    "playRate": 1.0,
    "gameTrigger": "Dialog",
    "gameTriggerArgs": 130310643,
    "personalConfig": 2,
    "parentID": "cb52d00e-85cb-42a9-9113-42db798a09d2",
    "sourceNames": [
      {
        "sourceFileName": "VO_LQ\\VO_yoimiya\\vo_XGLQ202_6_yoimiya_11.wem",
        "rate": 1.0,
        "avatarName": "",
        "emotion": ""
      }
    ]
  },
  "bcd054a4-3ee1-41de-a4c1-96ec68fe69be": {
    "guid": "bcd054a4-3ee1-41de-a4c1-96ec68fe69be",
    "playRate": 1.0,
    "gameTrigger": "Dialog",
    "gameTriggerArgs": 130310644,
    "personalConfig": 2,
    "parentID": "cb52d00e-85cb-42a9-9113-42db798a09d2",
    "sourceNames": [
      {
        "sourceFileName": "VO_LQ\\VO_npc\\vo_XGLQ202_6_niousha_01.wem",
        "rate": 1.0,
        "avatarName": "",
        "emotion": ""
      }
    ]
  },
  "bf0c4225-1dcf-4029-ab93-1d683f61e75d": {
    "guid": "bf0c4225-1dcf-4029-ab93-1d683f61e75d",
    "playRate": 1.0,
    "gameTrigger": "Dialog",
    "gameTriggerArgs": 130310605,
    "personalConfig": 2,
    "parentID": "cb52d00e-85cb-42a9-9113-42db798a09d2",
    "sourceNames": [
      {
        "sourceFileName": "VO_LQ\\VO_npc\\vo_XGLQ202_6_ahangar_03.wem",
        "rate": 1.0,
        "avatarName": "",
        "emotion": ""
      }
    ]
  },
  "c169b947-2346-4ad8-9450-44e91c63b15b": {
    "guid": "c169b947-2346-4ad8-9450-44e91c63b15b",
    "playRate": 1.0,
    "gameTrigger": "Dialog",
    "gameTriggerArgs": 130310606,
    "personalConfig": 2,
    "NJKDHJOHKCM": 1,
    "parentID": "cb52d00e-85cb-42a9-9113-42db798a09d2",
    "sourceNames": [
      {
        "sourceFileName": "VO_LQ\\VO_paimon\\vo_XGLQ202_6_paimon_01.wem",
        "rate": 1.0,
        "avatarName": "",
        "emotion": ""
      }
    ]
  },
  "c533594e-6802-4cc6-8179-e598c44ff75c": {
    "guid": "c533594e-6802-4cc6-8179-e598c44ff75c",
    "playRate": 1.0,
    "gameTrigger": "Dialog",
    "gameTriggerArgs": 130310626,
    "personalConfig": 2,
    "parentID": "cb52d00e-85cb-42a9-9113-42db798a09d2",
    "sourceNames": [
      {
        "sourceFileName": "VO_LQ\\VO_paimon\\vo_XGLQ202_6_paimon_05.wem",
        "rate": 1.0,
        "avatarName": "",
        "emotion": ""
      }
    ]
  },
  "cb0f12da-43e6-4b77-9e62-f4d8ecbc59c8": {
    "guid": "cb0f12da-43e6-4b77-9e62-f4d8ecbc59c8",
    "playRate": 1.0,
    "gameTrigger": "Dialog",
    "gameTriggerArgs": 130310674,
    "personalConfig": 2,
    "parentID": "cb52d00e-85cb-42a9-9113-42db798a09d2",
    "sourceNames": [
      {
        "sourceFileName": "VO_LQ\\VO_npc\\vo_XGLQ202_6_niousha_14.wem",
        "rate": 1.0,
        "avatarName": "",
        "emotion": ""
      }
    ]
  },
  "cbd8a936-349d-4106-8df9-f3b4c6cf4353": {
    "guid": "cbd8a936-349d-4106-8df9-f3b4c6cf4353",
    "playRate": 1.0,
    "gameTrigger": "Dialog",
    "gameTriggerArgs": 130310628,
    "personalConfig": 2,
    "parentID": "cb52d00e-85cb-42a9-9113-42db798a09d2",
    "sourceNames": [
      {
        "sourceFileName": "VO_LQ\\VO_npc\\vo_XGLQ202_6_ahangar_14.wem",
        "rate": 1.0,
        "avatarName": "",
        "emotion": ""
      }
    ]
  },
  "e10bfef8-69cd-4c47-ac75-87bc1ccb78f4": {
    "guid": "e10bfef8-69cd-4c47-ac75-87bc1ccb78f4",
    "playRate": 1.0,
    "gameTrigger": "Dialog",
    "gameTriggerArgs": 130310621,
    "personalConfig": 2,
    "parentID": "cb52d00e-85cb-42a9-9113-42db798a09d2",
    "sourceNames": [
      {
        "sourceFileName": "VO_LQ\\VO_npc\\vo_XGLQ202_6_ahangar_08.wem",
        "rate": 1.0,
        "avatarName": "",
        "emotion": ""
      }
    ]
  },
  "e332b550-8dc9-4bc6-970b-e06f4d9b380b": {
    "guid": "e332b550-8dc9-4bc6-970b-e06f4d9b380b",
    "playRate": 1.0,
    "gameTrigger": "Dialog",
    "gameTriggerArgs": 130310631,
    "personalConfig": 2,
    "parentID": "cb52d00e-85cb-42a9-9113-42db798a09d2",
    "sourceNames": [
      {
        "sourceFileName": "VO_LQ\\VO_npc\\vo_XGLQ202_6_ahangar_16.wem",
        "rate": 1.0,
        "avatarName": "",
        "emotion": ""
      }
    ]
  },
  "e8b353e5-132a-4b96-b012-1ef1576f34de": {
    "guid": "e8b353e5-132a-4b96-b012-1ef1576f34de",
    "playRate": 1.0,
    "gameTrigger": "Dialog",
    "gameTriggerArgs": 130310618,
    "personalConfig": 2,
    "parentID": "cb52d00e-85cb-42a9-9113-42db798a09d2",
    "sourceNames": [
      {
        "sourceFileName": "VO_LQ\\VO_paimon\\vo_XGLQ202_6_paimon_04.wem",
        "rate": 1.0,
        "avatarName": "",
        "emotion": ""
      }
    ]
  },
  "ec1e1c2d-7227-43bc-9447-d05012581d73": {
    "guid": "ec1e1c2d-7227-43bc-9447-d05012581d73",
    "playRate": 1.0,
    "gameTrigger": "Dialog",
    "gameTriggerArgs": 130310675,
    "personalConfig": 2,
    "parentID": "cb52d00e-85cb-42a9-9113-42db798a09d2",
    "sourceNames": [
      {
        "sourceFileName": "VO_LQ\\VO_npc\\vo_XGLQ202_6_niousha_15.wem",
        "rate": 1.0,
        "avatarName": "",
        "emotion": ""
      }
    ]
  },
  "f225d558-7f45-486a-9bc7-414353577619": {
    "guid": "f225d558-7f45-486a-9bc7-414353577619",
    "playRate": 1.0,
    "gameTrigger": "Dialog",
    "gameTriggerArgs": 130310668,
    "personalConfig": 2,
    "parentID": "cb52d00e-85cb-42a9-9113-42db798a09d2",
    "sourceNames": [
      {
        "sourceFileName": "VO_LQ\\VO_npc\\vo_XGLQ202_6_ahangar_20.wem",
        "rate": 1.0,
        "avatarName": "",
        "emotion": ""
      }
    ]
  },
  "f94ee4da-73a5-4f0b-bea5-339ac7dd434d": {
    "guid": "f94ee4da-73a5-4f0b-bea5-339ac7dd434d",
    "playRate": 1.0,
    "gameTrigger": "Dialog",
    "gameTriggerArgs": 130310671,
    "personalConfig": 2,
    "parentID": "cb52d00e-85cb-42a9-9113-42db798a09d2",
    "sourceNames": [
      {
        "sourceFileName": "VO_LQ\\VO_npc\\vo_XGLQ202_6_ahangar_22.wem",
        "rate": 1.0,
        "avatarName": "",
        "emotion": ""
      }
    ]
  },
  "fadc24f3-380c-4725-8d2e-434971955b83": {
    "guid": "fadc24f3-380c-4725-8d2e-434971955b83",
    "playRate": 1.0,
    "gameTrigger": "Dialog",
    "gameTriggerArgs": 130310639,
    "personalConfig": 2,
    "parentID": "cb52d00e-85cb-42a9-9113-42db798a09d2",
    "sourceNames": [
      {
        "sourceFileName": "VO_LQ\\VO_yoimiya\\vo_XGLQ202_6_yoimiya_09.wem",
        "rate": 1.0,
        "avatarName": "",
        "emotion": ""
      }
    ]
  },
  "fb84ce78-57cd-4f0d-bf77-a31fcdb5c741": {
    "guid": "fb84ce78-57cd-4f0d-bf77-a31fcdb5c741",
    "playRate": 1.0,
    "gameTrigger": "Dialog",
    "gameTriggerArgs": 130310623,
    "personalConfig": 2,
    "parentID": "cb52d00e-85cb-42a9-9113-42db798a09d2",
    "sourceNames": [
      {
        "sourceFileName": "VO_LQ\\VO_npc\\vo_XGLQ202_6_ahangar_10.wem",
        "rate": 1.0,
        "avatarName": "",
        "emotion": ""
      }
    ]
  },
  "fc3db41d-cb82-4d4f-b68c-4e1d9ed2ef6c": {
    "guid": "fc3db41d-cb82-4d4f-b68c-4e1d9ed2ef6c",
    "playRate": 1.0,
    "gameTrigger": "Dialog",
    "gameTriggerArgs": 130310625,
    "personalConfig": 2,
    "parentID": "cb52d00e-85cb-42a9-9113-42db798a09d2",
    "sourceNames": [
      {
        "sourceFileName": "VO_LQ\\VO_npc\\vo_XGLQ202_6_ahangar_12.wem",
        "rate": 1.0,
        "avatarName": "",
        "emotion": ""
      }
    ]
  }
}