{
  "01a68e2c-fbf4-4c15-9564-995d87b12b30": {
    "guid": "01a68e2c-fbf4-4c15-9564-995d87b12b30",
    "playRate": 1.0,
    "gameTrigger": "Dialog",
    "gameTriggerArgs": 40062033,
    "personalConfig": 2,
    "parentID": "34f55315-1ad8-4748-bb5d-6f63932a0fdb",
    "sourceNames": [
      {
        "sourceFileName": "VO_AQ\\VO_paimon\\vo_FDAQ003_30_paimon_05.wem",
        "rate": 1.0,
        "avatarName": "",
        "emotion": ""
      }
    ]
  },
  "02524d30-688c-438c-8147-e16d121572e8": {
    "guid": "02524d30-688c-438c-8147-e16d121572e8",
    "playRate": 1.0,
    "gameTrigger": "Dialog",
    "gameTriggerArgs": 40062029,
    "personalConfig": 2,
    "parentID": "34f55315-1ad8-4748-bb5d-6f63932a0fdb",
    "sourceNames": [
      {
        "sourceFileName": "VO_AQ\\VO_furina\\vo_FDAQ003_30_furina_07.wem",
        "rate": 1.0,
        "avatarName": "",
        "emotion": ""
      }
    ]
  },
  "05d1c237-299f-4aa9-99ee-9e30a139be13": {
    "guid": "05d1c237-299f-4aa9-99ee-9e30a139be13",
    "playRate": 1.0,
    "gameTrigger": "Dialog",
    "gameTriggerArgs": 40062065,
    "personalConfig": 2,
    "parentID": "34f55315-1ad8-4748-bb5d-6f63932a0fdb",
    "sourceNames": [
      {
        "sourceFileName": "VO_AQ\\VO_NPC\\vo_FDAQ003_30_audienceA_01.wem",
        "rate": 1.0,
        "avatarName": "",
        "emotion": ""
      }
    ]
  },
  "0605159a-8252-4248-8139-9898fc7051d9": {
    "guid": "0605159a-8252-4248-8139-9898fc7051d9",
    "playRate": 1.0,
    "gameTrigger": "Dialog",
    "gameTriggerArgs": 40062004,
    "personalConfig": 2,
    "parentID": "34f55315-1ad8-4748-bb5d-6f63932a0fdb",
    "sourceNames": [
      {
        "sourceFileName": "VO_AQ\\VO_paimon\\vo_FDAQ003_30_paimon_02.wem",
        "rate": 1.0,
        "avatarName": "",
        "emotion": ""
      }
    ]
  },
  "070175d9-0aef-4dd7-a669-91b0fe5653f7": {
    "guid": "070175d9-0aef-4dd7-a669-91b0fe5653f7",
    "playRate": 1.0,
    "gameTrigger": "Dialog",
    "gameTriggerArgs": 40062056,
    "personalConfig": 2,
    "parentID": "34f55315-1ad8-4748-bb5d-6f63932a0fdb",
    "sourceNames": [
      {
        "sourceFileName": "VO_AQ\\VO_neuvillette\\vo_FDAQ003_30_neuvillette_07.wem",
        "rate": 1.0,
        "avatarName": "",
        "emotion": ""
      }
    ]
  },
  "080a0918-dbd1-4ece-a985-d0473c38451c": {
    "guid": "080a0918-dbd1-4ece-a985-d0473c38451c",
    "playRate": 1.0,
    "gameTrigger": "Dialog",
    "gameTriggerArgs": 40062078,
    "personalConfig": 2,
    "parentID": "34f55315-1ad8-4748-bb5d-6f63932a0fdb",
    "sourceNames": [
      {
        "sourceFileName": "VO_AQ\\VO_furina\\vo_FDAQ003_30_furina_16.wem",
        "rate": 1.0,
        "avatarName": "",
        "emotion": ""
      }
    ]
  },
  "0b3a0eae-055d-4a5f-b9ab-17d5d8c9db86": {
    "guid": "0b3a0eae-055d-4a5f-b9ab-17d5d8c9db86",
    "playRate": 1.0,
    "gameTrigger": "Dialog",
    "gameTriggerArgs": 40062028,
    "personalConfig": 2,
    "parentID": "34f55315-1ad8-4748-bb5d-6f63932a0fdb",
    "sourceNames": [
      {
        "sourceFileName": "VO_AQ\\VO_lyney\\vo_FDAQ003_30_lyney_05.wem",
        "rate": 1.0,
        "avatarName": "",
        "emotion": ""
      }
    ]
  },
  "0e2bb97b-9a23-4a0a-aced-7a99e1273a2e": {
    "guid": "0e2bb97b-9a23-4a0a-aced-7a99e1273a2e",
    "playRate": 1.0,
    "gameTrigger": "Dialog",
    "gameTriggerArgs": 40062023,
    "personalConfig": 2,
    "parentID": "34f55315-1ad8-4748-bb5d-6f63932a0fdb",
    "sourceNames": [
      {
        "sourceFileName": "VO_AQ\\VO_neuvillette\\vo_FDAQ003_30_neuvillette_05.wem",
        "rate": 1.0,
        "avatarName": "",
        "emotion": ""
      }
    ]
  },
  "18ed0a6d-863f-4924-a074-e8aa661cb713": {
    "guid": "18ed0a6d-863f-4924-a074-e8aa661cb713",
    "playRate": 1.0,
    "gameTrigger": "Dialog",
    "gameTriggerArgs": 40062031,
    "personalConfig": 2,
    "parentID": "34f55315-1ad8-4748-bb5d-6f63932a0fdb",
    "sourceNames": [
      {
        "sourceFileName": "VO_AQ\\VO_furina\\vo_FDAQ003_30_furina_08.wem",
        "rate": 1.0,
        "avatarName": "",
        "emotion": ""
      }
    ]
  },
  "1b44f2a7-6629-4201-9da8-1315e703f831": {
    "guid": "1b44f2a7-6629-4201-9da8-1315e703f831",
    "playRate": 1.0,
    "gameTrigger": "Dialog",
    "gameTriggerArgs": 40062057,
    "personalConfig": 2,
    "parentID": "34f55315-1ad8-4748-bb5d-6f63932a0fdb",
    "sourceNames": [
      {
        "sourceFileName": "VO_AQ\\VO_neuvillette\\vo_FDAQ003_30_neuvillette_08.wem",
        "rate": 1.0,
        "avatarName": "",
        "emotion": ""
      }
    ]
  },
  "2f53d000-336b-4e17-af5b-fd56111d8b73": {
    "guid": "2f53d000-336b-4e17-af5b-fd56111d8b73",
    "playRate": 1.0,
    "gameTrigger": "Dialog",
    "gameTriggerArgs": 40062055,
    "personalConfig": 2,
    "parentID": "34f55315-1ad8-4748-bb5d-6f63932a0fdb",
    "sourceNames": [
      {
        "sourceFileName": "VO_AQ\\VO_neuvillette\\vo_FDAQ003_30_neuvillette_06.wem",
        "rate": 1.0,
        "avatarName": "",
        "emotion": ""
      }
    ]
  },
  "386fd63d-30c7-43c8-a9d6-e84963f2affa": {
    "guid": "386fd63d-30c7-43c8-a9d6-e84963f2affa",
    "playRate": 1.0,
    "gameTrigger": "Dialog",
    "gameTriggerArgs": 40062020,
    "personalConfig": 2,
    "parentID": "34f55315-1ad8-4748-bb5d-6f63932a0fdb",
    "sourceNames": [
      {
        "sourceFileName": "VO_AQ\\VO_neuvillette\\vo_FDAQ003_30_neuvillette_03.wem",
        "rate": 1.0,
        "avatarName": "",
        "emotion": ""
      }
    ]
  },
  "3c686d7e-2c55-47a2-af75-aaa049973166": {
    "guid": "3c686d7e-2c55-47a2-af75-aaa049973166",
    "playRate": 1.0,
    "gameTrigger": "Dialog",
    "gameTriggerArgs": 40062035,
    "personalConfig": 2,
    "parentID": "34f55315-1ad8-4748-bb5d-6f63932a0fdb",
    "sourceNames": [
      {
        "sourceFileName": "VO_AQ\\VO_NPC\\vo_FDAQ003_30_audienceC_01.wem",
        "rate": 1.0,
        "avatarName": "",
        "emotion": ""
      }
    ]
  },
  "40233a74-a216-44a6-9f66-343629dd5899": {
    "guid": "40233a74-a216-44a6-9f66-343629dd5899",
    "playRate": 1.0,
    "gameTrigger": "Dialog",
    "gameTriggerArgs": 40062072,
    "personalConfig": 2,
    "parentID": "34f55315-1ad8-4748-bb5d-6f63932a0fdb",
    "sourceNames": [
      {
        "sourceFileName": "VO_AQ\\VO_neuvillette\\vo_FDAQ003_30_neuvillette_11.wem",
        "rate": 1.0,
        "avatarName": "",
        "emotion": ""
      }
    ]
  },
  "4244a1f7-979f-4e85-89ca-55b2b5f2516a": {
    "guid": "4244a1f7-979f-4e85-89ca-55b2b5f2516a",
    "playRate": 1.0,
    "gameTrigger": "Dialog",
    "gameTriggerArgs": 40062047,
    "personalConfig": 2,
    "parentID": "34f55315-1ad8-4748-bb5d-6f63932a0fdb",
    "sourceNames": [
      {
        "sourceFileName": "VO_AQ\\VO_lyney\\vo_FDAQ003_30_lyney_08.wem",
        "rate": 1.0,
        "avatarName": "",
        "emotion": ""
      }
    ]
  },
  "434a8b7e-411e-4aa1-816f-164c2b498099": {
    "guid": "434a8b7e-411e-4aa1-816f-164c2b498099",
    "playRate": 1.0,
    "gameTrigger": "Dialog",
    "gameTriggerArgs": 40062079,
    "personalConfig": 2,
    "parentID": "34f55315-1ad8-4748-bb5d-6f63932a0fdb",
    "sourceNames": [
      {
        "sourceFileName": "VO_AQ\\VO_furina\\vo_FDAQ003_30_furina_17.wem",
        "rate": 1.0,
        "avatarName": "",
        "emotion": ""
      }
    ]
  },
  "4e847133-5d40-4ce5-92a8-58498f125486": {
    "guid": "4e847133-5d40-4ce5-92a8-58498f125486",
    "playRate": 1.0,
    "gameTrigger": "Dialog",
    "gameTriggerArgs": 40062050,
    "personalConfig": 2,
    "NJKDHJOHKCM": 1,
    "parentID": "34f55315-1ad8-4748-bb5d-6f63932a0fdb",
    "sourceNames": [
      {
        "sourceFileName": "VO_AQ\\VO_furina\\vo_FDAQ003_30_furina_14.wem",
        "rate": 1.0,
        "avatarName": "",
        "emotion": ""
      }
    ]
  },
  "54276a5d-8ab3-4e3c-a4b7-3d0e47d3d9cc": {
    "guid": "54276a5d-8ab3-4e3c-a4b7-3d0e47d3d9cc",
    "playRate": 1.0,
    "gameTrigger": "Dialog",
    "gameTriggerArgs": 40062075,
    "personalConfig": 2,
    "parentID": "34f55315-1ad8-4748-bb5d-6f63932a0fdb",
    "sourceNames": [
      {
        "sourceFileName": "VO_AQ\\VO_NPC\\vo_FDAQ003_30_audienceF_01.wem",
        "rate": 1.0,
        "avatarName": "",
        "emotion": ""
      }
    ]
  },
  "5ad4feb3-4207-47d0-98f3-5e00030349d2": {
    "guid": "5ad4feb3-4207-47d0-98f3-5e00030349d2",
    "playRate": 1.0,
    "gameTrigger": "Dialog",
    "gameTriggerArgs": 40062076,
    "personalConfig": 2,
    "parentID": "34f55315-1ad8-4748-bb5d-6f63932a0fdb",
    "sourceNames": [
      {
        "sourceFileName": "VO_AQ\\VO_neuvillette\\vo_FDAQ003_30_neuvillette_12.wem",
        "rate": 1.0,
        "avatarName": "",
        "emotion": ""
      }
    ]
  },
  "5b4481c3-26e6-4752-b5ff-c91be68d0445": {
    "guid": "5b4481c3-26e6-4752-b5ff-c91be68d0445",
    "playRate": 1.0,
    "gameTrigger": "Dialog",
    "gameTriggerArgs": 40062041,
    "personalConfig": 2,
    "parentID": "34f55315-1ad8-4748-bb5d-6f63932a0fdb",
    "sourceNames": [
      {
        "sourceFileName": "VO_AQ\\VO_furina\\vo_FDAQ003_30_furina_11.wem",
        "rate": 1.0,
        "avatarName": "",
        "emotion": ""
      }
    ]
  },
  "636b13df-166d-418e-b41b-1a8b06294ba6": {
    "guid": "636b13df-166d-418e-b41b-1a8b06294ba6",
    "playRate": 1.0,
    "gameTrigger": "Dialog",
    "gameTriggerArgs": 40062042,
    "personalConfig": 2,
    "parentID": "34f55315-1ad8-4748-bb5d-6f63932a0fdb",
    "sourceNames": [
      {
        "sourceFileName": "VO_AQ\\VO_paimon\\vo_FDAQ003_30_paimon_07.wem",
        "rate": 1.0,
        "avatarName": "",
        "emotion": ""
      }
    ]
  },
  "64df9dcd-9d52-4d32-a191-7e862064ba56": {
    "guid": "64df9dcd-9d52-4d32-a191-7e862064ba56",
    "playRate": 1.0,
    "gameTrigger": "Dialog",
    "gameTriggerArgs": 40062007,
    "personalConfig": 2,
    "parentID": "34f55315-1ad8-4748-bb5d-6f63932a0fdb",
    "sourceNames": [
      {
        "sourceFileName": "VO_AQ\\VO_paimon\\vo_FDAQ003_30_paimon_03.wem",
        "rate": 1.0,
        "avatarName": "",
        "emotion": ""
      }
    ]
  },
  "676f4ca8-948c-425f-a942-3551983c6ced": {
    "guid": "676f4ca8-948c-425f-a942-3551983c6ced",
    "playRate": 1.0,
    "gameTrigger": "Dialog",
    "gameTriggerArgs": 40062074,
    "personalConfig": 2,
    "parentID": "34f55315-1ad8-4748-bb5d-6f63932a0fdb",
    "sourceNames": [
      {
        "sourceFileName": "VO_AQ\\VO_NPC\\vo_FDAQ003_30_audienceD_03.wem",
        "rate": 1.0,
        "avatarName": "",
        "emotion": ""
      }
    ]
  },
  "68220aeb-8fd5-4f0b-98a0-1130c8166e02": {
    "guid": "68220aeb-8fd5-4f0b-98a0-1130c8166e02",
    "playRate": 1.0,
    "gameTrigger": "Dialog",
    "gameTriggerArgs": 40062014,
    "personalConfig": 2,
    "parentID": "34f55315-1ad8-4748-bb5d-6f63932a0fdb",
    "sourceNames": [
      {
        "sourceFileName": "VO_AQ\\VO_furina\\vo_FDAQ003_30_furina_03.wem",
        "rate": 1.0,
        "avatarName": "",
        "emotion": ""
      }
    ]
  },
  "7106fcea-5214-4c52-a6ff-9c37e3346d5e": {
    "guid": "7106fcea-5214-4c52-a6ff-9c37e3346d5e",
    "playRate": 1.0,
    "gameTrigger": "Dialog",
    "gameTriggerArgs": 40062053,
    "personalConfig": 2,
    "parentID": "34f55315-1ad8-4748-bb5d-6f63932a0fdb",
    "sourceNames": [
      {
        "sourceFileName": "VO_AQ\\VO_paimon\\vo_FDAQ003_30_paimon_08.wem",
        "rate": 1.0,
        "avatarName": "",
        "emotion": ""
      }
    ]
  },
  "72f83b73-efa0-499a-9b1f-af192389622d": {
    "guid": "72f83b73-efa0-499a-9b1f-af192389622d",
    "playRate": 1.0,
    "gameTrigger": "Dialog",
    "gameTriggerArgs": 40062039,
    "personalConfig": 2,
    "parentID": "34f55315-1ad8-4748-bb5d-6f63932a0fdb",
    "sourceNames": [
      {
        "sourceFileName": "VO_AQ\\VO_furina\\vo_FDAQ003_30_furina_09.wem",
        "rate": 1.0,
        "avatarName": "",
        "emotion": ""
      }
    ]
  },
  "76636b1e-b96f-42b7-82e5-8757b95b072d": {
    "guid": "76636b1e-b96f-42b7-82e5-8757b95b072d",
    "playRate": 1.0,
    "gameTrigger": "Dialog",
    "gameTriggerArgs": 40062062,
    "personalConfig": 2,
    "parentID": "34f55315-1ad8-4748-bb5d-6f63932a0fdb",
    "sourceNames": [
      {
        "sourceFileName": "VO_AQ\\VO_neuvillette\\vo_FDAQ003_30_neuvillette_09.wem",
        "rate": 1.0,
        "avatarName": "",
        "emotion": ""
      }
    ]
  },
  "783db3ec-d7ca-4997-ac62-aa8b2d9df820": {
    "guid": "783db3ec-d7ca-4997-ac62-aa8b2d9df820",
    "playRate": 1.0,
    "gameTrigger": "Dialog",
    "gameTriggerArgs": 40062017,
    "personalConfig": 2,
    "parentID": "34f55315-1ad8-4748-bb5d-6f63932a0fdb",
    "sourceNames": [
      {
        "sourceFileName": "VO_AQ\\VO_neuvillette\\vo_FDAQ003_30_neuvillette_02.wem",
        "rate": 1.0,
        "avatarName": "",
        "emotion": ""
      }
    ]
  },
  "7d0caa29-491f-4fb1-a50d-7e68e2bdd6a3": {
    "guid": "7d0caa29-491f-4fb1-a50d-7e68e2bdd6a3",
    "playRate": 1.0,
    "gameTrigger": "Dialog",
    "gameTriggerArgs": 40062027,
    "personalConfig": 2,
    "parentID": "34f55315-1ad8-4748-bb5d-6f63932a0fdb",
    "sourceNames": [
      {
        "sourceFileName": "VO_AQ\\VO_furina\\vo_FDAQ003_30_furina_06.wem",
        "rate": 1.0,
        "avatarName": "",
        "emotion": ""
      }
    ]
  },
  "8283a304-6b2c-44c1-907d-e4993448b623": {
    "guid": "8283a304-6b2c-44c1-907d-e4993448b623",
    "playRate": 1.0,
    "gameTrigger": "Dialog",
    "gameTriggerArgs": 40062052,
    "personalConfig": 2,
    "parentID": "34f55315-1ad8-4748-bb5d-6f63932a0fdb",
    "sourceNames": [
      {
        "sourceFileName": "VO_AQ\\VO_lyney\\vo_FDAQ003_30_lyney_09.wem",
        "rate": 1.0,
        "avatarName": "",
        "emotion": ""
      }
    ]
  },
  "876ee56b-21e5-4b67-9464-137d1188faf7": {
    "guid": "876ee56b-21e5-4b67-9464-137d1188faf7",
    "playRate": 1.0,
    "gameTrigger": "Dialog",
    "gameTriggerArgs": 40062066,
    "personalConfig": 2,
    "parentID": "34f55315-1ad8-4748-bb5d-6f63932a0fdb",
    "sourceNames": [
      {
        "sourceFileName": "VO_AQ\\VO_NPC\\vo_FDAQ003_30_audienceC_03.wem",
        "rate": 1.0,
        "avatarName": "",
        "emotion": ""
      }
    ]
  },
  "87facddb-f862-48f4-8de4-ef5f18174f44": {
    "guid": "87facddb-f862-48f4-8de4-ef5f18174f44",
    "playRate": 1.0,
    "gameTrigger": "Dialog",
    "gameTriggerArgs": 40062013,
    "personalConfig": 2,
    "parentID": "34f55315-1ad8-4748-bb5d-6f63932a0fdb",
    "sourceNames": [
      {
        "sourceFileName": "VO_AQ\\VO_furina\\vo_FDAQ003_30_furina_02.wem",
        "rate": 1.0,
        "avatarName": "",
        "emotion": ""
      }
    ]
  },
  "8b99ff2f-59f7-40aa-925a-837df78a15ee": {
    "guid": "8b99ff2f-59f7-40aa-925a-837df78a15ee",
    "playRate": 1.0,
    "gameTrigger": "Dialog",
    "gameTriggerArgs": 40062046,
    "personalConfig": 2,
    "parentID": "34f55315-1ad8-4748-bb5d-6f63932a0fdb",
    "sourceNames": [
      {
        "sourceFileName": "VO_AQ\\VO_NPC\\vo_FDAQ003_30_audienceD_02.wem",
        "rate": 1.0,
        "avatarName": "",
        "emotion": ""
      }
    ]
  },
  "8d246bac-c35c-44c3-bec5-b44f5eab779c": {
    "guid": "8d246bac-c35c-44c3-bec5-b44f5eab779c",
    "playRate": 1.0,
    "gameTrigger": "Dialog",
    "gameTriggerArgs": 40062077,
    "personalConfig": 2,
    "parentID": "34f55315-1ad8-4748-bb5d-6f63932a0fdb",
    "sourceNames": [
      {
        "sourceFileName": "VO_AQ\\VO_neuvillette\\vo_FDAQ003_30_neuvillette_13.wem",
        "rate": 1.0,
        "avatarName": "",
        "emotion": ""
      }
    ]
  },
  "8e5d5e9b-b42d-4f43-9ecd-db102ab51d58": {
    "guid": "8e5d5e9b-b42d-4f43-9ecd-db102ab51d58",
    "playRate": 1.0,
    "gameTrigger": "Dialog",
    "gameTriggerArgs": 40062045,
    "personalConfig": 2,
    "parentID": "34f55315-1ad8-4748-bb5d-6f63932a0fdb",
    "sourceNames": [
      {
        "sourceFileName": "VO_AQ\\VO_NPC\\vo_FDAQ003_30_audienceE_01.wem",
        "rate": 1.0,
        "avatarName": "",
        "emotion": ""
      }
    ]
  },
  "95e67fb2-a284-45b6-81b9-4e1f558dfb6d": {
    "guid": "95e67fb2-a284-45b6-81b9-4e1f558dfb6d",
    "playRate": 1.0,
    "gameTrigger": "Dialog",
    "gameTriggerArgs": 40062032,
    "personalConfig": 2,
    "parentID": "34f55315-1ad8-4748-bb5d-6f63932a0fdb",
    "sourceNames": [
      {
        "sourceFileName": "VO_AQ\\VO_lyney\\vo_FDAQ003_30_lyney_07.wem",
        "rate": 1.0,
        "avatarName": "",
        "emotion": ""
      }
    ]
  },
  "9b347441-aa06-43fb-8280-06610accff3c": {
    "guid": "9b347441-aa06-43fb-8280-06610accff3c",
    "playRate": 1.0,
    "gameTrigger": "Dialog",
    "gameTriggerArgs": 40062008,
    "personalConfig": 2,
    "parentID": "34f55315-1ad8-4748-bb5d-6f63932a0fdb",
    "sourceNames": [
      {
        "sourceFileName": "VO_AQ\\VO_navia\\vo_FDAQ003_30_navia_03.wem",
        "rate": 1.0,
        "avatarName": "",
        "emotion": ""
      }
    ]
  },
  "9eaead92-cd5d-4d81-992a-0d3eb8406f4b": {
    "guid": "9eaead92-cd5d-4d81-992a-0d3eb8406f4b",
    "playRate": 1.0,
    "gameTrigger": "Dialog",
    "gameTriggerArgs": 40062051,
    "personalConfig": 2,
    "NJKDHJOHKCM": 1,
    "parentID": "34f55315-1ad8-4748-bb5d-6f63932a0fdb",
    "sourceNames": [
      {
        "sourceFileName": "VO_AQ\\VO_furina\\vo_FDAQ003_30_furina_15.wem",
        "rate": 1.0,
        "avatarName": "",
        "emotion": ""
      }
    ]
  },
  "9eafdedc-7ba2-49ed-b523-8d1640425c32": {
    "guid": "9eafdedc-7ba2-49ed-b523-8d1640425c32",
    "playRate": 1.0,
    "gameTrigger": "Dialog",
    "gameTriggerArgs": 40062011,
    "personalConfig": 2,
    "parentID": "34f55315-1ad8-4748-bb5d-6f63932a0fdb",
    "sourceNames": [
      {
        "sourceFileName": "VO_AQ\\VO_lynette\\vo_FDAQ003_30_lynette_01.wem",
        "rate": 1.0,
        "avatarName": "",
        "emotion": ""
      }
    ]
  },
  "9fe18cf0-ba14-4d1d-9535-899eaa48d035": {
    "guid": "9fe18cf0-ba14-4d1d-9535-899eaa48d035",
    "playRate": 1.0,
    "gameTrigger": "Dialog",
    "gameTriggerArgs": 40062048,
    "personalConfig": 2,
    "parentID": "34f55315-1ad8-4748-bb5d-6f63932a0fdb",
    "sourceNames": [
      {
        "sourceFileName": "VO_AQ\\VO_furina\\vo_FDAQ003_30_furina_12.wem",
        "rate": 1.0,
        "avatarName": "",
        "emotion": ""
      }
    ]
  },
  "a099cc07-9ef9-456a-a715-77e31b969da8": {
    "guid": "a099cc07-9ef9-456a-a715-77e31b969da8",
    "playRate": 1.0,
    "gameTrigger": "Dialog",
    "gameTriggerArgs": 40062067,
    "personalConfig": 2,
    "parentID": "34f55315-1ad8-4748-bb5d-6f63932a0fdb",
    "sourceNames": [
      {
        "sourceFileName": "VO_AQ\\VO_paimon\\vo_FDAQ003_30_paimon_09.wem",
        "rate": 1.0,
        "avatarName": "",
        "emotion": ""
      }
    ]
  },
  "a1d05753-5a4d-49b1-9636-faa907960c32": {
    "guid": "a1d05753-5a4d-49b1-9636-faa907960c32",
    "playRate": 1.0,
    "gameTrigger": "Dialog",
    "gameTriggerArgs": 40062012,
    "personalConfig": 2,
    "parentID": "34f55315-1ad8-4748-bb5d-6f63932a0fdb",
    "sourceNames": [
      {
        "sourceFileName": "VO_AQ\\VO_furina\\vo_FDAQ003_30_furina_01.wem",
        "rate": 1.0,
        "avatarName": "",
        "emotion": ""
      }
    ]
  },
  "a40e75d2-25a6-4c64-b95a-37d04264e843": {
    "guid": "a40e75d2-25a6-4c64-b95a-37d04264e843",
    "playRate": 1.0,
    "gameTrigger": "Dialog",
    "gameTriggerArgs": 40062058,
    "personalConfig": 2,
    "parentID": "34f55315-1ad8-4748-bb5d-6f63932a0fdb",
    "sourceNames": [
      {
        "sourceFileName": "VO_AQ\\VO_lyney\\vo_FDAQ003_30_lyney_10.wem",
        "rate": 1.0,
        "avatarName": "",
        "emotion": ""
      }
    ]
  },
  "a42646b5-b038-4560-a91f-8c9df3fe8606": {
    "guid": "a42646b5-b038-4560-a91f-8c9df3fe8606",
    "playRate": 1.0,
    "gameTrigger": "Dialog",
    "gameTriggerArgs": 40062022,
    "personalConfig": 2,
    "parentID": "34f55315-1ad8-4748-bb5d-6f63932a0fdb",
    "sourceNames": [
      {
        "sourceFileName": "VO_AQ\\VO_lyney\\vo_FDAQ003_30_lyney_03.wem",
        "rate": 1.0,
        "avatarName": "",
        "emotion": ""
      }
    ]
  },
  "a476d6be-8072-4fe8-9bff-fd8a4226c5e2": {
    "guid": "a476d6be-8072-4fe8-9bff-fd8a4226c5e2",
    "playRate": 1.0,
    "gameTrigger": "Dialog",
    "gameTriggerArgs": 40062026,
    "personalConfig": 2,
    "parentID": "34f55315-1ad8-4748-bb5d-6f63932a0fdb",
    "sourceNames": [
      {
        "sourceFileName": "VO_AQ\\VO_lyney\\vo_FDAQ003_30_lyney_04.wem",
        "rate": 1.0,
        "avatarName": "",
        "emotion": ""
      }
    ]
  },
  "a58b74a3-de12-49dd-af37-733273ca6a03": {
    "guid": "a58b74a3-de12-49dd-af37-733273ca6a03",
    "playRate": 1.0,
    "gameTrigger": "Dialog",
    "gameTriggerArgs": 40062069,
    "personalConfig": 2,
    "parentID": "34f55315-1ad8-4748-bb5d-6f63932a0fdb",
    "sourceNames": [
      {
        "sourceFileName": "VO_AQ\\VO_neuvillette\\vo_FDAQ003_30_neuvillette_10.wem",
        "rate": 1.0,
        "avatarName": "",
        "emotion": ""
      }
    ]
  },
  "a7590e10-f79c-4c8c-b974-c1ddeee06407": {
    "guid": "a7590e10-f79c-4c8c-b974-c1ddeee06407",
    "playRate": 1.0,
    "gameTrigger": "Dialog",
    "gameTriggerArgs": 40062030,
    "personalConfig": 2,
    "parentID": "34f55315-1ad8-4748-bb5d-6f63932a0fdb",
    "sourceNames": [
      {
        "sourceFileName": "VO_AQ\\VO_lyney\\vo_FDAQ003_30_lyney_06.wem",
        "rate": 1.0,
        "avatarName": "",
        "emotion": ""
      }
    ]
  },
  "aa5007f7-b3d8-4970-be3c-626418bc3655": {
    "guid": "aa5007f7-b3d8-4970-be3c-626418bc3655",
    "playRate": 1.0,
    "gameTrigger": "Dialog",
    "gameTriggerArgs": 40062037,
    "personalConfig": 2,
    "parentID": "34f55315-1ad8-4748-bb5d-6f63932a0fdb",
    "sourceNames": [
      {
        "sourceFileName": "VO_AQ\\VO_paimon\\vo_FDAQ003_30_paimon_06.wem",
        "rate": 1.0,
        "avatarName": "",
        "emotion": ""
      }
    ]
  },
  "c39fc8e6-4d8d-460e-9934-3d8777b7a730": {
    "guid": "c39fc8e6-4d8d-460e-9934-3d8777b7a730",
    "playRate": 1.0,
    "gameTrigger": "Dialog",
    "gameTriggerArgs": 40062040,
    "personalConfig": 2,
    "parentID": "34f55315-1ad8-4748-bb5d-6f63932a0fdb",
    "sourceNames": [
      {
        "sourceFileName": "VO_AQ\\VO_furina\\vo_FDAQ003_30_furina_10.wem",
        "rate": 1.0,
        "avatarName": "",
        "emotion": ""
      }
    ]
  },
  "c3bcd215-fef8-43b5-bb61-6c78f9c7dbbb": {
    "guid": "c3bcd215-fef8-43b5-bb61-6c78f9c7dbbb",
    "playRate": 1.0,
    "gameTrigger": "Dialog",
    "gameTriggerArgs": 40062006,
    "personalConfig": 2,
    "parentID": "34f55315-1ad8-4748-bb5d-6f63932a0fdb",
    "sourceNames": [
      {
        "sourceFileName": "VO_AQ\\VO_navia\\vo_FDAQ003_30_navia_02.wem",
        "rate": 1.0,
        "avatarName": "",
        "emotion": ""
      }
    ]
  },
  "c423d8ad-f937-4be2-9d73-b34bfc030d39": {
    "guid": "c423d8ad-f937-4be2-9d73-b34bfc030d39",
    "playRate": 1.0,
    "gameTrigger": "Dialog",
    "gameTriggerArgs": 40062063,
    "personalConfig": 2,
    "parentID": "34f55315-1ad8-4748-bb5d-6f63932a0fdb",
    "sourceNames": [
      {
        "sourceFileName": "VO_AQ\\VO_lyney\\vo_FDAQ003_30_lyney_11.wem",
        "rate": 1.0,
        "avatarName": "",
        "emotion": ""
      }
    ]
  },
  "c5a5cddb-211a-4d63-a4cd-55c8a779afb4": {
    "guid": "c5a5cddb-211a-4d63-a4cd-55c8a779afb4",
    "playRate": 1.0,
    "gameTrigger": "Dialog",
    "gameTriggerArgs": 40062064,
    "personalConfig": 2,
    "parentID": "34f55315-1ad8-4748-bb5d-6f63932a0fdb",
    "sourceNames": [
      {
        "sourceFileName": "VO_AQ\\VO_lyney\\vo_FDAQ003_30_lyney_12.wem",
        "rate": 1.0,
        "avatarName": "",
        "emotion": ""
      }
    ]
  },
  "ca8da8b5-7ff2-48e4-9b71-a669c0959b24": {
    "guid": "ca8da8b5-7ff2-48e4-9b71-a669c0959b24",
    "playRate": 1.0,
    "gameTrigger": "Dialog",
    "gameTriggerArgs": 40062001,
    "personalConfig": 2,
    "parentID": "34f55315-1ad8-4748-bb5d-6f63932a0fdb",
    "sourceNames": [
      {
        "sourceFileName": "VO_AQ\\VO_paimon\\vo_FDAQ003_30_paimon_01.wem",
        "rate": 1.0,
        "avatarName": "",
        "emotion": ""
      }
    ]
  },
  "cd645185-b842-4ab7-821c-85fe026d53a2": {
    "guid": "cd645185-b842-4ab7-821c-85fe026d53a2",
    "playRate": 1.0,
    "gameTrigger": "Dialog",
    "gameTriggerArgs": 40062024,
    "personalConfig": 2,
    "parentID": "34f55315-1ad8-4748-bb5d-6f63932a0fdb",
    "sourceNames": [
      {
        "sourceFileName": "VO_AQ\\VO_furina\\vo_FDAQ003_30_furina_04.wem",
        "rate": 1.0,
        "avatarName": "",
        "emotion": ""
      }
    ]
  },
  "cdc9c939-74e3-4ccd-a8de-558aa8d69ae2": {
    "guid": "cdc9c939-74e3-4ccd-a8de-558aa8d69ae2",
    "playRate": 1.0,
    "gameTrigger": "Dialog",
    "gameTriggerArgs": 40062005,
    "personalConfig": 2,
    "parentID": "34f55315-1ad8-4748-bb5d-6f63932a0fdb",
    "sourceNames": [
      {
        "sourceFileName": "VO_AQ\\VO_navia\\vo_FDAQ003_30_navia_01.wem",
        "rate": 1.0,
        "avatarName": "",
        "emotion": ""
      }
    ]
  },
  "cff47e5f-62ed-4fd2-b6bc-65c41a108d07": {
    "guid": "cff47e5f-62ed-4fd2-b6bc-65c41a108d07",
    "playRate": 1.0,
    "gameTrigger": "Dialog",
    "gameTriggerArgs": 40062049,
    "personalConfig": 2,
    "parentID": "34f55315-1ad8-4748-bb5d-6f63932a0fdb",
    "sourceNames": [
      {
        "sourceFileName": "VO_AQ\\VO_furina\\vo_FDAQ003_30_furina_13.wem",
        "rate": 1.0,
        "avatarName": "",
        "emotion": ""
      }
    ]
  },
  "df84c105-e9cb-4ec9-9cbe-2902d3bdf5f8": {
    "guid": "df84c105-e9cb-4ec9-9cbe-2902d3bdf5f8",
    "playRate": 1.0,
    "gameTrigger": "Dialog",
    "gameTriggerArgs": 40062010,
    "personalConfig": 2,
    "parentID": "34f55315-1ad8-4748-bb5d-6f63932a0fdb",
    "sourceNames": [
      {
        "sourceFileName": "VO_AQ\\VO_paimon\\vo_FDAQ003_30_paimon_04.wem",
        "rate": 1.0,
        "avatarName": "",
        "emotion": ""
      }
    ]
  },
  "e721b080-a2b2-4464-981e-df20f645386a": {
    "guid": "e721b080-a2b2-4464-981e-df20f645386a",
    "playRate": 1.0,
    "gameTrigger": "Dialog",
    "gameTriggerArgs": 40062036,
    "personalConfig": 2,
    "parentID": "34f55315-1ad8-4748-bb5d-6f63932a0fdb",
    "sourceNames": [
      {
        "sourceFileName": "VO_AQ\\VO_NPC\\vo_FDAQ003_30_audienceD_01.wem",
        "rate": 1.0,
        "avatarName": "",
        "emotion": ""
      }
    ]
  },
  "e74b7b08-73d2-4823-9dfd-3f41540cf98f": {
    "guid": "e74b7b08-73d2-4823-9dfd-3f41540cf98f",
    "playRate": 1.0,
    "gameTrigger": "Dialog",
    "gameTriggerArgs": 40062016,
    "personalConfig": 2,
    "parentID": "34f55315-1ad8-4748-bb5d-6f63932a0fdb",
    "sourceNames": [
      {
        "sourceFileName": "VO_AQ\\VO_neuvillette\\vo_FDAQ003_30_neuvillette_01.wem",
        "rate": 1.0,
        "avatarName": "",
        "emotion": ""
      }
    ]
  },
  "ede6129c-2487-4122-b646-f24115811e0a": {
    "guid": "ede6129c-2487-4122-b646-f24115811e0a",
    "playRate": 1.0,
    "gameTrigger": "Dialog",
    "gameTriggerArgs": 40062009,
    "personalConfig": 2,
    "parentID": "34f55315-1ad8-4748-bb5d-6f63932a0fdb",
    "sourceNames": [
      {
        "sourceFileName": "VO_AQ\\VO_lyney\\vo_FDAQ003_30_lyney_01.wem",
        "rate": 1.0,
        "avatarName": "",
        "emotion": ""
      }
    ]
  },
  "f1c6d060-9e7b-41f4-adda-5cc2d28ccc87": {
    "guid": "f1c6d060-9e7b-41f4-adda-5cc2d28ccc87",
    "playRate": 1.0,
    "gameTrigger": "Dialog",
    "gameTriggerArgs": 40062021,
    "personalConfig": 2,
    "parentID": "34f55315-1ad8-4748-bb5d-6f63932a0fdb",
    "sourceNames": [
      {
        "sourceFileName": "VO_AQ\\VO_neuvillette\\vo_FDAQ003_30_neuvillette_04.wem",
        "rate": 1.0,
        "avatarName": "",
        "emotion": ""
      }
    ]
  },
  "f8f16e92-e57f-4ad5-b637-5bfb85176810": {
    "guid": "f8f16e92-e57f-4ad5-b637-5bfb85176810",
    "playRate": 1.0,
    "gameTrigger": "Dialog",
    "gameTriggerArgs": 40062044,
    "personalConfig": 2,
    "parentID": "34f55315-1ad8-4748-bb5d-6f63932a0fdb",
    "sourceNames": [
      {
        "sourceFileName": "VO_AQ\\VO_NPC\\vo_FDAQ003_30_audienceC_02.wem",
        "rate": 1.0,
        "avatarName": "",
        "emotion": ""
      }
    ]
  },
  "f9bfef31-713c-497e-98b4-42f8d5c25f45": {
    "guid": "f9bfef31-713c-497e-98b4-42f8d5c25f45",
    "playRate": 1.0,
    "gameTrigger": "Dialog",
    "gameTriggerArgs": 40062025,
    "personalConfig": 2,
    "parentID": "34f55315-1ad8-4748-bb5d-6f63932a0fdb",
    "sourceNames": [
      {
        "sourceFileName": "VO_AQ\\VO_furina\\vo_FDAQ003_30_furina_05.wem",
        "rate": 1.0,
        "avatarName": "",
        "emotion": ""
      }
    ]
  },
  "fcea33b2-6cab-4d05-911e-b0470e88a6d4": {
    "guid": "fcea33b2-6cab-4d05-911e-b0470e88a6d4",
    "playRate": 1.0,
    "gameTrigger": "Dialog",
    "gameTriggerArgs": 40062018,
    "personalConfig": 2,
    "parentID": "34f55315-1ad8-4748-bb5d-6f63932a0fdb",
    "sourceNames": [
      {
        "sourceFileName": "VO_AQ\\VO_lyney\\vo_FDAQ003_30_lyney_02.wem",
        "rate": 1.0,
        "avatarName": "",
        "emotion": ""
      }
    ]
  }
}