{
  "001ae4b1-ccbc-4c1b-b2c8-6ad9f2979673": {
    "guid": "001ae4b1-ccbc-4c1b-b2c8-6ad9f2979673",
    "playRate": 1.0,
    "gameTrigger": "Dialog",
    "gameTriggerArgs": 400972304,
    "personalConfig": 2,
    "parentID": "8379223d-d1b8-4a92-b98b-4f0066cb0943",
    "sourceNames": [
      {
        "sourceFileName": "VO_freetalk\\VO_eula\\vo_dialog_EQFH101_eula_01.wem",
        "rate": 1.0,
        "avatarName": "",
        "emotion": ""
      }
    ]
  },
  "03f8ad5e-bd17-4074-a6dc-a37cae4a42a6": {
    "guid": "03f8ad5e-bd17-4074-a6dc-a37cae4a42a6",
    "playRate": 1.0,
    "gameTrigger": "Dialog",
    "gameTriggerArgs": 400270903,
    "personalConfig": 2,
    "parentID": "8379223d-d1b8-4a92-b98b-4f0066cb0943",
    "sourceNames": [
      {
        "sourceFileName": "VO_freetalk\\VO_eula\\vo_dialog_EQXS103_eula_02a_1.wem",
        "rate": 1.0,
        "avatarName": "",
        "emotion": ""
      }
    ]
  },
  "06717aed-ff34-4448-b916-e2bd7c66251e": {
    "guid": "06717aed-ff34-4448-b916-e2bd7c66251e",
    "playRate": 1.0,
    "gameTrigger": "Dialog",
    "gameTriggerArgs": 400270901,
    "personalConfig": 2,
    "parentID": "8379223d-d1b8-4a92-b98b-4f0066cb0943",
    "sourceNames": [
      {
        "sourceFileName": "VO_freetalk\\VO_eula\\vo_dialog_EQXS103_eula_01.wem",
        "rate": 1.0,
        "avatarName": "",
        "emotion": ""
      }
    ]
  },
  "14f08ef7-0492-4e59-861e-46478c96cce6": {
    "guid": "14f08ef7-0492-4e59-861e-46478c96cce6",
    "playRate": 1.0,
    "gameTrigger": "Dialog",
    "gameTriggerArgs": 400972313,
    "personalConfig": 2,
    "parentID": "8379223d-d1b8-4a92-b98b-4f0066cb0943",
    "sourceNames": [
      {
        "sourceFileName": "VO_freetalk\\VO_eula\\vo_dialog_EQFH101_eula_03.wem",
        "rate": 1.0,
        "avatarName": "",
        "emotion": ""
      }
    ]
  },
  "214d9298-40aa-4c82-8a62-46db8862e2a9": {
    "guid": "214d9298-40aa-4c82-8a62-46db8862e2a9",
    "playRate": 1.0,
    "gameTrigger": "Dialog",
    "gameTriggerArgs": 400270914,
    "personalConfig": 2,
    "parentID": "8379223d-d1b8-4a92-b98b-4f0066cb0943",
    "sourceNames": [
      {
        "sourceFileName": "VO_freetalk\\VO_eula\\vo_dialog_EQXS103_eula_02c_3.wem",
        "rate": 1.0,
        "avatarName": "",
        "emotion": ""
      }
    ]
  },
  "2c62213d-bdb4-460e-a40a-07b269bf4fe1": {
    "guid": "2c62213d-bdb4-460e-a40a-07b269bf4fe1",
    "playRate": 1.0,
    "gameTrigger": "Dialog",
    "gameTriggerArgs": 401133010,
    "personalConfig": 2,
    "parentID": "8379223d-d1b8-4a92-b98b-4f0066cb0943",
    "sourceNames": [
      {
        "sourceFileName": "VO_EQ\\VO_eula\\vo_dialog_YQEQ202_eula_02.wem",
        "rate": 1.0,
        "avatarName": "",
        "emotion": ""
      }
    ]
  },
  "33b76dd7-0fb4-4172-b2db-35c2ed967f61": {
    "guid": "33b76dd7-0fb4-4172-b2db-35c2ed967f61",
    "playRate": 1.0,
    "gameTrigger": "Dialog",
    "gameTriggerArgs": 400992308,
    "personalConfig": 2,
    "parentID": "8379223d-d1b8-4a92-b98b-4f0066cb0943",
    "sourceNames": [
      {
        "sourceFileName": "VO_freetalk\\VO_eula\\vo_dialog_EQFH103_eula_02.wem",
        "rate": 1.0,
        "avatarName": "",
        "emotion": ""
      }
    ]
  },
  "38fd1430-4dcd-4e1d-9ff9-86e9ff938116": {
    "guid": "38fd1430-4dcd-4e1d-9ff9-86e9ff938116",
    "playRate": 1.0,
    "gameTrigger": "Dialog",
    "gameTriggerArgs": 101211201,
    "personalConfig": 2,
    "parentID": "8379223d-d1b8-4a92-b98b-4f0066cb0943",
    "sourceNames": [
      {
        "sourceFileName": "VO_freetalk\\VO_eula\\vo_dialog_ELLQ002_eula_01.wem",
        "rate": 1.0,
        "avatarName": "",
        "emotion": ""
      }
    ]
  },
  "390da1b3-e79b-4769-a453-e10742c2e87b": {
    "guid": "390da1b3-e79b-4769-a453-e10742c2e87b",
    "playRate": 1.0,
    "gameTrigger": "Dialog",
    "gameTriggerArgs": 400270919,
    "personalConfig": 2,
    "parentID": "8379223d-d1b8-4a92-b98b-4f0066cb0943",
    "sourceNames": [
      {
        "sourceFileName": "VO_freetalk\\VO_eula\\vo_dialog_EQXS103_eula_02d_4.wem",
        "rate": 1.0,
        "avatarName": "",
        "emotion": ""
      }
    ]
  },
  "39637d3a-2f88-4b56-8bcf-a05b1ac3def2": {
    "guid": "39637d3a-2f88-4b56-8bcf-a05b1ac3def2",
    "playRate": 1.0,
    "gameTrigger": "Dialog",
    "gameTriggerArgs": 401499802,
    "personalConfig": 2,
    "parentID": "8379223d-d1b8-4a92-b98b-4f0066cb0943",
    "sourceNames": [
      {
        "sourceFileName": "VO_freetalk\\VO_eula\\vo_dialog_ZFEQ004_eula_03.wem",
        "rate": 1.0,
        "avatarName": "",
        "emotion": ""
      }
    ]
  },
  "40b6d005-4031-4ef1-859e-1bf2a811f5e3": {
    "guid": "40b6d005-4031-4ef1-859e-1bf2a811f5e3",
    "playRate": 1.0,
    "gameTrigger": "Dialog",
    "gameTriggerArgs": 400270908,
    "personalConfig": 2,
    "parentID": "8379223d-d1b8-4a92-b98b-4f0066cb0943",
    "sourceNames": [
      {
        "sourceFileName": "VO_freetalk\\VO_eula\\vo_dialog_EQXS103_eula_02b_1.wem",
        "rate": 1.0,
        "avatarName": "",
        "emotion": ""
      }
    ]
  },
  "44593d40-9ed6-489d-8033-3cff676a5c93": {
    "guid": "44593d40-9ed6-489d-8033-3cff676a5c93",
    "playRate": 1.0,
    "gameTrigger": "Dialog",
    "gameTriggerArgs": 400992311,
    "personalConfig": 2,
    "parentID": "8379223d-d1b8-4a92-b98b-4f0066cb0943",
    "sourceNames": [
      {
        "sourceFileName": "VO_freetalk\\VO_eula\\vo_dialog_EQFH103_eula_03.wem",
        "rate": 1.0,
        "avatarName": "",
        "emotion": ""
      }
    ]
  },
  "50ce499f-a904-40b1-98d2-0ca9956a4877": {
    "guid": "50ce499f-a904-40b1-98d2-0ca9956a4877",
    "playRate": 1.0,
    "gameTrigger": "Dialog",
    "gameTriggerArgs": 400270916,
    "personalConfig": 2,
    "parentID": "8379223d-d1b8-4a92-b98b-4f0066cb0943",
    "sourceNames": [
      {
        "sourceFileName": "VO_freetalk\\VO_eula\\vo_dialog_EQXS103_eula_02d_1.wem",
        "rate": 1.0,
        "avatarName": "",
        "emotion": ""
      }
    ]
  },
  "55031944-b1a5-48db-83db-bb795593c392": {
    "guid": "55031944-b1a5-48db-83db-bb795593c392",
    "playRate": 1.0,
    "gameTrigger": "Dialog",
    "gameTriggerArgs": 401499801,
    "personalConfig": 2,
    "parentID": "8379223d-d1b8-4a92-b98b-4f0066cb0943",
    "sourceNames": [
      {
        "sourceFileName": "VO_freetalk\\VO_eula\\vo_dialog_ZFEQ004_eula_02.wem",
        "rate": 1.0,
        "avatarName": "",
        "emotion": ""
      }
    ]
  },
  "5b488af4-79cf-4a75-9c45-31e08c67c3ec": {
    "guid": "5b488af4-79cf-4a75-9c45-31e08c67c3ec",
    "playRate": 1.0,
    "gameTrigger": "Dialog",
    "gameTriggerArgs": 400270906,
    "personalConfig": 2,
    "parentID": "8379223d-d1b8-4a92-b98b-4f0066cb0943",
    "sourceNames": [
      {
        "sourceFileName": "VO_freetalk\\VO_eula\\vo_dialog_EQXS103_eula_02a_4.wem",
        "rate": 1.0,
        "avatarName": "",
        "emotion": ""
      }
    ]
  },
  "65265a14-6dbf-4ba1-95b1-46095b841a78": {
    "guid": "65265a14-6dbf-4ba1-95b1-46095b841a78",
    "playRate": 1.0,
    "gameTrigger": "Dialog",
    "gameTriggerArgs": 400270913,
    "personalConfig": 2,
    "parentID": "8379223d-d1b8-4a92-b98b-4f0066cb0943",
    "sourceNames": [
      {
        "sourceFileName": "VO_freetalk\\VO_eula\\vo_dialog_EQXS103_eula_02c_2.wem",
        "rate": 1.0,
        "avatarName": "",
        "emotion": ""
      }
    ]
  },
  "7ef3cbb8-a6a0-4d06-8559-4c21dfcbe2ef": {
    "guid": "7ef3cbb8-a6a0-4d06-8559-4c21dfcbe2ef",
    "playRate": 1.0,
    "gameTrigger": "Dialog",
    "gameTriggerArgs": 401499602,
    "personalConfig": 2,
    "parentID": "8379223d-d1b8-4a92-b98b-4f0066cb0943",
    "sourceNames": [
      {
        "sourceFileName": "VO_freetalk\\VO_eula\\vo_dialog_ZFEQ004_eula_01.wem",
        "rate": 1.0,
        "avatarName": "",
        "emotion": ""
      }
    ]
  },
  "8b9c708c-6134-46a7-9608-0035014e1000": {
    "guid": "8b9c708c-6134-46a7-9608-0035014e1000",
    "playRate": 1.0,
    "gameTrigger": "Dialog",
    "gameTriggerArgs": 400270912,
    "personalConfig": 2,
    "parentID": "8379223d-d1b8-4a92-b98b-4f0066cb0943",
    "sourceNames": [
      {
        "sourceFileName": "VO_freetalk\\VO_eula\\vo_dialog_EQXS103_eula_02c_1.wem",
        "rate": 1.0,
        "avatarName": "",
        "emotion": ""
      }
    ]
  },
  "8f38f632-4bc0-4f8d-b41e-d472b93e6b8e": {
    "guid": "8f38f632-4bc0-4f8d-b41e-d472b93e6b8e",
    "playRate": 1.0,
    "gameTrigger": "Dialog",
    "gameTriggerArgs": 400992306,
    "personalConfig": 2,
    "parentID": "8379223d-d1b8-4a92-b98b-4f0066cb0943",
    "sourceNames": [
      {
        "sourceFileName": "VO_freetalk\\VO_eula\\vo_dialog_EQFH103_eula_01.wem",
        "rate": 1.0,
        "avatarName": "",
        "emotion": ""
      }
    ]
  },
  "9de3c995-8402-40dc-aebd-337ba47083ab": {
    "guid": "9de3c995-8402-40dc-aebd-337ba47083ab",
    "playRate": 1.0,
    "gameTrigger": "Dialog",
    "gameTriggerArgs": 400270918,
    "personalConfig": 2,
    "parentID": "8379223d-d1b8-4a92-b98b-4f0066cb0943",
    "sourceNames": [
      {
        "sourceFileName": "VO_freetalk\\VO_eula\\vo_dialog_EQXS103_eula_02d_3.wem",
        "rate": 1.0,
        "avatarName": "",
        "emotion": ""
      }
    ]
  },
  "a7e49553-5270-4f1c-b81b-433830a6ea31": {
    "guid": "a7e49553-5270-4f1c-b81b-433830a6ea31",
    "playRate": 1.0,
    "gameTrigger": "Dialog",
    "gameTriggerArgs": 400270904,
    "personalConfig": 2,
    "parentID": "8379223d-d1b8-4a92-b98b-4f0066cb0943",
    "sourceNames": [
      {
        "sourceFileName": "VO_freetalk\\VO_eula\\vo_dialog_EQXS103_eula_02a_2.wem",
        "rate": 1.0,
        "avatarName": "",
        "emotion": ""
      }
    ]
  },
  "aae80f78-f64a-4859-8a93-f1b92704b9fd": {
    "guid": "aae80f78-f64a-4859-8a93-f1b92704b9fd",
    "playRate": 1.0,
    "gameTrigger": "Dialog",
    "gameTriggerArgs": 400270905,
    "personalConfig": 2,
    "parentID": "8379223d-d1b8-4a92-b98b-4f0066cb0943",
    "sourceNames": [
      {
        "sourceFileName": "VO_freetalk\\VO_eula\\vo_dialog_EQXS103_eula_02a_3.wem",
        "rate": 1.0,
        "avatarName": "",
        "emotion": ""
      }
    ]
  },
  "bbdca14c-4005-4645-a9bf-45be62961c9b": {
    "guid": "bbdca14c-4005-4645-a9bf-45be62961c9b",
    "playRate": 1.0,
    "gameTrigger": "Dialog",
    "gameTriggerArgs": 400972308,
    "personalConfig": 2,
    "parentID": "8379223d-d1b8-4a92-b98b-4f0066cb0943",
    "sourceNames": [
      {
        "sourceFileName": "VO_freetalk\\VO_eula\\vo_dialog_EQFH101_eula_02.wem",
        "rate": 1.0,
        "avatarName": "",
        "emotion": ""
      }
    ]
  },
  "bcb4eacb-86f2-4a8f-9dde-f0d21711413d": {
    "guid": "bcb4eacb-86f2-4a8f-9dde-f0d21711413d",
    "playRate": 1.0,
    "gameTrigger": "Dialog",
    "gameTriggerArgs": 400270909,
    "personalConfig": 2,
    "parentID": "8379223d-d1b8-4a92-b98b-4f0066cb0943",
    "sourceNames": [
      {
        "sourceFileName": "VO_freetalk\\VO_eula\\vo_dialog_EQXS103_eula_02b_2.wem",
        "rate": 1.0,
        "avatarName": "",
        "emotion": ""
      }
    ]
  },
  "bf5561cc-9c1c-40d3-805e-bfb1eb0512b3": {
    "guid": "bf5561cc-9c1c-40d3-805e-bfb1eb0512b3",
    "playRate": 1.0,
    "gameTrigger": "Dialog",
    "gameTriggerArgs": 400270921,
    "personalConfig": 2,
    "parentID": "8379223d-d1b8-4a92-b98b-4f0066cb0943",
    "sourceNames": [
      {
        "sourceFileName": "VO_freetalk\\VO_eula\\vo_dialog_EQXS103_eula_03.wem",
        "rate": 1.0,
        "avatarName": "",
        "emotion": ""
      }
    ]
  },
  "c0bf2c96-3e5a-42c3-a160-58489415fad2": {
    "guid": "c0bf2c96-3e5a-42c3-a160-58489415fad2",
    "playRate": 1.0,
    "gameTrigger": "Dialog",
    "gameTriggerArgs": 401133006,
    "personalConfig": 2,
    "parentID": "8379223d-d1b8-4a92-b98b-4f0066cb0943",
    "sourceNames": [
      {
        "sourceFileName": "VO_EQ\\VO_eula\\vo_dialog_YQEQ202_eula_01.wem",
        "rate": 1.0,
        "avatarName": "",
        "emotion": ""
      }
    ]
  },
  "d9812346-8fec-41f1-973e-907562e9049c": {
    "guid": "d9812346-8fec-41f1-973e-907562e9049c",
    "playRate": 1.0,
    "gameTrigger": "Dialog",
    "gameTriggerArgs": 400270917,
    "personalConfig": 2,
    "parentID": "8379223d-d1b8-4a92-b98b-4f0066cb0943",
    "sourceNames": [
      {
        "sourceFileName": "VO_freetalk\\VO_eula\\vo_dialog_EQXS103_eula_02d_2.wem",
        "rate": 1.0,
        "avatarName": "",
        "emotion": ""
      }
    ]
  },
  "f279a6fb-2a1c-49bc-947e-8f201f1fd7d5": {
    "guid": "f279a6fb-2a1c-49bc-947e-8f201f1fd7d5",
    "playRate": 1.0,
    "gameTrigger": "Dialog",
    "gameTriggerArgs": 400270910,
    "personalConfig": 2,
    "parentID": "8379223d-d1b8-4a92-b98b-4f0066cb0943",
    "sourceNames": [
      {
        "sourceFileName": "VO_freetalk\\VO_eula\\vo_dialog_EQXS103_eula_02b_3.wem",
        "rate": 1.0,
        "avatarName": "",
        "emotion": ""
      }
    ]
  },
  "f3dca59c-e46d-49d8-82a9-70622eca01a6": {
    "guid": "f3dca59c-e46d-49d8-82a9-70622eca01a6",
    "playRate": 1.0,
    "gameTrigger": "Dialog",
    "gameTriggerArgs": 401192401,
    "personalConfig": 2,
    "parentID": "8379223d-d1b8-4a92-b98b-4f0066cb0943",
    "sourceNames": [
      {
        "sourceFileName": "VO_EQ\\VO_eula\\vo_dialog_YQEQ206_eula_01.wem",
        "rate": 1.0,
        "avatarName": "",
        "emotion": ""
      }
    ]
  }
}