{
  "04fc5e13-681c-40f8-9b6a-bfe42e7b82ae": {
    "guid": "04fc5e13-681c-40f8-9b6a-bfe42e7b82ae",
    "playRate": 1.0,
    "gameTrigger": "Dialog",
    "gameTriggerArgs": 3061201,
    "personalConfig": 2,
    "parentID": "b9476af1-e27f-4a5b-897d-e60ffc90df1f",
    "sourceNames": [
      {
        "sourceFileName": "VO_freetalk\\VO_ambor\\vo_dialog_MDAQ027_ambor_01.wem",
        "rate": 1.0,
        "avatarName": "",
        "emotion": ""
      }
    ]
  },
  "0a39f847-39f6-433f-9116-a1df415c6e25": {
    "guid": "0a39f847-39f6-433f-9116-a1df415c6e25",
    "playRate": 1.0,
    "gameTrigger": "Dialog",
    "gameTriggerArgs": 400270705,
    "personalConfig": 2,
    "parentID": "b9476af1-e27f-4a5b-897d-e60ffc90df1f",
    "sourceNames": [
      {
        "sourceFileName": "VO_freetalk\\VO_ambor\\vo_dialog_EQXS103_ambor_02a_3.wem",
        "rate": 1.0,
        "avatarName": "",
        "emotion": ""
      }
    ]
  },
  "17398e30-6151-4da0-95d1-b0cc96befe61": {
    "guid": "17398e30-6151-4da0-95d1-b0cc96befe61",
    "playRate": 1.0,
    "gameTrigger": "Dialog",
    "gameTriggerArgs": 3982002,
    "personalConfig": 2,
    "parentID": "b9476af1-e27f-4a5b-897d-e60ffc90df1f",
    "sourceNames": [
      {
        "sourceFileName": "VO_freetalk\\VO_ambor\\vo_dialog_MDAQ071_ambor_02.wem",
        "rate": 1.0,
        "avatarName": "",
        "emotion": ""
      }
    ]
  },
  "1aa8bd02-5c00-4d47-868d-87ec8966ddda": {
    "guid": "1aa8bd02-5c00-4d47-868d-87ec8966ddda",
    "playRate": 1.0,
    "gameTrigger": "Dialog",
    "gameTriggerArgs": 4901803,
    "personalConfig": 2,
    "parentID": "b9476af1-e27f-4a5b-897d-e60ffc90df1f",
    "sourceNames": [
      {
        "sourceFileName": "VO_freetalk\\VO_ambor\\vo_dialog_QINLQ005_ambor_02.wem",
        "rate": 1.0,
        "avatarName": "",
        "emotion": ""
      }
    ]
  },
  "1b347b68-c09e-4d12-bb88-30059e624c0d": {
    "guid": "1b347b68-c09e-4d12-bb88-30059e624c0d",
    "playRate": 1.0,
    "gameTrigger": "Dialog",
    "gameTriggerArgs": 3060308,
    "personalConfig": 2,
    "parentID": "b9476af1-e27f-4a5b-897d-e60ffc90df1f",
    "sourceNames": [
      {
        "sourceFileName": "VO_freetalk\\VO_ambor\\vo_dialog_MDAQ025_ambor_02b_1.wem",
        "rate": 1.0,
        "avatarName": "",
        "emotion": ""
      }
    ]
  },
  "21e28f80-40cb-4e46-8453-445d05fcaa55": {
    "guid": "21e28f80-40cb-4e46-8453-445d05fcaa55",
    "playRate": 1.0,
    "gameTrigger": "Dialog",
    "gameTriggerArgs": 3982003,
    "personalConfig": 2,
    "parentID": "b9476af1-e27f-4a5b-897d-e60ffc90df1f",
    "sourceNames": [
      {
        "sourceFileName": "VO_freetalk\\VO_ambor\\vo_dialog_MDAQ071_ambor_03.wem",
        "rate": 1.0,
        "avatarName": "",
        "emotion": ""
      }
    ]
  },
  "22a69cfa-04ed-4448-b909-b017a988b2f5": {
    "guid": "22a69cfa-04ed-4448-b909-b017a988b2f5",
    "playRate": 1.0,
    "gameTrigger": "Dialog",
    "gameTriggerArgs": 3060303,
    "personalConfig": 2,
    "parentID": "b9476af1-e27f-4a5b-897d-e60ffc90df1f",
    "sourceNames": [
      {
        "sourceFileName": "VO_freetalk\\VO_ambor\\vo_dialog_MDAQ025_ambor_02a_1.wem",
        "rate": 1.0,
        "avatarName": "",
        "emotion": ""
      }
    ]
  },
  "24a18aff-00de-4c9b-8ade-5a85cc95f3a5": {
    "guid": "24a18aff-00de-4c9b-8ade-5a85cc95f3a5",
    "playRate": 1.0,
    "gameTrigger": "Dialog",
    "gameTriggerArgs": 400270715,
    "personalConfig": 2,
    "parentID": "b9476af1-e27f-4a5b-897d-e60ffc90df1f",
    "sourceNames": [
      {
        "sourceFileName": "VO_freetalk\\VO_ambor\\vo_dialog_EQXS103_ambor_02d_1.wem",
        "rate": 1.0,
        "avatarName": "",
        "emotion": ""
      }
    ]
  },
  "2f953a08-8f3b-4416-99ca-6ef142b6837b": {
    "guid": "2f953a08-8f3b-4416-99ca-6ef142b6837b",
    "playRate": 1.0,
    "gameTrigger": "Dialog",
    "gameTriggerArgs": 3060311,
    "personalConfig": 2,
    "parentID": "b9476af1-e27f-4a5b-897d-e60ffc90df1f",
    "sourceNames": [
      {
        "sourceFileName": "VO_freetalk\\VO_ambor\\vo_dialog_MDAQ025_ambor_02c.wem",
        "rate": 1.0,
        "avatarName": "",
        "emotion": ""
      }
    ]
  },
  "2ff76548-2df5-483e-9c9b-27a984736ea7": {
    "guid": "2ff76548-2df5-483e-9c9b-27a984736ea7",
    "playRate": 1.0,
    "gameTrigger": "Dialog",
    "gameTriggerArgs": 401499408,
    "personalConfig": 2,
    "parentID": "b9476af1-e27f-4a5b-897d-e60ffc90df1f",
    "sourceNames": [
      {
        "sourceFileName": "VO_freetalk\\VO_ambor\\vo_dialog_ZFEQ004_ambor_07.wem",
        "rate": 1.0,
        "avatarName": "",
        "emotion": ""
      }
    ]
  },
  "31ebc905-2a8f-4d73-9ff4-a1a339e56e18": {
    "guid": "31ebc905-2a8f-4d73-9ff4-a1a339e56e18",
    "playRate": 1.0,
    "gameTrigger": "Dialog",
    "gameTriggerArgs": 400270701,
    "personalConfig": 2,
    "parentID": "b9476af1-e27f-4a5b-897d-e60ffc90df1f",
    "sourceNames": [
      {
        "sourceFileName": "VO_freetalk\\VO_ambor\\vo_dialog_EQXS103_ambor_01.wem",
        "rate": 1.0,
        "avatarName": "",
        "emotion": ""
      }
    ]
  },
  "3731e57d-6ca8-4b40-b542-1e84dc219544": {
    "guid": "3731e57d-6ca8-4b40-b542-1e84dc219544",
    "playRate": 1.0,
    "gameTrigger": "Dialog",
    "gameTriggerArgs": 401499401,
    "personalConfig": 2,
    "parentID": "b9476af1-e27f-4a5b-897d-e60ffc90df1f",
    "sourceNames": [
      {
        "sourceFileName": "VO_freetalk\\VO_ambor\\vo_dialog_ZFEQ004_ambor_02.wem",
        "rate": 1.0,
        "avatarName": "",
        "emotion": ""
      }
    ]
  },
  "39a6ad5d-b723-4775-88cb-1333f5fa29f1": {
    "guid": "39a6ad5d-b723-4775-88cb-1333f5fa29f1",
    "playRate": 1.0,
    "gameTrigger": "Dialog",
    "gameTriggerArgs": 400270711,
    "personalConfig": 2,
    "parentID": "b9476af1-e27f-4a5b-897d-e60ffc90df1f",
    "sourceNames": [
      {
        "sourceFileName": "VO_freetalk\\VO_ambor\\vo_dialog_EQXS103_ambor_02c_1.wem",
        "rate": 1.0,
        "avatarName": "",
        "emotion": ""
      }
    ]
  },
  "3e00a21a-0c72-45ea-b318-282c06ed94d7": {
    "guid": "3e00a21a-0c72-45ea-b318-282c06ed94d7",
    "playRate": 1.0,
    "gameTrigger": "Dialog",
    "gameTriggerArgs": 3060309,
    "personalConfig": 2,
    "parentID": "b9476af1-e27f-4a5b-897d-e60ffc90df1f",
    "sourceNames": [
      {
        "sourceFileName": "VO_freetalk\\VO_ambor\\vo_dialog_MDAQ025_ambor_02b_2.wem",
        "rate": 1.0,
        "avatarName": "",
        "emotion": ""
      }
    ]
  },
  "4a2307a6-e7de-44cc-b86f-852c1a64c648": {
    "guid": "4a2307a6-e7de-44cc-b86f-852c1a64c648",
    "playRate": 1.0,
    "gameTrigger": "Dialog",
    "gameTriggerArgs": 401499601,
    "personalConfig": 2,
    "parentID": "b9476af1-e27f-4a5b-897d-e60ffc90df1f",
    "sourceNames": [
      {
        "sourceFileName": "VO_freetalk\\VO_ambor\\vo_dialog_ZFEQ004_ambor_01.wem",
        "rate": 1.0,
        "avatarName": "",
        "emotion": ""
      }
    ]
  },
  "4d650f71-fa10-4f70-a5cd-fe33fae15288": {
    "guid": "4d650f71-fa10-4f70-a5cd-fe33fae15288",
    "playRate": 1.0,
    "gameTrigger": "Dialog",
    "gameTriggerArgs": 4520401,
    "personalConfig": 2,
    "parentID": "b9476af1-e27f-4a5b-897d-e60ffc90df1f",
    "sourceNames": [
      {
        "sourceFileName": "VO_freetalk\\VO_ambor\\vo_dialog_RZLQ002_ambor_01.wem",
        "rate": 1.0,
        "avatarName": "",
        "emotion": ""
      }
    ]
  },
  "4dbbe7b0-0277-4e6f-8cd7-58b6392b9915": {
    "guid": "4dbbe7b0-0277-4e6f-8cd7-58b6392b9915",
    "playRate": 1.0,
    "gameTrigger": "Dialog",
    "gameTriggerArgs": 400270708,
    "personalConfig": 2,
    "parentID": "b9476af1-e27f-4a5b-897d-e60ffc90df1f",
    "sourceNames": [
      {
        "sourceFileName": "VO_freetalk\\VO_ambor\\vo_dialog_EQXS103_ambor_02b_2.wem",
        "rate": 1.0,
        "avatarName": "",
        "emotion": ""
      }
    ]
  },
  "57bcbc38-7ddb-46ae-aa14-2d9688603fdf": {
    "guid": "57bcbc38-7ddb-46ae-aa14-2d9688603fdf",
    "playRate": 1.0,
    "gameTrigger": "Dialog",
    "gameTriggerArgs": 400972309,
    "personalConfig": 2,
    "parentID": "b9476af1-e27f-4a5b-897d-e60ffc90df1f",
    "sourceNames": [
      {
        "sourceFileName": "VO_freetalk\\VO_ambor\\vo_dialog_EQFH101_ambor_01.wem",
        "rate": 1.0,
        "avatarName": "",
        "emotion": ""
      }
    ]
  },
  "6279d547-de39-4c82-b210-086d86de1b8f": {
    "guid": "6279d547-de39-4c82-b210-086d86de1b8f",
    "playRate": 1.0,
    "gameTrigger": "Dialog",
    "gameTriggerArgs": 401499406,
    "personalConfig": 2,
    "parentID": "b9476af1-e27f-4a5b-897d-e60ffc90df1f",
    "sourceNames": [
      {
        "sourceFileName": "VO_freetalk\\VO_ambor\\vo_dialog_ZFEQ004_ambor_05.wem",
        "rate": 1.0,
        "avatarName": "",
        "emotion": ""
      }
    ]
  },
  "62e8c7cd-f4c8-4475-bdcf-7eececfbf5d7": {
    "guid": "62e8c7cd-f4c8-4475-bdcf-7eececfbf5d7",
    "playRate": 1.0,
    "gameTrigger": "Dialog",
    "gameTriggerArgs": 3982001,
    "personalConfig": 2,
    "parentID": "b9476af1-e27f-4a5b-897d-e60ffc90df1f",
    "sourceNames": [
      {
        "sourceFileName": "VO_freetalk\\VO_ambor\\vo_dialog_MDAQ071_ambor_01.wem",
        "rate": 1.0,
        "avatarName": "",
        "emotion": ""
      }
    ]
  },
  "6968cbeb-9bb2-4fd5-9a48-703e4540c640": {
    "guid": "6968cbeb-9bb2-4fd5-9a48-703e4540c640",
    "playRate": 1.0,
    "gameTrigger": "Dialog",
    "gameTriggerArgs": 3060304,
    "personalConfig": 2,
    "parentID": "b9476af1-e27f-4a5b-897d-e60ffc90df1f",
    "sourceNames": [
      {
        "sourceFileName": "VO_freetalk\\VO_ambor\\vo_dialog_MDAQ025_ambor_02a_2.wem",
        "rate": 1.0,
        "avatarName": "",
        "emotion": ""
      }
    ]
  },
  "697cfdfe-410d-4345-8c1c-2f2a9fee3311": {
    "guid": "697cfdfe-410d-4345-8c1c-2f2a9fee3311",
    "playRate": 1.0,
    "gameTrigger": "Dialog",
    "gameTriggerArgs": 4901808,
    "personalConfig": 2,
    "parentID": "b9476af1-e27f-4a5b-897d-e60ffc90df1f",
    "sourceNames": [
      {
        "sourceFileName": "VO_freetalk\\VO_ambor\\vo_dialog_QINLQ005_ambor_06.wem",
        "rate": 1.0,
        "avatarName": "",
        "emotion": ""
      }
    ]
  },
  "6b61e14f-d503-48c5-8591-57dc63eaf7e1": {
    "guid": "6b61e14f-d503-48c5-8591-57dc63eaf7e1",
    "playRate": 1.0,
    "gameTrigger": "Dialog",
    "gameTriggerArgs": 400270721,
    "personalConfig": 2,
    "parentID": "b9476af1-e27f-4a5b-897d-e60ffc90df1f",
    "sourceNames": [
      {
        "sourceFileName": "VO_freetalk\\VO_ambor\\vo_dialog_EQXS103_ambor_03.wem",
        "rate": 1.0,
        "avatarName": "",
        "emotion": ""
      }
    ]
  },
  "6c150875-9bd9-4b2c-9687-64fad1ba2f92": {
    "guid": "6c150875-9bd9-4b2c-9687-64fad1ba2f92",
    "playRate": 1.0,
    "gameTrigger": "Dialog",
    "gameTriggerArgs": 3982004,
    "personalConfig": 2,
    "parentID": "b9476af1-e27f-4a5b-897d-e60ffc90df1f",
    "sourceNames": [
      {
        "sourceFileName": "VO_freetalk\\VO_ambor\\vo_dialog_MDAQ071_ambor_04.wem",
        "rate": 1.0,
        "avatarName": "",
        "emotion": ""
      }
    ]
  },
  "707602e6-01db-430f-a1d1-2553804c5fea": {
    "guid": "707602e6-01db-430f-a1d1-2553804c5fea",
    "playRate": 1.0,
    "gameTrigger": "Dialog",
    "gameTriggerArgs": 400270716,
    "personalConfig": 2,
    "parentID": "b9476af1-e27f-4a5b-897d-e60ffc90df1f",
    "sourceNames": [
      {
        "sourceFileName": "VO_freetalk\\VO_ambor\\vo_dialog_EQXS103_ambor_02d_2.wem",
        "rate": 1.0,
        "avatarName": "",
        "emotion": ""
      }
    ]
  },
  "7221ce62-5f38-49ba-bb18-03fd8c15bf61": {
    "guid": "7221ce62-5f38-49ba-bb18-03fd8c15bf61",
    "playRate": 1.0,
    "gameTrigger": "Dialog",
    "gameTriggerArgs": 3060301,
    "personalConfig": 2,
    "parentID": "b9476af1-e27f-4a5b-897d-e60ffc90df1f",
    "sourceNames": [
      {
        "sourceFileName": "VO_freetalk\\VO_ambor\\vo_dialog_MDAQ025_ambor_01.wem",
        "rate": 1.0,
        "avatarName": "",
        "emotion": ""
      }
    ]
  },
  "74ad68ed-8285-4c4a-81dd-2b263c1709bf": {
    "guid": "74ad68ed-8285-4c4a-81dd-2b263c1709bf",
    "playRate": 1.0,
    "gameTrigger": "Dialog",
    "gameTriggerArgs": 4901801,
    "personalConfig": 2,
    "parentID": "b9476af1-e27f-4a5b-897d-e60ffc90df1f",
    "sourceNames": [
      {
        "sourceFileName": "VO_freetalk\\VO_ambor\\vo_dialog_QINLQ005_ambor_01.wem",
        "rate": 1.0,
        "avatarName": "",
        "emotion": ""
      }
    ]
  },
  "7975ce20-7517-4350-bf37-aa27b30f39d0": {
    "guid": "7975ce20-7517-4350-bf37-aa27b30f39d0",
    "playRate": 1.0,
    "gameTrigger": "Dialog",
    "gameTriggerArgs": 4901807,
    "personalConfig": 2,
    "parentID": "b9476af1-e27f-4a5b-897d-e60ffc90df1f",
    "sourceNames": [
      {
        "sourceFileName": "VO_freetalk\\VO_ambor\\vo_dialog_QINLQ005_ambor_05.wem",
        "rate": 1.0,
        "avatarName": "",
        "emotion": ""
      }
    ]
  },
  "84caba5f-4269-483e-9f44-9e8eba202fbc": {
    "guid": "84caba5f-4269-483e-9f44-9e8eba202fbc",
    "playRate": 1.0,
    "gameTrigger": "Dialog",
    "gameTriggerArgs": 400270713,
    "personalConfig": 2,
    "parentID": "b9476af1-e27f-4a5b-897d-e60ffc90df1f",
    "sourceNames": [
      {
        "sourceFileName": "VO_freetalk\\VO_ambor\\vo_dialog_EQXS103_ambor_02c_3.wem",
        "rate": 1.0,
        "avatarName": "",
        "emotion": ""
      }
    ]
  },
  "86530ec4-f3d3-42d8-8643-17ca00eda35e": {
    "guid": "86530ec4-f3d3-42d8-8643-17ca00eda35e",
    "playRate": 1.0,
    "gameTrigger": "Dialog",
    "gameTriggerArgs": 3060306,
    "personalConfig": 2,
    "parentID": "b9476af1-e27f-4a5b-897d-e60ffc90df1f",
    "sourceNames": [
      {
        "sourceFileName": "VO_freetalk\\VO_ambor\\vo_dialog_MDAQ025_ambor_02a_4.wem",
        "rate": 1.0,
        "avatarName": "",
        "emotion": ""
      }
    ]
  },
  "86ab42de-0239-4fb1-be90-e6ec835aaace": {
    "guid": "86ab42de-0239-4fb1-be90-e6ec835aaace",
    "playRate": 1.0,
    "gameTrigger": "Dialog",
    "gameTriggerArgs": 401499405,
    "personalConfig": 2,
    "parentID": "b9476af1-e27f-4a5b-897d-e60ffc90df1f",
    "sourceNames": [
      {
        "sourceFileName": "VO_freetalk\\VO_ambor\\vo_dialog_ZFEQ004_ambor_04.wem",
        "rate": 1.0,
        "avatarName": "",
        "emotion": ""
      }
    ]
  },
  "8a6533ad-762f-4fb3-9a02-69c2ca74adf0": {
    "guid": "8a6533ad-762f-4fb3-9a02-69c2ca74adf0",
    "playRate": 1.0,
    "gameTrigger": "Dialog",
    "gameTriggerArgs": 400270717,
    "personalConfig": 2,
    "parentID": "b9476af1-e27f-4a5b-897d-e60ffc90df1f",
    "sourceNames": [
      {
        "sourceFileName": "VO_freetalk\\VO_ambor\\vo_dialog_EQXS103_ambor_02d_3.wem",
        "rate": 1.0,
        "avatarName": "",
        "emotion": ""
      }
    ]
  },
  "8b1c6bf8-aad7-4bad-86b4-f7f2534f1b1a": {
    "guid": "8b1c6bf8-aad7-4bad-86b4-f7f2534f1b1a",
    "playRate": 1.0,
    "gameTrigger": "Dialog",
    "gameTriggerArgs": 401499411,
    "personalConfig": 2,
    "parentID": "b9476af1-e27f-4a5b-897d-e60ffc90df1f",
    "sourceNames": [
      {
        "sourceFileName": "VO_freetalk\\VO_ambor\\vo_dialog_ZFEQ004_ambor_08.wem",
        "rate": 1.0,
        "avatarName": "",
        "emotion": ""
      }
    ]
  },
  "8b4c0e31-e02f-4a44-b4d5-815fcf904b4e": {
    "guid": "8b4c0e31-e02f-4a44-b4d5-815fcf904b4e",
    "playRate": 1.0,
    "gameTrigger": "Dialog",
    "gameTriggerArgs": 400972312,
    "personalConfig": 2,
    "parentID": "b9476af1-e27f-4a5b-897d-e60ffc90df1f",
    "sourceNames": [
      {
        "sourceFileName": "VO_freetalk\\VO_ambor\\vo_dialog_EQFH101_ambor_02.wem",
        "rate": 1.0,
        "avatarName": "",
        "emotion": ""
      }
    ]
  },
  "9405a5d6-6625-43c2-9b5f-b6175c874eee": {
    "guid": "9405a5d6-6625-43c2-9b5f-b6175c874eee",
    "playRate": 1.0,
    "gameTrigger": "Dialog",
    "gameTriggerArgs": 401499407,
    "personalConfig": 2,
    "parentID": "b9476af1-e27f-4a5b-897d-e60ffc90df1f",
    "sourceNames": [
      {
        "sourceFileName": "VO_freetalk\\VO_ambor\\vo_dialog_ZFEQ004_ambor_06.wem",
        "rate": 1.0,
        "avatarName": "",
        "emotion": ""
      }
    ]
  },
  "9a2670a3-6ab8-4f04-b675-df8be0309c59": {
    "guid": "9a2670a3-6ab8-4f04-b675-df8be0309c59",
    "playRate": 1.0,
    "gameTrigger": "Dialog",
    "gameTriggerArgs": 400270703,
    "personalConfig": 2,
    "parentID": "b9476af1-e27f-4a5b-897d-e60ffc90df1f",
    "sourceNames": [
      {
        "sourceFileName": "VO_freetalk\\VO_ambor\\vo_dialog_EQXS103_ambor_02a_1.wem",
        "rate": 1.0,
        "avatarName": "",
        "emotion": ""
      }
    ]
  },
  "9b094b1d-e395-4f4f-a7ce-52486562e153": {
    "guid": "9b094b1d-e395-4f4f-a7ce-52486562e153",
    "playRate": 1.0,
    "gameTrigger": "Dialog",
    "gameTriggerArgs": 4901806,
    "personalConfig": 2,
    "parentID": "b9476af1-e27f-4a5b-897d-e60ffc90df1f",
    "sourceNames": [
      {
        "sourceFileName": "VO_freetalk\\VO_ambor\\vo_dialog_QINLQ005_ambor_04.wem",
        "rate": 1.0,
        "avatarName": "",
        "emotion": ""
      }
    ]
  },
  "aa05e8f1-cf23-4e38-a7bb-b12f127e7361": {
    "guid": "aa05e8f1-cf23-4e38-a7bb-b12f127e7361",
    "playRate": 1.0,
    "gameTrigger": "Dialog",
    "gameTriggerArgs": 400270704,
    "personalConfig": 2,
    "parentID": "b9476af1-e27f-4a5b-897d-e60ffc90df1f",
    "sourceNames": [
      {
        "sourceFileName": "VO_freetalk\\VO_ambor\\vo_dialog_EQXS103_ambor_02a_2.wem",
        "rate": 1.0,
        "avatarName": "",
        "emotion": ""
      }
    ]
  },
  "b1b8ff81-4bba-4d25-a074-00ddb269f440": {
    "guid": "b1b8ff81-4bba-4d25-a074-00ddb269f440",
    "playRate": 1.0,
    "gameTrigger": "Dialog",
    "gameTriggerArgs": 400270718,
    "personalConfig": 2,
    "parentID": "b9476af1-e27f-4a5b-897d-e60ffc90df1f",
    "sourceNames": [
      {
        "sourceFileName": "VO_freetalk\\VO_ambor\\vo_dialog_EQXS103_ambor_02d_4.wem",
        "rate": 1.0,
        "avatarName": "",
        "emotion": ""
      }
    ]
  },
  "b329201f-fa9d-4277-a7a9-c8e677438a00": {
    "guid": "b329201f-fa9d-4277-a7a9-c8e677438a00",
    "playRate": 1.0,
    "gameTrigger": "Dialog",
    "gameTriggerArgs": 3061202,
    "personalConfig": 2,
    "parentID": "b9476af1-e27f-4a5b-897d-e60ffc90df1f",
    "sourceNames": [
      {
        "sourceFileName": "VO_freetalk\\VO_ambor\\vo_dialog_MDAQ027_ambor_02.wem",
        "rate": 1.0,
        "avatarName": "",
        "emotion": ""
      }
    ]
  },
  "bc5e869d-491c-4c8a-97b1-c34e7141ab19": {
    "guid": "bc5e869d-491c-4c8a-97b1-c34e7141ab19",
    "playRate": 1.0,
    "gameTrigger": "Dialog",
    "gameTriggerArgs": 400270712,
    "personalConfig": 2,
    "parentID": "b9476af1-e27f-4a5b-897d-e60ffc90df1f",
    "sourceNames": [
      {
        "sourceFileName": "VO_freetalk\\VO_ambor\\vo_dialog_EQXS103_ambor_02c_2.wem",
        "rate": 1.0,
        "avatarName": "",
        "emotion": ""
      }
    ]
  },
  "bf94c32d-1129-4805-bb14-734ede4c6e9c": {
    "guid": "bf94c32d-1129-4805-bb14-734ede4c6e9c",
    "playRate": 1.0,
    "gameTrigger": "Dialog",
    "gameTriggerArgs": 400270707,
    "personalConfig": 2,
    "parentID": "b9476af1-e27f-4a5b-897d-e60ffc90df1f",
    "sourceNames": [
      {
        "sourceFileName": "VO_freetalk\\VO_ambor\\vo_dialog_EQXS103_ambor_02b_1.wem",
        "rate": 1.0,
        "avatarName": "",
        "emotion": ""
      }
    ]
  },
  "c644616b-a03e-49f3-9829-e5d698a7f32b": {
    "guid": "c644616b-a03e-49f3-9829-e5d698a7f32b",
    "playRate": 1.0,
    "gameTrigger": "Dialog",
    "gameTriggerArgs": 4540201,
    "personalConfig": 2,
    "parentID": "b9476af1-e27f-4a5b-897d-e60ffc90df1f",
    "sourceNames": [
      {
        "sourceFileName": "VO_freetalk\\VO_ambor\\vo_dialog_RZLQ004_ambor_01.wem",
        "rate": 1.0,
        "avatarName": "",
        "emotion": ""
      }
    ]
  },
  "d33add0d-57c0-46bb-a5a8-0078e182266e": {
    "guid": "d33add0d-57c0-46bb-a5a8-0078e182266e",
    "playRate": 1.0,
    "gameTrigger": "Dialog",
    "gameTriggerArgs": 400992309,
    "personalConfig": 2,
    "parentID": "b9476af1-e27f-4a5b-897d-e60ffc90df1f",
    "sourceNames": [
      {
        "sourceFileName": "VO_freetalk\\VO_ambor\\vo_dialog_EQFH103_ambor_03.wem",
        "rate": 1.0,
        "avatarName": "",
        "emotion": ""
      }
    ]
  },
  "d5f62280-dbbd-4079-9fd2-e8b9f1ba766c": {
    "guid": "d5f62280-dbbd-4079-9fd2-e8b9f1ba766c",
    "playRate": 1.0,
    "gameTrigger": "Dialog",
    "gameTriggerArgs": 400270709,
    "personalConfig": 2,
    "parentID": "b9476af1-e27f-4a5b-897d-e60ffc90df1f",
    "sourceNames": [
      {
        "sourceFileName": "VO_freetalk\\VO_ambor\\vo_dialog_EQXS103_ambor_02b_3.wem",
        "rate": 1.0,
        "avatarName": "",
        "emotion": ""
      }
    ]
  },
  "db3950b3-901c-4874-84cb-3d6aa81c8442": {
    "guid": "db3950b3-901c-4874-84cb-3d6aa81c8442",
    "playRate": 1.0,
    "gameTrigger": "Dialog",
    "gameTriggerArgs": 400992301,
    "personalConfig": 2,
    "parentID": "b9476af1-e27f-4a5b-897d-e60ffc90df1f",
    "sourceNames": [
      {
        "sourceFileName": "VO_freetalk\\VO_ambor\\vo_dialog_EQFH103_ambor_01.wem",
        "rate": 1.0,
        "avatarName": "",
        "emotion": ""
      }
    ]
  },
  "e07a09d6-f926-47fe-a11c-6d28f219397d": {
    "guid": "e07a09d6-f926-47fe-a11c-6d28f219397d",
    "playRate": 1.0,
    "gameTrigger": "Dialog",
    "gameTriggerArgs": 400992304,
    "personalConfig": 2,
    "parentID": "b9476af1-e27f-4a5b-897d-e60ffc90df1f",
    "sourceNames": [
      {
        "sourceFileName": "VO_freetalk\\VO_ambor\\vo_dialog_EQFH103_ambor_02.wem",
        "rate": 1.0,
        "avatarName": "",
        "emotion": ""
      }
    ]
  },
  "e42f7c50-3a47-438b-a1c0-f70ada3eb1c8": {
    "guid": "e42f7c50-3a47-438b-a1c0-f70ada3eb1c8",
    "playRate": 1.0,
    "gameTrigger": "Dialog",
    "gameTriggerArgs": 401499403,
    "personalConfig": 2,
    "parentID": "b9476af1-e27f-4a5b-897d-e60ffc90df1f",
    "sourceNames": [
      {
        "sourceFileName": "VO_freetalk\\VO_ambor\\vo_dialog_ZFEQ004_ambor_03.wem",
        "rate": 1.0,
        "avatarName": "",
        "emotion": ""
      }
    ]
  },
  "eb789556-34a5-4fd4-8810-22ad3e05652b": {
    "guid": "eb789556-34a5-4fd4-8810-22ad3e05652b",
    "playRate": 1.0,
    "gameTrigger": "Dialog",
    "gameTriggerArgs": 400270719,
    "personalConfig": 2,
    "parentID": "b9476af1-e27f-4a5b-897d-e60ffc90df1f",
    "sourceNames": [
      {
        "sourceFileName": "VO_freetalk\\VO_ambor\\vo_dialog_EQXS103_ambor_02d_5.wem",
        "rate": 1.0,
        "avatarName": "",
        "emotion": ""
      }
    ]
  },
  "f323f8d8-294d-440f-953d-2f610f6f943c": {
    "guid": "f323f8d8-294d-440f-953d-2f610f6f943c",
    "playRate": 1.0,
    "gameTrigger": "Dialog",
    "gameTriggerArgs": 3060305,
    "personalConfig": 2,
    "parentID": "b9476af1-e27f-4a5b-897d-e60ffc90df1f",
    "sourceNames": [
      {
        "sourceFileName": "VO_freetalk\\VO_ambor\\vo_dialog_MDAQ025_ambor_02a_3.wem",
        "rate": 1.0,
        "avatarName": "",
        "emotion": ""
      }
    ]
  },
  "f5f8f599-087d-4347-8bed-f41be7326f16": {
    "guid": "f5f8f599-087d-4347-8bed-f41be7326f16",
    "playRate": 1.0,
    "gameTrigger": "Dialog",
    "gameTriggerArgs": 4901804,
    "personalConfig": 2,
    "parentID": "b9476af1-e27f-4a5b-897d-e60ffc90df1f",
    "sourceNames": [
      {
        "sourceFileName": "VO_freetalk\\VO_ambor\\vo_dialog_QINLQ005_ambor_03.wem",
        "rate": 1.0,
        "avatarName": "",
        "emotion": ""
      }
    ]
  }
}