{
  "36fbaf6b-0479-4025-8a28-f54b82ed1e1b": {
    "guid": "36fbaf6b-0479-4025-8a28-f54b82ed1e1b",
    "playRate": 1.0,
    "gameTrigger": "Dialog",
    "gameTriggerArgs": 693540101,
    "parentID": "e22994a9-d703-4264-bd90-205d2aea6a81",
    "sourceNames": [
      {
        "sourceFileName": "VO_Tower\\vo_cyno_saferoom_rest_01.wem",
        "rate": 1.0,
        "avatarName": "",
        "emotion": ""
      }
    ]
  },
  "6144132c-cabb-4961-bcd1-b13fe0243c8e": {
    "guid": "6144132c-cabb-4961-bcd1-b13fe0243c8e",
    "playRate": 1.0,
    "gameTrigger": "Dialog",
    "gameTriggerArgs": 693540203,
    "parentID": "e22994a9-d703-4264-bd90-205d2aea6a81",
    "sourceNames": [
      {
        "sourceFileName": "VO_Tower\\vo_cyno_saferoom_challenge_03.wem",
        "rate": 1.0,
        "avatarName": "",
        "emotion": ""
      }
    ]
  },
  "710ef036-1ada-480b-a794-601ea818b37f": {
    "guid": "710ef036-1ada-480b-a794-601ea818b37f",
    "playRate": 1.0,
    "gameTrigger": "Dialog",
    "gameTriggerArgs": 693540103,
    "parentID": "e22994a9-d703-4264-bd90-205d2aea6a81",
    "sourceNames": [
      {
        "sourceFileName": "VO_Tower\\vo_cyno_saferoom_rest_03.wem",
        "rate": 1.0,
        "avatarName": "",
        "emotion": ""
      }
    ]
  },
  "828b7ec9-b47e-4fef-a513-eed95bc593ca": {
    "guid": "828b7ec9-b47e-4fef-a513-eed95bc593ca",
    "playRate": 1.0,
    "gameTrigger": "Dialog",
    "gameTriggerArgs": 693540301,
    "parentID": "e22994a9-d703-4264-bd90-205d2aea6a81",
    "sourceNames": [
      {
        "sourceFileName": "VO_Tower\\vo_cyno_saferoom_others_01.wem",
        "rate": 1.0,
        "avatarName": "",
        "emotion": ""
      }
    ]
  },
  "838d10a8-401c-41dc-922d-bf652a9e5704": {
    "guid": "838d10a8-401c-41dc-922d-bf652a9e5704",
    "playRate": 1.0,
    "gameTrigger": "Dialog",
    "gameTriggerArgs": 693540303,
    "parentID": "e22994a9-d703-4264-bd90-205d2aea6a81",
    "sourceNames": [
      {
        "sourceFileName": "VO_Tower\\vo_cyno_saferoom_others_03.wem",
        "rate": 1.0,
        "avatarName": "",
        "emotion": ""
      }
    ]
  },
  "a6bab7fc-4832-4b7c-b100-29369c3d8a47": {
    "guid": "a6bab7fc-4832-4b7c-b100-29369c3d8a47",
    "playRate": 1.0,
    "gameTrigger": "Dialog",
    "gameTriggerArgs": 693540302,
    "parentID": "e22994a9-d703-4264-bd90-205d2aea6a81",
    "sourceNames": [
      {
        "sourceFileName": "VO_Tower\\vo_cyno_saferoom_others_02.wem",
        "rate": 1.0,
        "avatarName": "",
        "emotion": ""
      }
    ]
  },
  "ae04ca9a-cb07-4612-b217-42b812969cf8": {
    "guid": "ae04ca9a-cb07-4612-b217-42b812969cf8",
    "playRate": 1.0,
    "gameTrigger": "Dialog",
    "gameTriggerArgs": 693540102,
    "parentID": "e22994a9-d703-4264-bd90-205d2aea6a81",
    "sourceNames": [
      {
        "sourceFileName": "VO_Tower\\vo_cyno_saferoom_rest_02.wem",
        "rate": 1.0,
        "avatarName": "",
        "emotion": ""
      }
    ]
  },
  "bbe6f6ef-0be0-42c2-b070-c29bec1d6d52": {
    "guid": "bbe6f6ef-0be0-42c2-b070-c29bec1d6d52",
    "playRate": 1.0,
    "gameTrigger": "Dialog",
    "gameTriggerArgs": 693540201,
    "parentID": "e22994a9-d703-4264-bd90-205d2aea6a81",
    "sourceNames": [
      {
        "sourceFileName": "VO_Tower\\vo_cyno_saferoom_challenge_01.wem",
        "rate": 1.0,
        "avatarName": "",
        "emotion": ""
      }
    ]
  },
  "c47c9352-76cc-433b-a527-879b6a5505e3": {
    "guid": "c47c9352-76cc-433b-a527-879b6a5505e3",
    "playRate": 1.0,
    "gameTrigger": "Dialog",
    "gameTriggerArgs": 693540202,
    "parentID": "e22994a9-d703-4264-bd90-205d2aea6a81",
    "sourceNames": [
      {
        "sourceFileName": "VO_Tower\\vo_cyno_saferoom_challenge_02.wem",
        "rate": 1.0,
        "avatarName": "",
        "emotion": ""
      }
    ]
  }
}