{
  "c3c6f0de-2ed8-4197-bf2f-2417dd4d3c88": {
    "guid": "c3c6f0de-2ed8-4197-bf2f-2417dd4d3c88",
    "playRate": 1.0,
    "gameTrigger": "Dialog",
    "gameTriggerArgs": 401019909,
    "personalConfig": 2,
    "isPlayOnTeam": true,
    "parentID": "b4608402-1f1f-409a-b315-86b58d37f591",
    "sourceNames": [
      {
        "sourceFileName": "VO_EQ\\VO_paimon\\vo_XYJEQ002_30_paimon_01.wem",
        "rate": 1.0,
        "avatarName": "",
        "emotion": ""
      }
    ]
  },
  "e13b4b21-0516-4cec-8e9a-a921ff6dae96": {
    "guid": "e13b4b21-0516-4cec-8e9a-a921ff6dae96",
    "playRate": 1.0,
    "gameTrigger": "Dialog",
    "gameTriggerArgs": 401019911,
    "personalConfig": 2,
    "NJKDHJOHKCM": 1,
    "parentID": "b4608402-1f1f-409a-b315-86b58d37f591",
    "sourceNames": [
      {
        "sourceFileName": "VO_EQ\\VO_alhaitham\\vo_XYJEQ002_30_alhaitham_01.wem",
        "rate": 1.0,
        "avatarName": "",
        "emotion": ""
      }
    ]
  },
  "e347158a-f76c-498d-8256-05447d33528b": {
    "guid": "e347158a-f76c-498d-8256-05447d33528b",
    "playRate": 1.0,
    "gameTrigger": "Dialog",
    "gameTriggerArgs": 401019910,
    "personalConfig": 2,
    "NJKDHJOHKCM": 1,
    "parentID": "b4608402-1f1f-409a-b315-86b58d37f591",
    "sourceNames": [
      {
        "sourceFileName": "VO_EQ\\VO_nilou\\vo_XYJEQ002_30_nilou_01.wem",
        "rate": 1.0,
        "avatarName": "",
        "emotion": ""
      }
    ]
  }
}