{
  "46915125-7e0a-4669-a5ac-12fe0cce6499": {
    "guid": "46915125-7e0a-4669-a5ac-12fe0cce6499",
    "playRate": 1.0,
    "gameTrigger": "Dialog",
    "gameTriggerArgs": 693130101,
    "parentID": "02cc3f87-d7be-4af3-b9be-00d480d07e19",
    "sourceNames": [
      {
        "sourceFileName": "VO_Tower\\vo_chongyun_saferoom_rest_01.wem",
        "rate": 1.0,
        "avatarName": "",
        "emotion": ""
      }
    ]
  },
  "6d4eb2f0-78ca-4706-b291-98d0c0e4813e": {
    "guid": "6d4eb2f0-78ca-4706-b291-98d0c0e4813e",
    "playRate": 1.0,
    "gameTrigger": "Dialog",
    "gameTriggerArgs": 693130301,
    "parentID": "02cc3f87-d7be-4af3-b9be-00d480d07e19",
    "sourceNames": [
      {
        "sourceFileName": "VO_Tower\\vo_chongyun_saferoom_others_01.wem",
        "rate": 1.0,
        "avatarName": "",
        "emotion": ""
      }
    ]
  },
  "6d7a5f01-e523-4e25-870d-ce1de73ae262": {
    "guid": "6d7a5f01-e523-4e25-870d-ce1de73ae262",
    "playRate": 1.0,
    "gameTrigger": "Dialog",
    "gameTriggerArgs": 693130201,
    "parentID": "02cc3f87-d7be-4af3-b9be-00d480d07e19",
    "sourceNames": [
      {
        "sourceFileName": "VO_Tower\\vo_chongyun_saferoom_challenge_01.wem",
        "rate": 1.0,
        "avatarName": "",
        "emotion": ""
      }
    ]
  },
  "747c37c1-55a6-4263-95cf-7f0b20e21e61": {
    "guid": "747c37c1-55a6-4263-95cf-7f0b20e21e61",
    "playRate": 1.0,
    "gameTrigger": "Dialog",
    "gameTriggerArgs": 693130302,
    "parentID": "02cc3f87-d7be-4af3-b9be-00d480d07e19",
    "sourceNames": [
      {
        "sourceFileName": "VO_Tower\\vo_chongyun_saferoom_others_02.wem",
        "rate": 1.0,
        "avatarName": "",
        "emotion": ""
      }
    ]
  },
  "90d08fac-ca7b-4d9a-b1a2-248d318df53b": {
    "guid": "90d08fac-ca7b-4d9a-b1a2-248d318df53b",
    "playRate": 1.0,
    "gameTrigger": "Dialog",
    "gameTriggerArgs": 693130202,
    "parentID": "02cc3f87-d7be-4af3-b9be-00d480d07e19",
    "sourceNames": [
      {
        "sourceFileName": "VO_Tower\\vo_chongyun_saferoom_challenge_02.wem",
        "rate": 1.0,
        "avatarName": "",
        "emotion": ""
      }
    ]
  },
  "a3881faf-f277-4b18-a77b-2974db394e71": {
    "guid": "a3881faf-f277-4b18-a77b-2974db394e71",
    "playRate": 1.0,
    "gameTrigger": "Dialog",
    "gameTriggerArgs": 693130103,
    "parentID": "02cc3f87-d7be-4af3-b9be-00d480d07e19",
    "sourceNames": [
      {
        "sourceFileName": "VO_Tower\\vo_chongyun_saferoom_rest_03.wem",
        "rate": 1.0,
        "avatarName": "",
        "emotion": ""
      }
    ]
  },
  "bb268c31-182f-4201-83ee-058c97d40e7c": {
    "guid": "bb268c31-182f-4201-83ee-058c97d40e7c",
    "playRate": 1.0,
    "gameTrigger": "Dialog",
    "gameTriggerArgs": 693130303,
    "parentID": "02cc3f87-d7be-4af3-b9be-00d480d07e19",
    "sourceNames": [
      {
        "sourceFileName": "VO_Tower\\vo_chongyun_saferoom_others_03.wem",
        "rate": 1.0,
        "avatarName": "",
        "emotion": ""
      }
    ]
  },
  "c3cac597-cb92-4b41-98a5-6c9e9bfcd26e": {
    "guid": "c3cac597-cb92-4b41-98a5-6c9e9bfcd26e",
    "playRate": 1.0,
    "gameTrigger": "Dialog",
    "gameTriggerArgs": 693130102,
    "parentID": "02cc3f87-d7be-4af3-b9be-00d480d07e19",
    "sourceNames": [
      {
        "sourceFileName": "VO_Tower\\vo_chongyun_saferoom_rest_02.wem",
        "rate": 1.0,
        "avatarName": "",
        "emotion": ""
      }
    ]
  },
  "ec671fa5-ee9f-45be-af77-793a905d587e": {
    "guid": "ec671fa5-ee9f-45be-af77-793a905d587e",
    "playRate": 1.0,
    "gameTrigger": "Dialog",
    "gameTriggerArgs": 693130203,
    "parentID": "02cc3f87-d7be-4af3-b9be-00d480d07e19",
    "sourceNames": [
      {
        "sourceFileName": "VO_Tower\\vo_chongyun_saferoom_challenge_03.wem",
        "rate": 1.0,
        "avatarName": "",
        "emotion": ""
      }
    ]
  }
}