{
  "03ce5791-c96f-408e-8a0c-45c61f23f7a8": {
    "guid": "03ce5791-c96f-408e-8a0c-45c61f23f7a8",
    "playRate": 1.0,
    "gameTrigger": "Dialog",
    "gameTriggerArgs": 191856201,
    "personalConfig": 2,
    "parentID": "3287d3c4-77ee-4459-97ce-91d56475eacd",
    "sourceNames": [
      {
        "sourceFileName": "VO_COOP\\VO_chevreuse\\vo_LNTCOP001_1918513_chevreuse_06.wem",
        "rate": 1.0,
        "avatarName": "",
        "emotion": ""
      }
    ]
  },
  "2e7408fd-8a19-4829-b4bd-919e1aa76bf7": {
    "guid": "2e7408fd-8a19-4829-b4bd-919e1aa76bf7",
    "playRate": 1.0,
    "gameTrigger": "Dialog",
    "gameTriggerArgs": 191851319,
    "personalConfig": 2,
    "parentID": "3287d3c4-77ee-4459-97ce-91d56475eacd",
    "sourceNames": [
      {
        "sourceFileName": "VO_COOP\\VO_lynette\\vo_LNTCOP001_1918513_lynette_03.wem",
        "rate": 1.0,
        "avatarName": "",
        "emotion": ""
      }
    ]
  },
  "55846e98-b0b5-4f32-8d11-6cdebaba3171": {
    "guid": "55846e98-b0b5-4f32-8d11-6cdebaba3171",
    "playRate": 1.0,
    "gameTrigger": "DungeonReminder",
    "gameTriggerArgs": 404337,
    "personalConfig": 2,
    "NJKDHJOHKCM": 1,
    "parentID": "3287d3c4-77ee-4459-97ce-91d56475eacd",
    "sourceNames": [
      {
        "sourceFileName": "VO_COOP\\VO_lynette\\vo_LNTCOP001_1918513_lynette_04.wem",
        "rate": 1.0,
        "avatarName": "",
        "emotion": ""
      }
    ]
  },
  "55d44385-180e-4519-9842-99743e588188": {
    "guid": "55d44385-180e-4519-9842-99743e588188",
    "playRate": 1.0,
    "gameTrigger": "Dialog",
    "gameTriggerArgs": 191851313,
    "personalConfig": 2,
    "parentID": "3287d3c4-77ee-4459-97ce-91d56475eacd",
    "sourceNames": [
      {
        "sourceFileName": "VO_COOP\\VO_lyney\\vo_LNTCOP001_1918513_lyney_02.wem",
        "rate": 1.0,
        "avatarName": "",
        "emotion": ""
      }
    ]
  },
  "594890cb-bd7a-4b57-a1cf-9f1e00fa1fbb": {
    "guid": "594890cb-bd7a-4b57-a1cf-9f1e00fa1fbb",
    "playRate": 1.0,
    "gameTrigger": "Dialog",
    "gameTriggerArgs": 191851315,
    "personalConfig": 2,
    "parentID": "3287d3c4-77ee-4459-97ce-91d56475eacd",
    "sourceNames": [
      {
        "sourceFileName": "VO_COOP\\VO_lyney\\vo_LNTCOP001_1918513_lyney_03.wem",
        "rate": 1.0,
        "avatarName": "",
        "emotion": ""
      }
    ]
  },
  "5c4ede58-4833-449d-b4f4-2c32b4c8b345": {
    "guid": "5c4ede58-4833-449d-b4f4-2c32b4c8b345",
    "playRate": 1.0,
    "gameTrigger": "Dialog",
    "gameTriggerArgs": 191851309,
    "personalConfig": 2,
    "parentID": "3287d3c4-77ee-4459-97ce-91d56475eacd",
    "sourceNames": [
      {
        "sourceFileName": "VO_COOP\\VO_lynette\\vo_LNTCOP001_1918513_lynette_02.wem",
        "rate": 1.0,
        "avatarName": "",
        "emotion": ""
      }
    ]
  },
  "911ae050-dfb8-4d3e-a818-8701fe2eb4e7": {
    "guid": "911ae050-dfb8-4d3e-a818-8701fe2eb4e7",
    "playRate": 1.0,
    "gameTrigger": "Dialog",
    "gameTriggerArgs": 191851304,
    "personalConfig": 2,
    "parentID": "3287d3c4-77ee-4459-97ce-91d56475eacd",
    "sourceNames": [
      {
        "sourceFileName": "VO_COOP\\VO_lyney\\vo_LNTCOP001_1918513_lyney_01.wem",
        "rate": 1.0,
        "avatarName": "",
        "emotion": ""
      }
    ]
  },
  "a6f32824-b0b4-4008-8fe8-717effb17551": {
    "guid": "a6f32824-b0b4-4008-8fe8-717effb17551",
    "playRate": 1.0,
    "gameTrigger": "Dialog",
    "gameTriggerArgs": 191851314,
    "personalConfig": 2,
    "parentID": "3287d3c4-77ee-4459-97ce-91d56475eacd",
    "sourceNames": [
      {
        "sourceFileName": "VO_COOP\\VO_chevreuse\\vo_LNTCOP001_1918513_chevreuse_05.wem",
        "rate": 1.0,
        "avatarName": "",
        "emotion": ""
      }
    ]
  },
  "b97bf650-fcee-4d51-8326-be942f884bfb": {
    "guid": "b97bf650-fcee-4d51-8326-be942f884bfb",
    "playRate": 1.0,
    "gameTrigger": "Dialog",
    "gameTriggerArgs": 191851305,
    "personalConfig": 2,
    "parentID": "3287d3c4-77ee-4459-97ce-91d56475eacd",
    "sourceNames": [
      {
        "sourceFileName": "VO_COOP\\VO_chevreuse\\vo_LNTCOP001_1918513_chevreuse_03.wem",
        "rate": 1.0,
        "avatarName": "",
        "emotion": ""
      }
    ]
  },
  "ba0c6dd3-3fa6-44a8-9e18-cce98b55e68e": {
    "guid": "ba0c6dd3-3fa6-44a8-9e18-cce98b55e68e",
    "playRate": 1.0,
    "gameTrigger": "Dialog",
    "gameTriggerArgs": 191851306,
    "personalConfig": 2,
    "parentID": "3287d3c4-77ee-4459-97ce-91d56475eacd",
    "sourceNames": [
      {
        "sourceFileName": "VO_COOP\\VO_chevreuse\\vo_LNTCOP001_1918513_chevreuse_04.wem",
        "rate": 1.0,
        "avatarName": "",
        "emotion": ""
      }
    ]
  },
  "bb559182-9a1a-4f0a-9690-f1bc6bad0141": {
    "guid": "bb559182-9a1a-4f0a-9690-f1bc6bad0141",
    "playRate": 1.0,
    "gameTrigger": "DungeonReminder",
    "gameTriggerArgs": 404340,
    "personalConfig": 2,
    "NJKDHJOHKCM": 1,
    "parentID": "3287d3c4-77ee-4459-97ce-91d56475eacd",
    "sourceNames": [
      {
        "sourceFileName": "VO_COOP\\VO_lynette\\vo_LNTCOP001_1918513_lynette_07.wem",
        "rate": 1.0,
        "avatarName": "",
        "emotion": ""
      }
    ]
  },
  "bca73f49-a110-4319-82c6-37b0b020e8ac": {
    "guid": "bca73f49-a110-4319-82c6-37b0b020e8ac",
    "playRate": 1.0,
    "gameTrigger": "Dialog",
    "gameTriggerArgs": 191856301,
    "personalConfig": 2,
    "parentID": "3287d3c4-77ee-4459-97ce-91d56475eacd",
    "sourceNames": [
      {
        "sourceFileName": "VO_COOP\\VO_lyney\\vo_LNTCOP001_1918513_lyney_04.wem",
        "rate": 1.0,
        "avatarName": "",
        "emotion": ""
      }
    ]
  },
  "d442c524-3eea-4f82-a6d7-d9af17c639c7": {
    "guid": "d442c524-3eea-4f82-a6d7-d9af17c639c7",
    "playRate": 1.0,
    "gameTrigger": "Dialog",
    "gameTriggerArgs": 191851302,
    "personalConfig": 2,
    "parentID": "3287d3c4-77ee-4459-97ce-91d56475eacd",
    "sourceNames": [
      {
        "sourceFileName": "VO_COOP\\VO_chevreuse\\vo_LNTCOP001_1918513_chevreuse_02.wem",
        "rate": 1.0,
        "avatarName": "",
        "emotion": ""
      }
    ]
  },
  "e4910d6c-3077-4494-bf30-8a48827ab153": {
    "guid": "e4910d6c-3077-4494-bf30-8a48827ab153",
    "playRate": 1.0,
    "gameTrigger": "Dialog",
    "gameTriggerArgs": 191851308,
    "personalConfig": 2,
    "parentID": "3287d3c4-77ee-4459-97ce-91d56475eacd",
    "sourceNames": [
      {
        "sourceFileName": "VO_COOP\\VO_lynette\\vo_LNTCOP001_1918513_lynette_01.wem",
        "rate": 1.0,
        "avatarName": "",
        "emotion": ""
      }
    ]
  },
  "fcba7658-73a1-4067-893f-bf38ee7e5ffd": {
    "guid": "fcba7658-73a1-4067-893f-bf38ee7e5ffd",
    "playRate": 1.0,
    "gameTrigger": "DungeonReminder",
    "gameTriggerArgs": 404338,
    "personalConfig": 2,
    "NJKDHJOHKCM": 1,
    "parentID": "3287d3c4-77ee-4459-97ce-91d56475eacd",
    "sourceNames": [
      {
        "sourceFileName": "VO_COOP\\VO_lynette\\vo_LNTCOP001_1918513_lynette_05.wem",
        "rate": 1.0,
        "avatarName": "",
        "emotion": ""
      }
    ]
  },
  "fd253a9b-a8c6-4fb8-86ff-e074a2f44fd0": {
    "guid": "fd253a9b-a8c6-4fb8-86ff-e074a2f44fd0",
    "playRate": 1.0,
    "gameTrigger": "Dialog",
    "gameTriggerArgs": 191851301,
    "personalConfig": 2,
    "parentID": "3287d3c4-77ee-4459-97ce-91d56475eacd",
    "sourceNames": [
      {
        "sourceFileName": "VO_COOP\\VO_chevreuse\\vo_LNTCOP001_1918513_chevreuse_01.wem",
        "rate": 1.0,
        "avatarName": "",
        "emotion": ""
      }
    ]
  }
}