{
  "6154d0fa-db14-40a7-a489-d6c75009ec71": {
    "guid": "6154d0fa-db14-40a7-a489-d6c75009ec71",
    "playRate": 1.0,
    "gameTrigger": "Dialog",
    "gameTriggerArgs": 401029903,
    "personalConfig": 2,
    "NJKDHJOHKCM": 1,
    "parentID": "85a9d422-35d6-4380-9719-f4f4e7571e8b",
    "sourceNames": [
      {
        "sourceFileName": "VO_EQ\\VO_dehya\\vo_XYJEQ003_8_dehya_01.wem",
        "rate": 1.0,
        "avatarName": "",
        "emotion": ""
      }
    ]
  },
  "6b789b0b-998d-48a6-8b1a-3d19a0ddc2c0": {
    "guid": "6b789b0b-998d-48a6-8b1a-3d19a0ddc2c0",
    "playRate": 1.0,
    "gameTrigger": "Dialog",
    "gameTriggerArgs": 401029904,
    "personalConfig": 2,
    "NJKDHJOHKCM": 1,
    "parentID": "85a9d422-35d6-4380-9719-f4f4e7571e8b",
    "sourceNames": [
      {
        "sourceFileName": "VO_EQ\\VO_candace\\vo_XYJEQ003_8_candace_01.wem",
        "rate": 1.0,
        "avatarName": "",
        "emotion": ""
      }
    ]
  },
  "ccfda199-e84c-4cfe-8bb4-eb08d92b1720": {
    "guid": "ccfda199-e84c-4cfe-8bb4-eb08d92b1720",
    "playRate": 1.0,
    "gameTrigger": "Dialog",
    "gameTriggerArgs": 401029905,
    "personalConfig": 2,
    "NJKDHJOHKCM": 1,
    "parentID": "85a9d422-35d6-4380-9719-f4f4e7571e8b",
    "sourceNames": [
      {
        "sourceFileName": "VO_EQ\\VO_kaveh\\vo_XYJEQ003_8_kaveh_01.wem",
        "rate": 1.0,
        "avatarName": "",
        "emotion": ""
      }
    ]
  }
}