{
  "1d3dc6db-bfe6-493c-8342-dad854631494": {
    "guid": "1d3dc6db-bfe6-493c-8342-dad854631494",
    "playRate": 1.0,
    "gameTrigger": "Dialog",
    "gameTriggerArgs": 130149945,
    "personalConfig": 2,
    "NJKDHJOHKCM": 1,
    "isPlayOnTeam": true,
    "parentID": "38f5616c-8f37-4a7c-9b5f-b9341b756f8b",
    "sourceNames": [
      {
        "sourceFileName": "VO_LQ\\VO_npc\\vo_NHDLQ001_6_ilman_01.wem",
        "rate": 1.0,
        "avatarName": "",
        "emotion": ""
      }
    ]
  },
  "30434b8e-468f-4082-a7bb-53fe44d1c5f1": {
    "guid": "30434b8e-468f-4082-a7bb-53fe44d1c5f1",
    "playRate": 1.0,
    "gameTrigger": "Dialog",
    "gameTriggerArgs": 130149948,
    "personalConfig": 2,
    "NJKDHJOHKCM": 1,
    "isPlayOnTeam": true,
    "parentID": "38f5616c-8f37-4a7c-9b5f-b9341b756f8b",
    "sourceNames": [
      {
        "sourceFileName": "VO_LQ\\VO_npc\\vo_NHDLQ001_6_paulin_01.wem",
        "rate": 1.0,
        "avatarName": "",
        "emotion": ""
      }
    ]
  },
  "4d416c92-b0dd-41f4-8ac1-befc4cd84b7f": {
    "guid": "4d416c92-b0dd-41f4-8ac1-befc4cd84b7f",
    "playRate": 1.0,
    "gameTrigger": "Dialog",
    "gameTriggerArgs": 130149946,
    "personalConfig": 2,
    "NJKDHJOHKCM": 1,
    "isPlayOnTeam": true,
    "parentID": "38f5616c-8f37-4a7c-9b5f-b9341b756f8b",
    "sourceNames": [
      {
        "sourceFileName": "VO_LQ\\VO_npc\\vo_NHDLQ001_6_debbi_01.wem",
        "rate": 1.0,
        "avatarName": "",
        "emotion": ""
      }
    ]
  },
  "56ae8a9f-ed3b-4f8b-8dec-eff48e783582": {
    "guid": "56ae8a9f-ed3b-4f8b-8dec-eff48e783582",
    "playRate": 1.0,
    "gameTrigger": "Dialog",
    "gameTriggerArgs": 130139912,
    "personalConfig": 2,
    "NJKDHJOHKCM": 1,
    "isPlayOnTeam": true,
    "parentID": "38f5616c-8f37-4a7c-9b5f-b9341b756f8b",
    "sourceNames": [
      {
        "sourceFileName": "VO_LQ\\VO_npc\\vo_NHDLQ001_6_ilman_01.wem",
        "rate": 1.0,
        "avatarName": "",
        "emotion": ""
      }
    ]
  },
  "7ae89cfd-2490-4986-94bd-2bb79d46eff7": {
    "guid": "7ae89cfd-2490-4986-94bd-2bb79d46eff7",
    "playRate": 1.0,
    "gameTrigger": "Dialog",
    "gameTriggerArgs": 130149947,
    "personalConfig": 2,
    "NJKDHJOHKCM": 1,
    "isPlayOnTeam": true,
    "parentID": "38f5616c-8f37-4a7c-9b5f-b9341b756f8b",
    "sourceNames": [
      {
        "sourceFileName": "VO_LQ\\VO_npc\\vo_NHDLQ001_6_nasser_01.wem",
        "rate": 1.0,
        "avatarName": "",
        "emotion": ""
      }
    ]
  },
  "961defae-8523-4e1a-a97b-65384b3ecea1": {
    "guid": "961defae-8523-4e1a-a97b-65384b3ecea1",
    "playRate": 1.0,
    "gameTrigger": "Dialog",
    "gameTriggerArgs": 130139913,
    "personalConfig": 2,
    "NJKDHJOHKCM": 1,
    "isPlayOnTeam": true,
    "parentID": "38f5616c-8f37-4a7c-9b5f-b9341b756f8b",
    "sourceNames": [
      {
        "sourceFileName": "VO_LQ\\VO_npc\\vo_NHDLQ001_6_debbi_01.wem",
        "rate": 1.0,
        "avatarName": "",
        "emotion": ""
      }
    ]
  },
  "ef051cfa-c0ea-477a-b6aa-ac828021bbe5": {
    "guid": "ef051cfa-c0ea-477a-b6aa-ac828021bbe5",
    "playRate": 1.0,
    "gameTrigger": "Dialog",
    "gameTriggerArgs": 130139915,
    "personalConfig": 2,
    "NJKDHJOHKCM": 1,
    "isPlayOnTeam": true,
    "parentID": "38f5616c-8f37-4a7c-9b5f-b9341b756f8b",
    "sourceNames": [
      {
        "sourceFileName": "VO_LQ\\VO_npc\\vo_NHDLQ001_6_paulin_01.wem",
        "rate": 1.0,
        "avatarName": "",
        "emotion": ""
      }
    ]
  },
  "f0bc8cf0-a7eb-4a5c-8765-9a2a859045a5": {
    "guid": "f0bc8cf0-a7eb-4a5c-8765-9a2a859045a5",
    "playRate": 1.0,
    "gameTrigger": "Dialog",
    "gameTriggerArgs": 130139914,
    "personalConfig": 2,
    "NJKDHJOHKCM": 1,
    "isPlayOnTeam": true,
    "parentID": "38f5616c-8f37-4a7c-9b5f-b9341b756f8b",
    "sourceNames": [
      {
        "sourceFileName": "VO_LQ\\VO_npc\\vo_NHDLQ001_6_nasser_01.wem",
        "rate": 1.0,
        "avatarName": "",
        "emotion": ""
      }
    ]
  }
}