{
  "17626286-00a0-4d94-8b32-ae3c7f7c3a7a": {
    "guid": "17626286-00a0-4d94-8b32-ae3c7f7c3a7a",
    "playRate": 1.0,
    "gameTrigger": "Dialog",
    "gameTriggerArgs": 1018132351,
    "personalConfig": 2,
    "NJKDHJOHKCM": 1,
    "parentID": "c2f4b8d7-dd8b-4c89-b56f-24a5d9b43fec",
    "sourceNames": [
      {
        "sourceFileName": "VO_COOP\\VO_npc\\vo_KVCOP001_19059_badawi_01.wem",
        "rate": 1.0,
        "avatarName": "",
        "emotion": ""
      }
    ]
  },
  "edb2e240-43a7-4c0b-9b2b-e03c86e9512d": {
    "guid": "edb2e240-43a7-4c0b-9b2b-e03c86e9512d",
    "playRate": 1.0,
    "gameTrigger": "Dialog",
    "gameTriggerArgs": 1018132770,
    "personalConfig": 2,
    "NJKDHJOHKCM": 1,
    "parentID": "c2f4b8d7-dd8b-4c89-b56f-24a5d9b43fec",
    "sourceNames": [
      {
        "sourceFileName": "VO_COOP\\VO_npc\\vo_KVCOP001_19059_badawi_01.wem",
        "rate": 1.0,
        "avatarName": "",
        "emotion": ""
      }
    ]
  }
}