{
  "09f41a33-9dcf-46bb-9063-1be99d492c64": {
    "guid": "09f41a33-9dcf-46bb-9063-1be99d492c64",
    "playRate": 1.0,
    "gameTrigger": "Dialog",
    "gameTriggerArgs": 1018129250,
    "personalConfig": 2,
    "NJKDHJOHKCM": 1,
    "parentID": "88354b3f-00ff-4fc5-a168-10ce4bf38eb8",
    "sourceNames": [
      {
        "sourceFileName": "VO_COOP\\VO_npc\\vo_FRZCOP001_1917301_anis_01.wem",
        "rate": 1.0,
        "avatarName": "",
        "emotion": ""
      }
    ]
  },
  "0da0e2ff-b6c4-4cef-9254-4816bcbd46cf": {
    "guid": "0da0e2ff-b6c4-4cef-9254-4816bcbd46cf",
    "playRate": 1.0,
    "gameTrigger": "Dialog",
    "gameTriggerArgs": 1018129360,
    "personalConfig": 2,
    "NJKDHJOHKCM": 1,
    "parentID": "88354b3f-00ff-4fc5-a168-10ce4bf38eb8",
    "sourceNames": [
      {
        "sourceFileName": "VO_COOP\\VO_npc\\vo_FRZCOP001_1917301_tiredVillagers_01.wem",
        "rate": 1.0,
        "avatarName": "",
        "emotion": ""
      }
    ]
  },
  "1470a615-4723-4b42-8237-040a12a2f1fa": {
    "guid": "1470a615-4723-4b42-8237-040a12a2f1fa",
    "playRate": 1.0,
    "gameTrigger": "Dialog",
    "gameTriggerArgs": 1018051304,
    "personalConfig": 2,
    "NJKDHJOHKCM": 1,
    "parentID": "88354b3f-00ff-4fc5-a168-10ce4bf38eb8",
    "sourceNames": [
      {
        "sourceFileName": "VO_COOP\\VO_faruzan\\vo_FRZCOP001_1917301_faruzan_05.wem",
        "rate": 1.0,
        "avatarName": "",
        "emotion": ""
      }
    ]
  },
  "1f570855-aa53-4389-8d57-163f4b861b8f": {
    "guid": "1f570855-aa53-4389-8d57-163f4b861b8f",
    "playRate": 1.0,
    "gameTrigger": "Dialog",
    "gameTriggerArgs": 1018051302,
    "personalConfig": 2,
    "NJKDHJOHKCM": 1,
    "parentID": "88354b3f-00ff-4fc5-a168-10ce4bf38eb8",
    "sourceNames": [
      {
        "sourceFileName": "VO_COOP\\VO_faruzan\\vo_FRZCOP001_1917301_faruzan_03.wem",
        "rate": 1.0,
        "avatarName": "",
        "emotion": ""
      }
    ]
  },
  "2cb23d88-38c9-4111-9d4f-de64a0c8cfed": {
    "guid": "2cb23d88-38c9-4111-9d4f-de64a0c8cfed",
    "playRate": 1.0,
    "gameTrigger": "Dialog",
    "gameTriggerArgs": 1018105101,
    "personalConfig": 2,
    "NJKDHJOHKCM": 1,
    "parentID": "88354b3f-00ff-4fc5-a168-10ce4bf38eb8",
    "sourceNames": [
      {
        "sourceFileName": "VO_COOP\\VO_collei\\vo_FRZCOP001_1917301_collei_02.wem",
        "rate": 1.0,
        "avatarName": "",
        "emotion": ""
      }
    ]
  },
  "2d3ed7a6-c89f-4435-818d-09d31a21b1e5": {
    "guid": "2d3ed7a6-c89f-4435-818d-09d31a21b1e5",
    "playRate": 1.0,
    "gameTrigger": "Dialog",
    "gameTriggerArgs": 1018129220,
    "personalConfig": 2,
    "NJKDHJOHKCM": 1,
    "parentID": "88354b3f-00ff-4fc5-a168-10ce4bf38eb8",
    "sourceNames": [
      {
        "sourceFileName": "VO_COOP\\VO_npc\\vo_FRZCOP001_1917301_nadwah_01.wem",
        "rate": 1.0,
        "avatarName": "",
        "emotion": ""
      }
    ]
  },
  "31b4087f-987e-49b2-9cb9-4d9919e5a310": {
    "guid": "31b4087f-987e-49b2-9cb9-4d9919e5a310",
    "playRate": 1.0,
    "gameTrigger": "Dialog",
    "gameTriggerArgs": 1018051303,
    "personalConfig": 2,
    "NJKDHJOHKCM": 1,
    "parentID": "88354b3f-00ff-4fc5-a168-10ce4bf38eb8",
    "sourceNames": [
      {
        "sourceFileName": "VO_COOP\\VO_faruzan\\vo_FRZCOP001_1917301_faruzan_04.wem",
        "rate": 1.0,
        "avatarName": "",
        "emotion": ""
      }
    ]
  },
  "495ee2d0-8154-4a01-89b4-549913c1c8f5": {
    "guid": "495ee2d0-8154-4a01-89b4-549913c1c8f5",
    "playRate": 1.0,
    "gameTrigger": "Dialog",
    "gameTriggerArgs": 1018129380,
    "personalConfig": 2,
    "NJKDHJOHKCM": 1,
    "parentID": "88354b3f-00ff-4fc5-a168-10ce4bf38eb8",
    "sourceNames": [
      {
        "sourceFileName": "VO_COOP\\VO_npc\\vo_FRZCOP001_1917301_chattyVillagers_01.wem",
        "rate": 1.0,
        "avatarName": "",
        "emotion": ""
      }
    ]
  },
  "56e75dcb-55fb-4b05-bc57-3b63f08772d7": {
    "guid": "56e75dcb-55fb-4b05-bc57-3b63f08772d7",
    "playRate": 1.0,
    "gameTrigger": "Dialog",
    "gameTriggerArgs": 1018105001,
    "personalConfig": 2,
    "NJKDHJOHKCM": 1,
    "parentID": "88354b3f-00ff-4fc5-a168-10ce4bf38eb8",
    "sourceNames": [
      {
        "sourceFileName": "VO_COOP\\VO_tighnari\\vo_FRZCOP001_1917301_tighnari_02.wem",
        "rate": 1.0,
        "avatarName": "",
        "emotion": ""
      }
    ]
  },
  "5c3e7670-b38e-49bb-a6ad-21111e020b36": {
    "guid": "5c3e7670-b38e-49bb-a6ad-21111e020b36",
    "playRate": 1.0,
    "gameTrigger": "Dialog",
    "gameTriggerArgs": 1018105000,
    "personalConfig": 2,
    "NJKDHJOHKCM": 1,
    "parentID": "88354b3f-00ff-4fc5-a168-10ce4bf38eb8",
    "sourceNames": [
      {
        "sourceFileName": "VO_COOP\\VO_tighnari\\vo_FRZCOP001_1917301_tighnari_01.wem",
        "rate": 1.0,
        "avatarName": "",
        "emotion": ""
      }
    ]
  },
  "6e082ec4-2845-407e-ab61-9dc015f22fbd": {
    "guid": "6e082ec4-2845-407e-ab61-9dc015f22fbd",
    "playRate": 1.0,
    "gameTrigger": "Dialog",
    "gameTriggerArgs": 1018302150,
    "personalConfig": 2,
    "NJKDHJOHKCM": 1,
    "parentID": "88354b3f-00ff-4fc5-a168-10ce4bf38eb8",
    "sourceNames": [
      {
        "sourceFileName": "VO_COOP\\VO_npc\\vo_FRZCOP001_1917301_alia_01.wem",
        "rate": 1.0,
        "avatarName": "",
        "emotion": ""
      }
    ]
  },
  "82de256f-2af3-4e2b-b87e-f244544fc8da": {
    "guid": "82de256f-2af3-4e2b-b87e-f244544fc8da",
    "playRate": 1.0,
    "gameTrigger": "Dialog",
    "gameTriggerArgs": 1018302120,
    "personalConfig": 2,
    "NJKDHJOHKCM": 1,
    "parentID": "88354b3f-00ff-4fc5-a168-10ce4bf38eb8",
    "sourceNames": [
      {
        "sourceFileName": "VO_COOP\\VO_npc\\vo_FRZCOP001_1917301_mamdouh_01.wem",
        "rate": 1.0,
        "avatarName": "",
        "emotion": ""
      }
    ]
  },
  "890c5ae6-f199-4502-94ff-660255f8af50": {
    "guid": "890c5ae6-f199-4502-94ff-660255f8af50",
    "playRate": 1.0,
    "gameTrigger": "Dialog",
    "gameTriggerArgs": 1018129370,
    "personalConfig": 2,
    "NJKDHJOHKCM": 1,
    "parentID": "88354b3f-00ff-4fc5-a168-10ce4bf38eb8",
    "sourceNames": [
      {
        "sourceFileName": "VO_COOP\\VO_npc\\vo_FRZCOP001_1917301_curiousVillagers_01.wem",
        "rate": 1.0,
        "avatarName": "",
        "emotion": ""
      }
    ]
  },
  "90f5f38d-6ff2-43e2-9847-6bd1f7dbf72f": {
    "guid": "90f5f38d-6ff2-43e2-9847-6bd1f7dbf72f",
    "playRate": 1.0,
    "gameTrigger": "Dialog",
    "gameTriggerArgs": 1018105002,
    "personalConfig": 2,
    "NJKDHJOHKCM": 1,
    "parentID": "88354b3f-00ff-4fc5-a168-10ce4bf38eb8",
    "sourceNames": [
      {
        "sourceFileName": "VO_COOP\\VO_tighnari\\vo_FRZCOP001_1917301_tighnari_03.wem",
        "rate": 1.0,
        "avatarName": "",
        "emotion": ""
      }
    ]
  },
  "a010f68e-2c75-4df8-a45c-ce4feeb5e3f5": {
    "guid": "a010f68e-2c75-4df8-a45c-ce4feeb5e3f5",
    "playRate": 1.0,
    "gameTrigger": "Dialog",
    "gameTriggerArgs": 1018302140,
    "personalConfig": 2,
    "NJKDHJOHKCM": 1,
    "parentID": "88354b3f-00ff-4fc5-a168-10ce4bf38eb8",
    "sourceNames": [
      {
        "sourceFileName": "VO_COOP\\VO_npc\\vo_FRZCOP001_1917301_qasit_01.wem",
        "rate": 1.0,
        "avatarName": "",
        "emotion": ""
      }
    ]
  },
  "a45fc42e-aa31-4e32-a433-f60d68e9c9c5": {
    "guid": "a45fc42e-aa31-4e32-a433-f60d68e9c9c5",
    "playRate": 1.0,
    "gameTrigger": "Dialog",
    "gameTriggerArgs": 1018129320,
    "personalConfig": 2,
    "NJKDHJOHKCM": 1,
    "parentID": "88354b3f-00ff-4fc5-a168-10ce4bf38eb8",
    "sourceNames": [
      {
        "sourceFileName": "VO_COOP\\VO_npc\\vo_FRZCOP001_1917301_bakr_01.wem",
        "rate": 1.0,
        "avatarName": "",
        "emotion": ""
      }
    ]
  },
  "a82b123b-78ae-4d25-bc6a-22a869ca74fd": {
    "guid": "a82b123b-78ae-4d25-bc6a-22a869ca74fd",
    "playRate": 1.0,
    "gameTrigger": "Dialog",
    "gameTriggerArgs": 1018051300,
    "personalConfig": 2,
    "NJKDHJOHKCM": 1,
    "parentID": "88354b3f-00ff-4fc5-a168-10ce4bf38eb8",
    "sourceNames": [
      {
        "sourceFileName": "VO_COOP\\VO_faruzan\\vo_FRZCOP001_1917301_faruzan_01.wem",
        "rate": 1.0,
        "avatarName": "",
        "emotion": ""
      }
    ]
  },
  "ac39a175-b2c5-46c3-bb08-efc88e0f768d": {
    "guid": "ac39a175-b2c5-46c3-bb08-efc88e0f768d",
    "playRate": 1.0,
    "gameTrigger": "Dialog",
    "gameTriggerArgs": 1018129230,
    "personalConfig": 2,
    "NJKDHJOHKCM": 1,
    "parentID": "88354b3f-00ff-4fc5-a168-10ce4bf38eb8",
    "sourceNames": [
      {
        "sourceFileName": "VO_COOP\\VO_npc\\vo_FRZCOP001_1917301_farrokh_01.wem",
        "rate": 1.0,
        "avatarName": "",
        "emotion": ""
      }
    ]
  },
  "b92183f5-fd2c-4118-99d8-2990da3fb98c": {
    "guid": "b92183f5-fd2c-4118-99d8-2990da3fb98c",
    "playRate": 1.0,
    "gameTrigger": "Dialog",
    "gameTriggerArgs": 1018051301,
    "personalConfig": 2,
    "NJKDHJOHKCM": 1,
    "parentID": "88354b3f-00ff-4fc5-a168-10ce4bf38eb8",
    "sourceNames": [
      {
        "sourceFileName": "VO_COOP\\VO_faruzan\\vo_FRZCOP001_1917301_faruzan_02.wem",
        "rate": 1.0,
        "avatarName": "",
        "emotion": ""
      }
    ]
  },
  "bf0e71af-7ce4-415e-8ed6-40abad4d18b2": {
    "guid": "bf0e71af-7ce4-415e-8ed6-40abad4d18b2",
    "playRate": 1.0,
    "gameTrigger": "Dialog",
    "gameTriggerArgs": 1018105100,
    "personalConfig": 2,
    "NJKDHJOHKCM": 1,
    "parentID": "88354b3f-00ff-4fc5-a168-10ce4bf38eb8",
    "sourceNames": [
      {
        "sourceFileName": "VO_COOP\\VO_collei\\vo_FRZCOP001_1917301_collei_01.wem",
        "rate": 1.0,
        "avatarName": "",
        "emotion": ""
      }
    ]
  },
  "c5f5747f-bbed-49cd-8620-3527af495a97": {
    "guid": "c5f5747f-bbed-49cd-8620-3527af495a97",
    "playRate": 1.0,
    "gameTrigger": "Dialog",
    "gameTriggerArgs": 1018129240,
    "personalConfig": 2,
    "NJKDHJOHKCM": 1,
    "parentID": "88354b3f-00ff-4fc5-a168-10ce4bf38eb8",
    "sourceNames": [
      {
        "sourceFileName": "VO_COOP\\VO_npc\\vo_FRZCOP001_1917301_derafsh_01.wem",
        "rate": 1.0,
        "avatarName": "",
        "emotion": ""
      }
    ]
  },
  "d9019aa6-510a-44d5-be72-f27e3153e98f": {
    "guid": "d9019aa6-510a-44d5-be72-f27e3153e98f",
    "playRate": 1.0,
    "gameTrigger": "Dialog",
    "gameTriggerArgs": 1018129350,
    "personalConfig": 2,
    "NJKDHJOHKCM": 1,
    "parentID": "88354b3f-00ff-4fc5-a168-10ce4bf38eb8",
    "sourceNames": [
      {
        "sourceFileName": "VO_COOP\\VO_npc\\vo_FRZCOP001_1917301_raed_01.wem",
        "rate": 1.0,
        "avatarName": "",
        "emotion": ""
      }
    ]
  },
  "ddcf305a-7875-48d3-a107-afc9217fcfbb": {
    "guid": "ddcf305a-7875-48d3-a107-afc9217fcfbb",
    "playRate": 1.0,
    "gameTrigger": "Dialog",
    "gameTriggerArgs": 1018400302,
    "personalConfig": 2,
    "NJKDHJOHKCM": 1,
    "parentID": "88354b3f-00ff-4fc5-a168-10ce4bf38eb8",
    "sourceNames": [
      {
        "sourceFileName": "VO_COOP\\VO_npc\\vo_FRZCOP001_1917301_maddah_01.wem",
        "rate": 1.0,
        "avatarName": "",
        "emotion": ""
      }
    ]
  },
  "e6266adc-0f88-42b8-b8d3-e759438dfbbf": {
    "guid": "e6266adc-0f88-42b8-b8d3-e759438dfbbf",
    "playRate": 1.0,
    "gameTrigger": "Dialog",
    "gameTriggerArgs": 1018105102,
    "personalConfig": 2,
    "NJKDHJOHKCM": 1,
    "parentID": "88354b3f-00ff-4fc5-a168-10ce4bf38eb8",
    "sourceNames": [
      {
        "sourceFileName": "VO_COOP\\VO_collei\\vo_FRZCOP001_1917301_collei_03.wem",
        "rate": 1.0,
        "avatarName": "",
        "emotion": ""
      }
    ]
  },
  "e67eb2f1-ea02-4dbd-8035-ca0067679994": {
    "guid": "e67eb2f1-ea02-4dbd-8035-ca0067679994",
    "playRate": 1.0,
    "gameTrigger": "Dialog",
    "gameTriggerArgs": 1018302160,
    "personalConfig": 2,
    "NJKDHJOHKCM": 1,
    "parentID": "88354b3f-00ff-4fc5-a168-10ce4bf38eb8",
    "sourceNames": [
      {
        "sourceFileName": "VO_COOP\\VO_npc\\vo_FRZCOP001_1917301_ruhi_01.wem",
        "rate": 1.0,
        "avatarName": "",
        "emotion": ""
      }
    ]
  }
}