{
  "01a1d459-b154-403c-b214-7a50c6b6517f": {
    "guid": "01a1d459-b154-403c-b214-7a50c6b6517f",
    "playRate": 1.0,
    "gameTrigger": "Dialog",
    "gameTriggerArgs": 401421009,
    "personalConfig": 2,
    "parentID": "71870bfe-b3a4-4b05-88c4-902ed150e818",
    "sourceNames": [
      {
        "sourceFileName": "VO_freetalk\\VO_clorinde\\vo_dialog_EQHDJ304_clorinde_05.wem",
        "rate": 1.0,
        "avatarName": "",
        "emotion": ""
      }
    ]
  },
  "27a3dabd-30ef-4bad-8712-203f96f06e09": {
    "guid": "27a3dabd-30ef-4bad-8712-203f96f06e09",
    "playRate": 1.0,
    "gameTrigger": "Dialog",
    "gameTriggerArgs": 140335002,
    "personalConfig": 2,
    "parentID": "71870bfe-b3a4-4b05-88c4-902ed150e818",
    "sourceNames": [
      {
        "sourceFileName": "VO_freetalk\\VO_clorinde\\vo_dialog_CLLQ002_clorinde_01.wem",
        "rate": 1.0,
        "avatarName": "",
        "emotion": ""
      },
      {
        "sourceFileName": "VO_freetalk\\VO_clorinde\\vo_dialog_CLLQ002_clorinde_01.wem",
        "rate": 1.0,
        "avatarName": "",
        "emotion": ""
      },
      {
        "sourceFileName": "VO_freetalk\\VO_clorinde\\vo_dialog_CLLQ002_clorinde_01.wem",
        "rate": 1.0,
        "avatarName": "",
        "emotion": ""
      },
      {
        "sourceFileName": "VO_freetalk\\VO_clorinde\\vo_dialog_CLLQ002_clorinde_01.wem",
        "rate": 1.0,
        "avatarName": "",
        "emotion": ""
      }
    ]
  },
  "2f0038be-36b7-41fb-89e7-e90550dc1179": {
    "guid": "2f0038be-36b7-41fb-89e7-e90550dc1179",
    "playRate": 1.0,
    "gameTrigger": "Dialog",
    "gameTriggerArgs": 40082202,
    "personalConfig": 2,
    "parentID": "71870bfe-b3a4-4b05-88c4-902ed150e818",
    "sourceNames": [
      {
        "sourceFileName": "VO_freetalk\\VO_clorinde\\vo_dialog_FDAQ106_clorinde_01.wem",
        "rate": 1.0,
        "avatarName": "",
        "emotion": ""
      }
    ]
  },
  "30c1b10b-3b3e-4a3f-93ba-6d42fc74bde5": {
    "guid": "30c1b10b-3b3e-4a3f-93ba-6d42fc74bde5",
    "playRate": 1.0,
    "gameTrigger": "Dialog",
    "gameTriggerArgs": 140091903,
    "personalConfig": 2,
    "parentID": "71870bfe-b3a4-4b05-88c4-902ed150e818",
    "sourceNames": [
      {
        "sourceFileName": "VO_freetalk\\VO_clorinde\\vo_dialog_SLLQ003_clorinde_01.wem",
        "rate": 1.0,
        "avatarName": "",
        "emotion": ""
      }
    ]
  },
  "6e635e9c-6c5e-4871-a149-a3873b124277": {
    "guid": "6e635e9c-6c5e-4871-a149-a3873b124277",
    "playRate": 1.0,
    "gameTrigger": "Dialog",
    "gameTriggerArgs": 401420504,
    "personalConfig": 2,
    "parentID": "71870bfe-b3a4-4b05-88c4-902ed150e818",
    "sourceNames": [
      {
        "sourceFileName": "VO_freetalk\\VO_clorinde\\vo_dialog_EQHDJ304_clorinde_02.wem",
        "rate": 1.0,
        "avatarName": "",
        "emotion": ""
      }
    ]
  },
  "8a4dd890-e01e-40f3-8cd5-c72fccf271ca": {
    "guid": "8a4dd890-e01e-40f3-8cd5-c72fccf271ca",
    "playRate": 1.0,
    "gameTrigger": "Dialog",
    "gameTriggerArgs": 401420502,
    "personalConfig": 2,
    "parentID": "71870bfe-b3a4-4b05-88c4-902ed150e818",
    "sourceNames": [
      {
        "sourceFileName": "VO_freetalk\\VO_clorinde\\vo_dialog_EQHDJ304_clorinde_01.wem",
        "rate": 1.0,
        "avatarName": "",
        "emotion": ""
      }
    ]
  },
  "8ac0c9e9-4f2c-4c05-b0cf-702fa48b742e": {
    "guid": "8ac0c9e9-4f2c-4c05-b0cf-702fa48b742e",
    "playRate": 1.0,
    "gameTrigger": "Dialog",
    "gameTriggerArgs": 140071002,
    "personalConfig": 2,
    "parentID": "71870bfe-b3a4-4b05-88c4-902ed150e818",
    "sourceNames": [
      {
        "sourceFileName": "VO_freetalk\\VO_clorinde\\vo_dialog_SLLQ001_clorinde_01.wem",
        "rate": 1.0,
        "avatarName": "",
        "emotion": ""
      }
    ]
  },
  "bce20349-ab7b-414c-871c-9a7ca1e3c8bd": {
    "guid": "bce20349-ab7b-414c-871c-9a7ca1e3c8bd",
    "playRate": 1.0,
    "gameTrigger": "Dialog",
    "gameTriggerArgs": 140335004,
    "personalConfig": 2,
    "parentID": "71870bfe-b3a4-4b05-88c4-902ed150e818",
    "sourceNames": [
      {
        "sourceFileName": "VO_freetalk\\VO_clorinde\\vo_dialog_CLLQ002_clorinde_02.wem",
        "rate": 1.0,
        "avatarName": "",
        "emotion": ""
      },
      {
        "sourceFileName": "VO_freetalk\\VO_clorinde\\vo_dialog_CLLQ002_clorinde_02.wem",
        "rate": 1.0,
        "avatarName": "",
        "emotion": ""
      },
      {
        "sourceFileName": "VO_freetalk\\VO_clorinde\\vo_dialog_CLLQ002_clorinde_02.wem",
        "rate": 1.0,
        "avatarName": "",
        "emotion": ""
      },
      {
        "sourceFileName": "VO_freetalk\\VO_clorinde\\vo_dialog_CLLQ002_clorinde_02.wem",
        "rate": 1.0,
        "avatarName": "",
        "emotion": ""
      }
    ]
  },
  "cb5914d5-4a92-40f0-9bf2-7b1c966396d7": {
    "guid": "cb5914d5-4a92-40f0-9bf2-7b1c966396d7",
    "playRate": 1.0,
    "gameTrigger": "Dialog",
    "gameTriggerArgs": 401421003,
    "personalConfig": 2,
    "parentID": "71870bfe-b3a4-4b05-88c4-902ed150e818",
    "sourceNames": [
      {
        "sourceFileName": "VO_freetalk\\VO_clorinde\\vo_dialog_EQHDJ304_clorinde_04.wem",
        "rate": 1.0,
        "avatarName": "",
        "emotion": ""
      }
    ]
  },
  "f4c34dba-8bf9-4f23-ab2b-370908476c4d": {
    "guid": "f4c34dba-8bf9-4f23-ab2b-370908476c4d",
    "playRate": 1.0,
    "gameTrigger": "Dialog",
    "gameTriggerArgs": 401420505,
    "personalConfig": 2,
    "parentID": "71870bfe-b3a4-4b05-88c4-902ed150e818",
    "sourceNames": [
      {
        "sourceFileName": "VO_freetalk\\VO_clorinde\\vo_dialog_EQHDJ304_clorinde_03.wem",
        "rate": 1.0,
        "avatarName": "",
        "emotion": ""
      }
    ]
  },
  "f5613dc5-2be0-4830-a173-8d393cf0e52f": {
    "guid": "f5613dc5-2be0-4830-a173-8d393cf0e52f",
    "playRate": 1.0,
    "gameTrigger": "Dialog",
    "gameTriggerArgs": 401421013,
    "personalConfig": 2,
    "parentID": "71870bfe-b3a4-4b05-88c4-902ed150e818",
    "sourceNames": [
      {
        "sourceFileName": "VO_freetalk\\VO_clorinde\\vo_dialog_EQHDJ304_clorinde_06.wem",
        "rate": 1.0,
        "avatarName": "",
        "emotion": ""
      }
    ]
  }
}