{
  "05025c87-d278-403d-8081-f190c10d5c6c": {
    "guid": "05025c87-d278-403d-8081-f190c10d5c6c",
    "playRate": 1.0,
    "gameTrigger": "Dialog",
    "gameTriggerArgs": 400151428,
    "personalConfig": 2,
    "parentID": "470b45f0-e05a-4698-863a-74ea7604838e",
    "sourceNames": [
      {
        "sourceFileName": "VO_EQ\\VO_paimon\\vo_EQZYJ002_20_paimon_05.wem",
        "rate": 1.0,
        "avatarName": "",
        "emotion": ""
      }
    ]
  },
  "1dcdeae7-b421-46ff-af82-57121f928acd": {
    "guid": "1dcdeae7-b421-46ff-af82-57121f928acd",
    "playRate": 1.0,
    "gameTrigger": "Dialog",
    "gameTriggerArgs": 400151422,
    "personalConfig": 2,
    "parentID": "470b45f0-e05a-4698-863a-74ea7604838e",
    "sourceNames": [
      {
        "sourceFileName": "VO_EQ\\VO_keqing\\vo_EQZYJ002_20_keqing_11.wem",
        "rate": 1.0,
        "avatarName": "",
        "emotion": ""
      }
    ]
  },
  "1e203ae3-a320-4cc5-939e-6ade0d334a2d": {
    "guid": "1e203ae3-a320-4cc5-939e-6ade0d334a2d",
    "playRate": 1.0,
    "gameTrigger": "Dialog",
    "gameTriggerArgs": 400151430,
    "personalConfig": 2,
    "parentID": "470b45f0-e05a-4698-863a-74ea7604838e",
    "sourceNames": [
      {
        "sourceFileName": "VO_EQ\\VO_xiangling\\vo_EQZYJ002_20_xiangling_06.wem",
        "rate": 1.0,
        "avatarName": "",
        "emotion": ""
      }
    ]
  },
  "2c500991-901e-4209-ac1e-b9e981c514ab": {
    "guid": "2c500991-901e-4209-ac1e-b9e981c514ab",
    "playRate": 1.0,
    "gameTrigger": "Dialog",
    "gameTriggerArgs": 400151436,
    "personalConfig": 2,
    "parentID": "470b45f0-e05a-4698-863a-74ea7604838e",
    "sourceNames": [
      {
        "sourceFileName": "VO_EQ\\VO_paimon\\vo_EQZYJ002_20_paimon_06.wem",
        "rate": 1.0,
        "avatarName": "",
        "emotion": ""
      }
    ]
  },
  "315d3267-e5c1-407a-8f32-3185a0ee8f00": {
    "guid": "315d3267-e5c1-407a-8f32-3185a0ee8f00",
    "playRate": 1.0,
    "gameTrigger": "Dialog",
    "gameTriggerArgs": 400151414,
    "personalConfig": 2,
    "parentID": "470b45f0-e05a-4698-863a-74ea7604838e",
    "sourceNames": [
      {
        "sourceFileName": "VO_EQ\\VO_keqing\\vo_EQZYJ002_20_keqing_08.wem",
        "rate": 1.0,
        "avatarName": "",
        "emotion": ""
      }
    ]
  },
  "3212bc4f-4fd1-41de-a558-775c3841aad5": {
    "guid": "3212bc4f-4fd1-41de-a558-775c3841aad5",
    "playRate": 1.0,
    "gameTrigger": "Dialog",
    "gameTriggerArgs": 400151420,
    "personalConfig": 2,
    "parentID": "470b45f0-e05a-4698-863a-74ea7604838e",
    "sourceNames": [
      {
        "sourceFileName": "VO_EQ\\VO_keqing\\vo_EQZYJ002_20_keqing_09.wem",
        "rate": 1.0,
        "avatarName": "",
        "emotion": ""
      }
    ]
  },
  "367ed704-b07f-4981-8828-06ffb0398365": {
    "guid": "367ed704-b07f-4981-8828-06ffb0398365",
    "playRate": 1.0,
    "gameTrigger": "Dialog",
    "gameTriggerArgs": 400151441,
    "personalConfig": 2,
    "parentID": "470b45f0-e05a-4698-863a-74ea7604838e",
    "sourceNames": [
      {
        "sourceFileName": "VO_EQ\\VO_xiangling\\vo_EQZYJ002_20_gooba_02.wem",
        "rate": 1.0,
        "avatarName": "",
        "emotion": ""
      }
    ]
  },
  "3713a4c2-2c5b-45a5-9d11-19362d1b2da4": {
    "guid": "3713a4c2-2c5b-45a5-9d11-19362d1b2da4",
    "playRate": 1.0,
    "gameTrigger": "Dialog",
    "gameTriggerArgs": 400151426,
    "personalConfig": 2,
    "parentID": "470b45f0-e05a-4698-863a-74ea7604838e",
    "sourceNames": [
      {
        "sourceFileName": "VO_EQ\\VO_keqing\\vo_EQZYJ002_20_keqing_15.wem",
        "rate": 1.0,
        "avatarName": "",
        "emotion": ""
      }
    ]
  },
  "3909b548-3f6c-4d1c-84d7-c8ef7797b0b6": {
    "guid": "3909b548-3f6c-4d1c-84d7-c8ef7797b0b6",
    "playRate": 1.0,
    "gameTrigger": "Dialog",
    "gameTriggerArgs": 400151434,
    "personalConfig": 2,
    "parentID": "470b45f0-e05a-4698-863a-74ea7604838e",
    "sourceNames": [
      {
        "sourceFileName": "VO_EQ\\VO_xiangling\\vo_EQZYJ002_20_xiangling_08.wem",
        "rate": 1.0,
        "avatarName": "",
        "emotion": ""
      }
    ]
  },
  "3987c309-f712-42d5-b91c-6204c585228b": {
    "guid": "3987c309-f712-42d5-b91c-6204c585228b",
    "playRate": 1.0,
    "gameTrigger": "Dialog",
    "gameTriggerArgs": 400151431,
    "personalConfig": 2,
    "parentID": "470b45f0-e05a-4698-863a-74ea7604838e",
    "sourceNames": [
      {
        "sourceFileName": "VO_EQ\\VO_xiangling\\vo_EQZYJ002_20_gooba_01.wem",
        "rate": 1.0,
        "avatarName": "",
        "emotion": ""
      }
    ]
  },
  "49f15d3a-ea74-425a-8534-b4ad883d48f5": {
    "guid": "49f15d3a-ea74-425a-8534-b4ad883d48f5",
    "playRate": 1.0,
    "gameTrigger": "Dialog",
    "gameTriggerArgs": 400151438,
    "personalConfig": 2,
    "parentID": "470b45f0-e05a-4698-863a-74ea7604838e",
    "sourceNames": [
      {
        "sourceFileName": "VO_EQ\\VO_keqing\\vo_EQZYJ002_20_keqing_18.wem",
        "rate": 1.0,
        "avatarName": "",
        "emotion": ""
      }
    ]
  },
  "4d71b68e-0b1a-45ff-9807-7c01ebe751aa": {
    "guid": "4d71b68e-0b1a-45ff-9807-7c01ebe751aa",
    "playRate": 1.0,
    "gameTrigger": "Dialog",
    "gameTriggerArgs": 400151424,
    "personalConfig": 2,
    "parentID": "470b45f0-e05a-4698-863a-74ea7604838e",
    "sourceNames": [
      {
        "sourceFileName": "VO_EQ\\VO_keqing\\vo_EQZYJ002_20_keqing_13.wem",
        "rate": 1.0,
        "avatarName": "",
        "emotion": ""
      }
    ]
  },
  "55d261cc-bb05-4b16-a5ae-59304e211808": {
    "guid": "55d261cc-bb05-4b16-a5ae-59304e211808",
    "playRate": 1.0,
    "gameTrigger": "Dialog",
    "gameTriggerArgs": 400151421,
    "personalConfig": 2,
    "parentID": "470b45f0-e05a-4698-863a-74ea7604838e",
    "sourceNames": [
      {
        "sourceFileName": "VO_EQ\\VO_keqing\\vo_EQZYJ002_20_keqing_10.wem",
        "rate": 1.0,
        "avatarName": "",
        "emotion": ""
      }
    ]
  },
  "59b24347-cd8f-43ae-988f-a665974328cb": {
    "guid": "59b24347-cd8f-43ae-988f-a665974328cb",
    "playRate": 1.0,
    "gameTrigger": "Dialog",
    "gameTriggerArgs": 400151407,
    "personalConfig": 2,
    "parentID": "470b45f0-e05a-4698-863a-74ea7604838e",
    "sourceNames": [
      {
        "sourceFileName": "VO_EQ\\VO_keqing\\vo_EQZYJ002_20_keqing_03.wem",
        "rate": 1.0,
        "avatarName": "",
        "emotion": ""
      }
    ]
  },
  "5b7b0830-56a4-4f9d-8f7a-dd99c9b2ddc0": {
    "guid": "5b7b0830-56a4-4f9d-8f7a-dd99c9b2ddc0",
    "playRate": 1.0,
    "gameTrigger": "Dialog",
    "gameTriggerArgs": 400151403,
    "personalConfig": 2,
    "parentID": "470b45f0-e05a-4698-863a-74ea7604838e",
    "sourceNames": [
      {
        "sourceFileName": "VO_EQ\\VO_paimon\\vo_EQZYJ002_20_paimon_01.wem",
        "rate": 1.0,
        "avatarName": "",
        "emotion": ""
      }
    ]
  },
  "5d8aa61d-fe70-4028-83f4-ce407d0c7e89": {
    "guid": "5d8aa61d-fe70-4028-83f4-ce407d0c7e89",
    "playRate": 1.0,
    "gameTrigger": "Dialog",
    "gameTriggerArgs": 400151419,
    "personalConfig": 2,
    "parentID": "470b45f0-e05a-4698-863a-74ea7604838e",
    "sourceNames": [
      {
        "sourceFileName": "VO_EQ\\VO_paimon\\vo_EQZYJ002_20_paimon_04.wem",
        "rate": 1.0,
        "avatarName": "",
        "emotion": ""
      }
    ]
  },
  "6f0b2f85-9ec8-4b6b-8af2-78845dceeab0": {
    "guid": "6f0b2f85-9ec8-4b6b-8af2-78845dceeab0",
    "playRate": 1.0,
    "gameTrigger": "Dialog",
    "gameTriggerArgs": 400151437,
    "personalConfig": 2,
    "parentID": "470b45f0-e05a-4698-863a-74ea7604838e",
    "sourceNames": [
      {
        "sourceFileName": "VO_EQ\\VO_paimon\\vo_EQZYJ002_20_paimon_07.wem",
        "rate": 1.0,
        "avatarName": "",
        "emotion": ""
      }
    ]
  },
  "840cb279-16c7-480c-884a-bca992b4b22e": {
    "guid": "840cb279-16c7-480c-884a-bca992b4b22e",
    "playRate": 1.0,
    "gameTrigger": "Dialog",
    "gameTriggerArgs": 400151433,
    "personalConfig": 2,
    "parentID": "470b45f0-e05a-4698-863a-74ea7604838e",
    "sourceNames": [
      {
        "sourceFileName": "VO_EQ\\VO_keqing\\vo_EQZYJ002_20_keqing_17.wem",
        "rate": 1.0,
        "avatarName": "",
        "emotion": ""
      }
    ]
  },
  "898d7ec1-7f6c-40a3-887b-cc409ac7317e": {
    "guid": "898d7ec1-7f6c-40a3-887b-cc409ac7317e",
    "playRate": 1.0,
    "gameTrigger": "Dialog",
    "gameTriggerArgs": 400151417,
    "personalConfig": 2,
    "parentID": "470b45f0-e05a-4698-863a-74ea7604838e",
    "sourceNames": [
      {
        "sourceFileName": "VO_EQ\\VO_paimon\\vo_EQZYJ002_20_paimon_03.wem",
        "rate": 1.0,
        "avatarName": "",
        "emotion": ""
      }
    ]
  },
  "8e2fbbc0-d4f0-4729-a0d5-943260a77ade": {
    "guid": "8e2fbbc0-d4f0-4729-a0d5-943260a77ade",
    "playRate": 1.0,
    "gameTrigger": "Dialog",
    "gameTriggerArgs": 400151409,
    "personalConfig": 2,
    "parentID": "470b45f0-e05a-4698-863a-74ea7604838e",
    "sourceNames": [
      {
        "sourceFileName": "VO_EQ\\VO_keqing\\vo_EQZYJ002_20_keqing_04.wem",
        "rate": 1.0,
        "avatarName": "",
        "emotion": ""
      }
    ]
  },
  "8f3b12f9-74b7-4fab-bb75-c0cafb24d231": {
    "guid": "8f3b12f9-74b7-4fab-bb75-c0cafb24d231",
    "playRate": 1.0,
    "gameTrigger": "Dialog",
    "gameTriggerArgs": 400151413,
    "personalConfig": 2,
    "parentID": "470b45f0-e05a-4698-863a-74ea7604838e",
    "sourceNames": [
      {
        "sourceFileName": "VO_EQ\\VO_keqing\\vo_EQZYJ002_20_keqing_07.wem",
        "rate": 1.0,
        "avatarName": "",
        "emotion": ""
      }
    ]
  },
  "9433eef3-e3b3-4db3-9525-543b45b5b293": {
    "guid": "9433eef3-e3b3-4db3-9525-543b45b5b293",
    "playRate": 1.0,
    "gameTrigger": "Dialog",
    "gameTriggerArgs": 400151418,
    "personalConfig": 2,
    "parentID": "470b45f0-e05a-4698-863a-74ea7604838e",
    "sourceNames": [
      {
        "sourceFileName": "VO_EQ\\VO_xiangling\\vo_EQZYJ002_20_xiangling_04.wem",
        "rate": 1.0,
        "avatarName": "",
        "emotion": ""
      }
    ]
  },
  "946e74ce-de0a-42d9-bdee-fa06ced30c5c": {
    "guid": "946e74ce-de0a-42d9-bdee-fa06ced30c5c",
    "playRate": 1.0,
    "gameTrigger": "Dialog",
    "gameTriggerArgs": 400151423,
    "personalConfig": 2,
    "parentID": "470b45f0-e05a-4698-863a-74ea7604838e",
    "sourceNames": [
      {
        "sourceFileName": "VO_EQ\\VO_keqing\\vo_EQZYJ002_20_keqing_12.wem",
        "rate": 1.0,
        "avatarName": "",
        "emotion": ""
      }
    ]
  },
  "a0147240-11c3-4bf4-b40c-83de7b15d85e": {
    "guid": "a0147240-11c3-4bf4-b40c-83de7b15d85e",
    "playRate": 1.0,
    "gameTrigger": "Dialog",
    "gameTriggerArgs": 400151405,
    "personalConfig": 2,
    "parentID": "470b45f0-e05a-4698-863a-74ea7604838e",
    "sourceNames": [
      {
        "sourceFileName": "VO_EQ\\VO_keqing\\vo_EQZYJ002_20_keqing_01.wem",
        "rate": 1.0,
        "avatarName": "",
        "emotion": ""
      }
    ]
  },
  "a1ac4cc4-2cc6-4878-9992-94f9adbe1838": {
    "guid": "a1ac4cc4-2cc6-4878-9992-94f9adbe1838",
    "playRate": 1.0,
    "gameTrigger": "Dialog",
    "gameTriggerArgs": 400151429,
    "personalConfig": 2,
    "parentID": "470b45f0-e05a-4698-863a-74ea7604838e",
    "sourceNames": [
      {
        "sourceFileName": "VO_EQ\\VO_xiangling\\vo_EQZYJ002_20_xiangling_05.wem",
        "rate": 1.0,
        "avatarName": "",
        "emotion": ""
      }
    ]
  },
  "a75b520c-1d67-4cf9-a0ed-1cc7d46ed154": {
    "guid": "a75b520c-1d67-4cf9-a0ed-1cc7d46ed154",
    "playRate": 1.0,
    "gameTrigger": "Dialog",
    "gameTriggerArgs": 400151416,
    "personalConfig": 2,
    "parentID": "470b45f0-e05a-4698-863a-74ea7604838e",
    "sourceNames": [
      {
        "sourceFileName": "VO_EQ\\VO_xiangling\\vo_EQZYJ002_20_xiangling_03.wem",
        "rate": 1.0,
        "avatarName": "",
        "emotion": ""
      }
    ]
  },
  "a8b1c01b-c6a1-4e81-a20a-40c09a4bf252": {
    "guid": "a8b1c01b-c6a1-4e81-a20a-40c09a4bf252",
    "playRate": 1.0,
    "gameTrigger": "Dialog",
    "gameTriggerArgs": 400151404,
    "personalConfig": 2,
    "parentID": "470b45f0-e05a-4698-863a-74ea7604838e",
    "sourceNames": [
      {
        "sourceFileName": "VO_EQ\\VO_xiangling\\vo_EQZYJ002_20_xiangling_01.wem",
        "rate": 1.0,
        "avatarName": "",
        "emotion": ""
      }
    ]
  },
  "aa0b53fb-8c80-4171-a4c7-add102ab567a": {
    "guid": "aa0b53fb-8c80-4171-a4c7-add102ab567a",
    "playRate": 1.0,
    "gameTrigger": "Dialog",
    "gameTriggerArgs": 400151432,
    "personalConfig": 2,
    "parentID": "470b45f0-e05a-4698-863a-74ea7604838e",
    "sourceNames": [
      {
        "sourceFileName": "VO_EQ\\VO_xiangling\\vo_EQZYJ002_20_xiangling_07.wem",
        "rate": 1.0,
        "avatarName": "",
        "emotion": ""
      }
    ]
  },
  "aecf105f-d8ce-4ec2-a668-d99853416708": {
    "guid": "aecf105f-d8ce-4ec2-a668-d99853416708",
    "playRate": 1.0,
    "gameTrigger": "Dialog",
    "gameTriggerArgs": 400151425,
    "personalConfig": 2,
    "parentID": "470b45f0-e05a-4698-863a-74ea7604838e",
    "sourceNames": [
      {
        "sourceFileName": "VO_EQ\\VO_keqing\\vo_EQZYJ002_20_keqing_14.wem",
        "rate": 1.0,
        "avatarName": "",
        "emotion": ""
      }
    ]
  },
  "b3dd7111-a0ca-4b2d-8fc5-52c55d656a16": {
    "guid": "b3dd7111-a0ca-4b2d-8fc5-52c55d656a16",
    "playRate": 1.0,
    "gameTrigger": "Dialog",
    "gameTriggerArgs": 400151415,
    "personalConfig": 2,
    "parentID": "470b45f0-e05a-4698-863a-74ea7604838e",
    "sourceNames": [
      {
        "sourceFileName": "VO_EQ\\VO_xiangling\\vo_EQZYJ002_20_xiangling_02.wem",
        "rate": 1.0,
        "avatarName": "",
        "emotion": ""
      }
    ]
  },
  "b621f543-336a-4698-8365-21154c9faa28": {
    "guid": "b621f543-336a-4698-8365-21154c9faa28",
    "playRate": 1.0,
    "gameTrigger": "Dialog",
    "gameTriggerArgs": 400151435,
    "personalConfig": 2,
    "parentID": "470b45f0-e05a-4698-863a-74ea7604838e",
    "sourceNames": [
      {
        "sourceFileName": "VO_EQ\\VO_xiangling\\vo_EQZYJ002_20_xiangling_09.wem",
        "rate": 1.0,
        "avatarName": "",
        "emotion": ""
      }
    ]
  },
  "b73f80aa-2cea-4c02-adcc-6d608f97131e": {
    "guid": "b73f80aa-2cea-4c02-adcc-6d608f97131e",
    "playRate": 1.0,
    "gameTrigger": "Dialog",
    "gameTriggerArgs": 400151440,
    "personalConfig": 2,
    "parentID": "470b45f0-e05a-4698-863a-74ea7604838e",
    "sourceNames": [
      {
        "sourceFileName": "VO_EQ\\VO_xiangling\\vo_EQZYJ002_20_xiangling_10.wem",
        "rate": 1.0,
        "avatarName": "",
        "emotion": ""
      }
    ]
  },
  "cb5de202-ef64-419b-a599-6239b34397e6": {
    "guid": "cb5de202-ef64-419b-a599-6239b34397e6",
    "playRate": 1.0,
    "gameTrigger": "Dialog",
    "gameTriggerArgs": 400151427,
    "personalConfig": 2,
    "parentID": "470b45f0-e05a-4698-863a-74ea7604838e",
    "sourceNames": [
      {
        "sourceFileName": "VO_EQ\\VO_keqing\\vo_EQZYJ002_20_keqing_16.wem",
        "rate": 1.0,
        "avatarName": "",
        "emotion": ""
      }
    ]
  },
  "d3a61a2a-9cfa-4c7f-9fe1-91d1a0a0c07a": {
    "guid": "d3a61a2a-9cfa-4c7f-9fe1-91d1a0a0c07a",
    "playRate": 1.0,
    "gameTrigger": "Dialog",
    "gameTriggerArgs": 400151406,
    "personalConfig": 2,
    "parentID": "470b45f0-e05a-4698-863a-74ea7604838e",
    "sourceNames": [
      {
        "sourceFileName": "VO_EQ\\VO_keqing\\vo_EQZYJ002_20_keqing_02.wem",
        "rate": 1.0,
        "avatarName": "",
        "emotion": ""
      }
    ]
  },
  "e58f3a44-55f9-4e43-a135-df9a55bdf742": {
    "guid": "e58f3a44-55f9-4e43-a135-df9a55bdf742",
    "playRate": 1.0,
    "gameTrigger": "Dialog",
    "gameTriggerArgs": 400151410,
    "personalConfig": 2,
    "NJKDHJOHKCM": 1,
    "parentID": "470b45f0-e05a-4698-863a-74ea7604838e",
    "sourceNames": [
      {
        "sourceFileName": "VO_EQ\\VO_keqing\\vo_EQZYJ002_20_keqing_05.wem",
        "rate": 1.0,
        "avatarName": "",
        "emotion": ""
      }
    ]
  },
  "efc58cd4-93e6-44ed-8ada-8510f3120fdb": {
    "guid": "efc58cd4-93e6-44ed-8ada-8510f3120fdb",
    "playRate": 1.0,
    "gameTrigger": "Dialog",
    "gameTriggerArgs": 400151408,
    "personalConfig": 2,
    "parentID": "470b45f0-e05a-4698-863a-74ea7604838e",
    "sourceNames": [
      {
        "sourceFileName": "VO_EQ\\VO_paimon\\vo_EQZYJ002_20_paimon_02.wem",
        "rate": 1.0,
        "avatarName": "",
        "emotion": ""
      }
    ]
  },
  "fe46160f-787f-40f1-b180-5854a336eb87": {
    "guid": "fe46160f-787f-40f1-b180-5854a336eb87",
    "playRate": 1.0,
    "gameTrigger": "Dialog",
    "gameTriggerArgs": 400151412,
    "personalConfig": 2,
    "parentID": "470b45f0-e05a-4698-863a-74ea7604838e",
    "sourceNames": [
      {
        "sourceFileName": "VO_EQ\\VO_keqing\\vo_EQZYJ002_20_keqing_06.wem",
        "rate": 1.0,
        "avatarName": "",
        "emotion": ""
      }
    ]
  }
}