{
  "0238b261-ac9f-4ba9-916b-a6dde994b337": {
    "guid": "0238b261-ac9f-4ba9-916b-a6dde994b337",
    "playRate": 1.0,
    "gameTrigger": "Dialog",
    "gameTriggerArgs": 40241002,
    "personalConfig": 2,
    "NJKDHJOHKCM": 1,
    "parentID": "9daf4935-e6a7-4f21-92a2-ddfe9a3ce7ca",
    "sourceNames": [
      {
        "sourceFileName": "VO_AQ\\VO_furina\\vo_FDAQ306_9_furina_02.wem",
        "rate": 1.0,
        "avatarName": "",
        "emotion": ""
      }
    ]
  },
  "04158661-63b1-4052-924f-d3236d38de8c": {
    "guid": "04158661-63b1-4052-924f-d3236d38de8c",
    "playRate": 1.0,
    "gameTrigger": "Dialog",
    "gameTriggerArgs": 40241021,
    "personalConfig": 2,
    "NJKDHJOHKCM": 1,
    "parentID": "9daf4935-e6a7-4f21-92a2-ddfe9a3ce7ca",
    "sourceNames": [
      {
        "sourceFileName": "VO_AQ\\VO_furina\\vo_FDAQ306_9_furina_14a.wem",
        "rate": 1.0,
        "avatarName": "",
        "emotion": "",
        "gender": 2
      },
      {
        "sourceFileName": "VO_AQ\\VO_furina\\vo_FDAQ306_9_furina_14b.wem",
        "rate": 1.0,
        "avatarName": "",
        "emotion": "",
        "gender": 1
      }
    ]
  },
  "0b93d864-8554-4117-a8f8-251f595fd51d": {
    "guid": "0b93d864-8554-4117-a8f8-251f595fd51d",
    "playRate": 1.0,
    "gameTrigger": "Dialog",
    "gameTriggerArgs": 40241007,
    "personalConfig": 2,
    "NJKDHJOHKCM": 1,
    "parentID": "9daf4935-e6a7-4f21-92a2-ddfe9a3ce7ca",
    "sourceNames": [
      {
        "sourceFileName": "VO_AQ\\VO_furina\\vo_FDAQ306_9_furina_07.wem",
        "rate": 1.0,
        "avatarName": "",
        "emotion": ""
      }
    ]
  },
  "0e1346e5-bc5f-47d9-907e-f0397007e9e4": {
    "guid": "0e1346e5-bc5f-47d9-907e-f0397007e9e4",
    "playRate": 1.0,
    "gameTrigger": "Dialog",
    "gameTriggerArgs": 40241032,
    "personalConfig": 2,
    "parentID": "9daf4935-e6a7-4f21-92a2-ddfe9a3ce7ca",
    "sourceNames": [
      {
        "sourceFileName": "VO_AQ\\VO_furina\\vo_FDAQ306_9_furina_25.wem",
        "rate": 1.0,
        "avatarName": "",
        "emotion": ""
      }
    ]
  },
  "1abb6c89-1abc-4fe4-9ffb-9d31f3fb089d": {
    "guid": "1abb6c89-1abc-4fe4-9ffb-9d31f3fb089d",
    "playRate": 1.0,
    "gameTrigger": "Dialog",
    "gameTriggerArgs": 40241031,
    "personalConfig": 2,
    "parentID": "9daf4935-e6a7-4f21-92a2-ddfe9a3ce7ca",
    "sourceNames": [
      {
        "sourceFileName": "VO_AQ\\VO_furina\\vo_FDAQ306_9_furina_24.wem",
        "rate": 1.0,
        "avatarName": "",
        "emotion": ""
      }
    ]
  },
  "25870ca9-bca5-45fc-b9a6-f4232efb7e7b": {
    "guid": "25870ca9-bca5-45fc-b9a6-f4232efb7e7b",
    "playRate": 1.0,
    "gameTrigger": "Dialog",
    "gameTriggerArgs": 40241010,
    "personalConfig": 2,
    "parentID": "9daf4935-e6a7-4f21-92a2-ddfe9a3ce7ca",
    "sourceNames": [
      {
        "sourceFileName": "VO_AQ\\VO_hero\\vo_FDAQ306_9_hero_01.wem",
        "rate": 1.0,
        "avatarName": "Switch_hero",
        "emotion": "",
        "gender": 2
      },
      {
        "sourceFileName": "VO_AQ\\VO_heroine\\vo_FDAQ306_9_heroine_01.wem",
        "rate": 1.0,
        "avatarName": "Switch_heroine",
        "emotion": "",
        "gender": 1
      }
    ]
  },
  "2b7b4d4e-a061-4123-b03d-a824037d27a3": {
    "guid": "2b7b4d4e-a061-4123-b03d-a824037d27a3",
    "playRate": 1.0,
    "gameTrigger": "Dialog",
    "gameTriggerArgs": 40241028,
    "personalConfig": 2,
    "NJKDHJOHKCM": 1,
    "parentID": "9daf4935-e6a7-4f21-92a2-ddfe9a3ce7ca",
    "sourceNames": [
      {
        "sourceFileName": "VO_AQ\\VO_furina\\vo_FDAQ306_9_furina_21.wem",
        "rate": 1.0,
        "avatarName": "",
        "emotion": ""
      }
    ]
  },
  "5bd6d36d-c0f3-4c5e-a5a6-5413917942a4": {
    "guid": "5bd6d36d-c0f3-4c5e-a5a6-5413917942a4",
    "playRate": 1.0,
    "gameTrigger": "Dialog",
    "gameTriggerArgs": 40241020,
    "personalConfig": 2,
    "parentID": "9daf4935-e6a7-4f21-92a2-ddfe9a3ce7ca",
    "sourceNames": [
      {
        "sourceFileName": "VO_AQ\\VO_furina\\vo_FDAQ306_9_furina_13.wem",
        "rate": 1.0,
        "avatarName": "",
        "emotion": ""
      }
    ]
  },
  "705a5602-0a3a-46f0-9bf6-90ad5edfd7df": {
    "guid": "705a5602-0a3a-46f0-9bf6-90ad5edfd7df",
    "playRate": 1.0,
    "gameTrigger": "Dialog",
    "gameTriggerArgs": 40241029,
    "personalConfig": 2,
    "NJKDHJOHKCM": 1,
    "parentID": "9daf4935-e6a7-4f21-92a2-ddfe9a3ce7ca",
    "sourceNames": [
      {
        "sourceFileName": "VO_AQ\\VO_furina\\vo_FDAQ306_9_furina_22.wem",
        "rate": 1.0,
        "avatarName": "",
        "emotion": ""
      }
    ]
  },
  "7954f966-0668-49b9-80cf-827ad6586734": {
    "guid": "7954f966-0668-49b9-80cf-827ad6586734",
    "playRate": 1.0,
    "gameTrigger": "Dialog",
    "gameTriggerArgs": 40241015,
    "personalConfig": 2,
    "parentID": "9daf4935-e6a7-4f21-92a2-ddfe9a3ce7ca",
    "sourceNames": [
      {
        "sourceFileName": "VO_AQ\\VO_furina\\vo_FDAQ306_9_furina_10.wem",
        "rate": 1.0,
        "avatarName": "",
        "emotion": ""
      }
    ]
  },
  "84de141e-1744-4e74-8fb9-46d91834ab79": {
    "guid": "84de141e-1744-4e74-8fb9-46d91834ab79",
    "playRate": 1.0,
    "gameTrigger": "Dialog",
    "gameTriggerArgs": 40241024,
    "personalConfig": 2,
    "NJKDHJOHKCM": 1,
    "parentID": "9daf4935-e6a7-4f21-92a2-ddfe9a3ce7ca",
    "sourceNames": [
      {
        "sourceFileName": "VO_AQ\\VO_furina\\vo_FDAQ306_9_furina_17.wem",
        "rate": 1.0,
        "avatarName": "",
        "emotion": ""
      }
    ]
  },
  "9648e20f-be37-4445-9641-9c05a92c63d5": {
    "guid": "9648e20f-be37-4445-9641-9c05a92c63d5",
    "playRate": 1.0,
    "gameTrigger": "Dialog",
    "gameTriggerArgs": 40241011,
    "personalConfig": 2,
    "parentID": "9daf4935-e6a7-4f21-92a2-ddfe9a3ce7ca",
    "sourceNames": [
      {
        "sourceFileName": "VO_AQ\\VO_hero\\vo_FDAQ306_9_hero_02.wem",
        "rate": 1.0,
        "avatarName": "Switch_hero",
        "emotion": "",
        "gender": 2
      },
      {
        "sourceFileName": "VO_AQ\\VO_heroine\\vo_FDAQ306_9_heroine_02.wem",
        "rate": 1.0,
        "avatarName": "Switch_heroine",
        "emotion": "",
        "gender": 1
      }
    ]
  },
  "9b75306f-3b06-464d-9d1d-716f9260b27c": {
    "guid": "9b75306f-3b06-464d-9d1d-716f9260b27c",
    "playRate": 1.0,
    "gameTrigger": "Dialog",
    "gameTriggerArgs": 40241034,
    "personalConfig": 2,
    "parentID": "9daf4935-e6a7-4f21-92a2-ddfe9a3ce7ca",
    "sourceNames": [
      {
        "sourceFileName": "VO_AQ\\VO_hero\\vo_FDAQ306_9_hero_05.wem",
        "rate": 1.0,
        "avatarName": "Switch_hero",
        "emotion": "",
        "gender": 2
      },
      {
        "sourceFileName": "VO_AQ\\VO_heroine\\vo_FDAQ306_9_heroine_05.wem",
        "rate": 1.0,
        "avatarName": "Switch_heroine",
        "emotion": "",
        "gender": 1
      }
    ]
  },
  "ad68c05e-501c-40b5-8b97-efb1e15df936": {
    "guid": "ad68c05e-501c-40b5-8b97-efb1e15df936",
    "playRate": 1.0,
    "gameTrigger": "Dialog",
    "gameTriggerArgs": 40241027,
    "personalConfig": 2,
    "NJKDHJOHKCM": 1,
    "parentID": "9daf4935-e6a7-4f21-92a2-ddfe9a3ce7ca",
    "sourceNames": [
      {
        "sourceFileName": "VO_AQ\\VO_furina\\vo_FDAQ306_9_furina_20.wem",
        "rate": 1.0,
        "avatarName": "",
        "emotion": ""
      }
    ]
  },
  "af4f42d6-8c57-467b-b528-9c52740649ba": {
    "guid": "af4f42d6-8c57-467b-b528-9c52740649ba",
    "playRate": 1.0,
    "gameTrigger": "Dialog",
    "gameTriggerArgs": 40241001,
    "personalConfig": 2,
    "parentID": "9daf4935-e6a7-4f21-92a2-ddfe9a3ce7ca",
    "sourceNames": [
      {
        "sourceFileName": "VO_AQ\\VO_furina\\vo_FDAQ306_9_furina_01.wem",
        "rate": 1.0,
        "avatarName": "",
        "emotion": ""
      }
    ]
  },
  "b451c4f6-03a2-4474-8966-55195cbe764c": {
    "guid": "b451c4f6-03a2-4474-8966-55195cbe764c",
    "playRate": 1.0,
    "gameTrigger": "Dialog",
    "gameTriggerArgs": 40241003,
    "personalConfig": 2,
    "NJKDHJOHKCM": 1,
    "parentID": "9daf4935-e6a7-4f21-92a2-ddfe9a3ce7ca",
    "sourceNames": [
      {
        "sourceFileName": "VO_AQ\\VO_furina\\vo_FDAQ306_9_furina_03.wem",
        "rate": 1.0,
        "avatarName": "",
        "emotion": ""
      }
    ]
  },
  "b719b43a-025b-4ea1-aab2-3d37fdc7cb62": {
    "guid": "b719b43a-025b-4ea1-aab2-3d37fdc7cb62",
    "playRate": 1.0,
    "gameTrigger": "Dialog",
    "gameTriggerArgs": 40241005,
    "personalConfig": 2,
    "NJKDHJOHKCM": 1,
    "parentID": "9daf4935-e6a7-4f21-92a2-ddfe9a3ce7ca",
    "sourceNames": [
      {
        "sourceFileName": "VO_AQ\\VO_furina\\vo_FDAQ306_9_furina_05.wem",
        "rate": 1.0,
        "avatarName": "",
        "emotion": ""
      }
    ]
  },
  "b8a06709-72a5-4b5a-9c02-6262fd1d1a19": {
    "guid": "b8a06709-72a5-4b5a-9c02-6262fd1d1a19",
    "playRate": 1.0,
    "gameTrigger": "Dialog",
    "gameTriggerArgs": 40241026,
    "personalConfig": 2,
    "NJKDHJOHKCM": 1,
    "parentID": "9daf4935-e6a7-4f21-92a2-ddfe9a3ce7ca",
    "sourceNames": [
      {
        "sourceFileName": "VO_AQ\\VO_furina\\vo_FDAQ306_9_furina_19.wem",
        "rate": 1.0,
        "avatarName": "",
        "emotion": ""
      }
    ]
  },
  "c33bfa25-7980-4210-aea2-690a11a40e66": {
    "guid": "c33bfa25-7980-4210-aea2-690a11a40e66",
    "playRate": 1.0,
    "gameTrigger": "Dialog",
    "gameTriggerArgs": 40241014,
    "personalConfig": 2,
    "parentID": "9daf4935-e6a7-4f21-92a2-ddfe9a3ce7ca",
    "sourceNames": [
      {
        "sourceFileName": "VO_AQ\\VO_furina\\vo_FDAQ306_9_furina_09.wem",
        "rate": 1.0,
        "avatarName": "",
        "emotion": ""
      }
    ]
  },
  "c5455f42-07aa-45f2-87ae-f7a1cd68fc74": {
    "guid": "c5455f42-07aa-45f2-87ae-f7a1cd68fc74",
    "playRate": 1.0,
    "gameTrigger": "Dialog",
    "gameTriggerArgs": 40241030,
    "personalConfig": 2,
    "parentID": "9daf4935-e6a7-4f21-92a2-ddfe9a3ce7ca",
    "sourceNames": [
      {
        "sourceFileName": "VO_AQ\\VO_furina\\vo_FDAQ306_9_furina_23.wem",
        "rate": 1.0,
        "avatarName": "",
        "emotion": ""
      }
    ]
  },
  "c907eed7-d920-4028-94a9-249efbb01380": {
    "guid": "c907eed7-d920-4028-94a9-249efbb01380",
    "playRate": 1.0,
    "gameTrigger": "Dialog",
    "gameTriggerArgs": 40241023,
    "personalConfig": 2,
    "NJKDHJOHKCM": 1,
    "parentID": "9daf4935-e6a7-4f21-92a2-ddfe9a3ce7ca",
    "sourceNames": [
      {
        "sourceFileName": "VO_AQ\\VO_furina\\vo_FDAQ306_9_furina_16.wem",
        "rate": 1.0,
        "avatarName": "",
        "emotion": ""
      }
    ]
  },
  "cd1cfa9a-a61f-4cb1-b017-71c1cc089435": {
    "guid": "cd1cfa9a-a61f-4cb1-b017-71c1cc089435",
    "playRate": 1.0,
    "gameTrigger": "Dialog",
    "gameTriggerArgs": 40241017,
    "personalConfig": 2,
    "parentID": "9daf4935-e6a7-4f21-92a2-ddfe9a3ce7ca",
    "sourceNames": [
      {
        "sourceFileName": "VO_AQ\\VO_hero\\vo_FDAQ306_9_hero_04.wem",
        "rate": 1.0,
        "avatarName": "Switch_hero",
        "emotion": "",
        "gender": 2
      },
      {
        "sourceFileName": "VO_AQ\\VO_heroine\\vo_FDAQ306_9_heroine_04.wem",
        "rate": 1.0,
        "avatarName": "Switch_heroine",
        "emotion": "",
        "gender": 1
      }
    ]
  },
  "d24eecf7-9acd-46d5-9e3c-9c285ed760c1": {
    "guid": "d24eecf7-9acd-46d5-9e3c-9c285ed760c1",
    "playRate": 1.0,
    "gameTrigger": "Dialog",
    "gameTriggerArgs": 40241006,
    "personalConfig": 2,
    "NJKDHJOHKCM": 1,
    "parentID": "9daf4935-e6a7-4f21-92a2-ddfe9a3ce7ca",
    "sourceNames": [
      {
        "sourceFileName": "VO_AQ\\VO_furina\\vo_FDAQ306_9_furina_06.wem",
        "rate": 1.0,
        "avatarName": "",
        "emotion": ""
      }
    ]
  },
  "d2585d3c-01ea-4366-adac-017f44c7fa76": {
    "guid": "d2585d3c-01ea-4366-adac-017f44c7fa76",
    "playRate": 1.0,
    "gameTrigger": "Dialog",
    "gameTriggerArgs": 40241004,
    "personalConfig": 2,
    "NJKDHJOHKCM": 1,
    "parentID": "9daf4935-e6a7-4f21-92a2-ddfe9a3ce7ca",
    "sourceNames": [
      {
        "sourceFileName": "VO_AQ\\VO_furina\\vo_FDAQ306_9_furina_04.wem",
        "rate": 1.0,
        "avatarName": "",
        "emotion": ""
      }
    ]
  },
  "d7b1de06-1064-4b0f-a9f9-003ba33632bc": {
    "guid": "d7b1de06-1064-4b0f-a9f9-003ba33632bc",
    "playRate": 1.0,
    "gameTrigger": "Dialog",
    "gameTriggerArgs": 40241016,
    "personalConfig": 2,
    "parentID": "9daf4935-e6a7-4f21-92a2-ddfe9a3ce7ca",
    "sourceNames": [
      {
        "sourceFileName": "VO_AQ\\VO_hero\\vo_FDAQ306_9_hero_03.wem",
        "rate": 1.0,
        "avatarName": "Switch_hero",
        "emotion": "",
        "gender": 2
      },
      {
        "sourceFileName": "VO_AQ\\VO_heroine\\vo_FDAQ306_9_heroine_03.wem",
        "rate": 1.0,
        "avatarName": "Switch_heroine",
        "emotion": "",
        "gender": 1
      }
    ]
  },
  "ddd5f0bf-70ce-4bb7-86b4-b0903c912418": {
    "guid": "ddd5f0bf-70ce-4bb7-86b4-b0903c912418",
    "playRate": 1.0,
    "gameTrigger": "Dialog",
    "gameTriggerArgs": 40241018,
    "personalConfig": 2,
    "parentID": "9daf4935-e6a7-4f21-92a2-ddfe9a3ce7ca",
    "sourceNames": [
      {
        "sourceFileName": "VO_AQ\\VO_furina\\vo_FDAQ306_9_furina_11.wem",
        "rate": 1.0,
        "avatarName": "",
        "emotion": ""
      }
    ]
  },
  "e82f19ef-99c2-45dd-8791-ffa853c7981a": {
    "guid": "e82f19ef-99c2-45dd-8791-ffa853c7981a",
    "playRate": 1.0,
    "gameTrigger": "Dialog",
    "gameTriggerArgs": 40241035,
    "personalConfig": 2,
    "parentID": "9daf4935-e6a7-4f21-92a2-ddfe9a3ce7ca",
    "sourceNames": [
      {
        "sourceFileName": "VO_AQ\\VO_hero\\vo_FDAQ306_9_hero_06.wem",
        "rate": 1.0,
        "avatarName": "Switch_hero",
        "emotion": "",
        "gender": 2
      },
      {
        "sourceFileName": "VO_AQ\\VO_heroine\\vo_FDAQ306_9_heroine_06.wem",
        "rate": 1.0,
        "avatarName": "Switch_heroine",
        "emotion": "",
        "gender": 1
      }
    ]
  },
  "ec8d0dff-806d-4d16-ac3e-4b91dc425972": {
    "guid": "ec8d0dff-806d-4d16-ac3e-4b91dc425972",
    "playRate": 1.0,
    "gameTrigger": "Dialog",
    "gameTriggerArgs": 40241008,
    "personalConfig": 2,
    "NJKDHJOHKCM": 1,
    "parentID": "9daf4935-e6a7-4f21-92a2-ddfe9a3ce7ca",
    "sourceNames": [
      {
        "sourceFileName": "VO_AQ\\VO_furina\\vo_FDAQ306_9_furina_08.wem",
        "rate": 1.0,
        "avatarName": "",
        "emotion": ""
      }
    ]
  },
  "ed6e72eb-696a-47f2-8057-f2a8a628a69c": {
    "guid": "ed6e72eb-696a-47f2-8057-f2a8a628a69c",
    "playRate": 1.0,
    "gameTrigger": "Dialog",
    "gameTriggerArgs": 40241025,
    "personalConfig": 2,
    "NJKDHJOHKCM": 1,
    "parentID": "9daf4935-e6a7-4f21-92a2-ddfe9a3ce7ca",
    "sourceNames": [
      {
        "sourceFileName": "VO_AQ\\VO_furina\\vo_FDAQ306_9_furina_18.wem",
        "rate": 1.0,
        "avatarName": "",
        "emotion": ""
      }
    ]
  },
  "f530b314-9553-4898-a330-17520529812e": {
    "guid": "f530b314-9553-4898-a330-17520529812e",
    "playRate": 1.0,
    "gameTrigger": "Dialog",
    "gameTriggerArgs": 40241022,
    "personalConfig": 2,
    "NJKDHJOHKCM": 1,
    "parentID": "9daf4935-e6a7-4f21-92a2-ddfe9a3ce7ca",
    "sourceNames": [
      {
        "sourceFileName": "VO_AQ\\VO_furina\\vo_FDAQ306_9_furina_15.wem",
        "rate": 1.0,
        "avatarName": "",
        "emotion": ""
      }
    ]
  },
  "faa19855-6c24-48f1-a815-cd7b692181f6": {
    "guid": "faa19855-6c24-48f1-a815-cd7b692181f6",
    "playRate": 1.0,
    "gameTrigger": "Dialog",
    "gameTriggerArgs": 40241033,
    "personalConfig": 2,
    "parentID": "9daf4935-e6a7-4f21-92a2-ddfe9a3ce7ca",
    "sourceNames": [
      {
        "sourceFileName": "VO_AQ\\VO_furina\\vo_FDAQ306_9_furina_26.wem",
        "rate": 1.0,
        "avatarName": "",
        "emotion": ""
      }
    ]
  },
  "faf9daa2-584b-4f31-a04f-8e0c4dfea4aa": {
    "guid": "faf9daa2-584b-4f31-a04f-8e0c4dfea4aa",
    "playRate": 1.0,
    "gameTrigger": "Dialog",
    "gameTriggerArgs": 40241019,
    "personalConfig": 2,
    "parentID": "9daf4935-e6a7-4f21-92a2-ddfe9a3ce7ca",
    "sourceNames": [
      {
        "sourceFileName": "VO_AQ\\VO_furina\\vo_FDAQ306_9_furina_12.wem",
        "rate": 1.0,
        "avatarName": "",
        "emotion": ""
      }
    ]
  }
}