{
  "064e6332-6591-407f-84f1-585676d46071": {
    "guid": "064e6332-6591-407f-84f1-585676d46071",
    "playRate": 1.0,
    "gameTrigger": "Dialog",
    "gameTriggerArgs": 693290302,
    "parentID": "81d901c5-e5f9-4bfd-a9ba-b1cc3bed8811",
    "sourceNames": [
      {
        "sourceFileName": "VO_Tower\\vo_hutao_saferoom_others_02.wem",
        "rate": 1.0,
        "avatarName": "",
        "emotion": ""
      }
    ]
  },
  "46c9a574-31f5-46da-98dc-a561dc498068": {
    "guid": "46c9a574-31f5-46da-98dc-a561dc498068",
    "playRate": 1.0,
    "gameTrigger": "Dialog",
    "gameTriggerArgs": 693290203,
    "parentID": "81d901c5-e5f9-4bfd-a9ba-b1cc3bed8811",
    "sourceNames": [
      {
        "sourceFileName": "VO_Tower\\vo_hutao_saferoom_challenge_03.wem",
        "rate": 1.0,
        "avatarName": "",
        "emotion": ""
      }
    ]
  },
  "516c1b45-5b45-4eec-b271-90343abf1a5d": {
    "guid": "516c1b45-5b45-4eec-b271-90343abf1a5d",
    "playRate": 1.0,
    "gameTrigger": "Dialog",
    "gameTriggerArgs": 693290101,
    "parentID": "81d901c5-e5f9-4bfd-a9ba-b1cc3bed8811",
    "sourceNames": [
      {
        "sourceFileName": "VO_Tower\\vo_hutao_saferoom_rest_01.wem",
        "rate": 1.0,
        "avatarName": "",
        "emotion": ""
      }
    ]
  },
  "8154c0b6-4336-4dc3-9fef-5a06854aacf8": {
    "guid": "8154c0b6-4336-4dc3-9fef-5a06854aacf8",
    "playRate": 1.0,
    "gameTrigger": "Dialog",
    "gameTriggerArgs": 693290103,
    "parentID": "81d901c5-e5f9-4bfd-a9ba-b1cc3bed8811",
    "sourceNames": [
      {
        "sourceFileName": "VO_Tower\\vo_hutao_saferoom_rest_03.wem",
        "rate": 1.0,
        "avatarName": "",
        "emotion": ""
      }
    ]
  },
  "a80151aa-701c-4061-b931-0db08f0c7b36": {
    "guid": "a80151aa-701c-4061-b931-0db08f0c7b36",
    "playRate": 1.0,
    "gameTrigger": "Dialog",
    "gameTriggerArgs": 693290303,
    "parentID": "81d901c5-e5f9-4bfd-a9ba-b1cc3bed8811",
    "sourceNames": [
      {
        "sourceFileName": "VO_Tower\\vo_hutao_saferoom_others_03.wem",
        "rate": 1.0,
        "avatarName": "",
        "emotion": ""
      }
    ]
  },
  "b03d9892-7219-422e-89e2-9e2c1f19ac05": {
    "guid": "b03d9892-7219-422e-89e2-9e2c1f19ac05",
    "playRate": 1.0,
    "gameTrigger": "Dialog",
    "gameTriggerArgs": 693290201,
    "parentID": "81d901c5-e5f9-4bfd-a9ba-b1cc3bed8811",
    "sourceNames": [
      {
        "sourceFileName": "VO_Tower\\vo_hutao_saferoom_challenge_01.wem",
        "rate": 1.0,
        "avatarName": "",
        "emotion": ""
      }
    ]
  },
  "dee77500-5439-4d2f-93a1-38702032667a": {
    "guid": "dee77500-5439-4d2f-93a1-38702032667a",
    "playRate": 1.0,
    "gameTrigger": "Dialog",
    "gameTriggerArgs": 693290301,
    "parentID": "81d901c5-e5f9-4bfd-a9ba-b1cc3bed8811",
    "sourceNames": [
      {
        "sourceFileName": "VO_Tower\\vo_hutao_saferoom_others_01.wem",
        "rate": 1.0,
        "avatarName": "",
        "emotion": ""
      }
    ]
  },
  "e5e76216-e429-45e3-8cdd-5e15705cf8eb": {
    "guid": "e5e76216-e429-45e3-8cdd-5e15705cf8eb",
    "playRate": 1.0,
    "gameTrigger": "Dialog",
    "gameTriggerArgs": 693290102,
    "parentID": "81d901c5-e5f9-4bfd-a9ba-b1cc3bed8811",
    "sourceNames": [
      {
        "sourceFileName": "VO_Tower\\vo_hutao_saferoom_rest_02.wem",
        "rate": 1.0,
        "avatarName": "",
        "emotion": ""
      }
    ]
  },
  "fd057803-6991-4f7b-a3be-caf67e9cc584": {
    "guid": "fd057803-6991-4f7b-a3be-caf67e9cc584",
    "playRate": 1.0,
    "gameTrigger": "Dialog",
    "gameTriggerArgs": 693290202,
    "parentID": "81d901c5-e5f9-4bfd-a9ba-b1cc3bed8811",
    "sourceNames": [
      {
        "sourceFileName": "VO_Tower\\vo_hutao_saferoom_challenge_02.wem",
        "rate": 1.0,
        "avatarName": "",
        "emotion": ""
      }
    ]
  }
}