{
  "00b4f9a4-1709-4fd5-9b0b-426047c76659": {
    "guid": "00b4f9a4-1709-4fd5-9b0b-426047c76659",
    "playRate": 1.0,
    "gameTrigger": "Dialog",
    "gameTriggerArgs": 130395101,
    "personalConfig": 2,
    "parentID": "74471f22-1cc8-45bf-b614-f0241ab5bb4a",
    "sourceNames": [
      {
        "sourceFileName": "VO_freetalk\\VO_sethos\\vo_dialog_CNLQ105_sethos_01.wem",
        "rate": 1.0,
        "avatarName": "",
        "emotion": ""
      }
    ]
  },
  "1cee81d0-7a24-4935-84fc-ab4355358ed3": {
    "guid": "1cee81d0-7a24-4935-84fc-ab4355358ed3",
    "playRate": 1.0,
    "gameTrigger": "Dialog",
    "gameTriggerArgs": 130375303,
    "personalConfig": 2,
    "parentID": "74471f22-1cc8-45bf-b614-f0241ab5bb4a",
    "sourceNames": [
      {
        "sourceFileName": "VO_freetalk\\VO_sethos\\vo_dialog_CNLQ103_sethos_02.wem",
        "rate": 1.0,
        "avatarName": "",
        "emotion": ""
      }
    ]
  },
  "2e282832-7272-4a62-81ff-cc3ee497f80c": {
    "guid": "2e282832-7272-4a62-81ff-cc3ee497f80c",
    "playRate": 1.0,
    "gameTrigger": "Dialog",
    "gameTriggerArgs": 130375319,
    "personalConfig": 2,
    "parentID": "74471f22-1cc8-45bf-b614-f0241ab5bb4a",
    "sourceNames": [
      {
        "sourceFileName": "VO_freetalk\\VO_sethos\\vo_dialog_CNLQ103_sethos_04b_2.wem",
        "rate": 1.0,
        "avatarName": "",
        "emotion": ""
      }
    ]
  },
  "3108370d-a947-40c4-9dc1-e9bac2a35e0e": {
    "guid": "3108370d-a947-40c4-9dc1-e9bac2a35e0e",
    "playRate": 1.0,
    "gameTrigger": "Dialog",
    "gameTriggerArgs": 130375329,
    "personalConfig": 2,
    "parentID": "74471f22-1cc8-45bf-b614-f0241ab5bb4a",
    "sourceNames": [
      {
        "sourceFileName": "VO_freetalk\\VO_sethos\\vo_dialog_CNLQ103_sethos_04d_1.wem",
        "rate": 1.0,
        "avatarName": "",
        "emotion": ""
      }
    ]
  },
  "34c31ca8-cb6c-4bbc-849d-0ec26725115d": {
    "guid": "34c31ca8-cb6c-4bbc-849d-0ec26725115d",
    "playRate": 1.0,
    "gameTrigger": "Dialog",
    "gameTriggerArgs": 130375315,
    "personalConfig": 2,
    "parentID": "74471f22-1cc8-45bf-b614-f0241ab5bb4a",
    "sourceNames": [
      {
        "sourceFileName": "VO_freetalk\\VO_sethos\\vo_dialog_CNLQ103_sethos_04a_6.wem",
        "rate": 1.0,
        "avatarName": "",
        "emotion": ""
      }
    ]
  },
  "3ae43f37-6183-4f07-932f-1b56e3c8374b": {
    "guid": "3ae43f37-6183-4f07-932f-1b56e3c8374b",
    "playRate": 1.0,
    "gameTrigger": "Dialog",
    "gameTriggerArgs": 130375305,
    "personalConfig": 2,
    "parentID": "74471f22-1cc8-45bf-b614-f0241ab5bb4a",
    "sourceNames": [
      {
        "sourceFileName": "VO_freetalk\\VO_sethos\\vo_dialog_CNLQ103_sethos_03.wem",
        "rate": 1.0,
        "avatarName": "",
        "emotion": ""
      }
    ]
  },
  "49c5f8ea-f96e-4ec2-99fc-1752cc1e849a": {
    "guid": "49c5f8ea-f96e-4ec2-99fc-1752cc1e849a",
    "playRate": 1.0,
    "gameTrigger": "Dialog",
    "gameTriggerArgs": 130375321,
    "personalConfig": 2,
    "parentID": "74471f22-1cc8-45bf-b614-f0241ab5bb4a",
    "sourceNames": [
      {
        "sourceFileName": "VO_freetalk\\VO_sethos\\vo_dialog_CNLQ103_sethos_04b_3.wem",
        "rate": 1.0,
        "avatarName": "",
        "emotion": ""
      }
    ]
  },
  "4afed260-cef1-452f-bb1a-9591dc81de67": {
    "guid": "4afed260-cef1-452f-bb1a-9591dc81de67",
    "playRate": 1.0,
    "gameTrigger": "Dialog",
    "gameTriggerArgs": 130385101,
    "personalConfig": 2,
    "parentID": "74471f22-1cc8-45bf-b614-f0241ab5bb4a",
    "sourceNames": [
      {
        "sourceFileName": "VO_freetalk\\VO_sethos\\vo_dialog_CNLQ104_sethos_01.wem",
        "rate": 1.0,
        "avatarName": "",
        "emotion": ""
      }
    ]
  },
  "5ae7732b-806d-4d90-959c-45e65fcd0a2a": {
    "guid": "5ae7732b-806d-4d90-959c-45e65fcd0a2a",
    "playRate": 1.0,
    "gameTrigger": "Dialog",
    "gameTriggerArgs": 130389901,
    "personalConfig": 2,
    "NJKDHJOHKCM": 1,
    "parentID": "74471f22-1cc8-45bf-b614-f0241ab5bb4a",
    "sourceNames": [
      {
        "sourceFileName": "VO_freetalk\\VO_sethos\\vo_dialog_CNLQ104_sethos_04.wem",
        "rate": 1.0,
        "avatarName": "",
        "emotion": ""
      }
    ]
  },
  "7e1873c9-bd6a-4e1c-be60-85dcea9d7890": {
    "guid": "7e1873c9-bd6a-4e1c-be60-85dcea9d7890",
    "playRate": 1.0,
    "gameTrigger": "Dialog",
    "gameTriggerArgs": 130395102,
    "personalConfig": 2,
    "parentID": "74471f22-1cc8-45bf-b614-f0241ab5bb4a",
    "sourceNames": [
      {
        "sourceFileName": "VO_freetalk\\VO_sethos\\vo_dialog_CNLQ105_sethos_02.wem",
        "rate": 1.0,
        "avatarName": "",
        "emotion": ""
      }
    ]
  },
  "85a0e398-4683-4565-a76c-38418b832773": {
    "guid": "85a0e398-4683-4565-a76c-38418b832773",
    "playRate": 1.0,
    "gameTrigger": "Dialog",
    "gameTriggerArgs": 130375310,
    "personalConfig": 2,
    "parentID": "74471f22-1cc8-45bf-b614-f0241ab5bb4a",
    "sourceNames": [
      {
        "sourceFileName": "VO_freetalk\\VO_sethos\\vo_dialog_CNLQ103_sethos_04a_3.wem",
        "rate": 1.0,
        "avatarName": "",
        "emotion": ""
      }
    ]
  },
  "9a0466c4-108e-41d1-8f57-b3323ba242cf": {
    "guid": "9a0466c4-108e-41d1-8f57-b3323ba242cf",
    "playRate": 1.0,
    "gameTrigger": "Dialog",
    "gameTriggerArgs": 130385103,
    "personalConfig": 2,
    "parentID": "74471f22-1cc8-45bf-b614-f0241ab5bb4a",
    "sourceNames": [
      {
        "sourceFileName": "VO_freetalk\\VO_sethos\\vo_dialog_CNLQ104_sethos_03.wem",
        "rate": 1.0,
        "avatarName": "",
        "emotion": ""
      }
    ]
  },
  "a42b2f5f-b4d6-4aaa-9987-c505a90ed505": {
    "guid": "a42b2f5f-b4d6-4aaa-9987-c505a90ed505",
    "playRate": 1.0,
    "gameTrigger": "Dialog",
    "gameTriggerArgs": 130375302,
    "personalConfig": 2,
    "parentID": "74471f22-1cc8-45bf-b614-f0241ab5bb4a",
    "sourceNames": [
      {
        "sourceFileName": "VO_freetalk\\VO_sethos\\vo_dialog_CNLQ103_sethos_01.wem",
        "rate": 1.0,
        "avatarName": "",
        "emotion": ""
      }
    ]
  },
  "a49521b0-78eb-48de-ad0e-7a8dfefe8a29": {
    "guid": "a49521b0-78eb-48de-ad0e-7a8dfefe8a29",
    "playRate": 1.0,
    "gameTrigger": "Dialog",
    "gameTriggerArgs": 130375307,
    "personalConfig": 2,
    "parentID": "74471f22-1cc8-45bf-b614-f0241ab5bb4a",
    "sourceNames": [
      {
        "sourceFileName": "VO_freetalk\\VO_sethos\\vo_dialog_CNLQ103_sethos_04a_1.wem",
        "rate": 1.0,
        "avatarName": "",
        "emotion": ""
      }
    ]
  },
  "a560a202-1854-4e51-9b9e-088ae9609d24": {
    "guid": "a560a202-1854-4e51-9b9e-088ae9609d24",
    "playRate": 1.0,
    "gameTrigger": "Dialog",
    "gameTriggerArgs": 130375325,
    "personalConfig": 2,
    "parentID": "74471f22-1cc8-45bf-b614-f0241ab5bb4a",
    "sourceNames": [
      {
        "sourceFileName": "VO_freetalk\\VO_sethos\\vo_dialog_CNLQ103_sethos_04c_2.wem",
        "rate": 1.0,
        "avatarName": "",
        "emotion": ""
      }
    ]
  },
  "aa8ebb49-ea99-4dce-bb1d-1aa09ba443ed": {
    "guid": "aa8ebb49-ea99-4dce-bb1d-1aa09ba443ed",
    "playRate": 1.0,
    "gameTrigger": "Dialog",
    "gameTriggerArgs": 130375327,
    "personalConfig": 2,
    "parentID": "74471f22-1cc8-45bf-b614-f0241ab5bb4a",
    "sourceNames": [
      {
        "sourceFileName": "VO_freetalk\\VO_sethos\\vo_dialog_CNLQ103_sethos_04c_3.wem",
        "rate": 1.0,
        "avatarName": "",
        "emotion": ""
      }
    ]
  },
  "b09986bf-bb48-4d66-83ed-81e3576c88f5": {
    "guid": "b09986bf-bb48-4d66-83ed-81e3576c88f5",
    "playRate": 1.0,
    "gameTrigger": "Dialog",
    "gameTriggerArgs": 130375308,
    "personalConfig": 2,
    "parentID": "74471f22-1cc8-45bf-b614-f0241ab5bb4a",
    "sourceNames": [
      {
        "sourceFileName": "VO_freetalk\\VO_sethos\\vo_dialog_CNLQ103_sethos_04a_2.wem",
        "rate": 1.0,
        "avatarName": "",
        "emotion": ""
      }
    ]
  },
  "b16bd5bd-301a-4b1d-bb6c-b346a4960387": {
    "guid": "b16bd5bd-301a-4b1d-bb6c-b346a4960387",
    "playRate": 1.0,
    "gameTrigger": "Dialog",
    "gameTriggerArgs": 130375323,
    "personalConfig": 2,
    "parentID": "74471f22-1cc8-45bf-b614-f0241ab5bb4a",
    "sourceNames": [
      {
        "sourceFileName": "VO_freetalk\\VO_sethos\\vo_dialog_CNLQ103_sethos_04c_1.wem",
        "rate": 1.0,
        "avatarName": "",
        "emotion": ""
      }
    ]
  },
  "ba30bf52-c5c5-4372-b4ae-f8ce976c6630": {
    "guid": "ba30bf52-c5c5-4372-b4ae-f8ce976c6630",
    "playRate": 1.0,
    "gameTrigger": "Dialog",
    "gameTriggerArgs": 130385102,
    "personalConfig": 2,
    "parentID": "74471f22-1cc8-45bf-b614-f0241ab5bb4a",
    "sourceNames": [
      {
        "sourceFileName": "VO_freetalk\\VO_sethos\\vo_dialog_CNLQ104_sethos_02.wem",
        "rate": 1.0,
        "avatarName": "",
        "emotion": ""
      }
    ]
  },
  "caed698f-7db2-42a6-8b5f-99183343181c": {
    "guid": "caed698f-7db2-42a6-8b5f-99183343181c",
    "playRate": 1.0,
    "gameTrigger": "Dialog",
    "gameTriggerArgs": 130375314,
    "personalConfig": 2,
    "parentID": "74471f22-1cc8-45bf-b614-f0241ab5bb4a",
    "sourceNames": [
      {
        "sourceFileName": "VO_freetalk\\VO_sethos\\vo_dialog_CNLQ103_sethos_04a_5.wem",
        "rate": 1.0,
        "avatarName": "",
        "emotion": ""
      }
    ]
  },
  "cdfea8ca-04ff-4626-83a7-12796a240b73": {
    "guid": "cdfea8ca-04ff-4626-83a7-12796a240b73",
    "playRate": 1.0,
    "gameTrigger": "Dialog",
    "gameTriggerArgs": 130375317,
    "personalConfig": 2,
    "parentID": "74471f22-1cc8-45bf-b614-f0241ab5bb4a",
    "sourceNames": [
      {
        "sourceFileName": "VO_freetalk\\VO_sethos\\vo_dialog_CNLQ103_sethos_04b_1.wem",
        "rate": 1.0,
        "avatarName": "",
        "emotion": ""
      }
    ]
  },
  "f867833a-0cc3-4984-8d87-1d1ade1ea9c9": {
    "guid": "f867833a-0cc3-4984-8d87-1d1ade1ea9c9",
    "playRate": 1.0,
    "gameTrigger": "Dialog",
    "gameTriggerArgs": 130375312,
    "personalConfig": 2,
    "parentID": "74471f22-1cc8-45bf-b614-f0241ab5bb4a",
    "sourceNames": [
      {
        "sourceFileName": "VO_freetalk\\VO_sethos\\vo_dialog_CNLQ103_sethos_04a_4.wem",
        "rate": 1.0,
        "avatarName": "",
        "emotion": ""
      }
    ]
  }
}