{
  "3a909546-3931-4abc-b748-feeafc33e4a4": {
    "guid": "3a909546-3931-4abc-b748-feeafc33e4a4",
    "playRate": 1.0,
    "gameTrigger": "Dialog",
    "gameTriggerArgs": 401049908,
    "personalConfig": 2,
    "NJKDHJOHKCM": 1,
    "parentID": "f2a60289-a4be-409f-8198-199573fce7f8",
    "sourceNames": [
      {
        "sourceFileName": "VO_EQ\\VO_tighnari\\vo_XYJEQ005_12_tighnari_01.wem",
        "rate": 1.0,
        "avatarName": "",
        "emotion": ""
      }
    ]
  },
  "51672b98-cde9-4ca5-a514-030a8884d5aa": {
    "guid": "51672b98-cde9-4ca5-a514-030a8884d5aa",
    "playRate": 1.0,
    "gameTrigger": "Dialog",
    "gameTriggerArgs": 401049905,
    "personalConfig": 2,
    "NJKDHJOHKCM": 1,
    "parentID": "f2a60289-a4be-409f-8198-199573fce7f8",
    "sourceNames": [
      {
        "sourceFileName": "VO_EQ\\VO_candace\\vo_XYJEQ005_12_candace_01.wem",
        "rate": 1.0,
        "avatarName": "",
        "emotion": ""
      }
    ]
  },
  "6351fe8a-8e18-4282-8f3b-836f7b002de7": {
    "guid": "6351fe8a-8e18-4282-8f3b-836f7b002de7",
    "playRate": 1.0,
    "gameTrigger": "Dialog",
    "gameTriggerArgs": 401049911,
    "personalConfig": 2,
    "NJKDHJOHKCM": 1,
    "parentID": "f2a60289-a4be-409f-8198-199573fce7f8",
    "sourceNames": [
      {
        "sourceFileName": "VO_EQ\\VO_cyno\\vo_XYJEQ005_12_cyno_01.wem",
        "rate": 1.0,
        "avatarName": "",
        "emotion": ""
      }
    ]
  },
  "75e78835-3ecd-43a8-ada5-6010c231e936": {
    "guid": "75e78835-3ecd-43a8-ada5-6010c231e936",
    "playRate": 1.0,
    "gameTrigger": "Dialog",
    "gameTriggerArgs": 401049906,
    "personalConfig": 2,
    "NJKDHJOHKCM": 1,
    "parentID": "f2a60289-a4be-409f-8198-199573fce7f8",
    "sourceNames": [
      {
        "sourceFileName": "VO_EQ\\VO_nilou\\vo_XYJEQ005_12_nilou_01.wem",
        "rate": 1.0,
        "avatarName": "",
        "emotion": ""
      }
    ]
  },
  "7f2fb30d-a364-463e-9ed9-9ec9f5abe0cf": {
    "guid": "7f2fb30d-a364-463e-9ed9-9ec9f5abe0cf",
    "playRate": 1.0,
    "gameTrigger": "Dialog",
    "gameTriggerArgs": 401049909,
    "personalConfig": 2,
    "NJKDHJOHKCM": 1,
    "parentID": "f2a60289-a4be-409f-8198-199573fce7f8",
    "sourceNames": [
      {
        "sourceFileName": "VO_EQ\\VO_kaveh\\vo_XYJEQ005_12_kaveh_01.wem",
        "rate": 1.0,
        "avatarName": "",
        "emotion": ""
      }
    ]
  },
  "886d319a-4515-4338-80ba-8fbc6d0fac22": {
    "guid": "886d319a-4515-4338-80ba-8fbc6d0fac22",
    "playRate": 1.0,
    "gameTrigger": "Dialog",
    "gameTriggerArgs": 401049912,
    "personalConfig": 2,
    "NJKDHJOHKCM": 1,
    "parentID": "f2a60289-a4be-409f-8198-199573fce7f8",
    "sourceNames": [
      {
        "sourceFileName": "VO_EQ\\VO_layla\\vo_XYJEQ005_12_layla_01.wem",
        "rate": 1.0,
        "avatarName": "",
        "emotion": ""
      }
    ]
  },
  "949b1c63-2e19-440c-be76-d62451e48476": {
    "guid": "949b1c63-2e19-440c-be76-d62451e48476",
    "playRate": 1.0,
    "gameTrigger": "Dialog",
    "gameTriggerArgs": 401049910,
    "personalConfig": 2,
    "NJKDHJOHKCM": 1,
    "parentID": "f2a60289-a4be-409f-8198-199573fce7f8",
    "sourceNames": [
      {
        "sourceFileName": "VO_EQ\\VO_collei\\vo_XYJEQ005_12_collei_01.wem",
        "rate": 1.0,
        "avatarName": "",
        "emotion": ""
      }
    ]
  },
  "b6531ac9-dd7e-4bed-9610-69c3cc98f279": {
    "guid": "b6531ac9-dd7e-4bed-9610-69c3cc98f279",
    "playRate": 1.0,
    "gameTrigger": "Dialog",
    "gameTriggerArgs": 401049907,
    "personalConfig": 2,
    "NJKDHJOHKCM": 1,
    "parentID": "f2a60289-a4be-409f-8198-199573fce7f8",
    "sourceNames": [
      {
        "sourceFileName": "VO_EQ\\VO_faruzan\\vo_XYJEQ005_12_faruzan_01.wem",
        "rate": 1.0,
        "avatarName": "",
        "emotion": ""
      }
    ]
  },
  "f34d69a0-3261-4410-bd73-d8d85531eb90": {
    "guid": "f34d69a0-3261-4410-bd73-d8d85531eb90",
    "playRate": 1.0,
    "gameTrigger": "Dialog",
    "gameTriggerArgs": 401049904,
    "personalConfig": 2,
    "NJKDHJOHKCM": 1,
    "parentID": "f2a60289-a4be-409f-8198-199573fce7f8",
    "sourceNames": [
      {
        "sourceFileName": "VO_EQ\\VO_dehya\\vo_XYJEQ005_12_dehya_01.wem",
        "rate": 1.0,
        "avatarName": "",
        "emotion": ""
      }
    ]
  }
}