{
  "105f30f9-b14d-484e-9b20-eac3f4b8de80": {
    "guid": "105f30f9-b14d-484e-9b20-eac3f4b8de80",
    "playRate": 1.0,
    "gameTrigger": "Dialog",
    "gameTriggerArgs": 130260910,
    "personalConfig": 2,
    "parentID": "e9ca8006-e32e-4981-a800-5d2ffc087db6",
    "sourceNames": [
      {
        "sourceFileName": "VO_LQ\\VO_npc\\vo_DHYLQ003_14_scaredMercenary_01.wem",
        "rate": 1.0,
        "avatarName": "",
        "emotion": ""
      }
    ]
  },
  "1d293c90-b9f7-4bee-a4be-e4e41a29e3d8": {
    "guid": "1d293c90-b9f7-4bee-a4be-e4e41a29e3d8",
    "playRate": 1.0,
    "gameTrigger": "Dialog",
    "gameTriggerArgs": 130260919,
    "personalConfig": 2,
    "parentID": "e9ca8006-e32e-4981-a800-5d2ffc087db6",
    "sourceNames": [
      {
        "sourceFileName": "VO_LQ\\VO_dehya\\vo_DHYLQ003_14_dehya_06.wem",
        "rate": 1.0,
        "avatarName": "",
        "emotion": ""
      }
    ]
  },
  "1e71d8dc-9fc1-4d1c-b7ab-72720348bfde": {
    "guid": "1e71d8dc-9fc1-4d1c-b7ab-72720348bfde",
    "playRate": 1.0,
    "gameTrigger": "Dialog",
    "gameTriggerArgs": 130260908,
    "personalConfig": 2,
    "parentID": "e9ca8006-e32e-4981-a800-5d2ffc087db6",
    "sourceNames": [
      {
        "sourceFileName": "VO_LQ\\VO_npc\\vo_DHYLQ003_14_bashar_01.wem",
        "rate": 1.0,
        "avatarName": "",
        "emotion": ""
      }
    ]
  },
  "232b6059-ee4d-4191-92a7-1cdb2d3f0642": {
    "guid": "232b6059-ee4d-4191-92a7-1cdb2d3f0642",
    "playRate": 1.0,
    "gameTrigger": "Dialog",
    "gameTriggerArgs": 130260922,
    "personalConfig": 2,
    "parentID": "e9ca8006-e32e-4981-a800-5d2ffc087db6",
    "sourceNames": [
      {
        "sourceFileName": "VO_LQ\\VO_dehya\\vo_DHYLQ003_14_dehya_07.wem",
        "rate": 1.0,
        "avatarName": "",
        "emotion": ""
      }
    ]
  },
  "3003d85d-cb62-43f4-99fb-059c7b366178": {
    "guid": "3003d85d-cb62-43f4-99fb-059c7b366178",
    "playRate": 1.0,
    "gameTrigger": "Dialog",
    "gameTriggerArgs": 130269908,
    "personalConfig": 2,
    "isPlayOnTeam": true,
    "parentID": "e9ca8006-e32e-4981-a800-5d2ffc087db6",
    "sourceNames": [
      {
        "sourceFileName": "VO_LQ\\VO_npc\\vo_DHYLQ003_14_hamzah_04.wem",
        "rate": 1.0,
        "avatarName": "",
        "emotion": ""
      }
    ]
  },
  "35e6d563-eb8a-4358-8f03-76909ed9a122": {
    "guid": "35e6d563-eb8a-4358-8f03-76909ed9a122",
    "playRate": 1.0,
    "gameTrigger": "Dialog",
    "gameTriggerArgs": 130260914,
    "personalConfig": 2,
    "parentID": "e9ca8006-e32e-4981-a800-5d2ffc087db6",
    "sourceNames": [
      {
        "sourceFileName": "VO_LQ\\VO_npc\\vo_DHYLQ003_14_michaal_05.wem",
        "rate": 1.0,
        "avatarName": "",
        "emotion": ""
      }
    ]
  },
  "385b4f1f-a756-4738-927f-59f01ddae88d": {
    "guid": "385b4f1f-a756-4738-927f-59f01ddae88d",
    "playRate": 1.0,
    "gameTrigger": "Dialog",
    "gameTriggerArgs": 130269906,
    "personalConfig": 2,
    "isPlayOnTeam": true,
    "parentID": "e9ca8006-e32e-4981-a800-5d2ffc087db6",
    "sourceNames": [
      {
        "sourceFileName": "VO_LQ\\VO_npc\\vo_DHYLQ003_14_hamzah_02.wem",
        "rate": 1.0,
        "avatarName": "",
        "emotion": ""
      }
    ]
  },
  "39605356-12a3-426b-8ca4-ec89a4667748": {
    "guid": "39605356-12a3-426b-8ca4-ec89a4667748",
    "playRate": 1.0,
    "gameTrigger": "Dialog",
    "gameTriggerArgs": 130260903,
    "personalConfig": 2,
    "parentID": "e9ca8006-e32e-4981-a800-5d2ffc087db6",
    "sourceNames": [
      {
        "sourceFileName": "VO_LQ\\VO_paimon\\vo_DHYLQ003_14_paimon_02.wem",
        "rate": 1.0,
        "avatarName": "",
        "emotion": ""
      }
    ]
  },
  "3ad9f4a5-6d20-4fb5-b288-f6fd6e3972d5": {
    "guid": "3ad9f4a5-6d20-4fb5-b288-f6fd6e3972d5",
    "playRate": 1.0,
    "gameTrigger": "Dialog",
    "gameTriggerArgs": 130260901,
    "personalConfig": 2,
    "parentID": "e9ca8006-e32e-4981-a800-5d2ffc087db6",
    "sourceNames": [
      {
        "sourceFileName": "VO_LQ\\VO_dehya\\vo_DHYLQ003_14_dehya_02.wem",
        "rate": 1.0,
        "avatarName": "",
        "emotion": ""
      }
    ]
  },
  "436c40b2-ccbd-41f5-a57c-9c92604c766a": {
    "guid": "436c40b2-ccbd-41f5-a57c-9c92604c766a",
    "playRate": 1.0,
    "gameTrigger": "Dialog",
    "gameTriggerArgs": 130260921,
    "personalConfig": 2,
    "parentID": "e9ca8006-e32e-4981-a800-5d2ffc087db6",
    "sourceNames": [
      {
        "sourceFileName": "VO_LQ\\VO_npc\\vo_DHYLQ003_14_tikriti_01.wem",
        "rate": 1.0,
        "avatarName": "",
        "emotion": ""
      }
    ]
  },
  "467d8c61-5f55-4aa4-85c0-1787bfef8cac": {
    "guid": "467d8c61-5f55-4aa4-85c0-1787bfef8cac",
    "playRate": 1.0,
    "gameTrigger": "Dialog",
    "gameTriggerArgs": 130269905,
    "personalConfig": 2,
    "isPlayOnTeam": true,
    "parentID": "e9ca8006-e32e-4981-a800-5d2ffc087db6",
    "sourceNames": [
      {
        "sourceFileName": "VO_LQ\\VO_npc\\vo_DHYLQ003_14_hamzah_01a.wem",
        "rate": 1.0,
        "avatarName": "",
        "emotion": "",
        "gender": 2
      },
      {
        "sourceFileName": "VO_LQ\\VO_npc\\vo_DHYLQ003_14_hamzah_01b.wem",
        "rate": 1.0,
        "avatarName": "",
        "emotion": "",
        "gender": 1
      }
    ]
  },
  "4eb87d84-4080-4031-a8d6-1d63dc98f8e3": {
    "guid": "4eb87d84-4080-4031-a8d6-1d63dc98f8e3",
    "playRate": 1.0,
    "gameTrigger": "Dialog",
    "gameTriggerArgs": 130260916,
    "personalConfig": 2,
    "parentID": "e9ca8006-e32e-4981-a800-5d2ffc087db6",
    "sourceNames": [
      {
        "sourceFileName": "VO_LQ\\VO_npc\\vo_DHYLQ003_14_idrisi_03.wem",
        "rate": 1.0,
        "avatarName": "",
        "emotion": ""
      }
    ]
  },
  "4fd02c48-7d10-41d3-bab5-f6dd31e50db3": {
    "guid": "4fd02c48-7d10-41d3-bab5-f6dd31e50db3",
    "playRate": 1.0,
    "gameTrigger": "Dialog",
    "gameTriggerArgs": 130260920,
    "personalConfig": 2,
    "parentID": "e9ca8006-e32e-4981-a800-5d2ffc087db6",
    "sourceNames": [
      {
        "sourceFileName": "VO_LQ\\VO_npc\\vo_DHYLQ003_14_hesitatingMercenary_01.wem",
        "rate": 1.0,
        "avatarName": "",
        "emotion": ""
      }
    ]
  },
  "5e725ff6-fdfd-4ffb-a12b-14af2197e993": {
    "guid": "5e725ff6-fdfd-4ffb-a12b-14af2197e993",
    "playRate": 1.0,
    "gameTrigger": "Dialog",
    "gameTriggerArgs": 130269907,
    "personalConfig": 2,
    "isPlayOnTeam": true,
    "parentID": "e9ca8006-e32e-4981-a800-5d2ffc087db6",
    "sourceNames": [
      {
        "sourceFileName": "VO_LQ\\VO_npc\\vo_DHYLQ003_14_hamzah_03.wem",
        "rate": 1.0,
        "avatarName": "",
        "emotion": ""
      }
    ]
  },
  "60c5d7f3-8ce2-43bd-ad13-1c4636aa6356": {
    "guid": "60c5d7f3-8ce2-43bd-ad13-1c4636aa6356",
    "playRate": 1.0,
    "gameTrigger": "Dialog",
    "gameTriggerArgs": 130260917,
    "personalConfig": 2,
    "parentID": "e9ca8006-e32e-4981-a800-5d2ffc087db6",
    "sourceNames": [
      {
        "sourceFileName": "VO_LQ\\VO_npc\\vo_DHYLQ003_14_bashar_02.wem",
        "rate": 1.0,
        "avatarName": "",
        "emotion": ""
      }
    ]
  },
  "677f9142-a415-4e29-af98-9abf73db6332": {
    "guid": "677f9142-a415-4e29-af98-9abf73db6332",
    "playRate": 1.0,
    "gameTrigger": "Dialog",
    "gameTriggerArgs": 130260902,
    "personalConfig": 2,
    "parentID": "e9ca8006-e32e-4981-a800-5d2ffc087db6",
    "sourceNames": [
      {
        "sourceFileName": "VO_LQ\\VO_paimon\\vo_DHYLQ003_14_paimon_01.wem",
        "rate": 1.0,
        "avatarName": "",
        "emotion": ""
      }
    ]
  },
  "717e3699-0737-45ba-8652-df57492402bb": {
    "guid": "717e3699-0737-45ba-8652-df57492402bb",
    "playRate": 1.0,
    "gameTrigger": "Dialog",
    "gameTriggerArgs": 130260911,
    "personalConfig": 2,
    "parentID": "e9ca8006-e32e-4981-a800-5d2ffc087db6",
    "sourceNames": [
      {
        "sourceFileName": "VO_LQ\\VO_npc\\vo_DHYLQ003_14_scaredMercenary_02.wem",
        "rate": 1.0,
        "avatarName": "",
        "emotion": ""
      }
    ]
  },
  "739e721c-f297-41eb-8070-931e85cd6568": {
    "guid": "739e721c-f297-41eb-8070-931e85cd6568",
    "playRate": 1.0,
    "gameTrigger": "Dialog",
    "gameTriggerArgs": 1018131090,
    "personalConfig": 2,
    "NJKDHJOHKCM": 1,
    "parentID": "e9ca8006-e32e-4981-a800-5d2ffc087db6",
    "sourceNames": [
      {
        "sourceFileName": "VO_LQ\\VO_npc\\vo_DHYLQ003_14_shakhbout_01.wem",
        "rate": 1.0,
        "avatarName": "",
        "emotion": ""
      }
    ]
  },
  "7a98708c-efa8-4663-8c9c-06cc4c92e2a3": {
    "guid": "7a98708c-efa8-4663-8c9c-06cc4c92e2a3",
    "playRate": 1.0,
    "gameTrigger": "Dialog",
    "gameTriggerArgs": 130260918,
    "personalConfig": 2,
    "parentID": "e9ca8006-e32e-4981-a800-5d2ffc087db6",
    "sourceNames": [
      {
        "sourceFileName": "VO_LQ\\VO_dehya\\vo_DHYLQ003_14_dehya_05.wem",
        "rate": 1.0,
        "avatarName": "",
        "emotion": ""
      }
    ]
  },
  "952725ce-9aa4-46cb-977a-cf918c8a6646": {
    "guid": "952725ce-9aa4-46cb-977a-cf918c8a6646",
    "playRate": 1.0,
    "gameTrigger": "Dialog",
    "gameTriggerArgs": 130269910,
    "personalConfig": 2,
    "isPlayOnTeam": true,
    "parentID": "e9ca8006-e32e-4981-a800-5d2ffc087db6",
    "sourceNames": [
      {
        "sourceFileName": "VO_LQ\\VO_npc\\vo_DHYLQ003_14_hamzah_05.wem",
        "rate": 1.0,
        "avatarName": "",
        "emotion": ""
      }
    ]
  },
  "9ab81b61-fb5d-4db5-85a3-b0ebcefe02a2": {
    "guid": "9ab81b61-fb5d-4db5-85a3-b0ebcefe02a2",
    "playRate": 1.0,
    "gameTrigger": "Dialog",
    "gameTriggerArgs": 1018130670,
    "personalConfig": 2,
    "NJKDHJOHKCM": 1,
    "parentID": "e9ca8006-e32e-4981-a800-5d2ffc087db6",
    "sourceNames": [
      {
        "sourceFileName": "VO_LQ\\VO_npc\\vo_DHYLQ003_14_michaal_01.wem",
        "rate": 1.0,
        "avatarName": "",
        "emotion": ""
      }
    ]
  },
  "9b719d48-e505-44ad-bf58-b111e7695dfc": {
    "guid": "9b719d48-e505-44ad-bf58-b111e7695dfc",
    "playRate": 1.0,
    "gameTrigger": "Dialog",
    "gameTriggerArgs": 130260907,
    "personalConfig": 2,
    "parentID": "e9ca8006-e32e-4981-a800-5d2ffc087db6",
    "sourceNames": [
      {
        "sourceFileName": "VO_LQ\\VO_npc\\vo_DHYLQ003_14_idrisi_01.wem",
        "rate": 1.0,
        "avatarName": "",
        "emotion": ""
      }
    ]
  },
  "9e65af95-0717-4874-b72f-61f94e507921": {
    "guid": "9e65af95-0717-4874-b72f-61f94e507921",
    "playRate": 1.0,
    "gameTrigger": "Dialog",
    "gameTriggerArgs": 130260912,
    "personalConfig": 2,
    "parentID": "e9ca8006-e32e-4981-a800-5d2ffc087db6",
    "sourceNames": [
      {
        "sourceFileName": "VO_LQ\\VO_npc\\vo_DHYLQ003_14_michaal_04.wem",
        "rate": 1.0,
        "avatarName": "",
        "emotion": ""
      }
    ]
  },
  "9fbf9057-9915-4cab-b26e-dd0ece1fa987": {
    "guid": "9fbf9057-9915-4cab-b26e-dd0ece1fa987",
    "playRate": 1.0,
    "gameTrigger": "Dialog",
    "gameTriggerArgs": 130269909,
    "personalConfig": 2,
    "isPlayOnTeam": true,
    "parentID": "e9ca8006-e32e-4981-a800-5d2ffc087db6",
    "sourceNames": [
      {
        "sourceFileName": "VO_LQ\\VO_dehya\\vo_DHYLQ003_14_dehya_01.wem",
        "rate": 1.0,
        "avatarName": "",
        "emotion": ""
      }
    ]
  },
  "cb22e3e2-814e-4a13-956a-511b7a6190bb": {
    "guid": "cb22e3e2-814e-4a13-956a-511b7a6190bb",
    "playRate": 1.0,
    "gameTrigger": "Dialog",
    "gameTriggerArgs": 130260913,
    "personalConfig": 2,
    "parentID": "e9ca8006-e32e-4981-a800-5d2ffc087db6",
    "sourceNames": [
      {
        "sourceFileName": "VO_LQ\\VO_npc\\vo_DHYLQ003_14_idrisi_02.wem",
        "rate": 1.0,
        "avatarName": "",
        "emotion": ""
      }
    ]
  },
  "ce4ef3b0-517a-42dd-9d23-e073cba45c40": {
    "guid": "ce4ef3b0-517a-42dd-9d23-e073cba45c40",
    "playRate": 1.0,
    "gameTrigger": "Dialog",
    "gameTriggerArgs": 130260909,
    "personalConfig": 2,
    "parentID": "e9ca8006-e32e-4981-a800-5d2ffc087db6",
    "sourceNames": [
      {
        "sourceFileName": "VO_LQ\\VO_npc\\vo_DHYLQ003_14_michaal_03.wem",
        "rate": 1.0,
        "avatarName": "",
        "emotion": ""
      }
    ]
  },
  "d09a67aa-839c-4549-9da1-3068c3ea0aca": {
    "guid": "d09a67aa-839c-4549-9da1-3068c3ea0aca",
    "playRate": 1.0,
    "gameTrigger": "Dialog",
    "gameTriggerArgs": 130260915,
    "personalConfig": 2,
    "parentID": "e9ca8006-e32e-4981-a800-5d2ffc087db6",
    "sourceNames": [
      {
        "sourceFileName": "VO_LQ\\VO_npc\\vo_DHYLQ003_14_michaal_06.wem",
        "rate": 1.0,
        "avatarName": "",
        "emotion": ""
      }
    ]
  },
  "da8d1c4c-a724-4334-8fec-a5291f4be968": {
    "guid": "da8d1c4c-a724-4334-8fec-a5291f4be968",
    "playRate": 1.0,
    "gameTrigger": "Dialog",
    "gameTriggerArgs": 130260904,
    "personalConfig": 2,
    "parentID": "e9ca8006-e32e-4981-a800-5d2ffc087db6",
    "sourceNames": [
      {
        "sourceFileName": "VO_LQ\\VO_npc\\vo_DHYLQ003_14_michaal_02.wem",
        "rate": 1.0,
        "avatarName": "",
        "emotion": ""
      }
    ]
  },
  "e8e12584-2c63-42f7-a038-b03b5c92778f": {
    "guid": "e8e12584-2c63-42f7-a038-b03b5c92778f",
    "playRate": 1.0,
    "gameTrigger": "Dialog",
    "gameTriggerArgs": 130260905,
    "personalConfig": 2,
    "parentID": "e9ca8006-e32e-4981-a800-5d2ffc087db6",
    "sourceNames": [
      {
        "sourceFileName": "VO_LQ\\VO_dehya\\vo_DHYLQ003_14_dehya_03.wem",
        "rate": 1.0,
        "avatarName": "",
        "emotion": ""
      }
    ]
  },
  "f815b26a-03e5-468c-bc7c-ce7ad1e0ae73": {
    "guid": "f815b26a-03e5-468c-bc7c-ce7ad1e0ae73",
    "playRate": 1.0,
    "gameTrigger": "Dialog",
    "gameTriggerArgs": 130260906,
    "personalConfig": 2,
    "parentID": "e9ca8006-e32e-4981-a800-5d2ffc087db6",
    "sourceNames": [
      {
        "sourceFileName": "VO_LQ\\VO_dehya\\vo_DHYLQ003_14_dehya_04.wem",
        "rate": 1.0,
        "avatarName": "",
        "emotion": ""
      }
    ]
  }
}