{
  "00727a76-da2f-4987-bc91-648612e5d137": {
    "guid": "00727a76-da2f-4987-bc91-648612e5d137",
    "playRate": 1.0,
    "gameTrigger": "Dialog",
    "gameTriggerArgs": 401332301,
    "personalConfig": 2,
    "parentID": "9124aa85-41f4-4298-94fd-ec41fc988d96",
    "sourceNames": [
      {
        "sourceFileName": "VO_freetalk\\VO_furina\\vo_dialog_DYJEQ002_furina_01.wem",
        "rate": 1.0,
        "avatarName": "",
        "emotion": ""
      }
    ]
  },
  "01918596-bd8d-4cb7-8459-c52b45d8c050": {
    "guid": "01918596-bd8d-4cb7-8459-c52b45d8c050",
    "playRate": 1.0,
    "gameTrigger": "Dialog",
    "gameTriggerArgs": 401320539,
    "personalConfig": 2,
    "parentID": "9124aa85-41f4-4298-94fd-ec41fc988d96",
    "sourceNames": [
      {
        "sourceFileName": "VO_freetalk\\VO_furina\\vo_dialog_DYJEQ001_furina_02b_1.wem",
        "rate": 1.0,
        "avatarName": "",
        "emotion": ""
      }
    ]
  },
  "0a7c5954-0864-424d-b1c7-ed2f57a66ab8": {
    "guid": "0a7c5954-0864-424d-b1c7-ed2f57a66ab8",
    "playRate": 1.0,
    "gameTrigger": "Dialog",
    "gameTriggerArgs": 401361102,
    "personalConfig": 2,
    "parentID": "9124aa85-41f4-4298-94fd-ec41fc988d96",
    "sourceNames": [
      {
        "sourceFileName": "VO_freetalk\\VO_furina\\vo_dialog_DYJEQ005_furina_01.wem",
        "rate": 1.0,
        "avatarName": "",
        "emotion": ""
      }
    ]
  },
  "156c3235-35b3-4b04-85f4-53e6d2cc3699": {
    "guid": "156c3235-35b3-4b04-85f4-53e6d2cc3699",
    "playRate": 1.0,
    "gameTrigger": "Dialog",
    "gameTriggerArgs": 401421005,
    "personalConfig": 2,
    "parentID": "9124aa85-41f4-4298-94fd-ec41fc988d96",
    "sourceNames": [
      {
        "sourceFileName": "VO_freetalk\\VO_furina\\vo_dialog_EQHDJ304_furina_01.wem",
        "rate": 1.0,
        "avatarName": "",
        "emotion": ""
      }
    ]
  },
  "1bb1cf97-e307-40c1-863b-9c872afb61ba": {
    "guid": "1bb1cf97-e307-40c1-863b-9c872afb61ba",
    "playRate": 1.0,
    "gameTrigger": "Dialog",
    "gameTriggerArgs": 40102701,
    "personalConfig": 2,
    "parentID": "9124aa85-41f4-4298-94fd-ec41fc988d96",
    "sourceNames": [
      {
        "sourceFileName": "VO_freetalk\\VO_furina\\vo_dialog_FDAQ108_furina_01.wem",
        "rate": 1.0,
        "avatarName": "",
        "emotion": ""
      }
    ]
  },
  "2b3338be-6d05-4d03-88d5-ed6a22fa19f7": {
    "guid": "2b3338be-6d05-4d03-88d5-ed6a22fa19f7",
    "playRate": 1.0,
    "gameTrigger": "Dialog",
    "gameTriggerArgs": 140130402,
    "personalConfig": 2,
    "parentID": "9124aa85-41f4-4298-94fd-ec41fc988d96",
    "sourceNames": [
      {
        "sourceFileName": "VO_freetalk\\VO_furina\\vo_dialog_FNNLQ003_furina_02.wem",
        "rate": 1.0,
        "avatarName": "",
        "emotion": ""
      }
    ]
  },
  "5f12c243-60d0-4c95-93bc-d5641d7e9096": {
    "guid": "5f12c243-60d0-4c95-93bc-d5641d7e9096",
    "playRate": 1.0,
    "gameTrigger": "Dialog",
    "gameTriggerArgs": 401321201,
    "personalConfig": 2,
    "parentID": "9124aa85-41f4-4298-94fd-ec41fc988d96",
    "sourceNames": [
      {
        "sourceFileName": "VO_freetalk\\VO_furina\\vo_dialog_DYJEQ001_furina_03.wem",
        "rate": 1.0,
        "avatarName": "",
        "emotion": ""
      }
    ]
  },
  "67e48b16-d0d6-4daa-b09f-0b754e2d570c": {
    "guid": "67e48b16-d0d6-4daa-b09f-0b754e2d570c",
    "playRate": 1.0,
    "gameTrigger": "Dialog",
    "gameTriggerArgs": 401361506,
    "personalConfig": 2,
    "parentID": "9124aa85-41f4-4298-94fd-ec41fc988d96",
    "sourceNames": [
      {
        "sourceFileName": "VO_freetalk\\VO_furina\\vo_dialog_DYJEQ005_furina_04.wem",
        "rate": 1.0,
        "avatarName": "",
        "emotion": ""
      }
    ]
  },
  "73bc4943-f0ea-4319-92d1-4d5cd2ee820e": {
    "guid": "73bc4943-f0ea-4319-92d1-4d5cd2ee820e",
    "playRate": 1.0,
    "gameTrigger": "Dialog",
    "gameTriggerArgs": 140130401,
    "personalConfig": 2,
    "parentID": "9124aa85-41f4-4298-94fd-ec41fc988d96",
    "sourceNames": [
      {
        "sourceFileName": "VO_freetalk\\VO_furina\\vo_dialog_FNNLQ003_furina_01.wem",
        "rate": 1.0,
        "avatarName": "",
        "emotion": ""
      }
    ]
  },
  "855b0da2-a581-4b12-b091-6fa6d29b1e1e": {
    "guid": "855b0da2-a581-4b12-b091-6fa6d29b1e1e",
    "playRate": 1.0,
    "gameTrigger": "Dialog",
    "gameTriggerArgs": 140335201,
    "personalConfig": 2,
    "parentID": "9124aa85-41f4-4298-94fd-ec41fc988d96",
    "sourceNames": [
      {
        "sourceFileName": "VO_freetalk\\VO_furina\\vo_dialog_CLLQ003_furina_01.wem",
        "rate": 1.0,
        "avatarName": "",
        "emotion": ""
      },
      {
        "sourceFileName": "VO_freetalk\\VO_furina\\vo_dialog_CLLQ003_furina_01.wem",
        "rate": 1.0,
        "avatarName": "",
        "emotion": ""
      },
      {
        "sourceFileName": "VO_freetalk\\VO_furina\\vo_dialog_CLLQ003_furina_01.wem",
        "rate": 1.0,
        "avatarName": "",
        "emotion": ""
      },
      {
        "sourceFileName": "VO_freetalk\\VO_furina\\vo_dialog_CLLQ003_furina_01.wem",
        "rate": 1.0,
        "avatarName": "",
        "emotion": ""
      }
    ]
  },
  "8c68780a-450e-4edb-a613-d703e00a890a": {
    "guid": "8c68780a-450e-4edb-a613-d703e00a890a",
    "playRate": 1.0,
    "gameTrigger": "Dialog",
    "gameTriggerArgs": 401320535,
    "personalConfig": 2,
    "parentID": "9124aa85-41f4-4298-94fd-ec41fc988d96",
    "sourceNames": [
      {
        "sourceFileName": "VO_freetalk\\VO_furina\\vo_dialog_DYJEQ001_furina_01.wem",
        "rate": 1.0,
        "avatarName": "",
        "emotion": ""
      }
    ]
  },
  "9c078ad6-78f5-4dd7-8a63-cabee74fed66": {
    "guid": "9c078ad6-78f5-4dd7-8a63-cabee74fed66",
    "playRate": 1.0,
    "gameTrigger": "Dialog",
    "gameTriggerArgs": 40102702,
    "personalConfig": 2,
    "parentID": "9124aa85-41f4-4298-94fd-ec41fc988d96",
    "sourceNames": [
      {
        "sourceFileName": "VO_freetalk\\VO_furina\\vo_dialog_FDAQ108_furina_02.wem",
        "rate": 1.0,
        "avatarName": "",
        "emotion": ""
      }
    ]
  },
  "a12bd8f7-ca9d-4015-b436-a10b0726bd70": {
    "guid": "a12bd8f7-ca9d-4015-b436-a10b0726bd70",
    "playRate": 1.0,
    "gameTrigger": "Dialog",
    "gameTriggerArgs": 401421015,
    "personalConfig": 2,
    "parentID": "9124aa85-41f4-4298-94fd-ec41fc988d96",
    "sourceNames": [
      {
        "sourceFileName": "VO_freetalk\\VO_furina\\vo_dialog_EQHDJ304_furina_05.wem",
        "rate": 1.0,
        "avatarName": "",
        "emotion": ""
      }
    ]
  },
  "a985fc7a-c2f1-461b-9162-e5cd602a3ed8": {
    "guid": "a985fc7a-c2f1-461b-9162-e5cd602a3ed8",
    "playRate": 1.0,
    "gameTrigger": "Dialog",
    "gameTriggerArgs": 401352401,
    "personalConfig": 2,
    "parentID": "9124aa85-41f4-4298-94fd-ec41fc988d96",
    "sourceNames": [
      {
        "sourceFileName": "VO_freetalk\\VO_furina\\vo_dialog_DYJEQ004_furina_01.wem",
        "rate": 1.0,
        "avatarName": "",
        "emotion": ""
      }
    ]
  },
  "b3013480-2686-4b31-8cf8-26c0d6a92d6d": {
    "guid": "b3013480-2686-4b31-8cf8-26c0d6a92d6d",
    "playRate": 1.0,
    "gameTrigger": "Dialog",
    "gameTriggerArgs": 401361507,
    "personalConfig": 2,
    "parentID": "9124aa85-41f4-4298-94fd-ec41fc988d96",
    "sourceNames": [
      {
        "sourceFileName": "VO_freetalk\\VO_furina\\vo_dialog_DYJEQ005_furina_05.wem",
        "rate": 1.0,
        "avatarName": "",
        "emotion": ""
      }
    ]
  },
  "bbd093de-a27f-496d-bc69-bca299acc4b7": {
    "guid": "bbd093de-a27f-496d-bc69-bca299acc4b7",
    "playRate": 1.0,
    "gameTrigger": "Dialog",
    "gameTriggerArgs": 401421014,
    "personalConfig": 2,
    "parentID": "9124aa85-41f4-4298-94fd-ec41fc988d96",
    "sourceNames": [
      {
        "sourceFileName": "VO_freetalk\\VO_furina\\vo_dialog_EQHDJ304_furina_04.wem",
        "rate": 1.0,
        "avatarName": "",
        "emotion": ""
      }
    ]
  },
  "c47b29fb-520f-4093-8495-1489bebdbce3": {
    "guid": "c47b29fb-520f-4093-8495-1489bebdbce3",
    "playRate": 1.0,
    "gameTrigger": "Dialog",
    "gameTriggerArgs": 401320537,
    "personalConfig": 2,
    "parentID": "9124aa85-41f4-4298-94fd-ec41fc988d96",
    "sourceNames": [
      {
        "sourceFileName": "VO_freetalk\\VO_furina\\vo_dialog_DYJEQ001_furina_02a_1.wem",
        "rate": 1.0,
        "avatarName": "",
        "emotion": ""
      }
    ]
  },
  "d8448b76-7641-4a11-9cca-5c26d8ae9896": {
    "guid": "d8448b76-7641-4a11-9cca-5c26d8ae9896",
    "playRate": 1.0,
    "gameTrigger": "Dialog",
    "gameTriggerArgs": 401361502,
    "personalConfig": 2,
    "parentID": "9124aa85-41f4-4298-94fd-ec41fc988d96",
    "sourceNames": [
      {
        "sourceFileName": "VO_freetalk\\VO_furina\\vo_dialog_DYJEQ005_furina_02.wem",
        "rate": 1.0,
        "avatarName": "",
        "emotion": ""
      }
    ]
  },
  "e282690b-70ff-4a24-b23c-8214934bc6ea": {
    "guid": "e282690b-70ff-4a24-b23c-8214934bc6ea",
    "playRate": 1.0,
    "gameTrigger": "Dialog",
    "gameTriggerArgs": 401421008,
    "personalConfig": 2,
    "parentID": "9124aa85-41f4-4298-94fd-ec41fc988d96",
    "sourceNames": [
      {
        "sourceFileName": "VO_freetalk\\VO_furina\\vo_dialog_EQHDJ304_furina_03.wem",
        "rate": 1.0,
        "avatarName": "",
        "emotion": ""
      }
    ]
  },
  "e617a2c2-6863-490c-891d-e860f2d4c7ca": {
    "guid": "e617a2c2-6863-490c-891d-e860f2d4c7ca",
    "playRate": 1.0,
    "gameTrigger": "Dialog",
    "gameTriggerArgs": 401421007,
    "personalConfig": 2,
    "parentID": "9124aa85-41f4-4298-94fd-ec41fc988d96",
    "sourceNames": [
      {
        "sourceFileName": "VO_freetalk\\VO_furina\\vo_dialog_EQHDJ304_furina_02.wem",
        "rate": 1.0,
        "avatarName": "",
        "emotion": ""
      }
    ]
  },
  "f2459bfb-2d93-49e4-ba96-d807d0cc4ba8": {
    "guid": "f2459bfb-2d93-49e4-ba96-d807d0cc4ba8",
    "playRate": 1.0,
    "gameTrigger": "Dialog",
    "gameTriggerArgs": 140130403,
    "personalConfig": 2,
    "parentID": "9124aa85-41f4-4298-94fd-ec41fc988d96",
    "sourceNames": [
      {
        "sourceFileName": "VO_freetalk\\VO_furina\\vo_dialog_FNNLQ003_furina_03.wem",
        "rate": 1.0,
        "avatarName": "",
        "emotion": ""
      }
    ]
  },
  "f4776241-a3a7-4c59-9e0f-ec55b5b17e24": {
    "guid": "f4776241-a3a7-4c59-9e0f-ec55b5b17e24",
    "playRate": 1.0,
    "gameTrigger": "Dialog",
    "gameTriggerArgs": 401361505,
    "personalConfig": 2,
    "parentID": "9124aa85-41f4-4298-94fd-ec41fc988d96",
    "sourceNames": [
      {
        "sourceFileName": "VO_freetalk\\VO_furina\\vo_dialog_DYJEQ005_furina_03.wem",
        "rate": 1.0,
        "avatarName": "",
        "emotion": ""
      }
    ]
  }
}