{
  "00fae90c-6f76-46f1-b3e9-33e26d4733b0": {
    "guid": "00fae90c-6f76-46f1-b3e9-33e26d4733b0",
    "playRate": 1.0,
    "gameTrigger": "Dialog",
    "gameTriggerArgs": 401391038,
    "personalConfig": 2,
    "parentID": "880e9b46-7991-42c8-adc5-33282bef3ae0",
    "sourceNames": [
      {
        "sourceFileName": "VO_EQ\\VO_NPC\\vo_EQHDJ301_20_fenglian_05.wem",
        "rate": 1.0,
        "avatarName": "",
        "emotion": ""
      }
    ]
  },
  "00fdbd4c-a1c8-474b-b51d-47ac01672f28": {
    "guid": "00fdbd4c-a1c8-474b-b51d-47ac01672f28",
    "playRate": 1.0,
    "gameTrigger": "Dialog",
    "gameTriggerArgs": 401391048,
    "personalConfig": 2,
    "parentID": "880e9b46-7991-42c8-adc5-33282bef3ae0",
    "sourceNames": [
      {
        "sourceFileName": "VO_EQ\\VO_NPC\\vo_EQHDJ301_20_charbonnier_04.wem",
        "rate": 1.0,
        "avatarName": "",
        "emotion": ""
      }
    ]
  },
  "072c34c7-ff5f-4a4a-8f34-a63b744dff3c": {
    "guid": "072c34c7-ff5f-4a4a-8f34-a63b744dff3c",
    "playRate": 1.0,
    "gameTrigger": "Dialog",
    "gameTriggerArgs": 401391014,
    "personalConfig": 2,
    "parentID": "880e9b46-7991-42c8-adc5-33282bef3ae0",
    "sourceNames": [
      {
        "sourceFileName": "VO_EQ\\VO_xianyun\\vo_EQHDJ301_20_xianyun_06.wem",
        "rate": 1.0,
        "avatarName": "",
        "emotion": ""
      }
    ]
  },
  "1994834a-371b-4935-9c12-fc39a61c696d": {
    "guid": "1994834a-371b-4935-9c12-fc39a61c696d",
    "playRate": 1.0,
    "gameTrigger": "Dialog",
    "gameTriggerArgs": 401391056,
    "personalConfig": 2,
    "parentID": "880e9b46-7991-42c8-adc5-33282bef3ae0",
    "sourceNames": [
      {
        "sourceFileName": "VO_EQ\\VO_paimon\\vo_EQHDJ301_20_paimon_12.wem",
        "rate": 1.0,
        "avatarName": "",
        "emotion": ""
      }
    ]
  },
  "19b36f85-7c8e-4160-b66a-a9e531799922": {
    "guid": "19b36f85-7c8e-4160-b66a-a9e531799922",
    "playRate": 1.0,
    "gameTrigger": "Dialog",
    "gameTriggerArgs": 401391034,
    "personalConfig": 2,
    "parentID": "880e9b46-7991-42c8-adc5-33282bef3ae0",
    "sourceNames": [
      {
        "sourceFileName": "VO_EQ\\VO_NPC\\vo_EQHDJ301_20_fenglian_03.wem",
        "rate": 1.0,
        "avatarName": "",
        "emotion": ""
      }
    ]
  },
  "1ef38889-580e-4837-b3e7-b42df0664797": {
    "guid": "1ef38889-580e-4837-b3e7-b42df0664797",
    "playRate": 1.0,
    "gameTrigger": "Dialog",
    "gameTriggerArgs": 401391069,
    "personalConfig": 2,
    "parentID": "880e9b46-7991-42c8-adc5-33282bef3ae0",
    "sourceNames": [
      {
        "sourceFileName": "VO_EQ\\VO_paimon\\vo_EQHDJ301_20_paimon_16.wem",
        "rate": 1.0,
        "avatarName": "",
        "emotion": ""
      }
    ]
  },
  "24e398b6-b392-4fee-9d5d-4f5bd7a12d56": {
    "guid": "24e398b6-b392-4fee-9d5d-4f5bd7a12d56",
    "playRate": 1.0,
    "gameTrigger": "Dialog",
    "gameTriggerArgs": 401391063,
    "personalConfig": 2,
    "parentID": "880e9b46-7991-42c8-adc5-33282bef3ae0",
    "sourceNames": [
      {
        "sourceFileName": "VO_EQ\\VO_xianyun\\vo_EQHDJ301_20_xianyun_30.wem",
        "rate": 1.0,
        "avatarName": "",
        "emotion": ""
      }
    ]
  },
  "292cf1c3-62b6-44ce-960c-517ca077de0b": {
    "guid": "292cf1c3-62b6-44ce-960c-517ca077de0b",
    "playRate": 1.0,
    "gameTrigger": "Dialog",
    "gameTriggerArgs": 401391074,
    "personalConfig": 2,
    "parentID": "880e9b46-7991-42c8-adc5-33282bef3ae0",
    "sourceNames": [
      {
        "sourceFileName": "VO_EQ\\VO_paimon\\vo_EQHDJ301_20_paimon_17.wem",
        "rate": 1.0,
        "avatarName": "",
        "emotion": ""
      }
    ]
  },
  "299e3e6d-9b46-41df-8683-3a354bb9af1c": {
    "guid": "299e3e6d-9b46-41df-8683-3a354bb9af1c",
    "playRate": 1.0,
    "gameTrigger": "Dialog",
    "gameTriggerArgs": 401391066,
    "personalConfig": 2,
    "parentID": "880e9b46-7991-42c8-adc5-33282bef3ae0",
    "sourceNames": [
      {
        "sourceFileName": "VO_EQ\\VO_paimon\\vo_EQHDJ301_20_paimon_14.wem",
        "rate": 1.0,
        "avatarName": "",
        "emotion": ""
      }
    ]
  },
  "2b37bd53-0daa-424b-aa51-0890a8bfb982": {
    "guid": "2b37bd53-0daa-424b-aa51-0890a8bfb982",
    "playRate": 1.0,
    "gameTrigger": "Dialog",
    "gameTriggerArgs": 401391059,
    "personalConfig": 2,
    "parentID": "880e9b46-7991-42c8-adc5-33282bef3ae0",
    "sourceNames": [
      {
        "sourceFileName": "VO_EQ\\VO_xianyun\\vo_EQHDJ301_20_xianyun_28.wem",
        "rate": 1.0,
        "avatarName": "",
        "emotion": ""
      }
    ]
  },
  "2bc973ab-2528-4cc4-8f22-80d4391216cc": {
    "guid": "2bc973ab-2528-4cc4-8f22-80d4391216cc",
    "playRate": 1.0,
    "gameTrigger": "Dialog",
    "gameTriggerArgs": 401391065,
    "personalConfig": 2,
    "parentID": "880e9b46-7991-42c8-adc5-33282bef3ae0",
    "sourceNames": [
      {
        "sourceFileName": "VO_EQ\\VO_xianyun\\vo_EQHDJ301_20_xianyun_32.wem",
        "rate": 1.0,
        "avatarName": "",
        "emotion": ""
      }
    ]
  },
  "2c75cb36-32b8-4131-9d31-e753696984d1": {
    "guid": "2c75cb36-32b8-4131-9d31-e753696984d1",
    "playRate": 1.0,
    "gameTrigger": "Dialog",
    "gameTriggerArgs": 401391040,
    "personalConfig": 2,
    "parentID": "880e9b46-7991-42c8-adc5-33282bef3ae0",
    "sourceNames": [
      {
        "sourceFileName": "VO_EQ\\VO_NPC\\vo_EQHDJ301_20_fenglian_06.wem",
        "rate": 1.0,
        "avatarName": "",
        "emotion": ""
      }
    ]
  },
  "3073c425-678c-499c-b391-53daf8c6d961": {
    "guid": "3073c425-678c-499c-b391-53daf8c6d961",
    "playRate": 1.0,
    "gameTrigger": "Dialog",
    "gameTriggerArgs": 401391042,
    "personalConfig": 2,
    "parentID": "880e9b46-7991-42c8-adc5-33282bef3ae0",
    "sourceNames": [
      {
        "sourceFileName": "VO_EQ\\VO_NPC\\vo_EQHDJ301_20_charbonnier_02.wem",
        "rate": 1.0,
        "avatarName": "",
        "emotion": ""
      }
    ]
  },
  "371d2792-2a28-4158-8c07-3e8ddb7638f0": {
    "guid": "371d2792-2a28-4158-8c07-3e8ddb7638f0",
    "playRate": 1.0,
    "gameTrigger": "Dialog",
    "gameTriggerArgs": 401391052,
    "personalConfig": 2,
    "parentID": "880e9b46-7991-42c8-adc5-33282bef3ae0",
    "sourceNames": [
      {
        "sourceFileName": "VO_EQ\\VO_xianyun\\vo_EQHDJ301_20_xianyun_24.wem",
        "rate": 1.0,
        "avatarName": "",
        "emotion": ""
      }
    ]
  },
  "3aee604d-398a-4bf5-b6be-38b7ca19f263": {
    "guid": "3aee604d-398a-4bf5-b6be-38b7ca19f263",
    "playRate": 1.0,
    "gameTrigger": "Dialog",
    "gameTriggerArgs": 401391054,
    "personalConfig": 2,
    "NJKDHJOHKCM": 1,
    "parentID": "880e9b46-7991-42c8-adc5-33282bef3ae0",
    "sourceNames": [
      {
        "sourceFileName": "VO_EQ\\VO_xianyun\\vo_EQHDJ301_20_xianyun_26.wem",
        "rate": 1.0,
        "avatarName": "",
        "emotion": ""
      }
    ]
  },
  "3b45fe02-d804-4d3e-b61f-43e154b2dded": {
    "guid": "3b45fe02-d804-4d3e-b61f-43e154b2dded",
    "playRate": 1.0,
    "gameTrigger": "Dialog",
    "gameTriggerArgs": 401391015,
    "personalConfig": 2,
    "parentID": "880e9b46-7991-42c8-adc5-33282bef3ae0",
    "sourceNames": [
      {
        "sourceFileName": "VO_EQ\\VO_paimon\\vo_EQHDJ301_20_paimon_07.wem",
        "rate": 1.0,
        "avatarName": "",
        "emotion": ""
      }
    ]
  },
  "3baf6dd3-fea4-4c18-8309-8ce3729460da": {
    "guid": "3baf6dd3-fea4-4c18-8309-8ce3729460da",
    "playRate": 1.0,
    "gameTrigger": "Dialog",
    "gameTriggerArgs": 401391037,
    "personalConfig": 2,
    "parentID": "880e9b46-7991-42c8-adc5-33282bef3ae0",
    "sourceNames": [
      {
        "sourceFileName": "VO_EQ\\VO_xianyun\\vo_EQHDJ301_20_xianyun_17.wem",
        "rate": 1.0,
        "avatarName": "",
        "emotion": ""
      }
    ]
  },
  "458a85b1-c820-42b9-8e6a-e1942e001784": {
    "guid": "458a85b1-c820-42b9-8e6a-e1942e001784",
    "playRate": 1.0,
    "gameTrigger": "Dialog",
    "gameTriggerArgs": 401391026,
    "personalConfig": 2,
    "parentID": "880e9b46-7991-42c8-adc5-33282bef3ae0",
    "sourceNames": [
      {
        "sourceFileName": "VO_EQ\\VO_paimon\\vo_EQHDJ301_20_paimon_10.wem",
        "rate": 1.0,
        "avatarName": "",
        "emotion": ""
      }
    ]
  },
  "49450ceb-6f09-4e3f-8c5f-5bb6f1f5062b": {
    "guid": "49450ceb-6f09-4e3f-8c5f-5bb6f1f5062b",
    "playRate": 1.0,
    "gameTrigger": "Dialog",
    "gameTriggerArgs": 401391051,
    "personalConfig": 2,
    "parentID": "880e9b46-7991-42c8-adc5-33282bef3ae0",
    "sourceNames": [
      {
        "sourceFileName": "VO_EQ\\VO_NPC\\vo_EQHDJ301_20_charbonnier_06.wem",
        "rate": 1.0,
        "avatarName": "",
        "emotion": ""
      }
    ]
  },
  "4b7f0ecb-f495-463b-a52d-cd749da670ca": {
    "guid": "4b7f0ecb-f495-463b-a52d-cd749da670ca",
    "playRate": 1.0,
    "gameTrigger": "Dialog",
    "gameTriggerArgs": 401391087,
    "personalConfig": 2,
    "parentID": "880e9b46-7991-42c8-adc5-33282bef3ae0",
    "sourceNames": [
      {
        "sourceFileName": "VO_EQ\\VO_paimon\\vo_EQHDJ301_20_paimon_24.wem",
        "rate": 1.0,
        "avatarName": "",
        "emotion": ""
      }
    ]
  },
  "4e2c92c3-0300-4111-b48f-ef3a24ef6b14": {
    "guid": "4e2c92c3-0300-4111-b48f-ef3a24ef6b14",
    "playRate": 1.0,
    "gameTrigger": "Dialog",
    "gameTriggerArgs": 401391088,
    "personalConfig": 2,
    "parentID": "880e9b46-7991-42c8-adc5-33282bef3ae0",
    "sourceNames": [
      {
        "sourceFileName": "VO_EQ\\VO_paimon\\vo_EQHDJ301_20_paimon_25.wem",
        "rate": 1.0,
        "avatarName": "",
        "emotion": ""
      }
    ]
  },
  "4e5bf343-1244-4591-89cc-a44b911cf5d1": {
    "guid": "4e5bf343-1244-4591-89cc-a44b911cf5d1",
    "playRate": 1.0,
    "gameTrigger": "Dialog",
    "gameTriggerArgs": 401391070,
    "personalConfig": 2,
    "parentID": "880e9b46-7991-42c8-adc5-33282bef3ae0",
    "sourceNames": [
      {
        "sourceFileName": "VO_EQ\\VO_xianyun\\vo_EQHDJ301_20_xianyun_34.wem",
        "rate": 1.0,
        "avatarName": "",
        "emotion": ""
      }
    ]
  },
  "4ece21ac-03e1-4f9b-b9ba-9bb54b71ed44": {
    "guid": "4ece21ac-03e1-4f9b-b9ba-9bb54b71ed44",
    "playRate": 1.0,
    "gameTrigger": "Dialog",
    "gameTriggerArgs": 401391078,
    "personalConfig": 2,
    "parentID": "880e9b46-7991-42c8-adc5-33282bef3ae0",
    "sourceNames": [
      {
        "sourceFileName": "VO_EQ\\VO_xianyun\\vo_EQHDJ301_20_xianyun_39.wem",
        "rate": 1.0,
        "avatarName": "",
        "emotion": ""
      }
    ]
  },
  "4f48b979-1768-436c-8d48-c4694ba77b2c": {
    "guid": "4f48b979-1768-436c-8d48-c4694ba77b2c",
    "playRate": 1.0,
    "gameTrigger": "Dialog",
    "gameTriggerArgs": 401391080,
    "personalConfig": 2,
    "parentID": "880e9b46-7991-42c8-adc5-33282bef3ae0",
    "sourceNames": [
      {
        "sourceFileName": "VO_EQ\\VO_paimon\\vo_EQHDJ301_20_paimon_19.wem",
        "rate": 1.0,
        "avatarName": "",
        "emotion": ""
      }
    ]
  },
  "53f41034-8bd5-43f9-8add-7b167b4c2293": {
    "guid": "53f41034-8bd5-43f9-8add-7b167b4c2293",
    "playRate": 1.0,
    "gameTrigger": "Dialog",
    "gameTriggerArgs": 401391053,
    "personalConfig": 2,
    "NJKDHJOHKCM": 1,
    "parentID": "880e9b46-7991-42c8-adc5-33282bef3ae0",
    "sourceNames": [
      {
        "sourceFileName": "VO_EQ\\VO_xianyun\\vo_EQHDJ301_20_xianyun_25.wem",
        "rate": 1.0,
        "avatarName": "",
        "emotion": ""
      }
    ]
  },
  "5598683c-50e9-4623-9038-f84cd362f399": {
    "guid": "5598683c-50e9-4623-9038-f84cd362f399",
    "playRate": 1.0,
    "gameTrigger": "Dialog",
    "gameTriggerArgs": 401391094,
    "personalConfig": 2,
    "parentID": "880e9b46-7991-42c8-adc5-33282bef3ae0",
    "sourceNames": [
      {
        "sourceFileName": "VO_EQ\\VO_paimon\\vo_EQHDJ301_20_paimon_29.wem",
        "rate": 1.0,
        "avatarName": "",
        "emotion": ""
      }
    ]
  },
  "59a6d3cf-5187-4843-80e0-73da737867e4": {
    "guid": "59a6d3cf-5187-4843-80e0-73da737867e4",
    "playRate": 1.0,
    "gameTrigger": "Dialog",
    "gameTriggerArgs": 401391041,
    "personalConfig": 2,
    "parentID": "880e9b46-7991-42c8-adc5-33282bef3ae0",
    "sourceNames": [
      {
        "sourceFileName": "VO_EQ\\VO_NPC\\vo_EQHDJ301_20_charbonnier_01.wem",
        "rate": 1.0,
        "avatarName": "",
        "emotion": ""
      }
    ]
  },
  "5a443e81-36f7-420e-99f7-8c35d7efea33": {
    "guid": "5a443e81-36f7-420e-99f7-8c35d7efea33",
    "playRate": 1.0,
    "gameTrigger": "Dialog",
    "gameTriggerArgs": 401391043,
    "personalConfig": 2,
    "parentID": "880e9b46-7991-42c8-adc5-33282bef3ae0",
    "sourceNames": [
      {
        "sourceFileName": "VO_EQ\\VO_xianyun\\vo_EQHDJ301_20_xianyun_19.wem",
        "rate": 1.0,
        "avatarName": "",
        "emotion": ""
      }
    ]
  },
  "604ffe6f-64f0-41fe-b95c-e44038be09d2": {
    "guid": "604ffe6f-64f0-41fe-b95c-e44038be09d2",
    "playRate": 1.0,
    "gameTrigger": "Dialog",
    "gameTriggerArgs": 401391067,
    "personalConfig": 2,
    "parentID": "880e9b46-7991-42c8-adc5-33282bef3ae0",
    "sourceNames": [
      {
        "sourceFileName": "VO_EQ\\VO_xianyun\\vo_EQHDJ301_20_xianyun_33.wem",
        "rate": 1.0,
        "avatarName": "",
        "emotion": ""
      }
    ]
  },
  "60c580a1-3873-41d9-8431-9fb96e3ea1c8": {
    "guid": "60c580a1-3873-41d9-8431-9fb96e3ea1c8",
    "playRate": 1.0,
    "gameTrigger": "Dialog",
    "gameTriggerArgs": 401391039,
    "personalConfig": 2,
    "parentID": "880e9b46-7991-42c8-adc5-33282bef3ae0",
    "sourceNames": [
      {
        "sourceFileName": "VO_EQ\\VO_xianyun\\vo_EQHDJ301_20_xianyun_18.wem",
        "rate": 1.0,
        "avatarName": "",
        "emotion": ""
      }
    ]
  },
  "64e3a4cd-f18c-4816-8374-03e48d7d1b9c": {
    "guid": "64e3a4cd-f18c-4816-8374-03e48d7d1b9c",
    "playRate": 1.0,
    "gameTrigger": "Dialog",
    "gameTriggerArgs": 401391019,
    "personalConfig": 2,
    "NJKDHJOHKCM": 1,
    "parentID": "880e9b46-7991-42c8-adc5-33282bef3ae0",
    "sourceNames": [
      {
        "sourceFileName": "VO_EQ\\VO_xianyun\\vo_EQHDJ301_20_xianyun_09.wem",
        "rate": 1.0,
        "avatarName": "",
        "emotion": ""
      }
    ]
  },
  "64ff7924-16f4-4c5b-acee-69e344c688fe": {
    "guid": "64ff7924-16f4-4c5b-acee-69e344c688fe",
    "playRate": 1.0,
    "gameTrigger": "Dialog",
    "gameTriggerArgs": 401391090,
    "personalConfig": 2,
    "parentID": "880e9b46-7991-42c8-adc5-33282bef3ae0",
    "sourceNames": [
      {
        "sourceFileName": "VO_EQ\\VO_paimon\\vo_EQHDJ301_20_paimon_26.wem",
        "rate": 1.0,
        "avatarName": "",
        "emotion": ""
      }
    ]
  },
  "6ee02cf1-8e26-46b8-9071-fec972ca8d8f": {
    "guid": "6ee02cf1-8e26-46b8-9071-fec972ca8d8f",
    "playRate": 1.0,
    "gameTrigger": "Dialog",
    "gameTriggerArgs": 401391001,
    "personalConfig": 2,
    "parentID": "880e9b46-7991-42c8-adc5-33282bef3ae0",
    "sourceNames": [
      {
        "sourceFileName": "VO_EQ\\VO_paimon\\vo_EQHDJ301_20_paimon_01.wem",
        "rate": 1.0,
        "avatarName": "",
        "emotion": ""
      }
    ]
  },
  "6fdf2e23-b1a8-4619-925a-8580f73114d7": {
    "guid": "6fdf2e23-b1a8-4619-925a-8580f73114d7",
    "playRate": 1.0,
    "gameTrigger": "Dialog",
    "gameTriggerArgs": 401391018,
    "personalConfig": 2,
    "NJKDHJOHKCM": 1,
    "parentID": "880e9b46-7991-42c8-adc5-33282bef3ae0",
    "sourceNames": [
      {
        "sourceFileName": "VO_EQ\\VO_xianyun\\vo_EQHDJ301_20_xianyun_08.wem",
        "rate": 1.0,
        "avatarName": "",
        "emotion": ""
      }
    ]
  },
  "71a95172-9c1e-4300-97a6-d23cb79bf397": {
    "guid": "71a95172-9c1e-4300-97a6-d23cb79bf397",
    "playRate": 1.0,
    "gameTrigger": "Dialog",
    "gameTriggerArgs": 401391086,
    "personalConfig": 2,
    "parentID": "880e9b46-7991-42c8-adc5-33282bef3ae0",
    "sourceNames": [
      {
        "sourceFileName": "VO_EQ\\VO_paimon\\vo_EQHDJ301_20_paimon_23.wem",
        "rate": 1.0,
        "avatarName": "",
        "emotion": ""
      }
    ]
  },
  "74585153-359f-496c-8905-9ba444b78638": {
    "guid": "74585153-359f-496c-8905-9ba444b78638",
    "playRate": 1.0,
    "gameTrigger": "Dialog",
    "gameTriggerArgs": 401391033,
    "personalConfig": 2,
    "parentID": "880e9b46-7991-42c8-adc5-33282bef3ae0",
    "sourceNames": [
      {
        "sourceFileName": "VO_EQ\\VO_xianyun\\vo_EQHDJ301_20_xianyun_15.wem",
        "rate": 1.0,
        "avatarName": "",
        "emotion": ""
      }
    ]
  },
  "780e4102-8733-44ee-be9b-b817e1a16cd3": {
    "guid": "780e4102-8733-44ee-be9b-b817e1a16cd3",
    "playRate": 1.0,
    "gameTrigger": "Dialog",
    "gameTriggerArgs": 401391075,
    "personalConfig": 2,
    "parentID": "880e9b46-7991-42c8-adc5-33282bef3ae0",
    "sourceNames": [
      {
        "sourceFileName": "VO_EQ\\VO_xianyun\\vo_EQHDJ301_20_xianyun_38.wem",
        "rate": 1.0,
        "avatarName": "",
        "emotion": ""
      }
    ]
  },
  "78c6edd7-9bed-49cc-a02f-6a486ee4fe44": {
    "guid": "78c6edd7-9bed-49cc-a02f-6a486ee4fe44",
    "playRate": 1.0,
    "gameTrigger": "Dialog",
    "gameTriggerArgs": 401391022,
    "personalConfig": 2,
    "parentID": "880e9b46-7991-42c8-adc5-33282bef3ae0",
    "sourceNames": [
      {
        "sourceFileName": "VO_EQ\\VO_paimon\\vo_EQHDJ301_20_paimon_08.wem",
        "rate": 1.0,
        "avatarName": "",
        "emotion": ""
      }
    ]
  },
  "7b174d57-df7d-4e0d-abe6-bcb3a4bc7c48": {
    "guid": "7b174d57-df7d-4e0d-abe6-bcb3a4bc7c48",
    "playRate": 1.0,
    "gameTrigger": "Dialog",
    "gameTriggerArgs": 401391064,
    "personalConfig": 2,
    "parentID": "880e9b46-7991-42c8-adc5-33282bef3ae0",
    "sourceNames": [
      {
        "sourceFileName": "VO_EQ\\VO_xianyun\\vo_EQHDJ301_20_xianyun_31.wem",
        "rate": 1.0,
        "avatarName": "",
        "emotion": ""
      }
    ]
  },
  "80745ef5-3eb4-4e62-84e7-0ac056638208": {
    "guid": "80745ef5-3eb4-4e62-84e7-0ac056638208",
    "playRate": 1.0,
    "gameTrigger": "Dialog",
    "gameTriggerArgs": 401391071,
    "personalConfig": 2,
    "parentID": "880e9b46-7991-42c8-adc5-33282bef3ae0",
    "sourceNames": [
      {
        "sourceFileName": "VO_EQ\\VO_xianyun\\vo_EQHDJ301_20_xianyun_35.wem",
        "rate": 1.0,
        "avatarName": "",
        "emotion": ""
      }
    ]
  },
  "8482bca4-973b-45c8-aa4a-c45697aafe62": {
    "guid": "8482bca4-973b-45c8-aa4a-c45697aafe62",
    "playRate": 1.0,
    "gameTrigger": "Dialog",
    "gameTriggerArgs": 401391060,
    "personalConfig": 2,
    "parentID": "880e9b46-7991-42c8-adc5-33282bef3ae0",
    "sourceNames": [
      {
        "sourceFileName": "VO_EQ\\VO_paimon\\vo_EQHDJ301_20_paimon_13.wem",
        "rate": 1.0,
        "avatarName": "",
        "emotion": ""
      }
    ]
  },
  "88d48fd3-a4cb-4617-948e-74aade790eb9": {
    "guid": "88d48fd3-a4cb-4617-948e-74aade790eb9",
    "playRate": 1.0,
    "gameTrigger": "Dialog",
    "gameTriggerArgs": 401391068,
    "personalConfig": 2,
    "parentID": "880e9b46-7991-42c8-adc5-33282bef3ae0",
    "sourceNames": [
      {
        "sourceFileName": "VO_EQ\\VO_paimon\\vo_EQHDJ301_20_paimon_15.wem",
        "rate": 1.0,
        "avatarName": "",
        "emotion": ""
      }
    ]
  },
  "8ae44329-b83e-422c-aaca-3efda97ca407": {
    "guid": "8ae44329-b83e-422c-aaca-3efda97ca407",
    "playRate": 1.0,
    "gameTrigger": "Dialog",
    "gameTriggerArgs": 401391031,
    "personalConfig": 2,
    "parentID": "880e9b46-7991-42c8-adc5-33282bef3ae0",
    "sourceNames": [
      {
        "sourceFileName": "VO_EQ\\VO_NPC\\vo_EQHDJ301_20_fenglian_02.wem",
        "rate": 1.0,
        "avatarName": "",
        "emotion": ""
      }
    ]
  },
  "8c709141-548d-4eab-98c2-f8cf07e40dae": {
    "guid": "8c709141-548d-4eab-98c2-f8cf07e40dae",
    "playRate": 1.0,
    "gameTrigger": "Dialog",
    "gameTriggerArgs": 401391013,
    "personalConfig": 2,
    "parentID": "880e9b46-7991-42c8-adc5-33282bef3ae0",
    "sourceNames": [
      {
        "sourceFileName": "VO_EQ\\VO_paimon\\vo_EQHDJ301_20_paimon_06.wem",
        "rate": 1.0,
        "avatarName": "",
        "emotion": ""
      }
    ]
  },
  "8cf56e2e-325f-4baf-804d-811a109b538f": {
    "guid": "8cf56e2e-325f-4baf-804d-811a109b538f",
    "playRate": 1.0,
    "gameTrigger": "Dialog",
    "gameTriggerArgs": 401391006,
    "personalConfig": 2,
    "parentID": "880e9b46-7991-42c8-adc5-33282bef3ae0",
    "sourceNames": [
      {
        "sourceFileName": "VO_EQ\\VO_paimon\\vo_EQHDJ301_20_paimon_02.wem",
        "rate": 1.0,
        "avatarName": "",
        "emotion": ""
      }
    ]
  },
  "8e0b63bf-3f86-4957-8e01-69bf3557131c": {
    "guid": "8e0b63bf-3f86-4957-8e01-69bf3557131c",
    "playRate": 1.0,
    "gameTrigger": "Dialog",
    "gameTriggerArgs": 401391005,
    "personalConfig": 2,
    "parentID": "880e9b46-7991-42c8-adc5-33282bef3ae0",
    "sourceNames": [
      {
        "sourceFileName": "VO_EQ\\VO_xianyun\\vo_EQHDJ301_20_xianyun_02.wem",
        "rate": 1.0,
        "avatarName": "",
        "emotion": ""
      }
    ]
  },
  "940f26a4-6ee6-4e39-aae7-123302a11ee2": {
    "guid": "940f26a4-6ee6-4e39-aae7-123302a11ee2",
    "playRate": 1.0,
    "gameTrigger": "Dialog",
    "gameTriggerArgs": 401391027,
    "personalConfig": 2,
    "parentID": "880e9b46-7991-42c8-adc5-33282bef3ae0",
    "sourceNames": [
      {
        "sourceFileName": "VO_EQ\\VO_paimon\\vo_EQHDJ301_20_paimon_11.wem",
        "rate": 1.0,
        "avatarName": "",
        "emotion": ""
      }
    ]
  },
  "947ef3dd-ec6c-49d1-bb6c-0c55320d8f87": {
    "guid": "947ef3dd-ec6c-49d1-bb6c-0c55320d8f87",
    "playRate": 1.0,
    "gameTrigger": "Dialog",
    "gameTriggerArgs": 401391057,
    "personalConfig": 2,
    "parentID": "880e9b46-7991-42c8-adc5-33282bef3ae0",
    "sourceNames": [
      {
        "sourceFileName": "VO_EQ\\VO_xianyun\\vo_EQHDJ301_20_xianyun_27.wem",
        "rate": 1.0,
        "avatarName": "",
        "emotion": ""
      }
    ]
  },
  "98817191-ba78-455f-abd9-43a12d5f13bb": {
    "guid": "98817191-ba78-455f-abd9-43a12d5f13bb",
    "playRate": 1.0,
    "gameTrigger": "Dialog",
    "gameTriggerArgs": 401391008,
    "personalConfig": 2,
    "parentID": "880e9b46-7991-42c8-adc5-33282bef3ae0",
    "sourceNames": [
      {
        "sourceFileName": "VO_EQ\\VO_paimon\\vo_EQHDJ301_20_paimon_04.wem",
        "rate": 1.0,
        "avatarName": "",
        "emotion": ""
      }
    ]
  },
  "9a2a3292-d2d4-49a8-9f65-f58b4124508c": {
    "guid": "9a2a3292-d2d4-49a8-9f65-f58b4124508c",
    "playRate": 1.0,
    "gameTrigger": "Dialog",
    "gameTriggerArgs": 401391011,
    "personalConfig": 2,
    "parentID": "880e9b46-7991-42c8-adc5-33282bef3ae0",
    "sourceNames": [
      {
        "sourceFileName": "VO_EQ\\VO_xianyun\\vo_EQHDJ301_20_xianyun_05.wem",
        "rate": 1.0,
        "avatarName": "",
        "emotion": ""
      }
    ]
  },
  "a0457a20-9452-4ebc-8373-732969ba4aa4": {
    "guid": "a0457a20-9452-4ebc-8373-732969ba4aa4",
    "playRate": 1.0,
    "gameTrigger": "Dialog",
    "gameTriggerArgs": 401391020,
    "personalConfig": 2,
    "parentID": "880e9b46-7991-42c8-adc5-33282bef3ae0",
    "sourceNames": [
      {
        "sourceFileName": "VO_EQ\\VO_xianyun\\vo_EQHDJ301_20_xianyun_10.wem",
        "rate": 1.0,
        "avatarName": "",
        "emotion": ""
      }
    ]
  },
  "a3014e47-b54e-469f-8ce5-4472c8e157b3": {
    "guid": "a3014e47-b54e-469f-8ce5-4472c8e157b3",
    "playRate": 1.0,
    "gameTrigger": "Dialog",
    "gameTriggerArgs": 401391012,
    "personalConfig": 2,
    "parentID": "880e9b46-7991-42c8-adc5-33282bef3ae0",
    "sourceNames": [
      {
        "sourceFileName": "VO_EQ\\VO_paimon\\vo_EQHDJ301_20_paimon_05.wem",
        "rate": 1.0,
        "avatarName": "",
        "emotion": ""
      }
    ]
  },
  "a60248df-5ea7-4664-a2fb-efd0365cabdc": {
    "guid": "a60248df-5ea7-4664-a2fb-efd0365cabdc",
    "playRate": 1.0,
    "gameTrigger": "Dialog",
    "gameTriggerArgs": 401391016,
    "personalConfig": 2,
    "parentID": "880e9b46-7991-42c8-adc5-33282bef3ae0",
    "sourceNames": [
      {
        "sourceFileName": "VO_EQ\\VO_xianyun\\vo_EQHDJ301_20_xianyun_07.wem",
        "rate": 1.0,
        "avatarName": "",
        "emotion": ""
      }
    ]
  },
  "a9db483d-ec6e-4670-b0a9-d9b655dc9ef6": {
    "guid": "a9db483d-ec6e-4670-b0a9-d9b655dc9ef6",
    "playRate": 1.0,
    "gameTrigger": "Dialog",
    "gameTriggerArgs": 401391050,
    "personalConfig": 2,
    "parentID": "880e9b46-7991-42c8-adc5-33282bef3ae0",
    "sourceNames": [
      {
        "sourceFileName": "VO_EQ\\VO_NPC\\vo_EQHDJ301_20_charbonnier_05.wem",
        "rate": 1.0,
        "avatarName": "",
        "emotion": ""
      }
    ]
  },
  "aa853275-37f5-4feb-9c72-2b5139fd097b": {
    "guid": "aa853275-37f5-4feb-9c72-2b5139fd097b",
    "playRate": 1.0,
    "gameTrigger": "Dialog",
    "gameTriggerArgs": 401391036,
    "personalConfig": 2,
    "NJKDHJOHKCM": 1,
    "parentID": "880e9b46-7991-42c8-adc5-33282bef3ae0",
    "sourceNames": [
      {
        "sourceFileName": "VO_EQ\\VO_xianyun\\vo_EQHDJ301_20_xianyun_16.wem",
        "rate": 1.0,
        "avatarName": "",
        "emotion": ""
      }
    ]
  },
  "ac2b6874-dc94-4692-9bde-53f0e1ecee2d": {
    "guid": "ac2b6874-dc94-4692-9bde-53f0e1ecee2d",
    "playRate": 1.0,
    "gameTrigger": "Dialog",
    "gameTriggerArgs": 401391083,
    "personalConfig": 2,
    "parentID": "880e9b46-7991-42c8-adc5-33282bef3ae0",
    "sourceNames": [
      {
        "sourceFileName": "VO_EQ\\VO_xianyun\\vo_EQHDJ301_20_xianyun_42.wem",
        "rate": 1.0,
        "avatarName": "",
        "emotion": ""
      }
    ]
  },
  "aebe93fd-7c95-40a6-8c37-db1af04814c1": {
    "guid": "aebe93fd-7c95-40a6-8c37-db1af04814c1",
    "playRate": 1.0,
    "gameTrigger": "Dialog",
    "gameTriggerArgs": 401391044,
    "personalConfig": 2,
    "parentID": "880e9b46-7991-42c8-adc5-33282bef3ae0",
    "sourceNames": [
      {
        "sourceFileName": "VO_EQ\\VO_xianyun\\vo_EQHDJ301_20_xianyun_20.wem",
        "rate": 1.0,
        "avatarName": "",
        "emotion": ""
      }
    ]
  },
  "b0593fc0-3774-44ed-be07-c986db04ef30": {
    "guid": "b0593fc0-3774-44ed-be07-c986db04ef30",
    "playRate": 1.0,
    "gameTrigger": "Dialog",
    "gameTriggerArgs": 401391047,
    "personalConfig": 2,
    "parentID": "880e9b46-7991-42c8-adc5-33282bef3ae0",
    "sourceNames": [
      {
        "sourceFileName": "VO_EQ\\VO_xianyun\\vo_EQHDJ301_20_xianyun_22.wem",
        "rate": 1.0,
        "avatarName": "",
        "emotion": ""
      }
    ]
  },
  "b2f62295-fbc7-433a-bb94-6a495fb5f74d": {
    "guid": "b2f62295-fbc7-433a-bb94-6a495fb5f74d",
    "playRate": 1.0,
    "gameTrigger": "Dialog",
    "gameTriggerArgs": 401391010,
    "personalConfig": 2,
    "parentID": "880e9b46-7991-42c8-adc5-33282bef3ae0",
    "sourceNames": [
      {
        "sourceFileName": "VO_EQ\\VO_xianyun\\vo_EQHDJ301_20_xianyun_04.wem",
        "rate": 1.0,
        "avatarName": "",
        "emotion": ""
      }
    ]
  },
  "bb1bd925-e09e-4b96-aa29-8ec7613857bb": {
    "guid": "bb1bd925-e09e-4b96-aa29-8ec7613857bb",
    "playRate": 1.0,
    "gameTrigger": "Dialog",
    "gameTriggerArgs": 401391007,
    "personalConfig": 2,
    "parentID": "880e9b46-7991-42c8-adc5-33282bef3ae0",
    "sourceNames": [
      {
        "sourceFileName": "VO_EQ\\VO_paimon\\vo_EQHDJ301_20_paimon_03.wem",
        "rate": 1.0,
        "avatarName": "",
        "emotion": ""
      }
    ]
  },
  "bc70ff71-22fc-4424-b13b-3eeb5d6bed7b": {
    "guid": "bc70ff71-22fc-4424-b13b-3eeb5d6bed7b",
    "playRate": 1.0,
    "gameTrigger": "Dialog",
    "gameTriggerArgs": 401391085,
    "personalConfig": 2,
    "parentID": "880e9b46-7991-42c8-adc5-33282bef3ae0",
    "sourceNames": [
      {
        "sourceFileName": "VO_EQ\\VO_paimon\\vo_EQHDJ301_20_paimon_22.wem",
        "rate": 1.0,
        "avatarName": "",
        "emotion": ""
      }
    ]
  },
  "bfacfe3e-2c14-428c-b40e-b2266c3295de": {
    "guid": "bfacfe3e-2c14-428c-b40e-b2266c3295de",
    "playRate": 1.0,
    "gameTrigger": "Dialog",
    "gameTriggerArgs": 401391079,
    "personalConfig": 2,
    "parentID": "880e9b46-7991-42c8-adc5-33282bef3ae0",
    "sourceNames": [
      {
        "sourceFileName": "VO_EQ\\VO_xianyun\\vo_EQHDJ301_20_xianyun_40.wem",
        "rate": 1.0,
        "avatarName": "",
        "emotion": ""
      }
    ]
  },
  "c1ff0c8b-5dde-495b-b5a0-57e39d989ee7": {
    "guid": "c1ff0c8b-5dde-495b-b5a0-57e39d989ee7",
    "playRate": 1.0,
    "gameTrigger": "Dialog",
    "gameTriggerArgs": 401391093,
    "personalConfig": 2,
    "parentID": "880e9b46-7991-42c8-adc5-33282bef3ae0",
    "sourceNames": [
      {
        "sourceFileName": "VO_EQ\\VO_paimon\\vo_EQHDJ301_20_paimon_28.wem",
        "rate": 1.0,
        "avatarName": "",
        "emotion": ""
      }
    ]
  },
  "c405c9e9-89d6-4d4d-b048-c46bfb5669d3": {
    "guid": "c405c9e9-89d6-4d4d-b048-c46bfb5669d3",
    "playRate": 1.0,
    "gameTrigger": "Dialog",
    "gameTriggerArgs": 401391072,
    "personalConfig": 2,
    "parentID": "880e9b46-7991-42c8-adc5-33282bef3ae0",
    "sourceNames": [
      {
        "sourceFileName": "VO_EQ\\VO_xianyun\\vo_EQHDJ301_20_xianyun_36.wem",
        "rate": 1.0,
        "avatarName": "",
        "emotion": ""
      }
    ]
  },
  "c4443b0e-86dc-48f6-be34-d3ef785de9a4": {
    "guid": "c4443b0e-86dc-48f6-be34-d3ef785de9a4",
    "playRate": 1.0,
    "gameTrigger": "Dialog",
    "gameTriggerArgs": 401391073,
    "personalConfig": 2,
    "parentID": "880e9b46-7991-42c8-adc5-33282bef3ae0",
    "sourceNames": [
      {
        "sourceFileName": "VO_EQ\\VO_xianyun\\vo_EQHDJ301_20_xianyun_37.wem",
        "rate": 1.0,
        "avatarName": "",
        "emotion": ""
      }
    ]
  },
  "c8579b89-7256-4cef-9412-1b9399d2f8c0": {
    "guid": "c8579b89-7256-4cef-9412-1b9399d2f8c0",
    "playRate": 1.0,
    "gameTrigger": "Dialog",
    "gameTriggerArgs": 401391023,
    "personalConfig": 2,
    "parentID": "880e9b46-7991-42c8-adc5-33282bef3ae0",
    "sourceNames": [
      {
        "sourceFileName": "VO_EQ\\VO_paimon\\vo_EQHDJ301_20_paimon_09.wem",
        "rate": 1.0,
        "avatarName": "",
        "emotion": ""
      }
    ]
  },
  "cf34cb8c-31ee-4eb9-9925-dd8d24b2e844": {
    "guid": "cf34cb8c-31ee-4eb9-9925-dd8d24b2e844",
    "playRate": 1.0,
    "gameTrigger": "Dialog",
    "gameTriggerArgs": 401391045,
    "personalConfig": 2,
    "parentID": "880e9b46-7991-42c8-adc5-33282bef3ae0",
    "sourceNames": [
      {
        "sourceFileName": "VO_EQ\\VO_NPC\\vo_EQHDJ301_20_charbonnier_03.wem",
        "rate": 1.0,
        "avatarName": "",
        "emotion": ""
      }
    ]
  },
  "d0fd87a0-a3c2-4c05-8aa2-eba71fff32ba": {
    "guid": "d0fd87a0-a3c2-4c05-8aa2-eba71fff32ba",
    "playRate": 1.0,
    "gameTrigger": "Dialog",
    "gameTriggerArgs": 401391061,
    "personalConfig": 2,
    "parentID": "880e9b46-7991-42c8-adc5-33282bef3ae0",
    "sourceNames": [
      {
        "sourceFileName": "VO_EQ\\VO_xianyun\\vo_EQHDJ301_20_xianyun_29.wem",
        "rate": 1.0,
        "avatarName": "",
        "emotion": ""
      }
    ]
  },
  "d15d53b4-17c4-4aff-bdc6-ffbd4ef64439": {
    "guid": "d15d53b4-17c4-4aff-bdc6-ffbd4ef64439",
    "playRate": 1.0,
    "gameTrigger": "Dialog",
    "gameTriggerArgs": 401391030,
    "personalConfig": 2,
    "parentID": "880e9b46-7991-42c8-adc5-33282bef3ae0",
    "sourceNames": [
      {
        "sourceFileName": "VO_EQ\\VO_xianyun\\vo_EQHDJ301_20_xianyun_13.wem",
        "rate": 1.0,
        "avatarName": "",
        "emotion": ""
      }
    ]
  },
  "d60f6ed3-158f-4cd9-a4db-080e3dd6cd1f": {
    "guid": "d60f6ed3-158f-4cd9-a4db-080e3dd6cd1f",
    "playRate": 1.0,
    "gameTrigger": "Dialog",
    "gameTriggerArgs": 401391035,
    "personalConfig": 2,
    "parentID": "880e9b46-7991-42c8-adc5-33282bef3ae0",
    "sourceNames": [
      {
        "sourceFileName": "VO_EQ\\VO_NPC\\vo_EQHDJ301_20_fenglian_04.wem",
        "rate": 1.0,
        "avatarName": "",
        "emotion": ""
      }
    ]
  },
  "db4a832a-cd99-4e74-ae6c-c894714fb085": {
    "guid": "db4a832a-cd99-4e74-ae6c-c894714fb085",
    "playRate": 1.0,
    "gameTrigger": "Dialog",
    "gameTriggerArgs": 401391009,
    "personalConfig": 2,
    "parentID": "880e9b46-7991-42c8-adc5-33282bef3ae0",
    "sourceNames": [
      {
        "sourceFileName": "VO_EQ\\VO_xianyun\\vo_EQHDJ301_20_xianyun_03.wem",
        "rate": 1.0,
        "avatarName": "",
        "emotion": ""
      }
    ]
  },
  "dd3c51e3-4e0d-4706-9c9d-c87e71736359": {
    "guid": "dd3c51e3-4e0d-4706-9c9d-c87e71736359",
    "playRate": 1.0,
    "gameTrigger": "Dialog",
    "gameTriggerArgs": 401391081,
    "personalConfig": 2,
    "parentID": "880e9b46-7991-42c8-adc5-33282bef3ae0",
    "sourceNames": [
      {
        "sourceFileName": "VO_EQ\\VO_xianyun\\vo_EQHDJ301_20_xianyun_41.wem",
        "rate": 1.0,
        "avatarName": "",
        "emotion": ""
      }
    ]
  },
  "e12ad549-a0a3-4e73-b69d-7ac662540f5b": {
    "guid": "e12ad549-a0a3-4e73-b69d-7ac662540f5b",
    "playRate": 1.0,
    "gameTrigger": "Dialog",
    "gameTriggerArgs": 401391028,
    "personalConfig": 2,
    "parentID": "880e9b46-7991-42c8-adc5-33282bef3ae0",
    "sourceNames": [
      {
        "sourceFileName": "VO_EQ\\VO_NPC\\vo_EQHDJ301_20_fenglian_01.wem",
        "rate": 1.0,
        "avatarName": "",
        "emotion": ""
      }
    ]
  },
  "e510de26-42cf-4190-8631-83a01ab5a8f1": {
    "guid": "e510de26-42cf-4190-8631-83a01ab5a8f1",
    "playRate": 1.0,
    "gameTrigger": "Dialog",
    "gameTriggerArgs": 401391076,
    "personalConfig": 2,
    "parentID": "880e9b46-7991-42c8-adc5-33282bef3ae0",
    "sourceNames": [
      {
        "sourceFileName": "VO_EQ\\VO_paimon\\vo_EQHDJ301_20_paimon_18.wem",
        "rate": 1.0,
        "avatarName": "",
        "emotion": ""
      }
    ]
  },
  "e6496f66-ec29-49f1-af19-fb5a9517acf3": {
    "guid": "e6496f66-ec29-49f1-af19-fb5a9517acf3",
    "playRate": 1.0,
    "gameTrigger": "Dialog",
    "gameTriggerArgs": 401391046,
    "personalConfig": 2,
    "parentID": "880e9b46-7991-42c8-adc5-33282bef3ae0",
    "sourceNames": [
      {
        "sourceFileName": "VO_EQ\\VO_xianyun\\vo_EQHDJ301_20_xianyun_21.wem",
        "rate": 1.0,
        "avatarName": "",
        "emotion": ""
      }
    ]
  },
  "eb52ee32-a889-44dd-97bb-9e1c888e5510": {
    "guid": "eb52ee32-a889-44dd-97bb-9e1c888e5510",
    "playRate": 1.0,
    "gameTrigger": "Dialog",
    "gameTriggerArgs": 401391082,
    "personalConfig": 2,
    "parentID": "880e9b46-7991-42c8-adc5-33282bef3ae0",
    "sourceNames": [
      {
        "sourceFileName": "VO_EQ\\VO_paimon\\vo_EQHDJ301_20_paimon_20.wem",
        "rate": 1.0,
        "avatarName": "",
        "emotion": ""
      }
    ]
  },
  "f07b499b-5e4a-4f53-b0ed-14d59acf97c8": {
    "guid": "f07b499b-5e4a-4f53-b0ed-14d59acf97c8",
    "playRate": 1.0,
    "gameTrigger": "Dialog",
    "gameTriggerArgs": 401391091,
    "personalConfig": 2,
    "parentID": "880e9b46-7991-42c8-adc5-33282bef3ae0",
    "sourceNames": [
      {
        "sourceFileName": "VO_EQ\\VO_paimon\\vo_EQHDJ301_20_paimon_27.wem",
        "rate": 1.0,
        "avatarName": "",
        "emotion": ""
      }
    ]
  },
  "f14f557b-748b-44c2-931f-95ab29867e2d": {
    "guid": "f14f557b-748b-44c2-931f-95ab29867e2d",
    "playRate": 1.0,
    "gameTrigger": "Dialog",
    "gameTriggerArgs": 401391002,
    "personalConfig": 2,
    "parentID": "880e9b46-7991-42c8-adc5-33282bef3ae0",
    "sourceNames": [
      {
        "sourceFileName": "VO_EQ\\VO_xianyun\\vo_EQHDJ301_20_xianyun_01.wem",
        "rate": 1.0,
        "avatarName": "",
        "emotion": ""
      }
    ]
  },
  "f3cf6ea3-e75b-4276-979b-27c329acf67e": {
    "guid": "f3cf6ea3-e75b-4276-979b-27c329acf67e",
    "playRate": 1.0,
    "gameTrigger": "Dialog",
    "gameTriggerArgs": 401391084,
    "personalConfig": 2,
    "parentID": "880e9b46-7991-42c8-adc5-33282bef3ae0",
    "sourceNames": [
      {
        "sourceFileName": "VO_EQ\\VO_paimon\\vo_EQHDJ301_20_paimon_21.wem",
        "rate": 1.0,
        "avatarName": "",
        "emotion": ""
      }
    ]
  },
  "f56c1aa6-96c4-49bf-bb91-42f2a38b6f71": {
    "guid": "f56c1aa6-96c4-49bf-bb91-42f2a38b6f71",
    "playRate": 1.0,
    "gameTrigger": "Dialog",
    "gameTriggerArgs": 401391021,
    "personalConfig": 2,
    "parentID": "880e9b46-7991-42c8-adc5-33282bef3ae0",
    "sourceNames": [
      {
        "sourceFileName": "VO_EQ\\VO_xianyun\\vo_EQHDJ301_20_xianyun_11.wem",
        "rate": 1.0,
        "avatarName": "",
        "emotion": ""
      }
    ]
  },
  "f76d5da8-5530-418e-8fbe-0bf0860f98ed": {
    "guid": "f76d5da8-5530-418e-8fbe-0bf0860f98ed",
    "playRate": 1.0,
    "gameTrigger": "Dialog",
    "gameTriggerArgs": 401391029,
    "personalConfig": 2,
    "NJKDHJOHKCM": 1,
    "parentID": "880e9b46-7991-42c8-adc5-33282bef3ae0",
    "sourceNames": [
      {
        "sourceFileName": "VO_EQ\\VO_xianyun\\vo_EQHDJ301_20_xianyun_12.wem",
        "rate": 1.0,
        "avatarName": "",
        "emotion": ""
      }
    ]
  },
  "f77eb5ae-f4eb-424d-8b43-ab4c5f50fe87": {
    "guid": "f77eb5ae-f4eb-424d-8b43-ab4c5f50fe87",
    "playRate": 1.0,
    "gameTrigger": "Dialog",
    "gameTriggerArgs": 401391032,
    "personalConfig": 2,
    "NJKDHJOHKCM": 1,
    "parentID": "880e9b46-7991-42c8-adc5-33282bef3ae0",
    "sourceNames": [
      {
        "sourceFileName": "VO_EQ\\VO_xianyun\\vo_EQHDJ301_20_xianyun_14.wem",
        "rate": 1.0,
        "avatarName": "",
        "emotion": ""
      }
    ]
  },
  "ff661b3f-67e4-4706-8483-8898c41b9fe4": {
    "guid": "ff661b3f-67e4-4706-8483-8898c41b9fe4",
    "playRate": 1.0,
    "gameTrigger": "Dialog",
    "gameTriggerArgs": 401391049,
    "personalConfig": 2,
    "parentID": "880e9b46-7991-42c8-adc5-33282bef3ae0",
    "sourceNames": [
      {
        "sourceFileName": "VO_EQ\\VO_xianyun\\vo_EQHDJ301_20_xianyun_23.wem",
        "rate": 1.0,
        "avatarName": "",
        "emotion": ""
      }
    ]
  }
}