{
  "42ce41b1-d31c-40c1-80d4-53644546812d": {
    "guid": "42ce41b1-d31c-40c1-80d4-53644546812d",
    "playRate": 1.0,
    "gameTrigger": "Dialog",
    "gameTriggerArgs": 715110305,
    "personalConfig": 2,
    "parentID": "8fb0c934-224e-480e-ad0d-c96d14b61407",
    "sourceNames": [
      {
        "sourceFileName": "VO_freetalk\\VO_yunjin\\vo_dialog_EQHDJ203_yunjin_03.wem",
        "rate": 1.0,
        "avatarName": "",
        "emotion": ""
      }
    ]
  },
  "481dfb42-f6de-4c16-9fc2-fb4bee553d82": {
    "guid": "481dfb42-f6de-4c16-9fc2-fb4bee553d82",
    "playRate": 1.0,
    "gameTrigger": "Dialog",
    "gameTriggerArgs": 400932301,
    "personalConfig": 2,
    "parentID": "8fb0c934-224e-480e-ad0d-c96d14b61407",
    "sourceNames": [
      {
        "sourceFileName": "VO_freetalk\\VO_yunjin\\vo_dialog_EQHDJ202_yunjin_01.wem",
        "rate": 1.0,
        "avatarName": "",
        "emotion": ""
      }
    ]
  },
  "49ad8011-00e9-4a3d-9cfd-c3de9d1de20a": {
    "guid": "49ad8011-00e9-4a3d-9cfd-c3de9d1de20a",
    "playRate": 1.0,
    "gameTrigger": "Dialog",
    "gameTriggerArgs": 715110302,
    "personalConfig": 2,
    "parentID": "8fb0c934-224e-480e-ad0d-c96d14b61407",
    "sourceNames": [
      {
        "sourceFileName": "VO_freetalk\\VO_yunjin\\vo_dialog_EQHDJ203_yunjin_01.wem",
        "rate": 1.0,
        "avatarName": "",
        "emotion": ""
      }
    ]
  },
  "6603301e-8cb2-41d0-9562-e4dc9aca7206": {
    "guid": "6603301e-8cb2-41d0-9562-e4dc9aca7206",
    "playRate": 1.0,
    "gameTrigger": "Dialog",
    "gameTriggerArgs": 110150702,
    "personalConfig": 2,
    "parentID": "8fb0c934-224e-480e-ad0d-c96d14b61407",
    "sourceNames": [
      {
        "sourceFileName": "VO_freetalk\\VO_yunjin\\vo_dialog_SHLQ004_yunjin_02.wem",
        "rate": 1.0,
        "avatarName": "",
        "emotion": ""
      }
    ]
  },
  "78940d86-a657-4fbd-8cc3-969924b7bf87": {
    "guid": "78940d86-a657-4fbd-8cc3-969924b7bf87",
    "playRate": 1.0,
    "gameTrigger": "Dialog",
    "gameTriggerArgs": 400932303,
    "personalConfig": 2,
    "parentID": "8fb0c934-224e-480e-ad0d-c96d14b61407",
    "sourceNames": [
      {
        "sourceFileName": "VO_freetalk\\VO_yunjin\\vo_dialog_EQHDJ202_yunjin_02.wem",
        "rate": 1.0,
        "avatarName": "",
        "emotion": ""
      }
    ]
  },
  "80b10ff1-b26c-479c-8b8d-44ef909a59b3": {
    "guid": "80b10ff1-b26c-479c-8b8d-44ef909a59b3",
    "playRate": 1.0,
    "gameTrigger": "Dialog",
    "gameTriggerArgs": 715110304,
    "personalConfig": 2,
    "parentID": "8fb0c934-224e-480e-ad0d-c96d14b61407",
    "sourceNames": [
      {
        "sourceFileName": "VO_freetalk\\VO_yunjin\\vo_dialog_EQHDJ203_yunjin_02.wem",
        "rate": 1.0,
        "avatarName": "",
        "emotion": ""
      }
    ]
  },
  "8f996775-92ae-4268-b38f-75e77024bf49": {
    "guid": "8f996775-92ae-4268-b38f-75e77024bf49",
    "playRate": 1.0,
    "gameTrigger": "Dialog",
    "gameTriggerArgs": 715110307,
    "personalConfig": 2,
    "parentID": "8fb0c934-224e-480e-ad0d-c96d14b61407",
    "sourceNames": [
      {
        "sourceFileName": "VO_freetalk\\VO_yunjin\\vo_dialog_EQHDJ203_yunjin_04.wem",
        "rate": 1.0,
        "avatarName": "",
        "emotion": ""
      }
    ]
  },
  "9fa22098-4dc7-4c93-b215-65fe10e9004f": {
    "guid": "9fa22098-4dc7-4c93-b215-65fe10e9004f",
    "playRate": 1.0,
    "gameTrigger": "Dialog",
    "gameTriggerArgs": 110150701,
    "personalConfig": 2,
    "parentID": "8fb0c934-224e-480e-ad0d-c96d14b61407",
    "sourceNames": [
      {
        "sourceFileName": "VO_freetalk\\VO_yunjin\\vo_dialog_SHLQ004_yunjin_01.wem",
        "rate": 1.0,
        "avatarName": "",
        "emotion": ""
      }
    ]
  },
  "b6c10095-8353-4e05-a4a3-2779cba7277c": {
    "guid": "b6c10095-8353-4e05-a4a3-2779cba7277c",
    "playRate": 1.0,
    "gameTrigger": "Dialog",
    "gameTriggerArgs": 110150703,
    "personalConfig": 2,
    "parentID": "8fb0c934-224e-480e-ad0d-c96d14b61407",
    "sourceNames": [
      {
        "sourceFileName": "VO_freetalk\\VO_yunjin\\vo_dialog_SHLQ004_yunjin_03.wem",
        "rate": 1.0,
        "avatarName": "",
        "emotion": ""
      }
    ]
  }
}