{
  "600aa8d0-ef09-4374-9d1f-9bfa3c2aeab8": {
    "guid": "600aa8d0-ef09-4374-9d1f-9bfa3c2aeab8",
    "playRate": 1.0,
    "gameTrigger": "Dialog",
    "gameTriggerArgs": 401242006,
    "personalConfig": 2,
    "parentID": "7a85e072-3e7e-4514-a989-0272bb250af7",
    "sourceNames": [
      {
        "sourceFileName": "VO_EQ\\VO_mika\\vo_SGEQ002_12_mika_04.wem",
        "rate": 1.0,
        "avatarName": "",
        "emotion": ""
      }
    ]
  },
  "73f82d3b-0242-4031-842f-5cdbd6dbedf8": {
    "guid": "73f82d3b-0242-4031-842f-5cdbd6dbedf8",
    "playRate": 1.0,
    "gameTrigger": "Dialog",
    "gameTriggerArgs": 401242003,
    "personalConfig": 2,
    "parentID": "7a85e072-3e7e-4514-a989-0272bb250af7",
    "sourceNames": [
      {
        "sourceFileName": "VO_EQ\\VO_mika\\vo_SGEQ002_12_mika_02.wem",
        "rate": 1.0,
        "avatarName": "",
        "emotion": ""
      }
    ]
  },
  "9405e71f-fe60-43d9-95ee-3fb10fe4ec91": {
    "guid": "9405e71f-fe60-43d9-95ee-3fb10fe4ec91",
    "playRate": 1.0,
    "gameTrigger": "Dialog",
    "gameTriggerArgs": 401242012,
    "personalConfig": 2,
    "parentID": "7a85e072-3e7e-4514-a989-0272bb250af7",
    "sourceNames": [
      {
        "sourceFileName": "VO_EQ\\VO_mika\\vo_SGEQ002_12_mika_07.wem",
        "rate": 1.0,
        "avatarName": "",
        "emotion": ""
      }
    ]
  },
  "aa290c3c-2c36-4342-a8bb-202cf06f4da1": {
    "guid": "aa290c3c-2c36-4342-a8bb-202cf06f4da1",
    "playRate": 1.0,
    "gameTrigger": "Dialog",
    "gameTriggerArgs": 401242002,
    "personalConfig": 2,
    "parentID": "7a85e072-3e7e-4514-a989-0272bb250af7",
    "sourceNames": [
      {
        "sourceFileName": "VO_EQ\\VO_xingqiu\\vo_SGEQ002_12_xingqiu_01.wem",
        "rate": 1.0,
        "avatarName": "",
        "emotion": ""
      }
    ]
  },
  "b02b4744-5459-4e78-b97f-b011061af053": {
    "guid": "b02b4744-5459-4e78-b97f-b011061af053",
    "playRate": 1.0,
    "gameTrigger": "Dialog",
    "gameTriggerArgs": 401242005,
    "personalConfig": 2,
    "parentID": "7a85e072-3e7e-4514-a989-0272bb250af7",
    "sourceNames": [
      {
        "sourceFileName": "VO_EQ\\VO_mika\\vo_SGEQ002_12_mika_03.wem",
        "rate": 1.0,
        "avatarName": "",
        "emotion": ""
      }
    ]
  },
  "bfa0630b-4ee0-47ef-b2c3-2506527591b7": {
    "guid": "bfa0630b-4ee0-47ef-b2c3-2506527591b7",
    "playRate": 1.0,
    "gameTrigger": "Dialog",
    "gameTriggerArgs": 401242011,
    "personalConfig": 2,
    "parentID": "7a85e072-3e7e-4514-a989-0272bb250af7",
    "sourceNames": [
      {
        "sourceFileName": "VO_EQ\\VO_xingqiu\\vo_SGEQ002_12_xingqiu_05.wem",
        "rate": 1.0,
        "avatarName": "",
        "emotion": ""
      }
    ]
  },
  "c6993b32-2551-4521-95ba-450c32bd7879": {
    "guid": "c6993b32-2551-4521-95ba-450c32bd7879",
    "playRate": 1.0,
    "gameTrigger": "Dialog",
    "gameTriggerArgs": 401242001,
    "personalConfig": 2,
    "parentID": "7a85e072-3e7e-4514-a989-0272bb250af7",
    "sourceNames": [
      {
        "sourceFileName": "VO_EQ\\VO_mika\\vo_SGEQ002_12_mika_01.wem",
        "rate": 1.0,
        "avatarName": "",
        "emotion": ""
      }
    ]
  },
  "ee5885b1-8ab7-41be-b8f6-099410b7fe65": {
    "guid": "ee5885b1-8ab7-41be-b8f6-099410b7fe65",
    "playRate": 1.0,
    "gameTrigger": "Dialog",
    "gameTriggerArgs": 401242008,
    "personalConfig": 2,
    "parentID": "7a85e072-3e7e-4514-a989-0272bb250af7",
    "sourceNames": [
      {
        "sourceFileName": "VO_EQ\\VO_xingqiu\\vo_SGEQ002_12_xingqiu_04.wem",
        "rate": 1.0,
        "avatarName": "",
        "emotion": ""
      }
    ]
  },
  "f8b397a0-8e79-435b-88cc-6bf30c994953": {
    "guid": "f8b397a0-8e79-435b-88cc-6bf30c994953",
    "playRate": 1.0,
    "gameTrigger": "Dialog",
    "gameTriggerArgs": 401242007,
    "personalConfig": 2,
    "parentID": "7a85e072-3e7e-4514-a989-0272bb250af7",
    "sourceNames": [
      {
        "sourceFileName": "VO_EQ\\VO_xingqiu\\vo_SGEQ002_12_xingqiu_03.wem",
        "rate": 1.0,
        "avatarName": "",
        "emotion": ""
      }
    ]
  },
  "fdab94b8-e8e4-4831-97c5-073da50f8128": {
    "guid": "fdab94b8-e8e4-4831-97c5-073da50f8128",
    "playRate": 1.0,
    "gameTrigger": "Dialog",
    "gameTriggerArgs": 401242004,
    "personalConfig": 2,
    "parentID": "7a85e072-3e7e-4514-a989-0272bb250af7",
    "sourceNames": [
      {
        "sourceFileName": "VO_EQ\\VO_xingqiu\\vo_SGEQ002_12_xingqiu_02.wem",
        "rate": 1.0,
        "avatarName": "",
        "emotion": ""
      }
    ]
  },
  "fe641c62-e904-4197-9c3f-500ae387e23d": {
    "guid": "fe641c62-e904-4197-9c3f-500ae387e23d",
    "playRate": 1.0,
    "gameTrigger": "Dialog",
    "gameTriggerArgs": 401242009,
    "personalConfig": 2,
    "NJKDHJOHKCM": 1,
    "parentID": "7a85e072-3e7e-4514-a989-0272bb250af7",
    "sourceNames": [
      {
        "sourceFileName": "VO_EQ\\VO_mika\\vo_SGEQ002_12_mika_05.wem",
        "rate": 1.0,
        "avatarName": "",
        "emotion": ""
      }
    ]
  }
}