{
  "019f955d-3393-4d3a-aa28-6f3bc86396ea": {
    "guid": "019f955d-3393-4d3a-aa28-6f3bc86396ea",
    "playRate": 1.0,
    "gameTrigger": "Dialog",
    "gameTriggerArgs": 400290234,
    "personalConfig": 2,
    "parentID": "89772d65-ee95-4a9c-ba4d-f56799aef73d",
    "sourceNames": [
      {
        "sourceFileName": "VO_EQ\\VO_NPC\\vo_EQXS105_3_joserf_06.wem",
        "rate": 1.0,
        "avatarName": "",
        "emotion": ""
      }
    ]
  },
  "04759834-d47c-4063-9722-8153cc69e53c": {
    "guid": "04759834-d47c-4063-9722-8153cc69e53c",
    "playRate": 1.0,
    "gameTrigger": "Dialog",
    "gameTriggerArgs": 400290230,
    "personalConfig": 2,
    "parentID": "89772d65-ee95-4a9c-ba4d-f56799aef73d",
    "sourceNames": [
      {
        "sourceFileName": "VO_EQ\\VO_paimon\\vo_EQXS105_3_paimon_06.wem",
        "rate": 1.0,
        "avatarName": "",
        "emotion": ""
      }
    ]
  },
  "04d96f6e-fb94-4465-b239-44289966a317": {
    "guid": "04d96f6e-fb94-4465-b239-44289966a317",
    "playRate": 1.0,
    "gameTrigger": "Dialog",
    "gameTriggerArgs": 400290233,
    "personalConfig": 2,
    "parentID": "89772d65-ee95-4a9c-ba4d-f56799aef73d",
    "sourceNames": [
      {
        "sourceFileName": "VO_EQ\\VO_NPC\\vo_EQXS105_3_joserf_05.wem",
        "rate": 1.0,
        "avatarName": "",
        "emotion": ""
      }
    ]
  },
  "0b79cb8a-3d99-4f42-8bb7-1fcd07168585": {
    "guid": "0b79cb8a-3d99-4f42-8bb7-1fcd07168585",
    "playRate": 1.0,
    "gameTrigger": "Dialog",
    "gameTriggerArgs": 400290232,
    "personalConfig": 2,
    "parentID": "89772d65-ee95-4a9c-ba4d-f56799aef73d",
    "sourceNames": [
      {
        "sourceFileName": "VO_EQ\\VO_NPC\\vo_EQXS105_3_joserf_04.wem",
        "rate": 1.0,
        "avatarName": "",
        "emotion": ""
      }
    ]
  },
  "0e896af9-a6f9-4294-8a91-4629a43fc1ee": {
    "guid": "0e896af9-a6f9-4294-8a91-4629a43fc1ee",
    "playRate": 1.0,
    "gameTrigger": "Dialog",
    "gameTriggerArgs": 400290222,
    "personalConfig": 2,
    "parentID": "89772d65-ee95-4a9c-ba4d-f56799aef73d",
    "sourceNames": [
      {
        "sourceFileName": "VO_EQ\\VO_bennett\\vo_EQXS105_3_bennett_04.wem",
        "rate": 1.0,
        "avatarName": "",
        "emotion": ""
      }
    ]
  },
  "1a736927-4d4c-4c97-9032-3baf1c8a771c": {
    "guid": "1a736927-4d4c-4c97-9032-3baf1c8a771c",
    "playRate": 1.0,
    "gameTrigger": "Dialog",
    "gameTriggerArgs": 400290237,
    "personalConfig": 2,
    "parentID": "89772d65-ee95-4a9c-ba4d-f56799aef73d",
    "sourceNames": [
      {
        "sourceFileName": "VO_EQ\\VO_bennett\\vo_EQXS105_3_bennett_05.wem",
        "rate": 1.0,
        "avatarName": "",
        "emotion": ""
      }
    ]
  },
  "1b92b187-53b4-4be5-b4e0-303ae8d3d9c3": {
    "guid": "1b92b187-53b4-4be5-b4e0-303ae8d3d9c3",
    "playRate": 1.0,
    "gameTrigger": "Dialog",
    "gameTriggerArgs": 400290251,
    "personalConfig": 2,
    "parentID": "89772d65-ee95-4a9c-ba4d-f56799aef73d",
    "sourceNames": [
      {
        "sourceFileName": "VO_EQ\\VO_NPC\\vo_EQXS105_3_joel_07.wem",
        "rate": 1.0,
        "avatarName": "",
        "emotion": ""
      }
    ]
  },
  "2ca58236-f2d2-451e-966f-d3031dff6e20": {
    "guid": "2ca58236-f2d2-451e-966f-d3031dff6e20",
    "playRate": 1.0,
    "gameTrigger": "Dialog",
    "gameTriggerArgs": 400290256,
    "personalConfig": 2,
    "parentID": "89772d65-ee95-4a9c-ba4d-f56799aef73d",
    "sourceNames": [
      {
        "sourceFileName": "VO_EQ\\VO_NPC\\vo_EQXS105_3_joserf_09.wem",
        "rate": 1.0,
        "avatarName": "",
        "emotion": ""
      }
    ]
  },
  "2cc01662-1630-4d3e-8154-1cf6dcd1fa76": {
    "guid": "2cc01662-1630-4d3e-8154-1cf6dcd1fa76",
    "playRate": 1.0,
    "gameTrigger": "Dialog",
    "gameTriggerArgs": 400290236,
    "personalConfig": 2,
    "parentID": "89772d65-ee95-4a9c-ba4d-f56799aef73d",
    "sourceNames": [
      {
        "sourceFileName": "VO_EQ\\VO_NPC\\vo_EQXS105_3_joserf_07.wem",
        "rate": 1.0,
        "avatarName": "",
        "emotion": ""
      }
    ]
  },
  "2dab1cb5-208e-4c40-be8f-e0567e143cea": {
    "guid": "2dab1cb5-208e-4c40-be8f-e0567e143cea",
    "playRate": 1.0,
    "gameTrigger": "Dialog",
    "gameTriggerArgs": 400290212,
    "personalConfig": 2,
    "parentID": "89772d65-ee95-4a9c-ba4d-f56799aef73d",
    "sourceNames": [
      {
        "sourceFileName": "VO_EQ\\VO_NPC\\vo_EQXS105_3_recklessPallad_01.wem",
        "rate": 1.0,
        "avatarName": "",
        "emotion": ""
      }
    ]
  },
  "2f144e79-ab8e-454f-b434-541a877c7680": {
    "guid": "2f144e79-ab8e-454f-b434-541a877c7680",
    "playRate": 1.0,
    "gameTrigger": "Dialog",
    "gameTriggerArgs": 400290231,
    "personalConfig": 2,
    "parentID": "89772d65-ee95-4a9c-ba4d-f56799aef73d",
    "sourceNames": [
      {
        "sourceFileName": "VO_EQ\\VO_paimon\\vo_EQXS105_3_paimon_07.wem",
        "rate": 1.0,
        "avatarName": "",
        "emotion": ""
      }
    ]
  },
  "342d6062-5fbf-4dd5-94d1-51c5d90e95b9": {
    "guid": "342d6062-5fbf-4dd5-94d1-51c5d90e95b9",
    "playRate": 1.0,
    "gameTrigger": "Dialog",
    "gameTriggerArgs": 400290209,
    "personalConfig": 2,
    "parentID": "89772d65-ee95-4a9c-ba4d-f56799aef73d",
    "sourceNames": [
      {
        "sourceFileName": "VO_EQ\\VO_paimon\\vo_EQXS105_3_paimon_02.wem",
        "rate": 1.0,
        "avatarName": "",
        "emotion": ""
      }
    ]
  },
  "34b4c93d-c227-48c7-a449-4ad49785fda2": {
    "guid": "34b4c93d-c227-48c7-a449-4ad49785fda2",
    "playRate": 1.0,
    "gameTrigger": "Dialog",
    "gameTriggerArgs": 400290273,
    "personalConfig": 2,
    "parentID": "89772d65-ee95-4a9c-ba4d-f56799aef73d",
    "sourceNames": [
      {
        "sourceFileName": "VO_EQ\\VO_paimon\\vo_EQXS105_3_paimon_14.wem",
        "rate": 1.0,
        "avatarName": "",
        "emotion": ""
      }
    ]
  },
  "3a12a1b4-b34d-41e2-86cd-10c26fb85204": {
    "guid": "3a12a1b4-b34d-41e2-86cd-10c26fb85204",
    "playRate": 1.0,
    "gameTrigger": "Dialog",
    "gameTriggerArgs": 400290258,
    "personalConfig": 2,
    "parentID": "89772d65-ee95-4a9c-ba4d-f56799aef73d",
    "sourceNames": [
      {
        "sourceFileName": "VO_EQ\\VO_NPC\\vo_EQXS105_3_joserf_10.wem",
        "rate": 1.0,
        "avatarName": "",
        "emotion": ""
      }
    ]
  },
  "419a2a2c-c86d-41fb-a107-cd8982518749": {
    "guid": "419a2a2c-c86d-41fb-a107-cd8982518749",
    "playRate": 1.0,
    "gameTrigger": "Dialog",
    "gameTriggerArgs": 400290239,
    "personalConfig": 2,
    "parentID": "89772d65-ee95-4a9c-ba4d-f56799aef73d",
    "sourceNames": [
      {
        "sourceFileName": "VO_EQ\\VO_NPC\\vo_EQXS105_3_recklessPallad_10.wem",
        "rate": 1.0,
        "avatarName": "",
        "emotion": ""
      }
    ]
  },
  "5169fa92-1f1f-4859-8b0a-30c917d0e9b4": {
    "guid": "5169fa92-1f1f-4859-8b0a-30c917d0e9b4",
    "playRate": 1.0,
    "gameTrigger": "Dialog",
    "gameTriggerArgs": 400290204,
    "personalConfig": 2,
    "parentID": "89772d65-ee95-4a9c-ba4d-f56799aef73d",
    "sourceNames": [
      {
        "sourceFileName": "VO_EQ\\VO_ambor\\vo_EQXS105_3_ambor_01.wem",
        "rate": 1.0,
        "avatarName": "",
        "emotion": ""
      }
    ]
  },
  "5d56e104-e664-4ead-9c6d-d8c6a038b6da": {
    "guid": "5d56e104-e664-4ead-9c6d-d8c6a038b6da",
    "playRate": 1.0,
    "gameTrigger": "Dialog",
    "gameTriggerArgs": 400290269,
    "personalConfig": 2,
    "parentID": "89772d65-ee95-4a9c-ba4d-f56799aef73d",
    "sourceNames": [
      {
        "sourceFileName": "VO_EQ\\VO_eula\\vo_EQXS105_3_eula_06.wem",
        "rate": 1.0,
        "avatarName": "",
        "emotion": ""
      }
    ]
  },
  "75d9976e-11b6-4175-a2fa-82a5be6d07b9": {
    "guid": "75d9976e-11b6-4175-a2fa-82a5be6d07b9",
    "playRate": 1.0,
    "gameTrigger": "Dialog",
    "gameTriggerArgs": 400290242,
    "personalConfig": 2,
    "parentID": "89772d65-ee95-4a9c-ba4d-f56799aef73d",
    "sourceNames": [
      {
        "sourceFileName": "VO_EQ\\VO_NPC\\vo_EQXS105_3_recklessPallad_12.wem",
        "rate": 1.0,
        "avatarName": "",
        "emotion": ""
      }
    ]
  },
  "76076c07-fbae-4402-b812-8e42540289ff": {
    "guid": "76076c07-fbae-4402-b812-8e42540289ff",
    "playRate": 1.0,
    "gameTrigger": "Dialog",
    "gameTriggerArgs": 400290259,
    "personalConfig": 2,
    "parentID": "89772d65-ee95-4a9c-ba4d-f56799aef73d",
    "sourceNames": [
      {
        "sourceFileName": "VO_EQ\\VO_NPC\\vo_EQXS105_3_cyrus_01.wem",
        "rate": 1.0,
        "avatarName": "",
        "emotion": ""
      }
    ]
  },
  "7aefaae0-b89d-46c8-9939-5f77de777561": {
    "guid": "7aefaae0-b89d-46c8-9939-5f77de777561",
    "playRate": 1.0,
    "gameTrigger": "Dialog",
    "gameTriggerArgs": 400290226,
    "personalConfig": 2,
    "parentID": "89772d65-ee95-4a9c-ba4d-f56799aef73d",
    "sourceNames": [
      {
        "sourceFileName": "VO_EQ\\VO_NPC\\vo_EQXS105_3_recklessPallad_09.wem",
        "rate": 1.0,
        "avatarName": "",
        "emotion": ""
      }
    ]
  },
  "7af08ccf-9bbc-4285-8040-ed01fbc9a7e9": {
    "guid": "7af08ccf-9bbc-4285-8040-ed01fbc9a7e9",
    "playRate": 1.0,
    "gameTrigger": "Dialog",
    "gameTriggerArgs": 400290250,
    "personalConfig": 2,
    "parentID": "89772d65-ee95-4a9c-ba4d-f56799aef73d",
    "sourceNames": [
      {
        "sourceFileName": "VO_EQ\\VO_eula\\vo_EQXS105_3_eula_02.wem",
        "rate": 1.0,
        "avatarName": "",
        "emotion": ""
      }
    ]
  },
  "7bcc2d0e-6899-47c4-b7fc-ad7e6f15d824": {
    "guid": "7bcc2d0e-6899-47c4-b7fc-ad7e6f15d824",
    "playRate": 1.0,
    "gameTrigger": "Dialog",
    "gameTriggerArgs": 400290264,
    "personalConfig": 2,
    "parentID": "89772d65-ee95-4a9c-ba4d-f56799aef73d",
    "sourceNames": [
      {
        "sourceFileName": "VO_EQ\\VO_eula\\vo_EQXS105_3_eula_04.wem",
        "rate": 1.0,
        "avatarName": "",
        "emotion": ""
      }
    ]
  },
  "7fe73117-2723-414b-81df-2318ca7085a3": {
    "guid": "7fe73117-2723-414b-81df-2318ca7085a3",
    "playRate": 1.0,
    "gameTrigger": "Dialog",
    "gameTriggerArgs": 400290218,
    "personalConfig": 2,
    "NJKDHJOHKCM": 1,
    "parentID": "89772d65-ee95-4a9c-ba4d-f56799aef73d",
    "sourceNames": [
      {
        "sourceFileName": "VO_EQ\\VO_bennett\\vo_EQXS105_3_bennett_02.wem",
        "rate": 1.0,
        "avatarName": "",
        "emotion": ""
      }
    ]
  },
  "87d01bbf-789f-4bbf-884a-a54dc553a32d": {
    "guid": "87d01bbf-789f-4bbf-884a-a54dc553a32d",
    "playRate": 1.0,
    "gameTrigger": "Dialog",
    "gameTriggerArgs": 400290268,
    "personalConfig": 2,
    "parentID": "89772d65-ee95-4a9c-ba4d-f56799aef73d",
    "sourceNames": [
      {
        "sourceFileName": "VO_EQ\\VO_eula\\vo_EQXS105_3_eula_05.wem",
        "rate": 1.0,
        "avatarName": "",
        "emotion": ""
      }
    ]
  },
  "8b666b0e-0ff2-4073-9441-4d5a01bb4f17": {
    "guid": "8b666b0e-0ff2-4073-9441-4d5a01bb4f17",
    "playRate": 1.0,
    "gameTrigger": "Dialog",
    "gameTriggerArgs": 400290224,
    "personalConfig": 2,
    "parentID": "89772d65-ee95-4a9c-ba4d-f56799aef73d",
    "sourceNames": [
      {
        "sourceFileName": "VO_EQ\\VO_NPC\\vo_EQXS105_3_recklessPallad_07.wem",
        "rate": 1.0,
        "avatarName": "",
        "emotion": ""
      }
    ]
  },
  "8e0ae826-fb7e-4c28-a965-59b272ce44d7": {
    "guid": "8e0ae826-fb7e-4c28-a965-59b272ce44d7",
    "playRate": 1.0,
    "gameTrigger": "Dialog",
    "gameTriggerArgs": 400290210,
    "personalConfig": 2,
    "parentID": "89772d65-ee95-4a9c-ba4d-f56799aef73d",
    "sourceNames": [
      {
        "sourceFileName": "VO_EQ\\VO_paimon\\vo_EQXS105_3_paimon_03.wem",
        "rate": 1.0,
        "avatarName": "",
        "emotion": ""
      }
    ]
  },
  "909d6141-6945-4c91-8165-f40ba6a9d85a": {
    "guid": "909d6141-6945-4c91-8165-f40ba6a9d85a",
    "playRate": 1.0,
    "gameTrigger": "Dialog",
    "gameTriggerArgs": 400290220,
    "personalConfig": 2,
    "NJKDHJOHKCM": 1,
    "parentID": "89772d65-ee95-4a9c-ba4d-f56799aef73d",
    "sourceNames": [
      {
        "sourceFileName": "VO_EQ\\VO_bennett\\vo_EQXS105_3_bennett_03.wem",
        "rate": 1.0,
        "avatarName": "",
        "emotion": ""
      }
    ]
  },
  "90aa6489-7166-4502-b16c-a8cf06434290": {
    "guid": "90aa6489-7166-4502-b16c-a8cf06434290",
    "playRate": 1.0,
    "gameTrigger": "Dialog",
    "gameTriggerArgs": 400290205,
    "personalConfig": 2,
    "parentID": "89772d65-ee95-4a9c-ba4d-f56799aef73d",
    "sourceNames": [
      {
        "sourceFileName": "VO_EQ\\VO_NPC\\vo_EQXS105_3_joel_01.wem",
        "rate": 1.0,
        "avatarName": "",
        "emotion": ""
      }
    ]
  },
  "90fa66e6-a3e1-449c-b2c0-03cfd84e3fed": {
    "guid": "90fa66e6-a3e1-449c-b2c0-03cfd84e3fed",
    "playRate": 1.0,
    "gameTrigger": "Dialog",
    "gameTriggerArgs": 400290221,
    "personalConfig": 2,
    "parentID": "89772d65-ee95-4a9c-ba4d-f56799aef73d",
    "sourceNames": [
      {
        "sourceFileName": "VO_EQ\\VO_NPC\\vo_EQXS105_3_recklessPallad_06.wem",
        "rate": 1.0,
        "avatarName": "",
        "emotion": ""
      }
    ]
  },
  "93408699-661e-48c5-bb3c-6901640ac4ff": {
    "guid": "93408699-661e-48c5-bb3c-6901640ac4ff",
    "playRate": 1.0,
    "gameTrigger": "Dialog",
    "gameTriggerArgs": 400290271,
    "personalConfig": 2,
    "parentID": "89772d65-ee95-4a9c-ba4d-f56799aef73d",
    "sourceNames": [
      {
        "sourceFileName": "VO_EQ\\VO_paimon\\vo_EQXS105_3_paimon_12.wem",
        "rate": 1.0,
        "avatarName": "",
        "emotion": ""
      }
    ]
  },
  "95856a2b-c01c-46b0-82d1-9a9f01b2ac76": {
    "guid": "95856a2b-c01c-46b0-82d1-9a9f01b2ac76",
    "playRate": 1.0,
    "gameTrigger": "Dialog",
    "gameTriggerArgs": 400290206,
    "personalConfig": 2,
    "parentID": "89772d65-ee95-4a9c-ba4d-f56799aef73d",
    "sourceNames": [
      {
        "sourceFileName": "VO_EQ\\VO_NPC\\vo_EQXS105_3_joserf_01.wem",
        "rate": 1.0,
        "avatarName": "",
        "emotion": ""
      }
    ]
  },
  "9cba10c7-943b-49c4-860b-1574da15dfd4": {
    "guid": "9cba10c7-943b-49c4-860b-1574da15dfd4",
    "playRate": 1.0,
    "gameTrigger": "Dialog",
    "gameTriggerArgs": 400290219,
    "personalConfig": 2,
    "parentID": "89772d65-ee95-4a9c-ba4d-f56799aef73d",
    "sourceNames": [
      {
        "sourceFileName": "VO_EQ\\VO_NPC\\vo_EQXS105_3_recklessPallad_05.wem",
        "rate": 1.0,
        "avatarName": "",
        "emotion": ""
      }
    ]
  },
  "9dbd7f48-d74c-4033-bf70-f209d5f14a44": {
    "guid": "9dbd7f48-d74c-4033-bf70-f209d5f14a44",
    "playRate": 1.0,
    "gameTrigger": "Dialog",
    "gameTriggerArgs": 400290215,
    "personalConfig": 2,
    "parentID": "89772d65-ee95-4a9c-ba4d-f56799aef73d",
    "sourceNames": [
      {
        "sourceFileName": "VO_EQ\\VO_NPC\\vo_EQXS105_3_recklessPallad_03.wem",
        "rate": 1.0,
        "avatarName": "",
        "emotion": ""
      }
    ]
  },
  "a72a887f-cf2c-4366-a938-279024420807": {
    "guid": "a72a887f-cf2c-4366-a938-279024420807",
    "playRate": 1.0,
    "gameTrigger": "Dialog",
    "gameTriggerArgs": 400290225,
    "personalConfig": 2,
    "parentID": "89772d65-ee95-4a9c-ba4d-f56799aef73d",
    "sourceNames": [
      {
        "sourceFileName": "VO_EQ\\VO_NPC\\vo_EQXS105_3_recklessPallad_08.wem",
        "rate": 1.0,
        "avatarName": "",
        "emotion": ""
      }
    ]
  },
  "aa636818-5f9f-4b57-a72c-2195757110d5": {
    "guid": "aa636818-5f9f-4b57-a72c-2195757110d5",
    "playRate": 1.0,
    "gameTrigger": "Dialog",
    "gameTriggerArgs": 400290245,
    "personalConfig": 2,
    "parentID": "89772d65-ee95-4a9c-ba4d-f56799aef73d",
    "sourceNames": [
      {
        "sourceFileName": "VO_EQ\\VO_NPC\\vo_EQXS105_3_joel_04a.wem",
        "rate": 1.0,
        "avatarName": "",
        "emotion": "",
        "gender": 2
      },
      {
        "sourceFileName": "VO_EQ\\VO_NPC\\vo_EQXS105_3_joel_04b.wem",
        "rate": 1.0,
        "avatarName": "",
        "emotion": "",
        "gender": 1
      }
    ]
  },
  "ae4ee366-c901-4fd8-8e85-fda163076204": {
    "guid": "ae4ee366-c901-4fd8-8e85-fda163076204",
    "playRate": 1.0,
    "gameTrigger": "Dialog",
    "gameTriggerArgs": 400290235,
    "personalConfig": 2,
    "parentID": "89772d65-ee95-4a9c-ba4d-f56799aef73d",
    "sourceNames": [
      {
        "sourceFileName": "VO_EQ\\VO_NPC\\vo_EQXS105_3_joel_03.wem",
        "rate": 1.0,
        "avatarName": "",
        "emotion": ""
      }
    ]
  },
  "ae8a64c4-db07-446a-bf6f-4e941f9859d0": {
    "guid": "ae8a64c4-db07-446a-bf6f-4e941f9859d0",
    "playRate": 1.0,
    "gameTrigger": "Dialog",
    "gameTriggerArgs": 400290247,
    "personalConfig": 2,
    "parentID": "89772d65-ee95-4a9c-ba4d-f56799aef73d",
    "sourceNames": [
      {
        "sourceFileName": "VO_EQ\\VO_NPC\\vo_EQXS105_3_joel_06.wem",
        "rate": 1.0,
        "avatarName": "",
        "emotion": ""
      }
    ]
  },
  "b01fbf95-8036-435f-bdd6-05fa9689f159": {
    "guid": "b01fbf95-8036-435f-bdd6-05fa9689f159",
    "playRate": 1.0,
    "gameTrigger": "Dialog",
    "gameTriggerArgs": 400290265,
    "personalConfig": 2,
    "parentID": "89772d65-ee95-4a9c-ba4d-f56799aef73d",
    "sourceNames": [
      {
        "sourceFileName": "VO_EQ\\VO_paimon\\vo_EQXS105_3_paimon_10.wem",
        "rate": 1.0,
        "avatarName": "",
        "emotion": ""
      }
    ]
  },
  "b117c8ee-8fcd-4051-b995-c163502c9206": {
    "guid": "b117c8ee-8fcd-4051-b995-c163502c9206",
    "playRate": 1.0,
    "gameTrigger": "Dialog",
    "gameTriggerArgs": 400290260,
    "personalConfig": 2,
    "parentID": "89772d65-ee95-4a9c-ba4d-f56799aef73d",
    "sourceNames": [
      {
        "sourceFileName": "VO_EQ\\VO_NPC\\vo_EQXS105_3_recklessPallad_14.wem",
        "rate": 1.0,
        "avatarName": "",
        "emotion": ""
      }
    ]
  },
  "b3a4ed21-0c15-407d-bbae-bd3fc6e8f78a": {
    "guid": "b3a4ed21-0c15-407d-bbae-bd3fc6e8f78a",
    "playRate": 1.0,
    "gameTrigger": "Dialog",
    "gameTriggerArgs": 400290248,
    "personalConfig": 2,
    "parentID": "89772d65-ee95-4a9c-ba4d-f56799aef73d",
    "sourceNames": [
      {
        "sourceFileName": "VO_EQ\\VO_eula\\vo_EQXS105_3_eula_01.wem",
        "rate": 1.0,
        "avatarName": "",
        "emotion": ""
      }
    ]
  },
  "be239b66-ce9e-469d-b100-18ff74286bf5": {
    "guid": "be239b66-ce9e-469d-b100-18ff74286bf5",
    "playRate": 1.0,
    "gameTrigger": "Dialog",
    "gameTriggerArgs": 400290249,
    "personalConfig": 2,
    "parentID": "89772d65-ee95-4a9c-ba4d-f56799aef73d",
    "sourceNames": [
      {
        "sourceFileName": "VO_EQ\\VO_paimon\\vo_EQXS105_3_paimon_08.wem",
        "rate": 1.0,
        "avatarName": "",
        "emotion": ""
      }
    ]
  },
  "c354d818-d02f-45ac-8ad5-3fff35c23bb1": {
    "guid": "c354d818-d02f-45ac-8ad5-3fff35c23bb1",
    "playRate": 1.0,
    "gameTrigger": "Dialog",
    "gameTriggerArgs": 400290216,
    "personalConfig": 2,
    "parentID": "89772d65-ee95-4a9c-ba4d-f56799aef73d",
    "sourceNames": [
      {
        "sourceFileName": "VO_EQ\\VO_NPC\\vo_EQXS105_3_recklessPallad_04.wem",
        "rate": 1.0,
        "avatarName": "",
        "emotion": ""
      }
    ]
  },
  "c4c6a8c4-2255-467b-b1f8-0d3d37ef4287": {
    "guid": "c4c6a8c4-2255-467b-b1f8-0d3d37ef4287",
    "playRate": 1.0,
    "gameTrigger": "Dialog",
    "gameTriggerArgs": 400290257,
    "personalConfig": 2,
    "parentID": "89772d65-ee95-4a9c-ba4d-f56799aef73d",
    "sourceNames": [
      {
        "sourceFileName": "VO_EQ\\VO_NPC\\vo_EQXS105_3_joel_09.wem",
        "rate": 1.0,
        "avatarName": "",
        "emotion": ""
      }
    ]
  },
  "c79afe8a-c86c-449d-ae15-464f7fbcdae8": {
    "guid": "c79afe8a-c86c-449d-ae15-464f7fbcdae8",
    "playRate": 1.0,
    "gameTrigger": "Dialog",
    "gameTriggerArgs": 400290228,
    "personalConfig": 2,
    "parentID": "89772d65-ee95-4a9c-ba4d-f56799aef73d",
    "sourceNames": [
      {
        "sourceFileName": "VO_EQ\\VO_NPC\\vo_EQXS105_3_joel_02.wem",
        "rate": 1.0,
        "avatarName": "",
        "emotion": ""
      }
    ]
  },
  "c9853bd4-9953-4963-bdeb-cb1dc3c56d63": {
    "guid": "c9853bd4-9953-4963-bdeb-cb1dc3c56d63",
    "playRate": 1.0,
    "gameTrigger": "Dialog",
    "gameTriggerArgs": 400290246,
    "personalConfig": 2,
    "parentID": "89772d65-ee95-4a9c-ba4d-f56799aef73d",
    "sourceNames": [
      {
        "sourceFileName": "VO_EQ\\VO_NPC\\vo_EQXS105_3_joel_05.wem",
        "rate": 1.0,
        "avatarName": "",
        "emotion": ""
      }
    ]
  },
  "c9bcdfca-bbdc-4fcf-9668-839959f2ebab": {
    "guid": "c9bcdfca-bbdc-4fcf-9668-839959f2ebab",
    "playRate": 1.0,
    "gameTrigger": "Dialog",
    "gameTriggerArgs": 400290243,
    "personalConfig": 2,
    "parentID": "89772d65-ee95-4a9c-ba4d-f56799aef73d",
    "sourceNames": [
      {
        "sourceFileName": "VO_EQ\\VO_bennett\\vo_EQXS105_3_bennett_07.wem",
        "rate": 1.0,
        "avatarName": "",
        "emotion": ""
      }
    ]
  },
  "cfed37e0-6a03-4e0c-9d60-082b480b7963": {
    "guid": "cfed37e0-6a03-4e0c-9d60-082b480b7963",
    "playRate": 1.0,
    "gameTrigger": "Dialog",
    "gameTriggerArgs": 400290240,
    "personalConfig": 2,
    "parentID": "89772d65-ee95-4a9c-ba4d-f56799aef73d",
    "sourceNames": [
      {
        "sourceFileName": "VO_EQ\\VO_bennett\\vo_EQXS105_3_bennett_06.wem",
        "rate": 1.0,
        "avatarName": "",
        "emotion": ""
      }
    ]
  },
  "d14a5b42-9955-4629-9944-bcf51d04a9a6": {
    "guid": "d14a5b42-9955-4629-9944-bcf51d04a9a6",
    "playRate": 1.0,
    "gameTrigger": "Dialog",
    "gameTriggerArgs": 400290252,
    "personalConfig": 2,
    "parentID": "89772d65-ee95-4a9c-ba4d-f56799aef73d",
    "sourceNames": [
      {
        "sourceFileName": "VO_EQ\\VO_NPC\\vo_EQXS105_3_joel_08.wem",
        "rate": 1.0,
        "avatarName": "",
        "emotion": ""
      }
    ]
  },
  "d3f9df54-8e78-4cb5-8a80-10f491d3af75": {
    "guid": "d3f9df54-8e78-4cb5-8a80-10f491d3af75",
    "playRate": 1.0,
    "gameTrigger": "Dialog",
    "gameTriggerArgs": 400290253,
    "personalConfig": 2,
    "parentID": "89772d65-ee95-4a9c-ba4d-f56799aef73d",
    "sourceNames": [
      {
        "sourceFileName": "VO_EQ\\VO_NPC\\vo_EQXS105_3_joserf_08.wem",
        "rate": 1.0,
        "avatarName": "",
        "emotion": ""
      }
    ]
  },
  "dcd7965f-78b2-4277-9ddc-e1798121a106": {
    "guid": "dcd7965f-78b2-4277-9ddc-e1798121a106",
    "playRate": 1.0,
    "gameTrigger": "Dialog",
    "gameTriggerArgs": 400290244,
    "personalConfig": 2,
    "parentID": "89772d65-ee95-4a9c-ba4d-f56799aef73d",
    "sourceNames": [
      {
        "sourceFileName": "VO_EQ\\VO_NPC\\vo_EQXS105_3_recklessPallad_13.wem",
        "rate": 1.0,
        "avatarName": "",
        "emotion": ""
      }
    ]
  },
  "e02187f7-49f5-457d-9574-e642ba35e433": {
    "guid": "e02187f7-49f5-457d-9574-e642ba35e433",
    "playRate": 1.0,
    "gameTrigger": "Dialog",
    "gameTriggerArgs": 400290213,
    "personalConfig": 2,
    "parentID": "89772d65-ee95-4a9c-ba4d-f56799aef73d",
    "sourceNames": [
      {
        "sourceFileName": "VO_EQ\\VO_NPC\\vo_EQXS105_3_recklessPallad_02.wem",
        "rate": 1.0,
        "avatarName": "",
        "emotion": ""
      }
    ]
  },
  "e1bb1f29-2ae4-4951-a35e-f40a3eff33c1": {
    "guid": "e1bb1f29-2ae4-4951-a35e-f40a3eff33c1",
    "playRate": 1.0,
    "gameTrigger": "Dialog",
    "gameTriggerArgs": 400290270,
    "personalConfig": 2,
    "parentID": "89772d65-ee95-4a9c-ba4d-f56799aef73d",
    "sourceNames": [
      {
        "sourceFileName": "VO_EQ\\VO_paimon\\vo_EQXS105_3_paimon_11.wem",
        "rate": 1.0,
        "avatarName": "",
        "emotion": ""
      }
    ]
  },
  "e1c77a1d-b51e-49a1-99c3-c0bfdc7cd9b5": {
    "guid": "e1c77a1d-b51e-49a1-99c3-c0bfdc7cd9b5",
    "playRate": 1.0,
    "gameTrigger": "Dialog",
    "gameTriggerArgs": 400290272,
    "personalConfig": 2,
    "parentID": "89772d65-ee95-4a9c-ba4d-f56799aef73d",
    "sourceNames": [
      {
        "sourceFileName": "VO_EQ\\VO_paimon\\vo_EQXS105_3_paimon_13.wem",
        "rate": 1.0,
        "avatarName": "",
        "emotion": ""
      }
    ]
  },
  "e64243d3-0184-492d-8c3f-3bb7719c7f3a": {
    "guid": "e64243d3-0184-492d-8c3f-3bb7719c7f3a",
    "playRate": 1.0,
    "gameTrigger": "Dialog",
    "gameTriggerArgs": 400290223,
    "personalConfig": 2,
    "parentID": "89772d65-ee95-4a9c-ba4d-f56799aef73d",
    "sourceNames": [
      {
        "sourceFileName": "VO_EQ\\VO_paimon\\vo_EQXS105_3_paimon_05.wem",
        "rate": 1.0,
        "avatarName": "",
        "emotion": ""
      }
    ]
  },
  "e7a718e5-0da1-4afd-ae2a-af1f5cd103e8": {
    "guid": "e7a718e5-0da1-4afd-ae2a-af1f5cd103e8",
    "playRate": 1.0,
    "gameTrigger": "Dialog",
    "gameTriggerArgs": 400290229,
    "personalConfig": 2,
    "parentID": "89772d65-ee95-4a9c-ba4d-f56799aef73d",
    "sourceNames": [
      {
        "sourceFileName": "VO_EQ\\VO_NPC\\vo_EQXS105_3_joserf_03.wem",
        "rate": 1.0,
        "avatarName": "",
        "emotion": ""
      }
    ]
  },
  "e8358b94-fcb6-43df-a7df-b605a3064d31": {
    "guid": "e8358b94-fcb6-43df-a7df-b605a3064d31",
    "playRate": 1.0,
    "gameTrigger": "Dialog",
    "gameTriggerArgs": 400290262,
    "personalConfig": 2,
    "parentID": "89772d65-ee95-4a9c-ba4d-f56799aef73d",
    "sourceNames": [
      {
        "sourceFileName": "VO_EQ\\VO_eula\\vo_EQXS105_3_eula_03.wem",
        "rate": 1.0,
        "avatarName": "",
        "emotion": ""
      }
    ]
  },
  "ea2fca0b-97fb-45e8-94dc-af515a9c59f4": {
    "guid": "ea2fca0b-97fb-45e8-94dc-af515a9c59f4",
    "playRate": 1.0,
    "gameTrigger": "Dialog",
    "gameTriggerArgs": 400290217,
    "personalConfig": 2,
    "parentID": "89772d65-ee95-4a9c-ba4d-f56799aef73d",
    "sourceNames": [
      {
        "sourceFileName": "VO_EQ\\VO_bennett\\vo_EQXS105_3_bennett_01.wem",
        "rate": 1.0,
        "avatarName": "",
        "emotion": ""
      }
    ]
  },
  "f0643d1e-f186-44eb-b45b-f0f722fa7bfc": {
    "guid": "f0643d1e-f186-44eb-b45b-f0f722fa7bfc",
    "playRate": 1.0,
    "gameTrigger": "Dialog",
    "gameTriggerArgs": 400290211,
    "personalConfig": 2,
    "parentID": "89772d65-ee95-4a9c-ba4d-f56799aef73d",
    "sourceNames": [
      {
        "sourceFileName": "VO_EQ\\VO_ambor\\vo_EQXS105_3_ambor_02.wem",
        "rate": 1.0,
        "avatarName": "",
        "emotion": ""
      }
    ]
  },
  "f116e104-5c64-4c06-941a-34b6943c82bf": {
    "guid": "f116e104-5c64-4c06-941a-34b6943c82bf",
    "playRate": 1.0,
    "gameTrigger": "Dialog",
    "gameTriggerArgs": 400290214,
    "personalConfig": 2,
    "parentID": "89772d65-ee95-4a9c-ba4d-f56799aef73d",
    "sourceNames": [
      {
        "sourceFileName": "VO_EQ\\VO_paimon\\vo_EQXS105_3_paimon_04.wem",
        "rate": 1.0,
        "avatarName": "",
        "emotion": ""
      }
    ]
  },
  "f3f48af3-1375-4641-8a6a-3158cb272035": {
    "guid": "f3f48af3-1375-4641-8a6a-3158cb272035",
    "playRate": 1.0,
    "gameTrigger": "Dialog",
    "gameTriggerArgs": 400290261,
    "personalConfig": 2,
    "parentID": "89772d65-ee95-4a9c-ba4d-f56799aef73d",
    "sourceNames": [
      {
        "sourceFileName": "VO_EQ\\VO_paimon\\vo_EQXS105_3_paimon_09.wem",
        "rate": 1.0,
        "avatarName": "",
        "emotion": ""
      }
    ]
  },
  "f63cfea2-4e71-410d-b982-6d4cbede53ce": {
    "guid": "f63cfea2-4e71-410d-b982-6d4cbede53ce",
    "playRate": 1.0,
    "gameTrigger": "Dialog",
    "gameTriggerArgs": 400290201,
    "personalConfig": 2,
    "parentID": "89772d65-ee95-4a9c-ba4d-f56799aef73d",
    "sourceNames": [
      {
        "sourceFileName": "VO_EQ\\VO_paimon\\vo_EQXS105_3_paimon_01.wem",
        "rate": 1.0,
        "avatarName": "",
        "emotion": ""
      }
    ]
  },
  "f6564761-39ec-4190-8679-436600363f0e": {
    "guid": "f6564761-39ec-4190-8679-436600363f0e",
    "playRate": 1.0,
    "gameTrigger": "Dialog",
    "gameTriggerArgs": 400290263,
    "personalConfig": 2,
    "parentID": "89772d65-ee95-4a9c-ba4d-f56799aef73d",
    "sourceNames": [
      {
        "sourceFileName": "VO_EQ\\VO_ambor\\vo_EQXS105_3_ambor_03.wem",
        "rate": 1.0,
        "avatarName": "",
        "emotion": ""
      }
    ]
  },
  "f9025255-63ee-4b0d-841b-b56b4eace06d": {
    "guid": "f9025255-63ee-4b0d-841b-b56b4eace06d",
    "playRate": 1.0,
    "gameTrigger": "Dialog",
    "gameTriggerArgs": 400290241,
    "personalConfig": 2,
    "parentID": "89772d65-ee95-4a9c-ba4d-f56799aef73d",
    "sourceNames": [
      {
        "sourceFileName": "VO_EQ\\VO_NPC\\vo_EQXS105_3_recklessPallad_11.wem",
        "rate": 1.0,
        "avatarName": "",
        "emotion": ""
      }
    ]
  },
  "fe300bb1-1d87-4116-9ab0-211cfbbf24b2": {
    "guid": "fe300bb1-1d87-4116-9ab0-211cfbbf24b2",
    "playRate": 1.0,
    "gameTrigger": "Dialog",
    "gameTriggerArgs": 400290227,
    "personalConfig": 2,
    "parentID": "89772d65-ee95-4a9c-ba4d-f56799aef73d",
    "sourceNames": [
      {
        "sourceFileName": "VO_EQ\\VO_NPC\\vo_EQXS105_3_joserf_02.wem",
        "rate": 1.0,
        "avatarName": "",
        "emotion": ""
      }
    ]
  }
}