{
  "0019d73f-8b75-44f8-8581-bab3caccfe4f": {
    "guid": "0019d73f-8b75-44f8-8581-bab3caccfe4f",
    "playRate": 1.0,
    "gameTrigger": "Dialog",
    "gameTriggerArgs": 401410705,
    "personalConfig": 2,
    "parentID": "07ed1f96-c988-46a4-ab03-67624e80889b",
    "sourceNames": [
      {
        "sourceFileName": "VO_EQ\\VO_paimon\\vo_EQHDJ303_9_paimon_03.wem",
        "rate": 1.0,
        "avatarName": "",
        "emotion": ""
      }
    ]
  },
  "03c624f2-e6c2-4e94-8aee-c961f088a5cc": {
    "guid": "03c624f2-e6c2-4e94-8aee-c961f088a5cc",
    "playRate": 1.0,
    "gameTrigger": "Dialog",
    "gameTriggerArgs": 401410795,
    "personalConfig": 2,
    "NJKDHJOHKCM": 1,
    "parentID": "07ed1f96-c988-46a4-ab03-67624e80889b",
    "sourceNames": [
      {
        "sourceFileName": "VO_EQ\\VO_NPC\\vo_EQHDJ303_9_yede_09.wem",
        "rate": 1.0,
        "avatarName": "",
        "emotion": ""
      }
    ]
  },
  "04a46bbe-3a37-40bb-8027-217d8f2359ab": {
    "guid": "04a46bbe-3a37-40bb-8027-217d8f2359ab",
    "playRate": 1.0,
    "gameTrigger": "Dialog",
    "gameTriggerArgs": 401410714,
    "personalConfig": 2,
    "parentID": "07ed1f96-c988-46a4-ab03-67624e80889b",
    "sourceNames": [
      {
        "sourceFileName": "VO_EQ\\VO_zhongli\\vo_EQHDJ303_9_zhongli_04.wem",
        "rate": 1.0,
        "avatarName": "",
        "emotion": ""
      }
    ]
  },
  "067fddc2-d45b-44f3-a9e6-087b92dff1d1": {
    "guid": "067fddc2-d45b-44f3-a9e6-087b92dff1d1",
    "playRate": 1.0,
    "gameTrigger": "Dialog",
    "gameTriggerArgs": 401410765,
    "personalConfig": 2,
    "parentID": "07ed1f96-c988-46a4-ab03-67624e80889b",
    "sourceNames": [
      {
        "sourceFileName": "VO_EQ\\VO_gaming\\vo_EQHDJ303_9_gaming_03.wem",
        "rate": 1.0,
        "avatarName": "",
        "emotion": ""
      }
    ]
  },
  "08953ed5-d89a-413b-a4ed-a0dcceb1ec83": {
    "guid": "08953ed5-d89a-413b-a4ed-a0dcceb1ec83",
    "playRate": 1.0,
    "gameTrigger": "Dialog",
    "gameTriggerArgs": 401410787,
    "personalConfig": 2,
    "parentID": "07ed1f96-c988-46a4-ab03-67624e80889b",
    "sourceNames": [
      {
        "sourceFileName": "VO_EQ\\VO_shenhe\\vo_EQHDJ303_9_shenhe_05.wem",
        "rate": 1.0,
        "avatarName": "",
        "emotion": ""
      }
    ]
  },
  "0912a091-ec1d-405e-95bb-f23da41cdd2e": {
    "guid": "0912a091-ec1d-405e-95bb-f23da41cdd2e",
    "playRate": 1.0,
    "gameTrigger": "Dialog",
    "gameTriggerArgs": 401410703,
    "personalConfig": 2,
    "parentID": "07ed1f96-c988-46a4-ab03-67624e80889b",
    "sourceNames": [
      {
        "sourceFileName": "VO_EQ\\VO_zhongli\\vo_EQHDJ303_9_zhongli_02.wem",
        "rate": 1.0,
        "avatarName": "",
        "emotion": ""
      }
    ]
  },
  "09c4ecd3-e876-4859-98db-0b1d33a7486c": {
    "guid": "09c4ecd3-e876-4859-98db-0b1d33a7486c",
    "playRate": 1.0,
    "gameTrigger": "Dialog",
    "gameTriggerArgs": 401410707,
    "personalConfig": 2,
    "parentID": "07ed1f96-c988-46a4-ab03-67624e80889b",
    "sourceNames": [
      {
        "sourceFileName": "VO_EQ\\VO_xiao\\vo_EQHDJ303_9_xiao_01.wem",
        "rate": 1.0,
        "avatarName": "",
        "emotion": ""
      }
    ]
  },
  "0a14fdaa-5b40-48c1-a5f1-ce058268fce2": {
    "guid": "0a14fdaa-5b40-48c1-a5f1-ce058268fce2",
    "playRate": 1.0,
    "gameTrigger": "Dialog",
    "gameTriggerArgs": 401410708,
    "personalConfig": 2,
    "parentID": "07ed1f96-c988-46a4-ab03-67624e80889b",
    "sourceNames": [
      {
        "sourceFileName": "VO_EQ\\VO_paimon\\vo_EQHDJ303_9_paimon_04.wem",
        "rate": 1.0,
        "avatarName": "",
        "emotion": ""
      }
    ]
  },
  "0da920ee-d02a-4cc7-945b-0d37c48d3be8": {
    "guid": "0da920ee-d02a-4cc7-945b-0d37c48d3be8",
    "playRate": 1.0,
    "gameTrigger": "Dialog",
    "gameTriggerArgs": 401410802,
    "personalConfig": 2,
    "parentID": "07ed1f96-c988-46a4-ab03-67624e80889b",
    "sourceNames": [
      {
        "sourceFileName": "VO_EQ\\VO_NPC\\vo_EQHDJ303_9_yede_13.wem",
        "rate": 1.0,
        "avatarName": "",
        "emotion": ""
      }
    ]
  },
  "0e6f0114-a3c1-4052-8dd5-799b6a3bb31f": {
    "guid": "0e6f0114-a3c1-4052-8dd5-799b6a3bb31f",
    "playRate": 1.0,
    "gameTrigger": "Dialog",
    "gameTriggerArgs": 401410754,
    "personalConfig": 2,
    "parentID": "07ed1f96-c988-46a4-ab03-67624e80889b",
    "sourceNames": [
      {
        "sourceFileName": "VO_EQ\\VO_paimon\\vo_EQHDJ303_9_paimon_10.wem",
        "rate": 1.0,
        "avatarName": "",
        "emotion": ""
      }
    ]
  },
  "113ad55b-bf08-4947-a415-094d7c2445b9": {
    "guid": "113ad55b-bf08-4947-a415-094d7c2445b9",
    "playRate": 1.0,
    "gameTrigger": "Dialog",
    "gameTriggerArgs": 401410743,
    "personalConfig": 2,
    "parentID": "07ed1f96-c988-46a4-ab03-67624e80889b",
    "sourceNames": [
      {
        "sourceFileName": "VO_EQ\\VO_xiao\\vo_EQHDJ303_9_xiao_18.wem",
        "rate": 1.0,
        "avatarName": "",
        "emotion": ""
      }
    ]
  },
  "14a8b5e1-5039-468c-ac03-f1ecc8c7982b": {
    "guid": "14a8b5e1-5039-468c-ac03-f1ecc8c7982b",
    "playRate": 1.0,
    "gameTrigger": "Dialog",
    "gameTriggerArgs": 401410819,
    "personalConfig": 2,
    "parentID": "07ed1f96-c988-46a4-ab03-67624e80889b",
    "sourceNames": [
      {
        "sourceFileName": "VO_EQ\\VO_NPC\\vo_EQHDJ303_9_yede_21.wem",
        "rate": 1.0,
        "avatarName": "",
        "emotion": ""
      }
    ]
  },
  "153007d6-80fd-409a-b238-d77b150d0841": {
    "guid": "153007d6-80fd-409a-b238-d77b150d0841",
    "playRate": 1.0,
    "gameTrigger": "Dialog",
    "gameTriggerArgs": 401410775,
    "personalConfig": 2,
    "parentID": "07ed1f96-c988-46a4-ab03-67624e80889b",
    "sourceNames": [
      {
        "sourceFileName": "VO_EQ\\VO_shenhe\\vo_EQHDJ303_9_shenhe_01.wem",
        "rate": 1.0,
        "avatarName": "",
        "emotion": ""
      }
    ]
  },
  "15ae99e8-d8cc-42a1-9dcd-fa9265c7d4c5": {
    "guid": "15ae99e8-d8cc-42a1-9dcd-fa9265c7d4c5",
    "playRate": 1.0,
    "gameTrigger": "Dialog",
    "gameTriggerArgs": 401410818,
    "personalConfig": 2,
    "parentID": "07ed1f96-c988-46a4-ab03-67624e80889b",
    "sourceNames": [
      {
        "sourceFileName": "VO_EQ\\VO_gaming\\vo_EQHDJ303_9_gaming_14.wem",
        "rate": 1.0,
        "avatarName": "",
        "emotion": ""
      }
    ]
  },
  "19fb6e9d-3a1c-40ac-8ff0-88054393ab10": {
    "guid": "19fb6e9d-3a1c-40ac-8ff0-88054393ab10",
    "playRate": 1.0,
    "gameTrigger": "Dialog",
    "gameTriggerArgs": 401410725,
    "personalConfig": 2,
    "parentID": "07ed1f96-c988-46a4-ab03-67624e80889b",
    "sourceNames": [
      {
        "sourceFileName": "VO_EQ\\VO_zhongli\\vo_EQHDJ303_9_zhongli_10.wem",
        "rate": 1.0,
        "avatarName": "",
        "emotion": ""
      }
    ]
  },
  "1abd3187-a9a6-4f3c-bbd0-38168921d95f": {
    "guid": "1abd3187-a9a6-4f3c-bbd0-38168921d95f",
    "playRate": 1.0,
    "gameTrigger": "Dialog",
    "gameTriggerArgs": 401410811,
    "personalConfig": 2,
    "NJKDHJOHKCM": 1,
    "parentID": "07ed1f96-c988-46a4-ab03-67624e80889b",
    "sourceNames": [
      {
        "sourceFileName": "VO_EQ\\VO_gaming\\vo_EQHDJ303_9_gaming_12.wem",
        "rate": 1.0,
        "avatarName": "",
        "emotion": ""
      }
    ]
  },
  "1f55a1a2-f652-4a48-baf1-dc1219c28a11": {
    "guid": "1f55a1a2-f652-4a48-baf1-dc1219c28a11",
    "playRate": 1.0,
    "gameTrigger": "Dialog",
    "gameTriggerArgs": 401410701,
    "personalConfig": 2,
    "parentID": "07ed1f96-c988-46a4-ab03-67624e80889b",
    "sourceNames": [
      {
        "sourceFileName": "VO_EQ\\VO_paimon\\vo_EQHDJ303_9_paimon_01.wem",
        "rate": 1.0,
        "avatarName": "",
        "emotion": ""
      }
    ]
  },
  "20542352-85ae-4485-bdbf-4fd344013248": {
    "guid": "20542352-85ae-4485-bdbf-4fd344013248",
    "playRate": 1.0,
    "gameTrigger": "Dialog",
    "gameTriggerArgs": 401410769,
    "personalConfig": 2,
    "parentID": "07ed1f96-c988-46a4-ab03-67624e80889b",
    "sourceNames": [
      {
        "sourceFileName": "VO_EQ\\VO_NPC\\vo_EQHDJ303_9_yede_05.wem",
        "rate": 1.0,
        "avatarName": "",
        "emotion": ""
      }
    ]
  },
  "21f6ad66-9c1b-40fb-a2c7-ab63b41f901a": {
    "guid": "21f6ad66-9c1b-40fb-a2c7-ab63b41f901a",
    "playRate": 1.0,
    "gameTrigger": "Dialog",
    "gameTriggerArgs": 401410788,
    "personalConfig": 2,
    "parentID": "07ed1f96-c988-46a4-ab03-67624e80889b",
    "sourceNames": [
      {
        "sourceFileName": "VO_EQ\\VO_NPC\\vo_EQHDJ303_9_yede_08.wem",
        "rate": 1.0,
        "avatarName": "",
        "emotion": ""
      }
    ]
  },
  "22c3e815-00d5-47eb-bf67-42652b77231a": {
    "guid": "22c3e815-00d5-47eb-bf67-42652b77231a",
    "playRate": 1.0,
    "gameTrigger": "Dialog",
    "gameTriggerArgs": 401410789,
    "personalConfig": 2,
    "NJKDHJOHKCM": 1,
    "parentID": "07ed1f96-c988-46a4-ab03-67624e80889b",
    "sourceNames": [
      {
        "sourceFileName": "VO_EQ\\VO_gaming\\vo_EQHDJ303_9_gaming_09.wem",
        "rate": 1.0,
        "avatarName": "",
        "emotion": ""
      }
    ]
  },
  "276a4618-ef5d-42c5-bef0-2f1373ac6b03": {
    "guid": "276a4618-ef5d-42c5-bef0-2f1373ac6b03",
    "playRate": 1.0,
    "gameTrigger": "Dialog",
    "gameTriggerArgs": 401410726,
    "personalConfig": 2,
    "parentID": "07ed1f96-c988-46a4-ab03-67624e80889b",
    "sourceNames": [
      {
        "sourceFileName": "VO_EQ\\VO_zhongli\\vo_EQHDJ303_9_zhongli_11.wem",
        "rate": 1.0,
        "avatarName": "",
        "emotion": ""
      }
    ]
  },
  "27a09a8a-1111-4cbf-987f-dd3cc791cb94": {
    "guid": "27a09a8a-1111-4cbf-987f-dd3cc791cb94",
    "playRate": 1.0,
    "gameTrigger": "Dialog",
    "gameTriggerArgs": 401410805,
    "personalConfig": 2,
    "parentID": "07ed1f96-c988-46a4-ab03-67624e80889b",
    "sourceNames": [
      {
        "sourceFileName": "VO_EQ\\VO_NPC\\vo_EQHDJ303_9_yede_16.wem",
        "rate": 1.0,
        "avatarName": "",
        "emotion": ""
      }
    ]
  },
  "29e55f8a-3c13-4fcb-bc21-ccd0bdbcf887": {
    "guid": "29e55f8a-3c13-4fcb-bc21-ccd0bdbcf887",
    "playRate": 1.0,
    "gameTrigger": "Dialog",
    "gameTriggerArgs": 401410721,
    "personalConfig": 2,
    "parentID": "07ed1f96-c988-46a4-ab03-67624e80889b",
    "sourceNames": [
      {
        "sourceFileName": "VO_EQ\\VO_xiao\\vo_EQHDJ303_9_xiao_09.wem",
        "rate": 1.0,
        "avatarName": "",
        "emotion": ""
      }
    ]
  },
  "2b4e6402-567d-4b2d-a40e-d3c47feb8f6e": {
    "guid": "2b4e6402-567d-4b2d-a40e-d3c47feb8f6e",
    "playRate": 1.0,
    "gameTrigger": "Dialog",
    "gameTriggerArgs": 401410730,
    "personalConfig": 2,
    "parentID": "07ed1f96-c988-46a4-ab03-67624e80889b",
    "sourceNames": [
      {
        "sourceFileName": "VO_EQ\\VO_xiao\\vo_EQHDJ303_9_xiao_14.wem",
        "rate": 1.0,
        "avatarName": "",
        "emotion": ""
      }
    ]
  },
  "2e8d0b66-ad67-46a8-831e-e3343e7b3c0e": {
    "guid": "2e8d0b66-ad67-46a8-831e-e3343e7b3c0e",
    "playRate": 1.0,
    "gameTrigger": "Dialog",
    "gameTriggerArgs": 401410806,
    "personalConfig": 2,
    "parentID": "07ed1f96-c988-46a4-ab03-67624e80889b",
    "sourceNames": [
      {
        "sourceFileName": "VO_EQ\\VO_NPC\\vo_EQHDJ303_9_yede_17.wem",
        "rate": 1.0,
        "avatarName": "",
        "emotion": ""
      }
    ]
  },
  "2e95c7e8-4e53-4e02-bf07-d8dc28732106": {
    "guid": "2e95c7e8-4e53-4e02-bf07-d8dc28732106",
    "playRate": 1.0,
    "gameTrigger": "Dialog",
    "gameTriggerArgs": 401410771,
    "personalConfig": 2,
    "parentID": "07ed1f96-c988-46a4-ab03-67624e80889b",
    "sourceNames": [
      {
        "sourceFileName": "VO_EQ\\VO_gaming\\vo_EQHDJ303_9_gaming_06.wem",
        "rate": 1.0,
        "avatarName": "",
        "emotion": ""
      }
    ]
  },
  "3985dffe-e90c-485e-ae53-7a145beddf2d": {
    "guid": "3985dffe-e90c-485e-ae53-7a145beddf2d",
    "playRate": 1.0,
    "gameTrigger": "Dialog",
    "gameTriggerArgs": 401410710,
    "personalConfig": 2,
    "NJKDHJOHKCM": 1,
    "parentID": "07ed1f96-c988-46a4-ab03-67624e80889b",
    "sourceNames": [
      {
        "sourceFileName": "VO_EQ\\VO_xiao\\vo_EQHDJ303_9_xiao_03.wem",
        "rate": 1.0,
        "avatarName": "",
        "emotion": ""
      }
    ]
  },
  "3a486b07-d5a2-4494-95b2-41d35a1a2660": {
    "guid": "3a486b07-d5a2-4494-95b2-41d35a1a2660",
    "playRate": 1.0,
    "gameTrigger": "Dialog",
    "gameTriggerArgs": 401410748,
    "personalConfig": 2,
    "parentID": "07ed1f96-c988-46a4-ab03-67624e80889b",
    "sourceNames": [
      {
        "sourceFileName": "VO_EQ\\VO_xiao\\vo_EQHDJ303_9_xiao_20.wem",
        "rate": 1.0,
        "avatarName": "",
        "emotion": ""
      }
    ]
  },
  "43289e1f-1163-4056-b7d5-5eb956b5906f": {
    "guid": "43289e1f-1163-4056-b7d5-5eb956b5906f",
    "playRate": 1.0,
    "gameTrigger": "Dialog",
    "gameTriggerArgs": 401410764,
    "personalConfig": 2,
    "parentID": "07ed1f96-c988-46a4-ab03-67624e80889b",
    "sourceNames": [
      {
        "sourceFileName": "VO_EQ\\VO_NPC\\vo_EQHDJ303_9_yede_03.wem",
        "rate": 1.0,
        "avatarName": "",
        "emotion": ""
      }
    ]
  },
  "43edd33d-46c2-4a30-8e8b-7940b8ed295d": {
    "guid": "43edd33d-46c2-4a30-8e8b-7940b8ed295d",
    "playRate": 1.0,
    "gameTrigger": "Dialog",
    "gameTriggerArgs": 401410772,
    "personalConfig": 2,
    "parentID": "07ed1f96-c988-46a4-ab03-67624e80889b",
    "sourceNames": [
      {
        "sourceFileName": "VO_EQ\\VO_NPC\\vo_EQHDJ303_9_yede_07.wem",
        "rate": 1.0,
        "avatarName": "",
        "emotion": ""
      }
    ]
  },
  "4bfaca2d-bcdb-44ce-bc5e-d90e8be14988": {
    "guid": "4bfaca2d-bcdb-44ce-bc5e-d90e8be14988",
    "playRate": 1.0,
    "gameTrigger": "Dialog",
    "gameTriggerArgs": 401410797,
    "personalConfig": 2,
    "parentID": "07ed1f96-c988-46a4-ab03-67624e80889b",
    "sourceNames": [
      {
        "sourceFileName": "VO_EQ\\VO_xianyun\\vo_EQHDJ303_9_xianyun_12.wem",
        "rate": 1.0,
        "avatarName": "",
        "emotion": ""
      }
    ]
  },
  "4c684e22-4a9f-453b-8b9b-b7116b234cfa": {
    "guid": "4c684e22-4a9f-453b-8b9b-b7116b234cfa",
    "playRate": 1.0,
    "gameTrigger": "Dialog",
    "gameTriggerArgs": 401410755,
    "personalConfig": 2,
    "parentID": "07ed1f96-c988-46a4-ab03-67624e80889b",
    "sourceNames": [
      {
        "sourceFileName": "VO_EQ\\VO_zhongli\\vo_EQHDJ303_9_zhongli_19.wem",
        "rate": 1.0,
        "avatarName": "",
        "emotion": ""
      }
    ]
  },
  "4d69a145-75a6-48e3-a4da-670cbaf6011a": {
    "guid": "4d69a145-75a6-48e3-a4da-670cbaf6011a",
    "playRate": 1.0,
    "gameTrigger": "Dialog",
    "gameTriggerArgs": 401410804,
    "personalConfig": 2,
    "parentID": "07ed1f96-c988-46a4-ab03-67624e80889b",
    "sourceNames": [
      {
        "sourceFileName": "VO_EQ\\VO_NPC\\vo_EQHDJ303_9_yede_15.wem",
        "rate": 1.0,
        "avatarName": "",
        "emotion": ""
      }
    ]
  },
  "5146d69f-3384-4a77-895a-8a28608329d0": {
    "guid": "5146d69f-3384-4a77-895a-8a28608329d0",
    "playRate": 1.0,
    "gameTrigger": "Dialog",
    "gameTriggerArgs": 401410744,
    "personalConfig": 2,
    "parentID": "07ed1f96-c988-46a4-ab03-67624e80889b",
    "sourceNames": [
      {
        "sourceFileName": "VO_EQ\\VO_zhongli\\vo_EQHDJ303_9_zhongli_17.wem",
        "rate": 1.0,
        "avatarName": "",
        "emotion": ""
      }
    ]
  },
  "542dc55a-6dbd-4bac-b432-a44de1dfc0e4": {
    "guid": "542dc55a-6dbd-4bac-b432-a44de1dfc0e4",
    "playRate": 1.0,
    "gameTrigger": "Dialog",
    "gameTriggerArgs": 401410760,
    "personalConfig": 2,
    "parentID": "07ed1f96-c988-46a4-ab03-67624e80889b",
    "sourceNames": [
      {
        "sourceFileName": "VO_EQ\\VO_gaming\\vo_EQHDJ303_9_gaming_01.wem",
        "rate": 1.0,
        "avatarName": "",
        "emotion": ""
      }
    ]
  },
  "54a1e8f9-21a8-47b0-9845-459c92607ad7": {
    "guid": "54a1e8f9-21a8-47b0-9845-459c92607ad7",
    "playRate": 1.0,
    "gameTrigger": "Dialog",
    "gameTriggerArgs": 401410791,
    "personalConfig": 2,
    "NJKDHJOHKCM": 1,
    "parentID": "07ed1f96-c988-46a4-ab03-67624e80889b",
    "sourceNames": [
      {
        "sourceFileName": "VO_EQ\\VO_xianyun\\vo_EQHDJ303_9_xianyun_10.wem",
        "rate": 1.0,
        "avatarName": "",
        "emotion": ""
      }
    ]
  },
  "5709d539-81d6-4f18-a7fd-d1df8cac9641": {
    "guid": "5709d539-81d6-4f18-a7fd-d1df8cac9641",
    "playRate": 1.0,
    "gameTrigger": "Dialog",
    "gameTriggerArgs": 401410712,
    "personalConfig": 2,
    "NJKDHJOHKCM": 1,
    "parentID": "07ed1f96-c988-46a4-ab03-67624e80889b",
    "sourceNames": [
      {
        "sourceFileName": "VO_EQ\\VO_xiao\\vo_EQHDJ303_9_xiao_05.wem",
        "rate": 1.0,
        "avatarName": "",
        "emotion": ""
      }
    ]
  },
  "5b1ad9ac-de22-4084-beab-6400c0c1c5c4": {
    "guid": "5b1ad9ac-de22-4084-beab-6400c0c1c5c4",
    "playRate": 1.0,
    "gameTrigger": "Dialog",
    "gameTriggerArgs": 401410810,
    "personalConfig": 2,
    "NJKDHJOHKCM": 1,
    "parentID": "07ed1f96-c988-46a4-ab03-67624e80889b",
    "sourceNames": [
      {
        "sourceFileName": "VO_EQ\\VO_gaming\\vo_EQHDJ303_9_gaming_11.wem",
        "rate": 1.0,
        "avatarName": "",
        "emotion": ""
      }
    ]
  },
  "5c750093-85dd-4838-9151-250474bf5d9b": {
    "guid": "5c750093-85dd-4838-9151-250474bf5d9b",
    "playRate": 1.0,
    "gameTrigger": "Dialog",
    "gameTriggerArgs": 401410768,
    "personalConfig": 2,
    "parentID": "07ed1f96-c988-46a4-ab03-67624e80889b",
    "sourceNames": [
      {
        "sourceFileName": "VO_EQ\\VO_gaming\\vo_EQHDJ303_9_gaming_05.wem",
        "rate": 1.0,
        "avatarName": "",
        "emotion": ""
      }
    ]
  },
  "6050e36f-5338-4bca-9faa-f0a44aac39e5": {
    "guid": "6050e36f-5338-4bca-9faa-f0a44aac39e5",
    "playRate": 1.0,
    "gameTrigger": "Dialog",
    "gameTriggerArgs": 401410759,
    "personalConfig": 2,
    "parentID": "07ed1f96-c988-46a4-ab03-67624e80889b",
    "sourceNames": [
      {
        "sourceFileName": "VO_EQ\\VO_zhongli\\vo_EQHDJ303_9_zhongli_21.wem",
        "rate": 1.0,
        "avatarName": "",
        "emotion": ""
      }
    ]
  },
  "62e941d8-bef1-4eb0-80da-1d058b6aba10": {
    "guid": "62e941d8-bef1-4eb0-80da-1d058b6aba10",
    "playRate": 1.0,
    "gameTrigger": "Dialog",
    "gameTriggerArgs": 401410779,
    "personalConfig": 2,
    "parentID": "07ed1f96-c988-46a4-ab03-67624e80889b",
    "sourceNames": [
      {
        "sourceFileName": "VO_EQ\\VO_shenhe\\vo_EQHDJ303_9_shenhe_03.wem",
        "rate": 1.0,
        "avatarName": "",
        "emotion": ""
      }
    ]
  },
  "63ed62bf-cdcf-4f6e-bc37-997ac5940d09": {
    "guid": "63ed62bf-cdcf-4f6e-bc37-997ac5940d09",
    "playRate": 1.0,
    "gameTrigger": "Dialog",
    "gameTriggerArgs": 401410715,
    "personalConfig": 2,
    "parentID": "07ed1f96-c988-46a4-ab03-67624e80889b",
    "sourceNames": [
      {
        "sourceFileName": "VO_EQ\\VO_zhongli\\vo_EQHDJ303_9_zhongli_05.wem",
        "rate": 1.0,
        "avatarName": "",
        "emotion": ""
      }
    ]
  },
  "6501d6ce-ecb3-49d2-a549-3533d5843e08": {
    "guid": "6501d6ce-ecb3-49d2-a549-3533d5843e08",
    "playRate": 1.0,
    "gameTrigger": "Dialog",
    "gameTriggerArgs": 401410732,
    "personalConfig": 2,
    "parentID": "07ed1f96-c988-46a4-ab03-67624e80889b",
    "sourceNames": [
      {
        "sourceFileName": "VO_EQ\\VO_zhongli\\vo_EQHDJ303_9_zhongli_14.wem",
        "rate": 1.0,
        "avatarName": "",
        "emotion": ""
      }
    ]
  },
  "663097dd-9e87-45a5-bc9f-2e9a1b695e1d": {
    "guid": "663097dd-9e87-45a5-bc9f-2e9a1b695e1d",
    "playRate": 1.0,
    "gameTrigger": "Dialog",
    "gameTriggerArgs": 401410812,
    "personalConfig": 2,
    "parentID": "07ed1f96-c988-46a4-ab03-67624e80889b",
    "sourceNames": [
      {
        "sourceFileName": "VO_EQ\\VO_gaming\\vo_EQHDJ303_9_gaming_13.wem",
        "rate": 1.0,
        "avatarName": "",
        "emotion": ""
      }
    ]
  },
  "679f64b5-9dde-4266-b57e-00d87c1b2e8b": {
    "guid": "679f64b5-9dde-4266-b57e-00d87c1b2e8b",
    "playRate": 1.0,
    "gameTrigger": "Dialog",
    "gameTriggerArgs": 401410801,
    "personalConfig": 2,
    "parentID": "07ed1f96-c988-46a4-ab03-67624e80889b",
    "sourceNames": [
      {
        "sourceFileName": "VO_EQ\\VO_gaming\\vo_EQHDJ303_9_gaming_10.wem",
        "rate": 1.0,
        "avatarName": "",
        "emotion": ""
      }
    ]
  },
  "69a187bf-fe59-4944-8ff2-61b52c0684d9": {
    "guid": "69a187bf-fe59-4944-8ff2-61b52c0684d9",
    "playRate": 1.0,
    "gameTrigger": "Dialog",
    "gameTriggerArgs": 401410704,
    "personalConfig": 2,
    "parentID": "07ed1f96-c988-46a4-ab03-67624e80889b",
    "sourceNames": [
      {
        "sourceFileName": "VO_EQ\\VO_paimon\\vo_EQHDJ303_9_paimon_02.wem",
        "rate": 1.0,
        "avatarName": "",
        "emotion": ""
      }
    ]
  },
  "6bfb25d9-89be-4580-ab07-475b47fc176d": {
    "guid": "6bfb25d9-89be-4580-ab07-475b47fc176d",
    "playRate": 1.0,
    "gameTrigger": "Dialog",
    "gameTriggerArgs": 401410762,
    "personalConfig": 2,
    "parentID": "07ed1f96-c988-46a4-ab03-67624e80889b",
    "sourceNames": [
      {
        "sourceFileName": "VO_EQ\\VO_NPC\\vo_EQHDJ303_9_together_01.wem",
        "rate": 1.0,
        "avatarName": "",
        "emotion": ""
      }
    ]
  },
  "6e618ae4-9a15-4777-a9f1-532f46ce1128": {
    "guid": "6e618ae4-9a15-4777-a9f1-532f46ce1128",
    "playRate": 1.0,
    "gameTrigger": "Dialog",
    "gameTriggerArgs": 401410803,
    "personalConfig": 2,
    "parentID": "07ed1f96-c988-46a4-ab03-67624e80889b",
    "sourceNames": [
      {
        "sourceFileName": "VO_EQ\\VO_NPC\\vo_EQHDJ303_9_yede_14.wem",
        "rate": 1.0,
        "avatarName": "",
        "emotion": ""
      }
    ]
  },
  "6ec8a175-9bf9-4e79-b1a4-66c6f1071e08": {
    "guid": "6ec8a175-9bf9-4e79-b1a4-66c6f1071e08",
    "playRate": 1.0,
    "gameTrigger": "Dialog",
    "gameTriggerArgs": 401410735,
    "personalConfig": 2,
    "parentID": "07ed1f96-c988-46a4-ab03-67624e80889b",
    "sourceNames": [
      {
        "sourceFileName": "VO_EQ\\VO_paimon\\vo_EQHDJ303_9_paimon_05.wem",
        "rate": 1.0,
        "avatarName": "",
        "emotion": ""
      }
    ]
  },
  "6f131ab3-4bf5-47da-9a08-a8bff9be6710": {
    "guid": "6f131ab3-4bf5-47da-9a08-a8bff9be6710",
    "playRate": 1.0,
    "gameTrigger": "Dialog",
    "gameTriggerArgs": 401410716,
    "personalConfig": 2,
    "NJKDHJOHKCM": 1,
    "parentID": "07ed1f96-c988-46a4-ab03-67624e80889b",
    "sourceNames": [
      {
        "sourceFileName": "VO_EQ\\VO_xiao\\vo_EQHDJ303_9_xiao_07.wem",
        "rate": 1.0,
        "avatarName": "",
        "emotion": ""
      }
    ]
  },
  "75390b9e-bec8-411f-b4be-d04ba40de7ed": {
    "guid": "75390b9e-bec8-411f-b4be-d04ba40de7ed",
    "playRate": 1.0,
    "gameTrigger": "Dialog",
    "gameTriggerArgs": 401410740,
    "personalConfig": 2,
    "parentID": "07ed1f96-c988-46a4-ab03-67624e80889b",
    "sourceNames": [
      {
        "sourceFileName": "VO_EQ\\VO_paimon\\vo_EQHDJ303_9_paimon_07.wem",
        "rate": 1.0,
        "avatarName": "",
        "emotion": ""
      }
    ]
  },
  "755aaf68-f1c6-4df5-aefc-a16493f0cf51": {
    "guid": "755aaf68-f1c6-4df5-aefc-a16493f0cf51",
    "playRate": 1.0,
    "gameTrigger": "Dialog",
    "gameTriggerArgs": 401410747,
    "personalConfig": 2,
    "parentID": "07ed1f96-c988-46a4-ab03-67624e80889b",
    "sourceNames": [
      {
        "sourceFileName": "VO_EQ\\VO_xiao\\vo_EQHDJ303_9_xiao_19.wem",
        "rate": 1.0,
        "avatarName": "",
        "emotion": ""
      }
    ]
  },
  "782f0b18-66e2-4508-890c-ed70f3828194": {
    "guid": "782f0b18-66e2-4508-890c-ed70f3828194",
    "playRate": 1.0,
    "gameTrigger": "Dialog",
    "gameTriggerArgs": 401410799,
    "personalConfig": 2,
    "parentID": "07ed1f96-c988-46a4-ab03-67624e80889b",
    "sourceNames": [
      {
        "sourceFileName": "VO_EQ\\VO_shenhe\\vo_EQHDJ303_9_shenhe_08.wem",
        "rate": 1.0,
        "avatarName": "",
        "emotion": ""
      }
    ]
  },
  "78a5d3ae-54e7-4b71-a358-beffbb2e1015": {
    "guid": "78a5d3ae-54e7-4b71-a358-beffbb2e1015",
    "playRate": 1.0,
    "gameTrigger": "Dialog",
    "gameTriggerArgs": 401410782,
    "personalConfig": 2,
    "NJKDHJOHKCM": 1,
    "parentID": "07ed1f96-c988-46a4-ab03-67624e80889b",
    "sourceNames": [
      {
        "sourceFileName": "VO_EQ\\VO_gaming\\vo_EQHDJ303_9_gaming_08.wem",
        "rate": 1.0,
        "avatarName": "",
        "emotion": ""
      }
    ]
  },
  "7afab13e-bfb9-439b-a6ea-1ea6f2e119e6": {
    "guid": "7afab13e-bfb9-439b-a6ea-1ea6f2e119e6",
    "playRate": 1.0,
    "gameTrigger": "Dialog",
    "gameTriggerArgs": 401410742,
    "personalConfig": 2,
    "parentID": "07ed1f96-c988-46a4-ab03-67624e80889b",
    "sourceNames": [
      {
        "sourceFileName": "VO_EQ\\VO_xiao\\vo_EQHDJ303_9_xiao_17.wem",
        "rate": 1.0,
        "avatarName": "",
        "emotion": ""
      }
    ]
  },
  "7b49d8fa-824b-4443-9d2a-4b040c376ba5": {
    "guid": "7b49d8fa-824b-4443-9d2a-4b040c376ba5",
    "playRate": 1.0,
    "gameTrigger": "Dialog",
    "gameTriggerArgs": 401410756,
    "personalConfig": 2,
    "parentID": "07ed1f96-c988-46a4-ab03-67624e80889b",
    "sourceNames": [
      {
        "sourceFileName": "VO_EQ\\VO_zhongli\\vo_EQHDJ303_9_zhongli_20.wem",
        "rate": 1.0,
        "avatarName": "",
        "emotion": ""
      }
    ]
  },
  "7b5f270e-cc79-4d79-aa92-80eb4739d8ea": {
    "guid": "7b5f270e-cc79-4d79-aa92-80eb4739d8ea",
    "playRate": 1.0,
    "gameTrigger": "Dialog",
    "gameTriggerArgs": 401410733,
    "personalConfig": 2,
    "parentID": "07ed1f96-c988-46a4-ab03-67624e80889b",
    "sourceNames": [
      {
        "sourceFileName": "VO_EQ\\VO_xiao\\vo_EQHDJ303_9_xiao_15.wem",
        "rate": 1.0,
        "avatarName": "",
        "emotion": ""
      }
    ]
  },
  "7c94906a-99f0-47f6-b2bd-aa961c8b7423": {
    "guid": "7c94906a-99f0-47f6-b2bd-aa961c8b7423",
    "playRate": 1.0,
    "gameTrigger": "Dialog",
    "gameTriggerArgs": 401410752,
    "personalConfig": 2,
    "parentID": "07ed1f96-c988-46a4-ab03-67624e80889b",
    "sourceNames": [
      {
        "sourceFileName": "VO_EQ\\VO_xiao\\vo_EQHDJ303_9_xiao_22.wem",
        "rate": 1.0,
        "avatarName": "",
        "emotion": ""
      }
    ]
  },
  "7f88091a-8c7a-481e-913f-21d6fdd3f8bd": {
    "guid": "7f88091a-8c7a-481e-913f-21d6fdd3f8bd",
    "playRate": 1.0,
    "gameTrigger": "Dialog",
    "gameTriggerArgs": 401410807,
    "personalConfig": 2,
    "parentID": "07ed1f96-c988-46a4-ab03-67624e80889b",
    "sourceNames": [
      {
        "sourceFileName": "VO_EQ\\VO_shenhe\\vo_EQHDJ303_9_shenhe_09.wem",
        "rate": 1.0,
        "avatarName": "",
        "emotion": ""
      }
    ]
  },
  "801eeed0-23fc-4df2-b3d5-17fa1bf5c812": {
    "guid": "801eeed0-23fc-4df2-b3d5-17fa1bf5c812",
    "playRate": 1.0,
    "gameTrigger": "Dialog",
    "gameTriggerArgs": 401410767,
    "personalConfig": 2,
    "parentID": "07ed1f96-c988-46a4-ab03-67624e80889b",
    "sourceNames": [
      {
        "sourceFileName": "VO_EQ\\VO_gaming\\vo_EQHDJ303_9_gaming_04.wem",
        "rate": 1.0,
        "avatarName": "",
        "emotion": ""
      }
    ]
  },
  "84768ffb-b73c-4539-9b8b-303aac978970": {
    "guid": "84768ffb-b73c-4539-9b8b-303aac978970",
    "playRate": 1.0,
    "gameTrigger": "Dialog",
    "gameTriggerArgs": 401410711,
    "personalConfig": 2,
    "NJKDHJOHKCM": 1,
    "parentID": "07ed1f96-c988-46a4-ab03-67624e80889b",
    "sourceNames": [
      {
        "sourceFileName": "VO_EQ\\VO_xiao\\vo_EQHDJ303_9_xiao_04.wem",
        "rate": 1.0,
        "avatarName": "",
        "emotion": ""
      }
    ]
  },
  "857a0f6e-ae9f-4cc3-9f9c-541d48ad8a1e": {
    "guid": "857a0f6e-ae9f-4cc3-9f9c-541d48ad8a1e",
    "playRate": 1.0,
    "gameTrigger": "Dialog",
    "gameTriggerArgs": 401410777,
    "personalConfig": 2,
    "parentID": "07ed1f96-c988-46a4-ab03-67624e80889b",
    "sourceNames": [
      {
        "sourceFileName": "VO_EQ\\VO_xianyun\\vo_EQHDJ303_9_xianyun_02.wem",
        "rate": 1.0,
        "avatarName": "",
        "emotion": ""
      }
    ]
  },
  "8669f8a4-68d8-41b5-b82d-624357ab55ae": {
    "guid": "8669f8a4-68d8-41b5-b82d-624357ab55ae",
    "playRate": 1.0,
    "gameTrigger": "Dialog",
    "gameTriggerArgs": 401410717,
    "personalConfig": 2,
    "parentID": "07ed1f96-c988-46a4-ab03-67624e80889b",
    "sourceNames": [
      {
        "sourceFileName": "VO_EQ\\VO_zhongli\\vo_EQHDJ303_9_zhongli_06.wem",
        "rate": 1.0,
        "avatarName": "",
        "emotion": ""
      }
    ]
  },
  "8797d698-98a1-4a4c-823b-6be36854ab54": {
    "guid": "8797d698-98a1-4a4c-823b-6be36854ab54",
    "playRate": 1.0,
    "gameTrigger": "Dialog",
    "gameTriggerArgs": 401410817,
    "personalConfig": 2,
    "parentID": "07ed1f96-c988-46a4-ab03-67624e80889b",
    "sourceNames": [
      {
        "sourceFileName": "VO_EQ\\VO_NPC\\vo_EQHDJ303_9_yede_20.wem",
        "rate": 1.0,
        "avatarName": "",
        "emotion": ""
      }
    ]
  },
  "8f3d1d9c-53bf-4e63-af85-8b7d19b99832": {
    "guid": "8f3d1d9c-53bf-4e63-af85-8b7d19b99832",
    "playRate": 1.0,
    "gameTrigger": "Dialog",
    "gameTriggerArgs": 401410731,
    "personalConfig": 2,
    "parentID": "07ed1f96-c988-46a4-ab03-67624e80889b",
    "sourceNames": [
      {
        "sourceFileName": "VO_EQ\\VO_zhongli\\vo_EQHDJ303_9_zhongli_13.wem",
        "rate": 1.0,
        "avatarName": "",
        "emotion": ""
      }
    ]
  },
  "90f69c9d-f289-43cf-9849-3e07ae1e4e41": {
    "guid": "90f69c9d-f289-43cf-9849-3e07ae1e4e41",
    "playRate": 1.0,
    "gameTrigger": "Dialog",
    "gameTriggerArgs": 401410781,
    "personalConfig": 2,
    "parentID": "07ed1f96-c988-46a4-ab03-67624e80889b",
    "sourceNames": [
      {
        "sourceFileName": "VO_EQ\\VO_xianyun\\vo_EQHDJ303_9_xianyun_04.wem",
        "rate": 1.0,
        "avatarName": "",
        "emotion": ""
      }
    ]
  },
  "9342da1c-bd7b-4758-93f0-31f19b97457b": {
    "guid": "9342da1c-bd7b-4758-93f0-31f19b97457b",
    "playRate": 1.0,
    "gameTrigger": "Dialog",
    "gameTriggerArgs": 401410741,
    "personalConfig": 2,
    "parentID": "07ed1f96-c988-46a4-ab03-67624e80889b",
    "sourceNames": [
      {
        "sourceFileName": "VO_EQ\\VO_xiao\\vo_EQHDJ303_9_xiao_16.wem",
        "rate": 1.0,
        "avatarName": "",
        "emotion": ""
      }
    ]
  },
  "94238344-358b-4c7b-b946-80c82fed0bbc": {
    "guid": "94238344-358b-4c7b-b946-80c82fed0bbc",
    "playRate": 1.0,
    "gameTrigger": "Dialog",
    "gameTriggerArgs": 401410718,
    "personalConfig": 2,
    "parentID": "07ed1f96-c988-46a4-ab03-67624e80889b",
    "sourceNames": [
      {
        "sourceFileName": "VO_EQ\\VO_zhongli\\vo_EQHDJ303_9_zhongli_07.wem",
        "rate": 1.0,
        "avatarName": "",
        "emotion": ""
      }
    ]
  },
  "961c68fb-83a5-451d-ab8c-89b2e98362c7": {
    "guid": "961c68fb-83a5-451d-ab8c-89b2e98362c7",
    "playRate": 1.0,
    "gameTrigger": "Dialog",
    "gameTriggerArgs": 401410814,
    "personalConfig": 2,
    "parentID": "07ed1f96-c988-46a4-ab03-67624e80889b",
    "sourceNames": [
      {
        "sourceFileName": "VO_EQ\\VO_paimon\\vo_EQHDJ303_9_paimon_13.wem",
        "rate": 1.0,
        "avatarName": "",
        "emotion": ""
      }
    ]
  },
  "9738b64e-722a-48e5-96f7-d5b04ecc2b9b": {
    "guid": "9738b64e-722a-48e5-96f7-d5b04ecc2b9b",
    "playRate": 1.0,
    "gameTrigger": "Dialog",
    "gameTriggerArgs": 401410815,
    "personalConfig": 2,
    "parentID": "07ed1f96-c988-46a4-ab03-67624e80889b",
    "sourceNames": [
      {
        "sourceFileName": "VO_EQ\\VO_paimon\\vo_EQHDJ303_9_paimon_14.wem",
        "rate": 1.0,
        "avatarName": "",
        "emotion": ""
      }
    ]
  },
  "975fe893-7050-48ac-a3d4-bbe80d2b6119": {
    "guid": "975fe893-7050-48ac-a3d4-bbe80d2b6119",
    "playRate": 1.0,
    "gameTrigger": "Dialog",
    "gameTriggerArgs": 401410722,
    "personalConfig": 2,
    "parentID": "07ed1f96-c988-46a4-ab03-67624e80889b",
    "sourceNames": [
      {
        "sourceFileName": "VO_EQ\\VO_xiao\\vo_EQHDJ303_9_xiao_10.wem",
        "rate": 1.0,
        "avatarName": "",
        "emotion": ""
      }
    ]
  },
  "9ab4194e-f809-4dcf-9f34-877806e2f182": {
    "guid": "9ab4194e-f809-4dcf-9f34-877806e2f182",
    "playRate": 1.0,
    "gameTrigger": "Dialog",
    "gameTriggerArgs": 401410766,
    "personalConfig": 2,
    "parentID": "07ed1f96-c988-46a4-ab03-67624e80889b",
    "sourceNames": [
      {
        "sourceFileName": "VO_EQ\\VO_NPC\\vo_EQHDJ303_9_yede_04.wem",
        "rate": 1.0,
        "avatarName": "",
        "emotion": ""
      }
    ]
  },
  "9af2a724-eea7-4e25-bc91-73c4b47d8c4c": {
    "guid": "9af2a724-eea7-4e25-bc91-73c4b47d8c4c",
    "playRate": 1.0,
    "gameTrigger": "Dialog",
    "gameTriggerArgs": 401410729,
    "personalConfig": 2,
    "parentID": "07ed1f96-c988-46a4-ab03-67624e80889b",
    "sourceNames": [
      {
        "sourceFileName": "VO_EQ\\VO_xiao\\vo_EQHDJ303_9_xiao_13.wem",
        "rate": 1.0,
        "avatarName": "",
        "emotion": ""
      }
    ]
  },
  "9d34405d-7410-4a55-93e5-620f87f381c7": {
    "guid": "9d34405d-7410-4a55-93e5-620f87f381c7",
    "playRate": 1.0,
    "gameTrigger": "Dialog",
    "gameTriggerArgs": 401410737,
    "personalConfig": 2,
    "parentID": "07ed1f96-c988-46a4-ab03-67624e80889b",
    "sourceNames": [
      {
        "sourceFileName": "VO_EQ\\VO_paimon\\vo_EQHDJ303_9_paimon_06.wem",
        "rate": 1.0,
        "avatarName": "",
        "emotion": ""
      }
    ]
  },
  "9f084068-f3b4-4628-890e-43934bc621ae": {
    "guid": "9f084068-f3b4-4628-890e-43934bc621ae",
    "playRate": 1.0,
    "gameTrigger": "Dialog",
    "gameTriggerArgs": 401410758,
    "personalConfig": 2,
    "parentID": "07ed1f96-c988-46a4-ab03-67624e80889b",
    "sourceNames": [
      {
        "sourceFileName": "VO_EQ\\VO_paimon\\vo_EQHDJ303_9_paimon_12.wem",
        "rate": 1.0,
        "avatarName": "",
        "emotion": ""
      }
    ]
  },
  "a232ea3a-dd33-45d3-8b7c-068bbf7ad2a1": {
    "guid": "a232ea3a-dd33-45d3-8b7c-068bbf7ad2a1",
    "playRate": 1.0,
    "gameTrigger": "Dialog",
    "gameTriggerArgs": 401410792,
    "personalConfig": 2,
    "parentID": "07ed1f96-c988-46a4-ab03-67624e80889b",
    "sourceNames": [
      {
        "sourceFileName": "VO_EQ\\VO_xianyun\\vo_EQHDJ303_9_xianyun_11.wem",
        "rate": 1.0,
        "avatarName": "",
        "emotion": ""
      }
    ]
  },
  "a57a66de-f7fa-4b97-a40a-0492e6c65e06": {
    "guid": "a57a66de-f7fa-4b97-a40a-0492e6c65e06",
    "playRate": 1.0,
    "gameTrigger": "Dialog",
    "gameTriggerArgs": 401410749,
    "personalConfig": 2,
    "parentID": "07ed1f96-c988-46a4-ab03-67624e80889b",
    "sourceNames": [
      {
        "sourceFileName": "VO_EQ\\VO_xiao\\vo_EQHDJ303_9_xiao_21.wem",
        "rate": 1.0,
        "avatarName": "",
        "emotion": ""
      }
    ]
  },
  "aa5eb96b-5cd0-427a-a7fc-82702ee4003b": {
    "guid": "aa5eb96b-5cd0-427a-a7fc-82702ee4003b",
    "playRate": 1.0,
    "gameTrigger": "Dialog",
    "gameTriggerArgs": 401410753,
    "personalConfig": 2,
    "parentID": "07ed1f96-c988-46a4-ab03-67624e80889b",
    "sourceNames": [
      {
        "sourceFileName": "VO_EQ\\VO_zhongli\\vo_EQHDJ303_9_zhongli_18.wem",
        "rate": 1.0,
        "avatarName": "",
        "emotion": ""
      }
    ]
  },
  "b29ed33b-9548-41e1-b603-e76fc76be4f8": {
    "guid": "b29ed33b-9548-41e1-b603-e76fc76be4f8",
    "playRate": 1.0,
    "gameTrigger": "Dialog",
    "gameTriggerArgs": 401410778,
    "personalConfig": 2,
    "parentID": "07ed1f96-c988-46a4-ab03-67624e80889b",
    "sourceNames": [
      {
        "sourceFileName": "VO_EQ\\VO_xianyun\\vo_EQHDJ303_9_xianyun_03.wem",
        "rate": 1.0,
        "avatarName": "",
        "emotion": ""
      }
    ]
  },
  "b32856c9-1d48-4f1c-890b-656e34bc7799": {
    "guid": "b32856c9-1d48-4f1c-890b-656e34bc7799",
    "playRate": 1.0,
    "gameTrigger": "Dialog",
    "gameTriggerArgs": 401410736,
    "personalConfig": 2,
    "parentID": "07ed1f96-c988-46a4-ab03-67624e80889b",
    "sourceNames": [
      {
        "sourceFileName": "VO_EQ\\VO_zhongli\\vo_EQHDJ303_9_zhongli_16.wem",
        "rate": 1.0,
        "avatarName": "",
        "emotion": ""
      }
    ]
  },
  "b331c208-762e-4044-9dda-1ace3dbc78ae": {
    "guid": "b331c208-762e-4044-9dda-1ace3dbc78ae",
    "playRate": 1.0,
    "gameTrigger": "Dialog",
    "gameTriggerArgs": 401410798,
    "personalConfig": 2,
    "NJKDHJOHKCM": 1,
    "parentID": "07ed1f96-c988-46a4-ab03-67624e80889b",
    "sourceNames": [
      {
        "sourceFileName": "VO_EQ\\VO_NPC\\vo_EQHDJ303_9_yede_11.wem",
        "rate": 1.0,
        "avatarName": "",
        "emotion": ""
      }
    ]
  },
  "b3624df2-f7a7-474a-b297-d63a4326d98e": {
    "guid": "b3624df2-f7a7-474a-b297-d63a4326d98e",
    "playRate": 1.0,
    "gameTrigger": "Dialog",
    "gameTriggerArgs": 401410776,
    "personalConfig": 2,
    "parentID": "07ed1f96-c988-46a4-ab03-67624e80889b",
    "sourceNames": [
      {
        "sourceFileName": "VO_EQ\\VO_shenhe\\vo_EQHDJ303_9_shenhe_02a.wem",
        "rate": 1.0,
        "avatarName": "",
        "emotion": "",
        "gender": 2
      },
      {
        "sourceFileName": "VO_EQ\\VO_shenhe\\vo_EQHDJ303_9_shenhe_02b.wem",
        "rate": 1.0,
        "avatarName": "",
        "emotion": "",
        "gender": 1
      }
    ]
  },
  "b440839d-fbd3-4de2-b2f3-48ee5a3f1a2e": {
    "guid": "b440839d-fbd3-4de2-b2f3-48ee5a3f1a2e",
    "playRate": 1.0,
    "gameTrigger": "Dialog",
    "gameTriggerArgs": 401410783,
    "personalConfig": 2,
    "parentID": "07ed1f96-c988-46a4-ab03-67624e80889b",
    "sourceNames": [
      {
        "sourceFileName": "VO_EQ\\VO_xianyun\\vo_EQHDJ303_9_xianyun_05.wem",
        "rate": 1.0,
        "avatarName": "",
        "emotion": ""
      }
    ]
  },
  "b745f6cc-4a36-4484-b527-17606ba26157": {
    "guid": "b745f6cc-4a36-4484-b527-17606ba26157",
    "playRate": 1.0,
    "gameTrigger": "Dialog",
    "gameTriggerArgs": 401410728,
    "personalConfig": 2,
    "parentID": "07ed1f96-c988-46a4-ab03-67624e80889b",
    "sourceNames": [
      {
        "sourceFileName": "VO_EQ\\VO_xiao\\vo_EQHDJ303_9_xiao_12.wem",
        "rate": 1.0,
        "avatarName": "",
        "emotion": ""
      }
    ]
  },
  "b753bd3e-c32d-41ed-8bdf-621c537df037": {
    "guid": "b753bd3e-c32d-41ed-8bdf-621c537df037",
    "playRate": 1.0,
    "gameTrigger": "Dialog",
    "gameTriggerArgs": 401410734,
    "personalConfig": 2,
    "parentID": "07ed1f96-c988-46a4-ab03-67624e80889b",
    "sourceNames": [
      {
        "sourceFileName": "VO_EQ\\VO_zhongli\\vo_EQHDJ303_9_zhongli_15.wem",
        "rate": 1.0,
        "avatarName": "",
        "emotion": ""
      }
    ]
  },
  "b852bdf9-5be3-445b-a3ad-7963da4a960d": {
    "guid": "b852bdf9-5be3-445b-a3ad-7963da4a960d",
    "playRate": 1.0,
    "gameTrigger": "Dialog",
    "gameTriggerArgs": 401410727,
    "personalConfig": 2,
    "parentID": "07ed1f96-c988-46a4-ab03-67624e80889b",
    "sourceNames": [
      {
        "sourceFileName": "VO_EQ\\VO_zhongli\\vo_EQHDJ303_9_zhongli_12.wem",
        "rate": 1.0,
        "avatarName": "",
        "emotion": ""
      }
    ]
  },
  "bbbc4529-163a-48ea-b9bc-e5d946ef15bf": {
    "guid": "bbbc4529-163a-48ea-b9bc-e5d946ef15bf",
    "playRate": 1.0,
    "gameTrigger": "Dialog",
    "gameTriggerArgs": 401410780,
    "personalConfig": 2,
    "parentID": "07ed1f96-c988-46a4-ab03-67624e80889b",
    "sourceNames": [
      {
        "sourceFileName": "VO_EQ\\VO_shenhe\\vo_EQHDJ303_9_shenhe_04.wem",
        "rate": 1.0,
        "avatarName": "",
        "emotion": ""
      }
    ]
  },
  "c1c23d9a-103b-4eac-b4f1-e23b7fe92c86": {
    "guid": "c1c23d9a-103b-4eac-b4f1-e23b7fe92c86",
    "playRate": 1.0,
    "gameTrigger": "Dialog",
    "gameTriggerArgs": 401410745,
    "personalConfig": 2,
    "parentID": "07ed1f96-c988-46a4-ab03-67624e80889b",
    "sourceNames": [
      {
        "sourceFileName": "VO_EQ\\VO_paimon\\vo_EQHDJ303_9_paimon_08.wem",
        "rate": 1.0,
        "avatarName": "",
        "emotion": ""
      }
    ]
  },
  "c244381f-9269-4e54-8286-eaa3804801da": {
    "guid": "c244381f-9269-4e54-8286-eaa3804801da",
    "playRate": 1.0,
    "gameTrigger": "Dialog",
    "gameTriggerArgs": 401410706,
    "personalConfig": 2,
    "parentID": "07ed1f96-c988-46a4-ab03-67624e80889b",
    "sourceNames": [
      {
        "sourceFileName": "VO_EQ\\VO_zhongli\\vo_EQHDJ303_9_zhongli_03.wem",
        "rate": 1.0,
        "avatarName": "",
        "emotion": ""
      }
    ]
  },
  "c2a4f2a8-6b5b-400a-bf6c-925b795c7dbb": {
    "guid": "c2a4f2a8-6b5b-400a-bf6c-925b795c7dbb",
    "playRate": 1.0,
    "gameTrigger": "Dialog",
    "gameTriggerArgs": 401410746,
    "personalConfig": 2,
    "parentID": "07ed1f96-c988-46a4-ab03-67624e80889b",
    "sourceNames": [
      {
        "sourceFileName": "VO_EQ\\VO_paimon\\vo_EQHDJ303_9_paimon_09.wem",
        "rate": 1.0,
        "avatarName": "",
        "emotion": ""
      }
    ]
  },
  "c4ef27aa-a022-4f1e-b78d-8a10b9fbb203": {
    "guid": "c4ef27aa-a022-4f1e-b78d-8a10b9fbb203",
    "playRate": 1.0,
    "gameTrigger": "Dialog",
    "gameTriggerArgs": 401410770,
    "personalConfig": 2,
    "parentID": "07ed1f96-c988-46a4-ab03-67624e80889b",
    "sourceNames": [
      {
        "sourceFileName": "VO_EQ\\VO_NPC\\vo_EQHDJ303_9_yede_06.wem",
        "rate": 1.0,
        "avatarName": "",
        "emotion": ""
      }
    ]
  },
  "c4fa6194-b51d-4477-82ec-db3b32f92370": {
    "guid": "c4fa6194-b51d-4477-82ec-db3b32f92370",
    "playRate": 1.0,
    "gameTrigger": "Dialog",
    "gameTriggerArgs": 401410796,
    "personalConfig": 2,
    "NJKDHJOHKCM": 1,
    "parentID": "07ed1f96-c988-46a4-ab03-67624e80889b",
    "sourceNames": [
      {
        "sourceFileName": "VO_EQ\\VO_NPC\\vo_EQHDJ303_9_yede_10.wem",
        "rate": 1.0,
        "avatarName": "",
        "emotion": ""
      }
    ]
  },
  "c594dabf-e13d-4116-ab34-d6b444be2a6a": {
    "guid": "c594dabf-e13d-4116-ab34-d6b444be2a6a",
    "playRate": 1.0,
    "gameTrigger": "Dialog",
    "gameTriggerArgs": 401410720,
    "personalConfig": 2,
    "parentID": "07ed1f96-c988-46a4-ab03-67624e80889b",
    "sourceNames": [
      {
        "sourceFileName": "VO_EQ\\VO_zhongli\\vo_EQHDJ303_9_zhongli_08.wem",
        "rate": 1.0,
        "avatarName": "",
        "emotion": ""
      }
    ]
  },
  "c6365592-28b4-4008-9793-f259c4dce20c": {
    "guid": "c6365592-28b4-4008-9793-f259c4dce20c",
    "playRate": 1.0,
    "gameTrigger": "Dialog",
    "gameTriggerArgs": 401410809,
    "personalConfig": 2,
    "parentID": "07ed1f96-c988-46a4-ab03-67624e80889b",
    "sourceNames": [
      {
        "sourceFileName": "VO_EQ\\VO_NPC\\vo_EQHDJ303_9_yede_18.wem",
        "rate": 1.0,
        "avatarName": "",
        "emotion": ""
      }
    ]
  },
  "c648beb6-cae7-4ca8-b5b3-12543ebfdf53": {
    "guid": "c648beb6-cae7-4ca8-b5b3-12543ebfdf53",
    "playRate": 1.0,
    "gameTrigger": "Dialog",
    "gameTriggerArgs": 401410709,
    "personalConfig": 2,
    "parentID": "07ed1f96-c988-46a4-ab03-67624e80889b",
    "sourceNames": [
      {
        "sourceFileName": "VO_EQ\\VO_xiao\\vo_EQHDJ303_9_xiao_02.wem",
        "rate": 1.0,
        "avatarName": "",
        "emotion": ""
      }
    ]
  },
  "cb66af7a-1896-4cf1-ab7a-2155e3c4da31": {
    "guid": "cb66af7a-1896-4cf1-ab7a-2155e3c4da31",
    "playRate": 1.0,
    "gameTrigger": "Dialog",
    "gameTriggerArgs": 401410813,
    "personalConfig": 2,
    "parentID": "07ed1f96-c988-46a4-ab03-67624e80889b",
    "sourceNames": [
      {
        "sourceFileName": "VO_EQ\\VO_NPC\\vo_EQHDJ303_9_yede_19.wem",
        "rate": 1.0,
        "avatarName": "",
        "emotion": ""
      }
    ]
  },
  "cdf6de7a-1696-4fe0-8a4d-ecaab305b9e4": {
    "guid": "cdf6de7a-1696-4fe0-8a4d-ecaab305b9e4",
    "playRate": 1.0,
    "gameTrigger": "Dialog",
    "gameTriggerArgs": 401410761,
    "personalConfig": 2,
    "parentID": "07ed1f96-c988-46a4-ab03-67624e80889b",
    "sourceNames": [
      {
        "sourceFileName": "VO_EQ\\VO_NPC\\vo_EQHDJ303_9_yede_01.wem",
        "rate": 1.0,
        "avatarName": "",
        "emotion": ""
      }
    ]
  },
  "d2bebdad-7de5-428d-b3b4-09a5132bf9c6": {
    "guid": "d2bebdad-7de5-428d-b3b4-09a5132bf9c6",
    "playRate": 1.0,
    "gameTrigger": "Dialog",
    "gameTriggerArgs": 401410723,
    "personalConfig": 2,
    "parentID": "07ed1f96-c988-46a4-ab03-67624e80889b",
    "sourceNames": [
      {
        "sourceFileName": "VO_EQ\\VO_zhongli\\vo_EQHDJ303_9_zhongli_09.wem",
        "rate": 1.0,
        "avatarName": "",
        "emotion": ""
      }
    ]
  },
  "d923045e-63e2-4c6e-b773-d570ecbb3670": {
    "guid": "d923045e-63e2-4c6e-b773-d570ecbb3670",
    "playRate": 1.0,
    "gameTrigger": "Dialog",
    "gameTriggerArgs": 401410793,
    "personalConfig": 2,
    "parentID": "07ed1f96-c988-46a4-ab03-67624e80889b",
    "sourceNames": [
      {
        "sourceFileName": "VO_EQ\\VO_shenhe\\vo_EQHDJ303_9_shenhe_06.wem",
        "rate": 1.0,
        "avatarName": "",
        "emotion": ""
      }
    ]
  },
  "d9448e73-a7ec-4cc0-986e-5f461169690b": {
    "guid": "d9448e73-a7ec-4cc0-986e-5f461169690b",
    "playRate": 1.0,
    "gameTrigger": "Dialog",
    "gameTriggerArgs": 401410800,
    "personalConfig": 2,
    "parentID": "07ed1f96-c988-46a4-ab03-67624e80889b",
    "sourceNames": [
      {
        "sourceFileName": "VO_EQ\\VO_NPC\\vo_EQHDJ303_9_yede_12.wem",
        "rate": 1.0,
        "avatarName": "",
        "emotion": ""
      }
    ]
  },
  "de7b962d-90f9-4478-a5fc-d075932548a9": {
    "guid": "de7b962d-90f9-4478-a5fc-d075932548a9",
    "playRate": 1.0,
    "gameTrigger": "Dialog",
    "gameTriggerArgs": 401410784,
    "personalConfig": 2,
    "NJKDHJOHKCM": 1,
    "parentID": "07ed1f96-c988-46a4-ab03-67624e80889b",
    "sourceNames": [
      {
        "sourceFileName": "VO_EQ\\VO_xianyun\\vo_EQHDJ303_9_xianyun_06.wem",
        "rate": 1.0,
        "avatarName": "",
        "emotion": ""
      }
    ]
  },
  "de845bd6-64f6-4269-b0f7-e21a08feed50": {
    "guid": "de845bd6-64f6-4269-b0f7-e21a08feed50",
    "playRate": 1.0,
    "gameTrigger": "Dialog",
    "gameTriggerArgs": 401410713,
    "personalConfig": 2,
    "parentID": "07ed1f96-c988-46a4-ab03-67624e80889b",
    "sourceNames": [
      {
        "sourceFileName": "VO_EQ\\VO_xiao\\vo_EQHDJ303_9_xiao_06.wem",
        "rate": 1.0,
        "avatarName": "",
        "emotion": ""
      }
    ]
  },
  "e029c93f-2bc8-45a7-8722-e85a0de140fb": {
    "guid": "e029c93f-2bc8-45a7-8722-e85a0de140fb",
    "playRate": 1.0,
    "gameTrigger": "Dialog",
    "gameTriggerArgs": 401410816,
    "personalConfig": 2,
    "parentID": "07ed1f96-c988-46a4-ab03-67624e80889b",
    "sourceNames": [
      {
        "sourceFileName": "VO_EQ\\VO_paimon\\vo_EQHDJ303_9_paimon_15.wem",
        "rate": 1.0,
        "avatarName": "",
        "emotion": ""
      }
    ]
  },
  "e13e6a1e-8d50-4f8f-8d79-dfa338a63058": {
    "guid": "e13e6a1e-8d50-4f8f-8d79-dfa338a63058",
    "playRate": 1.0,
    "gameTrigger": "Dialog",
    "gameTriggerArgs": 401410719,
    "personalConfig": 2,
    "parentID": "07ed1f96-c988-46a4-ab03-67624e80889b",
    "sourceNames": [
      {
        "sourceFileName": "VO_EQ\\VO_xiao\\vo_EQHDJ303_9_xiao_08.wem",
        "rate": 1.0,
        "avatarName": "",
        "emotion": ""
      }
    ]
  },
  "e69b8c5f-d491-4916-bdf6-6a62c0a0d2fd": {
    "guid": "e69b8c5f-d491-4916-bdf6-6a62c0a0d2fd",
    "playRate": 1.0,
    "gameTrigger": "Dialog",
    "gameTriggerArgs": 401410808,
    "personalConfig": 2,
    "parentID": "07ed1f96-c988-46a4-ab03-67624e80889b",
    "sourceNames": [
      {
        "sourceFileName": "VO_EQ\\VO_xianyun\\vo_EQHDJ303_9_xianyun_13.wem",
        "rate": 1.0,
        "avatarName": "",
        "emotion": ""
      }
    ]
  },
  "e7f4b835-7c2f-448f-a1a4-2e9911ef14d3": {
    "guid": "e7f4b835-7c2f-448f-a1a4-2e9911ef14d3",
    "playRate": 1.0,
    "gameTrigger": "Dialog",
    "gameTriggerArgs": 401410724,
    "personalConfig": 2,
    "parentID": "07ed1f96-c988-46a4-ab03-67624e80889b",
    "sourceNames": [
      {
        "sourceFileName": "VO_EQ\\VO_xiao\\vo_EQHDJ303_9_xiao_11.wem",
        "rate": 1.0,
        "avatarName": "",
        "emotion": ""
      }
    ]
  },
  "eba94d25-7a12-487d-a016-26ee081e7312": {
    "guid": "eba94d25-7a12-487d-a016-26ee081e7312",
    "playRate": 1.0,
    "gameTrigger": "Dialog",
    "gameTriggerArgs": 401410794,
    "personalConfig": 2,
    "parentID": "07ed1f96-c988-46a4-ab03-67624e80889b",
    "sourceNames": [
      {
        "sourceFileName": "VO_EQ\\VO_shenhe\\vo_EQHDJ303_9_shenhe_07.wem",
        "rate": 1.0,
        "avatarName": "",
        "emotion": ""
      }
    ]
  },
  "eda8dc48-90fe-441f-ab7f-aec77ced8768": {
    "guid": "eda8dc48-90fe-441f-ab7f-aec77ced8768",
    "playRate": 1.0,
    "gameTrigger": "Dialog",
    "gameTriggerArgs": 401410702,
    "personalConfig": 2,
    "parentID": "07ed1f96-c988-46a4-ab03-67624e80889b",
    "sourceNames": [
      {
        "sourceFileName": "VO_EQ\\VO_zhongli\\vo_EQHDJ303_9_zhongli_01.wem",
        "rate": 1.0,
        "avatarName": "",
        "emotion": ""
      }
    ]
  },
  "f069b106-de12-4182-901a-2fb5008af9cd": {
    "guid": "f069b106-de12-4182-901a-2fb5008af9cd",
    "playRate": 1.0,
    "gameTrigger": "Dialog",
    "gameTriggerArgs": 401410757,
    "personalConfig": 2,
    "parentID": "07ed1f96-c988-46a4-ab03-67624e80889b",
    "sourceNames": [
      {
        "sourceFileName": "VO_EQ\\VO_paimon\\vo_EQHDJ303_9_paimon_11.wem",
        "rate": 1.0,
        "avatarName": "",
        "emotion": ""
      }
    ]
  },
  "f0eace8d-1ea2-46a8-a750-26abf988978d": {
    "guid": "f0eace8d-1ea2-46a8-a750-26abf988978d",
    "playRate": 1.0,
    "gameTrigger": "Dialog",
    "gameTriggerArgs": 401410774,
    "personalConfig": 2,
    "parentID": "07ed1f96-c988-46a4-ab03-67624e80889b",
    "sourceNames": [
      {
        "sourceFileName": "VO_EQ\\VO_xianyun\\vo_EQHDJ303_9_xianyun_01.wem",
        "rate": 1.0,
        "avatarName": "",
        "emotion": ""
      }
    ]
  },
  "f7c2d58f-1a8e-48ed-b639-a40071c19c18": {
    "guid": "f7c2d58f-1a8e-48ed-b639-a40071c19c18",
    "playRate": 1.0,
    "gameTrigger": "Dialog",
    "gameTriggerArgs": 401410785,
    "personalConfig": 2,
    "NJKDHJOHKCM": 1,
    "parentID": "07ed1f96-c988-46a4-ab03-67624e80889b",
    "sourceNames": [
      {
        "sourceFileName": "VO_EQ\\VO_xianyun\\vo_EQHDJ303_9_xianyun_07.wem",
        "rate": 1.0,
        "avatarName": "",
        "emotion": ""
      }
    ]
  },
  "fec21138-0eed-4090-b0e0-9efdd83129bc": {
    "guid": "fec21138-0eed-4090-b0e0-9efdd83129bc",
    "playRate": 1.0,
    "gameTrigger": "Dialog",
    "gameTriggerArgs": 401410790,
    "personalConfig": 2,
    "parentID": "07ed1f96-c988-46a4-ab03-67624e80889b",
    "sourceNames": [
      {
        "sourceFileName": "VO_EQ\\VO_xianyun\\vo_EQHDJ303_9_xianyun_09.wem",
        "rate": 1.0,
        "avatarName": "",
        "emotion": ""
      }
    ]
  },
  "ff5a71c2-cf8e-4b23-9c3a-8a4059af418a": {
    "guid": "ff5a71c2-cf8e-4b23-9c3a-8a4059af418a",
    "playRate": 1.0,
    "gameTrigger": "Dialog",
    "gameTriggerArgs": 401410773,
    "personalConfig": 2,
    "parentID": "07ed1f96-c988-46a4-ab03-67624e80889b",
    "sourceNames": [
      {
        "sourceFileName": "VO_EQ\\VO_gaming\\vo_EQHDJ303_9_gaming_07.wem",
        "rate": 1.0,
        "avatarName": "",
        "emotion": ""
      }
    ]
  },
  "ff82243c-63bc-418d-afe2-dd952ee5e8e4": {
    "guid": "ff82243c-63bc-418d-afe2-dd952ee5e8e4",
    "playRate": 1.0,
    "gameTrigger": "Dialog",
    "gameTriggerArgs": 401410786,
    "personalConfig": 2,
    "parentID": "07ed1f96-c988-46a4-ab03-67624e80889b",
    "sourceNames": [
      {
        "sourceFileName": "VO_EQ\\VO_xianyun\\vo_EQHDJ303_9_xianyun_08.wem",
        "rate": 1.0,
        "avatarName": "",
        "emotion": ""
      }
    ]
  }
}