{
  "0add2ae4-ed32-4d7b-bd5c-8b211e8fbcde": {
    "guid": "0add2ae4-ed32-4d7b-bd5c-8b211e8fbcde",
    "playRate": 1.0,
    "gameTrigger": "Dialog",
    "gameTriggerArgs": 190980716,
    "personalConfig": 2,
    "parentID": "606f6744-f416-4495-b367-229ec60a2eba",
    "sourceNames": [
      {
        "sourceFileName": "VO_COOP\\VO_kaeya\\vo_KYCOP001_1909807_kaeya_17.wem",
        "rate": 1.0,
        "avatarName": "",
        "emotion": ""
      }
    ]
  },
  "2828a26b-d08e-4275-ae8a-122d58a41a25": {
    "guid": "2828a26b-d08e-4275-ae8a-122d58a41a25",
    "playRate": 1.0,
    "gameTrigger": "Dialog",
    "gameTriggerArgs": 190980705,
    "personalConfig": 2,
    "parentID": "606f6744-f416-4495-b367-229ec60a2eba",
    "sourceNames": [
      {
        "sourceFileName": "VO_COOP\\VO_kaeya\\vo_KYCOP001_1909807_kaeya_06.wem",
        "rate": 1.0,
        "avatarName": "",
        "emotion": ""
      }
    ]
  },
  "424aef8e-b19d-4ca6-b1bf-003cd12effea": {
    "guid": "424aef8e-b19d-4ca6-b1bf-003cd12effea",
    "playRate": 1.0,
    "gameTrigger": "Dialog",
    "gameTriggerArgs": 190980712,
    "personalConfig": 2,
    "parentID": "606f6744-f416-4495-b367-229ec60a2eba",
    "sourceNames": [
      {
        "sourceFileName": "VO_COOP\\VO_kaeya\\vo_KYCOP001_1909807_kaeya_13.wem",
        "rate": 1.0,
        "avatarName": "",
        "emotion": ""
      }
    ]
  },
  "548ede28-d828-44f1-8941-f19d787e27cf": {
    "guid": "548ede28-d828-44f1-8941-f19d787e27cf",
    "playRate": 1.0,
    "gameTrigger": "Dialog",
    "gameTriggerArgs": 190980709,
    "personalConfig": 2,
    "parentID": "606f6744-f416-4495-b367-229ec60a2eba",
    "sourceNames": [
      {
        "sourceFileName": "VO_COOP\\VO_kaeya\\vo_KYCOP001_1909807_kaeya_10.wem",
        "rate": 1.0,
        "avatarName": "",
        "emotion": ""
      }
    ]
  },
  "687a6cdb-ecaf-417e-ab53-6ef928698aa1": {
    "guid": "687a6cdb-ecaf-417e-ab53-6ef928698aa1",
    "playRate": 1.0,
    "gameTrigger": "Dialog",
    "gameTriggerArgs": 190980711,
    "personalConfig": 2,
    "parentID": "606f6744-f416-4495-b367-229ec60a2eba",
    "sourceNames": [
      {
        "sourceFileName": "VO_COOP\\VO_kaeya\\vo_KYCOP001_1909807_kaeya_12.wem",
        "rate": 1.0,
        "avatarName": "",
        "emotion": ""
      }
    ]
  },
  "7380c59c-2d0e-4a48-b1ae-a8992a559037": {
    "guid": "7380c59c-2d0e-4a48-b1ae-a8992a559037",
    "playRate": 1.0,
    "gameTrigger": "Dialog",
    "gameTriggerArgs": 190980717,
    "personalConfig": 2,
    "parentID": "606f6744-f416-4495-b367-229ec60a2eba",
    "sourceNames": [
      {
        "sourceFileName": "VO_COOP\\VO_kaeya\\vo_KYCOP001_1909807_kaeya_18.wem",
        "rate": 1.0,
        "avatarName": "",
        "emotion": ""
      }
    ]
  },
  "7e0803f2-1c1f-49b1-a795-ee25714f9dc6": {
    "guid": "7e0803f2-1c1f-49b1-a795-ee25714f9dc6",
    "playRate": 1.0,
    "gameTrigger": "Dialog",
    "gameTriggerArgs": 190980702,
    "personalConfig": 2,
    "parentID": "606f6744-f416-4495-b367-229ec60a2eba",
    "sourceNames": [
      {
        "sourceFileName": "VO_COOP\\VO_kaeya\\vo_KYCOP001_1909807_kaeya_03.wem",
        "rate": 1.0,
        "avatarName": "",
        "emotion": ""
      }
    ]
  },
  "7fd21f2a-e6b6-443e-acdc-f28b1127268a": {
    "guid": "7fd21f2a-e6b6-443e-acdc-f28b1127268a",
    "playRate": 1.0,
    "gameTrigger": "Dialog",
    "gameTriggerArgs": 1018051701,
    "personalConfig": 2,
    "NJKDHJOHKCM": 1,
    "parentID": "606f6744-f416-4495-b367-229ec60a2eba",
    "sourceNames": [
      {
        "sourceFileName": "VO_COOP\\VO_kaeya\\vo_KYCOP001_1909807_kaeya_01.wem",
        "rate": 1.0,
        "avatarName": "",
        "emotion": ""
      }
    ]
  },
  "966aac2a-fce1-4d51-a365-bf8b55b44d20": {
    "guid": "966aac2a-fce1-4d51-a365-bf8b55b44d20",
    "playRate": 1.0,
    "gameTrigger": "Dialog",
    "gameTriggerArgs": 190980710,
    "personalConfig": 2,
    "parentID": "606f6744-f416-4495-b367-229ec60a2eba",
    "sourceNames": [
      {
        "sourceFileName": "VO_COOP\\VO_kaeya\\vo_KYCOP001_1909807_kaeya_11.wem",
        "rate": 1.0,
        "avatarName": "",
        "emotion": ""
      }
    ]
  },
  "a6d99f5e-0500-42db-b76f-c592436cef9d": {
    "guid": "a6d99f5e-0500-42db-b76f-c592436cef9d",
    "playRate": 1.0,
    "gameTrigger": "Dialog",
    "gameTriggerArgs": 190980714,
    "personalConfig": 2,
    "parentID": "606f6744-f416-4495-b367-229ec60a2eba",
    "sourceNames": [
      {
        "sourceFileName": "VO_COOP\\VO_kaeya\\vo_KYCOP001_1909807_kaeya_15.wem",
        "rate": 1.0,
        "avatarName": "",
        "emotion": ""
      }
    ]
  },
  "b2350921-ff8c-4cc3-af98-5e91b6fe14cd": {
    "guid": "b2350921-ff8c-4cc3-af98-5e91b6fe14cd",
    "playRate": 1.0,
    "gameTrigger": "Dialog",
    "gameTriggerArgs": 190980715,
    "personalConfig": 2,
    "parentID": "606f6744-f416-4495-b367-229ec60a2eba",
    "sourceNames": [
      {
        "sourceFileName": "VO_COOP\\VO_kaeya\\vo_KYCOP001_1909807_kaeya_16.wem",
        "rate": 1.0,
        "avatarName": "",
        "emotion": ""
      }
    ]
  },
  "b2fcf96a-7ac8-49a4-ba7a-0428dc83d319": {
    "guid": "b2fcf96a-7ac8-49a4-ba7a-0428dc83d319",
    "playRate": 1.0,
    "gameTrigger": "Dialog",
    "gameTriggerArgs": 190980707,
    "personalConfig": 2,
    "parentID": "606f6744-f416-4495-b367-229ec60a2eba",
    "sourceNames": [
      {
        "sourceFileName": "VO_COOP\\VO_kaeya\\vo_KYCOP001_1909807_kaeya_08.wem",
        "rate": 1.0,
        "avatarName": "",
        "emotion": ""
      }
    ]
  },
  "b397add5-fdfb-441e-8c11-d5481af6036c": {
    "guid": "b397add5-fdfb-441e-8c11-d5481af6036c",
    "playRate": 1.0,
    "gameTrigger": "Dialog",
    "gameTriggerArgs": 190980701,
    "personalConfig": 2,
    "parentID": "606f6744-f416-4495-b367-229ec60a2eba",
    "sourceNames": [
      {
        "sourceFileName": "VO_COOP\\VO_kaeya\\vo_KYCOP001_1909807_kaeya_02.wem",
        "rate": 1.0,
        "avatarName": "",
        "emotion": ""
      }
    ]
  },
  "b778adcd-363b-4822-a498-9136ddce3990": {
    "guid": "b778adcd-363b-4822-a498-9136ddce3990",
    "playRate": 1.0,
    "gameTrigger": "Dialog",
    "gameTriggerArgs": 190980708,
    "personalConfig": 2,
    "parentID": "606f6744-f416-4495-b367-229ec60a2eba",
    "sourceNames": [
      {
        "sourceFileName": "VO_COOP\\VO_kaeya\\vo_KYCOP001_1909807_kaeya_09.wem",
        "rate": 1.0,
        "avatarName": "",
        "emotion": ""
      }
    ]
  },
  "b7a075b9-caaf-4c8f-854a-0e27b5b1ab5f": {
    "guid": "b7a075b9-caaf-4c8f-854a-0e27b5b1ab5f",
    "playRate": 1.0,
    "gameTrigger": "Dialog",
    "gameTriggerArgs": 190980713,
    "personalConfig": 2,
    "parentID": "606f6744-f416-4495-b367-229ec60a2eba",
    "sourceNames": [
      {
        "sourceFileName": "VO_COOP\\VO_kaeya\\vo_KYCOP001_1909807_kaeya_14.wem",
        "rate": 1.0,
        "avatarName": "",
        "emotion": ""
      }
    ]
  },
  "be323788-8ce2-429a-bf44-4ffbc7bd80b6": {
    "guid": "be323788-8ce2-429a-bf44-4ffbc7bd80b6",
    "playRate": 1.0,
    "gameTrigger": "Dialog",
    "gameTriggerArgs": 190980704,
    "personalConfig": 2,
    "parentID": "606f6744-f416-4495-b367-229ec60a2eba",
    "sourceNames": [
      {
        "sourceFileName": "VO_COOP\\VO_kaeya\\vo_KYCOP001_1909807_kaeya_05.wem",
        "rate": 1.0,
        "avatarName": "",
        "emotion": ""
      }
    ]
  },
  "ecca02b6-0cc7-4968-a83c-642d007bdee1": {
    "guid": "ecca02b6-0cc7-4968-a83c-642d007bdee1",
    "playRate": 1.0,
    "gameTrigger": "Dialog",
    "gameTriggerArgs": 190980706,
    "personalConfig": 2,
    "parentID": "606f6744-f416-4495-b367-229ec60a2eba",
    "sourceNames": [
      {
        "sourceFileName": "VO_COOP\\VO_kaeya\\vo_KYCOP001_1909807_kaeya_07.wem",
        "rate": 1.0,
        "avatarName": "",
        "emotion": ""
      }
    ]
  },
  "ee231401-7dcc-406e-92c0-64feac34e1c3": {
    "guid": "ee231401-7dcc-406e-92c0-64feac34e1c3",
    "playRate": 1.0,
    "gameTrigger": "Dialog",
    "gameTriggerArgs": 190980703,
    "personalConfig": 2,
    "parentID": "606f6744-f416-4495-b367-229ec60a2eba",
    "sourceNames": [
      {
        "sourceFileName": "VO_COOP\\VO_kaeya\\vo_KYCOP001_1909807_kaeya_04.wem",
        "rate": 1.0,
        "avatarName": "",
        "emotion": ""
      }
    ]
  }
}