{
  "02476813-18bb-4143-964a-63b6e294cc4a": {
    "guid": "02476813-18bb-4143-964a-63b6e294cc4a",
    "playRate": 1.0,
    "gameTrigger": "Dialog",
    "gameTriggerArgs": 693520203,
    "parentID": "7ffda31f-5055-4555-af61-df9c19d12cff",
    "sourceNames": [
      {
        "sourceFileName": "VO_Tower\\vo_dori_saferoom_challenge_03.wem",
        "rate": 1.0,
        "avatarName": "",
        "emotion": ""
      }
    ]
  },
  "41532b59-1347-47e7-831c-bc78c3235377": {
    "guid": "41532b59-1347-47e7-831c-bc78c3235377",
    "playRate": 1.0,
    "gameTrigger": "Dialog",
    "gameTriggerArgs": 693520303,
    "parentID": "7ffda31f-5055-4555-af61-df9c19d12cff",
    "sourceNames": [
      {
        "sourceFileName": "VO_Tower\\vo_dori_saferoom_others_03.wem",
        "rate": 1.0,
        "avatarName": "",
        "emotion": ""
      }
    ]
  },
  "7f50b4ab-f8a7-422a-a7e8-729bd16451a6": {
    "guid": "7f50b4ab-f8a7-422a-a7e8-729bd16451a6",
    "playRate": 1.0,
    "gameTrigger": "Dialog",
    "gameTriggerArgs": 693520101,
    "parentID": "7ffda31f-5055-4555-af61-df9c19d12cff",
    "sourceNames": [
      {
        "sourceFileName": "VO_Tower\\vo_dori_saferoom_rest_01.wem",
        "rate": 1.0,
        "avatarName": "",
        "emotion": ""
      }
    ]
  },
  "92979472-2a0a-449a-80f3-987f39d18a3c": {
    "guid": "92979472-2a0a-449a-80f3-987f39d18a3c",
    "playRate": 1.0,
    "gameTrigger": "Dialog",
    "gameTriggerArgs": 693520201,
    "parentID": "7ffda31f-5055-4555-af61-df9c19d12cff",
    "sourceNames": [
      {
        "sourceFileName": "VO_Tower\\vo_dori_saferoom_challenge_01.wem",
        "rate": 1.0,
        "avatarName": "",
        "emotion": ""
      }
    ]
  },
  "9a896ff5-7582-43c1-82f1-bd766ecdb3d1": {
    "guid": "9a896ff5-7582-43c1-82f1-bd766ecdb3d1",
    "playRate": 1.0,
    "gameTrigger": "Dialog",
    "gameTriggerArgs": 693520202,
    "parentID": "7ffda31f-5055-4555-af61-df9c19d12cff",
    "sourceNames": [
      {
        "sourceFileName": "VO_Tower\\vo_dori_saferoom_challenge_02.wem",
        "rate": 1.0,
        "avatarName": "",
        "emotion": ""
      }
    ]
  },
  "a2d73576-2c49-4846-89f0-4fa21ad40846": {
    "guid": "a2d73576-2c49-4846-89f0-4fa21ad40846",
    "playRate": 1.0,
    "gameTrigger": "Dialog",
    "gameTriggerArgs": 693520103,
    "parentID": "7ffda31f-5055-4555-af61-df9c19d12cff",
    "sourceNames": [
      {
        "sourceFileName": "VO_Tower\\vo_dori_saferoom_rest_03.wem",
        "rate": 1.0,
        "avatarName": "",
        "emotion": ""
      }
    ]
  },
  "a84c106b-7b60-40c8-a951-41cb8e2e62a1": {
    "guid": "a84c106b-7b60-40c8-a951-41cb8e2e62a1",
    "playRate": 1.0,
    "gameTrigger": "Dialog",
    "gameTriggerArgs": 693520301,
    "parentID": "7ffda31f-5055-4555-af61-df9c19d12cff",
    "sourceNames": [
      {
        "sourceFileName": "VO_Tower\\vo_dori_saferoom_others_01.wem",
        "rate": 1.0,
        "avatarName": "",
        "emotion": ""
      }
    ]
  },
  "d3ab45b3-9aab-4084-819d-cef7e5fa9609": {
    "guid": "d3ab45b3-9aab-4084-819d-cef7e5fa9609",
    "playRate": 1.0,
    "gameTrigger": "Dialog",
    "gameTriggerArgs": 693520102,
    "parentID": "7ffda31f-5055-4555-af61-df9c19d12cff",
    "sourceNames": [
      {
        "sourceFileName": "VO_Tower\\vo_dori_saferoom_rest_02.wem",
        "rate": 1.0,
        "avatarName": "",
        "emotion": ""
      }
    ]
  },
  "d5785c55-0a95-4d60-9e01-426818f6f3b5": {
    "guid": "d5785c55-0a95-4d60-9e01-426818f6f3b5",
    "playRate": 1.0,
    "gameTrigger": "Dialog",
    "gameTriggerArgs": 693520302,
    "parentID": "7ffda31f-5055-4555-af61-df9c19d12cff",
    "sourceNames": [
      {
        "sourceFileName": "VO_Tower\\vo_dori_saferoom_others_02.wem",
        "rate": 1.0,
        "avatarName": "",
        "emotion": ""
      }
    ]
  }
}