{
  "0ec7b41a-8671-4e32-a9ac-eec4dbb48d6b": {
    "guid": "0ec7b41a-8671-4e32-a9ac-eec4dbb48d6b",
    "playRate": 1.0,
    "gameTrigger": "Dialog",
    "gameTriggerArgs": 693460101,
    "parentID": "c678e5af-2e0d-4726-bcc0-9285b43628e2",
    "sourceNames": [
      {
        "sourceFileName": "VO_Tower\\vo_ayato_saferoom_rest_01.wem",
        "rate": 1.0,
        "avatarName": "",
        "emotion": ""
      }
    ]
  },
  "12982b0a-e3a9-4eb5-a728-180b09777f65": {
    "guid": "12982b0a-e3a9-4eb5-a728-180b09777f65",
    "playRate": 1.0,
    "gameTrigger": "Dialog",
    "gameTriggerArgs": 693460201,
    "parentID": "c678e5af-2e0d-4726-bcc0-9285b43628e2",
    "sourceNames": [
      {
        "sourceFileName": "VO_Tower\\vo_ayato_saferoom_challenge_01.wem",
        "rate": 1.0,
        "avatarName": "",
        "emotion": ""
      }
    ]
  },
  "65253eb9-be8b-4a8e-a8e2-4eb31cfd824b": {
    "guid": "65253eb9-be8b-4a8e-a8e2-4eb31cfd824b",
    "playRate": 1.0,
    "gameTrigger": "Dialog",
    "gameTriggerArgs": 693460202,
    "parentID": "c678e5af-2e0d-4726-bcc0-9285b43628e2",
    "sourceNames": [
      {
        "sourceFileName": "VO_Tower\\vo_ayato_saferoom_challenge_02.wem",
        "rate": 1.0,
        "avatarName": "",
        "emotion": ""
      }
    ]
  },
  "74ed94cd-cdf6-4ba7-9bc6-8b2ec7aa9ba0": {
    "guid": "74ed94cd-cdf6-4ba7-9bc6-8b2ec7aa9ba0",
    "playRate": 1.0,
    "gameTrigger": "Dialog",
    "gameTriggerArgs": 693460302,
    "parentID": "c678e5af-2e0d-4726-bcc0-9285b43628e2",
    "sourceNames": [
      {
        "sourceFileName": "VO_Tower\\vo_ayato_saferoom_others_02.wem",
        "rate": 1.0,
        "avatarName": "",
        "emotion": ""
      }
    ]
  },
  "a3bee33d-256f-4c94-8c66-7a3aa40f68d8": {
    "guid": "a3bee33d-256f-4c94-8c66-7a3aa40f68d8",
    "playRate": 1.0,
    "gameTrigger": "Dialog",
    "gameTriggerArgs": 693460203,
    "parentID": "c678e5af-2e0d-4726-bcc0-9285b43628e2",
    "sourceNames": [
      {
        "sourceFileName": "VO_Tower\\vo_ayato_saferoom_challenge_03.wem",
        "rate": 1.0,
        "avatarName": "",
        "emotion": ""
      }
    ]
  },
  "c0ef6b80-2606-4fa6-8856-ffc6f0153880": {
    "guid": "c0ef6b80-2606-4fa6-8856-ffc6f0153880",
    "playRate": 1.0,
    "gameTrigger": "Dialog",
    "gameTriggerArgs": 693460301,
    "parentID": "c678e5af-2e0d-4726-bcc0-9285b43628e2",
    "sourceNames": [
      {
        "sourceFileName": "VO_Tower\\vo_ayato_saferoom_others_01.wem",
        "rate": 1.0,
        "avatarName": "",
        "emotion": ""
      }
    ]
  },
  "c2526ae3-2330-4f4f-9ce5-7bfa2689cef8": {
    "guid": "c2526ae3-2330-4f4f-9ce5-7bfa2689cef8",
    "playRate": 1.0,
    "gameTrigger": "Dialog",
    "gameTriggerArgs": 693460102,
    "parentID": "c678e5af-2e0d-4726-bcc0-9285b43628e2",
    "sourceNames": [
      {
        "sourceFileName": "VO_Tower\\vo_ayato_saferoom_rest_02.wem",
        "rate": 1.0,
        "avatarName": "",
        "emotion": ""
      }
    ]
  },
  "eaa23978-a36b-4a9f-bfe6-2931525bb037": {
    "guid": "eaa23978-a36b-4a9f-bfe6-2931525bb037",
    "playRate": 1.0,
    "gameTrigger": "Dialog",
    "gameTriggerArgs": 693460303,
    "parentID": "c678e5af-2e0d-4726-bcc0-9285b43628e2",
    "sourceNames": [
      {
        "sourceFileName": "VO_Tower\\vo_ayato_saferoom_others_03.wem",
        "rate": 1.0,
        "avatarName": "",
        "emotion": ""
      }
    ]
  },
  "f1cea3a2-bd82-4171-b07e-08606d2a32df": {
    "guid": "f1cea3a2-bd82-4171-b07e-08606d2a32df",
    "playRate": 1.0,
    "gameTrigger": "Dialog",
    "gameTriggerArgs": 693460103,
    "parentID": "c678e5af-2e0d-4726-bcc0-9285b43628e2",
    "sourceNames": [
      {
        "sourceFileName": "VO_Tower\\vo_ayato_saferoom_rest_03.wem",
        "rate": 1.0,
        "avatarName": "",
        "emotion": ""
      }
    ]
  }
}