[
  {
    "Default": {
      "$type": "MoleMole.Config.GNKCLKNDOAK",
      "abilityName": "FauneAbyssale_SeaHorse_Larva_BubbleTrigger",
      "PIDAPNFJNDF": [
        {
          "$type": "MoleMole.Config.SteerAttackMixin",
          "BAJBFPAEMHB": [
            "BubbleAttack"
          ],
          "angularSpeed": 120.0,
          "GMIILFMLLJI": "",
          "MJFJKAHGHDJ": ""
        },
        {
          "$type": "MoleMole.Config.SteerAttackMixin",
          "BAJBFPAEMHB": [
            "Alert"
          ],
          "angularSpeed": 150.0,
          "GMIILFMLLJI": "",
          "MJFJKAHGHDJ": ""
        }
      ],
      "EIIHGJGFDHC": [
        {
          "$type": "MoleMole.Config.TriggerBullet",
          "DCNFGAGBCMP": 42601102,
          "born": {
            "$type": "JEDNAGFKIDP",
            "direction": {
              "$type": "HCHFPIMPCJM",
              "randomAngleHor": 9.0,
              "randomAngleVer": 9.0,
              "maxAngleType": "Vertical",
              "maxAngle": 25.0,
              "BKMDHKCJDCB": ""
            },
            "useRotation": true,
            "OBNIJLKICKN": "BornBubble",
            "KLLPFNDMLHO": "Self"
          },
          "DGEKFHHECPG": "SelfAttackActiveTarget"
        },
        {
          "$type": "MoleMole.Config.FireEffect",
          "effectPattern": "Eff_Monster_FauneAbyssale_SeaHorse_Larva_BubbleTrigger",
          "effectTempleteID": -1.0
        }
      ]
    }
  },
  {
    "Default": {
      "$type": "MoleMole.Config.GNKCLKNDOAK",
      "abilityName": "FauneAbyssale_SeaHorse_Larva_FrolicBubbleTrigger",
      "PIDAPNFJNDF": [
        {
          "$type": "MoleMole.Config.SteerAttackMixin",
          "BAJBFPAEMHB": [
            "BubbleAttack_Frolic"
          ],
          "angularSpeed": 120.0,
          "GMIILFMLLJI": "",
          "OKFGMFEEPMH": [
            "BuddyTarget"
          ],
          "MJFJKAHGHDJ": ""
        }
      ],
      "EIIHGJGFDHC": [
        {
          "$type": "MoleMole.Config.TriggerBullet",
          "DCNFGAGBCMP": 42601107,
          "born": {
            "$type": "JEDNAGFKIDP",
            "direction": {
              "$type": "HCHFPIMPCJM",
              "randomAngleHor": 6.0,
              "randomAngleVer": 6.0,
              "maxAngleType": "Vertical",
              "maxAngle": 16.0,
              "BKMDHKCJDCB": ""
            },
            "useRotation": true,
            "OBNIJLKICKN": "BornBubble",
            "KLLPFNDMLHO": "Self"
          },
          "DGEKFHHECPG": "SelfAttackActiveTarget"
        },
        {
          "$type": "MoleMole.Config.FireEffect",
          "effectPattern": "Eff_Monster_FauneAbyssale_SeaHorse_Larva_BubbleTrigger",
          "effectTempleteID": -1.0
        }
      ]
    }
  },
  {
    "Default": {
      "$type": "MoleMole.Config.GNKCLKNDOAK",
      "abilityName": "FauneAbyssale_SeaHorse_Larva_Bubble_Interest",
      "EIIHGJGFDHC": [
        {
          "$type": "MoleMole.Config.TriggerBullet",
          "DCNFGAGBCMP": 42601102,
          "born": {
            "$type": "JEDNAGFKIDP",
            "direction": {
              "$type": "HDGHIAEOIJK"
            },
            "useRotation": true,
            "OBNIJLKICKN": "BornBubble",
            "KLLPFNDMLHO": "Self"
          },
          "DGEKFHHECPG": "SelfAttackActiveTarget"
        },
        {
          "$type": "MoleMole.Config.FireEffect",
          "effectPattern": "Eff_Monster_FauneAbyssale_SeaHorse_Larva_BubbleTrigger",
          "effectTempleteID": -1.0
        }
      ]
    }
  },
  {
    "Default": {
      "$type": "MoleMole.Config.GNKCLKNDOAK",
      "abilityName": "FauneAbyssale_SeaHorse_Larva_FreePose",
      "PIDAPNFJNDF": [
        {
          "$type": "MoleMole.Config.AttachToStateIDMixin",
          "stateIDs": [
            "Sleeping"
          ],
          "modifierName": "Sleeping_VFX",
          "MJFJKAHGHDJ": ""
        }
      ],
      "BFBDNNJCDLH": {
        "Sleeping_VFX": {
          "modifierName": "",
          "elementDurability": 100.0,
          "OAOGLLGGJPD": [
            {
              "$type": "MoleMole.Config.AttachEffect",
              "effectPattern": "Eff_Monster_FauneAbyssale_SeaHorse_Larva_FreePose_Sleep",
              "effectTempleteID": -1.0
            }
          ],
          "MINFJCDAIBB": [
            {
              "$type": "MoleMole.Config.FireEffect",
              "effectPattern": "Eff_Monster_FauneAbyssale_SeaHorse_Larva_FreePose_Sleep_AS",
              "effectTempleteID": -1.0
            }
          ]
        }
      }
    }
  },
  {
    "Default": {
      "$type": "MoleMole.Config.GNKCLKNDOAK",
      "abilityName": "FauneAbyssale_SeaHorse_Larva_BubbleBullet",
      "BFBDNNJCDLH": {
        "BubbleBullet_Display": {
          "modifierName": "",
          "elementType": "Water",
          "elementDurability": 25.0,
          "OAOGLLGGJPD": [
            {
              "$type": "MoleMole.Config.AttachEffect",
              "effectPattern": "Eff_Monster_FauneAbyssale_SeaHorse_Larva_BubbleBullet",
              "effectTempleteID": -1.0
            },
            {
              "$type": "MoleMole.Config.AttachEffect",
              "effectPattern": "Eff_Monster_FauneAbyssale_SeaHorse_Larva_BubbleBullet_Trail",
              "effectTempleteID": -1.0
            }
          ]
        }
      },
      "OAOGLLGGJPD": [
        {
          "$type": "MoleMole.Config.AttachModifier",
          "modifierName": "BubbleBullet_Display"
        }
      ],
      "EIIHGJGFDHC": [
        {
          "$type": "MoleMole.Config.FireEffect",
          "effectPattern": "Eff_Monster_FauneAbyssale_SeaHorse_Larva_BubbleBullet_Broken",
          "born": {
            "$type": "AGPIGGAPILF"
          },
          "effectTempleteID": -1.0
        },
        {
          "$type": "MoleMole.Config.TriggerAttackEvent",
          "attackEvent": {
            "attackPattern": {
              "$type": "IJCIPLFIDAK",
              "triggerType": "TriggerNoRepeat",
              "born": {
                "$type": "AGPIGGAPILF"
              },
              "MFGGJCPPBGA": 0.800000011920929
            },
            "attackInfo": {
              "attackTag": "",
              "attenuationTag": "",
              "attenuationGroup": "default",
              "attackProperty": {
                "JMLMDDCBIAO": 1.0,
                "damagePercentageRatio": 0.0,
                "elementType": "Water",
                "elementDurability": 25.0,
                "strikeType": "Default",
                "enBreak": 1.0,
                "attackType": "Range",
                "damagePercentage": 0.0
              },
              "hitPattern": {
                "onHitEffectName": "default",
                "hitImpulseY": "",
                "hitImpulseType": "LV1"
              },
              "canBeModifiedBy": "Owner"
            }
          },
          "targetType": "Enemy"
        }
      ]
    }
  },
  {
    "Default": {
      "$type": "MoleMole.Config.GNKCLKNDOAK",
      "abilityName": "FauneAbyssale_SeaHorse_Larva_FrolicBubble",
      "BFBDNNJCDLH": {
        "BubbleBullet_Display": {
          "modifierName": "",
          "elementType": "Water",
          "elementDurability": 25.0,
          "OAOGLLGGJPD": [
            {
              "$type": "MoleMole.Config.AttachEffect",
              "effectPattern": "Eff_Monster_FauneAbyssale_SeaHorse_Larva_BubbleBullet",
              "effectTempleteID": -1.0
            },
            {
              "$type": "MoleMole.Config.AttachEffect",
              "effectPattern": "Eff_Monster_FauneAbyssale_SeaHorse_Larva_BubbleBullet_Trail",
              "effectTempleteID": -1.0
            }
          ]
        },
        "FrolicBubble_Hit": {
          "modifierName": "",
          "duration": 0.20000000298023224,
          "elementDurability": 100.0,
          "OAOGLLGGJPD": [
            {
              "$type": "MoleMole.Config.SetAnimatorTrigger",
              "triggerID": "BubbleHit",
              "HLKBAOMMIGG": true
            },
            {
              "$type": "MoleMole.Config.SetAISkillCDAvailableNow",
              "NICABCMPFMM": [
                9003
              ]
            }
          ]
        }
      },
      "OAOGLLGGJPD": [
        {
          "$type": "MoleMole.Config.AttachModifier",
          "modifierName": "BubbleBullet_Display"
        }
      ],
      "EIIHGJGFDHC": [
        {
          "$type": "MoleMole.Config.FireEffect",
          "effectPattern": "Eff_Monster_FauneAbyssale_SeaHorse_Larva_BubbleBullet_Broken",
          "born": {
            "$type": "JEDNAGFKIDP",
            "useRotation": true,
            "OBNIJLKICKN": "RootNode"
          },
          "effectTempleteID": -1.0
        },
        {
          "$type": "MoleMole.Config.ApplyModifier",
          "MLDBFKEGPEF": "Target",
          "predicates": [
            {
              "$type": "LNALCOIFPDK",
              "predicates": [
                {
                  "$type": "LCEDJHFGCEN",
                  "MOKIGFFMJNB": [
                    4027
                  ]
                },
                {
                  "$type": "LCEDJHFGCEN",
                  "MOKIGFFMJNB": [
                    4028
                  ]
                }
              ]
            }
          ],
          "modifierName": "FrolicBubble_Hit"
        }
      ]
    }
  },
  {
    "Default": {
      "$type": "MoleMole.Config.GNKCLKNDOAK",
      "abilityName": "FauneAbyssale_SeaHorse_Mature_BallLightningTrigger",
      "PIDAPNFJNDF": [
        {
          "$type": "MoleMole.Config.SteerAttackMixin",
          "BAJBFPAEMHB": [
            "BallLightning_BS",
            "BallLightning"
          ],
          "angularSpeed": 135.0,
          "GMIILFMLLJI": "",
          "MJFJKAHGHDJ": ""
        },
        {
          "$type": "MoleMole.Config.SteerAttackMixin",
          "BAJBFPAEMHB": [
            "Alert"
          ],
          "angularSpeed": 150.0,
          "GMIILFMLLJI": "",
          "MJFJKAHGHDJ": ""
        }
      ],
      "EIIHGJGFDHC": [
        {
          "$type": "MoleMole.Config.FireEffect",
          "effectPattern": "Eff_Monster_FauneAbyssale_SeaHorse_Mature_BallLightningTrigger",
          "effectTempleteID": -1.0
        },
        {
          "$type": "MoleMole.Config.TriggerBullet",
          "DCNFGAGBCMP": 42601108,
          "born": {
            "$type": "JEDNAGFKIDP",
            "direction": {
              "$type": "HCHFPIMPCJM",
              "maxAngleType": "Vertical",
              "maxAngle": 30.0,
              "BKMDHKCJDCB": ""
            },
            "useRotation": true,
            "OBNIJLKICKN": "TailPearl",
            "KLLPFNDMLHO": "Self"
          },
          "DGEKFHHECPG": "SelfAttackActiveTarget"
        },
        {
          "$type": "MoleMole.Config.SetAnimatorTrigger",
          "triggerID": "PearlRelease",
          "HLKBAOMMIGG": true
        }
      ]
    }
  },
  {
    "Default": {
      "$type": "MoleMole.Config.GNKCLKNDOAK",
      "abilityName": "FauneAbyssale_SeaHorse_Mature_BallLightning",
      "BFBDNNJCDLH": {
        "BallLightning_Display": {
          "modifierName": "",
          "elementType": "Electric",
          "elementDurability": 25.0,
          "OAOGLLGGJPD": [
            {
              "$type": "MoleMole.Config.AttachEffect",
              "effectPattern": "Eff_Monster_FauneAbyssale_SeaHorse_Mature_BallLightning",
              "effectTempleteID": -1.0
            }
          ]
        }
      },
      "OAOGLLGGJPD": [
        {
          "$type": "MoleMole.Config.AttachModifier",
          "modifierName": "BallLightning_Display"
        }
      ],
      "EIIHGJGFDHC": [
        {
          "$type": "MoleMole.Config.FireEffect",
          "effectPattern": "Eff_Monster_FauneAbyssale_SeaHorse_Mature_BallLightning_Broken",
          "born": {
            "$type": "JEDNAGFKIDP",
            "useRotation": true,
            "OBNIJLKICKN": "RootNode"
          },
          "effectTempleteID": -1.0
        },
        {
          "$type": "MoleMole.Config.TriggerAttackEvent",
          "attackEvent": {
            "attackPattern": {
              "$type": "IJCIPLFIDAK",
              "triggerType": "TriggerNoRepeat",
              "born": {
                "$type": "JEDNAGFKIDP",
                "useRotation": true,
                "OBNIJLKICKN": "RootNode"
              },
              "MFGGJCPPBGA": 2.75
            },
            "attackInfo": {
              "attackTag": "",
              "attenuationTag": "",
              "attenuationGroup": "default",
              "attackProperty": {
                "JMLMDDCBIAO": 0.800000011920929,
                "damagePercentageRatio": 0.0,
                "elementType": "Electric",
                "elementDurability": 25.0,
                "strikeType": "Default",
                "enBreak": 125.0,
                "attackType": "Range",
                "damagePercentage": 0.0
              },
              "hitPattern": {
                "onHitEffectName": "default",
                "hitImpulseY": "",
                "hitImpulseType": "LV2"
              },
              "canBeModifiedBy": "Owner"
            }
          },
          "targetType": "Enemy"
        }
      ]
    }
  },
  {
    "Default": {
      "$type": "MoleMole.Config.GNKCLKNDOAK",
      "abilityName": "FauneAbyssale_SeaHorse_Mature_WaterBulletTrigger",
      "PIDAPNFJNDF": [
        {
          "$type": "MoleMole.Config.SteerAttackMixin",
          "BAJBFPAEMHB": [
            "WaterBullet"
          ],
          "angularSpeed": 135.0,
          "GMIILFMLLJI": "",
          "MJFJKAHGHDJ": ""
        }
      ],
      "EIIHGJGFDHC": [
        {
          "$type": "MoleMole.Config.TriggerBullet",
          "DCNFGAGBCMP": 42601109,
          "born": {
            "$type": "JEDNAGFKIDP",
            "direction": {
              "$type": "HCHFPIMPCJM",
              "maxAngleType": "Vertical",
              "maxAngle": 30.0,
              "BKMDHKCJDCB": ""
            },
            "useRotation": true,
            "OBNIJLKICKN": "Mouth",
            "KLLPFNDMLHO": "Self"
          },
          "DGEKFHHECPG": "SelfAttackActiveTarget"
        }
      ]
    }
  },
  {
    "Default": {
      "$type": "MoleMole.Config.GNKCLKNDOAK",
      "abilityName": "FauneAbyssale_SeaHorse_Mature_WaterBullet",
      "BFBDNNJCDLH": {
        "Bullet_Display": {
          "modifierName": "",
          "elementType": "Water",
          "elementDurability": 25.0,
          "OAOGLLGGJPD": [
            {
              "$type": "MoleMole.Config.AttachEffect",
              "effectPattern": "Eff_Monster_FauneAbyssale_SeaHorse_Mature_WaterBullet",
              "effectTempleteID": -1.0
            },
            {
              "$type": "MoleMole.Config.AttachEffect",
              "effectPattern": "Eff_Monster_FauneAbyssale_SeaHorse_Mature_WaterBullet_Trail",
              "effectTempleteID": -1.0
            }
          ]
        }
      },
      "OAOGLLGGJPD": [
        {
          "$type": "MoleMole.Config.AttachModifier",
          "modifierName": "Bullet_Display"
        }
      ],
      "EIIHGJGFDHC": [
        {
          "$type": "MoleMole.Config.FireEffect",
          "effectPattern": "Eff_Monster_FauneAbyssale_SeaHorse_Mature_WaterBullet_Broken",
          "born": {
            "$type": "AGPIGGAPILF"
          },
          "effectTempleteID": -1.0
        },
        {
          "$type": "MoleMole.Config.TriggerAttackEvent",
          "attackEvent": {
            "attackPattern": {
              "$type": "IJCIPLFIDAK",
              "triggerType": "TriggerNoRepeat",
              "born": {
                "$type": "AGPIGGAPILF"
              },
              "MFGGJCPPBGA": 1.0
            },
            "attackInfo": {
              "attackTag": "",
              "attenuationTag": "",
              "attenuationGroup": "default",
              "attackProperty": {
                "JMLMDDCBIAO": 1.0,
                "damagePercentageRatio": 0.0,
                "elementType": "Water",
                "elementDurability": 25.0,
                "strikeType": "Default",
                "enBreak": 60.0,
                "attackType": "Range",
                "damagePercentage": 0.0
              },
              "hitPattern": {
                "onHitEffectName": "default",
                "hitImpulseY": "",
                "hitImpulseType": "LV2"
              },
              "canBeModifiedBy": "Owner"
            }
          },
          "targetType": "Enemy"
        }
      ]
    }
  },
  {
    "Default": {
      "$type": "MoleMole.Config.GNKCLKNDOAK",
      "abilityName": "FauneAbyssale_SeaHorse_Mature_ElectronicLazerTrigger",
      "PIDAPNFJNDF": [
        {
          "$type": "MoleMole.Config.SteerAttackMixin",
          "BAJBFPAEMHB": [
            "ElectronicLazer_BS"
          ],
          "angularSpeed": 180.0,
          "GMIILFMLLJI": "",
          "MJFJKAHGHDJ": ""
        }
      ],
      "BFBDNNJCDLH": {
        "Lazer_Hit_Monitor": {
          "modifierName": "",
          "elementDurability": 100.0,
          "GAPANNMIBJA": [
            {
              "$type": "MoleMole.Config.Predicated",
              "MLDBFKEGPEF": "Target",
              "CKBKOCJPJMM": [
                {
                  "$type": "AIIEFALBANL",
                  "attackTags": [
                    "SeaHorse_Lazer"
                  ]
                }
              ],
              "successActions": [
                {
                  "$type": "MoleMole.Config.FireEffect",
                  "effectPattern": "Eff_Monster_FauneAbyssale_SeaHorse_Mature_ElectronicLazer_Hit",
                  "born": {
                    "$type": "DALKAHOBDMD"
                  },
                  "effectTempleteID": -1.0
                }
              ]
            }
          ]
        }
      },
      "OAOGLLGGJPD": [
        {
          "$type": "MoleMole.Config.ApplyModifier",
          "modifierName": "Lazer_Hit_Monitor"
        }
      ],
      "EIIHGJGFDHC": [
        {
          "$type": "MoleMole.Config.TriggerAttackEvent",
          "attackEvent": {
            "attackPattern": {
              "$type": "CKCNJHBMNGJ",
              "triggerType": "TriggerNoRepeat",
              "checkHitLayerType": "Both",
              "ignoreMassive": true,
              "born": {
                "$type": "JEDNAGFKIDP",
                "useRotation": true,
                "OBNIJLKICKN": "LazerPoint"
              },
              "size": {
                "GOAPOLCAJBP": 0.36000001430511475,
                "FMOPCJGGFMH": 0.36000001430511475,
                "EJJEPFCDDAM": 35.0
              },
              "muteHitBehindScene": true,
              "DHCJOAOGDNP": true
            },
            "attackInfo": {
              "attackTag": "SeaHorse_Lazer",
              "attenuationTag": "",
              "attenuationGroup": "default",
              "attackProperty": {
                "JMLMDDCBIAO": 1.0,
                "damagePercentageRatio": 0.0,
                "elementType": "Electric",
                "elementDurability": 50.0,
                "strikeType": "Default",
                "enBreak": 200.0,
                "attackType": "Range",
                "damagePercentage": 0.0
              },
              "hitPattern": {
                "onHitEffectName": "default",
                "hitImpulseY": "",
                "hitImpulseType": "",
                "overrideHitImpulse": {
                  "hitLevel": "Heavy",
                  "FJDNLJNBOKO": 920.0
                },
                "retreatType": "ByHitDirection"
              },
              "cameraShake": {
                "shakeType": "CustomVector",
                "shakeRange": 0.699999988079071,
                "shakeTime": 0.25,
                "shakeDir": {
                  "z": -1.0
                }
              }
            }
          },
          "targetType": "Enemy"
        },
        {
          "$type": "MoleMole.Config.FireEffect",
          "effectPattern": "Eff_Monster_FauneAbyssale_SeaHorse_Mature_ElectronicLazer",
          "born": {
            "$type": "JEDNAGFKIDP",
            "direction": {
              "$type": "NLHFOHCIAJH",
              "OBNIJLKICKN": "LazerPoint"
            },
            "useRotation": true,
            "OBNIJLKICKN": "LazerPoint",
            "KLLPFNDMLHO": "Self"
          },
          "effectTempleteID": -1.0
        },
        {
          "$type": "MoleMole.Config.SetAnimatorTrigger",
          "triggerID": "PearlRelease",
          "HLKBAOMMIGG": true
        }
      ]
    }
  },
  {
    "Default": {
      "$type": "MoleMole.Config.GNKCLKNDOAK",
      "abilityName": "FauneAbyssale_SeaHorse_Mature_ElectronicLazerPrepare",
      "BFBDNNJCDLH": {
        "LazerPoint_Correction": {
          "modifierName": "",
          "duration": 0.41999998688697815,
          "elementDurability": 100.0,
          "BNJENAIMDPL": 0.10000000149011612,
          "PJKELBNICOI": [
            {
              "$type": "MoleMole.Config.SetPartControlTarget",
              "otherTargets": {
                "$type": "DMGCADBNILM",
                "configID": 42601112
              },
              "PJJFOPBNMEA": [
                "LazerPoint"
              ]
            }
          ]
        }
      },
      "EIIHGJGFDHC": [
        {
          "$type": "MoleMole.Config.CreateGadget",
          "MLDBFKEGPEF": "SelfAttackActiveTarget",
          "born": {
            "$type": "JEDNAGFKIDP",
            "useRotation": true,
            "OBNIJLKICKN": "RootNode"
          },
          "gadgetID": 42601112
        },
        {
          "$type": "MoleMole.Config.ApplyModifier",
          "modifierName": "LazerPoint_Correction"
        }
      ]
    }
  },
  {
    "Default": {
      "$type": "MoleMole.Config.GNKCLKNDOAK",
      "abilityName": "FauneAbyssale_SeaHorse_Mature_ElectronicConeTrigger_01",
      "PIDAPNFJNDF": [
        {
          "$type": "MoleMole.Config.SteerAttackMixin",
          "BAJBFPAEMHB": [
            "FeignAttack_BS",
            "FeignAttack"
          ],
          "angularSpeed": 180.0,
          "GMIILFMLLJI": "",
          "MJFJKAHGHDJ": ""
        },
        {
          "$type": "MoleMole.Config.DoActionByAnimatorStateIDMixin",
          "stateIDs": [
            "FeignAttack_BS",
            "FeignAttack"
          ],
          "IKMNFOBKHJA": [
            {
              "$type": "MoleMole.Config.RemoveModifier",
              "modifierName": "ElectronicCone_01"
            },
            {
              "$type": "MoleMole.Config.RemoveUniqueModifier",
              "modifierName": "UNIQUE_ElectronicCone_02"
            }
          ],
          "MJFJKAHGHDJ": ""
        },
        {
          "$type": "MoleMole.Config.AttachToStateIDMixin",
          "stateIDs": [
            "BallLightning_BS",
            "ElectronicLazer_BS",
            "FeignAttack_BS"
          ],
          "modifierName": "PearlCharge_VFX",
          "MJFJKAHGHDJ": ""
        }
      ],
      "BFBDNNJCDLH": {
        "ElectronicCone_01": {
          "modifierName": "",
          "duration": 1.7999999523162842,
          "elementDurability": 100.0,
          "BNJENAIMDPL": 1.5499999523162842,
          "OAOGLLGGJPD": [
            {
              "$type": "MoleMole.Config.AttachEffect",
              "effectPattern": "Eff_Monster_FauneAbyssale_SeaHorse_Mature_FeignAttack_ElecCone_01",
              "effectTempleteID": -1.0
            }
          ],
          "MINFJCDAIBB": [
            {
              "$type": "MoleMole.Config.FireEffect",
              "effectPattern": "Eff_Monster_FauneAbyssale_SeaHorse_Mature_FeignAttack_Fire",
              "born": {
                "$type": "JEDNAGFKIDP",
                "useRotation": true,
                "OBNIJLKICKN": "ElecCone_01",
                "KLLPFNDMLHO": "Self"
              },
              "effectTempleteID": -1.0
            }
          ],
          "PJKELBNICOI": [
            {
              "$type": "MoleMole.Config.TriggerBullet",
              "DCNFGAGBCMP": 42601111,
              "born": {
                "$type": "JEDNAGFKIDP",
                "useRotation": true,
                "OBNIJLKICKN": "ElecCone_01",
                "KLLPFNDMLHO": "Self"
              },
              "DGEKFHHECPG": "SelfAttackActiveTarget"
            },
            {
              "$type": "MoleMole.Config.SetAnimatorTrigger",
              "triggerID": "PearlRelease",
              "HLKBAOMMIGG": true
            },
            {
              "$type": "MoleMole.Config.RemoveModifier",
              "modifierName": "ElectronicCone_01"
            }
          ]
        },
        "PearlCharge_VFX": {
          "modifierName": "",
          "elementDurability": 100.0,
          "OAOGLLGGJPD": [
            {
              "$type": "MoleMole.Config.AttachEffect",
              "effectPattern": "Eff_Monster_FauneAbyssale_SeaHorse_Mature_PearlCharge_01",
              "effectTempleteID": -1.0
            },
            {
              "$type": "MoleMole.Config.AttachEffect",
              "effectPattern": "Eff_Monster_FauneAbyssale_SeaHorse_Mature_PearlCharge_02",
              "effectTempleteID": -1.0
            }
          ]
        }
      },
      "EIIHGJGFDHC": [
        {
          "$type": "MoleMole.Config.ApplyModifier",
          "modifierName": "ElectronicCone_01"
        }
      ]
    }
  },
  {
    "Default": {
      "$type": "MoleMole.Config.GNKCLKNDOAK",
      "abilityName": "FauneAbyssale_SeaHorse_Mature_ElectronicConeTrigger_02",
      "BFBDNNJCDLH": {
        "UNIQUE_ElectronicCone_02": {
          "modifierName": "",
          "LLIJGLMEHFK": true,
          "duration": 1.7999999523162842,
          "elementDurability": 100.0,
          "BNJENAIMDPL": 1.559999942779541,
          "OAOGLLGGJPD": [
            {
              "$type": "MoleMole.Config.AttachEffect",
              "effectPattern": "Eff_Monster_FauneAbyssale_SeaHorse_Mature_FeignAttack_ElecCone_02",
              "effectTempleteID": -1.0
            }
          ],
          "MINFJCDAIBB": [
            {
              "$type": "MoleMole.Config.FireEffect",
              "effectPattern": "Eff_Monster_FauneAbyssale_SeaHorse_Mature_FeignAttack_Fire",
              "born": {
                "$type": "JEDNAGFKIDP",
                "useRotation": true,
                "OBNIJLKICKN": "ElecCone_02",
                "KLLPFNDMLHO": "Self"
              },
              "effectTempleteID": -1.0
            }
          ],
          "PJKELBNICOI": [
            {
              "$type": "MoleMole.Config.TriggerBullet",
              "DCNFGAGBCMP": 42601111,
              "born": {
                "$type": "JEDNAGFKIDP",
                "useRotation": true,
                "OBNIJLKICKN": "ElecCone_02",
                "KLLPFNDMLHO": "Self"
              },
              "DGEKFHHECPG": "SelfAttackActiveTarget"
            },
            {
              "$type": "MoleMole.Config.RemoveModifier",
              "modifierName": "UNIQUE_ElectronicCone_02"
            }
          ]
        }
      },
      "EIIHGJGFDHC": [
        {
          "$type": "MoleMole.Config.ApplyModifier",
          "modifierName": "UNIQUE_ElectronicCone_02"
        }
      ]
    }
  },
  {
    "Default": {
      "$type": "MoleMole.Config.GNKCLKNDOAK",
      "abilityName": "FauneAbyssale_SeaHorse_Mature_ElectronicCone",
      "BFBDNNJCDLH": {
        "Bullet_Display": {
          "modifierName": "",
          "elementType": "Electric",
          "elementDurability": 25.0,
          "OAOGLLGGJPD": [
            {
              "$type": "MoleMole.Config.AttachEffect",
              "effectPattern": "Eff_Monster_FauneAbyssale_SeaHorse_Mature_ElectronicCone",
              "effectTempleteID": -1.0
            },
            {
              "$type": "MoleMole.Config.AttachEffect",
              "effectPattern": "Eff_Monster_FauneAbyssale_SeaHorse_Mature_ElectronicCone_Trail",
              "effectTempleteID": -1.0
            }
          ]
        }
      },
      "OAOGLLGGJPD": [
        {
          "$type": "MoleMole.Config.AttachModifier",
          "modifierName": "Bullet_Display"
        }
      ],
      "EIIHGJGFDHC": [
        {
          "$type": "MoleMole.Config.FireEffect",
          "effectPattern": "Eff_Monster_FauneAbyssale_SeaHorse_Mature_ElectronicCone_Broken",
          "born": {
            "$type": "JEDNAGFKIDP",
            "useRotation": true,
            "OBNIJLKICKN": "RootNode"
          },
          "effectTempleteID": -1.0
        }
      ]
    }
  },
  {
    "Default": {
      "$type": "MoleMole.Config.GNKCLKNDOAK",
      "abilityName": "FauneAbyssale_SeaHorse_Mature_PearlStateManager",
      "PIDAPNFJNDF": [
        {
          "$type": "MoleMole.Config.AttachToPoseIDMixin",
          "LEPKMNMJJHJ": [
            101,
            102,
            201,
            250,
            301,
            911
          ],
          "modifierName": "SeaHorse_Floating"
        },
        {
          "$type": "MoleMole.Config.AttachModifierToSelfGlobalValueMixin",
          "globalValueKey": "_PEARL_PART_BROKEN_",
          "KADKJMOFOLI": 0.0,
          "FJEPHJNDEAI": [
            -0.5,
            2.5,
            3.5
          ],
          "IJEPHCMOAPE": [
            "SeaHorse_PearlState",
            "SeaHorse_PartBroken"
          ]
        },
        {
          "$type": "MoleMole.Config.AttachModifierToSelfGlobalValueMixin",
          "globalValueKey": "_PEARL_PART_BROKEN_",
          "KADKJMOFOLI": 0.0,
          "FJEPHJNDEAI": [
            -0.5,
            0.5,
            3.5
          ],
          "IJEPHCMOAPE": [
            "PearlShield_ElementHandler",
            "PearlShield_PartBroken"
          ]
        },
        {
          "$type": "MoleMole.Config.AttachToPoseIDMixin",
          "LEPKMNMJJHJ": [
            901,
            911,
            900
          ],
          "modifierName": "ReturnToBorn_SelfHandler"
        }
      ],
      "LLLCANIGIOE": {
        "sub_hurt_delta_positive": 0.6000000238418579,
        "element_shield_max_durability": 180.0,
        "cache_element": 0.0
      },
      "BFBDNNJCDLH": {
        "SeaHorse_PearlState": {
          "modifierName": "",
          "elementDurability": 100.0,
          "OAOGLLGGJPD": [
            {
              "$type": "MoleMole.Config.TriggerSetRenderersEnable",
              "canBeHandledOnRecover": true,
              "LNJJKBMBDPG": [
                "Shell"
              ],
              "NJKBCLADIBK": true
            },
            {
              "$type": "MoleMole.Config.SetPoseBool",
              "KIAGMJMPHPG": "PartBroken"
            },
            {
              "$type": "MoleMole.Config.SetPoseBool",
              "KIAGMJMPHPG": "PrePartBroken"
            }
          ]
        },
        "SeaHorse_PartBroken": {
          "modifierName": "",
          "elementDurability": 100.0,
          "OAOGLLGGJPD": [
            {
              "$type": "MoleMole.Config.TriggerSetRenderersEnable",
              "canBeHandledOnRecover": true,
              "LNJJKBMBDPG": [
                "Shell"
              ]
            },
            {
              "$type": "MoleMole.Config.SetPoseBool",
              "KIAGMJMPHPG": "PartBroken",
              "value": true
            }
          ]
        },
        "ReturnToBorn_SelfHandler": {
          "modifierName": "",
          "elementDurability": 100.0,
          "OAOGLLGGJPD": [
            {
              "$type": "MoleMole.Config.SetGlobalValue",
              "predicates": [
                {
                  "$type": "IPGGGPIJONN",
                  "key": "_PEARL_PART_BROKEN_",
                  "value": 2.0,
                  "compareType": "LessAndEqual"
                }
              ],
              "value": 2.0,
              "key": "_PEARL_PART_BROKEN_",
              "maxValue": 0.0,
              "GCEOGBJIFCP": 0.0
            },
            {
              "$type": "MoleMole.Config.SetGlobalValue",
              "value": "element_shield_max_durability",
              "key": "_CACHE_ELEMENT_",
              "maxValue": 0.0,
              "GCEOGBJIFCP": 0.0
            }
          ],
          "MINFJCDAIBB": [
            {
              "$type": "MoleMole.Config.SetAnimatorTrigger",
              "predicates": [
                {
                  "$type": "IPGGGPIJONN",
                  "key": "_PEARL_PART_BROKEN_",
                  "value": 3.0
                }
              ],
              "triggerID": "RecoverTrigger",
              "HLKBAOMMIGG": true
            },
            {
              "$type": "MoleMole.Config.Predicated",
              "CKBKOCJPJMM": [
                {
                  "$type": "OFGMGHOHBJD",
                  "modifierName": "SeaHorse_Floating"
                }
              ],
              "successActions": [
                {
                  "$type": "MoleMole.Config.SetGlobalValue",
                  "value": 1.0,
                  "key": "_PEARL_PART_BROKEN_",
                  "maxValue": 0.0,
                  "GCEOGBJIFCP": 0.0
                }
              ],
              "failActions": [
                {
                  "$type": "MoleMole.Config.SetGlobalValue",
                  "value": 0.0,
                  "key": "_PEARL_PART_BROKEN_",
                  "maxValue": 0.0,
                  "GCEOGBJIFCP": 0.0
                }
              ]
            }
          ]
        },
        "PearlShield_ElementHandler": {
          "modifierName": "",
          "elementType": "Electric",
          "elementDurability": "element_shield_max_durability",
          "JPIFFPJJEMK": [
            {
              "$type": "MoleMole.Config.ShieldBarMixin",
              "FGAOANABEKO": [
                {
                  "$type": "MoleMole.Config.SetAnimatorTrigger",
                  "triggerID": "PartBrokenTrigger"
                },
                {
                  "$type": "MoleMole.Config.SetPoseBool",
                  "KIAGMJMPHPG": "PrePartBroken",
                  "value": true
                },
                {
                  "$type": "MoleMole.Config.DamageByAttackValue",
                  "attackInfo": {
                    "attackTag": "",
                    "attenuationTag": "",
                    "attenuationGroup": "default",
                    "hitPattern": {
                      "onHitEffectName": "default",
                      "hitImpulseY": "",
                      "hitImpulseType": "LV0",
                      "hitHaltTime": 0.10000000149011612,
                      "hitHaltTimeScale": 0.05000000074505806
                    }
                  }
                },
                {
                  "$type": "MoleMole.Config.ActCameraShake",
                  "cameraShake": {
                    "shakeRange": 0.20000000298023224,
                    "shakeTime": 0.20000000298023224,
                    "shakeDistance": 10.0
                  }
                },
                {
                  "$type": "MoleMole.Config.ClearEndura"
                },
                {
                  "$type": "MoleMole.Config.SetGlobalValue",
                  "value": 2.0,
                  "key": "_PEARL_PART_BROKEN_",
                  "maxValue": 0.0,
                  "GCEOGBJIFCP": 0.0
                }
              ],
              "JCPHOEFMCMO": "",
              "GPCLDLJINFM": true,
              "NLAKMNCEPBP": "Electric"
            }
          ],
          "EPKCPIKGJOJ": {
            "Actor_EndureDelta": 0.699999988079071,
            "Actor_PhysicalSubHurtDelta": "sub_hurt_delta_positive",
            "Actor_FireSubHurtDelta": "sub_hurt_delta_positive",
            "Actor_ElecSubHurtDelta": "sub_hurt_delta_positive",
            "Actor_IceSubHurtDelta": "sub_hurt_delta_positive",
            "Actor_WaterSubHurtDelta": "sub_hurt_delta_positive",
            "Actor_GrassSubHurtDelta": "sub_hurt_delta_positive",
            "Actor_WindSubHurtDelta": "sub_hurt_delta_positive",
            "Actor_RockSubHurtDelta": "sub_hurt_delta_positive"
          },
          "OAOGLLGGJPD": [
            {
              "$type": "MoleMole.Config.SetPoseBool",
              "KIAGMJMPHPG": "PrePartBroken"
            }
          ]
        },
        "PearlShield_PartBroken": {
          "modifierName": "",
          "elementDurability": 100.0
        },
        "SeaHorse_Floating": {
          "modifierName": "",
          "elementDurability": 100.0,
          "JPIFFPJJEMK": [
            {
              "$type": "MoleMole.Config.VelocityForceMixin",
              "excludeForces": [
                "RetreatType",
                "RetreatAirType"
              ]
            },
            {
              "$type": "MoleMole.Config.DiePatternSwitchMixin",
              "hasAnimatorDie": true,
              "fallWhenAirDie": false,
              "dieEndTime": 2.0,
              "dieForceDisappearTime": 3.0,
              "dieDisappearEffect": "Eff_Death_InWater_Common",
              "dieDisappearEffectDelay": 0.07999999821186066,
              "dieShaderData": "MonsterDieInWater",
              "dieShaderEnableDurationTime": 0.6000000238418579,
              "dieModelFadeDelay": 0.30000001192092896,
              "muteHitBox": true,
              "dieDenyLockOn": true,
              "dieIsGhostToEnemy": true,
              "dieIgnoreTriggerBullet": true,
              "muteBillboard": true,
              "mutePushCollider": true
            },
            {
              "$type": "MoleMole.Config.ApplyCollisionMixin",
              "GAKAFILPLHE": [
                "MoveCollider"
              ]
            },
            {
              "$type": "MoleMole.Config.ReplaceEventPatternMixin",
              "DIPJIKANBOP": [
                "Audio_Monster_FauneAbyssale_SeaHorse_Mature_01_HitThrow",
                "Audio_Monster_FauneAbyssale_SeaHorse_Mature_01_Hit_L",
                "Audio_Monster_FauneAbyssale_SeaHorse_Mature_01_Hit_H",
                "Audio_Monster_FauneAbyssale_SeaHorse_Mature_01_WaterBullet",
                "Audio_Monster_FauneAbyssale_SeaHorse_Mature_01_WaterBullet_BS"
              ],
              "EEOMLDEAJCE": [
                "Audio_Monster_FauneAbyssale_SeaHorse_Mature_01_HitThrowToWater",
                "Audio_Monster_FauneAbyssale_SeaHorse_Mature_01_Hit_LInWater",
                "Audio_Monster_FauneAbyssale_SeaHorse_Mature_01_Hit_HInWater",
                "Audio_Monster_FauneAbyssale_SeaHorse_Mature_01_WaterBulletInWater",
                "Audio_Monster_FauneAbyssale_SeaHorse_Mature_01_WaterBullet_BSInWater"
              ]
            }
          ],
          "OAOGLLGGJPD": [
            {
              "$type": "MoleMole.Config.SetAnimatorBool",
              "KIAGMJMPHPG": "Floating",
              "value": true
            },
            {
              "$type": "MoleMole.Config.SetGlobalValue",
              "value": 2.0,
              "key": "GV_EnvironmentType",
              "maxValue": 0.0,
              "GCEOGBJIFCP": 0.0
            },
            {
              "$type": "MoleMole.Config.DisableAffectedByWorld",
              "OBLCEIMBIAH": true
            },
            {
              "$type": "MoleMole.Config.Predicated",
              "CKBKOCJPJMM": [
                {
                  "$type": "IPGGGPIJONN",
                  "key": "_PEARL_PART_BROKEN_",
                  "value": 0.0
                }
              ],
              "successActions": [
                {
                  "$type": "MoleMole.Config.SetElementDurabilityToGlobalValue",
                  "globalValueKey": "_CACHE_ELEMENT_",
                  "maxValue": 0.0,
                  "GCEOGBJIFCP": 0.0,
                  "modifierName": "PearlShield_ElementHandler"
                },
                {
                  "$type": "MoleMole.Config.SetGlobalValue",
                  "value": 1.0,
                  "key": "_PEARL_PART_BROKEN_",
                  "maxValue": 0.0,
                  "GCEOGBJIFCP": 0.0
                }
              ]
            }
          ],
          "MINFJCDAIBB": [
            {
              "$type": "MoleMole.Config.SetAnimatorBool",
              "KIAGMJMPHPG": "Floating"
            },
            {
              "$type": "MoleMole.Config.SetGlobalValue",
              "value": 1.0,
              "key": "GV_EnvironmentType",
              "maxValue": 0.0,
              "GCEOGBJIFCP": 0.0
            },
            {
              "$type": "MoleMole.Config.DisableAffectedByWorld"
            },
            {
              "$type": "MoleMole.Config.Predicated",
              "CKBKOCJPJMM": [
                {
                  "$type": "IPGGGPIJONN",
                  "key": "_PEARL_PART_BROKEN_",
                  "value": 1.0
                }
              ],
              "successActions": [
                {
                  "$type": "MoleMole.Config.SetGlobalValue",
                  "value": 0.0,
                  "key": "_PEARL_PART_BROKEN_",
                  "maxValue": 0.0,
                  "GCEOGBJIFCP": 0.0
                },
                {
                  "$type": "MoleMole.Config.SetGlobalValueToOverrideMap",
                  "globalValueKey": "_CACHE_ELEMENT_",
                  "FDKJEIGEABF": "cache_element"
                },
                {
                  "$type": "MoleMole.Config.AddElementDurability",
                  "value": "cache_element",
                  "modifierName": "PearlShield_ElementHandler",
                  "maxValue": 3.4028234663852886e+38
                }
              ]
            }
          ]
        }
      },
      "OAOGLLGGJPD": [
        {
          "$type": "MoleMole.Config.SetGlobalValue",
          "value": 1.0,
          "key": "GV_EnvironmentType",
          "maxValue": 0.0,
          "GCEOGBJIFCP": 0.0
        },
        {
          "$type": "MoleMole.Config.SetGlobalValue",
          "value": "element_shield_max_durability",
          "key": "_CACHE_ELEMENT_",
          "maxValue": 0.0,
          "GCEOGBJIFCP": 0.0
        }
      ],
      "EIIHGJGFDHC": [
        {
          "$type": "MoleMole.Config.SetGlobalValue",
          "value": 3.0,
          "key": "_PEARL_PART_BROKEN_",
          "maxValue": 0.0,
          "GCEOGBJIFCP": 0.0
        }
      ]
    }
  },
  {
    "Default": {
      "$type": "MoleMole.Config.GNKCLKNDOAK",
      "abilityName": "FauneAbyssale_SeaHorse_Mature_PearlGadget",
      "PIDAPNFJNDF": [
        {
          "$type": "MoleMole.Config.AttachModifierToGlobalValueMixin",
          "KAPNONCKOJH": "Owner",
          "globalValueKey": "_PEARL_PART_BROKEN_",
          "FJEPHJNDEAI": [
            -0.5,
            0.5,
            2.5
          ],
          "IJEPHCMOAPE": [
            "PearlGadget_ElementHandler",
            "PearlGadget_PartBroken"
          ]
        }
      ],
      "BFBDNNJCDLH": {
        "PearlGadget_ElementHandler": {
          "EODJPKICNGG": "Unique",
          "modifierName": "",
          "elementType": "Electric",
          "elementDurability": 100.0,
          "JPIFFPJJEMK": [
            {
              "$type": "MoleMole.Config.ShieldBarMixin",
              "FGAOANABEKO": [
                {
                  "$type": "MoleMole.Config.ApplyModifier",
                  "MLDBFKEGPEF": "Owner",
                  "modifierName": "SeaHorse_GV_Handler"
                }
              ],
              "JCPHOEFMCMO": "",
              "PBCMONPKPLE": true,
              "NLAKMNCEPBP": "Electric"
            }
          ],
          "OAOGLLGGJPD": [
            {
              "$type": "MoleMole.Config.EnableHitBoxByName",
              "MAEGDKKBDPK": [
                "HitBox"
              ],
              "NJKBCLADIBK": true
            },
            {
              "$type": "MoleMole.Config.HideUIBillBoard"
            },
            {
              "$type": "MoleMole.Config.SetPoseBool",
              "MLDBFKEGPEF": "Owner",
              "KIAGMJMPHPG": "PrePartBroken"
            }
          ],
          "BLIGBNGGEIJ": true
        },
        "SeaHorse_GV_Handler": {
          "modifierName": "",
          "duration": 0.20000000298023224,
          "elementDurability": 100.0,
          "EPKCPIKGJOJ": {
            "Actor_EndureDelta": 0.0
          },
          "OAOGLLGGJPD": [
            {
              "$type": "MoleMole.Config.SetAnimatorTrigger",
              "triggerID": "PartBrokenTrigger"
            },
            {
              "$type": "MoleMole.Config.SetPoseBool",
              "KIAGMJMPHPG": "PrePartBroken",
              "value": true
            },
            {
              "$type": "MoleMole.Config.ClearEndura"
            },
            {
              "$type": "MoleMole.Config.SetGlobalValue",
              "value": 1.0,
              "key": "_PEARL_PART_BROKEN_",
              "maxValue": 0.0,
              "GCEOGBJIFCP": 0.0
            }
          ]
        },
        "PearlGadget_PartBroken": {
          "modifierName": "",
          "elementDurability": 100.0,
          "OAOGLLGGJPD": [
            {
              "$type": "MoleMole.Config.EnableHitBoxByName",
              "MAEGDKKBDPK": [
                "HitBox"
              ]
            },
            {
              "$type": "MoleMole.Config.HideUIBillBoard",
              "hide": true
            }
          ]
        }
      }
    }
  }
]