[
  {
    "Default": {
      "$type": "MoleMole.Config.GNKCLKNDOAK",
      "abilityName": "Monster_Eremite_Male_Standard_Polearm_Electric_FightControl",
      "PIDAPNFJNDF": [
        {
          "$type": "MoleMole.Config.AttachToPoseIDMixin",
          "LEPKMNMJJHJ": [
            1,
            2,
            901,
            902,
            903
          ],
          "modifierName": "Eremite_OutFightState"
        },
        {
          "$type": "MoleMole.Config.AttachToPoseIDMixin",
          "LEPKMNMJJHJ": [
            101,
            102,
            111,
            201,
            301
          ],
          "modifierName": "Eremite_InFightState"
        }
      ],
      "BFBDNNJCDLH": {
        "Eremite_OutFightState": {
          "modifierName": "",
          "elementDurability": 100.0,
          "OAOGLLGGJPD": [
            {
              "$type": "MoleMole.Config.AddGlobalValue",
              "value": -10.0,
              "key": "_MONSTER_EREMITE_ISINFIGHT_",
              "HPICGAMGEGA": true,
              "maxValue": 1.0,
              "GCEOGBJIFCP": 0.0
            },
            {
              "$type": "MoleMole.Config.RemoveModifier",
              "modifierName": "Eremite_InFightState"
            }
          ]
        },
        "Eremite_InFightState": {
          "modifierName": "",
          "elementDurability": 100.0,
          "OAOGLLGGJPD": [
            {
              "$type": "MoleMole.Config.AddGlobalValue",
              "value": 10.0,
              "key": "_MONSTER_EREMITE_ISINFIGHT_",
              "HPICGAMGEGA": true,
              "maxValue": 1.0,
              "GCEOGBJIFCP": 0.0
            },
            {
              "$type": "MoleMole.Config.RemoveModifier",
              "modifierName": "Eremite_OutFightState"
            }
          ]
        }
      },
      "OAOGLLGGJPD": [
        {
          "$type": "MoleMole.Config.SetGlobalValue",
          "value": 0.0,
          "key": "_MONSTER_EREMITE_IMPROVED_",
          "HPICGAMGEGA": true,
          "maxValue": 1.0,
          "GCEOGBJIFCP": 0.0
        },
        {
          "$type": "MoleMole.Config.SetGlobalValue",
          "value": 0.0,
          "key": "_MONSTER_EREMITE_OUTIMPROVED",
          "HPICGAMGEGA": true,
          "maxValue": 1.0,
          "GCEOGBJIFCP": 0.0
        },
        {
          "$type": "MoleMole.Config.SetGlobalValue",
          "value": 0.0,
          "key": "_MONSTER_EREMITE_IMPROVED_COUNT_",
          "HPICGAMGEGA": true,
          "maxValue": 99.0,
          "GCEOGBJIFCP": 0.0
        },
        {
          "$type": "MoleMole.Config.SetGlobalValue",
          "value": 0.0,
          "key": "_MONSTER_EREMITE_ISINFIGHT_",
          "HPICGAMGEGA": true,
          "maxValue": 1.0,
          "GCEOGBJIFCP": 0.0
        },
        {
          "$type": "MoleMole.Config.SetGlobalValue",
          "value": 0.0,
          "key": "_MONSTER_EREMITE_WEAK_",
          "HPICGAMGEGA": true,
          "maxValue": 1.0,
          "GCEOGBJIFCP": 0.0
        },
        {
          "$type": "MoleMole.Config.SetGlobalValue",
          "value": 0.0,
          "key": "_MONSTER_EREMITE_RETURNTOBORN_",
          "HPICGAMGEGA": true,
          "maxValue": 1.0,
          "GCEOGBJIFCP": 0.0
        }
      ]
    }
  },
  {
    "Default": {
      "$type": "MoleMole.Config.GNKCLKNDOAK",
      "abilityName": "Monster_Eremite_Male_Standard_Polearm_Electric_Alert",
      "EIIHGJGFDHC": [
        {
          "$type": "MoleMole.Config.SetPoseInt",
          "intID": "FreePoseMark"
        }
      ]
    }
  },
  {
    "Default": {
      "$type": "MoleMole.Config.GNKCLKNDOAK",
      "abilityName": "Monster_Eremite_Male_Standard_Polearm_Electric_Improve",
      "PIDAPNFJNDF": [
        {
          "$type": "MoleMole.Config.AttachModifierToSelfGlobalValueMixin",
          "globalValueKey": "_MONSTER_EREMITE_IMPROVED_",
          "KADKJMOFOLI": 0.0,
          "FJEPHJNDEAI": [
            -0.5,
            0.5,
            1.5
          ],
          "IJEPHCMOAPE": [
            "Eremite_NormalState",
            "Eremite_ImproveState"
          ]
        },
        {
          "$type": "MoleMole.Config.AttachModifierToSelfGlobalValueMixin",
          "globalValueKey": "_MONSTER_EREMITE_WEAK_",
          "KADKJMOFOLI": 0.0,
          "FJEPHJNDEAI": [
            -0.5,
            0.5,
            1.5
          ],
          "IJEPHCMOAPE": [
            "Eremite_IsNotWeak",
            "Eremite_IsWeak"
          ]
        },
        {
          "$type": "MoleMole.Config.AttachModifierToSelfGlobalValueMixin",
          "globalValueKey": "_MONSTER_EREMITE_OUTIMPROVED",
          "KADKJMOFOLI": 0.0,
          "FJEPHJNDEAI": [
            -0.5,
            0.5,
            1.5
          ],
          "IJEPHCMOAPE": [
            "Eremite_ISNotOutImproved",
            "Eremite_IsOutImproved"
          ]
        },
        {
          "$type": "MoleMole.Config.AttachModifierToHPPercentMixin",
          "FJEPHJNDEAI": [
            0.699999988079071
          ],
          "IJEPHCMOAPE": [
            "Empty",
            "UNIQUE_Eremite_Force_ImproveState"
          ]
        },
        {
          "$type": "MoleMole.Config.AttachToPoseIDMixin",
          "LEPKMNMJJHJ": [
            1,
            2
          ],
          "modifierName": "ResetMonsterSkill"
        },
        {
          "$type": "MoleMole.Config.DoActionByStateIDMixin",
          "stateIDs": [
            "Die",
            "Die_RagDoll"
          ],
          "GEDBCEGNPPO": [
            {
              "$type": "MoleMole.Config.RemoveModifier",
              "modifierName": "Eremite_Improve_Effect"
            }
          ],
          "MJFJKAHGHDJ": ""
        },
        {
          "$type": "MoleMole.Config.AttachToStateIDMixin",
          "stateIDs": [
            "Improve"
          ],
          "modifierName": "Improve_AddEndure",
          "MJFJKAHGHDJ": ""
        },
        {
          "$type": "MoleMole.Config.AttachToPoseIDMixin",
          "LEPKMNMJJHJ": [
            201
          ],
          "modifierName": "Improve_AddEndure"
        }
      ],
      "LLLCANIGIOE": {
        "Eremite_Max_HP": 0.0
      },
      "BFBDNNJCDLH": {
        "Improve_AddEndure": {
          "modifierName": "",
          "elementDurability": 100.0,
          "EPKCPIKGJOJ": {
            "Actor_EndureDelta": 0.0,
            "Entity_WeightRatio": 5.0
          }
        },
        "Empty": {
          "modifierName": "",
          "elementDurability": 100.0
        },
        "UNIQUE_Eremite_Force_ImproveState": {
          "EODJPKICNGG": "Unique",
          "modifierName": "",
          "LLIJGLMEHFK": true,
          "elementDurability": 100.0,
          "OAOGLLGGJPD": [
            {
              "$type": "MoleMole.Config.SetPoseBool",
              "canBeHandledOnRecover": true,
              "predicates": [
                {
                  "$type": "IPGGGPIJONN",
                  "MLDBFKEGPEF": "Self",
                  "key": "_MONSTER_EREMITE_IMPROVED_COUNT_",
                  "value": 0.0,
                  "compareType": "NoneOrEqual"
                }
              ],
              "KIAGMJMPHPG": "ForceImprove",
              "value": true
            },
            {
              "$type": "MoleMole.Config.SetAISkillCDAvailableNow",
              "NICABCMPFMM": [
                401
              ]
            }
          ],
          "MINFJCDAIBB": [
            {
              "$type": "MoleMole.Config.SetPoseBool",
              "KIAGMJMPHPG": "ForceImprove"
            }
          ]
        },
        "Eremite_NormalState": {
          "modifierName": "",
          "elementDurability": 100.0,
          "OAOGLLGGJPD": [
            {
              "$type": "MoleMole.Config.SetPoseBool",
              "canBeHandledOnRecover": true,
              "KIAGMJMPHPG": "ImproveState"
            },
            {
              "$type": "MoleMole.Config.RemoveModifier",
              "modifierName": "Eremite_ImproveState"
            }
          ]
        },
        "Eremite_ImproveState": {
          "modifierName": "",
          "elementDurability": 100.0,
          "OAOGLLGGJPD": [
            {
              "$type": "MoleMole.Config.SetPoseBool",
              "canBeHandledOnRecover": true,
              "KIAGMJMPHPG": "ImproveState",
              "value": true
            },
            {
              "$type": "MoleMole.Config.RemoveModifier",
              "modifierName": "Eremite_NormalState"
            }
          ]
        },
        "Eremite_IsNotWeak": {
          "modifierName": "",
          "elementDurability": 100.0,
          "OAOGLLGGJPD": [
            {
              "$type": "MoleMole.Config.SetPoseBool",
              "canBeHandledOnRecover": true,
              "KIAGMJMPHPG": "WeakState"
            },
            {
              "$type": "MoleMole.Config.RemoveModifier",
              "modifierName": "Eremite_IsWeak"
            }
          ]
        },
        "Eremite_IsWeak": {
          "modifierName": "",
          "elementDurability": 100.0,
          "OAOGLLGGJPD": [
            {
              "$type": "MoleMole.Config.SetPoseBool",
              "canBeHandledOnRecover": true,
              "KIAGMJMPHPG": "WeakState",
              "value": true
            },
            {
              "$type": "MoleMole.Config.RemoveModifier",
              "modifierName": "Eremite_IsNotWeak"
            }
          ]
        },
        "UNIQUE_Eremite_ImproveState_Properties": {
          "EODJPKICNGG": "Unique",
          "modifierName": "",
          "LLIJGLMEHFK": true,
          "duration": 20.0,
          "elementDurability": 100.0,
          "EPKCPIKGJOJ": {
            "Actor_EndureDelta": 0.0,
            "Entity_WeightRatio": 5.0
          },
          "OAOGLLGGJPD": [
            {
              "$type": "MoleMole.Config.AddGlobalValue",
              "canBeHandledOnRecover": true,
              "value": 10.0,
              "key": "_MONSTER_EREMITE_IMPROVED_",
              "HPICGAMGEGA": true,
              "maxValue": 1.0,
              "GCEOGBJIFCP": 0.0
            },
            {
              "$type": "MoleMole.Config.AddGlobalValue",
              "canBeHandledOnRecover": true,
              "value": -10.0,
              "key": "_MONSTER_EREMITE_RECOVER_",
              "HPICGAMGEGA": true,
              "maxValue": 1.0,
              "GCEOGBJIFCP": 0.0
            },
            {
              "$type": "MoleMole.Config.AddGlobalValue",
              "value": 1.0,
              "key": "_MONSTER_EREMITE_IMPROVED_COUNT_",
              "HPICGAMGEGA": true,
              "maxValue": 99.0,
              "GCEOGBJIFCP": 0.0
            },
            {
              "$type": "MoleMole.Config.SetAISkillGCD",
              "canBeHandledOnRecover": true
            },
            {
              "$type": "MoleMole.Config.AttachModifier",
              "modifierName": "Eremite_Improve_Effect"
            },
            {
              "$type": "MoleMole.Config.AttachModifier",
              "modifierName": "Eremite_ASHintEffect02"
            },
            {
              "$type": "MoleMole.Config.AttachModifier",
              "modifierName": "Eremite_ASHintEffect01"
            }
          ],
          "MINFJCDAIBB": [
            {
              "$type": "MoleMole.Config.SetAnimatorTrigger",
              "doOffStage": true,
              "predicates": [
                {
                  "$type": "IPGGGPIJONN",
                  "MLDBFKEGPEF": "Self",
                  "key": "_MONSTER_EREMITE_RETURNTOBORN_",
                  "value": 0.0
                }
              ],
              "triggerID": "Weak"
            },
            {
              "$type": "MoleMole.Config.RemoveModifier",
              "modifierName": "Eremite_Improve_Effect"
            },
            {
              "$type": "MoleMole.Config.AddGlobalValue",
              "canBeHandledOnRecover": true,
              "value": -10.0,
              "key": "_MONSTER_EREMITE_IMPROVED_",
              "HPICGAMGEGA": true,
              "maxValue": 1.0,
              "GCEOGBJIFCP": 0.0
            },
            {
              "$type": "MoleMole.Config.AddGlobalValue",
              "canBeHandledOnRecover": true,
              "value": 10.0,
              "key": "_MONSTER_EREMITE_WEAK_",
              "HPICGAMGEGA": true,
              "maxValue": 1.0,
              "GCEOGBJIFCP": 0.0
            },
            {
              "$type": "MoleMole.Config.RemoveUniqueModifier",
              "modifierName": "UNIQUE_Eremite_Force_ImproveState"
            },
            {
              "$type": "MoleMole.Config.SetAISkillGCD",
              "canBeHandledOnRecover": true,
              "value": 2.0
            }
          ]
        },
        "RemoveImproveState": {
          "modifierName": "",
          "elementDurability": 100.0,
          "OAOGLLGGJPD": [
            {
              "$type": "MoleMole.Config.AddGlobalValue",
              "value": 10.0,
              "key": "_MOSNTER_EREMITE_RETURNTOBORN_",
              "HPICGAMGEGA": true,
              "maxValue": 1.0,
              "GCEOGBJIFCP": 0.0
            }
          ],
          "MINFJCDAIBB": [
            {
              "$type": "MoleMole.Config.AddGlobalValue",
              "value": -10.0,
              "key": "_MOSNTER_EREMITE_RETURNTOBORN_",
              "HPICGAMGEGA": true,
              "maxValue": 1.0,
              "GCEOGBJIFCP": 0.0
            }
          ]
        },
        "ResetMonsterSkill": {
          "modifierName": "",
          "elementDurability": 100.0,
          "OAOGLLGGJPD": [
            {
              "$type": "MoleMole.Config.AddGlobalValue",
              "value": -99.0,
              "key": "_MONSTER_EREMITE_IMPROVED_COUNT_",
              "HPICGAMGEGA": true,
              "maxValue": 99.0,
              "GCEOGBJIFCP": 0.0
            },
            {
              "$type": "MoleMole.Config.SetAISkillCDAvailableNow",
              "NICABCMPFMM": [
                401
              ]
            }
          ]
        },
        "Eremite_Improve_Effect": {
          "modifierName": "",
          "elementDurability": 100.0,
          "OAOGLLGGJPD": [
            {
              "$type": "MoleMole.Config.AttachEffect",
              "effectPattern": "Eff_Monster_Eremite_Male_Standard_Polearm_Electric_Improve_Loop01",
              "effectTempleteID": -1.0
            },
            {
              "$type": "MoleMole.Config.AttachEffect",
              "effectPattern": "Eff_Monster_Eremite_Male_Standard_Polearm_Electric_Improve_Loop02",
              "effectTempleteID": -1.0
            }
          ]
        },
        "Eremite_IsOutImproved": {
          "modifierName": "",
          "elementDurability": 100.0,
          "OAOGLLGGJPD": [
            {
              "$type": "MoleMole.Config.SetPoseBool",
              "canBeHandledOnRecover": true,
              "KIAGMJMPHPG": "OutImproved",
              "value": true
            },
            {
              "$type": "MoleMole.Config.RemoveModifier",
              "modifierName": "Eremite_ISNotOutImproved"
            }
          ]
        },
        "Eremite_ISNotOutImproved": {
          "modifierName": "",
          "elementDurability": 100.0,
          "OAOGLLGGJPD": [
            {
              "$type": "MoleMole.Config.SetPoseBool",
              "canBeHandledOnRecover": true,
              "KIAGMJMPHPG": "OutImproved"
            },
            {
              "$type": "MoleMole.Config.RemoveModifier",
              "modifierName": "Eremite_IsOutImproved"
            }
          ]
        },
        "Eremite_ASHintEffect02": {
          "modifierName": "",
          "elementDurability": 100.0,
          "BNJENAIMDPL": 18.200000762939453,
          "PJKELBNICOI": [
            {
              "$type": "MoleMole.Config.AttachEffect",
              "effectPattern": "Eff_Monster_Eremite_Male_Standard_Polearm_Electric_Improve_ASHint",
              "effectTempleteID": -1.0
            }
          ]
        },
        "Eremite_ASHintEffect01": {
          "modifierName": "",
          "elementDurability": 100.0,
          "BNJENAIMDPL": 15.0,
          "PJKELBNICOI": [
            {
              "$type": "MoleMole.Config.AttachEffect",
              "effectPattern": "Eff_Monster_Eremite_Male_Standard_Polearm_Electric_Improve_ASHint02",
              "effectTempleteID": -1.0
            }
          ]
        }
      },
      "EIIHGJGFDHC": [
        {
          "$type": "MoleMole.Config.AttachModifier",
          "modifierName": "UNIQUE_Eremite_ImproveState_Properties"
        }
      ]
    }
  },
  {
    "Default": {
      "$type": "MoleMole.Config.GNKCLKNDOAK",
      "abilityName": "Monster_Eremite_Male_Standard_Polearm_Electric_Improve_Die",
      "EIIHGJGFDHC": [
        {
          "$type": "MoleMole.Config.RemoveUniqueModifier",
          "modifierName": "UNIQUE_Eremite_ImproveState_Properties"
        }
      ]
    }
  },
  {
    "Default": {
      "$type": "MoleMole.Config.GNKCLKNDOAK",
      "abilityName": "Monster_Eremite_Male_Standard_Polearm_Electric_Weak",
      "PIDAPNFJNDF": [
        {
          "$type": "MoleMole.Config.AttachToPoseIDMixin",
          "LEPKMNMJJHJ": [
            301
          ],
          "modifierName": "WeakState"
        }
      ],
      "BFBDNNJCDLH": {
        "WeakState": {
          "modifierName": "",
          "duration": 8.0,
          "elementDurability": 100.0,
          "JPIFFPJJEMK": [
            {
              "$type": "MoleMole.Config.AttachModifierToSelfGlobalValueMixin",
              "globalValueKey": "_MONSTER_EREMITE_RECOVER_",
              "KADKJMOFOLI": 0.0,
              "FJEPHJNDEAI": [
                -0.5,
                0.5,
                1.5
              ],
              "IJEPHCMOAPE": [
                "Empty",
                "Recover"
              ]
            }
          ],
          "EPKCPIKGJOJ": {
            "Actor_ElecSubHurtDelta": -0.6000000238418579,
            "Actor_EndureDelta": 0.0
          },
          "OAOGLLGGJPD": [
            {
              "$type": "MoleMole.Config.FireEffect",
              "effectPattern": "Eff_Monster_Eremite_Male_Standard_Polearm_Electric_Improve_AS01",
              "effectTempleteID": -1.0
            },
            {
              "$type": "MoleMole.Config.AttachEffect",
              "effectPattern": "Eff_Avatar_Properties_Defense_Down",
              "effectTempleteID": -1.0
            },
            {
              "$type": "MoleMole.Config.AddGlobalValue",
              "canBeHandledOnRecover": true,
              "value": 10.0,
              "key": "_MONSTER_EREMITE_WEAK_",
              "HPICGAMGEGA": true,
              "maxValue": 1.0,
              "GCEOGBJIFCP": 0.0
            },
            {
              "$type": "MoleMole.Config.AddGlobalValue",
              "canBeHandledOnRecover": true,
              "value": -10.0,
              "key": "_MONSTER_EREMITE_RECOVER_",
              "HPICGAMGEGA": true,
              "maxValue": 1.0,
              "GCEOGBJIFCP": 0.0
            }
          ],
          "MINFJCDAIBB": [
            {
              "$type": "MoleMole.Config.AddGlobalValue",
              "canBeHandledOnRecover": true,
              "value": 10.0,
              "key": "_MONSTER_EREMITE_RECOVER_",
              "HPICGAMGEGA": true,
              "maxValue": 1.0,
              "GCEOGBJIFCP": 0.0
            },
            {
              "$type": "MoleMole.Config.AddGlobalValue",
              "canBeHandledOnRecover": true,
              "value": -10.0,
              "key": "_MONSTER_EREMITE_WEAK_",
              "HPICGAMGEGA": true,
              "maxValue": 1.0,
              "GCEOGBJIFCP": 0.0
            },
            {
              "$type": "MoleMole.Config.SetGlobalValue",
              "canBeHandledOnRecover": true,
              "value": 1.0,
              "key": "_MONSTER_EREMITE_OUTIMPROVED",
              "HPICGAMGEGA": true,
              "maxValue": 1.0,
              "GCEOGBJIFCP": 0.0
            },
            {
              "$type": "MoleMole.Config.ReTriggerAISkillInitialCD",
              "NICABCMPFMM": [
                402
              ]
            }
          ],
          "MHBHKCIDGEP": [
            {
              "$type": "MoleMole.Config.AddGlobalValue",
              "canBeHandledOnRecover": true,
              "value": 10.0,
              "key": "_MONSTER_EREMITE_WEAK_",
              "HPICGAMGEGA": true,
              "maxValue": 1.0,
              "GCEOGBJIFCP": 0.0
            },
            {
              "$type": "MoleMole.Config.AddGlobalValue",
              "canBeHandledOnRecover": true,
              "value": -10.0,
              "key": "_MONSTER_EREMITE_RECOVER_",
              "HPICGAMGEGA": true,
              "maxValue": 1.0,
              "GCEOGBJIFCP": 0.0
            }
          ]
        },
        "Empty": {
          "modifierName": "",
          "elementDurability": 100.0
        },
        "Recover": {
          "modifierName": "",
          "elementDurability": 100.0,
          "OAOGLLGGJPD": [
            {
              "$type": "MoleMole.Config.SetAnimatorTrigger",
              "triggerID": "Recover"
            }
          ]
        }
      }
    }
  },
  {
    "Default": {
      "$type": "MoleMole.Config.GNKCLKNDOAK",
      "abilityName": "Monster_Eremite_Male_Standard_Polearm_Electric_SteerControl",
      "PIDAPNFJNDF": [
        {
          "$type": "MoleMole.Config.SteerAttackMixin",
          "BAJBFPAEMHB": [
            "Turn"
          ],
          "angularSpeed": 150.0,
          "GMIILFMLLJI": "",
          "LFCDKEDGFFG": 10.0,
          "MJFJKAHGHDJ": ""
        },
        {
          "$type": "MoleMole.Config.SteerAttackMixin",
          "BAJBFPAEMHB": [
            "Alert"
          ],
          "angularSpeed": 150.0,
          "GMIILFMLLJI": "",
          "LFCDKEDGFFG": 2.0,
          "MJFJKAHGHDJ": ""
        },
        {
          "$type": "MoleMole.Config.SteerAttackMixin",
          "BAJBFPAEMHB": [
            "Improve"
          ],
          "angularSpeed": 150.0,
          "GMIILFMLLJI": "",
          "LFCDKEDGFFG": 2.0,
          "MJFJKAHGHDJ": ""
        },
        {
          "$type": "MoleMole.Config.SteerAttackMixin",
          "BAJBFPAEMHB": [
            "MeleeAtk01_01"
          ],
          "endNormalizedTime": 0.6299999952316284,
          "angularSpeed": 150.0,
          "GMIILFMLLJI": "",
          "LFCDKEDGFFG": 2.0,
          "MJFJKAHGHDJ": ""
        },
        {
          "$type": "MoleMole.Config.SteerAttackMixin",
          "BAJBFPAEMHB": [
            "MeleeAtk01_01_AS"
          ],
          "angularSpeed": 150.0,
          "GMIILFMLLJI": "",
          "LFCDKEDGFFG": 2.0,
          "MJFJKAHGHDJ": ""
        },
        {
          "$type": "MoleMole.Config.SteerAttackMixin",
          "BAJBFPAEMHB": [
            "MeleeAtk01_02_BS"
          ],
          "angularSpeed": 150.0,
          "GMIILFMLLJI": "",
          "LFCDKEDGFFG": 2.0,
          "MJFJKAHGHDJ": ""
        },
        {
          "$type": "MoleMole.Config.SteerAttackMixin",
          "BAJBFPAEMHB": [
            "MeleeAtk01_02"
          ],
          "angularSpeed": 150.0,
          "GMIILFMLLJI": "",
          "LFCDKEDGFFG": 2.0,
          "MJFJKAHGHDJ": ""
        },
        {
          "$type": "MoleMole.Config.SteerAttackMixin",
          "BAJBFPAEMHB": [
            "MeleeAtk01_03_BS"
          ],
          "angularSpeed": 150.0,
          "GMIILFMLLJI": "",
          "LFCDKEDGFFG": 2.0,
          "MJFJKAHGHDJ": ""
        },
        {
          "$type": "MoleMole.Config.SteerAttackMixin",
          "BAJBFPAEMHB": [
            "MeleeAtk01_02_AS"
          ],
          "angularSpeed": 150.0,
          "GMIILFMLLJI": "",
          "LFCDKEDGFFG": 2.0,
          "MJFJKAHGHDJ": ""
        },
        {
          "$type": "MoleMole.Config.SteerAttackMixin",
          "BAJBFPAEMHB": [
            "MeleeAtk01_03"
          ],
          "angularSpeed": 150.0,
          "GMIILFMLLJI": "",
          "LFCDKEDGFFG": 2.0,
          "MJFJKAHGHDJ": ""
        },
        {
          "$type": "MoleMole.Config.SteerAttackMixin",
          "BAJBFPAEMHB": [
            "MeleeAtk02"
          ],
          "endNormalizedTime": 0.25999999046325684,
          "angularSpeed": 150.0,
          "GMIILFMLLJI": "",
          "LFCDKEDGFFG": 2.0,
          "MJFJKAHGHDJ": ""
        },
        {
          "$type": "MoleMole.Config.SteerAttackMixin",
          "BAJBFPAEMHB": [
            "Improve_MeleeAtk01_01"
          ],
          "angularSpeed": 150.0,
          "GMIILFMLLJI": "",
          "LFCDKEDGFFG": 2.0,
          "MJFJKAHGHDJ": ""
        },
        {
          "$type": "MoleMole.Config.SteerAttackMixin",
          "BAJBFPAEMHB": [
            "Improve_MeleeAtk01_02_BS"
          ],
          "angularSpeed": 150.0,
          "GMIILFMLLJI": "",
          "LFCDKEDGFFG": 2.0,
          "MJFJKAHGHDJ": ""
        },
        {
          "$type": "MoleMole.Config.SteerAttackMixin",
          "BAJBFPAEMHB": [
            "Improve_MeleeAtk01_02"
          ],
          "angularSpeed": 150.0,
          "GMIILFMLLJI": "",
          "LFCDKEDGFFG": 2.0,
          "MJFJKAHGHDJ": ""
        },
        {
          "$type": "MoleMole.Config.SteerAttackMixin",
          "BAJBFPAEMHB": [
            "Improve_MeleeAtk01_03"
          ],
          "angularSpeed": 150.0,
          "GMIILFMLLJI": "",
          "LFCDKEDGFFG": 2.0,
          "MJFJKAHGHDJ": ""
        },
        {
          "$type": "MoleMole.Config.SteerAttackMixin",
          "BAJBFPAEMHB": [
            "Improve_MeleeAtk01_03_BS"
          ],
          "angularSpeed": 150.0,
          "GMIILFMLLJI": "",
          "LFCDKEDGFFG": 2.0,
          "MJFJKAHGHDJ": ""
        },
        {
          "$type": "MoleMole.Config.SteerAttackMixin",
          "BAJBFPAEMHB": [
            "Improve_MeleeAtk02"
          ],
          "endNormalizedTime": 0.25999999046325684,
          "angularSpeed": 150.0,
          "GMIILFMLLJI": "",
          "LFCDKEDGFFG": 2.0,
          "MJFJKAHGHDJ": ""
        }
      ]
    }
  },
  {
    "Default": {
      "$type": "MoleMole.Config.GNKCLKNDOAK",
      "abilityName": "Monster_Eremite_Male_Standard_Polearm_Electric_WeaponOnback",
      "PIDAPNFJNDF": [
        {
          "$type": "MoleMole.Config.AttachToPoseIDMixin",
          "LEPKMNMJJHJ": [
            1,
            2,
            901,
            902,
            903
          ],
          "modifierName": "UNIQUE_WeaponOnBack"
        }
      ],
      "BFBDNNJCDLH": {
        "UNIQUE_WeaponOnBack": {
          "modifierName": "",
          "LLIJGLMEHFK": true,
          "elementDurability": 100.0,
          "OAOGLLGGJPD": [
            {
              "$type": "MoleMole.Config.SetWeaponAttachPointRealName",
              "IOAFFAMKLEN": "equip01",
              "AMGOJPFOKOP": "WeaponOnBack"
            }
          ]
        }
      },
      "EIIHGJGFDHC": [
        {
          "$type": "MoleMole.Config.ApplyModifier",
          "modifierName": "UNIQUE_WeaponOnBack"
        }
      ]
    }
  },
  {
    "Default": {
      "$type": "MoleMole.Config.GNKCLKNDOAK",
      "abilityName": "Monster_Eremite_Male_Standard_Polearm_Electric_DrawWeapon",
      "PIDAPNFJNDF": [
        {
          "$type": "MoleMole.Config.AttachToStateIDMixin",
          "stateIDs": [
            "Alert"
          ],
          "modifierName": "Reconnect_DrawWeapon",
          "MJFJKAHGHDJ": ""
        },
        {
          "$type": "MoleMole.Config.AttachToStateIDMixin",
          "stateIDs": [
            "Struggle",
            "Exercise"
          ],
          "modifierName": "DrawWeapon",
          "MJFJKAHGHDJ": ""
        },
        {
          "$type": "MoleMole.Config.DoActionByAnimatorStateIDMixin",
          "stateIDs": [
            "Hit_H",
            "Hit_L",
            "HitThrow"
          ],
          "GEDBCEGNPPO": [
            {
              "$type": "MoleMole.Config.TriggerAbility",
              "abilityName": "Monster_Eremite_Male_Standard_Polearm_Electric_Alert"
            },
            {
              "$type": "MoleMole.Config.AddGlobalValue",
              "value": 10.0,
              "key": "_MONSTER_EREMITE_SHEATH_WEAPON",
              "HPICGAMGEGA": true,
              "maxValue": 1.0,
              "GCEOGBJIFCP": 0.0
            }
          ],
          "MJFJKAHGHDJ": ""
        },
        {
          "$type": "MoleMole.Config.AttachModifierToSelfGlobalValueMixin",
          "globalValueKey": "_MONSTER_EREMITE_SHEATH_WEAPON",
          "KADKJMOFOLI": 0.0,
          "FJEPHJNDEAI": [
            -0.5,
            0.5,
            1.5
          ],
          "IJEPHCMOAPE": [
            "UNIQUE_SheathWeapon",
            "UNIQUE_DrawWeapon"
          ]
        },
        {
          "$type": "MoleMole.Config.AttachToPoseIDMixin",
          "LEPKMNMJJHJ": [
            101
          ],
          "modifierName": "Reconnect_DrawWeapon"
        }
      ],
      "BFBDNNJCDLH": {
        "UNIQUE_DrawWeapon": {
          "EODJPKICNGG": "Unique",
          "modifierName": "",
          "LLIJGLMEHFK": true,
          "elementDurability": 100.0,
          "OAOGLLGGJPD": [
            {
              "$type": "MoleMole.Config.RemoveUniqueModifier",
              "modifierName": "UNIQUE_SheathWeapon"
            },
            {
              "$type": "MoleMole.Config.SetWeaponAttachPointRealName",
              "canBeHandledOnRecover": true,
              "IOAFFAMKLEN": "equip01",
              "AMGOJPFOKOP": ""
            }
          ]
        },
        "UNIQUE_SheathWeapon": {
          "EODJPKICNGG": "Unique",
          "modifierName": "",
          "LLIJGLMEHFK": true,
          "elementDurability": 100.0,
          "OAOGLLGGJPD": [
            {
              "$type": "MoleMole.Config.RemoveUniqueModifier",
              "modifierName": "UNIQUE_DrawWeapon"
            },
            {
              "$type": "MoleMole.Config.SetWeaponAttachPointRealName",
              "canBeHandledOnRecover": true,
              "IOAFFAMKLEN": "equip01",
              "AMGOJPFOKOP": "WeaponOnBack"
            }
          ]
        },
        "Reconnect_DrawWeapon": {
          "modifierName": "",
          "duration": 2.0,
          "elementDurability": 100.0,
          "MINFJCDAIBB": [
            {
              "$type": "MoleMole.Config.AddGlobalValue",
              "value": 10.0,
              "key": "_MONSTER_EREMITE_SHEATH_WEAPON",
              "HPICGAMGEGA": true,
              "maxValue": 1.0,
              "GCEOGBJIFCP": 0.0
            }
          ]
        },
        "DrawWeapon": {
          "modifierName": "",
          "elementDurability": 100.0,
          "OAOGLLGGJPD": [
            {
              "$type": "MoleMole.Config.SetGlobalValue",
              "value": 1.0,
              "key": "_MONSTER_EREMITE_SHEATH_WEAPON",
              "HPICGAMGEGA": true,
              "maxValue": 1.0,
              "GCEOGBJIFCP": 0.0
            }
          ]
        }
      },
      "OAOGLLGGJPD": [
        {
          "$type": "MoleMole.Config.SetGlobalValue",
          "value": 0.0,
          "key": "_MONSTER_EREMITE_SHEATH_WEAPON",
          "HPICGAMGEGA": true,
          "maxValue": 1.0,
          "GCEOGBJIFCP": 0.0
        }
      ],
      "EIIHGJGFDHC": [
        {
          "$type": "MoleMole.Config.AddGlobalValue",
          "value": 10.0,
          "key": "_MONSTER_EREMITE_SHEATH_WEAPON",
          "HPICGAMGEGA": true,
          "maxValue": 1.0,
          "GCEOGBJIFCP": 0.0
        }
      ]
    }
  },
  {
    "Default": {
      "$type": "MoleMole.Config.GNKCLKNDOAK",
      "abilityName": "Monster_Eremite_Male_Standard_Polearm_Electric_SheathWeapon",
      "PIDAPNFJNDF": [
        {
          "$type": "MoleMole.Config.AttachToStateIDMixin",
          "stateIDs": [
            "SheathWeapon"
          ],
          "modifierName": "Reconnect_SheathWeapon",
          "MJFJKAHGHDJ": ""
        }
      ],
      "BFBDNNJCDLH": {
        "Reconnect_SheathWeapon": {
          "modifierName": "",
          "elementDurability": 100.0,
          "MINFJCDAIBB": [
            {
              "$type": "MoleMole.Config.AddGlobalValue",
              "value": -10.0,
              "key": "_MONSTER_EREMITE_SHEATH_WEAPON",
              "HPICGAMGEGA": true,
              "maxValue": 1.0,
              "GCEOGBJIFCP": 0.0
            }
          ]
        }
      },
      "EIIHGJGFDHC": [
        {
          "$type": "MoleMole.Config.AddGlobalValue",
          "value": -10.0,
          "key": "_MONSTER_EREMITE_SHEATH_WEAPON",
          "HPICGAMGEGA": true,
          "maxValue": 1.0,
          "GCEOGBJIFCP": 0.0
        }
      ]
    }
  },
  {
    "Default": {
      "$type": "MoleMole.Config.GNKCLKNDOAK",
      "abilityName": "Monster_Eremite_Male_Standard_Polearm_Electric_HideWeapon",
      "PIDAPNFJNDF": [
        {
          "$type": "MoleMole.Config.AttachToStateIDMixin",
          "stateIDs": [
            "Lie",
            "Sit_Loop"
          ],
          "modifierName": "HideWeapon",
          "MJFJKAHGHDJ": ""
        }
      ],
      "BFBDNNJCDLH": {
        "HideWeapon": {
          "modifierName": "",
          "elementDurability": 100.0,
          "OAOGLLGGJPD": [
            {
              "$type": "MoleMole.Config.SetGlobalValue",
              "canBeHandledOnRecover": true,
              "value": 1.0,
              "key": "_MONSTER_EREMITE_HIDE_WEAPON",
              "HPICGAMGEGA": true,
              "maxValue": 1.0,
              "GCEOGBJIFCP": 0.0
            }
          ],
          "MINFJCDAIBB": [
            {
              "$type": "MoleMole.Config.SetGlobalValue",
              "canBeHandledOnRecover": true,
              "value": 0.0,
              "key": "_MONSTER_EREMITE_HIDE_WEAPON",
              "HPICGAMGEGA": true,
              "maxValue": 1.0,
              "GCEOGBJIFCP": 0.0
            }
          ]
        }
      },
      "OAOGLLGGJPD": [
        {
          "$type": "MoleMole.Config.SetGlobalValue",
          "value": 0.0,
          "key": "_MONSTER_EREMITE_HIDE_WEAPON",
          "HPICGAMGEGA": true,
          "maxValue": 1.0,
          "GCEOGBJIFCP": 0.0
        }
      ],
      "EIIHGJGFDHC": [
        {
          "$type": "MoleMole.Config.AddGlobalValue",
          "value": 10.0,
          "key": "_MONSTER_EREMITE_SHEATH_HIDEWEAPON",
          "HPICGAMGEGA": true,
          "maxValue": 1.0,
          "GCEOGBJIFCP": 0.0
        }
      ]
    }
  },
  {
    "Default": {
      "$type": "MoleMole.Config.GNKCLKNDOAK",
      "abilityName": "Monster_Eremite_Male_Standard_Polearm_Electric_UnhideWeapon",
      "EIIHGJGFDHC": [
        {
          "$type": "MoleMole.Config.AddGlobalValue",
          "value": -10.0,
          "key": "_MONSTER_EREMITE_HIDE_WEAPON",
          "HPICGAMGEGA": true,
          "maxValue": 1.0,
          "GCEOGBJIFCP": 0.0
        }
      ]
    }
  },
  {
    "Default": {
      "$type": "MoleMole.Config.GNKCLKNDOAK",
      "abilityName": "Monster_Eremite_Male_Standard_Polearm_Electric_ReturnToBorn",
      "PIDAPNFJNDF": [
        {
          "$type": "MoleMole.Config.AttachToPoseIDMixin",
          "LEPKMNMJJHJ": [
            901
          ],
          "modifierName": "ReturnToBorn_Start"
        },
        {
          "$type": "MoleMole.Config.AttachToAnimatorStateIDMixin",
          "stateIDs": [
            "SheathWeapon"
          ],
          "modifierName": "ReturnToBornHandler",
          "MJFJKAHGHDJ": ""
        }
      ],
      "BFBDNNJCDLH": {
        "ReturnToBorn_Start": {
          "modifierName": "",
          "elementDurability": 100.0,
          "OAOGLLGGJPD": [
            {
              "$type": "MoleMole.Config.SetAnimatorTrigger",
              "triggerID": "SheathWeaponTrigger"
            }
          ]
        },
        "ReturnToBornHandler": {
          "modifierName": "",
          "elementDurability": 100.0,
          "OAOGLLGGJPD": [
            {
              "$type": "MoleMole.Config.SetGlobalValue",
              "value": 0.0,
              "key": "_MONSTER_EREMITE_IMPROVED_",
              "HPICGAMGEGA": true,
              "maxValue": 1.0,
              "GCEOGBJIFCP": 0.0
            },
            {
              "$type": "MoleMole.Config.SetGlobalValue",
              "value": 1.0,
              "key": "_MONSTER_EREMITE_RETURNTOBORN_",
              "HPICGAMGEGA": true,
              "maxValue": 1.0,
              "GCEOGBJIFCP": 0.0
            },
            {
              "$type": "MoleMole.Config.SetGlobalValue",
              "value": 0.0,
              "key": "_MONSTER_EREMITE_WEAK_",
              "HPICGAMGEGA": true,
              "maxValue": 1.0,
              "GCEOGBJIFCP": 0.0
            },
            {
              "$type": "MoleMole.Config.SetGlobalValue",
              "value": 0.0,
              "key": "_MONSTER_EREMITE_IMPROVED_COUNT_",
              "HPICGAMGEGA": true,
              "maxValue": 99.0,
              "GCEOGBJIFCP": 0.0
            },
            {
              "$type": "MoleMole.Config.SetGlobalValue",
              "value": 0.0,
              "key": "_MONSTER_EREMITE_IMPROVED_COUNT_",
              "HPICGAMGEGA": true,
              "maxValue": 99.0,
              "GCEOGBJIFCP": 0.0
            },
            {
              "$type": "MoleMole.Config.RemoveUniqueModifier",
              "modifierName": "UNIQUE_Eremite_ImproveState_Properties"
            },
            {
              "$type": "MoleMole.Config.RemoveUniqueModifier",
              "modifierName": "UNIQUE_Eremite_Force_ImproveState"
            }
          ],
          "MINFJCDAIBB": [
            {
              "$type": "MoleMole.Config.SetGlobalValue",
              "value": 0.0,
              "key": "_MONSTER_EREMITE_IMPROVED_",
              "HPICGAMGEGA": true,
              "maxValue": 1.0,
              "GCEOGBJIFCP": 0.0
            },
            {
              "$type": "MoleMole.Config.SetGlobalValue",
              "value": 0.0,
              "key": "_MONSTER_EREMITE_IMPROVED_COUNT_",
              "HPICGAMGEGA": true,
              "maxValue": 99.0,
              "GCEOGBJIFCP": 0.0
            },
            {
              "$type": "MoleMole.Config.SetGlobalValue",
              "value": 0.0,
              "key": "_MONSTER_EREMITE_ISINFIGHT_",
              "HPICGAMGEGA": true,
              "maxValue": 1.0,
              "GCEOGBJIFCP": 0.0
            },
            {
              "$type": "MoleMole.Config.SetGlobalValue",
              "value": 0.0,
              "key": "_MONSTER_EREMITE_WEAK_",
              "HPICGAMGEGA": true,
              "maxValue": 1.0,
              "GCEOGBJIFCP": 0.0
            },
            {
              "$type": "MoleMole.Config.SetGlobalValue",
              "value": 0.0,
              "key": "_MONSTER_EREMITE_RETURNTOBORN_",
              "HPICGAMGEGA": true,
              "maxValue": 1.0,
              "GCEOGBJIFCP": 0.0
            },
            {
              "$type": "MoleMole.Config.SetGlobalValue",
              "value": 0.0,
              "key": "_MONSTER_EREMITE_OUTIMPROVED",
              "HPICGAMGEGA": true,
              "maxValue": 1.0,
              "GCEOGBJIFCP": 0.0
            }
          ]
        }
      }
    }
  }
]