[
  {
    "Default": {
      "$type": "MoleMole.Config.GNKCLKNDOAK",
      "abilityName": "Eremite_TurnState_AnimatorSteer",
      "PIDAPNFJNDF": [
        {
          "$type": "MoleMole.Config.SteerAttackMixin",
          "BAJBFPAEMHB": [
            "Turn"
          ],
          "endNormalizedTime": 100.0,
          "angularSpeed": 250.0,
          "GMIILFMLLJI": "",
          "MJFJKAHGHDJ": ""
        }
      ]
    }
  },
  {
    "Default": {
      "$type": "MoleMole.Config.GNKCLKNDOAK",
      "abilityName": "Eremite_Universal_Alert",
      "EIIHGJGFDHC": [
        {
          "$type": "MoleMole.Config.SetPoseInt",
          "intID": "FreePoseMark"
        }
      ]
    }
  },
  {
    "Default": {
      "$type": "MoleMole.Config.GNKCLKNDOAK",
      "abilityName": "Eremite_ReturnToBorn",
      "PIDAPNFJNDF": [
        {
          "$type": "MoleMole.Config.AttachToPoseIDMixin",
          "LEPKMNMJJHJ": [
            901
          ],
          "modifierName": "ReturnToBorn_Start"
        }
      ],
      "BFBDNNJCDLH": {
        "ReturnToBorn_Start": {
          "modifierName": "",
          "elementDurability": 100.0,
          "OAOGLLGGJPD": [
            {
              "$type": "MoleMole.Config.SetAnimatorTrigger",
              "triggerID": "SheathWeaponTrigger"
            }
          ]
        }
      }
    }
  },
  {
    "Default": {
      "$type": "MoleMole.Config.GNKCLKNDOAK",
      "abilityName": "Eremite_Equip_Delay_Destory",
      "BFBDNNJCDLH": {
        "Weapon_Delay_Disappear": {
          "modifierName": "",
          "elementDurability": 100.0,
          "OAOGLLGGJPD": [
            {
              "$type": "MoleMole.Config.KillSelf"
            },
            {
              "$type": "MoleMole.Config.HideUIBillBoard",
              "hide": true
            }
          ]
        }
      },
      "onDetach": [
        {
          "$type": "MoleMole.Config.ApplyModifier",
          "modifierName": "Weapon_Delay_Disappear"
        }
      ]
    }
  },
  {
    "Default": {
      "$type": "MoleMole.Config.GNKCLKNDOAK",
      "abilityName": "Eremite_Equip_Display_Manager",
      "PIDAPNFJNDF": [
        {
          "$type": "MoleMole.Config.AttachModifierToSelfGlobalValueMixin",
          "globalValueKey": "_EREMITE_SHEATHWEAPON_",
          "KADKJMOFOLI": 1.0,
          "FJEPHJNDEAI": [
            -0.5,
            0.5,
            1.5
          ],
          "IJEPHCMOAPE": [
            "UNIQUE_Eremite_ShowWeapon",
            "UNIQUE_Eremite_SheathWeapon"
          ]
        },
        {
          "$type": "MoleMole.Config.AttachToStateIDMixin",
          "stateIDs": [
            "Struggle"
          ],
          "modifierName": "UNIQUE_Eremite_HideWeapon",
          "MJFJKAHGHDJ": ""
        },
        {
          "$type": "MoleMole.Config.DoActionByPoseIDMixin",
          "LEPKMNMJJHJ": [
            1
          ],
          "GEDBCEGNPPO": [
            {
              "$type": "MoleMole.Config.SetGlobalValue",
              "value": 1.0,
              "key": "_EREMITE_SHEATHWEAPON_",
              "maxValue": 0.0,
              "GCEOGBJIFCP": 0.0
            }
          ]
        }
      ],
      "BFBDNNJCDLH": {
        "UNIQUE_Eremite_SheathWeapon": {
          "modifierName": "",
          "LLIJGLMEHFK": true,
          "elementDurability": 100.0,
          "OAOGLLGGJPD": [
            {
              "$type": "MoleMole.Config.SetWeaponAttachPointRealName",
              "canBeHandledOnRecover": true,
              "IOAFFAMKLEN": "equip01",
              "AMGOJPFOKOP": "WeaponSheathPoint"
            },
            {
              "$type": "MoleMole.Config.SetPoseBool",
              "canBeHandledOnRecover": true,
              "KIAGMJMPHPG": "WeaponInHand"
            }
          ],
          "PMDLJDGOIKO": [
            {
              "$type": "MoleMole.Config.SetWeaponAttachPointRealName",
              "IOAFFAMKLEN": "equip01",
              "AMGOJPFOKOP": "WeaponSheathPoint"
            },
            {
              "$type": "MoleMole.Config.SetPoseBool",
              "KIAGMJMPHPG": "WeaponInHand"
            }
          ],
          "MHBHKCIDGEP": [
            {
              "$type": "MoleMole.Config.SetWeaponAttachPointRealName",
              "IOAFFAMKLEN": "equip01",
              "AMGOJPFOKOP": "WeaponSheathPoint"
            },
            {
              "$type": "MoleMole.Config.SetPoseBool",
              "KIAGMJMPHPG": "WeaponInHand"
            }
          ]
        },
        "UNIQUE_Eremite_ShowWeapon": {
          "modifierName": "",
          "LLIJGLMEHFK": true,
          "elementDurability": 100.0,
          "OAOGLLGGJPD": [
            {
              "$type": "MoleMole.Config.SetWeaponAttachPointRealName",
              "IOAFFAMKLEN": "equip01",
              "AMGOJPFOKOP": ""
            },
            {
              "$type": "MoleMole.Config.SetPoseBool",
              "KIAGMJMPHPG": "WeaponInHand",
              "value": true
            }
          ]
        },
        "UNIQUE_Eremite_HideWeapon": {
          "modifierName": "",
          "LLIJGLMEHFK": true,
          "elementDurability": 100.0,
          "OAOGLLGGJPD": [
            {
              "$type": "MoleMole.Config.TriggerHideWeapon",
              "canBeHandledOnRecover": true,
              "PCJBGFIBDGC": [
                "equip01"
              ],
              "MAHKHBBNCOJ": true
            }
          ],
          "MINFJCDAIBB": [
            {
              "$type": "MoleMole.Config.TriggerHideWeapon",
              "LJBECOMGDEJ": true,
              "PCJBGFIBDGC": [
                "equip01"
              ],
              "MAHKHBBNCOJ": true
            }
          ],
          "PMDLJDGOIKO": [
            {
              "$type": "MoleMole.Config.TriggerHideWeapon",
              "PCJBGFIBDGC": [
                "equip01"
              ],
              "MAHKHBBNCOJ": true
            }
          ],
          "MHBHKCIDGEP": [
            {
              "$type": "MoleMole.Config.TriggerHideWeapon",
              "PCJBGFIBDGC": [
                "equip01"
              ],
              "MAHKHBBNCOJ": true
            }
          ]
        }
      },
      "OAOGLLGGJPD": [
        {
          "$type": "MoleMole.Config.SetGlobalValue",
          "canBeHandledOnRecover": true,
          "value": 1.0,
          "key": "_EREMITE_SHEATHWEAPON_",
          "maxValue": 0.0,
          "GCEOGBJIFCP": 0.0
        }
      ],
      "EIIHGJGFDHC": [
        {
          "$type": "MoleMole.Config.SetGlobalValue",
          "value": 0.0,
          "key": "_EREMITE_SHEATHWEAPON_",
          "maxValue": 0.0,
          "GCEOGBJIFCP": 0.0
        }
      ]
    }
  },
  {
    "Default": {
      "$type": "MoleMole.Config.GNKCLKNDOAK",
      "abilityName": "Eremite_Equip_SheathWeapon",
      "EIIHGJGFDHC": [
        {
          "$type": "MoleMole.Config.SetGlobalValue",
          "value": 1.0,
          "key": "_EREMITE_SHEATHWEAPON_",
          "maxValue": 0.0,
          "GCEOGBJIFCP": 0.0
        }
      ]
    }
  },
  {
    "Default": {
      "$type": "MoleMole.Config.GNKCLKNDOAK",
      "abilityName": "Eremite_Endure_Enhanced",
      "BFBDNNJCDLH": {
        "Eremite_Endure_Enhanced": {
          "modifierName": "",
          "elementDurability": 100.0,
          "EPKCPIKGJOJ": {
            "Actor_EndureDelta": 0.44999998807907104
          }
        }
      },
      "OAOGLLGGJPD": [
        {
          "$type": "MoleMole.Config.ApplyModifier",
          "modifierName": "Eremite_Endure_Enhanced"
        }
      ]
    }
  },
  {
    "Default": {
      "$type": "MoleMole.Config.GNKCLKNDOAK",
      "abilityName": "Eremite_Gambling_Logic",
      "PIDAPNFJNDF": [
        {
          "$type": "MoleMole.Config.DoActionByPoseIDMixin",
          "LEPKMNMJJHJ": [
            9512
          ],
          "GEDBCEGNPPO": [
            {
              "$type": "MoleMole.Config.SetGlobalValue",
              "value": 1.0,
              "key": "_EREMITE_GAMBLING_RESULT_RECEIVER_",
              "maxValue": 0.0,
              "GCEOGBJIFCP": 0.0
            },
            {
              "$type": "MoleMole.Config.SetAnimatorBool",
              "KIAGMJMPHPG": "GamblingBanker"
            }
          ],
          "IKMNFOBKHJA": [
            {
              "$type": "MoleMole.Config.ClearGlobalValue",
              "key": "_EREMITE_GAMBLING_RESULT_RECEIVER_"
            },
            {
              "$type": "MoleMole.Config.SetAnimatorBool",
              "KIAGMJMPHPG": "GamblingBanker",
              "value": true
            }
          ]
        },
        {
          "$type": "MoleMole.Config.DoActionByAnimatorStateIDMixin",
          "stateIDs": [
            "Crossleg_Gambling_Bet_Skill"
          ],
          "GEDBCEGNPPO": [
            {
              "$type": "MoleMole.Config.ApplyModifier",
              "otherTargets": {
                "$type": "DOMPKGOHKNB",
                "KHHAHILDJDO": 1,
                "sortType": "Nearest",
                "shapeName": "CircleR6",
                "FAMCBLCIFCJ": "Alliance",
                "CONEFMBNECE": 1.0
              },
              "predicates": [
                {
                  "$type": "IPGGGPIJONN",
                  "key": "_EREMITE_GAMBLING_RESULT_RECEIVER_",
                  "value": 1.0
                }
              ],
              "modifierName": "Eremite_Gambling_Trigger_GamblingBet"
            }
          ],
          "MJFJKAHGHDJ": ""
        }
      ],
      "BFBDNNJCDLH": {
        "Eremite_Gambling_Trigger_GamblingBet": {
          "modifierName": "",
          "duration": 5.0,
          "elementDurability": 100.0,
          "OAOGLLGGJPD": [
            {
              "$type": "MoleMole.Config.SetAnimatorTrigger",
              "triggerID": "GamblingBet"
            }
          ]
        },
        "Eremite_Gambling_Trigger_GamblingLose": {
          "modifierName": "",
          "duration": 5.0,
          "elementDurability": 100.0,
          "OAOGLLGGJPD": [
            {
              "$type": "MoleMole.Config.SetAnimatorTrigger",
              "triggerID": "GamblingLose"
            }
          ]
        },
        "Eremite_Gambling_Trigger_GamblingWin": {
          "modifierName": "",
          "duration": 5.0,
          "elementDurability": 100.0,
          "OAOGLLGGJPD": [
            {
              "$type": "MoleMole.Config.SetAnimatorTrigger",
              "triggerID": "GamblingWin"
            }
          ]
        }
      },
      "EIIHGJGFDHC": [
        {
          "$type": "MoleMole.Config.Randomed",
          "HIMGGNECCNH": 0.5,
          "successActions": [
            {
              "$type": "MoleMole.Config.SetAnimatorBool",
              "KIAGMJMPHPG": "GamblingResult",
              "value": true
            },
            {
              "$type": "MoleMole.Config.ApplyModifier",
              "otherTargets": {
                "$type": "DOMPKGOHKNB",
                "KHHAHILDJDO": 1,
                "sortType": "Nearest",
                "shapeName": "CircleR6",
                "FAMCBLCIFCJ": "Alliance",
                "CONEFMBNECE": 1.0
              },
              "predicates": [
                {
                  "$type": "IPGGGPIJONN",
                  "key": "_EREMITE_GAMBLING_RESULT_RECEIVER_",
                  "value": 1.0
                }
              ],
              "modifierName": "Eremite_Gambling_Trigger_GamblingLose"
            }
          ],
          "failActions": [
            {
              "$type": "MoleMole.Config.SetAnimatorBool",
              "KIAGMJMPHPG": "GamblingResult"
            },
            {
              "$type": "MoleMole.Config.ApplyModifier",
              "otherTargets": {
                "$type": "DOMPKGOHKNB",
                "KHHAHILDJDO": 1,
                "sortType": "Nearest",
                "shapeName": "CircleR6",
                "FAMCBLCIFCJ": "Alliance",
                "CONEFMBNECE": 1.0
              },
              "predicates": [
                {
                  "$type": "IPGGGPIJONN",
                  "key": "_EREMITE_GAMBLING_RESULT_RECEIVER_",
                  "value": 1.0
                }
              ],
              "modifierName": "Eremite_Gambling_Trigger_GamblingWin"
            }
          ]
        }
      ]
    }
  },
  {
    "Default": {
      "$type": "MoleMole.Config.GNKCLKNDOAK",
      "abilityName": "Eremite_FreePose_Display_Manager",
      "PIDAPNFJNDF": [
        {
          "$type": "MoleMole.Config.AttachToAnimatorStateIDMixin",
          "stateIDs": [
            "Crossleg_OudIdle",
            "Crossleg_PlayOud_BS",
            "Crossleg_PlayOud_Loop",
            "Crossleg_PlayOud_AS"
          ],
          "modifierName": "FreePose_Display_Oud",
          "MJFJKAHGHDJ": ""
        },
        {
          "$type": "MoleMole.Config.AttachToAnimatorStateIDMixin",
          "stateIDs": [
            "Crossleg_PlayDaff_Idle"
          ],
          "modifierName": "FreePose_Display_Daff",
          "MJFJKAHGHDJ": ""
        },
        {
          "$type": "MoleMole.Config.DoActionByPoseIDMixin",
          "LEPKMNMJJHJ": [
            9555
          ],
          "GEDBCEGNPPO": [
            {
              "$type": "MoleMole.Config.SetPoseBool",
              "KIAGMJMPHPG": "StopPlayOud"
            }
          ]
        },
        {
          "$type": "MoleMole.Config.DoActionByAnimatorStateIDMixin",
          "stateIDs": [
            "Crossleg_PlayOud_Loop"
          ],
          "IKMNFOBKHJA": [
            {
              "$type": "MoleMole.Config.SetPoseBool",
              "KIAGMJMPHPG": "StopPlayOud",
              "value": true
            }
          ],
          "MJFJKAHGHDJ": ""
        }
      ],
      "BFBDNNJCDLH": {
        "FreePose_Display_Oud": {
          "modifierName": "",
          "elementDurability": 100.0,
          "OAOGLLGGJPD": [
            {
              "$type": "MoleMole.Config.AttachEffect",
              "effectPattern": "Eff_Monster_Eremite_Freepose_Oud",
              "effectTempleteID": -1.0
            }
          ],
          "MINFJCDAIBB": [
            {
              "$type": "MoleMole.Config.FireEffect",
              "effectPattern": "Eff_Monster_Eremite_Weapon_Disappear",
              "born": {
                "$type": "JEDNAGFKIDP",
                "offset": {
                  "EJJEPFCDDAM": 0.2680000066757202
                },
                "OBNIJLKICKN": "WeaponR"
              },
              "effectTempleteID": -1.0
            }
          ]
        },
        "FreePose_Display_Daff": {
          "modifierName": "",
          "elementDurability": 100.0,
          "OAOGLLGGJPD": [
            {
              "$type": "MoleMole.Config.AttachEffect",
              "effectPattern": "Eff_Monster_Eremite_Freepose_Daff",
              "effectTempleteID": -1.0
            }
          ],
          "MINFJCDAIBB": [
            {
              "$type": "MoleMole.Config.FireEffect",
              "effectPattern": "Eff_Monster_Eremite_Weapon_Disappear",
              "born": {
                "$type": "JEDNAGFKIDP",
                "offset": {
                  "GOAPOLCAJBP": -0.16300000250339508,
                  "EJJEPFCDDAM": 0.10599999874830246
                },
                "OBNIJLKICKN": "WeaponL"
              },
              "effectTempleteID": -1.0
            }
          ]
        }
      }
    }
  },
  {
    "Default": {
      "$type": "MoleMole.Config.GNKCLKNDOAK",
      "abilityName": "Eremite_FreePose_Male_Drinking_Display_Manager",
      "PIDAPNFJNDF": [
        {
          "$type": "MoleMole.Config.AttachToAnimatorStateIDMixin",
          "stateIDs": [
            "Crossleg_Drink_Skill_02",
            "Crossleg_Drink_Skill_04"
          ],
          "modifierName": "EremiteDrinkingMark_Plugged",
          "MJFJKAHGHDJ": ""
        },
        {
          "$type": "MoleMole.Config.AttachToAnimatorStateIDMixin",
          "stateIDs": [
            "Crossleg_Drink_Skill_03"
          ],
          "modifierName": "EremiteDrinkingMark_Opened",
          "MJFJKAHGHDJ": ""
        }
      ],
      "BFBDNNJCDLH": {
        "EremiteDrinkingMark_Opened": {
          "modifierName": "",
          "elementDurability": 100.0,
          "OAOGLLGGJPD": [
            {
              "$type": "MoleMole.Config.AttachEffect",
              "effectPattern": "Eff_Monster_Eremite_Freepose_WaterSkin",
              "effectTempleteID": -1.0
            }
          ]
        },
        "EremiteDrinkingMark_Plugged": {
          "modifierName": "",
          "elementDurability": 100.0,
          "OAOGLLGGJPD": [
            {
              "$type": "MoleMole.Config.AttachEffect",
              "effectPattern": "Eff_Monster_Eremite_Freepose_WaterSkin_Plugged",
              "effectTempleteID": -1.0
            }
          ]
        },
        "EremiteDrinkingMark_Plugged_After": {
          "modifierName": "",
          "elementDurability": 100.0,
          "OAOGLLGGJPD": [
            {
              "$type": "MoleMole.Config.AttachEffect",
              "effectPattern": "Eff_Monster_Eremite_Freepose_WaterSkin_Plugged",
              "effectTempleteID": -1.0
            }
          ]
        }
      }
    }
  },
  {
    "Default": {
      "$type": "MoleMole.Config.GNKCLKNDOAK",
      "abilityName": "Eremite_FreePose_MuscleMan_Drinking_Display_Manager",
      "PIDAPNFJNDF": [
        {
          "$type": "MoleMole.Config.AttachToAnimatorStateIDMixin",
          "stateIDs": [
            "Crossleg_Drink_Skill_02",
            "Crossleg_Drink_Skill_04"
          ],
          "modifierName": "EremiteDrinkingMark_Plugged",
          "MJFJKAHGHDJ": ""
        },
        {
          "$type": "MoleMole.Config.AttachToAnimatorStateIDMixin",
          "stateIDs": [
            "Crossleg_Drink_Skill_03"
          ],
          "modifierName": "EremiteDrinkingMark_Opened",
          "MJFJKAHGHDJ": ""
        }
      ],
      "BFBDNNJCDLH": {
        "EremiteDrinkingMark_Opened": {
          "modifierName": "",
          "elementDurability": 100.0,
          "OAOGLLGGJPD": [
            {
              "$type": "MoleMole.Config.AttachEffect",
              "effectPattern": "Eff_Monster_Eremite_Freepose_WaterSkin",
              "effectTempleteID": -1.0
            }
          ]
        },
        "EremiteDrinkingMark_Plugged": {
          "modifierName": "",
          "elementDurability": 100.0,
          "OAOGLLGGJPD": [
            {
              "$type": "MoleMole.Config.AttachEffect",
              "effectPattern": "Eff_Monster_Eremite_Freepose_WaterSkin_Plugged",
              "effectTempleteID": -1.0
            }
          ]
        }
      }
    }
  },
  {
    "Default": {
      "$type": "MoleMole.Config.GNKCLKNDOAK",
      "abilityName": "Eremite_FatuiMaranaWell_GlobalValue_Mark",
      "BFBDNNJCDLH": {
        "SetGlobalValue_FatuiMaranaWell": {
          "modifierName": "",
          "elementDurability": 100.0,
          "OAOGLLGGJPD": [
            {
              "$type": "MoleMole.Config.SetGlobalValue",
              "value": 1.0,
              "key": "FatuiMaranaWell",
              "maxValue": 0.0,
              "GCEOGBJIFCP": 0.0
            }
          ]
        }
      },
      "OAOGLLGGJPD": [
        {
          "$type": "MoleMole.Config.ApplyModifier",
          "modifierName": "SetGlobalValue_FatuiMaranaWell"
        }
      ]
    }
  },
  {
    "Default": {
      "$type": "MoleMole.Config.GNKCLKNDOAK",
      "abilityName": "Eremite_MainWorld_ResetThreatBroadcastRange",
      "BFBDNNJCDLH": {
        "Affix_ResetAIThreatBroadcastRange": {
          "modifierName": "",
          "elementDurability": 100.0,
          "OAOGLLGGJPD": [
            {
              "$type": "MoleMole.Config.ResetAIThreatBroadcastRange",
              "range": 0.0
            }
          ]
        }
      },
      "OAOGLLGGJPD": [
        {
          "$type": "MoleMole.Config.ApplyModifier",
          "modifierName": "Affix_ResetAIThreatBroadcastRange"
        }
      ]
    }
  },
  {
    "Default": {
      "$type": "MoleMole.Config.GNKCLKNDOAK",
      "abilityName": "Monster_Eremite_CommonEquip_UnhideWeapon_Logic",
      "PIDAPNFJNDF": [
        {
          "$type": "MoleMole.Config.AttachModifierToGlobalValueMixin",
          "KAPNONCKOJH": "Owner",
          "globalValueKey": "_MONSTER_EREMITE_HIDE_WEAPON",
          "FJEPHJNDEAI": [
            -0.5,
            0.5,
            1.5
          ],
          "IJEPHCMOAPE": [
            "UNIQUE_UnhideWeapon",
            "UNIQUE_HideWeapon"
          ]
        }
      ],
      "BFBDNNJCDLH": {
        "UNIQUE_UnhideWeapon": {
          "EODJPKICNGG": "Unique",
          "modifierName": "",
          "LLIJGLMEHFK": true,
          "elementDurability": 100.0,
          "OAOGLLGGJPD": [
            {
              "$type": "MoleMole.Config.RemoveUniqueModifier",
              "modifierName": "UNIQUE_HideWeapon"
            },
            {
              "$type": "MoleMole.Config.TriggerSetVisible",
              "canBeHandledOnRecover": true,
              "LJBECOMGDEJ": true
            }
          ]
        },
        "UNIQUE_HideWeapon": {
          "EODJPKICNGG": "Unique",
          "modifierName": "",
          "LLIJGLMEHFK": true,
          "elementDurability": 100.0,
          "OAOGLLGGJPD": [
            {
              "$type": "MoleMole.Config.RemoveUniqueModifier",
              "modifierName": "UNIQUE_UnhideWeapon"
            },
            {
              "$type": "MoleMole.Config.TriggerSetVisible",
              "canBeHandledOnRecover": true
            }
          ]
        }
      }
    }
  }
]