[
  {
    "Default": {
      "$type": "MoleMole.Config.GNKCLKNDOAK",
      "abilityName": "Monster_Necalevia_BeforeBattleShow",
      "PIDAPNFJNDF": [
        {
          "$type": "MoleMole.Config.AttachToPoseIDMixin",
          "LEPKMNMJJHJ": [
            3
          ],
          "modifierName": "Monster_Necalevia_CommunicateHandler"
        },
        {
          "$type": "MoleMole.Config.AttachToStateIDMixin",
          "stateIDs": [
            "Personality2"
          ],
          "modifierName": "Monster_Necalevia_TurnToOther",
          "MJFJKAHGHDJ": ""
        },
        {
          "$type": "MoleMole.Config.AttachToAIAlertnessMixin",
          "IJODKODFEMC": [
            2
          ],
          "modifierName": "Monster_Necalevia_ResetPoseValue"
        },
        {
          "$type": "MoleMole.Config.AttachToPoseIDMixin",
          "LEPKMNMJJHJ": [
            4
          ],
          "modifierName": "Monster_Necalevia_WarningPose"
        }
      ],
      "BFBDNNJCDLH": {
        "Monster_Necalevia_WarningPose": {
          "modifierName": "",
          "elementDurability": 100.0,
          "OAOGLLGGJPD": [
            {
              "$type": "MoleMole.Config.SetGlobalValue",
              "value": 1.0,
              "key": "_WARNING_POSE",
              "maxValue": 0.0,
              "GCEOGBJIFCP": 0.0
            }
          ]
        },
        "Monster_Necalevia_ResetPoseValue": {
          "modifierName": "",
          "elementDurability": 100.0,
          "OAOGLLGGJPD": [
            {
              "$type": "MoleMole.Config.SetPoseBool",
              "KIAGMJMPHPG": "Happy"
            },
            {
              "$type": "MoleMole.Config.SetPoseBool",
              "KIAGMJMPHPG": "Communicate"
            },
            {
              "$type": "MoleMole.Config.SetPoseBool",
              "KIAGMJMPHPG": "Warning"
            }
          ]
        },
        "Monster_Necalevia_TurnToOther": {
          "modifierName": "",
          "elementDurability": 100.0,
          "JPIFFPJJEMK": [
            {
              "$type": "MoleMole.Config.SteerAttackTraceToPosMixin",
              "BAJBFPAEMHB": [
                "Personality2"
              ],
              "endNormalizedTime": 0.5,
              "angularSpeed": 350.0,
              "GMIILFMLLJI": "",
              "MJFJKAHGHDJ": "",
              "DJAPPNKLCOA": "_NECALEVIA_COM_TOPOS"
            }
          ],
          "OAOGLLGGJPD": [
            {
              "$type": "MoleMole.Config.SetGlobalPos",
              "otherTargets": {
                "$type": "DOMPKGOHKNB",
                "KHHAHILDJDO": 1,
                "shapeName": "CircleR7",
                "FAMCBLCIFCJ": "Alliance",
                "CONEFMBNECE": 1.0
              },
              "predicates": [
                {
                  "$type": "IPGGGPIJONN",
                  "key": "_NECALEVIA_COM_POSE",
                  "value": 1.0
                }
              ],
              "key": "_NECALEVIA_COM_TOPOS",
              "born": {
                "$type": "INKMBJGOPCK"
              },
              "CIGMKELFHHB": false
            }
          ]
        },
        "Monster_Necalevia_CommunicateHandler": {
          "modifierName": "",
          "elementDurability": 100.0,
          "OAOGLLGGJPD": [
            {
              "$type": "MoleMole.Config.SetGlobalValue",
              "value": 1.0,
              "key": "_NECALEVIA_COM_POSE",
              "maxValue": 0.0,
              "GCEOGBJIFCP": 0.0
            }
          ]
        }
      }
    }
  },
  {
    "Default": {
      "$type": "MoleMole.Config.GNKCLKNDOAK",
      "abilityName": "Monster_Necalevia_ElementInitial",
      "PIDAPNFJNDF": [
        {
          "$type": "MoleMole.Config.AttachToPoseIDMixin",
          "LEPKMNMJJHJ": [
            1,
            2,
            3
          ],
          "modifierName": "Monster_Necalevia_HideBillBoard"
        },
        {
          "$type": "MoleMole.Config.AttachToAIAlertnessMixin",
          "IJODKODFEMC": [
            0,
            1
          ],
          "modifierName": "Monster_Necalevia_ResetInitialPose"
        }
      ],
      "BFBDNNJCDLH": {
        "Monster_Necalevia_ResetInitialPose": {
          "modifierName": "",
          "elementDurability": 100.0,
          "MINFJCDAIBB": [
            {
              "$type": "MoleMole.Config.SetAnimatorBool",
              "KIAGMJMPHPG": "Happy"
            },
            {
              "$type": "MoleMole.Config.SetAnimatorBool",
              "KIAGMJMPHPG": "Communicate"
            },
            {
              "$type": "MoleMole.Config.SetAnimatorBool",
              "KIAGMJMPHPG": "Warning"
            }
          ]
        },
        "Monster_Necalevia_HideBillBoard": {
          "modifierName": "",
          "elementDurability": 100.0,
          "JPIFFPJJEMK": [
            {
              "$type": "MoleMole.Config.AttachActionToModifierMixin",
              "OAOGLLGGJPD": [
                {
                  "$type": "MoleMole.Config.HideUIBillBoard",
                  "hide": true
                }
              ],
              "MINFJCDAIBB": [
                {
                  "$type": "MoleMole.Config.HideUIBillBoard"
                }
              ]
            }
          ]
        },
        "UNIQUE_Monster_Necalevia_ElementInitial": {
          "modifierName": "",
          "LLIJGLMEHFK": true,
          "elementType": "Water",
          "elementDurability": 100.0,
          "isElementDurabilityMutable": false,
          "EPKCPIKGJOJ": {
            "Actor_EndureDelta": 0.009999999776482582
          }
        }
      },
      "OAOGLLGGJPD": [
        {
          "$type": "MoleMole.Config.ApplyModifier",
          "modifierName": "UNIQUE_Monster_Necalevia_ElementInitial"
        },
        {
          "$type": "MoleMole.Config.AttachAbilityStateResistance",
          "HKHLMLCHLCF": [
            "ElementWet",
            "Struggle"
          ]
        }
      ]
    }
  },
  {
    "Default": {
      "$type": "MoleMole.Config.GNKCLKNDOAK",
      "abilityName": "Monster_Necalevia_Normal_InitialTransform",
      "OAOGLLGGJPD": [
        {
          "$type": "MoleMole.Config.SetGlobalValue",
          "value": 1.0,
          "key": "_MESH_STATE",
          "maxValue": 0.0,
          "GCEOGBJIFCP": 0.0
        },
        {
          "$type": "MoleMole.Config.SetGlobalValue",
          "value": 1.0,
          "key": "_SP_NECALEVIA",
          "maxValue": 0.0,
          "GCEOGBJIFCP": 0.0
        },
        {
          "$type": "MoleMole.Config.SetGlobalValue",
          "value": 1.0,
          "key": "_IN_ANGRY",
          "maxValue": 0.0,
          "GCEOGBJIFCP": 0.0
        },
        {
          "$type": "MoleMole.Config.SetGlobalValue",
          "value": 1.0,
          "key": "_MESH_SMALL_STATE",
          "maxValue": 0.0,
          "GCEOGBJIFCP": 0.0
        }
      ]
    }
  },
  {
    "Default": {
      "$type": "MoleMole.Config.GNKCLKNDOAK",
      "abilityName": "Monster_Necalevia_SmallTransformToNormal",
      "PIDAPNFJNDF": [
        {
          "$type": "MoleMole.Config.AttachToStateIDMixin",
          "stateIDs": [
            "TransformToNormal_AS"
          ],
          "modifierName": "Monster_Necalevia_SmallTransformToNormal",
          "MJFJKAHGHDJ": ""
        },
        {
          "$type": "MoleMole.Config.AttachModifierToSelfGlobalValueMixin",
          "globalValueKey": "_MESH_STATE",
          "KADKJMOFOLI": 0.0,
          "FJEPHJNDEAI": [
            -0.5,
            0.5,
            1.5
          ],
          "IJEPHCMOAPE": [
            "Necalevia_Normal_MeshBody",
            "Necalevia_Normal_MeshBodyNormal"
          ]
        },
        {
          "$type": "MoleMole.Config.AttachModifierToSelfGlobalValueMixin",
          "globalValueKey": "_MESH_SMALL_STATE",
          "KADKJMOFOLI": 0.0,
          "FJEPHJNDEAI": [
            -0.5,
            0.5,
            1.5
          ],
          "IJEPHCMOAPE": [
            "Necalevia_Small_MeshBodyOpen",
            "Necalevia_Small_MeshBodyClose"
          ]
        }
      ],
      "BFBDNNJCDLH": {
        "Monster_Necalevia_SmallTransformToNormal_CloseSmallMeshDelay": {
          "modifierName": "",
          "duration": 0.9800000190734863,
          "elementDurability": 100.0,
          "MINFJCDAIBB": [
            {
              "$type": "MoleMole.Config.SetGlobalValue",
              "value": 1.0,
              "key": "_MESH_SMALL_STATE",
              "maxValue": 0.0,
              "GCEOGBJIFCP": 0.0
            }
          ]
        },
        "Monster_Necalevia_SmallTransformToNormal": {
          "modifierName": "",
          "elementDurability": 100.0,
          "OAOGLLGGJPD": [
            {
              "$type": "MoleMole.Config.SetGlobalValue",
              "value": 1.0,
              "key": "_MESH_STATE",
              "maxValue": 0.0,
              "GCEOGBJIFCP": 0.0
            },
            {
              "$type": "MoleMole.Config.SetGlobalValue",
              "value": 1.0,
              "key": "_IN_ANGRY",
              "maxValue": 0.0,
              "GCEOGBJIFCP": 0.0
            },
            {
              "$type": "MoleMole.Config.ApplyModifier",
              "modifierName": "Monster_Necalevia_SmallTransformToNormal_CloseSmallMeshDelay"
            }
          ]
        },
        "Necalevia_Normal_MeshBody": {
          "modifierName": "",
          "elementDurability": 100.0,
          "OAOGLLGGJPD": [
            {
              "$type": "MoleMole.Config.TriggerSetRenderersEnable",
              "canBeHandledOnRecover": true,
              "LNJJKBMBDPG": [
                "Body_Normal_01"
              ]
            },
            {
              "$type": "MoleMole.Config.EnableHitBoxByName",
              "MAEGDKKBDPK": [
                "HitBoxSmall"
              ],
              "NJKBCLADIBK": true
            },
            {
              "$type": "MoleMole.Config.EnableHitBoxByName",
              "MAEGDKKBDPK": [
                "HitBoxNormal"
              ]
            }
          ]
        },
        "Necalevia_Normal_MeshBodyNormal": {
          "modifierName": "",
          "elementDurability": 100.0,
          "JPIFFPJJEMK": [
            {
              "$type": "MoleMole.Config.OverrideBillboardAttachPointMixin",
              "OBNIJLKICKN": "BillboardAttach2"
            }
          ],
          "OAOGLLGGJPD": [
            {
              "$type": "MoleMole.Config.TriggerSetRenderersEnable",
              "canBeHandledOnRecover": true,
              "LNJJKBMBDPG": [
                "Body_Normal_01"
              ],
              "NJKBCLADIBK": true
            },
            {
              "$type": "MoleMole.Config.EnableHitBoxByName",
              "MAEGDKKBDPK": [
                "HitBoxSmall"
              ]
            },
            {
              "$type": "MoleMole.Config.EnableHitBoxByName",
              "MAEGDKKBDPK": [
                "HitBoxNormal"
              ],
              "NJKBCLADIBK": true
            }
          ]
        },
        "Necalevia_Small_MeshBodyOpen": {
          "modifierName": "",
          "elementDurability": 100.0,
          "OAOGLLGGJPD": [
            {
              "$type": "MoleMole.Config.TriggerSetRenderersEnable",
              "canBeHandledOnRecover": true,
              "LNJJKBMBDPG": [
                "Body_Small_01"
              ],
              "NJKBCLADIBK": true
            }
          ]
        },
        "Necalevia_Small_MeshBodyClose": {
          "modifierName": "",
          "elementDurability": 100.0,
          "JPIFFPJJEMK": [
            {
              "$type": "MoleMole.Config.OverrideEffectMeshMixin",
              "ANBGLIHHKLJ": "EffectMesh2"
            }
          ],
          "OAOGLLGGJPD": [
            {
              "$type": "MoleMole.Config.TriggerSetRenderersEnable",
              "canBeHandledOnRecover": true,
              "LNJJKBMBDPG": [
                "Body_Small_01"
              ]
            },
            {
              "$type": "MoleMole.Config.FireEffect",
              "effectPattern": "Eff_Monster_Necalevia_Normal_TransformToNormal_AS",
              "effectTempleteID": -1.0
            },
            {
              "$type": "MoleMole.Config.AttachEffect",
              "effectPattern": "Eff_Monster_Necalevia_Normal_Angry",
              "effectTempleteID": -1.0
            }
          ]
        }
      },
      "DOFDCKKDGHL": [
        {
          "$type": "MoleMole.Config.FireEffect",
          "effectPattern": "Eff_Monster_Necalevia_Small_Die",
          "effectTempleteID": -1.0
        }
      ]
    }
  },
  {
    "Default": {
      "$type": "MoleMole.Config.GNKCLKNDOAK",
      "abilityName": "Monster_Necalevia_SmallBreakToNormal",
      "PIDAPNFJNDF": [
        {
          "$type": "MoleMole.Config.AttachToStateIDMixin",
          "stateIDs": [
            "BreakToNormal_BS"
          ],
          "modifierName": "Monster_Necalevia_SmallBreakToNormal",
          "MJFJKAHGHDJ": ""
        },
        {
          "$type": "MoleMole.Config.AttachToStateIDMixin",
          "stateIDs": [
            "NormalChangeToSmall_AS"
          ],
          "modifierName": "Monster_Necalevia_NormalChangeToSmall",
          "MJFJKAHGHDJ": ""
        }
      ],
      "BFBDNNJCDLH": {
        "Monster_Necalevia_SmallBreakToNormal": {
          "modifierName": "",
          "elementDurability": 100.0,
          "OAOGLLGGJPD": [
            {
              "$type": "MoleMole.Config.ApplyModifier",
              "modifierName": "Monster_Necalevia_SmallBreakToNormal_Delay"
            }
          ]
        },
        "Monster_Necalevia_SmallBreakToNormal_Delay": {
          "modifierName": "",
          "duration": 0.4000000059604645,
          "elementDurability": 100.0,
          "OAOGLLGGJPD": [
            {
              "$type": "MoleMole.Config.SetGlobalValue",
              "value": 1.0,
              "key": "_IN_ANGRY",
              "maxValue": 0.0,
              "GCEOGBJIFCP": 0.0
            }
          ],
          "MINFJCDAIBB": [
            {
              "$type": "MoleMole.Config.FireEffect",
              "effectPattern": "Eff_Monster_Necalevia_Normal_BreakFreeze",
              "effectTempleteID": -1.0
            },
            {
              "$type": "MoleMole.Config.SetGlobalValue",
              "value": 1.0,
              "key": "_MESH_STATE",
              "maxValue": 0.0,
              "GCEOGBJIFCP": 0.0
            },
            {
              "$type": "MoleMole.Config.SetGlobalValue",
              "value": 1.0,
              "key": "_MESH_SMALL_STATE",
              "maxValue": 0.0,
              "GCEOGBJIFCP": 0.0
            }
          ]
        },
        "Monster_Necalevia_NormalChangeToSmall": {
          "modifierName": "",
          "elementDurability": 100.0,
          "OAOGLLGGJPD": [
            {
              "$type": "MoleMole.Config.SetGlobalValue",
              "value": 0.0,
              "key": "_MESH_STATE",
              "maxValue": 0.0,
              "GCEOGBJIFCP": 0.0
            },
            {
              "$type": "MoleMole.Config.SetGlobalValue",
              "value": 0.0,
              "key": "_MESH_SMALL_STATE",
              "maxValue": 0.0,
              "GCEOGBJIFCP": 0.0
            },
            {
              "$type": "MoleMole.Config.SetGlobalValue",
              "value": 0.0,
              "key": "_IN_ANGRY",
              "maxValue": 0.0,
              "GCEOGBJIFCP": 0.0
            },
            {
              "$type": "MoleMole.Config.FireEffect",
              "effectPattern": "Eff_Monster_Necalevia_Big_ChangeToSmall",
              "effectTempleteID": -1.0
            }
          ]
        }
      }
    }
  },
  {
    "Default": {
      "$type": "MoleMole.Config.GNKCLKNDOAK",
      "abilityName": "Monster_Necalevia_BigSP_Steer",
      "PIDAPNFJNDF": [
        {
          "$type": "MoleMole.Config.SteerAttackMixin",
          "BAJBFPAEMHB": [
            "RangeAOEAttack_Loop"
          ],
          "endNormalizedTime": 5.0,
          "angularSpeed": 150.0,
          "GMIILFMLLJI": "",
          "MJFJKAHGHDJ": ""
        }
      ]
    }
  },
  {
    "Default": {
      "$type": "MoleMole.Config.GNKCLKNDOAK",
      "abilityName": "Monster_Necalevia_BigGeneral_Steer",
      "PIDAPNFJNDF": [
        {
          "$type": "MoleMole.Config.SteerAttackMixin",
          "BAJBFPAEMHB": [
            "RangeAOEAttack_Loop"
          ],
          "endNormalizedTime": 5.0,
          "angularSpeed": 50.0,
          "GMIILFMLLJI": "",
          "MJFJKAHGHDJ": ""
        }
      ]
    }
  },
  {
    "Default": {
      "$type": "MoleMole.Config.GNKCLKNDOAK",
      "abilityName": "Monster_Necalevia_NormalSP_Steer",
      "PIDAPNFJNDF": [
        {
          "$type": "MoleMole.Config.SteerAttackMixin",
          "BAJBFPAEMHB": [
            "RushAttack_BS"
          ],
          "endNormalizedTime": 0.9100000262260437,
          "angularSpeed": 300.0,
          "GMIILFMLLJI": "",
          "MJFJKAHGHDJ": ""
        },
        {
          "$type": "MoleMole.Config.SteerAttackTraceMixin",
          "BAJBFPAEMHB": [
            "RushAttack_Loop"
          ],
          "endNormalizedTime": 10.0,
          "angularSpeed": 120.0,
          "GMIILFMLLJI": "",
          "MJFJKAHGHDJ": ""
        }
      ]
    }
  },
  {
    "Default": {
      "$type": "MoleMole.Config.GNKCLKNDOAK",
      "abilityName": "Monster_Necalevia_NormalGeneral_Steer",
      "PIDAPNFJNDF": [
        {
          "$type": "MoleMole.Config.SteerAttackMixin",
          "BAJBFPAEMHB": [
            "RushAttack_BS"
          ],
          "endNormalizedTime": 0.9100000262260437,
          "angularSpeed": 300.0,
          "GMIILFMLLJI": "",
          "MJFJKAHGHDJ": ""
        },
        {
          "$type": "MoleMole.Config.SteerAttackTraceMixin",
          "BAJBFPAEMHB": [
            "RushAttack_Loop"
          ],
          "endNormalizedTime": 10.0,
          "angularSpeed": 30.0,
          "GMIILFMLLJI": "",
          "MJFJKAHGHDJ": ""
        }
      ]
    }
  },
  {
    "Default": {
      "$type": "MoleMole.Config.GNKCLKNDOAK",
      "abilityName": "Monster_Necalevia_Steer",
      "PIDAPNFJNDF": [
        {
          "$type": "MoleMole.Config.SteerAttackMixin",
          "BAJBFPAEMHB": [
            "SmallAttack"
          ],
          "endNormalizedTime": 0.4000000059604645,
          "angularSpeed": 150.0,
          "GMIILFMLLJI": "",
          "MJFJKAHGHDJ": ""
        },
        {
          "$type": "MoleMole.Config.SteerAttackMixin",
          "BAJBFPAEMHB": [
            "RotateAttack"
          ],
          "endNormalizedTime": 0.20999999344348907,
          "angularSpeed": 350.0,
          "GMIILFMLLJI": "",
          "MJFJKAHGHDJ": ""
        },
        {
          "$type": "MoleMole.Config.SteerAttackTraceMixin",
          "BAJBFPAEMHB": [
            "NormalMeleeAttack"
          ],
          "endNormalizedTime": 0.5,
          "angularSpeed": 200.0,
          "GMIILFMLLJI": "",
          "MJFJKAHGHDJ": ""
        },
        {
          "$type": "MoleMole.Config.SteerAttackMixin",
          "BAJBFPAEMHB": [
            "NormalRangeAttack"
          ],
          "endNormalizedTime": 0.5,
          "angularSpeed": 200.0,
          "GMIILFMLLJI": "",
          "MJFJKAHGHDJ": ""
        },
        {
          "$type": "MoleMole.Config.SteerAttackMixin",
          "BAJBFPAEMHB": [
            "RangeAOEAttack_BS"
          ],
          "endNormalizedTime": 0.4000000059604645,
          "angularSpeed": 150.0,
          "GMIILFMLLJI": "",
          "MJFJKAHGHDJ": ""
        },
        {
          "$type": "MoleMole.Config.SteerAttackMixin",
          "BAJBFPAEMHB": [
            "RangeAOEAttack_BS"
          ],
          "startNormalizedTime": 0.75,
          "angularSpeed": 100.0,
          "GMIILFMLLJI": "",
          "MJFJKAHGHDJ": ""
        }
      ]
    }
  },
  {
    "Default": {
      "$type": "MoleMole.Config.GNKCLKNDOAK",
      "abilityName": "Monster_Necalevia_Normal_RotateAtkRush",
      "EIIHGJGFDHC": [
        {
          "$type": "MoleMole.Config.FixedMonsterRushMove",
          "AOFHAEGNPNM": {
            "$type": "KPFCCIOJAMK",
            "offset": {
              "GOAPOLCAJBP": 0.0,
              "FMOPCJGGFMH": 0.0,
              "EJJEPFCDDAM": 1.0
            },
            "useRotation": true
          },
          "CCCEOGENKHO": 0.10000000149011612,
          "PINMBGMOMIF": 1.0,
          "DEMLBEAGONB": [
            "RotateAttack"
          ],
          "FPDNOCJKMNB": ""
        }
      ]
    }
  },
  {
    "Default": {
      "$type": "MoleMole.Config.GNKCLKNDOAK",
      "abilityName": "Monster_Necalevia_NormalRushAtk",
      "PIDAPNFJNDF": [
        {
          "$type": "MoleMole.Config.AttachToStateIDMixin",
          "stateIDs": [
            "RushAttack_Loop"
          ],
          "modifierName": "Monster_Necalevia_NormalRushAtk_Eff",
          "MJFJKAHGHDJ": ""
        },
        {
          "$type": "MoleMole.Config.AttachToStateIDMixin",
          "stateIDs": [
            "Born"
          ],
          "modifierName": "Remove_RushLoopEffect_Sure",
          "MJFJKAHGHDJ": ""
        }
      ],
      "BFBDNNJCDLH": {
        "Remove_RushLoopEffect_Sure": {
          "modifierName": "",
          "elementDurability": 100.0,
          "OAOGLLGGJPD": [
            {
              "$type": "MoleMole.Config.RemoveModifier",
              "modifierName": "Monster_Necalevia_NormalRushAtk_LoopEff"
            }
          ]
        },
        "Remove_Necalevia_Rush_LoopEffect": {
          "modifierName": "",
          "duration": 1.0,
          "elementDurability": 100.0,
          "MINFJCDAIBB": [
            {
              "$type": "MoleMole.Config.RemoveModifier",
              "modifierName": "Monster_Necalevia_NormalRushAtk_LoopEff"
            }
          ]
        },
        "Monster_Necalevia_NormalRushAtk_LoopEff": {
          "modifierName": "",
          "duration": 4.0,
          "elementDurability": 100.0,
          "OAOGLLGGJPD": [
            {
              "$type": "MoleMole.Config.AttachEffect",
              "effectPattern": "Eff_Monster_Necalevia_Normal_RushAttack_Loop",
              "effectTempleteID": -1.0
            }
          ]
        },
        "Monster_Necalevia_NormalRushAtk_Eff": {
          "modifierName": "",
          "elementDurability": 100.0,
          "OAOGLLGGJPD": [
            {
              "$type": "MoleMole.Config.ApplyModifier",
              "modifierName": "Monster_Necalevia_NormalRushAtk_LoopEff"
            }
          ],
          "MINFJCDAIBB": [
            {
              "$type": "MoleMole.Config.SendEffectTrigger",
              "parameter": "RushAttack_End",
              "attachPoint": "",
              "effectPattern": "Eff_Monster_Necalevia_Normal_RushAttack_Loop"
            },
            {
              "$type": "MoleMole.Config.ApplyModifier",
              "modifierName": "Remove_Necalevia_Rush_LoopEffect"
            }
          ],
          "GAPANNMIBJA": [
            {
              "$type": "MoleMole.Config.Predicated",
              "MLDBFKEGPEF": "Other",
              "CKBKOCJPJMM": [
                {
                  "$type": "DLLOJMFICPG",
                  "JBEIOINCLFB": [
                    "Avatar"
                  ]
                }
              ],
              "successActions": [
                {
                  "$type": "MoleMole.Config.SetAnimatorTrigger",
                  "triggerID": "RushHit"
                }
              ]
            }
          ]
        }
      }
    }
  },
  {
    "Default": {
      "$type": "MoleMole.Config.GNKCLKNDOAK",
      "abilityName": "Monster_Necalevia_NormalRushAtkSP",
      "PIDAPNFJNDF": [
        {
          "$type": "MoleMole.Config.AttachToStateIDMixin",
          "stateIDs": [
            "RotateAttack"
          ],
          "modifierName": "Monster_Necalevia_NormalRushAtkSP_CheckDistance",
          "MJFJKAHGHDJ": ""
        },
        {
          "$type": "MoleMole.Config.AttachToStateIDMixin",
          "stateIDs": [
            "RushAttack_BS",
            "RushAttack_Loop",
            "RushAttack_AS"
          ],
          "modifierName": "Monster_Necalevia_NormalRushAtkSP_CheckHit",
          "MJFJKAHGHDJ": ""
        },
        {
          "$type": "MoleMole.Config.AttachToNormalizedTimeMixin",
          "GOPFOAFEKLC": "RushAttack_AS",
          "modifierName": "Monster_Necalevia_NormalRushAtkSP_GoSPAtkCheck",
          "normalizeStart": 0.25,
          "MJFJKAHGHDJ": ""
        }
      ],
      "BFBDNNJCDLH": {
        "Monster_Necalevia_NormalRushAtkSP_GoSPAtkCheck": {
          "modifierName": "",
          "duration": 0.10000000149011612,
          "elementDurability": 100.0,
          "OAOGLLGGJPD": [
            {
              "$type": "MoleMole.Config.SetAnimatorTrigger",
              "predicates": [
                {
                  "$type": "IPGGGPIJONN",
                  "key": "_RUSH_HIT",
                  "value": 0.0
                }
              ],
              "triggerID": "NoHit"
            }
          ]
        },
        "Monster_Necalevia_NormalRushAtkSP_CheckHit": {
          "modifierName": "",
          "elementDurability": 100.0,
          "OAOGLLGGJPD": [
            {
              "$type": "MoleMole.Config.SetGlobalValue",
              "value": 0.0,
              "key": "_RUSH_HIT",
              "maxValue": 0.0,
              "GCEOGBJIFCP": 0.0
            }
          ],
          "GAPANNMIBJA": [
            {
              "$type": "MoleMole.Config.SetGlobalValue",
              "value": 1.0,
              "key": "_RUSH_HIT",
              "maxValue": 0.0,
              "GCEOGBJIFCP": 0.0
            }
          ]
        },
        "Monster_Necalevia_NormalRushAtkSP_CheckDistance": {
          "modifierName": "",
          "elementDurability": 100.0,
          "BNJENAIMDPL": 0.10000000149011612,
          "PJKELBNICOI": [
            {
              "$type": "MoleMole.Config.SetGlobalValue",
              "value": 1.0,
              "key": "_TARGET_FAR",
              "maxValue": 0.0,
              "GCEOGBJIFCP": 0.0
            },
            {
              "$type": "MoleMole.Config.Predicated",
              "otherTargets": {
                "$type": "DOMPKGOHKNB",
                "shapeName": "CircleR5H4",
                "FAMCBLCIFCJ": "Enemy",
                "CONEFMBNECE": 1.0
              },
              "CKBKOCJPJMM": [
                {
                  "$type": "DLLOJMFICPG",
                  "JBEIOINCLFB": [
                    "Avatar",
                    "Monster"
                  ]
                }
              ],
              "successActions": [
                {
                  "$type": "MoleMole.Config.SetGlobalValue",
                  "value": 0.0,
                  "key": "_TARGET_FAR",
                  "maxValue": 0.0,
                  "GCEOGBJIFCP": 0.0
                }
              ]
            },
            {
              "$type": "MoleMole.Config.SetAnimatorTrigger",
              "predicates": [
                {
                  "$type": "IPGGGPIJONN",
                  "key": "_TARGET_FAR",
                  "value": 1.0
                }
              ],
              "triggerID": "GoFar"
            }
          ]
        }
      },
      "EIIHGJGFDHC": [
        {
          "$type": "MoleMole.Config.SetGlobalPos",
          "key": "_SP_MELEEATK_POS",
          "born": {
            "$type": "KPFCCIOJAMK",
            "useRotation": true
          }
        },
        {
          "$type": "MoleMole.Config.FireEffect",
          "effectPattern": "Eff_Monster_Necalevia_Normal_NormalMeleeAttackExplode_Earth",
          "born": {
            "$type": "IPPOJFGKJFD",
            "offset": {
              "GOAPOLCAJBP": 0.0,
              "FMOPCJGGFMH": 0.0,
              "EJJEPFCDDAM": 4.0
            },
            "onGround": true,
            "CINDHKBGJMG": "_SP_MELEEATK_POS",
            "DLKPHEEBIKB": ""
          },
          "effectTempleteID": -1.0
        },
        {
          "$type": "MoleMole.Config.TriggerAttackEvent",
          "doAfterDie": false,
          "attackEvent": {
            "attackPattern": {
              "$type": "LGEKKELKDAN",
              "triggerType": "TriggerNoRepeat",
              "born": {
                "$type": "IPPOJFGKJFD",
                "offset": {
                  "GOAPOLCAJBP": 0.0,
                  "FMOPCJGGFMH": -0.5,
                  "EJJEPFCDDAM": 4.0
                },
                "onGround": true,
                "CINDHKBGJMG": "_SP_MELEEATK_POS",
                "DLKPHEEBIKB": ""
              },
              "height": 3.0,
              "MFGGJCPPBGA": 2.5
            },
            "attackInfo": {
              "attackTag": "",
              "attenuationTag": "",
              "attenuationGroup": "default",
              "attackProperty": {
                "JMLMDDCBIAO": 1.0,
                "damagePercentageRatio": 0.0,
                "elementType": "Water",
                "elementDurability": 25.0,
                "strikeType": "Blunt",
                "enBreak": 101.0,
                "attackType": "Melee",
                "damagePercentage": 0.0
              },
              "hitPattern": {
                "onHitEffectName": "default",
                "hitImpulseY": "",
                "hitImpulseType": "LV5",
                "canBeDefenceHalt": true
              }
            }
          },
          "targetType": "Enemy"
        }
      ]
    }
  },
  {
    "Default": {
      "$type": "MoleMole.Config.GNKCLKNDOAK",
      "abilityName": "Monster_Necalevia_NormalMeleeAttackSP",
      "BFBDNNJCDLH": {
        "Monster_Necalevia_NormalMeleeAttackSP_1": {
          "modifierName": "",
          "duration": 0.30000001192092896,
          "elementDurability": 100.0,
          "OAOGLLGGJPD": [
            {
              "$type": "MoleMole.Config.FireEffect",
              "effectPattern": "Eff_Monster_Necalevia_Normal_NormalMeleeAttackExplode_Earth",
              "born": {
                "$type": "IPPOJFGKJFD",
                "offset": {
                  "GOAPOLCAJBP": 0.0,
                  "FMOPCJGGFMH": 0.0,
                  "EJJEPFCDDAM": 7.0
                },
                "onGround": true,
                "CINDHKBGJMG": "_SP_MELEEATK_POS",
                "DLKPHEEBIKB": ""
              },
              "effectTempleteID": -1.0
            },
            {
              "$type": "MoleMole.Config.TriggerAttackEvent",
              "doAfterDie": false,
              "attackEvent": {
                "attackPattern": {
                  "$type": "LGEKKELKDAN",
                  "triggerType": "TriggerNoRepeat",
                  "born": {
                    "$type": "IPPOJFGKJFD",
                    "offset": {
                      "GOAPOLCAJBP": 0.0,
                      "FMOPCJGGFMH": -0.5,
                      "EJJEPFCDDAM": 7.0
                    },
                    "onGround": true,
                    "CINDHKBGJMG": "_SP_MELEEATK_POS",
                    "DLKPHEEBIKB": ""
                  },
                  "height": 3.0,
                  "MFGGJCPPBGA": 2.5
                },
                "attackInfo": {
                  "attackTag": "",
                  "attenuationTag": "MeleeSPAtk",
                  "attenuationGroup": "Oceanid_Crab_WaterStream",
                  "attackProperty": {
                    "JMLMDDCBIAO": 1.0,
                    "damagePercentageRatio": 0.0,
                    "elementType": "Water",
                    "elementDurability": 25.0,
                    "strikeType": "Blunt",
                    "enBreak": 101.0,
                    "attackType": "Melee",
                    "damagePercentage": 0.0
                  },
                  "hitPattern": {
                    "onHitEffectName": "default",
                    "hitImpulseY": "",
                    "hitImpulseType": "LV5",
                    "canBeDefenceHalt": true
                  }
                }
              },
              "targetType": "Enemy"
            },
            {
              "$type": "MoleMole.Config.FireEffect",
              "effectPattern": "Eff_Monster_Necalevia_Normal_NormalMeleeAttackExplode_Earth",
              "born": {
                "$type": "IPPOJFGKJFD",
                "offset": {
                  "GOAPOLCAJBP": 4.0,
                  "FMOPCJGGFMH": 0.0,
                  "EJJEPFCDDAM": 8.5
                },
                "onGround": true,
                "CINDHKBGJMG": "_SP_MELEEATK_POS",
                "DLKPHEEBIKB": ""
              },
              "effectTempleteID": -1.0
            },
            {
              "$type": "MoleMole.Config.TriggerAttackEvent",
              "doAfterDie": false,
              "attackEvent": {
                "attackPattern": {
                  "$type": "LGEKKELKDAN",
                  "triggerType": "TriggerNoRepeat",
                  "born": {
                    "$type": "IPPOJFGKJFD",
                    "offset": {
                      "GOAPOLCAJBP": 4.0,
                      "FMOPCJGGFMH": -0.5,
                      "EJJEPFCDDAM": 8.5
                    },
                    "onGround": true,
                    "CINDHKBGJMG": "_SP_MELEEATK_POS",
                    "DLKPHEEBIKB": ""
                  },
                  "height": 3.0,
                  "MFGGJCPPBGA": 2.5
                },
                "attackInfo": {
                  "attackTag": "",
                  "attenuationTag": "MeleeSPAtk",
                  "attenuationGroup": "Oceanid_Crab_WaterStream",
                  "attackProperty": {
                    "JMLMDDCBIAO": 1.0,
                    "damagePercentageRatio": 0.0,
                    "elementType": "Water",
                    "elementDurability": 25.0,
                    "strikeType": "Blunt",
                    "enBreak": 101.0,
                    "attackType": "Melee",
                    "damagePercentage": 0.0
                  },
                  "hitPattern": {
                    "onHitEffectName": "default",
                    "hitImpulseY": "",
                    "hitImpulseType": "LV5",
                    "canBeDefenceHalt": true
                  }
                }
              },
              "targetType": "Enemy"
            },
            {
              "$type": "MoleMole.Config.FireEffect",
              "effectPattern": "Eff_Monster_Necalevia_Normal_NormalMeleeAttackExplode_Earth",
              "born": {
                "$type": "IPPOJFGKJFD",
                "offset": {
                  "GOAPOLCAJBP": -4.0,
                  "FMOPCJGGFMH": 0.0,
                  "EJJEPFCDDAM": 8.5
                },
                "onGround": true,
                "CINDHKBGJMG": "_SP_MELEEATK_POS",
                "DLKPHEEBIKB": ""
              },
              "effectTempleteID": -1.0
            },
            {
              "$type": "MoleMole.Config.TriggerAttackEvent",
              "doAfterDie": false,
              "attackEvent": {
                "attackPattern": {
                  "$type": "LGEKKELKDAN",
                  "triggerType": "TriggerNoRepeat",
                  "born": {
                    "$type": "IPPOJFGKJFD",
                    "offset": {
                      "GOAPOLCAJBP": -4.0,
                      "FMOPCJGGFMH": -0.5,
                      "EJJEPFCDDAM": 8.5
                    },
                    "onGround": true,
                    "CINDHKBGJMG": "_SP_MELEEATK_POS",
                    "DLKPHEEBIKB": ""
                  },
                  "height": 3.0,
                  "MFGGJCPPBGA": 2.5
                },
                "attackInfo": {
                  "attackTag": "",
                  "attenuationTag": "MeleeSPAtk",
                  "attenuationGroup": "Oceanid_Crab_WaterStream",
                  "attackProperty": {
                    "JMLMDDCBIAO": 1.0,
                    "damagePercentageRatio": 0.0,
                    "elementType": "Water",
                    "elementDurability": 25.0,
                    "strikeType": "Blunt",
                    "enBreak": 101.0,
                    "attackType": "Melee",
                    "damagePercentage": 0.0
                  },
                  "hitPattern": {
                    "onHitEffectName": "default",
                    "hitImpulseY": "",
                    "hitImpulseType": "LV5",
                    "canBeDefenceHalt": true
                  }
                }
              },
              "targetType": "Enemy"
            }
          ],
          "MINFJCDAIBB": [
            {
              "$type": "MoleMole.Config.ApplyModifier",
              "modifierName": "Monster_Necalevia_NormalMeleeAttackSP_2"
            }
          ]
        },
        "Monster_Necalevia_NormalMeleeAttackSP_2": {
          "modifierName": "",
          "duration": 0.30000001192092896,
          "elementDurability": 100.0,
          "OAOGLLGGJPD": [
            {
              "$type": "MoleMole.Config.FireEffect",
              "effectPattern": "Eff_Monster_Necalevia_Normal_NormalMeleeAttackExplode_Earth",
              "born": {
                "$type": "IPPOJFGKJFD",
                "offset": {
                  "GOAPOLCAJBP": 0.0,
                  "FMOPCJGGFMH": 0.0,
                  "EJJEPFCDDAM": 14.0
                },
                "onGround": true,
                "CINDHKBGJMG": "_SP_MELEEATK_POS",
                "DLKPHEEBIKB": ""
              },
              "effectTempleteID": -1.0
            },
            {
              "$type": "MoleMole.Config.TriggerAttackEvent",
              "doAfterDie": false,
              "attackEvent": {
                "attackPattern": {
                  "$type": "LGEKKELKDAN",
                  "triggerType": "TriggerNoRepeat",
                  "born": {
                    "$type": "IPPOJFGKJFD",
                    "offset": {
                      "GOAPOLCAJBP": 0.0,
                      "FMOPCJGGFMH": -0.5,
                      "EJJEPFCDDAM": 14.0
                    },
                    "onGround": true,
                    "CINDHKBGJMG": "_SP_MELEEATK_POS",
                    "DLKPHEEBIKB": ""
                  },
                  "height": 3.0,
                  "MFGGJCPPBGA": 2.5
                },
                "attackInfo": {
                  "attackTag": "",
                  "attenuationTag": "MeleeSPAtk",
                  "attenuationGroup": "Oceanid_Crab_WaterStream",
                  "attackProperty": {
                    "JMLMDDCBIAO": 1.0,
                    "damagePercentageRatio": 0.0,
                    "elementType": "Water",
                    "elementDurability": 25.0,
                    "strikeType": "Blunt",
                    "enBreak": 101.0,
                    "attackType": "Melee",
                    "damagePercentage": 0.0
                  },
                  "hitPattern": {
                    "onHitEffectName": "default",
                    "hitImpulseY": "",
                    "hitImpulseType": "LV5",
                    "canBeDefenceHalt": true
                  }
                }
              },
              "targetType": "Enemy"
            },
            {
              "$type": "MoleMole.Config.FireEffect",
              "effectPattern": "Eff_Monster_Necalevia_Normal_NormalMeleeAttackExplode_Earth",
              "born": {
                "$type": "IPPOJFGKJFD",
                "offset": {
                  "GOAPOLCAJBP": 6.0,
                  "FMOPCJGGFMH": 0.0,
                  "EJJEPFCDDAM": 12.0
                },
                "onGround": true,
                "CINDHKBGJMG": "_SP_MELEEATK_POS",
                "DLKPHEEBIKB": ""
              },
              "effectTempleteID": -1.0
            },
            {
              "$type": "MoleMole.Config.TriggerAttackEvent",
              "doAfterDie": false,
              "attackEvent": {
                "attackPattern": {
                  "$type": "LGEKKELKDAN",
                  "triggerType": "TriggerNoRepeat",
                  "born": {
                    "$type": "IPPOJFGKJFD",
                    "offset": {
                      "GOAPOLCAJBP": 6.0,
                      "FMOPCJGGFMH": -0.5,
                      "EJJEPFCDDAM": 12.0
                    },
                    "onGround": true,
                    "CINDHKBGJMG": "_SP_MELEEATK_POS",
                    "DLKPHEEBIKB": ""
                  },
                  "height": 3.0,
                  "MFGGJCPPBGA": 2.5
                },
                "attackInfo": {
                  "attackTag": "",
                  "attenuationTag": "MeleeSPAtk",
                  "attenuationGroup": "Oceanid_Crab_WaterStream",
                  "attackProperty": {
                    "JMLMDDCBIAO": 1.0,
                    "damagePercentageRatio": 0.0,
                    "elementType": "Water",
                    "elementDurability": 25.0,
                    "strikeType": "Blunt",
                    "enBreak": 101.0,
                    "attackType": "Melee",
                    "damagePercentage": 0.0
                  },
                  "hitPattern": {
                    "onHitEffectName": "default",
                    "hitImpulseY": "",
                    "hitImpulseType": "LV5",
                    "canBeDefenceHalt": true
                  }
                }
              },
              "targetType": "Enemy"
            },
            {
              "$type": "MoleMole.Config.FireEffect",
              "effectPattern": "Eff_Monster_Necalevia_Normal_NormalMeleeAttackExplode_Earth",
              "born": {
                "$type": "IPPOJFGKJFD",
                "offset": {
                  "GOAPOLCAJBP": -6.0,
                  "FMOPCJGGFMH": 0.0,
                  "EJJEPFCDDAM": 12.0
                },
                "onGround": true,
                "CINDHKBGJMG": "_SP_MELEEATK_POS",
                "DLKPHEEBIKB": ""
              },
              "effectTempleteID": -1.0
            },
            {
              "$type": "MoleMole.Config.TriggerAttackEvent",
              "doAfterDie": false,
              "attackEvent": {
                "attackPattern": {
                  "$type": "LGEKKELKDAN",
                  "triggerType": "TriggerNoRepeat",
                  "born": {
                    "$type": "IPPOJFGKJFD",
                    "offset": {
                      "GOAPOLCAJBP": -6.0,
                      "FMOPCJGGFMH": -0.5,
                      "EJJEPFCDDAM": 12.0
                    },
                    "onGround": true,
                    "CINDHKBGJMG": "_SP_MELEEATK_POS",
                    "DLKPHEEBIKB": ""
                  },
                  "height": 3.0,
                  "MFGGJCPPBGA": 2.5
                },
                "attackInfo": {
                  "attackTag": "",
                  "attenuationTag": "MeleeSPAtk",
                  "attenuationGroup": "Oceanid_Crab_WaterStream",
                  "attackProperty": {
                    "JMLMDDCBIAO": 1.0,
                    "damagePercentageRatio": 0.0,
                    "elementType": "Water",
                    "elementDurability": 25.0,
                    "strikeType": "Blunt",
                    "enBreak": 101.0,
                    "attackType": "Melee",
                    "damagePercentage": 0.0
                  },
                  "hitPattern": {
                    "onHitEffectName": "default",
                    "hitImpulseY": "",
                    "hitImpulseType": "LV5",
                    "canBeDefenceHalt": true
                  }
                }
              },
              "targetType": "Enemy"
            }
          ]
        }
      },
      "EIIHGJGFDHC": [
        {
          "$type": "MoleMole.Config.SetGlobalPos",
          "key": "_SP_MELEEATK_POS",
          "born": {
            "$type": "KPFCCIOJAMK",
            "useRotation": true
          }
        },
        {
          "$type": "MoleMole.Config.ApplyModifier",
          "modifierName": "Monster_Necalevia_NormalMeleeAttackSP_1"
        }
      ]
    }
  }
]