[
  {
    "Default": {
      "$type": "MoleMole.Config.GNKCLKNDOAK",
      "abilityName": "BoxMatch_Pole_CoreLogic",
      "PIDAPNFJNDF": [
        {
          "$type": "MoleMole.Config.AttachToPoseIDMixin",
          "LEPKMNMJJHJ": [
            101,
            102,
            801
          ],
          "modifierName": "Pole_Level_1"
        },
        {
          "$type": "MoleMole.Config.AttachToPoseIDMixin",
          "LEPKMNMJJHJ": [
            201,
            202
          ],
          "modifierName": "Pole_Level_2"
        },
        {
          "$type": "MoleMole.Config.AttachToPoseIDMixin",
          "LEPKMNMJJHJ": [
            301,
            302,
            901
          ],
          "modifierName": "Pole_Level_3"
        },
        {
          "$type": "MoleMole.Config.AttachModifierToSelfGlobalValueMixin",
          "globalValueKey": "GV_BoxMatch_StartBurst",
          "KADKJMOFOLI": 0.0,
          "FJEPHJNDEAI": [
            -0.5,
            0.5,
            1.5
          ],
          "IJEPHCMOAPE": [
            "Dummy",
            "StartBurst"
          ]
        }
      ],
      "BFBDNNJCDLH": {
        "Dummy": {
          "modifierName": "",
          "elementDurability": 100.0
        },
        "StartBurst": {
          "modifierName": "",
          "elementDurability": 100.0,
          "BNJENAIMDPL": 0.5,
          "OAOGLLGGJPD": [
            {
              "$type": "MoleMole.Config.SetAnimatorTrigger",
              "triggerID": "BurstImmediately"
            },
            {
              "$type": "MoleMole.Config.FireEffect",
              "effectPattern": "Eff_Monster_FungusFight_UnionBurstGlitter",
              "effectTempleteID": -1.0
            },
            {
              "$type": "MoleMole.Config.ServerLuaCall",
              "MECCMJIFJKG": "CurGalleryControlGroup",
              "ACMHGHCMOIF": "SLC_BoxMatch_ShowReminder",
              "EPFBIHBJPAH": 1,
              "param1": 5.0,
              "param2": 0.0,
              "GBOGNIOMAGM": 0.0
            }
          ],
          "PJKELBNICOI": [
            {
              "$type": "MoleMole.Config.SetGlobalValue",
              "value": 0.0,
              "key": "GV_BoxMatch_StartBurst",
              "maxValue": 0.0,
              "GCEOGBJIFCP": 0.0
            }
          ]
        },
        "Pole_Level_1": {
          "modifierName": "",
          "elementDurability": 100.0,
          "OAOGLLGGJPD": [
            {
              "$type": "MoleMole.Config.SetAnimatorBool",
              "KIAGMJMPHPG": "BombCombo"
            }
          ]
        },
        "Pole_Level_2": {
          "modifierName": "",
          "elementDurability": 100.0,
          "OAOGLLGGJPD": [
            {
              "$type": "MoleMole.Config.SetAnimatorBool",
              "KIAGMJMPHPG": "BombCombo",
              "value": true
            }
          ]
        },
        "Pole_Level_3": {
          "modifierName": "",
          "elementDurability": 100.0,
          "OAOGLLGGJPD": [
            {
              "$type": "MoleMole.Config.SetAnimatorBool",
              "KIAGMJMPHPG": "BombCombo",
              "value": true
            }
          ]
        }
      }
    }
  },
  {
    "Default": {
      "$type": "MoleMole.Config.GNKCLKNDOAK",
      "abilityName": "BoxMatch_Pole_Equip_Display_Manager",
      "PIDAPNFJNDF": [
        {
          "$type": "MoleMole.Config.AttachModifierToSelfGlobalValueMixin",
          "globalValueKey": "_SHEATH_WEAPON",
          "KADKJMOFOLI": 1.0,
          "FJEPHJNDEAI": [
            -0.5,
            0.5,
            1.5
          ],
          "IJEPHCMOAPE": [
            "BoxMatch_ShowWeapon",
            "BoxMatch_SheathWeapon"
          ]
        },
        {
          "$type": "MoleMole.Config.DoActionByAnimatorStateIDMixin",
          "stateIDs": [
            "ThrowBomb_BS",
            "ThrowBomb"
          ],
          "GEDBCEGNPPO": [
            {
              "$type": "MoleMole.Config.SetGlobalValue",
              "value": 1.0,
              "key": "_SHEATH_WEAPON",
              "maxValue": 0.0,
              "GCEOGBJIFCP": 0.0
            }
          ],
          "MJFJKAHGHDJ": ""
        },
        {
          "$type": "MoleMole.Config.DoActionByAnimatorStateIDMixin",
          "stateIDs": [
            "Standby"
          ],
          "GEDBCEGNPPO": [
            {
              "$type": "MoleMole.Config.SetGlobalValue",
              "predicates": [
                {
                  "$type": "IPGGGPIJONN",
                  "key": "_SHEATH_WEAPON",
                  "value": 1.0
                }
              ],
              "value": 0.0,
              "key": "_SHEATH_WEAPON",
              "maxValue": 0.0,
              "GCEOGBJIFCP": 0.0
            }
          ],
          "MJFJKAHGHDJ": ""
        }
      ],
      "BFBDNNJCDLH": {
        "BoxMatch_SheathWeapon": {
          "modifierName": "",
          "elementDurability": 100.0,
          "OAOGLLGGJPD": [
            {
              "$type": "MoleMole.Config.SetWeaponAttachPointRealName",
              "canBeHandledOnRecover": true,
              "IOAFFAMKLEN": "equip01",
              "AMGOJPFOKOP": "WeaponSheathPoint"
            }
          ],
          "MINFJCDAIBB": [
            {
              "$type": "MoleMole.Config.FireEffect",
              "otherTargets": {
                "$type": "MGJJNCBALEH",
                "FMFCEFEHDEA": [
                  "equip01"
                ]
              },
              "effectPattern": "Eff_Monster_Eremite_Weapon_Disappear",
              "effectTempleteID": -1.0
            }
          ],
          "PMDLJDGOIKO": [
            {
              "$type": "MoleMole.Config.SetWeaponAttachPointRealName",
              "IOAFFAMKLEN": "equip01",
              "AMGOJPFOKOP": "WeaponSheathPoint"
            }
          ],
          "MHBHKCIDGEP": [
            {
              "$type": "MoleMole.Config.SetWeaponAttachPointRealName",
              "IOAFFAMKLEN": "equip01",
              "AMGOJPFOKOP": "WeaponSheathPoint"
            }
          ]
        },
        "BoxMatch_ShowWeapon": {
          "modifierName": "",
          "elementDurability": 100.0,
          "OAOGLLGGJPD": [
            {
              "$type": "MoleMole.Config.SetWeaponAttachPointRealName",
              "IOAFFAMKLEN": "equip01",
              "AMGOJPFOKOP": ""
            }
          ],
          "MINFJCDAIBB": [
            {
              "$type": "MoleMole.Config.FireEffect",
              "otherTargets": {
                "$type": "MGJJNCBALEH",
                "FMFCEFEHDEA": [
                  "equip01"
                ]
              },
              "effectPattern": "Eff_Monster_Eremite_Weapon_Disappear",
              "effectTempleteID": -1.0
            }
          ]
        }
      },
      "EIIHGJGFDHC": [
        {
          "$type": "MoleMole.Config.SetGlobalValue",
          "value": 0.0,
          "key": "_SHEATH_WEAPON",
          "maxValue": 0.0,
          "GCEOGBJIFCP": 0.0
        }
      ]
    }
  },
  {
    "Default": {
      "$type": "MoleMole.Config.GNKCLKNDOAK",
      "abilityName": "BoxMatch_Equip_SheathWeapon",
      "EIIHGJGFDHC": [
        {
          "$type": "MoleMole.Config.SetGlobalValue",
          "value": 1.0,
          "key": "_SHEATH_WEAPON",
          "maxValue": 0.0,
          "GCEOGBJIFCP": 0.0
        }
      ]
    }
  },
  {
    "Default": {
      "$type": "MoleMole.Config.GNKCLKNDOAK",
      "abilityName": "BoxMatch_Distance_Calc",
      "EIIHGJGFDHC": [
        {
          "$type": "MoleMole.Config.Predicated",
          "MLDBFKEGPEF": "Target",
          "CKBKOCJPJMM": [
            {
              "$type": "BKCFCDOEENL",
              "MLDBFKEGPEF": "SelfAttackTarget",
              "value": 4.0,
              "EGBKHFGDFLF": ""
            }
          ],
          "successActions": [
            {
              "$type": "MoleMole.Config.SetAnimatorBool",
              "KIAGMJMPHPG": "TargetFar",
              "value": true
            }
          ],
          "failActions": [
            {
              "$type": "MoleMole.Config.SetAnimatorBool",
              "KIAGMJMPHPG": "TargetFar"
            }
          ]
        }
      ]
    }
  },
  {
    "Default": {
      "$type": "MoleMole.Config.GNKCLKNDOAK",
      "abilityName": "BoxMatch_IceBomb_Point_Accurate",
      "PIDAPNFJNDF": [
        {
          "$type": "MoleMole.Config.DoActionByAnimatorStateIDMixin",
          "stateIDs": [
            "ThrowBomb_BS",
            "ThrowBomb_Combo_BS"
          ],
          "GEDBCEGNPPO": [
            {
              "$type": "MoleMole.Config.FireEffect",
              "effectPattern": "Eff_Monster_BoxMatch_IceBomb_OnEnter",
              "effectTempleteID": -1.0
            }
          ],
          "MJFJKAHGHDJ": ""
        },
        {
          "$type": "MoleMole.Config.AttachToAnimatorStateIDMixin",
          "stateIDs": [
            "ThrowBomb_BS",
            "ThrowBomb_Combo_BS",
            "ThrowBomb",
            "ThrowBomb_Combo"
          ],
          "modifierName": "IceBomb_HandTrail",
          "MJFJKAHGHDJ": ""
        }
      ],
      "BFBDNNJCDLH": {
        "IceBomb_HandTrail": {
          "modifierName": "",
          "elementDurability": 100.0,
          "OAOGLLGGJPD": [
            {
              "$type": "MoleMole.Config.AttachEffect",
              "effectPattern": "Eff_Monster_BoxMatch_IceBomb_HandTrail",
              "effectTempleteID": -1.0
            }
          ]
        }
      },
      "EIIHGJGFDHC": [
        {
          "$type": "MoleMole.Config.Predicated",
          "CKBKOCJPJMM": [
            {
              "$type": "AJADEAOAHLH"
            }
          ],
          "successActions": [
            {
              "$type": "MoleMole.Config.CreateGadget",
              "MLDBFKEGPEF": "SelfAttackActiveTarget",
              "born": {
                "$type": "INKMBJGOPCK",
                "onGround": true,
                "useRotation": true
              },
              "gadgetID": 42501012
            }
          ],
          "failActions": [
            {
              "$type": "MoleMole.Config.CreateGadget",
              "born": {
                "$type": "KPFCCIOJAMK",
                "offset": {
                  "EJJEPFCDDAM": 6.0
                },
                "onGround": true,
                "useRotation": true
              },
              "gadgetID": 42501012
            }
          ]
        }
      ]
    }
  },
  {
    "Default": {
      "$type": "MoleMole.Config.GNKCLKNDOAK",
      "abilityName": "BoxMatch_IceBomb_BulletTarget",
      "BFBDNNJCDLH": {
        "Trigger_IceBomb": {
          "EODJPKICNGG": "Multiple",
          "modifierName": "",
          "duration": 0.10000000149011612,
          "elementDurability": 100.0,
          "OAOGLLGGJPD": [
            {
              "$type": "MoleMole.Config.FireEffect",
              "effectPattern": "Eff_Monster_BoxMatch_IceBomb_OnFire",
              "effectTempleteID": -1.0
            },
            {
              "$type": "MoleMole.Config.Predicated",
              "CKBKOCJPJMM": [
                {
                  "$type": "OFGMGHOHBJD",
                  "modifierName": "Pole_Level_3"
                }
              ],
              "successActions": [
                {
                  "$type": "MoleMole.Config.TriggerBullet",
                  "MLDBFKEGPEF": "Applier",
                  "DCNFGAGBCMP": 42501014,
                  "born": {
                    "$type": "JEDNAGFKIDP",
                    "direction": {
                      "$type": "KODKPEPMJJL",
                      "useCorrectDir": true,
                      "namedTransform": ""
                    },
                    "useRotation": true,
                    "OBNIJLKICKN": "WeaponR",
                    "KLLPFNDMLHO": "Self"
                  },
                  "DGEKFHHECPG": "Applier"
                }
              ],
              "failActions": [
                {
                  "$type": "MoleMole.Config.TriggerBullet",
                  "MLDBFKEGPEF": "Applier",
                  "DCNFGAGBCMP": 42501013,
                  "born": {
                    "$type": "JEDNAGFKIDP",
                    "direction": {
                      "$type": "KODKPEPMJJL",
                      "useCorrectDir": true,
                      "namedTransform": ""
                    },
                    "useRotation": true,
                    "OBNIJLKICKN": "WeaponR",
                    "KLLPFNDMLHO": "Self"
                  },
                  "DGEKFHHECPG": "Applier"
                }
              ]
            }
          ]
        }
      },
      "OAOGLLGGJPD": [
        {
          "$type": "MoleMole.Config.ApplyModifier",
          "MLDBFKEGPEF": "Owner",
          "modifierName": "Trigger_IceBomb"
        }
      ]
    }
  },
  {
    "Default": {
      "$type": "MoleMole.Config.GNKCLKNDOAK",
      "abilityName": "BoxMatch_IceBomb_Bullet",
      "BFBDNNJCDLH": {
        "IceBomb_VFX": {
          "modifierName": "",
          "elementType": "Ice",
          "elementDurability": 25.0,
          "isElementDurabilityMutable": false,
          "OAOGLLGGJPD": [
            {
              "$type": "MoleMole.Config.AttachEffect",
              "effectPattern": "Eff_Monster_Thoarder_Bomb_Ice_01_Bullet",
              "effectTempleteID": -1.0
            },
            {
              "$type": "MoleMole.Config.AttachEffect",
              "effectPattern": "Eff_Monster_Thoarder_Bomb_Ice_01_Bullet_Trail",
              "effectTempleteID": -1.0
            }
          ]
        }
      },
      "OAOGLLGGJPD": [
        {
          "$type": "MoleMole.Config.AttachModifier",
          "modifierName": "IceBomb_VFX"
        }
      ],
      "EIIHGJGFDHC": [
        {
          "$type": "MoleMole.Config.RemoveModifier",
          "modifierName": "IceBomb_VFX"
        },
        {
          "$type": "MoleMole.Config.FireEffect",
          "effectPattern": "Eff_Monster_BoxMatch_Bomb_Ice_01_Explode",
          "born": {
            "$type": "KPFCCIOJAMK",
            "useRotation": true
          },
          "effectTempleteID": -1.0
        },
        {
          "$type": "MoleMole.Config.TriggerAttackEvent",
          "attackEvent": {
            "attackPattern": {
              "$type": "IJCIPLFIDAK",
              "triggerType": "TriggerNoRepeat",
              "born": {
                "$type": "KPFCCIOJAMK",
                "onGround": true,
                "useRotation": true
              },
              "MFGGJCPPBGA": 1.7999999523162842
            },
            "attackInfo": {
              "attackTag": "",
              "attenuationTag": "",
              "attenuationGroup": "default",
              "attackProperty": {
                "JMLMDDCBIAO": 1.5,
                "damagePercentageRatio": 0.0,
                "elementType": "Ice",
                "elementDurability": 50.0,
                "strikeType": "Default",
                "enBreak": 100.0,
                "attackType": "Range",
                "damagePercentage": 0.0
              },
              "hitPattern": {
                "onHitEffectName": "default",
                "hitImpulseY": "",
                "hitImpulseType": "LV3"
              }
            }
          },
          "targetType": "Enemy"
        }
      ]
    }
  },
  {
    "Default": {
      "$type": "MoleMole.Config.GNKCLKNDOAK",
      "abilityName": "BoxMatch_IceBomb_Bullet_WithArkhe",
      "BFBDNNJCDLH": {
        "IceBomb_VFX": {
          "modifierName": "",
          "elementType": "Ice",
          "elementDurability": 25.0,
          "isElementDurabilityMutable": false,
          "OAOGLLGGJPD": [
            {
              "$type": "MoleMole.Config.AttachEffect",
              "effectPattern": "Eff_Monster_Thoarder_Bomb_Ice_01_Bullet",
              "effectTempleteID": -1.0
            },
            {
              "$type": "MoleMole.Config.AttachEffect",
              "effectPattern": "Eff_Monster_BoxMatch_Bomb_Ice_01_Bullet_Pneuma_Trail",
              "effectTempleteID": -1.0
            }
          ]
        }
      },
      "OAOGLLGGJPD": [
        {
          "$type": "MoleMole.Config.AttachModifier",
          "modifierName": "IceBomb_VFX"
        }
      ],
      "EIIHGJGFDHC": [
        {
          "$type": "MoleMole.Config.RemoveModifier",
          "modifierName": "IceBomb_VFX"
        },
        {
          "$type": "MoleMole.Config.FireEffect",
          "effectPattern": "Eff_Monster_BoxMatch_Bomb_Ice_01_Explode_Pneuma",
          "born": {
            "$type": "KPFCCIOJAMK",
            "onGround": true,
            "useRotation": true
          },
          "effectTempleteID": -1.0
        },
        {
          "$type": "MoleMole.Config.TriggerAttackEvent",
          "attackEvent": {
            "attackPattern": {
              "$type": "IJCIPLFIDAK",
              "triggerType": "TriggerNoRepeat",
              "born": {
                "$type": "KPFCCIOJAMK",
                "useRotation": true
              },
              "MFGGJCPPBGA": 1.7999999523162842
            },
            "attackInfo": {
              "attackTag": "",
              "attenuationTag": "",
              "attenuationGroup": "default",
              "attackProperty": {
                "JMLMDDCBIAO": 1.5,
                "damagePercentageRatio": 0.0,
                "elementType": "Ice",
                "elementDurability": 50.0,
                "strikeType": "Default",
                "enBreak": 100.0,
                "attackType": "Range",
                "damagePercentage": -1.0
              },
              "hitPattern": {
                "onHitEffectName": "default",
                "hitImpulseY": "",
                "hitImpulseType": "LV3"
              }
            }
          },
          "targetType": "Enemy"
        }
      ]
    }
  },
  {
    "Default": {
      "$type": "MoleMole.Config.GNKCLKNDOAK",
      "abilityName": "BoxMatch_Pole_AttackSteer",
      "PIDAPNFJNDF": [
        {
          "$type": "MoleMole.Config.SteerAttackMixin",
          "BAJBFPAEMHB": [
            "NormalAttack_Attack02"
          ],
          "startNormalizedTime": 0.15000000596046448,
          "endNormalizedTime": 0.3400000035762787,
          "angularSpeed": 150.0,
          "GMIILFMLLJI": "",
          "PPHPMIPFICK": true,
          "MJFJKAHGHDJ": ""
        },
        {
          "$type": "MoleMole.Config.SteerAttackMixin",
          "BAJBFPAEMHB": [
            "NormalAttack_Combo01"
          ],
          "endNormalizedTime": 0.25,
          "angularSpeed": 75.0,
          "GMIILFMLLJI": "",
          "PPHPMIPFICK": true,
          "MJFJKAHGHDJ": ""
        },
        {
          "$type": "MoleMole.Config.SteerAttackMixin",
          "BAJBFPAEMHB": [
            "NormalAttack_Combo01"
          ],
          "startNormalizedTime": 0.25,
          "endNormalizedTime": 0.3700000047683716,
          "angularSpeed": 340.0,
          "GMIILFMLLJI": "",
          "PPHPMIPFICK": true,
          "MJFJKAHGHDJ": ""
        },
        {
          "$type": "MoleMole.Config.SteerAttackMixin",
          "BAJBFPAEMHB": [
            "NormalAttack_Combo01"
          ],
          "startNormalizedTime": 0.38999998569488525,
          "endNormalizedTime": 0.699999988079071,
          "angularSpeed": 75.0,
          "GMIILFMLLJI": "",
          "PPHPMIPFICK": true,
          "MJFJKAHGHDJ": ""
        },
        {
          "$type": "MoleMole.Config.SteerAttackMixin",
          "BAJBFPAEMHB": [
            "NormalAttack_Combo02"
          ],
          "startNormalizedTime": 0.14000000059604645,
          "endNormalizedTime": 0.25,
          "angularSpeed": 120.0,
          "GMIILFMLLJI": "",
          "PPHPMIPFICK": true,
          "MJFJKAHGHDJ": ""
        },
        {
          "$type": "MoleMole.Config.SteerAttackMixin",
          "BAJBFPAEMHB": [
            "NormalAttack_Combo02"
          ],
          "startNormalizedTime": 0.33000001311302185,
          "endNormalizedTime": 0.3700000047683716,
          "angularSpeed": 400.0,
          "GMIILFMLLJI": "",
          "PPHPMIPFICK": true,
          "MJFJKAHGHDJ": ""
        },
        {
          "$type": "MoleMole.Config.SteerAttackMixin",
          "BAJBFPAEMHB": [
            "NormalAttack_Combo02"
          ],
          "startNormalizedTime": 0.4399999976158142,
          "endNormalizedTime": 0.47999998927116394,
          "angularSpeed": 400.0,
          "GMIILFMLLJI": "",
          "PPHPMIPFICK": true,
          "MJFJKAHGHDJ": ""
        },
        {
          "$type": "MoleMole.Config.SteerAttackMixin",
          "BAJBFPAEMHB": [
            "NormalAttack_Combo02"
          ],
          "startNormalizedTime": 0.7680000066757202,
          "endNormalizedTime": 0.8299999833106995,
          "angularSpeed": 75.0,
          "GMIILFMLLJI": "",
          "PPHPMIPFICK": true,
          "MJFJKAHGHDJ": ""
        },
        {
          "$type": "MoleMole.Config.SteerAttackMixin",
          "BAJBFPAEMHB": [
            "NormalAttack_Rush_Transition"
          ],
          "angularSpeed": 400.0,
          "GMIILFMLLJI": "",
          "PPHPMIPFICK": true,
          "MJFJKAHGHDJ": ""
        },
        {
          "$type": "MoleMole.Config.SteerAttackMixin",
          "BAJBFPAEMHB": [
            "ThrowBomb"
          ],
          "angularSpeed": 180.0,
          "GMIILFMLLJI": "",
          "PPHPMIPFICK": true,
          "MJFJKAHGHDJ": ""
        }
      ]
    }
  },
  {
    "Default": {
      "$type": "MoleMole.Config.GNKCLKNDOAK",
      "abilityName": "BoxMatch_NoWeapon_AttackSteer",
      "PIDAPNFJNDF": [
        {
          "$type": "MoleMole.Config.SteerAttackMixin",
          "BAJBFPAEMHB": [
            "NormalAttack"
          ],
          "angularSpeed": 90.0,
          "GMIILFMLLJI": "",
          "PPHPMIPFICK": true,
          "MJFJKAHGHDJ": ""
        },
        {
          "$type": "MoleMole.Config.SteerAttackMixin",
          "BAJBFPAEMHB": [
            "BirdieKick"
          ],
          "angularSpeed": 90.0,
          "GMIILFMLLJI": "",
          "PPHPMIPFICK": true,
          "MJFJKAHGHDJ": ""
        },
        {
          "$type": "MoleMole.Config.SteerAttackMixin",
          "BAJBFPAEMHB": [
            "ThrowBomb"
          ],
          "angularSpeed": 180.0,
          "GMIILFMLLJI": "",
          "PPHPMIPFICK": true,
          "MJFJKAHGHDJ": ""
        }
      ]
    }
  },
  {
    "Default": {
      "$type": "MoleMole.Config.GNKCLKNDOAK",
      "abilityName": "BoxMatch_MascleMan_NoWeapon_ElementalWeak",
      "PIDAPNFJNDF": [
        {
          "$type": "MoleMole.Config.AttachToAnimatorStateIDMixin",
          "stateIDs": [
            "UltStrike_Charge"
          ],
          "modifierName": "ElementWeak_Monitor",
          "MJFJKAHGHDJ": ""
        }
      ],
      "BFBDNNJCDLH": {
        "EndureState": {
          "modifierName": "",
          "elementDurability": 100.0,
          "EPKCPIKGJOJ": {
            "Actor_EndureDelta": 0.0010000000474974513
          }
        },
        "ElementWeak_Monitor": {
          "modifierName": "",
          "elementDurability": 100.0,
          "onBeingHit": [
            {
              "$type": "MoleMole.Config.Predicated",
              "CKBKOCJPJMM": [
                {
                  "$type": "OFEHCLIGCND",
                  "predicates": [
                    {
                      "$type": "MIPKJILPPCP"
                    }
                  ]
                }
              ],
              "successActions": [
                {
                  "$type": "MoleMole.Config.SetAnimatorTrigger",
                  "triggerID": "Break",
                  "HLKBAOMMIGG": true
                },
                {
                  "$type": "MoleMole.Config.Predicated",
                  "CKBKOCJPJMM": [
                    {
                      "$type": "IPGGGPIJONN",
                      "MLDBFKEGPEF": "Self",
                      "key": "_IS_IN_BOX_MATCH",
                      "value": 1.0
                    }
                  ],
                  "successActions": [
                    {
                      "$type": "MoleMole.Config.ServerLuaCall",
                      "predicates": [
                        {
                          "$type": "MIPKJILPPCP",
                          "NJPOIJLMAFI": "Fire"
                        }
                      ],
                      "MECCMJIFJKG": "CurGalleryControlGroup",
                      "ACMHGHCMOIF": "SLC_BoxMatch_ShowReminder",
                      "EPFBIHBJPAH": 1,
                      "param1": 10.0,
                      "param2": 0.0,
                      "GBOGNIOMAGM": 0.0
                    },
                    {
                      "$type": "MoleMole.Config.ServerLuaCall",
                      "predicates": [
                        {
                          "$type": "MIPKJILPPCP",
                          "NJPOIJLMAFI": "Ice"
                        }
                      ],
                      "MECCMJIFJKG": "CurGalleryControlGroup",
                      "ACMHGHCMOIF": "SLC_BoxMatch_ShowReminder",
                      "EPFBIHBJPAH": 1,
                      "param1": 11.0,
                      "param2": 0.0,
                      "GBOGNIOMAGM": 0.0
                    },
                    {
                      "$type": "MoleMole.Config.TriggerAudio",
                      "DEGBIGJECEC": {
                        "$type": "HHIKBIFANNO",
                        "DEGBIGJECEC": {
                          "text": "Play_ui_activity_BoxMatch_InLevel_Jubilate"
                        }
                      }
                    }
                  ]
                }
              ]
            }
          ]
        }
      },
      "OAOGLLGGJPD": [
        {
          "$type": "MoleMole.Config.ApplyModifier",
          "modifierName": "EndureState"
        }
      ]
    }
  },
  {
    "Default": {
      "$type": "MoleMole.Config.GNKCLKNDOAK",
      "abilityName": "BoxMatch_Common_Crit",
      "BFBDNNJCDLH": {
        "BoxMatch_Crit_100": {
          "modifierName": "",
          "elementDurability": 100.0,
          "EPKCPIKGJOJ": {
            "Actor_CriticalDelta": 1.0
          }
        }
      },
      "OAOGLLGGJPD": [
        {
          "$type": "MoleMole.Config.ApplyModifier",
          "modifierName": "BoxMatch_Crit_100"
        }
      ]
    }
  },
  {
    "Default": {
      "$type": "MoleMole.Config.GNKCLKNDOAK",
      "abilityName": "BoxMatch_ForQuest_LockPosition",
      "PIDAPNFJNDF": [
        {
          "$type": "MoleMole.Config.AttachToPoseIDMixin",
          "LEPKMNMJJHJ": [
            801,
            901
          ],
          "modifierName": "FreezeRigidBody"
        }
      ],
      "BFBDNNJCDLH": {
        "FreezeRigidBody": {
          "modifierName": "",
          "elementDurability": 100.0,
          "JPIFFPJJEMK": [
            {
              "$type": "MoleMole.Config.RigidBodyFreezeMixin"
            }
          ]
        }
      }
    }
  }
]