[
  {
    "Default": {
      "$type": "MoleMole.Config.GNKCLKNDOAK",
      "abilityName": "Monster_Eremite_Female_Standard_Dancer_StreeController",
      "PIDAPNFJNDF": [
        {
          "$type": "MoleMole.Config.SteerAttackMixin",
          "BAJBFPAEMHB": [
            "Turn"
          ],
          "angularSpeed": 150.0,
          "GMIILFMLLJI": "",
          "LFCDKEDGFFG": 2.0,
          "MJFJKAHGHDJ": ""
        },
        {
          "$type": "MoleMole.Config.SteerAttackMixin",
          "BAJBFPAEMHB": [
            "MeleeAttack01"
          ],
          "angularSpeed": 90.0,
          "GMIILFMLLJI": "",
          "LFCDKEDGFFG": 2.0,
          "MJFJKAHGHDJ": ""
        },
        {
          "$type": "MoleMole.Config.SteerAttackMixin",
          "BAJBFPAEMHB": [
            "RangeAttack01"
          ],
          "endNormalizedTime": 0.3700000047683716,
          "angularSpeed": 150.0,
          "GMIILFMLLJI": "",
          "LFCDKEDGFFG": 2.0,
          "MJFJKAHGHDJ": ""
        },
        {
          "$type": "MoleMole.Config.SteerAttackMixin",
          "BAJBFPAEMHB": [
            "RangeAttack01"
          ],
          "startNormalizedTime": 0.699999988079071,
          "angularSpeed": 150.0,
          "GMIILFMLLJI": "",
          "LFCDKEDGFFG": 2.0,
          "MJFJKAHGHDJ": ""
        },
        {
          "$type": "MoleMole.Config.SteerAttackMixin",
          "BAJBFPAEMHB": [
            "Blink_RangeAttack01"
          ],
          "endNormalizedTime": 0.3700000047683716,
          "angularSpeed": 150.0,
          "GMIILFMLLJI": "",
          "LFCDKEDGFFG": 2.0,
          "MJFJKAHGHDJ": ""
        },
        {
          "$type": "MoleMole.Config.SteerAttackMixin",
          "BAJBFPAEMHB": [
            "Blink_RangeAttack01"
          ],
          "startNormalizedTime": 0.699999988079071,
          "angularSpeed": 150.0,
          "GMIILFMLLJI": "",
          "LFCDKEDGFFG": 2.0,
          "MJFJKAHGHDJ": ""
        },
        {
          "$type": "MoleMole.Config.SteerAttackMixin",
          "BAJBFPAEMHB": [
            "NormalAttack01"
          ],
          "endNormalizedTime": 0.10000000149011612,
          "angularSpeed": 180.0,
          "GMIILFMLLJI": "",
          "LFCDKEDGFFG": 2.0,
          "MJFJKAHGHDJ": ""
        },
        {
          "$type": "MoleMole.Config.SteerAttackMixin",
          "BAJBFPAEMHB": [
            "NormalAttack01"
          ],
          "startNormalizedTime": 0.20000000298023224,
          "endNormalizedTime": 0.30000001192092896,
          "angularSpeed": 180.0,
          "GMIILFMLLJI": "",
          "LFCDKEDGFFG": 2.0,
          "MJFJKAHGHDJ": ""
        },
        {
          "$type": "MoleMole.Config.SteerAttackMixin",
          "BAJBFPAEMHB": [
            "NormalAttack01"
          ],
          "startNormalizedTime": 0.4399999976158142,
          "endNormalizedTime": 0.5699999928474426,
          "angularSpeed": 180.0,
          "GMIILFMLLJI": "",
          "LFCDKEDGFFG": 2.0,
          "MJFJKAHGHDJ": ""
        },
        {
          "$type": "MoleMole.Config.SteerAttackMixin",
          "BAJBFPAEMHB": [
            "NormalAttack01_01"
          ],
          "endNormalizedTime": 0.800000011920929,
          "angularSpeed": 125.0,
          "GMIILFMLLJI": "",
          "LFCDKEDGFFG": 2.0,
          "MJFJKAHGHDJ": ""
        },
        {
          "$type": "MoleMole.Config.SteerAttackMixin",
          "BAJBFPAEMHB": [
            "NormalAttack01_02"
          ],
          "endNormalizedTime": 0.10000000149011612,
          "angularSpeed": 125.0,
          "GMIILFMLLJI": "",
          "LFCDKEDGFFG": 2.0,
          "MJFJKAHGHDJ": ""
        },
        {
          "$type": "MoleMole.Config.SteerAttackMixin",
          "BAJBFPAEMHB": [
            "Blink"
          ],
          "angularSpeed": 180.0,
          "GMIILFMLLJI": "",
          "LFCDKEDGFFG": 2.0,
          "MJFJKAHGHDJ": ""
        },
        {
          "$type": "MoleMole.Config.SteerAttackMixin",
          "BAJBFPAEMHB": [
            "Improve_Blink"
          ],
          "angularSpeed": 180.0,
          "GMIILFMLLJI": "",
          "LFCDKEDGFFG": 2.0,
          "MJFJKAHGHDJ": ""
        },
        {
          "$type": "MoleMole.Config.SteerAttackMixin",
          "BAJBFPAEMHB": [
            "BlinkAttack_BS"
          ],
          "angularSpeed": 180.0,
          "GMIILFMLLJI": "",
          "LFCDKEDGFFG": 2.0,
          "MJFJKAHGHDJ": ""
        },
        {
          "$type": "MoleMole.Config.SteerAttackMixin",
          "BAJBFPAEMHB": [
            "ComboAttack01"
          ],
          "endNormalizedTime": 0.20000000298023224,
          "angularSpeed": 180.0,
          "GMIILFMLLJI": "",
          "LFCDKEDGFFG": 2.0,
          "MJFJKAHGHDJ": ""
        }
      ]
    }
  },
  {
    "Default": {
      "$type": "MoleMole.Config.GNKCLKNDOAK",
      "abilityName": "Monster_Eremite_Female_Standard_Dancer_FightControl",
      "PIDAPNFJNDF": [
        {
          "$type": "MoleMole.Config.AttachToPoseIDMixin",
          "LEPKMNMJJHJ": [
            1,
            2,
            901,
            902,
            903
          ],
          "modifierName": "Eremite_OutFightState"
        },
        {
          "$type": "MoleMole.Config.AttachToPoseIDMixin",
          "LEPKMNMJJHJ": [
            101,
            102,
            111,
            201,
            301
          ],
          "modifierName": "Eremite_InFightState"
        }
      ],
      "BFBDNNJCDLH": {
        "Eremite_OutFightState": {
          "modifierName": "",
          "elementDurability": 100.0,
          "OAOGLLGGJPD": [
            {
              "$type": "MoleMole.Config.AddGlobalValue",
              "value": -10.0,
              "key": "_MONSTER_EREMITE_ISINFIGHT_",
              "HPICGAMGEGA": true,
              "maxValue": 1.0,
              "GCEOGBJIFCP": 0.0
            },
            {
              "$type": "MoleMole.Config.RemoveModifier",
              "modifierName": "Eremite_InFightState"
            }
          ]
        },
        "Eremite_InFightState": {
          "modifierName": "",
          "elementDurability": 100.0,
          "OAOGLLGGJPD": [
            {
              "$type": "MoleMole.Config.AddGlobalValue",
              "value": 10.0,
              "key": "_MONSTER_EREMITE_ISINFIGHT_",
              "HPICGAMGEGA": true,
              "maxValue": 1.0,
              "GCEOGBJIFCP": 0.0
            },
            {
              "$type": "MoleMole.Config.RemoveModifier",
              "modifierName": "Eremite_OutFightState"
            }
          ]
        }
      },
      "OAOGLLGGJPD": [
        {
          "$type": "MoleMole.Config.SetGlobalValue",
          "value": 0.0,
          "key": "_MONSTER_EREMITE_IMPROVED_",
          "HPICGAMGEGA": true,
          "maxValue": 1.0,
          "GCEOGBJIFCP": 0.0
        },
        {
          "$type": "MoleMole.Config.SetGlobalValue",
          "value": 0.0,
          "key": "_EREMITE_WEAK_TIMES_",
          "HPICGAMGEGA": true,
          "maxValue": 100.0,
          "GCEOGBJIFCP": 0.0
        },
        {
          "$type": "MoleMole.Config.SetGlobalValue",
          "value": 0.0,
          "key": "_MONSTER_EREMITE_OUTIMPROVED",
          "HPICGAMGEGA": true,
          "maxValue": 1.0,
          "GCEOGBJIFCP": 0.0
        },
        {
          "$type": "MoleMole.Config.SetGlobalValue",
          "value": 0.0,
          "key": "_MONSTER_EREMITE_IMPROVED_COUNT_",
          "HPICGAMGEGA": true,
          "maxValue": 99.0,
          "GCEOGBJIFCP": 0.0
        },
        {
          "$type": "MoleMole.Config.SetGlobalValue",
          "value": 0.0,
          "key": "_MONSTER_EREMITE_ISINFIGHT_",
          "HPICGAMGEGA": true,
          "maxValue": 1.0,
          "GCEOGBJIFCP": 0.0
        },
        {
          "$type": "MoleMole.Config.SetGlobalValue",
          "value": 0.0,
          "key": "_MONSTER_EREMITE_WEAK_",
          "HPICGAMGEGA": true,
          "maxValue": 1.0,
          "GCEOGBJIFCP": 0.0
        },
        {
          "$type": "MoleMole.Config.SetGlobalValue",
          "value": 0.0,
          "key": "_MONSTER_EREMITE_RETURNTOBORN_",
          "HPICGAMGEGA": true,
          "maxValue": 1.0,
          "GCEOGBJIFCP": 0.0
        }
      ]
    }
  },
  {
    "Default": {
      "$type": "MoleMole.Config.GNKCLKNDOAK",
      "abilityName": "Monster_Eremite_Female_Standard_Dancer_Alert",
      "EIIHGJGFDHC": [
        {
          "$type": "MoleMole.Config.SetPoseInt",
          "intID": "FreePoseMark"
        }
      ]
    }
  },
  {
    "Default": {
      "$type": "MoleMole.Config.GNKCLKNDOAK",
      "abilityName": "Monster_Eremite_Female_Standard_Dancer_Improve",
      "PIDAPNFJNDF": [
        {
          "$type": "MoleMole.Config.AttachModifierToSelfGlobalValueMixin",
          "globalValueKey": "_MONSTER_EREMITE_IMPROVED_",
          "KADKJMOFOLI": 0.0,
          "FJEPHJNDEAI": [
            -0.5,
            0.5,
            1.5
          ],
          "IJEPHCMOAPE": [
            "Eremite_NormalState",
            "Eremite_ImproveState"
          ]
        },
        {
          "$type": "MoleMole.Config.AttachModifierToSelfGlobalValueMixin",
          "globalValueKey": "_MONSTER_EREMITE_WEAK_",
          "KADKJMOFOLI": 0.0,
          "FJEPHJNDEAI": [
            -0.5,
            0.5,
            1.5
          ],
          "IJEPHCMOAPE": [
            "Eremite_IsNotWeak",
            "Eremite_IsWeak"
          ]
        },
        {
          "$type": "MoleMole.Config.AttachModifierToSelfGlobalValueMixin",
          "globalValueKey": "_EREMITE_SLAVE_DIE_",
          "KADKJMOFOLI": 0.0,
          "FJEPHJNDEAI": [
            -0.5,
            0.5,
            1.5
          ],
          "IJEPHCMOAPE": [
            "Empty",
            "Eremite_RemoveImprove"
          ]
        },
        {
          "$type": "MoleMole.Config.AttachModifierToSelfGlobalValueMixin",
          "globalValueKey": "_MONSTER_EREMITE_OUTIMPROVED",
          "KADKJMOFOLI": 0.0,
          "FJEPHJNDEAI": [
            -0.5,
            0.5,
            1.5
          ],
          "IJEPHCMOAPE": [
            "Eremite_ISNotOutImproved",
            "Eremite_IsOutImproved"
          ]
        },
        {
          "$type": "MoleMole.Config.AttachModifierToSelfGlobalValueMixin",
          "globalValueKey": "_MONSTER_EREMITE_HP_PERCENT_",
          "KADKJMOFOLI": 0.0,
          "FJEPHJNDEAI": [
            -1.0,
            0.10000000149011612,
            1.0
          ],
          "IJEPHCMOAPE": [
            "Eremite_NormalState_Handle",
            "Eremite_EliteState_Handle"
          ]
        },
        {
          "$type": "MoleMole.Config.AttachToPoseIDMixin",
          "LEPKMNMJJHJ": [
            111,
            201
          ],
          "modifierName": "Improve_AddEndure"
        },
        {
          "$type": "MoleMole.Config.DoActionByStateIDMixin",
          "stateIDs": [
            "Die",
            "Die_RagDoll"
          ],
          "GEDBCEGNPPO": [
            {
              "$type": "MoleMole.Config.RemoveUniqueModifier",
              "modifierName": "UNIQUE_Monster_Eremite_Female_Standard_Dancer_Improve_LoopEffect"
            }
          ],
          "MJFJKAHGHDJ": ""
        },
        {
          "$type": "MoleMole.Config.AttachToPoseIDMixin",
          "LEPKMNMJJHJ": [
            102
          ],
          "modifierName": "WeakEnd_AddEndureHandle"
        }
      ],
      "LLLCANIGIOE": {
        "hppercent": 0.0
      },
      "BFBDNNJCDLH": {
        "Eremite_NormalState_Handle": {
          "modifierName": "",
          "elementDurability": 100.0,
          "JPIFFPJJEMK": [
            {
              "$type": "MoleMole.Config.AttachModifierToHPPercentMixin",
              "FJEPHJNDEAI": [
                0.699999988079071
              ],
              "IJEPHCMOAPE": [
                "Empty",
                "UNIQUE_Eremite_Dancer_Force_ImproveState"
              ]
            }
          ]
        },
        "Eremite_EliteState_Handle": {
          "modifierName": "",
          "elementDurability": 100.0,
          "JPIFFPJJEMK": [
            {
              "$type": "MoleMole.Config.DoActionByPoseIDMixin",
              "LEPKMNMJJHJ": [
                1,
                2,
                9001
              ],
              "GEDBCEGNPPO": [
                {
                  "$type": "MoleMole.Config.ApplyModifier",
                  "predicates": [
                    {
                      "$type": "IPGGGPIJONN",
                      "MLDBFKEGPEF": "Self",
                      "key": "_MONSTER_EREMITE_HP_PERCENT_",
                      "value": 0.0,
                      "compareType": "MoreThan"
                    }
                  ],
                  "modifierName": "UNIQUE_Eremite_Dancer_Force_ImproveState"
                }
              ]
            }
          ],
          "OAOGLLGGJPD": [
            {
              "$type": "MoleMole.Config.ApplyModifier",
              "modifierName": "UNIQUE_Eremite_Dancer_Force_ImproveState"
            }
          ]
        },
        "Improve_AddEndure": {
          "modifierName": "",
          "elementDurability": 100.0,
          "EPKCPIKGJOJ": {
            "Actor_EndureDelta": 0.0,
            "Entity_WeightRatio": 5.0
          }
        },
        "Empty": {
          "modifierName": "",
          "elementDurability": 100.0
        },
        "Eremite_RemoveImprove": {
          "modifierName": "",
          "elementDurability": 100.0,
          "OAOGLLGGJPD": [
            {
              "$type": "MoleMole.Config.RemoveUniqueModifier",
              "modifierName": "UNIQUE_Eremite_Dancer_ImproveState_Properties"
            }
          ]
        },
        "UNIQUE_Eremite_Dancer_Force_ImproveState": {
          "EODJPKICNGG": "Unique",
          "modifierName": "",
          "LLIJGLMEHFK": true,
          "elementDurability": 100.0,
          "OAOGLLGGJPD": [
            {
              "$type": "MoleMole.Config.SetPoseBool",
              "canBeHandledOnRecover": true,
              "predicates": [
                {
                  "$type": "IPGGGPIJONN",
                  "MLDBFKEGPEF": "Self",
                  "key": "_MONSTER_EREMITE_IMPROVED_COUNT_",
                  "value": 0.0,
                  "compareType": "NoneOrEqual"
                }
              ],
              "KIAGMJMPHPG": "ForceImprove",
              "value": true
            },
            {
              "$type": "MoleMole.Config.SetAISkillCDAvailableNow",
              "NICABCMPFMM": [
                401
              ]
            }
          ],
          "MINFJCDAIBB": [
            {
              "$type": "MoleMole.Config.SetPoseBool",
              "KIAGMJMPHPG": "ForceImprove"
            }
          ]
        },
        "Eremite_NormalState": {
          "modifierName": "",
          "elementDurability": 100.0,
          "OAOGLLGGJPD": [
            {
              "$type": "MoleMole.Config.SetPoseBool",
              "canBeHandledOnRecover": true,
              "KIAGMJMPHPG": "ImproveState"
            },
            {
              "$type": "MoleMole.Config.RemoveModifier",
              "modifierName": "Eremite_ImproveState"
            }
          ]
        },
        "Eremite_ImproveState": {
          "modifierName": "",
          "elementDurability": 100.0,
          "OAOGLLGGJPD": [
            {
              "$type": "MoleMole.Config.SetPoseBool",
              "canBeHandledOnRecover": true,
              "KIAGMJMPHPG": "ImproveState",
              "value": true
            },
            {
              "$type": "MoleMole.Config.RemoveModifier",
              "modifierName": "Eremite_NormalState"
            }
          ]
        },
        "Eremite_IsNotWeak": {
          "modifierName": "",
          "elementDurability": 100.0,
          "OAOGLLGGJPD": [
            {
              "$type": "MoleMole.Config.SetPoseBool",
              "canBeHandledOnRecover": true,
              "KIAGMJMPHPG": "WeakState"
            },
            {
              "$type": "MoleMole.Config.RemoveModifier",
              "modifierName": "Eremite_IsWeak"
            }
          ]
        },
        "Eremite_IsWeak": {
          "modifierName": "",
          "elementDurability": 100.0,
          "OAOGLLGGJPD": [
            {
              "$type": "MoleMole.Config.SetPoseBool",
              "canBeHandledOnRecover": true,
              "KIAGMJMPHPG": "WeakState",
              "value": true
            },
            {
              "$type": "MoleMole.Config.RemoveModifier",
              "modifierName": "Eremite_IsNotWeak"
            }
          ]
        },
        "Eremite_IsOutImproved": {
          "modifierName": "",
          "elementDurability": 100.0,
          "OAOGLLGGJPD": [
            {
              "$type": "MoleMole.Config.SetPoseBool",
              "canBeHandledOnRecover": true,
              "KIAGMJMPHPG": "OutImproved",
              "value": true
            },
            {
              "$type": "MoleMole.Config.RemoveModifier",
              "modifierName": "Eremite_ISNotOutImproved"
            }
          ]
        },
        "Eremite_ISNotOutImproved": {
          "modifierName": "",
          "elementDurability": 100.0,
          "OAOGLLGGJPD": [
            {
              "$type": "MoleMole.Config.SetPoseBool",
              "canBeHandledOnRecover": true,
              "KIAGMJMPHPG": "OutImproved"
            },
            {
              "$type": "MoleMole.Config.RemoveModifier",
              "modifierName": "Eremite_IsOutImproved"
            }
          ]
        },
        "UNIQUE_Eremite_Dancer_ImproveState_Properties": {
          "EODJPKICNGG": "Unique",
          "modifierName": "",
          "LLIJGLMEHFK": true,
          "elementDurability": 100.0,
          "EPKCPIKGJOJ": {
            "Actor_EndureDelta": 0.0,
            "Entity_WeightRatio": 5.0,
            "Actor_PhysicalSubHurtDelta": 0.5,
            "Actor_FireSubHurtDelta": 0.5,
            "Actor_ElecSubHurtDelta": 0.5,
            "Actor_WaterSubHurtDelta": 0.5,
            "Actor_GrassSubHurtDelta": 0.5,
            "Actor_WindSubHurtDelta": 0.5,
            "Actor_IceSubHurtDelta": 0.5,
            "Actor_RockSubHurtDelta": 0.5
          },
          "OAOGLLGGJPD": [
            {
              "$type": "MoleMole.Config.AddGlobalValue",
              "canBeHandledOnRecover": true,
              "value": 10.0,
              "key": "_MONSTER_EREMITE_IMPROVED_",
              "HPICGAMGEGA": true,
              "maxValue": 1.0,
              "GCEOGBJIFCP": 0.0
            },
            {
              "$type": "MoleMole.Config.AddGlobalValue",
              "canBeHandledOnRecover": true,
              "value": -10.0,
              "key": "_MONSTER_EREMITE_RECOVER_",
              "HPICGAMGEGA": true,
              "maxValue": 1.0,
              "GCEOGBJIFCP": 0.0
            },
            {
              "$type": "MoleMole.Config.AddGlobalValue",
              "value": 1.0,
              "key": "_MONSTER_EREMITE_IMPROVED_COUNT_",
              "HPICGAMGEGA": true,
              "maxValue": 99.0,
              "GCEOGBJIFCP": 0.0
            },
            {
              "$type": "MoleMole.Config.SetAISkillGCD",
              "value": 5.0
            }
          ],
          "MINFJCDAIBB": [
            {
              "$type": "MoleMole.Config.RemoveUniqueModifier",
              "modifierName": "UNIQUE_Monster_Eremite_Female_Standard_Dancer_Improve_LoopEffect"
            },
            {
              "$type": "MoleMole.Config.KillSelf",
              "otherTargets": {
                "$type": "DMGCADBNILM",
                "configID": 25110401
              }
            },
            {
              "$type": "MoleMole.Config.AddGlobalValue",
              "canBeHandledOnRecover": true,
              "value": 1.0,
              "key": "_EREMITE_WEAK_TIMES_",
              "HPICGAMGEGA": true,
              "maxValue": 100.0,
              "GCEOGBJIFCP": 0.0
            },
            {
              "$type": "MoleMole.Config.SetAnimatorTrigger",
              "doOffStage": true,
              "predicates": [
                {
                  "$type": "IPGGGPIJONN",
                  "MLDBFKEGPEF": "Self",
                  "key": "_MONSTER_EREMITE_RETURNTOBORN_",
                  "value": 0.0
                }
              ],
              "triggerID": "Weak"
            },
            {
              "$type": "MoleMole.Config.ApplyModifier",
              "modifierName": "Eremite_Out_Imporve"
            },
            {
              "$type": "MoleMole.Config.TriggerAbility",
              "abilityName": "Monster_Eremite_Female_Standard_Dancer_BoomerangLogic_Killed"
            },
            {
              "$type": "MoleMole.Config.RemoveUniqueModifier",
              "modifierName": "UNIQUE_Eremite_Dancer_Force_ImproveState"
            }
          ]
        },
        "Eremite_Out_Imporve": {
          "modifierName": "",
          "duration": 1.0,
          "elementDurability": 100.0,
          "OAOGLLGGJPD": [
            {
              "$type": "MoleMole.Config.SetGlobalValue",
              "value": 1.0,
              "key": "_MONSTER_EREMITE_OUTIMPROVED",
              "HPICGAMGEGA": true,
              "maxValue": 1.0,
              "GCEOGBJIFCP": 0.0
            },
            {
              "$type": "MoleMole.Config.AddGlobalValue",
              "canBeHandledOnRecover": true,
              "value": -10.0,
              "key": "_MONSTER_EREMITE_IMPROVED_",
              "HPICGAMGEGA": true,
              "maxValue": 1.0,
              "GCEOGBJIFCP": 0.0
            },
            {
              "$type": "MoleMole.Config.AddGlobalValue",
              "canBeHandledOnRecover": true,
              "value": 10.0,
              "key": "_MONSTER_EREMITE_WEAK_",
              "HPICGAMGEGA": true,
              "maxValue": 1.0,
              "GCEOGBJIFCP": 0.0
            }
          ]
        },
        "WeakEnd_AddEndureHandle": {
          "modifierName": "",
          "elementDurability": 100.0,
          "EPKCPIKGJOJ": {
            "Actor_EndureDelta": 5.0
          }
        }
      },
      "EIIHGJGFDHC": [
        {
          "$type": "MoleMole.Config.AttachModifier",
          "modifierName": "UNIQUE_Eremite_Dancer_ImproveState_Properties"
        }
      ]
    }
  },
  {
    "Default": {
      "$type": "MoleMole.Config.GNKCLKNDOAK",
      "abilityName": "Monster_Eremite_Female_Standard_Dancer_Summon",
      "BFBDNNJCDLH": {
        "Summon_Eremite_Chrysopelea_Grass_01": {
          "modifierName": "",
          "duration": 1.0,
          "elementDurability": 100.0,
          "OAOGLLGGJPD": [
            {
              "$type": "MoleMole.Config.Summon",
              "monsterID": 25110401,
              "born": {
                "$type": "KPFCCIOJAMK",
                "useRotation": true
              },
              "ECDKGENMAPE": 25110401,
              "NMCJGPKPENP": true,
              "HCNLLLBBJFJ": true,
              "LBENEKACIIL": true
            }
          ]
        }
      },
      "EIIHGJGFDHC": [
        {
          "$type": "MoleMole.Config.SetGlobalValue",
          "value": 0.0,
          "key": "_EREMITE_SLAVE_DIE_",
          "HPICGAMGEGA": true,
          "maxValue": 1.0,
          "GCEOGBJIFCP": 0.0
        },
        {
          "$type": "MoleMole.Config.ApplyModifier",
          "modifierName": "Summon_Eremite_Chrysopelea_Grass_01"
        }
      ]
    }
  },
  {
    "Default": {
      "$type": "MoleMole.Config.GNKCLKNDOAK",
      "abilityName": "Monster_Eremite_Female_Standard_Dancer_Improve_LoopEffect",
      "BFBDNNJCDLH": {
        "UNIQUE_Monster_Eremite_Female_Standard_Dancer_Improve_LoopEffect": {
          "EODJPKICNGG": "Unique",
          "modifierName": "",
          "LLIJGLMEHFK": true,
          "elementDurability": 100.0,
          "OAOGLLGGJPD": [
            {
              "$type": "MoleMole.Config.AttachEffect",
              "effectPattern": "Eff_Monster_Eremite_Female_Standard_Dancer_Grass_Improve_Loop_01",
              "effectTempleteID": -1.0
            }
          ]
        }
      },
      "EIIHGJGFDHC": [
        {
          "$type": "MoleMole.Config.AttachModifier",
          "modifierName": "UNIQUE_Monster_Eremite_Female_Standard_Dancer_Improve_LoopEffect"
        }
      ]
    }
  },
  {
    "Default": {
      "$type": "MoleMole.Config.GNKCLKNDOAK",
      "abilityName": "Monster_Eremite_Female_Standard_Dancer_Weak",
      "PIDAPNFJNDF": [
        {
          "$type": "MoleMole.Config.AttachToPoseIDMixin",
          "LEPKMNMJJHJ": [
            301
          ],
          "modifierName": "WeakState"
        },
        {
          "$type": "MoleMole.Config.AttachModifierToSelfGlobalValueMixin",
          "globalValueKey": "_MONSTER_EREMITE_RECOVER_",
          "KADKJMOFOLI": 0.0,
          "FJEPHJNDEAI": [
            -0.5,
            0.5,
            1.5
          ],
          "IJEPHCMOAPE": [
            "Empty",
            "Recover"
          ]
        }
      ],
      "LLLCANIGIOE": {
        "Eremite_Cur_HP": 0.0
      },
      "BFBDNNJCDLH": {
        "WeakState": {
          "modifierName": "",
          "duration": 10.0,
          "elementDurability": 100.0,
          "EPKCPIKGJOJ": {
            "Actor_EndureDelta": 0.0,
            "Actor_GrassSubHurtDelta": -0.6000000238418579
          },
          "OAOGLLGGJPD": [
            {
              "$type": "MoleMole.Config.AttachEffect",
              "effectPattern": "Eff_Avatar_Properties_Defense_Down",
              "effectTempleteID": -1.0
            },
            {
              "$type": "MoleMole.Config.ApplyModifier",
              "predicates": [
                {
                  "$type": "IPGGGPIJONN",
                  "MLDBFKEGPEF": "Self",
                  "key": "_EREMITE_WEAK_TIMES_",
                  "value": 1.0
                }
              ],
              "modifierName": "WeakState_Damage"
            },
            {
              "$type": "MoleMole.Config.AddGlobalValue",
              "canBeHandledOnRecover": true,
              "value": 10.0,
              "key": "_MONSTER_EREMITE_WEAK_",
              "HPICGAMGEGA": true,
              "maxValue": 1.0,
              "GCEOGBJIFCP": 0.0
            },
            {
              "$type": "MoleMole.Config.AddGlobalValue",
              "canBeHandledOnRecover": true,
              "value": -10.0,
              "key": "_MONSTER_EREMITE_RECOVER_",
              "HPICGAMGEGA": true,
              "maxValue": 1.0,
              "GCEOGBJIFCP": 0.0
            }
          ],
          "MINFJCDAIBB": [
            {
              "$type": "MoleMole.Config.AddGlobalValue",
              "canBeHandledOnRecover": true,
              "value": -10.0,
              "key": "_MONSTER_EREMITE_WEAK_",
              "HPICGAMGEGA": true,
              "maxValue": 1.0,
              "GCEOGBJIFCP": 0.0
            },
            {
              "$type": "MoleMole.Config.AddGlobalValue",
              "canBeHandledOnRecover": true,
              "value": 10.0,
              "key": "_MONSTER_EREMITE_RECOVER_",
              "HPICGAMGEGA": true,
              "maxValue": 1.0,
              "GCEOGBJIFCP": 0.0
            }
          ]
        },
        "Empty": {
          "modifierName": "",
          "elementDurability": 100.0
        },
        "Recover": {
          "modifierName": "",
          "elementDurability": 100.0,
          "OAOGLLGGJPD": [
            {
              "$type": "MoleMole.Config.SetAnimatorTrigger",
              "triggerID": "Recover"
            }
          ]
        },
        "WeakState_Damage": {
          "modifierName": "",
          "duration": 1.0,
          "elementDurability": 100.0,
          "OAOGLLGGJPD": [
            {
              "$type": "MoleMole.Config.GetFightProperty",
              "doOffStage": true,
              "KOHKMGBOJCD": "FIGHT_PROP_CUR_HP",
              "globalValueKey": "_MONSTER_CUR_HP_"
            },
            {
              "$type": "MoleMole.Config.SetGlobalValueToOverrideMap",
              "doOffStage": true,
              "globalValueKey": "_MONSTER_CUR_HP_",
              "FDKJEIGEABF": "Eremite_Cur_HP"
            },
            {
              "$type": "MoleMole.Config.DamageByAttackValue",
              "attackInfo": {
                "attackTag": "",
                "attenuationTag": "",
                "attenuationGroup": "default",
                "attackProperty": {
                  "JMLMDDCBIAO": 0.0,
                  "damagePercentageRatio": 0.0,
                  "elementType": "Grass",
                  "elementDurability": 100.0,
                  "ignoreAttackerProperty": true,
                  "enBreak": 0.0,
                  "damageExtra": [
                    0.375,
                    "Eremite_Cur_HP",
                    "MUL"
                  ],
                  "trueDamage": true,
                  "damagePercentage": 0.0
                }
              }
            },
            {
              "$type": "MoleMole.Config.FireEffect",
              "effectPattern": "Eff_Monster_Eremite_Female_Standard_Dancer_Grass_Weak_BS",
              "effectTempleteID": -1.0
            }
          ]
        }
      }
    }
  },
  {
    "Default": {
      "$type": "MoleMole.Config.GNKCLKNDOAK",
      "abilityName": "Monster_Eremite_Female_Standard_Dancer_ReturnToBorn",
      "PIDAPNFJNDF": [
        {
          "$type": "MoleMole.Config.AttachToPoseIDMixin",
          "LEPKMNMJJHJ": [
            901
          ],
          "modifierName": "ReturnToBorn_Start"
        },
        {
          "$type": "MoleMole.Config.AttachToAnimatorStateIDMixin",
          "stateIDs": [
            "SheathWeapon"
          ],
          "modifierName": "ReturnToBornHandler",
          "MJFJKAHGHDJ": ""
        }
      ],
      "BFBDNNJCDLH": {
        "ReturnToBorn_Start": {
          "modifierName": "",
          "elementDurability": 100.0,
          "OAOGLLGGJPD": [
            {
              "$type": "MoleMole.Config.SetAnimatorTrigger",
              "triggerID": "SheathWeaponTrigger"
            }
          ]
        },
        "ReturnToBornHandler": {
          "modifierName": "",
          "elementDurability": 100.0,
          "OAOGLLGGJPD": [
            {
              "$type": "MoleMole.Config.SetGlobalValue",
              "value": 0.0,
              "key": "_MONSTER_EREMITE_IMPROVED_",
              "HPICGAMGEGA": true,
              "maxValue": 1.0,
              "GCEOGBJIFCP": 0.0
            },
            {
              "$type": "MoleMole.Config.SetGlobalValue",
              "value": 1.0,
              "key": "_MONSTER_EREMITE_RETURNTOBORN_",
              "HPICGAMGEGA": true,
              "maxValue": 1.0,
              "GCEOGBJIFCP": 0.0
            },
            {
              "$type": "MoleMole.Config.SetGlobalValue",
              "value": 0.0,
              "key": "_MONSTER_EREMITE_WEAK_",
              "HPICGAMGEGA": true,
              "maxValue": 1.0,
              "GCEOGBJIFCP": 0.0
            },
            {
              "$type": "MoleMole.Config.SetGlobalValue",
              "value": 0.0,
              "key": "_MONSTER_EREMITE_IMPROVED_COUNT_",
              "HPICGAMGEGA": true,
              "maxValue": 99.0,
              "GCEOGBJIFCP": 0.0
            },
            {
              "$type": "MoleMole.Config.RemoveUniqueModifier",
              "modifierName": "UNIQUE_Eremite_Dancer_ImproveState_Properties"
            },
            {
              "$type": "MoleMole.Config.RemoveUniqueModifier",
              "modifierName": "UNIQUE_Eremite_Dancer_Force_ImproveState"
            }
          ],
          "MINFJCDAIBB": [
            {
              "$type": "MoleMole.Config.SetGlobalValue",
              "value": 0.0,
              "key": "_MONSTER_EREMITE_IMPROVED_",
              "HPICGAMGEGA": true,
              "maxValue": 1.0,
              "GCEOGBJIFCP": 0.0
            },
            {
              "$type": "MoleMole.Config.SetGlobalValue",
              "value": 0.0,
              "key": "_EREMITE_WEAK_TIMES_",
              "HPICGAMGEGA": true,
              "maxValue": 100.0,
              "GCEOGBJIFCP": 0.0
            },
            {
              "$type": "MoleMole.Config.SetGlobalValue",
              "value": 0.0,
              "key": "_MONSTER_EREMITE_IMPROVED_COUNT_",
              "HPICGAMGEGA": true,
              "maxValue": 99.0,
              "GCEOGBJIFCP": 0.0
            },
            {
              "$type": "MoleMole.Config.SetGlobalValue",
              "value": 0.0,
              "key": "_MONSTER_EREMITE_ISINFIGHT_",
              "HPICGAMGEGA": true,
              "maxValue": 1.0,
              "GCEOGBJIFCP": 0.0
            },
            {
              "$type": "MoleMole.Config.SetGlobalValue",
              "value": 0.0,
              "key": "_MONSTER_EREMITE_WEAK_",
              "HPICGAMGEGA": true,
              "maxValue": 1.0,
              "GCEOGBJIFCP": 0.0
            },
            {
              "$type": "MoleMole.Config.SetGlobalValue",
              "value": 0.0,
              "key": "_MONSTER_EREMITE_RETURNTOBORN_",
              "HPICGAMGEGA": true,
              "maxValue": 1.0,
              "GCEOGBJIFCP": 0.0
            },
            {
              "$type": "MoleMole.Config.SetGlobalValue",
              "value": 0.0,
              "key": "_MONSTER_EREMITE_OUTIMPROVED",
              "HPICGAMGEGA": true,
              "maxValue": 1.0,
              "GCEOGBJIFCP": 0.0
            },
            {
              "$type": "MoleMole.Config.ApplyModifier",
              "otherTargets": {
                "$type": "DMGCADBNILM",
                "configID": 25110401
              },
              "modifierName": "Slave_ReturnToBorn"
            },
            {
              "$type": "MoleMole.Config.KillSelf",
              "otherTargets": {
                "$type": "DMGCADBNILM",
                "configID": 25110401
              },
              "HDGCBLAALGP": true
            },
            {
              "$type": "MoleMole.Config.SetGlobalValue",
              "value": 0.0,
              "key": "_EREMITE_SLAVE_DIE_",
              "HPICGAMGEGA": true,
              "maxValue": 1.0,
              "GCEOGBJIFCP": 0.0
            }
          ]
        },
        "Slave_ReturnToBorn": {
          "modifierName": "",
          "duration": 1.0,
          "elementDurability": 100.0,
          "OAOGLLGGJPD": [
            {
              "$type": "MoleMole.Config.AddGlobalValue",
              "value": 1.0,
              "key": "_EREMITE_SLAVE_RETURNTOBORN_",
              "HPICGAMGEGA": true,
              "maxValue": 1.0,
              "GCEOGBJIFCP": 0.0
            }
          ]
        }
      },
      "EIIHGJGFDHC": [
        {
          "$type": "MoleMole.Config.ApplyModifier",
          "otherTargets": {
            "$type": "DMGCADBNILM",
            "configID": 25110401
          },
          "modifierName": "Slave_ReturnToBorn"
        },
        {
          "$type": "MoleMole.Config.KillSelf",
          "otherTargets": {
            "$type": "DMGCADBNILM",
            "configID": 25110401
          }
        }
      ]
    }
  },
  {
    "Default": {
      "$type": "MoleMole.Config.GNKCLKNDOAK",
      "abilityName": "Monster_Eremite_Female_Standard_Dancer_FindBlinkPoint",
      "BFBDNNJCDLH": {
        "Monster_Eremite_Female_Standard_Dancer_FindBlinkPoint": {
          "modifierName": "",
          "duration": 1.0,
          "elementDurability": 100.0,
          "OAOGLLGGJPD": [
            {
              "$type": "MoleMole.Config.TryFindBlinkPointByBorn",
              "MLDBFKEGPEF": "SelfAttackTarget",
              "born": {
                "$type": "LODIABIHEND",
                "offset": {
                  "GOAPOLCAJBP": 0.0,
                  "FMOPCJGGFMH": 0.0,
                  "EJJEPFCDDAM": 0.0
                },
                "onGround": true,
                "NPLIHAMPJJI": -2.0,
                "EJNEFDNHEDM": 0.0,
                "HHEOPAODJFL": 25.0
              },
              "IMGIPFNFJLJ": "BlinkHitSceneTestByThreeSegments",
              "GCEPPPEABPF": 2.5,
              "ignoreWater": true
            },
            {
              "$type": "MoleMole.Config.Predicated",
              "CKBKOCJPJMM": [
                {
                  "$type": "ELHJFBKKNPK",
                  "OAGIPMAEFCN": false
                }
              ],
              "successActions": [
                {
                  "$type": "MoleMole.Config.TryFindBlinkPointByBorn",
                  "born": {
                    "$type": "INKMBJGOPCK",
                    "bornRandom": {
                      "$type": "IKAJINIJLFD",
                      "HJLODMLADDK": 1.0,
                      "LEBHFOBMPMJ": 2.0
                    },
                    "onGround": true
                  },
                  "IMGIPFNFJLJ": "BlinkHitSceneTestByThreeSegments",
                  "GCEPPPEABPF": 2.5,
                  "ignoreWater": true
                }
              ]
            }
          ]
        }
      },
      "EIIHGJGFDHC": [
        {
          "$type": "MoleMole.Config.ApplyModifier",
          "modifierName": "Monster_Eremite_Female_Standard_Dancer_FindBlinkPoint"
        }
      ]
    }
  },
  {
    "Default": {
      "$type": "MoleMole.Config.GNKCLKNDOAK",
      "abilityName": "Monster_Eremite_Female_Standard_Dancer_FindBlinkPoint_Away",
      "BFBDNNJCDLH": {
        "Monster_Eremite_Female_Standard_Dancer_FindBlinkPoint_Away": {
          "modifierName": "",
          "duration": 1.0,
          "elementDurability": 100.0,
          "OAOGLLGGJPD": [
            {
              "$type": "MoleMole.Config.TryFindBlinkPointByBorn",
              "MLDBFKEGPEF": "SelfAttackTarget",
              "born": {
                "$type": "LODIABIHEND",
                "offset": {
                  "GOAPOLCAJBP": 0.0,
                  "FMOPCJGGFMH": 0.0,
                  "EJJEPFCDDAM": 0.0
                },
                "bornRandom": {
                  "$type": "IKAJINIJLFD",
                  "HJLODMLADDK": -3.0,
                  "LEBHFOBMPMJ": 0.0
                },
                "onGround": true,
                "NPLIHAMPJJI": -10.0,
                "EJNEFDNHEDM": 0.0,
                "HHEOPAODJFL": 50.0
              },
              "IMGIPFNFJLJ": "BlinkHitSceneTestByThreeSegments",
              "GCEPPPEABPF": 2.5,
              "ignoreWater": true
            },
            {
              "$type": "MoleMole.Config.Predicated",
              "CKBKOCJPJMM": [
                {
                  "$type": "ELHJFBKKNPK",
                  "OAGIPMAEFCN": false
                }
              ],
              "successActions": [
                {
                  "$type": "MoleMole.Config.TryFindBlinkPointByBorn",
                  "born": {
                    "$type": "INKMBJGOPCK",
                    "bornRandom": {
                      "$type": "IKAJINIJLFD",
                      "HJLODMLADDK": 10.0,
                      "LEBHFOBMPMJ": 12.0
                    },
                    "onGround": true
                  },
                  "IMGIPFNFJLJ": "BlinkHitSceneTestByThreeSegments",
                  "GCEPPPEABPF": 2.5,
                  "ignoreWater": true
                }
              ]
            }
          ]
        }
      },
      "EIIHGJGFDHC": [
        {
          "$type": "MoleMole.Config.ApplyModifier",
          "modifierName": "Monster_Eremite_Female_Standard_Dancer_FindBlinkPoint_Away"
        }
      ]
    }
  },
  {
    "Default": {
      "$type": "MoleMole.Config.GNKCLKNDOAK",
      "abilityName": "Monster_Eremite_Female_Standard_Dancer_Invisable",
      "PIDAPNFJNDF": [
        {
          "$type": "MoleMole.Config.AttachToStateIDMixin",
          "stateIDs": [
            "Blink",
            "Improve_Blink"
          ],
          "modifierName": "Monster_Eremite_Female_Standard_Dancer_Visable",
          "MJFJKAHGHDJ": ""
        },
        {
          "$type": "MoleMole.Config.AttachToNormalizedTimeMixin",
          "GOPFOAFEKLC": "Blink",
          "modifierName": "Monster_Eremite_Female_Standard_Dancer_Blink_Dither",
          "normalizeStart": 0.574999988079071,
          "normalizeEnd": 0.6499999761581421,
          "MJFJKAHGHDJ": ""
        },
        {
          "$type": "MoleMole.Config.AttachToNormalizedTimeMixin",
          "GOPFOAFEKLC": "Improve_Blink",
          "modifierName": "Monster_Eremite_Female_Standard_Dancer_Blink_Dither",
          "normalizeStart": 0.574999988079071,
          "normalizeEnd": 0.6499999761581421,
          "MJFJKAHGHDJ": ""
        },
        {
          "$type": "MoleMole.Config.AttachToNormalizedTimeMixin",
          "GOPFOAFEKLC": "Improve_Blink",
          "modifierName": "Effect01",
          "normalizeEnd": 0.6499999761581421,
          "MJFJKAHGHDJ": ""
        },
        {
          "$type": "MoleMole.Config.AttachToNormalizedTimeMixin",
          "GOPFOAFEKLC": "Improve_Blink",
          "modifierName": "Effect02",
          "normalizeEnd": 0.6499999761581421,
          "MJFJKAHGHDJ": ""
        },
        {
          "$type": "MoleMole.Config.AttachToNormalizedTimeMixin",
          "GOPFOAFEKLC": "Blink",
          "modifierName": "Effect01",
          "normalizeEnd": 0.6499999761581421,
          "MJFJKAHGHDJ": ""
        },
        {
          "$type": "MoleMole.Config.AttachToNormalizedTimeMixin",
          "GOPFOAFEKLC": "Blink",
          "modifierName": "Effect02",
          "normalizeEnd": 0.6499999761581421,
          "MJFJKAHGHDJ": ""
        }
      ],
      "BFBDNNJCDLH": {
        "Monster_Eremite_Female_Standard_Dancer_Visable": {
          "modifierName": "",
          "elementDurability": 100.0,
          "MINFJCDAIBB": [
            {
              "$type": "MoleMole.Config.RemoveUniqueModifier",
              "modifierName": "UNIQUE_Monster_Eremite_Female_Standard_Dancer_Invisable"
            }
          ]
        },
        "Monster_Eremite_Female_Standard_Dancer_Blink_Dither": {
          "modifierName": "",
          "elementDurability": 100.0,
          "OAOGLLGGJPD": [
            {
              "$type": "MoleMole.Config.StartDither",
              "NCBIBKJDCHI": 0.25
            }
          ]
        },
        "UNIQUE_Monster_Eremite_Female_Standard_Dancer_Invisable": {
          "modifierName": "",
          "LLIJGLMEHFK": true,
          "elementDurability": 100.0,
          "JPIFFPJJEMK": [
            {
              "$type": "MoleMole.Config.AttachActionToModifierMixin",
              "OAOGLLGGJPD": [
                {
                  "$type": "MoleMole.Config.HideUIBillBoard",
                  "hide": true
                },
                {
                  "$type": "MoleMole.Config.EnableHitBoxByName",
                  "MAEGDKKBDPK": [
                    "HitBox",
                    "HeadBox"
                  ]
                },
                {
                  "$type": "MoleMole.Config.EnablePushColliderName",
                  "DOFAFEMMILL": [
                    "PushCollider"
                  ]
                }
              ],
              "MINFJCDAIBB": [
                {
                  "$type": "MoleMole.Config.EnableHitBoxByName",
                  "canBeHandledOnRecover": true,
                  "MAEGDKKBDPK": [
                    "HitBox",
                    "HeadBox"
                  ],
                  "NJKBCLADIBK": true
                },
                {
                  "$type": "MoleMole.Config.EnablePushColliderName",
                  "canBeHandledOnRecover": true,
                  "DOFAFEMMILL": [
                    "PushCollider"
                  ],
                  "NJKBCLADIBK": true
                },
                {
                  "$type": "MoleMole.Config.HideUIBillBoard",
                  "canBeHandledOnRecover": true
                }
              ]
            }
          ],
          "OAOGLLGGJPD": [
            {
              "$type": "MoleMole.Config.TriggerSetVisible"
            },
            {
              "$type": "MoleMole.Config.AttachModifier",
              "modifierName": "Blink_Invincible"
            },
            {
              "$type": "MoleMole.Config.AttachModifier",
              "modifierName": "Blink_DenyLockOn"
            },
            {
              "$type": "MoleMole.Config.StartDither",
              "NCBIBKJDCHI": 0.25
            }
          ],
          "MINFJCDAIBB": [
            {
              "$type": "MoleMole.Config.ApplyModifier",
              "modifierName": "SetVisible_Ture"
            }
          ],
          "PMDLJDGOIKO": [
            {
              "$type": "MoleMole.Config.TriggerSetVisible",
              "canBeHandledOnRecover": true,
              "LJBECOMGDEJ": true
            }
          ]
        },
        "Blink_Invincible": {
          "modifierName": "",
          "elementDurability": 100.0,
          "state": "Invincible"
        },
        "Blink_DenyLockOn": {
          "modifierName": "",
          "elementDurability": 100.0,
          "state": "DenyLockOn"
        },
        "Effect01": {
          "modifierName": "",
          "elementDurability": 100.0,
          "OAOGLLGGJPD": [
            {
              "$type": "MoleMole.Config.AttachEffect",
              "effectPattern": "Eff_Monster_Eremite_Female_Standard_Dancer_Grass_Blink_BS",
              "effectTempleteID": -1.0
            }
          ]
        },
        "Effect02": {
          "modifierName": "",
          "elementDurability": 100.0,
          "OAOGLLGGJPD": [
            {
              "$type": "MoleMole.Config.AttachEffect",
              "effectPattern": "Eff_Monster_Eremite_Female_Standard_Dancer_Grass_Blink_Effect",
              "effectTempleteID": -1.0
            }
          ]
        },
        "SetVisible_Ture": {
          "modifierName": "",
          "duration": 1.0,
          "elementDurability": 100.0,
          "OAOGLLGGJPD": [
            {
              "$type": "MoleMole.Config.TriggerSetVisible",
              "canBeHandledOnRecover": true,
              "LJBECOMGDEJ": true
            }
          ]
        }
      },
      "EIIHGJGFDHC": [
        {
          "$type": "MoleMole.Config.AttachModifier",
          "modifierName": "UNIQUE_Monster_Eremite_Female_Standard_Dancer_Invisable"
        },
        {
          "$type": "MoleMole.Config.ClearLockTarget",
          "MLDBFKEGPEF": "CurLocalAvatar"
        }
      ]
    }
  },
  {
    "Default": {
      "$type": "MoleMole.Config.GNKCLKNDOAK",
      "abilityName": "Monster_Eremite_Female_Standard_Dancer_DoBlink",
      "EIIHGJGFDHC": [
        {
          "$type": "MoleMole.Config.DoBlink"
        },
        {
          "$type": "MoleMole.Config.FireEffect",
          "effectPattern": "Eff_Monster_Eremite_Female_Standard_Dancer_Grass_Blink_AS",
          "born": {
            "$type": "IKOPIPACGFD"
          },
          "effectTempleteID": -1.0
        },
        {
          "$type": "MoleMole.Config.TurnDirectionToPos",
          "MLDBFKEGPEF": "SelfAttackTarget",
          "AOFHAEGNPNM": {
            "$type": "INKMBJGOPCK"
          }
        }
      ]
    }
  },
  {
    "Default": {
      "$type": "MoleMole.Config.GNKCLKNDOAK",
      "abilityName": "Monster_Eremite_Female_Standard_Dancer_Visable",
      "EIIHGJGFDHC": [
        {
          "$type": "MoleMole.Config.RemoveUniqueModifier",
          "modifierName": "UNIQUE_Monster_Eremite_Female_Standard_Dancer_Invisable"
        }
      ]
    }
  },
  {
    "Default": {
      "$type": "MoleMole.Config.GNKCLKNDOAK",
      "abilityName": "Monster_Eremite_Female_Standard_Dancer_WeaponHide",
      "PIDAPNFJNDF": [
        {
          "$type": "MoleMole.Config.AttachModifierToSelfGlobalValueMixin",
          "globalValueKey": "_MONSTER_EREMITE_DANCER_WEAPONHIDE",
          "KADKJMOFOLI": 0.0,
          "FJEPHJNDEAI": [
            -0.5,
            0.5,
            1.5
          ],
          "IJEPHCMOAPE": [
            "WeaponUnHide",
            "WeaponHide"
          ]
        },
        {
          "$type": "MoleMole.Config.AttachToStateIDMixin",
          "stateIDs": [
            "MeleeAttack01",
            "RangeAttack01"
          ],
          "modifierName": "Monster_Eremite_Female_Standard_Dancer_WeaponHide",
          "MJFJKAHGHDJ": ""
        }
      ],
      "BFBDNNJCDLH": {
        "Monster_Eremite_Female_Standard_Dancer_WeaponHide": {
          "modifierName": "",
          "elementDurability": 100.0,
          "MINFJCDAIBB": [
            {
              "$type": "MoleMole.Config.SetGlobalValue",
              "canBeHandledOnRecover": true,
              "value": 0.0,
              "key": "_MONSTER_EREMITE_DANCER_WEAPONHIDE",
              "maxValue": 0.0,
              "GCEOGBJIFCP": 0.0
            }
          ]
        },
        "WeaponHide": {
          "modifierName": "",
          "elementDurability": 100.0,
          "OAOGLLGGJPD": [
            {
              "$type": "MoleMole.Config.TriggerSetRenderersEnable",
              "LNJJKBMBDPG": [
                "MonEquip_Eremite_Dancer_01_Model"
              ]
            }
          ]
        },
        "WeaponUnHide": {
          "modifierName": "",
          "elementDurability": 100.0,
          "OAOGLLGGJPD": [
            {
              "$type": "MoleMole.Config.TriggerSetRenderersEnable",
              "canBeHandledOnRecover": true,
              "LNJJKBMBDPG": [
                "MonEquip_Eremite_Dancer_01_Model"
              ],
              "NJKBCLADIBK": true
            }
          ]
        }
      },
      "OAOGLLGGJPD": [
        {
          "$type": "MoleMole.Config.SetGlobalValue",
          "value": 0.0,
          "key": "_MONSTER_EREMITE_DANCER_WEAPONHIDE",
          "maxValue": 0.0,
          "GCEOGBJIFCP": 0.0
        }
      ],
      "EIIHGJGFDHC": [
        {
          "$type": "MoleMole.Config.SetGlobalValue",
          "value": 1.0,
          "key": "_MONSTER_EREMITE_DANCER_WEAPONHIDE",
          "maxValue": 0.0,
          "GCEOGBJIFCP": 0.0
        }
      ]
    }
  },
  {
    "Default": {
      "$type": "MoleMole.Config.GNKCLKNDOAK",
      "abilityName": "Monster_Eremite_Female_Standard_Dancer_WeaponUnHide",
      "EIIHGJGFDHC": [
        {
          "$type": "MoleMole.Config.SetGlobalValue",
          "value": 0.0,
          "key": "_MONSTER_EREMITE_DANCER_WEAPONHIDE",
          "maxValue": 0.0,
          "GCEOGBJIFCP": 0.0
        }
      ]
    }
  },
  {
    "Default": {
      "$type": "MoleMole.Config.GNKCLKNDOAK",
      "abilityName": "Monster_Eremite_Female_Standard_Dancer_WeaponEffect_Open",
      "PIDAPNFJNDF": [
        {
          "$type": "MoleMole.Config.AttachModifierToSelfGlobalValueMixin",
          "globalValueKey": "_EREMITE_DANCER_OPEN_WEAPONEFFECT_",
          "KADKJMOFOLI": 0.0,
          "FJEPHJNDEAI": [
            -0.5,
            0.5,
            1.5
          ],
          "IJEPHCMOAPE": [
            "Closed_WeaponEffect",
            "Open_WeaponEffect"
          ]
        }
      ],
      "BFBDNNJCDLH": {
        "Closed_WeaponEffect": {
          "modifierName": "",
          "elementDurability": 100.0,
          "OAOGLLGGJPD": [
            {
              "$type": "MoleMole.Config.SendEffectTrigger",
              "parameter": "ON",
              "attachPoint": "",
              "KPGKDHAFHFE": "Bool",
              "effectPattern": "Eff_Monster_Eremite_Female_Standard_Dancer_Grass_Weapon"
            }
          ]
        },
        "Open_WeaponEffect": {
          "modifierName": "",
          "elementDurability": 100.0,
          "OAOGLLGGJPD": [
            {
              "$type": "MoleMole.Config.SendEffectTrigger",
              "parameter": "ON",
              "attachPoint": "",
              "KPGKDHAFHFE": "Bool",
              "value": 1,
              "effectPattern": "Eff_Monster_Eremite_Female_Standard_Dancer_Grass_Weapon"
            }
          ]
        },
        "UNIQUE_Eremite_Dancer_WeaponEffect": {
          "EODJPKICNGG": "Unique",
          "modifierName": "",
          "LLIJGLMEHFK": true,
          "elementDurability": 100.0,
          "OAOGLLGGJPD": [
            {
              "$type": "MoleMole.Config.AttachEffect",
              "effectPattern": "Eff_Monster_Eremite_Female_Standard_Dancer_Grass_Weapon",
              "effectTempleteID": -1.0
            },
            {
              "$type": "MoleMole.Config.AddGlobalValue",
              "value": 1.0,
              "key": "_EREMITE_DANCER_OPEN_WEAPONEFFECT_",
              "HPICGAMGEGA": true,
              "maxValue": 1.0,
              "GCEOGBJIFCP": 0.0
            }
          ],
          "MINFJCDAIBB": [
            {
              "$type": "MoleMole.Config.AddGlobalValue",
              "canBeHandledOnRecover": true,
              "value": -10.0,
              "key": "_EREMITE_DANCER_OPEN_WEAPONEFFECT_",
              "HPICGAMGEGA": true,
              "maxValue": 1.0,
              "GCEOGBJIFCP": 0.0
            }
          ],
          "MHBHKCIDGEP": [
            {
              "$type": "MoleMole.Config.AddGlobalValue",
              "canBeHandledOnRecover": true,
              "value": -10.0,
              "key": "_EREMITE_DANCER_OPEN_WEAPONEFFECT_",
              "HPICGAMGEGA": true,
              "maxValue": 1.0,
              "GCEOGBJIFCP": 0.0
            }
          ]
        }
      },
      "OAOGLLGGJPD": [
        {
          "$type": "MoleMole.Config.SetGlobalValue",
          "value": 0.0,
          "key": "_EREMITE_DANCER_OPEN_WEAPONEFFECT_",
          "HPICGAMGEGA": true,
          "maxValue": 1.0,
          "GCEOGBJIFCP": 0.0
        }
      ],
      "EIIHGJGFDHC": [
        {
          "$type": "MoleMole.Config.AttachModifier",
          "modifierName": "UNIQUE_Eremite_Dancer_WeaponEffect"
        }
      ]
    }
  },
  {
    "Default": {
      "$type": "MoleMole.Config.GNKCLKNDOAK",
      "abilityName": "Monster_Eremite_Female_Standard_Dancer_WeaponEffect_Close",
      "PIDAPNFJNDF": [
        {
          "$type": "MoleMole.Config.AttachToStateIDMixin",
          "stateIDs": [
            "NormalAttack01",
            "NormalAttack01_01",
            "NormalAttack01_02",
            "BlinkAttack01"
          ],
          "modifierName": "Remove_WeaponEffect",
          "MJFJKAHGHDJ": ""
        }
      ],
      "BFBDNNJCDLH": {
        "Remove_WeaponEffect": {
          "modifierName": "",
          "elementDurability": 100.0,
          "MINFJCDAIBB": [
            {
              "$type": "MoleMole.Config.RemoveUniqueModifier",
              "modifierName": "UNIQUE_Eremite_Dancer_WeaponEffect"
            }
          ]
        }
      },
      "EIIHGJGFDHC": [
        {
          "$type": "MoleMole.Config.AddGlobalValue",
          "value": -10.0,
          "key": "_EREMITE_DANCER_OPEN_WEAPONEFFECT_",
          "HPICGAMGEGA": true,
          "maxValue": 1.0,
          "GCEOGBJIFCP": 0.0
        }
      ]
    }
  },
  {
    "Default": {
      "$type": "MoleMole.Config.GNKCLKNDOAK",
      "abilityName": "Monster_Eremite_Female_Standard_Dancer_RangeAttack01",
      "EIIHGJGFDHC": [
        {
          "$type": "MoleMole.Config.TriggerBullet",
          "DCNFGAGBCMP": 42560001,
          "born": {
            "$type": "KPFCCIOJAMK",
            "offset": {
              "GOAPOLCAJBP": 0.6019999980926514,
              "FMOPCJGGFMH": 1.430999994277954,
              "EJJEPFCDDAM": 0.0
            },
            "direction": {
              "$type": "LIHFBAPJMCK",
              "angleOffset": {
                "GOAPOLCAJBP": 0.0,
                "FMOPCJGGFMH": 0.0,
                "EJJEPFCDDAM": 0.0
              }
            },
            "useRotation": true
          },
          "DGEKFHHECPG": "Self",
          "ACNKPHHONBO": true
        },
        {
          "$type": "MoleMole.Config.TriggerAbility",
          "abilityName": "Monster_Eremite_Female_Standard_Dancer_WeaponHide"
        }
      ]
    }
  },
  {
    "Default": {
      "$type": "MoleMole.Config.GNKCLKNDOAK",
      "abilityName": "Monster_Eremite_Female_Standard_Dancer_BoomerangLogic",
      "BFBDNNJCDLH": {
        "UNIQUE_Eremite_Female_Standard_Dancer_Boomerang_Effect": {
          "EODJPKICNGG": "Unique",
          "modifierName": "",
          "LLIJGLMEHFK": true,
          "elementDurability": 100.0,
          "OAOGLLGGJPD": [
            {
              "$type": "MoleMole.Config.AttachEffect",
              "effectPattern": "Eff_Monster_Eremite_Female_Standard_Dancer_Grass_Boomerang_Bullet",
              "effectTempleteID": -1.0
            }
          ]
        },
        "Bullet_Move_Handler": {
          "EODJPKICNGG": "Unique",
          "modifierName": "",
          "duration": 0.75,
          "elementDurability": 100.0,
          "MINFJCDAIBB": [
            {
              "$type": "MoleMole.Config.ApplyModifier",
              "modifierName": "Bullet_Move_Angle_Handler_Pt1"
            }
          ]
        },
        "Bullet_Move_Angle_Handler_Pt1": {
          "EODJPKICNGG": "Unique",
          "modifierName": "",
          "duration": 0.8500000238418579,
          "elementDurability": 100.0,
          "EPKCPIKGJOJ": {
            "Actor_BulletMoveAngularVelocityRatio": 1800.0
          }
        }
      },
      "OAOGLLGGJPD": [
        {
          "$type": "MoleMole.Config.AttachModifier",
          "modifierName": "UNIQUE_Eremite_Female_Standard_Dancer_Boomerang_Effect"
        },
        {
          "$type": "MoleMole.Config.ApplyModifier",
          "modifierName": "Bullet_Move_Handler"
        }
      ],
      "EIIHGJGFDHC": [
        {
          "$type": "MoleMole.Config.TriggerAttackEvent",
          "attackEvent": {
            "attackPattern": {
              "$type": "IJCIPLFIDAK",
              "triggerType": "TriggerAlways",
              "born": {
                "$type": "AGPIGGAPILF",
                "offset": {
                  "GOAPOLCAJBP": 0.0,
                  "FMOPCJGGFMH": 0.0,
                  "EJJEPFCDDAM": 0.0
                }
              },
              "MFGGJCPPBGA": 0.5
            },
            "attackInfo": {
              "attackTag": "",
              "attenuationTag": "Eremite_Dancer_BoomerangBullet",
              "attenuationGroup": "Eremite_Dancer_BoomerangBullet",
              "attackProperty": {
                "JMLMDDCBIAO": 0.800000011920929,
                "damagePercentageRatio": 0.0,
                "elementType": "Grass",
                "elementDurability": 25.0,
                "strikeType": "Pierce",
                "enBreak": 100.0,
                "damagePercentage": 0.0
              },
              "hitPattern": {
                "onHitEffectName": "default",
                "hitImpulseY": "",
                "hitImpulseType": "LV3"
              },
              "canBeModifiedBy": "OriginOwner"
            }
          },
          "targetType": "Enemy"
        }
      ],
      "DOFDCKKDGHL": [
        {
          "$type": "MoleMole.Config.RemoveUniqueModifier",
          "modifierName": "UNIQUE_Eremite_Female_Standard_Dancer_Boomerang_Effect"
        }
      ]
    }
  },
  {
    "Default": {
      "$type": "MoleMole.Config.GNKCLKNDOAK",
      "abilityName": "Monster_Eremite_Female_Standard_Dancer_BoomerangLogic_Killed",
      "EIIHGJGFDHC": [
        {
          "$type": "MoleMole.Config.KillGadget",
          "GBDKOCEAFOO": {
            "configID": 42560001
          }
        },
        {
          "$type": "MoleMole.Config.TriggerAbility",
          "abilityName": "Monster_Eremite_Female_Standard_Dancer_WeaponUnHide"
        }
      ]
    }
  },
  {
    "Default": {
      "$type": "MoleMole.Config.GNKCLKNDOAK",
      "abilityName": "Monster_Eremite_Female_Standard_Dancer_TriggerWheelSurround",
      "BFBDNNJCDLH": {
        "Monster_Eremite_Female_Standard_Dancer_WheelSurround_Trigger": {
          "modifierName": "",
          "duration": 1.0,
          "elementDurability": 100.0,
          "OAOGLLGGJPD": [
            {
              "$type": "MoleMole.Config.TriggerBullet",
              "DCNFGAGBCMP": 42560002,
              "born": {
                "$type": "INKMBJGOPCK",
                "offset": {
                  "GOAPOLCAJBP": 2.5,
                  "FMOPCJGGFMH": 1.0,
                  "EJJEPFCDDAM": 0.0
                },
                "direction": {
                  "$type": "KODKPEPMJJL",
                  "angleOffset": {
                    "GOAPOLCAJBP": 0.0,
                    "FMOPCJGGFMH": 90.0,
                    "EJJEPFCDDAM": 0.0
                  },
                  "namedTransform": ""
                }
              },
              "DGEKFHHECPG": "Self",
              "ACNKPHHONBO": true
            },
            {
              "$type": "MoleMole.Config.TriggerBullet",
              "DCNFGAGBCMP": 42560002,
              "born": {
                "$type": "INKMBJGOPCK",
                "offset": {
                  "GOAPOLCAJBP": -2.5,
                  "FMOPCJGGFMH": 1.0,
                  "EJJEPFCDDAM": 0.0
                },
                "direction": {
                  "$type": "KODKPEPMJJL",
                  "angleOffset": {
                    "GOAPOLCAJBP": 0.0,
                    "FMOPCJGGFMH": 90.0,
                    "EJJEPFCDDAM": 0.0
                  },
                  "namedTransform": ""
                }
              },
              "DGEKFHHECPG": "Self",
              "ACNKPHHONBO": true
            }
          ]
        },
        "Kill_WheelSurround": {
          "modifierName": "",
          "elementDurability": 100.0
        }
      },
      "EIIHGJGFDHC": [
        {
          "$type": "MoleMole.Config.ApplyModifier",
          "modifierName": "Monster_Eremite_Female_Standard_Dancer_WheelSurround_Trigger"
        },
        {
          "$type": "MoleMole.Config.TriggerAbility",
          "abilityName": "Monster_Eremite_Female_Standard_Dancer_WeaponHide"
        }
      ]
    }
  },
  {
    "Default": {
      "$type": "MoleMole.Config.GNKCLKNDOAK",
      "abilityName": "Monster_Eremite_Female_Standard_Dancer_WheelSurround",
      "PIDAPNFJNDF": [
        {
          "$type": "MoleMole.Config.AttachModifierToGlobalValueMixin",
          "KAPNONCKOJH": "OriginOwner",
          "globalValueKey": "_WHEELSURROUND_VISIABLE_",
          "FJEPHJNDEAI": [
            -0.5,
            0.5,
            1.5
          ],
          "IJEPHCMOAPE": [
            "Blank",
            "Kill_WheelSurround"
          ]
        }
      ],
      "BFBDNNJCDLH": {
        "UNIQUE_Monster_Eremite_Female_Standard_Dancer_WheelSurround": {
          "EODJPKICNGG": "Unique",
          "modifierName": "",
          "LLIJGLMEHFK": true,
          "elementDurability": 100.0,
          "OAOGLLGGJPD": [
            {
              "$type": "MoleMole.Config.AttachEffect",
              "effectPattern": "Eff_Monster_Eremite_Female_Standard_Dancer_Grass_WheelSurround_Bullet",
              "effectTempleteID": -1.0
            }
          ],
          "MINFJCDAIBB": [
            {
              "$type": "MoleMole.Config.AttachEffect",
              "effectPattern": "Eff_Monster_Eremite_Female_Standard_Dancer_Grass_WheelSurround_Bullet_AS",
              "effectTempleteID": -1.0
            }
          ]
        },
        "Empty": {
          "modifierName": "",
          "elementDurability": 100.0
        },
        "Kill_WheelSurround": {
          "modifierName": "",
          "elementDurability": 100.0,
          "OAOGLLGGJPD": [
            {
              "$type": "MoleMole.Config.RemoveUniqueModifier",
              "modifierName": "UNIQUE_Monster_Eremite_Female_Standard_Dancer_WheelSurround"
            },
            {
              "$type": "MoleMole.Config.EnableBulletCollisionPluginTrigger"
            },
            {
              "$type": "MoleMole.Config.KillSelf"
            }
          ]
        }
      },
      "OAOGLLGGJPD": [
        {
          "$type": "MoleMole.Config.AttachModifier",
          "modifierName": "UNIQUE_Monster_Eremite_Female_Standard_Dancer_WheelSurround"
        }
      ],
      "EIIHGJGFDHC": [
        {
          "$type": "MoleMole.Config.TriggerAttackEvent",
          "attackEvent": {
            "attackPattern": {
              "$type": "IJCIPLFIDAK",
              "triggerType": "TriggerAlways",
              "born": {
                "$type": "AGPIGGAPILF",
                "offset": {
                  "GOAPOLCAJBP": 0.0,
                  "FMOPCJGGFMH": 0.0,
                  "EJJEPFCDDAM": 0.0
                }
              },
              "MFGGJCPPBGA": 0.5
            },
            "attackInfo": {
              "attackTag": "",
              "attenuationTag": "Skirmisher_Fat_SprayGun_Ice",
              "attenuationGroup": "Skirmisher_Fat_SprayGun_Ice",
              "attackProperty": {
                "JMLMDDCBIAO": 0.3499999940395355,
                "damagePercentageRatio": 0.0,
                "elementType": "Grass",
                "elementDurability": 25.0,
                "strikeType": "Slash",
                "enBreak": 100.0,
                "attackType": "Range",
                "damagePercentage": 0.0
              },
              "hitPattern": {
                "onHitEffectName": "default",
                "hitImpulseY": "",
                "hitImpulseType": "LV2",
                "hitHaltTimeScale": 0.05000000074505806
              },
              "canBeModifiedBy": "OriginOwner"
            }
          },
          "targetType": "Enemy"
        }
      ]
    }
  },
  {
    "Default": {
      "$type": "MoleMole.Config.GNKCLKNDOAK",
      "abilityName": "Monster_Eremite_Female_Standard_Dancer_WheelSurround_Killed",
      "PIDAPNFJNDF": [
        {
          "$type": "MoleMole.Config.AttachToStateIDMixin",
          "stateIDs": [
            "RangeAttack01",
            "MeleeAttack01",
            "Blink_RangeAttack01"
          ],
          "modifierName": "Kill_Bullet",
          "MJFJKAHGHDJ": ""
        }
      ],
      "BFBDNNJCDLH": {
        "Kill_WheelSurround": {
          "modifierName": "",
          "duration": 0.6000000238418579,
          "elementDurability": 100.0,
          "OAOGLLGGJPD": [
            {
              "$type": "MoleMole.Config.RemoveUniqueModifier",
              "otherTargets": {
                "$type": "DMGCADBNILM",
                "configID": 42560002
              },
              "modifierName": "UNIQUE_Monster_Eremite_Female_Standard_Dancer_WheelSurround"
            },
            {
              "$type": "MoleMole.Config.EnableBulletCollisionPluginTrigger",
              "otherTargets": {
                "$type": "DMGCADBNILM",
                "configID": 42560002
              }
            }
          ],
          "MINFJCDAIBB": [
            {
              "$type": "MoleMole.Config.KillGadget",
              "GBDKOCEAFOO": {
                "configID": 42560002
              }
            }
          ]
        },
        "Kill_Bullet": {
          "modifierName": "",
          "elementDurability": 100.0,
          "OAOGLLGGJPD": [
            {
              "$type": "MoleMole.Config.SetGlobalValue",
              "value": 0.0,
              "key": "_WHEELSURROUND_VISIABLE_",
              "maxValue": 0.0,
              "GCEOGBJIFCP": 0.0
            }
          ],
          "MINFJCDAIBB": [
            {
              "$type": "MoleMole.Config.ApplyModifier",
              "otherTargets": {
                "$type": "DMGCADBNILM",
                "configID": 42560001
              },
              "modifierName": "Killself"
            },
            {
              "$type": "MoleMole.Config.SetGlobalValue",
              "value": 1.0,
              "key": "_WHEELSURROUND_VISIABLE_",
              "maxValue": 0.0,
              "GCEOGBJIFCP": 0.0
            }
          ],
          "DOFDCKKDGHL": [
            {
              "$type": "MoleMole.Config.SetGlobalValue",
              "value": 1.0,
              "key": "_WHEELSURROUND_VISIABLE_",
              "maxValue": 0.0,
              "GCEOGBJIFCP": 0.0
            }
          ]
        },
        "Killself": {
          "modifierName": "",
          "duration": 1.0,
          "elementDurability": 100.0,
          "OAOGLLGGJPD": [
            {
              "$type": "MoleMole.Config.KillSelf",
              "KDGBDGHPFAE": [
                42560001
              ]
            }
          ]
        }
      },
      "EIIHGJGFDHC": [
        {
          "$type": "MoleMole.Config.ApplyModifier",
          "modifierName": "Kill_WheelSurround"
        },
        {
          "$type": "MoleMole.Config.TriggerAbility",
          "abilityName": "Monster_Eremite_Female_Standard_Dancer_WeaponUnHide"
        }
      ],
      "DOFDCKKDGHL": [
        {
          "$type": "MoleMole.Config.RemoveUniqueModifier",
          "otherTargets": {
            "$type": "DMGCADBNILM",
            "configID": 42560002
          },
          "modifierName": "UNIQUE_Monster_Eremite_Female_Standard_Dancer_WheelSurround"
        }
      ]
    }
  },
  {
    "Default": {
      "$type": "MoleMole.Config.GNKCLKNDOAK",
      "abilityName": "Monster_Eremite_Female_Standard_Dancer_TrapAlert",
      "PIDAPNFJNDF": [
        {
          "$type": "MoleMole.Config.AttachToStateIDMixin",
          "stateIDs": [
            "ComboAttack01"
          ],
          "modifierName": "Kill_Gadget",
          "MJFJKAHGHDJ": ""
        }
      ],
      "BFBDNNJCDLH": {
        "Monster_Eremite_Female_Standard_Dancer_Wheel_BS": {
          "modifierName": "",
          "duration": 0.5,
          "elementDurability": 100.0,
          "OAOGLLGGJPD": [
            {
              "$type": "MoleMole.Config.SetGlobalPos",
              "MLDBFKEGPEF": "SelfAttackTarget",
              "key": "_EREMITE_DANCER_TRAP_POS_",
              "CIGMKELFHHB": false
            },
            {
              "$type": "MoleMole.Config.FireEffect",
              "effectPattern": "Eff_Monster_Eremite_Female_Standard_Dancer_Grass_ComboAttack01_Wheel_Alert",
              "born": {
                "$type": "IPPOJFGKJFD",
                "onGround": true,
                "CINDHKBGJMG": "_EREMITE_DANCER_TRAP_POS_",
                "DLKPHEEBIKB": ""
              },
              "effectTempleteID": -1.0
            },
            {
              "$type": "MoleMole.Config.ApplyModifier",
              "modifierName": "Monster_Eremite_Female_Standard_Dancer_Trap"
            }
          ]
        },
        "Monster_Eremite_Female_Standard_Dancer_Trap": {
          "modifierName": "",
          "duration": 1.5,
          "elementDurability": 100.0,
          "MINFJCDAIBB": [
            {
              "$type": "MoleMole.Config.CreateGadget",
              "born": {
                "$type": "IPPOJFGKJFD",
                "onGround": true,
                "CINDHKBGJMG": "_EREMITE_DANCER_TRAP_POS_",
                "DLKPHEEBIKB": ""
              },
              "ACNKPHHONBO": true,
              "gadgetID": 42560003,
              "campID": 4001
            }
          ]
        },
        "Kill_Gadget": {
          "modifierName": "",
          "elementDurability": 100.0,
          "MINFJCDAIBB": [
            {
              "$type": "MoleMole.Config.ApplyModifier",
              "otherTargets": {
                "$type": "DMGCADBNILM",
                "configID": 42560003
              },
              "modifierName": "Kill_Self"
            }
          ],
          "MHBHKCIDGEP": [
            {
              "$type": "MoleMole.Config.ApplyModifier",
              "otherTargets": {
                "$type": "DMGCADBNILM",
                "configID": 42560003
              },
              "modifierName": "Kill_Self"
            }
          ]
        },
        "Kill_Self": {
          "modifierName": "",
          "duration": 1.0,
          "elementDurability": 100.0,
          "OAOGLLGGJPD": [
            {
              "$type": "MoleMole.Config.KillSelf",
              "KDGBDGHPFAE": [
                42560003
              ]
            }
          ]
        }
      },
      "EIIHGJGFDHC": [
        {
          "$type": "MoleMole.Config.ApplyModifier",
          "modifierName": "Monster_Eremite_Female_Standard_Dancer_Wheel_BS"
        }
      ]
    }
  },
  {
    "Default": {
      "$type": "MoleMole.Config.GNKCLKNDOAK",
      "abilityName": "Monster_Eremite_Female_Standard_Dancer_Trap",
      "BFBDNNJCDLH": {
        "Monster_Eremite_Female_Standard_Dancer_Trap": {
          "modifierName": "",
          "duration": 0.10000000149011612,
          "elementDurability": 100.0,
          "OAOGLLGGJPD": [
            {
              "$type": "MoleMole.Config.FireEffect",
              "effectPattern": "Eff_Monster_Eremite_Female_Standard_Dancer_Grass_ComboAttack01_Wheel",
              "born": {
                "$type": "IPPOJFGKJFD",
                "onGround": true,
                "CINDHKBGJMG": "_EREMITE_DANCER_TRAP_POS_",
                "DLKPHEEBIKB": ""
              },
              "effectTempleteID": -1.0
            },
            {
              "$type": "MoleMole.Config.EnablePushColliderName",
              "DOFAFEMMILL": [
                "Collider"
              ]
            }
          ],
          "MINFJCDAIBB": [
            {
              "$type": "MoleMole.Config.EnablePushColliderName",
              "DOFAFEMMILL": [
                "Collider"
              ],
              "NJKBCLADIBK": true
            },
            {
              "$type": "MoleMole.Config.ApplyModifier",
              "modifierName": "Monster_Eremite_Female_Standard_Dancer_Trap_End"
            }
          ]
        },
        "Monster_Eremite_Female_Standard_Dancer_Trap_End": {
          "modifierName": "",
          "duration": 2.0,
          "elementDurability": 100.0,
          "MINFJCDAIBB": [
            {
              "$type": "MoleMole.Config.EnablePushColliderName",
              "DOFAFEMMILL": [
                "Collider"
              ]
            },
            {
              "$type": "MoleMole.Config.KillSelf"
            }
          ]
        }
      },
      "OAOGLLGGJPD": [
        {
          "$type": "MoleMole.Config.ApplyModifier",
          "modifierName": "Monster_Eremite_Female_Standard_Dancer_Trap"
        }
      ]
    }
  }
]