[
  {
    "Default": {
      "$type": "MoleMole.Config.GNKCLKNDOAK",
      "abilityName": "FauneAbyssale_Universal_UnderwaterSettings",
      "PIDAPNFJNDF": [
        {
          "$type": "MoleMole.Config.ApplyCollisionMixin",
          "GAKAFILPLHE": [
            "MoveCollider"
          ]
        }
      ],
      "OAOGLLGGJPD": [
        {
          "$type": "MoleMole.Config.SetGlobalValue",
          "value": 2.0,
          "key": "GV_EnvironmentType",
          "maxValue": 0.0,
          "GCEOGBJIFCP": 0.0
        }
      ]
    }
  },
  {
    "Default": {
      "$type": "MoleMole.Config.GNKCLKNDOAK",
      "abilityName": "FauneAbyssale_Universal_AbilityAnimal",
      "BFBDNNJCDLH": {
        "AbilityAnimal_Logic_Handler": {
          "modifierName": "",
          "elementDurability": 100.0,
          "JPIFFPJJEMK": [
            {
              "$type": "MoleMole.Config.AttachModifierToSelfGlobalValueMixin",
              "globalValueKey": "ABILITY_ANIMAL_CAN_BE_ABSORBED",
              "KADKJMOFOLI": 1.0,
              "FJEPHJNDEAI": [
                -0.5,
                0.5,
                1.5
              ],
              "IJEPHCMOAPE": [
                "AbilityAnimal_Cooldown",
                "AbilityAnimal_CanBeAbsorbed"
              ]
            }
          ],
          "state": "LockHP",
          "OAOGLLGGJPD": [
            {
              "$type": "MoleMole.Config.AttachAbilityStateResistance",
              "HKHLMLCHLCF": [
                "ElementPetrifaction",
                "ElementFreeze"
              ]
            },
            {
              "$type": "MoleMole.Config.ResetAIThreatBroadcastRange",
              "range": 0.0
            },
            {
              "$type": "MoleMole.Config.ResetAIResistTauntLevel",
              "NACONEDIMJH": "Monster_TauntLevel_6"
            },
            {
              "$type": "MoleMole.Config.SetAIHitFeeling"
            },
            {
              "$type": "MoleMole.Config.HideUIBillBoard",
              "hide": true
            }
          ]
        },
        "AbilityAnimal_CanBeAbsorbed": {
          "modifierName": "",
          "elementDurability": 100.0,
          "OAOGLLGGJPD": [
            {
              "$type": "MoleMole.Config.ChangeTag",
              "BMHGAAIEHDH": true,
              "tag": "FauneAbyssale_AbilityAnimal"
            }
          ],
          "MINFJCDAIBB": [
            {
              "$type": "MoleMole.Config.SetAnimatorTrigger",
              "triggerID": "BeAbsorbed",
              "HLKBAOMMIGG": true
            }
          ]
        },
        "AbilityAnimal_Cooldown": {
          "modifierName": "",
          "elementDurability": 100.0,
          "BNJENAIMDPL": 5.0,
          "JPIFFPJJEMK": [
            {
              "$type": "MoleMole.Config.ChangeLockTypeMixin",
              "lockType": "Default",
              "overrideRange": 0.009999999776482582,
              "overrideNormalPri": 0.0,
              "overrideCombatPri": 0.0
            }
          ],
          "OAOGLLGGJPD": [
            {
              "$type": "MoleMole.Config.ChangeTag",
              "tag": "FauneAbyssale_AbilityAnimal"
            }
          ],
          "PJKELBNICOI": [
            {
              "$type": "MoleMole.Config.SetGlobalValue",
              "predicates": [
                {
                  "$type": "IPGGGPIJONN",
                  "MLDBFKEGPEF": "Self",
                  "key": "ABILITY_ANIMAL_SUPPRESSOR",
                  "value": 0.0,
                  "compareType": "NoneOrEqual"
                }
              ],
              "value": 1.0,
              "key": "ABILITY_ANIMAL_CAN_BE_ABSORBED",
              "maxValue": 0.0,
              "GCEOGBJIFCP": 0.0
            }
          ]
        }
      },
      "OAOGLLGGJPD": [
        {
          "$type": "MoleMole.Config.ApplyModifier",
          "modifierName": "AbilityAnimal_Logic_Handler"
        }
      ]
    }
  },
  {
    "Default": {
      "$type": "MoleMole.Config.GNKCLKNDOAK",
      "abilityName": "FauneAbyssale_Universal_AbilityAnimal_Suppressor",
      "OAOGLLGGJPD": [
        {
          "$type": "MoleMole.Config.SetGlobalValue",
          "value": 0.0,
          "key": "ABILITY_ANIMAL_CAN_BE_ABSORBED",
          "maxValue": 0.0,
          "GCEOGBJIFCP": 0.0
        },
        {
          "$type": "MoleMole.Config.SetGlobalValue",
          "value": 1.0,
          "key": "ABILITY_ANIMAL_SUPPRESSOR",
          "maxValue": 0.0,
          "GCEOGBJIFCP": 0.0
        }
      ],
      "LLNGCHGGPLC": true
    }
  },
  {
    "Default": {
      "$type": "MoleMole.Config.GNKCLKNDOAK",
      "abilityName": "FauneAbyssale_ResetPoseParam",
      "PIDAPNFJNDF": [
        {
          "$type": "MoleMole.Config.DoActionByPoseIDMixin",
          "LEPKMNMJJHJ": [
            101
          ],
          "GEDBCEGNPPO": [
            {
              "$type": "MoleMole.Config.SetPoseBool",
              "KIAGMJMPHPG": "DisableWhenReturnToBorn"
            }
          ]
        }
      ]
    }
  },
  {
    "Default": {
      "$type": "MoleMole.Config.GNKCLKNDOAK",
      "abilityName": "FauneAbyssale_Universal_AbilityAnimal_MantaRay",
      "BFBDNNJCDLH": {
        "AbilityAnimal_MantaRay_VFX_Manager": {
          "modifierName": "",
          "elementDurability": 100.0,
          "JPIFFPJJEMK": [
            {
              "$type": "MoleMole.Config.AttachModifierToGlobalValueMixin",
              "globalValueKey": "ABILITY_ANIMAL_CAN_BE_ABSORBED",
              "FJEPHJNDEAI": [
                -0.5,
                0.5,
                1.5
              ],
              "IJEPHCMOAPE": [
                "AbilityAnimal_Cooldown_VFX",
                "AbilityAnimal_CanBeAbsorbed_VFX"
              ]
            }
          ],
          "OAOGLLGGJPD": [
            {
              "$type": "MoleMole.Config.AttachEffect",
              "effectPattern": "Eff_Monster_FauneAbyssale_MantaRay_AbilityAnimal_HeadMark",
              "effectTempleteID": -1.0
            }
          ]
        },
        "AbilityAnimal_CanBeAbsorbed_VFX": {
          "modifierName": "",
          "elementDurability": 100.0,
          "OAOGLLGGJPD": [
            {
              "$type": "MoleMole.Config.AttachEffect",
              "effectPattern": "Eff_Monster_FauneAbyssale_MantaRay_Larva_Absorbable",
              "effectTempleteID": -1.0
            }
          ]
        },
        "AbilityAnimal_Cooldown_VFX": {
          "modifierName": "",
          "elementDurability": 100.0
        }
      },
      "OAOGLLGGJPD": [
        {
          "$type": "MoleMole.Config.ApplyModifier",
          "modifierName": "AbilityAnimal_MantaRay_VFX_Manager"
        }
      ]
    }
  },
  {
    "Default": {
      "$type": "MoleMole.Config.GNKCLKNDOAK",
      "abilityName": "FauneAbyssale_Universal_AbilityAnimal_HermitCrab",
      "BFBDNNJCDLH": {
        "AbilityAnimal_MantaRay_VFX_Manager": {
          "modifierName": "",
          "elementDurability": 100.0,
          "JPIFFPJJEMK": [
            {
              "$type": "MoleMole.Config.AttachModifierToGlobalValueMixin",
              "globalValueKey": "ABILITY_ANIMAL_CAN_BE_ABSORBED",
              "FJEPHJNDEAI": [
                -0.5,
                0.5,
                1.5
              ],
              "IJEPHCMOAPE": [
                "AbilityAnimal_Cooldown_VFX",
                "AbilityAnimal_CanBeAbsorbed_VFX"
              ]
            }
          ],
          "OAOGLLGGJPD": [
            {
              "$type": "MoleMole.Config.AttachEffect",
              "effectPattern": "Eff_Monster_FauneAbyssale_HermitCrab_AbilityAnimal_HeadMark",
              "effectTempleteID": -1.0
            }
          ]
        },
        "AbilityAnimal_CanBeAbsorbed_VFX": {
          "modifierName": "",
          "elementDurability": 100.0,
          "OAOGLLGGJPD": [
            {
              "$type": "MoleMole.Config.AttachEffect",
              "effectPattern": "Eff_Monster_FauneAbyssale_HermitCrab_Larva_Absorbable",
              "effectTempleteID": -1.0
            }
          ]
        },
        "AbilityAnimal_Cooldown_VFX": {
          "modifierName": "",
          "elementDurability": 100.0
        }
      },
      "OAOGLLGGJPD": [
        {
          "$type": "MoleMole.Config.ApplyModifier",
          "modifierName": "AbilityAnimal_MantaRay_VFX_Manager"
        }
      ]
    }
  },
  {
    "Default": {
      "$type": "MoleMole.Config.GNKCLKNDOAK",
      "abilityName": "FauneAbyssale_Universal_AbilityAnimal_Seal",
      "BFBDNNJCDLH": {
        "AbilityAnimal_MantaRay_VFX_Manager": {
          "modifierName": "",
          "elementDurability": 100.0,
          "JPIFFPJJEMK": [
            {
              "$type": "MoleMole.Config.AttachModifierToGlobalValueMixin",
              "globalValueKey": "ABILITY_ANIMAL_CAN_BE_ABSORBED",
              "FJEPHJNDEAI": [
                -0.5,
                0.5,
                1.5
              ],
              "IJEPHCMOAPE": [
                "AbilityAnimal_Cooldown_VFX",
                "AbilityAnimal_CanBeAbsorbed_VFX"
              ]
            }
          ],
          "OAOGLLGGJPD": [
            {
              "$type": "MoleMole.Config.AttachEffect",
              "effectPattern": "Eff_Monster_FauneAbyssale_Seal_AbilityAnimal_HeadMark",
              "effectTempleteID": -1.0
            }
          ]
        },
        "AbilityAnimal_CanBeAbsorbed_VFX": {
          "modifierName": "",
          "elementDurability": 100.0,
          "OAOGLLGGJPD": [
            {
              "$type": "MoleMole.Config.AttachEffect",
              "effectPattern": "Eff_Monster_FauneAbyssale_Seal_Larva_Absorbable",
              "effectTempleteID": -1.0
            }
          ]
        },
        "AbilityAnimal_Cooldown_VFX": {
          "modifierName": "",
          "elementDurability": 100.0
        }
      },
      "OAOGLLGGJPD": [
        {
          "$type": "MoleMole.Config.ApplyModifier",
          "modifierName": "AbilityAnimal_MantaRay_VFX_Manager"
        }
      ]
    }
  },
  {
    "Default": {
      "$type": "MoleMole.Config.GNKCLKNDOAK",
      "abilityName": "FauneAbyssale_Universal_AbilityAnimal_JellyFish",
      "BFBDNNJCDLH": {
        "AbilityAnimal_MantaRay_VFX_Manager": {
          "modifierName": "",
          "elementDurability": 100.0,
          "JPIFFPJJEMK": [
            {
              "$type": "MoleMole.Config.AttachModifierToGlobalValueMixin",
              "globalValueKey": "ABILITY_ANIMAL_CAN_BE_ABSORBED",
              "FJEPHJNDEAI": [
                -0.5,
                0.5,
                1.5
              ],
              "IJEPHCMOAPE": [
                "AbilityAnimal_Cooldown_VFX",
                "AbilityAnimal_CanBeAbsorbed_VFX"
              ]
            }
          ],
          "OAOGLLGGJPD": [
            {
              "$type": "MoleMole.Config.AttachEffect",
              "effectPattern": "Eff_Monster_FauneAbyssale_JellyFish_AbilityAnimal_HeadMark",
              "effectTempleteID": -1.0
            }
          ]
        },
        "AbilityAnimal_CanBeAbsorbed_VFX": {
          "modifierName": "",
          "elementDurability": 100.0,
          "OAOGLLGGJPD": [
            {
              "$type": "MoleMole.Config.AttachEffect",
              "effectPattern": "Eff_Monster_FauneAbyssale_JellyFish_Larva_Absorbable",
              "effectTempleteID": -1.0
            }
          ]
        },
        "AbilityAnimal_Cooldown_VFX": {
          "modifierName": "",
          "elementDurability": 100.0
        }
      },
      "OAOGLLGGJPD": [
        {
          "$type": "MoleMole.Config.ApplyModifier",
          "modifierName": "AbilityAnimal_MantaRay_VFX_Manager"
        }
      ]
    }
  },
  {
    "Default": {
      "$type": "MoleMole.Config.GNKCLKNDOAK",
      "abilityName": "FauneAbyssale_Universal_AbilityAnimal_Octopus",
      "BFBDNNJCDLH": {
        "AbilityAnimal_MantaRay_VFX_Manager": {
          "modifierName": "",
          "elementDurability": 100.0,
          "JPIFFPJJEMK": [
            {
              "$type": "MoleMole.Config.AttachModifierToGlobalValueMixin",
              "globalValueKey": "ABILITY_ANIMAL_CAN_BE_ABSORBED",
              "FJEPHJNDEAI": [
                -0.5,
                0.5,
                1.5
              ],
              "IJEPHCMOAPE": [
                "AbilityAnimal_Cooldown_VFX",
                "AbilityAnimal_CanBeAbsorbed_VFX"
              ]
            }
          ],
          "OAOGLLGGJPD": [
            {
              "$type": "MoleMole.Config.AttachEffect",
              "effectPattern": "Eff_Monster_FauneAbyssale_Octopus_AbilityAnimal_HeadMark",
              "effectTempleteID": -1.0
            }
          ]
        },
        "AbilityAnimal_CanBeAbsorbed_VFX": {
          "modifierName": "",
          "elementDurability": 100.0,
          "OAOGLLGGJPD": [
            {
              "$type": "MoleMole.Config.AttachEffect",
              "effectPattern": "Eff_Monster_FauneAbyssale_Octopus_Larva_Absorbable",
              "effectTempleteID": -1.0
            }
          ]
        },
        "AbilityAnimal_Cooldown_VFX": {
          "modifierName": "",
          "elementDurability": 100.0
        }
      },
      "OAOGLLGGJPD": [
        {
          "$type": "MoleMole.Config.ApplyModifier",
          "modifierName": "AbilityAnimal_MantaRay_VFX_Manager"
        }
      ]
    }
  },
  {
    "Default": {
      "$type": "MoleMole.Config.GNKCLKNDOAK",
      "abilityName": "FauneAbyssale_Universal_DisableMoveCollider",
      "BFBDNNJCDLH": {
        "FauneAbyssale_Universal_DisableMoveCollider": {
          "modifierName": "",
          "elementDurability": 100.0,
          "OAOGLLGGJPD": [
            {
              "$type": "MoleMole.Config.EnablePushColliderName",
              "DOFAFEMMILL": [
                "MoveCollider"
              ]
            }
          ]
        }
      },
      "OAOGLLGGJPD": [
        {
          "$type": "MoleMole.Config.ApplyModifier",
          "modifierName": "FauneAbyssale_Universal_DisableMoveCollider"
        }
      ]
    }
  },
  {
    "Default": {
      "$type": "MoleMole.Config.GNKCLKNDOAK",
      "abilityName": "FauneAbyssale_Universal_EnableMoveCollider",
      "BFBDNNJCDLH": {
        "FauneAbyssale_Universal_EnableMoveCollider": {
          "modifierName": "",
          "elementDurability": 100.0,
          "OAOGLLGGJPD": [
            {
              "$type": "MoleMole.Config.EnablePushColliderName",
              "DOFAFEMMILL": [
                "MoveCollider"
              ],
              "NJKBCLADIBK": true
            }
          ]
        }
      },
      "OAOGLLGGJPD": [
        {
          "$type": "MoleMole.Config.ApplyModifier",
          "modifierName": "FauneAbyssale_Universal_EnableMoveCollider"
        }
      ]
    }
  },
  {
    "Default": {
      "$type": "MoleMole.Config.GNKCLKNDOAK",
      "abilityName": "FauneAbyssale_Universal_HideBillBoard",
      "OAOGLLGGJPD": [
        {
          "$type": "MoleMole.Config.HideUIBillBoard",
          "hide": true
        }
      ]
    }
  },
  {
    "Default": {
      "$type": "MoleMole.Config.GNKCLKNDOAK",
      "abilityName": "FauneAbyssale_Universal_Special_Endure",
      "BFBDNNJCDLH": {
        "FauneAbyssale_Universal_Special_Endure": {
          "modifierName": "",
          "elementDurability": 100.0,
          "EPKCPIKGJOJ": {
            "Actor_EndureDelta": 0.0
          }
        }
      },
      "OAOGLLGGJPD": [
        {
          "$type": "MoleMole.Config.ApplyModifier",
          "modifierName": "FauneAbyssale_Universal_Special_Endure"
        }
      ]
    }
  }
]