[
  {
    "Default": {
      "$type": "MoleMole.Config.GNKCLKNDOAK",
      "abilityName": "Monster_Apep_Underling_SeedOfBrahma_SupportAttack",
      "PIDAPNFJNDF": [
        {
          "$type": "MoleMole.Config.RigidBodyFreezeMixin"
        },
        {
          "$type": "MoleMole.Config.AttachToNormalizedTimeMixin",
          "GOPFOAFEKLC": "SupportAttack_BS1",
          "modifierName": "SupportAttack_Impulse01_Start",
          "normalizeStart": 0.6610000133514404,
          "normalizeEnd": 0.800000011920929,
          "MJFJKAHGHDJ": ""
        },
        {
          "$type": "MoleMole.Config.AttachToNormalizedTimeMixin",
          "GOPFOAFEKLC": "SupportAttack_BS1",
          "modifierName": "SupportAttack_Impulse_Start",
          "normalizeStart": 0.7170000076293945,
          "normalizeEnd": 0.800000011920929,
          "MJFJKAHGHDJ": ""
        },
        {
          "$type": "MoleMole.Config.AttachToAnimatorStateIDMixin",
          "stateIDs": [
            "SupportAttack_BS1",
            "SupportAttack_BS2",
            "SupportAttack_Loop"
          ],
          "modifierName": "SupportAttack_TimeRange",
          "MJFJKAHGHDJ": ""
        },
        {
          "$type": "MoleMole.Config.AttachModifierToSelfGlobalValueMixin",
          "globalValueKey": "_SupportAttack_Impulse01_Start",
          "KADKJMOFOLI": 0.0,
          "FJEPHJNDEAI": [
            0.5,
            1.5
          ],
          "IJEPHCMOAPE": [
            "SupportAttack_Impulse01_Eff"
          ]
        },
        {
          "$type": "MoleMole.Config.AttachModifierToSelfGlobalValueMixin",
          "globalValueKey": "_SupportAttack_Impulse_Start",
          "KADKJMOFOLI": 0.0,
          "FJEPHJNDEAI": [
            0.5,
            1.5
          ],
          "IJEPHCMOAPE": [
            "SupportAttack_Impulse_Eff"
          ]
        },
        {
          "$type": "MoleMole.Config.AttachToAnimatorStateIDMixin",
          "stateIDs": [
            "SupportAttack_BS2",
            "SupportAttack_Loop"
          ],
          "modifierName": "SupportAttack_FieldActive",
          "MJFJKAHGHDJ": ""
        },
        {
          "$type": "MoleMole.Config.ServerCreateGadgetOnKillMixin",
          "PJAAJMACOBB": [
            42908208
          ],
          "campID": 4001,
          "FAMCBLCIFCJ": "Enemy"
        }
      ],
      "BFBDNNJCDLH": {
        "SupportAttack_Impulse01_Start": {
          "modifierName": "",
          "elementDurability": 100.0,
          "OAOGLLGGJPD": [
            {
              "$type": "MoleMole.Config.SetGlobalValue",
              "value": 1.0,
              "key": "_SupportAttack_Impulse01_Start",
              "maxValue": 0.0,
              "GCEOGBJIFCP": 0.0
            }
          ]
        },
        "SupportAttack_Impulse_Start": {
          "modifierName": "",
          "elementDurability": 100.0,
          "OAOGLLGGJPD": [
            {
              "$type": "MoleMole.Config.SetGlobalValue",
              "value": 1.0,
              "key": "_SupportAttack_Impulse_Start",
              "maxValue": 0.0,
              "GCEOGBJIFCP": 0.0
            }
          ]
        },
        "SupportAttack_TimeRange": {
          "modifierName": "",
          "elementDurability": 100.0,
          "MINFJCDAIBB": [
            {
              "$type": "MoleMole.Config.SetGlobalValue",
              "value": 0.0,
              "key": "_SupportAttack_Impulse01_Start",
              "maxValue": 0.0,
              "GCEOGBJIFCP": 0.0
            },
            {
              "$type": "MoleMole.Config.SetGlobalValue",
              "predicates": [
                {
                  "$type": "LNHOBEDOKHB",
                  "MLDBFKEGPEF": "Self"
                }
              ],
              "value": 0.0,
              "key": "_SupportAttack_Impulse_Start",
              "maxValue": 0.0,
              "GCEOGBJIFCP": 0.0
            }
          ]
        },
        "SupportAttack_Impulse01_Eff": {
          "modifierName": "",
          "elementDurability": 100.0,
          "OAOGLLGGJPD": [
            {
              "$type": "MoleMole.Config.AttachEffect",
              "effectPattern": "Eff_Monster_Apep_Underling_SeedOfBrahma_Impulse_01",
              "effectTempleteID": -1.0
            }
          ]
        },
        "SupportAttack_Impulse_Eff": {
          "modifierName": "",
          "elementDurability": 100.0,
          "OAOGLLGGJPD": [
            {
              "$type": "MoleMole.Config.AttachEffect",
              "effectPattern": "Eff_Monster_Apep_Underling_SeedOfBrahma_Impulse",
              "effectTempleteID": -1.0
            }
          ],
          "MINFJCDAIBB": [
            {
              "$type": "MoleMole.Config.SendEffectTrigger",
              "parameter": "LoopEnd",
              "attachPoint": "",
              "KPGKDHAFHFE": "Bool",
              "value": 1,
              "effectPattern": "Eff_Monster_Apep_Underling_SeedOfBrahma_Impulse"
            }
          ]
        },
        "SupportAttack_FieldActive": {
          "modifierName": "",
          "elementDurability": 100.0,
          "JPIFFPJJEMK": [
            {
              "$type": "MoleMole.Config.FieldEntityCountChangeMixin",
              "FAMCBLCIFCJ": "Alliance",
              "CKBKOCJPJMM": [
                {
                  "$type": "IPGGGPIJONN",
                  "key": "_MONSTER_Apep_Underling_SeedOfKarna_Tag",
                  "value": 1.0
                }
              ],
              "GGGLNDFDIMI": [
                {
                  "$type": "MoleMole.Config.ApplyModifier",
                  "otherTargets": {
                    "$type": "FFAPAEPLIGM",
                    "FAMCBLCIFCJ": "Alliance"
                  },
                  "modifierName": "UNIQUE_Monster_Apep_Underling_SeedOfBrahma_ChosenOne"
                }
              ],
              "GCBLHJHFDFA": [
                {
                  "$type": "MoleMole.Config.RemoveUniqueModifier",
                  "otherTargets": {
                    "$type": "DOMPKGOHKNB",
                    "shapeName": "CircleR30",
                    "FAMCBLCIFCJ": "Alliance",
                    "CONEFMBNECE": 1.0
                  },
                  "predicates": [
                    {
                      "$type": "BKCFCDOEENL",
                      "value": 10.0,
                      "EGBKHFGDFLF": ""
                    }
                  ],
                  "modifierName": "UNIQUE_Monster_Apep_Underling_SeedOfBrahma_ChosenOne"
                }
              ],
              "LFDBBNOOBNK": "",
              "OAJEDNIMDPL": 0.0,
              "OOIHGGGNFAI": 0.0
            }
          ]
        },
        "UNIQUE_Monster_Apep_Underling_SeedOfBrahma_ChosenOne": {
          "EODJPKICNGG": "Unique",
          "modifierName": "",
          "LLIJGLMEHFK": true,
          "elementDurability": 100.0,
          "OAOGLLGGJPD": [
            {
              "$type": "MoleMole.Config.SetGlobalValue",
              "value": 1.0,
              "key": "_MONSTER_Apep_Underling_SeedOfBrahma_ChosenOne",
              "maxValue": 0.0,
              "GCEOGBJIFCP": 0.0
            }
          ],
          "MINFJCDAIBB": [
            {
              "$type": "MoleMole.Config.SetGlobalValue",
              "value": 0.0,
              "key": "_MONSTER_Apep_Underling_SeedOfBrahma_ChosenOne",
              "maxValue": 0.0,
              "GCEOGBJIFCP": 0.0
            }
          ]
        }
      },
      "DOFDCKKDGHL": [
        {
          "$type": "MoleMole.Config.SendEffectTrigger",
          "parameter": "LoopEnd",
          "attachPoint": "",
          "KPGKDHAFHFE": "Bool",
          "value": 1,
          "effectPattern": "Eff_Monster_Apep_Underling_SeedOfBrahma_Impulse"
        }
      ]
    }
  },
  {
    "Default": {
      "$type": "MoleMole.Config.GNKCLKNDOAK",
      "abilityName": "Apep_Underling_SeedOfBrahma_RemoveShield",
      "OAOGLLGGJPD": [
        {
          "$type": "MoleMole.Config.RemoveUniqueModifier",
          "otherTargets": {
            "$type": "DOMPKGOHKNB",
            "shapeName": "CircleR30",
            "FAMCBLCIFCJ": "Alliance",
            "CONEFMBNECE": 1.0
          },
          "modifierName": "UNIQUE_Monster_Apep_Underling_SeedOfBrahma_ChosenOne"
        },
        {
          "$type": "MoleMole.Config.KillSelf",
          "NCBIBKJDCHI": 2.0
        }
      ]
    }
  }
]