[
  {
    "Default": {
      "$type": "MoleMole.Config.GNKCLKNDOAK",
      "abilityName": "Fungus_BVB_Universal_ElementalBlast_Immediately",
      "PIDAPNFJNDF": [
        {
          "$type": "MoleMole.Config.AttachModifierToGlobalValueMixin",
          "globalValueKey": "SGV_Fungus_StartBurst_Immediately",
          "FJEPHJNDEAI": [
            -0.5,
            0.5,
            1.5
          ],
          "IJEPHCMOAPE": [
            "Dummy1",
            "Reset_GV_State_1"
          ]
        }
      ],
      "BFBDNNJCDLH": {
        "Dummy1": {
          "modifierName": "",
          "elementDurability": 100.0
        },
        "Reset_GV_State_1": {
          "modifierName": "",
          "duration": 0.5,
          "elementDurability": 100.0,
          "OAOGLLGGJPD": [
            {
              "$type": "MoleMole.Config.SetAnimatorTrigger",
              "triggerID": "BurstImmediately"
            },
            {
              "$type": "MoleMole.Config.FireEffect",
              "effectPattern": "Eff_Monster_FungusFight_UnionBurstGlitter",
              "effectTempleteID": -1.0
            }
          ]
        }
      },
      "EIIHGJGFDHC": [
        {
          "$type": "MoleMole.Config.ServerLuaCall",
          "MECCMJIFJKG": "CurGalleryControlGroup",
          "ACMHGHCMOIF": "SLC_MushroomMonsterAlertDoSkill",
          "param1": 0.0,
          "param2": 0.0,
          "GBOGNIOMAGM": 0.0
        }
      ]
    }
  },
  {
    "Default": {
      "$type": "MoleMole.Config.GNKCLKNDOAK",
      "abilityName": "FungusFighter_Universal_LineMixin",
      "PIDAPNFJNDF": [
        {
          "$type": "MoleMole.Config.ActivityFungusV3Mixin",
          "CBJOMKBFHIB": "Eff_Monster_FungusFighterV2_LineToMouse",
          "EBMFIJHAEJM": "Eff_Monster_FungusFighterV2_LineToMouse_Ring",
          "EGLGHMDHPNO": "Eff_Monster_FungusFighterV2_MoveCommand",
          "abilityName": "Fungus_BVB_Universal_ElementalBlast_Immediately",
          "NLECBBGOCEH": "Eff_Monster_FungusFighterV2_SkillRange",
          "DPJBCHNCLKP": "Eff_Monster_FungusFighterV2_Ring",
          "ABPCJEFJPHB": "Eff_Monster_FungusFighterV2_SideArrow",
          "PAEBBFJOEIE": "",
          "HDGANKGPOKN": ""
        }
      ],
      "OAOGLLGGJPD": [
        {
          "$type": "MoleMole.Config.SetGlobalValue",
          "value": 1.0,
          "key": "BATTLE_FUNGUS_MARK",
          "maxValue": 0.0,
          "GCEOGBJIFCP": 0.0
        },
        {
          "$type": "MoleMole.Config.SetAnimatorBool",
          "KIAGMJMPHPG": "IsPartner",
          "value": true
        }
      ]
    }
  },
  {
    "Default": {
      "$type": "MoleMole.Config.GNKCLKNDOAK",
      "abilityName": "Monster_Fungus_Trois_RotationVFX",
      "PIDAPNFJNDF": [
        {
          "$type": "MoleMole.Config.AttachToStateIDMixin",
          "stateIDs": [
            "Born",
            "NormalIdle",
            "NormalMove"
          ],
          "modifierName": "Rotating_VFX",
          "MJFJKAHGHDJ": ""
        }
      ],
      "BFBDNNJCDLH": {
        "Rotating_VFX": {
          "modifierName": "",
          "elementDurability": 100.0,
          "OAOGLLGGJPD": [
            {
              "$type": "MoleMole.Config.AttachEffect",
              "effectPattern": "Eff_Monster_FungusFight_Trois_RotateIdle",
              "effectTempleteID": -1.0
            }
          ]
        }
      }
    }
  },
  {
    "Default": {
      "$type": "MoleMole.Config.GNKCLKNDOAK",
      "abilityName": "Monster_Fungus_Un_FlyStateManager",
      "PIDAPNFJNDF": [
        {
          "$type": "MoleMole.Config.AttachToAnimatorStateIDMixin",
          "stateIDs": [
            "Jump_BS",
            "Launch_Loop"
          ],
          "modifierName": "JumpLaunch",
          "MJFJKAHGHDJ": ""
        },
        {
          "$type": "MoleMole.Config.AttachToAnimatorStateIDMixin",
          "stateIDs": [
            "Jump_AS",
            "Drop_Loop",
            "Land_AS"
          ],
          "modifierName": "JumpDrop",
          "MJFJKAHGHDJ": ""
        },
        {
          "$type": "MoleMole.Config.AttachToAnimatorStateIDMixin",
          "stateIDs": [
            "HitThrow",
            "HitThrowDrop",
            "ReturnToBorn_BS"
          ],
          "modifierName": "JumpLand",
          "MJFJKAHGHDJ": ""
        },
        {
          "$type": "MoleMole.Config.SteerAttackMixin",
          "BAJBFPAEMHB": [
            "JumpProcess"
          ],
          "endNormalizedTime": 999.0,
          "angularSpeed": 180.0,
          "GMIILFMLLJI": "",
          "MJFJKAHGHDJ": ""
        }
      ],
      "BFBDNNJCDLH": {
        "JumpLaunch": {
          "modifierName": "",
          "elementDurability": 100.0,
          "OAOGLLGGJPD": [
            {
              "$type": "MoleMole.Config.SetPoseBool",
              "KIAGMJMPHPG": "AirTag",
              "value": true
            }
          ]
        },
        "JumpDrop": {
          "modifierName": "",
          "elementDurability": 100.0,
          "JPIFFPJJEMK": [
            {
              "$type": "MoleMole.Config.MonsterLandMixin",
              "JONCPDKDBID": [
                {
                  "$type": "MoleMole.Config.SetPoseBool",
                  "KIAGMJMPHPG": "AirTag"
                }
              ],
              "MKJGGDDNIEA": ""
            }
          ]
        },
        "JumpLand": {
          "modifierName": "",
          "elementDurability": 100.0,
          "OAOGLLGGJPD": [
            {
              "$type": "MoleMole.Config.SetPoseBool",
              "KIAGMJMPHPG": "AirTag"
            }
          ]
        }
      }
    }
  },
  {
    "Default": {
      "$type": "MoleMole.Config.GNKCLKNDOAK",
      "abilityName": "Fungus_BVB_Un_Water_Bubble_Reject",
      "PIDAPNFJNDF": [
        {
          "$type": "MoleMole.Config.AttachToStateIDMixin",
          "stateIDs": [
            "UnionBurst"
          ],
          "modifierName": "Bubble_Reject_Mark",
          "MJFJKAHGHDJ": ""
        }
      ],
      "BFBDNNJCDLH": {
        "Bubble_Reject_Mark": {
          "modifierName": "",
          "elementDurability": 100.0,
          "OAOGLLGGJPD": [
            {
              "$type": "MoleMole.Config.AttachAbilityStateResistance",
              "HKHLMLCHLCF": [
                "Struggle",
                "ElementFreeze",
                "ElementFrozen"
              ]
            }
          ]
        }
      }
    }
  },
  {
    "Default": {
      "$type": "MoleMole.Config.GNKCLKNDOAK",
      "abilityName": "FungusFight_V3_Affix01",
      "LLLCANIGIOE": {
        "bloom_ratio": 1.5,
        "electro_charged_ratio": 1.5
      },
      "BFBDNNJCDLH": {
        "FungusFight_V3_Affix01_Modifier": {
          "modifierName": "",
          "elementDurability": 100.0,
          "EPKCPIKGJOJ": {
            "Actor_ElemReactOvergrowDelta": "bloom_ratio",
            "Actor_ElemReactOvergrowFireDelta": "bloom_ratio",
            "Actor_ElemReactOvergrowElectricDelta": "bloom_ratio",
            "Actor_ElemReactElectricDelta": "electro_charged_ratio"
          }
        }
      },
      "OAOGLLGGJPD": [
        {
          "$type": "MoleMole.Config.ApplyModifier",
          "modifierName": "FungusFight_V3_Affix01_Modifier"
        }
      ],
      "LLNGCHGGPLC": true
    }
  },
  {
    "Default": {
      "$type": "MoleMole.Config.GNKCLKNDOAK",
      "abilityName": "FungusFight_V3_Affix02",
      "LLLCANIGIOE": {
        "swirl_ratio": 1.5
      },
      "BFBDNNJCDLH": {
        "FungusFight_V3_Affix02_Modifier": {
          "modifierName": "",
          "elementDurability": 100.0,
          "EPKCPIKGJOJ": {
            "Actor_ElemReactSwirlFireDelta": "swirl_ratio",
            "Actor_ElemReactSwirlIceDelta": "swirl_ratio",
            "Actor_ElemReactSwirlWaterDelta": "swirl_ratio",
            "Actor_ElemReactSwirlElectricDelta": "swirl_ratio"
          }
        }
      },
      "OAOGLLGGJPD": [
        {
          "$type": "MoleMole.Config.ApplyModifier",
          "modifierName": "FungusFight_V3_Affix02_Modifier"
        }
      ],
      "LLNGCHGGPLC": true
    }
  },
  {
    "Default": {
      "$type": "MoleMole.Config.GNKCLKNDOAK",
      "abilityName": "FungusFight_V3_Affix03",
      "LLLCANIGIOE": {
        "superconduct_ratio": 1.5,
        "overloaded_ratio": 1.5
      },
      "BFBDNNJCDLH": {
        "FungusFight_V3_Affix03_Modifier": {
          "modifierName": "",
          "elementDurability": 100.0,
          "EPKCPIKGJOJ": {
            "Actor_ElemReactSConductDelta": "superconduct_ratio",
            "Actor_ElemReactExplodeDelta": "overloaded_ratio"
          }
        }
      },
      "OAOGLLGGJPD": [
        {
          "$type": "MoleMole.Config.ApplyModifier",
          "modifierName": "FungusFight_V3_Affix03_Modifier"
        }
      ],
      "LLNGCHGGPLC": true
    }
  },
  {
    "Default": {
      "$type": "MoleMole.Config.GNKCLKNDOAK",
      "abilityName": "FungusFight_V3_Level3InuDisappear_Adapter",
      "PIDAPNFJNDF": [
        {
          "$type": "MoleMole.Config.AttachModifierToSelfGlobalValueMixin",
          "globalValueKey": "_MONSTER_DIS_FUNFIGHTV3",
          "KADKJMOFOLI": 0.0,
          "FJEPHJNDEAI": [
            -0.5,
            0.5,
            1.5
          ],
          "IJEPHCMOAPE": [
            "Battle_Normal",
            "Battle_NoTarget"
          ]
        }
      ],
      "BFBDNNJCDLH": {
        "Battle_Normal": {
          "modifierName": "",
          "elementDurability": 100.0,
          "OAOGLLGGJPD": [
            {
              "$type": "MoleMole.Config.SetPoseBool",
              "KIAGMJMPHPG": "NoTarget"
            }
          ]
        },
        "Battle_NoTarget": {
          "modifierName": "",
          "elementDurability": 100.0,
          "OAOGLLGGJPD": [
            {
              "$type": "MoleMole.Config.SetPoseBool",
              "KIAGMJMPHPG": "NoTarget",
              "value": true
            }
          ]
        }
      }
    }
  }
]