[
  {
    "Default": {
      "$type": "MoleMole.Config.GNKCLKNDOAK",
      "abilityName": "Hili_None_SteerAttack",
      "PIDAPNFJNDF": [
        {
          "$type": "MoleMole.Config.SteerAttackMixin",
          "BAJBFPAEMHB": [
            "Sword_ThumpAttack"
          ],
          "endNormalizedTime": 0.36000001430511475,
          "angularSpeed": 240.0,
          "GMIILFMLLJI": "",
          "LFCDKEDGFFG": 3.75,
          "MJFJKAHGHDJ": ""
        },
        {
          "$type": "MoleMole.Config.SteerAttackMixin",
          "BAJBFPAEMHB": [
            "Sword_TripleAttack"
          ],
          "startNormalizedTime": 0.20000000298023224,
          "endNormalizedTime": 0.23000000417232513,
          "angularSpeed": 720.0,
          "GMIILFMLLJI": "",
          "LFCDKEDGFFG": 3.75,
          "MJFJKAHGHDJ": ""
        },
        {
          "$type": "MoleMole.Config.SteerAttackMixin",
          "BAJBFPAEMHB": [
            "Sword_TripleAttack"
          ],
          "startNormalizedTime": 0.30000001192092896,
          "endNormalizedTime": 0.33000001311302185,
          "angularSpeed": 120.0,
          "GMIILFMLLJI": "",
          "LFCDKEDGFFG": 3.75,
          "MJFJKAHGHDJ": ""
        },
        {
          "$type": "MoleMole.Config.SteerAttackMixin",
          "BAJBFPAEMHB": [
            "Sword_TripleAttack"
          ],
          "startNormalizedTime": 0.44999998807907104,
          "endNormalizedTime": 0.47999998927116394,
          "angularSpeed": 240.0,
          "GMIILFMLLJI": "",
          "LFCDKEDGFFG": 3.75,
          "MJFJKAHGHDJ": ""
        }
      ]
    }
  },
  {
    "Default": {
      "$type": "MoleMole.Config.GNKCLKNDOAK",
      "abilityName": "Hili_None_ShootArrow_WithPredictive",
      "PIDAPNFJNDF": [
        {
          "$type": "MoleMole.Config.SteerAttackMixin",
          "BAJBFPAEMHB": [
            "Aim"
          ],
          "angularSpeed": 120.0,
          "GMIILFMLLJI": "",
          "LFCDKEDGFFG": 3.75,
          "MJFJKAHGHDJ": ""
        }
      ],
      "EIIHGJGFDHC": [
        {
          "$type": "MoleMole.Config.TriggerBullet",
          "DCNFGAGBCMP": 42101006,
          "born": {
            "$type": "JEDNAGFKIDP",
            "offset": {
              "GOAPOLCAJBP": -0.10000000149011612,
              "FMOPCJGGFMH": 0.0,
              "EJJEPFCDDAM": 0.4000000059604645
            },
            "direction": {
              "$type": "HCHFPIMPCJM",
              "maxAngle": 60.0,
              "EIABFGFGMAE": 30.0,
              "BKMDHKCJDCB": ""
            },
            "OBNIJLKICKN": "WeaponR"
          }
        }
      ]
    }
  },
  {
    "Default": {
      "$type": "MoleMole.Config.GNKCLKNDOAK",
      "abilityName": "Hili_None_ShootArrow_WithRandom",
      "PIDAPNFJNDF": [
        {
          "$type": "MoleMole.Config.SteerAttackMixin",
          "BAJBFPAEMHB": [
            "Aim"
          ],
          "angularSpeed": 120.0,
          "GMIILFMLLJI": "",
          "LFCDKEDGFFG": 3.75,
          "MJFJKAHGHDJ": ""
        }
      ],
      "EIIHGJGFDHC": [
        {
          "$type": "MoleMole.Config.TriggerBullet",
          "predicates": [
            {
              "$type": "IPGGGPIJONN",
              "key": "_ELITEAFFIX_ATTACK_ENHANCE",
              "value": 0.0,
              "compareType": "NoneOrEqual"
            }
          ],
          "DCNFGAGBCMP": 42101006,
          "born": {
            "$type": "JEDNAGFKIDP",
            "offset": {
              "GOAPOLCAJBP": 0.20000000298023224,
              "FMOPCJGGFMH": 0.0,
              "EJJEPFCDDAM": 0.10000000149011612
            },
            "direction": {
              "$type": "HCHFPIMPCJM",
              "randomAngleHor": 0.30000001192092896,
              "randomAngleVer": 0.5,
              "maxAngle": 60.0,
              "BKMDHKCJDCB": ""
            },
            "OBNIJLKICKN": "WeaponR"
          }
        },
        {
          "$type": "MoleMole.Config.TriggerBullet",
          "predicates": [
            {
              "$type": "IPGGGPIJONN",
              "key": "_ELITEAFFIX_ATTACK_ENHANCE",
              "value": 1.0
            }
          ],
          "DCNFGAGBCMP": 42101006,
          "born": {
            "$type": "JEDNAGFKIDP",
            "offset": {
              "GOAPOLCAJBP": 0.20000000298023224,
              "FMOPCJGGFMH": 0.0,
              "EJJEPFCDDAM": 0.10000000149011612
            },
            "direction": {
              "$type": "HCHFPIMPCJM",
              "angleOffset": {
                "GOAPOLCAJBP": 0.0,
                "FMOPCJGGFMH": 0.0,
                "EJJEPFCDDAM": 0.0
              },
              "maxAngle": 60.0,
              "EIABFGFGMAE": 30.0,
              "BKMDHKCJDCB": ""
            },
            "OBNIJLKICKN": "WeaponR"
          }
        },
        {
          "$type": "MoleMole.Config.TriggerBullet",
          "predicates": [
            {
              "$type": "IPGGGPIJONN",
              "key": "_ELITEAFFIX_ATTACK_ENHANCE",
              "value": 1.0
            }
          ],
          "DCNFGAGBCMP": 42101006,
          "born": {
            "$type": "JEDNAGFKIDP",
            "offset": {
              "GOAPOLCAJBP": 0.20000000298023224,
              "FMOPCJGGFMH": 0.0,
              "EJJEPFCDDAM": 0.10000000149011612
            },
            "direction": {
              "$type": "HCHFPIMPCJM",
              "angleOffset": {
                "GOAPOLCAJBP": 0.0,
                "FMOPCJGGFMH": 5.0,
                "EJJEPFCDDAM": 0.0
              },
              "maxAngle": 60.0,
              "EIABFGFGMAE": 30.0,
              "BKMDHKCJDCB": ""
            },
            "OBNIJLKICKN": "WeaponR"
          }
        },
        {
          "$type": "MoleMole.Config.TriggerBullet",
          "predicates": [
            {
              "$type": "IPGGGPIJONN",
              "key": "_ELITEAFFIX_ATTACK_ENHANCE",
              "value": 1.0
            }
          ],
          "DCNFGAGBCMP": 42101006,
          "born": {
            "$type": "JEDNAGFKIDP",
            "offset": {
              "GOAPOLCAJBP": 0.20000000298023224,
              "FMOPCJGGFMH": 0.0,
              "EJJEPFCDDAM": 0.10000000149011612
            },
            "direction": {
              "$type": "HCHFPIMPCJM",
              "angleOffset": {
                "GOAPOLCAJBP": 0.0,
                "FMOPCJGGFMH": 10.0,
                "EJJEPFCDDAM": 0.0
              },
              "maxAngle": 60.0,
              "EIABFGFGMAE": 30.0,
              "BKMDHKCJDCB": ""
            },
            "OBNIJLKICKN": "WeaponR"
          }
        },
        {
          "$type": "MoleMole.Config.TriggerBullet",
          "predicates": [
            {
              "$type": "IPGGGPIJONN",
              "key": "_ELITEAFFIX_ATTACK_ENHANCE",
              "value": 1.0
            }
          ],
          "DCNFGAGBCMP": 42101006,
          "born": {
            "$type": "JEDNAGFKIDP",
            "offset": {
              "GOAPOLCAJBP": 0.20000000298023224,
              "FMOPCJGGFMH": 0.0,
              "EJJEPFCDDAM": 0.10000000149011612
            },
            "direction": {
              "$type": "HCHFPIMPCJM",
              "angleOffset": {
                "GOAPOLCAJBP": 0.0,
                "FMOPCJGGFMH": -5.0,
                "EJJEPFCDDAM": 0.0
              },
              "maxAngle": 60.0,
              "EIABFGFGMAE": 30.0,
              "BKMDHKCJDCB": ""
            },
            "OBNIJLKICKN": "WeaponR"
          }
        },
        {
          "$type": "MoleMole.Config.TriggerBullet",
          "predicates": [
            {
              "$type": "IPGGGPIJONN",
              "key": "_ELITEAFFIX_ATTACK_ENHANCE",
              "value": 1.0
            }
          ],
          "DCNFGAGBCMP": 42101006,
          "born": {
            "$type": "JEDNAGFKIDP",
            "offset": {
              "GOAPOLCAJBP": 0.20000000298023224,
              "FMOPCJGGFMH": 0.0,
              "EJJEPFCDDAM": 0.10000000149011612
            },
            "direction": {
              "$type": "HCHFPIMPCJM",
              "angleOffset": {
                "GOAPOLCAJBP": 0.0,
                "FMOPCJGGFMH": -10.0,
                "EJJEPFCDDAM": 0.0
              },
              "maxAngle": 60.0,
              "EIABFGFGMAE": 30.0,
              "BKMDHKCJDCB": ""
            },
            "OBNIJLKICKN": "WeaponR"
          }
        },
        {
          "$type": "MoleMole.Config.FireEffect",
          "effectPattern": "Eff_Monster_Hili_None_CrossBow_Arrow_BS",
          "effectTempleteID": -1.0
        }
      ]
    }
  },
  {
    "Default": {
      "$type": "MoleMole.Config.GNKCLKNDOAK",
      "abilityName": "Hili_None_ShootArrow_WithRandom_Activity",
      "PIDAPNFJNDF": [
        {
          "$type": "MoleMole.Config.SteerAttackMixin",
          "BAJBFPAEMHB": [
            "Aim"
          ],
          "angularSpeed": 120.0,
          "GMIILFMLLJI": "",
          "LFCDKEDGFFG": 3.75,
          "MJFJKAHGHDJ": ""
        }
      ],
      "EIIHGJGFDHC": [
        {
          "$type": "MoleMole.Config.TriggerBullet",
          "DCNFGAGBCMP": 42101027,
          "born": {
            "$type": "JEDNAGFKIDP",
            "offset": {
              "GOAPOLCAJBP": 0.20000000298023224,
              "FMOPCJGGFMH": 0.0,
              "EJJEPFCDDAM": 0.10000000149011612
            },
            "direction": {
              "$type": "HCHFPIMPCJM",
              "randomAngleHor": 0.30000001192092896,
              "randomAngleVer": 0.5,
              "maxAngle": 60.0,
              "BKMDHKCJDCB": ""
            },
            "useRotation": true,
            "OBNIJLKICKN": "WeaponR"
          }
        },
        {
          "$type": "MoleMole.Config.FireEffect",
          "effectPattern": "Eff_Monster_Hili_None_CrossBow_Arrow_BS",
          "effectTempleteID": -1.0
        }
      ]
    }
  },
  {
    "Default": {
      "$type": "MoleMole.Config.GNKCLKNDOAK",
      "abilityName": "Hili_None_Arrow_Damage",
      "OAOGLLGGJPD": [
        {
          "$type": "MoleMole.Config.AttachEffect",
          "effectPattern": "Eff_Monster_Hili_None_CrossBow_Arrow",
          "effectTempleteID": -1.0
        }
      ],
      "EIIHGJGFDHC": [
        {
          "$type": "MoleMole.Config.TriggerAttackEvent",
          "predicates": [
            {
              "$type": "IPGGGPIJONN",
              "MLDBFKEGPEF": "Owner",
              "key": "_ELITEAFFIX_ATTACK_ENHANCE",
              "value": 0.0,
              "compareType": "NoneOrEqual"
            }
          ],
          "attackEvent": {
            "attackPattern": {
              "$type": "CKCNJHBMNGJ",
              "triggerType": "TriggerNoRepeat",
              "born": {
                "$type": "AGPIGGAPILF",
                "offset": {
                  "GOAPOLCAJBP": 0.0,
                  "FMOPCJGGFMH": 0.0,
                  "EJJEPFCDDAM": -0.5
                }
              },
              "size": {
                "GOAPOLCAJBP": 0.10000000149011612,
                "FMOPCJGGFMH": 0.10000000149011612,
                "EJJEPFCDDAM": 1.0
              }
            },
            "attackInfo": {
              "attackTag": "",
              "attenuationTag": "",
              "attenuationGroup": "default",
              "attackProperty": {
                "JMLMDDCBIAO": 1.0,
                "damagePercentageRatio": 0.0,
                "elementDurability": 100.0,
                "strikeType": "Pierce",
                "enBreak": 50.0,
                "damagePercentage": 0.0
              },
              "hitPattern": {
                "onHitEffectName": "default",
                "hitImpulseY": "",
                "hitImpulseType": "LV2",
                "hitHaltTimeScale": 0.009999999776482582
              },
              "cameraShake": {
                "shakeRange": 0.05999999865889549,
                "shakeTime": 0.09000000357627869
              },
              "canBeModifiedBy": "OriginOwner"
            }
          },
          "targetType": "Enemy"
        },
        {
          "$type": "MoleMole.Config.TriggerAttackEvent",
          "predicates": [
            {
              "$type": "IPGGGPIJONN",
              "MLDBFKEGPEF": "Owner",
              "key": "_ELITEAFFIX_ATTACK_ENHANCE",
              "value": 1.0
            }
          ],
          "attackEvent": {
            "attackPattern": {
              "$type": "CKCNJHBMNGJ",
              "triggerType": "TriggerNoRepeat",
              "checkHitLayerType": "Both",
              "born": {
                "$type": "AGPIGGAPILF",
                "offset": {
                  "GOAPOLCAJBP": 0.0,
                  "FMOPCJGGFMH": 0.0,
                  "EJJEPFCDDAM": -0.5
                }
              },
              "size": {
                "GOAPOLCAJBP": 0.10000000149011612,
                "FMOPCJGGFMH": 0.10000000149011612,
                "EJJEPFCDDAM": 1.0
              }
            },
            "attackInfo": {
              "attackTag": "",
              "attenuationTag": "",
              "attenuationGroup": "default",
              "attackProperty": {
                "JMLMDDCBIAO": 0.699999988079071,
                "damagePercentageRatio": 0.0,
                "elementDurability": 100.0,
                "strikeType": "Pierce",
                "enBreak": 50.0,
                "damagePercentage": 0.0
              },
              "hitPattern": {
                "onHitEffectName": "default",
                "hitImpulseY": "",
                "hitImpulseType": "LV2",
                "hitHaltTimeScale": 0.009999999776482582
              },
              "cameraShake": {
                "shakeRange": 0.05999999865889549,
                "shakeTime": 0.09000000357627869
              },
              "canBeModifiedBy": "OriginOwner"
            }
          },
          "targetType": "Enemy"
        }
      ]
    }
  },
  {
    "Default": {
      "$type": "MoleMole.Config.GNKCLKNDOAK",
      "abilityName": "Hili_None_Dodge",
      "PIDAPNFJNDF": [
        {
          "$type": "MoleMole.Config.AttachToPoseIDMixin",
          "LEPKMNMJJHJ": [
            1401
          ],
          "modifierName": "Dodge"
        }
      ],
      "BFBDNNJCDLH": {
        "Dodge": {
          "modifierName": "",
          "elementDurability": 100.0,
          "JPIFFPJJEMK": [
            {
              "$type": "MoleMole.Config.MonsterDefendMixin",
              "stateIDs": [
                "NormalIdle",
                "NormalMove",
                "BeHit",
                "BeHitThrow",
                "Dodge"
              ],
              "EFKABDIBICL": "DodgeTrigger",
              "OIJJHCCLMIJ": 0.25,
              "OKJFJNHEJPN": 0.15000000596046448,
              "DKJKPJMAMID": 3.75,
              "JJODKOHNMCN": 0,
              "attackType": "Melee",
              "LEFCCKBFCGG": [
                {
                  "$type": "MoleMole.Config.AttachModifier",
                  "modifierName": "DodgeInvincible"
                },
                {
                  "$type": "MoleMole.Config.AttachModifier",
                  "modifierName": "DodgeDenyLockOn"
                },
                {
                  "$type": "MoleMole.Config.AttachModifier",
                  "modifierName": "DodgeSpeedup"
                },
                {
                  "$type": "MoleMole.Config.ClearLockTarget",
                  "MLDBFKEGPEF": "CurLocalAvatar"
                }
              ],
              "LHBBEHBHKHD": true
            }
          ]
        },
        "DodgeInvincible": {
          "modifierName": "",
          "duration": 0.75,
          "elementDurability": 100.0,
          "state": "Invincible"
        },
        "DodgeDenyLockOn": {
          "modifierName": "",
          "duration": 1.75,
          "elementDurability": 100.0,
          "state": "DenyLockOn"
        },
        "DodgeSpeedup": {
          "modifierName": "",
          "duration": 2.25,
          "elementDurability": 100.0,
          "EPKCPIKGJOJ": {
            "Animator_MoveSpeedRatio": 1.0499999523162842
          }
        }
      }
    }
  },
  {
    "Default": {
      "$type": "MoleMole.Config.GNKCLKNDOAK",
      "abilityName": "Hili_None_ThrowPebble_Effect",
      "EIIHGJGFDHC": [
        {
          "$type": "MoleMole.Config.FireEffect",
          "predicates": [
            {
              "$type": "GHBFOODPGDO",
              "KEHDHCJGJJD": [
                "Water"
              ],
              "include": false
            }
          ],
          "effectPattern": "Eff_Monster_Hili_None_PebbleBullet_BS",
          "effectTempleteID": -1.0
        }
      ]
    }
  },
  {
    "Default": {
      "$type": "MoleMole.Config.GNKCLKNDOAK",
      "abilityName": "Hili_None_ThrowPebble",
      "PIDAPNFJNDF": [
        {
          "$type": "MoleMole.Config.SteerAttackMixin",
          "BAJBFPAEMHB": [
            "ThrowPebble"
          ],
          "startNormalizedTime": 0.550000011920929,
          "endNormalizedTime": 0.6200000047683716,
          "angularSpeed": 320.0,
          "GMIILFMLLJI": "",
          "LFCDKEDGFFG": 3.75,
          "MJFJKAHGHDJ": ""
        }
      ],
      "EIIHGJGFDHC": [
        {
          "$type": "MoleMole.Config.TriggerBullet",
          "DCNFGAGBCMP": 42101009,
          "born": {
            "$type": "JEDNAGFKIDP",
            "offset": {
              "GOAPOLCAJBP": 0.0,
              "FMOPCJGGFMH": 0.0,
              "EJJEPFCDDAM": 0.0
            },
            "direction": {
              "$type": "HCHFPIMPCJM",
              "maxAngleType": "Horizontal",
              "maxAngle": 15.0,
              "BKMDHKCJDCB": ""
            },
            "OBNIJLKICKN": "WeaponL"
          }
        }
      ]
    }
  },
  {
    "Default": {
      "$type": "MoleMole.Config.GNKCLKNDOAK",
      "abilityName": "Hili_None_ThrowPebble_Shield_Effect",
      "EIIHGJGFDHC": [
        {
          "$type": "MoleMole.Config.FireEffect",
          "predicates": [
            {
              "$type": "GHBFOODPGDO",
              "KEHDHCJGJJD": [
                "Water"
              ],
              "include": false
            }
          ],
          "effectPattern": "Eff_Monster_Hili_None_PebbleBullet_BS_Shield",
          "effectTempleteID": -1.0
        }
      ]
    }
  },
  {
    "Default": {
      "$type": "MoleMole.Config.GNKCLKNDOAK",
      "abilityName": "Hili_None_ThrowPebble_Shield",
      "PIDAPNFJNDF": [
        {
          "$type": "MoleMole.Config.SteerAttackMixin",
          "BAJBFPAEMHB": [
            "ThrowPebble_Shield"
          ],
          "startNormalizedTime": 0.550000011920929,
          "endNormalizedTime": 0.6200000047683716,
          "angularSpeed": 240.0,
          "GMIILFMLLJI": "",
          "LFCDKEDGFFG": 3.75,
          "MJFJKAHGHDJ": ""
        }
      ],
      "EIIHGJGFDHC": [
        {
          "$type": "MoleMole.Config.TriggerBullet",
          "DCNFGAGBCMP": 42101009,
          "born": {
            "$type": "JEDNAGFKIDP",
            "offset": {
              "GOAPOLCAJBP": 0.0,
              "FMOPCJGGFMH": 0.0,
              "EJJEPFCDDAM": 0.0
            },
            "direction": {
              "$type": "HCHFPIMPCJM",
              "maxAngleType": "Horizontal",
              "maxAngle": 15.0,
              "BKMDHKCJDCB": ""
            },
            "OBNIJLKICKN": "WeaponR"
          }
        }
      ]
    }
  },
  {
    "Default": {
      "$type": "MoleMole.Config.GNKCLKNDOAK",
      "abilityName": "Hili_None_ThrowPebble_Loop",
      "BFBDNNJCDLH": {
        "ThrowPebble_Loop": {
          "modifierName": "",
          "elementDurability": 100.0,
          "OAOGLLGGJPD": [
            {
              "$type": "MoleMole.Config.AttachEffect",
              "effectPattern": "Eff_Monster_Hili_None_PebbleBullet",
              "effectTempleteID": -1.0
            }
          ]
        }
      },
      "OAOGLLGGJPD": [
        {
          "$type": "MoleMole.Config.AttachModifier",
          "modifierName": "ThrowPebble_Loop"
        }
      ],
      "EIIHGJGFDHC": [
        {
          "$type": "MoleMole.Config.TriggerAttackEvent",
          "attackEvent": {
            "attackPattern": {
              "$type": "CKCNJHBMNGJ",
              "triggerType": "TriggerNoRepeat",
              "born": {
                "$type": "AGPIGGAPILF"
              },
              "size": {
                "GOAPOLCAJBP": 0.10000000149011612,
                "FMOPCJGGFMH": 0.10000000149011612,
                "EJJEPFCDDAM": 1.0
              }
            },
            "attackInfo": {
              "attackTag": "",
              "attenuationTag": "",
              "attenuationGroup": "default",
              "attackProperty": {
                "JMLMDDCBIAO": 0.5,
                "damagePercentageRatio": 0.0,
                "elementDurability": 100.0,
                "strikeType": "Blunt",
                "enBreak": 40.0,
                "attackType": "Range",
                "damagePercentage": 0.0
              },
              "hitPattern": {
                "onHitEffectName": "default",
                "hitImpulseY": "",
                "hitImpulseType": "LV2",
                "hitHaltTimeScale": 0.009999999776482582
              },
              "canBeModifiedBy": "OriginOwner"
            }
          },
          "targetType": "Enemy"
        },
        {
          "$type": "MoleMole.Config.FireHitEffect",
          "FIFHAPEFGCF": "",
          "hitScene": {
            "CFHBJGOPHMP": "Eff_Monster_Hili_None_PebbleBullet_AS",
            "NLOBMMCHMMP": {
              "Water": "Eff_Monster_Hili_None_PebbleBullet_AS_Water"
            }
          }
        }
      ]
    }
  },
  {
    "Default": {
      "$type": "MoleMole.Config.GNKCLKNDOAK",
      "abilityName": "Monster_Hili_None_SpecialActionV3_5",
      "PIDAPNFJNDF": [
        {
          "$type": "MoleMole.Config.ServerUpdateGlobalValueMixin",
          "key": "Start_Kneel",
          "maxValue": 0.0,
          "GCEOGBJIFCP": 0.0
        },
        {
          "$type": "MoleMole.Config.AttachToAIAlertnessMixin",
          "IJODKODFEMC": [
            0
          ],
          "modifierName": "Monster_Hili_None_SpecialActionV3_5"
        },
        {
          "$type": "MoleMole.Config.AttachToStateIDMixin",
          "stateIDs": [
            "Kneel_BS",
            "Kneel_Loop",
            "Kneel_AS"
          ],
          "modifierName": "Monster_Hili_None_SpecialFreezePos",
          "MJFJKAHGHDJ": ""
        }
      ],
      "BFBDNNJCDLH": {
        "Monster_Hili_None_SpecialFreezePos": {
          "modifierName": "",
          "elementDurability": 100.0,
          "JPIFFPJJEMK": [
            {
              "$type": "MoleMole.Config.RigidBodyFreezeMixin"
            }
          ]
        },
        "Monster_Hili_None_SpecialActionV3_5": {
          "modifierName": "",
          "elementDurability": 100.0,
          "JPIFFPJJEMK": [
            {
              "$type": "MoleMole.Config.AttachModifierToSelfGlobalValueMixin",
              "globalValueKey": "SGV_KneelStart",
              "KADKJMOFOLI": 0.0,
              "FJEPHJNDEAI": [
                -0.5,
                0.5,
                1.5
              ],
              "IJEPHCMOAPE": [
                "Go_KneelEmpty",
                "Go_Kneel"
              ]
            },
            {
              "$type": "MoleMole.Config.AttachActionToModifierMixin",
              "OAOGLLGGJPD": [
                {
                  "$type": "MoleMole.Config.HideUIBillBoard",
                  "hide": true
                }
              ],
              "MINFJCDAIBB": [
                {
                  "$type": "MoleMole.Config.HideUIBillBoard"
                }
              ]
            }
          ]
        },
        "Go_KneelEmpty": {
          "modifierName": "",
          "elementDurability": 100.0
        },
        "Go_Kneel": {
          "modifierName": "",
          "elementDurability": 100.0,
          "OAOGLLGGJPD": [
            {
              "$type": "MoleMole.Config.SetAnimatorTrigger",
              "triggerID": "GoKneel"
            },
            {
              "$type": "MoleMole.Config.SetGlobalValue",
              "value": 0.0,
              "key": "Start_Kneel",
              "maxValue": 0.0,
              "GCEOGBJIFCP": 0.0
            }
          ]
        }
      }
    }
  }
]