[
  {
    "Default": {
      "$type": "MoleMole.Config.GNKCLKNDOAK",
      "abilityName": "Monster_ForlornVessel_Strong_Warbanner_Pose",
      "PIDAPNFJNDF": [
        {
          "$type": "MoleMole.Config.AttachModifierToSelfGlobalValueMixin",
          "globalValueKey": "_FORLORNVESSEL_WARBANNER_POSE_TAG_",
          "KADKJMOFOLI": 0.0,
          "FJEPHJNDEAI": [
            -0.5,
            0.5,
            1.5
          ],
          "IJEPHCMOAPE": [
            "Pose_None",
            "Pose_Escape"
          ]
        }
      ],
      "BFBDNNJCDLH": {
        "Pose_None": {
          "modifierName": "",
          "elementDurability": 100.0,
          "OAOGLLGGJPD": [
            {
              "$type": "MoleMole.Config.SetPoseBool",
              "KIAGMJMPHPG": "EscapeTag"
            }
          ]
        },
        "Pose_Escape": {
          "modifierName": "",
          "elementDurability": 100.0,
          "OAOGLLGGJPD": [
            {
              "$type": "MoleMole.Config.SetPoseBool",
              "KIAGMJMPHPG": "EscapeTag",
              "value": true
            }
          ]
        },
        "ForlornVessel_Warbanner_Distance_Detect": {
          "modifierName": "",
          "elementDurability": 100.0,
          "BNJENAIMDPL": 5.0,
          "PJKELBNICOI": [
            {
              "$type": "MoleMole.Config.Predicated",
              "otherTargets": {
                "$type": "DOMPKGOHKNB",
                "KHHAHILDJDO": 1,
                "sortType": "Nearest",
                "shapeName": "CircleR5",
                "FAMCBLCIFCJ": "Enemy",
                "CONEFMBNECE": 1.0
              },
              "CKBKOCJPJMM": [
                {
                  "$type": "DLLOJMFICPG",
                  "JBEIOINCLFB": [
                    "Avatar"
                  ]
                }
              ],
              "successActions": [
                {
                  "$type": "MoleMole.Config.ApplyModifier",
                  "modifierName": "ForlornVessel_Warbanner_Distance_GVHandler"
                }
              ]
            }
          ]
        },
        "ForlornVessel_Warbanner_Distance_GVHandler": {
          "modifierName": "",
          "duration": 5.199999809265137,
          "elementDurability": 100.0,
          "OAOGLLGGJPD": [
            {
              "$type": "MoleMole.Config.SetGlobalValue",
              "value": 1.0,
              "key": "_FORLORNVESSEL_WARBANNER_POSE_TAG_",
              "maxValue": 0.0,
              "GCEOGBJIFCP": 0.0
            }
          ],
          "MINFJCDAIBB": [
            {
              "$type": "MoleMole.Config.SetGlobalValue",
              "value": 0.0,
              "key": "_FORLORNVESSEL_WARBANNER_POSE_TAG_",
              "maxValue": 0.0,
              "GCEOGBJIFCP": 0.0
            }
          ]
        }
      },
      "OAOGLLGGJPD": [
        {
          "$type": "MoleMole.Config.ApplyModifier",
          "modifierName": "ForlornVessel_Warbanner_Distance_Detect"
        }
      ]
    }
  },
  {
    "Default": {
      "$type": "MoleMole.Config.GNKCLKNDOAK",
      "abilityName": "Monster_ForlornVessel_Strong_Warbanner_HitShield",
      "BFBDNNJCDLH": {
        "ForlornVessel_Warbanner_HitShield_Detect": {
          "modifierName": "",
          "elementDurability": 100.0,
          "GAPANNMIBJA": [
            {
              "$type": "MoleMole.Config.Predicated",
              "MLDBFKEGPEF": "Target",
              "CKBKOCJPJMM": [
                {
                  "$type": "FCHFNAOHGGF",
                  "KPGKDHAFHFE": "All"
                },
                {
                  "$type": "AIIEFALBANL",
                  "attackTags": [
                    "Monster_ForlornVessel_Attack",
                    "Monster_ForlornVessel_Lance_ChargeAtk"
                  ]
                },
                {
                  "$type": "DLLOJMFICPG",
                  "JBEIOINCLFB": [
                    "Avatar"
                  ]
                }
              ],
              "successActions": [
                {
                  "$type": "MoleMole.Config.ApplyModifier",
                  "MLDBFKEGPEF": "Caster",
                  "modifierName": "UNIQUE_ForlornVessel_Warbanner_HitShield_Succ"
                }
              ]
            }
          ]
        },
        "UNIQUE_ForlornVessel_Warbanner_HitShield_Succ": {
          "EODJPKICNGG": "Unique",
          "modifierName": "",
          "LLIJGLMEHFK": true,
          "duration": 2.0,
          "elementDurability": 100.0,
          "OAOGLLGGJPD": [
            {
              "$type": "MoleMole.Config.LoseHP",
              "MLDBFKEGPEF": "Caster",
              "MIGNNLHCOBC": 0.0,
              "NICLOGIPEKF": 0.15000000596046448,
              "DAJFGEOLHMC": false,
              "FPFOCIEFDCM": true,
              "CDCKBPMMPLL": true,
              "CNHEAJCMHPI": ""
            },
            {
              "$type": "MoleMole.Config.Predicated",
              "otherTargets": {
                "$type": "DOMPKGOHKNB",
                "shapeName": "CircleR20H10",
                "FAMCBLCIFCJ": "All",
                "CONEFMBNECE": 1.0
              },
              "CKBKOCJPJMM": [
                {
                  "$type": "DLLOJMFICPG",
                  "JBEIOINCLFB": [
                    "Monster"
                  ]
                },
                {
                  "$type": "LNALCOIFPDK",
                  "predicates": [
                    {
                      "$type": "LCEDJHFGCEN",
                      "MOKIGFFMJNB": [
                        4014
                      ]
                    },
                    {
                      "$type": "LCEDJHFGCEN",
                      "MOKIGFFMJNB": [
                        4013
                      ]
                    }
                  ]
                }
              ],
              "successActions": [
                {
                  "$type": "MoleMole.Config.RemoveUniqueModifier",
                  "MLDBFKEGPEF": "Target",
                  "modifierName": "UNIQUE_ForlornVessel_Warbanner_ElementShield_ShieldHandler"
                },
                {
                  "$type": "MoleMole.Config.RemoveModifier",
                  "MLDBFKEGPEF": "Target",
                  "modifierName": "ForlornVessel_Warbanner_ElementShield_Regist"
                },
                {
                  "$type": "MoleMole.Config.ApplyModifier",
                  "MLDBFKEGPEF": "Target",
                  "modifierName": "UNIQUE_ForlornVessel_Warbanner_ElementShield_ShieldHandler"
                },
                {
                  "$type": "MoleMole.Config.ApplyModifier",
                  "MLDBFKEGPEF": "Target",
                  "modifierName": "ForlornVessel_Warbanner_ElementShield_Effect"
                },
                {
                  "$type": "MoleMole.Config.ApplyModifier",
                  "MLDBFKEGPEF": "Target",
                  "modifierName": "ForlornVessel_Warbanner_ElementShield_Regist"
                }
              ]
            }
          ]
        },
        "UNIQUE_ForlornVessel_Warbanner_ElementShield_ShieldHandler": {
          "EODJPKICNGG": "Unique",
          "modifierName": "",
          "LLIJGLMEHFK": true,
          "duration": 15.0,
          "elementType": "Fire",
          "elementDurability": 150.0,
          "JPIFFPJJEMK": [
            {
              "$type": "MoleMole.Config.ElementShieldMixin",
              "elementType": "Fire",
              "JCPHOEFMCMO": "",
              "GDLNMCCCKMJ": 360.0,
              "EOEJKJEBPAN": 1.0,
              "damageRatio": 0.20000000298023224,
              "PBCMONPKPLE": true,
              "MELDFFNLPNJ": true
            }
          ],
          "EPKCPIKGJOJ": {
            "Actor_EndureDelta": 0.0010000000474974513
          },
          "OAOGLLGGJPD": [
            {
              "$type": "MoleMole.Config.SetGlobalValue",
              "value": 1.0,
              "key": "ForlornVessel_ElementShield",
              "maxValue": 0.0,
              "GCEOGBJIFCP": 0.0
            }
          ],
          "MINFJCDAIBB": [
            {
              "$type": "MoleMole.Config.SetGlobalValue",
              "value": 0.0,
              "key": "ForlornVessel_ElementShield",
              "maxValue": 0.0,
              "GCEOGBJIFCP": 0.0
            }
          ]
        },
        "ForlornVessel_Warbanner_ElementShield_Effect": {
          "EODJPKICNGG": "Unique",
          "modifierName": "",
          "duration": 2.5,
          "elementDurability": 100.0,
          "OAOGLLGGJPD": [
            {
              "$type": "MoleMole.Config.SetAnimatorBool",
              "KIAGMJMPHPG": "FireShieldTag",
              "value": true
            },
            {
              "$type": "MoleMole.Config.AttachEffect",
              "effectPattern": "Eff_Monster_ForlornVessel_Strong_Warbanner_ElementShield_Sound",
              "effectTempleteID": -1.0
            }
          ],
          "MINFJCDAIBB": [
            {
              "$type": "MoleMole.Config.SetAnimatorBool",
              "KIAGMJMPHPG": "FireShieldTag"
            }
          ]
        },
        "ForlornVessel_Warbanner_ElementShield_Regist": {
          "EODJPKICNGG": "Unique",
          "modifierName": "",
          "duration": 0.20000000298023224,
          "elementDurability": 100.0,
          "OAOGLLGGJPD": [
            {
              "$type": "MoleMole.Config.RemoveModifierByAbilityStateResistanceID",
              "OHNGCCEOFAM": 13002
            }
          ]
        }
      },
      "OAOGLLGGJPD": [
        {
          "$type": "MoleMole.Config.ApplyModifier",
          "modifierName": "ForlornVessel_Warbanner_HitShield_Detect"
        }
      ]
    }
  },
  {
    "Default": {
      "$type": "MoleMole.Config.GNKCLKNDOAK",
      "abilityName": "Monster_ForlornVessel_Strong_Warbanner_Steer",
      "PIDAPNFJNDF": [
        {
          "$type": "MoleMole.Config.SteerAttackMixin",
          "BAJBFPAEMHB": [
            "Turn"
          ],
          "angularSpeed": 180.0,
          "GMIILFMLLJI": "",
          "MJFJKAHGHDJ": ""
        },
        {
          "$type": "MoleMole.Config.SteerAttackMixin",
          "BAJBFPAEMHB": [
            "NormalAtk"
          ],
          "startNormalizedTime": 0.05999999865889549,
          "endNormalizedTime": 0.10000000149011612,
          "angularSpeed": 270.0,
          "GMIILFMLLJI": "",
          "MJFJKAHGHDJ": ""
        },
        {
          "$type": "MoleMole.Config.SteerAttackMixin",
          "BAJBFPAEMHB": [
            "NormalAtk"
          ],
          "startNormalizedTime": 0.25,
          "endNormalizedTime": 0.28999999165534973,
          "angularSpeed": 270.0,
          "GMIILFMLLJI": "",
          "MJFJKAHGHDJ": ""
        },
        {
          "$type": "MoleMole.Config.SteerAttackMixin",
          "BAJBFPAEMHB": [
            "FireBullet_BS"
          ],
          "startNormalizedTime": 0.07000000029802322,
          "endNormalizedTime": 0.09000000357627869,
          "angularSpeed": 360.0,
          "GMIILFMLLJI": "",
          "MJFJKAHGHDJ": ""
        },
        {
          "$type": "MoleMole.Config.SteerAttackMixin",
          "BAJBFPAEMHB": [
            "FireBullet_BS"
          ],
          "startNormalizedTime": 0.12999999523162842,
          "endNormalizedTime": 0.20000000298023224,
          "angularSpeed": 720.0,
          "GMIILFMLLJI": "",
          "MJFJKAHGHDJ": ""
        }
      ]
    }
  },
  {
    "Default": {
      "$type": "MoleMole.Config.GNKCLKNDOAK",
      "abilityName": "Monster_ForlornVessel_Strong_Warbanner_EndureDelta",
      "PIDAPNFJNDF": [
        {
          "$type": "MoleMole.Config.AttachToNormalizedTimeMixin",
          "GOPFOAFEKLC": "NormalAtk",
          "modifierName": "ForlornVessel_Strong_Warbanner_EndureDelta",
          "normalizeEnd": 0.3499999940395355,
          "MJFJKAHGHDJ": ""
        },
        {
          "$type": "MoleMole.Config.AttachToNormalizedTimeMixin",
          "GOPFOAFEKLC": "FireBullet_BS",
          "modifierName": "ForlornVessel_Strong_Warbanner_EndureDelta",
          "MJFJKAHGHDJ": ""
        }
      ],
      "BFBDNNJCDLH": {
        "ForlornVessel_Strong_Warbanner_EndureDelta": {
          "EODJPKICNGG": "Unique",
          "modifierName": "",
          "elementDurability": 100.0,
          "OAOGLLGGJPD": [
            {
              "$type": "MoleMole.Config.TriggerAbility",
              "abilityName": "Monster_ForlornVessel_EndureDelta_Add"
            }
          ],
          "MINFJCDAIBB": [
            {
              "$type": "MoleMole.Config.TriggerAbility",
              "abilityName": "Monster_ForlornVessel_EndureDelta_Remove"
            }
          ]
        }
      }
    }
  },
  {
    "Default": {
      "$type": "MoleMole.Config.GNKCLKNDOAK",
      "abilityName": "Monster_ForlornVessel_Strong_Warbanner_FireBullet",
      "EIIHGJGFDHC": [
        {
          "$type": "MoleMole.Config.TriggerBullet",
          "DCNFGAGBCMP": 42207001,
          "born": {
            "$type": "KPFCCIOJAMK",
            "offset": {
              "GOAPOLCAJBP": 0.10000000149011612,
              "FMOPCJGGFMH": 1.600000023841858,
              "EJJEPFCDDAM": 0.8199999928474426
            },
            "direction": {
              "$type": "HCHFPIMPCJM",
              "maxAngle": 45.0,
              "BKMDHKCJDCB": ""
            }
          }
        }
      ]
    }
  },
  {
    "Default": {
      "$type": "MoleMole.Config.GNKCLKNDOAK",
      "abilityName": "ForlornVessel_Strong_Warbanner_FireBullet",
      "BFBDNNJCDLH": {
        "FireBullet_Effect": {
          "modifierName": "",
          "elementDurability": 100.0,
          "OAOGLLGGJPD": [
            {
              "$type": "MoleMole.Config.AttachEffect",
              "effectPattern": "Eff_Monster_ForlornVessel_Strong_Warbanner_FireBullet_Loop",
              "effectTempleteID": -1.0
            },
            {
              "$type": "MoleMole.Config.AttachEffect",
              "effectPattern": "Eff_Monster_ForlornVessel_Strong_Warbanner_FireBullet_Trail",
              "effectTempleteID": -1.0
            }
          ]
        }
      },
      "OAOGLLGGJPD": [
        {
          "$type": "MoleMole.Config.ApplyModifier",
          "modifierName": "FireBullet_Effect"
        }
      ],
      "EIIHGJGFDHC": [
        {
          "$type": "MoleMole.Config.TriggerAttackEvent",
          "attackEvent": {
            "attackPattern": {
              "$type": "IJCIPLFIDAK",
              "triggerType": "TriggerNoRepeat",
              "born": {
                "$type": "AGPIGGAPILF"
              },
              "MFGGJCPPBGA": 1.5
            },
            "attackInfo": {
              "attackTag": "Monster_ForlornVessel_Attack",
              "attenuationTag": "",
              "attenuationGroup": "default",
              "attackProperty": {
                "JMLMDDCBIAO": 1.0,
                "damagePercentageRatio": 0.0,
                "elementType": "Fire",
                "elementDurability": 100.0,
                "strikeType": "Default",
                "enBreak": 100.0,
                "attackType": "Range",
                "damagePercentage": 0.0
              },
              "hitPattern": {
                "onHitEffectName": "default",
                "hitImpulseY": "",
                "hitImpulseType": "LV4",
                "retreatType": "ByHitDirection",
                "hitHaltTimeScale": 0.05000000074505806
              },
              "canBeModifiedBy": "OriginOwner"
            }
          },
          "targetType": "Enemy"
        },
        {
          "$type": "MoleMole.Config.FireEffect",
          "effectPattern": "Eff_Monster_ForlornVessel_Strong_Warbanner_FireBullet_AS",
          "born": {
            "$type": "AGPIGGAPILF"
          },
          "effectTempleteID": -1.0
        },
        {
          "$type": "MoleMole.Config.KillSelf"
        }
      ]
    }
  },
  {
    "Default": {
      "$type": "MoleMole.Config.GNKCLKNDOAK",
      "abilityName": "Monster_ForlornVessel_Strong_Warbanner_NormalAtk_Spread",
      "PIDAPNFJNDF": [
        {
          "$type": "MoleMole.Config.AttachToStateIDMixin",
          "stateIDs": [
            "NormalAtk"
          ],
          "modifierName": "ForlornVessel_Strong_Warbanner_NormalAtk_Handler",
          "MJFJKAHGHDJ": ""
        }
      ],
      "BFBDNNJCDLH": {
        "UNIQUE_ForlornVessel_Warbanner_NormalAtk_Handler": {
          "modifierName": "",
          "LLIJGLMEHFK": true,
          "duration": 10.0,
          "elementDurability": 100.0,
          "OAOGLLGGJPD": [
            {
              "$type": "MoleMole.Config.SendEffectTrigger",
              "otherTargets": {
                "$type": "MGJJNCBALEH",
                "FMFCEFEHDEA": [
                  "equip02"
                ]
              },
              "canBeHandledOnRecover": true,
              "parameter": "NormalAtkTag",
              "attachPoint": "",
              "KPGKDHAFHFE": "Bool",
              "value": 1,
              "effectPattern": "Eff_Monster_ForlornVessel_Strong_Warbanner"
            },
            {
              "$type": "MoleMole.Config.ApplyModifier",
              "otherTargets": {
                "$type": "MGJJNCBALEH",
                "FMFCEFEHDEA": [
                  "equip02"
                ]
              },
              "modifierName": "UNIQUE_ForlornVessel_Warbanner_BladeEffect"
            }
          ],
          "MINFJCDAIBB": [
            {
              "$type": "MoleMole.Config.SendEffectTrigger",
              "otherTargets": {
                "$type": "MGJJNCBALEH",
                "FMFCEFEHDEA": [
                  "equip02"
                ]
              },
              "parameter": "NormalAtkTag",
              "attachPoint": "",
              "KPGKDHAFHFE": "Bool",
              "effectPattern": "Eff_Monster_ForlornVessel_Strong_Warbanner"
            },
            {
              "$type": "MoleMole.Config.RemoveUniqueModifier",
              "otherTargets": {
                "$type": "MGJJNCBALEH",
                "FMFCEFEHDEA": [
                  "equip02"
                ]
              },
              "modifierName": "UNIQUE_ForlornVessel_Warbanner_BladeEffect"
            }
          ]
        },
        "ForlornVessel_Strong_Warbanner_NormalAtk_Handler": {
          "modifierName": "",
          "elementDurability": 100.0,
          "MINFJCDAIBB": [
            {
              "$type": "MoleMole.Config.RemoveUniqueModifier",
              "modifierName": "UNIQUE_ForlornVessel_Warbanner_NormalAtk_Handler"
            }
          ]
        },
        "UNIQUE_ForlornVessel_Warbanner_BladeEffect": {
          "modifierName": "",
          "LLIJGLMEHFK": true,
          "elementDurability": 100.0,
          "OAOGLLGGJPD": [
            {
              "$type": "MoleMole.Config.AttachEffect",
              "effectPattern": "Eff_Monster_ForlornVessel_Strong_Warbanner_Blade",
              "effectTempleteID": -1.0
            }
          ]
        }
      },
      "EIIHGJGFDHC": [
        {
          "$type": "MoleMole.Config.ApplyModifier",
          "modifierName": "UNIQUE_ForlornVessel_Warbanner_NormalAtk_Handler"
        },
        {
          "$type": "MoleMole.Config.TriggerAbility",
          "otherTargets": {
            "$type": "MGJJNCBALEH",
            "FMFCEFEHDEA": [
              "equip02"
            ]
          },
          "abilityName": "MonEquip_ForlornVessel_Warbanner_01"
        }
      ]
    }
  },
  {
    "Default": {
      "$type": "MoleMole.Config.GNKCLKNDOAK",
      "abilityName": "Monster_ForlornVessel_Strong_Warbanner_NormalAtk_Disappear",
      "EIIHGJGFDHC": [
        {
          "$type": "MoleMole.Config.RemoveUniqueModifier",
          "modifierName": "UNIQUE_ForlornVessel_Warbanner_NormalAtk_Handler"
        }
      ]
    }
  },
  {
    "Default": {
      "$type": "MoleMole.Config.GNKCLKNDOAK",
      "abilityName": "Monster_ForlornVessel_Strong_Warbanner_FireBullet_Spread",
      "PIDAPNFJNDF": [
        {
          "$type": "MoleMole.Config.AttachToStateIDMixin",
          "stateIDs": [
            "FireBullet"
          ],
          "modifierName": "ForlornVessel_Strong_Warbanner_FireBullet_Handler",
          "MJFJKAHGHDJ": ""
        }
      ],
      "BFBDNNJCDLH": {
        "UNIQUE_ForlornVessel_Warbanner_FireBullet_Handler": {
          "modifierName": "",
          "LLIJGLMEHFK": true,
          "duration": 10.0,
          "elementDurability": 100.0,
          "OAOGLLGGJPD": [
            {
              "$type": "MoleMole.Config.SendEffectTrigger",
              "otherTargets": {
                "$type": "MGJJNCBALEH",
                "FMFCEFEHDEA": [
                  "equip02"
                ]
              },
              "canBeHandledOnRecover": true,
              "parameter": "FireBulletTag",
              "attachPoint": "",
              "KPGKDHAFHFE": "Bool",
              "value": 1,
              "effectPattern": "Eff_Monster_ForlornVessel_Strong_Warbanner"
            }
          ],
          "MINFJCDAIBB": [
            {
              "$type": "MoleMole.Config.SendEffectTrigger",
              "otherTargets": {
                "$type": "MGJJNCBALEH",
                "FMFCEFEHDEA": [
                  "equip02"
                ]
              },
              "parameter": "FireBulletTag",
              "attachPoint": "",
              "KPGKDHAFHFE": "Bool",
              "effectPattern": "Eff_Monster_ForlornVessel_Strong_Warbanner"
            }
          ]
        },
        "ForlornVessel_Strong_Warbanner_FireBullet_Handler": {
          "modifierName": "",
          "elementDurability": 100.0,
          "MINFJCDAIBB": [
            {
              "$type": "MoleMole.Config.RemoveUniqueModifier",
              "modifierName": "UNIQUE_ForlornVessel_Warbanner_FireBullet_Handler"
            }
          ]
        }
      },
      "EIIHGJGFDHC": [
        {
          "$type": "MoleMole.Config.ApplyModifier",
          "modifierName": "UNIQUE_ForlornVessel_Warbanner_FireBullet_Handler"
        }
      ]
    }
  },
  {
    "Default": {
      "$type": "MoleMole.Config.GNKCLKNDOAK",
      "abilityName": "Monster_ForlornVessel_Strong_Warbanner_FireBullet_Disappear",
      "EIIHGJGFDHC": [
        {
          "$type": "MoleMole.Config.RemoveUniqueModifier",
          "modifierName": "UNIQUE_ForlornVessel_Warbanner_FireBullet_Handler"
        }
      ]
    }
  },
  {
    "Default": {
      "$type": "MoleMole.Config.GNKCLKNDOAK",
      "abilityName": "MonEquip_ForlornVessel_Warbanner_01",
      "BFBDNNJCDLH": {
        "ForlornVessel_Warbanner_Effect": {
          "modifierName": "",
          "elementDurability": 100.0,
          "OAOGLLGGJPD": [
            {
              "$type": "MoleMole.Config.AttachEffect",
              "effectPattern": "Eff_Monster_ForlornVessel_Strong_Warbanner",
              "effectTempleteID": -1.0
            }
          ]
        }
      },
      "OAOGLLGGJPD": [
        {
          "$type": "MoleMole.Config.AttachModifier",
          "modifierName": "ForlornVessel_Warbanner_Effect"
        }
      ],
      "DOFDCKKDGHL": [
        {
          "$type": "MoleMole.Config.SendEffectTrigger",
          "parameter": "DieTrigger",
          "attachPoint": "",
          "effectPattern": "Eff_Monster_ForlornVessel_Strong_Warbanner"
        },
        {
          "$type": "MoleMole.Config.RemoveUniqueModifier",
          "modifierName": "UNIQUE_ForlornVessel_Warbanner_BladeEffect"
        }
      ]
    }
  },
  {
    "Default": {
      "$type": "MoleMole.Config.GNKCLKNDOAK",
      "abilityName": "Monster_ForlornVessel_Strong_Warbanner_WeaponHanler",
      "PIDAPNFJNDF": [
        {
          "$type": "MoleMole.Config.AttachToNormalizedTimeMixin",
          "GOPFOAFEKLC": "NormalAtk",
          "modifierName": "ForlornVessel_Strong_Lance_NormalAtk_WeaponHanler",
          "normalizeStart": 0.30000001192092896,
          "normalizeEnd": 0.800000011920929,
          "MJFJKAHGHDJ": ""
        }
      ],
      "BFBDNNJCDLH": {
        "ForlornVessel_Strong_Lance_NormalAtk_WeaponHanler": {
          "modifierName": "",
          "elementDurability": 100.0,
          "OAOGLLGGJPD": [
            {
              "$type": "MoleMole.Config.SetWeaponAttachPointRealName",
              "IOAFFAMKLEN": "equip02",
              "AMGOJPFOKOP": "WeaponR"
            }
          ],
          "MINFJCDAIBB": [
            {
              "$type": "MoleMole.Config.SetWeaponAttachPointRealName",
              "IOAFFAMKLEN": "equip02",
              "AMGOJPFOKOP": "WeaponL"
            }
          ]
        }
      }
    }
  },
  {
    "Default": {
      "$type": "MoleMole.Config.GNKCLKNDOAK",
      "abilityName": "Monster_ForlornVessel_Strong_Warbanner_ExitBattle",
      "PIDAPNFJNDF": [
        {
          "$type": "MoleMole.Config.AttachToAIAlertnessMixin",
          "IJODKODFEMC": [
            0
          ],
          "modifierName": "ExitBattle"
        }
      ],
      "BFBDNNJCDLH": {
        "ExitBattle": {
          "modifierName": "",
          "elementDurability": 100.0,
          "OAOGLLGGJPD": [
            {
              "$type": "MoleMole.Config.SetGlobalValue",
              "value": 0.0,
              "key": "_FORLORNVESSEL_WARBANNER_POSE_TAG_",
              "maxValue": 0.0,
              "GCEOGBJIFCP": 0.0
            },
            {
              "$type": "MoleMole.Config.SendEffectTrigger",
              "otherTargets": {
                "$type": "MGJJNCBALEH",
                "FMFCEFEHDEA": [
                  "equip02"
                ]
              },
              "parameter": "NormalAtkTag",
              "attachPoint": "",
              "KPGKDHAFHFE": "Bool",
              "effectPattern": "Eff_Monster_ForlornVessel_Strong_Warbanner"
            },
            {
              "$type": "MoleMole.Config.RemoveUniqueModifier",
              "modifierName": "UNIQUE_ForlornVessel_Warbanner_ElementShield_ShieldHandler"
            }
          ]
        }
      }
    }
  },
  {
    "Default": {
      "$type": "MoleMole.Config.GNKCLKNDOAK",
      "abilityName": "Monster_ForlornVessel_Strong_Warbanner_Alert",
      "PIDAPNFJNDF": [
        {
          "$type": "MoleMole.Config.AttachToAIAlertnessMixin",
          "IJODKODFEMC": [
            0,
            1
          ],
          "modifierName": "ForlornVessel_Strong_Warbanner_AlertHandler"
        }
      ],
      "BFBDNNJCDLH": {
        "ForlornVessel_Strong_Warbanner_AlertHandler": {
          "modifierName": "",
          "elementDurability": 100.0,
          "MINFJCDAIBB": [
            {
              "$type": "MoleMole.Config.SetPoseBool",
              "KIAGMJMPHPG": "Leisure"
            },
            {
              "$type": "MoleMole.Config.SetPoseBool",
              "KIAGMJMPHPG": "Patrol"
            }
          ]
        }
      }
    }
  },
  {
    "Default": {
      "$type": "MoleMole.Config.GNKCLKNDOAK",
      "abilityName": "Monster_ForlornVessel_Strong_Warbanner_RaiseFlag_Spread",
      "PIDAPNFJNDF": [
        {
          "$type": "MoleMole.Config.AttachToStateIDMixin",
          "stateIDs": [
            "RaiseFlag"
          ],
          "modifierName": "ForlornVessel_Strong_Warbanner_RaiseFlag_Handler",
          "MJFJKAHGHDJ": ""
        }
      ],
      "BFBDNNJCDLH": {
        "UNIQUE_ForlornVessel_Warbanner_RaiseFlag_Handler": {
          "modifierName": "",
          "LLIJGLMEHFK": true,
          "elementDurability": 100.0,
          "OAOGLLGGJPD": [
            {
              "$type": "MoleMole.Config.SendEffectTrigger",
              "otherTargets": {
                "$type": "MGJJNCBALEH",
                "FMFCEFEHDEA": [
                  "equip02"
                ]
              },
              "canBeHandledOnRecover": true,
              "parameter": "NormalAtkTag",
              "attachPoint": "",
              "KPGKDHAFHFE": "Bool",
              "value": 1,
              "effectPattern": "Eff_Monster_ForlornVessel_Strong_Warbanner"
            }
          ],
          "MINFJCDAIBB": [
            {
              "$type": "MoleMole.Config.SendEffectTrigger",
              "otherTargets": {
                "$type": "MGJJNCBALEH",
                "FMFCEFEHDEA": [
                  "equip02"
                ]
              },
              "parameter": "NormalAtkTag",
              "attachPoint": "",
              "KPGKDHAFHFE": "Bool",
              "effectPattern": "Eff_Monster_ForlornVessel_Strong_Warbanner"
            }
          ]
        },
        "ForlornVessel_Strong_Warbanner_RaiseFlag_Handler": {
          "modifierName": "",
          "elementDurability": 100.0,
          "MINFJCDAIBB": [
            {
              "$type": "MoleMole.Config.RemoveUniqueModifier",
              "modifierName": "UNIQUE_ForlornVessel_Warbanner_RaiseFlag_Handler"
            }
          ]
        }
      },
      "EIIHGJGFDHC": [
        {
          "$type": "MoleMole.Config.ApplyModifier",
          "modifierName": "UNIQUE_ForlornVessel_Warbanner_RaiseFlag_Handler"
        }
      ]
    }
  },
  {
    "Default": {
      "$type": "MoleMole.Config.GNKCLKNDOAK",
      "abilityName": "Monster_ForlornVessel_Strong_Warbanner_RaiseFlag_Disappear",
      "EIIHGJGFDHC": [
        {
          "$type": "MoleMole.Config.RemoveUniqueModifier",
          "modifierName": "UNIQUE_ForlornVessel_Warbanner_RaiseFlag_Handler"
        }
      ]
    }
  },
  {
    "Default": {
      "$type": "MoleMole.Config.GNKCLKNDOAK",
      "abilityName": "Monster_ForlornVessel_Strong_Warbanner_WeaponSpecialElementState",
      "PIDAPNFJNDF": [
        {
          "$type": "MoleMole.Config.AttachToAbilityStateMixin",
          "abilityStates": [
            "ElementFreeze"
          ],
          "modifierName": "WeaponElementFreezeHandler"
        },
        {
          "$type": "MoleMole.Config.AttachToAbilityStateMixin",
          "abilityStates": [
            "ElementPetrifaction"
          ],
          "modifierName": "WeaponElementPetrifactionHandler"
        }
      ],
      "BFBDNNJCDLH": {
        "WeaponElementFreezeHandler": {
          "modifierName": "",
          "elementDurability": 100.0,
          "OAOGLLGGJPD": [
            {
              "$type": "MoleMole.Config.AttachModifier",
              "otherTargets": {
                "$type": "MGJJNCBALEH",
                "FMFCEFEHDEA": [
                  "equip01",
                  "equip02"
                ]
              },
              "modifierName": "WeaponElementFreeze"
            }
          ]
        },
        "WeaponElementPetrifactionHandler": {
          "modifierName": "",
          "elementDurability": 100.0,
          "OAOGLLGGJPD": [
            {
              "$type": "MoleMole.Config.AttachModifier",
              "otherTargets": {
                "$type": "MGJJNCBALEH",
                "FMFCEFEHDEA": [
                  "equip01",
                  "equip02"
                ]
              },
              "modifierName": "WeaponElementPetrifaction"
            }
          ]
        },
        "WeaponElementFreeze": {
          "modifierName": "",
          "elementDurability": 100.0,
          "state": "ElementFreeze"
        },
        "WeaponElementPetrifaction": {
          "modifierName": "",
          "elementDurability": 100.0,
          "state": "ElementPetrifaction"
        }
      }
    }
  }
]