[
  {
    "Default": {
      "$type": "MoleMole.Config.GNKCLKNDOAK",
      "abilityName": "Monster_Scorpion_None_SteerAttack",
      "PIDAPNFJNDF": [
        {
          "$type": "MoleMole.Config.SteerAttackMixin",
          "BAJBFPAEMHB": [
            "Attack_01"
          ],
          "startNormalizedTime": 0.20000000298023224,
          "endNormalizedTime": 0.6000000238418579,
          "angularSpeed": 120.0,
          "GMIILFMLLJI": "",
          "MJFJKAHGHDJ": ""
        },
        {
          "$type": "MoleMole.Config.SteerAttackMixin",
          "BAJBFPAEMHB": [
            "Turn"
          ],
          "endNormalizedTime": 10.0,
          "angularSpeed": 180.0,
          "GMIILFMLLJI": "",
          "MJFJKAHGHDJ": ""
        }
      ]
    }
  },
  {
    "Default": {
      "$type": "MoleMole.Config.GNKCLKNDOAK",
      "abilityName": "Monster_Scorpion_None_Personality1",
      "PIDAPNFJNDF": [
        {
          "$type": "MoleMole.Config.AttachToStateIDMixin",
          "stateIDs": [
            "Personality1"
          ],
          "modifierName": "Personality1_Effect",
          "MJFJKAHGHDJ": ""
        }
      ],
      "BFBDNNJCDLH": {
        "Personality1_Effect": {
          "modifierName": "",
          "elementDurability": 100.0,
          "OAOGLLGGJPD": [
            {
              "$type": "MoleMole.Config.FireEffect",
              "effectPattern": "Eff_Monster_Scorpion_None_Personality1",
              "effectTempleteID": -1.0
            }
          ]
        }
      }
    }
  },
  {
    "Default": {
      "$type": "MoleMole.Config.GNKCLKNDOAK",
      "abilityName": "Monster_Scorpion_None_SitState",
      "PIDAPNFJNDF": [
        {
          "$type": "MoleMole.Config.AttachToStateIDMixin",
          "stateIDs": [
            "Sit",
            "Sit_Alert_BS"
          ],
          "modifierName": "Sit_Collider",
          "MJFJKAHGHDJ": ""
        },
        {
          "$type": "MoleMole.Config.AttachToStateIDMixin",
          "stateIDs": [
            "Sit_Alert_BS"
          ],
          "modifierName": "Sit_Alert_Effect",
          "MJFJKAHGHDJ": ""
        }
      ],
      "BFBDNNJCDLH": {
        "Sit_Alert_Effect": {
          "modifierName": "",
          "elementDurability": 100.0,
          "OAOGLLGGJPD": [
            {
              "$type": "MoleMole.Config.FireEffect",
              "effectPattern": "Eff_Monster_Scorpion_None_DigOut",
              "effectTempleteID": -1.0
            }
          ]
        },
        "Sit_Collider": {
          "modifierName": "",
          "elementDurability": 100.0,
          "OAOGLLGGJPD": [
            {
              "$type": "MoleMole.Config.EnablePushColliderName",
              "DOFAFEMMILL": [
                "PushCollider",
                "PushCollider_Sleep"
              ]
            },
            {
              "$type": "MoleMole.Config.EnableHitBoxByName",
              "MAEGDKKBDPK": [
                "HitBox",
                "HitBox_Sleep"
              ]
            },
            {
              "$type": "MoleMole.Config.EnableHDMesh",
              "canBeHandledOnRecover": true,
              "ALNBNPFFNIM": "Default"
            }
          ],
          "MINFJCDAIBB": [
            {
              "$type": "MoleMole.Config.EnablePushColliderName",
              "DOFAFEMMILL": [
                "PushCollider_Sleep"
              ]
            },
            {
              "$type": "MoleMole.Config.EnableHitBoxByName",
              "MAEGDKKBDPK": [
                "HitBox_Sleep"
              ]
            },
            {
              "$type": "MoleMole.Config.EnablePushColliderName",
              "DOFAFEMMILL": [
                "PushCollider"
              ],
              "NJKBCLADIBK": true
            },
            {
              "$type": "MoleMole.Config.EnableHitBoxByName",
              "MAEGDKKBDPK": [
                "HitBox"
              ],
              "NJKBCLADIBK": true
            },
            {
              "$type": "MoleMole.Config.EnableHDMesh",
              "enable": true,
              "ALNBNPFFNIM": "Default"
            }
          ]
        }
      }
    }
  },
  {
    "Default": {
      "$type": "MoleMole.Config.GNKCLKNDOAK",
      "abilityName": "Monster_Scorpion_None_SleepState",
      "PIDAPNFJNDF": [
        {
          "$type": "MoleMole.Config.AttachToStateIDMixin",
          "stateIDs": [
            "Lying",
            "Sleep_Alert_BS"
          ],
          "modifierName": "Sleep_Collider",
          "MJFJKAHGHDJ": ""
        }
      ],
      "BFBDNNJCDLH": {
        "Sleep_Collider": {
          "modifierName": "",
          "elementDurability": 100.0,
          "OAOGLLGGJPD": [
            {
              "$type": "MoleMole.Config.EnablePushColliderName",
              "DOFAFEMMILL": [
                "PushCollider"
              ]
            },
            {
              "$type": "MoleMole.Config.EnablePushColliderName",
              "DOFAFEMMILL": [
                "PushCollider_Sleep"
              ],
              "NJKBCLADIBK": true
            },
            {
              "$type": "MoleMole.Config.EnableHitBoxByName",
              "MAEGDKKBDPK": [
                "HitBox"
              ]
            },
            {
              "$type": "MoleMole.Config.EnableHitBoxByName",
              "MAEGDKKBDPK": [
                "HitBox_Sleep"
              ],
              "NJKBCLADIBK": true
            },
            {
              "$type": "MoleMole.Config.EnableHDMesh",
              "canBeHandledOnRecover": true,
              "ALNBNPFFNIM": "Default"
            }
          ],
          "MINFJCDAIBB": [
            {
              "$type": "MoleMole.Config.EnablePushColliderName",
              "DOFAFEMMILL": [
                "PushCollider_Sleep"
              ]
            },
            {
              "$type": "MoleMole.Config.EnableHitBoxByName",
              "MAEGDKKBDPK": [
                "HitBox_Sleep"
              ]
            },
            {
              "$type": "MoleMole.Config.EnablePushColliderName",
              "DOFAFEMMILL": [
                "PushCollider"
              ],
              "NJKBCLADIBK": true
            },
            {
              "$type": "MoleMole.Config.EnableHitBoxByName",
              "MAEGDKKBDPK": [
                "HitBox"
              ],
              "NJKBCLADIBK": true
            },
            {
              "$type": "MoleMole.Config.EnableHDMesh",
              "enable": true,
              "ALNBNPFFNIM": "Default"
            }
          ]
        }
      }
    }
  },
  {
    "Default": {
      "$type": "MoleMole.Config.GNKCLKNDOAK",
      "abilityName": "Monster_Scorpion_None_Disappear",
      "PIDAPNFJNDF": [
        {
          "$type": "MoleMole.Config.DoActionByPoseIDMixin",
          "LEPKMNMJJHJ": [
            105
          ],
          "GEDBCEGNPPO": [
            {
              "$type": "MoleMole.Config.SetRandomOverrideMapValue",
              "HCGNJJHJJOG": 10.0,
              "HLMHBMFPGCJ": 6.0,
              "FDKJEIGEABF": "RandomTimer"
            },
            {
              "$type": "MoleMole.Config.SetPoseInt",
              "intID": "DigNow"
            }
          ]
        },
        {
          "$type": "MoleMole.Config.AttachToPoseIDMixin",
          "LEPKMNMJJHJ": [
            105
          ],
          "modifierName": "Flee"
        },
        {
          "$type": "MoleMole.Config.AttachToAIAlertnessMixin",
          "IJODKODFEMC": [
            2
          ],
          "modifierName": "Flee_CountDown"
        },
        {
          "$type": "MoleMole.Config.AttachToNormalizedTimeMixin",
          "GOPFOAFEKLC": "Flee",
          "modifierName": "DisappearTimer",
          "normalizeStart": 0.5,
          "MJFJKAHGHDJ": ""
        },
        {
          "$type": "MoleMole.Config.AttachToNormalizedTimeMixin",
          "GOPFOAFEKLC": "Flee",
          "modifierName": "Flee_ColliderOff",
          "normalizeStart": 0.5,
          "MJFJKAHGHDJ": ""
        },
        {
          "$type": "MoleMole.Config.AttachToStateIDMixin",
          "stateIDs": [
            "Flee"
          ],
          "modifierName": "Flee_Effect",
          "MJFJKAHGHDJ": ""
        },
        {
          "$type": "MoleMole.Config.AttachToStateIDMixin",
          "stateIDs": [
            "Attack_01"
          ],
          "modifierName": "CountAttackTimes",
          "MJFJKAHGHDJ": ""
        },
        {
          "$type": "MoleMole.Config.AttachToAIAlertnessMixin",
          "IJODKODFEMC": [
            0
          ],
          "modifierName": "AttackTimesRes"
        }
      ],
      "LLLCANIGIOE": {
        "FleeTimer": 20.0,
        "RandomTimer": 8.0
      },
      "BFBDNNJCDLH": {
        "Flee_Effect": {
          "modifierName": "",
          "elementDurability": 100.0,
          "OAOGLLGGJPD": [
            {
              "$type": "MoleMole.Config.FireEffect",
              "effectPattern": "Eff_Monster_Scorpion_None_DigIn",
              "effectTempleteID": -1.0
            }
          ]
        },
        "CountAttackTimes": {
          "modifierName": "",
          "elementDurability": 100.0,
          "OAOGLLGGJPD": [
            {
              "$type": "MoleMole.Config.AddGlobalValue",
              "value": 1.0,
              "key": "AttackTimes",
              "maxValue": 0.0,
              "GCEOGBJIFCP": 0.0
            }
          ]
        },
        "AttackTimesRes": {
          "modifierName": "",
          "elementDurability": 100.0,
          "OAOGLLGGJPD": [
            {
              "$type": "MoleMole.Config.SetGlobalValue",
              "value": 0.0,
              "key": "AttackTimes",
              "maxValue": 0.0,
              "GCEOGBJIFCP": 0.0
            }
          ]
        },
        "Flee_ColliderOff": {
          "modifierName": "",
          "elementDurability": 100.0,
          "OAOGLLGGJPD": [
            {
              "$type": "MoleMole.Config.EnablePushColliderName",
              "DOFAFEMMILL": [
                "PushCollider",
                "PushCollider_Sleep"
              ]
            },
            {
              "$type": "MoleMole.Config.EnableHitBoxByName",
              "MAEGDKKBDPK": [
                "HitBox",
                "HitBox_Sleep"
              ]
            },
            {
              "$type": "MoleMole.Config.EnableHDMesh",
              "canBeHandledOnRecover": true,
              "ALNBNPFFNIM": "Default"
            }
          ]
        },
        "Flee_CountDown": {
          "modifierName": "",
          "elementDurability": 100.0,
          "JPIFFPJJEMK": [
            {
              "$type": "MoleMole.Config.AttachModifierToSelfGlobalValueMixin",
              "globalValueKey": "AttackTimes",
              "KADKJMOFOLI": 0.0,
              "FJEPHJNDEAI": [
                [
                  0.0,
                  1.0,
                  "SUB",
                  "FleeTimer",
                  "ADD"
                ],
                "FleeTimer"
              ],
              "IJEPHCMOAPE": [
                "Flee_Now"
              ]
            }
          ]
        },
        "Flee_Now": {
          "modifierName": "",
          "elementDurability": 100.0,
          "OAOGLLGGJPD": [
            {
              "$type": "MoleMole.Config.SetPoseInt",
              "intID": "FleeNow",
              "value": 1
            }
          ]
        },
        "Flee": {
          "modifierName": "",
          "duration": "RandomTimer",
          "elementDurability": 100.0,
          "MINFJCDAIBB": [
            {
              "$type": "MoleMole.Config.SetPoseInt",
              "intID": "FleeNow",
              "value": 2
            },
            {
              "$type": "MoleMole.Config.SetPoseInt",
              "intID": "DigNow",
              "value": 1
            }
          ]
        },
        "DisappearTimer": {
          "modifierName": "",
          "elementDurability": 100.0,
          "OAOGLLGGJPD": [
            {
              "$type": "MoleMole.Config.SetPoseBool",
              "KIAGMJMPHPG": "Sit",
              "value": true
            },
            {
              "$type": "MoleMole.Config.SetCanDieImmediately",
              "FGKJAICKGAL": true
            },
            {
              "$type": "MoleMole.Config.StartDither",
              "NCBIBKJDCHI": 2.0
            },
            {
              "$type": "MoleMole.Config.HideUIBillBoard",
              "hide": true
            },
            {
              "$type": "MoleMole.Config.KillSelf",
              "NCBIBKJDCHI": 1.0,
              "JAGAFBEMCPB": "Disappear",
              "BAHAOLGFMGF": true,
              "GPCAENCEJGM": true
            }
          ]
        }
      },
      "OAOGLLGGJPD": [
        {
          "$type": "MoleMole.Config.SetRandomOverrideMapValue",
          "HCGNJJHJJOG": 4.0,
          "HLMHBMFPGCJ": 2.0,
          "FDKJEIGEABF": "FleeTimer",
          "JEDLPGPNEAF": "Floor"
        }
      ],
      "LLNGCHGGPLC": true
    }
  }
]