[
  {
    "Default": {
      "$type": "MoleMole.Config.GNKCLKNDOAK",
      "abilityName": "Monster_Hound_Riftstalker_RunState",
      "BFBDNNJCDLH": {
        "Run_RandomValue": {
          "modifierName": "",
          "duration": 0.20000000298023224,
          "elementDurability": 100.0,
          "OAOGLLGGJPD": [
            {
              "$type": "MoleMole.Config.Randomed",
              "HIMGGNECCNH": 0.30000001192092896,
              "successActions": [
                {
                  "$type": "MoleMole.Config.SetAnimatorTrigger",
                  "triggerID": "RunRandom"
                }
              ]
            }
          ]
        }
      },
      "EIIHGJGFDHC": [
        {
          "$type": "MoleMole.Config.ApplyModifier",
          "modifierName": "Run_RandomValue"
        }
      ]
    }
  },
  {
    "Default": {
      "$type": "MoleMole.Config.GNKCLKNDOAK",
      "abilityName": "Monster_Hound_Corruption_LoseHP",
      "BFBDNNJCDLH": {
        "Hound_Corruption_LoseHP_AttackCheck": {
          "modifierName": "",
          "elementDurability": 100.0,
          "GAPANNMIBJA": [
            {
              "$type": "MoleMole.Config.Predicated",
              "MLDBFKEGPEF": "Target",
              "CKBKOCJPJMM": [
                {
                  "$type": "DLLOJMFICPG",
                  "JBEIOINCLFB": [
                    "Avatar"
                  ]
                },
                {
                  "$type": "AIIEFALBANL",
                  "attackTags": [
                    "Hound_Corruption_Tag"
                  ]
                }
              ],
              "successActions": [
                {
                  "$type": "MoleMole.Config.ApplyModifier",
                  "MLDBFKEGPEF": "TargetTeam",
                  "predicates": [
                    {
                      "$type": "OFEHCLIGCND",
                      "predicates": [
                        {
                          "$type": "GEAGJFPMAPJ"
                        }
                      ]
                    }
                  ],
                  "modifierName": "Hound_Corruption_LoseHP_Logic"
                },
                {
                  "$type": "MoleMole.Config.ApplyModifier",
                  "MLDBFKEGPEF": "TargetTeam",
                  "predicates": [
                    {
                      "$type": "OFEHCLIGCND",
                      "predicates": [
                        {
                          "$type": "GEAGJFPMAPJ"
                        }
                      ]
                    }
                  ],
                  "modifierName": "UNIQUE_Hound_Corruption_LoseHP_Effect_LocalHandler"
                }
              ]
            }
          ]
        },
        "Hound_Corruption_LoseHP_Logic": {
          "BIEBGPJDOGH": "Level",
          "EODJPKICNGG": "Multiple",
          "modifierName": "",
          "duration": 9.5,
          "elementDurability": 100.0,
          "BNJENAIMDPL": 1.0,
          "state": "UnlockFrequencyLimit",
          "OAOGLLGGJPD": [
            {
              "$type": "MoleMole.Config.LoseHP",
              "MLDBFKEGPEF": "CurTeamAvatars",
              "doOffStage": true,
              "predicates": [
                {
                  "$type": "OFEHCLIGCND",
                  "predicates": [
                    {
                      "$type": "DBDFKPKPBAB"
                    }
                  ]
                },
                {
                  "$type": "FKDMDGDJPMH",
                  "APHCOIOECMN": 0.15000000596046448
                },
                {
                  "$type": "HPKGPNDALOP"
                }
              ],
              "MIGNNLHCOBC": 0.0,
              "LHENKJCLGMH": 0.004999999888241291,
              "DAJFGEOLHMC": false,
              "FPFOCIEFDCM": true,
              "CDCKBPMMPLL": true,
              "CFCPGBMJAHM": true,
              "HHNKJALHMOH": true,
              "CNHEAJCMHPI": ""
            },
            {
              "$type": "MoleMole.Config.LoseHP",
              "MLDBFKEGPEF": "CurTeamAvatars",
              "doOffStage": true,
              "predicates": [
                {
                  "$type": "DBDFKPKPBAB"
                },
                {
                  "$type": "HPKGPNDALOP"
                }
              ],
              "MIGNNLHCOBC": 0.0,
              "LHENKJCLGMH": 0.004999999888241291,
              "FPFOCIEFDCM": true,
              "CDCKBPMMPLL": true,
              "CFCPGBMJAHM": true,
              "HHNKJALHMOH": true,
              "CNHEAJCMHPI": ""
            }
          ],
          "PJKELBNICOI": [
            {
              "$type": "MoleMole.Config.LoseHP",
              "MLDBFKEGPEF": "CurTeamAvatars",
              "doOffStage": true,
              "predicates": [
                {
                  "$type": "OFEHCLIGCND",
                  "predicates": [
                    {
                      "$type": "DBDFKPKPBAB"
                    }
                  ]
                },
                {
                  "$type": "FKDMDGDJPMH",
                  "APHCOIOECMN": 0.15000000596046448
                },
                {
                  "$type": "HPKGPNDALOP"
                }
              ],
              "MIGNNLHCOBC": 0.0,
              "LHENKJCLGMH": 0.004999999888241291,
              "DAJFGEOLHMC": false,
              "FPFOCIEFDCM": true,
              "CDCKBPMMPLL": true,
              "CFCPGBMJAHM": true,
              "HHNKJALHMOH": true,
              "CNHEAJCMHPI": ""
            },
            {
              "$type": "MoleMole.Config.LoseHP",
              "MLDBFKEGPEF": "CurTeamAvatars",
              "doOffStage": true,
              "predicates": [
                {
                  "$type": "DBDFKPKPBAB"
                },
                {
                  "$type": "HPKGPNDALOP"
                }
              ],
              "MIGNNLHCOBC": 0.0,
              "LHENKJCLGMH": 0.004999999888241291,
              "FPFOCIEFDCM": true,
              "CDCKBPMMPLL": true,
              "CFCPGBMJAHM": true,
              "HHNKJALHMOH": true,
              "CNHEAJCMHPI": ""
            }
          ],
          "AKONFAAGBJC": true,
          "modifierTags": [
            "Corruption"
          ]
        },
        "UNIQUE_Hound_Corruption_LoseHP_Effect_LocalHandler": {
          "EODJPKICNGG": "RefreshUniqueDurability",
          "modifierName": "",
          "LLIJGLMEHFK": true,
          "duration": 9.5,
          "elementDurability": 100.0,
          "JPIFFPJJEMK": [
            {
              "$type": "MoleMole.Config.CurLocalAvatarMixinV2",
              "modifierName": "Hound_Corruption_LoseHP_Effect"
            },
            {
              "$type": "MoleMole.Config.LocalAvatarsMixin",
              "modifierName": "Hound_Corruption_LoseHP_Icon"
            }
          ],
          "modifierTags": [
            "Corruption"
          ]
        },
        "Hound_Corruption_LoseHP_Effect": {
          "modifierName": "",
          "elementDurability": 100.0,
          "OAOGLLGGJPD": [
            {
              "$type": "MoleMole.Config.AttachEffect",
              "effectPattern": "Eff_Monster_Common_Corruption_LoseHP",
              "effectTempleteID": -1.0
            },
            {
              "$type": "MoleMole.Config.SendEffectTrigger",
              "parameter": "Stage",
              "attachPoint": "",
              "KPGKDHAFHFE": "Int",
              "value": 2,
              "effectPattern": "Eff_Monster_Common_Corruption_LoseHP"
            }
          ]
        },
        "Hound_Corruption_LoseHP_Icon": {
          "modifierName": "",
          "elementDurability": 100.0,
          "buffID": 90005
        }
      },
      "OAOGLLGGJPD": [
        {
          "$type": "MoleMole.Config.ApplyModifier",
          "modifierName": "Hound_Corruption_LoseHP_AttackCheck"
        }
      ]
    }
  },
  {
    "Default": {
      "$type": "MoleMole.Config.GNKCLKNDOAK",
      "abilityName": "Monster_Hound_Riftstalker_ExitBattle",
      "PIDAPNFJNDF": [
        {
          "$type": "MoleMole.Config.AttachToAIAlertnessMixin",
          "IJODKODFEMC": [
            0
          ],
          "modifierName": "ExitBattle"
        }
      ],
      "BFBDNNJCDLH": {
        "ExitBattle": {
          "modifierName": "",
          "elementDurability": 100.0,
          "OAOGLLGGJPD": [
            {
              "$type": "MoleMole.Config.SetGlobalValue",
              "value": 0.0,
              "key": "_Riftstalker_POSE_TAG_",
              "maxValue": 0.0,
              "GCEOGBJIFCP": 0.0
            },
            {
              "$type": "MoleMole.Config.SetChargeBarValue",
              "value": 0.0
            }
          ]
        }
      }
    }
  }
]