[
  {
    "Default": {
      "$type": "MoleMole.Config.GNKCLKNDOAK",
      "abilityName": "Eremite_Hatchet_AnimatorSteer",
      "PIDAPNFJNDF": [
        {
          "$type": "MoleMole.Config.SteerAttackMixin",
          "BAJBFPAEMHB": [
            "Slash01_AB"
          ],
          "endNormalizedTime": 0.8500000238418579,
          "angularSpeed": 150.0,
          "GMIILFMLLJI": "",
          "MJFJKAHGHDJ": ""
        },
        {
          "$type": "MoleMole.Config.SteerAttackTraceMixin",
          "BAJBFPAEMHB": [
            "Slash02"
          ],
          "startNormalizedTime": 0.34299999475479126,
          "endNormalizedTime": 0.4129999876022339,
          "angularSpeed": 80.0,
          "GMIILFMLLJI": "",
          "MJFJKAHGHDJ": ""
        },
        {
          "$type": "MoleMole.Config.SteerAttackMixin",
          "BAJBFPAEMHB": [
            "Slash02_AB"
          ],
          "endNormalizedTime": 0.699999988079071,
          "angularSpeed": 150.0,
          "GMIILFMLLJI": "",
          "MJFJKAHGHDJ": ""
        },
        {
          "$type": "MoleMole.Config.SteerAttackMixin",
          "BAJBFPAEMHB": [
            "ThrowSand_BS"
          ],
          "startNormalizedTime": 0.0860000029206276,
          "endNormalizedTime": 0.1899999976158142,
          "angularSpeed": 400.0,
          "GMIILFMLLJI": "",
          "MJFJKAHGHDJ": ""
        },
        {
          "$type": "MoleMole.Config.SteerAttackMixin",
          "BAJBFPAEMHB": [
            "ThrowSand"
          ],
          "startNormalizedTime": 0.12099999934434891,
          "endNormalizedTime": 0.20000000298023224,
          "angularSpeed": 400.0,
          "GMIILFMLLJI": "",
          "MJFJKAHGHDJ": ""
        },
        {
          "$type": "MoleMole.Config.SteerAttackMixin",
          "BAJBFPAEMHB": [
            "Alert"
          ],
          "endNormalizedTime": 0.699999988079071,
          "angularSpeed": 300.0,
          "GMIILFMLLJI": "",
          "MJFJKAHGHDJ": ""
        },
        {
          "$type": "MoleMole.Config.SteerAttackMixin",
          "BAJBFPAEMHB": [
            "Crossleg_Alert"
          ],
          "startNormalizedTime": 0.07400000095367432,
          "endNormalizedTime": 0.15600000321865082,
          "angularSpeed": 420.0,
          "GMIILFMLLJI": "",
          "MJFJKAHGHDJ": ""
        },
        {
          "$type": "MoleMole.Config.SteerAttackMixin",
          "BAJBFPAEMHB": [
            "Crossleg_Alert"
          ],
          "startNormalizedTime": 0.42800000309944153,
          "angularSpeed": 270.0,
          "GMIILFMLLJI": "",
          "MJFJKAHGHDJ": ""
        }
      ]
    }
  },
  {
    "Default": {
      "$type": "MoleMole.Config.GNKCLKNDOAK",
      "abilityName": "Eremite_Hatchet_Slash_Dist_Calc",
      "EIIHGJGFDHC": [
        {
          "$type": "MoleMole.Config.SetAnimatorTrigger",
          "predicates": [
            {
              "$type": "BKCFCDOEENL",
              "MLDBFKEGPEF": "SelfAttackTarget",
              "logic": "Lesser",
              "value": 5.5,
              "EGBKHFGDFLF": ""
            }
          ],
          "triggerID": "ExtraSlashTrigger"
        }
      ]
    }
  },
  {
    "Default": {
      "$type": "MoleMole.Config.GNKCLKNDOAK",
      "abilityName": "Eremite_Hatchet_ThrowSand",
      "BFBDNNJCDLH": {
        "ThrowSand_Monitor": {
          "modifierName": "",
          "elementDurability": 100.0,
          "GAPANNMIBJA": [
            {
              "$type": "MoleMole.Config.Predicated",
              "MLDBFKEGPEF": "Target",
              "CKBKOCJPJMM": [
                {
                  "$type": "AIIEFALBANL",
                  "attackTags": [
                    "EremiteThrowSand"
                  ]
                },
                {
                  "$type": "DLLOJMFICPG",
                  "JBEIOINCLFB": [
                    "Avatar"
                  ]
                }
              ],
              "successActions": [
                {
                  "$type": "MoleMole.Config.ApplyModifier",
                  "MLDBFKEGPEF": "Target",
                  "modifierName": "Sand_ScreenBlur"
                }
              ]
            }
          ]
        },
        "Sand_ScreenBlur": {
          "EODJPKICNGG": "Unique",
          "modifierName": "",
          "duration": 5.0,
          "elementDurability": 100.0,
          "JPIFFPJJEMK": [
            {
              "$type": "MoleMole.Config.TriggerPostProcessEffectMixin",
              "MJBNOIPNMPF": "PostEffect_Monster_Eremite_Hatchet_ThrowSand_ScreenEffect",
              "NCBIBKJDCHI": 5.0
            }
          ],
          "OAOGLLGGJPD": [
            {
              "$type": "MoleMole.Config.DungeonFogEffects",
              "muteRemoteAction": true,
              "enable": true,
              "KAJEHOIDNDC": "Eff_Monster_Eremite_Hatchet_ThrowSand_ScreenEffect",
              "PMBDAEKEDED": ""
            }
          ],
          "MINFJCDAIBB": [
            {
              "$type": "MoleMole.Config.DungeonFogEffects",
              "KAJEHOIDNDC": "",
              "PMBDAEKEDED": ""
            }
          ],
          "DOFDCKKDGHL": [
            {
              "$type": "MoleMole.Config.DungeonFogEffects",
              "KAJEHOIDNDC": "",
              "PMBDAEKEDED": ""
            }
          ]
        }
      },
      "OAOGLLGGJPD": [
        {
          "$type": "MoleMole.Config.ApplyModifier",
          "modifierName": "ThrowSand_Monitor"
        }
      ],
      "EIIHGJGFDHC": [
        {
          "$type": "MoleMole.Config.TriggerAttackEvent",
          "attackEvent": {
            "attackPattern": {
              "$type": "LGEKKELKDAN",
              "triggerType": "TriggerNoRepeat",
              "born": {
                "$type": "KPFCCIOJAMK",
                "offset": {
                  "GOAPOLCAJBP": 0.0,
                  "FMOPCJGGFMH": 0.0,
                  "EJJEPFCDDAM": -0.30000001192092896
                }
              },
              "height": 1.7000000476837158,
              "fanAngle": 70.0,
              "MFGGJCPPBGA": 3.0
            },
            "attackInfo": {
              "attackTag": "EremiteThrowSand",
              "attenuationTag": "",
              "attenuationGroup": "default",
              "attackProperty": {
                "JMLMDDCBIAO": 0.0,
                "damagePercentageRatio": 0.0,
                "elementDurability": 0.0,
                "enBreak": 0.0,
                "damagePercentage": 0.0
              },
              "hitPattern": {
                "onHitEffectName": "none",
                "hitImpulseY": "",
                "hitImpulseType": "LV1",
                "muteHitText": true
              },
              "canBeModifiedBy": "OriginOwner"
            }
          },
          "targetType": "Enemy"
        }
      ]
    }
  },
  {
    "Default": {
      "$type": "MoleMole.Config.GNKCLKNDOAK",
      "abilityName": "Eremite_FreePose_Female_Display_Manager",
      "PIDAPNFJNDF": [
        {
          "$type": "MoleMole.Config.AttachToAnimatorStateIDMixin",
          "stateIDs": [
            "Feeding_Idle",
            "Feeding_Skill"
          ],
          "modifierName": "FreePose_Display_Fodder",
          "MJFJKAHGHDJ": ""
        },
        {
          "$type": "MoleMole.Config.AttachToAnimatorStateIDMixin",
          "stateIDs": [
            "Crossleg_OudIdle",
            "Crossleg_PlayOud_BS",
            "Crossleg_PlayOud_Loop",
            "Crossleg_PlayOud_AS"
          ],
          "modifierName": "FreePose_Display_Oud",
          "MJFJKAHGHDJ": ""
        },
        {
          "$type": "MoleMole.Config.AttachToNormalizedTimeMixin",
          "GOPFOAFEKLC": "CrosslegAlert",
          "modifierName": "FreePose_Display_Oud_BeforeBroken",
          "normalizeEnd": 0.2930000126361847,
          "MJFJKAHGHDJ": ""
        },
        {
          "$type": "MoleMole.Config.DoActionByPoseIDMixin",
          "LEPKMNMJJHJ": [
            9555
          ],
          "GEDBCEGNPPO": [
            {
              "$type": "MoleMole.Config.SetPoseBool",
              "KIAGMJMPHPG": "StopPlayOud"
            }
          ]
        },
        {
          "$type": "MoleMole.Config.DoActionByAnimatorStateIDMixin",
          "stateIDs": [
            "Crossleg_PlayOud_Loop"
          ],
          "IKMNFOBKHJA": [
            {
              "$type": "MoleMole.Config.SetPoseBool",
              "KIAGMJMPHPG": "StopPlayOud",
              "value": true
            }
          ],
          "MJFJKAHGHDJ": ""
        }
      ],
      "BFBDNNJCDLH": {
        "FreePose_Display_Fodder": {
          "modifierName": "",
          "elementDurability": 100.0,
          "OAOGLLGGJPD": [
            {
              "$type": "MoleMole.Config.AttachEffect",
              "effectPattern": "Eff_Monster_Eremite_Freepose_Fodder",
              "effectTempleteID": -1.0
            }
          ]
        },
        "FreePose_Display_Oud": {
          "modifierName": "",
          "elementDurability": 100.0,
          "OAOGLLGGJPD": [
            {
              "$type": "MoleMole.Config.AttachEffect",
              "effectPattern": "Eff_Monster_Eremite_Freepose_Oud_Female",
              "effectTempleteID": -1.0
            }
          ]
        },
        "FreePose_Display_Oud_BeforeBroken": {
          "modifierName": "",
          "elementDurability": 100.0,
          "OAOGLLGGJPD": [
            {
              "$type": "MoleMole.Config.AttachEffect",
              "effectPattern": "Eff_Monster_Eremite_Freepose_Oud_Female",
              "effectTempleteID": -1.0
            }
          ]
        }
      }
    }
  }
]