[
  {
    "Default": {
      "$type": "MoleMole.Config.GNKCLKNDOAK",
      "abilityName": "Monster_FauneAbyssale_MantaRay_Ult_NormalBullet",
      "PIDAPNFJNDF": [
        {
          "$type": "MoleMole.Config.SpacialSteerAttackMixin",
          "KKAJFLMBIBP": [
            "NormalAttack",
            "NormalAttack_Mirror"
          ],
          "endNormalizedTime": 0.3499999940395355,
          "CDMIDLKPOMG": 70.0,
          "JFGKHMGIDBB": -70.0,
          "angularSpeed": 120.0,
          "GMIILFMLLJI": ""
        }
      ],
      "EIIHGJGFDHC": [
        {
          "$type": "MoleMole.Config.TriggerBullet",
          "DCNFGAGBCMP": 42615015,
          "born": {
            "$type": "JEDNAGFKIDP",
            "direction": {
              "$type": "HCHFPIMPCJM",
              "maxAngle": 45.0,
              "BKMDHKCJDCB": ""
            },
            "useRotation": true,
            "OBNIJLKICKN": "Emit"
          }
        },
        {
          "$type": "MoleMole.Config.RefreshUICombatBarLayout"
        }
      ]
    }
  },
  {
    "Default": {
      "$type": "MoleMole.Config.GNKCLKNDOAK",
      "abilityName": "Monster_FauneAbyssale_MantaRay_Ult_Bullet01",
      "BFBDNNJCDLH": {
        "DamageMonitor": {
          "modifierName": "",
          "elementDurability": 100.0,
          "GAPANNMIBJA": [
            {
              "$type": "MoleMole.Config.Predicated",
              "MLDBFKEGPEF": "Target",
              "CKBKOCJPJMM": [
                {
                  "$type": "AIIEFALBANL",
                  "attackTags": [
                    "BladeBullet_Ult"
                  ]
                },
                {
                  "$type": "DLLOJMFICPG",
                  "JBEIOINCLFB": [
                    "Avatar"
                  ]
                }
              ],
              "successActions": [
                {
                  "$type": "MoleMole.Config.Predicated",
                  "MLDBFKEGPEF": "Target",
                  "CKBKOCJPJMM": [
                    {
                      "$type": "OFGMGHOHBJD",
                      "MLDBFKEGPEF": "TargetTeam",
                      "modifierName": "BladeBullet_Cooldown"
                    }
                  ],
                  "successActions": [
                    {
                      "$type": "MoleMole.Config.DamageByAttackValue",
                      "MLDBFKEGPEF": "Target",
                      "attackInfo": {
                        "attackTag": "",
                        "attenuationTag": "",
                        "attenuationGroup": "default",
                        "attackProperty": {
                          "JMLMDDCBIAO": 0.5,
                          "damagePercentageRatio": 0.0,
                          "elementType": "Water",
                          "elementDurability": 0.0,
                          "strikeType": "Slash",
                          "enBreak": 0.0,
                          "damagePercentage": 0.0
                        },
                        "hitPattern": {
                          "onHitEffectName": "default",
                          "hitImpulseY": "",
                          "hitImpulseType": "LV0"
                        }
                      }
                    }
                  ],
                  "failActions": [
                    {
                      "$type": "MoleMole.Config.DamageByAttackValue",
                      "MLDBFKEGPEF": "Target",
                      "attackInfo": {
                        "attackTag": "",
                        "attenuationTag": "",
                        "attenuationGroup": "default",
                        "attackProperty": {
                          "JMLMDDCBIAO": 1.0,
                          "damagePercentageRatio": 0.0,
                          "elementType": "Water",
                          "elementDurability": 0.0,
                          "strikeType": "Slash",
                          "enBreak": 0.0,
                          "damagePercentage": 0.0
                        },
                        "hitPattern": {
                          "onHitEffectName": "default",
                          "hitImpulseY": "",
                          "hitImpulseType": "LV0"
                        },
                        "cameraShake": {
                          "shakeRange": 0.800000011920929,
                          "shakeTime": 0.30000001192092896
                        }
                      }
                    }
                  ]
                },
                {
                  "$type": "MoleMole.Config.ApplyModifier",
                  "MLDBFKEGPEF": "TargetTeam",
                  "modifierName": "BladeBullet_Cooldown"
                }
              ]
            }
          ]
        },
        "BladeBullet_Cooldown": {
          "modifierName": "",
          "duration": 3.0,
          "elementDurability": 100.0
        }
      },
      "OAOGLLGGJPD": [
        {
          "$type": "MoleMole.Config.ApplyModifier",
          "modifierName": "DamageMonitor"
        }
      ],
      "EIIHGJGFDHC": [
        {
          "$type": "MoleMole.Config.FireEffect",
          "effectPattern": "Eff_Monster_FauneAbyssale_MantaRay_Ult_UltBlade_Trigger",
          "born": {
            "$type": "JEDNAGFKIDP",
            "direction": {
              "$type": "HCHFPIMPCJM",
              "maxAngle": 45.0,
              "BKMDHKCJDCB": ""
            },
            "useRotation": true,
            "OBNIJLKICKN": "Emit"
          },
          "effectTempleteID": -1.0
        },
        {
          "$type": "MoleMole.Config.TriggerBullet",
          "DCNFGAGBCMP": 42615016,
          "born": {
            "$type": "JEDNAGFKIDP",
            "direction": {
              "$type": "HCHFPIMPCJM",
              "maxAngle": 45.0,
              "BKMDHKCJDCB": ""
            },
            "useRotation": true,
            "OBNIJLKICKN": "Emit"
          }
        },
        {
          "$type": "MoleMole.Config.ActCameraRadialBlur",
          "BNKAAOANKPF": {
            "KGALJHJDKGI": 0.699999988079071,
            "HGJOOLFGKGB": 0.07000000029802322,
            "DKGOEPPEFPN": 0.23000000417232513
          }
        }
      ]
    }
  },
  {
    "Default": {
      "$type": "MoleMole.Config.GNKCLKNDOAK",
      "abilityName": "Monster_FauneAbyssale_MantaRay_Ult_Alert",
      "BFBDNNJCDLH": {
        "SlashPoint_Kill": {
          "modifierName": "",
          "duration": 0.10000000149011612,
          "elementDurability": 100.0,
          "OAOGLLGGJPD": [
            {
              "$type": "MoleMole.Config.SetGlobalValue",
              "value": 1.0,
              "key": "SLASH_POINT_STATUS",
              "maxValue": 0.0,
              "GCEOGBJIFCP": 0.0
            },
            {
              "$type": "MoleMole.Config.FireEffect",
              "effectPattern": "Eff_Monster_FauneAbyssale_MantaRay_Ult_SlashPoint_Disappear",
              "effectTempleteID": -1.0
            }
          ]
        }
      },
      "EIIHGJGFDHC": [
        {
          "$type": "MoleMole.Config.ApplyModifier",
          "otherTargets": {
            "$type": "DMGCADBNILM",
            "configID": 42615018
          },
          "modifierName": "SlashPoint_Kill"
        },
        {
          "$type": "MoleMole.Config.FireEffect",
          "effectPattern": "Eff_Monster_FauneAbyssale_MantaRay_Ult_Alert",
          "effectTempleteID": -1.0
        }
      ],
      "DOFDCKKDGHL": [
        {
          "$type": "MoleMole.Config.ApplyModifier",
          "otherTargets": {
            "$type": "DMGCADBNILM",
            "configID": 42615018
          },
          "modifierName": "SlashPoint_Kill"
        }
      ]
    }
  },
  {
    "Default": {
      "$type": "MoleMole.Config.GNKCLKNDOAK",
      "abilityName": "Monster_FauneAbyssale_MantaRay_Ult_Bullet01_BulletVFX",
      "BFBDNNJCDLH": {
        "BulletVFX": {
          "modifierName": "",
          "elementDurability": 100.0,
          "OAOGLLGGJPD": [
            {
              "$type": "MoleMole.Config.AttachEffect",
              "effectPattern": "Eff_Monster_FauneAbyssale_MantaRay_Ult_UltBlade_Bullet",
              "effectTempleteID": -1.0
            }
          ]
        }
      },
      "OAOGLLGGJPD": [
        {
          "$type": "MoleMole.Config.AttachModifier",
          "modifierName": "BulletVFX"
        }
      ],
      "EIIHGJGFDHC": [
        {
          "$type": "MoleMole.Config.FireEffect",
          "MLDBFKEGPEF": "Target",
          "effectPattern": "Eff_Monster_FauneAbyssale_MantaRay_Ult_UltBlade_Hit",
          "born": {
            "$type": "DALKAHOBDMD"
          },
          "effectTempleteID": -1.0
        }
      ]
    }
  },
  {
    "Default": {
      "$type": "MoleMole.Config.GNKCLKNDOAK",
      "abilityName": "Monster_FauneAbyssale_MantaRay_Ult_Bullet01_Weak_BulletVFX",
      "BFBDNNJCDLH": {
        "BulletVFX": {
          "modifierName": "",
          "elementDurability": 100.0,
          "OAOGLLGGJPD": [
            {
              "$type": "MoleMole.Config.AttachEffect",
              "effectPattern": "Eff_Monster_FauneAbyssale_MantaRay_Ult_UltBlade_BulletWeak",
              "effectTempleteID": -1.0
            }
          ]
        }
      },
      "OAOGLLGGJPD": [
        {
          "$type": "MoleMole.Config.AttachModifier",
          "modifierName": "BulletVFX"
        }
      ],
      "EIIHGJGFDHC": [
        {
          "$type": "MoleMole.Config.FireEffect",
          "MLDBFKEGPEF": "Target",
          "effectPattern": "Eff_Monster_FauneAbyssale_MantaRay_Ult_UltBlade_Hit",
          "born": {
            "$type": "EJIMKPCOKOJ"
          },
          "effectTempleteID": -1.0
        }
      ]
    }
  },
  {
    "Default": {
      "$type": "MoleMole.Config.GNKCLKNDOAK",
      "abilityName": "Monster_FauneAbyssale_MantaRay_Ult_Limbo",
      "PIDAPNFJNDF": [
        {
          "$type": "MoleMole.Config.AttachModifierToHPPercentMixin",
          "FJEPHJNDEAI": [
            0.012000000104308128
          ],
          "IJEPHCMOAPE": [
            "MantaRay_Ult_Dummy",
            "MantaRay_Ult_ReadyToDie"
          ]
        }
      ],
      "BFBDNNJCDLH": {
        "MantaRay_Ult_Limbo": {
          "modifierName": "",
          "elementDurability": 100.0,
          "EPKCPIKGJOJ": {
            "Actor_HpThresholdRatio": 0.009999999776482582
          },
          "state": "Limbo"
        },
        "MantaRay_Ult_Dummy": {
          "modifierName": "",
          "elementDurability": 100.0,
          "OAOGLLGGJPD": [
            {
              "$type": "MoleMole.Config.SetGlobalValue",
              "value": 0.0,
              "key": "MantaRay_Ult_ReadyToDie",
              "maxValue": 0.0,
              "GCEOGBJIFCP": 0.0
            }
          ]
        },
        "MantaRay_Ult_ReadyToDie": {
          "modifierName": "",
          "elementDurability": 100.0,
          "BNJENAIMDPL": 2.0,
          "OAOGLLGGJPD": [
            {
              "$type": "MoleMole.Config.SetGlobalValue",
              "value": 1.0,
              "key": "MantaRay_Ult_ReadyToDie",
              "maxValue": 0.0,
              "GCEOGBJIFCP": 0.0
            },
            {
              "$type": "MoleMole.Config.Predicated",
              "otherTargets": {
                "$type": "DOMPKGOHKNB",
                "GLGMFGMCFNA": [
                  "Monster"
                ],
                "shapeName": "CircleR70H70C",
                "FAMCBLCIFCJ": "Alliance",
                "CONEFMBNECE": 1.0
              },
              "CKBKOCJPJMM": [
                {
                  "$type": "LCEDJHFGCEN",
                  "MOKIGFFMJNB": [
                    4038,
                    4032
                  ]
                },
                {
                  "$type": "IPGGGPIJONN",
                  "key": "MantaRay_Ult_ReadyToDie",
                  "value": 1.0
                }
              ],
              "successActions": [
                {
                  "$type": "MoleMole.Config.ApplyModifier",
                  "MLDBFKEGPEF": "Target",
                  "modifierName": "MantaRay_Ult_KillTarget"
                },
                {
                  "$type": "MoleMole.Config.RemoveModifier",
                  "modifierName": "MantaRay_Ult_Limbo"
                },
                {
                  "$type": "MoleMole.Config.KillSelf"
                }
              ]
            }
          ],
          "PJKELBNICOI": [
            {
              "$type": "MoleMole.Config.Predicated",
              "otherTargets": {
                "$type": "DOMPKGOHKNB",
                "GLGMFGMCFNA": [
                  "Monster"
                ],
                "shapeName": "CircleR70H70C",
                "FAMCBLCIFCJ": "Alliance",
                "CONEFMBNECE": 1.0
              },
              "CKBKOCJPJMM": [
                {
                  "$type": "LCEDJHFGCEN",
                  "MOKIGFFMJNB": [
                    4038,
                    4032
                  ]
                },
                {
                  "$type": "IPGGGPIJONN",
                  "key": "MantaRay_Ult_ReadyToDie",
                  "value": 1.0
                }
              ],
              "successActions": [
                {
                  "$type": "MoleMole.Config.ApplyModifier",
                  "MLDBFKEGPEF": "Target",
                  "modifierName": "MantaRay_Ult_KillTarget"
                },
                {
                  "$type": "MoleMole.Config.RemoveModifier",
                  "modifierName": "MantaRay_Ult_Limbo"
                },
                {
                  "$type": "MoleMole.Config.KillSelf"
                }
              ]
            }
          ]
        },
        "MantaRay_Ult_KillTarget": {
          "modifierName": "",
          "duration": 0.10000000149011612,
          "elementDurability": 100.0,
          "OAOGLLGGJPD": [
            {
              "$type": "MoleMole.Config.RemoveModifier",
              "modifierName": "MantaRay_Ult_Limbo"
            },
            {
              "$type": "MoleMole.Config.KillSelf",
              "KDGBDGHPFAE": [
                26162201
              ]
            }
          ]
        }
      },
      "OAOGLLGGJPD": [
        {
          "$type": "MoleMole.Config.ApplyModifier",
          "modifierName": "MantaRay_Ult_Limbo"
        },
        {
          "$type": "MoleMole.Config.SetSkillAnchor",
          "born": {
            "$type": "KPFCCIOJAMK",
            "useRotation": true
          }
        }
      ]
    }
  },
  {
    "Default": {
      "$type": "MoleMole.Config.GNKCLKNDOAK",
      "abilityName": "Monster_FauneAbyssale_MantaRay_CreateSlashPoint",
      "PIDAPNFJNDF": [
        {
          "$type": "MoleMole.Config.SpacialSteerAttackMixin",
          "KKAJFLMBIBP": [
            "UltBlade_BS",
            "UltBlade_Mirror_BS"
          ],
          "CDMIDLKPOMG": 70.0,
          "JFGKHMGIDBB": -70.0,
          "angularSpeed": 76.0,
          "GMIILFMLLJI": ""
        },
        {
          "$type": "MoleMole.Config.AttachToStateIDMixin",
          "stateIDs": [
            "UltBlade_BS",
            "UltBlade_Mirror_BS"
          ],
          "modifierName": "UltBlade_BS_VFX",
          "MJFJKAHGHDJ": ""
        },
        {
          "$type": "MoleMole.Config.DoActionByAnimatorStateIDMixin",
          "stateIDs": [
            "UltBlade_BS"
          ],
          "GEDBCEGNPPO": [
            {
              "$type": "MoleMole.Config.SetAnimatorTrigger",
              "otherTargets": {
                "$type": "DOMPKGOHKNB",
                "GLGMFGMCFNA": [
                  "Monster"
                ],
                "shapeName": "CircleR70H70C",
                "FAMCBLCIFCJ": "Alliance",
                "CONEFMBNECE": 1.0
              },
              "predicates": [
                {
                  "$type": "LCEDJHFGCEN",
                  "MOKIGFFMJNB": [
                    4038,
                    4032
                  ]
                }
              ],
              "triggerID": "StartComboSkill"
            }
          ],
          "MJFJKAHGHDJ": ""
        }
      ],
      "BFBDNNJCDLH": {
        "UltBlade_BS_VFX": {
          "modifierName": "",
          "elementDurability": 100.0,
          "OAOGLLGGJPD": [
            {
              "$type": "MoleMole.Config.AttachEffect",
              "effectPattern": "Eff_Monster_FauneAbyssale_MantaRay_Ult_UltBlade_BS",
              "effectTempleteID": -1.0
            },
            {
              "$type": "MoleMole.Config.RefreshUICombatBarLayout"
            }
          ]
        }
      },
      "EIIHGJGFDHC": [
        {
          "$type": "MoleMole.Config.ClearPos"
        },
        {
          "$type": "MoleMole.Config.PushPos",
          "OIKLBAMBELD": {
            "$type": "KPFCCIOJAMK",
            "useRotation": true
          }
        },
        {
          "$type": "MoleMole.Config.PushPos",
          "otherTargets": {
            "$type": "DOMPKGOHKNB",
            "GLGMFGMCFNA": [
              "Monster"
            ],
            "shapeName": "CircleR70H70C",
            "FAMCBLCIFCJ": "Alliance",
            "CONEFMBNECE": 1.0
          },
          "predicatesForeach": [
            {
              "$type": "LCEDJHFGCEN",
              "MOKIGFFMJNB": [
                4038,
                4032
              ]
            }
          ],
          "OIKLBAMBELD": {
            "$type": "INKMBJGOPCK"
          }
        },
        {
          "$type": "MoleMole.Config.GetPos",
          "key": "CENTER_POS"
        },
        {
          "$type": "MoleMole.Config.CreateGadget",
          "born": {
            "$type": "IPPOJFGKJFD",
            "CINDHKBGJMG": "CENTER_POS",
            "DLKPHEEBIKB": ""
          },
          "ACNKPHHONBO": true,
          "gadgetID": 42615018
        },
        {
          "$type": "MoleMole.Config.ServerMonsterLog",
          "paramList": [
            0,
            0,
            0
          ]
        }
      ]
    }
  },
  {
    "Default": {
      "$type": "MoleMole.Config.GNKCLKNDOAK",
      "abilityName": "Monster_FauneAbyssale_MantaRay_SlashPoint",
      "PIDAPNFJNDF": [
        {
          "$type": "MoleMole.Config.AttachModifierToSelfGlobalValueMixin",
          "globalValueKey": "SLASH_POINT_STATUS",
          "KADKJMOFOLI": 0.0,
          "FJEPHJNDEAI": [
            -0.5,
            0.5,
            1.5
          ],
          "IJEPHCMOAPE": [
            "SlashPoint_Logic",
            "Kill_Handler"
          ]
        }
      ],
      "BFBDNNJCDLH": {
        "SlashPoint_Logic": {
          "modifierName": "",
          "elementDurability": 100.0,
          "OAOGLLGGJPD": [
            {
              "$type": "MoleMole.Config.AttachEffect",
              "effectPattern": "Eff_Monster_FauneAbyssale_MantaRay_Ult_SlashPoint",
              "effectTempleteID": -1.0
            },
            {
              "$type": "MoleMole.Config.Predicated",
              "otherTargets": {
                "$type": "DOMPKGOHKNB",
                "GLGMFGMCFNA": [
                  "Monster"
                ],
                "shapeName": "CircleR70H70C",
                "FAMCBLCIFCJ": "All",
                "CONEFMBNECE": 1.0
              },
              "predicatesForeach": [
                {
                  "$type": "LCEDJHFGCEN",
                  "MOKIGFFMJNB": [
                    4038,
                    4032
                  ]
                }
              ],
              "successActions": [
                {
                  "$type": "MoleMole.Config.AttachModifier",
                  "MLDBFKEGPEF": "Target",
                  "modifierName": "SlashPoint_Line_VFX"
                }
              ]
            }
          ],
          "onBeingHit": [
            {
              "$type": "MoleMole.Config.Predicated",
              "MLDBFKEGPEF": "Target",
              "CKBKOCJPJMM": [
                {
                  "$type": "CPLGEFMJNHF",
                  "strikeType": "Slash"
                }
              ],
              "successActions": [
                {
                  "$type": "MoleMole.Config.FireEffect",
                  "effectPattern": "Eff_Monster_FauneAbyssale_MantaRay_Ult_SlashPoint_Break",
                  "effectTempleteID": -1.0
                },
                {
                  "$type": "MoleMole.Config.ApplyModifier",
                  "otherTargets": {
                    "$type": "DOMPKGOHKNB",
                    "GLGMFGMCFNA": [
                      "Monster"
                    ],
                    "shapeName": "CircleR70H70C",
                    "FAMCBLCIFCJ": "Alliance",
                    "CONEFMBNECE": 1.0
                  },
                  "predicates": [
                    {
                      "$type": "LCEDJHFGCEN",
                      "MOKIGFFMJNB": [
                        4038,
                        4032
                      ]
                    }
                  ],
                  "modifierName": "SlashPoint_Broken_MantaRay"
                },
                {
                  "$type": "MoleMole.Config.ServerMonsterLog",
                  "MLDBFKEGPEF": "Owner",
                  "paramList": [
                    0,
                    0,
                    1
                  ]
                },
                {
                  "$type": "MoleMole.Config.SetGlobalValue",
                  "value": 1.0,
                  "key": "SLASH_POINT_STATUS",
                  "maxValue": 0.0,
                  "GCEOGBJIFCP": 0.0
                }
              ]
            }
          ],
          "PMDLJDGOIKO": [
            {
              "$type": "MoleMole.Config.SetGlobalValue",
              "value": 1.0,
              "key": "SLASH_POINT_STATUS",
              "maxValue": 0.0,
              "GCEOGBJIFCP": 0.0
            }
          ]
        },
        "SlashPoint_Broken_MantaRay": {
          "modifierName": "",
          "elementDurability": 100.0,
          "OAOGLLGGJPD": [
            {
              "$type": "MoleMole.Config.SetAnimatorTrigger",
              "triggerID": "BeAbsorbed",
              "HLKBAOMMIGG": true
            },
            {
              "$type": "MoleMole.Config.LoseHP",
              "AMHLKHBNHBL": 0.20000000298023224,
              "CNHEAJCMHPI": ""
            },
            {
              "$type": "MoleMole.Config.FireEffect",
              "effectPattern": "Eff_Monster_FauneAbyssale_MantaRay_Ult_UltBlade_Break",
              "effectTempleteID": -1.0
            }
          ]
        },
        "SlashPoint_Line_VFX": {
          "modifierName": "",
          "elementDurability": 100.0,
          "OAOGLLGGJPD": [
            {
              "$type": "MoleMole.Config.AttachEffect",
              "MLDBFKEGPEF": "Applier",
              "effectPattern": "Eff_Monster_FauneAbyssale_MantaRay_Ult_BladeLink",
              "effectTempleteID": -1.0,
              "setSelfAsEffectPluginTarget": true
            }
          ]
        },
        "Kill_Handler": {
          "modifierName": "",
          "duration": 1.0,
          "elementDurability": 100.0,
          "MINFJCDAIBB": [
            {
              "$type": "MoleMole.Config.KillSelf"
            }
          ]
        }
      },
      "OAOGLLGGJPD": [
        {
          "$type": "MoleMole.Config.ApplyModifier",
          "modifierName": "SlashPoint_Logic"
        }
      ]
    }
  }
]