[
  {
    "Default": {
      "$type": "MoleMole.Config.GNKCLKNDOAK",
      "abilityName": "Monster_Eremite_FeMale_Standard_Longbow_StreeController",
      "PIDAPNFJNDF": [
        {
          "$type": "MoleMole.Config.SteerAttackMixin",
          "BAJBFPAEMHB": [
            "Alert"
          ],
          "endNormalizedTime": 0.6499999761581421,
          "angularSpeed": 150.0,
          "GMIILFMLLJI": "",
          "LFCDKEDGFFG": 2.0,
          "MJFJKAHGHDJ": ""
        },
        {
          "$type": "MoleMole.Config.SteerAttackMixin",
          "BAJBFPAEMHB": [
            "RapidMove"
          ],
          "angularSpeed": 150.0,
          "GMIILFMLLJI": "",
          "LFCDKEDGFFG": 2.0,
          "MJFJKAHGHDJ": ""
        },
        {
          "$type": "MoleMole.Config.SteerAttackMixin",
          "BAJBFPAEMHB": [
            "NormalAtk01_01"
          ],
          "startNormalizedTime": 0.25999999046325684,
          "endNormalizedTime": 0.8700000047683716,
          "angularSpeed": 150.0,
          "GMIILFMLLJI": "",
          "LFCDKEDGFFG": 2.0,
          "MJFJKAHGHDJ": ""
        },
        {
          "$type": "MoleMole.Config.SteerAttackMixin",
          "BAJBFPAEMHB": [
            "NormalAtk01_02"
          ],
          "endNormalizedTime": 0.5699999928474426,
          "angularSpeed": 150.0,
          "GMIILFMLLJI": "",
          "LFCDKEDGFFG": 2.0,
          "MJFJKAHGHDJ": ""
        },
        {
          "$type": "MoleMole.Config.SteerAttackMixin",
          "BAJBFPAEMHB": [
            "NormalAtk01_03"
          ],
          "endNormalizedTime": 0.27000001072883606,
          "angularSpeed": 150.0,
          "GMIILFMLLJI": "",
          "LFCDKEDGFFG": 2.0,
          "MJFJKAHGHDJ": ""
        },
        {
          "$type": "MoleMole.Config.SteerAttackMixin",
          "BAJBFPAEMHB": [
            "NormalAtk02"
          ],
          "endNormalizedTime": 0.3499999940395355,
          "angularSpeed": 150.0,
          "GMIILFMLLJI": "",
          "LFCDKEDGFFG": 2.0,
          "MJFJKAHGHDJ": ""
        },
        {
          "$type": "MoleMole.Config.SteerAttackMixin",
          "BAJBFPAEMHB": [
            "ArrowShoot_01_BS"
          ],
          "angularSpeed": 100.0,
          "GMIILFMLLJI": "",
          "LFCDKEDGFFG": 2.0,
          "MJFJKAHGHDJ": ""
        },
        {
          "$type": "MoleMole.Config.SteerAttackMixin",
          "BAJBFPAEMHB": [
            "ArrowShoot_01_Loop"
          ],
          "angularSpeed": 100.0,
          "GMIILFMLLJI": "",
          "LFCDKEDGFFG": 2.0,
          "MJFJKAHGHDJ": ""
        },
        {
          "$type": "MoleMole.Config.SteerAttackMixin",
          "BAJBFPAEMHB": [
            "ArrowShoot_01_AS"
          ],
          "angularSpeed": 100.0,
          "GMIILFMLLJI": "",
          "LFCDKEDGFFG": 2.0,
          "MJFJKAHGHDJ": ""
        },
        {
          "$type": "MoleMole.Config.SteerAttackMixin",
          "BAJBFPAEMHB": [
            "MeleeAttack_01"
          ],
          "endNormalizedTime": 0.27000001072883606,
          "angularSpeed": 200.0,
          "GMIILFMLLJI": "",
          "LFCDKEDGFFG": 2.0,
          "MJFJKAHGHDJ": ""
        },
        {
          "$type": "MoleMole.Config.SteerAttackMixin",
          "BAJBFPAEMHB": [
            "MoveShoot_01"
          ],
          "endNormalizedTime": 0.5370000004768372,
          "angularSpeed": 150.0,
          "GMIILFMLLJI": "",
          "LFCDKEDGFFG": 2.0,
          "MJFJKAHGHDJ": ""
        },
        {
          "$type": "MoleMole.Config.SteerAttackMixin",
          "BAJBFPAEMHB": [
            "AirShoot_01"
          ],
          "endNormalizedTime": 0.11999999731779099,
          "angularSpeed": 200.0,
          "GMIILFMLLJI": "",
          "LFCDKEDGFFG": 2.0,
          "MJFJKAHGHDJ": ""
        },
        {
          "$type": "MoleMole.Config.SteerAttackMixin",
          "BAJBFPAEMHB": [
            "Dodge"
          ],
          "angularSpeed": 120.0,
          "GMIILFMLLJI": "",
          "LFCDKEDGFFG": 2.0,
          "MJFJKAHGHDJ": ""
        },
        {
          "$type": "MoleMole.Config.SteerAttackMixin",
          "BAJBFPAEMHB": [
            "Improve_Shoot_01"
          ],
          "endNormalizedTime": 0.3919999897480011,
          "angularSpeed": 150.0,
          "GMIILFMLLJI": "",
          "LFCDKEDGFFG": 2.0,
          "MJFJKAHGHDJ": ""
        },
        {
          "$type": "MoleMole.Config.SteerAttackMixin",
          "BAJBFPAEMHB": [
            "Improve_ChargeShoot01_BS"
          ],
          "endNormalizedTime": 0.75,
          "angularSpeed": 180.0,
          "GMIILFMLLJI": "",
          "LFCDKEDGFFG": 2.0,
          "MJFJKAHGHDJ": ""
        }
      ]
    }
  },
  {
    "Default": {
      "$type": "MoleMole.Config.GNKCLKNDOAK",
      "abilityName": "Monster_Eremite_FeMale_Standard_Longbow_FightControl",
      "PIDAPNFJNDF": [
        {
          "$type": "MoleMole.Config.AttachToPoseIDMixin",
          "LEPKMNMJJHJ": [
            1,
            2,
            901,
            902,
            903
          ],
          "modifierName": "Eremite_OutFightState"
        },
        {
          "$type": "MoleMole.Config.AttachToPoseIDMixin",
          "LEPKMNMJJHJ": [
            101,
            102,
            111,
            201,
            301
          ],
          "modifierName": "Eremite_InFightState"
        }
      ],
      "BFBDNNJCDLH": {
        "Eremite_OutFightState": {
          "modifierName": "",
          "elementDurability": 100.0,
          "OAOGLLGGJPD": [
            {
              "$type": "MoleMole.Config.AddGlobalValue",
              "value": -10.0,
              "key": "_MONSTER_EREMITE_ISINFIGHT_",
              "HPICGAMGEGA": true,
              "maxValue": 1.0,
              "GCEOGBJIFCP": 0.0
            },
            {
              "$type": "MoleMole.Config.RemoveModifier",
              "modifierName": "Eremite_InFightState"
            }
          ]
        },
        "Eremite_InFightState": {
          "modifierName": "",
          "elementDurability": 100.0,
          "OAOGLLGGJPD": [
            {
              "$type": "MoleMole.Config.AddGlobalValue",
              "value": 10.0,
              "key": "_MONSTER_EREMITE_ISINFIGHT_",
              "HPICGAMGEGA": true,
              "maxValue": 1.0,
              "GCEOGBJIFCP": 0.0
            },
            {
              "$type": "MoleMole.Config.RemoveModifier",
              "modifierName": "Eremite_OutFightState"
            }
          ]
        }
      },
      "OAOGLLGGJPD": [
        {
          "$type": "MoleMole.Config.SetGlobalValue",
          "value": 0.0,
          "key": "_MONSTER_EREMITE_IMPROVED_",
          "HPICGAMGEGA": true,
          "maxValue": 1.0,
          "GCEOGBJIFCP": 0.0
        },
        {
          "$type": "MoleMole.Config.SetGlobalValue",
          "value": 0.0,
          "key": "_EREMITE_WEAK_TIMES_",
          "HPICGAMGEGA": true,
          "maxValue": 100.0,
          "GCEOGBJIFCP": 0.0
        },
        {
          "$type": "MoleMole.Config.SetGlobalValue",
          "value": 0.0,
          "key": "_MONSTER_EREMITE_OUTIMPROVED",
          "HPICGAMGEGA": true,
          "maxValue": 1.0,
          "GCEOGBJIFCP": 0.0
        },
        {
          "$type": "MoleMole.Config.SetGlobalValue",
          "value": 0.0,
          "key": "_MONSTER_EREMITE_IMPROVED_COUNT_",
          "HPICGAMGEGA": true,
          "maxValue": 99.0,
          "GCEOGBJIFCP": 0.0
        },
        {
          "$type": "MoleMole.Config.SetGlobalValue",
          "value": 0.0,
          "key": "_MONSTER_EREMITE_ISINFIGHT_",
          "HPICGAMGEGA": true,
          "maxValue": 1.0,
          "GCEOGBJIFCP": 0.0
        },
        {
          "$type": "MoleMole.Config.SetGlobalValue",
          "value": 0.0,
          "key": "_MONSTER_EREMITE_WEAK_",
          "HPICGAMGEGA": true,
          "maxValue": 1.0,
          "GCEOGBJIFCP": 0.0
        },
        {
          "$type": "MoleMole.Config.SetGlobalValue",
          "value": 0.0,
          "key": "_MONSTER_EREMITE_RETURNTOBORN_",
          "HPICGAMGEGA": true,
          "maxValue": 1.0,
          "GCEOGBJIFCP": 0.0
        }
      ]
    }
  },
  {
    "Default": {
      "$type": "MoleMole.Config.GNKCLKNDOAK",
      "abilityName": "Monster_Eremite_FeMale_Standard_Longbow_Improve",
      "PIDAPNFJNDF": [
        {
          "$type": "MoleMole.Config.AttachModifierToSelfGlobalValueMixin",
          "globalValueKey": "_MONSTER_EREMITE_IMPROVED_",
          "KADKJMOFOLI": 0.0,
          "FJEPHJNDEAI": [
            -0.5,
            0.5,
            1.5
          ],
          "IJEPHCMOAPE": [
            "Eremite_NormalState",
            "Eremite_ImproveState"
          ]
        },
        {
          "$type": "MoleMole.Config.AttachModifierToSelfGlobalValueMixin",
          "globalValueKey": "_MONSTER_EREMITE_WEAK_",
          "KADKJMOFOLI": 0.0,
          "FJEPHJNDEAI": [
            -0.5,
            0.5,
            1.5
          ],
          "IJEPHCMOAPE": [
            "Eremite_IsNotWeak",
            "Eremite_IsWeak"
          ]
        },
        {
          "$type": "MoleMole.Config.AttachModifierToSelfGlobalValueMixin",
          "globalValueKey": "_EREMITE_SLAVE_DIE_",
          "KADKJMOFOLI": 0.0,
          "FJEPHJNDEAI": [
            -0.5,
            0.5,
            1.5
          ],
          "IJEPHCMOAPE": [
            "Empty",
            "Eremite_RemoveImprove"
          ]
        },
        {
          "$type": "MoleMole.Config.AttachModifierToSelfGlobalValueMixin",
          "globalValueKey": "_MONSTER_EREMITE_OUTIMPROVED",
          "KADKJMOFOLI": 0.0,
          "FJEPHJNDEAI": [
            -0.5,
            0.5,
            1.5
          ],
          "IJEPHCMOAPE": [
            "Eremite_ISNotOutImproved",
            "Eremite_IsOutImproved"
          ]
        },
        {
          "$type": "MoleMole.Config.AttachModifierToSelfGlobalValueMixin",
          "globalValueKey": "_MONSTER_EREMITE_HP_PERCENT_",
          "KADKJMOFOLI": 0.0,
          "FJEPHJNDEAI": [
            -1.0,
            0.10000000149011612,
            1.0
          ],
          "IJEPHCMOAPE": [
            "Eremite_NormalState_Handle",
            "Eremite_EliteState_Handle"
          ]
        },
        {
          "$type": "MoleMole.Config.AttachToPoseIDMixin",
          "LEPKMNMJJHJ": [
            111,
            201
          ],
          "modifierName": "Improve_AddEndure"
        },
        {
          "$type": "MoleMole.Config.DoActionByStateIDMixin",
          "stateIDs": [
            "Die",
            "Die_RagDoll"
          ],
          "GEDBCEGNPPO": [
            {
              "$type": "MoleMole.Config.RemoveUniqueModifier",
              "modifierName": "UNIQUE_Monster_Eremite_FeMale_Standard_Longbow_Improve_LoopEffect"
            }
          ],
          "MJFJKAHGHDJ": ""
        },
        {
          "$type": "MoleMole.Config.AttachToPoseIDMixin",
          "LEPKMNMJJHJ": [
            102
          ],
          "modifierName": "WeakEnd_AddEndureHandle"
        }
      ],
      "LLLCANIGIOE": {
        "hppercent": 0.0
      },
      "BFBDNNJCDLH": {
        "Eremite_NormalState_Handle": {
          "modifierName": "",
          "elementDurability": 100.0,
          "JPIFFPJJEMK": [
            {
              "$type": "MoleMole.Config.AttachModifierToHPPercentMixin",
              "FJEPHJNDEAI": [
                0.699999988079071
              ],
              "IJEPHCMOAPE": [
                "Empty",
                "UNIQUE_Eremite_Force_ImproveState"
              ]
            }
          ]
        },
        "Eremite_EliteState_Handle": {
          "modifierName": "",
          "elementDurability": 100.0,
          "JPIFFPJJEMK": [
            {
              "$type": "MoleMole.Config.DoActionByPoseIDMixin",
              "LEPKMNMJJHJ": [
                1,
                2
              ],
              "GEDBCEGNPPO": [
                {
                  "$type": "MoleMole.Config.ApplyModifier",
                  "predicates": [
                    {
                      "$type": "IPGGGPIJONN",
                      "MLDBFKEGPEF": "Self",
                      "key": "_MONSTER_EREMITE_HP_PERCENT_",
                      "value": 0.0,
                      "compareType": "MoreThan"
                    }
                  ],
                  "modifierName": "UNIQUE_Eremite_Force_ImproveState"
                }
              ]
            }
          ],
          "OAOGLLGGJPD": [
            {
              "$type": "MoleMole.Config.ApplyModifier",
              "modifierName": "UNIQUE_Eremite_Force_ImproveState"
            }
          ]
        },
        "Improve_AddEndure": {
          "modifierName": "",
          "elementDurability": 100.0,
          "EPKCPIKGJOJ": {
            "Actor_EndureDelta": 0.0,
            "Entity_WeightRatio": 5.0
          }
        },
        "Empty": {
          "modifierName": "",
          "elementDurability": 100.0
        },
        "Eremite_RemoveImprove": {
          "modifierName": "",
          "elementDurability": 100.0,
          "OAOGLLGGJPD": [
            {
              "$type": "MoleMole.Config.RemoveUniqueModifier",
              "modifierName": "UNIQUE_Eremite_ImproveState_Properties"
            }
          ]
        },
        "UNIQUE_Eremite_Force_ImproveState": {
          "EODJPKICNGG": "Unique",
          "modifierName": "",
          "LLIJGLMEHFK": true,
          "elementDurability": 100.0,
          "OAOGLLGGJPD": [
            {
              "$type": "MoleMole.Config.SetPoseBool",
              "canBeHandledOnRecover": true,
              "predicates": [
                {
                  "$type": "IPGGGPIJONN",
                  "MLDBFKEGPEF": "Self",
                  "key": "_MONSTER_EREMITE_IMPROVED_COUNT_",
                  "value": 0.0,
                  "compareType": "NoneOrEqual"
                }
              ],
              "KIAGMJMPHPG": "ForceImprove",
              "value": true
            },
            {
              "$type": "MoleMole.Config.SetAISkillCDAvailableNow",
              "NICABCMPFMM": [
                401
              ]
            }
          ],
          "MINFJCDAIBB": [
            {
              "$type": "MoleMole.Config.SetPoseBool",
              "KIAGMJMPHPG": "ForceImprove"
            }
          ]
        },
        "Eremite_NormalState": {
          "modifierName": "",
          "elementDurability": 100.0,
          "OAOGLLGGJPD": [
            {
              "$type": "MoleMole.Config.SetPoseBool",
              "canBeHandledOnRecover": true,
              "KIAGMJMPHPG": "ImproveState"
            },
            {
              "$type": "MoleMole.Config.RemoveModifier",
              "modifierName": "Eremite_ImproveState"
            }
          ]
        },
        "Eremite_ImproveState": {
          "modifierName": "",
          "elementDurability": 100.0,
          "OAOGLLGGJPD": [
            {
              "$type": "MoleMole.Config.SetPoseBool",
              "canBeHandledOnRecover": true,
              "KIAGMJMPHPG": "ImproveState",
              "value": true
            },
            {
              "$type": "MoleMole.Config.RemoveModifier",
              "modifierName": "Eremite_NormalState"
            }
          ]
        },
        "Eremite_IsNotWeak": {
          "modifierName": "",
          "elementDurability": 100.0,
          "OAOGLLGGJPD": [
            {
              "$type": "MoleMole.Config.SetPoseBool",
              "canBeHandledOnRecover": true,
              "KIAGMJMPHPG": "WeakState"
            },
            {
              "$type": "MoleMole.Config.RemoveModifier",
              "modifierName": "Eremite_IsWeak"
            }
          ]
        },
        "Eremite_IsWeak": {
          "modifierName": "",
          "elementDurability": 100.0,
          "OAOGLLGGJPD": [
            {
              "$type": "MoleMole.Config.SetPoseBool",
              "canBeHandledOnRecover": true,
              "KIAGMJMPHPG": "WeakState",
              "value": true
            },
            {
              "$type": "MoleMole.Config.RemoveModifier",
              "modifierName": "Eremite_IsNotWeak"
            }
          ]
        },
        "Eremite_IsOutImproved": {
          "modifierName": "",
          "elementDurability": 100.0,
          "OAOGLLGGJPD": [
            {
              "$type": "MoleMole.Config.SetPoseBool",
              "canBeHandledOnRecover": true,
              "KIAGMJMPHPG": "OutImproved",
              "value": true
            },
            {
              "$type": "MoleMole.Config.RemoveModifier",
              "modifierName": "Eremite_ISNotOutImproved"
            }
          ]
        },
        "Eremite_ISNotOutImproved": {
          "modifierName": "",
          "elementDurability": 100.0,
          "OAOGLLGGJPD": [
            {
              "$type": "MoleMole.Config.SetPoseBool",
              "canBeHandledOnRecover": true,
              "KIAGMJMPHPG": "OutImproved"
            },
            {
              "$type": "MoleMole.Config.RemoveModifier",
              "modifierName": "Eremite_IsOutImproved"
            }
          ]
        },
        "UNIQUE_Eremite_ImproveState_Properties": {
          "EODJPKICNGG": "Unique",
          "modifierName": "",
          "LLIJGLMEHFK": true,
          "elementDurability": 100.0,
          "EPKCPIKGJOJ": {
            "Actor_EndureDelta": 0.0,
            "Entity_WeightRatio": 5.0,
            "Actor_PhysicalSubHurtDelta": 0.5,
            "Actor_FireSubHurtDelta": 0.5,
            "Actor_ElecSubHurtDelta": 0.5,
            "Actor_WaterSubHurtDelta": 0.5,
            "Actor_GrassSubHurtDelta": 0.5,
            "Actor_WindSubHurtDelta": 0.5,
            "Actor_IceSubHurtDelta": 0.5,
            "Actor_RockSubHurtDelta": 0.5
          },
          "OAOGLLGGJPD": [
            {
              "$type": "MoleMole.Config.AddGlobalValue",
              "canBeHandledOnRecover": true,
              "value": 10.0,
              "key": "_MONSTER_EREMITE_IMPROVED_",
              "HPICGAMGEGA": true,
              "maxValue": 1.0,
              "GCEOGBJIFCP": 0.0
            },
            {
              "$type": "MoleMole.Config.AddGlobalValue",
              "canBeHandledOnRecover": true,
              "value": -10.0,
              "key": "_MONSTER_EREMITE_RECOVER_",
              "HPICGAMGEGA": true,
              "maxValue": 1.0,
              "GCEOGBJIFCP": 0.0
            },
            {
              "$type": "MoleMole.Config.AddGlobalValue",
              "value": 1.0,
              "key": "_MONSTER_EREMITE_IMPROVED_COUNT_",
              "HPICGAMGEGA": true,
              "maxValue": 99.0,
              "GCEOGBJIFCP": 0.0
            },
            {
              "$type": "MoleMole.Config.SetAISkillGCD",
              "value": 5.0
            }
          ],
          "MINFJCDAIBB": [
            {
              "$type": "MoleMole.Config.RemoveUniqueModifier",
              "modifierName": "UNIQUE_Monster_Eremite_FeMale_Standard_Longbow_Improve_LoopEffect"
            },
            {
              "$type": "MoleMole.Config.RemoveUniqueModifier",
              "modifierName": "UNIQUE_Monster_Eremite_FeMale_Standard_Longbow_ChargeShoot_Effect"
            },
            {
              "$type": "MoleMole.Config.KillSelf",
              "otherTargets": {
                "$type": "DMGCADBNILM",
                "configID": 25110201
              }
            },
            {
              "$type": "MoleMole.Config.KillSelf",
              "otherTargets": {
                "$type": "DMGCADBNILM",
                "configID": 42550008
              }
            },
            {
              "$type": "MoleMole.Config.AddGlobalValue",
              "canBeHandledOnRecover": true,
              "value": 1.0,
              "key": "_EREMITE_WEAK_TIMES_",
              "HPICGAMGEGA": true,
              "maxValue": 100.0,
              "GCEOGBJIFCP": 0.0
            },
            {
              "$type": "MoleMole.Config.SetAnimatorTrigger",
              "doOffStage": true,
              "predicates": [
                {
                  "$type": "IPGGGPIJONN",
                  "MLDBFKEGPEF": "Self",
                  "key": "_MONSTER_EREMITE_RETURNTOBORN_",
                  "value": 0.0
                }
              ],
              "triggerID": "Weak"
            },
            {
              "$type": "MoleMole.Config.ApplyModifier",
              "modifierName": "Eremite_Out_Imporve"
            },
            {
              "$type": "MoleMole.Config.RemoveUniqueModifier",
              "modifierName": "UNIQUE_Eremite_Force_ImproveState"
            }
          ]
        },
        "Eremite_Out_Imporve": {
          "modifierName": "",
          "duration": 1.0,
          "elementDurability": 100.0,
          "OAOGLLGGJPD": [
            {
              "$type": "MoleMole.Config.SetGlobalValue",
              "value": 1.0,
              "key": "_MONSTER_EREMITE_OUTIMPROVED",
              "HPICGAMGEGA": true,
              "maxValue": 1.0,
              "GCEOGBJIFCP": 0.0
            },
            {
              "$type": "MoleMole.Config.AddGlobalValue",
              "canBeHandledOnRecover": true,
              "value": -10.0,
              "key": "_MONSTER_EREMITE_IMPROVED_",
              "HPICGAMGEGA": true,
              "maxValue": 1.0,
              "GCEOGBJIFCP": 0.0
            },
            {
              "$type": "MoleMole.Config.AddGlobalValue",
              "canBeHandledOnRecover": true,
              "value": 10.0,
              "key": "_MONSTER_EREMITE_WEAK_",
              "HPICGAMGEGA": true,
              "maxValue": 1.0,
              "GCEOGBJIFCP": 0.0
            }
          ]
        },
        "WeakEnd_AddEndureHandle": {
          "modifierName": "",
          "elementDurability": 100.0,
          "EPKCPIKGJOJ": {
            "Actor_EndureDelta": 5.0
          }
        }
      },
      "EIIHGJGFDHC": [
        {
          "$type": "MoleMole.Config.AttachModifier",
          "modifierName": "UNIQUE_Eremite_ImproveState_Properties"
        }
      ]
    }
  },
  {
    "Default": {
      "$type": "MoleMole.Config.GNKCLKNDOAK",
      "abilityName": "Monster_Eremite_FeMale_Standard_Longbow_Summon",
      "BFBDNNJCDLH": {
        "Summon_Eremite_Vulture_Wind": {
          "modifierName": "",
          "duration": 1.0,
          "elementDurability": 100.0,
          "OAOGLLGGJPD": [
            {
              "$type": "MoleMole.Config.Summon",
              "monsterID": 25110201,
              "born": {
                "$type": "KPFCCIOJAMK"
              },
              "ECDKGENMAPE": 25110201,
              "NMCJGPKPENP": true,
              "HCNLLLBBJFJ": true,
              "LBENEKACIIL": true
            }
          ]
        }
      },
      "EIIHGJGFDHC": [
        {
          "$type": "MoleMole.Config.SetGlobalValue",
          "value": 0.0,
          "key": "_EREMITE_SLAVE_DIE_",
          "HPICGAMGEGA": true,
          "maxValue": 1.0,
          "GCEOGBJIFCP": 0.0
        },
        {
          "$type": "MoleMole.Config.ApplyModifier",
          "modifierName": "Summon_Eremite_Vulture_Wind"
        }
      ]
    }
  },
  {
    "Default": {
      "$type": "MoleMole.Config.GNKCLKNDOAK",
      "abilityName": "Monster_Eremite_FeMale_Standard_Longbow_Improve_LoopEffect",
      "BFBDNNJCDLH": {
        "UNIQUE_Monster_Eremite_FeMale_Standard_Longbow_Improve_LoopEffect": {
          "EODJPKICNGG": "Unique",
          "modifierName": "",
          "LLIJGLMEHFK": true,
          "elementDurability": 100.0,
          "OAOGLLGGJPD": [
            {
              "$type": "MoleMole.Config.AttachEffect",
              "effectPattern": "Eff_Monster_Eremite_Female_Standard_Longbow_Wind_Improve_Loop_01",
              "effectTempleteID": -1.0
            }
          ]
        }
      },
      "EIIHGJGFDHC": [
        {
          "$type": "MoleMole.Config.AttachModifier",
          "modifierName": "UNIQUE_Monster_Eremite_FeMale_Standard_Longbow_Improve_LoopEffect"
        }
      ]
    }
  },
  {
    "Default": {
      "$type": "MoleMole.Config.GNKCLKNDOAK",
      "abilityName": "Monster_Eremite_FeMale_Standard_Longbow_Weak",
      "PIDAPNFJNDF": [
        {
          "$type": "MoleMole.Config.AttachToPoseIDMixin",
          "LEPKMNMJJHJ": [
            301
          ],
          "modifierName": "WeakState"
        },
        {
          "$type": "MoleMole.Config.AttachModifierToSelfGlobalValueMixin",
          "globalValueKey": "_MONSTER_EREMITE_RECOVER_",
          "KADKJMOFOLI": 0.0,
          "FJEPHJNDEAI": [
            -0.5,
            0.5,
            1.5
          ],
          "IJEPHCMOAPE": [
            "Empty",
            "Recover"
          ]
        }
      ],
      "LLLCANIGIOE": {
        "Eremite_Cur_HP": 0.0
      },
      "BFBDNNJCDLH": {
        "WeakState": {
          "modifierName": "",
          "duration": 10.0,
          "elementDurability": 100.0,
          "EPKCPIKGJOJ": {
            "Actor_EndureDelta": 0.0,
            "Actor_WindSubHurtDelta": -0.6000000238418579
          },
          "OAOGLLGGJPD": [
            {
              "$type": "MoleMole.Config.AttachEffect",
              "effectPattern": "Eff_Avatar_Properties_Defense_Down",
              "effectTempleteID": -1.0
            },
            {
              "$type": "MoleMole.Config.ApplyModifier",
              "predicates": [
                {
                  "$type": "IPGGGPIJONN",
                  "MLDBFKEGPEF": "Self",
                  "key": "_EREMITE_WEAK_TIMES_",
                  "value": 1.0
                }
              ],
              "modifierName": "WeakState_Damage"
            },
            {
              "$type": "MoleMole.Config.AddGlobalValue",
              "canBeHandledOnRecover": true,
              "value": 10.0,
              "key": "_MONSTER_EREMITE_WEAK_",
              "HPICGAMGEGA": true,
              "maxValue": 1.0,
              "GCEOGBJIFCP": 0.0
            },
            {
              "$type": "MoleMole.Config.AddGlobalValue",
              "canBeHandledOnRecover": true,
              "value": -10.0,
              "key": "_MONSTER_EREMITE_RECOVER_",
              "HPICGAMGEGA": true,
              "maxValue": 1.0,
              "GCEOGBJIFCP": 0.0
            }
          ],
          "MINFJCDAIBB": [
            {
              "$type": "MoleMole.Config.AddGlobalValue",
              "canBeHandledOnRecover": true,
              "value": -10.0,
              "key": "_MONSTER_EREMITE_WEAK_",
              "HPICGAMGEGA": true,
              "maxValue": 1.0,
              "GCEOGBJIFCP": 0.0
            },
            {
              "$type": "MoleMole.Config.AddGlobalValue",
              "canBeHandledOnRecover": true,
              "value": 10.0,
              "key": "_MONSTER_EREMITE_RECOVER_",
              "HPICGAMGEGA": true,
              "maxValue": 1.0,
              "GCEOGBJIFCP": 0.0
            }
          ]
        },
        "Empty": {
          "modifierName": "",
          "elementDurability": 100.0
        },
        "Recover": {
          "modifierName": "",
          "elementDurability": 100.0,
          "OAOGLLGGJPD": [
            {
              "$type": "MoleMole.Config.SetAnimatorTrigger",
              "triggerID": "Recover"
            }
          ]
        },
        "WeakState_Damage": {
          "modifierName": "",
          "duration": 1.0,
          "elementDurability": 100.0,
          "OAOGLLGGJPD": [
            {
              "$type": "MoleMole.Config.GetFightProperty",
              "doOffStage": true,
              "KOHKMGBOJCD": "FIGHT_PROP_CUR_HP",
              "globalValueKey": "_MONSTER_CUR_HP_"
            },
            {
              "$type": "MoleMole.Config.SetGlobalValueToOverrideMap",
              "doOffStage": true,
              "globalValueKey": "_MONSTER_CUR_HP_",
              "FDKJEIGEABF": "Eremite_Cur_HP"
            },
            {
              "$type": "MoleMole.Config.DamageByAttackValue",
              "attackInfo": {
                "attackTag": "",
                "attenuationTag": "",
                "attenuationGroup": "default",
                "attackProperty": {
                  "JMLMDDCBIAO": 0.0,
                  "damagePercentageRatio": 0.0,
                  "elementType": "Wind",
                  "elementDurability": 100.0,
                  "ignoreAttackerProperty": true,
                  "enBreak": 0.0,
                  "damageExtra": [
                    0.375,
                    "Eremite_Cur_HP",
                    "MUL"
                  ],
                  "trueDamage": true,
                  "damagePercentage": 0.0
                }
              }
            },
            {
              "$type": "MoleMole.Config.FireEffect",
              "effectPattern": "Eff_Monster_Eremite_Female_Standard_Longbow_Wind_ShieldBreak",
              "effectTempleteID": -1.0
            }
          ]
        }
      }
    }
  },
  {
    "Default": {
      "$type": "MoleMole.Config.GNKCLKNDOAK",
      "abilityName": "Monster_Eremite_FeMale_Standard_Longbow_ArrowHandle",
      "PIDAPNFJNDF": [
        {
          "$type": "MoleMole.Config.AttachModifierToSelfGlobalValueMixin",
          "globalValueKey": "_MONSTER_EREMITE_ATTACKARROW_",
          "KADKJMOFOLI": 0.0,
          "FJEPHJNDEAI": [
            -0.5,
            0.5,
            1.5
          ],
          "IJEPHCMOAPE": [
            "Close_Arrow",
            "Open_Arrow"
          ]
        },
        {
          "$type": "MoleMole.Config.AttachToStateIDMixin",
          "stateIDs": [
            "NormalAtk01_02",
            "NormalAtk01_03"
          ],
          "modifierName": "NormalAtk_Arrow_Handle",
          "MJFJKAHGHDJ": ""
        }
      ],
      "BFBDNNJCDLH": {
        "NormalAtk_Arrow_Handle": {
          "modifierName": "",
          "elementDurability": 100.0,
          "OAOGLLGGJPD": [
            {
              "$type": "MoleMole.Config.SetGlobalValue",
              "canBeHandledOnRecover": true,
              "value": 1.0,
              "key": "_MONSTER_EREMITE_ATTACKARROW_",
              "maxValue": 0.0,
              "GCEOGBJIFCP": 0.0
            }
          ],
          "MINFJCDAIBB": [
            {
              "$type": "MoleMole.Config.SetGlobalValue",
              "canBeHandledOnRecover": true,
              "value": 0.0,
              "key": "_MONSTER_EREMITE_ATTACKARROW_",
              "maxValue": 0.0,
              "GCEOGBJIFCP": 0.0
            }
          ]
        },
        "Close_Arrow": {
          "modifierName": "",
          "elementDurability": 100.0,
          "OAOGLLGGJPD": [
            {
              "$type": "MoleMole.Config.TriggerSetRenderersEnable",
              "LNJJKBMBDPG": [
                "SkillObj_Arrow"
              ]
            }
          ]
        },
        "Open_Arrow": {
          "modifierName": "",
          "elementDurability": 100.0,
          "OAOGLLGGJPD": [
            {
              "$type": "MoleMole.Config.TriggerSetRenderersEnable",
              "LNJJKBMBDPG": [
                "SkillObj_Arrow"
              ],
              "NJKBCLADIBK": true
            }
          ]
        }
      }
    }
  },
  {
    "Default": {
      "$type": "MoleMole.Config.GNKCLKNDOAK",
      "abilityName": "Monster_Eremite_FeMale_Standard_Longbow_OpenArrow",
      "EIIHGJGFDHC": [
        {
          "$type": "MoleMole.Config.SetGlobalValue",
          "canBeHandledOnRecover": true,
          "value": 1.0,
          "key": "_MONSTER_EREMITE_ATTACKARROW_",
          "maxValue": 0.0,
          "GCEOGBJIFCP": 0.0
        }
      ]
    }
  },
  {
    "Default": {
      "$type": "MoleMole.Config.GNKCLKNDOAK",
      "abilityName": "Monster_Eremite_FeMale_Standard_Longbow_ClosedArrow",
      "EIIHGJGFDHC": [
        {
          "$type": "MoleMole.Config.SetGlobalValue",
          "canBeHandledOnRecover": true,
          "value": 0.0,
          "key": "_MONSTER_EREMITE_ATTACKARROW_",
          "maxValue": 0.0,
          "GCEOGBJIFCP": 0.0
        }
      ]
    }
  },
  {
    "Default": {
      "$type": "MoleMole.Config.GNKCLKNDOAK",
      "abilityName": "Monster_Eremite_FeMale_Standard_Longbow_NormalAttack03",
      "BFBDNNJCDLH": {
        "Monster_Eremite_FeMale_Standard_Longbow_NormalAttack03": {
          "modifierName": "",
          "duration": 1.0,
          "elementDurability": 100.0,
          "OAOGLLGGJPD": [
            {
              "$type": "MoleMole.Config.FireEffect",
              "effectPattern": "Eff_Monster_Eremite_Female_Standard_Longbow_Wind_NormalAtk01_03_Damage",
              "born": {
                "$type": "KPFCCIOJAMK",
                "offset": {
                  "GOAPOLCAJBP": 0.0,
                  "FMOPCJGGFMH": 0.0,
                  "EJJEPFCDDAM": 2.5
                },
                "onGround": true,
                "alongGround": true
              },
              "effectTempleteID": -1.0
            },
            {
              "$type": "MoleMole.Config.TriggerAttackEvent",
              "attackEvent": {
                "attackPattern": {
                  "$type": "LGEKKELKDAN",
                  "triggerType": "TriggerNoRepeat",
                  "born": {
                    "$type": "KPFCCIOJAMK",
                    "offset": {
                      "GOAPOLCAJBP": 0.0,
                      "FMOPCJGGFMH": 0.0,
                      "EJJEPFCDDAM": 2.5
                    },
                    "onGround": true,
                    "alongGround": true
                  },
                  "height": 1.7999999523162842,
                  "MFGGJCPPBGA": 3.5
                },
                "attackInfo": {
                  "attackTag": "",
                  "attenuationTag": "",
                  "attenuationGroup": "default",
                  "attackProperty": {
                    "JMLMDDCBIAO": 0.75,
                    "damagePercentageRatio": 0.0,
                    "elementType": "Wind",
                    "elementDurability": 50.0,
                    "strikeType": "Default",
                    "enBreak": 200.0,
                    "damagePercentage": 0.0
                  },
                  "hitPattern": {
                    "onHitEffectName": "default",
                    "hitImpulseY": "",
                    "hitImpulseType": "LV5",
                    "hitHaltTimeScale": 0.05000000074505806
                  }
                }
              },
              "targetType": "Enemy"
            }
          ]
        }
      },
      "EIIHGJGFDHC": [
        {
          "$type": "MoleMole.Config.ApplyModifier",
          "modifierName": "Monster_Eremite_FeMale_Standard_Longbow_NormalAttack03"
        }
      ]
    }
  },
  {
    "Default": {
      "$type": "MoleMole.Config.GNKCLKNDOAK",
      "abilityName": "Monster_Eremite_FeMale_Standard_Longbow_NormalAttack03_RushMove",
      "EIIHGJGFDHC": [
        {
          "$type": "MoleMole.Config.TryFindBlinkPointByBorn",
          "MLDBFKEGPEF": "SelfAttackTarget",
          "born": {
            "$type": "LODIABIHEND",
            "NPLIHAMPJJI": -0.5,
            "EJNEFDNHEDM": 1.0,
            "HHEOPAODJFL": 2.0
          },
          "NKBPIDMBIPE": false,
          "GCEPPPEABPF": 2.5
        },
        {
          "$type": "MoleMole.Config.FixedMonsterRushMove",
          "AOFHAEGNPNM": {
            "$type": "IKOPIPACGFD"
          },
          "CCCEOGENKHO": 0.30000001192092896,
          "DEMLBEAGONB": [
            "NormalAtk02",
            "NormalAtk01_03"
          ],
          "FPDNOCJKMNB": "",
          "NGCHFKBMKDF": true
        }
      ]
    }
  },
  {
    "Default": {
      "$type": "MoleMole.Config.GNKCLKNDOAK",
      "abilityName": "Monster_Eremite_FeMale_Standard_Longbow_ArrowShotHandle",
      "PIDAPNFJNDF": [
        {
          "$type": "MoleMole.Config.AttachToStateIDMixin",
          "stateIDs": [
            "ArrowShoot_01_AS",
            "ArrowShoot_01_Loop",
            "ArrowShoot_01_BS",
            "MoveShoot_01"
          ],
          "modifierName": "Chargebow_NormalAtk_Storage_Effect",
          "MJFJKAHGHDJ": ""
        }
      ],
      "BFBDNNJCDLH": {
        "Chargebow_NormalAtk_Storage_Effect": {
          "modifierName": "",
          "elementDurability": 100.0,
          "JPIFFPJJEMK": [
            {
              "$type": "MoleMole.Config.SetAnimationPauseByAbilityStateMixin",
              "abilityStates": [
                "ElementFrozen",
                "ElementPetrifaction"
              ]
            }
          ]
        }
      }
    }
  },
  {
    "Default": {
      "$type": "MoleMole.Config.GNKCLKNDOAK",
      "abilityName": "Monster_Eremite_FeMale_Standard_Longbow_ArrowShoot",
      "EIIHGJGFDHC": [
        {
          "$type": "MoleMole.Config.TriggerBullet",
          "DCNFGAGBCMP": 42550001,
          "born": {
            "$type": "JEDNAGFKIDP",
            "direction": {
              "$type": "HCHFPIMPCJM",
              "maxAngle": 15.0,
              "BKMDHKCJDCB": ""
            },
            "OBNIJLKICKN": "WeaponL"
          }
        }
      ]
    }
  },
  {
    "Default": {
      "$type": "MoleMole.Config.GNKCLKNDOAK",
      "abilityName": "Monster_Eremite_FeMale_Standard_Longbow_ArrowShoot_Lauch",
      "BFBDNNJCDLH": {
        "NormalAtk_Action": {
          "modifierName": "",
          "elementDurability": 100.0,
          "EPKCPIKGJOJ": {
            "Animator_OverallSpeedRatioMultiplied": 0.009999999776482582
          },
          "OAOGLLGGJPD": [
            {
              "$type": "MoleMole.Config.FireHitEffect",
              "FIFHAPEFGCF": "",
              "hitScene": {
                "CFHBJGOPHMP": "Eff_Monster_Eremite_Female_Standard_Longbow_Wind_ArrowShoot_AS"
              }
            },
            {
              "$type": "MoleMole.Config.EnableBulletCollisionPluginTrigger"
            },
            {
              "$type": "MoleMole.Config.RemoveModifier",
              "modifierName": "NormalAtk_Eff"
            },
            {
              "$type": "MoleMole.Config.KillSelf",
              "NCBIBKJDCHI": 0.20000000298023224
            }
          ]
        },
        "NormalAtk_Eff": {
          "modifierName": "",
          "elementDurability": 100.0,
          "OAOGLLGGJPD": [
            {
              "$type": "MoleMole.Config.AttachEffect",
              "effectPattern": "Eff_Monster_Eremite_Female_Standard_Longbow_Wind_ArrowShoot_Bullet",
              "effectTempleteID": -1.0
            },
            {
              "$type": "MoleMole.Config.AttachEffect",
              "effectPattern": "Eff_Monster_Eremite_Female_Standard_Longbow_Wind_ArrowShoot_BulletTrail",
              "effectTempleteID": -1.0
            }
          ]
        },
        "NormalAtk_DamageBullet": {
          "modifierName": "",
          "elementDurability": 100.0,
          "OAOGLLGGJPD": [
            {
              "$type": "MoleMole.Config.TriggerBullet",
              "DCNFGAGBCMP": 42550002,
              "born": {
                "$type": "KPFCCIOJAMK"
              },
              "DGEKFHHECPG": "Self",
              "ACNKPHHONBO": true
            }
          ]
        }
      },
      "OAOGLLGGJPD": [
        {
          "$type": "MoleMole.Config.AttachModifier",
          "modifierName": "NormalAtk_Eff"
        },
        {
          "$type": "MoleMole.Config.AttachModifier",
          "modifierName": "NormalAtk_DamageBullet"
        }
      ],
      "MINFJCDAIBB": [
        {
          "$type": "MoleMole.Config.RemoveModifier",
          "modifierName": "NormalAtk_Eff"
        }
      ],
      "EIIHGJGFDHC": [
        {
          "$type": "MoleMole.Config.ApplyModifier",
          "modifierName": "NormalAtk_Action"
        }
      ],
      "DOFDCKKDGHL": [
        {
          "$type": "MoleMole.Config.RemoveModifier",
          "modifierName": "NormalAtk_Eff"
        }
      ]
    }
  },
  {
    "Default": {
      "$type": "MoleMole.Config.GNKCLKNDOAK",
      "abilityName": "Monster_Eremite_FeMale_Standard_Longbow_ArrowShoot_Damage",
      "EIIHGJGFDHC": [
        {
          "$type": "MoleMole.Config.TriggerAttackEvent",
          "attackEvent": {
            "attackPattern": {
              "$type": "IJCIPLFIDAK",
              "triggerType": "TriggerNoRepeat",
              "checkHitLayerType": "Both",
              "born": {
                "$type": "AGPIGGAPILF"
              },
              "MFGGJCPPBGA": 0.800000011920929
            },
            "attackInfo": {
              "attackTag": "Monster_Eremite_FeMale_Standard_Attack",
              "attenuationTag": "Monster_Eremite_FeMale_Standard_Longbow_ArrowShoot",
              "attenuationGroup": "default",
              "attackProperty": {
                "JMLMDDCBIAO": 0.75,
                "damagePercentageRatio": 0.0,
                "elementType": "Wind",
                "elementDurability": 50.0,
                "strikeType": "Default",
                "enBreak": 100.0,
                "damagePercentage": 0.0
              },
              "hitPattern": {
                "onHitEffectName": "default",
                "hitImpulseY": "",
                "hitImpulseType": "LV3",
                "hitHaltTimeScale": 0.009999999776482582
              },
              "canBeModifiedBy": "OriginOwner"
            }
          },
          "targetType": "Enemy"
        },
        {
          "$type": "MoleMole.Config.EnableBulletCollisionPluginTrigger"
        },
        {
          "$type": "MoleMole.Config.FireEffect",
          "effectPattern": "Eff_Monster_Eremite_Female_Standard_Longbow_Wind_ArrowShoot_AS",
          "born": {
            "$type": "AGPIGGAPILF"
          },
          "effectTempleteID": -1.0
        },
        {
          "$type": "MoleMole.Config.TriggerAbility",
          "MLDBFKEGPEF": "Owner",
          "abilityName": "Monster_Eremite_FeMale_Standard_Longbow_ArrowShoot_Lauch"
        },
        {
          "$type": "MoleMole.Config.KillSelf"
        }
      ]
    }
  },
  {
    "Default": {
      "$type": "MoleMole.Config.GNKCLKNDOAK",
      "abilityName": "Monster_Eremite_FeMale_Standard_Longbow_AirShoot01_Damage",
      "PIDAPNFJNDF": [
        {
          "$type": "MoleMole.Config.AttachToNormalizedTimeMixin",
          "GOPFOAFEKLC": "AirShoot_01",
          "modifierName": "Eremite_FeMale_Standard_Longbow_AirShoot01_Headle",
          "normalizeStart": 0.11999999731779099,
          "normalizeEnd": 0.3319999873638153,
          "MJFJKAHGHDJ": ""
        }
      ],
      "BFBDNNJCDLH": {
        "Eremite_FeMale_Standard_Longbow_AirShoot01_Damage": {
          "modifierName": "",
          "duration": 1.5499999523162842,
          "elementDurability": 100.0,
          "OAOGLLGGJPD": [
            {
              "$type": "MoleMole.Config.FireEffect",
              "effectPattern": "Eff_Monster_Eremite_Female_Standard_Longbow_Wind_AirShoot_Alert",
              "born": {
                "$type": "KPFCCIOJAMK",
                "offset": {
                  "GOAPOLCAJBP": 0.0,
                  "FMOPCJGGFMH": 0.0,
                  "EJJEPFCDDAM": 2.0
                },
                "onGround": true,
                "alongGround": true
              },
              "effectTempleteID": -1.0
            },
            {
              "$type": "MoleMole.Config.AttachModifier",
              "modifierName": "Eremite_FeMale_Standard_Longbow_AirShoot01_WindArea"
            }
          ],
          "MINFJCDAIBB": [
            {
              "$type": "MoleMole.Config.FireEffect",
              "effectPattern": "Eff_Monster_Eremite_Female_Standard_Longbow_Wind_AirShoot_Damage",
              "born": {
                "$type": "KPFCCIOJAMK",
                "offset": {
                  "GOAPOLCAJBP": 0.0,
                  "FMOPCJGGFMH": 0.0,
                  "EJJEPFCDDAM": 2.0
                },
                "onGround": true,
                "alongGround": true
              },
              "effectTempleteID": -1.0
            },
            {
              "$type": "MoleMole.Config.TriggerAttackEvent",
              "attackEvent": {
                "attackPattern": {
                  "$type": "LGEKKELKDAN",
                  "triggerType": "TriggerNoRepeat",
                  "born": {
                    "$type": "KPFCCIOJAMK",
                    "offset": {
                      "GOAPOLCAJBP": 0.0,
                      "FMOPCJGGFMH": 0.0,
                      "EJJEPFCDDAM": 2.0
                    },
                    "onGround": true,
                    "alongGround": true
                  },
                  "height": 2.0,
                  "MFGGJCPPBGA": 4.0
                },
                "attackInfo": {
                  "attackTag": "",
                  "attenuationTag": "",
                  "attenuationGroup": "default",
                  "attackProperty": {
                    "JMLMDDCBIAO": 0.800000011920929,
                    "damagePercentageRatio": 0.0,
                    "elementType": "Wind",
                    "elementDurability": 50.0,
                    "strikeType": "Default",
                    "enBreak": 200.0,
                    "damagePercentage": 0.0
                  },
                  "hitPattern": {
                    "onHitEffectName": "default",
                    "hitImpulseY": "",
                    "hitImpulseType": "LV5",
                    "hitHaltTimeScale": 0.05000000074505806
                  },
                  "forceCameraShake": true,
                  "cameraShake": {
                    "shakeType": "CustomVector",
                    "shakeRange": 0.10000000149011612,
                    "shakeTime": 1.0,
                    "shakeDir": {
                      "y": 2.0
                    },
                    "extension": {
                      "baseOnCamera": true,
                      "rangeAttenuation": 0.0
                    }
                  }
                }
              },
              "targetType": "Enemy"
            }
          ]
        },
        "Eremite_FeMale_Standard_Longbow_AirShoot01_WindArea": {
          "modifierName": "",
          "elementDurability": 100.0,
          "JPIFFPJJEMK": [
            {
              "$type": "MoleMole.Config.WindZoneMixin",
              "shapeName": "CircleR5",
              "born": {
                "$type": "JEDNAGFKIDP",
                "offset": {
                  "GOAPOLCAJBP": 0.0,
                  "FMOPCJGGFMH": -2.0,
                  "EJJEPFCDDAM": 0.0
                },
                "OBNIJLKICKN": "WeaponL"
              },
              "EOMPGKIBGJM": 5.0,
              "BBMDKFPBGFD": 0.0,
              "innerRadius": 1.0,
              "targetType": "Enemy",
              "modifierName": ""
            }
          ]
        },
        "Eremite_FeMale_Standard_Longbow_AirShoot01_Headle": {
          "modifierName": "",
          "elementDurability": 100.0,
          "EPKCPIKGJOJ": {
            "Actor_EndureDelta": 0.0,
            "Entity_WeightRatio": 5.0
          },
          "OAOGLLGGJPD": [
            {
              "$type": "MoleMole.Config.EnablePushColliderName",
              "DOFAFEMMILL": [
                "PushCollider"
              ]
            }
          ],
          "MINFJCDAIBB": [
            {
              "$type": "MoleMole.Config.EnablePushColliderName",
              "DOFAFEMMILL": [
                "PushCollider"
              ],
              "NJKBCLADIBK": true
            }
          ]
        }
      },
      "EIIHGJGFDHC": [
        {
          "$type": "MoleMole.Config.ApplyModifier",
          "modifierName": "Eremite_FeMale_Standard_Longbow_AirShoot01_Damage"
        }
      ]
    }
  },
  {
    "Default": {
      "$type": "MoleMole.Config.GNKCLKNDOAK",
      "abilityName": "Monster_Eremite_FeMale_Standard_Longbow_ChargeShoot_Handle",
      "PIDAPNFJNDF": [
        {
          "$type": "MoleMole.Config.AttachToStateIDMixin",
          "stateIDs": [
            "Improve_ChargeShoot01_BS",
            "Improve_ChargeShoot01_Loop",
            "Improve_ChargeShoot01_AS"
          ],
          "modifierName": "Remove_ChargeShoot_Effect",
          "MJFJKAHGHDJ": ""
        },
        {
          "$type": "MoleMole.Config.AttachToStateIDMixin",
          "stateIDs": [
            "Improve_ChargeShoot01_BS",
            "Improve_ChargeShoot01_Loop",
            "Improve_ChargeShoot01_AS"
          ],
          "modifierName": "Kill_Gadget",
          "MJFJKAHGHDJ": ""
        }
      ],
      "BFBDNNJCDLH": {
        "Eremite_Female_Standard_Longbow_ChargeShoot_ChargeGagdget": {
          "modifierName": "",
          "duration": 1.0,
          "elementDurability": 100.0,
          "OAOGLLGGJPD": [
            {
              "$type": "MoleMole.Config.CreateGadget",
              "MLDBFKEGPEF": "SelfAttackTarget",
              "born": {
                "$type": "INKMBJGOPCK",
                "onGround": true,
                "alongGround": true
              },
              "ACNKPHHONBO": true,
              "gadgetID": 42550008,
              "campID": 4001
            }
          ]
        },
        "Remove_ChargeShoot_Effect": {
          "modifierName": "",
          "elementDurability": 100.0,
          "MINFJCDAIBB": [
            {
              "$type": "MoleMole.Config.RemoveUniqueModifier",
              "modifierName": "UNIQUE_Monster_Eremite_FeMale_Standard_Longbow_ChargeShoot_Effect"
            }
          ]
        },
        "Kill_Gadget": {
          "modifierName": "",
          "elementDurability": 100.0,
          "MHBHKCIDGEP": [
            {
              "$type": "MoleMole.Config.ApplyModifier",
              "otherTargets": {
                "$type": "DMGCADBNILM",
                "configID": 42550008
              },
              "modifierName": "Kill_Self"
            }
          ]
        },
        "Kill_Self": {
          "modifierName": "",
          "duration": 1.0,
          "elementDurability": 100.0,
          "OAOGLLGGJPD": [
            {
              "$type": "MoleMole.Config.KillSelf",
              "KDGBDGHPFAE": [
                42550008
              ]
            }
          ]
        }
      },
      "EIIHGJGFDHC": [
        {
          "$type": "MoleMole.Config.ApplyModifier",
          "modifierName": "Eremite_Female_Standard_Longbow_ChargeShoot_ChargeGagdget"
        }
      ]
    }
  },
  {
    "Default": {
      "$type": "MoleMole.Config.GNKCLKNDOAK",
      "abilityName": "Monster_Eremite_FeMale_Standard_Longbow_ChargeShoot_Effect",
      "BFBDNNJCDLH": {
        "UNIQUE_Monster_Eremite_FeMale_Standard_Longbow_ChargeShoot_Effect": {
          "modifierName": "",
          "LLIJGLMEHFK": true,
          "duration": 5.0,
          "elementDurability": 100.0,
          "OAOGLLGGJPD": [
            {
              "$type": "MoleMole.Config.AttachEffect",
              "effectPattern": "Eff_Monster_Eremite_Female_Standard_Longbow_Wind_ChargeShoot_BS",
              "effectTempleteID": -1.0
            }
          ]
        }
      },
      "EIIHGJGFDHC": [
        {
          "$type": "MoleMole.Config.ApplyModifier",
          "modifierName": "UNIQUE_Monster_Eremite_FeMale_Standard_Longbow_ChargeShoot_Effect"
        }
      ]
    }
  },
  {
    "Default": {
      "$type": "MoleMole.Config.GNKCLKNDOAK",
      "abilityName": "Monster_Eremite_FeMale_Standard_Longbow_ChargeShoot_Damage",
      "BFBDNNJCDLH": {
        "Monster_Eremite_FeMale_Standard_Longbow_ChargeShoot_Effect": {
          "modifierName": "",
          "duration": 3.5,
          "elementDurability": 100.0,
          "BNJENAIMDPL": 3.0,
          "OAOGLLGGJPD": [
            {
              "$type": "MoleMole.Config.FireEffect",
              "effectPattern": "Eff_Monster_Eremite_Female_Standard_Longbow_Wind_ChargeShoot_DamageAlert",
              "born": {
                "$type": "KPFCCIOJAMK",
                "onGround": true
              },
              "effectTempleteID": -1.0
            }
          ],
          "PJKELBNICOI": [
            {
              "$type": "MoleMole.Config.ApplyModifier",
              "modifierName": "Monster_Eremite_FeMale_Standard_Longbow_ChargeShoot_Damage"
            }
          ]
        },
        "Monster_Eremite_FeMale_Standard_Longbow_ChargeShoot_Damage": {
          "modifierName": "",
          "duration": 0.1599999964237213,
          "elementDurability": 100.0,
          "OAOGLLGGJPD": [
            {
              "$type": "MoleMole.Config.FireEffect",
              "effectPattern": "Eff_Monster_Eremite_Female_Standard_Longbow_Wind_ChargeShoot_Bullet",
              "effectTempleteID": -1.0
            }
          ],
          "MINFJCDAIBB": [
            {
              "$type": "MoleMole.Config.FireEffect",
              "effectPattern": "Eff_Monster_Eremite_Female_Standard_Longbow_Wind_ChargeShoot_Damage",
              "born": {
                "$type": "KPFCCIOJAMK",
                "offset": {
                  "GOAPOLCAJBP": 0.0,
                  "FMOPCJGGFMH": 0.0,
                  "EJJEPFCDDAM": 0.0
                },
                "onGround": true,
                "alongGround": true
              },
              "effectTempleteID": -1.0
            },
            {
              "$type": "MoleMole.Config.TriggerAttackEvent",
              "attackEvent": {
                "attackPattern": {
                  "$type": "LGEKKELKDAN",
                  "triggerType": "TriggerNoRepeat",
                  "born": {
                    "$type": "KPFCCIOJAMK",
                    "offset": {
                      "GOAPOLCAJBP": 0.0,
                      "FMOPCJGGFMH": 0.0,
                      "EJJEPFCDDAM": 0.0
                    },
                    "onGround": true,
                    "alongGround": true
                  },
                  "height": 2.0,
                  "MFGGJCPPBGA": 6.0
                },
                "attackInfo": {
                  "attackTag": "",
                  "attenuationTag": "",
                  "attenuationGroup": "default",
                  "attackProperty": {
                    "JMLMDDCBIAO": 1.0,
                    "damagePercentageRatio": 0.0,
                    "elementType": "Wind",
                    "elementDurability": 50.0,
                    "strikeType": "Default",
                    "enBreak": 20000.0,
                    "damagePercentage": 0.0
                  },
                  "hitPattern": {
                    "onHitEffectName": "default",
                    "hitImpulseY": "",
                    "hitImpulseType": "LV7",
                    "hitHaltTimeScale": 0.05000000074505806
                  },
                  "forceCameraShake": true,
                  "cameraShake": {
                    "shakeType": "CustomVector",
                    "shakeRange": 0.30000001192092896,
                    "shakeTime": 1.0,
                    "shakeDir": {
                      "y": 2.0
                    },
                    "extension": {
                      "baseOnCamera": true,
                      "rangeAttenuation": 0.0
                    }
                  },
                  "canBeModifiedBy": "OriginOwner"
                }
              },
              "targetType": "Enemy"
            },
            {
              "$type": "MoleMole.Config.KillSelf"
            }
          ]
        }
      },
      "OAOGLLGGJPD": [
        {
          "$type": "MoleMole.Config.AttachModifier",
          "modifierName": "Monster_Eremite_FeMale_Standard_Longbow_ChargeShoot_Effect"
        },
        {
          "$type": "MoleMole.Config.SetGlobalValue",
          "value": 1.0,
          "key": "_EREMITE_CHARGESHOOT_DAMAGE_GADGET_",
          "maxValue": 0.0,
          "GCEOGBJIFCP": 0.0
        }
      ],
      "DOFDCKKDGHL": [
        {
          "$type": "MoleMole.Config.RemoveModifier",
          "modifierName": "Monster_Eremite_FeMale_Standard_Longbow_ChargeShoot_Effect"
        }
      ]
    }
  },
  {
    "Default": {
      "$type": "MoleMole.Config.GNKCLKNDOAK",
      "abilityName": "Monster_Eremite_FeMale_Standard_Longbow_MeleeAttack_01",
      "PIDAPNFJNDF": [
        {
          "$type": "MoleMole.Config.AttachToNormalizedTimeMixin",
          "GOPFOAFEKLC": "MeleeAttack_01",
          "modifierName": "MeleeAttack_RushMove",
          "normalizeStart": 0.23600000143051147,
          "normalizeEnd": 0.3319999873638153,
          "MJFJKAHGHDJ": ""
        }
      ],
      "BFBDNNJCDLH": {
        "MeleeAttack_RushMove": {
          "modifierName": "",
          "elementDurability": 100.0,
          "JPIFFPJJEMK": [
            {
              "$type": "MoleMole.Config.AttachActionToModifierMixin",
              "OAOGLLGGJPD": [
                {
                  "$type": "MoleMole.Config.EnablePushColliderName",
                  "DOFAFEMMILL": [
                    "PushCollider"
                  ]
                }
              ],
              "MINFJCDAIBB": [
                {
                  "$type": "MoleMole.Config.EnablePushColliderName",
                  "canBeHandledOnRecover": true,
                  "DOFAFEMMILL": [
                    "PushCollider"
                  ],
                  "NJKBCLADIBK": true
                }
              ]
            }
          ],
          "OAOGLLGGJPD": [
            {
              "$type": "MoleMole.Config.FireEffect",
              "effectPattern": "Eff_Monster_Eremite_Female_Standard_Longbow_Wind_MeleeAttack01_BS",
              "effectTempleteID": -1.0
            },
            {
              "$type": "MoleMole.Config.AttachEffect",
              "effectPattern": "Eff_Monster_Eremite_Female_Standard_Longbow_Wind_MeleeAttack01_RushMove",
              "effectTempleteID": -1.0
            },
            {
              "$type": "MoleMole.Config.AttachModifier",
              "modifierName": "Eremite_Invincible"
            },
            {
              "$type": "MoleMole.Config.AttachModifier",
              "modifierName": "Eremite_DenyLockOn"
            }
          ]
        },
        "Eremite_Invincible": {
          "modifierName": "",
          "elementDurability": 100.0,
          "state": "Invincible"
        },
        "Eremite_DenyLockOn": {
          "modifierName": "",
          "elementDurability": 100.0,
          "state": "DenyLockOn"
        }
      },
      "EIIHGJGFDHC": [
        {
          "$type": "MoleMole.Config.TryFindBlinkPointByBorn",
          "MLDBFKEGPEF": "SelfAttackTarget",
          "born": {
            "$type": "LODIABIHEND",
            "onGround": true,
            "NPLIHAMPJJI": -3.0,
            "EJNEFDNHEDM": 0.0,
            "HHEOPAODJFL": 50.0
          },
          "NKBPIDMBIPE": false,
          "GCEPPPEABPF": 2.5
        },
        {
          "$type": "MoleMole.Config.FixedMonsterRushMove",
          "AOFHAEGNPNM": {
            "$type": "IKOPIPACGFD"
          },
          "CCCEOGENKHO": 0.20000000298023224,
          "DEMLBEAGONB": [
            "MeleeAttack_01"
          ],
          "FPDNOCJKMNB": "",
          "NGCHFKBMKDF": true
        }
      ]
    }
  },
  {
    "Default": {
      "$type": "MoleMole.Config.GNKCLKNDOAK",
      "abilityName": "Monster_Eremite_FeMale_Standard_Longbow_Dobge",
      "PIDAPNFJNDF": [
        {
          "$type": "MoleMole.Config.AttachToStateIDMixin",
          "stateIDs": [
            "Dodge"
          ],
          "modifierName": "Monster_Eremite_FeMale_Standard_Longbow_Dodge",
          "MJFJKAHGHDJ": ""
        }
      ],
      "BFBDNNJCDLH": {
        "Monster_Eremite_FeMale_Standard_Longbow_Dodge": {
          "modifierName": "",
          "elementDurability": 100.0,
          "OAOGLLGGJPD": [
            {
              "$type": "MoleMole.Config.ApplyModifier",
              "modifierName": "DodgeInvincible"
            }
          ]
        },
        "DodgeInvincible": {
          "modifierName": "",
          "duration": 0.75,
          "elementDurability": 100.0,
          "state": "Invincible"
        }
      }
    }
  },
  {
    "Default": {
      "$type": "MoleMole.Config.GNKCLKNDOAK",
      "abilityName": "Monster_Eremite_FeMale_Standard_Longbow_ReturnToBorn",
      "PIDAPNFJNDF": [
        {
          "$type": "MoleMole.Config.AttachToPoseIDMixin",
          "LEPKMNMJJHJ": [
            901
          ],
          "modifierName": "ReturnToBorn_Start"
        },
        {
          "$type": "MoleMole.Config.AttachToAnimatorStateIDMixin",
          "stateIDs": [
            "SheathWeapon"
          ],
          "modifierName": "ReturnToBornHandler",
          "MJFJKAHGHDJ": ""
        },
        {
          "$type": "MoleMole.Config.AttachToStateIDMixin",
          "stateIDs": [
            "FeelWind"
          ],
          "modifierName": "FeelWind_Effect",
          "MJFJKAHGHDJ": ""
        }
      ],
      "BFBDNNJCDLH": {
        "ReturnToBorn_Start": {
          "modifierName": "",
          "elementDurability": 100.0,
          "OAOGLLGGJPD": [
            {
              "$type": "MoleMole.Config.SetAnimatorTrigger",
              "triggerID": "SheathWeaponTrigger"
            }
          ]
        },
        "ReturnToBornHandler": {
          "modifierName": "",
          "elementDurability": 100.0,
          "OAOGLLGGJPD": [
            {
              "$type": "MoleMole.Config.SetGlobalValue",
              "value": 0.0,
              "key": "_MONSTER_EREMITE_IMPROVED_",
              "HPICGAMGEGA": true,
              "maxValue": 1.0,
              "GCEOGBJIFCP": 0.0
            },
            {
              "$type": "MoleMole.Config.SetGlobalValue",
              "value": 1.0,
              "key": "_MONSTER_EREMITE_RETURNTOBORN_",
              "HPICGAMGEGA": true,
              "maxValue": 1.0,
              "GCEOGBJIFCP": 0.0
            },
            {
              "$type": "MoleMole.Config.SetGlobalValue",
              "value": 0.0,
              "key": "_MONSTER_EREMITE_WEAK_",
              "HPICGAMGEGA": true,
              "maxValue": 1.0,
              "GCEOGBJIFCP": 0.0
            },
            {
              "$type": "MoleMole.Config.SetGlobalValue",
              "value": 0.0,
              "key": "_MONSTER_EREMITE_IMPROVED_COUNT_",
              "HPICGAMGEGA": true,
              "maxValue": 99.0,
              "GCEOGBJIFCP": 0.0
            },
            {
              "$type": "MoleMole.Config.RemoveUniqueModifier",
              "modifierName": "UNIQUE_Eremite_ImproveState_Properties"
            },
            {
              "$type": "MoleMole.Config.RemoveUniqueModifier",
              "modifierName": "UNIQUE_Eremite_Force_ImproveState"
            }
          ],
          "MINFJCDAIBB": [
            {
              "$type": "MoleMole.Config.SetGlobalValue",
              "value": 0.0,
              "key": "_MONSTER_EREMITE_IMPROVED_",
              "HPICGAMGEGA": true,
              "maxValue": 1.0,
              "GCEOGBJIFCP": 0.0
            },
            {
              "$type": "MoleMole.Config.SetGlobalValue",
              "value": 0.0,
              "key": "_EREMITE_WEAK_TIMES_",
              "HPICGAMGEGA": true,
              "maxValue": 100.0,
              "GCEOGBJIFCP": 0.0
            },
            {
              "$type": "MoleMole.Config.SetGlobalValue",
              "value": 0.0,
              "key": "_MONSTER_EREMITE_IMPROVED_COUNT_",
              "HPICGAMGEGA": true,
              "maxValue": 99.0,
              "GCEOGBJIFCP": 0.0
            },
            {
              "$type": "MoleMole.Config.SetGlobalValue",
              "value": 0.0,
              "key": "_MONSTER_EREMITE_ISINFIGHT_",
              "HPICGAMGEGA": true,
              "maxValue": 1.0,
              "GCEOGBJIFCP": 0.0
            },
            {
              "$type": "MoleMole.Config.SetGlobalValue",
              "value": 0.0,
              "key": "_MONSTER_EREMITE_WEAK_",
              "HPICGAMGEGA": true,
              "maxValue": 1.0,
              "GCEOGBJIFCP": 0.0
            },
            {
              "$type": "MoleMole.Config.SetGlobalValue",
              "value": 0.0,
              "key": "_MONSTER_EREMITE_RETURNTOBORN_",
              "HPICGAMGEGA": true,
              "maxValue": 1.0,
              "GCEOGBJIFCP": 0.0
            },
            {
              "$type": "MoleMole.Config.SetGlobalValue",
              "value": 0.0,
              "key": "_MONSTER_EREMITE_OUTIMPROVED",
              "HPICGAMGEGA": true,
              "maxValue": 1.0,
              "GCEOGBJIFCP": 0.0
            },
            {
              "$type": "MoleMole.Config.ApplyModifier",
              "otherTargets": {
                "$type": "DMGCADBNILM",
                "configID": 25110201
              },
              "modifierName": "Slave_ReturnToBorn"
            },
            {
              "$type": "MoleMole.Config.KillSelf",
              "otherTargets": {
                "$type": "DMGCADBNILM",
                "configID": 25110201
              },
              "HDGCBLAALGP": true
            },
            {
              "$type": "MoleMole.Config.SetGlobalValue",
              "value": 0.0,
              "key": "_EREMITE_SLAVE_DIE_",
              "HPICGAMGEGA": true,
              "maxValue": 1.0,
              "GCEOGBJIFCP": 0.0
            }
          ]
        },
        "Slave_ReturnToBorn": {
          "modifierName": "",
          "duration": 1.0,
          "elementDurability": 100.0,
          "OAOGLLGGJPD": [
            {
              "$type": "MoleMole.Config.AddGlobalValue",
              "value": 1.0,
              "key": "_EREMITE_SLAVE_RETURNTOBORN_",
              "HPICGAMGEGA": true,
              "maxValue": 1.0,
              "GCEOGBJIFCP": 0.0
            }
          ]
        },
        "FeelWind_Effect": {
          "modifierName": "",
          "elementDurability": 100.0,
          "OAOGLLGGJPD": [
            {
              "$type": "MoleMole.Config.AttachEffect",
              "effectPattern": "Eff_Monster_Eremite_Female_Standard_Longbow_Wind_FeelWind_Effect",
              "effectTempleteID": -1.0
            }
          ]
        }
      },
      "EIIHGJGFDHC": [
        {
          "$type": "MoleMole.Config.ApplyModifier",
          "otherTargets": {
            "$type": "DMGCADBNILM",
            "configID": 25110201
          },
          "modifierName": "Slave_ReturnToBorn"
        },
        {
          "$type": "MoleMole.Config.KillSelf",
          "otherTargets": {
            "$type": "DMGCADBNILM",
            "configID": 25110201
          }
        }
      ]
    }
  }
]