[
  {
    "Default": {
      "$type": "MoleMole.Config.GNKCLKNDOAK",
      "abilityName": "Monster_Apparatus_Enigma_BionicFlora_Initialization",
      "OAOGLLGGJPD": [
        {
          "$type": "MoleMole.Config.SetGlobalValue",
          "value": 2.0,
          "key": "_GLOBALVALUE_EnigmaType",
          "maxValue": 0.0,
          "GCEOGBJIFCP": 0.0
        }
      ]
    }
  },
  {
    "Default": {
      "$type": "MoleMole.Config.GNKCLKNDOAK",
      "abilityName": "Monster_Apparatus_Enigma_BionicFlora_CoreActive",
      "PIDAPNFJNDF": [
        {
          "$type": "MoleMole.Config.AttachToAnimatorStateIDMixin",
          "stateIDs": [
            "PreyLoop"
          ],
          "modifierName": "UNIQUE_Monster_Apparatus_Enigma_BionicFlora_CoreState_Prey",
          "MJFJKAHGHDJ": ""
        },
        {
          "$type": "MoleMole.Config.AttachToAnimatorStateIDMixin",
          "stateIDs": [
            "ScorchingSandsLoop"
          ],
          "modifierName": "UNIQUE_Monster_Apparatus_Enigma_BionicFlora_CoreState_ScorchingSands",
          "MJFJKAHGHDJ": ""
        },
        {
          "$type": "MoleMole.Config.AttachToPoseIDMixin",
          "LEPKMNMJJHJ": [
            202
          ],
          "modifierName": "Enigma_BionicFlora_Weak"
        }
      ],
      "BFBDNNJCDLH": {
        "UNIQUE_Monster_Apparatus_Enigma_BionicFlora_CoreState_Prey": {
          "modifierName": "",
          "LLIJGLMEHFK": true,
          "elementDurability": 100.0,
          "OAOGLLGGJPD": [
            {
              "$type": "MoleMole.Config.AddGlobalValue",
              "value": 1.0,
              "key": "_MONSTER_Apparatus_Enigma_CoreActive",
              "HPICGAMGEGA": true,
              "maxValue": 1.0,
              "GCEOGBJIFCP": 0.0
            },
            {
              "$type": "MoleMole.Config.SetAnimatorInt",
              "intID": "PowerStage",
              "value": 2.0
            },
            {
              "$type": "MoleMole.Config.EnableHitBoxByName",
              "MAEGDKKBDPK": [
                "CoreBox"
              ],
              "NJKBCLADIBK": true
            },
            {
              "$type": "MoleMole.Config.EnableHitBoxByName",
              "MAEGDKKBDPK": [
                "FakeHeadBox",
                "SpineBox1",
                "SpineBox2",
                "SpineBox3",
                "SpineBox4",
                "RootBox"
              ]
            }
          ],
          "MINFJCDAIBB": [
            {
              "$type": "MoleMole.Config.EnableHitBoxByName",
              "MAEGDKKBDPK": [
                "CoreBox"
              ]
            },
            {
              "$type": "MoleMole.Config.EnableHitBoxByName",
              "MAEGDKKBDPK": [
                "FakeHeadBox",
                "SpineBox1",
                "SpineBox2",
                "SpineBox3",
                "SpineBox4",
                "RootBox"
              ],
              "NJKBCLADIBK": true
            },
            {
              "$type": "MoleMole.Config.SetAnimatorInt",
              "predicates": [
                {
                  "$type": "AKOMJJFEAFI",
                  "value": 0,
                  "parameter": "PowerStage"
                }
              ],
              "intID": "PowerStage",
              "value": 1.0
            },
            {
              "$type": "MoleMole.Config.AddGlobalValue",
              "value": -1.0,
              "key": "_MONSTER_Apparatus_Enigma_CoreActive",
              "HPICGAMGEGA": true,
              "maxValue": 1.0,
              "GCEOGBJIFCP": 0.0
            }
          ]
        },
        "UNIQUE_Monster_Apparatus_Enigma_BionicFlora_CoreState_ScorchingSands": {
          "modifierName": "",
          "LLIJGLMEHFK": true,
          "elementDurability": 100.0,
          "OAOGLLGGJPD": [
            {
              "$type": "MoleMole.Config.AddGlobalValue",
              "value": 1.0,
              "key": "_MONSTER_Apparatus_Enigma_CoreActive",
              "HPICGAMGEGA": true,
              "maxValue": 1.0,
              "GCEOGBJIFCP": 0.0
            },
            {
              "$type": "MoleMole.Config.SetAnimatorInt",
              "intID": "PowerStage",
              "value": 2.0
            },
            {
              "$type": "MoleMole.Config.EnableHitBoxByName",
              "MAEGDKKBDPK": [
                "CoreBox"
              ],
              "NJKBCLADIBK": true
            },
            {
              "$type": "MoleMole.Config.EnableHitBoxByName",
              "MAEGDKKBDPK": [
                "FakeHeadBox"
              ]
            }
          ],
          "MINFJCDAIBB": [
            {
              "$type": "MoleMole.Config.EnableHitBoxByName",
              "MAEGDKKBDPK": [
                "CoreBox"
              ]
            },
            {
              "$type": "MoleMole.Config.EnableHitBoxByName",
              "MAEGDKKBDPK": [
                "FakeHeadBox"
              ],
              "NJKBCLADIBK": true
            },
            {
              "$type": "MoleMole.Config.SetAnimatorInt",
              "predicates": [
                {
                  "$type": "AKOMJJFEAFI",
                  "value": 0,
                  "parameter": "PowerStage"
                }
              ],
              "intID": "PowerStage",
              "value": 1.0
            },
            {
              "$type": "MoleMole.Config.AddGlobalValue",
              "value": -1.0,
              "key": "_MONSTER_Apparatus_Enigma_CoreActive",
              "HPICGAMGEGA": true,
              "maxValue": 1.0,
              "GCEOGBJIFCP": 0.0
            }
          ]
        },
        "Enigma_BionicFlora_Weak": {
          "modifierName": "",
          "elementDurability": 100.0,
          "OAOGLLGGJPD": [
            {
              "$type": "MoleMole.Config.SetGlobalValue",
              "MLDBFKEGPEF": "Owner",
              "value": 1.0,
              "key": "_WATCHER_80104_2",
              "maxValue": 0.0,
              "GCEOGBJIFCP": 0.0
            }
          ]
        }
      },
      "DOFDCKKDGHL": [
        {
          "$type": "MoleMole.Config.SetGlobalValue",
          "MLDBFKEGPEF": "Owner",
          "value": 1.0,
          "key": "_WATCHER_80105_",
          "maxValue": 0.0,
          "GCEOGBJIFCP": 0.0
        }
      ]
    }
  },
  {
    "Default": {
      "$type": "MoleMole.Config.GNKCLKNDOAK",
      "abilityName": "Monster_Apparatus_Enigma_BionicFlora_RangeAtk_TriggerBullet",
      "EIIHGJGFDHC": [
        {
          "$type": "MoleMole.Config.FireEffect",
          "effectPattern": "Eff_Monster_Apparatus_Enigma_BionicFlora_RangeAtk",
          "effectTempleteID": -1.0
        },
        {
          "$type": "MoleMole.Config.TriggerBullet",
          "DCNFGAGBCMP": 42401006,
          "born": {
            "$type": "JEDNAGFKIDP",
            "offset": {
              "GOAPOLCAJBP": 0.0,
              "FMOPCJGGFMH": 0.0,
              "EJJEPFCDDAM": 0.0
            },
            "direction": {
              "$type": "HCHFPIMPCJM",
              "maxAngleType": "Vertical",
              "maxAngle": 30.0,
              "BKMDHKCJDCB": ""
            },
            "OBNIJLKICKN": "Head"
          }
        }
      ]
    }
  },
  {
    "Default": {
      "$type": "MoleMole.Config.GNKCLKNDOAK",
      "abilityName": "Monster_Apparatus_Enigma_BionicFlora_RangeAtk_Bullet",
      "BFBDNNJCDLH": {
        "Monster_Apparatus_Enigma_BionicFlora_RangeAtk_BulletEffect": {
          "modifierName": "",
          "elementDurability": 100.0,
          "OAOGLLGGJPD": [
            {
              "$type": "MoleMole.Config.AttachEffect",
              "effectPattern": "Eff_Monster_Apparatus_Enigma_BionicFlora_RangeAtk_Bullet",
              "effectTempleteID": -1.0
            },
            {
              "$type": "MoleMole.Config.AttachEffect",
              "effectPattern": "Eff_Monster_Apparatus_Enigma_BionicFlora_RangeAtk_Trail",
              "effectTempleteID": -1.0
            }
          ]
        }
      },
      "OAOGLLGGJPD": [
        {
          "$type": "MoleMole.Config.ApplyModifier",
          "modifierName": "Monster_Apparatus_Enigma_BionicFlora_RangeAtk_BulletEffect"
        }
      ],
      "EIIHGJGFDHC": [
        {
          "$type": "MoleMole.Config.TriggerAttackEvent",
          "attackEvent": {
            "attackPattern": {
              "$type": "IJCIPLFIDAK",
              "triggerType": "TriggerNoRepeat",
              "born": {
                "$type": "AGPIGGAPILF"
              },
              "MFGGJCPPBGA": 0.5
            },
            "attackInfo": {
              "attackTag": "",
              "attenuationTag": "",
              "attenuationGroup": "default",
              "attackProperty": {
                "JMLMDDCBIAO": 0.4000000059604645,
                "damagePercentageRatio": 0.0,
                "elementDurability": 100.0,
                "damagePercentage": 0.0
              },
              "hitPattern": {
                "onHitEffectName": "default",
                "hitImpulseY": "",
                "hitImpulseType": "LV1",
                "hitHaltTimeScale": 0.05000000074505806
              },
              "canBeModifiedBy": "OriginOwner"
            }
          },
          "targetType": "Enemy"
        },
        {
          "$type": "MoleMole.Config.FireEffect",
          "effectPattern": "Eff_Monster_Apparatus_Enigma_BionicFlora_RangeAtk_Explode",
          "born": {
            "$type": "AGPIGGAPILF"
          },
          "effectTempleteID": -1.0
        }
      ]
    }
  },
  {
    "Default": {
      "$type": "MoleMole.Config.GNKCLKNDOAK",
      "abilityName": "Monster_Apparatus_Enigma_BionicFlora_Dig",
      "PIDAPNFJNDF": [
        {
          "$type": "MoleMole.Config.AttachToAnimatorStateIDMixin",
          "stateIDs": [
            "DigIn",
            "UnderGround",
            "DigOut"
          ],
          "modifierName": "Monster_Apparatus_Enigma_BionicFlora_DigState",
          "MJFJKAHGHDJ": ""
        },
        {
          "$type": "MoleMole.Config.AttachToAnimatorStateIDMixin",
          "stateIDs": [
            "UnderGround"
          ],
          "modifierName": "Monster_Apparatus_Enigma_BionicFlora_ModeManager",
          "MJFJKAHGHDJ": ""
        },
        {
          "$type": "MoleMole.Config.AttachToAnimatorStateIDMixin",
          "stateIDs": [
            "DigOut",
            "PreyDigOut"
          ],
          "modifierName": "Monster_Apparatus_Enigma_BionicFlora_DigOut",
          "MJFJKAHGHDJ": ""
        }
      ],
      "BFBDNNJCDLH": {
        "Monster_Apparatus_Enigma_BionicFlora_ModeManager": {
          "modifierName": "",
          "elementDurability": 100.0,
          "OAOGLLGGJPD": [
            {
              "$type": "MoleMole.Config.ClearLockTarget",
              "MLDBFKEGPEF": "CurLocalAvatar"
            },
            {
              "$type": "MoleMole.Config.ApplyModifier",
              "predicates": [
                {
                  "$type": "IPGGGPIJONN",
                  "key": "_MONSTER_Apparatus_Enigma_BionicFlora_DigMode",
                  "value": 0.0,
                  "maxValue": 1.0,
                  "compareType": "NoneOrEqual"
                }
              ],
              "modifierName": "Monster_Apparatus_Enigma_BionicFlora_FindPosition_Near"
            },
            {
              "$type": "MoleMole.Config.ApplyModifier",
              "predicates": [
                {
                  "$type": "IPGGGPIJONN",
                  "key": "_MONSTER_Apparatus_Enigma_BionicFlora_DigMode",
                  "value": 1.0,
                  "maxValue": 1.0
                }
              ],
              "modifierName": "Monster_Apparatus_Enigma_BionicFlora_FindPosition_Far"
            }
          ]
        },
        "Monster_Apparatus_Enigma_BionicFlora_DigState": {
          "modifierName": "",
          "elementDurability": 100.0,
          "OAOGLLGGJPD": [
            {
              "$type": "MoleMole.Config.EnablePushColliderName",
              "DOFAFEMMILL": [
                "PushCollider"
              ]
            },
            {
              "$type": "MoleMole.Config.HideUIBillBoard",
              "hide": true
            },
            {
              "$type": "MoleMole.Config.ApplyModifier",
              "modifierName": "UnderGround_Invincible"
            },
            {
              "$type": "MoleMole.Config.ApplyModifier",
              "modifierName": "UnderGround_DenyLockOn"
            }
          ],
          "MINFJCDAIBB": [
            {
              "$type": "MoleMole.Config.EnablePushColliderName",
              "predicates": [
                {
                  "$type": "MMIJILGEJIB",
                  "logic": "LesserOrEqual",
                  "value": 400.0,
                  "parameter": "PoseID"
                }
              ],
              "DOFAFEMMILL": [
                "PushCollider"
              ],
              "NJKBCLADIBK": true
            },
            {
              "$type": "MoleMole.Config.HideUIBillBoard",
              "predicates": [
                {
                  "$type": "LNALCOIFPDK",
                  "predicates": [
                    {
                      "$type": "IPGGGPIJONN",
                      "key": "_Enigma_BossFight_Enhanced",
                      "value": 1.0
                    },
                    {
                      "$type": "IPGGGPIJONN",
                      "key": "_Enigma_BossFight",
                      "value": 0.0,
                      "compareType": "NoneOrEqual"
                    }
                  ]
                }
              ]
            },
            {
              "$type": "MoleMole.Config.RemoveModifier",
              "modifierName": "UnderGround_Invincible"
            },
            {
              "$type": "MoleMole.Config.RemoveModifier",
              "modifierName": "UnderGround_DenyLockOn"
            }
          ]
        },
        "UnderGround_Invincible": {
          "modifierName": "",
          "elementDurability": 100.0,
          "state": "Invincible"
        },
        "UnderGround_DenyLockOn": {
          "modifierName": "",
          "elementDurability": 100.0,
          "state": "DenyLockOn"
        },
        "Monster_Apparatus_Enigma_BionicFlora_FindPosition_Near": {
          "modifierName": "",
          "duration": 0.699999988079071,
          "elementDurability": 100.0,
          "MINFJCDAIBB": [
            {
              "$type": "MoleMole.Config.TryFindBlinkPoint",
              "MLDBFKEGPEF": "SelfAttackTarget",
              "IBCDLAHJPEM": 360.0,
              "HMMBMEAOIFF": 1.0,
              "PINMBGMOMIF": 2.0,
              "ignoreWater": true
            },
            {
              "$type": "MoleMole.Config.DoBlink"
            },
            {
              "$type": "MoleMole.Config.SetAnimatorTrigger",
              "triggerID": "DigOutTrigger"
            }
          ]
        },
        "Monster_Apparatus_Enigma_BionicFlora_FindPosition_Far": {
          "modifierName": "",
          "duration": 0.800000011920929,
          "elementDurability": 100.0,
          "MINFJCDAIBB": [
            {
              "$type": "MoleMole.Config.TryFindBlinkPoint",
              "MLDBFKEGPEF": "SelfAttackTarget",
              "IBCDLAHJPEM": 360.0,
              "HMMBMEAOIFF": 10.0,
              "PINMBGMOMIF": 12.0,
              "ignoreWater": true
            },
            {
              "$type": "MoleMole.Config.DoBlink"
            },
            {
              "$type": "MoleMole.Config.SetAnimatorTrigger",
              "triggerID": "DigOutTrigger"
            }
          ]
        },
        "Monster_Apparatus_Enigma_BionicFlora_DigOut": {
          "modifierName": "",
          "elementDurability": 100.0,
          "OAOGLLGGJPD": [
            {
              "$type": "MoleMole.Config.SetSelfAttackTarget",
              "MLDBFKEGPEF": "SelfAttackTarget",
              "CCJPKLDHIIJ": true
            }
          ]
        }
      }
    }
  },
  {
    "Default": {
      "$type": "MoleMole.Config.GNKCLKNDOAK",
      "abilityName": "Monster_Apparatus_Enigma_BionicFlora_Prey",
      "PIDAPNFJNDF": [
        {
          "$type": "MoleMole.Config.AttachToAnimatorStateIDMixin",
          "stateIDs": [
            "PreyBS",
            "PreyLoop"
          ],
          "modifierName": "Monster_Apparatus_Enigma_BionicFlora_PreyLoop_Effect",
          "MJFJKAHGHDJ": ""
        },
        {
          "$type": "MoleMole.Config.AttachToAnimatorStateIDMixin",
          "stateIDs": [
            "PreyBS",
            "PreyDigIn",
            "PreyUnderGround",
            "PreyDigOut",
            "PreyAS"
          ],
          "modifierName": "Monster_Apparatus_Enigma_BionicFlora_DigState",
          "MJFJKAHGHDJ": ""
        },
        {
          "$type": "MoleMole.Config.AttachToAnimatorStateIDMixin",
          "stateIDs": [
            "PreyUnderGround"
          ],
          "modifierName": "Monster_Apparatus_Enigma_BionicFlora_PreyBlink",
          "MJFJKAHGHDJ": ""
        },
        {
          "$type": "MoleMole.Config.AttachToAnimatorStateIDMixin",
          "stateIDs": [
            "PreyLoop"
          ],
          "modifierName": "Monster_Apparatus_Enigma_BionicFlora_PreyLoop_WindZone",
          "MJFJKAHGHDJ": ""
        }
      ],
      "BFBDNNJCDLH": {
        "Monster_Apparatus_Enigma_BionicFlora_DigState": {
          "modifierName": "",
          "elementDurability": 100.0,
          "OAOGLLGGJPD": [
            {
              "$type": "MoleMole.Config.EnablePushColliderName",
              "DOFAFEMMILL": [
                "PushCollider"
              ]
            },
            {
              "$type": "MoleMole.Config.HideUIBillBoard",
              "hide": true
            },
            {
              "$type": "MoleMole.Config.ApplyModifier",
              "modifierName": "UnderGround_Invincible"
            },
            {
              "$type": "MoleMole.Config.ApplyModifier",
              "modifierName": "UnderGround_DenyLockOn"
            }
          ],
          "MINFJCDAIBB": [
            {
              "$type": "MoleMole.Config.EnablePushColliderName",
              "predicates": [
                {
                  "$type": "MMIJILGEJIB",
                  "logic": "LesserOrEqual",
                  "value": 400.0,
                  "parameter": "PoseID"
                }
              ],
              "DOFAFEMMILL": [
                "PushCollider"
              ],
              "NJKBCLADIBK": true
            },
            {
              "$type": "MoleMole.Config.HideUIBillBoard",
              "predicates": [
                {
                  "$type": "LNALCOIFPDK",
                  "predicates": [
                    {
                      "$type": "IPGGGPIJONN",
                      "key": "_Enigma_BossFight_Enhanced",
                      "value": 1.0
                    },
                    {
                      "$type": "IPGGGPIJONN",
                      "key": "_Enigma_BossFight",
                      "value": 0.0,
                      "compareType": "NoneOrEqual"
                    }
                  ]
                }
              ]
            },
            {
              "$type": "MoleMole.Config.RemoveModifier",
              "modifierName": "UnderGround_Invincible"
            },
            {
              "$type": "MoleMole.Config.RemoveModifier",
              "modifierName": "UnderGround_DenyLockOn"
            }
          ]
        },
        "UnderGround_Invincible": {
          "modifierName": "",
          "elementDurability": 100.0,
          "state": "Invincible"
        },
        "UnderGround_DenyLockOn": {
          "modifierName": "",
          "elementDurability": 100.0,
          "state": "DenyLockOn"
        },
        "Monster_Apparatus_Enigma_BionicFlora_PreyBlink": {
          "modifierName": "",
          "elementDurability": 100.0,
          "OAOGLLGGJPD": [
            {
              "$type": "MoleMole.Config.TryFindBlinkPoint",
              "MLDBFKEGPEF": "SelfAttackTarget",
              "IBCDLAHJPEM": 360.0,
              "HMMBMEAOIFF": 1.0,
              "PINMBGMOMIF": 2.0,
              "ignoreWater": true
            },
            {
              "$type": "MoleMole.Config.DoBlink"
            }
          ]
        },
        "Monster_Apparatus_Enigma_BionicFlora_PreyLoop_Effect": {
          "modifierName": "",
          "elementDurability": 100.0,
          "OAOGLLGGJPD": [
            {
              "$type": "MoleMole.Config.AttachEffect",
              "effectPattern": "Eff_Monster_Apparatus_Enigma_BionicFlora_Prey",
              "effectTempleteID": -1.0
            }
          ]
        },
        "Monster_Apparatus_Enigma_BionicFlora_Prey_AdditionalWindZone": {
          "modifierName": "",
          "duration": 0.5,
          "elementDurability": 100.0,
          "JPIFFPJJEMK": [
            {
              "$type": "MoleMole.Config.WindZoneMixin",
              "shapeName": "CircleR10H10",
              "born": {
                "$type": "KPFCCIOJAMK"
              },
              "EOMPGKIBGJM": 6.0,
              "BBMDKFPBGFD": 1.5,
              "innerRadius": 3.5,
              "targetType": "Enemy",
              "predicates": [
                {
                  "$type": "FJAPHCAOEOL",
                  "logic": "LesserOrEqual",
                  "LPIJBCBFBGE": 100.0
                },
                {
                  "$type": "DLLOJMFICPG",
                  "JBEIOINCLFB": [
                    "Avatar"
                  ]
                }
              ],
              "modifierName": ""
            }
          ]
        },
        "Monster_Apparatus_Enigma_BionicFlora_PreyLoop_WindZone": {
          "modifierName": "",
          "elementDurability": 100.0,
          "BNJENAIMDPL": 0.4000000059604645,
          "JPIFFPJJEMK": [
            {
              "$type": "MoleMole.Config.WindZoneMixin",
              "shapeName": "CircleR8H10",
              "born": {
                "$type": "KPFCCIOJAMK"
              },
              "EOMPGKIBGJM": 5.0,
              "BBMDKFPBGFD": 1.2000000476837158,
              "innerRadius": 2.0,
              "targetType": "Enemy",
              "predicates": [
                {
                  "$type": "FJAPHCAOEOL",
                  "logic": "LesserOrEqual",
                  "LPIJBCBFBGE": 100.0
                },
                {
                  "$type": "DLLOJMFICPG",
                  "JBEIOINCLFB": [
                    "Avatar"
                  ]
                }
              ],
              "modifierName": ""
            },
            {
              "$type": "MoleMole.Config.IgnoreBulletAimPointMixin",
              "IAAAHBDBODB": "AimPoint_Prey",
              "HEDDHHPDFEL": true
            }
          ],
          "OAOGLLGGJPD": [
            {
              "$type": "MoleMole.Config.ApplyModifier",
              "modifierName": "Monster_Apparatus_Enigma_BionicFlora_Prey_AdditionalWindZone"
            },
            {
              "$type": "MoleMole.Config.AttachBulletAimPoint",
              "GCLGOIMEMMF": "AimPoint_Prey"
            }
          ],
          "MINFJCDAIBB": [
            {
              "$type": "MoleMole.Config.AttachBulletAimPoint",
              "GCLGOIMEMMF": "BulletAimPoint"
            }
          ],
          "PJKELBNICOI": [
            {
              "$type": "MoleMole.Config.TriggerAttackEvent",
              "attackEvent": {
                "attackPattern": {
                  "$type": "LGEKKELKDAN",
                  "triggerType": "TriggerNoRepeat",
                  "born": {
                    "$type": "KPFCCIOJAMK",
                    "offset": {
                      "GOAPOLCAJBP": 0.0,
                      "FMOPCJGGFMH": 0.0,
                      "EJJEPFCDDAM": 0.0
                    }
                  },
                  "height": 3.0,
                  "MFGGJCPPBGA": 8.0
                },
                "attackInfo": {
                  "attackTag": "Apparatus_Enigma_PowerAtk",
                  "attenuationTag": "",
                  "attenuationGroup": "default",
                  "attackProperty": {
                    "JMLMDDCBIAO": 0.5,
                    "damagePercentageRatio": 0.0,
                    "elementDurability": 25.0,
                    "strikeType": "Default",
                    "damagePercentage": 0.0
                  },
                  "hitPattern": {
                    "onHitEffectName": "default",
                    "hitImpulseY": "",
                    "hitImpulseType": "LV2"
                  },
                  "canBeModifiedBy": "OriginOwner"
                }
              },
              "targetType": "Enemy"
            }
          ]
        }
      },
      "EIIHGJGFDHC": [
        {
          "$type": "MoleMole.Config.ApplyModifier",
          "modifierName": "Monster_Apparatus_Enigma_BionicFlora_Prey_AdditionalWindZone"
        }
      ]
    }
  },
  {
    "Default": {
      "$type": "MoleMole.Config.GNKCLKNDOAK",
      "abilityName": "Monster_Apparatus_Enigma_BionicFlora_ScorchingSands",
      "PIDAPNFJNDF": [
        {
          "$type": "MoleMole.Config.AttachToAnimatorStateIDMixin",
          "stateIDs": [
            "ScorchingSandsBS",
            "ScorchingSandsLoop"
          ],
          "modifierName": "Monster_Apparatus_Enigma_BionicFlora_ScorchingSands_Effect",
          "MJFJKAHGHDJ": ""
        },
        {
          "$type": "MoleMole.Config.AttachToAnimatorStateIDMixin",
          "stateIDs": [
            "ScorchingSandsLoop"
          ],
          "modifierName": "Monster_Apparatus_Enigma_BionicFlora_ScorchingSands_Active",
          "MJFJKAHGHDJ": ""
        }
      ],
      "BFBDNNJCDLH": {
        "Monster_Apparatus_Enigma_BionicFlora_ScorchingSands_Effect": {
          "modifierName": "",
          "elementDurability": 100.0,
          "OAOGLLGGJPD": [
            {
              "$type": "MoleMole.Config.AttachEffect",
              "effectPattern": "Eff_Monster_Apparatus_Enigma_BionicFlora_ScorchingSands_Cannon",
              "effectTempleteID": -1.0
            },
            {
              "$type": "MoleMole.Config.AttachEffect",
              "effectPattern": "Eff_Monster_Apparatus_Enigma_BionicFlora_ScorchingSands_Core",
              "effectTempleteID": -1.0
            }
          ]
        },
        "Monster_Apparatus_Enigma_BionicFlora_ScorchingSands_Active": {
          "modifierName": "",
          "elementDurability": 100.0,
          "JPIFFPJJEMK": [
            {
              "$type": "MoleMole.Config.AttachToAbilityStateMixin",
              "abilityStates": [
                "ElementFrozen",
                "ElementPetrifaction"
              ],
              "LPDKJKNENBJ": true,
              "modifierName": "Monster_Apparatus_Enigma_BionicFlora_ScorchingSands_Trigger"
            }
          ],
          "OAOGLLGGJPD": [
            {
              "$type": "MoleMole.Config.CreateGadget",
              "MLDBFKEGPEF": "SelfAttackTarget",
              "predicates": [
                {
                  "$type": "IPGGGPIJONN",
                  "MLDBFKEGPEF": "Self",
                  "key": "_ENIGMA_Supporter_Tag_",
                  "value": 0.0,
                  "compareType": "NoneOrEqual"
                }
              ],
              "ABDNPBMDPFH": true,
              "born": {
                "$type": "CMAHLGBNGEC",
                "onGround": true,
                "NLEJFBMEHDJ": 0.5
              },
              "gadgetID": 42401007,
              "campID": 4001,
              "FAMCBLCIFCJ": "Alliance"
            },
            {
              "$type": "MoleMole.Config.CreateGadget",
              "otherTargets": {
                "$type": "DOMPKGOHKNB",
                "KHHAHILDJDO": 1,
                "sortType": "Nearest",
                "shapeName": "CircleR30",
                "FAMCBLCIFCJ": "SelfCamp",
                "CONEFMBNECE": 1.0
              },
              "predicates": [
                {
                  "$type": "IPGGGPIJONN",
                  "MLDBFKEGPEF": "Self",
                  "key": "_ENIGMA_Supporter_Tag_",
                  "value": 1.0
                },
                {
                  "$type": "IPGGGPIJONN",
                  "key": "_MONSTER_Apparatus_Enigma_SupportPosition",
                  "value": 1.0
                }
              ],
              "ABDNPBMDPFH": true,
              "born": {
                "$type": "INKMBJGOPCK",
                "offset": {
                  "GOAPOLCAJBP": 0.0,
                  "FMOPCJGGFMH": 0.0,
                  "EJJEPFCDDAM": 0.0
                },
                "direction": {
                  "$type": "BCHKMOHKDHH",
                  "HOHFMGJNCAG": {
                    "x": 90.0
                  }
                }
              },
              "gadgetID": 42401005,
              "campID": 4001,
              "FAMCBLCIFCJ": "Alliance"
            }
          ],
          "MINFJCDAIBB": [
            {
              "$type": "MoleMole.Config.ApplyModifier",
              "otherTargets": {
                "$type": "DMGCADBNILM",
                "sortType": "Reversed",
                "configID": 42401007
              },
              "modifierName": "KillSelf_Latency"
            }
          ]
        },
        "Monster_Apparatus_Enigma_BionicFlora_ScorchingSands_Trigger": {
          "modifierName": "",
          "elementDurability": 100.0,
          "OAOGLLGGJPD": [
            {
              "$type": "MoleMole.Config.AddGlobalValue",
              "otherTargets": {
                "$type": "DMGCADBNILM",
                "configID": 42401007
              },
              "value": -1.0,
              "key": "_IS_Controlled",
              "HPICGAMGEGA": true,
              "maxValue": 1.0,
              "GCEOGBJIFCP": 0.0
            }
          ],
          "MINFJCDAIBB": [
            {
              "$type": "MoleMole.Config.AddGlobalValue",
              "otherTargets": {
                "$type": "DMGCADBNILM",
                "configID": 42401007
              },
              "value": 1.0,
              "key": "_IS_Controlled",
              "HPICGAMGEGA": true,
              "maxValue": 1.0,
              "GCEOGBJIFCP": 0.0
            }
          ]
        },
        "KillSelf_Latency": {
          "modifierName": "",
          "duration": 0.5,
          "elementDurability": 100.0,
          "OAOGLLGGJPD": [
            {
              "$type": "MoleMole.Config.KillSelf",
              "KDGBDGHPFAE": [
                42401007
              ]
            }
          ]
        }
      }
    }
  },
  {
    "Default": {
      "$type": "MoleMole.Config.GNKCLKNDOAK",
      "abilityName": "Monster_Apparatus_Enigma_BionicFlora_ScorchingSands_Position",
      "PIDAPNFJNDF": [
        {
          "$type": "MoleMole.Config.AttachModifierToSelfGlobalValueMixin",
          "globalValueKey": "_IS_Controlled",
          "KADKJMOFOLI": 0.0,
          "FJEPHJNDEAI": [
            -0.5,
            0.5
          ],
          "IJEPHCMOAPE": [
            "Monster_Apparatus_Enigma_BionicFlora_ScorchingSands_Position"
          ]
        }
      ],
      "BFBDNNJCDLH": {
        "Monster_Apparatus_Enigma_BionicFlora_ScorchingSands_Position": {
          "modifierName": "",
          "elementDurability": 100.0,
          "BNJENAIMDPL": 0.4000000059604645,
          "OAOGLLGGJPD": [
            {
              "$type": "MoleMole.Config.AttachEffect",
              "effectPattern": "Eff_Monster_Apparatus_Enigma_BionicFlora_ScorchingSands_DamageArea",
              "effectTempleteID": -1.0
            }
          ],
          "PJKELBNICOI": [
            {
              "$type": "MoleMole.Config.TriggerAttackEvent",
              "attackEvent": {
                "attackPattern": {
                  "$type": "LGEKKELKDAN",
                  "triggerType": "TriggerNoRepeat",
                  "born": {
                    "$type": "KPFCCIOJAMK",
                    "offset": {
                      "GOAPOLCAJBP": 0.0,
                      "FMOPCJGGFMH": 0.0,
                      "EJJEPFCDDAM": 0.0
                    }
                  },
                  "height": 3.0,
                  "MFGGJCPPBGA": 5.800000190734863
                },
                "attackInfo": {
                  "attackTag": "Apparatus_Enigma_PowerAtk",
                  "attenuationTag": "Monster_Konungmathr_Attenuation_1",
                  "attenuationGroup": "Monster_Konungmathr_Attenuation_1",
                  "attackProperty": {
                    "JMLMDDCBIAO": 0.4000000059604645,
                    "damagePercentageRatio": 0.0,
                    "elementDurability": 100.0,
                    "strikeType": "Default",
                    "attackType": "Range",
                    "damagePercentage": 0.0
                  },
                  "hitPattern": {
                    "onHitEffectName": "default",
                    "hitImpulseY": "",
                    "hitImpulseType": "LV0",
                    "retreatType": "ByHitDirection"
                  },
                  "canBeModifiedBy": "OriginOwner"
                }
              },
              "targetType": "Enemy"
            },
            {
              "$type": "MoleMole.Config.KillSelf",
              "predicates": [
                {
                  "$type": "OFEHCLIGCND",
                  "predicates": [
                    {
                      "$type": "LNHOBEDOKHB",
                      "MLDBFKEGPEF": "Owner"
                    }
                  ]
                }
              ]
            }
          ]
        }
      },
      "DOFDCKKDGHL": [
        {
          "$type": "MoleMole.Config.FireEffect",
          "effectPattern": "Eff_Monster_Apparatus_Enigma_BionicFlora_ScorchingSands_DamageArea_AS",
          "effectTempleteID": -1.0
        }
      ]
    }
  },
  {
    "Default": {
      "$type": "MoleMole.Config.GNKCLKNDOAK",
      "abilityName": "Monster_Apparatus_Enigma_BionicFlora_FakeDieCollider",
      "PIDAPNFJNDF": [
        {
          "$type": "MoleMole.Config.AttachToPoseIDMixin",
          "LEPKMNMJJHJ": [
            402
          ],
          "modifierName": "Monster_Apparatus_Enigma_BionicFlora_FakeDieCollider"
        }
      ],
      "BFBDNNJCDLH": {
        "Monster_Apparatus_Enigma_BionicFlora_FakeDieCollider": {
          "modifierName": "",
          "elementDurability": 100.0,
          "JPIFFPJJEMK": [
            {
              "$type": "MoleMole.Config.AttachActionToModifierMixin",
              "OAOGLLGGJPD": [
                {
                  "$type": "MoleMole.Config.EnablePushColliderName",
                  "DOFAFEMMILL": [
                    "PushCollider_FakeDie"
                  ],
                  "NJKBCLADIBK": true
                }
              ],
              "MINFJCDAIBB": [
                {
                  "$type": "MoleMole.Config.EnablePushColliderName",
                  "DOFAFEMMILL": [
                    "PushCollider_FakeDie"
                  ]
                }
              ]
            }
          ]
        }
      }
    }
  },
  {
    "Default": {
      "$type": "MoleMole.Config.GNKCLKNDOAK",
      "abilityName": "Monster_Apparatus_Enigma_BionicFlora_Steer",
      "PIDAPNFJNDF": [
        {
          "$type": "MoleMole.Config.SteerAttackMixin",
          "BAJBFPAEMHB": [
            "NormalIdle"
          ],
          "endNormalizedTime": 5.0,
          "angularSpeed": 45.0,
          "GMIILFMLLJI": "",
          "MJFJKAHGHDJ": ""
        },
        {
          "$type": "MoleMole.Config.SteerAttackMixin",
          "BAJBFPAEMHB": [
            "Turn"
          ],
          "endNormalizedTime": 5.0,
          "angularSpeed": 180.0,
          "GMIILFMLLJI": "",
          "MJFJKAHGHDJ": ""
        },
        {
          "$type": "MoleMole.Config.SteerAttackMixin",
          "BAJBFPAEMHB": [
            "RangeAtkBS"
          ],
          "angularSpeed": 180.0,
          "GMIILFMLLJI": "",
          "MJFJKAHGHDJ": ""
        },
        {
          "$type": "MoleMole.Config.SteerAttackMixin",
          "BAJBFPAEMHB": [
            "RangeAtkLoop"
          ],
          "endNormalizedTime": 5.0,
          "angularSpeed": 90.0,
          "GMIILFMLLJI": "RangeAtkEnd",
          "LFCDKEDGFFG": 2.0,
          "MJFJKAHGHDJ": ""
        },
        {
          "$type": "MoleMole.Config.SteerAttackMixin",
          "BAJBFPAEMHB": [
            "Swipe"
          ],
          "endNormalizedTime": 0.30000001192092896,
          "angularSpeed": 360.0,
          "GMIILFMLLJI": "",
          "MJFJKAHGHDJ": ""
        }
      ]
    }
  }
]