[
  {
    "Default": {
      "$type": "MoleMole.Config.GNKCLKNDOAK",
      "abilityName": "Monster_Hound_Kanis_KanisTag",
      "OAOGLLGGJPD": [
        {
          "$type": "MoleMole.Config.SetGlobalValue",
          "value": 1.0,
          "key": "_KANIS_TAG_",
          "maxValue": 0.0,
          "GCEOGBJIFCP": 0.0
        }
      ]
    }
  },
  {
    "Default": {
      "$type": "MoleMole.Config.GNKCLKNDOAK",
      "abilityName": "Monster_Hound_Kanis_Biting",
      "PIDAPNFJNDF": [
        {
          "$type": "MoleMole.Config.AttachToStateIDMixin",
          "stateIDs": [
            "Biting"
          ],
          "modifierName": "Kanis_Biting_Actions",
          "MJFJKAHGHDJ": ""
        }
      ],
      "BFBDNNJCDLH": {
        "Kanis_Biting_Actions": {
          "modifierName": "",
          "elementDurability": 100.0,
          "OAOGLLGGJPD": [
            {
              "$type": "MoleMole.Config.FixedMonsterRushMove",
              "AOFHAEGNPNM": {
                "$type": "KPFCCIOJAMK",
                "offset": {
                  "GOAPOLCAJBP": 0.0,
                  "FMOPCJGGFMH": 0.0,
                  "EJJEPFCDDAM": 2.0
                }
              },
              "CCCEOGENKHO": 0.800000011920929,
              "DEMLBEAGONB": [
                "Biting"
              ],
              "FPDNOCJKMNB": ""
            }
          ]
        }
      }
    }
  },
  {
    "Default": {
      "$type": "MoleMole.Config.GNKCLKNDOAK",
      "abilityName": "Monster_Hound_Kanis_WavePaw",
      "PIDAPNFJNDF": [
        {
          "$type": "MoleMole.Config.AttachToStateIDMixin",
          "stateIDs": [
            "WavePaw"
          ],
          "modifierName": "Kanis_WavePaw_Actions",
          "MJFJKAHGHDJ": ""
        }
      ],
      "BFBDNNJCDLH": {
        "Kanis_WavePaw_Actions": {
          "modifierName": "",
          "elementDurability": 100.0,
          "OAOGLLGGJPD": [
            {
              "$type": "MoleMole.Config.FixedMonsterRushMove",
              "AOFHAEGNPNM": {
                "$type": "KPFCCIOJAMK",
                "offset": {
                  "GOAPOLCAJBP": 0.0,
                  "FMOPCJGGFMH": 0.0,
                  "EJJEPFCDDAM": 2.5
                }
              },
              "CCCEOGENKHO": 0.800000011920929,
              "DEMLBEAGONB": [
                "WavePaw"
              ],
              "FPDNOCJKMNB": ""
            }
          ]
        }
      }
    }
  },
  {
    "Default": {
      "$type": "MoleMole.Config.GNKCLKNDOAK",
      "abilityName": "Monster_Hound_Kanis_ExitBattle",
      "PIDAPNFJNDF": [
        {
          "$type": "MoleMole.Config.AttachToAIAlertnessMixin",
          "IJODKODFEMC": [
            0
          ],
          "modifierName": "ExitBattle"
        }
      ],
      "BFBDNNJCDLH": {
        "ExitBattle": {
          "modifierName": "",
          "elementDurability": 100.0,
          "OAOGLLGGJPD": [
            {
              "$type": "MoleMole.Config.SetGlobalValue",
              "value": 0.0,
              "key": "_KANIS_POSE_TAG_",
              "maxValue": 0.0,
              "GCEOGBJIFCP": 0.0
            },
            {
              "$type": "MoleMole.Config.SetChargeBarValue",
              "value": 0.0
            },
            {
              "$type": "MoleMole.Config.SetPoseInt",
              "intID": "ActivatedTag"
            },
            {
              "$type": "MoleMole.Config.SetAnimatorBool",
              "KIAGMJMPHPG": "ActivatedTag"
            },
            {
              "$type": "MoleMole.Config.SetAnimatorBool",
              "KIAGMJMPHPG": "ShaderActivatedTag"
            }
          ]
        }
      }
    }
  }
]