[
  {
    "Default": {
      "$type": "MoleMole.Config.GNKCLKNDOAK",
      "abilityName": "Monster_Legion_WQDenyLockOn",
      "PIDAPNFJNDF": [
        {
          "$type": "MoleMole.Config.AttachToPoseIDMixin",
          "LEPKMNMJJHJ": [
            121
          ],
          "modifierName": "PowerOff_DenyLockOn"
        }
      ],
      "BFBDNNJCDLH": {
        "PowerOff_DenyLockOn": {
          "modifierName": "",
          "elementDurability": 100.0,
          "state": "DenyLockOn"
        }
      },
      "LLNGCHGGPLC": true
    }
  },
  {
    "Default": {
      "$type": "MoleMole.Config.GNKCLKNDOAK",
      "abilityName": "Monster_Legion_KillGadget",
      "PIDAPNFJNDF": [
        {
          "$type": "MoleMole.Config.AttachToStateIDMixin",
          "stateIDs": [
            "Attack02_Loop"
          ],
          "modifierName": "ClearArea",
          "MJFJKAHGHDJ": ""
        }
      ],
      "BFBDNNJCDLH": {
        "ClearArea": {
          "modifierName": "",
          "elementDurability": 100.0,
          "BNJENAIMDPL": 0.10000000149011612,
          "OAOGLLGGJPD": [
            {
              "$type": "MoleMole.Config.Predicated",
              "otherTargets": {
                "$type": "DOMPKGOHKNB",
                "shapeName": "CircleR4H4",
                "FAMCBLCIFCJ": "Enemy",
                "CONEFMBNECE": 1.0
              },
              "CKBKOCJPJMM": [
                {
                  "$type": "IPGGGPIJONN",
                  "key": "_COMMON_GADGET_ISSUMMON",
                  "value": 0.0,
                  "compareType": "MoreThan"
                }
              ],
              "successActions": [
                {
                  "$type": "MoleMole.Config.ApplyModifier",
                  "MLDBFKEGPEF": "Target",
                  "modifierName": "Kill_Summon_Gadget"
                }
              ]
            }
          ],
          "PJKELBNICOI": [
            {
              "$type": "MoleMole.Config.Predicated",
              "otherTargets": {
                "$type": "DOMPKGOHKNB",
                "shapeName": "CircleR4H4",
                "FAMCBLCIFCJ": "Enemy",
                "CONEFMBNECE": 1.0
              },
              "CKBKOCJPJMM": [
                {
                  "$type": "IPGGGPIJONN",
                  "key": "_COMMON_GADGET_ISSUMMON",
                  "value": 0.0,
                  "compareType": "MoreThan"
                }
              ],
              "successActions": [
                {
                  "$type": "MoleMole.Config.ApplyModifier",
                  "MLDBFKEGPEF": "Target",
                  "modifierName": "Kill_Summon_Gadget"
                }
              ]
            }
          ]
        },
        "Kill_Summon_Gadget": {
          "modifierName": "",
          "elementDurability": 100.0,
          "OAOGLLGGJPD": [
            {
              "$type": "MoleMole.Config.KillSelf"
            }
          ]
        }
      }
    }
  },
  {
    "Default": {
      "$type": "MoleMole.Config.GNKCLKNDOAK",
      "abilityName": "Monster_Legion_ShaderDie",
      "EIIHGJGFDHC": [
        {
          "$type": "MoleMole.Config.SetAnimatorInt",
          "intID": "Skin",
          "value": 0.0
        },
        {
          "$type": "MoleMole.Config.TriggerSetRenderersEnableV2",
          "LNJJKBMBDPG": [
            "EffectWater"
          ]
        }
      ]
    }
  },
  {
    "Default": {
      "$type": "MoleMole.Config.GNKCLKNDOAK",
      "abilityName": "Monster_Legion_Die",
      "EIIHGJGFDHC": [
        {
          "$type": "MoleMole.Config.TriggerSetRenderersEnableV2",
          "LNJJKBMBDPG": [
            "EffectWater",
            "Body",
            "Weapon"
          ]
        }
      ]
    }
  },
  {
    "Default": {
      "$type": "MoleMole.Config.GNKCLKNDOAK",
      "abilityName": "Monster_Legion_Alert",
      "PIDAPNFJNDF": [
        {
          "$type": "MoleMole.Config.AttachToStateIDMixin",
          "stateIDs": [
            "Alert"
          ],
          "modifierName": "LegionAlert",
          "MJFJKAHGHDJ": ""
        },
        {
          "$type": "MoleMole.Config.AttachToStateIDMixin",
          "stateIDs": [
            "StandbyStatue"
          ],
          "modifierName": "StatueBillboard",
          "MJFJKAHGHDJ": ""
        },
        {
          "$type": "MoleMole.Config.AttachToStateIDMixin",
          "stateIDs": [
            "StandbyStatue",
            "Alert"
          ],
          "modifierName": "StatueMode",
          "MJFJKAHGHDJ": ""
        },
        {
          "$type": "MoleMole.Config.AttachToPoseIDMixin",
          "LEPKMNMJJHJ": [
            111,
            121
          ],
          "modifierName": "LegionSkin"
        },
        {
          "$type": "MoleMole.Config.AttachToPoseIDMixin",
          "LEPKMNMJJHJ": [
            121
          ],
          "modifierName": "LegionLimbo"
        }
      ],
      "LLLCANIGIOE": {
        "sub_hurt_delta_positive_before_battle": 2.0
      },
      "BFBDNNJCDLH": {
        "LegionLimbo": {
          "modifierName": "",
          "elementDurability": 100.0,
          "OAOGLLGGJPD": [
            {
              "$type": "MoleMole.Config.AttachModifier",
              "modifierName": "PowerOff_Invincible"
            },
            {
              "$type": "MoleMole.Config.AttachModifier",
              "modifierName": "PowerOff_IsGhostToAllied"
            },
            {
              "$type": "MoleMole.Config.AttachModifier",
              "modifierName": "PowerOff_IsGhostToEnemy"
            },
            {
              "$type": "MoleMole.Config.AttachModifier",
              "modifierName": "PowerOff_MuteTaunt"
            }
          ]
        },
        "StatueMode": {
          "modifierName": "",
          "elementDurability": 100.0,
          "EPKCPIKGJOJ": {
            "Entity_MassRatio": 1000.0,
            "Entity_WeightRatio": 5.0,
            "Actor_EndureDelta": 0.0010000000474974513,
            "Actor_PhysicalSubHurtDelta": "sub_hurt_delta_positive_before_battle",
            "Actor_FireSubHurtDelta": "sub_hurt_delta_positive_before_battle",
            "Actor_ElecSubHurtDelta": "sub_hurt_delta_positive_before_battle",
            "Actor_IceSubHurtDelta": "sub_hurt_delta_positive_before_battle",
            "Actor_WaterSubHurtDelta": "sub_hurt_delta_positive_before_battle",
            "Actor_GrassSubHurtDelta": "sub_hurt_delta_positive_before_battle",
            "Actor_WindSubHurtDelta": "sub_hurt_delta_positive_before_battle",
            "Actor_RockSubHurtDelta": "sub_hurt_delta_positive_before_battle"
          }
        },
        "StatueBillboard": {
          "modifierName": "",
          "elementDurability": 100.0,
          "JPIFFPJJEMK": [
            {
              "$type": "MoleMole.Config.AttachActionToModifierMixin",
              "OAOGLLGGJPD": [
                {
                  "$type": "MoleMole.Config.HideUIBillBoard",
                  "hide": true
                }
              ],
              "MINFJCDAIBB": [
                {
                  "$type": "MoleMole.Config.HideUIBillBoard"
                }
              ]
            }
          ]
        },
        "LegionAlert": {
          "modifierName": "",
          "elementDurability": 100.0,
          "OAOGLLGGJPD": [
            {
              "$type": "MoleMole.Config.SetPoseBool",
              "KIAGMJMPHPG": "Statue"
            },
            {
              "$type": "MoleMole.Config.SetPoseBool",
              "KIAGMJMPHPG": "BlindStatue"
            }
          ]
        },
        "LegionSkin": {
          "modifierName": "",
          "elementDurability": 100.0,
          "JPIFFPJJEMK": [
            {
              "$type": "MoleMole.Config.AttachActionToModifierMixin",
              "OAOGLLGGJPD": [
                {
                  "$type": "MoleMole.Config.SetAnimatorInt",
                  "intID": "Skin",
                  "value": 0.0
                }
              ],
              "MINFJCDAIBB": [
                {
                  "$type": "MoleMole.Config.SetAnimatorInt",
                  "intID": "Skin",
                  "value": 1.0
                }
              ]
            }
          ]
        },
        "PowerOff_Invincible": {
          "modifierName": "",
          "elementDurability": 100.0,
          "state": "Invincible"
        },
        "PowerOff_IsGhostToAllied": {
          "modifierName": "",
          "elementDurability": 100.0,
          "state": "IsGhostToAllied"
        },
        "PowerOff_IsGhostToEnemy": {
          "modifierName": "",
          "elementDurability": 100.0,
          "state": "IsGhostToEnemy"
        },
        "PowerOff_MuteTaunt": {
          "modifierName": "",
          "elementDurability": 100.0,
          "state": "MuteTaunt"
        }
      }
    }
  },
  {
    "Default": {
      "$type": "MoleMole.Config.GNKCLKNDOAK",
      "abilityName": "Monster_Legion_WeakAS",
      "EIIHGJGFDHC": [
        {
          "$type": "MoleMole.Config.SetPoseInt",
          "canBeHandledOnRecover": true,
          "intID": "StateFlag",
          "value": 1
        },
        {
          "$type": "MoleMole.Config.TriggerSetRenderersEnableV2",
          "canBeHandledOnRecover": true,
          "LNJJKBMBDPG": [
            "EffectWater"
          ]
        }
      ]
    }
  },
  {
    "Default": {
      "$type": "MoleMole.Config.GNKCLKNDOAK",
      "abilityName": "Monster_Legion_Weak",
      "PIDAPNFJNDF": [
        {
          "$type": "MoleMole.Config.DoActionByStateIDMixin",
          "stateIDs": [
            "Weak_BS"
          ],
          "GEDBCEGNPPO": [
            {
              "$type": "MoleMole.Config.ApplyModifier",
              "modifierName": "WeakeState_BS"
            }
          ],
          "MJFJKAHGHDJ": ""
        },
        {
          "$type": "MoleMole.Config.AttachToStateIDMixin",
          "stateIDs": [
            "Weak_BS"
          ],
          "modifierName": "WeakBulletCleaner",
          "MJFJKAHGHDJ": ""
        },
        {
          "$type": "MoleMole.Config.AttachToStateIDMixin",
          "stateIDs": [
            "Weak_Loop"
          ],
          "modifierName": "WeakDieState",
          "MJFJKAHGHDJ": ""
        }
      ],
      "LLLCANIGIOE": {
        "WeakTime": 8.0
      },
      "BFBDNNJCDLH": {
        "WeakBulletCleaner": {
          "modifierName": "",
          "elementDurability": 100.0,
          "OAOGLLGGJPD": [
            {
              "$type": "MoleMole.Config.KillSelf",
              "otherTargets": {
                "$type": "DMGCADBNILM",
                "configID": 42614102
              }
            }
          ]
        },
        "EffectWaterClose": {
          "modifierName": "",
          "elementDurability": 100.0,
          "OAOGLLGGJPD": [
            {
              "$type": "MoleMole.Config.TriggerSetRenderersEnableV2",
              "LNJJKBMBDPG": [
                "EffectWater"
              ]
            }
          ]
        },
        "RecoverRendererManager": {
          "modifierName": "",
          "elementDurability": 100.0,
          "PMDLJDGOIKO": [
            {
              "$type": "MoleMole.Config.TriggerSetRenderersEnableV2",
              "canBeHandledOnRecover": true,
              "predicates": [
                {
                  "$type": "OFEHCLIGCND",
                  "predicates": [
                    {
                      "$type": "MMIJILGEJIB",
                      "logic": "Equal",
                      "value": 203.0,
                      "parameter": "poseID"
                    }
                  ]
                }
              ],
              "LNJJKBMBDPG": [
                "EffectWater"
              ]
            }
          ]
        },
        "WeakeState_BS": {
          "modifierName": "",
          "duration": "WeakTime",
          "elementDurability": 100.0,
          "OAOGLLGGJPD": [
            {
              "$type": "MoleMole.Config.SetPoseInt",
              "intID": "StateFlag",
              "value": 3
            },
            {
              "$type": "MoleMole.Config.TriggerSetRenderersEnableV2",
              "LNJJKBMBDPG": [
                "EffectWater"
              ],
              "NJKBCLADIBK": true
            },
            {
              "$type": "MoleMole.Config.ReTriggerAISkillInitialCD",
              "NICABCMPFMM": [
                111
              ]
            }
          ],
          "MINFJCDAIBB": [
            {
              "$type": "MoleMole.Config.SetAISkillCDAvailableNow",
              "NICABCMPFMM": [
                111
              ]
            }
          ]
        },
        "WeakDieState": {
          "modifierName": "",
          "elementDurability": 100.0,
          "JPIFFPJJEMK": [
            {
              "$type": "MoleMole.Config.DiePatternSwitchMixin",
              "hasAnimatorDie": true,
              "dieEndTime": 3.5,
              "dieForceDisappearTime": 3.5,
              "dieDisappearEffect": "",
              "muteHitBox": true,
              "dieDenyLockOn": true,
              "dieIsGhostToEnemy": true,
              "dieIgnoreTriggerBullet": true,
              "muteBillboard": true,
              "mutePushCollider": true
            }
          ],
          "OAOGLLGGJPD": [
            {
              "$type": "MoleMole.Config.SetAnimatorBool",
              "KIAGMJMPHPG": "Weak",
              "value": true
            }
          ],
          "MINFJCDAIBB": [
            {
              "$type": "MoleMole.Config.SetAnimatorBool",
              "KIAGMJMPHPG": "Weak"
            }
          ]
        }
      },
      "OAOGLLGGJPD": [
        {
          "$type": "MoleMole.Config.AttachModifier",
          "modifierName": "RecoverRendererManager"
        }
      ]
    }
  },
  {
    "Default": {
      "$type": "MoleMole.Config.GNKCLKNDOAK",
      "abilityName": "Monster_Legion_ReturnToBorn",
      "PIDAPNFJNDF": [
        {
          "$type": "MoleMole.Config.AttachToPoseIDMixin",
          "LEPKMNMJJHJ": [
            901,
            902,
            903
          ],
          "modifierName": "ReturnToBorn_Start"
        },
        {
          "$type": "MoleMole.Config.AttachToPoseIDMixin",
          "LEPKMNMJJHJ": [
            101
          ],
          "modifierName": "ReturnToBorn_Start"
        }
      ],
      "BFBDNNJCDLH": {
        "ReturnToBorn_Start": {
          "modifierName": "",
          "elementDurability": 100.0,
          "OAOGLLGGJPD": [
            {
              "$type": "MoleMole.Config.SetPoseInt",
              "canBeHandledOnRecover": true,
              "intID": "StateFlag",
              "value": 1
            },
            {
              "$type": "MoleMole.Config.TriggerSetRenderersEnableV2",
              "LNJJKBMBDPG": [
                "EffectWater"
              ]
            }
          ]
        }
      }
    }
  },
  {
    "Default": {
      "$type": "MoleMole.Config.GNKCLKNDOAK",
      "abilityName": "Monster_Legion_ShieldManager",
      "PIDAPNFJNDF": [
        {
          "$type": "MoleMole.Config.AttachToPoseIDMixin",
          "LEPKMNMJJHJ": [
            101,
            201
          ],
          "modifierName": "UNIQUE_Legion_Shield"
        }
      ],
      "BFBDNNJCDLH": {
        "UNIQUE_Legion_Shield": {
          "EODJPKICNGG": "Unique",
          "modifierName": "",
          "LLIJGLMEHFK": true,
          "elementType": "Rock",
          "elementDurability": 300.0,
          "JPIFFPJJEMK": [
            {
              "$type": "MoleMole.Config.ShieldBarMixin",
              "FGAOANABEKO": [
                {
                  "$type": "MoleMole.Config.ActCameraShake",
                  "cameraShake": {
                    "shakeRange": 0.11999999731779099,
                    "shakeTime": 0.10000000149011612,
                    "shakeDistance": 15.0,
                    "extension": {
                      "baseOnCamera": true
                    }
                  }
                },
                {
                  "$type": "MoleMole.Config.FireEffect",
                  "effectPattern": "Eff_Monster_Golem_Legion_Weak",
                  "effectTempleteID": -1.0
                },
                {
                  "$type": "MoleMole.Config.DamageByAttackValue",
                  "attackInfo": {
                    "attackTag": "",
                    "attenuationTag": "",
                    "attenuationGroup": "default",
                    "hitPattern": {
                      "onHitEffectName": "default",
                      "hitImpulseY": "",
                      "hitImpulseType": "LV0",
                      "hitHaltTime": 0.10000000149011612,
                      "hitHaltTimeScale": 0.05000000074505806
                    }
                  }
                },
                {
                  "$type": "MoleMole.Config.SetAnimatorTrigger",
                  "triggerID": "WeakTrigger",
                  "HLKBAOMMIGG": true
                }
              ],
              "JCPHOEFMCMO": "",
              "PBCMONPKPLE": true
            }
          ],
          "EPKCPIKGJOJ": {
            "Actor_PhysicalSubHurtDelta": 0.5,
            "Actor_FireSubHurtDelta": 0.5,
            "Actor_ElecSubHurtDelta": 0.5,
            "Actor_WaterSubHurtDelta": 0.5,
            "Actor_GrassSubHurtDelta": 0.5,
            "Actor_WindSubHurtDelta": 0.5,
            "Actor_IceSubHurtDelta": 0.5,
            "Actor_RockSubHurtDelta": 0.5
          }
        }
      },
      "OAOGLLGGJPD": [
        {
          "$type": "MoleMole.Config.SetGlobalValue",
          "value": 1.0,
          "key": "Golem_Legion",
          "maxValue": 0.0,
          "GCEOGBJIFCP": 0.0
        }
      ]
    }
  },
  {
    "Default": {
      "$type": "MoleMole.Config.GNKCLKNDOAK",
      "abilityName": "Monster_Legion_SteerAttack",
      "PIDAPNFJNDF": [
        {
          "$type": "MoleMole.Config.SteerAttackMixin",
          "BAJBFPAEMHB": [
            "Attack01"
          ],
          "endNormalizedTime": 0.15000000596046448,
          "angularSpeed": 120.0,
          "GMIILFMLLJI": "",
          "MJFJKAHGHDJ": ""
        },
        {
          "$type": "MoleMole.Config.SteerAttackMixin",
          "BAJBFPAEMHB": [
            "Attack01"
          ],
          "startNormalizedTime": 0.3799999952316284,
          "endNormalizedTime": 0.44999998807907104,
          "angularSpeed": 150.0,
          "GMIILFMLLJI": "",
          "MJFJKAHGHDJ": ""
        },
        {
          "$type": "MoleMole.Config.SteerAttackMixin",
          "BAJBFPAEMHB": [
            "Attack02_BS"
          ],
          "startNormalizedTime": 0.3840000033378601,
          "endNormalizedTime": 0.5770000219345093,
          "angularSpeed": 240.0,
          "GMIILFMLLJI": "",
          "MJFJKAHGHDJ": ""
        },
        {
          "$type": "MoleMole.Config.SteerAttackMixin",
          "BAJBFPAEMHB": [
            "Attack02_BS"
          ],
          "startNormalizedTime": 0.8399999737739563,
          "endNormalizedTime": 0.9200000166893005,
          "angularSpeed": 240.0,
          "GMIILFMLLJI": "",
          "MJFJKAHGHDJ": ""
        },
        {
          "$type": "MoleMole.Config.SteerAttackMixin",
          "BAJBFPAEMHB": [
            "Attack02_BS"
          ],
          "startNormalizedTime": 0.9200000166893005,
          "angularSpeed": 180.0,
          "GMIILFMLLJI": "",
          "MJFJKAHGHDJ": ""
        },
        {
          "$type": "MoleMole.Config.SteerAttackMixin",
          "BAJBFPAEMHB": [
            "Attack02_Loop"
          ],
          "endNormalizedTime": 20.0,
          "angularSpeed": 180.0,
          "GMIILFMLLJI": "Attack02Trigger",
          "LFCDKEDGFFG": 7.5,
          "PPHPMIPFICK": true,
          "MJFJKAHGHDJ": ""
        },
        {
          "$type": "MoleMole.Config.SteerAttackMixin",
          "BAJBFPAEMHB": [
            "Attack02_AS"
          ],
          "endNormalizedTime": 0.12999999523162842,
          "angularSpeed": 90.0,
          "GMIILFMLLJI": "",
          "MJFJKAHGHDJ": ""
        },
        {
          "$type": "MoleMole.Config.SteerAttackMixin",
          "BAJBFPAEMHB": [
            "Attack02_AS"
          ],
          "startNormalizedTime": 0.18000000715255737,
          "endNormalizedTime": 0.27000001072883606,
          "angularSpeed": 120.0,
          "GMIILFMLLJI": "",
          "MJFJKAHGHDJ": ""
        },
        {
          "$type": "MoleMole.Config.SteerAttackMixin",
          "BAJBFPAEMHB": [
            "Attack02_Stay"
          ],
          "startNormalizedTime": 0.10999999940395355,
          "endNormalizedTime": 0.16300000250339508,
          "angularSpeed": 90.0,
          "GMIILFMLLJI": "",
          "MJFJKAHGHDJ": ""
        },
        {
          "$type": "MoleMole.Config.SteerAttackMixin",
          "BAJBFPAEMHB": [
            "Attack02_Stay1"
          ],
          "startNormalizedTime": 0.10999999940395355,
          "endNormalizedTime": 0.16300000250339508,
          "angularSpeed": 90.0,
          "GMIILFMLLJI": "",
          "MJFJKAHGHDJ": ""
        },
        {
          "$type": "MoleMole.Config.SteerAttackMixin",
          "BAJBFPAEMHB": [
            "Attack02_Stay"
          ],
          "startNormalizedTime": 0.4000000059604645,
          "endNormalizedTime": 0.4699999988079071,
          "angularSpeed": 120.0,
          "GMIILFMLLJI": "",
          "MJFJKAHGHDJ": ""
        },
        {
          "$type": "MoleMole.Config.SteerAttackMixin",
          "BAJBFPAEMHB": [
            "Attack02_Stay1"
          ],
          "startNormalizedTime": 0.4000000059604645,
          "endNormalizedTime": 0.4699999988079071,
          "angularSpeed": 120.0,
          "GMIILFMLLJI": "",
          "MJFJKAHGHDJ": ""
        },
        {
          "$type": "MoleMole.Config.SteerAttackMixin",
          "BAJBFPAEMHB": [
            "Attack03"
          ],
          "endNormalizedTime": 0.07000000029802322,
          "angularSpeed": 120.0,
          "GMIILFMLLJI": "",
          "MJFJKAHGHDJ": ""
        },
        {
          "$type": "MoleMole.Config.SteerAttackMixin",
          "BAJBFPAEMHB": [
            "Attack03"
          ],
          "startNormalizedTime": 0.15000000596046448,
          "endNormalizedTime": 0.2199999988079071,
          "angularSpeed": 180.0,
          "GMIILFMLLJI": "",
          "MJFJKAHGHDJ": ""
        },
        {
          "$type": "MoleMole.Config.SteerAttackMixin",
          "BAJBFPAEMHB": [
            "Attack03"
          ],
          "startNormalizedTime": 0.2199999988079071,
          "endNormalizedTime": 0.38999998569488525,
          "angularSpeed": 180.0,
          "GMIILFMLLJI": "",
          "MJFJKAHGHDJ": ""
        },
        {
          "$type": "MoleMole.Config.SteerAttackMixin",
          "BAJBFPAEMHB": [
            "Attack04"
          ],
          "endNormalizedTime": 0.10000000149011612,
          "angularSpeed": 60.0,
          "GMIILFMLLJI": "",
          "MJFJKAHGHDJ": ""
        },
        {
          "$type": "MoleMole.Config.SteerAttackMixin",
          "BAJBFPAEMHB": [
            "Attack04"
          ],
          "startNormalizedTime": 0.30000001192092896,
          "endNormalizedTime": 0.36000001430511475,
          "angularSpeed": 240.0,
          "GMIILFMLLJI": "",
          "MJFJKAHGHDJ": ""
        },
        {
          "$type": "MoleMole.Config.SteerAttackMixin",
          "BAJBFPAEMHB": [
            "Attack05_BS"
          ],
          "startNormalizedTime": 0.05000000074505806,
          "endNormalizedTime": 0.20000000298023224,
          "angularSpeed": 270.0,
          "GMIILFMLLJI": "",
          "MJFJKAHGHDJ": ""
        },
        {
          "$type": "MoleMole.Config.SteerAttackMixin",
          "BAJBFPAEMHB": [
            "Attack05_BS"
          ],
          "startNormalizedTime": 0.5,
          "endNormalizedTime": 0.75,
          "angularSpeed": 90.0,
          "GMIILFMLLJI": "",
          "MJFJKAHGHDJ": ""
        }
      ]
    }
  },
  {
    "Default": {
      "$type": "MoleMole.Config.GNKCLKNDOAK",
      "abilityName": "Monster_Legion_Attack02",
      "PIDAPNFJNDF": [
        {
          "$type": "MoleMole.Config.AttachToMultiNormalizedTimeMixin",
          "DDGENIKEAII": [
            {
              "GOPFOAFEKLC": "Attack02_BS",
              "normalizeStart": 0.5830000042915344
            },
            {
              "GOPFOAFEKLC": "Attack02_Loop",
              "normalizeEnd": 99.0
            },
            {
              "GOPFOAFEKLC": "Attack02_AS",
              "normalizeEnd": 0.33899998664855957
            }
          ],
          "modifierName": "Attack02RunEffect2",
          "MJFJKAHGHDJ": ""
        },
        {
          "$type": "MoleMole.Config.AttachToStateIDMixin",
          "stateIDs": [
            "Attack02_Loop"
          ],
          "modifierName": "Attack02Checker",
          "MJFJKAHGHDJ": ""
        },
        {
          "$type": "MoleMole.Config.AttachToStateIDMixin",
          "stateIDs": [
            "Attack02_Stay"
          ],
          "modifierName": "Attack02StayChecker",
          "MJFJKAHGHDJ": ""
        },
        {
          "$type": "MoleMole.Config.AttachToStateIDMixin",
          "stateIDs": [
            "Attack02_BS"
          ],
          "modifierName": "Attack02Reset",
          "MJFJKAHGHDJ": ""
        }
      ],
      "BFBDNNJCDLH": {
        "Attack02RunEffect2": {
          "modifierName": "",
          "elementDurability": 100.0,
          "OAOGLLGGJPD": [
            {
              "$type": "MoleMole.Config.AttachEffect",
              "effectPattern": "Eff_Monster_Golem_Legion_HeavyBlade_BS2",
              "effectTempleteID": -1.0
            }
          ]
        },
        "Attack02Reset": {
          "modifierName": "",
          "elementDurability": 100.0,
          "OAOGLLGGJPD": [
            {
              "$type": "MoleMole.Config.ResetAnimatorTrigger",
              "triggerID": "Attack02Trigger"
            }
          ]
        },
        "Attack02StayChecker": {
          "modifierName": "",
          "elementDurability": 100.0,
          "BNJENAIMDPL": 0.009999999776482582,
          "PJKELBNICOI": [
            {
              "$type": "MoleMole.Config.Predicated",
              "MLDBFKEGPEF": "SelfAttackTarget",
              "CKBKOCJPJMM": [
                {
                  "$type": "BKCFCDOEENL",
                  "logic": "LesserOrEqual",
                  "value": 5.0,
                  "EGBKHFGDFLF": ""
                }
              ],
              "successActions": [
                {
                  "$type": "MoleMole.Config.SetAnimatorBool",
                  "KIAGMJMPHPG": "Attack02Near",
                  "value": true
                }
              ],
              "failActions": [
                {
                  "$type": "MoleMole.Config.SetAnimatorBool",
                  "KIAGMJMPHPG": "Attack02Near"
                }
              ]
            }
          ]
        },
        "Attack02Checker": {
          "modifierName": "",
          "elementDurability": 100.0,
          "BNJENAIMDPL": 0.009999999776482582,
          "PJKELBNICOI": [
            {
              "$type": "MoleMole.Config.Predicated",
              "MLDBFKEGPEF": "SelfAttackTarget",
              "CKBKOCJPJMM": [
                {
                  "$type": "BKCFCDOEENL",
                  "logic": "LesserOrEqual",
                  "value": 7.5,
                  "EGBKHFGDFLF": ""
                }
              ],
              "successActions": [
                {
                  "$type": "MoleMole.Config.SetAnimatorTrigger",
                  "triggerID": "Attack02Trigger"
                }
              ]
            }
          ]
        }
      }
    }
  },
  {
    "Default": {
      "$type": "MoleMole.Config.GNKCLKNDOAK",
      "abilityName": "Monster_Legion_Attack04",
      "EIIHGJGFDHC": [
        {
          "$type": "MoleMole.Config.TriggerBullet",
          "DCNFGAGBCMP": 42614101,
          "born": {
            "$type": "KPFCCIOJAMK",
            "offset": {
              "GOAPOLCAJBP": 0.0,
              "FMOPCJGGFMH": 0.0,
              "EJJEPFCDDAM": 0.0
            },
            "onGround": true,
            "direction": {
              "$type": "HCHFPIMPCJM",
              "angleOffsetCorrect": {
                "GOAPOLCAJBP": 0.0,
                "FMOPCJGGFMH": 0.0,
                "EJJEPFCDDAM": 0.0
              },
              "maxAngleType": "Horizontal",
              "maxAngle": 0.0,
              "BKMDHKCJDCB": ""
            },
            "useRotation": true
          }
        }
      ]
    }
  },
  {
    "Default": {
      "$type": "MoleMole.Config.GNKCLKNDOAK",
      "abilityName": "Golem_Legion_FireBlade",
      "BFBDNNJCDLH": {
        "FireBlade_Bullet": {
          "modifierName": "",
          "elementDurability": 100.0,
          "OAOGLLGGJPD": [
            {
              "$type": "MoleMole.Config.AttachEffect",
              "effectPattern": "Eff_Monster_Golem_Legion_FireBall_FireBlade",
              "effectTempleteID": -1.0
            }
          ]
        }
      },
      "OAOGLLGGJPD": [
        {
          "$type": "MoleMole.Config.AttachModifier",
          "modifierName": "FireBlade_Bullet"
        }
      ],
      "EIIHGJGFDHC": [
        {
          "$type": "MoleMole.Config.TriggerAttackEvent",
          "attackEvent": {
            "attackPattern": {
              "$type": "CKCNJHBMNGJ",
              "triggerType": "TriggerNoRepeat",
              "born": {
                "$type": "AGPIGGAPILF"
              },
              "size": {
                "GOAPOLCAJBP": 1.0,
                "FMOPCJGGFMH": 1.0,
                "EJJEPFCDDAM": 1.0
              }
            },
            "attackInfo": {
              "attackTag": "",
              "attenuationTag": "",
              "attenuationGroup": "default",
              "attackProperty": {
                "JMLMDDCBIAO": 0.800000011920929,
                "damagePercentageRatio": 0.0,
                "elementType": "Fire",
                "elementDurability": 50.0,
                "strikeType": "Slash",
                "enBreak": 200.0,
                "damagePercentage": 0.0
              },
              "hitPattern": {
                "onHitEffectName": "default",
                "hitImpulseY": "",
                "hitImpulseType": "LV4"
              },
              "canBeModifiedBy": "OriginOwner"
            }
          },
          "targetType": "Enemy"
        }
      ]
    }
  },
  {
    "Default": {
      "$type": "MoleMole.Config.GNKCLKNDOAK",
      "abilityName": "Monster_Legion_Attack05",
      "PIDAPNFJNDF": [
        {
          "$type": "MoleMole.Config.AttachToMultiNormalizedTimeMixin",
          "DDGENIKEAII": [
            {
              "GOPFOAFEKLC": "Attack05_BS",
              "normalizeStart": 0.8370000123977661
            },
            {
              "GOPFOAFEKLC": "Attack05_Loop",
              "normalizeEnd": 99.0
            },
            {
              "GOPFOAFEKLC": "Attack05_AS",
              "normalizeEnd": 0.550000011920929
            }
          ],
          "modifierName": "Attack05MonsterEffect",
          "MJFJKAHGHDJ": ""
        },
        {
          "$type": "MoleMole.Config.AttachToMultiNormalizedTimeMixin",
          "DDGENIKEAII": [
            {
              "GOPFOAFEKLC": "Attack05_BS",
              "normalizeStart": 0.16899999976158142
            },
            {
              "GOPFOAFEKLC": "Attack05_Loop",
              "normalizeEnd": 99.0
            },
            {
              "GOPFOAFEKLC": "Attack05_AS",
              "normalizeEnd": 0.5
            }
          ],
          "modifierName": "Attack05MonsterEffect2",
          "MJFJKAHGHDJ": ""
        },
        {
          "$type": "MoleMole.Config.AttachToStateIDMixin",
          "stateIDs": [
            "Attack05_Loop"
          ],
          "modifierName": "SpecialShakeLabel",
          "MJFJKAHGHDJ": ""
        },
        {
          "$type": "MoleMole.Config.AttachToStateIDMixin",
          "stateIDs": [
            "Attack05_Loop"
          ],
          "modifierName": "SkillInterruptCleaner",
          "MJFJKAHGHDJ": ""
        },
        {
          "$type": "MoleMole.Config.AttachToStateIDMixin",
          "stateIDs": [
            "Attack05_Loop"
          ],
          "modifierName": "Attack05Timer",
          "MJFJKAHGHDJ": ""
        },
        {
          "$type": "MoleMole.Config.AttachToStateIDMixin",
          "stateIDs": [
            "Attack05_BS",
            "Attack05_AS"
          ],
          "modifierName": "Attack05TimerReset",
          "MJFJKAHGHDJ": ""
        }
      ],
      "BFBDNNJCDLH": {
        "SpecialShakeLabel": {
          "modifierName": "",
          "elementDurability": 100.0,
          "JPIFFPJJEMK": [
            {
              "$type": "MoleMole.Config.AttachActionToModifierMixin",
              "OAOGLLGGJPD": [
                {
                  "$type": "MoleMole.Config.SetAnimatorBool",
                  "KIAGMJMPHPG": "Attack05Shake",
                  "value": true
                }
              ],
              "MINFJCDAIBB": [
                {
                  "$type": "MoleMole.Config.SetAnimatorBool",
                  "canBeHandledOnRecover": true,
                  "KIAGMJMPHPG": "Attack05Shake"
                }
              ]
            }
          ]
        },
        "Attack05MonsterEffect": {
          "modifierName": "",
          "elementDurability": 100.0,
          "OAOGLLGGJPD": [
            {
              "$type": "MoleMole.Config.AttachEffect",
              "effectPattern": "Eff_Monster_Golem_Legion_MagicField_Loop",
              "effectTempleteID": -1.0
            }
          ]
        },
        "Attack05MonsterEffect2": {
          "modifierName": "",
          "elementDurability": 100.0,
          "OAOGLLGGJPD": [
            {
              "$type": "MoleMole.Config.AttachEffect",
              "effectPattern": "Eff_Monster_Golem_Legion_MagicField_Loop_Weapon",
              "effectTempleteID": -1.0
            }
          ]
        },
        "SkillInterruptCleaner": {
          "modifierName": "",
          "elementDurability": 100.0,
          "MINFJCDAIBB": [
            {
              "$type": "MoleMole.Config.KillSelf",
              "otherTargets": {
                "$type": "DMGCADBNILM",
                "configID": 42614102
              }
            }
          ]
        },
        "Attack05Timer": {
          "modifierName": "",
          "duration": 6.300000190734863,
          "elementDurability": 100.0,
          "MINFJCDAIBB": [
            {
              "$type": "MoleMole.Config.SetAnimatorTrigger",
              "triggerID": "Attack05End",
              "HLKBAOMMIGG": true
            }
          ]
        },
        "Attack05TimerReset": {
          "modifierName": "",
          "elementDurability": 100.0,
          "OAOGLLGGJPD": [
            {
              "$type": "MoleMole.Config.ResetAnimatorTrigger",
              "triggerID": "Attack05End"
            }
          ]
        }
      },
      "EIIHGJGFDHC": [
        {
          "$type": "MoleMole.Config.CreateGadget",
          "MLDBFKEGPEF": "SelfAttackTarget",
          "born": {
            "$type": "INKMBJGOPCK",
            "onGround": true,
            "direction": {
              "$type": "BCHKMOHKDHH"
            },
            "useRotation": true
          },
          "ACNKPHHONBO": true,
          "gadgetID": 42614102
        }
      ]
    }
  },
  {
    "Default": {
      "$type": "MoleMole.Config.GNKCLKNDOAK",
      "abilityName": "Golem_Legion_FireArea",
      "BFBDNNJCDLH": {
        "FireArea_Hit1": {
          "modifierName": "",
          "duration": 6.0,
          "elementDurability": 100.0,
          "BNJENAIMDPL": 0.800000011920929,
          "PJKELBNICOI": [
            {
              "$type": "MoleMole.Config.FireEffect",
              "effectPattern": "Eff_Monster_Golem_Legion_MagicField_Field_Hit",
              "born": {
                "$type": "KPFCCIOJAMK",
                "offset": {
                  "GOAPOLCAJBP": 0.0,
                  "FMOPCJGGFMH": 0.0,
                  "EJJEPFCDDAM": 0.0
                },
                "useRotation": true
              },
              "effectTempleteID": -1.0
            },
            {
              "$type": "MoleMole.Config.TriggerAttackEvent",
              "attackEvent": {
                "attackPattern": {
                  "$type": "LGEKKELKDAN",
                  "triggerType": "TriggerNoRepeat",
                  "born": {
                    "$type": "KPFCCIOJAMK",
                    "offset": {
                      "GOAPOLCAJBP": 0.0,
                      "FMOPCJGGFMH": 0.0,
                      "EJJEPFCDDAM": 0.0
                    },
                    "useRotation": true
                  },
                  "MFGGJCPPBGA": 5.0
                },
                "attackInfo": {
                  "attackTag": "",
                  "attenuationTag": "",
                  "attenuationGroup": "default",
                  "attackProperty": {
                    "JMLMDDCBIAO": 0.4000000059604645,
                    "damagePercentageRatio": 0.0,
                    "elementType": "Fire",
                    "elementDurability": 25.0,
                    "enBreak": 0.0,
                    "damagePercentage": 0.0
                  },
                  "hitPattern": {
                    "onHitEffectName": "",
                    "hitImpulseY": "",
                    "hitImpulseType": "LV1",
                    "hitHaltTimeScale": 0.05000000074505806
                  },
                  "canBeModifiedBy": "OriginOwner"
                }
              },
              "targetType": "Enemy"
            }
          ],
          "AKONFAAGBJC": true
        },
        "FireArea_Hit2Delay": {
          "modifierName": "",
          "duration": 5.579999923706055,
          "elementDurability": 100.0,
          "MINFJCDAIBB": [
            {
              "$type": "MoleMole.Config.ApplyModifier",
              "modifierName": "FireArea_Hit2"
            }
          ]
        },
        "FireArea_Hit2": {
          "modifierName": "",
          "duration": 1.0,
          "elementDurability": 100.0,
          "BNJENAIMDPL": 0.699999988079071,
          "OAOGLLGGJPD": [
            {
              "$type": "MoleMole.Config.AttachEffect",
              "effectPattern": "Eff_Monster_Golem_Legion_MagicField_Field_AS",
              "born": {
                "$type": "KPFCCIOJAMK",
                "offset": {
                  "GOAPOLCAJBP": 0.0,
                  "FMOPCJGGFMH": 0.0,
                  "EJJEPFCDDAM": 0.0
                },
                "useRotation": true
              },
              "effectTempleteID": -1.0
            }
          ],
          "PJKELBNICOI": [
            {
              "$type": "MoleMole.Config.TriggerAttackEvent",
              "attackEvent": {
                "attackPattern": {
                  "$type": "LGEKKELKDAN",
                  "triggerType": "TriggerNoRepeat",
                  "born": {
                    "$type": "KPFCCIOJAMK",
                    "offset": {
                      "GOAPOLCAJBP": 0.0,
                      "FMOPCJGGFMH": 0.0,
                      "EJJEPFCDDAM": 0.0
                    },
                    "useRotation": true
                  },
                  "MFGGJCPPBGA": 5.0
                },
                "attackInfo": {
                  "attackTag": "",
                  "attenuationTag": "",
                  "attenuationGroup": "default",
                  "attackProperty": {
                    "JMLMDDCBIAO": 0.800000011920929,
                    "damagePercentageRatio": 0.0,
                    "elementType": "Fire",
                    "elementDurability": 25.0,
                    "enBreak": 200.0,
                    "damagePercentage": 0.0
                  },
                  "hitPattern": {
                    "onHitEffectName": "",
                    "hitImpulseY": "",
                    "hitImpulseType": "LV5",
                    "hitHaltTimeScale": 0.05000000074505806
                  },
                  "canBeModifiedBy": "OriginOwner"
                }
              },
              "targetType": "Enemy"
            }
          ],
          "AKONFAAGBJC": true
        },
        "FireArea_Effect": {
          "modifierName": "",
          "duration": 7.5,
          "elementDurability": 100.0,
          "OAOGLLGGJPD": [
            {
              "$type": "MoleMole.Config.AttachEffect",
              "effectPattern": "Eff_Monster_Golem_Legion_MagicField_Field_BS",
              "born": {
                "$type": "KPFCCIOJAMK",
                "onGround": true,
                "direction": {
                  "$type": "BCHKMOHKDHH"
                },
                "useRotation": true
              },
              "effectTempleteID": -1.0
            },
            {
              "$type": "MoleMole.Config.AttachEffect",
              "effectPattern": "Eff_Monster_Golem_Legion_MagicField_Field_Loop",
              "born": {
                "$type": "KPFCCIOJAMK",
                "onGround": true,
                "direction": {
                  "$type": "BCHKMOHKDHH"
                },
                "useRotation": true
              },
              "effectTempleteID": -1.0
            }
          ],
          "MINFJCDAIBB": [
            {
              "$type": "MoleMole.Config.KillSelf"
            }
          ]
        }
      },
      "OAOGLLGGJPD": [
        {
          "$type": "MoleMole.Config.AttachModifier",
          "modifierName": "FireArea_Hit1"
        },
        {
          "$type": "MoleMole.Config.AttachModifier",
          "modifierName": "FireArea_Hit2Delay"
        },
        {
          "$type": "MoleMole.Config.AttachModifier",
          "modifierName": "FireArea_Effect"
        }
      ]
    }
  }
]