[
  {
    "Default": {
      "$type": "MoleMole.Config.GNKCLKNDOAK",
      "abilityName": "Monster_Scorpion_Eremite_Fire_StateControl",
      "PIDAPNFJNDF": [
        {
          "$type": "MoleMole.Config.AttachToStateIDMixin",
          "stateIDs": [
            "Alert"
          ],
          "modifierName": "Monster_Scorpion_Eremite_Fire_Alert",
          "MJFJKAHGHDJ": ""
        },
        {
          "$type": "MoleMole.Config.AttachToPoseIDMixin",
          "LEPKMNMJJHJ": [
            1,
            102
          ],
          "modifierName": "Monster_Scorpion_Eremite_Fire_Disappear"
        },
        {
          "$type": "MoleMole.Config.AttachToNormalizedTimeMixin",
          "GOPFOAFEKLC": "Alert",
          "modifierName": "Monster_Scorpion_Eremite_Fire_Visable",
          "normalizeEnd": 0.3499999940395355,
          "MJFJKAHGHDJ": ""
        }
      ],
      "BFBDNNJCDLH": {
        "Vulture_AddEndure": {
          "modifierName": "",
          "elementDurability": 100.0,
          "EPKCPIKGJOJ": {
            "Actor_EndureDelta": 0.15000000596046448
          }
        },
        "Monster_Scorpion_Eremite_Fire_Alert": {
          "modifierName": "",
          "elementDurability": 100.0,
          "OAOGLLGGJPD": [
            {
              "$type": "MoleMole.Config.CreateGadget",
              "born": {
                "$type": "KPFCCIOJAMK",
                "offset": {
                  "GOAPOLCAJBP": 0.10000000149011612,
                  "FMOPCJGGFMH": 2.7699999809265137,
                  "EJJEPFCDDAM": -5.0
                },
                "useRotation": true
              },
              "gadgetID": 42570005,
              "campID": 4001
            }
          ],
          "MINFJCDAIBB": [
            {
              "$type": "MoleMole.Config.KillSelf",
              "otherTargets": {
                "$type": "DMGCADBNILM",
                "configID": 42570005
              }
            },
            {
              "$type": "MoleMole.Config.RemoveModifier",
              "modifierName": "Monster_Scorpion_Eremite_Fire_StateControl"
            },
            {
              "$type": "MoleMole.Config.ApplyModifier",
              "modifierName": "Monster_Scorpion_Eremite_Fire_DefenseDown_EEffect"
            }
          ]
        },
        "Monster_Scorpion_Eremite_Fire_DefenseDown_EEffect": {
          "modifierName": "",
          "elementDurability": 100.0,
          "OAOGLLGGJPD": [
            {
              "$type": "MoleMole.Config.AttachEffect",
              "effectPattern": "Eff_Avatar_Properties_Defense_Down",
              "effectTempleteID": -1.0
            }
          ]
        },
        "Monster_Scorpion_Eremite_Fire_Disappear": {
          "modifierName": "",
          "elementDurability": 100.0,
          "JPIFFPJJEMK": [
            {
              "$type": "MoleMole.Config.AttachActionToModifierMixin",
              "OAOGLLGGJPD": [
                {
                  "$type": "MoleMole.Config.HideUIBillBoard",
                  "hide": true
                },
                {
                  "$type": "MoleMole.Config.EnableHitBoxByName",
                  "MAEGDKKBDPK": [
                    "HitBox",
                    "HitBox_R",
                    "HitBox_L"
                  ]
                },
                {
                  "$type": "MoleMole.Config.EnablePushColliderName",
                  "DOFAFEMMILL": [
                    "PushCollider",
                    "PushCollider_R",
                    "PushCollider_L"
                  ]
                },
                {
                  "$type": "MoleMole.Config.EnableHDMesh",
                  "canBeHandledOnRecover": true,
                  "ALNBNPFFNIM": "Default"
                }
              ],
              "MINFJCDAIBB": [
                {
                  "$type": "MoleMole.Config.EnableHitBoxByName",
                  "MAEGDKKBDPK": [
                    "HitBox",
                    "HitBox_R",
                    "HitBox_L"
                  ],
                  "NJKBCLADIBK": true
                },
                {
                  "$type": "MoleMole.Config.EnablePushColliderName",
                  "DOFAFEMMILL": [
                    "PushCollider",
                    "PushCollider_R",
                    "PushCollider_L"
                  ],
                  "NJKBCLADIBK": true
                },
                {
                  "$type": "MoleMole.Config.HideUIBillBoard"
                },
                {
                  "$type": "MoleMole.Config.EnableHDMesh",
                  "enable": true,
                  "ALNBNPFFNIM": "Default"
                }
              ]
            }
          ],
          "EPKCPIKGJOJ": {
            "Actor_PhysicalSubHurtDelta": 2.0,
            "Actor_FireSubHurtDelta": 2.0,
            "Actor_ElecSubHurtDelta": 2.0,
            "Actor_WaterSubHurtDelta": 2.0,
            "Actor_GrassSubHurtDelta": 2.0,
            "Actor_WindSubHurtDelta": 2.0,
            "Actor_IceSubHurtDelta": 2.0,
            "Actor_RockSubHurtDelta": 2.0
          },
          "state": "DenyLockOn",
          "OAOGLLGGJPD": [
            {
              "$type": "MoleMole.Config.TriggerSetVisible"
            },
            {
              "$type": "MoleMole.Config.HideUIBillBoard",
              "hide": true
            },
            {
              "$type": "MoleMole.Config.EnableHitBoxByName",
              "MAEGDKKBDPK": [
                "HitBox",
                "HitBox_R",
                "HitBox_L"
              ]
            },
            {
              "$type": "MoleMole.Config.EnablePushColliderName",
              "DOFAFEMMILL": [
                "PushCollider",
                "PushCollider_R",
                "PushCollider_L"
              ]
            },
            {
              "$type": "MoleMole.Config.EnableHDMesh",
              "canBeHandledOnRecover": true,
              "ALNBNPFFNIM": "Default"
            }
          ],
          "MINFJCDAIBB": [
            {
              "$type": "MoleMole.Config.TriggerSetVisible",
              "LJBECOMGDEJ": true
            },
            {
              "$type": "MoleMole.Config.EnableHitBoxByName",
              "MAEGDKKBDPK": [
                "HitBox",
                "HitBox_R",
                "HitBox_L"
              ],
              "NJKBCLADIBK": true
            },
            {
              "$type": "MoleMole.Config.EnablePushColliderName",
              "DOFAFEMMILL": [
                "PushCollider",
                "PushCollider_R",
                "PushCollider_L"
              ],
              "NJKBCLADIBK": true
            },
            {
              "$type": "MoleMole.Config.HideUIBillBoard"
            },
            {
              "$type": "MoleMole.Config.EnableHDMesh",
              "enable": true,
              "ALNBNPFFNIM": "Default"
            },
            {
              "$type": "MoleMole.Config.RemoveModifier",
              "modifierName": "Monster_Scorpion_Eremite_Fire_StateControl"
            }
          ]
        },
        "Monster_Scorpion_Eremite_Fire_Visable": {
          "modifierName": "",
          "elementDurability": 100.0,
          "MINFJCDAIBB": [
            {
              "$type": "MoleMole.Config.TriggerSetVisible",
              "canBeHandledOnRecover": true,
              "LJBECOMGDEJ": true
            }
          ]
        },
        "Monster_Scorpion_Eremite_Fire_StateControl": {
          "modifierName": "",
          "elementDurability": 100.0,
          "OAOGLLGGJPD": [
            {
              "$type": "MoleMole.Config.SetPoseBool",
              "canBeHandledOnRecover": true,
              "KIAGMJMPHPG": "IsAppear"
            }
          ],
          "MINFJCDAIBB": [
            {
              "$type": "MoleMole.Config.SetPoseBool",
              "canBeHandledOnRecover": true,
              "KIAGMJMPHPG": "IsAppear",
              "value": true
            }
          ],
          "PMDLJDGOIKO": [
            {
              "$type": "MoleMole.Config.SetPoseBool",
              "KIAGMJMPHPG": "IsAppear",
              "value": true
            }
          ],
          "MHBHKCIDGEP": [
            {
              "$type": "MoleMole.Config.SetPoseBool",
              "KIAGMJMPHPG": "IsAppear",
              "value": true
            },
            {
              "$type": "MoleMole.Config.TriggerSetVisible",
              "canBeHandledOnRecover": true,
              "LJBECOMGDEJ": true
            }
          ]
        },
        "Monster_Scorpion_Eremite_Fire_BaseStateHeadle": {
          "modifierName": "",
          "duration": 1.0,
          "elementDurability": 100.0,
          "OAOGLLGGJPD": [
            {
              "$type": "MoleMole.Config.TriggerSetVisible"
            },
            {
              "$type": "MoleMole.Config.HideUIBillBoard",
              "hide": true
            },
            {
              "$type": "MoleMole.Config.EnableHitBoxByName",
              "MAEGDKKBDPK": [
                "HitBox",
                "HitBox_R",
                "HitBox_L"
              ]
            },
            {
              "$type": "MoleMole.Config.EnablePushColliderName",
              "DOFAFEMMILL": [
                "PushCollider",
                "PushCollider_R",
                "PushCollider_L"
              ]
            },
            {
              "$type": "MoleMole.Config.EnableHDMesh",
              "doOffStage": true,
              "canBeHandledOnRecover": true,
              "ALNBNPFFNIM": "Default"
            }
          ],
          "PMDLJDGOIKO": [
            {
              "$type": "MoleMole.Config.TriggerSetVisible",
              "LJBECOMGDEJ": true
            },
            {
              "$type": "MoleMole.Config.HideUIBillBoard"
            },
            {
              "$type": "MoleMole.Config.EnableHitBoxByName",
              "MAEGDKKBDPK": [
                "HitBox",
                "HitBox_R",
                "HitBox_L"
              ],
              "NJKBCLADIBK": true
            },
            {
              "$type": "MoleMole.Config.EnablePushColliderName",
              "DOFAFEMMILL": [
                "PushCollider",
                "PushCollider_R",
                "PushCollider_L"
              ],
              "NJKBCLADIBK": true
            },
            {
              "$type": "MoleMole.Config.EnableHDMesh",
              "enable": true,
              "ALNBNPFFNIM": "Default"
            }
          ],
          "MHBHKCIDGEP": [
            {
              "$type": "MoleMole.Config.TriggerSetVisible",
              "LJBECOMGDEJ": true
            },
            {
              "$type": "MoleMole.Config.HideUIBillBoard"
            },
            {
              "$type": "MoleMole.Config.EnableHitBoxByName",
              "MAEGDKKBDPK": [
                "HitBox",
                "HitBox_R",
                "HitBox_L"
              ],
              "NJKBCLADIBK": true
            },
            {
              "$type": "MoleMole.Config.EnablePushColliderName",
              "DOFAFEMMILL": [
                "PushCollider",
                "PushCollider_R",
                "PushCollider_L"
              ],
              "NJKBCLADIBK": true
            },
            {
              "$type": "MoleMole.Config.EnableHDMesh",
              "enable": true,
              "ALNBNPFFNIM": "Default"
            }
          ]
        }
      },
      "OAOGLLGGJPD": [
        {
          "$type": "MoleMole.Config.AttachModifier",
          "modifierName": "Vulture_AddEndure"
        },
        {
          "$type": "MoleMole.Config.AttachModifier",
          "modifierName": "Monster_Scorpion_Eremite_Fire_StateControl"
        },
        {
          "$type": "MoleMole.Config.ApplyModifier",
          "modifierName": "Monster_Scorpion_Eremite_Fire_BaseStateHeadle"
        }
      ]
    }
  },
  {
    "Default": {
      "$type": "MoleMole.Config.GNKCLKNDOAK",
      "abilityName": "Monster_Scorpion_Eremite_Fire_ShaderCut",
      "BFBDNNJCDLH": {
        "ChargeEndPos_ShaderCut": {
          "modifierName": "",
          "duration": 3.0,
          "elementDurability": 100.0,
          "JPIFFPJJEMK": [
            {
              "$type": "MoleMole.Config.SendPostionToShaderCutMixin",
              "FPKMMPOBBFD": "Owner",
              "MCBBDJLPJCP": 10.0,
              "JGJHKPJDFOB": {
                "x": 5.0,
                "y": 5.0,
                "z": 5.0
              },
              "KBLDOMJFEPJ": ""
            }
          ]
        }
      },
      "OAOGLLGGJPD": [
        {
          "$type": "MoleMole.Config.ApplyModifier",
          "modifierName": "ChargeEndPos_ShaderCut"
        }
      ]
    }
  },
  {
    "Default": {
      "$type": "MoleMole.Config.GNKCLKNDOAK",
      "abilityName": "Monster_Scorpion_Eremite_Fire_StreeControl",
      "PIDAPNFJNDF": [
        {
          "$type": "MoleMole.Config.SteerAttackMixin",
          "BAJBFPAEMHB": [
            "Turn"
          ],
          "angularSpeed": 150.0,
          "GMIILFMLLJI": "",
          "LFCDKEDGFFG": 2.0,
          "MJFJKAHGHDJ": ""
        },
        {
          "$type": "MoleMole.Config.SteerAttackMixin",
          "BAJBFPAEMHB": [
            "NormalAttack01_01"
          ],
          "endNormalizedTime": 0.44999998807907104,
          "angularSpeed": 180.0,
          "GMIILFMLLJI": "",
          "LFCDKEDGFFG": 2.0,
          "MJFJKAHGHDJ": ""
        },
        {
          "$type": "MoleMole.Config.SteerAttackMixin",
          "BAJBFPAEMHB": [
            "NormalAttack01_02"
          ],
          "endNormalizedTime": 0.27000001072883606,
          "angularSpeed": 180.0,
          "GMIILFMLLJI": "",
          "LFCDKEDGFFG": 2.0,
          "MJFJKAHGHDJ": ""
        },
        {
          "$type": "MoleMole.Config.SteerAttackMixin",
          "BAJBFPAEMHB": [
            "RangeAttack01"
          ],
          "endNormalizedTime": 0.3199999928474426,
          "angularSpeed": 150.0,
          "GMIILFMLLJI": "",
          "LFCDKEDGFFG": 2.0,
          "MJFJKAHGHDJ": ""
        },
        {
          "$type": "MoleMole.Config.SteerAttackMixin",
          "BAJBFPAEMHB": [
            "ComboAttack_BS",
            "MeleeAttack01_BS"
          ],
          "endNormalizedTime": 0.8999999761581421,
          "angularSpeed": 150.0,
          "GMIILFMLLJI": "",
          "LFCDKEDGFFG": 2.0,
          "MJFJKAHGHDJ": ""
        }
      ]
    }
  },
  {
    "Default": {
      "$type": "MoleMole.Config.GNKCLKNDOAK",
      "abilityName": "Monster_Scorpion_Eremite_Fire_NormalAttack01_01",
      "PIDAPNFJNDF": [
        {
          "$type": "MoleMole.Config.AttachToNormalizedTimeMixin",
          "GOPFOAFEKLC": "NormalAttack01_01",
          "modifierName": "Monster_Scorpion_Eremite_Fire_NormalAttack01_Damage",
          "normalizeStart": 0.3499999940395355,
          "normalizeEnd": 0.8700000047683716,
          "MJFJKAHGHDJ": ""
        }
      ],
      "BFBDNNJCDLH": {
        "Monster_Scorpion_Eremite_Fire_NormalAttack01_Damage": {
          "modifierName": "",
          "elementDurability": 100.0,
          "JPIFFPJJEMK": [
            {
              "$type": "MoleMole.Config.AttachActionToModifierMixin",
              "OAOGLLGGJPD": [
                {
                  "$type": "MoleMole.Config.EnablePushColliderName",
                  "DOFAFEMMILL": [
                    "PushCollider_L",
                    "PushCollider_R"
                  ]
                }
              ],
              "MINFJCDAIBB": [
                {
                  "$type": "MoleMole.Config.EnablePushColliderName",
                  "canBeHandledOnRecover": true,
                  "DOFAFEMMILL": [
                    "PushCollider_L",
                    "PushCollider_R"
                  ],
                  "NJKBCLADIBK": true
                }
              ]
            }
          ],
          "OAOGLLGGJPD": [
            {
              "$type": "MoleMole.Config.AttachEffect",
              "effectPattern": "Eff_Monster_Scorpion_Eremite_Fire_NormalAttack01_01_Damage",
              "effectTempleteID": -1.0
            },
            {
              "$type": "MoleMole.Config.TriggerBullet",
              "DCNFGAGBCMP": 42570007,
              "born": {
                "$type": "JEDNAGFKIDP",
                "useRotation": true,
                "OBNIJLKICKN": "RootNode"
              },
              "DGEKFHHECPG": "Self",
              "ACNKPHHONBO": true
            }
          ],
          "MINFJCDAIBB": [
            {
              "$type": "MoleMole.Config.KillSelf",
              "otherTargets": {
                "$type": "DMGCADBNILM",
                "configID": 42570007
              }
            }
          ]
        },
        "Monster_Scorpion_Eremite_Fire_NormalAttack01_Effect": {
          "modifierName": "",
          "elementDurability": 100.0,
          "OAOGLLGGJPD": [
            {
              "$type": "MoleMole.Config.AttachEffect",
              "effectPattern": "Eff_Monster_Scorpion_Eremite_Fire_NormalAttack01_01_BS",
              "effectTempleteID": -1.0
            }
          ]
        }
      }
    }
  },
  {
    "Default": {
      "$type": "MoleMole.Config.GNKCLKNDOAK",
      "abilityName": "Monster_Scorpion_Eremite_Fire_NormalAttack01_02",
      "PIDAPNFJNDF": [
        {
          "$type": "MoleMole.Config.AttachToNormalizedTimeMixin",
          "GOPFOAFEKLC": "NormalAttack01_02",
          "modifierName": "Monster_Scorpion_Eremite_Fire_NormalAttack01_02_Effect",
          "MJFJKAHGHDJ": ""
        },
        {
          "$type": "MoleMole.Config.AttachToNormalizedTimeMixin",
          "GOPFOAFEKLC": "NormalAttack01_02",
          "modifierName": "Monster_Scorpion_Eremite_Fire_NormalAttack01_02_Effect02",
          "normalizeStart": 0.1340000033378601,
          "MJFJKAHGHDJ": ""
        }
      ],
      "BFBDNNJCDLH": {
        "Monster_Scorpion_Eremite_Fire_NormalAttack01_02_Effect": {
          "modifierName": "",
          "elementDurability": 100.0,
          "OAOGLLGGJPD": [
            {
              "$type": "MoleMole.Config.AttachEffect",
              "effectPattern": "Eff_Monster_Scorpion_Eremite_Fire_NormalAttack01_02_BS",
              "effectTempleteID": -1.0
            }
          ]
        },
        "Monster_Scorpion_Eremite_Fire_NormalAttack01_02_Effect02": {
          "modifierName": "",
          "elementDurability": 100.0,
          "OAOGLLGGJPD": [
            {
              "$type": "MoleMole.Config.AttachEffect",
              "effectPattern": "Eff_Monster_Scorpion_Eremite_Fire_NormalAttack01_02_BS02",
              "effectTempleteID": -1.0
            }
          ]
        },
        "Monster_Scorpion_Eremite_Fire_NormalAttack01_02_Damage": {
          "modifierName": "",
          "duration": 1.0,
          "elementDurability": 100.0,
          "OAOGLLGGJPD": [
            {
              "$type": "MoleMole.Config.FireEffect",
              "effectPattern": "Eff_Monster_Scorpion_Eremite_Fire_NormalAttack01_02_Damage",
              "born": {
                "$type": "KPFCCIOJAMK",
                "offset": {
                  "GOAPOLCAJBP": 0.0,
                  "FMOPCJGGFMH": 0.0,
                  "EJJEPFCDDAM": 3.0
                },
                "onGround": true,
                "useRotation": true
              },
              "effectTempleteID": -1.0
            },
            {
              "$type": "MoleMole.Config.TriggerAttackEvent",
              "attackEvent": {
                "attackPattern": {
                  "$type": "LGEKKELKDAN",
                  "triggerType": "TriggerNoRepeat",
                  "born": {
                    "$type": "KPFCCIOJAMK",
                    "offset": {
                      "GOAPOLCAJBP": 0.0,
                      "FMOPCJGGFMH": 0.0,
                      "EJJEPFCDDAM": 3.0
                    },
                    "onGround": true,
                    "direction": {
                      "$type": "HDGHIAEOIJK"
                    },
                    "useRotation": true
                  },
                  "height": 1.2000000476837158,
                  "MFGGJCPPBGA": 2.5
                },
                "attackInfo": {
                  "attackTag": "",
                  "attenuationTag": "",
                  "attenuationGroup": "default",
                  "attackProperty": {
                    "JMLMDDCBIAO": 0.800000011920929,
                    "damagePercentageRatio": 0.0,
                    "elementType": "Fire",
                    "elementDurability": 25.0,
                    "strikeType": "Blunt",
                    "enBreak": 100.0,
                    "damagePercentage": 0.0
                  },
                  "hitPattern": {
                    "onHitEffectName": "default",
                    "hitImpulseY": "",
                    "hitImpulseType": "LV4",
                    "hitHaltTimeScale": 0.009999999776482582
                  }
                }
              },
              "targetType": "Enemy"
            }
          ]
        }
      },
      "EIIHGJGFDHC": [
        {
          "$type": "MoleMole.Config.ApplyModifier",
          "modifierName": "Monster_Scorpion_Eremite_Fire_NormalAttack01_02_Damage"
        }
      ]
    }
  },
  {
    "Default": {
      "$type": "MoleMole.Config.GNKCLKNDOAK",
      "abilityName": "Monster_Scorpion_Eremite_Fire_MeleeAttack01_BS",
      "PIDAPNFJNDF": [
        {
          "$type": "MoleMole.Config.AttachToNormalizedTimeMixin",
          "GOPFOAFEKLC": "MeleeAttack01_BS",
          "modifierName": "Monster_Scorpion_Eremite_Fire_MeleeAttack01_BS_Effect",
          "normalizeStart": 0.3799999952316284,
          "MJFJKAHGHDJ": ""
        },
        {
          "$type": "MoleMole.Config.AttachToNormalizedTimeMixin",
          "GOPFOAFEKLC": "ComboAttack_BS",
          "modifierName": "Monster_Scorpion_Eremite_Fire_MeleeAttack01_BS_Effect",
          "normalizeStart": 0.3799999952316284,
          "MJFJKAHGHDJ": ""
        },
        {
          "$type": "MoleMole.Config.AttachToStateIDMixin",
          "stateIDs": [
            "MeleeAttack01_UnderGroud",
            "ComboAttack_UnderGroud02",
            "ComboAttack_UnderGroud01",
            "ComboAttack_Damage01",
            "MeleeAttack01_AS",
            "ComboAttack_InAir"
          ],
          "modifierName": "Monster_Scorpion_Eremite_Fire_MeleeAttack01_ColliderHandle",
          "MJFJKAHGHDJ": ""
        },
        {
          "$type": "MoleMole.Config.AttachToStateIDMixin",
          "stateIDs": [
            "MeleeAttack01_UnderGroud",
            "ComboAttack_UnderGroud02",
            "ComboAttack_UnderGroud01",
            "ComboAttack_InAir"
          ],
          "modifierName": "Monster_Scorpion_Eremite_Fire_MeleeAttack01_StateHandle",
          "MJFJKAHGHDJ": ""
        }
      ],
      "BFBDNNJCDLH": {
        "Monster_Scorpion_Eremite_Fire_MeleeAttack01_BS_Effect": {
          "modifierName": "",
          "elementDurability": 100.0,
          "OAOGLLGGJPD": [
            {
              "$type": "MoleMole.Config.AttachEffect",
              "effectPattern": "Eff_Monster_Scorpion_Eremite_Fire_MeleeAttack01_01_BS",
              "effectTempleteID": -1.0
            }
          ]
        },
        "Monster_Scorpion_Eremite_Fire_MeleeAttack01_ColliderHandle": {
          "modifierName": "",
          "elementDurability": 100.0,
          "JPIFFPJJEMK": [
            {
              "$type": "MoleMole.Config.AttachActionToModifierMixin",
              "OAOGLLGGJPD": [
                {
                  "$type": "MoleMole.Config.EnablePushColliderName",
                  "DOFAFEMMILL": [
                    "PushCollider_L",
                    "PushCollider_R",
                    "PushCollider"
                  ]
                }
              ],
              "MINFJCDAIBB": [
                {
                  "$type": "MoleMole.Config.EnablePushColliderName",
                  "canBeHandledOnRecover": true,
                  "DOFAFEMMILL": [
                    "PushCollider_L",
                    "PushCollider_R",
                    "PushCollider"
                  ],
                  "NJKBCLADIBK": true
                }
              ]
            }
          ],
          "PMDLJDGOIKO": [
            {
              "$type": "MoleMole.Config.EnablePushColliderName",
              "DOFAFEMMILL": [
                "PushCollider_L",
                "PushCollider_R",
                "PushCollider"
              ],
              "NJKBCLADIBK": true
            }
          ]
        },
        "Monster_Scorpion_Eremite_Fire_MeleeAttack01_StateHandle": {
          "modifierName": "",
          "elementDurability": 100.0,
          "JPIFFPJJEMK": [
            {
              "$type": "MoleMole.Config.AttachActionToModifierMixin",
              "OAOGLLGGJPD": [
                {
                  "$type": "MoleMole.Config.EnableHitBoxByName",
                  "MAEGDKKBDPK": [
                    "HitBox",
                    "HitBox_R",
                    "HitBox_L"
                  ]
                },
                {
                  "$type": "MoleMole.Config.HideUIBillBoard",
                  "hide": true
                },
                {
                  "$type": "MoleMole.Config.EnableHDMesh",
                  "ALNBNPFFNIM": "Default"
                }
              ],
              "MINFJCDAIBB": [
                {
                  "$type": "MoleMole.Config.EnableHitBoxByName",
                  "canBeHandledOnRecover": true,
                  "MAEGDKKBDPK": [
                    "HitBox",
                    "HitBox_R",
                    "HitBox_L"
                  ],
                  "NJKBCLADIBK": true
                },
                {
                  "$type": "MoleMole.Config.HideUIBillBoard",
                  "canBeHandledOnRecover": true
                },
                {
                  "$type": "MoleMole.Config.EnableHDMesh",
                  "doOffStage": true,
                  "canBeHandledOnRecover": true,
                  "enable": true,
                  "ALNBNPFFNIM": "Default"
                }
              ]
            }
          ],
          "OAOGLLGGJPD": [
            {
              "$type": "MoleMole.Config.TriggerSetVisible"
            }
          ],
          "MINFJCDAIBB": [
            {
              "$type": "MoleMole.Config.ApplyModifier",
              "modifierName": "SetVisible_Ture"
            }
          ],
          "PMDLJDGOIKO": [
            {
              "$type": "MoleMole.Config.TriggerSetVisible",
              "canBeHandledOnRecover": true,
              "LJBECOMGDEJ": true
            }
          ]
        },
        "SetVisible_Ture": {
          "modifierName": "",
          "duration": 1.0,
          "elementDurability": 100.0,
          "OAOGLLGGJPD": [
            {
              "$type": "MoleMole.Config.TriggerSetVisible",
              "canBeHandledOnRecover": true,
              "LJBECOMGDEJ": true
            }
          ]
        }
      },
      "EIIHGJGFDHC": [
        {
          "$type": "MoleMole.Config.FireEffect",
          "effectPattern": "Eff_Monster_Scorpion_Eremite_Fire_MeleeAttack01_01_UnderGround",
          "born": {
            "$type": "KPFCCIOJAMK",
            "onGround": true,
            "useRotation": true
          },
          "effectTempleteID": -1.0
        },
        {
          "$type": "MoleMole.Config.TriggerAttackEvent",
          "attackEvent": {
            "attackPattern": {
              "$type": "LGEKKELKDAN",
              "triggerType": "TriggerNoRepeat",
              "born": {
                "$type": "KPFCCIOJAMK",
                "offset": {
                  "GOAPOLCAJBP": 0.0,
                  "FMOPCJGGFMH": 0.0,
                  "EJJEPFCDDAM": 1.5
                },
                "onGround": true,
                "useRotation": true
              },
              "height": 1.399999976158142,
              "MFGGJCPPBGA": 1.7999999523162842
            },
            "attackInfo": {
              "attackTag": "",
              "attenuationTag": "",
              "attenuationGroup": "default",
              "attackProperty": {
                "JMLMDDCBIAO": 0.5,
                "damagePercentageRatio": 0.0,
                "elementType": "Fire",
                "elementDurability": 25.0,
                "strikeType": "Blunt",
                "enBreak": 100.0,
                "damagePercentage": 0.0
              },
              "hitPattern": {
                "onHitEffectName": "default",
                "hitImpulseY": "",
                "hitImpulseType": "LV3",
                "retreatType": "ByHitDirection",
                "hitHaltTimeScale": 0.009999999776482582
              },
              "forceCameraShake": true,
              "cameraShake": {
                "shakeType": "CustomVector",
                "shakeRange": 0.10000000149011612,
                "shakeTime": 1.0
              }
            }
          },
          "targetType": "Enemy"
        }
      ]
    }
  },
  {
    "Default": {
      "$type": "MoleMole.Config.GNKCLKNDOAK",
      "abilityName": "Monster_Scorpion_Eremite_Fire_MeleeAttack_FindBlinkPoint",
      "BFBDNNJCDLH": {
        "Monster_Scorpion_Eremite_Fire_MeleeAttack_FindBlinkPoint": {
          "modifierName": "",
          "duration": 1.0,
          "elementDurability": 100.0,
          "OAOGLLGGJPD": [
            {
              "$type": "MoleMole.Config.TryFindBlinkPointByBorn",
              "MLDBFKEGPEF": "SelfAttackTarget",
              "born": {
                "$type": "LODIABIHEND",
                "offset": {
                  "GOAPOLCAJBP": 0.0,
                  "FMOPCJGGFMH": 0.0,
                  "EJJEPFCDDAM": 0.0
                },
                "onGround": true,
                "NPLIHAMPJJI": -5.5,
                "EJNEFDNHEDM": 0.0,
                "HHEOPAODJFL": 50.0
              },
              "IMGIPFNFJLJ": "BlinkHitSceneTestByThreeSegments",
              "GCEPPPEABPF": 2.0,
              "ignoreWater": true
            },
            {
              "$type": "MoleMole.Config.Predicated",
              "CKBKOCJPJMM": [
                {
                  "$type": "ELHJFBKKNPK",
                  "OAGIPMAEFCN": false
                }
              ],
              "successActions": [
                {
                  "$type": "MoleMole.Config.TryFindBlinkPointByBorn",
                  "born": {
                    "$type": "INKMBJGOPCK",
                    "bornRandom": {
                      "$type": "IKAJINIJLFD",
                      "HJLODMLADDK": 4.0,
                      "LEBHFOBMPMJ": 5.0
                    },
                    "onGround": true
                  },
                  "IMGIPFNFJLJ": "BlinkHitSceneTestByThreeSegments",
                  "GCEPPPEABPF": 2.5,
                  "ignoreWater": true
                }
              ]
            }
          ]
        }
      },
      "EIIHGJGFDHC": [
        {
          "$type": "MoleMole.Config.ApplyModifier",
          "modifierName": "Monster_Scorpion_Eremite_Fire_MeleeAttack_FindBlinkPoint"
        }
      ]
    }
  },
  {
    "Default": {
      "$type": "MoleMole.Config.GNKCLKNDOAK",
      "abilityName": "Monster_Scorpion_Eremite_Fire_MeleeAttack_DoBlink",
      "EIIHGJGFDHC": [
        {
          "$type": "MoleMole.Config.DoBlink"
        },
        {
          "$type": "MoleMole.Config.TurnDirectionToPos",
          "MLDBFKEGPEF": "SelfAttackTarget",
          "AOFHAEGNPNM": {
            "$type": "INKMBJGOPCK"
          }
        },
        {
          "$type": "MoleMole.Config.FireEffect",
          "effectPattern": "Eff_Monster_Scorpion_Eremite_Fire_MeleeAttack01_01_Alert02",
          "born": {
            "$type": "KPFCCIOJAMK",
            "onGround": true,
            "useRotation": true
          },
          "effectTempleteID": -1.0
        }
      ]
    }
  },
  {
    "Default": {
      "$type": "MoleMole.Config.GNKCLKNDOAK",
      "abilityName": "Monster_Scorpion_Eremite_Fire_MeleeAttack_Alert",
      "EIIHGJGFDHC": [
        {
          "$type": "MoleMole.Config.FireEffect",
          "effectPattern": "Eff_Monster_Scorpion_Eremite_Fire_MeleeAttack01_01_Alert",
          "born": {
            "$type": "KPFCCIOJAMK",
            "onGround": true,
            "useRotation": true
          },
          "effectTempleteID": -1.0
        }
      ]
    }
  },
  {
    "Default": {
      "$type": "MoleMole.Config.GNKCLKNDOAK",
      "abilityName": "Monster_Scorpion_Eremite_Fire_MeleeAttack_Damage",
      "PIDAPNFJNDF": [
        {
          "$type": "MoleMole.Config.AttachToNormalizedTimeMixin",
          "GOPFOAFEKLC": "MeleeAttack01_AS",
          "modifierName": "Monster_Scorpion_Eremite_Fire_MeleeAttack_DropEffect",
          "normalizeEnd": 0.800000011920929,
          "MJFJKAHGHDJ": ""
        },
        {
          "$type": "MoleMole.Config.AttachToNormalizedTimeMixin",
          "GOPFOAFEKLC": "ComboAttack_Damage01",
          "modifierName": "Monster_Scorpion_Eremite_Fire_MeleeAttack_DropEffect",
          "normalizeEnd": 0.800000011920929,
          "MJFJKAHGHDJ": ""
        },
        {
          "$type": "MoleMole.Config.AttachToNormalizedTimeMixin",
          "GOPFOAFEKLC": "MeleeAttack01_AS",
          "modifierName": "Monster_Scorpion_Eremite_Fire_MeleeAttack_Damage",
          "normalizeStart": 0.026000000536441803,
          "MJFJKAHGHDJ": ""
        },
        {
          "$type": "MoleMole.Config.AttachToNormalizedTimeMixin",
          "GOPFOAFEKLC": "ComboAttack_Damage01",
          "modifierName": "Monster_Scorpion_Eremite_Fire_MeleeAttack_Damage",
          "normalizeStart": 0.026000000536441803,
          "MJFJKAHGHDJ": ""
        }
      ],
      "BFBDNNJCDLH": {
        "Monster_Scorpion_Eremite_Fire_MeleeAttack_Damage": {
          "modifierName": "",
          "elementDurability": 100.0,
          "OAOGLLGGJPD": [
            {
              "$type": "MoleMole.Config.AttachEffect",
              "effectPattern": "Eff_Monster_Scorpion_Eremite_Fire_MeleeAttack01_01_DropEffect",
              "born": {
                "$type": "KPFCCIOJAMK",
                "onGround": true,
                "useRotation": true
              },
              "effectTempleteID": -1.0
            },
            {
              "$type": "MoleMole.Config.TriggerBullet",
              "DCNFGAGBCMP": 42570007,
              "born": {
                "$type": "JEDNAGFKIDP",
                "useRotation": true,
                "OBNIJLKICKN": "RootNode"
              },
              "DGEKFHHECPG": "Self",
              "ACNKPHHONBO": true
            }
          ],
          "MINFJCDAIBB": [
            {
              "$type": "MoleMole.Config.ApplyModifier",
              "otherTargets": {
                "$type": "DMGCADBNILM",
                "configID": 42570007
              },
              "modifierName": "KillSelf"
            }
          ]
        },
        "Monster_Scorpion_Eremite_Fire_MeleeAttack_DropEffect": {
          "modifierName": "",
          "elementDurability": 100.0,
          "OAOGLLGGJPD": [
            {
              "$type": "MoleMole.Config.AttachEffect",
              "effectPattern": "Eff_Monster_Scorpion_Eremite_Fire_MeleeAttack01_01_Damage",
              "effectTempleteID": -1.0
            }
          ]
        },
        "KillSelf": {
          "modifierName": "",
          "duration": 1.0,
          "elementDurability": 100.0,
          "OAOGLLGGJPD": [
            {
              "$type": "MoleMole.Config.KillSelf",
              "KDGBDGHPFAE": [
                42570007
              ]
            }
          ]
        }
      },
      "EIIHGJGFDHC": [
        {
          "$type": "MoleMole.Config.TriggerAttackEvent",
          "attackEvent": {
            "attackPattern": {
              "$type": "LGEKKELKDAN",
              "triggerType": "TriggerNoRepeat",
              "born": {
                "$type": "KPFCCIOJAMK",
                "offset": {
                  "GOAPOLCAJBP": 0.0,
                  "FMOPCJGGFMH": 0.0,
                  "EJJEPFCDDAM": 1.0
                },
                "onGround": true,
                "direction": {
                  "$type": "HDGHIAEOIJK"
                },
                "useRotation": true
              },
              "height": 1.2000000476837158,
              "MFGGJCPPBGA": 1.5
            },
            "attackInfo": {
              "attackTag": "",
              "attenuationTag": "",
              "attenuationGroup": "default",
              "attackProperty": {
                "JMLMDDCBIAO": 0.6000000238418579,
                "damagePercentageRatio": 0.0,
                "elementType": "Fire",
                "elementDurability": 25.0,
                "strikeType": "Blunt",
                "enBreak": 100.0,
                "damagePercentage": 0.0
              },
              "hitPattern": {
                "onHitEffectName": "default",
                "hitImpulseY": "",
                "hitImpulseType": "LV4",
                "hitHaltTimeScale": 0.009999999776482582
              }
            }
          },
          "targetType": "Enemy"
        }
      ]
    }
  },
  {
    "Default": {
      "$type": "MoleMole.Config.GNKCLKNDOAK",
      "abilityName": "Monster_Scorpion_Eremite_Fire_MeleeAttack_BulletHendle",
      "EIIHGJGFDHC": [
        {
          "$type": "MoleMole.Config.TriggerAttackEvent",
          "attackEvent": {
            "attackPattern": {
              "$type": "IJCIPLFIDAK",
              "triggerType": "TriggerNoRepeat",
              "born": {
                "$type": "AGPIGGAPILF"
              },
              "MFGGJCPPBGA": 0.5
            },
            "attackInfo": {
              "attackTag": "",
              "attenuationTag": "",
              "attenuationGroup": "default",
              "attackProperty": {
                "JMLMDDCBIAO": 0.800000011920929,
                "damagePercentageRatio": 0.0,
                "elementType": "Fire",
                "elementDurability": 25.0,
                "strikeType": "Blunt",
                "enBreak": 100.0,
                "damagePercentage": 0.0
              },
              "hitPattern": {
                "onHitEffectName": "default",
                "hitImpulseY": "",
                "hitImpulseType": "LV4",
                "hitHaltTimeScale": 0.009999999776482582
              },
              "canBeModifiedBy": "OriginOwner"
            }
          },
          "targetType": "Enemy"
        }
      ]
    }
  },
  {
    "Default": {
      "$type": "MoleMole.Config.GNKCLKNDOAK",
      "abilityName": "Monster_Scorpion_Eremite_Fire_MeleeAttack01_ComboAttack_AS",
      "EIIHGJGFDHC": [
        {
          "$type": "MoleMole.Config.FireEffect",
          "effectPattern": "Eff_Monster_Scorpion_Eremite_Fire_MeleeAttack01_01_UnderGround",
          "born": {
            "$type": "KPFCCIOJAMK",
            "onGround": true,
            "useRotation": true
          },
          "effectTempleteID": -1.0
        },
        {
          "$type": "MoleMole.Config.TriggerAttackEvent",
          "attackEvent": {
            "attackPattern": {
              "$type": "LGEKKELKDAN",
              "triggerType": "TriggerNoRepeat",
              "born": {
                "$type": "KPFCCIOJAMK",
                "offset": {
                  "GOAPOLCAJBP": 0.0,
                  "FMOPCJGGFMH": 0.0,
                  "EJJEPFCDDAM": 1.0
                },
                "onGround": true,
                "useRotation": true
              },
              "height": 1.2000000476837158,
              "MFGGJCPPBGA": 1.5
            },
            "attackInfo": {
              "attackTag": "",
              "attenuationTag": "",
              "attenuationGroup": "default",
              "attackProperty": {
                "JMLMDDCBIAO": 0.5,
                "damagePercentageRatio": 0.0,
                "elementType": "Fire",
                "elementDurability": 25.0,
                "strikeType": "Blunt",
                "enBreak": 100.0,
                "damagePercentage": 0.0
              },
              "hitPattern": {
                "onHitEffectName": "default",
                "hitImpulseY": "",
                "hitImpulseType": "LV3",
                "retreatType": "ByHitDirection",
                "hitHaltTimeScale": 0.009999999776482582
              },
              "forceCameraShake": true,
              "cameraShake": {
                "shakeType": "CustomVector",
                "shakeRange": 0.10000000149011612,
                "shakeTime": 1.0
              }
            }
          },
          "targetType": "Enemy"
        }
      ]
    }
  },
  {
    "Default": {
      "$type": "MoleMole.Config.GNKCLKNDOAK",
      "abilityName": "Monster_Scorpion_Eremite_Fire_ComboAttack01_Trigger",
      "BFBDNNJCDLH": {
        "Monster_Scorpion_Eremite_Fire_ComboTrigger": {
          "modifierName": "",
          "duration": 1.0,
          "elementDurability": 100.0,
          "OAOGLLGGJPD": [
            {
              "$type": "MoleMole.Config.SetAnimatorTrigger",
              "triggerID": "ComboTrigger"
            }
          ]
        }
      },
      "EIIHGJGFDHC": [
        {
          "$type": "MoleMole.Config.ApplyModifier",
          "MLDBFKEGPEF": "Owner",
          "modifierName": "Monster_Scorpion_Eremite_Fire_ComboTrigger"
        }
      ]
    }
  },
  {
    "Default": {
      "$type": "MoleMole.Config.GNKCLKNDOAK",
      "abilityName": "Monster_Scorpion_Eremite_Fire_ComboAttack01",
      "PIDAPNFJNDF": [
        {
          "$type": "MoleMole.Config.AttachToNormalizedTimeMixin",
          "GOPFOAFEKLC": "ComboAttack_InAir",
          "modifierName": "Monster_Scorpion_Eremite_Fire_ComboAttack01_Alert",
          "normalizeStart": 0.20499999821186066,
          "MJFJKAHGHDJ": ""
        },
        {
          "$type": "MoleMole.Config.AttachToNormalizedTimeMixin",
          "GOPFOAFEKLC": "ComboAttack_InAir",
          "modifierName": "Monster_Scorpion_Eremite_Fire_DoBlink_To_SelfAttackTarget",
          "normalizeEnd": 0.10000000149011612,
          "MJFJKAHGHDJ": ""
        }
      ],
      "BFBDNNJCDLH": {
        "Monster_Scorpion_Eremite_Fire_ComboAttack01_Alert": {
          "modifierName": "",
          "elementDurability": 100.0,
          "OAOGLLGGJPD": [
            {
              "$type": "MoleMole.Config.FireEffect",
              "effectPattern": "Eff_Monster_Scorpion_Eremite_Fire_ComboAttack01_Alert",
              "born": {
                "$type": "KPFCCIOJAMK",
                "onGround": true,
                "useRotation": true
              },
              "effectTempleteID": -1.0
            }
          ]
        },
        "Monster_Scorpion_Eremite_Fire_ComboAttack01_BreakGadget": {
          "modifierName": "",
          "duration": 0.5,
          "elementDurability": 100.0,
          "GAPANNMIBJA": [
            {
              "$type": "MoleMole.Config.ApplyModifier",
              "MLDBFKEGPEF": "Target",
              "predicates": [
                {
                  "$type": "IPGGGPIJONN",
                  "key": "_COMMON_GADGET_ISSUMMON",
                  "value": 0.0,
                  "compareType": "MoreThan"
                }
              ],
              "modifierName": "Kill_Summon_Gadget"
            }
          ]
        },
        "Monster_Scorpion_Eremite_Fire_ComboAttack01_Damage": {
          "modifierName": "",
          "duration": 3.0,
          "elementDurability": 100.0,
          "OAOGLLGGJPD": [
            {
              "$type": "MoleMole.Config.FireEffect",
              "effectPattern": "Eff_Monster_Scorpion_Eremite_Fire_ComboAttack01_Damage",
              "born": {
                "$type": "KPFCCIOJAMK",
                "onGround": true,
                "useRotation": true
              },
              "effectTempleteID": -1.0
            },
            {
              "$type": "MoleMole.Config.TriggerAttackEvent",
              "attackEvent": {
                "attackPattern": {
                  "$type": "LGEKKELKDAN",
                  "triggerType": "TriggerNoRepeat",
                  "born": {
                    "$type": "KPFCCIOJAMK",
                    "offset": {
                      "GOAPOLCAJBP": 0.0,
                      "FMOPCJGGFMH": 0.0,
                      "EJJEPFCDDAM": 0.0
                    },
                    "onGround": true,
                    "alongGround": true,
                    "useRotation": true
                  },
                  "height": 1.7999999523162842,
                  "MFGGJCPPBGA": 7.0
                },
                "attackInfo": {
                  "attackTag": "",
                  "attenuationTag": "",
                  "attenuationGroup": "default",
                  "attackProperty": {
                    "JMLMDDCBIAO": 1.0,
                    "damagePercentageRatio": 0.0,
                    "elementType": "Fire",
                    "elementDurability": 25.0,
                    "strikeType": "Blunt",
                    "enBreak": 10000.0,
                    "damagePercentage": 0.0
                  },
                  "hitPattern": {
                    "onHitEffectName": "default",
                    "hitImpulseY": "",
                    "hitImpulseType": "LV5",
                    "hitHaltTimeScale": 0.009999999776482582
                  },
                  "forceCameraShake": true,
                  "cameraShake": {
                    "shakeRange": 0.25,
                    "shakeTime": 1.0,
                    "shakeDir": {
                      "y": 2.0
                    },
                    "extension": {
                      "baseOnCamera": true,
                      "rangeAttenuation": 0.0
                    }
                  }
                }
              },
              "targetType": "Enemy"
            }
          ]
        },
        "Kill_Summon_Gadget": {
          "modifierName": "",
          "duration": 1.0,
          "elementDurability": 100.0,
          "OAOGLLGGJPD": [
            {
              "$type": "MoleMole.Config.KillSelf"
            }
          ]
        },
        "Monster_Scorpion_Eremite_Fire_DoBlink_To_SelfAttackTarget": {
          "modifierName": "",
          "duration": 0.10000000149011612,
          "elementDurability": 100.0,
          "OAOGLLGGJPD": [
            {
              "$type": "MoleMole.Config.TryFindBlinkPoint",
              "otherTargets": {
                "$type": "DOMPKGOHKNB",
                "KHHAHILDJDO": 1,
                "sortType": "Nearest",
                "shapeName": "CircleR50",
                "FAMCBLCIFCJ": "AllExceptSelf",
                "CONEFMBNECE": 1.0
              },
              "predicates": [
                {
                  "$type": "IPGGGPIJONN",
                  "key": "IS_COMBOATTACK_POS_",
                  "value": 1.0
                }
              ]
            }
          ],
          "MINFJCDAIBB": [
            {
              "$type": "MoleMole.Config.DoBlink"
            },
            {
              "$type": "MoleMole.Config.TurnDirectionToPos",
              "MLDBFKEGPEF": "SelfAttackTarget",
              "AOFHAEGNPNM": {
                "$type": "INKMBJGOPCK"
              }
            }
          ]
        }
      },
      "EIIHGJGFDHC": [
        {
          "$type": "MoleMole.Config.ApplyModifier",
          "modifierName": "Monster_Scorpion_Eremite_Fire_ComboAttack01_BreakGadget"
        },
        {
          "$type": "MoleMole.Config.ApplyModifier",
          "modifierName": "Monster_Scorpion_Eremite_Fire_ComboAttack01_Damage"
        }
      ]
    }
  },
  {
    "Default": {
      "$type": "MoleMole.Config.GNKCLKNDOAK",
      "abilityName": "Monster_Scorpion_Eremite_Fire_RangeAttack01",
      "PIDAPNFJNDF": [
        {
          "$type": "MoleMole.Config.AttachToNormalizedTimeMixin",
          "GOPFOAFEKLC": "RangeAttack01",
          "modifierName": "Monster_Scorpion_Eremite_Fire_RangeAttack01_Effect",
          "normalizeEnd": 0.5,
          "MJFJKAHGHDJ": ""
        }
      ],
      "BFBDNNJCDLH": {
        "Monster_Chrysopelea_Eremite_Grass_RangeAttack01_TriggerBullet": {
          "modifierName": "",
          "duration": 1.0,
          "elementDurability": 100.0,
          "OAOGLLGGJPD": [
            {
              "$type": "MoleMole.Config.FireEffect",
              "effectPattern": "Eff_Monster_Scorpion_Eremite_Fire_RangeAttack01_Fire",
              "effectTempleteID": -1.0
            },
            {
              "$type": "MoleMole.Config.TriggerBullet",
              "DCNFGAGBCMP": 42570006,
              "born": {
                "$type": "JEDNAGFKIDP",
                "direction": {
                  "$type": "HCHFPIMPCJM",
                  "BKMDHKCJDCB": ""
                },
                "useRotation": true,
                "OBNIJLKICKN": "Tail_Top"
              }
            }
          ]
        },
        "Monster_Scorpion_Eremite_Fire_RangeAttack01_Effect": {
          "modifierName": "",
          "elementDurability": 100.0,
          "OAOGLLGGJPD": [
            {
              "$type": "MoleMole.Config.AttachEffect",
              "effectPattern": "Eff_Monster_Scorpion_Eremite_Fire_RangeAttack01_BS",
              "effectTempleteID": -1.0
            }
          ]
        }
      },
      "EIIHGJGFDHC": [
        {
          "$type": "MoleMole.Config.ApplyModifier",
          "modifierName": "Monster_Chrysopelea_Eremite_Grass_RangeAttack01_TriggerBullet"
        }
      ]
    }
  },
  {
    "Default": {
      "$type": "MoleMole.Config.GNKCLKNDOAK",
      "abilityName": "Monster_Scorpion_Eremite_Fire_RangeAttack01_Bullet",
      "EIIHGJGFDHC": [
        {
          "$type": "MoleMole.Config.FireHitEffect",
          "FIFHAPEFGCF": "",
          "hitScene": {
            "CFHBJGOPHMP": "Eff_Monster_Scorpion_Eremite_Fire_RangeAttack01_DamageGround"
          }
        },
        {
          "$type": "MoleMole.Config.Predicated",
          "MLDBFKEGPEF": "Target",
          "CKBKOCJPJMM": [
            {
              "$type": "DLLOJMFICPG",
              "JBEIOINCLFB": [
                "Avatar",
                "Monster",
                "Gadget",
                "Bullet",
                "Partner"
              ]
            }
          ],
          "successActions": [
            {
              "$type": "MoleMole.Config.FireEffect",
              "effectPattern": "Eff_Monster_Scorpion_Eremite_Fire_RangeAttack01_Damage",
              "born": {
                "$type": "AGPIGGAPILF"
              },
              "effectTempleteID": -1.0
            }
          ]
        },
        {
          "$type": "MoleMole.Config.TriggerAttackEvent",
          "attackEvent": {
            "attackPattern": {
              "$type": "IJCIPLFIDAK",
              "triggerType": "TriggerNoRepeat",
              "born": {
                "$type": "AGPIGGAPILF"
              },
              "MFGGJCPPBGA": 1.7999999523162842
            },
            "attackInfo": {
              "attackTag": "",
              "attenuationTag": "",
              "attenuationGroup": "default",
              "attackProperty": {
                "JMLMDDCBIAO": 0.800000011920929,
                "damagePercentageRatio": 0.0,
                "elementType": "Fire",
                "elementDurability": 25.0,
                "strikeType": "Default",
                "enBreak": 200.0,
                "damagePercentage": 0.0
              },
              "hitPattern": {
                "onHitEffectName": "default",
                "hitImpulseY": "",
                "hitImpulseType": "LV4",
                "hitHaltTimeScale": 0.05000000074505806
              }
            }
          },
          "targetType": "Enemy"
        },
        {
          "$type": "MoleMole.Config.KillSelf"
        }
      ]
    }
  },
  {
    "Default": {
      "$type": "MoleMole.Config.GNKCLKNDOAK",
      "abilityName": "Monster_Scorpion_Eremite_Fire_Die",
      "BFBDNNJCDLH": {
        "Empty_Modifier": {
          "modifierName": "",
          "elementDurability": 100.0
        },
        "Monster_Scorpion_Eremite_Fire_Die": {
          "modifierName": "",
          "duration": 1.0,
          "elementDurability": 100.0,
          "OAOGLLGGJPD": [
            {
              "$type": "MoleMole.Config.SetGlobalValue",
              "value": 1.0,
              "key": "_EREMITE_SLAVE_DIE_",
              "HPICGAMGEGA": true,
              "maxValue": 1.0,
              "GCEOGBJIFCP": 0.0
            }
          ]
        }
      },
      "OAOGLLGGJPD": [
        {
          "$type": "MoleMole.Config.SetGlobalValue",
          "value": 0.0,
          "key": "_EREMITE_SLAVE_RETURNTOBORN_",
          "HPICGAMGEGA": true,
          "maxValue": 1.0,
          "GCEOGBJIFCP": 0.0
        }
      ],
      "EIIHGJGFDHC": [
        {
          "$type": "MoleMole.Config.ApplyModifier",
          "MLDBFKEGPEF": "Owner",
          "predicates": [
            {
              "$type": "IPGGGPIJONN",
              "MLDBFKEGPEF": "Self",
              "key": "_EREMITE_SLAVE_RETURNTOBORN_",
              "value": 0.0
            }
          ],
          "modifierName": "Monster_Scorpion_Eremite_Fire_Die"
        }
      ]
    }
  }
]