[
  {
    "Default": {
      "$type": "MoleMole.Config.GNKCLKNDOAK",
      "abilityName": "Hili_Grass_PlantThorns",
      "EIIHGJGFDHC": [
        {
          "$type": "MoleMole.Config.TriggerBullet",
          "DCNFGAGBCMP": 42101002,
          "born": {
            "$type": "INKMBJGOPCK",
            "offset": {
              "GOAPOLCAJBP": 0.0,
              "FMOPCJGGFMH": 0.30000001192092896,
              "EJJEPFCDDAM": 0.0
            }
          }
        }
      ]
    }
  },
  {
    "Default": {
      "$type": "MoleMole.Config.GNKCLKNDOAK",
      "abilityName": "Hili_Grass_PlantThorns_Loop",
      "BFBDNNJCDLH": {
        "GrassMaterial": {
          "modifierName": "",
          "elementType": "Grass",
          "elementDurability": 100.0
        }
      },
      "OAOGLLGGJPD": [
        {
          "$type": "MoleMole.Config.AttachEffect",
          "effectPattern": "Eff_Monster_Undead_01_Plant_Thorns",
          "effectTempleteID": -1.0
        },
        {
          "$type": "MoleMole.Config.AttachModifier",
          "modifierName": "GrassMaterial"
        }
      ]
    }
  },
  {
    "Default": {
      "$type": "MoleMole.Config.GNKCLKNDOAK",
      "abilityName": "Hili_Grass_PlantGrasping",
      "EIIHGJGFDHC": [
        {
          "$type": "MoleMole.Config.CreateGadget",
          "born": {
            "$type": "INKMBJGOPCK",
            "offset": {
              "GOAPOLCAJBP": 0.0,
              "FMOPCJGGFMH": 0.0,
              "EJJEPFCDDAM": 0.0
            }
          },
          "gadgetID": 42101008,
          "campID": 4001,
          "FAMCBLCIFCJ": "All"
        }
      ]
    }
  },
  {
    "Default": {
      "$type": "MoleMole.Config.GNKCLKNDOAK",
      "abilityName": "Hili_Grass_PlantGrasping_Element",
      "BFBDNNJCDLH": {
        "PlantGraspingElement": {
          "modifierName": "",
          "duration": 8.0,
          "elementType": "Grass",
          "elementDurability": 100.0,
          "OAOGLLGGJPD": [
            {
              "$type": "MoleMole.Config.AttachEffect",
              "effectPattern": "Eff_Monster_Undead_01_Plant_Grasping",
              "effectTempleteID": -1.0
            }
          ],
          "MINFJCDAIBB": [
            {
              "$type": "MoleMole.Config.KillSelf"
            }
          ]
        }
      },
      "OAOGLLGGJPD": [
        {
          "$type": "MoleMole.Config.AttachModifier",
          "modifierName": "PlantGraspingElement"
        }
      ]
    }
  },
  {
    "Default": {
      "$type": "MoleMole.Config.GNKCLKNDOAK",
      "abilityName": "Hili_Grass_Heal",
      "LLLCANIGIOE": {
        "healHPRatio": 0.10000000149011612,
        "healHPRatioRetain": 0.019999999552965164
      },
      "BFBDNNJCDLH": {
        "HealHPModifier": {
          "modifierName": "",
          "duration": 6.0,
          "elementType": "Grass",
          "elementDurability": 100.0,
          "BNJENAIMDPL": 0.30000001192092896,
          "OAOGLLGGJPD": [
            {
              "$type": "MoleMole.Config.AttachEffect",
              "effectPattern": "Eff_Monster_Undead_01_Plant_Heal",
              "effectTempleteID": -1.0
            },
            {
              "$type": "MoleMole.Config.AttachEffect",
              "effectPattern": "Eff_Monster_Hili_Grass_HealRetain",
              "effectTempleteID": -1.0
            },
            {
              "$type": "MoleMole.Config.HealHP",
              "doOffStage": true,
              "LHENKJCLGMH": "healHPRatio",
              "BEDKFKJOMJB": true,
              "FKJDBJEPNPD": ""
            }
          ],
          "PJKELBNICOI": [
            {
              "$type": "MoleMole.Config.HealHP",
              "doOffStage": true,
              "LHENKJCLGMH": "healHPRatioRetain",
              "BEDKFKJOMJB": true,
              "FKJDBJEPNPD": ""
            }
          ]
        }
      },
      "EIIHGJGFDHC": [
        {
          "$type": "MoleMole.Config.AttachModifier",
          "otherTargets": {
            "$type": "DOMPKGOHKNB",
            "KHHAHILDJDO": 1,
            "shapeName": "CircleR10",
            "FAMCBLCIFCJ": "Alliance",
            "CONEFMBNECE": 1.0
          },
          "predicates": [
            {
              "$type": "DLLOJMFICPG",
              "JBEIOINCLFB": [
                "Monster"
              ]
            }
          ],
          "modifierName": "HealHPModifier"
        }
      ]
    }
  },
  {
    "Default": {
      "$type": "MoleMole.Config.GNKCLKNDOAK",
      "abilityName": "MonEquip_WoodenClub_Grass_Effect",
      "PIDAPNFJNDF": [
        {
          "$type": "MoleMole.Config.AttachModifierToPredicateMixin",
          "predicates": [
            {
              "$type": "IPGGGPIJONN",
              "key": "_IS_CLUB_",
              "value": 1.0
            }
          ],
          "modifierName": "Grass_Effect"
        }
      ],
      "BFBDNNJCDLH": {
        "Grass_Effect": {
          "modifierName": "",
          "elementDurability": 100.0,
          "OAOGLLGGJPD": [
            {
              "$type": "MoleMole.Config.AttachEffect",
              "effectPattern": "Eff_Monster_Shaman_Grass_WeaponElement",
              "effectTempleteID": -1.0
            }
          ],
          "GAPANNMIBJA": [
            {
              "$type": "MoleMole.Config.ApplyModifier",
              "MLDBFKEGPEF": "Target",
              "predicates": [
                {
                  "$type": "DLLOJMFICPG",
                  "JBEIOINCLFB": [
                    "Avatar"
                  ]
                }
              ],
              "modifierName": "Poison"
            }
          ]
        },
        "Poison": {
          "modifierName": "",
          "duration": 8.0,
          "elementType": "Grass",
          "elementDurability": 100.0,
          "BNJENAIMDPL": 1.0,
          "OAOGLLGGJPD": [
            {
              "$type": "MoleMole.Config.AttachEffect",
              "effectPattern": "Eff_Monster_Slime_Grass_Poison_Dot",
              "effectTempleteID": -1.0
            }
          ],
          "PJKELBNICOI": [
            {
              "$type": "MoleMole.Config.DamageByAttackValue",
              "attackInfo": {
                "attackTag": "",
                "attenuationTag": "",
                "attenuationGroup": "default",
                "attackProperty": {
                  "JMLMDDCBIAO": 0.20000000298023224,
                  "damagePercentageRatio": 0.0,
                  "elementType": "Grass",
                  "elementDurability": 30.0,
                  "strikeType": "Default",
                  "damagePercentage": 0.0
                },
                "hitPattern": {
                  "onHitEffectName": "",
                  "hitImpulseY": "",
                  "hitImpulseType": ""
                }
              }
            }
          ]
        }
      }
    }
  },
  {
    "Default": {
      "$type": "MoleMole.Config.GNKCLKNDOAK",
      "abilityName": "Hili_Grass_PlantSteer",
      "PIDAPNFJNDF": [
        {
          "$type": "MoleMole.Config.SteerAttackMixin",
          "BAJBFPAEMHB": [
            "ThrowAttack"
          ],
          "angularSpeed": 180.0,
          "GMIILFMLLJI": "",
          "LFCDKEDGFFG": 12.0,
          "MJFJKAHGHDJ": ""
        }
      ]
    }
  }
]