[
  {
    "Default": {
      "$type": "MoleMole.Config.GNKCLKNDOAK",
      "abilityName": "Monster_Apep_Underling_SeedOfArjuna_Default",
      "PIDAPNFJNDF": [
        {
          "$type": "MoleMole.Config.AttachModifierToSelfGlobalValueMixin",
          "globalValueKey": "_HASTARGET",
          "KADKJMOFOLI": 0.0,
          "FJEPHJNDEAI": [
            -0.5,
            0.5,
            1.5,
            2.5
          ],
          "IJEPHCMOAPE": [
            "FindingTarget",
            "HasTarget",
            "CoolDown"
          ]
        },
        {
          "$type": "MoleMole.Config.RigidBodyFreezeMixin"
        }
      ],
      "BFBDNNJCDLH": {
        "FindingTarget": {
          "modifierName": "",
          "elementDurability": 100.0,
          "BNJENAIMDPL": 0.5,
          "PJKELBNICOI": [
            {
              "$type": "MoleMole.Config.SetGlobalValue",
              "value": 0.0,
              "key": "_HASTARGET_TempCount",
              "maxValue": 0.0,
              "GCEOGBJIFCP": 0.0
            },
            {
              "$type": "MoleMole.Config.Predicated",
              "otherTargets": {
                "$type": "DOMPKGOHKNB",
                "shapeName": "CircleR50",
                "FAMCBLCIFCJ": "SelfCamp",
                "CONEFMBNECE": 1.0
              },
              "CKBKOCJPJMM": [
                {
                  "$type": "DDBKFOCLCMN"
                },
                {
                  "$type": "IPGGGPIJONN",
                  "key": "_MONSTER_Apep_Underling_SeedOfKarna_Tag",
                  "value": 1.0
                }
              ],
              "successActions": [
                {
                  "$type": "MoleMole.Config.AddGlobalValue",
                  "value": 1.0,
                  "key": "_HASTARGET_TempCount",
                  "maxValue": 0.0,
                  "GCEOGBJIFCP": 0.0
                }
              ]
            },
            {
              "$type": "MoleMole.Config.SetGlobalValue",
              "predicates": [
                {
                  "$type": "IPGGGPIJONN",
                  "key": "_HASTARGET_TempCount",
                  "value": 1.0,
                  "compareType": "MoreThanAndEqual"
                }
              ],
              "value": 1.0,
              "key": "_HASTARGET",
              "maxValue": 0.0,
              "GCEOGBJIFCP": 0.0
            }
          ]
        },
        "HasTarget": {
          "modifierName": "",
          "elementDurability": 100.0,
          "OAOGLLGGJPD": [
            {
              "$type": "MoleMole.Config.SetPoseBool",
              "KIAGMJMPHPG": "HasTarget",
              "value": true
            }
          ],
          "MINFJCDAIBB": [
            {
              "$type": "MoleMole.Config.SetPoseBool",
              "KIAGMJMPHPG": "HasTarget"
            }
          ]
        },
        "CoolDown": {
          "modifierName": "",
          "duration": 8.0,
          "elementDurability": 100.0,
          "MINFJCDAIBB": [
            {
              "$type": "MoleMole.Config.SetGlobalValue",
              "value": 0.0,
              "key": "_HASTARGET",
              "maxValue": 0.0,
              "GCEOGBJIFCP": 0.0
            }
          ]
        }
      }
    }
  },
  {
    "Default": {
      "$type": "MoleMole.Config.GNKCLKNDOAK",
      "abilityName": "Monster_Apep_Underling_SeedOfArjuna_Chose",
      "PIDAPNFJNDF": [
        {
          "$type": "MoleMole.Config.AttachToAnimatorStateIDMixin",
          "stateIDs": [
            "SupportAttack_BS",
            "SupportAttack_Loop"
          ],
          "modifierName": "Monster_Apep_Underling_SeedOfArjuna_SupportAttack_SelfEffect",
          "MJFJKAHGHDJ": ""
        },
        {
          "$type": "MoleMole.Config.DoActionByAnimatorStateIDMixin",
          "stateIDs": [
            "SupportAttack_BS",
            "SupportAttack_Loop"
          ],
          "IKMNFOBKHJA": [
            {
              "$type": "MoleMole.Config.RemoveModifier",
              "otherTargets": {
                "$type": "DOMPKGOHKNB",
                "sortType": "Nearest",
                "shapeName": "CircleR50",
                "FAMCBLCIFCJ": "Alliance",
                "CONEFMBNECE": 1.0
              },
              "modifierName": "Monster_Apep_Underling_SeedOfArjuna_ChosenOne"
            },
            {
              "$type": "MoleMole.Config.SendEffectTriggerToLineEffect",
              "parameter": "LineEnd",
              "attachPoint": "",
              "effectPattern": "Eff_Monster_Apep_Underling_SeedOfArjuna_SupportAttack_Line"
            }
          ],
          "MJFJKAHGHDJ": ""
        },
        {
          "$type": "MoleMole.Config.AttachToAnimatorStateIDMixin",
          "stateIDs": [
            "SupportAttack_Loop"
          ],
          "modifierName": "State_Check",
          "MJFJKAHGHDJ": ""
        }
      ],
      "BFBDNNJCDLH": {
        "Monster_Apep_Underling_SeedOfArjuna_CoreEffect": {
          "modifierName": "",
          "elementDurability": 100.0,
          "OAOGLLGGJPD": [
            {
              "$type": "MoleMole.Config.AttachEffect",
              "effectPattern": "Eff_Monster_Apep_Underling_SeedOfArjuna_Core",
              "effectTempleteID": -1.0
            }
          ]
        },
        "Monster_Apep_Underling_SeedOfArjuna_SupportAttack_SelfEffect": {
          "modifierName": "",
          "elementDurability": 100.0,
          "JPIFFPJJEMK": [
            {
              "$type": "MoleMole.Config.AttachModifierToSelfGlobalValueMixin",
              "globalValueKey": "_SELFENHANCE_Ready",
              "KADKJMOFOLI": 0.0,
              "FJEPHJNDEAI": [
                0.5,
                1.5
              ],
              "IJEPHCMOAPE": [
                "Monster_Apep_Underling_SeedOfArjuna_SelfEnhance"
              ]
            }
          ],
          "OAOGLLGGJPD": [
            {
              "$type": "MoleMole.Config.AttachEffect",
              "effectPattern": "Eff_Monster_Apep_Underling_SeedOfArjuna_SupportAttack_BS",
              "effectTempleteID": -1.0
            },
            {
              "$type": "MoleMole.Config.AttachModifier",
              "modifierName": "Monster_Apep_Underling_SeedOfArjuna_SelfEnhance_CountDown"
            }
          ]
        },
        "Monster_Apep_Underling_SeedOfArjuna_SelfEnhance_CountDown": {
          "modifierName": "",
          "duration": 2.0,
          "elementDurability": 100.0,
          "BNJENAIMDPL": 1.5,
          "PJKELBNICOI": [
            {
              "$type": "MoleMole.Config.SetGlobalValue",
              "value": 1.0,
              "key": "_SELFENHANCE_Ready",
              "maxValue": 0.0,
              "GCEOGBJIFCP": 0.0
            }
          ]
        },
        "Monster_Apep_Underling_SeedOfArjuna_SelfEnhance": {
          "modifierName": "",
          "elementDurability": 100.0,
          "JPIFFPJJEMK": [
            {
              "$type": "MoleMole.Config.ChangeLockTypeMixin",
              "lockType": "Gear_Lv3"
            }
          ],
          "EPKCPIKGJOJ": {
            "Actor_EndureDelta": 0.009999999776482582,
            "Actor_PhysicalSubHurtDelta": 99.0,
            "Actor_FireSubHurtDelta": 99.0,
            "Actor_ElecSubHurtDelta": 99.0,
            "Actor_IceSubHurtDelta": 99.0,
            "Actor_WaterSubHurtDelta": 99.0,
            "Actor_GrassSubHurtDelta": 99.0,
            "Actor_WindSubHurtDelta": 99.0,
            "Actor_RockSubHurtDelta": 99.0
          },
          "OAOGLLGGJPD": [
            {
              "$type": "MoleMole.Config.AttachEffect",
              "effectPattern": "Eff_Monster_Apep_Underling_SeedOfArjuna_SelfEnhance",
              "effectTempleteID": -1.0
            }
          ],
          "MINFJCDAIBB": [
            {
              "$type": "MoleMole.Config.SetGlobalValue",
              "value": 0.0,
              "key": "_SELFENHANCE_Ready",
              "maxValue": 0.0,
              "GCEOGBJIFCP": 0.0
            }
          ]
        },
        "State_Check": {
          "modifierName": "",
          "elementDurability": 100.0,
          "BNJENAIMDPL": 0.20000000298023224,
          "PJKELBNICOI": [
            {
              "$type": "MoleMole.Config.SetGlobalValue",
              "value": 0.0,
              "key": "_CHECKED",
              "maxValue": 0.0,
              "GCEOGBJIFCP": 0.0
            },
            {
              "$type": "MoleMole.Config.Predicated",
              "otherTargets": {
                "$type": "DOMPKGOHKNB",
                "shapeName": "CircleR50",
                "FAMCBLCIFCJ": "SelfCamp",
                "CONEFMBNECE": 1.0
              },
              "CKBKOCJPJMM": [
                {
                  "$type": "IPGGGPIJONN",
                  "key": "_MONSTER_Apep_Underling_SeedOfArjuna_ChosenOne",
                  "value": 1.0
                }
              ],
              "successActions": [
                {
                  "$type": "MoleMole.Config.SetGlobalValue",
                  "value": 1.0,
                  "key": "_CHECKED",
                  "maxValue": 0.0,
                  "GCEOGBJIFCP": 0.0
                }
              ]
            },
            {
              "$type": "MoleMole.Config.ApplyModifier",
              "MLDBFKEGPEF": "Applier",
              "predicates": [
                {
                  "$type": "IPGGGPIJONN",
                  "key": "_CHECKED",
                  "value": 0.0
                }
              ],
              "modifierName": "SkillEnd"
            }
          ]
        },
        "Monster_Apep_Underling_SeedOfArjuna_ChosenOne": {
          "modifierName": "",
          "elementDurability": 100.0,
          "OAOGLLGGJPD": [
            {
              "$type": "MoleMole.Config.SetGlobalValue",
              "value": 1.0,
              "key": "_MONSTER_Apep_Underling_SeedOfArjuna_ChosenOne",
              "maxValue": 0.0,
              "GCEOGBJIFCP": 0.0
            }
          ],
          "MINFJCDAIBB": [
            {
              "$type": "MoleMole.Config.SetGlobalValue",
              "value": 0.0,
              "key": "_MONSTER_Apep_Underling_SeedOfArjuna_ChosenOne",
              "maxValue": 0.0,
              "GCEOGBJIFCP": 0.0
            }
          ],
          "DOFDCKKDGHL": [
            {
              "$type": "MoleMole.Config.ApplyModifier",
              "MLDBFKEGPEF": "Caster",
              "modifierName": "EnhanceTarget_Killed"
            }
          ]
        },
        "SkillEnd": {
          "modifierName": "",
          "duration": 0.5,
          "elementDurability": 100.0,
          "OAOGLLGGJPD": [
            {
              "$type": "MoleMole.Config.SetAnimatorBool",
              "KIAGMJMPHPG": "SupportEnd",
              "value": true
            },
            {
              "$type": "MoleMole.Config.LoseHP",
              "AMHLKHBNHBL": 0.4000000059604645,
              "CNHEAJCMHPI": ""
            },
            {
              "$type": "MoleMole.Config.SetGlobalValue",
              "value": 2.0,
              "key": "_HASTARGET",
              "maxValue": 0.0,
              "GCEOGBJIFCP": 0.0
            },
            {
              "$type": "MoleMole.Config.KillSelf"
            }
          ]
        },
        "EnhanceTarget_Killed": {
          "modifierName": "",
          "duration": 0.10000000149011612,
          "elementDurability": 100.0,
          "OAOGLLGGJPD": [
            {
              "$type": "MoleMole.Config.LoseHP",
              "AMHLKHBNHBL": 0.4000000059604645,
              "CNHEAJCMHPI": ""
            },
            {
              "$type": "MoleMole.Config.FireEffect",
              "effectPattern": "Eff_Monster_Apep_Underling_SeedOfArjuna_SelfHit",
              "effectTempleteID": -1.0
            },
            {
              "$type": "MoleMole.Config.SetAnimatorTrigger",
              "triggerID": "Supprot_ShakeTrigger",
              "HLKBAOMMIGG": true
            }
          ]
        }
      },
      "OAOGLLGGJPD": [
        {
          "$type": "MoleMole.Config.ApplyModifier",
          "modifierName": "Monster_Apep_Underling_SeedOfArjuna_CoreEffect"
        }
      ],
      "EIIHGJGFDHC": [
        {
          "$type": "MoleMole.Config.SetAnimatorBool",
          "KIAGMJMPHPG": "SupportEnd"
        },
        {
          "$type": "MoleMole.Config.ApplyModifier",
          "otherTargets": {
            "$type": "DOMPKGOHKNB",
            "KHHAHILDJDO": 3,
            "sortType": "Nearest",
            "shapeName": "CircleR50",
            "FAMCBLCIFCJ": "Alliance",
            "CONEFMBNECE": 1.0
          },
          "predicates": [
            {
              "$type": "IPGGGPIJONN",
              "key": "_MONSTER_Apep_Underling_SeedOfKarna_Tag",
              "value": 1.0
            },
            {
              "$type": "DDBKFOCLCMN"
            }
          ],
          "modifierName": "Monster_Apep_Underling_SeedOfArjuna_ChosenOne"
        }
      ]
    }
  }
]