{
  "MGAAIBDNAPG": {
    "327180110": [
      15346185462333927107,
      12656293280755358330,
      14623799045164188876,
      1640904900246490182
    ],
    "327180134": [
      15346185462333927107,
      14623799045164188876
    ],
    "327180136": [
      15346185462333927107,
      7657686475965444837,
      9745662825282842665,
      14623799045164188876
    ],
    "327180403": [
      7657686475965444837,
      9745662825282842665,
      14623799045164188876
    ],
    "327180406": [
      9745662825282842665,
      14623799045164188876,
      1640904900246490182
    ],
    "327180407": [
      6367973674135421253
    ],
    "327180490": [
      15168252261355493710,
      6367973674135421253,
      15064961828837367770
    ],
    "327180491": [
      15346185462333927107,
      14623799045164188876,
      1640904900246490182
    ],
    "327180492": [
      15346185462333927107,
      9156442063528009643,
      7657686475965444837,
      14623799045164188876
    ],
    "327180495": [
      10950783801435649905
    ],
    "327180497": [
      15346185462333927107,
      7657686475965444837,
      9745662825282842665,
      14623799045164188876
    ],
    "327180499": [
      15346185462333927107,
      12656293280755358330,
      14623799045164188876,
      1640904900246490182
    ],
    "327180500": [
      15346185462333927107,
      9156442063528009643,
      7657686475965444837,
      9745662825282842665
    ],
    "327180501": [
      15346185462333927107,
      9156442063528009643,
      7657686475965444837,
      14623799045164188876
    ],
    "327180503": [
      15346185462333927107,
      12656293280755358330,
      14623799045164188876,
      1640904900246490182
    ],
    "327180562": [
      10950783801435649905,
      1640904900246490182
    ],
    "327180564": [
      10950783801435649905,
      12656293280755358330,
      1640904900246490182
    ],
    "327180581": [
      15346185462333927107,
      7657686475965444837,
      9745662825282842665,
      14623799045164188876
    ],
    "327180589": [
      10950783801435649905,
      9745662825282842665,
      14623799045164188876,
      1640904900246490182
    ],
    "327180690": [
      15346185462333927107,
      12656293280755358330,
      14623799045164188876,
      1640904900246490182
    ],
    "327180914": [
      15168252261355493710,
      6367973674135421253,
      10950783801435649905
    ]
  }
}