{
  "ECDPKIDMLDP": {
    "205557775": 536805376,
    "205557777": 268173823,
    "205557780": 268173823,
    "205557781": 268173761,
    "205557783": 536610815,
    "205557784": 1073286912,
    "205591715": 4294967295,
    "205591716": 4294967295,
    "205591717": 4294967295,
    "205591718": 4294967295,
    "205591720": 4294967295,
    "205591721": 4294967295,
    "205591723": 4294967295,
    "205591724": 4294967295,
    "205591725": 4294967295,
    "205591726": 4294967295,
    "205591727": 4294967295,
    "205591728": 4294967295,
    "205591729": 4294967295,
    "205591731": 4294967295,
    "205588294": 2147450879,
    "205588295": 4294967295,
    "205557910": 4294967295,
    "205557911": 4294967295,
    "205594840": 536347135,
    "205594842": 4294573671,
    "205588297": 4294967295,
    "205590777": 4294967295,
    "205588298": 4294967295,
    "205588299": 4294967295,
    "205557786": 4294967295,
    "205557787": 1073680135,
    "205557789": 4294967295,
    "205557791": 4294770672,
    "205557792": 4294967295,
    "205557793": 4294770625,
    "205557794": 4294967295,
    "205557796": 536870912,
    "205557800": 536347616,
    "205557802": 535822336,
    "205557803": 4293984128,
    "205557936": 2147483647,
    "205557937": 268370175,
    "205557938": 4294967295,
    "205557939": 4294967295,
    "205557942": 1073684479,
    "205557943": 2147483647,
    "205557944": 536822271,
    "205557945": 2147450879,
    "205557948": 4294967295,
    "205557949": 4294868510,
    "205557950": 4294967295,
    "205557951": 536806399,
    "205561216": 4294967295,
    "205561687": 4294967295,
    "205563968": 2147450879,
    "205564247": 4294967295,
    "205564250": 536809471,
    "205591020": 4294967295,
    "205591738": 536807423,
    "205591739": 4294967295,
    "205591744": 4294967295,
    "205591961": 4294967295,
    "205592367": 4294967292,
    "205557920": 2147450879,
    "205557921": 2147450879,
    "205557923": 536806387,
    "205557924": 48,
    "205557926": 1073479680,
    "205557927": 4294967295,
    "205557929": 1073709055,
    "205557930": 4294967295,
    "205557935": 536347120,
    "205561585": 1073217536,
    "205561586": 459007,
    "205590920": 4294967295,
    "205599767": 1073684479,
    "205594843": 4294967295,
    "205594844": 4294967295,
    "205594845": 4294934527,
    "205594848": 4294967295,
    "205594849": 3221094399,
    "205594850": 4294967295,
    "205594851": 4294443008,
    "205594853": 4294967295,
    "205594854": 4294967295,
    "205594855": 4294967295,
    "205557918": 1073684463,
    "205557919": 2147450879,
    "205591019": 4294967295,
    "205591860": 2683977791,
    "205593402": 4294967295,
    "205599098": 4294508528,
    "205604079": 4294967295,
    "205600875": 4294967295,
    "205600876": 4294967295,
    "205600877": 4294967295,
    "205600878": 4294967295,
    "205600879": 4294967295,
    "205600880": 4294967295,
    "205600881": 4294967295,
    "205600883": 4294967295,
    "205600884": 4294967295,
    "205600885": 4294967295,
    "205600886": 4294967295,
    "205600887": 4294836223,
    "205600889": 4294967295,
    "205600890": 4294967295,
    "205600891": 4294967295,
    "205600892": 4294967295,
    "205600893": 4294967295,
    "205600894": 4294967295,
    "205557913": 4294901758,
    "205563630": 4294508536,
    "205576019": 4294967295,
    "205576020": 268370175,
    "205576022": 4294967295,
    "205576023": 4294967295,
    "205599285": 4294967295,
    "205600895": 4294967295,
    "205600896": 4294967295,
    "205555139": 4294967295,
    "205555142": 4294967295,
    "205555143": 4294967295,
    "205555145": 4294967295,
    "205555271": 4294967295,
    "205555272": 4294967295,
    "205561153": 4294967295,
    "205561220": 4294967295,
    "205561702": 4294967295,
    "205562059": 4294967295,
    "205554862": 4294967295,
    "205558035": 4294967295,
    "205592070": 4294967295,
    "205554364": 4294967295,
    "205554483": 4294967295,
    "205555269": 4294967295,
    "205591286": 4294967295,
    "205540719": 4294967295,
    "205540720": 4294967295,
    "205554237": 4294967295,
    "205554649": 4294967295,
    "205558040": 4294967295,
    "205561222": 4294967295,
    "205561704": 4294967295,
    "205561888": 4294967295,
    "205565593": 4294967295,
    "205591199": 4294967295,
    "205591200": 4294836223,
    "205591870": 4294967295,
    "205592062": 4294967295,
    "205593085": 4294967295,
    "205561889": 4294967295,
    "205590914": 4294967295,
    "205591171": 4294967295,
    "205591172": 4294967271,
    "205591198": 4294967295,
    "205591857": 4294967295,
    "205591858": 4294967295,
    "205591859": 4294967295,
    "205591869": 4294967295,
    "205591959": 4294967295,
    "205592021": 4294967295,
    "205592601": 4294967295,
    "205592657": 4294967295,
    "205592661": 4294967295,
    "205592979": 4294967295,
    "205592981": 4294967295,
    "205599074": 4294967295,
    "205599594": 4294967295,
    "205599595": 4294967295,
    "205599596": 4294967295,
    "205599599": 4294967295,
    "205599600": 4294967295,
    "205599610": 4294967295,
    "205599611": 4294967295,
    "205599612": 4294967295,
    "205599616": 4294967295,
    "205599617": 4294967295,
    "205599620": 4294967295,
    "205599635": 4294967295,
    "205599637": 4294967295,
    "205599640": 4294967295,
    "205599641": 4294967295,
    "205562022": 4294967295,
    "205592658": 4294967295,
    "205592660": 4294967295,
    "205592662": 4294967295,
    "205592663": 4294967295,
    "205592664": 4294967295,
    "205603016": 4294967295,
    "205603017": 4294967295,
    "205603018": 4294967295,
    "205603019": 4294967295,
    "205603020": 4294967295,
    "205603021": 4294967295,
    "205603022": 4294967295,
    "205603023": 4294967295,
    "205603024": 4294967295,
    "205603025": 4294967295,
    "205603026": 4294967295,
    "205603027": 4294967295,
    "205603028": 4294967295,
    "205603029": 4294967295,
    "205603030": 4294967295,
    "205603031": 4294967295,
    "205603032": 4294967295,
    "205603033": 4294967295,
    "205603034": 4294967295,
    "205603035": 4294967295,
    "205603036": 4294967295,
    "205603037": 4294967295,
    "205603038": 4294967295,
    "205603039": 4294967295,
    "205603040": 4294967295,
    "205603041": 4294967295,
    "205603042": 4294967295,
    "205603043": 4294967295,
    "205603044": 4294967295,
    "205603045": 4294967295,
    "205603046": 4294967295,
    "205603047": 4294967295,
    "205603048": 4294967295,
    "205603049": 4294967295,
    "205603050": 4294967295,
    "205603051": 4294967295,
    "205603052": 4294967295,
    "205603053": 4294967295,
    "205603054": 4294967295,
    "205603055": 4294967295,
    "205603056": 4294967295,
    "205603057": 4294967295,
    "205603058": 4294967295,
    "205555144": 4294967295,
    "205555147": 4294967295,
    "205555273": 4294967295,
    "205561221": 4294967295,
    "205561231": 4294967295,
    "205564352": 4294967295,
    "205578594": 4294967295,
    "205591288": 4294967295,
    "205591867": 4294967295,
    "205592295": 4294967295,
    "205592980": 4294967295,
    "205599496": 4294967295,
    "205599497": 4294967295,
    "205590945": 4294967295,
    "205592198": 4294967295,
    "205592448": 4294967295,
    "205592449": 4294967295,
    "205592450": 4294967295,
    "205592668": 4294967295,
    "205592692": 4294967295,
    "205592693": 4294967295,
    "205599286": 4294967295,
    "205599287": 4294967295,
    "205599288": 4294967295,
    "205599289": 4294967295,
    "205599290": 4294967295,
    "205599597": 4294967295,
    "205599598": 4294967295,
    "205599601": 4294967295,
    "205599602": 4294967295,
    "205599603": 4294967295,
    "205599604": 4294967295,
    "205599605": 4294967295,
    "205599606": 4294967295,
    "205599607": 4294967295,
    "205599608": 4294967295,
    "205599609": 4294967295,
    "205599613": 4294967295,
    "205599614": 4294967295,
    "205599615": 4294967295,
    "205599618": 4294967295,
    "205599619": 4294967295,
    "205599621": 4294967295,
    "205599622": 4294967295,
    "205599636": 4294967295,
    "205599638": 4294967295,
    "205599639": 4294967295,
    "205599642": 4294967295,
    "205603059": 4294967295,
    "205603060": 4294967295,
    "205603061": 4294967295,
    "205603062": 4294967295,
    "205603064": 4294967295,
    "205603065": 4294967295,
    "205603066": 4294967295,
    "205603067": 4294967295,
    "205603569": 4294967295,
    "205603570": 4294967295,
    "205602993": 4294967295,
    "205602994": 4294967295,
    "205602995": 4294967295,
    "205602996": 4294967295,
    "205602997": 4294967295,
    "205602998": 4294967295,
    "205602999": 4294967295,
    "205603000": 4294967295,
    "205603001": 4294967295,
    "205603002": 4294967295,
    "205603003": 4294967295,
    "205603004": 4294967295,
    "205603005": 4294967295,
    "205603006": 4294967295,
    "205603007": 4294967295,
    "205603008": 4294967295,
    "205603009": 4294967295,
    "205603010": 4294967295,
    "205603011": 4294967295,
    "205603012": 4294967295,
    "205603013": 4294967295,
    "205603014": 4294967295,
    "205603015": 4294967295,
    "205603589": 4294967295,
    "205553604": 4294967295,
    "205567309": 4294967295,
    "205567312": 4294967295,
    "205567388": 4294967295,
    "205567392": 4294967295,
    "205567310": 4294967295,
    "205567313": 4294967295,
    "205567318": 4294967295,
    "205568424": 4294967295,
    "205568425": 4294967295,
    "205568426": 4294967295,
    "205568427": 4294967295,
    "205567429": 4294967295,
    "205567430": 4294967295,
    "205567431": 4294967295,
    "205567432": 4294967295,
    "205567433": 4294967295,
    "205567434": 4294967295,
    "205567435": 4294967295,
    "205567449": 4294967295,
    "205567451": 4294967295,
    "205567452": 4294967295,
    "205567453": 4294967295,
    "205567454": 4294967295,
    "205567455": 4294967295,
    "205567457": 4294967295,
    "205568584": 4294967295,
    "205568585": 4294967295,
    "205571230": 4294967295,
    "205591741": 4294967295,
    "205591742": 4294967295,
    "205591748": 4294967295,
    "205592368": 4294967295,
    "205592715": 4294967295,
    "205599108": 4294967295,
    "205567436": 4294967295,
    "205567437": 4294967295,
    "205567439": 4294967295,
    "205567440": 4294967295,
    "205567441": 4294967295,
    "205567442": 4294967295,
    "205567443": 4294967295,
    "205567444": 4294967295,
    "205567446": 4294967295,
    "205567448": 4294967295,
    "205568589": 4294967295,
    "205568591": 4294967295,
    "205568593": 4294967295,
    "205568594": 4294967295,
    "205568595": 4294967295,
    "205568596": 4294967295,
    "205568597": 4294967295,
    "205568598": 4294967295,
    "205568599": 4294967295,
    "205568601": 4294967295,
    "205568602": 4294967295,
    "205568604": 4294967295,
    "205568605": 4294967295,
    "205568606": 4294967295,
    "205591293": 4294967295,
    "205592022": 4294967295,
    "205592464": 4294967295,
    "205592465": 4294967295,
    "205592467": 4294967295,
    "205592469": 4294967295,
    "205592470": 4294967295,
    "205592471": 4294967295,
    "205592589": 4294967295,
    "205592643": 4294967295,
    "205592644": 4294967295,
    "205592679": 4294967295,
    "205592680": 4294967295,
    "205592681": 4294967295,
    "205593369": 4294967295,
    "205593370": 4294967295,
    "205593439": 4294967295,
    "205593440": 4294967295,
    "205599109": 4294967295,
    "205599468": 4294967295,
    "205599507": 4294967295,
    "205603338": 4294967295,
    "205603816": 4294967295,
    "205568588": 4294967295,
    "205565598": 4294967295,
    "205567319": 4294967295,
    "205567320": 4294967295,
    "205567321": 4294967295,
    "205567323": 4294967295,
    "205567324": 4294967295,
    "205567325": 4294967295,
    "205567386": 4294967295,
    "205567391": 4294967295,
    "205592074": 4294967295,
    "205592296": 4294967295,
    "205592472": 4294967295,
    "205592604": 4294967295,
    "205592645": 4294967295,
    "205592682": 4294967295,
    "205592694": 4294967295,
    "205592698": 4294967295,
    "205592716": 4294967295,
    "205592717": 4294967295,
    "205592938": 4294967295,
    "205592939": 4294967295,
    "205592940": 4294967295,
    "205593086": 4294967295,
    "205593404": 4294967295,
    "205593405": 4294967295,
    "205593441": 4294967295,
    "205599110": 4294967295,
    "205599111": 4294967295,
    "205599112": 4294967295,
    "205599113": 4294967295,
    "205599134": 4294967295,
    "205599135": 4294967295,
    "205599508": 4294967295,
    "205599644": 4294967295,
    "205599650": 4294967295,
    "205599651": 4294967295,
    "205599652": 4294967295,
    "205603590": 4294967295,
    "205603817": 4294967295,
    "205603854": 4294967295,
    "205603855": 4294967295,
    "205604211": 4294967295,
    "205567389": 4294967295,
    "205567397": 4294967295,
    "205592474": 4294967295,
    "205592475": 4294967295,
    "205592476": 4294967295,
    "205592605": 4294967295,
    "205592718": 4294967295,
    "205567399": 4294967295,
    "205567400": 4294967295,
    "205567401": 4294967295,
    "205567402": 4294967295,
    "205567404": 4294967295,
    "205567405": 4294967295,
    "205567407": 4294967295,
    "205567408": 4294967295,
    "205567409": 4294967295,
    "205567411": 4294967295,
    "205567412": 4294967295,
    "205567415": 4294967295,
    "205567416": 4294967295,
    "205567417": 4294967295,
    "205567422": 4294967295,
    "205567423": 4294967295,
    "205567424": 4294967295,
    "205567425": 4294967295,
    "205591871": 4294836223,
    "205592064": 4294967295,
    "205592590": 4294967295,
    "205593087": 4294967295,
    "205593185": 4294967295,
    "205593372": 4294967295,
    "205593394": 4294967295,
    "205594210": 4294967295,
    "205594211": 4294967295,
    "205599114": 4294967295,
    "205599115": 4294967295,
    "205599116": 4294967295,
    "205599509": 4294967295,
    "205599760": 4294967295,
    "205599761": 4294967295,
    "205567361": 4294967295,
    "205567362": 4294967295,
    "205567364": 4294967295,
    "205567366": 4294967295,
    "205567369": 4294967295,
    "205567370": 4294967295,
    "205567371": 4294967295,
    "205567373": 4294967295,
    "205567374": 4294967295,
    "205567375": 4294967295,
    "205567377": 4294967295,
    "205567379": 4294967295,
    "205567381": 4294967295,
    "205567382": 4294967295,
    "205567384": 4294967295,
    "205567385": 4294967295,
    "205592023": 4294967295,
    "205592243": 4294967295,
    "205592297": 4294967295,
    "205592646": 4294967295,
    "205592699": 4294967295,
    "205599117": 4294967295,
    "205599469": 4294967295,
    "205599510": 4294967295,
    "205599645": 4294967295,
    "205567326": 4294967295,
    "205567327": 4294967295,
    "205567329": 4294967295,
    "205567330": 4294967295,
    "205567331": 4294967295,
    "205567333": 4294967295,
    "205567334": 4294967295,
    "205567337": 4294967295,
    "205567338": 4294967295,
    "205567339": 4294967295,
    "205567340": 4294967295,
    "205567341": 4294967295,
    "205567343": 4294967295,
    "205567344": 4294967295,
    "205567345": 4294967295,
    "205567346": 4294967295,
    "205567347": 4294967295,
    "205567348": 4294967295,
    "205567350": 4294967295,
    "205567353": 4294967295,
    "205567354": 4294967295,
    "205567358": 4294967295,
    "205567360": 4294967295,
    "205591749": 4294967295,
    "205591872": 4294967295,
    "205591873": 4294967295,
    "205591963": 4294967295,
    "205592007": 4294967295,
    "205592211": 4294967295,
    "205592244": 4294967295,
    "205592647": 4294967295,
    "205592700": 4294967295,
    "205592982": 4294967295,
    "205599118": 4294967295,
    "205599119": 4294967295,
    "205599120": 4294967295,
    "205599136": 4294967295,
    "205599137": 4294967295,
    "205604033": 4294967295,
    "205555319": 4294967295,
    "205591874": 4294967295,
    "205591875": 4294967295,
    "205599138": 4294967295,
    "205599139": 4294967295,
    "205599511": 4294967295,
    "205599653": 4294967295,
    "205599762": 4294967295,
    "205604212": 4294967295,
    "205550918": 4294967295,
    "205603305": 4294967295,
    "205603306": 4294967295,
    "205603307": 4294967295,
    "205603308": 4294967295,
    "205603309": 4294967295,
    "205603310": 4294967295,
    "205603311": 4294967295,
    "205603312": 4294967295,
    "205603313": 4294967295,
    "205603314": 4294967295,
    "205603315": 4294967295,
    "205603316": 4294967295,
    "205603317": 4294967295,
    "205603318": 4294967295,
    "205603847": 4294967295,
    "205571231": 4294967295,
    "205571232": 4294967295,
    "205571233": 4294967295,
    "205591876": 4294967295,
    "205591877": 4294967295,
    "205591878": 4294967295,
    "205591879": 4294967295,
    "205592024": 4294967295,
    "205592025": 4294967295,
    "205592202": 4294967295,
    "205592212": 4294967295,
    "205592245": 4294967295,
    "205592369": 4294967295,
    "205592478": 4294967295,
    "205592480": 4294967295,
    "205592483": 4294967295,
    "205592592": 4294967295,
    "205592648": 4294967295,
    "205592684": 4294967295,
    "205592983": 4294967295,
    "205592997": 4294967295,
    "205592998": 4294967295,
    "205593014": 4294967295,
    "205593184": 4294967295,
    "205593396": 4294967295,
    "205594209": 4294967295,
    "205599291": 4294967295,
    "205599292": 4294967295,
    "205599293": 4294967295,
    "205599294": 4294967295,
    "205599295": 4294967295,
    "205599296": 4294967295,
    "205599297": 4294967295,
    "205599298": 4294967295,
    "205603319": 4294967295,
    "205603320": 4294967295,
    "205603339": 4294967295,
    "205603340": 4294967295,
    "205603571": 4294967295,
    "205604434": 2147450879,
    "205604435": 1610573823,
    "205536063": 4294967295,
    "205536065": 4294967295,
    "205536066": 4294967295,
    "205536068": 4294967295,
    "205536069": 4294967295,
    "205536070": 4294967295,
    "205549281": 4294967295,
    "205551095": 4294967295,
    "205551096": 4294967295,
    "205553609": 4294967295,
    "205553635": 4294967295,
    "205554475": 4294967295,
    "205554477": 4294967295,
    "205554479": 4294967295,
    "205560388": 4294967295,
    "205560389": 4294967295,
    "205562077": 4294967295,
    "205562086": 4294967295,
    "205562087": 4294967295,
    "205562089": 4294967295,
    "205562091": 4294967295,
    "205562687": 4294967295,
    "205563715": 4294967295,
    "205562074": 4294967295,
    "205562134": 4294967295,
    "205591743": 4294967295,
    "205589315": 4294967295,
    "205589317": 4294967295,
    "205589320": 4294967295,
    "205589879": 4294967295,
    "205591202": 4294967295,
    "205591208": 4294967295,
    "205591209": 4294967295,
    "205591210": 4294967295,
    "205591211": 4294967295,
    "205591217": 4294967295,
    "205591887": 4294967295,
    "205592729": 4294967295,
    "205592731": 4294967295,
    "205592734": 4294967295,
    "205592735": 4294967295,
    "205592737": 4294967295,
    "205592740": 4294967295,
    "205592743": 4294967295,
    "205592744": 4294967295,
    "205592746": 4294967295,
    "205592747": 4294967295,
    "205592748": 4294967295,
    "205592749": 4294967295,
    "205592751": 4294967295,
    "205592752": 4294967295,
    "205592753": 4294967295,
    "205593009": 4294967295,
    "205593088": 4294967295,
    "205593089": 4294967295,
    "205593093": 4294967295,
    "205599126": 4294967295,
    "205599127": 4294967295,
    "205599763": 4294967295,
    "205599768": 4294967295,
    "205553679": 4294967295,
    "205553680": 4294967295,
    "205536067": 4294967295,
    "205562088": 4294967295,
    "205562690": 4294967295,
    "205591203": 4294967295,
    "205591880": 4294967295,
    "205592730": 4294967295,
    "205592732": 4294967295,
    "205592733": 4294967295,
    "205594584": 4294967295,
    "205549277": 4294967295,
    "205549278": 4294967295,
    "205549279": 4294967295,
    "205562092": 4294967295,
    "205562093": 4294967295,
    "205591206": 4294967295,
    "205591207": 4294967295,
    "205591881": 4294967295,
    "205591882": 4294967295,
    "205592200": 4294967295,
    "205592736": 4294967295,
    "205592738": 4294967295,
    "205592739": 4294967295,
    "205592741": 4294967295,
    "205592742": 4294967295,
    "205592745": 4294967295,
    "205593090": 4294967295,
    "205593091": 4294967295,
    "205593092": 4294967295,
    "205594585": 4294967295,
    "205594586": 4294967295,
    "205594639": 4294967295,
    "205599769": 4294967295,
    "205604203": 4294967295,
    "205536060": 4294967295,
    "205536064": 4294967295,
    "205541639": 4294967295,
    "205554476": 4294967295,
    "205554478": 4294967295,
    "205554480": 4294967295,
    "205554481": 4294967295,
    "205562913": 4294967295,
    "205562914": 4294967295,
    "205589313": 4294967295,
    "205589314": 4294967295,
    "205593466": 4294967295,
    "205599128": 4294967295,
    "205599129": 4294967295,
    "205589316": 4294967295,
    "205589318": 4294967295,
    "205589319": 4294967295,
    "205589321": 4294967295,
    "205591212": 4294967295,
    "205591213": 4294967295,
    "205591214": 4294967295,
    "205591215": 4294966271,
    "205591883": 4294967295,
    "205591884": 4294967295,
    "205591885": 4294967295,
    "205591886": 4294967295,
    "205591888": 4294967295,
    "205591889": 4294967295,
    "205592484": 4294967295,
    "205592485": 4294967295,
    "205592486": 4294967295,
    "205592487": 4294967295,
    "205592488": 4294967295,
    "205592596": 4294967295,
    "205592598": 4294967295,
    "205592599": 4294967295,
    "205592600": 4294967295,
    "205592685": 4294967295,
    "205592686": 4294967295,
    "205592687": 4294967295,
    "205592719": 4294967295,
    "205592750": 4294967295,
    "205592754": 4294967295,
    "205593012": 4294967295,
    "205593094": 4294967295,
    "205593095": 4294967295,
    "205593397": 4294967295,
    "205593406": 4294967295,
    "205599130": 4294967295,
    "205599131": 4294967295,
    "205599132": 4294967295,
    "205599133": 4294967295,
    "205599299": 4294967295,
    "205599300": 4294967295,
    "205599301": 4294967295,
    "205599302": 4294967295,
    "205599303": 4294967295,
    "205599304": 4294967295,
    "205599654": 4294967295,
    "205599655": 4294967295,
    "205599656": 4294967295,
    "205599657": 4294967295,
    "205603856": 4294967295,
    "205603857": 4294967295,
    "205592942": 4294967295,
    "205592943": 4294967295,
    "205592944": 4294967295,
    "205592945": 4294967295,
    "205592946": 4294967295,
    "205592947": 4294967295,
    "205592948": 4294967295,
    "205593398": 4294967295,
    "205593409": 4294967295,
    "205593410": 4294967295,
    "205593411": 4294967295,
    "205599140": 4294967295,
    "205599141": 4294967295,
    "205599142": 4294967295,
    "205599143": 4294967295,
    "205599144": 4294967295,
    "205599145": 4294967295,
    "205599658": 4294967295,
    "205599659": 4294967295,
    "205599660": 4294967295,
    "205599661": 4294967295,
    "205599662": 4294967295,
    "205599663": 4294967295,
    "205599664": 4294967295,
    "205599665": 4294967295,
    "205599666": 4294967295,
    "205599667": 4294967295,
    "205599668": 4294967295,
    "205599669": 4294967295,
    "205599718": 4294967295,
    "205599719": 4294967295,
    "205603858": 4294967295,
    "205603859": 4294967295,
    "205603860": 4294967295,
    "205603861": 4294967295
  }
}