{
  "HEAADHALHCB": [
    {
      "DABAINGKGCN": "Tag_2",
      "KFJPNPEIAGA": [
        331397242,
        331397366,
        331397368,
        331397412,
        331397413,
        331397414,
        331397415,
        331397920,
        331397921,
        331397922,
        331397923,
        331468188,
        331468189,
        331479446,
        331397838,
        331397857,
        331397905,
        331397906,
        331397927,
        331397928,
        331397929,
        331401686,
        331401687,
        331401688,
        331401689,
        331401750,
        331447241,
        331447242,
        331447243,
        331447244,
        331447245,
        331447246,
        331447247,
        331447248,
        331447249,
        331447250,
        331447251,
        331469421,
        331478988,
        331397504,
        331397505,
        331397506,
        331397507,
        331397508,
        331397509,
        331397510,
        331397511,
        331397513,
        331397529,
        331397532,
        331397533,
        331397535,
        331397536,
        331407651,
        331397542,
        331397545,
        331397553,
        331397554,
        331397851,
        331397854,
        331401734,
        331401735,
        331401736,
        331403712,
        331403730,
        331403738,
        331450213,
        331456292,
        331468544,
        331468545,
        331479011,
        331479048,
        331397606,
        331397607,
        331397608,
        331397612,
        331397613,
        331403742,
        331403744,
        331403745,
        331403747,
        331403768,
        331407700,
        331407712,
        331434008,
        331434010,
        331434011,
        331434012,
        331434013,
        331434017,
        331434020,
        331434021,
        331434022,
        331434023,
        331434025,
        331434026,
        331434153,
        331450220,
        331450232,
        331397090,
        331397091,
        331397092,
        331397093,
        331397094,
        331397095,
        331397096,
        331397097,
        331397098,
        331397099,
        331397100,
        331397101,
        331397102,
        331397103,
        331397105,
        331397106,
        331397107,
        331397109,
        331397110,
        331397111,
        331397112,
        331397113,
        331397114,
        331397115,
        331397116,
        331397117,
        331397118,
        331397120,
        331397121,
        331397122,
        331397123,
        331397124,
        331397125,
        331397126,
        331397128,
        331397129,
        331397130,
        331397133,
        331397134,
        331397135,
        331397136,
        331397137,
        331397138,
        331397139,
        331397151,
        331397152,
        331397153,
        331397154,
        331397155,
        331397156,
        331397157,
        331397159,
        331397160,
        331397161,
        331397164,
        331397165,
        331397166,
        331397167,
        331397168,
        331397169,
        331397170,
        331397171,
        331397172,
        331397173,
        331397174,
        331397175,
        331397176,
        331397177,
        331397178,
        331397179,
        331397180,
        331397181,
        331397182,
        331397183,
        331397184,
        331397185,
        331397186,
        331397187,
        331397188,
        331450226,
        331478277,
        331397189,
        331397190,
        331397191,
        331397192,
        331397193,
        331397194,
        331397195,
        331397197,
        331450174,
        331397198,
        331397199,
        331397200,
        331397201,
        331464831,
        331464832,
        331397202,
        331397203,
        331397204,
        331397205,
        331397206,
        331397208,
        331397209,
        331397210,
        331397211,
        331397212,
        331397213,
        331397214,
        331397215,
        331397217,
        331397219,
        331397220,
        331397221,
        331397222,
        331397223,
        331397224,
        331397225,
        331397226,
        331397227,
        331397228,
        331397229,
        331397230,
        331397231,
        331397232,
        331397233,
        331397234,
        331397237,
        331397241,
        331397244,
        331397245,
        331397246,
        331397248,
        331397249,
        331397253,
        331397254,
        331397255,
        331397256,
        331397257,
        331397258,
        331397259,
        331397260,
        331397261,
        331397262,
        331397263,
        331397264,
        331397265,
        331397266,
        331397267,
        331397268,
        331397269,
        331397270,
        331397271,
        331397272,
        331397273,
        331397274,
        331397275,
        331397276,
        331397277,
        331397278,
        331397279,
        331397280,
        331397281,
        331397283,
        331397284,
        331397285,
        331397286,
        331397287,
        331397288,
        331397289,
        331397291,
        331397297,
        331407613,
        331407611,
        331397301,
        331407616,
        331407649,
        331407615,
        331407614,
        331407612,
        331407609,
        331407643,
        331407610,
        331397349,
        331397350,
        331397351,
        331397354,
        331397355,
        331397356,
        331397357,
        331397358,
        331397359,
        331401625,
        331401626,
        331401627,
        331401628,
        331401629,
        331401630,
        331407644,
        331401608,
        331407622,
        331407623,
        331407629,
        331407624,
        331407635,
        331407628,
        331407638,
        331407640,
        331407632,
        331407621,
        331407641,
        331407645,
        331407620,
        331401691,
        331401692,
        331401693,
        331407642,
        331407648,
        331407633,
        331407625,
        331407639,
        331407626,
        331407618,
        331444268,
        331444269,
        331444270,
        331450009,
        331450011,
        331450012,
        331450013,
        331450014,
        331450182,
        331450206,
        331450207,
        331450208,
        331450209,
        331450210,
        331450211,
        331450227,
        331450228,
        331479159,
        331450015,
        331450016,
        331450173,
        331450175,
        331450176,
        331450177,
        331450178,
        331450179,
        331450180,
        331450181,
        331464673,
        331464674,
        331469507,
        331478985,
        331478986,
        331478987,
        331478989,
        331478990,
        331478991,
        331478992,
        331478993,
        331478994,
        331478995,
        331478996,
        331478997,
        331479009,
        331479010,
        331479037,
        331479038,
        331479039,
        331479040,
        331479041,
        331479042,
        331479067,
        331479778
      ]
    }
  ],
  "LPLGOGKHIHB": [
    331397242,
    331397366,
    331397368,
    331397412,
    331397413,
    331397414,
    331397415,
    331397920,
    331397921,
    331397922,
    331397923,
    331468188,
    331468189,
    331479446,
    331397838,
    331397857,
    331397905,
    331397906,
    331397927,
    331397928,
    331397929,
    331401686,
    331401687,
    331401688,
    331401689,
    331401750,
    331447241,
    331447242,
    331447243,
    331447244,
    331447245,
    331447246,
    331447247,
    331447248,
    331447249,
    331447250,
    331447251,
    331469421,
    331478988,
    331397504,
    331397505,
    331397506,
    331397507,
    331397508,
    331397509,
    331397510,
    331397511,
    331397513,
    331397529,
    331397532,
    331397533,
    331397535,
    331397536,
    331407651,
    331397542,
    331397545,
    331397553,
    331397554,
    331397851,
    331397854,
    331401734,
    331401735,
    331401736,
    331403712,
    331403730,
    331403738,
    331450213,
    331456292,
    331468544,
    331468545,
    331479011,
    331479048,
    331397606,
    331397607,
    331397608,
    331397612,
    331397613,
    331403742,
    331403744,
    331403745,
    331403747,
    331403768,
    331407700,
    331407712,
    331434008,
    331434010,
    331434011,
    331434012,
    331434013,
    331434017,
    331434020,
    331434021,
    331434022,
    331434023,
    331434025,
    331434026,
    331434153,
    331450220,
    331450232,
    331397090,
    331397091,
    331397092,
    331397093,
    331397094,
    331397095,
    331397096,
    331397097,
    331397098,
    331397099,
    331397100,
    331397101,
    331397102,
    331397103,
    331397105,
    331397106,
    331397107,
    331397109,
    331397110,
    331397111,
    331397112,
    331397113,
    331397114,
    331397115,
    331397116,
    331397117,
    331397118,
    331397120,
    331397121,
    331397122,
    331397123,
    331397124,
    331397125,
    331397126,
    331397128,
    331397129,
    331397130,
    331397133,
    331397134,
    331397135,
    331397136,
    331397137,
    331397138,
    331397139,
    331397151,
    331397152,
    331397153,
    331397154,
    331397155,
    331397156,
    331397157,
    331397159,
    331397160,
    331397161,
    331397164,
    331397165,
    331397166,
    331397167,
    331397168,
    331397169,
    331397170,
    331397171,
    331397172,
    331397173,
    331397174,
    331397175,
    331397176,
    331397177,
    331397178,
    331397179,
    331397180,
    331397181,
    331397182,
    331397183,
    331397184,
    331397185,
    331397186,
    331397187,
    331397188,
    331450226,
    331478277,
    331397189,
    331397190,
    331397191,
    331397192,
    331397193,
    331397194,
    331397195,
    331397197,
    331450174,
    331397198,
    331397199,
    331397200,
    331397201,
    331464831,
    331464832,
    331397202,
    331397203,
    331397204,
    331397205,
    331397206,
    331397208,
    331397209,
    331397210,
    331397211,
    331397212,
    331397213,
    331397214,
    331397215,
    331397217,
    331397219,
    331397220,
    331397221,
    331397222,
    331397223,
    331397224,
    331397225,
    331397226,
    331397227,
    331397228,
    331397229,
    331397230,
    331397231,
    331397232,
    331397233,
    331397234,
    331397237,
    331397241,
    331397244,
    331397245,
    331397246,
    331397248,
    331397249,
    331397253,
    331397254,
    331397255,
    331397256,
    331397257,
    331397258,
    331397259,
    331397260,
    331397261,
    331397262,
    331397263,
    331397264,
    331397265,
    331397266,
    331397267,
    331397268,
    331397269,
    331397270,
    331397271,
    331397272,
    331397273,
    331397274,
    331397275,
    331397276,
    331397277,
    331397278,
    331397279,
    331397280,
    331397281,
    331397283,
    331397284,
    331397285,
    331397286,
    331397287,
    331397288,
    331397289,
    331397291,
    331397297,
    331407613,
    331407611,
    331397301,
    331407616,
    331407649,
    331407615,
    331407614,
    331407612,
    331407609,
    331407643,
    331407610,
    331397349,
    331397350,
    331397351,
    331397354,
    331397355,
    331397356,
    331397357,
    331397358,
    331397359,
    331401625,
    331401626,
    331401627,
    331401628,
    331401629,
    331401630,
    331407644,
    331401608,
    331407622,
    331407623,
    331407629,
    331407624,
    331407635,
    331407628,
    331407638,
    331407640,
    331407632,
    331407621,
    331407641,
    331407645,
    331407620,
    331401691,
    331401692,
    331401693,
    331407642,
    331407648,
    331407633,
    331407625,
    331407639,
    331407626,
    331407618,
    331444268,
    331444269,
    331444270,
    331450009,
    331450011,
    331450012,
    331450013,
    331450014,
    331450182,
    331450206,
    331450207,
    331450208,
    331450209,
    331450210,
    331450211,
    331450227,
    331450228,
    331479159,
    331450015,
    331450016,
    331450173,
    331450175,
    331450176,
    331450177,
    331450178,
    331450179,
    331450180,
    331450181,
    331464673,
    331464674,
    331469507,
    331478985,
    331478986,
    331478987,
    331478989,
    331478990,
    331478991,
    331478992,
    331478993,
    331478994,
    331478995,
    331478996,
    331478997,
    331479009,
    331479010,
    331479037,
    331479038,
    331479039,
    331479040,
    331479041,
    331479042,
    331479067,
    331479778
  ]
}