{
  "ECDPKIDMLDP": {
    "201478029": 805306368,
    "201499953": 4294967295,
    "201495824": 2147483648,
    "201478205": 117440512,
    "201478279": 1073741824,
    "201495826": 4026531840,
    "201478371": 3758096384,
    "201437914": 4261412864,
    "201468639": 3221225472,
    "201468638": 4160749568,
    "201437922": 2147483648,
    "201468642": 2147483648,
    "201478443": 3221225472,
    "201505611": 4261412864,
    "201476549": 4026531840,
    "201476563": 917566,
    "201476581": 3758096384,
    "201476582": 4027080704,
    "201476585": 4160813056,
    "201476588": 4293984224,
    "201476592": 3221225472,
    "201476780": 4227858432,
    "201476913": 4293984192,
    "201477191": 2147483648,
    "201478813": 2147483648,
    "201495825": 4160774144,
    "201495827": 4160780288,
    "201499756": 4160778240,
    "201499757": 3758096384,
    "201499758": 4160749568,
    "201499764": 4128895,
    "201499897": 4294967295,
    "201499898": 4294967295,
    "201499899": 1073692671,
    "201501768": 2147483648
  },
  "LPLGOGKHIHB": [
    201478029,
    201478031,
    201499953,
    201478115,
    201478151,
    201480318,
    201495824,
    201438060,
    201438069,
    201450346,
    201468645,
    201501769,
    201501770,
    201481931,
    201478205,
    201478279,
    201478282,
    201478283,
    201483571,
    201495826,
    201478206,
    201478280,
    201478281,
    201478355,
    201478356,
    201478362,
    201478370,
    201478371,
    201478372,
    201478674,
    201483573,
    201505162,
    201506188,
    201437914,
    201468639,
    201468640,
    201438057,
    201438066,
    201468638,
    201437922,
    201468641,
    201468642,
    201438058,
    201438061,
    201438062,
    201438067,
    201438070,
    201501781,
    201501782,
    201478429,
    201480573,
    201478443,
    201478458,
    201480025,
    201498441,
    201505611,
    201478505,
    201505163,
    201476549,
    201476550,
    201476555,
    201476556,
    201476557,
    201476558,
    201476559,
    201476560,
    201476561,
    201476562,
    201476563,
    201476564,
    201476565,
    201476566,
    201476567,
    201476568,
    201476569,
    201476570,
    201476571,
    201476572,
    201476579,
    201476580,
    201476581,
    201476582,
    201476584,
    201476585,
    201476588,
    201476591,
    201476592,
    201476593,
    201476594,
    201476595,
    201476596,
    201476605,
    201476606,
    201476607,
    201476608,
    201476741,
    201476780,
    201476797,
    201476811,
    201476812,
    201476857,
    201476858,
    201476859,
    201476879,
    201476880,
    201476888,
    201476889,
    201476899,
    201476901,
    201476904,
    201476905,
    201476912,
    201476913,
    201476916,
    201476917,
    201476918,
    201477187,
    201477188,
    201477191,
    201477192,
    201477197,
    201477198,
    201477243,
    201478813,
    201479905,
    201479906,
    201495447,
    201495825,
    201495827,
    201497438,
    201499755,
    201499756,
    201499757,
    201499758,
    201499764,
    201499887,
    201499888,
    201499896,
    201499897,
    201499898,
    201499899,
    201499900,
    201501768,
    201501889,
    201505610,
    201507042
  ]
}