{
  "ECDPKIDMLDP": {
    "335554996": 4294967295,
    "335601704": 4294836111,
    "335555201": 4294967295,
    "335555202": 4294967295,
    "335555208": 4294967295,
    "335555214": 4294967295,
    "335555219": 4294967295,
    "335642968": 4294967295,
    "335655789": 4294967295,
    "335655790": 4294967295,
    "335655791": 4294967295,
    "335655792": 4294967295,
    "335555267": 4294967295,
    "335555269": 4294967295,
    "335555270": 4294967295,
    "335555271": 4294967295,
    "335555281": 4294967295,
    "335655793": 4294967295,
    "335655797": 4294967295,
    "335655798": 4294967295,
    "335655794": 4294967295,
    "335655795": 4294967295,
    "335655796": 4294967295,
    "335555494": 4294967295,
    "335555500": 4294967295,
    "335642957": 4294967263,
    "335675044": 3757600775,
    "335654738": 4294967295,
    "335654728": 4294967295,
    "335654729": 4294967295,
    "335654730": 4294967295,
    "335654731": 4294967295,
    "335654732": 4294967295,
    "335654733": 4294967295,
    "335654734": 4294967295,
    "335654735": 4294967295,
    "335654736": 4294967295,
    "335654737": 4294967295,
    "335654725": 4294967295,
    "335654726": 4294967295,
    "335654727": 4294967295,
    "335652725": 4294967295,
    "335655799": 4294967295
  },
  "HEAADHALHCB": [
    {
      "DABAINGKGCN": "Tag_2",
      "KFJPNPEIAGA": [
        335554996,
        335601704,
        335555201,
        335555202,
        335555208,
        335555214,
        335555219,
        335642968,
        335655789,
        335655790,
        335655791,
        335655792,
        335555267,
        335555269,
        335555270,
        335555271,
        335555281,
        335655793,
        335655797,
        335655798,
        335655794,
        335655795,
        335655796,
        335555494,
        335555500,
        335557419,
        335562164,
        335642957,
        335675044,
        335654738,
        335654728,
        335654729,
        335654730,
        335654731,
        335654732,
        335654733,
        335654734,
        335654735,
        335654736,
        335654737,
        335654725,
        335654726,
        335654727,
        335652725,
        335655799,
        335655800,
        335655801,
        335655831,
        335655832,
        335655833,
        335655834,
        335655835,
        335655836,
        335655837,
        335655838,
        335655839
      ]
    }
  ]
}