{
  "ECDPKIDMLDP": {
    "339819593": 4026556478,
    "339819717": 3221225472,
    "339844246": 33489918,
    "339819456": 4294967282,
    "339819600": 66977919,
    "339819605": 16646271,
    "339819503": 4294967264,
    "339862548": 2147483647,
    "339863132": 4160780288,
    "339819737": 4228021248,
    "339833498": 268173312,
    "339833487": 4227858432,
    "339826718": 1966111,
    "339838898": 133959664,
    "339863133": 4227858432,
    "339863134": 66978040,
    "339825477": 4294443008,
    "339819535": 4293918720,
    "339819755": 4294967295,
    "339819756": 3221274624,
    "339819543": 4278190080,
    "339825442": 4293918720,
    "339825443": 4294836224,
    "339825875": 268304384,
    "339825876": 1040187392,
    "339827231": 2147483647,
    "339863143": 4294967294,
    "339873994": 4261412864,
    "339862565": 134086656,
    "339825881": 15728640,
    "339825885": 469777408,
    "339827643": 15728640,
    "339825874": 4261412864,
    "339826840": 2147483647,
    "339827463": 2147221504,
    "339825454": 2147221504,
    "339825557": 2147483647,
    "339826330": 393223,
    "339826842": 2147450879,
    "339874829": 4227858432
  },
  "HEAADHALHCB": [
    {
      "DABAINGKGCN": "Tag_2",
      "KFJPNPEIAGA": [
        339819448,
        339819451,
        339819459,
        339819470,
        339819572,
        339819583,
        339819591,
        339819593,
        339819514,
        339819515,
        339819516,
        339819517,
        339819518,
        339819520,
        339819528,
        339819530,
        339819531,
        339819703,
        339819717,
        339819718,
        339819719,
        339819726,
        339825484,
        339825526,
        339825836,
        339827379,
        339827380,
        339825553,
        339844246,
        339862549,
        339819455,
        339819456,
        339819457,
        339819600,
        339819605,
        339819463,
        339819465,
        339819466,
        339819468,
        339819469,
        339819612,
        339819473,
        339819474,
        339819475,
        339819477,
        339819478,
        339819483,
        339819484,
        339819485,
        339819486,
        339819487,
        339819626,
        339819629,
        339819490,
        339819491,
        339819492,
        339819493,
        339819494,
        339819500,
        339819501,
        339819503,
        339819504,
        339819649,
        339819661,
        339819678,
        339819679,
        339828351,
        339828357,
        339828358,
        339862341,
        339862547,
        339862548,
        339862563,
        339862564,
        339862588,
        339862589,
        339863096,
        339863132,
        339826317,
        339863145,
        339873905,
        339873906,
        339873907,
        339873908,
        339873909,
        339819737,
        339825805,
        339843243,
        339833465,
        339833466,
        339833498,
        339833480,
        339833486,
        339833487,
        339833488,
        339833489,
        339833490,
        339833499,
        339858848,
        339862807,
        339866819,
        339866820,
        339819569,
        339838892,
        339843244,
        339843245,
        339843251,
        339823255,
        339825124,
        339826718,
        339834814,
        339838895,
        339838898,
        339838899,
        339862092,
        339862929,
        339863133,
        339863134,
        339863142,
        339825477,
        339825525,
        339819534,
        339819535,
        339819537,
        339823264,
        339825444,
        339825479,
        339862925,
        339863140,
        339819538,
        339819755,
        339819756,
        339827232,
        339819543,
        339825442,
        339825443,
        339825875,
        339825876,
        339825877,
        339827231,
        339862930,
        339863143,
        339873994,
        339819548,
        339819551,
        339823318,
        339825480,
        339825630,
        339826006,
        339826336,
        339825880,
        339863144,
        339825583,
        339862565,
        339873712,
        339873713,
        339819762,
        339820562,
        339825881,
        339825885,
        339827643,
        339841130,
        339841131,
        339825447,
        339825874,
        339826324,
        339826840,
        339827463,
        339862926,
        339823314,
        339825397,
        339819782,
        339819785,
        339819786,
        339819787,
        339819789,
        339825377,
        339825404,
        339825406,
        339825407,
        339825453,
        339825454,
        339825485,
        339825556,
        339825557,
        339825841,
        339826330,
        339826842,
        339827385,
        339838903,
        339874829,
        339859565,
        339859564,
        339859563,
        339859562,
        339859561,
        339859560,
        339859559,
        339859551,
        339859550,
        339859565,
        339859564,
        339859563,
        339859562,
        339859561,
        339859560,
        339859559,
        339859551,
        339859550,
        339859558,
        339859557,
        339859556,
        339859555,
        339859554,
        339859553,
        339859552,
        339859547,
        339859544,
        339868356
      ]
    }
  ],
  "LPLGOGKHIHB": [
    339819448,
    339819451,
    339819459,
    339819470,
    339819572,
    339819583,
    339819591,
    339819593,
    339819514,
    339819515,
    339819516,
    339819517,
    339819518,
    339819520,
    339819528,
    339819530,
    339819531,
    339819703,
    339819717,
    339819718,
    339819719,
    339819726,
    339825484,
    339825526,
    339825836,
    339827379,
    339827380,
    339825553,
    339844246,
    339862549,
    339819455,
    339819456,
    339819457,
    339819600,
    339819605,
    339819463,
    339819465,
    339819466,
    339819468,
    339819469,
    339819612,
    339819473,
    339819474,
    339819475,
    339819477,
    339819478,
    339819483,
    339819484,
    339819485,
    339819486,
    339819487,
    339819626,
    339819629,
    339819490,
    339819491,
    339819492,
    339819493,
    339819494,
    339819500,
    339819501,
    339819503,
    339819504,
    339819649,
    339819661,
    339819678,
    339819679,
    339828351,
    339828357,
    339828358,
    339862341,
    339862547,
    339862548,
    339862563,
    339862564,
    339862588,
    339862589,
    339863096,
    339863132,
    339826317,
    339863145,
    339873905,
    339873906,
    339873907,
    339873908,
    339873909,
    339819737,
    339825805,
    339843243,
    339833465,
    339833466,
    339833498,
    339833480,
    339833486,
    339833487,
    339833488,
    339833489,
    339833490,
    339833499,
    339858848,
    339862807,
    339866819,
    339866820,
    339819569,
    339838892,
    339843244,
    339843245,
    339843251,
    339823255,
    339825124,
    339826718,
    339834814,
    339838895,
    339838898,
    339838899,
    339862092,
    339862929,
    339863133,
    339863134,
    339863142,
    339825477,
    339825525,
    339819534,
    339819535,
    339819537,
    339823264,
    339825444,
    339825479,
    339862925,
    339863140,
    339819538,
    339819755,
    339819756,
    339827232,
    339819543,
    339825442,
    339825443,
    339825875,
    339825876,
    339825877,
    339827231,
    339862930,
    339863143,
    339873994,
    339819548,
    339819551,
    339823318,
    339825480,
    339825630,
    339826006,
    339826336,
    339825880,
    339863144,
    339825583,
    339862565,
    339873712,
    339873713,
    339819762,
    339820562,
    339825881,
    339825885,
    339827643,
    339841130,
    339841131,
    339825447,
    339825874,
    339826324,
    339826840,
    339827463,
    339862926,
    339823314,
    339825397,
    339819782,
    339819785,
    339819786,
    339819787,
    339819789,
    339825377,
    339825404,
    339825406,
    339825407,
    339825453,
    339825454,
    339825485,
    339825556,
    339825557,
    339825841,
    339826330,
    339826842,
    339827385,
    339838903,
    339874829,
    339859565,
    339859564,
    339859563,
    339859562,
    339859561,
    339859560,
    339859559,
    339859551,
    339859550,
    339859558,
    339859557,
    339859556,
    339859555,
    339859554,
    339859553,
    339859552,
    339859547,
    339859544,
    339868356
  ]
}