{
  "ECDPKIDMLDP": {
    "209757327": 4294967295,
    "209760557": 4294967295,
    "209760858": 4294967295,
    "209760899": 4294967295,
    "209787728": 4286709759,
    "209799724": 4294967295,
    "209799725": 4294443008,
    "209760860": 4294967295,
    "209760861": 4294967295,
    "209760862": 4294967295,
    "209760863": 4294967295,
    "209760864": 4294967295,
    "209757329": 4294967295,
    "209757330": 4294967295,
    "209757331": 4294967295,
    "209763380": 4294770687,
    "209763471": 4294901760,
    "209757332": 4294967295,
    "209757333": 4294967295,
    "209757334": 4294967295,
    "209757335": 4294967295,
    "209760866": 4294967295,
    "209763365": 4227858431,
    "209763373": 4269801471,
    "209763377": 4294705151,
    "209763469": 3221159936,
    "209788553": 4294967295,
    "209788554": 4294967295,
    "209788556": 4294967295,
    "209788558": 4294967295,
    "209788559": 4160749568,
    "209788560": 2684289024,
    "209788561": 4294967295,
    "209788562": 1073709055,
    "209748245": 4294967295,
    "209748246": 4294967295,
    "209748247": 4294967295,
    "209748248": 4294967295,
    "209748249": 4294967295,
    "209748250": 4294967295,
    "209763366": 4294967295,
    "209763368": 4294967295,
    "209763379": 4294443008,
    "209763427": 4286578223,
    "209761237": 3758096384,
    "209763428": 2147483648,
    "209757730": 4294967295,
    "209757742": 4294967295,
    "209761029": 4294967295,
    "209761239": 4160749568,
    "209763386": 4294967295,
    "209763426": 4294967295,
    "209763472": 536805376,
    "209763538": 2147483648,
    "209761242": 2147483648,
    "209761028": 2281639935,
    "209761030": 4294967295,
    "209763383": 4128895,
    "209763384": 4294967295,
    "209760849": 2147483648,
    "209757661": 3254718463,
    "209761033": 4294967295,
    "209763382": 67043839,
    "209763387": 4294967295,
    "209763389": 3355385855,
    "209757743": 4280287231,
    "209761031": 4294967295,
    "209761032": 4294967295,
    "209763385": 4294967295,
    "209781244": 4294967295,
    "209782312": 4227858432,
    "209786659": 3221225472,
    "209720479": 104796159,
    "209721672": 4063295,
    "209728210": 2147483648,
    "209721700": 1,
    "209757727": 393223,
    "209799259": 8257663,
    "209775215": 2147483647,
    "209775216": 2415853568,
    "209775217": 4294967295,
    "209793867": 3221225472,
    "209786231": 4294967295,
    "209786232": 2147483648,
    "209786237": 536805376,
    "209739628": 4026531840,
    "209757744": 2080374784,
    "209763535": 4294967295,
    "209798957": 4294967295
  },
  "HEAADHALHCB": [
    {
      "DABAINGKGCN": "Tag_2",
      "KFJPNPEIAGA": [
        209801264,
        209801479,
        209801480,
        209801481,
        209801482,
        209801483,
        209757327,
        209760557,
        209760858,
        209760899,
        209787728,
        209799724,
        209799725,
        209760860,
        209760861,
        209760862,
        209760863,
        209760864,
        209757329,
        209757330,
        209757331,
        209763380,
        209763471,
        209757332,
        209757333,
        209757334,
        209757335,
        209760866,
        209763365,
        209763373,
        209763377,
        209763468,
        209763469,
        209788553,
        209788554,
        209788556,
        209788558,
        209788559,
        209788560,
        209788561,
        209788562,
        209748245,
        209748246,
        209748247,
        209748248,
        209748249,
        209748250,
        209763366,
        209763368,
        209763379,
        209763427,
        209757650,
        209757653,
        209757672,
        209761236,
        209761237,
        209763388,
        209763428,
        209757729,
        209757730,
        209757737,
        209757742,
        209760598,
        209761029,
        209761239,
        209763386,
        209763426,
        209763429,
        209763472,
        209763538,
        209763751,
        209799703,
        209757649,
        209757731,
        209761241,
        209761242,
        209761243,
        209763597,
        209761028,
        209761030,
        209763383,
        209763384,
        209757656,
        209760849,
        209757657,
        209757658,
        209757659,
        209757660,
        209757661,
        209757662,
        209757665,
        209757666,
        209761033,
        209762155,
        209763382,
        209763387,
        209763389,
        209763884,
        209757663,
        209757664,
        209757743,
        209761031,
        209761032,
        209761244,
        209763385,
        209800006,
        209757736,
        209757740,
        209721761,
        209721762,
        209739580,
        209739581,
        209744643,
        209744756,
        209744757,
        209744965,
        209763308,
        209757720,
        209781244,
        209782312,
        209721656,
        209747028,
        209747029,
        209747031,
        209747033,
        209747035,
        209747036,
        209786659,
        209720479,
        209721657,
        209721672,
        209721681,
        209726734,
        209728099,
        209728203,
        209728204,
        209728205,
        209728207,
        209728210,
        209728212,
        209728213,
        209728214,
        209728216,
        209728219,
        209741039,
        209741041,
        209741043,
        209747385,
        209747386,
        209747387,
        209721700,
        209721701,
        209721702,
        209741011,
        209741012,
        209741013,
        209799552,
        209729230,
        209729231,
        209721658,
        209721720,
        209733674,
        209800179,
        209800180,
        209800182,
        209800183,
        209800184,
        209800185,
        209757727,
        209801484,
        209721704,
        209721705,
        209729055,
        209760592,
        209721684,
        209721686,
        209721708,
        209721709,
        209721710,
        209721747,
        209721748,
        209726735,
        209729054,
        209739636,
        209739637,
        209741015,
        209741018,
        209741042,
        209747506,
        209747507,
        209799259,
        209799260,
        209799261,
        209800004,
        209800007,
        209757606,
        209757614,
        209800008,
        209800009,
        209763878,
        209763883,
        209757611,
        209757612,
        209775209,
        209775210,
        209775211,
        209800016,
        209800017,
        209775213,
        209775214,
        209775215,
        209775216,
        209775217,
        209793867,
        209800018,
        209757632,
        209757739,
        209763880,
        209786271,
        209786276,
        209786279,
        209786218,
        209786219,
        209786222,
        209786225,
        209786226,
        209786229,
        209786230,
        209786231,
        209786232,
        209786233,
        209786234,
        209786235,
        209786236,
        209786237,
        209786238,
        209760636,
        209743544,
        209743558,
        209760793,
        209763876,
        209739543,
        209739627,
        209739628,
        209757744,
        209739551,
        209739626,
        209739629,
        209757733,
        209757734,
        209763535,
        209798957,
        209758895
      ]
    }
  ],
  "LPLGOGKHIHB": [
    209801264,
    209801479,
    209801480,
    209801481,
    209801482,
    209801483,
    209757327,
    209760557,
    209760858,
    209760899,
    209787728,
    209799724,
    209799725,
    209760860,
    209760861,
    209760862,
    209760863,
    209760864,
    209757329,
    209757330,
    209757331,
    209763380,
    209763471,
    209757332,
    209757333,
    209757334,
    209757335,
    209760866,
    209763365,
    209763373,
    209763377,
    209763468,
    209763469,
    209788553,
    209788554,
    209788556,
    209788558,
    209788559,
    209788560,
    209788561,
    209788562,
    209748245,
    209748246,
    209748247,
    209748248,
    209748249,
    209748250,
    209763366,
    209763368,
    209763379,
    209763427,
    209757650,
    209757653,
    209757672,
    209761236,
    209761237,
    209763388,
    209763428,
    209757729,
    209757730,
    209757737,
    209757742,
    209760598,
    209761029,
    209761239,
    209763386,
    209763426,
    209763429,
    209763472,
    209763538,
    209763751,
    209799703,
    209757649,
    209757731,
    209761241,
    209761242,
    209761243,
    209763597,
    209761028,
    209761030,
    209763383,
    209763384,
    209757656,
    209760849,
    209757657,
    209757658,
    209757659,
    209757660,
    209757661,
    209757662,
    209757665,
    209757666,
    209761033,
    209762155,
    209763382,
    209763387,
    209763389,
    209763884,
    209757663,
    209757664,
    209757743,
    209761031,
    209761032,
    209761244,
    209763385,
    209800006,
    209757736,
    209757740,
    209721761,
    209721762,
    209739580,
    209739581,
    209744643,
    209744756,
    209744757,
    209744965,
    209763308,
    209757720,
    209781244,
    209782312,
    209721656,
    209747028,
    209747029,
    209747031,
    209747033,
    209747035,
    209747036,
    209786659,
    209720479,
    209721657,
    209721672,
    209721681,
    209726734,
    209728099,
    209728203,
    209728204,
    209728205,
    209728207,
    209728210,
    209728212,
    209728213,
    209728214,
    209728216,
    209728219,
    209741039,
    209741041,
    209741043,
    209747385,
    209747386,
    209747387,
    209721700,
    209721701,
    209721702,
    209741011,
    209741012,
    209741013,
    209799552,
    209729230,
    209729231,
    209721658,
    209721720,
    209733674,
    209800179,
    209800180,
    209800182,
    209800183,
    209800184,
    209800185,
    209757727,
    209801484,
    209721704,
    209721705,
    209729055,
    209760592,
    209721684,
    209721686,
    209721708,
    209721709,
    209721710,
    209721747,
    209721748,
    209726735,
    209729054,
    209739636,
    209739637,
    209741015,
    209741018,
    209741042,
    209747506,
    209747507,
    209799259,
    209799260,
    209799261,
    209800004,
    209800007,
    209757606,
    209757614,
    209800008,
    209800009,
    209763878,
    209763883,
    209757611,
    209757612,
    209775209,
    209775210,
    209775211,
    209800016,
    209800017,
    209775213,
    209775214,
    209775215,
    209775216,
    209775217,
    209793867,
    209800018,
    209757632,
    209757739,
    209763880,
    209786271,
    209786276,
    209786279,
    209786218,
    209786219,
    209786222,
    209786225,
    209786226,
    209786229,
    209786230,
    209786231,
    209786232,
    209786233,
    209786234,
    209786235,
    209786236,
    209786237,
    209786238,
    209760636,
    209743544,
    209743558,
    209760793,
    209763876,
    209739543,
    209739627,
    209739628,
    209757744,
    209739551,
    209739626,
    209739629,
    209757733,
    209757734,
    209763535,
    209798957,
    209758895
  ]
}