{
  "HEAADHALHCB": [
    {
      "KFJPNPEIAGA": [
        201488353,
        201488352,
        201488351,
        201488350,
        201488349,
        201488348,
        201494256,
        201494254,
        201494252,
        201494251,
        201488393,
        201488392,
        201488391,
        201488390,
        201488389,
        201488388,
        201498541,
        201498540,
        201488383,
        201488382,
        201488381,
        201488380,
        201488379,
        201488378,
        201488377,
        201488376,
        201488375,
        201488374,
        201488373,
        201488372,
        201488371,
        201488370,
        201488369,
        201488368,
        201488367,
        201488366,
        201488365,
        201488364,
        201488363,
        201488362,
        201488361,
        201488360,
        201488359,
        201488358,
        201488357,
        201488356,
        201488355,
        201488354,
        201494307,
        201494306,
        201494305,
        201488347,
        201488346,
        201488345,
        201488344,
        201488343,
        201488342,
        201488341,
        201488340,
        201488339,
        201488338,
        201488334,
        201488333,
        201488332,
        201488331,
        201488330,
        201488329,
        201488328,
        201488327,
        201488326,
        201488325,
        201488324,
        201488323,
        201488322,
        201488321,
        201488320,
        201488319,
        201488318,
        201488317,
        201488316,
        201488315,
        201488314,
        201488313,
        201488312,
        201488311,
        201488310,
        201488309,
        201488308,
        201488307,
        201488306,
        201488305,
        201488304,
        201488303,
        201488302,
        201488301,
        201488300,
        201488299,
        201488298,
        201488297,
        201488296,
        201488295,
        201488294,
        201488293,
        201488291,
        201488290,
        201488289,
        201488288,
        201488287,
        201488286,
        201488285,
        201488284,
        201502593,
        201502592,
        201502591,
        201502590,
        201488394,
        201510128,
        201510127,
        201510126,
        201510125,
        201510124,
        201510123,
        201510122,
        201510121,
        201510120,
        201488487,
        201488486,
        201488485,
        201488484,
        201488483,
        201488482,
        201488481,
        201488480,
        201488479,
        201488478,
        201488477,
        201488476,
        201488475,
        201488474,
        201488473,
        201488472,
        201488471,
        201488470,
        201488469,
        201488468,
        201488467,
        201488466,
        201488465,
        201488464,
        201488463,
        201488462,
        201488461,
        201488460,
        201488459,
        201488458,
        201488457,
        201488456,
        201488455,
        201488454,
        201488453,
        201488452,
        201488451,
        201488450,
        201488449,
        201488448,
        201488447,
        201488446,
        201488445,
        201488444,
        201488443,
        201488442,
        201488441,
        201488440,
        201488439,
        201488438,
        201488437,
        201488436,
        201488435,
        201488434,
        201488433,
        201488432,
        201488431,
        201488430,
        201488429,
        201488428,
        201488427,
        201488426,
        201488425,
        201488424,
        201488423,
        201488422,
        201488421,
        201488420,
        201488419,
        201488418,
        201488417,
        201488416,
        201488415,
        201488414,
        201488413,
        201488412,
        201488411,
        201488410,
        201488409,
        201488408,
        201488407,
        201488406,
        201488405,
        201498539,
        201498538,
        201488395,
        201472541,
        201472540,
        201470224,
        201464314,
        201464313,
        201464311
      ]
    }
  ]
}