{
  "MGAAIBDNAPG": {
    "327176452": [
      17785816963131773024,
      17950142948763328541,
      3463865849864122987,
      3254706482955465861
    ],
    "327170182": [
      15834370612716898774,
      6284908484867583719,
      3463865849864122987
    ],
    "327170204": [
      15834370612716898774
    ],
    "327175603": [
      15834370612716898774,
      6284908484867583719,
      3463865849864122987,
      3254706482955465861
    ],
    "327188829": [
      6284908484867583719,
      3254706482955465861
    ],
    "327170202": [
      15316907843655878477,
      17785816963131773024,
      3463865849864122987
    ],
    "327176488": [
      15316907843655878477,
      17785816963131773024,
      3463865849864122987
    ],
    "327188827": [
      15834370612716898774,
      6284908484867583719,
      3254706482955465861
    ],
    "327188830": [
      17950142948763328541,
      3463865849864122987,
      3254706482955465861
    ],
    "327188840": [
      17950142948763328541,
      3463865849864122987,
      3254706482955465861
    ],
    "327170284": [
      15834370612716898774
    ],
    "327170285": [
      15316907843655878477,
      6284908484867583719,
      3463865849864122987
    ],
    "327177757": [
      15316907843655878477,
      15834370612716898774,
      6284908484867583719,
      3463865849864122987
    ],
    "327177755": [
      15316907843655878477,
      15834370612716898774,
      6284908484867583719
    ],
    "327177758": [
      15316907843655878477,
      15834370612716898774,
      6284908484867583719,
      3254706482955465861
    ],
    "327188831": [
      6284908484867583719,
      3463865849864122987,
      3254706482955465861
    ],
    "327188839": [
      97403504502445897,
      1589906119412310624,
      17950142948763328541,
      3254706482955465861
    ],
    "327188841": [
      97403504502445897,
      17950142948763328541,
      3254706482955465861
    ],
    "327188842": [
      97403504502445897,
      1589906119412310624
    ],
    "327193002": [
      6284908484867583719,
      3463865849864122987,
      3254706482955465861
    ]
  }
}