{
  "ECDPKIDMLDP": {
    "92388916": 4294443008,
    "92388925": 1,
    "92388928": 2147483648,
    "92389076": 1072693248,
    "92389155": 1744761087,
    "92389156": 4294967168,
    "92389164": 2147483648,
    "92389165": 2147188735,
    "92389166": 3221225344,
    "92389297": 1611005952,
    "92389298": 4294866944,
    "92389301": 1073479680,
    "92389313": 3758096384,
    "92389322": 2147483648,
    "92389327": 2147483648,
    "92389328": 2147483648,
    "92389329": 2147483648,
    "92389330": 3220701184,
    "92389331": 2147483648,
    "92389332": 4161011712,
    "92389334": 2147483648,
    "92389335": 2147483648,
    "92389336": 2147483648,
    "92389338": 2147483648,
    "92389345": 2147483648,
    "92389346": 2147483648,
    "92389347": 2147483648,
    "92389348": 2147483648,
    "92389349": 2147483648,
    "92389350": 4294770686,
    "92389360": 4294934528,
    "92389361": 1073741824,
    "92389364": 2147450879,
    "92389365": 2147450879,
    "92389420": 4294967168,
    "92389422": 2684354560,
    "92389434": 2147483648,
    "92389437": 3758096384,
    "92389481": 4294967168,
    "92389517": 4260626432,
    "92389520": 4294934527,
    "92389521": 4294967168,
    "92389563": 4293918720,
    "92389564": 4293918720,
    "92389597": 3220701184,
    "92389598": 3220701184,
    "92389605": 4026531840,
    "92389606": 2147483648,
    "92389617": 2147483648,
    "92389618": 3758096384,
    "92389619": 3221225472,
    "92389621": 2147483648,
    "92389622": 4026531840,
    "92389623": 2147483648,
    "92389624": 2147483648,
    "92389625": 3287810048,
    "92389626": 2147483648,
    "92389627": 2147483648,
    "92389628": 2147483648,
    "92389629": 2147483648,
    "92389630": 4261412864,
    "92389631": 4294443008,
    "92389639": 2147483648,
    "92389640": 4294705152,
    "92389641": 2147483648,
    "92389642": 4261412864,
    "92389643": 4294770672,
    "92389644": 4294705152,
    "92389645": 4294901743,
    "92389677": 2147450879,
    "92389678": 4294967295,
    "92389681": 2147418112,
    "92389691": 4294965247,
    "92389701": 2147352576,
    "92389702": 4294967264,
    "92389715": 2147381760,
    "92389717": 2147483648,
    "92389768": 4294770627,
    "92389796": 4026531840,
    "92389798": 3221217279,
    "92389802": 3221200640,
    "92389803": 2147483648,
    "92389804": 2147384835,
    "92389826": 2147483520,
    "92389829": 2415394816,
    "92389858": 2147483648,
    "92389863": 4294934303,
    "92389866": 2147450879,
    "92389874": 1072693248,
    "92389893": 2147483648,
    "92389901": 2684354560,
    "92389906": 2147483648,
    "92389909": 4294705152,
    "92389913": 872136703,
    "92389914": 4294967103,
    "92389916": 1073610752,
    "92389920": 2147384832,
    "92389928": 4293918720,
    "92389946": 2147450879,
    "92389962": 2147483648,
    "92390020": 268173312,
    "92390022": 2147483648,
    "92390025": 2147483648,
    "92390026": 2147483648,
    "92390042": 268435456,
    "92390044": 2147483648,
    "92390061": 939524096,
    "92390082": 250609664,
    "92390085": 536346624,
    "92390088": 536215552,
    "92390089": 2147483648,
    "92390108": 503317508,
    "92392130": 1073479680,
    "92392131": 2147449870,
    "92392133": 131086,
    "92392138": 2147483648,
    "92392145": 1040187392,
    "92392150": 1,
    "92392154": 1073218560,
    "92392173": 2147500032,
    "92392189": 2147483648,
    "92392193": 1072711680,
    "92392197": 2147483648,
    "92392198": 2147483648,
    "92392199": 2147648448,
    "92392205": 131103,
    "92392212": 16384,
    "92392225": 2147483648,
    "92392230": 2146533251,
    "92392231": 4043046912,
    "92392239": 2147483648,
    "92392240": 4294967233,
    "92392242": 3354918912,
    "92392249": 2147483648,
    "92392257": 2147483648,
    "92392264": 2147483648,
    "92392271": 2147486720,
    "92392275": 28672,
    "92392279": 1073682312,
    "92394761": 4294967295,
    "92394762": 2146435072,
    "92394763": 2952790016,
    "92394765": 3758127104,
    "92394774": 1072693248,
    "92394775": 4294836224,
    "92394778": 4294443008,
    "92394788": 2147483648,
    "92394806": 4294836224,
    "92394807": 4294836224,
    "92394808": 4294836224,
    "92394809": 2147221504,
    "92394818": 3120300032,
    "92394843": 4294443008,
    "92394848": 4160780288,
    "92394862": 4159700992,
    "92394868": 3221225472,
    "92394931": 2147483648,
    "92394932": 2147483648,
    "92394971": 4026531840,
    "92394972": 4026531840,
    "92394973": 4026531840,
    "92394974": 2147483648,
    "92394975": 4294901752,
    "92394976": 4294705152,
    "92394977": 4294967295,
    "92394995": 2147483648,
    "92394997": 2147483647,
    "92395008": 2147434495,
    "92395015": 4294918095,
    "92395022": 4294967295,
    "92395023": 4294963200,
    "92395030": 1073680383,
    "92395044": 1073319935,
    "92395046": 4294967295,
    "92395071": 2147483648,
    "92395072": 2147483648,
    "92395074": 2147483648,
    "92395075": 3758096384,
    "92395076": 2147483648,
    "92395078": 2147483647,
    "92395137": 1073217536,
    "92395139": 2146959360,
    "92395140": 2147483648,
    "92395150": 2147483648,
    "92395151": 2147483648,
    "92395153": 2147483648,
    "92395258": 2147221504,
    "92395261": 4093378560,
    "92395262": 2080800366,
    "92395266": 2147483648,
    "92395268": 2147221504,
    "92395388": 1610612736,
    "92395389": 2146959360,
    "92395390": 2147090432,
    "92395449": 2147483648,
    "92395488": 267911168,
    "92395518": 1073610753,
    "92395519": 33423360,
    "92395520": 2147483648,
    "92395538": 2147483648,
    "92395548": 671024127,
    "92395550": 1610641409,
    "92395669": 1007026176,
    "92395961": 2147434438,
    "92395964": 2147483646,
    "92395965": 4294934400,
    "92395968": 1056964608,
    "92395969": 2147352576,
    "92395975": 4294967295,
    "92396005": 2147483648,
    "92396022": 3489588222,
    "92396023": 3221225472,
    "92396062": 1073627134,
    "92396087": 1073741815,
    "92396088": 2147384832,
    "92396089": 2147483648,
    "92396090": 2147483648,
    "92396092": 268370943,
    "92396147": 262144,
    "92396157": 4160749568,
    "92396196": 2147483648,
    "92396198": 4294443008,
    "92396208": 2147483648,
    "92396262": 2147483648,
    "92396281": 2181038080,
    "92396288": 4294443008,
    "92396289": 2146435072,
    "92396290": 262144,
    "92396292": 201326592,
    "92396307": 671023104,
    "92396312": 2147430911,
    "92396313": 1073680383,
    "92396315": 536805376,
    "92396322": 1073676288,
    "92396346": 2147483648,
    "92396451": 2130706432,
    "92396453": 2146959360,
    "92396470": 1073217536,
    "92396476": 67108864,
    "92396722": 3221225472,
    "92396741": 2147483648,
    "92397313": 536346624,
    "92397362": 2147483648,
    "92397363": 4294901756,
    "92397364": 4294443008,
    "92397370": 2147450879,
    "92397371": 4294443008,
    "92397377": 536805376,
    "92397379": 268304415,
    "92397395": 2147483648,
    "92398421": 4160749568,
    "92398428": 2146435072,
    "92398489": 4160749568,
    "92398535": 3758258176,
    "92398536": 2013429279,
    "92398540": 536809423,
    "92399047": 2147483648,
    "92399103": 16384,
    "92399133": 131100,
    "92399143": 1073250240,
    "92399209": 134218015,
    "92402361": 2147483648,
    "92402675": 4026531840,
    "92402676": 2147483648,
    "92402677": 4294443008,
    "92402678": 4294443008,
    "92402686": 2147483648,
    "92402702": 3220963328,
    "92403408": 2415394816,
    "92411828": 4261412864
  },
  "GNBJIBLFFPL": [
    {
      "KALFIOFHKOP": 1714911903,
      "MDAAJMCJKBP": 6
    },
    {
      "KALFIOFHKOP": 1714911903,
      "MDAAJMCJKBP": 6
    },
    {
      "KALFIOFHKOP": 1714911903,
      "MDAAJMCJKBP": 6
    },
    {
      "KALFIOFHKOP": 1714911903,
      "MDAAJMCJKBP": 6
    },
    {
      "KALFIOFHKOP": 1714911903,
      "MDAAJMCJKBP": 6
    },
    {
      "KALFIOFHKOP": 1714911903,
      "MDAAJMCJKBP": 6
    },
    {
      "KALFIOFHKOP": 1714911903,
      "MDAAJMCJKBP": 6
    },
    {
      "KALFIOFHKOP": 1714911903,
      "MDAAJMCJKBP": 6
    },
    {
      "KALFIOFHKOP": 1714911903,
      "MDAAJMCJKBP": 6
    },
    {
      "KALFIOFHKOP": 1714911903,
      "MDAAJMCJKBP": 6
    },
    {
      "KALFIOFHKOP": 1714911903,
      "MDAAJMCJKBP": 6
    },
    {
      "KALFIOFHKOP": 1714911903,
      "MDAAJMCJKBP": 6
    },
    {
      "KALFIOFHKOP": 1714911903,
      "MDAAJMCJKBP": 6
    },
    {
      "KALFIOFHKOP": 1714911903,
      "MDAAJMCJKBP": 6
    },
    {
      "KALFIOFHKOP": 1714911903,
      "MDAAJMCJKBP": 6
    },
    {
      "KALFIOFHKOP": 1714911903,
      "MDAAJMCJKBP": 6
    },
    {
      "KALFIOFHKOP": 1714911903,
      "MDAAJMCJKBP": 6
    },
    {
      "KALFIOFHKOP": 1714911903,
      "MDAAJMCJKBP": 6
    },
    {
      "KALFIOFHKOP": 1714911903,
      "MDAAJMCJKBP": 6
    },
    {
      "KALFIOFHKOP": 1714911903,
      "MDAAJMCJKBP": 6
    },
    {
      "KALFIOFHKOP": 1714911903,
      "MDAAJMCJKBP": 6
    },
    {
      "KALFIOFHKOP": 1714911903,
      "MDAAJMCJKBP": 6
    },
    {
      "KALFIOFHKOP": 1714911903,
      "MDAAJMCJKBP": 6
    },
    {
      "KALFIOFHKOP": 1714911903,
      "MDAAJMCJKBP": 6
    },
    {
      "KALFIOFHKOP": 1714911903,
      "MDAAJMCJKBP": 6
    }
  ]
}