{
  "GNBJIBLFFPL": [
    {
      "KALFIOFHKOP": 1714911903,
      "MDAAJMCJKBP": 6
    },
    {
      "KALFIOFHKOP": 1714911903,
      "MDAAJMCJKBP": 6
    },
    {
      "KALFIOFHKOP": 1714911903,
      "MDAAJMCJKBP": 6
    },
    {
      "KALFIOFHKOP": 1714911903,
      "MDAAJMCJKBP": 6
    },
    {
      "KALFIOFHKOP": 1714911903,
      "MDAAJMCJKBP": 6
    },
    {
      "KALFIOFHKOP": 1714911903,
      "MDAAJMCJKBP": 6
    },
    {
      "KALFIOFHKOP": 1714911903,
      "MDAAJMCJKBP": 6
    },
    {
      "KALFIOFHKOP": 1714911903,
      "MDAAJMCJKBP": 6
    },
    {
      "KALFIOFHKOP": 1714911903,
      "MDAAJMCJKBP": 6
    },
    {
      "KALFIOFHKOP": 1714911903,
      "MDAAJMCJKBP": 6
    },
    {
      "KALFIOFHKOP": 1714911903,
      "MDAAJMCJKBP": 6
    }
  ]
}