{
  "luaDataPath": "",
  "dontUseDefaultFinish": true,
  "startBlackKeepTime": 1.0,
  "entityBan": "",
  "disableNpcLod": true,
  "isBanWidgetPet": true,
  "protectNpcMobileLod": true,
  "talkFlag": 7,
  "startFade": {
    "startFadeInDuration": 0.5,
    "startFadeOutDuration": 0.5
  },
  "endFade": {
    "startFadeOutDuration": 0.0
  },
  "actors": [
    {
      "alias": "Avatar",
      "visible": true,
      "bornPointName": "[3_340100584:3584.092,428.202,4606.388,0.000,53.600,0.000]",
      "relativePosType": "AVATAR_NEW",
      "relativePosNpcAlias": "",
      "_notDestroyInTalk": true,
      "_bindMovingTargetKey": ""
    },
    {
      "configID": 14016,
      "alias": "14016",
      "visible": true,
      "bornPointName": "[3_340100583:3585.854,428.202,4597.339,0.000,179.800,0.000]",
      "relativePosType": "AVATAR_NEW",
      "relativePosNpcAlias": "",
      "_notDestroyInTalk": true,
      "_bindMovingTargetKey": ""
    },
    {
      "configID": 518,
      "alias": "518",
      "visible": true,
      "bornPointName": "[3_340100585:3586.832,428.202,4604.944,0.000,299.000,0.000]",
      "relativePosType": "AVATAR_NEW",
      "relativePosNpcAlias": "",
      "_notDestroyInTalk": true,
      "_bindMovingTargetKey": ""
    },
    {
      "configID": 13937,
      "alias": "13937",
      "visible": true,
      "bornPointName": "[3_340100627:3586.511,428.202,4599.159,0.000,47.510,0.000]",
      "relativePosType": "AVATAR_NEW",
      "relativePosNpcAlias": "",
      "_notDestroyInTalk": true,
      "_bindMovingTargetKey": ""
    },
    {
      "configID": 13942,
      "alias": "13942",
      "visible": true,
      "bornPointName": "[3_340100628:3587.941,428.202,4599.753,0.000,289.410,0.000]",
      "relativePosType": "AVATAR_NEW",
      "relativePosNpcAlias": "",
      "_notDestroyInTalk": true,
      "_bindMovingTargetKey": ""
    },
    {
      "configID": 1081,
      "alias": "1081",
      "visible": true,
      "bornPointName": "[3_340100629:3588.037,428.202,4601.028,0.000,233.190,0.000]",
      "relativePosType": "AVATAR_NEW",
      "relativePosNpcAlias": "",
      "_notDestroyInTalk": true,
      "_bindMovingTargetKey": ""
    },
    {
      "configID": 1071,
      "alias": "1071",
      "visible": true,
      "bornPointName": "[3_340100630:3587.187,428.202,4601.456,0.000,218.720,0.000]",
      "relativePosType": "AVATAR_NEW",
      "relativePosNpcAlias": "",
      "_notDestroyInTalk": true,
      "_bindMovingTargetKey": ""
    }
  ],
  "group": [
    [
      {
        "$type": "MoleMole.Config.ConfigBlackScreenAction",
        "type": "BLACK_SCREEN",
        "actionId": 104,
        "_flag": 2048,
        "blackScreenType": "KEEP_BLACK",
        "durationToBlack": 0.5,
        "durationKeepBlack": 0.5,
        "durationFromBlack": 0.5,
        "inteePos": "",
        "textMapID": "",
        "useTextFade": true,
        "_changeAudioState": true
      },
      {
        "$type": "MoleMole.Config.ConfigTeleportToAction",
        "type": "TELEPORT_TO",
        "aliasList": [
          "14016"
        ],
        "actionId": 127,
        "position": {
          "x": 3584.802001953125,
          "y": 428.2019958496094,
          "z": 4595.3310546875
        },
        "forward": {
          "x": 1.5809999704360962,
          "z": 1.4859999418258667
        },
        "openLongDisTeleport": true,
        "syncForward": true,
        "_posBindMovingTargetKey": "",
        "_forwardBindMovingTargetKey": ""
      },
      {
        "$type": "MoleMole.Config.ConfigTeleportToAction",
        "type": "TELEPORT_TO",
        "aliasList": [
          "13937"
        ],
        "actionId": 128,
        "position": {
          "x": 3583.3759765625,
          "y": 428.2019958496094,
          "z": 4612.23193359375
        },
        "forward": {
          "x": -6.919000148773193,
          "z": -4.7870001792907715
        },
        "openLongDisTeleport": true,
        "syncForward": true,
        "_posBindMovingTargetKey": "",
        "_forwardBindMovingTargetKey": ""
      },
      {
        "$type": "MoleMole.Config.ConfigTeleportToAction",
        "type": "TELEPORT_TO",
        "aliasList": [
          "1081"
        ],
        "actionId": 132,
        "position": {
          "x": 3597.181884765625,
          "y": 428.2239990234375,
          "z": 4596.1572265625
        },
        "forward": {
          "x": -9.947999954223633,
          "z": 4.270999908447266
        },
        "openLongDisTeleport": true,
        "syncForward": true,
        "_posBindMovingTargetKey": "",
        "_forwardBindMovingTargetKey": ""
      },
      {
        "$type": "MoleMole.Config.ConfigTeleportToAction",
        "type": "TELEPORT_TO",
        "aliasList": [
          "1071"
        ],
        "actionId": 131,
        "position": {
          "x": 3591.72802734375,
          "y": 428.2340087890625,
          "z": 4590.73583984375
        },
        "forward": {
          "x": -4.507999897003174,
          "z": 10.538000106811523
        },
        "openLongDisTeleport": true,
        "syncForward": true,
        "_posBindMovingTargetKey": "",
        "_forwardBindMovingTargetKey": ""
      },
      {
        "$type": "MoleMole.Config.ConfigCameraDOFAction",
        "type": "CAMERA_DOF",
        "delayTime": 0.30000001192092896,
        "actionId": 102,
        "focusDistance": 6.0,
        "focusRange": 6.0,
        "quality": 3
      },
      {
        "$type": "MoleMole.Config.ConfigVisibleInterAction",
        "type": "VISIBLE",
        "delayTime": 0.30000001192092896,
        "aliasList": [
          "Avatar"
        ],
        "actionId": 103,
        "_extraParam": ""
      }
    ],
    [
      {
        "$type": "MoleMole.Config.ConfigBlackScreenAction",
        "type": "BLACK_SCREEN",
        "actionId": 112,
        "_flag": 2048,
        "blackScreenType": "FROM_BLACK",
        "durationToBlack": 0.5,
        "durationKeepBlack": 0.5,
        "durationFromBlack": 0.5,
        "inteePos": "",
        "textMapID": "",
        "useTextFade": true,
        "_changeAudioState": true
      },
      {
        "$type": "EFHODGEJOHJ",
        "type": "CAMERA_MOVE",
        "duration": 1.0,
        "actionId": 113,
        "cameraPosType": "RELATIVE_TO_TARGET_ENTITY",
        "camTargetType": "RELATIVE_TO_TARGET_ENTITY",
        "camFov": 30.0,
        "lerpPattern": 6,
        "cameraBlendType": "EaseInOutCubic",
        "MDKBPBJCMHH": {},
        "openCameraDither": false,
        "targetNpcAlias": "14016",
        "closeTreeLeafDither": true,
        "PHGBNNGCJKJ": "",
        "NFILMKCFHEB": "",
        "BGPNGHDAECF": ""
      },
      {
        "$type": "MoleMole.Config.ConfigTeleportToAction",
        "type": "TELEPORT_TO",
        "aliasList": [
          "Avatar"
        ],
        "actionId": 148,
        "position": {
          "x": 3582.56005859375,
          "y": 428.2019958496094,
          "z": 4602.78515625
        },
        "forward": {
          "x": 1.0920000076293945,
          "z": -1.3320000171661377
        },
        "openLongDisTeleport": true,
        "syncForward": true,
        "_posBindMovingTargetKey": "",
        "_forwardBindMovingTargetKey": ""
      },
      {
        "$type": "MJFAIFFAGOF",
        "type": "DIALOG",
        "aliasList": [
          "14016"
        ],
        "actionId": 106,
        "dialogID": 191852001,
        "protectTime": 0.5
      },
      {
        "$type": "EDCHPJLDKIN",
        "type": "BODY_LANG",
        "aliasList": [
          "14016"
        ],
        "actionId": 126,
        "bodyLangParam": 1230,
        "forceDoFreeStyle": true,
        "canDoRepeatFreeStyle": false,
        "cantBackToIdleWhenSitLoop": true,
        "eventPatternSuiteKey": ""
      },
      {
        "$type": "ICHLNKHGCAG",
        "type": "EMO_SYNC",
        "aliasList": [
          "14016"
        ],
        "actionId": 133,
        "_flag": 320,
        "dataPath": "Cs_Emo_Avatar_Simple_Common_Set/Cs_Emo_Avatar_Talk/Cs_Emo_Coop_Common/Cs_Emo_Coop_Linette_01/Cs_Emo_191852001",
        "phonemePath": "",
        "emotionPath": "",
        "mateDataPath": "",
        "matePhonemePath": "",
        "mateEmotionPath": "",
        "dataPathHashList": [
          3510457944640902454,
          6196609465288129839,
          15950578326096944342,
          14775573812984623528
        ],
        "PACNIGOOENN": "",
        "PIBDNPHIAGC": ""
      }
    ],
    [
      {
        "$type": "EFHODGEJOHJ",
        "type": "CAMERA_MOVE",
        "duration": 1.0,
        "actionId": 114,
        "cameraPosType": "RELATIVE_TO_TARGET_ENTITY",
        "camTargetType": "RELATIVE_TO_TARGET_ENTITY",
        "camFov": 30.0,
        "lerpPattern": 6,
        "cameraBlendType": "EaseInOutCubic",
        "MDKBPBJCMHH": {},
        "openCameraDither": false,
        "targetNpcAlias": "13937",
        "closeTreeLeafDither": true,
        "PHGBNNGCJKJ": "",
        "NFILMKCFHEB": "",
        "BGPNGHDAECF": ""
      },
      {
        "$type": "MJFAIFFAGOF",
        "type": "DIALOG",
        "aliasList": [
          "13937"
        ],
        "actionId": 108,
        "dialogID": 191852002,
        "protectTime": 0.5
      },
      {
        "$type": "EDCHPJLDKIN",
        "type": "BODY_LANG",
        "aliasList": [
          "13937"
        ],
        "actionId": 130,
        "bodyLangParam": 1040,
        "forceDoFreeStyle": true,
        "canDoRepeatFreeStyle": false,
        "cantBackToIdleWhenSitLoop": true,
        "eventPatternSuiteKey": ""
      },
      {
        "$type": "ICHLNKHGCAG",
        "type": "EMO_SYNC",
        "aliasList": [
          "13937"
        ],
        "actionId": 134,
        "_flag": 320,
        "dataPath": "Cs_Emo_Avatar_Simple_Common_Set/Cs_Emo_Avatar_Talk/Cs_Emo_Coop_Common/Cs_Emo_Coop_Linette_01/Cs_Emo_191852002",
        "phonemePath": "",
        "emotionPath": "",
        "mateDataPath": "",
        "matePhonemePath": "",
        "mateEmotionPath": "",
        "dataPathHashList": [
          18174228526305419275,
          16838238389046162658,
          7376194787983009627,
          6905763770009329755
        ],
        "PACNIGOOENN": "",
        "PIBDNPHIAGC": ""
      },
      {
        "$type": "OBCDECFOOBC",
        "type": "DIALOG_SELECT",
        "delayTime": 0.4000000059604645,
        "aliasList": [
          "Avatar"
        ],
        "actionId": 109,
        "dialogIDList": [
          191852003
        ],
        "grpIDList": [
          165681525
        ],
        "useGrpId": true,
        "countDownGrpId": 165681521
      }
    ],
    [
      {
        "$type": "MoleMole.Config.ConfigUITriggerInterAction",
        "type": "UI_TRIGGER",
        "actionId": 121,
        "contextName": "ActiveQuestCheck",
        "_param": "1031"
      }
    ],
    [
      {
        "$type": "MoleMole.Config.ConfigTimeProtectAction",
        "type": "TIME_PROTECT",
        "duration": 0.10000000149011612,
        "actionId": 111
      },
      {
        "$type": "MoleMole.Config.ConfigVisibleInterAction",
        "type": "VISIBLE",
        "aliasList": [
          "Avatar"
        ],
        "actionId": 149,
        "isVisible": true,
        "_extraParam": ""
      }
    ],
    [
      {
        "$type": "MoleMole.Config.ConfigCameraDOFAction",
        "type": "CAMERA_DOF",
        "actionId": 358,
        "_actionTagList": [
          "TalkSkip"
        ],
        "focusDistance": 6.0,
        "focusRange": 6.0,
        "quality": 3
      },
      {
        "$type": "MoleMole.Config.ConfigBlackScreenAction",
        "type": "BLACK_SCREEN",
        "duration": 0.10000000149011612,
        "actionId": 359,
        "_flag": 2048,
        "_actionTagList": [
          "TalkSkip"
        ],
        "blackScreenType": "FROM_BLACK",
        "durationToBlack": 0.10000000149011612,
        "durationKeepBlack": 0.10000000149011612,
        "durationFromBlack": 0.10000000149011612,
        "inteePos": "",
        "textMapID": "",
        "showClickBtnDelayTime": 0.5,
        "waitClickBtnTipTime": 0.5
      },
      {
        "$type": "MoleMole.Config.ConfigTeleportToAction",
        "type": "TELEPORT_TO",
        "aliasList": [
          "Avatar"
        ],
        "actionId": 351,
        "_actionTagList": [
          "TalkSkip"
        ],
        "position": {
          "x": 3582.56005859375,
          "y": 428.2019958496094,
          "z": 4602.78515625
        },
        "forward": {
          "x": 1.0920000076293945,
          "z": -1.3320000171661377
        },
        "openLongDisTeleport": true,
        "syncForward": true,
        "_posBindMovingTargetKey": "",
        "_forwardBindMovingTargetKey": ""
      },
      {
        "$type": "MoleMole.Config.ConfigVisibleInterAction",
        "type": "VISIBLE",
        "aliasList": [
          "Avatar"
        ],
        "actionId": 360,
        "_actionTagList": [
          "TalkSkip"
        ],
        "isVisible": true,
        "_extraParam": ""
      },
      {
        "$type": "MoleMole.Config.ConfigTeleportToAction",
        "type": "TELEPORT_TO",
        "aliasList": [
          "14016"
        ],
        "actionId": 347,
        "_actionTagList": [
          "TalkSkip"
        ],
        "position": {
          "x": 3584.802001953125,
          "y": 428.2019958496094,
          "z": 4595.3310546875
        },
        "forward": {
          "x": 1.5809999704360962,
          "z": 1.4859999418258667
        },
        "openLongDisTeleport": true,
        "syncForward": true,
        "_posBindMovingTargetKey": "",
        "_forwardBindMovingTargetKey": ""
      },
      {
        "$type": "MoleMole.Config.ConfigTeleportToAction",
        "type": "TELEPORT_TO",
        "aliasList": [
          "13937"
        ],
        "actionId": 348,
        "_actionTagList": [
          "TalkSkip"
        ],
        "position": {
          "x": 3583.3759765625,
          "y": 428.2019958496094,
          "z": 4612.23193359375
        },
        "forward": {
          "x": -6.919000148773193,
          "z": -4.7870001792907715
        },
        "openLongDisTeleport": true,
        "syncForward": true,
        "_posBindMovingTargetKey": "",
        "_forwardBindMovingTargetKey": ""
      },
      {
        "$type": "MJFAIFFAGOF",
        "type": "DIALOG",
        "aliasList": [
          "13937"
        ],
        "actionId": 357,
        "_actionTagList": [
          "TalkSkip"
        ],
        "dialogID": 191852002,
        "protectTime": 0.5
      },
      {
        "$type": "MoleMole.Config.ConfigTeleportToAction",
        "type": "TELEPORT_TO",
        "aliasList": [
          "1081"
        ],
        "actionId": 349,
        "_actionTagList": [
          "TalkSkip"
        ],
        "position": {
          "x": 3597.181884765625,
          "y": 428.2239990234375,
          "z": 4596.1572265625
        },
        "forward": {
          "x": -9.947999954223633,
          "z": 4.270999908447266
        },
        "openLongDisTeleport": true,
        "syncForward": true,
        "_posBindMovingTargetKey": "",
        "_forwardBindMovingTargetKey": ""
      },
      {
        "$type": "MoleMole.Config.ConfigTeleportToAction",
        "type": "TELEPORT_TO",
        "aliasList": [
          "1071"
        ],
        "actionId": 350,
        "_actionTagList": [
          "TalkSkip"
        ],
        "position": {
          "x": 3591.72802734375,
          "y": 428.2340087890625,
          "z": 4590.73583984375
        },
        "forward": {
          "x": -4.507999897003174,
          "z": 10.538000106811523
        },
        "openLongDisTeleport": true,
        "syncForward": true,
        "_posBindMovingTargetKey": "",
        "_forwardBindMovingTargetKey": ""
      },
      {
        "$type": "EFHODGEJOHJ",
        "type": "CAMERA_MOVE",
        "delayTime": 0.5,
        "duration": 0.10000000149011612,
        "actionId": 356,
        "_actionTagList": [
          "TalkSkip"
        ],
        "cameraPosType": "RELATIVE_TO_TARGET_ENTITY",
        "camTargetType": "RELATIVE_TO_TARGET_ENTITY",
        "camFov": 30.0,
        "lerpPattern": 6,
        "cameraBlendType": "EaseInOutCubic",
        "MDKBPBJCMHH": {},
        "openCameraDither": false,
        "targetNpcAlias": "13937",
        "closeTreeLeafDither": true,
        "PHGBNNGCJKJ": "",
        "NFILMKCFHEB": "",
        "BGPNGHDAECF": ""
      },
      {
        "$type": "ICHLNKHGCAG",
        "type": "EMO_SYNC",
        "delayTime": 0.5,
        "aliasList": [
          "14016"
        ],
        "actionId": 352,
        "_flag": 256,
        "_actionTagList": [
          "TalkSkip"
        ],
        "dataPath": "Cs_Emo_Avatar_Simple_Common_Set/Cs_Emo_Avatar_Talk/Cs_Emo_Coop_Common/Cs_Emo_Coop_Linette_01/Cs_Emo_191852001",
        "phonemePath": "",
        "emotionPath": "",
        "mateDataPath": "",
        "matePhonemePath": "",
        "mateEmotionPath": "",
        "dataPathHashList": [
          3510457944640902454,
          6196609465288129839,
          15950578326096944342,
          14775573812984623528
        ],
        "PACNIGOOENN": "",
        "PIBDNPHIAGC": ""
      },
      {
        "$type": "ICHLNKHGCAG",
        "type": "EMO_SYNC",
        "delayTime": 0.5,
        "aliasList": [
          "13937"
        ],
        "actionId": 353,
        "_flag": 256,
        "_actionTagList": [
          "TalkSkip"
        ],
        "dataPath": "Cs_Emo_Avatar_Simple_Common_Set/Cs_Emo_Avatar_Talk/Cs_Emo_Coop_Common/Cs_Emo_Coop_Linette_01/Cs_Emo_191852002",
        "phonemePath": "",
        "emotionPath": "",
        "mateDataPath": "",
        "matePhonemePath": "",
        "mateEmotionPath": "",
        "dataPathHashList": [
          18174228526305419275,
          16838238389046162658,
          7376194787983009627,
          6905763770009329755
        ],
        "PACNIGOOENN": "",
        "PIBDNPHIAGC": ""
      },
      {
        "$type": "EDCHPJLDKIN",
        "type": "BODY_LANG",
        "delayTime": 1.0,
        "aliasList": [
          "14016"
        ],
        "actionId": 354,
        "_actionTagList": [
          "TalkSkip"
        ],
        "bodyLangParam": 1230,
        "forceDoFreeStyle": true,
        "canDoRepeatFreeStyle": false,
        "cantBackToIdleWhenSitLoop": true,
        "eventPatternSuiteKey": ""
      },
      {
        "$type": "EDCHPJLDKIN",
        "type": "BODY_LANG",
        "delayTime": 1.0,
        "aliasList": [
          "13937"
        ],
        "actionId": 355,
        "_actionTagList": [
          "TalkSkip"
        ],
        "bodyLangParam": 1040,
        "forceDoFreeStyle": true,
        "canDoRepeatFreeStyle": false,
        "cantBackToIdleWhenSitLoop": true,
        "eventPatternSuiteKey": ""
      }
    ]
  ],
  "groupId": [
    {
      "grpId": 165681522,
      "nextGrpId": 165681523,
      "_noCircleNextGrpId": 165681523
    },
    {
      "index": 1,
      "grpId": 165681523,
      "nextGrpId": 165681524,
      "_noCircleNextGrpId": 165681524
    },
    {
      "index": 2,
      "grpId": 165681524,
      "nextGrpId": 165681525,
      "_noCircleNextGrpId": 165681525
    },
    {
      "index": 3,
      "grpId": 165681525,
      "nextGrpId": 165681526,
      "_noCircleNextGrpId": 165681526
    },
    {
      "index": 4,
      "grpId": 165681526,
      "nextGrpId": 165681527,
      "_noCircleNextGrpId": 165681527
    },
    {
      "index": 5,
      "grpId": 165681527,
      "nextGrpId": 165681528,
      "_noCircleNextGrpId": 165681528
    }
  ],
  "freeStyleDic": {
    "14016": [
      1230
    ],
    "518": [],
    "13937": [
      1040
    ],
    "1081": [],
    "1071": []
  },
  "GHHKLKIGEOD": {
    "14016": [
      "SitHoldArm01AS",
      "SitPutArm01AS",
      "SitRaiseHand01AS"
    ],
    "13937": [
      "SitChat01AS",
      "SitHoldArm01AS",
      "SitPutArm01AS",
      "SitRaiseHand01AS",
      "SitRead01AS"
    ]
  },
  "GOCHGPDDIEK": {
    "GLDEKKOPHPB": "",
    "MONBEELCJPA": ""
  },
  "IDMJJGEMEPG": 165681527,
  "DJNHOINPCOI": {
    "BMLEPIJCLCL": ""
  }
}