{
  "luaDataPath": "",
  "dontUseDefaultFinish": true,
  "entityBan": "",
  "disableNpcLod": true,
  "isBanWidgetPet": true,
  "protectNpcMobileLod": true,
  "talkFlag": 7,
  "startFade": {
    "startFadeOutDuration": 0.0
  },
  "endFade": {
    "startFadeOutDuration": 0.0
  },
  "actors": [
    {
      "alias": "Avatar",
      "visible": true,
      "bornPointName": "",
      "relativePosType": "AVATAR_NEW",
      "relativePosNpcAlias": "",
      "_notDestroyInTalk": true,
      "_bindMovingTargetKey": ""
    },
    {
      "configID": 518,
      "alias": "518",
      "visible": true,
      "bornPointName": "",
      "removeActorType": "NEW_REMOVE",
      "relativePosType": "AVATAR_NEW",
      "relativePosNpcAlias": "",
      "_notDestroyInTalk": true,
      "_bindMovingTargetKey": ""
    }
  ],
  "group": [
    [
      {
        "$type": "MJFAIFFAGOF",
        "type": "DIALOG",
        "aliasList": [
          "Avatar"
        ],
        "actionId": 102,
        "dialogID": 191821901,
        "protectTime": 0.5
      }
    ],
    [
      {
        "$type": "MJFAIFFAGOF",
        "type": "DIALOG",
        "aliasList": [
          "Avatar"
        ],
        "actionId": 126,
        "_actionTagList": [
          "TalkSkip"
        ],
        "dialogID": 191821901,
        "protectTime": 0.5
      }
    ]
  ],
  "groupId": [
    {
      "grpId": 162889817,
      "nextGrpId": 162889818,
      "_noCircleNextGrpId": 162889818
    },
    {
      "index": 1,
      "grpId": 162889818,
      "nextGrpId": 162889819,
      "_noCircleNextGrpId": 162889819
    }
  ],
  "freeStyleDic": {
    "518": []
  },
  "GOCHGPDDIEK": {
    "GLDEKKOPHPB": "",
    "MONBEELCJPA": ""
  },
  "IDMJJGEMEPG": 162889818,
  "DJNHOINPCOI": {
    "BMLEPIJCLCL": ""
  }
}