{
  "NeverCombat": {
    "aiNeuronSetting": "NeverCombat",
    "aiSensingTemplate": "NeverCombatTemplate",
    "aiHitFeeling": false
  },
  "Apep_NoBroadCast": {
    "aiNeuronSetting": "Apep_NoBroadCast",
    "aiSensingTemplate": "Apep_NoBroadCast",
    "aiResistTauntLevel": "Monster_TauntLevel_5"
  },
  "OnlyHitTemplate": {
    "aiNeuronSetting": "DefaultSetting",
    "aiSensingTemplate": "OnlyHitTemplate"
  },
  "AbilityFish": {
    "aiNeuronSetting": "DefaultSetting",
    "aiSensingTemplate": "DefaultTemplate",
    "aiHitFeeling": false
  },
  "Nutcracker_SpecialAlert": {
    "aiNeuronSetting": "NeverCombat",
    "aiSensingTemplate": "NutcrackerTemplate",
    "aiHitFeeling": false
  }
}