{
  "common": {
    "effectAttachShape": {
      "$type": "OOMMNAAKJOP",
      "mesh": "EffectMesh"
    },
    "mass": 10.0,
    "height": 1.6438000202178955,
    "modelHeight": 1.6200000047683716,
    "affectedByWorld": true,
    "checkInSurface": true
  },
  "headControl": {
    "$type": "FKHBOAJEOKE",
    "useHeadControl": true,
    "animStates": [
      "NormalStandby",
      "NormalMove/WalkToRun",
      "NormalMove/Walk",
      "NormalMove/RunToWalk",
      "NormalMove/Run",
      "NormalMove/RunToIdle",
      "NormalMove/WalkToIdle",
      "NormalMove/RunningTurn",
      "NormalMove/SprintToRun",
      "NormalMove/SprintToIdle",
      "Sprint",
      "Climb/ClimbIdle",
      "Ladder/LadderIdle",
      "Swim/SwimIdle",
      "NormalStandbyWeapon",
      "NormalMoveWeapon/WalkToRunWeapon",
      "NormalMoveWeapon/WalkWeapon",
      "NormalMoveWeapon/RunToWalkWeapon",
      "NormalMoveWeapon/RunWeapon",
      "NormalMoveWeapon/RunToIdleWeapon",
      "NormalMoveWeapon/WalkToIdleWeapon",
      "NormalMoveWeapon/RunningTurnWeapon"
    ]
  },
  "specialPoint": {
    "elementAbsorb": "PRIVATE_Pendant",
    "elementPendant": "PRIVATE_Pendant",
    "elementDrop": "RootNode",
    "bulletAim": "RootNode"
  },
  "combat": {
    "property": {
      "endureType": "Avatar_Sword",
      "weight": 75.0
    },
    "beHit": {
      "hitBloodEffect": ""
    },
    "combatLock": {
      "lockShape": "CircleLockEnemyClose",
      "lockWeightYaxisParam": 0.20000000298023224,
      "lockWeightYaxisThreshold": 2.0,
      "lockType": "Avatar&Monster_Lv4"
    },
    "die": {
      "hasAnimatorDie": true,
      "dieEndTime": 1.5,
      "dieForceDisappearTime": 2.5,
      "dieDisappearEffect": "Eff_Death_Avatar_Common",
      "dieShaderData": "AvatarDie",
      "useRagDoll": true,
      "ragDollDieEndTimeDelay": 0.4000000059604645
    },
    "animEvents": {
      "ATK01": {
        "attackPattern": {
          "$type": "LGEKKELKDAN",
          "triggerType": "TriggerNoRepeat",
          "born": {
            "$type": "KPFCCIOJAMK",
            "offset": {
              "GOAPOLCAJBP": 0.0,
              "FMOPCJGGFMH": 0.0,
              "EJJEPFCDDAM": 1.0
            }
          },
          "height": 1.5,
          "MFGGJCPPBGA": 1.5
        },
        "attackInfo": {
          "attackTag": "NormalAttack_01",
          "attenuationTag": "NormalAttack",
          "attenuationGroup": "default",
          "attackProperty": {
            "JMLMDDCBIAO": 0.4300000071525574,
            "damagePercentageRatio": 0.0,
            "elementDurability": 25.0,
            "overrideByWeapon": true,
            "strikeType": "Slash",
            "enBreak": 47.70000076293945,
            "attackType": "Melee",
            "bonusCritical": 0.0,
            "bonusCriticalHurt": 0.0,
            "damagePercentage": 0.0
          },
          "hitPattern": {
            "onHitEffectName": "default",
            "hitImpulseY": "",
            "hitImpulseType": "LV3",
            "hitHaltTime": 0.029999999329447746,
            "hitHaltTimeScale": 0.009999999776482582,
            "canBeDefenceHalt": true
          },
          "cameraShake": {
            "shakeType": "CustomVector",
            "shakeRange": 0.11999999731779099,
            "shakeTime": 0.09000000357627869,
            "shakeDistance": 30.0,
            "shakeDir": {
              "x": -1.0,
              "y": 1.0
            }
          }
        }
      },
      "ATK02": {
        "attackPattern": {
          "$type": "LGEKKELKDAN",
          "triggerType": "TriggerNoRepeat",
          "born": {
            "$type": "KPFCCIOJAMK",
            "offset": {
              "GOAPOLCAJBP": 0.0,
              "FMOPCJGGFMH": 0.0,
              "EJJEPFCDDAM": 0.699999988079071
            }
          },
          "height": 1.5,
          "MFGGJCPPBGA": 1.5
        },
        "attackInfo": {
          "attackTag": "NormalAttack_02",
          "attenuationTag": "NormalAttack",
          "attenuationGroup": "default",
          "attackProperty": {
            "JMLMDDCBIAO": 0.41999998688697815,
            "damagePercentageRatio": 0.0,
            "elementDurability": 25.0,
            "overrideByWeapon": true,
            "strikeType": "Slash",
            "enBreak": 47.34000015258789,
            "attackType": "Melee",
            "bonusCritical": 0.0,
            "bonusCriticalHurt": 0.0,
            "damagePercentage": 0.0
          },
          "hitPattern": {
            "onHitEffectName": "default",
            "hitImpulseY": "",
            "hitImpulseType": "LV3",
            "hitHaltTime": 0.029999999329447746,
            "hitHaltTimeScale": 0.009999999776482582,
            "canBeDefenceHalt": true
          },
          "cameraShake": {
            "shakeType": "CustomVector",
            "shakeRange": 0.11999999731779099,
            "shakeTime": 0.09000000357627869,
            "shakeDistance": 30.0,
            "shakeDir": {
              "x": 1.0,
              "y": 1.0
            }
          }
        }
      },
      "ATK03_1": {
        "attackPattern": {
          "$type": "LGEKKELKDAN",
          "triggerType": "TriggerNoRepeat",
          "born": {
            "$type": "KPFCCIOJAMK",
            "offset": {
              "GOAPOLCAJBP": 0.0,
              "FMOPCJGGFMH": 0.0,
              "EJJEPFCDDAM": 0.800000011920929
            }
          },
          "height": 1.5,
          "MFGGJCPPBGA": 1.5
        },
        "attackInfo": {
          "attackTag": "NormalAttack_03",
          "attenuationTag": "NormalAttack",
          "attenuationGroup": "default",
          "attackProperty": {
            "JMLMDDCBIAO": 0.25,
            "damagePercentageRatio": 0.0,
            "elementDurability": 25.0,
            "overrideByWeapon": true,
            "strikeType": "Slash",
            "enBreak": 29.700000762939453,
            "attackType": "Melee",
            "bonusCritical": 0.0,
            "bonusCriticalHurt": 0.0,
            "damagePercentage": 0.0
          },
          "hitPattern": {
            "onHitEffectName": "default",
            "hitImpulseY": "",
            "hitImpulseType": "LV3",
            "hitHaltTime": 0.009999999776482582,
            "hitHaltTimeScale": 0.009999999776482582
          },
          "cameraShake": {}
        }
      },
      "ATK03_2": {
        "attackPattern": {
          "$type": "LGEKKELKDAN",
          "triggerType": "TriggerNoRepeat",
          "born": {
            "$type": "KPFCCIOJAMK",
            "offset": {
              "GOAPOLCAJBP": 0.0,
              "FMOPCJGGFMH": 0.0,
              "EJJEPFCDDAM": 0.699999988079071
            }
          },
          "height": 1.5,
          "MFGGJCPPBGA": 1.5
        },
        "attackInfo": {
          "attackTag": "NormalAttack_03",
          "attenuationTag": "NormalAttack",
          "attenuationGroup": "default",
          "attackProperty": {
            "JMLMDDCBIAO": 0.25,
            "damagePercentageRatio": 0.0,
            "elementDurability": 25.0,
            "overrideByWeapon": true,
            "strikeType": "Slash",
            "enBreak": 29.700000762939453,
            "attackType": "Melee",
            "bonusCritical": 0.0,
            "bonusCriticalHurt": 0.0,
            "damagePercentage": 0.0
          },
          "hitPattern": {
            "onHitEffectName": "default",
            "hitImpulseY": "",
            "hitImpulseType": "LV3",
            "hitHaltTime": 0.05000000074505806,
            "hitHaltTimeScale": 0.009999999776482582,
            "canBeDefenceHalt": true
          },
          "cameraShake": {
            "shakeType": "CustomVector",
            "shakeRange": 0.23999999463558197,
            "shakeTime": 0.11999999731779099,
            "shakeDistance": 30.0,
            "shakeDir": {
              "y": -1.0
            }
          }
        }
      },
      "ATK04": {
        "attackPattern": {
          "$type": "LGEKKELKDAN",
          "triggerType": "TriggerNoRepeat",
          "born": {
            "$type": "KPFCCIOJAMK",
            "offset": {
              "GOAPOLCAJBP": 0.0,
              "FMOPCJGGFMH": 0.0,
              "EJJEPFCDDAM": 1.0
            }
          },
          "height": 2.0,
          "MFGGJCPPBGA": 1.5
        },
        "attackInfo": {
          "attackTag": "NormalAttack_04",
          "attenuationTag": "NormalAttack",
          "attenuationGroup": "default",
          "attackProperty": {
            "JMLMDDCBIAO": 0.4300000071525574,
            "damagePercentageRatio": 0.0,
            "elementDurability": 25.0,
            "overrideByWeapon": true,
            "strikeType": "Slash",
            "enBreak": 63.540000915527344,
            "attackType": "Melee",
            "bonusCritical": 0.0,
            "bonusCriticalHurt": 0.0,
            "damagePercentage": 0.0
          },
          "hitPattern": {
            "onHitEffectName": "default",
            "hitImpulseY": "",
            "hitImpulseType": "LV3",
            "hitHaltTime": 0.05999999865889549,
            "hitHaltTimeScale": 0.009999999776482582,
            "canBeDefenceHalt": true
          },
          "cameraShake": {
            "shakeType": "CustomVector",
            "shakeRange": 0.23999999463558197,
            "shakeTime": 0.11999999731779099,
            "shakeDistance": 30.0,
            "shakeDir": {
              "z": -1.0
            }
          }
        }
      },
      "ExtraAttack_1": {
        "attackPattern": {
          "$type": "LGEKKELKDAN",
          "triggerType": "TriggerNoRepeat",
          "born": {
            "$type": "KPFCCIOJAMK",
            "offset": {
              "GOAPOLCAJBP": 0.0,
              "FMOPCJGGFMH": 0.0,
              "EJJEPFCDDAM": 1.0
            }
          },
          "height": 1.5,
          "MFGGJCPPBGA": 2.200000047683716
        },
        "attackInfo": {
          "attackTag": "ExtraAttack",
          "attenuationTag": "NormalAttack",
          "attenuationGroup": "default",
          "attackProperty": {
            "JMLMDDCBIAO": 0.5,
            "damagePercentageRatio": 0.0,
            "elementDurability": 25.0,
            "overrideByWeapon": true,
            "strikeType": "Slash",
            "enBreak": 60.0,
            "attackType": "Melee",
            "bonusCritical": 0.0,
            "bonusCriticalHurt": 0.0,
            "damagePercentage": 0.0
          },
          "hitPattern": {
            "onHitEffectName": "default",
            "hitImpulseY": "",
            "hitImpulseType": "LV2",
            "hitHaltTimeScale": 0.009999999776482582
          }
        }
      },
      "ExtraAttack_2": {
        "attackPattern": {
          "$type": "LGEKKELKDAN",
          "triggerType": "TriggerNoRepeat",
          "born": {
            "$type": "KPFCCIOJAMK",
            "offset": {
              "GOAPOLCAJBP": 0.0,
              "FMOPCJGGFMH": 0.0,
              "EJJEPFCDDAM": 1.0
            }
          },
          "height": 1.5,
          "MFGGJCPPBGA": 2.200000047683716
        },
        "attackInfo": {
          "attackTag": "ExtraAttack",
          "attenuationTag": "NormalAttack",
          "attenuationGroup": "default",
          "attackProperty": {
            "JMLMDDCBIAO": 0.5,
            "damagePercentageRatio": 0.0,
            "elementDurability": 25.0,
            "overrideByWeapon": true,
            "strikeType": "Slash",
            "enBreak": 60.0,
            "attackType": "Melee",
            "bonusCritical": 0.0,
            "bonusCriticalHurt": 0.0,
            "damagePercentage": 0.0
          },
          "hitPattern": {
            "onHitEffectName": "default",
            "hitImpulseY": "",
            "hitImpulseType": "LV6",
            "hitHaltTimeScale": 0.009999999776482582
          },
          "cameraShake": {
            "shakeType": "CustomVector",
            "shakeRange": 0.36000001430511475,
            "shakeTime": 0.15000000596046448,
            "shakeDistance": 30.0,
            "shakeDir": {
              "x": -1.0
            }
          }
        }
      }
    }
  },
  "equipController": {
    "sheathPoint": "WeaponBackPut",
    "dissolveSheathFadeDelay": 0.07500000298023224,
    "dissolveSheathFadeTime": 2.0999999046325684,
    "attachPoints": {
      "equip01": "WeaponR",
      "equip02": "WeaponL",
      "equip03": "WeaponL"
    }
  },
  "abilities": [
    {
      "abilityID": "Avatar_Kazuha_ExtraAttack",
      "abilityName": "Avatar_Kazuha_ExtraAttack",
      "abilityOverride": ""
    },
    {
      "abilityID": "Avatar_Kazuha_FallingAnthem",
      "abilityName": "Avatar_Kazuha_FallingAnthem",
      "abilityOverride": ""
    },
    {
      "abilityID": "Avatar_Kazuha_ElementalArt_Check",
      "abilityName": "Avatar_Kazuha_ElementalArt_Check",
      "abilityOverride": ""
    },
    {
      "abilityID": "Avatar_Kazuha_ElementalArt_AirCheck",
      "abilityName": "Avatar_Kazuha_ElementalArt_AirCheck",
      "abilityOverride": ""
    },
    {
      "abilityID": "Avatar_Kazuha_ElementalArt_Charge",
      "abilityName": "Avatar_Kazuha_ElementalArt_Charge",
      "abilityOverride": ""
    },
    {
      "abilityID": "Avatar_Kazuha_ElementalArt_Charge_Remove",
      "abilityName": "Avatar_Kazuha_ElementalArt_Charge_Remove",
      "abilityOverride": ""
    },
    {
      "abilityID": "Avatar_Kazuha_ElementalArt_EmptyJump",
      "abilityName": "Avatar_Kazuha_ElementalArt_EmptyJump",
      "abilityOverride": ""
    },
    {
      "abilityID": "Avatar_Kazuha_ElementalArt_FlyAway",
      "abilityName": "Avatar_Kazuha_ElementalArt_FlyAway",
      "abilityOverride": ""
    },
    {
      "abilityID": "Avatar_Kazuha_ElementalBurst",
      "abilityName": "Avatar_Kazuha_ElementalBurst",
      "abilityOverride": ""
    },
    {
      "abilityID": "Avatar_Kazuha_ElementalBurst_ScreenEffect",
      "abilityName": "Avatar_Kazuha_ElementalBurst_ScreenEffect",
      "abilityOverride": ""
    },
    {
      "abilityID": "Avatar_Kazuha_ElementalBurst_Strike_Mix",
      "abilityName": "Avatar_Kazuha_ElementalBurst_Strike_Mix",
      "abilityOverride": ""
    },
    {
      "abilityID": "Avatar_Kazuha_NormalAttack_Handler",
      "abilityName": "Avatar_Kazuha_NormalAttack_Handler",
      "abilityOverride": ""
    },
    {
      "abilityID": "Avatar_Kazuha_NormalAttack_DamageHandler",
      "abilityName": "Avatar_Kazuha_NormalAttack_DamageHandler",
      "abilityOverride": ""
    }
  ],
  "stateLayers": {
    "defaultLayer": {
      "$type": "AEMHOACJLIB",
      "layerIndexName": "",
      "GCIDDLIDFAE": "",
      "stateIDs": {
        "NormalStandby": {
          "$type": "BCNJGNDHFGP",
          "animatorStates": {
            "Standby": [
              "Avatar_ResetFreeStyle"
            ]
          },
          "canDoSkill": true,
          "massRatio": 100.0,
          "setAnimatorBoolean": [
            {
              "name": "&CanUseSkill"
            }
          ],
          "canChangeAvatar": [
            {}
          ],
          "animatorTriggerOnLanded": "",
          "sheatheOnStart": true
        },
        "NormalMove": {
          "$type": "BCNJGNDHFGP",
          "animatorStates": {
            "ShowUp": [
              "Audio_Boy_Showup"
            ],
            "WalkToRun": [
              "Audio_Boy_WalkToRun",
              "Audio_Boy_Foley_Twice_Kazuha"
            ],
            "Walk": [
              "Ani_WalkSprint01",
              "Audio_Boy_Walk",
              "WalkStepOnWater",
              "Audio_Boy_Foley_Walk_Kazuha"
            ],
            "RunToWalk": [
              "Audio_Boy_RunToWalk",
              "Audio_Boy_Foley_Twice_Kazuha"
            ],
            "Run": [
              "Ani_Run01",
              "Audio_Boy_Run",
              "Audio_Boy_Foley_Run_Kazuha"
            ],
            "RunToIdle": [
              "Audio_Boy_RunToIdle",
              "Audio_Boy_Foley_Twice_Kazuha"
            ],
            "WalkToIdle": [
              "Audio_Boy_WalkToIdle"
            ],
            "RunningTurn": [],
            "SprintToRun": [
              "Audio_Boy_SprintToRun",
              "Audio_Boy_Foley_Once_Kazuha"
            ],
            "SprintToIdle": [
              "Audio_Boy_SprintToIdle",
              "Emo_Boy_Sprint_AS",
              "Audio_Boy_Foley_SprintToIdle_Kazuha"
            ],
            "FallOnGround": [
              "Audio_Boy_FallToGround",
              "Audio_Boy_Foley_Twice_Kazuha"
            ],
            "FallOnGroundLit": [
              "Audio_Boy_FallToGround",
              "Audio_Boy_Foley_Once_Kazuha"
            ],
            "FallToGroundRun": [
              "Audio_Boy_FallToGroundRun",
              "Audio_Boy_Foley_Twice_Kazuha"
            ],
            "FallToGroundRunHard": [
              "Audio_Boy_FallToGroundRunHard",
              "Audio_Boy_Foley_Twice_Kazuha"
            ],
            "FallToGroundSprint": [
              "Audio_Boy_FallToGroundSprint",
              "Audio_Boy_Foley_Twice_Kazuha"
            ]
          },
          "canDoSkill": true,
          "massRatio": 1.0,
          "setAnimatorBoolean": [
            {
              "name": "&CanUseSkill"
            }
          ],
          "canChangeAvatar": [
            {}
          ],
          "animatorTriggerOnLanded": "",
          "sheatheOnStart": true
        },
        "Sprint": {
          "$type": "BCNJGNDHFGP",
          "animatorStates": {
            "Sprint": [
              "Ani_WalkSprint01",
              "Audio_Boy_Sprint",
              "Emo_Boy_Sprint_Loop",
              "Audio_Boy_Foley_Twice_Kazuha"
            ]
          },
          "canDoSkill": true,
          "massRatio": 1.0,
          "setAnimatorBoolean": [
            {
              "name": "&CanUseSkill"
            }
          ],
          "canChangeAvatar": [
            {}
          ],
          "animatorTriggerOnLanded": "",
          "sheatheOnStart": true
        },
        "SprintBS": {
          "$type": "BCNJGNDHFGP",
          "animatorStates": {
            "SprintBS": [
              "Audio_Boy_RunToSprint",
              "SprintBS_Invincible",
              "Emo_Boy_Sprint_BS",
              "Audio_Boy_Foley_Sprint_BS_Kazuha"
            ]
          },
          "canDoSkill": true,
          "resetAnimatorTriggerOnEnter": [
            "DoSkill",
            "AimEnd"
          ],
          "setAnimatorBoolean": [
            {
              "name": "&CanUseSkill",
              "normalizeStart": 0.25999999046325684
            }
          ],
          "canChangeAvatar": [
            {
              "normalizeStart": 0.25999999046325684
            }
          ],
          "animatorTriggerOnLanded": "",
          "sheatheOnStart": true
        },
        "Crouch": {
          "$type": "BCNJGNDHFGP",
          "animatorStates": {
            "CrouchIdle": [],
            "CrouchMove": [
              "Audio_Boy_CrouchMove"
            ],
            "CrouchRoll": [
              "Audio_Boy_CrouchRoll",
              "Audio_Boy_Foley_Once_Kazuha"
            ]
          },
          "canDoSkill": true,
          "massRatio": 1.0,
          "setAnimatorBoolean": [
            {
              "name": "&CanUseSkill"
            }
          ],
          "canChangeAvatar": [
            {}
          ],
          "actionPanelState": "Squat",
          "animatorTriggerOnLanded": "",
          "sheatheOnStart": true
        },
        "CrouchToStandby": {
          "$type": "BCNJGNDHFGP",
          "animatorStates": {
            "CrouchToStandby": [
              "Audio_Boy_CrouchToStandby",
              "Audio_Boy_Foley_Once_Kazuha"
            ]
          },
          "resetAnimatorTriggerOnEnter": [
            "DoSkill"
          ],
          "animatorTriggerOnLanded": "",
          "sheatheOnStart": true
        },
        "SkiffNormal": {
          "$type": "BCNJGNDHFGP",
          "animatorStates": {
            "SkiffNormal": []
          },
          "massRatio": 100.0,
          "resetAnimatorTriggerOnExit": [
            "BeHit",
            "DoSkill",
            "Jump"
          ],
          "animatorTriggerOnLanded": "",
          "sheatheOnStart": true
        },
        "Climb": {
          "$type": "BCNJGNDHFGP",
          "animatorStates": {
            "ClimbMove0": [
              "ClimbStep",
              "Audio_Boy_Climb",
              "Audio_Boy_Foley_ClimbMove_Kazuha"
            ],
            "ClimbMove1": [
              "ClimbStep",
              "Audio_Boy_Climb_1",
              "Audio_Boy_Foley_Twice_Kazuha"
            ],
            "ClimbIdle": [],
            "ClimbJump": [
              "Audio_Boy_ClimbDash",
              "Audio_Boy_Foley_Once_Kazuha"
            ],
            "JumpUpWallForStandby": [
              "Audio_Boy_JumpUpWallStandby",
              "Audio_Boy_Foley_Once_Kazuha"
            ],
            "Standby2ClimbB": [
              "Audio_Boy_Standby2ClimbB",
              "Audio_Boy_Foley_Once_Kazuha"
            ]
          },
          "resetAnimatorTriggerOnEnter": [
            "DoSkill"
          ],
          "actionPanelState": "Climb",
          "animatorTriggerOnLanded": "",
          "sheatheOnStart": true
        },
        "ClimbTransient": {
          "$type": "BCNJGNDHFGP",
          "animatorStates": {
            "JumpWallReady": [],
            "Standby2ClimbA": [
              "Audio_Boy_Standby2ClimbA",
              "Audio_Boy_Foley_Once_Kazuha"
            ]
          },
          "resetAnimatorTriggerOnEnter": [
            "DoSkill"
          ],
          "animatorTriggerOnLanded": "",
          "sheatheOnStart": true
        },
        "Upstairs": {
          "$type": "BCNJGNDHFGP",
          "animatorStates": {
            "Upstairs": [
              "Audio_Boy_Upstairs",
              "Audio_Boy_Foley_Once_Kazuha"
            ]
          },
          "resetAnimatorTriggerOnEnter": [
            "DoSkill"
          ],
          "setAnimatorBoolean": [
            {
              "name": "&CanUseSkill"
            }
          ],
          "animatorTriggerOnLanded": "",
          "sheatheOnStart": true
        },
        "Slip": {
          "$type": "BCNJGNDHFGP",
          "animatorStates": {
            "SlipFaceWall": [
              "Audio_Boy_Foley_ThreeTimes_Kazuha"
            ],
            "SlipBackWall": [
              "Audio_Boy_Foley_ThreeTimes_Kazuha"
            ]
          },
          "resetAnimatorTriggerOnEnter": [
            "DoSkill"
          ],
          "animatorTriggerOnLanded": "",
          "sheatheOnStart": true
        },
        "Swim": {
          "$type": "BCNJGNDHFGP",
          "animatorStates": {
            "SwimIdle": [
              "Audio_Boy_SwimIdle"
            ],
            "SwimMove": [
              "SwimStep",
              "Audio_Boy_SwimMove"
            ],
            "SwimDash": [
              "Audio_Boy_SwimDash",
              "Avatar_Boy_SwimDash_Hand_Effect"
            ],
            "SwimJumpToWater": [
              "Audio_Boy_SwimJumpToWater"
            ]
          },
          "resetAnimatorTriggerOnEnter": [
            "DoSkill"
          ],
          "actionPanelState": "Swim",
          "animatorTriggerOnLanded": "",
          "sheatheOnStart": true
        },
        "Fly": {
          "$type": "BCNJGNDHFGP",
          "animatorStates": {
            "Fly": [
              "Audio_Boy_Foley_Once_Kazuha"
            ],
            "FlyStart": [
              "Audio_Boy_FlyStart",
              "FlyStart_Weapon",
              "Audio_Boy_Foley_Fly_Start_Kazuha"
            ]
          },
          "canDoSkill": true,
          "resetAnimatorTriggerOnEnter": [
            "DoSkill"
          ],
          "setAnimatorBoolean": [
            {
              "name": "&CanUseAirSkill"
            }
          ],
          "actionPanelState": "Fly",
          "animatorTriggerOnLanded": "",
          "sheatheOnStart": true
        },
        "Jump": {
          "$type": "BCNJGNDHFGP",
          "animatorStates": {
            "Jump": [
              "Audio_Boy_Jump",
              "Audio_Boy_Foley_Jump_Kazuha"
            ],
            "JumpForRun": [
              "Audio_Boy_Jump",
              "Audio_Boy_Foley_Once_Kazuha"
            ],
            "JumpForWalk": [
              "Audio_Boy_Jump",
              "Audio_Boy_Foley_Once_Kazuha"
            ],
            "JumpForSprint": [
              "Audio_Boy_Jump",
              "Audio_Boy_Foley_Once_Kazuha"
            ]
          },
          "canDoSkill": true,
          "resetAnimatorTriggerOnEnter": [
            "DoSkill",
            "AimEnd"
          ],
          "setAnimatorBoolean": [
            {
              "name": "&CanUseAirSkill"
            }
          ],
          "actionPanelState": "Jump",
          "animatorTriggerOnLanded": "",
          "sheatheOnStart": true
        },
        "Fall": {
          "$type": "BCNJGNDHFGP",
          "animatorStates": {
            "JumpOffWall": [
              "Audio_Boy_Jump",
              "Audio_Boy_Foley_Once_Kazuha"
            ],
            "SwimJump": [
              "Audio_Boy_SwimJump",
              "Audio_Boy_Foley_Once_Kazuha"
            ],
            "SwimJumpDrop": [
              "Audio_Boy_Foley_ThreeTimes_Kazuha"
            ],
            "DropDown": [
              "Audio_Boy_DropDown",
              "Audio_Boy_Foley_ThreeTimes_Kazuha"
            ],
            "DropDownLit": [],
            "WalkDropDownLit": []
          },
          "canDoSkill": true,
          "resetAnimatorTriggerOnEnter": [
            "DoSkill"
          ],
          "setAnimatorBoolean": [
            {
              "name": "&CanUseAirSkill"
            }
          ],
          "animatorTriggerOnLanded": "",
          "sheatheOnStart": true
        },
        "NormalStandbyWeapon": {
          "$type": "BCNJGNDHFGP",
          "animatorStates": {
            "StandbyWeapon": []
          },
          "canDoSkill": true,
          "massRatio": 100.0,
          "setAnimatorBoolean": [
            {
              "name": "&CanUseSkill"
            }
          ],
          "canChangeAvatar": [
            {}
          ],
          "animatorTriggerOnLanded": "",
          "battouOnStart": true
        },
        "NormalMoveWeapon": {
          "$type": "BCNJGNDHFGP",
          "animatorStates": {
            "WalkToRunWeapon": [
              "Audio_Boy_WalkToRun"
            ],
            "WalkWeapon": [
              "Audio_Boy_Walk",
              "Audio_Boy_Foley_Twice_Kazuha"
            ],
            "RunToWalkWeapon": [
              "Audio_Boy_RunToWalk"
            ],
            "RunWeapon": [
              "Audio_Boy_Run",
              "Audio_Boy_Foley_Twice_Kazuha"
            ],
            "RunToIdleWeapon": [
              "Audio_Boy_RunToIdle",
              "Audio_Boy_Foley_Twice_Kazuha"
            ],
            "WalkToIdleWeapon": [
              "Audio_Boy_WalkToIdle",
              "Audio_Boy_Foley_Twice_Kazuha"
            ],
            "RunningTurnWeapon": [],
            "FallOnGroundWeapon": [
              "Audio_Boy_FallToGround"
            ],
            "FallOnGroundLitWeapon": [
              "Audio_Boy_FallToGround"
            ],
            "FallOnGroundMiddleWeapon": [
              "Audio_Boy_FallToGround"
            ],
            "FallToGroundRunWeapon": [
              "Audio_Boy_FallToGroundRun"
            ],
            "FallToGroundRunHardWeapon": [
              "Audio_Boy_FallToGroundRunHard"
            ]
          },
          "canDoSkill": true,
          "massRatio": 2.0,
          "setAnimatorBoolean": [
            {
              "name": "&CanUseSkill"
            }
          ],
          "canChangeAvatar": [
            {}
          ],
          "animatorTriggerOnLanded": "",
          "battouOnStart": true
        },
        "NormalMoveWeaponPutaway": {
          "$type": "BCNJGNDHFGP",
          "animatorStates": {
            "WalkPutaway": [
              "Boy_Sword_Putaway_Walk",
              "Audio_Boy_Sword_WalkPutAway",
              "Audio_Boy_Foley_Twice_Kazuha"
            ],
            "RunPutaway": [
              "Boy_Sword_Putaway_Run",
              "Audio_Boy_Sword_RunPutAway",
              "Audio_Boy_Foley_Twice_Kazuha"
            ],
            "RunToSprintWeapon": [
              "Boy_Sword_Putaway_Sprint",
              "Audio_Boy_Sword_RunToSprintWeapon"
            ]
          },
          "canDoSkill": true,
          "massRatio": 2.0,
          "setAnimatorBoolean": [
            {
              "name": "&CanUseSkill"
            }
          ],
          "canChangeAvatar": [
            {}
          ],
          "animatorTriggerOnLanded": "",
          "battouOnStart": true
        },
        "NormalMoveWeaponStandByPutaway": {
          "$type": "BCNJGNDHFGP",
          "animatorStates": {
            "StandbyPutaway": [
              "Boy_Sword_Putaway_Standby",
              "Audio_Boy_Sword_PlayerBoy_PutAway"
            ]
          },
          "canDoSkill": true,
          "massRatio": 2.0,
          "setAnimatorBoolean": [
            {
              "name": "&CanUseSkill"
            }
          ],
          "canChangeAvatar": [
            {}
          ],
          "equipReattach": [
            {
              "equip": "equip01",
              "targetPoint": "WeaponR2"
            }
          ],
          "animatorTriggerOnLanded": "",
          "battouOnStart": true
        },
        "NormalMoveWeaponOver": {
          "$type": "BCNJGNDHFGP",
          "animatorStates": {
            "WalkPutawayOver": [
              "Audio_Boy_Sword_WalkPutAwayOver"
            ],
            "RunPutawayOver": [
              "Audio_Boy_Sword_RunPutAwayOver"
            ],
            "RunToSprintWeaponOver": [
              "Audio_Boy_Sword_RunToSprintWeaponOver"
            ]
          },
          "canDoSkill": true,
          "massRatio": 2.0,
          "setAnimatorBoolean": [
            {
              "name": "&CanUseSkill"
            }
          ],
          "canChangeAvatar": [
            {}
          ],
          "animatorTriggerOnLanded": "",
          "sheatheOnStart": true
        },
        "JumpWeapon": {
          "$type": "BCNJGNDHFGP",
          "animatorStates": {
            "JumpWeapon": [
              "Audio_Boy_Jump",
              "Audio_Boy_Foley_Once_Kazuha"
            ],
            "JumpForRunWeapon": [
              "Audio_Boy_Jump",
              "Audio_Boy_Foley_Once_Kazuha"
            ],
            "JumpForWalkWeapon": [
              "Audio_Boy_Jump",
              "Audio_Boy_Foley_Once_Kazuha"
            ]
          },
          "canDoSkill": true,
          "resetAnimatorTriggerOnEnter": [
            "DoSkill"
          ],
          "canChangeAvatar": [
            {}
          ],
          "actionPanelState": "Jump",
          "animatorTriggerOnLanded": "",
          "battouOnStart": true
        },
        "FallWeapon": {
          "$type": "BCNJGNDHFGP",
          "animatorStates": {
            "DropDownWeapon": [
              "Audio_Boy_DropDown",
              "Audio_Boy_Foley_ThreeTimes_Kazuha"
            ],
            "DropDownLitWeapon": [],
            "WalkDropDownLitWeapon": []
          },
          "resetAnimatorTriggerOnEnter": [
            "DoSkill"
          ],
          "animatorTriggerOnLanded": "",
          "battouOnStart": true
        },
        "BeHit": {
          "$type": "BCNJGNDHFGP",
          "animatorStates": {
            "Hit_L": [
              "Audio_Boy_Hit_L",
              "Audio_Boy_Foley_Once_Kazuha"
            ],
            "Hit_H": [
              "Audio_Boy_Hit_H",
              "Audio_Boy_Foley_Once_Kazuha"
            ]
          },
          "onQuit": "combatMove",
          "resetAnimatorTriggerOnEnter": [
            "BeHit",
            "HitAir2HitDrop"
          ],
          "resetAnimatorTriggerOnExit": [
            "DoSkill"
          ],
          "cameraType": "combatBeHit",
          "animatorTriggerOnLanded": "",
          "battouOnStart": true
        },
        "HitThrow": {
          "$type": "BCNJGNDHFGP",
          "animatorStates": {
            "Hit_Throw_Ground": [
              "BeHitAir_Weapon",
              "Audio_Boy_Hit_Throw_Ground_PlayerBoy"
            ]
          },
          "onQuit": "combatMove",
          "resetAnimatorTriggerOnEnter": [
            "BeHit",
            "HitAir2HitDrop"
          ],
          "resetAnimatorTriggerOnExit": [
            "DoSkill"
          ],
          "cameraType": "combatBeHit",
          "jumpCancelEnd": 0.0,
          "animatorTriggerOnLanded": "",
          "sheatheOnStart": true
        },
        "BeHitAir": {
          "$type": "BCNJGNDHFGP",
          "animatorStates": {
            "Hit_Throw": [
              "Audio_Boy_Hit_Throw",
              "BeHitAir_Weapon",
              "Audio_Boy_Foley_Once_Kazuha"
            ],
            "Hit_ThrowAir": [
              "Audio_Boy_DropDown",
              "BeHitAir_Weapon"
            ],
            "Struggle": [
              "BeHitAir_Weapon",
              "Audio_Boy_Foley_ThreeTimes_Kazuha"
            ]
          },
          "onQuit": "combatAir",
          "resetAnimatorTriggerOnEnter": [
            "BeHit"
          ],
          "resetAnimatorTriggerOnExit": [
            "DoSkill"
          ],
          "cameraType": "combatBeHit",
          "actionPanelState": "CombatAir",
          "jumpCancelEnd": 0.0,
          "animatorTriggerOnLanded": "",
          "sheatheOnStart": true
        },
        "Die": {
          "$type": "BCNJGNDHFGP",
          "animatorStates": {
            "DiveDie": [
              "Die",
              "Audio_Boy_Dive_Die"
            ],
            "FallDie": [
              "Audio_Boy_Death"
            ],
            "NormalDie": [
              "Die",
              "Audio_Boy_Death",
              "Audio_Boy_Foley_Once_Kazuha"
            ],
            "SwimDie": [
              "Swim_Die",
              "Audio_Boy_SwimDie"
            ],
            "HitGroundDie": [
              "Die",
              "Audio_Boy_Death"
            ]
          },
          "animatorTriggerOnLanded": ""
        },
        "Die_RagDoll": {
          "$type": "BCNJGNDHFGP",
          "animatorStates": {
            "NormalDie_AS": [],
            "FallDie_AS": []
          },
          "enableRagDoll": true,
          "animatorTriggerOnLanded": ""
        },
        "Attack01": {
          "$type": "BCNJGNDHFGP",
          "animatorStates": {
            "Attack01": [
              "Kazuha_Attack01",
              "SetComboCount1",
              "Interaction_Bad",
              "Audio_Boy_Kazuha_Attack01",
              "Emo_Avatar_Kazuha_Fight_Attack_01"
            ]
          },
          "onQuit": "combatMove",
          "canDoSkill": true,
          "resetAnimatorTriggerOnExit": [
            "BeHit"
          ],
          "setAnimatorBoolean": [
            {
              "name": "&CanCancelSkill"
            }
          ],
          "cameraType": "combatNormal",
          "canChangeAvatar": [
            {}
          ],
          "animatorTriggerOnLanded": "",
          "battouOnStart": true
        },
        "Attack02": {
          "$type": "BCNJGNDHFGP",
          "animatorStates": {
            "Attack02": [
              "Kazuha_Attack02",
              "SetComboCount2",
              "Interaction_Bad",
              "Audio_Boy_Kazuha_Attack02",
              "Emo_Avatar_Kazuha_Fight_Attack_02"
            ]
          },
          "onQuit": "combatMove",
          "canDoSkill": true,
          "resetAnimatorTriggerOnExit": [
            "BeHit"
          ],
          "setAnimatorBoolean": [
            {
              "name": "&CanCancelSkill"
            }
          ],
          "cameraType": "combatNormal",
          "canChangeAvatar": [
            {}
          ],
          "animatorTriggerOnLanded": "",
          "battouOnStart": true
        },
        "Attack03": {
          "$type": "BCNJGNDHFGP",
          "animatorStates": {
            "Attack03": [
              "Kazuha_Attack03",
              "SetComboCount3",
              "Interaction_Bad",
              "Audio_Boy_Kazuha_Attack03",
              "Emo_Avatar_Kazuha_Fight_Attack_03"
            ]
          },
          "onQuit": "combatMove",
          "canDoSkill": true,
          "resetAnimatorTriggerOnExit": [
            "BeHit"
          ],
          "setAnimatorBoolean": [
            {
              "name": "&CanCancelSkill"
            }
          ],
          "cameraType": "combatNormal",
          "canChangeAvatar": [
            {}
          ],
          "animatorTriggerOnLanded": "",
          "battouOnStart": true
        },
        "Attack04": {
          "$type": "BCNJGNDHFGP",
          "animatorStates": {
            "Attack04": [
              "Kazuha_Attack04",
              "SetComboCount4",
              "Interaction_Bad",
              "Audio_Boy_Kazuha_Attack04",
              "Emo_Avatar_Kazuha_Fight_Attack_04"
            ]
          },
          "onQuit": "combatMove",
          "canDoSkill": true,
          "resetAnimatorTriggerOnExit": [
            "BeHit"
          ],
          "setAnimatorBoolean": [
            {
              "name": "&CanCancelSkill"
            }
          ],
          "cameraType": "combatNormal",
          "canChangeAvatar": [
            {}
          ],
          "animatorTriggerOnLanded": "",
          "battouOnStart": true,
          "sheatheOnEnd": true
        },
        "Attack05": {
          "$type": "BCNJGNDHFGP",
          "animatorStates": {
            "Attack05": [
              "Kazuha_Attack05",
              "SetComboCount5",
              "Interaction_Bad",
              "Audio_Boy_Kazuha_Attack05",
              "Emo_Avatar_Kazuha_Fight_Attack_05"
            ]
          },
          "onQuit": "combatMove",
          "canDoSkill": true,
          "resetAnimatorTriggerOnExit": [
            "BeHit"
          ],
          "setAnimatorBoolean": [
            {
              "name": "&CanCancelSkill"
            }
          ],
          "cameraType": "combatNormal",
          "canChangeAvatar": [
            {}
          ],
          "animatorTriggerOnLanded": "",
          "battouOnStart": true,
          "sheatheOnEnd": true
        },
        "ExtraAttack": {
          "$type": "BCNJGNDHFGP",
          "animatorStates": {
            "ExtraAttack": [
              "Kazuha_ExtraAttack",
              "Interaction_Bad",
              "Audio_Boy_Kazuha_ExtraAttack",
              "Emo_Avatar_Kazuha_Fight_ExtraAttack"
            ]
          },
          "onQuit": "combatMove",
          "resetAnimatorTriggerOnExit": [
            "BeHit"
          ],
          "cameraType": "combatNormal",
          "animatorTriggerOnLanded": "",
          "battouOnStart": true
        },
        "ExtraAttack_AS": {
          "$type": "BCNJGNDHFGP",
          "animatorStates": {
            "ExtraAttack_AS": [
              "Kazuha_ExtraAttack_AS",
              "Audio_Boy_Kazuha_ExtraAttack_AS",
              "Emo_Avatar_Kazuha_Fight_ExtraAttack_AS"
            ]
          },
          "onQuit": "combatMove",
          "canDoSkill": true,
          "resetAnimatorTriggerOnExit": [
            "BeHit",
            "DoSkill",
            "Jump"
          ],
          "setAnimatorBoolean": [
            {
              "name": "&CanCancelSkill"
            }
          ],
          "cameraType": "combatNormal",
          "canChangeAvatar": [
            {}
          ],
          "animatorTriggerOnLanded": "",
          "battouOnStart": true,
          "sheatheOnEnd": true
        },
        "Kazuha_ElementalArt_BS": {
          "$type": "BCNJGNDHFGP",
          "animatorStates": {
            "Kazuha_ElementalArt_BS": [
              "Kazuha_ElementalArt_BS",
              "Emo_Avatar_Kazuha_Skill_ElementalArt_BS"
            ]
          },
          "onQuit": "combatMove",
          "canDoSkill": true,
          "addEndure": 0.4000000059604645,
          "resetAnimatorTriggerOnExit": [
            "BeHit"
          ],
          "cameraType": "combatNormal",
          "jumpCancelEnd": -1.0,
          "sprintCancelEnd": -1.0,
          "animatorTriggerOnLanded": "",
          "sheatheOnStart": true
        },
        "Kazuha_ElementalArt_Charge": {
          "$type": "BCNJGNDHFGP",
          "animatorStates": {
            "Kazuha_ElementalArt_Charge": [
              "Kazuha_ElementalArt_Charge",
              "Audio_Boy_Kazuha_ElementalArt_Charge",
              "Emo_Avatar_Kazuha_Skill_ElementalArt_Charge"
            ]
          },
          "onQuit": "combatMove",
          "canDoSkill": true,
          "addEndure": 0.4000000059604645,
          "resetAnimatorTriggerOnExit": [
            "BeHit"
          ],
          "cameraType": "combatNormal",
          "jumpCancelEnd": -1.0,
          "sprintCancelEnd": -1.0,
          "animatorTriggerOnLanded": "",
          "sheatheOnStart": true
        },
        "Kazuha_ElementalArt_Landed": {
          "$type": "BCNJGNDHFGP",
          "animatorStates": {
            "Kazuha_ElementalArt_Landed": [
              "Kazuha_ElementalArt_Landed",
              "Interaction_Bad",
              "CombatAir_Disable_Landavatar",
              "Audio_Boy_Kazuha_ElementalArt_Landed",
              "Emo_Avatar_Kazuha_Skill_ElementalArt"
            ]
          },
          "onQuit": "combatAir",
          "canDoSkill": true,
          "addEndure": 0.0,
          "resetAnimatorTriggerOnExit": [
            "BeHit",
            "DoSkill",
            "Jump"
          ],
          "setAnimatorBoolean": [
            {
              "name": "&CanUseAirSkill",
              "normalizeStart": 0.47999998927116394
            },
            {
              "name": "&IsElementalArt"
            }
          ],
          "enableCCD": true,
          "cameraType": "combatNormal",
          "actionPanelState": "Jump",
          "jumpCancelEnd": -1.0,
          "sprintCancelEnd": -1.0,
          "flyCancelEnd": 1.0,
          "animatorTriggerOnLanded": "",
          "sheatheOnStart": true
        },
        "Kazuha_ElementalArt_Air": {
          "$type": "BCNJGNDHFGP",
          "animatorStates": {
            "Kazuha_ElementalArt_Air": [
              "Kazuha_ElementalArt_Air",
              "Interaction_Bad",
              "CombatAir_Disable_Landavatar",
              "Audio_Boy_Kazuha_ElementalArt_Air",
              "Emo_Avatar_Kazuha_Skill_ElementalArt"
            ]
          },
          "onQuit": "combatAir",
          "canDoSkill": true,
          "addEndure": 0.0,
          "resetAnimatorTriggerOnExit": [
            "BeHit",
            "DoSkill",
            "Jump"
          ],
          "setAnimatorBoolean": [
            {
              "name": "&CanUseAirSkill",
              "normalizeStart": 0.47999998927116394
            },
            {
              "name": "&IsElementalArt"
            }
          ],
          "enableCCD": true,
          "cameraType": "combatNormal",
          "actionPanelState": "Jump",
          "jumpCancelEnd": -1.0,
          "sprintCancelEnd": -1.0,
          "flyCancelEnd": 1.0,
          "animatorTriggerOnLanded": "",
          "sheatheOnStart": true
        },
        "Kazuha_ElementalArt_Hold": {
          "$type": "BCNJGNDHFGP",
          "animatorStates": {
            "Kazuha_ElementalArt_Hold": [
              "Kazuha_ElementalArt_Hold",
              "Interaction_Bad",
              "CombatAir_Disable_Landavatar",
              "Audio_Boy_Kazuha_ElementalArt_Hold",
              "Emo_Avatar_Kazuha_Skill_ElementalArt_Hold"
            ]
          },
          "onQuit": "combatAir",
          "canDoSkill": true,
          "addEndure": 0.0,
          "resetAnimatorTriggerOnExit": [
            "BeHit",
            "DoSkill",
            "Jump"
          ],
          "setAnimatorBoolean": [
            {
              "name": "&CanUseAirSkill",
              "normalizeStart": 0.8999999761581421
            },
            {
              "name": "&IsElementalArt"
            }
          ],
          "enableCCD": true,
          "cameraType": "combatNormal",
          "jumpCancelEnd": -1.0,
          "sprintCancelEnd": -1.0,
          "flyCancelEnd": 1.0,
          "animatorTriggerOnLanded": "",
          "sheatheOnStart": true
        },
        "Kazuha_ElementalArt_Hold_AS": {
          "$type": "BCNJGNDHFGP",
          "animatorStates": {
            "Kazuha_ElementalArt_Hold_AS": [
              "CombatAir_Disable_Landavatar",
              "Audio_Boy_Kazuha_ElementalArt_Hold_AS",
              "Emo_Avatar_Kazuha_Skill_ElementalArt_Hold_AS"
            ]
          },
          "onQuit": "combatAir",
          "canDoSkill": true,
          "addEndure": 0.0,
          "resetAnimatorTriggerOnExit": [
            "BeHit",
            "DoSkill",
            "Jump"
          ],
          "setAnimatorBoolean": [
            {
              "name": "&CanUseAirSkill"
            },
            {
              "name": "&CanUseSkill"
            },
            {
              "name": "&IsElementalArt",
              "normalizeEnd": 0.5
            }
          ],
          "cameraType": "combatNormal",
          "jumpCancelEnd": -1.0,
          "sprintCancelEnd": -1.0,
          "flyCancelEnd": 1.0,
          "animatorTriggerOnLanded": "",
          "sheatheOnStart": true
        },
        "Kazuha_ElementalBurst": {
          "$type": "BCNJGNDHFGP",
          "animatorStates": {
            "Kazuha_ElementalBurst": [
              "Kazuha_ElementalBurst",
              "Interaction_Bad",
              "Audio_Boy_Kazuha_ElementalBurst"
            ]
          },
          "onQuit": "combatMove",
          "addEndure": 0.0,
          "resetAnimatorTriggerOnExit": [
            "BeHit"
          ],
          "jumpCancelEnd": -1.0,
          "sprintCancelEnd": -1.0,
          "animatorTriggerOnLanded": "",
          "battouOnStart": true
        },
        "Kazuha_ElementalBurst_AS": {
          "$type": "BCNJGNDHFGP",
          "animatorStates": {
            "Kazuha_ElementalBurst_AS": [
              "Kazuha_ElementalBurst_AS",
              "Audio_Boy_Kazuha_ElementalBurst_AS"
            ]
          },
          "onQuit": "combatMove",
          "canDoSkill": true,
          "resetAnimatorTriggerOnExit": [
            "BeHit",
            "DoSkill",
            "Jump"
          ],
          "setAnimatorBoolean": [
            {
              "name": "&CanUseSkill"
            }
          ],
          "canChangeAvatar": [
            {}
          ],
          "animatorTriggerOnLanded": "",
          "sheatheOnEnd": true
        },
        "ElementalArt_FallingAttack_BS": {
          "$type": "BCNJGNDHFGP",
          "animatorStates": {
            "ElementalArt_FallingAttack_BS": [
              "Kazuha_ElementalArt_FallingAttack_BS",
              "Audio_Boy_Kazuha_ElementalArt_FallingAttack_BS",
              "Emo_Avatar_Kazuha_Skill_ElementalArt_FallingAttack_BS"
            ]
          },
          "onQuit": "combatAir",
          "addEndure": 0.0,
          "resetAnimatorTriggerOnExit": [
            "BeHit",
            "DoSkill",
            "Jump"
          ],
          "actionPanelState": "Fly",
          "equipReattach": [
            {
              "equip": "equip01",
              "targetPoint": "WeaponR"
            }
          ],
          "jumpCancelEnd": -1.0,
          "animatorTriggerOnLanded": "HitAir2HitDrop",
          "battouOnStart": true
        },
        "ElementalArt_FallingAttack_Loop": {
          "$type": "BCNJGNDHFGP",
          "animatorStates": {
            "ElementalArt_FallingAttack_Loop": [
              "Emo_Avatar_Kazuha_Skill_ElementalArt_FallingAttack_Loop"
            ],
            "ElementalArt_FallingAttack_Loop_Low": [
              "Emo_Avatar_Kazuha_Skill_ElementalArt_FallingAttack_Loop"
            ]
          },
          "onQuit": "combatAir",
          "addEndure": 0.0,
          "resetAnimatorTriggerOnExit": [
            "BeHit",
            "DoSkill",
            "Jump"
          ],
          "cameraParam": {
            "radiusSpringRatio": 10.0
          },
          "actionPanelState": "Fly",
          "equipReattach": [
            {
              "equip": "equip01",
              "targetPoint": "WeaponR"
            }
          ],
          "animatorTriggerOnLanded": "HitAir2HitDrop",
          "battouOnStart": true
        },
        "ElementalArt_FallingAttack_Strike": {
          "$type": "BCNJGNDHFGP",
          "animatorStates": {
            "ElementalArt_FallingAttack_Strike": [
              "Kazuha_ElementalArt_FallingAttack",
              "Interaction_Bad",
              "Audio_Boy_Kazuha_ElementalArt_FallingAttack_Strike",
              "Emo_Avatar_Kazuha_Skill_ElementalArt_FallingAttack_Strike"
            ]
          },
          "onQuit": "combatMove",
          "canDoSkill": true,
          "addEndure": 0.0,
          "resetAnimatorTriggerOnExit": [
            "BeHit",
            "DoSkill",
            "Jump"
          ],
          "setAnimatorBoolean": [
            {
              "name": "&CanUseSkill",
              "normalizeStart": 0.3499999940395355
            }
          ],
          "cameraType": "combatNormal",
          "canChangeAvatar": [
            {
              "normalizeStart": 0.25
            }
          ],
          "equipReattach": [
            {
              "equip": "equip01",
              "targetPoint": "WeaponR"
            }
          ],
          "jumpCancelStart": 0.25,
          "sprintCancelStart": 0.15000000596046448,
          "animatorTriggerOnLanded": "",
          "battouOnStart": true
        },
        "ElementalArt_FallingAttack_AS": {
          "$type": "BCNJGNDHFGP",
          "animatorStates": {
            "ElementalArt_FallingAttack_AS": [
              "Kazuha_ElementalArt_FallingAttack_AS",
              "Audio_Boy_Kazuha_ElementalArt_FallingAttack_AS",
              "Emo_Avatar_Kazuha_Skill_ElementalArt_FallingAttack_Strike_AS"
            ]
          },
          "onQuit": "combatMove",
          "canDoSkill": true,
          "resetAnimatorTriggerOnExit": [
            "BeHit",
            "DoSkill",
            "Jump"
          ],
          "setAnimatorBoolean": [
            {
              "name": "&CanUseSkill"
            }
          ],
          "cameraType": "combatNormal",
          "canChangeAvatar": [
            {}
          ],
          "equipReattach": [
            {
              "equip": "equip01",
              "targetPoint": "WeaponR"
            }
          ],
          "animatorTriggerOnLanded": "",
          "battouOnStart": true,
          "sheatheOnEnd": true
        },
        "FallingAnthem_BS": {
          "$type": "BCNJGNDHFGP",
          "animatorStates": {
            "FallingAnthem_BS_1": [
              "Audio_Boy_Kazuha_FallingAnthem_BS_1",
              "Emo_Boy_Sword_FallingAttack_BS_01"
            ],
            "FallingAnthem_BS_2": [
              "Emo_Boy_Sword_FallingAttack_BS_02"
            ]
          },
          "onQuit": "combatAir",
          "addEndure": 0.0,
          "resetAnimatorTriggerOnExit": [
            "BeHit",
            "DoSkill",
            "Jump"
          ],
          "cameraType": "combatNormal",
          "actionPanelState": "Fly",
          "equipReattach": [
            {
              "equip": "equip01",
              "targetPoint": "WeaponR"
            }
          ],
          "jumpCancelEnd": -1.0,
          "animatorTriggerOnLanded": "HitAir2HitDrop",
          "battouOnStart": true
        },
        "FallingAnthem_Loop": {
          "$type": "BCNJGNDHFGP",
          "animatorStates": {
            "FallingAnthem_Loop": [],
            "FallingAnthem_Loop_Low": []
          },
          "onQuit": "combatAir",
          "addEndure": 0.0,
          "resetAnimatorTriggerOnExit": [
            "BeHit",
            "DoSkill",
            "Jump"
          ],
          "actionPanelState": "Fly",
          "equipReattach": [
            {
              "equip": "equip01",
              "targetPoint": "WeaponR"
            }
          ],
          "animatorTriggerOnLanded": "HitAir2HitDrop",
          "battouOnStart": true
        },
        "FallingAnthem_AS_1": {
          "$type": "BCNJGNDHFGP",
          "animatorStates": {
            "FallingAnthem_AS_1": [
              "Kazuha_FallingAnthem_Strike",
              "Interaction_Bad",
              "Audio_Boy_Kazuha_FallingAnthem_AS_1",
              "Emo_Boy_Sword_FallingAttack_AS_01"
            ]
          },
          "onQuit": "combatMove",
          "canDoSkill": true,
          "resetAnimatorTriggerOnExit": [
            "BeHit",
            "DoSkill",
            "Jump"
          ],
          "setAnimatorBoolean": [
            {
              "name": "&CanUseSkill",
              "normalizeStart": 0.800000011920929
            }
          ],
          "equipReattach": [
            {
              "equip": "equip01",
              "targetPoint": "WeaponR"
            }
          ],
          "jumpCancelEnd": -1.0,
          "animatorTriggerOnLanded": "",
          "battouOnStart": true
        },
        "FallingAnthem_AS_2": {
          "$type": "BCNJGNDHFGP",
          "animatorStates": {
            "FallingAnthem_AS_2": [
              "Audio_Boy_Kazuha_FallingAnthem_AS_2",
              "Emo_Boy_Sword_FallingAttack_AS_02"
            ]
          },
          "onQuit": "combatMove",
          "canDoSkill": true,
          "resetAnimatorTriggerOnExit": [
            "BeHit",
            "DoSkill",
            "Jump"
          ],
          "setAnimatorBoolean": [
            {
              "name": "&CanUseSkill"
            }
          ],
          "canChangeAvatar": [
            {}
          ],
          "equipReattach": [
            {
              "equip": "equip01",
              "targetPoint": "WeaponR"
            }
          ],
          "jumpCancelStart": 0.10000000149011612,
          "animatorTriggerOnLanded": "",
          "battouOnStart": true
        },
        "Sit": {
          "$type": "BCNJGNDHFGP",
          "animatorStates": {
            "SitDown": [
              "Audio_Girl_SitDown",
              "Audio_Boy_Sit_Kazuha"
            ],
            "SitLoop": [],
            "SitUp": [
              "Audio_Girl_SitDown",
              "Audio_Boy_Sit_Kazuha"
            ]
          },
          "onQuit": "performMove",
          "massRatio": 100.0,
          "actionPanelState": "Perform",
          "animatorTriggerOnLanded": "",
          "sheatheOnStart": true
        },
        "SitB": {
          "$type": "BCNJGNDHFGP",
          "animatorStates": {
            "SitBDown": [
              "Audio_Girl_SitDown",
              "Audio_Boy_Sit_Kazuha"
            ],
            "SitBLoop": [],
            "SitBUp": [
              "Audio_Girl_SitDown",
              "Audio_Boy_Sit_Kazuha"
            ]
          },
          "onQuit": "performMove",
          "massRatio": 100.0,
          "actionPanelState": "Perform",
          "animatorTriggerOnLanded": "",
          "sheatheOnStart": true
        },
        "StandbyShow": {
          "$type": "BCNJGNDHFGP",
          "animatorStates": {
            "StandbyVoice": [
              "Audio_Boy_StandbyVoice"
            ],
            "StandbyShow_01": [
              "Manekin_Kazuha_Show01",
              "Audio_Boy_Kazuha_StandbyShow_01_SFX"
            ],
            "StandbyShow_02": [
              "Manekin_Kazuha_Show02",
              "Audio_Boy_Kazuha_StandbyShow_02_SFX"
            ]
          },
          "onQuit": "performMove",
          "canDoSkill": true,
          "massRatio": 100.0,
          "setAnimatorBoolean": [
            {
              "name": "&CanUseSkill"
            }
          ],
          "canChangeAvatar": [
            {}
          ],
          "equipReattach": [
            {
              "equip": "equip01",
              "targetPoint": "WeaponL"
            }
          ],
          "animatorTriggerOnLanded": "",
          "sheatheOnStart": true
        },
        "TakePhotos": {
          "$type": "BCNJGNDHFGP",
          "animatorStates": {
            "Think01BS": [],
            "Akimbo02BS": [],
            "Think01Loop": [],
            "Akimbo02Loop": [],
            "Think01AS": [],
            "Akimbo02AS": []
          },
          "animatorTriggerOnLanded": ""
        },
        "Channel_BS": {
          "$type": "BCNJGNDHFGP",
          "animatorStates": {
            "ChannelBS": [
              "Emo_Avatar_Common_Manekin_Default"
            ]
          },
          "onQuit": "combatMove",
          "canDoSkill": true,
          "massRatio": 100.0,
          "resetAnimatorTriggerOnExit": [
            "BeHit",
            "DoSkill",
            "Jump"
          ],
          "setAnimatorBoolean": [
            {
              "name": "&CanUseSkill"
            }
          ],
          "canChangeAvatar": [
            {}
          ],
          "animatorTriggerOnLanded": "",
          "sheatheOnStart": true
        },
        "Channel_Loop": {
          "$type": "BCNJGNDHFGP",
          "animatorStates": {
            "ChannelLoop": []
          },
          "onQuit": "combatMove",
          "canDoSkill": true,
          "massRatio": 100.0,
          "resetAnimatorTriggerOnExit": [
            "BeHit",
            "DoSkill",
            "Jump"
          ],
          "setAnimatorBoolean": [
            {
              "name": "&CanUseSkill"
            }
          ],
          "canChangeAvatar": [
            {}
          ],
          "animatorTriggerOnLanded": "",
          "sheatheOnStart": true
        },
        "Channel_AS": {
          "$type": "BCNJGNDHFGP",
          "animatorStates": {
            "ChannelAS": []
          },
          "onQuit": "combatMove",
          "canDoSkill": true,
          "massRatio": 100.0,
          "resetAnimatorTriggerOnExit": [
            "BeHit",
            "DoSkill",
            "Jump"
          ],
          "setAnimatorBoolean": [
            {
              "name": "&CanUseSkill"
            }
          ],
          "canChangeAvatar": [
            {}
          ],
          "animatorTriggerOnLanded": "",
          "sheatheOnStart": true
        },
        "PlayMusic_Lyre": {
          "$type": "BCNJGNDHFGP",
          "animatorStates": {
            "PlayMusic_Lyre_BS": [
              "PlayMusic_Lyre_Boy"
            ],
            "PlayMusic_Lyre_Loop": []
          },
          "onQuit": "combatMove",
          "massRatio": 100.0,
          "resetAnimatorTriggerOnExit": [
            "BeHit",
            "DoSkill",
            "Jump"
          ],
          "animatorTriggerOnLanded": "",
          "sheatheOnStart": true
        },
        "PlayMusic_Lyre_AS": {
          "$type": "BCNJGNDHFGP",
          "animatorStates": {
            "PlayMusic_Lyre_AS": [
              "PlayMusic_Lyre_Boy_AS"
            ]
          },
          "onQuit": "combatMove",
          "canDoSkill": true,
          "massRatio": 100.0,
          "resetAnimatorTriggerOnExit": [
            "BeHit",
            "DoSkill",
            "Jump"
          ],
          "setAnimatorBoolean": [
            {
              "name": "&CanUseSkill"
            }
          ],
          "canChangeAvatar": [
            {}
          ],
          "animatorTriggerOnLanded": "",
          "sheatheOnStart": true
        },
        "PlayMusic_Qin": {
          "$type": "BCNJGNDHFGP",
          "animatorStates": {
            "PlayMusic_Qin_BS": [
              "PlayMusic_Qin_Boy"
            ],
            "PlayMusic_Qin_Loop": []
          },
          "onQuit": "combatMove",
          "massRatio": 100.0,
          "resetAnimatorTriggerOnExit": [
            "BeHit",
            "DoSkill",
            "Jump"
          ],
          "animatorTriggerOnLanded": "",
          "sheatheOnStart": true
        },
        "PlayMusic_Qin_AS": {
          "$type": "BCNJGNDHFGP",
          "animatorStates": {
            "PlayMusic_Qin_AS": [
              "PlayMusic_Qin_Boy_AS"
            ]
          },
          "onQuit": "combatMove",
          "canDoSkill": true,
          "massRatio": 100.0,
          "resetAnimatorTriggerOnExit": [
            "BeHit",
            "DoSkill",
            "Jump"
          ],
          "setAnimatorBoolean": [
            {
              "name": "&CanUseSkill"
            }
          ],
          "canChangeAvatar": [
            {}
          ],
          "animatorTriggerOnLanded": "",
          "sheatheOnStart": true
        },
        "PlayMusic_Drum": {
          "$type": "BCNJGNDHFGP",
          "animatorStates": {
            "PlayMusic_Drum_BS": [
              "PlayMusic_Drum_Boy"
            ],
            "PlayMusic_Drum_Loop": []
          },
          "onQuit": "combatMove",
          "massRatio": 100.0,
          "resetAnimatorTriggerOnExit": [
            "BeHit",
            "DoSkill",
            "Jump"
          ],
          "animatorTriggerOnLanded": "",
          "sheatheOnStart": true
        },
        "PlayMusic_Drum_AS": {
          "$type": "BCNJGNDHFGP",
          "animatorStates": {
            "PlayMusic_Drum_AS": [
              "PlayMusic_Drum_Boy_AS"
            ]
          },
          "onQuit": "combatMove",
          "canDoSkill": true,
          "massRatio": 100.0,
          "resetAnimatorTriggerOnExit": [
            "BeHit",
            "DoSkill",
            "Jump"
          ],
          "setAnimatorBoolean": [
            {
              "name": "&CanUseSkill"
            }
          ],
          "canChangeAvatar": [
            {}
          ],
          "animatorTriggerOnLanded": "",
          "sheatheOnStart": true
        },
        "PlayMusic_FrenchHorn": {
          "$type": "BCNJGNDHFGP",
          "animatorStates": {
            "PlayMusic_FrenchHorn_BS": [
              "PlayMusic_Frenchhorn_Boy"
            ],
            "PlayMusic_FrenchHorn_Loop": [
              "PlayMusic_Frenchhorn_Boy_Loop"
            ]
          },
          "onQuit": "combatMove",
          "massRatio": 100.0,
          "resetAnimatorTriggerOnExit": [
            "BeHit",
            "DoSkill",
            "Jump"
          ],
          "animatorTriggerOnLanded": "",
          "sheatheOnStart": true
        },
        "PlayMusic_FrenchHorn_AS": {
          "$type": "BCNJGNDHFGP",
          "animatorStates": {
            "PlayMusic_FrenchHorn_AS": [
              "PlayMusic_Frenchhorn_Boy_AS"
            ]
          },
          "onQuit": "combatMove",
          "canDoSkill": true,
          "massRatio": 100.0,
          "resetAnimatorTriggerOnExit": [
            "BeHit",
            "DoSkill",
            "Jump"
          ],
          "setAnimatorBoolean": [
            {
              "name": "&CanUseSkill"
            }
          ],
          "canChangeAvatar": [
            {}
          ],
          "animatorTriggerOnLanded": "",
          "sheatheOnStart": true
        },
        "ActivitySkill_ElectricCoreFly": {
          "$type": "BCNJGNDHFGP",
          "animatorStates": {
            "ActivitySkill_ElectricCoreFly": []
          },
          "onQuit": "combatAir",
          "massRatio": 100.0,
          "resetAnimatorTriggerOnEnter": [
            "ElectricCoreFly_End"
          ],
          "resetAnimatorTriggerOnExit": [
            "BeHit",
            "DoSkill",
            "Jump",
            "ElectricCoreFly_End"
          ],
          "animatorTriggerOnLanded": "",
          "sheatheOnStart": true
        },
        "ActivitySkill_GrapplingHook": {
          "$type": "BCNJGNDHFGP",
          "animatorStates": {
            "ActivitySkill_GrapplingHook": []
          },
          "onQuit": "combatAir",
          "massRatio": 100.0,
          "resetAnimatorTriggerOnEnter": [
            "GrapplingHook_Drop"
          ],
          "resetAnimatorTriggerOnExit": [
            "BeHit",
            "DoSkill",
            "Jump",
            "GrapplingHook_Drop"
          ],
          "animatorTriggerOnLanded": "",
          "sheatheOnStart": true
        },
        "ActivitySkill_CustomSkill01": {
          "$type": "BCNJGNDHFGP",
          "animatorStates": {
            "ActivitySkill_CustomSkill01": []
          },
          "onQuit": "combatAir",
          "canDoSkill": true,
          "massRatio": 100.0,
          "resetAnimatorTriggerOnEnter": [
            "CustomSkill_End_Fly",
            "CustomSkill_End_Drop"
          ],
          "resetAnimatorTriggerOnExit": [
            "BeHit",
            "DoSkill",
            "Jump",
            "CustomSkill_End_Fly",
            "CustomSkill_End_Drop"
          ],
          "animatorTriggerOnLanded": "",
          "sheatheOnStart": true
        },
        "ActivitySkill_CustomSkill02": {
          "$type": "BCNJGNDHFGP",
          "animatorStates": {
            "ActivitySkill_CustomSkill02": []
          },
          "onQuit": "combatAir",
          "canDoSkill": true,
          "massRatio": 100.0,
          "resetAnimatorTriggerOnEnter": [
            "CustomSkill_End_Fly",
            "CustomSkill_End_Drop"
          ],
          "resetAnimatorTriggerOnExit": [
            "BeHit",
            "DoSkill",
            "Jump",
            "CustomSkill_End_Fly",
            "CustomSkill_End_Drop"
          ],
          "animatorTriggerOnLanded": "",
          "sheatheOnStart": true
        },
        "ActivitySkill_CommonMove": {
          "$type": "BCNJGNDHFGP",
          "animatorStates": {
            "ActivitySkill_CommonMove": []
          },
          "addEndure": 0.0,
          "massRatio": 100.0,
          "resetAnimatorTriggerOnExit": [
            "BeHit",
            "DoSkill",
            "Jump"
          ],
          "handleAnimatorStateImmediately": true,
          "jumpCancelStart": -1.0,
          "sprintCancelStart": -1.0,
          "animatorTriggerOnLanded": "",
          "sheatheOnStart": true
        },
        "DiveChannel_BS": {
          "$type": "BCNJGNDHFGP",
          "animatorStates": {
            "DiveChannelBS": [
              "Emo_Avatar_Common_Manekin_Default",
              "Audio_Boy_DiveChannel_BS"
            ]
          },
          "onQuit": "combatDive",
          "massRatio": 100.0,
          "resetAnimatorTriggerOnExit": [
            "BeHit",
            "DoSkill",
            "Jump"
          ],
          "setAnimatorBoolean": [
            {
              "name": "&CanUseSkill"
            }
          ],
          "canChangeAvatar": [
            {}
          ],
          "actionPanelState": "Dive",
          "sprintCancelEnd": -1.0,
          "animatorTriggerOnLanded": "",
          "sheatheOnStart": true
        },
        "DiveChannel_Loop": {
          "$type": "BCNJGNDHFGP",
          "animatorStates": {
            "DiveChannelLoop": []
          },
          "onQuit": "combatDive",
          "massRatio": 100.0,
          "resetAnimatorTriggerOnExit": [
            "BeHit",
            "DoSkill",
            "Jump"
          ],
          "setAnimatorBoolean": [
            {
              "name": "&CanUseSkill"
            }
          ],
          "canChangeAvatar": [
            {}
          ],
          "actionPanelState": "Dive",
          "sprintCancelEnd": -1.0,
          "animatorTriggerOnLanded": "",
          "sheatheOnStart": true
        },
        "DiveChannel_AS": {
          "$type": "BCNJGNDHFGP",
          "animatorStates": {
            "DiveChannelAS": [
              "Audio_Boy_DiveChannel_AS"
            ]
          },
          "onQuit": "combatDive",
          "canDoSkill": true,
          "canDoSkillStart": 0.30000001192092896,
          "massRatio": 100.0,
          "resetAnimatorTriggerOnExit": [
            "BeHit",
            "DoSkill",
            "Jump"
          ],
          "setAnimatorBoolean": [
            {
              "name": "&CanUseSkill"
            }
          ],
          "canChangeAvatar": [
            {}
          ],
          "actionPanelState": "Dive",
          "sprintCancelStart": 0.11999999731779099,
          "animatorTriggerOnLanded": "",
          "sheatheOnStart": true
        },
        "DiveCast_BS": {
          "$type": "BCNJGNDHFGP",
          "animatorStates": {
            "DiveCast_BS": [
              "Emo_Avatar_Common_Manekin_Default",
              "Audio_Boy_DiveCast_BS"
            ]
          },
          "onQuit": "combatDive",
          "massRatio": 100.0,
          "resetAnimatorTriggerOnExit": [
            "BeHit",
            "DoSkill",
            "Jump"
          ],
          "setAnimatorBoolean": [
            {
              "name": "&CanUseSkill"
            }
          ],
          "canChangeAvatar": [
            {}
          ],
          "actionPanelState": "Dive",
          "sprintCancelEnd": -1.0,
          "animatorTriggerOnLanded": "",
          "sheatheOnStart": true
        },
        "DiveCast_Loop": {
          "$type": "BCNJGNDHFGP",
          "animatorStates": {
            "DiveCast_Loop": []
          },
          "onQuit": "combatDive",
          "massRatio": 100.0,
          "resetAnimatorTriggerOnExit": [
            "BeHit",
            "DoSkill",
            "Jump"
          ],
          "setAnimatorBoolean": [
            {
              "name": "&CanUseSkill"
            }
          ],
          "canChangeAvatar": [
            {}
          ],
          "actionPanelState": "Dive",
          "sprintCancelEnd": -1.0,
          "animatorTriggerOnLanded": "",
          "sheatheOnStart": true
        },
        "DiveCast_AS": {
          "$type": "BCNJGNDHFGP",
          "animatorStates": {
            "DiveCast_AS": [
              "Audio_Boy_DiveCast_AS"
            ]
          },
          "onQuit": "combatDive",
          "canDoSkill": true,
          "canDoSkillStart": 0.10000000149011612,
          "massRatio": 100.0,
          "resetAnimatorTriggerOnExit": [
            "BeHit",
            "DoSkill",
            "Jump"
          ],
          "setAnimatorBoolean": [
            {
              "name": "&CanUseSkill"
            }
          ],
          "canChangeAvatar": [
            {}
          ],
          "actionPanelState": "Dive",
          "sprintCancelStart": 0.09000000357627869,
          "animatorTriggerOnLanded": "",
          "sheatheOnStart": true
        },
        "Dive": {
          "$type": "BCNJGNDHFGP",
          "animatorStates": {
            "DiveIdle": [],
            "DiveMoveBS": [
              "Audio_Boy_Dive_MoveBS"
            ],
            "DiveMoveAS": [
              "Audio_Boy_Dive_MoveAS"
            ],
            "DiveMoveU_A": [
              "Audio_Boy_Dive_MoveU_A"
            ],
            "DiveMoveU_B": [
              "Audio_Boy_Dive_MoveU_B"
            ],
            "DiveMoveF_A": [],
            "DiveMoveF_B": [
              "Audio_Boy_Dive_MoveF_B"
            ],
            "DiveMoveD_A": [
              "Audio_Boy_Dive_MoveD_A"
            ],
            "DiveMoveD_B": [
              "Audio_Boy_Dive_MoveD_B"
            ],
            "DiveTurn": [
              "Audio_Boy_Dive_Turn"
            ],
            "DiveTurnAS": [
              "Audio_Boy_Dive_Turn_AS"
            ],
            "DiveTurn2": [
              "Audio_Boy_Dive_Turn"
            ],
            "DiveTurnAS2": [
              "Audio_Boy_Dive_Turn_AS"
            ],
            "DiveDashBS": [
              "Audio_Boy_Dive_Dash_BS"
            ],
            "DiveDashAS": [
              "Audio_Boy_Dive_Dash_AS"
            ],
            "DiveDash": [],
            "DiveDashB": [
              "Audio_Boy_Dive_Out_DashB"
            ],
            "DiveSuperDash": [
              "Audio_Boy_Dive_SuperDash"
            ],
            "DiveSuperDash2": [
              "Audio_Boy_Dive_SuperDash2"
            ]
          },
          "canDoSkill": true,
          "resetAnimatorTriggerOnEnter": [
            "DoSkill"
          ],
          "setAnimatorBoolean": [
            {
              "name": "&CanUseSkill"
            }
          ],
          "canChangeAvatar": [
            {}
          ],
          "actionPanelState": "Dive",
          "animatorTriggerOnLanded": "",
          "sheatheOnStart": true
        },
        "Dive_In_Out": {
          "$type": "BCNJGNDHFGP",
          "animatorStates": {
            "Dive_In_Up": [
              "Audio_Boy_Dive_In_Up"
            ],
            "Dive_In_Side": [
              "Audio_Boy_Dive_In_Side"
            ],
            "Dive_In_Bottom": [
              "Audio_Boy_Dive_In_Bottom"
            ],
            "Dive_Out_Side": [
              "Audio_Boy_Dive_Out_Side"
            ],
            "Dive_Out_Bottom": [
              "Audio_Boy_Dive_Out_Bottom"
            ],
            "Dive_Out_Up": [
              "Audio_Boy_Dive_Out_Up"
            ]
          },
          "resetAnimatorTriggerOnEnter": [
            "DoSkill"
          ],
          "setAnimatorBoolean": [
            {
              "name": "&CanUseSkill"
            }
          ],
          "actionPanelState": "Dive",
          "animatorTriggerOnLanded": "",
          "sheatheOnStart": true
        },
        "DiveStream": {
          "$type": "BCNJGNDHFGP",
          "animatorStates": {
            "DiveStreamIn": [
              "Audio_Boy_Dive_Stream_In"
            ],
            "DiveStreamOut": [
              "Audio_Boy_Dive_Stream_Out"
            ],
            "DiveStream": [],
            "DiveStreamRoll_L": [
              "Audio_Boy_Dive_Stream_Roll_L"
            ],
            "DiveStreamRoll_R": [
              "Audio_Boy_Dive_Stream_Roll_R"
            ]
          },
          "canDoSkill": true,
          "resetAnimatorTriggerOnEnter": [
            "DoSkill"
          ],
          "setAnimatorBoolean": [
            {
              "name": "&CanUseSkill"
            }
          ],
          "actionPanelState": "Dive",
          "animatorTriggerOnLanded": "",
          "sheatheOnStart": true
        },
        "DiveJump": {
          "$type": "BCNJGNDHFGP",
          "animatorStates": {
            "Dive_Out_DashU": [
              "Audio_Boy_Dive_Out_DashU"
            ],
            "Dive_Out_DashD": [
              "Audio_Boy_Dive_Out_DashD"
            ],
            "Dive_Out_DashFBS": [
              "Audio_Boy_Dive_Out_DashFBS"
            ],
            "Dive_Out_DashFAS": [
              "Audio_Boy_Dive_Out_DashFAS"
            ],
            "Dive_Out_DashFLoop": []
          },
          "canDoSkill": true,
          "resetAnimatorTriggerOnEnter": [
            "DoSkill",
            "AimEnd"
          ],
          "setAnimatorBoolean": [
            {
              "name": "&CanUseAirSkill"
            }
          ],
          "actionPanelState": "Jump",
          "animatorTriggerOnLanded": "",
          "sheatheOnStart": true
        },
        "BeHitDive": {
          "$type": "BCNJGNDHFGP",
          "animatorStates": {
            "BeHitDive": [
              "Audio_Boy_Dive_beHit"
            ],
            "DiveStruggle": []
          },
          "onQuit": "combatDive",
          "resetAnimatorTriggerOnEnter": [
            "BeHit"
          ],
          "resetAnimatorTriggerOnExit": [
            "DoSkill"
          ],
          "cameraType": "combatBeHit",
          "actionPanelState": "Dive",
          "jumpCancelEnd": 0.0,
          "animatorTriggerOnLanded": "",
          "sheatheOnStart": true
        },
        "MultiOverride_01": {
          "$type": "BCNJGNDHFGP",
          "animatorStates": {
            "MultiOverrideBS_01": [],
            "MultiOverrideLoop_01": [],
            "MultiOverrideAS_01": []
          },
          "animatorTriggerOnLanded": ""
        },
        "MultiOverride2": {
          "$type": "BCNJGNDHFGP",
          "animatorStates": {
            "MultiOverrideBS_02": [],
            "MultiOverrideLoop_02": [],
            "MultiOverrideAS_02": []
          },
          "animatorTriggerOnLanded": ""
        },
        "MultiOverride3": {
          "$type": "BCNJGNDHFGP",
          "animatorStates": {
            "MultiOverrideBS_03": [],
            "MultiOverrideLoop_03": [],
            "MultiOverrideAS_03": []
          },
          "animatorTriggerOnLanded": ""
        },
        "MultiOverride": {
          "$type": "BCNJGNDHFGP",
          "DAJBEEPCPBH": {
            "Ani_Avatar_Boy_Sword_Kazuha_Photo01BS": [],
            "Ani_Avatar_Boy_Sword_Kazuha_Photo01Loop": [],
            "Ani_Avatar_Boy_Sword_Kazuha_Photo01AS": [],
            "Ani_Avatar_Boy_Sword_Kazuha_Photo02BS": [],
            "Ani_Avatar_Boy_Sword_Kazuha_Photo02Loop": [],
            "Ani_Avatar_Boy_Sword_Kazuha_Photo02AS": []
          },
          "animatorTriggerOnLanded": ""
        }
      }
    },
    "diveLayer": {
      "$type": "AEMHOACJLIB",
      "layerIndex": 5,
      "layerIndexName": "DiveLayer",
      "GCIDDLIDFAE": ""
    }
  },
  "audio": {
    "overrideEmitterName": "",
    "animAudio": {
      "onTransitionIn": [
        {
          "currentStateName": "SlipFaceWall",
          "audioEvent": {
            "text": "Play_sfx_char_slipWall"
          }
        },
        {
          "currentStateName": "SlipBackWall",
          "audioEvent": {
            "text": "Play_sfx_char_slipWall"
          }
        },
        {
          "currentStateName": "NormalDie",
          "audioEvent": {
            "text": "Play_sfx_char_land"
          },
          "otherStateNames": [
            "FallOnGround"
          ],
          "usage": "InSet"
        },
        {
          "currentStateName": "SprintBS",
          "audioEvent": {
            "text": "Play_sfx_char_foley_flutter_heavy"
          }
        },
        {
          "currentStateName": "CrouchIdle",
          "audioEvent": {
            "text": "Play_sfx_char_foley_cloth_middle"
          }
        },
        {
          "currentStateName": "SwimJumpToWater",
          "audioEvent": {
            "text": "Stop_sfx_char_swim_dive"
          }
        },
        {
          "currentStateName": "SwimDash",
          "audioEvent": {
            "text": "Play_sfx_char_swim_dash"
          }
        },
        {
          "currentStateName": "Standby",
          "audioEvent": {
            "text": "Stop_sfx_char_fly"
          }
        },
        {
          "currentStateName": "DiveDash",
          "audioEvent": {
            "text": "Play_sfx_char_dive_dash_lp"
          },
          "otherStateNames": [
            "DiveDashBS"
          ],
          "usage": "InSet"
        },
        {
          "currentStateName": "DiveStream",
          "audioEvent": {
            "text": "Play_sfx_char_dive_stream_lp"
          }
        },
        {
          "currentStateName": "Dive_Out_DashFLoop",
          "audioEvent": {
            "text": "Play_sfx_char_dive_out_dashFLoop"
          }
        },
        {
          "currentStateName": "DiveMoveF_A",
          "audioEvent": {
            "text": "Play_sfx_char_dive_moveF_A"
          }
        },
        {
          "currentStateName": "DiveChannel_Loop",
          "audioEvent": {
            "text": "Play_vfx_Avatar_Diving_Channel_LP"
          }
        }
      ],
      "onTransitionOut": [
        {
          "currentStateName": "Attack03",
          "audioEvent": {
            "text": "Stop_sfx_char_kazuha_1HSword_attack"
          }
        },
        {
          "currentStateName": "Attack05",
          "audioEvent": {
            "text": "Stop_sfx_char_kazuha_1HSword_attack"
          }
        },
        {
          "currentStateName": "Attack04",
          "audioEvent": {
            "text": "Stop_sfx_char_kazuha_1HSword_attack"
          }
        },
        {
          "currentStateName": "ExtraAttack",
          "audioEvent": {
            "text": "Stop_sfx_char_kazuha_1HSword_extraAtk"
          },
          "otherStateNames": [
            "ExtraAttack_AS"
          ],
          "usage": "Except"
        },
        {
          "currentStateName": "ExtraAttack_AS",
          "audioEvent": {
            "text": "Stop_sfx_char_kazuha_1HSword_attack"
          }
        },
        {
          "currentStateName": "ElementalArt_Landed",
          "audioEvent": {
            "text": "Stop_sfx_char_kazuha_elementalArt_jump"
          }
        },
        {
          "currentStateName": "ElementalArt_Air",
          "audioEvent": {
            "text": "Stop_sfx_char_kazuha_elementalArt_jump"
          }
        },
        {
          "currentStateName": "ElementalArt_Hold",
          "audioEvent": {
            "text": "Stop_sfx_char_kazuha_elementalArt_jump_charge"
          }
        },
        {
          "currentStateName": "ElementalArt_FallingAttack_AS",
          "audioEvent": {
            "text": "Stop_sfx_char_kazuha_1HSword_attack"
          }
        },
        {
          "currentStateName": "ElementalBurst_AS",
          "audioEvent": {
            "text": "Stop_sfx_char_kazuha_1HSword_attack"
          }
        },
        {
          "currentStateName": "StandbyShow01",
          "audioEvent": {
            "text": "Stop_sfx_standbyShow_kazuha_01"
          }
        },
        {
          "currentStateName": "StandbyShow02",
          "audioEvent": {
            "text": "Stop_sfx_standbyShow_kazuha_02"
          }
        },
        {
          "currentStateName": "StandbyPutaway",
          "audioEvent": {
            "text": "Stop_sfx_weapon_1HSword_boy_putAway"
          }
        },
        {
          "currentStateName": "WalkPutaway",
          "audioEvent": {
            "text": "Stop_sfx_weapon_1HSword_lady_putAwayStandby"
          }
        },
        {
          "currentStateName": "RunPutaway",
          "audioEvent": {
            "text": "Stop_sfx_weapon_1HSword_lady_putAwayStandby"
          }
        },
        {
          "currentStateName": "SwimJumpDrop",
          "audioEvent": {
            "text": "Stop_sfx_char_swim_drop"
          }
        },
        {
          "currentStateName": "SwimJump",
          "audioEvent": {
            "text": "Stop_sfx_char_swim_drop"
          },
          "otherStateNames": [
            "SwimJumpDrop"
          ],
          "usage": "Except"
        },
        {
          "currentStateName": "SwimJump",
          "audioEvent": {
            "text": "Stop_sfx_char_swim_dive"
          }
        },
        {
          "currentStateName": "Fly",
          "audioEvent": {
            "text": "Play_sfx_char_land_climb"
          },
          "otherStateNames": [
            "ClimbIdle",
            "ClimbMove0",
            "ClimbMove1",
            "ClimbJump"
          ],
          "usage": "InSet"
        },
        {
          "currentStateName": "FlyStart",
          "audioEvent": {
            "text": "Play_sfx_char_land_climb"
          },
          "otherStateNames": [
            "ClimbIdle",
            "ClimbMove0",
            "ClimbMove1",
            "ClimbJump"
          ],
          "usage": "InSet"
        },
        {
          "currentStateName": "DropDownLit",
          "audioEvent": {
            "text": "Play_sfx_char_land_climb"
          },
          "otherStateNames": [
            "ClimbIdle",
            "ClimbMove0",
            "ClimbMove1",
            "ClimbJump"
          ],
          "usage": "InSet"
        },
        {
          "currentStateName": "DropDown",
          "audioEvent": {
            "text": "Play_sfx_char_land_climb"
          },
          "otherStateNames": [
            "ClimbIdle",
            "ClimbMove0",
            "ClimbMove1",
            "ClimbJump"
          ],
          "usage": "InSet"
        },
        {
          "currentStateName": "WalkDropDownLit",
          "audioEvent": {
            "text": "Play_sfx_char_land_climb"
          },
          "otherStateNames": [
            "ClimbIdle",
            "ClimbMove0",
            "ClimbMove1",
            "ClimbJump"
          ],
          "usage": "InSet"
        },
        {
          "currentStateName": "Jump",
          "audioEvent": {
            "text": "Play_sfx_char_land_climb"
          },
          "otherStateNames": [
            "ClimbIdle",
            "ClimbMove0",
            "ClimbMove1",
            "ClimbJump"
          ],
          "usage": "InSet"
        },
        {
          "currentStateName": "JumpForWalk",
          "audioEvent": {
            "text": "Play_sfx_char_land_climb"
          },
          "otherStateNames": [
            "ClimbIdle",
            "ClimbMove0",
            "ClimbMove1",
            "ClimbJump"
          ],
          "usage": "InSet"
        },
        {
          "currentStateName": "JumpForRun",
          "audioEvent": {
            "text": "Play_sfx_char_land_climb"
          },
          "otherStateNames": [
            "ClimbIdle",
            "ClimbMove0",
            "ClimbMove1",
            "ClimbJump"
          ],
          "usage": "InSet"
        },
        {
          "currentStateName": "JumpForSprint",
          "audioEvent": {
            "text": "Play_sfx_char_land_climb"
          },
          "otherStateNames": [
            "ClimbIdle",
            "ClimbMove0",
            "ClimbMove1",
            "ClimbJump"
          ],
          "usage": "InSet"
        },
        {
          "currentStateName": "JumpWeapon",
          "audioEvent": {
            "text": "Play_sfx_char_land_climb"
          },
          "otherStateNames": [
            "ClimbIdle",
            "ClimbMove0",
            "ClimbMove1",
            "ClimbJump"
          ],
          "usage": "InSet"
        },
        {
          "currentStateName": "JumpForWalkWeapon",
          "audioEvent": {
            "text": "Play_sfx_char_land_climb"
          },
          "otherStateNames": [
            "ClimbIdle",
            "ClimbMove0",
            "ClimbMove1",
            "ClimbJump"
          ],
          "usage": "InSet"
        },
        {
          "currentStateName": "JumpForRunWeapon",
          "audioEvent": {
            "text": "Play_sfx_char_land_climb"
          },
          "otherStateNames": [
            "ClimbIdle",
            "ClimbMove0",
            "ClimbMove1",
            "ClimbJump"
          ],
          "usage": "InSet"
        },
        {
          "currentStateName": "DropDownWeapon",
          "audioEvent": {
            "text": "Play_sfx_char_land_climb"
          },
          "otherStateNames": [
            "ClimbIdle",
            "ClimbMove0",
            "ClimbMove1",
            "ClimbJump"
          ],
          "usage": "InSet"
        },
        {
          "currentStateName": "DropDownLitWeapon",
          "audioEvent": {
            "text": "Play_sfx_char_land_climb"
          },
          "otherStateNames": [
            "ClimbIdle",
            "ClimbMove0",
            "ClimbMove1",
            "ClimbJump"
          ],
          "usage": "InSet"
        },
        {
          "currentStateName": "SwimMove",
          "audioEvent": {
            "text": "Stop_sfx_char_swim"
          }
        },
        {
          "currentStateName": "Standby",
          "audioEvent": {
            "text": "Play_sfx_char_foley_flutter_light"
          },
          "otherStateNames": [
            "Walk",
            "Run"
          ],
          "usage": "InSet"
        },
        {
          "currentStateName": "StandbyWeapon",
          "audioEvent": {
            "text": "Play_sfx_char_foley_flutter_light"
          },
          "otherStateNames": [
            "WalkWeapon",
            "RunWeapon"
          ],
          "usage": "InSet"
        },
        {
          "currentStateName": "SlipFaceWall",
          "audioEvent": {
            "text": "Stop_sfx_char_drop"
          }
        },
        {
          "currentStateName": "SlipFaceWall",
          "audioEvent": {
            "text": "Stop_sfx_char_slipWall"
          }
        },
        {
          "currentStateName": "SlipBackWall",
          "audioEvent": {
            "text": "Stop_sfx_char_drop"
          }
        },
        {
          "currentStateName": "SlipBackWall",
          "audioEvent": {
            "text": "Stop_sfx_char_slipWall"
          }
        },
        {
          "currentStateName": "StandbyShow_01",
          "audioEvent": {
            "text": "Stop_sfx_standbyShow_hero_blink"
          }
        },
        {
          "currentStateName": "StandbyShow_02",
          "audioEvent": {
            "text": "Stop_vo_external_1P_3D"
          }
        },
        {
          "currentStateName": "StandbyShow_02",
          "audioEvent": {
            "text": "Stop_sfx_standbyShow_hero_body"
          }
        },
        {
          "currentStateName": "Fly",
          "audioEvent": {
            "text": "Stop_sfx_char_fly"
          }
        },
        {
          "currentStateName": "DiveDash",
          "audioEvent": {
            "text": "Stop_sfx_char_dive_dash_lp"
          },
          "otherStateNames": [
            "DiveDashB",
            "DiveTurn",
            "DiveTurn2"
          ],
          "usage": "Except"
        },
        {
          "currentStateName": "DiveStream",
          "audioEvent": {
            "text": "Stop_sfx_char_dive_stream_lp"
          },
          "otherStateNames": [
            "DiveStreamRoll_L",
            "DiveStreamRoll_R"
          ],
          "usage": "Except"
        },
        {
          "currentStateName": "DiveMoveAS",
          "audioEvent": {
            "text": "Stop_sfx_char_dive_move_AS"
          }
        },
        {
          "currentStateName": "Dive_Out_DashFLoop",
          "audioEvent": {
            "text": "Stop_sfx_char_dive_out_dashFLoop"
          }
        },
        {
          "currentStateName": "DiveIdle",
          "audioEvent": {
            "text": "Stop_sfx_char_dive_dash_lp"
          }
        },
        {
          "currentStateName": "Dive_Out_Up",
          "audioEvent": {
            "text": "Stop_sfx_char_dive_moveF_A"
          }
        },
        {
          "currentStateName": "DiveChannel_Loop",
          "audioEvent": {
            "text": "Stop_vfx_Avatar_Diving_Channel_LP"
          }
        },
        {
          "currentStateName": "DiveMoveU_A",
          "audioEvent": {
            "text": "Stop_sfx_char_dive_moveU_A"
          }
        },
        {
          "currentStateName": "DiveMoveF_A",
          "audioEvent": {
            "text": "Stop_sfx_char_dive_moveF_A"
          }
        }
      ],
      "recurrentSpeeches": {
        "Standby": {
          "start": {
            "upper": 28.0,
            "lower": 23.0
          },
          "interval": {
            "upper": 40.0,
            "lower": 34.0
          },
          "eventName": {
            "text": ""
          }
        },
        "Walk": {
          "start": {
            "upper": 16.0,
            "lower": 13.0
          },
          "interval": {
            "upper": 14.0,
            "lower": 10.0
          },
          "eventName": {
            "text": ""
          }
        },
        "Run": {
          "start": {
            "upper": 13.0,
            "lower": 9.0
          },
          "interval": {
            "upper": 11.0,
            "lower": 8.0
          },
          "eventName": {
            "text": ""
          }
        },
        "Sprint": {
          "start": {
            "upper": 12.0,
            "lower": 7.0
          },
          "interval": {
            "upper": 9.0,
            "lower": 6.0
          },
          "eventName": {
            "text": ""
          }
        }
      }
    },
    "moveStateAudio": {
      "onStateBegin": [
        {
          "currentStateName": "Fly",
          "audioEvent": {
            "text": "Play_sfx_char_fly"
          }
        },
        {
          "currentStateName": "Air",
          "audioEvent": {
            "text": "Play_sfx_char_drop"
          },
          "otherStateNames": [
            "Fly"
          ],
          "usage": "InSet"
        },
        {
          "currentStateName": "CombatDive",
          "audioEvent": {
            "text": "Play_sfx_char_dive_move_swim_idle"
          },
          "otherStateNames": [
            "Dive"
          ],
          "usage": "Except"
        },
        {
          "currentStateName": "Dive",
          "audioEvent": {
            "text": "Play_sfx_char_dive_move_swim_idle"
          },
          "otherStateNames": [
            "CombatDive"
          ],
          "usage": "Except"
        }
      ],
      "onStateEnd": [
        {
          "currentStateName": "Fly",
          "audioEvent": {
            "text": "Stop_sfx_char_fly"
          }
        },
        {
          "currentStateName": "Air",
          "audioEvent": {
            "text": "Stop_sfx_char_drop"
          }
        },
        {
          "currentStateName": "Dive",
          "audioEvent": {
            "text": "Stop_sfx_char_dive_move_swim_idle"
          },
          "otherStateNames": [
            "CombatDive"
          ],
          "usage": "Except"
        },
        {
          "currentStateName": "CombatDive",
          "audioEvent": {
            "text": "Stop_sfx_char_dive_move_swim_idle"
          },
          "otherStateNames": [
            "Dive"
          ],
          "usage": "Except"
        }
      ]
    },
    "voiceSwitch": {
      "text": "Switch_Kazuha"
    },
    "bodyTypeSwitch": {
      "text": "Switch_Boy"
    },
    "listenerLiftup": 1.5,
    "surfaceProberLiftup": 1.5
  },
  "moveStateEffect": "AvatarBoy",
  "perform": {
    "standby": {
      "minTime": 10.0,
      "maxTime": 20.0,
      "performIDs": [
        201,
        202,
        200,
        200
      ]
    }
  }
}