{
  "common": {
    "effectAttachShape": {
      "$type": "OOMMNAAKJOP",
      "mesh": "EffectMesh"
    },
    "mass": 10.0,
    "height": 1.7186000347137451,
    "modelHeight": 1.7000000476837158,
    "affectedByWorld": true,
    "checkInSurface": true
  },
  "headControl": {
    "$type": "FKHBOAJEOKE",
    "useHeadControl": true,
    "animStates": [
      "NormalStandby",
      "NormalMove/WalkToRun",
      "NormalMove/Walk",
      "NormalMove/RunToWalk",
      "NormalMove/Run",
      "NormalMove/RunToIdle",
      "NormalMove/WalkToIdle",
      "NormalMove/RunningTurn",
      "NormalMove/SprintToRun",
      "NormalMove/SprintToIdle",
      "Sprint",
      "Climb/ClimbIdle",
      "Ladder/LadderIdle",
      "Swim/SwimIdle",
      "NormalStandbyWeapon",
      "NormalMoveWeapon/WalkToRunWeapon",
      "NormalMoveWeapon/WalkWeapon",
      "NormalMoveWeapon/RunToWalkWeapon",
      "NormalMoveWeapon/RunWeapon",
      "NormalMoveWeapon/RunToIdleWeapon",
      "NormalMoveWeapon/WalkToIdleWeapon",
      "NormalMoveWeapon/RunningTurnWeapon"
    ]
  },
  "combat": {
    "property": {
      "endureType": "Avatar_Sword",
      "weight": 75.0
    },
    "beHit": {
      "hitBloodEffect": ""
    },
    "die": {
      "hasAnimatorDie": true,
      "dieEndTime": 1.5,
      "dieForceDisappearTime": 2.5,
      "dieDisappearEffect": "Eff_Death_Avatar_Common",
      "dieShaderData": "AvatarDie",
      "useRagDoll": true,
      "ragDollDieEndTimeDelay": 1.5
    }
  },
  "equipController": {
    "sheathPoint": "WeaponBackPut",
    "dissolveSheathFadeDelay": 0.07500000298023224,
    "dissolveSheathFadeTime": 2.0999999046325684,
    "attachPoints": {
      "equip01": "WeaponR",
      "equip02": "WeaponL",
      "equip03": "WeaponL"
    }
  },
  "stateLayers": {
    "defaultLayer": {
      "$type": "AEMHOACJLIB",
      "layerIndexName": "",
      "GCIDDLIDFAE": "",
      "stateIDs": {
        "NormalStandby": {
          "$type": "BCNJGNDHFGP",
          "animatorStates": {
            "Standby": []
          },
          "canDoSkill": true,
          "massRatio": 100.0,
          "setAnimatorBoolean": [
            {
              "name": "&CanUseSkill"
            }
          ],
          "canChangeAvatar": [
            {}
          ],
          "animatorTriggerOnLanded": "",
          "sheatheOnStart": true
        },
        "NormalMove": {
          "$type": "BCNJGNDHFGP",
          "animatorStates": {
            "ShowUp": [
              "Audio_Lady_Showup"
            ],
            "WalkToRun": [
              "Audio_Lady_WalkToRun"
            ],
            "Walk": [
              "Ani_WalkSprint01",
              "Audio_Lady_Walk",
              "WalkStepOnWater"
            ],
            "RunToWalk": [
              "Audio_Lady_RunToWalk"
            ],
            "Run": [
              "Ani_Run01",
              "Audio_Lady_Run"
            ],
            "RunToIdle": [
              "Audio_Lady_RunToIdle"
            ],
            "WalkToIdle": [
              "Audio_Lady_WalkToIdle"
            ],
            "RunningTurn": [],
            "SprintToRun": [
              "Audio_Lady_SprintToRun"
            ],
            "SprintToIdle": [
              "Audio_Lady_SprintToIdle",
              "Emo_Lady_Sprint_AS"
            ],
            "FallOnGround": [
              "Audio_Lady_FallOnGround"
            ],
            "FallOnGroundLit": [
              "Audio_Lady_FallOnGroundLit"
            ],
            "FallToGroundRun": [
              "Audio_Lady_FallToGroundRun"
            ],
            "FallToGroundRunHard": [
              "Audio_Lady_FallToGroundRunHard"
            ],
            "FallToGroundSprint": [
              "Audio_Lady_FallToGroundSprint"
            ]
          },
          "canDoSkill": true,
          "massRatio": 1.0,
          "setAnimatorBoolean": [
            {
              "name": "&CanUseSkill"
            }
          ],
          "canChangeAvatar": [
            {}
          ],
          "animatorTriggerOnLanded": "",
          "sheatheOnStart": true
        },
        "SprintBS": {
          "$type": "BCNJGNDHFGP",
          "animatorStates": {
            "SprintBS": [
              "Audio_Lady_RunToSprint",
              "SprintBS_Invincible",
              "Emo_Lady_Sprint_BS"
            ]
          },
          "canDoSkill": true,
          "resetAnimatorTriggerOnEnter": [
            "DoSkill",
            "AimEnd"
          ],
          "setAnimatorBoolean": [
            {
              "name": "&CanUseSkill",
              "normalizeStart": 0.25999999046325684
            }
          ],
          "canChangeAvatar": [
            {
              "normalizeStart": 0.25999999046325684
            }
          ],
          "animatorTriggerOnLanded": "",
          "sheatheOnStart": true
        },
        "Sprint": {
          "$type": "BCNJGNDHFGP",
          "animatorStates": {
            "Sprint": [
              "Ani_WalkSprint01",
              "Audio_Lady_Sprint",
              "Emo_Lady_Sprint_Loop"
            ]
          },
          "canDoSkill": true,
          "massRatio": 1.0,
          "setAnimatorBoolean": [
            {
              "name": "&CanUseSkill"
            }
          ],
          "canChangeAvatar": [
            {}
          ],
          "animatorTriggerOnLanded": "",
          "sheatheOnStart": true
        },
        "SkiffNormal": {
          "$type": "BCNJGNDHFGP",
          "animatorStates": {
            "SkiffNormal": []
          },
          "massRatio": 100.0,
          "resetAnimatorTriggerOnExit": [
            "BeHit",
            "DoSkill",
            "Jump"
          ],
          "animatorTriggerOnLanded": "",
          "sheatheOnStart": true
        },
        "Climb": {
          "$type": "BCNJGNDHFGP",
          "animatorStates": {
            "ClimbMove0": [
              "ClimbStep",
              "Audio_Lady_Climb"
            ],
            "ClimbMove1": [
              "ClimbStep",
              "Audio_Lady_Climb"
            ],
            "ClimbIdle": [],
            "ClimbJump": [
              "Audio_Lady_ClimbDash"
            ],
            "JumpUpWallForStandby": [
              "Audio_Lady_JumpUpWallStandby"
            ],
            "Standby2ClimbB": [
              "Audio_Lady_Standby2ClimbB"
            ]
          },
          "resetAnimatorTriggerOnEnter": [
            "DoSkill"
          ],
          "actionPanelState": "Climb",
          "animatorTriggerOnLanded": "",
          "sheatheOnStart": true
        },
        "ClimbTransient": {
          "$type": "BCNJGNDHFGP",
          "animatorStates": {
            "JumpWallReady": [
              "Audio_Lady_JumpUpWallReady"
            ],
            "Standby2ClimbA": [
              "Audio_Lady_Standby2ClimbA"
            ]
          },
          "resetAnimatorTriggerOnEnter": [
            "DoSkill"
          ],
          "animatorTriggerOnLanded": "",
          "sheatheOnStart": true
        },
        "Upstairs": {
          "$type": "BCNJGNDHFGP",
          "animatorStates": {
            "Upstairs": [
              "Audio_Lady_Upstairs"
            ]
          },
          "resetAnimatorTriggerOnEnter": [
            "DoSkill"
          ],
          "setAnimatorBoolean": [
            {
              "name": "&CanUseSkill"
            }
          ],
          "animatorTriggerOnLanded": "",
          "sheatheOnStart": true
        },
        "Slip": {
          "$type": "BCNJGNDHFGP",
          "animatorStates": {
            "SlipFaceWall": [],
            "SlipBackWall": []
          },
          "resetAnimatorTriggerOnEnter": [
            "DoSkill"
          ],
          "animatorTriggerOnLanded": "",
          "sheatheOnStart": true
        },
        "Swim": {
          "$type": "BCNJGNDHFGP",
          "animatorStates": {
            "SwimIdle": [
              "Audio_Lady_SwimIdle"
            ],
            "SwimMove": [
              "SwimStep",
              "Audio_Lady_SwimMove"
            ],
            "SwimDash": [
              "Audio_Lady_SwimDash",
              "Avatar_Lady_SwimDash_Hand_Effect"
            ],
            "SwimJumpToWater": [
              "Audio_Lady_SwimJumpToWater"
            ]
          },
          "resetAnimatorTriggerOnEnter": [
            "DoSkill"
          ],
          "actionPanelState": "Swim",
          "animatorTriggerOnLanded": "",
          "sheatheOnStart": true
        },
        "Fly": {
          "$type": "BCNJGNDHFGP",
          "animatorStates": {
            "Fly": [],
            "FlyStart": [
              "Audio_Lady_FlyStart",
              "FlyStart_Weapon"
            ]
          },
          "canDoSkill": true,
          "resetAnimatorTriggerOnEnter": [
            "DoSkill"
          ],
          "setAnimatorBoolean": [
            {
              "name": "&CanUseAirSkill"
            }
          ],
          "actionPanelState": "Fly",
          "animatorTriggerOnLanded": "",
          "sheatheOnStart": true
        },
        "Jump": {
          "$type": "BCNJGNDHFGP",
          "animatorStates": {
            "Jump": [
              "Audio_Lady_Jump"
            ],
            "JumpForRun": [
              "Audio_Lady_Jump"
            ],
            "JumpForWalk": [
              "Audio_Lady_Jump"
            ],
            "JumpForSprint": [
              "Audio_Lady_Jump"
            ]
          },
          "canDoSkill": true,
          "resetAnimatorTriggerOnEnter": [
            "DoSkill",
            "AimEnd"
          ],
          "setAnimatorBoolean": [
            {
              "name": "&CanUseAirSkill"
            }
          ],
          "actionPanelState": "Jump",
          "animatorTriggerOnLanded": "",
          "sheatheOnStart": true
        },
        "Fall": {
          "$type": "BCNJGNDHFGP",
          "animatorStates": {
            "JumpOffWall": [
              "Audio_Lady_Jump"
            ],
            "SwimJump": [
              "Audio_Lady_SwimJump"
            ],
            "SwimJumpDrop": [],
            "DropDown": [
              "Audio_Lady_DropDown"
            ],
            "DropDownLit": [],
            "WalkDropDownLit": []
          },
          "canDoSkill": true,
          "resetAnimatorTriggerOnEnter": [
            "DoSkill"
          ],
          "setAnimatorBoolean": [
            {
              "name": "&CanUseAirSkill"
            }
          ],
          "animatorTriggerOnLanded": "",
          "sheatheOnStart": true
        },
        "NormalStandbyWeapon": {
          "$type": "BCNJGNDHFGP",
          "animatorStates": {
            "StandbyWeapon": []
          },
          "canDoSkill": true,
          "massRatio": 100.0,
          "setAnimatorBoolean": [
            {
              "name": "&CanUseSkill"
            }
          ],
          "canChangeAvatar": [
            {}
          ],
          "animatorTriggerOnLanded": "",
          "battouOnStart": true
        },
        "NormalMoveWeapon": {
          "$type": "BCNJGNDHFGP",
          "animatorStates": {
            "WalkToRunWeapon": [
              "Audio_Lady_WalkToRun"
            ],
            "WalkWeapon": [
              "Audio_Lady_Walk"
            ],
            "RunToWalkWeapon": [
              "Audio_Lady_RunToWalk"
            ],
            "RunWeapon": [
              "Audio_Lady_Run"
            ],
            "RunToIdleWeapon": [
              "Audio_Lady_RunToIdle"
            ],
            "WalkToIdleWeapon": [],
            "RunningTurnWeapon": [],
            "FallOnGroundWeapon": [
              "Audio_Lady_FallOnGround"
            ],
            "FallOnGroundLitWeapon": [
              "Audio_Lady_FallOnGroundLit"
            ],
            "FallOnGroundMiddleWeapon": [
              "Audio_Lady_FallOnGroundMiddle"
            ],
            "FallToGroundRunWeapon": [
              "Audio_Lady_FallToGroundRun"
            ],
            "FallToGroundRunHardWeapon": [
              "Audio_Lady_FallToGroundRunHard"
            ]
          },
          "canDoSkill": true,
          "massRatio": 2.0,
          "setAnimatorBoolean": [
            {
              "name": "&CanUseSkill"
            }
          ],
          "canChangeAvatar": [
            {}
          ],
          "animatorTriggerOnLanded": "",
          "battouOnStart": true
        },
        "NormalMoveWeaponPutaway": {
          "$type": "BCNJGNDHFGP",
          "animatorStates": {
            "StandbyPutaway": [
              "Lady_Sword_Putaway_Standby",
              "Audio_Lady_Sword_StandbyPutAway"
            ],
            "WalkPutaway": [
              "Lady_Sword_Putaway_Walk",
              "Audio_Lady_Sword_WalkPutAway"
            ],
            "RunPutaway": [
              "Lady_Sword_Putaway_Run",
              "Audio_Lady_Sword_RunPutAway"
            ],
            "RunToSprintWeapon": [
              "Lady_Sword_Putaway_Sprint",
              "Audio_Lady_Sword_RunToSprintWeapon"
            ]
          },
          "canDoSkill": true,
          "massRatio": 2.0,
          "setAnimatorBoolean": [
            {
              "name": "&CanUseSkill"
            }
          ],
          "canChangeAvatar": [
            {}
          ],
          "animatorTriggerOnLanded": "",
          "battouOnStart": true
        },
        "NormalMoveWeaponOver": {
          "$type": "BCNJGNDHFGP",
          "animatorStates": {
            "StandbyPutawayOver": [],
            "WalkPutawayOver": [],
            "RunPutawayOver": [
              "Audio_Lady_Sword_RunPutAwayOver"
            ],
            "RunToSprintWeaponOver": [
              "Audio_Lady_Sword_RunToSprintWeaponOver"
            ]
          },
          "canDoSkill": true,
          "massRatio": 2.0,
          "setAnimatorBoolean": [
            {
              "name": "&CanUseSkill"
            }
          ],
          "canChangeAvatar": [
            {}
          ],
          "animatorTriggerOnLanded": "",
          "sheatheOnStart": true
        },
        "JumpWeapon": {
          "$type": "BCNJGNDHFGP",
          "animatorStates": {
            "JumpWeapon": [
              "Audio_Lady_Jump"
            ],
            "JumpForRunWeapon": [
              "Audio_Lady_Jump"
            ],
            "JumpForWalkWeapon": [
              "Audio_Lady_Jump"
            ]
          },
          "canDoSkill": true,
          "resetAnimatorTriggerOnEnter": [
            "DoSkill"
          ],
          "setAnimatorBoolean": [
            {
              "name": "&CanUseAirSkill"
            }
          ],
          "canChangeAvatar": [
            {}
          ],
          "actionPanelState": "Jump",
          "animatorTriggerOnLanded": "",
          "battouOnStart": true
        },
        "FallWeapon": {
          "$type": "BCNJGNDHFGP",
          "animatorStates": {
            "DropDownWeapon": [],
            "DropDownLitWeapon": [],
            "WalkDropDownLitWeapon": []
          },
          "canDoSkill": true,
          "resetAnimatorTriggerOnEnter": [
            "DoSkill"
          ],
          "setAnimatorBoolean": [
            {
              "name": "&CanUseAirSkill"
            }
          ],
          "actionPanelState": "Fly",
          "animatorTriggerOnLanded": "",
          "battouOnStart": true
        },
        "BeHit": {
          "$type": "BCNJGNDHFGP",
          "animatorStates": {
            "Hit_L": [
              "Audio_Lady_Hit_L"
            ],
            "Hit_H": [
              "Audio_Lady_Hit_H"
            ]
          },
          "onQuit": "combatMove",
          "resetAnimatorTriggerOnEnter": [
            "BeHit",
            "HitAir2HitDrop"
          ],
          "resetAnimatorTriggerOnExit": [
            "DoSkill"
          ],
          "cameraType": "combatBeHit",
          "jumpCancelEnd": 0.0,
          "animatorTriggerOnLanded": "",
          "battouOnStart": true
        },
        "HitThrow": {
          "$type": "BCNJGNDHFGP",
          "animatorStates": {
            "Hit_Throw_Ground": [
              "BeHitAir_Weapon",
              "Audio_Lady_HitThrowGround"
            ]
          },
          "onQuit": "combatMove",
          "resetAnimatorTriggerOnEnter": [
            "BeHit",
            "HitAir2HitDrop"
          ],
          "resetAnimatorTriggerOnExit": [
            "DoSkill"
          ],
          "cameraType": "combatBeHit",
          "jumpCancelEnd": 0.0,
          "animatorTriggerOnLanded": "",
          "sheatheOnStart": true
        },
        "BeHitAir": {
          "$type": "BCNJGNDHFGP",
          "animatorStates": {
            "Hit_Throw": [
              "Audio_Lady_Hit_Throw",
              "BeHitAir_Weapon"
            ],
            "Hit_ThrowAir": [
              "Audio_Lady_DropDown",
              "BeHitAir_Weapon"
            ],
            "Struggle": [
              "BeHitAir_Weapon"
            ]
          },
          "onQuit": "combatAir",
          "resetAnimatorTriggerOnEnter": [
            "BeHit"
          ],
          "resetAnimatorTriggerOnExit": [
            "DoSkill"
          ],
          "cameraType": "combatBeHit",
          "actionPanelState": "CombatAir",
          "jumpCancelEnd": 0.0,
          "animatorTriggerOnLanded": "",
          "sheatheOnStart": true
        },
        "Die": {
          "$type": "BCNJGNDHFGP",
          "animatorStates": {
            "FallDie": [
              "Audio_Lady_NormalDie"
            ],
            "NormalDie": [
              "Die",
              "Audio_Lady_NormalDie"
            ],
            "SwimDie": [
              "Swim_Die",
              "Audio_Lady_SwimDie"
            ],
            "HitGroundDie": [
              "Die",
              "Audio_Lady_Death"
            ]
          },
          "animatorTriggerOnLanded": ""
        },
        "Die_RagDoll": {
          "$type": "BCNJGNDHFGP",
          "animatorStates": {
            "FallDie_AS": []
          },
          "enableRagDoll": true,
          "animatorTriggerOnLanded": ""
        },
        "Sit": {
          "$type": "BCNJGNDHFGP",
          "animatorStates": {
            "SitDown": [
              "Audio_Girl_SitDown"
            ],
            "SitLoop": [],
            "SitUp": [
              "Audio_Girl_SitDown"
            ]
          },
          "onQuit": "performMove",
          "massRatio": 100.0,
          "actionPanelState": "Perform",
          "animatorTriggerOnLanded": "",
          "sheatheOnStart": true
        },
        "SitB": {
          "$type": "BCNJGNDHFGP",
          "animatorStates": {
            "SitBDown": [
              "Audio_Girl_SitDown"
            ],
            "SitBLoop": [],
            "SitBUp": [
              "Audio_Girl_SitDown"
            ]
          },
          "onQuit": "performMove",
          "massRatio": 100.0,
          "actionPanelState": "Perform",
          "animatorTriggerOnLanded": "",
          "sheatheOnStart": true
        },
        "TakePhotos": {
          "$type": "BCNJGNDHFGP",
          "animatorStates": {
            "Think01BS": [],
            "Akimbo02BS": [],
            "Think01Loop": [],
            "Akimbo02Loop": [],
            "Think01AS": [],
            "Akimbo02AS": []
          },
          "animatorTriggerOnLanded": ""
        },
        "Channel_BS": {
          "$type": "BCNJGNDHFGP",
          "animatorStates": {
            "ChannelBS": [
              "Emo_Avatar_Common_Manekin_Default"
            ]
          },
          "onQuit": "combatMove",
          "canDoSkill": true,
          "massRatio": 100.0,
          "resetAnimatorTriggerOnExit": [
            "BeHit",
            "DoSkill",
            "Jump"
          ],
          "setAnimatorBoolean": [
            {
              "name": "&CanUseSkill"
            }
          ],
          "canChangeAvatar": [
            {}
          ],
          "animatorTriggerOnLanded": "",
          "sheatheOnStart": true
        },
        "Channel_Loop": {
          "$type": "BCNJGNDHFGP",
          "animatorStates": {
            "ChannelLoop": []
          },
          "onQuit": "combatMove",
          "canDoSkill": true,
          "massRatio": 100.0,
          "resetAnimatorTriggerOnExit": [
            "BeHit",
            "DoSkill",
            "Jump"
          ],
          "setAnimatorBoolean": [
            {
              "name": "&CanUseSkill"
            }
          ],
          "canChangeAvatar": [
            {}
          ],
          "animatorTriggerOnLanded": "",
          "sheatheOnStart": true
        },
        "Channel_AS": {
          "$type": "BCNJGNDHFGP",
          "animatorStates": {
            "ChannelAS": []
          },
          "onQuit": "combatMove",
          "canDoSkill": true,
          "massRatio": 100.0,
          "resetAnimatorTriggerOnExit": [
            "BeHit",
            "DoSkill",
            "Jump"
          ],
          "setAnimatorBoolean": [
            {
              "name": "&CanUseSkill"
            }
          ],
          "canChangeAvatar": [
            {}
          ],
          "animatorTriggerOnLanded": "",
          "sheatheOnStart": true
        },
        "PlayMusic_Lyre": {
          "$type": "BCNJGNDHFGP",
          "animatorStates": {
            "PlayMusic_Lyre_BS": [
              "PlayMusic_Lyre_Lady",
              "Audio_Char_Common_PlayMusic_Lyrc_BS"
            ],
            "PlayMusic_Lyre_Loop": []
          },
          "onQuit": "combatMove",
          "massRatio": 100.0,
          "resetAnimatorTriggerOnExit": [
            "BeHit",
            "DoSkill",
            "Jump"
          ],
          "animatorTriggerOnLanded": "",
          "sheatheOnStart": true
        },
        "PlayMusic_Lyre_AS": {
          "$type": "BCNJGNDHFGP",
          "animatorStates": {
            "PlayMusic_Lyre_AS": [
              "PlayMusic_Lyre_Lady_AS",
              "Audio_Char_Common_PlayMusic_Lyrc_AS"
            ]
          },
          "onQuit": "combatMove",
          "canDoSkill": true,
          "massRatio": 100.0,
          "resetAnimatorTriggerOnExit": [
            "BeHit",
            "DoSkill",
            "Jump"
          ],
          "setAnimatorBoolean": [
            {
              "name": "&CanUseSkill"
            }
          ],
          "canChangeAvatar": [
            {}
          ],
          "animatorTriggerOnLanded": "",
          "sheatheOnStart": true
        },
        "PlayMusic_Qin": {
          "$type": "BCNJGNDHFGP",
          "animatorStates": {
            "PlayMusic_Qin_BS": [
              "PlayMusic_Qin_Lady"
            ],
            "PlayMusic_Qin_Loop": []
          },
          "onQuit": "combatMove",
          "massRatio": 100.0,
          "resetAnimatorTriggerOnExit": [
            "BeHit",
            "DoSkill",
            "Jump"
          ],
          "animatorTriggerOnLanded": "",
          "sheatheOnStart": true
        },
        "PlayMusic_Qin_AS": {
          "$type": "BCNJGNDHFGP",
          "animatorStates": {
            "PlayMusic_Qin_AS": [
              "PlayMusic_Qin_Lady_AS"
            ]
          },
          "onQuit": "combatMove",
          "canDoSkill": true,
          "massRatio": 100.0,
          "resetAnimatorTriggerOnExit": [
            "BeHit",
            "DoSkill",
            "Jump"
          ],
          "setAnimatorBoolean": [
            {
              "name": "&CanUseSkill"
            }
          ],
          "canChangeAvatar": [
            {}
          ],
          "animatorTriggerOnLanded": "",
          "sheatheOnStart": true
        },
        "PlayMusic_Drum": {
          "$type": "BCNJGNDHFGP",
          "animatorStates": {
            "PlayMusic_Drum_BS": [
              "PlayMusic_Drum_Lady"
            ],
            "PlayMusic_Drum_Loop": []
          },
          "onQuit": "combatMove",
          "massRatio": 100.0,
          "resetAnimatorTriggerOnExit": [
            "BeHit",
            "DoSkill",
            "Jump"
          ],
          "animatorTriggerOnLanded": "",
          "sheatheOnStart": true
        },
        "PlayMusic_Drum_AS": {
          "$type": "BCNJGNDHFGP",
          "animatorStates": {
            "PlayMusic_Drum_AS": [
              "PlayMusic_Drum_Lady_AS"
            ]
          },
          "onQuit": "combatMove",
          "canDoSkill": true,
          "massRatio": 100.0,
          "resetAnimatorTriggerOnExit": [
            "BeHit",
            "DoSkill",
            "Jump"
          ],
          "setAnimatorBoolean": [
            {
              "name": "&CanUseSkill"
            }
          ],
          "canChangeAvatar": [
            {}
          ],
          "animatorTriggerOnLanded": "",
          "sheatheOnStart": true
        }
      }
    }
  },
  "audio": {
    "overrideEmitterName": "",
    "animAudio": {
      "onTransitionOut": [
        {
          "currentStateName": "StandbyPutaway",
          "audioEvent": {
            "text": "Stop_sfx_weapon_1HSword_lady_putAwayStandby"
          }
        },
        {
          "currentStateName": "WalkPutaway",
          "audioEvent": {
            "text": "Stop_sfx_weapon_1HSword_lady_putAwayStandby"
          }
        },
        {
          "currentStateName": "RunPutaway",
          "audioEvent": {
            "text": "Stop_sfx_weapon_1HSword_lady_putAwayStandby"
          }
        },
        {
          "currentStateName": "SwimJumpDrop",
          "audioEvent": {
            "text": "Stop_sfx_char_swim_drop"
          }
        },
        {
          "currentStateName": "SwimJump",
          "audioEvent": {
            "text": "Stop_sfx_char_swim_drop"
          },
          "otherStateNames": [
            "SwimJumpDrop"
          ],
          "usage": "Except"
        },
        {
          "currentStateName": "Fly",
          "audioEvent": {
            "text": "Play_sfx_char_land_climb"
          },
          "otherStateNames": [
            "ClimbIdle",
            "ClimbMove0",
            "ClimbMove1",
            "ClimbJump"
          ],
          "usage": "InSet"
        },
        {
          "currentStateName": "FlyStart",
          "audioEvent": {
            "text": "Play_sfx_char_land_climb"
          },
          "otherStateNames": [
            "ClimbIdle",
            "ClimbMove0",
            "ClimbMove1",
            "ClimbJump"
          ],
          "usage": "InSet"
        },
        {
          "currentStateName": "DropDownLit",
          "audioEvent": {
            "text": "Play_sfx_char_land_climb"
          },
          "otherStateNames": [
            "ClimbIdle",
            "ClimbMove0",
            "ClimbMove1",
            "ClimbJump"
          ],
          "usage": "InSet"
        },
        {
          "currentStateName": "DropDown",
          "audioEvent": {
            "text": "Play_sfx_char_land_climb"
          },
          "otherStateNames": [
            "ClimbIdle",
            "ClimbMove0",
            "ClimbMove1",
            "ClimbJump"
          ],
          "usage": "InSet"
        },
        {
          "currentStateName": "WalkDropDownLit",
          "audioEvent": {
            "text": "Play_sfx_char_land_climb"
          },
          "otherStateNames": [
            "ClimbIdle",
            "ClimbMove0",
            "ClimbMove1",
            "ClimbJump"
          ],
          "usage": "InSet"
        },
        {
          "currentStateName": "Jump",
          "audioEvent": {
            "text": "Play_sfx_char_land_climb"
          },
          "otherStateNames": [
            "ClimbIdle",
            "ClimbMove0",
            "ClimbMove1",
            "ClimbJump"
          ],
          "usage": "InSet"
        },
        {
          "currentStateName": "JumpForWalk",
          "audioEvent": {
            "text": "Play_sfx_char_land_climb"
          },
          "otherStateNames": [
            "ClimbIdle",
            "ClimbMove0",
            "ClimbMove1",
            "ClimbJump"
          ],
          "usage": "InSet"
        },
        {
          "currentStateName": "JumpForRun",
          "audioEvent": {
            "text": "Play_sfx_char_land_climb"
          },
          "otherStateNames": [
            "ClimbIdle",
            "ClimbMove0",
            "ClimbMove1",
            "ClimbJump"
          ],
          "usage": "InSet"
        },
        {
          "currentStateName": "JumpForSprint",
          "audioEvent": {
            "text": "Play_sfx_char_land_climb"
          },
          "otherStateNames": [
            "ClimbIdle",
            "ClimbMove0",
            "ClimbMove1",
            "ClimbJump"
          ],
          "usage": "InSet"
        },
        {
          "currentStateName": "JumpWeapon",
          "audioEvent": {
            "text": "Play_sfx_char_land_climb"
          },
          "otherStateNames": [
            "ClimbIdle",
            "ClimbMove0",
            "ClimbMove1",
            "ClimbJump"
          ],
          "usage": "InSet"
        },
        {
          "currentStateName": "JumpForWalkWeapon",
          "audioEvent": {
            "text": "Play_sfx_char_land_climb"
          },
          "otherStateNames": [
            "ClimbIdle",
            "ClimbMove0",
            "ClimbMove1",
            "ClimbJump"
          ],
          "usage": "InSet"
        },
        {
          "currentStateName": "JumpForRunWeapon",
          "audioEvent": {
            "text": "Play_sfx_char_land_climb"
          },
          "otherStateNames": [
            "ClimbIdle",
            "ClimbMove0",
            "ClimbMove1",
            "ClimbJump"
          ],
          "usage": "InSet"
        },
        {
          "currentStateName": "DropDownWeapon",
          "audioEvent": {
            "text": "Play_sfx_char_land_climb"
          },
          "otherStateNames": [
            "ClimbIdle",
            "ClimbMove0",
            "ClimbMove1",
            "ClimbJump"
          ],
          "usage": "InSet"
        },
        {
          "currentStateName": "DropDownLitWeapon",
          "audioEvent": {
            "text": "Play_sfx_char_land_climb"
          },
          "otherStateNames": [
            "ClimbIdle",
            "ClimbMove0",
            "ClimbMove1",
            "ClimbJump"
          ],
          "usage": "InSet"
        },
        {
          "currentStateName": "SwimMove",
          "audioEvent": {
            "text": "Stop_sfx_char_swim"
          }
        }
      ],
      "recurrentSpeeches": {
        "Standby": {
          "start": {
            "upper": 28.0,
            "lower": 23.0
          },
          "interval": {
            "upper": 40.0,
            "lower": 34.0
          },
          "eventName": {
            "text": "Play_vo_char_explore_idle"
          }
        },
        "Walk": {
          "start": {
            "upper": 16.0,
            "lower": 13.0
          },
          "interval": {
            "upper": 14.0,
            "lower": 10.0
          },
          "eventName": {
            "text": ""
          }
        },
        "Run": {
          "start": {
            "upper": 13.0,
            "lower": 9.0
          },
          "interval": {
            "upper": 11.0,
            "lower": 8.0
          },
          "eventName": {
            "text": ""
          }
        },
        "Sprint": {
          "start": {
            "upper": 12.0,
            "lower": 7.0
          },
          "interval": {
            "upper": 9.0,
            "lower": 6.0
          },
          "eventName": {
            "text": ""
          }
        }
      }
    },
    "moveStateAudio": {
      "onStateBegin": [
        {
          "currentStateName": "Fly",
          "audioEvent": {
            "text": "Play_sfx_char_fly"
          }
        }
      ],
      "onStateEnd": [
        {
          "currentStateName": "Fly",
          "audioEvent": {
            "text": "Stop_sfx_char_fly"
          },
          "otherStateNames": [
            "Air"
          ],
          "usage": "Except"
        },
        {
          "currentStateName": "Air",
          "audioEvent": {
            "text": "Stop_sfx_char_fly"
          },
          "otherStateNames": [
            "Fly"
          ],
          "usage": "Except"
        }
      ]
    },
    "voiceSwitch": {
      "text": "Switch_Testlady"
    },
    "bodyTypeSwitch": {
      "text": "Switch_Lady"
    },
    "listenerLiftup": 1.5,
    "surfaceProberLiftup": 1.5
  }
}