{
  "common": {
    "effectAttachShape": {
      "$type": "OOMMNAAKJOP",
      "mesh": "EffectMesh"
    },
    "mass": 10.0,
    "height": 1.7696000337600708,
    "modelHeight": 1.7616000175476074,
    "affectedByWorld": true,
    "checkInSurface": true
  },
  "headControl": {
    "$type": "FKHBOAJEOKE",
    "useHeadControl": true,
    "animStates": [
      "NormalStandby",
      "NormalMove/WalkToRun",
      "NormalMove/Walk",
      "NormalMove/RunToWalk",
      "NormalMove/Run",
      "NormalMove/RunToIdle",
      "NormalMove/WalkToIdle",
      "NormalMove/RunningTurn",
      "NormalMove/SprintToRun",
      "NormalMove/SprintToIdle",
      "Sprint",
      "Climb/ClimbIdle",
      "Ladder/LadderIdle",
      "Swim/SwimIdle",
      "NormalStandbyWeapon",
      "NormalMoveWeapon/WalkToRunWeapon",
      "NormalMoveWeapon/WalkWeapon",
      "NormalMoveWeapon/RunToWalkWeapon",
      "NormalMoveWeapon/RunWeapon",
      "NormalMoveWeapon/RunToIdleWeapon",
      "NormalMoveWeapon/WalkToIdleWeapon",
      "NormalMoveWeapon/RunningTurnWeapon"
    ]
  },
  "specialPoint": {
    "elementAbsorb": "PRIVATE_Pendant",
    "elementPendant": "PRIVATE_Pendant",
    "elementDrop": "RootNode",
    "bulletAim": "RootNode"
  },
  "combat": {
    "property": {
      "endureType": "Avatar_Pole",
      "weight": 75.0
    },
    "beHit": {
      "hitBloodEffect": ""
    },
    "combatLock": {
      "lockShape": "CircleLockEnemyClose",
      "lockWeightYaxisParam": 0.20000000298023224,
      "lockWeightYaxisThreshold": 2.0,
      "lockType": "Avatar&Monster_Lv4"
    },
    "die": {
      "hasAnimatorDie": true,
      "dieEndTime": 1.5,
      "dieForceDisappearTime": 2.5,
      "dieDisappearEffect": "Eff_Death_Avatar_Common",
      "dieShaderData": "AvatarDie",
      "useRagDoll": true,
      "ragDollDieEndTimeDelay": 0.4000000059604645
    },
    "animEvents": {
      "ATK01": {
        "attackPattern": {
          "$type": "LGEKKELKDAN",
          "triggerType": "TriggerNoRepeat",
          "born": {
            "$type": "KPFCCIOJAMK",
            "offset": {
              "GOAPOLCAJBP": 0.0,
              "FMOPCJGGFMH": -0.20000000298023224,
              "EJJEPFCDDAM": -0.30000001192092896
            }
          },
          "height": 2.5,
          "MFGGJCPPBGA": 2.5
        },
        "attackInfo": {
          "attackTag": "NormalAttack_01",
          "attenuationTag": "NormalAttack",
          "attenuationGroup": "default",
          "attackProperty": {
            "JMLMDDCBIAO": 0.0,
            "damagePercentageRatio": 0.0,
            "elementDurability": 25.0,
            "overrideByWeapon": true,
            "strikeType": "Slash",
            "enBreak": 60.08000183105469,
            "attackType": "Melee",
            "damagePercentage": 0.0
          },
          "hitPattern": {
            "onHitEffectName": "default",
            "hitImpulseY": "",
            "hitImpulseType": "LV3",
            "hitHaltTime": 0.029999999329447746,
            "hitHaltTimeScale": 0.009999999776482582,
            "canBeDefenceHalt": true
          },
          "cameraShake": {
            "shakeType": "CustomVector",
            "shakeRange": 0.11999999731779099,
            "shakeTime": 0.11999999731779099,
            "shakeDistance": 30.0,
            "shakeDir": {
              "x": -1.0
            }
          }
        }
      },
      "ATK02": {
        "attackPattern": {
          "$type": "CKCNJHBMNGJ",
          "triggerType": "TriggerNoRepeat",
          "born": {
            "$type": "KPFCCIOJAMK",
            "offset": {
              "GOAPOLCAJBP": 0.0,
              "FMOPCJGGFMH": 1.4500000476837158,
              "EJJEPFCDDAM": -0.10000000149011612
            }
          },
          "size": {
            "GOAPOLCAJBP": 2.200000047683716,
            "FMOPCJGGFMH": 3.0,
            "EJJEPFCDDAM": 3.0
          }
        },
        "attackInfo": {
          "attackTag": "NormalAttack_02",
          "attenuationTag": "NormalAttack",
          "attenuationGroup": "default",
          "attackProperty": {
            "JMLMDDCBIAO": 0.0,
            "damagePercentageRatio": 0.0,
            "elementDurability": 25.0,
            "overrideByWeapon": true,
            "strikeType": "Blunt",
            "enBreak": 59.7599983215332,
            "attackType": "Melee",
            "damagePercentage": 0.0
          },
          "hitPattern": {
            "onHitEffectName": "default",
            "hitImpulseY": "",
            "hitImpulseType": "",
            "overrideHitImpulse": {
              "hitLevel": "Heavy",
              "FJDNLJNBOKO": 550.0,
              "MAEJMIINMMP": 0.0
            },
            "hitHaltTime": 0.029999999329447746,
            "hitHaltTimeScale": 0.009999999776482582,
            "canBeDefenceHalt": true
          },
          "cameraShake": {
            "shakeType": "CustomVector",
            "shakeRange": 0.11999999731779099,
            "shakeTime": 0.11999999731779099,
            "shakeDistance": 30.0,
            "shakeDir": {
              "x": 1.0
            }
          }
        }
      },
      "ATK03_01": {
        "attackPattern": {
          "$type": "LGEKKELKDAN",
          "triggerType": "TriggerNoRepeat",
          "born": {
            "$type": "KPFCCIOJAMK",
            "offset": {
              "GOAPOLCAJBP": 0.0,
              "FMOPCJGGFMH": -0.20000000298023224,
              "EJJEPFCDDAM": 0.30000001192092896
            }
          },
          "height": 2.5,
          "fanAngle": 270.0,
          "MFGGJCPPBGA": 2.5
        },
        "attackInfo": {
          "attackTag": "NormalAttack_03",
          "attenuationTag": "NormalAttack",
          "attenuationGroup": "default",
          "attackProperty": {
            "JMLMDDCBIAO": 0.0,
            "damagePercentageRatio": 0.0,
            "elementDurability": 25.0,
            "overrideByWeapon": true,
            "strikeType": "Slash",
            "enBreak": 38.08000183105469,
            "attackType": "Melee",
            "damagePercentage": 0.0
          },
          "hitPattern": {
            "onHitEffectName": "default",
            "hitImpulseY": "",
            "hitImpulseType": "LV2",
            "hitHaltTimeScale": 0.009999999776482582
          },
          "cameraShake": {
            "shakeType": "CustomVector",
            "shakeRange": 0.09000000357627869,
            "shakeTime": 0.05999999865889549,
            "shakeDistance": 30.0,
            "shakeDir": {
              "z": -1.0
            }
          }
        }
      },
      "ATK03_02": {
        "attackPattern": {
          "$type": "LGEKKELKDAN",
          "triggerType": "TriggerNoRepeat",
          "born": {
            "$type": "KPFCCIOJAMK",
            "offset": {
              "GOAPOLCAJBP": 0.0,
              "FMOPCJGGFMH": -0.20000000298023224,
              "EJJEPFCDDAM": 0.30000001192092896
            }
          },
          "height": 2.5,
          "fanAngle": 270.0,
          "MFGGJCPPBGA": 2.5
        },
        "attackInfo": {
          "attackTag": "NormalAttack_03",
          "attenuationTag": "NormalAttack",
          "attenuationGroup": "default",
          "attackProperty": {
            "JMLMDDCBIAO": 0.0,
            "damagePercentageRatio": 0.0,
            "elementDurability": 25.0,
            "overrideByWeapon": true,
            "strikeType": "Slash",
            "enBreak": 38.08000183105469,
            "attackType": "Melee",
            "damagePercentage": 0.0
          },
          "hitPattern": {
            "onHitEffectName": "default",
            "hitImpulseY": "",
            "hitImpulseType": "LV3",
            "hitHaltTime": 0.029999999329447746,
            "hitHaltTimeScale": 0.009999999776482582,
            "canBeDefenceHalt": true
          },
          "cameraShake": {
            "shakeType": "CustomVector",
            "shakeRange": 0.09000000357627869,
            "shakeTime": 0.05999999865889549,
            "shakeDistance": 30.0,
            "shakeDir": {
              "z": -1.0
            }
          }
        }
      },
      "ATK04": {
        "attackPattern": {
          "$type": "CKCNJHBMNGJ",
          "triggerType": "TriggerNoRepeat",
          "born": {
            "$type": "KPFCCIOJAMK",
            "offset": {
              "GOAPOLCAJBP": 0.0,
              "FMOPCJGGFMH": 1.4500000476837158,
              "EJJEPFCDDAM": -0.10000000149011612
            }
          },
          "size": {
            "GOAPOLCAJBP": 2.200000047683716,
            "FMOPCJGGFMH": 3.0,
            "EJJEPFCDDAM": 7.0
          }
        },
        "attackInfo": {
          "attackTag": "NormalAttack_04",
          "attenuationTag": "NormalAttack",
          "attenuationGroup": "default",
          "attackProperty": {
            "JMLMDDCBIAO": 0.0,
            "damagePercentageRatio": 0.0,
            "elementDurability": 25.0,
            "overrideByWeapon": true,
            "strikeType": "Spear",
            "enBreak": 94.80000305175781,
            "attackType": "Melee",
            "damagePercentage": 0.0
          },
          "hitPattern": {
            "onHitEffectName": "default",
            "hitImpulseY": "",
            "hitImpulseType": "LV5",
            "hitHaltTime": 0.03999999910593033,
            "hitHaltTimeScale": 0.009999999776482582,
            "canBeDefenceHalt": true
          },
          "forceCameraShake": true,
          "cameraShake": {
            "shakeType": "CustomVector",
            "shakeRange": 0.11999999731779099,
            "shakeTime": 0.11999999731779099,
            "shakeDistance": 30.0,
            "shakeDir": {
              "y": 1.0
            }
          }
        }
      }
    }
  },
  "equipController": {
    "sheathPoint": "WeaponBackPut",
    "dissolveSheathFadeDelay": 0.07500000298023224,
    "dissolveSheathFadeTime": 2.0999999046325684,
    "attachPoints": {
      "equip01": "WeaponR",
      "equip02": "WeaponL",
      "equip03": "WeaponL"
    }
  },
  "abilities": [
    {
      "abilityID": "Avatar_Candace_ExtraAttack",
      "abilityName": "Avatar_Candace_ExtraAttack",
      "abilityOverride": ""
    },
    {
      "abilityID": "Avatar_Candace_ExtraAttack_CreateBullet",
      "abilityName": "Avatar_Candace_ExtraAttack_CreateBullet",
      "abilityOverride": ""
    },
    {
      "abilityID": "Avatar_Candace_ElementalArt_HoldCharge",
      "abilityName": "Avatar_Candace_ElementalArt_HoldCharge",
      "abilityOverride": ""
    },
    {
      "abilityID": "Avatar_Candace_ElementalArt_ChargeShield",
      "abilityName": "Avatar_Candace_ElementalArt_ChargeShield",
      "abilityOverride": ""
    },
    {
      "abilityID": "Avatar_Candace_ElementalArt_H",
      "abilityName": "Avatar_Candace_ElementalArt_H",
      "abilityOverride": ""
    },
    {
      "abilityID": "Avatar_Candace_ElementalArt_L",
      "abilityName": "Avatar_Candace_ElementalArt_L",
      "abilityOverride": ""
    },
    {
      "abilityID": "Avatar_Candace_ElementalBurst",
      "abilityName": "Avatar_Candace_ElementalBurst",
      "abilityOverride": ""
    },
    {
      "abilityID": "Avatar_Candace_NormalAttack_DamageHandler",
      "abilityName": "Avatar_Candace_NormalAttack_DamageHandler",
      "abilityOverride": ""
    },
    {
      "abilityID": "Avatar_Candace_FallingAnthem",
      "abilityName": "Avatar_Candace_FallingAnthem",
      "abilityOverride": ""
    }
  ],
  "stateLayers": {
    "defaultLayer": {
      "$type": "AEMHOACJLIB",
      "layerIndexName": "",
      "GCIDDLIDFAE": "",
      "stateIDs": {
        "NormalStandby": {
          "$type": "BCNJGNDHFGP",
          "animatorStates": {
            "Standby": []
          },
          "canDoSkill": true,
          "massRatio": 100.0,
          "setAnimatorBoolean": [
            {
              "name": "&CanUseSkill"
            }
          ],
          "canChangeAvatar": [
            {}
          ],
          "animatorTriggerOnLanded": "",
          "sheatheOnStart": true
        },
        "NormalMove": {
          "$type": "BCNJGNDHFGP",
          "animatorStates": {
            "ShowUp": [
              "Audio_Lady_Showup"
            ],
            "WalkToRun": [
              "Audio_Lady_WalkToRun",
              "Audio_Lady_Foley_Twice_Candace"
            ],
            "Walk": [
              "Ani_WalkSprint01",
              "Audio_Lady_Walk",
              "WalkStepOnWater",
              "Audio_Lady_Foley_Walk_Candace"
            ],
            "RunToWalk": [
              "Audio_Lady_RunToWalk",
              "Audio_Lady_Foley_Twice_Candace"
            ],
            "Run": [
              "Ani_Run01",
              "Audio_Lady_Run",
              "Audio_Lady_Foley_Run_Candace"
            ],
            "RunToIdle": [
              "Audio_Lady_RunToIdle",
              "Audio_Lady_Foley_RunToIdle_Candace"
            ],
            "WalkToIdle": [
              "Audio_Lady_WalkToIdle"
            ],
            "RunningTurn": [],
            "SprintToRun": [
              "Audio_Lady_SprintToRun",
              "Audio_Lady_Foley_Once_Candace"
            ],
            "SprintToIdle": [
              "Audio_Lady_SprintToIdle",
              "Emo_Lady_Sprint_AS",
              "Audio_Lady_Foley_SprintToIdle_Candace"
            ],
            "FallOnGround": [
              "Audio_Lady_FallOnGround",
              "Audio_Lady_Foley_Twice_Candace"
            ],
            "FallOnGroundLit": [
              "Audio_Lady_FallOnGroundLit",
              "Audio_Lady_Foley_Once_Candace"
            ],
            "FallToGroundRun": [
              "Audio_Lady_FallToGroundRun",
              "Audio_Lady_Foley_Twice_Candace"
            ],
            "FallToGroundRunHard": [
              "Audio_Lady_FallToGroundRunHard",
              "Audio_Lady_Foley_Twice_Candace"
            ],
            "FallToGroundSprint": [
              "Audio_Lady_FallToGroundSprint",
              "Audio_Lady_Foley_Twice_Candace"
            ]
          },
          "canDoSkill": true,
          "massRatio": 1.0,
          "setAnimatorBoolean": [
            {
              "name": "&CanUseSkill"
            }
          ],
          "canChangeAvatar": [
            {}
          ],
          "animatorTriggerOnLanded": "",
          "sheatheOnStart": true
        },
        "SprintBS": {
          "$type": "BCNJGNDHFGP",
          "animatorStates": {
            "SprintBS": [
              "Audio_Lady_RunToSprint",
              "SprintBS_Invincible",
              "Emo_Lady_Sprint_BS",
              "Audio_Lady_Foley_SprintBS_Candace"
            ]
          },
          "canDoSkill": true,
          "resetAnimatorTriggerOnEnter": [
            "DoSkill",
            "AimEnd"
          ],
          "setAnimatorBoolean": [
            {
              "name": "&CanUseSkill",
              "normalizeStart": 0.25999999046325684
            }
          ],
          "canChangeAvatar": [
            {
              "normalizeStart": 0.25999999046325684
            }
          ],
          "animatorTriggerOnLanded": "",
          "sheatheOnStart": true
        },
        "Sprint": {
          "$type": "BCNJGNDHFGP",
          "animatorStates": {
            "Sprint": [
              "Ani_WalkSprint01",
              "Audio_Lady_Sprint",
              "Emo_Lady_Sprint_Loop",
              "Audio_Lady_Foley_Twice_Candace"
            ]
          },
          "canDoSkill": true,
          "massRatio": 1.0,
          "setAnimatorBoolean": [
            {
              "name": "&CanUseSkill"
            }
          ],
          "canChangeAvatar": [
            {}
          ],
          "animatorTriggerOnLanded": "",
          "sheatheOnStart": true
        },
        "SkiffNormal": {
          "$type": "BCNJGNDHFGP",
          "animatorStates": {
            "SkiffNormal": []
          },
          "massRatio": 100.0,
          "resetAnimatorTriggerOnExit": [
            "BeHit",
            "DoSkill",
            "Jump"
          ],
          "animatorTriggerOnLanded": "",
          "sheatheOnStart": true
        },
        "Climb": {
          "$type": "BCNJGNDHFGP",
          "animatorStates": {
            "ClimbMove0": [
              "ClimbStep",
              "Audio_Lady_Climb",
              "Audio_Lady_Foley_ClimbMove_Candace"
            ],
            "ClimbMove1": [
              "ClimbStep",
              "Audio_Lady_Climb",
              "Audio_Lady_Foley_Twice_Candace"
            ],
            "ClimbIdle": [],
            "ClimbJump": [
              "Audio_Lady_ClimbDash",
              "Audio_Lady_Foley_Once_Candace"
            ],
            "JumpUpWallForStandby": [
              "Audio_Lady_JumpUpWallStandby",
              "Audio_Lady_Foley_Once_Candace"
            ],
            "Standby2ClimbB": [
              "Audio_Lady_Standby2ClimbB",
              "Audio_Lady_Foley_Once_Candace"
            ]
          },
          "resetAnimatorTriggerOnEnter": [
            "DoSkill"
          ],
          "actionPanelState": "Climb",
          "animatorTriggerOnLanded": "",
          "sheatheOnStart": true
        },
        "ClimbTransient": {
          "$type": "BCNJGNDHFGP",
          "animatorStates": {
            "JumpWallReady": [
              "Audio_Lady_JumpUpWallReady"
            ],
            "Standby2ClimbA": [
              "Audio_Lady_Standby2ClimbA",
              "Audio_Lady_Foley_Once_Candace"
            ]
          },
          "resetAnimatorTriggerOnEnter": [
            "DoSkill"
          ],
          "animatorTriggerOnLanded": "",
          "sheatheOnStart": true
        },
        "Upstairs": {
          "$type": "BCNJGNDHFGP",
          "animatorStates": {
            "Upstairs": [
              "Audio_Lady_Upstairs",
              "Audio_Lady_Foley_Once_Candace"
            ]
          },
          "resetAnimatorTriggerOnEnter": [
            "DoSkill"
          ],
          "setAnimatorBoolean": [
            {
              "name": "&CanUseSkill"
            }
          ],
          "animatorTriggerOnLanded": "",
          "sheatheOnStart": true
        },
        "Slip": {
          "$type": "BCNJGNDHFGP",
          "animatorStates": {
            "SlipFaceWall": [
              "Audio_Lady_Foley_ThreeTimes_Candace"
            ],
            "SlipBackWall": [
              "Audio_Lady_Foley_ThreeTimes_Candace"
            ]
          },
          "resetAnimatorTriggerOnEnter": [
            "DoSkill"
          ],
          "animatorTriggerOnLanded": "",
          "sheatheOnStart": true
        },
        "Swim": {
          "$type": "BCNJGNDHFGP",
          "animatorStates": {
            "SwimIdle": [
              "Audio_Lady_SwimIdle"
            ],
            "SwimMove": [
              "SwimStep",
              "Audio_Lady_SwimMove"
            ],
            "SwimDash": [
              "Audio_Lady_SwimDash",
              "Avatar_Lady_SwimDash_Hand_Effect"
            ],
            "SwimJumpToWater": [
              "Audio_Lady_SwimJumpToWater"
            ]
          },
          "resetAnimatorTriggerOnEnter": [
            "DoSkill"
          ],
          "actionPanelState": "Swim",
          "animatorTriggerOnLanded": "",
          "sheatheOnStart": true
        },
        "Fly": {
          "$type": "BCNJGNDHFGP",
          "animatorStates": {
            "Fly": [
              "Audio_Lady_Foley_Once_Candace"
            ],
            "FlyStart": [
              "Audio_Lady_FlyStart",
              "FlyStart_Weapon",
              "Audio_Lady_Foley_FlyStart_Candace"
            ]
          },
          "canDoSkill": true,
          "resetAnimatorTriggerOnEnter": [
            "DoSkill"
          ],
          "setAnimatorBoolean": [
            {
              "name": "&CanUseAirSkill"
            }
          ],
          "actionPanelState": "Fly",
          "animatorTriggerOnLanded": "",
          "sheatheOnStart": true
        },
        "Jump": {
          "$type": "BCNJGNDHFGP",
          "animatorStates": {
            "Jump": [
              "Audio_Lady_Jump",
              "Audio_Lady_Foley_Jump_Candace"
            ],
            "JumpForRun": [
              "Audio_Lady_Jump",
              "Audio_Lady_Foley_Once_Candace"
            ],
            "JumpForWalk": [
              "Audio_Lady_Jump",
              "Audio_Lady_Foley_Once_Candace"
            ],
            "JumpForSprint": [
              "Audio_Lady_Jump",
              "Audio_Lady_Foley_Once_Candace"
            ]
          },
          "canDoSkill": true,
          "resetAnimatorTriggerOnEnter": [
            "DoSkill",
            "AimEnd"
          ],
          "setAnimatorBoolean": [
            {
              "name": "&CanUseAirSkill"
            }
          ],
          "actionPanelState": "Jump",
          "animatorTriggerOnLanded": "",
          "sheatheOnStart": true
        },
        "Fall": {
          "$type": "BCNJGNDHFGP",
          "animatorStates": {
            "JumpOffWall": [
              "Audio_Lady_Jump",
              "Audio_Lady_Foley_Once_Candace"
            ],
            "SwimJump": [
              "Audio_Lady_SwimJump",
              "Audio_Lady_Foley_Once_Candace"
            ],
            "SwimJumpDrop": [
              "Audio_Lady_Foley_ThreeTimes_Candace"
            ],
            "DropDown": [
              "Audio_Lady_DropDown",
              "Audio_Lady_Foley_ThreeTimes_Candace"
            ],
            "DropDownLit": [],
            "WalkDropDownLit": []
          },
          "canDoSkill": true,
          "resetAnimatorTriggerOnEnter": [
            "DoSkill"
          ],
          "setAnimatorBoolean": [
            {
              "name": "&CanUseAirSkill"
            }
          ],
          "animatorTriggerOnLanded": "",
          "sheatheOnStart": true
        },
        "NormalStandbyWeapon": {
          "$type": "BCNJGNDHFGP",
          "animatorStates": {
            "StandbyWeapon": []
          },
          "canDoSkill": true,
          "massRatio": 100.0,
          "setAnimatorBoolean": [
            {
              "name": "&CanUseSkill"
            }
          ],
          "canChangeAvatar": [
            {}
          ],
          "animatorTriggerOnLanded": "",
          "battouOnStart": true
        },
        "NormalMoveWeapon": {
          "$type": "BCNJGNDHFGP",
          "animatorStates": {
            "WalkToRunWeapon": [
              "Lady_Pole_Putaway_RunBS",
              "Audio_Lady_WalkToRun"
            ],
            "WalkWeapon": [
              "Audio_Lady_Walk",
              "Audio_Lady_Foley_Twice_Candace"
            ],
            "RunToWalkWeapon": [
              "Audio_Lady_RunToWalk"
            ],
            "RunWeapon": [
              "Audio_Lady_Run",
              "Audio_Lady_Foley_Twice_Candace"
            ],
            "RunToIdleWeapon": [
              "Audio_Lady_Foley_Twice_Candace"
            ],
            "WalkToIdleWeapon": [
              "Audio_Lady_Foley_Twice_Candace"
            ],
            "RunningTurnWeapon": [],
            "FallOnGroundWeapon": [
              "Audio_Lady_FallOnGround"
            ],
            "FallOnGroundLitWeapon": [
              "Audio_Lady_FallOnGroundLit"
            ],
            "FallOnGroundMiddleWeapon": [
              "Audio_Lady_FallOnGroundMiddle"
            ],
            "FallToGroundRunWeapon": [
              "Audio_Lady_FallToGroundRun"
            ],
            "FallToGroundRunHardWeapon": [
              "Audio_Lady_FallToGroundRunHard"
            ]
          },
          "canDoSkill": true,
          "massRatio": 2.0,
          "setAnimatorBoolean": [
            {
              "name": "&CanUseSkill"
            }
          ],
          "canChangeAvatar": [
            {}
          ],
          "animatorTriggerOnLanded": "",
          "battouOnStart": true
        },
        "NormalMoveWeaponPutaway": {
          "$type": "BCNJGNDHFGP",
          "animatorStates": {
            "StandbyPutaway": [
              "Lady_Pole_Putaway_Standby",
              "Audio_Lady_Pole_StandbyPutAway",
              "Audio_Lady_Foley_Once_Candace"
            ],
            "WalkPutaway": [
              "Lady_Pole_Putaway_Walk",
              "Audio_Lady_Sword_WalkPutAway",
              "Audio_Lady_Foley_Twice_Candace"
            ],
            "RunPutaway": [
              "Lady_Pole_Putaway_Run",
              "Audio_Lady_Sword_RunPutAway",
              "Audio_Lady_Foley_Twice_Candace"
            ],
            "RunToSprintWeapon": [
              "Lady_Pole_Putaway_Sprint",
              "Audio_Lady_Sword_RunToSprintWeapon"
            ]
          },
          "canDoSkill": true,
          "massRatio": 2.0,
          "setAnimatorBoolean": [
            {
              "name": "&CanUseSkill"
            }
          ],
          "canChangeAvatar": [
            {}
          ],
          "animatorTriggerOnLanded": "",
          "battouOnStart": true
        },
        "NormalMoveWeaponOver": {
          "$type": "BCNJGNDHFGP",
          "animatorStates": {
            "StandbyPutawayOver": [],
            "WalkPutawayOver": [
              "Audio_Lady_Sword_WalkPutAwayOver"
            ],
            "RunPutawayOver": [
              "Audio_Lady_Sword_RunPutAwayOver"
            ],
            "RunToSprintWeaponOver": [
              "Audio_Lady_Sword_RunToSprintWeaponOver"
            ]
          },
          "canDoSkill": true,
          "massRatio": 2.0,
          "setAnimatorBoolean": [
            {
              "name": "&CanUseSkill"
            }
          ],
          "canChangeAvatar": [
            {}
          ],
          "animatorTriggerOnLanded": "",
          "sheatheOnStart": true
        },
        "JumpWeapon": {
          "$type": "BCNJGNDHFGP",
          "animatorStates": {
            "JumpWeapon": [
              "Audio_Lady_Jump",
              "Audio_Lady_Foley_Once_Candace"
            ],
            "JumpForRunWeapon": [
              "Audio_Lady_Jump",
              "Audio_Lady_Foley_Once_Candace"
            ],
            "JumpForWalkWeapon": [
              "Audio_Lady_Jump",
              "Audio_Lady_Foley_Once_Candace"
            ]
          },
          "canDoSkill": true,
          "resetAnimatorTriggerOnEnter": [
            "DoSkill"
          ],
          "setAnimatorBoolean": [
            {
              "name": "&CanUseAirSkill"
            }
          ],
          "canChangeAvatar": [
            {}
          ],
          "actionPanelState": "Jump",
          "animatorTriggerOnLanded": "",
          "battouOnStart": true
        },
        "FallWeapon": {
          "$type": "BCNJGNDHFGP",
          "animatorStates": {
            "DropDownWeapon": [
              "Audio_Lady_DropDown",
              "Audio_Lady_Foley_ThreeTimes_Candace"
            ],
            "DropDownLitWeapon": [],
            "WalkDropDownLitWeapon": []
          },
          "canDoSkill": true,
          "resetAnimatorTriggerOnEnter": [
            "DoSkill"
          ],
          "setAnimatorBoolean": [
            {
              "name": "&CanUseAirSkill"
            }
          ],
          "animatorTriggerOnLanded": "",
          "battouOnStart": true
        },
        "BeHit": {
          "$type": "BCNJGNDHFGP",
          "animatorStates": {
            "Hit_L": [
              "Audio_Lady_Hit_L",
              "Audio_Lady_Foley_Once_Candace"
            ],
            "Hit_H": [
              "Audio_Lady_Hit_H",
              "Audio_Lady_Foley_Once_Candace"
            ]
          },
          "onQuit": "combatMove",
          "resetAnimatorTriggerOnEnter": [
            "BeHit",
            "HitAir2HitDrop"
          ],
          "resetAnimatorTriggerOnExit": [
            "DoSkill"
          ],
          "cameraType": "combatBeHit",
          "jumpCancelEnd": 0.0,
          "animatorTriggerOnLanded": "",
          "battouOnStart": true
        },
        "HitThrow": {
          "$type": "BCNJGNDHFGP",
          "animatorStates": {
            "Hit_Throw_Ground": [
              "BeHitAir_Weapon",
              "Audio_Lady_HitThrowGround",
              "Audio_Lady_Foley_Hit_Throw_Ground_Candace"
            ]
          },
          "onQuit": "combatMove",
          "resetAnimatorTriggerOnEnter": [
            "BeHit",
            "HitAir2HitDrop"
          ],
          "resetAnimatorTriggerOnExit": [
            "DoSkill"
          ],
          "cameraType": "combatBeHit",
          "jumpCancelEnd": 0.0,
          "animatorTriggerOnLanded": "",
          "sheatheOnStart": true
        },
        "BeHitAir": {
          "$type": "BCNJGNDHFGP",
          "animatorStates": {
            "Hit_Throw": [
              "Audio_Lady_Hit_Throw",
              "BeHitAir_Weapon",
              "Audio_Lady_Foley_Once_Candace"
            ],
            "Hit_ThrowAir": [
              "Audio_Lady_DropDown",
              "BeHitAir_Weapon"
            ],
            "Struggle": [
              "BeHitAir_Weapon",
              "Audio_Lady_Foley_ThreeTimes_Candace"
            ]
          },
          "onQuit": "combatAir",
          "resetAnimatorTriggerOnEnter": [
            "BeHit"
          ],
          "resetAnimatorTriggerOnExit": [
            "DoSkill"
          ],
          "cameraType": "combatBeHit",
          "actionPanelState": "CombatAir",
          "jumpCancelEnd": 0.0,
          "animatorTriggerOnLanded": "",
          "sheatheOnStart": true
        },
        "Die": {
          "$type": "BCNJGNDHFGP",
          "animatorStates": {
            "DiveDie": [
              "Die",
              "Audio_Lady_Dive_Die"
            ],
            "FallDie": [
              "Audio_Lady_NormalDie"
            ],
            "NormalDie": [
              "Die",
              "Audio_Lady_NormalDie",
              "Audio_Lady_Foley_Once_Candace"
            ],
            "SwimDie": [
              "Swim_Die",
              "Audio_Lady_SwimDie"
            ],
            "HitGroundDie": [
              "Die",
              "Audio_Lady_Death"
            ]
          },
          "animatorTriggerOnLanded": ""
        },
        "Die_RagDoll": {
          "$type": "BCNJGNDHFGP",
          "animatorStates": {
            "FallDie_AS": []
          },
          "enableRagDoll": true,
          "animatorTriggerOnLanded": ""
        },
        "Attack01": {
          "$type": "BCNJGNDHFGP",
          "animatorStates": {
            "Attack01": [
              "Candace_Attack01",
              "Interaction_Bad",
              "Audio_Lady_Candace_Attack01",
              "Emo_Lady_Pole_Candace_NormalAttack01"
            ]
          },
          "onQuit": "combatMove",
          "canDoSkill": true,
          "resetAnimatorTriggerOnExit": [
            "BeHit",
            "DoSkill",
            "Jump"
          ],
          "setAnimatorBoolean": [
            {
              "name": "&CanCancelSkill"
            }
          ],
          "cameraType": "combatNormal",
          "canChangeAvatar": [
            {}
          ],
          "animatorTriggerOnLanded": "",
          "battouOnStart": true,
          "ignorePreSheath": true
        },
        "Attack02": {
          "$type": "BCNJGNDHFGP",
          "animatorStates": {
            "Attack02": [
              "Candace_Attack02",
              "Interaction_Bad",
              "Audio_Lady_Candace_Attack02",
              "Emo_Lady_Pole_Candace_NormalAttack02"
            ]
          },
          "onQuit": "combatMove",
          "canDoSkill": true,
          "resetAnimatorTriggerOnExit": [
            "BeHit",
            "DoSkill",
            "Jump"
          ],
          "setAnimatorBoolean": [
            {
              "name": "&CanCancelSkill"
            }
          ],
          "cameraType": "combatNormal",
          "canChangeAvatar": [
            {}
          ],
          "animatorTriggerOnLanded": "",
          "battouOnStart": true,
          "sheatheOnEnd": true
        },
        "Attack03": {
          "$type": "BCNJGNDHFGP",
          "animatorStates": {
            "Attack03": [
              "Candace_Attack03",
              "Interaction_Bad",
              "Audio_Lady_Candace_Attack03",
              "Emo_Lady_Pole_Candace_NormalAttack03"
            ]
          },
          "onQuit": "combatMove",
          "canDoSkill": true,
          "resetAnimatorTriggerOnExit": [
            "BeHit",
            "DoSkill",
            "Jump"
          ],
          "setAnimatorBoolean": [
            {
              "name": "&CanCancelSkill"
            }
          ],
          "cameraType": "combatNormal",
          "canChangeAvatar": [
            {}
          ],
          "animatorTriggerOnLanded": "",
          "battouOnStart": true,
          "ignorePreSheath": true
        },
        "Attack04": {
          "$type": "BCNJGNDHFGP",
          "animatorStates": {
            "Attack04": [
              "Candace_Attack04",
              "Interaction_Bad",
              "Audio_Lady_Candace_Attack04",
              "Emo_Lady_Pole_Candace_NormalAttack04"
            ]
          },
          "onQuit": "combatMove",
          "canDoSkill": true,
          "resetAnimatorTriggerOnExit": [
            "BeHit",
            "DoSkill",
            "Jump"
          ],
          "setAnimatorBoolean": [
            {
              "name": "&CanCancelSkill"
            }
          ],
          "cameraType": "combatNormal",
          "canChangeAvatar": [
            {}
          ],
          "equipReattach": [
            {
              "equip": "equip01",
              "targetPoint": "CatalystR",
              "normalizeStart": 0.02370000071823597,
              "normalizeEnd": 0.24169999361038208
            }
          ],
          "animatorTriggerOnLanded": "",
          "battouOnStart": true,
          "sheatheOnEnd": true
        },
        "ExtraAttack_BS": {
          "$type": "BCNJGNDHFGP",
          "animatorStates": {
            "ExtraAttack_BS": [
              "Candace_ExtraAttack_BS",
              "Audio_Lady_Candace_ExtraAttack_BS",
              "Emo_Lady_Pole_Candace_ExtraAttack_BS"
            ]
          },
          "onQuit": "combatMove",
          "resetAnimatorTriggerOnExit": [
            "BeHit",
            "Blink"
          ],
          "setAnimatorBoolean": [
            {
              "name": "&CanCancelSkill"
            }
          ],
          "cameraType": "combatNormal",
          "cameraParam": {
            "radiusSpringRatio": 2.0
          },
          "animatorTriggerOnLanded": "",
          "battouOnStart": true,
          "ignorePreSheath": true
        },
        "ExtraAttack": {
          "$type": "BCNJGNDHFGP",
          "animatorStates": {
            "ExtraAttack": [
              "Candace_ExtraAttack",
              "Interaction_Bad",
              "Audio_Lady_Candace_ExtraAttack",
              "Emo_Lady_Pole_Candace_ExtraAttack"
            ]
          },
          "onQuit": "combatMove",
          "resetAnimatorTriggerOnExit": [
            "BeHit",
            "Blink"
          ],
          "setAnimatorBoolean": [
            {
              "name": "&CanCancelSkill",
              "normalizeStart": 0.6800000071525574
            }
          ],
          "enableCCD": true,
          "cameraType": "combatNormal",
          "animatorTriggerOnLanded": ""
        },
        "ExtraAttack_AS": {
          "$type": "BCNJGNDHFGP",
          "animatorStates": {
            "ExtraAttack_AS": [
              "Audio_Lady_Candace_ExtraAttack_AS",
              "Emo_Lady_Pole_Candace_ExtraAttack_AS"
            ]
          },
          "onQuit": "combatMove",
          "canDoSkill": true,
          "resetAnimatorTriggerOnExit": [
            "BeHit"
          ],
          "setAnimatorBoolean": [
            {
              "name": "&CanCancelSkill"
            }
          ],
          "enableCCD": true,
          "cameraType": "combatNormal",
          "canChangeAvatar": [
            {}
          ],
          "animatorTriggerOnLanded": "",
          "battouOnStart": true
        },
        "Candace_ElementalArt_BS": {
          "$type": "BCNJGNDHFGP",
          "animatorStates": {
            "Candace_ElementalArt_BS": [
              "Candace_ElementalArt_BS",
              "Interaction_Bad",
              "Audio_Lady_Candace_ElementalArt_BS",
              "Emo_Avatar_Candace_Skill_ElementalArt_BS"
            ]
          },
          "onQuit": "combatMove",
          "addEndure": 0.6000000238418579,
          "resetAnimatorTriggerOnExit": [
            "BeHit"
          ],
          "cameraType": "combatNormal",
          "jumpCancelEnd": -1.0,
          "sprintCancelEnd": -1.0,
          "animatorTriggerOnLanded": "",
          "battouOnStart": true
        },
        "Candace_ElementalArt_Charge_1": {
          "$type": "BCNJGNDHFGP",
          "animatorStates": {
            "Candace_ElementalArt_Charge_1": [
              "Audio_Lady_Candace_ElementalArt_Charge_1",
              "Emo_Avatar_Candace_Skill_ElementalArt_Charge01"
            ]
          },
          "onQuit": "combatMove",
          "addEndure": 0.6000000238418579,
          "resetAnimatorTriggerOnExit": [
            "BeHit"
          ],
          "cameraType": "combatNormal",
          "jumpCancelEnd": -1.0,
          "sprintCancelEnd": -1.0,
          "animatorTriggerOnLanded": ""
        },
        "Candace_ElementalArt_Charge_2": {
          "$type": "BCNJGNDHFGP",
          "animatorStates": {
            "Candace_ElementalArt_Charge_2": [
              "Audio_Lady_Candace_ElementalArt_Charge_2",
              "Emo_Avatar_Candace_Skill_ElementalArt_Charge02"
            ]
          },
          "onQuit": "combatMove",
          "addEndure": 0.6000000238418579,
          "resetAnimatorTriggerOnExit": [
            "BeHit"
          ],
          "cameraType": "combatNormal",
          "jumpCancelEnd": -1.0,
          "sprintCancelEnd": -1.0,
          "animatorTriggerOnLanded": ""
        },
        "Candace_ElementalArt_Charge_3": {
          "$type": "BCNJGNDHFGP",
          "animatorStates": {
            "Candace_ElementalArt_Charge_3": [
              "Emo_Avatar_Candace_Skill_ElementalArt_Charge03"
            ]
          },
          "onQuit": "combatMove",
          "addEndure": 0.6000000238418579,
          "resetAnimatorTriggerOnExit": [
            "BeHit"
          ],
          "cameraType": "combatNormal",
          "jumpCancelEnd": -1.0,
          "sprintCancelEnd": -1.0,
          "animatorTriggerOnLanded": ""
        },
        "Candace_ElementalArt_H": {
          "$type": "BCNJGNDHFGP",
          "animatorStates": {
            "Candace_ElementalArt_H": [
              "Candace_ElementalArt_H",
              "Interaction_Bad",
              "Audio_Lady_Candace_ElementalArt_H",
              "Emo_Avatar_Candace_Skill_ElementalArt_H"
            ]
          },
          "onQuit": "combatMove",
          "addEndure": 0.6000000238418579,
          "resetAnimatorTriggerOnExit": [
            "BeHit"
          ],
          "cameraType": "combatNormal",
          "equipReattach": [
            {
              "equip": "equip01",
              "targetPoint": "CatalystR"
            }
          ],
          "jumpCancelEnd": -1.0,
          "sprintCancelEnd": -1.0,
          "animatorTriggerOnLanded": ""
        },
        "Candace_ElementalArt_L": {
          "$type": "BCNJGNDHFGP",
          "animatorStates": {
            "Candace_ElementalArt_L": [
              "Candace_ElementalArt_L",
              "Interaction_Bad",
              "Audio_Lady_Candace_ElementalArt_L",
              "Emo_Avatar_Candace_Skill_ElementalArt_L"
            ]
          },
          "onQuit": "combatMove",
          "addEndure": 0.6000000238418579,
          "resetAnimatorTriggerOnExit": [
            "BeHit"
          ],
          "cameraType": "combatNormal",
          "jumpCancelEnd": -1.0,
          "sprintCancelEnd": -1.0,
          "animatorTriggerOnLanded": "",
          "battouOnStart": true
        },
        "Candace_ElementalArt_L_AS": {
          "$type": "BCNJGNDHFGP",
          "animatorStates": {
            "Candace_ElementalArt_L_AS": [
              "Audio_Lady_Candace_ElementalArt_L_AS",
              "Emo_Avatar_Candace_Skill_ElementalArt_L_AS"
            ]
          },
          "onQuit": "combatMove",
          "canDoSkill": true,
          "resetAnimatorTriggerOnExit": [
            "BeHit"
          ],
          "setAnimatorBoolean": [
            {
              "name": "&CanUseSkill"
            }
          ],
          "cameraType": "combatNormal",
          "canChangeAvatar": [
            {}
          ],
          "animatorTriggerOnLanded": ""
        },
        "Candace_ElementalArt_H_AS": {
          "$type": "BCNJGNDHFGP",
          "animatorStates": {
            "Candace_ElementalArt_H_AS": [
              "Audio_Lady_Candace_ElementalArt_H_AS",
              "Emo_Avatar_Candace_Skill_ElementalArt_H_AS"
            ]
          },
          "onQuit": "combatMove",
          "canDoSkill": true,
          "resetAnimatorTriggerOnExit": [
            "BeHit"
          ],
          "setAnimatorBoolean": [
            {
              "name": "&CanUseSkill"
            }
          ],
          "cameraType": "combatNormal",
          "canChangeAvatar": [
            {}
          ],
          "equipReattach": [
            {
              "equip": "equip01",
              "targetPoint": "CatalystR"
            }
          ],
          "animatorTriggerOnLanded": ""
        },
        "Candace_ElementalBurst": {
          "$type": "BCNJGNDHFGP",
          "animatorStates": {
            "Candace_ElementalBurst": [
              "Candace_ElementalBurst",
              "Interaction_Bad",
              "Audio_Lady_Candace_ElementalBurst",
              "Emo_Avatar_Candace_Skill_ElementalBurst"
            ]
          },
          "onQuit": "combatMove",
          "addEndure": 0.0,
          "resetAnimatorTriggerOnExit": [
            "BeHit"
          ],
          "cameraType": "combatNormal",
          "jumpCancelEnd": -1.0,
          "sprintCancelEnd": -1.0,
          "animatorTriggerOnLanded": "",
          "battouOnStart": true
        },
        "Candace_ElementalBurst_AS": {
          "$type": "BCNJGNDHFGP",
          "animatorStates": {
            "Candace_ElementalBurst_AS": [
              "Candace_ElementalBurst_AS",
              "Audio_Lady_Candace_ElementalBurst_AS",
              "Emo_Avatar_Candace_Skill_ElementalBurst_AS"
            ]
          },
          "onQuit": "combatMove",
          "canDoSkill": true,
          "resetAnimatorTriggerOnExit": [
            "BeHit"
          ],
          "setAnimatorBoolean": [
            {
              "name": "&CanUseSkill"
            }
          ],
          "cameraType": "combatNormal",
          "canChangeAvatar": [
            {}
          ],
          "equipReattach": [
            {
              "equip": "equip01",
              "targetPoint": "CatalystR",
              "normalizeStart": 0.4320000112056732
            }
          ],
          "animatorTriggerOnLanded": "",
          "sheatheOnEnd": true
        },
        "FallingAnthem_BS": {
          "$type": "BCNJGNDHFGP",
          "animatorStates": {
            "FallingAnthem_BS_1": [
              "Audio_Lady_Pole_Candace_FallingAnthem_BS_1",
              "Emo_Lady_Pole_FallingAttack_BS_01"
            ],
            "FallingAnthem_BS_2": [
              "Emo_Lady_Pole_FallingAttack_BS_02"
            ]
          },
          "onQuit": "combatAir",
          "addEndure": 0.0,
          "resetAnimatorTriggerOnExit": [
            "BeHit",
            "DoSkill",
            "Jump"
          ],
          "cameraType": "combatNormal",
          "actionPanelState": "Fly",
          "equipReattach": [
            {
              "equip": "equip01",
              "targetPoint": "WeaponR"
            }
          ],
          "jumpCancelEnd": -1.0,
          "animatorTriggerOnLanded": "HitAir2HitDrop",
          "battouOnStart": true
        },
        "FallingAnthem_Loop": {
          "$type": "BCNJGNDHFGP",
          "animatorStates": {
            "FallingAnthem_Loop": [
              "Audio_Lady_FallingAnthem_Loop_Candace"
            ],
            "FallingAnthem_Loop_Low": [
              "Audio_Lady_FallingAnthem_Loop_Candace"
            ]
          },
          "onQuit": "combatAir",
          "addEndure": 0.0,
          "resetAnimatorTriggerOnExit": [
            "BeHit",
            "DoSkill",
            "Jump"
          ],
          "actionPanelState": "Fly",
          "equipReattach": [
            {
              "equip": "equip01",
              "targetPoint": "WeaponR"
            }
          ],
          "animatorTriggerOnLanded": "HitAir2HitDrop",
          "battouOnStart": true
        },
        "FallingAnthem_AS_1": {
          "$type": "BCNJGNDHFGP",
          "animatorStates": {
            "FallingAnthem_AS_1": [
              "Candace_FallingAnthem_Strike",
              "Interaction_Bad",
              "Audio_Lady_Pole_Candace_FallingAnthem_AS_1",
              "Emo_Lady_Pole_FallingAttack_AS_01"
            ]
          },
          "onQuit": "combatMove",
          "canDoSkill": true,
          "resetAnimatorTriggerOnExit": [
            "BeHit",
            "DoSkill",
            "Jump"
          ],
          "setAnimatorBoolean": [
            {
              "name": "&CanUseSkill",
              "normalizeStart": 0.800000011920929
            }
          ],
          "equipReattach": [
            {
              "equip": "equip01",
              "targetPoint": "WeaponR"
            }
          ],
          "jumpCancelEnd": -1.0,
          "sprintCancelEnd": -1.0,
          "animatorTriggerOnLanded": "",
          "battouOnStart": true
        },
        "FallingAnthem_AS_2": {
          "$type": "BCNJGNDHFGP",
          "animatorStates": {
            "FallingAnthem_AS_2": [
              "Audio_Lady_Pole_Candace_FallingAnthem_AS_2",
              "Emo_Lady_Pole_FallingAttack_AS_02"
            ]
          },
          "onQuit": "combatMove",
          "canDoSkill": true,
          "resetAnimatorTriggerOnExit": [
            "BeHit",
            "DoSkill",
            "Jump"
          ],
          "setAnimatorBoolean": [
            {
              "name": "&CanUseSkill"
            }
          ],
          "canChangeAvatar": [
            {}
          ],
          "equipReattach": [
            {
              "equip": "equip01",
              "targetPoint": "WeaponR"
            }
          ],
          "jumpCancelStart": 0.10000000149011612,
          "sprintCancelStart": 0.10000000149011612,
          "animatorTriggerOnLanded": "",
          "battouOnStart": true,
          "sheatheOnEnd": true
        },
        "Sit": {
          "$type": "BCNJGNDHFGP",
          "animatorStates": {
            "SitDown": [
              "Audio_Girl_SitDown",
              "Audio_Lady_Sit_Candace"
            ],
            "SitLoop": [],
            "SitUp": [
              "Audio_Girl_SitDown",
              "Audio_Lady_Sit_Candace"
            ]
          },
          "onQuit": "performMove",
          "massRatio": 100.0,
          "actionPanelState": "Perform",
          "animatorTriggerOnLanded": "",
          "sheatheOnStart": true
        },
        "SitB": {
          "$type": "BCNJGNDHFGP",
          "animatorStates": {
            "SitBDown": [
              "Audio_Girl_SitDown",
              "Audio_Lady_Sit_Candace"
            ],
            "SitBLoop": [],
            "SitBUp": [
              "Audio_Girl_SitDown",
              "Audio_Lady_Sit_Candace"
            ]
          },
          "onQuit": "performMove",
          "massRatio": 100.0,
          "actionPanelState": "Perform",
          "animatorTriggerOnLanded": "",
          "sheatheOnStart": true
        },
        "StandbyShow": {
          "$type": "BCNJGNDHFGP",
          "animatorStates": {
            "StandbyVoice": [
              "Audio_Lady_StandbyVoice"
            ],
            "StandbyShow_01": [
              "Manekin_Candace_Show01",
              "Audio_Lady_Candace_StandbyShow01_SFX"
            ],
            "StandbyShow_02": [
              "Manekin_Candace_Show02",
              "Audio_Lady_Candace_StandbyShow02_SFX"
            ]
          },
          "onQuit": "performMove",
          "canDoSkill": true,
          "massRatio": 100.0,
          "setAnimatorBoolean": [
            {
              "name": "&CanUseSkill"
            }
          ],
          "canChangeAvatar": [
            {}
          ],
          "animatorTriggerOnLanded": "",
          "sheatheOnStart": true
        },
        "TakePhotos": {
          "$type": "BCNJGNDHFGP",
          "animatorStates": {
            "Think01BS": [],
            "Akimbo02BS": [],
            "Think01Loop": [],
            "Akimbo02Loop": [],
            "Think01AS": [],
            "Akimbo02AS": []
          },
          "animatorTriggerOnLanded": ""
        },
        "Channel_BS": {
          "$type": "BCNJGNDHFGP",
          "animatorStates": {
            "ChannelBS": [
              "Emo_Avatar_Common_Manekin_Default"
            ]
          },
          "onQuit": "combatMove",
          "canDoSkill": true,
          "massRatio": 100.0,
          "resetAnimatorTriggerOnExit": [
            "BeHit",
            "DoSkill",
            "Jump"
          ],
          "setAnimatorBoolean": [
            {
              "name": "&CanUseSkill"
            }
          ],
          "canChangeAvatar": [
            {}
          ],
          "animatorTriggerOnLanded": "",
          "sheatheOnStart": true
        },
        "Channel_Loop": {
          "$type": "BCNJGNDHFGP",
          "animatorStates": {
            "ChannelLoop": []
          },
          "onQuit": "combatMove",
          "canDoSkill": true,
          "massRatio": 100.0,
          "resetAnimatorTriggerOnExit": [
            "BeHit",
            "DoSkill",
            "Jump"
          ],
          "setAnimatorBoolean": [
            {
              "name": "&CanUseSkill"
            }
          ],
          "canChangeAvatar": [
            {}
          ],
          "animatorTriggerOnLanded": "",
          "sheatheOnStart": true
        },
        "Channel_AS": {
          "$type": "BCNJGNDHFGP",
          "animatorStates": {
            "ChannelAS": []
          },
          "onQuit": "combatMove",
          "canDoSkill": true,
          "massRatio": 100.0,
          "resetAnimatorTriggerOnExit": [
            "BeHit",
            "DoSkill",
            "Jump"
          ],
          "setAnimatorBoolean": [
            {
              "name": "&CanUseSkill"
            }
          ],
          "canChangeAvatar": [
            {}
          ],
          "animatorTriggerOnLanded": "",
          "sheatheOnStart": true
        },
        "PlayMusic_Lyre": {
          "$type": "BCNJGNDHFGP",
          "animatorStates": {
            "PlayMusic_Lyre_BS": [
              "PlayMusic_Lyre_Lady",
              "Audio_Char_Common_PlayMusic_Lyrc_BS"
            ],
            "PlayMusic_Lyre_Loop": []
          },
          "onQuit": "combatMove",
          "massRatio": 100.0,
          "resetAnimatorTriggerOnExit": [
            "BeHit",
            "DoSkill",
            "Jump"
          ],
          "animatorTriggerOnLanded": "",
          "sheatheOnStart": true
        },
        "PlayMusic_Lyre_AS": {
          "$type": "BCNJGNDHFGP",
          "animatorStates": {
            "PlayMusic_Lyre_AS": [
              "PlayMusic_Lyre_Lady_AS",
              "Audio_Char_Common_PlayMusic_Lyrc_AS"
            ]
          },
          "onQuit": "combatMove",
          "canDoSkill": true,
          "massRatio": 100.0,
          "resetAnimatorTriggerOnExit": [
            "BeHit",
            "DoSkill",
            "Jump"
          ],
          "setAnimatorBoolean": [
            {
              "name": "&CanUseSkill"
            }
          ],
          "canChangeAvatar": [
            {}
          ],
          "animatorTriggerOnLanded": "",
          "sheatheOnStart": true
        },
        "PlayMusic_Qin": {
          "$type": "BCNJGNDHFGP",
          "animatorStates": {
            "PlayMusic_Qin_BS": [
              "PlayMusic_Qin_Lady"
            ],
            "PlayMusic_Qin_Loop": []
          },
          "onQuit": "combatMove",
          "massRatio": 100.0,
          "resetAnimatorTriggerOnExit": [
            "BeHit",
            "DoSkill",
            "Jump"
          ],
          "animatorTriggerOnLanded": "",
          "sheatheOnStart": true
        },
        "PlayMusic_Qin_AS": {
          "$type": "BCNJGNDHFGP",
          "animatorStates": {
            "PlayMusic_Qin_AS": [
              "PlayMusic_Qin_Lady_AS"
            ]
          },
          "onQuit": "combatMove",
          "canDoSkill": true,
          "massRatio": 100.0,
          "resetAnimatorTriggerOnExit": [
            "BeHit",
            "DoSkill",
            "Jump"
          ],
          "setAnimatorBoolean": [
            {
              "name": "&CanUseSkill"
            }
          ],
          "canChangeAvatar": [
            {}
          ],
          "animatorTriggerOnLanded": "",
          "sheatheOnStart": true
        },
        "PlayMusic_Drum": {
          "$type": "BCNJGNDHFGP",
          "animatorStates": {
            "PlayMusic_Drum_BS": [
              "PlayMusic_Drum_Lady"
            ],
            "PlayMusic_Drum_Loop": []
          },
          "onQuit": "combatMove",
          "massRatio": 100.0,
          "resetAnimatorTriggerOnExit": [
            "BeHit",
            "DoSkill",
            "Jump"
          ],
          "animatorTriggerOnLanded": "",
          "sheatheOnStart": true
        },
        "PlayMusic_Drum_AS": {
          "$type": "BCNJGNDHFGP",
          "animatorStates": {
            "PlayMusic_Drum_AS": [
              "PlayMusic_Drum_Lady_AS"
            ]
          },
          "onQuit": "combatMove",
          "canDoSkill": true,
          "massRatio": 100.0,
          "resetAnimatorTriggerOnExit": [
            "BeHit",
            "DoSkill",
            "Jump"
          ],
          "setAnimatorBoolean": [
            {
              "name": "&CanUseSkill"
            }
          ],
          "canChangeAvatar": [
            {}
          ],
          "animatorTriggerOnLanded": "",
          "sheatheOnStart": true
        },
        "PlayMusic_FrenchHorn": {
          "$type": "BCNJGNDHFGP",
          "animatorStates": {
            "PlayMusic_FrenchHorn_BS": [
              "PlayMusic_Frenchhorn_Lady"
            ],
            "PlayMusic_FrenchHorn_Loop": [
              "PlayMusic_Frenchhorn_Lady_Loop"
            ]
          },
          "onQuit": "combatMove",
          "massRatio": 100.0,
          "resetAnimatorTriggerOnExit": [
            "BeHit",
            "DoSkill",
            "Jump"
          ],
          "animatorTriggerOnLanded": "",
          "sheatheOnStart": true
        },
        "PlayMusic_FrenchHorn_AS": {
          "$type": "BCNJGNDHFGP",
          "animatorStates": {
            "PlayMusic_FrenchHorn_AS": [
              "PlayMusic_Frenchhorn_Lady_AS"
            ]
          },
          "onQuit": "combatMove",
          "canDoSkill": true,
          "massRatio": 100.0,
          "resetAnimatorTriggerOnExit": [
            "BeHit",
            "DoSkill",
            "Jump"
          ],
          "setAnimatorBoolean": [
            {
              "name": "&CanUseSkill"
            }
          ],
          "canChangeAvatar": [
            {}
          ],
          "animatorTriggerOnLanded": "",
          "sheatheOnStart": true
        },
        "ActivitySkill_ElectricCoreFly": {
          "$type": "BCNJGNDHFGP",
          "animatorStates": {
            "ActivitySkill_ElectricCoreFly": []
          },
          "onQuit": "combatAir",
          "massRatio": 100.0,
          "resetAnimatorTriggerOnEnter": [
            "ElectricCoreFly_End"
          ],
          "resetAnimatorTriggerOnExit": [
            "BeHit",
            "DoSkill",
            "Jump",
            "ElectricCoreFly_End"
          ],
          "animatorTriggerOnLanded": "",
          "sheatheOnStart": true
        },
        "ActivitySkill_GrapplingHook": {
          "$type": "BCNJGNDHFGP",
          "animatorStates": {
            "ActivitySkill_GrapplingHook": []
          },
          "onQuit": "combatAir",
          "massRatio": 100.0,
          "resetAnimatorTriggerOnEnter": [
            "GrapplingHook_Drop"
          ],
          "resetAnimatorTriggerOnExit": [
            "BeHit",
            "DoSkill",
            "Jump",
            "GrapplingHook_Drop"
          ],
          "animatorTriggerOnLanded": "",
          "sheatheOnStart": true
        },
        "ActivitySkill_CustomSkill01": {
          "$type": "BCNJGNDHFGP",
          "animatorStates": {
            "ActivitySkill_CustomSkill01": []
          },
          "onQuit": "combatAir",
          "canDoSkill": true,
          "massRatio": 100.0,
          "resetAnimatorTriggerOnEnter": [
            "CustomSkill_End_Fly",
            "CustomSkill_End_Drop"
          ],
          "resetAnimatorTriggerOnExit": [
            "BeHit",
            "DoSkill",
            "Jump",
            "CustomSkill_End_Fly",
            "CustomSkill_End_Drop"
          ],
          "animatorTriggerOnLanded": "",
          "sheatheOnStart": true
        },
        "ActivitySkill_CustomSkill02": {
          "$type": "BCNJGNDHFGP",
          "animatorStates": {
            "ActivitySkill_CustomSkill02": []
          },
          "onQuit": "combatAir",
          "canDoSkill": true,
          "massRatio": 100.0,
          "resetAnimatorTriggerOnEnter": [
            "CustomSkill_End_Fly",
            "CustomSkill_End_Drop"
          ],
          "resetAnimatorTriggerOnExit": [
            "BeHit",
            "DoSkill",
            "Jump",
            "CustomSkill_End_Fly",
            "CustomSkill_End_Drop"
          ],
          "animatorTriggerOnLanded": "",
          "sheatheOnStart": true
        },
        "ActivitySkill_CommonMove": {
          "$type": "BCNJGNDHFGP",
          "animatorStates": {
            "ActivitySkill_CommonMove": []
          },
          "addEndure": 0.0,
          "massRatio": 100.0,
          "resetAnimatorTriggerOnExit": [
            "BeHit",
            "DoSkill",
            "Jump"
          ],
          "handleAnimatorStateImmediately": true,
          "jumpCancelStart": -1.0,
          "sprintCancelStart": -1.0,
          "animatorTriggerOnLanded": "",
          "sheatheOnStart": true
        },
        "DiveChannel_BS": {
          "$type": "BCNJGNDHFGP",
          "animatorStates": {
            "DiveChannelBS": [
              "Emo_Avatar_Common_Manekin_Default",
              "Audio_Lady_DiveChannel_BS"
            ]
          },
          "onQuit": "combatDive",
          "massRatio": 100.0,
          "resetAnimatorTriggerOnExit": [
            "BeHit",
            "DoSkill",
            "Jump"
          ],
          "setAnimatorBoolean": [
            {
              "name": "&CanUseSkill"
            }
          ],
          "canChangeAvatar": [
            {}
          ],
          "actionPanelState": "Dive",
          "sprintCancelEnd": -1.0,
          "animatorTriggerOnLanded": "",
          "sheatheOnStart": true
        },
        "DiveChannel_Loop": {
          "$type": "BCNJGNDHFGP",
          "animatorStates": {
            "DiveChannelLoop": []
          },
          "onQuit": "combatDive",
          "massRatio": 100.0,
          "resetAnimatorTriggerOnExit": [
            "BeHit",
            "DoSkill",
            "Jump"
          ],
          "setAnimatorBoolean": [
            {
              "name": "&CanUseSkill"
            }
          ],
          "canChangeAvatar": [
            {}
          ],
          "actionPanelState": "Dive",
          "sprintCancelEnd": -1.0,
          "animatorTriggerOnLanded": "",
          "sheatheOnStart": true
        },
        "DiveChannel_AS": {
          "$type": "BCNJGNDHFGP",
          "animatorStates": {
            "DiveChannelAS": [
              "Audio_Lady_DiveChannel_AS"
            ]
          },
          "onQuit": "combatDive",
          "canDoSkill": true,
          "canDoSkillStart": 0.30000001192092896,
          "massRatio": 100.0,
          "resetAnimatorTriggerOnExit": [
            "BeHit",
            "DoSkill",
            "Jump"
          ],
          "setAnimatorBoolean": [
            {
              "name": "&CanUseSkill"
            }
          ],
          "canChangeAvatar": [
            {}
          ],
          "actionPanelState": "Dive",
          "sprintCancelStart": 0.11999999731779099,
          "animatorTriggerOnLanded": "",
          "sheatheOnStart": true
        },
        "DiveCast_BS": {
          "$type": "BCNJGNDHFGP",
          "animatorStates": {
            "DiveCast_BS": [
              "Emo_Avatar_Common_Manekin_Default",
              "Audio_Lady_DiveCast_BS"
            ]
          },
          "onQuit": "combatDive",
          "massRatio": 100.0,
          "resetAnimatorTriggerOnExit": [
            "BeHit",
            "DoSkill",
            "Jump"
          ],
          "setAnimatorBoolean": [
            {
              "name": "&CanUseSkill"
            }
          ],
          "canChangeAvatar": [
            {}
          ],
          "actionPanelState": "Dive",
          "sprintCancelEnd": -1.0,
          "animatorTriggerOnLanded": "",
          "sheatheOnStart": true
        },
        "DiveCast_Loop": {
          "$type": "BCNJGNDHFGP",
          "animatorStates": {
            "DiveCast_Loop": []
          },
          "onQuit": "combatDive",
          "massRatio": 100.0,
          "resetAnimatorTriggerOnExit": [
            "BeHit",
            "DoSkill",
            "Jump"
          ],
          "setAnimatorBoolean": [
            {
              "name": "&CanUseSkill"
            }
          ],
          "canChangeAvatar": [
            {}
          ],
          "actionPanelState": "Dive",
          "sprintCancelEnd": -1.0,
          "animatorTriggerOnLanded": "",
          "sheatheOnStart": true
        },
        "DiveCast_AS": {
          "$type": "BCNJGNDHFGP",
          "animatorStates": {
            "DiveCast_AS": [
              "Audio_Lady_DiveCast_AS"
            ]
          },
          "onQuit": "combatDive",
          "canDoSkill": true,
          "canDoSkillStart": 0.10000000149011612,
          "massRatio": 100.0,
          "resetAnimatorTriggerOnExit": [
            "BeHit",
            "DoSkill",
            "Jump"
          ],
          "setAnimatorBoolean": [
            {
              "name": "&CanUseSkill"
            }
          ],
          "canChangeAvatar": [
            {}
          ],
          "actionPanelState": "Dive",
          "sprintCancelStart": 0.09000000357627869,
          "animatorTriggerOnLanded": "",
          "sheatheOnStart": true
        },
        "Dive": {
          "$type": "BCNJGNDHFGP",
          "animatorStates": {
            "DiveIdle": [],
            "DiveMoveBS": [
              "Audio_Lady_Dive_MoveBS"
            ],
            "DiveMoveAS": [
              "Audio_Lady_Dive_MoveAS"
            ],
            "DiveMoveU_A": [
              "Audio_Lady_Dive_MoveU_A"
            ],
            "DiveMoveU_B": [
              "Audio_Lady_Dive_MoveU_B"
            ],
            "DiveMoveF_A": [],
            "DiveMoveF_B": [
              "Audio_Lady_Dive_MoveF_B"
            ],
            "DiveMoveD_A": [
              "Audio_Lady_Dive_MoveD_A"
            ],
            "DiveMoveD_B": [
              "Audio_Lady_Dive_MoveD_B"
            ],
            "DiveTurn": [
              "Audio_Lady_Dive_Turn"
            ],
            "DiveTurnAS": [
              "Audio_Lady_Dive_Turn_AS"
            ],
            "DiveTurn2": [
              "Audio_Lady_Dive_Turn"
            ],
            "DiveTurnAS2": [
              "Audio_Lady_Dive_Turn_AS"
            ],
            "DiveDashBS": [
              "Audio_Lady_Dive_Dash_BS"
            ],
            "DiveDashAS": [
              "Audio_Lady_Dive_Dash_AS"
            ],
            "DiveDash": [],
            "DiveDashB": [
              "Audio_Lady_Dive_Out_DashB"
            ],
            "DiveSuperDash": [
              "Audio_Lady_Dive_SuperDash"
            ],
            "DiveSuperDash2": [
              "Audio_Lady_Dive_SuperDash2"
            ]
          },
          "canDoSkill": true,
          "resetAnimatorTriggerOnEnter": [
            "DoSkill"
          ],
          "setAnimatorBoolean": [
            {
              "name": "&CanUseSkill"
            }
          ],
          "canChangeAvatar": [
            {}
          ],
          "actionPanelState": "Dive",
          "animatorTriggerOnLanded": "",
          "sheatheOnStart": true
        },
        "Dive_In_Out": {
          "$type": "BCNJGNDHFGP",
          "animatorStates": {
            "Dive_In_Up": [
              "Audio_Lady_Dive_In_Up"
            ],
            "Dive_In_Side": [
              "Audio_Lady_Dive_In_Side"
            ],
            "Dive_In_Bottom": [
              "Audio_Lady_Dive_In_Bottom"
            ],
            "Dive_Out_Side": [
              "Audio_Lady_Dive_Out_Side"
            ],
            "Dive_Out_Bottom": [
              "Audio_Lady_Dive_Out_Bottom"
            ],
            "Dive_Out_Up": [
              "Audio_Lady_Dive_Out_Up"
            ]
          },
          "resetAnimatorTriggerOnEnter": [
            "DoSkill"
          ],
          "setAnimatorBoolean": [
            {
              "name": "&CanUseSkill"
            }
          ],
          "actionPanelState": "Dive",
          "animatorTriggerOnLanded": "",
          "sheatheOnStart": true
        },
        "DiveStream": {
          "$type": "BCNJGNDHFGP",
          "animatorStates": {
            "DiveStreamIn": [
              "Audio_Lady_Dive_Stream_In"
            ],
            "DiveStreamOut": [
              "Audio_Lady_Dive_Stream_Out"
            ],
            "DiveStream": [],
            "DiveStreamRoll_L": [
              "Audio_Lady_Dive_Stream_Roll_L"
            ],
            "DiveStreamRoll_R": [
              "Audio_Lady_Dive_Stream_Roll_R"
            ]
          },
          "canDoSkill": true,
          "resetAnimatorTriggerOnEnter": [
            "DoSkill"
          ],
          "setAnimatorBoolean": [
            {
              "name": "&CanUseSkill"
            }
          ],
          "actionPanelState": "Dive",
          "animatorTriggerOnLanded": "",
          "sheatheOnStart": true
        },
        "DiveJump": {
          "$type": "BCNJGNDHFGP",
          "animatorStates": {
            "Dive_Out_DashU": [
              "Audio_Lady_Dive_Out_DashU"
            ],
            "Dive_Out_DashD": [
              "Audio_Lady_Dive_Out_DashD"
            ],
            "Dive_Out_DashFBS": [
              "Audio_Lady_Dive_Out_DashFBS"
            ],
            "Dive_Out_DashFAS": [
              "Audio_Lady_Dive_Out_DashFAS"
            ],
            "Dive_Out_DashFLoop": []
          },
          "canDoSkill": true,
          "resetAnimatorTriggerOnEnter": [
            "DoSkill",
            "AimEnd"
          ],
          "setAnimatorBoolean": [
            {
              "name": "&CanUseAirSkill"
            }
          ],
          "actionPanelState": "Jump",
          "animatorTriggerOnLanded": "",
          "sheatheOnStart": true
        },
        "BeHitDive": {
          "$type": "BCNJGNDHFGP",
          "animatorStates": {
            "BeHitDive": [
              "Audio_Lady_Dive_beHit"
            ],
            "DiveStruggle": []
          },
          "onQuit": "combatDive",
          "resetAnimatorTriggerOnEnter": [
            "BeHit"
          ],
          "resetAnimatorTriggerOnExit": [
            "DoSkill"
          ],
          "cameraType": "combatBeHit",
          "actionPanelState": "Dive",
          "jumpCancelEnd": 0.0,
          "animatorTriggerOnLanded": "",
          "sheatheOnStart": true
        },
        "MultiOverride_01": {
          "$type": "BCNJGNDHFGP",
          "animatorStates": {
            "MultiOverrideBS_01": [],
            "MultiOverrideLoop_01": [],
            "MultiOverrideAS_01": []
          },
          "animatorTriggerOnLanded": ""
        },
        "MultiOverride2": {
          "$type": "BCNJGNDHFGP",
          "animatorStates": {
            "MultiOverrideBS_02": [],
            "MultiOverrideLoop_02": [],
            "MultiOverrideAS_02": []
          },
          "animatorTriggerOnLanded": ""
        },
        "MultiOverride3": {
          "$type": "BCNJGNDHFGP",
          "animatorStates": {
            "MultiOverrideBS_03": [],
            "MultiOverrideLoop_03": [],
            "MultiOverrideAS_03": []
          },
          "animatorTriggerOnLanded": ""
        },
        "MultiOverride": {
          "$type": "BCNJGNDHFGP",
          "DAJBEEPCPBH": {
            "Ani_Avatar_Lady_Pole_Candace_Photo01BS": [],
            "Ani_Avatar_Lady_Pole_Candace_Photo01Loop": [],
            "Ani_Avatar_Lady_Pole_Candace_Photo01AS": [],
            "Ani_Avatar_Lady_Pole_Candace_Photo02BS": [],
            "Ani_Avatar_Lady_Pole_Candace_Photo02Loop": [],
            "Ani_Avatar_Lady_Pole_Candace_Photo02AS": []
          },
          "animatorTriggerOnLanded": ""
        }
      }
    },
    "diveLayer": {
      "$type": "AEMHOACJLIB",
      "layerIndex": 5,
      "layerIndexName": "DiveLayer",
      "GCIDDLIDFAE": ""
    }
  },
  "audio": {
    "overrideEmitterName": "",
    "animAudio": {
      "onTransitionIn": [
        {
          "currentStateName": "SlipFaceWall",
          "audioEvent": {
            "text": "Play_sfx_char_slipWall"
          }
        },
        {
          "currentStateName": "SlipBackWall",
          "audioEvent": {
            "text": "Play_sfx_char_slipWall"
          }
        },
        {
          "currentStateName": "NormalDie",
          "audioEvent": {
            "text": "Play_sfx_char_land"
          },
          "otherStateNames": [
            "FallOnGround"
          ],
          "usage": "InSet"
        },
        {
          "currentStateName": "SprintBS",
          "audioEvent": {
            "text": "Play_sfx_char_foley_flutter_heavy"
          }
        },
        {
          "currentStateName": "CrouchIdle",
          "audioEvent": {
            "text": "Play_sfx_char_foley_cloth_middle"
          }
        },
        {
          "currentStateName": "SwimDash",
          "audioEvent": {
            "text": "Play_sfx_char_swim_dash"
          }
        },
        {
          "currentStateName": "SwimJumpToWater",
          "audioEvent": {
            "text": "Stop_sfx_char_swim_dive"
          }
        },
        {
          "currentStateName": "Standby",
          "audioEvent": {
            "text": "Stop_sfx_char_fly"
          }
        },
        {
          "currentStateName": "DiveDash",
          "audioEvent": {
            "text": "Play_sfx_char_dive_dash_lp"
          },
          "otherStateNames": [
            "DiveDashBS"
          ],
          "usage": "InSet"
        },
        {
          "currentStateName": "DiveStream",
          "audioEvent": {
            "text": "Play_sfx_char_dive_stream_lp"
          }
        },
        {
          "currentStateName": "Dive_Out_DashFLoop",
          "audioEvent": {
            "text": "Play_sfx_char_dive_out_dashFLoop"
          }
        },
        {
          "currentStateName": "DiveMoveF_A",
          "audioEvent": {
            "text": "Play_sfx_char_dive_moveF_A"
          }
        },
        {
          "currentStateName": "DiveChannel_Loop",
          "audioEvent": {
            "text": "Play_vfx_Avatar_Diving_Channel_LP"
          }
        }
      ],
      "onTransitionOut": [
        {
          "currentStateName": "Attack01",
          "audioEvent": {
            "text": "Stop_sfx_char_candace_pole_attack"
          },
          "otherStateNames": [
            "ExtraAttack"
          ],
          "usage": "Except"
        },
        {
          "currentStateName": "Attack02",
          "audioEvent": {
            "text": "Stop_sfx_char_candace_pole_attack"
          }
        },
        {
          "currentStateName": "Attack03",
          "audioEvent": {
            "text": "Stop_sfx_char_candace_pole_attack"
          },
          "otherStateNames": [
            "Attack04"
          ],
          "usage": "Except"
        },
        {
          "currentStateName": "Attack04",
          "audioEvent": {
            "text": "Stop_sfx_char_candace_pole_attack"
          }
        },
        {
          "currentStateName": "ExtraAttack",
          "audioEvent": {
            "text": "Stop_sfx_char_candace_pole_extraAtk"
          },
          "otherStateNames": [
            "ExtraAttack_AS"
          ],
          "usage": "Except"
        },
        {
          "currentStateName": "ExtraAttack_AS",
          "audioEvent": {
            "text": "Stop_sfx_char_candace_pole_extraAtk_AS"
          }
        },
        {
          "currentStateName": "Candace_ElementalArt_Charge_2",
          "audioEvent": {
            "text": "Stop_sfx_char_candace_elementalArt_H_charge_02"
          },
          "otherStateNames": [
            "Candace_ElementalArt_Charge_3"
          ],
          "usage": "Except"
        },
        {
          "currentStateName": "ElementalArt_L_AS",
          "audioEvent": {
            "text": "Stop_sfx_char_candace_elementalArt_L_AS"
          }
        },
        {
          "currentStateName": "ElementalArt_H_AS",
          "audioEvent": {
            "text": "Stop_sfx_char_candace_elementalArt_H_AS"
          }
        },
        {
          "currentStateName": "ElementalBurst_AS",
          "audioEvent": {
            "text": "Stop_sfx_char_candace_elementalBurst_AS"
          }
        },
        {
          "currentStateName": "StandbyShow_01",
          "audioEvent": {
            "text": "Stop_sfx_standbyShow_candace_01"
          }
        },
        {
          "currentStateName": "StandbyShow_02",
          "audioEvent": {
            "text": "Stop_sfx_standbyShow_candace_02"
          }
        },
        {
          "currentStateName": "StandbyPutaway",
          "audioEvent": {
            "text": "Stop_sfx_weapon_1HSword_lady_putAwayStandby"
          }
        },
        {
          "currentStateName": "WalkPutaway",
          "audioEvent": {
            "text": "Stop_sfx_weapon_1HSword_lady_putAwayStandby"
          }
        },
        {
          "currentStateName": "RunPutaway",
          "audioEvent": {
            "text": "Stop_sfx_weapon_1HSword_lady_putAwayStandby"
          }
        },
        {
          "currentStateName": "SwimJumpDrop",
          "audioEvent": {
            "text": "Stop_sfx_char_swim_drop"
          }
        },
        {
          "currentStateName": "SwimJump",
          "audioEvent": {
            "text": "Stop_sfx_char_swim_drop"
          },
          "otherStateNames": [
            "SwimJumpDrop"
          ],
          "usage": "Except"
        },
        {
          "currentStateName": "Fly",
          "audioEvent": {
            "text": "Play_sfx_char_land_climb"
          },
          "otherStateNames": [
            "ClimbIdle",
            "ClimbMove0",
            "ClimbMove1",
            "ClimbJump"
          ],
          "usage": "InSet"
        },
        {
          "currentStateName": "FlyStart",
          "audioEvent": {
            "text": "Play_sfx_char_land_climb"
          },
          "otherStateNames": [
            "ClimbIdle",
            "ClimbMove0",
            "ClimbMove1",
            "ClimbJump"
          ],
          "usage": "InSet"
        },
        {
          "currentStateName": "DropDownLit",
          "audioEvent": {
            "text": "Play_sfx_char_land_climb"
          },
          "otherStateNames": [
            "ClimbIdle",
            "ClimbMove0",
            "ClimbMove1",
            "ClimbJump"
          ],
          "usage": "InSet"
        },
        {
          "currentStateName": "DropDown",
          "audioEvent": {
            "text": "Play_sfx_char_land_climb"
          },
          "otherStateNames": [
            "ClimbIdle",
            "ClimbMove0",
            "ClimbMove1",
            "ClimbJump"
          ],
          "usage": "InSet"
        },
        {
          "currentStateName": "WalkDropDownLit",
          "audioEvent": {
            "text": "Play_sfx_char_land_climb"
          },
          "otherStateNames": [
            "ClimbIdle",
            "ClimbMove0",
            "ClimbMove1",
            "ClimbJump"
          ],
          "usage": "InSet"
        },
        {
          "currentStateName": "Jump",
          "audioEvent": {
            "text": "Play_sfx_char_land_climb"
          },
          "otherStateNames": [
            "ClimbIdle",
            "ClimbMove0",
            "ClimbMove1",
            "ClimbJump"
          ],
          "usage": "InSet"
        },
        {
          "currentStateName": "JumpForWalk",
          "audioEvent": {
            "text": "Play_sfx_char_land_climb"
          },
          "otherStateNames": [
            "ClimbIdle",
            "ClimbMove0",
            "ClimbMove1",
            "ClimbJump"
          ],
          "usage": "InSet"
        },
        {
          "currentStateName": "JumpForRun",
          "audioEvent": {
            "text": "Play_sfx_char_land_climb"
          },
          "otherStateNames": [
            "ClimbIdle",
            "ClimbMove0",
            "ClimbMove1",
            "ClimbJump"
          ],
          "usage": "InSet"
        },
        {
          "currentStateName": "JumpForSprint",
          "audioEvent": {
            "text": "Play_sfx_char_land_climb"
          },
          "otherStateNames": [
            "ClimbIdle",
            "ClimbMove0",
            "ClimbMove1",
            "ClimbJump"
          ],
          "usage": "InSet"
        },
        {
          "currentStateName": "JumpWeapon",
          "audioEvent": {
            "text": "Play_sfx_char_land_climb"
          },
          "otherStateNames": [
            "ClimbIdle",
            "ClimbMove0",
            "ClimbMove1",
            "ClimbJump"
          ],
          "usage": "InSet"
        },
        {
          "currentStateName": "JumpForWalkWeapon",
          "audioEvent": {
            "text": "Play_sfx_char_land_climb"
          },
          "otherStateNames": [
            "ClimbIdle",
            "ClimbMove0",
            "ClimbMove1",
            "ClimbJump"
          ],
          "usage": "InSet"
        },
        {
          "currentStateName": "JumpForRunWeapon",
          "audioEvent": {
            "text": "Play_sfx_char_land_climb"
          },
          "otherStateNames": [
            "ClimbIdle",
            "ClimbMove0",
            "ClimbMove1",
            "ClimbJump"
          ],
          "usage": "InSet"
        },
        {
          "currentStateName": "DropDownWeapon",
          "audioEvent": {
            "text": "Play_sfx_char_land_climb"
          },
          "otherStateNames": [
            "ClimbIdle",
            "ClimbMove0",
            "ClimbMove1",
            "ClimbJump"
          ],
          "usage": "InSet"
        },
        {
          "currentStateName": "DropDownLitWeapon",
          "audioEvent": {
            "text": "Play_sfx_char_land_climb"
          },
          "otherStateNames": [
            "ClimbIdle",
            "ClimbMove0",
            "ClimbMove1",
            "ClimbJump"
          ],
          "usage": "InSet"
        },
        {
          "currentStateName": "SwimMove",
          "audioEvent": {
            "text": "Stop_sfx_char_swim"
          }
        },
        {
          "currentStateName": "SlipFaceWall",
          "audioEvent": {
            "text": "Stop_sfx_char_slipWall"
          }
        },
        {
          "currentStateName": "SlipFaceWall",
          "audioEvent": {
            "text": "Stop_sfx_char_drop"
          }
        },
        {
          "currentStateName": "SlipBackWall",
          "audioEvent": {
            "text": "Stop_sfx_char_drop"
          }
        },
        {
          "currentStateName": "SlipBackWall",
          "audioEvent": {
            "text": "Stop_sfx_char_slipWall"
          }
        },
        {
          "currentStateName": "Fly",
          "audioEvent": {
            "text": "Stop_sfx_char_fly"
          }
        },
        {
          "currentStateName": "DiveDash",
          "audioEvent": {
            "text": "Stop_sfx_char_dive_dash_lp"
          },
          "otherStateNames": [
            "DiveDashB",
            "DiveTurn",
            "DiveTurn2"
          ],
          "usage": "Except"
        },
        {
          "currentStateName": "DiveStream",
          "audioEvent": {
            "text": "Stop_sfx_char_dive_stream_lp"
          },
          "otherStateNames": [
            "DiveStreamRoll_L",
            "DiveStreamRoll_R"
          ],
          "usage": "Except"
        },
        {
          "currentStateName": "DiveMoveAS",
          "audioEvent": {
            "text": "Stop_sfx_char_dive_move_AS"
          }
        },
        {
          "currentStateName": "Dive_Out_DashFLoop",
          "audioEvent": {
            "text": "Stop_sfx_char_dive_out_dashFLoop"
          }
        },
        {
          "currentStateName": "DiveIdle",
          "audioEvent": {
            "text": "Stop_sfx_char_dive_dash_lp"
          }
        },
        {
          "currentStateName": "Dive_Out_Up",
          "audioEvent": {
            "text": "Stop_sfx_char_dive_moveF_A"
          }
        },
        {
          "currentStateName": "DiveChannel_Loop",
          "audioEvent": {
            "text": "Stop_vfx_Avatar_Diving_Channel_LP"
          }
        },
        {
          "currentStateName": "DiveMoveU_A",
          "audioEvent": {
            "text": "Stop_sfx_char_dive_moveU_A"
          }
        },
        {
          "currentStateName": "DiveMoveF_A",
          "audioEvent": {
            "text": "Stop_sfx_char_dive_moveF_A"
          },
          "otherStateNames": [
            "DiveMoveF_B"
          ],
          "usage": "Except"
        }
      ],
      "recurrentSpeeches": {
        "Standby": {
          "start": {
            "upper": 28.0,
            "lower": 23.0
          },
          "interval": {
            "upper": 40.0,
            "lower": 34.0
          },
          "eventName": {
            "text": "Play_vo_char_explore_idle"
          }
        },
        "Walk": {
          "start": {
            "upper": 16.0,
            "lower": 13.0
          },
          "interval": {
            "upper": 14.0,
            "lower": 10.0
          },
          "eventName": {
            "text": ""
          }
        },
        "Run": {
          "start": {
            "upper": 13.0,
            "lower": 9.0
          },
          "interval": {
            "upper": 11.0,
            "lower": 8.0
          },
          "eventName": {
            "text": ""
          }
        },
        "Sprint": {
          "start": {
            "upper": 12.0,
            "lower": 7.0
          },
          "interval": {
            "upper": 9.0,
            "lower": 6.0
          },
          "eventName": {
            "text": ""
          }
        }
      }
    },
    "moveStateAudio": {
      "onStateBegin": [
        {
          "currentStateName": "Fly",
          "audioEvent": {
            "text": "Play_sfx_char_fly"
          }
        },
        {
          "currentStateName": "Air",
          "audioEvent": {
            "text": "Play_sfx_char_drop"
          },
          "otherStateNames": [
            "Fly"
          ],
          "usage": "InSet"
        },
        {
          "currentStateName": "CombatDive",
          "audioEvent": {
            "text": "Play_sfx_char_dive_move_swim_idle"
          },
          "otherStateNames": [
            "Dive"
          ],
          "usage": "Except"
        },
        {
          "currentStateName": "Dive",
          "audioEvent": {
            "text": "Play_sfx_char_dive_move_swim_idle"
          },
          "otherStateNames": [
            "CombatDive"
          ],
          "usage": "Except"
        }
      ],
      "onStateEnd": [
        {
          "currentStateName": "Fly",
          "audioEvent": {
            "text": "Stop_sfx_char_fly"
          }
        },
        {
          "currentStateName": "Air",
          "audioEvent": {
            "text": "Stop_sfx_char_drop"
          }
        },
        {
          "currentStateName": "Dive",
          "audioEvent": {
            "text": "Stop_sfx_char_dive_move_swim_idle"
          },
          "otherStateNames": [
            "CombatDive"
          ],
          "usage": "Except"
        },
        {
          "currentStateName": "CombatDive",
          "audioEvent": {
            "text": "Stop_sfx_char_dive_move_swim_idle"
          },
          "otherStateNames": [
            "Dive"
          ],
          "usage": "Except"
        }
      ]
    },
    "voiceSwitch": {
      "text": "Switch_Candace"
    },
    "bodyTypeSwitch": {
      "text": "Switch_Lady"
    },
    "listenerLiftup": 1.5,
    "surfaceProberLiftup": 1.5
  },
  "moveStateEffect": "AvatarLady",
  "perform": {
    "standby": {
      "minTime": 10.0,
      "maxTime": 20.0,
      "performIDs": [
        201,
        202,
        200,
        200
      ]
    }
  }
}