{
  "common": {
    "effectAttachShape": {
      "$type": "OOMMNAAKJOP",
      "mesh": "EffectMesh"
    },
    "mass": 10.0
  },
  "headControl": {
    "$type": "FKHBOAJEOKE",
    "useHeadControl": true,
    "useWhiteAnimStates": false
  },
  "equipController": {
    "sheathPoint": "WeaponBackPut",
    "dissolveSheathFadeDelay": 0.05000000074505806,
    "dissolveSheathFadeTime": 0.30000001192092896,
    "attachPoints": {
      "equip01": "WeaponR",
      "equip02": "WeaponL",
      "equip00": "WeaponBackPut"
    }
  },
  "stateLayers": {
    "defaultLayer": {
      "$type": "AEMHOACJLIB",
      "layerIndexName": "",
      "GCIDDLIDFAE": "",
      "stateIDs": {
        "TeamConfig_BS": {
          "$type": "BCNJGNDHFGP",
          "animatorStates": {
            "TeamConfig_BS": [
              "TeamConfig_BS_Male_Sword_Kaeya",
              "Emo_Avatar_Kaeya_TeamConfig_01BS",
              "Audio_Male_Kaeya_Sworda_TeamConfig_BS_UI"
            ]
          },
          "animatorTriggerOnLanded": "",
          "sheatheOnStart": true
        },
        "TeamConfig": {
          "$type": "BCNJGNDHFGP",
          "animatorStates": {
            "TeamConfig_Loop": [
              "TeamConfig_Male_Sword_Kaeya",
              "Emo_Avatar_Kaeya_TeamConfig_01Loop"
            ]
          },
          "animatorTriggerOnLanded": "",
          "sheatheOnStart": true
        },
        "TeamConfig_AS": {
          "$type": "BCNJGNDHFGP",
          "animatorStates": {
            "TeamConfig_AS": [
              "TeamConfig_AS_Male_Sword_Kaeya",
              "Emo_Avatar_Kaeya_TeamConfig_01AS",
              "Audio_Male_Kaeya_Sword_TeamConfig_AS_UI"
            ]
          },
          "setAnimatorBoolean": [
            {
              "name": "&GotoAnyState"
            }
          ],
          "animatorTriggerOnLanded": "",
          "sheatheOnStart": true
        },
        "ShowWeapon_BS": {
          "$type": "BCNJGNDHFGP",
          "animatorStates": {
            "ShowWeapon_BS": [
              "Male_Sword_ShowWeapon_BS",
              "Emo_Avatar_Common_Male_Sword_UI_ShowWeaponBS"
            ]
          },
          "setAnimatorBoolean": [
            {
              "name": "&GotoAnyState"
            }
          ],
          "animatorTriggerOnLanded": "",
          "sheatheOnStart": true
        },
        "ShowRelic_BS": {
          "$type": "BCNJGNDHFGP",
          "animatorStates": {
            "ShowRelic_BS": [
              "Emo_Avatar_Common_Manekin_RelicShowBS"
            ]
          },
          "setAnimatorBoolean": [
            {
              "name": "&GotoAnyState"
            }
          ],
          "animatorTriggerOnLanded": "",
          "sheatheOnStart": true
        },
        "ShowWeapon": {
          "$type": "BCNJGNDHFGP",
          "animatorStates": {
            "ShowWeapon": [
              "Emo_Avatar_Common_Male_Sword_UI_ShowWeaponLoop"
            ],
            "ShowWeapon_AS": [
              "Male_Sword_ShowWeapon_AS",
              "Emo_Avatar_Common_Male_Sword_UI_ShowWeaponAS"
            ]
          },
          "animatorTriggerOnLanded": "",
          "battouOnStart": true
        },
        "ShowRelic": {
          "$type": "BCNJGNDHFGP",
          "animatorStates": {
            "ShowRelic": [
              "Emo_Avatar_Common_Manekin_RelicShowLoop"
            ],
            "ShowRelic_AS": [
              "Emo_Avatar_Common_Manekin_RelicShowAS"
            ]
          },
          "animatorTriggerOnLanded": "",
          "sheatheOnStart": true
        },
        "ShowCharacter": {
          "$type": "BCNJGNDHFGP",
          "animatorStates": {
            "ShowCharacter": [],
            "Show01": [
              "Manekin_Kaeya_Show01",
              "Emo_Avatar_Kaeya_Show_01",
              "Audio_Male_StandbyShow_Kaeya_UI"
            ],
            "Show02": [
              "Manekin_Kaeya_Show02",
              "Audio_Male_StandbyShow_Kaeya_UI_02"
            ]
          },
          "setAnimatorBoolean": [
            {
              "name": "&GotoAnyState"
            }
          ],
          "animatorTriggerOnLanded": "",
          "sheatheOnStart": true
        },
        "Skill_BS": {
          "$type": "BCNJGNDHFGP",
          "animatorStates": {
            "Skill_BS": [
              "Emo_Avatar_Kaeya_UI_Talent_Shrug_01BS"
            ]
          },
          "setAnimatorBoolean": [
            {
              "name": "&GotoAnyState"
            }
          ],
          "animatorTriggerOnLanded": "",
          "sheatheOnStart": true
        },
        "Skill": {
          "$type": "BCNJGNDHFGP",
          "animatorStates": {
            "Skill": [
              "Emo_Avatar_Kaeya_UI_Talent_Shrug_01Loop"
            ]
          },
          "animatorTriggerOnLanded": ""
        },
        "Skill_AS": {
          "$type": "BCNJGNDHFGP",
          "animatorStates": {
            "Skill_AS": [
              "Emo_Avatar_Kaeya_UI_Talent_Shrug_01AS"
            ]
          },
          "animatorTriggerOnLanded": ""
        },
        "Story": {
          "$type": "BCNJGNDHFGP",
          "animatorStates": {
            "Story": []
          },
          "setAnimatorBoolean": [
            {
              "name": "&GotoAnyState"
            }
          ],
          "animatorTriggerOnLanded": "",
          "sheatheOnStart": true
        },
        "ShowFlycloak": {
          "$type": "BCNJGNDHFGP",
          "animatorStates": {
            "ShowFlycloak": []
          },
          "animatorTriggerOnLanded": "",
          "sheatheOnStart": true
        }
      }
    }
  },
  "audio": {
    "overrideEmitterName": "",
    "animAudio": {
      "onTransitionIn": [
        {
          "currentStateName": "ShowWeapon_BS",
          "audioEvent": {
            "text": "Play_ui_menu_weapon_show_keaya"
          }
        },
        {
          "currentStateName": "ShowRelic_BS",
          "audioEvent": {
            "text": "Play_ui_menu_relic_show"
          }
        }
      ],
      "onTransitionOut": [
        {
          "currentStateName": "ShowWeapon_BS",
          "audioEvent": {
            "text": "Stop_ui_menu_weapon_show_putAway_appear_short"
          }
        },
        {
          "currentStateName": "Show01",
          "audioEvent": {
            "text": "Stop_ui_standbyShow_kaeya_coin"
          }
        },
        {
          "currentStateName": "Show02",
          "audioEvent": {
            "text": "Stop_ui_standbyShow_kaeya_sword"
          }
        },
        {
          "currentStateName": "TeamConfig_BS",
          "audioEvent": {
            "text": "Stop_ui_menu_char_teamConfig_show"
          },
          "otherStateNames": [
            "TeamConfig_Loop"
          ],
          "usage": "Except"
        },
        {
          "currentStateName": "TeamConfig_Loop",
          "audioEvent": {
            "text": "Stop_ui_menu_char_teamConfig_show"
          }
        }
      ]
    },
    "disableEvent": {
      "text": "Stop_ui_standbyShow_kaeya_coin"
    },
    "destroyEvent": {
      "text": "Stop_ui_standbyShow_kaeya_coin"
    },
    "listenerLiftup": 1.5,
    "surfaceProberLiftup": 1.5
  }
}