{
  "common": {
    "effectAttachShape": {
      "$type": "OOMMNAAKJOP",
      "mesh": "EffectMesh"
    },
    "mass": 10.0,
    "height": 1.628600001335144,
    "modelHeight": 1.6100000143051147,
    "affectedByWorld": true,
    "checkInSurface": true
  },
  "headControl": {
    "$type": "FKHBOAJEOKE",
    "useHeadControl": true,
    "animStates": [
      "NormalStandby",
      "NormalMove/WalkToRun",
      "NormalMove/Walk",
      "NormalMove/RunToWalk",
      "NormalMove/Run",
      "NormalMove/RunToIdle",
      "NormalMove/WalkToIdle",
      "NormalMove/RunningTurn",
      "NormalMove/SprintToRun",
      "NormalMove/SprintToIdle",
      "Sprint",
      "Climb/ClimbIdle",
      "Ladder/LadderIdle",
      "Swim/SwimIdle",
      "NormalStandbyWeapon",
      "NormalMoveWeapon/WalkToRunWeapon",
      "NormalMoveWeapon/WalkWeapon",
      "NormalMoveWeapon/RunToWalkWeapon",
      "NormalMoveWeapon/RunWeapon",
      "NormalMoveWeapon/RunToIdleWeapon",
      "NormalMoveWeapon/WalkToIdleWeapon",
      "NormalMoveWeapon/RunningTurnWeapon"
    ]
  },
  "specialPoint": {
    "elementAbsorb": "PRIVATE_Pendant",
    "elementPendant": "PRIVATE_Pendant",
    "elementDrop": "RootNode",
    "bulletAim": "RootNode"
  },
  "combat": {
    "property": {
      "endureType": "Avatar_Bow",
      "weight": 75.0
    },
    "beHit": {
      "hitBloodEffect": ""
    },
    "die": {
      "hasAnimatorDie": true,
      "dieEndTime": 1.5,
      "dieForceDisappearTime": 2.5,
      "dieDisappearEffect": "Eff_Death_Avatar_Common",
      "dieShaderData": "AvatarDie",
      "useRagDoll": true,
      "ragDollDieEndTimeDelay": 0.4000000059604645
    }
  },
  "equipController": {
    "sheathPoint": "WeaponBackPut",
    "dissolveSheathFadeDelay": 0.07500000298023224,
    "dissolveSheathFadeTime": 2.25,
    "triggerToStates": [
      {
        "trigger": "Idle",
        "floatID": ""
      },
      {
        "trigger": "Attack",
        "playTime": 0.25,
        "states": [
          "Shoot/Ambor_Attack01"
        ],
        "bowDrawTimes": [
          {
            "bowDrawEndNormTime": 0.13600000739097595,
            "bowStringOverridePoint": ""
          }
        ],
        "floatID": ""
      },
      {
        "trigger": "Attack",
        "playTime": 0.18299999833106995,
        "states": [
          "Shoot/Ambor_Attack02"
        ],
        "bowDrawTimes": [
          {
            "bowDrawStartNormTime": 0.029999999329447746,
            "bowDrawEndNormTime": 0.10999999940395355,
            "bowStringOverridePoint": ""
          }
        ],
        "floatID": ""
      },
      {
        "trigger": "Attack",
        "playTime": 0.4830000102519989,
        "states": [
          "Shoot/Ambor_Attack03"
        ],
        "bowDrawTimes": [
          {
            "bowDrawStartNormTime": 0.061000000685453415,
            "bowDrawEndNormTime": 0.25200000405311584,
            "bowStringOverridePoint": ""
          }
        ],
        "floatID": ""
      },
      {
        "trigger": "Attack",
        "playTime": 0.44999998807907104,
        "states": [
          "Shoot/Ambor_Attack04"
        ],
        "bowDrawTimes": [
          {
            "bowDrawStartNormTime": 0.07400000095367432,
            "bowDrawEndNormTime": 0.20000000298023224,
            "bowStringOverridePoint": ""
          }
        ],
        "floatID": ""
      },
      {
        "trigger": "Attack",
        "playTime": 0.5170000195503235,
        "states": [
          "Shoot/Ambor_Attack05"
        ],
        "bowDrawTimes": [
          {
            "bowDrawStartNormTime": 0.08100000023841858,
            "bowDrawEndNormTime": 0.25,
            "bowStringOverridePoint": ""
          }
        ],
        "floatID": ""
      },
      {
        "trigger": "AimAttack",
        "playTime": 0.017000000923871994,
        "states": [
          "AimShoot",
          "FastAimShoot"
        ],
        "bowDrawTimes": [
          {
            "bowDrawStartNormTime": 0.5199999809265137,
            "bowStringOverridePoint": ""
          }
        ],
        "floatID": ""
      },
      {
        "trigger": "AimLoop",
        "states": [
          "ShootBS",
          "Aim",
          "FastAim"
        ],
        "bowDrawTimes": [
          {
            "bowStringOverridePoint": ""
          }
        ],
        "floatID": ""
      },
      {
        "trigger": "ArrowRain",
        "playTime": 0.515999972820282,
        "states": [
          "ArrowRain"
        ],
        "bowDrawTimes": [
          {
            "bowDrawStartNormTime": 0.1599999964237213,
            "bowDrawEndNormTime": 0.30000001192092896,
            "bowStringOverridePoint": ""
          }
        ],
        "floatID": ""
      }
    ],
    "attachPoints": {
      "equip01": "WeaponR",
      "equip02": "WeaponL"
    }
  },
  "abilities": [
    {
      "abilityID": "Ability_WindBlink",
      "abilityName": "Avatar_Aquaria_WindBlink",
      "abilityOverride": ""
    },
    {
      "abilityID": "Ability_IceVirus",
      "abilityName": "Avatar_Aquaria_IceVirus",
      "abilityOverride": ""
    },
    {
      "abilityID": "Ability_Icespine",
      "abilityName": "Avatar_Aquaria_Icespine",
      "abilityOverride": ""
    },
    {
      "abilityID": "Ability_PressShoot",
      "abilityName": "Avatar_Aquaria_PressShoot",
      "abilityOverride": ""
    },
    {
      "abilityID": "Ability_AimPressShoot",
      "abilityName": "Avatar_Aquaria_AimPressShoot",
      "abilityOverride": ""
    },
    {
      "abilityID": "Ability_ShootArrow_01",
      "abilityName": "Avatar_Aquaria_ShootArrow_01",
      "abilityOverride": ""
    },
    {
      "abilityID": "Ability_ShootArrow_02",
      "abilityName": "Avatar_Aquaria_ShootArrow_02",
      "abilityOverride": ""
    },
    {
      "abilityID": "Ability_ShootArrow_03",
      "abilityName": "Avatar_Aquaria_ShootArrow_03",
      "abilityOverride": ""
    },
    {
      "abilityID": "Ability_ShootArrow_04",
      "abilityName": "Avatar_Aquaria_ShootArrow_04",
      "abilityOverride": ""
    },
    {
      "abilityID": "Ability_ShootArrow_05",
      "abilityName": "Avatar_Aquaria_ShootArrow_05",
      "abilityOverride": ""
    },
    {
      "abilityID": "Ability_ShootArrow_06",
      "abilityName": "Avatar_Aquaria_ShootArrow_06",
      "abilityOverride": ""
    },
    {
      "abilityID": "Ability_ShootArrow_Aiming",
      "abilityName": "Avatar_Aquaria_ShootArrow_Aiming",
      "abilityOverride": ""
    },
    {
      "abilityID": "ShootAimingArrow_Charge",
      "abilityName": "Avatar_Aquaria_ShootAimingArrow_Charge",
      "abilityOverride": ""
    },
    {
      "abilityID": "AirShoot",
      "abilityName": "Avatar_Ambor_AirShoot",
      "abilityOverride": ""
    },
    {
      "abilityID": "ChangeMainSkill",
      "abilityName": "Avatar_Aquaria_ChangeMainSkill",
      "abilityOverride": ""
    },
    {
      "abilityID": "SetHariMaterial",
      "abilityName": "SetHairEmissionScaler",
      "abilityOverride": ""
    },
    {
      "abilityID": "Aquaria_ShootArrow_FX",
      "abilityName": "Avatar_Aquaria_Arrow_FX",
      "abilityOverride": ""
    }
  ],
  "stateLayers": {
    "defaultLayer": {
      "$type": "AEMHOACJLIB",
      "layerIndexName": "",
      "GCIDDLIDFAE": "",
      "stateIDs": {
        "NormalStandby": {
          "$type": "BCNJGNDHFGP",
          "animatorStates": {
            "Standby": [
              "Avatar_ResetFreeStyle"
            ]
          },
          "canDoSkill": true,
          "massRatio": 100.0,
          "setAnimatorBoolean": [
            {
              "name": "&CanUseSkill"
            }
          ],
          "canChangeAvatar": [
            {}
          ],
          "animatorTriggerOnLanded": "",
          "sheatheOnStart": true
        },
        "NormalMove": {
          "$type": "BCNJGNDHFGP",
          "animatorStates": {
            "ShowUp": [
              "Audio_Boy_Showup"
            ],
            "WalkToRun": [
              "Audio_Boy_WalkToRun"
            ],
            "Walk": [
              "Ani_WalkSprint01",
              "Audio_Boy_Walk",
              "WalkStepOnWater"
            ],
            "RunToWalk": [
              "Audio_Boy_RunToWalk"
            ],
            "Run": [
              "Ani_Run01",
              "Audio_Boy_Run"
            ],
            "RunToIdle": [
              "Audio_Boy_RunToIdle"
            ],
            "WalkToIdle": [
              "Audio_Boy_WalkToIdle"
            ],
            "RunningTurn": [],
            "SprintToRun": [
              "Audio_Boy_SprintToRun"
            ],
            "SprintToIdle": [
              "Audio_Boy_SprintToIdle",
              "Emo_Boy_Sprint_AS"
            ],
            "FallOnGround": [
              "Audio_Boy_FallToGround"
            ],
            "FallOnGroundLit": [
              "Audio_Boy_FallToGround"
            ],
            "FallToGroundRun": [
              "Audio_Boy_FallToGroundRun"
            ],
            "FallToGroundRunHard": [
              "Audio_Boy_FallToGroundRunHard"
            ],
            "FallToGroundSprint": [
              "Audio_Boy_FallToGroundSprint"
            ]
          },
          "canDoSkill": true,
          "massRatio": 1.0,
          "setAnimatorBoolean": [
            {
              "name": "&CanUseSkill"
            }
          ],
          "canChangeAvatar": [
            {}
          ],
          "animatorTriggerOnLanded": "",
          "sheatheOnStart": true
        },
        "Sprint": {
          "$type": "BCNJGNDHFGP",
          "animatorStates": {
            "Sprint": [
              "Ani_WalkSprint01",
              "Audio_Boy_Sprint",
              "Emo_Boy_Sprint_Loop"
            ]
          },
          "canDoSkill": true,
          "massRatio": 1.0,
          "setAnimatorBoolean": [
            {
              "name": "&CanUseSkill"
            }
          ],
          "canChangeAvatar": [
            {}
          ],
          "animatorTriggerOnLanded": "",
          "sheatheOnStart": true
        },
        "SprintBS": {
          "$type": "BCNJGNDHFGP",
          "animatorStates": {
            "SprintBS": [
              "Audio_Boy_RunToSprint",
              "SprintBS_Invincible",
              "Emo_Boy_Sprint_BS"
            ]
          },
          "canDoSkill": true,
          "resetAnimatorTriggerOnEnter": [
            "DoSkill",
            "AimEnd"
          ],
          "setAnimatorBoolean": [
            {
              "name": "&CanUseSkill",
              "normalizeStart": 0.25999999046325684
            }
          ],
          "canChangeAvatar": [
            {
              "normalizeStart": 0.25999999046325684
            }
          ],
          "animatorTriggerOnLanded": "",
          "sheatheOnStart": true
        },
        "Crouch": {
          "$type": "BCNJGNDHFGP",
          "animatorStates": {
            "CrouchIdle": [],
            "CrouchMove": [
              "Audio_Boy_CrouchMove"
            ],
            "CrouchRoll": [
              "Audio_Boy_CrouchRoll"
            ]
          },
          "canDoSkill": true,
          "massRatio": 1.0,
          "setAnimatorBoolean": [
            {
              "name": "&CanUseSkill"
            }
          ],
          "canChangeAvatar": [
            {}
          ],
          "actionPanelState": "Squat",
          "animatorTriggerOnLanded": "",
          "sheatheOnStart": true
        },
        "CrouchToStandby": {
          "$type": "BCNJGNDHFGP",
          "animatorStates": {
            "CrouchToStandby": [
              "Audio_Boy_CrouchToStandby"
            ]
          },
          "resetAnimatorTriggerOnEnter": [
            "DoSkill"
          ],
          "animatorTriggerOnLanded": "",
          "sheatheOnStart": true
        },
        "SkiffNormal": {
          "$type": "BCNJGNDHFGP",
          "animatorStates": {
            "SkiffNormal": []
          },
          "massRatio": 100.0,
          "resetAnimatorTriggerOnExit": [
            "BeHit",
            "DoSkill",
            "Jump"
          ],
          "animatorTriggerOnLanded": "",
          "sheatheOnStart": true
        },
        "Climb": {
          "$type": "BCNJGNDHFGP",
          "animatorStates": {
            "ClimbMove0": [
              "ClimbStep",
              "Audio_Boy_Climb"
            ],
            "ClimbMove1": [
              "ClimbStep",
              "Audio_Boy_Climb_1"
            ],
            "ClimbIdle": [],
            "ClimbJump": [
              "Audio_Boy_ClimbDash"
            ],
            "JumpUpWallForStandby": [
              "Audio_Boy_JumpUpWallStandby"
            ],
            "Standby2ClimbB": [
              "Audio_Boy_Standby2ClimbB"
            ]
          },
          "resetAnimatorTriggerOnEnter": [
            "DoSkill"
          ],
          "actionPanelState": "Climb",
          "animatorTriggerOnLanded": "",
          "sheatheOnStart": true
        },
        "ClimbTransient": {
          "$type": "BCNJGNDHFGP",
          "animatorStates": {
            "JumpWallReady": [],
            "Standby2ClimbA": [
              "Audio_Boy_Standby2ClimbA"
            ]
          },
          "resetAnimatorTriggerOnEnter": [
            "DoSkill"
          ],
          "animatorTriggerOnLanded": "",
          "sheatheOnStart": true
        },
        "Upstairs": {
          "$type": "BCNJGNDHFGP",
          "animatorStates": {
            "Upstairs": [
              "Audio_Boy_Upstairs"
            ]
          },
          "resetAnimatorTriggerOnEnter": [
            "DoSkill"
          ],
          "setAnimatorBoolean": [
            {
              "name": "&CanUseSkill"
            }
          ],
          "animatorTriggerOnLanded": "",
          "sheatheOnStart": true
        },
        "Slip": {
          "$type": "BCNJGNDHFGP",
          "animatorStates": {
            "SlipFaceWall": [],
            "SlipBackWall": []
          },
          "resetAnimatorTriggerOnEnter": [
            "DoSkill"
          ],
          "animatorTriggerOnLanded": "",
          "sheatheOnStart": true
        },
        "Swim": {
          "$type": "BCNJGNDHFGP",
          "animatorStates": {
            "SwimIdle": [
              "Audio_Boy_SwimIdle"
            ],
            "SwimMove": [
              "SwimStep",
              "Audio_Boy_SwimMove"
            ],
            "SwimDash": [
              "Audio_Boy_SwimDash",
              "Avatar_Boy_SwimDash_Hand_Effect"
            ],
            "SwimJumpToWater": [
              "Audio_Boy_SwimJumpToWater"
            ]
          },
          "resetAnimatorTriggerOnEnter": [
            "DoSkill"
          ],
          "actionPanelState": "Swim",
          "animatorTriggerOnLanded": "",
          "sheatheOnStart": true
        },
        "Fly": {
          "$type": "BCNJGNDHFGP",
          "animatorStates": {
            "Fly": [],
            "FlyStart": [
              "Audio_Boy_FlyStart",
              "FlyStart_Weapon"
            ]
          },
          "canDoSkill": true,
          "resetAnimatorTriggerOnEnter": [
            "DoSkill"
          ],
          "setAnimatorBoolean": [
            {
              "name": "&CanUseAirSkill"
            }
          ],
          "actionPanelState": "Fly",
          "animatorTriggerOnLanded": "",
          "sheatheOnStart": true
        },
        "Jump": {
          "$type": "BCNJGNDHFGP",
          "animatorStates": {
            "Jump": [
              "Audio_Boy_Jump"
            ],
            "JumpForRun": [
              "Audio_Boy_Jump"
            ],
            "JumpForWalk": [
              "Audio_Boy_Jump"
            ],
            "JumpForSprint": [
              "Audio_Boy_Jump"
            ]
          },
          "canDoSkill": true,
          "resetAnimatorTriggerOnEnter": [
            "DoSkill",
            "AimEnd"
          ],
          "setAnimatorBoolean": [
            {
              "name": "&CanUseAirSkill"
            }
          ],
          "actionPanelState": "Jump",
          "animatorTriggerOnLanded": "",
          "sheatheOnStart": true
        },
        "Fall": {
          "$type": "BCNJGNDHFGP",
          "animatorStates": {
            "JumpOffWall": [
              "Audio_Boy_Jump"
            ],
            "SwimJump": [
              "Audio_Boy_SwimJump"
            ],
            "SwimJumpDrop": [],
            "DropDown": [
              "Audio_Boy_DropDown"
            ],
            "DropDownLit": [],
            "WalkDropDownLit": []
          },
          "canDoSkill": true,
          "resetAnimatorTriggerOnEnter": [
            "DoSkill"
          ],
          "setAnimatorBoolean": [
            {
              "name": "&CanUseAirSkill"
            }
          ],
          "animatorTriggerOnLanded": "",
          "sheatheOnStart": true
        },
        "NormalStandbyWeapon": {
          "$type": "BCNJGNDHFGP",
          "animatorStates": {
            "StandbyWeapon": []
          },
          "canDoSkill": true,
          "massRatio": 100.0,
          "setAnimatorBoolean": [
            {
              "name": "&CanUseSkill"
            }
          ],
          "canChangeAvatar": [
            {}
          ],
          "animatorTriggerOnLanded": "",
          "battouOnStart": true
        },
        "NormalMoveWeapon": {
          "$type": "BCNJGNDHFGP",
          "animatorStates": {
            "WalkToRunWeapon": [
              "Audio_Boy_WalkToRun"
            ],
            "WalkWeapon": [
              "Audio_Boy_Walk"
            ],
            "RunToWalkWeapon": [
              "Audio_Boy_RunToWalk"
            ],
            "RunWeapon": [
              "Audio_Boy_Run"
            ],
            "RunToIdleWeapon": [],
            "WalkToIdleWeapon": [],
            "RunningTurnWeapon": [],
            "FallOnGroundWeapon": [
              "Audio_Boy_FallToGround"
            ],
            "FallOnGroundLitWeapon": [
              "Audio_Boy_FallToGround"
            ],
            "FallOnGroundMiddleWeapon": [
              "Audio_Boy_FallToGround"
            ],
            "FallToGroundRunWeapon": [
              "Audio_Boy_FallToGroundRun"
            ],
            "FallToGroundRunHardWeapon": [
              "Audio_Boy_FallToGroundRunHard"
            ]
          },
          "canDoSkill": true,
          "massRatio": 2.0,
          "setAnimatorBoolean": [
            {
              "name": "&CanUseSkill"
            }
          ],
          "canChangeAvatar": [
            {}
          ],
          "animatorTriggerOnLanded": "",
          "battouOnStart": true
        },
        "NormalMoveWeaponPutaway": {
          "$type": "BCNJGNDHFGP",
          "animatorStates": {
            "StandbyPutaway": [
              "Boy_Bow_Putaway_Standby",
              "Audio_Boy_Crossbow_StandbyPutAway"
            ],
            "WalkPutaway": [
              "Boy_Sword_Putaway_Walk",
              "Audio_Boy_Sword_WalkPutAway"
            ],
            "RunPutaway": [
              "Boy_Sword_Putaway_Run",
              "Audio_Boy_Sword_RunPutAway"
            ],
            "RunToSprintWeapon": [
              "Boy_Sword_Putaway_Sprint",
              "Audio_Boy_Sword_RunToSprintWeapon"
            ]
          },
          "canDoSkill": true,
          "massRatio": 2.0,
          "setAnimatorBoolean": [
            {
              "name": "&CanUseSkill"
            }
          ],
          "canChangeAvatar": [
            {}
          ],
          "animatorTriggerOnLanded": "",
          "battouOnStart": true
        },
        "JumpWeapon": {
          "$type": "BCNJGNDHFGP",
          "animatorStates": {
            "JumpWeapon": [
              "Audio_Boy_Jump"
            ],
            "JumpForRunWeapon": [
              "Audio_Boy_Jump"
            ],
            "JumpForWalkWeapon": [
              "Audio_Boy_Jump"
            ]
          },
          "canDoSkill": true,
          "resetAnimatorTriggerOnEnter": [
            "DoSkill"
          ],
          "setAnimatorBoolean": [
            {
              "name": "&CanUseAirSkill"
            }
          ],
          "canChangeAvatar": [
            {}
          ],
          "actionPanelState": "Jump",
          "animatorTriggerOnLanded": "",
          "battouOnStart": true
        },
        "FallWeapon": {
          "$type": "BCNJGNDHFGP",
          "animatorStates": {
            "DropDownWeapon": [],
            "DropDownLitWeapon": [],
            "WalkDropDownLitWeapon": []
          },
          "canDoSkill": true,
          "resetAnimatorTriggerOnEnter": [
            "DoSkill"
          ],
          "setAnimatorBoolean": [
            {
              "name": "&CanUseAirSkill"
            }
          ],
          "animatorTriggerOnLanded": "",
          "battouOnStart": true
        },
        "BeHit": {
          "$type": "BCNJGNDHFGP",
          "animatorStates": {
            "Hit_L": [
              "Audio_Boy_Hit_L"
            ],
            "Hit_H": [
              "Audio_Boy_Hit_H"
            ]
          },
          "onQuit": "combatMove",
          "resetAnimatorTriggerOnEnter": [
            "BeHit",
            "HitAir2HitDrop"
          ],
          "resetAnimatorTriggerOnExit": [
            "DoSkill"
          ],
          "cameraType": "combatBeHit",
          "jumpCancelEnd": 0.0,
          "animatorTriggerOnLanded": "",
          "battouOnStart": true
        },
        "HitThrow": {
          "$type": "BCNJGNDHFGP",
          "animatorStates": {
            "Hit_Throw_Ground": [
              "BeHitAir_Weapon"
            ]
          },
          "onQuit": "combatMove",
          "resetAnimatorTriggerOnEnter": [
            "BeHit",
            "HitAir2HitDrop"
          ],
          "resetAnimatorTriggerOnExit": [
            "DoSkill"
          ],
          "setAnimatorBoolean": [
            {
              "name": "&CanUseLiquid"
            }
          ],
          "cameraType": "combatBeHit",
          "jumpCancelEnd": 0.0,
          "animatorTriggerOnLanded": "",
          "sheatheOnStart": true
        },
        "BeHitAir": {
          "$type": "BCNJGNDHFGP",
          "animatorStates": {
            "Hit_Throw": [
              "Audio_Girl_Hit_Throw",
              "BeHitAir_Weapon"
            ],
            "Hit_ThrowAir": [
              "Audio_Girl_Hit_ThrowAir",
              "BeHitAir_Weapon"
            ],
            "Struggle": [
              "BeHitAir_Weapon"
            ]
          },
          "onQuit": "combatAir",
          "resetAnimatorTriggerOnEnter": [
            "BeHit"
          ],
          "resetAnimatorTriggerOnExit": [
            "DoSkill"
          ],
          "cameraType": "combatBeHit",
          "actionPanelState": "CombatAir",
          "jumpCancelEnd": 0.0,
          "animatorTriggerOnLanded": "",
          "sheatheOnStart": true
        },
        "Die": {
          "$type": "BCNJGNDHFGP",
          "animatorStates": {
            "FallDie": [
              "Audio_Boy_Death"
            ],
            "NormalDie": [
              "Die",
              "Audio_Boy_Death"
            ],
            "SwimDie": [
              "Swim_Die",
              "Audio_Boy_SwimDie"
            ],
            "HitGroundDie": [
              "Die",
              "Audio_Boy_Death"
            ]
          },
          "animatorTriggerOnLanded": ""
        },
        "Die_RagDoll": {
          "$type": "BCNJGNDHFGP",
          "animatorStates": {
            "NormalDie_AS": [],
            "FallDie_AS": []
          },
          "enableRagDoll": true,
          "animatorTriggerOnLanded": ""
        },
        "ShootBS": {
          "$type": "BCNJGNDHFGP",
          "animatorStates": {
            "ShootBS": []
          },
          "onQuit": "combatMove",
          "canDoSkill": true,
          "resetAnimatorTriggerOnEnter": [
            "AimEnd"
          ],
          "resetAnimatorTriggerOnExit": [
            "BeHit",
            "DoSkill",
            "Jump",
            "AimEnd"
          ],
          "canChangeAvatar": [
            {}
          ],
          "animatorTriggerOnLanded": "",
          "battouOnStart": true
        },
        "Shoot": {
          "$type": "BCNJGNDHFGP",
          "animatorStates": {
            "Aquaria_Attack01": [
              "Aquaria_Attack01",
              "Audio_Boy_Bow_Venti_Attack01"
            ],
            "Aquaria_Attack02": [
              "Aquaria_Attack02",
              "Audio_Boy_Bow_Venti_Attack02"
            ],
            "Aquaria_Attack03": [
              "Aquaria_Attack03",
              "Audio_Boy_Bow_Venti_Attack03"
            ],
            "Aquaria_Attack04": [
              "Aquaria_Attack04",
              "Audio_Boy_Bow_Venti_Attack04"
            ],
            "Aquaria_Attack05": [
              "Aquaria_Attack05",
              "Audio_Boy_Bow_Venti_Attack05"
            ],
            "Aquaria_Attack06": [
              "Aquaria_Attack06",
              "Audio_Boy_Bow_Venti_Attack06"
            ]
          },
          "onQuit": "combatMove",
          "canDoSkill": true,
          "resetAnimatorTriggerOnExit": [
            "BeHit",
            "DoSkill",
            "Jump"
          ],
          "setAnimatorBoolean": [
            {
              "name": "&CanCancelSkill"
            }
          ],
          "cameraType": "combatNormal",
          "cameraParam": {
            "radiusSpringRatio": 2.0
          },
          "canChangeAvatar": [
            {}
          ],
          "animatorTriggerOnLanded": "",
          "battouOnStart": true
        },
        "Aim": {
          "$type": "BCNJGNDHFGP",
          "animatorStates": {
            "AimLoop": [
              "Audio_Girl_Crossbow_Aim_Loop"
            ]
          },
          "onQuit": "combatMove",
          "canDoSkill": true,
          "resetAnimatorTriggerOnEnter": [
            "AimEnd"
          ],
          "resetAnimatorTriggerOnExit": [
            "BeHit",
            "DoSkill",
            "Jump"
          ],
          "needFaceToAnimParam": true,
          "canChangeAvatar": [
            {}
          ],
          "actionPanelState": "Aim",
          "animatorTriggerOnLanded": "",
          "battouOnStart": true
        },
        "AimShoot": {
          "$type": "BCNJGNDHFGP",
          "animatorStates": {
            "AimShoot": [
              "Aquaria_AimShoot",
              "Audio_Boy_Bow_Venti_Shoot"
            ]
          },
          "onQuit": "combatMove",
          "canDoSkill": true,
          "resetAnimatorTriggerOnExit": [
            "BeHit",
            "DoSkill",
            "Jump"
          ],
          "needFaceToAnimParam": true,
          "canChangeAvatar": [
            {}
          ],
          "actionPanelState": "Aim",
          "animatorTriggerOnLanded": "",
          "battouOnStart": true
        },
        "FastAim": {
          "$type": "BCNJGNDHFGP",
          "animatorStates": {
            "FastAimLoop": [
              "Audio_Girl_Crossbow_Aim_Loop"
            ]
          },
          "onQuit": "combatMove",
          "canDoSkill": true,
          "resetAnimatorTriggerOnEnter": [
            "AimEnd"
          ],
          "resetAnimatorTriggerOnExit": [
            "BeHit",
            "DoSkill",
            "Jump"
          ],
          "needFaceToAnimParam": true,
          "canChangeAvatar": [
            {}
          ],
          "actionPanelState": "FastAim",
          "animatorTriggerOnLanded": "",
          "battouOnStart": true
        },
        "FastAimShoot": {
          "$type": "BCNJGNDHFGP",
          "animatorStates": {
            "FastAimShoot": [
              "Aquaria_AimShoot",
              "Audio_Boy_Bow_Venti_Shoot"
            ]
          },
          "onQuit": "combatMove",
          "canDoSkill": true,
          "resetAnimatorTriggerOnExit": [
            "BeHit",
            "DoSkill",
            "Jump"
          ],
          "needFaceToAnimParam": true,
          "canChangeAvatar": [
            {}
          ],
          "actionPanelState": "FastAim",
          "animatorTriggerOnLanded": "",
          "battouOnStart": true
        },
        "IceExplodeArrow": {
          "$type": "BCNJGNDHFGP",
          "animatorStates": {
            "IceExplodeArrow": [
              "Aquaria_IceExplodeArrow"
            ]
          },
          "onQuit": "combatMove",
          "addEndure": 0.6000000238418579,
          "resetAnimatorTriggerOnExit": [
            "BeHit"
          ],
          "cameraType": "combatNormal",
          "animatorTriggerOnLanded": "",
          "battouOnStart": true
        },
        "IceExplodeArrow_AS": {
          "$type": "BCNJGNDHFGP",
          "animatorStates": {
            "IceExplodeArrow_AS": []
          },
          "onQuit": "combatMove",
          "canDoSkill": true,
          "resetAnimatorTriggerOnExit": [
            "BeHit",
            "DoSkill",
            "Jump"
          ],
          "setAnimatorBoolean": [
            {
              "name": "&CanUseSkill",
              "normalizeStart": 0.25
            }
          ],
          "cameraType": "combatNormal",
          "canChangeAvatar": [
            {
              "normalizeStart": 0.30000001192092896
            }
          ],
          "animatorTriggerOnLanded": "",
          "battouOnStart": true
        },
        "IceVirus": {
          "$type": "BCNJGNDHFGP",
          "animatorStates": {
            "IceVirus": [
              "Aquaria_IceVirus"
            ]
          },
          "onQuit": "combatMove",
          "addEndure": 0.6000000238418579,
          "resetAnimatorTriggerOnExit": [
            "BeHit"
          ],
          "cameraType": "combatNormal",
          "animatorTriggerOnLanded": "",
          "battouOnStart": true
        },
        "IceVirus_AS": {
          "$type": "BCNJGNDHFGP",
          "animatorStates": {
            "IceVirus_AS": []
          },
          "onQuit": "combatMove",
          "canDoSkill": true,
          "resetAnimatorTriggerOnExit": [
            "BeHit",
            "DoSkill",
            "Jump"
          ],
          "setAnimatorBoolean": [
            {
              "name": "&CanUseSkill",
              "normalizeStart": 0.25
            }
          ],
          "cameraType": "combatNormal",
          "canChangeAvatar": [
            {
              "normalizeStart": 0.30000001192092896
            }
          ],
          "animatorTriggerOnLanded": "",
          "battouOnStart": true
        },
        "Sit": {
          "$type": "BCNJGNDHFGP",
          "animatorStates": {
            "SitDown": [
              "Audio_Girl_SitDown"
            ],
            "SitLoop": [],
            "SitUp": [
              "Audio_Girl_SitDown"
            ]
          },
          "onQuit": "performMove",
          "massRatio": 100.0,
          "actionPanelState": "Perform",
          "animatorTriggerOnLanded": "",
          "sheatheOnStart": true
        },
        "SitB": {
          "$type": "BCNJGNDHFGP",
          "animatorStates": {
            "SitBDown": [
              "Audio_Girl_SitDown"
            ],
            "SitBLoop": [],
            "SitBUp": [
              "Audio_Girl_SitDown"
            ]
          },
          "onQuit": "performMove",
          "massRatio": 100.0,
          "actionPanelState": "Perform",
          "animatorTriggerOnLanded": "",
          "sheatheOnStart": true
        },
        "TakePhotos": {
          "$type": "BCNJGNDHFGP",
          "animatorStates": {
            "Think01BS": [],
            "Akimbo02BS": [],
            "Think01Loop": [],
            "Akimbo02Loop": [],
            "Think01AS": [],
            "Akimbo02AS": []
          },
          "animatorTriggerOnLanded": ""
        },
        "Channel_BS": {
          "$type": "BCNJGNDHFGP",
          "animatorStates": {
            "ChannelBS": [
              "Emo_Avatar_Common_Manekin_Default"
            ]
          },
          "onQuit": "combatMove",
          "canDoSkill": true,
          "massRatio": 100.0,
          "resetAnimatorTriggerOnExit": [
            "BeHit",
            "DoSkill",
            "Jump"
          ],
          "setAnimatorBoolean": [
            {
              "name": "&CanUseSkill"
            }
          ],
          "canChangeAvatar": [
            {}
          ],
          "animatorTriggerOnLanded": "",
          "sheatheOnStart": true
        },
        "Channel_Loop": {
          "$type": "BCNJGNDHFGP",
          "animatorStates": {
            "ChannelLoop": []
          },
          "onQuit": "combatMove",
          "canDoSkill": true,
          "massRatio": 100.0,
          "resetAnimatorTriggerOnExit": [
            "BeHit",
            "DoSkill",
            "Jump"
          ],
          "setAnimatorBoolean": [
            {
              "name": "&CanUseSkill"
            }
          ],
          "canChangeAvatar": [
            {}
          ],
          "animatorTriggerOnLanded": "",
          "sheatheOnStart": true
        },
        "Channel_AS": {
          "$type": "BCNJGNDHFGP",
          "animatorStates": {
            "ChannelAS": []
          },
          "onQuit": "combatMove",
          "canDoSkill": true,
          "massRatio": 100.0,
          "resetAnimatorTriggerOnExit": [
            "BeHit",
            "DoSkill",
            "Jump"
          ],
          "setAnimatorBoolean": [
            {
              "name": "&CanUseSkill"
            }
          ],
          "canChangeAvatar": [
            {}
          ],
          "animatorTriggerOnLanded": "",
          "sheatheOnStart": true
        },
        "PlayMusic_Lyre": {
          "$type": "BCNJGNDHFGP",
          "animatorStates": {
            "PlayMusic_Lyre_BS": [
              "PlayMusic_Lyre_Boy"
            ],
            "PlayMusic_Lyre_Loop": []
          },
          "onQuit": "combatMove",
          "massRatio": 100.0,
          "resetAnimatorTriggerOnExit": [
            "BeHit",
            "DoSkill",
            "Jump"
          ],
          "animatorTriggerOnLanded": "",
          "sheatheOnStart": true
        },
        "PlayMusic_Lyre_AS": {
          "$type": "BCNJGNDHFGP",
          "animatorStates": {
            "PlayMusic_Lyre_AS": [
              "PlayMusic_Lyre_Boy_AS"
            ]
          },
          "onQuit": "combatMove",
          "canDoSkill": true,
          "massRatio": 100.0,
          "resetAnimatorTriggerOnExit": [
            "BeHit",
            "DoSkill",
            "Jump"
          ],
          "setAnimatorBoolean": [
            {
              "name": "&CanUseSkill"
            }
          ],
          "canChangeAvatar": [
            {}
          ],
          "animatorTriggerOnLanded": "",
          "sheatheOnStart": true
        },
        "PlayMusic_Qin": {
          "$type": "BCNJGNDHFGP",
          "animatorStates": {
            "PlayMusic_Qin_BS": [
              "PlayMusic_Qin_Boy"
            ],
            "PlayMusic_Qin_Loop": []
          },
          "onQuit": "combatMove",
          "massRatio": 100.0,
          "resetAnimatorTriggerOnExit": [
            "BeHit",
            "DoSkill",
            "Jump"
          ],
          "animatorTriggerOnLanded": "",
          "sheatheOnStart": true
        },
        "PlayMusic_Qin_AS": {
          "$type": "BCNJGNDHFGP",
          "animatorStates": {
            "PlayMusic_Qin_AS": [
              "PlayMusic_Qin_Boy_AS"
            ]
          },
          "onQuit": "combatMove",
          "canDoSkill": true,
          "massRatio": 100.0,
          "resetAnimatorTriggerOnExit": [
            "BeHit",
            "DoSkill",
            "Jump"
          ],
          "setAnimatorBoolean": [
            {
              "name": "&CanUseSkill"
            }
          ],
          "canChangeAvatar": [
            {}
          ],
          "animatorTriggerOnLanded": "",
          "sheatheOnStart": true
        },
        "PlayMusic_Drum": {
          "$type": "BCNJGNDHFGP",
          "animatorStates": {
            "PlayMusic_Drum_BS": [
              "PlayMusic_Drum_Boy"
            ],
            "PlayMusic_Drum_Loop": []
          },
          "onQuit": "combatMove",
          "massRatio": 100.0,
          "resetAnimatorTriggerOnExit": [
            "BeHit",
            "DoSkill",
            "Jump"
          ],
          "animatorTriggerOnLanded": "",
          "sheatheOnStart": true
        },
        "PlayMusic_Drum_AS": {
          "$type": "BCNJGNDHFGP",
          "animatorStates": {
            "PlayMusic_Drum_AS": [
              "PlayMusic_Drum_Boy_AS"
            ]
          },
          "onQuit": "combatMove",
          "canDoSkill": true,
          "massRatio": 100.0,
          "resetAnimatorTriggerOnExit": [
            "BeHit",
            "DoSkill",
            "Jump"
          ],
          "setAnimatorBoolean": [
            {
              "name": "&CanUseSkill"
            }
          ],
          "canChangeAvatar": [
            {}
          ],
          "animatorTriggerOnLanded": "",
          "sheatheOnStart": true
        },
        "ActivitySkill_ElectricCoreFly": {
          "$type": "BCNJGNDHFGP",
          "animatorStates": {
            "ActivitySkill_ElectricCoreFly": []
          },
          "onQuit": "combatAir",
          "massRatio": 100.0,
          "resetAnimatorTriggerOnEnter": [
            "ElectricCoreFly_End"
          ],
          "resetAnimatorTriggerOnExit": [
            "BeHit",
            "DoSkill",
            "Jump",
            "ElectricCoreFly_End"
          ],
          "animatorTriggerOnLanded": "",
          "sheatheOnStart": true
        },
        "ActivitySkill_GrapplingHook": {
          "$type": "BCNJGNDHFGP",
          "animatorStates": {
            "ActivitySkill_GrapplingHook": []
          },
          "onQuit": "combatAir",
          "massRatio": 100.0,
          "resetAnimatorTriggerOnEnter": [
            "GrapplingHook_Drop"
          ],
          "resetAnimatorTriggerOnExit": [
            "BeHit",
            "DoSkill",
            "Jump",
            "GrapplingHook_Drop"
          ],
          "animatorTriggerOnLanded": "",
          "sheatheOnStart": true
        }
      }
    }
  },
  "shootConfig": {
    "normalShoot": {
      "bulletBornAttachPoint": "WeaponL",
      "detectRangeFromViewport": 100.0,
      "autoFocusMinRange": 2.0,
      "autoFocusMaxRange": 35.0
    },
    "aimingShoot": {
      "bulletBornAttachPoint": "FocusAnchor",
      "detectRangeFromViewport": 100.0,
      "detectRadiusFromViewport": 0.15000000596046448,
      "autoFocusMinRange": 2.0,
      "autoFocusMaxRange": 35.0
    }
  },
  "audio": {
    "overrideEmitterName": "",
    "animAudio": {
      "onTransitionOut": [
        {
          "currentStateName": "StandbyPutaway",
          "audioEvent": {
            "text": "Stop_sfx_weapon_bow_girl_putAway"
          }
        },
        {
          "currentStateName": "WalkPutaway",
          "audioEvent": {
            "text": "Stop_sfx_weapon_bow_girl_putAway"
          }
        },
        {
          "currentStateName": "RunPutaway",
          "audioEvent": {
            "text": "Stop_sfx_weapon_bow_girl_putAway"
          }
        },
        {
          "currentStateName": "SwimJumpDrop",
          "audioEvent": {
            "text": "Stop_sfx_char_swim_drop"
          }
        },
        {
          "currentStateName": "SwimJump",
          "audioEvent": {
            "text": "Stop_sfx_char_swim_drop"
          },
          "otherStateNames": [
            "SwimJumpDrop"
          ],
          "usage": "Except"
        },
        {
          "currentStateName": "Fly",
          "audioEvent": {
            "text": "Play_sfx_char_land_climb"
          },
          "otherStateNames": [
            "ClimbIdle",
            "ClimbMove0",
            "ClimbMove1",
            "ClimbJump"
          ],
          "usage": "InSet"
        },
        {
          "currentStateName": "FlyStart",
          "audioEvent": {
            "text": "Play_sfx_char_land_climb"
          },
          "otherStateNames": [
            "ClimbIdle",
            "ClimbMove0",
            "ClimbMove1",
            "ClimbJump"
          ],
          "usage": "InSet"
        },
        {
          "currentStateName": "DropDownLit",
          "audioEvent": {
            "text": "Play_sfx_char_land_climb"
          },
          "otherStateNames": [
            "ClimbIdle",
            "ClimbMove0",
            "ClimbMove1",
            "ClimbJump"
          ],
          "usage": "InSet"
        },
        {
          "currentStateName": "DropDown",
          "audioEvent": {
            "text": "Play_sfx_char_land_climb"
          },
          "otherStateNames": [
            "ClimbIdle",
            "ClimbMove0",
            "ClimbMove1",
            "ClimbJump"
          ],
          "usage": "InSet"
        },
        {
          "currentStateName": "WalkDropDownLit",
          "audioEvent": {
            "text": "Play_sfx_char_land_climb"
          },
          "otherStateNames": [
            "ClimbIdle",
            "ClimbMove0",
            "ClimbMove1",
            "ClimbJump"
          ],
          "usage": "InSet"
        },
        {
          "currentStateName": "Jump",
          "audioEvent": {
            "text": "Play_sfx_char_land_climb"
          },
          "otherStateNames": [
            "ClimbIdle",
            "ClimbMove0",
            "ClimbMove1",
            "ClimbJump"
          ],
          "usage": "InSet"
        },
        {
          "currentStateName": "JumpForWalk",
          "audioEvent": {
            "text": "Play_sfx_char_land_climb"
          },
          "otherStateNames": [
            "ClimbIdle",
            "ClimbMove0",
            "ClimbMove1",
            "ClimbJump"
          ],
          "usage": "InSet"
        },
        {
          "currentStateName": "JumpForRun",
          "audioEvent": {
            "text": "Play_sfx_char_land_climb"
          },
          "otherStateNames": [
            "ClimbIdle",
            "ClimbMove0",
            "ClimbMove1",
            "ClimbJump"
          ],
          "usage": "InSet"
        },
        {
          "currentStateName": "JumpForSprint",
          "audioEvent": {
            "text": "Play_sfx_char_land_climb"
          },
          "otherStateNames": [
            "ClimbIdle",
            "ClimbMove0",
            "ClimbMove1",
            "ClimbJump"
          ],
          "usage": "InSet"
        },
        {
          "currentStateName": "JumpWeapon",
          "audioEvent": {
            "text": "Play_sfx_char_land_climb"
          },
          "otherStateNames": [
            "ClimbIdle",
            "ClimbMove0",
            "ClimbMove1",
            "ClimbJump"
          ],
          "usage": "InSet"
        },
        {
          "currentStateName": "JumpForWalkWeapon",
          "audioEvent": {
            "text": "Play_sfx_char_land_climb"
          },
          "otherStateNames": [
            "ClimbIdle",
            "ClimbMove0",
            "ClimbMove1",
            "ClimbJump"
          ],
          "usage": "InSet"
        },
        {
          "currentStateName": "JumpForRunWeapon",
          "audioEvent": {
            "text": "Play_sfx_char_land_climb"
          },
          "otherStateNames": [
            "ClimbIdle",
            "ClimbMove0",
            "ClimbMove1",
            "ClimbJump"
          ],
          "usage": "InSet"
        },
        {
          "currentStateName": "DropDownWeapon",
          "audioEvent": {
            "text": "Play_sfx_char_land_climb"
          },
          "otherStateNames": [
            "ClimbIdle",
            "ClimbMove0",
            "ClimbMove1",
            "ClimbJump"
          ],
          "usage": "InSet"
        },
        {
          "currentStateName": "DropDownLitWeapon",
          "audioEvent": {
            "text": "Play_sfx_char_land_climb"
          },
          "otherStateNames": [
            "ClimbIdle",
            "ClimbMove0",
            "ClimbMove1",
            "ClimbJump"
          ],
          "usage": "InSet"
        },
        {
          "currentStateName": "SwimMove",
          "audioEvent": {
            "text": "Stop_sfx_char_swim"
          }
        },
        {
          "currentStateName": "SlipFaceWall",
          "audioEvent": {
            "text": "Play_sfx_char_land"
          }
        },
        {
          "currentStateName": "SlipBackWall",
          "audioEvent": {
            "text": "Play_sfx_char_land"
          }
        },
        {
          "currentStateName": "SlipFaceWall",
          "audioEvent": {
            "text": "Stop_sfx_char_drop"
          }
        },
        {
          "currentStateName": "SlipBackWall",
          "audioEvent": {
            "text": "Stop_sfx_char_drop"
          }
        }
      ],
      "recurrentSpeeches": {
        "Standby": {
          "start": {
            "upper": 28.0,
            "lower": 23.0
          },
          "interval": {
            "upper": 40.0,
            "lower": 34.0
          },
          "eventName": {
            "text": "Play_vo_char_explore_idle"
          }
        },
        "Walk": {
          "start": {
            "upper": 16.0,
            "lower": 13.0
          },
          "interval": {
            "upper": 14.0,
            "lower": 10.0
          },
          "eventName": {
            "text": ""
          }
        },
        "Run": {
          "start": {
            "upper": 13.0,
            "lower": 9.0
          },
          "interval": {
            "upper": 11.0,
            "lower": 8.0
          },
          "eventName": {
            "text": ""
          }
        },
        "Sprint": {
          "start": {
            "upper": 12.0,
            "lower": 7.0
          },
          "interval": {
            "upper": 9.0,
            "lower": 6.0
          },
          "eventName": {
            "text": ""
          }
        }
      }
    },
    "moveStateAudio": {
      "onStateBegin": [
        {
          "currentStateName": "Fly",
          "audioEvent": {
            "text": "Play_sfx_char_fly"
          }
        }
      ],
      "onStateEnd": [
        {
          "currentStateName": "Fly",
          "audioEvent": {
            "text": "Stop_sfx_char_fly"
          },
          "otherStateNames": [
            "Air"
          ],
          "usage": "Except"
        },
        {
          "currentStateName": "Air",
          "audioEvent": {
            "text": "Stop_sfx_char_fly"
          },
          "otherStateNames": [
            "Fly"
          ],
          "usage": "Except"
        }
      ]
    },
    "voiceSwitch": {
      "text": "Switch_Aquaria"
    },
    "bodyTypeSwitch": {
      "text": "Switch_Boy"
    },
    "listenerLiftup": 1.5,
    "surfaceProberLiftup": 1.5
  }
}