{
  "common": {
    "effectAttachShape": {
      "$type": "OOMMNAAKJOP",
      "mesh": "EffectMesh"
    },
    "mass": 10.0
  },
  "stateLayers": {
    "defaultLayer": {
      "$type": "AEMHOACJLIB",
      "layerIndexName": "",
      "GCIDDLIDFAE": "",
      "stateIDs": {
        "MultiOverride": {
          "$type": "BCNJGNDHFGP",
          "DAJBEEPCPBH": {
            "Ani_Avatar_Boy_Pole_Cyno_Photo01BS": [],
            "Ani_Avatar_Boy_Pole_Cyno_Photo01Loop": [],
            "Ani_Avatar_Boy_Pole_Cyno_Photo01AS": [],
            "Ani_Avatar_Boy_Pole_Cyno_Photo02BS": [],
            "Ani_Avatar_Boy_Pole_Cyno_Photo02Loop": [],
            "Ani_Avatar_Boy_Pole_Cyno_Photo02AS": []
          },
          "animatorTriggerOnLanded": ""
        }
      }
    }
  }
}