{
  "common": {
    "effectAttachShape": {
      "$type": "OOMMNAAKJOP",
      "mesh": "EffectMesh"
    },
    "mass": 10.0,
    "height": 1.5940001010894775,
    "modelHeight": 1.5800000429153442,
    "affectedByWorld": true,
    "checkInSurface": true
  },
  "headControl": {
    "$type": "FKHBOAJEOKE",
    "useHeadControl": true,
    "animStates": [
      "NormalStandby",
      "NormalMove/WalkToRun",
      "NormalMove/Walk",
      "NormalMove/RunToWalk",
      "NormalMove/Run",
      "NormalMove/RunToIdle",
      "NormalMove/WalkToIdle",
      "NormalMove/RunningTurn",
      "NormalMove/SprintToRun",
      "NormalMove/SprintToIdle",
      "Sprint",
      "Climb/ClimbIdle",
      "Ladder/LadderIdle",
      "Swim/SwimIdle",
      "NormalStandbyWeapon",
      "NormalMoveWeapon/WalkToRunWeapon",
      "NormalMoveWeapon/WalkWeapon",
      "NormalMoveWeapon/RunToWalkWeapon",
      "NormalMoveWeapon/RunWeapon",
      "NormalMoveWeapon/RunToIdleWeapon",
      "NormalMoveWeapon/WalkToIdleWeapon",
      "NormalMoveWeapon/RunningTurnWeapon"
    ]
  },
  "specialPoint": {
    "elementAbsorb": "PRIVATE_Pendant",
    "elementPendant": "PRIVATE_Pendant",
    "elementDrop": "RootNode",
    "bulletAim": "RootNode"
  },
  "combat": {
    "property": {
      "endureType": "Avatar_Catalyst",
      "weight": 75.0
    },
    "beHit": {
      "hitBloodEffect": ""
    },
    "combatLock": {
      "lockShape": "CircleLockEnemyClose",
      "lockWeightYaxisParam": 0.20000000298023224,
      "lockWeightYaxisThreshold": 2.0,
      "lockType": "Avatar&Monster_Lv4"
    },
    "die": {
      "hasAnimatorDie": true,
      "dieEndTime": 1.5,
      "dieForceDisappearTime": 2.5,
      "dieDisappearEffect": "Eff_Death_Avatar_Common",
      "dieShaderData": "AvatarDie",
      "useRagDoll": true,
      "ragDollDieEndTimeDelay": 0.4000000059604645
    }
  },
  "equipController": {
    "sheathPoint": "WeaponBackPut",
    "dissolveSheathFadeDelay": 0.07500000298023224,
    "dissolveSheathFadeTime": 2.0999999046325684,
    "dissolveTakeFadeTime": 0.699999988079071,
    "triggerToStates": [
      {
        "trigger": "Close",
        "floatID": "PlaySpeed",
        "floatValue": 0.5
      },
      {
        "trigger": "Open",
        "states": [
          "NormalStandbyWeapon",
          "BeHit",
          "BeHitAir",
          "Die"
        ],
        "floatID": "PlaySpeed",
        "floatValue": 1.0
      },
      {
        "trigger": "Close",
        "states": [
          "NormalMoveWeaponPutaway/StandbyPutaway"
        ],
        "floatID": "PlaySpeed",
        "floatValue": 1.0
      },
      {
        "trigger": "PlayDone",
        "states": [
          "NormalMoveWeaponOver/StandbyPutawayOver"
        ],
        "floatID": "PlaySpeed",
        "floatValue": 0.5
      },
      {
        "trigger": "Attack",
        "playTime": 1.2000000476837158,
        "states": [
          "ExtraAttack_AS/ExtraAttack_AS",
          "FallingAnthem_AS_2/FallingAnthem_AS_2"
        ],
        "floatID": "PlaySpeed",
        "floatValue": 2.0
      }
    ],
    "attachPoints": {
      "equip01": "WeaponR",
      "equip02": "WeaponL",
      "equip03": "WeaponL"
    }
  },
  "abilities": [
    {
      "abilityID": "Avatar_Charlotte_Attack01",
      "abilityName": "Avatar_Charlotte_Attack01",
      "abilityOverride": ""
    },
    {
      "abilityID": "Avatar_Charlotte_Attack02",
      "abilityName": "Avatar_Charlotte_Attack02",
      "abilityOverride": ""
    },
    {
      "abilityID": "Avatar_Charlotte_Attack03",
      "abilityName": "Avatar_Charlotte_Attack03",
      "abilityOverride": ""
    },
    {
      "abilityID": "Avatar_Charlotte_ExtraAttack",
      "abilityName": "Avatar_Charlotte_ExtraAttack",
      "abilityOverride": ""
    },
    {
      "abilityID": "Avatar_Charlotte_ExtraAttack_DoAttack",
      "abilityName": "Avatar_Charlotte_ExtraAttack_DoAttack",
      "abilityOverride": ""
    },
    {
      "abilityID": "Avatar_Charlotte_ElementalArt",
      "abilityName": "Avatar_Charlotte_ElementalArt",
      "abilityOverride": ""
    },
    {
      "abilityID": "Avatar_Charlotte_ElementalArt_Click",
      "abilityName": "Avatar_Charlotte_ElementalArt_Click",
      "abilityOverride": ""
    },
    {
      "abilityID": "Avatar_Charlotte_ElementalArtHold_RayCast",
      "abilityName": "Avatar_Charlotte_ElementalArtHold_RayCast",
      "abilityOverride": ""
    },
    {
      "abilityID": "Avatar_Charlotte_ElementalArt_WidgetMode",
      "abilityName": "Avatar_Charlotte_ElementalArt_WidgetMode",
      "abilityOverride": ""
    },
    {
      "abilityID": "Avatar_Charlotte_ElementalBurst_Init",
      "abilityName": "Avatar_Charlotte_ElementalBurst_Init",
      "abilityOverride": ""
    },
    {
      "abilityID": "Avatar_Charlotte_ElementalBurst",
      "abilityName": "Avatar_Charlotte_ElementalBurst",
      "abilityOverride": ""
    },
    {
      "abilityID": "Avatar_Charlotte_FallingAnthem",
      "abilityName": "Avatar_Charlotte_FallingAnthem",
      "abilityOverride": ""
    },
    {
      "abilityID": "Avatar_Charlotte_WaistCamera_DisAppear",
      "abilityName": "Avatar_Charlotte_WaistCamera_DisAppear",
      "abilityOverride": ""
    },
    {
      "abilityID": "Avatar_Charlotte_WaistCamera_Appear",
      "abilityName": "Avatar_Charlotte_WaistCamera_Appear",
      "abilityOverride": ""
    },
    {
      "abilityID": "Avatar_Charlotte_Show",
      "abilityName": "Avatar_Charlotte_Show",
      "abilityOverride": ""
    },
    {
      "abilityID": "Girl_Catalyst_HitFallToGround",
      "abilityName": "Avatar_Girl_Catalyst_HitFallToGround_Hide",
      "abilityOverride": ""
    }
  ],
  "stateLayers": {
    "defaultLayer": {
      "$type": "AEMHOACJLIB",
      "layerIndexName": "",
      "GCIDDLIDFAE": "",
      "stateIDs": {
        "NormalStandby": {
          "$type": "BCNJGNDHFGP",
          "animatorStates": {
            "Standby": [
              "Avatar_ResetFreeStyle"
            ]
          },
          "canDoSkill": true,
          "massRatio": 100.0,
          "setAnimatorBoolean": [
            {
              "name": "&CanUseSkill"
            }
          ],
          "canChangeAvatar": [
            {}
          ],
          "animatorTriggerOnLanded": "",
          "sheatheOnStart": true
        },
        "NormalMove": {
          "$type": "BCNJGNDHFGP",
          "animatorStates": {
            "ShowUp": [
              "Audio_Girl_Showup"
            ],
            "WalkToRun": [
              "Audio_Girl_WalkToRun",
              "Audio_Girl_Foley_Twice_Charlotte"
            ],
            "Walk": [
              "Ani_WalkSprint01",
              "Audio_Girl_Walk",
              "WalkStepOnWater",
              "Audio_Girl_Foley_Walk_Charlotte"
            ],
            "RunToWalk": [
              "Audio_Girl_RunToWalk",
              "Audio_Girl_Foley_Twice_Charlotte"
            ],
            "Run": [
              "Ani_Run01",
              "Audio_Girl_Run",
              "Audio_Girl_Foley_Run_Charlotte"
            ],
            "RunToIdle": [
              "Audio_Girl_RunToIdle",
              "Audio_Girl_Foley_RunToIdle_Charlotte"
            ],
            "WalkToIdle": [
              "Audio_Girl_WalkToIdle"
            ],
            "RunningTurn": [],
            "SprintToRun": [
              "Audio_Girl_SprintToRun",
              "Audio_Girl_Foley_Once_Charlotte"
            ],
            "SprintToIdle": [
              "Audio_Girl_SprintToIdle",
              "Emo_Girl_Sprint_AS",
              "Audio_Girl_Foley_SprintToIdle_Charlotte"
            ],
            "FallOnGround": [
              "Audio_Girl_FallOnGround",
              "Audio_Girl_Foley_Twice_Charlotte"
            ],
            "FallOnGroundLit": [
              "Audio_Girl_FallOnGroundLit",
              "Audio_Girl_Foley_Once_Charlotte"
            ],
            "FallToGroundRun": [
              "Audio_Girl_FallToGroundRun",
              "Audio_Girl_Foley_Twice_Charlotte"
            ],
            "FallToGroundRunHard": [
              "Audio_Girl_FallToGroundRunHard",
              "Audio_Girl_Foley_Twice_Charlotte"
            ],
            "FallToGroundSprint": [
              "Audio_Girl_FallToGroundSprint",
              "Audio_Girl_Foley_Twice_Charlotte"
            ]
          },
          "canDoSkill": true,
          "massRatio": 1.0,
          "setAnimatorBoolean": [
            {
              "name": "&CanUseSkill"
            }
          ],
          "canChangeAvatar": [
            {}
          ],
          "animatorTriggerOnLanded": "",
          "sheatheOnStart": true
        },
        "SprintBS": {
          "$type": "BCNJGNDHFGP",
          "animatorStates": {
            "SprintBS": [
              "Audio_Girl_RunToSprint",
              "SprintBS_Invincible",
              "Emo_Girl_Sprint_BS",
              "Audio_Girl_Foley_SprintBS_Charlotte"
            ]
          },
          "canDoSkill": true,
          "resetAnimatorTriggerOnEnter": [
            "DoSkill",
            "AimEnd"
          ],
          "setAnimatorBoolean": [
            {
              "name": "&CanUseSkill",
              "normalizeStart": 0.25999999046325684
            }
          ],
          "canChangeAvatar": [
            {
              "normalizeStart": 0.25999999046325684
            }
          ],
          "animatorTriggerOnLanded": "",
          "sheatheOnStart": true
        },
        "Sprint": {
          "$type": "BCNJGNDHFGP",
          "animatorStates": {
            "Sprint": [
              "Ani_WalkSprint01",
              "Audio_Girl_Sprint",
              "Emo_Girl_Sprint_Loop",
              "Audio_Girl_Foley_Twice_Charlotte"
            ]
          },
          "canDoSkill": true,
          "massRatio": 1.0,
          "setAnimatorBoolean": [
            {
              "name": "&CanUseSkill"
            }
          ],
          "canChangeAvatar": [
            {}
          ],
          "animatorTriggerOnLanded": "",
          "sheatheOnStart": true
        },
        "Crouch": {
          "$type": "BCNJGNDHFGP",
          "animatorStates": {
            "CrouchIdle": [],
            "CrouchMove": [
              "Audio_Girl_CrouchMove"
            ],
            "CrouchRoll": [
              "Audio_Girl_CrouchRoll",
              "Audio_Girl_Foley_Once_Charlotte"
            ]
          },
          "canDoSkill": true,
          "massRatio": 1.0,
          "setAnimatorBoolean": [
            {
              "name": "&CanUseSkill"
            }
          ],
          "canChangeAvatar": [
            {}
          ],
          "actionPanelState": "Squat",
          "animatorTriggerOnLanded": "",
          "sheatheOnStart": true
        },
        "CrouchToStandby": {
          "$type": "BCNJGNDHFGP",
          "animatorStates": {
            "CrouchToStandby": [
              "Audio_Girl_CrouchToStandby",
              "Audio_Girl_Foley_Once_Charlotte"
            ]
          },
          "resetAnimatorTriggerOnEnter": [
            "DoSkill"
          ],
          "animatorTriggerOnLanded": "",
          "sheatheOnStart": true
        },
        "SkiffNormal": {
          "$type": "BCNJGNDHFGP",
          "animatorStates": {
            "SkiffNormal": []
          },
          "massRatio": 100.0,
          "resetAnimatorTriggerOnExit": [
            "BeHit",
            "DoSkill",
            "Jump"
          ],
          "animatorTriggerOnLanded": "",
          "sheatheOnStart": true
        },
        "Climb": {
          "$type": "BCNJGNDHFGP",
          "animatorStates": {
            "ClimbMove0": [
              "ClimbStep",
              "Audio_Girl_Climb",
              "Audio_Girl_Foley_Climb_Charlotte"
            ],
            "ClimbMove1": [
              "ClimbStep",
              "Audio_Girl_Climb",
              "Audio_Girl_Foley_Twice_Charlotte"
            ],
            "ClimbIdle": [],
            "ClimbJump": [
              "Audio_Girl_ClimbDash",
              "Audio_Girl_Foley_Once_Charlotte"
            ],
            "JumpUpWallForStandby": [
              "Audio_Girl_JumpUpWallStandby",
              "Audio_Girl_Foley_Once_Charlotte"
            ],
            "Standby2ClimbB": [
              "Audio_Girl_Standby2ClimbB",
              "Audio_Girl_Foley_Once_Charlotte"
            ]
          },
          "resetAnimatorTriggerOnEnter": [
            "DoSkill"
          ],
          "actionPanelState": "Climb",
          "animatorTriggerOnLanded": "",
          "sheatheOnStart": true
        },
        "ClimbTransient": {
          "$type": "BCNJGNDHFGP",
          "animatorStates": {
            "JumpWallReady": [],
            "Standby2ClimbA": [
              "Audio_Girl_Standby2ClimbA",
              "Audio_Girl_Foley_Once_Charlotte"
            ]
          },
          "resetAnimatorTriggerOnEnter": [
            "DoSkill"
          ],
          "animatorTriggerOnLanded": "",
          "sheatheOnStart": true
        },
        "Upstairs": {
          "$type": "BCNJGNDHFGP",
          "animatorStates": {
            "Upstairs": [
              "Audio_Girl_Upstairs",
              "Audio_Girl_Foley_Once_Charlotte"
            ]
          },
          "resetAnimatorTriggerOnEnter": [
            "DoSkill"
          ],
          "setAnimatorBoolean": [
            {
              "name": "&CanUseSkill"
            }
          ],
          "animatorTriggerOnLanded": "",
          "sheatheOnStart": true
        },
        "Slip": {
          "$type": "BCNJGNDHFGP",
          "animatorStates": {
            "SlipFaceWall": [
              "Audio_Girl_Foley_ThreeTimes_Charlotte"
            ],
            "SlipBackWall": [
              "Audio_Girl_Foley_ThreeTimes_Charlotte"
            ]
          },
          "resetAnimatorTriggerOnEnter": [
            "DoSkill"
          ],
          "animatorTriggerOnLanded": "",
          "sheatheOnStart": true
        },
        "Swim": {
          "$type": "BCNJGNDHFGP",
          "animatorStates": {
            "SwimIdle": [
              "Audio_Girl_SwimIdle"
            ],
            "SwimMove": [
              "SwimStep",
              "Audio_Girl_SwimMove"
            ],
            "SwimDash": [
              "Audio_Girl_SwimDash",
              "Avatar_Girl_SwimDash_Hand_Effect"
            ],
            "SwimJumpToWater": [
              "Audio_Girl_SwimJumpToWater"
            ]
          },
          "resetAnimatorTriggerOnEnter": [
            "DoSkill"
          ],
          "actionPanelState": "Swim",
          "animatorTriggerOnLanded": "",
          "sheatheOnStart": true
        },
        "Fly": {
          "$type": "BCNJGNDHFGP",
          "animatorStates": {
            "Fly": [
              "Audio_Girl_Fly",
              "Audio_Girl_Foley_Once_Charlotte"
            ],
            "FlyStart": [
              "Audio_Girl_FlyStart",
              "FlyStart_Weapon",
              "Audio_Girl_Foley_FlyStart_Charlotte"
            ]
          },
          "canDoSkill": true,
          "resetAnimatorTriggerOnEnter": [
            "DoSkill"
          ],
          "setAnimatorBoolean": [
            {
              "name": "&CanUseAirSkill"
            }
          ],
          "actionPanelState": "Fly",
          "animatorTriggerOnLanded": "",
          "sheatheOnStart": true
        },
        "Jump": {
          "$type": "BCNJGNDHFGP",
          "animatorStates": {
            "Jump": [
              "Audio_Girl_Jump",
              "Audio_Girl_Foley_Jump_Charlotte"
            ],
            "JumpForRun": [
              "Audio_Girl_Jump",
              "Audio_Girl_Foley_Once_Charlotte"
            ],
            "JumpForWalk": [
              "Audio_Girl_Jump",
              "Audio_Girl_Foley_Once_Charlotte"
            ],
            "JumpForSprint": [
              "Audio_Girl_Jump",
              "Audio_Girl_Foley_Once_Charlotte"
            ]
          },
          "canDoSkill": true,
          "resetAnimatorTriggerOnEnter": [
            "DoSkill",
            "AimEnd"
          ],
          "setAnimatorBoolean": [
            {
              "name": "&CanUseAirSkill"
            }
          ],
          "actionPanelState": "Jump",
          "animatorTriggerOnLanded": "",
          "sheatheOnStart": true
        },
        "Fall": {
          "$type": "BCNJGNDHFGP",
          "animatorStates": {
            "JumpOffWall": [
              "Audio_Girl_Jump",
              "Audio_Girl_Foley_Once_Charlotte"
            ],
            "SwimJump": [
              "Audio_Girl_SwimJump",
              "Audio_Girl_Foley_Once_Charlotte"
            ],
            "SwimJumpDrop": [
              "Audio_Girl_Foley_ThreeTimes_Charlotte"
            ],
            "DropDown": [
              "Audio_Girl_DropDown",
              "Audio_Girl_Foley_ThreeTimes_Charlotte"
            ],
            "DropDownLit": [],
            "WalkDropDownLit": []
          },
          "canDoSkill": true,
          "resetAnimatorTriggerOnEnter": [
            "DoSkill"
          ],
          "setAnimatorBoolean": [
            {
              "name": "&CanUseAirSkill"
            }
          ],
          "animatorTriggerOnLanded": "",
          "sheatheOnStart": true
        },
        "NormalStandbyWeapon": {
          "$type": "BCNJGNDHFGP",
          "animatorStates": {
            "StandbyWeapon": []
          },
          "canDoSkill": true,
          "massRatio": 100.0,
          "setAnimatorBoolean": [
            {
              "name": "&CanUseSkill"
            }
          ],
          "canChangeAvatar": [
            {}
          ],
          "animatorTriggerOnLanded": "",
          "battouOnStart": true
        },
        "NormalMoveWeapon": {
          "$type": "BCNJGNDHFGP",
          "animatorStates": {
            "WalkToRunWeapon": [
              "Audio_Girl_WalkToRun"
            ],
            "WalkWeapon": [
              "Audio_Girl_Walk",
              "Audio_Girl_Foley_Twice_Charlotte"
            ],
            "RunToWalkWeapon": [
              "Audio_Girl_RunToWalk"
            ],
            "RunWeapon": [
              "Audio_Girl_Run",
              "Audio_Girl_Foley_Twice_Charlotte"
            ],
            "RunToIdleWeapon": [
              "Audio_Girl_Foley_Twice_Charlotte"
            ],
            "WalkToIdleWeapon": [
              "Audio_Girl_Foley_Twice_Charlotte"
            ],
            "RunningTurnWeapon": [],
            "FallOnGroundWeapon": [
              "Audio_Girl_FallOnGround"
            ],
            "FallOnGroundLitWeapon": [
              "Audio_Girl_FallOnGroundLit"
            ],
            "FallOnGroundMiddleWeapon": [
              "Audio_Girl_FallOnGroundMiddle"
            ],
            "FallToGroundRunWeapon": [
              "Audio_Girl_FallToGroundRun"
            ],
            "FallToGroundRunHardWeapon": [
              "Audio_Girl_FallToGroundRunHard"
            ]
          },
          "canDoSkill": true,
          "massRatio": 2.0,
          "setAnimatorBoolean": [
            {
              "name": "&CanUseSkill"
            }
          ],
          "canChangeAvatar": [
            {}
          ],
          "animatorTriggerOnLanded": "",
          "battouOnStart": true
        },
        "NormalMoveWeaponPutaway": {
          "$type": "BCNJGNDHFGP",
          "animatorStates": {
            "StandbyPutaway": [
              "Girl_Catalyst_Putaway_Standby",
              "Audio_Girl_Foley_Once_Charlotte"
            ],
            "WalkPutaway": [
              "Girl_Catalyst_Putaway_Walk",
              "Audio_Girl_Sword_WalkPutAway",
              "Audio_Girl_Foley_Twice_Charlotte"
            ],
            "RunPutaway": [
              "Girl_Catalyst_Putaway_Run",
              "Audio_Girl_Sword_RunPutAway",
              "Audio_Girl_Foley_Twice_Charlotte"
            ],
            "RunToSprintWeapon": [
              "Girl_Catalyst_Putaway_Sprint",
              "Audio_Girl_Sword_RunToSprintWeapon"
            ]
          },
          "canDoSkill": true,
          "massRatio": 2.0,
          "setAnimatorBoolean": [
            {
              "name": "&CanUseSkill"
            }
          ],
          "canChangeAvatar": [
            {}
          ],
          "animatorTriggerOnLanded": "",
          "battouOnStart": true
        },
        "NormalMoveWeaponOver": {
          "$type": "BCNJGNDHFGP",
          "animatorStates": {
            "StandbyPutawayOver": [],
            "WalkPutawayOver": [
              "Audio_Girl_Sword_WalkPutAwayOver"
            ],
            "RunPutawayOver": [
              "Audio_Girl_Sword_RunPutAwayOver"
            ],
            "RunToSprintWeaponOver": [
              "Audio_Girl_Sword_RunToSprintWeaponOver"
            ]
          },
          "canDoSkill": true,
          "massRatio": 2.0,
          "setAnimatorBoolean": [
            {
              "name": "&CanUseSkill"
            }
          ],
          "canChangeAvatar": [
            {}
          ],
          "animatorTriggerOnLanded": "",
          "sheatheOnStart": true
        },
        "JumpWeapon": {
          "$type": "BCNJGNDHFGP",
          "animatorStates": {
            "JumpWeapon": [
              "Audio_Girl_Jump",
              "Audio_Girl_Foley_Once_Charlotte"
            ],
            "JumpForRunWeapon": [
              "Audio_Girl_Jump",
              "Audio_Girl_Foley_Once_Charlotte"
            ],
            "JumpForWalkWeapon": [
              "Audio_Girl_Jump",
              "Audio_Girl_Foley_Once_Charlotte"
            ]
          },
          "canDoSkill": true,
          "resetAnimatorTriggerOnEnter": [
            "DoSkill"
          ],
          "setAnimatorBoolean": [
            {
              "name": "&CanUseAirSkill"
            }
          ],
          "canChangeAvatar": [
            {}
          ],
          "actionPanelState": "Jump",
          "animatorTriggerOnLanded": "",
          "battouOnStart": true
        },
        "FallWeapon": {
          "$type": "BCNJGNDHFGP",
          "animatorStates": {
            "DropDownWeapon": [
              "Audio_Girl_DropDown",
              "Audio_Girl_Foley_ThreeTimes_Charlotte"
            ],
            "DropDownLitWeapon": [],
            "WalkDropDownLitWeapon": []
          },
          "canDoSkill": true,
          "resetAnimatorTriggerOnEnter": [
            "DoSkill"
          ],
          "setAnimatorBoolean": [
            {
              "name": "&CanUseAirSkill"
            }
          ],
          "animatorTriggerOnLanded": "",
          "battouOnStart": true
        },
        "BeHit": {
          "$type": "BCNJGNDHFGP",
          "animatorStates": {
            "Hit_L": [
              "Audio_Girl_Hit_L",
              "Audio_Girl_Foley_Once_Charlotte"
            ],
            "Hit_H": [
              "Audio_Girl_Hit_H",
              "Audio_Girl_Foley_Once_Charlotte"
            ]
          },
          "onQuit": "combatMove",
          "resetAnimatorTriggerOnEnter": [
            "BeHit",
            "HitAir2HitDrop"
          ],
          "resetAnimatorTriggerOnExit": [
            "DoSkill"
          ],
          "cameraType": "combatBeHit",
          "jumpCancelEnd": 0.0,
          "animatorTriggerOnLanded": "",
          "battouOnStart": true
        },
        "HitThrow": {
          "$type": "BCNJGNDHFGP",
          "animatorStates": {
            "Hit_Throw_Ground": [
              "BeHitAir_Weapon",
              "Audio_Girl_Hit_Throw_Ground_Charlotte"
            ]
          },
          "onQuit": "combatMove",
          "resetAnimatorTriggerOnEnter": [
            "BeHit",
            "HitAir2HitDrop"
          ],
          "resetAnimatorTriggerOnExit": [
            "DoSkill"
          ],
          "setAnimatorBoolean": [
            {
              "name": "&CanUseLiquid"
            }
          ],
          "cameraType": "combatBeHit",
          "jumpCancelEnd": 0.0,
          "animatorTriggerOnLanded": "",
          "sheatheOnStart": true
        },
        "BeHitAir": {
          "$type": "BCNJGNDHFGP",
          "animatorStates": {
            "Hit_Throw": [
              "Audio_Girl_Hit_Throw",
              "BeHitAir_Weapon",
              "Audio_Girl_Foley_Once_Charlotte"
            ],
            "Hit_ThrowAir": [
              "Audio_Girl_Hit_ThrowAir",
              "BeHitAir_Weapon"
            ],
            "Struggle": [
              "BeHitAir_Weapon",
              "Audio_Girl_Foley_ThreeTimes_Charlotte"
            ]
          },
          "onQuit": "combatAir",
          "resetAnimatorTriggerOnEnter": [
            "BeHit"
          ],
          "resetAnimatorTriggerOnExit": [
            "DoSkill"
          ],
          "cameraType": "combatBeHit",
          "actionPanelState": "CombatAir",
          "jumpCancelEnd": 0.0,
          "animatorTriggerOnLanded": "",
          "sheatheOnStart": true
        },
        "Die": {
          "$type": "BCNJGNDHFGP",
          "animatorStates": {
            "DiveDie": [
              "Die",
              "Audio_Girl_Dive_Die"
            ],
            "FallDie": [
              "Audio_Girl_Death"
            ],
            "NormalDie": [
              "Die",
              "Audio_Girl_Death",
              "Audio_Girl_Foley_Once_Charlotte"
            ],
            "SwimDie": [
              "Swim_Die",
              "Audio_Girl_SwimDie"
            ],
            "HitGroundDie": [
              "Die",
              "Audio_Girl_Death"
            ]
          },
          "animatorTriggerOnLanded": ""
        },
        "Die_RagDoll": {
          "$type": "BCNJGNDHFGP",
          "animatorStates": {
            "FallDie_AS": []
          },
          "enableRagDoll": true,
          "animatorTriggerOnLanded": ""
        },
        "Attack01": {
          "$type": "BCNJGNDHFGP",
          "animatorStates": {
            "Attack01": [
              "Charlotte_Attack01",
              "SetComboCount1",
              "Interaction_Bad",
              "Audio_Girl_Catalyst_Charlotte_Attack01",
              "Emo_Avatar_Charlotte_Fight_Attack_01"
            ]
          },
          "onQuit": "combatMove",
          "canDoSkill": true,
          "resetAnimatorTriggerOnExit": [
            "BeHit"
          ],
          "setAnimatorBoolean": [
            {
              "name": "&CanUseExtra",
              "normalizeStart": 0.12999999523162842
            },
            {
              "name": "&CanCancelSkill"
            }
          ],
          "cameraType": "combatNormal",
          "canChangeAvatar": [
            {}
          ],
          "animatorTriggerOnLanded": "",
          "sheatheOnStart": true,
          "sheatheOnEnd": true
        },
        "Attack02": {
          "$type": "BCNJGNDHFGP",
          "animatorStates": {
            "Attack02": [
              "Charlotte_Attack02",
              "SetComboCount2",
              "Interaction_Bad",
              "Audio_Girl_Catalyst_Charlotte_Attack02",
              "Emo_Avatar_Charlotte_Fight_Attack_02"
            ]
          },
          "onQuit": "combatMove",
          "canDoSkill": true,
          "resetAnimatorTriggerOnExit": [
            "BeHit"
          ],
          "setAnimatorBoolean": [
            {
              "name": "&CanUseExtra",
              "normalizeStart": 0.07000000029802322
            },
            {
              "name": "&CanCancelSkill"
            }
          ],
          "cameraType": "combatNormal",
          "canChangeAvatar": [
            {}
          ],
          "animatorTriggerOnLanded": "",
          "sheatheOnStart": true,
          "sheatheOnEnd": true
        },
        "Attack03": {
          "$type": "BCNJGNDHFGP",
          "animatorStates": {
            "Attack03": [
              "Charlotte_Attack03",
              "SetComboCount3",
              "Interaction_Bad",
              "Audio_Girl_Catalyst_Charlotte_Attack03",
              "Emo_Avatar_Charlotte_Fight_Attack_03"
            ]
          },
          "onQuit": "combatMove",
          "canDoSkill": true,
          "resetAnimatorTriggerOnExit": [
            "BeHit"
          ],
          "setAnimatorBoolean": [
            {
              "name": "&CanUseExtra",
              "normalizeStart": 0.18000000715255737
            },
            {
              "name": "&CanCancelSkill"
            }
          ],
          "cameraType": "combatNormal",
          "canChangeAvatar": [
            {}
          ],
          "animatorTriggerOnLanded": "",
          "sheatheOnStart": true,
          "sheatheOnEnd": true
        },
        "ExtraAttack_BS": {
          "$type": "BCNJGNDHFGP",
          "animatorStates": {
            "ExtraAttack_BS": [
              "Charlotte_ExtraAttack_BS",
              "Emo_Avatar_Charlotte_Fight_Attack_ExtraAttack_BS",
              "Audio_Girl_Catalyst_Charlotte_ExtraAttack_BS"
            ]
          },
          "onQuit": "combatMove",
          "canDoSkill": true,
          "resetAnimatorTriggerOnExit": [
            "BeHit",
            "DoSkill",
            "Jump"
          ],
          "setAnimatorBoolean": [
            {
              "name": "&CanCancelSkill"
            }
          ],
          "cameraType": "combatNormal",
          "canChangeAvatar": [
            {}
          ],
          "animatorTriggerOnLanded": "",
          "sheatheOnStart": true,
          "sheatheOnEnd": true
        },
        "ExtraAttack_Charge": {
          "$type": "BCNJGNDHFGP",
          "animatorStates": {
            "ExtraAttack_Charge": [
              "Charlotte_ExtraAttack_Charge",
              "Emo_Avatar_Charlotte_Fight_Attack_ExtraAttack_Charge"
            ]
          },
          "onQuit": "combatMove",
          "resetAnimatorTriggerOnExit": [
            "BeHit",
            "DoSkill",
            "Jump"
          ],
          "setAnimatorBoolean": [
            {
              "name": "&CanCancelSkill"
            }
          ],
          "cameraType": "combatNormal",
          "animatorTriggerOnLanded": "",
          "sheatheOnStart": true,
          "sheatheOnEnd": true
        },
        "ExtraAttack": {
          "$type": "BCNJGNDHFGP",
          "animatorStates": {
            "ExtraAttack": [
              "Charlotte_ExtraAttack",
              "Interaction_Bad",
              "Audio_Girl_Catalyst_Charlotte_ExtraAttack",
              "Emo_Avatar_Charlotte_Fight_Attack_ExtraAttack"
            ]
          },
          "onQuit": "combatMove",
          "resetAnimatorTriggerOnExit": [
            "BeHit",
            "DoSkill",
            "Jump"
          ],
          "setAnimatorBoolean": [
            {
              "name": "&CanCancelSkill"
            }
          ],
          "cameraType": "combatNormal",
          "canChangeAvatar": [
            {
              "normalizeStart": 0.800000011920929
            }
          ],
          "animatorTriggerOnLanded": "",
          "sheatheOnStart": true,
          "sheatheOnEnd": true
        },
        "ExtraAttack_AS": {
          "$type": "BCNJGNDHFGP",
          "animatorStates": {
            "ExtraAttack_AS": [
              "Charlotte_ExtraAttack_AS",
              "Audio_Girl_Catalyst_Charlotte_ExtraAttack_AS",
              "Emo_Avatar_Charlotte_Fight_Attack_ExtraAttack_AS"
            ]
          },
          "onQuit": "combatMove",
          "canDoSkill": true,
          "resetAnimatorTriggerOnExit": [
            "BeHit"
          ],
          "setAnimatorBoolean": [
            {
              "name": "&CanUseExtra"
            },
            {
              "name": "&CanCancelSkill"
            },
            {
              "name": "&CanUseSkill",
              "normalizeStart": 0.15000000596046448
            }
          ],
          "cameraType": "combatNormal",
          "canChangeAvatar": [
            {}
          ],
          "animatorTriggerOnLanded": "",
          "battouOnStart": true,
          "battouOnStartNormalizedTime": 0.4690000116825104
        },
        "Charlotte_ElementalArt_BS": {
          "$type": "BCNJGNDHFGP",
          "animatorStates": {
            "Charlotte_ElementalArt_BS": [
              "Charlotte_ElementalArt_BS",
              "Emo_Avatar_Charlotte_Skill_ElementalArt_BS",
              "Audio_Girl_Catalyst_Charlotte_ElementalArt_BS"
            ]
          },
          "onQuit": "combatMove",
          "addEndure": 0.30000001192092896,
          "resetAnimatorTriggerOnExit": [
            "BeHit"
          ],
          "enableCCD": true,
          "cameraType": "combatNormal",
          "jumpCancelEnd": -1.0,
          "sprintCancelEnd": -1.0,
          "animatorTriggerOnLanded": "",
          "sheatheOnStart": true
        },
        "Charlotte_ElementalArt_Click": {
          "$type": "BCNJGNDHFGP",
          "animatorStates": {
            "Charlotte_ElementalArt_Click": [
              "Charlotte_ElementalArt_Click",
              "Emo_Avatar_Charlotte_Skill_ElementalArt_Click",
              "Audio_Girl_Catalyst_Charlotte_ElementalArt_Click"
            ]
          },
          "onQuit": "combatMove",
          "addEndure": 0.6000000238418579,
          "resetAnimatorTriggerOnExit": [
            "BeHit",
            "DoSkill",
            "Jump"
          ],
          "enableCCD": true,
          "cameraType": "combatNormal",
          "jumpCancelEnd": -1.0,
          "sprintCancelEnd": -1.0,
          "animatorTriggerOnLanded": "",
          "sheatheOnStart": true
        },
        "Charlotte_ElementalArt_Click_AS": {
          "$type": "BCNJGNDHFGP",
          "animatorStates": {
            "Charlotte_ElementalArt_Click_AS": [
              "Charlotte_ElementalArt_Click_AS",
              "Emo_Avatar_Charlotte_Skill_ElementalArt_Click_AS",
              "Audio_Girl_Catalyst_Charlotte_ElementalArt_Click_AS"
            ]
          },
          "onQuit": "combatMove",
          "canDoSkill": true,
          "addEndure": 0.6000000238418579,
          "resetAnimatorTriggerOnExit": [
            "BeHit",
            "DoSkill",
            "Jump"
          ],
          "setAnimatorBoolean": [
            {
              "name": "&CanCancelSkill",
              "normalizeStart": 0.03999999910593033
            },
            {
              "name": "&CanUseSkill",
              "normalizeStart": 0.03999999910593033
            }
          ],
          "cameraType": "combatNormal",
          "canChangeAvatar": [
            {
              "normalizeStart": 0.03999999910593033
            }
          ],
          "jumpCancelStart": 0.03999999910593033,
          "sprintCancelStart": 0.03999999910593033,
          "animatorTriggerOnLanded": "",
          "sheatheOnStart": true
        },
        "Charlotte_ElementalArt_Loop": {
          "$type": "BCNJGNDHFGP",
          "animatorStates": {
            "Charlotte_ElementalArt_Loop": [
              "Charlotte_ElementalArt_Loop",
              "Emo_Avatar_Charlotte_Skill_ElementalArt_AimFocus",
              "Audio_Girl_Catalyst_Charlotte_ElementalArt_Loop"
            ]
          },
          "onQuit": "combatMove",
          "addEndure": 0.6000000238418579,
          "resetAnimatorTriggerOnExit": [
            "BeHit",
            "DoSkill",
            "Jump"
          ],
          "needFaceToAnimParam": true,
          "enableCCD": true,
          "cameraType": "combatNormal",
          "jumpCancelEnd": -1.0,
          "sprintCancelEnd": -1.0,
          "animatorTriggerOnLanded": "",
          "sheatheOnStart": true
        },
        "Charlotte_ElementalArt_Hold": {
          "$type": "BCNJGNDHFGP",
          "animatorStates": {
            "Charlotte_ElementalArt_Hold": [
              "Charlotte_ElementalArt_Hold",
              "Emo_Avatar_Charlotte_Skill_ElementalArt_QuitFocus",
              "Audio_Girl_Catalyst_Charlotte_ElementalArt_Hold"
            ]
          },
          "onQuit": "combatMove",
          "canDoSkill": true,
          "canDoSkillStart": 0.20000000298023224,
          "addEndure": 0.6000000238418579,
          "resetAnimatorTriggerOnExit": [
            "BeHit",
            "DoSkill",
            "Jump"
          ],
          "setAnimatorBoolean": [
            {
              "name": "&CanCancelSkill",
              "normalizeStart": 0.8799999952316284
            },
            {
              "name": "&CanUseSkill",
              "normalizeStart": 0.8799999952316284
            }
          ],
          "enableCCD": true,
          "cameraType": "combatNormal",
          "jumpCancelEnd": -1.0,
          "sprintCancelEnd": -1.0,
          "animatorTriggerOnLanded": "",
          "sheatheOnStart": true
        },
        "Charlotte_ElementalArt_Hold_AS": {
          "$type": "BCNJGNDHFGP",
          "animatorStates": {
            "Charlotte_ElementalArt_Hold_AS": [
              "Emo_Avatar_Charlotte_Skill_ElementalArt_QuitFocus_AS",
              "Audio_Girl_Catalyst_Charlotte_ElementalArt_Hold_AS"
            ]
          },
          "onQuit": "combatMove",
          "canDoSkill": true,
          "addEndure": 0.6000000238418579,
          "resetAnimatorTriggerOnExit": [
            "BeHit",
            "DoSkill",
            "Jump"
          ],
          "setAnimatorBoolean": [
            {
              "name": "&CanCancelSkill"
            },
            {
              "name": "&CanUseSkill"
            }
          ],
          "cameraType": "combatNormal",
          "canChangeAvatar": [
            {}
          ],
          "animatorTriggerOnLanded": "",
          "sheatheOnStart": true
        },
        "Charlotte_ElementalArt_Loop_WidgetMode": {
          "$type": "BCNJGNDHFGP",
          "animatorStates": {
            "Charlotte_ElementalArt_Loop_WidgetMode": [
              "Emo_Avatar_Charlotte_Skill_ElementalArt_AimFocus",
              "Audio_Girl_Catalyst_Charlotte_ElementalArt_Loop"
            ]
          },
          "onQuit": "combatMove",
          "addEndure": 0.30000001192092896,
          "resetAnimatorTriggerOnExit": [
            "BeHit",
            "DoSkill",
            "Jump"
          ],
          "needFaceToAnimParam": true,
          "enableCCD": true,
          "cameraType": "combatNormal",
          "jumpCancelEnd": -1.0,
          "sprintCancelEnd": -1.0,
          "animatorTriggerOnLanded": "",
          "sheatheOnStart": true
        },
        "Charlotte_ElementalArt_QuitWidgetMode": {
          "$type": "BCNJGNDHFGP",
          "animatorStates": {
            "Charlotte_ElementalArt_QuitWidgetMode": [
              "Charlotte_ElementalArt_Hold_WidgetMode",
              "Emo_Avatar_Charlotte_Skill_ElementalArt_QuitFocus",
              "Audio_Girl_Catalyst_Charlotte_ElementalArt_QuitWidgetMode"
            ]
          },
          "onQuit": "combatMove",
          "addEndure": 0.30000001192092896,
          "resetAnimatorTriggerOnExit": [
            "BeHit",
            "DoSkill",
            "Jump"
          ],
          "enableCCD": true,
          "cameraType": "combatNormal",
          "jumpCancelEnd": -1.0,
          "sprintCancelEnd": -1.0,
          "animatorTriggerOnLanded": "",
          "sheatheOnStart": true
        },
        "Charlotte_ElementalArt_QuitWidgetMode_AS": {
          "$type": "BCNJGNDHFGP",
          "animatorStates": {
            "Charlotte_ElementalArt_QuitWidgetMode_AS": [
              "Emo_Avatar_Charlotte_Skill_ElementalArt_QuitFocus_AS",
              "Audio_Girl_Catalyst_Charlotte_ElementalArt_QuitWidgetMode_AS"
            ]
          },
          "onQuit": "combatMove",
          "canDoSkill": true,
          "addEndure": 0.6000000238418579,
          "resetAnimatorTriggerOnExit": [
            "BeHit",
            "DoSkill",
            "Jump"
          ],
          "setAnimatorBoolean": [
            {
              "name": "&CanCancelSkill"
            },
            {
              "name": "&CanUseSkill"
            }
          ],
          "cameraType": "combatNormal",
          "canChangeAvatar": [
            {
              "normalizeStart": 0.05000000074505806
            }
          ],
          "animatorTriggerOnLanded": "",
          "sheatheOnStart": true
        },
        "ElementalBurst": {
          "$type": "BCNJGNDHFGP",
          "animatorStates": {
            "ElementalBurst": [
              "Charlotte_ElementalBurst",
              "Interaction_Good",
              "Emo_Avatar_Charlotte_Skill_ElementalBurst",
              "Audio_Girl_Catalyst_Charlotte_ElementalBurst"
            ]
          },
          "onQuit": "combatMove",
          "addEndure": 0.0,
          "resetAnimatorTriggerOnExit": [
            "BeHit",
            "DoSkill",
            "Jump"
          ],
          "cameraType": "combatNormal",
          "jumpCancelEnd": -1.0,
          "sprintCancelEnd": -1.0,
          "animatorTriggerOnLanded": "",
          "sheatheOnStart": true
        },
        "ElementalBurst_AS": {
          "$type": "BCNJGNDHFGP",
          "animatorStates": {
            "ElementalBurst_AS": [
              "Charlotte_ElementalBurst_AS",
              "Emo_Avatar_Charlotte_Skill_ElementalBurst_AS",
              "Audio_Girl_Catalyst_Charlotte_ElementalBurst_AS"
            ]
          },
          "onQuit": "combatMove",
          "canDoSkill": true,
          "resetAnimatorTriggerOnExit": [
            "BeHit",
            "DoSkill",
            "Jump"
          ],
          "setAnimatorBoolean": [
            {
              "name": "&CanUseSkill",
              "normalizeStart": 0.09000000357627869
            }
          ],
          "cameraType": "combatNormal",
          "canChangeAvatar": [
            {
              "normalizeStart": 0.09000000357627869
            }
          ],
          "animatorTriggerOnLanded": ""
        },
        "FallingAnthem_BS": {
          "$type": "BCNJGNDHFGP",
          "animatorStates": {
            "FallingAnthem_BS_1": [
              "Audio_Girl_Catalyst_Charlotte_FallingAnthem_BS_1"
            ],
            "FallingAnthem_BS_2": []
          },
          "onQuit": "combatAir",
          "addEndure": 0.0,
          "resetAnimatorTriggerOnExit": [
            "BeHit",
            "DoSkill",
            "Jump"
          ],
          "cameraType": "combatNormal",
          "actionPanelState": "Fly",
          "equipReattach": [
            {
              "equip": "equip01",
              "targetPoint": "WeaponR2"
            }
          ],
          "jumpCancelEnd": -1.0,
          "animatorTriggerOnLanded": "HitAir2HitDrop",
          "sheatheOnStart": true
        },
        "FallingAnthem_Loop": {
          "$type": "BCNJGNDHFGP",
          "animatorStates": {
            "FallingAnthem_Loop": [],
            "FallingAnthem_Loop_Low": []
          },
          "onQuit": "combatAir",
          "addEndure": 0.0,
          "resetAnimatorTriggerOnExit": [
            "BeHit",
            "DoSkill",
            "Jump"
          ],
          "actionPanelState": "Fly",
          "equipReattach": [
            {
              "equip": "equip01",
              "targetPoint": "WeaponR2"
            }
          ],
          "animatorTriggerOnLanded": "HitAir2HitDrop",
          "sheatheOnStart": true
        },
        "FallingAnthem_AS_1": {
          "$type": "BCNJGNDHFGP",
          "animatorStates": {
            "FallingAnthem_AS_1": [
              "Charlotte_FallingAnthem_Strike",
              "Interaction_Bad",
              "Audio_Girl_Catalyst_Charlotte_FallingAnthem_AS_1"
            ]
          },
          "onQuit": "combatMove",
          "canDoSkill": true,
          "resetAnimatorTriggerOnExit": [
            "BeHit",
            "DoSkill",
            "Jump"
          ],
          "equipReattach": [
            {
              "equip": "equip01",
              "targetPoint": "WeaponR2"
            }
          ],
          "jumpCancelEnd": -1.0,
          "animatorTriggerOnLanded": "",
          "sheatheOnStart": true
        },
        "FallingAnthem_AS_2": {
          "$type": "BCNJGNDHFGP",
          "animatorStates": {
            "FallingAnthem_AS_2": [
              "Audio_Girl_Catalyst_Charlotte_FallingAnthem_AS_2"
            ]
          },
          "onQuit": "combatMove",
          "canDoSkill": true,
          "resetAnimatorTriggerOnExit": [
            "BeHit",
            "DoSkill",
            "Jump"
          ],
          "setAnimatorBoolean": [
            {
              "name": "&CanUseSkill",
              "normalizeStart": 0.05000000074505806
            }
          ],
          "canChangeAvatar": [
            {}
          ],
          "equipReattach": [
            {
              "equip": "equip01",
              "targetPoint": "WeaponR2"
            }
          ],
          "jumpCancelStart": 0.10000000149011612,
          "animatorTriggerOnLanded": "",
          "battouOnStart": true
        },
        "Sit": {
          "$type": "BCNJGNDHFGP",
          "animatorStates": {
            "SitDown": [
              "Audio_Girl_SitDown",
              "Audio_Girl_Sit_Charlotte"
            ],
            "SitLoop": [],
            "SitUp": [
              "Audio_Girl_SitDown",
              "Audio_Girl_Sit_Charlotte"
            ]
          },
          "onQuit": "performMove",
          "massRatio": 100.0,
          "actionPanelState": "Perform",
          "animatorTriggerOnLanded": "",
          "sheatheOnStart": true
        },
        "SitB": {
          "$type": "BCNJGNDHFGP",
          "animatorStates": {
            "SitBDown": [
              "Audio_Girl_SitDown",
              "Audio_Girl_Sit_Charlotte"
            ],
            "SitBLoop": [],
            "SitBUp": [
              "Audio_Girl_SitDown",
              "Audio_Girl_Sit_Charlotte"
            ]
          },
          "onQuit": "performMove",
          "massRatio": 100.0,
          "actionPanelState": "Perform",
          "animatorTriggerOnLanded": "",
          "sheatheOnStart": true
        },
        "StandbyShow": {
          "$type": "BCNJGNDHFGP",
          "animatorStates": {
            "StandbyVoice": [
              "Audio_Girl_StandbyVoice"
            ],
            "StandbyShow_01": [
              "Manekin_Charlotte_Show01",
              "Audio_Girl_Catalyst_Charlotte_StandbyShow_01"
            ],
            "StandbyShow_02": [
              "Manekin_Charlotte_Show02",
              "Audio_Girl_Catalyst_Charlotte_StandbyShow_02"
            ]
          },
          "onQuit": "performMove",
          "canDoSkill": true,
          "massRatio": 100.0,
          "setAnimatorBoolean": [
            {
              "name": "&CanUseSkill"
            }
          ],
          "canChangeAvatar": [
            {}
          ],
          "animatorTriggerOnLanded": "",
          "sheatheOnStart": true
        },
        "TakePhotos": {
          "$type": "BCNJGNDHFGP",
          "animatorStates": {
            "Think01BS": [],
            "Akimbo02BS": [],
            "Think01Loop": [],
            "Akimbo02Loop": [],
            "Think01AS": [],
            "Akimbo02AS": []
          },
          "animatorTriggerOnLanded": ""
        },
        "Channel_BS": {
          "$type": "BCNJGNDHFGP",
          "animatorStates": {
            "ChannelBS": [
              "Emo_Avatar_Common_Manekin_Default"
            ]
          },
          "onQuit": "combatMove",
          "canDoSkill": true,
          "massRatio": 100.0,
          "resetAnimatorTriggerOnExit": [
            "BeHit",
            "DoSkill",
            "Jump"
          ],
          "setAnimatorBoolean": [
            {
              "name": "&CanUseSkill"
            }
          ],
          "canChangeAvatar": [
            {}
          ],
          "animatorTriggerOnLanded": "",
          "sheatheOnStart": true
        },
        "Channel_Loop": {
          "$type": "BCNJGNDHFGP",
          "animatorStates": {
            "ChannelLoop": []
          },
          "onQuit": "combatMove",
          "canDoSkill": true,
          "massRatio": 100.0,
          "resetAnimatorTriggerOnExit": [
            "BeHit",
            "DoSkill",
            "Jump"
          ],
          "setAnimatorBoolean": [
            {
              "name": "&CanUseSkill"
            }
          ],
          "canChangeAvatar": [
            {}
          ],
          "animatorTriggerOnLanded": "",
          "sheatheOnStart": true
        },
        "Channel_AS": {
          "$type": "BCNJGNDHFGP",
          "animatorStates": {
            "ChannelAS": []
          },
          "onQuit": "combatMove",
          "canDoSkill": true,
          "massRatio": 100.0,
          "resetAnimatorTriggerOnExit": [
            "BeHit",
            "DoSkill",
            "Jump"
          ],
          "setAnimatorBoolean": [
            {
              "name": "&CanUseSkill"
            }
          ],
          "canChangeAvatar": [
            {}
          ],
          "animatorTriggerOnLanded": "",
          "sheatheOnStart": true
        },
        "PlayMusic_Lyre": {
          "$type": "BCNJGNDHFGP",
          "animatorStates": {
            "PlayMusic_Lyre_BS": [
              "PlayMusic_Lyre_Girl"
            ],
            "PlayMusic_Lyre_Loop": []
          },
          "onQuit": "combatMove",
          "massRatio": 100.0,
          "resetAnimatorTriggerOnExit": [
            "BeHit",
            "DoSkill",
            "Jump"
          ],
          "animatorTriggerOnLanded": "",
          "sheatheOnStart": true
        },
        "PlayMusic_Lyre_AS": {
          "$type": "BCNJGNDHFGP",
          "animatorStates": {
            "PlayMusic_Lyre_AS": [
              "PlayMusic_Lyre_Girl_AS"
            ]
          },
          "onQuit": "combatMove",
          "canDoSkill": true,
          "massRatio": 100.0,
          "resetAnimatorTriggerOnExit": [
            "BeHit",
            "DoSkill",
            "Jump"
          ],
          "setAnimatorBoolean": [
            {
              "name": "&CanUseSkill"
            }
          ],
          "canChangeAvatar": [
            {}
          ],
          "animatorTriggerOnLanded": "",
          "sheatheOnStart": true
        },
        "PlayMusic_Qin": {
          "$type": "BCNJGNDHFGP",
          "animatorStates": {
            "PlayMusic_Qin_BS": [
              "PlayMusic_Qin_Girl"
            ],
            "PlayMusic_Qin_Loop": []
          },
          "onQuit": "combatMove",
          "massRatio": 100.0,
          "resetAnimatorTriggerOnExit": [
            "BeHit",
            "DoSkill",
            "Jump"
          ],
          "animatorTriggerOnLanded": "",
          "sheatheOnStart": true
        },
        "PlayMusic_Qin_AS": {
          "$type": "BCNJGNDHFGP",
          "animatorStates": {
            "PlayMusic_Qin_AS": [
              "PlayMusic_Qin_Girl_AS"
            ]
          },
          "onQuit": "combatMove",
          "canDoSkill": true,
          "massRatio": 100.0,
          "resetAnimatorTriggerOnExit": [
            "BeHit",
            "DoSkill",
            "Jump"
          ],
          "setAnimatorBoolean": [
            {
              "name": "&CanUseSkill"
            }
          ],
          "canChangeAvatar": [
            {}
          ],
          "animatorTriggerOnLanded": "",
          "sheatheOnStart": true
        },
        "PlayMusic_Drum": {
          "$type": "BCNJGNDHFGP",
          "animatorStates": {
            "PlayMusic_Drum_BS": [
              "PlayMusic_Drum_Girl"
            ],
            "PlayMusic_Drum_Loop": []
          },
          "onQuit": "combatMove",
          "massRatio": 100.0,
          "resetAnimatorTriggerOnExit": [
            "BeHit",
            "DoSkill",
            "Jump"
          ],
          "animatorTriggerOnLanded": "",
          "sheatheOnStart": true
        },
        "PlayMusic_Drum_AS": {
          "$type": "BCNJGNDHFGP",
          "animatorStates": {
            "PlayMusic_Drum_AS": [
              "PlayMusic_Drum_Girl_AS"
            ]
          },
          "onQuit": "combatMove",
          "canDoSkill": true,
          "massRatio": 100.0,
          "resetAnimatorTriggerOnExit": [
            "BeHit",
            "DoSkill",
            "Jump"
          ],
          "setAnimatorBoolean": [
            {
              "name": "&CanUseSkill"
            }
          ],
          "canChangeAvatar": [
            {}
          ],
          "animatorTriggerOnLanded": "",
          "sheatheOnStart": true
        },
        "PlayMusic_FrenchHorn": {
          "$type": "BCNJGNDHFGP",
          "animatorStates": {
            "PlayMusic_FrenchHorn_BS": [
              "PlayMusic_Frenchhorn_Girl"
            ],
            "PlayMusic_FrenchHorn_Loop": [
              "PlayMusic_Frenchhorn_Girl_Loop"
            ]
          },
          "onQuit": "combatMove",
          "massRatio": 100.0,
          "resetAnimatorTriggerOnExit": [
            "BeHit",
            "DoSkill",
            "Jump"
          ],
          "animatorTriggerOnLanded": "",
          "sheatheOnStart": true
        },
        "PlayMusic_FrenchHorn_AS": {
          "$type": "BCNJGNDHFGP",
          "animatorStates": {
            "PlayMusic_FrenchHorn_AS": [
              "PlayMusic_Frenchhorn_Girl_AS"
            ]
          },
          "onQuit": "combatMove",
          "canDoSkill": true,
          "massRatio": 100.0,
          "resetAnimatorTriggerOnExit": [
            "BeHit",
            "DoSkill",
            "Jump"
          ],
          "setAnimatorBoolean": [
            {
              "name": "&CanUseSkill"
            }
          ],
          "canChangeAvatar": [
            {}
          ],
          "animatorTriggerOnLanded": "",
          "sheatheOnStart": true
        },
        "ActivitySkill_ElectricCoreFly": {
          "$type": "BCNJGNDHFGP",
          "animatorStates": {
            "ActivitySkill_ElectricCoreFly": []
          },
          "onQuit": "combatAir",
          "massRatio": 100.0,
          "resetAnimatorTriggerOnEnter": [
            "ElectricCoreFly_End"
          ],
          "resetAnimatorTriggerOnExit": [
            "BeHit",
            "DoSkill",
            "Jump",
            "ElectricCoreFly_End"
          ],
          "animatorTriggerOnLanded": "",
          "sheatheOnStart": true
        },
        "ActivitySkill_GrapplingHook": {
          "$type": "BCNJGNDHFGP",
          "animatorStates": {
            "ActivitySkill_GrapplingHook": []
          },
          "onQuit": "combatAir",
          "massRatio": 100.0,
          "resetAnimatorTriggerOnEnter": [
            "GrapplingHook_Drop"
          ],
          "resetAnimatorTriggerOnExit": [
            "BeHit",
            "DoSkill",
            "Jump",
            "GrapplingHook_Drop"
          ],
          "animatorTriggerOnLanded": "",
          "sheatheOnStart": true
        },
        "ActivitySkill_CustomSkill01": {
          "$type": "BCNJGNDHFGP",
          "animatorStates": {
            "ActivitySkill_CustomSkill01": []
          },
          "onQuit": "combatAir",
          "canDoSkill": true,
          "massRatio": 100.0,
          "resetAnimatorTriggerOnEnter": [
            "CustomSkill_End_Fly",
            "CustomSkill_End_Drop"
          ],
          "resetAnimatorTriggerOnExit": [
            "BeHit",
            "DoSkill",
            "Jump",
            "CustomSkill_End_Fly",
            "CustomSkill_End_Drop"
          ],
          "animatorTriggerOnLanded": "",
          "sheatheOnStart": true
        },
        "ActivitySkill_CustomSkill02": {
          "$type": "BCNJGNDHFGP",
          "animatorStates": {
            "ActivitySkill_CustomSkill02": []
          },
          "onQuit": "combatAir",
          "canDoSkill": true,
          "massRatio": 100.0,
          "resetAnimatorTriggerOnEnter": [
            "CustomSkill_End_Fly",
            "CustomSkill_End_Drop"
          ],
          "resetAnimatorTriggerOnExit": [
            "BeHit",
            "DoSkill",
            "Jump",
            "CustomSkill_End_Fly",
            "CustomSkill_End_Drop"
          ],
          "animatorTriggerOnLanded": "",
          "sheatheOnStart": true
        },
        "ActivitySkill_CommonMove": {
          "$type": "BCNJGNDHFGP",
          "animatorStates": {
            "ActivitySkill_CommonMove": []
          },
          "addEndure": 0.0,
          "massRatio": 100.0,
          "resetAnimatorTriggerOnExit": [
            "BeHit",
            "DoSkill",
            "Jump"
          ],
          "handleAnimatorStateImmediately": true,
          "jumpCancelStart": -1.0,
          "sprintCancelStart": -1.0,
          "animatorTriggerOnLanded": "",
          "sheatheOnStart": true
        },
        "DiveChannel_BS": {
          "$type": "BCNJGNDHFGP",
          "animatorStates": {
            "DiveChannelBS": [
              "Emo_Avatar_Common_Manekin_Default",
              "Audio_Girl_DiveChannel_BS"
            ]
          },
          "onQuit": "combatDive",
          "massRatio": 100.0,
          "resetAnimatorTriggerOnExit": [
            "BeHit",
            "DoSkill",
            "Jump"
          ],
          "setAnimatorBoolean": [
            {
              "name": "&CanUseSkill"
            }
          ],
          "canChangeAvatar": [
            {}
          ],
          "actionPanelState": "Dive",
          "sprintCancelEnd": -1.0,
          "animatorTriggerOnLanded": "",
          "sheatheOnStart": true
        },
        "DiveChannel_Loop": {
          "$type": "BCNJGNDHFGP",
          "animatorStates": {
            "DiveChannelLoop": []
          },
          "onQuit": "combatDive",
          "massRatio": 100.0,
          "resetAnimatorTriggerOnExit": [
            "BeHit",
            "DoSkill",
            "Jump"
          ],
          "setAnimatorBoolean": [
            {
              "name": "&CanUseSkill"
            }
          ],
          "canChangeAvatar": [
            {}
          ],
          "actionPanelState": "Dive",
          "sprintCancelEnd": -1.0,
          "animatorTriggerOnLanded": "",
          "sheatheOnStart": true
        },
        "DiveChannel_AS": {
          "$type": "BCNJGNDHFGP",
          "animatorStates": {
            "DiveChannelAS": [
              "Audio_Girl_DiveChannel_AS"
            ]
          },
          "onQuit": "combatDive",
          "canDoSkill": true,
          "canDoSkillStart": 0.30000001192092896,
          "massRatio": 100.0,
          "resetAnimatorTriggerOnExit": [
            "BeHit",
            "DoSkill",
            "Jump"
          ],
          "setAnimatorBoolean": [
            {
              "name": "&CanUseSkill"
            }
          ],
          "canChangeAvatar": [
            {}
          ],
          "actionPanelState": "Dive",
          "sprintCancelStart": 0.11999999731779099,
          "animatorTriggerOnLanded": "",
          "sheatheOnStart": true
        },
        "DiveCast_BS": {
          "$type": "BCNJGNDHFGP",
          "animatorStates": {
            "DiveCast_BS": [
              "Emo_Avatar_Common_Manekin_Default",
              "Audio_Girl_DiveCast_BS"
            ]
          },
          "onQuit": "combatDive",
          "massRatio": 100.0,
          "resetAnimatorTriggerOnExit": [
            "BeHit",
            "DoSkill",
            "Jump"
          ],
          "setAnimatorBoolean": [
            {
              "name": "&CanUseSkill"
            }
          ],
          "canChangeAvatar": [
            {}
          ],
          "actionPanelState": "Dive",
          "sprintCancelEnd": -1.0,
          "animatorTriggerOnLanded": "",
          "sheatheOnStart": true
        },
        "DiveCast_Loop": {
          "$type": "BCNJGNDHFGP",
          "animatorStates": {
            "DiveCast_Loop": []
          },
          "onQuit": "combatDive",
          "massRatio": 100.0,
          "resetAnimatorTriggerOnExit": [
            "BeHit",
            "DoSkill",
            "Jump"
          ],
          "setAnimatorBoolean": [
            {
              "name": "&CanUseSkill"
            }
          ],
          "canChangeAvatar": [
            {}
          ],
          "actionPanelState": "Dive",
          "sprintCancelEnd": -1.0,
          "animatorTriggerOnLanded": "",
          "sheatheOnStart": true
        },
        "DiveCast_AS": {
          "$type": "BCNJGNDHFGP",
          "animatorStates": {
            "DiveCast_AS": [
              "Audio_Girl_DiveCast_AS"
            ]
          },
          "onQuit": "combatDive",
          "canDoSkill": true,
          "canDoSkillStart": 0.10000000149011612,
          "massRatio": 100.0,
          "resetAnimatorTriggerOnExit": [
            "BeHit",
            "DoSkill",
            "Jump"
          ],
          "setAnimatorBoolean": [
            {
              "name": "&CanUseSkill"
            }
          ],
          "canChangeAvatar": [
            {}
          ],
          "actionPanelState": "Dive",
          "sprintCancelStart": 0.09000000357627869,
          "animatorTriggerOnLanded": "",
          "sheatheOnStart": true
        },
        "Dive": {
          "$type": "BCNJGNDHFGP",
          "animatorStates": {
            "DiveIdle": [],
            "DiveMoveBS": [
              "Audio_Girl_Dive_MoveBS"
            ],
            "DiveMoveAS": [
              "Audio_Girl_Dive_MoveAS"
            ],
            "DiveMoveU_A": [
              "Audio_Girl_Dive_MoveU_A"
            ],
            "DiveMoveU_B": [
              "Audio_Girl_Dive_MoveU_B"
            ],
            "DiveMoveF_A": [],
            "DiveMoveF_B": [
              "Audio_Girl_Dive_MoveF_B"
            ],
            "DiveMoveD_A": [
              "Audio_Girl_Dive_MoveD_A"
            ],
            "DiveMoveD_B": [
              "Audio_Girl_Dive_MoveD_B"
            ],
            "DiveTurn": [
              "Audio_Girl_Dive_Turn"
            ],
            "DiveTurnAS": [
              "Audio_Girl_Dive_Turn_AS"
            ],
            "DiveTurn2": [
              "Audio_Girl_Dive_Turn"
            ],
            "DiveTurnAS2": [
              "Audio_Girl_Dive_Turn_AS"
            ],
            "DiveDashBS": [
              "Audio_Girl_Dive_Dash_BS"
            ],
            "DiveDashAS": [
              "Audio_Girl_Dive_Dash_AS"
            ],
            "DiveDash": [],
            "DiveDashB": [
              "Audio_Girl_Dive_Out_DashB"
            ],
            "DiveSuperDash": [
              "Audio_Girl_Dive_SuperDash"
            ],
            "DiveSuperDash2": [
              "Audio_Girl_Dive_SuperDash2"
            ]
          },
          "canDoSkill": true,
          "resetAnimatorTriggerOnEnter": [
            "DoSkill"
          ],
          "setAnimatorBoolean": [
            {
              "name": "&CanUseSkill"
            }
          ],
          "canChangeAvatar": [
            {}
          ],
          "actionPanelState": "Dive",
          "animatorTriggerOnLanded": "",
          "sheatheOnStart": true
        },
        "Dive_In_Out": {
          "$type": "BCNJGNDHFGP",
          "animatorStates": {
            "Dive_In_Up": [
              "Audio_Girl_Dive_In_Up"
            ],
            "Dive_In_Side": [
              "Audio_Girl_Dive_In_Side"
            ],
            "Dive_In_Bottom": [
              "Audio_Girl_Dive_In_Bottom"
            ],
            "Dive_Out_Side": [
              "Audio_Girl_Dive_Out_Side"
            ],
            "Dive_Out_Bottom": [
              "Audio_Girl_Dive_Out_Bottom"
            ],
            "Dive_Out_Up": [
              "Audio_Girl_Dive_Out_Up"
            ]
          },
          "resetAnimatorTriggerOnEnter": [
            "DoSkill"
          ],
          "setAnimatorBoolean": [
            {
              "name": "&CanUseSkill"
            }
          ],
          "actionPanelState": "Dive",
          "animatorTriggerOnLanded": "",
          "sheatheOnStart": true
        },
        "DiveStream": {
          "$type": "BCNJGNDHFGP",
          "animatorStates": {
            "DiveStreamIn": [
              "Audio_Girl_Dive_Stream_In"
            ],
            "DiveStreamOut": [
              "Audio_Girl_Dive_Stream_Out"
            ],
            "DiveStream": [],
            "DiveStreamRoll_L": [
              "Audio_Girl_Dive_Stream_Roll_L"
            ],
            "DiveStreamRoll_R": [
              "Audio_Girl_Dive_Stream_Roll_R"
            ]
          },
          "canDoSkill": true,
          "resetAnimatorTriggerOnEnter": [
            "DoSkill"
          ],
          "setAnimatorBoolean": [
            {
              "name": "&CanUseSkill"
            }
          ],
          "actionPanelState": "Dive",
          "animatorTriggerOnLanded": "",
          "sheatheOnStart": true
        },
        "DiveJump": {
          "$type": "BCNJGNDHFGP",
          "animatorStates": {
            "Dive_Out_DashU": [
              "Audio_Girl_Dive_Out_DashU"
            ],
            "Dive_Out_DashD": [
              "Audio_Girl_Dive_Out_DashD"
            ],
            "Dive_Out_DashFBS": [
              "Audio_Girl_Dive_Out_DashFBS"
            ],
            "Dive_Out_DashFAS": [
              "Audio_Girl_Dive_Out_DashFAS"
            ],
            "Dive_Out_DashFLoop": []
          },
          "canDoSkill": true,
          "resetAnimatorTriggerOnEnter": [
            "DoSkill",
            "AimEnd"
          ],
          "setAnimatorBoolean": [
            {
              "name": "&CanUseAirSkill"
            }
          ],
          "actionPanelState": "Jump",
          "animatorTriggerOnLanded": "",
          "sheatheOnStart": true
        },
        "BeHitDive": {
          "$type": "BCNJGNDHFGP",
          "animatorStates": {
            "BeHitDive": [
              "Audio_Girl_Dive_beHit"
            ],
            "DiveStruggle": []
          },
          "onQuit": "combatDive",
          "resetAnimatorTriggerOnEnter": [
            "BeHit"
          ],
          "resetAnimatorTriggerOnExit": [
            "DoSkill"
          ],
          "cameraType": "combatBeHit",
          "actionPanelState": "Dive",
          "jumpCancelEnd": 0.0,
          "animatorTriggerOnLanded": "",
          "sheatheOnStart": true
        },
        "MultiOverride_01": {
          "$type": "BCNJGNDHFGP",
          "animatorStates": {
            "MultiOverrideBS_01": [],
            "MultiOverrideLoop_01": [],
            "MultiOverrideAS_01": []
          },
          "animatorTriggerOnLanded": ""
        },
        "MultiOverride2": {
          "$type": "BCNJGNDHFGP",
          "animatorStates": {
            "MultiOverrideBS_02": [],
            "MultiOverrideLoop_02": [],
            "MultiOverrideAS_02": []
          },
          "animatorTriggerOnLanded": ""
        },
        "MultiOverride3": {
          "$type": "BCNJGNDHFGP",
          "animatorStates": {
            "MultiOverrideBS_03": [],
            "MultiOverrideLoop_03": [],
            "MultiOverrideAS_03": []
          },
          "animatorTriggerOnLanded": ""
        },
        "MultiOverride": {
          "$type": "BCNJGNDHFGP",
          "DAJBEEPCPBH": {
            "Ani_Avatar_Girl_Catalyst_Charlotte_Photo01BS": [],
            "Ani_Avatar_Girl_Catalyst_Charlotte_Photo01Loop": [],
            "Ani_Avatar_Girl_Catalyst_Charlotte_Photo01AS": [],
            "Ani_Avatar_Girl_Catalyst_Charlotte_Photo02BS": [],
            "Ani_Avatar_Girl_Catalyst_Charlotte_Photo02Loop": [],
            "Ani_Avatar_Girl_Catalyst_Charlotte_Photo02AS": []
          },
          "animatorTriggerOnLanded": ""
        }
      }
    },
    "WaistCameraLayer": {
      "$type": "AEMHOACJLIB",
      "layerIndex": 7,
      "layerIndexName": "WaistCameraLayer",
      "GCIDDLIDFAE": ""
    },
    "diveLayer": {
      "$type": "AEMHOACJLIB",
      "layerIndex": 8,
      "layerIndexName": "DiveLayer",
      "GCIDDLIDFAE": ""
    }
  },
  "audio": {
    "overrideEmitterName": "",
    "animAudio": {
      "onTransitionIn": [
        {
          "currentStateName": "SlipBackWall",
          "audioEvent": {
            "text": "Play_sfx_char_slipWall"
          }
        },
        {
          "currentStateName": "SlipFaceWall",
          "audioEvent": {
            "text": "Play_sfx_char_slipWall"
          }
        },
        {
          "currentStateName": "NormalDie",
          "audioEvent": {
            "text": "Play_sfx_char_land"
          },
          "otherStateNames": [
            "FallOnGround"
          ],
          "usage": "InSet"
        },
        {
          "currentStateName": "SprintBS",
          "audioEvent": {
            "text": "Play_sfx_char_foley_flutter_heavy"
          }
        },
        {
          "currentStateName": "SwimJumpToWater",
          "audioEvent": {
            "text": "Stop_sfx_char_swim_dive"
          }
        },
        {
          "currentStateName": "SwimDash",
          "audioEvent": {
            "text": "Play_sfx_char_swim_dash"
          }
        },
        {
          "currentStateName": "Standby",
          "audioEvent": {
            "text": "Stop_sfx_char_fly"
          }
        },
        {
          "currentStateName": "DiveDash",
          "audioEvent": {
            "text": "Play_sfx_char_dive_dash_lp"
          },
          "otherStateNames": [
            "DiveDashBS",
            "Dive_Out_DashFBS",
            "DiveSuperDash",
            "DiveSuperDash2"
          ],
          "usage": "InSet"
        },
        {
          "currentStateName": "DiveStream",
          "audioEvent": {
            "text": "Play_sfx_char_dive_stream_lp"
          }
        },
        {
          "currentStateName": "Dive_Out_DashFLoop",
          "audioEvent": {
            "text": "Play_sfx_char_dive_out_dashFLoop"
          }
        },
        {
          "currentStateName": "DiveMoveF_A",
          "audioEvent": {
            "text": "Play_sfx_char_dive_moveF_A"
          }
        },
        {
          "currentStateName": "DiveChannel_Loop",
          "audioEvent": {
            "text": "Play_vfx_Avatar_Diving_Channel_LP"
          }
        }
      ],
      "onTransitionOut": [
        {
          "currentStateName": "Attack01",
          "audioEvent": {
            "text": "Stop_sfx_char_charlotte_catalyst_attack"
          },
          "otherStateNames": [
            "Attack02"
          ],
          "usage": "Except"
        },
        {
          "currentStateName": "Attack02",
          "audioEvent": {
            "text": "Stop_sfx_char_charlotte_catalyst_attack"
          },
          "otherStateNames": [
            "Attack03"
          ],
          "usage": "Except"
        },
        {
          "currentStateName": "Attack03",
          "audioEvent": {
            "text": "Stop_sfx_char_charlotte_catalyst_attack"
          }
        },
        {
          "currentStateName": "ExtraAttack",
          "audioEvent": {
            "text": "Stop_sfx_char_charlotte_catalyst_extraAtk"
          }
        },
        {
          "currentStateName": "StandbyShow_01",
          "audioEvent": {
            "text": "Stop_sfx_standbyShow_charlotte_01"
          }
        },
        {
          "currentStateName": "StandbyShow_02",
          "audioEvent": {
            "text": "Stop_sfx_standbyShow_charlotte_02"
          }
        },
        {
          "currentStateName": "StandbyPutaway",
          "audioEvent": {
            "text": "Stop_sfx_weapon_1HSword_lady_putAwayStandby"
          }
        },
        {
          "currentStateName": "WalkPutaway",
          "audioEvent": {
            "text": "Stop_sfx_weapon_1HSword_lady_putAwayStandby"
          }
        },
        {
          "currentStateName": "RunPutaway",
          "audioEvent": {
            "text": "Stop_sfx_weapon_1HSword_lady_putAwayStandby"
          }
        },
        {
          "currentStateName": "SwimJumpDrop",
          "audioEvent": {
            "text": "Stop_sfx_char_swim_drop"
          }
        },
        {
          "currentStateName": "SwimJump",
          "audioEvent": {
            "text": "Stop_sfx_char_swim_drop"
          },
          "otherStateNames": [
            "SwimJumpDrop"
          ],
          "usage": "Except"
        },
        {
          "currentStateName": "Fly",
          "audioEvent": {
            "text": "Play_sfx_char_land_climb"
          },
          "otherStateNames": [
            "ClimbIdle",
            "ClimbMove0",
            "ClimbMove1",
            "ClimbJump"
          ],
          "usage": "InSet"
        },
        {
          "currentStateName": "FlyStart",
          "audioEvent": {
            "text": "Play_sfx_char_land_climb"
          },
          "otherStateNames": [
            "ClimbIdle",
            "ClimbMove0",
            "ClimbMove1",
            "ClimbJump"
          ],
          "usage": "InSet"
        },
        {
          "currentStateName": "DropDownLit",
          "audioEvent": {
            "text": "Play_sfx_char_land_climb"
          },
          "otherStateNames": [
            "ClimbIdle",
            "ClimbMove0",
            "ClimbMove1",
            "ClimbJump"
          ],
          "usage": "InSet"
        },
        {
          "currentStateName": "DropDown",
          "audioEvent": {
            "text": "Play_sfx_char_land_climb"
          },
          "otherStateNames": [
            "ClimbIdle",
            "ClimbMove0",
            "ClimbMove1",
            "ClimbJump"
          ],
          "usage": "InSet"
        },
        {
          "currentStateName": "WalkDropDownLit",
          "audioEvent": {
            "text": "Play_sfx_char_land_climb"
          },
          "otherStateNames": [
            "ClimbIdle",
            "ClimbMove0",
            "ClimbMove1",
            "ClimbJump"
          ],
          "usage": "InSet"
        },
        {
          "currentStateName": "Jump",
          "audioEvent": {
            "text": "Play_sfx_char_land_climb"
          },
          "otherStateNames": [
            "ClimbIdle",
            "ClimbMove0",
            "ClimbMove1",
            "ClimbJump"
          ],
          "usage": "InSet"
        },
        {
          "currentStateName": "JumpForWalk",
          "audioEvent": {
            "text": "Play_sfx_char_land_climb"
          },
          "otherStateNames": [
            "ClimbIdle",
            "ClimbMove0",
            "ClimbMove1",
            "ClimbJump"
          ],
          "usage": "InSet"
        },
        {
          "currentStateName": "JumpForRun",
          "audioEvent": {
            "text": "Play_sfx_char_land_climb"
          },
          "otherStateNames": [
            "ClimbIdle",
            "ClimbMove0",
            "ClimbMove1",
            "ClimbJump"
          ],
          "usage": "InSet"
        },
        {
          "currentStateName": "JumpForSprint",
          "audioEvent": {
            "text": "Play_sfx_char_land_climb"
          },
          "otherStateNames": [
            "ClimbIdle",
            "ClimbMove0",
            "ClimbMove1",
            "ClimbJump"
          ],
          "usage": "InSet"
        },
        {
          "currentStateName": "JumpWeapon",
          "audioEvent": {
            "text": "Play_sfx_char_land_climb"
          },
          "otherStateNames": [
            "ClimbIdle",
            "ClimbMove0",
            "ClimbMove1",
            "ClimbJump"
          ],
          "usage": "InSet"
        },
        {
          "currentStateName": "JumpForWalkWeapon",
          "audioEvent": {
            "text": "Play_sfx_char_land_climb"
          },
          "otherStateNames": [
            "ClimbIdle",
            "ClimbMove0",
            "ClimbMove1",
            "ClimbJump"
          ],
          "usage": "InSet"
        },
        {
          "currentStateName": "JumpForRunWeapon",
          "audioEvent": {
            "text": "Play_sfx_char_land_climb"
          },
          "otherStateNames": [
            "ClimbIdle",
            "ClimbMove0",
            "ClimbMove1",
            "ClimbJump"
          ],
          "usage": "InSet"
        },
        {
          "currentStateName": "DropDownWeapon",
          "audioEvent": {
            "text": "Play_sfx_char_land_climb"
          },
          "otherStateNames": [
            "ClimbIdle",
            "ClimbMove0",
            "ClimbMove1",
            "ClimbJump"
          ],
          "usage": "InSet"
        },
        {
          "currentStateName": "DropDownLitWeapon",
          "audioEvent": {
            "text": "Play_sfx_char_land_climb"
          },
          "otherStateNames": [
            "ClimbIdle",
            "ClimbMove0",
            "ClimbMove1",
            "ClimbJump"
          ],
          "usage": "InSet"
        },
        {
          "currentStateName": "SwimMove",
          "audioEvent": {
            "text": "Stop_sfx_char_swim"
          }
        },
        {
          "currentStateName": "SlipFaceWall",
          "audioEvent": {
            "text": "Stop_sfx_char_slipWall"
          }
        },
        {
          "currentStateName": "SlipBackWall",
          "audioEvent": {
            "text": "Stop_sfx_char_slipWall"
          }
        },
        {
          "currentStateName": "SlipBackWall",
          "audioEvent": {
            "text": "Stop_sfx_char_drop"
          }
        },
        {
          "currentStateName": "SlipFaceWall",
          "audioEvent": {
            "text": "Stop_sfx_char_drop"
          }
        },
        {
          "currentStateName": "Fly",
          "audioEvent": {
            "text": "Stop_sfx_char_fly"
          }
        },
        {
          "currentStateName": "DiveDash",
          "audioEvent": {
            "text": "Stop_sfx_char_dive_dash_lp"
          },
          "otherStateNames": [
            "DiveDashB",
            "DiveTurn",
            "DiveTurn2"
          ],
          "usage": "Except"
        },
        {
          "currentStateName": "DiveStream",
          "audioEvent": {
            "text": "Stop_sfx_char_dive_stream_lp"
          },
          "otherStateNames": [
            "DiveStreamRoll_L",
            "DiveStreamRoll_R"
          ],
          "usage": "Except"
        },
        {
          "currentStateName": "DiveMoveAS",
          "audioEvent": {
            "text": "Stop_sfx_char_dive_move_AS"
          }
        },
        {
          "currentStateName": "Dive_Out_DashFLoop",
          "audioEvent": {
            "text": "Stop_sfx_char_dive_out_dashFLoop"
          }
        },
        {
          "currentStateName": "DiveIdle",
          "audioEvent": {
            "text": "Stop_sfx_char_dive_dash_lp"
          }
        },
        {
          "currentStateName": "Dive_Out_Up",
          "audioEvent": {
            "text": "Stop_sfx_char_dive_moveF_A"
          }
        },
        {
          "currentStateName": "DiveChannel_Loop",
          "audioEvent": {
            "text": "Stop_vfx_Avatar_Diving_Channel_LP"
          }
        },
        {
          "currentStateName": "DiveMoveU_A",
          "audioEvent": {
            "text": "Stop_sfx_char_dive_moveU_A"
          }
        },
        {
          "currentStateName": "DiveMoveF_A",
          "audioEvent": {
            "text": "Stop_sfx_char_dive_moveF_A"
          },
          "otherStateNames": [
            "DiveMoveF_B"
          ],
          "usage": "Except"
        }
      ],
      "recurrentSpeeches": {
        "Standby": {
          "start": {
            "upper": 28.0,
            "lower": 23.0
          },
          "interval": {
            "upper": 40.0,
            "lower": 34.0
          }
        },
        "Walk": {
          "start": {
            "upper": 16.0,
            "lower": 13.0
          },
          "interval": {
            "upper": 14.0,
            "lower": 10.0
          },
          "eventName": {
            "text": ""
          }
        },
        "Run": {
          "start": {
            "upper": 13.0,
            "lower": 9.0
          },
          "interval": {
            "upper": 11.0,
            "lower": 8.0
          },
          "eventName": {
            "text": ""
          }
        },
        "Sprint": {
          "start": {
            "upper": 12.0,
            "lower": 7.0
          },
          "interval": {
            "upper": 9.0,
            "lower": 6.0
          },
          "eventName": {
            "text": ""
          }
        }
      }
    },
    "moveStateAudio": {
      "onStateBegin": [
        {
          "currentStateName": "Fly",
          "audioEvent": {
            "text": "Play_sfx_char_fly"
          }
        },
        {
          "currentStateName": "Air",
          "audioEvent": {
            "text": "Play_sfx_char_drop"
          },
          "otherStateNames": [
            "Fly"
          ],
          "usage": "InSet"
        },
        {
          "currentStateName": "Dive",
          "audioEvent": {
            "text": "Play_sfx_char_dive_move_swim_idle"
          },
          "otherStateNames": [
            "CombatDive"
          ],
          "usage": "Except"
        },
        {
          "currentStateName": "CombatDive",
          "audioEvent": {
            "text": "Play_sfx_char_dive_move_swim_idle"
          },
          "otherStateNames": [
            "Dive"
          ],
          "usage": "Except"
        }
      ],
      "onStateEnd": [
        {
          "currentStateName": "Fly",
          "audioEvent": {
            "text": "Stop_sfx_char_fly"
          }
        },
        {
          "currentStateName": "Air",
          "audioEvent": {
            "text": "Stop_sfx_char_drop"
          }
        },
        {
          "currentStateName": "Dive",
          "audioEvent": {
            "text": "Stop_sfx_char_dive_move_swim_idle"
          },
          "otherStateNames": [
            "CombatDive"
          ],
          "usage": "Except"
        },
        {
          "currentStateName": "CombatDive",
          "audioEvent": {
            "text": "Stop_sfx_char_dive_move_swim_idle"
          },
          "otherStateNames": [
            "Dive"
          ],
          "usage": "Except"
        }
      ]
    },
    "voiceSwitch": {
      "text": "Switch_Charlotte"
    },
    "bodyTypeSwitch": {
      "text": "Switch_Girl"
    },
    "listenerLiftup": 1.5,
    "surfaceProberLiftup": 1.5
  },
  "moveStateEffect": "AvatarGirl",
  "perform": {
    "standby": {
      "minTime": 10.0,
      "maxTime": 20.0,
      "performIDs": [
        202,
        200,
        200
      ],
      "loopPerformIDs": [
        {
          "id": 201,
          "time": 6.0
        }
      ]
    }
  }
}