{
  "common": {
    "effectAttachShape": {
      "$type": "OOMMNAAKJOP",
      "mesh": "EffectMesh"
    },
    "mass": 10.0,
    "height": 1.6740999221801758,
    "modelHeight": 1.649999976158142,
    "affectedByWorld": true,
    "checkInSurface": true
  },
  "headControl": {
    "$type": "FKHBOAJEOKE",
    "useHeadControl": true,
    "animStates": [
      "NormalStandby",
      "NormalMove/WalkToRun",
      "NormalMove/Walk",
      "NormalMove/RunToWalk",
      "NormalMove/Run",
      "NormalMove/RunToIdle",
      "NormalMove/WalkToIdle",
      "NormalMove/RunningTurn",
      "NormalMove/SprintToRun",
      "NormalMove/SprintToIdle",
      "Sprint",
      "Climb/ClimbIdle",
      "Ladder/LadderIdle",
      "Swim/SwimIdle",
      "NormalStandbyWeapon",
      "NormalMoveWeapon/WalkToRunWeapon",
      "NormalMoveWeapon/WalkWeapon",
      "NormalMoveWeapon/RunToWalkWeapon",
      "NormalMoveWeapon/RunWeapon",
      "NormalMoveWeapon/RunToIdleWeapon",
      "NormalMoveWeapon/WalkToIdleWeapon",
      "NormalMoveWeapon/RunningTurnWeapon"
    ]
  },
  "specialPoint": {
    "elementAbsorb": "PRIVATE_Pendant",
    "elementPendant": "PRIVATE_Pendant",
    "elementDrop": "RootNode",
    "bulletAim": "RootNode"
  },
  "combat": {
    "property": {
      "endureType": "Avatar_Bow",
      "weight": 75.0
    },
    "beHit": {
      "hitBloodEffect": ""
    },
    "combatLock": {
      "lockShape": "CircleLockEnemyClose",
      "lockWeightYaxisParam": 0.20000000298023224,
      "lockWeightYaxisThreshold": 2.0,
      "lockType": "Avatar&Monster_Lv4"
    },
    "die": {
      "hasAnimatorDie": true,
      "dieEndTime": 1.5,
      "dieForceDisappearTime": 2.5,
      "dieDisappearEffect": "Eff_Death_Avatar_Common",
      "dieShaderData": "AvatarDie",
      "useRagDoll": true,
      "ragDollDieEndTimeDelay": 0.4000000059604645
    }
  },
  "equipController": {
    "sheathPoint": "WeaponBackPut",
    "dissolveSheathFadeDelay": 0.07500000298023224,
    "dissolveSheathFadeTime": 2.0999999046325684,
    "triggerToStates": [
      {
        "trigger": "Idle",
        "floatID": ""
      },
      {
        "trigger": "Attack",
        "playTime": 0.23000000417232513,
        "states": [
          "Shoot01/Attack01"
        ],
        "bowDrawTimes": [
          {
            "bowDrawEndNormTime": 0.05700000002980232,
            "bowStringOverridePoint": ""
          }
        ],
        "floatID": ""
      },
      {
        "trigger": "Attack",
        "playTime": 0.2800000011920929,
        "states": [
          "Shoot02/Attack02"
        ],
        "bowDrawTimes": [
          {
            "bowDrawStartNormTime": 0.020999999716877937,
            "bowDrawEndNormTime": 0.057999998331069946,
            "bowStringOverridePoint": "PRIVATE_LFinger2"
          }
        ],
        "floatID": ""
      },
      {
        "trigger": "Attack",
        "playTime": 0.6200000047683716,
        "states": [
          "Shoot03/Attack03"
        ],
        "bowDrawTimes": [
          {
            "bowDrawStartNormTime": 0.05299999937415123,
            "bowDrawEndNormTime": 0.06499999761581421,
            "bowStringOverridePoint": "PRIVATE_LFinger2"
          },
          {
            "bowDrawStartNormTime": 0.1469999998807907,
            "bowDrawEndNormTime": 0.18199999630451202,
            "bowStringOverridePoint": "PRIVATE_LFinger2"
          }
        ],
        "floatID": ""
      },
      {
        "trigger": "Attack",
        "playTime": 0.5699999928474426,
        "states": [
          "Shoot04/Attack04"
        ],
        "bowDrawTimes": [
          {
            "bowDrawStartNormTime": 0.0949999988079071,
            "bowDrawEndNormTime": 0.12700000405311584,
            "bowStringOverridePoint": ""
          }
        ],
        "floatID": ""
      },
      {
        "trigger": "AimAttack",
        "playTime": 0.017000000923871994,
        "states": [
          "AimShoot",
          "FastAimShoot"
        ],
        "bowDrawTimes": [
          {
            "bowDrawStartNormTime": 0.5199999809265137,
            "bowStringOverridePoint": ""
          }
        ],
        "floatID": ""
      },
      {
        "trigger": "AimLoop",
        "states": [
          "Aim",
          "FastAim"
        ],
        "bowDrawTimes": [
          {
            "bowStringOverridePoint": ""
          }
        ],
        "floatID": ""
      },
      {
        "trigger": "AimLoop",
        "playTime": 1.3700000047683716,
        "states": [
          "ElementalBurst"
        ],
        "bowDrawTimes": [
          {
            "bowDrawStartNormTime": 0.3109999895095825,
            "bowDrawEndNormTime": 0.843999981880188,
            "bowStringOverridePoint": "CatalystR"
          }
        ],
        "floatID": ""
      }
    ],
    "attachPoints": {
      "equip01": "WeaponR",
      "equip02": "WeaponL",
      "equip03": "WeaponL"
    }
  },
  "abilities": [
    {
      "abilityID": "Avatar_Tighnari_PressShoot",
      "abilityName": "Avatar_Tighnari_PressShoot",
      "abilityOverride": ""
    },
    {
      "abilityID": "Avatar_Tighnari_AimPressShoot",
      "abilityName": "Avatar_Tighnari_AimPressShoot",
      "abilityOverride": ""
    },
    {
      "abilityID": "Avatar_Tighnari_ShootAimingArrow_Charge",
      "abilityName": "Avatar_Tighnari_ShootAimingArrow_Charge",
      "abilityOverride": ""
    },
    {
      "abilityID": "Avatar_Tighnari_ShootArrow_Aiming",
      "abilityName": "Avatar_Tighnari_ShootArrow_Aiming",
      "abilityOverride": ""
    },
    {
      "abilityID": "Avatar_Tighnari_ShootArrow_01",
      "abilityName": "Avatar_Tighnari_ShootArrow_01",
      "abilityOverride": ""
    },
    {
      "abilityID": "Avatar_Tighnari_ShootArrow_02",
      "abilityName": "Avatar_Tighnari_ShootArrow_02",
      "abilityOverride": ""
    },
    {
      "abilityID": "Avatar_Tighnari_ShootArrow_03",
      "abilityName": "Avatar_Tighnari_ShootArrow_03",
      "abilityOverride": ""
    },
    {
      "abilityID": "Avatar_Tighnari_ShootArrow_03_01",
      "abilityName": "Avatar_Tighnari_ShootArrow_03_01",
      "abilityOverride": ""
    },
    {
      "abilityID": "Avatar_Tighnari_ShootArrow_04",
      "abilityName": "Avatar_Tighnari_ShootArrow_04",
      "abilityOverride": ""
    },
    {
      "abilityID": "Avatar_Tighnari_ElementalArt",
      "abilityName": "Avatar_Tighnari_ElementalArt",
      "abilityOverride": ""
    },
    {
      "abilityID": "Avatar_Tighnari_ElementalBurst",
      "abilityName": "Avatar_Tighnari_ElementalBurst",
      "abilityOverride": ""
    },
    {
      "abilityID": "Avatar_Tighnari_FallingAnthem",
      "abilityName": "Avatar_Tighnari_FallingAnthem",
      "abilityOverride": ""
    }
  ],
  "stateLayers": {
    "defaultLayer": {
      "$type": "AEMHOACJLIB",
      "layerIndexName": "",
      "GCIDDLIDFAE": "",
      "stateIDs": {
        "NormalStandby": {
          "$type": "BCNJGNDHFGP",
          "animatorStates": {
            "Standby": [
              "Avatar_ResetFreeStyle"
            ]
          },
          "canDoSkill": true,
          "massRatio": 100.0,
          "setAnimatorBoolean": [
            {
              "name": "&CanUseSkill"
            }
          ],
          "canChangeAvatar": [
            {}
          ],
          "animatorTriggerOnLanded": "",
          "sheatheOnStart": true
        },
        "NormalMove": {
          "$type": "BCNJGNDHFGP",
          "animatorStates": {
            "ShowUp": [
              "Audio_Boy_Showup"
            ],
            "WalkToRun": [
              "Audio_Boy_WalkToRun",
              "Audio_Boy_Foley_Twice_Tighnari"
            ],
            "Walk": [
              "Ani_WalkSprint01",
              "Audio_Boy_Walk",
              "WalkStepOnWater",
              "Audio_Boy_Foley_Walk_Tighnari"
            ],
            "RunToWalk": [
              "Audio_Boy_RunToWalk",
              "Audio_Boy_Foley_Twice_Tighnari"
            ],
            "Run": [
              "Ani_Run01",
              "Audio_Boy_Run",
              "Audio_Boy_Foley_Run_Tighnari"
            ],
            "RunToIdle": [
              "Audio_Boy_RunToIdle",
              "Audio_Boy_Foley_RunToIdle_Tighnari"
            ],
            "WalkToIdle": [
              "Audio_Boy_WalkToIdle"
            ],
            "RunningTurn": [],
            "SprintToRun": [
              "Audio_Boy_SprintToRun",
              "Audio_Boy_Foley_Once_Tighnari"
            ],
            "SprintToIdle": [
              "Audio_Boy_SprintToIdle",
              "Emo_Boy_Sprint_AS",
              "Audio_Boy_Foley_SprintToIdle_Tighnari"
            ],
            "FallOnGround": [
              "Audio_Boy_FallToGround",
              "Audio_Boy_Foley_Twice_Tighnari"
            ],
            "FallOnGroundLit": [
              "Audio_Boy_FallToGround",
              "Audio_Boy_Foley_Once_Tighnari"
            ],
            "FallToGroundRun": [
              "Audio_Boy_FallToGroundRun",
              "Audio_Boy_Foley_Twice_Tighnari"
            ],
            "FallToGroundRunHard": [
              "Audio_Boy_FallToGroundRunHard",
              "Audio_Boy_Foley_Twice_Tighnari"
            ],
            "FallToGroundSprint": [
              "Audio_Boy_FallToGroundSprint",
              "Audio_Boy_Foley_Twice_Tighnari"
            ]
          },
          "canDoSkill": true,
          "massRatio": 1.0,
          "setAnimatorBoolean": [
            {
              "name": "&CanUseSkill"
            }
          ],
          "canChangeAvatar": [
            {}
          ],
          "animatorTriggerOnLanded": "",
          "sheatheOnStart": true
        },
        "Sprint": {
          "$type": "BCNJGNDHFGP",
          "animatorStates": {
            "Sprint": [
              "Ani_WalkSprint01",
              "Audio_Boy_Sprint",
              "Emo_Boy_Sprint_Loop",
              "Audio_Boy_Foley_Twice_Tighnari"
            ]
          },
          "canDoSkill": true,
          "massRatio": 1.0,
          "setAnimatorBoolean": [
            {
              "name": "&CanUseSkill"
            }
          ],
          "canChangeAvatar": [
            {}
          ],
          "animatorTriggerOnLanded": "",
          "sheatheOnStart": true
        },
        "SprintBS": {
          "$type": "BCNJGNDHFGP",
          "animatorStates": {
            "SprintBS": [
              "Audio_Boy_RunToSprint",
              "SprintBS_Invincible",
              "Emo_Boy_Sprint_BS",
              "Audio_Boy_Foley_SprintBS_Tighnari"
            ]
          },
          "canDoSkill": true,
          "resetAnimatorTriggerOnEnter": [
            "DoSkill",
            "AimEnd"
          ],
          "setAnimatorBoolean": [
            {
              "name": "&CanUseSkill",
              "normalizeStart": 0.25999999046325684
            }
          ],
          "canChangeAvatar": [
            {
              "normalizeStart": 0.25999999046325684
            }
          ],
          "animatorTriggerOnLanded": "",
          "sheatheOnStart": true
        },
        "Crouch": {
          "$type": "BCNJGNDHFGP",
          "animatorStates": {
            "CrouchIdle": [],
            "CrouchMove": [
              "Audio_Boy_CrouchMove"
            ],
            "CrouchRoll": [
              "Audio_Boy_CrouchRoll",
              "Audio_Boy_Foley_Once_Tighnari"
            ]
          },
          "canDoSkill": true,
          "massRatio": 1.0,
          "setAnimatorBoolean": [
            {
              "name": "&CanUseSkill"
            }
          ],
          "canChangeAvatar": [
            {}
          ],
          "actionPanelState": "Squat",
          "animatorTriggerOnLanded": "",
          "sheatheOnStart": true
        },
        "CrouchToStandby": {
          "$type": "BCNJGNDHFGP",
          "animatorStates": {
            "CrouchToStandby": [
              "Audio_Boy_CrouchToStandby",
              "Audio_Boy_Foley_Once_Tighnari"
            ]
          },
          "resetAnimatorTriggerOnEnter": [
            "DoSkill"
          ],
          "animatorTriggerOnLanded": "",
          "sheatheOnStart": true
        },
        "SkiffNormal": {
          "$type": "BCNJGNDHFGP",
          "animatorStates": {
            "SkiffNormal": []
          },
          "massRatio": 100.0,
          "resetAnimatorTriggerOnExit": [
            "BeHit",
            "DoSkill",
            "Jump"
          ],
          "animatorTriggerOnLanded": "",
          "sheatheOnStart": true
        },
        "Climb": {
          "$type": "BCNJGNDHFGP",
          "animatorStates": {
            "ClimbMove0": [
              "ClimbStep",
              "Audio_Boy_Climb",
              "Audio_Boy_Foley_ClimbMove_Tighnari"
            ],
            "ClimbMove1": [
              "ClimbStep",
              "Audio_Boy_Climb_1",
              "Audio_Boy_Foley_Twice_Tighnari"
            ],
            "ClimbIdle": [],
            "ClimbJump": [
              "Audio_Boy_ClimbDash",
              "Audio_Boy_Foley_Once_Tighnari"
            ],
            "JumpUpWallForStandby": [
              "Audio_Boy_JumpUpWallStandby",
              "Audio_Boy_Foley_Once_Tighnari"
            ],
            "Standby2ClimbB": [
              "Audio_Boy_Standby2ClimbB",
              "Audio_Boy_Foley_Once_Tighnari"
            ]
          },
          "resetAnimatorTriggerOnEnter": [
            "DoSkill"
          ],
          "actionPanelState": "Climb",
          "animatorTriggerOnLanded": "",
          "sheatheOnStart": true
        },
        "ClimbTransient": {
          "$type": "BCNJGNDHFGP",
          "animatorStates": {
            "JumpWallReady": [],
            "Standby2ClimbA": [
              "Audio_Boy_Standby2ClimbA",
              "Audio_Boy_Foley_Once_Tighnari"
            ]
          },
          "resetAnimatorTriggerOnEnter": [
            "DoSkill"
          ],
          "animatorTriggerOnLanded": "",
          "sheatheOnStart": true
        },
        "Upstairs": {
          "$type": "BCNJGNDHFGP",
          "animatorStates": {
            "Upstairs": [
              "Audio_Boy_Upstairs",
              "Audio_Boy_Foley_Once_Tighnari"
            ]
          },
          "resetAnimatorTriggerOnEnter": [
            "DoSkill"
          ],
          "setAnimatorBoolean": [
            {
              "name": "&CanUseSkill"
            }
          ],
          "animatorTriggerOnLanded": "",
          "sheatheOnStart": true
        },
        "Slip": {
          "$type": "BCNJGNDHFGP",
          "animatorStates": {
            "SlipFaceWall": [
              "Audio_Boy_Foley_SlipFaceWall_Tighnari"
            ],
            "SlipBackWall": [
              "Audio_Boy_Foley_SlipBackWall_Tighnari"
            ]
          },
          "resetAnimatorTriggerOnEnter": [
            "DoSkill"
          ],
          "animatorTriggerOnLanded": "",
          "sheatheOnStart": true
        },
        "Swim": {
          "$type": "BCNJGNDHFGP",
          "animatorStates": {
            "SwimIdle": [
              "Audio_Boy_SwimIdle"
            ],
            "SwimMove": [
              "SwimStep",
              "Audio_Boy_SwimMove"
            ],
            "SwimDash": [
              "Audio_Boy_SwimDash",
              "Avatar_Boy_SwimDash_Hand_Effect"
            ],
            "SwimJumpToWater": [
              "Audio_Boy_SwimJumpToWater"
            ]
          },
          "resetAnimatorTriggerOnEnter": [
            "DoSkill"
          ],
          "actionPanelState": "Swim",
          "animatorTriggerOnLanded": "",
          "sheatheOnStart": true
        },
        "Fly": {
          "$type": "BCNJGNDHFGP",
          "animatorStates": {
            "Fly": [
              "Audio_Boy_Fly_Tighnari"
            ],
            "FlyStart": [
              "Audio_Boy_FlyStart",
              "FlyStart_Weapon",
              "Audio_Boy_Foley_FlyStart_Tighnari"
            ]
          },
          "canDoSkill": true,
          "resetAnimatorTriggerOnEnter": [
            "DoSkill"
          ],
          "setAnimatorBoolean": [
            {
              "name": "&CanUseAirSkill"
            }
          ],
          "actionPanelState": "Fly",
          "animatorTriggerOnLanded": "",
          "sheatheOnStart": true
        },
        "Jump": {
          "$type": "BCNJGNDHFGP",
          "animatorStates": {
            "Jump": [
              "Audio_Boy_Jump",
              "Audio_Boy_Foley_Jump_Tighnari"
            ],
            "JumpForRun": [
              "Audio_Boy_Jump",
              "Audio_Boy_Foley_Once_Tighnari"
            ],
            "JumpForWalk": [
              "Audio_Boy_Jump",
              "Audio_Boy_Foley_Once_Tighnari"
            ],
            "JumpForSprint": [
              "Audio_Boy_Jump",
              "Audio_Boy_Foley_Once_Tighnari"
            ]
          },
          "canDoSkill": true,
          "resetAnimatorTriggerOnEnter": [
            "DoSkill",
            "AimEnd"
          ],
          "setAnimatorBoolean": [
            {
              "name": "&CanUseAirSkill"
            }
          ],
          "actionPanelState": "Jump",
          "animatorTriggerOnLanded": "",
          "sheatheOnStart": true
        },
        "Fall": {
          "$type": "BCNJGNDHFGP",
          "animatorStates": {
            "JumpOffWall": [
              "Audio_Boy_Jump",
              "Audio_Boy_Foley_Once_Tighnari"
            ],
            "SwimJump": [
              "Audio_Boy_SwimJump",
              "Audio_Boy_Foley_Once_Tighnari"
            ],
            "SwimJumpDrop": [
              "Audio_Boy_Foley_ThreeTimes_Tighnari"
            ],
            "DropDown": [
              "Audio_Boy_DropDown",
              "Audio_Boy_Foley_ThreeTimes_Tighnari"
            ],
            "DropDownLit": [],
            "WalkDropDownLit": []
          },
          "canDoSkill": true,
          "resetAnimatorTriggerOnEnter": [
            "DoSkill"
          ],
          "setAnimatorBoolean": [
            {
              "name": "&CanUseAirSkill"
            }
          ],
          "animatorTriggerOnLanded": "",
          "sheatheOnStart": true
        },
        "NormalStandbyWeapon": {
          "$type": "BCNJGNDHFGP",
          "animatorStates": {
            "StandbyWeapon": []
          },
          "canDoSkill": true,
          "massRatio": 100.0,
          "setAnimatorBoolean": [
            {
              "name": "&CanUseSkill"
            }
          ],
          "canChangeAvatar": [
            {}
          ],
          "animatorTriggerOnLanded": "",
          "battouOnStart": true
        },
        "NormalMoveWeapon": {
          "$type": "BCNJGNDHFGP",
          "animatorStates": {
            "WalkToRunWeapon": [
              "Audio_Boy_WalkToRun"
            ],
            "WalkWeapon": [
              "Audio_Boy_Walk",
              "Audio_Boy_Foley_Twice_Tighnari"
            ],
            "RunToWalkWeapon": [
              "Audio_Boy_RunToWalk"
            ],
            "RunWeapon": [
              "Audio_Boy_Run",
              "Audio_Boy_Foley_Twice_Tighnari"
            ],
            "RunToIdleWeapon": [
              "Audio_Boy_Foley_Twice_Tighnari"
            ],
            "WalkToIdleWeapon": [
              "Audio_Boy_Foley_Twice_Tighnari"
            ],
            "RunningTurnWeapon": [],
            "FallOnGroundWeapon": [
              "Audio_Boy_FallToGround"
            ],
            "FallOnGroundLitWeapon": [
              "Audio_Boy_FallToGround"
            ],
            "FallOnGroundMiddleWeapon": [
              "Audio_Boy_FallToGround"
            ],
            "FallToGroundRunWeapon": [
              "Audio_Boy_FallToGroundRun"
            ],
            "FallToGroundRunHardWeapon": [
              "Audio_Boy_FallToGroundRunHard"
            ]
          },
          "canDoSkill": true,
          "massRatio": 2.0,
          "setAnimatorBoolean": [
            {
              "name": "&CanUseSkill"
            }
          ],
          "canChangeAvatar": [
            {}
          ],
          "animatorTriggerOnLanded": "",
          "battouOnStart": true
        },
        "NormalMoveWeaponPutaway": {
          "$type": "BCNJGNDHFGP",
          "animatorStates": {
            "StandbyPutaway": [
              "Boy_Bow_Putaway_Standby",
              "Audio_Boy_Crossbow_StandbyPutAway",
              "Audio_Boy_Foley_Once_Tighnari"
            ],
            "WalkPutaway": [
              "Boy_Sword_Putaway_Walk",
              "Audio_Boy_Sword_WalkPutAway",
              "Audio_Boy_Foley_Twice_Tighnari"
            ],
            "RunPutaway": [
              "Boy_Sword_Putaway_Run",
              "Audio_Boy_Sword_RunPutAway",
              "Audio_Boy_Foley_Twice_Tighnari"
            ],
            "RunToSprintWeapon": [
              "Boy_Sword_Putaway_Sprint",
              "Audio_Boy_Sword_RunToSprintWeapon"
            ]
          },
          "canDoSkill": true,
          "massRatio": 2.0,
          "setAnimatorBoolean": [
            {
              "name": "&CanUseSkill"
            }
          ],
          "canChangeAvatar": [
            {}
          ],
          "animatorTriggerOnLanded": "",
          "battouOnStart": true
        },
        "JumpWeapon": {
          "$type": "BCNJGNDHFGP",
          "animatorStates": {
            "JumpWeapon": [
              "Audio_Boy_Jump",
              "Audio_Boy_Foley_Once_Tighnari"
            ],
            "JumpForRunWeapon": [
              "Audio_Boy_Jump",
              "Audio_Boy_Foley_Once_Tighnari"
            ],
            "JumpForWalkWeapon": [
              "Audio_Boy_Jump",
              "Audio_Boy_Foley_Once_Tighnari"
            ]
          },
          "canDoSkill": true,
          "resetAnimatorTriggerOnEnter": [
            "DoSkill"
          ],
          "setAnimatorBoolean": [
            {
              "name": "&CanUseAirSkill"
            }
          ],
          "canChangeAvatar": [
            {}
          ],
          "actionPanelState": "Jump",
          "animatorTriggerOnLanded": "",
          "battouOnStart": true
        },
        "FallWeapon": {
          "$type": "BCNJGNDHFGP",
          "animatorStates": {
            "DropDownWeapon": [
              "Audio_Boy_Foley_ThreeTimes_Tighnari"
            ],
            "DropDownLitWeapon": [],
            "WalkDropDownLitWeapon": []
          },
          "canDoSkill": true,
          "resetAnimatorTriggerOnEnter": [
            "DoSkill"
          ],
          "setAnimatorBoolean": [
            {
              "name": "&CanUseAirSkill"
            }
          ],
          "animatorTriggerOnLanded": "",
          "battouOnStart": true
        },
        "BeHit": {
          "$type": "BCNJGNDHFGP",
          "animatorStates": {
            "Hit_L": [
              "Audio_Boy_Hit_L",
              "Audio_Boy_Foley_Once_Tighnari"
            ],
            "Hit_H": [
              "Audio_Boy_Hit_H",
              "Audio_Boy_Foley_Once_Tighnari"
            ]
          },
          "onQuit": "combatMove",
          "resetAnimatorTriggerOnEnter": [
            "BeHit",
            "HitAir2HitDrop"
          ],
          "resetAnimatorTriggerOnExit": [
            "DoSkill"
          ],
          "cameraType": "combatBeHit",
          "jumpCancelEnd": 0.0,
          "animatorTriggerOnLanded": "",
          "battouOnStart": true
        },
        "HitThrow": {
          "$type": "BCNJGNDHFGP",
          "animatorStates": {
            "Hit_Throw_Ground": [
              "BeHitAir_Weapon",
              "Audio_Boy_Foley_Hit_Throw_Ground_Tighnari"
            ]
          },
          "onQuit": "combatMove",
          "resetAnimatorTriggerOnEnter": [
            "BeHit",
            "HitAir2HitDrop"
          ],
          "resetAnimatorTriggerOnExit": [
            "DoSkill"
          ],
          "cameraType": "combatBeHit",
          "jumpCancelEnd": 0.0,
          "animatorTriggerOnLanded": "",
          "sheatheOnStart": true
        },
        "BeHitAir": {
          "$type": "BCNJGNDHFGP",
          "animatorStates": {
            "Hit_Throw": [
              "Audio_Boy_Hit_Throw",
              "BeHitAir_Weapon",
              "Audio_Boy_Foley_Twice_Tighnari"
            ],
            "Hit_ThrowAir": [
              "Audio_Boy_DropDown",
              "BeHitAir_Weapon"
            ],
            "Struggle": [
              "BeHitAir_Weapon",
              "Audio_Boy_Foley_ThreeTimes_Tighnari"
            ]
          },
          "onQuit": "combatAir",
          "resetAnimatorTriggerOnEnter": [
            "BeHit"
          ],
          "resetAnimatorTriggerOnExit": [
            "DoSkill"
          ],
          "cameraType": "combatBeHit",
          "actionPanelState": "CombatAir",
          "jumpCancelEnd": 0.0,
          "animatorTriggerOnLanded": "",
          "sheatheOnStart": true
        },
        "Die": {
          "$type": "BCNJGNDHFGP",
          "animatorStates": {
            "DiveDie": [
              "Die",
              "Audio_Boy_Dive_Die"
            ],
            "FallDie": [
              "Audio_Boy_Death"
            ],
            "NormalDie": [
              "Die",
              "Audio_Boy_Death",
              "Audio_Boy_Foley_Once_Tighnari"
            ],
            "SwimDie": [
              "Swim_Die",
              "Audio_Boy_SwimDie"
            ],
            "HitGroundDie": [
              "Die",
              "Audio_Boy_Death"
            ]
          },
          "animatorTriggerOnLanded": ""
        },
        "Die_RagDoll": {
          "$type": "BCNJGNDHFGP",
          "animatorStates": {
            "NormalDie_AS": [],
            "FallDie_AS": []
          },
          "enableRagDoll": true,
          "animatorTriggerOnLanded": ""
        },
        "ShootBS": {
          "$type": "BCNJGNDHFGP",
          "animatorStates": {
            "ShootStandbyBS": [
              "Emo_Avatar_Tighnari_Fight_AimBS"
            ],
            "ShootRunBS": [
              "Emo_Avatar_Tighnari_Fight_AimBS"
            ]
          },
          "onQuit": "combatMove",
          "canDoSkill": true,
          "resetAnimatorTriggerOnExit": [
            "BeHit",
            "DoSkill",
            "Jump",
            "AimEnd"
          ],
          "setAnimatorBoolean": [
            {
              "name": "&CanCancelSkill"
            }
          ],
          "canChangeAvatar": [
            {}
          ],
          "animatorTriggerOnLanded": "",
          "battouOnStart": true
        },
        "Shoot01": {
          "$type": "BCNJGNDHFGP",
          "animatorStates": {
            "Attack01": [
              "Tighnari_Attack01",
              "SetComboCount1",
              "Interaction_Bad",
              "Audio_Boy_Bow_Tighnari_Attack01",
              "Emo_Boy_Bow_Tighnari_NormalAttack01"
            ]
          },
          "onQuit": "combatMove",
          "canDoSkill": true,
          "resetAnimatorTriggerOnExit": [
            "BeHit",
            "DoSkill",
            "Jump"
          ],
          "setAnimatorBoolean": [
            {
              "name": "&CanCancelSkill"
            }
          ],
          "cameraType": "combatNormal",
          "cameraParam": {
            "radiusSpringRatio": 2.0
          },
          "canChangeAvatar": [
            {}
          ],
          "animatorTriggerOnLanded": "",
          "battouOnStart": true
        },
        "Shoot02": {
          "$type": "BCNJGNDHFGP",
          "animatorStates": {
            "Attack02": [
              "Tighnari_Attack02",
              "SetComboCount2",
              "Interaction_Bad",
              "Audio_Boy_Bow_Tighnari_Attack02",
              "Emo_Boy_Bow_Tighnari_NormalAttack02"
            ]
          },
          "onQuit": "combatMove",
          "canDoSkill": true,
          "resetAnimatorTriggerOnExit": [
            "BeHit",
            "DoSkill",
            "Jump"
          ],
          "setAnimatorBoolean": [
            {
              "name": "&CanCancelSkill"
            }
          ],
          "cameraType": "combatNormal",
          "cameraParam": {
            "radiusSpringRatio": 2.0
          },
          "canChangeAvatar": [
            {}
          ],
          "equipReattach": [
            {
              "equip": "equip01",
              "targetPoint": "WeaponR",
              "normalizeStart": 0.020999999716877937,
              "normalizeEnd": 0.6840000152587891
            }
          ],
          "animatorTriggerOnLanded": "",
          "battouOnStart": true
        },
        "Shoot03": {
          "$type": "BCNJGNDHFGP",
          "animatorStates": {
            "Attack03": [
              "Tighnari_Attack03",
              "SetComboCount3",
              "Interaction_Bad",
              "Audio_Boy_Bow_Tighnari_Attack03",
              "Emo_Boy_Bow_Tighnari_NormalAttack03"
            ]
          },
          "onQuit": "combatMove",
          "canDoSkill": true,
          "resetAnimatorTriggerOnExit": [
            "BeHit",
            "DoSkill",
            "Jump"
          ],
          "setAnimatorBoolean": [
            {
              "name": "&CanCancelSkill"
            }
          ],
          "cameraType": "combatNormal",
          "cameraParam": {
            "radiusSpringRatio": 2.0
          },
          "canChangeAvatar": [
            {}
          ],
          "equipReattach": [
            {
              "equip": "equip01",
              "targetPoint": "WeaponR",
              "normalizeEnd": 0.6759999990463257
            }
          ],
          "animatorTriggerOnLanded": "",
          "battouOnStart": true
        },
        "Shoot04": {
          "$type": "BCNJGNDHFGP",
          "animatorStates": {
            "Attack04": [
              "Tighnari_Attack04",
              "SetComboCount4",
              "Interaction_Bad",
              "Audio_Boy_Bow_Tighnari_Attack04",
              "Emo_Boy_Bow_Tighnari_NormalAttack04"
            ]
          },
          "onQuit": "combatMove",
          "canDoSkill": true,
          "resetAnimatorTriggerOnExit": [
            "BeHit",
            "DoSkill",
            "Jump"
          ],
          "setAnimatorBoolean": [
            {
              "name": "&CanCancelSkill"
            }
          ],
          "cameraType": "combatNormal",
          "cameraParam": {
            "radiusSpringRatio": 2.0
          },
          "canChangeAvatar": [
            {}
          ],
          "equipReattach": [
            {
              "equip": "equip01",
              "targetPoint": "WeaponR",
              "normalizeEnd": 0.14100000262260437
            }
          ],
          "animatorTriggerOnLanded": "",
          "battouOnStart": true
        },
        "Aim": {
          "$type": "BCNJGNDHFGP",
          "priority": -2,
          "animatorStates": {
            "AimLoop": [
              "Audio_Girl_Crossbow_Aim_Loop",
              "Emo_Avatar_Tighnari_Fight_Aim"
            ]
          },
          "onQuit": "combatMove",
          "canDoSkill": true,
          "resetAnimatorTriggerOnExit": [
            "BeHit",
            "DoSkill",
            "Jump"
          ],
          "needFaceToAnimParam": true,
          "actionPanelState": "Aim",
          "animatorTriggerOnLanded": "",
          "battouOnStart": true
        },
        "FastAim": {
          "$type": "BCNJGNDHFGP",
          "priority": -2,
          "animatorStates": {
            "FastAimLoop": [
              "Audio_Girl_Crossbow_Aim_Loop",
              "Emo_Avatar_Tighnari_Fight_Aim"
            ]
          },
          "onQuit": "combatMove",
          "canDoSkill": true,
          "resetAnimatorTriggerOnExit": [
            "BeHit",
            "DoSkill",
            "Jump"
          ],
          "needFaceToAnimParam": true,
          "actionPanelState": "FastAim",
          "animatorTriggerOnLanded": "",
          "battouOnStart": true
        },
        "ElementalArt": {
          "$type": "BCNJGNDHFGP",
          "animatorStates": {
            "ElementalArt": [
              "Tighnari_ElementalArt",
              "Interaction_Bad",
              "Audio_Boy_Bow_Tighnari_ElementalArt",
              "Emo_Boy_Bow_Tighnari_ElementalArt"
            ]
          },
          "onQuit": "combatMove",
          "addEndure": 0.6000000238418579,
          "resetAnimatorTriggerOnExit": [
            "BeHit",
            "DoSkill",
            "Jump"
          ],
          "cameraType": "combatNormal",
          "cameraParam": {
            "radiusSpringRatio": 10.0
          },
          "jumpCancelEnd": -1.0,
          "sprintCancelEnd": -1.0,
          "animatorTriggerOnLanded": "",
          "sheatheOnStart": true
        },
        "ElementalArt_AS": {
          "$type": "BCNJGNDHFGP",
          "animatorStates": {
            "ElementalArt_AS": [
              "Tighnari_ElementalArt_AS",
              "Audio_Boy_Bow_Tighnari_ElementalArt_AS",
              "Emo_Boy_Bow_Tighnari_ElementalArt_AS"
            ]
          },
          "onQuit": "combatMove",
          "canDoSkill": true,
          "resetAnimatorTriggerOnExit": [
            "BeHit",
            "DoSkill",
            "Jump"
          ],
          "setAnimatorBoolean": [
            {
              "name": "&CanCancelSkill"
            },
            {
              "name": "&CanUseSkill"
            }
          ],
          "cameraType": "combatNormal",
          "cameraParam": {
            "radiusSpringRatio": 10.0
          },
          "canChangeAvatar": [
            {}
          ],
          "animatorTriggerOnLanded": "",
          "battouOnStart": true,
          "battouOnStartNormalizedTime": 0.8999999761581421
        },
        "ElementalBurst": {
          "$type": "BCNJGNDHFGP",
          "animatorStates": {
            "ElementalBurst": [
              "Tighnari_ElementalBurst",
              "Interaction_Bad",
              "Audio_Boy_Bow_Tighnari_ElementalBurst"
            ]
          },
          "onQuit": "combatMove",
          "addEndure": 0.0,
          "resetAnimatorTriggerOnExit": [
            "BeHit"
          ],
          "cameraType": "combatNormal",
          "jumpCancelStart": 1.0,
          "jumpCancelEnd": -1.0,
          "sprintCancelStart": 1.0,
          "sprintCancelEnd": -1.0,
          "animatorTriggerOnLanded": "",
          "battouOnStart": true
        },
        "ElementalBurst_AS": {
          "$type": "BCNJGNDHFGP",
          "animatorStates": {
            "ElementalBurst_AS": [
              "Audio_Boy_Bow_Tighnari_ElementalBurst_AS"
            ]
          },
          "onQuit": "combatMove",
          "canDoSkill": true,
          "resetAnimatorTriggerOnExit": [
            "BeHit",
            "DoSkill",
            "Jump"
          ],
          "setAnimatorBoolean": [
            {
              "name": "&CanUseSkill"
            },
            {
              "name": "&CanCancelSkill"
            }
          ],
          "cameraType": "combatNormal",
          "canChangeAvatar": [
            {}
          ],
          "animatorTriggerOnLanded": ""
        },
        "FallingAnthem_BS": {
          "$type": "BCNJGNDHFGP",
          "animatorStates": {
            "FallingAnthem_BS_1": [
              "Audio_Boy_Bow_Tighnari_FallingAnthem_BS_1"
            ],
            "FallingAnthem_BS_2": []
          },
          "onQuit": "combatAir",
          "addEndure": 0.0,
          "resetAnimatorTriggerOnExit": [
            "BeHit",
            "DoSkill",
            "Jump"
          ],
          "cameraType": "combatNormal",
          "actionPanelState": "Fly",
          "equipReattach": [
            {
              "equip": "equip01",
              "targetPoint": "WeaponR2"
            }
          ],
          "jumpCancelEnd": -1.0,
          "animatorTriggerOnLanded": "HitAir2HitDrop",
          "battouOnStart": true
        },
        "FallingAnthem_Loop": {
          "$type": "BCNJGNDHFGP",
          "animatorStates": {
            "FallingAnthem_Loop": [],
            "FallingAnthem_Loop_Low": []
          },
          "onQuit": "combatAir",
          "addEndure": 0.0,
          "resetAnimatorTriggerOnExit": [
            "BeHit",
            "DoSkill",
            "Jump"
          ],
          "actionPanelState": "Fly",
          "equipReattach": [
            {
              "equip": "equip01",
              "targetPoint": "WeaponR2"
            }
          ],
          "animatorTriggerOnLanded": "HitAir2HitDrop",
          "battouOnStart": true
        },
        "FallingAnthem_AS_1": {
          "$type": "BCNJGNDHFGP",
          "animatorStates": {
            "FallingAnthem_AS_1": [
              "Tighnari_FallingAnthem_Strike",
              "Audio_Boy_Bow_Tighnari_FallingAnthem_AS_1"
            ]
          },
          "onQuit": "combatMove",
          "canDoSkill": true,
          "resetAnimatorTriggerOnExit": [
            "BeHit",
            "DoSkill",
            "Jump"
          ],
          "setAnimatorBoolean": [
            {
              "name": "&CanUseSkill",
              "normalizeStart": 0.8999999761581421
            }
          ],
          "equipReattach": [
            {
              "equip": "equip01",
              "targetPoint": "WeaponR2"
            }
          ],
          "jumpCancelEnd": -1.0,
          "animatorTriggerOnLanded": "",
          "battouOnStart": true
        },
        "FallingAnthem_AS_2": {
          "$type": "BCNJGNDHFGP",
          "animatorStates": {
            "FallingAnthem_AS_2": [
              "Audio_Boy_Bow_Tighnari_FallingAnthem_AS_2"
            ]
          },
          "onQuit": "combatMove",
          "canDoSkill": true,
          "resetAnimatorTriggerOnExit": [
            "BeHit",
            "DoSkill",
            "Jump"
          ],
          "setAnimatorBoolean": [
            {
              "name": "&CanUseSkill"
            }
          ],
          "canChangeAvatar": [
            {}
          ],
          "equipReattach": [
            {
              "equip": "equip01",
              "targetPoint": "WeaponR2"
            }
          ],
          "jumpCancelStart": 0.10000000149011612,
          "animatorTriggerOnLanded": "",
          "battouOnStart": true
        },
        "Sit": {
          "$type": "BCNJGNDHFGP",
          "animatorStates": {
            "SitDown": [
              "Audio_Girl_SitDown",
              "Audio_Boy_Sit_Tighnari"
            ],
            "SitLoop": [],
            "SitUp": [
              "Audio_Girl_SitDown",
              "Audio_Boy_Sit_Tighnari"
            ]
          },
          "onQuit": "performMove",
          "massRatio": 100.0,
          "actionPanelState": "Perform",
          "animatorTriggerOnLanded": "",
          "sheatheOnStart": true
        },
        "SitB": {
          "$type": "BCNJGNDHFGP",
          "animatorStates": {
            "SitBDown": [
              "Audio_Girl_SitDown",
              "Audio_Boy_Sit_Tighnari"
            ],
            "SitBLoop": [],
            "SitBUp": [
              "Audio_Girl_SitDown",
              "Audio_Boy_Sit_Tighnari"
            ]
          },
          "onQuit": "performMove",
          "massRatio": 100.0,
          "actionPanelState": "Perform",
          "animatorTriggerOnLanded": "",
          "sheatheOnStart": true
        },
        "StandbyShow": {
          "$type": "BCNJGNDHFGP",
          "animatorStates": {
            "StandbyVoice": [
              "Audio_Boy_StandbyVoice"
            ],
            "StandbyShow_01": [
              "Manekin_Tighnari_Show01",
              "Audio_Boy_Tighnari_StandbyShow_01_SFX"
            ],
            "StandbyShow_02": [
              "Manekin_Tighnari_Show02",
              "Audio_Boy_Tighnari_StandbyShow_02_SFX"
            ]
          },
          "onQuit": "performMove",
          "canDoSkill": true,
          "massRatio": 100.0,
          "setAnimatorBoolean": [
            {
              "name": "&CanUseSkill"
            }
          ],
          "canChangeAvatar": [
            {}
          ],
          "animatorTriggerOnLanded": "",
          "sheatheOnStart": true
        },
        "TakePhotos": {
          "$type": "BCNJGNDHFGP",
          "animatorStates": {
            "Think01BS": [],
            "Akimbo02BS": [],
            "Think01Loop": [],
            "Akimbo02Loop": [],
            "Think01AS": [],
            "Akimbo02AS": []
          },
          "animatorTriggerOnLanded": ""
        },
        "Channel_BS": {
          "$type": "BCNJGNDHFGP",
          "animatorStates": {
            "ChannelBS": [
              "Emo_Avatar_Common_Manekin_Default"
            ]
          },
          "onQuit": "combatMove",
          "canDoSkill": true,
          "massRatio": 100.0,
          "resetAnimatorTriggerOnExit": [
            "BeHit",
            "DoSkill",
            "Jump"
          ],
          "setAnimatorBoolean": [
            {
              "name": "&CanUseSkill"
            }
          ],
          "canChangeAvatar": [
            {}
          ],
          "animatorTriggerOnLanded": "",
          "sheatheOnStart": true
        },
        "Channel_Loop": {
          "$type": "BCNJGNDHFGP",
          "animatorStates": {
            "ChannelLoop": []
          },
          "onQuit": "combatMove",
          "canDoSkill": true,
          "massRatio": 100.0,
          "resetAnimatorTriggerOnExit": [
            "BeHit",
            "DoSkill",
            "Jump"
          ],
          "setAnimatorBoolean": [
            {
              "name": "&CanUseSkill"
            }
          ],
          "canChangeAvatar": [
            {}
          ],
          "animatorTriggerOnLanded": "",
          "sheatheOnStart": true
        },
        "Channel_AS": {
          "$type": "BCNJGNDHFGP",
          "animatorStates": {
            "ChannelAS": []
          },
          "onQuit": "combatMove",
          "canDoSkill": true,
          "massRatio": 100.0,
          "resetAnimatorTriggerOnExit": [
            "BeHit",
            "DoSkill",
            "Jump"
          ],
          "setAnimatorBoolean": [
            {
              "name": "&CanUseSkill"
            }
          ],
          "canChangeAvatar": [
            {}
          ],
          "animatorTriggerOnLanded": "",
          "sheatheOnStart": true
        },
        "PlayMusic_Lyre": {
          "$type": "BCNJGNDHFGP",
          "animatorStates": {
            "PlayMusic_Lyre_BS": [
              "PlayMusic_Lyre_Boy"
            ],
            "PlayMusic_Lyre_Loop": []
          },
          "onQuit": "combatMove",
          "massRatio": 100.0,
          "resetAnimatorTriggerOnExit": [
            "BeHit",
            "DoSkill",
            "Jump"
          ],
          "animatorTriggerOnLanded": "",
          "sheatheOnStart": true
        },
        "PlayMusic_Lyre_AS": {
          "$type": "BCNJGNDHFGP",
          "animatorStates": {
            "PlayMusic_Lyre_AS": [
              "PlayMusic_Lyre_Boy_AS"
            ]
          },
          "onQuit": "combatMove",
          "canDoSkill": true,
          "massRatio": 100.0,
          "resetAnimatorTriggerOnExit": [
            "BeHit",
            "DoSkill",
            "Jump"
          ],
          "setAnimatorBoolean": [
            {
              "name": "&CanUseSkill"
            }
          ],
          "canChangeAvatar": [
            {}
          ],
          "animatorTriggerOnLanded": "",
          "sheatheOnStart": true
        },
        "PlayMusic_Qin": {
          "$type": "BCNJGNDHFGP",
          "animatorStates": {
            "PlayMusic_Qin_BS": [
              "PlayMusic_Qin_Boy"
            ],
            "PlayMusic_Qin_Loop": []
          },
          "onQuit": "combatMove",
          "massRatio": 100.0,
          "resetAnimatorTriggerOnExit": [
            "BeHit",
            "DoSkill",
            "Jump"
          ],
          "animatorTriggerOnLanded": "",
          "sheatheOnStart": true
        },
        "PlayMusic_Qin_AS": {
          "$type": "BCNJGNDHFGP",
          "animatorStates": {
            "PlayMusic_Qin_AS": [
              "PlayMusic_Qin_Boy_AS"
            ]
          },
          "onQuit": "combatMove",
          "canDoSkill": true,
          "massRatio": 100.0,
          "resetAnimatorTriggerOnExit": [
            "BeHit",
            "DoSkill",
            "Jump"
          ],
          "setAnimatorBoolean": [
            {
              "name": "&CanUseSkill"
            }
          ],
          "canChangeAvatar": [
            {}
          ],
          "animatorTriggerOnLanded": "",
          "sheatheOnStart": true
        },
        "PlayMusic_Drum": {
          "$type": "BCNJGNDHFGP",
          "animatorStates": {
            "PlayMusic_Drum_BS": [
              "PlayMusic_Drum_Boy"
            ],
            "PlayMusic_Drum_Loop": []
          },
          "onQuit": "combatMove",
          "massRatio": 100.0,
          "resetAnimatorTriggerOnExit": [
            "BeHit",
            "DoSkill",
            "Jump"
          ],
          "animatorTriggerOnLanded": "",
          "sheatheOnStart": true
        },
        "PlayMusic_Drum_AS": {
          "$type": "BCNJGNDHFGP",
          "animatorStates": {
            "PlayMusic_Drum_AS": [
              "PlayMusic_Drum_Boy_AS"
            ]
          },
          "onQuit": "combatMove",
          "canDoSkill": true,
          "massRatio": 100.0,
          "resetAnimatorTriggerOnExit": [
            "BeHit",
            "DoSkill",
            "Jump"
          ],
          "setAnimatorBoolean": [
            {
              "name": "&CanUseSkill"
            }
          ],
          "canChangeAvatar": [
            {}
          ],
          "animatorTriggerOnLanded": "",
          "sheatheOnStart": true
        },
        "PlayMusic_FrenchHorn": {
          "$type": "BCNJGNDHFGP",
          "animatorStates": {
            "PlayMusic_FrenchHorn_BS": [
              "PlayMusic_Frenchhorn_Boy"
            ],
            "PlayMusic_FrenchHorn_Loop": [
              "PlayMusic_Frenchhorn_Boy_Loop"
            ]
          },
          "onQuit": "combatMove",
          "massRatio": 100.0,
          "resetAnimatorTriggerOnExit": [
            "BeHit",
            "DoSkill",
            "Jump"
          ],
          "animatorTriggerOnLanded": "",
          "sheatheOnStart": true
        },
        "PlayMusic_FrenchHorn_AS": {
          "$type": "BCNJGNDHFGP",
          "animatorStates": {
            "PlayMusic_FrenchHorn_AS": [
              "PlayMusic_Frenchhorn_Boy_AS"
            ]
          },
          "onQuit": "combatMove",
          "canDoSkill": true,
          "massRatio": 100.0,
          "resetAnimatorTriggerOnExit": [
            "BeHit",
            "DoSkill",
            "Jump"
          ],
          "setAnimatorBoolean": [
            {
              "name": "&CanUseSkill"
            }
          ],
          "canChangeAvatar": [
            {}
          ],
          "animatorTriggerOnLanded": "",
          "sheatheOnStart": true
        },
        "ActivitySkill_ElectricCoreFly": {
          "$type": "BCNJGNDHFGP",
          "animatorStates": {
            "ActivitySkill_ElectricCoreFly": []
          },
          "onQuit": "combatAir",
          "massRatio": 100.0,
          "resetAnimatorTriggerOnEnter": [
            "ElectricCoreFly_End"
          ],
          "resetAnimatorTriggerOnExit": [
            "BeHit",
            "DoSkill",
            "Jump",
            "ElectricCoreFly_End"
          ],
          "animatorTriggerOnLanded": "",
          "sheatheOnStart": true
        },
        "ActivitySkill_GrapplingHook": {
          "$type": "BCNJGNDHFGP",
          "animatorStates": {
            "ActivitySkill_GrapplingHook": []
          },
          "onQuit": "combatAir",
          "massRatio": 100.0,
          "resetAnimatorTriggerOnEnter": [
            "GrapplingHook_Drop"
          ],
          "resetAnimatorTriggerOnExit": [
            "BeHit",
            "DoSkill",
            "Jump",
            "GrapplingHook_Drop"
          ],
          "animatorTriggerOnLanded": "",
          "sheatheOnStart": true
        },
        "ActivitySkill_CustomSkill01": {
          "$type": "BCNJGNDHFGP",
          "animatorStates": {
            "ActivitySkill_CustomSkill01": []
          },
          "onQuit": "combatAir",
          "canDoSkill": true,
          "massRatio": 100.0,
          "resetAnimatorTriggerOnEnter": [
            "CustomSkill_End_Fly",
            "CustomSkill_End_Drop"
          ],
          "resetAnimatorTriggerOnExit": [
            "BeHit",
            "DoSkill",
            "Jump",
            "CustomSkill_End_Fly",
            "CustomSkill_End_Drop"
          ],
          "animatorTriggerOnLanded": "",
          "sheatheOnStart": true
        },
        "ActivitySkill_CustomSkill02": {
          "$type": "BCNJGNDHFGP",
          "animatorStates": {
            "ActivitySkill_CustomSkill02": []
          },
          "onQuit": "combatAir",
          "canDoSkill": true,
          "massRatio": 100.0,
          "resetAnimatorTriggerOnEnter": [
            "CustomSkill_End_Fly",
            "CustomSkill_End_Drop"
          ],
          "resetAnimatorTriggerOnExit": [
            "BeHit",
            "DoSkill",
            "Jump",
            "CustomSkill_End_Fly",
            "CustomSkill_End_Drop"
          ],
          "animatorTriggerOnLanded": "",
          "sheatheOnStart": true
        },
        "ActivitySkill_CommonMove": {
          "$type": "BCNJGNDHFGP",
          "animatorStates": {
            "ActivitySkill_CommonMove": []
          },
          "addEndure": 0.0,
          "massRatio": 100.0,
          "resetAnimatorTriggerOnExit": [
            "BeHit",
            "DoSkill",
            "Jump"
          ],
          "handleAnimatorStateImmediately": true,
          "jumpCancelStart": -1.0,
          "sprintCancelStart": -1.0,
          "animatorTriggerOnLanded": "",
          "sheatheOnStart": true
        },
        "DiveChannel_BS": {
          "$type": "BCNJGNDHFGP",
          "animatorStates": {
            "DiveChannelBS": [
              "Emo_Avatar_Common_Manekin_Default",
              "Audio_Boy_DiveChannel_BS"
            ]
          },
          "onQuit": "combatDive",
          "massRatio": 100.0,
          "resetAnimatorTriggerOnExit": [
            "BeHit",
            "DoSkill",
            "Jump"
          ],
          "setAnimatorBoolean": [
            {
              "name": "&CanUseSkill"
            }
          ],
          "canChangeAvatar": [
            {}
          ],
          "actionPanelState": "Dive",
          "sprintCancelEnd": -1.0,
          "animatorTriggerOnLanded": "",
          "sheatheOnStart": true
        },
        "DiveChannel_Loop": {
          "$type": "BCNJGNDHFGP",
          "animatorStates": {
            "DiveChannelLoop": []
          },
          "onQuit": "combatDive",
          "massRatio": 100.0,
          "resetAnimatorTriggerOnExit": [
            "BeHit",
            "DoSkill",
            "Jump"
          ],
          "setAnimatorBoolean": [
            {
              "name": "&CanUseSkill"
            }
          ],
          "canChangeAvatar": [
            {}
          ],
          "actionPanelState": "Dive",
          "sprintCancelEnd": -1.0,
          "animatorTriggerOnLanded": "",
          "sheatheOnStart": true
        },
        "DiveChannel_AS": {
          "$type": "BCNJGNDHFGP",
          "animatorStates": {
            "DiveChannelAS": [
              "Audio_Boy_DiveChannel_AS"
            ]
          },
          "onQuit": "combatDive",
          "canDoSkill": true,
          "canDoSkillStart": 0.30000001192092896,
          "massRatio": 100.0,
          "resetAnimatorTriggerOnExit": [
            "BeHit",
            "DoSkill",
            "Jump"
          ],
          "setAnimatorBoolean": [
            {
              "name": "&CanUseSkill"
            }
          ],
          "canChangeAvatar": [
            {}
          ],
          "actionPanelState": "Dive",
          "sprintCancelStart": 0.11999999731779099,
          "animatorTriggerOnLanded": "",
          "sheatheOnStart": true
        },
        "DiveCast_BS": {
          "$type": "BCNJGNDHFGP",
          "animatorStates": {
            "DiveCast_BS": [
              "Emo_Avatar_Common_Manekin_Default",
              "Audio_Boy_DiveCast_BS"
            ]
          },
          "onQuit": "combatDive",
          "massRatio": 100.0,
          "resetAnimatorTriggerOnExit": [
            "BeHit",
            "DoSkill",
            "Jump"
          ],
          "setAnimatorBoolean": [
            {
              "name": "&CanUseSkill"
            }
          ],
          "canChangeAvatar": [
            {}
          ],
          "actionPanelState": "Dive",
          "sprintCancelEnd": -1.0,
          "animatorTriggerOnLanded": "",
          "sheatheOnStart": true
        },
        "DiveCast_Loop": {
          "$type": "BCNJGNDHFGP",
          "animatorStates": {
            "DiveCast_Loop": []
          },
          "onQuit": "combatDive",
          "massRatio": 100.0,
          "resetAnimatorTriggerOnExit": [
            "BeHit",
            "DoSkill",
            "Jump"
          ],
          "setAnimatorBoolean": [
            {
              "name": "&CanUseSkill"
            }
          ],
          "canChangeAvatar": [
            {}
          ],
          "actionPanelState": "Dive",
          "sprintCancelEnd": -1.0,
          "animatorTriggerOnLanded": "",
          "sheatheOnStart": true
        },
        "DiveCast_AS": {
          "$type": "BCNJGNDHFGP",
          "animatorStates": {
            "DiveCast_AS": [
              "Audio_Boy_DiveCast_AS"
            ]
          },
          "onQuit": "combatDive",
          "canDoSkill": true,
          "canDoSkillStart": 0.10000000149011612,
          "massRatio": 100.0,
          "resetAnimatorTriggerOnExit": [
            "BeHit",
            "DoSkill",
            "Jump"
          ],
          "setAnimatorBoolean": [
            {
              "name": "&CanUseSkill"
            }
          ],
          "canChangeAvatar": [
            {}
          ],
          "actionPanelState": "Dive",
          "sprintCancelStart": 0.09000000357627869,
          "animatorTriggerOnLanded": "",
          "sheatheOnStart": true
        },
        "Dive": {
          "$type": "BCNJGNDHFGP",
          "animatorStates": {
            "DiveIdle": [],
            "DiveMoveBS": [
              "Audio_Boy_Dive_MoveBS"
            ],
            "DiveMoveAS": [
              "Audio_Boy_Dive_MoveAS"
            ],
            "DiveMoveU_A": [
              "Audio_Boy_Dive_MoveU_A"
            ],
            "DiveMoveU_B": [
              "Audio_Boy_Dive_MoveU_B"
            ],
            "DiveMoveF_A": [],
            "DiveMoveF_B": [
              "Audio_Boy_Dive_MoveF_B"
            ],
            "DiveMoveD_A": [
              "Audio_Boy_Dive_MoveD_A"
            ],
            "DiveMoveD_B": [
              "Audio_Boy_Dive_MoveD_B"
            ],
            "DiveTurn": [
              "Audio_Boy_Dive_Turn"
            ],
            "DiveTurnAS": [
              "Audio_Boy_Dive_Turn_AS"
            ],
            "DiveTurn2": [
              "Audio_Boy_Dive_Turn"
            ],
            "DiveTurnAS2": [
              "Audio_Boy_Dive_Turn_AS"
            ],
            "DiveDashBS": [
              "Audio_Boy_Dive_Dash_BS"
            ],
            "DiveDashAS": [
              "Audio_Boy_Dive_Dash_AS"
            ],
            "DiveDash": [],
            "DiveDashB": [
              "Audio_Boy_Dive_Out_DashB"
            ],
            "DiveSuperDash": [
              "Audio_Boy_Dive_SuperDash"
            ],
            "DiveSuperDash2": [
              "Audio_Boy_Dive_SuperDash2"
            ]
          },
          "canDoSkill": true,
          "resetAnimatorTriggerOnEnter": [
            "DoSkill"
          ],
          "setAnimatorBoolean": [
            {
              "name": "&CanUseSkill"
            }
          ],
          "canChangeAvatar": [
            {}
          ],
          "actionPanelState": "Dive",
          "animatorTriggerOnLanded": "",
          "sheatheOnStart": true
        },
        "Dive_In_Out": {
          "$type": "BCNJGNDHFGP",
          "animatorStates": {
            "Dive_In_Up": [
              "Audio_Boy_Dive_In_Up"
            ],
            "Dive_In_Side": [
              "Audio_Boy_Dive_In_Side"
            ],
            "Dive_In_Bottom": [
              "Audio_Boy_Dive_In_Bottom"
            ],
            "Dive_Out_Side": [
              "Audio_Boy_Dive_Out_Side"
            ],
            "Dive_Out_Bottom": [
              "Audio_Boy_Dive_Out_Bottom"
            ],
            "Dive_Out_Up": [
              "Audio_Boy_Dive_Out_Up"
            ]
          },
          "resetAnimatorTriggerOnEnter": [
            "DoSkill"
          ],
          "setAnimatorBoolean": [
            {
              "name": "&CanUseSkill"
            }
          ],
          "actionPanelState": "Dive",
          "animatorTriggerOnLanded": "",
          "sheatheOnStart": true
        },
        "DiveStream": {
          "$type": "BCNJGNDHFGP",
          "animatorStates": {
            "DiveStreamIn": [
              "Audio_Boy_Dive_Stream_In"
            ],
            "DiveStreamOut": [
              "Audio_Boy_Dive_Stream_Out"
            ],
            "DiveStream": [],
            "DiveStreamRoll_L": [
              "Audio_Boy_Dive_Stream_Roll_L"
            ],
            "DiveStreamRoll_R": [
              "Audio_Boy_Dive_Stream_Roll_R"
            ]
          },
          "canDoSkill": true,
          "resetAnimatorTriggerOnEnter": [
            "DoSkill"
          ],
          "setAnimatorBoolean": [
            {
              "name": "&CanUseSkill"
            }
          ],
          "actionPanelState": "Dive",
          "animatorTriggerOnLanded": "",
          "sheatheOnStart": true
        },
        "DiveJump": {
          "$type": "BCNJGNDHFGP",
          "animatorStates": {
            "Dive_Out_DashU": [
              "Audio_Boy_Dive_Out_DashU"
            ],
            "Dive_Out_DashD": [
              "Audio_Boy_Dive_Out_DashD"
            ],
            "Dive_Out_DashFBS": [
              "Audio_Boy_Dive_Out_DashFBS"
            ],
            "Dive_Out_DashFAS": [
              "Audio_Boy_Dive_Out_DashFAS"
            ],
            "Dive_Out_DashFLoop": []
          },
          "canDoSkill": true,
          "resetAnimatorTriggerOnEnter": [
            "DoSkill",
            "AimEnd"
          ],
          "setAnimatorBoolean": [
            {
              "name": "&CanUseAirSkill"
            }
          ],
          "actionPanelState": "Jump",
          "animatorTriggerOnLanded": "",
          "sheatheOnStart": true
        },
        "BeHitDive": {
          "$type": "BCNJGNDHFGP",
          "animatorStates": {
            "BeHitDive": [
              "Audio_Boy_Dive_beHit"
            ],
            "DiveStruggle": []
          },
          "onQuit": "combatDive",
          "resetAnimatorTriggerOnEnter": [
            "BeHit"
          ],
          "resetAnimatorTriggerOnExit": [
            "DoSkill"
          ],
          "cameraType": "combatBeHit",
          "actionPanelState": "Dive",
          "jumpCancelEnd": 0.0,
          "animatorTriggerOnLanded": "",
          "sheatheOnStart": true
        },
        "MultiOverride_01": {
          "$type": "BCNJGNDHFGP",
          "animatorStates": {
            "MultiOverrideBS_01": [],
            "MultiOverrideLoop_01": [],
            "MultiOverrideAS_01": []
          },
          "animatorTriggerOnLanded": ""
        },
        "MultiOverride2": {
          "$type": "BCNJGNDHFGP",
          "animatorStates": {
            "MultiOverrideBS_02": [],
            "MultiOverrideLoop_02": [],
            "MultiOverrideAS_02": []
          },
          "animatorTriggerOnLanded": ""
        },
        "MultiOverride3": {
          "$type": "BCNJGNDHFGP",
          "animatorStates": {
            "MultiOverrideBS_03": [],
            "MultiOverrideLoop_03": [],
            "MultiOverrideAS_03": []
          },
          "animatorTriggerOnLanded": ""
        },
        "MultiOverride": {
          "$type": "BCNJGNDHFGP",
          "DAJBEEPCPBH": {
            "Ani_Avatar_Boy_Bow_Tighnari_Photo01BS": [],
            "Ani_Avatar_Boy_Bow_Tighnari_Photo01Loop": [],
            "Ani_Avatar_Boy_Bow_Tighnari_Photo01AS": [],
            "Ani_Avatar_Boy_Bow_Tighnari_Photo02BS": [],
            "Ani_Avatar_Boy_Bow_Tighnari_Photo02Loop": [],
            "Ani_Avatar_Boy_Bow_Tighnari_Photo02AS": []
          },
          "animatorTriggerOnLanded": ""
        }
      }
    },
    "aimShootLayer": {
      "$type": "AEMHOACJLIB",
      "layerIndex": 6,
      "layerIndexName": "AimShootLayer",
      "GCIDDLIDFAE": "",
      "stateIDs": {
        "AimShoot": {
          "$type": "BCNJGNDHFGP",
          "priority": -1,
          "animatorStates": {
            "AimShoot": [
              "Tighnari_AimShoot",
              "Audio_Boy_Bow_Tighnari_AimShoot"
            ]
          },
          "onQuit": "combatMove",
          "canDoSkill": true,
          "resetAnimatorTriggerOnExit": [
            "BeHit",
            "DoSkill",
            "Jump"
          ],
          "needFaceToAnimParam": true,
          "actionPanelState": "Aim",
          "animatorTriggerOnLanded": "",
          "battouOnStart": true
        },
        "FastAimShoot": {
          "$type": "BCNJGNDHFGP",
          "priority": -1,
          "animatorStates": {
            "FastAimShoot": [
              "Tighnari_AimShoot",
              "Audio_Boy_Bow_Tighnari_FastAimShoot"
            ]
          },
          "onQuit": "combatMove",
          "canDoSkill": true,
          "resetAnimatorTriggerOnExit": [
            "BeHit",
            "DoSkill",
            "Jump"
          ],
          "needFaceToAnimParam": true,
          "actionPanelState": "FastAim",
          "animatorTriggerOnLanded": "",
          "battouOnStart": true
        }
      }
    },
    "diveLayer": {
      "$type": "AEMHOACJLIB",
      "layerIndex": 7,
      "layerIndexName": "DiveLayer",
      "GCIDDLIDFAE": ""
    }
  },
  "shootConfig": {
    "normalShoot": {
      "bulletBornAttachPoint": "WeaponL",
      "detectRangeFromViewport": 100.0,
      "autoFocusMinRange": 2.0,
      "autoFocusMaxRange": 7.0
    },
    "aimingShoot": {
      "bulletBornAttachPoint": "FocusAnchor",
      "detectRangeFromViewport": 100.0,
      "detectRadiusFromViewport": 0.15000000596046448,
      "autoFocusMinRange": 2.0,
      "autoFocusMaxRange": 25.0
    }
  },
  "audio": {
    "overrideEmitterName": "",
    "animAudio": {
      "onTransitionIn": [
        {
          "currentStateName": "AimLoop",
          "audioEvent": {
            "text": "Play_sfx_weapon_bow_aimFocus"
          }
        },
        {
          "currentStateName": "FastAimLoop",
          "audioEvent": {
            "text": "Play_sfx_weapon_bow_aimFocus"
          }
        },
        {
          "currentStateName": "SlipFaceWall",
          "audioEvent": {
            "text": "Play_sfx_char_slipWall"
          }
        },
        {
          "currentStateName": "SlipBackWall",
          "audioEvent": {
            "text": "Play_sfx_char_slipWall"
          }
        },
        {
          "currentStateName": "NormalDie",
          "audioEvent": {
            "text": "Play_sfx_char_land"
          },
          "otherStateNames": [
            "FallOnGround"
          ],
          "usage": "InSet"
        },
        {
          "currentStateName": "SwimJumpToWater",
          "audioEvent": {
            "text": "Stop_sfx_char_swim_dive"
          }
        },
        {
          "currentStateName": "SwimDash",
          "audioEvent": {
            "text": "Play_sfx_char_swim_dash"
          }
        },
        {
          "currentStateName": "Standby",
          "audioEvent": {
            "text": "Stop_sfx_char_fly"
          }
        },
        {
          "currentStateName": "DiveDash",
          "audioEvent": {
            "text": "Play_sfx_char_dive_dash_lp"
          },
          "otherStateNames": [
            "DiveDashBS"
          ],
          "usage": "InSet"
        },
        {
          "currentStateName": "DiveStream",
          "audioEvent": {
            "text": "Play_sfx_char_dive_stream_lp"
          }
        },
        {
          "currentStateName": "Dive_Out_DashFLoop",
          "audioEvent": {
            "text": "Play_sfx_char_dive_out_dashFLoop"
          }
        },
        {
          "currentStateName": "DiveMoveF_A",
          "audioEvent": {
            "text": "Play_sfx_char_dive_moveF_A"
          }
        },
        {
          "currentStateName": "DiveChannel_Loop",
          "audioEvent": {
            "text": "Play_vfx_Avatar_Diving_Channel_LP"
          }
        }
      ],
      "onTransitionOut": [
        {
          "currentStateName": "Attack01",
          "audioEvent": {
            "text": "Stop_sfx_char_tighnari_bow_attack"
          }
        },
        {
          "currentStateName": "Attack02",
          "audioEvent": {
            "text": "Stop_sfx_char_tighnari_bow_attack"
          }
        },
        {
          "currentStateName": "Attack03",
          "audioEvent": {
            "text": "Stop_sfx_char_tighnari_bow_attack"
          }
        },
        {
          "currentStateName": "Attack04",
          "audioEvent": {
            "text": "Stop_sfx_char_tighnari_bow_attack"
          }
        },
        {
          "currentStateName": "StandbyShow_01",
          "audioEvent": {
            "text": "Stop_sfx_standbyShow_tighnari_01"
          }
        },
        {
          "currentStateName": "StandbyShow_02",
          "audioEvent": {
            "text": "Stop_sfx_standbyShow_tighnari_02"
          }
        },
        {
          "currentStateName": "StandbyPutaway",
          "audioEvent": {
            "text": "Stop_sfx_weapon_bow_boy_putAway"
          }
        },
        {
          "currentStateName": "WalkPutaway",
          "audioEvent": {
            "text": "Stop_sfx_weapon_bow_boy_putAway"
          }
        },
        {
          "currentStateName": "RunPutaway",
          "audioEvent": {
            "text": "Stop_sfx_weapon_bow_boy_putAway"
          }
        },
        {
          "currentStateName": "SwimJumpDrop",
          "audioEvent": {
            "text": "Stop_sfx_char_swim_drop"
          }
        },
        {
          "currentStateName": "SwimJump",
          "audioEvent": {
            "text": "Stop_sfx_char_swim_drop"
          },
          "otherStateNames": [
            "SwimJumpDrop"
          ],
          "usage": "Except"
        },
        {
          "currentStateName": "SwimJump",
          "audioEvent": {
            "text": "Stop_sfx_char_swim_dive"
          }
        },
        {
          "currentStateName": "Fly",
          "audioEvent": {
            "text": "Play_sfx_char_land_climb"
          },
          "otherStateNames": [
            "ClimbIdle",
            "ClimbMove0",
            "ClimbMove1",
            "ClimbJump"
          ],
          "usage": "InSet"
        },
        {
          "currentStateName": "FlyStart",
          "audioEvent": {
            "text": "Play_sfx_char_land_climb"
          },
          "otherStateNames": [
            "ClimbIdle",
            "ClimbMove0",
            "ClimbMove1",
            "ClimbJump"
          ],
          "usage": "InSet"
        },
        {
          "currentStateName": "DropDownLit",
          "audioEvent": {
            "text": "Play_sfx_char_land_climb"
          },
          "otherStateNames": [
            "ClimbIdle",
            "ClimbMove0",
            "ClimbMove1",
            "ClimbJump"
          ],
          "usage": "InSet"
        },
        {
          "currentStateName": "DropDown",
          "audioEvent": {
            "text": "Play_sfx_char_land_climb"
          },
          "otherStateNames": [
            "ClimbIdle",
            "ClimbMove0",
            "ClimbMove1",
            "ClimbJump"
          ],
          "usage": "InSet"
        },
        {
          "currentStateName": "WalkDropDownLit",
          "audioEvent": {
            "text": "Play_sfx_char_land_climb"
          },
          "otherStateNames": [
            "ClimbIdle",
            "ClimbMove0",
            "ClimbMove1",
            "ClimbJump"
          ],
          "usage": "InSet"
        },
        {
          "currentStateName": "Jump",
          "audioEvent": {
            "text": "Play_sfx_char_land_climb"
          },
          "otherStateNames": [
            "ClimbIdle",
            "ClimbMove0",
            "ClimbMove1",
            "ClimbJump"
          ],
          "usage": "InSet"
        },
        {
          "currentStateName": "JumpForWalk",
          "audioEvent": {
            "text": "Play_sfx_char_land_climb"
          },
          "otherStateNames": [
            "ClimbIdle",
            "ClimbMove0",
            "ClimbMove1",
            "ClimbJump"
          ],
          "usage": "InSet"
        },
        {
          "currentStateName": "JumpForRun",
          "audioEvent": {
            "text": "Play_sfx_char_land_climb"
          },
          "otherStateNames": [
            "ClimbIdle",
            "ClimbMove0",
            "ClimbMove1",
            "ClimbJump"
          ],
          "usage": "InSet"
        },
        {
          "currentStateName": "JumpForSprint",
          "audioEvent": {
            "text": "Play_sfx_char_land_climb"
          },
          "otherStateNames": [
            "ClimbIdle",
            "ClimbMove0",
            "ClimbMove1",
            "ClimbJump"
          ],
          "usage": "InSet"
        },
        {
          "currentStateName": "JumpWeapon",
          "audioEvent": {
            "text": "Play_sfx_char_land_climb"
          },
          "otherStateNames": [
            "ClimbIdle",
            "ClimbMove0",
            "ClimbMove1",
            "ClimbJump"
          ],
          "usage": "InSet"
        },
        {
          "currentStateName": "JumpForWalkWeapon",
          "audioEvent": {
            "text": "Play_sfx_char_land_climb"
          },
          "otherStateNames": [
            "ClimbIdle",
            "ClimbMove0",
            "ClimbMove1",
            "ClimbJump"
          ],
          "usage": "InSet"
        },
        {
          "currentStateName": "JumpForRunWeapon",
          "audioEvent": {
            "text": "Play_sfx_char_land_climb"
          },
          "otherStateNames": [
            "ClimbIdle",
            "ClimbMove0",
            "ClimbMove1",
            "ClimbJump"
          ],
          "usage": "InSet"
        },
        {
          "currentStateName": "DropDownWeapon",
          "audioEvent": {
            "text": "Play_sfx_char_land_climb"
          },
          "otherStateNames": [
            "ClimbIdle",
            "ClimbMove0",
            "ClimbMove1",
            "ClimbJump"
          ],
          "usage": "InSet"
        },
        {
          "currentStateName": "DropDownLitWeapon",
          "audioEvent": {
            "text": "Play_sfx_char_land_climb"
          },
          "otherStateNames": [
            "ClimbIdle",
            "ClimbMove0",
            "ClimbMove1",
            "ClimbJump"
          ],
          "usage": "InSet"
        },
        {
          "currentStateName": "SwimMove",
          "audioEvent": {
            "text": "Stop_sfx_char_swim"
          }
        },
        {
          "currentStateName": "AimLoop",
          "audioEvent": {
            "text": "Play_sfx_weapon_bow_girl_aimNormal"
          },
          "otherStateNames": [
            "AimShoot"
          ],
          "usage": "Except"
        },
        {
          "currentStateName": "FastAimLoop",
          "audioEvent": {
            "text": "Play_sfx_weapon_bow_girl_aimNormal"
          },
          "otherStateNames": [
            "FastAimShoot"
          ],
          "usage": "Except"
        },
        {
          "currentStateName": "StandbyWeapon",
          "audioEvent": {
            "text": "Play_sfx_char_foley_flutter_light"
          },
          "otherStateNames": [
            "WalkWeapon",
            "RunWeapon"
          ],
          "usage": "InSet"
        },
        {
          "currentStateName": "SlipFaceWall",
          "audioEvent": {
            "text": "Stop_sfx_char_drop"
          }
        },
        {
          "currentStateName": "SlipFaceWall",
          "audioEvent": {
            "text": "Stop_sfx_char_slipWall"
          }
        },
        {
          "currentStateName": "SlipBackWall",
          "audioEvent": {
            "text": "Stop_sfx_char_drop"
          }
        },
        {
          "currentStateName": "SlipBackWall",
          "audioEvent": {
            "text": "Stop_sfx_char_slipWall"
          }
        },
        {
          "currentStateName": "Fly",
          "audioEvent": {
            "text": "Stop_sfx_char_fly"
          }
        },
        {
          "currentStateName": "DiveDash",
          "audioEvent": {
            "text": "Stop_sfx_char_dive_dash_lp"
          },
          "otherStateNames": [
            "DiveDashB",
            "DiveTurn",
            "DiveTurn2"
          ],
          "usage": "Except"
        },
        {
          "currentStateName": "DiveStream",
          "audioEvent": {
            "text": "Stop_sfx_char_dive_stream_lp"
          },
          "otherStateNames": [
            "DiveStreamRoll_L",
            "DiveStreamRoll_R"
          ],
          "usage": "Except"
        },
        {
          "currentStateName": "DiveMoveAS",
          "audioEvent": {
            "text": "Stop_sfx_char_dive_move_AS"
          }
        },
        {
          "currentStateName": "Dive_Out_DashFLoop",
          "audioEvent": {
            "text": "Stop_sfx_char_dive_out_dashFLoop"
          }
        },
        {
          "currentStateName": "DiveIdle",
          "audioEvent": {
            "text": "Stop_sfx_char_dive_dash_lp"
          }
        },
        {
          "currentStateName": "Dive_Out_Up",
          "audioEvent": {
            "text": "Stop_sfx_char_dive_moveF_A"
          }
        },
        {
          "currentStateName": "DiveChannel_Loop",
          "audioEvent": {
            "text": "Stop_vfx_Avatar_Diving_Channel_LP"
          }
        },
        {
          "currentStateName": "DiveMoveU_A",
          "audioEvent": {
            "text": "Stop_sfx_char_dive_moveU_A"
          }
        },
        {
          "currentStateName": "DiveMoveF_A",
          "audioEvent": {
            "text": "Stop_sfx_char_dive_moveF_A"
          }
        }
      ],
      "recurrentSpeeches": {
        "Standby": {
          "start": {
            "upper": 28.0,
            "lower": 23.0
          },
          "interval": {
            "upper": 40.0,
            "lower": 34.0
          },
          "eventName": {
            "text": ""
          }
        },
        "Walk": {
          "start": {
            "upper": 16.0,
            "lower": 13.0
          },
          "interval": {
            "upper": 14.0,
            "lower": 10.0
          },
          "eventName": {
            "text": ""
          }
        },
        "Run": {
          "start": {
            "upper": 13.0,
            "lower": 9.0
          },
          "interval": {
            "upper": 11.0,
            "lower": 8.0
          },
          "eventName": {
            "text": ""
          }
        },
        "Sprint": {
          "start": {
            "upper": 12.0,
            "lower": 7.0
          },
          "interval": {
            "upper": 9.0,
            "lower": 6.0
          },
          "eventName": {
            "text": ""
          }
        }
      }
    },
    "moveStateAudio": {
      "onStateBegin": [
        {
          "currentStateName": "Fly",
          "audioEvent": {
            "text": "Play_sfx_char_fly"
          }
        },
        {
          "currentStateName": "Air",
          "audioEvent": {
            "text": "Play_sfx_char_drop"
          },
          "otherStateNames": [
            "Fly"
          ],
          "usage": "InSet"
        },
        {
          "currentStateName": "CombatDive",
          "audioEvent": {
            "text": "Play_sfx_char_dive_move_swim_idle"
          },
          "otherStateNames": [
            "Dive"
          ],
          "usage": "Except"
        },
        {
          "currentStateName": "Dive",
          "audioEvent": {
            "text": "Play_sfx_char_dive_move_swim_idle"
          },
          "otherStateNames": [
            "CombatDive"
          ],
          "usage": "Except"
        }
      ],
      "onStateEnd": [
        {
          "currentStateName": "Fly",
          "audioEvent": {
            "text": "Stop_sfx_char_fly"
          }
        },
        {
          "currentStateName": "Air",
          "audioEvent": {
            "text": "Stop_sfx_char_drop"
          }
        },
        {
          "currentStateName": "Dive",
          "audioEvent": {
            "text": "Stop_sfx_char_dive_move_swim_idle"
          },
          "otherStateNames": [
            "CombatDive"
          ],
          "usage": "Except"
        },
        {
          "currentStateName": "CombatDive",
          "audioEvent": {
            "text": "Stop_sfx_char_dive_move_swim_idle"
          },
          "otherStateNames": [
            "Dive"
          ],
          "usage": "Except"
        }
      ]
    },
    "voiceSwitch": {
      "text": "Switch_Tighnari"
    },
    "bodyTypeSwitch": {
      "text": "Switch_Boy"
    },
    "listenerLiftup": 1.5,
    "surfaceProberLiftup": 1.5
  },
  "moveStateEffect": "AvatarBoy",
  "perform": {
    "standby": {
      "minTime": 10.0,
      "maxTime": 20.0,
      "performIDs": [
        201,
        202,
        200,
        200
      ]
    }
  }
}