{
  "common": {
    "effectAttachShape": {
      "$type": "OOMMNAAKJOP",
      "mesh": "EffectMesh"
    },
    "mass": 10.0,
    "height": 1.8600000143051147,
    "modelHeight": 1.8600000143051147,
    "affectedByWorld": true,
    "checkInSurface": true
  },
  "headControl": {
    "$type": "FKHBOAJEOKE",
    "useHeadControl": true,
    "animStates": [
      "NormalStandby",
      "NormalMove/WalkToRun",
      "NormalMove/Walk",
      "NormalMove/RunToWalk",
      "NormalMove/Run",
      "NormalMove/RunToIdle",
      "NormalMove/WalkToIdle",
      "NormalMove/RunningTurn",
      "NormalMove/SprintToRun",
      "NormalMove/SprintToIdle",
      "Sprint",
      "Climb/ClimbIdle",
      "Ladder/LadderIdle",
      "Swim/SwimIdle",
      "NormalStandbyWeapon",
      "NormalMoveWeapon/WalkToRunWeapon",
      "NormalMoveWeapon/WalkWeapon",
      "NormalMoveWeapon/RunToWalkWeapon",
      "NormalMoveWeapon/RunWeapon",
      "NormalMoveWeapon/RunToIdleWeapon",
      "NormalMoveWeapon/WalkToIdleWeapon",
      "NormalMoveWeapon/RunningTurnWeapon"
    ]
  },
  "combat": {
    "property": {
      "endureType": "Avatar_Sword",
      "weight": 75.0
    },
    "beHit": {
      "hitBloodEffect": ""
    },
    "die": {
      "hasAnimatorDie": true,
      "dieEndTime": 1.5,
      "dieForceDisappearTime": 2.5,
      "dieDisappearEffect": "Eff_Death_Avatar_Common",
      "dieShaderData": "AvatarDie",
      "useRagDoll": true,
      "ragDollDieEndTimeDelay": 0.4000000059604645
    }
  },
  "equipController": {
    "sheathPoint": "WeaponBackPut",
    "dissolveSheathFadeDelay": 0.07500000298023224,
    "dissolveSheathFadeTime": 2.0999999046325684,
    "attachPoints": {
      "equip01": "WeaponR",
      "equip02": "WeaponL",
      "equip03": "WeaponL"
    }
  },
  "stateLayers": {
    "defaultLayer": {
      "$type": "AEMHOACJLIB",
      "layerIndexName": "",
      "GCIDDLIDFAE": "",
      "stateIDs": {
        "NormalStandby": {
          "$type": "BCNJGNDHFGP",
          "animatorStates": {
            "Standby": []
          },
          "canDoSkill": true,
          "massRatio": 100.0,
          "setAnimatorBoolean": [
            {
              "name": "&CanUseSkill"
            }
          ],
          "canChangeAvatar": [
            {}
          ],
          "animatorTriggerOnLanded": "",
          "sheatheOnStart": true
        },
        "NormalMove": {
          "$type": "BCNJGNDHFGP",
          "animatorStates": {
            "ShowUp": [
              "Audio_Male_Showup"
            ],
            "WalkToRun": [
              "Audio_Male_WalkToRun"
            ],
            "Walk": [
              "Ani_WalkSprint01",
              "Audio_Male_Walk",
              "WalkStepOnWater"
            ],
            "RunToWalk": [
              "Audio_Male_RunToWalk"
            ],
            "Run": [
              "Ani_Run01",
              "Audio_Male_Run"
            ],
            "RunToIdle": [
              "Audio_Male_RunToIdle"
            ],
            "WalkToIdle": [
              "Audio_Male_WalkToIdle"
            ],
            "RunningTurn": [],
            "SprintToRun": [
              "Audio_Male_SprintToRun"
            ],
            "SprintToIdle": [
              "Audio_Male_SprintToIdle",
              "Emo_Male_Sprint_AS"
            ],
            "FallOnGround": [
              "Audio_Male_FallOnGround"
            ],
            "FallOnGroundLit": [
              "Audio_Male_FallOnGroundLit"
            ],
            "FallToGroundRun": [
              "Audio_Male_FallToGroundRun"
            ],
            "FallToGroundRunHard": [
              "Audio_Male_FallToGroundRunHard"
            ],
            "FallToGroundSprint": [
              "Audio_Male_FallToGroundSprint"
            ]
          },
          "canDoSkill": true,
          "massRatio": 1.0,
          "setAnimatorBoolean": [
            {
              "name": "&CanUseSkill"
            }
          ],
          "canChangeAvatar": [
            {}
          ],
          "animatorTriggerOnLanded": "",
          "sheatheOnStart": true
        },
        "SprintBS": {
          "$type": "BCNJGNDHFGP",
          "animatorStates": {
            "SprintBS": [
              "Audio_Male_RunToSprint",
              "SprintBS_Invincible",
              "Emo_Male_Sprint_BS"
            ]
          },
          "canDoSkill": true,
          "resetAnimatorTriggerOnEnter": [
            "DoSkill",
            "AimEnd"
          ],
          "setAnimatorBoolean": [
            {
              "name": "&CanUseSkill",
              "normalizeStart": 0.25999999046325684
            }
          ],
          "canChangeAvatar": [
            {
              "normalizeStart": 0.25999999046325684
            }
          ],
          "animatorTriggerOnLanded": "",
          "sheatheOnStart": true
        },
        "Sprint": {
          "$type": "BCNJGNDHFGP",
          "animatorStates": {
            "Sprint": [
              "Ani_WalkSprint01",
              "Audio_Male_Sprint",
              "Emo_Male_Sprint_Loop"
            ]
          },
          "canDoSkill": true,
          "massRatio": 1.0,
          "setAnimatorBoolean": [
            {
              "name": "&CanUseSkill"
            }
          ],
          "canChangeAvatar": [
            {}
          ],
          "animatorTriggerOnLanded": "",
          "sheatheOnStart": true
        },
        "SkiffNormal": {
          "$type": "BCNJGNDHFGP",
          "animatorStates": {
            "SkiffNormal": []
          },
          "massRatio": 100.0,
          "resetAnimatorTriggerOnExit": [
            "BeHit",
            "DoSkill",
            "Jump"
          ],
          "animatorTriggerOnLanded": "",
          "sheatheOnStart": true
        },
        "Climb": {
          "$type": "BCNJGNDHFGP",
          "animatorStates": {
            "ClimbMove0": [
              "ClimbStep",
              "Audio_Male_Climb"
            ],
            "ClimbMove1": [
              "ClimbStep",
              "Audio_Male_Climb"
            ],
            "ClimbIdle": [],
            "ClimbJump": [
              "Audio_Male_ClimbDash"
            ],
            "JumpUpWallForStandby": [
              "Audio_Male_JumpUpWallStandby"
            ],
            "Standby2ClimbB": [
              "Audio_Male_Standby2ClimbB"
            ]
          },
          "resetAnimatorTriggerOnEnter": [
            "DoSkill"
          ],
          "actionPanelState": "Climb",
          "animatorTriggerOnLanded": "",
          "sheatheOnStart": true
        },
        "ClimbTransient": {
          "$type": "BCNJGNDHFGP",
          "animatorStates": {
            "JumpWallReady": [],
            "Standby2ClimbA": [
              "Audio_Male_Standby2ClimbA"
            ]
          },
          "resetAnimatorTriggerOnEnter": [
            "DoSkill"
          ],
          "animatorTriggerOnLanded": "",
          "sheatheOnStart": true
        },
        "Upstairs": {
          "$type": "BCNJGNDHFGP",
          "animatorStates": {
            "Upstairs": [
              "Audio_Male_Upstairs"
            ]
          },
          "resetAnimatorTriggerOnEnter": [
            "DoSkill"
          ],
          "setAnimatorBoolean": [
            {
              "name": "&CanUseSkill"
            }
          ],
          "animatorTriggerOnLanded": "",
          "sheatheOnStart": true
        },
        "Slip": {
          "$type": "BCNJGNDHFGP",
          "animatorStates": {
            "SlipFaceWall": [],
            "SlipBackWall": []
          },
          "resetAnimatorTriggerOnEnter": [
            "DoSkill"
          ],
          "animatorTriggerOnLanded": "",
          "sheatheOnStart": true
        },
        "Swim": {
          "$type": "BCNJGNDHFGP",
          "animatorStates": {
            "SwimIdle": [
              "Audio_Male_SwimIdle"
            ],
            "SwimMove": [
              "SwimStep",
              "Audio_Male_SwimMove"
            ],
            "SwimDash": [
              "Audio_Male_SwimDash",
              "Avatar_Male_SwimDash_Hand_Effect"
            ],
            "SwimJumpToWater": [
              "Audio_Male_SwimJumpToWater"
            ]
          },
          "resetAnimatorTriggerOnEnter": [
            "DoSkill"
          ],
          "actionPanelState": "Swim",
          "animatorTriggerOnLanded": "",
          "sheatheOnStart": true
        },
        "Fly": {
          "$type": "BCNJGNDHFGP",
          "animatorStates": {
            "Fly": [],
            "FlyStart": [
              "Audio_Male_FlyStart",
              "FlyStart_Weapon"
            ]
          },
          "canDoSkill": true,
          "resetAnimatorTriggerOnEnter": [
            "DoSkill"
          ],
          "setAnimatorBoolean": [
            {
              "name": "&CanUseAirSkill"
            }
          ],
          "actionPanelState": "Fly",
          "animatorTriggerOnLanded": "",
          "sheatheOnStart": true
        },
        "Jump": {
          "$type": "BCNJGNDHFGP",
          "animatorStates": {
            "Jump": [
              "Audio_Male_Jump"
            ],
            "JumpForRun": [
              "Audio_Male_Jump"
            ],
            "JumpForWalk": [
              "Audio_Male_Jump"
            ],
            "JumpForSprint": [
              "Audio_Male_Jump"
            ]
          },
          "canDoSkill": true,
          "resetAnimatorTriggerOnEnter": [
            "DoSkill",
            "AimEnd"
          ],
          "setAnimatorBoolean": [
            {
              "name": "&CanUseAirSkill"
            }
          ],
          "actionPanelState": "Jump",
          "animatorTriggerOnLanded": "",
          "sheatheOnStart": true
        },
        "Fall": {
          "$type": "BCNJGNDHFGP",
          "animatorStates": {
            "JumpOffWall": [
              "Audio_Male_Jump"
            ],
            "SwimJump": [
              "Audio_Male_SwimJump"
            ],
            "SwimJumpDrop": [],
            "DropDown": [
              "Audio_Male_DropDown"
            ],
            "DropDownLit": [],
            "WalkDropDownLit": []
          },
          "canDoSkill": true,
          "resetAnimatorTriggerOnEnter": [
            "DoSkill"
          ],
          "setAnimatorBoolean": [
            {
              "name": "&CanUseAirSkill"
            }
          ],
          "animatorTriggerOnLanded": "",
          "sheatheOnStart": true
        },
        "NormalStandbyWeapon": {
          "$type": "BCNJGNDHFGP",
          "animatorStates": {
            "StandbyWeapon": []
          },
          "canDoSkill": true,
          "massRatio": 100.0,
          "setAnimatorBoolean": [
            {
              "name": "&CanUseSkill"
            }
          ],
          "canChangeAvatar": [
            {}
          ],
          "animatorTriggerOnLanded": "",
          "battouOnStart": true
        },
        "NormalMoveWeapon": {
          "$type": "BCNJGNDHFGP",
          "animatorStates": {
            "WalkToRunWeapon": [
              "Male_Sword_Putaway_RunBS",
              "Audio_Male_WalkToRun"
            ],
            "WalkWeapon": [
              "Audio_Male_Walk"
            ],
            "RunToWalkWeapon": [
              "Audio_Male_RunToWalk"
            ],
            "RunWeapon": [
              "Audio_Male_Run"
            ],
            "RunToIdleWeapon": [],
            "WalkToIdleWeapon": [],
            "RunningTurnWeapon": [],
            "FallOnGroundWeapon": [
              "Audio_Male_FallOnGround"
            ],
            "FallOnGroundLitWeapon": [
              "Audio_Male_FallOnGroundLit"
            ],
            "FallOnGroundMiddleWeapon": [
              "Audio_Male_FallOnGroundMiddle"
            ],
            "FallToGroundRunWeapon": [
              "Audio_Male_FallToGroundRun"
            ],
            "FallToGroundRunHardWeapon": [
              "Audio_Male_FallToGroundRunHard"
            ]
          },
          "canDoSkill": true,
          "massRatio": 2.0,
          "setAnimatorBoolean": [
            {
              "name": "&CanUseSkill"
            }
          ],
          "canChangeAvatar": [
            {}
          ],
          "animatorTriggerOnLanded": "",
          "battouOnStart": true
        },
        "NormalMoveWeaponPutaway": {
          "$type": "BCNJGNDHFGP",
          "animatorStates": {
            "StandbyPutaway": [
              "Male_Sword_Putaway_Standby",
              "Audio_Male_Sword_StandbyPutAway"
            ],
            "WalkPutaway": [
              "Male_Sword_Putaway_Walk",
              "Audio_Male_Sword_WalkPutAway"
            ],
            "RunPutaway": [
              "Male_Sword_Putaway_Run",
              "Audio_Male_Sword_RunPutAway"
            ],
            "RunToSprintWeapon": [
              "Male_Sword_Putaway_Sprint",
              "Audio_Male_Sword_RunToSprintWeapon"
            ]
          },
          "canDoSkill": true,
          "massRatio": 2.0,
          "setAnimatorBoolean": [
            {
              "name": "&CanUseSkill"
            }
          ],
          "canChangeAvatar": [
            {}
          ],
          "animatorTriggerOnLanded": "",
          "battouOnStart": true
        },
        "NormalMoveWeaponOver": {
          "$type": "BCNJGNDHFGP",
          "animatorStates": {
            "StandbyPutawayOver": [],
            "WalkPutawayOver": [
              "Audio_Male_Sword_WalkPutAwayOver"
            ],
            "RunPutawayOver": [
              "Audio_Male_Sword_RunPutAwayOver"
            ],
            "RunToSprintWeaponOver": [
              "Audio_Male_Sword_RunToSprintWeaponOver"
            ]
          },
          "canDoSkill": true,
          "massRatio": 2.0,
          "setAnimatorBoolean": [
            {
              "name": "&CanUseSkill"
            }
          ],
          "canChangeAvatar": [
            {}
          ],
          "animatorTriggerOnLanded": "",
          "sheatheOnStart": true
        },
        "JumpWeapon": {
          "$type": "BCNJGNDHFGP",
          "animatorStates": {
            "JumpWeapon": [
              "Audio_Male_Jump"
            ],
            "JumpForRunWeapon": [
              "Audio_Male_Jump"
            ],
            "JumpForWalkWeapon": [
              "Audio_Male_Jump"
            ]
          },
          "canDoSkill": true,
          "resetAnimatorTriggerOnEnter": [
            "DoSkill"
          ],
          "setAnimatorBoolean": [
            {
              "name": "&CanUseAirSkill"
            }
          ],
          "canChangeAvatar": [
            {}
          ],
          "actionPanelState": "Jump",
          "animatorTriggerOnLanded": "",
          "battouOnStart": true
        },
        "FallWeapon": {
          "$type": "BCNJGNDHFGP",
          "animatorStates": {
            "DropDownWeapon": [
              "Audio_Male_DropDown"
            ],
            "DropDownLitWeapon": [],
            "WalkDropDownLitWeapon": []
          },
          "canDoSkill": true,
          "resetAnimatorTriggerOnEnter": [
            "DoSkill"
          ],
          "setAnimatorBoolean": [
            {
              "name": "&CanUseAirSkill"
            }
          ],
          "animatorTriggerOnLanded": "",
          "battouOnStart": true
        },
        "BeHit": {
          "$type": "BCNJGNDHFGP",
          "animatorStates": {
            "Hit_L": [
              "Audio_Male_Hit_L"
            ],
            "Hit_H": [
              "Audio_Male_Hit_H"
            ]
          },
          "onQuit": "combatMove",
          "resetAnimatorTriggerOnEnter": [
            "BeHit",
            "HitAir2HitDrop"
          ],
          "resetAnimatorTriggerOnExit": [
            "DoSkill"
          ],
          "cameraType": "combatBeHit",
          "jumpCancelEnd": 0.0,
          "animatorTriggerOnLanded": "",
          "battouOnStart": true
        },
        "Die": {
          "$type": "BCNJGNDHFGP",
          "animatorStates": {
            "FallDie": [
              "Audio_Male_Death"
            ],
            "NormalDie": [
              "Die",
              "Audio_Male_Death"
            ],
            "SwimDie": [
              "Swim_Die",
              "Audio_Male_SwimDie"
            ],
            "HitGroundDie": [
              "Die",
              "Audio_Male_Death"
            ]
          },
          "animatorTriggerOnLanded": ""
        },
        "Die_RagDoll": {
          "$type": "BCNJGNDHFGP",
          "animatorStates": {
            "NormalDie_AS": [],
            "FallDie_AS": []
          },
          "enableRagDoll": true,
          "animatorTriggerOnLanded": ""
        },
        "TakePhotos": {
          "$type": "BCNJGNDHFGP",
          "animatorStates": {
            "Think01BS": [],
            "Akimbo02BS": [],
            "Think01Loop": [],
            "Akimbo02Loop": [],
            "Think01AS": [],
            "Akimbo02AS": []
          },
          "animatorTriggerOnLanded": ""
        },
        "Channel_BS": {
          "$type": "BCNJGNDHFGP",
          "animatorStates": {
            "ChannelBS": [
              "Emo_Avatar_Common_Manekin_Default"
            ]
          },
          "onQuit": "combatMove",
          "canDoSkill": true,
          "massRatio": 100.0,
          "resetAnimatorTriggerOnExit": [
            "BeHit",
            "DoSkill",
            "Jump"
          ],
          "setAnimatorBoolean": [
            {
              "name": "&CanUseSkill"
            }
          ],
          "canChangeAvatar": [
            {}
          ],
          "animatorTriggerOnLanded": "",
          "sheatheOnStart": true
        },
        "Channel_Loop": {
          "$type": "BCNJGNDHFGP",
          "animatorStates": {
            "ChannelLoop": []
          },
          "onQuit": "combatMove",
          "canDoSkill": true,
          "massRatio": 100.0,
          "resetAnimatorTriggerOnExit": [
            "BeHit",
            "DoSkill",
            "Jump"
          ],
          "setAnimatorBoolean": [
            {
              "name": "&CanUseSkill"
            }
          ],
          "canChangeAvatar": [
            {}
          ],
          "animatorTriggerOnLanded": "",
          "sheatheOnStart": true
        },
        "Channel_AS": {
          "$type": "BCNJGNDHFGP",
          "animatorStates": {
            "ChannelAS": []
          },
          "onQuit": "combatMove",
          "canDoSkill": true,
          "massRatio": 100.0,
          "resetAnimatorTriggerOnExit": [
            "BeHit",
            "DoSkill",
            "Jump"
          ],
          "setAnimatorBoolean": [
            {
              "name": "&CanUseSkill"
            }
          ],
          "canChangeAvatar": [
            {}
          ],
          "animatorTriggerOnLanded": "",
          "sheatheOnStart": true
        },
        "PlayMusic_Lyre": {
          "$type": "BCNJGNDHFGP",
          "animatorStates": {
            "PlayMusic_Lyre_BS": [
              "PlayMusic_Lyre_Male"
            ],
            "PlayMusic_Lyre_Loop": []
          },
          "onQuit": "combatMove",
          "massRatio": 100.0,
          "resetAnimatorTriggerOnExit": [
            "BeHit",
            "DoSkill",
            "Jump"
          ],
          "animatorTriggerOnLanded": "",
          "sheatheOnStart": true
        },
        "PlayMusic_Lyre_AS": {
          "$type": "BCNJGNDHFGP",
          "animatorStates": {
            "PlayMusic_Lyre_AS": [
              "PlayMusic_Lyre_Male_AS"
            ]
          },
          "onQuit": "combatMove",
          "canDoSkill": true,
          "massRatio": 100.0,
          "resetAnimatorTriggerOnExit": [
            "BeHit",
            "DoSkill",
            "Jump"
          ],
          "setAnimatorBoolean": [
            {
              "name": "&CanUseSkill"
            }
          ],
          "canChangeAvatar": [
            {}
          ],
          "animatorTriggerOnLanded": "",
          "sheatheOnStart": true
        },
        "PlayMusic_Qin": {
          "$type": "BCNJGNDHFGP",
          "animatorStates": {
            "PlayMusic_Qin_BS": [
              "PlayMusic_Qin_Male"
            ],
            "PlayMusic_Qin_Loop": []
          },
          "onQuit": "combatMove",
          "massRatio": 100.0,
          "resetAnimatorTriggerOnExit": [
            "BeHit",
            "DoSkill",
            "Jump"
          ],
          "animatorTriggerOnLanded": "",
          "sheatheOnStart": true
        },
        "PlayMusic_Qin_AS": {
          "$type": "BCNJGNDHFGP",
          "animatorStates": {
            "PlayMusic_Qin_AS": [
              "PlayMusic_Qin_Male_AS"
            ]
          },
          "onQuit": "combatMove",
          "canDoSkill": true,
          "massRatio": 100.0,
          "resetAnimatorTriggerOnExit": [
            "BeHit",
            "DoSkill",
            "Jump"
          ],
          "setAnimatorBoolean": [
            {
              "name": "&CanUseSkill"
            }
          ],
          "canChangeAvatar": [
            {}
          ],
          "animatorTriggerOnLanded": "",
          "sheatheOnStart": true
        },
        "PlayMusic_Drum": {
          "$type": "BCNJGNDHFGP",
          "animatorStates": {
            "PlayMusic_Drum_BS": [
              "PlayMusic_Drum_Male"
            ],
            "PlayMusic_Drum_Loop": []
          },
          "onQuit": "combatMove",
          "massRatio": 100.0,
          "resetAnimatorTriggerOnExit": [
            "BeHit",
            "DoSkill",
            "Jump"
          ],
          "animatorTriggerOnLanded": "",
          "sheatheOnStart": true
        },
        "PlayMusic_Drum_AS": {
          "$type": "BCNJGNDHFGP",
          "animatorStates": {
            "PlayMusic_Drum_AS": [
              "PlayMusic_Drum_Male_AS"
            ]
          },
          "onQuit": "combatMove",
          "canDoSkill": true,
          "massRatio": 100.0,
          "resetAnimatorTriggerOnExit": [
            "BeHit",
            "DoSkill",
            "Jump"
          ],
          "setAnimatorBoolean": [
            {
              "name": "&CanUseSkill"
            }
          ],
          "canChangeAvatar": [
            {}
          ],
          "animatorTriggerOnLanded": "",
          "sheatheOnStart": true
        },
        "ActivitySkill_ElectricCoreFly": {
          "$type": "BCNJGNDHFGP",
          "animatorStates": {
            "ActivitySkill_ElectricCoreFly": []
          },
          "onQuit": "combatAir",
          "massRatio": 100.0,
          "resetAnimatorTriggerOnEnter": [
            "ElectricCoreFly_End"
          ],
          "resetAnimatorTriggerOnExit": [
            "BeHit",
            "DoSkill",
            "Jump",
            "ElectricCoreFly_End"
          ],
          "animatorTriggerOnLanded": "",
          "sheatheOnStart": true
        },
        "ActivitySkill_GrapplingHook": {
          "$type": "BCNJGNDHFGP",
          "animatorStates": {
            "ActivitySkill_GrapplingHook": []
          },
          "onQuit": "combatAir",
          "massRatio": 100.0,
          "resetAnimatorTriggerOnEnter": [
            "GrapplingHook_Drop"
          ],
          "resetAnimatorTriggerOnExit": [
            "BeHit",
            "DoSkill",
            "Jump",
            "GrapplingHook_Drop"
          ],
          "animatorTriggerOnLanded": "",
          "sheatheOnStart": true
        }
      }
    }
  },
  "audio": {
    "overrideEmitterName": "",
    "animAudio": {
      "onTransitionOut": [
        {
          "currentStateName": "StandbyPutaway",
          "audioEvent": {
            "text": "Stop_sfx_weapon_1HSword_lady_putAwayStandby"
          }
        },
        {
          "currentStateName": "WalkPutaway",
          "audioEvent": {
            "text": "Stop_sfx_weapon_1HSword_lady_putAwayStandby"
          }
        },
        {
          "currentStateName": "RunPutaway",
          "audioEvent": {
            "text": "Stop_sfx_weapon_1HSword_lady_putAwayStandby"
          }
        },
        {
          "currentStateName": "SwimJumpDrop",
          "audioEvent": {
            "text": "Stop_sfx_char_swim_drop"
          }
        },
        {
          "currentStateName": "SwimJump",
          "audioEvent": {
            "text": "Stop_sfx_char_swim_drop"
          },
          "otherStateNames": [
            "SwimJumpDrop"
          ],
          "usage": "Except"
        },
        {
          "currentStateName": "Fly",
          "audioEvent": {
            "text": "Play_sfx_char_land_climb"
          },
          "otherStateNames": [
            "ClimbIdle",
            "ClimbMove0",
            "ClimbMove1",
            "ClimbJump"
          ],
          "usage": "InSet"
        },
        {
          "currentStateName": "FlyStart",
          "audioEvent": {
            "text": "Play_sfx_char_land_climb"
          },
          "otherStateNames": [
            "ClimbIdle",
            "ClimbMove0",
            "ClimbMove1",
            "ClimbJump"
          ],
          "usage": "InSet"
        },
        {
          "currentStateName": "DropDownLit",
          "audioEvent": {
            "text": "Play_sfx_char_land_climb"
          },
          "otherStateNames": [
            "ClimbIdle",
            "ClimbMove0",
            "ClimbMove1",
            "ClimbJump"
          ],
          "usage": "InSet"
        },
        {
          "currentStateName": "DropDown",
          "audioEvent": {
            "text": "Play_sfx_char_land_climb"
          },
          "otherStateNames": [
            "ClimbIdle",
            "ClimbMove0",
            "ClimbMove1",
            "ClimbJump"
          ],
          "usage": "InSet"
        },
        {
          "currentStateName": "WalkDropDownLit",
          "audioEvent": {
            "text": "Play_sfx_char_land_climb"
          },
          "otherStateNames": [
            "ClimbIdle",
            "ClimbMove0",
            "ClimbMove1",
            "ClimbJump"
          ],
          "usage": "InSet"
        },
        {
          "currentStateName": "Jump",
          "audioEvent": {
            "text": "Play_sfx_char_land_climb"
          },
          "otherStateNames": [
            "ClimbIdle",
            "ClimbMove0",
            "ClimbMove1",
            "ClimbJump"
          ],
          "usage": "InSet"
        },
        {
          "currentStateName": "JumpForWalk",
          "audioEvent": {
            "text": "Play_sfx_char_land_climb"
          },
          "otherStateNames": [
            "ClimbIdle",
            "ClimbMove0",
            "ClimbMove1",
            "ClimbJump"
          ],
          "usage": "InSet"
        },
        {
          "currentStateName": "JumpForRun",
          "audioEvent": {
            "text": "Play_sfx_char_land_climb"
          },
          "otherStateNames": [
            "ClimbIdle",
            "ClimbMove0",
            "ClimbMove1",
            "ClimbJump"
          ],
          "usage": "InSet"
        },
        {
          "currentStateName": "JumpForSprint",
          "audioEvent": {
            "text": "Play_sfx_char_land_climb"
          },
          "otherStateNames": [
            "ClimbIdle",
            "ClimbMove0",
            "ClimbMove1",
            "ClimbJump"
          ],
          "usage": "InSet"
        },
        {
          "currentStateName": "JumpWeapon",
          "audioEvent": {
            "text": "Play_sfx_char_land_climb"
          },
          "otherStateNames": [
            "ClimbIdle",
            "ClimbMove0",
            "ClimbMove1",
            "ClimbJump"
          ],
          "usage": "InSet"
        },
        {
          "currentStateName": "JumpForWalkWeapon",
          "audioEvent": {
            "text": "Play_sfx_char_land_climb"
          },
          "otherStateNames": [
            "ClimbIdle",
            "ClimbMove0",
            "ClimbMove1",
            "ClimbJump"
          ],
          "usage": "InSet"
        },
        {
          "currentStateName": "JumpForRunWeapon",
          "audioEvent": {
            "text": "Play_sfx_char_land_climb"
          },
          "otherStateNames": [
            "ClimbIdle",
            "ClimbMove0",
            "ClimbMove1",
            "ClimbJump"
          ],
          "usage": "InSet"
        },
        {
          "currentStateName": "DropDownWeapon",
          "audioEvent": {
            "text": "Play_sfx_char_land_climb"
          },
          "otherStateNames": [
            "ClimbIdle",
            "ClimbMove0",
            "ClimbMove1",
            "ClimbJump"
          ],
          "usage": "InSet"
        },
        {
          "currentStateName": "DropDownLitWeapon",
          "audioEvent": {
            "text": "Play_sfx_char_land_climb"
          },
          "otherStateNames": [
            "ClimbIdle",
            "ClimbMove0",
            "ClimbMove1",
            "ClimbJump"
          ],
          "usage": "InSet"
        },
        {
          "currentStateName": "SwimMove",
          "audioEvent": {
            "text": "Stop_sfx_char_swim"
          }
        }
      ],
      "recurrentSpeeches": {
        "Standby": {
          "start": {
            "upper": 28.0,
            "lower": 23.0
          },
          "interval": {
            "upper": 40.0,
            "lower": 34.0
          },
          "eventName": {
            "text": "Play_vo_char_explore_idle"
          }
        },
        "Walk": {
          "start": {
            "upper": 16.0,
            "lower": 13.0
          },
          "interval": {
            "upper": 14.0,
            "lower": 10.0
          },
          "eventName": {
            "text": ""
          }
        },
        "Run": {
          "start": {
            "upper": 13.0,
            "lower": 9.0
          },
          "interval": {
            "upper": 11.0,
            "lower": 8.0
          },
          "eventName": {
            "text": ""
          }
        },
        "Sprint": {
          "start": {
            "upper": 12.0,
            "lower": 7.0
          },
          "interval": {
            "upper": 9.0,
            "lower": 6.0
          },
          "eventName": {
            "text": ""
          }
        }
      }
    },
    "moveStateAudio": {
      "onStateBegin": [
        {
          "currentStateName": "Fly",
          "audioEvent": {
            "text": "Play_sfx_char_fly"
          }
        }
      ],
      "onStateEnd": [
        {
          "currentStateName": "Fly",
          "audioEvent": {
            "text": "Stop_sfx_char_fly"
          },
          "otherStateNames": [
            "Air"
          ],
          "usage": "Except"
        },
        {
          "currentStateName": "Air",
          "audioEvent": {
            "text": "Stop_sfx_char_fly"
          },
          "otherStateNames": [
            "Fly"
          ],
          "usage": "Except"
        }
      ]
    },
    "voiceSwitch": {
      "text": "Switch_Baizhu"
    },
    "bodyTypeSwitch": {
      "text": "Switch_Male"
    }
  }
}