{
  "Level_UGC_Dungeon": {
    "avatarAbilities": [
      {
        "abilityID": "Avatar_UGC_Dungeon_Ray",
        "abilityName": "Avatar_UGC_Dungeon_Ray",
        "abilityOverride": ""
      },
      {
        "abilityID": "SceneObj_Electric_Core",
        "abilityName": "SceneObj_Electric_Core",
        "abilityOverride": ""
      }
    ],
    "teamAbilities": [
      {
        "abilityID": "Team_UGC_Electric_Fairy",
        "abilityName": "Team_UGC_Electric_Fairy",
        "abilityOverride": ""
      }
    ]
  },
  "Level_UGC_Dungeon_02": {
    "avatarAbilities": [
      {
        "abilityID": "Avatar_UGC_Dungeon_Ray_V2",
        "abilityName": "Avatar_UGC_Dungeon_Ray_V2",
        "abilityOverride": ""
      },
      {
        "abilityID": "GrapplingHookSkill_Ability",
        "abilityName": "GrapplingHookSkill_Ability",
        "abilityOverride": ""
      }
    ],
    "teamAbilities": [
      {
        "abilityID": "Avatar_UGC_Dungeon_BooldHealth_UsedOut",
        "abilityName": "Avatar_UGC_Dungeon_BooldHealth_UsedOut",
        "abilityOverride": ""
      }
    ],
    "FJMPAABAENP": true
  }
}