{
  "LevelEntity_Activity_TowerDefence_AvatarDebuff": {
    "avatarAbilities": [
      {
        "abilityID": "ActivityAbility_TowerDefence_AvatarDebuff",
        "abilityName": "ActivityAbility_TowerDefence_AvatarDebuff",
        "abilityOverride": ""
      }
    ]
  },
  "LevelEntity_Activity_BlitzRush_FlipCard": {
    "avatarAbilities": [
      {
        "abilityID": "",
        "abilityName": "ActivityAbility_BlitzRush_AvatarFlipCard",
        "abilityOverride": ""
      }
    ],
    "monsterAbilities": [
      {
        "abilityID": "",
        "abilityName": "ActivityAbility_BlitzRush_MonsterFlipCard",
        "abilityOverride": ""
      }
    ]
  },
  "LevelEntity_Activity_V2_7_CYRogue_20128": {
    "avatarAbilities": [
      {
        "abilityID": "",
        "abilityName": "ActivityAbility_Activity_V2_7_CYRogue_20128",
        "abilityOverride": ""
      }
    ]
  },
  "LevelEntity_Activity_V2_7_CYRogue_46201": {
    "avatarAbilities": [
      {
        "abilityID": "",
        "abilityName": "ActivityAbility_Activity_V2_7_CYRogue_46201",
        "abilityOverride": ""
      }
    ]
  },
  "LevelEntity_Activity_V2_7_CYRogue_46202": {
    "avatarAbilities": [
      {
        "abilityID": "",
        "abilityName": "ActivityAbility_Activity_V2_7_CYRogue_46202",
        "abilityOverride": ""
      }
    ]
  },
  "LevelEntity_Activity_V2_7_CYRogue_46203": {
    "avatarAbilities": [
      {
        "abilityID": "",
        "abilityName": "ActivityAbility_Activity_V2_7_CYRogue_46203",
        "abilityOverride": ""
      }
    ]
  },
  "LevelEntity_Activity_V3_2_MushroomBeastBattle": {
    "avatarAbilities": [
      {
        "abilityID": "",
        "abilityName": "ActivityAbility_CatchMushroomMonster_ForceFire",
        "abilityOverride": ""
      }
    ],
    "preloadMonsterEntityIDs": [
      21011201,
      21010201,
      20011401,
      21020301,
      21010701,
      20011201,
      22010101,
      21010601,
      21020201,
      21020501,
      24030201,
      20010901,
      20010801,
      20011001,
      22010301,
      20050703,
      20050203,
      20050302,
      20010501,
      26040102,
      26040101,
      20010601,
      20011101,
      20011301,
      20060701,
      20060501,
      21030601,
      21020401,
      21030501,
      21010301,
      26030101,
      21010401,
      21011001,
      21010501,
      21010901,
      26010101,
      26010201,
      21020801,
      24010101,
      21020601,
      21010502,
      21010902,
      21020101,
      21010402,
      21011002,
      24020401,
      24020201,
      24020301,
      24020101,
      22010201,
      22010401,
      26040103,
      26040104,
      21020701,
      22030102,
      21011601,
      26010301,
      21011301,
      20011501,
      20060101,
      20060601,
      20060301,
      20060401,
      21030101,
      21011401
    ]
  },
  "LevelEntity_Activity_V3_3_LostCity": {
    "avatarAbilities": [
      {
        "abilityID": "",
        "abilityName": "GrapplingHookSkill_Ability",
        "abilityOverride": ""
      }
    ]
  },
  "LevelEntity_Activity_V3_3_LostCity_47201": {
    "avatarAbilities": [
      {
        "abilityID": "",
        "abilityName": "GrapplingHookSkill_Ability",
        "abilityOverride": ""
      }
    ],
    "teamAbilities": [
      {
        "abilityID": "",
        "abilityName": "ActivityAbility_MistTrialV3_Team_47201",
        "abilityOverride": ""
      }
    ]
  },
  "LevelEntity_Activity_V3_3_LostCity_47202": {
    "avatarAbilities": [
      {
        "abilityID": "",
        "abilityName": "GrapplingHookSkill_Ability",
        "abilityOverride": ""
      }
    ],
    "teamAbilities": [
      {
        "abilityID": "",
        "abilityName": "ActivityAbility_MistTrialV3_Team_47202",
        "abilityOverride": ""
      }
    ]
  },
  "LevelEntity_Activity_V3_3_LostCity_47203": {
    "avatarAbilities": [
      {
        "abilityID": "",
        "abilityName": "GrapplingHookSkill_Ability",
        "abilityOverride": ""
      }
    ],
    "teamAbilities": [
      {
        "abilityID": "",
        "abilityName": "ActivityAbility_MistTrialV3_Team_47203",
        "abilityOverride": ""
      }
    ]
  },
  "LevelEntity_Activity_V3_3_LostCity_47204": {
    "avatarAbilities": [
      {
        "abilityID": "",
        "abilityName": "GrapplingHookSkill_Ability",
        "abilityOverride": ""
      }
    ],
    "teamAbilities": [
      {
        "abilityID": "",
        "abilityName": "ActivityAbility_MistTrialV3_Team_47204",
        "abilityOverride": ""
      }
    ]
  },
  "LevelEntity_Activity_V3_3_LostCity_47205": {
    "avatarAbilities": [
      {
        "abilityID": "",
        "abilityName": "GrapplingHookSkill_Ability",
        "abilityOverride": ""
      }
    ],
    "teamAbilities": [
      {
        "abilityID": "",
        "abilityName": "ActivityAbility_MistTrialV3_Team_47205",
        "abilityOverride": ""
      }
    ]
  },
  "LevelEntity_Activity_V3_3_LostCity_47206": {
    "avatarAbilities": [
      {
        "abilityID": "",
        "abilityName": "GrapplingHookSkill_Ability",
        "abilityOverride": ""
      }
    ],
    "teamAbilities": [
      {
        "abilityID": "",
        "abilityName": "ActivityAbility_MistTrialV3_Team_47206",
        "abilityOverride": ""
      }
    ]
  },
  "LevelEntity_Activity_V3_3_LostCity_47207": {
    "avatarAbilities": [
      {
        "abilityID": "",
        "abilityName": "GrapplingHookSkill_Ability",
        "abilityOverride": ""
      }
    ],
    "teamAbilities": [
      {
        "abilityID": "",
        "abilityName": "ActivityAbility_MistTrialV3_Team_47207",
        "abilityOverride": ""
      }
    ]
  },
  "LevelEntity_Activity_V4_2_LostCity_47901": {
    "avatarAbilities": [
      {
        "abilityID": "",
        "abilityName": "GrapplingHookSkill_Ability",
        "abilityOverride": ""
      }
    ],
    "teamAbilities": [
      {
        "abilityID": "",
        "abilityName": "ActivityAbility_MistTrialV4_Team_47901",
        "abilityOverride": ""
      }
    ]
  },
  "LevelEntity_Activity_V4_2_LostCity_47902": {
    "avatarAbilities": [
      {
        "abilityID": "",
        "abilityName": "GrapplingHookSkill_Ability",
        "abilityOverride": ""
      }
    ],
    "teamAbilities": [
      {
        "abilityID": "",
        "abilityName": "ActivityAbility_MistTrialV4_Team_47902",
        "abilityOverride": ""
      }
    ]
  },
  "LevelEntity_Activity_V4_2_LostCity_47903": {
    "avatarAbilities": [
      {
        "abilityID": "",
        "abilityName": "GrapplingHookSkill_Ability",
        "abilityOverride": ""
      }
    ],
    "teamAbilities": [
      {
        "abilityID": "",
        "abilityName": "ActivityAbility_MistTrialV4_Team_47903",
        "abilityOverride": ""
      }
    ]
  },
  "LevelEntity_Activity_V4_2_LostCity_47904": {
    "avatarAbilities": [
      {
        "abilityID": "",
        "abilityName": "GrapplingHookSkill_Ability",
        "abilityOverride": ""
      }
    ],
    "teamAbilities": [
      {
        "abilityID": "",
        "abilityName": "ActivityAbility_MistTrialV4_Team_47904",
        "abilityOverride": ""
      }
    ]
  },
  "LevelEntity_Activity_V4_2_LostCity_47905": {
    "avatarAbilities": [
      {
        "abilityID": "",
        "abilityName": "GrapplingHookSkill_Ability",
        "abilityOverride": ""
      }
    ],
    "teamAbilities": [
      {
        "abilityID": "",
        "abilityName": "ActivityAbility_MistTrialV4_Team_47905",
        "abilityOverride": ""
      }
    ]
  },
  "LevelEntity_Activity_V4_2_LostCity_47906": {
    "avatarAbilities": [
      {
        "abilityID": "",
        "abilityName": "GrapplingHookSkill_Ability",
        "abilityOverride": ""
      }
    ],
    "teamAbilities": [
      {
        "abilityID": "",
        "abilityName": "ActivityAbility_MistTrialV4_Team_47906",
        "abilityOverride": ""
      }
    ]
  },
  "LevelEntity_Activity_V4_2_LostCity_47907": {
    "avatarAbilities": [
      {
        "abilityID": "",
        "abilityName": "GrapplingHookSkill_Ability",
        "abilityOverride": ""
      }
    ],
    "teamAbilities": [
      {
        "abilityID": "",
        "abilityName": "ActivityAbility_MistTrialV4_Team_47907",
        "abilityOverride": ""
      }
    ]
  },
  "LevelEntity_Activity_V3_5_Pacman": {
    "avatarAbilities": [
      {
        "abilityID": "",
        "abilityName": "Avatar_PacMan_Skill_Antikill",
        "abilityOverride": ""
      }
    ],
    "teamAbilities": [
      {
        "abilityID": "Team_PacMan_TriggerDie",
        "abilityName": "Team_PacMan_TriggerDie",
        "abilityOverride": ""
      },
      {
        "abilityID": "Team_PacMan_Pickup",
        "abilityName": "Team_PacMan_Pickup",
        "abilityOverride": ""
      },
      {
        "abilityID": "Team_PacMan_Forbid_Torrent",
        "abilityName": "Team_PacMan_Forbid_Torrent",
        "abilityOverride": ""
      },
      {
        "abilityID": "Team_PacMan_SkillAndPlayMode",
        "abilityName": "Team_PacMan_SkillAndPlayMode",
        "abilityOverride": ""
      },
      {
        "abilityID": "Team_PacMan_Died_Display",
        "abilityName": "Team_PacMan_Died_Display",
        "abilityOverride": ""
      }
    ]
  },
  "LevelEntity_Activity_V3_4_TeamChainChallenge": {
    "preloadMonsterEntityIDs": [
      25410301,
      25410401,
      23010101,
      23010601,
      23010501,
      24010301
    ]
  },
  "LevelEntity_Activity_V3_5_Fungi": {
    "avatarAbilities": [
      {
        "abilityID": "",
        "abilityName": "Avatar_Fungi_ClearAvatar",
        "abilityOverride": ""
      }
    ]
  },
  "LevelEntity_Activity_V3_6_AkaFes_Debuff_0101": {
    "monsterAbilities": [
      {
        "abilityID": "MonsterAffix_Activity_AkaFes_Elite_DefendUp",
        "abilityName": "MonsterAffix_Activity_AkaFes_Elite_DefendUp",
        "abilityOverride": ""
      }
    ]
  },
  "LevelEntity_Activity_V3_6_AkaFes_Debuff_0102": {
    "monsterAbilities": [
      {
        "abilityID": "MonsterAffix_Activity_AkaFes_Normal_HPUp",
        "abilityName": "MonsterAffix_Activity_AkaFes_Normal_HPUp",
        "abilityOverride": ""
      }
    ]
  },
  "LevelEntity_Activity_V3_6_AkaFes_Debuff_0201": {
    "monsterAbilities": [
      {
        "abilityID": "MonsterAffix_Activity_AkaFes_Normal_DefendUP",
        "abilityName": "MonsterAffix_Activity_AkaFes_Normal_DefendUP",
        "abilityOverride": ""
      }
    ]
  },
  "LevelEntity_Activity_V3_6_AkaFes_Debuff_0202": {
    "monsterAbilities": [
      {
        "abilityID": "MonsterAffix_Eremite_Improve_HPPercent",
        "abilityName": "MonsterAffix_Eremite_Improve_HPPercent",
        "abilityOverride": ""
      }
    ]
  },
  "LevelEntity_Activity_V3_6_AkaFes_Debuff_0301": {
    "monsterAbilities": [
      {
        "abilityID": "MonsterAffix_Activity_AkaFes_Elete_HPUp",
        "abilityName": "MonsterAffix_Activity_AkaFes_Elete_HPUp",
        "abilityOverride": ""
      }
    ]
  },
  "LevelEntity_Activity_V3_6_AkaFes_Debuff_0302": {
    "monsterAbilities": [
      {
        "abilityID": "MonsterAffix_Activity_AkaFes_Normal_HealLatency",
        "abilityName": "MonsterAffix_Activity_AkaFes_Normal_HealLatency",
        "abilityOverride": ""
      }
    ]
  },
  "LevelEntity_Activity_V3_6_AkaFes_Debuff_0303": {
    "monsterAbilities": [
      {
        "abilityID": "MonsterAffix_Activity_AkaFes_RockDamage_LowWave",
        "abilityName": "MonsterAffix_Activity_AkaFes_RockDamage_LowWave",
        "abilityOverride": ""
      }
    ]
  },
  "LevelEntity_Activity_V3_6_AkaFesCustomGrapplingHook": {
    "avatarAbilities": [
      {
        "abilityID": "",
        "abilityName": "AkaFesGrapplingHookSkill_Ability",
        "abilityOverride": ""
      }
    ]
  },
  "LevelEntity_Activity_AkaFes_Level_01": {
    "monsterAbilities": [
      {
        "abilityID": "MonsterAffix_Activity_AkaFes_Level_01",
        "abilityName": "MonsterAffix_Activity_AkaFes_Level_01",
        "abilityOverride": ""
      }
    ]
  },
  "LevelEntity_Activity_AkaFes_Level_02": {
    "monsterAbilities": [
      {
        "abilityID": "MonsterAffix_Activity_AkaFes_Level_02",
        "abilityName": "MonsterAffix_Activity_AkaFes_Level_02",
        "abilityOverride": ""
      }
    ]
  },
  "LevelEntity_Activity_AkaFes_Level_03": {
    "monsterAbilities": [
      {
        "abilityID": "MonsterAffix_Activity_AkaFes_Level_03",
        "abilityName": "MonsterAffix_Activity_AkaFes_Level_03",
        "abilityOverride": ""
      }
    ]
  },
  "LevelEntity_Activity_V3_6_AkaFesArchitect_Invincible": {
    "teamAbilities": [
      {
        "abilityID": "Activity_AkaFesArchitect_Invincible",
        "abilityName": "Activity_AkaFesArchitect_Invincible",
        "abilityOverride": ""
      }
    ]
  },
  "LevelEntity_WindChallenge_Buff_01": {
    "teamAbilities": [
      {
        "abilityID": "ActivityAbility_WindChallenge_Buff_01",
        "abilityName": "ActivityAbility_WindChallenge_Buff_01",
        "abilityOverride": ""
      }
    ]
  },
  "LevelEntity_WindChallenge_Buff_02": {
    "teamAbilities": [
      {
        "abilityID": "ActivityAbility_WindChallenge_Buff_02",
        "abilityName": "ActivityAbility_WindChallenge_Buff_02",
        "abilityOverride": ""
      }
    ]
  },
  "LevelEntity_WindChallenge_Buff_03": {
    "teamAbilities": [
      {
        "abilityID": "ActivityAbility_WindChallenge_Buff_03",
        "abilityName": "ActivityAbility_WindChallenge_Buff_03",
        "abilityOverride": ""
      }
    ]
  },
  "LevelEntity_WindChallenge_Buff_04": {
    "teamAbilities": [
      {
        "abilityID": "ActivityAbility_WindChallenge_Buff_04",
        "abilityName": "ActivityAbility_WindChallenge_Buff_04",
        "abilityOverride": ""
      }
    ]
  },
  "LevelEntity_WindChallenge_Buff_05": {
    "teamAbilities": [
      {
        "abilityID": "ActivityAbility_WindChallenge_Buff_05",
        "abilityName": "ActivityAbility_WindChallenge_Buff_05",
        "abilityOverride": ""
      }
    ]
  },
  "LevelEntity_WindChallenge_Buff_06": {
    "teamAbilities": [
      {
        "abilityID": "ActivityAbility_WindChallenge_Buff_06",
        "abilityName": "ActivityAbility_WindChallenge_Buff_06",
        "abilityOverride": ""
      }
    ]
  },
  "LevelEntity_WindChallenge_Buff_07": {
    "teamAbilities": [
      {
        "abilityID": "ActivityAbility_WindChallenge_Buff_07",
        "abilityName": "ActivityAbility_WindChallenge_Buff_07",
        "abilityOverride": ""
      }
    ]
  },
  "LevelEntity_WindChallenge_Buff_08": {
    "teamAbilities": [
      {
        "abilityID": "ActivityAbility_WindChallenge_Buff_08",
        "abilityName": "ActivityAbility_WindChallenge_Buff_08",
        "abilityOverride": ""
      }
    ]
  },
  "LevelEntity_WindChallenge_Buff_09": {
    "teamAbilities": [
      {
        "abilityID": "ActivityAbility_WindChallenge_Buff_09",
        "abilityName": "ActivityAbility_WindChallenge_Buff_09",
        "abilityOverride": ""
      }
    ]
  },
  "LevelEntity_WindChallenge_Buff_10": {
    "teamAbilities": [
      {
        "abilityID": "ActivityAbility_WindChallenge_Buff_10",
        "abilityName": "ActivityAbility_WindChallenge_Buff_10",
        "abilityOverride": ""
      }
    ]
  },
  "LevelEntity_WindChallenge_Buff_11": {
    "teamAbilities": [
      {
        "abilityID": "ActivityAbility_WindChallenge_Buff_11",
        "abilityName": "ActivityAbility_WindChallenge_Buff_11",
        "abilityOverride": ""
      }
    ]
  },
  "LevelEntity_BossChallengeV4_Monster_Common_FireSubHurt_01": {
    "monsterAbilities": [
      {
        "abilityID": "MonsterAffix_Activity_BossChallengeV4_FireSubHurt_01",
        "abilityName": "MonsterAffix_Activity_BossChallengeV4_FireSubHurt_01",
        "abilityOverride": ""
      }
    ]
  },
  "LevelEntity_BossChallengeV4_Monster_Common_FireSubHurt_02": {
    "monsterAbilities": [
      {
        "abilityID": "MonsterAffix_Activity_BossChallengeV4_FireSubHurt_02",
        "abilityName": "MonsterAffix_Activity_BossChallengeV4_FireSubHurt_02",
        "abilityOverride": ""
      }
    ]
  },
  "LevelEntity_BossChallengeV4_Monster_Common_FireSubHurt_03": {
    "monsterAbilities": [
      {
        "abilityID": "MonsterAffix_Activity_BossChallengeV4_FireSubHurt_03",
        "abilityName": "MonsterAffix_Activity_BossChallengeV4_FireSubHurt_03",
        "abilityOverride": ""
      }
    ]
  },
  "LevelEntity_BossChallengeV4_Monster_Common_IceSubHurt_01": {
    "monsterAbilities": [
      {
        "abilityID": "MonsterAffix_Activity_BossChallengeV4_IceSubHurt_01",
        "abilityName": "MonsterAffix_Activity_BossChallengeV4_IceSubHurt_01",
        "abilityOverride": ""
      }
    ]
  },
  "LevelEntity_BossChallengeV4_Monster_Common_IceSubHurt_02": {
    "monsterAbilities": [
      {
        "abilityID": "MonsterAffix_Activity_BossChallengeV4_IceSubHurt_02",
        "abilityName": "MonsterAffix_Activity_BossChallengeV4_IceSubHurt_02",
        "abilityOverride": ""
      }
    ]
  },
  "LevelEntity_BossChallengeV4_Monster_Common_IceSubHurt_03": {
    "monsterAbilities": [
      {
        "abilityID": "MonsterAffix_Activity_BossChallengeV4_IceSubHurt_03",
        "abilityName": "MonsterAffix_Activity_BossChallengeV4_IceSubHurt_03",
        "abilityOverride": ""
      }
    ]
  },
  "LevelEntity_BossChallengeV4_Monster_Common_GrassSubHurt_01": {
    "monsterAbilities": [
      {
        "abilityID": "MonsterAffix_Activity_BossChallengeV4_GrassSubHurt_01",
        "abilityName": "MonsterAffix_Activity_BossChallengeV4_GrassSubHurt_01",
        "abilityOverride": ""
      }
    ]
  },
  "LevelEntity_BossChallengeV4_Monster_Common_GrassSubHurt_02": {
    "monsterAbilities": [
      {
        "abilityID": "MonsterAffix_Activity_BossChallengeV4_GrassSubHurt_02",
        "abilityName": "MonsterAffix_Activity_BossChallengeV4_GrassSubHurt_02",
        "abilityOverride": ""
      }
    ]
  },
  "LevelEntity_BossChallengeV4_Monster_Common_GrassSubHurt_03": {
    "monsterAbilities": [
      {
        "abilityID": "MonsterAffix_Activity_BossChallengeV4_GrassSubHurt_03",
        "abilityName": "MonsterAffix_Activity_BossChallengeV4_GrassSubHurt_03",
        "abilityOverride": ""
      }
    ]
  },
  "LevelEntity_BossChallengeV4_Monster_Common_ElectricSubHurt_01": {
    "monsterAbilities": [
      {
        "abilityID": "MonsterAffix_Activity_BossChallengeV4_ElectricSubHurt_01",
        "abilityName": "MonsterAffix_Activity_BossChallengeV4_ElectricSubHurt_01",
        "abilityOverride": ""
      }
    ]
  },
  "LevelEntity_BossChallengeV4_Monster_Common_ElectricSubHurt_02": {
    "monsterAbilities": [
      {
        "abilityID": "MonsterAffix_Activity_BossChallengeV4_ElectricSubHurt_02",
        "abilityName": "MonsterAffix_Activity_BossChallengeV4_ElectricSubHurt_02",
        "abilityOverride": ""
      }
    ]
  },
  "LevelEntity_BossChallengeV4_Monster_Common_ElectricSubHurt_03": {
    "monsterAbilities": [
      {
        "abilityID": "MonsterAffix_Activity_BossChallengeV4_ElectricSubHurt_03",
        "abilityName": "MonsterAffix_Activity_BossChallengeV4_ElectricSubHurt_03",
        "abilityOverride": ""
      }
    ]
  },
  "LevelEntity_BossChallengeV4_Monster_Common_WaterSubHurt_01": {
    "monsterAbilities": [
      {
        "abilityID": "MonsterAffix_Activity_BossChallengeV4_WaterSubHurt_01",
        "abilityName": "MonsterAffix_Activity_BossChallengeV4_WaterSubHurt_01",
        "abilityOverride": ""
      }
    ]
  },
  "LevelEntity_BossChallengeV4_Monster_Common_WaterSubHurt_02": {
    "monsterAbilities": [
      {
        "abilityID": "MonsterAffix_Activity_BossChallengeV4_WaterSubHurt_02",
        "abilityName": "MonsterAffix_Activity_BossChallengeV4_WaterSubHurt_02",
        "abilityOverride": ""
      }
    ]
  },
  "LevelEntity_BossChallengeV4_Monster_Common_WaterSubHurt_03": {
    "monsterAbilities": [
      {
        "abilityID": "MonsterAffix_Activity_BossChallengeV4_WaterSubHurt_03",
        "abilityName": "MonsterAffix_Activity_BossChallengeV4_WaterSubHurt_03",
        "abilityOverride": ""
      }
    ]
  },
  "LevelEntity_BossChallengeV4_Monster_Common_WindSubHurt_01": {
    "monsterAbilities": [
      {
        "abilityID": "MonsterAffix_Activity_BossChallengeV4_WindSubHurt_01",
        "abilityName": "MonsterAffix_Activity_BossChallengeV4_WindSubHurt_01",
        "abilityOverride": ""
      }
    ]
  },
  "LevelEntity_BossChallengeV4_Monster_Common_WindSubHurt_02": {
    "monsterAbilities": [
      {
        "abilityID": "MonsterAffix_Activity_BossChallengeV4_WindSubHurt_02",
        "abilityName": "MonsterAffix_Activity_BossChallengeV4_WindSubHurt_02",
        "abilityOverride": ""
      }
    ]
  },
  "LevelEntity_BossChallengeV4_Monster_Common_WindSubHurt_03": {
    "monsterAbilities": [
      {
        "abilityID": "MonsterAffix_Activity_BossChallengeV4_WindSubHurt_03",
        "abilityName": "MonsterAffix_Activity_BossChallengeV4_WindSubHurt_03",
        "abilityOverride": ""
      }
    ]
  },
  "LevelEntity_BossChallengeV4_Monster_Common_RockSubHurt_01": {
    "monsterAbilities": [
      {
        "abilityID": "MonsterAffix_Activity_BossChallengeV4_RockSubHurt_01",
        "abilityName": "MonsterAffix_Activity_BossChallengeV4_RockSubHurt_01",
        "abilityOverride": ""
      }
    ]
  },
  "LevelEntity_BossChallengeV4_Monster_Common_RockSubHurt_02": {
    "monsterAbilities": [
      {
        "abilityID": "MonsterAffix_Activity_BossChallengeV4_RockSubHurt_02",
        "abilityName": "MonsterAffix_Activity_BossChallengeV4_RockSubHurt_02",
        "abilityOverride": ""
      }
    ]
  },
  "LevelEntity_BossChallengeV4_Monster_Common_RockSubHurt_03": {
    "monsterAbilities": [
      {
        "abilityID": "MonsterAffix_Activity_BossChallengeV4_RockSubHurt_03",
        "abilityName": "MonsterAffix_Activity_BossChallengeV4_RockSubHurt_03",
        "abilityOverride": ""
      }
    ]
  },
  "LevelEntity_BossChallengeV4_Monster_Raijin_Buff_01": {
    "monsterAbilities": [
      {
        "abilityID": "MonsterAffix_Activity_BossChallengeV4_Monster_Raijin_Buff_01",
        "abilityName": "MonsterAffix_Activity_BossChallengeV4_Monster_Raijin_Buff_01",
        "abilityOverride": ""
      }
    ]
  },
  "LevelEntity_BossChallengeV4_Monster_Raijin_Buff_02": {
    "monsterAbilities": [
      {
        "abilityID": "MonsterAffix_Activity_BossChallengeV4_Monster_Raijin_Buff_02",
        "abilityName": "MonsterAffix_Activity_BossChallengeV4_Monster_Raijin_Buff_02",
        "abilityOverride": ""
      }
    ]
  },
  "LevelEntity_BossChallengeV4_Monster_Raijin_Buff_03": {
    "monsterAbilities": [
      {
        "abilityID": "MonsterAffix_Activity_BossChallengeV4_Monster_Raijin_Buff_03",
        "abilityName": "MonsterAffix_Activity_BossChallengeV4_Monster_Raijin_Buff_03",
        "abilityOverride": ""
      }
    ]
  },
  "LevelEntity_BossChallengeV4_Monster_Gargoyle_Fafnir_Buff_01": {
    "monsterAbilities": [
      {
        "abilityID": "MonsterAffix_Activity_BossChallengeV4_Monster_Gargoyle_Fafnir_Buff_01",
        "abilityName": "MonsterAffix_Activity_BossChallengeV4_Monster_Gargoyle_Fafnir_Buff_01",
        "abilityOverride": ""
      }
    ]
  },
  "LevelEntity_BossChallengeV4_Monster_Gargoyle_Fafnir_Buff_02": {
    "monsterAbilities": [
      {
        "abilityID": "MonsterAffix_Activity_BossChallengeV4_Monster_Gargoyle_Fafnir_Buff_02",
        "abilityName": "MonsterAffix_Activity_BossChallengeV4_Monster_Gargoyle_Fafnir_Buff_02",
        "abilityOverride": ""
      }
    ]
  },
  "LevelEntity_BossChallengeV4_Monster_Gargoyle_Fafnir_Buff_03": {
    "monsterAbilities": [
      {
        "abilityID": "MonsterAffix_Activity_BossChallengeV4_Monster_Gargoyle_Fafnir_Buff_03",
        "abilityName": "MonsterAffix_Activity_BossChallengeV4_Monster_Gargoyle_Fafnir_Buff_03",
        "abilityOverride": ""
      }
    ]
  },
  "LevelEntity_BossChallengeV4_Monster_Drake_Buff_01": {
    "monsterAbilities": [
      {
        "abilityID": "MonsterAffix_Activity_BossChallengeV4_Monster_Drake_Buff_02",
        "abilityName": "MonsterAffix_Activity_BossChallengeV4_Monster_Drake_Buff_02",
        "abilityOverride": ""
      }
    ]
  },
  "LevelEntity_BossChallengeV4_Monster_Drake_Buff_02": {
    "monsterAbilities": [
      {
        "abilityID": "MonsterAffix_Activity_BossChallengeV4_Monster_Drake_Buff_01",
        "abilityName": "MonsterAffix_Activity_BossChallengeV4_Monster_Drake_Buff_01",
        "abilityOverride": ""
      }
    ]
  },
  "LevelEntity_BossChallengeV4_Monster_Drake_Buff_03": {
    "monsterAbilities": [
      {
        "abilityID": "MonsterAffix_Activity_BossChallengeV4_Monster_Drake_Buff_03",
        "abilityName": "MonsterAffix_Activity_BossChallengeV4_Monster_Drake_Buff_03",
        "abilityOverride": ""
      }
    ]
  },
  "LevelEntity_BossChallengeV4_Monster_Common_AttackUp_01": {
    "monsterAbilities": [
      {
        "abilityID": "MonsterAffix_Activity_BossChallengeV4_Monster_Common_AttackUp_01",
        "abilityName": "MonsterAffix_Activity_BossChallengeV4_Monster_Common_AttackUp_01",
        "abilityOverride": ""
      }
    ]
  },
  "LevelEntity_BossChallengeV4_Monster_Common_AttackUp_02": {
    "monsterAbilities": [
      {
        "abilityID": "MonsterAffix_Activity_BossChallengeV4_Monster_Common_AttackUp_02",
        "abilityName": "MonsterAffix_Activity_BossChallengeV4_Monster_Common_AttackUp_02",
        "abilityOverride": ""
      }
    ]
  },
  "LevelEntity_BossChallengeV4_Monster_Common_AttackUp_03": {
    "monsterAbilities": [
      {
        "abilityID": "MonsterAffix_Activity_BossChallengeV4_Monster_Common_AttackUp_03",
        "abilityName": "MonsterAffix_Activity_BossChallengeV4_Monster_Common_AttackUp_03",
        "abilityOverride": ""
      }
    ]
  },
  "LevelEntity_BossChallengeV4_Monster_Common_HpUp_01": {
    "monsterAbilities": [
      {
        "abilityID": "MonsterAffix_Activity_BossChallengeV4_Monster_Common_HpUp_01",
        "abilityName": "MonsterAffix_Activity_BossChallengeV4_Monster_Common_HpUp_01",
        "abilityOverride": ""
      }
    ]
  },
  "LevelEntity_BossChallengeV4_Monster_Common_HpUp_02": {
    "monsterAbilities": [
      {
        "abilityID": "MonsterAffix_Activity_BossChallengeV4_Monster_Common_HpUp_02",
        "abilityName": "MonsterAffix_Activity_BossChallengeV4_Monster_Common_HpUp_02",
        "abilityOverride": ""
      }
    ]
  },
  "LevelEntity_BossChallengeV4_Monster_Common_HpUp_03": {
    "monsterAbilities": [
      {
        "abilityID": "MonsterAffix_Activity_BossChallengeV4_Monster_Common_HpUp_03",
        "abilityName": "MonsterAffix_Activity_BossChallengeV4_Monster_Common_HpUp_03",
        "abilityOverride": ""
      }
    ]
  },
  "LevelEntity_Activity_Bladedance_BanItem": {
    "teamAbilities": [
      {
        "abilityID": "Activity_Bladedance_BanItem_TeamAbility",
        "abilityName": "Activity_Bladedance_BanItem_TeamAbility",
        "abilityOverride": ""
      }
    ]
  },
  "LevelEntity_Activity_FilmfestSniper": {
    "avatarAbilities": [
      {
        "abilityID": "",
        "abilityName": "Activity_FilmfestSniper_AvatarAbility",
        "abilityOverride": ""
      }
    ]
  },
  "LevelEntity_Activity_FilmfestBallGame": {
    "teamAbilities": [
      {
        "abilityID": "",
        "abilityName": "Activity_FilmfestBallGame_TeamAbility",
        "abilityOverride": ""
      },
      {
        "abilityID": "",
        "abilityName": "Activity_FilmfestBallGame_TeamAbility_PlayerMark_01",
        "abilityOverride": ""
      }
    ]
  },
  "LevelEntity_Activity_FilmfestBallGame_02": {
    "teamAbilities": [
      {
        "abilityID": "",
        "abilityName": "Activity_FilmfestBallGame_TeamAbility",
        "abilityOverride": ""
      },
      {
        "abilityID": "",
        "abilityName": "Activity_FilmfestBallGame_TeamAbility_PlayerMark_02",
        "abilityOverride": ""
      }
    ]
  },
  "LevelEntity_Activity_FilmfestBallGame_03": {
    "teamAbilities": [
      {
        "abilityID": "",
        "abilityName": "Activity_FilmfestBallGame_TeamAbility",
        "abilityOverride": ""
      },
      {
        "abilityID": "",
        "abilityName": "Activity_FilmfestBallGame_TeamAbility_PlayerMark_03",
        "abilityOverride": ""
      }
    ]
  },
  "LevelEntity_Activity_FilmfestBallGame_04": {
    "teamAbilities": [
      {
        "abilityID": "",
        "abilityName": "Activity_FilmfestBallGame_TeamAbility",
        "abilityOverride": ""
      },
      {
        "abilityID": "",
        "abilityName": "Activity_FilmfestBallGame_TeamAbility_PlayerMark_04",
        "abilityOverride": ""
      }
    ]
  },
  "LevelEntity_Activity_FilmfestBallGame_05": {
    "teamAbilities": [
      {
        "abilityID": "",
        "abilityName": "Activity_FilmfestBallGame_TeamAbility",
        "abilityOverride": ""
      },
      {
        "abilityID": "",
        "abilityName": "Activity_FilmfestBallGame_TeamAbility_PlayerMark_05",
        "abilityOverride": ""
      }
    ]
  },
  "LevelEntity_Activity_LostSamachurl": {
    "avatarAbilities": [
      {
        "abilityID": "",
        "abilityName": "LostSamachurl_Skill_Ability",
        "abilityOverride": ""
      }
    ],
    "teamAbilities": [
      {
        "abilityID": "",
        "abilityName": "LostSamachurl_Level_Button_Down",
        "abilityOverride": ""
      }
    ],
    "FJMPAABAENP": true
  },
  "LevelEntity_Activity_LanternRite_PartyLion_CoinBattle": {
    "avatarAbilities": [
      {
        "abilityID": "",
        "abilityName": "ActivityAbility_LanternRite_DisturbSkill_SwitchSkill",
        "abilityOverride": ""
      },
      {
        "abilityID": "",
        "abilityName": "Activity_LanternRite_DisturbSkill",
        "abilityOverride": ""
      }
    ],
    "teamAbilities": [
      {
        "abilityID": "",
        "abilityName": "ActivityAbility_LanternRite_BillBoardHandler_01",
        "abilityOverride": ""
      },
      {
        "abilityID": "",
        "abilityName": "ActivityAbility_LanternRite_IndicatorHandler_01",
        "abilityOverride": ""
      },
      {
        "abilityID": "",
        "abilityName": "Activity_LanternRite_TorrentForbid",
        "abilityOverride": ""
      },
      {
        "abilityID": "",
        "abilityName": "Activity_LanternRite_EndlessStamina",
        "abilityOverride": ""
      }
    ]
  },
  "LevelEntity_Activity_LanternRite_PartyLion_Crown": {
    "avatarAbilities": [
      {
        "abilityID": "",
        "abilityName": "ActivityAbility_LanternRite_DisturbSkill_SwitchSkill_02",
        "abilityOverride": ""
      },
      {
        "abilityID": "",
        "abilityName": "Activity_LanternRite_DisturbSkill_02",
        "abilityOverride": ""
      }
    ],
    "teamAbilities": [
      {
        "abilityID": "",
        "abilityName": "ActivityAbility_LanternRite_BillBoardHandler_02",
        "abilityOverride": ""
      },
      {
        "abilityID": "",
        "abilityName": "ActivityAbility_LanternRite_IndicatorHandler_01",
        "abilityOverride": ""
      },
      {
        "abilityID": "",
        "abilityName": "Activity_LanternRite_TorrentForbid",
        "abilityOverride": ""
      },
      {
        "abilityID": "",
        "abilityName": "Activity_LanternRite_EndlessStamina",
        "abilityOverride": ""
      }
    ]
  },
  "LevelEntity_Activity_SlimeCannon": {
    "avatarAbilities": [
      {
        "abilityID": "",
        "abilityName": "ActivityAbility_Avatar_SlimeBall_Shoot_01",
        "abilityOverride": ""
      },
      {
        "abilityID": "",
        "abilityName": "ActivityAbility_Avatar_SlimeBall_Shoot_02",
        "abilityOverride": ""
      },
      {
        "abilityID": "",
        "abilityName": "ActivityAbility_Avatar_SlimeBall",
        "abilityOverride": ""
      }
    ],
    "monsterAbilities": [
      {
        "abilityID": "",
        "abilityName": "ActivityAbility_Monster_HPLose",
        "abilityOverride": ""
      }
    ]
  },
  "LevelEntity_Activity_LanternRite_PartyLion_Survival": {
    "avatarAbilities": [
      {
        "abilityID": "",
        "abilityName": "ActivityAbility_LanternRite_DisturbSkill_SwitchSkill_03",
        "abilityOverride": ""
      },
      {
        "abilityID": "",
        "abilityName": "Activity_LanternRite_DisturbSkill_03",
        "abilityOverride": ""
      }
    ],
    "teamAbilities": [
      {
        "abilityID": "",
        "abilityName": "ActivityAbility_LanternRite_BillBoardHandler_03",
        "abilityOverride": ""
      },
      {
        "abilityID": "",
        "abilityName": "ActivityAbility_LanternRite_IndicatorHandler_01",
        "abilityOverride": ""
      },
      {
        "abilityID": "",
        "abilityName": "Activity_LanternRite_TorrentForbid",
        "abilityOverride": ""
      },
      {
        "abilityID": "",
        "abilityName": "Activity_LanternRite_EndlessStamina",
        "abilityOverride": ""
      }
    ]
  },
  "LevelEntity_Activity_V4_1_BoxMatch_20189": {
    "avatarAbilities": [
      {
        "abilityID": "",
        "abilityName": "Avatar_BoxMatch_ClearAvatar",
        "abilityOverride": ""
      }
    ],
    "teamAbilities": [
      {
        "abilityID": "",
        "abilityName": "ActivityAbility_V4_1_BoxMatch_20189",
        "abilityOverride": ""
      }
    ]
  },
  "LevelEntity_Activity_V4_1_BoxMatch_20191": {
    "avatarAbilities": [
      {
        "abilityID": "",
        "abilityName": "Avatar_BoxMatch_ClearAvatar",
        "abilityOverride": ""
      }
    ],
    "teamAbilities": [
      {
        "abilityID": "",
        "abilityName": "ActivityAbility_V4_1_BoxMatch_20191",
        "abilityOverride": ""
      }
    ]
  },
  "LevelEntity_Activity_V4_1_BoxMatch_20192": {
    "avatarAbilities": [
      {
        "abilityID": "",
        "abilityName": "Avatar_BoxMatch_ClearAvatar",
        "abilityOverride": ""
      }
    ],
    "teamAbilities": [
      {
        "abilityID": "",
        "abilityName": "ActivityAbility_V4_1_BoxMatch_20192",
        "abilityOverride": ""
      }
    ]
  },
  "LevelEntity_Activity_V4_1_BoxMatch_20193": {
    "avatarAbilities": [
      {
        "abilityID": "",
        "abilityName": "Avatar_BoxMatch_ClearAvatar",
        "abilityOverride": ""
      }
    ],
    "teamAbilities": [
      {
        "abilityID": "",
        "abilityName": "ActivityAbility_V4_1_BoxMatch_20193",
        "abilityOverride": ""
      }
    ]
  },
  "LevelEntity_Activity_V4_1_BoxMatch_20194": {
    "avatarAbilities": [
      {
        "abilityID": "",
        "abilityName": "Avatar_BoxMatch_ClearAvatar",
        "abilityOverride": ""
      }
    ],
    "teamAbilities": [
      {
        "abilityID": "",
        "abilityName": "ActivityAbility_V4_1_BoxMatch_20194",
        "abilityOverride": ""
      }
    ]
  },
  "LevelEntity_Activity_V4_1_BoxMatch": {
    "avatarAbilities": [
      {
        "abilityID": "",
        "abilityName": "Avatar_BoxMatch_ClearAvatar",
        "abilityOverride": ""
      }
    ],
    "teamAbilities": [
      {
        "abilityID": "",
        "abilityName": "ActivityAbility_V4_1_BoxMatch",
        "abilityOverride": ""
      }
    ]
  }
}