{
  "luaDataPath": "",
  "isSimpleTalk": true,
  "entityBan": "",
  "disableNpcLod": true,
  "protectNpcMobileLod": true,
  "talkFlag": 5,
  "startFade": {
    "startFadeOutDuration": 0.0
  },
  "endFade": {
    "startFadeOutDuration": 0.0
  },
  "actors": [
    {
      "alias": "Avatar",
      "visible": true,
      "bornPointName": "",
      "relativePosType": "AVATAR_NEW",
      "relativePosNpcAlias": "",
      "_bindMovingTargetKey": ""
    },
    {
      "configID": 21022,
      "alias": "21022",
      "visible": true,
      "bornPointName": "",
      "relativePosType": "AVATAR_NEW",
      "relativePosNpcAlias": "",
      "_bindMovingTargetKey": ""
    },
    {
      "configID": 1005,
      "alias": "1005",
      "visible": true,
      "bornPointName": "",
      "useRelativePos": true,
      "relativePos": {
        "x": -0.5,
        "y": 0.5
      },
      "removeActorType": "NEW_REMOVE_WITH_DISAPPEAR",
      "relativePosType": "AVATAR_NEW",
      "relativePosNpcAlias": "",
      "_bindMovingTargetKey": ""
    }
  ],
  "group": [
    [
      {
        "$type": "EFHODGEJOHJ",
        "type": "CAMERA_FOCUS",
        "duration": 0.10000000149011612,
        "actionId": 103,
        "targetNpcAlias": "",
        "PHGBNNGCJKJ": "",
        "NFILMKCFHEB": "",
        "BGPNGHDAECF": ""
      },
      {
        "$type": "MoleMole.Config.ConfigTimeProtectAction",
        "type": "TIME_PROTECT",
        "duration": 0.10000000149011612,
        "actionId": 104
      },
      {
        "$type": "IEKHMHNHENB",
        "type": "STEER_TO",
        "delayTime": 0.30000001192092896,
        "duration": 0.800000011920929,
        "aliasList": [
          "Avatar"
        ],
        "actionId": 169,
        "_flag": 32,
        "steerType": "TO_TARGET_ADVANCED",
        "useSteerAnim": true,
        "interruptFreestyle": true,
        "forceSteer": true,
        "targetNpcAlias": "21022",
        "fixInterNull": true,
        "BHGPHGNFCBF": ""
      },
      {
        "$type": "IEKHMHNHENB",
        "type": "STEER_TO",
        "delayTime": 0.30000001192092896,
        "duration": 0.800000011920929,
        "aliasList": [
          "21022"
        ],
        "actionId": 170,
        "_flag": 32,
        "steerType": "TO_LOCAL_AVATAR_ADVANCED",
        "useSteerAnim": true,
        "interruptFreestyle": true,
        "forceSteer": true,
        "targetNpcAlias": "",
        "fixInterNull": true,
        "BHGPHGNFCBF": ""
      },
      {
        "$type": "NPCNMEOCADD",
        "type": "LOOK_AT",
        "delayTime": 0.31700000166893005,
        "aliasList": [
          "Avatar"
        ],
        "actionId": 174,
        "_flag": 64,
        "enableHead": true,
        "useTargetPos": true,
        "enableAbsolute": true,
        "targetPosition": {
          "x": 410.6700134277344,
          "y": 382.9700012207031,
          "z": -202.25999450683594
        },
        "headTurnTime": 0.5,
        "targetNpcAlias": "",
        "lookAtTargetType": "NONE",
        "openBackProtect": true,
        "backProtectAngle": 60.0,
        "targetNpcLookAtPoint": "",
        "BHGPHGNFCBF": ""
      }
    ],
    [
      {
        "$type": "MJFAIFFAGOF",
        "type": "DIALOG",
        "aliasList": [
          "21022"
        ],
        "actionId": 107,
        "dialogID": 790570301,
        "protectTime": 0.5
      },
      {
        "$type": "OBCDECFOOBC",
        "type": "DIALOG_SELECT",
        "delayTime": 0.4000000059604645,
        "aliasList": [
          "Avatar"
        ],
        "actionId": 108,
        "dialogIDList": [
          790570302,
          790570333
        ],
        "grpIDList": [
          1877796265,
          2377109415
        ],
        "useGrpId": true,
        "countDownGrpId": 1877796262
      }
    ],
    [
      {
        "$type": "MJFAIFFAGOF",
        "type": "DIALOG",
        "aliasList": [
          "1005"
        ],
        "actionId": 110,
        "dialogID": 790570303,
        "protectTime": 0.5
      }
    ],
    [
      {
        "$type": "MJFAIFFAGOF",
        "type": "DIALOG",
        "aliasList": [
          "21022"
        ],
        "actionId": 112,
        "dialogID": 790570335,
        "protectTime": 0.5
      }
    ],
    [
      {
        "$type": "MJFAIFFAGOF",
        "type": "DIALOG",
        "aliasList": [
          "1005"
        ],
        "actionId": 114,
        "dialogID": 790570304,
        "protectTime": 0.5
      },
      {
        "$type": "OBCDECFOOBC",
        "type": "DIALOG_SELECT",
        "delayTime": 0.4000000059604645,
        "aliasList": [
          "Avatar"
        ],
        "actionId": 115,
        "dialogIDList": [
          790570305,
          790570306
        ],
        "grpIDList": [
          1877796268,
          1877796268
        ],
        "useGrpId": true,
        "countDownGrpId": 1877796262
      }
    ],
    [
      {
        "$type": "MJFAIFFAGOF",
        "type": "DIALOG",
        "aliasList": [
          "21022"
        ],
        "actionId": 117,
        "dialogID": 790570307,
        "protectTime": 1.5
      },
      {
        "$type": "MoleMole.Config.ConfigSpawnAttachInterAction",
        "type": "SPAWN_ATTACH",
        "aliasList": [
          "21022"
        ],
        "actionId": 172,
        "attachName": "Talk_7905703_172",
        "_attachSetting": {
          "JFBMPGBPEDN": "Fx_HeadNode",
          "attachPath": "ART/Effect/Skill/Monster/Monster_Necalevia/Eff_Monster_Necalevia_Small_Emote_Happy",
          "effectPath": "",
          "attachPos": {
            "y": -1.409999966621399
          }
        }
      },
      {
        "$type": "MoleMole.Config.ConfigSpawnAttachInterAction",
        "type": "SPAWN_ATTACH",
        "delayTime": 1.1419999599456787,
        "aliasList": [
          "21022"
        ],
        "actionId": 173,
        "isRemove": true,
        "attachName": "Talk_7905703_172",
        "_attachSetting": {
          "JFBMPGBPEDN": "",
          "attachPath": "",
          "effectPath": ""
        }
      }
    ],
    [
      {
        "$type": "MJFAIFFAGOF",
        "type": "DIALOG",
        "aliasList": [
          "21022"
        ],
        "actionId": 119,
        "dialogID": 790570308,
        "protectTime": 0.5
      }
    ],
    [
      {
        "$type": "MJFAIFFAGOF",
        "type": "DIALOG",
        "aliasList": [
          "21022"
        ],
        "actionId": 121,
        "dialogID": 790570309,
        "protectTime": 0.5
      }
    ],
    [
      {
        "$type": "MJFAIFFAGOF",
        "type": "DIALOG",
        "aliasList": [
          "21022"
        ],
        "actionId": 123,
        "dialogID": 790570310,
        "protectTime": 0.5
      }
    ],
    [
      {
        "$type": "MJFAIFFAGOF",
        "type": "DIALOG",
        "aliasList": [
          "21022"
        ],
        "actionId": 125,
        "dialogID": 790570311,
        "protectTime": 0.5
      }
    ],
    [
      {
        "$type": "MJFAIFFAGOF",
        "type": "DIALOG",
        "aliasList": [
          "1005"
        ],
        "actionId": 127,
        "dialogID": 790570312,
        "protectTime": 0.5
      }
    ],
    [
      {
        "$type": "MJFAIFFAGOF",
        "type": "DIALOG",
        "aliasList": [
          "21022"
        ],
        "actionId": 129,
        "dialogID": 790570313,
        "protectTime": 0.5
      }
    ],
    [
      {
        "$type": "MJFAIFFAGOF",
        "type": "DIALOG",
        "aliasList": [
          "21022"
        ],
        "actionId": 131,
        "dialogID": 790570314,
        "protectTime": 0.5
      }
    ],
    [
      {
        "$type": "MJFAIFFAGOF",
        "type": "DIALOG",
        "aliasList": [
          "21022"
        ],
        "actionId": 133,
        "dialogID": 790570315,
        "protectTime": 0.5
      }
    ],
    [
      {
        "$type": "MJFAIFFAGOF",
        "type": "DIALOG",
        "aliasList": [
          "21022"
        ],
        "actionId": 135,
        "dialogID": 790570316,
        "protectTime": 0.5
      }
    ],
    [
      {
        "$type": "MJFAIFFAGOF",
        "type": "DIALOG",
        "aliasList": [
          "21022"
        ],
        "actionId": 137,
        "dialogID": 790570317,
        "protectTime": 0.5
      }
    ],
    [
      {
        "$type": "MJFAIFFAGOF",
        "type": "DIALOG",
        "aliasList": [
          "1005"
        ],
        "actionId": 139,
        "dialogID": 790570318,
        "protectTime": 0.5
      }
    ],
    [
      {
        "$type": "MJFAIFFAGOF",
        "type": "DIALOG",
        "aliasList": [
          "1005"
        ],
        "actionId": 141,
        "dialogID": 790570319,
        "protectTime": 0.5
      }
    ],
    [
      {
        "$type": "MJFAIFFAGOF",
        "type": "DIALOG",
        "aliasList": [
          "21022"
        ],
        "actionId": 143,
        "dialogID": 790570320,
        "protectTime": 0.5
      }
    ],
    [
      {
        "$type": "MJFAIFFAGOF",
        "type": "DIALOG",
        "aliasList": [
          "21022"
        ],
        "actionId": 145,
        "dialogID": 790570321,
        "protectTime": 0.5
      }
    ],
    [
      {
        "$type": "MJFAIFFAGOF",
        "type": "DIALOG",
        "aliasList": [
          "1005"
        ],
        "actionId": 147,
        "dialogID": 790570322,
        "protectTime": 0.5
      },
      {
        "$type": "OBCDECFOOBC",
        "type": "DIALOG_SELECT",
        "delayTime": 0.4000000059604645,
        "aliasList": [
          "Avatar"
        ],
        "actionId": 148,
        "dialogIDList": [
          790570323,
          790570324
        ],
        "grpIDList": [
          2377109386,
          2377109386
        ],
        "useGrpId": true,
        "countDownGrpId": 1877796262
      }
    ],
    [
      {
        "$type": "MJFAIFFAGOF",
        "type": "DIALOG",
        "aliasList": [
          "21022"
        ],
        "actionId": 150,
        "dialogID": 790570325,
        "protectTime": 0.5
      }
    ],
    [
      {
        "$type": "MJFAIFFAGOF",
        "type": "DIALOG",
        "aliasList": [
          "21022"
        ],
        "actionId": 152,
        "dialogID": 790570326,
        "protectTime": 0.5
      }
    ],
    [
      {
        "$type": "MJFAIFFAGOF",
        "type": "DIALOG",
        "aliasList": [
          "21022"
        ],
        "actionId": 154,
        "dialogID": 790570327,
        "protectTime": 0.5
      }
    ],
    [
      {
        "$type": "MJFAIFFAGOF",
        "type": "DIALOG",
        "aliasList": [
          "21022"
        ],
        "actionId": 156,
        "dialogID": 790570328,
        "protectTime": 0.5
      }
    ],
    [
      {
        "$type": "MJFAIFFAGOF",
        "type": "DIALOG",
        "aliasList": [
          "1005"
        ],
        "actionId": 158,
        "dialogID": 790570329,
        "protectTime": 0.5
      }
    ],
    [
      {
        "$type": "MJFAIFFAGOF",
        "type": "DIALOG",
        "aliasList": [
          "1005"
        ],
        "actionId": 160,
        "dialogID": 790570330,
        "protectTime": 0.5
      }
    ],
    [
      {
        "$type": "MJFAIFFAGOF",
        "type": "DIALOG",
        "aliasList": [
          "21022"
        ],
        "actionId": 162,
        "dialogID": 790570331,
        "protectTime": 0.5
      }
    ],
    [
      {
        "$type": "MJFAIFFAGOF",
        "type": "DIALOG",
        "aliasList": [
          "21022"
        ],
        "actionId": 164,
        "dialogID": 790570332,
        "protectTime": 0.5
      }
    ],
    [
      {
        "$type": "MJFAIFFAGOF",
        "type": "DIALOG",
        "aliasList": [
          "21022"
        ],
        "actionId": 166,
        "dialogID": 790570334,
        "protectTime": 0.5
      }
    ],
    [
      {
        "$type": "MoleMole.Config.ConfigTimeProtectAction",
        "type": "TIME_PROTECT",
        "duration": 0.10000000149011612,
        "actionId": 168
      }
    ],
    [
      {
        "$type": "MoleMole.Config.ConfigTimeProtectAction",
        "type": "TIME_PROTECT",
        "duration": 0.10000000149011612,
        "actionId": 105
      },
      {
        "$type": "IEKHMHNHENB",
        "type": "STEER_TO",
        "duration": 1.0,
        "aliasList": [
          "21022"
        ],
        "actionId": 171,
        "_flag": 32,
        "steerType": "RETURN",
        "useSteerAnim": true,
        "interruptFreestyle": true,
        "forceSteer": true,
        "targetNpcAlias": "",
        "ignoreY": true,
        "fixInterNull": true,
        "BHGPHGNFCBF": ""
      }
    ]
  ],
  "groupId": [
    {
      "grpId": 1877796263,
      "nextGrpId": 1877796264
    },
    {
      "index": 1,
      "grpId": 1877796264,
      "nextGrpId": 1877796265
    },
    {
      "index": 2,
      "grpId": 1877796265,
      "nextGrpId": 1877796266
    },
    {
      "index": 3,
      "grpId": 1877796266,
      "nextGrpId": 1877796267
    },
    {
      "index": 4,
      "grpId": 1877796267,
      "nextGrpId": 1877796268
    },
    {
      "index": 5,
      "grpId": 1877796268,
      "nextGrpId": 1877796269
    },
    {
      "index": 6,
      "grpId": 1877796269,
      "nextGrpId": 1877796270
    },
    {
      "index": 7,
      "grpId": 1877796270,
      "nextGrpId": 1877796271
    },
    {
      "index": 8,
      "grpId": 1877796271,
      "nextGrpId": 2377109353
    },
    {
      "index": 9,
      "grpId": 2377109353,
      "nextGrpId": 2377109354
    },
    {
      "index": 10,
      "grpId": 2377109354,
      "nextGrpId": 2377109355
    },
    {
      "index": 11,
      "grpId": 2377109355,
      "nextGrpId": 2377109356
    },
    {
      "index": 12,
      "grpId": 2377109356,
      "nextGrpId": 2377109357
    },
    {
      "index": 13,
      "grpId": 2377109357,
      "nextGrpId": 2377109358
    },
    {
      "index": 14,
      "grpId": 2377109358,
      "nextGrpId": 2377109359
    },
    {
      "index": 15,
      "grpId": 2377109359,
      "nextGrpId": 2377109360
    },
    {
      "index": 16,
      "grpId": 2377109360,
      "nextGrpId": 2377109361
    },
    {
      "index": 17,
      "grpId": 2377109361,
      "nextGrpId": 2377109362
    },
    {
      "index": 18,
      "grpId": 2377109362,
      "nextGrpId": 2377109384
    },
    {
      "index": 19,
      "grpId": 2377109384,
      "nextGrpId": 2377109385
    },
    {
      "index": 20,
      "grpId": 2377109385,
      "nextGrpId": 2377109386
    },
    {
      "index": 21,
      "grpId": 2377109386,
      "nextGrpId": 2377109387
    },
    {
      "index": 22,
      "grpId": 2377109387,
      "nextGrpId": 2377109388
    },
    {
      "index": 23,
      "grpId": 2377109388,
      "nextGrpId": 2377109389
    },
    {
      "index": 24,
      "grpId": 2377109389,
      "nextGrpId": 2377109390
    },
    {
      "index": 25,
      "grpId": 2377109390,
      "nextGrpId": 2377109391
    },
    {
      "index": 26,
      "grpId": 2377109391,
      "nextGrpId": 2377109392
    },
    {
      "index": 27,
      "grpId": 2377109392,
      "nextGrpId": 2377109393
    },
    {
      "index": 28,
      "grpId": 2377109393,
      "nextGrpId": 2377109416
    },
    {
      "index": 29,
      "grpId": 2377109415,
      "nextGrpId": 2377109416
    },
    {
      "index": 30,
      "grpId": 2377109416,
      "nextGrpId": 2377109417
    },
    {
      "index": 31,
      "grpId": 2377109417,
      "nextGrpId": 2377109418
    }
  ]
}