{
  "037d1bf6-53e8-476f-a495-77f250444b90": {
    "guid": "037d1bf6-53e8-476f-a495-77f250444b90",
    "playRate": 1.0,
    "gameTrigger": "Dialog",
    "gameTriggerArgs": 140340122,
    "personalConfig": 2,
    "parentID": "d6149c46-fcb0-4197-a726-d524cf6b1292",
    "sourceNames": [
      {
        "sourceFileName": "VO_LQ\\VO_npc\\vo_CLLQ004_1_florian_09.wem",
        "rate": 1.0,
        "avatarName": "",
        "emotion": ""
      }
    ]
  },
  "28f44c5b-ce79-48ff-b8c0-1eed5c983f70": {
    "guid": "28f44c5b-ce79-48ff-b8c0-1eed5c983f70",
    "playRate": 1.0,
    "gameTrigger": "Dialog",
    "gameTriggerArgs": 140340106,
    "personalConfig": 2,
    "parentID": "d6149c46-fcb0-4197-a726-d524cf6b1292",
    "sourceNames": [
      {
        "sourceFileName": "VO_LQ\\VO_clorinde\\vo_CLLQ004_1_clorinde_04.wem",
        "rate": 1.0,
        "avatarName": "",
        "emotion": ""
      }
    ]
  },
  "2954c6dd-da9d-4ca2-b1ef-31ed888e73ee": {
    "guid": "2954c6dd-da9d-4ca2-b1ef-31ed888e73ee",
    "playRate": 1.0,
    "gameTrigger": "Dialog",
    "gameTriggerArgs": 140340121,
    "personalConfig": 2,
    "parentID": "d6149c46-fcb0-4197-a726-d524cf6b1292",
    "sourceNames": [
      {
        "sourceFileName": "VO_LQ\\VO_clorinde\\vo_CLLQ004_1_clorinde_11.wem",
        "rate": 1.0,
        "avatarName": "",
        "emotion": ""
      }
    ]
  },
  "2da6169e-15f5-458a-af7e-693555bc8a0a": {
    "guid": "2da6169e-15f5-458a-af7e-693555bc8a0a",
    "playRate": 1.0,
    "gameTrigger": "Dialog",
    "gameTriggerArgs": 140340105,
    "personalConfig": 2,
    "parentID": "d6149c46-fcb0-4197-a726-d524cf6b1292",
    "sourceNames": [
      {
        "sourceFileName": "VO_LQ\\VO_lyney\\vo_CLLQ004_1_lyney_01.wem",
        "rate": 1.0,
        "avatarName": "",
        "emotion": ""
      }
    ]
  },
  "2fa62db9-05f9-4fe6-9554-c1eda0d17cfd": {
    "guid": "2fa62db9-05f9-4fe6-9554-c1eda0d17cfd",
    "playRate": 1.0,
    "gameTrigger": "Dialog",
    "gameTriggerArgs": 140340119,
    "personalConfig": 2,
    "parentID": "d6149c46-fcb0-4197-a726-d524cf6b1292",
    "sourceNames": [
      {
        "sourceFileName": "VO_LQ\\VO_npc\\vo_CLLQ004_1_florian_08.wem",
        "rate": 1.0,
        "avatarName": "",
        "emotion": ""
      }
    ]
  },
  "31f9a6a9-e910-4507-85df-a2fb3d1a2e40": {
    "guid": "31f9a6a9-e910-4507-85df-a2fb3d1a2e40",
    "playRate": 1.0,
    "gameTrigger": "Dialog",
    "gameTriggerArgs": 140340111,
    "personalConfig": 2,
    "parentID": "d6149c46-fcb0-4197-a726-d524cf6b1292",
    "sourceNames": [
      {
        "sourceFileName": "VO_LQ\\VO_clorinde\\vo_CLLQ004_1_clorinde_07.wem",
        "rate": 1.0,
        "avatarName": "",
        "emotion": ""
      }
    ]
  },
  "33321359-5c71-4964-9136-11917ff78b18": {
    "guid": "33321359-5c71-4964-9136-11917ff78b18",
    "playRate": 1.0,
    "gameTrigger": "Dialog",
    "gameTriggerArgs": 140340112,
    "personalConfig": 2,
    "parentID": "d6149c46-fcb0-4197-a726-d524cf6b1292",
    "sourceNames": [
      {
        "sourceFileName": "VO_LQ\\VO_npc\\vo_CLLQ004_1_florian_03.wem",
        "rate": 1.0,
        "avatarName": "",
        "emotion": ""
      }
    ]
  },
  "33b00403-42be-45c8-83ac-b68a7350a92f": {
    "guid": "33b00403-42be-45c8-83ac-b68a7350a92f",
    "playRate": 1.0,
    "gameTrigger": "Dialog",
    "gameTriggerArgs": 140340118,
    "personalConfig": 2,
    "parentID": "d6149c46-fcb0-4197-a726-d524cf6b1292",
    "sourceNames": [
      {
        "sourceFileName": "VO_LQ\\VO_npc\\vo_CLLQ004_1_florian_07.wem",
        "rate": 1.0,
        "avatarName": "",
        "emotion": ""
      }
    ]
  },
  "3529feea-392b-4b84-8f81-6d87f8142d62": {
    "guid": "3529feea-392b-4b84-8f81-6d87f8142d62",
    "playRate": 1.0,
    "gameTrigger": "Dialog",
    "gameTriggerArgs": 140340101,
    "personalConfig": 2,
    "parentID": "d6149c46-fcb0-4197-a726-d524cf6b1292",
    "sourceNames": [
      {
        "sourceFileName": "VO_LQ\\VO_clorinde\\vo_CLLQ004_1_clorinde_01.wem",
        "rate": 1.0,
        "avatarName": "",
        "emotion": ""
      }
    ]
  },
  "3b493b13-aad5-4fba-be04-9eb2ae2d21de": {
    "guid": "3b493b13-aad5-4fba-be04-9eb2ae2d21de",
    "playRate": 1.0,
    "gameTrigger": "Dialog",
    "gameTriggerArgs": 140340115,
    "personalConfig": 2,
    "parentID": "d6149c46-fcb0-4197-a726-d524cf6b1292",
    "sourceNames": [
      {
        "sourceFileName": "VO_LQ\\VO_npc\\vo_CLLQ004_1_florian_05.wem",
        "rate": 1.0,
        "avatarName": "",
        "emotion": ""
      }
    ]
  },
  "49375d74-49e4-4464-a607-9f08f8c6f59e": {
    "guid": "49375d74-49e4-4464-a607-9f08f8c6f59e",
    "playRate": 1.0,
    "gameTrigger": "Dialog",
    "gameTriggerArgs": 140340110,
    "personalConfig": 2,
    "parentID": "d6149c46-fcb0-4197-a726-d524cf6b1292",
    "sourceNames": [
      {
        "sourceFileName": "VO_LQ\\VO_npc\\vo_CLLQ004_1_florian_02.wem",
        "rate": 1.0,
        "avatarName": "",
        "emotion": ""
      }
    ]
  },
  "5caf69b1-7c4a-4520-b3ea-ac9ff177c4f6": {
    "guid": "5caf69b1-7c4a-4520-b3ea-ac9ff177c4f6",
    "playRate": 1.0,
    "gameTrigger": "Dialog",
    "gameTriggerArgs": 140340103,
    "personalConfig": 2,
    "NJKDHJOHKCM": 1,
    "parentID": "d6149c46-fcb0-4197-a726-d524cf6b1292",
    "sourceNames": [
      {
        "sourceFileName": "VO_LQ\\VO_furina\\vo_CLLQ004_1_furina_01.wem",
        "rate": 1.0,
        "avatarName": "",
        "emotion": ""
      }
    ]
  },
  "60222b2c-5db8-4c74-bed4-f28a277600ee": {
    "guid": "60222b2c-5db8-4c74-bed4-f28a277600ee",
    "playRate": 1.0,
    "gameTrigger": "Dialog",
    "gameTriggerArgs": 140340116,
    "personalConfig": 2,
    "parentID": "d6149c46-fcb0-4197-a726-d524cf6b1292",
    "sourceNames": [
      {
        "sourceFileName": "VO_LQ\\VO_clorinde\\vo_CLLQ004_1_clorinde_09.wem",
        "rate": 1.0,
        "avatarName": "",
        "emotion": ""
      }
    ]
  },
  "6d6ae58d-52e3-4077-b75e-91952dce0dd2": {
    "guid": "6d6ae58d-52e3-4077-b75e-91952dce0dd2",
    "playRate": 1.0,
    "gameTrigger": "Dialog",
    "gameTriggerArgs": 140340102,
    "personalConfig": 2,
    "parentID": "d6149c46-fcb0-4197-a726-d524cf6b1292",
    "sourceNames": [
      {
        "sourceFileName": "VO_LQ\\VO_clorinde\\vo_CLLQ004_1_clorinde_02.wem",
        "rate": 1.0,
        "avatarName": "",
        "emotion": ""
      }
    ]
  },
  "9983db04-d1a1-4109-9fd6-ff8f885e16df": {
    "guid": "9983db04-d1a1-4109-9fd6-ff8f885e16df",
    "playRate": 1.0,
    "gameTrigger": "Dialog",
    "gameTriggerArgs": 140340123,
    "personalConfig": 2,
    "parentID": "d6149c46-fcb0-4197-a726-d524cf6b1292",
    "sourceNames": [
      {
        "sourceFileName": "VO_LQ\\VO_clorinde\\vo_CLLQ004_1_clorinde_12.wem",
        "rate": 1.0,
        "avatarName": "",
        "emotion": ""
      }
    ]
  },
  "9f589741-a212-44b3-8515-db3491090044": {
    "guid": "9f589741-a212-44b3-8515-db3491090044",
    "playRate": 1.0,
    "gameTrigger": "Dialog",
    "gameTriggerArgs": 140340114,
    "personalConfig": 2,
    "parentID": "d6149c46-fcb0-4197-a726-d524cf6b1292",
    "sourceNames": [
      {
        "sourceFileName": "VO_LQ\\VO_npc\\vo_CLLQ004_1_florian_04.wem",
        "rate": 1.0,
        "avatarName": "",
        "emotion": ""
      }
    ]
  },
  "ad8aa7b4-4afd-4d8f-bb79-48def8357477": {
    "guid": "ad8aa7b4-4afd-4d8f-bb79-48def8357477",
    "playRate": 1.0,
    "gameTrigger": "Dialog",
    "gameTriggerArgs": 140340120,
    "personalConfig": 2,
    "parentID": "d6149c46-fcb0-4197-a726-d524cf6b1292",
    "sourceNames": [
      {
        "sourceFileName": "VO_LQ\\VO_clorinde\\vo_CLLQ004_1_clorinde_10.wem",
        "rate": 1.0,
        "avatarName": "",
        "emotion": ""
      }
    ]
  },
  "afb431b5-9612-4bdb-b3ef-287952174a26": {
    "guid": "afb431b5-9612-4bdb-b3ef-287952174a26",
    "playRate": 1.0,
    "gameTrigger": "Dialog",
    "gameTriggerArgs": 140340104,
    "personalConfig": 2,
    "parentID": "d6149c46-fcb0-4197-a726-d524cf6b1292",
    "sourceNames": [
      {
        "sourceFileName": "VO_LQ\\VO_clorinde\\vo_CLLQ004_1_clorinde_03.wem",
        "rate": 1.0,
        "avatarName": "",
        "emotion": ""
      }
    ]
  },
  "b16f4af6-51c1-49d4-9cb0-495a3fabc480": {
    "guid": "b16f4af6-51c1-49d4-9cb0-495a3fabc480",
    "playRate": 1.0,
    "gameTrigger": "Dialog",
    "gameTriggerArgs": 140340108,
    "personalConfig": 2,
    "parentID": "d6149c46-fcb0-4197-a726-d524cf6b1292",
    "sourceNames": [
      {
        "sourceFileName": "VO_LQ\\VO_clorinde\\vo_CLLQ004_1_clorinde_05.wem",
        "rate": 1.0,
        "avatarName": "",
        "emotion": ""
      }
    ]
  },
  "ceb5884d-8bba-4560-be8b-3c4a789f016f": {
    "guid": "ceb5884d-8bba-4560-be8b-3c4a789f016f",
    "playRate": 1.0,
    "gameTrigger": "Dialog",
    "gameTriggerArgs": 140340107,
    "personalConfig": 2,
    "parentID": "d6149c46-fcb0-4197-a726-d524cf6b1292",
    "sourceNames": [
      {
        "sourceFileName": "VO_LQ\\VO_npc\\vo_CLLQ004_1_florian_01.wem",
        "rate": 1.0,
        "avatarName": "",
        "emotion": ""
      }
    ]
  },
  "e21ba288-dd91-4c6e-8f7e-3860f4eb1dff": {
    "guid": "e21ba288-dd91-4c6e-8f7e-3860f4eb1dff",
    "playRate": 1.0,
    "gameTrigger": "Dialog",
    "gameTriggerArgs": 140340109,
    "personalConfig": 2,
    "parentID": "d6149c46-fcb0-4197-a726-d524cf6b1292",
    "sourceNames": [
      {
        "sourceFileName": "VO_LQ\\VO_clorinde\\vo_CLLQ004_1_clorinde_06.wem",
        "rate": 1.0,
        "avatarName": "",
        "emotion": ""
      }
    ]
  },
  "efda13d3-e995-4497-9627-e011e7e8bb7d": {
    "guid": "efda13d3-e995-4497-9627-e011e7e8bb7d",
    "playRate": 1.0,
    "gameTrigger": "Dialog",
    "gameTriggerArgs": 140340113,
    "personalConfig": 2,
    "parentID": "d6149c46-fcb0-4197-a726-d524cf6b1292",
    "sourceNames": [
      {
        "sourceFileName": "VO_LQ\\VO_clorinde\\vo_CLLQ004_1_clorinde_08.wem",
        "rate": 1.0,
        "avatarName": "",
        "emotion": ""
      }
    ]
  },
  "fe5adbbd-dc6f-4667-b262-a0f39ea88268": {
    "guid": "fe5adbbd-dc6f-4667-b262-a0f39ea88268",
    "playRate": 1.0,
    "gameTrigger": "Dialog",
    "gameTriggerArgs": 140340117,
    "personalConfig": 2,
    "parentID": "d6149c46-fcb0-4197-a726-d524cf6b1292",
    "sourceNames": [
      {
        "sourceFileName": "VO_LQ\\VO_npc\\vo_CLLQ004_1_florian_06.wem",
        "rate": 1.0,
        "avatarName": "",
        "emotion": ""
      }
    ]
  }
}