{
  "04b07015-9f8d-4323-aab4-c2b3d1e426bb": {
    "guid": "04b07015-9f8d-4323-aab4-c2b3d1e426bb",
    "playRate": 1.0,
    "gameTrigger": "Dialog",
    "gameTriggerArgs": 140331709,
    "personalConfig": 2,
    "NJKDHJOHKCM": 1,
    "parentID": "e18a6d9c-eeb0-43d9-aae2-2e39c969041d",
    "sourceNames": [
      {
        "sourceFileName": "VO_LQ\\VO_furina\\vo_CLLQ003_17_furina_01.wem",
        "rate": 1.0,
        "avatarName": "",
        "emotion": ""
      }
    ]
  },
  "051aa242-1305-4ffc-ab93-8f513cc8f619": {
    "guid": "051aa242-1305-4ffc-ab93-8f513cc8f619",
    "playRate": 1.0,
    "gameTrigger": "Dialog",
    "gameTriggerArgs": 140331720,
    "personalConfig": 2,
    "parentID": "e18a6d9c-eeb0-43d9-aae2-2e39c969041d",
    "sourceNames": [
      {
        "sourceFileName": "VO_LQ\\VO_lyney\\vo_CLLQ003_17_lyney_02.wem",
        "rate": 1.0,
        "avatarName": "",
        "emotion": ""
      }
    ]
  },
  "06d958fb-4a2e-4b97-ada6-bb923d3fa560": {
    "guid": "06d958fb-4a2e-4b97-ada6-bb923d3fa560",
    "playRate": 1.0,
    "gameTrigger": "Dialog",
    "gameTriggerArgs": 140331734,
    "personalConfig": 2,
    "parentID": "e18a6d9c-eeb0-43d9-aae2-2e39c969041d",
    "sourceNames": [
      {
        "sourceFileName": "VO_LQ\\VO_paimon\\vo_CLLQ003_17_paimon_05.wem",
        "rate": 1.0,
        "avatarName": "",
        "emotion": ""
      }
    ]
  },
  "09b39b2f-ffe6-46d8-a022-26519e977a7d": {
    "guid": "09b39b2f-ffe6-46d8-a022-26519e977a7d",
    "playRate": 1.0,
    "gameTrigger": "Dialog",
    "gameTriggerArgs": 140333211,
    "personalConfig": 2,
    "NJKDHJOHKCM": 1,
    "parentID": "e18a6d9c-eeb0-43d9-aae2-2e39c969041d",
    "sourceNames": [
      {
        "sourceFileName": "VO_LQ\\VO_lyney\\vo_CLLQ003_17_lyney_06.wem",
        "rate": 1.0,
        "avatarName": "",
        "emotion": ""
      }
    ]
  },
  "0dbf3b59-addb-4381-ab0e-13657708e6a2": {
    "guid": "0dbf3b59-addb-4381-ab0e-13657708e6a2",
    "playRate": 1.0,
    "gameTrigger": "Dialog",
    "gameTriggerArgs": 140331705,
    "personalConfig": 2,
    "parentID": "e18a6d9c-eeb0-43d9-aae2-2e39c969041d",
    "sourceNames": [
      {
        "sourceFileName": "VO_LQ\\VO_npc\\vo_CLLQ003_17_florian_02.wem",
        "rate": 1.0,
        "avatarName": "",
        "emotion": ""
      }
    ]
  },
  "0dc80415-cfd4-4c4c-9e87-e3d2af3741de": {
    "guid": "0dc80415-cfd4-4c4c-9e87-e3d2af3741de",
    "playRate": 1.0,
    "gameTrigger": "Dialog",
    "gameTriggerArgs": 140331707,
    "personalConfig": 2,
    "NJKDHJOHKCM": 1,
    "parentID": "e18a6d9c-eeb0-43d9-aae2-2e39c969041d",
    "sourceNames": [
      {
        "sourceFileName": "VO_LQ\\VO_npc\\vo_CLLQ003_17_florian_03.wem",
        "rate": 1.0,
        "avatarName": "",
        "emotion": ""
      }
    ]
  },
  "11fdc212-6fc3-4016-a74c-4de9df122948": {
    "guid": "11fdc212-6fc3-4016-a74c-4de9df122948",
    "playRate": 1.0,
    "gameTrigger": "Dialog",
    "gameTriggerArgs": 140331713,
    "personalConfig": 2,
    "parentID": "e18a6d9c-eeb0-43d9-aae2-2e39c969041d",
    "sourceNames": [
      {
        "sourceFileName": "VO_LQ\\VO_paimon\\vo_CLLQ003_17_paimon_03.wem",
        "rate": 1.0,
        "avatarName": "",
        "emotion": ""
      }
    ]
  },
  "1292f72b-34ed-481e-bc02-8b38e5203cf5": {
    "guid": "1292f72b-34ed-481e-bc02-8b38e5203cf5",
    "playRate": 1.0,
    "gameTrigger": "Dialog",
    "gameTriggerArgs": 140333214,
    "personalConfig": 2,
    "parentID": "e18a6d9c-eeb0-43d9-aae2-2e39c969041d",
    "sourceNames": [
      {
        "sourceFileName": "VO_LQ\\VO_navia\\vo_CLLQ003_17_navia_08.wem",
        "rate": 1.0,
        "avatarName": "",
        "emotion": ""
      }
    ]
  },
  "1452cbe4-b222-410a-a7aa-71a8a65032f4": {
    "guid": "1452cbe4-b222-410a-a7aa-71a8a65032f4",
    "playRate": 1.0,
    "gameTrigger": "Dialog",
    "gameTriggerArgs": 140333234,
    "personalConfig": 2,
    "parentID": "e18a6d9c-eeb0-43d9-aae2-2e39c969041d",
    "sourceNames": [
      {
        "sourceFileName": "VO_LQ\\VO_clorinde\\vo_CLLQ003_17_clorinde_11.wem",
        "rate": 1.0,
        "avatarName": "",
        "emotion": ""
      }
    ]
  },
  "196c5044-912c-4b00-91d3-88c14c412df6": {
    "guid": "196c5044-912c-4b00-91d3-88c14c412df6",
    "playRate": 1.0,
    "gameTrigger": "Dialog",
    "gameTriggerArgs": 140333002,
    "personalConfig": 2,
    "parentID": "e18a6d9c-eeb0-43d9-aae2-2e39c969041d",
    "sourceNames": [
      {
        "sourceFileName": "VO_LQ\\VO_npc\\vo_CLLQ003_17_florian_16a_1.wem",
        "rate": 1.0,
        "avatarName": "",
        "emotion": ""
      }
    ]
  },
  "1f700d0c-f69a-4f5b-a205-228c062c1593": {
    "guid": "1f700d0c-f69a-4f5b-a205-228c062c1593",
    "playRate": 1.0,
    "gameTrigger": "Dialog",
    "gameTriggerArgs": 140333215,
    "personalConfig": 2,
    "parentID": "e18a6d9c-eeb0-43d9-aae2-2e39c969041d",
    "sourceNames": [
      {
        "sourceFileName": "VO_LQ\\VO_paimon\\vo_CLLQ003_17_paimon_07.wem",
        "rate": 1.0,
        "avatarName": "",
        "emotion": ""
      }
    ]
  },
  "25860a11-67ab-4e80-84ae-5f5ed4546cc9": {
    "guid": "25860a11-67ab-4e80-84ae-5f5ed4546cc9",
    "playRate": 1.0,
    "gameTrigger": "Dialog",
    "gameTriggerArgs": 140331735,
    "personalConfig": 2,
    "parentID": "e18a6d9c-eeb0-43d9-aae2-2e39c969041d",
    "sourceNames": [
      {
        "sourceFileName": "VO_LQ\\VO_clorinde\\vo_CLLQ003_17_clorinde_03.wem",
        "rate": 1.0,
        "avatarName": "",
        "emotion": ""
      }
    ]
  },
  "26a7bf90-5e2a-45bc-b6f6-ec43c017eb5a": {
    "guid": "26a7bf90-5e2a-45bc-b6f6-ec43c017eb5a",
    "playRate": 1.0,
    "gameTrigger": "Dialog",
    "gameTriggerArgs": 140331702,
    "personalConfig": 2,
    "parentID": "e18a6d9c-eeb0-43d9-aae2-2e39c969041d",
    "sourceNames": [
      {
        "sourceFileName": "VO_LQ\\VO_paimon\\vo_CLLQ003_17_paimon_01.wem",
        "rate": 1.0,
        "avatarName": "",
        "emotion": ""
      }
    ]
  },
  "270ba4ea-c886-4bf1-98ca-d2eb86818695": {
    "guid": "270ba4ea-c886-4bf1-98ca-d2eb86818695",
    "playRate": 1.0,
    "gameTrigger": "Dialog",
    "gameTriggerArgs": 140333228,
    "personalConfig": 2,
    "parentID": "e18a6d9c-eeb0-43d9-aae2-2e39c969041d",
    "sourceNames": [
      {
        "sourceFileName": "VO_LQ\\VO_npc\\vo_CLLQ003_17_florian_24.wem",
        "rate": 1.0,
        "avatarName": "",
        "emotion": ""
      }
    ]
  },
  "2795f6e0-069d-4ab5-9c83-197bac3de7e8": {
    "guid": "2795f6e0-069d-4ab5-9c83-197bac3de7e8",
    "playRate": 1.0,
    "gameTrigger": "Dialog",
    "gameTriggerArgs": 140331719,
    "personalConfig": 2,
    "parentID": "e18a6d9c-eeb0-43d9-aae2-2e39c969041d",
    "sourceNames": [
      {
        "sourceFileName": "VO_LQ\\VO_navia\\vo_CLLQ003_17_navia_02.wem",
        "rate": 1.0,
        "avatarName": "",
        "emotion": ""
      }
    ]
  },
  "283b7b13-9b92-4a39-9b37-5c7b00e2bb28": {
    "guid": "283b7b13-9b92-4a39-9b37-5c7b00e2bb28",
    "playRate": 1.0,
    "gameTrigger": "Dialog",
    "gameTriggerArgs": 140331726,
    "personalConfig": 2,
    "parentID": "e18a6d9c-eeb0-43d9-aae2-2e39c969041d",
    "sourceNames": [
      {
        "sourceFileName": "VO_LQ\\VO_lyney\\vo_CLLQ003_17_lyney_04.wem",
        "rate": 1.0,
        "avatarName": "",
        "emotion": ""
      }
    ]
  },
  "2bd0ef90-d8b3-4ab6-8ebd-37f3656120de": {
    "guid": "2bd0ef90-d8b3-4ab6-8ebd-37f3656120de",
    "playRate": 1.0,
    "gameTrigger": "Dialog",
    "gameTriggerArgs": 140333203,
    "personalConfig": 2,
    "parentID": "e18a6d9c-eeb0-43d9-aae2-2e39c969041d",
    "sourceNames": [
      {
        "sourceFileName": "VO_LQ\\VO_furina\\vo_CLLQ003_17_furina_06.wem",
        "rate": 1.0,
        "avatarName": "",
        "emotion": ""
      }
    ]
  },
  "307ecb96-9401-4c5c-9f7a-cea5c16c38f2": {
    "guid": "307ecb96-9401-4c5c-9f7a-cea5c16c38f2",
    "playRate": 1.0,
    "gameTrigger": "Dialog",
    "gameTriggerArgs": 140333231,
    "personalConfig": 2,
    "parentID": "e18a6d9c-eeb0-43d9-aae2-2e39c969041d",
    "sourceNames": [
      {
        "sourceFileName": "VO_LQ\\VO_npc\\vo_CLLQ003_17_florian_25.wem",
        "rate": 1.0,
        "avatarName": "",
        "emotion": ""
      }
    ]
  },
  "332685c6-2608-4685-b257-d465e2527a65": {
    "guid": "332685c6-2608-4685-b257-d465e2527a65",
    "playRate": 1.0,
    "gameTrigger": "Dialog",
    "gameTriggerArgs": 140333201,
    "personalConfig": 2,
    "parentID": "e18a6d9c-eeb0-43d9-aae2-2e39c969041d",
    "sourceNames": [
      {
        "sourceFileName": "VO_LQ\\VO_npc\\vo_CLLQ003_17_florian_17.wem",
        "rate": 1.0,
        "avatarName": "",
        "emotion": ""
      }
    ]
  },
  "416dc43d-89f4-4069-9a2f-f2e8efa2dc72": {
    "guid": "416dc43d-89f4-4069-9a2f-f2e8efa2dc72",
    "playRate": 1.0,
    "gameTrigger": "Dialog",
    "gameTriggerArgs": 140331731,
    "personalConfig": 2,
    "parentID": "e18a6d9c-eeb0-43d9-aae2-2e39c969041d",
    "sourceNames": [
      {
        "sourceFileName": "VO_LQ\\VO_npc\\vo_CLLQ003_17_florian_13.wem",
        "rate": 1.0,
        "avatarName": "",
        "emotion": ""
      }
    ]
  },
  "4459a7af-1e3b-4484-a33b-9e8a4ca1c7d4": {
    "guid": "4459a7af-1e3b-4484-a33b-9e8a4ca1c7d4",
    "playRate": 1.0,
    "gameTrigger": "Dialog",
    "gameTriggerArgs": 140331730,
    "personalConfig": 2,
    "parentID": "e18a6d9c-eeb0-43d9-aae2-2e39c969041d",
    "sourceNames": [
      {
        "sourceFileName": "VO_LQ\\VO_navia\\vo_CLLQ003_17_navia_04.wem",
        "rate": 1.0,
        "avatarName": "",
        "emotion": ""
      }
    ]
  },
  "45704037-bd77-4fb6-94da-aab32c651907": {
    "guid": "45704037-bd77-4fb6-94da-aab32c651907",
    "playRate": 1.0,
    "gameTrigger": "Dialog",
    "gameTriggerArgs": 140331728,
    "personalConfig": 2,
    "parentID": "e18a6d9c-eeb0-43d9-aae2-2e39c969041d",
    "sourceNames": [
      {
        "sourceFileName": "VO_LQ\\VO_npc\\vo_CLLQ003_17_florian_11.wem",
        "rate": 1.0,
        "avatarName": "",
        "emotion": ""
      }
    ]
  },
  "49ac7a8e-fc7f-4e93-a43d-d17a591f841b": {
    "guid": "49ac7a8e-fc7f-4e93-a43d-d17a591f841b",
    "playRate": 1.0,
    "gameTrigger": "Dialog",
    "gameTriggerArgs": 140333222,
    "personalConfig": 2,
    "parentID": "e18a6d9c-eeb0-43d9-aae2-2e39c969041d",
    "sourceNames": [
      {
        "sourceFileName": "VO_LQ\\VO_npc\\vo_CLLQ003_17_florian_22.wem",
        "rate": 1.0,
        "avatarName": "",
        "emotion": ""
      }
    ]
  },
  "53005c87-7fcf-495d-8698-006e74cac7ca": {
    "guid": "53005c87-7fcf-495d-8698-006e74cac7ca",
    "playRate": 1.0,
    "gameTrigger": "Dialog",
    "gameTriggerArgs": 140331706,
    "personalConfig": 2,
    "NJKDHJOHKCM": 1,
    "parentID": "e18a6d9c-eeb0-43d9-aae2-2e39c969041d",
    "sourceNames": [
      {
        "sourceFileName": "VO_LQ\\VO_clorinde\\vo_CLLQ003_17_clorinde_02.wem",
        "rate": 1.0,
        "avatarName": "",
        "emotion": ""
      }
    ]
  },
  "590a5f2d-8834-42da-b7c3-3e03554d305b": {
    "guid": "590a5f2d-8834-42da-b7c3-3e03554d305b",
    "playRate": 1.0,
    "gameTrigger": "Dialog",
    "gameTriggerArgs": 140331716,
    "personalConfig": 2,
    "parentID": "e18a6d9c-eeb0-43d9-aae2-2e39c969041d",
    "sourceNames": [
      {
        "sourceFileName": "VO_LQ\\VO_npc\\vo_CLLQ003_17_florian_09.wem",
        "rate": 1.0,
        "avatarName": "",
        "emotion": ""
      }
    ]
  },
  "5fac19c3-23e3-43e4-b58a-f0208f1d700e": {
    "guid": "5fac19c3-23e3-43e4-b58a-f0208f1d700e",
    "playRate": 1.0,
    "gameTrigger": "Dialog",
    "gameTriggerArgs": 140333219,
    "personalConfig": 2,
    "parentID": "e18a6d9c-eeb0-43d9-aae2-2e39c969041d",
    "sourceNames": [
      {
        "sourceFileName": "VO_LQ\\VO_npc\\vo_CLLQ003_17_florian_20.wem",
        "rate": 1.0,
        "avatarName": "",
        "emotion": ""
      }
    ]
  },
  "629e4ef7-67aa-41d5-b658-b3639a586e5c": {
    "guid": "629e4ef7-67aa-41d5-b658-b3639a586e5c",
    "playRate": 1.0,
    "gameTrigger": "Dialog",
    "gameTriggerArgs": 140331721,
    "personalConfig": 2,
    "parentID": "e18a6d9c-eeb0-43d9-aae2-2e39c969041d",
    "sourceNames": [
      {
        "sourceFileName": "VO_LQ\\VO_furina\\vo_CLLQ003_17_furina_02.wem",
        "rate": 1.0,
        "avatarName": "",
        "emotion": ""
      }
    ]
  },
  "6558cb29-5d42-4e6f-b87a-4b8640e216e2": {
    "guid": "6558cb29-5d42-4e6f-b87a-4b8640e216e2",
    "playRate": 1.0,
    "gameTrigger": "Dialog",
    "gameTriggerArgs": 140331727,
    "personalConfig": 2,
    "parentID": "e18a6d9c-eeb0-43d9-aae2-2e39c969041d",
    "sourceNames": [
      {
        "sourceFileName": "VO_LQ\\VO_paimon\\vo_CLLQ003_17_paimon_04.wem",
        "rate": 1.0,
        "avatarName": "",
        "emotion": ""
      }
    ]
  },
  "6622d44e-16d0-4608-91a6-f9ce35aea76a": {
    "guid": "6622d44e-16d0-4608-91a6-f9ce35aea76a",
    "playRate": 1.0,
    "gameTrigger": "Dialog",
    "gameTriggerArgs": 140331714,
    "personalConfig": 2,
    "parentID": "e18a6d9c-eeb0-43d9-aae2-2e39c969041d",
    "sourceNames": [
      {
        "sourceFileName": "VO_LQ\\VO_npc\\vo_CLLQ003_17_florian_07.wem",
        "rate": 1.0,
        "avatarName": "",
        "emotion": ""
      }
    ]
  },
  "6a54b690-2f0e-401a-90b7-a36930bdea2b": {
    "guid": "6a54b690-2f0e-401a-90b7-a36930bdea2b",
    "playRate": 1.0,
    "gameTrigger": "Dialog",
    "gameTriggerArgs": 140333204,
    "personalConfig": 2,
    "parentID": "e18a6d9c-eeb0-43d9-aae2-2e39c969041d",
    "sourceNames": [
      {
        "sourceFileName": "VO_LQ\\VO_lyney\\vo_CLLQ003_17_lyney_05.wem",
        "rate": 1.0,
        "avatarName": "",
        "emotion": ""
      }
    ]
  },
  "6d5fad80-fc65-4957-80c3-cb4f5c9e29d6": {
    "guid": "6d5fad80-fc65-4957-80c3-cb4f5c9e29d6",
    "playRate": 1.0,
    "gameTrigger": "Dialog",
    "gameTriggerArgs": 140331715,
    "personalConfig": 2,
    "parentID": "e18a6d9c-eeb0-43d9-aae2-2e39c969041d",
    "sourceNames": [
      {
        "sourceFileName": "VO_LQ\\VO_npc\\vo_CLLQ003_17_florian_08.wem",
        "rate": 1.0,
        "avatarName": "",
        "emotion": ""
      }
    ]
  },
  "7079e5b1-1a4b-41ca-a45f-4bddcc78a595": {
    "guid": "7079e5b1-1a4b-41ca-a45f-4bddcc78a595",
    "playRate": 1.0,
    "gameTrigger": "Dialog",
    "gameTriggerArgs": 140331724,
    "personalConfig": 2,
    "parentID": "e18a6d9c-eeb0-43d9-aae2-2e39c969041d",
    "sourceNames": [
      {
        "sourceFileName": "VO_LQ\\VO_furina\\vo_CLLQ003_17_furina_04.wem",
        "rate": 1.0,
        "avatarName": "",
        "emotion": ""
      }
    ]
  },
  "734890a5-3c02-4031-9482-d569e9682512": {
    "guid": "734890a5-3c02-4031-9482-d569e9682512",
    "playRate": 1.0,
    "gameTrigger": "Dialog",
    "gameTriggerArgs": 140331725,
    "personalConfig": 2,
    "parentID": "e18a6d9c-eeb0-43d9-aae2-2e39c969041d",
    "sourceNames": [
      {
        "sourceFileName": "VO_LQ\\VO_lyney\\vo_CLLQ003_17_lyney_03.wem",
        "rate": 1.0,
        "avatarName": "",
        "emotion": ""
      }
    ]
  },
  "73769490-7fde-4e72-97d3-c466c09e7574": {
    "guid": "73769490-7fde-4e72-97d3-c466c09e7574",
    "playRate": 1.0,
    "gameTrigger": "Dialog",
    "gameTriggerArgs": 140333224,
    "personalConfig": 2,
    "parentID": "e18a6d9c-eeb0-43d9-aae2-2e39c969041d",
    "sourceNames": [
      {
        "sourceFileName": "VO_LQ\\VO_furina\\vo_CLLQ003_17_furina_08.wem",
        "rate": 1.0,
        "avatarName": "",
        "emotion": ""
      }
    ]
  },
  "74c702b5-ff94-4e63-9b7b-ed3c0aae551b": {
    "guid": "74c702b5-ff94-4e63-9b7b-ed3c0aae551b",
    "playRate": 1.0,
    "gameTrigger": "Dialog",
    "gameTriggerArgs": 140331701,
    "personalConfig": 2,
    "parentID": "e18a6d9c-eeb0-43d9-aae2-2e39c969041d",
    "sourceNames": [
      {
        "sourceFileName": "VO_LQ\\VO_lyney\\vo_CLLQ003_17_lyney_01.wem",
        "rate": 1.0,
        "avatarName": "",
        "emotion": ""
      }
    ]
  },
  "813e3a84-a447-46a9-be78-3e739afa38fb": {
    "guid": "813e3a84-a447-46a9-be78-3e739afa38fb",
    "playRate": 1.0,
    "gameTrigger": "Dialog",
    "gameTriggerArgs": 140333220,
    "personalConfig": 2,
    "parentID": "e18a6d9c-eeb0-43d9-aae2-2e39c969041d",
    "sourceNames": [
      {
        "sourceFileName": "VO_LQ\\VO_paimon\\vo_CLLQ003_17_paimon_08.wem",
        "rate": 1.0,
        "avatarName": "",
        "emotion": ""
      }
    ]
  },
  "8f7e15a2-623c-484e-b00b-29e6e1afb717": {
    "guid": "8f7e15a2-623c-484e-b00b-29e6e1afb717",
    "playRate": 1.0,
    "gameTrigger": "Dialog",
    "gameTriggerArgs": 140331737,
    "personalConfig": 2,
    "parentID": "e18a6d9c-eeb0-43d9-aae2-2e39c969041d",
    "sourceNames": [
      {
        "sourceFileName": "VO_LQ\\VO_clorinde\\vo_CLLQ003_17_clorinde_05.wem",
        "rate": 1.0,
        "avatarName": "",
        "emotion": ""
      }
    ]
  },
  "94cf6dd9-cad0-4558-ad25-72e2d620df06": {
    "guid": "94cf6dd9-cad0-4558-ad25-72e2d620df06",
    "playRate": 1.0,
    "gameTrigger": "Dialog",
    "gameTriggerArgs": 140333229,
    "personalConfig": 2,
    "parentID": "e18a6d9c-eeb0-43d9-aae2-2e39c969041d",
    "sourceNames": [
      {
        "sourceFileName": "VO_LQ\\VO_paimon\\vo_CLLQ003_17_paimon_09.wem",
        "rate": 1.0,
        "avatarName": "",
        "emotion": ""
      }
    ]
  },
  "9735071d-ad31-4579-96bb-4c941ad22a8c": {
    "guid": "9735071d-ad31-4579-96bb-4c941ad22a8c",
    "playRate": 1.0,
    "gameTrigger": "Dialog",
    "gameTriggerArgs": 140333208,
    "personalConfig": 2,
    "parentID": "e18a6d9c-eeb0-43d9-aae2-2e39c969041d",
    "sourceNames": [
      {
        "sourceFileName": "VO_LQ\\VO_navia\\vo_CLLQ003_17_navia_07.wem",
        "rate": 1.0,
        "avatarName": "",
        "emotion": ""
      }
    ]
  },
  "9a0e7c48-1ff5-4c71-b73d-6160034a41a1": {
    "guid": "9a0e7c48-1ff5-4c71-b73d-6160034a41a1",
    "playRate": 1.0,
    "gameTrigger": "Dialog",
    "gameTriggerArgs": 140333233,
    "personalConfig": 2,
    "parentID": "e18a6d9c-eeb0-43d9-aae2-2e39c969041d",
    "sourceNames": [
      {
        "sourceFileName": "VO_LQ\\VO_clorinde\\vo_CLLQ003_17_clorinde_10.wem",
        "rate": 1.0,
        "avatarName": "",
        "emotion": ""
      }
    ]
  },
  "9b0017d7-d7da-4f3a-8d80-72c423bf2064": {
    "guid": "9b0017d7-d7da-4f3a-8d80-72c423bf2064",
    "playRate": 1.0,
    "gameTrigger": "Dialog",
    "gameTriggerArgs": 140333225,
    "personalConfig": 2,
    "parentID": "e18a6d9c-eeb0-43d9-aae2-2e39c969041d",
    "sourceNames": [
      {
        "sourceFileName": "VO_LQ\\VO_npc\\vo_CLLQ003_17_florian_23.wem",
        "rate": 1.0,
        "avatarName": "",
        "emotion": ""
      }
    ]
  },
  "9cc89485-351e-4699-a9db-2235964692ff": {
    "guid": "9cc89485-351e-4699-a9db-2235964692ff",
    "playRate": 1.0,
    "gameTrigger": "Dialog",
    "gameTriggerArgs": 140331712,
    "personalConfig": 2,
    "parentID": "e18a6d9c-eeb0-43d9-aae2-2e39c969041d",
    "sourceNames": [
      {
        "sourceFileName": "VO_LQ\\VO_npc\\vo_CLLQ003_17_florian_06.wem",
        "rate": 1.0,
        "avatarName": "",
        "emotion": ""
      }
    ]
  },
  "a0f39777-f185-4a78-8fc7-93f56c6af22b": {
    "guid": "a0f39777-f185-4a78-8fc7-93f56c6af22b",
    "playRate": 1.0,
    "gameTrigger": "Dialog",
    "gameTriggerArgs": 140331729,
    "personalConfig": 2,
    "parentID": "e18a6d9c-eeb0-43d9-aae2-2e39c969041d",
    "sourceNames": [
      {
        "sourceFileName": "VO_LQ\\VO_npc\\vo_CLLQ003_17_florian_12.wem",
        "rate": 1.0,
        "avatarName": "",
        "emotion": ""
      }
    ]
  },
  "a2f49b96-9274-4a2f-81fe-56006366fa48": {
    "guid": "a2f49b96-9274-4a2f-81fe-56006366fa48",
    "playRate": 1.0,
    "gameTrigger": "Dialog",
    "gameTriggerArgs": 140333202,
    "personalConfig": 2,
    "parentID": "e18a6d9c-eeb0-43d9-aae2-2e39c969041d",
    "sourceNames": [
      {
        "sourceFileName": "VO_LQ\\VO_navia\\vo_CLLQ003_17_navia_05.wem",
        "rate": 1.0,
        "avatarName": "",
        "emotion": ""
      }
    ]
  },
  "a4d52293-4021-41ea-96fd-7e403798a326": {
    "guid": "a4d52293-4021-41ea-96fd-7e403798a326",
    "playRate": 1.0,
    "gameTrigger": "Dialog",
    "gameTriggerArgs": 140333218,
    "personalConfig": 2,
    "parentID": "e18a6d9c-eeb0-43d9-aae2-2e39c969041d",
    "sourceNames": [
      {
        "sourceFileName": "VO_LQ\\VO_npc\\vo_CLLQ003_17_florian_19.wem",
        "rate": 1.0,
        "avatarName": "",
        "emotion": ""
      }
    ]
  },
  "a712e262-9e3a-482d-b5ee-a328f6f92385": {
    "guid": "a712e262-9e3a-482d-b5ee-a328f6f92385",
    "playRate": 1.0,
    "gameTrigger": "Dialog",
    "gameTriggerArgs": 140331703,
    "personalConfig": 2,
    "parentID": "e18a6d9c-eeb0-43d9-aae2-2e39c969041d",
    "sourceNames": [
      {
        "sourceFileName": "VO_LQ\\VO_clorinde\\vo_CLLQ003_17_clorinde_01.wem",
        "rate": 1.0,
        "avatarName": "",
        "emotion": ""
      }
    ]
  },
  "a74ce049-3574-4d94-bdfc-96e3aaa41b57": {
    "guid": "a74ce049-3574-4d94-bdfc-96e3aaa41b57",
    "playRate": 1.0,
    "gameTrigger": "Dialog",
    "gameTriggerArgs": 140331718,
    "personalConfig": 2,
    "parentID": "e18a6d9c-eeb0-43d9-aae2-2e39c969041d",
    "sourceNames": [
      {
        "sourceFileName": "VO_LQ\\VO_npc\\vo_CLLQ003_17_florian_10.wem",
        "rate": 1.0,
        "avatarName": "",
        "emotion": ""
      }
    ]
  },
  "a7c15ddc-14bd-4538-976d-eb514dd3dd07": {
    "guid": "a7c15ddc-14bd-4538-976d-eb514dd3dd07",
    "playRate": 1.0,
    "gameTrigger": "Dialog",
    "gameTriggerArgs": 140333221,
    "personalConfig": 2,
    "parentID": "e18a6d9c-eeb0-43d9-aae2-2e39c969041d",
    "sourceNames": [
      {
        "sourceFileName": "VO_LQ\\VO_npc\\vo_CLLQ003_17_florian_21.wem",
        "rate": 1.0,
        "avatarName": "",
        "emotion": ""
      }
    ]
  },
  "ab6c8793-2e22-4d56-b35d-a9d6f74a88f5": {
    "guid": "ab6c8793-2e22-4d56-b35d-a9d6f74a88f5",
    "playRate": 1.0,
    "gameTrigger": "Dialog",
    "gameTriggerArgs": 140331717,
    "personalConfig": 2,
    "parentID": "e18a6d9c-eeb0-43d9-aae2-2e39c969041d",
    "sourceNames": [
      {
        "sourceFileName": "VO_LQ\\VO_navia\\vo_CLLQ003_17_navia_01.wem",
        "rate": 1.0,
        "avatarName": "",
        "emotion": ""
      }
    ]
  },
  "aef4eeb8-2ff2-4425-8a1f-c6dc53d4a742": {
    "guid": "aef4eeb8-2ff2-4425-8a1f-c6dc53d4a742",
    "playRate": 1.0,
    "gameTrigger": "Dialog",
    "gameTriggerArgs": 140331710,
    "personalConfig": 2,
    "parentID": "e18a6d9c-eeb0-43d9-aae2-2e39c969041d",
    "sourceNames": [
      {
        "sourceFileName": "VO_LQ\\VO_npc\\vo_CLLQ003_17_florian_05.wem",
        "rate": 1.0,
        "avatarName": "",
        "emotion": ""
      }
    ]
  },
  "af0aa716-defc-4b28-8ab3-12b16df1f252": {
    "guid": "af0aa716-defc-4b28-8ab3-12b16df1f252",
    "playRate": 1.0,
    "gameTrigger": "Dialog",
    "gameTriggerArgs": 140333102,
    "personalConfig": 2,
    "parentID": "e18a6d9c-eeb0-43d9-aae2-2e39c969041d",
    "sourceNames": [
      {
        "sourceFileName": "VO_LQ\\VO_clorinde\\vo_CLLQ003_17_clorinde_06b_1.wem",
        "rate": 1.0,
        "avatarName": "",
        "emotion": ""
      }
    ]
  },
  "af0c68b4-8d14-42cd-9bed-07194732a9a7": {
    "guid": "af0c68b4-8d14-42cd-9bed-07194732a9a7",
    "playRate": 1.0,
    "gameTrigger": "Dialog",
    "gameTriggerArgs": 140333232,
    "personalConfig": 2,
    "NJKDHJOHKCM": 1,
    "parentID": "e18a6d9c-eeb0-43d9-aae2-2e39c969041d",
    "sourceNames": [
      {
        "sourceFileName": "VO_LQ\\VO_furina\\vo_CLLQ003_17_furina_09.wem",
        "rate": 1.0,
        "avatarName": "",
        "emotion": ""
      }
    ]
  },
  "b16bc0e8-1595-4110-80d3-25806a2768e1": {
    "guid": "b16bc0e8-1595-4110-80d3-25806a2768e1",
    "playRate": 1.0,
    "gameTrigger": "Dialog",
    "gameTriggerArgs": 140333212,
    "personalConfig": 2,
    "parentID": "e18a6d9c-eeb0-43d9-aae2-2e39c969041d",
    "sourceNames": [
      {
        "sourceFileName": "VO_LQ\\VO_furina\\vo_CLLQ003_17_furina_07.wem",
        "rate": 1.0,
        "avatarName": "",
        "emotion": ""
      }
    ]
  },
  "bb147289-31d0-436d-a4b4-48f947dba7b8": {
    "guid": "bb147289-31d0-436d-a4b4-48f947dba7b8",
    "playRate": 1.0,
    "gameTrigger": "Dialog",
    "gameTriggerArgs": 140331722,
    "personalConfig": 2,
    "parentID": "e18a6d9c-eeb0-43d9-aae2-2e39c969041d",
    "sourceNames": [
      {
        "sourceFileName": "VO_LQ\\VO_furina\\vo_CLLQ003_17_furina_03.wem",
        "rate": 1.0,
        "avatarName": "",
        "emotion": ""
      }
    ]
  },
  "bda7bb54-3b40-48f1-a1ba-fd373eea5d36": {
    "guid": "bda7bb54-3b40-48f1-a1ba-fd373eea5d36",
    "playRate": 1.0,
    "gameTrigger": "Dialog",
    "gameTriggerArgs": 140333205,
    "personalConfig": 2,
    "parentID": "e18a6d9c-eeb0-43d9-aae2-2e39c969041d",
    "sourceNames": [
      {
        "sourceFileName": "VO_LQ\\VO_npc\\vo_CLLQ003_17_florian_18.wem",
        "rate": 1.0,
        "avatarName": "",
        "emotion": ""
      }
    ]
  },
  "c09a5292-8515-4dd6-a860-8a1a67a26fd0": {
    "guid": "c09a5292-8515-4dd6-a860-8a1a67a26fd0",
    "playRate": 1.0,
    "gameTrigger": "Dialog",
    "gameTriggerArgs": 140333213,
    "personalConfig": 2,
    "parentID": "e18a6d9c-eeb0-43d9-aae2-2e39c969041d",
    "sourceNames": [
      {
        "sourceFileName": "VO_LQ\\VO_lyney\\vo_CLLQ003_17_lyney_07.wem",
        "rate": 1.0,
        "avatarName": "",
        "emotion": ""
      }
    ]
  },
  "c1a8354e-8d53-4601-9ba8-b01d572cd8a9": {
    "guid": "c1a8354e-8d53-4601-9ba8-b01d572cd8a9",
    "playRate": 1.0,
    "gameTrigger": "Dialog",
    "gameTriggerArgs": 140331708,
    "personalConfig": 2,
    "parentID": "e18a6d9c-eeb0-43d9-aae2-2e39c969041d",
    "sourceNames": [
      {
        "sourceFileName": "VO_LQ\\VO_npc\\vo_CLLQ003_17_florian_04.wem",
        "rate": 1.0,
        "avatarName": "",
        "emotion": ""
      }
    ]
  },
  "c28d988e-374a-4d49-9a09-9aa9b5c63c59": {
    "guid": "c28d988e-374a-4d49-9a09-9aa9b5c63c59",
    "playRate": 1.0,
    "gameTrigger": "Dialog",
    "gameTriggerArgs": 140333217,
    "personalConfig": 2,
    "parentID": "e18a6d9c-eeb0-43d9-aae2-2e39c969041d",
    "sourceNames": [
      {
        "sourceFileName": "VO_LQ\\VO_lyney\\vo_CLLQ003_17_lyney_08.wem",
        "rate": 1.0,
        "avatarName": "",
        "emotion": ""
      }
    ]
  },
  "c2904fb3-0922-42f8-a0a9-e41323bc3d9a": {
    "guid": "c2904fb3-0922-42f8-a0a9-e41323bc3d9a",
    "playRate": 1.0,
    "gameTrigger": "Dialog",
    "gameTriggerArgs": 140331732,
    "personalConfig": 2,
    "parentID": "e18a6d9c-eeb0-43d9-aae2-2e39c969041d",
    "sourceNames": [
      {
        "sourceFileName": "VO_LQ\\VO_npc\\vo_CLLQ003_17_florian_14.wem",
        "rate": 1.0,
        "avatarName": "",
        "emotion": ""
      }
    ]
  },
  "c6bfb6b6-f375-4687-b546-25edeb9a90a8": {
    "guid": "c6bfb6b6-f375-4687-b546-25edeb9a90a8",
    "playRate": 1.0,
    "gameTrigger": "Dialog",
    "gameTriggerArgs": 140331704,
    "personalConfig": 2,
    "parentID": "e18a6d9c-eeb0-43d9-aae2-2e39c969041d",
    "sourceNames": [
      {
        "sourceFileName": "VO_LQ\\VO_npc\\vo_CLLQ003_17_florian_01.wem",
        "rate": 1.0,
        "avatarName": "",
        "emotion": ""
      }
    ]
  },
  "c7895dad-212d-42ed-9fad-3e782a8cb804": {
    "guid": "c7895dad-212d-42ed-9fad-3e782a8cb804",
    "playRate": 1.0,
    "gameTrigger": "Dialog",
    "gameTriggerArgs": 140333206,
    "personalConfig": 2,
    "parentID": "e18a6d9c-eeb0-43d9-aae2-2e39c969041d",
    "sourceNames": [
      {
        "sourceFileName": "VO_LQ\\VO_paimon\\vo_CLLQ003_17_paimon_06.wem",
        "rate": 1.0,
        "avatarName": "",
        "emotion": ""
      }
    ]
  },
  "cbdb2a7b-0542-4d73-a867-f0198f174c83": {
    "guid": "cbdb2a7b-0542-4d73-a867-f0198f174c83",
    "playRate": 1.0,
    "gameTrigger": "Dialog",
    "gameTriggerArgs": 140331736,
    "personalConfig": 2,
    "parentID": "e18a6d9c-eeb0-43d9-aae2-2e39c969041d",
    "sourceNames": [
      {
        "sourceFileName": "VO_LQ\\VO_clorinde\\vo_CLLQ003_17_clorinde_04.wem",
        "rate": 1.0,
        "avatarName": "",
        "emotion": ""
      }
    ]
  },
  "d099011d-37e0-4af2-97c2-3fc056b92d93": {
    "guid": "d099011d-37e0-4af2-97c2-3fc056b92d93",
    "playRate": 1.0,
    "gameTrigger": "Dialog",
    "gameTriggerArgs": 140333223,
    "personalConfig": 2,
    "parentID": "e18a6d9c-eeb0-43d9-aae2-2e39c969041d",
    "sourceNames": [
      {
        "sourceFileName": "VO_LQ\\VO_lyney\\vo_CLLQ003_17_lyney_09.wem",
        "rate": 1.0,
        "avatarName": "",
        "emotion": ""
      }
    ]
  },
  "d7e03e9d-80e3-47b9-a165-1e387b6290d2": {
    "guid": "d7e03e9d-80e3-47b9-a165-1e387b6290d2",
    "playRate": 1.0,
    "gameTrigger": "Dialog",
    "gameTriggerArgs": 140333207,
    "personalConfig": 2,
    "parentID": "e18a6d9c-eeb0-43d9-aae2-2e39c969041d",
    "sourceNames": [
      {
        "sourceFileName": "VO_LQ\\VO_navia\\vo_CLLQ003_17_navia_06.wem",
        "rate": 1.0,
        "avatarName": "",
        "emotion": ""
      }
    ]
  },
  "ddd7995e-3939-422c-8832-f5e1d5d143fd": {
    "guid": "ddd7995e-3939-422c-8832-f5e1d5d143fd",
    "playRate": 1.0,
    "gameTrigger": "Dialog",
    "gameTriggerArgs": 140331723,
    "personalConfig": 2,
    "parentID": "e18a6d9c-eeb0-43d9-aae2-2e39c969041d",
    "sourceNames": [
      {
        "sourceFileName": "VO_LQ\\VO_navia\\vo_CLLQ003_17_navia_03.wem",
        "rate": 1.0,
        "avatarName": "",
        "emotion": ""
      }
    ]
  },
  "e2e171ff-4395-44cb-85d9-fd515d8aa24a": {
    "guid": "e2e171ff-4395-44cb-85d9-fd515d8aa24a",
    "playRate": 1.0,
    "gameTrigger": "Dialog",
    "gameTriggerArgs": 140331711,
    "personalConfig": 2,
    "parentID": "e18a6d9c-eeb0-43d9-aae2-2e39c969041d",
    "sourceNames": [
      {
        "sourceFileName": "VO_LQ\\VO_paimon\\vo_CLLQ003_17_paimon_02.wem",
        "rate": 1.0,
        "avatarName": "",
        "emotion": ""
      }
    ]
  },
  "ed678a47-d46a-4ac2-9c96-3cc3a00abab6": {
    "guid": "ed678a47-d46a-4ac2-9c96-3cc3a00abab6",
    "playRate": 1.0,
    "gameTrigger": "Dialog",
    "gameTriggerArgs": 140333210,
    "personalConfig": 2,
    "parentID": "e18a6d9c-eeb0-43d9-aae2-2e39c969041d",
    "sourceNames": [
      {
        "sourceFileName": "VO_LQ\\VO_clorinde\\vo_CLLQ003_17_clorinde_08.wem",
        "rate": 1.0,
        "avatarName": "",
        "emotion": ""
      }
    ]
  },
  "ef8745f8-555d-4dd2-810c-f218a211c1b4": {
    "guid": "ef8745f8-555d-4dd2-810c-f218a211c1b4",
    "playRate": 1.0,
    "gameTrigger": "Dialog",
    "gameTriggerArgs": 140333230,
    "personalConfig": 2,
    "parentID": "e18a6d9c-eeb0-43d9-aae2-2e39c969041d",
    "sourceNames": [
      {
        "sourceFileName": "VO_LQ\\VO_lyney\\vo_CLLQ003_17_lyney_10.wem",
        "rate": 1.0,
        "avatarName": "",
        "emotion": ""
      }
    ]
  },
  "f1aa2344-4ab3-4696-9c6a-6e305d4e1f59": {
    "guid": "f1aa2344-4ab3-4696-9c6a-6e305d4e1f59",
    "playRate": 1.0,
    "gameTrigger": "Dialog",
    "gameTriggerArgs": 140333209,
    "personalConfig": 2,
    "parentID": "e18a6d9c-eeb0-43d9-aae2-2e39c969041d",
    "sourceNames": [
      {
        "sourceFileName": "VO_LQ\\VO_clorinde\\vo_CLLQ003_17_clorinde_07.wem",
        "rate": 1.0,
        "avatarName": "",
        "emotion": ""
      }
    ]
  },
  "f31e2309-7948-48b1-af9f-8d195498edaf": {
    "guid": "f31e2309-7948-48b1-af9f-8d195498edaf",
    "playRate": 1.0,
    "gameTrigger": "Dialog",
    "gameTriggerArgs": 140333216,
    "personalConfig": 2,
    "parentID": "e18a6d9c-eeb0-43d9-aae2-2e39c969041d",
    "sourceNames": [
      {
        "sourceFileName": "VO_LQ\\VO_clorinde\\vo_CLLQ003_17_clorinde_09.wem",
        "rate": 1.0,
        "avatarName": "",
        "emotion": ""
      }
    ]
  },
  "f9c1f3dd-3816-4461-b401-0a010d25dda8": {
    "guid": "f9c1f3dd-3816-4461-b401-0a010d25dda8",
    "playRate": 1.0,
    "gameTrigger": "Dialog",
    "gameTriggerArgs": 140331738,
    "personalConfig": 2,
    "NJKDHJOHKCM": 1,
    "parentID": "e18a6d9c-eeb0-43d9-aae2-2e39c969041d",
    "sourceNames": [
      {
        "sourceFileName": "VO_LQ\\VO_npc\\vo_CLLQ003_17_florian_15.wem",
        "rate": 1.0,
        "avatarName": "",
        "emotion": ""
      }
    ]
  },
  "ff5b4071-2ab6-4f1a-bed1-d5b8d8fd36e1": {
    "guid": "ff5b4071-2ab6-4f1a-bed1-d5b8d8fd36e1",
    "playRate": 1.0,
    "gameTrigger": "Dialog",
    "gameTriggerArgs": 140331733,
    "personalConfig": 2,
    "parentID": "e18a6d9c-eeb0-43d9-aae2-2e39c969041d",
    "sourceNames": [
      {
        "sourceFileName": "VO_LQ\\VO_furina\\vo_CLLQ003_17_furina_05.wem",
        "rate": 1.0,
        "avatarName": "",
        "emotion": ""
      }
    ]
  }
}