{
  "0d2830de-21a7-4b25-9d76-b99252b581de": {
    "guid": "0d2830de-21a7-4b25-9d76-b99252b581de",
    "playRate": 1.0,
    "gameTrigger": "Dialog",
    "gameTriggerArgs": 693820101,
    "parentID": "ac002cf3-fd38-4039-b98f-74fb680c378f",
    "sourceNames": [
      {
        "sourceFileName": "VO_Tower\\vo_sethos_saferoom_rest_01.wem",
        "rate": 1.0,
        "avatarName": "",
        "emotion": ""
      }
    ]
  },
  "0ff77329-b576-4218-bd5f-9992540b3642": {
    "guid": "0ff77329-b576-4218-bd5f-9992540b3642",
    "playRate": 1.0,
    "gameTrigger": "Dialog",
    "gameTriggerArgs": 693820103,
    "parentID": "ac002cf3-fd38-4039-b98f-74fb680c378f",
    "sourceNames": [
      {
        "sourceFileName": "VO_Tower\\vo_sethos_saferoom_rest_03.wem",
        "rate": 1.0,
        "avatarName": "",
        "emotion": ""
      }
    ]
  },
  "188a2ced-2a2a-42f0-9088-9180610fd510": {
    "guid": "188a2ced-2a2a-42f0-9088-9180610fd510",
    "playRate": 1.0,
    "gameTrigger": "Dialog",
    "gameTriggerArgs": 693820201,
    "parentID": "ac002cf3-fd38-4039-b98f-74fb680c378f",
    "sourceNames": [
      {
        "sourceFileName": "VO_Tower\\vo_sethos_saferoom_challenge_01.wem",
        "rate": 1.0,
        "avatarName": "",
        "emotion": ""
      }
    ]
  },
  "29dc9468-0c35-46f2-a9d5-91a0167741e1": {
    "guid": "29dc9468-0c35-46f2-a9d5-91a0167741e1",
    "playRate": 1.0,
    "gameTrigger": "Dialog",
    "gameTriggerArgs": 693820203,
    "parentID": "ac002cf3-fd38-4039-b98f-74fb680c378f",
    "sourceNames": [
      {
        "sourceFileName": "VO_Tower\\vo_sethos_saferoom_challenge_03.wem",
        "rate": 1.0,
        "avatarName": "",
        "emotion": ""
      }
    ]
  },
  "4b25d79d-b702-47e9-a74f-33a35759da3d": {
    "guid": "4b25d79d-b702-47e9-a74f-33a35759da3d",
    "playRate": 1.0,
    "gameTrigger": "Dialog",
    "gameTriggerArgs": 693820302,
    "parentID": "ac002cf3-fd38-4039-b98f-74fb680c378f",
    "sourceNames": [
      {
        "sourceFileName": "VO_Tower\\vo_sethos_saferoom_others_02.wem",
        "rate": 1.0,
        "avatarName": "",
        "emotion": ""
      }
    ]
  },
  "4dd89b61-7f43-4ef0-8dbb-4590cc03691e": {
    "guid": "4dd89b61-7f43-4ef0-8dbb-4590cc03691e",
    "playRate": 1.0,
    "gameTrigger": "Dialog",
    "gameTriggerArgs": 693820303,
    "parentID": "ac002cf3-fd38-4039-b98f-74fb680c378f",
    "sourceNames": [
      {
        "sourceFileName": "VO_Tower\\vo_sethos_saferoom_others_03.wem",
        "rate": 1.0,
        "avatarName": "",
        "emotion": ""
      }
    ]
  },
  "82452a39-00ba-421c-9639-b451ae19eef1": {
    "guid": "82452a39-00ba-421c-9639-b451ae19eef1",
    "playRate": 1.0,
    "gameTrigger": "Dialog",
    "gameTriggerArgs": 693820202,
    "parentID": "ac002cf3-fd38-4039-b98f-74fb680c378f",
    "sourceNames": [
      {
        "sourceFileName": "VO_Tower\\vo_sethos_saferoom_challenge_02.wem",
        "rate": 1.0,
        "avatarName": "",
        "emotion": ""
      }
    ]
  },
  "c3503cc4-8f2f-4228-8df3-0e7e954b72a2": {
    "guid": "c3503cc4-8f2f-4228-8df3-0e7e954b72a2",
    "playRate": 1.0,
    "gameTrigger": "Dialog",
    "gameTriggerArgs": 693820102,
    "parentID": "ac002cf3-fd38-4039-b98f-74fb680c378f",
    "sourceNames": [
      {
        "sourceFileName": "VO_Tower\\vo_sethos_saferoom_rest_02.wem",
        "rate": 1.0,
        "avatarName": "",
        "emotion": ""
      }
    ]
  },
  "c7b5c42c-1dfa-40bc-8fde-34bf6f079c1b": {
    "guid": "c7b5c42c-1dfa-40bc-8fde-34bf6f079c1b",
    "playRate": 1.0,
    "gameTrigger": "Dialog",
    "gameTriggerArgs": 693820301,
    "parentID": "ac002cf3-fd38-4039-b98f-74fb680c378f",
    "sourceNames": [
      {
        "sourceFileName": "VO_Tower\\vo_sethos_saferoom_others_01.wem",
        "rate": 1.0,
        "avatarName": "",
        "emotion": ""
      }
    ]
  }
}