{
  "02dc5d47-8f70-428e-a2d6-78fa97836707": {
    "guid": "02dc5d47-8f70-428e-a2d6-78fa97836707",
    "playRate": 1.0,
    "gameTrigger": "Dialog",
    "gameTriggerArgs": 140323302,
    "personalConfig": 2,
    "parentID": "89e74197-8cf8-457a-a4d7-89a584c7f224",
    "sourceNames": [
      {
        "sourceFileName": "VO_LQ\\VO_clorinde\\vo_CLLQ002_3_clorinde_05.wem",
        "rate": 1.0,
        "avatarName": "",
        "emotion": ""
      }
    ]
  },
  "0f805330-5c19-4482-bbaf-743725f96a37": {
    "guid": "0f805330-5c19-4482-bbaf-743725f96a37",
    "playRate": 1.0,
    "gameTrigger": "Dialog",
    "gameTriggerArgs": 140323307,
    "personalConfig": 2,
    "parentID": "89e74197-8cf8-457a-a4d7-89a584c7f224",
    "sourceNames": [
      {
        "sourceFileName": "VO_LQ\\VO_clorinde\\vo_CLLQ002_3_clorinde_08.wem",
        "rate": 1.0,
        "avatarName": "",
        "emotion": ""
      }
    ]
  },
  "19e4742c-a058-4680-9d80-2ce70b6f5ead": {
    "guid": "19e4742c-a058-4680-9d80-2ce70b6f5ead",
    "playRate": 1.0,
    "gameTrigger": "Dialog",
    "gameTriggerArgs": 140323304,
    "personalConfig": 2,
    "parentID": "89e74197-8cf8-457a-a4d7-89a584c7f224",
    "sourceNames": [
      {
        "sourceFileName": "VO_LQ\\VO_paimon\\vo_CLLQ002_3_paimon_02.wem",
        "rate": 1.0,
        "avatarName": "",
        "emotion": ""
      }
    ]
  },
  "1ac5a2b2-1841-41b4-af56-916da4c17a2d": {
    "guid": "1ac5a2b2-1841-41b4-af56-916da4c17a2d",
    "playRate": 1.0,
    "gameTrigger": "Dialog",
    "gameTriggerArgs": 140320310,
    "personalConfig": 2,
    "parentID": "89e74197-8cf8-457a-a4d7-89a584c7f224",
    "sourceNames": [
      {
        "sourceFileName": "VO_LQ\\VO_navia\\vo_CLLQ002_3_navia_03.wem",
        "rate": 1.0,
        "avatarName": "",
        "emotion": ""
      }
    ]
  },
  "1b45bf8a-0a2d-4d2a-be7e-4575733b9890": {
    "guid": "1b45bf8a-0a2d-4d2a-be7e-4575733b9890",
    "playRate": 1.0,
    "gameTrigger": "Dialog",
    "gameTriggerArgs": 140323311,
    "personalConfig": 2,
    "parentID": "89e74197-8cf8-457a-a4d7-89a584c7f224",
    "sourceNames": [
      {
        "sourceFileName": "VO_LQ\\VO_navia\\vo_CLLQ002_3_navia_07.wem",
        "rate": 1.0,
        "avatarName": "",
        "emotion": ""
      }
    ]
  },
  "232b99be-a6a4-4a21-870d-76574c872378": {
    "guid": "232b99be-a6a4-4a21-870d-76574c872378",
    "playRate": 1.0,
    "gameTrigger": "Dialog",
    "gameTriggerArgs": 140323309,
    "personalConfig": 2,
    "parentID": "89e74197-8cf8-457a-a4d7-89a584c7f224",
    "sourceNames": [
      {
        "sourceFileName": "VO_LQ\\VO_clorinde\\vo_CLLQ002_3_clorinde_09.wem",
        "rate": 1.0,
        "avatarName": "",
        "emotion": ""
      }
    ]
  },
  "28d11652-0b27-4bc9-b54f-68486e2d9c2b": {
    "guid": "28d11652-0b27-4bc9-b54f-68486e2d9c2b",
    "playRate": 1.0,
    "gameTrigger": "Dialog",
    "gameTriggerArgs": 140323301,
    "personalConfig": 2,
    "parentID": "89e74197-8cf8-457a-a4d7-89a584c7f224",
    "sourceNames": [
      {
        "sourceFileName": "VO_LQ\\VO_clorinde\\vo_CLLQ002_3_clorinde_04.wem",
        "rate": 1.0,
        "avatarName": "",
        "emotion": ""
      }
    ]
  },
  "35228d56-77b6-4c30-b3ff-330e0dfd7abd": {
    "guid": "35228d56-77b6-4c30-b3ff-330e0dfd7abd",
    "playRate": 1.0,
    "gameTrigger": "Dialog",
    "gameTriggerArgs": 140323202,
    "personalConfig": 2,
    "parentID": "89e74197-8cf8-457a-a4d7-89a584c7f224",
    "sourceNames": [
      {
        "sourceFileName": "VO_LQ\\VO_hero\\vo_CLLQ002_3_hero_02.wem",
        "rate": 1.0,
        "avatarName": "Switch_hero",
        "emotion": "",
        "gender": 2
      },
      {
        "sourceFileName": "VO_LQ\\VO_heroine\\vo_CLLQ002_3_heroine_02.wem",
        "rate": 1.0,
        "avatarName": "Switch_heroine",
        "emotion": "",
        "gender": 1
      }
    ]
  },
  "5651163f-d1e6-44e0-8be0-ebd3e5326b3c": {
    "guid": "5651163f-d1e6-44e0-8be0-ebd3e5326b3c",
    "playRate": 1.0,
    "gameTrigger": "Dialog",
    "gameTriggerArgs": 140323308,
    "personalConfig": 2,
    "parentID": "89e74197-8cf8-457a-a4d7-89a584c7f224",
    "sourceNames": [
      {
        "sourceFileName": "VO_LQ\\VO_lyney\\vo_CLLQ002_3_lyney_04.wem",
        "rate": 1.0,
        "avatarName": "",
        "emotion": ""
      }
    ]
  },
  "5ecf0d77-51bd-4cc7-88f9-07f776d6acdd": {
    "guid": "5ecf0d77-51bd-4cc7-88f9-07f776d6acdd",
    "playRate": 1.0,
    "gameTrigger": "Dialog",
    "gameTriggerArgs": 140323310,
    "personalConfig": 2,
    "parentID": "89e74197-8cf8-457a-a4d7-89a584c7f224",
    "sourceNames": [
      {
        "sourceFileName": "VO_LQ\\VO_furina\\vo_CLLQ002_3_furina_04.wem",
        "rate": 1.0,
        "avatarName": "",
        "emotion": ""
      }
    ]
  },
  "5fed4505-1586-4626-be39-573caa1e0e7d": {
    "guid": "5fed4505-1586-4626-be39-573caa1e0e7d",
    "playRate": 1.0,
    "gameTrigger": "Dialog",
    "gameTriggerArgs": 140323204,
    "personalConfig": 2,
    "parentID": "89e74197-8cf8-457a-a4d7-89a584c7f224",
    "sourceNames": [
      {
        "sourceFileName": "VO_LQ\\VO_lyney\\vo_CLLQ002_3_lyney_03.wem",
        "rate": 1.0,
        "avatarName": "",
        "emotion": ""
      }
    ]
  },
  "6025db54-4a2e-48f0-85bc-be8ab1ebebf0": {
    "guid": "6025db54-4a2e-48f0-85bc-be8ab1ebebf0",
    "playRate": 1.0,
    "gameTrigger": "Dialog",
    "gameTriggerArgs": 140320304,
    "personalConfig": 2,
    "parentID": "89e74197-8cf8-457a-a4d7-89a584c7f224",
    "sourceNames": [
      {
        "sourceFileName": "VO_LQ\\VO_navia\\vo_CLLQ002_3_navia_01.wem",
        "rate": 1.0,
        "avatarName": "",
        "emotion": ""
      }
    ]
  },
  "7f9ac937-73ba-4a1e-bd67-538ea58a2053": {
    "guid": "7f9ac937-73ba-4a1e-bd67-538ea58a2053",
    "playRate": 1.0,
    "gameTrigger": "Dialog",
    "gameTriggerArgs": 140320303,
    "personalConfig": 2,
    "parentID": "89e74197-8cf8-457a-a4d7-89a584c7f224",
    "sourceNames": [
      {
        "sourceFileName": "VO_LQ\\VO_clorinde\\vo_CLLQ002_3_clorinde_03.wem",
        "rate": 1.0,
        "avatarName": "",
        "emotion": ""
      }
    ]
  },
  "8eeeaf2e-fa70-4ddb-baa5-530bf007b7b3": {
    "guid": "8eeeaf2e-fa70-4ddb-baa5-530bf007b7b3",
    "playRate": 1.0,
    "gameTrigger": "Dialog",
    "gameTriggerArgs": 140323313,
    "personalConfig": 2,
    "parentID": "89e74197-8cf8-457a-a4d7-89a584c7f224",
    "sourceNames": [
      {
        "sourceFileName": "VO_LQ\\VO_furina\\vo_CLLQ002_3_furina_05.wem",
        "rate": 1.0,
        "avatarName": "",
        "emotion": ""
      }
    ]
  },
  "8f0ef323-fefa-441b-991a-cc6406535fd6": {
    "guid": "8f0ef323-fefa-441b-991a-cc6406535fd6",
    "playRate": 1.0,
    "gameTrigger": "Dialog",
    "gameTriggerArgs": 140320305,
    "personalConfig": 2,
    "parentID": "89e74197-8cf8-457a-a4d7-89a584c7f224",
    "sourceNames": [
      {
        "sourceFileName": "VO_LQ\\VO_navia\\vo_CLLQ002_3_navia_02.wem",
        "rate": 1.0,
        "avatarName": "",
        "emotion": ""
      }
    ]
  },
  "9ecd4780-2aa7-4ea2-96cd-0a71df30744c": {
    "guid": "9ecd4780-2aa7-4ea2-96cd-0a71df30744c",
    "playRate": 1.0,
    "gameTrigger": "Dialog",
    "gameTriggerArgs": 140323303,
    "personalConfig": 2,
    "parentID": "89e74197-8cf8-457a-a4d7-89a584c7f224",
    "sourceNames": [
      {
        "sourceFileName": "VO_LQ\\VO_clorinde\\vo_CLLQ002_3_clorinde_06.wem",
        "rate": 1.0,
        "avatarName": "",
        "emotion": ""
      }
    ]
  },
  "a91cfb22-237b-47da-addb-daa33d406c05": {
    "guid": "a91cfb22-237b-47da-addb-daa33d406c05",
    "playRate": 1.0,
    "gameTrigger": "Dialog",
    "gameTriggerArgs": 140323203,
    "personalConfig": 2,
    "parentID": "89e74197-8cf8-457a-a4d7-89a584c7f224",
    "sourceNames": [
      {
        "sourceFileName": "VO_LQ\\VO_furina\\vo_CLLQ002_3_furina_03b_1.wem",
        "rate": 1.0,
        "avatarName": "",
        "emotion": ""
      }
    ]
  },
  "b1958235-e6d5-4962-bf20-2b67046a4b16": {
    "guid": "b1958235-e6d5-4962-bf20-2b67046a4b16",
    "playRate": 1.0,
    "gameTrigger": "Dialog",
    "gameTriggerArgs": 140323103,
    "personalConfig": 2,
    "parentID": "89e74197-8cf8-457a-a4d7-89a584c7f224",
    "sourceNames": [
      {
        "sourceFileName": "VO_LQ\\VO_navia\\vo_CLLQ002_3_navia_05a_1.wem",
        "rate": 1.0,
        "avatarName": "",
        "emotion": ""
      }
    ]
  },
  "b55a2458-4b05-49a6-b5cc-a95a0411bc59": {
    "guid": "b55a2458-4b05-49a6-b5cc-a95a0411bc59",
    "playRate": 1.0,
    "gameTrigger": "Dialog",
    "gameTriggerArgs": 140323305,
    "personalConfig": 2,
    "parentID": "89e74197-8cf8-457a-a4d7-89a584c7f224",
    "sourceNames": [
      {
        "sourceFileName": "VO_LQ\\VO_navia\\vo_CLLQ002_3_navia_06.wem",
        "rate": 1.0,
        "avatarName": "",
        "emotion": ""
      }
    ]
  },
  "beae93cc-5191-4713-9831-5095304f8c78": {
    "guid": "beae93cc-5191-4713-9831-5095304f8c78",
    "playRate": 1.0,
    "gameTrigger": "Dialog",
    "gameTriggerArgs": 140323312,
    "personalConfig": 2,
    "parentID": "89e74197-8cf8-457a-a4d7-89a584c7f224",
    "sourceNames": [
      {
        "sourceFileName": "VO_LQ\\VO_clorinde\\vo_CLLQ002_3_clorinde_10.wem",
        "rate": 1.0,
        "avatarName": "",
        "emotion": ""
      }
    ]
  },
  "d4b782d4-d51f-48f3-9e4f-9a14ceb63c74": {
    "guid": "d4b782d4-d51f-48f3-9e4f-9a14ceb63c74",
    "playRate": 1.0,
    "gameTrigger": "Dialog",
    "gameTriggerArgs": 140323306,
    "personalConfig": 2,
    "parentID": "89e74197-8cf8-457a-a4d7-89a584c7f224",
    "sourceNames": [
      {
        "sourceFileName": "VO_LQ\\VO_clorinde\\vo_CLLQ002_3_clorinde_07.wem",
        "rate": 1.0,
        "avatarName": "",
        "emotion": ""
      }
    ]
  },
  "d7380a83-1a39-409d-9887-bae47dcb96ef": {
    "guid": "d7380a83-1a39-409d-9887-bae47dcb96ef",
    "playRate": 1.0,
    "gameTrigger": "Dialog",
    "gameTriggerArgs": 140320301,
    "personalConfig": 2,
    "parentID": "89e74197-8cf8-457a-a4d7-89a584c7f224",
    "sourceNames": [
      {
        "sourceFileName": "VO_LQ\\VO_clorinde\\vo_CLLQ002_3_clorinde_01.wem",
        "rate": 1.0,
        "avatarName": "",
        "emotion": ""
      }
    ]
  },
  "e0307f28-f992-4215-9413-3b6bc20b1067": {
    "guid": "e0307f28-f992-4215-9413-3b6bc20b1067",
    "playRate": 1.0,
    "gameTrigger": "Dialog",
    "gameTriggerArgs": 140320308,
    "personalConfig": 2,
    "NJKDHJOHKCM": 1,
    "parentID": "89e74197-8cf8-457a-a4d7-89a584c7f224",
    "sourceNames": [
      {
        "sourceFileName": "VO_LQ\\VO_furina\\vo_CLLQ002_3_furina_01.wem",
        "rate": 1.0,
        "avatarName": "",
        "emotion": ""
      }
    ]
  },
  "e15b3dcc-9563-4f46-939e-295e3304397e": {
    "guid": "e15b3dcc-9563-4f46-939e-295e3304397e",
    "playRate": 1.0,
    "gameTrigger": "Dialog",
    "gameTriggerArgs": 140320306,
    "personalConfig": 2,
    "parentID": "89e74197-8cf8-457a-a4d7-89a584c7f224",
    "sourceNames": [
      {
        "sourceFileName": "VO_LQ\\VO_lyney\\vo_CLLQ002_3_lyney_01.wem",
        "rate": 1.0,
        "avatarName": "",
        "emotion": ""
      }
    ]
  },
  "e409134d-39a8-4daa-9a4f-1dd286ea4639": {
    "guid": "e409134d-39a8-4daa-9a4f-1dd286ea4639",
    "playRate": 1.0,
    "gameTrigger": "Dialog",
    "gameTriggerArgs": 140320312,
    "personalConfig": 2,
    "parentID": "89e74197-8cf8-457a-a4d7-89a584c7f224",
    "sourceNames": [
      {
        "sourceFileName": "VO_LQ\\VO_paimon\\vo_CLLQ002_3_paimon_01.wem",
        "rate": 1.0,
        "avatarName": "",
        "emotion": ""
      }
    ]
  },
  "e4edbc6c-b57a-45ca-b0c9-59bfaeee03c6": {
    "guid": "e4edbc6c-b57a-45ca-b0c9-59bfaeee03c6",
    "playRate": 1.0,
    "gameTrigger": "Dialog",
    "gameTriggerArgs": 140323102,
    "personalConfig": 2,
    "parentID": "89e74197-8cf8-457a-a4d7-89a584c7f224",
    "sourceNames": [
      {
        "sourceFileName": "VO_LQ\\VO_hero\\vo_CLLQ002_3_hero_01.wem",
        "rate": 1.0,
        "avatarName": "Switch_hero",
        "emotion": "",
        "gender": 2
      },
      {
        "sourceFileName": "VO_LQ\\VO_heroine\\vo_CLLQ002_3_heroine_01.wem",
        "rate": 1.0,
        "avatarName": "Switch_heroine",
        "emotion": "",
        "gender": 1
      }
    ]
  },
  "e87be130-51a0-465f-a673-6ba887b9745c": {
    "guid": "e87be130-51a0-465f-a673-6ba887b9745c",
    "playRate": 1.0,
    "gameTrigger": "Dialog",
    "gameTriggerArgs": 140320307,
    "personalConfig": 2,
    "parentID": "89e74197-8cf8-457a-a4d7-89a584c7f224",
    "sourceNames": [
      {
        "sourceFileName": "VO_LQ\\VO_lyney\\vo_CLLQ002_3_lyney_02.wem",
        "rate": 1.0,
        "avatarName": "",
        "emotion": ""
      }
    ]
  },
  "ee49ff8c-bfe0-4533-9817-53c53dc00051": {
    "guid": "ee49ff8c-bfe0-4533-9817-53c53dc00051",
    "playRate": 1.0,
    "gameTrigger": "Dialog",
    "gameTriggerArgs": 140320302,
    "personalConfig": 2,
    "parentID": "89e74197-8cf8-457a-a4d7-89a584c7f224",
    "sourceNames": [
      {
        "sourceFileName": "VO_LQ\\VO_clorinde\\vo_CLLQ002_3_clorinde_02.wem",
        "rate": 1.0,
        "avatarName": "",
        "emotion": ""
      }
    ]
  },
  "fcf5d45c-6835-4646-90a5-c651adc42e3a": {
    "guid": "fcf5d45c-6835-4646-90a5-c651adc42e3a",
    "playRate": 1.0,
    "gameTrigger": "Dialog",
    "gameTriggerArgs": 140320311,
    "personalConfig": 2,
    "NJKDHJOHKCM": 1,
    "parentID": "89e74197-8cf8-457a-a4d7-89a584c7f224",
    "sourceNames": [
      {
        "sourceFileName": "VO_LQ\\VO_navia\\vo_CLLQ002_3_navia_04.wem",
        "rate": 1.0,
        "avatarName": "",
        "emotion": ""
      }
    ]
  },
  "fdb8c6b4-c4df-4387-8107-967e0cad88ba": {
    "guid": "fdb8c6b4-c4df-4387-8107-967e0cad88ba",
    "playRate": 1.0,
    "gameTrigger": "Dialog",
    "gameTriggerArgs": 140320309,
    "personalConfig": 2,
    "parentID": "89e74197-8cf8-457a-a4d7-89a584c7f224",
    "sourceNames": [
      {
        "sourceFileName": "VO_LQ\\VO_furina\\vo_CLLQ002_3_furina_02.wem",
        "rate": 1.0,
        "avatarName": "",
        "emotion": ""
      }
    ]
  }
}