{
  "0742edb4-8d2b-427a-bc37-76098d12fe1d": {
    "guid": "0742edb4-8d2b-427a-bc37-76098d12fe1d",
    "playRate": 1.0,
    "gameTrigger": "Dialog",
    "gameTriggerArgs": 140330805,
    "personalConfig": 2,
    "parentID": "6580c523-578c-4f08-8ec2-2c07512f8edc",
    "sourceNames": [
      {
        "sourceFileName": "VO_LQ\\VO_clorinde\\vo_CLLQ003_4_clorinde_01.wem",
        "rate": 1.0,
        "avatarName": "",
        "emotion": ""
      }
    ]
  },
  "07b92e0c-4861-4bfa-89a8-a2aedca6ac0d": {
    "guid": "07b92e0c-4861-4bfa-89a8-a2aedca6ac0d",
    "playRate": 1.0,
    "gameTrigger": "Dialog",
    "gameTriggerArgs": 140330815,
    "personalConfig": 2,
    "parentID": "6580c523-578c-4f08-8ec2-2c07512f8edc",
    "sourceNames": [
      {
        "sourceFileName": "VO_LQ\\VO_clorinde\\vo_CLLQ003_4_clorinde_09.wem",
        "rate": 1.0,
        "avatarName": "",
        "emotion": ""
      }
    ]
  },
  "09df8226-f43a-4ffd-846e-9141e08e9de7": {
    "guid": "09df8226-f43a-4ffd-846e-9141e08e9de7",
    "playRate": 1.0,
    "gameTrigger": "Dialog",
    "gameTriggerArgs": 140330838,
    "personalConfig": 2,
    "parentID": "6580c523-578c-4f08-8ec2-2c07512f8edc",
    "sourceNames": [
      {
        "sourceFileName": "VO_LQ\\VO_navia\\vo_CLLQ003_4_navia_03.wem",
        "rate": 1.0,
        "avatarName": "",
        "emotion": ""
      }
    ]
  },
  "12a959cf-aeba-4e99-8330-2ce7096fc759": {
    "guid": "12a959cf-aeba-4e99-8330-2ce7096fc759",
    "playRate": 1.0,
    "gameTrigger": "Dialog",
    "gameTriggerArgs": 140330832,
    "personalConfig": 2,
    "parentID": "6580c523-578c-4f08-8ec2-2c07512f8edc",
    "sourceNames": [
      {
        "sourceFileName": "VO_LQ\\VO_clorinde\\vo_CLLQ003_4_clorinde_17.wem",
        "rate": 1.0,
        "avatarName": "",
        "emotion": ""
      }
    ]
  },
  "157ac24c-1ba8-40da-a6f2-e355cf007e41": {
    "guid": "157ac24c-1ba8-40da-a6f2-e355cf007e41",
    "playRate": 1.0,
    "gameTrigger": "Dialog",
    "gameTriggerArgs": 140330809,
    "personalConfig": 2,
    "parentID": "6580c523-578c-4f08-8ec2-2c07512f8edc",
    "sourceNames": [
      {
        "sourceFileName": "VO_LQ\\VO_clorinde\\vo_CLLQ003_4_clorinde_04.wem",
        "rate": 1.0,
        "avatarName": "",
        "emotion": ""
      }
    ]
  },
  "1e8f1df9-cf62-4942-b6d7-fa4f19df9aff": {
    "guid": "1e8f1df9-cf62-4942-b6d7-fa4f19df9aff",
    "playRate": 1.0,
    "gameTrigger": "Dialog",
    "gameTriggerArgs": 140330802,
    "personalConfig": 2,
    "parentID": "6580c523-578c-4f08-8ec2-2c07512f8edc",
    "sourceNames": [
      {
        "sourceFileName": "VO_LQ\\VO_furina\\vo_CLLQ003_4_furina_01.wem",
        "rate": 1.0,
        "avatarName": "",
        "emotion": ""
      }
    ]
  },
  "1f2c5fba-286f-425a-ba69-9d6f5719ca4d": {
    "guid": "1f2c5fba-286f-425a-ba69-9d6f5719ca4d",
    "playRate": 1.0,
    "gameTrigger": "Dialog",
    "gameTriggerArgs": 140330814,
    "personalConfig": 2,
    "parentID": "6580c523-578c-4f08-8ec2-2c07512f8edc",
    "sourceNames": [
      {
        "sourceFileName": "VO_LQ\\VO_clorinde\\vo_CLLQ003_4_clorinde_08.wem",
        "rate": 1.0,
        "avatarName": "",
        "emotion": ""
      }
    ]
  },
  "2e322b96-5580-4c0d-a729-ceb36fc37182": {
    "guid": "2e322b96-5580-4c0d-a729-ceb36fc37182",
    "playRate": 1.0,
    "gameTrigger": "Dialog",
    "gameTriggerArgs": 140330817,
    "personalConfig": 2,
    "parentID": "6580c523-578c-4f08-8ec2-2c07512f8edc",
    "sourceNames": [
      {
        "sourceFileName": "VO_LQ\\VO_clorinde\\vo_CLLQ003_4_clorinde_11.wem",
        "rate": 1.0,
        "avatarName": "",
        "emotion": ""
      }
    ]
  },
  "36baceae-297b-4ea0-9fcc-818cfa87826e": {
    "guid": "36baceae-297b-4ea0-9fcc-818cfa87826e",
    "playRate": 1.0,
    "gameTrigger": "Dialog",
    "gameTriggerArgs": 140330822,
    "personalConfig": 2,
    "parentID": "6580c523-578c-4f08-8ec2-2c07512f8edc",
    "sourceNames": [
      {
        "sourceFileName": "VO_LQ\\VO_paimon\\vo_CLLQ003_4_paimon_06.wem",
        "rate": 1.0,
        "avatarName": "",
        "emotion": ""
      }
    ]
  },
  "37514435-94a0-4920-a2cc-6a822fd5056e": {
    "guid": "37514435-94a0-4920-a2cc-6a822fd5056e",
    "playRate": 1.0,
    "gameTrigger": "Dialog",
    "gameTriggerArgs": 140330810,
    "personalConfig": 2,
    "parentID": "6580c523-578c-4f08-8ec2-2c07512f8edc",
    "sourceNames": [
      {
        "sourceFileName": "VO_LQ\\VO_clorinde\\vo_CLLQ003_4_clorinde_05.wem",
        "rate": 1.0,
        "avatarName": "",
        "emotion": ""
      }
    ]
  },
  "37f4fee2-dbed-46a5-979f-ae571fda4854": {
    "guid": "37f4fee2-dbed-46a5-979f-ae571fda4854",
    "playRate": 1.0,
    "gameTrigger": "Dialog",
    "gameTriggerArgs": 140330823,
    "personalConfig": 2,
    "NJKDHJOHKCM": 1,
    "parentID": "6580c523-578c-4f08-8ec2-2c07512f8edc",
    "sourceNames": [
      {
        "sourceFileName": "VO_LQ\\VO_furina\\vo_CLLQ003_4_furina_03.wem",
        "rate": 1.0,
        "avatarName": "",
        "emotion": ""
      }
    ]
  },
  "42ba4a63-c731-4a58-bd60-e92326d57470": {
    "guid": "42ba4a63-c731-4a58-bd60-e92326d57470",
    "playRate": 1.0,
    "gameTrigger": "Dialog",
    "gameTriggerArgs": 140330827,
    "personalConfig": 2,
    "parentID": "6580c523-578c-4f08-8ec2-2c07512f8edc",
    "sourceNames": [
      {
        "sourceFileName": "VO_LQ\\VO_clorinde\\vo_CLLQ003_4_clorinde_15.wem",
        "rate": 1.0,
        "avatarName": "",
        "emotion": ""
      }
    ]
  },
  "4dfba8fe-e5dd-4688-b3e5-0b253f34d212": {
    "guid": "4dfba8fe-e5dd-4688-b3e5-0b253f34d212",
    "playRate": 1.0,
    "gameTrigger": "Dialog",
    "gameTriggerArgs": 140330830,
    "personalConfig": 2,
    "parentID": "6580c523-578c-4f08-8ec2-2c07512f8edc",
    "sourceNames": [
      {
        "sourceFileName": "VO_LQ\\VO_clorinde\\vo_CLLQ003_4_clorinde_16.wem",
        "rate": 1.0,
        "avatarName": "",
        "emotion": ""
      }
    ]
  },
  "4f3f11cd-5cf1-42a5-b7e3-d48ed182acfb": {
    "guid": "4f3f11cd-5cf1-42a5-b7e3-d48ed182acfb",
    "playRate": 1.0,
    "gameTrigger": "Dialog",
    "gameTriggerArgs": 140330821,
    "personalConfig": 2,
    "parentID": "6580c523-578c-4f08-8ec2-2c07512f8edc",
    "sourceNames": [
      {
        "sourceFileName": "VO_LQ\\VO_clorinde\\vo_CLLQ003_4_clorinde_12.wem",
        "rate": 1.0,
        "avatarName": "",
        "emotion": ""
      }
    ]
  },
  "4f994411-aee8-43e5-ac04-d3eda21e39ec": {
    "guid": "4f994411-aee8-43e5-ac04-d3eda21e39ec",
    "playRate": 1.0,
    "gameTrigger": "Dialog",
    "gameTriggerArgs": 140330837,
    "personalConfig": 2,
    "parentID": "6580c523-578c-4f08-8ec2-2c07512f8edc",
    "sourceNames": [
      {
        "sourceFileName": "VO_LQ\\VO_clorinde\\vo_CLLQ003_4_clorinde_19.wem",
        "rate": 1.0,
        "avatarName": "",
        "emotion": ""
      }
    ]
  },
  "547b7357-83e6-4e98-8cb7-f864f1a9581f": {
    "guid": "547b7357-83e6-4e98-8cb7-f864f1a9581f",
    "playRate": 1.0,
    "gameTrigger": "Dialog",
    "gameTriggerArgs": 140330845,
    "personalConfig": 2,
    "parentID": "6580c523-578c-4f08-8ec2-2c07512f8edc",
    "sourceNames": [
      {
        "sourceFileName": "VO_LQ\\VO_paimon\\vo_CLLQ003_4_paimon_11.wem",
        "rate": 1.0,
        "avatarName": "",
        "emotion": ""
      }
    ]
  },
  "5cb574a1-b3f6-45ac-ab49-ca02bc3d9867": {
    "guid": "5cb574a1-b3f6-45ac-ab49-ca02bc3d9867",
    "playRate": 1.0,
    "gameTrigger": "Dialog",
    "gameTriggerArgs": 140330801,
    "personalConfig": 2,
    "parentID": "6580c523-578c-4f08-8ec2-2c07512f8edc",
    "sourceNames": [
      {
        "sourceFileName": "VO_LQ\\VO_lyney\\vo_CLLQ003_4_lyney_01.wem",
        "rate": 1.0,
        "avatarName": "",
        "emotion": ""
      }
    ]
  },
  "5d068fc4-0489-413b-80df-90f7625b3909": {
    "guid": "5d068fc4-0489-413b-80df-90f7625b3909",
    "playRate": 1.0,
    "gameTrigger": "Dialog",
    "gameTriggerArgs": 140330835,
    "personalConfig": 2,
    "NJKDHJOHKCM": 1,
    "parentID": "6580c523-578c-4f08-8ec2-2c07512f8edc",
    "sourceNames": [
      {
        "sourceFileName": "VO_LQ\\VO_furina\\vo_CLLQ003_4_furina_05.wem",
        "rate": 1.0,
        "avatarName": "",
        "emotion": ""
      }
    ]
  },
  "5f6d7f10-1e78-467d-ad41-362c5da05619": {
    "guid": "5f6d7f10-1e78-467d-ad41-362c5da05619",
    "playRate": 1.0,
    "gameTrigger": "Dialog",
    "gameTriggerArgs": 140330828,
    "personalConfig": 2,
    "parentID": "6580c523-578c-4f08-8ec2-2c07512f8edc",
    "sourceNames": [
      {
        "sourceFileName": "VO_LQ\\VO_furina\\vo_CLLQ003_4_furina_04.wem",
        "rate": 1.0,
        "avatarName": "",
        "emotion": ""
      }
    ]
  },
  "60e730d3-2a1b-432c-8b4e-266133b93472": {
    "guid": "60e730d3-2a1b-432c-8b4e-266133b93472",
    "playRate": 1.0,
    "gameTrigger": "Dialog",
    "gameTriggerArgs": 140330843,
    "personalConfig": 2,
    "parentID": "6580c523-578c-4f08-8ec2-2c07512f8edc",
    "sourceNames": [
      {
        "sourceFileName": "VO_LQ\\VO_navia\\vo_CLLQ003_4_navia_04.wem",
        "rate": 1.0,
        "avatarName": "",
        "emotion": ""
      }
    ]
  },
  "6852fdfb-55a0-4c81-b470-a04dae93c3a9": {
    "guid": "6852fdfb-55a0-4c81-b470-a04dae93c3a9",
    "playRate": 1.0,
    "gameTrigger": "Dialog",
    "gameTriggerArgs": 140330826,
    "personalConfig": 2,
    "parentID": "6580c523-578c-4f08-8ec2-2c07512f8edc",
    "sourceNames": [
      {
        "sourceFileName": "VO_LQ\\VO_clorinde\\vo_CLLQ003_4_clorinde_14.wem",
        "rate": 1.0,
        "avatarName": "",
        "emotion": ""
      }
    ]
  },
  "756c31ba-de85-4cf1-b77c-516685fa0402": {
    "guid": "756c31ba-de85-4cf1-b77c-516685fa0402",
    "playRate": 1.0,
    "gameTrigger": "Dialog",
    "gameTriggerArgs": 140330811,
    "personalConfig": 2,
    "parentID": "6580c523-578c-4f08-8ec2-2c07512f8edc",
    "sourceNames": [
      {
        "sourceFileName": "VO_LQ\\VO_clorinde\\vo_CLLQ003_4_clorinde_06.wem",
        "rate": 1.0,
        "avatarName": "",
        "emotion": ""
      }
    ]
  },
  "7c1a439e-9091-4078-80eb-495464378e62": {
    "guid": "7c1a439e-9091-4078-80eb-495464378e62",
    "playRate": 1.0,
    "gameTrigger": "Dialog",
    "gameTriggerArgs": 140330834,
    "personalConfig": 2,
    "parentID": "6580c523-578c-4f08-8ec2-2c07512f8edc",
    "sourceNames": [
      {
        "sourceFileName": "VO_LQ\\VO_clorinde\\vo_CLLQ003_4_clorinde_18.wem",
        "rate": 1.0,
        "avatarName": "",
        "emotion": ""
      }
    ]
  },
  "82868e0f-0bf3-41fe-8b24-a4d2b6f826e2": {
    "guid": "82868e0f-0bf3-41fe-8b24-a4d2b6f826e2",
    "playRate": 1.0,
    "gameTrigger": "Dialog",
    "gameTriggerArgs": 140330825,
    "personalConfig": 2,
    "parentID": "6580c523-578c-4f08-8ec2-2c07512f8edc",
    "sourceNames": [
      {
        "sourceFileName": "VO_LQ\\VO_lyney\\vo_CLLQ003_4_lyney_02.wem",
        "rate": 1.0,
        "avatarName": "",
        "emotion": ""
      }
    ]
  },
  "8bde3d79-5c22-4748-ac0b-eac7b33eb59e": {
    "guid": "8bde3d79-5c22-4748-ac0b-eac7b33eb59e",
    "playRate": 1.0,
    "gameTrigger": "Dialog",
    "gameTriggerArgs": 140330824,
    "personalConfig": 2,
    "parentID": "6580c523-578c-4f08-8ec2-2c07512f8edc",
    "sourceNames": [
      {
        "sourceFileName": "VO_LQ\\VO_clorinde\\vo_CLLQ003_4_clorinde_13.wem",
        "rate": 1.0,
        "avatarName": "",
        "emotion": ""
      }
    ]
  },
  "8beebd36-3c03-4c55-808c-2f28459eeb1d": {
    "guid": "8beebd36-3c03-4c55-808c-2f28459eeb1d",
    "playRate": 1.0,
    "gameTrigger": "Dialog",
    "gameTriggerArgs": 140330842,
    "personalConfig": 2,
    "parentID": "6580c523-578c-4f08-8ec2-2c07512f8edc",
    "sourceNames": [
      {
        "sourceFileName": "VO_LQ\\VO_furina\\vo_CLLQ003_4_furina_06.wem",
        "rate": 1.0,
        "avatarName": "",
        "emotion": ""
      }
    ]
  },
  "8c32910f-61f1-4a6b-8912-d4d2617e9b12": {
    "guid": "8c32910f-61f1-4a6b-8912-d4d2617e9b12",
    "playRate": 1.0,
    "gameTrigger": "Dialog",
    "gameTriggerArgs": 140330833,
    "personalConfig": 2,
    "parentID": "6580c523-578c-4f08-8ec2-2c07512f8edc",
    "sourceNames": [
      {
        "sourceFileName": "VO_LQ\\VO_paimon\\vo_CLLQ003_4_paimon_09.wem",
        "rate": 1.0,
        "avatarName": "",
        "emotion": ""
      }
    ]
  },
  "8e475b0b-3f72-493b-a0f5-d0fe8492c785": {
    "guid": "8e475b0b-3f72-493b-a0f5-d0fe8492c785",
    "playRate": 1.0,
    "gameTrigger": "Dialog",
    "gameTriggerArgs": 140330839,
    "personalConfig": 2,
    "parentID": "6580c523-578c-4f08-8ec2-2c07512f8edc",
    "sourceNames": [
      {
        "sourceFileName": "VO_LQ\\VO_clorinde\\vo_CLLQ003_4_clorinde_20.wem",
        "rate": 1.0,
        "avatarName": "",
        "emotion": ""
      }
    ]
  },
  "93027259-8ee3-44a8-9149-6314bf868a23": {
    "guid": "93027259-8ee3-44a8-9149-6314bf868a23",
    "playRate": 1.0,
    "gameTrigger": "Dialog",
    "gameTriggerArgs": 140330841,
    "personalConfig": 2,
    "parentID": "6580c523-578c-4f08-8ec2-2c07512f8edc",
    "sourceNames": [
      {
        "sourceFileName": "VO_LQ\\VO_paimon\\vo_CLLQ003_4_paimon_10.wem",
        "rate": 1.0,
        "avatarName": "",
        "emotion": ""
      }
    ]
  },
  "9341710f-0791-4f44-a322-7f8021de4027": {
    "guid": "9341710f-0791-4f44-a322-7f8021de4027",
    "playRate": 1.0,
    "gameTrigger": "Dialog",
    "gameTriggerArgs": 140330808,
    "personalConfig": 2,
    "parentID": "6580c523-578c-4f08-8ec2-2c07512f8edc",
    "sourceNames": [
      {
        "sourceFileName": "VO_LQ\\VO_clorinde\\vo_CLLQ003_4_clorinde_03.wem",
        "rate": 1.0,
        "avatarName": "",
        "emotion": ""
      }
    ]
  },
  "94154d83-eb0a-4d6f-9205-f8ab831a0fe5": {
    "guid": "94154d83-eb0a-4d6f-9205-f8ab831a0fe5",
    "playRate": 1.0,
    "gameTrigger": "Dialog",
    "gameTriggerArgs": 140330840,
    "personalConfig": 2,
    "parentID": "6580c523-578c-4f08-8ec2-2c07512f8edc",
    "sourceNames": [
      {
        "sourceFileName": "VO_LQ\\VO_clorinde\\vo_CLLQ003_4_clorinde_21.wem",
        "rate": 1.0,
        "avatarName": "",
        "emotion": ""
      }
    ]
  },
  "9fcc5898-09a7-4362-9151-38864a5f4b0b": {
    "guid": "9fcc5898-09a7-4362-9151-38864a5f4b0b",
    "playRate": 1.0,
    "gameTrigger": "Dialog",
    "gameTriggerArgs": 140330818,
    "personalConfig": 2,
    "parentID": "6580c523-578c-4f08-8ec2-2c07512f8edc",
    "sourceNames": [
      {
        "sourceFileName": "VO_LQ\\VO_paimon\\vo_CLLQ003_4_paimon_03.wem",
        "rate": 1.0,
        "avatarName": "",
        "emotion": ""
      }
    ]
  },
  "a024a111-e754-46df-8e74-5de8772eba9a": {
    "guid": "a024a111-e754-46df-8e74-5de8772eba9a",
    "playRate": 1.0,
    "gameTrigger": "Dialog",
    "gameTriggerArgs": 140330813,
    "personalConfig": 2,
    "NJKDHJOHKCM": 1,
    "parentID": "6580c523-578c-4f08-8ec2-2c07512f8edc",
    "sourceNames": [
      {
        "sourceFileName": "VO_LQ\\VO_furina\\vo_CLLQ003_4_furina_02.wem",
        "rate": 1.0,
        "avatarName": "",
        "emotion": ""
      }
    ]
  },
  "a0b64cfe-8fda-46e2-8867-630bb6650614": {
    "guid": "a0b64cfe-8fda-46e2-8867-630bb6650614",
    "playRate": 1.0,
    "gameTrigger": "Dialog",
    "gameTriggerArgs": 140330812,
    "personalConfig": 2,
    "parentID": "6580c523-578c-4f08-8ec2-2c07512f8edc",
    "sourceNames": [
      {
        "sourceFileName": "VO_LQ\\VO_clorinde\\vo_CLLQ003_4_clorinde_07.wem",
        "rate": 1.0,
        "avatarName": "",
        "emotion": ""
      }
    ]
  },
  "a1862471-b418-44f2-a16a-68b02b20b096": {
    "guid": "a1862471-b418-44f2-a16a-68b02b20b096",
    "playRate": 1.0,
    "gameTrigger": "Dialog",
    "gameTriggerArgs": 140330831,
    "personalConfig": 2,
    "parentID": "6580c523-578c-4f08-8ec2-2c07512f8edc",
    "sourceNames": [
      {
        "sourceFileName": "VO_LQ\\VO_paimon\\vo_CLLQ003_4_paimon_08.wem",
        "rate": 1.0,
        "avatarName": "",
        "emotion": ""
      }
    ]
  },
  "a2d69cb2-5538-4c19-b516-3f0d01e301a8": {
    "guid": "a2d69cb2-5538-4c19-b516-3f0d01e301a8",
    "playRate": 1.0,
    "gameTrigger": "Dialog",
    "gameTriggerArgs": 140330806,
    "personalConfig": 2,
    "parentID": "6580c523-578c-4f08-8ec2-2c07512f8edc",
    "sourceNames": [
      {
        "sourceFileName": "VO_LQ\\VO_clorinde\\vo_CLLQ003_4_clorinde_02.wem",
        "rate": 1.0,
        "avatarName": "",
        "emotion": ""
      }
    ]
  },
  "a5dbbc08-4650-44b5-84fc-16557c488351": {
    "guid": "a5dbbc08-4650-44b5-84fc-16557c488351",
    "playRate": 1.0,
    "gameTrigger": "Dialog",
    "gameTriggerArgs": 140330803,
    "personalConfig": 2,
    "parentID": "6580c523-578c-4f08-8ec2-2c07512f8edc",
    "sourceNames": [
      {
        "sourceFileName": "VO_LQ\\VO_navia\\vo_CLLQ003_4_navia_01.wem",
        "rate": 1.0,
        "avatarName": "",
        "emotion": ""
      }
    ]
  },
  "ae010341-0958-41ba-a5ad-1a915d1eed47": {
    "guid": "ae010341-0958-41ba-a5ad-1a915d1eed47",
    "playRate": 1.0,
    "gameTrigger": "Dialog",
    "gameTriggerArgs": 140330829,
    "personalConfig": 2,
    "parentID": "6580c523-578c-4f08-8ec2-2c07512f8edc",
    "sourceNames": [
      {
        "sourceFileName": "VO_LQ\\VO_paimon\\vo_CLLQ003_4_paimon_07.wem",
        "rate": 1.0,
        "avatarName": "",
        "emotion": ""
      }
    ]
  },
  "b078fbe7-e4c9-4af9-9867-37edc96abb77": {
    "guid": "b078fbe7-e4c9-4af9-9867-37edc96abb77",
    "playRate": 1.0,
    "gameTrigger": "Dialog",
    "gameTriggerArgs": 140330819,
    "personalConfig": 2,
    "parentID": "6580c523-578c-4f08-8ec2-2c07512f8edc",
    "sourceNames": [
      {
        "sourceFileName": "VO_LQ\\VO_paimon\\vo_CLLQ003_4_paimon_04.wem",
        "rate": 1.0,
        "avatarName": "",
        "emotion": ""
      }
    ]
  },
  "b72a8748-9aa1-4a76-9ff0-f790cf8d324d": {
    "guid": "b72a8748-9aa1-4a76-9ff0-f790cf8d324d",
    "playRate": 1.0,
    "gameTrigger": "Dialog",
    "gameTriggerArgs": 140330836,
    "personalConfig": 2,
    "parentID": "6580c523-578c-4f08-8ec2-2c07512f8edc",
    "sourceNames": [
      {
        "sourceFileName": "VO_LQ\\VO_navia\\vo_CLLQ003_4_navia_02.wem",
        "rate": 1.0,
        "avatarName": "",
        "emotion": ""
      }
    ]
  },
  "cc6e0027-9414-4093-9b96-89894b7a1c1d": {
    "guid": "cc6e0027-9414-4093-9b96-89894b7a1c1d",
    "playRate": 1.0,
    "gameTrigger": "Dialog",
    "gameTriggerArgs": 140330816,
    "personalConfig": 2,
    "parentID": "6580c523-578c-4f08-8ec2-2c07512f8edc",
    "sourceNames": [
      {
        "sourceFileName": "VO_LQ\\VO_clorinde\\vo_CLLQ003_4_clorinde_10.wem",
        "rate": 1.0,
        "avatarName": "",
        "emotion": ""
      }
    ]
  },
  "d036c31d-7b3a-4256-9bab-c95ab01cdc42": {
    "guid": "d036c31d-7b3a-4256-9bab-c95ab01cdc42",
    "playRate": 1.0,
    "gameTrigger": "Dialog",
    "gameTriggerArgs": 140330804,
    "personalConfig": 2,
    "parentID": "6580c523-578c-4f08-8ec2-2c07512f8edc",
    "sourceNames": [
      {
        "sourceFileName": "VO_LQ\\VO_paimon\\vo_CLLQ003_4_paimon_01.wem",
        "rate": 1.0,
        "avatarName": "",
        "emotion": ""
      }
    ]
  },
  "f2978458-bd7f-45d6-a4ad-ed96ce6b531f": {
    "guid": "f2978458-bd7f-45d6-a4ad-ed96ce6b531f",
    "playRate": 1.0,
    "gameTrigger": "Dialog",
    "gameTriggerArgs": 140330807,
    "personalConfig": 2,
    "parentID": "6580c523-578c-4f08-8ec2-2c07512f8edc",
    "sourceNames": [
      {
        "sourceFileName": "VO_LQ\\VO_paimon\\vo_CLLQ003_4_paimon_02.wem",
        "rate": 1.0,
        "avatarName": "",
        "emotion": ""
      }
    ]
  },
  "f2cebc6a-4bf4-453e-9618-de4abcc50e98": {
    "guid": "f2cebc6a-4bf4-453e-9618-de4abcc50e98",
    "playRate": 1.0,
    "gameTrigger": "Dialog",
    "gameTriggerArgs": 140330820,
    "personalConfig": 2,
    "parentID": "6580c523-578c-4f08-8ec2-2c07512f8edc",
    "sourceNames": [
      {
        "sourceFileName": "VO_LQ\\VO_paimon\\vo_CLLQ003_4_paimon_05.wem",
        "rate": 1.0,
        "avatarName": "",
        "emotion": ""
      }
    ]
  }
}