{
  "luaDataPath": "",
  "dontUseDefaultFinish": true,
  "startBlackKeepTime": 0.5,
  "entityBan": "",
  "disableNpcLod": true,
  "isAutoBanNpc": true,
  "isBanWidgetPet": true,
  "protectNpcMobileLod": true,
  "talkFlag": 7,
  "startFade": {
    "startFadeInDuration": 0.5,
    "startFadeOutDuration": 0.5
  },
  "endFade": {
    "startFadeOutDuration": 0.0
  },
  "actors": [
    {
      "alias": "Avatar",
      "visible": true,
      "bornPointName": "[1081_17:4.953,0.005,1.300,0.000,131.534,0.000]",
      "relativePosType": "AVATAR_NEW",
      "relativePosNpcAlias": "",
      "_notDestroyInTalk": true,
      "_bindMovingTargetKey": ""
    },
    {
      "alias": "AvatarNpc",
      "visible": true,
      "bornPointName": "[1081_17:4.953,0.005,1.300,0.000,131.534,0.000]",
      "removeActorType": "NEW_REMOVE",
      "relativePosType": "AVATAR_NEW",
      "relativePosNpcAlias": "",
      "_notDestroyInTalk": true,
      "_bindMovingTargetKey": ""
    },
    {
      "configID": 2511,
      "alias": "2511",
      "visible": true,
      "bornPointName": "[1081_16:6.096,0.005,0.520,0.000,308.213,0.000]",
      "forceCreateDaily": true,
      "relativePosType": "AVATAR_NEW",
      "relativePosNpcAlias": "",
      "_notDestroyInTalk": true,
      "_bindMovingTargetKey": ""
    }
  ],
  "group": [
    [
      {
        "$type": "MoleMole.Config.ConfigTimeProtectAction",
        "type": "TIME_PROTECT",
        "duration": 1.0,
        "actionId": 104
      },
      {
        "$type": "MoleMole.Config.ConfigBlackScreenAction",
        "type": "BLACK_SCREEN",
        "duration": 1.0,
        "actionId": 118,
        "_flag": 2048,
        "blackScreenType": "KEEP_BLACK",
        "durationToBlack": 0.5,
        "durationKeepBlack": 1.0,
        "durationFromBlack": 0.5,
        "inteePos": "",
        "textMapID": "",
        "useTextFade": true,
        "_changeAudioState": true
      },
      {
        "$type": "MoleMole.Config.ConfigSitOrStandAction",
        "type": "SIT_OR_STAND",
        "aliasList": [
          "Avatar"
        ],
        "actionId": 121,
        "_flag": 8192,
        "banResetFreestyle": true
      },
      {
        "$type": "MoleMole.Config.ConfigVisibleInterAction",
        "type": "VISIBLE",
        "aliasList": [
          "Avatar"
        ],
        "actionId": 127,
        "_extraParam": ""
      },
      {
        "$type": "MoleMole.Config.ConfigPlayerNPCEnergyTypeAction",
        "type": "SET_PLAYER_NPC_ENERGY_TYPE",
        "aliasList": [
          "AvatarNpc"
        ],
        "actionId": 122,
        "setHeroEngergyType": true
      },
      {
        "$type": "EDCHPJLDKIN",
        "type": "BODY_LANG",
        "aliasList": [
          "AvatarNpc"
        ],
        "actionId": 125,
        "isContinue": true,
        "forceDoFreeStyle": true,
        "canDoRepeatFreeStyle": false,
        "eventPatternSuiteKey": ""
      },
      {
        "$type": "EDCHPJLDKIN",
        "type": "BODY_LANG",
        "aliasList": [
          "2511"
        ],
        "actionId": 116,
        "isContinue": true,
        "forceDoFreeStyle": true,
        "canDoRepeatFreeStyle": false,
        "eventPatternSuiteKey": ""
      }
    ],
    [
      {
        "$type": "MoleMole.Config.ConfigBlackScreenAction",
        "type": "BLACK_SCREEN",
        "duration": 0.5,
        "actionId": 119,
        "_flag": 2048,
        "blackScreenType": "FROM_BLACK",
        "durationToBlack": 0.5,
        "durationKeepBlack": 0.5,
        "durationFromBlack": 0.5,
        "inteePos": "",
        "textMapID": "",
        "useTextFade": true,
        "_changeAudioState": true
      },
      {
        "$type": "EFHODGEJOHJ",
        "type": "CAMERA_MOVE",
        "duration": 1.0,
        "actionId": 130,
        "camPosOffset": {
          "x": 5.01200008392334,
          "y": 2.4649999141693115,
          "z": 3.812000036239624
        },
        "camForwardTargetOffset": {
          "x": 5.27400016784668,
          "y": 2.0299999713897705,
          "z": 2.950000047683716
        },
        "camFov": 55.840999603271484,
        "lerpPattern": 6,
        "cameraBlendType": "EaseInOutCubic",
        "MDKBPBJCMHH": {},
        "needZAxisRotate": true,
        "openCameraDither": false,
        "targetNpcAlias": "",
        "closeTreeLeafDither": true,
        "PHGBNNGCJKJ": "",
        "NFILMKCFHEB": "",
        "BGPNGHDAECF": ""
      },
      {
        "$type": "NPCNMEOCADD",
        "type": "LOOK_AT",
        "aliasList": [
          "Avatar"
        ],
        "actionId": 128,
        "_flag": 64,
        "enableHead": true,
        "headTurnTime": 0.5,
        "targetNpcAlias": "2511",
        "openBackProtect": true,
        "backProtectAngle": 10.0,
        "targetNpcLookAtPoint": "",
        "BHGPHGNFCBF": ""
      },
      {
        "$type": "NPCNMEOCADD",
        "type": "LOOK_AT",
        "aliasList": [
          "AvatarNpc"
        ],
        "actionId": 129,
        "_flag": 64,
        "enableHead": true,
        "headTurnTime": 0.5,
        "targetNpcAlias": "2511",
        "openBackProtect": true,
        "backProtectAngle": 10.0,
        "targetNpcLookAtPoint": "",
        "BHGPHGNFCBF": ""
      },
      {
        "$type": "MJFAIFFAGOF",
        "type": "DIALOG",
        "aliasList": [
          "2511"
        ],
        "actionId": 107,
        "dialogID": 711320101,
        "protectTime": 0.5
      },
      {
        "$type": "EDCHPJLDKIN",
        "type": "BODY_LANG",
        "aliasList": [
          "2511"
        ],
        "actionId": 138,
        "bodyLangParam": 1120,
        "forceDoFreeStyle": true,
        "canDoRepeatFreeStyle": false,
        "eventPatternSuiteKey": ""
      },
      {
        "$type": "ICHLNKHGCAG",
        "type": "EMO_SYNC",
        "aliasList": [
          "2511"
        ],
        "actionId": 139,
        "_flag": 320,
        "dataPath": "",
        "phonemePath": "Cs_Emo_NPC_Common/Cs_Emo_NPC_Angry01",
        "emotionPath": "Cs_Emo_NPC_Common/Cs_Emo_NPC_Angry01",
        "mateDataPath": "",
        "matePhonemePath": "",
        "mateEmotionPath": "",
        "phonemePathHashList": [
          9218657655395275517,
          6356428425152214583,
          11840959722219800112,
          50070356133267922
        ],
        "emotionPathHashList": [
          5555574328354538894,
          6902058826788250658,
          16686799597816672641,
          13665732757931042568
        ],
        "PACNIGOOENN": "",
        "PIBDNPHIAGC": ""
      },
      {
        "$type": "EFHODGEJOHJ",
        "type": "CAMERA_MOVE",
        "delayTime": 0.10000000149011612,
        "duration": 10.274999618530273,
        "actionId": 134,
        "camPosOffset": {
          "x": 5.130000114440918,
          "y": 2.2690000534057617,
          "z": 3.4240000247955322
        },
        "camForwardTargetOffset": {
          "x": 5.392000198364258,
          "y": 1.8350000381469727,
          "z": 2.562000036239624
        },
        "camFov": 55.840999603271484,
        "MDKBPBJCMHH": {},
        "needZAxisRotate": true,
        "openCameraDither": false,
        "targetNpcAlias": "",
        "closeTreeLeafDither": true,
        "PHGBNNGCJKJ": "",
        "NFILMKCFHEB": "",
        "BGPNGHDAECF": ""
      }
    ],
    [
      {
        "$type": "EFHODGEJOHJ",
        "type": "CAMERA_MOVE",
        "duration": 1.0,
        "actionId": 131,
        "camPosOffset": {
          "x": 3.1080000400543213,
          "y": 3.9140000343322754,
          "z": 2.1519999504089355
        },
        "camForwardTargetOffset": {
          "x": 2.63100004196167,
          "y": 3.3889999389648438,
          "z": 1.4470000267028809
        },
        "camFov": 55.79800033569336,
        "lerpPattern": 6,
        "cameraBlendType": "EaseInOutCubic",
        "MDKBPBJCMHH": {},
        "needZAxisRotate": true,
        "openCameraDither": false,
        "targetNpcAlias": "",
        "closeTreeLeafDither": true,
        "PHGBNNGCJKJ": "",
        "NFILMKCFHEB": "",
        "BGPNGHDAECF": ""
      },
      {
        "$type": "MJFAIFFAGOF",
        "type": "DIALOG",
        "aliasList": [
          "2511"
        ],
        "actionId": 109,
        "dialogID": 711320102,
        "protectTime": 0.5
      },
      {
        "$type": "EDCHPJLDKIN",
        "type": "BODY_LANG",
        "aliasList": [
          "2511"
        ],
        "actionId": 146,
        "isContinue": true,
        "forceDoFreeStyle": true,
        "canDoRepeatFreeStyle": false,
        "eventPatternSuiteKey": ""
      },
      {
        "$type": "EFHODGEJOHJ",
        "type": "CAMERA_MOVE",
        "delayTime": 0.10000000149011612,
        "duration": 11.774999618530273,
        "actionId": 135,
        "camPosOffset": {
          "x": 2.8940000534057617,
          "y": 3.677999973297119,
          "z": 1.8350000381469727
        },
        "camForwardTargetOffset": {
          "x": 2.4170000553131104,
          "y": 3.1530001163482666,
          "z": 1.128999948501587
        },
        "camFov": 55.79800033569336,
        "MDKBPBJCMHH": {},
        "needZAxisRotate": true,
        "openCameraDither": false,
        "targetNpcAlias": "",
        "closeTreeLeafDither": true,
        "PHGBNNGCJKJ": "",
        "NFILMKCFHEB": "",
        "BGPNGHDAECF": ""
      },
      {
        "$type": "EDCHPJLDKIN",
        "type": "BODY_LANG",
        "delayTime": 0.5,
        "aliasList": [
          "2511"
        ],
        "actionId": 140,
        "bodyLangParam": 1173,
        "forceDoFreeStyle": true,
        "canDoRepeatFreeStyle": false,
        "eventPatternSuiteKey": ""
      },
      {
        "$type": "ICHLNKHGCAG",
        "type": "EMO_SYNC",
        "delayTime": 0.5,
        "aliasList": [
          "2511"
        ],
        "actionId": 141,
        "_flag": 256,
        "dataPath": "",
        "phonemePath": "Cs_Emo_NPC_Common/Cs_Emo_NPC_Normal01",
        "emotionPath": "Cs_Emo_NPC_Common/Cs_Emo_NPC_Normal01_B",
        "mateDataPath": "",
        "matePhonemePath": "",
        "mateEmotionPath": "",
        "phonemePathHashList": [
          12803840960998583578,
          3437050431160283015,
          6548526936325855136,
          1274732080047098512
        ],
        "emotionPathHashList": [
          15191155715402440098,
          420038106395935518,
          2651432695756251320,
          4209314551981667660
        ],
        "PACNIGOOENN": "",
        "PIBDNPHIAGC": ""
      }
    ],
    [
      {
        "$type": "EFHODGEJOHJ",
        "type": "CAMERA_MOVE",
        "duration": 1.0,
        "actionId": 132,
        "camPosOffset": {
          "x": 5.019000053405762,
          "y": 1.6319999694824219,
          "z": 2.246999979019165
        },
        "camForwardTargetOffset": {
          "x": 5.255000114440918,
          "y": 1.496999979019165,
          "z": 1.284999966621399
        },
        "camFov": 55.79800033569336,
        "lerpPattern": 6,
        "cameraBlendType": "EaseInOutCubic",
        "MDKBPBJCMHH": {},
        "needZAxisRotate": true,
        "openCameraDither": false,
        "targetNpcAlias": "",
        "closeTreeLeafDither": true,
        "PHGBNNGCJKJ": "",
        "NFILMKCFHEB": "",
        "BGPNGHDAECF": ""
      },
      {
        "$type": "MJFAIFFAGOF",
        "type": "DIALOG",
        "aliasList": [
          "2511"
        ],
        "actionId": 111,
        "dialogID": 711320103,
        "protectTime": 0.5
      },
      {
        "$type": "EDCHPJLDKIN",
        "type": "BODY_LANG",
        "aliasList": [
          "2511"
        ],
        "actionId": 142,
        "bodyLangParam": 1230,
        "forceDoFreeStyle": true,
        "canDoRepeatFreeStyle": false,
        "eventPatternSuiteKey": ""
      },
      {
        "$type": "ICHLNKHGCAG",
        "type": "EMO_SYNC",
        "aliasList": [
          "2511"
        ],
        "actionId": 143,
        "_flag": 320,
        "dataPath": "",
        "phonemePath": "Cs_Emo_NPC_Common/Cs_Emo_NPC_Angry05",
        "emotionPath": "Cs_Emo_NPC_Common/Cs_Emo_NPC_Upset02",
        "mateDataPath": "",
        "matePhonemePath": "",
        "mateEmotionPath": "",
        "phonemePathHashList": [
          16750714854766430535,
          14748421253198842030,
          16032901252740427284,
          15912266820040026715
        ],
        "emotionPathHashList": [
          12933833794141847092,
          10845177165747796713,
          10080746719499908152,
          3805551944935564236
        ],
        "PACNIGOOENN": "",
        "PIBDNPHIAGC": ""
      },
      {
        "$type": "EFHODGEJOHJ",
        "type": "CAMERA_MOVE",
        "delayTime": 0.10000000149011612,
        "duration": 11.274999618530273,
        "actionId": 136,
        "camPosOffset": {
          "x": 5.019000053405762,
          "y": 1.5,
          "z": 2.246999979019165
        },
        "camForwardTargetOffset": {
          "x": 5.255000114440918,
          "y": 1.3650000095367432,
          "z": 1.284999966621399
        },
        "camFov": 55.79800033569336,
        "MDKBPBJCMHH": {},
        "needZAxisRotate": true,
        "openCameraDither": false,
        "targetNpcAlias": "",
        "closeTreeLeafDither": true,
        "PHGBNNGCJKJ": "",
        "NFILMKCFHEB": "",
        "BGPNGHDAECF": ""
      },
      {
        "$type": "EDCHPJLDKIN",
        "type": "BODY_LANG",
        "delayTime": 0.10000000149011612,
        "aliasList": [
          "Avatar"
        ],
        "actionId": 151,
        "bodyLangParam": 4030,
        "forceDoFreeStyle": true,
        "canDoRepeatFreeStyle": false,
        "dontClearPreFreeStyle": true,
        "eventPatternSuiteKey": ""
      }
    ],
    [
      {
        "$type": "NPCNMEOCADD",
        "type": "LOOK_AT",
        "aliasList": [
          "Avatar"
        ],
        "actionId": 150,
        "_flag": 64,
        "enableHead": true,
        "useTargetPos": true,
        "enableAbsolute": true,
        "targetPosition": {
          "x": 29.979999542236328,
          "y": -6.300000190734863,
          "z": -16.200000762939453
        },
        "headTurnTime": 0.5,
        "targetNpcAlias": "",
        "lookAtTargetType": "NONE",
        "openBackProtect": true,
        "backProtectAngle": 10.0,
        "targetNpcLookAtPoint": "",
        "BHGPHGNFCBF": ""
      },
      {
        "$type": "MJFAIFFAGOF",
        "type": "DIALOG",
        "aliasList": [
          "2511"
        ],
        "actionId": 113,
        "dialogID": 711320104,
        "protectTime": 0.5
      },
      {
        "$type": "EDCHPJLDKIN",
        "type": "BODY_LANG",
        "aliasList": [
          "2511"
        ],
        "actionId": 147,
        "isContinue": true,
        "forceDoFreeStyle": true,
        "canDoRepeatFreeStyle": false,
        "eventPatternSuiteKey": ""
      },
      {
        "$type": "EDCHPJLDKIN",
        "type": "BODY_LANG",
        "delayTime": 0.5,
        "aliasList": [
          "2511"
        ],
        "actionId": 144,
        "bodyLangParam": 1231,
        "forceDoFreeStyle": true,
        "canDoRepeatFreeStyle": false,
        "eventPatternSuiteKey": ""
      },
      {
        "$type": "ICHLNKHGCAG",
        "type": "EMO_SYNC",
        "delayTime": 0.5,
        "aliasList": [
          "2511"
        ],
        "actionId": 145,
        "_flag": 320,
        "dataPath": "",
        "phonemePath": "Cs_Emo_NPC_Common/Cs_Emo_NPC_Angry01",
        "emotionPath": "Cs_Emo_NPC_Common/Cs_Emo_NPC_Angry01",
        "mateDataPath": "",
        "matePhonemePath": "",
        "mateEmotionPath": "",
        "phonemePathHashList": [
          9218657655395275517,
          6356428425152214583,
          11840959722219800112,
          50070356133267922
        ],
        "emotionPathHashList": [
          5555574328354538894,
          6902058826788250658,
          16686799597816672641,
          13665732757931042568
        ],
        "PACNIGOOENN": "",
        "PIBDNPHIAGC": ""
      }
    ],
    [
      {
        "$type": "MoleMole.Config.ConfigTimeProtectAction",
        "type": "TIME_PROTECT",
        "duration": 0.10000000149011612,
        "actionId": 105
      },
      {
        "$type": "MoleMole.Config.ConfigSimpleBlackScreenAction",
        "type": "SIMPLE_BLACK_SCREEN",
        "actionId": 114,
        "durationToBlack": 0.5,
        "durationKeepBlack": 1.5,
        "durationFromBlack": 0.5,
        "textMapID": ""
      },
      {
        "$type": "MoleMole.Config.ConfigTimeProtectAction",
        "type": "TIME_PROTECT",
        "duration": 0.699999988079071,
        "actionId": 115
      },
      {
        "$type": "EFHODGEJOHJ",
        "type": "CAMERA_MOVE",
        "delayTime": 0.5,
        "duration": 0.10000000149011612,
        "actionId": 120,
        "cameraPosType": "EXIT",
        "camForwardTargetOffset": {
          "z": 1.0
        },
        "camFov": 30.0,
        "lerpPattern": 5,
        "cameraBlendType": "EaseInOutCubic",
        "MDKBPBJCMHH": {},
        "openCameraDither": false,
        "targetNpcAlias": "",
        "closeTreeLeafDither": true,
        "PHGBNNGCJKJ": "",
        "NFILMKCFHEB": "",
        "BGPNGHDAECF": ""
      },
      {
        "$type": "MoleMole.Config.ConfigVisibleInterAction",
        "type": "VISIBLE",
        "delayTime": 0.6000000238418579,
        "aliasList": [
          "Avatar"
        ],
        "actionId": 124,
        "isVisible": true,
        "_extraParam": ""
      },
      {
        "$type": "MoleMole.Config.ConfigVisibleInterAction",
        "type": "VISIBLE",
        "delayTime": 0.6000000238418579,
        "aliasList": [
          "AvatarNpc"
        ],
        "actionId": 123,
        "_extraParam": ""
      },
      {
        "$type": "EDCHPJLDKIN",
        "type": "BODY_LANG",
        "delayTime": 0.6000000238418579,
        "aliasList": [
          "AvatarNpc"
        ],
        "actionId": 126,
        "isContinue": true,
        "forceDoFreeStyle": true,
        "canDoRepeatFreeStyle": false,
        "eventPatternSuiteKey": ""
      },
      {
        "$type": "EDCHPJLDKIN",
        "type": "BODY_LANG",
        "delayTime": 0.6000000238418579,
        "aliasList": [
          "2511"
        ],
        "actionId": 117,
        "isContinue": true,
        "forceDoFreeStyle": true,
        "canDoRepeatFreeStyle": false,
        "eventPatternSuiteKey": ""
      }
    ]
  ],
  "groupId": [
    {
      "grpId": 1557372369,
      "nextGrpId": 1557372370
    },
    {
      "index": 1,
      "grpId": 1557372370,
      "nextGrpId": 1557372371
    },
    {
      "index": 2,
      "grpId": 1557372371,
      "nextGrpId": 1557372372
    },
    {
      "index": 3,
      "grpId": 1557372372,
      "nextGrpId": 1557372373
    },
    {
      "index": 4,
      "grpId": 1557372373,
      "nextGrpId": 1557372374
    },
    {
      "index": 5,
      "grpId": 1557372374,
      "nextGrpId": 1557372375
    }
  ],
  "freeStyleDic": {
    "1025": [],
    "1026": [],
    "2511": [
      1120,
      1173,
      1230,
      1231
    ]
  },
  "GOCHGPDDIEK": {
    "GLDEKKOPHPB": "",
    "MONBEELCJPA": ""
  }
}