{
  "luaDataPath": "",
  "isSimpleTalk": true,
  "entityBan": "",
  "disableNpcLod": true,
  "protectNpcMobileLod": true,
  "talkFlag": 7,
  "startFade": {
    "startFadeOutDuration": 0.0
  },
  "endFade": {
    "startFadeOutDuration": 0.0
  },
  "actors": [
    {
      "alias": "Avatar",
      "visible": true,
      "bornPointName": "",
      "relativePosType": "AVATAR_NEW",
      "relativePosNpcAlias": "",
      "_bindMovingTargetKey": ""
    },
    {
      "configID": 2520,
      "alias": "2520",
      "visible": true,
      "bornPointName": "",
      "forceCreateDaily": true,
      "relativePosType": "AVATAR_NEW",
      "relativePosNpcAlias": "",
      "_bindMovingTargetKey": ""
    }
  ],
  "group": [
    [
      {
        "$type": "EFHODGEJOHJ",
        "type": "CAMERA_FOCUS",
        "duration": 0.10000000149011612,
        "actionId": 103,
        "targetNpcAlias": "",
        "PHGBNNGCJKJ": "",
        "NFILMKCFHEB": "",
        "BGPNGHDAECF": ""
      },
      {
        "$type": "MoleMole.Config.ConfigTimeProtectAction",
        "type": "TIME_PROTECT",
        "duration": 0.10000000149011612,
        "actionId": 104
      },
      {
        "$type": "IEKHMHNHENB",
        "type": "STEER_TO",
        "delayTime": 0.30000001192092896,
        "duration": 0.800000011920929,
        "aliasList": [
          "Avatar"
        ],
        "actionId": 152,
        "_flag": 32,
        "steerType": "TO_TARGET_ADVANCED",
        "useSteerAnim": true,
        "interruptFreestyle": true,
        "forceSteer": true,
        "targetNpcAlias": "2520",
        "fixInterNull": true,
        "BHGPHGNFCBF": ""
      },
      {
        "$type": "IEKHMHNHENB",
        "type": "STEER_TO",
        "delayTime": 0.30000001192092896,
        "duration": 0.800000011920929,
        "aliasList": [
          "2520"
        ],
        "actionId": 153,
        "_flag": 32,
        "steerType": "TO_LOCAL_AVATAR_ADVANCED",
        "useSteerAnim": true,
        "interruptFreestyle": true,
        "forceSteer": true,
        "targetNpcAlias": "",
        "fixInterNull": true,
        "BHGPHGNFCBF": ""
      }
    ],
    [
      {
        "$type": "MJFAIFFAGOF",
        "type": "DIALOG",
        "aliasList": [
          "2520"
        ],
        "actionId": 107,
        "dialogID": 711076401,
        "protectTime": 0.5
      },
      {
        "$type": "OBCDECFOOBC",
        "type": "DIALOG_SELECT",
        "delayTime": 0.4000000059604645,
        "aliasList": [
          "Avatar"
        ],
        "actionId": 108,
        "dialogIDList": [
          711076402,
          711076406,
          711076417,
          711076427
        ],
        "grpIDList": [
          3001906768,
          3001906771,
          2864796582,
          2864796610
        ],
        "useGrpId": true,
        "countDownGrpId": 3001906765
      }
    ],
    [
      {
        "$type": "MJFAIFFAGOF",
        "type": "DIALOG",
        "aliasList": [
          "2520"
        ],
        "actionId": 110,
        "dialogID": 711076403,
        "protectTime": 0.5
      }
    ],
    [
      {
        "$type": "MJFAIFFAGOF",
        "type": "DIALOG",
        "aliasList": [
          "2520"
        ],
        "actionId": 112,
        "dialogID": 711076404,
        "protectTime": 0.5
      }
    ],
    [
      {
        "$type": "MJFAIFFAGOF",
        "type": "DIALOG",
        "aliasList": [
          "2520"
        ],
        "actionId": 114,
        "dialogID": 711076405,
        "protectTime": 0.5
      }
    ],
    [
      {
        "$type": "MJFAIFFAGOF",
        "type": "DIALOG",
        "aliasList": [
          "2520"
        ],
        "actionId": 116,
        "dialogID": 711076407,
        "protectTime": 0.5
      }
    ],
    [
      {
        "$type": "MJFAIFFAGOF",
        "type": "DIALOG",
        "aliasList": [
          "2520"
        ],
        "actionId": 118,
        "dialogID": 711076408,
        "protectTime": 0.5
      },
      {
        "$type": "OBCDECFOOBC",
        "type": "DIALOG_SELECT",
        "delayTime": 0.4000000059604645,
        "aliasList": [
          "Avatar"
        ],
        "actionId": 119,
        "dialogIDList": [
          711076409,
          711076416
        ],
        "grpIDList": [
          3001906773,
          2864796611
        ],
        "useGrpId": true,
        "countDownGrpId": 3001906765
      }
    ],
    [
      {
        "$type": "MJFAIFFAGOF",
        "type": "DIALOG",
        "aliasList": [
          "2520"
        ],
        "actionId": 121,
        "dialogID": 711076410,
        "protectTime": 0.5
      }
    ],
    [
      {
        "$type": "MJFAIFFAGOF",
        "type": "DIALOG",
        "aliasList": [
          "2520"
        ],
        "actionId": 123,
        "dialogID": 711076411,
        "protectTime": 0.5
      }
    ],
    [
      {
        "$type": "MJFAIFFAGOF",
        "type": "DIALOG",
        "aliasList": [
          "2520"
        ],
        "actionId": 125,
        "dialogID": 711076412,
        "protectTime": 0.5
      }
    ],
    [
      {
        "$type": "MJFAIFFAGOF",
        "type": "DIALOG",
        "aliasList": [
          "2520"
        ],
        "actionId": 127,
        "dialogID": 711076413,
        "protectTime": 0.5
      }
    ],
    [
      {
        "$type": "MJFAIFFAGOF",
        "type": "DIALOG",
        "aliasList": [
          "2520"
        ],
        "actionId": 129,
        "dialogID": 711076414,
        "protectTime": 0.5
      }
    ],
    [
      {
        "$type": "MJFAIFFAGOF",
        "type": "DIALOG",
        "aliasList": [
          "2520"
        ],
        "actionId": 131,
        "dialogID": 711076415,
        "protectTime": 0.5
      }
    ],
    [
      {
        "$type": "MJFAIFFAGOF",
        "type": "DIALOG",
        "aliasList": [
          "2520"
        ],
        "actionId": 133,
        "dialogID": 711076418,
        "protectTime": 0.5
      }
    ],
    [
      {
        "$type": "MJFAIFFAGOF",
        "type": "DIALOG",
        "aliasList": [
          "2520"
        ],
        "actionId": 135,
        "dialogID": 711076419,
        "protectTime": 0.5
      }
    ],
    [
      {
        "$type": "MJFAIFFAGOF",
        "type": "DIALOG",
        "aliasList": [
          "2520"
        ],
        "actionId": 137,
        "dialogID": 711076420,
        "protectTime": 0.5
      },
      {
        "$type": "OBCDECFOOBC",
        "type": "DIALOG_SELECT",
        "delayTime": 0.4000000059604645,
        "aliasList": [
          "Avatar"
        ],
        "actionId": 138,
        "dialogIDList": [
          711076421
        ],
        "grpIDList": [
          2864796585
        ],
        "useGrpId": true,
        "countDownGrpId": 3001906765
      }
    ],
    [
      {
        "$type": "MJFAIFFAGOF",
        "type": "DIALOG",
        "aliasList": [
          "2520"
        ],
        "actionId": 140,
        "dialogID": 711076422,
        "protectTime": 0.5
      }
    ],
    [
      {
        "$type": "MJFAIFFAGOF",
        "type": "DIALOG",
        "aliasList": [
          "2520"
        ],
        "actionId": 142,
        "dialogID": 711076423,
        "protectTime": 0.5
      },
      {
        "$type": "OBCDECFOOBC",
        "type": "DIALOG_SELECT",
        "delayTime": 0.4000000059604645,
        "aliasList": [
          "Avatar"
        ],
        "actionId": 143,
        "dialogIDList": [
          711076424
        ],
        "grpIDList": [
          2864796587
        ],
        "useGrpId": true,
        "countDownGrpId": 3001906765
      }
    ],
    [
      {
        "$type": "MJFAIFFAGOF",
        "type": "DIALOG",
        "aliasList": [
          "2520"
        ],
        "actionId": 145,
        "dialogID": 711076425,
        "protectTime": 0.5
      }
    ],
    [
      {
        "$type": "MJFAIFFAGOF",
        "type": "DIALOG",
        "aliasList": [
          "2520"
        ],
        "actionId": 147,
        "dialogID": 711076426,
        "protectTime": 0.5
      }
    ],
    [
      {
        "$type": "MJFAIFFAGOF",
        "type": "DIALOG",
        "aliasList": [
          "2520"
        ],
        "actionId": 149,
        "dialogID": 711076428,
        "protectTime": 0.5
      }
    ],
    [
      {
        "$type": "MoleMole.Config.ConfigTimeProtectAction",
        "type": "TIME_PROTECT",
        "duration": 0.10000000149011612,
        "actionId": 151
      }
    ],
    [
      {
        "$type": "MoleMole.Config.ConfigTimeProtectAction",
        "type": "TIME_PROTECT",
        "duration": 0.10000000149011612,
        "actionId": 105
      },
      {
        "$type": "IEKHMHNHENB",
        "type": "STEER_TO",
        "duration": 1.0,
        "aliasList": [
          "2520"
        ],
        "actionId": 154,
        "_flag": 32,
        "steerType": "RETURN",
        "useSteerAnim": true,
        "interruptFreestyle": true,
        "forceSteer": true,
        "targetNpcAlias": "",
        "ignoreY": true,
        "fixInterNull": true,
        "BHGPHGNFCBF": ""
      }
    ]
  ],
  "groupId": [
    {
      "grpId": 3001906766,
      "nextGrpId": 3001906767
    },
    {
      "index": 1,
      "grpId": 3001906767,
      "nextGrpId": 3001906768
    },
    {
      "index": 2,
      "grpId": 3001906768,
      "nextGrpId": 3001906769
    },
    {
      "index": 3,
      "grpId": 3001906769,
      "nextGrpId": 3001906770
    },
    {
      "index": 4,
      "grpId": 3001906770,
      "nextGrpId": 2864796611
    },
    {
      "index": 5,
      "grpId": 3001906771,
      "nextGrpId": 3001906772
    },
    {
      "index": 6,
      "grpId": 3001906772,
      "nextGrpId": 3001906773
    },
    {
      "index": 7,
      "grpId": 3001906773,
      "nextGrpId": 3001906774
    },
    {
      "index": 8,
      "grpId": 3001906774,
      "nextGrpId": 2864796578
    },
    {
      "index": 9,
      "grpId": 2864796578,
      "nextGrpId": 2864796579
    },
    {
      "index": 10,
      "grpId": 2864796579,
      "nextGrpId": 2864796580
    },
    {
      "index": 11,
      "grpId": 2864796580,
      "nextGrpId": 2864796581
    },
    {
      "index": 12,
      "grpId": 2864796581,
      "nextGrpId": 2864796611
    },
    {
      "index": 13,
      "grpId": 2864796582,
      "nextGrpId": 2864796583
    },
    {
      "index": 14,
      "grpId": 2864796583,
      "nextGrpId": 2864796584
    },
    {
      "index": 15,
      "grpId": 2864796584,
      "nextGrpId": 2864796585
    },
    {
      "index": 16,
      "grpId": 2864796585,
      "nextGrpId": 2864796586
    },
    {
      "index": 17,
      "grpId": 2864796586,
      "nextGrpId": 2864796587
    },
    {
      "index": 18,
      "grpId": 2864796587,
      "nextGrpId": 2864796609
    },
    {
      "index": 19,
      "grpId": 2864796609,
      "nextGrpId": 2864796611
    },
    {
      "index": 20,
      "grpId": 2864796610,
      "nextGrpId": 2864796611
    },
    {
      "index": 21,
      "grpId": 2864796611,
      "nextGrpId": 2864796612
    },
    {
      "index": 22,
      "grpId": 2864796612,
      "nextGrpId": 2864796613
    }
  ],
  "freeStyleDic": {
    "2520": []
  }
}