{
  "luaDataPath": "",
  "isSimpleTalk": true,
  "startBlackKeepTime": 1.0,
  "entityBan": "",
  "disableNpcLod": true,
  "startFade": {
    "startFadeInDuration": 0.5,
    "startFadeOutDuration": 0.5
  },
  "endFade": {
    "startFadeOutDuration": 0.0
  },
  "actors": [
    {
      "alias": "Avatar",
      "visible": true,
      "bornPointName": "",
      "relativePosNpcAlias": "",
      "_bindMovingTargetKey": ""
    },
    {
      "configID": 3012,
      "alias": "3012",
      "visible": true,
      "bornPointName": "Q72801Ramsay05",
      "relativePosNpcAlias": "",
      "_bindMovingTargetKey": ""
    },
    {
      "configID": 3013,
      "alias": "3013",
      "visible": true,
      "bornPointName": "Q72801Heihachi02",
      "relativePosNpcAlias": "",
      "_bindMovingTargetKey": ""
    }
  ],
  "group": [
    [
      {
        "$type": "MoleMole.Config.ConfigTimeProtectAction",
        "type": "TIME_PROTECT",
        "duration": 0.4000000059604645
      },
      {
        "$type": "EFHODGEJOHJ",
        "type": "CAMERA_MOVE",
        "camPosOffset": {
          "x": -2565.697021484375,
          "y": 292.6547546386719,
          "z": -4204.98876953125
        },
        "camForwardTargetOffset": {
          "x": -2566.496337890625,
          "y": 292.3075256347656,
          "z": -4205.47900390625
        },
        "camFov": 51.680381774902344,
        "lerpPattern": 6,
        "cameraBlendType": "EaseInOutCubic",
        "MDKBPBJCMHH": {},
        "openCameraDither": false,
        "targetNpcAlias": "",
        "PHGBNNGCJKJ": "",
        "NFILMKCFHEB": "",
        "BGPNGHDAECF": ""
      }
    ],
    [
      {
        "$type": "MJFAIFFAGOF",
        "type": "DIALOG",
        "aliasList": [
          "3012"
        ],
        "dialogID": 728011301,
        "protectTime": 0.5
      }
    ],
    [
      {
        "$type": "MJFAIFFAGOF",
        "type": "DIALOG",
        "aliasList": [
          "3012"
        ],
        "dialogID": 728011302,
        "protectTime": 0.5
      }
    ],
    [
      {
        "$type": "OBCDECFOOBC",
        "type": "DIALOG_SELECT",
        "delayTime": 0.4000000059604645,
        "aliasList": [
          "Avatar"
        ],
        "dialogIDList": [
          728011304
        ],
        "grpIDList": [
          1943088535
        ],
        "useGrpId": true
      },
      {
        "$type": "MJFAIFFAGOF",
        "type": "DIALOG",
        "aliasList": [
          "3012"
        ],
        "dialogID": 728011303,
        "protectTime": 0.5
      }
    ],
    [
      {
        "$type": "MJFAIFFAGOF",
        "type": "DIALOG",
        "aliasList": [
          "3012"
        ],
        "dialogID": 728011305,
        "protectTime": 0.5
      }
    ],
    [
      {
        "$type": "EFHODGEJOHJ",
        "type": "CAMERA_MOVE",
        "camPosOffset": {
          "x": -2620.880859375,
          "y": 238.5918426513672,
          "z": -4257.4384765625
        },
        "camForwardTargetOffset": {
          "x": -2621.501708984375,
          "y": 237.85891723632812,
          "z": -4257.716796875
        },
        "camFov": 51.680381774902344,
        "lerpPattern": 6,
        "cameraBlendType": "EaseInOutCubic",
        "MDKBPBJCMHH": {},
        "openCameraDither": false,
        "targetNpcAlias": "",
        "PHGBNNGCJKJ": "",
        "NFILMKCFHEB": "",
        "BGPNGHDAECF": ""
      },
      {
        "$type": "OBCDECFOOBC",
        "type": "DIALOG_SELECT",
        "delayTime": 0.4000000059604645,
        "aliasList": [
          "Avatar"
        ],
        "dialogIDList": [
          728011307
        ],
        "grpIDList": [
          1943088537
        ],
        "useGrpId": true
      },
      {
        "$type": "MJFAIFFAGOF",
        "type": "DIALOG",
        "aliasList": [
          "3012"
        ],
        "dialogID": 728011306,
        "protectTime": 0.5
      }
    ],
    [
      {
        "$type": "EFHODGEJOHJ",
        "type": "CAMERA_MOVE",
        "camPosOffset": {
          "x": -2565.697021484375,
          "y": 292.6547546386719,
          "z": -4204.98876953125
        },
        "camForwardTargetOffset": {
          "x": -2566.496337890625,
          "y": 292.3075256347656,
          "z": -4205.47900390625
        },
        "camFov": 51.680381774902344,
        "lerpPattern": 6,
        "cameraBlendType": "EaseInOutCubic",
        "MDKBPBJCMHH": {},
        "openCameraDither": false,
        "targetNpcAlias": "",
        "PHGBNNGCJKJ": "",
        "NFILMKCFHEB": "",
        "BGPNGHDAECF": ""
      },
      {
        "$type": "MJFAIFFAGOF",
        "type": "DIALOG",
        "aliasList": [
          "3012"
        ],
        "dialogID": 728011308,
        "protectTime": 0.5
      }
    ],
    [
      {
        "$type": "MJFAIFFAGOF",
        "type": "DIALOG",
        "aliasList": [
          "3012"
        ],
        "dialogID": 728011309,
        "protectTime": 0.5
      }
    ],
    [
      {
        "$type": "MJFAIFFAGOF",
        "type": "DIALOG",
        "aliasList": [
          "3012"
        ],
        "dialogID": 728011310,
        "protectTime": 0.5
      }
    ],
    [
      {
        "$type": "MoleMole.Config.ConfigTimeProtectAction",
        "type": "TIME_PROTECT",
        "duration": 0.10000000149011612
      },
      {
        "$type": "MoleMole.Config.ConfigSimpleBlackScreenAction",
        "type": "SIMPLE_BLACK_SCREEN",
        "durationToBlack": 0.5,
        "durationKeepBlack": 1.5,
        "durationFromBlack": 0.5,
        "textMapID": ""
      },
      {
        "$type": "MJFAIFFAGOF",
        "type": "DIALOG_CLEAR"
      }
    ]
  ],
  "groupId": [
    {
      "grpId": 1943088531,
      "nextGrpId": 1943088532
    },
    {
      "index": 1,
      "grpId": 1943088532,
      "nextGrpId": 1943088533
    },
    {
      "index": 2,
      "grpId": 1943088533,
      "nextGrpId": 1943088534
    },
    {
      "index": 3,
      "grpId": 1943088534,
      "nextGrpId": 1943088535
    },
    {
      "index": 4,
      "grpId": 1943088535,
      "nextGrpId": 1943088536
    },
    {
      "index": 5,
      "grpId": 1943088536,
      "nextGrpId": 1943088537
    },
    {
      "index": 6,
      "grpId": 1943088537,
      "nextGrpId": 1943088538
    },
    {
      "index": 7,
      "grpId": 1943088538,
      "nextGrpId": 1943088539
    },
    {
      "index": 8,
      "grpId": 1943088539,
      "nextGrpId": 106202365
    },
    {
      "index": 9,
      "grpId": 106202365,
      "nextGrpId": 106202366
    }
  ],
  "freeStyleDic": {
    "3012": [],
    "3013": []
  }
}