{
  "activityId": 2029,
  "talks": [
    {
      "id": 4014408,
      "beginWay": "TALK_BEGIN_MANUAL",
      "beginCondComb": "LOGIC_AND",
      "beginCond": [
        {
          "type": "QUEST_COND_STATE_EQUAL",
          "_param": [
            "4014408",
            "3"
          ]
        },
        {
          "type": "QUEST_COND_ACTIVITY_CLIENT_COND",
          "_param": [
            "2029",
            "2029001",
            "1"
          ]
        }
      ],
      "priority": 1,
      "initDialog": 401440801,
      "npcId": [
        30507
      ],
      "performCfg": "QuestDialogue/EQ/V4.5AlchemySim_40144/Q4014408",
      "heroTalk": "TALK_HERO_MAIN",
      "loadType": "TALK_ACTIVITY",
      "questId": 2029,
      "assetIndex": 8200666194191316911,
      "prePerformCfg": "",
      "lockGameTime": true,
      "forceNpcNotDestroy": true
    },
    {
      "id": 4014409,
      "beginWay": "TALK_BEGIN_MANUAL",
      "beginCondComb": "LOGIC_AND",
      "beginCond": [
        {
          "type": "QUEST_COND_STATE_EQUAL",
          "_param": [
            "4014409",
            "3"
          ]
        },
        {
          "type": "QUEST_COND_ACTIVITY_CLIENT_COND",
          "_param": [
            "2029",
            "2029001",
            "1"
          ]
        }
      ],
      "priority": 1,
      "initDialog": 401440901,
      "npcId": [
        30519
      ],
      "performCfg": "QuestDialogue/EQ/V4.5AlchemySim_40144/Q4014409",
      "heroTalk": "TALK_HERO_MAIN",
      "loadType": "TALK_ACTIVITY",
      "questId": 2029,
      "assetIndex": 5279663628944549845,
      "prePerformCfg": "",
      "lockGameTime": true,
      "forceNpcNotDestroy": true
    },
    {
      "id": 4014503,
      "beginWay": "TALK_BEGIN_MANUAL",
      "beginCondComb": "LOGIC_AND",
      "beginCond": [
        {
          "type": "QUEST_COND_STATE_EQUAL",
          "_param": [
            "4014502",
            "3"
          ]
        },
        {
          "type": "QUEST_COND_ACTIVITY_CLIENT_COND",
          "_param": [
            "2029",
            "2029003",
            "1"
          ]
        }
      ],
      "priority": 2,
      "initDialog": 401450301,
      "npcId": [
        30507
      ],
      "performCfg": "QuestDialogue/EQ/V4.5AlchemySim_40145/Q4014503",
      "heroTalk": "TALK_HERO_MAIN",
      "loadType": "TALK_ACTIVITY",
      "questId": 2029,
      "assetIndex": 10581213584646032050,
      "prePerformCfg": "",
      "lockGameTime": true,
      "forceNpcNotDestroy": true
    },
    {
      "id": 4014504,
      "beginWay": "TALK_BEGIN_MANUAL",
      "beginCondComb": "LOGIC_AND",
      "beginCond": [
        {
          "type": "QUEST_COND_STATE_EQUAL",
          "_param": [
            "4014503",
            "3"
          ]
        },
        {
          "type": "QUEST_COND_ACTIVITY_CLIENT_COND",
          "_param": [
            "2029",
            "2029003",
            "1"
          ]
        }
      ],
      "priority": 2,
      "initDialog": 401450401,
      "npcId": [
        30519
      ],
      "performCfg": "QuestDialogue/EQ/V4.5AlchemySim_40145/Q4014504",
      "heroTalk": "TALK_HERO_MAIN",
      "loadType": "TALK_ACTIVITY",
      "questId": 2029,
      "assetIndex": 1973221628779749891,
      "prePerformCfg": "",
      "lockGameTime": true,
      "forceNpcNotDestroy": true
    },
    {
      "id": 4014602,
      "beginWay": "TALK_BEGIN_MANUAL",
      "beginCond": [
        {
          "type": "QUEST_COND_ACTIVITY_ALCHEMY_SIM_STATE",
          "_param": [
            "0",
            "3",
            "4014601",
            "4014603",
            "30501"
          ]
        }
      ],
      "priority": 3,
      "initDialog": 401460201,
      "npcId": [
        30501
      ],
      "performCfg": "QuestDialogue/EQ/V4.5AlchemySim_40146/Q4014602",
      "heroTalk": "TALK_HERO_MAIN",
      "loadType": "TALK_ACTIVITY",
      "questId": 2029,
      "assetIndex": 8766670326062174596,
      "prePerformCfg": "",
      "forceNpcNotDestroy": true,
      "PLPFOOINAAJ": [
        "[3_300300749:2507.826,205.371,-1146.257,0.010,182.895,359.972]"
      ]
    },
    {
      "id": 4014603,
      "beginWay": "TALK_BEGIN_MANUAL",
      "beginCond": [
        {
          "type": "QUEST_COND_ACTIVITY_ALCHEMY_SIM_STATE",
          "_param": [
            "0",
            "2",
            "4014601",
            "4014603",
            "30501"
          ]
        }
      ],
      "priority": 3,
      "initDialog": 401460301,
      "npcId": [
        30501
      ],
      "performCfg": "QuestDialogue/EQ/V4.5AlchemySim_40146/Q4014603",
      "heroTalk": "TALK_HERO_MAIN",
      "loadType": "TALK_ACTIVITY",
      "questId": 2029,
      "assetIndex": 15324039275599155796,
      "prePerformCfg": "",
      "finishExec": [
        {
          "KPGKDHAFHFE": "TALK_EXEC_SAVE_TALK_ID",
          "param": [
            "4014603"
          ]
        }
      ],
      "forceNpcNotDestroy": true,
      "PLPFOOINAAJ": [
        "[3_300300749:2507.826,205.371,-1146.257,0.010,182.895,359.972]"
      ]
    },
    {
      "id": 4014604,
      "beginWay": "TALK_BEGIN_MANUAL",
      "beginCond": [
        {
          "type": "QUEST_COND_ACTIVITY_ALCHEMY_SIM_STATE",
          "_param": [
            "0",
            "1",
            "4014604",
            "4014606",
            "30518"
          ]
        }
      ],
      "priority": 3,
      "initDialog": 401460401,
      "npcId": [
        30518
      ],
      "performCfg": "QuestDialogue/EQ/V4.5AlchemySim_40146/Q4014604",
      "heroTalk": "TALK_HERO_MAIN",
      "loadType": "TALK_ACTIVITY",
      "questId": 2029,
      "assetIndex": 14179225403708085871,
      "prePerformCfg": "",
      "finishExec": [
        {
          "KPGKDHAFHFE": "TALK_EXEC_SAVE_TALK_ID",
          "param": [
            "4014604"
          ]
        }
      ],
      "forceNpcNotDestroy": true,
      "PLPFOOINAAJ": [
        "[3_300300749:2507.826,205.371,-1146.257,0.010,182.895,359.972]",
        "[3_300300750:2506.894,205.371,-1146.261,0.000,172.419,0.000]"
      ]
    },
    {
      "id": 4014605,
      "beginWay": "TALK_BEGIN_MANUAL",
      "beginCond": [
        {
          "type": "QUEST_COND_ACTIVITY_ALCHEMY_SIM_STATE",
          "_param": [
            "0",
            "3",
            "4014604",
            "4014606",
            "30518"
          ]
        }
      ],
      "priority": 3,
      "initDialog": 401460501,
      "npcId": [
        30518
      ],
      "performCfg": "QuestDialogue/EQ/V4.5AlchemySim_40146/Q4014605",
      "heroTalk": "TALK_HERO_MAIN",
      "loadType": "TALK_ACTIVITY",
      "questId": 2029,
      "assetIndex": 2532470252071248368,
      "prePerformCfg": "",
      "forceNpcNotDestroy": true,
      "PLPFOOINAAJ": [
        "[3_300300749:2507.826,205.371,-1146.257,0.010,182.895,359.972]"
      ]
    },
    {
      "id": 4014606,
      "beginWay": "TALK_BEGIN_MANUAL",
      "beginCond": [
        {
          "type": "QUEST_COND_ACTIVITY_ALCHEMY_SIM_STATE",
          "_param": [
            "0",
            "2",
            "4014604",
            "4014606",
            "30518"
          ]
        }
      ],
      "priority": 3,
      "initDialog": 401460601,
      "npcId": [
        30518
      ],
      "performCfg": "QuestDialogue/EQ/V4.5AlchemySim_40146/Q4014606",
      "heroTalk": "TALK_HERO_MAIN",
      "loadType": "TALK_ACTIVITY",
      "questId": 2029,
      "assetIndex": 9438090047465597924,
      "prePerformCfg": "",
      "finishExec": [
        {
          "KPGKDHAFHFE": "TALK_EXEC_SAVE_TALK_ID",
          "param": [
            "4014606"
          ]
        }
      ],
      "forceNpcNotDestroy": true,
      "PLPFOOINAAJ": [
        "[3_300300749:2507.826,205.371,-1146.257,0.010,182.895,359.972]"
      ]
    },
    {
      "id": 4014607,
      "beginWay": "TALK_BEGIN_MANUAL",
      "beginCondComb": "LOGIC_AND",
      "beginCond": [
        {
          "type": "QUEST_COND_STATE_EQUAL",
          "_param": [
            "4014602",
            "3"
          ]
        },
        {
          "type": "QUEST_COND_ACTIVITY_CLIENT_COND",
          "_param": [
            "2029",
            "2029004",
            "1"
          ]
        }
      ],
      "priority": 3,
      "initDialog": 401460701,
      "npcId": [
        30507
      ],
      "performCfg": "QuestDialogue/EQ/V4.5AlchemySim_40146/Q4014607",
      "heroTalk": "TALK_HERO_MAIN",
      "loadType": "TALK_ACTIVITY",
      "questId": 2029,
      "assetIndex": 1894223901157522798,
      "prePerformCfg": "",
      "lockGameTime": true,
      "forceNpcNotDestroy": true
    },
    {
      "id": 4015402,
      "beginWay": "TALK_BEGIN_MANUAL",
      "beginCondComb": "LOGIC_AND",
      "beginCond": [
        {
          "type": "QUEST_COND_STATE_EQUAL",
          "_param": [
            "4015402",
            "3"
          ]
        },
        {
          "type": "QUEST_COND_ACTIVITY_CLIENT_COND",
          "_param": [
            "2029",
            "2029008",
            "1"
          ]
        }
      ],
      "priority": 4,
      "initDialog": 401540201,
      "npcId": [
        30507,
        30508
      ],
      "performCfg": "QuestDialogue/EQ/V4.5AlchemySim_40154/Q4015402",
      "heroTalk": "TALK_HERO_MAIN",
      "loadType": "TALK_ACTIVITY",
      "questId": 2029,
      "assetIndex": 9566087894046742343,
      "prePerformCfg": "",
      "forceNpcNotDestroy": true
    },
    {
      "id": 4015403,
      "beginWay": "TALK_BEGIN_MANUAL",
      "beginCond": [
        {
          "type": "QUEST_COND_ACTIVITY_ALCHEMY_SIM_STATE",
          "_param": [
            "101",
            "1",
            "4015403",
            "4015404",
            "30510"
          ]
        }
      ],
      "priority": 3,
      "initDialog": 401540301,
      "npcId": [
        30510
      ],
      "performCfg": "QuestDialogue/EQ/V4.5AlchemySim_40154/Q4015403",
      "heroTalk": "TALK_HERO_MAIN",
      "loadType": "TALK_ACTIVITY",
      "questId": 2029,
      "assetIndex": 879296121070617219,
      "prePerformCfg": "",
      "finishExec": [
        {
          "KPGKDHAFHFE": "TALK_EXEC_SAVE_TALK_ID",
          "param": [
            "4015403"
          ]
        }
      ],
      "forceNpcNotDestroy": true,
      "PLPFOOINAAJ": [
        "[3_300300735:2529.301,204.921,-1126.802,0.000,221.111,0.000]",
        "[3_300300738:2527.880,204.921,-1128.342,0.000,35.167,0.000]",
        "[3_300300739:2527.448,204.921,-1127.655,0.000,66.099,0.000]",
        "[3_300300751:2528.754,204.921,-1130.640,0.000,83.360,0.000]"
      ]
    },
    {
      "id": 4015404,
      "beginWay": "TALK_BEGIN_MANUAL",
      "beginCond": [
        {
          "type": "QUEST_COND_ACTIVITY_ALCHEMY_SIM_STATE",
          "_param": [
            "101",
            "2",
            "4015403",
            "4015404",
            "30510"
          ]
        }
      ],
      "priority": 3,
      "initDialog": 401540401,
      "npcId": [
        30510
      ],
      "performCfg": "QuestDialogue/EQ/V4.5AlchemySim_40154/Q4015404",
      "heroTalk": "TALK_HERO_MAIN",
      "loadType": "TALK_ACTIVITY",
      "questId": 2029,
      "assetIndex": 10640830135252980042,
      "prePerformCfg": "",
      "finishExec": [
        {
          "KPGKDHAFHFE": "TALK_EXEC_SAVE_TALK_ID",
          "param": [
            "4015404"
          ]
        }
      ],
      "forceNpcNotDestroy": true,
      "PLPFOOINAAJ": [
        "[3_300300738:2527.880,204.921,-1128.342,0.000,35.167,0.000]",
        "[3_300300751:2528.754,204.921,-1130.640,0.000,83.360,0.000]"
      ]
    },
    {
      "id": 4015405,
      "beginWay": "TALK_BEGIN_MANUAL",
      "beginCondComb": "LOGIC_AND",
      "beginCond": [
        {
          "type": "QUEST_COND_ACTIVITY_ALCHEMY_SIM_STATE",
          "_param": [
            "101",
            "3",
            "4015403",
            "4015404",
            "30510"
          ]
        },
        {
          "type": "QUEST_COND_ACTIVITY_ALCHEMY_SIM_EXAM_CAN_SUBMIT",
          "_param": [
            "0"
          ]
        }
      ],
      "priority": 3,
      "initDialog": 401540501,
      "npcId": [
        30510
      ],
      "performCfg": "QuestDialogue/EQ/V4.5AlchemySim_40154/Q4015405",
      "heroTalk": "TALK_HERO_MAIN",
      "loadType": "TALK_ACTIVITY",
      "questId": 2029,
      "assetIndex": 16259729740104831475,
      "prePerformCfg": "",
      "forceNpcNotDestroy": true
    },
    {
      "id": 4015406,
      "beginWay": "TALK_BEGIN_MANUAL",
      "beginCond": [
        {
          "type": "QUEST_COND_ACTIVITY_ALCHEMY_SIM_STATE",
          "_param": [
            "101",
            "4",
            "4015403",
            "4015404",
            "30510"
          ]
        }
      ],
      "priority": 3,
      "initDialog": 401540601,
      "npcId": [
        30510
      ],
      "performCfg": "QuestDialogue/EQ/V4.5AlchemySim_40154/Q4015406",
      "heroTalk": "TALK_HERO_MAIN",
      "loadType": "TALK_ACTIVITY",
      "questId": 2029,
      "assetIndex": 16093645106245309306,
      "prePerformCfg": "",
      "forceNpcNotDestroy": true
    },
    {
      "id": 4015407,
      "beginWay": "TALK_BEGIN_MANUAL",
      "beginCond": [
        {
          "type": "QUEST_COND_ACTIVITY_ALCHEMY_SIM_STATE",
          "_param": [
            "101",
            "5",
            "4015403",
            "4015404",
            "30510"
          ]
        }
      ],
      "priority": 3,
      "initDialog": 401540701,
      "npcId": [
        30510
      ],
      "performCfg": "QuestDialogue/EQ/V4.5AlchemySim_40154/Q4015407",
      "heroTalk": "TALK_HERO_MAIN",
      "loadType": "TALK_ACTIVITY",
      "questId": 2029,
      "assetIndex": 14427950947433422428,
      "prePerformCfg": "",
      "forceNpcNotDestroy": true
    },
    {
      "id": 4015408,
      "beginWay": "TALK_BEGIN_MANUAL",
      "beginCond": [
        {
          "type": "QUEST_COND_ACTIVITY_ALCHEMY_SIM_STATE",
          "_param": [
            "102",
            "1",
            "4015408",
            "4015409",
            "30510"
          ]
        }
      ],
      "priority": 3,
      "initDialog": 401540801,
      "npcId": [
        30510
      ],
      "performCfg": "QuestDialogue/EQ/V4.5AlchemySim_40154/Q4015408",
      "heroTalk": "TALK_HERO_MAIN",
      "loadType": "TALK_ACTIVITY",
      "questId": 2029,
      "assetIndex": 4376278803951801705,
      "prePerformCfg": "",
      "finishExec": [
        {
          "KPGKDHAFHFE": "TALK_EXEC_SAVE_TALK_ID",
          "param": [
            "4015408"
          ]
        }
      ],
      "forceNpcNotDestroy": true,
      "PLPFOOINAAJ": [
        "[3_300300738:2527.880,204.921,-1128.342,0.000,35.167,0.000]",
        "[3_300300739:2527.448,204.921,-1127.655,0.000,66.099,0.000]",
        "[3_300300751:2528.754,204.921,-1130.640,0.000,83.360,0.000]"
      ]
    },
    {
      "id": 4015409,
      "beginWay": "TALK_BEGIN_MANUAL",
      "beginCond": [
        {
          "type": "QUEST_COND_ACTIVITY_ALCHEMY_SIM_STATE",
          "_param": [
            "102",
            "2",
            "4015408",
            "4015409",
            "30510"
          ]
        }
      ],
      "priority": 3,
      "initDialog": 401540901,
      "npcId": [
        30510
      ],
      "performCfg": "QuestDialogue/EQ/V4.5AlchemySim_40154/Q4015409",
      "heroTalk": "TALK_HERO_MAIN",
      "loadType": "TALK_ACTIVITY",
      "questId": 2029,
      "assetIndex": 9288055260365221074,
      "prePerformCfg": "",
      "finishExec": [
        {
          "KPGKDHAFHFE": "TALK_EXEC_SAVE_TALK_ID",
          "param": [
            "4015409"
          ]
        }
      ],
      "forceNpcNotDestroy": true,
      "PLPFOOINAAJ": [
        "[3_300300738:2527.880,204.921,-1128.342,0.000,35.167,0.000]",
        "[3_300300739:2527.448,204.921,-1127.655,0.000,66.099,0.000]",
        "[3_300300751:2528.754,204.921,-1130.640,0.000,83.360,0.000]"
      ]
    },
    {
      "id": 4015410,
      "beginWay": "TALK_BEGIN_MANUAL",
      "beginCondComb": "LOGIC_AND",
      "beginCond": [
        {
          "type": "QUEST_COND_ACTIVITY_ALCHEMY_SIM_STATE",
          "_param": [
            "102",
            "3",
            "4015408",
            "4015409",
            "30510"
          ]
        },
        {
          "type": "QUEST_COND_ACTIVITY_ALCHEMY_SIM_EXAM_CAN_SUBMIT",
          "_param": [
            "0"
          ]
        }
      ],
      "priority": 3,
      "initDialog": 401541001,
      "npcId": [
        30510
      ],
      "performCfg": "QuestDialogue/EQ/V4.5AlchemySim_40154/Q4015410",
      "heroTalk": "TALK_HERO_MAIN",
      "loadType": "TALK_ACTIVITY",
      "questId": 2029,
      "assetIndex": 4603815349397596400,
      "prePerformCfg": "",
      "forceNpcNotDestroy": true
    },
    {
      "id": 4015411,
      "beginWay": "TALK_BEGIN_MANUAL",
      "beginCond": [
        {
          "type": "QUEST_COND_ACTIVITY_ALCHEMY_SIM_STATE",
          "_param": [
            "102",
            "4",
            "4015408",
            "4015409",
            "30510"
          ]
        }
      ],
      "priority": 3,
      "initDialog": 401541101,
      "npcId": [
        30510
      ],
      "performCfg": "QuestDialogue/EQ/V4.5AlchemySim_40154/Q4015411",
      "heroTalk": "TALK_HERO_MAIN",
      "loadType": "TALK_ACTIVITY",
      "questId": 2029,
      "assetIndex": 11298765274961743444,
      "prePerformCfg": "",
      "forceNpcNotDestroy": true,
      "PLPFOOINAAJ": [
        "[3_300300738:2527.880,204.921,-1128.342,0.000,35.167,0.000]"
      ]
    },
    {
      "id": 4015412,
      "beginWay": "TALK_BEGIN_MANUAL",
      "beginCond": [
        {
          "type": "QUEST_COND_ACTIVITY_ALCHEMY_SIM_STATE",
          "_param": [
            "102",
            "5",
            "4015408",
            "4015409",
            "30510"
          ]
        }
      ],
      "priority": 3,
      "initDialog": 401541201,
      "npcId": [
        30510
      ],
      "performCfg": "QuestDialogue/EQ/V4.5AlchemySim_40154/Q4015412",
      "heroTalk": "TALK_HERO_MAIN",
      "loadType": "TALK_ACTIVITY",
      "questId": 2029,
      "assetIndex": 10164734683433136796,
      "prePerformCfg": "",
      "forceNpcNotDestroy": true,
      "PLPFOOINAAJ": [
        "[3_300300738:2527.880,204.921,-1128.342,0.000,35.167,0.000]"
      ]
    },
    {
      "id": 4015413,
      "beginWay": "TALK_BEGIN_MANUAL",
      "beginCond": [
        {
          "type": "QUEST_COND_ACTIVITY_ALCHEMY_SIM_STATE",
          "_param": [
            "103",
            "1",
            "4015413",
            "4015414",
            "30510"
          ]
        }
      ],
      "priority": 3,
      "initDialog": 401541301,
      "npcId": [
        30510
      ],
      "performCfg": "QuestDialogue/EQ/V4.5AlchemySim_40154/Q4015413",
      "heroTalk": "TALK_HERO_MAIN",
      "loadType": "TALK_ACTIVITY",
      "questId": 2029,
      "assetIndex": 1593622233405179429,
      "prePerformCfg": "",
      "finishExec": [
        {
          "KPGKDHAFHFE": "TALK_EXEC_SAVE_TALK_ID",
          "param": [
            "4015413"
          ]
        }
      ],
      "forceNpcNotDestroy": true,
      "PLPFOOINAAJ": [
        "[3_300300738:2527.880,204.921,-1128.342,0.000,35.167,0.000]",
        "[3_300300739:2527.448,204.921,-1127.655,0.000,66.099,0.000]",
        "[3_300300751:2528.754,204.921,-1130.640,0.000,83.360,0.000]"
      ]
    },
    {
      "id": 4015414,
      "beginWay": "TALK_BEGIN_MANUAL",
      "beginCond": [
        {
          "type": "QUEST_COND_ACTIVITY_ALCHEMY_SIM_STATE",
          "_param": [
            "103",
            "2",
            "4015413",
            "4015414",
            "30510"
          ]
        }
      ],
      "priority": 3,
      "initDialog": 401541401,
      "npcId": [
        30510
      ],
      "performCfg": "QuestDialogue/EQ/V4.5AlchemySim_40154/Q4015414",
      "heroTalk": "TALK_HERO_MAIN",
      "loadType": "TALK_ACTIVITY",
      "questId": 2029,
      "assetIndex": 5671977047061424585,
      "prePerformCfg": "",
      "finishExec": [
        {
          "KPGKDHAFHFE": "TALK_EXEC_SAVE_TALK_ID",
          "param": [
            "4015414"
          ]
        }
      ],
      "forceNpcNotDestroy": true,
      "PLPFOOINAAJ": [
        "[3_300300738:2527.880,204.921,-1128.342,0.000,35.167,0.000]",
        "[3_300300739:2527.448,204.921,-1127.655,0.000,66.099,0.000]",
        "[3_300300751:2528.754,204.921,-1130.640,0.000,83.360,0.000]"
      ]
    },
    {
      "id": 4015415,
      "beginWay": "TALK_BEGIN_MANUAL",
      "beginCondComb": "LOGIC_AND",
      "beginCond": [
        {
          "type": "QUEST_COND_ACTIVITY_ALCHEMY_SIM_STATE",
          "_param": [
            "103",
            "3",
            "4015413",
            "4015414",
            "30510"
          ]
        },
        {
          "type": "QUEST_COND_ACTIVITY_ALCHEMY_SIM_EXAM_CAN_SUBMIT",
          "_param": [
            "0"
          ]
        }
      ],
      "priority": 3,
      "initDialog": 401541501,
      "npcId": [
        30510
      ],
      "performCfg": "QuestDialogue/EQ/V4.5AlchemySim_40154/Q4015415",
      "heroTalk": "TALK_HERO_MAIN",
      "loadType": "TALK_ACTIVITY",
      "questId": 2029,
      "assetIndex": 10768861205722371563,
      "prePerformCfg": "",
      "forceNpcNotDestroy": true
    },
    {
      "id": 4015416,
      "beginWay": "TALK_BEGIN_MANUAL",
      "beginCond": [
        {
          "type": "QUEST_COND_ACTIVITY_ALCHEMY_SIM_STATE",
          "_param": [
            "103",
            "4",
            "4015413",
            "4015414",
            "30510"
          ]
        }
      ],
      "priority": 3,
      "initDialog": 401541601,
      "npcId": [
        30510
      ],
      "performCfg": "QuestDialogue/EQ/V4.5AlchemySim_40154/Q4015416",
      "heroTalk": "TALK_HERO_MAIN",
      "loadType": "TALK_ACTIVITY",
      "questId": 2029,
      "assetIndex": 16951461445794325955,
      "prePerformCfg": "",
      "forceNpcNotDestroy": true,
      "PLPFOOINAAJ": [
        "[3_300300738:2527.880,204.921,-1128.342,0.000,35.167,0.000]"
      ]
    },
    {
      "id": 4015417,
      "beginWay": "TALK_BEGIN_MANUAL",
      "beginCond": [
        {
          "type": "QUEST_COND_ACTIVITY_ALCHEMY_SIM_STATE",
          "_param": [
            "103",
            "5",
            "4015413",
            "4015414",
            "30510"
          ]
        }
      ],
      "priority": 3,
      "initDialog": 401541701,
      "npcId": [
        30510
      ],
      "performCfg": "QuestDialogue/EQ/V4.5AlchemySim_40154/Q4015417",
      "heroTalk": "TALK_HERO_MAIN",
      "loadType": "TALK_ACTIVITY",
      "questId": 2029,
      "assetIndex": 12048085084292300716,
      "prePerformCfg": "",
      "forceNpcNotDestroy": true,
      "PLPFOOINAAJ": [
        "[3_300300738:2527.880,204.921,-1128.342,0.000,35.167,0.000]",
        "[3_300300739:2527.448,204.921,-1127.655,0.000,66.099,0.000]"
      ]
    },
    {
      "id": 4015418,
      "beginWay": "TALK_BEGIN_MANUAL",
      "beginCond": [
        {
          "type": "QUEST_COND_ACTIVITY_ALCHEMY_SIM_STATE",
          "_param": [
            "104",
            "1",
            "4015418",
            "4015419",
            "30510"
          ]
        }
      ],
      "priority": 3,
      "initDialog": 401541801,
      "npcId": [
        30510
      ],
      "performCfg": "QuestDialogue/EQ/V4.5AlchemySim_40154/Q4015418",
      "heroTalk": "TALK_HERO_MAIN",
      "loadType": "TALK_ACTIVITY",
      "questId": 2029,
      "assetIndex": 10015510997620586248,
      "prePerformCfg": "",
      "finishExec": [
        {
          "KPGKDHAFHFE": "TALK_EXEC_SAVE_TALK_ID",
          "param": [
            "4015418"
          ]
        }
      ],
      "forceNpcNotDestroy": true,
      "PLPFOOINAAJ": [
        "[3_300300738:2527.880,204.921,-1128.342,0.000,35.167,0.000]",
        "[3_300300739:2527.448,204.921,-1127.655,0.000,66.099,0.000]",
        "[3_300300751:2528.754,204.921,-1130.640,0.000,83.360,0.000]"
      ]
    },
    {
      "id": 4015419,
      "beginWay": "TALK_BEGIN_MANUAL",
      "beginCond": [
        {
          "type": "QUEST_COND_ACTIVITY_ALCHEMY_SIM_STATE",
          "_param": [
            "104",
            "2",
            "4015418",
            "4015419",
            "30510"
          ]
        }
      ],
      "priority": 3,
      "initDialog": 401541901,
      "npcId": [
        30510
      ],
      "performCfg": "QuestDialogue/EQ/V4.5AlchemySim_40154/Q4015419",
      "heroTalk": "TALK_HERO_MAIN",
      "loadType": "TALK_ACTIVITY",
      "questId": 2029,
      "assetIndex": 15886486792271716511,
      "prePerformCfg": "",
      "finishExec": [
        {
          "KPGKDHAFHFE": "TALK_EXEC_SAVE_TALK_ID",
          "param": [
            "4015419"
          ]
        }
      ],
      "forceNpcNotDestroy": true,
      "PLPFOOINAAJ": [
        "[3_300300738:2527.880,204.921,-1128.342,0.000,35.167,0.000]",
        "[3_300300751:2528.754,204.921,-1130.640,0.000,83.360,0.000]"
      ]
    },
    {
      "id": 4015420,
      "beginWay": "TALK_BEGIN_MANUAL",
      "beginCondComb": "LOGIC_AND",
      "beginCond": [
        {
          "type": "QUEST_COND_ACTIVITY_ALCHEMY_SIM_STATE",
          "_param": [
            "104",
            "3",
            "4015418",
            "4015419",
            "30510"
          ]
        },
        {
          "type": "QUEST_COND_ACTIVITY_ALCHEMY_SIM_EXAM_CAN_SUBMIT",
          "_param": [
            "0"
          ]
        }
      ],
      "priority": 3,
      "initDialog": 401542001,
      "npcId": [
        30510
      ],
      "performCfg": "QuestDialogue/EQ/V4.5AlchemySim_40154/Q4015420",
      "heroTalk": "TALK_HERO_MAIN",
      "loadType": "TALK_ACTIVITY",
      "questId": 2029,
      "assetIndex": 17349697331825721534,
      "prePerformCfg": "",
      "forceNpcNotDestroy": true
    },
    {
      "id": 4015421,
      "beginWay": "TALK_BEGIN_MANUAL",
      "beginCond": [
        {
          "type": "QUEST_COND_ACTIVITY_ALCHEMY_SIM_STATE",
          "_param": [
            "104",
            "4",
            "4015418",
            "4015419",
            "30510"
          ]
        }
      ],
      "priority": 3,
      "initDialog": 401542101,
      "npcId": [
        30510
      ],
      "performCfg": "QuestDialogue/EQ/V4.5AlchemySim_40154/Q4015421",
      "heroTalk": "TALK_HERO_MAIN",
      "loadType": "TALK_ACTIVITY",
      "questId": 2029,
      "assetIndex": 15368508480339332233,
      "prePerformCfg": "",
      "forceNpcNotDestroy": true,
      "PLPFOOINAAJ": [
        "[3_300300735:2529.301,204.921,-1126.802,0.000,221.111,0.000]",
        "[3_300300738:2527.880,204.921,-1128.342,0.000,35.167,0.000]",
        "[3_300300739:2527.448,204.921,-1127.655,0.000,66.099,0.000]",
        "[3_300300751:2528.754,204.921,-1130.640,0.000,83.360,0.000]"
      ]
    },
    {
      "id": 4015422,
      "beginWay": "TALK_BEGIN_MANUAL",
      "beginCond": [
        {
          "type": "QUEST_COND_ACTIVITY_ALCHEMY_SIM_STATE",
          "_param": [
            "104",
            "5",
            "4015418",
            "4015419",
            "30510"
          ]
        }
      ],
      "priority": 3,
      "initDialog": 401542201,
      "npcId": [
        30510
      ],
      "performCfg": "QuestDialogue/EQ/V4.5AlchemySim_40154/Q4015422",
      "heroTalk": "TALK_HERO_MAIN",
      "loadType": "TALK_ACTIVITY",
      "questId": 2029,
      "assetIndex": 13021097491995773490,
      "prePerformCfg": "",
      "forceNpcNotDestroy": true
    },
    {
      "id": 4015423,
      "beginWay": "TALK_BEGIN_MANUAL",
      "beginCond": [
        {
          "type": "QUEST_COND_ACTIVITY_ALCHEMY_SIM_STATE",
          "_param": [
            "0",
            "1",
            "4015423",
            "4015424",
            "30515"
          ]
        }
      ],
      "priority": 3,
      "initDialog": 401542301,
      "npcId": [
        30515,
        30514
      ],
      "performCfg": "QuestDialogue/EQ/V4.5AlchemySim_40154/Q4015423",
      "heroTalk": "TALK_HERO_MAIN",
      "loadType": "TALK_ACTIVITY",
      "questId": 2029,
      "assetIndex": 4155799370293838844,
      "prePerformCfg": "",
      "finishExec": [
        {
          "KPGKDHAFHFE": "TALK_EXEC_SET_QUEST_GLOBAL_VAR",
          "param": [
            "4015401",
            "1"
          ]
        },
        {
          "KPGKDHAFHFE": "TALK_EXEC_SAVE_TALK_ID",
          "param": [
            "4015423"
          ]
        }
      ],
      "forceNpcNotDestroy": true,
      "PLPFOOINAAJ": [
        "[3_300300749:2507.826,205.371,-1146.257,0.010,182.895,359.972]",
        "[3_300300750:2506.894,205.371,-1146.261,0.000,172.419,0.000]",
        "[3_300300752:2519.699,203.425,-1138.427,0.000,247.082,0.000]",
        "[3_300300753:2518.407,203.410,-1139.256,0.000,57.781,0.000]"
      ]
    },
    {
      "id": 4015424,
      "beginWay": "TALK_BEGIN_MANUAL",
      "beginCond": [
        {
          "type": "QUEST_COND_ACTIVITY_ALCHEMY_SIM_STATE",
          "_param": [
            "0",
            "2",
            "4015423",
            "4015424",
            "30515"
          ]
        }
      ],
      "priority": 3,
      "initDialog": 401542401,
      "npcId": [
        30515,
        30514
      ],
      "performCfg": "QuestDialogue/EQ/V4.5AlchemySim_40154/Q4015424",
      "heroTalk": "TALK_HERO_MAIN",
      "loadType": "TALK_ACTIVITY",
      "questId": 2029,
      "assetIndex": 13747587188368328880,
      "prePerformCfg": "",
      "finishExec": [
        {
          "KPGKDHAFHFE": "TALK_EXEC_SAVE_TALK_ID",
          "param": [
            "4015424"
          ]
        }
      ],
      "forceNpcNotDestroy": true,
      "PLPFOOINAAJ": [
        "[3_300300749:2507.826,205.371,-1146.257,0.010,182.895,359.972]",
        "[3_300300752:2519.699,203.425,-1138.427,0.000,247.082,0.000]",
        "[3_300300753:2518.407,203.410,-1139.256,0.000,57.781,0.000]"
      ]
    },
    {
      "id": 4015425,
      "beginWay": "TALK_BEGIN_MANUAL",
      "beginCond": [
        {
          "type": "QUEST_COND_ACTIVITY_ALCHEMY_SIM_STATE",
          "_param": [
            "0",
            "3",
            "4015423",
            "4015424",
            "30515"
          ]
        }
      ],
      "priority": 3,
      "initDialog": 401542501,
      "npcId": [
        30515
      ],
      "performCfg": "QuestDialogue/EQ/V4.5AlchemySim_40154/Q4015425",
      "heroTalk": "TALK_HERO_MAIN",
      "loadType": "TALK_ACTIVITY",
      "questId": 2029,
      "assetIndex": 4806110557796556883,
      "prePerformCfg": "",
      "forceNpcNotDestroy": true
    },
    {
      "id": 4015426,
      "beginWay": "TALK_BEGIN_MANUAL",
      "beginCond": [
        {
          "type": "QUEST_COND_ACTIVITY_ALCHEMY_SIM_STATE",
          "_param": [
            "0",
            "3",
            "4015423",
            "4015424",
            "30515"
          ]
        }
      ],
      "priority": 3,
      "initDialog": 401542601,
      "npcId": [
        30514
      ],
      "performCfg": "QuestDialogue/EQ/V4.5AlchemySim_40154/Q4015426",
      "heroTalk": "TALK_HERO_MAIN",
      "loadType": "TALK_ACTIVITY",
      "questId": 2029,
      "assetIndex": 9756416533707292022,
      "prePerformCfg": "",
      "forceNpcNotDestroy": true
    },
    {
      "id": 4015427,
      "beginWay": "TALK_BEGIN_MANUAL",
      "beginCond": [
        {
          "type": "QUEST_COND_ACTIVITY_ALCHEMY_SIM_STATE",
          "_param": [
            "0",
            "4",
            "4015423",
            "4015424",
            "30515"
          ]
        }
      ],
      "priority": 3,
      "initDialog": 401542701,
      "npcId": [
        30515,
        30514
      ],
      "performCfg": "QuestDialogue/EQ/V4.5AlchemySim_40154/Q4015427",
      "heroTalk": "TALK_HERO_MAIN",
      "loadType": "TALK_ACTIVITY",
      "questId": 2029,
      "assetIndex": 17504049763491994747,
      "prePerformCfg": "",
      "forceNpcNotDestroy": true,
      "PLPFOOINAAJ": [
        "[3_300300742:2504.296,203.861,-1137.913,0.000,281.660,0.000]",
        "[3_300300752:2519.699,203.425,-1138.427,0.000,247.082,0.000]",
        "[3_300300753:2518.407,203.410,-1139.256,0.000,57.781,0.000]"
      ]
    },
    {
      "id": 4015428,
      "beginWay": "TALK_BEGIN_MANUAL",
      "beginCond": [
        {
          "type": "QUEST_COND_ACTIVITY_ALCHEMY_SIM_STATE",
          "_param": [
            "0",
            "5",
            "4015423",
            "4015424",
            "30515"
          ]
        }
      ],
      "priority": 3,
      "initDialog": 401542801,
      "npcId": [
        30515,
        30514
      ],
      "performCfg": "QuestDialogue/EQ/V4.5AlchemySim_40154/Q4015428",
      "heroTalk": "TALK_HERO_MAIN",
      "loadType": "TALK_ACTIVITY",
      "questId": 2029,
      "assetIndex": 3285467450871681689,
      "prePerformCfg": "",
      "forceNpcNotDestroy": true,
      "PLPFOOINAAJ": [
        "[3_300300742:2504.296,203.861,-1137.913,0.000,281.660,0.000]",
        "[3_300300752:2519.699,203.425,-1138.427,0.000,247.082,0.000]",
        "[3_300300753:2518.407,203.410,-1139.256,0.000,57.781,0.000]"
      ]
    },
    {
      "id": 4015429,
      "beginWay": "TALK_BEGIN_MANUAL",
      "beginCond": [
        {
          "type": "QUEST_COND_ACTIVITY_ALCHEMY_SIM_STATE",
          "_param": [
            "0",
            "1",
            "4015429",
            "4015430",
            "30513"
          ]
        }
      ],
      "priority": 3,
      "initDialog": 401542901,
      "npcId": [
        30513
      ],
      "performCfg": "QuestDialogue/EQ/V4.5AlchemySim_40154/Q4015429",
      "heroTalk": "TALK_HERO_MAIN",
      "loadType": "TALK_ACTIVITY",
      "questId": 2029,
      "assetIndex": 8621214475408022482,
      "prePerformCfg": "",
      "finishExec": [
        {
          "KPGKDHAFHFE": "TALK_EXEC_SAVE_TALK_ID",
          "param": [
            "4015429"
          ]
        }
      ],
      "forceNpcNotDestroy": true,
      "PLPFOOINAAJ": [
        "[3_300300735:2529.301,204.921,-1126.802,0.000,221.111,0.000]",
        "[3_300300738:2527.880,204.921,-1128.342,0.000,35.167,0.000]",
        "[3_300300739:2527.448,204.921,-1127.655,0.000,66.099,0.000]",
        "[3_300300754:2525.794,204.104,-1134.844,0.000,307.430,0.000]"
      ]
    },
    {
      "id": 4015430,
      "beginWay": "TALK_BEGIN_MANUAL",
      "beginCond": [
        {
          "type": "QUEST_COND_ACTIVITY_ALCHEMY_SIM_STATE",
          "_param": [
            "0",
            "2",
            "4015429",
            "4015430",
            "30513"
          ]
        }
      ],
      "priority": 3,
      "initDialog": 401543001,
      "npcId": [
        30513
      ],
      "performCfg": "QuestDialogue/EQ/V4.5AlchemySim_40154/Q4015430",
      "heroTalk": "TALK_HERO_MAIN",
      "loadType": "TALK_ACTIVITY",
      "questId": 2029,
      "assetIndex": 5922785860227585436,
      "prePerformCfg": "",
      "finishExec": [
        {
          "KPGKDHAFHFE": "TALK_EXEC_SAVE_TALK_ID",
          "param": [
            "4015430"
          ]
        }
      ],
      "forceNpcNotDestroy": true,
      "PLPFOOINAAJ": [
        "[3_300300738:2527.880,204.921,-1128.342,0.000,35.167,0.000]",
        "[3_300300739:2527.448,204.921,-1127.655,0.000,66.099,0.000]",
        "[3_300300754:2525.794,204.104,-1134.844,0.000,307.430,0.000]"
      ]
    },
    {
      "id": 4015431,
      "beginWay": "TALK_BEGIN_MANUAL",
      "beginCond": [
        {
          "type": "QUEST_COND_ACTIVITY_ALCHEMY_SIM_STATE",
          "_param": [
            "0",
            "3",
            "4015429",
            "4015430",
            "30513"
          ]
        }
      ],
      "priority": 3,
      "initDialog": 401543101,
      "npcId": [
        30513
      ],
      "performCfg": "QuestDialogue/EQ/V4.5AlchemySim_40154/Q4015431",
      "heroTalk": "TALK_HERO_MAIN",
      "loadType": "TALK_ACTIVITY",
      "questId": 2029,
      "assetIndex": 4752200275048709405,
      "prePerformCfg": "",
      "forceNpcNotDestroy": true
    },
    {
      "id": 4015432,
      "beginWay": "TALK_BEGIN_MANUAL",
      "beginCond": [
        {
          "type": "QUEST_COND_ACTIVITY_ALCHEMY_SIM_STATE",
          "_param": [
            "0",
            "4",
            "4015429",
            "4015430",
            "30513"
          ]
        }
      ],
      "priority": 3,
      "initDialog": 401543201,
      "npcId": [
        30513
      ],
      "performCfg": "QuestDialogue/EQ/V4.5AlchemySim_40154/Q4015432",
      "heroTalk": "TALK_HERO_MAIN",
      "loadType": "TALK_ACTIVITY",
      "questId": 2029,
      "assetIndex": 521485484146394772,
      "prePerformCfg": "",
      "forceNpcNotDestroy": true,
      "PLPFOOINAAJ": [
        "[3_300300735:2529.301,204.921,-1126.802,0.000,221.111,0.000]",
        "[3_300300738:2527.880,204.921,-1128.342,0.000,35.167,0.000]",
        "[3_300300739:2527.448,204.921,-1127.655,0.000,66.099,0.000]",
        "[3_300300754:2525.794,204.104,-1134.844,0.000,307.430,0.000]"
      ]
    },
    {
      "id": 4015433,
      "beginWay": "TALK_BEGIN_MANUAL",
      "beginCond": [
        {
          "type": "QUEST_COND_ACTIVITY_ALCHEMY_SIM_STATE",
          "_param": [
            "0",
            "5",
            "4015429",
            "4015430",
            "30513"
          ]
        }
      ],
      "priority": 3,
      "initDialog": 401543301,
      "npcId": [
        30513
      ],
      "performCfg": "QuestDialogue/EQ/V4.5AlchemySim_40154/Q4015433",
      "heroTalk": "TALK_HERO_MAIN",
      "loadType": "TALK_ACTIVITY",
      "questId": 2029,
      "assetIndex": 12223639190279357382,
      "prePerformCfg": "",
      "forceNpcNotDestroy": true,
      "PLPFOOINAAJ": [
        "[3_300300738:2527.880,204.921,-1128.342,0.000,35.167,0.000]",
        "[3_300300739:2527.448,204.921,-1127.655,0.000,66.099,0.000]",
        "[3_300300754:2525.794,204.104,-1134.844,0.000,307.430,0.000]"
      ]
    },
    {
      "id": 4015434,
      "beginWay": "TALK_BEGIN_MANUAL",
      "beginCond": [
        {
          "type": "QUEST_COND_ACTIVITY_ALCHEMY_SIM_STATE",
          "_param": [
            "0",
            "1",
            "4015434",
            "4015435",
            "30512"
          ]
        }
      ],
      "priority": 3,
      "initDialog": 401543401,
      "npcId": [
        30512,
        30511
      ],
      "performCfg": "QuestDialogue/EQ/V4.5AlchemySim_40154/Q4015434",
      "heroTalk": "TALK_HERO_MAIN",
      "loadType": "TALK_ACTIVITY",
      "questId": 2029,
      "assetIndex": 11544576652763615547,
      "prePerformCfg": "",
      "finishExec": [
        {
          "KPGKDHAFHFE": "TALK_EXEC_SAVE_TALK_ID",
          "param": [
            "4015434"
          ]
        }
      ],
      "forceNpcNotDestroy": true,
      "PLPFOOINAAJ": [
        "[3_300300742:2504.296,203.861,-1137.913,0.000,281.660,0.000]",
        "[3_300300743:2504.081,203.861,-1136.969,0.000,233.053,0.000]",
        "[3_300300755:2509.360,202.501,-1130.834,358.924,149.222,349.114]",
        "[3_300300756:2509.967,202.544,-1132.199,0.000,331.872,0.000]"
      ]
    },
    {
      "id": 4015435,
      "beginWay": "TALK_BEGIN_MANUAL",
      "beginCond": [
        {
          "type": "QUEST_COND_ACTIVITY_ALCHEMY_SIM_STATE",
          "_param": [
            "0",
            "2",
            "4015434",
            "4015435",
            "30512"
          ]
        }
      ],
      "priority": 3,
      "initDialog": 401543501,
      "npcId": [
        30512,
        30511
      ],
      "performCfg": "QuestDialogue/EQ/V4.5AlchemySim_40154/Q4015435",
      "heroTalk": "TALK_HERO_MAIN",
      "loadType": "TALK_ACTIVITY",
      "questId": 2029,
      "assetIndex": 3704348578727119849,
      "prePerformCfg": "",
      "finishExec": [
        {
          "KPGKDHAFHFE": "TALK_EXEC_SAVE_TALK_ID",
          "param": [
            "4015435"
          ]
        }
      ],
      "forceNpcNotDestroy": true,
      "PLPFOOINAAJ": [
        "[3_300300742:2504.296,203.861,-1137.913,0.000,281.660,0.000]",
        "[3_300300755:2509.360,202.501,-1130.834,358.924,149.222,349.114]",
        "[3_300300756:2509.967,202.544,-1132.199,0.000,331.872,0.000]"
      ]
    },
    {
      "id": 4015436,
      "beginWay": "TALK_BEGIN_MANUAL",
      "beginCond": [
        {
          "type": "QUEST_COND_ACTIVITY_ALCHEMY_SIM_STATE",
          "_param": [
            "0",
            "3",
            "4015434",
            "4015435",
            "30512"
          ]
        }
      ],
      "priority": 3,
      "initDialog": 401543601,
      "npcId": [
        30512
      ],
      "performCfg": "QuestDialogue/EQ/V4.5AlchemySim_40154/Q4015436",
      "heroTalk": "TALK_HERO_MAIN",
      "loadType": "TALK_ACTIVITY",
      "questId": 2029,
      "assetIndex": 7443637411028203271,
      "prePerformCfg": "",
      "forceNpcNotDestroy": true
    },
    {
      "id": 4015437,
      "beginWay": "TALK_BEGIN_MANUAL",
      "beginCond": [
        {
          "type": "QUEST_COND_ACTIVITY_ALCHEMY_SIM_STATE",
          "_param": [
            "0",
            "3",
            "4015434",
            "4015435",
            "30512"
          ]
        }
      ],
      "priority": 3,
      "initDialog": 401543701,
      "npcId": [
        30511
      ],
      "performCfg": "QuestDialogue/EQ/V4.5AlchemySim_40154/Q4015437",
      "heroTalk": "TALK_HERO_MAIN",
      "loadType": "TALK_ACTIVITY",
      "questId": 2029,
      "assetIndex": 11543401862063621646,
      "prePerformCfg": "",
      "forceNpcNotDestroy": true
    },
    {
      "id": 4015438,
      "beginWay": "TALK_BEGIN_MANUAL",
      "beginCond": [
        {
          "type": "QUEST_COND_ACTIVITY_ALCHEMY_SIM_STATE",
          "_param": [
            "0",
            "4",
            "4015434",
            "4015435",
            "30512"
          ]
        }
      ],
      "priority": 3,
      "initDialog": 401543801,
      "npcId": [
        30512,
        30511
      ],
      "performCfg": "QuestDialogue/EQ/V4.5AlchemySim_40154/Q4015438",
      "heroTalk": "TALK_HERO_MAIN",
      "loadType": "TALK_ACTIVITY",
      "questId": 2029,
      "assetIndex": 4761763370756220958,
      "prePerformCfg": "",
      "forceNpcNotDestroy": true,
      "PLPFOOINAAJ": [
        "[3_300300742:2504.296,203.861,-1137.913,0.000,281.660,0.000]",
        "[3_300300755:2509.360,202.501,-1130.834,358.924,149.222,349.114]",
        "[3_300300756:2509.967,202.544,-1132.199,0.000,331.872,0.000]"
      ]
    },
    {
      "id": 4015439,
      "beginWay": "TALK_BEGIN_MANUAL",
      "beginCond": [
        {
          "type": "QUEST_COND_ACTIVITY_ALCHEMY_SIM_STATE",
          "_param": [
            "0",
            "5",
            "4015434",
            "4015435",
            "30512"
          ]
        }
      ],
      "priority": 3,
      "initDialog": 401543901,
      "npcId": [
        30512,
        30511
      ],
      "performCfg": "QuestDialogue/EQ/V4.5AlchemySim_40154/Q4015439",
      "heroTalk": "TALK_HERO_MAIN",
      "loadType": "TALK_ACTIVITY",
      "questId": 2029,
      "assetIndex": 11934510213909796280,
      "prePerformCfg": "",
      "forceNpcNotDestroy": true,
      "PLPFOOINAAJ": [
        "[3_300300742:2504.296,203.861,-1137.913,0.000,281.660,0.000]",
        "[3_300300755:2509.360,202.501,-1130.834,358.924,149.222,349.114]",
        "[3_300300756:2509.967,202.544,-1132.199,0.000,331.872,0.000]"
      ]
    },
    {
      "id": 4015440,
      "beginWay": "TALK_BEGIN_MANUAL",
      "beginCond": [
        {
          "type": "QUEST_COND_ACTIVITY_ALCHEMY_SIM_STATE",
          "_param": [
            "0",
            "1",
            "4015440",
            "4015441",
            "30516"
          ]
        }
      ],
      "priority": 3,
      "initDialog": 401544001,
      "npcId": [
        30516,
        30517
      ],
      "performCfg": "QuestDialogue/EQ/V4.5AlchemySim_40154/Q4015440",
      "heroTalk": "TALK_HERO_MAIN",
      "loadType": "TALK_ACTIVITY",
      "questId": 2029,
      "assetIndex": 14372155841956539202,
      "prePerformCfg": "",
      "finishExec": [
        {
          "KPGKDHAFHFE": "TALK_EXEC_SET_QUEST_GLOBAL_VAR",
          "param": [
            "4015402",
            "1"
          ]
        },
        {
          "KPGKDHAFHFE": "TALK_EXEC_SAVE_TALK_ID",
          "param": [
            "4015440"
          ]
        }
      ],
      "forceNpcNotDestroy": true,
      "PLPFOOINAAJ": [
        "[3_300300736:2507.581,205.371,-1149.271,0.000,3.829,0.000]",
        "[3_300300749:2507.826,205.371,-1146.257,0.010,182.895,359.972]",
        "[3_300300750:2506.894,205.371,-1146.261,0.000,172.419,0.000]",
        "[3_300300757:2519.995,202.697,-1114.774,0.000,179.262,0.000]",
        "[3_300300758:2519.982,202.812,-1116.413,0.000,7.356,0.000]"
      ]
    },
    {
      "id": 4015441,
      "beginWay": "TALK_BEGIN_MANUAL",
      "beginCond": [
        {
          "type": "QUEST_COND_ACTIVITY_ALCHEMY_SIM_STATE",
          "_param": [
            "0",
            "2",
            "4015440",
            "4015441",
            "30516"
          ]
        }
      ],
      "priority": 3,
      "initDialog": 401544101,
      "npcId": [
        30516,
        30517
      ],
      "performCfg": "QuestDialogue/EQ/V4.5AlchemySim_40154/Q4015441",
      "heroTalk": "TALK_HERO_MAIN",
      "loadType": "TALK_ACTIVITY",
      "questId": 2029,
      "assetIndex": 13920532236020712755,
      "prePerformCfg": "",
      "finishExec": [
        {
          "KPGKDHAFHFE": "TALK_EXEC_SAVE_TALK_ID",
          "param": [
            "4015441"
          ]
        }
      ],
      "forceNpcNotDestroy": true,
      "PLPFOOINAAJ": [
        "[3_300300749:2507.826,205.371,-1146.257,0.010,182.895,359.972]",
        "[3_300300750:2506.894,205.371,-1146.261,0.000,172.419,0.000]",
        "[3_300300757:2519.995,202.697,-1114.774,0.000,179.262,0.000]",
        "[3_300300758:2519.982,202.812,-1116.413,0.000,7.356,0.000]"
      ]
    },
    {
      "id": 4015442,
      "beginWay": "TALK_BEGIN_MANUAL",
      "beginCond": [
        {
          "type": "QUEST_COND_ACTIVITY_ALCHEMY_SIM_STATE",
          "_param": [
            "0",
            "3",
            "4015440",
            "4015441",
            "30516"
          ]
        }
      ],
      "priority": 3,
      "initDialog": 401544201,
      "npcId": [
        30516,
        30517
      ],
      "performCfg": "QuestDialogue/EQ/V4.5AlchemySim_40154/Q4015442",
      "heroTalk": "TALK_HERO_MAIN",
      "loadType": "TALK_ACTIVITY",
      "questId": 2029,
      "assetIndex": 6509366789285392253,
      "prePerformCfg": "",
      "forceNpcNotDestroy": true
    },
    {
      "id": 4015443,
      "beginWay": "TALK_BEGIN_MANUAL",
      "beginCond": [
        {
          "type": "QUEST_COND_ACTIVITY_ALCHEMY_SIM_STATE",
          "_param": [
            "0",
            "4",
            "4015440",
            "4015441",
            "30516"
          ]
        }
      ],
      "priority": 3,
      "initDialog": 401544301,
      "npcId": [
        30516,
        30517
      ],
      "performCfg": "QuestDialogue/EQ/V4.5AlchemySim_40154/Q4015443",
      "heroTalk": "TALK_HERO_MAIN",
      "loadType": "TALK_ACTIVITY",
      "questId": 2029,
      "assetIndex": 9860491754955476061,
      "prePerformCfg": "",
      "forceNpcNotDestroy": true,
      "PLPFOOINAAJ": [
        "[3_300300736:2507.581,205.371,-1149.271,0.000,3.829,0.000]",
        "[3_300300749:2507.826,205.371,-1146.257,0.010,182.895,359.972]",
        "[3_300300750:2506.894,205.371,-1146.261,0.000,172.419,0.000]",
        "[3_300300757:2519.995,202.697,-1114.774,0.000,179.262,0.000]",
        "[3_300300758:2519.982,202.812,-1116.413,0.000,7.356,0.000]"
      ]
    },
    {
      "id": 4015444,
      "beginWay": "TALK_BEGIN_MANUAL",
      "beginCond": [
        {
          "type": "QUEST_COND_ACTIVITY_ALCHEMY_SIM_STATE",
          "_param": [
            "0",
            "5",
            "4015440",
            "4015441",
            "30516"
          ]
        }
      ],
      "priority": 3,
      "initDialog": 401544401,
      "npcId": [
        30516,
        30517
      ],
      "performCfg": "QuestDialogue/EQ/V4.5AlchemySim_40154/Q4015444",
      "heroTalk": "TALK_HERO_MAIN",
      "loadType": "TALK_ACTIVITY",
      "questId": 2029,
      "assetIndex": 4396933570062405917,
      "prePerformCfg": "",
      "forceNpcNotDestroy": true,
      "PLPFOOINAAJ": [
        "[3_300300749:2507.826,205.371,-1146.257,0.010,182.895,359.972]",
        "[3_300300750:2506.894,205.371,-1146.261,0.000,172.419,0.000]",
        "[3_300300757:2519.995,202.697,-1114.774,0.000,179.262,0.000]",
        "[3_300300758:2519.982,202.812,-1116.413,0.000,7.356,0.000]"
      ]
    },
    {
      "id": 4015445,
      "beginWay": "TALK_BEGIN_MANUAL",
      "beginCondComb": "LOGIC_AND",
      "beginCond": [
        {
          "type": "QUEST_COND_ACTIVITY_ALCHEMY_SIM_STATE",
          "_param": [
            "101",
            "3",
            "4015403",
            "4015404",
            "30510"
          ]
        },
        {
          "type": "QUEST_COND_ACTIVITY_ALCHEMY_SIM_EXAM_CAN_SUBMIT",
          "_param": [
            "1"
          ]
        }
      ],
      "priority": 3,
      "initDialog": 401544501,
      "npcId": [
        30510
      ],
      "performCfg": "QuestDialogue/EQ/V4.5AlchemySim_40154/Q4015445",
      "heroTalk": "TALK_HERO_MAIN",
      "loadType": "TALK_ACTIVITY",
      "questId": 2029,
      "assetIndex": 17348361056095251486,
      "prePerformCfg": "",
      "forceNpcNotDestroy": true
    },
    {
      "id": 4015446,
      "beginWay": "TALK_BEGIN_MANUAL",
      "beginCondComb": "LOGIC_AND",
      "beginCond": [
        {
          "type": "QUEST_COND_ACTIVITY_ALCHEMY_SIM_STATE",
          "_param": [
            "102",
            "3",
            "4015408",
            "4015409",
            "30510"
          ]
        },
        {
          "type": "QUEST_COND_ACTIVITY_ALCHEMY_SIM_EXAM_CAN_SUBMIT",
          "_param": [
            "1"
          ]
        }
      ],
      "priority": 3,
      "initDialog": 401544501,
      "npcId": [
        30510
      ],
      "performCfg": "QuestDialogue/EQ/V4.5AlchemySim_40154/Q4015446",
      "heroTalk": "TALK_HERO_MAIN",
      "loadType": "TALK_ACTIVITY",
      "questId": 2029,
      "assetIndex": 12715389463341784285,
      "prePerformCfg": "",
      "forceNpcNotDestroy": true
    },
    {
      "id": 4015447,
      "beginWay": "TALK_BEGIN_MANUAL",
      "beginCondComb": "LOGIC_AND",
      "beginCond": [
        {
          "type": "QUEST_COND_ACTIVITY_ALCHEMY_SIM_STATE",
          "_param": [
            "103",
            "3",
            "4015413",
            "4015414",
            "30510"
          ]
        },
        {
          "type": "QUEST_COND_ACTIVITY_ALCHEMY_SIM_EXAM_CAN_SUBMIT",
          "_param": [
            "1"
          ]
        }
      ],
      "priority": 3,
      "initDialog": 401544501,
      "npcId": [
        30510
      ],
      "performCfg": "QuestDialogue/EQ/V4.5AlchemySim_40154/Q4015447",
      "heroTalk": "TALK_HERO_MAIN",
      "loadType": "TALK_ACTIVITY",
      "questId": 2029,
      "assetIndex": 6218248741605049054,
      "prePerformCfg": "",
      "forceNpcNotDestroy": true
    },
    {
      "id": 4015448,
      "beginWay": "TALK_BEGIN_MANUAL",
      "beginCondComb": "LOGIC_AND",
      "beginCond": [
        {
          "type": "QUEST_COND_ACTIVITY_ALCHEMY_SIM_STATE",
          "_param": [
            "104",
            "3",
            "4015418",
            "4015419",
            "30510"
          ]
        },
        {
          "type": "QUEST_COND_ACTIVITY_ALCHEMY_SIM_EXAM_CAN_SUBMIT",
          "_param": [
            "1"
          ]
        }
      ],
      "priority": 3,
      "initDialog": 401544501,
      "npcId": [
        30510
      ],
      "performCfg": "QuestDialogue/EQ/V4.5AlchemySim_40154/Q4015448",
      "heroTalk": "TALK_HERO_MAIN",
      "loadType": "TALK_ACTIVITY",
      "questId": 2029,
      "assetIndex": 3289991678605791681,
      "prePerformCfg": "",
      "forceNpcNotDestroy": true
    },
    {
      "id": 4016102,
      "beginWay": "TALK_BEGIN_MANUAL",
      "beginCond": [
        {
          "type": "QUEST_COND_ACTIVITY_ALCHEMY_SIM_STATE",
          "_param": [
            "101",
            "1",
            "4016102",
            "4016103",
            "30540"
          ]
        }
      ],
      "priority": 3,
      "initDialog": 401610201,
      "npcId": [
        30540
      ],
      "performCfg": "QuestDialogue/EQ/V4.5AlchemySim_40161/Q4016102",
      "heroTalk": "TALK_HERO_MAIN",
      "loadType": "TALK_ACTIVITY",
      "questId": 2029,
      "assetIndex": 8341170645449369036,
      "prePerformCfg": "",
      "finishExec": [
        {
          "KPGKDHAFHFE": "TALK_EXEC_SAVE_TALK_ID",
          "param": [
            "4016102"
          ]
        }
      ],
      "forceNpcNotDestroy": true,
      "PLPFOOINAAJ": [
        "[3_300300738:2527.880,204.921,-1128.342,0.000,35.167,0.000]"
      ]
    },
    {
      "id": 4016103,
      "beginWay": "TALK_BEGIN_MANUAL",
      "beginCond": [
        {
          "type": "QUEST_COND_ACTIVITY_ALCHEMY_SIM_STATE",
          "_param": [
            "101",
            "2",
            "4016102",
            "4016103",
            "30540"
          ]
        }
      ],
      "priority": 3,
      "initDialog": 401610301,
      "npcId": [
        30540
      ],
      "performCfg": "QuestDialogue/EQ/V4.5AlchemySim_40161/Q4016103",
      "heroTalk": "TALK_HERO_MAIN",
      "loadType": "TALK_ACTIVITY",
      "questId": 2029,
      "assetIndex": 14673926545120529818,
      "prePerformCfg": "",
      "finishExec": [
        {
          "KPGKDHAFHFE": "TALK_EXEC_SAVE_TALK_ID",
          "param": [
            "4016103"
          ]
        }
      ],
      "forceNpcNotDestroy": true,
      "PLPFOOINAAJ": [
        "[3_300300738:2527.880,204.921,-1128.342,0.000,35.167,0.000]"
      ]
    },
    {
      "id": 4016104,
      "beginWay": "TALK_BEGIN_MANUAL",
      "beginCondComb": "LOGIC_AND",
      "beginCond": [
        {
          "type": "QUEST_COND_ACTIVITY_ALCHEMY_SIM_STATE",
          "_param": [
            "101",
            "3",
            "4016102",
            "4016103",
            "30540"
          ]
        },
        {
          "type": "QUEST_COND_ACTIVITY_ALCHEMY_SIM_EXAM_CAN_SUBMIT",
          "_param": [
            "0"
          ]
        }
      ],
      "priority": 3,
      "initDialog": 401610401,
      "npcId": [
        30540
      ],
      "performCfg": "QuestDialogue/EQ/V4.5AlchemySim_40161/Q4016104",
      "heroTalk": "TALK_HERO_MAIN",
      "loadType": "TALK_ACTIVITY",
      "questId": 2029,
      "assetIndex": 13193651665564214362,
      "prePerformCfg": "",
      "forceNpcNotDestroy": true
    },
    {
      "id": 4016105,
      "beginWay": "TALK_BEGIN_MANUAL",
      "beginCond": [
        {
          "type": "QUEST_COND_ACTIVITY_ALCHEMY_SIM_STATE",
          "_param": [
            "101",
            "4",
            "4016102",
            "4016103",
            "30540"
          ]
        }
      ],
      "priority": 3,
      "initDialog": 401610501,
      "npcId": [
        30540
      ],
      "performCfg": "QuestDialogue/EQ/V4.5AlchemySim_40161/Q4016105",
      "heroTalk": "TALK_HERO_MAIN",
      "loadType": "TALK_ACTIVITY",
      "questId": 2029,
      "assetIndex": 7561716725931344817,
      "prePerformCfg": "",
      "forceNpcNotDestroy": true,
      "PLPFOOINAAJ": [
        "[3_300300738:2527.880,204.921,-1128.342,0.000,35.167,0.000]"
      ]
    },
    {
      "id": 4016106,
      "beginWay": "TALK_BEGIN_MANUAL",
      "beginCond": [
        {
          "type": "QUEST_COND_ACTIVITY_ALCHEMY_SIM_STATE",
          "_param": [
            "101",
            "5",
            "4016102",
            "4016103",
            "30540"
          ]
        }
      ],
      "priority": 3,
      "initDialog": 401610601,
      "npcId": [
        30540
      ],
      "performCfg": "QuestDialogue/EQ/V4.5AlchemySim_40161/Q4016106",
      "heroTalk": "TALK_HERO_MAIN",
      "loadType": "TALK_ACTIVITY",
      "questId": 2029,
      "assetIndex": 15707137007134503462,
      "prePerformCfg": "",
      "forceNpcNotDestroy": true,
      "PLPFOOINAAJ": [
        "[3_300300738:2527.880,204.921,-1128.342,0.000,35.167,0.000]"
      ]
    },
    {
      "id": 4016107,
      "beginWay": "TALK_BEGIN_MANUAL",
      "beginCond": [
        {
          "type": "QUEST_COND_ACTIVITY_ALCHEMY_SIM_STATE",
          "_param": [
            "102",
            "1",
            "4016107",
            "4016108",
            "30540"
          ]
        }
      ],
      "priority": 3,
      "initDialog": 401610701,
      "npcId": [
        30540
      ],
      "performCfg": "QuestDialogue/EQ/V4.5AlchemySim_40161/Q4016107",
      "heroTalk": "TALK_HERO_MAIN",
      "loadType": "TALK_ACTIVITY",
      "questId": 2029,
      "assetIndex": 5080334461114144472,
      "prePerformCfg": "",
      "finishExec": [
        {
          "KPGKDHAFHFE": "TALK_EXEC_SAVE_TALK_ID",
          "param": [
            "4016107"
          ]
        }
      ],
      "forceNpcNotDestroy": true,
      "PLPFOOINAAJ": [
        "[3_300300738:2527.880,204.921,-1128.342,0.000,35.167,0.000]"
      ]
    },
    {
      "id": 4016108,
      "beginWay": "TALK_BEGIN_MANUAL",
      "beginCond": [
        {
          "type": "QUEST_COND_ACTIVITY_ALCHEMY_SIM_STATE",
          "_param": [
            "102",
            "2",
            "4016107",
            "4016108",
            "30540"
          ]
        }
      ],
      "priority": 3,
      "initDialog": 401610301,
      "npcId": [
        30540
      ],
      "performCfg": "QuestDialogue/EQ/V4.5AlchemySim_40161/Q4016103",
      "heroTalk": "TALK_HERO_MAIN",
      "loadType": "TALK_ACTIVITY",
      "questId": 2029,
      "assetIndex": 7342885623752303731,
      "prePerformCfg": "",
      "finishExec": [
        {
          "KPGKDHAFHFE": "TALK_EXEC_SAVE_TALK_ID",
          "param": [
            "4016108"
          ]
        }
      ],
      "forceNpcNotDestroy": true,
      "PLPFOOINAAJ": [
        "[3_300300738:2527.880,204.921,-1128.342,0.000,35.167,0.000]"
      ]
    },
    {
      "id": 4016109,
      "beginWay": "TALK_BEGIN_MANUAL",
      "beginCondComb": "LOGIC_AND",
      "beginCond": [
        {
          "type": "QUEST_COND_ACTIVITY_ALCHEMY_SIM_STATE",
          "_param": [
            "102",
            "3",
            "4016107",
            "4016108",
            "30540"
          ]
        },
        {
          "type": "QUEST_COND_ACTIVITY_ALCHEMY_SIM_EXAM_CAN_SUBMIT",
          "_param": [
            "0"
          ]
        }
      ],
      "priority": 3,
      "initDialog": 401610401,
      "npcId": [
        30540
      ],
      "performCfg": "QuestDialogue/EQ/V4.5AlchemySim_40161/Q4016104",
      "heroTalk": "TALK_HERO_MAIN",
      "loadType": "TALK_ACTIVITY",
      "questId": 2029,
      "assetIndex": 8781569049839860139,
      "prePerformCfg": "",
      "forceNpcNotDestroy": true
    },
    {
      "id": 4016110,
      "beginWay": "TALK_BEGIN_MANUAL",
      "beginCond": [
        {
          "type": "QUEST_COND_ACTIVITY_ALCHEMY_SIM_STATE",
          "_param": [
            "102",
            "4",
            "4016107",
            "4016108",
            "30540"
          ]
        }
      ],
      "priority": 3,
      "initDialog": 401610501,
      "npcId": [
        30540
      ],
      "performCfg": "QuestDialogue/EQ/V4.5AlchemySim_40161/Q4016105",
      "heroTalk": "TALK_HERO_MAIN",
      "loadType": "TALK_ACTIVITY",
      "questId": 2029,
      "assetIndex": 13514313156437466428,
      "prePerformCfg": "",
      "forceNpcNotDestroy": true,
      "PLPFOOINAAJ": [
        "[3_300300738:2527.880,204.921,-1128.342,0.000,35.167,0.000]"
      ]
    },
    {
      "id": 4016111,
      "beginWay": "TALK_BEGIN_MANUAL",
      "beginCond": [
        {
          "type": "QUEST_COND_ACTIVITY_ALCHEMY_SIM_STATE",
          "_param": [
            "102",
            "5",
            "4016107",
            "4016108",
            "30540"
          ]
        }
      ],
      "priority": 3,
      "initDialog": 401610601,
      "npcId": [
        30540
      ],
      "performCfg": "QuestDialogue/EQ/V4.5AlchemySim_40161/Q4016106",
      "heroTalk": "TALK_HERO_MAIN",
      "loadType": "TALK_ACTIVITY",
      "questId": 2029,
      "assetIndex": 4449801903238626293,
      "prePerformCfg": "",
      "forceNpcNotDestroy": true,
      "PLPFOOINAAJ": [
        "[3_300300738:2527.880,204.921,-1128.342,0.000,35.167,0.000]"
      ]
    },
    {
      "id": 4016112,
      "beginWay": "TALK_BEGIN_MANUAL",
      "beginCond": [
        {
          "type": "QUEST_COND_ACTIVITY_ALCHEMY_SIM_STATE",
          "_param": [
            "103",
            "1",
            "4016112",
            "4016113",
            "30540"
          ]
        }
      ],
      "priority": 3,
      "initDialog": 401611201,
      "npcId": [
        30540
      ],
      "performCfg": "QuestDialogue/EQ/V4.5AlchemySim_40161/Q4016112",
      "heroTalk": "TALK_HERO_MAIN",
      "loadType": "TALK_ACTIVITY",
      "questId": 2029,
      "assetIndex": 133388699147618809,
      "prePerformCfg": "",
      "finishExec": [
        {
          "KPGKDHAFHFE": "TALK_EXEC_SAVE_TALK_ID",
          "param": [
            "4016112"
          ]
        }
      ],
      "forceNpcNotDestroy": true,
      "PLPFOOINAAJ": [
        "[3_300300738:2527.880,204.921,-1128.342,0.000,35.167,0.000]"
      ]
    },
    {
      "id": 4016113,
      "beginWay": "TALK_BEGIN_MANUAL",
      "beginCond": [
        {
          "type": "QUEST_COND_ACTIVITY_ALCHEMY_SIM_STATE",
          "_param": [
            "103",
            "2",
            "4016112",
            "4016113",
            "30540"
          ]
        }
      ],
      "priority": 3,
      "initDialog": 401610301,
      "npcId": [
        30540
      ],
      "performCfg": "QuestDialogue/EQ/V4.5AlchemySim_40161/Q4016103",
      "heroTalk": "TALK_HERO_MAIN",
      "loadType": "TALK_ACTIVITY",
      "questId": 2029,
      "assetIndex": 10637619279156504858,
      "prePerformCfg": "",
      "finishExec": [
        {
          "KPGKDHAFHFE": "TALK_EXEC_SAVE_TALK_ID",
          "param": [
            "4016113"
          ]
        }
      ],
      "forceNpcNotDestroy": true,
      "PLPFOOINAAJ": [
        "[3_300300738:2527.880,204.921,-1128.342,0.000,35.167,0.000]"
      ]
    },
    {
      "id": 4016114,
      "beginWay": "TALK_BEGIN_MANUAL",
      "beginCondComb": "LOGIC_AND",
      "beginCond": [
        {
          "type": "QUEST_COND_ACTIVITY_ALCHEMY_SIM_STATE",
          "_param": [
            "103",
            "3",
            "4016112",
            "4016113",
            "30540"
          ]
        },
        {
          "type": "QUEST_COND_ACTIVITY_ALCHEMY_SIM_EXAM_CAN_SUBMIT",
          "_param": [
            "0"
          ]
        }
      ],
      "priority": 3,
      "initDialog": 401610401,
      "npcId": [
        30540
      ],
      "performCfg": "QuestDialogue/EQ/V4.5AlchemySim_40161/Q4016104",
      "heroTalk": "TALK_HERO_MAIN",
      "loadType": "TALK_ACTIVITY",
      "questId": 2029,
      "assetIndex": 588136363684626980,
      "prePerformCfg": "",
      "forceNpcNotDestroy": true
    },
    {
      "id": 4016115,
      "beginWay": "TALK_BEGIN_MANUAL",
      "beginCond": [
        {
          "type": "QUEST_COND_ACTIVITY_ALCHEMY_SIM_STATE",
          "_param": [
            "103",
            "4",
            "4016112",
            "4016113",
            "30540"
          ]
        }
      ],
      "priority": 3,
      "initDialog": 401610501,
      "npcId": [
        30540
      ],
      "performCfg": "QuestDialogue/EQ/V4.5AlchemySim_40161/Q4016105",
      "heroTalk": "TALK_HERO_MAIN",
      "loadType": "TALK_ACTIVITY",
      "questId": 2029,
      "assetIndex": 8299035599029187704,
      "prePerformCfg": "",
      "forceNpcNotDestroy": true,
      "PLPFOOINAAJ": [
        "[3_300300738:2527.880,204.921,-1128.342,0.000,35.167,0.000]"
      ]
    },
    {
      "id": 4016116,
      "beginWay": "TALK_BEGIN_MANUAL",
      "beginCond": [
        {
          "type": "QUEST_COND_ACTIVITY_ALCHEMY_SIM_STATE",
          "_param": [
            "103",
            "5",
            "4016112",
            "4016113",
            "30540"
          ]
        }
      ],
      "priority": 3,
      "initDialog": 401610601,
      "npcId": [
        30540
      ],
      "performCfg": "QuestDialogue/EQ/V4.5AlchemySim_40161/Q4016106",
      "heroTalk": "TALK_HERO_MAIN",
      "loadType": "TALK_ACTIVITY",
      "questId": 2029,
      "assetIndex": 9536645661862643084,
      "prePerformCfg": "",
      "forceNpcNotDestroy": true,
      "PLPFOOINAAJ": [
        "[3_300300738:2527.880,204.921,-1128.342,0.000,35.167,0.000]"
      ]
    },
    {
      "id": 4016117,
      "beginWay": "TALK_BEGIN_MANUAL",
      "beginCond": [
        {
          "type": "QUEST_COND_ACTIVITY_ALCHEMY_SIM_STATE",
          "_param": [
            "104",
            "1",
            "4016117",
            "4016118",
            "30540"
          ]
        }
      ],
      "priority": 3,
      "initDialog": 401611701,
      "npcId": [
        30540
      ],
      "performCfg": "QuestDialogue/EQ/V4.5AlchemySim_40161/Q4016117",
      "heroTalk": "TALK_HERO_MAIN",
      "loadType": "TALK_ACTIVITY",
      "questId": 2029,
      "assetIndex": 13504489312610280652,
      "prePerformCfg": "",
      "finishExec": [
        {
          "KPGKDHAFHFE": "TALK_EXEC_SAVE_TALK_ID",
          "param": [
            "4016117"
          ]
        }
      ],
      "forceNpcNotDestroy": true,
      "PLPFOOINAAJ": [
        "[3_300300738:2527.880,204.921,-1128.342,0.000,35.167,0.000]"
      ]
    },
    {
      "id": 4016118,
      "beginWay": "TALK_BEGIN_MANUAL",
      "beginCond": [
        {
          "type": "QUEST_COND_ACTIVITY_ALCHEMY_SIM_STATE",
          "_param": [
            "104",
            "2",
            "4016117",
            "4016118",
            "30540"
          ]
        }
      ],
      "priority": 3,
      "initDialog": 401610301,
      "npcId": [
        30540
      ],
      "performCfg": "QuestDialogue/EQ/V4.5AlchemySim_40161/Q4016103",
      "heroTalk": "TALK_HERO_MAIN",
      "loadType": "TALK_ACTIVITY",
      "questId": 2029,
      "assetIndex": 4750782236956684834,
      "prePerformCfg": "",
      "finishExec": [
        {
          "KPGKDHAFHFE": "TALK_EXEC_SAVE_TALK_ID",
          "param": [
            "4016118"
          ]
        }
      ],
      "forceNpcNotDestroy": true,
      "PLPFOOINAAJ": [
        "[3_300300738:2527.880,204.921,-1128.342,0.000,35.167,0.000]"
      ]
    },
    {
      "id": 4016119,
      "beginWay": "TALK_BEGIN_MANUAL",
      "beginCondComb": "LOGIC_AND",
      "beginCond": [
        {
          "type": "QUEST_COND_ACTIVITY_ALCHEMY_SIM_STATE",
          "_param": [
            "104",
            "3",
            "4016117",
            "4016118",
            "30540"
          ]
        },
        {
          "type": "QUEST_COND_ACTIVITY_ALCHEMY_SIM_EXAM_CAN_SUBMIT",
          "_param": [
            "0"
          ]
        }
      ],
      "priority": 3,
      "initDialog": 401610401,
      "npcId": [
        30540
      ],
      "performCfg": "QuestDialogue/EQ/V4.5AlchemySim_40161/Q4016104",
      "heroTalk": "TALK_HERO_MAIN",
      "loadType": "TALK_ACTIVITY",
      "questId": 2029,
      "assetIndex": 16108858892420889842,
      "prePerformCfg": "",
      "forceNpcNotDestroy": true
    },
    {
      "id": 4016120,
      "beginWay": "TALK_BEGIN_MANUAL",
      "beginCond": [
        {
          "type": "QUEST_COND_ACTIVITY_ALCHEMY_SIM_STATE",
          "_param": [
            "104",
            "4",
            "4016117",
            "4016118",
            "30540"
          ]
        }
      ],
      "priority": 3,
      "initDialog": 401610501,
      "npcId": [
        30540
      ],
      "performCfg": "QuestDialogue/EQ/V4.5AlchemySim_40161/Q4016105",
      "heroTalk": "TALK_HERO_MAIN",
      "loadType": "TALK_ACTIVITY",
      "questId": 2029,
      "assetIndex": 1970190480636769024,
      "prePerformCfg": "",
      "forceNpcNotDestroy": true,
      "PLPFOOINAAJ": [
        "[3_300300738:2527.880,204.921,-1128.342,0.000,35.167,0.000]"
      ]
    },
    {
      "id": 4016121,
      "beginWay": "TALK_BEGIN_MANUAL",
      "beginCond": [
        {
          "type": "QUEST_COND_ACTIVITY_ALCHEMY_SIM_STATE",
          "_param": [
            "104",
            "5",
            "4016117",
            "4016118",
            "30540"
          ]
        }
      ],
      "priority": 3,
      "initDialog": 401610601,
      "npcId": [
        30540
      ],
      "performCfg": "QuestDialogue/EQ/V4.5AlchemySim_40161/Q4016106",
      "heroTalk": "TALK_HERO_MAIN",
      "loadType": "TALK_ACTIVITY",
      "questId": 2029,
      "assetIndex": 2119321337832721154,
      "prePerformCfg": "",
      "forceNpcNotDestroy": true,
      "PLPFOOINAAJ": [
        "[3_300300738:2527.880,204.921,-1128.342,0.000,35.167,0.000]"
      ]
    },
    {
      "id": 4016122,
      "beginWay": "TALK_BEGIN_MANUAL",
      "beginCondComb": "LOGIC_AND",
      "beginCond": [
        {
          "type": "QUEST_COND_ACTIVITY_ALCHEMY_SIM_STATE",
          "_param": [
            "101",
            "3",
            "4016102",
            "4016103",
            "30540"
          ]
        },
        {
          "type": "QUEST_COND_ACTIVITY_ALCHEMY_SIM_EXAM_CAN_SUBMIT",
          "_param": [
            "1"
          ]
        }
      ],
      "priority": 3,
      "initDialog": 401612201,
      "npcId": [
        30540
      ],
      "performCfg": "QuestDialogue/EQ/V4.5AlchemySim_40161/Q4016122",
      "heroTalk": "TALK_HERO_MAIN",
      "loadType": "TALK_ACTIVITY",
      "questId": 2029,
      "assetIndex": 11113074101130765270,
      "prePerformCfg": "",
      "forceNpcNotDestroy": true
    },
    {
      "id": 4016123,
      "beginWay": "TALK_BEGIN_MANUAL",
      "beginCondComb": "LOGIC_AND",
      "beginCond": [
        {
          "type": "QUEST_COND_ACTIVITY_ALCHEMY_SIM_STATE",
          "_param": [
            "102",
            "3",
            "4016107",
            "4016108",
            "30540"
          ]
        },
        {
          "type": "QUEST_COND_ACTIVITY_ALCHEMY_SIM_EXAM_CAN_SUBMIT",
          "_param": [
            "1"
          ]
        }
      ],
      "priority": 3,
      "initDialog": 401610201,
      "npcId": [
        30540
      ],
      "performCfg": "QuestDialogue/EQ/V4.5AlchemySim_40161/Q4016122",
      "heroTalk": "TALK_HERO_MAIN",
      "loadType": "TALK_ACTIVITY",
      "questId": 2029,
      "assetIndex": 14321831005742654245,
      "prePerformCfg": "",
      "forceNpcNotDestroy": true
    },
    {
      "id": 4016124,
      "beginWay": "TALK_BEGIN_MANUAL",
      "beginCondComb": "LOGIC_AND",
      "beginCond": [
        {
          "type": "QUEST_COND_ACTIVITY_ALCHEMY_SIM_STATE",
          "_param": [
            "103",
            "3",
            "4016112",
            "4016113",
            "30540"
          ]
        },
        {
          "type": "QUEST_COND_ACTIVITY_ALCHEMY_SIM_EXAM_CAN_SUBMIT",
          "_param": [
            "1"
          ]
        }
      ],
      "priority": 3,
      "initDialog": 401610201,
      "npcId": [
        30540
      ],
      "performCfg": "QuestDialogue/EQ/V4.5AlchemySim_40161/Q4016122",
      "heroTalk": "TALK_HERO_MAIN",
      "loadType": "TALK_ACTIVITY",
      "questId": 2029,
      "assetIndex": 7485958155479818175,
      "prePerformCfg": "",
      "forceNpcNotDestroy": true
    },
    {
      "id": 4016125,
      "beginWay": "TALK_BEGIN_MANUAL",
      "beginCondComb": "LOGIC_AND",
      "beginCond": [
        {
          "type": "QUEST_COND_ACTIVITY_ALCHEMY_SIM_STATE",
          "_param": [
            "104",
            "3",
            "4016117",
            "4016118",
            "30540"
          ]
        },
        {
          "type": "QUEST_COND_ACTIVITY_ALCHEMY_SIM_EXAM_CAN_SUBMIT",
          "_param": [
            "1"
          ]
        }
      ],
      "priority": 3,
      "initDialog": 401610201,
      "npcId": [
        30540
      ],
      "performCfg": "QuestDialogue/EQ/V4.5AlchemySim_40161/Q4016122",
      "heroTalk": "TALK_HERO_MAIN",
      "loadType": "TALK_ACTIVITY",
      "questId": 2029,
      "assetIndex": 15126362183674515858,
      "prePerformCfg": "",
      "forceNpcNotDestroy": true
    }
  ]
}