{
  "sceneId": 11,
  "gadgets": [
    {
      "groupId": 511010001,
      "mapInstId": 1001,
      "followMoveAttachPoint": "",
      "rotateCoreCityName": "",
      "DNNKPPBICKM": 901101006
    },
    {
      "groupId": 511010002,
      "mapInstId": 2014,
      "followMoveAttachPoint": "",
      "rotateCoreCityName": "",
      "DNNKPPBICKM": 901101001
    },
    {
      "groupId": 511010003,
      "mapInstId": 3002,
      "followMoveAttachPoint": "Point1",
      "followMoveTargetInstanceId": 3001,
      "rotateCoreCityName": ""
    },
    {
      "groupId": 511010003,
      "mapInstId": 3003,
      "followMoveAttachPoint": "Point2",
      "followMoveTargetInstanceId": 3001,
      "rotateCoreCityName": ""
    },
    {
      "groupId": 511010003,
      "mapInstId": 3004,
      "followMoveAttachPoint": "Point3",
      "followMoveTargetInstanceId": 3001,
      "rotateCoreCityName": ""
    },
    {
      "groupId": 511010003,
      "mapInstId": 3007,
      "followMoveAttachPoint": "",
      "OIJDADIMHPM": {
        "2": "UnderWater"
      },
      "uiIndicator": {
        "templateName": "Normal_Chest_Icon"
      },
      "rotateCoreCityName": ""
    },
    {
      "groupId": 511010003,
      "mapInstId": 3008,
      "followMoveAttachPoint": "",
      "rotateCoreCityName": "",
      "GJEEODNAOAM": {
        "Reefs_TimeTrackPlayer": 20
      }
    },
    {
      "groupId": 511010008,
      "mapInstId": 8002,
      "followMoveAttachPoint": "",
      "OIJDADIMHPM": {
        "2": "UnderWater"
      },
      "uiIndicator": {
        "templateName": "Normal_Chest_Icon"
      },
      "rotateCoreCityName": ""
    },
    {
      "groupId": 511010013,
      "mapInstId": 13015,
      "followMoveAttachPoint": "",
      "uiIndicator": {
        "templateName": "Normal_Chest_Icon"
      },
      "rotateCoreCityName": ""
    },
    {
      "groupId": 511010014,
      "mapInstId": 14013,
      "followMoveAttachPoint": "",
      "uiIndicator": {
        "templateName": "Normal_Chest_Icon"
      },
      "rotateCoreCityName": ""
    },
    {
      "groupId": 511010015,
      "mapInstId": 15017,
      "followMoveAttachPoint": "",
      "OIJDADIMHPM": {
        "2": "UnderWaterFloat"
      },
      "uiIndicator": {
        "templateName": "Normal_Chest_Icon"
      },
      "rotateCoreCityName": ""
    },
    {
      "groupId": 511010016,
      "mapInstId": 16023,
      "followMoveAttachPoint": "",
      "uiIndicator": {
        "templateName": "ChestUnlock_Icon"
      },
      "rotateCoreCityName": ""
    },
    {
      "groupId": 511010021,
      "mapInstId": 21004,
      "followMoveAttachPoint": "",
      "OIJDADIMHPM": {
        "2": "UnderWaterFloat"
      },
      "uiIndicator": {
        "templateName": "Normal_Chest_Icon"
      },
      "rotateCoreCityName": ""
    },
    {
      "groupId": 511010022,
      "mapInstId": 22009,
      "followMoveAttachPoint": "",
      "OIJDADIMHPM": {
        "2": "UnderWaterFloat"
      },
      "uiIndicator": {
        "templateName": "Normal_Chest_Icon"
      },
      "rotateCoreCityName": ""
    },
    {
      "groupId": 511010023,
      "mapInstId": 23003,
      "followMoveAttachPoint": "",
      "OIJDADIMHPM": {
        "2": "UnderWater"
      },
      "uiIndicator": {
        "templateName": "Normal_Chest_Icon"
      },
      "rotateCoreCityName": ""
    },
    {
      "groupId": 511010023,
      "mapInstId": 23006,
      "followMoveAttachPoint": "Point1",
      "followMoveTargetInstanceId": 23001,
      "rotateCoreCityName": ""
    },
    {
      "groupId": 511010023,
      "mapInstId": 23007,
      "followMoveAttachPoint": "Point2",
      "followMoveTargetInstanceId": 23001,
      "rotateCoreCityName": ""
    },
    {
      "groupId": 511010023,
      "mapInstId": 23008,
      "followMoveAttachPoint": "Point3",
      "followMoveTargetInstanceId": 23001,
      "rotateCoreCityName": ""
    },
    {
      "groupId": 511010023,
      "mapInstId": 23009,
      "followMoveAttachPoint": "Point1",
      "followMoveTargetInstanceId": 23002,
      "rotateCoreCityName": ""
    },
    {
      "groupId": 511010023,
      "mapInstId": 23010,
      "followMoveAttachPoint": "Point2",
      "followMoveTargetInstanceId": 23002,
      "rotateCoreCityName": ""
    },
    {
      "groupId": 511010023,
      "mapInstId": 23011,
      "followMoveAttachPoint": "Point3",
      "followMoveTargetInstanceId": 23002,
      "rotateCoreCityName": ""
    },
    {
      "groupId": 511010023,
      "mapInstId": 23013,
      "followMoveAttachPoint": "Point1",
      "followMoveTargetInstanceId": 23012,
      "rotateCoreCityName": ""
    },
    {
      "groupId": 511010023,
      "mapInstId": 23014,
      "followMoveAttachPoint": "Point2",
      "followMoveTargetInstanceId": 23012,
      "rotateCoreCityName": ""
    },
    {
      "groupId": 511010023,
      "mapInstId": 23015,
      "followMoveAttachPoint": "Point3",
      "followMoveTargetInstanceId": 23012,
      "rotateCoreCityName": ""
    },
    {
      "groupId": 511010027,
      "mapInstId": 27002,
      "followMoveAttachPoint": "",
      "OIJDADIMHPM": {
        "2": "UnderWaterFloat"
      },
      "uiIndicator": {
        "templateName": "Normal_Chest_Icon"
      },
      "rotateCoreCityName": ""
    },
    {
      "groupId": 511010029,
      "mapInstId": 29002,
      "followMoveAttachPoint": "",
      "OIJDADIMHPM": {
        "2": "UnderWater"
      },
      "uiIndicator": {
        "templateName": "Normal_Chest_Icon"
      },
      "rotateCoreCityName": ""
    },
    {
      "groupId": 511010031,
      "mapInstId": 31002,
      "followMoveAttachPoint": "",
      "uiIndicator": {
        "templateName": "Normal_Chest_Icon"
      },
      "rotateCoreCityName": ""
    },
    {
      "groupId": 511010038,
      "mapInstId": 38002,
      "followMoveAttachPoint": "",
      "OIJDADIMHPM": {
        "2": "UnderWater"
      },
      "uiIndicator": {
        "templateName": "Normal_Chest_Icon"
      },
      "rotateCoreCityName": ""
    },
    {
      "groupId": 511010039,
      "mapInstId": 39002,
      "followMoveAttachPoint": "",
      "OIJDADIMHPM": {
        "2": "UnderWaterFloat"
      },
      "uiIndicator": {
        "templateName": "Normal_Chest_Icon"
      },
      "rotateCoreCityName": ""
    },
    {
      "groupId": 511010043,
      "mapInstId": 43001,
      "followMoveAttachPoint": "",
      "rotateCoreCityName": "",
      "DNNKPPBICKM": 901101017
    },
    {
      "groupId": 511010044,
      "mapInstId": 44001,
      "followMoveAttachPoint": "",
      "OIJDADIMHPM": {
        "2": "UnderWaterFloat"
      },
      "uiIndicator": {
        "templateName": "Normal_Chest_Icon"
      },
      "rotateCoreCityName": ""
    },
    {
      "groupId": 511010045,
      "mapInstId": 45002,
      "followMoveAttachPoint": "",
      "rotateCoreCityName": "",
      "DNNKPPBICKM": 901101038
    },
    {
      "groupId": 511010052,
      "mapInstId": 52001,
      "followMoveAttachPoint": "",
      "OIJDADIMHPM": {
        "2": "UnderWaterFloat"
      },
      "rotateCoreCityName": ""
    },
    {
      "groupId": 511010061,
      "mapInstId": 61001,
      "followMoveAttachPoint": "",
      "uiIndicator": {
        "templateName": "Normal_Chest_Icon"
      },
      "rotateCoreCityName": ""
    },
    {
      "groupId": 511010066,
      "mapInstId": 66001,
      "followMoveAttachPoint": "",
      "OIJDADIMHPM": {
        "2": "UnderWaterFloat"
      },
      "uiIndicator": {
        "templateName": "Normal_Chest_Icon"
      },
      "rotateCoreCityName": ""
    },
    {
      "groupId": 511010073,
      "mapInstId": 73002,
      "followMoveAttachPoint": "",
      "OIJDADIMHPM": {
        "2": "UnderWater"
      },
      "rotateCoreCityName": ""
    },
    {
      "groupId": 511010075,
      "mapInstId": 75017,
      "followMoveAttachPoint": "",
      "OIJDADIMHPM": {
        "2": "UnderWaterFloat"
      },
      "uiIndicator": {
        "templateName": "Normal_Chest_Icon"
      },
      "rotateCoreCityName": ""
    },
    {
      "groupId": 511010082,
      "mapInstId": 82001,
      "followMoveAttachPoint": "",
      "OIJDADIMHPM": {
        "2": "UnderWater"
      },
      "uiIndicator": {
        "templateName": "Normal_Chest_Icon"
      },
      "rotateCoreCityName": ""
    },
    {
      "groupId": 511010088,
      "mapInstId": 88001,
      "followMoveAttachPoint": "",
      "uiIndicator": {
        "templateName": "ChestUnlock_Icon"
      },
      "rotateCoreCityName": ""
    },
    {
      "groupId": 511010088,
      "mapInstId": 88002,
      "followMoveAttachPoint": "",
      "uiIndicator": {
        "templateName": "ChestUnlock_Icon"
      },
      "rotateCoreCityName": ""
    },
    {
      "groupId": 511010088,
      "mapInstId": 88003,
      "followMoveAttachPoint": "",
      "uiIndicator": {
        "templateName": "ChestUnlock_Icon"
      },
      "rotateCoreCityName": ""
    },
    {
      "groupId": 511010093,
      "mapInstId": 93007,
      "followMoveAttachPoint": "",
      "OIJDADIMHPM": {
        "2": "UnderWaterFloat"
      },
      "rotateCoreCityName": ""
    },
    {
      "groupId": 511010097,
      "mapInstId": 97009,
      "followMoveAttachPoint": "",
      "OIJDADIMHPM": {
        "2": "UnderWaterFloat"
      },
      "uiIndicator": {
        "templateName": "Normal_Chest_Icon"
      },
      "rotateCoreCityName": ""
    },
    {
      "groupId": 511010098,
      "mapInstId": 98011,
      "followMoveAttachPoint": "",
      "OIJDADIMHPM": {
        "2": "UnderWaterFloat"
      },
      "uiIndicator": {
        "templateName": "Normal_Chest_Icon"
      },
      "rotateCoreCityName": ""
    },
    {
      "groupId": 511010100,
      "mapInstId": 100003,
      "followMoveAttachPoint": "",
      "OIJDADIMHPM": {
        "2": "UnderWaterFloat"
      },
      "uiIndicator": {
        "templateName": "Normal_Chest_Icon"
      },
      "rotateCoreCityName": ""
    },
    {
      "groupId": 511010100,
      "mapInstId": 100006,
      "followMoveAttachPoint": "Point1",
      "followMoveTargetInstanceId": 100001,
      "rotateCoreCityName": ""
    },
    {
      "groupId": 511010100,
      "mapInstId": 100007,
      "followMoveAttachPoint": "Point2",
      "followMoveTargetInstanceId": 100001,
      "rotateCoreCityName": ""
    },
    {
      "groupId": 511010100,
      "mapInstId": 100008,
      "followMoveAttachPoint": "Point3",
      "followMoveTargetInstanceId": 100001,
      "rotateCoreCityName": ""
    },
    {
      "groupId": 511010100,
      "mapInstId": 100009,
      "followMoveAttachPoint": "Point1",
      "followMoveTargetInstanceId": 100002,
      "rotateCoreCityName": ""
    },
    {
      "groupId": 511010100,
      "mapInstId": 100010,
      "followMoveAttachPoint": "Point2",
      "followMoveTargetInstanceId": 100002,
      "rotateCoreCityName": ""
    },
    {
      "groupId": 511010100,
      "mapInstId": 100011,
      "followMoveAttachPoint": "Point3",
      "followMoveTargetInstanceId": 100002,
      "rotateCoreCityName": ""
    },
    {
      "groupId": 511010113,
      "mapInstId": 113002,
      "followMoveAttachPoint": "",
      "OIJDADIMHPM": {
        "2": "UnderWater"
      },
      "uiIndicator": {
        "templateName": "Normal_Chest_Icon"
      },
      "rotateCoreCityName": ""
    },
    {
      "groupId": 511010114,
      "mapInstId": 114002,
      "followMoveAttachPoint": "Follow",
      "followMoveTargetInstanceId": 114001,
      "OIJDADIMHPM": {
        "2": "UnderWater"
      },
      "rotateCoreCityName": ""
    },
    {
      "groupId": 511010116,
      "mapInstId": 116001,
      "followMoveAttachPoint": "",
      "OIJDADIMHPM": {
        "2": "UnderWaterFloat"
      },
      "rotateCoreCityName": ""
    },
    {
      "groupId": 511010116,
      "mapInstId": 116003,
      "followMoveAttachPoint": "",
      "OIJDADIMHPM": {
        "2": "UnderWaterFloat"
      },
      "rotateCoreCityName": ""
    },
    {
      "groupId": 511010116,
      "mapInstId": 116004,
      "followMoveAttachPoint": "",
      "OIJDADIMHPM": {
        "2": "UnderWaterFloat"
      },
      "rotateCoreCityName": ""
    },
    {
      "groupId": 511010116,
      "mapInstId": 116005,
      "followMoveAttachPoint": "",
      "OIJDADIMHPM": {
        "2": "UnderWaterFloat"
      },
      "rotateCoreCityName": ""
    },
    {
      "groupId": 511010116,
      "mapInstId": 116006,
      "followMoveAttachPoint": "",
      "OIJDADIMHPM": {
        "2": "UnderWater"
      },
      "rotateCoreCityName": ""
    },
    {
      "groupId": 511010116,
      "mapInstId": 116008,
      "followMoveAttachPoint": "",
      "OIJDADIMHPM": {
        "2": "UnderWater"
      },
      "rotateCoreCityName": ""
    },
    {
      "groupId": 511010116,
      "mapInstId": 116009,
      "followMoveAttachPoint": "",
      "OIJDADIMHPM": {
        "2": "UnderWaterFloat"
      },
      "rotateCoreCityName": ""
    },
    {
      "groupId": 511010116,
      "mapInstId": 116010,
      "followMoveAttachPoint": "",
      "OIJDADIMHPM": {
        "2": "UnderWater"
      },
      "rotateCoreCityName": ""
    },
    {
      "groupId": 511010116,
      "mapInstId": 116011,
      "followMoveAttachPoint": "",
      "OIJDADIMHPM": {
        "2": "UnderWaterFloat"
      },
      "rotateCoreCityName": ""
    },
    {
      "groupId": 511010118,
      "mapInstId": 118004,
      "followMoveAttachPoint": "",
      "OIJDADIMHPM": {
        "2": "UnderWater"
      },
      "uiIndicator": {
        "templateName": "Normal_Chest_Icon"
      },
      "rotateCoreCityName": ""
    },
    {
      "groupId": 511010118,
      "mapInstId": 118005,
      "followMoveAttachPoint": "",
      "rotateCoreCityName": "",
      "GJEEODNAOAM": {
        "Reefs_TimeTrackPlayer": 54
      }
    },
    {
      "groupId": 511010119,
      "mapInstId": 119001,
      "followMoveAttachPoint": "",
      "OIJDADIMHPM": {
        "2": "UnderWaterFloat"
      },
      "rotateCoreCityName": ""
    },
    {
      "groupId": 511010124,
      "mapInstId": 124013,
      "followMoveAttachPoint": "",
      "OIJDADIMHPM": {
        "2": "UnderWaterFloat"
      },
      "uiIndicator": {
        "templateName": "Normal_Chest_Icon"
      },
      "rotateCoreCityName": ""
    },
    {
      "groupId": 511010125,
      "mapInstId": 125002,
      "followMoveAttachPoint": "",
      "uiIndicator": {
        "templateName": "Normal_Chest_Icon"
      },
      "rotateCoreCityName": ""
    },
    {
      "groupId": 511010126,
      "mapInstId": 126008,
      "followMoveAttachPoint": "",
      "OIJDADIMHPM": {
        "2": "UnderWaterFloat"
      },
      "uiIndicator": {
        "templateName": "Normal_Chest_Icon"
      },
      "rotateCoreCityName": ""
    },
    {
      "groupId": 511010128,
      "mapInstId": 128009,
      "followMoveAttachPoint": "",
      "OIJDADIMHPM": {
        "2": "UnderWaterFloat"
      },
      "uiIndicator": {
        "templateName": "Normal_Chest_Icon"
      },
      "rotateCoreCityName": ""
    },
    {
      "groupId": 511010128,
      "mapInstId": 128012,
      "followMoveAttachPoint": "",
      "OIJDADIMHPM": {
        "2": "UnderWaterFloat"
      },
      "uiIndicator": {
        "templateName": "Normal_Chest_Icon"
      },
      "rotateCoreCityName": ""
    },
    {
      "groupId": 511010130,
      "mapInstId": 130001,
      "followMoveAttachPoint": "",
      "OIJDADIMHPM": {
        "2": "UnderWater"
      },
      "uiIndicator": {
        "templateName": "Normal_Chest_Icon"
      },
      "rotateCoreCityName": ""
    },
    {
      "groupId": 511010131,
      "mapInstId": 131002,
      "followMoveAttachPoint": "",
      "OIJDADIMHPM": {
        "2": "UnderWater"
      },
      "uiIndicator": {
        "templateName": "Normal_Chest_Icon"
      },
      "rotateCoreCityName": ""
    },
    {
      "groupId": 511010135,
      "mapInstId": 135018,
      "followMoveAttachPoint": "",
      "OIJDADIMHPM": {
        "2": "UnderWaterFloat"
      },
      "uiIndicator": {
        "templateName": "Normal_Chest_Icon"
      },
      "rotateCoreCityName": ""
    },
    {
      "groupId": 511010137,
      "mapInstId": 137002,
      "followMoveAttachPoint": "",
      "OIJDADIMHPM": {
        "2": "UnderWaterFloat"
      },
      "uiIndicator": {
        "templateName": "ChestUnlock_Icon"
      },
      "rotateCoreCityName": ""
    },
    {
      "groupId": 511010144,
      "mapInstId": 144003,
      "followMoveAttachPoint": "",
      "OIJDADIMHPM": {
        "2": "UnderWater"
      },
      "uiIndicator": {
        "templateName": "Normal_Chest_Icon"
      },
      "rotateCoreCityName": ""
    },
    {
      "groupId": 511010154,
      "mapInstId": 154001,
      "followMoveAttachPoint": "",
      "OIJDADIMHPM": {
        "2": "UnderWater"
      },
      "uiIndicator": {
        "templateName": "Normal_Chest_Icon"
      },
      "rotateCoreCityName": ""
    },
    {
      "groupId": 511010171,
      "mapInstId": 171001,
      "followMoveAttachPoint": "",
      "uiIndicator": {
        "templateName": "Normal_Chest_Icon"
      },
      "rotateCoreCityName": ""
    },
    {
      "groupId": 511010174,
      "mapInstId": 174001,
      "followMoveAttachPoint": "",
      "uiIndicator": {
        "templateName": "GadgetCreate_Icon"
      },
      "rotateCoreCityName": ""
    },
    {
      "groupId": 511010174,
      "mapInstId": 174003,
      "followMoveAttachPoint": "",
      "OIJDADIMHPM": {
        "2": "UnderWaterFloat"
      },
      "uiIndicator": {
        "templateName": "Normal_Chest_Icon"
      },
      "rotateCoreCityName": ""
    },
    {
      "groupId": 511010174,
      "mapInstId": 174004,
      "followMoveAttachPoint": "",
      "uiIndicator": {
        "templateName": "GadgetCreate_Icon"
      },
      "rotateCoreCityName": ""
    },
    {
      "groupId": 511010174,
      "mapInstId": 174013,
      "followMoveAttachPoint": "",
      "uiIndicator": {
        "templateName": "GadgetCreate_Icon"
      },
      "rotateCoreCityName": ""
    },
    {
      "groupId": 511010175,
      "mapInstId": 175001,
      "followMoveAttachPoint": "",
      "OIJDADIMHPM": {
        "2": "UnderWaterFloat"
      },
      "rotateCoreCityName": ""
    },
    {
      "groupId": 511010176,
      "mapInstId": 176001,
      "followMoveAttachPoint": "",
      "OIJDADIMHPM": {
        "2": "UnderWaterFloat"
      },
      "uiIndicator": {
        "templateName": "Normal_Chest_Icon"
      },
      "rotateCoreCityName": ""
    },
    {
      "groupId": 511010197,
      "mapInstId": 197006,
      "followMoveAttachPoint": "",
      "uiIndicator": {
        "templateName": "Normal_Chest_Icon"
      },
      "rotateCoreCityName": ""
    }
  ]
}