{
  "sceneId": 9,
  "gadgets": [
    {
      "groupId": 199004003,
      "mapInstId": 3002,
      "followMoveAttachPoint": "",
      "uiIndicator": {
        "templateName": "Normal_Chest_Icon"
      },
      "rotateCoreCityName": ""
    },
    {
      "groupId": 199004009,
      "mapInstId": 9014,
      "followMoveAttachPoint": "",
      "uiIndicator": {
        "templateName": "Normal_Chest_Icon"
      },
      "rotateCoreCityName": ""
    },
    {
      "groupId": 199004016,
      "mapInstId": 16005,
      "followMoveAttachPoint": "",
      "uiIndicator": {
        "templateName": "Normal_Chest_Icon"
      },
      "rotateCoreCityName": ""
    },
    {
      "groupId": 199004049,
      "mapInstId": 49001,
      "followMoveAttachPoint": "",
      "uiIndicator": {
        "templateName": "Normal_Chest_Icon"
      },
      "rotateCoreCityName": ""
    },
    {
      "groupId": 199004050,
      "mapInstId": 50001,
      "followMoveAttachPoint": "",
      "uiIndicator": {
        "templateName": "Normal_Chest_Icon"
      },
      "rotateCoreCityName": ""
    },
    {
      "groupId": 199004061,
      "mapInstId": 61001,
      "followMoveAttachPoint": "",
      "uiIndicator": {
        "templateName": "SummerTimeV2_Race_Icon"
      },
      "rotateCoreCityName": ""
    },
    {
      "groupId": 199004061,
      "mapInstId": 61005,
      "followMoveAttachPoint": "",
      "uiIndicator": {
        "templateName": "SocialActivity_Target_Icon"
      },
      "rotateCoreCityName": ""
    },
    {
      "groupId": 199004061,
      "mapInstId": 61014,
      "followMoveAttachPoint": "",
      "uiIndicator": {
        "templateName": "SocialActivity_Target_Icon"
      },
      "rotateCoreCityName": ""
    },
    {
      "groupId": 199004061,
      "mapInstId": 61039,
      "followMoveAttachPoint": "",
      "uiIndicator": {
        "templateName": "SocialActivity_Target_Icon"
      },
      "rotateCoreCityName": ""
    },
    {
      "groupId": 199004061,
      "mapInstId": 61046,
      "followMoveAttachPoint": "",
      "uiIndicator": {
        "templateName": "SocialActivity_Target_Icon"
      },
      "rotateCoreCityName": ""
    },
    {
      "groupId": 199004061,
      "mapInstId": 61071,
      "followMoveAttachPoint": "",
      "uiIndicator": {
        "templateName": "SocialActivity_Target_Icon"
      },
      "rotateCoreCityName": ""
    },
    {
      "groupId": 199004061,
      "mapInstId": 61082,
      "followMoveAttachPoint": "",
      "uiIndicator": {
        "templateName": "SocialActivity_Target_Icon"
      },
      "rotateCoreCityName": ""
    },
    {
      "groupId": 199004061,
      "mapInstId": 61092,
      "followMoveAttachPoint": "",
      "uiIndicator": {
        "templateName": "SocialActivity_Target_Icon"
      },
      "rotateCoreCityName": ""
    },
    {
      "groupId": 199004061,
      "mapInstId": 61103,
      "followMoveAttachPoint": "",
      "uiIndicator": {
        "templateName": "SocialActivity_Target_Icon"
      },
      "rotateCoreCityName": ""
    },
    {
      "groupId": 199004061,
      "mapInstId": 61127,
      "followMoveAttachPoint": "",
      "uiIndicator": {
        "templateName": "SocialActivity_Target_Icon"
      },
      "rotateCoreCityName": ""
    },
    {
      "groupId": 199004066,
      "mapInstId": 66002,
      "followMoveAttachPoint": "",
      "uiIndicator": {
        "templateName": "Normal_Chest_Icon"
      },
      "rotateCoreCityName": ""
    },
    {
      "groupId": 199004070,
      "mapInstId": 70001,
      "followMoveAttachPoint": "",
      "uiIndicator": {
        "templateName": "Normal_Chest_Icon"
      },
      "rotateCoreCityName": ""
    },
    {
      "groupId": 199004075,
      "mapInstId": 75001,
      "followMoveAttachPoint": "",
      "uiIndicator": {
        "templateName": "Normal_Chest_Icon"
      },
      "rotateCoreCityName": ""
    },
    {
      "groupId": 199004080,
      "mapInstId": 80004,
      "followMoveAttachPoint": "",
      "uiIndicator": {
        "templateName": "Normal_Chest_Icon"
      },
      "rotateCoreCityName": ""
    },
    {
      "groupId": 199004082,
      "mapInstId": 82002,
      "followMoveAttachPoint": "",
      "uiIndicator": {
        "templateName": "Normal_Chest_Icon"
      },
      "rotateCoreCityName": ""
    },
    {
      "groupId": 199004083,
      "mapInstId": 83002,
      "followMoveAttachPoint": "",
      "uiIndicator": {
        "templateName": "Normal_Chest_Icon"
      },
      "rotateCoreCityName": ""
    },
    {
      "groupId": 199004087,
      "mapInstId": 87006,
      "followMoveAttachPoint": "",
      "uiIndicator": {
        "templateName": "Normal_Chest_Icon"
      },
      "rotateCoreCityName": ""
    },
    {
      "groupId": 199004088,
      "mapInstId": 88002,
      "followMoveAttachPoint": "",
      "uiIndicator": {
        "templateName": "Normal_Chest_Icon"
      },
      "rotateCoreCityName": ""
    },
    {
      "groupId": 199004092,
      "mapInstId": 92002,
      "followMoveAttachPoint": "",
      "uiIndicator": {
        "templateName": "Normal_Chest_Icon"
      },
      "rotateCoreCityName": ""
    },
    {
      "groupId": 199004097,
      "mapInstId": 97002,
      "followMoveAttachPoint": "",
      "uiIndicator": {
        "templateName": "Normal_Chest_Icon"
      },
      "rotateCoreCityName": ""
    },
    {
      "groupId": 199004098,
      "mapInstId": 98002,
      "followMoveAttachPoint": "",
      "uiIndicator": {
        "templateName": "Normal_Chest_Icon"
      },
      "rotateCoreCityName": ""
    },
    {
      "groupId": 199004103,
      "mapInstId": 103002,
      "followMoveAttachPoint": "",
      "uiIndicator": {
        "templateName": "Normal_Chest_Icon"
      },
      "rotateCoreCityName": ""
    },
    {
      "groupId": 199004113,
      "mapInstId": 113006,
      "followMoveAttachPoint": "",
      "uiIndicator": {
        "templateName": "Normal_Chest_Icon"
      },
      "rotateCoreCityName": ""
    },
    {
      "groupId": 199004114,
      "mapInstId": 114006,
      "followMoveAttachPoint": "",
      "uiIndicator": {
        "templateName": "Normal_Chest_Icon"
      },
      "rotateCoreCityName": ""
    },
    {
      "groupId": 199004115,
      "mapInstId": 115006,
      "followMoveAttachPoint": "",
      "uiIndicator": {
        "templateName": "Normal_Chest_Icon"
      },
      "rotateCoreCityName": ""
    },
    {
      "groupId": 199004116,
      "mapInstId": 116002,
      "followMoveAttachPoint": "",
      "uiIndicator": {
        "templateName": "Normal_Chest_Icon"
      },
      "rotateCoreCityName": ""
    },
    {
      "groupId": 199004118,
      "mapInstId": 118004,
      "followMoveAttachPoint": "",
      "uiIndicator": {
        "templateName": "Normal_Chest_Icon"
      },
      "rotateCoreCityName": ""
    },
    {
      "groupId": 199004120,
      "mapInstId": 120004,
      "followMoveAttachPoint": "",
      "uiIndicator": {
        "templateName": "Normal_Chest_Icon"
      },
      "rotateCoreCityName": ""
    },
    {
      "groupId": 199004130,
      "mapInstId": 130005,
      "followMoveAttachPoint": "",
      "uiIndicator": {
        "templateName": "Normal_Chest_Icon"
      },
      "rotateCoreCityName": ""
    },
    {
      "groupId": 199004131,
      "mapInstId": 131005,
      "followMoveAttachPoint": "",
      "uiIndicator": {
        "templateName": "Normal_Chest_Icon"
      },
      "rotateCoreCityName": ""
    },
    {
      "groupId": 199004137,
      "mapInstId": 137030,
      "followMoveAttachPoint": "",
      "uiIndicator": {
        "templateName": "Normal_Chest_Icon"
      },
      "rotateCoreCityName": ""
    },
    {
      "groupId": 199004148,
      "mapInstId": 148027,
      "followMoveAttachPoint": "",
      "uiIndicator": {
        "templateName": "Normal_Chest_Icon"
      },
      "rotateCoreCityName": ""
    },
    {
      "groupId": 199004152,
      "mapInstId": 152041,
      "followMoveAttachPoint": "",
      "uiIndicator": {
        "templateName": "Normal_Chest_Icon"
      },
      "rotateCoreCityName": ""
    },
    {
      "groupId": 199004159,
      "mapInstId": 159001,
      "followMoveAttachPoint": "",
      "uiIndicator": {
        "templateName": "GadgetCreate_Icon"
      },
      "rotateCoreCityName": ""
    },
    {
      "groupId": 199004159,
      "mapInstId": 159003,
      "followMoveAttachPoint": "",
      "uiIndicator": {
        "templateName": "Normal_Chest_Icon"
      },
      "rotateCoreCityName": ""
    },
    {
      "groupId": 199004159,
      "mapInstId": 159004,
      "followMoveAttachPoint": "",
      "uiIndicator": {
        "templateName": "GadgetCreate_Icon"
      },
      "rotateCoreCityName": ""
    },
    {
      "groupId": 199004159,
      "mapInstId": 159006,
      "followMoveAttachPoint": "",
      "uiIndicator": {
        "templateName": "GadgetCreate_Icon"
      },
      "rotateCoreCityName": ""
    },
    {
      "groupId": 199004159,
      "mapInstId": 159007,
      "followMoveAttachPoint": "",
      "uiIndicator": {
        "templateName": "GadgetCreate_Icon"
      },
      "rotateCoreCityName": ""
    },
    {
      "groupId": 199004159,
      "mapInstId": 159008,
      "followMoveAttachPoint": "",
      "uiIndicator": {
        "templateName": "GadgetCreate_Icon"
      },
      "rotateCoreCityName": ""
    },
    {
      "groupId": 199004159,
      "mapInstId": 159009,
      "followMoveAttachPoint": "",
      "uiIndicator": {
        "templateName": "GadgetCreate_Icon"
      },
      "rotateCoreCityName": ""
    },
    {
      "groupId": 199004159,
      "mapInstId": 159010,
      "followMoveAttachPoint": "",
      "uiIndicator": {
        "templateName": "GadgetCreate_Icon"
      },
      "rotateCoreCityName": ""
    },
    {
      "groupId": 199004159,
      "mapInstId": 159011,
      "followMoveAttachPoint": "",
      "uiIndicator": {
        "templateName": "GadgetCreate_Icon"
      },
      "rotateCoreCityName": ""
    },
    {
      "groupId": 199004162,
      "mapInstId": 162001,
      "followMoveAttachPoint": "",
      "uiIndicator": {
        "templateName": "SocialActivity_Target_Icon"
      },
      "rotateCoreCityName": ""
    },
    {
      "groupId": 199004170,
      "mapInstId": 170004,
      "followMoveAttachPoint": "",
      "uiIndicator": {
        "templateName": "Normal_Chest_Icon"
      },
      "rotateCoreCityName": ""
    },
    {
      "groupId": 199004171,
      "mapInstId": 171001,
      "followMoveAttachPoint": "",
      "billboardShowUIBarDis": 300.0,
      "billboardHideUIBarDis": 350.0,
      "uiIndicator": {
        "templateName": "SocialActivity_Target_Icon"
      },
      "rotateCoreCityName": ""
    },
    {
      "groupId": 199004185,
      "mapInstId": 185001,
      "followMoveAttachPoint": "",
      "uiIndicator": {
        "templateName": "SocialActivity_Target_Icon"
      },
      "rotateCoreCityName": ""
    },
    {
      "groupId": 199004186,
      "mapInstId": 186001,
      "followMoveAttachPoint": "",
      "uiIndicator": {
        "templateName": "SocialActivity_Target_Icon"
      },
      "rotateCoreCityName": ""
    },
    {
      "groupId": 199004187,
      "mapInstId": 187001,
      "followMoveAttachPoint": "",
      "uiIndicator": {
        "templateName": "SocialActivity_Target_Icon"
      },
      "rotateCoreCityName": ""
    },
    {
      "groupId": 199004199,
      "mapInstId": 199046,
      "followMoveAttachPoint": "",
      "uiIndicator": {
        "templateName": "SocialActivity_Target_Icon"
      },
      "rotateCoreCityName": ""
    },
    {
      "groupId": 199004199,
      "mapInstId": 199166,
      "followMoveAttachPoint": "",
      "uiIndicator": {
        "templateName": "SocialActivity_Target_Icon"
      },
      "rotateCoreCityName": ""
    },
    {
      "groupId": 199004199,
      "mapInstId": 199256,
      "followMoveAttachPoint": "",
      "uiIndicator": {
        "templateName": "Normal_Chest_Icon"
      },
      "rotateCoreCityName": ""
    },
    {
      "groupId": 199004205,
      "mapInstId": 205001,
      "followMoveAttachPoint": "",
      "uiIndicator": {
        "templateName": "GadgetCreate_Icon"
      },
      "rotateCoreCityName": ""
    },
    {
      "groupId": 199004205,
      "mapInstId": 205003,
      "followMoveAttachPoint": "",
      "uiIndicator": {
        "templateName": "Normal_Chest_Icon"
      },
      "rotateCoreCityName": ""
    },
    {
      "groupId": 199004205,
      "mapInstId": 205004,
      "followMoveAttachPoint": "",
      "uiIndicator": {
        "templateName": "GadgetCreate_Icon"
      },
      "rotateCoreCityName": ""
    },
    {
      "groupId": 199004205,
      "mapInstId": 205016,
      "followMoveAttachPoint": "",
      "uiIndicator": {
        "templateName": "GadgetCreate_Icon"
      },
      "rotateCoreCityName": ""
    },
    {
      "groupId": 199004205,
      "mapInstId": 205018,
      "followMoveAttachPoint": "",
      "uiIndicator": {
        "templateName": "GadgetCreate_Icon"
      },
      "rotateCoreCityName": ""
    },
    {
      "groupId": 199004205,
      "mapInstId": 205020,
      "followMoveAttachPoint": "",
      "uiIndicator": {
        "templateName": "GadgetCreate_Icon"
      },
      "rotateCoreCityName": ""
    },
    {
      "groupId": 199004206,
      "mapInstId": 206004,
      "followMoveAttachPoint": "",
      "uiIndicator": {
        "templateName": "Normal_Chest_Icon"
      },
      "rotateCoreCityName": ""
    },
    {
      "groupId": 199004213,
      "mapInstId": 213002,
      "followMoveAttachPoint": "",
      "uiIndicator": {
        "templateName": "Normal_Chest_Icon"
      },
      "rotateCoreCityName": ""
    },
    {
      "groupId": 199004214,
      "mapInstId": 214001,
      "followMoveAttachPoint": "",
      "uiIndicator": {
        "templateName": "GadgetCreate_Icon"
      },
      "rotateCoreCityName": ""
    },
    {
      "groupId": 199004214,
      "mapInstId": 214003,
      "followMoveAttachPoint": "",
      "uiIndicator": {
        "templateName": "Normal_Chest_Icon"
      },
      "rotateCoreCityName": ""
    },
    {
      "groupId": 199004214,
      "mapInstId": 214004,
      "followMoveAttachPoint": "",
      "uiIndicator": {
        "templateName": "GadgetCreate_Icon"
      },
      "rotateCoreCityName": ""
    },
    {
      "groupId": 199004214,
      "mapInstId": 214018,
      "followMoveAttachPoint": "",
      "uiIndicator": {
        "templateName": "GadgetCreate_Icon"
      },
      "rotateCoreCityName": ""
    },
    {
      "groupId": 199004216,
      "mapInstId": 216001,
      "followMoveAttachPoint": "",
      "uiIndicator": {
        "templateName": "Normal_Chest_Icon"
      },
      "rotateCoreCityName": ""
    },
    {
      "groupId": 199004217,
      "mapInstId": 217001,
      "followMoveAttachPoint": "",
      "uiIndicator": {
        "templateName": "Normal_Chest_Icon"
      },
      "rotateCoreCityName": ""
    },
    {
      "groupId": 199004218,
      "mapInstId": 218004,
      "followMoveAttachPoint": "",
      "uiIndicator": {
        "templateName": "Normal_Chest_Icon"
      },
      "rotateCoreCityName": ""
    },
    {
      "groupId": 199004219,
      "mapInstId": 219004,
      "followMoveAttachPoint": "",
      "uiIndicator": {
        "templateName": "Normal_Chest_Icon"
      },
      "rotateCoreCityName": ""
    },
    {
      "groupId": 199004220,
      "mapInstId": 220005,
      "followMoveAttachPoint": "",
      "uiIndicator": {
        "templateName": "Normal_Chest_Icon"
      },
      "rotateCoreCityName": ""
    },
    {
      "groupId": 199004231,
      "mapInstId": 231002,
      "followMoveAttachPoint": "",
      "uiIndicator": {
        "templateName": "Normal_Chest_Icon"
      },
      "rotateCoreCityName": ""
    }
  ]
}