{
  "sceneId": 3,
  "gadgets": [
    {
      "groupId": 133210001,
      "mapInstId": 1005,
      "followMoveAttachPoint": "",
      "uiIndicator": {
        "templateName": "Normal_Chest_Icon"
      },
      "rotateCoreCityName": ""
    },
    {
      "groupId": 133210002,
      "mapInstId": 2015,
      "followMoveAttachPoint": "",
      "uiIndicator": {
        "templateName": "Normal_Chest_Icon"
      },
      "rotateCoreCityName": ""
    },
    {
      "groupId": 133210008,
      "mapInstId": 8002,
      "followMoveAttachPoint": "",
      "uiIndicator": {
        "templateName": "Normal_Chest_Icon"
      },
      "rotateCoreCityName": ""
    },
    {
      "groupId": 133210009,
      "mapInstId": 9014,
      "followMoveAttachPoint": "",
      "uiIndicator": {
        "templateName": "Normal_DailyTask_Icon_GuidePoint"
      },
      "rotateCoreCityName": ""
    },
    {
      "groupId": 133210009,
      "mapInstId": 9015,
      "followMoveAttachPoint": "",
      "uiIndicator": {
        "templateName": "Normal_DailyTask_Icon_GuidePoint"
      },
      "rotateCoreCityName": ""
    },
    {
      "groupId": 133210009,
      "mapInstId": 9016,
      "followMoveAttachPoint": "",
      "uiIndicator": {
        "templateName": "Normal_DailyTask_Icon_GuidePoint"
      },
      "rotateCoreCityName": ""
    },
    {
      "groupId": 133210015,
      "mapInstId": 15004,
      "followMoveAttachPoint": "",
      "uiIndicator": {
        "templateName": "Normal_Chest_Icon"
      },
      "rotateCoreCityName": ""
    },
    {
      "groupId": 133210021,
      "mapInstId": 21003,
      "followMoveAttachPoint": "",
      "uiIndicator": {
        "templateName": "Normal_Chest_Icon"
      },
      "rotateCoreCityName": ""
    },
    {
      "groupId": 133210030,
      "mapInstId": 30006,
      "followMoveAttachPoint": "",
      "uiIndicator": {
        "templateName": "Normal_Chest_Icon"
      },
      "rotateCoreCityName": ""
    },
    {
      "groupId": 133210036,
      "mapInstId": 36002,
      "followMoveAttachPoint": "",
      "uiIndicator": {
        "templateName": "Normal_Chest_Icon"
      },
      "rotateCoreCityName": ""
    },
    {
      "groupId": 133210040,
      "mapInstId": 40002,
      "followMoveAttachPoint": "",
      "uiIndicator": {
        "templateName": "Normal_Chest_Icon"
      },
      "rotateCoreCityName": ""
    },
    {
      "groupId": 133210047,
      "mapInstId": 47002,
      "followMoveAttachPoint": "",
      "uiIndicator": {
        "templateName": "Normal_Chest_Icon"
      },
      "rotateCoreCityName": ""
    },
    {
      "groupId": 133210053,
      "mapInstId": 53001,
      "followMoveAttachPoint": "",
      "uiIndicator": {
        "templateName": "Normal_Chest_Icon"
      },
      "rotateCoreCityName": ""
    },
    {
      "groupId": 133210062,
      "mapInstId": 62002,
      "followMoveAttachPoint": "",
      "uiIndicator": {
        "templateName": "Normal_Chest_Icon"
      },
      "rotateCoreCityName": ""
    },
    {
      "groupId": 133210065,
      "mapInstId": 65005,
      "followMoveAttachPoint": "",
      "uiIndicator": {
        "templateName": "Normal_Chest_Icon"
      },
      "rotateCoreCityName": ""
    },
    {
      "groupId": 133210066,
      "mapInstId": 66001,
      "followMoveAttachPoint": "",
      "uiIndicator": {
        "templateName": "Normal_Chest_Icon"
      },
      "rotateCoreCityName": ""
    },
    {
      "groupId": 133210073,
      "mapInstId": 73001,
      "followMoveAttachPoint": "",
      "uiIndicator": {
        "templateName": "Normal_Chest_Icon"
      },
      "rotateCoreCityName": ""
    },
    {
      "groupId": 133210074,
      "mapInstId": 74001,
      "followMoveAttachPoint": "",
      "rotateCoreCityName": "",
      "NDMDEGDDAGP": [
        {
          "id": -255695080,
          "BOIJMPNEPFO": {
            "x": -3601.155029296875,
            "y": 197.45620727539062,
            "z": -1134.16796875
          },
          "rotation": {
            "y": 313.3301086425781
          }
        },
        {
          "id": -1373312170,
          "BOIJMPNEPFO": {
            "x": -3601.893310546875,
            "y": 197.45620727539062,
            "z": -1134.464111328125
          },
          "rotation": {
            "y": 313.3301086425781
          }
        },
        {
          "id": 965815960,
          "BOIJMPNEPFO": {
            "x": -3601.89306640625,
            "y": 184.4499969482422,
            "z": -1134.4639892578125
          },
          "rotation": {
            "y": 313.3301086425781
          }
        }
      ]
    },
    {
      "groupId": 133210074,
      "mapInstId": 74003,
      "followMoveAttachPoint": "",
      "rotateCoreCityName": "",
      "NDMDEGDDAGP": [
        {
          "id": -2088246399,
          "BOIJMPNEPFO": {
            "x": -3554.029052734375,
            "y": 184.4499969482422,
            "z": -1154.197998046875
          },
          "rotation": {
            "y": 315.1565856933594
          }
        },
        {
          "id": 1160698925,
          "BOIJMPNEPFO": {
            "x": -3554.029052734375,
            "y": 167.13623046875,
            "z": -1154.197998046875
          },
          "rotation": {
            "y": 315.1565856933594
          }
        }
      ]
    },
    {
      "groupId": 133210074,
      "mapInstId": 74007,
      "followMoveAttachPoint": "",
      "rotateCoreCityName": "",
      "NDMDEGDDAGP": [
        {
          "id": -1768932026,
          "BOIJMPNEPFO": {
            "x": -3530.714111328125,
            "y": 197.45620727539062,
            "z": -1179.5389404296875
          },
          "rotation": {
            "y": 313.3301086425781
          }
        }
      ]
    },
    {
      "groupId": 133210075,
      "mapInstId": 75006,
      "followMoveAttachPoint": "",
      "uiIndicator": {
        "templateName": "Normal_Chest_Icon"
      },
      "rotateCoreCityName": ""
    },
    {
      "groupId": 133210078,
      "mapInstId": 78002,
      "followMoveAttachPoint": "",
      "uiIndicator": {
        "templateName": "Normal_Chest_Icon"
      },
      "rotateCoreCityName": ""
    },
    {
      "groupId": 133210079,
      "mapInstId": 79002,
      "followMoveAttachPoint": "",
      "uiIndicator": {
        "templateName": "Normal_Chest_Icon"
      },
      "rotateCoreCityName": ""
    },
    {
      "groupId": 133210080,
      "mapInstId": 80005,
      "followMoveAttachPoint": "",
      "uiIndicator": {
        "templateName": "Normal_Chest_Icon"
      },
      "rotateCoreCityName": ""
    },
    {
      "groupId": 133210087,
      "mapInstId": 87002,
      "followMoveAttachPoint": "",
      "uiIndicator": {
        "templateName": "Normal_Chest_Icon"
      },
      "rotateCoreCityName": ""
    },
    {
      "groupId": 133210095,
      "mapInstId": 95001,
      "followMoveAttachPoint": "",
      "uiIndicator": {
        "templateName": "Normal_Chest_Icon"
      },
      "rotateCoreCityName": ""
    },
    {
      "groupId": 133210096,
      "mapInstId": 96002,
      "followMoveAttachPoint": "",
      "uiIndicator": {
        "templateName": "Normal_Chest_Icon"
      },
      "rotateCoreCityName": ""
    },
    {
      "groupId": 133210098,
      "mapInstId": 98002,
      "followMoveAttachPoint": "",
      "uiIndicator": {
        "templateName": "Normal_Chest_Icon"
      },
      "rotateCoreCityName": ""
    },
    {
      "groupId": 133210101,
      "mapInstId": 101004,
      "followMoveAttachPoint": "",
      "uiIndicator": {
        "templateName": "Normal_Chest_Icon"
      },
      "rotateCoreCityName": ""
    },
    {
      "groupId": 133210112,
      "mapInstId": 112002,
      "followMoveAttachPoint": "",
      "uiIndicator": {
        "templateName": "Normal_Chest_Icon"
      },
      "rotateCoreCityName": ""
    },
    {
      "groupId": 133210117,
      "mapInstId": 117002,
      "followMoveAttachPoint": "",
      "uiIndicator": {
        "templateName": "Normal_Chest_Icon"
      },
      "rotateCoreCityName": ""
    },
    {
      "groupId": 133210122,
      "mapInstId": 122006,
      "followMoveAttachPoint": "",
      "uiIndicator": {
        "templateName": "Normal_Chest_Icon"
      },
      "rotateCoreCityName": ""
    },
    {
      "groupId": 133210125,
      "mapInstId": 125005,
      "followMoveAttachPoint": "",
      "uiIndicator": {
        "templateName": "Normal_Chest_Icon"
      },
      "rotateCoreCityName": ""
    },
    {
      "groupId": 133210127,
      "mapInstId": 127002,
      "followMoveAttachPoint": "",
      "uiIndicator": {
        "templateName": "Normal_Chest_Icon"
      },
      "rotateCoreCityName": ""
    },
    {
      "groupId": 133210132,
      "mapInstId": 132002,
      "followMoveAttachPoint": "",
      "uiIndicator": {
        "templateName": "Normal_Chest_Icon"
      },
      "rotateCoreCityName": ""
    },
    {
      "groupId": 133210136,
      "mapInstId": 136004,
      "followMoveAttachPoint": "",
      "uiIndicator": {
        "templateName": "Normal_Chest_Icon"
      },
      "rotateCoreCityName": ""
    },
    {
      "groupId": 133210139,
      "mapInstId": 139002,
      "followMoveAttachPoint": "",
      "uiIndicator": {
        "templateName": "Normal_Chest_Icon"
      },
      "rotateCoreCityName": ""
    },
    {
      "groupId": 133210142,
      "mapInstId": 142001,
      "followMoveAttachPoint": "",
      "uiIndicator": {
        "templateName": "Normal_Chest_Icon"
      },
      "rotateCoreCityName": ""
    },
    {
      "groupId": 133210143,
      "mapInstId": 143005,
      "followMoveAttachPoint": "",
      "uiIndicator": {
        "templateName": "Normal_Chest_Icon"
      },
      "rotateCoreCityName": ""
    },
    {
      "groupId": 133210147,
      "mapInstId": 147001,
      "followMoveAttachPoint": "",
      "uiIndicator": {
        "templateName": "GadgetCreate_Icon"
      },
      "rotateCoreCityName": ""
    },
    {
      "groupId": 133210147,
      "mapInstId": 147003,
      "followMoveAttachPoint": "",
      "uiIndicator": {
        "templateName": "Normal_Chest_Icon"
      },
      "rotateCoreCityName": ""
    },
    {
      "groupId": 133210147,
      "mapInstId": 147004,
      "followMoveAttachPoint": "",
      "uiIndicator": {
        "templateName": "GadgetCreate_Icon"
      },
      "rotateCoreCityName": ""
    },
    {
      "groupId": 133210147,
      "mapInstId": 147012,
      "followMoveAttachPoint": "",
      "uiIndicator": {
        "templateName": "GadgetCreate_Icon"
      },
      "rotateCoreCityName": ""
    },
    {
      "groupId": 133210148,
      "mapInstId": 148004,
      "followMoveAttachPoint": "",
      "uiIndicator": {
        "templateName": "Normal_Chest_Icon"
      },
      "rotateCoreCityName": ""
    },
    {
      "groupId": 133210149,
      "mapInstId": 149001,
      "followMoveAttachPoint": "",
      "uiIndicator": {
        "templateName": "GadgetCreate_Icon"
      },
      "rotateCoreCityName": ""
    },
    {
      "groupId": 133210155,
      "mapInstId": 155005,
      "followMoveAttachPoint": "",
      "uiIndicator": {
        "templateName": "Normal_Chest_Icon"
      },
      "rotateCoreCityName": ""
    },
    {
      "groupId": 133210174,
      "mapInstId": 174006,
      "followMoveAttachPoint": "",
      "uiIndicator": {
        "templateName": "Normal_Chest_Icon"
      },
      "rotateCoreCityName": ""
    },
    {
      "groupId": 133210175,
      "mapInstId": 175002,
      "followMoveAttachPoint": "",
      "uiIndicator": {
        "templateName": "Normal_Chest_Icon"
      },
      "rotateCoreCityName": ""
    },
    {
      "groupId": 133210183,
      "mapInstId": 183005,
      "followMoveAttachPoint": "",
      "uiIndicator": {
        "templateName": "Normal_Chest_Icon"
      },
      "rotateCoreCityName": ""
    },
    {
      "groupId": 133210211,
      "mapInstId": 211026,
      "followMoveAttachPoint": "",
      "uiIndicator": {
        "templateName": "Normal_Chest_Icon"
      },
      "rotateCoreCityName": ""
    },
    {
      "groupId": 133210214,
      "mapInstId": 214007,
      "followMoveAttachPoint": "",
      "uiIndicator": {
        "templateName": "Normal_Chest_Icon"
      },
      "rotateCoreCityName": ""
    },
    {
      "groupId": 133210218,
      "mapInstId": 218005,
      "followMoveAttachPoint": "",
      "uiIndicator": {
        "templateName": "Normal_Chest_Icon"
      },
      "rotateCoreCityName": ""
    },
    {
      "groupId": 133210219,
      "mapInstId": 219004,
      "followMoveAttachPoint": "",
      "uiIndicator": {
        "templateName": "Normal_Chest_Icon"
      },
      "rotateCoreCityName": ""
    },
    {
      "groupId": 133210220,
      "mapInstId": 220002,
      "followMoveAttachPoint": "",
      "uiIndicator": {
        "templateName": "Normal_Chest_Icon"
      },
      "rotateCoreCityName": ""
    },
    {
      "groupId": 133210220,
      "mapInstId": 220008,
      "followMoveAttachPoint": "",
      "uiIndicator": {
        "templateName": "Normal_Chest_Icon"
      },
      "rotateCoreCityName": ""
    },
    {
      "groupId": 133210220,
      "mapInstId": 220009,
      "followMoveAttachPoint": "",
      "uiIndicator": {
        "templateName": "Normal_Chest_Icon"
      },
      "rotateCoreCityName": ""
    },
    {
      "groupId": 133210223,
      "mapInstId": 223002,
      "followMoveAttachPoint": "",
      "uiIndicator": {
        "templateName": "Normal_Chest_Icon"
      },
      "rotateCoreCityName": ""
    },
    {
      "groupId": 133210224,
      "mapInstId": 224002,
      "followMoveAttachPoint": "",
      "uiIndicator": {
        "templateName": "Normal_Chest_Icon"
      },
      "rotateCoreCityName": ""
    },
    {
      "groupId": 133210225,
      "mapInstId": 225002,
      "followMoveAttachPoint": "",
      "uiIndicator": {
        "templateName": "Normal_Chest_Icon"
      },
      "rotateCoreCityName": ""
    },
    {
      "groupId": 133210237,
      "mapInstId": 237005,
      "followMoveAttachPoint": "",
      "uiIndicator": {
        "templateName": "Normal_Chest_Icon"
      },
      "rotateCoreCityName": ""
    },
    {
      "groupId": 133210241,
      "mapInstId": 241005,
      "followMoveAttachPoint": "",
      "uiIndicator": {
        "templateName": "Normal_Chest_Icon"
      },
      "rotateCoreCityName": ""
    },
    {
      "groupId": 133210244,
      "mapInstId": 244002,
      "followMoveAttachPoint": "",
      "uiIndicator": {
        "templateName": "Normal_Chest_Icon"
      },
      "rotateCoreCityName": ""
    },
    {
      "groupId": 133210249,
      "mapInstId": 249001,
      "followMoveAttachPoint": "",
      "uiIndicator": {
        "templateName": "Normal_Chest_Icon"
      },
      "rotateCoreCityName": ""
    },
    {
      "groupId": 133210250,
      "mapInstId": 250005,
      "followMoveAttachPoint": "",
      "uiIndicator": {
        "templateName": "Normal_Chest_Icon"
      },
      "rotateCoreCityName": ""
    },
    {
      "groupId": 133210252,
      "mapInstId": 252001,
      "followMoveAttachPoint": "",
      "uiIndicator": {
        "templateName": "Normal_Chest_Icon"
      },
      "rotateCoreCityName": ""
    },
    {
      "groupId": 133210263,
      "mapInstId": 263002,
      "followMoveAttachPoint": "",
      "uiIndicator": {
        "templateName": "Normal_Chest_Icon"
      },
      "rotateCoreCityName": ""
    },
    {
      "groupId": 133210265,
      "mapInstId": 265004,
      "followMoveAttachPoint": "",
      "uiIndicator": {
        "templateName": "Normal_Chest_Icon"
      },
      "rotateCoreCityName": ""
    },
    {
      "groupId": 133210270,
      "mapInstId": 270007,
      "followMoveAttachPoint": "",
      "uiIndicator": {
        "templateName": "Normal_Chest_Icon"
      },
      "rotateCoreCityName": ""
    },
    {
      "groupId": 133210270,
      "mapInstId": 270008,
      "followMoveAttachPoint": "",
      "uiIndicator": {
        "templateName": "Normal_Chest_Icon"
      },
      "rotateCoreCityName": ""
    },
    {
      "groupId": 133210270,
      "mapInstId": 270009,
      "followMoveAttachPoint": "",
      "uiIndicator": {
        "templateName": "Normal_Chest_Icon"
      },
      "rotateCoreCityName": ""
    },
    {
      "groupId": 133210277,
      "mapInstId": 277005,
      "followMoveAttachPoint": "",
      "uiIndicator": {
        "templateName": "Normal_Chest_Icon"
      },
      "rotateCoreCityName": ""
    },
    {
      "groupId": 133210284,
      "mapInstId": 284006,
      "followMoveAttachPoint": "",
      "uiIndicator": {
        "templateName": "Normal_Chest_Icon"
      },
      "rotateCoreCityName": ""
    },
    {
      "groupId": 133210286,
      "mapInstId": 286003,
      "followMoveAttachPoint": "",
      "uiIndicator": {
        "templateName": "Normal_Chest_Icon"
      },
      "rotateCoreCityName": ""
    },
    {
      "groupId": 133210290,
      "mapInstId": 290006,
      "followMoveAttachPoint": "",
      "uiIndicator": {
        "templateName": "Normal_Chest_Icon"
      },
      "rotateCoreCityName": ""
    },
    {
      "groupId": 133210291,
      "mapInstId": 291014,
      "followMoveAttachPoint": "",
      "uiIndicator": {
        "templateName": "Normal_DailyTask_Icon_GuidePoint"
      },
      "rotateCoreCityName": ""
    },
    {
      "groupId": 133210291,
      "mapInstId": 291015,
      "followMoveAttachPoint": "",
      "uiIndicator": {
        "templateName": "Normal_DailyTask_Icon_GuidePoint"
      },
      "rotateCoreCityName": ""
    },
    {
      "groupId": 133210291,
      "mapInstId": 291016,
      "followMoveAttachPoint": "",
      "uiIndicator": {
        "templateName": "Normal_DailyTask_Icon_GuidePoint"
      },
      "rotateCoreCityName": ""
    },
    {
      "groupId": 133210294,
      "mapInstId": 294005,
      "followMoveAttachPoint": "",
      "uiIndicator": {
        "templateName": "Normal_Chest_Icon"
      },
      "rotateCoreCityName": ""
    },
    {
      "groupId": 133210298,
      "mapInstId": 298006,
      "followMoveAttachPoint": "",
      "uiIndicator": {
        "templateName": "Normal_Chest_Icon"
      },
      "rotateCoreCityName": ""
    },
    {
      "groupId": 133210302,
      "mapInstId": 302002,
      "followMoveAttachPoint": "",
      "uiIndicator": {
        "templateName": "Normal_Chest_Icon"
      },
      "rotateCoreCityName": ""
    },
    {
      "groupId": 133210336,
      "mapInstId": 336006,
      "followMoveAttachPoint": "",
      "uiIndicator": {
        "templateName": "Normal_Chest_Icon"
      },
      "rotateCoreCityName": ""
    },
    {
      "groupId": 133210345,
      "mapInstId": 345009,
      "followMoveAttachPoint": "",
      "uiIndicator": {
        "templateName": "Normal_DailyTask_Icon_GuidePoint"
      },
      "rotateCoreCityName": ""
    },
    {
      "groupId": 133210345,
      "mapInstId": 345011,
      "followMoveAttachPoint": "",
      "uiIndicator": {
        "templateName": "Normal_DailyTask_Icon_GuidePoint"
      },
      "rotateCoreCityName": ""
    },
    {
      "groupId": 133210345,
      "mapInstId": 345013,
      "followMoveAttachPoint": "",
      "uiIndicator": {
        "templateName": "Normal_DailyTask_Icon_GuidePoint"
      },
      "rotateCoreCityName": ""
    },
    {
      "groupId": 133210345,
      "mapInstId": 345015,
      "followMoveAttachPoint": "",
      "uiIndicator": {
        "templateName": "Normal_DailyTask_Icon_GuidePoint"
      },
      "rotateCoreCityName": ""
    },
    {
      "groupId": 133210345,
      "mapInstId": 345016,
      "followMoveAttachPoint": "",
      "uiIndicator": {
        "templateName": "Normal_DailyTask_Icon_GravityBoard"
      },
      "rotateCoreCityName": ""
    },
    {
      "groupId": 133210345,
      "mapInstId": 345029,
      "followMoveAttachPoint": "",
      "uiIndicator": {
        "templateName": "Normal_DailyTask_Icon_GuidePoint"
      },
      "rotateCoreCityName": ""
    },
    {
      "groupId": 133210356,
      "mapInstId": 356001,
      "followMoveAttachPoint": "",
      "uiIndicator": {
        "templateName": "GadgetCreate_Icon"
      },
      "rotateCoreCityName": ""
    },
    {
      "groupId": 133210356,
      "mapInstId": 356003,
      "followMoveAttachPoint": "",
      "uiIndicator": {
        "templateName": "Normal_Chest_Icon"
      },
      "rotateCoreCityName": ""
    },
    {
      "groupId": 133210356,
      "mapInstId": 356004,
      "followMoveAttachPoint": "",
      "uiIndicator": {
        "templateName": "GadgetCreate_Icon"
      },
      "rotateCoreCityName": ""
    },
    {
      "groupId": 133210356,
      "mapInstId": 356006,
      "followMoveAttachPoint": "",
      "uiIndicator": {
        "templateName": "GadgetCreate_Icon"
      },
      "rotateCoreCityName": ""
    },
    {
      "groupId": 133210356,
      "mapInstId": 356007,
      "followMoveAttachPoint": "",
      "uiIndicator": {
        "templateName": "GadgetCreate_Icon"
      },
      "rotateCoreCityName": ""
    },
    {
      "groupId": 133210356,
      "mapInstId": 356008,
      "followMoveAttachPoint": "",
      "uiIndicator": {
        "templateName": "GadgetCreate_Icon"
      },
      "rotateCoreCityName": ""
    },
    {
      "groupId": 133210356,
      "mapInstId": 356009,
      "followMoveAttachPoint": "",
      "uiIndicator": {
        "templateName": "GadgetCreate_Icon"
      },
      "rotateCoreCityName": ""
    },
    {
      "groupId": 133210357,
      "mapInstId": 357001,
      "followMoveAttachPoint": "",
      "uiIndicator": {
        "templateName": "GadgetCreate_Icon"
      },
      "rotateCoreCityName": ""
    },
    {
      "groupId": 133210357,
      "mapInstId": 357003,
      "followMoveAttachPoint": "",
      "uiIndicator": {
        "templateName": "Normal_Chest_Icon"
      },
      "rotateCoreCityName": ""
    },
    {
      "groupId": 133210357,
      "mapInstId": 357004,
      "followMoveAttachPoint": "",
      "uiIndicator": {
        "templateName": "GadgetCreate_Icon"
      },
      "rotateCoreCityName": ""
    },
    {
      "groupId": 133210357,
      "mapInstId": 357006,
      "followMoveAttachPoint": "",
      "uiIndicator": {
        "templateName": "GadgetCreate_Icon"
      },
      "rotateCoreCityName": ""
    },
    {
      "groupId": 133210357,
      "mapInstId": 357007,
      "followMoveAttachPoint": "",
      "uiIndicator": {
        "templateName": "GadgetCreate_Icon"
      },
      "rotateCoreCityName": ""
    },
    {
      "groupId": 133210357,
      "mapInstId": 357008,
      "followMoveAttachPoint": "",
      "uiIndicator": {
        "templateName": "GadgetCreate_Icon"
      },
      "rotateCoreCityName": ""
    },
    {
      "groupId": 133210357,
      "mapInstId": 357009,
      "followMoveAttachPoint": "",
      "uiIndicator": {
        "templateName": "GadgetCreate_Icon"
      },
      "rotateCoreCityName": ""
    },
    {
      "groupId": 133210358,
      "mapInstId": 358001,
      "followMoveAttachPoint": "",
      "uiIndicator": {
        "templateName": "GadgetCreate_Icon"
      },
      "rotateCoreCityName": ""
    },
    {
      "groupId": 133210360,
      "mapInstId": 360001,
      "followMoveAttachPoint": "",
      "uiIndicator": {
        "templateName": "GadgetCreate_Icon"
      },
      "rotateCoreCityName": ""
    },
    {
      "groupId": 133210360,
      "mapInstId": 360003,
      "followMoveAttachPoint": "",
      "uiIndicator": {
        "templateName": "Normal_Chest_Icon"
      },
      "rotateCoreCityName": ""
    },
    {
      "groupId": 133210360,
      "mapInstId": 360004,
      "followMoveAttachPoint": "",
      "uiIndicator": {
        "templateName": "GadgetCreate_Icon"
      },
      "rotateCoreCityName": ""
    },
    {
      "groupId": 133210360,
      "mapInstId": 360006,
      "followMoveAttachPoint": "",
      "uiIndicator": {
        "templateName": "GadgetCreate_Icon"
      },
      "rotateCoreCityName": ""
    },
    {
      "groupId": 133210360,
      "mapInstId": 360007,
      "followMoveAttachPoint": "",
      "uiIndicator": {
        "templateName": "GadgetCreate_Icon"
      },
      "rotateCoreCityName": ""
    },
    {
      "groupId": 133210360,
      "mapInstId": 360008,
      "followMoveAttachPoint": "",
      "uiIndicator": {
        "templateName": "GadgetCreate_Icon"
      },
      "rotateCoreCityName": ""
    },
    {
      "groupId": 133210360,
      "mapInstId": 360009,
      "followMoveAttachPoint": "",
      "uiIndicator": {
        "templateName": "GadgetCreate_Icon"
      },
      "rotateCoreCityName": ""
    },
    {
      "groupId": 133210361,
      "mapInstId": 361011,
      "followMoveAttachPoint": "",
      "uiIndicator": {
        "templateName": "Normal_Chest_Icon"
      },
      "rotateCoreCityName": ""
    },
    {
      "groupId": 133210362,
      "mapInstId": 362011,
      "followMoveAttachPoint": "",
      "uiIndicator": {
        "templateName": "Normal_Chest_Icon"
      },
      "rotateCoreCityName": ""
    },
    {
      "groupId": 133210364,
      "mapInstId": 364011,
      "followMoveAttachPoint": "",
      "uiIndicator": {
        "templateName": "Normal_Chest_Icon"
      },
      "rotateCoreCityName": ""
    },
    {
      "groupId": 133210377,
      "mapInstId": 377001,
      "followMoveAttachPoint": "",
      "uiIndicator": {
        "templateName": "Normal_Chest_Icon"
      },
      "rotateCoreCityName": ""
    },
    {
      "groupId": 133210384,
      "mapInstId": 384006,
      "followMoveAttachPoint": "",
      "uiIndicator": {
        "templateName": "Normal_Chest_Icon"
      },
      "rotateCoreCityName": ""
    },
    {
      "groupId": 133210422,
      "mapInstId": 422006,
      "followMoveAttachPoint": "",
      "uiIndicator": {
        "templateName": "Normal_Chest_Icon"
      },
      "rotateCoreCityName": ""
    },
    {
      "groupId": 133210423,
      "mapInstId": 423006,
      "followMoveAttachPoint": "",
      "uiIndicator": {
        "templateName": "Normal_Chest_Icon"
      },
      "rotateCoreCityName": ""
    },
    {
      "groupId": 133210425,
      "mapInstId": 425002,
      "followMoveAttachPoint": "",
      "uiIndicator": {
        "templateName": "Normal_Chest_Icon"
      },
      "rotateCoreCityName": ""
    },
    {
      "groupId": 133210432,
      "mapInstId": 432002,
      "followMoveAttachPoint": "",
      "uiIndicator": {
        "templateName": "Normal_Chest_Icon"
      },
      "rotateCoreCityName": ""
    },
    {
      "groupId": 133210452,
      "mapInstId": 452009,
      "followMoveAttachPoint": "",
      "uiIndicator": {
        "templateName": "Blossom_Chest_Icon"
      },
      "rotateCoreCityName": ""
    },
    {
      "groupId": 133210453,
      "mapInstId": 453009,
      "followMoveAttachPoint": "",
      "uiIndicator": {
        "templateName": "Blossom_Chest_Icon"
      },
      "rotateCoreCityName": ""
    },
    {
      "groupId": 133210454,
      "mapInstId": 454009,
      "followMoveAttachPoint": "",
      "uiIndicator": {
        "templateName": "Blossom_Chest_Icon"
      },
      "rotateCoreCityName": ""
    },
    {
      "groupId": 133210455,
      "mapInstId": 455009,
      "followMoveAttachPoint": "",
      "uiIndicator": {
        "templateName": "Blossom_Chest_Icon"
      },
      "rotateCoreCityName": ""
    },
    {
      "groupId": 133210487,
      "mapInstId": 487002,
      "followMoveAttachPoint": "",
      "uiIndicator": {
        "templateName": "Normal_Chest_Icon"
      },
      "rotateCoreCityName": ""
    },
    {
      "groupId": 133210492,
      "mapInstId": 492004,
      "followMoveAttachPoint": "",
      "uiIndicator": {
        "templateName": "Normal_Chest_Icon"
      },
      "rotateCoreCityName": ""
    },
    {
      "groupId": 133210493,
      "mapInstId": 493004,
      "followMoveAttachPoint": "",
      "uiIndicator": {
        "templateName": "Normal_Chest_Icon"
      },
      "rotateCoreCityName": ""
    },
    {
      "groupId": 133210494,
      "mapInstId": 494004,
      "followMoveAttachPoint": "",
      "uiIndicator": {
        "templateName": "Normal_Chest_Icon"
      },
      "rotateCoreCityName": ""
    },
    {
      "groupId": 133210497,
      "mapInstId": 497001,
      "followMoveAttachPoint": "",
      "uiIndicator": {
        "templateName": "Normal_Chest_Icon"
      },
      "rotateCoreCityName": ""
    },
    {
      "groupId": 133210498,
      "mapInstId": 498004,
      "followMoveAttachPoint": "",
      "uiIndicator": {
        "templateName": "Normal_Chest_Icon"
      },
      "rotateCoreCityName": ""
    },
    {
      "groupId": 133210506,
      "mapInstId": 506006,
      "followMoveAttachPoint": "",
      "uiIndicator": {
        "templateName": "Normal_Chest_Icon"
      },
      "rotateCoreCityName": ""
    },
    {
      "groupId": 133210512,
      "mapInstId": 512002,
      "followMoveAttachPoint": "",
      "uiIndicator": {
        "templateName": "Normal_Chest_Icon"
      },
      "rotateCoreCityName": ""
    },
    {
      "groupId": 133210515,
      "mapInstId": 515002,
      "followMoveAttachPoint": "",
      "uiIndicator": {
        "templateName": "Normal_Chest_Icon"
      },
      "rotateCoreCityName": ""
    },
    {
      "groupId": 133210516,
      "mapInstId": 516002,
      "followMoveAttachPoint": "",
      "uiIndicator": {
        "templateName": "Normal_Chest_Icon"
      },
      "rotateCoreCityName": ""
    },
    {
      "groupId": 133210518,
      "mapInstId": 518002,
      "followMoveAttachPoint": "",
      "uiIndicator": {
        "templateName": "Normal_Chest_Icon"
      },
      "rotateCoreCityName": ""
    },
    {
      "groupId": 133210519,
      "mapInstId": 519002,
      "followMoveAttachPoint": "",
      "uiIndicator": {
        "templateName": "Normal_Chest_Icon"
      },
      "rotateCoreCityName": ""
    },
    {
      "groupId": 133210522,
      "mapInstId": 522002,
      "followMoveAttachPoint": "",
      "uiIndicator": {
        "templateName": "Normal_Chest_Icon"
      },
      "rotateCoreCityName": ""
    },
    {
      "groupId": 133210523,
      "mapInstId": 523002,
      "followMoveAttachPoint": "",
      "uiIndicator": {
        "templateName": "Normal_Chest_Icon"
      },
      "rotateCoreCityName": ""
    },
    {
      "groupId": 133210524,
      "mapInstId": 524002,
      "followMoveAttachPoint": "",
      "uiIndicator": {
        "templateName": "Normal_Chest_Icon"
      },
      "rotateCoreCityName": ""
    },
    {
      "groupId": 133210525,
      "mapInstId": 525002,
      "followMoveAttachPoint": "",
      "uiIndicator": {
        "templateName": "Normal_Chest_Icon"
      },
      "rotateCoreCityName": ""
    },
    {
      "groupId": 133210532,
      "mapInstId": 532001,
      "followMoveAttachPoint": "",
      "rotateCoreCityName": "",
      "NDMDEGDDAGP": [
        {
          "id": -1841362348,
          "BOIJMPNEPFO": {
            "x": -3823.110107421875,
            "y": 85.0,
            "z": -781.609619140625
          }
        }
      ]
    }
  ]
}