{
  "sceneId": 3,
  "gadgets": [
    {
      "groupId": 133002085,
      "mapInstId": 1048,
      "followMoveAttachPoint": "",
      "uiIndicator": {
        "templateName": "Normal_Chest_Icon"
      },
      "rotateCoreCityName": ""
    },
    {
      "groupId": 133002143,
      "mapInstId": 1402,
      "followMoveAttachPoint": "",
      "uiIndicator": {
        "templateName": "Normal_Chest_Icon"
      },
      "rotateCoreCityName": ""
    },
    {
      "groupId": 133002150,
      "mapInstId": 1422,
      "followMoveAttachPoint": "",
      "uiIndicator": {
        "templateName": "Normal_Chest_Icon"
      },
      "rotateCoreCityName": ""
    },
    {
      "groupId": 133002182,
      "mapInstId": 1505,
      "followMoveAttachPoint": "",
      "uiIndicator": {
        "templateName": "Normal_Chest_Icon"
      },
      "rotateCoreCityName": ""
    },
    {
      "groupId": 133002242,
      "mapInstId": 2104,
      "followMoveAttachPoint": "",
      "uiIndicator": {
        "templateName": "Normal_Chest_Icon"
      },
      "rotateCoreCityName": ""
    },
    {
      "groupId": 133002256,
      "mapInstId": 2171,
      "followMoveAttachPoint": "",
      "billboardHasUIBar": true,
      "rotateCoreCityName": ""
    },
    {
      "groupId": 133002046,
      "mapInstId": 46002,
      "followMoveAttachPoint": "",
      "uiIndicator": {
        "templateName": "Normal_Chest_Icon"
      },
      "rotateCoreCityName": ""
    },
    {
      "groupId": 133002051,
      "mapInstId": 51002,
      "followMoveAttachPoint": "",
      "uiIndicator": {
        "templateName": "Normal_Chest_Icon"
      },
      "rotateCoreCityName": ""
    },
    {
      "groupId": 133002061,
      "mapInstId": 61001,
      "followMoveAttachPoint": "",
      "targetIndicatorType": "QUEST",
      "rotateCoreCityName": ""
    },
    {
      "groupId": 133002061,
      "mapInstId": 61002,
      "followMoveAttachPoint": "",
      "targetIndicatorType": "QUEST",
      "rotateCoreCityName": ""
    },
    {
      "groupId": 133002066,
      "mapInstId": 66019,
      "followMoveAttachPoint": "",
      "uiIndicator": {
        "templateName": "GadgetCreate_Icon"
      },
      "rotateCoreCityName": ""
    },
    {
      "groupId": 133002066,
      "mapInstId": 66020,
      "followMoveAttachPoint": "",
      "uiIndicator": {
        "templateName": "GadgetCreate_Icon"
      },
      "rotateCoreCityName": ""
    },
    {
      "groupId": 133002066,
      "mapInstId": 66021,
      "followMoveAttachPoint": "",
      "uiIndicator": {
        "templateName": "GadgetCreate_Icon"
      },
      "rotateCoreCityName": ""
    },
    {
      "groupId": 133002066,
      "mapInstId": 66022,
      "followMoveAttachPoint": "",
      "uiIndicator": {
        "templateName": "GadgetCreate_Icon"
      },
      "rotateCoreCityName": ""
    },
    {
      "groupId": 133002066,
      "mapInstId": 66023,
      "followMoveAttachPoint": "",
      "uiIndicator": {
        "templateName": "GadgetCreate_Icon"
      },
      "rotateCoreCityName": ""
    },
    {
      "groupId": 133002066,
      "mapInstId": 66024,
      "followMoveAttachPoint": "",
      "uiIndicator": {
        "templateName": "GadgetCreate_Icon"
      },
      "rotateCoreCityName": ""
    },
    {
      "groupId": 133002070,
      "mapInstId": 70001,
      "followMoveAttachPoint": "",
      "uiIndicator": {
        "templateName": "UI_NPCTopIcon_Blessing"
      },
      "rotateCoreCityName": ""
    },
    {
      "groupId": 133002083,
      "mapInstId": 83005,
      "followMoveAttachPoint": "",
      "uiIndicator": {
        "templateName": "Normal_WorldTask_Icon_Platform"
      },
      "rotateCoreCityName": ""
    },
    {
      "groupId": 133002083,
      "mapInstId": 83018,
      "followMoveAttachPoint": "",
      "uiIndicator": {
        "templateName": "WinterCamp_Battle_Icon"
      },
      "rotateCoreCityName": ""
    },
    {
      "groupId": 133002088,
      "mapInstId": 88004,
      "followMoveAttachPoint": "",
      "uiIndicator": {
        "templateName": "Normal_WorldTask_Icon_Platform"
      },
      "rotateCoreCityName": ""
    },
    {
      "groupId": 133002088,
      "mapInstId": 88018,
      "followMoveAttachPoint": "",
      "uiIndicator": {
        "templateName": "WinterCamp_Battle_Icon"
      },
      "rotateCoreCityName": ""
    },
    {
      "groupId": 133002108,
      "mapInstId": 108018,
      "followMoveAttachPoint": "",
      "uiIndicator": {
        "templateName": "GadgetCreate_Icon"
      },
      "rotateCoreCityName": ""
    },
    {
      "groupId": 133002108,
      "mapInstId": 108019,
      "followMoveAttachPoint": "",
      "uiIndicator": {
        "templateName": "GadgetCreate_Icon"
      },
      "rotateCoreCityName": ""
    },
    {
      "groupId": 133002108,
      "mapInstId": 108020,
      "followMoveAttachPoint": "",
      "uiIndicator": {
        "templateName": "GadgetCreate_Icon"
      },
      "rotateCoreCityName": ""
    },
    {
      "groupId": 133002108,
      "mapInstId": 108021,
      "followMoveAttachPoint": "",
      "uiIndicator": {
        "templateName": "GadgetCreate_Icon"
      },
      "rotateCoreCityName": ""
    },
    {
      "groupId": 133002108,
      "mapInstId": 108022,
      "followMoveAttachPoint": "",
      "uiIndicator": {
        "templateName": "GadgetCreate_Icon"
      },
      "rotateCoreCityName": ""
    },
    {
      "groupId": 133002108,
      "mapInstId": 108023,
      "followMoveAttachPoint": "",
      "uiIndicator": {
        "templateName": "GadgetCreate_Icon"
      },
      "rotateCoreCityName": ""
    },
    {
      "groupId": 133002126,
      "mapInstId": 126001,
      "followMoveAttachPoint": "",
      "uiIndicator": {
        "templateName": "ActivityJourney_MarkStand_Icon"
      },
      "rotateCoreCityName": ""
    },
    {
      "groupId": 133002128,
      "mapInstId": 128001,
      "followMoveAttachPoint": "",
      "uiIndicator": {
        "templateName": "ActivityJourney_ChallengeStand_Icon"
      },
      "rotateCoreCityName": ""
    },
    {
      "groupId": 133002135,
      "mapInstId": 135001,
      "followMoveAttachPoint": "",
      "uiIndicator": {
        "templateName": "UI_NPCTopIcon_Blessing"
      },
      "rotateCoreCityName": ""
    },
    {
      "groupId": 133002161,
      "mapInstId": 161004,
      "followMoveAttachPoint": "",
      "uiIndicator": {
        "templateName": "Normal_Chest_Icon"
      },
      "rotateCoreCityName": ""
    },
    {
      "groupId": 133002164,
      "mapInstId": 164004,
      "followMoveAttachPoint": "",
      "uiIndicator": {
        "templateName": "Normal_Chest_Icon"
      },
      "rotateCoreCityName": ""
    },
    {
      "groupId": 133002203,
      "mapInstId": 203004,
      "followMoveAttachPoint": "",
      "uiIndicator": {
        "templateName": "Normal_Chest_Icon"
      },
      "rotateCoreCityName": ""
    },
    {
      "groupId": 133002210,
      "mapInstId": 210004,
      "followMoveAttachPoint": "",
      "uiIndicator": {
        "templateName": "Normal_Chest_Icon"
      },
      "rotateCoreCityName": ""
    },
    {
      "groupId": 133002232,
      "mapInstId": 232006,
      "followMoveAttachPoint": "",
      "uiIndicator": {
        "templateName": "Normal_Chest_Icon"
      },
      "rotateCoreCityName": ""
    },
    {
      "groupId": 133002243,
      "mapInstId": 243002,
      "followMoveAttachPoint": "",
      "uiIndicator": {
        "templateName": "Normal_Chest_Icon"
      },
      "rotateCoreCityName": ""
    },
    {
      "groupId": 133002250,
      "mapInstId": 250005,
      "followMoveAttachPoint": "",
      "uiIndicator": {
        "templateName": "Normal_Chest_Icon"
      },
      "rotateCoreCityName": ""
    },
    {
      "groupId": 133002259,
      "mapInstId": 259005,
      "followMoveAttachPoint": "",
      "uiIndicator": {
        "templateName": "Normal_Chest_Icon"
      },
      "rotateCoreCityName": ""
    },
    {
      "groupId": 133002296,
      "mapInstId": 296002,
      "followMoveAttachPoint": "",
      "uiIndicator": {
        "templateName": "Normal_Chest_Icon"
      },
      "rotateCoreCityName": ""
    },
    {
      "groupId": 133002297,
      "mapInstId": 297002,
      "followMoveAttachPoint": "",
      "uiIndicator": {
        "templateName": "Normal_Chest_Icon"
      },
      "rotateCoreCityName": ""
    },
    {
      "groupId": 133002322,
      "mapInstId": 322004,
      "followMoveAttachPoint": "",
      "uiIndicator": {
        "templateName": "Normal_Chest_Icon"
      },
      "rotateCoreCityName": ""
    },
    {
      "groupId": 133002324,
      "mapInstId": 324004,
      "followMoveAttachPoint": "",
      "uiIndicator": {
        "templateName": "Normal_Chest_Icon"
      },
      "rotateCoreCityName": ""
    },
    {
      "groupId": 133002325,
      "mapInstId": 325004,
      "followMoveAttachPoint": "",
      "uiIndicator": {
        "templateName": "Normal_Chest_Icon"
      },
      "rotateCoreCityName": ""
    },
    {
      "groupId": 133002327,
      "mapInstId": 327002,
      "followMoveAttachPoint": "",
      "uiIndicator": {
        "templateName": "Normal_Chest_Icon"
      },
      "rotateCoreCityName": ""
    },
    {
      "groupId": 133002328,
      "mapInstId": 328004,
      "followMoveAttachPoint": "",
      "uiIndicator": {
        "templateName": "Normal_Chest_Icon"
      },
      "rotateCoreCityName": ""
    },
    {
      "groupId": 133002330,
      "mapInstId": 330006,
      "followMoveAttachPoint": "",
      "uiIndicator": {
        "templateName": "Normal_Chest_Icon"
      },
      "rotateCoreCityName": ""
    },
    {
      "groupId": 133002331,
      "mapInstId": 331001,
      "followMoveAttachPoint": "",
      "uiIndicator": {
        "templateName": "Normal_Chest_Icon"
      },
      "rotateCoreCityName": ""
    },
    {
      "groupId": 133002332,
      "mapInstId": 332002,
      "followMoveAttachPoint": "",
      "uiIndicator": {
        "templateName": "Normal_Chest_Icon"
      },
      "rotateCoreCityName": ""
    },
    {
      "groupId": 133002333,
      "mapInstId": 333001,
      "followMoveAttachPoint": "",
      "uiIndicator": {
        "templateName": "Normal_Chest_Icon"
      },
      "rotateCoreCityName": ""
    },
    {
      "groupId": 133002338,
      "mapInstId": 338008,
      "followMoveAttachPoint": "",
      "uiIndicator": {
        "templateName": "Normal_Chest_Icon"
      },
      "rotateCoreCityName": ""
    },
    {
      "groupId": 133002339,
      "mapInstId": 339001,
      "followMoveAttachPoint": "",
      "uiIndicator": {
        "templateName": "Normal_Chest_Icon"
      },
      "rotateCoreCityName": ""
    },
    {
      "groupId": 133002340,
      "mapInstId": 340004,
      "followMoveAttachPoint": "",
      "uiIndicator": {
        "templateName": "ChestUnlock_Icon"
      },
      "rotateCoreCityName": ""
    },
    {
      "groupId": 133002341,
      "mapInstId": 341002,
      "followMoveAttachPoint": "",
      "uiIndicator": {
        "templateName": "Normal_Chest_Icon"
      },
      "rotateCoreCityName": ""
    },
    {
      "groupId": 133002342,
      "mapInstId": 342002,
      "followMoveAttachPoint": "",
      "uiIndicator": {
        "templateName": "Normal_Chest_Icon"
      },
      "rotateCoreCityName": ""
    },
    {
      "groupId": 133002344,
      "mapInstId": 344004,
      "followMoveAttachPoint": "",
      "uiIndicator": {
        "templateName": "Normal_Chest_Icon"
      },
      "rotateCoreCityName": ""
    },
    {
      "groupId": 133002346,
      "mapInstId": 346002,
      "followMoveAttachPoint": "",
      "uiIndicator": {
        "templateName": "Normal_Chest_Icon"
      },
      "rotateCoreCityName": ""
    },
    {
      "groupId": 133002349,
      "mapInstId": 349004,
      "followMoveAttachPoint": "",
      "uiIndicator": {
        "templateName": "ChestUnlock_Icon"
      },
      "rotateCoreCityName": ""
    },
    {
      "groupId": 133002362,
      "mapInstId": 362021,
      "followMoveAttachPoint": "",
      "billboardHasUIBar": true,
      "billboardShowUIBarDis": 39.0,
      "billboardHideUIBarDis": 40.0,
      "uiIndicator": {
        "templateName": "Normal_DailyTask_Icon_Platform"
      },
      "rotateCoreCityName": ""
    },
    {
      "groupId": 133002365,
      "mapInstId": 365004,
      "followMoveAttachPoint": "",
      "uiIndicator": {
        "templateName": "ChestUnlock_Icon"
      },
      "rotateCoreCityName": ""
    },
    {
      "groupId": 133002369,
      "mapInstId": 369006,
      "followMoveAttachPoint": "",
      "uiIndicator": {
        "templateName": "Blossom_Chest_Icon"
      },
      "rotateCoreCityName": ""
    },
    {
      "groupId": 133002370,
      "mapInstId": 370006,
      "followMoveAttachPoint": "",
      "uiIndicator": {
        "templateName": "Blossom_Chest_Icon"
      },
      "rotateCoreCityName": ""
    },
    {
      "groupId": 133002373,
      "mapInstId": 373001,
      "followMoveAttachPoint": "",
      "uiIndicator": {
        "templateName": "Normal_Chest_Icon"
      },
      "rotateCoreCityName": ""
    },
    {
      "groupId": 133002374,
      "mapInstId": 374009,
      "followMoveAttachPoint": "",
      "uiIndicator": {
        "templateName": "Normal_DailyTask_Icon_GuidePoint"
      },
      "rotateCoreCityName": ""
    },
    {
      "groupId": 133002374,
      "mapInstId": 374011,
      "followMoveAttachPoint": "",
      "uiIndicator": {
        "templateName": "Normal_DailyTask_Icon_GuidePoint"
      },
      "rotateCoreCityName": ""
    },
    {
      "groupId": 133002374,
      "mapInstId": 374013,
      "followMoveAttachPoint": "",
      "uiIndicator": {
        "templateName": "Normal_DailyTask_Icon_GuidePoint"
      },
      "rotateCoreCityName": ""
    },
    {
      "groupId": 133002374,
      "mapInstId": 374015,
      "followMoveAttachPoint": "",
      "uiIndicator": {
        "templateName": "Normal_DailyTask_Icon_GuidePoint"
      },
      "rotateCoreCityName": ""
    },
    {
      "groupId": 133002374,
      "mapInstId": 374016,
      "followMoveAttachPoint": "",
      "uiIndicator": {
        "templateName": "Normal_DailyTask_Icon_GravityBoard"
      },
      "rotateCoreCityName": ""
    },
    {
      "groupId": 133002374,
      "mapInstId": 374032,
      "followMoveAttachPoint": "",
      "uiIndicator": {
        "templateName": "Normal_DailyTask_Icon_GuidePoint"
      },
      "rotateCoreCityName": ""
    },
    {
      "groupId": 133002375,
      "mapInstId": 375021,
      "followMoveAttachPoint": "",
      "uiIndicator": {
        "templateName": "Blossom_Chest_Icon"
      },
      "rotateCoreCityName": ""
    },
    {
      "groupId": 133002377,
      "mapInstId": 377014,
      "followMoveAttachPoint": "",
      "uiIndicator": {
        "templateName": "Blossom_Chest_Icon"
      },
      "rotateCoreCityName": ""
    },
    {
      "groupId": 133002387,
      "mapInstId": 387006,
      "followMoveAttachPoint": "",
      "uiIndicator": {
        "templateName": "Blossom_Chest_Icon"
      },
      "rotateCoreCityName": ""
    },
    {
      "groupId": 133002393,
      "mapInstId": 393001,
      "followMoveAttachPoint": "",
      "uiIndicator": {
        "templateName": "GadgetCreate_Icon"
      },
      "rotateCoreCityName": ""
    },
    {
      "groupId": 133002399,
      "mapInstId": 399003,
      "followMoveAttachPoint": "",
      "uiIndicator": {
        "templateName": "Normal_Chest_Icon"
      },
      "rotateCoreCityName": ""
    },
    {
      "groupId": 133002418,
      "mapInstId": 418008,
      "followMoveAttachPoint": "",
      "uiIndicator": {
        "templateName": "Blossom_Chest_Icon"
      },
      "rotateCoreCityName": ""
    },
    {
      "groupId": 133002418,
      "mapInstId": 418019,
      "followMoveAttachPoint": "",
      "uiIndicator": {
        "templateName": "Normal_BigWorld_Icon_GuidePoint"
      },
      "rotateCoreCityName": ""
    },
    {
      "groupId": 133002421,
      "mapInstId": 421002,
      "followMoveAttachPoint": "",
      "uiIndicator": {
        "templateName": "Normal_Chest_Icon"
      },
      "rotateCoreCityName": ""
    },
    {
      "groupId": 133002425,
      "mapInstId": 425002,
      "followMoveAttachPoint": "",
      "uiIndicator": {
        "templateName": "Normal_Chest_Icon"
      },
      "rotateCoreCityName": ""
    },
    {
      "groupId": 133002429,
      "mapInstId": 429004,
      "followMoveAttachPoint": "",
      "uiIndicator": {
        "templateName": "Normal_Chest_Icon"
      },
      "rotateCoreCityName": ""
    },
    {
      "groupId": 133002434,
      "mapInstId": 434004,
      "followMoveAttachPoint": "",
      "uiIndicator": {
        "templateName": "Normal_Chest_Icon"
      },
      "rotateCoreCityName": ""
    },
    {
      "groupId": 133002471,
      "mapInstId": 471012,
      "followMoveAttachPoint": "",
      "uiIndicator": {
        "templateName": "Normal_Chest_Icon"
      },
      "rotateCoreCityName": ""
    },
    {
      "groupId": 133002473,
      "mapInstId": 473006,
      "followMoveAttachPoint": "",
      "uiIndicator": {
        "templateName": "Blossom_Chest_Icon"
      },
      "rotateCoreCityName": ""
    },
    {
      "groupId": 133002474,
      "mapInstId": 474009,
      "followMoveAttachPoint": "",
      "uiIndicator": {
        "templateName": "Blossom_Chest_Icon"
      },
      "rotateCoreCityName": ""
    },
    {
      "groupId": 133002475,
      "mapInstId": 475008,
      "followMoveAttachPoint": "",
      "uiIndicator": {
        "templateName": "Blossom_Chest_Icon"
      },
      "rotateCoreCityName": ""
    },
    {
      "groupId": 133002493,
      "mapInstId": 493001,
      "followMoveAttachPoint": "",
      "billboardShowUIBarDis": 40.0,
      "billboardHideUIBarDis": 40.0,
      "uiIndicator": {
        "templateName": "FleurFairBalloonGame_Icon",
        "paramDatas": {
          "show_distance": "40",
          "hide_distance": "40"
        }
      },
      "rotateCoreCityName": ""
    },
    {
      "groupId": 133002496,
      "mapInstId": 496026,
      "followMoveAttachPoint": "",
      "uiIndicator": {
        "templateName": "ChannellerSlabUnlock_Icon"
      },
      "rotateCoreCityName": ""
    },
    {
      "groupId": 133002499,
      "mapInstId": 499009,
      "followMoveAttachPoint": "",
      "uiIndicator": {
        "templateName": "ChannellerSlabUnlock_Icon"
      },
      "rotateCoreCityName": ""
    },
    {
      "groupId": 133002500,
      "mapInstId": 500017,
      "followMoveAttachPoint": "",
      "uiIndicator": {
        "templateName": "ChannellerSlabUnlock_Icon"
      },
      "rotateCoreCityName": ""
    },
    {
      "groupId": 133002501,
      "mapInstId": 501006,
      "followMoveAttachPoint": "",
      "uiIndicator": {
        "templateName": "ChannellerSlabUnlock_Icon"
      },
      "rotateCoreCityName": ""
    },
    {
      "groupId": 133002502,
      "mapInstId": 502007,
      "followMoveAttachPoint": "",
      "uiIndicator": {
        "templateName": "ChannellerSlabUnlock_Icon"
      },
      "rotateCoreCityName": ""
    },
    {
      "groupId": 133002503,
      "mapInstId": 503004,
      "followMoveAttachPoint": "",
      "uiIndicator": {
        "templateName": "ChannellerSlabUnlock_Icon"
      },
      "rotateCoreCityName": ""
    }
  ]
}