{
  "luaDataPath": "",
  "entityBan": "",
  "disableNpcLod": true,
  "isAutoBanNpc": true,
  "isBanWidgetPet": true,
  "protectNpcMobileLod": true,
  "startFade": {
    "startFadeOutDuration": 0.0
  },
  "endFade": {
    "startFadeOutDuration": 0.0
  },
  "actors": [
    {
      "alias": "Avatar",
      "visible": true,
      "bornPointName": "",
      "relativePosType": "AVATAR_NEW",
      "relativePosNpcAlias": "",
      "_bindMovingTargetKey": ""
    },
    {
      "configID": 20657,
      "alias": "20657",
      "visible": true,
      "bornPointName": "",
      "relativePosType": "AVATAR_NEW",
      "relativePosNpcAlias": "",
      "_bindMovingTargetKey": ""
    },
    {
      "configID": 20658,
      "alias": "20658",
      "visible": true,
      "bornPointName": "",
      "relativePosType": "AVATAR_NEW",
      "relativePosNpcAlias": "",
      "_bindMovingTargetKey": ""
    }
  ],
  "group": [
    [
      {
        "$type": "MoleMole.Config.ConfigTimeProtectAction",
        "type": "TIME_PROTECT",
        "duration": 2.0
      },
      {
        "$type": "MoleMole.Config.ConfigSimpleBlackScreenAction",
        "type": "SIMPLE_BLACK_SCREEN",
        "durationToBlack": 0.5,
        "durationKeepBlack": 3.0,
        "durationFromBlack": 0.5,
        "textMapID": "",
        "useTextFade": true,
        "_dialogID": 230163901
      },
      {
        "$type": "MJFAIFFAGOF",
        "type": "DIALOG_CLEAR"
      }
    ],
    [
      {
        "$type": "EFHODGEJOHJ",
        "type": "CAMERA_MOVE",
        "duration": 1.0,
        "actionId": 128,
        "camPosOffset": {
          "x": -442.739990234375,
          "y": 237.60899353027344,
          "z": 2776.5048828125
        },
        "camForwardTargetOffset": {
          "x": -443.70001220703125,
          "y": 237.3780059814453,
          "z": 2776.347900390625
        },
        "camFov": 55.85300064086914,
        "lerpPattern": 6,
        "cameraBlendType": "EaseInOutCubic",
        "MDKBPBJCMHH": {},
        "needZAxisRotate": true,
        "openCameraDither": false,
        "targetNpcAlias": "",
        "closeTreeLeafDither": true,
        "PHGBNNGCJKJ": "",
        "NFILMKCFHEB": "",
        "BGPNGHDAECF": ""
      },
      {
        "$type": "MJFAIFFAGOF",
        "type": "DIALOG",
        "aliasList": [
          "20657"
        ],
        "dialogID": 230163902,
        "protectTime": 0.5
      },
      {
        "$type": "EDCHPJLDKIN",
        "type": "BODY_LANG",
        "aliasList": [
          "20657"
        ],
        "actionId": 136,
        "bodyLangParam": 1230,
        "forceDoFreeStyle": true,
        "canDoRepeatFreeStyle": false,
        "eventPatternSuiteKey": ""
      },
      {
        "$type": "NPCNMEOCADD",
        "type": "LOOK_AT",
        "aliasList": [
          "20657"
        ],
        "actionId": 154,
        "enableHead": true,
        "useTargetPos": true,
        "enableAbsolute": true,
        "targetPosition": {
          "x": -442.28900146484375,
          "y": 237.19700622558594,
          "z": 2775.132080078125
        },
        "headTurnTime": 0.5,
        "targetNpcAlias": "",
        "lookAtTargetType": "NONE",
        "targetNpcLookAtPoint": "",
        "BHGPHGNFCBF": ""
      },
      {
        "$type": "NPCNMEOCADD",
        "type": "LOOK_AT",
        "aliasList": [
          "20658"
        ],
        "actionId": 176,
        "enableHead": true,
        "useTargetPos": true,
        "enableAbsolute": true,
        "targetPosition": {
          "x": -442.28900146484375,
          "y": 237.19700622558594,
          "z": 2775.132080078125
        },
        "headTurnTime": 0.5,
        "targetNpcAlias": "",
        "lookAtTargetType": "NONE",
        "targetNpcLookAtPoint": "",
        "BHGPHGNFCBF": ""
      },
      {
        "$type": "EFHODGEJOHJ",
        "type": "CAMERA_MOVE",
        "delayTime": 0.13300000131130219,
        "duration": 16.0,
        "actionId": 128,
        "camPosOffset": {
          "x": -442.739990234375,
          "y": 237.60899353027344,
          "z": 2776.5048828125
        },
        "camForwardTargetOffset": {
          "x": -443.7149963378906,
          "y": 237.43299865722656,
          "z": 2776.365966796875
        },
        "camFov": 55.85300064086914,
        "cameraBlendType": "EaseOutQuad",
        "MDKBPBJCMHH": {},
        "needZAxisRotate": true,
        "openCameraDither": false,
        "targetNpcAlias": "",
        "closeTreeLeafDither": true,
        "PHGBNNGCJKJ": "",
        "NFILMKCFHEB": "",
        "BGPNGHDAECF": ""
      },
      {
        "$type": "EDCHPJLDKIN",
        "type": "BODY_LANG",
        "delayTime": 0.257999986410141,
        "aliasList": [
          "20658"
        ],
        "actionId": 138,
        "bodyLangParam": 1230,
        "forceDoFreeStyle": true,
        "canDoRepeatFreeStyle": false,
        "eventPatternSuiteKey": ""
      }
    ],
    [
      {
        "$type": "EFHODGEJOHJ",
        "type": "CAMERA_MOVE",
        "duration": 1.0,
        "actionId": 128,
        "camPosOffset": {
          "x": -432.8080139160156,
          "y": 243.39300537109375,
          "z": 2774.510986328125
        },
        "camForwardTargetOffset": {
          "x": -433.6669921875,
          "y": 242.9029998779297,
          "z": 2774.656005859375
        },
        "camFov": 55.85200119018555,
        "lerpPattern": 6,
        "cameraBlendType": "EaseInOutCubic",
        "MDKBPBJCMHH": {},
        "needZAxisRotate": true,
        "openCameraDither": false,
        "targetNpcAlias": "",
        "closeTreeLeafDither": true,
        "PHGBNNGCJKJ": "",
        "NFILMKCFHEB": "",
        "BGPNGHDAECF": ""
      },
      {
        "$type": "MJFAIFFAGOF",
        "type": "DIALOG",
        "aliasList": [
          "20657"
        ],
        "dialogID": 230163903,
        "protectTime": 1.1920000314712524
      },
      {
        "$type": "EDCHPJLDKIN",
        "type": "BODY_LANG",
        "aliasList": [
          "20657"
        ],
        "actionId": 137,
        "bodyLangParam": 1190,
        "forceDoFreeStyle": true,
        "canDoRepeatFreeStyle": false,
        "eventPatternSuiteKey": ""
      },
      {
        "$type": "EDCHPJLDKIN",
        "type": "BODY_LANG",
        "aliasList": [
          "20658"
        ],
        "actionId": 166,
        "isContinue": true,
        "forceDoFreeStyle": true,
        "canDoRepeatFreeStyle": false,
        "eventPatternSuiteKey": ""
      },
      {
        "$type": "EFHODGEJOHJ",
        "type": "CAMERA_MOVE",
        "delayTime": 0.07999999821186066,
        "duration": 16.0,
        "actionId": 156,
        "camPosOffset": {
          "x": -432.01800537109375,
          "y": 243.84500122070312,
          "z": 2774.376953125
        },
        "camForwardTargetOffset": {
          "x": -432.87701416015625,
          "y": 243.35499572753906,
          "z": 2774.52197265625
        },
        "camFov": 55.85200119018555,
        "cameraBlendType": "EaseOutQuad",
        "MDKBPBJCMHH": {},
        "needZAxisRotate": true,
        "openCameraDither": false,
        "targetNpcAlias": "",
        "closeTreeLeafDither": true,
        "PHGBNNGCJKJ": "",
        "NFILMKCFHEB": "",
        "BGPNGHDAECF": ""
      },
      {
        "$type": "EDCHPJLDKIN",
        "type": "BODY_LANG",
        "delayTime": 0.1080000028014183,
        "aliasList": [
          "Avatar"
        ],
        "actionId": 144,
        "bodyLangParam": 1230,
        "forceDoFreeStyle": true,
        "canDoRepeatFreeStyle": false,
        "eventPatternSuiteKey": ""
      },
      {
        "$type": "IEKHMHNHENB",
        "type": "STEER_TO",
        "delayTime": 0.22499999403953552,
        "duration": 1.0,
        "aliasList": [
          "20658"
        ],
        "actionId": 140,
        "steerType": "ABSOLUTE",
        "steerDir": {
          "x": -443.57501220703125,
          "y": 235.91700744628906,
          "z": 2776.367919921875
        },
        "useSteerAnim": true,
        "interruptFreestyle": true,
        "forceSteer": true,
        "targetNpcAlias": "Avatar",
        "BHGPHGNFCBF": ""
      },
      {
        "$type": "NPCNMEOCADD",
        "type": "LOOK_AT",
        "delayTime": 0.2329999953508377,
        "aliasList": [
          "20658"
        ],
        "actionId": 177,
        "enableHead": true,
        "headTurnTime": 0.5,
        "targetNpcAlias": "Avatar",
        "openBackProtect": true,
        "targetNpcLookAtPoint": "",
        "BHGPHGNFCBF": ""
      }
    ],
    [
      {
        "$type": "IEKHMHNHENB",
        "type": "STEER_TO",
        "delayTime": -12.0,
        "duration": 1.0,
        "aliasList": [
          "Avatar"
        ],
        "actionId": 141,
        "steerType": "ABSOLUTE",
        "targetNpcAlias": "",
        "BHGPHGNFCBF": ""
      },
      {
        "$type": "EFHODGEJOHJ",
        "type": "CAMERA_MOVE",
        "duration": 1.0,
        "actionId": 128,
        "camPosOffset": {
          "x": -443.6319885253906,
          "y": 237.43899536132812,
          "z": 2775.89599609375
        },
        "camForwardTargetOffset": {
          "x": -444.3630065917969,
          "y": 237.42100524902344,
          "z": 2775.214111328125
        },
        "camFov": 55.85300064086914,
        "lerpPattern": 6,
        "cameraBlendType": "EaseInOutCubic",
        "MDKBPBJCMHH": {},
        "needZAxisRotate": true,
        "openCameraDither": false,
        "targetNpcAlias": "",
        "closeTreeLeafDither": true,
        "PHGBNNGCJKJ": "",
        "NFILMKCFHEB": "",
        "BGPNGHDAECF": ""
      },
      {
        "$type": "MJFAIFFAGOF",
        "type": "DIALOG",
        "aliasList": [
          "20658"
        ],
        "dialogID": 230163904,
        "protectTime": 2.7079999446868896
      },
      {
        "$type": "EFHODGEJOHJ",
        "type": "CAMERA_MOVE",
        "delayTime": 0.0989999994635582,
        "duration": 16.0,
        "actionId": 128,
        "camPosOffset": {
          "x": -443.6319885253906,
          "y": 237.43899536132812,
          "z": 2775.89599609375
        },
        "camForwardTargetOffset": {
          "x": -444.364013671875,
          "y": 237.44500732421875,
          "z": 2775.214111328125
        },
        "camFov": 55.85300064086914,
        "cameraBlendType": "EaseOutQuad",
        "MDKBPBJCMHH": {},
        "needZAxisRotate": true,
        "openCameraDither": false,
        "targetNpcAlias": "",
        "closeTreeLeafDither": true,
        "PHGBNNGCJKJ": "",
        "NFILMKCFHEB": "",
        "BGPNGHDAECF": ""
      },
      {
        "$type": "NPCNMEOCADD",
        "type": "LOOK_AT",
        "delayTime": 0.11699999868869781,
        "aliasList": [
          "20658"
        ],
        "actionId": 139,
        "enableHead": true,
        "headTurnTime": 0.5,
        "targetNpcAlias": "Avatar",
        "targetNpcLookAtPoint": "",
        "BHGPHGNFCBF": ""
      },
      {
        "$type": "OBCDECFOOBC",
        "type": "DIALOG_SELECT",
        "delayTime": 0.6000000238418579,
        "aliasList": [
          "Avatar"
        ],
        "dialogIDList": [
          230163905
        ],
        "grpIDList": [
          1558277597
        ],
        "useGrpId": true
      },
      {
        "$type": "NPCNMEOCADD",
        "type": "LOOK_AT",
        "delayTime": 0.6000000238418579,
        "aliasList": [
          "Avatar"
        ],
        "actionId": 143,
        "enableHead": true,
        "headTurnTime": 0.5,
        "targetNpcAlias": "20658",
        "targetNpcLookAtPoint": "",
        "BHGPHGNFCBF": ""
      },
      {
        "$type": "MoleMole.Config.ConfigTeleportToAction",
        "type": "TELEPORT_TO",
        "delayTime": 0.6179999709129333,
        "aliasList": [
          "Avatar"
        ],
        "actionId": 160,
        "position": {
          "x": -443.6910095214844,
          "y": 235.91700744628906,
          "z": 2776.39404296875
        },
        "forward": {
          "x": -0.5289999842643738,
          "y": 0.010999999940395355,
          "z": -0.9599999785423279
        },
        "openLongDisTeleport": true,
        "_posBindMovingTargetKey": "",
        "_forwardBindMovingTargetKey": ""
      },
      {
        "$type": "MoleMole.Config.ConfigTeleportToAction",
        "type": "TELEPORT_TO",
        "delayTime": 0.6269999742507935,
        "aliasList": [
          "20657"
        ],
        "actionId": 159,
        "position": {
          "x": -444.9460144042969,
          "y": 235.91700744628906,
          "z": 2777.112060546875
        },
        "forward": {
          "x": -0.8460000157356262,
          "y": 0.5040000081062317,
          "z": 0.5189999938011169
        },
        "openLongDisTeleport": true,
        "_posBindMovingTargetKey": "",
        "_forwardBindMovingTargetKey": ""
      },
      {
        "$type": "NPCNMEOCADD",
        "type": "LOOK_AT",
        "delayTime": 0.6470000147819519,
        "aliasList": [
          "20657"
        ],
        "actionId": 169,
        "enableHead": true,
        "useTargetPos": true,
        "enableAbsolute": true,
        "targetPosition": {
          "x": -446.072998046875,
          "y": 236.49099731445312,
          "z": 2778.037109375
        },
        "headTurnTime": 0.5,
        "targetNpcAlias": "",
        "lookAtTargetType": "NONE",
        "targetNpcLookAtPoint": "",
        "BHGPHGNFCBF": ""
      },
      {
        "$type": "EDCHPJLDKIN",
        "type": "BODY_LANG",
        "delayTime": 1.2910000085830688,
        "aliasList": [
          "20658"
        ],
        "actionId": 157,
        "bodyLangParam": 1030,
        "forceDoFreeStyle": true,
        "canDoRepeatFreeStyle": false,
        "eventPatternSuiteKey": ""
      },
      {
        "$type": "EDCHPJLDKIN",
        "type": "BODY_LANG",
        "delayTime": 2.194000005722046,
        "aliasList": [
          "20658"
        ],
        "actionId": 168,
        "isContinue": true,
        "forceDoFreeStyle": true,
        "canDoRepeatFreeStyle": false,
        "eventPatternSuiteKey": ""
      }
    ],
    [
      {
        "$type": "EFHODGEJOHJ",
        "type": "CAMERA_MOVE",
        "duration": 1.0,
        "actionId": 128,
        "camPosOffset": {
          "x": -441.2489929199219,
          "y": 238.78500366210938,
          "z": 2777.154052734375
        },
        "camForwardTargetOffset": {
          "x": -442.0419921875,
          "y": 238.29200744628906,
          "z": 2776.797119140625
        },
        "camFov": 55.85300064086914,
        "lerpPattern": 6,
        "cameraBlendType": "EaseInOutCubic",
        "MDKBPBJCMHH": {},
        "needZAxisRotate": true,
        "openCameraDither": false,
        "targetNpcAlias": "",
        "closeTreeLeafDither": true,
        "PHGBNNGCJKJ": "",
        "NFILMKCFHEB": "",
        "BGPNGHDAECF": ""
      },
      {
        "$type": "MJFAIFFAGOF",
        "type": "DIALOG",
        "aliasList": [
          "20658"
        ],
        "dialogID": 230163906,
        "protectTime": 0.5
      },
      {
        "$type": "EDCHPJLDKIN",
        "type": "BODY_LANG",
        "aliasList": [
          "20658"
        ],
        "actionId": 145,
        "bodyLangParam": 4030,
        "forceDoFreeStyle": true,
        "canDoRepeatFreeStyle": false,
        "eventPatternSuiteKey": ""
      },
      {
        "$type": "EFHODGEJOHJ",
        "type": "CAMERA_MOVE",
        "delayTime": 0.10199999809265137,
        "duration": 16.0,
        "actionId": 128,
        "camPosOffset": {
          "x": -441.2489929199219,
          "y": 238.78500366210938,
          "z": 2777.154052734375
        },
        "camForwardTargetOffset": {
          "x": -442.09100341796875,
          "y": 238.30999755859375,
          "z": 2776.89892578125
        },
        "camFov": 55.85300064086914,
        "cameraBlendType": "EaseOutQuad",
        "MDKBPBJCMHH": {},
        "needZAxisRotate": true,
        "openCameraDither": false,
        "targetNpcAlias": "",
        "closeTreeLeafDither": true,
        "PHGBNNGCJKJ": "",
        "NFILMKCFHEB": "",
        "BGPNGHDAECF": ""
      }
    ],
    [
      {
        "$type": "EFHODGEJOHJ",
        "type": "CAMERA_MOVE",
        "duration": 1.0,
        "actionId": 128,
        "camPosOffset": {
          "x": -435.7749938964844,
          "y": 239.73500061035156,
          "z": 2774.56201171875
        },
        "camForwardTargetOffset": {
          "x": -436.7690124511719,
          "y": 239.66600036621094,
          "z": 2774.471923828125
        },
        "camFov": 55.85300064086914,
        "lerpPattern": 6,
        "cameraBlendType": "EaseInOutCubic",
        "MDKBPBJCMHH": {},
        "needZAxisRotate": true,
        "openCameraDither": false,
        "targetNpcAlias": "",
        "closeTreeLeafDither": true,
        "PHGBNNGCJKJ": "",
        "NFILMKCFHEB": "",
        "BGPNGHDAECF": ""
      },
      {
        "$type": "MJFAIFFAGOF",
        "type": "DIALOG",
        "aliasList": [
          "20658"
        ],
        "dialogID": 230163907,
        "protectTime": 0.5
      },
      {
        "$type": "EDCHPJLDKIN",
        "type": "BODY_LANG",
        "aliasList": [
          "20658"
        ],
        "actionId": 146,
        "bodyLangParam": 1120,
        "forceDoFreeStyle": true,
        "canDoRepeatFreeStyle": false,
        "eventPatternSuiteKey": ""
      },
      {
        "$type": "EFHODGEJOHJ",
        "type": "CAMERA_MOVE",
        "delayTime": 0.11800000071525574,
        "duration": 16.0,
        "actionId": 128,
        "camPosOffset": {
          "x": -435.7749938964844,
          "y": 239.73500061035156,
          "z": 2774.56201171875
        },
        "camForwardTargetOffset": {
          "x": -436.7690124511719,
          "y": 239.625,
          "z": 2774.568115234375
        },
        "camFov": 55.85300064086914,
        "lerpPattern": 1,
        "cameraBlendType": "EaseOutQuad",
        "MDKBPBJCMHH": {},
        "openCameraDither": false,
        "targetNpcAlias": "",
        "closeTreeLeafDither": true,
        "PHGBNNGCJKJ": "",
        "NFILMKCFHEB": "",
        "BGPNGHDAECF": ""
      }
    ],
    [
      {
        "$type": "EFHODGEJOHJ",
        "type": "CAMERA_MOVE",
        "duration": 1.0,
        "actionId": 128,
        "camPosOffset": {
          "x": -428.1260070800781,
          "y": 252.88800048828125,
          "z": 2766.06005859375
        },
        "camForwardTargetOffset": {
          "x": -428.8940124511719,
          "y": 252.41299438476562,
          "z": 2766.489990234375
        },
        "camFov": 55.85300064086914,
        "lerpPattern": 6,
        "cameraBlendType": "EaseInOutCubic",
        "MDKBPBJCMHH": {},
        "needZAxisRotate": true,
        "openCameraDither": false,
        "targetNpcAlias": "",
        "closeTreeLeafDither": true,
        "PHGBNNGCJKJ": "",
        "NFILMKCFHEB": "",
        "BGPNGHDAECF": ""
      },
      {
        "$type": "MJFAIFFAGOF",
        "type": "DIALOG",
        "aliasList": [
          "20658"
        ],
        "dialogID": 230163908,
        "protectTime": 0.5
      },
      {
        "$type": "EDCHPJLDKIN",
        "type": "BODY_LANG",
        "aliasList": [
          "20658"
        ],
        "actionId": 147,
        "bodyLangParam": 1121,
        "forceDoFreeStyle": true,
        "canDoRepeatFreeStyle": false,
        "eventPatternSuiteKey": ""
      },
      {
        "$type": "EFHODGEJOHJ",
        "type": "CAMERA_MOVE",
        "delayTime": 0.11999999731779099,
        "duration": 16.0,
        "actionId": 128,
        "camPosOffset": {
          "x": -428.1260070800781,
          "y": 252.88800048828125,
          "z": 2766.06005859375
        },
        "camForwardTargetOffset": {
          "x": -429.0610046386719,
          "y": 252.66799926757812,
          "z": 2766.340087890625
        },
        "camFov": 55.85300064086914,
        "lerpPattern": 1,
        "cameraBlendType": "EaseOutQuad",
        "MDKBPBJCMHH": {},
        "needZAxisRotate": true,
        "openCameraDither": false,
        "targetNpcAlias": "",
        "closeTreeLeafDither": true,
        "PHGBNNGCJKJ": "",
        "NFILMKCFHEB": "",
        "BGPNGHDAECF": ""
      }
    ],
    [
      {
        "$type": "EFHODGEJOHJ",
        "type": "CAMERA_MOVE",
        "duration": 1.0,
        "actionId": 128,
        "camPosOffset": {
          "x": -446.71600341796875,
          "y": 237.552001953125,
          "z": 2774.925048828125
        },
        "camForwardTargetOffset": {
          "x": -445.7749938964844,
          "y": 237.4239959716797,
          "z": 2775.238037109375
        },
        "camFov": 55.85200119018555,
        "lerpPattern": 6,
        "cameraBlendType": "EaseInOutCubic",
        "MDKBPBJCMHH": {},
        "needZAxisRotate": true,
        "openCameraDither": false,
        "targetNpcAlias": "",
        "closeTreeLeafDither": true,
        "PHGBNNGCJKJ": "",
        "NFILMKCFHEB": "",
        "BGPNGHDAECF": ""
      },
      {
        "$type": "MJFAIFFAGOF",
        "type": "DIALOG",
        "aliasList": [
          "20658"
        ],
        "dialogID": 230163909,
        "protectTime": 0.5
      },
      {
        "$type": "EDCHPJLDKIN",
        "type": "BODY_LANG",
        "aliasList": [
          "20658"
        ],
        "actionId": 148,
        "isContinue": true,
        "forceDoFreeStyle": true,
        "canDoRepeatFreeStyle": false,
        "eventPatternSuiteKey": ""
      },
      {
        "$type": "EFHODGEJOHJ",
        "type": "CAMERA_MOVE",
        "delayTime": 0.11500000208616257,
        "duration": 16.0,
        "actionId": 128,
        "camPosOffset": {
          "x": -446.71600341796875,
          "y": 237.552001953125,
          "z": 2774.925048828125
        },
        "camForwardTargetOffset": {
          "x": -445.89898681640625,
          "y": 237.427001953125,
          "z": 2775.487060546875
        },
        "camFov": 55.85200119018555,
        "cameraBlendType": "EaseOutQuad",
        "MDKBPBJCMHH": {},
        "needZAxisRotate": true,
        "openCameraDither": false,
        "targetNpcAlias": "",
        "closeTreeLeafDither": true,
        "PHGBNNGCJKJ": "",
        "NFILMKCFHEB": "",
        "BGPNGHDAECF": ""
      },
      {
        "$type": "NPCNMEOCADD",
        "type": "LOOK_AT",
        "delayTime": 0.19200000166893005,
        "aliasList": [
          "20658"
        ],
        "actionId": 151,
        "enableHead": true,
        "headTurnTime": 0.5,
        "targetNpcAlias": "20657",
        "targetNpcLookAtPoint": "",
        "BHGPHGNFCBF": ""
      },
      {
        "$type": "NPCNMEOCADD",
        "type": "LOOK_AT",
        "delayTime": 0.2750000059604645,
        "aliasList": [
          "Avatar"
        ],
        "actionId": 150,
        "enableHead": true,
        "headTurnTime": 0.5,
        "targetNpcAlias": "20657",
        "targetNpcLookAtPoint": "",
        "BHGPHGNFCBF": ""
      }
    ],
    [
      {
        "$type": "EFHODGEJOHJ",
        "type": "CAMERA_MOVE",
        "duration": 1.0,
        "actionId": 128,
        "camPosOffset": {
          "x": -442.5820007324219,
          "y": 237.76800537109375,
          "z": 2775.074951171875
        },
        "camForwardTargetOffset": {
          "x": -443.3370056152344,
          "y": 237.46099853515625,
          "z": 2775.655029296875
        },
        "camFov": 55.85200119018555,
        "lerpPattern": 6,
        "cameraBlendType": "EaseInOutCubic",
        "MDKBPBJCMHH": {},
        "needZAxisRotate": true,
        "openCameraDither": false,
        "targetNpcAlias": "",
        "closeTreeLeafDither": true,
        "PHGBNNGCJKJ": "",
        "NFILMKCFHEB": "",
        "BGPNGHDAECF": ""
      },
      {
        "$type": "NPCNMEOCADD",
        "type": "LOOK_AT",
        "aliasList": [
          "Avatar"
        ],
        "actionId": 152,
        "enableHead": true,
        "headTurnTime": 0.5,
        "targetNpcAlias": "20658",
        "targetNpcLookAtPoint": "",
        "BHGPHGNFCBF": ""
      },
      {
        "$type": "MJFAIFFAGOF",
        "type": "DIALOG",
        "aliasList": [
          "20658"
        ],
        "dialogID": 230163910,
        "protectTime": 0.7329999804496765
      },
      {
        "$type": "NPCNMEOCADD",
        "type": "LOOK_AT",
        "aliasList": [
          "20658"
        ],
        "actionId": 153,
        "enableHead": true,
        "headTurnTime": 0.5,
        "targetNpcAlias": "Avatar",
        "targetNpcLookAtPoint": "",
        "BHGPHGNFCBF": ""
      },
      {
        "$type": "EFHODGEJOHJ",
        "type": "CAMERA_MOVE",
        "delayTime": 0.10000000149011612,
        "duration": 16.0,
        "actionId": 128,
        "camPosOffset": {
          "x": -441.4649963378906,
          "y": 238.2220001220703,
          "z": 2774.218017578125
        },
        "camForwardTargetOffset": {
          "x": -442.2200012207031,
          "y": 237.9149932861328,
          "z": 2774.798095703125
        },
        "camFov": 55.85200119018555,
        "cameraBlendType": "EaseOutQuad",
        "MDKBPBJCMHH": {},
        "needZAxisRotate": true,
        "openCameraDither": false,
        "targetNpcAlias": "",
        "closeTreeLeafDither": true,
        "PHGBNNGCJKJ": "",
        "NFILMKCFHEB": "",
        "BGPNGHDAECF": ""
      },
      {
        "$type": "EDCHPJLDKIN",
        "type": "BODY_LANG",
        "delayTime": 0.31700000166893005,
        "aliasList": [
          "20658"
        ],
        "actionId": 149,
        "bodyLangParam": 1110,
        "forceDoFreeStyle": true,
        "canDoRepeatFreeStyle": false,
        "eventPatternSuiteKey": ""
      }
    ],
    [
      {
        "$type": "MoleMole.Config.ConfigTimeProtectAction",
        "type": "TIME_PROTECT",
        "duration": 0.10000000149011612
      },
      {
        "$type": "MoleMole.Config.ConfigSimpleBlackScreenAction",
        "type": "SIMPLE_BLACK_SCREEN",
        "durationToBlack": 0.5,
        "durationKeepBlack": 1.0,
        "durationFromBlack": 0.5,
        "textMapID": ""
      },
      {
        "$type": "MoleMole.Config.ConfigTeleportToAction",
        "type": "TELEPORT_TO",
        "delayTime": 0.5,
        "aliasList": [
          "Avatar"
        ],
        "actionId": 170,
        "position": {
          "x": -440.7659912109375,
          "y": 235.91700744628906,
          "z": 2772.701904296875
        },
        "forward": {
          "x": -1.0299999713897705,
          "z": 2.5329999923706055
        },
        "openLongDisTeleport": true,
        "_posBindMovingTargetKey": "",
        "_forwardBindMovingTargetKey": ""
      },
      {
        "$type": "MoleMole.Config.ConfigVisibleInterAction",
        "type": "VISIBLE",
        "delayTime": 0.5,
        "aliasList": [
          "20657"
        ],
        "actionId": 171,
        "_extraParam": ""
      },
      {
        "$type": "MoleMole.Config.ConfigVisibleInterAction",
        "type": "VISIBLE",
        "delayTime": 0.5,
        "aliasList": [
          "20658"
        ],
        "actionId": 172,
        "_extraParam": ""
      }
    ]
  ],
  "groupId": [
    {
      "grpId": 1558277593,
      "nextGrpId": 1558277594
    },
    {
      "index": 1,
      "grpId": 1558277594,
      "nextGrpId": 1558277595
    },
    {
      "index": 2,
      "grpId": 1558277595,
      "nextGrpId": 1558277596
    },
    {
      "index": 3,
      "grpId": 1558277596,
      "nextGrpId": 1558277597
    },
    {
      "index": 4,
      "grpId": 1558277597,
      "nextGrpId": 1558277598
    },
    {
      "index": 5,
      "grpId": 1558277598,
      "nextGrpId": 1558277599
    },
    {
      "index": 6,
      "grpId": 1558277599,
      "nextGrpId": 1558277600
    },
    {
      "index": 7,
      "grpId": 1558277600,
      "nextGrpId": 1558277601
    },
    {
      "index": 8,
      "grpId": 1558277601,
      "nextGrpId": 1061965175
    },
    {
      "index": 9,
      "grpId": 1061965175,
      "nextGrpId": 1061965176
    }
  ],
  "freeStyleDic": {
    "20657": [
      1230,
      1190
    ],
    "20658": [
      1230,
      1030,
      4030,
      1120,
      1121,
      1110
    ]
  }
}