{
  "luaDataPath": "",
  "isSimpleTalk": true,
  "startBlackKeepTime": 0.4000000059604645,
  "entityBan": "",
  "disableNpcLod": true,
  "startFade": {
    "startFadeInDuration": 0.30000001192092896,
    "startFadeOutDuration": 0.30000001192092896
  },
  "endFade": {
    "startFadeOutDuration": 0.0
  },
  "actors": [
    {
      "alias": "Avatar",
      "visible": true,
      "bornPointName": "",
      "relativePosNpcAlias": "",
      "_bindMovingTargetKey": ""
    },
    {
      "configID": 20395,
      "alias": "20395",
      "visible": true,
      "bornPointName": "",
      "relativePosNpcAlias": "",
      "_bindMovingTargetKey": ""
    },
    {
      "configID": 1005,
      "alias": "1005",
      "visible": true,
      "bornPointName": "",
      "useRelativePos": true,
      "relativePos": {
        "x": -0.5,
        "z": 0.5
      },
      "removeActorType": "REMOVE_WITH_DISAPPEAR",
      "relativePosNpcAlias": "",
      "_bindMovingTargetKey": ""
    }
  ],
  "group": [
    [
      {
        "$type": "MJFAIFFAGOF",
        "type": "DIALOG",
        "aliasList": [
          "20395"
        ],
        "dialogID": 705010201,
        "protectTime": 0.5
      },
      {
        "$type": "IEKHMHNHENB",
        "type": "STEER_TO",
        "delayTime": 0.625,
        "duration": 0.800000011920929,
        "aliasList": [
          "20395"
        ],
        "steerType": "TO_LOCAL_AVATAR",
        "targetNpcAlias": "",
        "BHGPHGNFCBF": ""
      }
    ],
    [
      {
        "$type": "MJFAIFFAGOF",
        "type": "DIALOG",
        "aliasList": [
          "20395"
        ],
        "dialogID": 705010202,
        "protectTime": 0.5
      }
    ],
    [
      {
        "$type": "MJFAIFFAGOF",
        "type": "DIALOG",
        "aliasList": [
          "20395"
        ],
        "dialogID": 705010203,
        "protectTime": 0.5
      }
    ],
    [
      {
        "$type": "MJFAIFFAGOF",
        "type": "DIALOG",
        "aliasList": [
          "20395"
        ],
        "dialogID": 705010204,
        "protectTime": 0.5
      }
    ],
    [
      {
        "$type": "MJFAIFFAGOF",
        "type": "DIALOG",
        "aliasList": [
          "20395"
        ],
        "dialogID": 705010205,
        "protectTime": 0.5
      }
    ],
    [
      {
        "$type": "OBCDECFOOBC",
        "type": "DIALOG_SELECT",
        "delayTime": 0.4000000059604645,
        "aliasList": [
          "Avatar"
        ],
        "dialogIDList": [
          705010207
        ],
        "grpIDList": [
          125938776
        ],
        "useGrpId": true
      },
      {
        "$type": "MJFAIFFAGOF",
        "type": "DIALOG",
        "aliasList": [
          "20395"
        ],
        "dialogID": 705010206,
        "protectTime": 0.5
      }
    ],
    [
      {
        "$type": "MJFAIFFAGOF",
        "type": "DIALOG",
        "aliasList": [
          "20395"
        ],
        "dialogID": 705010208,
        "protectTime": 0.5
      }
    ],
    [
      {
        "$type": "OBCDECFOOBC",
        "type": "DIALOG_SELECT",
        "delayTime": 0.4000000059604645,
        "aliasList": [
          "Avatar"
        ],
        "dialogIDList": [
          705010210
        ],
        "grpIDList": [
          125938778
        ],
        "useGrpId": true
      },
      {
        "$type": "MJFAIFFAGOF",
        "type": "DIALOG",
        "aliasList": [
          "1005"
        ],
        "dialogID": 705010209,
        "protectTime": 0.5
      }
    ],
    [
      {
        "$type": "MJFAIFFAGOF",
        "type": "DIALOG",
        "aliasList": [
          "20395"
        ],
        "dialogID": 705010211,
        "protectTime": 0.5
      }
    ],
    [
      {
        "$type": "MJFAIFFAGOF",
        "type": "DIALOG",
        "aliasList": [
          "20395"
        ],
        "dialogID": 705010212,
        "protectTime": 0.5
      }
    ],
    [
      {
        "$type": "MJFAIFFAGOF",
        "type": "DIALOG",
        "aliasList": [
          "20395"
        ],
        "dialogID": 705010213,
        "protectTime": 0.5
      }
    ],
    [
      {
        "$type": "MJFAIFFAGOF",
        "type": "DIALOG",
        "aliasList": [
          "20395"
        ],
        "dialogID": 705010214,
        "protectTime": 0.5
      }
    ],
    [
      {
        "$type": "OBCDECFOOBC",
        "type": "DIALOG_SELECT",
        "delayTime": 0.4000000059604645,
        "aliasList": [
          "Avatar"
        ],
        "dialogIDList": [
          705010216,
          705010218
        ],
        "grpIDList": [
          3904101922,
          3904101923
        ],
        "useGrpId": true
      },
      {
        "$type": "MJFAIFFAGOF",
        "type": "DIALOG",
        "aliasList": [
          "20395"
        ],
        "dialogID": 705010215,
        "protectTime": 0.5
      }
    ],
    [
      {
        "$type": "MJFAIFFAGOF",
        "type": "DIALOG",
        "aliasList": [
          "20395"
        ],
        "dialogID": 705010217,
        "protectTime": 0.5
      }
    ],
    [
      {
        "$type": "MJFAIFFAGOF",
        "type": "DIALOG",
        "aliasList": [
          "20395"
        ],
        "dialogID": 705010219,
        "protectTime": 0.5
      }
    ],
    [
      {
        "$type": "MJFAIFFAGOF",
        "type": "DIALOG",
        "aliasList": [
          "20395"
        ],
        "dialogID": 705010220,
        "protectTime": 0.5
      }
    ],
    [
      {
        "$type": "MJFAIFFAGOF",
        "type": "DIALOG",
        "aliasList": [
          "20395"
        ],
        "dialogID": 705010221,
        "protectTime": 0.5
      }
    ],
    [
      {
        "$type": "MoleMole.Config.ConfigSimpleBlackScreenAction",
        "type": "SIMPLE_BLACK_SCREEN",
        "durationToBlack": 0.5,
        "durationKeepBlack": 1.0,
        "durationFromBlack": 0.5,
        "textMapID": ""
      },
      {
        "$type": "MoleMole.Config.ConfigTimeProtectAction",
        "type": "TIME_PROTECT",
        "duration": 0.699999988079071
      }
    ]
  ],
  "groupId": [
    {
      "grpId": 125938770,
      "nextGrpId": 125938771
    },
    {
      "index": 1,
      "grpId": 125938771,
      "nextGrpId": 125938772
    },
    {
      "index": 2,
      "grpId": 125938772,
      "nextGrpId": 125938773
    },
    {
      "index": 3,
      "grpId": 125938773,
      "nextGrpId": 125938774
    },
    {
      "index": 4,
      "grpId": 125938774,
      "nextGrpId": 125938775
    },
    {
      "index": 5,
      "grpId": 125938775,
      "nextGrpId": 125938776
    },
    {
      "index": 6,
      "grpId": 125938776,
      "nextGrpId": 125938777
    },
    {
      "index": 7,
      "grpId": 125938777,
      "nextGrpId": 125938778
    },
    {
      "index": 8,
      "grpId": 125938778,
      "nextGrpId": 3904101918
    },
    {
      "index": 9,
      "grpId": 3904101918,
      "nextGrpId": 3904101919
    },
    {
      "index": 10,
      "grpId": 3904101919,
      "nextGrpId": 3904101920
    },
    {
      "index": 11,
      "grpId": 3904101920,
      "nextGrpId": 3904101921
    },
    {
      "index": 12,
      "grpId": 3904101921,
      "nextGrpId": 3904101922
    },
    {
      "index": 13,
      "grpId": 3904101922,
      "nextGrpId": 3904101924
    },
    {
      "index": 14,
      "grpId": 3904101923,
      "nextGrpId": 3904101924
    },
    {
      "index": 15,
      "grpId": 3904101924,
      "nextGrpId": 3904101925
    },
    {
      "index": 16,
      "grpId": 3904101925,
      "nextGrpId": 3904101926
    },
    {
      "index": 17,
      "grpId": 3904101926,
      "nextGrpId": 3904101927
    }
  ],
  "freeStyleDic": {
    "20395": []
  }
}