{
  "sceneId": 1016,
  "roomList": [
    {
      "name": "room_global",
      "reverbAuxBus": {
        "text": "aux_scene_dungeon_default"
      },
      "keepRegister": true
    },
    {
      "name": "room_dungeon_open_huge_enter",
      "reverbAuxBus": {
        "text": "aux_scene_dungeon_open_huge"
      },
      "keepRegister": true,
      "boxRoomTriggers": [
        {
          "BOIJMPNEPFO": {
            "x": 313.0,
            "y": 16.0,
            "z": -15.0
          },
          "size": {
            "x": 40.0,
            "y": 30.0,
            "z": 50.0
          }
        }
      ]
    },
    {
      "name": "room_dungeon_close_long",
      "reverbAuxBus": {
        "text": "aux_scene_dungeon_close_long"
      },
      "keepRegister": true,
      "boxRoomTriggers": [
        {
          "BOIJMPNEPFO": {
            "x": 241.9499969482422,
            "y": 2.25,
            "z": -12.800000190734863
          },
          "size": {
            "x": 105.0,
            "y": 40.0,
            "z": 35.0
          }
        }
      ]
    },
    {
      "name": "room_dungeon_close_huge",
      "reverbAuxBus": {
        "text": "aux_scene_dungeon_close_huge"
      },
      "keepRegister": true,
      "boxRoomTriggers": [
        {
          "BOIJMPNEPFO": {
            "x": 203.0,
            "y": 10.0,
            "z": -50.0
          },
          "size": {
            "x": 52.0,
            "y": 40.0,
            "z": 45.0
          }
        }
      ]
    },
    {
      "name": "room_dungeon_open_huge_exit",
      "reverbAuxBus": {
        "text": "aux_scene_dungeon_open_huge"
      },
      "keepRegister": true,
      "boxRoomTriggers": [
        {
          "BOIJMPNEPFO": {
            "x": 32.0,
            "y": 15.0,
            "z": -15.0
          },
          "size": {
            "x": 165.0,
            "y": 60.0,
            "z": 70.0
          }
        }
      ]
    },
    {
      "name": "room_dungeon_close_huge_exit",
      "reverbAuxBus": {
        "text": "aux_scene_dungeon_close_huge"
      },
      "keepRegister": true,
      "boxRoomTriggers": [
        {
          "BOIJMPNEPFO": {
            "x": -75.0,
            "y": 15.0,
            "z": -15.0
          },
          "size": {
            "x": 50.0,
            "y": 20.0,
            "z": 45.0
          }
        }
      ]
    }
  ],
  "portalList": [
    {
      "name": "portal_room_dungeon_open_huge_enter_to_outdoor_r",
      "BOIJMPNEPFO": {
        "x": 333.0,
        "y": 16.0,
        "z": -15.0
      },
      "rotation": {
        "y": 90.0
      },
      "size": {
        "x": 50.0,
        "y": 30.0,
        "z": 10.0
      },
      "frontRoomName": "room_global",
      "backRoomName": "room_dungeon_open_huge_enter"
    },
    {
      "name": "portal_dungeon_close_long_to_dungeon_open_huge_enter",
      "BOIJMPNEPFO": {
        "x": 293.0,
        "y": 2.5,
        "z": -15.5
      },
      "rotation": {
        "y": -90.0
      },
      "size": {
        "x": 9.0,
        "y": 9.0,
        "z": 12.0
      },
      "frontRoomName": "room_dungeon_close_long",
      "backRoomName": "room_dungeon_open_huge_enter"
    },
    {
      "name": "portal_room_dungeon_close_huge_to_outdoor_l",
      "BOIJMPNEPFO": {
        "x": 177.0,
        "y": 15.0,
        "z": -50.0
      },
      "rotation": {
        "y": -90.0
      },
      "size": {
        "x": 7.0,
        "y": 18.0,
        "z": 10.0
      },
      "frontRoomName": "room_global",
      "backRoomName": "room_dungeon_close_huge"
    },
    {
      "name": "portal_dungeon_close_huge_to_dungeon_close_long",
      "BOIJMPNEPFO": {
        "x": 221.0,
        "y": 10.5,
        "z": -27.0
      },
      "size": {
        "x": 9.0,
        "y": 9.0,
        "z": 10.0
      },
      "frontRoomName": "room_dungeon_close_long",
      "backRoomName": "room_dungeon_close_huge"
    },
    {
      "name": "portal_room_dungeon_open_huge_exit_to_outdoor_r",
      "BOIJMPNEPFO": {
        "x": 117.5,
        "y": 38.0,
        "z": -13.0
      },
      "rotation": {
        "y": 90.0
      },
      "size": {
        "x": 7.0,
        "y": 9.0,
        "z": 10.0
      },
      "frontRoomName": "room_global",
      "backRoomName": "room_dungeon_open_huge_exit"
    },
    {
      "name": "portal_dungeon_close_huge_exit_to_dungeon_open_huge_exit",
      "BOIJMPNEPFO": {
        "x": -47.0,
        "y": 14.5,
        "z": -13.699999809265137
      },
      "rotation": {
        "y": -90.0
      },
      "size": {
        "x": 7.0,
        "y": 5.0,
        "z": 10.0
      },
      "frontRoomName": "room_dungeon_close_huge_exit",
      "backRoomName": "room_dungeon_open_huge_exit"
    }
  ],
  "globalRoom": "room_global"
}