{
  "sceneId": 20008,
  "roomList": [
    {
      "name": "room_global",
      "reverbAuxBus": {
        "text": "aux_scene_dungeon_default"
      },
      "keepRegister": true
    },
    {
      "name": "room_dungeon_close_huge_01",
      "reverbAuxBus": {
        "text": "aux_scene_dungeon_close_huge"
      },
      "keepRegister": true,
      "boxRoomTriggers": [
        {
          "BOIJMPNEPFO": {
            "x": 567.2000122070312,
            "y": -65.0,
            "z": 206.0
          },
          "size": {
            "x": 57.0,
            "y": 70.0,
            "z": 57.0
          }
        }
      ]
    },
    {
      "name": "room_dungeon_close_huge_02",
      "reverbAuxBus": {
        "text": "aux_scene_dungeon_close_huge"
      },
      "keepRegister": true,
      "boxRoomTriggers": [
        {
          "BOIJMPNEPFO": {
            "x": 453.0,
            "y": -15.0,
            "z": 275.0
          },
          "size": {
            "x": 57.0,
            "y": 50.0,
            "z": 57.0
          }
        }
      ]
    },
    {
      "name": "room_dungeon_close_huge_03",
      "reverbAuxBus": {
        "text": "aux_scene_dungeon_close_huge"
      },
      "keepRegister": true,
      "boxRoomTriggers": [
        {
          "BOIJMPNEPFO": {
            "x": 384.5,
            "y": -15.0,
            "z": 173.5
          },
          "size": {
            "x": 57.0,
            "y": 50.0,
            "z": 70.0
          }
        }
      ]
    }
  ],
  "portalList": [
    {
      "name": "portal_dungeon_close_huge_01_to_outdoor_l",
      "BOIJMPNEPFO": {
        "x": 538.7000122070312,
        "y": -65.0,
        "z": 206.0
      },
      "rotation": {
        "y": -90.0
      },
      "size": {
        "x": 57.0,
        "y": 70.0,
        "z": 10.0
      },
      "frontRoomName": "room_global",
      "backRoomName": "room_dungeon_close_huge_01"
    },
    {
      "name": "portal_dungeon_close_huge_01_to_outdoor_r",
      "BOIJMPNEPFO": {
        "x": 595.7000122070312,
        "y": -65.0,
        "z": 206.0
      },
      "rotation": {
        "y": 90.0
      },
      "size": {
        "x": 57.0,
        "y": 70.0,
        "z": 10.0
      },
      "frontRoomName": "room_global",
      "backRoomName": "room_dungeon_close_huge_01"
    },
    {
      "name": "portal_dungeon_close_huge_02_to_outdoor_r",
      "BOIJMPNEPFO": {
        "x": 481.5,
        "y": -15.0,
        "z": 275.0
      },
      "rotation": {
        "y": 90.0
      },
      "size": {
        "x": 57.0,
        "y": 50.0,
        "z": 10.0
      },
      "frontRoomName": "room_global",
      "backRoomName": "room_dungeon_close_huge_02"
    },
    {
      "name": "portal_dungeon_close_huge_02_to_outdoor_b",
      "BOIJMPNEPFO": {
        "x": 453.0,
        "y": -15.0,
        "z": 246.5
      },
      "size": {
        "x": 57.0,
        "y": 50.0,
        "z": 10.0
      },
      "frontRoomName": "room_dungeon_close_huge_02",
      "backRoomName": "room_global"
    },
    {
      "name": "portal_dungeon_close_huge_03_to_outdoor_r",
      "BOIJMPNEPFO": {
        "x": 413.0,
        "y": -15.0,
        "z": 173.5
      },
      "rotation": {
        "y": 90.0
      },
      "size": {
        "x": 70.0,
        "y": 50.0,
        "z": 10.0
      },
      "frontRoomName": "room_global",
      "backRoomName": "room_dungeon_close_huge_03"
    }
  ],
  "globalRoom": "room_global"
}