{
  "sceneId": 31402,
  "roomList": [
    {
      "name": "room_global",
      "reverbAuxBus": {
        "text": "aux_scene_tower_default"
      },
      "keepRegister": true
    },
    {
      "name": "room_tower_huge_close_room",
      "reverbAuxBus": {
        "text": "aux_scene_tower_close_huge"
      },
      "keepRegister": true,
      "boxRoomTriggers": [
        {
          "BOIJMPNEPFO": {
            "y": 10.0
          },
          "size": {
            "x": 55.0,
            "y": 40.0,
            "z": 50.0
          }
        }
      ]
    }
  ],
  "portalList": [
    {
      "name": "portal_tower_huge_close_room_to_outdoor_f",
      "BOIJMPNEPFO": {
        "y": 10.0,
        "z": 25.0
      },
      "size": {
        "x": 20.0,
        "y": 40.0,
        "z": 10.0
      },
      "frontRoomName": "room_global",
      "backRoomName": "room_tower_huge_close_room"
    },
    {
      "name": "portal_tower_huge_close_room_to_outdoor_b",
      "BOIJMPNEPFO": {
        "y": 10.0,
        "z": -25.0
      },
      "size": {
        "x": 20.0,
        "y": 40.0,
        "z": 10.0
      },
      "frontRoomName": "room_tower_huge_close_room",
      "backRoomName": "room_global"
    }
  ],
  "globalRoom": "room_global"
}