{
  "sceneId": 40009,
  "roomList": [
    {
      "name": "room_global",
      "reverbAuxBus": {
        "text": "aux_scene_dungeon_default"
      },
      "keepRegister": true
    },
    {
      "name": "room_dungeon_01_halfopen_middle",
      "reverbAuxBus": {
        "text": "aux_scene_dungeon_close_middle"
      },
      "keepRegister": true,
      "boxRoomTriggers": [
        {
          "BOIJMPNEPFO": {
            "x": -135.0,
            "y": -11.0,
            "z": 128.0
          },
          "size": {
            "x": 25.0,
            "y": 20.0,
            "z": 30.0
          }
        }
      ]
    },
    {
      "name": "room_dungeon_02_open_huge",
      "reverbAuxBus": {
        "text": "aux_scene_dungeon_open_huge"
      },
      "keepRegister": true,
      "boxRoomTriggers": [
        {
          "BOIJMPNEPFO": {
            "x": -146.5,
            "y": 5.0,
            "z": 85.0
          },
          "size": {
            "x": 50.0,
            "y": 55.0,
            "z": 30.0
          }
        }
      ]
    },
    {
      "name": "room_dungeon_03_close_small",
      "reverbAuxBus": {
        "text": "aux_scene_dungeon_close_small"
      },
      "keepRegister": true,
      "boxRoomTriggers": [
        {
          "BOIJMPNEPFO": {
            "x": -146.5,
            "y": 24.0,
            "z": 38.0
          },
          "size": {
            "x": 38.0,
            "y": 28.0,
            "z": 30.0
          }
        }
      ]
    }
  ],
  "portalList": [
    {
      "name": "portal_dungeon_01_halfopen_middle_to_outdoor_r",
      "BOIJMPNEPFO": {
        "x": -115.0,
        "y": -11.0,
        "z": 128.0
      },
      "rotation": {
        "y": 90.0
      },
      "size": {
        "x": 30.0,
        "y": 20.0,
        "z": 20.0
      },
      "frontRoomName": "room_global",
      "backRoomName": "room_dungeon_01_halfopen_middle"
    },
    {
      "name": "portal_01_halfopen_middle_to_02_open_huge",
      "BOIJMPNEPFO": {
        "x": -132.5,
        "y": -7.0,
        "z": 106.0
      },
      "size": {
        "x": 18.0,
        "y": 60.0,
        "z": 15.0
      },
      "frontRoomName": "room_dungeon_01_halfopen_middle",
      "backRoomName": "room_dungeon_02_open_huge"
    },
    {
      "name": "portal_02_open_huge_to_003_close_small",
      "BOIJMPNEPFO": {
        "x": -146.5,
        "y": 5.0,
        "z": 62.5
      },
      "size": {
        "x": 50.0,
        "y": 55.0,
        "z": 25.0
      },
      "frontRoomName": "room_dungeon_02_open_huge",
      "backRoomName": "room_dungeon_03_close_small"
    },
    {
      "name": "portal_01_halfopen_middle_to_outdoor_connect",
      "BOIJMPNEPFO": {
        "x": -132.5,
        "y": 22.5,
        "z": 114.0
      },
      "size": {
        "x": 45.0,
        "y": 50.0,
        "z": 8.0
      },
      "frontRoomName": "room_global",
      "backRoomName": "room_dungeon_01_halfopen_middle"
    }
  ],
  "globalRoom": "room_global"
}