{
  "luaDataPath": "",
  "entityBan": "",
  "disableNpcLod": true,
  "startFade": {
    "startFadeOutDuration": 0.0
  },
  "endFade": {
    "startFadeOutDuration": 0.0
  },
  "actors": [
    {
      "alias": "Avatar",
      "visible": true,
      "bornPointName": "",
      "relativePosNpcAlias": "",
      "_bindMovingTargetKey": ""
    },
    {
      "configID": 20447,
      "alias": "20447",
      "visible": true,
      "bornPointName": "",
      "relativePosNpcAlias": "",
      "_bindMovingTargetKey": ""
    },
    {
      "configID": 20446,
      "alias": "20446",
      "visible": true,
      "bornPointName": "",
      "relativePosNpcAlias": "",
      "_bindMovingTargetKey": ""
    }
  ],
  "group": [
    [
      {
        "$type": "IEKHMHNHENB",
        "type": "STEER_TO",
        "duration": 0.800000011920929,
        "aliasList": [
          "Avatar"
        ],
        "steerType": "TO_TARGET_ADVANCED",
        "useSteerAnim": true,
        "targetNpcAlias": "20447",
        "BHGPHGNFCBF": ""
      },
      {
        "$type": "MoleMole.Config.ConfigTimeProtectAction",
        "type": "TIME_PROTECT",
        "duration": 0.10000000149011612
      },
      {
        "$type": "EFHODGEJOHJ",
        "type": "CAMERA_FOCUS",
        "duration": 0.10000000149011612,
        "targetNpcAlias": "",
        "PHGBNNGCJKJ": "",
        "NFILMKCFHEB": "",
        "BGPNGHDAECF": ""
      }
    ],
    [
      {
        "$type": "MJFAIFFAGOF",
        "type": "DIALOG",
        "aliasList": [
          "20447"
        ],
        "dialogID": 721663201,
        "protectTime": 0.5
      }
    ],
    [
      {
        "$type": "MJFAIFFAGOF",
        "type": "DIALOG",
        "aliasList": [
          "20446"
        ],
        "dialogID": 721663202,
        "protectTime": 0.5
      }
    ],
    [
      {
        "$type": "MJFAIFFAGOF",
        "type": "DIALOG",
        "aliasList": [
          "20446"
        ],
        "dialogID": 721663203,
        "protectTime": 0.5
      }
    ],
    [
      {
        "$type": "MJFAIFFAGOF",
        "type": "DIALOG",
        "aliasList": [
          "20447"
        ],
        "dialogID": 721663204,
        "protectTime": 0.5
      }
    ],
    [
      {
        "$type": "MJFAIFFAGOF",
        "type": "DIALOG",
        "aliasList": [
          "20447"
        ],
        "dialogID": 721663205,
        "protectTime": 0.5
      }
    ],
    [
      {
        "$type": "MJFAIFFAGOF",
        "type": "DIALOG",
        "aliasList": [
          "20447"
        ],
        "dialogID": 721663206,
        "protectTime": 0.5
      }
    ],
    [
      {
        "$type": "MJFAIFFAGOF",
        "type": "DIALOG",
        "aliasList": [
          "20446"
        ],
        "dialogID": 721663207,
        "protectTime": 0.5
      }
    ],
    [
      {
        "$type": "MoleMole.Config.ConfigTimeProtectAction",
        "type": "TIME_PROTECT",
        "duration": 0.10000000149011612
      }
    ]
  ],
  "groupId": [
    {
      "grpId": 2625887120,
      "nextGrpId": 2625887121
    },
    {
      "index": 1,
      "grpId": 2625887121,
      "nextGrpId": 2625887122
    },
    {
      "index": 2,
      "grpId": 2625887122,
      "nextGrpId": 2625887123
    },
    {
      "index": 3,
      "grpId": 2625887123,
      "nextGrpId": 2625887124
    },
    {
      "index": 4,
      "grpId": 2625887124,
      "nextGrpId": 2625887125
    },
    {
      "index": 5,
      "grpId": 2625887125,
      "nextGrpId": 2625887126
    },
    {
      "index": 6,
      "grpId": 2625887126,
      "nextGrpId": 2625887127
    },
    {
      "index": 7,
      "grpId": 2625887127,
      "nextGrpId": 2625887128
    },
    {
      "index": 8,
      "grpId": 2625887128,
      "nextGrpId": 4093089440
    }
  ],
  "freeStyleDic": {
    "20447": [],
    "20446": []
  }
}