[
  {
    "id": 1,
    "IDAKAMDKBDF": 88,
    "BNOMFKCNAPJ": [
      {
        "MIMLFHGGIHN": 10206,
        "reviseLevel": 88
      },
      {
        "MIMLFHGGIHN": 10305,
        "reviseLevel": 88
      },
      {
        "MIMLFHGGIHN": 10105,
        "reviseLevel": 88
      },
      {
        "MIMLFHGGIHN": 10110,
        "reviseLevel": 88
      },
      {
        "MIMLFHGGIHN": 10114,
        "reviseLevel": 88
      },
      {
        "MIMLFHGGIHN": 10109,
        "reviseLevel": 88
      }
    ]
  },
  {
    "id": 2,
    "IDAKAMDKBDF": 88,
    "BNOMFKCNAPJ": [
      {
        "MIMLFHGGIHN": 61203,
        "reviseLevel": 88
      },
      {
        "MIMLFHGGIHN": 61201,
        "reviseLevel": 88
      },
      {
        "MIMLFHGGIHN": 61202,
        "reviseLevel": 88
      },
      {
        "MIMLFHGGIHN": 61204,
        "reviseLevel": 88
      },
      {
        "MIMLFHGGIHN": 53101,
        "reviseLevel": 88
      },
      {
        "MIMLFHGGIHN": 53102,
        "reviseLevel": 88
      },
      {
        "MIMLFHGGIHN": 53103,
        "reviseLevel": 88
      }
    ]
  },
  {
    "id": 3,
    "IDAKAMDKBDF": 90,
    "BNOMFKCNAPJ": [
      {
        "MIMLFHGGIHN": 60401,
        "reviseLevel": 90
      },
      {
        "MIMLFHGGIHN": 60509,
        "reviseLevel": 90
      },
      {
        "MIMLFHGGIHN": 60510,
        "reviseLevel": 90
      },
      {
        "MIMLFHGGIHN": 60511,
        "reviseLevel": 90
      },
      {
        "MIMLFHGGIHN": 40202,
        "reviseLevel": 90
      },
      {
        "MIMLFHGGIHN": 40204,
        "reviseLevel": 90
      },
      {
        "MIMLFHGGIHN": 50801,
        "reviseLevel": 90
      }
    ]
  },
  {
    "id": 4,
    "IDAKAMDKBDF": 90,
    "BNOMFKCNAPJ": [
      {
        "MIMLFHGGIHN": 113,
        "reviseLevel": 90
      },
      {
        "MIMLFHGGIHN": 109,
        "reviseLevel": 90
      },
      {
        "MIMLFHGGIHN": 106,
        "reviseLevel": 90
      },
      {
        "MIMLFHGGIHN": 107,
        "reviseLevel": 90
      },
      {
        "MIMLFHGGIHN": 60101,
        "reviseLevel": 90
      },
      {
        "MIMLFHGGIHN": 60102,
        "reviseLevel": 90
      },
      {
        "MIMLFHGGIHN": 60103,
        "reviseLevel": 90
      },
      {
        "MIMLFHGGIHN": 606,
        "reviseLevel": 90
      },
      {
        "MIMLFHGGIHN": 604,
        "reviseLevel": 90
      },
      {
        "MIMLFHGGIHN": 605,
        "reviseLevel": 90
      },
      {
        "MIMLFHGGIHN": 61601,
        "reviseLevel": 90
      },
      {
        "MIMLFHGGIHN": 61602,
        "reviseLevel": 90
      },
      {
        "MIMLFHGGIHN": 61603,
        "reviseLevel": 90
      }
    ]
  },
  {
    "id": 5,
    "IDAKAMDKBDF": 92,
    "BNOMFKCNAPJ": [
      {
        "MIMLFHGGIHN": 10206,
        "reviseLevel": 92
      },
      {
        "MIMLFHGGIHN": 10204,
        "reviseLevel": 92
      },
      {
        "MIMLFHGGIHN": 20102,
        "reviseLevel": 92
      },
      {
        "MIMLFHGGIHN": 10106,
        "reviseLevel": 92
      }
    ]
  },
  {
    "id": 6,
    "IDAKAMDKBDF": 92,
    "BNOMFKCNAPJ": [
      {
        "MIMLFHGGIHN": 10401,
        "reviseLevel": 92
      },
      {
        "MIMLFHGGIHN": 40102,
        "reviseLevel": 92
      },
      {
        "MIMLFHGGIHN": 40301,
        "reviseLevel": 92
      }
    ]
  },
  {
    "id": 7,
    "IDAKAMDKBDF": 95,
    "BNOMFKCNAPJ": [
      {
        "MIMLFHGGIHN": 50904,
        "reviseLevel": 95
      },
      {
        "MIMLFHGGIHN": 50902,
        "reviseLevel": 95
      },
      {
        "MIMLFHGGIHN": 50903,
        "reviseLevel": 95
      }
    ]
  },
  {
    "id": 8,
    "IDAKAMDKBDF": 95,
    "BNOMFKCNAPJ": [
      {
        "MIMLFHGGIHN": 30501,
        "reviseLevel": 95
      },
      {
        "MIMLFHGGIHN": 30603,
        "reviseLevel": 95
      },
      {
        "MIMLFHGGIHN": 30604,
        "reviseLevel": 95
      },
      {
        "MIMLFHGGIHN": 51001,
        "reviseLevel": 95
      },
      {
        "MIMLFHGGIHN": 51002,
        "reviseLevel": 95
      },
      {
        "MIMLFHGGIHN": 30106,
        "reviseLevel": 95
      }
    ]
  },
  {
    "id": 9,
    "IDAKAMDKBDF": 98,
    "BNOMFKCNAPJ": [
      {
        "MIMLFHGGIHN": 40701,
        "reviseLevel": 98
      }
    ]
  },
  {
    "id": 10,
    "IDAKAMDKBDF": 98,
    "BNOMFKCNAPJ": [
      {
        "MIMLFHGGIHN": 30201,
        "reviseLevel": 98
      },
      {
        "MIMLFHGGIHN": 20301,
        "reviseLevel": 98
      },
      {
        "MIMLFHGGIHN": 54101,
        "reviseLevel": 98
      },
      {
        "MIMLFHGGIHN": 54102,
        "reviseLevel": 98
      }
    ]
  },
  {
    "id": 11,
    "IDAKAMDKBDF": 100,
    "BNOMFKCNAPJ": [
      {
        "MIMLFHGGIHN": 30101,
        "reviseLevel": 100
      },
      {
        "MIMLFHGGIHN": 50801,
        "reviseLevel": 100
      },
      {
        "MIMLFHGGIHN": 53103,
        "reviseLevel": 100
      },
      {
        "MIMLFHGGIHN": 40658,
        "reviseLevel": 100
      },
      {
        "MIMLFHGGIHN": 40651,
        "reviseLevel": 100
      },
      {
        "MIMLFHGGIHN": 40662,
        "reviseLevel": 100
      }
    ]
  },
  {
    "id": 12,
    "IDAKAMDKBDF": 100,
    "BNOMFKCNAPJ": [
      {
        "MIMLFHGGIHN": 21001,
        "reviseLevel": 100
      }
    ]
  }
]