[
  {
    "id": 20600100,
    "switchValue": {
      "text": ""
    },
    "timeTransitions": {
      "fixedTimes": [
        {
          "transitions": {
            "shifters": [
              {
                "targetSongId": 20600102,
                "rootConditionId": 10161002
              },
              {
                "targetSongId": 20600103,
                "rootConditionId": 10161001
              },
              {
                "targetSongId": 20600101,
                "rootConditionId": 10000001
              }
            ]
          },
          "fixedTime": 0.5
        }
      ]
    }
  },
  {
    "id": 20600101,
    "switchValue": {
      "text": "Switch_Scene_MengDe_AngelShare"
    },
    "stimulusHandlers": [
      {
        "$type": "KCBEIOIBDNH",
        "stimulus": "CutsceneCustom",
        "transitions": {
          "shifters": [
            {
              "targetSongId": 20500016,
              "rootConditionId": 10000001
            }
          ]
        },
        "stringParam": "InAngelShareBegin"
      },
      {
        "$type": "BPPBJFLAIFH",
        "stimulus": "DialogBegin",
        "transitions": {
          "shifters": [
            {
              "targetSongId": 20600105,
              "rootConditionId": 10000001
            }
          ]
        },
        "uintParam": 3790301
      }
    ]
  },
  {
    "id": 20600102,
    "switchValue": {
      "text": "Switch_Quest_Unsettling"
    },
    "stimulusHandlers": [
      {
        "$type": "BPPBJFLAIFH",
        "stimulus": "DialogBegin",
        "transitions": {
          "shifters": [
            {
              "targetSongId": 20600104,
              "rootConditionId": 10000001
            }
          ]
        },
        "uintParam": 3771201
      }
    ]
  },
  {
    "id": 20600103,
    "switchValue": {
      "text": ""
    },
    "stimulusHandlers": [
      {
        "$type": "BPPBJFLAIFH",
        "stimulus": "DialogBegin",
        "transitions": {
          "shifters": [
            {
              "targetSongId": 20600102,
              "rootConditionId": 10000001
            }
          ]
        },
        "uintParam": 3770201
      }
    ]
  },
  {
    "id": 20600104,
    "switchValue": {
      "text": ""
    },
    "stimulusHandlers": [
      {
        "$type": "BPPBJFLAIFH",
        "stimulus": "DialogEnd",
        "transitions": {
          "shifters": [
            {
              "targetSongId": 20600101,
              "rootConditionId": 10000001
            }
          ]
        },
        "uintParam": 3771212
      }
    ]
  },
  {
    "id": 20600105,
    "switchValue": {
      "text": ""
    },
    "stimulusHandlers": [
      {
        "$type": "BPPBJFLAIFH",
        "stimulus": "DialogBegin",
        "transitions": {
          "shifters": [
            {
              "targetSongId": 20600106,
              "rootConditionId": 10000001
            }
          ]
        },
        "uintParam": 3790401
      }
    ]
  },
  {
    "id": 20600106,
    "switchValue": {
      "text": "Switch_Quest_ThemeVenti"
    },
    "stimulusHandlers": [
      {
        "$type": "BPPBJFLAIFH",
        "stimulus": "DialogBegin",
        "transitions": {
          "shifters": [
            {
              "targetSongId": 20600107,
              "rootConditionId": 10000001
            }
          ]
        },
        "uintParam": 3820201
      }
    ]
  },
  {
    "id": 20600107,
    "switchValue": {
      "text": ""
    },
    "stimulusHandlers": [
      {
        "$type": "BPPBJFLAIFH",
        "stimulus": "DialogEnd",
        "transitions": {
          "shifters": [
            {
              "targetSongId": 20600101,
              "rootConditionId": 10000001
            }
          ]
        },
        "uintParam": 3820217
      }
    ]
  },
  {
    "id": 20600200,
    "switchValue": {
      "text": "Switch_Scene_MengDe_Church"
    },
    "stimulusHandlers": [
      {
        "$type": "KCBEIOIBDNH",
        "stimulus": "CutsceneCustom",
        "transitions": {
          "shifters": [
            {
              "targetSongId": 20500019,
              "rootConditionId": 10000001
            }
          ]
        },
        "stringParam": "BabaraArrivedBegin"
      }
    ]
  },
  {
    "id": 20600300,
    "switchValue": {
      "text": "Switch_Scene_MengDe_ChurchBasement"
    }
  },
  {
    "id": 20600400,
    "switchValue": {
      "text": "Switch_Scene_MengDe_DilucHouse"
    }
  },
  {
    "id": 20600500,
    "switchValue": {
      "text": ""
    },
    "timeTransitions": {
      "fixedTimes": [
        {
          "transitions": {
            "shifters": [
              {
                "targetSongId": 20600502,
                "rootConditionId": 10160001
              },
              {
                "targetSongId": 20600501,
                "rootConditionId": 10000001
              }
            ]
          },
          "fixedTime": 0.5
        }
      ]
    }
  },
  {
    "id": 20600501,
    "switchValue": {
      "text": "Switch_Scene_MengDe_Knight"
    },
    "stimulusHandlers": [
      {
        "$type": "BPPBJFLAIFH",
        "stimulus": "DialogBegin",
        "transitions": {
          "shifters": [
            {
              "targetSongId": 20600504,
              "rootConditionId": 10000001
            }
          ]
        },
        "uintParam": 3700401
      }
    ]
  },
  {
    "id": 20600502,
    "switchValue": {
      "text": "Switch_Quest_Unsettling"
    }
  },
  {
    "id": 20600503,
    "switchValue": {
      "text": "Switch_Quest_Honor"
    }
  },
  {
    "id": 20600504,
    "switchValue": {
      "text": ""
    },
    "stimulusHandlers": [
      {
        "$type": "BPPBJFLAIFH",
        "stimulus": "DialogBegin",
        "transitions": {
          "shifters": [
            {
              "targetSongId": 20600503,
              "rootConditionId": 10000001
            }
          ]
        },
        "uintParam": 3700422
      }
    ]
  }
]