[
  {
    "id": 20700001,
    "switchValue": {
      "text": "Switch_Dungeon_Electric"
    }
  },
  {
    "id": 20700002,
    "switchValue": {
      "text": "Switch_Dungeon_Fire"
    }
  },
  {
    "id": 20700003,
    "switchValue": {
      "text": "Switch_Dungeon_Ice"
    }
  },
  {
    "id": 20700004,
    "switchValue": {
      "text": "Switch_Dungeon_PFDungeon"
    }
  },
  {
    "id": 20700005,
    "switchValue": {
      "text": "Switch_Dungeon_Qin"
    }
  },
  {
    "id": 20700006,
    "switchValue": {
      "text": "Switch_Dungeon_TutAmbor"
    },
    "stimulusHandlers": [
      {
        "$type": "BPPBJFLAIFH",
        "stimulus": "DialogBegin",
        "transitions": {
          "shifters": [
            {
              "targetSongId": 20000004,
              "rootConditionId": 10000001
            }
          ]
        },
        "uintParam": 3061001
      }
    ]
  },
  {
    "id": 20700007,
    "switchValue": {
      "text": "Switch_Dungeon_TutKaeya"
    },
    "stimulusHandlers": [
      {
        "$type": "KCBEIOIBDNH",
        "stimulus": "CutsceneCustom",
        "transitions": {
          "shifters": [
            {
              "targetSongId": 20500009,
              "rootConditionId": 10000001
            }
          ]
        },
        "stringParam": "KaeyaTuts2Begin"
      },
      {
        "$type": "KCBEIOIBDNH",
        "stimulus": "CutsceneCustom",
        "transitions": {
          "shifters": [
            {
              "targetSongId": 20500009,
              "rootConditionId": 10000001
            }
          ]
        },
        "stringParam": "KaeyaTutsBegin"
      }
    ]
  },
  {
    "id": 20700008,
    "switchValue": {
      "text": "Switch_Dungeon_TutLisa"
    }
  },
  {
    "id": 20700009,
    "switchValue": {
      "text": "Switch_Dungeon_Water"
    }
  },
  {
    "id": 20700010,
    "switchValue": {
      "text": "Switch_Dungeon_Weekly"
    }
  }
]