[
  {
    "id": 32300001,
    "switchValue": {
      "text": "Switch_Quest_NiceDay"
    },
    "stimulusHandlers": [
      {
        "$type": "BPPBJFLAIFH",
        "stimulus": "DialogEnd",
        "transitions": {
          "shifters": [
            {
              "targetSongId": 20100002,
              "rootConditionId": 10010009
            },
            {
              "targetSongId": 20100003,
              "rootConditionId": 10010011
            },
            {
              "targetSongId": 20100009,
              "rootConditionId": 10320005
            }
          ]
        },
        "uintParam": 110000329
      }
    ]
  },
  {
    "id": 32300002,
    "switchValue": {
      "text": ""
    },
    "stimulusHandlers": [
      {
        "$type": "BPPBJFLAIFH",
        "stimulus": "DialogEnd",
        "transitions": {
          "shifters": [
            {
              "targetSongId": 20100002,
              "rootConditionId": 10010009
            },
            {
              "targetSongId": 20100003,
              "rootConditionId": 10010011
            },
            {
              "targetSongId": 20100009,
              "rootConditionId": 10320005
            }
          ]
        },
        "uintParam": 110000617
      }
    ]
  },
  {
    "id": 32300003,
    "switchValue": {
      "text": ""
    },
    "stimulusHandlers": [
      {
        "$type": "BPPBJFLAIFH",
        "stimulus": "DialogBegin",
        "transitions": {
          "shifters": [
            {
              "targetSongId": 32300004,
              "rootConditionId": 10000001
            }
          ]
        },
        "uintParam": 110010218
      }
    ]
  },
  {
    "id": 32300004,
    "switchValue": {
      "text": "Switch_Quest_Bond"
    },
    "stimulusHandlers": [
      {
        "$type": "BPPBJFLAIFH",
        "stimulus": "DialogEnd",
        "transitions": {
          "shifters": [
            {
              "targetSongId": 20100002,
              "rootConditionId": 10010009
            },
            {
              "targetSongId": 20100003,
              "rootConditionId": 10010011
            },
            {
              "targetSongId": 20100009,
              "rootConditionId": 10320005
            }
          ]
        },
        "uintParam": 110010226
      }
    ]
  }
]