{
  "name": "Card_Support_4210012",
  "declaredValueMap": {
    "476224977": {
      "$type": "LFFKCHGMHAM",
      "KPGKDHAFHFE": "Element",
      "value": "GCG_ELEMENT_HYDRO"
    },
    "-1197212178": {
      "$type": "AFENILPABJH",
      "KPGKDHAFHFE": "EffectNum",
      "value": 1
    }
  }
}