{
  "name": "Char_Skill_16043",
  "declaredValueMap": {
    "-2060930438": {
      "$type": "LLNKPHOPKHH",
      "value": 4
    },
    "476224977": {
      "$type": "LFFKCHGMHAM",
      "KPGKDHAFHFE": "Element",
      "value": "GCG_ELEMENT_GEO"
    },
    "-253958709": {
      "$type": "LLNKPHOPKHH",
      "value": 6
    }
  }
}