{
  "name": "Char_Skill_34014_Ex_2",
  "declaredValueMap": {
    "-1197212178": {
      "$type": "AFENILPABJH",
      "KPGKDHAFHFE": "EffectNum",
      "value": 3
    },
    "-2067715720": {
      "$type": "AFENILPABJH",
      "KPGKDHAFHFE": "EffectNum",
      "value": 1
    }
  }
}