{
  "name": "Char_Skill_13063",
  "declaredValueMap": {
    "-2060930438": {
      "$type": "LLNKPHOPKHH",
      "value": 3
    },
    "476224977": {
      "$type": "LFFKCHGMHAM",
      "KPGKDHAFHFE": "Element",
      "value": "GCG_ELEMENT_PYRO"
    }
  }
}