{
  "name": "Char_Skill_34063",
  "declaredValueMap": {
    "476224977": {
      "$type": "LFFKCHGMHAM",
      "KPGKDHAFHFE": "Element",
      "value": "GCG_ELEMENT_ELECTRO"
    },
    "-1197212178": {
      "$type": "AFENILPABJH",
      "KPGKDHAFHFE": "EffectNum",
      "value": 1
    }
  }
}