{
  "name": "Char_Skill_37024",
  "declaredValueMap": {
    "-1197212178": {
      "$type": "AFENILPABJH",
      "KPGKDHAFHFE": "EffectNum",
      "value": 1
    },
    "476224977": {
      "$type": "LFFKCHGMHAM",
      "KPGKDHAFHFE": "Element",
      "value": "GCG_ELEMENT_DENDRO"
    }
  }
}