{
  "name": "Char_Skill_21031",
  "declaredValueMap": {
    "-2060930438": {
      "$type": "LLNKPHOPKHH",
      "value": 1
    },
    "476224977": {
      "$type": "LFFKCHGMHAM",
      "KPGKDHAFHFE": "Element",
      "value": "GCG_ELEMENT_CRYO"
    },
    "-1131128448": {
      "$type": "POAHOHLFJLE",
      "KPGKDHAFHFE": "IndirectDamage",
      "value": 1
    },
    "2021201379": {
      "$type": "LFFKCHGMHAM",
      "KPGKDHAFHFE": "Element"
    }
  }
}