{
  "name": "Char_Skill_13101",
  "declaredValueMap": {
    "-2060930438": {
      "$type": "LLNKPHOPKHH",
      "value": 2
    },
    "476224977": {
      "$type": "LFFKCHGMHAM",
      "KPGKDHAFHFE": "Element"
    },
    "-1906859897": {
      "$type": "AFENILPABJH",
      "KPGKDHAFHFE": "EffectNum",
      "value": 1
    },
    "-1906859898": {
      "$type": "AFENILPABJH",
      "KPGKDHAFHFE": "EffectNum"
    }
  }
}