{
  "name": "Char_Skill_13102",
  "declaredValueMap": {
    "-2060930438": {
      "$type": "LLNKPHOPKHH",
      "value": 2
    },
    "476224977": {
      "$type": "LFFKCHGMHAM",
      "KPGKDHAFHFE": "Element",
      "value": "GCG_ELEMENT_PYRO"
    },
    "-1197212178": {
      "$type": "AFENILPABJH",
      "KPGKDHAFHFE": "EffectNum",
      "value": 1
    },
    "-1131128448": {
      "$type": "POAHOHLFJLE",
      "KPGKDHAFHFE": "IndirectDamage",
      "value": 1
    },
    "-2039037404": {
      "$type": "LFFKCHGMHAM",
      "KPGKDHAFHFE": "Element"
    },
    "-1906859897": {
      "$type": "AFENILPABJH",
      "KPGKDHAFHFE": "EffectNum",
      "value": 1
    },
    "-1906859898": {
      "$type": "AFENILPABJH",
      "KPGKDHAFHFE": "EffectNum"
    }
  }
}