{
  "name": "Char_Skill_33037",
  "declaredValueMap": {
    "-2060930438": {
      "$type": "LLNKPHOPKHH",
      "value": 6
    },
    "476224977": {
      "$type": "LFFKCHGMHAM",
      "KPGKDHAFHFE": "Element"
    }
  }
}