{
  "name": "Effect_Damage_Physic_5",
  "declaredValueMap": {
    "-2060930438": {
      "$type": "LLNKPHOPKHH",
      "value": 5
    },
    "476224977": {
      "$type": "LFFKCHGMHAM",
      "KPGKDHAFHFE": "Element"
    }
  }
}