{
  "luaDataPath": "",
  "isSimpleTalk": true,
  "entityBan": "",
  "disableNpcLod": true,
  "startFade": {
    "startFadeOutDuration": 0.0
  },
  "endFade": {
    "startFadeOutDuration": 0.0
  },
  "actors": [
    {
      "alias": "Avatar",
      "visible": true,
      "bornPointName": "",
      "relativePosNpcAlias": "",
      "_bindMovingTargetKey": ""
    },
    {
      "configID": 20240,
      "alias": "20240",
      "visible": true,
      "bornPointName": "",
      "relativePosNpcAlias": "",
      "_bindMovingTargetKey": ""
    },
    {
      "configID": 1005,
      "alias": "1005",
      "visible": true,
      "bornPointName": "",
      "useRelativePos": true,
      "relativePos": {
        "x": -0.5,
        "z": 0.5
      },
      "removeActorType": "REMOVE_WITH_DISAPPEAR",
      "relativePosNpcAlias": "",
      "_bindMovingTargetKey": ""
    }
  ],
  "group": [
    [
      {
        "$type": "EFHODGEJOHJ",
        "type": "CAMERA_FOCUS",
        "duration": 0.10000000149011612,
        "targetNpcAlias": "",
        "PHGBNNGCJKJ": "",
        "NFILMKCFHEB": "",
        "BGPNGHDAECF": ""
      },
      {
        "$type": "MoleMole.Config.ConfigTimeProtectAction",
        "type": "TIME_PROTECT",
        "duration": 0.10000000149011612
      }
    ],
    [
      {
        "$type": "IEKHMHNHENB",
        "type": "STEER_TO",
        "duration": 0.800000011920929,
        "aliasList": [
          "Avatar"
        ],
        "steerType": "TO_TARGET",
        "useSteerAnim": true,
        "targetNpcAlias": "20240",
        "BHGPHGNFCBF": ""
      },
      {
        "$type": "MJFAIFFAGOF",
        "type": "DIALOG",
        "aliasList": [
          "20240"
        ],
        "dialogID": 721401901,
        "protectTime": 0.5
      },
      {
        "$type": "IEKHMHNHENB",
        "type": "STEER_TO",
        "duration": 0.800000011920929,
        "aliasList": [
          "20240"
        ],
        "steerType": "TO_TARGET",
        "useSteerAnim": true,
        "targetNpcAlias": "Avatar",
        "BHGPHGNFCBF": ""
      }
    ],
    [
      {
        "$type": "OBCDECFOOBC",
        "type": "DIALOG_SELECT",
        "delayTime": 0.4000000059604645,
        "aliasList": [
          "Avatar"
        ],
        "dialogIDList": [
          721401903,
          721401904
        ],
        "grpIDList": [
          2375344540,
          2375344540
        ],
        "useGrpId": true
      },
      {
        "$type": "MJFAIFFAGOF",
        "type": "DIALOG",
        "aliasList": [
          "1005"
        ],
        "dialogID": 721401902,
        "protectTime": 0.5
      }
    ],
    [
      {
        "$type": "MJFAIFFAGOF",
        "type": "DIALOG",
        "aliasList": [
          "20240"
        ],
        "dialogID": 721401905,
        "protectTime": 0.5
      }
    ],
    [
      {
        "$type": "MJFAIFFAGOF",
        "type": "DIALOG",
        "aliasList": [
          "1005"
        ],
        "dialogID": 721401906,
        "protectTime": 0.5
      }
    ],
    [
      {
        "$type": "MJFAIFFAGOF",
        "type": "DIALOG",
        "aliasList": [
          "1005"
        ],
        "dialogID": 721401907,
        "protectTime": 0.5
      }
    ],
    [
      {
        "$type": "OBCDECFOOBC",
        "type": "DIALOG_SELECT",
        "delayTime": 0.4000000059604645,
        "aliasList": [
          "Avatar"
        ],
        "dialogIDList": [
          721401909
        ],
        "grpIDList": [
          2375344544
        ],
        "useGrpId": true
      },
      {
        "$type": "MJFAIFFAGOF",
        "type": "DIALOG",
        "aliasList": [
          "1005"
        ],
        "dialogID": 721401908,
        "protectTime": 0.5
      }
    ],
    [
      {
        "$type": "OBCDECFOOBC",
        "type": "DIALOG_SELECT",
        "delayTime": 0.4000000059604645,
        "aliasList": [
          "Avatar"
        ],
        "dialogIDList": [
          721401911
        ],
        "grpIDList": [
          2375344545
        ],
        "useGrpId": true
      },
      {
        "$type": "MJFAIFFAGOF",
        "type": "DIALOG",
        "aliasList": [
          "1005"
        ],
        "dialogID": 721401910,
        "protectTime": 0.5
      }
    ],
    [
      {
        "$type": "MJFAIFFAGOF",
        "type": "DIALOG",
        "aliasList": [
          "1005"
        ],
        "dialogID": 721401912,
        "protectTime": 0.5
      }
    ],
    [
      {
        "$type": "MJFAIFFAGOF",
        "type": "DIALOG",
        "aliasList": [
          "20240"
        ],
        "dialogID": 721401913,
        "protectTime": 0.5
      }
    ],
    [
      {
        "$type": "MJFAIFFAGOF",
        "type": "DIALOG",
        "aliasList": [
          "20240"
        ],
        "dialogID": 721401914,
        "protectTime": 0.5
      }
    ],
    [
      {
        "$type": "MJFAIFFAGOF",
        "type": "DIALOG",
        "aliasList": [
          "1005"
        ],
        "dialogID": 721401915,
        "protectTime": 0.5
      }
    ],
    [
      {
        "$type": "MJFAIFFAGOF",
        "type": "DIALOG",
        "aliasList": [
          "20240"
        ],
        "dialogID": 721401916,
        "protectTime": 0.5
      }
    ],
    [
      {
        "$type": "MJFAIFFAGOF",
        "type": "DIALOG",
        "aliasList": [
          "20240"
        ],
        "dialogID": 721401917,
        "protectTime": 0.5
      }
    ],
    [
      {
        "$type": "MJFAIFFAGOF",
        "type": "DIALOG",
        "aliasList": [
          "20240"
        ],
        "dialogID": 721401918,
        "protectTime": 0.5
      }
    ],
    [
      {
        "$type": "OBCDECFOOBC",
        "type": "DIALOG_SELECT",
        "delayTime": 0.4000000059604645,
        "aliasList": [
          "Avatar"
        ],
        "dialogIDList": [
          721401920,
          721401921
        ],
        "grpIDList": [
          621236670,
          621236670
        ],
        "useGrpId": true
      },
      {
        "$type": "MJFAIFFAGOF",
        "type": "DIALOG",
        "aliasList": [
          "1005"
        ],
        "dialogID": 721401919,
        "protectTime": 0.5
      }
    ],
    [
      {
        "$type": "MJFAIFFAGOF",
        "type": "DIALOG",
        "aliasList": [
          "20240"
        ],
        "dialogID": 721401922,
        "protectTime": 0.5
      }
    ],
    [
      {
        "$type": "OBCDECFOOBC",
        "type": "DIALOG_SELECT",
        "delayTime": 0.4000000059604645,
        "aliasList": [
          "Avatar"
        ],
        "dialogIDList": [
          721401924,
          721401925
        ],
        "grpIDList": [
          621236672,
          621236672
        ],
        "useGrpId": true
      },
      {
        "$type": "MJFAIFFAGOF",
        "type": "DIALOG",
        "aliasList": [
          "1005"
        ],
        "dialogID": 721401923,
        "protectTime": 0.5
      }
    ],
    [
      {
        "$type": "MJFAIFFAGOF",
        "type": "DIALOG",
        "aliasList": [
          "20240"
        ],
        "dialogID": 721401926,
        "protectTime": 0.5
      }
    ],
    [
      {
        "$type": "MJFAIFFAGOF",
        "type": "DIALOG",
        "aliasList": [
          "20240"
        ],
        "dialogID": 721401927,
        "protectTime": 0.5
      }
    ],
    [
      {
        "$type": "MJFAIFFAGOF",
        "type": "DIALOG",
        "aliasList": [
          "1005"
        ],
        "dialogID": 721401928,
        "protectTime": 0.5
      }
    ],
    [
      {
        "$type": "MoleMole.Config.ConfigTimeProtectAction",
        "type": "TIME_PROTECT",
        "duration": 0.10000000149011612
      },
      {
        "$type": "IEKHMHNHENB",
        "type": "STEER_TO",
        "duration": 0.800000011920929,
        "aliasList": [
          "20240"
        ],
        "steerType": "RETURN",
        "useSteerAnim": true,
        "targetNpcAlias": "",
        "BHGPHGNFCBF": ""
      }
    ]
  ],
  "groupId": [
    {
      "grpId": 2375344537,
      "nextGrpId": 2375344538
    },
    {
      "index": 1,
      "grpId": 2375344538,
      "nextGrpId": 2375344539
    },
    {
      "index": 2,
      "grpId": 2375344539,
      "nextGrpId": 2375344540
    },
    {
      "index": 3,
      "grpId": 2375344540,
      "nextGrpId": 2375344541
    },
    {
      "index": 4,
      "grpId": 2375344541,
      "nextGrpId": 2375344542
    },
    {
      "index": 5,
      "grpId": 2375344542,
      "nextGrpId": 2375344543
    },
    {
      "index": 6,
      "grpId": 2375344543,
      "nextGrpId": 2375344544
    },
    {
      "index": 7,
      "grpId": 2375344544,
      "nextGrpId": 2375344545
    },
    {
      "index": 8,
      "grpId": 2375344545,
      "nextGrpId": 621236663
    },
    {
      "index": 9,
      "grpId": 621236663,
      "nextGrpId": 621236664
    },
    {
      "index": 10,
      "grpId": 621236664,
      "nextGrpId": 621236665
    },
    {
      "index": 11,
      "grpId": 621236665,
      "nextGrpId": 621236666
    },
    {
      "index": 12,
      "grpId": 621236666,
      "nextGrpId": 621236667
    },
    {
      "index": 13,
      "grpId": 621236667,
      "nextGrpId": 621236668
    },
    {
      "index": 14,
      "grpId": 621236668,
      "nextGrpId": 621236669
    },
    {
      "index": 15,
      "grpId": 621236669,
      "nextGrpId": 621236670
    },
    {
      "index": 16,
      "grpId": 621236670,
      "nextGrpId": 621236671
    },
    {
      "index": 17,
      "grpId": 621236671,
      "nextGrpId": 621236672
    },
    {
      "index": 18,
      "grpId": 621236672,
      "nextGrpId": 621236694
    },
    {
      "index": 19,
      "grpId": 621236694,
      "nextGrpId": 621236695
    },
    {
      "index": 20,
      "grpId": 621236695,
      "nextGrpId": 621236696
    },
    {
      "index": 21,
      "grpId": 621236696,
      "nextGrpId": 621236697
    }
  ],
  "freeStyleDic": {
    "20240": []
  }
}