{
  "id": 10101,
  "resId": 2004,
  "series": 2004,
  "KPGKDHAFHFE": "LQ",
  "titleTextMapHash": 1357450129,
  "descTextMapHash": 3033594967,
  "luaPath": "Actor/Quest/LQ10101",
  "rewardIdList": [
    110101
  ],
  "chapterId": 2004,
  "subQuests": [
    {
      "subId": 1010101,
      "mainId": 10101,
      "order": 5,
      "descTextMapHash": 2970053999,
      "finishCond": [
        {
          "KPGKDHAFHFE": "QUEST_CONTENT_FINISH_PLOT",
          "param": [
            1010101,
            0
          ]
        }
      ],
      "failCond": [
        {
          "KPGKDHAFHFE": "QUEST_CONTENT_LEAVE_SCENE_RANGE",
          "param": [
            3,
            120
          ]
        }
      ],
      "guide": {
        "KPGKDHAFHFE": "QUEST_GUIDE_LOCATION",
        "param": [
          "Q10101BookRoute2",
          "120"
        ],
        "guideScene": 3
      },
      "guideHint": {
        "param1": ""
      },
      "failExec": [
        {
          "KPGKDHAFHFE": "QUEST_EXEC_ROLLBACK_QUEST",
          "param": [
            "1010119"
          ]
        }
      ],
      "versionBegin": "",
      "versionEnd": ""
    },
    {
      "subId": 1010102,
      "mainId": 10101,
      "order": 6,
      "descTextMapHash": 2639497479,
      "showType": "QUEST_HIDDEN",
      "finishCond": [
        {
          "KPGKDHAFHFE": "QUEST_CONTENT_TRIGGER_FIRE",
          "param": [
            1108,
            0
          ]
        }
      ],
      "guide": {},
      "guideHint": {
        "param1": ""
      },
      "versionBegin": "",
      "versionEnd": ""
    },
    {
      "subId": 1010103,
      "mainId": 10101,
      "order": 7,
      "descTextMapHash": 3291058367,
      "showType": "QUEST_HIDDEN",
      "finishCond": [
        {
          "KPGKDHAFHFE": "QUEST_CONTENT_TRIGGER_FIRE",
          "param": [
            1109,
            0
          ]
        }
      ],
      "guide": {},
      "guideHint": {
        "param1": ""
      },
      "versionBegin": "",
      "versionEnd": ""
    },
    {
      "subId": 1010104,
      "mainId": 10101,
      "order": 8,
      "descTextMapHash": 3052756631,
      "showType": "QUEST_HIDDEN",
      "finishCond": [
        {
          "KPGKDHAFHFE": "QUEST_CONTENT_TRIGGER_FIRE",
          "param": [
            1110,
            0
          ]
        }
      ],
      "guide": {},
      "guideHint": {
        "param1": ""
      },
      "versionBegin": "",
      "versionEnd": ""
    },
    {
      "subId": 1010105,
      "mainId": 10101,
      "order": 9,
      "descTextMapHash": 1682718431,
      "showType": "QUEST_HIDDEN",
      "finishCond": [
        {
          "KPGKDHAFHFE": "QUEST_CONTENT_TRIGGER_FIRE",
          "param": [
            1111,
            0
          ]
        }
      ],
      "guide": {},
      "guideHint": {
        "param1": ""
      },
      "versionBegin": "",
      "versionEnd": ""
    },
    {
      "subId": 1010106,
      "mainId": 10101,
      "order": 10,
      "descTextMapHash": 1093754391,
      "showType": "QUEST_HIDDEN",
      "finishCond": [
        {
          "KPGKDHAFHFE": "QUEST_CONTENT_TRIGGER_FIRE",
          "param": [
            1112,
            0
          ]
        }
      ],
      "guide": {},
      "guideHint": {
        "param1": ""
      },
      "finishExec": [
        {
          "KPGKDHAFHFE": "QUEST_EXEC_REFRESH_GROUP_SUITE",
          "param": [
            "3",
            "133003473,1"
          ]
        }
      ],
      "versionBegin": "",
      "versionEnd": ""
    },
    {
      "subId": 1010107,
      "mainId": 10101,
      "order": 13,
      "descTextMapHash": 2215556519,
      "finishCond": [
        {
          "KPGKDHAFHFE": "QUEST_CONTENT_ENTER_DUNGEON",
          "param": [
            1002,
            89
          ]
        }
      ],
      "guide": {
        "KPGKDHAFHFE": "QUEST_GUIDE_LOCATION",
        "param": [
          "Q10101Target"
        ],
        "guideScene": 3,
        "guideStyle": "QUEST_GUIDE_STYLE_POINT"
      },
      "guideHint": {
        "param1": ""
      },
      "isRewind": true,
      "finishExec": [
        {
          "KPGKDHAFHFE": "QUEST_EXEC_GRANT_TRIAL_AVATAR",
          "param": [
            "10"
          ]
        }
      ],
      "versionBegin": "",
      "versionEnd": ""
    },
    {
      "subId": 1010108,
      "mainId": 10101,
      "order": 18,
      "isMpBlock": true,
      "descTextMapHash": 1846468775,
      "showType": "QUEST_HIDDEN",
      "finishCond": [
        {
          "KPGKDHAFHFE": "QUEST_CONTENT_COMPLETE_TALK",
          "param": [
            1010108,
            0
          ]
        },
        {
          "KPGKDHAFHFE": "QUEST_CONTENT_ENTER_MY_WORLD",
          "param": [
            3,
            0
          ]
        }
      ],
      "guide": {},
      "guideHint": {
        "param1": ""
      },
      "isRewind": true,
      "finishExec": [
        {
          "KPGKDHAFHFE": "QUEST_EXEC_LOCK_POINT",
          "param": [
            "3",
            "89"
          ]
        }
      ],
      "versionBegin": "",
      "versionEnd": ""
    },
    {
      "subId": 1010109,
      "mainId": 10101,
      "order": 20,
      "isMpBlock": true,
      "descTextMapHash": 3596603743,
      "GMKDJFPEFFF": [
        1012001
      ],
      "finishCond": [
        {
          "KPGKDHAFHFE": "QUEST_CONTENT_TRIGGER_FIRE",
          "param": [
            1107,
            0
          ]
        }
      ],
      "guide": {
        "KPGKDHAFHFE": "QUEST_GUIDE_LOCATION",
        "param": [
          "Q10100_Target"
        ],
        "guideScene": 1004,
        "guideStyle": "QUEST_GUIDE_STYLE_TARGET"
      },
      "guideHint": {
        "param1": ""
      },
      "isRewind": true,
      "finishExec": [
        {
          "KPGKDHAFHFE": "QUEST_EXEC_REFRESH_GROUP_SUITE",
          "param": [
            "1004",
            "201004003,2"
          ]
        }
      ],
      "versionBegin": "",
      "versionEnd": ""
    },
    {
      "subId": 1010110,
      "mainId": 10101,
      "order": 21,
      "isMpBlock": true,
      "descTextMapHash": 2746127375,
      "showType": "QUEST_HIDDEN",
      "GMKDJFPEFFF": [
        1012001
      ],
      "finishCond": [
        {
          "KPGKDHAFHFE": "QUEST_CONTENT_COMPLETE_TALK",
          "param": [
            1010110,
            0
          ]
        }
      ],
      "guide": {},
      "guideHint": {
        "param1": ""
      },
      "versionBegin": "",
      "versionEnd": ""
    },
    {
      "subId": 1010111,
      "mainId": 10101,
      "order": 14,
      "isMpBlock": true,
      "descTextMapHash": 2573962327,
      "finishCond": [
        {
          "KPGKDHAFHFE": "QUEST_CONTENT_LUA_NOTIFY",
          "param": [
            0,
            0
          ]
        }
      ],
      "failCond": [
        {
          "KPGKDHAFHFE": "QUEST_CONTENT_FAIL_DUNGEON",
          "param": [
            1002,
            0
          ]
        },
        {
          "KPGKDHAFHFE": "QUEST_CONTENT_ENTER_MY_WORLD",
          "param": [
            3,
            0
          ]
        }
      ],
      "guide": {},
      "guideHint": {
        "param1": ""
      },
      "isRewind": true,
      "failExec": [
        {
          "KPGKDHAFHFE": "QUEST_EXEC_ROLLBACK_QUEST",
          "param": [
            "1010107",
            "删除试用角色"
          ]
        },
        {
          "KPGKDHAFHFE": "QUEST_EXEC_SET_IS_GAME_TIME_LOCKED"
        }
      ],
      "versionBegin": "",
      "versionEnd": ""
    },
    {
      "subId": 1010112,
      "mainId": 10101,
      "order": 16,
      "isMpBlock": true,
      "descTextMapHash": 1980052399,
      "showType": "QUEST_HIDDEN",
      "finishCond": [
        {
          "KPGKDHAFHFE": "QUEST_CONTENT_COMPLETE_TALK",
          "param": [
            1010112,
            0
          ]
        }
      ],
      "failCond": [
        {
          "KPGKDHAFHFE": "QUEST_CONTENT_FAIL_DUNGEON",
          "param": [
            1002,
            0
          ]
        },
        {
          "KPGKDHAFHFE": "QUEST_CONTENT_ENTER_MY_WORLD",
          "param": [
            3,
            0
          ]
        }
      ],
      "guide": {},
      "guideHint": {
        "param1": ""
      },
      "isRewind": true,
      "failExec": [
        {
          "KPGKDHAFHFE": "QUEST_EXEC_ROLLBACK_QUEST",
          "param": [
            "1010107",
            "删除试用角色"
          ]
        },
        {
          "KPGKDHAFHFE": "QUEST_EXEC_SET_IS_GAME_TIME_LOCKED"
        }
      ],
      "versionBegin": "",
      "versionEnd": ""
    },
    {
      "subId": 1010113,
      "mainId": 10101,
      "order": 15,
      "isMpBlock": true,
      "descTextMapHash": 30888631,
      "finishCond": [
        {
          "KPGKDHAFHFE": "QUEST_CONTENT_LUA_NOTIFY",
          "param": [
            0,
            0
          ]
        }
      ],
      "failCond": [
        {
          "KPGKDHAFHFE": "QUEST_CONTENT_FAIL_DUNGEON",
          "param": [
            1002,
            0
          ]
        },
        {
          "KPGKDHAFHFE": "QUEST_CONTENT_ENTER_MY_WORLD",
          "param": [
            3,
            0
          ]
        }
      ],
      "guide": {},
      "guideHint": {
        "param1": ""
      },
      "isRewind": true,
      "failExec": [
        {
          "KPGKDHAFHFE": "QUEST_EXEC_ROLLBACK_QUEST",
          "param": [
            "1010107",
            "删除试用角色"
          ]
        },
        {
          "KPGKDHAFHFE": "QUEST_EXEC_SET_IS_GAME_TIME_LOCKED"
        }
      ],
      "versionBegin": "",
      "versionEnd": ""
    },
    {
      "subId": 1010114,
      "mainId": 10101,
      "order": 11,
      "descTextMapHash": 1701271367,
      "showType": "QUEST_HIDDEN",
      "finishCond": [
        {
          "KPGKDHAFHFE": "QUEST_CONTENT_COMPLETE_TALK",
          "param": [
            1010107,
            0
          ]
        }
      ],
      "guide": {},
      "guideHint": {
        "param1": ""
      },
      "versionBegin": "",
      "versionEnd": ""
    },
    {
      "subId": 1010115,
      "mainId": 10101,
      "order": 22,
      "isMpBlock": true,
      "descTextMapHash": 2867016223,
      "GMKDJFPEFFF": [
        1012001
      ],
      "finishCond": [
        {
          "KPGKDHAFHFE": "QUEST_CONTENT_LUA_NOTIFY",
          "param": [
            0,
            0
          ]
        }
      ],
      "guide": {
        "KPGKDHAFHFE": "QUEST_GUIDE_LOCATION",
        "param": [
          "Q10101Book"
        ],
        "guideScene": 1004,
        "guideStyle": "QUEST_GUIDE_STYLE_TARGET"
      },
      "guideHint": {
        "param1": ""
      },
      "finishParent": true,
      "isRewind": true,
      "versionBegin": "",
      "versionEnd": ""
    },
    {
      "subId": 1010116,
      "mainId": 10101,
      "order": 17,
      "isMpBlock": true,
      "descTextMapHash": 3631955287,
      "finishCond": [
        {
          "KPGKDHAFHFE": "QUEST_CONTENT_LUA_NOTIFY",
          "param": [
            0,
            0
          ]
        }
      ],
      "failCond": [
        {
          "KPGKDHAFHFE": "QUEST_CONTENT_FAIL_DUNGEON",
          "param": [
            1002,
            0
          ]
        },
        {
          "KPGKDHAFHFE": "QUEST_CONTENT_ENTER_MY_WORLD",
          "param": [
            3,
            0
          ]
        }
      ],
      "guide": {},
      "guideHint": {
        "param1": ""
      },
      "isRewind": true,
      "failExec": [
        {
          "KPGKDHAFHFE": "QUEST_EXEC_ROLLBACK_QUEST",
          "param": [
            "1010107",
            "删除试用角色"
          ]
        },
        {
          "KPGKDHAFHFE": "QUEST_EXEC_SET_IS_GAME_TIME_LOCKED"
        }
      ],
      "versionBegin": "",
      "versionEnd": ""
    },
    {
      "subId": 1010117,
      "mainId": 10101,
      "order": 1,
      "descTextMapHash": 3741404991,
      "finishCond": [
        {
          "KPGKDHAFHFE": "QUEST_CONTENT_INTERACT_GADGET",
          "param": [
            70700005,
            0
          ]
        }
      ],
      "guide": {
        "KPGKDHAFHFE": "QUEST_GUIDE_LOCATION",
        "param": [
          "Q10101Target1",
          "60"
        ],
        "guideScene": 3
      },
      "guideHint": {
        "param1": ""
      },
      "isRewind": true,
      "versionBegin": "",
      "versionEnd": ""
    },
    {
      "subId": 1010118,
      "mainId": 10101,
      "order": 2,
      "descTextMapHash": 1468896895,
      "finishCond": [
        {
          "KPGKDHAFHFE": "QUEST_CONTENT_INTERACT_GADGET",
          "param": [
            70700005,
            0
          ]
        }
      ],
      "guide": {
        "KPGKDHAFHFE": "QUEST_GUIDE_LOCATION",
        "param": [
          "Q10101Target2",
          "60"
        ],
        "guideScene": 3
      },
      "guideHint": {
        "param1": ""
      },
      "isRewind": true,
      "versionBegin": "",
      "versionEnd": ""
    },
    {
      "subId": 1010119,
      "mainId": 10101,
      "order": 3,
      "descTextMapHash": 714780279,
      "finishCond": [
        {
          "KPGKDHAFHFE": "QUEST_CONTENT_INTERACT_GADGET",
          "param": [
            70700005,
            0
          ]
        }
      ],
      "guide": {
        "KPGKDHAFHFE": "QUEST_GUIDE_LOCATION",
        "param": [
          "Q10101Target3",
          "60"
        ],
        "guideScene": 3
      },
      "guideHint": {
        "param1": ""
      },
      "isRewind": true,
      "versionBegin": "",
      "versionEnd": ""
    },
    {
      "subId": 1010120,
      "mainId": 10101,
      "order": 4,
      "descTextMapHash": 88657031,
      "showType": "QUEST_HIDDEN",
      "finishCond": [
        {
          "KPGKDHAFHFE": "QUEST_CONTENT_COMPLETE_TALK",
          "param": [
            1010120,
            0
          ]
        }
      ],
      "guide": {},
      "guideHint": {
        "param1": ""
      },
      "versionBegin": "",
      "versionEnd": ""
    },
    {
      "subId": 1010121,
      "mainId": 10101,
      "order": 12,
      "descTextMapHash": 3169359391,
      "showType": "QUEST_HIDDEN",
      "finishCond": [
        {
          "KPGKDHAFHFE": "QUEST_CONTENT_COMPLETE_TALK",
          "param": [
            1010107,
            0
          ]
        }
      ],
      "guide": {},
      "guideHint": {
        "param1": ""
      },
      "finishExec": [
        {
          "KPGKDHAFHFE": "QUEST_EXEC_UNLOCK_POINT",
          "param": [
            "3",
            "89"
          ]
        }
      ],
      "versionBegin": "",
      "versionEnd": ""
    },
    {
      "subId": 1010122,
      "mainId": 10101,
      "order": 19,
      "isMpBlock": true,
      "descTextMapHash": 1316535015,
      "showType": "QUEST_HIDDEN",
      "finishCond": [
        {
          "KPGKDHAFHFE": "QUEST_CONTENT_ENTER_MY_WORLD",
          "param": [
            3,
            0
          ]
        }
      ],
      "guide": {},
      "guideHint": {
        "param1": ""
      },
      "finishExec": [
        {
          "KPGKDHAFHFE": "QUEST_EXEC_REMOVE_TRIAL_AVATAR",
          "param": [
            "10"
          ]
        }
      ],
      "versionBegin": "",
      "versionEnd": ""
    }
  ],
  "talks": [
    {
      "id": 1010107,
      "beginWay": "TALK_BEGIN_MANUAL",
      "beginCond": [
        {
          "type": "QUEST_COND_STATE_EQUAL",
          "_param": [
            "1010114",
            "2"
          ]
        }
      ],
      "priority": 1,
      "initDialog": 101010701,
      "npcId": [
        1007
      ],
      "performCfg": "QuestDialogue/LQ/Lisa1_10101/Q1010107",
      "heroTalk": "TALK_HERO_MAIN",
      "questId": 10101,
      "assetIndex": 17325319704975463892,
      "prePerformCfg": ""
    },
    {
      "id": 1010108,
      "beginWay": "TALK_BEGIN_MANUAL",
      "beginCond": [
        {
          "type": "QUEST_COND_STATE_EQUAL",
          "_param": [
            "1010108",
            "2"
          ]
        }
      ],
      "priority": 1,
      "initDialog": 101010801,
      "npcId": [
        1007
      ],
      "performCfg": "QuestDialogue/LQ/Lisa1_10101/Q1010108",
      "heroTalk": "TALK_HERO_MAIN",
      "questId": 10101,
      "assetIndex": 7914894804375972852,
      "prePerformCfg": ""
    },
    {
      "id": 1010110,
      "beginWay": "TALK_BEGIN_MANUAL",
      "beginCond": [
        {
          "type": "QUEST_COND_STATE_EQUAL",
          "_param": [
            "1010110",
            "2"
          ]
        }
      ],
      "priority": 1,
      "initDialog": 101011001,
      "npcId": [
        1007
      ],
      "performCfg": "QuestDialogue/LQ/Lisa1_10101/Q1010110",
      "heroTalk": "TALK_HERO_MAIN",
      "questId": 10101,
      "assetIndex": 13919209470438755546,
      "prePerformCfg": ""
    },
    {
      "id": 1010112,
      "beginWay": "TALK_BEGIN_MANUAL",
      "beginCond": [
        {
          "type": "QUEST_COND_STATE_EQUAL",
          "_param": [
            "1010112",
            "2"
          ]
        }
      ],
      "priority": 1,
      "initDialog": 101011201,
      "npcId": [
        1007
      ],
      "performCfg": "QuestDialogue/LQ/Lisa1_10101/Q1010112",
      "heroTalk": "TALK_HERO_MAIN",
      "questId": 10101,
      "assetIndex": 1818682437777600824,
      "prePerformCfg": ""
    },
    {
      "id": 1010115,
      "beginWay": "TALK_BEGIN_MANUAL",
      "beginCond": [
        {
          "type": "QUEST_COND_STATE_EQUAL",
          "_param": [
            "1010115",
            "2"
          ]
        }
      ],
      "priority": 1,
      "initDialog": 101011501,
      "npcId": [
        1007
      ],
      "performCfg": "",
      "questId": 10101,
      "assetIndex": 14924483221154948804,
      "prePerformCfg": ""
    },
    {
      "id": 1010120,
      "beginWay": "TALK_BEGIN_MANUAL",
      "beginCond": [
        {
          "type": "QUEST_COND_STATE_EQUAL",
          "_param": [
            "1010120",
            "2"
          ]
        }
      ],
      "priority": 5,
      "initDialog": 101012001,
      "npcId": [
        1007
      ],
      "performCfg": "QuestDialogue/LQ/Lisa1_10101/Q1010120",
      "heroTalk": "TALK_HERO_MAIN",
      "questId": 10101,
      "assetIndex": 3868020720967291971,
      "prePerformCfg": ""
    }
  ],
  "preloadLuaList": [
    3958618578976986035,
    14457059026087496718
  ]
}