{
  "id": 1020,
  "resId": 1006,
  "series": 1101,
  "titleTextMapHash": 3420715793,
  "descTextMapHash": 543926495,
  "luaPath": "Actor/Quest/MQ1020",
  "suggestTrackMainQuestList": [
    1021
  ],
  "rewardIdList": [
    101020
  ],
  "chapterId": 1103,
  "showRedPoint": true,
  "subQuests": [
    {
      "subId": 102001,
      "mainId": 1020,
      "order": 1,
      "descTextMapHash": 1134761862,
      "finishCond": [
        {
          "KPGKDHAFHFE": "QUEST_CONTENT_COMPLETE_TALK",
          "param": [
            102001,
            0
          ]
        }
      ],
      "guide": {
        "KPGKDHAFHFE": "QUEST_GUIDE_LOCATION",
        "param": [
          "Q102001Paimon",
          "40"
        ],
        "guideScene": 3,
        "guideStyle": "QUEST_GUIDE_STYLE_TARGET",
        "guideLayer": "QUEST_GUIDE_LAYER_SCENE"
      },
      "guideHint": {
        "param1": ""
      },
      "isRewind": true,
      "versionBegin": "",
      "versionEnd": ""
    },
    {
      "subId": 102002,
      "mainId": 1020,
      "order": 2,
      "descTextMapHash": 920558078,
      "finishCond": [
        {
          "KPGKDHAFHFE": "QUEST_CONTENT_COMPLETE_TALK",
          "param": [
            102002,
            0
          ]
        }
      ],
      "guide": {
        "KPGKDHAFHFE": "QUEST_GUIDE_LOCATION",
        "param": [
          "Q102003Guild"
        ],
        "guideScene": 3,
        "guideStyle": "QUEST_GUIDE_STYLE_TARGET",
        "guideLayer": "QUEST_GUIDE_LAYER_SCENE"
      },
      "guideHint": {
        "param1": ""
      },
      "isRewind": true,
      "versionBegin": "",
      "versionEnd": ""
    },
    {
      "subId": 102003,
      "mainId": 1020,
      "order": 3,
      "descTextMapHash": 3663965798,
      "finishCond": [
        {
          "KPGKDHAFHFE": "QUEST_CONTENT_FINISH_PLOT",
          "param": [
            102003,
            0
          ]
        }
      ],
      "guide": {
        "KPGKDHAFHFE": "QUEST_GUIDE_LOCATION",
        "param": [
          "Q102007born"
        ],
        "guideScene": 3,
        "guideStyle": "QUEST_GUIDE_STYLE_POINT",
        "guideLayer": "QUEST_GUIDE_LAYER_SCENE"
      },
      "guideHint": {
        "param1": ""
      },
      "isRewind": true,
      "versionBegin": "",
      "versionEnd": ""
    },
    {
      "subId": 102004,
      "mainId": 1020,
      "order": 5,
      "isMpBlock": true,
      "descTextMapHash": 1164753134,
      "finishCond": [
        {
          "KPGKDHAFHFE": "QUEST_CONTENT_COMPLETE_TALK",
          "param": [
            102004,
            0
          ]
        }
      ],
      "guide": {
        "KPGKDHAFHFE": "QUEST_GUIDE_LOCATION",
        "param": [
          "Q101503Trigger",
          "30"
        ],
        "guideScene": 3,
        "guideStyle": "QUEST_GUIDE_STYLE_TARGET",
        "guideLayer": "QUEST_GUIDE_LAYER_SCENE"
      },
      "guideHint": {
        "param1": ""
      },
      "isRewind": true,
      "versionBegin": "",
      "versionEnd": ""
    },
    {
      "subId": 102005,
      "mainId": 1020,
      "order": 6,
      "isMpBlock": true,
      "descTextMapHash": 1527703006,
      "finishCond": [
        {
          "KPGKDHAFHFE": "QUEST_CONTENT_LUA_NOTIFY",
          "param": [
            0,
            0
          ],
          "count": 1
        }
      ],
      "failCond": [
        {
          "KPGKDHAFHFE": "QUEST_CONTENT_NOT_FINISH_PLOT",
          "param": [
            102005,
            0
          ]
        },
        {
          "KPGKDHAFHFE": "QUEST_CONTENT_TEAM_DEAD",
          "param": [
            0,
            0
          ]
        }
      ],
      "guide": {
        "KPGKDHAFHFE": "QUEST_GUIDE_LOCATION",
        "param": [
          "Q101503Trigger",
          "30"
        ],
        "guideScene": 3,
        "guideStyle": "QUEST_GUIDE_STYLE_TARGET",
        "guideLayer": "QUEST_GUIDE_LAYER_SCENE"
      },
      "guideHint": {
        "param1": ""
      },
      "isRewind": true,
      "finishExec": [
        {
          "KPGKDHAFHFE": "QUEST_EXEC_REFRESH_GROUP_SUITE",
          "param": [
            "3",
            "133107108,1"
          ]
        }
      ],
      "failExec": [
        {
          "KPGKDHAFHFE": "QUEST_EXEC_REFRESH_GROUP_SUITE",
          "param": [
            "3",
            "133107108,1"
          ]
        },
        {
          "KPGKDHAFHFE": "QUEST_EXEC_ROLLBACK_QUEST",
          "param": [
            "102004"
          ]
        }
      ],
      "versionBegin": "",
      "versionEnd": ""
    },
    {
      "subId": 102006,
      "mainId": 1020,
      "order": 7,
      "isMpBlock": true,
      "descTextMapHash": 692491190,
      "showType": "QUEST_HIDDEN",
      "finishCond": [
        {
          "KPGKDHAFHFE": "QUEST_CONTENT_COMPLETE_TALK",
          "param": [
            102006,
            0
          ]
        }
      ],
      "guide": {
        "KPGKDHAFHFE": "QUEST_GUIDE_LOCATION",
        "param": [
          "Q101503Trigger",
          "30"
        ],
        "guideScene": 3,
        "guideStyle": "QUEST_GUIDE_STYLE_TARGET",
        "guideLayer": "QUEST_GUIDE_LAYER_SCENE"
      },
      "guideHint": {
        "param1": ""
      },
      "finishParent": true,
      "isRewind": true,
      "versionBegin": "",
      "versionEnd": ""
    },
    {
      "subId": 102007,
      "mainId": 1020,
      "order": 4,
      "isMpBlock": true,
      "descTextMapHash": 850063806,
      "showType": "QUEST_HIDDEN",
      "finishCond": [
        {
          "KPGKDHAFHFE": "QUEST_CONTENT_COMPLETE_TALK",
          "param": [
            102007,
            0
          ]
        }
      ],
      "guide": {},
      "guideHint": {
        "param1": ""
      },
      "isRewind": true,
      "versionBegin": "",
      "versionEnd": ""
    }
  ],
  "talks": [
    {
      "id": 102001,
      "beginWay": "TALK_BEGIN_AUTO",
      "beginCond": [
        {
          "type": "QUEST_COND_STATE_EQUAL",
          "_param": [
            "102001",
            "2"
          ]
        }
      ],
      "priority": 5,
      "initDialog": 10200101,
      "npcId": [
        1005
      ],
      "performCfg": "QuestDialogue/AQ/Liyue3_1020/Q102001",
      "questId": 1020,
      "assetIndex": 16300238056389369970,
      "prePerformCfg": ""
    },
    {
      "id": 102002,
      "beginWay": "TALK_BEGIN_MANUAL",
      "beginCond": [
        {
          "type": "QUEST_COND_STATE_EQUAL",
          "_param": [
            "102002",
            "2"
          ]
        }
      ],
      "priority": 5,
      "initDialog": 10200201,
      "npcId": [
        1005
      ],
      "performCfg": "QuestDialogue/AQ/Liyue3_1020/Q102002",
      "questId": 1020,
      "assetIndex": 9111645120083730562,
      "prePerformCfg": ""
    },
    {
      "id": 102004,
      "beginWay": "TALK_BEGIN_AUTO",
      "beginCond": [
        {
          "type": "QUEST_COND_STATE_EQUAL",
          "_param": [
            "102004",
            "2"
          ]
        }
      ],
      "priority": 5,
      "initDialog": 10200401,
      "npcId": [
        10262
      ],
      "performCfg": "QuestDialogue/AQ/Liyue3_1020/Q102004",
      "questId": 1020,
      "assetIndex": 14698415738242434544,
      "prePerformCfg": ""
    },
    {
      "id": 102006,
      "beginWay": "TALK_BEGIN_AUTO",
      "beginCond": [
        {
          "type": "QUEST_COND_STATE_EQUAL",
          "_param": [
            "102006",
            "2"
          ]
        }
      ],
      "priority": 5,
      "initDialog": 10200601,
      "npcId": [
        1005
      ],
      "performCfg": "QuestDialogue/AQ/Liyue3_1020/Q102006",
      "questId": 1020,
      "assetIndex": 6133640036817792487,
      "prePerformCfg": ""
    },
    {
      "id": 102007,
      "beginWay": "TALK_BEGIN_AUTO",
      "beginCond": [
        {
          "type": "QUEST_COND_STATE_EQUAL",
          "_param": [
            "102007",
            "2"
          ]
        }
      ],
      "priority": 5,
      "initDialog": 10200701,
      "npcId": [
        1005
      ],
      "performCfg": "QuestDialogue/AQ/Liyue3_1020/Q102007",
      "questId": 1020,
      "assetIndex": 3454535411493640280,
      "prePerformCfg": ""
    }
  ],
  "preloadLuaList": [
    14457059026087496718,
    3307865043942453707,
    6064501215732913503,
    4702711203633026792,
    17710967608400191563
  ],
  "forcePreloadLuaList": [
    10612669493050869374
  ]
}