{
  "id": 11004,
  "resId": 2007,
  "series": 2007,
  "KPGKDHAFHFE": "LQ",
  "titleTextMapHash": 977197905,
  "descTextMapHash": 378013271,
  "luaPath": "Actor/Quest/LQ11004",
  "suggestTrackMainQuestList": [
    11005
  ],
  "rewardIdList": [
    111004
  ],
  "chapterId": 2007,
  "subQuests": [
    {
      "subId": 1100401,
      "mainId": 11004,
      "order": 1,
      "isMpBlock": true,
      "descTextMapHash": 3674875710,
      "finishCond": [
        {
          "KPGKDHAFHFE": "QUEST_CONTENT_ENTER_DUNGEON",
          "param": [
            1010,
            125
          ]
        }
      ],
      "guide": {
        "KPGKDHAFHFE": "QUEST_GUIDE_LOCATION",
        "param": [
          "Q1100401D1"
        ],
        "guideScene": 3,
        "guideStyle": "QUEST_GUIDE_STYLE_TARGET",
        "guideLayer": "QUEST_GUIDE_LAYER_SCENE"
      },
      "showGuide": "QUEST_GUIDE_ITEM_DISABLE",
      "guideHint": {
        "param1": ""
      },
      "isRewind": true,
      "versionBegin": "",
      "versionEnd": ""
    },
    {
      "subId": 1100402,
      "mainId": 11004,
      "order": 4,
      "isMpBlock": true,
      "descTextMapHash": 265569574,
      "finishCond": [
        {
          "KPGKDHAFHFE": "QUEST_CONTENT_LUA_NOTIFY",
          "param": [
            0,
            0
          ],
          "count": 1
        }
      ],
      "failCond": [
        {
          "KPGKDHAFHFE": "QUEST_CONTENT_FAIL_DUNGEON",
          "param": [
            1010,
            0
          ]
        },
        {
          "KPGKDHAFHFE": "QUEST_CONTENT_ENTER_MY_WORLD",
          "param": [
            3,
            0
          ]
        }
      ],
      "guide": {},
      "guideHint": {
        "param1": ""
      },
      "isRewind": true,
      "failExec": [
        {
          "KPGKDHAFHFE": "QUEST_EXEC_ROLLBACK_QUEST",
          "param": [
            "1100401"
          ]
        },
        {
          "KPGKDHAFHFE": "QUEST_EXEC_REMOVE_TRIAL_AVATAR",
          "param": [
            "13"
          ]
        }
      ],
      "versionBegin": "",
      "versionEnd": ""
    },
    {
      "subId": 1100403,
      "mainId": 11004,
      "order": 5,
      "isMpBlock": true,
      "descTextMapHash": 1777557542,
      "finishCond": [
        {
          "KPGKDHAFHFE": "QUEST_CONTENT_COMPLETE_TALK",
          "param": [
            1100403,
            0
          ]
        }
      ],
      "failCond": [
        {
          "KPGKDHAFHFE": "QUEST_CONTENT_FAIL_DUNGEON",
          "param": [
            1010,
            0
          ]
        },
        {
          "KPGKDHAFHFE": "QUEST_CONTENT_ENTER_MY_WORLD",
          "param": [
            3,
            0
          ]
        }
      ],
      "guide": {
        "KPGKDHAFHFE": "QUEST_GUIDE_NPC",
        "param": [
          "1012"
        ],
        "guideScene": 20005,
        "guideStyle": "QUEST_GUIDE_STYLE_TARGET",
        "guideLayer": "QUEST_GUIDE_LAYER_SCENE"
      },
      "guideHint": {
        "param1": ""
      },
      "finishParent": true,
      "isRewind": true,
      "finishExec": [
        {
          "KPGKDHAFHFE": "QUEST_EXEC_LOCK_POINT",
          "param": [
            "3",
            "125"
          ]
        },
        {
          "KPGKDHAFHFE": "QUEST_EXEC_REMOVE_TRIAL_AVATAR",
          "param": [
            "13"
          ]
        }
      ],
      "failExec": [
        {
          "KPGKDHAFHFE": "QUEST_EXEC_ROLLBACK_QUEST",
          "param": [
            "1100401"
          ]
        },
        {
          "KPGKDHAFHFE": "QUEST_EXEC_REMOVE_TRIAL_AVATAR",
          "param": [
            "13"
          ]
        }
      ],
      "versionBegin": "",
      "versionEnd": ""
    },
    {
      "subId": 1100498,
      "mainId": 11004,
      "order": 3,
      "descTextMapHash": 1689452406,
      "showType": "QUEST_HIDDEN",
      "finishCond": [
        {
          "KPGKDHAFHFE": "QUEST_CONTENT_FINISH_PLOT",
          "param": [
            1100498,
            0
          ]
        }
      ],
      "failCond": [
        {
          "KPGKDHAFHFE": "QUEST_CONTENT_COMPLETE_TALK",
          "param": [
            1100403,
            0
          ]
        }
      ],
      "guide": {},
      "guideHint": {
        "param1": ""
      },
      "versionBegin": "",
      "versionEnd": ""
    },
    {
      "subId": 1100499,
      "mainId": 11004,
      "order": 2,
      "descTextMapHash": 4014652182,
      "showType": "QUEST_HIDDEN",
      "finishCond": [
        {
          "KPGKDHAFHFE": "QUEST_CONTENT_LUA_NOTIFY",
          "param": [
            0,
            0
          ],
          "count": 1
        }
      ],
      "failCond": [
        {
          "KPGKDHAFHFE": "QUEST_CONTENT_COMPLETE_TALK",
          "param": [
            1100403,
            0
          ]
        }
      ],
      "guide": {},
      "guideHint": {
        "param1": ""
      },
      "versionBegin": "",
      "versionEnd": ""
    }
  ],
  "talks": [
    {
      "id": 1100403,
      "beginWay": "TALK_BEGIN_MANUAL",
      "beginCond": [
        {
          "type": "QUEST_COND_STATE_EQUAL",
          "_param": [
            "1100403",
            "2"
          ]
        }
      ],
      "priority": 5,
      "initDialog": 110040301,
      "npcId": [
        1012
      ],
      "performCfg": "QuestDialogue/LQ/Xiangling1_11004/Q1100403",
      "heroTalk": "TALK_HERO_MAIN",
      "questId": 11004,
      "assetIndex": 16275515678861875891,
      "prePerformCfg": ""
    }
  ],
  "preloadLuaList": [
    14457059026087496718,
    10852990404481141455
  ],
  "forcePreloadLuaList": [
    630940427974789384
  ],
  "freeStyleDic": {
    "1012": [
      1220
    ]
  }
}