{
  "id": 11013,
  "resId": 1013,
  "series": 1205,
  "titleTextMapHash": 1558140495,
  "descTextMapHash": 3077115014,
  "luaPath": "Actor/Quest/AQ11013",
  "suggestTrackMainQuestList": [
    11014
  ],
  "rewardIdList": [
    111013
  ],
  "chapterId": 1205,
  "subQuests": [
    {
      "subId": 1101301,
      "mainId": 11013,
      "order": 1,
      "descTextMapHash": 2315208100,
      "GMKDJFPEFFF": [
        1100901,
        310715,
        310703
      ],
      "finishCond": [
        {
          "KPGKDHAFHFE": "QUEST_CONTENT_COMPLETE_TALK",
          "param": [
            1101301,
            0
          ]
        }
      ],
      "guide": {
        "KPGKDHAFHFE": "QUEST_GUIDE_NPC",
        "autoGuide": "QUEST_GUIDE_AUTO_ENABLE",
        "param": [
          "1627"
        ],
        "guideScene": 3,
        "guideStyle": "QUEST_GUIDE_STYLE_TARGET",
        "guideLayer": "QUEST_GUIDE_LAYER_SCENE"
      },
      "guideHint": {
        "param1": ""
      },
      "failParentShow": "QUEST_HIDDEN",
      "isRewind": true,
      "finishExec": [
        {
          "KPGKDHAFHFE": "QUEST_EXEC_UNREGISTER_DYNAMIC_GROUP",
          "param": [
            "133107228"
          ]
        }
      ],
      "versionBegin": "",
      "versionEnd": ""
    },
    {
      "subId": 1101302,
      "mainId": 11013,
      "order": 92,
      "descTextMapHash": 1935136828,
      "showType": "QUEST_HIDDEN",
      "finishCond": [
        {
          "KPGKDHAFHFE": "QUEST_CONTENT_FINISH_PLOT",
          "param": [
            1101302,
            0
          ]
        }
      ],
      "failCond": [
        {
          "KPGKDHAFHFE": "QUEST_CONTENT_COMPLETE_TALK",
          "param": [
            1101301,
            0
          ]
        }
      ],
      "guide": {},
      "showGuide": "QUEST_GUIDE_ITEM_DISABLE",
      "guideHint": {
        "param1": ""
      },
      "failParentShow": "QUEST_HIDDEN",
      "versionBegin": "",
      "versionEnd": ""
    },
    {
      "subId": 1101303,
      "mainId": 11013,
      "order": 93,
      "descTextMapHash": 4077133324,
      "finishCond": [
        {
          "KPGKDHAFHFE": "QUEST_CONTENT_COMPLETE_TALK",
          "param": [
            1101302,
            0
          ]
        }
      ],
      "guide": {
        "KPGKDHAFHFE": "QUEST_GUIDE_LOCATION",
        "autoGuide": "QUEST_GUIDE_AUTO_ENABLE",
        "param": [
          "Q11013JifangWanwen"
        ],
        "guideScene": 3,
        "guideStyle": "QUEST_GUIDE_STYLE_POINT",
        "guideLayer": "QUEST_GUIDE_LAYER_SCENE"
      },
      "guideHint": {
        "param1": ""
      },
      "isRewind": true,
      "versionBegin": "",
      "versionEnd": ""
    },
    {
      "subId": 1101304,
      "mainId": 11013,
      "order": 94,
      "descTextMapHash": 2735162452,
      "finishCond": [
        {
          "KPGKDHAFHFE": "QUEST_CONTENT_COMPLETE_TALK",
          "param": [
            1101302,
            0
          ]
        }
      ],
      "guide": {
        "KPGKDHAFHFE": "QUEST_GUIDE_LOCATION",
        "autoGuide": "QUEST_GUIDE_AUTO_ENABLE",
        "param": [
          "Q11013JifangWanwen"
        ],
        "guideScene": 3,
        "guideStyle": "QUEST_GUIDE_STYLE_POINT",
        "guideLayer": "QUEST_GUIDE_LAYER_SCENE"
      },
      "guideHint": {
        "param1": ""
      },
      "isRewind": true,
      "versionBegin": "",
      "versionEnd": ""
    },
    {
      "subId": 1101305,
      "mainId": 11013,
      "order": 5,
      "descTextMapHash": 3390986292,
      "GMKDJFPEFFF": [
        1100901,
        310702
      ],
      "finishCond": [
        {
          "KPGKDHAFHFE": "QUEST_CONTENT_COMPLETE_TALK",
          "param": [
            1101303,
            0
          ]
        }
      ],
      "guide": {
        "KPGKDHAFHFE": "QUEST_GUIDE_NPC",
        "autoGuide": "QUEST_GUIDE_AUTO_ENABLE",
        "param": [
          "1045"
        ],
        "guideScene": 3,
        "guideStyle": "QUEST_GUIDE_STYLE_TARGET",
        "guideLayer": "QUEST_GUIDE_LAYER_SCENE"
      },
      "guideHint": {
        "param1": ""
      },
      "versionBegin": "",
      "versionEnd": ""
    },
    {
      "subId": 1101306,
      "mainId": 11013,
      "order": 6,
      "descTextMapHash": 723169180,
      "GMKDJFPEFFF": [
        1100901,
        310702
      ],
      "finishCond": [
        {
          "KPGKDHAFHFE": "QUEST_CONTENT_LUA_NOTIFY",
          "param": [
            0,
            0
          ],
          "count": 1
        }
      ],
      "guide": {
        "KPGKDHAFHFE": "QUEST_GUIDE_LOCATION",
        "autoGuide": "QUEST_GUIDE_AUTO_ENABLE",
        "param": [
          "Q11013SeelieGuideAdded",
          "45"
        ],
        "guideScene": 3,
        "guideStyle": "QUEST_GUIDE_STYLE_TARGET",
        "guideLayer": "QUEST_GUIDE_LAYER_SCENE"
      },
      "guideHint": {
        "param1": ""
      },
      "finishExec": [
        {
          "KPGKDHAFHFE": "QUEST_EXEC_UNLOCK_POINT",
          "param": [
            "3",
            "430"
          ]
        },
        {
          "KPGKDHAFHFE": "QUEST_EXEC_UNREGISTER_DYNAMIC_GROUP",
          "param": [
            "133107204"
          ]
        }
      ],
      "versionBegin": "",
      "versionEnd": ""
    },
    {
      "subId": 1101307,
      "mainId": 11013,
      "order": 8,
      "descTextMapHash": 4072207076,
      "GMKDJFPEFFF": [
        1100901,
        310702
      ],
      "finishCond": [
        {
          "KPGKDHAFHFE": "QUEST_CONTENT_ENTER_DUNGEON",
          "param": [
            1127,
            430
          ]
        }
      ],
      "guide": {
        "KPGKDHAFHFE": "QUEST_GUIDE_LOCATION",
        "autoGuide": "QUEST_GUIDE_AUTO_ENABLE",
        "param": [
          "Q11013DungeonEntrance"
        ],
        "guideScene": 3,
        "guideStyle": "QUEST_GUIDE_STYLE_POINT",
        "guideLayer": "QUEST_GUIDE_LAYER_SCENE"
      },
      "guideHint": {
        "param1": ""
      },
      "isRewind": true,
      "versionBegin": "",
      "versionEnd": ""
    },
    {
      "subId": 1101308,
      "mainId": 11013,
      "order": 9,
      "isMpBlock": true,
      "descTextMapHash": 3555340508,
      "GMKDJFPEFFF": [
        1100901
      ],
      "finishCond": [
        {
          "KPGKDHAFHFE": "QUEST_CONTENT_COMPLETE_TALK",
          "param": [
            1101304,
            0
          ]
        }
      ],
      "failCond": [
        {
          "KPGKDHAFHFE": "QUEST_CONTENT_ENTER_MY_WORLD",
          "param": [
            3,
            0
          ]
        },
        {
          "KPGKDHAFHFE": "QUEST_CONTENT_ANY_MANUAL_TRANSPORT",
          "param": [
            0,
            0
          ]
        },
        {
          "KPGKDHAFHFE": "QUEST_CONTENT_FAIL_DUNGEON",
          "param": [
            1127,
            0
          ]
        },
        {
          "KPGKDHAFHFE": "QUEST_CONTENT_TEAM_DEAD",
          "param": [
            0,
            0
          ]
        }
      ],
      "guide": {
        "KPGKDHAFHFE": "QUEST_GUIDE_NPC",
        "autoGuide": "QUEST_GUIDE_AUTO_ENABLE",
        "param": [
          "1045"
        ],
        "guideScene": 20121,
        "guideStyle": "QUEST_GUIDE_STYLE_TARGET",
        "guideLayer": "QUEST_GUIDE_LAYER_SCENE"
      },
      "guideHint": {
        "param1": ""
      },
      "isRewind": true,
      "finishExec": [
        {
          "KPGKDHAFHFE": "QUEST_EXEC_GRANT_TRIAL_AVATAR",
          "param": [
            "35"
          ]
        }
      ],
      "failExec": [
        {
          "KPGKDHAFHFE": "QUEST_EXEC_REMOVE_TRIAL_AVATAR",
          "param": [
            "35"
          ]
        },
        {
          "KPGKDHAFHFE": "QUEST_EXEC_ROLLBACK_QUEST",
          "param": [
            "1101307"
          ]
        }
      ],
      "versionBegin": "",
      "versionEnd": ""
    },
    {
      "subId": 1101309,
      "mainId": 11013,
      "order": 11,
      "isMpBlock": true,
      "descTextMapHash": 1904583404,
      "GMKDJFPEFFF": [
        1100901
      ],
      "finishCond": [
        {
          "KPGKDHAFHFE": "QUEST_CONTENT_LUA_NOTIFY",
          "param": [
            0,
            0
          ],
          "count": 1
        }
      ],
      "failCond": [
        {
          "KPGKDHAFHFE": "QUEST_CONTENT_ENTER_MY_WORLD",
          "param": [
            3,
            0
          ]
        },
        {
          "KPGKDHAFHFE": "QUEST_CONTENT_ANY_MANUAL_TRANSPORT",
          "param": [
            0,
            0
          ]
        },
        {
          "KPGKDHAFHFE": "QUEST_CONTENT_TEAM_DEAD",
          "param": [
            0,
            0
          ]
        },
        {
          "KPGKDHAFHFE": "QUEST_CONTENT_FAIL_DUNGEON",
          "param": [
            1127,
            0
          ]
        }
      ],
      "guide": {
        "guideScene": 20121
      },
      "showGuide": "QUEST_GUIDE_ITEM_DISABLE",
      "guideHint": {
        "param1": ""
      },
      "isRewind": true,
      "failExec": [
        {
          "KPGKDHAFHFE": "QUEST_EXEC_REMOVE_TRIAL_AVATAR",
          "param": [
            "35"
          ]
        },
        {
          "KPGKDHAFHFE": "QUEST_EXEC_ROLLBACK_QUEST",
          "param": [
            "1101307"
          ]
        }
      ],
      "versionBegin": "",
      "versionEnd": ""
    },
    {
      "subId": 1101310,
      "mainId": 11013,
      "order": 12,
      "isMpBlock": true,
      "descTextMapHash": 2971809060,
      "GMKDJFPEFFF": [
        1100901
      ],
      "finishCond": [
        {
          "KPGKDHAFHFE": "QUEST_CONTENT_LUA_NOTIFY",
          "param": [
            0,
            0
          ],
          "count": 1
        }
      ],
      "failCond": [
        {
          "KPGKDHAFHFE": "QUEST_CONTENT_ENTER_MY_WORLD",
          "param": [
            3,
            0
          ]
        },
        {
          "KPGKDHAFHFE": "QUEST_CONTENT_ANY_MANUAL_TRANSPORT",
          "param": [
            0,
            0
          ]
        },
        {
          "KPGKDHAFHFE": "QUEST_CONTENT_TEAM_DEAD",
          "param": [
            0,
            0
          ]
        },
        {
          "KPGKDHAFHFE": "QUEST_CONTENT_FAIL_DUNGEON",
          "param": [
            1127,
            0
          ]
        }
      ],
      "guide": {
        "guideScene": 20121
      },
      "showGuide": "QUEST_GUIDE_ITEM_DISABLE",
      "guideHint": {
        "param1": ""
      },
      "isRewind": true,
      "failExec": [
        {
          "KPGKDHAFHFE": "QUEST_EXEC_REMOVE_TRIAL_AVATAR",
          "param": [
            "35"
          ]
        },
        {
          "KPGKDHAFHFE": "QUEST_EXEC_ROLLBACK_QUEST",
          "param": [
            "1101307"
          ]
        }
      ],
      "versionBegin": "",
      "versionEnd": ""
    },
    {
      "subId": 1101311,
      "mainId": 11013,
      "order": 13,
      "isMpBlock": true,
      "descTextMapHash": 876947676,
      "GMKDJFPEFFF": [
        1100901
      ],
      "finishCond": [
        {
          "KPGKDHAFHFE": "QUEST_CONTENT_COMPLETE_TALK",
          "param": [
            1101305,
            0
          ]
        }
      ],
      "failCond": [
        {
          "KPGKDHAFHFE": "QUEST_CONTENT_ENTER_MY_WORLD",
          "param": [
            3,
            0
          ]
        },
        {
          "KPGKDHAFHFE": "QUEST_CONTENT_ANY_MANUAL_TRANSPORT",
          "param": [
            0,
            0
          ]
        },
        {
          "KPGKDHAFHFE": "QUEST_CONTENT_TEAM_DEAD",
          "param": [
            0,
            0
          ]
        },
        {
          "KPGKDHAFHFE": "QUEST_CONTENT_FAIL_DUNGEON",
          "param": [
            1127,
            0
          ]
        }
      ],
      "guide": {
        "guideScene": 20121,
        "guideLayer": "QUEST_GUIDE_LAYER_SCENE"
      },
      "showGuide": "QUEST_GUIDE_ITEM_DISABLE",
      "guideHint": {
        "param1": ""
      },
      "isRewind": true,
      "finishExec": [
        {
          "KPGKDHAFHFE": "QUEST_EXEC_NOTIFY_GROUP_LUA",
          "param": [
            "20121",
            "220121006"
          ]
        }
      ],
      "failExec": [
        {
          "KPGKDHAFHFE": "QUEST_EXEC_REMOVE_TRIAL_AVATAR",
          "param": [
            "35"
          ]
        },
        {
          "KPGKDHAFHFE": "QUEST_EXEC_ROLLBACK_QUEST",
          "param": [
            "1101307"
          ]
        }
      ],
      "versionBegin": "",
      "versionEnd": ""
    },
    {
      "subId": 1101312,
      "mainId": 11013,
      "order": 16,
      "isMpBlock": true,
      "descTextMapHash": 1576288956,
      "GMKDJFPEFFF": [
        1100901
      ],
      "finishCond": [
        {
          "KPGKDHAFHFE": "QUEST_CONTENT_LUA_NOTIFY",
          "param": [
            0,
            0
          ],
          "count": 1
        }
      ],
      "failCond": [
        {
          "KPGKDHAFHFE": "QUEST_CONTENT_ENTER_MY_WORLD",
          "param": [
            3,
            0
          ]
        },
        {
          "KPGKDHAFHFE": "QUEST_CONTENT_ANY_MANUAL_TRANSPORT",
          "param": [
            0,
            0
          ]
        },
        {
          "KPGKDHAFHFE": "QUEST_CONTENT_TEAM_DEAD",
          "param": [
            0,
            0
          ]
        },
        {
          "KPGKDHAFHFE": "QUEST_CONTENT_FAIL_DUNGEON",
          "param": [
            1127,
            0
          ]
        }
      ],
      "guide": {
        "guideScene": 20121
      },
      "showGuide": "QUEST_GUIDE_ITEM_DISABLE",
      "guideHint": {
        "param1": ""
      },
      "isRewind": true,
      "failExec": [
        {
          "KPGKDHAFHFE": "QUEST_EXEC_REMOVE_TRIAL_AVATAR",
          "param": [
            "35"
          ]
        },
        {
          "KPGKDHAFHFE": "QUEST_EXEC_ROLLBACK_QUEST",
          "param": [
            "1101307"
          ]
        }
      ],
      "versionBegin": "",
      "versionEnd": ""
    },
    {
      "subId": 1101313,
      "mainId": 11013,
      "order": 17,
      "isMpBlock": true,
      "descTextMapHash": 3933296444,
      "GMKDJFPEFFF": [
        1100901
      ],
      "finishCond": [
        {
          "KPGKDHAFHFE": "QUEST_CONTENT_COMPLETE_TALK",
          "param": [
            1101306,
            0
          ]
        }
      ],
      "failCond": [
        {
          "KPGKDHAFHFE": "QUEST_CONTENT_ENTER_MY_WORLD",
          "param": [
            3,
            0
          ]
        },
        {
          "KPGKDHAFHFE": "QUEST_CONTENT_ANY_MANUAL_TRANSPORT",
          "param": [
            0,
            0
          ]
        },
        {
          "KPGKDHAFHFE": "QUEST_CONTENT_TEAM_DEAD",
          "param": [
            0,
            0
          ]
        },
        {
          "KPGKDHAFHFE": "QUEST_CONTENT_FAIL_DUNGEON",
          "param": [
            1127,
            0
          ]
        }
      ],
      "guide": {
        "KPGKDHAFHFE": "QUEST_GUIDE_NPC",
        "autoGuide": "QUEST_GUIDE_AUTO_ENABLE",
        "param": [
          "1005"
        ],
        "guideScene": 20121,
        "guideStyle": "QUEST_GUIDE_STYLE_TARGET",
        "guideLayer": "QUEST_GUIDE_LAYER_SCENE"
      },
      "guideHint": {
        "param1": ""
      },
      "isRewind": true,
      "finishExec": [
        {
          "KPGKDHAFHFE": "QUEST_EXEC_NOTIFY_GROUP_LUA",
          "param": [
            "20121",
            "220121007"
          ]
        }
      ],
      "failExec": [
        {
          "KPGKDHAFHFE": "QUEST_EXEC_REMOVE_TRIAL_AVATAR",
          "param": [
            "35"
          ]
        },
        {
          "KPGKDHAFHFE": "QUEST_EXEC_ROLLBACK_QUEST",
          "param": [
            "1101307"
          ]
        }
      ],
      "versionBegin": "",
      "versionEnd": ""
    },
    {
      "subId": 1101314,
      "mainId": 11013,
      "order": 20,
      "isMpBlock": true,
      "descTextMapHash": 2466115004,
      "GMKDJFPEFFF": [
        1100901
      ],
      "finishCond": [
        {
          "KPGKDHAFHFE": "QUEST_CONTENT_LUA_NOTIFY",
          "param": [
            0,
            0
          ],
          "count": 1
        }
      ],
      "failCond": [
        {
          "KPGKDHAFHFE": "QUEST_CONTENT_ENTER_MY_WORLD",
          "param": [
            3,
            0
          ]
        },
        {
          "KPGKDHAFHFE": "QUEST_CONTENT_ANY_MANUAL_TRANSPORT",
          "param": [
            0,
            0
          ]
        },
        {
          "KPGKDHAFHFE": "QUEST_CONTENT_TEAM_DEAD",
          "param": [
            0,
            0
          ]
        },
        {
          "KPGKDHAFHFE": "QUEST_CONTENT_FAIL_DUNGEON",
          "param": [
            1127,
            0
          ]
        }
      ],
      "guide": {
        "guideScene": 20121,
        "guideLayer": "QUEST_GUIDE_LAYER_SCENE"
      },
      "showGuide": "QUEST_GUIDE_ITEM_DISABLE",
      "guideHint": {
        "param1": ""
      },
      "isRewind": true,
      "failExec": [
        {
          "KPGKDHAFHFE": "QUEST_EXEC_REMOVE_TRIAL_AVATAR",
          "param": [
            "35"
          ]
        },
        {
          "KPGKDHAFHFE": "QUEST_EXEC_ROLLBACK_QUEST",
          "param": [
            "1101307"
          ]
        }
      ],
      "versionBegin": "",
      "versionEnd": ""
    },
    {
      "subId": 1101315,
      "mainId": 11013,
      "order": 21,
      "isMpBlock": true,
      "descTextMapHash": 3438041004,
      "GMKDJFPEFFF": [
        1100901
      ],
      "finishCond": [
        {
          "KPGKDHAFHFE": "QUEST_CONTENT_LUA_NOTIFY",
          "param": [
            0,
            0
          ],
          "count": 1
        }
      ],
      "failCond": [
        {
          "KPGKDHAFHFE": "QUEST_CONTENT_ENTER_MY_WORLD",
          "param": [
            3,
            0
          ]
        },
        {
          "KPGKDHAFHFE": "QUEST_CONTENT_ANY_MANUAL_TRANSPORT",
          "param": [
            0,
            0
          ]
        },
        {
          "KPGKDHAFHFE": "QUEST_CONTENT_TEAM_DEAD",
          "param": [
            0,
            0
          ]
        },
        {
          "KPGKDHAFHFE": "QUEST_CONTENT_FAIL_DUNGEON",
          "param": [
            1127,
            0
          ]
        }
      ],
      "guide": {
        "guideScene": 20121
      },
      "showGuide": "QUEST_GUIDE_ITEM_DISABLE",
      "guideHint": {
        "param1": ""
      },
      "isRewind": true,
      "failExec": [
        {
          "KPGKDHAFHFE": "QUEST_EXEC_REMOVE_TRIAL_AVATAR",
          "param": [
            "35"
          ]
        },
        {
          "KPGKDHAFHFE": "QUEST_EXEC_ROLLBACK_QUEST",
          "param": [
            "1101307"
          ]
        }
      ],
      "versionBegin": "",
      "versionEnd": ""
    },
    {
      "subId": 1101316,
      "mainId": 11013,
      "order": 22,
      "isMpBlock": true,
      "descTextMapHash": 1807897876,
      "GMKDJFPEFFF": [
        1100901
      ],
      "finishCond": [
        {
          "KPGKDHAFHFE": "QUEST_CONTENT_LUA_NOTIFY",
          "param": [
            0,
            0
          ],
          "count": 1
        }
      ],
      "failCond": [
        {
          "KPGKDHAFHFE": "QUEST_CONTENT_ENTER_MY_WORLD",
          "param": [
            3,
            0
          ]
        },
        {
          "KPGKDHAFHFE": "QUEST_CONTENT_ANY_MANUAL_TRANSPORT",
          "param": [
            0,
            0
          ]
        },
        {
          "KPGKDHAFHFE": "QUEST_CONTENT_TEAM_DEAD",
          "param": [
            0,
            0
          ]
        },
        {
          "KPGKDHAFHFE": "QUEST_CONTENT_FAIL_DUNGEON",
          "param": [
            1127,
            0
          ]
        }
      ],
      "guide": {
        "guideScene": 20121
      },
      "showGuide": "QUEST_GUIDE_ITEM_DISABLE",
      "guideHint": {
        "param1": ""
      },
      "isRewind": true,
      "failExec": [
        {
          "KPGKDHAFHFE": "QUEST_EXEC_REMOVE_TRIAL_AVATAR",
          "param": [
            "35"
          ]
        },
        {
          "KPGKDHAFHFE": "QUEST_EXEC_ROLLBACK_QUEST",
          "param": [
            "1101307"
          ]
        }
      ],
      "versionBegin": "",
      "versionEnd": ""
    },
    {
      "subId": 1101317,
      "mainId": 11013,
      "order": 24,
      "isMpBlock": true,
      "descTextMapHash": 2516492524,
      "GMKDJFPEFFF": [
        1100901
      ],
      "finishCond": [
        {
          "KPGKDHAFHFE": "QUEST_CONTENT_LUA_NOTIFY",
          "param": [
            0,
            0
          ],
          "count": 1
        }
      ],
      "failCond": [
        {
          "KPGKDHAFHFE": "QUEST_CONTENT_ENTER_MY_WORLD",
          "param": [
            3,
            0
          ]
        },
        {
          "KPGKDHAFHFE": "QUEST_CONTENT_ANY_MANUAL_TRANSPORT",
          "param": [
            0,
            0
          ]
        },
        {
          "KPGKDHAFHFE": "QUEST_CONTENT_TEAM_DEAD",
          "param": [
            0,
            0
          ]
        },
        {
          "KPGKDHAFHFE": "QUEST_CONTENT_FAIL_DUNGEON",
          "param": [
            1127,
            0
          ]
        }
      ],
      "guide": {
        "guideScene": 20121
      },
      "showGuide": "QUEST_GUIDE_ITEM_DISABLE",
      "guideHint": {
        "param1": ""
      },
      "isRewind": true,
      "failExec": [
        {
          "KPGKDHAFHFE": "QUEST_EXEC_REMOVE_TRIAL_AVATAR",
          "param": [
            "35"
          ]
        },
        {
          "KPGKDHAFHFE": "QUEST_EXEC_ROLLBACK_QUEST",
          "param": [
            "1101307"
          ]
        }
      ],
      "versionBegin": "",
      "versionEnd": ""
    },
    {
      "subId": 1101318,
      "mainId": 11013,
      "order": 25,
      "isMpBlock": true,
      "descTextMapHash": 2774939988,
      "GMKDJFPEFFF": [
        1100901
      ],
      "finishCond": [
        {
          "KPGKDHAFHFE": "QUEST_CONTENT_COMPLETE_TALK",
          "param": [
            1101307,
            0
          ]
        }
      ],
      "failCond": [
        {
          "KPGKDHAFHFE": "QUEST_CONTENT_ENTER_MY_WORLD",
          "param": [
            3,
            0
          ]
        },
        {
          "KPGKDHAFHFE": "QUEST_CONTENT_ANY_MANUAL_TRANSPORT",
          "param": [
            0,
            0
          ]
        },
        {
          "KPGKDHAFHFE": "QUEST_CONTENT_TEAM_DEAD",
          "param": [
            0,
            0
          ]
        },
        {
          "KPGKDHAFHFE": "QUEST_CONTENT_FAIL_DUNGEON",
          "param": [
            1127,
            0
          ]
        }
      ],
      "guide": {
        "KPGKDHAFHFE": "QUEST_GUIDE_NPC",
        "autoGuide": "QUEST_GUIDE_AUTO_ENABLE",
        "param": [
          "1045"
        ],
        "guideScene": 20121,
        "guideStyle": "QUEST_GUIDE_STYLE_TARGET",
        "guideLayer": "QUEST_GUIDE_LAYER_SCENE"
      },
      "guideHint": {
        "param1": ""
      },
      "isRewind": true,
      "finishExec": [
        {
          "KPGKDHAFHFE": "QUEST_EXEC_REFRESH_GROUP_SUITE",
          "param": [
            "20121",
            "220121013,2"
          ]
        },
        {
          "KPGKDHAFHFE": "QUEST_EXEC_DEL_SCENE_TAG",
          "param": [
            "3",
            "128"
          ]
        },
        {
          "KPGKDHAFHFE": "QUEST_EXEC_ADD_SCENE_TAG",
          "param": [
            "3",
            "129"
          ]
        },
        {
          "KPGKDHAFHFE": "QUEST_EXEC_REMOVE_TRIAL_AVATAR",
          "param": [
            "35"
          ]
        },
        {
          "KPGKDHAFHFE": "QUEST_EXEC_LOCK_POINT",
          "param": [
            "3",
            "430"
          ]
        }
      ],
      "failExec": [
        {
          "KPGKDHAFHFE": "QUEST_EXEC_REMOVE_TRIAL_AVATAR",
          "param": [
            "35"
          ]
        },
        {
          "KPGKDHAFHFE": "QUEST_EXEC_ROLLBACK_QUEST",
          "param": [
            "1101307"
          ]
        }
      ],
      "versionBegin": "",
      "versionEnd": ""
    },
    {
      "subId": 1101319,
      "mainId": 11013,
      "order": 27,
      "descTextMapHash": 3463888292,
      "GMKDJFPEFFF": [
        1100901
      ],
      "finishCond": [
        {
          "KPGKDHAFHFE": "QUEST_CONTENT_COMPLETE_TALK",
          "param": [
            1101308,
            0
          ]
        }
      ],
      "guide": {
        "KPGKDHAFHFE": "QUEST_GUIDE_NPC",
        "autoGuide": "QUEST_GUIDE_AUTO_ENABLE",
        "param": [
          "1045"
        ],
        "guideScene": 3,
        "guideStyle": "QUEST_GUIDE_STYLE_TARGET",
        "guideLayer": "QUEST_GUIDE_LAYER_SCENE"
      },
      "guideHint": {
        "param1": ""
      },
      "isRewind": true,
      "versionBegin": "",
      "versionEnd": ""
    },
    {
      "subId": 1101320,
      "mainId": 11013,
      "order": 28,
      "descTextMapHash": 228935564,
      "stepDescTextMapHash": 1730517525,
      "GMKDJFPEFFF": [
        1100901
      ],
      "finishCond": [
        {
          "KPGKDHAFHFE": "QUEST_CONTENT_FINISH_PLOT",
          "param": [
            1101320,
            0
          ]
        }
      ],
      "guide": {
        "KPGKDHAFHFE": "QUEST_GUIDE_LOCATION",
        "autoGuide": "QUEST_GUIDE_AUTO_ENABLE",
        "param": [
          "Q11013OldmanRest",
          "20"
        ],
        "guideScene": 3,
        "guideStyle": "QUEST_GUIDE_STYLE_TARGET",
        "guideLayer": "QUEST_GUIDE_LAYER_SCENE"
      },
      "guideHint": {
        "param1": ""
      },
      "isRewind": true,
      "versionBegin": "",
      "versionEnd": ""
    },
    {
      "subId": 1101321,
      "mainId": 11013,
      "order": 29,
      "descTextMapHash": 4206973420,
      "GMKDJFPEFFF": [
        1100901
      ],
      "finishCond": [
        {
          "KPGKDHAFHFE": "QUEST_CONTENT_COMPLETE_TALK",
          "param": [
            1101309,
            0
          ]
        }
      ],
      "guide": {
        "KPGKDHAFHFE": "QUEST_GUIDE_NPC",
        "autoGuide": "QUEST_GUIDE_AUTO_ENABLE",
        "param": [
          "12332"
        ],
        "guideScene": 3,
        "guideStyle": "QUEST_GUIDE_STYLE_TARGET",
        "guideLayer": "QUEST_GUIDE_LAYER_SCENE"
      },
      "guideHint": {
        "param1": ""
      },
      "isRewind": true,
      "versionBegin": "",
      "versionEnd": ""
    },
    {
      "subId": 1101322,
      "mainId": 11013,
      "order": 31,
      "descTextMapHash": 4166005044,
      "stepDescTextMapHash": 1062231189,
      "GMKDJFPEFFF": [
        1100901
      ],
      "finishCond": [
        {
          "KPGKDHAFHFE": "QUEST_CONTENT_COMPLETE_TALK",
          "param": [
            1101310,
            0
          ]
        }
      ],
      "guide": {
        "KPGKDHAFHFE": "QUEST_GUIDE_NPC",
        "autoGuide": "QUEST_GUIDE_AUTO_ENABLE",
        "param": [
          "10258"
        ],
        "guideScene": 3,
        "guideStyle": "QUEST_GUIDE_STYLE_TARGET",
        "guideLayer": "QUEST_GUIDE_LAYER_SCENE"
      },
      "guideHint": {
        "param1": ""
      },
      "isRewind": true,
      "finishExec": [
        {
          "KPGKDHAFHFE": "QUEST_EXEC_SET_GAME_TIME",
          "param": [
            "20"
          ]
        }
      ],
      "versionBegin": "",
      "versionEnd": ""
    },
    {
      "subId": 1101323,
      "mainId": 11013,
      "order": 15,
      "isMpBlock": true,
      "descTextMapHash": 327679044,
      "GMKDJFPEFFF": [
        1100901
      ],
      "finishCond": [
        {
          "KPGKDHAFHFE": "QUEST_CONTENT_LUA_NOTIFY",
          "param": [
            0,
            0
          ],
          "count": 1
        }
      ],
      "failCond": [
        {
          "KPGKDHAFHFE": "QUEST_CONTENT_ENTER_MY_WORLD",
          "param": [
            3,
            0
          ]
        },
        {
          "KPGKDHAFHFE": "QUEST_CONTENT_ANY_MANUAL_TRANSPORT",
          "param": [
            0,
            0
          ]
        },
        {
          "KPGKDHAFHFE": "QUEST_CONTENT_TEAM_DEAD",
          "param": [
            0,
            0
          ]
        },
        {
          "KPGKDHAFHFE": "QUEST_CONTENT_FAIL_DUNGEON",
          "param": [
            1127,
            0
          ]
        }
      ],
      "guide": {
        "guideScene": 20121
      },
      "showGuide": "QUEST_GUIDE_ITEM_DISABLE",
      "guideHint": {
        "param1": ""
      },
      "isRewind": true,
      "failExec": [
        {
          "KPGKDHAFHFE": "QUEST_EXEC_REMOVE_TRIAL_AVATAR",
          "param": [
            "35"
          ]
        },
        {
          "KPGKDHAFHFE": "QUEST_EXEC_ROLLBACK_QUEST",
          "param": [
            "1101307"
          ]
        }
      ],
      "versionBegin": "",
      "versionEnd": ""
    },
    {
      "subId": 1101324,
      "mainId": 11013,
      "order": 33,
      "descTextMapHash": 1705386076,
      "GMKDJFPEFFF": [
        1100901
      ],
      "finishCond": [
        {
          "KPGKDHAFHFE": "QUEST_CONTENT_GAME_TIME_TICK",
          "param": [
            1,
            0
          ]
        }
      ],
      "guide": {
        "guideScene": 3,
        "guideLayer": "QUEST_GUIDE_LAYER_SCENE"
      },
      "showGuide": "QUEST_GUIDE_ITEM_DISABLE",
      "guideHint": {
        "param1": ""
      },
      "isRewind": true,
      "versionBegin": "",
      "versionEnd": ""
    },
    {
      "subId": 1101325,
      "mainId": 11013,
      "order": 35,
      "descTextMapHash": 3170177764,
      "GMKDJFPEFFF": [
        1100901
      ],
      "finishCond": [
        {
          "KPGKDHAFHFE": "QUEST_CONTENT_COMPLETE_TALK",
          "param": [
            1101311,
            0
          ]
        }
      ],
      "guide": {
        "KPGKDHAFHFE": "QUEST_GUIDE_NPC",
        "autoGuide": "QUEST_GUIDE_AUTO_ENABLE",
        "param": [
          "1045"
        ],
        "guideScene": 3,
        "guideStyle": "QUEST_GUIDE_STYLE_TARGET",
        "guideLayer": "QUEST_GUIDE_LAYER_SCENE"
      },
      "guideHint": {
        "param1": ""
      },
      "finishParent": true,
      "finishExec": [
        {
          "KPGKDHAFHFE": "QUEST_EXEC_DEL_SCENE_TAG",
          "param": [
            "3",
            "129"
          ]
        },
        {
          "KPGKDHAFHFE": "QUEST_EXEC_ADD_SCENE_TAG",
          "param": [
            "3",
            "130"
          ]
        }
      ],
      "versionBegin": "",
      "versionEnd": ""
    },
    {
      "subId": 1101326,
      "mainId": 11013,
      "order": 3,
      "descTextMapHash": 2622578204,
      "stepDescTextMapHash": 141281717,
      "GMKDJFPEFFF": [
        1100901,
        310702,
        310715
      ],
      "finishCond": [
        {
          "KPGKDHAFHFE": "QUEST_CONTENT_FINISH_PLOT",
          "param": [
            1101326,
            0
          ]
        }
      ],
      "guide": {
        "KPGKDHAFHFE": "QUEST_GUIDE_LOCATION",
        "autoGuide": "QUEST_GUIDE_AUTO_ENABLE",
        "param": [
          "Q11013PlayerDungeon1Enter"
        ],
        "guideScene": 3,
        "guideStyle": "QUEST_GUIDE_STYLE_POINT",
        "guideLayer": "QUEST_GUIDE_LAYER_SCENE"
      },
      "guideHint": {
        "param1": ""
      },
      "isRewind": true,
      "versionBegin": "",
      "versionEnd": ""
    },
    {
      "subId": 1101327,
      "mainId": 11013,
      "order": 4,
      "descTextMapHash": 3603735316,
      "showType": "QUEST_HIDDEN",
      "finishCond": [
        {
          "KPGKDHAFHFE": "QUEST_CONTENT_FINISH_PLOT",
          "param": [
            1101327,
            0
          ]
        }
      ],
      "guide": {
        "guideScene": 3,
        "guideLayer": "QUEST_GUIDE_LAYER_SCENE"
      },
      "showGuide": "QUEST_GUIDE_ITEM_DISABLE",
      "guideHint": {
        "param1": ""
      },
      "failParentShow": "QUEST_HIDDEN",
      "finishExec": [
        {
          "KPGKDHAFHFE": "QUEST_EXEC_SET_GAME_TIME",
          "param": [
            "20"
          ]
        },
        {
          "KPGKDHAFHFE": "QUEST_EXEC_REGISTER_DYNAMIC_GROUP",
          "param": [
            "3",
            "133107204"
          ]
        }
      ],
      "versionBegin": "",
      "versionEnd": ""
    },
    {
      "subId": 1101328,
      "mainId": 11013,
      "order": 7,
      "descTextMapHash": 1908343092,
      "showType": "QUEST_HIDDEN",
      "finishCond": [
        {
          "KPGKDHAFHFE": "QUEST_CONTENT_QUEST_STATE_EQUAL",
          "param": [
            1101307,
            3
          ]
        }
      ],
      "failCond": [
        {
          "KPGKDHAFHFE": "QUEST_CONTENT_ANY_MANUAL_TRANSPORT",
          "param": [
            0,
            0
          ]
        },
        {
          "KPGKDHAFHFE": "QUEST_CONTENT_ENTER_MY_WORLD",
          "param": [
            3,
            0
          ]
        },
        {
          "KPGKDHAFHFE": "QUEST_CONTENT_NOT_FINISH_PLOT",
          "param": [
            1101328,
            0
          ]
        }
      ],
      "guide": {
        "guideScene": 3,
        "guideLayer": "QUEST_GUIDE_LAYER_SCENE"
      },
      "showGuide": "QUEST_GUIDE_ITEM_DISABLE",
      "guideHint": {
        "param1": ""
      },
      "failParentShow": "QUEST_HIDDEN",
      "versionBegin": "",
      "versionEnd": ""
    },
    {
      "subId": 1101329,
      "mainId": 11013,
      "order": 10,
      "descTextMapHash": 2384073100,
      "showType": "QUEST_HIDDEN",
      "finishCond": [
        {
          "KPGKDHAFHFE": "QUEST_CONTENT_FINISH_PLOT",
          "param": [
            1101329,
            0
          ]
        }
      ],
      "guide": {
        "guideScene": 20121,
        "guideLayer": "QUEST_GUIDE_LAYER_SCENE"
      },
      "showGuide": "QUEST_GUIDE_ITEM_DISABLE",
      "guideHint": {
        "param1": ""
      },
      "failParentShow": "QUEST_HIDDEN",
      "finishExec": [
        {
          "KPGKDHAFHFE": "QUEST_EXEC_NOTIFY_GROUP_LUA",
          "param": [
            "20121",
            "220121008"
          ]
        }
      ],
      "versionBegin": "",
      "versionEnd": ""
    },
    {
      "subId": 1101330,
      "mainId": 11013,
      "order": 14,
      "descTextMapHash": 401632116,
      "showType": "QUEST_HIDDEN",
      "finishCond": [
        {
          "KPGKDHAFHFE": "QUEST_CONTENT_FINISH_PLOT",
          "param": [
            1101330,
            0
          ]
        }
      ],
      "guide": {
        "guideScene": 20121,
        "guideLayer": "QUEST_GUIDE_LAYER_SCENE"
      },
      "showGuide": "QUEST_GUIDE_ITEM_DISABLE",
      "guideHint": {
        "param1": ""
      },
      "failParentShow": "QUEST_HIDDEN",
      "finishExec": [
        {
          "KPGKDHAFHFE": "QUEST_EXEC_NOTIFY_GROUP_LUA",
          "param": [
            "20121",
            "220121011"
          ]
        }
      ],
      "versionBegin": "",
      "versionEnd": ""
    },
    {
      "subId": 1101331,
      "mainId": 11013,
      "order": 19,
      "descTextMapHash": 3010476940,
      "showType": "QUEST_HIDDEN",
      "finishCond": [
        {
          "KPGKDHAFHFE": "QUEST_CONTENT_FINISH_PLOT",
          "param": [
            1101331,
            0
          ]
        }
      ],
      "guide": {
        "guideScene": 20121,
        "guideLayer": "QUEST_GUIDE_LAYER_SCENE"
      },
      "showGuide": "QUEST_GUIDE_ITEM_DISABLE",
      "guideHint": {
        "param1": ""
      },
      "failParentShow": "QUEST_HIDDEN",
      "finishExec": [
        {
          "KPGKDHAFHFE": "QUEST_EXEC_NOTIFY_GROUP_LUA",
          "param": [
            "20121",
            "220121012"
          ]
        }
      ],
      "versionBegin": "",
      "versionEnd": ""
    },
    {
      "subId": 1101332,
      "mainId": 11013,
      "order": 23,
      "isMpBlock": true,
      "descTextMapHash": 3564338508,
      "GMKDJFPEFFF": [
        1100901
      ],
      "finishCond": [
        {
          "KPGKDHAFHFE": "QUEST_CONTENT_FINISH_PLOT",
          "param": [
            1101332,
            0
          ]
        }
      ],
      "failCond": [
        {
          "KPGKDHAFHFE": "QUEST_CONTENT_ENTER_MY_WORLD",
          "param": [
            3,
            0
          ]
        },
        {
          "KPGKDHAFHFE": "QUEST_CONTENT_ANY_MANUAL_TRANSPORT",
          "param": [
            0,
            0
          ]
        },
        {
          "KPGKDHAFHFE": "QUEST_CONTENT_TEAM_DEAD",
          "param": [
            0,
            0
          ]
        },
        {
          "KPGKDHAFHFE": "QUEST_CONTENT_FAIL_DUNGEON",
          "param": [
            1127,
            0
          ]
        }
      ],
      "guide": {
        "guideScene": 20121
      },
      "showGuide": "QUEST_GUIDE_ITEM_DISABLE",
      "guideHint": {
        "param1": ""
      },
      "isRewind": true,
      "finishExec": [
        {
          "KPGKDHAFHFE": "QUEST_EXEC_NOTIFY_GROUP_LUA",
          "param": [
            "20121",
            "220121014"
          ]
        }
      ],
      "failExec": [
        {
          "KPGKDHAFHFE": "QUEST_EXEC_REMOVE_TRIAL_AVATAR",
          "param": [
            "35"
          ]
        },
        {
          "KPGKDHAFHFE": "QUEST_EXEC_ROLLBACK_QUEST",
          "param": [
            "1101307"
          ]
        }
      ],
      "versionBegin": "",
      "versionEnd": ""
    },
    {
      "subId": 1101333,
      "mainId": 11013,
      "order": 30,
      "descTextMapHash": 3550533460,
      "showType": "QUEST_HIDDEN",
      "finishCond": [
        {
          "KPGKDHAFHFE": "QUEST_CONTENT_FINISH_PLOT",
          "param": [
            1101333,
            0
          ]
        }
      ],
      "guide": {
        "guideScene": 3,
        "guideLayer": "QUEST_GUIDE_LAYER_SCENE"
      },
      "showGuide": "QUEST_GUIDE_ITEM_DISABLE",
      "guideHint": {
        "param1": ""
      },
      "failParentShow": "QUEST_HIDDEN",
      "finishExec": [
        {
          "KPGKDHAFHFE": "QUEST_EXEC_SET_GAME_TIME",
          "param": [
            "20"
          ]
        }
      ],
      "versionBegin": "",
      "versionEnd": ""
    },
    {
      "subId": 1101334,
      "mainId": 11013,
      "order": 18,
      "descTextMapHash": 608397708,
      "showType": "QUEST_HIDDEN",
      "finishCond": [
        {
          "KPGKDHAFHFE": "QUEST_CONTENT_FINISH_PLOT",
          "param": [
            1101334,
            0
          ]
        }
      ],
      "guide": {
        "guideScene": 20121,
        "guideLayer": "QUEST_GUIDE_LAYER_SCENE"
      },
      "showGuide": "QUEST_GUIDE_ITEM_DISABLE",
      "guideHint": {
        "param1": ""
      },
      "failParentShow": "QUEST_HIDDEN",
      "finishExec": [
        {
          "KPGKDHAFHFE": "QUEST_EXEC_NOTIFY_GROUP_LUA",
          "param": [
            "20121",
            "220121012"
          ]
        }
      ],
      "versionBegin": "",
      "versionEnd": ""
    },
    {
      "subId": 1101335,
      "mainId": 11013,
      "order": 34,
      "descTextMapHash": 261110884,
      "stepDescTextMapHash": 1252164245,
      "GMKDJFPEFFF": [
        1100901
      ],
      "finishCond": [
        {
          "KPGKDHAFHFE": "QUEST_CONTENT_FINISH_PLOT",
          "param": [
            1101335,
            0
          ]
        }
      ],
      "guide": {
        "KPGKDHAFHFE": "QUEST_GUIDE_LOCATION",
        "autoGuide": "QUEST_GUIDE_AUTO_ENABLE",
        "param": [
          "Q11013OldmanRest",
          "30"
        ],
        "guideScene": 3,
        "guideStyle": "QUEST_GUIDE_STYLE_TARGET",
        "guideLayer": "QUEST_GUIDE_LAYER_SCENE"
      },
      "guideHint": {
        "param1": ""
      },
      "isRewind": true,
      "versionBegin": "",
      "versionEnd": ""
    },
    {
      "subId": 1101336,
      "mainId": 11013,
      "order": 26,
      "isMpBlock": true,
      "descTextMapHash": 4202952436,
      "stepDescTextMapHash": 3833874813,
      "GMKDJFPEFFF": [
        1100901
      ],
      "finishCond": [
        {
          "KPGKDHAFHFE": "QUEST_CONTENT_ENTER_MY_WORLD",
          "param": [
            3,
            0
          ]
        }
      ],
      "guide": {
        "KPGKDHAFHFE": "QUEST_GUIDE_LOCATION",
        "autoGuide": "QUEST_GUIDE_AUTO_ENABLE",
        "param": [
          "Q11014MishuBuilding"
        ],
        "guideScene": 3,
        "guideStyle": "QUEST_GUIDE_STYLE_POINT",
        "guideLayer": "QUEST_GUIDE_LAYER_SCENE"
      },
      "guideHint": {
        "param1": ""
      },
      "isRewind": true,
      "finishExec": [
        {
          "KPGKDHAFHFE": "QUEST_EXEC_SET_GAME_TIME",
          "param": [
            "18"
          ]
        }
      ],
      "versionBegin": "",
      "versionEnd": ""
    },
    {
      "subId": 1101337,
      "mainId": 11013,
      "order": 32,
      "descTextMapHash": 1038790028,
      "showType": "QUEST_HIDDEN",
      "finishCond": [
        {
          "KPGKDHAFHFE": "QUEST_CONTENT_FINISH_PLOT",
          "param": [
            1101337,
            0
          ]
        }
      ],
      "guide": {
        "guideScene": 3,
        "guideLayer": "QUEST_GUIDE_LAYER_SCENE"
      },
      "showGuide": "QUEST_GUIDE_ITEM_DISABLE",
      "guideHint": {
        "param1": ""
      },
      "failParentShow": "QUEST_HIDDEN",
      "finishExec": [
        {
          "KPGKDHAFHFE": "QUEST_EXEC_SET_GAME_TIME",
          "param": [
            "20"
          ]
        }
      ],
      "versionBegin": "",
      "versionEnd": ""
    }
  ],
  "talks": [
    {
      "id": 1101301,
      "beginWay": "TALK_BEGIN_MANUAL",
      "beginCond": [
        {
          "type": "QUEST_COND_STATE_EQUAL",
          "_param": [
            "1101301",
            "2"
          ]
        }
      ],
      "priority": 5,
      "initDialog": 110130101,
      "npcId": [
        1627,
        10045
      ],
      "performCfg": "QuestDialogue/AQ/Liyue4_11013/Q1101301",
      "heroTalk": "TALK_HERO_MAIN",
      "questId": 11013,
      "assetIndex": 5136530563789004516,
      "prePerformCfg": ""
    },
    {
      "id": 1101302,
      "beginWay": "TALK_BEGIN_MANUAL",
      "beginCond": [
        {
          "type": "QUEST_COND_STATE_EQUAL",
          "_param": [
            "1101326",
            "2"
          ]
        }
      ],
      "priority": 5,
      "initDialog": 110130201,
      "npcId": [
        10045
      ],
      "performCfg": "QuestDialogue/AQ/Liyue4_11013/Q1101302",
      "heroTalk": "TALK_HERO_MAIN",
      "questId": 11013,
      "assetIndex": 13269789176410593190,
      "prePerformCfg": "",
      "lowPriority": true
    },
    {
      "id": 1101303,
      "beginWay": "TALK_BEGIN_MANUAL",
      "beginCond": [
        {
          "type": "QUEST_COND_STATE_EQUAL",
          "_param": [
            "1101305",
            "2"
          ]
        }
      ],
      "priority": 5,
      "initDialog": 110130301,
      "npcId": [
        1045
      ],
      "performCfg": "QuestDialogue/AQ/Liyue4_11013/Q1101303",
      "heroTalk": "TALK_HERO_MAIN",
      "questId": 11013,
      "assetIndex": 12973905857398058823,
      "prePerformCfg": ""
    },
    {
      "id": 1101304,
      "beginWay": "TALK_BEGIN_MANUAL",
      "beginCond": [
        {
          "type": "QUEST_COND_STATE_EQUAL",
          "_param": [
            "1101308",
            "2"
          ]
        }
      ],
      "priority": 5,
      "initDialog": 110130401,
      "npcId": [
        1045
      ],
      "performCfg": "QuestDialogue/AQ/Liyue4_11013/Q1101304",
      "heroTalk": "TALK_HERO_MAIN",
      "questId": 11013,
      "assetIndex": 11364053147440780337,
      "prePerformCfg": ""
    },
    {
      "id": 1101305,
      "beginWay": "TALK_BEGIN_MANUAL",
      "beginCond": [
        {
          "type": "QUEST_COND_STATE_EQUAL",
          "_param": [
            "1101311",
            "2"
          ]
        }
      ],
      "priority": 5,
      "initDialog": 110130501,
      "npcId": [
        1005
      ],
      "performCfg": "QuestDialogue/AQ/Liyue4_11013/Q1101305",
      "heroTalk": "TALK_HERO_MAIN",
      "questId": 11013,
      "assetIndex": 2061124873332313289,
      "prePerformCfg": ""
    },
    {
      "id": 1101306,
      "beginWay": "TALK_BEGIN_MANUAL",
      "beginCond": [
        {
          "type": "QUEST_COND_STATE_EQUAL",
          "_param": [
            "1101313",
            "2"
          ]
        }
      ],
      "priority": 5,
      "initDialog": 110130601,
      "npcId": [
        1005
      ],
      "performCfg": "QuestDialogue/AQ/Liyue4_11013/Q1101306",
      "heroTalk": "TALK_HERO_MAIN",
      "questId": 11013,
      "assetIndex": 1835400501831619457,
      "prePerformCfg": ""
    },
    {
      "id": 1101307,
      "beginWay": "TALK_BEGIN_MANUAL",
      "beginCond": [
        {
          "type": "QUEST_COND_STATE_EQUAL",
          "_param": [
            "1101318",
            "2"
          ]
        }
      ],
      "priority": 5,
      "initDialog": 110130701,
      "npcId": [
        1045
      ],
      "performCfg": "QuestDialogue/AQ/Liyue4_11013/Q1101307",
      "heroTalk": "TALK_HERO_MAIN",
      "questId": 11013,
      "assetIndex": 5475246065273861548,
      "prePerformCfg": ""
    },
    {
      "id": 1101308,
      "beginWay": "TALK_BEGIN_MANUAL",
      "beginCond": [
        {
          "type": "QUEST_COND_STATE_EQUAL",
          "_param": [
            "1101319",
            "2"
          ]
        }
      ],
      "priority": 5,
      "initDialog": 110130801,
      "npcId": [
        1045
      ],
      "performCfg": "QuestDialogue/AQ/Liyue4_11013/Q1101308",
      "heroTalk": "TALK_HERO_MAIN",
      "questId": 11013,
      "assetIndex": 1067255582986952708,
      "prePerformCfg": ""
    },
    {
      "id": 1101309,
      "beginWay": "TALK_BEGIN_MANUAL",
      "beginCond": [
        {
          "type": "QUEST_COND_STATE_EQUAL",
          "_param": [
            "1101321",
            "2"
          ]
        }
      ],
      "priority": 5,
      "initDialog": 110130901,
      "npcId": [
        12332
      ],
      "performCfg": "QuestDialogue/AQ/Liyue4_11013/Q1101309",
      "heroTalk": "TALK_HERO_MAIN",
      "questId": 11013,
      "assetIndex": 1127741602267239998,
      "prePerformCfg": "",
      "lockGameTime": true
    },
    {
      "id": 1101310,
      "beginWay": "TALK_BEGIN_MANUAL",
      "beginCond": [
        {
          "type": "QUEST_COND_STATE_EQUAL",
          "_param": [
            "1101322",
            "2"
          ]
        }
      ],
      "priority": 5,
      "initDialog": 110131001,
      "npcId": [
        10258
      ],
      "performCfg": "QuestDialogue/AQ/Liyue4_11013/Q1101310",
      "heroTalk": "TALK_HERO_MAIN",
      "questId": 11013,
      "assetIndex": 14204787437027702626,
      "prePerformCfg": "",
      "lockGameTime": true
    },
    {
      "id": 1101311,
      "beginWay": "TALK_BEGIN_MANUAL",
      "beginCond": [
        {
          "type": "QUEST_COND_STATE_EQUAL",
          "_param": [
            "1101325",
            "2"
          ]
        }
      ],
      "priority": 5,
      "initDialog": 110131101,
      "npcId": [
        1045
      ],
      "performCfg": "QuestDialogue/AQ/Liyue4_11013/Q1101311",
      "heroTalk": "TALK_HERO_MAIN",
      "questId": 11013,
      "assetIndex": 13478962642760827805,
      "prePerformCfg": "",
      "lockGameTime": true
    },
    {
      "id": 1101312,
      "beginWay": "TALK_BEGIN_MANUAL",
      "beginCondComb": "LOGIC_OR",
      "beginCond": [
        {
          "type": "QUEST_COND_STATE_EQUAL",
          "_param": [
            "1101319",
            "2"
          ]
        },
        {
          "type": "QUEST_COND_STATE_EQUAL",
          "_param": [
            "1101320",
            "2"
          ]
        },
        {
          "type": "QUEST_COND_STATE_EQUAL",
          "_param": [
            "1101321",
            "2"
          ]
        },
        {
          "type": "QUEST_COND_STATE_EQUAL",
          "_param": [
            "1101322",
            "2"
          ]
        },
        {
          "type": "QUEST_COND_STATE_EQUAL",
          "_param": [
            "1101324",
            "2"
          ]
        }
      ],
      "priority": 5,
      "initDialog": 110131201,
      "npcId": [
        12344
      ],
      "performCfg": "QuestDialogue/AQ/Liyue4_11013/Q1101312",
      "heroTalk": "TALK_HERO_MAIN",
      "questId": 11013,
      "assetIndex": 1264982595643257536,
      "prePerformCfg": "",
      "lowPriority": true
    },
    {
      "id": 1101313,
      "beginWay": "TALK_BEGIN_MANUAL",
      "beginCondComb": "LOGIC_OR",
      "beginCond": [
        {
          "type": "QUEST_COND_STATE_EQUAL",
          "_param": [
            "1101325",
            "2"
          ]
        },
        {
          "type": "QUEST_COND_STATE_EQUAL",
          "_param": [
            "1101335",
            "2"
          ]
        }
      ],
      "priority": 5,
      "initDialog": 110131201,
      "npcId": [
        12344
      ],
      "performCfg": "QuestDialogue/AQ/Liyue4_11013/Q1101312",
      "heroTalk": "TALK_HERO_MAIN",
      "questId": 11013,
      "assetIndex": 12148695816996726303,
      "prePerformCfg": "",
      "lowPriority": true
    },
    {
      "id": 1101314,
      "beginWay": "TALK_BEGIN_MANUAL",
      "beginCondComb": "LOGIC_OR",
      "beginCond": [
        {
          "type": "QUEST_COND_STATE_EQUAL",
          "_param": [
            "1101319",
            "2"
          ]
        },
        {
          "type": "QUEST_COND_STATE_EQUAL",
          "_param": [
            "1101320",
            "2"
          ]
        },
        {
          "type": "QUEST_COND_STATE_EQUAL",
          "_param": [
            "1101321",
            "2"
          ]
        },
        {
          "type": "QUEST_COND_STATE_EQUAL",
          "_param": [
            "1101322",
            "2"
          ]
        },
        {
          "type": "QUEST_COND_STATE_EQUAL",
          "_param": [
            "1101324",
            "2"
          ]
        }
      ],
      "priority": 5,
      "initDialog": 110131401,
      "npcId": [
        12345
      ],
      "performCfg": "QuestDialogue/AQ/Liyue4_11013/Q1101314",
      "heroTalk": "TALK_HERO_MAIN",
      "questId": 11013,
      "assetIndex": 15508975767247206545,
      "prePerformCfg": "",
      "lowPriority": true
    },
    {
      "id": 1101315,
      "beginWay": "TALK_BEGIN_MANUAL",
      "beginCondComb": "LOGIC_OR",
      "beginCond": [
        {
          "type": "QUEST_COND_STATE_EQUAL",
          "_param": [
            "1101325",
            "2"
          ]
        },
        {
          "type": "QUEST_COND_STATE_EQUAL",
          "_param": [
            "1101335",
            "2"
          ]
        }
      ],
      "priority": 5,
      "initDialog": 110131401,
      "npcId": [
        12345
      ],
      "performCfg": "QuestDialogue/AQ/Liyue4_11013/Q1101314",
      "heroTalk": "TALK_HERO_MAIN",
      "questId": 11013,
      "assetIndex": 3931936631686526461,
      "prePerformCfg": "",
      "lowPriority": true
    },
    {
      "id": 1101316,
      "beginWay": "TALK_BEGIN_MANUAL",
      "beginCondComb": "LOGIC_OR",
      "beginCond": [
        {
          "type": "QUEST_COND_STATE_EQUAL",
          "_param": [
            "1101319",
            "2"
          ]
        },
        {
          "type": "QUEST_COND_STATE_EQUAL",
          "_param": [
            "1101320",
            "2"
          ]
        },
        {
          "type": "QUEST_COND_STATE_EQUAL",
          "_param": [
            "1101321",
            "2"
          ]
        },
        {
          "type": "QUEST_COND_STATE_EQUAL",
          "_param": [
            "1101322",
            "2"
          ]
        },
        {
          "type": "QUEST_COND_STATE_EQUAL",
          "_param": [
            "1101324",
            "2"
          ]
        }
      ],
      "priority": 5,
      "initDialog": 110131601,
      "npcId": [
        12346
      ],
      "performCfg": "QuestDialogue/AQ/Liyue4_11013/Q1101316",
      "heroTalk": "TALK_HERO_MAIN",
      "questId": 11013,
      "assetIndex": 15084168931931006723,
      "prePerformCfg": "",
      "lowPriority": true
    },
    {
      "id": 1101317,
      "beginWay": "TALK_BEGIN_MANUAL",
      "beginCondComb": "LOGIC_OR",
      "beginCond": [
        {
          "type": "QUEST_COND_STATE_EQUAL",
          "_param": [
            "1101325",
            "2"
          ]
        },
        {
          "type": "QUEST_COND_STATE_EQUAL",
          "_param": [
            "1101335",
            "2"
          ]
        }
      ],
      "priority": 5,
      "initDialog": 110131701,
      "npcId": [
        12346
      ],
      "performCfg": "QuestDialogue/AQ/Liyue4_11013/Q1101316",
      "heroTalk": "TALK_HERO_MAIN",
      "questId": 11013,
      "assetIndex": 15821739665673815415,
      "prePerformCfg": "",
      "lowPriority": true
    },
    {
      "id": 1101318,
      "beginWay": "TALK_BEGIN_MANUAL",
      "beginCondComb": "LOGIC_OR",
      "beginCond": [
        {
          "type": "QUEST_COND_STATE_EQUAL",
          "_param": [
            "1101319",
            "2"
          ]
        },
        {
          "type": "QUEST_COND_STATE_EQUAL",
          "_param": [
            "1101320",
            "2"
          ]
        },
        {
          "type": "QUEST_COND_STATE_EQUAL",
          "_param": [
            "1101321",
            "2"
          ]
        },
        {
          "type": "QUEST_COND_STATE_EQUAL",
          "_param": [
            "1101322",
            "2"
          ]
        },
        {
          "type": "QUEST_COND_STATE_EQUAL",
          "_param": [
            "1101324",
            "2"
          ]
        }
      ],
      "priority": 5,
      "initDialog": 110131801,
      "npcId": [
        12371
      ],
      "performCfg": "QuestDialogue/AQ/Liyue4_11013/Q1101318",
      "heroTalk": "TALK_HERO_MAIN",
      "questId": 11013,
      "assetIndex": 15521139385007522781,
      "prePerformCfg": "",
      "lowPriority": true
    },
    {
      "id": 1101319,
      "beginWay": "TALK_BEGIN_MANUAL",
      "beginCondComb": "LOGIC_OR",
      "beginCond": [
        {
          "type": "QUEST_COND_STATE_EQUAL",
          "_param": [
            "1101325",
            "2"
          ]
        },
        {
          "type": "QUEST_COND_STATE_EQUAL",
          "_param": [
            "1101335",
            "2"
          ]
        }
      ],
      "priority": 5,
      "initDialog": 110131801,
      "npcId": [
        12371
      ],
      "performCfg": "QuestDialogue/AQ/Liyue4_11013/Q1101318",
      "heroTalk": "TALK_HERO_MAIN",
      "questId": 11013,
      "assetIndex": 16148384017402404632,
      "prePerformCfg": "",
      "lowPriority": true
    },
    {
      "id": 1101320,
      "beginWay": "TALK_BEGIN_MANUAL",
      "beginCondComb": "LOGIC_OR",
      "beginCond": [
        {
          "type": "QUEST_COND_STATE_EQUAL",
          "_param": [
            "1101319",
            "2"
          ]
        },
        {
          "type": "QUEST_COND_STATE_EQUAL",
          "_param": [
            "1101320",
            "2"
          ]
        },
        {
          "type": "QUEST_COND_STATE_EQUAL",
          "_param": [
            "1101321",
            "2"
          ]
        },
        {
          "type": "QUEST_COND_STATE_EQUAL",
          "_param": [
            "1101322",
            "2"
          ]
        },
        {
          "type": "QUEST_COND_STATE_EQUAL",
          "_param": [
            "1101324",
            "2"
          ]
        }
      ],
      "priority": 5,
      "initDialog": 110132001,
      "npcId": [
        12372
      ],
      "performCfg": "QuestDialogue/AQ/Liyue4_11013/Q1101320",
      "heroTalk": "TALK_HERO_MAIN",
      "questId": 11013,
      "assetIndex": 7155776508461357540,
      "prePerformCfg": "",
      "lowPriority": true
    },
    {
      "id": 1101321,
      "beginWay": "TALK_BEGIN_MANUAL",
      "beginCondComb": "LOGIC_OR",
      "beginCond": [
        {
          "type": "QUEST_COND_STATE_EQUAL",
          "_param": [
            "1101325",
            "2"
          ]
        },
        {
          "type": "QUEST_COND_STATE_EQUAL",
          "_param": [
            "1101335",
            "2"
          ]
        }
      ],
      "priority": 5,
      "initDialog": 110132001,
      "npcId": [
        12372
      ],
      "performCfg": "QuestDialogue/AQ/Liyue4_11013/Q1101320",
      "heroTalk": "TALK_HERO_MAIN",
      "questId": 11013,
      "assetIndex": 5610838601068381451,
      "prePerformCfg": "",
      "lowPriority": true
    },
    {
      "id": 1101322,
      "beginWay": "TALK_BEGIN_MANUAL",
      "beginCondComb": "LOGIC_OR",
      "beginCond": [
        {
          "type": "QUEST_COND_STATE_EQUAL",
          "_param": [
            "1101319",
            "2"
          ]
        },
        {
          "type": "QUEST_COND_STATE_EQUAL",
          "_param": [
            "1101320",
            "2"
          ]
        },
        {
          "type": "QUEST_COND_STATE_EQUAL",
          "_param": [
            "1101321",
            "2"
          ]
        },
        {
          "type": "QUEST_COND_STATE_EQUAL",
          "_param": [
            "1101322",
            "2"
          ]
        },
        {
          "type": "QUEST_COND_STATE_EQUAL",
          "_param": [
            "1101324",
            "2"
          ]
        }
      ],
      "priority": 5,
      "initDialog": 110132201,
      "npcId": [
        12348
      ],
      "performCfg": "QuestDialogue/AQ/Liyue4_11013/Q1101322",
      "heroTalk": "TALK_HERO_MAIN",
      "questId": 11013,
      "assetIndex": 3550232410972974405,
      "prePerformCfg": "",
      "lowPriority": true
    },
    {
      "id": 1101323,
      "beginWay": "TALK_BEGIN_MANUAL",
      "beginCondComb": "LOGIC_OR",
      "beginCond": [
        {
          "type": "QUEST_COND_STATE_EQUAL",
          "_param": [
            "1101325",
            "2"
          ]
        },
        {
          "type": "QUEST_COND_STATE_EQUAL",
          "_param": [
            "1101335",
            "2"
          ]
        }
      ],
      "priority": 5,
      "initDialog": 110132201,
      "npcId": [
        12348
      ],
      "performCfg": "QuestDialogue/AQ/Liyue4_11013/Q1101322",
      "heroTalk": "TALK_HERO_MAIN",
      "questId": 11013,
      "assetIndex": 8788665258663216102,
      "prePerformCfg": "",
      "lowPriority": true
    },
    {
      "id": 1101324,
      "beginWay": "TALK_BEGIN_MANUAL",
      "beginCondComb": "LOGIC_OR",
      "beginCond": [
        {
          "type": "QUEST_COND_STATE_EQUAL",
          "_param": [
            "1101301",
            "2"
          ]
        },
        {
          "type": "QUEST_COND_STATE_EQUAL",
          "_param": [
            "1101326",
            "2"
          ]
        },
        {
          "type": "QUEST_COND_STATE_EQUAL",
          "_param": [
            "1101305",
            "2"
          ]
        },
        {
          "type": "QUEST_COND_STATE_EQUAL",
          "_param": [
            "1101306",
            "2"
          ]
        },
        {
          "type": "QUEST_COND_STATE_EQUAL",
          "_param": [
            "1101307",
            "2"
          ]
        }
      ],
      "priority": 5,
      "initDialog": 110090501,
      "npcId": [
        12344
      ],
      "performCfg": "QuestDialogue/AQ/Liyue4_11009/Q1100905",
      "heroTalk": "TALK_HERO_MAIN",
      "questId": 11013,
      "assetIndex": 11142447570667754747,
      "prePerformCfg": "",
      "lowPriority": true
    },
    {
      "id": 1101325,
      "beginWay": "TALK_BEGIN_MANUAL",
      "beginCondComb": "LOGIC_OR",
      "beginCond": [
        {
          "type": "QUEST_COND_STATE_EQUAL",
          "_param": [
            "1101301",
            "2"
          ]
        },
        {
          "type": "QUEST_COND_STATE_EQUAL",
          "_param": [
            "1101326",
            "2"
          ]
        },
        {
          "type": "QUEST_COND_STATE_EQUAL",
          "_param": [
            "1101305",
            "2"
          ]
        },
        {
          "type": "QUEST_COND_STATE_EQUAL",
          "_param": [
            "1101306",
            "2"
          ]
        },
        {
          "type": "QUEST_COND_STATE_EQUAL",
          "_param": [
            "1101307",
            "2"
          ]
        }
      ],
      "priority": 5,
      "initDialog": 110090601,
      "npcId": [
        12345
      ],
      "performCfg": "QuestDialogue/AQ/Liyue4_11009/Q1100906",
      "heroTalk": "TALK_HERO_MAIN",
      "questId": 11013,
      "assetIndex": 8326460794294434500,
      "prePerformCfg": "",
      "lowPriority": true
    },
    {
      "id": 1101326,
      "beginWay": "TALK_BEGIN_MANUAL",
      "beginCondComb": "LOGIC_OR",
      "beginCond": [
        {
          "type": "QUEST_COND_STATE_EQUAL",
          "_param": [
            "1101301",
            "2"
          ]
        },
        {
          "type": "QUEST_COND_STATE_EQUAL",
          "_param": [
            "1101326",
            "2"
          ]
        },
        {
          "type": "QUEST_COND_STATE_EQUAL",
          "_param": [
            "1101305",
            "2"
          ]
        },
        {
          "type": "QUEST_COND_STATE_EQUAL",
          "_param": [
            "1101306",
            "2"
          ]
        },
        {
          "type": "QUEST_COND_STATE_EQUAL",
          "_param": [
            "1101307",
            "2"
          ]
        }
      ],
      "priority": 5,
      "initDialog": 110090701,
      "npcId": [
        12346
      ],
      "performCfg": "QuestDialogue/AQ/Liyue4_11009/Q1100907",
      "heroTalk": "TALK_HERO_MAIN",
      "questId": 11013,
      "assetIndex": 6409434912903015981,
      "prePerformCfg": "",
      "lowPriority": true
    },
    {
      "id": 1101327,
      "beginWay": "TALK_BEGIN_MANUAL",
      "beginCondComb": "LOGIC_OR",
      "beginCond": [
        {
          "type": "QUEST_COND_STATE_EQUAL",
          "_param": [
            "1101301",
            "2"
          ]
        },
        {
          "type": "QUEST_COND_STATE_EQUAL",
          "_param": [
            "1101326",
            "2"
          ]
        },
        {
          "type": "QUEST_COND_STATE_EQUAL",
          "_param": [
            "1101305",
            "2"
          ]
        },
        {
          "type": "QUEST_COND_STATE_EQUAL",
          "_param": [
            "1101306",
            "2"
          ]
        },
        {
          "type": "QUEST_COND_STATE_EQUAL",
          "_param": [
            "1101307",
            "2"
          ]
        }
      ],
      "priority": 5,
      "initDialog": 110090801,
      "npcId": [
        12371
      ],
      "performCfg": "QuestDialogue/AQ/Liyue4_11009/Q1100908",
      "heroTalk": "TALK_HERO_MAIN",
      "questId": 11013,
      "assetIndex": 4233015590220522648,
      "prePerformCfg": "",
      "lowPriority": true
    },
    {
      "id": 1101328,
      "beginWay": "TALK_BEGIN_MANUAL",
      "beginCondComb": "LOGIC_OR",
      "beginCond": [
        {
          "type": "QUEST_COND_STATE_EQUAL",
          "_param": [
            "1101301",
            "2"
          ]
        },
        {
          "type": "QUEST_COND_STATE_EQUAL",
          "_param": [
            "1101326",
            "2"
          ]
        },
        {
          "type": "QUEST_COND_STATE_EQUAL",
          "_param": [
            "1101305",
            "2"
          ]
        },
        {
          "type": "QUEST_COND_STATE_EQUAL",
          "_param": [
            "1101306",
            "2"
          ]
        },
        {
          "type": "QUEST_COND_STATE_EQUAL",
          "_param": [
            "1101307",
            "2"
          ]
        }
      ],
      "priority": 5,
      "initDialog": 110090901,
      "npcId": [
        12372
      ],
      "performCfg": "QuestDialogue/AQ/Liyue4_11009/Q1100909",
      "heroTalk": "TALK_HERO_MAIN",
      "questId": 11013,
      "assetIndex": 8547505664778053648,
      "prePerformCfg": "",
      "lowPriority": true
    },
    {
      "id": 1101329,
      "beginWay": "TALK_BEGIN_MANUAL",
      "beginCondComb": "LOGIC_OR",
      "beginCond": [
        {
          "type": "QUEST_COND_STATE_EQUAL",
          "_param": [
            "1101301",
            "2"
          ]
        },
        {
          "type": "QUEST_COND_STATE_EQUAL",
          "_param": [
            "1101326",
            "2"
          ]
        },
        {
          "type": "QUEST_COND_STATE_EQUAL",
          "_param": [
            "1101305",
            "2"
          ]
        },
        {
          "type": "QUEST_COND_STATE_EQUAL",
          "_param": [
            "1101306",
            "2"
          ]
        },
        {
          "type": "QUEST_COND_STATE_EQUAL",
          "_param": [
            "1101307",
            "2"
          ]
        }
      ],
      "priority": 5,
      "initDialog": 110091001,
      "npcId": [
        12348
      ],
      "performCfg": "QuestDialogue/AQ/Liyue4_11009/Q1100910",
      "heroTalk": "TALK_HERO_MAIN",
      "questId": 11013,
      "assetIndex": 17122719710669204451,
      "prePerformCfg": "",
      "lowPriority": true
    },
    {
      "id": 1101330,
      "beginWay": "TALK_BEGIN_MANUAL",
      "beginCondComb": "LOGIC_OR",
      "beginCond": [
        {
          "type": "QUEST_COND_STATE_EQUAL",
          "_param": [
            "1101301",
            "2"
          ]
        },
        {
          "type": "QUEST_COND_STATE_EQUAL",
          "_param": [
            "1101326",
            "2"
          ]
        },
        {
          "type": "QUEST_COND_STATE_EQUAL",
          "_param": [
            "1101305",
            "2"
          ]
        },
        {
          "type": "QUEST_COND_STATE_EQUAL",
          "_param": [
            "1101306",
            "2"
          ]
        },
        {
          "type": "QUEST_COND_STATE_EQUAL",
          "_param": [
            "1101307",
            "2"
          ]
        }
      ],
      "priority": 5,
      "initDialog": 110133001,
      "npcId": [
        1016
      ],
      "performCfg": "QuestDialogue/AQ/Liyue4_11013/Q1101330",
      "heroTalk": "TALK_HERO_MAIN",
      "questId": 11013,
      "assetIndex": 11146226343659303535,
      "prePerformCfg": "",
      "lowPriority": true
    },
    {
      "id": 1101331,
      "beginWay": "TALK_BEGIN_MANUAL",
      "beginCondComb": "LOGIC_OR",
      "beginCond": [
        {
          "type": "QUEST_COND_STATE_EQUAL",
          "_param": [
            "1101319",
            "2"
          ]
        },
        {
          "type": "QUEST_COND_STATE_EQUAL",
          "_param": [
            "1101320",
            "2"
          ]
        },
        {
          "type": "QUEST_COND_STATE_EQUAL",
          "_param": [
            "1101321",
            "2"
          ]
        },
        {
          "type": "QUEST_COND_STATE_EQUAL",
          "_param": [
            "1101322",
            "2"
          ]
        },
        {
          "type": "QUEST_COND_STATE_EQUAL",
          "_param": [
            "1101324",
            "2"
          ]
        }
      ],
      "priority": 5,
      "initDialog": 110133001,
      "npcId": [
        1016
      ],
      "performCfg": "QuestDialogue/AQ/Liyue4_11013/Q1101330",
      "heroTalk": "TALK_HERO_MAIN",
      "questId": 11013,
      "assetIndex": 14488015553121719405,
      "prePerformCfg": "",
      "lowPriority": true
    },
    {
      "id": 1101332,
      "beginWay": "TALK_BEGIN_MANUAL",
      "beginCond": [
        {
          "type": "QUEST_COND_STATE_EQUAL",
          "_param": [
            "1101325",
            "2"
          ]
        }
      ],
      "priority": 5,
      "initDialog": 110133001,
      "npcId": [
        1016
      ],
      "performCfg": "QuestDialogue/AQ/Liyue4_11013/Q1101330",
      "heroTalk": "TALK_HERO_MAIN",
      "questId": 11013,
      "assetIndex": 8894991796331434960,
      "prePerformCfg": "",
      "lowPriority": true
    },
    {
      "id": 1101333,
      "beginWay": "TALK_BEGIN_MANUAL",
      "beginCond": [
        {
          "type": "QUEST_COND_STATE_EQUAL",
          "_param": [
            "1101324",
            "2"
          ]
        }
      ],
      "priority": 5,
      "initDialog": 110133301,
      "npcId": [
        10258
      ],
      "performCfg": "QuestDialogue/AQ/Liyue4_11013/Q1101333",
      "heroTalk": "TALK_HERO_MAIN",
      "questId": 11013,
      "assetIndex": 10833766867843671657,
      "prePerformCfg": ""
    },
    {
      "id": 1101334,
      "beginWay": "TALK_BEGIN_MANUAL",
      "beginCond": [
        {
          "type": "QUEST_COND_STATE_EQUAL",
          "_param": [
            "1101324",
            "2"
          ]
        }
      ],
      "priority": 5,
      "initDialog": 110133401,
      "npcId": [
        10258
      ],
      "performCfg": "QuestDialogue/AQ/Liyue4_11013/Q1101334",
      "heroTalk": "TALK_HERO_MAIN",
      "questId": 11013,
      "assetIndex": 12272157304262972580,
      "prePerformCfg": ""
    },
    {
      "id": 1101335,
      "beginWay": "TALK_BEGIN_MANUAL",
      "beginCondComb": "LOGIC_OR",
      "beginCond": [
        {
          "type": "QUEST_COND_STATE_EQUAL",
          "_param": [
            "1101301",
            "2"
          ]
        },
        {
          "type": "QUEST_COND_STATE_EQUAL",
          "_param": [
            "1101326",
            "2"
          ]
        },
        {
          "type": "QUEST_COND_STATE_EQUAL",
          "_param": [
            "1101305",
            "2"
          ]
        },
        {
          "type": "QUEST_COND_STATE_EQUAL",
          "_param": [
            "1101306",
            "2"
          ]
        },
        {
          "type": "QUEST_COND_STATE_EQUAL",
          "_param": [
            "1101307",
            "2"
          ]
        }
      ],
      "priority": 5,
      "initDialog": 110091101,
      "npcId": [
        2143
      ],
      "performCfg": "QuestDialogue/AQ/Liyue4_11009/Q1100911",
      "heroTalk": "TALK_HERO_MAIN",
      "questId": 11013,
      "assetIndex": 15104464709781516848,
      "prePerformCfg": "",
      "lowPriority": true
    },
    {
      "id": 1101336,
      "beginWay": "TALK_BEGIN_MANUAL",
      "beginCond": [
        {
          "type": "QUEST_COND_STATE_EQUAL",
          "_param": [
            "1101332",
            "2"
          ]
        }
      ],
      "priority": 5,
      "initDialog": 110130601,
      "npcId": [
        1045
      ],
      "performCfg": "QuestDialogue/AQ/Liyue4_11013/Q1101336",
      "heroTalk": "TALK_HERO_MAIN",
      "questId": 11013,
      "assetIndex": 14472766309672183417,
      "prePerformCfg": ""
    },
    {
      "id": 1101337,
      "beginWay": "TALK_BEGIN_MANUAL",
      "beginCond": [
        {
          "type": "QUEST_COND_STATE_EQUAL",
          "_param": [
            "1101301",
            "2"
          ]
        }
      ],
      "priority": 5,
      "initDialog": 110090401,
      "npcId": [
        10234
      ],
      "performCfg": "QuestDialogue/AQ/Liyue4_11009/Q1100904",
      "heroTalk": "TALK_HERO_MAIN",
      "questId": 11013,
      "assetIndex": 7171860833300469787,
      "prePerformCfg": "",
      "lowPriority": true
    }
  ],
  "preloadLuaList": [
    14457059026087496718,
    8084609233738576287,
    88721266985321589,
    18003738600989825016,
    2198597944819492641,
    18156746209078453966,
    14482097013153005204
  ],
  "forcePreloadLuaList": [
    17946834679652718880
  ]
}