{
  "id": 11022,
  "resId": 2014,
  "series": 2014,
  "KPGKDHAFHFE": "LQ",
  "titleTextMapHash": 1065329863,
  "descTextMapHash": 127402118,
  "luaPath": "Actor/Quest/LQ11022",
  "suggestTrackMainQuestList": [
    11023
  ],
  "rewardIdList": [
    111022
  ],
  "chapterId": 2014,
  "subQuests": [
    {
      "subId": 1102201,
      "mainId": 11022,
      "order": 1,
      "descTextMapHash": 4252278436,
      "finishCond": [
        {
          "KPGKDHAFHFE": "QUEST_CONTENT_FINISH_PLOT",
          "param": [
            1102201,
            0
          ]
        }
      ],
      "guide": {
        "KPGKDHAFHFE": "QUEST_GUIDE_LOCATION",
        "param": [
          "Q11022Gad1"
        ],
        "guideScene": 3,
        "guideStyle": "QUEST_GUIDE_STYLE_POINT",
        "guideLayer": "QUEST_GUIDE_LAYER_SCENE"
      },
      "guideHint": {
        "param1": ""
      },
      "isRewind": true,
      "versionBegin": "",
      "versionEnd": ""
    },
    {
      "subId": 1102202,
      "mainId": 11022,
      "order": 2,
      "descTextMapHash": 3731769036,
      "finishCond": [
        {
          "KPGKDHAFHFE": "QUEST_CONTENT_COMPLETE_TALK",
          "param": [
            1102202,
            0
          ]
        }
      ],
      "guide": {
        "KPGKDHAFHFE": "QUEST_GUIDE_NPC",
        "param": [
          "10232"
        ],
        "guideScene": 3,
        "guideStyle": "QUEST_GUIDE_STYLE_TARGET",
        "guideLayer": "QUEST_GUIDE_LAYER_SCENE"
      },
      "guideHint": {
        "param1": ""
      },
      "isRewind": true,
      "versionBegin": "",
      "versionEnd": ""
    },
    {
      "subId": 1102203,
      "mainId": 11022,
      "order": 4,
      "isMpBlock": true,
      "descTextMapHash": 1457364836,
      "finishCond": [
        {
          "KPGKDHAFHFE": "QUEST_CONTENT_FINISH_PLOT",
          "param": [
            1102203,
            0
          ]
        }
      ],
      "guide": {
        "KPGKDHAFHFE": "QUEST_GUIDE_LOCATION",
        "param": [
          "Q11022Gad2",
          "20"
        ],
        "guideScene": 3,
        "guideStyle": "QUEST_GUIDE_STYLE_TARGET",
        "guideLayer": "QUEST_GUIDE_LAYER_SCENE"
      },
      "guideHint": {
        "param1": ""
      },
      "versionBegin": "",
      "versionEnd": ""
    },
    {
      "subId": 1102204,
      "mainId": 11022,
      "order": 7,
      "isMpBlock": true,
      "descTextMapHash": 918528004,
      "stepDescTextMapHash": 2714309517,
      "finishCond": [
        {
          "KPGKDHAFHFE": "QUEST_CONTENT_LUA_NOTIFY",
          "param": [
            0,
            0
          ],
          "count": 1
        }
      ],
      "guide": {
        "KPGKDHAFHFE": "QUEST_GUIDE_LOCATION",
        "param": [
          "Q11022Gad3",
          "30"
        ],
        "guideScene": 3,
        "guideStyle": "QUEST_GUIDE_STYLE_TARGET",
        "guideLayer": "QUEST_GUIDE_LAYER_SCENE"
      },
      "guideHint": {
        "param1": ""
      },
      "isRewind": true,
      "finishExec": [
        {
          "KPGKDHAFHFE": "QUEST_EXEC_UNREGISTER_DYNAMIC_GROUP",
          "param": [
            "133102795",
            "1"
          ]
        }
      ],
      "versionBegin": "",
      "versionEnd": ""
    },
    {
      "subId": 1102205,
      "mainId": 11022,
      "order": 8,
      "descTextMapHash": 2281787284,
      "showType": "QUEST_HIDDEN",
      "finishCond": [
        {
          "KPGKDHAFHFE": "QUEST_CONTENT_GAME_TIME_TICK",
          "param": [
            0,
            0
          ]
        }
      ],
      "guide": {
        "KPGKDHAFHFE": "QUEST_GUIDE_LOCATION",
        "param": [
          "Q11022ZL3",
          "15"
        ],
        "guideScene": 3,
        "guideStyle": "QUEST_GUIDE_STYLE_TARGET",
        "guideLayer": "QUEST_GUIDE_LAYER_SCENE"
      },
      "guideHint": {
        "param1": ""
      },
      "isRewind": true,
      "finishExec": [
        {
          "KPGKDHAFHFE": "QUEST_EXEC_REFRESH_GROUP_SUITE",
          "param": [
            "3",
            "133002907,2"
          ]
        }
      ],
      "versionBegin": "",
      "versionEnd": ""
    },
    {
      "subId": 1102206,
      "mainId": 11022,
      "order": 9,
      "descTextMapHash": 3867047684,
      "finishCond": [
        {
          "KPGKDHAFHFE": "QUEST_CONTENT_COMPLETE_TALK",
          "param": [
            1102206,
            0
          ]
        }
      ],
      "guide": {
        "KPGKDHAFHFE": "QUEST_GUIDE_LOCATION",
        "param": [
          "Q11022ZL3"
        ],
        "guideScene": 3,
        "guideStyle": "QUEST_GUIDE_STYLE_POINT",
        "guideLayer": "QUEST_GUIDE_LAYER_SCENE"
      },
      "guideHint": {
        "param1": ""
      },
      "finishParent": true,
      "isRewind": true,
      "finishExec": [
        {
          "KPGKDHAFHFE": "QUEST_EXEC_UNREGISTER_DYNAMIC_GROUP",
          "param": [
            "133102795"
          ]
        }
      ],
      "versionBegin": "",
      "versionEnd": ""
    },
    {
      "subId": 1102207,
      "mainId": 11022,
      "order": 5,
      "isMpBlock": true,
      "descTextMapHash": 1055354860,
      "finishCond": [
        {
          "KPGKDHAFHFE": "QUEST_CONTENT_COMPLETE_TALK",
          "param": [
            1102207,
            0
          ]
        }
      ],
      "guide": {
        "KPGKDHAFHFE": "QUEST_GUIDE_LOCATION",
        "param": [
          "Q1102207ZL"
        ],
        "guideScene": 3,
        "guideStyle": "QUEST_GUIDE_STYLE_POINT",
        "guideLayer": "QUEST_GUIDE_LAYER_SCENE"
      },
      "guideHint": {
        "param1": ""
      },
      "isRewind": true,
      "finishExec": [
        {
          "KPGKDHAFHFE": "QUEST_EXEC_REFRESH_GROUP_SUITE",
          "param": [
            "3",
            "133002910,1"
          ]
        }
      ],
      "versionBegin": "",
      "versionEnd": ""
    },
    {
      "subId": 1102208,
      "mainId": 11022,
      "order": 3,
      "isMpBlock": true,
      "descTextMapHash": 4209467196,
      "finishCond": [
        {
          "KPGKDHAFHFE": "QUEST_CONTENT_FINISH_PLOT",
          "param": [
            1102208,
            0
          ]
        }
      ],
      "guide": {
        "KPGKDHAFHFE": "QUEST_GUIDE_LOCATION",
        "param": [
          "Q11022Gad2",
          "20"
        ],
        "guideScene": 3,
        "guideStyle": "QUEST_GUIDE_STYLE_TARGET",
        "guideLayer": "QUEST_GUIDE_LAYER_SCENE"
      },
      "guideHint": {
        "param1": ""
      },
      "isRewind": true,
      "versionBegin": "",
      "versionEnd": ""
    },
    {
      "subId": 1102209,
      "mainId": 11022,
      "order": 6,
      "descTextMapHash": 4118987028,
      "showType": "QUEST_HIDDEN",
      "finishCond": [
        {
          "KPGKDHAFHFE": "QUEST_CONTENT_FINISH_PLOT",
          "param": [
            1102209,
            0
          ]
        }
      ],
      "guide": {},
      "guideHint": {
        "param1": ""
      },
      "finishExec": [
        {
          "KPGKDHAFHFE": "QUEST_EXEC_REGISTER_DYNAMIC_GROUP",
          "param": [
            "3",
            "133102795"
          ]
        }
      ],
      "versionBegin": "",
      "versionEnd": ""
    }
  ],
  "talks": [
    {
      "id": 1102108,
      "beginWay": "TALK_BEGIN_MANUAL",
      "beginCondComb": "LOGIC_AND",
      "beginCond": [
        {
          "type": "QUEST_COND_STATE_EQUAL",
          "_param": [
            "1102106",
            "3"
          ]
        },
        {
          "type": "QUEST_COND_STATE_EQUAL",
          "_param": [
            "1102201",
            "2"
          ]
        }
      ],
      "initDialog": 110210801,
      "npcId": [
        10303,
        10302
      ],
      "performCfg": "QuestDialogue/LQ/Zhongli1_11021/Q1102108",
      "heroTalk": "TALK_HERO_MAIN",
      "questId": 11022,
      "assetIndex": 9286985305943675417,
      "prePerformCfg": ""
    },
    {
      "id": 1102202,
      "beginWay": "TALK_BEGIN_MANUAL",
      "beginCond": [
        {
          "type": "QUEST_COND_STATE_EQUAL",
          "_param": [
            "1102202",
            "2"
          ]
        }
      ],
      "initDialog": 110220201,
      "npcId": [
        10232
      ],
      "performCfg": "QuestDialogue/LQ/Zhongli1_11022/Q1102202",
      "heroTalk": "TALK_HERO_MAIN",
      "questId": 11022,
      "assetIndex": 5979957369632630449,
      "prePerformCfg": ""
    },
    {
      "id": 1102206,
      "beginWay": "TALK_BEGIN_MANUAL",
      "beginCond": [
        {
          "type": "QUEST_COND_STATE_EQUAL",
          "_param": [
            "1102206",
            "2"
          ]
        }
      ],
      "initDialog": 110220601,
      "npcId": [
        10232
      ],
      "performCfg": "QuestDialogue/LQ/Zhongli1_11022/Q1102206",
      "heroTalk": "TALK_HERO_MAIN",
      "questId": 11022,
      "assetIndex": 12469278828590623224,
      "prePerformCfg": ""
    },
    {
      "id": 1102207,
      "beginWay": "TALK_BEGIN_AUTO",
      "beginCond": [
        {
          "type": "QUEST_COND_STATE_EQUAL",
          "_param": [
            "1102207",
            "2"
          ]
        }
      ],
      "initDialog": 110220701,
      "npcId": [
        10232
      ],
      "performCfg": "QuestDialogue/LQ/Zhongli1_11022/Q1102207",
      "heroTalk": "TALK_HERO_MAIN",
      "questId": 11022,
      "assetIndex": 15354703889915288232,
      "prePerformCfg": ""
    }
  ],
  "preloadLuaList": [
    15504713557565146384,
    5484300090257905432,
    11858500650086438377,
    8163742428714611944
  ],
  "forcePreloadLuaList": [
    15531607392399211607
  ]
}