{
  "id": 11029,
  "resId": 2037,
  "series": 2037,
  "KPGKDHAFHFE": "LQ",
  "titleTextMapHash": 117975431,
  "descTextMapHash": 615062974,
  "luaPath": "Actor/Quest/LQ11029",
  "rewardIdList": [
    111029
  ],
  "chapterId": 2037,
  "subQuests": [
    {
      "subId": 1102901,
      "mainId": 11029,
      "order": 2,
      "descTextMapHash": 3082428148,
      "finishCond": [
        {
          "KPGKDHAFHFE": "QUEST_CONTENT_FINISH_PLOT",
          "param": [
            1102901,
            0
          ]
        }
      ],
      "failCond": [
        {
          "KPGKDHAFHFE": "QUEST_CONTENT_LEAVE_SCENE_RANGE",
          "param": [
            3,
            100
          ]
        },
        {
          "KPGKDHAFHFE": "QUEST_CONTENT_ANY_MANUAL_TRANSPORT",
          "param": [
            0,
            0
          ]
        }
      ],
      "guide": {
        "KPGKDHAFHFE": "QUEST_GUIDE_NPC",
        "param": [
          "13136",
          "0"
        ],
        "guideScene": 3,
        "guideStyle": "QUEST_GUIDE_STYLE_TARGET",
        "guideLayer": "QUEST_GUIDE_LAYER_SCENE"
      },
      "guideHint": {
        "param1": ""
      },
      "isRewind": true,
      "failExec": [
        {
          "KPGKDHAFHFE": "QUEST_EXEC_ROLLBACK_QUEST",
          "param": [
            "1102908"
          ]
        }
      ],
      "versionBegin": "",
      "versionEnd": ""
    },
    {
      "subId": 1102902,
      "mainId": 11029,
      "order": 3,
      "descTextMapHash": 1371400684,
      "finishCond": [
        {
          "KPGKDHAFHFE": "QUEST_CONTENT_COMPLETE_TALK",
          "param": [
            1102902,
            0
          ]
        }
      ],
      "guide": {
        "KPGKDHAFHFE": "QUEST_GUIDE_NPC",
        "param": [
          "13136"
        ],
        "guideScene": 3,
        "guideStyle": "QUEST_GUIDE_STYLE_TARGET",
        "guideLayer": "QUEST_GUIDE_LAYER_SCENE"
      },
      "guideHint": {
        "param1": ""
      },
      "isRewind": true,
      "finishExec": [
        {
          "KPGKDHAFHFE": "QUEST_EXEC_UNLOCK_POINT",
          "param": [
            "3",
            "795"
          ]
        }
      ],
      "versionBegin": "",
      "versionEnd": ""
    },
    {
      "subId": 1102903,
      "mainId": 11029,
      "order": 5,
      "descTextMapHash": 2790133444,
      "finishCond": [
        {
          "KPGKDHAFHFE": "QUEST_CONTENT_COMPLETE_TALK",
          "param": [
            1102903,
            0
          ],
          "count": 1
        }
      ],
      "failCond": [
        {
          "KPGKDHAFHFE": "QUEST_CONTENT_FAIL_DUNGEON",
          "param": [
            1179,
            0
          ]
        },
        {
          "KPGKDHAFHFE": "QUEST_CONTENT_LEAVE_SCENE",
          "param": [
            20182,
            0
          ]
        }
      ],
      "guide": {
        "param": [
          "30"
        ],
        "guideScene": 20182
      },
      "showGuide": "QUEST_GUIDE_ITEM_DISABLE",
      "guideHint": {
        "param1": ""
      },
      "isRewind": true,
      "failExec": [
        {
          "KPGKDHAFHFE": "QUEST_EXEC_ROLLBACK_QUEST",
          "param": [
            "1102912"
          ]
        },
        {
          "KPGKDHAFHFE": "QUEST_EXEC_REMOVE_TRIAL_AVATAR",
          "param": [
            "62"
          ]
        }
      ],
      "versionBegin": "",
      "versionEnd": ""
    },
    {
      "subId": 1102904,
      "mainId": 11029,
      "order": 9,
      "descTextMapHash": 1935555148,
      "finishCond": [
        {
          "KPGKDHAFHFE": "QUEST_CONTENT_COMPLETE_TALK",
          "param": [
            1102904,
            0
          ]
        }
      ],
      "failCond": [
        {
          "KPGKDHAFHFE": "QUEST_CONTENT_FAIL_DUNGEON",
          "param": [
            1179,
            0
          ]
        },
        {
          "KPGKDHAFHFE": "QUEST_CONTENT_LEAVE_SCENE",
          "param": [
            20182,
            0
          ]
        }
      ],
      "guide": {
        "KPGKDHAFHFE": "QUEST_GUIDE_NPC",
        "param": [
          "10234"
        ],
        "guideScene": 20182,
        "guideStyle": "QUEST_GUIDE_STYLE_TARGET",
        "guideLayer": "QUEST_GUIDE_LAYER_SCENE"
      },
      "showGuide": "QUEST_GUIDE_ITEM_DISABLE",
      "guideHint": {
        "param1": ""
      },
      "isRewind": true,
      "finishExec": [
        {
          "KPGKDHAFHFE": "QUEST_EXEC_LOCK_POINT",
          "param": [
            "3",
            "795"
          ]
        },
        {
          "KPGKDHAFHFE": "QUEST_EXEC_REMOVE_TRIAL_AVATAR",
          "param": [
            "26"
          ]
        }
      ],
      "failExec": [
        {
          "KPGKDHAFHFE": "QUEST_EXEC_ROLLBACK_QUEST",
          "param": [
            "1102912"
          ]
        },
        {
          "KPGKDHAFHFE": "QUEST_EXEC_REMOVE_TRIAL_AVATAR",
          "param": [
            "62"
          ]
        }
      ],
      "versionBegin": "",
      "versionEnd": ""
    },
    {
      "subId": 1102905,
      "mainId": 11029,
      "order": 11,
      "descTextMapHash": 2890648316,
      "GMKDJFPEFFF": [
        310705,
        310703
      ],
      "finishCond": [
        {
          "KPGKDHAFHFE": "QUEST_CONTENT_COMPLETE_TALK",
          "param": [
            1102905,
            0
          ]
        }
      ],
      "guide": {
        "KPGKDHAFHFE": "QUEST_GUIDE_LOCATION",
        "param": [
          "Q1102905_T1102905_N1068",
          "0"
        ],
        "guideScene": 1082,
        "guideStyle": "QUEST_GUIDE_STYLE_POINT",
        "guideLayer": "QUEST_GUIDE_LAYER_SCENE"
      },
      "guideHint": {
        "param1": ""
      },
      "isRewind": true,
      "versionBegin": "",
      "versionEnd": ""
    },
    {
      "subId": 1102906,
      "mainId": 11029,
      "order": 13,
      "isMpBlock": true,
      "descTextMapHash": 348790196,
      "GMKDJFPEFFF": [
        310703,
        310705
      ],
      "finishCond": [
        {
          "KPGKDHAFHFE": "QUEST_CONTENT_FINISH_PLOT",
          "param": [
            1102906,
            0
          ]
        }
      ],
      "failCond": [
        {
          "KPGKDHAFHFE": "QUEST_CONTENT_LEAVE_SCENE_RANGE",
          "param": [
            3,
            70
          ]
        },
        {
          "KPGKDHAFHFE": "QUEST_CONTENT_ANY_MANUAL_TRANSPORT",
          "param": [
            0,
            0
          ]
        },
        {
          "KPGKDHAFHFE": "QUEST_CONTENT_TEAM_DEAD",
          "param": [
            0,
            0
          ]
        }
      ],
      "guide": {
        "KPGKDHAFHFE": "QUEST_GUIDE_NPC",
        "param": [
          "13137"
        ],
        "guideScene": 3,
        "guideStyle": "QUEST_GUIDE_STYLE_TARGET",
        "guideLayer": "QUEST_GUIDE_LAYER_SCENE"
      },
      "guideHint": {
        "param1": ""
      },
      "finishExec": [
        {
          "KPGKDHAFHFE": "QUEST_EXEC_UNLOCK_AVATAR_TEAM_V2"
        },
        {
          "KPGKDHAFHFE": "QUEST_EXEC_REMOVE_TRIAL_AVATAR",
          "param": [
            "62"
          ]
        },
        {
          "KPGKDHAFHFE": "QUEST_EXEC_UNLOCK_POINT",
          "param": [
            "3",
            "800"
          ]
        }
      ],
      "failExec": [
        {
          "KPGKDHAFHFE": "QUEST_EXEC_UNLOCK_AVATAR_TEAM_V2"
        },
        {
          "KPGKDHAFHFE": "QUEST_EXEC_REMOVE_TRIAL_AVATAR",
          "param": [
            "62"
          ]
        },
        {
          "KPGKDHAFHFE": "QUEST_EXEC_ROLLBACK_QUEST",
          "param": [
            "1102905"
          ]
        },
        {
          "KPGKDHAFHFE": "QUEST_EXEC_UNLOCK_POINT",
          "param": [
            "3",
            "800"
          ]
        }
      ],
      "versionBegin": "",
      "versionEnd": ""
    },
    {
      "subId": 1102907,
      "mainId": 11029,
      "order": 14,
      "descTextMapHash": 778660868,
      "GMKDJFPEFFF": [
        310705,
        310703
      ],
      "finishCond": [
        {
          "KPGKDHAFHFE": "QUEST_CONTENT_COMPLETE_TALK",
          "param": [
            1102907,
            0
          ]
        }
      ],
      "guide": {
        "KPGKDHAFHFE": "QUEST_GUIDE_NPC",
        "param": [
          "13137"
        ],
        "guideScene": 3,
        "guideStyle": "QUEST_GUIDE_STYLE_TARGET",
        "guideLayer": "QUEST_GUIDE_LAYER_SCENE"
      },
      "guideHint": {
        "param1": ""
      },
      "finishParent": true,
      "isRewind": true,
      "finishExec": [
        {
          "KPGKDHAFHFE": "QUEST_EXEC_SET_QUEST_GLOBAL_VAR",
          "param": [
            "1102901",
            "1"
          ]
        },
        {
          "KPGKDHAFHFE": "QUEST_EXEC_REFRESH_GROUP_SUITE",
          "param": [
            "3",
            "133102242,2"
          ]
        }
      ],
      "versionBegin": "",
      "versionEnd": ""
    },
    {
      "subId": 1102908,
      "mainId": 11029,
      "order": 1,
      "descTextMapHash": 2305467260,
      "GMKDJFPEFFF": [
        310703
      ],
      "finishCond": [
        {
          "KPGKDHAFHFE": "QUEST_CONTENT_COMPLETE_TALK",
          "param": [
            1102908,
            0
          ]
        }
      ],
      "guide": {
        "KPGKDHAFHFE": "QUEST_GUIDE_LOCATION",
        "param": [
          "guide_Q1102908",
          "0"
        ],
        "guideScene": 3,
        "guideStyle": "QUEST_GUIDE_STYLE_POINT",
        "guideLayer": "QUEST_GUIDE_LAYER_SCENE"
      },
      "guideHint": {
        "param1": ""
      },
      "isRewind": true,
      "versionBegin": "",
      "versionEnd": ""
    },
    {
      "subId": 1102909,
      "mainId": 11029,
      "order": 6,
      "descTextMapHash": 2487807540,
      "finishCond": [
        {
          "KPGKDHAFHFE": "QUEST_CONTENT_LUA_NOTIFY",
          "param": [
            0,
            0
          ],
          "count": 1
        }
      ],
      "failCond": [
        {
          "KPGKDHAFHFE": "QUEST_CONTENT_FAIL_DUNGEON",
          "param": [
            1179,
            0
          ]
        },
        {
          "KPGKDHAFHFE": "QUEST_CONTENT_LEAVE_SCENE",
          "param": [
            20182,
            0
          ]
        }
      ],
      "guide": {
        "guideScene": 20182
      },
      "showGuide": "QUEST_GUIDE_ITEM_DISABLE",
      "guideHint": {
        "param1": ""
      },
      "isRewind": true,
      "failExec": [
        {
          "KPGKDHAFHFE": "QUEST_EXEC_ROLLBACK_QUEST",
          "param": [
            "1102912"
          ]
        },
        {
          "KPGKDHAFHFE": "QUEST_EXEC_REMOVE_TRIAL_AVATAR",
          "param": [
            "62"
          ]
        }
      ],
      "versionBegin": "",
      "versionEnd": ""
    },
    {
      "subId": 1102910,
      "mainId": 11029,
      "order": 7,
      "descTextMapHash": 745951772,
      "finishCond": [
        {
          "KPGKDHAFHFE": "QUEST_CONTENT_COMPLETE_TALK",
          "param": [
            1102910,
            0
          ]
        }
      ],
      "failCond": [
        {
          "KPGKDHAFHFE": "QUEST_CONTENT_FAIL_DUNGEON",
          "param": [
            1179,
            0
          ]
        },
        {
          "KPGKDHAFHFE": "QUEST_CONTENT_LEAVE_SCENE",
          "param": [
            20182,
            0
          ]
        }
      ],
      "guide": {
        "guideScene": 20182
      },
      "showGuide": "QUEST_GUIDE_ITEM_DISABLE",
      "guideHint": {
        "param1": ""
      },
      "isRewind": true,
      "finishExec": [
        {
          "KPGKDHAFHFE": "QUEST_EXEC_NOTIFY_GROUP_LUA",
          "param": [
            "20182",
            "220182004"
          ]
        }
      ],
      "failExec": [
        {
          "KPGKDHAFHFE": "QUEST_EXEC_ROLLBACK_QUEST",
          "param": [
            "1102912"
          ]
        },
        {
          "KPGKDHAFHFE": "QUEST_EXEC_REMOVE_TRIAL_AVATAR",
          "param": [
            "62"
          ]
        }
      ],
      "versionBegin": "",
      "versionEnd": ""
    },
    {
      "subId": 1102911,
      "mainId": 11029,
      "order": 8,
      "descTextMapHash": 358242948,
      "finishCond": [
        {
          "KPGKDHAFHFE": "QUEST_CONTENT_LUA_NOTIFY",
          "param": [
            0,
            0
          ],
          "count": 1
        }
      ],
      "failCond": [
        {
          "KPGKDHAFHFE": "QUEST_CONTENT_FAIL_DUNGEON",
          "param": [
            1179,
            0
          ]
        },
        {
          "KPGKDHAFHFE": "QUEST_CONTENT_LEAVE_SCENE",
          "param": [
            20182,
            0
          ]
        }
      ],
      "guide": {
        "guideScene": 20182
      },
      "showGuide": "QUEST_GUIDE_ITEM_DISABLE",
      "guideHint": {
        "param1": ""
      },
      "isRewind": true,
      "failExec": [
        {
          "KPGKDHAFHFE": "QUEST_EXEC_ROLLBACK_QUEST",
          "param": [
            "1102912"
          ]
        },
        {
          "KPGKDHAFHFE": "QUEST_EXEC_REMOVE_TRIAL_AVATAR",
          "param": [
            "62"
          ]
        }
      ],
      "versionBegin": "",
      "versionEnd": ""
    },
    {
      "subId": 1102912,
      "mainId": 11029,
      "order": 4,
      "descTextMapHash": 3289415876,
      "finishCond": [
        {
          "KPGKDHAFHFE": "QUEST_CONTENT_ENTER_DUNGEON",
          "param": [
            1179,
            795
          ]
        }
      ],
      "guide": {
        "KPGKDHAFHFE": "QUEST_GUIDE_LOCATION",
        "param": [
          "[3_3987:1681.447,209.777,867.260,0.000,125.524,0.000]"
        ],
        "guideScene": 3,
        "guideStyle": "QUEST_GUIDE_STYLE_POINT",
        "guideLayer": "QUEST_GUIDE_LAYER_SCENE"
      },
      "guideHint": {
        "param1": ""
      },
      "isRewind": true,
      "finishExec": [
        {
          "KPGKDHAFHFE": "QUEST_EXEC_UNREGISTER_DYNAMIC_GROUP",
          "param": [
            "133102243"
          ]
        }
      ],
      "versionBegin": "",
      "versionEnd": ""
    },
    {
      "subId": 1102913,
      "mainId": 11029,
      "order": 12,
      "isMpBlock": true,
      "descTextMapHash": 3538007372,
      "GMKDJFPEFFF": [
        310705,
        310703
      ],
      "finishCond": [
        {
          "KPGKDHAFHFE": "QUEST_CONTENT_LEAVE_SCENE",
          "param": [
            1082,
            0
          ]
        },
        {
          "KPGKDHAFHFE": "QUEST_CONTENT_ANY_MANUAL_TRANSPORT",
          "param": [
            0,
            0
          ]
        }
      ],
      "guide": {
        "KPGKDHAFHFE": "QUEST_GUIDE_NPC",
        "param": [
          "13137"
        ],
        "guideScene": 3
      },
      "guideHint": {
        "param1": ""
      },
      "finishExec": [
        {
          "KPGKDHAFHFE": "QUEST_EXEC_UNLOCK_AVATAR_TEAM_V2"
        },
        {
          "KPGKDHAFHFE": "QUEST_EXEC_REMOVE_TRIAL_AVATAR",
          "param": [
            "62"
          ]
        }
      ],
      "versionBegin": "",
      "versionEnd": ""
    },
    {
      "subId": 1102914,
      "mainId": 11029,
      "order": 10,
      "descTextMapHash": 3309642068,
      "showType": "QUEST_HIDDEN",
      "finishCond": [
        {
          "KPGKDHAFHFE": "QUEST_CONTENT_FINISH_PLOT",
          "param": [
            1102914,
            0
          ]
        }
      ],
      "guide": {},
      "guideHint": {
        "param1": ""
      },
      "finishExec": [
        {
          "KPGKDHAFHFE": "QUEST_EXEC_NOTIFY_GROUP_LUA",
          "param": [
            "20182",
            "220182012"
          ]
        },
        {
          "KPGKDHAFHFE": "QUEST_EXEC_NOTIFY_GROUP_LUA",
          "param": [
            "20182",
            "220182015"
          ]
        }
      ],
      "versionBegin": "",
      "versionEnd": ""
    }
  ],
  "talks": [
    {
      "id": 1102902,
      "beginWay": "TALK_BEGIN_MANUAL",
      "beginCond": [
        {
          "type": "QUEST_COND_STATE_EQUAL",
          "_param": [
            "1102902",
            "2"
          ]
        }
      ],
      "priority": 5,
      "initDialog": 110290201,
      "npcId": [
        13136
      ],
      "performCfg": "QuestDialogue/LQ/Baizhu_11029/Q1102902",
      "heroTalk": "TALK_HERO_MAIN",
      "questId": 11029,
      "assetIndex": 8282652451873606254,
      "prePerformCfg": "",
      "lockGameTime": true
    },
    {
      "id": 1102903,
      "beginWay": "TALK_BEGIN_MANUAL",
      "beginCond": [
        {
          "type": "QUEST_COND_STATE_EQUAL",
          "_param": [
            "1102903",
            "2"
          ]
        }
      ],
      "priority": 5,
      "initDialog": 110290301,
      "npcId": [
        1068
      ],
      "performCfg": "QuestDialogue/LQ/Baizhu_11029/Q1102903",
      "heroTalk": "TALK_HERO_MAIN",
      "questId": 11029,
      "assetIndex": 7380632218600770382,
      "prePerformCfg": "",
      "lockGameTime": true
    },
    {
      "id": 1102904,
      "beginWay": "TALK_BEGIN_MANUAL",
      "beginCond": [
        {
          "type": "QUEST_COND_STATE_EQUAL",
          "_param": [
            "1102904",
            "2"
          ]
        }
      ],
      "priority": 5,
      "initDialog": 110290401,
      "npcId": [
        13136,
        1068,
        13135
      ],
      "performCfg": "QuestDialogue/LQ/Baizhu_11029/Q1102904",
      "heroTalk": "TALK_HERO_MAIN",
      "questId": 11029,
      "assetIndex": 7148556618054440679,
      "prePerformCfg": "",
      "lockGameTime": true
    },
    {
      "id": 1102905,
      "beginWay": "TALK_BEGIN_MANUAL",
      "beginCond": [
        {
          "type": "QUEST_COND_STATE_EQUAL",
          "_param": [
            "1102905",
            "2"
          ]
        }
      ],
      "priority": 5,
      "initDialog": 110290501,
      "npcId": [
        13137,
        13135,
        13260,
        1068,
        1021,
        10233
      ],
      "performCfg": "QuestDialogue/LQ/Baizhu_11029/Q1102905",
      "heroTalk": "TALK_HERO_MAIN",
      "questId": 11029,
      "assetIndex": 15472503249459209696,
      "prePerformCfg": "",
      "lockGameTime": true,
      "PLPFOOINAAJ": [
        "[1082_19:5.698,0.584,38.787]"
      ]
    },
    {
      "id": 1102907,
      "beginWay": "TALK_BEGIN_MANUAL",
      "beginCond": [
        {
          "type": "QUEST_COND_STATE_EQUAL",
          "_param": [
            "1102907",
            "2"
          ]
        }
      ],
      "priority": 5,
      "initDialog": 110290701,
      "npcId": [
        13137,
        1068,
        13135,
        10233
      ],
      "performCfg": "QuestDialogue/LQ/Baizhu_11029/Q1102907",
      "heroTalk": "TALK_HERO_MAIN",
      "questId": 11029,
      "assetIndex": 9805944536218593520,
      "prePerformCfg": "",
      "lockGameTime": true
    },
    {
      "id": 1102908,
      "beginWay": "TALK_BEGIN_MANUAL",
      "beginCond": [
        {
          "type": "QUEST_COND_STATE_EQUAL",
          "_param": [
            "1102908",
            "2"
          ]
        }
      ],
      "priority": 5,
      "initDialog": 110290801,
      "npcId": [
        1068,
        13136
      ],
      "performCfg": "QuestDialogue/LQ/Baizhu_11029/Q1102908",
      "heroTalk": "TALK_HERO_MAIN",
      "questId": 11029,
      "assetIndex": 10170513423312793528,
      "prePerformCfg": "",
      "lockGameTime": true
    },
    {
      "id": 1102910,
      "beginWay": "TALK_BEGIN_MANUAL",
      "beginCond": [
        {
          "type": "QUEST_COND_STATE_EQUAL",
          "_param": [
            "1102910",
            "2"
          ]
        }
      ],
      "priority": 5,
      "initDialog": 110291001,
      "npcId": [
        1068,
        13136
      ],
      "performCfg": "QuestDialogue/LQ/Baizhu_11029/Q1102910",
      "heroTalk": "TALK_HERO_MAIN",
      "questId": 11029,
      "assetIndex": 4725628451494082938,
      "prePerformCfg": "",
      "lockGameTime": true
    },
    {
      "id": 1102911,
      "beginWay": "TALK_BEGIN_MANUAL",
      "beginCond": [
        {
          "type": "QUEST_COND_STATE_EQUAL",
          "_param": [
            "1102908",
            "2"
          ]
        }
      ],
      "priority": 4,
      "initDialog": 110291101,
      "npcId": [
        10233
      ],
      "performCfg": "QuestDialogue/LQ/Baizhu_11029/Q1102911",
      "heroTalk": "TALK_HERO_MAIN",
      "questId": 11029,
      "assetIndex": 5796403190274784496,
      "prePerformCfg": "",
      "lowPriority": true
    },
    {
      "id": 1102912,
      "beginWay": "TALK_BEGIN_MANUAL",
      "beginCondComb": "LOGIC_OR",
      "beginCond": [
        {
          "type": "QUEST_COND_STATE_EQUAL",
          "_param": [
            "1102901",
            "2"
          ]
        },
        {
          "type": "QUEST_COND_STATE_EQUAL",
          "_param": [
            "1102902",
            "2"
          ]
        },
        {
          "type": "QUEST_COND_STATE_EQUAL",
          "_param": [
            "1102912",
            "2"
          ]
        }
      ],
      "priority": 4,
      "initDialog": 110291201,
      "npcId": [
        10204
      ],
      "performCfg": "QuestDialogue/LQ/Baizhu_11029/Q1102912",
      "heroTalk": "TALK_HERO_MAIN",
      "questId": 11029,
      "assetIndex": 7138379871996116249,
      "prePerformCfg": "",
      "lowPriority": true
    },
    {
      "id": 1102913,
      "beginWay": "TALK_BEGIN_MANUAL",
      "beginCond": [
        {
          "type": "QUEST_COND_STATE_EQUAL",
          "_param": [
            "1102913",
            "2"
          ]
        }
      ],
      "priority": 4,
      "initDialog": 110291301,
      "npcId": [
        10233,
        13260
      ],
      "performCfg": "QuestDialogue/LQ/Baizhu_11029/Q1102913",
      "questId": 11029,
      "assetIndex": 12685818612647346454,
      "prePerformCfg": "",
      "lowPriority": true
    },
    {
      "id": 1102915,
      "beginWay": "TALK_BEGIN_MANUAL",
      "beginCondComb": "LOGIC_OR",
      "beginCond": [
        {
          "type": "QUEST_COND_STATE_EQUAL",
          "_param": [
            "1102906",
            "2"
          ]
        },
        {
          "type": "QUEST_COND_STATE_EQUAL",
          "_param": [
            "1102907",
            "2"
          ]
        }
      ],
      "initDialog": 110291501,
      "npcId": [
        13175
      ],
      "performCfg": "",
      "questId": 11029,
      "assetIndex": 128013829349724663,
      "prePerformCfg": ""
    }
  ],
  "preloadLuaList": [
    14173122848788496156,
    2311581105035336324,
    1185700409260125342,
    3420016792111271046,
    12218054267471959467,
    36262804206014917,
    9420853052394781266,
    2261405589845058458,
    15820813308385759189
  ],
  "forcePreloadLuaList": [
    7399101554125195474
  ],
  "freeStyleDic": {
    "13136": [
      1130,
      1240
    ],
    "13137": [
      4121
    ],
    "13260": [
      8010
    ]
  }
}