{
  "id": 11035,
  "resId": 2045,
  "series": 2045,
  "KPGKDHAFHFE": "LQ",
  "titleTextMapHash": 49058703,
  "descTextMapHash": 3404409614,
  "luaPath": "Actor/Quest/LQ11035",
  "rewardIdList": [
    111035
  ],
  "chapterId": 2045,
  "subQuests": [
    {
      "subId": 1103501,
      "mainId": 11035,
      "order": 1,
      "descTextMapHash": 3207183844,
      "GMKDJFPEFFF": [
        308,
        310106
      ],
      "finishCond": [
        {
          "KPGKDHAFHFE": "QUEST_CONTENT_COMPLETE_TALK",
          "param": [
            1103501,
            0
          ]
        }
      ],
      "guide": {
        "KPGKDHAFHFE": "QUEST_GUIDE_LOCATION",
        "param": [
          "[3_310701976:1141.887,349.209,1571.906,0.000,186.820,0.000]"
        ],
        "guideScene": 3,
        "guideStyle": "QUEST_GUIDE_STYLE_POINT",
        "guideLayer": "QUEST_GUIDE_LAYER_SCENE"
      },
      "guideHint": {
        "param1": ""
      },
      "isRewind": true,
      "finishExec": [
        {
          "KPGKDHAFHFE": "QUEST_EXEC_UNREGISTER_DYNAMIC_GROUP",
          "param": [
            "133103668"
          ]
        }
      ],
      "versionBegin": "",
      "versionEnd": ""
    },
    {
      "subId": 1103502,
      "mainId": 11035,
      "order": 4,
      "descTextMapHash": 2547473156,
      "stepDescTextMapHash": 1725957725,
      "GMKDJFPEFFF": [
        308,
        310106
      ],
      "finishCond": [
        {
          "KPGKDHAFHFE": "QUEST_CONTENT_ENTER_DUNGEON",
          "param": [
            1195,
            1153
          ]
        }
      ],
      "guide": {
        "KPGKDHAFHFE": "QUEST_GUIDE_NPC",
        "param": [
          "1083"
        ],
        "guideScene": 3,
        "guideStyle": "QUEST_GUIDE_STYLE_TARGET",
        "guideLayer": "QUEST_GUIDE_LAYER_SCENE"
      },
      "guideHint": {
        "param1": ""
      },
      "isRewind": true,
      "versionBegin": "",
      "versionEnd": ""
    },
    {
      "subId": 1103503,
      "mainId": 11035,
      "order": 6,
      "descTextMapHash": 2305705036,
      "GMKDJFPEFFF": [
        308,
        310106
      ],
      "finishCond": [
        {
          "KPGKDHAFHFE": "QUEST_CONTENT_COMPLETE_TALK",
          "param": [
            1103503,
            0
          ]
        }
      ],
      "failCond": [
        {
          "KPGKDHAFHFE": "QUEST_CONTENT_LEAVE_SCENE",
          "param": [
            20209,
            0
          ]
        },
        {
          "KPGKDHAFHFE": "QUEST_CONTENT_FAIL_DUNGEON",
          "param": [
            1195,
            0
          ]
        },
        {
          "KPGKDHAFHFE": "QUEST_CONTENT_ANY_MANUAL_TRANSPORT",
          "param": [
            0,
            0
          ]
        },
        {
          "KPGKDHAFHFE": "QUEST_CONTENT_ENTER_MY_WORLD",
          "param": [
            3,
            0
          ]
        }
      ],
      "guide": {},
      "guideHint": {
        "param1": ""
      },
      "JPAAAIKKJNG": "QUEST_HIDDEN",
      "isRewind": true,
      "finishExec": [
        {
          "KPGKDHAFHFE": "QUEST_EXEC_NOTIFY_GROUP_LUA",
          "param": [
            "20209",
            "220209001"
          ]
        }
      ],
      "failExec": [
        {
          "KPGKDHAFHFE": "QUEST_EXEC_ROLLBACK_QUEST",
          "param": [
            "1103502"
          ]
        },
        {
          "KPGKDHAFHFE": "QUEST_EXEC_UNLOCK_MIRROR_AVATAR_TEAM"
        }
      ],
      "versionBegin": "",
      "versionEnd": ""
    },
    {
      "subId": 1103504,
      "mainId": 11035,
      "order": 8,
      "descTextMapHash": 2985927852,
      "GMKDJFPEFFF": [
        308,
        310106
      ],
      "finishCond": [
        {
          "KPGKDHAFHFE": "QUEST_CONTENT_LUA_NOTIFY",
          "param": [
            0,
            0
          ],
          "count": 1
        }
      ],
      "failCond": [
        {
          "KPGKDHAFHFE": "QUEST_CONTENT_LEAVE_SCENE",
          "param": [
            20209,
            0
          ]
        },
        {
          "KPGKDHAFHFE": "QUEST_CONTENT_FAIL_DUNGEON",
          "param": [
            1195,
            0
          ]
        },
        {
          "KPGKDHAFHFE": "QUEST_CONTENT_ANY_MANUAL_TRANSPORT",
          "param": [
            0,
            0
          ]
        },
        {
          "KPGKDHAFHFE": "QUEST_CONTENT_ENTER_MY_WORLD",
          "param": [
            3,
            0
          ]
        }
      ],
      "guide": {},
      "guideHint": {
        "param1": ""
      },
      "isRewind": true,
      "failExec": [
        {
          "KPGKDHAFHFE": "QUEST_EXEC_ROLLBACK_QUEST",
          "param": [
            "1103502"
          ]
        },
        {
          "KPGKDHAFHFE": "QUEST_EXEC_UNLOCK_MIRROR_AVATAR_TEAM"
        }
      ],
      "versionBegin": "",
      "versionEnd": ""
    },
    {
      "subId": 1103505,
      "mainId": 11035,
      "order": 10,
      "descTextMapHash": 689444548,
      "GMKDJFPEFFF": [
        308,
        310106
      ],
      "finishCond": [
        {
          "KPGKDHAFHFE": "QUEST_CONTENT_COMPLETE_TALK",
          "param": [
            1103505,
            0
          ]
        }
      ],
      "failCond": [
        {
          "KPGKDHAFHFE": "QUEST_CONTENT_LEAVE_SCENE",
          "param": [
            20209,
            0
          ]
        },
        {
          "KPGKDHAFHFE": "QUEST_CONTENT_FAIL_DUNGEON",
          "param": [
            1195,
            0
          ]
        },
        {
          "KPGKDHAFHFE": "QUEST_CONTENT_ANY_MANUAL_TRANSPORT",
          "param": [
            0,
            0
          ]
        },
        {
          "KPGKDHAFHFE": "QUEST_CONTENT_ENTER_MY_WORLD",
          "param": [
            3,
            0
          ]
        }
      ],
      "guide": {},
      "guideHint": {
        "param1": ""
      },
      "isRewind": true,
      "finishExec": [
        {
          "KPGKDHAFHFE": "QUEST_EXEC_UNLOCK_MIRROR_AVATAR_TEAM"
        }
      ],
      "failExec": [
        {
          "KPGKDHAFHFE": "QUEST_EXEC_ROLLBACK_QUEST",
          "param": [
            "1103502"
          ]
        },
        {
          "KPGKDHAFHFE": "QUEST_EXEC_UNLOCK_MIRROR_AVATAR_TEAM"
        }
      ],
      "versionBegin": "",
      "versionEnd": ""
    },
    {
      "subId": 1103506,
      "mainId": 11035,
      "order": 9,
      "descTextMapHash": 1115835468,
      "GMKDJFPEFFF": [
        308,
        310106
      ],
      "finishCond": [
        {
          "KPGKDHAFHFE": "QUEST_CONTENT_COMPLETE_TALK",
          "param": [
            1103504,
            0
          ]
        }
      ],
      "failCond": [
        {
          "KPGKDHAFHFE": "QUEST_CONTENT_LEAVE_SCENE",
          "param": [
            20209,
            0
          ]
        },
        {
          "KPGKDHAFHFE": "QUEST_CONTENT_FAIL_DUNGEON",
          "param": [
            1195,
            0
          ]
        },
        {
          "KPGKDHAFHFE": "QUEST_CONTENT_ANY_MANUAL_TRANSPORT",
          "param": [
            0,
            0
          ]
        },
        {
          "KPGKDHAFHFE": "QUEST_CONTENT_ENTER_MY_WORLD",
          "param": [
            3,
            0
          ]
        }
      ],
      "guide": {},
      "guideHint": {
        "param1": ""
      },
      "isRewind": true,
      "finishExec": [
        {
          "KPGKDHAFHFE": "QUEST_EXEC_NOTIFY_GROUP_LUA",
          "param": [
            "20209",
            "220209004"
          ]
        }
      ],
      "failExec": [
        {
          "KPGKDHAFHFE": "QUEST_EXEC_ROLLBACK_QUEST",
          "param": [
            "1103502"
          ]
        },
        {
          "KPGKDHAFHFE": "QUEST_EXEC_UNLOCK_MIRROR_AVATAR_TEAM"
        }
      ],
      "versionBegin": "",
      "versionEnd": ""
    },
    {
      "subId": 1103507,
      "mainId": 11035,
      "order": 11,
      "descTextMapHash": 1116786756,
      "GMKDJFPEFFF": [
        308,
        310106
      ],
      "finishCond": [
        {
          "KPGKDHAFHFE": "QUEST_CONTENT_COMPLETE_TALK",
          "param": [
            1103507,
            0
          ]
        }
      ],
      "guide": {
        "KPGKDHAFHFE": "QUEST_GUIDE_LOCATION",
        "param": [
          "[3_310701976:1141.887,349.209,1571.906,0.000,186.820,0.000]"
        ],
        "guideScene": 3,
        "guideStyle": "QUEST_GUIDE_STYLE_POINT",
        "guideLayer": "QUEST_GUIDE_LAYER_SCENE"
      },
      "guideHint": {
        "param1": ""
      },
      "isRewind": true,
      "finishExec": [
        {
          "KPGKDHAFHFE": "QUEST_EXEC_UNREGISTER_DYNAMIC_GROUP",
          "param": [
            "133101474",
            "1"
          ]
        }
      ],
      "versionBegin": "",
      "versionEnd": ""
    },
    {
      "subId": 1103508,
      "mainId": 11035,
      "order": 12,
      "descTextMapHash": 4230316956,
      "GMKDJFPEFFF": [
        308,
        310106
      ],
      "finishCond": [
        {
          "KPGKDHAFHFE": "QUEST_CONTENT_GAME_TIME_TICK",
          "param": [
            2,
            0
          ]
        }
      ],
      "guide": {},
      "guideHint": {
        "param1": ""
      },
      "isRewind": true,
      "versionBegin": "",
      "versionEnd": ""
    },
    {
      "subId": 1103509,
      "mainId": 11035,
      "order": 13,
      "descTextMapHash": 168137644,
      "GMKDJFPEFFF": [
        310704
      ],
      "finishCond": [
        {
          "KPGKDHAFHFE": "QUEST_CONTENT_COMPLETE_TALK",
          "param": [
            1103514,
            0
          ]
        }
      ],
      "guide": {
        "KPGKDHAFHFE": "QUEST_GUIDE_NPC",
        "param": [
          "1083"
        ],
        "guideScene": 3,
        "guideStyle": "QUEST_GUIDE_STYLE_TARGET",
        "guideLayer": "QUEST_GUIDE_LAYER_SCENE"
      },
      "guideHint": {
        "param1": ""
      },
      "finishParent": true,
      "isRewind": true,
      "finishExec": [
        {
          "KPGKDHAFHFE": "QUEST_EXEC_SET_QUEST_GLOBAL_VAR",
          "param": [
            "1103501",
            "1"
          ]
        },
        {
          "KPGKDHAFHFE": "QUEST_EXEC_REFRESH_GROUP_SUITE",
          "param": [
            "3",
            "133101910,1"
          ]
        }
      ],
      "versionBegin": "",
      "versionEnd": ""
    },
    {
      "subId": 1103510,
      "mainId": 11035,
      "order": 2,
      "descTextMapHash": 1977747764,
      "showType": "QUEST_HIDDEN",
      "finishCond": [
        {
          "KPGKDHAFHFE": "QUEST_CONTENT_FINISH_PLOT",
          "param": [
            1103510,
            0
          ]
        }
      ],
      "failCond": [
        {
          "KPGKDHAFHFE": "QUEST_CONTENT_QUEST_STATE_EQUAL",
          "param": [
            1103501,
            3
          ]
        }
      ],
      "guide": {},
      "guideHint": {
        "param1": ""
      },
      "isRewind": true,
      "finishExec": [
        {
          "KPGKDHAFHFE": "QUEST_EXEC_MODIFY_WEATHER_AREA",
          "param": [
            "3507",
            "1"
          ]
        }
      ],
      "failExec": [
        {
          "KPGKDHAFHFE": "QUEST_EXEC_MODIFY_WEATHER_AREA",
          "param": [
            "3507",
            "0"
          ]
        }
      ],
      "versionBegin": "",
      "versionEnd": ""
    },
    {
      "subId": 1103511,
      "mainId": 11035,
      "order": 3,
      "descTextMapHash": 3764293732,
      "showType": "QUEST_HIDDEN",
      "finishCond": [
        {
          "KPGKDHAFHFE": "QUEST_CONTENT_FINISH_PLOT",
          "param": [
            1103511,
            0
          ]
        }
      ],
      "failCond": [
        {
          "KPGKDHAFHFE": "QUEST_CONTENT_QUEST_STATE_EQUAL",
          "param": [
            1103501,
            3
          ]
        }
      ],
      "guide": {},
      "guideHint": {
        "param1": ""
      },
      "isRewind": true,
      "finishExec": [
        {
          "KPGKDHAFHFE": "QUEST_EXEC_MODIFY_WEATHER_AREA",
          "param": [
            "3507",
            "0"
          ]
        }
      ],
      "failExec": [
        {
          "KPGKDHAFHFE": "QUEST_EXEC_MODIFY_WEATHER_AREA",
          "param": [
            "3507",
            "0"
          ]
        }
      ],
      "versionBegin": "",
      "versionEnd": ""
    },
    {
      "subId": 1103512,
      "mainId": 11035,
      "order": 7,
      "descTextMapHash": 917095068,
      "GMKDJFPEFFF": [
        308,
        310106
      ],
      "finishCond": [
        {
          "KPGKDHAFHFE": "QUEST_CONTENT_LUA_NOTIFY",
          "param": [
            0,
            0
          ],
          "count": 1
        }
      ],
      "failCond": [
        {
          "KPGKDHAFHFE": "QUEST_CONTENT_LEAVE_SCENE",
          "param": [
            20209,
            0
          ]
        },
        {
          "KPGKDHAFHFE": "QUEST_CONTENT_FAIL_DUNGEON",
          "param": [
            1195,
            0
          ]
        },
        {
          "KPGKDHAFHFE": "QUEST_CONTENT_ANY_MANUAL_TRANSPORT",
          "param": [
            0,
            0
          ]
        },
        {
          "KPGKDHAFHFE": "QUEST_CONTENT_ENTER_MY_WORLD",
          "param": [
            3,
            0
          ]
        }
      ],
      "guide": {},
      "guideHint": {
        "param1": ""
      },
      "isRewind": true,
      "failExec": [
        {
          "KPGKDHAFHFE": "QUEST_EXEC_ROLLBACK_QUEST",
          "param": [
            "1103502"
          ]
        },
        {
          "KPGKDHAFHFE": "QUEST_EXEC_UNLOCK_MIRROR_AVATAR_TEAM"
        }
      ],
      "versionBegin": "",
      "versionEnd": ""
    },
    {
      "subId": 1103513,
      "mainId": 11035,
      "order": 5,
      "descTextMapHash": 3739147092,
      "GMKDJFPEFFF": [
        308,
        310106
      ],
      "finishCond": [
        {
          "KPGKDHAFHFE": "QUEST_CONTENT_LUA_NOTIFY",
          "param": [
            0,
            0
          ],
          "count": 1
        }
      ],
      "failCond": [
        {
          "KPGKDHAFHFE": "QUEST_CONTENT_LEAVE_SCENE",
          "param": [
            20209,
            0
          ]
        },
        {
          "KPGKDHAFHFE": "QUEST_CONTENT_FAIL_DUNGEON",
          "param": [
            1195,
            0
          ]
        },
        {
          "KPGKDHAFHFE": "QUEST_CONTENT_ANY_MANUAL_TRANSPORT",
          "param": [
            0,
            0
          ]
        },
        {
          "KPGKDHAFHFE": "QUEST_CONTENT_ENTER_MY_WORLD",
          "param": [
            3,
            0
          ]
        }
      ],
      "guide": {},
      "guideHint": {
        "param1": ""
      },
      "isRewind": true,
      "failExec": [
        {
          "KPGKDHAFHFE": "QUEST_EXEC_ROLLBACK_QUEST",
          "param": [
            "1103502"
          ]
        },
        {
          "KPGKDHAFHFE": "QUEST_EXEC_UNLOCK_MIRROR_AVATAR_TEAM"
        }
      ],
      "versionBegin": "",
      "versionEnd": ""
    }
  ],
  "talks": [
    {
      "id": 1103501,
      "beginWay": "TALK_BEGIN_MANUAL",
      "beginCond": [
        {
          "type": "QUEST_COND_STATE_EQUAL",
          "_param": [
            "1103501",
            "2"
          ]
        }
      ],
      "priority": 5,
      "initDialog": 110350101,
      "npcId": [
        1083,
        13892
      ],
      "performCfg": "QuestDialogue/LQ/Liuyun_11035/Q1103501",
      "heroTalk": "TALK_HERO_MAIN",
      "questId": 11035,
      "assetIndex": 928364161650237450,
      "prePerformCfg": "",
      "lockGameTime": true,
      "PLPFOOINAAJ": [
        "[3_310100189:1140.389,349.185,1572.035,0.000,166.500,0.000]",
        "[3_310100190:1139.193,349.146,1571.617,0.000,158.580,0.000]",
        "[3_310100191:1141.101,349.192,1569.421,0.000,343.260,0.000]",
        "[3_310100192:1139.734,349.196,1569.405,0.000,17.250,0.000]",
        "[3_310701976:1141.887,349.209,1571.906,0.000,186.820,0.000]"
      ]
    },
    {
      "id": 1103502,
      "beginWay": "TALK_BEGIN_MANUAL",
      "beginCond": [
        {
          "type": "QUEST_COND_STATE_EQUAL",
          "_param": [
            "1103509",
            "3"
          ]
        }
      ],
      "priority": 5,
      "initDialog": 110350201,
      "npcId": [
        13917
      ],
      "performCfg": "",
      "heroTalk": "TALK_HERO_MAIN",
      "questId": 11035,
      "assetIndex": 14305360059940838669,
      "prePerformCfg": "",
      "questIdleTalk": true
    },
    {
      "id": 1103503,
      "beginWay": "TALK_BEGIN_MANUAL",
      "beginCond": [
        {
          "type": "QUEST_COND_STATE_EQUAL",
          "_param": [
            "1103503",
            "2"
          ]
        }
      ],
      "priority": 5,
      "initDialog": 110350301,
      "npcId": [
        1083
      ],
      "performCfg": "QuestDialogue/LQ/Liuyun_11035/Q1103503",
      "heroTalk": "TALK_HERO_MAIN",
      "questId": 11035,
      "assetIndex": 13764672000353467067,
      "prePerformCfg": "",
      "PLPFOOINAAJ": [
        "[20209_1:382.627,129.586,540.020,0.000,78.800,0.000]"
      ]
    },
    {
      "id": 1103504,
      "beginWay": "TALK_BEGIN_MANUAL",
      "beginCond": [
        {
          "type": "QUEST_COND_STATE_EQUAL",
          "_param": [
            "1103506",
            "2"
          ]
        }
      ],
      "priority": 5,
      "initDialog": 110350401,
      "npcId": [
        1083
      ],
      "performCfg": "QuestDialogue/LQ/Liuyun_11035/Q1103504",
      "heroTalk": "TALK_HERO_MAIN",
      "questId": 11035,
      "assetIndex": 10229227646854729627,
      "prePerformCfg": "",
      "PLPFOOINAAJ": [
        "[20209_2:586.293,141.907,581.369,0.000,180.300,0.000]"
      ]
    },
    {
      "id": 1103505,
      "beginWay": "TALK_BEGIN_MANUAL",
      "beginCond": [
        {
          "type": "QUEST_COND_STATE_EQUAL",
          "_param": [
            "1103505",
            "2"
          ]
        }
      ],
      "priority": 5,
      "initDialog": 110350501,
      "npcId": [
        1083
      ],
      "performCfg": "QuestDialogue/LQ/Liuyun_11035/Q1103505",
      "heroTalk": "TALK_HERO_MAIN",
      "questId": 11035,
      "assetIndex": 1472097739536586410,
      "prePerformCfg": "",
      "PLPFOOINAAJ": [
        "[20209_3:707.037,150.211,739.216,0.000,347.500,0.000]"
      ]
    },
    {
      "id": 1103506,
      "beginWay": "TALK_BEGIN_MANUAL",
      "beginCond": [
        {
          "type": "QUEST_COND_STATE_EQUAL",
          "_param": [
            "1103502",
            "2"
          ]
        }
      ],
      "priority": 5,
      "initDialog": 110350181,
      "npcId": [
        1083
      ],
      "performCfg": "QuestDialogue/LQ/Liuyun_11035/Q1103506",
      "heroTalk": "TALK_HERO_MAIN",
      "questId": 11035,
      "assetIndex": 18299193858488438495,
      "prePerformCfg": ""
    },
    {
      "id": 1103507,
      "beginWay": "TALK_BEGIN_MANUAL",
      "beginCond": [
        {
          "type": "QUEST_COND_STATE_EQUAL",
          "_param": [
            "1103507",
            "2"
          ]
        }
      ],
      "priority": 5,
      "initDialog": 110350701,
      "npcId": [
        1083
      ],
      "performCfg": "QuestDialogue/LQ/Liuyun_11035/Q1103507",
      "heroTalk": "TALK_HERO_MAIN",
      "questId": 11035,
      "assetIndex": 9063756522199182546,
      "prePerformCfg": "",
      "lockGameTime": true,
      "PLPFOOINAAJ": [
        "[3_310100189:1140.389,349.185,1572.035,0.000,166.500,0.000]",
        "[3_310100190:1139.193,349.146,1571.617,0.000,158.580,0.000]",
        "[3_310100191:1141.101,349.192,1569.421,0.000,343.260,0.000]",
        "[3_310100192:1139.734,349.196,1569.405,0.000,17.250,0.000]",
        "[3_310701976:1141.887,349.209,1571.906,0.000,186.820,0.000]"
      ]
    },
    {
      "id": 1103511,
      "beginWay": "TALK_BEGIN_MANUAL",
      "beginCond": [
        {
          "type": "QUEST_COND_STATE_EQUAL",
          "_param": [
            "1103508",
            "2"
          ]
        }
      ],
      "priority": 5,
      "initDialog": 110351101,
      "npcId": [
        1083
      ],
      "performCfg": "QuestDialogue/LQ/Liuyun_11035/Q1103511",
      "heroTalk": "TALK_HERO_MAIN",
      "questId": 11035,
      "assetIndex": 7192195720243197045,
      "prePerformCfg": ""
    },
    {
      "id": 1103512,
      "beginWay": "TALK_BEGIN_MANUAL",
      "beginCond": [
        {
          "type": "QUEST_COND_STATE_EQUAL",
          "_param": [
            "1103508",
            "2"
          ]
        }
      ],
      "priority": 5,
      "initDialog": 110351201,
      "npcId": [
        13912
      ],
      "performCfg": "QuestDialogue/LQ/Liuyun_11035/Q1103512",
      "heroTalk": "TALK_HERO_MAIN",
      "questId": 11035,
      "assetIndex": 16531987259232503031,
      "prePerformCfg": ""
    },
    {
      "id": 1103513,
      "beginWay": "TALK_BEGIN_MANUAL",
      "beginCondComb": "LOGIC_OR",
      "beginCond": [
        {
          "type": "QUEST_COND_STATE_EQUAL",
          "_param": [
            "1103508",
            "2"
          ]
        },
        {
          "type": "QUEST_COND_STATE_EQUAL",
          "_param": [
            "1103509",
            "2"
          ]
        }
      ],
      "priority": 5,
      "initDialog": 110351301,
      "npcId": [
        10045
      ],
      "performCfg": "QuestDialogue/LQ/Liuyun_11035/Q1103513",
      "heroTalk": "TALK_HERO_MAIN",
      "questId": 11035,
      "assetIndex": 10827716906803243130,
      "prePerformCfg": ""
    },
    {
      "id": 1103514,
      "beginWay": "TALK_BEGIN_MANUAL",
      "beginCond": [
        {
          "type": "QUEST_COND_STATE_EQUAL",
          "_param": [
            "1103509",
            "2"
          ]
        }
      ],
      "priority": 5,
      "initDialog": 110351401,
      "npcId": [
        1083,
        13912,
        10232
      ],
      "performCfg": "QuestDialogue/LQ/Liuyun_11035/Q1103514",
      "heroTalk": "TALK_HERO_MAIN",
      "questId": 11035,
      "assetIndex": 13922495539667902055,
      "prePerformCfg": "",
      "lockGameTime": true,
      "PLPFOOINAAJ": [
        "[3_310701980:-633.618,225.074,204.097,0.000,183.326,0.000]",
        "[3_310702012:-633.671,225.074,202.393,0.000,348.409,0.000]",
        "[3_310702013:-635.783,225.074,205.066,0.000,112.880,0.000]",
        "[3_310702014:-635.124,225.074,205.991,0.000,146.550,0.000]",
        "[3_310702015:-633.825,225.074,204.464,0.000,139.080,0.000]",
        "[3_310702016:-632.236,225.074,204.145,0.000,253.910,0.000]"
      ]
    }
  ],
  "preloadLuaList": [
    2631064669645318447
  ],
  "forcePreloadLuaList": [
    10612368974494558211
  ],
  "freeStyleDic": {
    "1083": [
      1120
    ]
  },
  "dialogList": [
    {
      "id": 110350601,
      "talkRole": {
        "_id": ""
      },
      "talkContentTextMapHash": 74609898,
      "talkAssetPath": "",
      "talkAssetPathAlter": "",
      "talkAudioName": "",
      "actionBefore": "",
      "actionWhile": "",
      "actionAfter": "",
      "optionIcon": "",
      "iconPath": ""
    }
  ],
  "DDHNEIEDLJA": true
}