{
  "id": 12039,
  "resId": 2029,
  "series": 2031,
  "KPGKDHAFHFE": "LQ",
  "titleTextMapHash": 1045059335,
  "descTextMapHash": 1386203478,
  "luaPath": "Actor/Quest/LQ12039",
  "rewardIdList": [
    112039
  ],
  "specialShowRewardId": [
    33358
  ],
  "chapterId": 2031,
  "subQuests": [
    {
      "subId": 1203901,
      "mainId": 12039,
      "order": 1,
      "descTextMapHash": 1374861948,
      "finishCond": [
        {
          "KPGKDHAFHFE": "QUEST_CONTENT_ENTER_DUNGEON",
          "param": [
            1136,
            572
          ]
        }
      ],
      "guide": {
        "KPGKDHAFHFE": "QUEST_GUIDE_LOCATION",
        "param": [
          "guide_Q1203901"
        ],
        "guideScene": 3,
        "guideStyle": "QUEST_GUIDE_STYLE_POINT",
        "guideLayer": "QUEST_GUIDE_LAYER_SCENE"
      },
      "guideHint": {
        "param1": ""
      },
      "isRewind": true,
      "versionBegin": "",
      "versionEnd": ""
    },
    {
      "subId": 1203902,
      "mainId": 12039,
      "order": 19,
      "isMpBlock": true,
      "descTextMapHash": 3079349132,
      "GMKDJFPEFFF": [
        322002,
        322006,
        322001
      ],
      "finishCond": [
        {
          "KPGKDHAFHFE": "QUEST_CONTENT_FINISH_PLOT",
          "param": [
            1203902,
            0
          ]
        }
      ],
      "guide": {
        "KPGKDHAFHFE": "QUEST_GUIDE_LOCATION",
        "param": [
          "Q1203802_N10000005"
        ],
        "guideScene": 3,
        "guideStyle": "QUEST_GUIDE_STYLE_POINT",
        "guideLayer": "QUEST_GUIDE_LAYER_SCENE"
      },
      "guideHint": {
        "param1": ""
      },
      "isRewind": true,
      "versionBegin": "",
      "versionEnd": ""
    },
    {
      "subId": 1203903,
      "mainId": 12039,
      "order": 22,
      "descTextMapHash": 4066987156,
      "GMKDJFPEFFF": [
        322006,
        322001
      ],
      "finishCond": [
        {
          "KPGKDHAFHFE": "QUEST_CONTENT_COMPLETE_TALK",
          "param": [
            1203919,
            0
          ]
        }
      ],
      "guide": {
        "KPGKDHAFHFE": "QUEST_GUIDE_NPC",
        "param": [
          "1032"
        ],
        "guideScene": 3,
        "guideStyle": "QUEST_GUIDE_STYLE_TARGET",
        "guideLayer": "QUEST_GUIDE_LAYER_SCENE"
      },
      "guideHint": {
        "param1": ""
      },
      "versionBegin": "",
      "versionEnd": ""
    },
    {
      "subId": 1203904,
      "mainId": 12039,
      "order": 23,
      "descTextMapHash": 2401285692,
      "GMKDJFPEFFF": [
        322104
      ],
      "finishCond": [
        {
          "KPGKDHAFHFE": "QUEST_CONTENT_COMPLETE_TALK",
          "param": [
            1203904,
            0
          ]
        }
      ],
      "guide": {
        "KPGKDHAFHFE": "QUEST_GUIDE_NPC",
        "param": [
          "3054"
        ],
        "guideScene": 3,
        "guideStyle": "QUEST_GUIDE_STYLE_TARGET",
        "guideLayer": "QUEST_GUIDE_LAYER_SCENE"
      },
      "guideHint": {
        "param1": ""
      },
      "finishParent": true,
      "isRewind": true,
      "finishExec": [
        {
          "KPGKDHAFHFE": "QUEST_EXEC_SET_QUEST_GLOBAL_VAR",
          "param": [
            "1203901",
            "1"
          ]
        }
      ],
      "versionBegin": "",
      "versionEnd": ""
    },
    {
      "subId": 1203905,
      "mainId": 12039,
      "order": 2,
      "isMpBlock": true,
      "descTextMapHash": 1671092148,
      "finishCond": [
        {
          "KPGKDHAFHFE": "QUEST_CONTENT_LUA_NOTIFY",
          "param": [
            0,
            0
          ],
          "count": 1
        }
      ],
      "failCond": [
        {
          "KPGKDHAFHFE": "QUEST_CONTENT_FAIL_DUNGEON",
          "param": [
            1136,
            0
          ]
        },
        {
          "KPGKDHAFHFE": "QUEST_CONTENT_LEAVE_SCENE",
          "param": [
            1071,
            0
          ]
        },
        {
          "KPGKDHAFHFE": "QUEST_CONTENT_ENTER_MY_WORLD",
          "param": [
            3,
            0
          ]
        },
        {
          "KPGKDHAFHFE": "QUEST_CONTENT_ANY_MANUAL_TRANSPORT",
          "param": [
            0,
            0
          ]
        }
      ],
      "guide": {},
      "showGuide": "QUEST_GUIDE_ITEM_DISABLE",
      "guideHint": {
        "param1": ""
      },
      "isRewind": true,
      "failExec": [
        {
          "KPGKDHAFHFE": "QUEST_EXEC_REMOVE_TRIAL_AVATAR",
          "param": [
            "10500"
          ]
        },
        {
          "KPGKDHAFHFE": "QUEST_EXEC_UNLOCK_AVATAR_TEAM"
        },
        {
          "KPGKDHAFHFE": "QUEST_EXEC_ROLLBACK_QUEST",
          "param": [
            "1203901"
          ]
        }
      ],
      "versionBegin": "",
      "versionEnd": ""
    },
    {
      "subId": 1203906,
      "mainId": 12039,
      "order": 3,
      "isMpBlock": true,
      "descTextMapHash": 1426971076,
      "finishCond": [
        {
          "KPGKDHAFHFE": "QUEST_CONTENT_COMPLETE_TALK",
          "param": [
            1203906,
            0
          ]
        }
      ],
      "failCond": [
        {
          "KPGKDHAFHFE": "QUEST_CONTENT_FAIL_DUNGEON",
          "param": [
            1136,
            0
          ]
        },
        {
          "KPGKDHAFHFE": "QUEST_CONTENT_LEAVE_SCENE",
          "param": [
            1071,
            0
          ]
        },
        {
          "KPGKDHAFHFE": "QUEST_CONTENT_ENTER_MY_WORLD",
          "param": [
            3,
            0
          ]
        },
        {
          "KPGKDHAFHFE": "QUEST_CONTENT_ANY_MANUAL_TRANSPORT",
          "param": [
            0,
            0
          ]
        }
      ],
      "guide": {},
      "showGuide": "QUEST_GUIDE_ITEM_DISABLE",
      "guideHint": {
        "param1": ""
      },
      "isRewind": true,
      "finishExec": [
        {
          "KPGKDHAFHFE": "QUEST_EXEC_NOTIFY_GROUP_LUA",
          "param": [
            "1071",
            "201071002"
          ]
        },
        {
          "KPGKDHAFHFE": "QUEST_EXEC_NOTIFY_GROUP_LUA",
          "param": [
            "1071",
            "201071003"
          ]
        }
      ],
      "failExec": [
        {
          "KPGKDHAFHFE": "QUEST_EXEC_REMOVE_TRIAL_AVATAR",
          "param": [
            "10500"
          ]
        },
        {
          "KPGKDHAFHFE": "QUEST_EXEC_UNLOCK_AVATAR_TEAM"
        },
        {
          "KPGKDHAFHFE": "QUEST_EXEC_ROLLBACK_QUEST",
          "param": [
            "1203901"
          ]
        }
      ],
      "versionBegin": "",
      "versionEnd": ""
    },
    {
      "subId": 1203907,
      "mainId": 12039,
      "order": 4,
      "isMpBlock": true,
      "descTextMapHash": 1201895036,
      "finishCond": [
        {
          "KPGKDHAFHFE": "QUEST_CONTENT_LUA_NOTIFY",
          "param": [
            0,
            0
          ],
          "count": 1
        }
      ],
      "failCond": [
        {
          "KPGKDHAFHFE": "QUEST_CONTENT_FAIL_DUNGEON",
          "param": [
            1136,
            0
          ]
        },
        {
          "KPGKDHAFHFE": "QUEST_CONTENT_LEAVE_SCENE",
          "param": [
            1071,
            0
          ]
        },
        {
          "KPGKDHAFHFE": "QUEST_CONTENT_ENTER_MY_WORLD",
          "param": [
            3,
            0
          ]
        },
        {
          "KPGKDHAFHFE": "QUEST_CONTENT_ANY_MANUAL_TRANSPORT",
          "param": [
            0,
            0
          ]
        }
      ],
      "guide": {},
      "showGuide": "QUEST_GUIDE_ITEM_DISABLE",
      "guideHint": {
        "param1": ""
      },
      "isRewind": true,
      "failExec": [
        {
          "KPGKDHAFHFE": "QUEST_EXEC_REMOVE_TRIAL_AVATAR",
          "param": [
            "10500"
          ]
        },
        {
          "KPGKDHAFHFE": "QUEST_EXEC_UNLOCK_AVATAR_TEAM"
        },
        {
          "KPGKDHAFHFE": "QUEST_EXEC_ROLLBACK_QUEST",
          "param": [
            "1203901"
          ]
        }
      ],
      "versionBegin": "",
      "versionEnd": ""
    },
    {
      "subId": 1203908,
      "mainId": 12039,
      "order": 5,
      "isMpBlock": true,
      "descTextMapHash": 619786460,
      "finishCond": [
        {
          "KPGKDHAFHFE": "QUEST_CONTENT_COMPLETE_TALK",
          "param": [
            1203908,
            0
          ]
        }
      ],
      "failCond": [
        {
          "KPGKDHAFHFE": "QUEST_CONTENT_FAIL_DUNGEON",
          "param": [
            1136,
            0
          ]
        },
        {
          "KPGKDHAFHFE": "QUEST_CONTENT_LEAVE_SCENE",
          "param": [
            1071,
            0
          ]
        },
        {
          "KPGKDHAFHFE": "QUEST_CONTENT_ENTER_MY_WORLD",
          "param": [
            3,
            0
          ]
        },
        {
          "KPGKDHAFHFE": "QUEST_CONTENT_ANY_MANUAL_TRANSPORT",
          "param": [
            0,
            0
          ]
        }
      ],
      "guide": {},
      "showGuide": "QUEST_GUIDE_ITEM_DISABLE",
      "guideHint": {
        "param1": ""
      },
      "isRewind": true,
      "finishExec": [
        {
          "KPGKDHAFHFE": "QUEST_EXEC_NOTIFY_GROUP_LUA",
          "param": [
            "1071",
            "201071002"
          ]
        },
        {
          "KPGKDHAFHFE": "QUEST_EXEC_NOTIFY_GROUP_LUA",
          "param": [
            "1071",
            "201071003"
          ]
        },
        {
          "KPGKDHAFHFE": "QUEST_EXEC_REMOVE_TRIAL_AVATAR",
          "param": [
            "10500"
          ]
        },
        {
          "KPGKDHAFHFE": "QUEST_EXEC_UNLOCK_AVATAR_TEAM"
        }
      ],
      "failExec": [
        {
          "KPGKDHAFHFE": "QUEST_EXEC_REMOVE_TRIAL_AVATAR",
          "param": [
            "10500"
          ]
        },
        {
          "KPGKDHAFHFE": "QUEST_EXEC_REMOVE_TRIAL_AVATAR",
          "param": [
            "10501"
          ]
        },
        {
          "KPGKDHAFHFE": "QUEST_EXEC_UNLOCK_AVATAR_TEAM"
        },
        {
          "KPGKDHAFHFE": "QUEST_EXEC_ROLLBACK_QUEST",
          "param": [
            "1203901"
          ]
        }
      ],
      "versionBegin": "",
      "versionEnd": ""
    },
    {
      "subId": 1203909,
      "mainId": 12039,
      "order": 6,
      "isMpBlock": true,
      "descTextMapHash": 3499082060,
      "showType": "QUEST_HIDDEN",
      "finishCond": [
        {
          "KPGKDHAFHFE": "QUEST_CONTENT_LUA_NOTIFY",
          "param": [
            0,
            0
          ],
          "count": 1
        },
        {
          "KPGKDHAFHFE": "QUEST_CONTENT_FINISH_DUNGEON",
          "param": [
            1136,
            0
          ]
        },
        {
          "KPGKDHAFHFE": "QUEST_CONTENT_QUEST_STATE_EQUAL",
          "param": [
            1203914,
            2
          ]
        }
      ],
      "failCond": [
        {
          "KPGKDHAFHFE": "QUEST_CONTENT_FAIL_DUNGEON",
          "param": [
            1136,
            0
          ]
        },
        {
          "KPGKDHAFHFE": "QUEST_CONTENT_LEAVE_SCENE",
          "param": [
            1071,
            0
          ]
        },
        {
          "KPGKDHAFHFE": "QUEST_CONTENT_ENTER_MY_WORLD",
          "param": [
            3,
            0
          ]
        },
        {
          "KPGKDHAFHFE": "QUEST_CONTENT_ANY_MANUAL_TRANSPORT",
          "param": [
            0,
            0
          ]
        }
      ],
      "guide": {},
      "showGuide": "QUEST_GUIDE_ITEM_DISABLE",
      "guideHint": {
        "param1": ""
      },
      "failParentShow": "QUEST_HIDDEN",
      "isRewind": true,
      "failExec": [
        {
          "KPGKDHAFHFE": "QUEST_EXEC_REMOVE_TRIAL_AVATAR",
          "param": [
            "10501"
          ]
        },
        {
          "KPGKDHAFHFE": "QUEST_EXEC_UNLOCK_AVATAR_TEAM"
        },
        {
          "KPGKDHAFHFE": "QUEST_EXEC_ROLLBACK_QUEST",
          "param": [
            "1203901"
          ]
        }
      ],
      "versionBegin": "",
      "versionEnd": ""
    },
    {
      "subId": 1203910,
      "mainId": 12039,
      "order": 9,
      "isMpBlock": true,
      "descTextMapHash": 2353990172,
      "finishCond": [
        {
          "KPGKDHAFHFE": "QUEST_CONTENT_COMPLETE_TALK",
          "param": [
            1203910,
            0
          ]
        }
      ],
      "failCond": [
        {
          "KPGKDHAFHFE": "QUEST_CONTENT_FAIL_DUNGEON",
          "param": [
            1136,
            0
          ]
        },
        {
          "KPGKDHAFHFE": "QUEST_CONTENT_LEAVE_SCENE",
          "param": [
            1071,
            0
          ]
        },
        {
          "KPGKDHAFHFE": "QUEST_CONTENT_ENTER_MY_WORLD",
          "param": [
            3,
            0
          ]
        },
        {
          "KPGKDHAFHFE": "QUEST_CONTENT_ANY_MANUAL_TRANSPORT",
          "param": [
            0,
            0
          ]
        }
      ],
      "guide": {},
      "showGuide": "QUEST_GUIDE_ITEM_DISABLE",
      "guideHint": {
        "param1": ""
      },
      "isRewind": true,
      "finishExec": [
        {
          "KPGKDHAFHFE": "QUEST_EXEC_NOTIFY_GROUP_LUA",
          "param": [
            "1071",
            "201071002"
          ]
        },
        {
          "KPGKDHAFHFE": "QUEST_EXEC_REMOVE_TRIAL_AVATAR",
          "param": [
            "10501"
          ]
        },
        {
          "KPGKDHAFHFE": "QUEST_EXEC_UNLOCK_AVATAR_TEAM"
        }
      ],
      "failExec": [
        {
          "KPGKDHAFHFE": "QUEST_EXEC_REMOVE_TRIAL_AVATAR",
          "param": [
            "10501"
          ]
        },
        {
          "KPGKDHAFHFE": "QUEST_EXEC_REMOVE_TRIAL_AVATAR",
          "param": [
            "10503"
          ]
        },
        {
          "KPGKDHAFHFE": "QUEST_EXEC_UNLOCK_AVATAR_TEAM"
        },
        {
          "KPGKDHAFHFE": "QUEST_EXEC_ROLLBACK_QUEST",
          "param": [
            "1203901"
          ]
        }
      ],
      "versionBegin": "",
      "versionEnd": ""
    },
    {
      "subId": 1203911,
      "mainId": 12039,
      "order": 11,
      "isMpBlock": true,
      "descTextMapHash": 637310100,
      "finishCond": [
        {
          "KPGKDHAFHFE": "QUEST_CONTENT_LUA_NOTIFY",
          "param": [
            0,
            0
          ],
          "count": 1
        }
      ],
      "failCond": [
        {
          "KPGKDHAFHFE": "QUEST_CONTENT_FAIL_DUNGEON",
          "param": [
            1136,
            0
          ]
        },
        {
          "KPGKDHAFHFE": "QUEST_CONTENT_LEAVE_SCENE",
          "param": [
            1071,
            0
          ]
        },
        {
          "KPGKDHAFHFE": "QUEST_CONTENT_ENTER_MY_WORLD",
          "param": [
            3,
            0
          ]
        },
        {
          "KPGKDHAFHFE": "QUEST_CONTENT_ANY_MANUAL_TRANSPORT",
          "param": [
            0,
            0
          ]
        }
      ],
      "guide": {},
      "showGuide": "QUEST_GUIDE_ITEM_DISABLE",
      "guideHint": {
        "param1": ""
      },
      "isRewind": true,
      "failExec": [
        {
          "KPGKDHAFHFE": "QUEST_EXEC_REMOVE_TRIAL_AVATAR",
          "param": [
            "10503"
          ]
        },
        {
          "KPGKDHAFHFE": "QUEST_EXEC_UNLOCK_AVATAR_TEAM"
        },
        {
          "KPGKDHAFHFE": "QUEST_EXEC_ROLLBACK_QUEST",
          "param": [
            "1203901"
          ]
        }
      ],
      "versionBegin": "",
      "versionEnd": ""
    },
    {
      "subId": 1203912,
      "mainId": 12039,
      "order": 12,
      "isMpBlock": true,
      "descTextMapHash": 1371619276,
      "finishCond": [
        {
          "KPGKDHAFHFE": "QUEST_CONTENT_COMPLETE_TALK",
          "param": [
            1203912,
            0
          ]
        }
      ],
      "failCond": [
        {
          "KPGKDHAFHFE": "QUEST_CONTENT_FAIL_DUNGEON",
          "param": [
            1136,
            0
          ]
        },
        {
          "KPGKDHAFHFE": "QUEST_CONTENT_LEAVE_SCENE",
          "param": [
            1071,
            0
          ]
        },
        {
          "KPGKDHAFHFE": "QUEST_CONTENT_ENTER_MY_WORLD",
          "param": [
            3,
            0
          ]
        },
        {
          "KPGKDHAFHFE": "QUEST_CONTENT_ANY_MANUAL_TRANSPORT",
          "param": [
            0,
            0
          ]
        }
      ],
      "guide": {},
      "showGuide": "QUEST_GUIDE_ITEM_DISABLE",
      "guideHint": {
        "param1": ""
      },
      "isRewind": true,
      "finishExec": [
        {
          "KPGKDHAFHFE": "QUEST_EXEC_REMOVE_TRIAL_AVATAR",
          "param": [
            "10503"
          ]
        },
        {
          "KPGKDHAFHFE": "QUEST_EXEC_UNLOCK_AVATAR_TEAM"
        },
        {
          "KPGKDHAFHFE": "QUEST_EXEC_NOTIFY_GROUP_LUA",
          "param": [
            "1071",
            "201071003"
          ]
        }
      ],
      "failExec": [
        {
          "KPGKDHAFHFE": "QUEST_EXEC_REMOVE_TRIAL_AVATAR",
          "param": [
            "10503"
          ]
        },
        {
          "KPGKDHAFHFE": "QUEST_EXEC_UNLOCK_AVATAR_TEAM"
        },
        {
          "KPGKDHAFHFE": "QUEST_EXEC_ROLLBACK_QUEST",
          "param": [
            "1203901"
          ]
        }
      ],
      "versionBegin": "",
      "versionEnd": ""
    },
    {
      "subId": 1203913,
      "mainId": 12039,
      "order": 13,
      "isMpBlock": true,
      "descTextMapHash": 1671638052,
      "finishCond": [
        {
          "KPGKDHAFHFE": "QUEST_CONTENT_COMPLETE_TALK",
          "param": [
            1203913,
            0
          ]
        }
      ],
      "failCond": [
        {
          "KPGKDHAFHFE": "QUEST_CONTENT_FAIL_DUNGEON",
          "param": [
            1136,
            0
          ]
        },
        {
          "KPGKDHAFHFE": "QUEST_CONTENT_LEAVE_SCENE",
          "param": [
            1071,
            0
          ]
        },
        {
          "KPGKDHAFHFE": "QUEST_CONTENT_ENTER_MY_WORLD",
          "param": [
            3,
            0
          ]
        },
        {
          "KPGKDHAFHFE": "QUEST_CONTENT_ANY_MANUAL_TRANSPORT",
          "param": [
            0,
            0
          ]
        }
      ],
      "guide": {},
      "showGuide": "QUEST_GUIDE_ITEM_DISABLE",
      "guideHint": {
        "param1": ""
      },
      "isRewind": true,
      "finishExec": [
        {
          "KPGKDHAFHFE": "QUEST_EXEC_NOTIFY_GROUP_LUA",
          "param": [
            "1071",
            "201071003"
          ]
        }
      ],
      "failExec": [
        {
          "KPGKDHAFHFE": "QUEST_EXEC_ROLLBACK_QUEST",
          "param": [
            "1203901"
          ]
        }
      ],
      "versionBegin": "",
      "versionEnd": ""
    },
    {
      "subId": 1203914,
      "mainId": 12039,
      "order": 14,
      "isMpBlock": true,
      "descTextMapHash": 3391303052,
      "finishCond": [
        {
          "KPGKDHAFHFE": "QUEST_CONTENT_COMPLETE_TALK",
          "param": [
            1203914,
            0
          ]
        }
      ],
      "failCond": [
        {
          "KPGKDHAFHFE": "QUEST_CONTENT_FAIL_DUNGEON",
          "param": [
            1136,
            0
          ]
        },
        {
          "KPGKDHAFHFE": "QUEST_CONTENT_LEAVE_SCENE",
          "param": [
            1071,
            0
          ]
        },
        {
          "KPGKDHAFHFE": "QUEST_CONTENT_ENTER_MY_WORLD",
          "param": [
            3,
            0
          ]
        },
        {
          "KPGKDHAFHFE": "QUEST_CONTENT_ANY_MANUAL_TRANSPORT",
          "param": [
            0,
            0
          ]
        }
      ],
      "guide": {},
      "showGuide": "QUEST_GUIDE_ITEM_DISABLE",
      "guideHint": {
        "param1": ""
      },
      "isRewind": true,
      "finishExec": [
        {
          "KPGKDHAFHFE": "QUEST_EXEC_NOTIFY_GROUP_LUA",
          "param": [
            "1071",
            "201071002"
          ]
        },
        {
          "KPGKDHAFHFE": "QUEST_EXEC_NOTIFY_GROUP_LUA",
          "param": [
            "1071",
            "201071003"
          ]
        },
        {
          "KPGKDHAFHFE": "QUEST_EXEC_LOCK_POINT",
          "param": [
            "3",
            "572"
          ]
        }
      ],
      "failExec": [
        {
          "KPGKDHAFHFE": "QUEST_EXEC_ROLLBACK_QUEST",
          "param": [
            "1203901"
          ]
        }
      ],
      "versionBegin": "",
      "versionEnd": ""
    },
    {
      "subId": 1203915,
      "mainId": 12039,
      "order": 15,
      "descTextMapHash": 2620595556,
      "stepDescTextMapHash": 1542743789,
      "GMKDJFPEFFF": [
        322005
      ],
      "finishCond": [
        {
          "KPGKDHAFHFE": "QUEST_CONTENT_FINISH_PLOT",
          "param": [
            1203915,
            0
          ]
        }
      ],
      "guide": {
        "KPGKDHAFHFE": "QUEST_GUIDE_LOCATION",
        "param": [
          "Q1203916"
        ],
        "guideScene": 3,
        "guideStyle": "QUEST_GUIDE_STYLE_POINT",
        "guideLayer": "QUEST_GUIDE_LAYER_SCENE"
      },
      "guideHint": {
        "param1": ""
      },
      "isRewind": true,
      "versionBegin": "",
      "versionEnd": ""
    },
    {
      "subId": 1203916,
      "mainId": 12039,
      "order": 16,
      "descTextMapHash": 2604234644,
      "GMKDJFPEFFF": [
        322005
      ],
      "finishCond": [
        {
          "KPGKDHAFHFE": "QUEST_CONTENT_COMPLETE_TALK",
          "param": [
            1203916,
            0
          ]
        }
      ],
      "guide": {
        "KPGKDHAFHFE": "QUEST_GUIDE_NPC",
        "param": [
          "1032"
        ],
        "guideScene": 3,
        "guideStyle": "QUEST_GUIDE_STYLE_TARGET",
        "guideLayer": "QUEST_GUIDE_LAYER_SCENE"
      },
      "guideHint": {
        "param1": ""
      },
      "versionBegin": "",
      "versionEnd": ""
    },
    {
      "subId": 1203917,
      "mainId": 12039,
      "order": 17,
      "isMpBlock": true,
      "descTextMapHash": 2250075316,
      "GMKDJFPEFFF": [
        322005
      ],
      "finishCond": [
        {
          "KPGKDHAFHFE": "QUEST_CONTENT_LUA_NOTIFY",
          "param": [
            0,
            0
          ],
          "count": 1
        }
      ],
      "failCond": [
        {
          "KPGKDHAFHFE": "QUEST_CONTENT_TEAM_DEAD",
          "param": [
            0,
            0
          ]
        },
        {
          "KPGKDHAFHFE": "QUEST_CONTENT_LEAVE_SCENE_RANGE",
          "param": [
            3,
            40
          ]
        },
        {
          "KPGKDHAFHFE": "QUEST_CONTENT_ANY_MANUAL_TRANSPORT",
          "param": [
            0,
            0
          ]
        }
      ],
      "guide": {
        "KPGKDHAFHFE": "QUEST_GUIDE_LOCATION",
        "param": [
          "Q1203916",
          "40"
        ],
        "guideScene": 3,
        "guideStyle": "QUEST_GUIDE_STYLE_POINT",
        "guideLayer": "QUEST_GUIDE_LAYER_SCENE"
      },
      "guideHint": {
        "param1": ""
      },
      "finishExec": [
        {
          "KPGKDHAFHFE": "QUEST_EXEC_UNREGISTER_DYNAMIC_GROUP",
          "param": [
            "133220762",
            "0"
          ]
        },
        {
          "KPGKDHAFHFE": "QUEST_EXEC_REMOVE_TRIAL_AVATAR",
          "param": [
            "10502"
          ]
        },
        {
          "KPGKDHAFHFE": "QUEST_EXEC_UNLOCK_AVATAR_TEAM"
        }
      ],
      "failExec": [
        {
          "KPGKDHAFHFE": "QUEST_EXEC_REMOVE_TRIAL_AVATAR",
          "param": [
            "10502"
          ]
        },
        {
          "KPGKDHAFHFE": "QUEST_EXEC_UNLOCK_AVATAR_TEAM"
        },
        {
          "KPGKDHAFHFE": "QUEST_EXEC_ROLLBACK_QUEST",
          "param": [
            "1203915"
          ]
        }
      ],
      "versionBegin": "",
      "versionEnd": ""
    },
    {
      "subId": 1203918,
      "mainId": 12039,
      "order": 18,
      "descTextMapHash": 642923972,
      "GMKDJFPEFFF": [
        322005
      ],
      "finishCond": [
        {
          "KPGKDHAFHFE": "QUEST_CONTENT_COMPLETE_TALK",
          "param": [
            1203918,
            0
          ]
        }
      ],
      "guide": {
        "KPGKDHAFHFE": "QUEST_GUIDE_LOCATION",
        "param": [
          "Q1203916"
        ],
        "guideScene": 3,
        "guideStyle": "QUEST_GUIDE_STYLE_POINT",
        "guideLayer": "QUEST_GUIDE_LAYER_SCENE"
      },
      "guideHint": {
        "param1": ""
      },
      "isRewind": true,
      "versionBegin": "",
      "versionEnd": ""
    },
    {
      "subId": 1203919,
      "mainId": 12039,
      "order": 20,
      "isMpBlock": true,
      "descTextMapHash": 1003820164,
      "GMKDJFPEFFF": [
        322002,
        322006,
        322001
      ],
      "finishCond": [
        {
          "KPGKDHAFHFE": "QUEST_CONTENT_COMPLETE_TALK",
          "param": [
            1203903,
            0
          ]
        }
      ],
      "guide": {
        "KPGKDHAFHFE": "QUEST_GUIDE_NPC",
        "param": [
          "1032"
        ],
        "guideScene": 3,
        "guideStyle": "QUEST_GUIDE_STYLE_TARGET",
        "guideLayer": "QUEST_GUIDE_LAYER_SCENE"
      },
      "guideHint": {
        "param1": ""
      },
      "finishExec": [
        {
          "KPGKDHAFHFE": "QUEST_EXEC_REFRESH_GROUP_SUITE",
          "param": [
            "3",
            "133220049,1"
          ]
        },
        {
          "KPGKDHAFHFE": "QUEST_EXEC_REFRESH_GROUP_SUITE",
          "param": [
            "3",
            "133220049,1"
          ]
        }
      ],
      "versionBegin": "",
      "versionEnd": ""
    },
    {
      "subId": 1203920,
      "mainId": 12039,
      "order": 21,
      "descTextMapHash": 1907542500,
      "GMKDJFPEFFF": [
        322006,
        322001
      ],
      "finishCond": [
        {
          "KPGKDHAFHFE": "QUEST_CONTENT_FINISH_PLOT",
          "param": [
            1203920,
            0
          ]
        }
      ],
      "guide": {
        "KPGKDHAFHFE": "QUEST_GUIDE_LOCATION",
        "param": [
          "Q1203998_N10000005"
        ],
        "guideScene": 3,
        "guideStyle": "QUEST_GUIDE_STYLE_POINT",
        "guideLayer": "QUEST_GUIDE_LAYER_SCENE"
      },
      "guideHint": {
        "param1": ""
      },
      "isRewind": true,
      "versionBegin": "",
      "versionEnd": ""
    },
    {
      "subId": 1203921,
      "mainId": 12039,
      "order": 7,
      "isMpBlock": true,
      "descTextMapHash": 3038300548,
      "showType": "QUEST_HIDDEN",
      "finishCond": [
        {
          "KPGKDHAFHFE": "QUEST_CONTENT_LUA_NOTIFY",
          "param": [
            0,
            0
          ],
          "count": 1
        },
        {
          "KPGKDHAFHFE": "QUEST_CONTENT_FINISH_DUNGEON",
          "param": [
            1136,
            0
          ]
        },
        {
          "KPGKDHAFHFE": "QUEST_CONTENT_QUEST_STATE_EQUAL",
          "param": [
            1203914,
            2
          ]
        }
      ],
      "failCond": [
        {
          "KPGKDHAFHFE": "QUEST_CONTENT_FAIL_DUNGEON",
          "param": [
            1136,
            0
          ]
        },
        {
          "KPGKDHAFHFE": "QUEST_CONTENT_LEAVE_SCENE",
          "param": [
            1071,
            0
          ]
        },
        {
          "KPGKDHAFHFE": "QUEST_CONTENT_ENTER_MY_WORLD",
          "param": [
            3,
            0
          ]
        },
        {
          "KPGKDHAFHFE": "QUEST_CONTENT_ANY_MANUAL_TRANSPORT",
          "param": [
            0,
            0
          ]
        }
      ],
      "guide": {},
      "showGuide": "QUEST_GUIDE_ITEM_DISABLE",
      "guideHint": {
        "param1": ""
      },
      "failParentShow": "QUEST_HIDDEN",
      "isRewind": true,
      "failExec": [
        {
          "KPGKDHAFHFE": "QUEST_EXEC_REMOVE_TRIAL_AVATAR",
          "param": [
            "10501"
          ]
        },
        {
          "KPGKDHAFHFE": "QUEST_EXEC_UNLOCK_AVATAR_TEAM"
        },
        {
          "KPGKDHAFHFE": "QUEST_EXEC_ROLLBACK_QUEST",
          "param": [
            "1203901"
          ]
        }
      ],
      "versionBegin": "",
      "versionEnd": ""
    },
    {
      "subId": 1203922,
      "mainId": 12039,
      "order": 10,
      "isMpBlock": true,
      "descTextMapHash": 859978884,
      "finishCond": [
        {
          "KPGKDHAFHFE": "QUEST_CONTENT_COMPLETE_TALK",
          "param": [
            1203928,
            0
          ]
        }
      ],
      "failCond": [
        {
          "KPGKDHAFHFE": "QUEST_CONTENT_FAIL_DUNGEON",
          "param": [
            1136,
            0
          ]
        },
        {
          "KPGKDHAFHFE": "QUEST_CONTENT_LEAVE_SCENE",
          "param": [
            1071,
            0
          ]
        },
        {
          "KPGKDHAFHFE": "QUEST_CONTENT_ENTER_MY_WORLD",
          "param": [
            3,
            0
          ]
        },
        {
          "KPGKDHAFHFE": "QUEST_CONTENT_ANY_MANUAL_TRANSPORT",
          "param": [
            0,
            0
          ]
        }
      ],
      "guide": {},
      "showGuide": "QUEST_GUIDE_ITEM_DISABLE",
      "guideHint": {
        "param1": ""
      },
      "isRewind": true,
      "finishExec": [
        {
          "KPGKDHAFHFE": "QUEST_EXEC_NOTIFY_GROUP_LUA",
          "param": [
            "1071",
            "201071002"
          ]
        },
        {
          "KPGKDHAFHFE": "QUEST_EXEC_REMOVE_TRIAL_AVATAR",
          "param": [
            "10501"
          ]
        },
        {
          "KPGKDHAFHFE": "QUEST_EXEC_UNLOCK_AVATAR_TEAM"
        }
      ],
      "failExec": [
        {
          "KPGKDHAFHFE": "QUEST_EXEC_REMOVE_TRIAL_AVATAR",
          "param": [
            "10501"
          ]
        },
        {
          "KPGKDHAFHFE": "QUEST_EXEC_REMOVE_TRIAL_AVATAR",
          "param": [
            "10503"
          ]
        },
        {
          "KPGKDHAFHFE": "QUEST_EXEC_UNLOCK_AVATAR_TEAM"
        },
        {
          "KPGKDHAFHFE": "QUEST_EXEC_ROLLBACK_QUEST",
          "param": [
            "1203901"
          ]
        }
      ],
      "versionBegin": "",
      "versionEnd": ""
    },
    {
      "subId": 1203923,
      "mainId": 12039,
      "order": 8,
      "isMpBlock": true,
      "descTextMapHash": 226405380,
      "finishCond": [
        {
          "KPGKDHAFHFE": "QUEST_CONTENT_QUEST_STATE_EQUAL",
          "param": [
            1203909,
            3
          ]
        },
        {
          "KPGKDHAFHFE": "QUEST_CONTENT_QUEST_STATE_EQUAL",
          "param": [
            1203921,
            3
          ]
        }
      ],
      "failCond": [
        {
          "KPGKDHAFHFE": "QUEST_CONTENT_FAIL_DUNGEON",
          "param": [
            1136,
            0
          ]
        },
        {
          "KPGKDHAFHFE": "QUEST_CONTENT_LEAVE_SCENE",
          "param": [
            1071,
            0
          ]
        },
        {
          "KPGKDHAFHFE": "QUEST_CONTENT_ENTER_MY_WORLD",
          "param": [
            3,
            0
          ]
        },
        {
          "KPGKDHAFHFE": "QUEST_CONTENT_ANY_MANUAL_TRANSPORT",
          "param": [
            0,
            0
          ]
        }
      ],
      "guide": {},
      "showGuide": "QUEST_GUIDE_ITEM_DISABLE",
      "guideHint": {
        "param1": ""
      },
      "isRewind": true,
      "failExec": [
        {
          "KPGKDHAFHFE": "QUEST_EXEC_REMOVE_TRIAL_AVATAR",
          "param": [
            "10501"
          ]
        },
        {
          "KPGKDHAFHFE": "QUEST_EXEC_UNLOCK_AVATAR_TEAM"
        },
        {
          "KPGKDHAFHFE": "QUEST_EXEC_ROLLBACK_QUEST",
          "param": [
            "1203901"
          ]
        }
      ],
      "versionBegin": "",
      "versionEnd": ""
    }
  ],
  "talks": [
    {
      "id": 1203902,
      "beginWay": "TALK_BEGIN_MANUAL",
      "beginCond": [
        {
          "type": "QUEST_COND_STATE_EQUAL",
          "_param": [
            "1203913",
            "2"
          ]
        }
      ],
      "priority": 5,
      "initDialog": 120390201,
      "npcId": [
        12589
      ],
      "performCfg": "QuestDialogue/LQ/Kazuha_12039/Q1203902",
      "heroTalk": "TALK_HERO_MAIN",
      "questId": 12039,
      "assetIndex": 12910950517904378376,
      "prePerformCfg": ""
    },
    {
      "id": 1203903,
      "beginWay": "TALK_BEGIN_MANUAL",
      "beginCond": [
        {
          "type": "QUEST_COND_STATE_EQUAL",
          "_param": [
            "1203919",
            "2"
          ]
        }
      ],
      "priority": 5,
      "initDialog": 120390301,
      "npcId": [
        3027,
        12636,
        1032
      ],
      "performCfg": "QuestDialogue/LQ/Kazuha_12039/Q1203903",
      "heroTalk": "TALK_HERO_MAIN",
      "questId": 12039,
      "assetIndex": 17883232584170967496,
      "prePerformCfg": "",
      "lockGameTime": true
    },
    {
      "id": 1203904,
      "beginWay": "TALK_BEGIN_MANUAL",
      "beginCond": [
        {
          "type": "QUEST_COND_STATE_EQUAL",
          "_param": [
            "1203904",
            "2"
          ]
        }
      ],
      "priority": 5,
      "initDialog": 120390401,
      "npcId": [
        3054,
        1032
      ],
      "performCfg": "QuestDialogue/LQ/Kazuha_12039/Q1203904",
      "heroTalk": "TALK_HERO_MAIN",
      "questId": 12039,
      "assetIndex": 8977966608639101536,
      "prePerformCfg": ""
    },
    {
      "id": 1203906,
      "beginWay": "TALK_BEGIN_MANUAL",
      "beginCond": [
        {
          "type": "QUEST_COND_STATE_EQUAL",
          "_param": [
            "1203906",
            "2"
          ]
        }
      ],
      "priority": 5,
      "initDialog": 120390601,
      "npcId": [
        1032
      ],
      "performCfg": "QuestDialogue/LQ/Kazuha_12039/Q1203906",
      "heroTalk": "TALK_HERO_MAIN",
      "questId": 12039,
      "assetIndex": 10677401749103455320,
      "prePerformCfg": ""
    },
    {
      "id": 1203908,
      "beginWay": "TALK_BEGIN_MANUAL",
      "beginCond": [
        {
          "type": "QUEST_COND_STATE_EQUAL",
          "_param": [
            "1203908",
            "2"
          ]
        }
      ],
      "priority": 5,
      "initDialog": 120390801,
      "npcId": [
        1032
      ],
      "performCfg": "QuestDialogue/LQ/Kazuha_12039/Q1203908",
      "heroTalk": "TALK_HERO_MAIN",
      "questId": 12039,
      "assetIndex": 7529225042115795077,
      "prePerformCfg": ""
    },
    {
      "id": 1203910,
      "beginWay": "TALK_BEGIN_MANUAL",
      "beginCond": [
        {
          "type": "QUEST_COND_STATE_EQUAL",
          "_param": [
            "1203910",
            "2"
          ]
        }
      ],
      "priority": 5,
      "initDialog": 120391001,
      "npcId": [
        1032
      ],
      "performCfg": "QuestDialogue/LQ/Kazuha_12039/Q1203910",
      "heroTalk": "TALK_HERO_MAIN",
      "questId": 12039,
      "assetIndex": 16569802338618502139,
      "prePerformCfg": ""
    },
    {
      "id": 1203912,
      "beginWay": "TALK_BEGIN_MANUAL",
      "beginCond": [
        {
          "type": "QUEST_COND_STATE_EQUAL",
          "_param": [
            "1203912",
            "2"
          ]
        }
      ],
      "priority": 5,
      "initDialog": 120391201,
      "npcId": [
        12589,
        1032
      ],
      "performCfg": "QuestDialogue/LQ/Kazuha_12039/Q1203912",
      "heroTalk": "TALK_HERO_MAIN",
      "questId": 12039,
      "assetIndex": 13491779929456238120,
      "prePerformCfg": ""
    },
    {
      "id": 1203913,
      "beginWay": "TALK_BEGIN_MANUAL",
      "beginCond": [
        {
          "type": "QUEST_COND_STATE_EQUAL",
          "_param": [
            "1203913",
            "2"
          ]
        }
      ],
      "priority": 5,
      "initDialog": 120391301,
      "npcId": [
        1032
      ],
      "performCfg": "QuestDialogue/LQ/Kazuha_12039/Q1203913",
      "heroTalk": "TALK_HERO_MAIN",
      "questId": 12039,
      "assetIndex": 16044221019854401476,
      "prePerformCfg": ""
    },
    {
      "id": 1203914,
      "beginWay": "TALK_BEGIN_MANUAL",
      "beginCond": [
        {
          "type": "QUEST_COND_STATE_EQUAL",
          "_param": [
            "1203914",
            "2"
          ]
        }
      ],
      "priority": 5,
      "initDialog": 120391401,
      "npcId": [
        12589,
        1032,
        12758
      ],
      "performCfg": "QuestDialogue/LQ/Kazuha_12039/Q1203914",
      "heroTalk": "TALK_HERO_MAIN",
      "questId": 12039,
      "assetIndex": 10327578019269727815,
      "prePerformCfg": ""
    },
    {
      "id": 1203916,
      "beginWay": "TALK_BEGIN_MANUAL",
      "beginCond": [
        {
          "type": "QUEST_COND_STATE_EQUAL",
          "_param": [
            "1203916",
            "2"
          ]
        }
      ],
      "priority": 5,
      "initDialog": 120391601,
      "npcId": [
        1032,
        12636
      ],
      "performCfg": "QuestDialogue/LQ/Kazuha_12039/Q1203916",
      "heroTalk": "TALK_HERO_MAIN",
      "questId": 12039,
      "assetIndex": 8492383531960742146,
      "prePerformCfg": "",
      "lockGameTime": true
    },
    {
      "id": 1203918,
      "beginWay": "TALK_BEGIN_MANUAL",
      "beginCond": [
        {
          "type": "QUEST_COND_STATE_EQUAL",
          "_param": [
            "1203918",
            "2"
          ]
        }
      ],
      "priority": 5,
      "initDialog": 120391801,
      "npcId": [
        12636,
        1032,
        12589
      ],
      "performCfg": "QuestDialogue/LQ/Kazuha_12039/Q1203918",
      "heroTalk": "TALK_HERO_MAIN",
      "questId": 12039,
      "assetIndex": 14706824866943719794,
      "prePerformCfg": "",
      "lockGameTime": true
    },
    {
      "id": 1203919,
      "beginWay": "TALK_BEGIN_MANUAL",
      "beginCond": [
        {
          "type": "QUEST_COND_STATE_EQUAL",
          "_param": [
            "1203903",
            "2"
          ]
        }
      ],
      "priority": 5,
      "initDialog": 120391901,
      "npcId": [
        1032
      ],
      "performCfg": "QuestDialogue/LQ/Kazuha_12039/Q1203919",
      "heroTalk": "TALK_HERO_MAIN",
      "questId": 12039,
      "assetIndex": 7816269726553924827,
      "prePerformCfg": "",
      "lockGameTime": true
    },
    {
      "id": 1203927,
      "beginWay": "TALK_BEGIN_MANUAL",
      "beginCond": [
        {
          "type": "QUEST_COND_STATE_EQUAL",
          "_param": [
            "99902",
            "3"
          ]
        }
      ],
      "priority": 5,
      "initDialog": 120392701,
      "npcId": [
        3054
      ],
      "performCfg": "QuestDialogue/LQ/Kazuha_12039/Q1203927",
      "heroTalk": "TALK_HERO_MAIN",
      "questId": 12039,
      "assetIndex": 11731256834895989465,
      "prePerformCfg": ""
    },
    {
      "id": 1203928,
      "beginWay": "TALK_BEGIN_MANUAL",
      "beginCond": [
        {
          "type": "QUEST_COND_STATE_EQUAL",
          "_param": [
            "1203922",
            "2"
          ]
        }
      ],
      "priority": 5,
      "initDialog": 120392801,
      "npcId": [
        1032
      ],
      "performCfg": "QuestDialogue/LQ/Kazuha_12039/Q1203928",
      "heroTalk": "TALK_HERO_MAIN",
      "questId": 12039,
      "assetIndex": 8981997426323033482,
      "prePerformCfg": ""
    }
  ],
  "preloadLuaList": [
    403439510006011142,
    2546182331426994950,
    18206850389258460689,
    1640709370546137587,
    14056562186646850149,
    59722598113257855,
    12807367077139023921
  ],
  "forcePreloadLuaList": [
    2077672125976880401
  ],
  "freeStyleDic": {
    "12589": [
      4503
    ],
    "3054": [
      1190
    ]
  }
}