{
  "id": 12032,
  "resId": 2026,
  "series": 2027,
  "KPGKDHAFHFE": "LQ",
  "titleTextMapHash": 860151839,
  "luaPath": "Actor/Quest/LQ12032",
  "showType": "QUEST_HIDDEN",
  "chapterId": 2027,
  "subQuests": [
    {
      "subId": 1203201,
      "mainId": 12032,
      "order": 1,
      "showType": "QUEST_HIDDEN",
      "finishCond": [
        {
          "KPGKDHAFHFE": "QUEST_CONTENT_FINISH_PLOT",
          "param": [
            1203201,
            0
          ]
        },
        {
          "KPGKDHAFHFE": "QUEST_CONTENT_LEAVE_SCENE_RANGE",
          "param": [
            3,
            60
          ]
        },
        {
          "KPGKDHAFHFE": "QUEST_CONTENT_QUEST_STATE_EQUAL",
          "param": [
            1914201,
            2
          ]
        },
        {
          "KPGKDHAFHFE": "QUEST_CONTENT_QUEST_STATE_EQUAL",
          "param": [
            1914511,
            2
          ]
        }
      ],
      "guide": {},
      "guideHint": {
        "param1": ""
      },
      "finishParent": true,
      "isRewind": true,
      "versionBegin": "",
      "versionEnd": ""
    }
  ],
  "talks": [
    {
      "id": 1203201,
      "beginWay": "TALK_BEGIN_MANUAL",
      "beginCond": [
        {
          "type": "QUEST_COND_STATE_EQUAL",
          "_param": [
            "1203201",
            "2"
          ]
        }
      ],
      "priority": 5,
      "initDialog": 120320101,
      "npcId": [
        1036,
        1034
      ],
      "performCfg": "QuestDialogue/LQ/Shougun2_12032/Q1203201",
      "questId": 12032,
      "assetIndex": 9053070872765308236,
      "prePerformCfg": ""
    }
  ],
  "preloadLuaList": [
    7493819310849516199
  ],
  "forcePreloadLuaList": [
    4576219786649992275
  ],
  "freeStyleDic": {
    "1036": [
      1130
    ],
    "1034": [
      1120
    ]
  }
}