{
  "id": 13000,
  "resId": 2031,
  "series": 13000,
  "KPGKDHAFHFE": "LQ",
  "titleTextMapHash": 894900039,
  "descTextMapHash": 2037431990,
  "luaPath": "Actor/Quest/LQ13000",
  "suggestTrackMainQuestList": [
    13001
  ],
  "rewardIdList": [
    113000
  ],
  "chapterId": 2030,
  "showRedPoint": true,
  "PAIEEMIAKBH": true,
  "subQuests": [
    {
      "subId": 1300001,
      "mainId": 13000,
      "order": 1,
      "descTextMapHash": 2455328444,
      "GMKDJFPEFFF": [
        330202
      ],
      "finishCond": [
        {
          "KPGKDHAFHFE": "QUEST_CONTENT_COMPLETE_TALK",
          "param": [
            1300001,
            0
          ]
        }
      ],
      "guide": {
        "KPGKDHAFHFE": "QUEST_GUIDE_NPC",
        "param": [
          "4019"
        ],
        "guideScene": 3,
        "guideStyle": "QUEST_GUIDE_STYLE_TARGET",
        "guideLayer": "QUEST_GUIDE_LAYER_SCENE"
      },
      "guideHint": {
        "param1": ""
      },
      "isRewind": true,
      "versionBegin": "",
      "versionEnd": ""
    },
    {
      "subId": 1300002,
      "mainId": 13000,
      "order": 2,
      "descTextMapHash": 3624971012,
      "stepDescTextMapHash": 3316051805,
      "GMKDJFPEFFF": [
        330251
      ],
      "finishCond": [
        {
          "KPGKDHAFHFE": "QUEST_CONTENT_COMPLETE_TALK",
          "param": [
            1300002,
            0
          ]
        }
      ],
      "guide": {
        "KPGKDHAFHFE": "QUEST_GUIDE_NPC",
        "param": [
          "1050"
        ],
        "guideScene": 3,
        "guideStyle": "QUEST_GUIDE_STYLE_TARGET",
        "guideLayer": "QUEST_GUIDE_LAYER_SCENE"
      },
      "guideHint": {
        "param1": ""
      },
      "isRewind": true,
      "versionBegin": "",
      "versionEnd": ""
    },
    {
      "subId": 1300003,
      "mainId": 13000,
      "order": 11,
      "descTextMapHash": 510900684,
      "GMKDJFPEFFF": [
        330251,
        330258
      ],
      "finishCond": [
        {
          "KPGKDHAFHFE": "QUEST_CONTENT_LUA_NOTIFY",
          "param": [
            0,
            0
          ],
          "count": 1
        }
      ],
      "guide": {
        "KPGKDHAFHFE": "QUEST_GUIDE_NPC",
        "param": [
          "12640"
        ],
        "guideScene": 3,
        "guideStyle": "QUEST_GUIDE_STYLE_TARGET",
        "guideLayer": "QUEST_GUIDE_LAYER_SCENE"
      },
      "guideHint": {
        "param1": ""
      },
      "isRewind": true,
      "finishExec": [
        {
          "KPGKDHAFHFE": "QUEST_EXEC_UNREGISTER_DYNAMIC_GROUP",
          "param": [
            "133302023"
          ]
        }
      ],
      "versionBegin": "",
      "versionEnd": ""
    },
    {
      "subId": 1300004,
      "mainId": 13000,
      "order": 3,
      "descTextMapHash": 2163947548,
      "stepDescTextMapHash": 1544041493,
      "GMKDJFPEFFF": [
        330251,
        330258
      ],
      "finishCond": [
        {
          "KPGKDHAFHFE": "QUEST_CONTENT_COMPLETE_TALK",
          "param": [
            1300004,
            0
          ]
        }
      ],
      "guide": {
        "KPGKDHAFHFE": "QUEST_GUIDE_NPC",
        "param": [
          "12599"
        ],
        "guideScene": 3,
        "guideStyle": "QUEST_GUIDE_STYLE_TARGET",
        "guideLayer": "QUEST_GUIDE_LAYER_SCENE"
      },
      "guideHint": {
        "param1": ""
      },
      "isRewind": true,
      "versionBegin": "",
      "versionEnd": ""
    },
    {
      "subId": 1300005,
      "mainId": 13000,
      "order": 4,
      "subIdSet": 1300005,
      "descTextMapHash": 131441244,
      "GMKDJFPEFFF": [
        330251,
        330258
      ],
      "finishCond": [
        {
          "KPGKDHAFHFE": "QUEST_CONTENT_COMPLETE_TALK",
          "param": [
            1300005,
            0
          ]
        }
      ],
      "guide": {
        "KPGKDHAFHFE": "QUEST_GUIDE_NPC",
        "param": [
          "12600"
        ],
        "guideScene": 3,
        "guideStyle": "QUEST_GUIDE_STYLE_TARGET",
        "guideLayer": "QUEST_GUIDE_LAYER_SCENE"
      },
      "guideHint": {
        "param1": ""
      },
      "versionBegin": "",
      "versionEnd": ""
    },
    {
      "subId": 1300006,
      "mainId": 13000,
      "order": 5,
      "subIdSet": 1300005,
      "descTextMapHash": 1655072004,
      "GMKDJFPEFFF": [
        330251,
        330258
      ],
      "finishCond": [
        {
          "KPGKDHAFHFE": "QUEST_CONTENT_COMPLETE_TALK",
          "param": [
            1300006,
            0
          ]
        }
      ],
      "guide": {
        "KPGKDHAFHFE": "QUEST_GUIDE_NPC",
        "param": [
          "12601"
        ],
        "guideScene": 3,
        "guideStyle": "QUEST_GUIDE_STYLE_TARGET",
        "guideLayer": "QUEST_GUIDE_LAYER_SCENE"
      },
      "guideHint": {
        "param1": ""
      },
      "versionBegin": "",
      "versionEnd": ""
    },
    {
      "subId": 1300007,
      "mainId": 13000,
      "order": 6,
      "subIdSet": 1300005,
      "descTextMapHash": 2159723804,
      "GMKDJFPEFFF": [
        330251,
        330258
      ],
      "finishCond": [
        {
          "KPGKDHAFHFE": "QUEST_CONTENT_COMPLETE_TALK",
          "param": [
            1300007,
            0
          ]
        }
      ],
      "guide": {
        "KPGKDHAFHFE": "QUEST_GUIDE_NPC",
        "param": [
          "12602"
        ],
        "guideScene": 3,
        "guideStyle": "QUEST_GUIDE_STYLE_TARGET",
        "guideLayer": "QUEST_GUIDE_LAYER_SCENE"
      },
      "guideHint": {
        "param1": ""
      },
      "versionBegin": "",
      "versionEnd": ""
    },
    {
      "subId": 1300008,
      "mainId": 13000,
      "order": 7,
      "descTextMapHash": 2208279764,
      "showType": "QUEST_HIDDEN",
      "GMKDJFPEFFF": [
        330251,
        330258
      ],
      "finishCond": [
        {
          "KPGKDHAFHFE": "QUEST_CONTENT_QUEST_STATE_EQUAL",
          "param": [
            1300005,
            3
          ]
        },
        {
          "KPGKDHAFHFE": "QUEST_CONTENT_QUEST_STATE_EQUAL",
          "param": [
            1300006,
            3
          ]
        },
        {
          "KPGKDHAFHFE": "QUEST_CONTENT_QUEST_STATE_EQUAL",
          "param": [
            1300007,
            3
          ]
        }
      ],
      "guide": {},
      "guideHint": {
        "param1": ""
      },
      "isRewind": true,
      "versionBegin": "",
      "versionEnd": ""
    },
    {
      "subId": 1300009,
      "mainId": 13000,
      "order": 8,
      "descTextMapHash": 2503722140,
      "stepDescTextMapHash": 52505077,
      "GMKDJFPEFFF": [
        330251,
        330258
      ],
      "finishCond": [
        {
          "KPGKDHAFHFE": "QUEST_CONTENT_COMPLETE_TALK",
          "param": [
            1300009,
            0
          ]
        }
      ],
      "guide": {
        "KPGKDHAFHFE": "QUEST_GUIDE_NPC",
        "param": [
          "12599"
        ],
        "guideScene": 3,
        "guideStyle": "QUEST_GUIDE_STYLE_TARGET",
        "guideLayer": "QUEST_GUIDE_LAYER_SCENE"
      },
      "guideHint": {
        "param1": ""
      },
      "isRewind": true,
      "versionBegin": "",
      "versionEnd": ""
    },
    {
      "subId": 1300010,
      "mainId": 13000,
      "order": 9,
      "descTextMapHash": 2793978124,
      "stepDescTextMapHash": 2248412781,
      "GMKDJFPEFFF": [
        330251,
        330258
      ],
      "finishCond": [
        {
          "KPGKDHAFHFE": "QUEST_CONTENT_COMPLETE_TALK",
          "param": [
            1300010,
            0
          ]
        }
      ],
      "guide": {
        "KPGKDHAFHFE": "QUEST_GUIDE_LOCATION",
        "param": [
          "Q1300010_guide",
          "25"
        ],
        "guideScene": 3,
        "guideStyle": "QUEST_GUIDE_STYLE_TARGET",
        "guideLayer": "QUEST_GUIDE_LAYER_SCENE"
      },
      "guideHint": {
        "param1": ""
      },
      "isRewind": true,
      "versionBegin": "",
      "versionEnd": ""
    },
    {
      "subId": 1300011,
      "mainId": 13000,
      "order": 10,
      "descTextMapHash": 3179937308,
      "GMKDJFPEFFF": [
        330251,
        330258
      ],
      "finishCond": [
        {
          "KPGKDHAFHFE": "QUEST_CONTENT_FINISH_PLOT",
          "param": [
            1300011,
            0
          ]
        }
      ],
      "guide": {
        "KPGKDHAFHFE": "QUEST_GUIDE_NPC",
        "param": [
          "12640"
        ],
        "guideScene": 3,
        "guideStyle": "QUEST_GUIDE_STYLE_POINT",
        "guideLayer": "QUEST_GUIDE_LAYER_SCENE"
      },
      "showGuide": "QUEST_GUIDE_ITEM_DISABLE",
      "guideHint": {
        "param1": ""
      },
      "versionBegin": "",
      "versionEnd": ""
    },
    {
      "subId": 1300012,
      "mainId": 13000,
      "order": 13,
      "descTextMapHash": 2235131996,
      "stepDescTextMapHash": 4131047653,
      "GMKDJFPEFFF": [
        330251,
        330258
      ],
      "finishCond": [
        {
          "KPGKDHAFHFE": "QUEST_CONTENT_COMPLETE_TALK",
          "param": [
            1300012,
            0
          ]
        }
      ],
      "guide": {
        "KPGKDHAFHFE": "QUEST_GUIDE_LOCATION",
        "param": [
          "Q1300012_N1050",
          "20"
        ],
        "guideScene": 3,
        "guideStyle": "QUEST_GUIDE_STYLE_TARGET",
        "guideLayer": "QUEST_GUIDE_LAYER_SCENE"
      },
      "guideHint": {
        "param1": ""
      },
      "isRewind": true,
      "finishExec": [
        {
          "KPGKDHAFHFE": "QUEST_EXEC_UNREGISTER_DYNAMIC_GROUP",
          "param": [
            "133302035"
          ]
        }
      ],
      "versionBegin": "",
      "versionEnd": ""
    },
    {
      "subId": 1300013,
      "mainId": 13000,
      "order": 14,
      "isMpBlock": true,
      "descTextMapHash": 2940169020,
      "stepDescTextMapHash": 3113446813,
      "GMKDJFPEFFF": [
        330251,
        330258
      ],
      "finishCond": [
        {
          "KPGKDHAFHFE": "QUEST_CONTENT_LUA_NOTIFY",
          "param": [
            0,
            0
          ],
          "count": 1
        }
      ],
      "failCond": [
        {
          "KPGKDHAFHFE": "QUEST_CONTENT_LEAVE_SCENE_RANGE",
          "param": [
            3,
            50
          ]
        },
        {
          "KPGKDHAFHFE": "QUEST_CONTENT_TEAM_DEAD",
          "param": [
            0,
            0
          ]
        }
      ],
      "guide": {
        "KPGKDHAFHFE": "QUEST_GUIDE_LOCATION",
        "param": [
          "Q1300013_guide",
          "30"
        ],
        "guideScene": 3,
        "guideStyle": "QUEST_GUIDE_STYLE_POINT",
        "guideLayer": "QUEST_GUIDE_LAYER_SCENE"
      },
      "showGuide": "QUEST_GUIDE_ITEM_DISABLE",
      "guideHint": {
        "param1": ""
      },
      "finishExec": [
        {
          "KPGKDHAFHFE": "QUEST_EXEC_UNREGISTER_DYNAMIC_GROUP",
          "param": [
            "133302024",
            "1"
          ]
        }
      ],
      "failExec": [
        {
          "KPGKDHAFHFE": "QUEST_EXEC_ROLLBACK_QUEST",
          "param": [
            "1300012"
          ]
        }
      ],
      "versionBegin": "",
      "versionEnd": ""
    },
    {
      "subId": 1300014,
      "mainId": 13000,
      "order": 15,
      "descTextMapHash": 2360361372,
      "stepDescTextMapHash": 1216629077,
      "GMKDJFPEFFF": [
        330251,
        330258
      ],
      "finishCond": [
        {
          "KPGKDHAFHFE": "QUEST_CONTENT_COMPLETE_TALK",
          "param": [
            1300014,
            0
          ]
        }
      ],
      "guide": {
        "KPGKDHAFHFE": "QUEST_GUIDE_LOCATION",
        "param": [
          "Q1300014_N12603",
          "23"
        ],
        "guideScene": 3,
        "guideStyle": "QUEST_GUIDE_STYLE_TARGET",
        "guideLayer": "QUEST_GUIDE_LAYER_SCENE"
      },
      "guideHint": {
        "param1": ""
      },
      "isRewind": true,
      "versionBegin": "",
      "versionEnd": ""
    },
    {
      "subId": 1300015,
      "mainId": 13000,
      "order": 16,
      "descTextMapHash": 1502834220,
      "stepDescTextMapHash": 3168469645,
      "GMKDJFPEFFF": [
        330251,
        330258
      ],
      "finishCond": [
        {
          "KPGKDHAFHFE": "QUEST_CONTENT_COMPLETE_TALK",
          "param": [
            1300015,
            0
          ]
        }
      ],
      "guide": {
        "KPGKDHAFHFE": "QUEST_GUIDE_NPC",
        "param": [
          "12599"
        ],
        "guideScene": 3,
        "guideStyle": "QUEST_GUIDE_STYLE_TARGET",
        "guideLayer": "QUEST_GUIDE_LAYER_SCENE"
      },
      "guideHint": {
        "param1": ""
      },
      "isRewind": true,
      "finishExec": [
        {
          "KPGKDHAFHFE": "QUEST_EXEC_REFRESH_GROUP_SUITE",
          "param": [
            "3",
            "133302050,2"
          ]
        }
      ],
      "versionBegin": "",
      "versionEnd": ""
    },
    {
      "subId": 1300016,
      "mainId": 13000,
      "order": 17,
      "descTextMapHash": 3314297804,
      "GMKDJFPEFFF": [
        330251,
        330258
      ],
      "finishCond": [
        {
          "KPGKDHAFHFE": "QUEST_CONTENT_COMPLETE_TALK",
          "param": [
            1300016,
            0
          ]
        }
      ],
      "guide": {
        "KPGKDHAFHFE": "QUEST_GUIDE_NPC",
        "param": [
          "1051"
        ],
        "guideScene": 3,
        "guideStyle": "QUEST_GUIDE_STYLE_TARGET",
        "guideLayer": "QUEST_GUIDE_LAYER_SCENE"
      },
      "guideHint": {
        "param1": ""
      },
      "finishParent": true,
      "isRewind": true,
      "finishExec": [
        {
          "KPGKDHAFHFE": "QUEST_EXEC_UNREGISTER_DYNAMIC_GROUP",
          "param": [
            "133302050",
            "1"
          ]
        }
      ],
      "versionBegin": "",
      "versionEnd": ""
    },
    {
      "subId": 1300017,
      "mainId": 13000,
      "order": 12,
      "descTextMapHash": 3098862420,
      "GMKDJFPEFFF": [
        330251,
        330258
      ],
      "finishCond": [
        {
          "KPGKDHAFHFE": "QUEST_CONTENT_FINISH_PLOT",
          "param": [
            1300017,
            0
          ]
        }
      ],
      "guide": {
        "KPGKDHAFHFE": "QUEST_GUIDE_NPC",
        "param": [
          "12640"
        ],
        "guideScene": 3,
        "guideStyle": "QUEST_GUIDE_STYLE_TARGET",
        "guideLayer": "QUEST_GUIDE_LAYER_SCENE"
      },
      "guideHint": {
        "param1": ""
      },
      "isRewind": true,
      "versionBegin": "",
      "versionEnd": ""
    }
  ],
  "talks": [
    {
      "id": 1300001,
      "beginWay": "TALK_BEGIN_MANUAL",
      "beginCond": [
        {
          "type": "QUEST_COND_STATE_EQUAL",
          "_param": [
            "1300001",
            "2"
          ]
        }
      ],
      "priority": 5,
      "initDialog": 130000101,
      "npcId": [
        4019
      ],
      "performCfg": "QuestDialogue/LQ/Tighnari1_13000/Q1300001",
      "heroTalk": "TALK_HERO_MAIN",
      "questId": 13000,
      "assetIndex": 17817292464247769380,
      "prePerformCfg": ""
    },
    {
      "id": 1300002,
      "beginWay": "TALK_BEGIN_MANUAL",
      "beginCond": [
        {
          "type": "QUEST_COND_STATE_EQUAL",
          "_param": [
            "1300002",
            "2"
          ]
        }
      ],
      "priority": 5,
      "initDialog": 130000201,
      "npcId": [
        1050,
        12597
      ],
      "performCfg": "QuestDialogue/LQ/Tighnari1_13000/Q1300002",
      "heroTalk": "TALK_HERO_MAIN",
      "questId": 13000,
      "assetIndex": 12339025669426361664,
      "prePerformCfg": ""
    },
    {
      "id": 1300004,
      "beginWay": "TALK_BEGIN_MANUAL",
      "beginCond": [
        {
          "type": "QUEST_COND_STATE_EQUAL",
          "_param": [
            "1300004",
            "2"
          ]
        }
      ],
      "priority": 5,
      "initDialog": 130000401,
      "npcId": [
        1050,
        12599
      ],
      "performCfg": "QuestDialogue/LQ/Tighnari1_13000/Q1300004",
      "heroTalk": "TALK_HERO_MAIN",
      "questId": 13000,
      "assetIndex": 5561553416487228533,
      "prePerformCfg": ""
    },
    {
      "id": 1300005,
      "beginWay": "TALK_BEGIN_MANUAL",
      "beginCond": [
        {
          "type": "QUEST_COND_STATE_EQUAL",
          "_param": [
            "1300005",
            "2"
          ]
        }
      ],
      "priority": 5,
      "initDialog": 130000501,
      "npcId": [
        12600
      ],
      "performCfg": "QuestDialogue/LQ/Tighnari1_13000/Q1300005",
      "heroTalk": "TALK_HERO_MAIN",
      "questId": 13000,
      "assetIndex": 13971557590966606087,
      "prePerformCfg": ""
    },
    {
      "id": 1300006,
      "beginWay": "TALK_BEGIN_MANUAL",
      "beginCond": [
        {
          "type": "QUEST_COND_STATE_EQUAL",
          "_param": [
            "1300006",
            "2"
          ]
        }
      ],
      "priority": 5,
      "initDialog": 130000601,
      "npcId": [
        12601
      ],
      "performCfg": "QuestDialogue/LQ/Tighnari1_13000/Q1300006",
      "heroTalk": "TALK_HERO_MAIN",
      "questId": 13000,
      "assetIndex": 4932086385789034276,
      "prePerformCfg": ""
    },
    {
      "id": 1300007,
      "beginWay": "TALK_BEGIN_MANUAL",
      "beginCond": [
        {
          "type": "QUEST_COND_STATE_EQUAL",
          "_param": [
            "1300007",
            "2"
          ]
        }
      ],
      "priority": 5,
      "initDialog": 130000701,
      "npcId": [
        12602,
        1050
      ],
      "performCfg": "QuestDialogue/LQ/Tighnari1_13000/Q1300007",
      "heroTalk": "TALK_HERO_MAIN",
      "questId": 13000,
      "assetIndex": 8905569877534080249,
      "prePerformCfg": ""
    },
    {
      "id": 1300009,
      "beginWay": "TALK_BEGIN_MANUAL",
      "beginCond": [
        {
          "type": "QUEST_COND_STATE_EQUAL",
          "_param": [
            "1300009",
            "2"
          ]
        }
      ],
      "priority": 5,
      "initDialog": 130000901,
      "npcId": [
        12599,
        1050
      ],
      "performCfg": "QuestDialogue/LQ/Tighnari1_13000/Q1300009",
      "heroTalk": "TALK_HERO_MAIN",
      "questId": 13000,
      "assetIndex": 9326858800375382482,
      "prePerformCfg": ""
    },
    {
      "id": 1300010,
      "beginWay": "TALK_BEGIN_MANUAL",
      "beginCond": [
        {
          "type": "QUEST_COND_STATE_EQUAL",
          "_param": [
            "1300010",
            "2"
          ]
        }
      ],
      "priority": 5,
      "initDialog": 130001001,
      "npcId": [
        1050
      ],
      "performCfg": "QuestDialogue/LQ/Tighnari1_13000/Q1300010",
      "heroTalk": "TALK_HERO_MAIN",
      "questId": 13000,
      "assetIndex": 14942808705658931564,
      "prePerformCfg": ""
    },
    {
      "id": 1300012,
      "beginWay": "TALK_BEGIN_MANUAL",
      "beginCond": [
        {
          "type": "QUEST_COND_STATE_EQUAL",
          "_param": [
            "1300012",
            "2"
          ]
        }
      ],
      "priority": 5,
      "initDialog": 130001201,
      "npcId": [
        12603,
        1050
      ],
      "performCfg": "QuestDialogue/LQ/Tighnari1_13000/Q1300012",
      "heroTalk": "TALK_HERO_MAIN",
      "questId": 13000,
      "assetIndex": 4361121928218544367,
      "prePerformCfg": ""
    },
    {
      "id": 1300014,
      "beginWay": "TALK_BEGIN_MANUAL",
      "beginCond": [
        {
          "type": "QUEST_COND_STATE_EQUAL",
          "_param": [
            "1300014",
            "2"
          ]
        }
      ],
      "priority": 5,
      "initDialog": 130001401,
      "npcId": [
        12603,
        1050
      ],
      "performCfg": "QuestDialogue/LQ/Tighnari1_13000/Q1300014",
      "heroTalk": "TALK_HERO_MAIN",
      "questId": 13000,
      "assetIndex": 12369012564751330616,
      "prePerformCfg": ""
    },
    {
      "id": 1300015,
      "beginWay": "TALK_BEGIN_MANUAL",
      "beginCond": [
        {
          "type": "QUEST_COND_STATE_EQUAL",
          "_param": [
            "1300015",
            "2"
          ]
        }
      ],
      "priority": 5,
      "initDialog": 130001501,
      "npcId": [
        12599,
        1050
      ],
      "performCfg": "QuestDialogue/LQ/Tighnari1_13000/Q1300015",
      "heroTalk": "TALK_HERO_MAIN",
      "questId": 13000,
      "assetIndex": 2167079683813479693,
      "prePerformCfg": ""
    },
    {
      "id": 1300016,
      "beginWay": "TALK_BEGIN_MANUAL",
      "beginCond": [
        {
          "type": "QUEST_COND_STATE_EQUAL",
          "_param": [
            "1300016",
            "2"
          ]
        }
      ],
      "priority": 5,
      "initDialog": 130001601,
      "npcId": [
        1051,
        1050
      ],
      "performCfg": "QuestDialogue/LQ/Tighnari1_13000/Q1300016",
      "heroTalk": "TALK_HERO_MAIN",
      "questId": 13000,
      "assetIndex": 12580884148306697103,
      "prePerformCfg": ""
    },
    {
      "id": 1300017,
      "beginWay": "TALK_BEGIN_MANUAL",
      "beginCondComb": "LOGIC_OR",
      "beginCond": [
        {
          "type": "QUEST_COND_STATE_EQUAL",
          "_param": [
            "1300004",
            "2"
          ]
        },
        {
          "type": "QUEST_COND_STATE_EQUAL",
          "_param": [
            "1300008",
            "2"
          ]
        },
        {
          "type": "QUEST_COND_STATE_EQUAL",
          "_param": [
            "1300009",
            "2"
          ]
        },
        {
          "type": "QUEST_COND_STATE_EQUAL",
          "_param": [
            "1300010",
            "2"
          ]
        },
        {
          "type": "QUEST_COND_STATE_EQUAL",
          "_param": [
            "1300011",
            "2"
          ]
        },
        {
          "type": "QUEST_COND_STATE_EQUAL",
          "_param": [
            "1300003",
            "2"
          ]
        }
      ],
      "priority": 5,
      "initDialog": 130001701,
      "npcId": [
        12597
      ],
      "performCfg": "QuestDialogue/LQ/Tighnari1_13000/Q1300017",
      "heroTalk": "TALK_HERO_MAIN",
      "questId": 13000,
      "assetIndex": 7306895373418801101,
      "prePerformCfg": ""
    },
    {
      "id": 1300018,
      "beginWay": "TALK_BEGIN_MANUAL",
      "beginCond": [
        {
          "type": "QUEST_COND_STATE_EQUAL",
          "_param": [
            "1300008",
            "2"
          ]
        }
      ],
      "priority": 5,
      "initDialog": 130001801,
      "npcId": [
        12599
      ],
      "performCfg": "QuestDialogue/LQ/Tighnari1_13000/Q1300018",
      "heroTalk": "TALK_HERO_MAIN",
      "questId": 13000,
      "assetIndex": 15604281528161488410,
      "prePerformCfg": ""
    },
    {
      "id": 1300019,
      "beginWay": "TALK_BEGIN_MANUAL",
      "beginCond": [
        {
          "type": "QUEST_COND_STATE_EQUAL",
          "_param": [
            "1300010",
            "2"
          ]
        }
      ],
      "priority": 5,
      "initDialog": 130001901,
      "npcId": [
        12599
      ],
      "performCfg": "QuestDialogue/LQ/Tighnari1_13000/Q1300019",
      "heroTalk": "TALK_HERO_MAIN",
      "questId": 13000,
      "assetIndex": 4378995477671206428,
      "prePerformCfg": ""
    },
    {
      "id": 1300020,
      "beginWay": "TALK_BEGIN_MANUAL",
      "beginCondComb": "LOGIC_A_AND_ETCOR",
      "beginCond": [
        {
          "type": "QUEST_COND_STATE_EQUAL",
          "_param": [
            "1300005",
            "3"
          ]
        },
        {
          "type": "QUEST_COND_STATE_EQUAL",
          "_param": [
            "1300008",
            "2"
          ]
        },
        {
          "type": "QUEST_COND_STATE_EQUAL",
          "_param": [
            "1300009",
            "2"
          ]
        },
        {
          "type": "QUEST_COND_STATE_EQUAL",
          "_param": [
            "1300010",
            "2"
          ]
        }
      ],
      "priority": 5,
      "initDialog": 130002001,
      "npcId": [
        12600
      ],
      "performCfg": "QuestDialogue/LQ/Tighnari1_13000/Q1300020",
      "heroTalk": "TALK_HERO_MAIN",
      "questId": 13000,
      "assetIndex": 8079311439679598936,
      "prePerformCfg": ""
    },
    {
      "id": 1300021,
      "beginWay": "TALK_BEGIN_MANUAL",
      "beginCondComb": "LOGIC_A_AND_ETCOR",
      "beginCond": [
        {
          "type": "QUEST_COND_STATE_EQUAL",
          "_param": [
            "1300006",
            "3"
          ]
        },
        {
          "type": "QUEST_COND_STATE_EQUAL",
          "_param": [
            "1300008",
            "2"
          ]
        },
        {
          "type": "QUEST_COND_STATE_EQUAL",
          "_param": [
            "1300009",
            "2"
          ]
        },
        {
          "type": "QUEST_COND_STATE_EQUAL",
          "_param": [
            "1300010",
            "2"
          ]
        }
      ],
      "priority": 5,
      "initDialog": 130002101,
      "npcId": [
        12601
      ],
      "performCfg": "QuestDialogue/LQ/Tighnari1_13000/Q1300021",
      "heroTalk": "TALK_HERO_MAIN",
      "questId": 13000,
      "assetIndex": 3287286476030881417,
      "prePerformCfg": ""
    },
    {
      "id": 1300022,
      "beginWay": "TALK_BEGIN_MANUAL",
      "beginCondComb": "LOGIC_A_AND_ETCOR",
      "beginCond": [
        {
          "type": "QUEST_COND_STATE_EQUAL",
          "_param": [
            "1300007",
            "3"
          ]
        },
        {
          "type": "QUEST_COND_STATE_EQUAL",
          "_param": [
            "1300008",
            "2"
          ]
        },
        {
          "type": "QUEST_COND_STATE_EQUAL",
          "_param": [
            "1300009",
            "2"
          ]
        },
        {
          "type": "QUEST_COND_STATE_EQUAL",
          "_param": [
            "1300010",
            "2"
          ]
        }
      ],
      "priority": 5,
      "initDialog": 130002201,
      "npcId": [
        12602
      ],
      "performCfg": "QuestDialogue/LQ/Tighnari1_13000/Q1300022",
      "heroTalk": "TALK_HERO_MAIN",
      "questId": 13000,
      "assetIndex": 2606565980667765521,
      "prePerformCfg": ""
    },
    {
      "id": 1300023,
      "beginWay": "TALK_BEGIN_MANUAL",
      "beginCond": [
        {
          "type": "QUEST_COND_STATE_EQUAL",
          "_param": [
            "1300016",
            "2"
          ]
        }
      ],
      "priority": 5,
      "initDialog": 130002301,
      "npcId": [
        12599
      ],
      "performCfg": "QuestDialogue/LQ/Tighnari1_13000/Q1300023",
      "heroTalk": "TALK_HERO_MAIN",
      "questId": 13000,
      "assetIndex": 4529063179144552498,
      "prePerformCfg": ""
    },
    {
      "id": 1300024,
      "beginWay": "TALK_BEGIN_MANUAL",
      "beginCondComb": "LOGIC_OR",
      "beginCond": [
        {
          "type": "QUEST_COND_STATE_EQUAL",
          "_param": [
            "1300016",
            "2"
          ]
        },
        {
          "type": "QUEST_COND_STATE_EQUAL",
          "_param": [
            "1300015",
            "2"
          ]
        }
      ],
      "priority": 5,
      "initDialog": 130002401,
      "npcId": [
        12600,
        12601,
        12602
      ],
      "performCfg": "QuestDialogue/LQ/Tighnari1_13000/Q1300024",
      "heroTalk": "TALK_HERO_MAIN",
      "questId": 13000,
      "assetIndex": 17058623934217324972,
      "prePerformCfg": ""
    },
    {
      "id": 1300025,
      "beginWay": "TALK_BEGIN_MANUAL",
      "beginCondComb": "LOGIC_OR",
      "beginCond": [
        {
          "type": "QUEST_COND_STATE_EQUAL",
          "_param": [
            "1300015",
            "2"
          ]
        },
        {
          "type": "QUEST_COND_STATE_EQUAL",
          "_param": [
            "1300016",
            "2"
          ]
        }
      ],
      "priority": 5,
      "initDialog": 130002501,
      "npcId": [
        12603
      ],
      "performCfg": "QuestDialogue/LQ/Tighnari1_13000/Q1300025",
      "heroTalk": "TALK_HERO_MAIN",
      "questId": 13000,
      "assetIndex": 3439530280199539705,
      "prePerformCfg": ""
    },
    {
      "id": 1300026,
      "beginWay": "TALK_BEGIN_MANUAL",
      "beginCondComb": "LOGIC_OR",
      "beginCond": [
        {
          "type": "QUEST_COND_STATE_EQUAL",
          "_param": [
            "1300017",
            "2"
          ]
        },
        {
          "type": "QUEST_COND_STATE_EQUAL",
          "_param": [
            "1300012",
            "2"
          ]
        },
        {
          "type": "QUEST_COND_STATE_EQUAL",
          "_param": [
            "1300013",
            "2"
          ]
        },
        {
          "type": "QUEST_COND_STATE_EQUAL",
          "_param": [
            "1300014",
            "2"
          ]
        },
        {
          "type": "QUEST_COND_STATE_EQUAL",
          "_param": [
            "1300015",
            "2"
          ]
        }
      ],
      "priority": 5,
      "initDialog": 130001701,
      "npcId": [
        12597
      ],
      "performCfg": "QuestDialogue/LQ/Tighnari1_13000/Q1300017",
      "heroTalk": "TALK_HERO_MAIN",
      "questId": 13000,
      "assetIndex": 8254411204791933122,
      "prePerformCfg": ""
    }
  ],
  "preloadLuaList": [
    17646086502536854506,
    4148941023884621054,
    14364967768070732984,
    17051074279902293342
  ],
  "forcePreloadLuaList": [
    18252098422001946397
  ],
  "freeStyleDic": {
    "12597": [
      4121
    ],
    "12598": [
      1160,
      1250
    ],
    "12599": [
      1160,
      1190
    ],
    "12600": [
      1240,
      1120
    ],
    "12601": [
      1120,
      1230
    ],
    "12640": [
      1040,
      1030,
      1010
    ],
    "12603": [
      1040
    ],
    "12602": [
      1190
    ]
  }
}