{
  "id": 13033,
  "resId": 3015,
  "KPGKDHAFHFE": "LQ",
  "luaPath": "Actor/Quest/LQ13033",
  "rewardIdList": [
    113033
  ],
  "showType": "QUEST_HIDDEN",
  "subQuests": [
    {
      "subId": 1303301,
      "mainId": 13033,
      "order": 1,
      "showType": "QUEST_HIDDEN",
      "finishCond": [
        {
          "KPGKDHAFHFE": "QUEST_CONTENT_GAME_TIME_TICK",
          "param": [
            0,
            0
          ]
        }
      ],
      "guide": {},
      "showGuide": "QUEST_GUIDE_ITEM_DISABLE",
      "guideHint": {
        "param1": ""
      },
      "finishParent": true,
      "failParentShow": "QUEST_HIDDEN",
      "isRewind": true,
      "versionBegin": "",
      "versionEnd": ""
    }
  ]
}