{
  "id": 14007,
  "resId": 2041,
  "series": 2041,
  "KPGKDHAFHFE": "LQ",
  "titleTextMapHash": 2683198119,
  "descTextMapHash": 2217018918,
  "luaPath": "Actor/Quest/LQ14007",
  "suggestTrackMainQuestList": [
    14008
  ],
  "rewardIdList": [
    114007
  ],
  "chapterId": 2041,
  "PAIEEMIAKBH": true,
  "subQuests": [
    {
      "subId": 1400701,
      "mainId": 14007,
      "order": 1,
      "descTextMapHash": 1081439948,
      "GMKDJFPEFFF": [
        108303,
        340111,
        340112
      ],
      "finishCond": [
        {
          "KPGKDHAFHFE": "QUEST_CONTENT_ENTER_ROOM",
          "param": [
            1083,
            0
          ]
        },
        {
          "KPGKDHAFHFE": "QUEST_CONTENT_FINISH_PLOT",
          "param": [
            1400701,
            0
          ]
        }
      ],
      "guide": {
        "KPGKDHAFHFE": "QUEST_GUIDE_NPC",
        "param": [
          "1076"
        ],
        "guideScene": 1083,
        "guideStyle": "QUEST_GUIDE_STYLE_TARGET",
        "guideLayer": "QUEST_GUIDE_LAYER_SCENE"
      },
      "guideHint": {
        "param1": ""
      },
      "isRewind": true,
      "versionBegin": "",
      "versionEnd": ""
    },
    {
      "subId": 1400702,
      "mainId": 14007,
      "order": 2,
      "descTextMapHash": 2253672852,
      "GMKDJFPEFFF": [
        108303,
        340111,
        340112
      ],
      "finishCond": [
        {
          "KPGKDHAFHFE": "QUEST_CONTENT_COMPLETE_TALK",
          "param": [
            1400701,
            0
          ]
        },
        {
          "KPGKDHAFHFE": "QUEST_CONTENT_COMPLETE_TALK",
          "param": [
            1400719,
            0
          ]
        }
      ],
      "guide": {
        "KPGKDHAFHFE": "QUEST_GUIDE_NPC",
        "param": [
          "1076"
        ],
        "guideScene": 1083,
        "guideStyle": "QUEST_GUIDE_STYLE_TARGET",
        "guideLayer": "QUEST_GUIDE_LAYER_SCENE"
      },
      "guideHint": {
        "param1": ""
      },
      "isRewind": true,
      "versionBegin": "",
      "versionEnd": ""
    },
    {
      "subId": 1400703,
      "mainId": 14007,
      "order": 4,
      "descTextMapHash": 2887170852,
      "stepDescTextMapHash": 1170850717,
      "GMKDJFPEFFF": [
        108303,
        340111,
        340112
      ],
      "finishCond": [
        {
          "KPGKDHAFHFE": "QUEST_CONTENT_COMPLETE_TALK",
          "param": [
            1400705,
            0
          ]
        }
      ],
      "guide": {
        "KPGKDHAFHFE": "QUEST_GUIDE_NPC",
        "param": [
          "13503"
        ],
        "guideScene": 3,
        "guideStyle": "QUEST_GUIDE_STYLE_TARGET",
        "guideLayer": "QUEST_GUIDE_LAYER_SCENE"
      },
      "guideHint": {
        "param1": ""
      },
      "isRewind": true,
      "versionBegin": "",
      "versionEnd": ""
    },
    {
      "subId": 1400704,
      "mainId": 14007,
      "order": 5,
      "descTextMapHash": 1436884452,
      "stepDescTextMapHash": 2456763493,
      "GMKDJFPEFFF": [
        108303,
        340111,
        340112
      ],
      "finishCond": [
        {
          "KPGKDHAFHFE": "QUEST_CONTENT_FINISH_PLOT",
          "param": [
            1400704,
            0
          ]
        }
      ],
      "guide": {
        "KPGKDHAFHFE": "QUEST_GUIDE_LOCATION",
        "param": [
          "[3_340100245:3486.265,449.597,4420.541]",
          "5"
        ],
        "guideScene": 3,
        "guideStyle": "QUEST_GUIDE_STYLE_TARGET",
        "guideLayer": "QUEST_GUIDE_LAYER_SCENE"
      },
      "guideHint": {
        "param1": ""
      },
      "isRewind": true,
      "versionBegin": "",
      "versionEnd": ""
    },
    {
      "subId": 1400705,
      "mainId": 14007,
      "order": 7,
      "descTextMapHash": 35084252,
      "GMKDJFPEFFF": [
        108303,
        340111,
        340112
      ],
      "finishCond": [
        {
          "KPGKDHAFHFE": "QUEST_CONTENT_COMPLETE_TALK",
          "param": [
            1400706,
            0
          ]
        }
      ],
      "guide": {
        "KPGKDHAFHFE": "QUEST_GUIDE_NPC",
        "param": [
          "13503"
        ],
        "guideScene": 3,
        "guideStyle": "QUEST_GUIDE_STYLE_TARGET",
        "guideLayer": "QUEST_GUIDE_LAYER_SCENE"
      },
      "guideHint": {
        "param1": ""
      },
      "isRewind": true,
      "versionBegin": "",
      "versionEnd": ""
    },
    {
      "subId": 1400706,
      "mainId": 14007,
      "order": 10,
      "descTextMapHash": 1567128932,
      "stepDescTextMapHash": 1032846749,
      "GMKDJFPEFFF": [
        108303,
        340111,
        340112
      ],
      "finishCond": [
        {
          "KPGKDHAFHFE": "QUEST_CONTENT_ENTER_ROOM",
          "param": [
            1083,
            0
          ]
        },
        {
          "KPGKDHAFHFE": "QUEST_CONTENT_FINISH_PLOT",
          "param": [
            1400706,
            0
          ]
        }
      ],
      "guide": {
        "KPGKDHAFHFE": "QUEST_GUIDE_NPC",
        "param": [
          "1076"
        ],
        "guideScene": 1083,
        "guideStyle": "QUEST_GUIDE_STYLE_TARGET",
        "guideLayer": "QUEST_GUIDE_LAYER_SCENE"
      },
      "guideHint": {
        "param1": ""
      },
      "isRewind": true,
      "finishExec": [
        {
          "KPGKDHAFHFE": "QUEST_EXEC_UNREGISTER_DYNAMIC_GROUP",
          "param": [
            "133401022"
          ]
        }
      ],
      "versionBegin": "",
      "versionEnd": ""
    },
    {
      "subId": 1400707,
      "mainId": 14007,
      "order": 11,
      "descTextMapHash": 2383105932,
      "GMKDJFPEFFF": [
        108303
      ],
      "finishCond": [
        {
          "KPGKDHAFHFE": "QUEST_CONTENT_COMPLETE_TALK",
          "param": [
            1400711,
            0
          ]
        }
      ],
      "guide": {
        "KPGKDHAFHFE": "QUEST_GUIDE_NPC",
        "param": [
          "1076"
        ],
        "guideScene": 1083,
        "guideStyle": "QUEST_GUIDE_STYLE_TARGET",
        "guideLayer": "QUEST_GUIDE_LAYER_SCENE"
      },
      "guideHint": {
        "param1": ""
      },
      "isRewind": true,
      "versionBegin": "",
      "versionEnd": ""
    },
    {
      "subId": 1400708,
      "mainId": 14007,
      "order": 12,
      "subIdSet": 1,
      "descTextMapHash": 2442682852,
      "stepDescTextMapHash": 1519795845,
      "GMKDJFPEFFF": [
        108303
      ],
      "finishCond": [
        {
          "KPGKDHAFHFE": "QUEST_CONTENT_COMPLETE_TALK",
          "param": [
            1400713,
            0
          ]
        }
      ],
      "guide": {
        "KPGKDHAFHFE": "QUEST_GUIDE_LOCATION",
        "param": [
          "[1083_44:-51.868,0.352,-15.361,0.000,76.471,0.000]",
          "10"
        ],
        "guideScene": 1083,
        "guideStyle": "QUEST_GUIDE_STYLE_TARGET",
        "guideLayer": "QUEST_GUIDE_LAYER_SCENE"
      },
      "guideHint": {
        "param1": ""
      },
      "isRewind": true,
      "finishExec": [
        {
          "KPGKDHAFHFE": "QUEST_EXEC_ADD_QUEST_PROGRESS",
          "param": [
            "1400711",
            "1"
          ]
        },
        {
          "KPGKDHAFHFE": "QUEST_EXEC_NOTIFY_GROUP_LUA",
          "param": [
            "1083",
            "201083003"
          ]
        }
      ],
      "versionBegin": "",
      "versionEnd": ""
    },
    {
      "subId": 1400709,
      "mainId": 14007,
      "order": 13,
      "subIdSet": 1,
      "descTextMapHash": 2368610268,
      "GMKDJFPEFFF": [
        108303
      ],
      "finishCond": [
        {
          "KPGKDHAFHFE": "QUEST_CONTENT_COMPLETE_TALK",
          "param": [
            1400714,
            0
          ]
        }
      ],
      "guide": {
        "KPGKDHAFHFE": "QUEST_GUIDE_LOCATION",
        "param": [
          "[1083_44:-51.868,0.352,-15.361,0.000,76.471,0.000]",
          "10"
        ],
        "guideScene": 1083,
        "guideStyle": "QUEST_GUIDE_STYLE_TARGET",
        "guideLayer": "QUEST_GUIDE_LAYER_SCENE"
      },
      "guideHint": {
        "param1": ""
      },
      "isRewind": true,
      "finishExec": [
        {
          "KPGKDHAFHFE": "QUEST_EXEC_ADD_QUEST_PROGRESS",
          "param": [
            "1400711",
            "1"
          ]
        },
        {
          "KPGKDHAFHFE": "QUEST_EXEC_NOTIFY_GROUP_LUA",
          "param": [
            "1083",
            "201083003"
          ]
        }
      ],
      "versionBegin": "",
      "versionEnd": ""
    },
    {
      "subId": 1400710,
      "mainId": 14007,
      "order": 14,
      "subIdSet": 1,
      "descTextMapHash": 1977522380,
      "GMKDJFPEFFF": [
        108303
      ],
      "finishCond": [
        {
          "KPGKDHAFHFE": "QUEST_CONTENT_COMPLETE_TALK",
          "param": [
            1400715,
            0
          ]
        }
      ],
      "guide": {
        "KPGKDHAFHFE": "QUEST_GUIDE_LOCATION",
        "param": [
          "[1083_44:-51.868,0.352,-15.361,0.000,76.471,0.000]",
          "10"
        ],
        "guideScene": 1083,
        "guideStyle": "QUEST_GUIDE_STYLE_TARGET",
        "guideLayer": "QUEST_GUIDE_LAYER_SCENE"
      },
      "guideHint": {
        "param1": ""
      },
      "isRewind": true,
      "finishExec": [
        {
          "KPGKDHAFHFE": "QUEST_EXEC_ADD_QUEST_PROGRESS",
          "param": [
            "1400711",
            "1"
          ]
        },
        {
          "KPGKDHAFHFE": "QUEST_EXEC_NOTIFY_GROUP_LUA",
          "param": [
            "1083",
            "201083003"
          ]
        }
      ],
      "versionBegin": "",
      "versionEnd": ""
    },
    {
      "subId": 1400711,
      "mainId": 14007,
      "order": 17,
      "showType": "QUEST_HIDDEN",
      "GMKDJFPEFFF": [
        108303
      ],
      "finishCond": [
        {
          "KPGKDHAFHFE": "QUEST_CONTENT_ADD_QUEST_PROGRESS",
          "param": [
            1400711,
            0
          ],
          "count": 5
        }
      ],
      "guide": {},
      "guideHint": {
        "param1": ""
      },
      "finishExec": [
        {
          "KPGKDHAFHFE": "QUEST_EXEC_ADD_QUEST_PROGRESS",
          "param": [
            "1400712",
            "1"
          ]
        }
      ],
      "versionBegin": "",
      "versionEnd": ""
    },
    {
      "subId": 1400712,
      "mainId": 14007,
      "order": 18,
      "showType": "QUEST_HIDDEN",
      "GMKDJFPEFFF": [
        108303
      ],
      "finishCond": [
        {
          "KPGKDHAFHFE": "QUEST_CONTENT_ADD_QUEST_PROGRESS",
          "param": [
            1400712,
            0
          ],
          "count": 1
        },
        {
          "KPGKDHAFHFE": "QUEST_CONTENT_QUEST_STATE_EQUAL",
          "param": [
            1400708,
            3
          ]
        },
        {
          "KPGKDHAFHFE": "QUEST_CONTENT_QUEST_STATE_EQUAL",
          "param": [
            1400709,
            3
          ]
        },
        {
          "KPGKDHAFHFE": "QUEST_CONTENT_QUEST_STATE_EQUAL",
          "param": [
            1400710,
            3
          ]
        },
        {
          "KPGKDHAFHFE": "QUEST_CONTENT_QUEST_STATE_EQUAL",
          "param": [
            1400717,
            3
          ]
        },
        {
          "KPGKDHAFHFE": "QUEST_CONTENT_QUEST_STATE_EQUAL",
          "param": [
            1400718,
            3
          ]
        }
      ],
      "guide": {},
      "guideHint": {
        "param1": ""
      },
      "isRewind": true,
      "versionBegin": "",
      "versionEnd": ""
    },
    {
      "subId": 1400713,
      "mainId": 14007,
      "order": 19,
      "descTextMapHash": 4228368236,
      "GMKDJFPEFFF": [
        108303
      ],
      "finishCond": [
        {
          "KPGKDHAFHFE": "QUEST_CONTENT_COMPLETE_TALK",
          "param": [
            1400718,
            0
          ]
        },
        {
          "KPGKDHAFHFE": "QUEST_CONTENT_COMPLETE_TALK",
          "param": [
            1400720,
            0
          ]
        }
      ],
      "guide": {
        "KPGKDHAFHFE": "QUEST_GUIDE_NPC",
        "param": [
          "1076"
        ],
        "guideScene": 1083,
        "guideStyle": "QUEST_GUIDE_STYLE_TARGET",
        "guideLayer": "QUEST_GUIDE_LAYER_SCENE"
      },
      "guideHint": {
        "param1": ""
      },
      "finishParent": true,
      "isRewind": true,
      "finishExec": [
        {
          "KPGKDHAFHFE": "QUEST_EXEC_UNREGISTER_DYNAMIC_GROUP",
          "param": [
            "201083003",
            "0"
          ]
        }
      ],
      "versionBegin": "",
      "versionEnd": ""
    },
    {
      "subId": 1400714,
      "mainId": 14007,
      "order": 8,
      "descTextMapHash": 1202812508,
      "GMKDJFPEFFF": [
        108303,
        340111,
        340112
      ],
      "finishCond": [
        {
          "KPGKDHAFHFE": "QUEST_CONTENT_COMPLETE_TALK",
          "param": [
            1400708,
            0
          ]
        }
      ],
      "guide": {
        "KPGKDHAFHFE": "QUEST_GUIDE_LOCATION",
        "param": [
          "[3_340100275:3558.190,446.167,4432.545,0.000,278.322,0.000]",
          "20"
        ],
        "guideScene": 3,
        "guideStyle": "QUEST_GUIDE_STYLE_TARGET",
        "guideLayer": "QUEST_GUIDE_LAYER_SCENE"
      },
      "guideHint": {
        "param1": ""
      },
      "isRewind": true,
      "versionBegin": "",
      "versionEnd": ""
    },
    {
      "subId": 1400715,
      "mainId": 14007,
      "order": 9,
      "descTextMapHash": 3916273372,
      "GMKDJFPEFFF": [
        108303,
        340111,
        340112
      ],
      "finishCond": [
        {
          "KPGKDHAFHFE": "QUEST_CONTENT_COMPLETE_TALK",
          "param": [
            1400709,
            0
          ]
        }
      ],
      "guide": {
        "KPGKDHAFHFE": "QUEST_GUIDE_NPC",
        "param": [
          "13503"
        ],
        "guideScene": 3,
        "guideStyle": "QUEST_GUIDE_STYLE_TARGET",
        "guideLayer": "QUEST_GUIDE_LAYER_SCENE"
      },
      "guideHint": {
        "param1": ""
      },
      "isRewind": true,
      "versionBegin": "",
      "versionEnd": ""
    },
    {
      "subId": 1400716,
      "mainId": 14007,
      "order": 20,
      "showType": "QUEST_HIDDEN",
      "guide": {
        "guideScene": 1083,
        "guideStyle": "QUEST_GUIDE_STYLE_TARGET",
        "guideLayer": "QUEST_GUIDE_LAYER_SCENE"
      },
      "showGuide": "QUEST_GUIDE_ITEM_DISABLE",
      "guideHint": {
        "param1": ""
      },
      "versionBegin": "",
      "versionEnd": ""
    },
    {
      "subId": 1400717,
      "mainId": 14007,
      "order": 15,
      "subIdSet": 1,
      "descTextMapHash": 1197772788,
      "GMKDJFPEFFF": [
        108303
      ],
      "finishCond": [
        {
          "KPGKDHAFHFE": "QUEST_CONTENT_COMPLETE_TALK",
          "param": [
            1400716,
            0
          ]
        }
      ],
      "guide": {
        "KPGKDHAFHFE": "QUEST_GUIDE_LOCATION",
        "param": [
          "[1083_44:-51.868,0.352,-15.361,0.000,76.471,0.000]",
          "10"
        ],
        "guideScene": 1083,
        "guideStyle": "QUEST_GUIDE_STYLE_TARGET",
        "guideLayer": "QUEST_GUIDE_LAYER_SCENE"
      },
      "guideHint": {
        "param1": ""
      },
      "isRewind": true,
      "finishExec": [
        {
          "KPGKDHAFHFE": "QUEST_EXEC_ADD_QUEST_PROGRESS",
          "param": [
            "1400711",
            "1"
          ]
        },
        {
          "KPGKDHAFHFE": "QUEST_EXEC_NOTIFY_GROUP_LUA",
          "param": [
            "1083",
            "201083003"
          ]
        }
      ],
      "versionBegin": "",
      "versionEnd": ""
    },
    {
      "subId": 1400718,
      "mainId": 14007,
      "order": 16,
      "subIdSet": 1,
      "descTextMapHash": 1699504860,
      "GMKDJFPEFFF": [
        108303
      ],
      "finishCond": [
        {
          "KPGKDHAFHFE": "QUEST_CONTENT_COMPLETE_TALK",
          "param": [
            1400717,
            0
          ]
        }
      ],
      "guide": {
        "KPGKDHAFHFE": "QUEST_GUIDE_LOCATION",
        "param": [
          "[1083_44:-51.868,0.352,-15.361,0.000,76.471,0.000]",
          "10"
        ],
        "guideScene": 1083,
        "guideStyle": "QUEST_GUIDE_STYLE_TARGET",
        "guideLayer": "QUEST_GUIDE_LAYER_SCENE"
      },
      "guideHint": {
        "param1": ""
      },
      "isRewind": true,
      "finishExec": [
        {
          "KPGKDHAFHFE": "QUEST_EXEC_ADD_QUEST_PROGRESS",
          "param": [
            "1400711",
            "1"
          ]
        },
        {
          "KPGKDHAFHFE": "QUEST_EXEC_NOTIFY_GROUP_LUA",
          "param": [
            "1083",
            "201083003"
          ]
        }
      ],
      "versionBegin": "",
      "versionEnd": ""
    },
    {
      "subId": 1400719,
      "mainId": 14007,
      "order": 6,
      "isMpBlock": true,
      "descTextMapHash": 213260284,
      "GMKDJFPEFFF": [
        108303,
        340111,
        340112
      ],
      "banType": "BAN_GROUP_COMMON",
      "finishCond": [
        {
          "KPGKDHAFHFE": "QUEST_CONTENT_FINISH_PLOT",
          "param": [
            1400719,
            0
          ]
        }
      ],
      "failCond": [
        {
          "KPGKDHAFHFE": "QUEST_CONTENT_LEAVE_SCENE_RANGE",
          "param": [
            3,
            100
          ]
        },
        {
          "KPGKDHAFHFE": "QUEST_CONTENT_NOT_FINISH_PLOT",
          "param": [
            1400719,
            0
          ]
        },
        {
          "KPGKDHAFHFE": "QUEST_CONTENT_TEAM_DEAD",
          "param": [
            0,
            0
          ]
        }
      ],
      "guide": {
        "KPGKDHAFHFE": "QUEST_GUIDE_NPC",
        "param": [
          "13503"
        ],
        "guideScene": 3,
        "guideStyle": "QUEST_GUIDE_STYLE_TARGET",
        "guideLayer": "QUEST_GUIDE_LAYER_SCENE"
      },
      "guideHint": {
        "param1": ""
      },
      "failExec": [
        {
          "KPGKDHAFHFE": "QUEST_EXEC_ROLLBACK_QUEST",
          "param": [
            "1400704"
          ]
        }
      ],
      "versionBegin": "",
      "versionEnd": ""
    }
  ],
  "talks": [
    {
      "id": 1400701,
      "beginWay": "TALK_BEGIN_MANUAL",
      "beginCondComb": "LOGIC_AND",
      "beginCond": [
        {
          "type": "QUEST_COND_STATE_EQUAL",
          "_param": [
            "1400702",
            "2"
          ]
        },
        {
          "type": "QUEST_COND_QUEST_GLOBAL_VAR_EQUAL",
          "_param": [
            "402501",
            "0"
          ]
        }
      ],
      "priority": 5,
      "initDialog": 140070101,
      "npcId": [
        5087,
        1076
      ],
      "performCfg": "QuestDialogue/LQ/Neuvillette1_14007/Q1400701",
      "heroTalk": "TALK_HERO_MAIN",
      "questId": 14007,
      "assetIndex": 13021803128860998955,
      "prePerformCfg": "",
      "lockGameTime": true,
      "finishExec": [
        {
          "KPGKDHAFHFE": "TALK_EXEC_SAVE_TALK_ID",
          "param": [
            "1400701"
          ]
        }
      ],
      "PLPFOOINAAJ": [
        "[1083_44:-51.868,0.352,-15.361,0.000,76.471,0.000]",
        "[1083_45:-48.844,0.352,-14.945,0.000,272.731,0.000]",
        "[1083_60:-48.999,0.352,-15.170,0.000,277.406,0.000]",
        "[1083_61:-48.996,0.352,-16.076,0.000,292.655,0.000]"
      ]
    },
    {
      "id": 1400702,
      "beginWay": "TALK_BEGIN_MANUAL",
      "beginCond": [
        {
          "type": "QUEST_COND_STATE_EQUAL",
          "_param": [
            "1400703",
            "2"
          ]
        }
      ],
      "priority": 5,
      "initDialog": 140070201,
      "npcId": [
        5087
      ],
      "performCfg": "QuestDialogue/LQ/Neuvillette1_14007/Q1400702",
      "heroTalk": "TALK_HERO_MAIN",
      "questId": 14007,
      "assetIndex": 4826240895551789209,
      "prePerformCfg": "",
      "lowPriority": true
    },
    {
      "id": 1400703,
      "beginWay": "TALK_BEGIN_MANUAL",
      "beginCond": [
        {
          "type": "QUEST_COND_STATE_EQUAL",
          "_param": [
            "1400703",
            "2"
          ]
        }
      ],
      "priority": 5,
      "initDialog": 140070301,
      "npcId": [
        13625
      ],
      "performCfg": "QuestDialogue/LQ/Neuvillette1_14007/Q1400703",
      "heroTalk": "TALK_HERO_MAIN",
      "questId": 14007,
      "assetIndex": 8599282354284099226,
      "prePerformCfg": ""
    },
    {
      "id": 1400704,
      "beginWay": "TALK_BEGIN_MANUAL",
      "beginCond": [
        {
          "type": "QUEST_COND_STATE_INTERVAL",
          "_param": [
            "1400703",
            "1400706"
          ]
        }
      ],
      "priority": 5,
      "initDialog": 140070401,
      "npcId": [
        5039,
        5038
      ],
      "performCfg": "QuestDialogue/LQ/Neuvillette1_14007/Q1400704",
      "heroTalk": "TALK_HERO_MAIN",
      "questId": 14007,
      "assetIndex": 5243857405392418501,
      "prePerformCfg": "",
      "lowPriority": true
    },
    {
      "id": 1400705,
      "beginWay": "TALK_BEGIN_MANUAL",
      "beginCond": [
        {
          "type": "QUEST_COND_STATE_EQUAL",
          "_param": [
            "1400703",
            "2"
          ]
        }
      ],
      "priority": 5,
      "initDialog": 140070501,
      "npcId": [
        13503
      ],
      "performCfg": "QuestDialogue/LQ/Neuvillette1_14007/Q1400705",
      "heroTalk": "TALK_HERO_MAIN",
      "questId": 14007,
      "assetIndex": 223122100199600341,
      "prePerformCfg": "",
      "PLPFOOINAAJ": [
        "[3_340100245:3486.265,449.597,4420.541]",
        "[3_340100301:3485.587,449.597,4422.111,0.000,158.888,0.000]",
        "[3_340100322:3486.626,449.597,4422.260,0.000,187.075,0.000]",
        "[3_340100323:3487.587,449.597,4421.955,0.000,220.558,0.000]"
      ]
    },
    {
      "id": 1400706,
      "beginWay": "TALK_BEGIN_MANUAL",
      "beginCond": [
        {
          "type": "QUEST_COND_STATE_EQUAL",
          "_param": [
            "1400705",
            "2"
          ]
        }
      ],
      "priority": 5,
      "initDialog": 140070601,
      "npcId": [
        13503,
        5037
      ],
      "performCfg": "QuestDialogue/LQ/Neuvillette1_14007/Q1400706",
      "heroTalk": "TALK_HERO_MAIN",
      "questId": 14007,
      "assetIndex": 6894317718819287097,
      "prePerformCfg": "",
      "PLPFOOINAAJ": [
        "[3_340100248:3541.424,445.949,4435.690,0.000,177.053,0.000]",
        "[3_340100302:3541.390,446.167,4433.824]",
        "[3_340100303:3542.620,445.949,4435.688,0.000,197.645,0.000]",
        "[3_340100304:3543.731,445.919,4435.673,0.000,212.115,0.000]"
      ]
    },
    {
      "id": 1400707,
      "beginWay": "TALK_BEGIN_MANUAL",
      "beginCond": [
        {
          "type": "QUEST_COND_STATE_EQUAL",
          "_param": [
            "1400714",
            "2"
          ]
        }
      ],
      "priority": 5,
      "initDialog": 140070701,
      "npcId": [
        5037,
        13503
      ],
      "performCfg": "QuestDialogue/LQ/Neuvillette1_14007/Q1400707",
      "heroTalk": "TALK_HERO_MAIN",
      "questId": 14007,
      "assetIndex": 2327853967893029501,
      "prePerformCfg": ""
    },
    {
      "id": 1400708,
      "beginWay": "TALK_BEGIN_MANUAL",
      "beginCond": [
        {
          "type": "QUEST_COND_STATE_EQUAL",
          "_param": [
            "1400714",
            "2"
          ]
        }
      ],
      "priority": 5,
      "initDialog": 140070801,
      "npcId": [
        1070
      ],
      "performCfg": "QuestDialogue/LQ/Neuvillette1_14007/Q1400708",
      "heroTalk": "TALK_HERO_MAIN",
      "questId": 14007,
      "assetIndex": 7332965677484138834,
      "prePerformCfg": "",
      "PLPFOOINAAJ": [
        "[3_340100275:3558.190,446.167,4432.545,0.000,278.322,0.000]",
        "[3_340100305:3558.784,446.167,4433.515,0.000,189.770,0.000]",
        "[3_340100306:3557.633,446.167,4433.297,0.000,153.358,0.000]",
        "[3_340100417:3541.438,446.167,4433.743,0.000,35.916,0.000]",
        "[3_340100420:3542.123,446.196,4434.724,0.000,220.840,0.000]"
      ]
    },
    {
      "id": 1400709,
      "beginWay": "TALK_BEGIN_MANUAL",
      "beginCond": [
        {
          "type": "QUEST_COND_STATE_EQUAL",
          "_param": [
            "1400715",
            "2"
          ]
        }
      ],
      "priority": 5,
      "initDialog": 140070901,
      "npcId": [
        13503,
        1077,
        5037
      ],
      "performCfg": "QuestDialogue/LQ/Neuvillette1_14007/Q1400709",
      "heroTalk": "TALK_HERO_MAIN",
      "questId": 14007,
      "assetIndex": 15605801559756531987,
      "prePerformCfg": "",
      "PLPFOOINAAJ": [
        "[3_340100247:3540.688,445.895,4436.405,0.000,161.221,0.000]",
        "[3_340100248:3541.424,445.949,4435.690,0.000,177.053,0.000]",
        "[3_340100302:3541.390,446.167,4433.824]",
        "[3_340100303:3542.620,445.949,4435.688,0.000,197.645,0.000]",
        "[3_340100304:3543.731,445.919,4435.673,0.000,212.115,0.000]"
      ]
    },
    {
      "id": 1400710,
      "beginWay": "TALK_BEGIN_MANUAL",
      "beginCond": [
        {
          "type": "QUEST_COND_STATE_EQUAL",
          "_param": [
            "1400706",
            "2"
          ]
        }
      ],
      "priority": 5,
      "initDialog": 140071001,
      "npcId": [
        13503,
        1077
      ],
      "performCfg": "QuestDialogue/LQ/Neuvillette1_14007/Q1400710",
      "heroTalk": "TALK_HERO_MAIN",
      "questId": 14007,
      "assetIndex": 10492562133836545364,
      "prePerformCfg": ""
    },
    {
      "id": 1400711,
      "beginWay": "TALK_BEGIN_MANUAL",
      "beginCond": [
        {
          "type": "QUEST_COND_STATE_EQUAL",
          "_param": [
            "1400707",
            "2"
          ]
        }
      ],
      "priority": 5,
      "initDialog": 140071101,
      "npcId": [
        1076
      ],
      "performCfg": "QuestDialogue/LQ/Neuvillette1_14007/Q1400711",
      "heroTalk": "TALK_HERO_MAIN",
      "questId": 14007,
      "assetIndex": 2796425890277419726,
      "prePerformCfg": "",
      "PLPFOOINAAJ": [
        "[1083_60:-48.999,0.352,-15.170,0.000,277.406,0.000]",
        "[1083_61:-48.996,0.352,-16.076,0.000,292.655,0.000]",
        "[1083_64:-53.868,0.352,-14.510,0.000,267.631,0.000]"
      ]
    },
    {
      "id": 1400712,
      "beginWay": "TALK_BEGIN_MANUAL",
      "beginCond": [
        {
          "type": "QUEST_COND_STATE_EQUAL",
          "_param": [
            "1400712",
            "2"
          ]
        }
      ],
      "priority": 5,
      "initDialog": 140071201,
      "npcId": [
        1076
      ],
      "performCfg": "QuestDialogue/LQ/Neuvillette1_14007/Q1400712",
      "heroTalk": "TALK_HERO_MAIN",
      "questId": 14007,
      "assetIndex": 17526002405446008346,
      "prePerformCfg": ""
    },
    {
      "id": 1400718,
      "beginWay": "TALK_BEGIN_MANUAL",
      "beginCondComb": "LOGIC_AND",
      "beginCond": [
        {
          "type": "QUEST_COND_STATE_EQUAL",
          "_param": [
            "1400713",
            "2"
          ]
        },
        {
          "type": "QUEST_COND_QUEST_GLOBAL_VAR_EQUAL",
          "_param": [
            "402501",
            "0"
          ]
        }
      ],
      "priority": 5,
      "initDialog": 140071801,
      "npcId": [
        1076
      ],
      "performCfg": "QuestDialogue/LQ/Neuvillette1_14007/Q1400718",
      "heroTalk": "TALK_HERO_MAIN",
      "questId": 14007,
      "assetIndex": 5440181267595685672,
      "prePerformCfg": "",
      "lockGameTime": true,
      "finishExec": [
        {
          "KPGKDHAFHFE": "TALK_EXEC_SAVE_TALK_ID",
          "param": [
            "1400718"
          ]
        }
      ],
      "PLPFOOINAAJ": [
        "[1083_60:-48.999,0.352,-15.170,0.000,277.406,0.000]",
        "[1083_61:-48.996,0.352,-16.076,0.000,292.655,0.000]",
        "[1083_71:-53.956,0.331,-16.799,0.000,263.837,0.000]"
      ]
    },
    {
      "id": 1400719,
      "beginWay": "TALK_BEGIN_MANUAL",
      "beginCondComb": "LOGIC_AND",
      "beginCond": [
        {
          "type": "QUEST_COND_STATE_EQUAL",
          "_param": [
            "1400702",
            "2"
          ]
        },
        {
          "type": "QUEST_COND_QUEST_GLOBAL_VAR_EQUAL",
          "_param": [
            "402501",
            "1"
          ]
        }
      ],
      "priority": 5,
      "initDialog": 140071901,
      "npcId": [
        5087,
        1076
      ],
      "performCfg": "QuestDialogue/LQ/Neuvillette1_14007/Q1400719",
      "heroTalk": "TALK_HERO_MAIN",
      "questId": 14007,
      "assetIndex": 992903281629965772,
      "prePerformCfg": "",
      "lockGameTime": true,
      "finishExec": [
        {
          "KPGKDHAFHFE": "TALK_EXEC_SAVE_TALK_ID",
          "param": [
            "1400719"
          ]
        }
      ],
      "PLPFOOINAAJ": [
        "[1083_44:-51.868,0.352,-15.361,0.000,76.471,0.000]",
        "[1083_45:-48.844,0.352,-14.945,0.000,272.731,0.000]",
        "[1083_60:-48.999,0.352,-15.170,0.000,277.406,0.000]",
        "[1083_61:-48.996,0.352,-16.076,0.000,292.655,0.000]"
      ]
    },
    {
      "id": 1400720,
      "beginWay": "TALK_BEGIN_MANUAL",
      "beginCondComb": "LOGIC_AND",
      "beginCond": [
        {
          "type": "QUEST_COND_STATE_EQUAL",
          "_param": [
            "1400713",
            "2"
          ]
        },
        {
          "type": "QUEST_COND_QUEST_GLOBAL_VAR_EQUAL",
          "_param": [
            "402501",
            "1"
          ]
        }
      ],
      "priority": 5,
      "initDialog": 140072001,
      "npcId": [
        1076
      ],
      "performCfg": "QuestDialogue/LQ/Neuvillette1_14007/Q1400720",
      "heroTalk": "TALK_HERO_MAIN",
      "questId": 14007,
      "assetIndex": 1750885762872282820,
      "prePerformCfg": "",
      "lockGameTime": true,
      "finishExec": [
        {
          "KPGKDHAFHFE": "TALK_EXEC_SAVE_TALK_ID",
          "param": [
            "1400720"
          ]
        }
      ],
      "PLPFOOINAAJ": [
        "[1083_60:-48.999,0.352,-15.170,0.000,277.406,0.000]",
        "[1083_61:-48.996,0.352,-16.076,0.000,292.655,0.000]",
        "[1083_71:-53.956,0.331,-16.799,0.000,263.837,0.000]"
      ]
    }
  ],
  "preloadLuaList": [
    7650754527910372943,
    10031799802954371768,
    14806992835357019620,
    946903820039994027,
    164297486000738872,
    6283229838994634356,
    15566693220697329937,
    16033494815620585499,
    5439764473848904602,
    10193931345199362066,
    17947764035452140707,
    6435206879719729635
  ],
  "forcePreloadLuaList": [
    11338831916324824658
  ],
  "freeStyleDic": {
    "5039": [
      1170,
      1060
    ],
    "5037": [
      1170,
      1200
    ],
    "1077": [
      1220,
      1120
    ],
    "5087": [
      1190
    ],
    "1070": [
      1190
    ],
    "1076": [
      1190
    ]
  },
  "dialogList": [
    {
      "id": 140072021,
      "nextDialogs": [
        140072022
      ],
      "talkRole": {
        "type": "TALK_ROLE_BLACK_SCREEN",
        "_id": ""
      },
      "talkContentTextMapHash": 2559103098,
      "talkAssetPath": "",
      "talkAssetPathAlter": "",
      "talkAudioName": "",
      "actionBefore": "",
      "actionWhile": "",
      "actionAfter": "",
      "optionIcon": "",
      "iconPath": ""
    }
  ]
}