{
  "id": 14028,
  "resId": 2048,
  "series": 2048,
  "KPGKDHAFHFE": "LQ",
  "titleTextMapHash": 2784851671,
  "descTextMapHash": 3113919470,
  "luaPath": "Actor/Quest/LQ14028",
  "suggestTrackMainQuestList": [
    14029
  ],
  "rewardIdList": [
    114028
  ],
  "chapterId": 2048,
  "KDHHPPDHHFK": true,
  "PAIEEMIAKBH": true,
  "subQuests": [
    {
      "subId": 1402801,
      "mainId": 14028,
      "order": 1,
      "descTextMapHash": 3631297580,
      "finishCond": [
        {
          "KPGKDHAFHFE": "QUEST_CONTENT_GAME_TIME_TICK",
          "param": [
            1,
            0
          ]
        }
      ],
      "guide": {},
      "guideHint": {
        "param1": ""
      },
      "isRewind": true,
      "versionBegin": "",
      "versionEnd": ""
    },
    {
      "subId": 1402802,
      "mainId": 14028,
      "order": 2,
      "descTextMapHash": 337877828,
      "GMKDJFPEFFF": [
        340827
      ],
      "finishCond": [
        {
          "KPGKDHAFHFE": "QUEST_CONTENT_COMPLETE_TALK",
          "param": [
            1402802,
            0
          ]
        }
      ],
      "guide": {
        "KPGKDHAFHFE": "QUEST_GUIDE_NPC",
        "param": [
          "1079"
        ],
        "guideScene": 3,
        "guideStyle": "QUEST_GUIDE_STYLE_TARGET",
        "guideLayer": "QUEST_GUIDE_LAYER_SCENE"
      },
      "guideHint": {
        "param1": ""
      },
      "isRewind": true,
      "versionBegin": "",
      "versionEnd": ""
    },
    {
      "subId": 1402803,
      "mainId": 14028,
      "order": 4,
      "descTextMapHash": 304241108,
      "stepDescTextMapHash": 3488633757,
      "GMKDJFPEFFF": [
        340844
      ],
      "finishCond": [
        {
          "KPGKDHAFHFE": "QUEST_CONTENT_COMPLETE_TALK",
          "param": [
            1402803,
            0
          ]
        }
      ],
      "guide": {
        "KPGKDHAFHFE": "QUEST_GUIDE_NPC",
        "param": [
          "14035"
        ],
        "guideScene": 3,
        "guideStyle": "QUEST_GUIDE_STYLE_TARGET",
        "guideLayer": "QUEST_GUIDE_LAYER_SCENE"
      },
      "guideHint": {
        "param1": ""
      },
      "isRewind": true,
      "versionBegin": "",
      "versionEnd": ""
    },
    {
      "subId": 1402804,
      "mainId": 14028,
      "order": 5,
      "subIdSet": 1402801,
      "descTextMapHash": 2480341940,
      "GMKDJFPEFFF": [
        340846
      ],
      "finishCond": [
        {
          "KPGKDHAFHFE": "QUEST_CONTENT_COMPLETE_TALK",
          "param": [
            1402804,
            0
          ]
        }
      ],
      "guide": {
        "KPGKDHAFHFE": "QUEST_GUIDE_NPC",
        "param": [
          "14036"
        ],
        "guideScene": 3,
        "guideStyle": "QUEST_GUIDE_STYLE_TARGET",
        "guideLayer": "QUEST_GUIDE_LAYER_SCENE"
      },
      "guideHint": {
        "param1": ""
      },
      "versionBegin": "",
      "versionEnd": ""
    },
    {
      "subId": 1402805,
      "mainId": 14028,
      "order": 6,
      "subIdSet": 1402801,
      "descTextMapHash": 676346052,
      "GMKDJFPEFFF": [
        340846
      ],
      "finishCond": [
        {
          "KPGKDHAFHFE": "QUEST_CONTENT_COMPLETE_TALK",
          "param": [
            1402805,
            0
          ]
        }
      ],
      "guide": {
        "KPGKDHAFHFE": "QUEST_GUIDE_NPC",
        "param": [
          "14037"
        ],
        "guideScene": 3,
        "guideStyle": "QUEST_GUIDE_STYLE_TARGET",
        "guideLayer": "QUEST_GUIDE_LAYER_SCENE"
      },
      "guideHint": {
        "param1": ""
      },
      "versionBegin": "",
      "versionEnd": ""
    },
    {
      "subId": 1402806,
      "mainId": 14028,
      "order": 7,
      "subIdSet": 1402801,
      "descTextMapHash": 81047468,
      "GMKDJFPEFFF": [
        340846
      ],
      "finishCond": [
        {
          "KPGKDHAFHFE": "QUEST_CONTENT_COMPLETE_TALK",
          "param": [
            1402806,
            0
          ]
        }
      ],
      "guide": {
        "KPGKDHAFHFE": "QUEST_GUIDE_NPC",
        "param": [
          "14038"
        ],
        "guideScene": 3,
        "guideStyle": "QUEST_GUIDE_STYLE_TARGET",
        "guideLayer": "QUEST_GUIDE_LAYER_SCENE"
      },
      "guideHint": {
        "param1": ""
      },
      "versionBegin": "",
      "versionEnd": ""
    },
    {
      "subId": 1402807,
      "mainId": 14028,
      "order": 9,
      "descTextMapHash": 2990748676,
      "GMKDJFPEFFF": [
        340846
      ],
      "finishCond": [
        {
          "KPGKDHAFHFE": "QUEST_CONTENT_COMPLETE_TALK",
          "param": [
            1402807,
            0
          ]
        }
      ],
      "guide": {
        "KPGKDHAFHFE": "QUEST_GUIDE_LOCATION",
        "param": [
          "[3_340900071:4797.787,527.386,4299.674,0.000,212.248,0.000]"
        ],
        "guideScene": 3,
        "guideStyle": "QUEST_GUIDE_STYLE_POINT",
        "guideLayer": "QUEST_GUIDE_LAYER_SCENE"
      },
      "guideHint": {
        "param1": ""
      },
      "isRewind": true,
      "versionBegin": "",
      "versionEnd": ""
    },
    {
      "subId": 1402808,
      "mainId": 14028,
      "order": 10,
      "descTextMapHash": 271795420,
      "stepDescTextMapHash": 1906403373,
      "GMKDJFPEFFF": [
        340149
      ],
      "finishCond": [
        {
          "KPGKDHAFHFE": "QUEST_CONTENT_COMPLETE_TALK",
          "param": [
            1402808,
            0
          ]
        }
      ],
      "guide": {
        "KPGKDHAFHFE": "QUEST_GUIDE_LOCATION",
        "param": [
          "[3_340100671:4018.629,574.560,5035.764,0.000,105.346,0.000]"
        ],
        "guideScene": 3,
        "guideStyle": "QUEST_GUIDE_STYLE_POINT",
        "guideLayer": "QUEST_GUIDE_LAYER_SCENE"
      },
      "guideHint": {
        "param1": ""
      },
      "isRewind": true,
      "versionBegin": "",
      "versionEnd": ""
    },
    {
      "subId": 1402809,
      "mainId": 14028,
      "order": 11,
      "descTextMapHash": 3540482180,
      "GMKDJFPEFFF": [
        340149,
        109201
      ],
      "finishCond": [
        {
          "KPGKDHAFHFE": "QUEST_CONTENT_COMPLETE_TALK",
          "param": [
            1402809,
            0
          ]
        }
      ],
      "guide": {
        "KPGKDHAFHFE": "QUEST_GUIDE_NPC",
        "param": [
          "14039"
        ],
        "guideScene": 1092,
        "guideStyle": "QUEST_GUIDE_STYLE_TARGET",
        "guideLayer": "QUEST_GUIDE_LAYER_SCENE"
      },
      "guideHint": {
        "param1": ""
      },
      "isRewind": true,
      "versionBegin": "",
      "versionEnd": ""
    },
    {
      "subId": 1402810,
      "mainId": 14028,
      "order": 12,
      "descTextMapHash": 2037735460,
      "GMKDJFPEFFF": [
        340149,
        109201
      ],
      "finishCond": [
        {
          "KPGKDHAFHFE": "QUEST_CONTENT_COMPLETE_TALK",
          "param": [
            1402810,
            0
          ]
        }
      ],
      "guide": {
        "KPGKDHAFHFE": "QUEST_GUIDE_LOCATION",
        "param": [
          "[1092_1:50.695,0.809,6.398,0.000,180.000,0.000]",
          "30"
        ],
        "guideScene": 1092,
        "guideStyle": "QUEST_GUIDE_STYLE_TARGET",
        "guideLayer": "QUEST_GUIDE_LAYER_SCENE"
      },
      "guideHint": {
        "param1": ""
      },
      "isRewind": true,
      "versionBegin": "",
      "versionEnd": ""
    },
    {
      "subId": 1402811,
      "mainId": 14028,
      "order": 13,
      "descTextMapHash": 2876156532,
      "GMKDJFPEFFF": [
        340149,
        109201
      ],
      "finishCond": [
        {
          "KPGKDHAFHFE": "QUEST_CONTENT_COMPLETE_TALK",
          "param": [
            1402811,
            0
          ]
        }
      ],
      "guide": {
        "KPGKDHAFHFE": "QUEST_GUIDE_NPC",
        "param": [
          "1079"
        ],
        "guideScene": 1092,
        "guideStyle": "QUEST_GUIDE_STYLE_TARGET",
        "guideLayer": "QUEST_GUIDE_LAYER_SCENE"
      },
      "guideHint": {
        "param1": ""
      },
      "finishParent": true,
      "isRewind": true,
      "finishExec": [
        {
          "KPGKDHAFHFE": "QUEST_EXEC_LOCK_POINT",
          "param": [
            "3",
            "1222"
          ]
        }
      ],
      "versionBegin": "",
      "versionEnd": ""
    },
    {
      "subId": 1402812,
      "mainId": 14028,
      "order": 8,
      "descTextMapHash": 2599665988,
      "showType": "QUEST_HIDDEN",
      "GMKDJFPEFFF": [
        340846
      ],
      "finishCond": [
        {
          "KPGKDHAFHFE": "QUEST_CONTENT_QUEST_STATE_EQUAL",
          "param": [
            1402804,
            3
          ]
        },
        {
          "KPGKDHAFHFE": "QUEST_CONTENT_QUEST_STATE_EQUAL",
          "param": [
            1402805,
            3
          ]
        },
        {
          "KPGKDHAFHFE": "QUEST_CONTENT_QUEST_STATE_EQUAL",
          "param": [
            1402806,
            3
          ]
        }
      ],
      "guide": {},
      "guideHint": {
        "param1": ""
      },
      "isRewind": true,
      "versionBegin": "",
      "versionEnd": ""
    },
    {
      "subId": 1402813,
      "mainId": 14028,
      "order": 3,
      "descTextMapHash": 234914428,
      "GMKDJFPEFFF": [
        340827
      ],
      "finishCond": [
        {
          "KPGKDHAFHFE": "QUEST_CONTENT_COMPLETE_TALK",
          "param": [
            1402821,
            0
          ]
        }
      ],
      "guide": {
        "KPGKDHAFHFE": "QUEST_GUIDE_LOCATION",
        "param": [
          "[3_340800496:4577.581,153.710,4631.899,0.000,168.221,0.000]",
          "20"
        ],
        "guideScene": 3,
        "guideStyle": "QUEST_GUIDE_STYLE_TARGET"
      },
      "guideHint": {
        "param1": ""
      },
      "isRewind": true,
      "finishExec": [
        {
          "KPGKDHAFHFE": "QUEST_EXEC_DEL_PACK_ITEM",
          "param": [
            "120891",
            "1"
          ]
        }
      ],
      "versionBegin": "",
      "versionEnd": ""
    }
  ],
  "talks": [
    {
      "id": 1402802,
      "beginWay": "TALK_BEGIN_MANUAL",
      "beginCond": [
        {
          "type": "QUEST_COND_STATE_EQUAL",
          "_param": [
            "1402802",
            "2"
          ]
        }
      ],
      "priority": 8,
      "initDialog": 140280201,
      "npcId": [
        1079,
        1078
      ],
      "performCfg": "QuestDialogue/LQ/Sigewinne_14028/Q1402802",
      "heroTalk": "TALK_HERO_MAIN",
      "questId": 14028,
      "assetIndex": 10298317179723811526,
      "prePerformCfg": "",
      "lockGameTime": true,
      "PLPFOOINAAJ": [
        "[3_340800478:4571.726,153.710,4632.492,0.000,117.039,0.000]",
        "[3_340800479:4571.331,153.710,4631.691,3.828,100.000,1.655]",
        "[3_340800495:4579.201,153.710,4630.258,0.000,24.119,0.000]",
        "[3_340800496:4577.581,153.710,4631.899,0.000,168.221,0.000]",
        "[3_340800497:4578.398,154.246,4625.023,0.000,2.400,0.000]",
        "[3_340800498:4579.104,154.246,4629.104,0.000,1.570,0.000]",
        "[3_340800519:4577.367,153.710,4629.396,0.000,78.484,0.000]",
        "[3_340800523:4569.432,153.710,4629.851,0.000,101.496,0.000]",
        "[3_340800529:4576.212,153.710,4629.333,0.000,52.862,0.000]",
        "[3_8149:4579.435,154.288,4630.813,0.000,202.470,0.000]"
      ]
    },
    {
      "id": 1402803,
      "beginWay": "TALK_BEGIN_MANUAL",
      "beginCond": [
        {
          "type": "QUEST_COND_STATE_EQUAL",
          "_param": [
            "1402803",
            "2"
          ]
        }
      ],
      "priority": 8,
      "initDialog": 140280301,
      "npcId": [
        14035
      ],
      "performCfg": "QuestDialogue/LQ/Sigewinne_14028/Q1402803",
      "heroTalk": "TALK_HERO_MAIN",
      "questId": 14028,
      "assetIndex": 16461834130173809587,
      "prePerformCfg": "",
      "lockGameTime": true,
      "PLPFOOINAAJ": [
        "[3_340900051:4760.064,531.559,4296.172,0.000,202.670,0.000]",
        "[3_340900052:4761.731,531.559,4296.471,0.000,286.059,0.000]",
        "[3_340900053:4761.639,531.559,4297.882,0.000,223.285,0.000]",
        "[3_340900054:4761.975,531.559,4297.207,0.000,265.706,0.000]",
        "[3_8153:4760.412,531.559,4298.780,0.000,180.000,0.000]"
      ]
    },
    {
      "id": 1402804,
      "beginWay": "TALK_BEGIN_MANUAL",
      "beginCond": [
        {
          "type": "QUEST_COND_STATE_EQUAL",
          "_param": [
            "1402804",
            "2"
          ]
        }
      ],
      "priority": 8,
      "initDialog": 140280401,
      "npcId": [
        14036
      ],
      "performCfg": "QuestDialogue/LQ/Sigewinne_14028/Q1402804",
      "heroTalk": "TALK_HERO_MAIN",
      "questId": 14028,
      "assetIndex": 13010829730733487820,
      "prePerformCfg": "",
      "lockGameTime": true,
      "PLPFOOINAAJ": [
        "[3_340900055:4806.199,526.320,4260.657,0.000,36.625,0.000]",
        "[3_340900056:4804.773,526.320,4261.690,0.000,137.736,0.000]",
        "[3_340900057:4804.621,526.320,4260.779,0.000,83.079,0.000]",
        "[3_340900058:4805.656,526.320,4262.287,0.000,169.421,0.000]"
      ]
    },
    {
      "id": 1402805,
      "beginWay": "TALK_BEGIN_MANUAL",
      "beginCond": [
        {
          "type": "QUEST_COND_STATE_EQUAL",
          "_param": [
            "1402805",
            "2"
          ]
        }
      ],
      "priority": 8,
      "initDialog": 140280501,
      "npcId": [
        14037
      ],
      "performCfg": "QuestDialogue/LQ/Sigewinne_14028/Q1402805",
      "heroTalk": "TALK_HERO_MAIN",
      "questId": 14028,
      "assetIndex": 3888940826663606041,
      "prePerformCfg": "",
      "lockGameTime": true,
      "PLPFOOINAAJ": [
        "[3_340900059:4781.148,530.211,4236.758,0.000,199.962,0.000]",
        "[3_340900060:4782.794,530.211,4238.335,0.000,230.536,0.000]",
        "[3_340900061:4781.938,530.211,4239.398,0.000,196.413,0.000]",
        "[3_340900062:4782.966,530.211,4239.600,0.000,213.447,0.000]"
      ]
    },
    {
      "id": 1402806,
      "beginWay": "TALK_BEGIN_MANUAL",
      "beginCond": [
        {
          "type": "QUEST_COND_STATE_EQUAL",
          "_param": [
            "1402806",
            "2"
          ]
        }
      ],
      "priority": 8,
      "initDialog": 140280601,
      "npcId": [
        14038
      ],
      "performCfg": "QuestDialogue/LQ/Sigewinne_14028/Q1402806",
      "heroTalk": "TALK_HERO_MAIN",
      "questId": 14028,
      "assetIndex": 14595427593497920385,
      "prePerformCfg": "",
      "lockGameTime": true,
      "PLPFOOINAAJ": [
        "[3_340900063:4749.252,519.961,4247.493,0.000,213.373,0.000]",
        "[3_340900064:4750.947,519.961,4248.521,0.000,232.146,0.000]",
        "[3_340900065:4751.854,519.961,4247.542,0.000,269.328,0.000]",
        "[3_340900066:4749.854,519.961,4249.297,0.000,199.626,0.000]"
      ]
    },
    {
      "id": 1402807,
      "beginWay": "TALK_BEGIN_MANUAL",
      "beginCond": [
        {
          "type": "QUEST_COND_STATE_EQUAL",
          "_param": [
            "1402807",
            "2"
          ]
        }
      ],
      "priority": 8,
      "initDialog": 140280701,
      "npcId": [
        1079
      ],
      "performCfg": "QuestDialogue/LQ/Sigewinne_14028/Q1402807",
      "heroTalk": "TALK_HERO_MAIN",
      "questId": 14028,
      "assetIndex": 12826181258575699458,
      "prePerformCfg": "",
      "lockGameTime": true,
      "PLPFOOINAAJ": [
        "[3_340900067:4797.055,527.499,4296.476]",
        "[3_340900068:4797.966,527.497,4296.833,0.000,325.803,0.000]",
        "[3_340900069:4795.551,527.509,4296.354,0.000,22.254,0.000]",
        "[3_340900070:4796.335,527.421,4299.135,0.000,169.947,0.000]",
        "[3_340900071:4797.787,527.386,4299.674,0.000,212.248,0.000]",
        "[3_340900072:4798.488,527.521,4299.282,0.000,232.454,0.000]"
      ]
    },
    {
      "id": 1402808,
      "beginWay": "TALK_BEGIN_MANUAL",
      "beginCond": [
        {
          "type": "QUEST_COND_STATE_EQUAL",
          "_param": [
            "1402808",
            "2"
          ]
        }
      ],
      "priority": 8,
      "initDialog": 140280801,
      "npcId": [
        14042
      ],
      "performCfg": "QuestDialogue/LQ/Sigewinne_14028/Q1402808",
      "heroTalk": "TALK_HERO_MAIN",
      "questId": 14028,
      "assetIndex": 13129294639484518182,
      "prePerformCfg": "",
      "lockGameTime": true,
      "PLPFOOINAAJ": [
        "[3_340100668:4019.706,574.646,5036.088,0.000,211.811,0.000]",
        "[3_340100669:4019.056,574.498,5034.591,0.000,33.622,0.000]",
        "[3_340100670:4020.101,574.486,5034.070]",
        "[3_340100671:4018.629,574.560,5035.764,0.000,105.346,0.000]",
        "[3_340100672:4020.386,574.620,5035.318,0.000,257.194,0.000]",
        "[3_340100673:4021.040,574.591,5034.333,0.000,297.606,0.000]"
      ]
    },
    {
      "id": 1402809,
      "beginWay": "TALK_BEGIN_MANUAL",
      "beginCond": [
        {
          "type": "QUEST_COND_STATE_EQUAL",
          "_param": [
            "1402809",
            "2"
          ]
        }
      ],
      "priority": 8,
      "initDialog": 140280901,
      "npcId": [
        14039
      ],
      "performCfg": "QuestDialogue/LQ/Sigewinne_14028/Q1402809",
      "heroTalk": "TALK_HERO_MAIN",
      "questId": 14028,
      "assetIndex": 736803379118752148,
      "prePerformCfg": "",
      "lockGameTime": true,
      "PLPFOOINAAJ": [
        "[1092_1:50.695,0.809,6.398,0.000,180.000,0.000]",
        "[1092_2:49.599,0.210,5.984,0.000,79.582,0.000]",
        "[1092_22:44.492,0.158,1.819,0.000,91.018,0.000]",
        "[1092_3:48.954,0.210,5.546,0.000,60.898,0.000]",
        "[1092_4:49.291,0.210,4.931,0.000,43.431,0.000]"
      ]
    },
    {
      "id": 1402810,
      "beginWay": "TALK_BEGIN_MANUAL",
      "beginCond": [
        {
          "type": "QUEST_COND_STATE_EQUAL",
          "_param": [
            "1402810",
            "2"
          ]
        }
      ],
      "priority": 8,
      "initDialog": 140281001,
      "npcId": [
        14064
      ],
      "performCfg": "QuestDialogue/LQ/Sigewinne_14028/Q1402810",
      "heroTalk": "TALK_HERO_MAIN",
      "questId": 14028,
      "assetIndex": 2936628279127070505,
      "prePerformCfg": "",
      "lockGameTime": true
    },
    {
      "id": 1402811,
      "beginWay": "TALK_BEGIN_MANUAL",
      "beginCond": [
        {
          "type": "QUEST_COND_STATE_EQUAL",
          "_param": [
            "1402811",
            "2"
          ]
        }
      ],
      "priority": 8,
      "initDialog": 140281101,
      "npcId": [
        1079
      ],
      "performCfg": "QuestDialogue/LQ/Sigewinne_14028/Q1402811",
      "heroTalk": "TALK_HERO_MAIN",
      "questId": 14028,
      "assetIndex": 14826665990873245750,
      "prePerformCfg": "",
      "lockGameTime": true,
      "PLPFOOINAAJ": [
        "[1092_17:50.695,0.809,6.398,0.000,180.000,0.000]",
        "[1092_2:49.599,0.210,5.984,0.000,79.582,0.000]",
        "[1092_3:48.954,0.210,5.546,0.000,60.898,0.000]",
        "[1092_4:49.291,0.210,4.931,0.000,43.431,0.000]"
      ]
    },
    {
      "id": 1402815,
      "beginWay": "TALK_BEGIN_MANUAL",
      "beginCond": [
        {
          "type": "QUEST_COND_STATE_EQUAL",
          "_param": [
            "1402810",
            "2"
          ]
        }
      ],
      "priority": 8,
      "initDialog": 140281501,
      "npcId": [
        1079
      ],
      "performCfg": "QuestDialogue/LQ/Sigewinne_14028/Q1402815",
      "heroTalk": "TALK_HERO_MAIN",
      "questId": 14028,
      "assetIndex": 6236774951942137655,
      "prePerformCfg": "",
      "lockGameTime": true,
      "lowPriority": true
    },
    {
      "id": 1402816,
      "beginWay": "TALK_BEGIN_MANUAL",
      "beginCondComb": "LOGIC_OR",
      "beginCond": [
        {
          "type": "QUEST_COND_STATE_EQUAL",
          "_param": [
            "1402810",
            "2"
          ]
        },
        {
          "type": "QUEST_COND_STATE_EQUAL",
          "_param": [
            "1402811",
            "2"
          ]
        }
      ],
      "priority": 8,
      "initDialog": 140281601,
      "npcId": [
        14061
      ],
      "performCfg": "QuestDialogue/LQ/Sigewinne_14028/Q1402816",
      "heroTalk": "TALK_HERO_MAIN",
      "questId": 14028,
      "assetIndex": 7405617689496739687,
      "prePerformCfg": "",
      "lockGameTime": true,
      "PLPFOOINAAJ": [
        "[1092_11:50.148,1.009,3.908,0.000,263.376,0.000]"
      ]
    },
    {
      "id": 1402818,
      "beginWay": "TALK_BEGIN_MANUAL",
      "beginCondComb": "LOGIC_OR",
      "beginCond": [
        {
          "type": "QUEST_COND_STATE_EQUAL",
          "_param": [
            "1402810",
            "2"
          ]
        },
        {
          "type": "QUEST_COND_STATE_EQUAL",
          "_param": [
            "1402811",
            "2"
          ]
        }
      ],
      "priority": 8,
      "initDialog": 140281801,
      "npcId": [
        14063
      ],
      "performCfg": "QuestDialogue/LQ/Sigewinne_14028/Q1402818",
      "heroTalk": "TALK_HERO_MAIN",
      "questId": 14028,
      "assetIndex": 1135810218177251666,
      "prePerformCfg": "",
      "lockGameTime": true
    },
    {
      "id": 1402820,
      "beginWay": "TALK_BEGIN_MANUAL",
      "beginCond": [
        {
          "type": "QUEST_COND_STATE_EQUAL",
          "_param": [
            "1402813",
            "2"
          ]
        }
      ],
      "priority": 8,
      "nextTalks": [
        1402821
      ],
      "initDialog": 140282001,
      "npcId": [
        14295
      ],
      "performCfg": "QuestDialogue/LQ/Sigewinne_14028/Q1402820",
      "heroTalk": "TALK_HERO_MAIN",
      "questId": 14028,
      "assetIndex": 1830713321424378679,
      "prePerformCfg": "",
      "lockGameTime": true,
      "PLPFOOINAAJ": [
        "[3_340800479:4571.331,153.710,4631.691,3.828,100.000,1.655]",
        "[3_340800495:4579.201,153.710,4630.258,0.000,24.119,0.000]",
        "[3_340800499:4580.024,154.250,4633.131,0.000,2.713,0.000]",
        "[3_340800520:4575.759,153.710,4630.647,0.000,95.558,0.000]",
        "[3_340800527:4575.485,153.710,4629.043,0.000,13.220,0.000]",
        "[3_340800529:4576.212,153.710,4629.333,0.000,52.862,0.000]"
      ]
    },
    {
      "id": 1402821,
      "beginCond": [
        {
          "type": "QUEST_COND_STATE_EQUAL",
          "_param": [
            "1402813",
            "2"
          ]
        }
      ],
      "priority": 8,
      "initDialog": 140282101,
      "npcId": [
        14295
      ],
      "performCfg": "QuestDialogue/LQ/Sigewinne_14028/Q1402821",
      "heroTalk": "TALK_HERO_MAIN",
      "questId": 14028,
      "assetIndex": 8018245612327767735,
      "prePerformCfg": "",
      "lockGameTime": true,
      "PLPFOOINAAJ": [
        "[3_340800479:4571.331,153.710,4631.691,3.828,100.000,1.655]",
        "[3_340800529:4576.212,153.710,4629.333,0.000,52.862,0.000]"
      ]
    },
    {
      "id": 1402851,
      "beginWay": "TALK_BEGIN_MANUAL",
      "beginCond": [
        {
          "type": "QUEST_COND_STATE_EQUAL",
          "_param": [
            "1402813",
            "2"
          ]
        }
      ],
      "priority": 5,
      "initDialog": 140285101,
      "npcId": [
        1078
      ],
      "performCfg": "QuestDialogue/LQ/Sigewinne_14028/Q1402851",
      "heroTalk": "TALK_HERO_MAIN",
      "questId": 14028,
      "assetIndex": 4743325310593921541,
      "prePerformCfg": ""
    },
    {
      "id": 1402852,
      "beginWay": "TALK_BEGIN_MANUAL",
      "beginCond": [
        {
          "type": "QUEST_COND_STATE_EQUAL",
          "_param": [
            "1402813",
            "2"
          ]
        }
      ],
      "priority": 5,
      "initDialog": 140285201,
      "npcId": [
        14042
      ],
      "performCfg": "QuestDialogue/LQ/Sigewinne_14028/Q1402852",
      "heroTalk": "TALK_HERO_MAIN",
      "questId": 14028,
      "assetIndex": 3010151125438713531,
      "prePerformCfg": ""
    },
    {
      "id": 1402853,
      "beginWay": "TALK_BEGIN_MANUAL",
      "beginCond": [
        {
          "type": "QUEST_COND_STATE_EQUAL",
          "_param": [
            "1402813",
            "2"
          ]
        }
      ],
      "priority": 5,
      "initDialog": 140285301,
      "npcId": [
        14043
      ],
      "performCfg": "QuestDialogue/LQ/Sigewinne_14028/Q1402853",
      "heroTalk": "TALK_HERO_MAIN",
      "questId": 14028,
      "assetIndex": 1523243877147227926,
      "prePerformCfg": "",
      "lowPriority": true
    },
    {
      "id": 1402854,
      "beginWay": "TALK_BEGIN_MANUAL",
      "beginCond": [
        {
          "type": "QUEST_COND_STATE_EQUAL",
          "_param": [
            "1402813",
            "2"
          ]
        }
      ],
      "priority": 5,
      "initDialog": 140285401,
      "npcId": [
        14049
      ],
      "performCfg": "QuestDialogue/LQ/Sigewinne_14028/Q1402854",
      "heroTalk": "TALK_HERO_MAIN",
      "questId": 14028,
      "assetIndex": 1796842387596429331,
      "prePerformCfg": "",
      "lowPriority": true
    },
    {
      "id": 1402855,
      "beginWay": "TALK_BEGIN_MANUAL",
      "beginCond": [
        {
          "type": "QUEST_COND_STATE_EQUAL",
          "_param": [
            "1402813",
            "2"
          ]
        }
      ],
      "priority": 5,
      "initDialog": 140285501,
      "npcId": [
        14048
      ],
      "performCfg": "QuestDialogue/LQ/Sigewinne_14028/Q1402855",
      "heroTalk": "TALK_HERO_MAIN",
      "questId": 14028,
      "assetIndex": 5085014779080041173,
      "prePerformCfg": ""
    },
    {
      "id": 1402856,
      "beginWay": "TALK_BEGIN_MANUAL",
      "beginCond": [
        {
          "type": "QUEST_COND_STATE_EQUAL",
          "_param": [
            "1402813",
            "2"
          ]
        }
      ],
      "priority": 5,
      "initDialog": 140285601,
      "npcId": [
        14244
      ],
      "performCfg": "QuestDialogue/LQ/Sigewinne_14028/Q1402856",
      "heroTalk": "TALK_HERO_MAIN",
      "questId": 14028,
      "assetIndex": 1589109776319542430,
      "prePerformCfg": "",
      "lowPriority": true
    },
    {
      "id": 1402857,
      "beginWay": "TALK_BEGIN_MANUAL",
      "beginCondComb": "LOGIC_OR",
      "beginCond": [
        {
          "type": "QUEST_COND_STATE_EQUAL",
          "_param": [
            "1402809",
            "2"
          ]
        },
        {
          "type": "QUEST_COND_STATE_EQUAL",
          "_param": [
            "1402810",
            "2"
          ]
        },
        {
          "type": "QUEST_COND_STATE_EQUAL",
          "_param": [
            "1402811",
            "2"
          ]
        }
      ],
      "priority": 5,
      "initDialog": 140285701,
      "npcId": [
        14043
      ],
      "performCfg": "QuestDialogue/LQ/Sigewinne_14028/Q1402857",
      "heroTalk": "TALK_HERO_MAIN",
      "questId": 14028,
      "assetIndex": 7612560730965357704,
      "prePerformCfg": ""
    },
    {
      "id": 1402858,
      "beginWay": "TALK_BEGIN_MANUAL",
      "beginCondComb": "LOGIC_A_AND_ETCOR",
      "beginCond": [
        {
          "type": "QUEST_COND_STATE_EQUAL",
          "_param": [
            "1402804",
            "3"
          ]
        },
        {
          "type": "QUEST_COND_STATE_EQUAL",
          "_param": [
            "1402812",
            "2"
          ]
        },
        {
          "type": "QUEST_COND_STATE_EQUAL",
          "_param": [
            "1402807",
            "2"
          ]
        }
      ],
      "priority": 5,
      "initDialog": 140285801,
      "npcId": [
        14036
      ],
      "performCfg": "QuestDialogue/LQ/Sigewinne_14028/Q1402858",
      "heroTalk": "TALK_HERO_MAIN",
      "questId": 14028,
      "assetIndex": 7731274094201948658,
      "prePerformCfg": ""
    },
    {
      "id": 1402859,
      "beginWay": "TALK_BEGIN_MANUAL",
      "beginCondComb": "LOGIC_A_AND_ETCOR",
      "beginCond": [
        {
          "type": "QUEST_COND_STATE_EQUAL",
          "_param": [
            "1402805",
            "3"
          ]
        },
        {
          "type": "QUEST_COND_STATE_EQUAL",
          "_param": [
            "1402812",
            "2"
          ]
        },
        {
          "type": "QUEST_COND_STATE_EQUAL",
          "_param": [
            "1402807",
            "2"
          ]
        }
      ],
      "priority": 5,
      "initDialog": 140285901,
      "npcId": [
        14037
      ],
      "performCfg": "QuestDialogue/LQ/Sigewinne_14028/Q1402859",
      "heroTalk": "TALK_HERO_MAIN",
      "questId": 14028,
      "assetIndex": 18034922114840432193,
      "prePerformCfg": ""
    },
    {
      "id": 1402860,
      "beginWay": "TALK_BEGIN_MANUAL",
      "beginCondComb": "LOGIC_A_AND_ETCOR",
      "beginCond": [
        {
          "type": "QUEST_COND_STATE_EQUAL",
          "_param": [
            "1402806",
            "3"
          ]
        },
        {
          "type": "QUEST_COND_STATE_EQUAL",
          "_param": [
            "1402807",
            "2"
          ]
        },
        {
          "type": "QUEST_COND_STATE_EQUAL",
          "_param": [
            "1402812",
            "2"
          ]
        }
      ],
      "priority": 5,
      "initDialog": 140286001,
      "npcId": [
        14038
      ],
      "performCfg": "QuestDialogue/LQ/Sigewinne_14028/Q1402860",
      "heroTalk": "TALK_HERO_MAIN",
      "questId": 14028,
      "assetIndex": 7841345234286417157,
      "prePerformCfg": ""
    }
  ],
  "preloadLuaList": [
    9922560556456368734
  ],
  "forcePreloadLuaList": [
    7925953553215180882
  ],
  "freeStyleDic": {
    "14295": [
      0,
      8010
    ],
    "14048": [
      8010,
      8020
    ],
    "14049": [
      8010,
      8040
    ],
    "14042": [
      1120
    ],
    "1078": [
      1120
    ],
    "14244": [
      8010
    ],
    "14043": [
      1190
    ],
    "14035": [
      1230
    ],
    "14036": [
      1190
    ],
    "14037": [
      4221
    ],
    "14038": [
      1190
    ],
    "14159": [
      1230
    ],
    "14160": [
      1280
    ],
    "14161": [
      1080
    ]
  },
  "DDHNEIEDLJA": true
}