{
  "id": 14033,
  "resId": 2049,
  "series": 2050,
  "KPGKDHAFHFE": "LQ",
  "titleTextMapHash": 3278120631,
  "descTextMapHash": 4013940374,
  "luaPath": "Actor/Quest/LQ14033",
  "suggestTrackMainQuestList": [
    14034
  ],
  "rewardIdList": [
    114033
  ],
  "chapterId": 2050,
  "KDHHPPDHHFK": true,
  "PAIEEMIAKBH": true,
  "subQuests": [
    {
      "subId": 1403301,
      "mainId": 14033,
      "order": 1,
      "descTextMapHash": 1262465788,
      "GMKDJFPEFFF": [
        340148
      ],
      "finishCond": [
        {
          "KPGKDHAFHFE": "QUEST_CONTENT_GAME_TIME_TICK",
          "param": [
            1,
            0
          ]
        }
      ],
      "guide": {},
      "guideHint": {
        "param1": ""
      },
      "isRewind": true,
      "versionBegin": "",
      "versionEnd": ""
    },
    {
      "subId": 1403302,
      "mainId": 14033,
      "order": 11,
      "descTextMapHash": 4116658652,
      "finishCond": [
        {
          "KPGKDHAFHFE": "QUEST_CONTENT_ENTER_MY_WORLD",
          "param": [
            3,
            0
          ]
        },
        {
          "KPGKDHAFHFE": "QUEST_CONTENT_LEAVE_SCENE",
          "param": [
            1093,
            0
          ]
        },
        {
          "KPGKDHAFHFE": "QUEST_CONTENT_ENTER_MY_WORLD_SCENE",
          "param": [
            3,
            0
          ]
        }
      ],
      "guide": {
        "KPGKDHAFHFE": "QUEST_GUIDE_LOCATION",
        "param": [
          "[3_340900073:4767.253,448.714,3554.512,0.000,101.117,0.000]"
        ],
        "guideScene": 3,
        "guideStyle": "QUEST_GUIDE_STYLE_TARGET",
        "guideLayer": "QUEST_GUIDE_LAYER_SCENE"
      },
      "guideHint": {
        "param1": ""
      },
      "isRewind": true,
      "finishExec": [
        {
          "KPGKDHAFHFE": "QUEST_EXEC_LOCK_POINT",
          "param": [
            "3",
            "1225"
          ]
        },
        {
          "KPGKDHAFHFE": "QUEST_EXEC_UNREGISTER_DYNAMIC_GROUP",
          "param": [
            "133409443"
          ]
        }
      ],
      "versionBegin": "",
      "versionEnd": ""
    },
    {
      "subId": 1403303,
      "mainId": 14033,
      "order": 3,
      "descTextMapHash": 3402383964,
      "GMKDJFPEFFF": [
        340148
      ],
      "finishCond": [
        {
          "KPGKDHAFHFE": "QUEST_CONTENT_FINISH_PLOT",
          "param": [
            1403303,
            0
          ]
        }
      ],
      "guide": {
        "KPGKDHAFHFE": "QUEST_GUIDE_LOCATION",
        "param": [
          "[3_340900073:4767.253,448.714,3554.512,0.000,101.117,0.000]"
        ],
        "guideScene": 3,
        "guideStyle": "QUEST_GUIDE_STYLE_POINT",
        "guideLayer": "QUEST_GUIDE_LAYER_SCENE"
      },
      "guideHint": {
        "param1": ""
      },
      "isRewind": true,
      "finishExec": [
        {
          "KPGKDHAFHFE": "QUEST_EXEC_UNREGISTER_DYNAMIC_GROUP",
          "param": [
            "133401829",
            "0"
          ]
        },
        {
          "KPGKDHAFHFE": "QUEST_EXEC_SET_WEATHER_GADGET",
          "param": [
            "5061",
            "0"
          ]
        }
      ],
      "versionBegin": "",
      "versionEnd": ""
    },
    {
      "subId": 1403304,
      "mainId": 14033,
      "order": 4,
      "descTextMapHash": 1074068604,
      "finishCond": [
        {
          "KPGKDHAFHFE": "QUEST_CONTENT_COMPLETE_TALK",
          "param": [
            1403304,
            0
          ]
        }
      ],
      "guide": {
        "KPGKDHAFHFE": "QUEST_GUIDE_LOCATION",
        "param": [
          "[1093_1:183.152,26.907,34.795,0.000,23.139,0.000]"
        ],
        "guideScene": 1093,
        "guideStyle": "QUEST_GUIDE_STYLE_POINT",
        "guideLayer": "QUEST_GUIDE_LAYER_SCENE"
      },
      "guideHint": {
        "param1": ""
      },
      "isRewind": true,
      "versionBegin": "",
      "versionEnd": ""
    },
    {
      "subId": 1403305,
      "mainId": 14033,
      "order": 5,
      "isMpBlock": true,
      "descTextMapHash": 3019932780,
      "guideTipsTextMapHash": 272696414,
      "finishCond": [
        {
          "KPGKDHAFHFE": "QUEST_CONTENT_ENTER_DUNGEON",
          "param": [
            1211,
            2
          ]
        },
        {
          "KPGKDHAFHFE": "QUEST_CONTENT_FINISH_PLOT",
          "param": [
            1403305,
            0
          ]
        }
      ],
      "guide": {
        "KPGKDHAFHFE": "QUEST_GUIDE_LOCATION",
        "param": [
          "[1093_18:182.036,27.797,29.471]"
        ],
        "guideScene": 1093,
        "guideStyle": "QUEST_GUIDE_STYLE_POINT",
        "guideLayer": "QUEST_GUIDE_LAYER_SCENE"
      },
      "guideHint": {
        "param1": ""
      },
      "isRewind": true,
      "versionBegin": "",
      "versionEnd": ""
    },
    {
      "subId": 1403306,
      "mainId": 14033,
      "order": 6,
      "descTextMapHash": 1295725948,
      "guideTipsTextMapHash": 3787175078,
      "finishCond": [
        {
          "KPGKDHAFHFE": "QUEST_CONTENT_COMPLETE_TALK",
          "param": [
            1403306,
            0
          ]
        }
      ],
      "guide": {
        "KPGKDHAFHFE": "QUEST_GUIDE_LOCATION",
        "param": [
          "[1093_18:182.036,27.797,29.471]"
        ],
        "guideScene": 1093,
        "guideStyle": "QUEST_GUIDE_STYLE_POINT",
        "guideLayer": "QUEST_GUIDE_LAYER_SCENE"
      },
      "guideHint": {
        "param1": ""
      },
      "isRewind": true,
      "versionBegin": "",
      "versionEnd": ""
    },
    {
      "subId": 1403307,
      "mainId": 14033,
      "order": 8,
      "descTextMapHash": 3626854420,
      "finishCond": [
        {
          "KPGKDHAFHFE": "QUEST_CONTENT_ENTER_ROOM",
          "param": [
            1093,
            0
          ]
        },
        {
          "KPGKDHAFHFE": "QUEST_CONTENT_ENTER_MY_WORLD",
          "param": [
            3,
            0
          ]
        },
        {
          "KPGKDHAFHFE": "QUEST_CONTENT_FINISH_PLOT",
          "param": [
            1403307,
            0
          ]
        }
      ],
      "guide": {
        "KPGKDHAFHFE": "QUEST_GUIDE_LOCATION",
        "param": [
          "[1093_2:181.793,27.013,30.413,0.000,181.161,0.000]"
        ],
        "guideScene": 1093,
        "guideStyle": "QUEST_GUIDE_STYLE_POINT",
        "guideLayer": "QUEST_GUIDE_LAYER_SCENE"
      },
      "guideHint": {
        "param1": ""
      },
      "isRewind": true,
      "versionBegin": "",
      "versionEnd": ""
    },
    {
      "subId": 1403308,
      "mainId": 14033,
      "order": 9,
      "descTextMapHash": 52561524,
      "finishCond": [
        {
          "KPGKDHAFHFE": "QUEST_CONTENT_COMPLETE_TALK",
          "param": [
            1403381,
            0
          ]
        }
      ],
      "guide": {
        "KPGKDHAFHFE": "QUEST_GUIDE_LOCATION",
        "param": [
          "[1093_2:181.793,27.013,30.413,0.000,181.161,0.000]"
        ],
        "guideScene": 1093,
        "guideStyle": "QUEST_GUIDE_STYLE_POINT",
        "guideLayer": "QUEST_GUIDE_LAYER_SCENE"
      },
      "guideHint": {
        "param1": ""
      },
      "isRewind": true,
      "versionBegin": "",
      "versionEnd": ""
    },
    {
      "subId": 1403309,
      "mainId": 14033,
      "order": 10,
      "descTextMapHash": 2254189732,
      "finishCond": [
        {
          "KPGKDHAFHFE": "QUEST_CONTENT_COMPLETE_TALK",
          "param": [
            1403309,
            0
          ]
        }
      ],
      "guide": {
        "KPGKDHAFHFE": "QUEST_GUIDE_NPC",
        "param": [
          "14131"
        ],
        "guideScene": 1093,
        "guideStyle": "QUEST_GUIDE_STYLE_POINT",
        "guideLayer": "QUEST_GUIDE_LAYER_SCENE"
      },
      "guideHint": {
        "param1": ""
      },
      "isRewind": true,
      "versionBegin": "",
      "versionEnd": ""
    },
    {
      "subId": 1403310,
      "mainId": 14033,
      "order": 12,
      "descTextMapHash": 4171377180,
      "finishCond": [
        {
          "KPGKDHAFHFE": "QUEST_CONTENT_COMPLETE_TALK",
          "param": [
            1403310,
            0
          ]
        }
      ],
      "guide": {
        "KPGKDHAFHFE": "QUEST_GUIDE_LOCATION",
        "param": [
          "[3_340900074:4900.481,441.199,3580.589,0.000,18.167,0.000]",
          "70"
        ],
        "guideScene": 3,
        "guideStyle": "QUEST_GUIDE_STYLE_POINT",
        "guideLayer": "QUEST_GUIDE_LAYER_SCENE"
      },
      "guideHint": {
        "KPGKDHAFHFE": "QUEST_GUIDE_HINT_READING_DIALOG",
        "param1": "120931"
      },
      "isRewind": true,
      "finishExec": [
        {
          "KPGKDHAFHFE": "QUEST_EXEC_DEL_PACK_ITEM",
          "param": [
            "120931",
            "1"
          ]
        }
      ],
      "versionBegin": "",
      "versionEnd": ""
    },
    {
      "subId": 1403311,
      "mainId": 14033,
      "order": 15,
      "descTextMapHash": 990751772,
      "finishCond": [
        {
          "KPGKDHAFHFE": "QUEST_CONTENT_COMPLETE_TALK",
          "param": [
            1403311,
            0
          ]
        }
      ],
      "guide": {
        "KPGKDHAFHFE": "QUEST_GUIDE_LOCATION",
        "param": [
          "[3_340900080:4835.077,344.021,3640.499]",
          "30"
        ],
        "guideScene": 3,
        "guideStyle": "QUEST_GUIDE_STYLE_POINT",
        "guideLayer": "QUEST_GUIDE_LAYER_SCENE",
        "poiRegionId": 4901,
        "poiPointId": 49010024
      },
      "guideHint": {
        "param1": ""
      },
      "isRewind": true,
      "versionBegin": "",
      "versionEnd": ""
    },
    {
      "subId": 1403312,
      "mainId": 14033,
      "order": 16,
      "isMpBlock": true,
      "descTextMapHash": 2153096540,
      "finishCond": [
        {
          "KPGKDHAFHFE": "QUEST_CONTENT_LUA_NOTIFY",
          "param": [
            0,
            0
          ],
          "count": 1
        }
      ],
      "failCond": [
        {
          "KPGKDHAFHFE": "QUEST_CONTENT_LEAVE_SCENE_RANGE",
          "param": [
            3,
            80
          ]
        },
        {
          "KPGKDHAFHFE": "QUEST_CONTENT_ANY_MANUAL_TRANSPORT",
          "param": [
            0,
            0
          ]
        }
      ],
      "guide": {
        "KPGKDHAFHFE": "QUEST_GUIDE_LOCATION",
        "param": [
          "[3_340900080:4835.077,344.021,3640.499]",
          "40"
        ],
        "guideScene": 3,
        "guideStyle": "QUEST_GUIDE_STYLE_POINT",
        "guideLayer": "QUEST_GUIDE_LAYER_SCENE",
        "poiRegionId": 4901,
        "poiPointId": 49010024
      },
      "guideHint": {
        "param1": ""
      },
      "isRewind": true,
      "failExec": [
        {
          "KPGKDHAFHFE": "QUEST_EXEC_ROLLBACK_QUEST",
          "param": [
            "1403311"
          ]
        },
        {
          "KPGKDHAFHFE": "QUEST_EXEC_UNREGISTER_DYNAMIC_GROUP",
          "param": [
            "133409442",
            "0"
          ]
        }
      ],
      "versionBegin": "",
      "versionEnd": ""
    },
    {
      "subId": 1403313,
      "mainId": 14033,
      "order": 22,
      "descTextMapHash": 1688317884,
      "finishCond": [
        {
          "KPGKDHAFHFE": "QUEST_CONTENT_COMPLETE_TALK",
          "param": [
            1403313,
            0
          ]
        }
      ],
      "guide": {
        "KPGKDHAFHFE": "QUEST_GUIDE_LOCATION",
        "param": [
          "[3_340900077:4823.739,344.021,3646.148,0.000,109.704,0.000]",
          "25"
        ],
        "guideScene": 3,
        "guideStyle": "QUEST_GUIDE_STYLE_POINT",
        "guideLayer": "QUEST_GUIDE_LAYER_SCENE",
        "poiRegionId": 4901,
        "poiPointId": 49010024
      },
      "guideHint": {
        "param1": ""
      },
      "isRewind": true,
      "finishExec": [
        {
          "KPGKDHAFHFE": "QUEST_EXEC_REFRESH_GROUP_SUITE",
          "param": [
            "3",
            "133409453,3"
          ]
        },
        {
          "KPGKDHAFHFE": "QUEST_EXEC_UNREGISTER_DYNAMIC_GROUP",
          "param": [
            "133409442",
            "0"
          ]
        },
        {
          "KPGKDHAFHFE": "QUEST_EXEC_REFRESH_GROUP_SUITE",
          "param": [
            "3",
            "133409444,2"
          ]
        }
      ],
      "versionBegin": "",
      "versionEnd": ""
    },
    {
      "subId": 1403314,
      "mainId": 14033,
      "order": 23,
      "isMpBlock": true,
      "descTextMapHash": 606049484,
      "finishCond": [
        {
          "KPGKDHAFHFE": "QUEST_CONTENT_LUA_NOTIFY",
          "param": [
            0,
            0
          ],
          "count": 1
        }
      ],
      "failCond": [
        {
          "KPGKDHAFHFE": "QUEST_CONTENT_LEAVE_SCENE_RANGE",
          "param": [
            3,
            80
          ]
        },
        {
          "KPGKDHAFHFE": "QUEST_CONTENT_TEAM_DEAD",
          "param": [
            0,
            0
          ]
        },
        {
          "KPGKDHAFHFE": "QUEST_CONTENT_ANY_MANUAL_TRANSPORT",
          "param": [
            0,
            0
          ]
        }
      ],
      "guide": {
        "KPGKDHAFHFE": "QUEST_GUIDE_LOCATION",
        "param": [
          "[3_340900077:4823.739,344.021,3646.148,0.000,109.704,0.000]",
          "25"
        ],
        "guideScene": 3,
        "guideStyle": "QUEST_GUIDE_STYLE_POINT",
        "guideLayer": "QUEST_GUIDE_LAYER_SCENE"
      },
      "guideHint": {
        "param1": ""
      },
      "isRewind": true,
      "finishExec": [
        {
          "KPGKDHAFHFE": "QUEST_EXEC_UNREGISTER_DYNAMIC_GROUP",
          "param": [
            "133409424"
          ]
        }
      ],
      "failExec": [
        {
          "KPGKDHAFHFE": "QUEST_EXEC_ROLLBACK_QUEST",
          "param": [
            "1403313"
          ]
        },
        {
          "KPGKDHAFHFE": "QUEST_EXEC_UNREGISTER_DYNAMIC_GROUP",
          "param": [
            "133409424"
          ]
        },
        {
          "KPGKDHAFHFE": "QUEST_EXEC_UNLOCK_MIRROR_AVATAR_TEAM"
        }
      ],
      "versionBegin": "",
      "versionEnd": ""
    },
    {
      "subId": 1403315,
      "mainId": 14033,
      "order": 26,
      "isMpBlock": true,
      "descTextMapHash": 1813400108,
      "finishCond": [
        {
          "KPGKDHAFHFE": "QUEST_CONTENT_COMPLETE_TALK",
          "param": [
            1403315,
            0
          ]
        }
      ],
      "failCond": [
        {
          "KPGKDHAFHFE": "QUEST_CONTENT_LEAVE_SCENE_RANGE",
          "param": [
            3,
            80
          ]
        },
        {
          "KPGKDHAFHFE": "QUEST_CONTENT_TEAM_DEAD",
          "param": [
            0,
            0
          ]
        },
        {
          "KPGKDHAFHFE": "QUEST_CONTENT_ANY_MANUAL_TRANSPORT",
          "param": [
            0,
            0
          ]
        }
      ],
      "guide": {
        "KPGKDHAFHFE": "QUEST_GUIDE_LOCATION",
        "param": [
          "[3_340900078:4819.146,344.021,3645.970,0.000,104.725,0.000]"
        ],
        "guideScene": 3,
        "guideStyle": "QUEST_GUIDE_STYLE_POINT",
        "guideLayer": "QUEST_GUIDE_LAYER_SCENE"
      },
      "guideHint": {
        "param1": ""
      },
      "isRewind": true,
      "finishExec": [
        {
          "KPGKDHAFHFE": "QUEST_EXEC_REFRESH_GROUP_SUITE",
          "param": [
            "3",
            "133409453,1"
          ]
        }
      ],
      "failExec": [
        {
          "KPGKDHAFHFE": "QUEST_EXEC_ROLLBACK_QUEST",
          "param": [
            "1403313"
          ]
        },
        {
          "KPGKDHAFHFE": "QUEST_EXEC_REFRESH_GROUP_SUITE",
          "param": [
            "3",
            "133409452,1"
          ]
        },
        {
          "KPGKDHAFHFE": "QUEST_EXEC_UNLOCK_MIRROR_AVATAR_TEAM"
        }
      ],
      "versionBegin": "",
      "versionEnd": ""
    },
    {
      "subId": 1403316,
      "mainId": 14033,
      "order": 27,
      "isMpBlock": true,
      "descTextMapHash": 2877264988,
      "finishCond": [
        {
          "KPGKDHAFHFE": "QUEST_CONTENT_COMPLETE_TALK",
          "param": [
            1403316,
            0
          ]
        }
      ],
      "failCond": [
        {
          "KPGKDHAFHFE": "QUEST_CONTENT_LEAVE_SCENE_RANGE",
          "param": [
            3,
            80
          ]
        },
        {
          "KPGKDHAFHFE": "QUEST_CONTENT_TEAM_DEAD",
          "param": [
            0,
            0
          ]
        },
        {
          "KPGKDHAFHFE": "QUEST_CONTENT_ANY_MANUAL_TRANSPORT",
          "param": [
            0,
            0
          ]
        }
      ],
      "guide": {
        "KPGKDHAFHFE": "QUEST_GUIDE_LOCATION",
        "param": [
          "[3_340900079:4863.733,349.095,3626.446,0.000,199.880,0.000]"
        ],
        "guideScene": 3,
        "guideStyle": "QUEST_GUIDE_STYLE_POINT",
        "guideLayer": "QUEST_GUIDE_LAYER_SCENE"
      },
      "guideHint": {
        "param1": ""
      },
      "isRewind": true,
      "failExec": [
        {
          "KPGKDHAFHFE": "QUEST_EXEC_ROLLBACK_QUEST",
          "param": [
            "1403313"
          ]
        },
        {
          "KPGKDHAFHFE": "QUEST_EXEC_REFRESH_GROUP_SUITE",
          "param": [
            "3",
            "133409452,1"
          ]
        },
        {
          "KPGKDHAFHFE": "QUEST_EXEC_UNLOCK_MIRROR_AVATAR_TEAM"
        }
      ],
      "versionBegin": "",
      "versionEnd": ""
    },
    {
      "subId": 1403317,
      "mainId": 14033,
      "order": 28,
      "isMpBlock": true,
      "descTextMapHash": 2614830252,
      "finishCond": [
        {
          "KPGKDHAFHFE": "QUEST_CONTENT_COMPLETE_TALK",
          "param": [
            1403332,
            0
          ]
        }
      ],
      "failCond": [
        {
          "KPGKDHAFHFE": "QUEST_CONTENT_LEAVE_SCENE_RANGE",
          "param": [
            3,
            80
          ]
        },
        {
          "KPGKDHAFHFE": "QUEST_CONTENT_TEAM_DEAD",
          "param": [
            0,
            0
          ]
        },
        {
          "KPGKDHAFHFE": "QUEST_CONTENT_ANY_MANUAL_TRANSPORT",
          "param": [
            0,
            0
          ]
        }
      ],
      "guide": {
        "KPGKDHAFHFE": "QUEST_GUIDE_LOCATION",
        "param": [
          "[3_340900081:4803.447,344.200,3651.841,0.000,280.417,0.000]"
        ],
        "guideScene": 3,
        "guideStyle": "QUEST_GUIDE_STYLE_POINT",
        "guideLayer": "QUEST_GUIDE_LAYER_SCENE"
      },
      "guideHint": {
        "param1": ""
      },
      "finishParent": true,
      "isRewind": true,
      "finishExec": [
        {
          "KPGKDHAFHFE": "QUEST_EXEC_UNLOCK_MIRROR_AVATAR_TEAM"
        },
        {
          "KPGKDHAFHFE": "QUEST_EXEC_REFRESH_GROUP_SUITE",
          "param": [
            "3",
            "133409439,2"
          ]
        }
      ],
      "failExec": [
        {
          "KPGKDHAFHFE": "QUEST_EXEC_ROLLBACK_QUEST",
          "param": [
            "1403313"
          ]
        },
        {
          "KPGKDHAFHFE": "QUEST_EXEC_REFRESH_GROUP_SUITE",
          "param": [
            "3",
            "133409452,1"
          ]
        },
        {
          "KPGKDHAFHFE": "QUEST_EXEC_UNLOCK_MIRROR_AVATAR_TEAM"
        }
      ],
      "versionBegin": "",
      "versionEnd": ""
    },
    {
      "subId": 1403318,
      "mainId": 14033,
      "order": 7,
      "descTextMapHash": 836833780,
      "showType": "QUEST_HIDDEN",
      "finishCond": [
        {
          "KPGKDHAFHFE": "QUEST_CONTENT_COMPLETE_TALK",
          "param": [
            1403306,
            0
          ]
        }
      ],
      "guide": {},
      "guideHint": {
        "param1": ""
      },
      "finishExec": [
        {
          "KPGKDHAFHFE": "QUEST_EXEC_UNREGISTER_DYNAMIC_GROUP",
          "param": [
            "201093004"
          ]
        }
      ],
      "versionBegin": "",
      "versionEnd": ""
    },
    {
      "subId": 1403319,
      "mainId": 14033,
      "order": 14,
      "descTextMapHash": 1784173060,
      "finishCond": [
        {
          "KPGKDHAFHFE": "QUEST_CONTENT_COMPLETE_TALK",
          "param": [
            1403319,
            0
          ]
        }
      ],
      "guide": {
        "KPGKDHAFHFE": "QUEST_GUIDE_LOCATION",
        "param": [
          "[3_340900087:4878.154,350.433,3602.769,0.000,326.050,0.000]"
        ],
        "guideScene": 3,
        "guideStyle": "QUEST_GUIDE_STYLE_POINT",
        "guideLayer": "QUEST_GUIDE_LAYER_SCENE",
        "poiRegionId": 4901,
        "poiPointId": 49010025
      },
      "guideHint": {
        "param1": ""
      },
      "isRewind": true,
      "versionBegin": "",
      "versionEnd": ""
    },
    {
      "subId": 1403320,
      "mainId": 14033,
      "order": 17,
      "descTextMapHash": 3119212092,
      "showType": "QUEST_HIDDEN",
      "finishCond": [
        {
          "KPGKDHAFHFE": "QUEST_CONTENT_FINISH_PLOT",
          "param": [
            1403320,
            0
          ]
        },
        {
          "KPGKDHAFHFE": "QUEST_CONTENT_QUEST_STATE_EQUAL",
          "param": [
            1403312,
            3
          ]
        }
      ],
      "guide": {},
      "guideHint": {
        "param1": ""
      },
      "finishExec": [
        {
          "KPGKDHAFHFE": "QUEST_EXEC_NOTIFY_GROUP_LUA",
          "param": [
            "3",
            "133409442"
          ]
        }
      ],
      "versionBegin": "",
      "versionEnd": ""
    },
    {
      "subId": 1403321,
      "mainId": 14033,
      "order": 18,
      "descTextMapHash": 320801340,
      "showType": "QUEST_HIDDEN",
      "finishCond": [
        {
          "KPGKDHAFHFE": "QUEST_CONTENT_FINISH_PLOT",
          "param": [
            1403321,
            0
          ]
        },
        {
          "KPGKDHAFHFE": "QUEST_CONTENT_QUEST_STATE_EQUAL",
          "param": [
            1403312,
            3
          ]
        }
      ],
      "guide": {},
      "guideHint": {
        "param1": ""
      },
      "finishExec": [
        {
          "KPGKDHAFHFE": "QUEST_EXEC_NOTIFY_GROUP_LUA",
          "param": [
            "3",
            "133409442"
          ]
        }
      ],
      "versionBegin": "",
      "versionEnd": ""
    },
    {
      "subId": 1403322,
      "mainId": 14033,
      "order": 19,
      "descTextMapHash": 3656048356,
      "showType": "QUEST_HIDDEN",
      "finishCond": [
        {
          "KPGKDHAFHFE": "QUEST_CONTENT_FINISH_PLOT",
          "param": [
            1403322,
            0
          ]
        },
        {
          "KPGKDHAFHFE": "QUEST_CONTENT_QUEST_STATE_EQUAL",
          "param": [
            1403312,
            3
          ]
        }
      ],
      "guide": {},
      "guideHint": {
        "param1": ""
      },
      "finishExec": [
        {
          "KPGKDHAFHFE": "QUEST_EXEC_NOTIFY_GROUP_LUA",
          "param": [
            "3",
            "133409442"
          ]
        }
      ],
      "versionBegin": "",
      "versionEnd": ""
    },
    {
      "subId": 1403323,
      "mainId": 14033,
      "order": 13,
      "showType": "QUEST_HIDDEN",
      "finishCond": [
        {
          "KPGKDHAFHFE": "QUEST_CONTENT_FINISH_PLOT",
          "param": [
            1403323,
            0
          ]
        },
        {
          "KPGKDHAFHFE": "QUEST_CONTENT_QUEST_STATE_EQUAL",
          "param": [
            1403310,
            3
          ]
        }
      ],
      "guide": {},
      "guideHint": {
        "param1": ""
      },
      "finishExec": [
        {
          "KPGKDHAFHFE": "QUEST_EXEC_REFRESH_GROUP_SUITE",
          "param": [
            "3",
            "133409427,2"
          ]
        }
      ],
      "versionBegin": "",
      "versionEnd": ""
    },
    {
      "subId": 1403324,
      "mainId": 14033,
      "order": 20,
      "isMpBlock": true,
      "descTextMapHash": 4269516604,
      "finishCond": [
        {
          "KPGKDHAFHFE": "QUEST_CONTENT_LUA_NOTIFY",
          "param": [
            0,
            0
          ],
          "count": 1
        }
      ],
      "failCond": [
        {
          "KPGKDHAFHFE": "QUEST_CONTENT_LEAVE_SCENE_RANGE",
          "param": [
            3,
            80
          ]
        },
        {
          "KPGKDHAFHFE": "QUEST_CONTENT_ANY_MANUAL_TRANSPORT",
          "param": [
            0,
            0
          ]
        }
      ],
      "guide": {
        "KPGKDHAFHFE": "QUEST_GUIDE_LOCATION",
        "param": [
          "[3_340900080:4835.077,344.021,3640.499]",
          "40"
        ],
        "guideScene": 3,
        "guideStyle": "QUEST_GUIDE_STYLE_POINT",
        "guideLayer": "QUEST_GUIDE_LAYER_SCENE",
        "poiRegionId": 4901,
        "poiPointId": 49010024
      },
      "guideHint": {
        "param1": ""
      },
      "isRewind": true,
      "failExec": [
        {
          "KPGKDHAFHFE": "QUEST_EXEC_ROLLBACK_QUEST",
          "param": [
            "1403311"
          ]
        },
        {
          "KPGKDHAFHFE": "QUEST_EXEC_UNREGISTER_DYNAMIC_GROUP",
          "param": [
            "133409442",
            "0"
          ]
        }
      ],
      "versionBegin": "",
      "versionEnd": ""
    },
    {
      "subId": 1403325,
      "mainId": 14033,
      "order": 21,
      "isMpBlock": true,
      "descTextMapHash": 3003869740,
      "finishCond": [
        {
          "KPGKDHAFHFE": "QUEST_CONTENT_LUA_NOTIFY",
          "param": [
            0,
            0
          ],
          "count": 1
        }
      ],
      "failCond": [
        {
          "KPGKDHAFHFE": "QUEST_CONTENT_LEAVE_SCENE_RANGE",
          "param": [
            3,
            80
          ]
        },
        {
          "KPGKDHAFHFE": "QUEST_CONTENT_ANY_MANUAL_TRANSPORT",
          "param": [
            0,
            0
          ]
        }
      ],
      "guide": {
        "KPGKDHAFHFE": "QUEST_GUIDE_LOCATION",
        "param": [
          "[3_340900080:4835.077,344.021,3640.499]",
          "40"
        ],
        "guideScene": 3,
        "guideStyle": "QUEST_GUIDE_STYLE_POINT",
        "guideLayer": "QUEST_GUIDE_LAYER_SCENE",
        "poiRegionId": 4901,
        "poiPointId": 49010024
      },
      "guideHint": {
        "param1": ""
      },
      "isRewind": true,
      "failExec": [
        {
          "KPGKDHAFHFE": "QUEST_EXEC_ROLLBACK_QUEST",
          "param": [
            "1403311"
          ]
        },
        {
          "KPGKDHAFHFE": "QUEST_EXEC_UNREGISTER_DYNAMIC_GROUP",
          "param": [
            "133409442",
            "0"
          ]
        }
      ],
      "versionBegin": "",
      "versionEnd": ""
    },
    {
      "subId": 1403326,
      "mainId": 14033,
      "order": 24,
      "showType": "QUEST_HIDDEN",
      "finishCond": [
        {
          "KPGKDHAFHFE": "QUEST_CONTENT_LUA_NOTIFY",
          "param": [
            0,
            0
          ],
          "count": 1
        }
      ],
      "failCond": [
        {
          "KPGKDHAFHFE": "QUEST_CONTENT_QUEST_STATE_EQUAL",
          "param": [
            1403314,
            3
          ]
        }
      ],
      "guide": {},
      "guideHint": {
        "param1": ""
      },
      "versionBegin": "",
      "versionEnd": ""
    },
    {
      "subId": 1403327,
      "mainId": 14033,
      "order": 25,
      "showType": "QUEST_HIDDEN",
      "finishCond": [
        {
          "KPGKDHAFHFE": "QUEST_CONTENT_LUA_NOTIFY",
          "param": [
            0,
            0
          ],
          "count": 1
        }
      ],
      "failCond": [
        {
          "KPGKDHAFHFE": "QUEST_CONTENT_QUEST_STATE_EQUAL",
          "param": [
            1403314,
            3
          ]
        }
      ],
      "guide": {},
      "guideHint": {
        "param1": ""
      },
      "versionBegin": "",
      "versionEnd": ""
    }
  ],
  "talks": [
    {
      "id": 1403304,
      "beginWay": "TALK_BEGIN_MANUAL",
      "beginCond": [
        {
          "type": "QUEST_COND_STATE_EQUAL",
          "_param": [
            "1403304",
            "2"
          ]
        }
      ],
      "priority": 5,
      "initDialog": 140330401,
      "npcId": [
        1077
      ],
      "performCfg": "QuestDialogue/LQ/Clorinde_14033/Q1403304",
      "heroTalk": "TALK_HERO_MAIN",
      "questId": 14033,
      "assetIndex": 4712471905600568279,
      "prePerformCfg": "",
      "PLPFOOINAAJ": [
        "[1093_1:183.152,26.907,34.795,0.000,23.139,0.000]",
        "[1093_9:184.094,27.012,37.781,0.000,179.774,0.000]"
      ]
    },
    {
      "id": 1403306,
      "beginWay": "TALK_BEGIN_MANUAL",
      "beginCond": [
        {
          "type": "QUEST_COND_STATE_EQUAL",
          "_param": [
            "1403306",
            "2"
          ]
        }
      ],
      "priority": 5,
      "initDialog": 140330601,
      "npcId": [
        1077
      ],
      "performCfg": "QuestDialogue/LQ/Clorinde_14033/Q1403306",
      "heroTalk": "TALK_HERO_MAIN",
      "questId": 14033,
      "assetIndex": 5694989615519764757,
      "prePerformCfg": "",
      "PLPFOOINAAJ": [
        "[20225_10:2227.728,215.990,-862.750,0.000,143.573,0.000]",
        "[20225_3:2208.800,209.990,-905.864]",
        "[20225_4:2208.691,209.990,-908.574,0.000,352.088,0.000]",
        "[20225_5:2210.050,209.990,-909.399,0.000,341.155,0.000]",
        "[20225_6:2210.967,209.990,-908.119,0.000,322.474,0.000]",
        "[20225_7:2207.654,209.990,-908.864]",
        "[20225_8:2211.162,209.990,-906.065,0.000,307.220,0.000]",
        "[20225_9:2209.027,209.990,-903.333,0.000,174.778,0.000]"
      ]
    },
    {
      "id": 1403308,
      "beginWay": "TALK_BEGIN_MANUAL",
      "beginCond": [
        {
          "type": "QUEST_COND_STATE_EQUAL",
          "_param": [
            "1403308",
            "2"
          ]
        }
      ],
      "priority": 5,
      "nextTalks": [
        1403381
      ],
      "initDialog": 140330801,
      "npcId": [
        1077
      ],
      "performCfg": "QuestDialogue/LQ/Clorinde_14033/Q1403308",
      "heroTalk": "TALK_HERO_MAIN",
      "questId": 14033,
      "assetIndex": 4275625539167108987,
      "prePerformCfg": "",
      "PLPFOOINAAJ": [
        "[1093_10:180.863,27.016,30.543,0.000,163.054,0.000]",
        "[1093_11:181.108,26.950,36.330,0.000,153.108,0.000]",
        "[1093_12:184.550,26.945,34.680,0.000,235.391,0.000]",
        "[1093_2:181.793,27.013,30.413,0.000,181.161,0.000]",
        "[1093_4:180.289,27.017,29.127,0.000,84.329,0.000]",
        "[1093_5:181.050,27.016,28.453]",
        "[1093_6:183.228,27.016,28.508,0.000,356.615,0.000]",
        "[1093_7:183.862,27.017,28.954,0.000,271.677,0.000]"
      ]
    },
    {
      "id": 1403309,
      "beginWay": "TALK_BEGIN_MANUAL",
      "beginCond": [
        {
          "type": "QUEST_COND_STATE_EQUAL",
          "_param": [
            "1403309",
            "2"
          ]
        }
      ],
      "priority": 5,
      "initDialog": 140330901,
      "npcId": [
        14131
      ],
      "performCfg": "QuestDialogue/LQ/Clorinde_14033/Q1403309",
      "heroTalk": "TALK_HERO_MAIN",
      "questId": 14033,
      "assetIndex": 6599697001410646939,
      "prePerformCfg": "",
      "PLPFOOINAAJ": [
        "[1093_13:195.771,27.016,36.004,0.000,175.192,0.000]",
        "[1093_14:197.824,27.017,36.093,0.000,187.966,0.000]",
        "[1093_15:196.743,27.016,37.354,0.000,183.384,0.000]",
        "[1093_16:194.559,27.012,37.122,0.000,178.343,0.000]",
        "[1093_17:193.866,27.012,36.775,0.000,144.737,0.000]",
        "[1093_3:194.282,27.017,35.075,0.000,132.620,0.000]",
        "[1093_8:195.787,27.012,31.623,0.000,181.904,0.000]"
      ]
    },
    {
      "id": 1403310,
      "beginWay": "TALK_BEGIN_MANUAL",
      "beginCond": [
        {
          "type": "QUEST_COND_STATE_EQUAL",
          "_param": [
            "1403310",
            "2"
          ]
        }
      ],
      "priority": 5,
      "initDialog": 140331001,
      "npcId": [
        1077
      ],
      "performCfg": "QuestDialogue/LQ/Clorinde_14033/Q1403310",
      "heroTalk": "TALK_HERO_MAIN",
      "questId": 14033,
      "assetIndex": 13053747899928659051,
      "prePerformCfg": "",
      "PLPFOOINAAJ": [
        "[3_340900075:4914.806,439.466,3570.229,0.000,225.663,0.000]"
      ]
    },
    {
      "id": 1403311,
      "beginWay": "TALK_BEGIN_MANUAL",
      "beginCond": [
        {
          "type": "QUEST_COND_STATE_EQUAL",
          "_param": [
            "1403311",
            "2"
          ]
        }
      ],
      "priority": 5,
      "initDialog": 140331101,
      "npcId": [
        1077
      ],
      "performCfg": "QuestDialogue/LQ/Clorinde_14033/Q1403311",
      "heroTalk": "TALK_HERO_MAIN",
      "questId": 14033,
      "assetIndex": 1656640108535595939,
      "prePerformCfg": "",
      "PLPFOOINAAJ": [
        "[3_340900076:4839.968,344.289,3638.848,0.000,103.491,0.000]"
      ]
    },
    {
      "id": 1403313,
      "beginWay": "TALK_BEGIN_MANUAL",
      "beginCond": [
        {
          "type": "QUEST_COND_STATE_EQUAL",
          "_param": [
            "1403313",
            "2"
          ]
        }
      ],
      "priority": 5,
      "initDialog": 140331301,
      "npcId": [
        14179
      ],
      "performCfg": "QuestDialogue/LQ/Clorinde_14033/Q1403313",
      "heroTalk": "TALK_HERO_MAIN",
      "questId": 14033,
      "assetIndex": 607663404466031002,
      "prePerformCfg": "",
      "PLPFOOINAAJ": [
        "[3_340900004:4219.542,490.370,4576.096]",
        "[3_340900077:4823.739,344.021,3646.148,0.000,109.704,0.000]"
      ]
    },
    {
      "id": 1403315,
      "beginWay": "TALK_BEGIN_MANUAL",
      "beginCond": [
        {
          "type": "QUEST_COND_STATE_EQUAL",
          "_param": [
            "1403315",
            "2"
          ]
        }
      ],
      "priority": 5,
      "initDialog": 140331501,
      "npcId": [
        14132
      ],
      "performCfg": "QuestDialogue/LQ/Clorinde_14033/Q1403315",
      "heroTalk": "TALK_HERO_MAIN",
      "questId": 14033,
      "assetIndex": 4940964230139815617,
      "prePerformCfg": "",
      "PLPFOOINAAJ": [
        "[3_340900078:4819.146,344.021,3645.970,0.000,104.725,0.000]",
        "[3_340900089:4827.061,344.021,3645.939,0.000,159.350,0.000]",
        "[3_340900090:4817.064,344.164,3648.798,0.000,116.060,0.000]",
        "[3_340900091:4814.889,344.189,3646.045,0.000,99.200,0.000]",
        "[3_340900092:4816.057,344.364,3650.466,0.000,108.134,0.000]",
        "[3_340900093:4816.539,344.089,3646.656,0.000,101.864,0.000]",
        "[3_340900094:4815.565,344.201,3647.795,0.000,99.464,0.000]"
      ]
    },
    {
      "id": 1403316,
      "beginWay": "TALK_BEGIN_MANUAL",
      "beginCond": [
        {
          "type": "QUEST_COND_STATE_EQUAL",
          "_param": [
            "1403316",
            "2"
          ]
        }
      ],
      "priority": 5,
      "initDialog": 140331601,
      "npcId": [
        14136
      ],
      "performCfg": "QuestDialogue/LQ/Clorinde_14033/Q1403316",
      "heroTalk": "TALK_HERO_MAIN",
      "questId": 14033,
      "assetIndex": 8972727891442454850,
      "prePerformCfg": "",
      "PLPFOOINAAJ": [
        "[3_340900079:4863.733,349.095,3626.446,0.000,199.880,0.000]",
        "[3_8306:4862.423,349.165,3625.079,0.000,43.938,0.000]"
      ]
    },
    {
      "id": 1403317,
      "beginWay": "TALK_BEGIN_MANUAL",
      "beginCond": [
        {
          "type": "QUEST_COND_STATE_EQUAL",
          "_param": [
            "1403317",
            "2"
          ]
        }
      ],
      "priority": 5,
      "nextTalks": [
        1403330,
        1403331
      ],
      "initDialog": 140331701,
      "npcId": [
        14136
      ],
      "performCfg": "QuestDialogue/LQ/Clorinde_14033/Q1403317",
      "heroTalk": "TALK_HERO_MAIN",
      "questId": 14033,
      "assetIndex": 12000625710340340669,
      "prePerformCfg": "",
      "PLPFOOINAAJ": [
        "[3_340900082:4798.101,344.486,3657.393,0.000,237.611,0.000]",
        "[3_340900083:4798.135,344.377,3651.534,0.000,162.362,0.000]",
        "[3_340900084:4796.020,344.486,3651.454,0.000,143.143,0.000]",
        "[3_340900085:4799.100,344.551,3653.073,0.000,296.719,0.000]",
        "[3_340900088:4799.181,344.551,3653.852,0.000,282.874,0.000]",
        "[3_8307:4804.991,344.230,3651.229,0.000,283.214,0.000]",
        "[3_8308:4806.242,344.364,3650.634,0.000,310.872,0.000]"
      ]
    },
    {
      "id": 1403319,
      "beginWay": "TALK_BEGIN_MANUAL",
      "beginCond": [
        {
          "type": "QUEST_COND_STATE_EQUAL",
          "_param": [
            "1403319",
            "2"
          ]
        }
      ],
      "priority": 5,
      "initDialog": 140331901,
      "npcId": [
        1077
      ],
      "performCfg": "QuestDialogue/LQ/Clorinde_14033/Q1403319",
      "heroTalk": "TALK_HERO_MAIN",
      "questId": 14033,
      "assetIndex": 11206638572029117691,
      "prePerformCfg": "",
      "PLPFOOINAAJ": [
        "[3_340900086:4875.492,350.677,3606.218,0.000,144.921,0.000]"
      ]
    },
    {
      "id": 1403330,
      "beginCond": [
        {
          "type": "QUEST_COND_STATE_EQUAL",
          "_param": [
            "1403317",
            "2"
          ]
        }
      ],
      "priority": 5,
      "nextTalks": [
        1403332
      ],
      "initDialog": 140333001,
      "npcId": [
        1075,
        1071,
        1073
      ],
      "performCfg": "QuestDialogue/LQ/Clorinde_14033/Q1403330",
      "heroTalk": "TALK_HERO_MAIN",
      "questId": 14033,
      "assetIndex": 1568294925348670779,
      "prePerformCfg": "",
      "finishExec": [
        {
          "KPGKDHAFHFE": "TALK_EXEC_SAVE_TALK_ID",
          "param": [
            "1403330"
          ]
        }
      ]
    },
    {
      "id": 1403331,
      "beginCondComb": "LOGIC_A_AND_ETCOR",
      "beginCond": [
        {
          "type": "QUEST_COND_STATE_EQUAL",
          "_param": [
            "1403317",
            "2"
          ]
        },
        {
          "type": "QUEST_COND_QUEST_GLOBAL_VAR_EQUAL",
          "_param": [
            "1403201",
            "0"
          ]
        },
        {
          "type": "QUEST_COND_QUEST_GLOBAL_VAR_EQUAL",
          "_param": [
            "1403201",
            "1"
          ]
        }
      ],
      "priority": 5,
      "nextTalks": [
        1403332
      ],
      "initDialog": 140333101,
      "npcId": [
        1075,
        1071,
        1073
      ],
      "performCfg": "QuestDialogue/LQ/Clorinde_14033/Q1403331",
      "heroTalk": "TALK_HERO_MAIN",
      "questId": 14033,
      "assetIndex": 1604901606140384020,
      "prePerformCfg": "",
      "finishExec": [
        {
          "KPGKDHAFHFE": "TALK_EXEC_SAVE_TALK_ID",
          "param": [
            "1403331"
          ]
        }
      ],
      "PLPFOOINAAJ": [
        "[3_340900085:4799.100,344.551,3653.073,0.000,296.719,0.000]"
      ]
    },
    {
      "id": 1403332,
      "beginCond": [
        {
          "type": "QUEST_COND_STATE_EQUAL",
          "_param": [
            "1403317",
            "2"
          ]
        }
      ],
      "priority": 5,
      "initDialog": 140333201,
      "npcId": [
        1075,
        1071,
        1073
      ],
      "performCfg": "QuestDialogue/LQ/Clorinde_14033/Q1403332",
      "heroTalk": "TALK_HERO_MAIN",
      "questId": 14033,
      "assetIndex": 18326370390744651706,
      "prePerformCfg": ""
    },
    {
      "id": 1403350,
      "beginWay": "TALK_BEGIN_MANUAL",
      "beginCond": [
        {
          "type": "QUEST_COND_STATE_EQUAL",
          "_param": [
            "1403301",
            "2"
          ]
        }
      ],
      "priority": 5,
      "initDialog": 140335001,
      "npcId": [
        1075,
        1077
      ],
      "performCfg": "QuestDialogue/LQ/Clorinde_14033/Q1403350",
      "heroTalk": "TALK_HERO_MAIN",
      "questId": 14033,
      "assetIndex": 8905163126357879414,
      "prePerformCfg": ""
    },
    {
      "id": 1403351,
      "beginWay": "TALK_BEGIN_MANUAL",
      "beginCond": [
        {
          "type": "QUEST_COND_STATE_EQUAL",
          "_param": [
            "1403316",
            "2"
          ]
        }
      ],
      "priority": 5,
      "initDialog": 140335101,
      "npcId": [
        1075
      ],
      "performCfg": "QuestDialogue/LQ/Clorinde_14033/Q1403351",
      "questId": 14033,
      "assetIndex": 6268580345430240947,
      "prePerformCfg": ""
    },
    {
      "id": 1403352,
      "beginWay": "TALK_BEGIN_MANUAL",
      "beginCond": [
        {
          "type": "QUEST_COND_STATE_EQUAL",
          "_param": [
            "1403316",
            "2"
          ]
        }
      ],
      "priority": 5,
      "initDialog": 140335201,
      "npcId": [
        1073
      ],
      "performCfg": "QuestDialogue/LQ/Clorinde_14033/Q1403352",
      "questId": 14033,
      "assetIndex": 5365934659501805110,
      "prePerformCfg": ""
    },
    {
      "id": 1403353,
      "beginWay": "TALK_BEGIN_MANUAL",
      "beginCond": [
        {
          "type": "QUEST_COND_STATE_EQUAL",
          "_param": [
            "1403316",
            "2"
          ]
        }
      ],
      "priority": 5,
      "initDialog": 140335301,
      "npcId": [
        1005
      ],
      "performCfg": "QuestDialogue/LQ/Clorinde_14033/Q1403353",
      "questId": 14033,
      "assetIndex": 13777991253041560355,
      "prePerformCfg": ""
    },
    {
      "id": 1403354,
      "beginWay": "TALK_BEGIN_MANUAL",
      "beginCond": [
        {
          "type": "QUEST_COND_STATE_EQUAL",
          "_param": [
            "1403316",
            "2"
          ]
        }
      ],
      "priority": 5,
      "initDialog": 140335401,
      "npcId": [
        1071
      ],
      "performCfg": "QuestDialogue/LQ/Clorinde_14033/Q1403354",
      "questId": 14033,
      "assetIndex": 4753359189113828635,
      "prePerformCfg": ""
    },
    {
      "id": 1403381,
      "beginCond": [
        {
          "type": "QUEST_COND_STATE_EQUAL",
          "_param": [
            "1403308",
            "2"
          ]
        }
      ],
      "priority": 5,
      "initDialog": 140338101,
      "npcId": [
        1077
      ],
      "performCfg": "QuestDialogue/LQ/Clorinde_14033/Q1403381",
      "heroTalk": "TALK_HERO_MAIN",
      "questId": 14033,
      "assetIndex": 16734909515442631308,
      "prePerformCfg": ""
    }
  ],
  "preloadLuaList": [
    14457059026087496718,
    6002092676153971720,
    10178092685277012790,
    12113685809041640457
  ],
  "forcePreloadLuaList": [
    12944084737294788808
  ],
  "freeStyleDic": {
    "1075": [
      1170,
      0,
      1190
    ],
    "1077": [
      1220,
      0
    ],
    "14167": [
      8040
    ],
    "14170": [
      8060
    ],
    "14171": [
      8080
    ],
    "14172": [
      8013
    ],
    "1071": [
      0,
      1220
    ],
    "1073": [
      0
    ],
    "1025": [
      1080,
      1230,
      1190
    ],
    "1026": [
      1080,
      1230,
      1190
    ]
  },
  "dialogList": [
    {
      "id": 140339915,
      "talkRole": {
        "type": "TALK_ROLE_NPC",
        "_id": "1075"
      },
      "talkContentTextMapHash": 289643762,
      "talkAssetPath": "",
      "talkAssetPathAlter": "",
      "talkAudioName": "",
      "actionBefore": "",
      "actionWhile": "",
      "actionAfter": "",
      "optionIcon": "",
      "iconPath": ""
    },
    {
      "id": 140339916,
      "talkRole": {
        "type": "TALK_ROLE_NPC",
        "_id": "1071"
      },
      "talkContentTextMapHash": 2665457818,
      "talkAssetPath": "",
      "talkAssetPathAlter": "",
      "talkAudioName": "",
      "actionBefore": "",
      "actionWhile": "",
      "actionAfter": "",
      "optionIcon": "",
      "iconPath": ""
    },
    {
      "id": 140339917,
      "talkRole": {
        "type": "TALK_ROLE_NPC",
        "_id": "1073"
      },
      "talkContentTextMapHash": 3677019666,
      "talkAssetPath": "",
      "talkAssetPathAlter": "",
      "talkAudioName": "",
      "actionBefore": "",
      "actionWhile": "",
      "actionAfter": "",
      "optionIcon": "",
      "iconPath": ""
    }
  ],
  "DDHNEIEDLJA": true
}