{
  "id": 14040,
  "resId": 2048,
  "KPGKDHAFHFE": "LQ",
  "titleTextMapHash": 1114501543,
  "descTextMapHash": 2802122662,
  "luaPath": "Actor/Quest/LQ14040",
  "showType": "QUEST_HIDDEN",
  "subQuests": [
    {
      "subId": 1404001,
      "mainId": 14040,
      "order": 1,
      "descTextMapHash": 1870798540,
      "showType": "QUEST_HIDDEN",
      "finishCond": [
        {
          "KPGKDHAFHFE": "QUEST_CONTENT_LEAVE_SCENE_RANGE",
          "param": [
            3,
            80
          ]
        },
        {
          "KPGKDHAFHFE": "QUEST_CONTENT_FINISH_PLOT",
          "param": [
            1404001,
            0
          ]
        }
      ],
      "guide": {},
      "guideHint": {
        "param1": ""
      },
      "finishParent": true,
      "isRewind": true,
      "finishExec": [
        {
          "KPGKDHAFHFE": "QUEST_EXEC_UNREGISTER_DYNAMIC_GROUP",
          "param": [
            "133404793"
          ]
        }
      ],
      "versionBegin": "",
      "versionEnd": ""
    }
  ],
  "DDHNEIEDLJA": true
}