{
  "id": 19021,
  "resId": 3003,
  "series": 103601,
  "KPGKDHAFHFE": "LQ",
  "titleTextMapHash": 2934864295,
  "descTextMapHash": 3763279270,
  "luaPath": "Actor/Quest/LQ19021",
  "suggestTrackMainQuestList": [
    19022,
    19030
  ],
  "suggestTrackOutOfOrder": true,
  "chapterId": 103601,
  "subQuests": [
    {
      "subId": 1902101,
      "mainId": 19021,
      "order": 1,
      "descTextMapHash": 864544244,
      "finishCond": [
        {
          "KPGKDHAFHFE": "QUEST_CONTENT_MAIN_COOP_ENTER_ANY_SAVE_POINT",
          "param": [
            103601,
            0
          ]
        }
      ],
      "guide": {
        "KPGKDHAFHFE": "QUEST_GUIDE_NPC",
        "autoGuide": "QUEST_GUIDE_AUTO_ENABLE",
        "param": [
          "1023"
        ],
        "guideScene": 3,
        "guideStyle": "QUEST_GUIDE_STYLE_TARGET",
        "guideLayer": "QUEST_GUIDE_LAYER_SCENE"
      },
      "guideHint": {
        "param1": ""
      },
      "finishParent": true,
      "isRewind": true,
      "versionBegin": "",
      "versionEnd": ""
    }
  ]
}