{
  "id": 19070,
  "resId": 3002,
  "KPGKDHAFHFE": "LQ",
  "titleTextMapHash": 575512535,
  "descTextMapHash": 1810839270,
  "luaPath": "Actor/Quest/LQ19070",
  "showType": "QUEST_HIDDEN",
  "subQuests": [
    {
      "subId": 1907001,
      "mainId": 19070,
      "order": 2,
      "descTextMapHash": 3392594292,
      "showType": "QUEST_HIDDEN",
      "finishCond": [
        {
          "KPGKDHAFHFE": "QUEST_CONTENT_FINISH_PLOT",
          "param": [
            1907001,
            0
          ]
        },
        {
          "KPGKDHAFHFE": "QUEST_CONTENT_ENTER_MY_WORLD",
          "param": [
            3,
            0
          ]
        },
        {
          "KPGKDHAFHFE": "QUEST_CONTENT_ANY_MANUAL_TRANSPORT",
          "param": [
            0,
            0
          ]
        }
      ],
      "guide": {
        "guideScene": 3,
        "guideLayer": "QUEST_GUIDE_LAYER_SCENE"
      },
      "showGuide": "QUEST_GUIDE_ITEM_DISABLE",
      "guideHint": {
        "param1": ""
      },
      "finishParent": true,
      "failParentShow": "QUEST_HIDDEN",
      "isRewind": true,
      "finishExec": [
        {
          "KPGKDHAFHFE": "QUEST_EXEC_REFRESH_GROUP_SUITE",
          "param": [
            "1004",
            "201004005,1"
          ]
        }
      ],
      "versionBegin": "",
      "versionEnd": ""
    },
    {
      "subId": 1907002,
      "mainId": 19070,
      "order": 1,
      "descTextMapHash": 3621863492,
      "showType": "QUEST_HIDDEN",
      "finishCond": [
        {
          "KPGKDHAFHFE": "QUEST_CONTENT_COMPLETE_TALK",
          "param": [
            1906806,
            0
          ]
        }
      ],
      "guide": {
        "guideScene": 3,
        "guideLayer": "QUEST_GUIDE_LAYER_SCENE"
      },
      "showGuide": "QUEST_GUIDE_ITEM_DISABLE",
      "guideHint": {
        "param1": ""
      },
      "finishParent": true,
      "failParentShow": "QUEST_HIDDEN",
      "versionBegin": "",
      "versionEnd": ""
    }
  ],
  "talks": [
    {
      "id": 1907001,
      "beginWay": "TALK_BEGIN_MANUAL",
      "beginCondComb": "LOGIC_OR",
      "beginCond": [
        {
          "type": "QUEST_COND_STATE_EQUAL",
          "_param": [
            "1907001",
            "2"
          ]
        }
      ],
      "priority": 5,
      "initDialog": 190700101,
      "npcId": [
        1027
      ],
      "performCfg": "",
      "heroTalk": "TALK_HERO_MAIN",
      "questId": 19070,
      "assetIndex": 1411040780603352078,
      "prePerformCfg": ""
    }
  ]
}