{
  "id": 19098,
  "resId": 3017,
  "series": 101501,
  "KPGKDHAFHFE": "LQ",
  "titleTextMapHash": 3467130407,
  "descTextMapHash": 66689886,
  "luaPath": "Actor/Quest/LQ19098",
  "suggestTrackOutOfOrder": true,
  "chapterId": 101501,
  "subQuests": [
    {
      "subId": 1909801,
      "mainId": 19098,
      "order": 1,
      "descTextMapHash": 3807783972,
      "GMKDJFPEFFF": [
        330604,
        1907301
      ],
      "finishCond": [
        {
          "KPGKDHAFHFE": "QUEST_CONTENT_MAIN_COOP_ENTER_SAVE_POINT",
          "param": [
            101501,
            190980101
          ]
        }
      ],
      "guide": {
        "KPGKDHAFHFE": "QUEST_GUIDE_LOCATION",
        "param": [
          "[3_4189:-2041.076,204.451,2590.167,0.000,240.600,0.000]"
        ],
        "guideScene": 3,
        "guideStyle": "QUEST_GUIDE_STYLE_POINT",
        "guideLayer": "QUEST_GUIDE_LAYER_SCENE"
      },
      "guideHint": {
        "param1": ""
      },
      "isRewind": true,
      "finishExec": [
        {
          "KPGKDHAFHFE": "QUEST_EXEC_SET_GAME_TIME",
          "param": [
            "10"
          ]
        }
      ],
      "versionBegin": "",
      "versionEnd": ""
    },
    {
      "subId": 1909802,
      "mainId": 19098,
      "order": 2,
      "descTextMapHash": 291958212,
      "GMKDJFPEFFF": [
        330604,
        1907301
      ],
      "finishCond": [
        {
          "KPGKDHAFHFE": "QUEST_CONTENT_MAIN_COOP_ENTER_SAVE_POINT",
          "param": [
            101501,
            190980201
          ]
        }
      ],
      "guide": {
        "KPGKDHAFHFE": "QUEST_GUIDE_NPC",
        "param": [
          "4125"
        ],
        "guideScene": 3,
        "guideStyle": "QUEST_GUIDE_STYLE_TARGET",
        "guideLayer": "QUEST_GUIDE_LAYER_SCENE"
      },
      "guideHint": {
        "param1": ""
      },
      "isRewind": true,
      "finishExec": [
        {
          "KPGKDHAFHFE": "QUEST_EXEC_SET_GAME_TIME",
          "param": [
            "10.5"
          ]
        }
      ],
      "versionBegin": "",
      "versionEnd": ""
    },
    {
      "subId": 1909803,
      "mainId": 19098,
      "order": 3,
      "descTextMapHash": 3908801132,
      "GMKDJFPEFFF": [
        330604,
        1907301
      ],
      "finishCond": [
        {
          "KPGKDHAFHFE": "QUEST_CONTENT_MAIN_COOP_ENTER_SAVE_POINT",
          "param": [
            101501,
            190980301
          ]
        }
      ],
      "guide": {
        "KPGKDHAFHFE": "QUEST_GUIDE_NPC",
        "param": [
          "516"
        ],
        "guideScene": 3,
        "guideStyle": "QUEST_GUIDE_STYLE_TARGET",
        "guideLayer": "QUEST_GUIDE_LAYER_SCENE"
      },
      "guideHint": {
        "param1": ""
      },
      "isRewind": true,
      "finishExec": [
        {
          "KPGKDHAFHFE": "QUEST_EXEC_SET_GAME_TIME",
          "param": [
            "12"
          ]
        }
      ],
      "versionBegin": "",
      "versionEnd": ""
    },
    {
      "subId": 1909805,
      "mainId": 19098,
      "order": 4,
      "descTextMapHash": 3472470316,
      "GMKDJFPEFFF": [
        330604,
        1907301
      ],
      "finishCond": [
        {
          "KPGKDHAFHFE": "QUEST_CONTENT_MAIN_COOP_ENTER_SAVE_POINT",
          "param": [
            101501,
            190980501
          ]
        }
      ],
      "guide": {
        "KPGKDHAFHFE": "QUEST_GUIDE_LOCATION",
        "param": [
          "[3_4189:-2041.076,204.451,2590.167,0.000,240.600,0.000]"
        ],
        "guideScene": 3,
        "guideStyle": "QUEST_GUIDE_STYLE_POINT",
        "guideLayer": "QUEST_GUIDE_LAYER_SCENE"
      },
      "guideHint": {
        "param1": ""
      },
      "isRewind": true,
      "finishExec": [
        {
          "KPGKDHAFHFE": "QUEST_EXEC_SET_QUEST_GLOBAL_VAR",
          "param": [
            "1909802",
            "1"
          ]
        },
        {
          "KPGKDHAFHFE": "QUEST_EXEC_SET_GAME_TIME",
          "param": [
            "14"
          ]
        }
      ],
      "versionBegin": "",
      "versionEnd": ""
    },
    {
      "subId": 1909806,
      "mainId": 19098,
      "order": 5,
      "descTextMapHash": 2981836012,
      "GMKDJFPEFFF": [
        330604,
        1907301
      ],
      "finishCond": [
        {
          "KPGKDHAFHFE": "QUEST_CONTENT_MAIN_COOP_ENTER_SAVE_POINT",
          "param": [
            101501,
            190980601
          ]
        }
      ],
      "guide": {
        "KPGKDHAFHFE": "QUEST_GUIDE_NPC",
        "param": [
          "517"
        ],
        "guideScene": 3,
        "guideStyle": "QUEST_GUIDE_STYLE_TARGET",
        "guideLayer": "QUEST_GUIDE_LAYER_SCENE"
      },
      "guideHint": {
        "param1": ""
      },
      "isRewind": true,
      "finishExec": [
        {
          "KPGKDHAFHFE": "QUEST_EXEC_SET_GAME_TIME",
          "param": [
            "17.5"
          ]
        }
      ],
      "versionBegin": "",
      "versionEnd": ""
    },
    {
      "subId": 1909807,
      "mainId": 19098,
      "order": 6,
      "descTextMapHash": 1543334780,
      "GMKDJFPEFFF": [
        330604,
        1907301
      ],
      "finishCond": [
        {
          "KPGKDHAFHFE": "QUEST_CONTENT_MAIN_COOP_ENTER_SAVE_POINT",
          "param": [
            101501,
            190980701
          ]
        }
      ],
      "guide": {
        "KPGKDHAFHFE": "QUEST_GUIDE_NPC",
        "param": [
          "517"
        ],
        "guideScene": 3,
        "guideStyle": "QUEST_GUIDE_STYLE_TARGET",
        "guideLayer": "QUEST_GUIDE_LAYER_SCENE"
      },
      "guideHint": {
        "param1": ""
      },
      "finishParent": true,
      "isRewind": true,
      "finishExec": [
        {
          "KPGKDHAFHFE": "QUEST_EXEC_UNREGISTER_DYNAMIC_GROUP",
          "param": [
            "133304598,133304600",
            "0"
          ]
        }
      ],
      "versionBegin": "",
      "versionEnd": ""
    },
    {
      "subId": 1909808,
      "mainId": 19098,
      "order": 7,
      "showType": "QUEST_HIDDEN",
      "finishCond": [
        {
          "KPGKDHAFHFE": "QUEST_CONTENT_FINISH_PLOT",
          "param": [
            1909808,
            0
          ]
        }
      ],
      "guide": {},
      "guideHint": {
        "param1": ""
      },
      "finishExec": [
        {
          "KPGKDHAFHFE": "QUEST_EXEC_SET_QUEST_GLOBAL_VAR",
          "param": [
            "1909801",
            "1"
          ]
        }
      ],
      "versionBegin": "",
      "versionEnd": ""
    },
    {
      "subId": 1909809,
      "mainId": 19098,
      "order": 99,
      "showType": "QUEST_HIDDEN",
      "finishCond": [
        {
          "KPGKDHAFHFE": "QUEST_CONTENT_FINISH_PLOT",
          "param": [
            1909809,
            0
          ]
        },
        {
          "KPGKDHAFHFE": "QUEST_CONTENT_QUEST_GLOBAL_VAR_EQUAL",
          "param": [
            1909801,
            0
          ]
        }
      ],
      "guide": {},
      "guideHint": {
        "param1": ""
      },
      "finishExec": [
        {
          "KPGKDHAFHFE": "QUEST_EXEC_SET_QUEST_GLOBAL_VAR",
          "param": [
            "1909801",
            "0"
          ]
        }
      ],
      "versionBegin": "",
      "versionEnd": ""
    },
    {
      "subId": 1909810,
      "mainId": 19098,
      "order": 9,
      "showType": "QUEST_HIDDEN",
      "finishCond": [
        {
          "KPGKDHAFHFE": "QUEST_CONTENT_FINISH_PLOT",
          "param": [
            1909810,
            0
          ]
        }
      ],
      "guide": {},
      "guideHint": {
        "param1": ""
      },
      "finishExec": [
        {
          "KPGKDHAFHFE": "QUEST_EXEC_SET_QUEST_GLOBAL_VAR",
          "param": [
            "1909802",
            "1"
          ]
        }
      ],
      "versionBegin": "",
      "versionEnd": ""
    },
    {
      "subId": 1909811,
      "mainId": 19098,
      "order": 100,
      "showType": "QUEST_HIDDEN",
      "finishCond": [
        {
          "KPGKDHAFHFE": "QUEST_CONTENT_FINISH_PLOT",
          "param": [
            1909811,
            0
          ]
        },
        {
          "KPGKDHAFHFE": "QUEST_CONTENT_QUEST_GLOBAL_VAR_GREATER",
          "param": [
            1909802,
            0
          ]
        }
      ],
      "guide": {},
      "guideHint": {
        "param1": ""
      },
      "finishExec": [
        {
          "KPGKDHAFHFE": "QUEST_EXEC_SET_QUEST_GLOBAL_VAR",
          "param": [
            "1909802",
            "0"
          ]
        }
      ],
      "versionBegin": "",
      "versionEnd": ""
    }
  ],
  "talks": [
    {
      "id": 1909808,
      "beginWay": "TALK_BEGIN_MANUAL",
      "beginCondComb": "LOGIC_OR",
      "beginCond": [
        {
          "type": "QUEST_COND_STATE_EQUAL",
          "_param": [
            "1909803",
            "2"
          ]
        },
        {
          "type": "QUEST_COND_STATE_EQUAL",
          "_param": [
            "1909802",
            "2"
          ]
        }
      ],
      "priority": 4,
      "initDialog": 190980801,
      "npcId": [
        13304
      ],
      "performCfg": "QuestDialogue/COOP/CoopKaeya/Q1909808",
      "heroTalk": "TALK_HERO_MAIN",
      "questId": 19098,
      "assetIndex": 3385730894165640830,
      "prePerformCfg": "",
      "lowPriority": true
    },
    {
      "id": 1909810,
      "beginWay": "TALK_BEGIN_MANUAL",
      "beginCondComb": "LOGIC_OR",
      "beginCond": [
        {
          "type": "QUEST_COND_STATE_EQUAL",
          "_param": [
            "1909803",
            "2"
          ]
        },
        {
          "type": "QUEST_COND_STATE_EQUAL",
          "_param": [
            "1909802",
            "2"
          ]
        }
      ],
      "priority": 4,
      "initDialog": 190981001,
      "npcId": [
        13305
      ],
      "performCfg": "QuestDialogue/COOP/CoopKaeya/Q1909810",
      "heroTalk": "TALK_HERO_MAIN",
      "questId": 19098,
      "assetIndex": 11325134285804431095,
      "prePerformCfg": "",
      "lowPriority": true
    },
    {
      "id": 1909814,
      "beginWay": "TALK_BEGIN_MANUAL",
      "beginCondComb": "LOGIC_OR",
      "beginCond": [
        {
          "type": "QUEST_COND_STATE_EQUAL",
          "_param": [
            "1909806",
            "2"
          ]
        }
      ],
      "priority": 4,
      "initDialog": 190981401,
      "npcId": [
        4124
      ],
      "performCfg": "QuestDialogue/COOP/CoopKaeya/Q1909814",
      "heroTalk": "TALK_HERO_MAIN",
      "questId": 19098,
      "assetIndex": 640002240100913113,
      "prePerformCfg": ""
    },
    {
      "id": 1909815,
      "beginWay": "TALK_BEGIN_MANUAL",
      "beginCondComb": "LOGIC_OR",
      "beginCond": [
        {
          "type": "QUEST_COND_STATE_EQUAL",
          "_param": [
            "1909806",
            "2"
          ]
        },
        {
          "type": "QUEST_COND_STATE_EQUAL",
          "_param": [
            "1909807",
            "2"
          ]
        }
      ],
      "priority": 4,
      "initDialog": 190981501,
      "npcId": [
        4109
      ],
      "performCfg": "QuestDialogue/COOP/CoopKaeya/Q1909815",
      "heroTalk": "TALK_HERO_MAIN",
      "questId": 19098,
      "assetIndex": 10193120178656457348,
      "prePerformCfg": ""
    },
    {
      "id": 1909819,
      "beginWay": "TALK_BEGIN_MANUAL",
      "beginCond": [
        {
          "type": "QUEST_COND_STATE_EQUAL",
          "_param": [
            "1909801",
            "2"
          ]
        }
      ],
      "priority": 1,
      "initDialog": 190981901,
      "npcId": [
        4125
      ],
      "performCfg": "QuestDialogue/COOP/CoopKaeya/Q1909819",
      "heroTalk": "TALK_HERO_MAIN",
      "questId": 19098,
      "assetIndex": 8113128879707342065,
      "prePerformCfg": ""
    },
    {
      "id": 1909820,
      "beginWay": "TALK_BEGIN_MANUAL",
      "beginCondComb": "LOGIC_AND",
      "beginCond": [
        {
          "type": "QUEST_COND_STATE_EQUAL",
          "_param": [
            "1909803",
            "2"
          ]
        }
      ],
      "priority": 2,
      "initDialog": 190982001,
      "npcId": [
        4125
      ],
      "performCfg": "QuestDialogue/COOP/CoopKaeya/Q1909820",
      "heroTalk": "TALK_HERO_MAIN",
      "questId": 19098,
      "assetIndex": 6681947543997515335,
      "prePerformCfg": ""
    },
    {
      "id": 1909821,
      "beginWay": "TALK_BEGIN_MANUAL",
      "beginCondComb": "LOGIC_AND",
      "beginCond": [
        {
          "type": "QUEST_COND_STATE_EQUAL",
          "_param": [
            "1909805",
            "2"
          ]
        }
      ],
      "priority": 3,
      "initDialog": 190982101,
      "npcId": [
        4125
      ],
      "performCfg": "QuestDialogue/COOP/CoopKaeya/Q1909821",
      "heroTalk": "TALK_HERO_MAIN",
      "questId": 19098,
      "assetIndex": 4814698216763582339,
      "prePerformCfg": ""
    },
    {
      "id": 1909822,
      "beginWay": "TALK_BEGIN_MANUAL",
      "beginCond": [
        {
          "type": "QUEST_COND_STATE_EQUAL",
          "_param": [
            "1909801",
            "2"
          ]
        }
      ],
      "priority": 1,
      "initDialog": 190730902,
      "npcId": [
        13304,
        13305
      ],
      "performCfg": "QuestDialogue/COOP/CoopKaeya/Q1907309",
      "heroTalk": "TALK_HERO_MAIN",
      "questId": 19098,
      "assetIndex": 10796991809002686909,
      "prePerformCfg": "",
      "lockGameTime": true
    },
    {
      "id": 1909823,
      "beginWay": "TALK_BEGIN_MANUAL",
      "beginCondComb": "LOGIC_OR",
      "beginCond": [
        {
          "type": "QUEST_COND_STATE_EQUAL",
          "_param": [
            "1909801",
            "2"
          ]
        },
        {
          "type": "QUEST_COND_STATE_EQUAL",
          "_param": [
            "1909802",
            "2"
          ]
        },
        {
          "type": "QUEST_COND_STATE_EQUAL",
          "_param": [
            "1909803",
            "2"
          ]
        },
        {
          "type": "QUEST_COND_STATE_EQUAL",
          "_param": [
            "1909805",
            "2"
          ]
        },
        {
          "type": "QUEST_COND_STATE_EQUAL",
          "_param": [
            "1909806",
            "2"
          ]
        },
        {
          "type": "QUEST_COND_STATE_EQUAL",
          "_param": [
            "1909807",
            "2"
          ]
        }
      ],
      "priority": 1,
      "initDialog": 190982301,
      "npcId": [
        13456
      ],
      "performCfg": "",
      "heroTalk": "TALK_HERO_MAIN",
      "questId": 19098,
      "assetIndex": 6345943800622630969,
      "prePerformCfg": ""
    }
  ],
  "preloadLuaList": [
    5575916732172504491,
    9587600649900105109,
    2678561526113980760
  ],
  "forcePreloadLuaList": [
    18313399583515232944
  ],
  "freeStyleDic": {
    "13304": [
      1120
    ],
    "13305": [
      1160
    ],
    "516": [
      8010
    ],
    "4124": [
      1190
    ],
    "4125": [
      1090
    ],
    "517": [
      1190
    ],
    "4109": [
      1230
    ]
  },
  "dialogList": [
    {
      "id": 190982201,
      "nextDialogs": [
        190982202
      ],
      "talkRole": {
        "type": "TALK_ROLE_NPC",
        "_id": "13304"
      },
      "talkContentTextMapHash": 3191992210,
      "talkAssetPath": "",
      "talkAssetPathAlter": "",
      "talkAudioName": "",
      "actionBefore": "",
      "actionWhile": "",
      "actionAfter": "",
      "optionIcon": "",
      "iconPath": ""
    },
    {
      "id": 190982202,
      "talkRole": {
        "type": "TALK_ROLE_NPC",
        "_id": "13305"
      },
      "talkContentTextMapHash": 4276537762,
      "talkAssetPath": "",
      "talkAssetPathAlter": "",
      "talkAudioName": "",
      "actionBefore": "",
      "actionWhile": "",
      "actionAfter": "",
      "optionIcon": "",
      "iconPath": ""
    },
    {
      "id": 190989901,
      "nextDialogs": [
        190989902
      ],
      "talkRole": {
        "type": "TALK_ROLE_NPC",
        "_id": "516"
      },
      "talkContentTextMapHash": 1478737474,
      "talkAssetPath": "",
      "talkAssetPathAlter": "",
      "talkAudioName": "",
      "actionBefore": "",
      "actionWhile": "",
      "actionAfter": "",
      "optionIcon": "",
      "iconPath": ""
    },
    {
      "id": 190989902,
      "talkRole": {
        "type": "TALK_ROLE_NPC",
        "_id": "516"
      },
      "talkContentTextMapHash": 503579722,
      "talkAssetPath": "",
      "talkAssetPathAlter": "",
      "talkAudioName": "",
      "actionBefore": "",
      "actionWhile": "",
      "actionAfter": "",
      "optionIcon": "",
      "iconPath": ""
    },
    {
      "id": 190989903,
      "talkRole": {
        "type": "TALK_ROLE_NPC",
        "_id": "517"
      },
      "talkContentTextMapHash": 342804466,
      "talkAssetPath": "",
      "talkAssetPathAlter": "",
      "talkAudioName": "",
      "actionBefore": "",
      "actionWhile": "",
      "actionAfter": "",
      "optionIcon": "",
      "iconPath": ""
    },
    {
      "id": 190989904,
      "talkRole": {
        "type": "TALK_ROLE_NPC",
        "_id": "517"
      },
      "talkContentTextMapHash": 2898133234,
      "talkAssetPath": "",
      "talkAssetPathAlter": "",
      "talkAudioName": "",
      "actionBefore": "",
      "actionWhile": "",
      "actionAfter": "",
      "optionIcon": "",
      "iconPath": ""
    },
    {
      "id": 190989905,
      "talkRole": {
        "type": "TALK_ROLE_NPC",
        "_id": "13304"
      },
      "talkContentTextMapHash": 2377919922,
      "talkAssetPath": "",
      "talkAssetPathAlter": "",
      "talkAudioName": "",
      "actionBefore": "",
      "actionWhile": "",
      "actionAfter": "",
      "optionIcon": "",
      "iconPath": ""
    },
    {
      "id": 190989906,
      "talkRole": {
        "type": "TALK_ROLE_NPC",
        "_id": "13305"
      },
      "talkContentTextMapHash": 2789513514,
      "talkAssetPath": "",
      "talkAssetPathAlter": "",
      "talkAudioName": "",
      "actionBefore": "",
      "actionWhile": "",
      "actionAfter": "",
      "optionIcon": "",
      "iconPath": ""
    },
    {
      "id": 190989907,
      "talkRole": {
        "type": "TALK_ROLE_NPC",
        "_id": "4125"
      },
      "talkContentTextMapHash": 2479477698,
      "talkAssetPath": "",
      "talkAssetPathAlter": "",
      "talkAudioName": "",
      "actionBefore": "",
      "actionWhile": "",
      "actionAfter": "",
      "optionIcon": "",
      "iconPath": ""
    },
    {
      "id": 190989908,
      "talkRole": {
        "type": "TALK_ROLE_NPC",
        "_id": "4126"
      },
      "talkContentTextMapHash": 2313160394,
      "talkAssetPath": "",
      "talkAssetPathAlter": "",
      "talkAudioName": "",
      "actionBefore": "",
      "actionWhile": "",
      "actionAfter": "",
      "optionIcon": "",
      "iconPath": ""
    },
    {
      "id": 190989909,
      "talkRole": {
        "type": "TALK_ROLE_NPC",
        "_id": "4124"
      },
      "talkContentTextMapHash": 154097410,
      "talkAssetPath": "",
      "talkAssetPathAlter": "",
      "talkAudioName": "",
      "actionBefore": "",
      "actionWhile": "",
      "actionAfter": "",
      "optionIcon": "",
      "iconPath": ""
    },
    {
      "id": 190989910,
      "talkRole": {
        "type": "TALK_ROLE_NPC",
        "_id": "4109"
      },
      "talkContentTextMapHash": 871506698,
      "talkAssetPath": "",
      "talkAssetPathAlter": "",
      "talkAudioName": "",
      "actionBefore": "",
      "actionWhile": "",
      "actionAfter": "",
      "optionIcon": "",
      "iconPath": ""
    }
  ]
}