{
  "id": 19093,
  "resId": 3017,
  "series": 101501,
  "KPGKDHAFHFE": "LQ",
  "titleTextMapHash": 340937479,
  "descTextMapHash": 2750347822,
  "luaPath": "Actor/Quest/LQ19093",
  "suggestTrackMainQuestList": [
    19094,
    19095
  ],
  "suggestTrackOutOfOrder": true,
  "chapterId": 101501,
  "subQuests": [
    {
      "subId": 1909301,
      "mainId": 19093,
      "order": 1,
      "descTextMapHash": 3856568564,
      "GMKDJFPEFFF": [
        1907301,
        330604,
        300406
      ],
      "finishCond": [
        {
          "KPGKDHAFHFE": "QUEST_CONTENT_MAIN_COOP_ENTER_SAVE_POINT",
          "param": [
            101501,
            190930101
          ]
        },
        {
          "KPGKDHAFHFE": "QUEST_CONTENT_MAIN_COOP_ENTER_SAVE_POINT",
          "param": [
            101501,
            190930102
          ]
        }
      ],
      "guide": {
        "KPGKDHAFHFE": "QUEST_GUIDE_LOCATION",
        "param": [
          "[3_4217:2183.860,210.020,-1041.082,0.000,196.100,0.000]"
        ],
        "guideScene": 3,
        "guideStyle": "QUEST_GUIDE_STYLE_POINT",
        "guideLayer": "QUEST_GUIDE_LAYER_SCENE"
      },
      "guideHint": {
        "param1": ""
      },
      "finishParent": true,
      "isRewind": true,
      "finishExec": [
        {
          "KPGKDHAFHFE": "QUEST_EXEC_SET_GAME_TIME",
          "param": [
            "16"
          ]
        },
        {
          "KPGKDHAFHFE": "QUEST_EXEC_UNREGISTER_DYNAMIC_GROUP",
          "param": [
            "133304598,133304600"
          ]
        }
      ],
      "versionBegin": "",
      "versionEnd": ""
    }
  ],
  "talks": [
    {
      "id": 1909305,
      "beginWay": "TALK_BEGIN_MANUAL",
      "beginCond": [
        {
          "type": "QUEST_COND_STATE_EQUAL",
          "_param": [
            "1909301",
            "2"
          ]
        }
      ],
      "priority": 1,
      "initDialog": 190930501,
      "npcId": [
        13456
      ],
      "performCfg": "",
      "heroTalk": "TALK_HERO_MAIN",
      "questId": 19093,
      "assetIndex": 12051098477403840141,
      "prePerformCfg": ""
    },
    {
      "id": 1909306,
      "beginWay": "TALK_BEGIN_MANUAL",
      "beginCond": [
        {
          "type": "QUEST_COND_STATE_EQUAL",
          "_param": [
            "1909301",
            "2"
          ]
        }
      ],
      "priority": 1,
      "initDialog": 190730902,
      "npcId": [
        13304,
        13305
      ],
      "performCfg": "QuestDialogue/COOP/CoopKaeya/Q1907309",
      "heroTalk": "TALK_HERO_MAIN",
      "questId": 19093,
      "assetIndex": 16267910632668798112,
      "prePerformCfg": ""
    }
  ],
  "preloadLuaList": [
    5575916732172504491
  ],
  "dialogList": [
    {
      "id": 190930196,
      "talkRole": {
        "type": "TALK_ROLE_PLAYER",
        "_id": ""
      },
      "talkContentTextMapHash": 285953842,
      "talkAssetPath": "",
      "talkAssetPathAlter": "",
      "talkAudioName": "",
      "actionBefore": "",
      "actionWhile": "",
      "actionAfter": "",
      "optionIcon": "",
      "iconPath": ""
    },
    {
      "id": 190930197,
      "talkRole": {
        "type": "TALK_ROLE_PLAYER",
        "_id": ""
      },
      "talkContentTextMapHash": 412230026,
      "talkAssetPath": "",
      "talkAssetPathAlter": "",
      "talkAudioName": "",
      "actionBefore": "",
      "actionWhile": "",
      "actionAfter": "",
      "optionIcon": "",
      "iconPath": ""
    }
  ]
}