{
  "id": 19113,
  "resId": 3008,
  "series": 105001,
  "KPGKDHAFHFE": "LQ",
  "titleTextMapHash": 515042999,
  "descTextMapHash": 3111080510,
  "luaPath": "Actor/Quest/LQ19113",
  "suggestTrackMainQuestList": [
    19114,
    19115
  ],
  "suggestTrackOutOfOrder": true,
  "chapterId": 105001,
  "subQuests": [
    {
      "subId": 1911301,
      "mainId": 19113,
      "order": 1,
      "descTextMapHash": 1470820716,
      "finishCond": [
        {
          "KPGKDHAFHFE": "QUEST_CONTENT_MAIN_COOP_ENTER_SAVE_POINT",
          "param": [
            105001,
            1911401
          ]
        },
        {
          "KPGKDHAFHFE": "QUEST_CONTENT_MAIN_COOP_ENTER_SAVE_POINT",
          "param": [
            105001,
            1911501
          ]
        }
      ],
      "guide": {
        "KPGKDHAFHFE": "QUEST_GUIDE_NPC",
        "autoGuide": "QUEST_GUIDE_AUTO_ENABLE",
        "param": [
          "503"
        ],
        "guideScene": 1060,
        "guideStyle": "QUEST_GUIDE_STYLE_TARGET",
        "guideLayer": "QUEST_GUIDE_LAYER_SCENE"
      },
      "guideHint": {
        "param1": ""
      },
      "finishParent": true,
      "isRewind": true,
      "versionBegin": "",
      "versionEnd": ""
    },
    {
      "subId": 1911302,
      "mainId": 19113,
      "order": 2,
      "descTextMapHash": 4156014684,
      "showType": "QUEST_HIDDEN",
      "finishCond": [
        {
          "KPGKDHAFHFE": "QUEST_CONTENT_FINISH_PLOT",
          "param": [
            1911302,
            0
          ]
        }
      ],
      "guide": {},
      "guideHint": {
        "param1": ""
      },
      "finishExec": [
        {
          "KPGKDHAFHFE": "QUEST_EXEC_REFRESH_GROUP_SUITE",
          "param": [
            "1060",
            "201060002,4"
          ]
        }
      ],
      "versionBegin": "",
      "versionEnd": ""
    }
  ]
}