{
  "id": 19134,
  "resId": 3012,
  "series": 102701,
  "KPGKDHAFHFE": "LQ",
  "titleTextMapHash": 29339975,
  "descTextMapHash": 380469974,
  "luaPath": "Actor/Quest/LQ19134",
  "chapterId": 102701,
  "subQuests": [
    {
      "subId": 1913401,
      "mainId": 19134,
      "order": 1,
      "descTextMapHash": 564674212,
      "GMKDJFPEFFF": [
        310701
      ],
      "finishCond": [
        {
          "KPGKDHAFHFE": "QUEST_CONTENT_FINISH_PLOT",
          "param": [
            1913401,
            0
          ]
        }
      ],
      "guide": {
        "KPGKDHAFHFE": "QUEST_GUIDE_LOCATION",
        "param": [
          "Q1913402_C1913401Ningguang",
          "30"
        ],
        "guideScene": 3,
        "guideStyle": "QUEST_GUIDE_STYLE_TARGET",
        "guideLayer": "QUEST_GUIDE_LAYER_SCENE"
      },
      "guideHint": {
        "param1": ""
      },
      "isRewind": true,
      "versionBegin": "",
      "versionEnd": ""
    },
    {
      "subId": 1913402,
      "mainId": 19134,
      "order": 2,
      "descTextMapHash": 1922125300,
      "GMKDJFPEFFF": [
        310701
      ],
      "finishCond": [
        {
          "KPGKDHAFHFE": "QUEST_CONTENT_MAIN_COOP_ENTER_SAVE_POINT",
          "param": [
            102701,
            401
          ]
        }
      ],
      "guide": {
        "KPGKDHAFHFE": "QUEST_GUIDE_NPC",
        "param": [
          "2143"
        ],
        "guideScene": 3,
        "guideStyle": "QUEST_GUIDE_STYLE_TARGET",
        "guideLayer": "QUEST_GUIDE_LAYER_SCENE"
      },
      "guideHint": {
        "param1": ""
      },
      "isRewind": true,
      "versionBegin": "",
      "versionEnd": ""
    },
    {
      "subId": 1913403,
      "mainId": 19134,
      "order": 3,
      "subIdSet": 1,
      "descTextMapHash": 2965637380,
      "GMKDJFPEFFF": [
        310701
      ],
      "finishCond": [
        {
          "KPGKDHAFHFE": "QUEST_CONTENT_COMPLETE_TALK",
          "param": [
            1913402,
            0
          ]
        }
      ],
      "guide": {
        "KPGKDHAFHFE": "QUEST_GUIDE_LOCATION",
        "param": [
          "Q1913403_GoodsA"
        ],
        "guideScene": 3,
        "guideStyle": "QUEST_GUIDE_STYLE_TARGET",
        "guideLayer": "QUEST_GUIDE_LAYER_SCENE"
      },
      "guideHint": {
        "param1": ""
      },
      "versionBegin": "",
      "versionEnd": ""
    },
    {
      "subId": 1913404,
      "mainId": 19134,
      "order": 4,
      "subIdSet": 1,
      "descTextMapHash": 1112492228,
      "GMKDJFPEFFF": [
        310701
      ],
      "finishCond": [
        {
          "KPGKDHAFHFE": "QUEST_CONTENT_COMPLETE_TALK",
          "param": [
            1913403,
            0
          ]
        }
      ],
      "guide": {
        "KPGKDHAFHFE": "QUEST_GUIDE_LOCATION",
        "param": [
          "Q1913403_GoodsB"
        ],
        "guideScene": 3,
        "guideStyle": "QUEST_GUIDE_STYLE_TARGET",
        "guideLayer": "QUEST_GUIDE_LAYER_SCENE"
      },
      "guideHint": {
        "param1": ""
      },
      "versionBegin": "",
      "versionEnd": ""
    },
    {
      "subId": 1913405,
      "mainId": 19134,
      "order": 5,
      "subIdSet": 1,
      "descTextMapHash": 549756468,
      "GMKDJFPEFFF": [
        310701
      ],
      "finishCond": [
        {
          "KPGKDHAFHFE": "QUEST_CONTENT_COMPLETE_TALK",
          "param": [
            1913404,
            0
          ]
        }
      ],
      "guide": {
        "KPGKDHAFHFE": "QUEST_GUIDE_LOCATION",
        "param": [
          "Q1913403_GoodsC"
        ],
        "guideScene": 3,
        "guideStyle": "QUEST_GUIDE_STYLE_TARGET",
        "guideLayer": "QUEST_GUIDE_LAYER_SCENE"
      },
      "guideHint": {
        "param1": ""
      },
      "versionBegin": "",
      "versionEnd": ""
    },
    {
      "subId": 1913406,
      "mainId": 19134,
      "order": 6,
      "descTextMapHash": 2487774940,
      "showType": "QUEST_HIDDEN",
      "finishCond": [
        {
          "KPGKDHAFHFE": "QUEST_CONTENT_QUEST_STATE_EQUAL",
          "param": [
            1913403,
            3
          ]
        },
        {
          "KPGKDHAFHFE": "QUEST_CONTENT_QUEST_STATE_EQUAL",
          "param": [
            1913404,
            3
          ]
        },
        {
          "KPGKDHAFHFE": "QUEST_CONTENT_QUEST_STATE_EQUAL",
          "param": [
            1913405,
            3
          ]
        }
      ],
      "guide": {},
      "guideHint": {
        "param1": ""
      },
      "isRewind": true,
      "versionBegin": "",
      "versionEnd": ""
    },
    {
      "subId": 1913407,
      "mainId": 19134,
      "order": 7,
      "descTextMapHash": 3691023892,
      "GMKDJFPEFFF": [
        310701
      ],
      "finishCond": [
        {
          "KPGKDHAFHFE": "QUEST_CONTENT_GAME_TIME_TICK",
          "param": [
            0,
            0
          ]
        }
      ],
      "guide": {},
      "guideHint": {
        "param1": ""
      },
      "isRewind": true,
      "versionBegin": "",
      "versionEnd": ""
    },
    {
      "subId": 1913408,
      "mainId": 19134,
      "order": 8,
      "descTextMapHash": 3817492892,
      "GMKDJFPEFFF": [
        310701
      ],
      "finishCond": [
        {
          "KPGKDHAFHFE": "QUEST_CONTENT_MAIN_COOP_ENTER_SAVE_POINT",
          "param": [
            102701,
            402
          ]
        }
      ],
      "guide": {
        "KPGKDHAFHFE": "QUEST_GUIDE_LOCATION",
        "param": [
          "Q1913402_C1913401Ningguang",
          "30"
        ],
        "guideScene": 3,
        "guideStyle": "QUEST_GUIDE_STYLE_TARGET",
        "guideLayer": "QUEST_GUIDE_LAYER_SCENE"
      },
      "guideHint": {
        "param1": ""
      },
      "isRewind": true,
      "finishExec": [
        {
          "KPGKDHAFHFE": "QUEST_EXEC_REFRESH_GROUP_SUITE",
          "param": [
            "3",
            "133107229,2"
          ]
        }
      ],
      "versionBegin": "",
      "versionEnd": ""
    },
    {
      "subId": 1913409,
      "mainId": 19134,
      "order": 9,
      "subIdSet": 2,
      "descTextMapHash": 39238316,
      "GMKDJFPEFFF": [
        310701
      ],
      "finishCond": [
        {
          "KPGKDHAFHFE": "QUEST_CONTENT_COMPLETE_TALK",
          "param": [
            1913409,
            0
          ]
        }
      ],
      "guide": {
        "KPGKDHAFHFE": "QUEST_GUIDE_NPC",
        "param": [
          "12303"
        ],
        "guideScene": 3,
        "guideStyle": "QUEST_GUIDE_STYLE_TARGET",
        "guideLayer": "QUEST_GUIDE_LAYER_SCENE"
      },
      "guideHint": {
        "param1": ""
      },
      "versionBegin": "",
      "versionEnd": ""
    },
    {
      "subId": 1913410,
      "mainId": 19134,
      "order": 10,
      "subIdSet": 2,
      "descTextMapHash": 242013124,
      "GMKDJFPEFFF": [
        310701
      ],
      "finishCond": [
        {
          "KPGKDHAFHFE": "QUEST_CONTENT_COMPLETE_TALK",
          "param": [
            1913410,
            0
          ]
        }
      ],
      "guide": {
        "KPGKDHAFHFE": "QUEST_GUIDE_NPC",
        "param": [
          "12304"
        ],
        "guideScene": 3,
        "guideStyle": "QUEST_GUIDE_STYLE_TARGET",
        "guideLayer": "QUEST_GUIDE_LAYER_SCENE"
      },
      "guideHint": {
        "param1": ""
      },
      "versionBegin": "",
      "versionEnd": ""
    },
    {
      "subId": 1913411,
      "mainId": 19134,
      "order": 11,
      "subIdSet": 2,
      "descTextMapHash": 1222139996,
      "GMKDJFPEFFF": [
        310701
      ],
      "finishCond": [
        {
          "KPGKDHAFHFE": "QUEST_CONTENT_COMPLETE_TALK",
          "param": [
            1913411,
            0
          ]
        }
      ],
      "guide": {
        "KPGKDHAFHFE": "QUEST_GUIDE_NPC",
        "param": [
          "12305"
        ],
        "guideScene": 3,
        "guideStyle": "QUEST_GUIDE_STYLE_TARGET",
        "guideLayer": "QUEST_GUIDE_LAYER_SCENE"
      },
      "guideHint": {
        "param1": ""
      },
      "versionBegin": "",
      "versionEnd": ""
    },
    {
      "subId": 1913412,
      "mainId": 19134,
      "order": 12,
      "descTextMapHash": 1578779348,
      "showType": "QUEST_HIDDEN",
      "GMKDJFPEFFF": [
        310701
      ],
      "finishCond": [
        {
          "KPGKDHAFHFE": "QUEST_CONTENT_QUEST_STATE_EQUAL",
          "param": [
            1913409,
            3
          ]
        },
        {
          "KPGKDHAFHFE": "QUEST_CONTENT_QUEST_STATE_EQUAL",
          "param": [
            1913410,
            3
          ]
        },
        {
          "KPGKDHAFHFE": "QUEST_CONTENT_QUEST_STATE_EQUAL",
          "param": [
            1913411,
            3
          ]
        }
      ],
      "guide": {},
      "guideHint": {
        "param1": ""
      },
      "isRewind": true,
      "versionBegin": "",
      "versionEnd": ""
    },
    {
      "subId": 1913413,
      "mainId": 19134,
      "order": 13,
      "descTextMapHash": 2715275684,
      "GMKDJFPEFFF": [
        310701
      ],
      "finishCond": [
        {
          "KPGKDHAFHFE": "QUEST_CONTENT_MAIN_COOP_ENTER_SAVE_POINT",
          "param": [
            102701,
            2
          ]
        }
      ],
      "guide": {
        "KPGKDHAFHFE": "QUEST_GUIDE_NPC",
        "param": [
          "508"
        ],
        "guideScene": 3,
        "guideStyle": "QUEST_GUIDE_STYLE_TARGET",
        "guideLayer": "QUEST_GUIDE_LAYER_SCENE"
      },
      "guideHint": {
        "param1": ""
      },
      "finishParent": true,
      "isRewind": true,
      "finishExec": [
        {
          "KPGKDHAFHFE": "QUEST_EXEC_UNREGISTER_DYNAMIC_GROUP",
          "param": [
            "133107229"
          ]
        },
        {
          "KPGKDHAFHFE": "QUEST_EXEC_SET_QUEST_GLOBAL_VAR",
          "param": [
            "1913101",
            "0"
          ]
        }
      ],
      "versionBegin": "",
      "versionEnd": ""
    },
    {
      "subId": 1913414,
      "mainId": 19134,
      "order": 20,
      "showType": "QUEST_HIDDEN",
      "finishCond": [
        {
          "KPGKDHAFHFE": "QUEST_CONTENT_MAIN_COOP_ENTER_SAVE_POINT",
          "param": [
            102701,
            401
          ]
        }
      ],
      "guide": {},
      "guideHint": {
        "param1": ""
      },
      "versionBegin": "",
      "versionEnd": ""
    }
  ],
  "talks": [
    {
      "id": 1913402,
      "beginWay": "TALK_BEGIN_MANUAL",
      "beginCond": [
        {
          "type": "QUEST_COND_STATE_EQUAL",
          "_param": [
            "1913403",
            "2"
          ]
        }
      ],
      "priority": 5,
      "initDialog": 191340201,
      "npcId": [
        12312
      ],
      "performCfg": "",
      "heroTalk": "TALK_HERO_MAIN",
      "questId": 19134,
      "assetIndex": 15841428259450901436,
      "prePerformCfg": ""
    },
    {
      "id": 1913403,
      "beginWay": "TALK_BEGIN_MANUAL",
      "beginCond": [
        {
          "type": "QUEST_COND_STATE_EQUAL",
          "_param": [
            "1913404",
            "2"
          ]
        }
      ],
      "priority": 5,
      "initDialog": 191340301,
      "npcId": [
        12313
      ],
      "performCfg": "",
      "heroTalk": "TALK_HERO_MAIN",
      "questId": 19134,
      "assetIndex": 11922598552779863320,
      "prePerformCfg": ""
    },
    {
      "id": 1913404,
      "beginWay": "TALK_BEGIN_MANUAL",
      "beginCond": [
        {
          "type": "QUEST_COND_STATE_EQUAL",
          "_param": [
            "1913405",
            "2"
          ]
        }
      ],
      "priority": 5,
      "initDialog": 191340401,
      "npcId": [
        12314
      ],
      "performCfg": "",
      "heroTalk": "TALK_HERO_MAIN",
      "questId": 19134,
      "assetIndex": 16726819690889379335,
      "prePerformCfg": ""
    },
    {
      "id": 1913405,
      "beginWay": "TALK_BEGIN_MANUAL",
      "beginCondComb": "LOGIC_OR",
      "beginCond": [
        {
          "type": "QUEST_COND_STATE_EQUAL",
          "_param": [
            "1913406",
            "2"
          ]
        },
        {
          "type": "QUEST_COND_STATE_EQUAL",
          "_param": [
            "1913407",
            "2"
          ]
        },
        {
          "type": "QUEST_COND_STATE_EQUAL",
          "_param": [
            "1913401",
            "2"
          ]
        },
        {
          "type": "QUEST_COND_STATE_EQUAL",
          "_param": [
            "1913402",
            "2"
          ]
        }
      ],
      "priority": 5,
      "initDialog": 191340501,
      "npcId": [
        12303
      ],
      "performCfg": "QuestDialogue/COOP/CoopNingguang/Q1913405",
      "heroTalk": "TALK_HERO_MAIN",
      "questId": 19134,
      "assetIndex": 14026286626276648199,
      "prePerformCfg": ""
    },
    {
      "id": 1913406,
      "beginWay": "TALK_BEGIN_MANUAL",
      "beginCondComb": "LOGIC_OR",
      "beginCond": [
        {
          "type": "QUEST_COND_STATE_EQUAL",
          "_param": [
            "1913406",
            "2"
          ]
        },
        {
          "type": "QUEST_COND_STATE_EQUAL",
          "_param": [
            "1913407",
            "2"
          ]
        },
        {
          "type": "QUEST_COND_STATE_EQUAL",
          "_param": [
            "1913401",
            "2"
          ]
        },
        {
          "type": "QUEST_COND_STATE_EQUAL",
          "_param": [
            "1913402",
            "2"
          ]
        }
      ],
      "priority": 5,
      "initDialog": 191340601,
      "npcId": [
        12304
      ],
      "performCfg": "QuestDialogue/COOP/CoopNingguang/Q1913406",
      "heroTalk": "TALK_HERO_MAIN",
      "questId": 19134,
      "assetIndex": 1064031739927719853,
      "prePerformCfg": ""
    },
    {
      "id": 1913407,
      "beginWay": "TALK_BEGIN_MANUAL",
      "beginCondComb": "LOGIC_OR",
      "beginCond": [
        {
          "type": "QUEST_COND_STATE_EQUAL",
          "_param": [
            "1913406",
            "2"
          ]
        },
        {
          "type": "QUEST_COND_STATE_EQUAL",
          "_param": [
            "1913407",
            "2"
          ]
        },
        {
          "type": "QUEST_COND_STATE_EQUAL",
          "_param": [
            "1913401",
            "2"
          ]
        },
        {
          "type": "QUEST_COND_STATE_EQUAL",
          "_param": [
            "1913402",
            "2"
          ]
        }
      ],
      "priority": 5,
      "initDialog": 191340701,
      "npcId": [
        12305
      ],
      "performCfg": "QuestDialogue/COOP/CoopNingguang/Q1913407",
      "heroTalk": "TALK_HERO_MAIN",
      "questId": 19134,
      "assetIndex": 394586876347127067,
      "prePerformCfg": ""
    },
    {
      "id": 1913409,
      "beginWay": "TALK_BEGIN_MANUAL",
      "beginCondComb": "LOGIC_OR",
      "beginCond": [
        {
          "type": "QUEST_COND_STATE_EQUAL",
          "_param": [
            "1913412",
            "2"
          ]
        },
        {
          "type": "QUEST_COND_STATE_EQUAL",
          "_param": [
            "1913413",
            "2"
          ]
        }
      ],
      "priority": 5,
      "initDialog": 191340901,
      "npcId": [
        12303
      ],
      "performCfg": "QuestDialogue/COOP/CoopNingguang/Q1913409",
      "heroTalk": "TALK_HERO_MAIN",
      "questId": 19134,
      "assetIndex": 902609858809393911,
      "prePerformCfg": ""
    },
    {
      "id": 1913410,
      "beginWay": "TALK_BEGIN_MANUAL",
      "beginCondComb": "LOGIC_OR",
      "beginCond": [
        {
          "type": "QUEST_COND_STATE_EQUAL",
          "_param": [
            "1913412",
            "2"
          ]
        },
        {
          "type": "QUEST_COND_STATE_EQUAL",
          "_param": [
            "1913413",
            "2"
          ]
        }
      ],
      "priority": 5,
      "initDialog": 191341001,
      "npcId": [
        12304
      ],
      "performCfg": "QuestDialogue/COOP/CoopNingguang/Q1913410",
      "heroTalk": "TALK_HERO_MAIN",
      "questId": 19134,
      "assetIndex": 6899980378241364264,
      "prePerformCfg": ""
    },
    {
      "id": 1913411,
      "beginWay": "TALK_BEGIN_MANUAL",
      "beginCondComb": "LOGIC_OR",
      "beginCond": [
        {
          "type": "QUEST_COND_STATE_EQUAL",
          "_param": [
            "1913412",
            "2"
          ]
        },
        {
          "type": "QUEST_COND_STATE_EQUAL",
          "_param": [
            "1913413",
            "2"
          ]
        }
      ],
      "priority": 5,
      "initDialog": 191341101,
      "npcId": [
        12305
      ],
      "performCfg": "QuestDialogue/COOP/CoopNingguang/Q1913411",
      "heroTalk": "TALK_HERO_MAIN",
      "questId": 19134,
      "assetIndex": 532272301469256696,
      "prePerformCfg": ""
    },
    {
      "id": 1913413,
      "beginCond": [
        {
          "type": "QUEST_COND_STATE_EQUAL",
          "_param": [
            "99902",
            "3"
          ]
        }
      ],
      "priority": 5,
      "initDialog": 191340114,
      "npcId": [
        508
      ],
      "performCfg": "",
      "heroTalk": "TALK_HERO_MAIN",
      "questId": 19134,
      "assetIndex": 3001517575425588516,
      "prePerformCfg": ""
    },
    {
      "id": 1913414,
      "beginWay": "TALK_BEGIN_MANUAL",
      "beginCondComb": "LOGIC_OR",
      "beginCond": [
        {
          "type": "QUEST_COND_STATE_EQUAL",
          "_param": [
            "1913406",
            "2"
          ]
        },
        {
          "type": "QUEST_COND_STATE_EQUAL",
          "_param": [
            "1913407",
            "2"
          ]
        }
      ],
      "priority": 5,
      "initDialog": 191341401,
      "npcId": [
        508
      ],
      "performCfg": "QuestDialogue/COOP/CoopNingguang/Q1913414",
      "heroTalk": "TALK_HERO_MAIN",
      "questId": 19134,
      "assetIndex": 698763983854924278,
      "prePerformCfg": "",
      "enableCameraDisplacement": true
    },
    {
      "id": 1913415,
      "beginWay": "TALK_BEGIN_MANUAL",
      "beginCond": [
        {
          "type": "QUEST_COND_STATE_EQUAL",
          "_param": [
            "1913412",
            "2"
          ]
        }
      ],
      "priority": 5,
      "initDialog": 191341501,
      "npcId": [
        508
      ],
      "performCfg": "QuestDialogue/COOP/CoopNingguang/Q1913415",
      "heroTalk": "TALK_HERO_MAIN",
      "questId": 19134,
      "assetIndex": 10355349318275618118,
      "prePerformCfg": "",
      "enableCameraDisplacement": true
    },
    {
      "id": 1913416,
      "beginWay": "TALK_BEGIN_MANUAL",
      "beginCond": [
        {
          "type": "QUEST_COND_STATE_EQUAL",
          "_param": [
            "1913401",
            "2"
          ]
        }
      ],
      "priority": 5,
      "initDialog": 191321501,
      "npcId": [
        2146
      ],
      "performCfg": "QuestDialogue/COOP/CoopNingguang/Q1913215",
      "heroTalk": "TALK_HERO_MAIN",
      "questId": 19134,
      "assetIndex": 10712377106793875111,
      "prePerformCfg": ""
    }
  ],
  "preloadLuaList": [
    9679618878916267493,
    4496418237757660029
  ],
  "forcePreloadLuaList": [
    2355205058967850198
  ],
  "freeStyleDic": {
    "2143": [
      1320,
      1190
    ],
    "2142": [
      1120
    ],
    "2140": [
      1230
    ],
    "12303": [
      0
    ],
    "12305": [
      0
    ]
  }
}