{
  "id": 19144,
  "resId": 3013,
  "series": 106501,
  "KPGKDHAFHFE": "LQ",
  "titleTextMapHash": 1309828047,
  "descTextMapHash": 3185316934,
  "luaPath": "Actor/Quest/LQ19144",
  "chapterId": 106501,
  "subQuests": [
    {
      "subId": 1914401,
      "mainId": 19144,
      "order": 1,
      "descTextMapHash": 2433327420,
      "stepDescTextMapHash": 1261756677,
      "finishCond": [
        {
          "KPGKDHAFHFE": "QUEST_CONTENT_MAIN_COOP_ENTER_SAVE_POINT",
          "param": [
            106501,
            191440101
          ]
        }
      ],
      "guide": {
        "KPGKDHAFHFE": "QUEST_GUIDE_NPC",
        "param": [
          "12277"
        ],
        "guideScene": 3,
        "guideStyle": "QUEST_GUIDE_STYLE_TARGET",
        "guideLayer": "QUEST_GUIDE_LAYER_SCENE"
      },
      "guideHint": {
        "param1": ""
      },
      "isRewind": true,
      "versionBegin": "",
      "versionEnd": ""
    },
    {
      "subId": 1914402,
      "mainId": 19144,
      "order": 2,
      "descTextMapHash": 144516004,
      "GMKDJFPEFFF": [
        106601
      ],
      "finishCond": [
        {
          "KPGKDHAFHFE": "QUEST_CONTENT_MAIN_COOP_ENTER_SAVE_POINT",
          "param": [
            106501,
            191440201
          ]
        }
      ],
      "guide": {
        "KPGKDHAFHFE": "QUEST_GUIDE_LOCATION",
        "param": [
          "Q4005705_N3000",
          "20"
        ],
        "guideScene": 1066,
        "guideStyle": "QUEST_GUIDE_STYLE_POINT",
        "guideLayer": "QUEST_GUIDE_LAYER_SCENE"
      },
      "guideHint": {
        "param1": ""
      },
      "isRewind": true,
      "versionBegin": "",
      "versionEnd": ""
    },
    {
      "subId": 1914403,
      "mainId": 19144,
      "order": 3,
      "descTextMapHash": 858518244,
      "stepDescTextMapHash": 2451701981,
      "GMKDJFPEFFF": [
        106601
      ],
      "finishCond": [
        {
          "KPGKDHAFHFE": "QUEST_CONTENT_MAIN_COOP_ENTER_SAVE_POINT",
          "param": [
            106501,
            191440301
          ]
        }
      ],
      "guide": {
        "KPGKDHAFHFE": "QUEST_GUIDE_LOCATION",
        "param": [
          "Q1914403_C1914403_N1044",
          "20"
        ],
        "guideScene": 3,
        "guideStyle": "QUEST_GUIDE_STYLE_POINT",
        "guideLayer": "QUEST_GUIDE_LAYER_SCENE"
      },
      "guideHint": {
        "param1": ""
      },
      "isRewind": true,
      "versionBegin": "",
      "versionEnd": ""
    },
    {
      "subId": 1914404,
      "mainId": 19144,
      "order": 5,
      "descTextMapHash": 1084721068,
      "GMKDJFPEFFF": [
        4005605
      ],
      "finishCond": [
        {
          "KPGKDHAFHFE": "QUEST_CONTENT_MAIN_COOP_ENTER_SAVE_POINT",
          "param": [
            106501,
            191440401
          ]
        }
      ],
      "guide": {
        "KPGKDHAFHFE": "QUEST_GUIDE_LOCATION",
        "param": [
          "Q1914404_guide",
          "15"
        ],
        "guideScene": 3,
        "guideStyle": "QUEST_GUIDE_STYLE_POINT",
        "guideLayer": "QUEST_GUIDE_LAYER_SCENE"
      },
      "guideHint": {
        "param1": ""
      },
      "isRewind": true,
      "finishExec": [
        {
          "KPGKDHAFHFE": "QUEST_EXEC_UNREGISTER_DYNAMIC_GROUP",
          "param": [
            "133221078"
          ]
        }
      ],
      "versionBegin": "",
      "versionEnd": ""
    },
    {
      "subId": 1914405,
      "mainId": 19144,
      "order": 6,
      "descTextMapHash": 1919348188,
      "stepDescTextMapHash": 3360147629,
      "finishCond": [
        {
          "KPGKDHAFHFE": "QUEST_CONTENT_MAIN_COOP_ENTER_SAVE_POINT",
          "param": [
            106501,
            191440501
          ]
        }
      ],
      "guide": {
        "KPGKDHAFHFE": "QUEST_GUIDE_NPC",
        "param": [
          "3015"
        ],
        "guideScene": 3,
        "guideStyle": "QUEST_GUIDE_STYLE_TARGET",
        "guideLayer": "QUEST_GUIDE_LAYER_SCENE"
      },
      "guideHint": {
        "param1": ""
      },
      "isRewind": true,
      "versionBegin": "",
      "versionEnd": ""
    },
    {
      "subId": 1914406,
      "mainId": 19144,
      "order": 7,
      "descTextMapHash": 3742954124,
      "finishCond": [
        {
          "KPGKDHAFHFE": "QUEST_CONTENT_MAIN_COOP_ENTER_SAVE_POINT",
          "param": [
            106501,
            191440601
          ]
        }
      ],
      "guide": {
        "KPGKDHAFHFE": "QUEST_GUIDE_NPC",
        "param": [
          "3002"
        ],
        "guideScene": 3,
        "guideStyle": "QUEST_GUIDE_STYLE_TARGET",
        "guideLayer": "QUEST_GUIDE_LAYER_SCENE"
      },
      "guideHint": {
        "param1": ""
      },
      "isRewind": true,
      "versionBegin": "",
      "versionEnd": ""
    },
    {
      "subId": 1914407,
      "mainId": 19144,
      "order": 8,
      "descTextMapHash": 929776428,
      "finishCond": [
        {
          "KPGKDHAFHFE": "QUEST_CONTENT_MAIN_COOP_ENTER_SAVE_POINT",
          "param": [
            106501,
            191440701
          ]
        }
      ],
      "guide": {
        "KPGKDHAFHFE": "QUEST_GUIDE_NPC",
        "param": [
          "3045"
        ],
        "guideScene": 3,
        "guideStyle": "QUEST_GUIDE_STYLE_TARGET",
        "guideLayer": "QUEST_GUIDE_LAYER_SCENE"
      },
      "guideHint": {
        "param1": ""
      },
      "isRewind": true,
      "versionBegin": "",
      "versionEnd": ""
    },
    {
      "subId": 1914408,
      "mainId": 19144,
      "order": 9,
      "descTextMapHash": 1304578196,
      "finishCond": [
        {
          "KPGKDHAFHFE": "QUEST_CONTENT_MAIN_COOP_ENTER_SAVE_POINT",
          "param": [
            106501,
            191440801
          ]
        }
      ],
      "guide": {
        "KPGKDHAFHFE": "QUEST_GUIDE_LOCATION",
        "param": [
          "Q1914408_guide",
          "10"
        ],
        "guideScene": 3,
        "guideStyle": "QUEST_GUIDE_STYLE_POINT",
        "guideLayer": "QUEST_GUIDE_LAYER_SCENE"
      },
      "guideHint": {
        "param1": ""
      },
      "finishParent": true,
      "isRewind": true,
      "finishExec": [
        {
          "KPGKDHAFHFE": "QUEST_EXEC_UNREGISTER_DYNAMIC_GROUP",
          "param": [
            "133221079"
          ]
        }
      ],
      "versionBegin": "",
      "versionEnd": ""
    },
    {
      "subId": 1914409,
      "mainId": 19144,
      "order": 4,
      "descTextMapHash": 1580953412,
      "showType": "QUEST_HIDDEN",
      "finishCond": [
        {
          "KPGKDHAFHFE": "QUEST_CONTENT_FINISH_PLOT",
          "param": [
            1914409,
            0
          ]
        }
      ],
      "failCond": [
        {
          "KPGKDHAFHFE": "QUEST_CONTENT_QUEST_STATE_EQUAL",
          "param": [
            1914403,
            3
          ]
        }
      ],
      "guide": {},
      "guideHint": {
        "param1": ""
      },
      "versionBegin": "",
      "versionEnd": ""
    }
  ],
  "talks": [
    {
      "id": 1914409,
      "beginWay": "TALK_BEGIN_MANUAL",
      "beginCond": [
        {
          "type": "QUEST_COND_STATE_EQUAL",
          "_param": [
            "1914402",
            "2"
          ]
        }
      ],
      "priority": 5,
      "initDialog": 191440901,
      "npcId": [
        12276,
        12277
      ],
      "performCfg": "QuestDialogue/COOP/CoopShinobu/Q1914409",
      "heroTalk": "TALK_HERO_MAIN",
      "questId": 19144,
      "assetIndex": 3875366629286444558,
      "prePerformCfg": ""
    },
    {
      "id": 1914410,
      "beginWay": "TALK_BEGIN_MANUAL",
      "beginCond": [
        {
          "type": "QUEST_COND_STATE_EQUAL",
          "_param": [
            "1914402",
            "2"
          ]
        }
      ],
      "priority": 5,
      "initDialog": 191441001,
      "npcId": [
        3008
      ],
      "performCfg": "QuestDialogue/COOP/CoopShinobu/Q1914410",
      "heroTalk": "TALK_HERO_MAIN",
      "questId": 19144,
      "assetIndex": 13369891315825709077,
      "prePerformCfg": ""
    },
    {
      "id": 1914411,
      "beginWay": "TALK_BEGIN_MANUAL",
      "beginCond": [
        {
          "type": "QUEST_COND_STATE_EQUAL",
          "_param": [
            "1914408",
            "2"
          ]
        }
      ],
      "priority": 5,
      "initDialog": 191441101,
      "npcId": [
        3045
      ],
      "performCfg": "QuestDialogue/COOP/CoopShinobu/Q1914411",
      "heroTalk": "TALK_HERO_MAIN",
      "questId": 19144,
      "assetIndex": 4107306177704770425,
      "prePerformCfg": ""
    },
    {
      "id": 1914412,
      "beginWay": "TALK_BEGIN_MANUAL",
      "beginCond": [
        {
          "type": "QUEST_COND_STATE_EQUAL",
          "_param": [
            "1914402",
            "2"
          ]
        }
      ],
      "priority": 5,
      "initDialog": 191441201,
      "npcId": [
        12278
      ],
      "performCfg": "QuestDialogue/COOP/CoopShinobu/Q1914412",
      "heroTalk": "TALK_HERO_MAIN",
      "questId": 19144,
      "assetIndex": 18337494156152174753,
      "prePerformCfg": ""
    },
    {
      "id": 1914419,
      "beginWay": "TALK_BEGIN_MANUAL",
      "beginCond": [
        {
          "type": "QUEST_COND_STATE_EQUAL",
          "_param": [
            "1914404",
            "2"
          ]
        }
      ],
      "priority": 5,
      "initDialog": 191441901,
      "npcId": [
        1044
      ],
      "performCfg": "QuestDialogue/COOP/CoopShinobu/Q1914419",
      "heroTalk": "TALK_HERO_MAIN",
      "questId": 19144,
      "assetIndex": 16306697087911530390,
      "prePerformCfg": ""
    },
    {
      "id": 1914420,
      "beginWay": "TALK_BEGIN_MANUAL",
      "beginCondComb": "LOGIC_OR",
      "beginCond": [
        {
          "type": "QUEST_COND_STATE_EQUAL",
          "_param": [
            "1914401",
            "2"
          ]
        },
        {
          "type": "QUEST_COND_STATE_EQUAL",
          "_param": [
            "1914402",
            "2"
          ]
        },
        {
          "type": "QUEST_COND_STATE_EQUAL",
          "_param": [
            "1914403",
            "2"
          ]
        },
        {
          "type": "QUEST_COND_STATE_EQUAL",
          "_param": [
            "1914404",
            "2"
          ]
        },
        {
          "type": "QUEST_COND_STATE_EQUAL",
          "_param": [
            "1914405",
            "2"
          ]
        },
        {
          "type": "QUEST_COND_STATE_EQUAL",
          "_param": [
            "1914406",
            "2"
          ]
        }
      ],
      "priority": 5,
      "initDialog": 191442001,
      "npcId": [
        12682
      ],
      "performCfg": "",
      "heroTalk": "TALK_HERO_MAIN",
      "questId": 19144,
      "assetIndex": 11917712525230755921,
      "prePerformCfg": ""
    },
    {
      "id": 1914421,
      "beginWay": "TALK_BEGIN_MANUAL",
      "beginCondComb": "LOGIC_OR",
      "beginCond": [
        {
          "type": "QUEST_COND_STATE_EQUAL",
          "_param": [
            "1914407",
            "2"
          ]
        },
        {
          "type": "QUEST_COND_STATE_EQUAL",
          "_param": [
            "1914408",
            "2"
          ]
        }
      ],
      "priority": 5,
      "initDialog": 191442101,
      "npcId": [
        12682
      ],
      "performCfg": "",
      "heroTalk": "TALK_HERO_MAIN",
      "questId": 19144,
      "assetIndex": 4704998832454777830,
      "prePerformCfg": ""
    }
  ],
  "preloadLuaList": [
    16009439848536102196,
    17969441802402049894,
    14122911756147965845,
    16193633283062770011,
    12342529209933592884,
    16706924136267584561,
    14820699029980398472,
    1332442805786455737
  ],
  "forcePreloadLuaList": [
    17208655175343530136
  ],
  "freeStyleDic": {
    "12276": [
      1190,
      1050
    ],
    "12277": [
      4110,
      1230
    ],
    "12278": [
      1230,
      1190,
      1180
    ],
    "1044": [
      1190,
      1120
    ]
  }
}