{
  "id": 19143,
  "resId": 3013,
  "series": 106501,
  "KPGKDHAFHFE": "LQ",
  "titleTextMapHash": 1306845191,
  "descTextMapHash": 3199988606,
  "luaPath": "Actor/Quest/LQ19143",
  "suggestTrackMainQuestList": [
    19147,
    19148
  ],
  "suggestTrackOutOfOrder": true,
  "chapterId": 106501,
  "subQuests": [
    {
      "subId": 1914301,
      "mainId": 19143,
      "order": 2,
      "descTextMapHash": 1538605132,
      "finishCond": [
        {
          "KPGKDHAFHFE": "QUEST_CONTENT_COMPLETE_TALK",
          "param": [
            1914309,
            0
          ]
        },
        {
          "KPGKDHAFHFE": "QUEST_CONTENT_QUEST_STATE_EQUAL",
          "param": [
            1914303,
            3
          ]
        }
      ],
      "guide": {
        "KPGKDHAFHFE": "QUEST_GUIDE_LOCATION",
        "param": [
          "Q1914301_guide",
          "30"
        ],
        "guideScene": 3,
        "guideStyle": "QUEST_GUIDE_STYLE_POINT",
        "guideLayer": "QUEST_GUIDE_LAYER_SCENE"
      },
      "guideHint": {
        "param1": ""
      },
      "versionBegin": "",
      "versionEnd": ""
    },
    {
      "subId": 1914302,
      "mainId": 19143,
      "order": 3,
      "descTextMapHash": 3598663700,
      "finishCond": [
        {
          "KPGKDHAFHFE": "QUEST_CONTENT_MAIN_COOP_ENTER_SAVE_POINT",
          "param": [
            106501,
            191430201
          ]
        },
        {
          "KPGKDHAFHFE": "QUEST_CONTENT_QUEST_STATE_EQUAL",
          "param": [
            1914303,
            3
          ]
        }
      ],
      "guide": {
        "KPGKDHAFHFE": "QUEST_GUIDE_LOCATION",
        "param": [
          "Q1914301_guide",
          "30"
        ],
        "guideScene": 3,
        "guideStyle": "QUEST_GUIDE_STYLE_POINT",
        "guideLayer": "QUEST_GUIDE_LAYER_SCENE"
      },
      "guideHint": {
        "param1": ""
      },
      "versionBegin": "",
      "versionEnd": ""
    },
    {
      "subId": 1914303,
      "mainId": 19143,
      "order": 1,
      "descTextMapHash": 67089196,
      "showType": "QUEST_HIDDEN",
      "finishCond": [
        {
          "KPGKDHAFHFE": "QUEST_CONTENT_MAIN_COOP_ENTER_SAVE_POINT",
          "param": [
            106501,
            191430201
          ]
        }
      ],
      "guide": {},
      "guideHint": {
        "param1": ""
      },
      "isRewind": true,
      "versionBegin": "",
      "versionEnd": ""
    },
    {
      "subId": 1914304,
      "mainId": 19143,
      "order": 5,
      "descTextMapHash": 2978708604,
      "finishCond": [
        {
          "KPGKDHAFHFE": "QUEST_CONTENT_COMPLETE_TALK",
          "param": [
            1914310,
            0
          ]
        },
        {
          "KPGKDHAFHFE": "QUEST_CONTENT_QUEST_STATE_EQUAL",
          "param": [
            1914306,
            3
          ]
        }
      ],
      "guide": {
        "KPGKDHAFHFE": "QUEST_GUIDE_LOCATION",
        "param": [
          "Q1914304_guide",
          "30"
        ],
        "guideScene": 3,
        "guideStyle": "QUEST_GUIDE_STYLE_POINT",
        "guideLayer": "QUEST_GUIDE_LAYER_SCENE"
      },
      "guideHint": {
        "param1": ""
      },
      "versionBegin": "",
      "versionEnd": ""
    },
    {
      "subId": 1914305,
      "mainId": 19143,
      "order": 6,
      "descTextMapHash": 4057147540,
      "finishCond": [
        {
          "KPGKDHAFHFE": "QUEST_CONTENT_MAIN_COOP_ENTER_SAVE_POINT",
          "param": [
            106501,
            191430501
          ]
        },
        {
          "KPGKDHAFHFE": "QUEST_CONTENT_QUEST_STATE_EQUAL",
          "param": [
            1914306,
            3
          ]
        }
      ],
      "guide": {
        "KPGKDHAFHFE": "QUEST_GUIDE_LOCATION",
        "param": [
          "Q1914304_guide",
          "30"
        ],
        "guideScene": 3,
        "guideStyle": "QUEST_GUIDE_STYLE_POINT",
        "guideLayer": "QUEST_GUIDE_LAYER_SCENE"
      },
      "guideHint": {
        "param1": ""
      },
      "versionBegin": "",
      "versionEnd": ""
    },
    {
      "subId": 1914306,
      "mainId": 19143,
      "order": 4,
      "descTextMapHash": 3743984276,
      "showType": "QUEST_HIDDEN",
      "finishCond": [
        {
          "KPGKDHAFHFE": "QUEST_CONTENT_MAIN_COOP_ENTER_SAVE_POINT",
          "param": [
            106501,
            191430501
          ]
        }
      ],
      "guide": {},
      "guideHint": {
        "param1": ""
      },
      "isRewind": true,
      "versionBegin": "",
      "versionEnd": ""
    },
    {
      "subId": 1914307,
      "mainId": 19143,
      "order": 7,
      "descTextMapHash": 1118208364,
      "finishCond": [
        {
          "KPGKDHAFHFE": "QUEST_CONTENT_MAIN_COOP_ENTER_SAVE_POINT",
          "param": [
            106501,
            191430701
          ]
        }
      ],
      "guide": {
        "KPGKDHAFHFE": "QUEST_GUIDE_LOCATION",
        "param": [
          "Q1914307_guide",
          "20"
        ],
        "guideScene": 3,
        "guideLayer": "QUEST_GUIDE_LAYER_SCENE"
      },
      "guideHint": {
        "param1": ""
      },
      "isRewind": true,
      "finishExec": [
        {
          "KPGKDHAFHFE": "QUEST_EXEC_UNREGISTER_DYNAMIC_GROUP",
          "param": [
            "133221078"
          ]
        }
      ],
      "versionBegin": "",
      "versionEnd": ""
    },
    {
      "subId": 1914308,
      "mainId": 19143,
      "order": 99,
      "descTextMapHash": 3962705220,
      "finishCond": [
        {
          "KPGKDHAFHFE": "QUEST_CONTENT_FINISH_PLOT",
          "param": [
            1914308,
            0
          ]
        }
      ],
      "guide": {
        "KPGKDHAFHFE": "QUEST_GUIDE_LOCATION",
        "param": [
          "Q1914308_guide",
          "30"
        ],
        "guideScene": 3,
        "guideStyle": "QUEST_GUIDE_STYLE_POINT",
        "guideLayer": "QUEST_GUIDE_LAYER_SCENE"
      },
      "guideHint": {
        "param1": ""
      },
      "isRewind": true,
      "versionBegin": "",
      "versionEnd": ""
    },
    {
      "subId": 1914309,
      "mainId": 19143,
      "order": 8,
      "descTextMapHash": 1603981084,
      "finishCond": [
        {
          "KPGKDHAFHFE": "QUEST_CONTENT_MAIN_COOP_ENTER_SAVE_POINT",
          "param": [
            106501,
            191430901
          ]
        },
        {
          "KPGKDHAFHFE": "QUEST_CONTENT_MAIN_COOP_ENTER_SAVE_POINT",
          "param": [
            106501,
            191430902
          ]
        }
      ],
      "guide": {
        "KPGKDHAFHFE": "QUEST_GUIDE_LOCATION",
        "param": [
          "Q1914309_guide",
          "40"
        ],
        "guideScene": 3,
        "guideStyle": "QUEST_GUIDE_STYLE_POINT",
        "guideLayer": "QUEST_GUIDE_LAYER_SCENE"
      },
      "guideHint": {
        "param1": ""
      },
      "finishParent": true,
      "isRewind": true,
      "finishExec": [
        {
          "KPGKDHAFHFE": "QUEST_EXEC_UNREGISTER_DYNAMIC_GROUP",
          "param": [
            "133220749"
          ]
        }
      ],
      "versionBegin": "",
      "versionEnd": ""
    }
  ],
  "talks": [
    {
      "id": 1914301,
      "beginWay": "TALK_BEGIN_MANUAL",
      "beginCondComb": "LOGIC_OR",
      "beginCond": [
        {
          "type": "QUEST_COND_STATE_EQUAL",
          "_param": [
            "1914301",
            "2"
          ]
        },
        {
          "type": "QUEST_COND_STATE_EQUAL",
          "_param": [
            "1914302",
            "2"
          ]
        }
      ],
      "priority": 5,
      "initDialog": 191430101,
      "npcId": [
        3018
      ],
      "performCfg": "QuestDialogue/COOP/CoopShinobu/Q1914301",
      "heroTalk": "TALK_HERO_MAIN",
      "questId": 19143,
      "assetIndex": 8490508737417146730,
      "prePerformCfg": ""
    },
    {
      "id": 1914309,
      "beginWay": "TALK_BEGIN_MANUAL",
      "beginCondComb": "LOGIC_OR",
      "beginCond": [
        {
          "type": "QUEST_COND_STATE_EQUAL",
          "_param": [
            "1914301",
            "2"
          ]
        },
        {
          "type": "QUEST_COND_STATE_EQUAL",
          "_param": [
            "1914302",
            "2"
          ]
        }
      ],
      "priority": 5,
      "initDialog": 191430901,
      "npcId": [
        3038
      ],
      "performCfg": "QuestDialogue/COOP/CoopShinobu/Q1914309",
      "heroTalk": "TALK_HERO_MAIN",
      "questId": 19143,
      "assetIndex": 4342510229353826617,
      "prePerformCfg": ""
    },
    {
      "id": 1914310,
      "beginWay": "TALK_BEGIN_MANUAL",
      "beginCondComb": "LOGIC_OR",
      "beginCond": [
        {
          "type": "QUEST_COND_STATE_EQUAL",
          "_param": [
            "1914306",
            "2"
          ]
        },
        {
          "type": "QUEST_COND_STATE_EQUAL",
          "_param": [
            "1914304",
            "2"
          ]
        },
        {
          "type": "QUEST_COND_STATE_EQUAL",
          "_param": [
            "1914305",
            "2"
          ]
        }
      ],
      "priority": 5,
      "initDialog": 191431001,
      "npcId": [
        12509,
        12511,
        12510
      ],
      "performCfg": "QuestDialogue/COOP/CoopShinobu/Q1914310",
      "heroTalk": "TALK_HERO_MAIN",
      "questId": 19143,
      "assetIndex": 14125778459133772096,
      "prePerformCfg": ""
    },
    {
      "id": 1914311,
      "beginWay": "TALK_BEGIN_MANUAL",
      "beginCond": [
        {
          "type": "QUEST_COND_STATE_EQUAL",
          "_param": [
            "1914309",
            "2"
          ]
        }
      ],
      "priority": 5,
      "initDialog": 191431101,
      "npcId": [
        510,
        12278,
        12277
      ],
      "performCfg": "QuestDialogue/COOP/CoopShinobu/Q1914311",
      "heroTalk": "TALK_HERO_MAIN",
      "questId": 19143,
      "assetIndex": 9237297199731661212,
      "prePerformCfg": ""
    }
  ],
  "preloadLuaList": [
    6163241983327824279,
    13236809362704898071,
    11436570565291460415,
    9296018298471361295
  ],
  "forcePreloadLuaList": [
    16519496695431987665
  ],
  "freeStyleDic": {
    "3038": [
      1090
    ],
    "12540": [
      4190
    ],
    "12539": [
      4190
    ],
    "510": [
      1230
    ],
    "12277": [
      1160
    ],
    "12278": [
      1160
    ]
  }
}