{
  "id": 19182,
  "resId": 3019,
  "series": 108301,
  "KPGKDHAFHFE": "LQ",
  "titleTextMapHash": 757109623,
  "descTextMapHash": 1708123758,
  "luaPath": "Actor/Quest/LQ19182",
  "suggestTrackMainQuestList": [
    19184
  ],
  "suggestTrackOutOfOrder": true,
  "chapterId": 108301,
  "PAIEEMIAKBH": true,
  "subQuests": [
    {
      "subId": 1918201,
      "mainId": 19182,
      "order": 1,
      "descTextMapHash": 3620722196,
      "stepDescTextMapHash": 204058693,
      "GMKDJFPEFFF": [
        108401,
        108402
      ],
      "finishCond": [
        {
          "KPGKDHAFHFE": "QUEST_CONTENT_MAIN_COOP_ENTER_SAVE_POINT",
          "param": [
            108301,
            191820101
          ]
        }
      ],
      "guide": {
        "KPGKDHAFHFE": "QUEST_GUIDE_LOCATION",
        "param": [
          "[1084_69:0.161,-0.188,6.131]"
        ],
        "guideScene": 1084,
        "guideStyle": "QUEST_GUIDE_STYLE_POINT",
        "guideLayer": "QUEST_GUIDE_LAYER_SCENE"
      },
      "guideHint": {
        "param1": ""
      },
      "isRewind": true,
      "versionBegin": "",
      "versionEnd": ""
    },
    {
      "subId": 1918202,
      "mainId": 19182,
      "order": 3,
      "descTextMapHash": 3697900852,
      "stepDescTextMapHash": 2967653765,
      "GMKDJFPEFFF": [
        108401,
        108402
      ],
      "finishCond": [
        {
          "KPGKDHAFHFE": "QUEST_CONTENT_MAIN_COOP_ENTER_SAVE_POINT",
          "param": [
            108301,
            191820201
          ]
        }
      ],
      "guide": {
        "KPGKDHAFHFE": "QUEST_GUIDE_LOCATION",
        "param": [
          "[1084_86:10.546,0.000,7.541,0.000,25.940,0.000]"
        ],
        "guideScene": 1084,
        "guideStyle": "QUEST_GUIDE_STYLE_POINT",
        "guideLayer": "QUEST_GUIDE_LAYER_SCENE"
      },
      "guideHint": {
        "param1": ""
      },
      "isRewind": true,
      "finishExec": [
        {
          "KPGKDHAFHFE": "QUEST_EXEC_UNREGISTER_DYNAMIC_GROUP",
          "param": [
            "201084010"
          ]
        }
      ],
      "versionBegin": "",
      "versionEnd": ""
    },
    {
      "subId": 1918203,
      "mainId": 19182,
      "order": 4,
      "descTextMapHash": 931114628,
      "stepDescTextMapHash": 2850966373,
      "GMKDJFPEFFF": [
        108401,
        108402
      ],
      "finishCond": [
        {
          "KPGKDHAFHFE": "QUEST_CONTENT_MAIN_COOP_ENTER_SAVE_POINT",
          "param": [
            108301,
            191820301
          ]
        }
      ],
      "guide": {
        "KPGKDHAFHFE": "QUEST_GUIDE_LOCATION",
        "param": [
          "[1084_78:1.126,7.553,19.013]"
        ],
        "guideScene": 1084,
        "guideStyle": "QUEST_GUIDE_STYLE_POINT",
        "guideLayer": "QUEST_GUIDE_LAYER_SCENE"
      },
      "guideHint": {
        "param1": ""
      },
      "JPAAAIKKJNG": "QUEST_HIDDEN",
      "isRewind": true,
      "finishExec": [
        {
          "KPGKDHAFHFE": "QUEST_EXEC_UNREGISTER_DYNAMIC_GROUP",
          "param": [
            "201084007"
          ]
        }
      ],
      "versionBegin": "",
      "versionEnd": ""
    },
    {
      "subId": 1918204,
      "mainId": 19182,
      "order": 2,
      "descTextMapHash": 2664891580,
      "GMKDJFPEFFF": [
        108401,
        108402
      ],
      "finishCond": [
        {
          "KPGKDHAFHFE": "QUEST_CONTENT_MAIN_COOP_ENTER_SAVE_POINT",
          "param": [
            108301,
            191820401
          ]
        }
      ],
      "guide": {
        "KPGKDHAFHFE": "QUEST_GUIDE_NPC",
        "param": [
          "1073"
        ],
        "guideScene": 1084,
        "guideStyle": "QUEST_GUIDE_STYLE_TARGET",
        "guideLayer": "QUEST_GUIDE_LAYER_SCENE"
      },
      "guideHint": {
        "param1": ""
      },
      "isRewind": true,
      "versionBegin": "",
      "versionEnd": ""
    },
    {
      "subId": 1918205,
      "mainId": 19182,
      "order": 5,
      "descTextMapHash": 1512471772,
      "GMKDJFPEFFF": [
        340124,
        340131,
        340144,
        108401,
        108402
      ],
      "finishCond": [
        {
          "KPGKDHAFHFE": "QUEST_CONTENT_MAIN_COOP_ENTER_SAVE_POINT",
          "param": [
            108301,
            191820501
          ]
        }
      ],
      "guide": {
        "KPGKDHAFHFE": "QUEST_GUIDE_NPC",
        "param": [
          "13934"
        ],
        "guideScene": 3,
        "guideStyle": "QUEST_GUIDE_STYLE_TARGET",
        "guideLayer": "QUEST_GUIDE_LAYER_SCENE"
      },
      "guideHint": {
        "param1": ""
      },
      "isRewind": true,
      "versionBegin": "",
      "versionEnd": ""
    },
    {
      "subId": 1918206,
      "mainId": 19182,
      "order": 6,
      "descTextMapHash": 1780954828,
      "stepDescTextMapHash": 100455197,
      "GMKDJFPEFFF": [
        340124,
        340131
      ],
      "finishCond": [
        {
          "KPGKDHAFHFE": "QUEST_CONTENT_MAIN_COOP_ENTER_SAVE_POINT",
          "param": [
            108301,
            191820601
          ]
        }
      ],
      "guide": {
        "KPGKDHAFHFE": "QUEST_GUIDE_LOCATION",
        "param": [
          "[3_340100611:3481.907,283.336,4550.210,0.000,240.040,0.000]"
        ],
        "guideScene": 3,
        "guideStyle": "QUEST_GUIDE_STYLE_POINT",
        "guideLayer": "QUEST_GUIDE_LAYER_SCENE"
      },
      "guideHint": {
        "param1": ""
      },
      "isRewind": true,
      "versionBegin": "",
      "versionEnd": ""
    },
    {
      "subId": 1918207,
      "mainId": 19182,
      "order": 18,
      "descTextMapHash": 2989273748,
      "GMKDJFPEFFF": [
        340124,
        340131
      ],
      "finishCond": [
        {
          "KPGKDHAFHFE": "QUEST_CONTENT_MAIN_COOP_ENTER_SAVE_POINT",
          "param": [
            108301,
            191820701
          ]
        }
      ],
      "guide": {
        "KPGKDHAFHFE": "QUEST_GUIDE_NPC",
        "param": [
          "13932"
        ],
        "guideScene": 3,
        "guideStyle": "QUEST_GUIDE_STYLE_TARGET",
        "guideLayer": "QUEST_GUIDE_LAYER_SCENE"
      },
      "guideHint": {
        "param1": ""
      },
      "isRewind": true,
      "finishExec": [
        {
          "KPGKDHAFHFE": "QUEST_EXEC_SET_GAME_TIME",
          "param": [
            "18"
          ]
        }
      ],
      "versionBegin": "",
      "versionEnd": ""
    },
    {
      "subId": 1918209,
      "mainId": 19182,
      "order": 19,
      "descTextMapHash": 3961811924,
      "stepDescTextMapHash": 4222057757,
      "guideTipsTextMapHash": 731991118,
      "GMKDJFPEFFF": [
        340124,
        340131
      ],
      "finishCond": [
        {
          "KPGKDHAFHFE": "QUEST_CONTENT_GAME_TIME_TICK",
          "param": [
            2,
            0
          ]
        }
      ],
      "guide": {
        "param": [
          "30"
        ]
      },
      "showGuide": "QUEST_GUIDE_ITEM_DISABLE",
      "guideHint": {
        "param1": ""
      },
      "isRewind": true,
      "finishExec": [
        {
          "KPGKDHAFHFE": "QUEST_EXEC_UNREGISTER_DYNAMIC_GROUP",
          "param": [
            "133401820"
          ]
        }
      ],
      "versionBegin": "",
      "versionEnd": ""
    },
    {
      "subId": 1918210,
      "mainId": 19182,
      "order": 20,
      "descTextMapHash": 1130848164,
      "stepDescTextMapHash": 3370214005,
      "GMKDJFPEFFF": [
        108501,
        108502
      ],
      "finishCond": [
        {
          "KPGKDHAFHFE": "QUEST_CONTENT_MAIN_COOP_ENTER_SAVE_POINT",
          "param": [
            108301,
            191821001
          ]
        }
      ],
      "guide": {
        "KPGKDHAFHFE": "QUEST_GUIDE_NPC",
        "param": [
          "13980"
        ],
        "guideScene": 1085,
        "guideStyle": "QUEST_GUIDE_STYLE_TARGET",
        "guideLayer": "QUEST_GUIDE_LAYER_SCENE"
      },
      "guideHint": {
        "param1": ""
      },
      "isRewind": true,
      "versionBegin": "",
      "versionEnd": ""
    },
    {
      "subId": 1918211,
      "mainId": 19182,
      "order": 21,
      "descTextMapHash": 1640893900,
      "GMKDJFPEFFF": [
        108501,
        108502
      ],
      "finishCond": [
        {
          "KPGKDHAFHFE": "QUEST_CONTENT_MAIN_COOP_ENTER_SAVE_POINT",
          "param": [
            108301,
            191821101
          ]
        }
      ],
      "guide": {
        "KPGKDHAFHFE": "QUEST_GUIDE_NPC",
        "param": [
          "13980"
        ],
        "guideScene": 1085,
        "guideStyle": "QUEST_GUIDE_STYLE_TARGET",
        "guideLayer": "QUEST_GUIDE_LAYER_SCENE"
      },
      "guideHint": {
        "param1": ""
      },
      "JPAAAIKKJNG": "QUEST_HIDDEN",
      "isRewind": true,
      "versionBegin": "",
      "versionEnd": ""
    },
    {
      "subId": 1918212,
      "mainId": 19182,
      "order": 22,
      "descTextMapHash": 1758395828,
      "GMKDJFPEFFF": [
        108501,
        108502
      ],
      "finishCond": [
        {
          "KPGKDHAFHFE": "QUEST_CONTENT_MAIN_COOP_ENTER_SAVE_POINT",
          "param": [
            108301,
            191821201
          ]
        }
      ],
      "guide": {
        "KPGKDHAFHFE": "QUEST_GUIDE_NPC",
        "param": [
          "13933"
        ],
        "guideScene": 1085,
        "guideStyle": "QUEST_GUIDE_STYLE_TARGET",
        "guideLayer": "QUEST_GUIDE_LAYER_SCENE"
      },
      "guideHint": {
        "param1": ""
      },
      "JPAAAIKKJNG": "QUEST_HIDDEN",
      "isRewind": true,
      "versionBegin": "",
      "versionEnd": ""
    },
    {
      "subId": 1918213,
      "mainId": 19182,
      "order": 23,
      "descTextMapHash": 1736558436,
      "stepDescTextMapHash": 389347125,
      "GMKDJFPEFFF": [
        108501,
        108502
      ],
      "finishCond": [
        {
          "KPGKDHAFHFE": "QUEST_CONTENT_MAIN_COOP_ENTER_SAVE_POINT",
          "param": [
            108301,
            191821302
          ]
        },
        {
          "KPGKDHAFHFE": "QUEST_CONTENT_MAIN_COOP_ENTER_SAVE_POINT",
          "param": [
            108301,
            191821301
          ]
        }
      ],
      "guide": {
        "KPGKDHAFHFE": "QUEST_GUIDE_NPC",
        "param": [
          "13933"
        ],
        "guideScene": 1085,
        "guideStyle": "QUEST_GUIDE_STYLE_TARGET",
        "guideLayer": "QUEST_GUIDE_LAYER_SCENE"
      },
      "guideHint": {
        "param1": ""
      },
      "finishParent": true,
      "isRewind": true,
      "finishExec": [
        {
          "KPGKDHAFHFE": "QUEST_EXEC_UNREGISTER_DYNAMIC_GROUP",
          "param": [
            "201085017"
          ]
        }
      ],
      "versionBegin": "",
      "versionEnd": ""
    },
    {
      "subId": 1918214,
      "mainId": 19182,
      "order": 17,
      "isMpBlock": true,
      "descTextMapHash": 3643868860,
      "showType": "QUEST_HIDDEN",
      "GMKDJFPEFFF": [
        340124,
        340131
      ],
      "finishCond": [
        {
          "KPGKDHAFHFE": "QUEST_CONTENT_QUEST_STATE_EQUAL",
          "param": [
            1918215,
            3
          ]
        },
        {
          "KPGKDHAFHFE": "QUEST_CONTENT_QUEST_STATE_EQUAL",
          "param": [
            1918216,
            3
          ]
        },
        {
          "KPGKDHAFHFE": "QUEST_CONTENT_QUEST_STATE_EQUAL",
          "param": [
            1918217,
            3
          ]
        },
        {
          "KPGKDHAFHFE": "QUEST_CONTENT_QUEST_STATE_EQUAL",
          "param": [
            1918218,
            3
          ]
        },
        {
          "KPGKDHAFHFE": "QUEST_CONTENT_QUEST_STATE_EQUAL",
          "param": [
            1918219,
            3
          ]
        }
      ],
      "failCond": [
        {
          "KPGKDHAFHFE": "QUEST_CONTENT_ANY_MANUAL_TRANSPORT",
          "param": [
            0,
            0
          ]
        },
        {
          "KPGKDHAFHFE": "QUEST_CONTENT_LEAVE_SCENE_RANGE",
          "param": [
            3,
            40
          ]
        },
        {
          "KPGKDHAFHFE": "QUEST_CONTENT_TEAM_DEAD",
          "param": [
            0,
            0
          ]
        }
      ],
      "guide": {},
      "guideHint": {
        "param1": ""
      },
      "isRewind": true,
      "finishExec": [
        {
          "KPGKDHAFHFE": "QUEST_EXEC_UNLOCK_MIRROR_AVATAR_TEAM"
        }
      ],
      "failExec": [
        {
          "KPGKDHAFHFE": "QUEST_EXEC_ROLLBACK_QUEST",
          "param": [
            "1918206"
          ]
        },
        {
          "KPGKDHAFHFE": "QUEST_EXEC_UNLOCK_MIRROR_AVATAR_TEAM"
        }
      ],
      "versionBegin": "",
      "versionEnd": ""
    },
    {
      "subId": 1918215,
      "mainId": 19182,
      "order": 9,
      "subIdSet": 1,
      "isMpBlock": true,
      "descTextMapHash": 3325856516,
      "GMKDJFPEFFF": [
        340124,
        340131
      ],
      "finishCond": [
        {
          "KPGKDHAFHFE": "QUEST_CONTENT_COMPLETE_TALK",
          "param": [
            1918238,
            0
          ]
        },
        {
          "KPGKDHAFHFE": "QUEST_CONTENT_COMPLETE_TALK",
          "param": [
            1918239,
            0
          ]
        }
      ],
      "guide": {
        "KPGKDHAFHFE": "QUEST_GUIDE_LOCATION",
        "param": [
          "[3_340100611:3481.907,283.336,4550.210,0.000,240.040,0.000]",
          "12"
        ],
        "guideScene": 3,
        "guideStyle": "QUEST_GUIDE_STYLE_POINT",
        "guideLayer": "QUEST_GUIDE_LAYER_SCENE"
      },
      "guideHint": {
        "param1": ""
      },
      "versionBegin": "",
      "versionEnd": ""
    },
    {
      "subId": 1918216,
      "mainId": 19182,
      "order": 10,
      "subIdSet": 1,
      "isMpBlock": true,
      "descTextMapHash": 2435427892,
      "GMKDJFPEFFF": [
        340124,
        340131
      ],
      "finishCond": [
        {
          "KPGKDHAFHFE": "QUEST_CONTENT_COMPLETE_TALK",
          "param": [
            1918241,
            0
          ]
        },
        {
          "KPGKDHAFHFE": "QUEST_CONTENT_COMPLETE_TALK",
          "param": [
            1918242,
            0
          ]
        }
      ],
      "guide": {
        "KPGKDHAFHFE": "QUEST_GUIDE_LOCATION",
        "param": [
          "[3_340100611:3481.907,283.336,4550.210,0.000,240.040,0.000]",
          "12"
        ],
        "guideScene": 3,
        "guideStyle": "QUEST_GUIDE_STYLE_POINT",
        "guideLayer": "QUEST_GUIDE_LAYER_SCENE"
      },
      "guideHint": {
        "param1": ""
      },
      "versionBegin": "",
      "versionEnd": ""
    },
    {
      "subId": 1918217,
      "mainId": 19182,
      "order": 11,
      "subIdSet": 1,
      "isMpBlock": true,
      "descTextMapHash": 4135489420,
      "GMKDJFPEFFF": [
        340124,
        340131
      ],
      "finishCond": [
        {
          "KPGKDHAFHFE": "QUEST_CONTENT_COMPLETE_TALK",
          "param": [
            1918244,
            0
          ]
        },
        {
          "KPGKDHAFHFE": "QUEST_CONTENT_COMPLETE_TALK",
          "param": [
            1918245,
            0
          ]
        }
      ],
      "guide": {
        "KPGKDHAFHFE": "QUEST_GUIDE_LOCATION",
        "param": [
          "[3_340100611:3481.907,283.336,4550.210,0.000,240.040,0.000]",
          "12"
        ],
        "guideScene": 3,
        "guideStyle": "QUEST_GUIDE_STYLE_POINT",
        "guideLayer": "QUEST_GUIDE_LAYER_SCENE"
      },
      "guideHint": {
        "param1": ""
      },
      "versionBegin": "",
      "versionEnd": ""
    },
    {
      "subId": 1918218,
      "mainId": 19182,
      "order": 7,
      "subIdSet": 1,
      "isMpBlock": true,
      "descTextMapHash": 1374511988,
      "GMKDJFPEFFF": [
        340124,
        340131
      ],
      "finishCond": [
        {
          "KPGKDHAFHFE": "QUEST_CONTENT_COMPLETE_TALK",
          "param": [
            1918247,
            0
          ]
        },
        {
          "KPGKDHAFHFE": "QUEST_CONTENT_COMPLETE_TALK",
          "param": [
            1918248,
            0
          ]
        }
      ],
      "guide": {
        "KPGKDHAFHFE": "QUEST_GUIDE_LOCATION",
        "param": [
          "[3_340100611:3481.907,283.336,4550.210,0.000,240.040,0.000]",
          "12"
        ],
        "guideScene": 3,
        "guideStyle": "QUEST_GUIDE_STYLE_POINT",
        "guideLayer": "QUEST_GUIDE_LAYER_SCENE"
      },
      "guideHint": {
        "param1": ""
      },
      "versionBegin": "",
      "versionEnd": ""
    },
    {
      "subId": 1918219,
      "mainId": 19182,
      "order": 8,
      "subIdSet": 1,
      "isMpBlock": true,
      "descTextMapHash": 3006911964,
      "GMKDJFPEFFF": [
        340124,
        340131
      ],
      "finishCond": [
        {
          "KPGKDHAFHFE": "QUEST_CONTENT_COMPLETE_TALK",
          "param": [
            1918250,
            0
          ]
        },
        {
          "KPGKDHAFHFE": "QUEST_CONTENT_COMPLETE_TALK",
          "param": [
            1918251,
            0
          ]
        }
      ],
      "guide": {
        "KPGKDHAFHFE": "QUEST_GUIDE_LOCATION",
        "param": [
          "[3_340100611:3481.907,283.336,4550.210,0.000,240.040,0.000]",
          "12"
        ],
        "guideScene": 3,
        "guideStyle": "QUEST_GUIDE_STYLE_POINT",
        "guideLayer": "QUEST_GUIDE_LAYER_SCENE"
      },
      "guideHint": {
        "param1": ""
      },
      "versionBegin": "",
      "versionEnd": ""
    },
    {
      "subId": 1918220,
      "mainId": 19182,
      "order": 13,
      "descTextMapHash": 3395854820,
      "showType": "QUEST_HIDDEN",
      "finishCond": [
        {
          "KPGKDHAFHFE": "QUEST_CONTENT_QUEST_CHECK_EQUAL",
          "param": [
            1005,
            1
          ]
        },
        {
          "KPGKDHAFHFE": "QUEST_CONTENT_QUEST_STATE_EQUAL",
          "param": [
            1918215,
            3
          ]
        }
      ],
      "failCond": [
        {
          "KPGKDHAFHFE": "QUEST_CONTENT_QUEST_CHECK_EQUAL",
          "param": [
            1005,
            0
          ]
        },
        {
          "KPGKDHAFHFE": "QUEST_CONTENT_QUEST_STATE_EQUAL",
          "param": [
            1918215,
            3
          ]
        }
      ],
      "guide": {},
      "guideHint": {
        "param1": ""
      },
      "finishExec": [
        {
          "KPGKDHAFHFE": "QUEST_EXEC_SET_QUEST_GLOBAL_VAR",
          "param": [
            "1918201",
            "1"
          ]
        }
      ],
      "versionBegin": "",
      "versionEnd": ""
    },
    {
      "subId": 1918221,
      "mainId": 19182,
      "order": 14,
      "descTextMapHash": 1887489812,
      "showType": "QUEST_HIDDEN",
      "finishCond": [
        {
          "KPGKDHAFHFE": "QUEST_CONTENT_QUEST_CHECK_EQUAL",
          "param": [
            1006,
            1
          ]
        },
        {
          "KPGKDHAFHFE": "QUEST_CONTENT_QUEST_STATE_EQUAL",
          "param": [
            1918216,
            3
          ]
        }
      ],
      "failCond": [
        {
          "KPGKDHAFHFE": "QUEST_CONTENT_QUEST_CHECK_EQUAL",
          "param": [
            1006,
            0
          ]
        },
        {
          "KPGKDHAFHFE": "QUEST_CONTENT_QUEST_STATE_EQUAL",
          "param": [
            1918216,
            3
          ]
        }
      ],
      "guide": {},
      "guideHint": {
        "param1": ""
      },
      "finishExec": [
        {
          "KPGKDHAFHFE": "QUEST_EXEC_SET_QUEST_GLOBAL_VAR",
          "param": [
            "1918202",
            "1"
          ]
        }
      ],
      "versionBegin": "",
      "versionEnd": ""
    },
    {
      "subId": 1918222,
      "mainId": 19182,
      "order": 15,
      "descTextMapHash": 3317187932,
      "showType": "QUEST_HIDDEN",
      "finishCond": [
        {
          "KPGKDHAFHFE": "QUEST_CONTENT_QUEST_CHECK_EQUAL",
          "param": [
            1007,
            1
          ]
        },
        {
          "KPGKDHAFHFE": "QUEST_CONTENT_QUEST_STATE_EQUAL",
          "param": [
            1918217,
            3
          ]
        }
      ],
      "failCond": [
        {
          "KPGKDHAFHFE": "QUEST_CONTENT_QUEST_CHECK_EQUAL",
          "param": [
            1007,
            0
          ]
        },
        {
          "KPGKDHAFHFE": "QUEST_CONTENT_QUEST_STATE_EQUAL",
          "param": [
            1918217,
            3
          ]
        }
      ],
      "guide": {},
      "guideHint": {
        "param1": ""
      },
      "finishExec": [
        {
          "KPGKDHAFHFE": "QUEST_EXEC_SET_QUEST_GLOBAL_VAR",
          "param": [
            "1918203",
            "1"
          ]
        }
      ],
      "versionBegin": "",
      "versionEnd": ""
    },
    {
      "subId": 1918223,
      "mainId": 19182,
      "order": 16,
      "descTextMapHash": 3456049980,
      "showType": "QUEST_HIDDEN",
      "finishCond": [
        {
          "KPGKDHAFHFE": "QUEST_CONTENT_QUEST_CHECK_EQUAL",
          "param": [
            1008,
            1
          ]
        },
        {
          "KPGKDHAFHFE": "QUEST_CONTENT_QUEST_STATE_EQUAL",
          "param": [
            1918218,
            3
          ]
        }
      ],
      "failCond": [
        {
          "KPGKDHAFHFE": "QUEST_CONTENT_QUEST_CHECK_EQUAL",
          "param": [
            1008,
            0
          ]
        },
        {
          "KPGKDHAFHFE": "QUEST_CONTENT_QUEST_STATE_EQUAL",
          "param": [
            1918218,
            3
          ]
        }
      ],
      "guide": {},
      "guideHint": {
        "param1": ""
      },
      "finishExec": [
        {
          "KPGKDHAFHFE": "QUEST_EXEC_SET_QUEST_GLOBAL_VAR",
          "param": [
            "1918204",
            "1"
          ]
        }
      ],
      "versionBegin": "",
      "versionEnd": ""
    },
    {
      "subId": 1918224,
      "mainId": 19182,
      "order": 12,
      "descTextMapHash": 448587452,
      "showType": "QUEST_HIDDEN",
      "finishCond": [
        {
          "KPGKDHAFHFE": "QUEST_CONTENT_QUEST_CHECK_EQUAL",
          "param": [
            1009,
            1
          ]
        },
        {
          "KPGKDHAFHFE": "QUEST_CONTENT_QUEST_STATE_EQUAL",
          "param": [
            1918219,
            3
          ]
        }
      ],
      "failCond": [
        {
          "KPGKDHAFHFE": "QUEST_CONTENT_QUEST_CHECK_EQUAL",
          "param": [
            1009,
            0
          ]
        },
        {
          "KPGKDHAFHFE": "QUEST_CONTENT_QUEST_STATE_EQUAL",
          "param": [
            1918219,
            3
          ]
        }
      ],
      "guide": {},
      "guideHint": {
        "param1": ""
      },
      "finishExec": [
        {
          "KPGKDHAFHFE": "QUEST_EXEC_SET_QUEST_GLOBAL_VAR",
          "param": [
            "1918205",
            "1"
          ]
        }
      ],
      "versionBegin": "",
      "versionEnd": ""
    }
  ],
  "talks": [
    {
      "id": 1918237,
      "beginWay": "TALK_BEGIN_MANUAL",
      "beginCond": [
        {
          "type": "QUEST_COND_STATE_EQUAL",
          "_param": [
            "1918215",
            "2"
          ]
        }
      ],
      "priority": 5,
      "nextTalks": [
        1918238,
        1918239
      ],
      "initDialog": 191823701,
      "npcId": [
        13985
      ],
      "performCfg": "QuestDialogue/COOP/CoopLynette/Q1918237",
      "heroTalk": "TALK_HERO_MAIN",
      "questId": 19182,
      "assetIndex": 3946751269228814272,
      "prePerformCfg": ""
    },
    {
      "id": 1918238,
      "beginCondComb": "LOGIC_AND",
      "beginCond": [
        {
          "type": "QUEST_COND_QUEST_CHECK_RESULT",
          "_param": [
            "1005",
            "0"
          ]
        },
        {
          "type": "QUEST_COND_STATE_EQUAL",
          "_param": [
            "1918215",
            "2"
          ]
        }
      ],
      "priority": 5,
      "initDialog": 191823801,
      "npcId": [
        13985
      ],
      "performCfg": "QuestDialogue/COOP/CoopLynette/Q1918238",
      "heroTalk": "TALK_HERO_MAIN",
      "questId": 19182,
      "assetIndex": 16058396710176054612,
      "prePerformCfg": ""
    },
    {
      "id": 1918239,
      "beginCondComb": "LOGIC_AND",
      "beginCond": [
        {
          "type": "QUEST_COND_QUEST_CHECK_RESULT",
          "_param": [
            "1005",
            "1"
          ]
        },
        {
          "type": "QUEST_COND_STATE_EQUAL",
          "_param": [
            "1918215",
            "2"
          ]
        }
      ],
      "priority": 5,
      "initDialog": 191823901,
      "npcId": [
        13985
      ],
      "performCfg": "QuestDialogue/COOP/CoopLynette/Q1918239",
      "heroTalk": "TALK_HERO_MAIN",
      "questId": 19182,
      "assetIndex": 16582779881241239275,
      "prePerformCfg": ""
    },
    {
      "id": 1918240,
      "beginWay": "TALK_BEGIN_MANUAL",
      "beginCond": [
        {
          "type": "QUEST_COND_STATE_EQUAL",
          "_param": [
            "1918216",
            "2"
          ]
        }
      ],
      "priority": 5,
      "nextTalks": [
        1918241,
        1918242
      ],
      "initDialog": 191824001,
      "npcId": [
        13986
      ],
      "performCfg": "QuestDialogue/COOP/CoopLynette/Q1918240",
      "heroTalk": "TALK_HERO_MAIN",
      "questId": 19182,
      "assetIndex": 5136738605270237060,
      "prePerformCfg": ""
    },
    {
      "id": 1918241,
      "beginCondComb": "LOGIC_AND",
      "beginCond": [
        {
          "type": "QUEST_COND_QUEST_CHECK_RESULT",
          "_param": [
            "1006",
            "1"
          ]
        },
        {
          "type": "QUEST_COND_STATE_EQUAL",
          "_param": [
            "1918216",
            "2"
          ]
        }
      ],
      "priority": 5,
      "initDialog": 191824101,
      "npcId": [
        13986
      ],
      "performCfg": "QuestDialogue/COOP/CoopLynette/Q1918241",
      "heroTalk": "TALK_HERO_MAIN",
      "questId": 19182,
      "assetIndex": 12242828209349089521,
      "prePerformCfg": ""
    },
    {
      "id": 1918242,
      "beginCondComb": "LOGIC_AND",
      "beginCond": [
        {
          "type": "QUEST_COND_QUEST_CHECK_RESULT",
          "_param": [
            "1006",
            "0"
          ]
        },
        {
          "type": "QUEST_COND_STATE_EQUAL",
          "_param": [
            "1918216",
            "2"
          ]
        }
      ],
      "priority": 5,
      "initDialog": 191824201,
      "npcId": [
        13986
      ],
      "performCfg": "QuestDialogue/COOP/CoopLynette/Q1918242",
      "heroTalk": "TALK_HERO_MAIN",
      "questId": 19182,
      "assetIndex": 10775574531569527863,
      "prePerformCfg": ""
    },
    {
      "id": 1918243,
      "beginWay": "TALK_BEGIN_MANUAL",
      "beginCond": [
        {
          "type": "QUEST_COND_STATE_EQUAL",
          "_param": [
            "1918217",
            "2"
          ]
        }
      ],
      "priority": 5,
      "nextTalks": [
        1918244,
        1918245
      ],
      "initDialog": 191824301,
      "npcId": [
        13987
      ],
      "performCfg": "QuestDialogue/COOP/CoopLynette/Q1918243",
      "heroTalk": "TALK_HERO_MAIN",
      "questId": 19182,
      "assetIndex": 1836628449075999300,
      "prePerformCfg": ""
    },
    {
      "id": 1918244,
      "beginCondComb": "LOGIC_AND",
      "beginCond": [
        {
          "type": "QUEST_COND_QUEST_CHECK_RESULT",
          "_param": [
            "1007",
            "0"
          ]
        },
        {
          "type": "QUEST_COND_STATE_EQUAL",
          "_param": [
            "1918217",
            "2"
          ]
        }
      ],
      "priority": 5,
      "initDialog": 191824401,
      "npcId": [
        13987
      ],
      "performCfg": "QuestDialogue/COOP/CoopLynette/Q1918244",
      "heroTalk": "TALK_HERO_MAIN",
      "questId": 19182,
      "assetIndex": 14189660303062036242,
      "prePerformCfg": ""
    },
    {
      "id": 1918245,
      "beginCondComb": "LOGIC_AND",
      "beginCond": [
        {
          "type": "QUEST_COND_QUEST_CHECK_RESULT",
          "_param": [
            "1007",
            "1"
          ]
        },
        {
          "type": "QUEST_COND_STATE_EQUAL",
          "_param": [
            "1918217",
            "2"
          ]
        }
      ],
      "priority": 5,
      "initDialog": 191824501,
      "npcId": [
        13987
      ],
      "performCfg": "QuestDialogue/COOP/CoopLynette/Q1918245",
      "heroTalk": "TALK_HERO_MAIN",
      "questId": 19182,
      "assetIndex": 6232845567711443658,
      "prePerformCfg": ""
    },
    {
      "id": 1918246,
      "beginWay": "TALK_BEGIN_MANUAL",
      "beginCond": [
        {
          "type": "QUEST_COND_STATE_EQUAL",
          "_param": [
            "1918218",
            "2"
          ]
        }
      ],
      "priority": 5,
      "nextTalks": [
        1918247,
        1918248
      ],
      "initDialog": 191824601,
      "npcId": [
        13988
      ],
      "performCfg": "QuestDialogue/COOP/CoopLynette/Q1918246",
      "heroTalk": "TALK_HERO_MAIN",
      "questId": 19182,
      "assetIndex": 15055874712346417224,
      "prePerformCfg": ""
    },
    {
      "id": 1918247,
      "beginCondComb": "LOGIC_AND",
      "beginCond": [
        {
          "type": "QUEST_COND_QUEST_CHECK_RESULT",
          "_param": [
            "1008",
            "0"
          ]
        },
        {
          "type": "QUEST_COND_STATE_EQUAL",
          "_param": [
            "1918218",
            "2"
          ]
        }
      ],
      "priority": 5,
      "initDialog": 191824701,
      "npcId": [
        13988
      ],
      "performCfg": "QuestDialogue/COOP/CoopLynette/Q1918247",
      "heroTalk": "TALK_HERO_MAIN",
      "questId": 19182,
      "assetIndex": 4918274416492800145,
      "prePerformCfg": ""
    },
    {
      "id": 1918248,
      "beginCondComb": "LOGIC_AND",
      "beginCond": [
        {
          "type": "QUEST_COND_QUEST_CHECK_RESULT",
          "_param": [
            "1008",
            "1"
          ]
        },
        {
          "type": "QUEST_COND_STATE_EQUAL",
          "_param": [
            "1918218",
            "2"
          ]
        }
      ],
      "priority": 5,
      "initDialog": 191824801,
      "npcId": [
        13988
      ],
      "performCfg": "QuestDialogue/COOP/CoopLynette/Q1918248",
      "heroTalk": "TALK_HERO_MAIN",
      "questId": 19182,
      "assetIndex": 5560061824924486032,
      "prePerformCfg": ""
    },
    {
      "id": 1918249,
      "beginWay": "TALK_BEGIN_MANUAL",
      "beginCond": [
        {
          "type": "QUEST_COND_STATE_EQUAL",
          "_param": [
            "1918219",
            "2"
          ]
        }
      ],
      "priority": 5,
      "nextTalks": [
        1918250,
        1918251
      ],
      "initDialog": 191824901,
      "npcId": [
        13989
      ],
      "performCfg": "QuestDialogue/COOP/CoopLynette/Q1918249",
      "heroTalk": "TALK_HERO_MAIN",
      "questId": 19182,
      "assetIndex": 5633350228220362445,
      "prePerformCfg": ""
    },
    {
      "id": 1918250,
      "beginCondComb": "LOGIC_AND",
      "beginCond": [
        {
          "type": "QUEST_COND_QUEST_CHECK_RESULT",
          "_param": [
            "1009",
            "1"
          ]
        },
        {
          "type": "QUEST_COND_STATE_EQUAL",
          "_param": [
            "1918219",
            "2"
          ]
        }
      ],
      "priority": 5,
      "initDialog": 191825001,
      "npcId": [
        13989
      ],
      "performCfg": "QuestDialogue/COOP/CoopLynette/Q1918250",
      "heroTalk": "TALK_HERO_MAIN",
      "questId": 19182,
      "assetIndex": 6148013529279487473,
      "prePerformCfg": ""
    },
    {
      "id": 1918251,
      "beginCondComb": "LOGIC_AND",
      "beginCond": [
        {
          "type": "QUEST_COND_QUEST_CHECK_RESULT",
          "_param": [
            "1009",
            "0"
          ]
        },
        {
          "type": "QUEST_COND_STATE_EQUAL",
          "_param": [
            "1918219",
            "2"
          ]
        }
      ],
      "priority": 5,
      "initDialog": 191825101,
      "npcId": [
        13989
      ],
      "performCfg": "QuestDialogue/COOP/CoopLynette/Q1918251",
      "heroTalk": "TALK_HERO_MAIN",
      "questId": 19182,
      "assetIndex": 3503114391626840316,
      "prePerformCfg": ""
    },
    {
      "id": 1918252,
      "beginWay": "TALK_BEGIN_MANUAL",
      "beginCond": [
        {
          "type": "QUEST_COND_STATE_EQUAL",
          "_param": [
            "1918213",
            "2"
          ]
        }
      ],
      "priority": 5,
      "initDialog": 191825201,
      "npcId": [
        13980,
        13979
      ],
      "performCfg": "QuestDialogue/COOP/CoopLynette/Q1918252",
      "heroTalk": "TALK_HERO_MAIN",
      "questId": 19182,
      "assetIndex": 13269520053151093971,
      "prePerformCfg": ""
    },
    {
      "id": 1918253,
      "beginWay": "TALK_BEGIN_MANUAL",
      "beginCond": [
        {
          "type": "QUEST_COND_STATE_EQUAL",
          "_param": [
            "1918213",
            "2"
          ]
        }
      ],
      "priority": 5,
      "initDialog": 191825301,
      "npcId": [
        13932,
        13934
      ],
      "performCfg": "QuestDialogue/COOP/CoopLynette/Q1918253",
      "heroTalk": "TALK_HERO_MAIN",
      "questId": 19182,
      "assetIndex": 16247894727697218407,
      "prePerformCfg": ""
    },
    {
      "id": 1918254,
      "beginWay": "TALK_BEGIN_MANUAL",
      "beginCond": [
        {
          "type": "QUEST_COND_STATE_EQUAL",
          "_param": [
            "1918214",
            "2"
          ]
        }
      ],
      "priority": 5,
      "initDialog": 191825401,
      "npcId": [
        13980,
        13932
      ],
      "performCfg": "QuestDialogue/COOP/CoopLynette/Q1918254",
      "heroTalk": "TALK_HERO_MAIN",
      "questId": 19182,
      "assetIndex": 6652791891924595777,
      "prePerformCfg": ""
    },
    {
      "id": 1918255,
      "beginWay": "TALK_BEGIN_MANUAL",
      "beginCond": [
        {
          "type": "QUEST_COND_STATE_EQUAL",
          "_param": [
            "1918209",
            "2"
          ]
        }
      ],
      "priority": 5,
      "initDialog": 191825501,
      "npcId": [
        13932
      ],
      "performCfg": "QuestDialogue/COOP/CoopLynette/Q1918255",
      "heroTalk": "TALK_HERO_MAIN",
      "questId": 19182,
      "assetIndex": 15199983478702533207,
      "prePerformCfg": "",
      "lockGameTime": true
    },
    {
      "id": 1918256,
      "beginWay": "TALK_BEGIN_MANUAL",
      "beginCond": [
        {
          "type": "QUEST_COND_STATE_EQUAL",
          "_param": [
            "99902",
            "3"
          ]
        }
      ],
      "priority": 5,
      "initDialog": 191825601,
      "npcId": [
        14057
      ],
      "performCfg": "QuestDialogue/COOP/CoopLynette/Q1918256",
      "heroTalk": "TALK_HERO_MAIN",
      "questId": 19182,
      "assetIndex": 15973400184118668781,
      "prePerformCfg": ""
    },
    {
      "id": 1918257,
      "beginWay": "TALK_BEGIN_MANUAL",
      "beginCond": [
        {
          "type": "QUEST_COND_STATE_EQUAL",
          "_param": [
            "99902",
            "3"
          ]
        }
      ],
      "priority": 5,
      "initDialog": 191825701,
      "npcId": [
        14058
      ],
      "performCfg": "QuestDialogue/COOP/CoopLynette/Q1918257",
      "heroTalk": "TALK_HERO_MAIN",
      "questId": 19182,
      "assetIndex": 4241920915788121225,
      "prePerformCfg": "",
      "PLPFOOINAAJ": [
        "[1084_107:-7.687,0.000,2.823]"
      ]
    },
    {
      "id": 1918258,
      "beginWay": "TALK_BEGIN_MANUAL",
      "beginCond": [
        {
          "type": "QUEST_COND_STATE_EQUAL",
          "_param": [
            "99902",
            "3"
          ]
        }
      ],
      "priority": 5,
      "initDialog": 191825801,
      "npcId": [
        14059
      ],
      "performCfg": "QuestDialogue/COOP/CoopLynette/Q1918258",
      "heroTalk": "TALK_HERO_MAIN",
      "questId": 19182,
      "assetIndex": 11745981612646128356,
      "prePerformCfg": "",
      "PLPFOOINAAJ": [
        "[1084_108:10.040,0.000,14.368]"
      ]
    },
    {
      "id": 1918259,
      "beginWay": "TALK_BEGIN_MANUAL",
      "beginCondComb": "LOGIC_OR",
      "beginCond": [
        {
          "type": "QUEST_COND_STATE_EQUAL",
          "_param": [
            "1918204",
            "2"
          ]
        },
        {
          "type": "QUEST_COND_STATE_EQUAL",
          "_param": [
            "1918202",
            "2"
          ]
        }
      ],
      "priority": 5,
      "initDialog": 191825901,
      "npcId": [
        13936,
        13933,
        13976,
        13935
      ],
      "performCfg": "QuestDialogue/COOP/CoopLynette/Q1918259",
      "heroTalk": "TALK_HERO_MAIN",
      "questId": 19182,
      "assetIndex": 8754864300252276853,
      "prePerformCfg": "",
      "PLPFOOINAAJ": [
        "[1084_109:1.500,8.341,19.897]"
      ]
    },
    {
      "id": 1918260,
      "beginWay": "TALK_BEGIN_MANUAL",
      "beginCond": [
        {
          "type": "QUEST_COND_STATE_EQUAL",
          "_param": [
            "1918209",
            "2"
          ]
        }
      ],
      "priority": 5,
      "initDialog": 191826001,
      "npcId": [
        13985
      ],
      "performCfg": "QuestDialogue/COOP/CoopLynette/Q1918260",
      "heroTalk": "TALK_HERO_MAIN",
      "questId": 19182,
      "assetIndex": 12434888776966856054,
      "prePerformCfg": "",
      "lockGameTime": true,
      "PLPFOOINAAJ": [
        "[3_340100594:3482.583,284.181,4552.436]"
      ]
    },
    {
      "id": 1918261,
      "beginWay": "TALK_BEGIN_MANUAL",
      "beginCond": [
        {
          "type": "QUEST_COND_STATE_EQUAL",
          "_param": [
            "1918209",
            "2"
          ]
        }
      ],
      "priority": 5,
      "initDialog": 191826101,
      "npcId": [
        13986
      ],
      "performCfg": "QuestDialogue/COOP/CoopLynette/Q1918261",
      "heroTalk": "TALK_HERO_MAIN",
      "questId": 19182,
      "assetIndex": 2533358239206911200,
      "prePerformCfg": "",
      "lockGameTime": true,
      "PLPFOOINAAJ": [
        "[3_340100595:3482.694,284.494,4553.536]"
      ]
    },
    {
      "id": 1918262,
      "beginWay": "TALK_BEGIN_MANUAL",
      "beginCond": [
        {
          "type": "QUEST_COND_STATE_EQUAL",
          "_param": [
            "1918209",
            "2"
          ]
        }
      ],
      "priority": 5,
      "initDialog": 191826201,
      "npcId": [
        13987
      ],
      "performCfg": "QuestDialogue/COOP/CoopLynette/Q1918262",
      "heroTalk": "TALK_HERO_MAIN",
      "questId": 19182,
      "assetIndex": 14870966280356036956,
      "prePerformCfg": "",
      "lockGameTime": true,
      "PLPFOOINAAJ": [
        "[3_340100596:3481.764,284.503,4551.802]"
      ]
    },
    {
      "id": 1918263,
      "beginWay": "TALK_BEGIN_MANUAL",
      "beginCond": [
        {
          "type": "QUEST_COND_STATE_EQUAL",
          "_param": [
            "1918209",
            "2"
          ]
        }
      ],
      "priority": 5,
      "initDialog": 191826301,
      "npcId": [
        13988
      ],
      "performCfg": "QuestDialogue/COOP/CoopLynette/Q1918263",
      "heroTalk": "TALK_HERO_MAIN",
      "questId": 19182,
      "assetIndex": 14149516508246189901,
      "prePerformCfg": "",
      "lockGameTime": true,
      "PLPFOOINAAJ": [
        "[3_340100597:3482.037,284.184,4552.135]"
      ]
    },
    {
      "id": 1918264,
      "beginWay": "TALK_BEGIN_MANUAL",
      "beginCond": [
        {
          "type": "QUEST_COND_STATE_EQUAL",
          "_param": [
            "1918209",
            "2"
          ]
        }
      ],
      "priority": 5,
      "initDialog": 191826401,
      "npcId": [
        13989
      ],
      "performCfg": "QuestDialogue/COOP/CoopLynette/Q1918264",
      "heroTalk": "TALK_HERO_MAIN",
      "questId": 19182,
      "assetIndex": 14121025727294397792,
      "prePerformCfg": "",
      "lockGameTime": true,
      "PLPFOOINAAJ": [
        "[3_340100598:3483.031,284.260,4553.356]"
      ]
    }
  ],
  "preloadLuaList": [
    12210421218818647029,
    8429910189343508375,
    11653458812934370212,
    15335039205777993156,
    9745453404455222549,
    11191365131719156323,
    5536649940874221794,
    10010199649545365399,
    15365100941524039302,
    13683050214028005801
  ],
  "forcePreloadLuaList": [
    16558370152344312008
  ],
  "freeStyleDic": {
    "13932": [
      1030,
      1190,
      1230
    ],
    "13933": [
      1190,
      1230
    ],
    "13935": [
      1230
    ],
    "1073": [
      1440
    ],
    "13980": [
      1190,
      1230
    ],
    "13979": [
      1050,
      1180
    ],
    "13977": [
      1190
    ],
    "13978": [
      1190
    ],
    "13976": [
      1170
    ],
    "13934": [
      0,
      1090
    ]
  },
  "dialogList": [
    {
      "id": 191820298,
      "talkRole": {
        "type": "TALK_ROLE_PLAYER",
        "_id": ""
      },
      "talkContentTextMapHash": 4070737010,
      "talkAssetPath": "",
      "talkAssetPathAlter": "",
      "talkAudioName": "",
      "actionBefore": "",
      "actionWhile": "",
      "actionAfter": "",
      "optionIcon": "",
      "iconPath": ""
    },
    {
      "id": 191820299,
      "talkRole": {
        "type": "TALK_ROLE_PLAYER",
        "_id": ""
      },
      "talkContentTextMapHash": 141136450,
      "talkAssetPath": "",
      "talkAssetPathAlter": "",
      "talkAudioName": "",
      "actionBefore": "",
      "actionWhile": "",
      "actionAfter": "",
      "optionIcon": "",
      "iconPath": ""
    },
    {
      "id": 191820425,
      "nextDialogs": [
        191820426
      ],
      "talkRole": {
        "type": "TALK_ROLE_NPC",
        "_id": "1073"
      },
      "talkContentTextMapHash": 2439139498,
      "talkAssetPath": "",
      "talkAssetPathAlter": "",
      "talkAudioName": "",
      "actionBefore": "",
      "actionWhile": "",
      "actionAfter": "",
      "optionIcon": "",
      "iconPath": ""
    },
    {
      "id": 191820426,
      "nextDialogs": [
        191820427
      ],
      "talkRole": {
        "type": "TALK_ROLE_NPC",
        "_id": "1073"
      },
      "talkContentTextMapHash": 412134882,
      "talkAssetPath": "",
      "talkAssetPathAlter": "",
      "talkAudioName": "",
      "actionBefore": "",
      "actionWhile": "",
      "actionAfter": "",
      "optionIcon": "",
      "iconPath": ""
    },
    {
      "id": 191821193,
      "nextDialogs": [
        191821194
      ],
      "talkRole": {
        "type": "TALK_ROLE_NPC",
        "_id": "13979"
      },
      "talkContentTextMapHash": 506593098,
      "talkRoleNameTextMapHash": 1878073379,
      "talkAssetPath": "",
      "talkAssetPathAlter": "",
      "talkAudioName": "",
      "actionBefore": "",
      "actionWhile": "",
      "actionAfter": "",
      "optionIcon": "",
      "iconPath": ""
    },
    {
      "id": 191821398,
      "talkRole": {
        "type": "TALK_ROLE_PLAYER",
        "_id": ""
      },
      "talkContentTextMapHash": 2475563426,
      "talkAssetPath": "",
      "talkAssetPathAlter": "",
      "talkAudioName": "",
      "actionBefore": "",
      "actionWhile": "",
      "actionAfter": "",
      "optionIcon": "UI_Icon_Intee_CoopNumCheck",
      "iconPath": ""
    },
    {
      "id": 191821399,
      "talkRole": {
        "type": "TALK_ROLE_PLAYER",
        "_id": ""
      },
      "talkContentTextMapHash": 2543148202,
      "talkAssetPath": "",
      "talkAssetPathAlter": "",
      "talkAudioName": "",
      "actionBefore": "",
      "actionWhile": "",
      "actionAfter": "",
      "optionIcon": "",
      "iconPath": ""
    },
    {
      "id": 191821701,
      "talkShowType": "TALK_SHOW_FORCE_SELECT",
      "talkRole": {
        "type": "TALK_ROLE_PLAYER",
        "_id": ""
      },
      "talkContentTextMapHash": 2911390498,
      "talkAssetPath": "",
      "talkAssetPathAlter": "",
      "talkAudioName": "",
      "actionBefore": "",
      "actionWhile": "",
      "actionAfter": "",
      "optionIcon": "",
      "iconPath": ""
    },
    {
      "id": 191821901,
      "talkRole": {
        "type": "TALK_ROLE_PLAYER",
        "_id": ""
      },
      "talkContentTextMapHash": 1246633298,
      "talkAssetPath": "",
      "talkAssetPathAlter": "",
      "talkAudioName": "",
      "actionBefore": "",
      "actionWhile": "",
      "actionAfter": "",
      "optionIcon": "",
      "iconPath": ""
    },
    {
      "id": 191822101,
      "talkRole": {
        "type": "TALK_ROLE_BLACK_SCREEN",
        "_id": ""
      },
      "talkContentTextMapHash": 952470322,
      "talkAssetPath": "",
      "talkAssetPathAlter": "",
      "talkAudioName": "",
      "actionBefore": "",
      "actionWhile": "",
      "actionAfter": "",
      "optionIcon": "",
      "iconPath": ""
    },
    {
      "id": 191822201,
      "talkRole": {
        "type": "TALK_ROLE_BLACK_SCREEN",
        "_id": ""
      },
      "talkContentTextMapHash": 3871228370,
      "talkAssetPath": "",
      "talkAssetPathAlter": "",
      "talkAudioName": "",
      "actionBefore": "",
      "actionWhile": "",
      "actionAfter": "",
      "optionIcon": "",
      "iconPath": ""
    },
    {
      "id": 191822301,
      "talkRole": {
        "type": "TALK_ROLE_PLAYER",
        "_id": ""
      },
      "talkContentTextMapHash": 833057746,
      "talkAssetPath": "",
      "talkAssetPathAlter": "",
      "talkAudioName": "",
      "actionBefore": "",
      "actionWhile": "",
      "actionAfter": "",
      "optionIcon": "",
      "iconPath": ""
    }
  ],
  "DDHNEIEDLJA": true
}