{
  "id": 20004,
  "KPGKDHAFHFE": "IQ",
  "activeMode": "PLAY_MODE_ALL",
  "titleTextMapHash": 2854674687,
  "descTextMapHash": 431407022,
  "luaPath": "Actor/Quest/IQ20004",
  "repeatable": true,
  "rewardIdList": [
    501003
  ],
  "taskID": 29500,
  "subQuests": [
    {
      "subId": 2000401,
      "mainId": 20004,
      "order": 1,
      "descTextMapHash": 3635575420,
      "finishCond": [
        {
          "KPGKDHAFHFE": "QUEST_CONTENT_COMPLETE_TALK",
          "param": [
            2000401,
            0
          ]
        }
      ],
      "guide": {
        "KPGKDHAFHFE": "QUEST_GUIDE_NPC",
        "param": [
          "1606"
        ],
        "guideScene": 3,
        "guideStyle": "QUEST_GUIDE_STYLE_START",
        "guideLayer": "QUEST_GUIDE_LAYER_SCENE"
      },
      "guideHint": {
        "param1": ""
      },
      "isRewind": true,
      "versionBegin": "",
      "versionEnd": ""
    },
    {
      "subId": 2000402,
      "mainId": 20004,
      "order": 4,
      "descTextMapHash": 2556124164,
      "finishCond": [
        {
          "KPGKDHAFHFE": "QUEST_CONTENT_FINISH_PLOT",
          "param": [
            2000402,
            0
          ]
        }
      ],
      "guide": {
        "KPGKDHAFHFE": "QUEST_GUIDE_LOCATION",
        "param": [
          "Q2000402_N10095"
        ],
        "guideScene": 3,
        "guideStyle": "QUEST_GUIDE_STYLE_POINT",
        "guideLayer": "QUEST_GUIDE_LAYER_SCENE"
      },
      "guideHint": {
        "param1": ""
      },
      "isRewind": true,
      "versionBegin": "",
      "versionEnd": ""
    },
    {
      "subId": 2000403,
      "mainId": 20004,
      "order": 5,
      "descTextMapHash": 4234609492,
      "finishCond": [
        {
          "KPGKDHAFHFE": "QUEST_CONTENT_COMPLETE_TALK",
          "param": [
            2000403,
            0
          ]
        }
      ],
      "guide": {
        "KPGKDHAFHFE": "QUEST_GUIDE_NPC",
        "param": [
          "10095"
        ],
        "guideScene": 3,
        "guideStyle": "QUEST_GUIDE_STYLE_TARGET",
        "guideLayer": "QUEST_GUIDE_LAYER_SCENE"
      },
      "guideHint": {
        "param1": ""
      },
      "isRewind": true,
      "versionBegin": "",
      "versionEnd": ""
    },
    {
      "subId": 2000404,
      "mainId": 20004,
      "order": 6,
      "descTextMapHash": 3630786956,
      "finishCond": [
        {
          "KPGKDHAFHFE": "QUEST_CONTENT_COMPLETE_TALK",
          "param": [
            2000404,
            0
          ]
        }
      ],
      "guide": {
        "KPGKDHAFHFE": "QUEST_GUIDE_NPC",
        "param": [
          "1606"
        ],
        "guideScene": 3,
        "guideStyle": "QUEST_GUIDE_STYLE_TARGET",
        "guideLayer": "QUEST_GUIDE_LAYER_SCENE"
      },
      "guideHint": {
        "param1": ""
      },
      "isRewind": true,
      "finishExec": [
        {
          "KPGKDHAFHFE": "QUEST_EXEC_DEL_PACK_ITEM",
          "param": [
            "101675",
            "1"
          ]
        }
      ],
      "versionBegin": "",
      "versionEnd": ""
    },
    {
      "subId": 2000405,
      "mainId": 20004,
      "order": 7,
      "descTextMapHash": 2073508724,
      "finishCond": [
        {
          "KPGKDHAFHFE": "QUEST_CONTENT_COMPLETE_TALK",
          "param": [
            2000405,
            0
          ]
        }
      ],
      "guide": {
        "KPGKDHAFHFE": "QUEST_GUIDE_NPC",
        "param": [
          "10095"
        ],
        "guideScene": 3,
        "guideStyle": "QUEST_GUIDE_STYLE_FINISH",
        "guideLayer": "QUEST_GUIDE_LAYER_SCENE"
      },
      "guideHint": {
        "param1": ""
      },
      "finishParent": true,
      "isRewind": true,
      "finishExec": [
        {
          "KPGKDHAFHFE": "QUEST_EXEC_SET_DAILY_TASK_VAR",
          "param": [
            "29400",
            "1",
            "0"
          ]
        },
        {
          "KPGKDHAFHFE": "QUEST_EXEC_SET_DAILY_TASK_VAR",
          "param": [
            "29500",
            "1",
            "2"
          ]
        },
        {
          "KPGKDHAFHFE": "QUEST_EXEC_NOTIFY_DAILY_TASK",
          "param": [
            "29500"
          ]
        }
      ],
      "versionBegin": "",
      "versionEnd": ""
    },
    {
      "subId": 2000406,
      "mainId": 20004,
      "order": 2,
      "descTextMapHash": 1103590236,
      "finishCond": [
        {
          "KPGKDHAFHFE": "QUEST_CONTENT_FINISH_ITEM_GIVING",
          "param": [
            2000302,
            0
          ]
        }
      ],
      "guide": {
        "KPGKDHAFHFE": "QUEST_GUIDE_NPC",
        "param": [
          "1606"
        ],
        "guideScene": 3,
        "guideStyle": "QUEST_GUIDE_STYLE_TARGET",
        "guideLayer": "QUEST_GUIDE_LAYER_SCENE"
      },
      "guideHint": {
        "param1": ""
      },
      "isRewind": true,
      "versionBegin": "",
      "versionEnd": ""
    },
    {
      "subId": 2000407,
      "mainId": 20004,
      "order": 3,
      "descTextMapHash": 1158735676,
      "finishCond": [
        {
          "KPGKDHAFHFE": "QUEST_CONTENT_COMPLETE_TALK",
          "param": [
            2000407,
            0
          ]
        }
      ],
      "guide": {
        "KPGKDHAFHFE": "QUEST_GUIDE_NPC",
        "param": [
          "1606"
        ],
        "guideScene": 3,
        "guideStyle": "QUEST_GUIDE_STYLE_TARGET",
        "guideLayer": "QUEST_GUIDE_LAYER_SCENE"
      },
      "guideHint": {
        "param1": ""
      },
      "isRewind": true,
      "versionBegin": "",
      "versionEnd": ""
    }
  ],
  "talks": [
    {
      "id": 2000401,
      "beginWay": "TALK_BEGIN_MANUAL",
      "activeMode": "PLAY_MODE_HOST",
      "beginCond": [
        {
          "type": "QUEST_COND_STATE_EQUAL",
          "_param": [
            "2000401",
            "2"
          ]
        }
      ],
      "priority": 5,
      "initDialog": 200040101,
      "npcId": [
        1606
      ],
      "performCfg": "",
      "heroTalk": "TALK_HERO_MAIN",
      "questId": 20004,
      "assetIndex": 8107287691745417792,
      "prePerformCfg": "",
      "freeStyleList": [
        1171
      ]
    },
    {
      "id": 2000403,
      "beginWay": "TALK_BEGIN_MANUAL",
      "activeMode": "PLAY_MODE_HOST",
      "beginCond": [
        {
          "type": "QUEST_COND_STATE_EQUAL",
          "_param": [
            "2000403",
            "2"
          ]
        }
      ],
      "priority": 5,
      "initDialog": 200040301,
      "npcId": [
        10095
      ],
      "performCfg": "QuestDialogue/IQ/Mengde_20004/Q2000403",
      "heroTalk": "TALK_HERO_MAIN",
      "questId": 20004,
      "assetIndex": 17122202183297540410,
      "prePerformCfg": ""
    },
    {
      "id": 2000404,
      "beginWay": "TALK_BEGIN_MANUAL",
      "activeMode": "PLAY_MODE_HOST",
      "beginCond": [
        {
          "type": "QUEST_COND_STATE_EQUAL",
          "_param": [
            "2000404",
            "2"
          ]
        }
      ],
      "priority": 5,
      "initDialog": 200040401,
      "npcId": [
        1606
      ],
      "performCfg": "",
      "heroTalk": "TALK_HERO_MAIN",
      "questId": 20004,
      "assetIndex": 15781129952722578245,
      "prePerformCfg": ""
    },
    {
      "id": 2000405,
      "beginWay": "TALK_BEGIN_MANUAL",
      "activeMode": "PLAY_MODE_HOST",
      "beginCond": [
        {
          "type": "QUEST_COND_STATE_EQUAL",
          "_param": [
            "2000405",
            "2"
          ]
        }
      ],
      "priority": 5,
      "initDialog": 200040501,
      "npcId": [
        10095
      ],
      "performCfg": "",
      "heroTalk": "TALK_HERO_MAIN",
      "questId": 20004,
      "assetIndex": 16056301107079212135,
      "prePerformCfg": "",
      "freeStyleList": [
        1160
      ]
    },
    {
      "id": 2000406,
      "beginWay": "TALK_BEGIN_MANUAL",
      "activeMode": "PLAY_MODE_HOST",
      "beginCondComb": "LOGIC_AND",
      "beginCond": [
        {
          "type": "QUEST_COND_STATE_EQUAL",
          "_param": [
            "2000406",
            "2"
          ]
        },
        {
          "type": "QUEST_COND_ITEM_GIVING_ACTIVED",
          "_param": [
            "2000302"
          ]
        }
      ],
      "priority": 5,
      "initDialog": 200040601,
      "npcId": [
        1606
      ],
      "performCfg": "",
      "heroTalk": "TALK_HERO_MAIN",
      "questId": 20004,
      "assetIndex": 12988803771238630103,
      "prePerformCfg": ""
    },
    {
      "id": 2000407,
      "beginWay": "TALK_BEGIN_AUTO",
      "activeMode": "PLAY_MODE_HOST",
      "beginCond": [
        {
          "type": "QUEST_COND_STATE_EQUAL",
          "_param": [
            "2000407",
            "2"
          ]
        }
      ],
      "priority": 5,
      "initDialog": 200040701,
      "npcId": [
        1606
      ],
      "performCfg": "QuestDialogue/IQ/Mengde_20004/Q2000407",
      "heroTalk": "TALK_HERO_MAIN",
      "questId": 20004,
      "assetIndex": 9407621258499465013,
      "prePerformCfg": "",
      "freeStyleList": [
        5010
      ]
    },
    {
      "id": 2000409,
      "beginWay": "TALK_BEGIN_MANUAL",
      "activeMode": "PLAY_MODE_HOST",
      "beginCond": [
        {
          "type": "QUEST_COND_STATE_EQUAL",
          "_param": [
            "2000404",
            "2"
          ]
        }
      ],
      "priority": 5,
      "initDialog": 200040901,
      "npcId": [
        10095
      ],
      "performCfg": "",
      "heroTalk": "TALK_HERO_MAIN",
      "questId": 20004,
      "assetIndex": 13287701121989950430,
      "prePerformCfg": "",
      "lowPriority": true
    },
    {
      "id": 2000410,
      "beginWay": "TALK_BEGIN_MANUAL",
      "activeMode": "PLAY_MODE_HOST",
      "beginCondComb": "LOGIC_OR",
      "beginCond": [
        {
          "type": "QUEST_COND_STATE_EQUAL",
          "_param": [
            "2000402",
            "2"
          ]
        },
        {
          "type": "QUEST_COND_STATE_EQUAL",
          "_param": [
            "2000403",
            "2"
          ]
        }
      ],
      "priority": 5,
      "initDialog": 200041001,
      "npcId": [
        1606
      ],
      "performCfg": "",
      "heroTalk": "TALK_HERO_MAIN",
      "questId": 20004,
      "assetIndex": 1008870190355470417,
      "prePerformCfg": "",
      "lowPriority": true
    },
    {
      "id": 2000411,
      "beginWay": "TALK_BEGIN_MANUAL",
      "activeMode": "PLAY_MODE_HOST",
      "beginCond": [
        {
          "type": "QUEST_COND_STATE_EQUAL",
          "_param": [
            "2000405",
            "2"
          ]
        }
      ],
      "priority": 5,
      "initDialog": 200041101,
      "npcId": [
        1606
      ],
      "performCfg": "",
      "heroTalk": "TALK_HERO_MAIN",
      "questId": 20004,
      "assetIndex": 15156486730458254004,
      "prePerformCfg": "",
      "lowPriority": true
    }
  ],
  "preloadLuaList": [
    9462492379911382208
  ],
  "forcePreloadLuaList": [
    11596996166840616797
  ],
  "freeStyleDic": {
    "10095": [
      1190
    ]
  }
}