{
  "id": 20035,
  "KPGKDHAFHFE": "IQ",
  "activeMode": "PLAY_MODE_ALL",
  "titleTextMapHash": 3174426249,
  "descTextMapHash": 904239943,
  "luaPath": "Actor/Quest/IQ20035",
  "repeatable": true,
  "taskID": 20402,
  "subQuests": [
    {
      "subId": 2003501,
      "mainId": 20035,
      "order": 1,
      "descTextMapHash": 693253072,
      "finishCond": [
        {
          "KPGKDHAFHFE": "QUEST_CONTENT_COMPLETE_TALK",
          "param": [
            2003501,
            0
          ]
        }
      ],
      "guide": {
        "KPGKDHAFHFE": "QUEST_GUIDE_NPC",
        "param": [
          "155101"
        ],
        "guideScene": 3,
        "guideStyle": "QUEST_GUIDE_STYLE_START",
        "guideLayer": "QUEST_GUIDE_LAYER_UI"
      },
      "guideHint": {
        "param1": ""
      },
      "isRewind": true,
      "finishExec": [
        {
          "KPGKDHAFHFE": "QUEST_EXEC_DEL_ALL_SPECIFIC_PACK_ITEM",
          "param": [
            "100301"
          ]
        }
      ],
      "versionBegin": "",
      "versionEnd": ""
    },
    {
      "subId": 2003502,
      "mainId": 20035,
      "order": 2,
      "descTextMapHash": 3864405968,
      "finishCond": [
        {
          "KPGKDHAFHFE": "QUEST_CONTENT_OBTAIN_ITEM",
          "param": [
            100301,
            0
          ]
        }
      ],
      "guide": {
        "KPGKDHAFHFE": "QUEST_GUIDE_LOCATION",
        "param": [
          "Q20025KEY01_Reminder",
          "80"
        ],
        "guideScene": 3,
        "guideStyle": "QUEST_GUIDE_STYLE_TARGET",
        "guideLayer": "QUEST_GUIDE_LAYER_SCENE"
      },
      "guideHint": {
        "param1": ""
      },
      "isRewind": true,
      "versionBegin": "",
      "versionEnd": ""
    },
    {
      "subId": 2003504,
      "mainId": 20035,
      "order": 3,
      "descTextMapHash": 1782693176,
      "finishCond": [
        {
          "KPGKDHAFHFE": "QUEST_CONTENT_COMPLETE_TALK",
          "param": [
            2003504,
            0
          ]
        }
      ],
      "guide": {
        "KPGKDHAFHFE": "QUEST_GUIDE_NPC",
        "param": [
          "155101"
        ],
        "guideScene": 3,
        "guideStyle": "QUEST_GUIDE_STYLE_FINISH",
        "guideLayer": "QUEST_GUIDE_LAYER_SCENE"
      },
      "guideHint": {
        "param1": ""
      },
      "finishParent": true,
      "isRewind": true,
      "finishExec": [
        {
          "KPGKDHAFHFE": "QUEST_EXEC_NOTIFY_DAILY_TASK",
          "param": [
            "20402"
          ]
        },
        {
          "KPGKDHAFHFE": "QUEST_EXEC_DEL_PACK_ITEM",
          "param": [
            "100301",
            "1"
          ]
        }
      ],
      "versionBegin": "",
      "versionEnd": ""
    }
  ],
  "talks": [
    {
      "id": 2003501,
      "beginWay": "TALK_BEGIN_MANUAL",
      "activeMode": "PLAY_MODE_ALL",
      "beginCond": [
        {
          "type": "QUEST_COND_STATE_EQUAL",
          "_param": [
            "2003501",
            "2"
          ]
        }
      ],
      "priority": 5,
      "initDialog": 200350101,
      "npcId": [
        155101
      ],
      "performCfg": "",
      "questId": 20035,
      "assetIndex": 3596660627198923086,
      "prePerformCfg": ""
    },
    {
      "id": 2003502,
      "beginWay": "TALK_BEGIN_MANUAL",
      "activeMode": "PLAY_MODE_ALL",
      "beginCondComb": "LOGIC_AND",
      "beginCond": [
        {
          "type": "QUEST_COND_STATE_EQUAL",
          "_param": [
            "2003501",
            "3"
          ]
        },
        {
          "type": "QUEST_COND_STATE_EQUAL",
          "_param": [
            "2003502",
            "2"
          ]
        }
      ],
      "priority": 5,
      "initDialog": 200350201,
      "npcId": [
        155101
      ],
      "performCfg": "",
      "questId": 20035,
      "assetIndex": 9441310476459141809,
      "prePerformCfg": ""
    },
    {
      "id": 2003504,
      "beginWay": "TALK_BEGIN_MANUAL",
      "activeMode": "PLAY_MODE_ALL",
      "beginCond": [
        {
          "type": "QUEST_COND_STATE_EQUAL",
          "_param": [
            "2003502",
            "3"
          ]
        }
      ],
      "priority": 5,
      "initDialog": 200350401,
      "npcId": [
        155101
      ],
      "performCfg": "",
      "questId": 20035,
      "assetIndex": 11398922762517549103,
      "prePerformCfg": ""
    }
  ],
  "freeStyleDic": {
    "155101": [
      1240,
      1300
    ]
  }
}