{
  "id": 2005,
  "resId": 1009,
  "series": 1201,
  "titleTextMapHash": 284197415,
  "descTextMapHash": 88820798,
  "luaPath": "Actor/Quest/AQ2005",
  "suggestTrackMainQuestList": [
    2006
  ],
  "rewardIdList": [
    102005
  ],
  "chapterId": 1202,
  "subQuests": [
    {
      "subId": 200501,
      "mainId": 2005,
      "order": 1,
      "descTextMapHash": 538431412,
      "finishCond": [
        {
          "KPGKDHAFHFE": "QUEST_CONTENT_COMPLETE_TALK",
          "param": [
            200501,
            0
          ]
        }
      ],
      "guide": {
        "KPGKDHAFHFE": "QUEST_GUIDE_NPC",
        "autoGuide": "QUEST_GUIDE_AUTO_ENABLE",
        "param": [
          "3048"
        ],
        "guideScene": 3,
        "guideStyle": "QUEST_GUIDE_STYLE_TARGET",
        "guideLayer": "QUEST_GUIDE_LAYER_SCENE"
      },
      "guideHint": {
        "param1": ""
      },
      "isRewind": true,
      "versionBegin": "",
      "versionEnd": ""
    },
    {
      "subId": 200502,
      "mainId": 2005,
      "order": 4,
      "descTextMapHash": 2818233148,
      "finishCond": [
        {
          "KPGKDHAFHFE": "QUEST_CONTENT_CLEAR_GROUP_MONSTER",
          "param": [
            133221001,
            0
          ]
        }
      ],
      "guide": {
        "KPGKDHAFHFE": "QUEST_GUIDE_LOCATION",
        "autoGuide": "QUEST_GUIDE_AUTO_ENABLE",
        "param": [
          "Q200503paimon",
          "20"
        ],
        "guideScene": 3,
        "guideStyle": "QUEST_GUIDE_STYLE_TARGET",
        "guideLayer": "QUEST_GUIDE_LAYER_SCENE"
      },
      "guideHint": {
        "param1": ""
      },
      "isRewind": true,
      "finishExec": [
        {
          "KPGKDHAFHFE": "QUEST_EXEC_REFRESH_GROUP_SUITE",
          "param": [
            "3",
            "133221001,1"
          ]
        }
      ],
      "versionBegin": "",
      "versionEnd": ""
    },
    {
      "subId": 200503,
      "mainId": 2005,
      "order": 5,
      "descTextMapHash": 2338988796,
      "finishCond": [
        {
          "KPGKDHAFHFE": "QUEST_CONTENT_COMPLETE_TALK",
          "param": [
            200502,
            0
          ]
        }
      ],
      "guide": {
        "KPGKDHAFHFE": "QUEST_GUIDE_LOCATION",
        "autoGuide": "QUEST_GUIDE_AUTO_ENABLE",
        "param": [
          "Q200503paimon",
          "20"
        ],
        "guideScene": 3,
        "guideStyle": "QUEST_GUIDE_STYLE_TARGET",
        "guideLayer": "QUEST_GUIDE_LAYER_SCENE"
      },
      "guideHint": {
        "param1": ""
      },
      "isRewind": true,
      "versionBegin": "",
      "versionEnd": ""
    },
    {
      "subId": 200504,
      "mainId": 2005,
      "order": 6,
      "descTextMapHash": 202849748,
      "finishCond": [
        {
          "KPGKDHAFHFE": "QUEST_CONTENT_COMPLETE_TALK",
          "param": [
            200503,
            0
          ]
        }
      ],
      "guide": {
        "KPGKDHAFHFE": "QUEST_GUIDE_NPC",
        "autoGuide": "QUEST_GUIDE_AUTO_ENABLE",
        "param": [
          "3002"
        ],
        "guideScene": 3,
        "guideStyle": "QUEST_GUIDE_STYLE_TARGET",
        "guideLayer": "QUEST_GUIDE_LAYER_SCENE"
      },
      "guideHint": {
        "param1": ""
      },
      "isRewind": true,
      "versionBegin": "",
      "versionEnd": ""
    },
    {
      "subId": 200505,
      "mainId": 2005,
      "order": 7,
      "descTextMapHash": 1686024828,
      "finishCond": [
        {
          "KPGKDHAFHFE": "QUEST_CONTENT_COMPLETE_TALK",
          "param": [
            200504,
            0
          ]
        }
      ],
      "guide": {
        "KPGKDHAFHFE": "QUEST_GUIDE_NPC",
        "autoGuide": "QUEST_GUIDE_AUTO_ENABLE",
        "param": [
          "3048"
        ],
        "guideScene": 3,
        "guideStyle": "QUEST_GUIDE_STYLE_TARGET",
        "guideLayer": "QUEST_GUIDE_LAYER_SCENE"
      },
      "guideHint": {
        "param1": ""
      },
      "finishParent": true,
      "isRewind": true,
      "versionBegin": "",
      "versionEnd": ""
    },
    {
      "subId": 200506,
      "mainId": 2005,
      "order": 2,
      "descTextMapHash": 1986905444,
      "finishCond": [
        {
          "KPGKDHAFHFE": "QUEST_CONTENT_COMPLETE_TALK",
          "param": [
            200505,
            0
          ]
        }
      ],
      "guide": {
        "KPGKDHAFHFE": "QUEST_GUIDE_NPC",
        "autoGuide": "QUEST_GUIDE_AUTO_ENABLE",
        "param": [
          "3048"
        ],
        "guideScene": 3,
        "guideStyle": "QUEST_GUIDE_STYLE_TARGET",
        "guideLayer": "QUEST_GUIDE_LAYER_SCENE"
      },
      "guideHint": {
        "param1": ""
      },
      "isRewind": true,
      "versionBegin": "",
      "versionEnd": ""
    },
    {
      "subId": 200507,
      "mainId": 2005,
      "order": 3,
      "descTextMapHash": 3399537772,
      "finishCond": [
        {
          "KPGKDHAFHFE": "QUEST_CONTENT_COMPLETE_TALK",
          "param": [
            200508,
            0
          ]
        }
      ],
      "guide": {
        "KPGKDHAFHFE": "QUEST_GUIDE_LOCATION",
        "autoGuide": "QUEST_GUIDE_AUTO_ENABLE",
        "param": [
          "Q200503paimon",
          "50"
        ],
        "guideScene": 3,
        "guideStyle": "QUEST_GUIDE_STYLE_TARGET",
        "guideLayer": "QUEST_GUIDE_LAYER_SCENE"
      },
      "guideHint": {
        "param1": ""
      },
      "isRewind": true,
      "versionBegin": "",
      "versionEnd": ""
    }
  ],
  "talks": [
    {
      "id": 200501,
      "beginWay": "TALK_BEGIN_AUTO",
      "beginCond": [
        {
          "type": "QUEST_COND_STATE_EQUAL",
          "_param": [
            "200501",
            "2"
          ]
        }
      ],
      "priority": 5,
      "initDialog": 20050101,
      "npcId": [
        1005,
        12003,
        12000,
        3048
      ],
      "performCfg": "QuestDialogue/AQ/Inazuma1_2005/Q200501",
      "heroTalk": "TALK_HERO_MAIN",
      "questId": 2005,
      "assetIndex": 18254679811669409868,
      "prePerformCfg": ""
    },
    {
      "id": 200502,
      "beginWay": "TALK_BEGIN_AUTO",
      "beginCond": [
        {
          "type": "QUEST_COND_STATE_EQUAL",
          "_param": [
            "200503",
            "2"
          ]
        }
      ],
      "priority": 5,
      "initDialog": 20050201,
      "npcId": [
        12002,
        12022,
        1005,
        12023
      ],
      "performCfg": "QuestDialogue/AQ/Inazuma1_2005/Q200502",
      "heroTalk": "TALK_HERO_MAIN",
      "questId": 2005,
      "assetIndex": 13875395795234208499,
      "prePerformCfg": ""
    },
    {
      "id": 200503,
      "beginWay": "TALK_BEGIN_MANUAL",
      "beginCond": [
        {
          "type": "QUEST_COND_STATE_EQUAL",
          "_param": [
            "200504",
            "2"
          ]
        }
      ],
      "priority": 5,
      "initDialog": 20050301,
      "npcId": [
        3002
      ],
      "performCfg": "QuestDialogue/AQ/Inazuma1_2005/Q200503",
      "heroTalk": "TALK_HERO_MAIN",
      "questId": 2005,
      "assetIndex": 1106932636207568505,
      "prePerformCfg": ""
    },
    {
      "id": 200504,
      "beginWay": "TALK_BEGIN_MANUAL",
      "beginCond": [
        {
          "type": "QUEST_COND_STATE_EQUAL",
          "_param": [
            "200505",
            "2"
          ]
        }
      ],
      "priority": 5,
      "initDialog": 20050401,
      "npcId": [
        1005,
        3048
      ],
      "performCfg": "QuestDialogue/AQ/Inazuma1_2004/Q200504",
      "heroTalk": "TALK_HERO_MAIN",
      "questId": 2005,
      "assetIndex": 5010659533377193751,
      "prePerformCfg": ""
    },
    {
      "id": 200505,
      "beginWay": "TALK_BEGIN_MANUAL",
      "beginCond": [
        {
          "type": "QUEST_COND_STATE_EQUAL",
          "_param": [
            "200506",
            "2"
          ]
        }
      ],
      "priority": 5,
      "initDialog": 20050501,
      "npcId": [
        3048
      ],
      "performCfg": "QuestDialogue/AQ/Inazuma1_2005/Q200505",
      "heroTalk": "TALK_HERO_MAIN",
      "questId": 2005,
      "assetIndex": 11897650058097410850,
      "prePerformCfg": ""
    },
    {
      "id": 200508,
      "beginWay": "TALK_BEGIN_MANUAL",
      "beginCond": [
        {
          "type": "QUEST_COND_STATE_EQUAL",
          "_param": [
            "200507",
            "2"
          ]
        }
      ],
      "priority": 5,
      "initDialog": 20050801,
      "npcId": [
        12002,
        12022,
        12023,
        1005
      ],
      "performCfg": "QuestDialogue/AQ/Inazuma1_2005/Q200508",
      "heroTalk": "TALK_HERO_MAIN",
      "questId": 2005,
      "assetIndex": 3996303270955480594,
      "prePerformCfg": ""
    },
    {
      "id": 200509,
      "beginWay": "TALK_BEGIN_MANUAL",
      "beginCondComb": "LOGIC_AND",
      "beginCond": [
        {
          "type": "QUEST_COND_STATE_EQUAL",
          "_param": [
            "200501",
            "3"
          ]
        },
        {
          "type": "QUEST_COND_STATE_EQUAL",
          "_param": [
            "200506",
            "2"
          ]
        }
      ],
      "priority": 5,
      "initDialog": 20050901,
      "npcId": [
        12000
      ],
      "performCfg": "QuestDialogue/AQ/Inazuma1_2005/Q200509",
      "heroTalk": "TALK_HERO_MAIN",
      "questId": 2005,
      "assetIndex": 4289626072302060799,
      "prePerformCfg": ""
    },
    {
      "id": 200510,
      "beginWay": "TALK_BEGIN_MANUAL",
      "beginCondComb": "LOGIC_AND",
      "beginCond": [
        {
          "type": "QUEST_COND_STATE_EQUAL",
          "_param": [
            "200501",
            "3"
          ]
        },
        {
          "type": "QUEST_COND_STATE_EQUAL",
          "_param": [
            "200506",
            "2"
          ]
        }
      ],
      "priority": 5,
      "initDialog": 20051001,
      "npcId": [
        12003
      ],
      "performCfg": "QuestDialogue/AQ/Inazuma1_2005/Q200510",
      "heroTalk": "TALK_HERO_MAIN",
      "questId": 2005,
      "assetIndex": 14188608862044869066,
      "prePerformCfg": ""
    },
    {
      "id": 200511,
      "beginWay": "TALK_BEGIN_MANUAL",
      "beginCondComb": "LOGIC_AND",
      "beginCond": [
        {
          "type": "QUEST_COND_STATE_EQUAL",
          "_param": [
            "200507",
            "2"
          ]
        }
      ],
      "priority": 5,
      "initDialog": 20051101,
      "npcId": [
        12003
      ],
      "performCfg": "QuestDialogue/AQ/Inazuma1_2005/Q200511",
      "heroTalk": "TALK_HERO_MAIN",
      "questId": 2005,
      "assetIndex": 12968087021960471248,
      "prePerformCfg": ""
    },
    {
      "id": 200512,
      "beginWay": "TALK_BEGIN_MANUAL",
      "beginCondComb": "LOGIC_AND",
      "beginCond": [
        {
          "type": "QUEST_COND_STATE_EQUAL",
          "_param": [
            "200507",
            "2"
          ]
        }
      ],
      "priority": 5,
      "initDialog": 20051201,
      "npcId": [
        12000
      ],
      "performCfg": "QuestDialogue/AQ/Inazuma1_2005/Q200512",
      "heroTalk": "TALK_HERO_MAIN",
      "questId": 2005,
      "assetIndex": 17734900575978846199,
      "prePerformCfg": ""
    },
    {
      "id": 200513,
      "beginWay": "TALK_BEGIN_MANUAL",
      "beginCondComb": "LOGIC_AND",
      "beginCond": [
        {
          "type": "QUEST_COND_STATE_EQUAL",
          "_param": [
            "200507",
            "2"
          ]
        }
      ],
      "priority": 5,
      "initDialog": 20051301,
      "npcId": [
        3048
      ],
      "performCfg": "QuestDialogue/AQ/Inazuma1_2005/Q200513",
      "heroTalk": "TALK_HERO_MAIN",
      "questId": 2005,
      "assetIndex": 3940543939694655358,
      "prePerformCfg": ""
    }
  ],
  "preloadLuaList": [
    14457059026087496718,
    10994875438221943584,
    9850704865022636292
  ],
  "forcePreloadLuaList": [
    8120690573396413347
  ]
}