{
  "id": 20068,
  "KPGKDHAFHFE": "IQ",
  "activeMode": "PLAY_MODE_ALL",
  "titleTextMapHash": 1025888911,
  "descTextMapHash": 3462571198,
  "luaPath": "Actor/Quest/IQ20068",
  "repeatable": true,
  "taskID": 23100,
  "subQuests": [
    {
      "subId": 2006801,
      "mainId": 20068,
      "order": 1,
      "descTextMapHash": 1474815380,
      "finishCond": [
        {
          "KPGKDHAFHFE": "QUEST_CONTENT_COMPLETE_TALK",
          "param": [
            2006801,
            0
          ]
        }
      ],
      "guide": {
        "KPGKDHAFHFE": "QUEST_GUIDE_NPC",
        "param": [
          "1429"
        ],
        "guideScene": 3,
        "guideStyle": "QUEST_GUIDE_STYLE_START",
        "guideLayer": "QUEST_GUIDE_LAYER_SCENE"
      },
      "guideHint": {
        "param1": ""
      },
      "isRewind": true,
      "versionBegin": "",
      "versionEnd": ""
    },
    {
      "subId": 2006802,
      "mainId": 20068,
      "order": 2,
      "descTextMapHash": 2266839036,
      "finishCond": [
        {
          "KPGKDHAFHFE": "QUEST_CONTENT_FINISH_ITEM_GIVING",
          "param": [
            2006802,
            0
          ]
        }
      ],
      "guide": {
        "KPGKDHAFHFE": "QUEST_GUIDE_NPC",
        "param": [
          "1429"
        ],
        "guideScene": 3,
        "guideStyle": "QUEST_GUIDE_STYLE_TARGET",
        "guideLayer": "QUEST_GUIDE_LAYER_SCENE"
      },
      "guideHint": {
        "param1": ""
      },
      "isRewind": true,
      "versionBegin": "",
      "versionEnd": ""
    },
    {
      "subId": 2006803,
      "mainId": 20068,
      "order": 4,
      "descTextMapHash": 962273740,
      "finishCond": [
        {
          "KPGKDHAFHFE": "QUEST_CONTENT_COMPLETE_TALK",
          "param": [
            2006803,
            0
          ]
        }
      ],
      "guide": {
        "KPGKDHAFHFE": "QUEST_GUIDE_NPC",
        "param": [
          "1567"
        ],
        "guideScene": 3,
        "guideStyle": "QUEST_GUIDE_STYLE_TARGET",
        "guideLayer": "QUEST_GUIDE_LAYER_SCENE"
      },
      "guideHint": {
        "param1": ""
      },
      "finishParent": true,
      "isRewind": true,
      "finishExec": [
        {
          "KPGKDHAFHFE": "QUEST_EXEC_DEL_PACK_ITEM",
          "param": [
            "100453",
            "1"
          ]
        },
        {
          "KPGKDHAFHFE": "QUEST_EXEC_NOTIFY_DAILY_TASK",
          "param": [
            "23100"
          ]
        }
      ],
      "versionBegin": "",
      "versionEnd": ""
    },
    {
      "subId": 2006804,
      "mainId": 20068,
      "order": 3,
      "descTextMapHash": 1854395908,
      "showType": "QUEST_HIDDEN",
      "finishCond": [
        {
          "KPGKDHAFHFE": "QUEST_CONTENT_COMPLETE_TALK",
          "param": [
            2006804,
            0
          ]
        }
      ],
      "guide": {
        "KPGKDHAFHFE": "QUEST_GUIDE_NPC",
        "param": [
          "1429"
        ],
        "guideScene": 3,
        "guideStyle": "QUEST_GUIDE_STYLE_TARGET",
        "guideLayer": "QUEST_GUIDE_LAYER_SCENE"
      },
      "guideHint": {
        "param1": ""
      },
      "isRewind": true,
      "versionBegin": "",
      "versionEnd": ""
    }
  ],
  "talks": [
    {
      "id": 2006801,
      "beginWay": "TALK_BEGIN_MANUAL",
      "activeMode": "PLAY_MODE_ALL",
      "beginCondComb": "LOGIC_AND",
      "beginCond": [
        {
          "type": "QUEST_COND_STATE_EQUAL",
          "_param": [
            "2006801",
            "2"
          ]
        }
      ],
      "priority": 5,
      "initDialog": 200680101,
      "npcId": [
        1429
      ],
      "performCfg": "",
      "heroTalk": "TALK_HERO_MAIN",
      "questId": 20068,
      "assetIndex": 13576081671050338510,
      "prePerformCfg": ""
    },
    {
      "id": 2006802,
      "beginWay": "TALK_BEGIN_MANUAL",
      "activeMode": "PLAY_MODE_ALL",
      "beginCondComb": "LOGIC_AND",
      "beginCond": [
        {
          "type": "QUEST_COND_ITEM_GIVING_ACTIVED",
          "_param": [
            "2006802",
            "3"
          ]
        },
        {
          "type": "QUEST_COND_STATE_EQUAL",
          "_param": [
            "2006801",
            "3"
          ]
        }
      ],
      "priority": 6,
      "initDialog": 200680201,
      "npcId": [
        1429
      ],
      "performCfg": "",
      "heroTalk": "TALK_HERO_MAIN",
      "questId": 20068,
      "assetIndex": 4656275828855195069,
      "prePerformCfg": ""
    },
    {
      "id": 2006803,
      "beginWay": "TALK_BEGIN_MANUAL",
      "activeMode": "PLAY_MODE_ALL",
      "beginCondComb": "LOGIC_AND",
      "beginCond": [
        {
          "type": "QUEST_COND_STATE_EQUAL",
          "_param": [
            "2006803",
            "2"
          ]
        }
      ],
      "priority": 5,
      "initDialog": 200680301,
      "npcId": [
        1567
      ],
      "performCfg": "",
      "heroTalk": "TALK_HERO_MAIN",
      "questId": 20068,
      "assetIndex": 14227527674378153566,
      "prePerformCfg": ""
    },
    {
      "id": 2006804,
      "beginWay": "TALK_BEGIN_MANUAL",
      "activeMode": "PLAY_MODE_ALL",
      "beginCondComb": "LOGIC_AND",
      "beginCond": [
        {
          "type": "QUEST_COND_STATE_EQUAL",
          "_param": [
            "2006804",
            "2"
          ]
        }
      ],
      "priority": 11,
      "initDialog": 200680401,
      "npcId": [
        1429
      ],
      "performCfg": "",
      "heroTalk": "TALK_HERO_MAIN",
      "questId": 20068,
      "assetIndex": 14485607558551520594,
      "prePerformCfg": ""
    },
    {
      "id": 2006805,
      "beginWay": "TALK_BEGIN_MANUAL",
      "activeMode": "PLAY_MODE_ALL",
      "beginCond": [
        {
          "type": "QUEST_COND_STATE_EQUAL",
          "_param": [
            "2006803",
            "2"
          ]
        }
      ],
      "priority": 6,
      "initDialog": 200680501,
      "npcId": [
        1429
      ],
      "performCfg": "",
      "heroTalk": "TALK_HERO_MAIN",
      "questId": 20068,
      "assetIndex": 12073735269339802831,
      "prePerformCfg": ""
    },
    {
      "id": 2006806,
      "beginWay": "TALK_BEGIN_MANUAL",
      "activeMode": "PLAY_MODE_ALL",
      "beginCondComb": "LOGIC_OR",
      "beginCond": [
        {
          "type": "QUEST_COND_STATE_EQUAL",
          "_param": [
            "2006802",
            "2"
          ]
        },
        {
          "type": "QUEST_COND_STATE_EQUAL",
          "_param": [
            "2006801",
            "2"
          ]
        }
      ],
      "priority": 6,
      "initDialog": 200680601,
      "npcId": [
        1567
      ],
      "performCfg": "",
      "heroTalk": "TALK_HERO_MAIN",
      "questId": 20068,
      "assetIndex": 11910764532654416959,
      "prePerformCfg": ""
    }
  ]
}