{
  "id": 2006,
  "resId": 1009,
  "series": 1201,
  "titleTextMapHash": 4099676191,
  "descTextMapHash": 2475597846,
  "luaPath": "Actor/Quest/AQ2006",
  "suggestTrackMainQuestList": [
    2007
  ],
  "rewardIdList": [
    102006
  ],
  "chapterId": 1202,
  "subQuests": [
    {
      "subId": 200601,
      "mainId": 2006,
      "order": 1,
      "descTextMapHash": 158705964,
      "finishCond": [
        {
          "KPGKDHAFHFE": "QUEST_CONTENT_COMPLETE_TALK",
          "param": [
            200601,
            0
          ]
        }
      ],
      "guide": {
        "KPGKDHAFHFE": "QUEST_GUIDE_NPC",
        "autoGuide": "QUEST_GUIDE_AUTO_ENABLE",
        "param": [
          "12005"
        ],
        "guideScene": 3,
        "guideStyle": "QUEST_GUIDE_STYLE_TARGET",
        "guideLayer": "QUEST_GUIDE_LAYER_SCENE"
      },
      "guideHint": {
        "param1": ""
      },
      "isRewind": true,
      "versionBegin": "",
      "versionEnd": ""
    },
    {
      "subId": 200602,
      "mainId": 2006,
      "order": 2,
      "descTextMapHash": 1515476252,
      "finishCond": [
        {
          "KPGKDHAFHFE": "QUEST_CONTENT_GAME_TIME_TICK",
          "param": [
            0,
            0
          ]
        }
      ],
      "guide": {},
      "guideHint": {
        "param1": ""
      },
      "isRewind": true,
      "versionBegin": "",
      "versionEnd": ""
    },
    {
      "subId": 200603,
      "mainId": 2006,
      "order": 3,
      "descTextMapHash": 4200424428,
      "finishCond": [
        {
          "KPGKDHAFHFE": "QUEST_CONTENT_COMPLETE_TALK",
          "param": [
            200602,
            0
          ]
        }
      ],
      "guide": {
        "KPGKDHAFHFE": "QUEST_GUIDE_NPC",
        "autoGuide": "QUEST_GUIDE_AUTO_ENABLE",
        "param": [
          "12005"
        ],
        "guideScene": 3,
        "guideStyle": "QUEST_GUIDE_STYLE_TARGET",
        "guideLayer": "QUEST_GUIDE_LAYER_SCENE"
      },
      "guideHint": {
        "param1": ""
      },
      "isRewind": true,
      "versionBegin": "",
      "versionEnd": ""
    },
    {
      "subId": 200604,
      "mainId": 2006,
      "order": 6,
      "descTextMapHash": 2139850572,
      "finishCond": [
        {
          "KPGKDHAFHFE": "QUEST_CONTENT_FINISH_PLOT",
          "param": [
            200604,
            0
          ]
        }
      ],
      "guide": {
        "KPGKDHAFHFE": "QUEST_GUIDE_LOCATION",
        "autoGuide": "QUEST_GUIDE_AUTO_ENABLE",
        "param": [
          "Q200605mass1",
          "20"
        ],
        "guideScene": 3,
        "guideStyle": "QUEST_GUIDE_STYLE_TARGET",
        "guideLayer": "QUEST_GUIDE_LAYER_SCENE"
      },
      "guideHint": {
        "param1": ""
      },
      "isRewind": true,
      "versionBegin": "",
      "versionEnd": ""
    },
    {
      "subId": 200605,
      "mainId": 2006,
      "order": 7,
      "descTextMapHash": 919530468,
      "finishCond": [
        {
          "KPGKDHAFHFE": "QUEST_CONTENT_COMPLETE_TALK",
          "param": [
            200604,
            0
          ]
        }
      ],
      "guide": {
        "KPGKDHAFHFE": "QUEST_GUIDE_NPC",
        "autoGuide": "QUEST_GUIDE_AUTO_ENABLE",
        "param": [
          "12006"
        ],
        "guideScene": 3,
        "guideStyle": "QUEST_GUIDE_STYLE_TARGET",
        "guideLayer": "QUEST_GUIDE_LAYER_SCENE"
      },
      "guideHint": {
        "param1": ""
      },
      "isRewind": true,
      "versionBegin": "",
      "versionEnd": ""
    },
    {
      "subId": 200606,
      "mainId": 2006,
      "order": 8,
      "descTextMapHash": 1659041004,
      "finishCond": [
        {
          "KPGKDHAFHFE": "QUEST_CONTENT_COMPLETE_TALK",
          "param": [
            200605,
            0
          ]
        }
      ],
      "guide": {
        "KPGKDHAFHFE": "QUEST_GUIDE_LOCATION",
        "autoGuide": "QUEST_GUIDE_AUTO_ENABLE",
        "param": [
          "Q200602mass1",
          "30"
        ],
        "guideScene": 3,
        "guideStyle": "QUEST_GUIDE_STYLE_TARGET",
        "guideLayer": "QUEST_GUIDE_LAYER_SCENE"
      },
      "guideHint": {
        "param1": ""
      },
      "isRewind": true,
      "versionBegin": "",
      "versionEnd": ""
    },
    {
      "subId": 200607,
      "mainId": 2006,
      "order": 9,
      "descTextMapHash": 3349802956,
      "finishCond": [
        {
          "KPGKDHAFHFE": "QUEST_CONTENT_COMPLETE_TALK",
          "param": [
            200606,
            0
          ]
        }
      ],
      "guide": {
        "KPGKDHAFHFE": "QUEST_GUIDE_LOCATION",
        "autoGuide": "QUEST_GUIDE_AUTO_ENABLE",
        "param": [
          "Q200607born"
        ],
        "guideScene": 3,
        "guideStyle": "QUEST_GUIDE_STYLE_POINT",
        "guideLayer": "QUEST_GUIDE_LAYER_SCENE"
      },
      "guideHint": {
        "param1": ""
      },
      "finishParent": true,
      "isRewind": true,
      "versionBegin": "",
      "versionEnd": ""
    },
    {
      "subId": 200608,
      "mainId": 2006,
      "order": 4,
      "descTextMapHash": 2596406892,
      "finishCond": [
        {
          "KPGKDHAFHFE": "QUEST_CONTENT_FINISH_PLOT",
          "param": [
            200608,
            0
          ]
        }
      ],
      "guide": {
        "KPGKDHAFHFE": "QUEST_GUIDE_LOCATION",
        "autoGuide": "QUEST_GUIDE_AUTO_ENABLE",
        "param": [
          "Q200608task1"
        ],
        "guideScene": 3,
        "guideStyle": "QUEST_GUIDE_STYLE_POINT",
        "guideLayer": "QUEST_GUIDE_LAYER_SCENE"
      },
      "guideHint": {
        "param1": ""
      },
      "isRewind": true,
      "versionBegin": "",
      "versionEnd": ""
    },
    {
      "subId": 200609,
      "mainId": 2006,
      "order": 5,
      "descTextMapHash": 2321705852,
      "finishCond": [
        {
          "KPGKDHAFHFE": "QUEST_CONTENT_FINISH_PLOT",
          "param": [
            200609,
            0
          ]
        }
      ],
      "guide": {
        "KPGKDHAFHFE": "QUEST_GUIDE_LOCATION",
        "autoGuide": "QUEST_GUIDE_AUTO_ENABLE",
        "param": [
          "Q200608task2"
        ],
        "guideScene": 3,
        "guideStyle": "QUEST_GUIDE_STYLE_POINT",
        "guideLayer": "QUEST_GUIDE_LAYER_SCENE"
      },
      "guideHint": {
        "param1": ""
      },
      "isRewind": true,
      "versionBegin": "",
      "versionEnd": ""
    },
    {
      "subId": 200610,
      "mainId": 2006,
      "order": 10,
      "descTextMapHash": 2284609068,
      "finishCond": [
        {
          "KPGKDHAFHFE": "QUEST_CONTENT_FINISH_PLOT",
          "param": [
            200610,
            0
          ]
        }
      ],
      "guide": {},
      "guideHint": {
        "param1": ""
      },
      "versionBegin": "",
      "versionEnd": ""
    }
  ],
  "talks": [
    {
      "id": 200601,
      "beginWay": "TALK_BEGIN_MANUAL",
      "beginCond": [
        {
          "type": "QUEST_COND_STATE_EQUAL",
          "_param": [
            "200601",
            "2"
          ]
        }
      ],
      "priority": 5,
      "initDialog": 20060101,
      "npcId": [
        12005,
        3031
      ],
      "performCfg": "QuestDialogue/AQ/Inazuma1_2006/Q200601",
      "heroTalk": "TALK_HERO_MAIN",
      "questId": 2006,
      "assetIndex": 17665461970534678969,
      "prePerformCfg": ""
    },
    {
      "id": 200602,
      "beginWay": "TALK_BEGIN_MANUAL",
      "beginCond": [
        {
          "type": "QUEST_COND_STATE_EQUAL",
          "_param": [
            "200603",
            "2"
          ]
        }
      ],
      "priority": 5,
      "initDialog": 20060201,
      "npcId": [
        12005,
        1005
      ],
      "performCfg": "QuestDialogue/AQ/Inazuma1_2006/Q200602",
      "heroTalk": "TALK_HERO_MAIN",
      "questId": 2006,
      "assetIndex": 7054612048050792124,
      "prePerformCfg": ""
    },
    {
      "id": 200604,
      "beginWay": "TALK_BEGIN_MANUAL",
      "beginCond": [
        {
          "type": "QUEST_COND_STATE_EQUAL",
          "_param": [
            "200605",
            "2"
          ]
        }
      ],
      "priority": 5,
      "initDialog": 20060401,
      "npcId": [
        12006,
        1005
      ],
      "performCfg": "QuestDialogue/AQ/Inazuma1_2006/Q200604",
      "heroTalk": "TALK_HERO_MAIN",
      "questId": 2006,
      "assetIndex": 7993480929539065467,
      "prePerformCfg": ""
    },
    {
      "id": 200605,
      "beginWay": "TALK_BEGIN_MANUAL",
      "beginCond": [
        {
          "type": "QUEST_COND_STATE_EQUAL",
          "_param": [
            "200606",
            "2"
          ]
        }
      ],
      "priority": 5,
      "initDialog": 20060501,
      "npcId": [
        1005
      ],
      "performCfg": "QuestDialogue/AQ/Inazuma1_2006/Q200605",
      "heroTalk": "TALK_HERO_MAIN",
      "questId": 2006,
      "assetIndex": 6609773203812345344,
      "prePerformCfg": ""
    },
    {
      "id": 200606,
      "beginWay": "TALK_BEGIN_MANUAL",
      "beginCond": [
        {
          "type": "QUEST_COND_STATE_EQUAL",
          "_param": [
            "200607",
            "2"
          ]
        }
      ],
      "priority": 5,
      "initDialog": 20060601,
      "npcId": [
        1034
      ],
      "performCfg": "QuestDialogue/AQ/Inazuma1_2006/Q200606",
      "heroTalk": "TALK_HERO_MAIN",
      "questId": 2006,
      "assetIndex": 8478123563443268873,
      "prePerformCfg": ""
    },
    {
      "id": 200607,
      "beginWay": "TALK_BEGIN_MANUAL",
      "beginCondComb": "LOGIC_AND",
      "beginCond": [
        {
          "type": "QUEST_COND_STATE_EQUAL",
          "_param": [
            "200601",
            "3"
          ]
        },
        {
          "type": "QUEST_COND_STATE_EQUAL",
          "_param": [
            "200602",
            "2"
          ]
        }
      ],
      "priority": 5,
      "initDialog": 20060701,
      "npcId": [
        12005
      ],
      "performCfg": "QuestDialogue/AQ/Inazuma1_2006/Q200607",
      "heroTalk": "TALK_HERO_MAIN",
      "questId": 2006,
      "assetIndex": 12484025002976554206,
      "prePerformCfg": ""
    },
    {
      "id": 200608,
      "beginWay": "TALK_BEGIN_MANUAL",
      "beginCondComb": "LOGIC_AND",
      "beginCond": [
        {
          "type": "QUEST_COND_STATE_EQUAL",
          "_param": [
            "200601",
            "3"
          ]
        },
        {
          "type": "QUEST_COND_STATE_EQUAL",
          "_param": [
            "200602",
            "2"
          ]
        }
      ],
      "priority": 5,
      "initDialog": 20060801,
      "npcId": [
        3031
      ],
      "performCfg": "QuestDialogue/AQ/Inazuma1_2006/Q200608",
      "heroTalk": "TALK_HERO_MAIN",
      "questId": 2006,
      "assetIndex": 15550025851215141425,
      "prePerformCfg": ""
    }
  ],
  "preloadLuaList": [
    14457059026087496718,
    7259777931220615310,
    7005845259042758170,
    3723218850554851521,
    5668806924858511643,
    15133145642944433862,
    12172779555625357336
  ],
  "forcePreloadLuaList": [
    10554048344655523693
  ]
}