{
  "id": 2014,
  "resId": 1011,
  "series": 1210,
  "titleTextMapHash": 4016615943,
  "descTextMapHash": 960288382,
  "luaPath": "Actor/Quest/AQ2014",
  "suggestTrackMainQuestList": [
    2015
  ],
  "rewardIdList": [
    102014
  ],
  "chapterId": 1204,
  "subQuests": [
    {
      "subId": 201401,
      "mainId": 2014,
      "order": 1,
      "descTextMapHash": 2185202684,
      "finishCond": [
        {
          "KPGKDHAFHFE": "QUEST_CONTENT_FINISH_PLOT",
          "param": [
            201401,
            0
          ]
        },
        {
          "KPGKDHAFHFE": "QUEST_CONTENT_LUA_NOTIFY",
          "param": [
            0,
            0
          ],
          "count": 1
        }
      ],
      "guide": {
        "KPGKDHAFHFE": "QUEST_GUIDE_LOCATION",
        "param": [
          "Q201401Target"
        ],
        "guideScene": 3,
        "guideStyle": "QUEST_GUIDE_STYLE_POINT",
        "guideLayer": "QUEST_GUIDE_LAYER_SCENE"
      },
      "guideHint": {
        "param1": ""
      },
      "isRewind": true,
      "versionBegin": "",
      "versionEnd": ""
    },
    {
      "subId": 201402,
      "mainId": 2014,
      "order": 2,
      "descTextMapHash": 1839190676,
      "showType": "QUEST_HIDDEN",
      "finishCond": [
        {
          "KPGKDHAFHFE": "QUEST_CONTENT_FINISH_PLOT",
          "param": [
            201402,
            0
          ]
        }
      ],
      "guide": {
        "KPGKDHAFHFE": "QUEST_GUIDE_NPC",
        "param": [
          "1005"
        ],
        "guideScene": 3,
        "guideStyle": "QUEST_GUIDE_STYLE_TARGET",
        "guideLayer": "QUEST_GUIDE_LAYER_SCENE"
      },
      "guideHint": {
        "param1": ""
      },
      "versionBegin": "",
      "versionEnd": ""
    },
    {
      "subId": 201403,
      "mainId": 2014,
      "order": 3,
      "descTextMapHash": 3525214612,
      "finishCond": [
        {
          "KPGKDHAFHFE": "QUEST_CONTENT_LUA_NOTIFY",
          "param": [
            0,
            0
          ],
          "count": 1
        }
      ],
      "guide": {
        "KPGKDHAFHFE": "QUEST_GUIDE_LOCATION",
        "param": [
          "Q201403Target",
          "50"
        ],
        "guideScene": 3,
        "guideStyle": "QUEST_GUIDE_STYLE_TARGET",
        "guideLayer": "QUEST_GUIDE_LAYER_SCENE"
      },
      "guideHint": {
        "param1": ""
      },
      "versionBegin": "",
      "versionEnd": ""
    },
    {
      "subId": 201404,
      "mainId": 2014,
      "order": 4,
      "descTextMapHash": 2454644740,
      "finishCond": [
        {
          "KPGKDHAFHFE": "QUEST_CONTENT_LUA_NOTIFY",
          "param": [
            0,
            0
          ],
          "count": 1
        }
      ],
      "guide": {
        "KPGKDHAFHFE": "QUEST_GUIDE_LOCATION",
        "param": [
          "Q201403Target",
          "30"
        ],
        "guideScene": 3,
        "guideStyle": "QUEST_GUIDE_STYLE_TARGET",
        "guideLayer": "QUEST_GUIDE_LAYER_SCENE"
      },
      "guideHint": {
        "param1": ""
      },
      "versionBegin": "",
      "versionEnd": ""
    },
    {
      "subId": 201405,
      "mainId": 2014,
      "order": 5,
      "descTextMapHash": 402721788,
      "finishCond": [
        {
          "KPGKDHAFHFE": "QUEST_CONTENT_COMPLETE_TALK",
          "param": [
            201405,
            0
          ]
        }
      ],
      "guide": {
        "KPGKDHAFHFE": "QUEST_GUIDE_LOCATION",
        "param": [
          "Q201403Target"
        ],
        "guideScene": 3,
        "guideStyle": "QUEST_GUIDE_STYLE_POINT",
        "guideLayer": "QUEST_GUIDE_LAYER_SCENE"
      },
      "guideHint": {
        "param1": ""
      },
      "isRewind": true,
      "finishExec": [
        {
          "KPGKDHAFHFE": "QUEST_EXEC_UNREGISTER_DYNAMIC_GROUP",
          "param": [
            "133211001",
            "1"
          ]
        }
      ],
      "versionBegin": "",
      "versionEnd": ""
    },
    {
      "subId": 201406,
      "mainId": 2014,
      "order": 6,
      "descTextMapHash": 1219860564,
      "finishCond": [
        {
          "KPGKDHAFHFE": "QUEST_CONTENT_COMPLETE_TALK",
          "param": [
            201406,
            0
          ]
        }
      ],
      "guide": {
        "KPGKDHAFHFE": "QUEST_GUIDE_NPC",
        "param": [
          "1037"
        ],
        "guideScene": 3,
        "guideStyle": "QUEST_GUIDE_STYLE_TARGET",
        "guideLayer": "QUEST_GUIDE_LAYER_SCENE"
      },
      "guideHint": {
        "param1": ""
      },
      "isRewind": true,
      "versionBegin": "",
      "versionEnd": ""
    },
    {
      "subId": 201407,
      "mainId": 2014,
      "order": 7,
      "descTextMapHash": 1086875868,
      "finishCond": [
        {
          "KPGKDHAFHFE": "QUEST_CONTENT_FINISH_PLOT",
          "param": [
            201407,
            0
          ]
        }
      ],
      "guide": {
        "KPGKDHAFHFE": "QUEST_GUIDE_LOCATION",
        "param": [
          "Q201407Target",
          "30"
        ],
        "guideScene": 3,
        "guideStyle": "QUEST_GUIDE_STYLE_TARGET",
        "guideLayer": "QUEST_GUIDE_LAYER_SCENE"
      },
      "guideHint": {
        "param1": ""
      },
      "isRewind": true,
      "versionBegin": "",
      "versionEnd": ""
    },
    {
      "subId": 201408,
      "mainId": 2014,
      "order": 8,
      "descTextMapHash": 4038058916,
      "finishCond": [
        {
          "KPGKDHAFHFE": "QUEST_CONTENT_COMPLETE_TALK",
          "param": [
            201408,
            0
          ]
        }
      ],
      "guide": {
        "KPGKDHAFHFE": "QUEST_GUIDE_NPC",
        "param": [
          "12072"
        ],
        "guideScene": 3,
        "guideStyle": "QUEST_GUIDE_STYLE_TARGET",
        "guideLayer": "QUEST_GUIDE_LAYER_SCENE"
      },
      "guideHint": {
        "param1": ""
      },
      "finishParent": true,
      "versionBegin": "",
      "versionEnd": ""
    }
  ],
  "talks": [
    {
      "id": 201402,
      "beginWay": "TALK_BEGIN_MANUAL",
      "beginCond": [
        {
          "type": "QUEST_COND_STATE_EQUAL",
          "_param": [
            "201402",
            "2"
          ]
        }
      ],
      "priority": 5,
      "initDialog": 20140501,
      "npcId": [
        1005
      ],
      "performCfg": "QuestDialogue/AQ/Inazuma2_2014/Q201402",
      "heroTalk": "TALK_HERO_MAIN",
      "questId": 2014,
      "assetIndex": 1910809326545216805,
      "prePerformCfg": ""
    },
    {
      "id": 201405,
      "beginWay": "TALK_BEGIN_MANUAL",
      "beginCond": [
        {
          "type": "QUEST_COND_STATE_EQUAL",
          "_param": [
            "201405",
            "2"
          ]
        }
      ],
      "priority": 5,
      "initDialog": 20140501,
      "npcId": [
        12071,
        1005
      ],
      "performCfg": "QuestDialogue/AQ/Inazuma2_2014/Q201405",
      "heroTalk": "TALK_HERO_MAIN",
      "questId": 2014,
      "assetIndex": 14250143274290464602,
      "prePerformCfg": ""
    },
    {
      "id": 201406,
      "beginWay": "TALK_BEGIN_MANUAL",
      "beginCond": [
        {
          "type": "QUEST_COND_STATE_EQUAL",
          "_param": [
            "201406",
            "2"
          ]
        }
      ],
      "priority": 5,
      "initDialog": 20140601,
      "npcId": [
        1037
      ],
      "performCfg": "QuestDialogue/AQ/Inazuma2_2014/Q201406",
      "heroTalk": "TALK_HERO_MAIN",
      "questId": 2014,
      "assetIndex": 1383526246986990275,
      "prePerformCfg": ""
    },
    {
      "id": 201408,
      "beginWay": "TALK_BEGIN_MANUAL",
      "beginCond": [
        {
          "type": "QUEST_COND_STATE_EQUAL",
          "_param": [
            "201408",
            "2"
          ]
        }
      ],
      "priority": 5,
      "initDialog": 20140801,
      "npcId": [
        12072
      ],
      "performCfg": "QuestDialogue/AQ/Inazuma2_2014/Q201408",
      "heroTalk": "TALK_HERO_MAIN",
      "questId": 2014,
      "assetIndex": 17812404931317678110,
      "prePerformCfg": ""
    },
    {
      "id": 201450,
      "beginWay": "TALK_BEGIN_MANUAL",
      "beginCond": [
        {
          "type": "QUEST_COND_STATE_EQUAL",
          "_param": [
            "201407",
            "2"
          ]
        }
      ],
      "priority": 5,
      "initDialog": 20145001,
      "npcId": [
        1037,
        1039
      ],
      "performCfg": "QuestDialogue/AQ/Inazuma2_2014/Q201450",
      "heroTalk": "TALK_HERO_MAIN",
      "questId": 2014,
      "assetIndex": 10646243074071409225,
      "prePerformCfg": ""
    }
  ],
  "preloadLuaList": [
    14457059026087496718,
    6497829428904072563,
    16300149851001378366,
    4618079211607140886,
    191486901913561922
  ],
  "forcePreloadLuaList": [
    8378323962123557667
  ],
  "freeStyleDic": {
    "1037": [
      1190
    ],
    "1039": [
      1170
    ],
    "12072": [
      4110
    ]
  }
}