{
  "id": 2022,
  "resId": 1010,
  "titleTextMapHash": 3255389847,
  "luaPath": "Actor/Quest/AQ2022",
  "showType": "QUEST_HIDDEN",
  "subQuests": [
    {
      "subId": 202201,
      "mainId": 2022,
      "order": 1,
      "descTextMapHash": 3924419828,
      "showType": "QUEST_HIDDEN",
      "finishCond": [
        {
          "KPGKDHAFHFE": "QUEST_CONTENT_COMPLETE_ANY_TALK",
          "param": [
            0,
            0
          ]
        }
      ],
      "failCond": [
        {
          "KPGKDHAFHFE": "QUEST_CONTENT_ADD_QUEST_PROGRESS",
          "param": [
            202201,
            0
          ],
          "count": 1
        },
        {
          "KPGKDHAFHFE": "QUEST_CONTENT_QUEST_STATE_EQUAL",
          "param": [
            202101,
            3
          ]
        },
        {
          "KPGKDHAFHFE": "QUEST_CONTENT_QUEST_STATE_EQUAL",
          "param": [
            202102,
            3
          ]
        }
      ],
      "guide": {},
      "guideHint": {
        "param1": ""
      },
      "isRewind": true,
      "versionBegin": "",
      "versionEnd": ""
    },
    {
      "subId": 202202,
      "mainId": 2022,
      "order": 2,
      "descTextMapHash": 3733012948,
      "showType": "QUEST_HIDDEN",
      "finishCond": [
        {
          "KPGKDHAFHFE": "QUEST_CONTENT_FINISH_PLOT",
          "param": [
            202202,
            0
          ]
        }
      ],
      "guide": {},
      "guideHint": {
        "param1": ""
      },
      "isRewind": true,
      "finishExec": [
        {
          "KPGKDHAFHFE": "QUEST_EXEC_ROLLBACK_QUEST",
          "param": [
            "202201"
          ]
        }
      ],
      "versionBegin": "",
      "versionEnd": ""
    },
    {
      "subId": 202203,
      "mainId": 2022,
      "order": 3,
      "descTextMapHash": 1394969108,
      "showType": "QUEST_HIDDEN",
      "finishCond": [
        {
          "KPGKDHAFHFE": "QUEST_CONTENT_FINISH_PLOT",
          "param": [
            202203,
            0
          ]
        }
      ],
      "guide": {},
      "guideHint": {
        "param1": ""
      },
      "finishParent": true,
      "isRewind": true,
      "versionBegin": "",
      "versionEnd": ""
    }
  ],
  "talks": [
    {
      "id": 202201,
      "beginWay": "TALK_BEGIN_AUTO",
      "beginCond": [
        {
          "type": "QUEST_COND_STATE_EQUAL",
          "_param": [
            "202201",
            "2"
          ]
        }
      ],
      "priority": 5,
      "initDialog": 20220101,
      "npcId": [
        12091,
        20457,
        20458,
        20459,
        20460
      ],
      "performCfg": "",
      "heroTalk": "TALK_HERO_MAIN",
      "questId": 2022,
      "assetIndex": 485602411692417706,
      "prePerformCfg": ""
    },
    {
      "id": 202202,
      "beginWay": "TALK_BEGIN_AUTO",
      "beginCond": [
        {
          "type": "QUEST_COND_STATE_EQUAL",
          "_param": [
            "202201",
            "2"
          ]
        }
      ],
      "priority": 5,
      "initDialog": 20220201,
      "npcId": [
        12093,
        20469,
        20470,
        20471
      ],
      "performCfg": "",
      "heroTalk": "TALK_HERO_MAIN",
      "questId": 2022,
      "assetIndex": 13227133080797519972,
      "prePerformCfg": ""
    },
    {
      "id": 202203,
      "beginWay": "TALK_BEGIN_AUTO",
      "beginCond": [
        {
          "type": "QUEST_COND_STATE_EQUAL",
          "_param": [
            "202201",
            "2"
          ]
        }
      ],
      "priority": 5,
      "initDialog": 20220301,
      "npcId": [
        12092,
        20472,
        20473,
        20474
      ],
      "performCfg": "",
      "heroTalk": "TALK_HERO_MAIN",
      "questId": 2022,
      "assetIndex": 7862310301895561592,
      "prePerformCfg": ""
    },
    {
      "id": 202204,
      "beginWay": "TALK_BEGIN_AUTO",
      "beginCond": [
        {
          "type": "QUEST_COND_STATE_EQUAL",
          "_param": [
            "202201",
            "2"
          ]
        }
      ],
      "priority": 5,
      "initDialog": 20220401,
      "npcId": [
        12094
      ],
      "performCfg": "",
      "heroTalk": "TALK_HERO_MAIN",
      "questId": 2022,
      "assetIndex": 6050572859133507841,
      "prePerformCfg": ""
    }
  ]
}