{
  "id": 2025,
  "resId": 1009,
  "activeMode": "PLAY_MODE_ALL",
  "titleTextMapHash": 3452945279,
  "descTextMapHash": 3267033422,
  "luaPath": "Actor/Quest/AQ2025",
  "showType": "QUEST_HIDDEN",
  "subQuests": [
    {
      "subId": 202501,
      "mainId": 2025,
      "order": 1,
      "descTextMapHash": 2810401764,
      "showType": "QUEST_HIDDEN",
      "finishCond": [
        {
          "KPGKDHAFHFE": "QUEST_CONTENT_FINISH_PLOT",
          "param": [
            201310,
            0
          ]
        }
      ],
      "guide": {},
      "guideHint": {
        "param1": ""
      },
      "isRewind": true,
      "finishExec": [
        {
          "KPGKDHAFHFE": "QUEST_EXEC_UNLOCK_POINT",
          "param": [
            "3",
            "305"
          ]
        }
      ],
      "versionBegin": "",
      "versionEnd": ""
    },
    {
      "subId": 202502,
      "mainId": 2025,
      "order": 2,
      "descTextMapHash": 2996831084,
      "showType": "QUEST_HIDDEN",
      "finishCond": [
        {
          "KPGKDHAFHFE": "QUEST_CONTENT_UNLOCK_TRANS_POINT",
          "param": [
            3,
            305
          ]
        }
      ],
      "guide": {},
      "guideHint": {
        "param1": ""
      },
      "finishParent": true,
      "versionBegin": "",
      "versionEnd": ""
    }
  ]
}