{
  "id": 22015,
  "KPGKDHAFHFE": "IQ",
  "activeMode": "PLAY_MODE_ALL",
  "titleTextMapHash": 2255507855,
  "descTextMapHash": 80016558,
  "luaPath": "Actor/Quest/IQ22015",
  "repeatable": true,
  "taskID": 41070,
  "subQuests": [
    {
      "subId": 2201501,
      "mainId": 22015,
      "order": 1,
      "descTextMapHash": 1721676540,
      "finishCond": [
        {
          "KPGKDHAFHFE": "QUEST_CONTENT_COMPLETE_TALK",
          "param": [
            2201508,
            0
          ]
        }
      ],
      "guide": {
        "KPGKDHAFHFE": "QUEST_GUIDE_NPC",
        "param": [
          "3041",
          "SELECT_NPC_NONE"
        ],
        "guideScene": 3,
        "guideStyle": "QUEST_GUIDE_STYLE_TARGET"
      },
      "guideHint": {
        "param1": ""
      },
      "isRewind": true,
      "versionBegin": "",
      "versionEnd": ""
    },
    {
      "subId": 2201502,
      "mainId": 22015,
      "order": 2,
      "descTextMapHash": 205335996,
      "finishCond": [
        {
          "KPGKDHAFHFE": "QUEST_CONTENT_LUA_NOTIFY",
          "param": [
            0,
            0
          ],
          "count": 1
        }
      ],
      "failCond": [
        {
          "KPGKDHAFHFE": "QUEST_CONTENT_LUA_NOTIFY",
          "param": [
            0,
            0
          ],
          "count": 1
        }
      ],
      "guide": {
        "KPGKDHAFHFE": "QUEST_GUIDE_LOCATION",
        "param": [
          "Q22015_longer",
          "30"
        ],
        "guideScene": 3,
        "guideStyle": "QUEST_GUIDE_STYLE_TARGET"
      },
      "guideHint": {
        "param1": ""
      },
      "isRewind": true,
      "versionBegin": "",
      "versionEnd": ""
    },
    {
      "subId": 2201503,
      "mainId": 22015,
      "order": 3,
      "descTextMapHash": 2860611724,
      "finishCond": [
        {
          "KPGKDHAFHFE": "QUEST_CONTENT_LUA_NOTIFY",
          "param": [
            0,
            0
          ]
        }
      ],
      "guide": {
        "KPGKDHAFHFE": "QUEST_GUIDE_LOCATION",
        "param": [
          "Q22015_longer",
          "30"
        ],
        "guideScene": 3,
        "guideStyle": "QUEST_GUIDE_STYLE_TARGET"
      },
      "guideHint": {
        "param1": ""
      },
      "versionBegin": "",
      "versionEnd": ""
    },
    {
      "subId": 2201504,
      "mainId": 22015,
      "order": 4,
      "descTextMapHash": 1032222772,
      "finishCond": [
        {
          "KPGKDHAFHFE": "QUEST_CONTENT_COMPLETE_TALK",
          "param": [
            2201502,
            0
          ]
        }
      ],
      "guide": {
        "KPGKDHAFHFE": "QUEST_GUIDE_NPC",
        "param": [
          "3042",
          "SELECT_NPC_NONE"
        ],
        "guideScene": 3,
        "guideStyle": "QUEST_GUIDE_STYLE_TARGET"
      },
      "guideHint": {
        "param1": ""
      },
      "isRewind": true,
      "finishExec": [
        {
          "KPGKDHAFHFE": "QUEST_EXEC_UNREGISTER_DYNAMIC_GROUP",
          "param": [
            "133220144",
            "0"
          ]
        }
      ],
      "versionBegin": "",
      "versionEnd": ""
    },
    {
      "subId": 2201505,
      "mainId": 22015,
      "order": 5,
      "descTextMapHash": 386507460,
      "finishCond": [
        {
          "KPGKDHAFHFE": "QUEST_CONTENT_COMPLETE_TALK",
          "param": [
            2201503,
            0
          ]
        }
      ],
      "guide": {
        "KPGKDHAFHFE": "QUEST_GUIDE_NPC",
        "param": [
          "3041",
          "SELECT_NPC_NONE"
        ],
        "guideScene": 3,
        "guideStyle": "QUEST_GUIDE_STYLE_TARGET"
      },
      "guideHint": {
        "param1": ""
      },
      "finishParent": true,
      "isRewind": true,
      "finishExec": [
        {
          "KPGKDHAFHFE": "QUEST_EXEC_NOTIFY_DAILY_TASK",
          "param": [
            "41070"
          ]
        }
      ],
      "versionBegin": "",
      "versionEnd": ""
    }
  ],
  "talks": [
    {
      "id": 2201501,
      "beginWay": "TALK_BEGIN_MANUAL",
      "activeMode": "PLAY_MODE_HOST",
      "beginCond": [
        {
          "type": "QUEST_COND_STATE_EQUAL",
          "_param": [
            "2201501",
            "2"
          ]
        }
      ],
      "priority": 5,
      "nextTalks": [
        2201505,
        2201506,
        2201507
      ],
      "initDialog": 220150101,
      "npcId": [
        3041
      ],
      "performCfg": "",
      "heroTalk": "TALK_HERO_MAIN",
      "questId": 22015,
      "assetIndex": 533042998279205216,
      "prePerformCfg": "",
      "freeStyleList": [
        1170,
        1180,
        1130
      ]
    },
    {
      "id": 2201502,
      "beginWay": "TALK_BEGIN_MANUAL",
      "activeMode": "PLAY_MODE_HOST",
      "beginCond": [
        {
          "type": "QUEST_COND_STATE_EQUAL",
          "_param": [
            "2201504",
            "2"
          ]
        }
      ],
      "priority": 5,
      "initDialog": 220150205,
      "npcId": [
        3042
      ],
      "performCfg": "QuestDialogue/WQ/Dq_22015/Q2201502",
      "heroTalk": "TALK_HERO_MAIN",
      "questId": 22015,
      "assetIndex": 17925205865335957023,
      "prePerformCfg": ""
    },
    {
      "id": 2201503,
      "beginWay": "TALK_BEGIN_MANUAL",
      "activeMode": "PLAY_MODE_HOST",
      "beginCond": [
        {
          "type": "QUEST_COND_STATE_EQUAL",
          "_param": [
            "2201505",
            "2"
          ]
        }
      ],
      "priority": 5,
      "initDialog": 220150301,
      "npcId": [
        3041
      ],
      "performCfg": "QuestDialogue/WQ/Dq_22015/Q2201503",
      "heroTalk": "TALK_HERO_MAIN",
      "questId": 22015,
      "assetIndex": 2208449021876788659,
      "prePerformCfg": ""
    },
    {
      "id": 2201505,
      "activeMode": "PLAY_MODE_HOST",
      "beginCond": [
        {
          "type": "QUEST_COND_STATE_EQUAL",
          "_param": [
            "2201501",
            "2"
          ]
        }
      ],
      "priority": 5,
      "nextTalks": [
        2201508
      ],
      "initDialog": 220150501,
      "npcId": [
        3041
      ],
      "performCfg": "",
      "heroTalk": "TALK_HERO_MAIN",
      "questId": 22015,
      "assetIndex": 9863112147642774723,
      "prePerformCfg": "",
      "freeStyleList": [
        1190
      ]
    },
    {
      "id": 2201506,
      "activeMode": "PLAY_MODE_HOST",
      "beginCond": [
        {
          "type": "QUEST_COND_STATE_EQUAL",
          "_param": [
            "2201501",
            "2"
          ]
        }
      ],
      "priority": 5,
      "nextTalks": [
        2201508
      ],
      "initDialog": 220150601,
      "npcId": [
        3041
      ],
      "performCfg": "",
      "heroTalk": "TALK_HERO_MAIN",
      "questId": 22015,
      "assetIndex": 10723005315476321381,
      "prePerformCfg": "",
      "freeStyleList": [
        1190
      ]
    },
    {
      "id": 2201507,
      "activeMode": "PLAY_MODE_HOST",
      "beginCondComb": "LOGIC_AND",
      "beginCond": [
        {
          "type": "QUEST_COND_STATE_EQUAL",
          "_param": [
            "2201501",
            "2"
          ]
        },
        {
          "type": "QUEST_COND_STATE_EQUAL",
          "_param": [
            "1100801",
            "3"
          ]
        }
      ],
      "priority": 5,
      "nextTalks": [
        2201508
      ],
      "initDialog": 220150701,
      "npcId": [
        3041
      ],
      "performCfg": "",
      "heroTalk": "TALK_HERO_MAIN",
      "questId": 22015,
      "assetIndex": 17372142969930373528,
      "prePerformCfg": "",
      "freeStyleList": [
        1190
      ]
    },
    {
      "id": 2201508,
      "activeMode": "PLAY_MODE_HOST",
      "beginCond": [
        {
          "type": "QUEST_COND_STATE_EQUAL",
          "_param": [
            "2201501",
            "2"
          ]
        }
      ],
      "priority": 5,
      "initDialog": 220150801,
      "npcId": [
        3041
      ],
      "performCfg": "",
      "heroTalk": "TALK_HERO_MAIN",
      "questId": 22015,
      "assetIndex": 10411691374745367303,
      "prePerformCfg": "",
      "freeStyleList": [
        1171,
        1172,
        1173,
        1120
      ]
    },
    {
      "id": 2201509,
      "beginWay": "TALK_BEGIN_MANUAL",
      "activeMode": "PLAY_MODE_HOST",
      "beginCondComb": "LOGIC_OR",
      "beginCond": [
        {
          "type": "QUEST_COND_STATE_EQUAL",
          "_param": [
            "2201502",
            "2"
          ]
        },
        {
          "type": "QUEST_COND_STATE_EQUAL",
          "_param": [
            "2201503",
            "2"
          ]
        },
        {
          "type": "QUEST_COND_STATE_EQUAL",
          "_param": [
            "2201504",
            "2"
          ]
        }
      ],
      "priority": 5,
      "initDialog": 220150901,
      "npcId": [
        3041
      ],
      "performCfg": "",
      "heroTalk": "TALK_HERO_MAIN",
      "questId": 22015,
      "assetIndex": 14814383234913627346,
      "prePerformCfg": "",
      "freeStyleList": [
        1170,
        1180
      ]
    }
  ],
  "freeStyleDic": {
    "3042": [
      4180
    ]
  }
}