{
  "id": 22031,
  "KPGKDHAFHFE": "IQ",
  "activeMode": "PLAY_MODE_ALL",
  "titleTextMapHash": 42599551,
  "descTextMapHash": 1542830454,
  "luaPath": "Actor/Quest/IQ22031",
  "repeatable": true,
  "taskID": 41150,
  "subQuests": [
    {
      "subId": 2203101,
      "mainId": 22031,
      "order": 1,
      "descTextMapHash": 3704611212,
      "finishCond": [
        {
          "KPGKDHAFHFE": "QUEST_CONTENT_COMPLETE_TALK",
          "param": [
            2203101,
            0
          ]
        }
      ],
      "guide": {
        "KPGKDHAFHFE": "QUEST_GUIDE_NPC",
        "param": [
          "3060"
        ],
        "guideScene": 3,
        "guideStyle": "QUEST_GUIDE_STYLE_START",
        "guideLayer": "QUEST_GUIDE_LAYER_SCENE"
      },
      "guideHint": {
        "param1": ""
      },
      "isRewind": true,
      "versionBegin": "",
      "versionEnd": ""
    },
    {
      "subId": 2203102,
      "mainId": 22031,
      "order": 2,
      "descTextMapHash": 201647540,
      "finishCond": [
        {
          "KPGKDHAFHFE": "QUEST_CONTENT_COMPLETE_TALK",
          "param": [
            2203105,
            0
          ]
        }
      ],
      "guide": {
        "KPGKDHAFHFE": "QUEST_GUIDE_NPC",
        "param": [
          "3060"
        ],
        "guideScene": 3,
        "guideStyle": "QUEST_GUIDE_STYLE_TARGET",
        "guideLayer": "QUEST_GUIDE_LAYER_SCENE"
      },
      "guideHint": {
        "param1": ""
      },
      "isRewind": true,
      "versionBegin": "",
      "versionEnd": ""
    },
    {
      "subId": 2203103,
      "mainId": 22031,
      "order": 3,
      "descTextMapHash": 496947020,
      "finishCond": [
        {
          "KPGKDHAFHFE": "QUEST_CONTENT_LUA_NOTIFY",
          "param": [
            0,
            0
          ],
          "count": 1
        }
      ],
      "guide": {
        "KPGKDHAFHFE": "QUEST_GUIDE_LOCATION",
        "param": [
          "Q2202903xiulian",
          "30"
        ],
        "guideScene": 3,
        "guideStyle": "QUEST_GUIDE_STYLE_TARGET",
        "guideLayer": "QUEST_GUIDE_LAYER_SCENE"
      },
      "guideHint": {
        "param1": ""
      },
      "finishExec": [
        {
          "KPGKDHAFHFE": "QUEST_EXEC_UNREGISTER_DYNAMIC_GROUP",
          "param": [
            "133221004"
          ]
        }
      ],
      "versionBegin": "",
      "versionEnd": ""
    },
    {
      "subId": 2203104,
      "mainId": 22031,
      "order": 4,
      "descTextMapHash": 405871772,
      "finishCond": [
        {
          "KPGKDHAFHFE": "QUEST_CONTENT_COMPLETE_TALK",
          "param": [
            2203104,
            0
          ]
        }
      ],
      "guide": {
        "KPGKDHAFHFE": "QUEST_GUIDE_NPC",
        "param": [
          "3060"
        ],
        "guideScene": 3,
        "guideStyle": "QUEST_GUIDE_STYLE_TARGET",
        "guideLayer": "QUEST_GUIDE_LAYER_SCENE"
      },
      "guideHint": {
        "param1": ""
      },
      "finishParent": true,
      "isRewind": true,
      "finishExec": [
        {
          "KPGKDHAFHFE": "QUEST_EXEC_NOTIFY_DAILY_TASK",
          "param": [
            "41150"
          ]
        }
      ],
      "versionBegin": "",
      "versionEnd": ""
    }
  ],
  "talks": [
    {
      "id": 2203101,
      "beginWay": "TALK_BEGIN_MANUAL",
      "activeMode": "PLAY_MODE_HOST",
      "beginCondComb": "LOGIC_AND",
      "beginCond": [
        {
          "type": "QUEST_COND_STATE_EQUAL",
          "_param": [
            "2203101",
            "2"
          ]
        }
      ],
      "priority": 5,
      "nextTalks": [
        2203102
      ],
      "initDialog": 220310101,
      "npcId": [
        3060
      ],
      "performCfg": "",
      "questId": 22031,
      "assetIndex": 17015896354561907864,
      "prePerformCfg": ""
    },
    {
      "id": 2203102,
      "beginWay": "TALK_BEGIN_MANUAL",
      "activeMode": "PLAY_MODE_HOST",
      "beginCondComb": "LOGIC_AND",
      "beginCond": [
        {
          "type": "QUEST_COND_STATE_EQUAL",
          "_param": [
            "2203102",
            "2"
          ]
        }
      ],
      "priority": 5,
      "nextTalks": [
        2203105,
        2203106
      ],
      "initDialog": 220310201,
      "npcId": [
        3060
      ],
      "performCfg": "",
      "questId": 22031,
      "assetIndex": 12546516478346430210,
      "prePerformCfg": ""
    },
    {
      "id": 2203103,
      "activeMode": "PLAY_MODE_HOST",
      "priority": 5,
      "initDialog": 220310301,
      "npcId": [
        3060
      ],
      "performCfg": "",
      "questId": 22031,
      "assetIndex": 4603104010380215211,
      "prePerformCfg": ""
    },
    {
      "id": 2203104,
      "beginWay": "TALK_BEGIN_MANUAL",
      "activeMode": "PLAY_MODE_HOST",
      "beginCondComb": "LOGIC_AND",
      "beginCond": [
        {
          "type": "QUEST_COND_STATE_EQUAL",
          "_param": [
            "2203104",
            "2"
          ]
        }
      ],
      "priority": 5,
      "initDialog": 220310401,
      "npcId": [
        3060
      ],
      "performCfg": "QuestDialogue/IQ/Inazuma_22031/Q2203104",
      "questId": 22031,
      "assetIndex": 16091834287887212101,
      "prePerformCfg": ""
    },
    {
      "id": 2203105,
      "activeMode": "PLAY_MODE_HOST",
      "beginCondComb": "LOGIC_AND",
      "beginCond": [
        {
          "type": "QUEST_COND_STATE_EQUAL",
          "_param": [
            "2203102",
            "2"
          ]
        }
      ],
      "priority": 5,
      "initDialog": 220310501,
      "npcId": [
        3060
      ],
      "performCfg": "",
      "questId": 22031,
      "assetIndex": 14999208416286332306,
      "prePerformCfg": ""
    },
    {
      "id": 2203106,
      "activeMode": "PLAY_MODE_HOST",
      "beginCondComb": "LOGIC_AND",
      "beginCond": [
        {
          "type": "QUEST_COND_STATE_EQUAL",
          "_param": [
            "2203102",
            "2"
          ]
        }
      ],
      "priority": 5,
      "initDialog": 220310601,
      "npcId": [
        3060
      ],
      "performCfg": "",
      "questId": 22031,
      "assetIndex": 13285935990501570483,
      "prePerformCfg": ""
    },
    {
      "id": 2203111,
      "activeMode": "PLAY_MODE_HOST",
      "priority": 5,
      "npcId": [
        3060
      ],
      "performCfg": "",
      "questId": 22031,
      "assetIndex": 10612699983673566812,
      "prePerformCfg": ""
    }
  ]
}