{
  "id": 22303,
  "KPGKDHAFHFE": "IQ",
  "activeMode": "PLAY_MODE_ALL",
  "titleTextMapHash": 198385833,
  "descTextMapHash": 1739454087,
  "luaPath": "Actor/Quest/IQ22303",
  "repeatable": true,
  "rewardIdList": [
    500110
  ],
  "taskID": 25800,
  "subQuests": [
    {
      "subId": 2230301,
      "mainId": 22303,
      "order": 1,
      "descTextMapHash": 594866022,
      "finishCond": [
        {
          "KPGKDHAFHFE": "QUEST_CONTENT_COMPLETE_TALK",
          "param": [
            2230301,
            0
          ]
        }
      ],
      "guide": {
        "KPGKDHAFHFE": "QUEST_GUIDE_NPC",
        "param": [
          "2040"
        ],
        "guideScene": 3,
        "guideStyle": "QUEST_GUIDE_STYLE_START",
        "guideLayer": "QUEST_GUIDE_LAYER_UI"
      },
      "guideHint": {
        "param1": ""
      },
      "isRewind": true,
      "versionBegin": "",
      "versionEnd": ""
    },
    {
      "subId": 2230302,
      "mainId": 22303,
      "order": 2,
      "descTextMapHash": 969526094,
      "finishCond": [
        {
          "KPGKDHAFHFE": "QUEST_CONTENT_FINISH_ITEM_GIVING",
          "param": [
            2230302,
            0
          ]
        }
      ],
      "guide": {
        "KPGKDHAFHFE": "QUEST_GUIDE_NPC",
        "param": [
          "2040"
        ],
        "guideScene": 3,
        "guideStyle": "QUEST_GUIDE_STYLE_TARGET",
        "guideLayer": "QUEST_GUIDE_LAYER_SCENE"
      },
      "guideHint": {
        "param1": ""
      },
      "isRewind": true,
      "versionBegin": "",
      "versionEnd": ""
    },
    {
      "subId": 2230303,
      "mainId": 22303,
      "order": 3,
      "descTextMapHash": 1456326734,
      "finishCond": [
        {
          "KPGKDHAFHFE": "QUEST_CONTENT_COMPLETE_TALK",
          "param": [
            2230303,
            0
          ]
        }
      ],
      "guide": {
        "KPGKDHAFHFE": "QUEST_GUIDE_NPC",
        "param": [
          "2040"
        ],
        "guideScene": 3,
        "guideStyle": "QUEST_GUIDE_STYLE_FINISH",
        "guideLayer": "QUEST_GUIDE_LAYER_SCENE"
      },
      "guideHint": {
        "param1": ""
      },
      "finishParent": true,
      "isRewind": true,
      "finishExec": [
        {
          "KPGKDHAFHFE": "QUEST_EXEC_NOTIFY_DAILY_TASK",
          "param": [
            "25800"
          ]
        }
      ],
      "versionBegin": "",
      "versionEnd": ""
    }
  ],
  "talks": [
    {
      "id": 2230301,
      "beginWay": "TALK_BEGIN_MANUAL",
      "activeMode": "PLAY_MODE_ALL",
      "beginCond": [
        {
          "type": "QUEST_COND_STATE_EQUAL",
          "_param": [
            "2230301",
            "2"
          ]
        }
      ],
      "priority": 5,
      "initDialog": 223030101,
      "npcId": [
        2040
      ],
      "performCfg": "",
      "questId": 22303,
      "assetIndex": 15435487124277066568,
      "prePerformCfg": ""
    },
    {
      "id": 2230302,
      "beginWay": "TALK_BEGIN_MANUAL",
      "activeMode": "PLAY_MODE_ALL",
      "beginCondComb": "LOGIC_AND",
      "beginCond": [
        {
          "type": "QUEST_COND_STATE_EQUAL",
          "_param": [
            "2230302",
            "2"
          ]
        },
        {
          "type": "QUEST_COND_ITEM_GIVING_ACTIVED",
          "_param": [
            "2230302"
          ]
        }
      ],
      "priority": 5,
      "initDialog": 223030201,
      "npcId": [
        2040
      ],
      "performCfg": "",
      "questId": 22303,
      "assetIndex": 6941718736925998741,
      "prePerformCfg": ""
    },
    {
      "id": 2230303,
      "beginWay": "TALK_BEGIN_MANUAL",
      "activeMode": "PLAY_MODE_ALL",
      "beginCond": [
        {
          "type": "QUEST_COND_STATE_EQUAL",
          "_param": [
            "2230303",
            "2"
          ]
        }
      ],
      "priority": 5,
      "initDialog": 223030301,
      "npcId": [
        2040
      ],
      "performCfg": "",
      "questId": 22303,
      "assetIndex": 10697347270841010707,
      "prePerformCfg": ""
    }
  ]
}