{
  "id": 22305,
  "KPGKDHAFHFE": "IQ",
  "activeMode": "PLAY_MODE_ALL",
  "titleTextMapHash": 3829080729,
  "descTextMapHash": 2250086031,
  "luaPath": "Actor/Quest/IQ22305",
  "repeatable": true,
  "rewardIdList": [
    500112,
    500113,
    500114,
    500115,
    500116,
    500117,
    500118,
    500119,
    500120,
    500121,
    500122,
    500123,
    500124,
    500125
  ],
  "taskID": 26000,
  "subQuests": [
    {
      "subId": 2230501,
      "mainId": 22305,
      "order": 1,
      "descTextMapHash": 12635310,
      "finishCond": [
        {
          "KPGKDHAFHFE": "QUEST_CONTENT_COMPLETE_TALK",
          "param": [
            2230501,
            0
          ]
        }
      ],
      "guide": {
        "KPGKDHAFHFE": "QUEST_GUIDE_NPC",
        "param": [
          "2054"
        ],
        "guideScene": 3,
        "guideStyle": "QUEST_GUIDE_STYLE_START",
        "guideLayer": "QUEST_GUIDE_LAYER_UI"
      },
      "guideHint": {
        "param1": ""
      },
      "isRewind": true,
      "versionBegin": "",
      "versionEnd": ""
    },
    {
      "subId": 2230502,
      "mainId": 22305,
      "order": 3,
      "descTextMapHash": 2732587654,
      "finishCond": [
        {
          "KPGKDHAFHFE": "QUEST_CONTENT_ADD_QUEST_PROGRESS",
          "param": [
            223050201,
            0
          ],
          "count": 1
        }
      ],
      "guide": {
        "KPGKDHAFHFE": "QUEST_GUIDE_NPC",
        "param": [
          "2054"
        ],
        "guideScene": 3,
        "guideStyle": "QUEST_GUIDE_STYLE_TARGET",
        "guideLayer": "QUEST_GUIDE_LAYER_SCENE"
      },
      "guideHint": {
        "param1": ""
      },
      "isRewind": true,
      "versionBegin": "",
      "versionEnd": ""
    },
    {
      "subId": 2230503,
      "mainId": 22305,
      "order": 4,
      "showType": "QUEST_HIDDEN",
      "finishCond": [
        {
          "KPGKDHAFHFE": "QUEST_CONTENT_COMPLETE_TALK",
          "param": [
            2230503,
            0
          ]
        }
      ],
      "guide": {},
      "guideHint": {
        "param1": ""
      },
      "isRewind": true,
      "finishExec": [
        {
          "KPGKDHAFHFE": "QUEST_EXEC_REFRESH_GROUP_SUITE_RANDOM",
          "param": [
            "3",
            "133107909,5,6,7,8,9,10,11"
          ]
        },
        {
          "KPGKDHAFHFE": "QUEST_EXEC_DEL_PACK_ITEM",
          "param": [
            "202",
            "200"
          ]
        },
        {
          "KPGKDHAFHFE": "QUEST_EXEC_ADD_QUEST_PROGRESS",
          "param": [
            "223050201",
            "1"
          ]
        }
      ],
      "versionBegin": "",
      "versionEnd": ""
    },
    {
      "subId": 2230504,
      "mainId": 22305,
      "order": 5,
      "showType": "QUEST_HIDDEN",
      "finishCond": [
        {
          "KPGKDHAFHFE": "QUEST_CONTENT_COMPLETE_TALK",
          "param": [
            2230504,
            0
          ]
        }
      ],
      "guide": {},
      "guideHint": {
        "param1": ""
      },
      "isRewind": true,
      "finishExec": [
        {
          "KPGKDHAFHFE": "QUEST_EXEC_REFRESH_GROUP_SUITE_RANDOM",
          "param": [
            "3",
            "133107909,2,3,4,5,6,7,8,9,10,11"
          ]
        },
        {
          "KPGKDHAFHFE": "QUEST_EXEC_DEL_PACK_ITEM",
          "param": [
            "202",
            "400"
          ]
        },
        {
          "KPGKDHAFHFE": "QUEST_EXEC_ADD_QUEST_PROGRESS",
          "param": [
            "223050201",
            "1"
          ]
        }
      ],
      "versionBegin": "",
      "versionEnd": ""
    },
    {
      "subId": 2230505,
      "mainId": 22305,
      "order": 6,
      "showType": "QUEST_HIDDEN",
      "finishCond": [
        {
          "KPGKDHAFHFE": "QUEST_CONTENT_COMPLETE_TALK",
          "param": [
            2230505,
            0
          ]
        }
      ],
      "guide": {},
      "guideHint": {
        "param1": ""
      },
      "isRewind": true,
      "finishExec": [
        {
          "KPGKDHAFHFE": "QUEST_EXEC_REFRESH_GROUP_SUITE_RANDOM",
          "param": [
            "3",
            "133107909,2,3,4,5,6,7,11"
          ]
        },
        {
          "KPGKDHAFHFE": "QUEST_EXEC_DEL_PACK_ITEM",
          "param": [
            "202",
            "600"
          ]
        },
        {
          "KPGKDHAFHFE": "QUEST_EXEC_ADD_QUEST_PROGRESS",
          "param": [
            "223050201",
            "1"
          ]
        }
      ],
      "versionBegin": "",
      "versionEnd": ""
    },
    {
      "subId": 2230506,
      "mainId": 22305,
      "order": 7,
      "descTextMapHash": 2515222102,
      "finishCond": [
        {
          "KPGKDHAFHFE": "QUEST_CONTENT_ADD_QUEST_PROGRESS",
          "param": [
            223050601,
            0
          ],
          "count": 1
        }
      ],
      "guide": {
        "KPGKDHAFHFE": "QUEST_GUIDE_NPC",
        "param": [
          "2054"
        ],
        "guideScene": 3,
        "guideStyle": "QUEST_GUIDE_STYLE_TARGET",
        "guideLayer": "QUEST_GUIDE_LAYER_SCENE"
      },
      "guideHint": {
        "param1": ""
      },
      "isRewind": true,
      "versionBegin": "",
      "versionEnd": ""
    },
    {
      "subId": 2230507,
      "mainId": 22305,
      "order": 8,
      "showType": "QUEST_HIDDEN",
      "finishCond": [
        {
          "KPGKDHAFHFE": "QUEST_CONTENT_COMPLETE_TALK",
          "param": [
            2230507,
            0
          ]
        }
      ],
      "guide": {},
      "guideHint": {
        "param1": ""
      },
      "isRewind": true,
      "finishExec": [
        {
          "KPGKDHAFHFE": "QUEST_EXEC_NOTIFY_GROUP_LUA",
          "param": [
            "3",
            "133107909"
          ]
        }
      ],
      "versionBegin": "",
      "versionEnd": ""
    },
    {
      "subId": 2230508,
      "mainId": 22305,
      "order": 9,
      "showType": "QUEST_HIDDEN",
      "finishCond": [
        {
          "KPGKDHAFHFE": "QUEST_CONTENT_COMPLETE_TALK",
          "param": [
            2230508,
            0
          ]
        }
      ],
      "guide": {},
      "guideHint": {
        "param1": ""
      },
      "isRewind": true,
      "finishExec": [
        {
          "KPGKDHAFHFE": "QUEST_EXEC_NOTIFY_GROUP_LUA",
          "param": [
            "3",
            "133107909"
          ]
        }
      ],
      "versionBegin": "",
      "versionEnd": ""
    },
    {
      "subId": 2230509,
      "mainId": 22305,
      "order": 10,
      "showType": "QUEST_HIDDEN",
      "finishCond": [
        {
          "KPGKDHAFHFE": "QUEST_CONTENT_COMPLETE_TALK",
          "param": [
            2230509,
            0
          ]
        }
      ],
      "guide": {},
      "guideHint": {
        "param1": ""
      },
      "isRewind": true,
      "finishExec": [
        {
          "KPGKDHAFHFE": "QUEST_EXEC_NOTIFY_GROUP_LUA",
          "param": [
            "3",
            "133107909"
          ]
        }
      ],
      "versionBegin": "",
      "versionEnd": ""
    },
    {
      "subId": 2230510,
      "mainId": 22305,
      "order": 11,
      "showType": "QUEST_HIDDEN",
      "finishCond": [
        {
          "KPGKDHAFHFE": "QUEST_CONTENT_LUA_NOTIFY",
          "param": [
            0,
            0
          ],
          "count": 1
        }
      ],
      "guide": {},
      "guideHint": {
        "param1": ""
      },
      "isRewind": true,
      "finishExec": [
        {
          "KPGKDHAFHFE": "QUEST_EXEC_ADD_QUEST_PROGRESS",
          "param": [
            "223050601",
            "1"
          ]
        },
        {
          "KPGKDHAFHFE": "QUEST_EXEC_ADD_QUEST_PROGRESS",
          "param": [
            "223059901",
            "1"
          ]
        }
      ],
      "versionBegin": "",
      "versionEnd": ""
    },
    {
      "subId": 2230511,
      "mainId": 22305,
      "order": 12,
      "showType": "QUEST_HIDDEN",
      "finishCond": [
        {
          "KPGKDHAFHFE": "QUEST_CONTENT_LUA_NOTIFY",
          "param": [
            0,
            0
          ],
          "count": 1
        }
      ],
      "guide": {},
      "guideHint": {
        "param1": ""
      },
      "isRewind": true,
      "finishExec": [
        {
          "KPGKDHAFHFE": "QUEST_EXEC_ADD_QUEST_PROGRESS",
          "param": [
            "223050601",
            "1"
          ]
        },
        {
          "KPGKDHAFHFE": "QUEST_EXEC_ADD_QUEST_PROGRESS",
          "param": [
            "223059901",
            "1"
          ]
        }
      ],
      "versionBegin": "",
      "versionEnd": ""
    },
    {
      "subId": 2230512,
      "mainId": 22305,
      "order": 13,
      "showType": "QUEST_HIDDEN",
      "finishCond": [
        {
          "KPGKDHAFHFE": "QUEST_CONTENT_LUA_NOTIFY",
          "param": [
            0,
            0
          ],
          "count": 1
        }
      ],
      "guide": {},
      "guideHint": {
        "param1": ""
      },
      "isRewind": true,
      "finishExec": [
        {
          "KPGKDHAFHFE": "QUEST_EXEC_ADD_QUEST_PROGRESS",
          "param": [
            "223050601",
            "1"
          ]
        },
        {
          "KPGKDHAFHFE": "QUEST_EXEC_ADD_QUEST_PROGRESS",
          "param": [
            "223059902",
            "1"
          ]
        }
      ],
      "versionBegin": "",
      "versionEnd": ""
    },
    {
      "subId": 2230513,
      "mainId": 22305,
      "order": 14,
      "descTextMapHash": 2312004446,
      "finishCond": [
        {
          "KPGKDHAFHFE": "QUEST_CONTENT_COMPLETE_TALK",
          "param": [
            2230512,
            0
          ]
        },
        {
          "KPGKDHAFHFE": "QUEST_CONTENT_COMPLETE_TALK",
          "param": [
            2230513,
            0
          ]
        },
        {
          "KPGKDHAFHFE": "QUEST_CONTENT_COMPLETE_TALK",
          "param": [
            2230514,
            0
          ]
        }
      ],
      "guide": {
        "KPGKDHAFHFE": "QUEST_GUIDE_NPC",
        "param": [
          "2054"
        ],
        "guideScene": 3,
        "guideStyle": "QUEST_GUIDE_STYLE_FINISH",
        "guideLayer": "QUEST_GUIDE_LAYER_SCENE"
      },
      "guideHint": {
        "param1": ""
      },
      "finishParent": true,
      "isRewind": true,
      "finishExec": [
        {
          "KPGKDHAFHFE": "QUEST_EXEC_NOTIFY_DAILY_TASK",
          "param": [
            "26000"
          ]
        }
      ],
      "versionBegin": "",
      "versionEnd": ""
    },
    {
      "subId": 2230514,
      "mainId": 22305,
      "order": 15,
      "showType": "QUEST_HIDDEN",
      "finishCond": [
        {
          "KPGKDHAFHFE": "QUEST_CONTENT_COMPLETE_TALK",
          "param": [
            2230511,
            0
          ]
        }
      ],
      "guide": {},
      "guideHint": {
        "param1": ""
      },
      "isRewind": true,
      "finishExec": [
        {
          "KPGKDHAFHFE": "QUEST_EXEC_ROLLBACK_QUEST",
          "param": [
            "2230502"
          ]
        }
      ],
      "versionBegin": "",
      "versionEnd": ""
    },
    {
      "subId": 2230515,
      "mainId": 22305,
      "order": 16,
      "showType": "QUEST_HIDDEN",
      "finishCond": [
        {
          "KPGKDHAFHFE": "QUEST_CONTENT_COMPLETE_TALK",
          "param": [
            2230512,
            0
          ]
        }
      ],
      "guide": {},
      "guideHint": {
        "param1": ""
      },
      "isRewind": true,
      "versionBegin": "",
      "versionEnd": ""
    },
    {
      "subId": 2230516,
      "mainId": 22305,
      "order": 17,
      "showType": "QUEST_HIDDEN",
      "finishCond": [
        {
          "KPGKDHAFHFE": "QUEST_CONTENT_COMPLETE_TALK",
          "param": [
            2230513,
            0
          ]
        }
      ],
      "guide": {},
      "guideHint": {
        "param1": ""
      },
      "isRewind": true,
      "versionBegin": "",
      "versionEnd": ""
    },
    {
      "subId": 2230517,
      "mainId": 22305,
      "order": 18,
      "showType": "QUEST_HIDDEN",
      "finishCond": [
        {
          "KPGKDHAFHFE": "QUEST_CONTENT_COMPLETE_TALK",
          "param": [
            2230514,
            0
          ]
        }
      ],
      "guide": {},
      "guideHint": {
        "param1": ""
      },
      "isRewind": true,
      "versionBegin": "",
      "versionEnd": ""
    },
    {
      "subId": 2230518,
      "mainId": 22305,
      "order": 19,
      "showType": "QUEST_HIDDEN",
      "guide": {},
      "guideHint": {
        "param1": ""
      },
      "isRewind": true,
      "finishExec": [
        {
          "KPGKDHAFHFE": "QUEST_EXEC_UPDATE_PARENT_QUEST_REWARD_INDEX",
          "param": [
            "0"
          ]
        }
      ],
      "versionBegin": "",
      "versionEnd": ""
    },
    {
      "subId": 2230519,
      "mainId": 22305,
      "order": 20,
      "showType": "QUEST_HIDDEN",
      "guide": {},
      "guideHint": {
        "param1": ""
      },
      "isRewind": true,
      "finishExec": [
        {
          "KPGKDHAFHFE": "QUEST_EXEC_UPDATE_PARENT_QUEST_REWARD_INDEX",
          "param": [
            "1"
          ]
        }
      ],
      "versionBegin": "",
      "versionEnd": ""
    },
    {
      "subId": 2230520,
      "mainId": 22305,
      "order": 21,
      "showType": "QUEST_HIDDEN",
      "guide": {},
      "guideHint": {
        "param1": ""
      },
      "isRewind": true,
      "finishExec": [
        {
          "KPGKDHAFHFE": "QUEST_EXEC_UPDATE_PARENT_QUEST_REWARD_INDEX",
          "param": [
            "2"
          ]
        }
      ],
      "versionBegin": "",
      "versionEnd": ""
    },
    {
      "subId": 2230521,
      "mainId": 22305,
      "order": 22,
      "showType": "QUEST_HIDDEN",
      "guide": {},
      "guideHint": {
        "param1": ""
      },
      "isRewind": true,
      "finishExec": [
        {
          "KPGKDHAFHFE": "QUEST_EXEC_UPDATE_PARENT_QUEST_REWARD_INDEX",
          "param": [
            "3"
          ]
        }
      ],
      "versionBegin": "",
      "versionEnd": ""
    },
    {
      "subId": 2230522,
      "mainId": 22305,
      "order": 23,
      "showType": "QUEST_HIDDEN",
      "guide": {},
      "guideHint": {
        "param1": ""
      },
      "isRewind": true,
      "finishExec": [
        {
          "KPGKDHAFHFE": "QUEST_EXEC_UPDATE_PARENT_QUEST_REWARD_INDEX",
          "param": [
            "4"
          ]
        }
      ],
      "versionBegin": "",
      "versionEnd": ""
    },
    {
      "subId": 2230523,
      "mainId": 22305,
      "order": 24,
      "showType": "QUEST_HIDDEN",
      "guide": {},
      "guideHint": {
        "param1": ""
      },
      "isRewind": true,
      "finishExec": [
        {
          "KPGKDHAFHFE": "QUEST_EXEC_UPDATE_PARENT_QUEST_REWARD_INDEX",
          "param": [
            "5"
          ]
        }
      ],
      "versionBegin": "",
      "versionEnd": ""
    },
    {
      "subId": 2230524,
      "mainId": 22305,
      "order": 25,
      "showType": "QUEST_HIDDEN",
      "guide": {},
      "guideHint": {
        "param1": ""
      },
      "isRewind": true,
      "finishExec": [
        {
          "KPGKDHAFHFE": "QUEST_EXEC_UPDATE_PARENT_QUEST_REWARD_INDEX",
          "param": [
            "6"
          ]
        }
      ],
      "versionBegin": "",
      "versionEnd": ""
    },
    {
      "subId": 2230525,
      "mainId": 22305,
      "order": 26,
      "showType": "QUEST_HIDDEN",
      "guide": {},
      "guideHint": {
        "param1": ""
      },
      "isRewind": true,
      "finishExec": [
        {
          "KPGKDHAFHFE": "QUEST_EXEC_UPDATE_PARENT_QUEST_REWARD_INDEX",
          "param": [
            "7"
          ]
        }
      ],
      "versionBegin": "",
      "versionEnd": ""
    },
    {
      "subId": 2230526,
      "mainId": 22305,
      "order": 27,
      "showType": "QUEST_HIDDEN",
      "guide": {},
      "guideHint": {
        "param1": ""
      },
      "isRewind": true,
      "finishExec": [
        {
          "KPGKDHAFHFE": "QUEST_EXEC_UPDATE_PARENT_QUEST_REWARD_INDEX",
          "param": [
            "8"
          ]
        }
      ],
      "versionBegin": "",
      "versionEnd": ""
    },
    {
      "subId": 2230527,
      "mainId": 22305,
      "order": 28,
      "showType": "QUEST_HIDDEN",
      "guide": {},
      "guideHint": {
        "param1": ""
      },
      "isRewind": true,
      "finishExec": [
        {
          "KPGKDHAFHFE": "QUEST_EXEC_UPDATE_PARENT_QUEST_REWARD_INDEX",
          "param": [
            "9"
          ]
        }
      ],
      "versionBegin": "",
      "versionEnd": ""
    },
    {
      "subId": 2230528,
      "mainId": 22305,
      "order": 29,
      "showType": "QUEST_HIDDEN",
      "guide": {},
      "guideHint": {
        "param1": ""
      },
      "isRewind": true,
      "finishExec": [
        {
          "KPGKDHAFHFE": "QUEST_EXEC_UPDATE_PARENT_QUEST_REWARD_INDEX",
          "param": [
            "10"
          ]
        }
      ],
      "versionBegin": "",
      "versionEnd": ""
    },
    {
      "subId": 2230599,
      "mainId": 22305,
      "order": 2,
      "showType": "QUEST_HIDDEN",
      "finishCond": [
        {
          "KPGKDHAFHFE": "QUEST_CONTENT_ADD_QUEST_PROGRESS",
          "param": [
            223059902,
            0
          ],
          "count": 1
        }
      ],
      "failCond": [
        {
          "KPGKDHAFHFE": "QUEST_CONTENT_ADD_QUEST_PROGRESS",
          "param": [
            223059901,
            0
          ],
          "count": 1
        }
      ],
      "guide": {},
      "guideHint": {
        "param1": ""
      },
      "isRewind": true,
      "versionBegin": "",
      "versionEnd": ""
    }
  ],
  "talks": [
    {
      "id": 2230501,
      "beginWay": "TALK_BEGIN_MANUAL",
      "activeMode": "PLAY_MODE_ALL",
      "beginCond": [
        {
          "type": "QUEST_COND_STATE_EQUAL",
          "_param": [
            "2230501",
            "2"
          ]
        }
      ],
      "priority": 5,
      "initDialog": 223050101,
      "npcId": [
        2054
      ],
      "performCfg": "",
      "questId": 22305,
      "assetIndex": 2427986478759050227,
      "prePerformCfg": ""
    },
    {
      "id": 2230502,
      "beginWay": "TALK_BEGIN_MANUAL",
      "activeMode": "PLAY_MODE_ALL",
      "beginCond": [
        {
          "type": "QUEST_COND_STATE_EQUAL",
          "_param": [
            "2230502",
            "2"
          ]
        }
      ],
      "priority": 5,
      "nextTalks": [
        2230503,
        2230504,
        2230505,
        2230515,
        2230518
      ],
      "initDialog": 223050201,
      "npcId": [
        2054
      ],
      "performCfg": "",
      "questId": 22305,
      "assetIndex": 10940671665574996332,
      "prePerformCfg": ""
    },
    {
      "id": 2230503,
      "activeMode": "PLAY_MODE_ALL",
      "beginCond": [
        {
          "type": "QUEST_COND_PACK_HAVE_ITEM",
          "_param": [
            "202",
            "200"
          ]
        }
      ],
      "priority": 5,
      "initDialog": 223050301,
      "npcId": [
        2054
      ],
      "performCfg": "",
      "questId": 22305,
      "assetIndex": 14810907212627175002,
      "prePerformCfg": ""
    },
    {
      "id": 2230504,
      "activeMode": "PLAY_MODE_ALL",
      "beginCond": [
        {
          "type": "QUEST_COND_PACK_HAVE_ITEM",
          "_param": [
            "202",
            "400"
          ]
        }
      ],
      "priority": 5,
      "initDialog": 223050401,
      "npcId": [
        2054
      ],
      "performCfg": "",
      "questId": 22305,
      "assetIndex": 18334654295277467110,
      "prePerformCfg": ""
    },
    {
      "id": 2230505,
      "activeMode": "PLAY_MODE_ALL",
      "beginCond": [
        {
          "type": "QUEST_COND_PACK_HAVE_ITEM",
          "_param": [
            "202",
            "600"
          ]
        }
      ],
      "priority": 5,
      "initDialog": 223050501,
      "npcId": [
        2054
      ],
      "performCfg": "",
      "questId": 22305,
      "assetIndex": 12522613670713833984,
      "prePerformCfg": ""
    },
    {
      "id": 2230506,
      "beginWay": "TALK_BEGIN_MANUAL",
      "activeMode": "PLAY_MODE_ALL",
      "beginCond": [
        {
          "type": "QUEST_COND_STATE_EQUAL",
          "_param": [
            "2230506",
            "2"
          ]
        }
      ],
      "priority": 5,
      "nextTalks": [
        2230516,
        2230507,
        2230508,
        2230509
      ],
      "initDialog": 223050601,
      "npcId": [
        2054
      ],
      "performCfg": "",
      "questId": 22305,
      "assetIndex": 12698515254802505533,
      "prePerformCfg": ""
    },
    {
      "id": 2230507,
      "activeMode": "PLAY_MODE_ALL",
      "priority": 5,
      "initDialog": 223050701,
      "npcId": [
        2054
      ],
      "performCfg": "",
      "questId": 22305,
      "assetIndex": 5435332945297230750,
      "prePerformCfg": ""
    },
    {
      "id": 2230508,
      "activeMode": "PLAY_MODE_ALL",
      "priority": 5,
      "initDialog": 223050801,
      "npcId": [
        2054
      ],
      "performCfg": "",
      "questId": 22305,
      "assetIndex": 13606804309186481325,
      "prePerformCfg": ""
    },
    {
      "id": 2230509,
      "activeMode": "PLAY_MODE_ALL",
      "priority": 5,
      "initDialog": 223050901,
      "npcId": [
        2054
      ],
      "performCfg": "",
      "questId": 22305,
      "assetIndex": 16244130371711464230,
      "prePerformCfg": ""
    },
    {
      "id": 2230510,
      "beginWay": "TALK_BEGIN_MANUAL",
      "activeMode": "PLAY_MODE_ALL",
      "beginCondComb": "LOGIC_AND",
      "beginCond": [
        {
          "type": "QUEST_COND_STATE_EQUAL",
          "_param": [
            "2230513",
            "2"
          ]
        },
        {
          "type": "QUEST_COND_QUEST_VAR_LESS",
          "_param": [
            "4",
            "6",
            "22305"
          ]
        },
        {
          "type": "QUEST_COND_QUEST_VAR_LESS",
          "_param": [
            "1",
            "1",
            "22305"
          ]
        }
      ],
      "priority": 5,
      "nextTalks": [
        2230511,
        2230512,
        2230513
      ],
      "initDialog": 223051001,
      "npcId": [
        2054
      ],
      "performCfg": "",
      "questId": 22305,
      "assetIndex": 12308842168758956201,
      "prePerformCfg": ""
    },
    {
      "id": 2230511,
      "activeMode": "PLAY_MODE_ALL",
      "beginCond": [
        {
          "type": "QUEST_COND_STATE_EQUAL",
          "_param": [
            "2230514",
            "2"
          ]
        }
      ],
      "priority": 5,
      "initDialog": 223051101,
      "npcId": [
        2054
      ],
      "performCfg": "",
      "questId": 22305,
      "assetIndex": 12894235625299629960,
      "prePerformCfg": ""
    },
    {
      "id": 2230512,
      "activeMode": "PLAY_MODE_ALL",
      "beginCond": [
        {
          "type": "QUEST_COND_STATE_EQUAL",
          "_param": [
            "2230515",
            "2"
          ]
        }
      ],
      "priority": 5,
      "initDialog": 223051201,
      "npcId": [
        2054
      ],
      "performCfg": "",
      "questId": 22305,
      "assetIndex": 16573687002023995818,
      "prePerformCfg": ""
    },
    {
      "id": 2230513,
      "activeMode": "PLAY_MODE_ALL",
      "beginCond": [
        {
          "type": "QUEST_COND_STATE_EQUAL",
          "_param": [
            "2230516",
            "2"
          ]
        }
      ],
      "priority": 5,
      "initDialog": 223051301,
      "npcId": [
        2054
      ],
      "performCfg": "",
      "questId": 22305,
      "assetIndex": 15319716927490889422,
      "prePerformCfg": ""
    },
    {
      "id": 2230514,
      "beginWay": "TALK_BEGIN_MANUAL",
      "activeMode": "PLAY_MODE_ALL",
      "beginCond": [
        {
          "type": "QUEST_COND_STATE_EQUAL",
          "_param": [
            "2230517",
            "2"
          ]
        }
      ],
      "priority": 5,
      "initDialog": 223051401,
      "npcId": [
        2054
      ],
      "performCfg": "",
      "questId": 22305,
      "assetIndex": 2244150418569192638,
      "prePerformCfg": ""
    },
    {
      "id": 2230515,
      "activeMode": "PLAY_MODE_ALL",
      "beginCond": [
        {
          "type": "QUEST_COND_PACK_HAVE_ITEM",
          "_param": [
            "202",
            "200"
          ]
        }
      ],
      "priority": 5,
      "initDialog": 223051501,
      "npcId": [
        2054
      ],
      "performCfg": "",
      "questId": 22305,
      "assetIndex": 512655621629813017,
      "prePerformCfg": ""
    },
    {
      "id": 2230516,
      "activeMode": "PLAY_MODE_ALL",
      "priority": 5,
      "initDialog": 223051601,
      "npcId": [
        2054
      ],
      "performCfg": "",
      "questId": 22305,
      "assetIndex": 2261347918770853647,
      "prePerformCfg": ""
    },
    {
      "id": 2230517,
      "beginWay": "TALK_BEGIN_MANUAL",
      "activeMode": "PLAY_MODE_ALL",
      "beginCond": [
        {
          "type": "QUEST_COND_QUEST_VAR_EQUAL",
          "_param": [
            "1",
            "1",
            "22305"
          ]
        }
      ],
      "priority": 5,
      "nextTalks": [
        2230511,
        2230512,
        2230513
      ],
      "initDialog": 223051701,
      "npcId": [
        2054
      ],
      "performCfg": "",
      "questId": 22305,
      "assetIndex": 16312509188787306873,
      "prePerformCfg": ""
    },
    {
      "id": 2230518,
      "activeMode": "PLAY_MODE_ALL",
      "beginCond": [
        {
          "type": "QUEST_COND_ITEM_NUM_LESS_THAN",
          "_param": [
            "202",
            "200"
          ]
        }
      ],
      "priority": 5,
      "initDialog": 223051801,
      "npcId": [
        2054
      ],
      "performCfg": "",
      "questId": 22305,
      "assetIndex": 7915638582087339689,
      "prePerformCfg": ""
    }
  ]
}