{
  "id": 24006,
  "KPGKDHAFHFE": "IQ",
  "activeMode": "PLAY_MODE_ALL",
  "titleTextMapHash": 219191031,
  "descTextMapHash": 3411840326,
  "luaPath": "Actor/Quest/IQ24006",
  "repeatable": true,
  "taskID": 43140,
  "subQuests": [
    {
      "subId": 2400601,
      "mainId": 24006,
      "order": 1,
      "descTextMapHash": 3656325532,
      "GMKDJFPEFFF": [
        340130
      ],
      "finishCond": [
        {
          "KPGKDHAFHFE": "QUEST_CONTENT_COMPLETE_TALK",
          "param": [
            2400601,
            0
          ]
        }
      ],
      "guide": {
        "KPGKDHAFHFE": "QUEST_GUIDE_NPC",
        "param": [
          "5062"
        ],
        "guideScene": 3,
        "guideStyle": "QUEST_GUIDE_STYLE_TARGET",
        "guideLayer": "QUEST_GUIDE_LAYER_SCENE"
      },
      "guideHint": {
        "param1": ""
      },
      "isRewind": true,
      "versionBegin": "",
      "versionEnd": ""
    },
    {
      "subId": 2400602,
      "mainId": 24006,
      "order": 2,
      "subIdSet": 1,
      "descTextMapHash": 803907228,
      "GMKDJFPEFFF": [
        340131
      ],
      "finishCond": [
        {
          "KPGKDHAFHFE": "QUEST_CONTENT_COMPLETE_TALK",
          "param": [
            2400602,
            0
          ]
        }
      ],
      "guide": {
        "KPGKDHAFHFE": "QUEST_GUIDE_LOCATION",
        "param": [
          "[3_340100244:3505.555,282.822,4548.804]",
          "25"
        ],
        "guideScene": 3,
        "guideStyle": "QUEST_GUIDE_STYLE_POINT",
        "guideLayer": "QUEST_GUIDE_LAYER_SCENE"
      },
      "guideHint": {
        "param1": ""
      },
      "versionBegin": "",
      "versionEnd": ""
    },
    {
      "subId": 2400603,
      "mainId": 24006,
      "order": 3,
      "subIdSet": 1,
      "descTextMapHash": 3860959372,
      "GMKDJFPEFFF": [
        340131
      ],
      "finishCond": [
        {
          "KPGKDHAFHFE": "QUEST_CONTENT_COMPLETE_TALK",
          "param": [
            2400603,
            0
          ]
        }
      ],
      "guide": {
        "KPGKDHAFHFE": "QUEST_GUIDE_LOCATION",
        "param": [
          "[3_340100244:3505.555,282.822,4548.804]",
          "25"
        ],
        "guideScene": 3,
        "guideStyle": "QUEST_GUIDE_STYLE_TARGET",
        "guideLayer": "QUEST_GUIDE_LAYER_SCENE"
      },
      "guideHint": {
        "param1": ""
      },
      "versionBegin": "",
      "versionEnd": ""
    },
    {
      "subId": 2400604,
      "mainId": 24006,
      "order": 4,
      "subIdSet": 1,
      "descTextMapHash": 1837598220,
      "GMKDJFPEFFF": [
        340131
      ],
      "finishCond": [
        {
          "KPGKDHAFHFE": "QUEST_CONTENT_COMPLETE_TALK",
          "param": [
            2400604,
            0
          ]
        }
      ],
      "guide": {
        "KPGKDHAFHFE": "QUEST_GUIDE_LOCATION",
        "param": [
          "[3_340100244:3505.555,282.822,4548.804]",
          "25"
        ],
        "guideScene": 3,
        "guideStyle": "QUEST_GUIDE_STYLE_TARGET",
        "guideLayer": "QUEST_GUIDE_LAYER_SCENE"
      },
      "guideHint": {
        "param1": ""
      },
      "versionBegin": "",
      "versionEnd": ""
    },
    {
      "subId": 2400605,
      "mainId": 24006,
      "order": 5,
      "descTextMapHash": 2346428468,
      "showType": "QUEST_HIDDEN",
      "GMKDJFPEFFF": [
        340131
      ],
      "finishCond": [
        {
          "KPGKDHAFHFE": "QUEST_CONTENT_QUEST_STATE_EQUAL",
          "param": [
            2400602,
            3
          ]
        },
        {
          "KPGKDHAFHFE": "QUEST_CONTENT_QUEST_STATE_EQUAL",
          "param": [
            2400603,
            3
          ]
        },
        {
          "KPGKDHAFHFE": "QUEST_CONTENT_QUEST_STATE_EQUAL",
          "param": [
            2400604,
            3
          ]
        }
      ],
      "guide": {
        "guideScene": 3,
        "guideStyle": "QUEST_GUIDE_STYLE_TARGET",
        "guideLayer": "QUEST_GUIDE_LAYER_SCENE"
      },
      "guideHint": {
        "param1": ""
      },
      "isRewind": true,
      "versionBegin": "",
      "versionEnd": ""
    },
    {
      "subId": 2400606,
      "mainId": 24006,
      "order": 6,
      "descTextMapHash": 3064380868,
      "GMKDJFPEFFF": [
        340131
      ],
      "finishCond": [
        {
          "KPGKDHAFHFE": "QUEST_CONTENT_COMPLETE_TALK",
          "param": [
            2400606,
            0
          ]
        }
      ],
      "guide": {
        "KPGKDHAFHFE": "QUEST_GUIDE_LOCATION",
        "param": [
          "[3_340100100:3500.581,281.167,4542.302,0.000,357.000,0.000]"
        ],
        "guideScene": 3,
        "guideStyle": "QUEST_GUIDE_STYLE_POINT",
        "guideLayer": "QUEST_GUIDE_LAYER_SCENE"
      },
      "guideHint": {
        "param1": ""
      },
      "finishParent": true,
      "isRewind": true,
      "finishExec": [
        {
          "KPGKDHAFHFE": "QUEST_EXEC_NOTIFY_DAILY_TASK",
          "param": [
            "43140"
          ]
        }
      ],
      "versionBegin": "",
      "versionEnd": ""
    }
  ],
  "talks": [
    {
      "id": 2400601,
      "beginWay": "TALK_BEGIN_MANUAL",
      "activeMode": "PLAY_MODE_HOST",
      "beginCond": [
        {
          "type": "QUEST_COND_STATE_EQUAL",
          "_param": [
            "2400601",
            "2"
          ]
        }
      ],
      "priority": 5,
      "initDialog": 240060101,
      "npcId": [
        5062,
        5021,
        5063
      ],
      "performCfg": "QuestDialogue/IQ/Fontaine_24006/Q2400601",
      "heroTalk": "TALK_HERO_MAIN",
      "questId": 24006,
      "assetIndex": 8808906133590305721,
      "prePerformCfg": ""
    },
    {
      "id": 2400602,
      "beginWay": "TALK_BEGIN_MANUAL",
      "activeMode": "PLAY_MODE_HOST",
      "beginCond": [
        {
          "type": "QUEST_COND_STATE_EQUAL",
          "_param": [
            "2400602",
            "2"
          ]
        }
      ],
      "priority": 5,
      "initDialog": 240060201,
      "npcId": [
        5062
      ],
      "performCfg": "",
      "heroTalk": "TALK_HERO_MAIN",
      "questId": 24006,
      "assetIndex": 17655938379883313675,
      "prePerformCfg": "",
      "freeStyleList": [
        1171,
        1172,
        1173,
        1190
      ]
    },
    {
      "id": 2400603,
      "beginWay": "TALK_BEGIN_MANUAL",
      "activeMode": "PLAY_MODE_HOST",
      "beginCond": [
        {
          "type": "QUEST_COND_STATE_EQUAL",
          "_param": [
            "2400603",
            "2"
          ]
        }
      ],
      "priority": 5,
      "initDialog": 240060301,
      "npcId": [
        5063
      ],
      "performCfg": "QuestDialogue/IQ/Fontaine_24006/Q2400603",
      "heroTalk": "TALK_HERO_MAIN",
      "questId": 24006,
      "assetIndex": 16812252084104399390,
      "prePerformCfg": ""
    },
    {
      "id": 2400604,
      "beginWay": "TALK_BEGIN_MANUAL",
      "activeMode": "PLAY_MODE_HOST",
      "beginCond": [
        {
          "type": "QUEST_COND_STATE_EQUAL",
          "_param": [
            "2400604",
            "2"
          ]
        }
      ],
      "priority": 5,
      "initDialog": 240060401,
      "npcId": [
        5021
      ],
      "performCfg": "",
      "heroTalk": "TALK_HERO_MAIN",
      "questId": 24006,
      "assetIndex": 13858419756579097610,
      "prePerformCfg": ""
    },
    {
      "id": 2400606,
      "beginWay": "TALK_BEGIN_MANUAL",
      "activeMode": "PLAY_MODE_HOST",
      "beginCond": [
        {
          "type": "QUEST_COND_STATE_EQUAL",
          "_param": [
            "2400606",
            "2"
          ]
        }
      ],
      "priority": 5,
      "initDialog": 240060601,
      "npcId": [
        5063,
        5021,
        5062
      ],
      "performCfg": "QuestDialogue/IQ/Fontaine_24006/Q2400606",
      "heroTalk": "TALK_HERO_MAIN",
      "questId": 24006,
      "assetIndex": 17874484132735022491,
      "prePerformCfg": "",
      "PLPFOOINAAJ": [
        "[3_340100170:3498.448,281.167,4542.663,0.000,152.200,0.000]"
      ]
    }
  ],
  "preloadLuaList": [
    1846829344849942061,
    6492977757869832215,
    7143835055320276984,
    5534585923673431335
  ],
  "forcePreloadLuaList": [
    7488255739293192126
  ],
  "freeStyleDic": {
    "5062": [
      5030
    ],
    "5021": [
      5030
    ]
  },
  "dialogList": [
    {
      "id": 240069903,
      "talkRole": {
        "type": "TALK_ROLE_NPC",
        "_id": "5063"
      },
      "talkContentTextMapHash": 1839769826,
      "talkAssetPath": "",
      "talkAssetPathAlter": "",
      "talkAudioName": "",
      "actionBefore": "",
      "actionWhile": "",
      "actionAfter": "",
      "optionIcon": "",
      "iconPath": ""
    },
    {
      "id": 240069904,
      "talkRole": {
        "type": "TALK_ROLE_NPC",
        "_id": "5062"
      },
      "talkContentTextMapHash": 3550835306,
      "talkAssetPath": "",
      "talkAssetPathAlter": "",
      "talkAudioName": "",
      "actionBefore": "",
      "actionWhile": "",
      "actionAfter": "",
      "optionIcon": "",
      "iconPath": ""
    },
    {
      "id": 240069905,
      "talkRole": {
        "type": "TALK_ROLE_NPC",
        "_id": "5021"
      },
      "talkContentTextMapHash": 2761453002,
      "talkAssetPath": "",
      "talkAssetPathAlter": "",
      "talkAudioName": "",
      "actionBefore": "",
      "actionWhile": "",
      "actionAfter": "",
      "optionIcon": "",
      "iconPath": ""
    }
  ]
}