{
  "id": 24009,
  "KPGKDHAFHFE": "IQ",
  "activeMode": "PLAY_MODE_ALL",
  "titleTextMapHash": 3269849967,
  "descTextMapHash": 1769707054,
  "luaPath": "Actor/Quest/IQ24009",
  "repeatable": true,
  "taskID": 43040,
  "subQuests": [
    {
      "subId": 2400901,
      "mainId": 24009,
      "order": 1,
      "descTextMapHash": 3983206988,
      "finishCond": [
        {
          "KPGKDHAFHFE": "QUEST_CONTENT_COMPLETE_TALK",
          "param": [
            2400901,
            0
          ]
        },
        {
          "KPGKDHAFHFE": "QUEST_CONTENT_COMPLETE_TALK",
          "param": [
            2400909,
            0
          ]
        },
        {
          "KPGKDHAFHFE": "QUEST_CONTENT_COMPLETE_TALK",
          "param": [
            2400911,
            0
          ]
        }
      ],
      "guide": {
        "KPGKDHAFHFE": "QUEST_GUIDE_NPC",
        "param": [
          "5140"
        ],
        "guideScene": 3,
        "guideStyle": "QUEST_GUIDE_STYLE_TARGET",
        "guideLayer": "QUEST_GUIDE_LAYER_SCENE"
      },
      "guideHint": {
        "param1": ""
      },
      "isRewind": true,
      "versionBegin": "",
      "versionEnd": ""
    },
    {
      "subId": 2400902,
      "mainId": 24009,
      "order": 3,
      "descTextMapHash": 964413028,
      "finishCond": [
        {
          "KPGKDHAFHFE": "QUEST_CONTENT_COMPLETE_TALK",
          "param": [
            2400902,
            0
          ]
        }
      ],
      "guide": {
        "KPGKDHAFHFE": "QUEST_GUIDE_NPC",
        "param": [
          "5140"
        ],
        "guideScene": 3,
        "guideStyle": "QUEST_GUIDE_STYLE_TARGET",
        "guideLayer": "QUEST_GUIDE_LAYER_SCENE"
      },
      "guideHint": {
        "param1": ""
      },
      "isRewind": true,
      "finishExec": [
        {
          "KPGKDHAFHFE": "QUEST_EXEC_RANDOM_CLOSED_QUEST_VAR",
          "param": [
            "2",
            "1",
            "2"
          ]
        },
        {
          "KPGKDHAFHFE": "QUEST_EXEC_SET_QUEST_GLOBAL_VAR",
          "param": [
            "2400901",
            "1"
          ]
        }
      ],
      "versionBegin": "",
      "versionEnd": ""
    },
    {
      "subId": 2400903,
      "mainId": 24009,
      "order": 4,
      "descTextMapHash": 934945980,
      "finishCond": [
        {
          "KPGKDHAFHFE": "QUEST_CONTENT_FINISH_PLOT",
          "param": [
            2400903,
            0
          ]
        }
      ],
      "guide": {
        "KPGKDHAFHFE": "QUEST_GUIDE_LOCATION",
        "param": [
          "[3_340300059:2593.479,325.484,4512.662,0.000,200.058,0.000]",
          "0"
        ],
        "guideScene": 3,
        "guideStyle": "QUEST_GUIDE_STYLE_POINT",
        "guideLayer": "QUEST_GUIDE_LAYER_SCENE"
      },
      "guideHint": {
        "param1": ""
      },
      "isRewind": true,
      "finishExec": [
        {
          "KPGKDHAFHFE": "QUEST_EXEC_UNREGISTER_DYNAMIC_GROUP",
          "param": [
            "133403102",
            "1"
          ]
        }
      ],
      "versionBegin": "",
      "versionEnd": ""
    },
    {
      "subId": 2400904,
      "mainId": 24009,
      "order": 6,
      "descTextMapHash": 2144758556,
      "finishCond": [
        {
          "KPGKDHAFHFE": "QUEST_CONTENT_COMPLETE_TALK",
          "param": [
            2400904,
            0
          ]
        }
      ],
      "guide": {
        "KPGKDHAFHFE": "QUEST_GUIDE_NPC",
        "param": [
          "5140"
        ],
        "guideScene": 3,
        "guideStyle": "QUEST_GUIDE_STYLE_TARGET",
        "guideLayer": "QUEST_GUIDE_LAYER_SCENE"
      },
      "guideHint": {
        "param1": ""
      },
      "isRewind": true,
      "finishExec": [
        {
          "KPGKDHAFHFE": "QUEST_EXEC_RANDOM_CLOSED_QUEST_VAR",
          "param": [
            "2",
            "1",
            "2"
          ]
        },
        {
          "KPGKDHAFHFE": "QUEST_EXEC_SET_QUEST_GLOBAL_VAR",
          "param": [
            "2400901",
            "1"
          ]
        }
      ],
      "versionBegin": "",
      "versionEnd": ""
    },
    {
      "subId": 2400905,
      "mainId": 24009,
      "order": 7,
      "descTextMapHash": 1119015876,
      "finishCond": [
        {
          "KPGKDHAFHFE": "QUEST_CONTENT_FINISH_PLOT",
          "param": [
            2400905,
            0
          ]
        }
      ],
      "guide": {
        "KPGKDHAFHFE": "QUEST_GUIDE_LOCATION",
        "param": [
          "[3_340100159:3282.752,317.268,4537.623,0.000,344.426,0.000]",
          "0"
        ],
        "guideScene": 3,
        "guideStyle": "QUEST_GUIDE_STYLE_POINT",
        "guideLayer": "QUEST_GUIDE_LAYER_SCENE"
      },
      "guideHint": {
        "param1": ""
      },
      "isRewind": true,
      "versionBegin": "",
      "versionEnd": ""
    },
    {
      "subId": 2400906,
      "mainId": 24009,
      "order": 9,
      "descTextMapHash": 1653471516,
      "finishCond": [
        {
          "KPGKDHAFHFE": "QUEST_CONTENT_COMPLETE_TALK",
          "param": [
            2400906,
            0
          ]
        }
      ],
      "guide": {
        "KPGKDHAFHFE": "QUEST_GUIDE_NPC",
        "param": [
          "5140"
        ],
        "guideScene": 3,
        "guideStyle": "QUEST_GUIDE_STYLE_TARGET",
        "guideLayer": "QUEST_GUIDE_LAYER_SCENE"
      },
      "guideHint": {
        "param1": ""
      },
      "isRewind": true,
      "finishExec": [
        {
          "KPGKDHAFHFE": "QUEST_EXEC_RANDOM_CLOSED_QUEST_VAR",
          "param": [
            "2",
            "1",
            "2"
          ]
        },
        {
          "KPGKDHAFHFE": "QUEST_EXEC_SET_QUEST_GLOBAL_VAR",
          "param": [
            "2400901",
            "1"
          ]
        }
      ],
      "versionBegin": "",
      "versionEnd": ""
    },
    {
      "subId": 2400907,
      "mainId": 24009,
      "order": 10,
      "descTextMapHash": 241537444,
      "finishCond": [
        {
          "KPGKDHAFHFE": "QUEST_CONTENT_FINISH_PLOT",
          "param": [
            2400907,
            0
          ]
        }
      ],
      "guide": {
        "KPGKDHAFHFE": "QUEST_GUIDE_LOCATION",
        "param": [
          "[3_340300061:2798.208,418.790,4412.898,0.000,165.745,0.000]",
          "0"
        ],
        "guideScene": 3,
        "guideStyle": "QUEST_GUIDE_STYLE_POINT",
        "guideLayer": "QUEST_GUIDE_LAYER_SCENE"
      },
      "guideHint": {
        "param1": ""
      },
      "isRewind": true,
      "versionBegin": "",
      "versionEnd": ""
    },
    {
      "subId": 2400908,
      "mainId": 24009,
      "order": 12,
      "descTextMapHash": 3820574356,
      "finishCond": [
        {
          "KPGKDHAFHFE": "QUEST_CONTENT_COMPLETE_TALK",
          "param": [
            2400908,
            0
          ]
        }
      ],
      "guide": {
        "KPGKDHAFHFE": "QUEST_GUIDE_NPC",
        "param": [
          "5140"
        ],
        "guideScene": 3,
        "guideStyle": "QUEST_GUIDE_STYLE_TARGET",
        "guideLayer": "QUEST_GUIDE_LAYER_SCENE"
      },
      "guideHint": {
        "param1": ""
      },
      "finishParent": true,
      "isRewind": true,
      "finishExec": [
        {
          "KPGKDHAFHFE": "QUEST_EXEC_INC_QUEST_GLOBAL_VAR",
          "param": [
            "2400902",
            "1"
          ]
        },
        {
          "KPGKDHAFHFE": "QUEST_EXEC_UNREGISTER_DYNAMIC_GROUP",
          "param": [
            "133403279",
            "0"
          ]
        },
        {
          "KPGKDHAFHFE": "QUEST_EXEC_NOTIFY_DAILY_TASK",
          "param": [
            "43040"
          ]
        }
      ],
      "versionBegin": "",
      "versionEnd": ""
    },
    {
      "subId": 2400909,
      "mainId": 24009,
      "order": 13,
      "descTextMapHash": 1428898380,
      "finishCond": [
        {
          "KPGKDHAFHFE": "QUEST_CONTENT_FINISH_ITEM_GIVING",
          "param": [
            2400909,
            0
          ]
        }
      ],
      "guide": {
        "KPGKDHAFHFE": "QUEST_GUIDE_NPC",
        "param": [
          "5140"
        ],
        "guideScene": 3,
        "guideStyle": "QUEST_GUIDE_STYLE_TARGET",
        "guideLayer": "QUEST_GUIDE_LAYER_SCENE"
      },
      "guideHint": {
        "param1": ""
      },
      "isRewind": true,
      "versionBegin": "",
      "versionEnd": ""
    },
    {
      "subId": 2400910,
      "mainId": 24009,
      "order": 2,
      "showType": "QUEST_HIDDEN",
      "finishCond": [
        {
          "KPGKDHAFHFE": "QUEST_CONTENT_QUEST_STATE_EQUAL",
          "param": [
            2400901,
            3
          ]
        }
      ],
      "guide": {},
      "showGuide": "QUEST_GUIDE_ITEM_DISABLE",
      "guideHint": {
        "param1": ""
      },
      "finishExec": [
        {
          "KPGKDHAFHFE": "QUEST_EXEC_RANDOM_CLOSED_QUEST_VAR",
          "param": [
            "1",
            "1",
            "3"
          ]
        }
      ],
      "versionBegin": "",
      "versionEnd": ""
    },
    {
      "subId": 2400911,
      "mainId": 24009,
      "order": 5,
      "descTextMapHash": 675993636,
      "finishCond": [
        {
          "KPGKDHAFHFE": "QUEST_CONTENT_FINISH_PLOT",
          "param": [
            2400911,
            0
          ]
        }
      ],
      "guide": {
        "KPGKDHAFHFE": "QUEST_GUIDE_LOCATION",
        "param": [
          "[3_340300057:3050.269,399.077,4614.302]",
          "0"
        ],
        "guideScene": 3,
        "guideStyle": "QUEST_GUIDE_STYLE_POINT",
        "guideLayer": "QUEST_GUIDE_LAYER_SCENE"
      },
      "guideHint": {
        "param1": ""
      },
      "isRewind": true,
      "finishExec": [
        {
          "KPGKDHAFHFE": "QUEST_EXEC_UNREGISTER_DYNAMIC_GROUP",
          "param": [
            "133403114",
            "1"
          ]
        }
      ],
      "versionBegin": "",
      "versionEnd": ""
    },
    {
      "subId": 2400912,
      "mainId": 24009,
      "order": 8,
      "descTextMapHash": 3738819956,
      "finishCond": [
        {
          "KPGKDHAFHFE": "QUEST_CONTENT_FINISH_PLOT",
          "param": [
            2400912,
            0
          ]
        }
      ],
      "guide": {
        "KPGKDHAFHFE": "QUEST_GUIDE_LOCATION",
        "param": [
          "[3_340100150:3193.322,404.111,4621.104]",
          "0"
        ],
        "guideScene": 3,
        "guideStyle": "QUEST_GUIDE_STYLE_POINT",
        "guideLayer": "QUEST_GUIDE_LAYER_SCENE"
      },
      "guideHint": {
        "param1": ""
      },
      "isRewind": true,
      "versionBegin": "",
      "versionEnd": ""
    },
    {
      "subId": 2400913,
      "mainId": 24009,
      "order": 11,
      "descTextMapHash": 2174143908,
      "finishCond": [
        {
          "KPGKDHAFHFE": "QUEST_CONTENT_FINISH_PLOT",
          "param": [
            2400913,
            0
          ]
        }
      ],
      "guide": {
        "KPGKDHAFHFE": "QUEST_GUIDE_LOCATION",
        "param": [
          "[3_340300080:3033.918,379.810,4464.202,0.000,180.151,0.000]",
          "0"
        ],
        "guideScene": 3,
        "guideStyle": "QUEST_GUIDE_STYLE_POINT",
        "guideLayer": "QUEST_GUIDE_LAYER_SCENE"
      },
      "guideHint": {
        "param1": ""
      },
      "isRewind": true,
      "finishExec": [
        {
          "KPGKDHAFHFE": "QUEST_EXEC_UNREGISTER_DYNAMIC_GROUP",
          "param": [
            "133403143",
            "1"
          ]
        }
      ],
      "versionBegin": "",
      "versionEnd": ""
    },
    {
      "subId": 2400914,
      "mainId": 24009,
      "order": 14,
      "descTextMapHash": 930293692,
      "finishCond": [
        {
          "KPGKDHAFHFE": "QUEST_CONTENT_COMPLETE_TALK",
          "param": [
            2400910,
            0
          ]
        },
        {
          "KPGKDHAFHFE": "QUEST_CONTENT_COMPLETE_TALK",
          "param": [
            2400913,
            0
          ]
        }
      ],
      "guide": {
        "KPGKDHAFHFE": "QUEST_GUIDE_NPC",
        "param": [
          "5140"
        ],
        "guideScene": 3,
        "guideStyle": "QUEST_GUIDE_STYLE_TARGET",
        "guideLayer": "QUEST_GUIDE_LAYER_SCENE"
      },
      "guideHint": {
        "param1": ""
      },
      "finishParent": true,
      "isRewind": true,
      "finishExec": [
        {
          "KPGKDHAFHFE": "QUEST_EXEC_SET_QUEST_GLOBAL_VAR",
          "param": [
            "2400902",
            "1"
          ]
        },
        {
          "KPGKDHAFHFE": "QUEST_EXEC_UNREGISTER_DYNAMIC_GROUP",
          "param": [
            "133403279",
            "0"
          ]
        },
        {
          "KPGKDHAFHFE": "QUEST_EXEC_NOTIFY_DAILY_TASK",
          "param": [
            "43040"
          ]
        }
      ],
      "versionBegin": "",
      "versionEnd": ""
    }
  ],
  "talks": [
    {
      "id": 2400901,
      "beginWay": "TALK_BEGIN_MANUAL",
      "activeMode": "PLAY_MODE_HOST",
      "beginCondComb": "LOGIC_A_AND_B_AND_ETCOR",
      "beginCond": [
        {
          "type": "QUEST_COND_QUEST_GLOBAL_VAR_EQUAL",
          "_param": [
            "2400901",
            "1"
          ]
        },
        {
          "type": "QUEST_COND_QUEST_GLOBAL_VAR_LESS",
          "_param": [
            "2400902",
            "4"
          ]
        },
        {
          "type": "QUEST_COND_STATE_EQUAL",
          "_param": [
            "2400901",
            "2"
          ]
        },
        {
          "type": "QUEST_COND_STATE_EQUAL",
          "_param": [
            "2400902",
            "2"
          ]
        },
        {
          "type": "QUEST_COND_STATE_EQUAL",
          "_param": [
            "2400904",
            "2"
          ]
        },
        {
          "type": "QUEST_COND_STATE_EQUAL",
          "_param": [
            "2400906",
            "2"
          ]
        }
      ],
      "priority": 5,
      "nextTalks": [
        2400902,
        2400904,
        2400906
      ],
      "initDialog": 240090101,
      "npcId": [
        5140
      ],
      "performCfg": "",
      "heroTalk": "TALK_HERO_MAIN",
      "questId": 24009,
      "assetIndex": 15361210771962516071,
      "prePerformCfg": "",
      "freeStyleList": [
        1200,
        1230,
        1030,
        1171,
        1172,
        1173,
        4030
      ]
    },
    {
      "id": 2400902,
      "activeMode": "PLAY_MODE_HOST",
      "beginCond": [
        {
          "type": "QUEST_COND_STATE_EQUAL",
          "_param": [
            "2400902",
            "2"
          ]
        }
      ],
      "priority": 5,
      "initDialog": 240090201,
      "npcId": [
        5140
      ],
      "performCfg": "",
      "heroTalk": "TALK_HERO_MAIN",
      "questId": 24009,
      "assetIndex": 13099491678136938391,
      "prePerformCfg": "",
      "freeStyleList": [
        1190,
        1171,
        1172,
        1173
      ]
    },
    {
      "id": 2400904,
      "activeMode": "PLAY_MODE_HOST",
      "beginCond": [
        {
          "type": "QUEST_COND_STATE_EQUAL",
          "_param": [
            "2400904",
            "2"
          ]
        }
      ],
      "priority": 5,
      "initDialog": 240090401,
      "npcId": [
        5140
      ],
      "performCfg": "",
      "heroTalk": "TALK_HERO_MAIN",
      "questId": 24009,
      "assetIndex": 1835359524443113354,
      "prePerformCfg": "",
      "freeStyleList": [
        1190
      ]
    },
    {
      "id": 2400906,
      "activeMode": "PLAY_MODE_HOST",
      "beginCond": [
        {
          "type": "QUEST_COND_STATE_EQUAL",
          "_param": [
            "2400906",
            "2"
          ]
        }
      ],
      "priority": 5,
      "initDialog": 240090601,
      "npcId": [
        5140
      ],
      "performCfg": "",
      "heroTalk": "TALK_HERO_MAIN",
      "questId": 24009,
      "assetIndex": 9457186384827825376,
      "prePerformCfg": "",
      "freeStyleList": [
        1190
      ]
    },
    {
      "id": 2400907,
      "beginWay": "TALK_BEGIN_MANUAL",
      "activeMode": "PLAY_MODE_HOST",
      "beginCondComb": "LOGIC_A_AND_B_AND_ETCOR",
      "beginCond": [
        {
          "type": "QUEST_COND_STATE_EQUAL",
          "_param": [
            "2400901",
            "3"
          ]
        },
        {
          "type": "QUEST_COND_STATE_EQUAL",
          "_param": [
            "2400908"
          ]
        },
        {
          "type": "QUEST_COND_STATE_EQUAL",
          "_param": [
            "2400902",
            "3"
          ]
        },
        {
          "type": "QUEST_COND_STATE_EQUAL",
          "_param": [
            "2400904",
            "3"
          ]
        },
        {
          "type": "QUEST_COND_STATE_EQUAL",
          "_param": [
            "2400906",
            "3"
          ]
        }
      ],
      "priority": 5,
      "initDialog": 240090701,
      "npcId": [
        5140
      ],
      "performCfg": "",
      "heroTalk": "TALK_HERO_MAIN",
      "questId": 24009,
      "assetIndex": 13036924701920072824,
      "prePerformCfg": ""
    },
    {
      "id": 2400908,
      "beginWay": "TALK_BEGIN_MANUAL",
      "activeMode": "PLAY_MODE_HOST",
      "beginCond": [
        {
          "type": "QUEST_COND_STATE_EQUAL",
          "_param": [
            "2400908",
            "2"
          ]
        }
      ],
      "priority": 5,
      "initDialog": 240090801,
      "npcId": [
        5140
      ],
      "performCfg": "QuestDialogue/IQ/Fontaine_24009/Q2400908",
      "heroTalk": "TALK_HERO_MAIN",
      "questId": 24009,
      "assetIndex": 4323706844273222016,
      "prePerformCfg": ""
    },
    {
      "id": 2400909,
      "beginWay": "TALK_BEGIN_MANUAL",
      "activeMode": "PLAY_MODE_HOST",
      "beginCond": [
        {
          "type": "QUEST_COND_STATE_EQUAL",
          "_param": [
            "2400901",
            "2"
          ]
        },
        {
          "type": "QUEST_COND_QUEST_GLOBAL_VAR_EQUAL",
          "_param": [
            "2400902",
            "4"
          ]
        }
      ],
      "priority": 5,
      "initDialog": 240090901,
      "npcId": [
        5140
      ],
      "performCfg": "",
      "heroTalk": "TALK_HERO_MAIN",
      "questId": 24009,
      "assetIndex": 2614038773334367398,
      "prePerformCfg": "",
      "freeStyleList": [
        1250,
        1160
      ]
    },
    {
      "id": 2400910,
      "activeMode": "PLAY_MODE_HOST",
      "beginCond": [
        {
          "type": "QUEST_COND_STATE_EQUAL",
          "_param": [
            "2400909",
            "2"
          ]
        }
      ],
      "priority": 5,
      "initDialog": 240091001,
      "npcId": [
        5140
      ],
      "performCfg": "QuestDialogue/IQ/Fontaine_24009/Q2400910",
      "heroTalk": "TALK_HERO_MAIN",
      "questId": 24009,
      "assetIndex": 3071187165106070380,
      "prePerformCfg": ""
    },
    {
      "id": 2400911,
      "beginWay": "TALK_BEGIN_MANUAL",
      "activeMode": "PLAY_MODE_HOST",
      "beginCondComb": "LOGIC_A_AND_B_AND_ETCOR",
      "beginCond": [
        {
          "type": "QUEST_COND_QUEST_GLOBAL_VAR_EQUAL",
          "_param": [
            "2400901",
            "0"
          ]
        },
        {
          "type": "QUEST_COND_QUEST_GLOBAL_VAR_LESS",
          "_param": [
            "2400902",
            "4"
          ]
        },
        {
          "type": "QUEST_COND_STATE_EQUAL",
          "_param": [
            "2400901",
            "2"
          ]
        },
        {
          "type": "QUEST_COND_STATE_EQUAL",
          "_param": [
            "2400902",
            "2"
          ]
        },
        {
          "type": "QUEST_COND_STATE_EQUAL",
          "_param": [
            "2400904",
            "2"
          ]
        },
        {
          "type": "QUEST_COND_STATE_EQUAL",
          "_param": [
            "2400906",
            "2"
          ]
        }
      ],
      "priority": 5,
      "nextTalks": [
        2400902,
        2400904,
        2400906
      ],
      "initDialog": 240091101,
      "npcId": [
        5140
      ],
      "performCfg": "",
      "heroTalk": "TALK_HERO_MAIN",
      "questId": 24009,
      "assetIndex": 9189141241783837486,
      "prePerformCfg": "",
      "freeStyleList": [
        1030,
        1171,
        1172,
        1173,
        1240,
        1060,
        1160
      ]
    },
    {
      "id": 2400912,
      "beginWay": "TALK_BEGIN_MANUAL",
      "activeMode": "PLAY_MODE_HOST",
      "beginCond": [
        {
          "type": "QUEST_COND_STATE_EQUAL",
          "_param": [
            "2400909",
            "2"
          ]
        },
        {
          "type": "QUEST_COND_ITEM_GIVING_ACTIVED",
          "_param": [
            "2400909"
          ]
        }
      ],
      "priority": 5,
      "initDialog": 240091201,
      "npcId": [
        5140
      ],
      "performCfg": "",
      "heroTalk": "TALK_HERO_MAIN",
      "questId": 24009,
      "assetIndex": 11182736134812317100,
      "prePerformCfg": ""
    },
    {
      "id": 2400913,
      "beginWay": "TALK_BEGIN_MANUAL",
      "activeMode": "PLAY_MODE_HOST",
      "beginCond": [
        {
          "type": "QUEST_COND_STATE_EQUAL",
          "_param": [
            "2400914",
            "2"
          ]
        },
        {
          "type": "QUEST_COND_STATE_EQUAL",
          "_param": [
            "2400909",
            "3"
          ]
        }
      ],
      "priority": 5,
      "initDialog": 240091301,
      "npcId": [
        5140
      ],
      "performCfg": "QuestDialogue/IQ/Fontaine_24009/Q2400910",
      "heroTalk": "TALK_HERO_MAIN",
      "questId": 24009,
      "assetIndex": 12341723207412273242,
      "prePerformCfg": ""
    },
    {
      "id": 2400921,
      "beginWay": "TALK_BEGIN_MANUAL",
      "activeMode": "PLAY_MODE_HOST",
      "beginCond": [
        {
          "type": "QUEST_COND_STATE_EQUAL",
          "_param": [
            "2400903",
            "2"
          ]
        }
      ],
      "priority": 5,
      "npcId": [
        13368
      ],
      "performCfg": "QuestDialogue/IQ/Fontaine_24009/Q2400921",
      "heroTalk": "TALK_HERO_MAIN",
      "questId": 24009,
      "assetIndex": 12364760738739970971,
      "prePerformCfg": ""
    },
    {
      "id": 2400922,
      "beginWay": "TALK_BEGIN_MANUAL",
      "activeMode": "PLAY_MODE_HOST",
      "beginCond": [
        {
          "type": "QUEST_COND_STATE_EQUAL",
          "_param": [
            "2400905",
            "2"
          ]
        }
      ],
      "priority": 5,
      "npcId": [
        13368
      ],
      "performCfg": "QuestDialogue/IQ/Fontaine_24009/Q2400922",
      "heroTalk": "TALK_HERO_MAIN",
      "questId": 24009,
      "assetIndex": 9895880036362815133,
      "prePerformCfg": ""
    },
    {
      "id": 2400923,
      "beginWay": "TALK_BEGIN_MANUAL",
      "activeMode": "PLAY_MODE_HOST",
      "beginCond": [
        {
          "type": "QUEST_COND_STATE_EQUAL",
          "_param": [
            "2400907",
            "2"
          ]
        }
      ],
      "priority": 5,
      "npcId": [
        13368
      ],
      "performCfg": "QuestDialogue/IQ/Fontaine_24009/Q2400923",
      "heroTalk": "TALK_HERO_MAIN",
      "questId": 24009,
      "assetIndex": 15891458946904784823,
      "prePerformCfg": ""
    },
    {
      "id": 2400924,
      "beginWay": "TALK_BEGIN_MANUAL",
      "activeMode": "PLAY_MODE_HOST",
      "beginCond": [
        {
          "type": "QUEST_COND_STATE_EQUAL",
          "_param": [
            "2400911",
            "2"
          ]
        }
      ],
      "priority": 5,
      "npcId": [
        13368
      ],
      "performCfg": "QuestDialogue/IQ/Fontaine_24009/Q2400924",
      "heroTalk": "TALK_HERO_MAIN",
      "questId": 24009,
      "assetIndex": 12833172365185962513,
      "prePerformCfg": ""
    },
    {
      "id": 2400925,
      "beginWay": "TALK_BEGIN_MANUAL",
      "activeMode": "PLAY_MODE_HOST",
      "beginCond": [
        {
          "type": "QUEST_COND_STATE_EQUAL",
          "_param": [
            "2400912",
            "2"
          ]
        }
      ],
      "priority": 5,
      "npcId": [
        13368
      ],
      "performCfg": "QuestDialogue/IQ/Fontaine_24009/Q2400925",
      "heroTalk": "TALK_HERO_MAIN",
      "questId": 24009,
      "assetIndex": 7747775344432752607,
      "prePerformCfg": ""
    },
    {
      "id": 2400926,
      "beginWay": "TALK_BEGIN_MANUAL",
      "activeMode": "PLAY_MODE_HOST",
      "beginCond": [
        {
          "type": "QUEST_COND_STATE_EQUAL",
          "_param": [
            "2400913",
            "2"
          ]
        }
      ],
      "priority": 5,
      "npcId": [
        13368
      ],
      "performCfg": "QuestDialogue/IQ/Fontaine_24009/Q2400926",
      "heroTalk": "TALK_HERO_MAIN",
      "questId": 24009,
      "assetIndex": 5108610976363666008,
      "prePerformCfg": ""
    }
  ],
  "freeStyleDic": {
    "5140": [
      1190,
      0
    ]
  },
  "dialogList": [
    {
      "id": 240091301,
      "nextDialogs": [
        240091302
      ],
      "talkRole": {
        "type": "TALK_ROLE_NPC",
        "_id": "5140"
      },
      "talkContentTextMapHash": 596358338,
      "talkAssetPath": "",
      "talkAssetPathAlter": "",
      "talkAudioName": "",
      "actionBefore": "",
      "actionWhile": "",
      "actionAfter": "",
      "optionIcon": "",
      "iconPath": ""
    },
    {
      "id": 240091302,
      "nextDialogs": [
        240091303
      ],
      "talkRole": {
        "type": "TALK_ROLE_NPC",
        "_id": "5140"
      },
      "talkContentTextMapHash": 3230922586,
      "talkAssetPath": "",
      "talkAssetPathAlter": "",
      "talkAudioName": "",
      "actionBefore": "",
      "actionWhile": "",
      "actionAfter": "",
      "optionIcon": "",
      "iconPath": ""
    },
    {
      "id": 240091303,
      "talkRole": {
        "type": "TALK_ROLE_NPC",
        "_id": "5140"
      },
      "talkContentTextMapHash": 2917481202,
      "talkAssetPath": "",
      "talkAssetPathAlter": "",
      "talkAudioName": "",
      "actionBefore": "",
      "actionWhile": "",
      "actionAfter": "",
      "optionIcon": "",
      "iconPath": ""
    }
  ]
}