{
  "id": 24018,
  "KPGKDHAFHFE": "IQ",
  "activeMode": "PLAY_MODE_ALL",
  "titleTextMapHash": 2185348151,
  "descTextMapHash": 1886860198,
  "luaPath": "Actor/Quest/IQ24018",
  "repeatable": true,
  "taskID": 43100,
  "PAIEEMIAKBH": true,
  "subQuests": [
    {
      "subId": 2401801,
      "mainId": 24018,
      "order": 1,
      "descTextMapHash": 3551250996,
      "GMKDJFPEFFF": [
        340206
      ],
      "finishCond": [
        {
          "KPGKDHAFHFE": "QUEST_CONTENT_COMPLETE_TALK",
          "param": [
            2401804,
            0
          ]
        },
        {
          "KPGKDHAFHFE": "QUEST_CONTENT_COMPLETE_TALK",
          "param": [
            2401805,
            0
          ]
        },
        {
          "KPGKDHAFHFE": "QUEST_CONTENT_COMPLETE_TALK",
          "param": [
            2401806,
            0
          ]
        }
      ],
      "guide": {
        "KPGKDHAFHFE": "QUEST_GUIDE_NPC",
        "param": [
          "5085"
        ],
        "guideScene": 3,
        "guideStyle": "QUEST_GUIDE_STYLE_TARGET",
        "guideLayer": "QUEST_GUIDE_LAYER_SCENE"
      },
      "guideHint": {
        "param1": ""
      },
      "isRewind": true,
      "versionBegin": "",
      "versionEnd": ""
    },
    {
      "subId": 2401802,
      "mainId": 24018,
      "order": 2,
      "showType": "QUEST_HIDDEN",
      "finishCond": [
        {
          "KPGKDHAFHFE": "QUEST_CONTENT_COMPLETE_TALK",
          "param": [
            2401804,
            0
          ]
        }
      ],
      "failCond": [
        {
          "KPGKDHAFHFE": "QUEST_CONTENT_QUEST_STATE_EQUAL",
          "param": [
            2401803,
            3
          ]
        },
        {
          "KPGKDHAFHFE": "QUEST_CONTENT_QUEST_STATE_EQUAL",
          "param": [
            2401804,
            3
          ]
        }
      ],
      "guide": {
        "guideScene": 3,
        "guideStyle": "QUEST_GUIDE_STYLE_TARGET",
        "guideLayer": "QUEST_GUIDE_LAYER_SCENE"
      },
      "showGuide": "QUEST_GUIDE_ITEM_DISABLE",
      "guideHint": {
        "param1": ""
      },
      "versionBegin": "",
      "versionEnd": ""
    },
    {
      "subId": 2401803,
      "mainId": 24018,
      "order": 3,
      "showType": "QUEST_HIDDEN",
      "finishCond": [
        {
          "KPGKDHAFHFE": "QUEST_CONTENT_COMPLETE_TALK",
          "param": [
            2401805,
            0
          ]
        }
      ],
      "failCond": [
        {
          "KPGKDHAFHFE": "QUEST_CONTENT_QUEST_STATE_EQUAL",
          "param": [
            2401802,
            3
          ]
        },
        {
          "KPGKDHAFHFE": "QUEST_CONTENT_QUEST_STATE_EQUAL",
          "param": [
            2401804,
            3
          ]
        }
      ],
      "guide": {
        "guideScene": 3,
        "guideStyle": "QUEST_GUIDE_STYLE_TARGET",
        "guideLayer": "QUEST_GUIDE_LAYER_SCENE"
      },
      "showGuide": "QUEST_GUIDE_ITEM_DISABLE",
      "guideHint": {
        "param1": ""
      },
      "versionBegin": "",
      "versionEnd": ""
    },
    {
      "subId": 2401804,
      "mainId": 24018,
      "order": 4,
      "showType": "QUEST_HIDDEN",
      "finishCond": [
        {
          "KPGKDHAFHFE": "QUEST_CONTENT_COMPLETE_TALK",
          "param": [
            2401806,
            0
          ]
        }
      ],
      "failCond": [
        {
          "KPGKDHAFHFE": "QUEST_CONTENT_QUEST_STATE_EQUAL",
          "param": [
            2401802,
            3
          ]
        },
        {
          "KPGKDHAFHFE": "QUEST_CONTENT_QUEST_STATE_EQUAL",
          "param": [
            2401803,
            3
          ]
        }
      ],
      "guide": {
        "guideScene": 3,
        "guideStyle": "QUEST_GUIDE_STYLE_TARGET",
        "guideLayer": "QUEST_GUIDE_LAYER_SCENE"
      },
      "showGuide": "QUEST_GUIDE_ITEM_DISABLE",
      "guideHint": {
        "param1": ""
      },
      "versionBegin": "",
      "versionEnd": ""
    },
    {
      "subId": 2401805,
      "mainId": 24018,
      "order": 5,
      "descTextMapHash": 3931394756,
      "GMKDJFPEFFF": [
        340206
      ],
      "finishCond": [
        {
          "KPGKDHAFHFE": "QUEST_CONTENT_FINISH_ITEM_GIVING",
          "param": [
            2401801,
            0
          ]
        }
      ],
      "guide": {
        "KPGKDHAFHFE": "QUEST_GUIDE_NPC",
        "param": [
          "5085"
        ],
        "guideScene": 3,
        "guideStyle": "QUEST_GUIDE_STYLE_TARGET",
        "guideLayer": "QUEST_GUIDE_LAYER_SCENE"
      },
      "guideHint": {
        "param1": ""
      },
      "isRewind": true,
      "versionBegin": "",
      "versionEnd": ""
    },
    {
      "subId": 2401806,
      "mainId": 24018,
      "order": 6,
      "descTextMapHash": 225181380,
      "GMKDJFPEFFF": [
        340206
      ],
      "finishCond": [
        {
          "KPGKDHAFHFE": "QUEST_CONTENT_COMPLETE_TALK",
          "param": [
            2401820,
            0
          ]
        }
      ],
      "guide": {
        "KPGKDHAFHFE": "QUEST_GUIDE_NPC",
        "param": [
          "5085"
        ],
        "guideScene": 3,
        "guideStyle": "QUEST_GUIDE_STYLE_START",
        "guideLayer": "QUEST_GUIDE_LAYER_SCENE"
      },
      "guideHint": {
        "param1": ""
      },
      "finishParent": true,
      "isRewind": true,
      "finishExec": [
        {
          "KPGKDHAFHFE": "QUEST_EXEC_SET_QUEST_GLOBAL_VAR",
          "param": [
            "2401801",
            "1"
          ]
        },
        {
          "KPGKDHAFHFE": "QUEST_EXEC_NOTIFY_DAILY_TASK",
          "param": [
            "43100"
          ]
        }
      ],
      "versionBegin": "",
      "versionEnd": ""
    },
    {
      "subId": 2401807,
      "mainId": 24018,
      "order": 7,
      "descTextMapHash": 880663396,
      "GMKDJFPEFFF": [
        340206
      ],
      "finishCond": [
        {
          "KPGKDHAFHFE": "QUEST_CONTENT_COMPLETE_TALK",
          "param": [
            2401821,
            0
          ]
        }
      ],
      "guide": {
        "KPGKDHAFHFE": "QUEST_GUIDE_NPC",
        "param": [
          "5085"
        ],
        "guideScene": 3,
        "guideStyle": "QUEST_GUIDE_STYLE_START",
        "guideLayer": "QUEST_GUIDE_LAYER_SCENE"
      },
      "guideHint": {
        "param1": ""
      },
      "finishParent": true,
      "isRewind": true,
      "finishExec": [
        {
          "KPGKDHAFHFE": "QUEST_EXEC_SET_QUEST_GLOBAL_VAR",
          "param": [
            "2401801",
            "1"
          ]
        },
        {
          "KPGKDHAFHFE": "QUEST_EXEC_NOTIFY_DAILY_TASK",
          "param": [
            "43100"
          ]
        }
      ],
      "versionBegin": "",
      "versionEnd": ""
    },
    {
      "subId": 2401808,
      "mainId": 24018,
      "order": 8,
      "descTextMapHash": 2299726188,
      "GMKDJFPEFFF": [
        340206
      ],
      "finishCond": [
        {
          "KPGKDHAFHFE": "QUEST_CONTENT_COMPLETE_TALK",
          "param": [
            2401822,
            0
          ]
        }
      ],
      "guide": {
        "KPGKDHAFHFE": "QUEST_GUIDE_NPC",
        "param": [
          "5085"
        ],
        "guideScene": 3,
        "guideStyle": "QUEST_GUIDE_STYLE_START",
        "guideLayer": "QUEST_GUIDE_LAYER_SCENE"
      },
      "guideHint": {
        "param1": ""
      },
      "finishParent": true,
      "isRewind": true,
      "finishExec": [
        {
          "KPGKDHAFHFE": "QUEST_EXEC_SET_QUEST_GLOBAL_VAR",
          "param": [
            "2401801",
            "1"
          ]
        },
        {
          "KPGKDHAFHFE": "QUEST_EXEC_NOTIFY_DAILY_TASK",
          "param": [
            "43100"
          ]
        }
      ],
      "versionBegin": "",
      "versionEnd": ""
    },
    {
      "subId": 2401809,
      "mainId": 24018,
      "order": 9,
      "descTextMapHash": 905738404,
      "GMKDJFPEFFF": [
        340119
      ],
      "finishCond": [
        {
          "KPGKDHAFHFE": "QUEST_CONTENT_COMPLETE_TALK",
          "param": [
            2401824,
            0
          ]
        },
        {
          "KPGKDHAFHFE": "QUEST_CONTENT_COMPLETE_TALK",
          "param": [
            2401825,
            0
          ]
        },
        {
          "KPGKDHAFHFE": "QUEST_CONTENT_COMPLETE_TALK",
          "param": [
            2401826,
            0
          ]
        }
      ],
      "failCond": [
        {
          "KPGKDHAFHFE": "QUEST_CONTENT_COMPLETE_TALK",
          "param": [
            2401827,
            0
          ]
        }
      ],
      "guide": {
        "KPGKDHAFHFE": "QUEST_GUIDE_NPC",
        "param": [
          "5027"
        ],
        "guideScene": 3,
        "guideStyle": "QUEST_GUIDE_STYLE_TARGET",
        "guideLayer": "QUEST_GUIDE_LAYER_SCENE"
      },
      "guideHint": {
        "param1": ""
      },
      "isRewind": true,
      "versionBegin": "",
      "versionEnd": ""
    },
    {
      "subId": 2401810,
      "mainId": 24018,
      "order": 10,
      "descTextMapHash": 2263144044,
      "GMKDJFPEFFF": [
        340119
      ],
      "finishCond": [
        {
          "KPGKDHAFHFE": "QUEST_CONTENT_COMPLETE_TALK",
          "param": [
            2401824,
            0
          ]
        },
        {
          "KPGKDHAFHFE": "QUEST_CONTENT_COMPLETE_TALK",
          "param": [
            2401825,
            0
          ]
        },
        {
          "KPGKDHAFHFE": "QUEST_CONTENT_COMPLETE_TALK",
          "param": [
            2401826,
            0
          ]
        }
      ],
      "guide": {
        "KPGKDHAFHFE": "QUEST_GUIDE_NPC",
        "param": [
          "5027"
        ],
        "guideScene": 3,
        "guideStyle": "QUEST_GUIDE_STYLE_TARGET",
        "guideLayer": "QUEST_GUIDE_LAYER_SCENE"
      },
      "guideHint": {
        "param1": ""
      },
      "isRewind": true,
      "versionBegin": "",
      "versionEnd": ""
    },
    {
      "subId": 2401811,
      "mainId": 24018,
      "order": 11,
      "showType": "QUEST_HIDDEN",
      "finishCond": [
        {
          "KPGKDHAFHFE": "QUEST_CONTENT_COMPLETE_TALK",
          "param": [
            2401824,
            0
          ]
        }
      ],
      "failCond": [
        {
          "KPGKDHAFHFE": "QUEST_CONTENT_QUEST_STATE_EQUAL",
          "param": [
            2401812,
            3
          ]
        },
        {
          "KPGKDHAFHFE": "QUEST_CONTENT_QUEST_STATE_EQUAL",
          "param": [
            2401813,
            3
          ]
        }
      ],
      "guide": {
        "guideScene": 3,
        "guideStyle": "QUEST_GUIDE_STYLE_TARGET",
        "guideLayer": "QUEST_GUIDE_LAYER_SCENE"
      },
      "showGuide": "QUEST_GUIDE_ITEM_DISABLE",
      "guideHint": {
        "param1": ""
      },
      "versionBegin": "",
      "versionEnd": ""
    },
    {
      "subId": 2401812,
      "mainId": 24018,
      "order": 12,
      "showType": "QUEST_HIDDEN",
      "finishCond": [
        {
          "KPGKDHAFHFE": "QUEST_CONTENT_COMPLETE_TALK",
          "param": [
            2401825,
            0
          ]
        }
      ],
      "failCond": [
        {
          "KPGKDHAFHFE": "QUEST_CONTENT_QUEST_STATE_EQUAL",
          "param": [
            2401811,
            3
          ]
        },
        {
          "KPGKDHAFHFE": "QUEST_CONTENT_QUEST_STATE_EQUAL",
          "param": [
            2401813,
            3
          ]
        }
      ],
      "guide": {
        "guideScene": 3,
        "guideStyle": "QUEST_GUIDE_STYLE_TARGET",
        "guideLayer": "QUEST_GUIDE_LAYER_SCENE"
      },
      "showGuide": "QUEST_GUIDE_ITEM_DISABLE",
      "guideHint": {
        "param1": ""
      },
      "versionBegin": "",
      "versionEnd": ""
    },
    {
      "subId": 2401813,
      "mainId": 24018,
      "order": 13,
      "showType": "QUEST_HIDDEN",
      "finishCond": [
        {
          "KPGKDHAFHFE": "QUEST_CONTENT_COMPLETE_TALK",
          "param": [
            2401826,
            0
          ]
        }
      ],
      "failCond": [
        {
          "KPGKDHAFHFE": "QUEST_CONTENT_QUEST_STATE_EQUAL",
          "param": [
            2401811,
            3
          ]
        },
        {
          "KPGKDHAFHFE": "QUEST_CONTENT_QUEST_STATE_EQUAL",
          "param": [
            2401812,
            3
          ]
        }
      ],
      "guide": {
        "guideScene": 3,
        "guideStyle": "QUEST_GUIDE_STYLE_TARGET",
        "guideLayer": "QUEST_GUIDE_LAYER_SCENE"
      },
      "showGuide": "QUEST_GUIDE_ITEM_DISABLE",
      "guideHint": {
        "param1": ""
      },
      "versionBegin": "",
      "versionEnd": ""
    },
    {
      "subId": 2401814,
      "mainId": 24018,
      "order": 14,
      "descTextMapHash": 1192471828,
      "GMKDJFPEFFF": [
        340206
      ],
      "finishCond": [
        {
          "KPGKDHAFHFE": "QUEST_CONTENT_FINISH_ITEM_GIVING",
          "param": [
            2401802,
            0
          ]
        }
      ],
      "guide": {
        "KPGKDHAFHFE": "QUEST_GUIDE_NPC",
        "param": [
          "5085"
        ],
        "guideScene": 3,
        "guideStyle": "QUEST_GUIDE_STYLE_TARGET",
        "guideLayer": "QUEST_GUIDE_LAYER_SCENE"
      },
      "guideHint": {
        "param1": ""
      },
      "isRewind": true,
      "versionBegin": "",
      "versionEnd": ""
    },
    {
      "subId": 2401815,
      "mainId": 24018,
      "order": 15,
      "descTextMapHash": 165480340,
      "GMKDJFPEFFF": [
        340206
      ],
      "finishCond": [
        {
          "KPGKDHAFHFE": "QUEST_CONTENT_COMPLETE_TALK",
          "param": [
            2401830,
            0
          ]
        }
      ],
      "guide": {
        "KPGKDHAFHFE": "QUEST_GUIDE_NPC",
        "param": [
          "5085"
        ],
        "guideScene": 3,
        "guideStyle": "QUEST_GUIDE_STYLE_START",
        "guideLayer": "QUEST_GUIDE_LAYER_SCENE"
      },
      "guideHint": {
        "param1": ""
      },
      "finishParent": true,
      "isRewind": true,
      "finishExec": [
        {
          "KPGKDHAFHFE": "QUEST_EXEC_SET_QUEST_GLOBAL_VAR",
          "param": [
            "2401801",
            "1"
          ]
        },
        {
          "KPGKDHAFHFE": "QUEST_EXEC_NOTIFY_DAILY_TASK",
          "param": [
            "43100"
          ]
        }
      ],
      "versionBegin": "",
      "versionEnd": ""
    },
    {
      "subId": 2401816,
      "mainId": 24018,
      "order": 16,
      "descTextMapHash": 3748462756,
      "GMKDJFPEFFF": [
        340206
      ],
      "finishCond": [
        {
          "KPGKDHAFHFE": "QUEST_CONTENT_COMPLETE_TALK",
          "param": [
            2401831,
            0
          ]
        }
      ],
      "guide": {
        "KPGKDHAFHFE": "QUEST_GUIDE_NPC",
        "param": [
          "5085"
        ],
        "guideScene": 3,
        "guideStyle": "QUEST_GUIDE_STYLE_START",
        "guideLayer": "QUEST_GUIDE_LAYER_SCENE"
      },
      "guideHint": {
        "param1": ""
      },
      "finishParent": true,
      "isRewind": true,
      "finishExec": [
        {
          "KPGKDHAFHFE": "QUEST_EXEC_SET_QUEST_GLOBAL_VAR",
          "param": [
            "2401801",
            "1"
          ]
        },
        {
          "KPGKDHAFHFE": "QUEST_EXEC_NOTIFY_DAILY_TASK",
          "param": [
            "43100"
          ]
        }
      ],
      "versionBegin": "",
      "versionEnd": ""
    },
    {
      "subId": 2401817,
      "mainId": 24018,
      "order": 17,
      "descTextMapHash": 3219027996,
      "GMKDJFPEFFF": [
        340206
      ],
      "finishCond": [
        {
          "KPGKDHAFHFE": "QUEST_CONTENT_COMPLETE_TALK",
          "param": [
            2401832,
            0
          ]
        }
      ],
      "guide": {
        "KPGKDHAFHFE": "QUEST_GUIDE_NPC",
        "param": [
          "5085"
        ],
        "guideScene": 3,
        "guideStyle": "QUEST_GUIDE_STYLE_START",
        "guideLayer": "QUEST_GUIDE_LAYER_SCENE"
      },
      "guideHint": {
        "param1": ""
      },
      "finishParent": true,
      "isRewind": true,
      "finishExec": [
        {
          "KPGKDHAFHFE": "QUEST_EXEC_SET_QUEST_GLOBAL_VAR",
          "param": [
            "2401801",
            "1"
          ]
        },
        {
          "KPGKDHAFHFE": "QUEST_EXEC_NOTIFY_DAILY_TASK",
          "param": [
            "43100"
          ]
        }
      ],
      "versionBegin": "",
      "versionEnd": ""
    },
    {
      "subId": 2401818,
      "mainId": 24018,
      "order": 18,
      "descTextMapHash": 2584732940,
      "finishCond": [
        {
          "KPGKDHAFHFE": "QUEST_CONTENT_COMPLETE_TALK",
          "param": [
            2401833,
            0
          ]
        }
      ],
      "guide": {
        "KPGKDHAFHFE": "QUEST_GUIDE_NPC",
        "param": [
          "13417"
        ],
        "guideScene": 3,
        "guideStyle": "QUEST_GUIDE_STYLE_TARGET",
        "guideLayer": "QUEST_GUIDE_LAYER_SCENE"
      },
      "guideHint": {
        "param1": ""
      },
      "isRewind": true,
      "versionBegin": "",
      "versionEnd": ""
    },
    {
      "subId": 2401819,
      "mainId": 24018,
      "order": 19,
      "descTextMapHash": 1200035204,
      "GMKDJFPEFFF": [
        340206
      ],
      "finishCond": [
        {
          "KPGKDHAFHFE": "QUEST_CONTENT_FINISH_ITEM_GIVING",
          "param": [
            2401803,
            0
          ]
        }
      ],
      "guide": {
        "KPGKDHAFHFE": "QUEST_GUIDE_NPC",
        "param": [
          "5085"
        ],
        "guideScene": 3,
        "guideStyle": "QUEST_GUIDE_STYLE_TARGET",
        "guideLayer": "QUEST_GUIDE_LAYER_SCENE"
      },
      "guideHint": {
        "param1": ""
      },
      "isRewind": true,
      "versionBegin": "",
      "versionEnd": ""
    },
    {
      "subId": 2401820,
      "mainId": 24018,
      "order": 20,
      "descTextMapHash": 3356536572,
      "GMKDJFPEFFF": [
        340206
      ],
      "finishCond": [
        {
          "KPGKDHAFHFE": "QUEST_CONTENT_COMPLETE_TALK",
          "param": [
            2401834,
            0
          ]
        }
      ],
      "guide": {
        "KPGKDHAFHFE": "QUEST_GUIDE_NPC",
        "param": [
          "5085"
        ],
        "guideScene": 3,
        "guideStyle": "QUEST_GUIDE_STYLE_TARGET",
        "guideLayer": "QUEST_GUIDE_LAYER_SCENE"
      },
      "guideHint": {
        "param1": ""
      },
      "finishParent": true,
      "isRewind": true,
      "finishExec": [
        {
          "KPGKDHAFHFE": "QUEST_EXEC_SET_QUEST_GLOBAL_VAR",
          "param": [
            "2401801",
            "1"
          ]
        },
        {
          "KPGKDHAFHFE": "QUEST_EXEC_NOTIFY_DAILY_TASK",
          "param": [
            "43100"
          ]
        }
      ],
      "versionBegin": "",
      "versionEnd": ""
    },
    {
      "subId": 2401821,
      "mainId": 24018,
      "order": 21,
      "showType": "QUEST_HIDDEN",
      "guide": {
        "guideScene": 3,
        "guideStyle": "QUEST_GUIDE_STYLE_TARGET",
        "guideLayer": "QUEST_GUIDE_LAYER_SCENE"
      },
      "showGuide": "QUEST_GUIDE_ITEM_DISABLE",
      "guideHint": {
        "param1": ""
      },
      "versionBegin": "",
      "versionEnd": ""
    },
    {
      "subId": 2401822,
      "mainId": 24018,
      "order": 22,
      "showType": "QUEST_HIDDEN",
      "guide": {
        "guideScene": 3,
        "guideStyle": "QUEST_GUIDE_STYLE_TARGET",
        "guideLayer": "QUEST_GUIDE_LAYER_SCENE"
      },
      "showGuide": "QUEST_GUIDE_ITEM_DISABLE",
      "guideHint": {
        "param1": ""
      },
      "versionBegin": "",
      "versionEnd": ""
    },
    {
      "subId": 2401823,
      "mainId": 24018,
      "order": 23,
      "showType": "QUEST_HIDDEN",
      "guide": {
        "guideScene": 3,
        "guideStyle": "QUEST_GUIDE_STYLE_TARGET",
        "guideLayer": "QUEST_GUIDE_LAYER_SCENE"
      },
      "showGuide": "QUEST_GUIDE_ITEM_DISABLE",
      "guideHint": {
        "param1": ""
      },
      "versionBegin": "",
      "versionEnd": ""
    },
    {
      "subId": 2401824,
      "mainId": 24018,
      "order": 24,
      "showType": "QUEST_HIDDEN",
      "guide": {
        "guideScene": 3,
        "guideStyle": "QUEST_GUIDE_STYLE_TARGET",
        "guideLayer": "QUEST_GUIDE_LAYER_SCENE"
      },
      "showGuide": "QUEST_GUIDE_ITEM_DISABLE",
      "guideHint": {
        "param1": ""
      },
      "versionBegin": "",
      "versionEnd": ""
    }
  ],
  "talks": [
    {
      "id": 2401801,
      "beginWay": "TALK_BEGIN_MANUAL",
      "activeMode": "PLAY_MODE_HOST",
      "beginCondComb": "LOGIC_AND",
      "beginCond": [
        {
          "type": "QUEST_COND_QUEST_GLOBAL_VAR_EQUAL",
          "_param": [
            "2401401",
            "0"
          ]
        },
        {
          "type": "QUEST_COND_QUEST_GLOBAL_VAR_EQUAL",
          "_param": [
            "2401801",
            "0"
          ]
        },
        {
          "type": "QUEST_COND_STATE_EQUAL",
          "_param": [
            "2401801",
            "2"
          ]
        }
      ],
      "priority": 5,
      "nextTalks": [
        2401804,
        2401805
      ],
      "initDialog": 240180101,
      "npcId": [
        5085
      ],
      "performCfg": "QuestDialogue/IQ/Fontaine_24018/Q2401801",
      "heroTalk": "TALK_HERO_MAIN",
      "questId": 24018,
      "assetIndex": 8206265259609586582,
      "prePerformCfg": ""
    },
    {
      "id": 2401802,
      "beginWay": "TALK_BEGIN_MANUAL",
      "activeMode": "PLAY_MODE_HOST",
      "beginCondComb": "LOGIC_AND",
      "beginCond": [
        {
          "type": "QUEST_COND_QUEST_GLOBAL_VAR_EQUAL",
          "_param": [
            "2401401",
            "1"
          ]
        },
        {
          "type": "QUEST_COND_QUEST_GLOBAL_VAR_EQUAL",
          "_param": [
            "2401801",
            "0"
          ]
        },
        {
          "type": "QUEST_COND_STATE_EQUAL",
          "_param": [
            "2401801",
            "2"
          ]
        }
      ],
      "priority": 5,
      "nextTalks": [
        2401804,
        2401805,
        2401806
      ],
      "initDialog": 240180201,
      "npcId": [
        5085
      ],
      "performCfg": "QuestDialogue/IQ/Fontaine_24018/Q2401802",
      "heroTalk": "TALK_HERO_MAIN",
      "questId": 24018,
      "assetIndex": 4662514914382115218,
      "prePerformCfg": ""
    },
    {
      "id": 2401803,
      "beginWay": "TALK_BEGIN_MANUAL",
      "activeMode": "PLAY_MODE_HOST",
      "beginCondComb": "LOGIC_AND",
      "beginCond": [
        {
          "type": "QUEST_COND_QUEST_GLOBAL_VAR_EQUAL",
          "_param": [
            "2401401",
            "0"
          ]
        },
        {
          "type": "QUEST_COND_QUEST_GLOBAL_VAR_EQUAL",
          "_param": [
            "2401801",
            "1"
          ]
        },
        {
          "type": "QUEST_COND_STATE_EQUAL",
          "_param": [
            "2401801",
            "2"
          ]
        }
      ],
      "priority": 5,
      "nextTalks": [
        2401804,
        2401805
      ],
      "initDialog": 240180301,
      "npcId": [
        5085
      ],
      "performCfg": "QuestDialogue/IQ/Fontaine_24018/Q2401803",
      "heroTalk": "TALK_HERO_MAIN",
      "questId": 24018,
      "assetIndex": 13086909324593706937,
      "prePerformCfg": ""
    },
    {
      "id": 2401804,
      "activeMode": "PLAY_MODE_HOST",
      "beginCond": [
        {
          "type": "QUEST_COND_STATE_EQUAL",
          "_param": [
            "2401801",
            "2"
          ]
        }
      ],
      "priority": 5,
      "initDialog": 240180401,
      "npcId": [
        5085
      ],
      "performCfg": "QuestDialogue/IQ/Fontaine_24018/Q2401804",
      "heroTalk": "TALK_HERO_MAIN",
      "questId": 24018,
      "assetIndex": 8657651775226399022,
      "prePerformCfg": ""
    },
    {
      "id": 2401805,
      "activeMode": "PLAY_MODE_HOST",
      "beginCond": [
        {
          "type": "QUEST_COND_STATE_EQUAL",
          "_param": [
            "2401801",
            "2"
          ]
        }
      ],
      "priority": 5,
      "initDialog": 240180501,
      "npcId": [
        5085
      ],
      "performCfg": "QuestDialogue/IQ/Fontaine_24018/Q2401805",
      "heroTalk": "TALK_HERO_MAIN",
      "questId": 24018,
      "assetIndex": 13462189701739517426,
      "prePerformCfg": ""
    },
    {
      "id": 2401806,
      "activeMode": "PLAY_MODE_HOST",
      "beginCondComb": "LOGIC_AND",
      "beginCond": [
        {
          "type": "QUEST_COND_STATE_EQUAL",
          "_param": [
            "2401801",
            "2"
          ]
        },
        {
          "type": "QUEST_COND_QUEST_GLOBAL_VAR_EQUAL",
          "_param": [
            "2401401",
            "1"
          ]
        }
      ],
      "priority": 5,
      "initDialog": 240180601,
      "npcId": [
        5085
      ],
      "performCfg": "QuestDialogue/IQ/Fontaine_24018/Q2401806",
      "heroTalk": "TALK_HERO_MAIN",
      "questId": 24018,
      "assetIndex": 13130792633539491559,
      "prePerformCfg": ""
    },
    {
      "id": 2401807,
      "beginWay": "TALK_BEGIN_MANUAL",
      "activeMode": "PLAY_MODE_HOST",
      "beginCondComb": "LOGIC_OR",
      "beginCond": [
        {
          "type": "QUEST_COND_STATE_EQUAL",
          "_param": [
            "2401801",
            "2"
          ]
        },
        {
          "type": "QUEST_COND_STATE_EQUAL",
          "_param": [
            "2401805",
            "2"
          ]
        },
        {
          "type": "QUEST_COND_STATE_EQUAL",
          "_param": [
            "2401809",
            "2"
          ]
        },
        {
          "type": "QUEST_COND_STATE_EQUAL",
          "_param": [
            "2401810",
            "2"
          ]
        }
      ],
      "priority": 5,
      "initDialog": 240180701,
      "npcId": [
        13409
      ],
      "performCfg": "QuestDialogue/IQ/Fontaine_24018/Q2401807",
      "heroTalk": "TALK_HERO_MAIN",
      "questId": 24018,
      "assetIndex": 16109575754759906389,
      "prePerformCfg": ""
    },
    {
      "id": 2401808,
      "beginWay": "TALK_BEGIN_MANUAL",
      "activeMode": "PLAY_MODE_HOST",
      "beginCondComb": "LOGIC_AND",
      "beginCond": [
        {
          "type": "QUEST_COND_ITEM_GIVING_ACTIVED",
          "_param": [
            "2401801"
          ]
        },
        {
          "type": "QUEST_COND_STATE_EQUAL",
          "_param": [
            "2401805",
            "2"
          ]
        }
      ],
      "priority": 5,
      "nextTalks": [
        2401809,
        2401810,
        2401817,
        2401818
      ],
      "initDialog": 240180801,
      "npcId": [
        5085
      ],
      "performCfg": "QuestDialogue/IQ/Fontaine_24018/Q2401808",
      "heroTalk": "TALK_HERO_MAIN",
      "questId": 24018,
      "assetIndex": 16801260056874630312,
      "prePerformCfg": ""
    },
    {
      "id": 2401809,
      "activeMode": "PLAY_MODE_HOST",
      "beginCondComb": "LOGIC_AND",
      "beginCond": [
        {
          "type": "QUEST_COND_STATE_EQUAL",
          "_param": [
            "2401805",
            "2"
          ]
        },
        {
          "type": "QUEST_COND_PACK_HAVE_ANY_ITEM",
          "_param": [
            "101235,101236,101233",
            "0"
          ]
        }
      ],
      "priority": 5,
      "initDialog": 240180901,
      "npcId": [
        5085
      ],
      "performCfg": "QuestDialogue/IQ/Fontaine_24018/Q2401809",
      "heroTalk": "TALK_HERO_MAIN",
      "questId": 24018,
      "assetIndex": 17350002824539563068,
      "prePerformCfg": ""
    },
    {
      "id": 2401810,
      "activeMode": "PLAY_MODE_HOST",
      "beginCondComb": "LOGIC_AND",
      "beginCond": [
        {
          "type": "QUEST_COND_ITEM_GIVING_ACTIVED",
          "_param": [
            "2401801"
          ]
        },
        {
          "type": "QUEST_COND_STATE_EQUAL",
          "_param": [
            "2401805",
            "2"
          ]
        },
        {
          "type": "QUEST_COND_PACK_HAVE_ANY_ITEM",
          "_param": [
            "101235,101236,101233",
            "1"
          ]
        }
      ],
      "priority": 5,
      "initDialog": 240181001,
      "npcId": [
        5085
      ],
      "performCfg": "QuestDialogue/IQ/Fontaine_24018/Q2401810",
      "heroTalk": "TALK_HERO_MAIN",
      "questId": 24018,
      "assetIndex": 1285796828760143606,
      "prePerformCfg": ""
    },
    {
      "id": 2401811,
      "beginWay": "TALK_BEGIN_MANUAL",
      "activeMode": "PLAY_MODE_HOST",
      "beginCondComb": "LOGIC_A_AND_ETCOR",
      "beginCond": [
        {
          "type": "QUEST_COND_ITEM_GIVING_ACTIVED",
          "_param": [
            "2401802"
          ]
        },
        {
          "type": "QUEST_COND_STATE_EQUAL",
          "_param": [
            "2401809",
            "2"
          ]
        },
        {
          "type": "QUEST_COND_STATE_EQUAL",
          "_param": [
            "2401810",
            "2"
          ]
        },
        {
          "type": "QUEST_COND_STATE_EQUAL",
          "_param": [
            "2401814",
            "2"
          ]
        }
      ],
      "priority": 5,
      "nextTalks": [
        2401812,
        2401813,
        2401817,
        2401818
      ],
      "initDialog": 240181101,
      "npcId": [
        5085
      ],
      "performCfg": "QuestDialogue/IQ/Fontaine_24018/Q2401811",
      "heroTalk": "TALK_HERO_MAIN",
      "questId": 24018,
      "assetIndex": 7461633982827545605,
      "prePerformCfg": ""
    },
    {
      "id": 2401812,
      "activeMode": "PLAY_MODE_HOST",
      "beginCondComb": "LOGIC_A_AND_ETCOR",
      "beginCond": [
        {
          "type": "QUEST_COND_PACK_HAVE_ANY_ITEM",
          "_param": [
            "120439,120440,120441",
            "0"
          ]
        },
        {
          "type": "QUEST_COND_STATE_EQUAL",
          "_param": [
            "2401809",
            "2"
          ]
        },
        {
          "type": "QUEST_COND_STATE_EQUAL",
          "_param": [
            "2401810",
            "2"
          ]
        },
        {
          "type": "QUEST_COND_STATE_EQUAL",
          "_param": [
            "2401814",
            "2"
          ]
        }
      ],
      "priority": 5,
      "initDialog": 240181201,
      "npcId": [
        5085
      ],
      "performCfg": "QuestDialogue/IQ/Fontaine_24018/Q2401812",
      "heroTalk": "TALK_HERO_MAIN",
      "questId": 24018,
      "assetIndex": 14605729922825369369,
      "prePerformCfg": ""
    },
    {
      "id": 2401813,
      "activeMode": "PLAY_MODE_HOST",
      "beginCondComb": "LOGIC_AND",
      "beginCond": [
        {
          "type": "QUEST_COND_ITEM_GIVING_ACTIVED",
          "_param": [
            "2401802"
          ]
        },
        {
          "type": "QUEST_COND_PACK_HAVE_ANY_ITEM",
          "_param": [
            "120439,120440,120441",
            "1"
          ]
        },
        {
          "type": "QUEST_COND_STATE_EQUAL",
          "_param": [
            "2401814",
            "2"
          ]
        }
      ],
      "priority": 5,
      "initDialog": 240181301,
      "npcId": [
        5085
      ],
      "performCfg": "QuestDialogue/IQ/Fontaine_24018/Q2401813",
      "heroTalk": "TALK_HERO_MAIN",
      "questId": 24018,
      "assetIndex": 3451410760334969886,
      "prePerformCfg": ""
    },
    {
      "id": 2401814,
      "beginWay": "TALK_BEGIN_MANUAL",
      "activeMode": "PLAY_MODE_HOST",
      "beginCondComb": "LOGIC_A_AND_ETCOR",
      "beginCond": [
        {
          "type": "QUEST_COND_ITEM_GIVING_ACTIVED",
          "_param": [
            "2401803"
          ]
        },
        {
          "type": "QUEST_COND_STATE_EQUAL",
          "_param": [
            "2401818",
            "2"
          ]
        },
        {
          "type": "QUEST_COND_STATE_EQUAL",
          "_param": [
            "2401819",
            "2"
          ]
        }
      ],
      "priority": 5,
      "nextTalks": [
        2401815,
        2401816,
        2401817,
        2401818
      ],
      "initDialog": 240181401,
      "npcId": [
        5085
      ],
      "performCfg": "QuestDialogue/IQ/Fontaine_24018/Q2401814",
      "heroTalk": "TALK_HERO_MAIN",
      "questId": 24018,
      "assetIndex": 8604128124281799043,
      "prePerformCfg": ""
    },
    {
      "id": 2401815,
      "activeMode": "PLAY_MODE_HOST",
      "beginCondComb": "LOGIC_A_AND_ETCOR",
      "beginCond": [
        {
          "type": "QUEST_COND_ITEM_NUM_LESS_THAN",
          "_param": [
            "120442",
            "1"
          ]
        },
        {
          "type": "QUEST_COND_STATE_EQUAL",
          "_param": [
            "2401819",
            "2"
          ]
        },
        {
          "type": "QUEST_COND_STATE_EQUAL",
          "_param": [
            "2401818",
            "2"
          ]
        }
      ],
      "priority": 5,
      "initDialog": 240181501,
      "npcId": [
        5085
      ],
      "performCfg": "QuestDialogue/IQ/Fontaine_24018/Q2401815",
      "heroTalk": "TALK_HERO_MAIN",
      "questId": 24018,
      "assetIndex": 12201332587004512349,
      "prePerformCfg": ""
    },
    {
      "id": 2401816,
      "activeMode": "PLAY_MODE_HOST",
      "beginCondComb": "LOGIC_AND",
      "beginCond": [
        {
          "type": "QUEST_COND_ITEM_GIVING_ACTIVED",
          "_param": [
            "2401803"
          ]
        },
        {
          "type": "QUEST_COND_STATE_EQUAL",
          "_param": [
            "2401819",
            "2"
          ]
        },
        {
          "type": "QUEST_COND_PACK_HAVE_ITEM",
          "_param": [
            "120442",
            "1"
          ]
        }
      ],
      "priority": 5,
      "initDialog": 240181601,
      "npcId": [
        5085
      ],
      "performCfg": "QuestDialogue/IQ/Fontaine_24018/Q2401816",
      "heroTalk": "TALK_HERO_MAIN",
      "questId": 24018,
      "assetIndex": 12224121503849183611,
      "prePerformCfg": ""
    },
    {
      "id": 2401817,
      "activeMode": "PLAY_MODE_HOST",
      "beginCondComb": "LOGIC_OR",
      "beginCond": [
        {
          "type": "QUEST_COND_STATE_EQUAL",
          "_param": [
            "2401805",
            "2"
          ]
        },
        {
          "type": "QUEST_COND_STATE_EQUAL",
          "_param": [
            "2401809",
            "2"
          ]
        },
        {
          "type": "QUEST_COND_STATE_EQUAL",
          "_param": [
            "2401810",
            "2"
          ]
        },
        {
          "type": "QUEST_COND_STATE_EQUAL",
          "_param": [
            "2401814",
            "2"
          ]
        },
        {
          "type": "QUEST_COND_STATE_EQUAL",
          "_param": [
            "2401818",
            "2"
          ]
        },
        {
          "type": "QUEST_COND_STATE_EQUAL",
          "_param": [
            "2401819",
            "2"
          ]
        }
      ],
      "priority": 5,
      "initDialog": 240181701,
      "npcId": [
        5085
      ],
      "performCfg": "QuestDialogue/IQ/Fontaine_24018/Q2401817",
      "heroTalk": "TALK_HERO_MAIN",
      "questId": 24018,
      "assetIndex": 1446132254685479647,
      "prePerformCfg": ""
    },
    {
      "id": 2401818,
      "activeMode": "PLAY_MODE_HOST",
      "beginCondComb": "LOGIC_OR",
      "beginCond": [
        {
          "type": "QUEST_COND_STATE_EQUAL",
          "_param": [
            "2401805",
            "2"
          ]
        },
        {
          "type": "QUEST_COND_STATE_EQUAL",
          "_param": [
            "2401809",
            "2"
          ]
        },
        {
          "type": "QUEST_COND_STATE_EQUAL",
          "_param": [
            "2401810",
            "2"
          ]
        },
        {
          "type": "QUEST_COND_STATE_EQUAL",
          "_param": [
            "2401814",
            "2"
          ]
        },
        {
          "type": "QUEST_COND_STATE_EQUAL",
          "_param": [
            "2401818",
            "2"
          ]
        },
        {
          "type": "QUEST_COND_STATE_EQUAL",
          "_param": [
            "2401819",
            "2"
          ]
        }
      ],
      "priority": 5,
      "initDialog": 240181801,
      "npcId": [
        5085
      ],
      "performCfg": "QuestDialogue/IQ/Fontaine_24018/Q2401818",
      "heroTalk": "TALK_HERO_MAIN",
      "questId": 24018,
      "assetIndex": 18060203552155032233,
      "prePerformCfg": ""
    },
    {
      "id": 2401819,
      "beginWay": "TALK_BEGIN_MANUAL",
      "activeMode": "PLAY_MODE_HOST",
      "beginCondComb": "LOGIC_OR",
      "beginCond": [
        {
          "type": "QUEST_COND_STATE_EQUAL",
          "_param": [
            "2401806",
            "2"
          ]
        },
        {
          "type": "QUEST_COND_STATE_EQUAL",
          "_param": [
            "2401807",
            "2"
          ]
        },
        {
          "type": "QUEST_COND_STATE_EQUAL",
          "_param": [
            "2401808",
            "2"
          ]
        }
      ],
      "priority": 5,
      "nextTalks": [
        2401820,
        2401821,
        2401822
      ],
      "initDialog": 240181901,
      "npcId": [
        5085
      ],
      "performCfg": "QuestDialogue/IQ/Fontaine_24018/Q2401819",
      "heroTalk": "TALK_HERO_MAIN",
      "questId": 24018,
      "assetIndex": 11775295098341035257,
      "prePerformCfg": ""
    },
    {
      "id": 2401820,
      "activeMode": "PLAY_MODE_HOST",
      "beginCond": [
        {
          "type": "QUEST_COND_STATE_EQUAL",
          "_param": [
            "2401806",
            "2"
          ]
        }
      ],
      "priority": 5,
      "initDialog": 240182001,
      "npcId": [
        5085
      ],
      "performCfg": "QuestDialogue/IQ/Fontaine_24018/Q2401820",
      "heroTalk": "TALK_HERO_MAIN",
      "questId": 24018,
      "assetIndex": 18034181859334795686,
      "prePerformCfg": "",
      "PLPFOOINAAJ": [
        "[3_340200041:3432.682,458.983,3642.933,0.000,311.746,0.000]",
        "[3_340200042:3431.540,458.983,3643.952,0.000,128.261,0.000]",
        "[3_340200086:3438.276,458.962,3659.497,0.000,316.660,0.000]"
      ]
    },
    {
      "id": 2401821,
      "activeMode": "PLAY_MODE_HOST",
      "beginCond": [
        {
          "type": "QUEST_COND_STATE_EQUAL",
          "_param": [
            "2401807",
            "2"
          ]
        }
      ],
      "priority": 5,
      "initDialog": 240182101,
      "npcId": [
        5085
      ],
      "performCfg": "QuestDialogue/IQ/Fontaine_24018/Q2401821",
      "heroTalk": "TALK_HERO_MAIN",
      "questId": 24018,
      "assetIndex": 12736794027737823043,
      "prePerformCfg": "",
      "PLPFOOINAAJ": [
        "[3_340200041:3432.682,458.983,3642.933,0.000,311.746,0.000]",
        "[3_340200042:3431.540,458.983,3643.952,0.000,128.261,0.000]",
        "[3_340200086:3438.276,458.962,3659.497,0.000,316.660,0.000]"
      ]
    },
    {
      "id": 2401822,
      "activeMode": "PLAY_MODE_HOST",
      "beginCond": [
        {
          "type": "QUEST_COND_STATE_EQUAL",
          "_param": [
            "2401808",
            "2"
          ]
        }
      ],
      "priority": 5,
      "initDialog": 240182201,
      "npcId": [
        5085
      ],
      "performCfg": "QuestDialogue/IQ/Fontaine_24018/Q2401822",
      "heroTalk": "TALK_HERO_MAIN",
      "questId": 24018,
      "assetIndex": 796617871523964673,
      "prePerformCfg": "",
      "PLPFOOINAAJ": [
        "[3_340200041:3432.682,458.983,3642.933,0.000,311.746,0.000]",
        "[3_340200042:3431.540,458.983,3643.952,0.000,128.261,0.000]",
        "[3_340200086:3438.276,458.962,3659.497,0.000,316.660,0.000]"
      ]
    },
    {
      "id": 2401823,
      "beginWay": "TALK_BEGIN_MANUAL",
      "activeMode": "PLAY_MODE_HOST",
      "beginCond": [
        {
          "type": "QUEST_COND_STATE_EQUAL",
          "_param": [
            "2401809",
            "2"
          ]
        }
      ],
      "priority": 5,
      "nextTalks": [
        2401824,
        2401825,
        2401826,
        2401827
      ],
      "initDialog": 240182301,
      "npcId": [
        5027
      ],
      "performCfg": "QuestDialogue/IQ/Fontaine_24018/Q2401823",
      "heroTalk": "TALK_HERO_MAIN",
      "questId": 24018,
      "assetIndex": 13399566277347752656,
      "prePerformCfg": ""
    },
    {
      "id": 2401824,
      "activeMode": "PLAY_MODE_HOST",
      "beginCondComb": "LOGIC_OR",
      "beginCond": [
        {
          "type": "QUEST_COND_STATE_EQUAL",
          "_param": [
            "2401809",
            "2"
          ]
        },
        {
          "type": "QUEST_COND_STATE_EQUAL",
          "_param": [
            "2401810",
            "2"
          ]
        }
      ],
      "priority": 5,
      "initDialog": 240182401,
      "npcId": [
        5027
      ],
      "performCfg": "QuestDialogue/IQ/Fontaine_24018/Q2401824",
      "heroTalk": "TALK_HERO_MAIN",
      "questId": 24018,
      "assetIndex": 1973738973572253016,
      "prePerformCfg": ""
    },
    {
      "id": 2401825,
      "activeMode": "PLAY_MODE_HOST",
      "beginCondComb": "LOGIC_OR",
      "beginCond": [
        {
          "type": "QUEST_COND_STATE_EQUAL",
          "_param": [
            "2401809",
            "2"
          ]
        },
        {
          "type": "QUEST_COND_STATE_EQUAL",
          "_param": [
            "2401810",
            "2"
          ]
        }
      ],
      "priority": 5,
      "initDialog": 240182501,
      "npcId": [
        5027
      ],
      "performCfg": "QuestDialogue/IQ/Fontaine_24018/Q2401825",
      "heroTalk": "TALK_HERO_MAIN",
      "questId": 24018,
      "assetIndex": 6102029665317489549,
      "prePerformCfg": ""
    },
    {
      "id": 2401826,
      "activeMode": "PLAY_MODE_HOST",
      "beginCondComb": "LOGIC_OR",
      "beginCond": [
        {
          "type": "QUEST_COND_STATE_EQUAL",
          "_param": [
            "2401809",
            "2"
          ]
        },
        {
          "type": "QUEST_COND_STATE_EQUAL",
          "_param": [
            "2401810",
            "2"
          ]
        }
      ],
      "priority": 5,
      "initDialog": 240182601,
      "npcId": [
        5027
      ],
      "performCfg": "QuestDialogue/IQ/Fontaine_24018/Q2401826",
      "heroTalk": "TALK_HERO_MAIN",
      "questId": 24018,
      "assetIndex": 6866835990132743709,
      "prePerformCfg": ""
    },
    {
      "id": 2401827,
      "activeMode": "PLAY_MODE_HOST",
      "beginCondComb": "LOGIC_OR",
      "beginCond": [
        {
          "type": "QUEST_COND_STATE_EQUAL",
          "_param": [
            "2401809",
            "2"
          ]
        },
        {
          "type": "QUEST_COND_STATE_EQUAL",
          "_param": [
            "2401810",
            "2"
          ]
        }
      ],
      "priority": 5,
      "initDialog": 240182701,
      "npcId": [
        5027
      ],
      "performCfg": "QuestDialogue/IQ/Fontaine_24018/Q2401827",
      "heroTalk": "TALK_HERO_MAIN",
      "questId": 24018,
      "assetIndex": 1872111042230321740,
      "prePerformCfg": ""
    },
    {
      "id": 2401828,
      "beginWay": "TALK_BEGIN_MANUAL",
      "activeMode": "PLAY_MODE_HOST",
      "beginCond": [
        {
          "type": "QUEST_COND_STATE_EQUAL",
          "_param": [
            "2401810",
            "2"
          ]
        }
      ],
      "priority": 5,
      "nextTalks": [
        2401824,
        2401825,
        2401826,
        2401827
      ],
      "initDialog": 240182801,
      "npcId": [
        5027
      ],
      "performCfg": "QuestDialogue/IQ/Fontaine_24018/Q2401828",
      "heroTalk": "TALK_HERO_MAIN",
      "questId": 24018,
      "assetIndex": 11421900836315998798,
      "prePerformCfg": ""
    },
    {
      "id": 2401829,
      "beginWay": "TALK_BEGIN_MANUAL",
      "activeMode": "PLAY_MODE_HOST",
      "beginCondComb": "LOGIC_OR",
      "beginCond": [
        {
          "type": "QUEST_COND_STATE_EQUAL",
          "_param": [
            "2401815",
            "2"
          ]
        },
        {
          "type": "QUEST_COND_STATE_EQUAL",
          "_param": [
            "2401816",
            "2"
          ]
        },
        {
          "type": "QUEST_COND_STATE_EQUAL",
          "_param": [
            "2401817",
            "2"
          ]
        }
      ],
      "priority": 5,
      "nextTalks": [
        2401830,
        2401831,
        2401832
      ],
      "initDialog": 240182901,
      "npcId": [
        5085
      ],
      "performCfg": "QuestDialogue/IQ/Fontaine_24018/Q2401829",
      "heroTalk": "TALK_HERO_MAIN",
      "questId": 24018,
      "assetIndex": 17593451449615000207,
      "prePerformCfg": ""
    },
    {
      "id": 2401830,
      "activeMode": "PLAY_MODE_HOST",
      "beginCond": [
        {
          "type": "QUEST_COND_STATE_EQUAL",
          "_param": [
            "2401815",
            "2"
          ]
        }
      ],
      "priority": 5,
      "initDialog": 240183001,
      "npcId": [
        5085
      ],
      "performCfg": "QuestDialogue/IQ/Fontaine_24018/Q2401830",
      "heroTalk": "TALK_HERO_MAIN",
      "questId": 24018,
      "assetIndex": 10117461489793619855,
      "prePerformCfg": ""
    },
    {
      "id": 2401831,
      "activeMode": "PLAY_MODE_HOST",
      "beginCond": [
        {
          "type": "QUEST_COND_STATE_EQUAL",
          "_param": [
            "2401816",
            "2"
          ]
        }
      ],
      "priority": 5,
      "initDialog": 240183101,
      "npcId": [
        5085
      ],
      "performCfg": "QuestDialogue/IQ/Fontaine_24018/Q2401831",
      "heroTalk": "TALK_HERO_MAIN",
      "questId": 24018,
      "assetIndex": 7253022444627474327,
      "prePerformCfg": "",
      "PLPFOOINAAJ": [
        "[3_340200041:3432.682,458.983,3642.933,0.000,311.746,0.000]",
        "[3_340200042:3431.540,458.983,3643.952,0.000,128.261,0.000]",
        "[3_340200086:3438.276,458.962,3659.497,0.000,316.660,0.000]"
      ]
    },
    {
      "id": 2401832,
      "activeMode": "PLAY_MODE_HOST",
      "beginCond": [
        {
          "type": "QUEST_COND_STATE_EQUAL",
          "_param": [
            "2401817",
            "2"
          ]
        }
      ],
      "priority": 5,
      "initDialog": 240183201,
      "npcId": [
        5085
      ],
      "performCfg": "QuestDialogue/IQ/Fontaine_24018/Q2401832",
      "heroTalk": "TALK_HERO_MAIN",
      "questId": 24018,
      "assetIndex": 10626120309733007768,
      "prePerformCfg": "",
      "PLPFOOINAAJ": [
        "[3_340200041:3432.682,458.983,3642.933,0.000,311.746,0.000]",
        "[3_340200042:3431.540,458.983,3643.952,0.000,128.261,0.000]",
        "[3_340200086:3438.276,458.962,3659.497,0.000,316.660,0.000]"
      ]
    },
    {
      "id": 2401833,
      "beginWay": "TALK_BEGIN_MANUAL",
      "activeMode": "PLAY_MODE_HOST",
      "beginCond": [
        {
          "type": "QUEST_COND_STATE_EQUAL",
          "_param": [
            "2401818",
            "2"
          ]
        }
      ],
      "priority": 5,
      "initDialog": 240183301,
      "npcId": [
        13417
      ],
      "performCfg": "QuestDialogue/IQ/Fontaine_24018/Q2401833",
      "heroTalk": "TALK_HERO_MAIN",
      "questId": 24018,
      "assetIndex": 31637909641497768,
      "prePerformCfg": ""
    },
    {
      "id": 2401834,
      "beginWay": "TALK_BEGIN_MANUAL",
      "activeMode": "PLAY_MODE_HOST",
      "beginCond": [
        {
          "type": "QUEST_COND_STATE_EQUAL",
          "_param": [
            "2401820",
            "2"
          ]
        }
      ],
      "priority": 5,
      "initDialog": 240183401,
      "npcId": [
        5085
      ],
      "performCfg": "QuestDialogue/IQ/Fontaine_24018/Q2401834",
      "heroTalk": "TALK_HERO_MAIN",
      "questId": 24018,
      "assetIndex": 17345006555795871649,
      "prePerformCfg": ""
    },
    {
      "id": 2401835,
      "beginWay": "TALK_BEGIN_MANUAL",
      "activeMode": "PLAY_MODE_HOST",
      "beginCond": [
        {
          "type": "QUEST_COND_STATE_EQUAL",
          "_param": [
            "2401814",
            "2"
          ]
        }
      ],
      "priority": 5,
      "initDialog": 240183501,
      "npcId": [
        5027
      ],
      "performCfg": "QuestDialogue/IQ/Fontaine_24018/Q2401835",
      "heroTalk": "TALK_HERO_MAIN",
      "questId": 24018,
      "assetIndex": 15456592238597844686,
      "prePerformCfg": ""
    },
    {
      "id": 2401836,
      "beginWay": "TALK_BEGIN_MANUAL",
      "activeMode": "PLAY_MODE_HOST",
      "beginCond": [
        {
          "type": "QUEST_COND_STATE_EQUAL",
          "_param": [
            "2401819",
            "2"
          ]
        }
      ],
      "priority": 5,
      "initDialog": 240183601,
      "npcId": [
        13417
      ],
      "performCfg": "QuestDialogue/IQ/Fontaine_24018/Q2401836",
      "heroTalk": "TALK_HERO_MAIN",
      "questId": 24018,
      "assetIndex": 6426451812838094503,
      "prePerformCfg": ""
    },
    {
      "id": 2401837,
      "beginWay": "TALK_BEGIN_MANUAL",
      "activeMode": "PLAY_MODE_HOST",
      "beginCondComb": "LOGIC_OR",
      "beginCond": [
        {
          "type": "QUEST_COND_STATE_EQUAL",
          "_param": [
            "2401814",
            "2"
          ]
        },
        {
          "type": "QUEST_COND_STATE_EQUAL",
          "_param": [
            "2401818",
            "2"
          ]
        },
        {
          "type": "QUEST_COND_STATE_EQUAL",
          "_param": [
            "2401819",
            "2"
          ]
        }
      ],
      "priority": 5,
      "initDialog": 240180701,
      "npcId": [
        13409
      ],
      "performCfg": "QuestDialogue/IQ/Fontaine_24018/Q2401807",
      "heroTalk": "TALK_HERO_MAIN",
      "questId": 24018,
      "assetIndex": 4276893793956416115,
      "prePerformCfg": ""
    },
    {
      "id": 2401838,
      "beginWay": "TALK_BEGIN_MANUAL",
      "activeMode": "PLAY_MODE_HOST",
      "beginCondComb": "LOGIC_AND",
      "beginCond": [
        {
          "type": "QUEST_COND_QUEST_GLOBAL_VAR_EQUAL",
          "_param": [
            "2401401",
            "1"
          ]
        },
        {
          "type": "QUEST_COND_QUEST_GLOBAL_VAR_EQUAL",
          "_param": [
            "2401801",
            "1"
          ]
        },
        {
          "type": "QUEST_COND_STATE_EQUAL",
          "_param": [
            "2401801",
            "2"
          ]
        }
      ],
      "priority": 5,
      "nextTalks": [
        2401804,
        2401805,
        2401806
      ],
      "initDialog": 240183801,
      "npcId": [
        5085
      ],
      "performCfg": "QuestDialogue/IQ/Fontaine_24018/Q2401838",
      "heroTalk": "TALK_HERO_MAIN",
      "questId": 24018,
      "assetIndex": 13460533011541959446,
      "prePerformCfg": ""
    }
  ],
  "preloadLuaList": [
    10320803141404286668
  ],
  "forcePreloadLuaList": [
    7749660468078982831
  ],
  "freeStyleDic": {
    "5085": [
      1240
    ]
  }
}