{
  "id": 3002,
  "resId": 1015,
  "series": 1301,
  "titleTextMapHash": 1127903943,
  "descTextMapHash": 4029662134,
  "luaPath": "Actor/Quest/AQ3002",
  "suggestTrackMainQuestList": [
    3003
  ],
  "rewardIdList": [
    103002
  ],
  "chapterId": 1301,
  "subQuests": [
    {
      "subId": 300201,
      "mainId": 3002,
      "order": 1,
      "descTextMapHash": 4211580156,
      "finishCond": [
        {
          "KPGKDHAFHFE": "QUEST_CONTENT_COMPLETE_TALK",
          "param": [
            300201,
            0
          ]
        }
      ],
      "guide": {
        "KPGKDHAFHFE": "QUEST_GUIDE_LOCATION",
        "autoGuide": "QUEST_GUIDE_AUTO_ENABLE",
        "param": [
          "Q300201_guide"
        ],
        "guideScene": 3,
        "guideStyle": "QUEST_GUIDE_STYLE_POINT",
        "guideLayer": "QUEST_GUIDE_LAYER_SCENE"
      },
      "guideHint": {
        "param1": ""
      },
      "isRewind": true,
      "versionBegin": "",
      "versionEnd": ""
    },
    {
      "subId": 300202,
      "mainId": 3002,
      "order": 2,
      "descTextMapHash": 241983796,
      "finishCond": [
        {
          "KPGKDHAFHFE": "QUEST_CONTENT_FINISH_PLOT",
          "param": [
            300202,
            0
          ]
        }
      ],
      "guide": {
        "KPGKDHAFHFE": "QUEST_GUIDE_LOCATION",
        "autoGuide": "QUEST_GUIDE_AUTO_ENABLE",
        "param": [
          "Q300202_N1050"
        ],
        "guideScene": 3,
        "guideStyle": "QUEST_GUIDE_STYLE_POINT",
        "guideLayer": "QUEST_GUIDE_LAYER_SCENE"
      },
      "guideHint": {
        "param1": ""
      },
      "isRewind": true,
      "versionBegin": "",
      "versionEnd": ""
    },
    {
      "subId": 300203,
      "mainId": 3002,
      "order": 3,
      "descTextMapHash": 1099171412,
      "finishCond": [
        {
          "KPGKDHAFHFE": "QUEST_CONTENT_COMPLETE_TALK",
          "param": [
            300202,
            0
          ]
        }
      ],
      "guide": {
        "KPGKDHAFHFE": "QUEST_GUIDE_LOCATION",
        "autoGuide": "QUEST_GUIDE_AUTO_ENABLE",
        "param": [
          "Q300202_N1050"
        ],
        "guideScene": 3,
        "guideStyle": "QUEST_GUIDE_STYLE_POINT",
        "guideLayer": "QUEST_GUIDE_LAYER_SCENE"
      },
      "guideHint": {
        "param1": ""
      },
      "isRewind": true,
      "finishExec": [
        {
          "KPGKDHAFHFE": "QUEST_EXEC_REGISTER_DYNAMIC_GROUP",
          "param": [
            "3",
            "133302218"
          ]
        }
      ],
      "versionBegin": "",
      "versionEnd": ""
    },
    {
      "subId": 300204,
      "mainId": 3002,
      "order": 4,
      "descTextMapHash": 232344044,
      "finishCond": [
        {
          "KPGKDHAFHFE": "QUEST_CONTENT_COMPLETE_TALK",
          "param": [
            300203,
            0
          ]
        }
      ],
      "guide": {
        "KPGKDHAFHFE": "QUEST_GUIDE_LOCATION",
        "param": [
          "Q300204_N1050"
        ],
        "guideScene": 3,
        "guideStyle": "QUEST_GUIDE_STYLE_POINT",
        "guideLayer": "QUEST_GUIDE_LAYER_SCENE"
      },
      "guideHint": {
        "param1": ""
      },
      "versionBegin": "",
      "versionEnd": ""
    },
    {
      "subId": 300205,
      "mainId": 3002,
      "order": 5,
      "descTextMapHash": 422560084,
      "finishCond": [
        {
          "KPGKDHAFHFE": "QUEST_CONTENT_OBTAIN_ITEM",
          "param": [
            101951,
            0
          ],
          "count": 4
        }
      ],
      "guide": {
        "KPGKDHAFHFE": "QUEST_GUIDE_LOCATION",
        "autoGuide": "QUEST_GUIDE_AUTO_ENABLE",
        "param": [
          "Q300205_guide",
          "30"
        ],
        "guideScene": 3,
        "guideLayer": "QUEST_GUIDE_LAYER_SCENE"
      },
      "guideHint": {
        "param1": ""
      },
      "isRewind": true,
      "versionBegin": "",
      "versionEnd": ""
    },
    {
      "subId": 300206,
      "mainId": 3002,
      "order": 6,
      "descTextMapHash": 152990708,
      "finishCond": [
        {
          "KPGKDHAFHFE": "QUEST_CONTENT_COMPLETE_TALK",
          "param": [
            300204,
            0
          ]
        }
      ],
      "guide": {
        "KPGKDHAFHFE": "QUEST_GUIDE_LOCATION",
        "autoGuide": "QUEST_GUIDE_AUTO_ENABLE",
        "param": [
          "Q300206_N1050"
        ],
        "guideScene": 3,
        "guideStyle": "QUEST_GUIDE_STYLE_POINT",
        "guideLayer": "QUEST_GUIDE_LAYER_SCENE"
      },
      "guideHint": {
        "param1": ""
      },
      "isRewind": true,
      "finishExec": [
        {
          "KPGKDHAFHFE": "QUEST_EXEC_DEL_ALL_SPECIFIC_PACK_ITEM",
          "param": [
            "101951"
          ]
        },
        {
          "KPGKDHAFHFE": "QUEST_EXEC_UNREGISTER_DYNAMIC_GROUP",
          "param": [
            "133302170"
          ]
        }
      ],
      "versionBegin": "",
      "versionEnd": ""
    },
    {
      "subId": 300207,
      "mainId": 3002,
      "order": 7,
      "descTextMapHash": 225008492,
      "finishCond": [
        {
          "KPGKDHAFHFE": "QUEST_CONTENT_COMPLETE_TALK",
          "param": [
            300206,
            0
          ]
        },
        {
          "KPGKDHAFHFE": "QUEST_CONTENT_COMPLETE_TALK",
          "param": [
            300207,
            0
          ]
        }
      ],
      "guide": {
        "KPGKDHAFHFE": "QUEST_GUIDE_NPC",
        "autoGuide": "QUEST_GUIDE_AUTO_ENABLE",
        "param": [
          "4301"
        ],
        "guideScene": 3,
        "guideStyle": "QUEST_GUIDE_STYLE_TARGET",
        "guideLayer": "QUEST_GUIDE_LAYER_SCENE"
      },
      "guideHint": {
        "param1": ""
      },
      "isRewind": true,
      "versionBegin": "",
      "versionEnd": ""
    },
    {
      "subId": 300208,
      "mainId": 3002,
      "order": 8,
      "descTextMapHash": 2107799316,
      "finishCond": [
        {
          "KPGKDHAFHFE": "QUEST_CONTENT_COMPLETE_TALK",
          "param": [
            300208,
            0
          ]
        },
        {
          "KPGKDHAFHFE": "QUEST_CONTENT_COMPLETE_TALK",
          "param": [
            300209,
            0
          ]
        }
      ],
      "guide": {
        "KPGKDHAFHFE": "QUEST_GUIDE_LOCATION",
        "autoGuide": "QUEST_GUIDE_AUTO_ENABLE",
        "param": [
          "Q300208_guide"
        ],
        "guideScene": 3,
        "guideStyle": "QUEST_GUIDE_STYLE_POINT",
        "guideLayer": "QUEST_GUIDE_LAYER_SCENE"
      },
      "guideHint": {
        "param1": ""
      },
      "isRewind": true,
      "finishExec": [
        {
          "KPGKDHAFHFE": "QUEST_EXEC_DEL_ALL_SPECIFIC_PACK_ITEM",
          "param": [
            "101951"
          ]
        }
      ],
      "versionBegin": "",
      "versionEnd": ""
    },
    {
      "subId": 300209,
      "mainId": 3002,
      "order": 10,
      "isMpBlock": true,
      "descTextMapHash": 3755337004,
      "finishCond": [
        {
          "KPGKDHAFHFE": "QUEST_CONTENT_LUA_NOTIFY",
          "param": [
            0,
            0
          ],
          "count": 1
        }
      ],
      "failCond": [
        {
          "KPGKDHAFHFE": "QUEST_CONTENT_LEAVE_SCENE_RANGE",
          "param": [
            3,
            100
          ]
        }
      ],
      "guide": {
        "KPGKDHAFHFE": "QUEST_GUIDE_LOCATION",
        "autoGuide": "QUEST_GUIDE_AUTO_ENABLE",
        "param": [
          "Q300209_guide",
          "30"
        ],
        "guideScene": 3,
        "guideLayer": "QUEST_GUIDE_LAYER_SCENE"
      },
      "guideHint": {
        "param1": ""
      },
      "isRewind": true,
      "finishExec": [
        {
          "KPGKDHAFHFE": "QUEST_EXEC_SET_QUEST_GLOBAL_VAR",
          "param": [
            "300209",
            "1"
          ]
        }
      ],
      "failExec": [
        {
          "KPGKDHAFHFE": "QUEST_EXEC_ROLLBACK_QUEST",
          "param": [
            "300208"
          ]
        },
        {
          "KPGKDHAFHFE": "QUEST_EXEC_REGISTER_DYNAMIC_GROUP",
          "param": [
            "3",
            "133302218"
          ]
        }
      ],
      "versionBegin": "",
      "versionEnd": ""
    },
    {
      "subId": 300210,
      "mainId": 3002,
      "order": 11,
      "descTextMapHash": 1620799588,
      "finishCond": [
        {
          "KPGKDHAFHFE": "QUEST_CONTENT_COMPLETE_TALK",
          "param": [
            300210,
            0
          ]
        }
      ],
      "guide": {
        "KPGKDHAFHFE": "QUEST_GUIDE_NPC",
        "autoGuide": "QUEST_GUIDE_AUTO_ENABLE",
        "param": [
          "1050"
        ],
        "guideScene": 3,
        "guideStyle": "QUEST_GUIDE_STYLE_POINT",
        "guideLayer": "QUEST_GUIDE_LAYER_SCENE"
      },
      "guideHint": {
        "param1": ""
      },
      "isRewind": true,
      "finishExec": [
        {
          "KPGKDHAFHFE": "QUEST_EXEC_UNREGISTER_DYNAMIC_GROUP",
          "param": [
            "133302218",
            "1"
          ]
        }
      ],
      "versionBegin": "",
      "versionEnd": ""
    },
    {
      "subId": 300211,
      "mainId": 3002,
      "order": 12,
      "descTextMapHash": 3471624380,
      "finishCond": [
        {
          "KPGKDHAFHFE": "QUEST_CONTENT_COMPLETE_TALK",
          "param": [
            300211,
            0
          ]
        }
      ],
      "guide": {
        "KPGKDHAFHFE": "QUEST_GUIDE_LOCATION",
        "autoGuide": "QUEST_GUIDE_AUTO_ENABLE",
        "param": [
          "Q300211_guide"
        ],
        "guideScene": 3,
        "guideStyle": "QUEST_GUIDE_STYLE_POINT",
        "guideLayer": "QUEST_GUIDE_LAYER_SCENE"
      },
      "guideHint": {
        "param1": ""
      },
      "isRewind": true,
      "finishExec": [
        {
          "KPGKDHAFHFE": "QUEST_EXEC_UNREGISTER_DYNAMIC_GROUP",
          "param": [
            "133302071"
          ]
        }
      ],
      "versionBegin": "",
      "versionEnd": ""
    },
    {
      "subId": 300212,
      "mainId": 3002,
      "order": 13,
      "descTextMapHash": 2057431948,
      "finishCond": [
        {
          "KPGKDHAFHFE": "QUEST_CONTENT_FINISH_PLOT",
          "param": [
            300212,
            0
          ]
        }
      ],
      "guide": {
        "KPGKDHAFHFE": "QUEST_GUIDE_LOCATION",
        "autoGuide": "QUEST_GUIDE_AUTO_ENABLE",
        "param": [
          "Q300212_guide"
        ],
        "guideScene": 3,
        "guideStyle": "QUEST_GUIDE_STYLE_POINT",
        "guideLayer": "QUEST_GUIDE_LAYER_SCENE"
      },
      "guideHint": {
        "param1": ""
      },
      "finishParent": true,
      "isRewind": true,
      "versionBegin": "",
      "versionEnd": ""
    },
    {
      "subId": 300213,
      "mainId": 3002,
      "order": 9,
      "descTextMapHash": 1060806396,
      "showType": "QUEST_HIDDEN",
      "finishCond": [
        {
          "KPGKDHAFHFE": "QUEST_CONTENT_FINISH_PLOT",
          "param": [
            300213,
            0
          ]
        }
      ],
      "guide": {
        "guideScene": 3
      },
      "showGuide": "QUEST_GUIDE_ITEM_DISABLE",
      "guideHint": {
        "param1": ""
      },
      "failParentShow": "QUEST_HIDDEN",
      "finishExec": [
        {
          "KPGKDHAFHFE": "QUEST_EXEC_REGISTER_DYNAMIC_GROUP",
          "param": [
            "3",
            "133302218"
          ]
        },
        {
          "KPGKDHAFHFE": "QUEST_EXEC_REFRESH_GROUP_SUITE",
          "param": [
            "3",
            "133302218,1"
          ]
        }
      ],
      "versionBegin": "",
      "versionEnd": ""
    }
  ],
  "talks": [
    {
      "id": 300201,
      "beginWay": "TALK_BEGIN_MANUAL",
      "beginCond": [
        {
          "type": "QUEST_COND_STATE_EQUAL",
          "_param": [
            "300201",
            "2"
          ]
        }
      ],
      "priority": 5,
      "initDialog": 30020101,
      "npcId": [
        1050
      ],
      "performCfg": "QuestDialogue/AQ/Sumeru1_3002/Q300201",
      "heroTalk": "TALK_HERO_MAIN",
      "questId": 3002,
      "assetIndex": 2763104900311229559,
      "prePerformCfg": "",
      "enableCameraDisplacement": true,
      "lockGameTime": true
    },
    {
      "id": 300202,
      "beginWay": "TALK_BEGIN_MANUAL",
      "beginCond": [
        {
          "type": "QUEST_COND_STATE_EQUAL",
          "_param": [
            "300203",
            "2"
          ]
        }
      ],
      "priority": 5,
      "initDialog": 30020201,
      "npcId": [
        1050
      ],
      "performCfg": "QuestDialogue/AQ/Sumeru1_3002/Q300202",
      "heroTalk": "TALK_HERO_MAIN",
      "questId": 3002,
      "assetIndex": 2038890006723012686,
      "prePerformCfg": "",
      "enableCameraDisplacement": true,
      "lockGameTime": true
    },
    {
      "id": 300203,
      "beginWay": "TALK_BEGIN_MANUAL",
      "beginCond": [
        {
          "type": "QUEST_COND_STATE_EQUAL",
          "_param": [
            "300204",
            "2"
          ]
        }
      ],
      "priority": 5,
      "initDialog": 30020301,
      "npcId": [
        1050
      ],
      "performCfg": "QuestDialogue/AQ/Sumeru1_3002/Q300203",
      "heroTalk": "TALK_HERO_MAIN",
      "questId": 3002,
      "assetIndex": 12965600466596063206,
      "prePerformCfg": "",
      "enableCameraDisplacement": true,
      "lockGameTime": true
    },
    {
      "id": 300204,
      "beginWay": "TALK_BEGIN_MANUAL",
      "beginCond": [
        {
          "type": "QUEST_COND_STATE_EQUAL",
          "_param": [
            "300206",
            "2"
          ]
        }
      ],
      "priority": 5,
      "initDialog": 30020401,
      "npcId": [
        1050
      ],
      "performCfg": "QuestDialogue/AQ/Sumeru1_3002/Q300204",
      "heroTalk": "TALK_HERO_MAIN",
      "questId": 3002,
      "assetIndex": 7937563989473941571,
      "prePerformCfg": ""
    },
    {
      "id": 300205,
      "beginWay": "TALK_BEGIN_MANUAL",
      "beginCond": [
        {
          "type": "QUEST_COND_STATE_EQUAL",
          "_param": [
            "300207",
            "2"
          ]
        }
      ],
      "priority": 5,
      "nextTalks": [
        300206,
        300207
      ],
      "initDialog": 30020501,
      "npcId": [
        4301
      ],
      "performCfg": "QuestDialogue/AQ/Sumeru1_3002/Q300205",
      "heroTalk": "TALK_HERO_MAIN",
      "questId": 3002,
      "assetIndex": 10437737622807800545,
      "prePerformCfg": ""
    },
    {
      "id": 300206,
      "beginCondComb": "LOGIC_AND",
      "beginCond": [
        {
          "type": "QUEST_COND_STATE_EQUAL",
          "_param": [
            "300207",
            "2"
          ]
        },
        {
          "type": "QUEST_COND_QUEST_GLOBAL_VAR_EQUAL",
          "_param": [
            "300209",
            "0"
          ]
        }
      ],
      "priority": 5,
      "initDialog": 30020601,
      "npcId": [
        1050
      ],
      "performCfg": "QuestDialogue/AQ/Sumeru1_3002/Q300206",
      "heroTalk": "TALK_HERO_MAIN",
      "questId": 3002,
      "assetIndex": 17896463291803555279,
      "prePerformCfg": ""
    },
    {
      "id": 300207,
      "beginCondComb": "LOGIC_AND",
      "beginCond": [
        {
          "type": "QUEST_COND_STATE_EQUAL",
          "_param": [
            "300207",
            "2"
          ]
        },
        {
          "type": "QUEST_COND_QUEST_GLOBAL_VAR_EQUAL",
          "_param": [
            "300209",
            "1"
          ]
        }
      ],
      "priority": 5,
      "initDialog": 30020701,
      "npcId": [
        1050
      ],
      "performCfg": "QuestDialogue/AQ/Sumeru1_3002/Q300207",
      "heroTalk": "TALK_HERO_MAIN",
      "questId": 3002,
      "assetIndex": 6193554013485009363,
      "prePerformCfg": ""
    },
    {
      "id": 300208,
      "beginWay": "TALK_BEGIN_MANUAL",
      "beginCondComb": "LOGIC_AND",
      "beginCond": [
        {
          "type": "QUEST_COND_STATE_EQUAL",
          "_param": [
            "300208",
            "2"
          ]
        },
        {
          "type": "QUEST_COND_QUEST_GLOBAL_VAR_EQUAL",
          "_param": [
            "300209",
            "0"
          ]
        }
      ],
      "priority": 5,
      "initDialog": 30020801,
      "npcId": [
        1050
      ],
      "performCfg": "QuestDialogue/AQ/Sumeru1_3002/Q300208",
      "heroTalk": "TALK_HERO_MAIN",
      "questId": 3002,
      "assetIndex": 17350020938596142236,
      "prePerformCfg": ""
    },
    {
      "id": 300209,
      "beginWay": "TALK_BEGIN_MANUAL",
      "beginCondComb": "LOGIC_AND",
      "beginCond": [
        {
          "type": "QUEST_COND_STATE_EQUAL",
          "_param": [
            "300208",
            "2"
          ]
        },
        {
          "type": "QUEST_COND_QUEST_GLOBAL_VAR_EQUAL",
          "_param": [
            "300209",
            "1"
          ]
        }
      ],
      "priority": 5,
      "initDialog": 30020901,
      "npcId": [
        1050
      ],
      "performCfg": "QuestDialogue/AQ/Sumeru1_3002/Q300209",
      "heroTalk": "TALK_HERO_MAIN",
      "questId": 3002,
      "assetIndex": 12302875269310449223,
      "prePerformCfg": ""
    },
    {
      "id": 300210,
      "beginWay": "TALK_BEGIN_MANUAL",
      "beginCond": [
        {
          "type": "QUEST_COND_STATE_EQUAL",
          "_param": [
            "300210",
            "2"
          ]
        }
      ],
      "priority": 5,
      "initDialog": 30021001,
      "npcId": [
        1050
      ],
      "performCfg": "QuestDialogue/AQ/Sumeru1_3002/Q300210",
      "heroTalk": "TALK_HERO_MAIN",
      "questId": 3002,
      "assetIndex": 12074156281813169734,
      "prePerformCfg": ""
    },
    {
      "id": 300211,
      "beginWay": "TALK_BEGIN_MANUAL",
      "beginCond": [
        {
          "type": "QUEST_COND_STATE_EQUAL",
          "_param": [
            "300211",
            "2"
          ]
        }
      ],
      "priority": 5,
      "initDialog": 30021101,
      "npcId": [
        4301
      ],
      "performCfg": "QuestDialogue/AQ/Sumeru1_3002/Q300211",
      "heroTalk": "TALK_HERO_MAIN",
      "questId": 3002,
      "assetIndex": 16353093497867735936,
      "prePerformCfg": ""
    },
    {
      "id": 300251,
      "beginWay": "TALK_BEGIN_MANUAL",
      "beginCond": [
        {
          "type": "QUEST_COND_STATE_EQUAL",
          "_param": [
            "300212",
            "2"
          ]
        }
      ],
      "priority": 5,
      "initDialog": 30025101,
      "npcId": [
        1050
      ],
      "performCfg": "QuestDialogue/AQ/Sumeru1_3002/Q300251",
      "heroTalk": "TALK_HERO_MAIN",
      "questId": 3002,
      "assetIndex": 12962086206916977790,
      "prePerformCfg": ""
    },
    {
      "id": 300252,
      "beginWay": "TALK_BEGIN_MANUAL",
      "beginCondComb": "LOGIC_A_AND_ETCOR",
      "beginCond": [
        {
          "type": "QUEST_COND_STATE_EQUAL",
          "_param": [
            "300201",
            "3"
          ]
        },
        {
          "type": "QUEST_COND_QUEST_NOT_RECEIVE",
          "_param": [
            "300212",
            "1"
          ]
        },
        {
          "type": "QUEST_COND_STATE_EQUAL",
          "_param": [
            "300212",
            "1"
          ]
        },
        {
          "type": "QUEST_COND_STATE_EQUAL",
          "_param": [
            "300212",
            "2"
          ]
        }
      ],
      "priority": 5,
      "initDialog": 30025201,
      "npcId": [
        1051
      ],
      "performCfg": "QuestDialogue/AQ/Sumeru1_3002/Q300252",
      "heroTalk": "TALK_HERO_MAIN",
      "questId": 3002,
      "assetIndex": 14287082089043386968,
      "prePerformCfg": "",
      "lowPriority": true
    }
  ],
  "preloadLuaList": [
    16242408544567980698,
    16349593672461429334,
    6418851069640877072
  ],
  "forcePreloadLuaList": [
    814223700513919833
  ],
  "freeStyleDic": {
    "1051": [
      4121
    ]
  }
}