{
  "id": 3010,
  "resId": 1015,
  "series": 1302,
  "titleTextMapHash": 4280963679,
  "descTextMapHash": 1700896990,
  "luaPath": "Actor/Quest/AQ3010",
  "suggestTrackMainQuestList": [
    3011
  ],
  "rewardIdList": [
    103010
  ],
  "chapterId": 1302,
  "subQuests": [
    {
      "subId": 301001,
      "mainId": 3010,
      "order": 2,
      "descTextMapHash": 1876698652,
      "GMKDJFPEFFF": [
        300701
      ],
      "finishCond": [
        {
          "KPGKDHAFHFE": "QUEST_CONTENT_COMPLETE_TALK",
          "param": [
            301001,
            0
          ]
        }
      ],
      "guide": {
        "KPGKDHAFHFE": "QUEST_GUIDE_NPC",
        "autoGuide": "QUEST_GUIDE_AUTO_ENABLE",
        "param": [
          "1056"
        ],
        "guideScene": 3,
        "guideStyle": "QUEST_GUIDE_STYLE_TARGET",
        "guideLayer": "QUEST_GUIDE_LAYER_SCENE"
      },
      "guideHint": {
        "param1": ""
      },
      "isRewind": true,
      "finishExec": [
        {
          "KPGKDHAFHFE": "QUEST_EXEC_SET_GAME_TIME",
          "param": [
            "16"
          ]
        }
      ],
      "versionBegin": "",
      "versionEnd": ""
    },
    {
      "subId": 301002,
      "mainId": 3010,
      "order": 4,
      "descTextMapHash": 399564300,
      "GMKDJFPEFFF": [
        300701
      ],
      "finishCond": [
        {
          "KPGKDHAFHFE": "QUEST_CONTENT_COMPLETE_TALK",
          "param": [
            301002,
            0
          ]
        }
      ],
      "guide": {
        "KPGKDHAFHFE": "QUEST_GUIDE_LOCATION",
        "autoGuide": "QUEST_GUIDE_AUTO_ENABLE",
        "param": [
          "Q3007Day1EscapeDicia"
        ],
        "guideScene": 3,
        "guideStyle": "QUEST_GUIDE_STYLE_POINT",
        "guideLayer": "QUEST_GUIDE_LAYER_SCENE"
      },
      "guideHint": {
        "param1": ""
      },
      "isRewind": true,
      "finishExec": [
        {
          "KPGKDHAFHFE": "QUEST_EXEC_SET_GAME_TIME",
          "param": [
            "20"
          ]
        }
      ],
      "versionBegin": "",
      "versionEnd": ""
    },
    {
      "subId": 301003,
      "mainId": 3010,
      "order": 5,
      "descTextMapHash": 868604780,
      "GMKDJFPEFFF": [
        300701
      ],
      "finishCond": [
        {
          "KPGKDHAFHFE": "QUEST_CONTENT_COMPLETE_TALK",
          "param": [
            301003,
            0
          ]
        }
      ],
      "guide": {
        "KPGKDHAFHFE": "QUEST_GUIDE_NPC",
        "autoGuide": "QUEST_GUIDE_AUTO_ENABLE",
        "param": [
          "1056"
        ],
        "guideScene": 3,
        "guideStyle": "QUEST_GUIDE_STYLE_TARGET",
        "guideLayer": "QUEST_GUIDE_LAYER_SCENE"
      },
      "guideHint": {
        "param1": ""
      },
      "isRewind": true,
      "finishExec": [
        {
          "KPGKDHAFHFE": "QUEST_EXEC_SET_GAME_TIME",
          "param": [
            "12"
          ]
        }
      ],
      "versionBegin": "",
      "versionEnd": ""
    },
    {
      "subId": 301005,
      "mainId": 3010,
      "order": 1,
      "descTextMapHash": 550768884,
      "GMKDJFPEFFF": [
        300701
      ],
      "finishCond": [
        {
          "KPGKDHAFHFE": "QUEST_CONTENT_FINISH_PLOT",
          "param": [
            301005,
            0
          ]
        }
      ],
      "guide": {
        "KPGKDHAFHFE": "QUEST_GUIDE_LOCATION",
        "autoGuide": "QUEST_GUIDE_AUTO_ENABLE",
        "param": [
          "Q3007CityCenterPos"
        ],
        "guideScene": 3,
        "guideStyle": "QUEST_GUIDE_STYLE_POINT",
        "guideLayer": "QUEST_GUIDE_LAYER_SCENE"
      },
      "guideHint": {
        "param1": ""
      },
      "isRewind": true,
      "versionBegin": "",
      "versionEnd": ""
    },
    {
      "subId": 301006,
      "mainId": 3010,
      "order": 30,
      "isMpBlock": true,
      "descTextMapHash": 1500071284,
      "showType": "QUEST_HIDDEN",
      "GMKDJFPEFFF": [
        300701
      ],
      "finishCond": [
        {
          "KPGKDHAFHFE": "QUEST_CONTENT_QUEST_STATE_EQUAL",
          "param": [
            301003,
            3
          ]
        }
      ],
      "failCond": [
        {
          "KPGKDHAFHFE": "QUEST_CONTENT_LEAVE_SCENE_RANGE_AND_ROOM",
          "param": [
            3,
            230
          ]
        }
      ],
      "guide": {},
      "showGuide": "QUEST_GUIDE_ITEM_DISABLE",
      "guideHint": {
        "param1": ""
      },
      "finishParent": true,
      "failParentShow": "QUEST_HIDDEN",
      "failExec": [
        {
          "KPGKDHAFHFE": "QUEST_EXEC_SET_IS_GAME_TIME_LOCKED",
          "param": [
            "0"
          ]
        },
        {
          "KPGKDHAFHFE": "QUEST_EXEC_ROLLBACK_QUEST",
          "param": [
            "301005"
          ]
        }
      ],
      "versionBegin": "",
      "versionEnd": ""
    }
  ],
  "talks": [
    {
      "id": 301001,
      "beginWay": "TALK_BEGIN_MANUAL",
      "beginCond": [
        {
          "type": "QUEST_COND_STATE_EQUAL",
          "_param": [
            "301001",
            "2"
          ]
        }
      ],
      "priority": 5,
      "initDialog": 30100101,
      "npcId": [
        1056
      ],
      "performCfg": "QuestDialogue/AQ/Sumeru1_3010/Q301001",
      "heroTalk": "TALK_HERO_MAIN",
      "questId": 3010,
      "assetIndex": 17774878595156457856,
      "prePerformCfg": ""
    },
    {
      "id": 301002,
      "beginWay": "TALK_BEGIN_MANUAL",
      "beginCond": [
        {
          "type": "QUEST_COND_STATE_EQUAL",
          "_param": [
            "301002",
            "2"
          ]
        }
      ],
      "priority": 5,
      "initDialog": 30100201,
      "npcId": [
        1052
      ],
      "performCfg": "QuestDialogue/AQ/Sumeru1_3010/Q301002",
      "heroTalk": "TALK_HERO_MAIN",
      "questId": 3010,
      "assetIndex": 10738758416755475276,
      "prePerformCfg": ""
    },
    {
      "id": 301003,
      "beginWay": "TALK_BEGIN_MANUAL",
      "beginCond": [
        {
          "type": "QUEST_COND_STATE_EQUAL",
          "_param": [
            "301003",
            "2"
          ]
        }
      ],
      "priority": 5,
      "initDialog": 30100301,
      "npcId": [
        1056
      ],
      "performCfg": "QuestDialogue/AQ/Sumeru1_3010/Q301003",
      "heroTalk": "TALK_HERO_MAIN",
      "questId": 3010,
      "assetIndex": 18431861465436062176,
      "prePerformCfg": ""
    },
    {
      "id": 301005,
      "beginWay": "TALK_BEGIN_MANUAL",
      "beginCond": [
        {
          "type": "QUEST_COND_STATE_EQUAL",
          "_param": [
            "301002",
            "2"
          ]
        }
      ],
      "priority": 5,
      "initDialog": 30080301,
      "npcId": [
        12652
      ],
      "performCfg": "QuestDialogue/AQ/Sumeru1_3008/Q300803",
      "heroTalk": "TALK_HERO_MAIN",
      "questId": 3010,
      "assetIndex": 15568184104342830870,
      "prePerformCfg": "",
      "lowPriority": true
    },
    {
      "id": 301006,
      "beginWay": "TALK_BEGIN_MANUAL",
      "beginCond": [
        {
          "type": "QUEST_COND_STATE_EQUAL",
          "_param": [
            "301002",
            "2"
          ]
        }
      ],
      "priority": 5,
      "initDialog": 30081001,
      "npcId": [
        4018
      ],
      "performCfg": "QuestDialogue/AQ/Sumeru1_3008/Q300810",
      "heroTalk": "TALK_HERO_MAIN",
      "questId": 3010,
      "assetIndex": 16335446031319660745,
      "prePerformCfg": "",
      "lowPriority": true
    },
    {
      "id": 301007,
      "beginWay": "TALK_BEGIN_MANUAL",
      "beginCond": [
        {
          "type": "QUEST_COND_STATE_EQUAL",
          "_param": [
            "301002",
            "2"
          ]
        }
      ],
      "priority": 5,
      "initDialog": 30081101,
      "npcId": [
        12653
      ],
      "performCfg": "QuestDialogue/AQ/Sumeru1_3008/Q300811",
      "heroTalk": "TALK_HERO_MAIN",
      "questId": 3010,
      "assetIndex": 15415053175478043649,
      "prePerformCfg": "",
      "lowPriority": true
    },
    {
      "id": 301008,
      "beginWay": "TALK_BEGIN_MANUAL",
      "beginCondComb": "LOGIC_OR",
      "beginCond": [
        {
          "type": "QUEST_COND_STATE_EQUAL",
          "_param": [
            "301001",
            "2"
          ]
        },
        {
          "type": "QUEST_COND_STATE_EQUAL",
          "_param": [
            "301002",
            "2"
          ]
        },
        {
          "type": "QUEST_COND_STATE_EQUAL",
          "_param": [
            "301003",
            "2"
          ]
        }
      ],
      "priority": 5,
      "initDialog": 30072001,
      "npcId": [
        12657
      ],
      "performCfg": "QuestDialogue/AQ/Sumeru1_3007/Q300720",
      "heroTalk": "TALK_HERO_MAIN",
      "questId": 3010,
      "assetIndex": 6147204816123555909,
      "prePerformCfg": "",
      "lowPriority": true
    },
    {
      "id": 301009,
      "beginWay": "TALK_BEGIN_MANUAL",
      "beginCondComb": "LOGIC_OR",
      "beginCond": [
        {
          "type": "QUEST_COND_STATE_EQUAL",
          "_param": [
            "301001",
            "2"
          ]
        },
        {
          "type": "QUEST_COND_STATE_EQUAL",
          "_param": [
            "301002",
            "2"
          ]
        },
        {
          "type": "QUEST_COND_STATE_EQUAL",
          "_param": [
            "301003",
            "2"
          ]
        }
      ],
      "priority": 5,
      "initDialog": 30072301,
      "npcId": [
        12658
      ],
      "performCfg": "QuestDialogue/AQ/Sumeru1_3007/Q300723",
      "heroTalk": "TALK_HERO_MAIN",
      "questId": 3010,
      "assetIndex": 13707438248062373764,
      "prePerformCfg": "",
      "lowPriority": true
    },
    {
      "id": 301010,
      "beginWay": "TALK_BEGIN_MANUAL",
      "beginCondComb": "LOGIC_OR",
      "beginCond": [
        {
          "type": "QUEST_COND_STATE_EQUAL",
          "_param": [
            "301001",
            "2"
          ]
        },
        {
          "type": "QUEST_COND_STATE_EQUAL",
          "_param": [
            "301002",
            "2"
          ]
        },
        {
          "type": "QUEST_COND_STATE_EQUAL",
          "_param": [
            "301003",
            "2"
          ]
        }
      ],
      "priority": 5,
      "initDialog": 30072601,
      "npcId": [
        12666
      ],
      "performCfg": "QuestDialogue/AQ/Sumeru1_3007/Q300726",
      "heroTalk": "TALK_HERO_MAIN",
      "questId": 3010,
      "assetIndex": 7661153113364125739,
      "prePerformCfg": "",
      "lowPriority": true
    },
    {
      "id": 301011,
      "beginWay": "TALK_BEGIN_MANUAL",
      "beginCond": [
        {
          "type": "QUEST_COND_STATE_EQUAL",
          "_param": [
            "301002",
            "2"
          ]
        }
      ],
      "priority": 5,
      "initDialog": 30092301,
      "npcId": [
        1056
      ],
      "performCfg": "QuestDialogue/AQ/Sumeru1_3009/Q300923",
      "heroTalk": "TALK_HERO_MAIN",
      "questId": 3010,
      "assetIndex": 16590377144307287968,
      "prePerformCfg": "",
      "lowPriority": true
    }
  ],
  "preloadLuaList": [
    15414178574423120210,
    9167422878959026774,
    17927275197798515165,
    11769704823228437648
  ],
  "forcePreloadLuaList": [
    9774466315485913130
  ],
  "freeStyleDic": {
    "12664": [
      4121
    ]
  }
}