{
  "id": 3011,
  "resId": 1015,
  "series": 1302,
  "titleTextMapHash": 732258359,
  "descTextMapHash": 3753464230,
  "luaPath": "Actor/Quest/AQ3011",
  "suggestTrackMainQuestList": [
    3014
  ],
  "rewardIdList": [
    103011
  ],
  "chapterId": 1302,
  "subQuests": [
    {
      "subId": 301101,
      "mainId": 3011,
      "order": 2,
      "descTextMapHash": 683627100,
      "GMKDJFPEFFF": [
        300701
      ],
      "finishCond": [
        {
          "KPGKDHAFHFE": "QUEST_CONTENT_COMPLETE_TALK",
          "param": [
            301111,
            0
          ]
        }
      ],
      "guide": {
        "KPGKDHAFHFE": "QUEST_GUIDE_NPC",
        "autoGuide": "QUEST_GUIDE_AUTO_ENABLE",
        "param": [
          "1056"
        ],
        "guideScene": 3,
        "guideStyle": "QUEST_GUIDE_STYLE_TARGET",
        "guideLayer": "QUEST_GUIDE_LAYER_SCENE"
      },
      "guideHint": {
        "param1": ""
      },
      "isRewind": true,
      "finishExec": [
        {
          "KPGKDHAFHFE": "QUEST_EXEC_SET_GAME_TIME",
          "param": [
            "16"
          ]
        }
      ],
      "versionBegin": "",
      "versionEnd": ""
    },
    {
      "subId": 301102,
      "mainId": 3011,
      "order": 4,
      "descTextMapHash": 1515309164,
      "GMKDJFPEFFF": [
        300701
      ],
      "finishCond": [
        {
          "KPGKDHAFHFE": "QUEST_CONTENT_COMPLETE_TALK",
          "param": [
            301102,
            0
          ]
        }
      ],
      "guide": {
        "KPGKDHAFHFE": "QUEST_GUIDE_LOCATION",
        "autoGuide": "QUEST_GUIDE_AUTO_ENABLE",
        "param": [
          "Q3007Day1EscapeDina"
        ],
        "guideScene": 3,
        "guideStyle": "QUEST_GUIDE_STYLE_POINT",
        "guideLayer": "QUEST_GUIDE_LAYER_SCENE"
      },
      "guideHint": {
        "param1": ""
      },
      "isRewind": true,
      "finishExec": [
        {
          "KPGKDHAFHFE": "QUEST_EXEC_SET_GAME_TIME",
          "param": [
            "18"
          ]
        }
      ],
      "versionBegin": "",
      "versionEnd": ""
    },
    {
      "subId": 301103,
      "mainId": 3011,
      "order": 5,
      "descTextMapHash": 448989076,
      "GMKDJFPEFFF": [
        300701
      ],
      "finishCond": [
        {
          "KPGKDHAFHFE": "QUEST_CONTENT_COMPLETE_TALK",
          "param": [
            301103,
            0
          ]
        }
      ],
      "guide": {
        "KPGKDHAFHFE": "QUEST_GUIDE_LOCATION",
        "param": [
          "Q3011TrainingPos"
        ],
        "guideScene": 3,
        "guideStyle": "QUEST_GUIDE_STYLE_POINT",
        "guideLayer": "QUEST_GUIDE_LAYER_SCENE"
      },
      "guideHint": {
        "param1": ""
      },
      "isRewind": true,
      "finishExec": [
        {
          "KPGKDHAFHFE": "QUEST_EXEC_SET_GAME_TIME",
          "param": [
            "20"
          ]
        }
      ],
      "versionBegin": "",
      "versionEnd": ""
    },
    {
      "subId": 301104,
      "mainId": 3011,
      "order": 6,
      "descTextMapHash": 404066508,
      "GMKDJFPEFFF": [
        300701
      ],
      "finishCond": [
        {
          "KPGKDHAFHFE": "QUEST_CONTENT_COMPLETE_TALK",
          "param": [
            301104,
            0
          ]
        }
      ],
      "guide": {
        "KPGKDHAFHFE": "QUEST_GUIDE_NPC",
        "autoGuide": "QUEST_GUIDE_AUTO_ENABLE",
        "param": [
          "1056"
        ],
        "guideScene": 3,
        "guideStyle": "QUEST_GUIDE_STYLE_TARGET",
        "guideLayer": "QUEST_GUIDE_LAYER_SCENE"
      },
      "guideHint": {
        "param1": ""
      },
      "isRewind": true,
      "finishExec": [
        {
          "KPGKDHAFHFE": "QUEST_EXEC_SET_GAME_TIME",
          "param": [
            "12"
          ]
        }
      ],
      "versionBegin": "",
      "versionEnd": ""
    },
    {
      "subId": 301105,
      "mainId": 3011,
      "order": 30,
      "isMpBlock": true,
      "descTextMapHash": 1873650596,
      "showType": "QUEST_HIDDEN",
      "GMKDJFPEFFF": [
        300701
      ],
      "finishCond": [
        {
          "KPGKDHAFHFE": "QUEST_CONTENT_QUEST_STATE_EQUAL",
          "param": [
            301104,
            3
          ]
        }
      ],
      "failCond": [
        {
          "KPGKDHAFHFE": "QUEST_CONTENT_LEAVE_SCENE_RANGE_AND_ROOM",
          "param": [
            3,
            230
          ]
        }
      ],
      "guide": {},
      "showGuide": "QUEST_GUIDE_ITEM_DISABLE",
      "guideHint": {
        "param1": ""
      },
      "finishParent": true,
      "failParentShow": "QUEST_HIDDEN",
      "failExec": [
        {
          "KPGKDHAFHFE": "QUEST_EXEC_SET_IS_GAME_TIME_LOCKED",
          "param": [
            "0"
          ]
        },
        {
          "KPGKDHAFHFE": "QUEST_EXEC_ROLLBACK_QUEST",
          "param": [
            "301118"
          ]
        }
      ],
      "versionBegin": "",
      "versionEnd": ""
    },
    {
      "subId": 301118,
      "mainId": 3011,
      "order": 1,
      "descTextMapHash": 3952421756,
      "GMKDJFPEFFF": [
        300701
      ],
      "finishCond": [
        {
          "KPGKDHAFHFE": "QUEST_CONTENT_FINISH_PLOT",
          "param": [
            301118,
            0
          ]
        }
      ],
      "guide": {
        "KPGKDHAFHFE": "QUEST_GUIDE_LOCATION",
        "autoGuide": "QUEST_GUIDE_AUTO_ENABLE",
        "param": [
          "Q3007CityCenterPos"
        ],
        "guideScene": 3,
        "guideStyle": "QUEST_GUIDE_STYLE_POINT",
        "guideLayer": "QUEST_GUIDE_LAYER_SCENE"
      },
      "guideHint": {
        "param1": ""
      },
      "isRewind": true,
      "versionBegin": "",
      "versionEnd": ""
    }
  ],
  "talks": [
    {
      "id": 301101,
      "beginWay": "TALK_BEGIN_MANUAL",
      "beginCond": [
        {
          "type": "QUEST_COND_STATE_EQUAL",
          "_param": [
            "301101",
            "2"
          ]
        }
      ],
      "priority": 5,
      "initDialog": 30110101,
      "npcId": [
        1056
      ],
      "performCfg": "QuestDialogue/AQ/Sumeru1_3011/Q301101",
      "heroTalk": "TALK_HERO_MAIN",
      "questId": 3011,
      "assetIndex": 14115992011580662203,
      "prePerformCfg": ""
    },
    {
      "id": 301102,
      "beginWay": "TALK_BEGIN_MANUAL",
      "beginCond": [
        {
          "type": "QUEST_COND_STATE_EQUAL",
          "_param": [
            "301102",
            "2"
          ]
        }
      ],
      "priority": 5,
      "initDialog": 30110201,
      "npcId": [
        1052
      ],
      "performCfg": "QuestDialogue/AQ/Sumeru1_3011/Q301102",
      "heroTalk": "TALK_HERO_MAIN",
      "questId": 3011,
      "assetIndex": 5213623149313027402,
      "prePerformCfg": ""
    },
    {
      "id": 301103,
      "beginWay": "TALK_BEGIN_MANUAL",
      "beginCond": [
        {
          "type": "QUEST_COND_STATE_EQUAL",
          "_param": [
            "301103",
            "2"
          ]
        }
      ],
      "priority": 5,
      "initDialog": 30110301,
      "npcId": [
        1052
      ],
      "performCfg": "QuestDialogue/AQ/Sumeru1_3011/Q301103",
      "heroTalk": "TALK_HERO_MAIN",
      "questId": 3011,
      "assetIndex": 8425639834097193287,
      "prePerformCfg": ""
    },
    {
      "id": 301104,
      "beginWay": "TALK_BEGIN_MANUAL",
      "beginCond": [
        {
          "type": "QUEST_COND_STATE_EQUAL",
          "_param": [
            "301104",
            "2"
          ]
        }
      ],
      "priority": 5,
      "initDialog": 30110401,
      "npcId": [
        1056
      ],
      "performCfg": "QuestDialogue/AQ/Sumeru1_3011/Q301104",
      "heroTalk": "TALK_HERO_MAIN",
      "questId": 3011,
      "assetIndex": 4195432333662515318,
      "prePerformCfg": ""
    },
    {
      "id": 301111,
      "beginCond": [
        {
          "type": "QUEST_COND_STATE_EQUAL",
          "_param": [
            "301101",
            "2"
          ]
        }
      ],
      "priority": 5,
      "initDialog": 30111113,
      "npcId": [
        1056
      ],
      "performCfg": "QuestDialogue/AQ/Sumeru1_3011/Q301111",
      "heroTalk": "TALK_HERO_MAIN",
      "questId": 3011,
      "assetIndex": 16354857390888995400,
      "prePerformCfg": ""
    },
    {
      "id": 301112,
      "beginWay": "TALK_BEGIN_MANUAL",
      "beginCondComb": "LOGIC_OR",
      "beginCond": [
        {
          "type": "QUEST_COND_STATE_EQUAL",
          "_param": [
            "301102",
            "2"
          ]
        },
        {
          "type": "QUEST_COND_STATE_EQUAL",
          "_param": [
            "301103",
            "2"
          ]
        }
      ],
      "priority": 5,
      "initDialog": 30080301,
      "npcId": [
        12652
      ],
      "performCfg": "QuestDialogue/AQ/Sumeru1_3008/Q300803",
      "heroTalk": "TALK_HERO_MAIN",
      "questId": 3011,
      "assetIndex": 5536133279659426650,
      "prePerformCfg": "",
      "lowPriority": true
    },
    {
      "id": 301113,
      "beginWay": "TALK_BEGIN_MANUAL",
      "beginCondComb": "LOGIC_OR",
      "beginCond": [
        {
          "type": "QUEST_COND_STATE_EQUAL",
          "_param": [
            "301102",
            "2"
          ]
        },
        {
          "type": "QUEST_COND_STATE_EQUAL",
          "_param": [
            "301103",
            "2"
          ]
        }
      ],
      "priority": 5,
      "initDialog": 30081001,
      "npcId": [
        4018
      ],
      "performCfg": "QuestDialogue/AQ/Sumeru1_3008/Q300810",
      "heroTalk": "TALK_HERO_MAIN",
      "questId": 3011,
      "assetIndex": 14066695149720610722,
      "prePerformCfg": "",
      "lowPriority": true
    },
    {
      "id": 301114,
      "beginWay": "TALK_BEGIN_MANUAL",
      "beginCondComb": "LOGIC_OR",
      "beginCond": [
        {
          "type": "QUEST_COND_STATE_EQUAL",
          "_param": [
            "301102",
            "2"
          ]
        },
        {
          "type": "QUEST_COND_STATE_EQUAL",
          "_param": [
            "301103",
            "2"
          ]
        }
      ],
      "priority": 5,
      "initDialog": 30081101,
      "npcId": [
        12653
      ],
      "performCfg": "QuestDialogue/AQ/Sumeru1_3008/Q300811",
      "heroTalk": "TALK_HERO_MAIN",
      "questId": 3011,
      "assetIndex": 8869602639204750824,
      "prePerformCfg": "",
      "lowPriority": true
    },
    {
      "id": 301115,
      "beginWay": "TALK_BEGIN_MANUAL",
      "beginCondComb": "LOGIC_OR",
      "beginCond": [
        {
          "type": "QUEST_COND_STATE_EQUAL",
          "_param": [
            "301101",
            "2"
          ]
        },
        {
          "type": "QUEST_COND_STATE_EQUAL",
          "_param": [
            "301102",
            "2"
          ]
        },
        {
          "type": "QUEST_COND_STATE_EQUAL",
          "_param": [
            "301103",
            "2"
          ]
        },
        {
          "type": "QUEST_COND_STATE_EQUAL",
          "_param": [
            "301104",
            "2"
          ]
        }
      ],
      "priority": 5,
      "initDialog": 30072001,
      "npcId": [
        12657
      ],
      "performCfg": "QuestDialogue/AQ/Sumeru1_3007/Q300720",
      "heroTalk": "TALK_HERO_MAIN",
      "questId": 3011,
      "assetIndex": 8148266735769153488,
      "prePerformCfg": "",
      "lowPriority": true
    },
    {
      "id": 301116,
      "beginWay": "TALK_BEGIN_MANUAL",
      "beginCondComb": "LOGIC_OR",
      "beginCond": [
        {
          "type": "QUEST_COND_STATE_EQUAL",
          "_param": [
            "301101",
            "2"
          ]
        },
        {
          "type": "QUEST_COND_STATE_EQUAL",
          "_param": [
            "301102",
            "2"
          ]
        },
        {
          "type": "QUEST_COND_STATE_EQUAL",
          "_param": [
            "301103",
            "2"
          ]
        },
        {
          "type": "QUEST_COND_STATE_EQUAL",
          "_param": [
            "301104",
            "2"
          ]
        }
      ],
      "priority": 5,
      "initDialog": 30072301,
      "npcId": [
        12658
      ],
      "performCfg": "QuestDialogue/AQ/Sumeru1_3007/Q300723",
      "heroTalk": "TALK_HERO_MAIN",
      "questId": 3011,
      "assetIndex": 14715430944756011967,
      "prePerformCfg": "",
      "lowPriority": true
    },
    {
      "id": 301117,
      "beginWay": "TALK_BEGIN_MANUAL",
      "beginCondComb": "LOGIC_OR",
      "beginCond": [
        {
          "type": "QUEST_COND_STATE_EQUAL",
          "_param": [
            "301101",
            "2"
          ]
        },
        {
          "type": "QUEST_COND_STATE_EQUAL",
          "_param": [
            "301102",
            "2"
          ]
        },
        {
          "type": "QUEST_COND_STATE_EQUAL",
          "_param": [
            "301103",
            "2"
          ]
        },
        {
          "type": "QUEST_COND_STATE_EQUAL",
          "_param": [
            "301104",
            "2"
          ]
        }
      ],
      "priority": 5,
      "initDialog": 30072601,
      "npcId": [
        12666
      ],
      "performCfg": "QuestDialogue/AQ/Sumeru1_3007/Q300726",
      "heroTalk": "TALK_HERO_MAIN",
      "questId": 3011,
      "assetIndex": 10053534799440855499,
      "prePerformCfg": "",
      "lowPriority": true
    },
    {
      "id": 301118,
      "beginWay": "TALK_BEGIN_MANUAL",
      "beginCondComb": "LOGIC_OR",
      "beginCond": [
        {
          "type": "QUEST_COND_STATE_EQUAL",
          "_param": [
            "301102",
            "2"
          ]
        },
        {
          "type": "QUEST_COND_STATE_EQUAL",
          "_param": [
            "301103",
            "2"
          ]
        }
      ],
      "priority": 5,
      "initDialog": 30092301,
      "npcId": [
        1056
      ],
      "performCfg": "QuestDialogue/AQ/Sumeru1_3009/Q300923",
      "heroTalk": "TALK_HERO_MAIN",
      "questId": 3011,
      "assetIndex": 4825391052243644877,
      "prePerformCfg": "",
      "lowPriority": true
    }
  ],
  "preloadLuaList": [
    14457059026087496718,
    17338917557737143911,
    4498862377141803261,
    14844130734850296366
  ],
  "forcePreloadLuaList": [
    8941591701148415138
  ],
  "freeStyleDic": {
    "12664": [
      4121
    ]
  }
}