{
  "id": 375,
  "resId": 1002,
  "series": 1002,
  "titleTextMapHash": 1044015961,
  "descTextMapHash": 640297255,
  "luaPath": "Actor/Quest/MQ375",
  "suggestTrackMainQuestList": [
    376
  ],
  "rewardIdList": [
    100375
  ],
  "chapterId": 1002,
  "subQuests": [
    {
      "subId": 37501,
      "mainId": 375,
      "order": 1,
      "descTextMapHash": 3501063943,
      "finishCond": [
        {
          "KPGKDHAFHFE": "QUEST_CONTENT_COMPLETE_TALK",
          "param": [
            37501,
            0
          ]
        }
      ],
      "guide": {
        "KPGKDHAFHFE": "QUEST_GUIDE_NPC",
        "param": [
          "1001"
        ],
        "guideScene": 1008,
        "guideStyle": "QUEST_GUIDE_STYLE_TARGET",
        "guideLayer": "QUEST_GUIDE_LAYER_SCENE"
      },
      "guideHint": {
        "param1": ""
      },
      "isRewind": true,
      "finishExec": [
        {
          "KPGKDHAFHFE": "QUEST_EXEC_UNLOCK_POINT",
          "param": [
            "1008",
            "1"
          ]
        }
      ],
      "versionBegin": "",
      "versionEnd": ""
    },
    {
      "subId": 37502,
      "mainId": 375,
      "order": 2,
      "descTextMapHash": 914354047,
      "finishCond": [
        {
          "KPGKDHAFHFE": "QUEST_CONTENT_ENTER_ROOM",
          "param": [
            1005,
            0
          ]
        }
      ],
      "guide": {
        "KPGKDHAFHFE": "QUEST_GUIDE_LOCATION",
        "param": [
          "QuestMarkSteal"
        ],
        "guideScene": 1008,
        "guideStyle": "QUEST_GUIDE_STYLE_POINT",
        "guideLayer": "QUEST_GUIDE_LAYER_SCENE"
      },
      "guideHint": {
        "param1": ""
      },
      "isRewind": true,
      "versionBegin": "",
      "versionEnd": ""
    },
    {
      "subId": 37503,
      "mainId": 375,
      "order": 3,
      "isMpBlock": true,
      "descTextMapHash": 648719679,
      "banType": "BAN_GROUP_TRANSPORT_ONLY",
      "finishCond": [
        {
          "KPGKDHAFHFE": "QUEST_CONTENT_TRIGGER_FIRE",
          "param": [
            1044,
            0
          ]
        }
      ],
      "failCond": [
        {
          "KPGKDHAFHFE": "QUEST_CONTENT_NOT_FINISH_PLOT",
          "param": [
            37503,
            0
          ]
        }
      ],
      "guide": {
        "KPGKDHAFHFE": "QUEST_GUIDE_LOCATION",
        "param": [
          "Harp"
        ],
        "guideScene": 1005,
        "guideStyle": "QUEST_GUIDE_STYLE_TARGET",
        "guideLayer": "QUEST_GUIDE_LAYER_UI"
      },
      "guideHint": {
        "param1": ""
      },
      "isRewind": true,
      "versionBegin": "",
      "versionEnd": ""
    },
    {
      "subId": 37504,
      "mainId": 375,
      "order": 4,
      "descTextMapHash": 1556817527,
      "showType": "QUEST_HIDDEN",
      "finishCond": [
        {
          "KPGKDHAFHFE": "QUEST_CONTENT_FINISH_PLOT",
          "param": [
            37504,
            0
          ]
        }
      ],
      "guide": {
        "KPGKDHAFHFE": "QUEST_GUIDE_LOCATION",
        "param": [
          "QuestChurchMark"
        ],
        "guideScene": 3
      },
      "guideHint": {
        "param1": ""
      },
      "isRewind": true,
      "finishExec": [
        {
          "KPGKDHAFHFE": "QUEST_EXEC_ROLLBACK_QUEST",
          "param": [
            "37502"
          ]
        }
      ],
      "versionBegin": "",
      "versionEnd": ""
    },
    {
      "subId": 37505,
      "mainId": 375,
      "order": 5,
      "isMpBlock": true,
      "descTextMapHash": 2981149631,
      "showType": "QUEST_HIDDEN",
      "finishCond": [
        {
          "KPGKDHAFHFE": "QUEST_CONTENT_FINISH_PLOT",
          "param": [
            37505,
            0
          ]
        }
      ],
      "guide": {
        "KPGKDHAFHFE": "QUEST_GUIDE_LOCATION",
        "param": [
          "QuestChurchMark"
        ],
        "guideScene": 3
      },
      "guideHint": {
        "param1": ""
      },
      "isRewind": true,
      "finishExec": [
        {
          "KPGKDHAFHFE": "QUEST_EXEC_LOCK_POINT",
          "param": [
            "1008",
            "1"
          ]
        }
      ],
      "versionBegin": "",
      "versionEnd": ""
    },
    {
      "subId": 37506,
      "mainId": 375,
      "order": 6,
      "isMpBlock": true,
      "descTextMapHash": 2974836799,
      "showType": "QUEST_HIDDEN",
      "finishCond": [
        {
          "KPGKDHAFHFE": "QUEST_CONTENT_ENTER_MY_WORLD",
          "param": [
            3,
            0
          ]
        }
      ],
      "guide": {
        "KPGKDHAFHFE": "QUEST_GUIDE_LOCATION",
        "param": [
          "QuestChurchMark"
        ],
        "guideScene": 3
      },
      "guideHint": {
        "param1": ""
      },
      "isRewind": true,
      "versionBegin": "",
      "versionEnd": ""
    },
    {
      "subId": 37507,
      "mainId": 375,
      "order": 7,
      "isMpBlock": true,
      "descTextMapHash": 4156193663,
      "showType": "QUEST_HIDDEN",
      "finishCond": [
        {
          "KPGKDHAFHFE": "QUEST_CONTENT_FINISH_PLOT",
          "param": [
            37506,
            0
          ]
        }
      ],
      "guide": {
        "KPGKDHAFHFE": "QUEST_GUIDE_LOCATION",
        "param": [
          "QuestChurchMark"
        ],
        "guideScene": 3
      },
      "guideHint": {
        "param1": ""
      },
      "finishParent": true,
      "isRewind": true,
      "versionBegin": "",
      "versionEnd": ""
    }
  ],
  "talks": [
    {
      "id": 37311,
      "beginWay": "TALK_BEGIN_MANUAL",
      "beginCondComb": "LOGIC_OR",
      "beginCond": [
        {
          "type": "QUEST_COND_STATE_EQUAL",
          "_param": [
            "37501",
            "2"
          ]
        },
        {
          "type": "QUEST_COND_STATE_EQUAL",
          "_param": [
            "37502",
            "2"
          ]
        }
      ],
      "priority": 1,
      "initDialog": 3730901,
      "npcId": [
        1161
      ],
      "performCfg": "",
      "questId": 375,
      "assetIndex": 4447757547166431700,
      "prePerformCfg": ""
    },
    {
      "id": 37406,
      "beginWay": "TALK_BEGIN_MANUAL",
      "beginCondComb": "LOGIC_AND",
      "beginCond": [
        {
          "type": "QUEST_COND_STATE_EQUAL",
          "_param": [
            "37501",
            "3"
          ]
        },
        {
          "type": "QUEST_COND_STATE_NOT_EQUAL",
          "_param": [
            "37502",
            "3"
          ]
        }
      ],
      "priority": 1,
      "initDialog": 3740306,
      "npcId": [
        1001
      ],
      "performCfg": "",
      "heroTalk": "TALK_HERO_MAIN",
      "questId": 375,
      "assetIndex": 7045934827326836064,
      "prePerformCfg": ""
    },
    {
      "id": 37501,
      "beginWay": "TALK_BEGIN_MANUAL",
      "beginCondComb": "LOGIC_AND",
      "beginCond": [
        {
          "type": "QUEST_COND_STATE_EQUAL",
          "_param": [
            "37406",
            "3"
          ]
        },
        {
          "type": "QUEST_COND_STATE_EQUAL",
          "_param": [
            "37501",
            "2"
          ]
        }
      ],
      "priority": 1,
      "initDialog": 3750101,
      "npcId": [
        1001
      ],
      "performCfg": "QuestDialogue/AQ/Mengde2_375/Q37501",
      "heroTalk": "TALK_HERO_MAIN",
      "questId": 375,
      "assetIndex": 15393077494595996576,
      "prePerformCfg": ""
    },
    {
      "id": 37504,
      "beginWay": "TALK_BEGIN_AUTO",
      "beginCond": [
        {
          "type": "QUEST_COND_STATE_EQUAL",
          "_param": [
            "42101",
            "2"
          ]
        }
      ],
      "priority": 1,
      "initDialog": 3750202,
      "npcId": [
        1164
      ],
      "performCfg": "",
      "questId": 375,
      "assetIndex": 4785147783446239939,
      "prePerformCfg": "",
      "freeStyleList": [
        41
      ]
    }
  ],
  "preloadLuaList": [
    3088369788188086520,
    13950747409426062236,
    11122373047366593859
  ],
  "forcePreloadLuaList": [
    7083671648706514976,
    11108662340521195773
  ]
}