{
  "id": 398,
  "resId": 1003,
  "series": 1003,
  "titleTextMapHash": 2024054705,
  "descTextMapHash": 502268359,
  "luaPath": "Actor/Quest/MQ398",
  "suggestTrackMainQuestList": [
    396
  ],
  "rewardIdList": [
    100398
  ],
  "chapterId": 1003,
  "subQuests": [
    {
      "subId": 39801,
      "mainId": 398,
      "order": 5,
      "isMpBlock": true,
      "descTextMapHash": 1306737215,
      "finishCond": [
        {
          "KPGKDHAFHFE": "QUEST_CONTENT_COMPLETE_TALK",
          "param": [
            39801,
            0
          ]
        }
      ],
      "guide": {
        "KPGKDHAFHFE": "QUEST_GUIDE_NPC",
        "param": [
          "1002"
        ],
        "guideScene": 3,
        "guideStyle": "QUEST_GUIDE_STYLE_TARGET",
        "guideLayer": "QUEST_GUIDE_LAYER_SCENE"
      },
      "guideHint": {
        "param1": ""
      },
      "isRewind": true,
      "versionBegin": "",
      "versionEnd": ""
    },
    {
      "subId": 39802,
      "mainId": 398,
      "order": 6,
      "isMpBlock": true,
      "descTextMapHash": 3623462327,
      "finishCond": [
        {
          "KPGKDHAFHFE": "QUEST_CONTENT_COMPLETE_TALK",
          "param": [
            39804,
            0
          ]
        }
      ],
      "guide": {
        "KPGKDHAFHFE": "QUEST_GUIDE_NPC",
        "param": [
          "140901"
        ],
        "guideScene": 3,
        "guideStyle": "QUEST_GUIDE_STYLE_TARGET",
        "guideLayer": "QUEST_GUIDE_LAYER_SCENE"
      },
      "guideHint": {
        "param1": ""
      },
      "isRewind": true,
      "finishExec": [
        {
          "KPGKDHAFHFE": "QUEST_EXEC_ADD_QUEST_PROGRESS",
          "param": [
            "398051",
            "1"
          ]
        }
      ],
      "versionBegin": "",
      "versionEnd": ""
    },
    {
      "subId": 39803,
      "mainId": 398,
      "order": 7,
      "isMpBlock": true,
      "descTextMapHash": 2418392567,
      "finishCond": [
        {
          "KPGKDHAFHFE": "QUEST_CONTENT_COMPLETE_TALK",
          "param": [
            39803,
            0
          ]
        }
      ],
      "guide": {
        "KPGKDHAFHFE": "QUEST_GUIDE_NPC",
        "param": [
          "146101"
        ],
        "guideScene": 3,
        "guideStyle": "QUEST_GUIDE_STYLE_TARGET",
        "guideLayer": "QUEST_GUIDE_LAYER_SCENE"
      },
      "guideHint": {
        "param1": ""
      },
      "isRewind": true,
      "finishExec": [
        {
          "KPGKDHAFHFE": "QUEST_EXEC_ADD_QUEST_PROGRESS",
          "param": [
            "398051",
            "1"
          ]
        }
      ],
      "versionBegin": "",
      "versionEnd": ""
    },
    {
      "subId": 39804,
      "mainId": 398,
      "order": 8,
      "isMpBlock": true,
      "descTextMapHash": 130177639,
      "finishCond": [
        {
          "KPGKDHAFHFE": "QUEST_CONTENT_COMPLETE_TALK",
          "param": [
            39802,
            0
          ]
        }
      ],
      "guide": {
        "KPGKDHAFHFE": "QUEST_GUIDE_NPC",
        "param": [
          "142901"
        ],
        "guideScene": 3,
        "guideStyle": "QUEST_GUIDE_STYLE_TARGET",
        "guideLayer": "QUEST_GUIDE_LAYER_SCENE"
      },
      "guideHint": {
        "param1": ""
      },
      "isRewind": true,
      "finishExec": [
        {
          "KPGKDHAFHFE": "QUEST_EXEC_ADD_QUEST_PROGRESS",
          "param": [
            "398051",
            "1"
          ]
        }
      ],
      "versionBegin": "",
      "versionEnd": ""
    },
    {
      "subId": 39805,
      "mainId": 398,
      "order": 9,
      "descTextMapHash": 1646978055,
      "showType": "QUEST_HIDDEN",
      "finishCond": [
        {
          "KPGKDHAFHFE": "QUEST_CONTENT_ADD_QUEST_PROGRESS",
          "param": [
            398051,
            0
          ],
          "count": 3
        }
      ],
      "guide": {},
      "guideHint": {
        "param1": ""
      },
      "finishExec": [
        {
          "KPGKDHAFHFE": "QUEST_EXEC_ADD_QUEST_PROGRESS",
          "param": [
            "398061",
            "1"
          ]
        }
      ],
      "versionBegin": "",
      "versionEnd": ""
    },
    {
      "subId": 39806,
      "mainId": 398,
      "order": 10,
      "descTextMapHash": 1037675503,
      "showType": "QUEST_HIDDEN",
      "finishCond": [
        {
          "KPGKDHAFHFE": "QUEST_CONTENT_ADD_QUEST_PROGRESS",
          "param": [
            398061,
            0
          ],
          "count": 1
        }
      ],
      "guide": {},
      "guideHint": {
        "param1": ""
      },
      "isRewind": true,
      "versionBegin": "",
      "versionEnd": ""
    },
    {
      "subId": 39807,
      "mainId": 398,
      "order": 11,
      "isMpBlock": true,
      "descTextMapHash": 3763857247,
      "finishCond": [
        {
          "KPGKDHAFHFE": "QUEST_CONTENT_COMPLETE_TALK",
          "param": [
            39807,
            0
          ]
        },
        {
          "KPGKDHAFHFE": "QUEST_CONTENT_COMPLETE_TALK",
          "param": [
            39806,
            0
          ]
        }
      ],
      "guide": {
        "KPGKDHAFHFE": "QUEST_GUIDE_NPC",
        "param": [
          "1419"
        ],
        "guideScene": 3,
        "guideStyle": "QUEST_GUIDE_STYLE_TARGET",
        "guideLayer": "QUEST_GUIDE_LAYER_SCENE"
      },
      "guideHint": {
        "param1": ""
      },
      "isRewind": true,
      "finishExec": [
        {
          "KPGKDHAFHFE": "QUEST_EXEC_REFRESH_GROUP_SUITE",
          "param": [
            "3",
            "133003910,1"
          ]
        },
        {
          "KPGKDHAFHFE": "QUEST_EXEC_ADD_QUEST_PROGRESS",
          "param": [
            "398151",
            "1"
          ]
        }
      ],
      "versionBegin": "",
      "versionEnd": ""
    },
    {
      "subId": 39808,
      "mainId": 398,
      "order": 13,
      "descTextMapHash": 3754284999,
      "finishCond": [
        {
          "KPGKDHAFHFE": "QUEST_CONTENT_FINISH_PLOT",
          "param": [
            39808,
            0
          ]
        }
      ],
      "guide": {
        "KPGKDHAFHFE": "QUEST_GUIDE_LOCATION",
        "param": [
          "Q10100Target1",
          "20"
        ],
        "guideScene": 3,
        "guideStyle": "QUEST_GUIDE_STYLE_TARGET",
        "guideLayer": "QUEST_GUIDE_LAYER_SCENE"
      },
      "guideHint": {
        "param1": ""
      },
      "isRewind": true,
      "versionBegin": "",
      "versionEnd": ""
    },
    {
      "subId": 39809,
      "mainId": 398,
      "order": 16,
      "descTextMapHash": 2298192135,
      "finishCond": [
        {
          "KPGKDHAFHFE": "QUEST_CONTENT_COMPLETE_TALK",
          "param": [
            39809,
            0
          ]
        }
      ],
      "guide": {
        "KPGKDHAFHFE": "QUEST_GUIDE_NPC",
        "param": [
          "1002"
        ],
        "guideScene": 3,
        "guideStyle": "QUEST_GUIDE_STYLE_TARGET",
        "guideLayer": "QUEST_GUIDE_LAYER_SCENE"
      },
      "guideHint": {
        "param1": ""
      },
      "finishParent": true,
      "failParent": true,
      "versionBegin": "",
      "versionEnd": ""
    },
    {
      "subId": 39810,
      "mainId": 398,
      "order": 1,
      "descTextMapHash": 1293032679,
      "showType": "QUEST_HIDDEN",
      "finishCond": [
        {
          "KPGKDHAFHFE": "QUEST_CONTENT_LUA_NOTIFY",
          "param": [
            0,
            0
          ],
          "count": 1
        }
      ],
      "failCond": [
        {
          "KPGKDHAFHFE": "QUEST_CONTENT_ADD_QUEST_PROGRESS",
          "param": [
            398151,
            0
          ],
          "count": 1
        }
      ],
      "guide": {},
      "guideHint": {
        "param1": ""
      },
      "isRewind": true,
      "versionBegin": "",
      "versionEnd": ""
    },
    {
      "subId": 39811,
      "mainId": 398,
      "order": 4,
      "descTextMapHash": 2563165719,
      "finishCond": [
        {
          "KPGKDHAFHFE": "QUEST_CONTENT_COMPLETE_TALK",
          "param": [
            39811,
            0
          ]
        }
      ],
      "failCond": [
        {
          "KPGKDHAFHFE": "QUEST_CONTENT_ADD_QUEST_PROGRESS",
          "param": [
            398151,
            0
          ],
          "count": 1
        }
      ],
      "guide": {
        "KPGKDHAFHFE": "QUEST_GUIDE_NPC",
        "param": [
          "144301"
        ],
        "guideScene": 3,
        "guideStyle": "QUEST_GUIDE_STYLE_TARGET",
        "guideLayer": "QUEST_GUIDE_LAYER_SCENE"
      },
      "guideHint": {
        "param1": ""
      },
      "isRewind": true,
      "versionBegin": "",
      "versionEnd": ""
    },
    {
      "subId": 39812,
      "mainId": 398,
      "order": 2,
      "subIdSet": 2,
      "descTextMapHash": 2540037839,
      "finishCond": [
        {
          "KPGKDHAFHFE": "QUEST_CONTENT_LUA_NOTIFY",
          "param": [
            0,
            0
          ],
          "count": 13
        }
      ],
      "failCond": [
        {
          "KPGKDHAFHFE": "QUEST_CONTENT_ADD_QUEST_PROGRESS",
          "param": [
            398151,
            0
          ],
          "count": 1
        }
      ],
      "guide": {
        "KPGKDHAFHFE": "QUEST_GUIDE_LOCATION",
        "param": [
          "Q39812Target",
          "40"
        ],
        "guideScene": 3,
        "guideStyle": "QUEST_GUIDE_STYLE_TARGET",
        "guideLayer": "QUEST_GUIDE_LAYER_SCENE"
      },
      "guideHint": {
        "param1": ""
      },
      "isRewind": true,
      "finishExec": [
        {
          "KPGKDHAFHFE": "QUEST_EXEC_ADD_QUEST_PROGRESS",
          "param": [
            "398141",
            "1"
          ]
        }
      ],
      "versionBegin": "",
      "versionEnd": ""
    },
    {
      "subId": 39813,
      "mainId": 398,
      "order": 15,
      "descTextMapHash": 4034921759,
      "showType": "QUEST_HIDDEN",
      "finishCond": [
        {
          "KPGKDHAFHFE": "QUEST_CONTENT_FINISH_PLOT",
          "param": [
            39813,
            0
          ]
        }
      ],
      "guide": {},
      "guideHint": {
        "param1": ""
      },
      "finishExec": [
        {
          "KPGKDHAFHFE": "QUEST_EXEC_REFRESH_GROUP_SUITE",
          "param": [
            "3",
            "133004917,1"
          ]
        }
      ],
      "versionBegin": "",
      "versionEnd": ""
    },
    {
      "subId": 39814,
      "mainId": 398,
      "order": 3,
      "descTextMapHash": 2315571679,
      "showType": "QUEST_HIDDEN",
      "finishCond": [
        {
          "KPGKDHAFHFE": "QUEST_CONTENT_ADD_QUEST_PROGRESS",
          "param": [
            398141,
            0
          ],
          "count": 1
        }
      ],
      "failCond": [
        {
          "KPGKDHAFHFE": "QUEST_CONTENT_ADD_QUEST_PROGRESS",
          "param": [
            398151,
            0
          ],
          "count": 1
        }
      ],
      "guide": {
        "KPGKDHAFHFE": "QUEST_GUIDE_NPC",
        "guideScene": 3,
        "guideStyle": "QUEST_GUIDE_STYLE_TARGET",
        "guideLayer": "QUEST_GUIDE_LAYER_SCENE"
      },
      "guideHint": {
        "param1": ""
      },
      "isRewind": true,
      "versionBegin": "",
      "versionEnd": ""
    },
    {
      "subId": 39815,
      "mainId": 398,
      "order": 12,
      "descTextMapHash": 610448191,
      "showType": "QUEST_HIDDEN",
      "finishCond": [
        {
          "KPGKDHAFHFE": "QUEST_CONTENT_FINISH_PLOT",
          "param": [
            39815,
            0
          ]
        }
      ],
      "guide": {},
      "guideHint": {
        "param1": ""
      },
      "isRewind": true,
      "finishExec": [
        {
          "KPGKDHAFHFE": "QUEST_EXEC_REFRESH_GROUP_SUITE",
          "param": [
            "3",
            "133003910,1"
          ]
        },
        {
          "KPGKDHAFHFE": "QUEST_EXEC_ADD_QUEST_PROGRESS",
          "param": [
            "398151",
            "1"
          ]
        }
      ],
      "versionBegin": "",
      "versionEnd": ""
    },
    {
      "subId": 39816,
      "mainId": 398,
      "order": 14,
      "descTextMapHash": 3985481119,
      "showType": "QUEST_HIDDEN",
      "finishCond": [
        {
          "KPGKDHAFHFE": "QUEST_CONTENT_FINISH_PLOT",
          "param": [
            39816,
            0
          ]
        }
      ],
      "guide": {},
      "guideHint": {
        "param1": ""
      },
      "finishExec": [
        {
          "KPGKDHAFHFE": "QUEST_EXEC_REFRESH_GROUP_SUITE",
          "param": [
            "3",
            "133004917,2"
          ]
        }
      ],
      "versionBegin": "",
      "versionEnd": ""
    }
  ],
  "talks": [
    {
      "id": 39801,
      "beginWay": "TALK_BEGIN_AUTO",
      "beginCond": [
        {
          "type": "QUEST_COND_STATE_EQUAL",
          "_param": [
            "39801",
            "2"
          ]
        }
      ],
      "priority": 5,
      "initDialog": 3980101,
      "npcId": [
        1002
      ],
      "performCfg": "QuestDialogue/AQ/Mengde3_398/Q39801",
      "heroTalk": "TALK_HERO_MAIN",
      "questId": 398,
      "assetIndex": 12726938532648976097,
      "prePerformCfg": ""
    },
    {
      "id": 39802,
      "beginWay": "TALK_BEGIN_MANUAL",
      "beginCondComb": "LOGIC_OR",
      "beginCond": [
        {
          "type": "QUEST_COND_STATE_EQUAL",
          "_param": [
            "39802",
            "2"
          ]
        },
        {
          "type": "QUEST_COND_STATE_EQUAL",
          "_param": [
            "39803",
            "2"
          ]
        },
        {
          "type": "QUEST_COND_STATE_EQUAL",
          "_param": [
            "39804",
            "2"
          ]
        }
      ],
      "priority": 5,
      "initDialog": 3980201,
      "npcId": [
        142901
      ],
      "performCfg": "QuestDialogue/AQ/Mengde3_398/Q39802",
      "heroTalk": "TALK_HERO_MAIN",
      "questId": 398,
      "assetIndex": 12883994485157262445,
      "prePerformCfg": ""
    },
    {
      "id": 39803,
      "beginWay": "TALK_BEGIN_MANUAL",
      "beginCondComb": "LOGIC_OR",
      "beginCond": [
        {
          "type": "QUEST_COND_STATE_EQUAL",
          "_param": [
            "39802",
            "2"
          ]
        },
        {
          "type": "QUEST_COND_STATE_EQUAL",
          "_param": [
            "39803",
            "2"
          ]
        },
        {
          "type": "QUEST_COND_STATE_EQUAL",
          "_param": [
            "39804",
            "2"
          ]
        }
      ],
      "priority": 5,
      "initDialog": 3980301,
      "npcId": [
        146101
      ],
      "performCfg": "QuestDialogue/AQ/Mengde3_398/Q39803",
      "heroTalk": "TALK_HERO_MAIN",
      "questId": 398,
      "assetIndex": 2883633074925102513,
      "prePerformCfg": ""
    },
    {
      "id": 39804,
      "beginWay": "TALK_BEGIN_MANUAL",
      "beginCondComb": "LOGIC_OR",
      "beginCond": [
        {
          "type": "QUEST_COND_STATE_EQUAL",
          "_param": [
            "39802",
            "2"
          ]
        },
        {
          "type": "QUEST_COND_STATE_EQUAL",
          "_param": [
            "39803",
            "2"
          ]
        },
        {
          "type": "QUEST_COND_STATE_EQUAL",
          "_param": [
            "39804",
            "2"
          ]
        }
      ],
      "priority": 5,
      "initDialog": 3980401,
      "npcId": [
        140901
      ],
      "performCfg": "QuestDialogue/AQ/Mengde3_398/Q39804",
      "heroTalk": "TALK_HERO_MAIN",
      "questId": 398,
      "assetIndex": 108808735660113982,
      "prePerformCfg": ""
    },
    {
      "id": 39807,
      "beginWay": "TALK_BEGIN_AUTO",
      "beginCond": [
        {
          "type": "QUEST_COND_STATE_EQUAL",
          "_param": [
            "39807",
            "2"
          ]
        }
      ],
      "priority": 5,
      "initDialog": 3980701,
      "npcId": [
        1419,
        1004
      ],
      "performCfg": "QuestDialogue/AQ/Mengde3_398/Q39807",
      "heroTalk": "TALK_HERO_MAIN",
      "questId": 398,
      "assetIndex": 5601013290650156883,
      "prePerformCfg": ""
    },
    {
      "id": 39809,
      "beginWay": "TALK_BEGIN_MANUAL",
      "beginCond": [
        {
          "type": "QUEST_COND_STATE_EQUAL",
          "_param": [
            "39809",
            "2"
          ]
        }
      ],
      "priority": 5,
      "initDialog": 3980901,
      "npcId": [
        1002
      ],
      "performCfg": "QuestDialogue/AQ/Mengde3_398/Q39809",
      "heroTalk": "TALK_HERO_MAIN",
      "questId": 398,
      "assetIndex": 15127878341421107124,
      "prePerformCfg": ""
    },
    {
      "id": 39810,
      "beginWay": "TALK_BEGIN_MANUAL",
      "beginCondComb": "LOGIC_OR",
      "beginCond": [
        {
          "type": "QUEST_COND_STATE_EQUAL",
          "_param": [
            "39802",
            "2"
          ]
        },
        {
          "type": "QUEST_COND_STATE_EQUAL",
          "_param": [
            "39803",
            "2"
          ]
        },
        {
          "type": "QUEST_COND_STATE_EQUAL",
          "_param": [
            "39804",
            "2"
          ]
        }
      ],
      "priority": 5,
      "initDialog": 3981001,
      "npcId": [
        144301
      ],
      "performCfg": "QuestDialogue/AQ/Mengde3_398/Q39810",
      "heroTalk": "TALK_HERO_MAIN",
      "questId": 398,
      "assetIndex": 11512433440889231398,
      "prePerformCfg": ""
    },
    {
      "id": 39811,
      "beginWay": "TALK_BEGIN_MANUAL",
      "beginCond": [
        {
          "type": "QUEST_COND_STATE_EQUAL",
          "_param": [
            "39811",
            "2"
          ]
        }
      ],
      "priority": 6,
      "initDialog": 3981101,
      "npcId": [
        144301
      ],
      "performCfg": "QuestDialogue/AQ/Mengde3_398/Q39811",
      "heroTalk": "TALK_HERO_MAIN",
      "questId": 398,
      "assetIndex": 16783543027594630326,
      "prePerformCfg": ""
    },
    {
      "id": 39820,
      "beginWay": "TALK_BEGIN_MANUAL",
      "beginCondComb": "LOGIC_OR",
      "beginCond": [
        {
          "type": "QUEST_COND_STATE_EQUAL",
          "_param": [
            "39802",
            "2"
          ]
        },
        {
          "type": "QUEST_COND_STATE_EQUAL",
          "_param": [
            "39803",
            "2"
          ]
        },
        {
          "type": "QUEST_COND_STATE_EQUAL",
          "_param": [
            "39804",
            "2"
          ]
        }
      ],
      "priority": 5,
      "initDialog": 3982001,
      "npcId": [
        1002
      ],
      "performCfg": "QuestDialogue/AQ/Mengde3_398/Q39820",
      "heroTalk": "TALK_HERO_MAIN",
      "questId": 398,
      "assetIndex": 10575276874976448261,
      "prePerformCfg": ""
    },
    {
      "id": 39821,
      "beginWay": "TALK_BEGIN_MANUAL",
      "beginCondComb": "LOGIC_OR",
      "beginCond": [
        {
          "type": "QUEST_COND_STATE_EQUAL",
          "_param": [
            "39802",
            "2"
          ]
        },
        {
          "type": "QUEST_COND_STATE_EQUAL",
          "_param": [
            "39803",
            "2"
          ]
        },
        {
          "type": "QUEST_COND_STATE_EQUAL",
          "_param": [
            "39804",
            "2"
          ]
        }
      ],
      "priority": 5,
      "initDialog": 3982101,
      "npcId": [
        143301
      ],
      "performCfg": "QuestDialogue/AQ/Mengde3_398/Q39821",
      "heroTalk": "TALK_HERO_MAIN",
      "questId": 398,
      "assetIndex": 6330120758367842456,
      "prePerformCfg": ""
    },
    {
      "id": 39822,
      "beginWay": "TALK_BEGIN_MANUAL",
      "beginCondComb": "LOGIC_OR",
      "beginCond": [
        {
          "type": "QUEST_COND_STATE_EQUAL",
          "_param": [
            "39802",
            "2"
          ]
        },
        {
          "type": "QUEST_COND_STATE_EQUAL",
          "_param": [
            "39803",
            "2"
          ]
        },
        {
          "type": "QUEST_COND_STATE_EQUAL",
          "_param": [
            "39804",
            "2"
          ]
        }
      ],
      "priority": 5,
      "initDialog": 3982201,
      "npcId": [
        144101
      ],
      "performCfg": "QuestDialogue/AQ/Mengde3_398/Q39822",
      "heroTalk": "TALK_HERO_MAIN",
      "questId": 398,
      "assetIndex": 1295011082334736607,
      "prePerformCfg": ""
    }
  ],
  "preloadLuaList": [
    5909385756826696338,
    5575916732172504491,
    14457059026087496718
  ],
  "freeStyleDic": {
    "144101": [
      1180
    ],
    "143301": [
      1190
    ],
    "144301": [
      1020,
      1240
    ],
    "140901": [
      1120
    ],
    "146101": [
      1240
    ],
    "142901": [
      4000
    ],
    "1002": [
      1280
    ]
  }
}