{
  "id": 40004,
  "series": 10001,
  "KPGKDHAFHFE": "EQ",
  "titleTextMapHash": 3980594777,
  "descTextMapHash": 1701960447,
  "luaPath": "Actor/Quest/EQ40004",
  "suggestTrackMainQuestList": [
    40005
  ],
  "chapterId": 10004,
  "subQuests": [
    {
      "subId": 4000400,
      "mainId": 40004,
      "order": 1,
      "descTextMapHash": 937665014,
      "showType": "QUEST_HIDDEN",
      "finishCond": [
        {
          "KPGKDHAFHFE": "QUEST_CONTENT_FINISH_PLOT",
          "param": [
            4000400,
            0
          ]
        }
      ],
      "guide": {
        "KPGKDHAFHFE": "QUEST_GUIDE_LOCATION",
        "param": [
          "Q40004Target1"
        ],
        "guideScene": 1009,
        "guideStyle": "QUEST_GUIDE_STYLE_POINT",
        "guideLayer": "QUEST_GUIDE_LAYER_SCENE"
      },
      "guideHint": {
        "param1": ""
      },
      "isRewind": true,
      "versionBegin": "",
      "versionEnd": ""
    },
    {
      "subId": 4000401,
      "mainId": 40004,
      "order": 2,
      "descTextMapHash": 2366119854,
      "finishCond": [
        {
          "KPGKDHAFHFE": "QUEST_CONTENT_ENTER_ROOM",
          "param": [
            1009,
            0
          ]
        }
      ],
      "guide": {
        "KPGKDHAFHFE": "QUEST_GUIDE_LOCATION",
        "param": [
          "Q40004Target1"
        ],
        "guideScene": 1009,
        "guideStyle": "QUEST_GUIDE_STYLE_POINT",
        "guideLayer": "QUEST_GUIDE_LAYER_SCENE"
      },
      "guideHint": {
        "param1": ""
      },
      "isRewind": true,
      "versionBegin": "",
      "versionEnd": ""
    },
    {
      "subId": 4000402,
      "mainId": 40004,
      "order": 3,
      "descTextMapHash": 1808920366,
      "finishCond": [
        {
          "KPGKDHAFHFE": "QUEST_CONTENT_COMPLETE_TALK",
          "param": [
            4000402,
            0
          ]
        }
      ],
      "guide": {
        "KPGKDHAFHFE": "QUEST_GUIDE_NPC",
        "param": [
          "1004"
        ],
        "guideScene": 1009,
        "guideStyle": "QUEST_GUIDE_STYLE_TARGET",
        "guideLayer": "QUEST_GUIDE_LAYER_SCENE"
      },
      "guideHint": {
        "param1": ""
      },
      "isRewind": true,
      "versionBegin": "",
      "versionEnd": ""
    },
    {
      "subId": 4000403,
      "mainId": 40004,
      "order": 4,
      "descTextMapHash": 4267531142,
      "finishCond": [
        {
          "KPGKDHAFHFE": "QUEST_CONTENT_COMPLETE_TALK",
          "param": [
            4000403,
            0
          ]
        }
      ],
      "guide": {
        "KPGKDHAFHFE": "QUEST_GUIDE_NPC",
        "param": [
          "146101"
        ],
        "guideScene": 3,
        "guideStyle": "QUEST_GUIDE_STYLE_TARGET",
        "guideLayer": "QUEST_GUIDE_LAYER_SCENE"
      },
      "guideHint": {
        "param1": ""
      },
      "isRewind": true,
      "finishExec": [
        {
          "KPGKDHAFHFE": "QUEST_EXEC_ACTIVE_ACTIVITY_COND_STATE",
          "param": [
            "1001",
            "10020"
          ]
        }
      ],
      "versionBegin": "",
      "versionEnd": ""
    },
    {
      "subId": 4000404,
      "mainId": 40004,
      "order": 5,
      "descTextMapHash": 2697992854,
      "finishCond": [
        {
          "KPGKDHAFHFE": "QUEST_CONTENT_ENTER_ROOM",
          "param": [
            1004,
            0
          ]
        }
      ],
      "guide": {
        "KPGKDHAFHFE": "QUEST_GUIDE_LOCATION",
        "param": [
          "Q40004Target1"
        ],
        "guideScene": 1004,
        "guideStyle": "QUEST_GUIDE_STYLE_POINT",
        "guideLayer": "QUEST_GUIDE_LAYER_SCENE"
      },
      "guideHint": {
        "param1": ""
      },
      "isRewind": true,
      "versionBegin": "",
      "versionEnd": ""
    },
    {
      "subId": 4000405,
      "mainId": 40004,
      "order": 6,
      "descTextMapHash": 2819682182,
      "finishCond": [
        {
          "KPGKDHAFHFE": "QUEST_CONTENT_COMPLETE_TALK",
          "param": [
            4000405,
            0
          ]
        }
      ],
      "guide": {
        "KPGKDHAFHFE": "QUEST_GUIDE_NPC",
        "param": [
          "1004"
        ],
        "guideScene": 1004,
        "guideStyle": "QUEST_GUIDE_STYLE_TARGET",
        "guideLayer": "QUEST_GUIDE_LAYER_SCENE"
      },
      "guideHint": {
        "param1": ""
      },
      "isRewind": true,
      "versionBegin": "",
      "versionEnd": ""
    },
    {
      "subId": 4000406,
      "mainId": 40004,
      "order": 7,
      "descTextMapHash": 2672527830,
      "finishCond": [
        {
          "KPGKDHAFHFE": "QUEST_CONTENT_TRIGGER_FIRE",
          "param": [
            1162,
            0
          ]
        }
      ],
      "guide": {
        "KPGKDHAFHFE": "QUEST_GUIDE_LOCATION",
        "param": [
          "Q40004Target2",
          "80"
        ],
        "guideScene": 3,
        "guideStyle": "QUEST_GUIDE_STYLE_POINT",
        "guideLayer": "QUEST_GUIDE_LAYER_SCENE"
      },
      "guideHint": {
        "param1": ""
      },
      "isRewind": true,
      "versionBegin": "",
      "versionEnd": ""
    },
    {
      "subId": 4000407,
      "mainId": 40004,
      "order": 9,
      "isMpBlock": true,
      "descTextMapHash": 3883009206,
      "finishCond": [
        {
          "KPGKDHAFHFE": "QUEST_CONTENT_LUA_NOTIFY",
          "param": [
            0,
            0
          ],
          "count": 1
        }
      ],
      "failCond": [
        {
          "KPGKDHAFHFE": "QUEST_CONTENT_NOT_FINISH_PLOT",
          "param": [
            4000407,
            0
          ]
        }
      ],
      "guide": {
        "KPGKDHAFHFE": "QUEST_GUIDE_LOCATION",
        "param": [
          "Q40004Target3",
          "30"
        ],
        "guideScene": 3,
        "guideStyle": "QUEST_GUIDE_STYLE_POINT",
        "guideLayer": "QUEST_GUIDE_LAYER_SCENE"
      },
      "guideHint": {
        "param1": ""
      },
      "isRewind": true,
      "finishExec": [
        {
          "KPGKDHAFHFE": "QUEST_EXEC_REFRESH_GROUP_SUITE",
          "param": [
            "3",
            "301001005,2"
          ]
        }
      ],
      "failExec": [
        {
          "KPGKDHAFHFE": "QUEST_EXEC_ROLLBACK_QUEST",
          "param": [
            "4000406"
          ]
        },
        {
          "KPGKDHAFHFE": "QUEST_EXEC_REFRESH_GROUP_SUITE",
          "param": [
            "3",
            "301001005,2"
          ]
        }
      ],
      "versionBegin": "",
      "versionEnd": ""
    },
    {
      "subId": 4000408,
      "mainId": 40004,
      "order": 10,
      "isMpBlock": true,
      "descTextMapHash": 903052974,
      "showType": "QUEST_HIDDEN",
      "finishCond": [
        {
          "KPGKDHAFHFE": "QUEST_CONTENT_COMPLETE_TALK",
          "param": [
            4000408,
            0
          ]
        }
      ],
      "guide": {
        "KPGKDHAFHFE": "QUEST_GUIDE_NPC",
        "param": [
          "10207"
        ],
        "guideScene": 3,
        "guideStyle": "QUEST_GUIDE_STYLE_TARGET",
        "guideLayer": "QUEST_GUIDE_LAYER_SCENE"
      },
      "guideHint": {
        "param1": ""
      },
      "finishParent": true,
      "isRewind": true,
      "versionBegin": "",
      "versionEnd": ""
    },
    {
      "subId": 4000409,
      "mainId": 40004,
      "order": 8,
      "isMpBlock": true,
      "descTextMapHash": 2360073414,
      "finishCond": [
        {
          "KPGKDHAFHFE": "QUEST_CONTENT_COMPLETE_TALK",
          "param": [
            4000409,
            0
          ]
        }
      ],
      "guide": {
        "KPGKDHAFHFE": "QUEST_GUIDE_NPC",
        "param": [
          "10207"
        ],
        "guideScene": 3,
        "guideStyle": "QUEST_GUIDE_STYLE_TARGET",
        "guideLayer": "QUEST_GUIDE_LAYER_SCENE"
      },
      "guideHint": {
        "param1": ""
      },
      "versionBegin": "",
      "versionEnd": ""
    }
  ],
  "talks": [
    {
      "id": 4000402,
      "beginWay": "TALK_BEGIN_MANUAL",
      "beginCond": [
        {
          "type": "QUEST_COND_STATE_EQUAL",
          "_param": [
            "4000402",
            "2"
          ]
        }
      ],
      "priority": 5,
      "initDialog": 400040201,
      "npcId": [
        1004
      ],
      "performCfg": "QuestDialogue/EQ/Sealamp1_40004/Q4000402",
      "questId": 40004,
      "assetIndex": 9633782107781853631,
      "prePerformCfg": ""
    },
    {
      "id": 4000403,
      "beginWay": "TALK_BEGIN_MANUAL",
      "beginCond": [
        {
          "type": "QUEST_COND_STATE_EQUAL",
          "_param": [
            "4000403",
            "2"
          ]
        }
      ],
      "priority": 5,
      "initDialog": 400040301,
      "npcId": [
        146101
      ],
      "performCfg": "QuestDialogue/EQ/Sealamp1_40004/Q4000403",
      "questId": 40004,
      "assetIndex": 5709109299676657743,
      "prePerformCfg": ""
    },
    {
      "id": 4000408,
      "beginWay": "TALK_BEGIN_AUTO",
      "beginCond": [
        {
          "type": "QUEST_COND_STATE_EQUAL",
          "_param": [
            "4000408",
            "2"
          ]
        }
      ],
      "priority": 5,
      "initDialog": 400040801,
      "npcId": [
        10207
      ],
      "performCfg": "QuestDialogue/EQ/Sealamp1_40004/Q4000408",
      "questId": 40004,
      "assetIndex": 15419565776878215914,
      "prePerformCfg": ""
    },
    {
      "id": 4000409,
      "beginWay": "TALK_BEGIN_MANUAL",
      "beginCond": [
        {
          "type": "QUEST_COND_STATE_EQUAL",
          "_param": [
            "4000409",
            "2"
          ]
        }
      ],
      "priority": 5,
      "initDialog": 400040901,
      "npcId": [
        10207
      ],
      "performCfg": "QuestDialogue/EQ/Sealamp1_40004/Q4000409",
      "questId": 40004,
      "assetIndex": 3950058196860938836,
      "prePerformCfg": ""
    }
  ],
  "preloadLuaList": [
    5575916732172504491,
    14457059026087496718,
    4841395525852834599
  ],
  "forcePreloadLuaList": [
    7543372952495330006
  ]
}