{
  "id": 40022,
  "resId": 4006,
  "KPGKDHAFHFE": "EQ",
  "titleTextMapHash": 2238460535,
  "descTextMapHash": 685553126,
  "luaPath": "Actor/Quest/EQ40022",
  "suggestTrackMainQuestList": [
    40023
  ],
  "rewardIdList": [
    140022
  ],
  "chapterId": 10040,
  "showRedPoint": true,
  "activityId": 2008,
  "subQuests": [
    {
      "subId": 4002201,
      "mainId": 40022,
      "order": 2,
      "descTextMapHash": 2383292300,
      "finishCond": [
        {
          "KPGKDHAFHFE": "QUEST_CONTENT_COMPLETE_TALK",
          "param": [
            4002201,
            0
          ]
        }
      ],
      "guide": {
        "KPGKDHAFHFE": "QUEST_GUIDE_NPC",
        "param": [
          "1042"
        ],
        "guideScene": 3,
        "guideStyle": "QUEST_GUIDE_STYLE_TARGET",
        "guideLayer": "QUEST_GUIDE_LAYER_SCENE"
      },
      "guideHint": {
        "param1": ""
      },
      "isRewind": true,
      "versionBegin": "",
      "versionEnd": ""
    },
    {
      "subId": 4002202,
      "mainId": 40022,
      "order": 3,
      "descTextMapHash": 4105919628,
      "finishCond": [
        {
          "KPGKDHAFHFE": "QUEST_CONTENT_ENTER_ROGUE_DUNGEON",
          "param": [
            3,
            0
          ]
        }
      ],
      "guide": {
        "KPGKDHAFHFE": "QUEST_GUIDE_LOCATION",
        "param": [
          "Q40020guide"
        ],
        "guideScene": 3,
        "guideStyle": "QUEST_GUIDE_STYLE_TARGET",
        "guideLayer": "QUEST_GUIDE_LAYER_SCENE"
      },
      "guideHint": {
        "param1": ""
      },
      "isRewind": true,
      "versionBegin": "",
      "versionEnd": ""
    },
    {
      "subId": 4002203,
      "mainId": 40022,
      "order": 7,
      "descTextMapHash": 4252242852,
      "finishCond": [
        {
          "KPGKDHAFHFE": "QUEST_CONTENT_COMPLETE_TALK",
          "param": [
            4002203,
            0
          ]
        }
      ],
      "failCond": [
        {
          "KPGKDHAFHFE": "QUEST_CONTENT_ENTER_MY_WORLD",
          "param": [
            0,
            0
          ]
        }
      ],
      "guide": {
        "KPGKDHAFHFE": "QUEST_GUIDE_NPC",
        "param": [
          "10200"
        ],
        "guideStyle": "QUEST_GUIDE_STYLE_TARGET",
        "guideLayer": "QUEST_GUIDE_LAYER_SCENE"
      },
      "guideHint": {
        "param1": ""
      },
      "isRewind": true,
      "finishExec": [
        {
          "KPGKDHAFHFE": "QUEST_EXEC_SET_QUEST_VAR",
          "param": [
            "0",
            "1"
          ]
        },
        {
          "KPGKDHAFHFE": "QUEST_EXEC_NOTIFY_GROUP_LUA",
          "param": [
            "47006",
            " 247006002"
          ]
        }
      ],
      "failExec": [
        {
          "KPGKDHAFHFE": "QUEST_EXEC_SET_QUEST_VAR",
          "param": [
            "0",
            "0"
          ]
        },
        {
          "KPGKDHAFHFE": "QUEST_EXEC_SET_QUEST_VAR",
          "param": [
            "1",
            "1"
          ]
        },
        {
          "KPGKDHAFHFE": "QUEST_EXEC_ROLLBACK_QUEST",
          "param": [
            "4002212"
          ]
        }
      ],
      "versionBegin": "",
      "versionEnd": ""
    },
    {
      "subId": 4002204,
      "mainId": 40022,
      "order": 9,
      "descTextMapHash": 1615937476,
      "guideTipsTextMapHash": 2668672262,
      "finishCond": [
        {
          "KPGKDHAFHFE": "QUEST_CONTENT_LUA_NOTIFY",
          "param": [
            0,
            0
          ],
          "count": 1
        }
      ],
      "failCond": [
        {
          "KPGKDHAFHFE": "QUEST_CONTENT_ENTER_MY_WORLD",
          "param": [
            0,
            0
          ]
        }
      ],
      "guide": {},
      "guideHint": {
        "param1": ""
      },
      "isRewind": true,
      "finishExec": [
        {
          "KPGKDHAFHFE": "QUEST_EXEC_SET_QUEST_VAR",
          "param": [
            "0",
            "1"
          ]
        }
      ],
      "failExec": [
        {
          "KPGKDHAFHFE": "QUEST_EXEC_SET_QUEST_VAR",
          "param": [
            "0",
            "0"
          ]
        },
        {
          "KPGKDHAFHFE": "QUEST_EXEC_SET_QUEST_VAR",
          "param": [
            "2",
            "1"
          ]
        },
        {
          "KPGKDHAFHFE": "QUEST_EXEC_ROLLBACK_QUEST",
          "param": [
            "4002210"
          ]
        }
      ],
      "versionBegin": "",
      "versionEnd": ""
    },
    {
      "subId": 4002205,
      "mainId": 40022,
      "order": 6,
      "descTextMapHash": 1773365292,
      "finishCond": [
        {
          "KPGKDHAFHFE": "QUEST_CONTENT_INTERACT_GADGET",
          "param": [
            70710489,
            0
          ],
          "count": 1
        }
      ],
      "failCond": [
        {
          "KPGKDHAFHFE": "QUEST_CONTENT_ENTER_MY_WORLD",
          "param": [
            0,
            0
          ]
        }
      ],
      "guide": {
        "KPGKDHAFHFE": "QUEST_GUIDE_LOCATION",
        "param": [
          "Q4002205target",
          "5"
        ],
        "guideScene": 47006,
        "guideStyle": "QUEST_GUIDE_STYLE_TARGET",
        "guideLayer": "QUEST_GUIDE_LAYER_SCENE"
      },
      "guideHint": {
        "param1": ""
      },
      "isRewind": true,
      "finishExec": [
        {
          "KPGKDHAFHFE": "QUEST_EXEC_SET_QUEST_VAR",
          "param": [
            "0",
            "1"
          ]
        },
        {
          "KPGKDHAFHFE": "QUEST_EXEC_NOTIFY_GROUP_LUA",
          "param": [
            "47006",
            "247006002"
          ]
        }
      ],
      "failExec": [
        {
          "KPGKDHAFHFE": "QUEST_EXEC_SET_QUEST_VAR",
          "param": [
            "0",
            "0"
          ]
        },
        {
          "KPGKDHAFHFE": "QUEST_EXEC_SET_QUEST_VAR",
          "param": [
            "1",
            "1"
          ]
        },
        {
          "KPGKDHAFHFE": "QUEST_EXEC_ROLLBACK_QUEST",
          "param": [
            "4002212"
          ]
        }
      ],
      "versionBegin": "",
      "versionEnd": ""
    },
    {
      "subId": 4002206,
      "mainId": 40022,
      "order": 11,
      "descTextMapHash": 3898103580,
      "finishCond": [
        {
          "KPGKDHAFHFE": "QUEST_CONTENT_COMPLETE_TALK",
          "param": [
            4002206,
            0
          ]
        }
      ],
      "failCond": [
        {
          "KPGKDHAFHFE": "QUEST_CONTENT_ENTER_MY_WORLD",
          "param": [
            0,
            0
          ]
        }
      ],
      "guide": {
        "KPGKDHAFHFE": "QUEST_GUIDE_NPC",
        "param": [
          "30067"
        ],
        "guideStyle": "QUEST_GUIDE_STYLE_TARGET",
        "guideLayer": "QUEST_GUIDE_LAYER_SCENE"
      },
      "guideHint": {
        "param1": ""
      },
      "isRewind": true,
      "finishExec": [
        {
          "KPGKDHAFHFE": "QUEST_EXEC_SET_QUEST_VAR",
          "param": [
            "0",
            "1"
          ]
        }
      ],
      "failExec": [
        {
          "KPGKDHAFHFE": "QUEST_EXEC_SET_QUEST_VAR",
          "param": [
            "0",
            "0"
          ]
        },
        {
          "KPGKDHAFHFE": "QUEST_EXEC_SET_QUEST_VAR",
          "param": [
            "3",
            "1"
          ]
        },
        {
          "KPGKDHAFHFE": "QUEST_EXEC_ROLLBACK_QUEST",
          "param": [
            "4002207"
          ]
        }
      ],
      "versionBegin": "",
      "versionEnd": ""
    },
    {
      "subId": 4002207,
      "mainId": 40022,
      "order": 10,
      "descTextMapHash": 380619228,
      "finishCond": [
        {
          "KPGKDHAFHFE": "QUEST_CONTENT_ENTER_ROGUE_DUNGEON",
          "param": [
            3,
            0
          ]
        }
      ],
      "guide": {
        "KPGKDHAFHFE": "QUEST_GUIDE_LOCATION",
        "param": [
          "Q40020guide"
        ],
        "guideScene": 3,
        "guideStyle": "QUEST_GUIDE_STYLE_TARGET",
        "guideLayer": "QUEST_GUIDE_LAYER_SCENE"
      },
      "guideHint": {
        "param1": ""
      },
      "isRewind": true,
      "versionBegin": "",
      "versionEnd": ""
    },
    {
      "subId": 4002208,
      "mainId": 40022,
      "order": 12,
      "descTextMapHash": 3393368116,
      "finishCond": [
        {
          "KPGKDHAFHFE": "QUEST_CONTENT_ENTER_MY_WORLD",
          "param": [
            0,
            0
          ]
        }
      ],
      "guide": {},
      "showGuide": "QUEST_GUIDE_ITEM_DISABLE",
      "guideHint": {
        "param1": ""
      },
      "finishParent": true,
      "isRewind": true,
      "versionBegin": "",
      "versionEnd": ""
    },
    {
      "subId": 4002209,
      "mainId": 40022,
      "order": 1,
      "descTextMapHash": 2921791276,
      "finishCond": [
        {
          "KPGKDHAFHFE": "QUEST_CONTENT_GAME_TIME_TICK",
          "param": [
            1,
            0
          ]
        }
      ],
      "guide": {},
      "showGuide": "QUEST_GUIDE_ITEM_DISABLE",
      "guideHint": {
        "param1": ""
      },
      "isRewind": true,
      "versionBegin": "",
      "versionEnd": ""
    },
    {
      "subId": 4002210,
      "mainId": 40022,
      "order": 8,
      "descTextMapHash": 940285908,
      "finishCond": [
        {
          "KPGKDHAFHFE": "QUEST_CONTENT_ENTER_ROGUE_DUNGEON",
          "param": [
            3,
            0
          ]
        }
      ],
      "guide": {
        "KPGKDHAFHFE": "QUEST_GUIDE_LOCATION",
        "param": [
          "Q40020guide"
        ],
        "guideScene": 3,
        "guideStyle": "QUEST_GUIDE_STYLE_TARGET",
        "guideLayer": "QUEST_GUIDE_LAYER_SCENE"
      },
      "guideHint": {
        "param1": ""
      },
      "isRewind": true,
      "versionBegin": "",
      "versionEnd": ""
    },
    {
      "subId": 4002211,
      "mainId": 40022,
      "order": 4,
      "descTextMapHash": 2986041820,
      "finishCond": [
        {
          "KPGKDHAFHFE": "QUEST_CONTENT_COMPLETE_TALK",
          "param": [
            4002211,
            0
          ]
        }
      ],
      "failCond": [
        {
          "KPGKDHAFHFE": "QUEST_CONTENT_ENTER_MY_WORLD",
          "param": [
            0,
            0
          ]
        }
      ],
      "guide": {
        "KPGKDHAFHFE": "QUEST_GUIDE_NPC",
        "param": [
          "10200"
        ],
        "guideStyle": "QUEST_GUIDE_STYLE_TARGET",
        "guideLayer": "QUEST_GUIDE_LAYER_SCENE"
      },
      "guideHint": {
        "param1": ""
      },
      "isRewind": true,
      "finishExec": [
        {
          "KPGKDHAFHFE": "QUEST_EXEC_SET_QUEST_VAR",
          "param": [
            "0",
            "1"
          ]
        }
      ],
      "failExec": [
        {
          "KPGKDHAFHFE": "QUEST_EXEC_ROLLBACK_QUEST",
          "param": [
            "4002202"
          ]
        }
      ],
      "versionBegin": "",
      "versionEnd": ""
    },
    {
      "subId": 4002212,
      "mainId": 40022,
      "order": 5,
      "descTextMapHash": 101962676,
      "finishCond": [
        {
          "KPGKDHAFHFE": "QUEST_CONTENT_ENTER_ROGUE_DUNGEON",
          "param": [
            3,
            0
          ]
        }
      ],
      "guide": {
        "KPGKDHAFHFE": "QUEST_GUIDE_LOCATION",
        "param": [
          "Q40020guide"
        ],
        "guideScene": 3,
        "guideStyle": "QUEST_GUIDE_STYLE_TARGET",
        "guideLayer": "QUEST_GUIDE_LAYER_SCENE"
      },
      "guideHint": {
        "param1": ""
      },
      "isRewind": true,
      "versionBegin": "",
      "versionEnd": ""
    }
  ],
  "talks": [
    {
      "id": 4002201,
      "beginWay": "TALK_BEGIN_MANUAL",
      "beginCond": [
        {
          "type": "QUEST_COND_STATE_EQUAL",
          "_param": [
            "4002201",
            "2"
          ]
        }
      ],
      "priority": 5,
      "initDialog": 400220101,
      "npcId": [
        1042
      ],
      "performCfg": "QuestDialogue/EQ/OnmyoMaze_40022/Q4002201",
      "questId": 40022,
      "assetIndex": 8097296637476226534,
      "prePerformCfg": ""
    },
    {
      "id": 4002203,
      "beginWay": "TALK_BEGIN_MANUAL",
      "beginCond": [
        {
          "type": "QUEST_COND_STATE_EQUAL",
          "_param": [
            "4002203",
            "2"
          ]
        }
      ],
      "priority": 5,
      "initDialog": 400220301,
      "npcId": [
        10200
      ],
      "performCfg": "QuestDialogue/EQ/OnmyoMaze_40022/Q4002203",
      "questId": 40022,
      "assetIndex": 14844042373381273190,
      "prePerformCfg": ""
    },
    {
      "id": 4002206,
      "beginWay": "TALK_BEGIN_MANUAL",
      "beginCond": [
        {
          "type": "QUEST_COND_STATE_EQUAL",
          "_param": [
            "4002206",
            "2"
          ]
        }
      ],
      "priority": 5,
      "initDialog": 400220601,
      "npcId": [
        30067
      ],
      "performCfg": "QuestDialogue/EQ/OnmyoMaze_40022/Q4002206",
      "questId": 40022,
      "assetIndex": 9375310898431027954,
      "prePerformCfg": ""
    },
    {
      "id": 4002211,
      "beginWay": "TALK_BEGIN_MANUAL",
      "beginCond": [
        {
          "type": "QUEST_COND_STATE_EQUAL",
          "_param": [
            "4002211",
            "2"
          ]
        }
      ],
      "priority": 5,
      "initDialog": 400221101,
      "npcId": [
        10200
      ],
      "performCfg": "QuestDialogue/EQ/OnmyoMaze_40022/Q4002211",
      "questId": 40022,
      "assetIndex": 14698493801572607384,
      "prePerformCfg": ""
    },
    {
      "id": 4002213,
      "beginWay": "TALK_BEGIN_MANUAL",
      "beginCond": [
        {
          "type": "QUEST_COND_STATE_EQUAL",
          "_param": [
            "4002208",
            "2"
          ]
        }
      ],
      "priority": 5,
      "initDialog": 400221301,
      "npcId": [
        1042,
        30067
      ],
      "performCfg": "QuestDialogue/EQ/OnmyoMaze_40022/Q4002213",
      "questId": 40022,
      "assetIndex": 993303537307414792,
      "prePerformCfg": ""
    }
  ],
  "freeStyleDic": {
    "1042": [
      1120
    ]
  }
}