{
  "id": 40057,
  "resId": 4011,
  "series": 10067,
  "KPGKDHAFHFE": "EQ",
  "titleTextMapHash": 2251740031,
  "luaPath": "Actor/Quest/EQ40057",
  "suggestTrackMainQuestList": [
    40058
  ],
  "rewardIdList": [
    140057
  ],
  "chapterId": 10067,
  "showRedPoint": true,
  "activityId": 2012,
  "subQuests": [
    {
      "subId": 4005701,
      "mainId": 40057,
      "order": 1,
      "descTextMapHash": 2877524212,
      "stepDescTextMapHash": 4161522837,
      "finishCond": [
        {
          "KPGKDHAFHFE": "QUEST_CONTENT_GAME_TIME_TICK",
          "param": [
            1,
            0
          ]
        }
      ],
      "guide": {},
      "guideHint": {
        "param1": ""
      },
      "isRewind": true,
      "versionBegin": "",
      "versionEnd": ""
    },
    {
      "subId": 4005702,
      "mainId": 40057,
      "order": 2,
      "descTextMapHash": 369161068,
      "stepDescTextMapHash": 2154687733,
      "finishCond": [
        {
          "KPGKDHAFHFE": "QUEST_CONTENT_FINISH_PLOT",
          "param": [
            4005702,
            0
          ]
        }
      ],
      "guide": {
        "KPGKDHAFHFE": "QUEST_GUIDE_LOCATION",
        "autoGuide": "QUEST_GUIDE_AUTO_ENABLE",
        "param": [
          "Q4005501_MaTou"
        ],
        "guideScene": 3,
        "guideStyle": "QUEST_GUIDE_STYLE_POINT",
        "guideLayer": "QUEST_GUIDE_LAYER_SCENE"
      },
      "guideHint": {
        "param1": ""
      },
      "isRewind": true,
      "versionBegin": "",
      "versionEnd": ""
    },
    {
      "subId": 4005703,
      "mainId": 40057,
      "order": 3,
      "descTextMapHash": 1967892508,
      "stepDescTextMapHash": 3073730205,
      "finishCond": [
        {
          "KPGKDHAFHFE": "QUEST_CONTENT_COMPLETE_TALK",
          "param": [
            4005701,
            0
          ]
        }
      ],
      "guide": {
        "KPGKDHAFHFE": "QUEST_GUIDE_NPC",
        "autoGuide": "QUEST_GUIDE_AUTO_ENABLE",
        "param": [
          "1032"
        ],
        "guideScene": 3,
        "guideStyle": "QUEST_GUIDE_STYLE_TARGET",
        "guideLayer": "QUEST_GUIDE_LAYER_SCENE"
      },
      "guideHint": {
        "param1": ""
      },
      "versionBegin": "",
      "versionEnd": ""
    },
    {
      "subId": 4005704,
      "mainId": 40057,
      "order": 4,
      "descTextMapHash": 2167054580,
      "stepDescTextMapHash": 135375205,
      "GMKDJFPEFFF": [
        320905
      ],
      "finishCond": [
        {
          "KPGKDHAFHFE": "QUEST_CONTENT_COMPLETE_TALK",
          "param": [
            4005702,
            0
          ]
        }
      ],
      "guide": {
        "KPGKDHAFHFE": "QUEST_GUIDE_NPC",
        "autoGuide": "QUEST_GUIDE_AUTO_ENABLE",
        "param": [
          "1018"
        ],
        "guideScene": 3,
        "guideStyle": "QUEST_GUIDE_STYLE_TARGET",
        "guideLayer": "QUEST_GUIDE_LAYER_SCENE"
      },
      "guideHint": {
        "param1": ""
      },
      "isRewind": true,
      "finishExec": [
        {
          "KPGKDHAFHFE": "QUEST_EXEC_UNREGISTER_DYNAMIC_GROUP",
          "param": [
            "133209070"
          ]
        }
      ],
      "versionBegin": "",
      "versionEnd": ""
    },
    {
      "subId": 4005705,
      "mainId": 40057,
      "order": 5,
      "descTextMapHash": 1261447500,
      "stepDescTextMapHash": 892484493,
      "GMKDJFPEFFF": [
        106601
      ],
      "finishCond": [
        {
          "KPGKDHAFHFE": "QUEST_CONTENT_FINISH_PLOT",
          "param": [
            4005705,
            0
          ]
        }
      ],
      "guide": {
        "KPGKDHAFHFE": "QUEST_GUIDE_LOCATION",
        "autoGuide": "QUEST_GUIDE_AUTO_ENABLE",
        "param": [
          "Q4005605_guide",
          "5"
        ],
        "guideScene": 1066,
        "guideLayer": "QUEST_GUIDE_LAYER_SCENE"
      },
      "guideHint": {
        "param1": ""
      },
      "isRewind": true,
      "versionBegin": "",
      "versionEnd": ""
    },
    {
      "subId": 4005706,
      "mainId": 40057,
      "order": 6,
      "descTextMapHash": 484181524,
      "stepDescTextMapHash": 830116173,
      "GMKDJFPEFFF": [
        106601
      ],
      "finishCond": [
        {
          "KPGKDHAFHFE": "QUEST_CONTENT_COMPLETE_TALK",
          "param": [
            4005703,
            0
          ]
        }
      ],
      "guide": {
        "KPGKDHAFHFE": "QUEST_GUIDE_NPC",
        "autoGuide": "QUEST_GUIDE_AUTO_ENABLE",
        "param": [
          "10045"
        ],
        "guideScene": 1066,
        "guideStyle": "QUEST_GUIDE_STYLE_TARGET",
        "guideLayer": "QUEST_GUIDE_LAYER_SCENE"
      },
      "guideHint": {
        "param1": ""
      },
      "isRewind": true,
      "versionBegin": "",
      "versionEnd": ""
    },
    {
      "subId": 4005707,
      "mainId": 40057,
      "order": 7,
      "descTextMapHash": 3619709996,
      "stepDescTextMapHash": 3280657829,
      "GMKDJFPEFFF": [
        4005605
      ],
      "finishCond": [
        {
          "KPGKDHAFHFE": "QUEST_CONTENT_FINISH_PLOT",
          "param": [
            4005707,
            0
          ]
        },
        {
          "KPGKDHAFHFE": "QUEST_CONTENT_ENTER_MY_WORLD",
          "param": [
            3,
            0
          ]
        }
      ],
      "guide": {
        "KPGKDHAFHFE": "QUEST_GUIDE_LOCATION",
        "autoGuide": "QUEST_GUIDE_AUTO_ENABLE",
        "param": [
          "Q4005707_OutSideWuYouTing"
        ],
        "guideScene": 3,
        "guideStyle": "QUEST_GUIDE_STYLE_POINT",
        "guideLayer": "QUEST_GUIDE_LAYER_SCENE"
      },
      "guideHint": {
        "param1": ""
      },
      "isRewind": true,
      "versionBegin": "",
      "versionEnd": ""
    },
    {
      "subId": 4005708,
      "mainId": 40057,
      "order": 8,
      "descTextMapHash": 3717666252,
      "stepDescTextMapHash": 1963753861,
      "GMKDJFPEFFF": [
        4005605
      ],
      "finishCond": [
        {
          "KPGKDHAFHFE": "QUEST_CONTENT_COMPLETE_TALK",
          "param": [
            4005704,
            0
          ]
        }
      ],
      "guide": {
        "KPGKDHAFHFE": "QUEST_GUIDE_LOCATION",
        "autoGuide": "QUEST_GUIDE_AUTO_ENABLE",
        "param": [
          "Q4005707_OutSideWuYouTing"
        ],
        "guideScene": 3,
        "guideStyle": "QUEST_GUIDE_STYLE_POINT",
        "guideLayer": "QUEST_GUIDE_LAYER_SCENE"
      },
      "guideHint": {
        "param1": ""
      },
      "isRewind": true,
      "versionBegin": "",
      "versionEnd": ""
    },
    {
      "subId": 4005709,
      "mainId": 40057,
      "order": 9,
      "descTextMapHash": 636306612,
      "stepDescTextMapHash": 1696919949,
      "finishCond": [
        {
          "KPGKDHAFHFE": "QUEST_CONTENT_FINISH_PLOT",
          "param": [
            4005709,
            0
          ]
        }
      ],
      "guide": {
        "KPGKDHAFHFE": "QUEST_GUIDE_LOCATION",
        "param": [
          "Q4005709_BesideWater"
        ],
        "guideStyle": "QUEST_GUIDE_STYLE_POINT"
      },
      "guideHint": {
        "param1": ""
      },
      "isRewind": true,
      "versionBegin": "",
      "versionEnd": ""
    },
    {
      "subId": 4005710,
      "mainId": 40057,
      "order": 10,
      "descTextMapHash": 2875581676,
      "stepDescTextMapHash": 819809733,
      "finishCond": [
        {
          "KPGKDHAFHFE": "QUEST_CONTENT_COMPLETE_TALK",
          "param": [
            4005705,
            0
          ]
        }
      ],
      "guide": {
        "KPGKDHAFHFE": "QUEST_GUIDE_NPC",
        "autoGuide": "QUEST_GUIDE_AUTO_ENABLE",
        "param": [
          "1013"
        ],
        "guideScene": 3,
        "guideStyle": "QUEST_GUIDE_STYLE_TARGET",
        "guideLayer": "QUEST_GUIDE_LAYER_SCENE"
      },
      "guideHint": {
        "param1": ""
      },
      "finishExec": [
        {
          "KPGKDHAFHFE": "QUEST_EXEC_DEL_ALL_SPECIFIC_PACK_ITEM",
          "param": [
            "101730"
          ]
        }
      ],
      "versionBegin": "",
      "versionEnd": ""
    },
    {
      "subId": 4005711,
      "mainId": 40057,
      "order": 11,
      "isMpBlock": true,
      "descTextMapHash": 3816737196,
      "stepDescTextMapHash": 2412372061,
      "showType": "QUEST_HIDDEN",
      "finishCond": [
        {
          "KPGKDHAFHFE": "QUEST_CONTENT_FINISH_PLOT",
          "param": [
            4005711,
            0
          ]
        }
      ],
      "guide": {},
      "guideHint": {
        "param1": ""
      },
      "versionBegin": "",
      "versionEnd": ""
    },
    {
      "subId": 4005712,
      "mainId": 40057,
      "order": 12,
      "descTextMapHash": 819800916,
      "stepDescTextMapHash": 1445592445,
      "GMKDJFPEFFF": [
        320905
      ],
      "finishCond": [
        {
          "KPGKDHAFHFE": "QUEST_CONTENT_FINISH_PLOT",
          "param": [
            4005712,
            0
          ]
        },
        {
          "KPGKDHAFHFE": "QUEST_CONTENT_GAME_TIME_TICK",
          "param": [
            0,
            0
          ]
        }
      ],
      "guide": {
        "KPGKDHAFHFE": "QUEST_GUIDE_NPC",
        "autoGuide": "QUEST_GUIDE_AUTO_ENABLE",
        "param": [
          "1013"
        ],
        "guideScene": 3,
        "guideStyle": "QUEST_GUIDE_STYLE_TARGET",
        "guideLayer": "QUEST_GUIDE_LAYER_SCENE"
      },
      "guideHint": {
        "param1": ""
      },
      "isRewind": true,
      "versionBegin": "",
      "versionEnd": ""
    },
    {
      "subId": 4005713,
      "mainId": 40057,
      "order": 13,
      "descTextMapHash": 165955020,
      "stepDescTextMapHash": 3907692669,
      "GMKDJFPEFFF": [
        320905
      ],
      "finishCond": [
        {
          "KPGKDHAFHFE": "QUEST_CONTENT_COMPLETE_TALK",
          "param": [
            4005706,
            0
          ]
        }
      ],
      "guide": {
        "KPGKDHAFHFE": "QUEST_GUIDE_NPC",
        "autoGuide": "QUEST_GUIDE_AUTO_ENABLE",
        "param": [
          "1013"
        ],
        "guideScene": 3,
        "guideStyle": "QUEST_GUIDE_STYLE_TARGET",
        "guideLayer": "QUEST_GUIDE_LAYER_SCENE"
      },
      "guideHint": {
        "param1": ""
      },
      "isRewind": true,
      "versionBegin": "",
      "versionEnd": ""
    },
    {
      "subId": 4005714,
      "mainId": 40057,
      "order": 14,
      "descTextMapHash": 1409302260,
      "stepDescTextMapHash": 621189261,
      "GMKDJFPEFFF": [
        320905
      ],
      "finishCond": [
        {
          "KPGKDHAFHFE": "QUEST_CONTENT_COMPLETE_TALK",
          "param": [
            4005707,
            0
          ]
        }
      ],
      "guide": {
        "KPGKDHAFHFE": "QUEST_GUIDE_NPC",
        "autoGuide": "QUEST_GUIDE_AUTO_ENABLE",
        "param": [
          "1032"
        ],
        "guideScene": 3,
        "guideStyle": "QUEST_GUIDE_STYLE_TARGET",
        "guideLayer": "QUEST_GUIDE_LAYER_SCENE"
      },
      "guideHint": {
        "param1": ""
      },
      "finishParent": true,
      "isRewind": true,
      "finishExec": [
        {
          "KPGKDHAFHFE": "QUEST_EXEC_SET_QUEST_GLOBAL_VAR",
          "param": [
            "4005714",
            "1"
          ]
        }
      ],
      "versionBegin": "",
      "versionEnd": ""
    }
  ],
  "talks": [
    {
      "id": 4005701,
      "beginWay": "TALK_BEGIN_MANUAL",
      "beginCond": [
        {
          "type": "QUEST_COND_STATE_EQUAL",
          "_param": [
            "4005703",
            "2"
          ]
        }
      ],
      "priority": 5,
      "initDialog": 400570101,
      "npcId": [
        1032
      ],
      "performCfg": "QuestDialogue/EQ/RongCaiJi_40057/Q4005701",
      "heroTalk": "TALK_HERO_MAIN",
      "questId": 40057,
      "assetIndex": 16884901272092642466,
      "prePerformCfg": ""
    },
    {
      "id": 4005702,
      "beginWay": "TALK_BEGIN_MANUAL",
      "beginCond": [
        {
          "type": "QUEST_COND_STATE_EQUAL",
          "_param": [
            "4005704",
            "2"
          ]
        }
      ],
      "priority": 5,
      "initDialog": 400570201,
      "npcId": [
        1018
      ],
      "performCfg": "QuestDialogue/EQ/RongCaiJi_40057/Q4005702",
      "heroTalk": "TALK_HERO_MAIN",
      "questId": 40057,
      "assetIndex": 13904070990322231507,
      "prePerformCfg": ""
    },
    {
      "id": 4005703,
      "beginWay": "TALK_BEGIN_MANUAL",
      "beginCond": [
        {
          "type": "QUEST_COND_STATE_EQUAL",
          "_param": [
            "4005706",
            "2"
          ]
        }
      ],
      "priority": 5,
      "initDialog": 400570301,
      "npcId": [
        10045
      ],
      "performCfg": "QuestDialogue/EQ/RongCaiJi_40057/Q4005703",
      "heroTalk": "TALK_HERO_MAIN",
      "questId": 40057,
      "assetIndex": 1375357998410725969,
      "prePerformCfg": ""
    },
    {
      "id": 4005704,
      "beginWay": "TALK_BEGIN_MANUAL",
      "beginCond": [
        {
          "type": "QUEST_COND_STATE_EQUAL",
          "_param": [
            "4005708",
            "2"
          ]
        }
      ],
      "priority": 5,
      "initDialog": 400570401,
      "npcId": [
        1013
      ],
      "performCfg": "QuestDialogue/EQ/RongCaiJi_40057/Q4005704",
      "heroTalk": "TALK_HERO_MAIN",
      "questId": 40057,
      "assetIndex": 4754324524939082085,
      "prePerformCfg": ""
    },
    {
      "id": 4005705,
      "beginWay": "TALK_BEGIN_MANUAL",
      "beginCond": [
        {
          "type": "QUEST_COND_STATE_EQUAL",
          "_param": [
            "4005710",
            "2"
          ]
        }
      ],
      "priority": 5,
      "initDialog": 400570501,
      "npcId": [
        1013
      ],
      "performCfg": "QuestDialogue/EQ/RongCaiJi_40057/Q4005705",
      "heroTalk": "TALK_HERO_MAIN",
      "questId": 40057,
      "assetIndex": 8546301552581642146,
      "prePerformCfg": ""
    },
    {
      "id": 4005706,
      "beginWay": "TALK_BEGIN_MANUAL",
      "beginCond": [
        {
          "type": "QUEST_COND_STATE_EQUAL",
          "_param": [
            "4005713",
            "2"
          ]
        }
      ],
      "priority": 5,
      "initDialog": 400570601,
      "npcId": [
        1013
      ],
      "performCfg": "QuestDialogue/EQ/RongCaiJi_40057/Q4005706",
      "heroTalk": "TALK_HERO_MAIN",
      "questId": 40057,
      "assetIndex": 12017096079899678271,
      "prePerformCfg": ""
    },
    {
      "id": 4005707,
      "beginWay": "TALK_BEGIN_MANUAL",
      "beginCond": [
        {
          "type": "QUEST_COND_STATE_EQUAL",
          "_param": [
            "4005714",
            "2"
          ]
        }
      ],
      "priority": 5,
      "initDialog": 400570701,
      "npcId": [
        1032
      ],
      "performCfg": "QuestDialogue/EQ/RongCaiJi_40057/Q4005707",
      "heroTalk": "TALK_HERO_MAIN",
      "questId": 40057,
      "assetIndex": 8359108154878319958,
      "prePerformCfg": ""
    },
    {
      "id": 4005751,
      "beginWay": "TALK_BEGIN_MANUAL",
      "beginCond": [
        {
          "type": "QUEST_COND_STATE_EQUAL",
          "_param": [
            "4005707",
            "2"
          ]
        }
      ],
      "priority": 5,
      "initDialog": 400575101,
      "npcId": [
        3000,
        30139,
        3190
      ],
      "performCfg": "QuestDialogue/EQ/RongCaiJi_40057/Q4005751",
      "heroTalk": "TALK_HERO_MAIN",
      "questId": 40057,
      "assetIndex": 11690483789761733937,
      "prePerformCfg": ""
    }
  ],
  "preloadLuaList": [
    3088369788188086520,
    8718518028778070228,
    10041730751421426575,
    7435505314354846340,
    6128184569766593384,
    8235147704290114111,
    13420795211839323473,
    14778779892047365066,
    17980481872504423321
  ],
  "forcePreloadLuaList": [
    8826283524228178336
  ],
  "freeStyleDic": {
    "1032": [
      1280
    ],
    "1018": [
      1190
    ]
  }
}