{
  "id": 40056,
  "resId": 4011,
  "series": 10066,
  "KPGKDHAFHFE": "EQ",
  "titleTextMapHash": 3439854503,
  "luaPath": "Actor/Quest/EQ40056",
  "suggestTrackMainQuestList": [
    40057
  ],
  "rewardIdList": [
    140056
  ],
  "chapterId": 10066,
  "showRedPoint": true,
  "activityId": 2012,
  "subQuests": [
    {
      "subId": 4005601,
      "mainId": 40056,
      "order": 1,
      "descTextMapHash": 1629689420,
      "stepDescTextMapHash": 4204822781,
      "finishCond": [
        {
          "KPGKDHAFHFE": "QUEST_CONTENT_GAME_TIME_TICK",
          "param": [
            1,
            0
          ]
        }
      ],
      "guide": {},
      "guideHint": {
        "param1": ""
      },
      "isRewind": true,
      "versionBegin": "",
      "versionEnd": ""
    },
    {
      "subId": 4005602,
      "mainId": 40056,
      "order": 2,
      "descTextMapHash": 756635996,
      "stepDescTextMapHash": 2803658261,
      "finishCond": [
        {
          "KPGKDHAFHFE": "QUEST_CONTENT_FINISH_PLOT",
          "param": [
            4005602,
            0
          ]
        }
      ],
      "guide": {
        "KPGKDHAFHFE": "QUEST_GUIDE_LOCATION",
        "autoGuide": "QUEST_GUIDE_AUTO_ENABLE",
        "param": [
          "Q4005501_MaTou01"
        ],
        "guideScene": 3,
        "guideStyle": "QUEST_GUIDE_STYLE_POINT",
        "guideLayer": "QUEST_GUIDE_LAYER_SCENE"
      },
      "guideHint": {
        "param1": ""
      },
      "isRewind": true,
      "versionBegin": "",
      "versionEnd": ""
    },
    {
      "subId": 4005603,
      "mainId": 40056,
      "order": 3,
      "descTextMapHash": 779228604,
      "stepDescTextMapHash": 3392364197,
      "finishCond": [
        {
          "KPGKDHAFHFE": "QUEST_CONTENT_COMPLETE_TALK",
          "param": [
            4005601,
            0
          ]
        }
      ],
      "guide": {
        "KPGKDHAFHFE": "QUEST_GUIDE_NPC",
        "autoGuide": "QUEST_GUIDE_AUTO_ENABLE",
        "param": [
          "1627"
        ],
        "guideScene": 3,
        "guideStyle": "QUEST_GUIDE_STYLE_TARGET",
        "guideLayer": "QUEST_GUIDE_LAYER_SCENE"
      },
      "guideHint": {
        "param1": ""
      },
      "versionBegin": "",
      "versionEnd": ""
    },
    {
      "subId": 4005604,
      "mainId": 40056,
      "order": 4,
      "descTextMapHash": 942202404,
      "stepDescTextMapHash": 3916863781,
      "GMKDJFPEFFF": [
        320905
      ],
      "finishCond": [
        {
          "KPGKDHAFHFE": "QUEST_CONTENT_COMPLETE_TALK",
          "param": [
            4005602,
            0
          ]
        }
      ],
      "guide": {
        "KPGKDHAFHFE": "QUEST_GUIDE_NPC",
        "autoGuide": "QUEST_GUIDE_AUTO_ENABLE",
        "param": [
          "1018"
        ],
        "guideScene": 3,
        "guideStyle": "QUEST_GUIDE_STYLE_TARGET",
        "guideLayer": "QUEST_GUIDE_LAYER_SCENE"
      },
      "guideHint": {
        "param1": ""
      },
      "isRewind": true,
      "finishExec": [
        {
          "KPGKDHAFHFE": "QUEST_EXEC_UNREGISTER_DYNAMIC_GROUP",
          "param": [
            "133209070"
          ]
        }
      ],
      "versionBegin": "",
      "versionEnd": ""
    },
    {
      "subId": 4005605,
      "mainId": 40056,
      "order": 5,
      "descTextMapHash": 2836831180,
      "stepDescTextMapHash": 2761693925,
      "GMKDJFPEFFF": [
        4005605,
        106601
      ],
      "finishCond": [
        {
          "KPGKDHAFHFE": "QUEST_CONTENT_FINISH_PLOT",
          "param": [
            4005605,
            0
          ]
        }
      ],
      "guide": {
        "KPGKDHAFHFE": "QUEST_GUIDE_LOCATION",
        "autoGuide": "QUEST_GUIDE_AUTO_ENABLE",
        "param": [
          "Q4005707_OutSideWuYouTing"
        ],
        "guideScene": 3,
        "guideStyle": "QUEST_GUIDE_STYLE_POINT",
        "guideLayer": "QUEST_GUIDE_LAYER_SCENE"
      },
      "guideHint": {
        "param1": ""
      },
      "isRewind": true,
      "versionBegin": "",
      "versionEnd": ""
    },
    {
      "subId": 4005606,
      "mainId": 40056,
      "order": 13,
      "isMpBlock": true,
      "descTextMapHash": 1098494676,
      "stepDescTextMapHash": 1304502629,
      "GMKDJFPEFFF": [
        106601
      ],
      "finishCond": [
        {
          "KPGKDHAFHFE": "QUEST_CONTENT_COMPLETE_TALK",
          "param": [
            4005623,
            0
          ]
        }
      ],
      "guide": {
        "KPGKDHAFHFE": "QUEST_GUIDE_NPC",
        "autoGuide": "QUEST_GUIDE_AUTO_ENABLE",
        "param": [
          "10045"
        ],
        "guideScene": 1066,
        "guideStyle": "QUEST_GUIDE_STYLE_TARGET",
        "guideLayer": "QUEST_GUIDE_LAYER_SCENE"
      },
      "guideHint": {
        "param1": ""
      },
      "isRewind": true,
      "versionBegin": "",
      "versionEnd": ""
    },
    {
      "subId": 4005607,
      "mainId": 40056,
      "order": 14,
      "descTextMapHash": 3577707572,
      "stepDescTextMapHash": 1831464453,
      "GMKDJFPEFFF": [
        4005607
      ],
      "finishCond": [
        {
          "KPGKDHAFHFE": "QUEST_CONTENT_FINISH_PLOT",
          "param": [
            4005607,
            0
          ]
        }
      ],
      "guide": {
        "KPGKDHAFHFE": "QUEST_GUIDE_LOCATION",
        "autoGuide": "QUEST_GUIDE_AUTO_ENABLE",
        "param": [
          "Q4005607_TingFengXing",
          "6"
        ],
        "guideScene": 3,
        "guideLayer": "QUEST_GUIDE_LAYER_SCENE"
      },
      "guideHint": {
        "param1": ""
      },
      "isRewind": true,
      "finishExec": [
        {
          "KPGKDHAFHFE": "QUEST_EXEC_REFRESH_GROUP_SUITE",
          "param": [
            "1066",
            "201066001,1"
          ]
        }
      ],
      "versionBegin": "",
      "versionEnd": ""
    },
    {
      "subId": 4005608,
      "mainId": 40056,
      "order": 15,
      "descTextMapHash": 1369501844,
      "stepDescTextMapHash": 3564442677,
      "GMKDJFPEFFF": [
        4005607
      ],
      "finishCond": [
        {
          "KPGKDHAFHFE": "QUEST_CONTENT_COMPLETE_TALK",
          "param": [
            4005608,
            0
          ]
        }
      ],
      "guide": {
        "KPGKDHAFHFE": "QUEST_GUIDE_NPC",
        "autoGuide": "QUEST_GUIDE_AUTO_ENABLE",
        "param": [
          "1038"
        ],
        "guideScene": 3,
        "guideStyle": "QUEST_GUIDE_STYLE_TARGET",
        "guideLayer": "QUEST_GUIDE_LAYER_SCENE"
      },
      "guideHint": {
        "param1": ""
      },
      "isRewind": true,
      "versionBegin": "",
      "versionEnd": ""
    },
    {
      "subId": 4005609,
      "mainId": 40056,
      "order": 18,
      "isMpBlock": true,
      "descTextMapHash": 1808451988,
      "stepDescTextMapHash": 3302063341,
      "showType": "QUEST_HIDDEN",
      "finishCond": [
        {
          "KPGKDHAFHFE": "QUEST_CONTENT_FINISH_PLOT",
          "param": [
            4005609,
            0
          ]
        }
      ],
      "guide": {},
      "guideHint": {
        "param1": ""
      },
      "versionBegin": "",
      "versionEnd": ""
    },
    {
      "subId": 4005610,
      "mainId": 40056,
      "order": 20,
      "descTextMapHash": 3113747516,
      "stepDescTextMapHash": 3146420141,
      "GMKDJFPEFFF": [
        320905
      ],
      "finishCond": [
        {
          "KPGKDHAFHFE": "QUEST_CONTENT_COMPLETE_TALK",
          "param": [
            4005615,
            0
          ]
        }
      ],
      "guide": {
        "KPGKDHAFHFE": "QUEST_GUIDE_NPC",
        "autoGuide": "QUEST_GUIDE_AUTO_ENABLE",
        "param": [
          "1005"
        ],
        "guideScene": 3,
        "guideStyle": "QUEST_GUIDE_STYLE_TARGET",
        "guideLayer": "QUEST_GUIDE_LAYER_SCENE"
      },
      "guideHint": {
        "param1": ""
      },
      "finishParent": true,
      "finishExec": [
        {
          "KPGKDHAFHFE": "QUEST_EXEC_SET_QUEST_GLOBAL_VAR",
          "param": [
            "4005610",
            "1"
          ]
        },
        {
          "KPGKDHAFHFE": "QUEST_EXEC_SET_IS_GAME_TIME_LOCKED",
          "param": [
            "0"
          ]
        }
      ],
      "versionBegin": "",
      "versionEnd": ""
    },
    {
      "subId": 4005612,
      "mainId": 40056,
      "order": 6,
      "descTextMapHash": 2449362420,
      "stepDescTextMapHash": 3798480213,
      "GMKDJFPEFFF": [
        4005605,
        106601
      ],
      "finishCond": [
        {
          "KPGKDHAFHFE": "QUEST_CONTENT_COMPLETE_TALK",
          "param": [
            4005603,
            0
          ]
        }
      ],
      "guide": {
        "KPGKDHAFHFE": "QUEST_GUIDE_NPC",
        "autoGuide": "QUEST_GUIDE_AUTO_ENABLE",
        "param": [
          "1018"
        ],
        "guideScene": 3,
        "guideStyle": "QUEST_GUIDE_STYLE_TARGET",
        "guideLayer": "QUEST_GUIDE_LAYER_SCENE"
      },
      "guideHint": {
        "param1": ""
      },
      "versionBegin": "",
      "versionEnd": ""
    },
    {
      "subId": 4005613,
      "mainId": 40056,
      "order": 7,
      "descTextMapHash": 1371546596,
      "stepDescTextMapHash": 2467930549,
      "GMKDJFPEFFF": [
        106601
      ],
      "finishCond": [
        {
          "KPGKDHAFHFE": "QUEST_CONTENT_FINISH_PLOT",
          "param": [
            4005613,
            0
          ]
        }
      ],
      "guide": {
        "KPGKDHAFHFE": "QUEST_GUIDE_LOCATION",
        "autoGuide": "QUEST_GUIDE_AUTO_ENABLE",
        "param": [
          "Q4005605_guide"
        ],
        "guideScene": 1066,
        "guideStyle": "QUEST_GUIDE_STYLE_POINT",
        "guideLayer": "QUEST_GUIDE_LAYER_SCENE"
      },
      "guideHint": {
        "param1": ""
      },
      "isRewind": true,
      "versionBegin": "",
      "versionEnd": ""
    },
    {
      "subId": 4005614,
      "mainId": 40056,
      "order": 8,
      "subIdSet": 1,
      "descTextMapHash": 2189306700,
      "stepDescTextMapHash": 348856013,
      "GMKDJFPEFFF": [
        106601
      ],
      "finishCond": [
        {
          "KPGKDHAFHFE": "QUEST_CONTENT_COMPLETE_TALK",
          "param": [
            4005604,
            0
          ]
        }
      ],
      "guide": {
        "KPGKDHAFHFE": "QUEST_GUIDE_NPC",
        "autoGuide": "QUEST_GUIDE_AUTO_ENABLE",
        "param": [
          "3007"
        ],
        "guideScene": 1066,
        "guideStyle": "QUEST_GUIDE_STYLE_TARGET",
        "guideLayer": "QUEST_GUIDE_LAYER_SCENE"
      },
      "guideHint": {
        "param1": ""
      },
      "finishExec": [
        {
          "KPGKDHAFHFE": "QUEST_EXEC_ADD_QUEST_PROGRESS",
          "param": [
            "4005617",
            "1"
          ]
        }
      ],
      "versionBegin": "",
      "versionEnd": ""
    },
    {
      "subId": 4005615,
      "mainId": 40056,
      "order": 9,
      "subIdSet": 1,
      "descTextMapHash": 3569385084,
      "stepDescTextMapHash": 2927371821,
      "GMKDJFPEFFF": [
        106601
      ],
      "finishCond": [
        {
          "KPGKDHAFHFE": "QUEST_CONTENT_COMPLETE_TALK",
          "param": [
            4005605,
            0
          ]
        }
      ],
      "guide": {
        "KPGKDHAFHFE": "QUEST_GUIDE_NPC",
        "autoGuide": "QUEST_GUIDE_AUTO_ENABLE",
        "param": [
          "30156"
        ],
        "guideScene": 1066,
        "guideStyle": "QUEST_GUIDE_STYLE_TARGET",
        "guideLayer": "QUEST_GUIDE_LAYER_SCENE"
      },
      "guideHint": {
        "param1": ""
      },
      "finishExec": [
        {
          "KPGKDHAFHFE": "QUEST_EXEC_ADD_QUEST_PROGRESS",
          "param": [
            "4005617",
            "1"
          ]
        }
      ],
      "versionBegin": "",
      "versionEnd": ""
    },
    {
      "subId": 4005616,
      "mainId": 40056,
      "order": 10,
      "subIdSet": 1,
      "descTextMapHash": 594806604,
      "stepDescTextMapHash": 595352837,
      "GMKDJFPEFFF": [
        106601
      ],
      "finishCond": [
        {
          "KPGKDHAFHFE": "QUEST_CONTENT_COMPLETE_TALK",
          "param": [
            4005606,
            0
          ]
        }
      ],
      "guide": {
        "KPGKDHAFHFE": "QUEST_GUIDE_NPC",
        "autoGuide": "QUEST_GUIDE_AUTO_ENABLE",
        "param": [
          "1018"
        ],
        "guideScene": 1066,
        "guideStyle": "QUEST_GUIDE_STYLE_TARGET",
        "guideLayer": "QUEST_GUIDE_LAYER_SCENE"
      },
      "guideHint": {
        "param1": ""
      },
      "finishExec": [
        {
          "KPGKDHAFHFE": "QUEST_EXEC_ADD_QUEST_PROGRESS",
          "param": [
            "4005617",
            "1"
          ]
        }
      ],
      "versionBegin": "",
      "versionEnd": ""
    },
    {
      "subId": 4005617,
      "mainId": 40056,
      "order": 11,
      "descTextMapHash": 509554324,
      "showType": "QUEST_HIDDEN",
      "GMKDJFPEFFF": [
        106601
      ],
      "finishCond": [
        {
          "KPGKDHAFHFE": "QUEST_CONTENT_ADD_QUEST_PROGRESS",
          "param": [
            4005617,
            0
          ],
          "count": 3
        }
      ],
      "guide": {},
      "guideHint": {
        "param1": ""
      },
      "finishExec": [
        {
          "KPGKDHAFHFE": "QUEST_EXEC_ADD_QUEST_PROGRESS",
          "param": [
            "4005618",
            "1"
          ]
        }
      ],
      "versionBegin": "",
      "versionEnd": ""
    },
    {
      "subId": 4005618,
      "mainId": 40056,
      "order": 12,
      "descTextMapHash": 3133814708,
      "showType": "QUEST_HIDDEN",
      "GMKDJFPEFFF": [
        106601
      ],
      "finishCond": [
        {
          "KPGKDHAFHFE": "QUEST_CONTENT_ADD_QUEST_PROGRESS",
          "param": [
            4005618,
            0
          ],
          "count": 1
        }
      ],
      "guide": {},
      "guideHint": {
        "param1": ""
      },
      "isRewind": true,
      "finishExec": [
        {
          "KPGKDHAFHFE": "QUEST_EXEC_REFRESH_GROUP_SUITE",
          "param": [
            "1066",
            "201066001,4"
          ]
        }
      ],
      "versionBegin": "",
      "versionEnd": ""
    },
    {
      "subId": 4005619,
      "mainId": 40056,
      "order": 16,
      "descTextMapHash": 1310946204,
      "stepDescTextMapHash": 4251728733,
      "GMKDJFPEFFF": [
        72279
      ],
      "finishCond": [
        {
          "KPGKDHAFHFE": "QUEST_CONTENT_FINISH_PLOT",
          "param": [
            4005619,
            0
          ]
        }
      ],
      "guide": {
        "KPGKDHAFHFE": "QUEST_GUIDE_LOCATION",
        "autoGuide": "QUEST_GUIDE_AUTO_ENABLE",
        "param": [
          "Q4005505_guide_YuanGuoJianSi"
        ],
        "guideScene": 3,
        "guideStyle": "QUEST_GUIDE_STYLE_POINT",
        "guideLayer": "QUEST_GUIDE_LAYER_SCENE"
      },
      "guideHint": {
        "param1": ""
      },
      "isRewind": true,
      "versionBegin": "",
      "versionEnd": ""
    },
    {
      "subId": 4005620,
      "mainId": 40056,
      "order": 17,
      "descTextMapHash": 3028885892,
      "stepDescTextMapHash": 2471384861,
      "GMKDJFPEFFF": [
        72279
      ],
      "finishCond": [
        {
          "KPGKDHAFHFE": "QUEST_CONTENT_COMPLETE_TALK",
          "param": [
            4005609,
            0
          ]
        }
      ],
      "guide": {
        "KPGKDHAFHFE": "QUEST_GUIDE_NPC",
        "autoGuide": "QUEST_GUIDE_AUTO_ENABLE",
        "param": [
          "3000"
        ],
        "guideScene": 3,
        "guideStyle": "QUEST_GUIDE_STYLE_TARGET",
        "guideLayer": "QUEST_GUIDE_LAYER_SCENE"
      },
      "guideHint": {
        "param1": ""
      },
      "versionBegin": "",
      "versionEnd": ""
    },
    {
      "subId": 4005621,
      "mainId": 40056,
      "order": 19,
      "descTextMapHash": 2582632252,
      "stepDescTextMapHash": 3857527133,
      "GMKDJFPEFFF": [
        320905
      ],
      "finishCond": [
        {
          "KPGKDHAFHFE": "QUEST_CONTENT_FINISH_PLOT",
          "param": [
            4005621,
            0
          ]
        }
      ],
      "guide": {
        "KPGKDHAFHFE": "QUEST_GUIDE_LOCATION",
        "autoGuide": "QUEST_GUIDE_AUTO_ENABLE",
        "param": [
          "Q4005403_guide_WuGeXianGuangChang",
          "10"
        ],
        "guideScene": 3,
        "guideLayer": "QUEST_GUIDE_LAYER_SCENE"
      },
      "guideHint": {
        "param1": ""
      },
      "isRewind": true,
      "finishExec": [
        {
          "KPGKDHAFHFE": "QUEST_EXEC_SET_IS_GAME_TIME_LOCKED",
          "param": [
            "1"
          ]
        },
        {
          "KPGKDHAFHFE": "QUEST_EXEC_SET_GAME_TIME",
          "param": [
            "23"
          ]
        }
      ],
      "versionBegin": "",
      "versionEnd": ""
    },
    {
      "subId": 4005622,
      "mainId": 40056,
      "order": 21,
      "descTextMapHash": 968518348,
      "showType": "QUEST_HIDDEN",
      "finishCond": [
        {
          "KPGKDHAFHFE": "QUEST_CONTENT_QUEST_STATE_EQUAL",
          "param": [
            4005610,
            3
          ]
        }
      ],
      "failCond": [
        {
          "KPGKDHAFHFE": "QUEST_CONTENT_LEAVE_SCENE_RANGE",
          "param": [
            3,
            20
          ]
        }
      ],
      "guide": {},
      "guideHint": {
        "param1": ""
      },
      "failExec": [
        {
          "KPGKDHAFHFE": "QUEST_EXEC_ROLLBACK_QUEST",
          "param": [
            "4005619"
          ]
        },
        {
          "KPGKDHAFHFE": "QUEST_EXEC_SET_IS_GAME_TIME_LOCKED",
          "param": [
            "0"
          ]
        }
      ],
      "versionBegin": "",
      "versionEnd": ""
    }
  ],
  "talks": [
    {
      "id": 4005601,
      "beginWay": "TALK_BEGIN_MANUAL",
      "beginCond": [
        {
          "type": "QUEST_COND_STATE_EQUAL",
          "_param": [
            "4005603",
            "2"
          ]
        }
      ],
      "priority": 5,
      "initDialog": 400560101,
      "npcId": [
        1627
      ],
      "performCfg": "QuestDialogue/EQ/RongCaiJi_40056/Q4005601",
      "heroTalk": "TALK_HERO_MAIN",
      "questId": 40056,
      "assetIndex": 1211899556968014702,
      "prePerformCfg": ""
    },
    {
      "id": 4005602,
      "beginWay": "TALK_BEGIN_AUTO",
      "beginCond": [
        {
          "type": "QUEST_COND_STATE_EQUAL",
          "_param": [
            "4005604",
            "2"
          ]
        }
      ],
      "priority": 5,
      "initDialog": 400560201,
      "npcId": [
        1018
      ],
      "performCfg": "QuestDialogue/EQ/RongCaiJi_40056/Q4005602",
      "heroTalk": "TALK_HERO_MAIN",
      "questId": 40056,
      "assetIndex": 9134785190634402280,
      "prePerformCfg": ""
    },
    {
      "id": 4005603,
      "beginWay": "TALK_BEGIN_MANUAL",
      "beginCond": [
        {
          "type": "QUEST_COND_STATE_EQUAL",
          "_param": [
            "4005612",
            "2"
          ]
        }
      ],
      "priority": 5,
      "initDialog": 400560301,
      "npcId": [
        1018
      ],
      "performCfg": "QuestDialogue/EQ/RongCaiJi_40056/Q4005603",
      "heroTalk": "TALK_HERO_MAIN",
      "questId": 40056,
      "assetIndex": 3498088871418524209,
      "prePerformCfg": ""
    },
    {
      "id": 4005604,
      "beginWay": "TALK_BEGIN_MANUAL",
      "beginCond": [
        {
          "type": "QUEST_COND_STATE_EQUAL",
          "_param": [
            "4005614",
            "2"
          ]
        }
      ],
      "priority": 5,
      "initDialog": 400560401,
      "npcId": [
        3007
      ],
      "performCfg": "QuestDialogue/EQ/RongCaiJi_40056/Q4005604",
      "heroTalk": "TALK_HERO_MAIN",
      "questId": 40056,
      "assetIndex": 15785548641983215901,
      "prePerformCfg": ""
    },
    {
      "id": 4005605,
      "beginWay": "TALK_BEGIN_MANUAL",
      "beginCond": [
        {
          "type": "QUEST_COND_STATE_EQUAL",
          "_param": [
            "4005615",
            "2"
          ]
        }
      ],
      "priority": 5,
      "initDialog": 400560501,
      "npcId": [
        30156,
        30157
      ],
      "performCfg": "QuestDialogue/EQ/RongCaiJi_40056/Q4005605",
      "heroTalk": "TALK_HERO_MAIN",
      "questId": 40056,
      "assetIndex": 15936826759048627324,
      "prePerformCfg": ""
    },
    {
      "id": 4005606,
      "beginWay": "TALK_BEGIN_MANUAL",
      "beginCond": [
        {
          "type": "QUEST_COND_STATE_EQUAL",
          "_param": [
            "4005616",
            "2"
          ]
        }
      ],
      "priority": 5,
      "initDialog": 400560601,
      "npcId": [
        1018
      ],
      "performCfg": "QuestDialogue/EQ/RongCaiJi_40056/Q4005606",
      "heroTalk": "TALK_HERO_MAIN",
      "questId": 40056,
      "assetIndex": 6448635704736373354,
      "prePerformCfg": ""
    },
    {
      "id": 4005607,
      "beginWay": "TALK_BEGIN_MANUAL",
      "beginCond": [
        {
          "type": "QUEST_COND_STATE_EQUAL",
          "_param": [
            "4005606",
            "2"
          ]
        }
      ],
      "priority": 5,
      "nextTalks": [
        4005621,
        4005622,
        4005623
      ],
      "initDialog": 400560701,
      "npcId": [
        10045
      ],
      "performCfg": "QuestDialogue/EQ/RongCaiJi_40056/Q4005607",
      "heroTalk": "TALK_HERO_MAIN",
      "questId": 40056,
      "assetIndex": 17012129336567711468,
      "prePerformCfg": ""
    },
    {
      "id": 4005608,
      "beginWay": "TALK_BEGIN_MANUAL",
      "beginCond": [
        {
          "type": "QUEST_COND_STATE_EQUAL",
          "_param": [
            "4005608",
            "2"
          ]
        }
      ],
      "priority": 5,
      "initDialog": 400560801,
      "npcId": [
        1038
      ],
      "performCfg": "QuestDialogue/EQ/RongCaiJi_40056/Q4005608",
      "heroTalk": "TALK_HERO_MAIN",
      "questId": 40056,
      "assetIndex": 837751814094429658,
      "prePerformCfg": ""
    },
    {
      "id": 4005609,
      "beginWay": "TALK_BEGIN_MANUAL",
      "beginCond": [
        {
          "type": "QUEST_COND_STATE_EQUAL",
          "_param": [
            "4005620",
            "2"
          ]
        }
      ],
      "priority": 5,
      "initDialog": 400560901,
      "npcId": [
        3000
      ],
      "performCfg": "QuestDialogue/EQ/RongCaiJi_40056/Q4005609",
      "heroTalk": "TALK_HERO_MAIN",
      "questId": 40056,
      "assetIndex": 10293498175072458406,
      "prePerformCfg": ""
    },
    {
      "id": 4005615,
      "beginWay": "TALK_BEGIN_MANUAL",
      "beginCond": [
        {
          "type": "QUEST_COND_STATE_EQUAL",
          "_param": [
            "4005610",
            "2"
          ]
        }
      ],
      "priority": 5,
      "initDialog": 400561501,
      "npcId": [
        1005
      ],
      "performCfg": "QuestDialogue/EQ/RongCaiJi_40056/Q4005615",
      "heroTalk": "TALK_HERO_MAIN",
      "questId": 40056,
      "assetIndex": 16203928298057472496,
      "prePerformCfg": ""
    },
    {
      "id": 4005621,
      "beginCondComb": "LOGIC_AND",
      "beginCond": [
        {
          "type": "QUEST_COND_STATE_EQUAL",
          "_param": [
            "4005606",
            "2"
          ]
        },
        {
          "type": "QUEST_COND_QUEST_VAR_EQUAL",
          "_param": [
            "1",
            "0",
            "40056"
          ]
        }
      ],
      "priority": 5,
      "nextTalks": [
        4005622,
        4005623
      ],
      "initDialog": 400560706,
      "npcId": [
        10045
      ],
      "performCfg": "QuestDialogue/EQ/RongCaiJi_40056/Q4005621",
      "heroTalk": "TALK_HERO_MAIN",
      "questId": 40056,
      "assetIndex": 4784692525394263037,
      "prePerformCfg": "",
      "finishExec": [
        {
          "KPGKDHAFHFE": "TALK_EXEC_SET_QUEST_VAR",
          "param": [
            "1",
            "1",
            "40056"
          ]
        }
      ]
    },
    {
      "id": 4005622,
      "beginCondComb": "LOGIC_AND",
      "beginCond": [
        {
          "type": "QUEST_COND_STATE_EQUAL",
          "_param": [
            "4005606",
            "2"
          ]
        },
        {
          "type": "QUEST_COND_QUEST_VAR_EQUAL",
          "_param": [
            "2",
            "0",
            "40056"
          ]
        }
      ],
      "priority": 5,
      "nextTalks": [
        4005621,
        4005623
      ],
      "initDialog": 400560711,
      "npcId": [
        10045
      ],
      "performCfg": "QuestDialogue/EQ/RongCaiJi_40056/Q4005622",
      "heroTalk": "TALK_HERO_MAIN",
      "questId": 40056,
      "assetIndex": 16434453327285403626,
      "prePerformCfg": "",
      "finishExec": [
        {
          "KPGKDHAFHFE": "TALK_EXEC_SET_QUEST_VAR",
          "param": [
            "2",
            "1",
            "40056"
          ]
        }
      ]
    },
    {
      "id": 4005623,
      "beginCond": [
        {
          "type": "QUEST_COND_STATE_EQUAL",
          "_param": [
            "4005606",
            "2"
          ]
        }
      ],
      "priority": 5,
      "initDialog": 400560717,
      "npcId": [
        10045
      ],
      "performCfg": "QuestDialogue/EQ/RongCaiJi_40056/Q4005623",
      "heroTalk": "TALK_HERO_MAIN",
      "questId": 40056,
      "assetIndex": 2995740528593238354,
      "prePerformCfg": ""
    }
  ],
  "preloadLuaList": [
    3088369788188086520,
    14457059026087496718,
    9168649879542186009,
    5646509793720966340,
    14142783948680670283,
    15288818021807833478,
    2340308669081036894,
    11188300525080852152,
    17823905636161189531,
    15110744138974337460
  ],
  "forcePreloadLuaList": [
    12195114069800212880
  ],
  "freeStyleDic": {
    "1018": [
      1190
    ],
    "30156": [
      0
    ],
    "30157": [
      0
    ]
  }
}