{
  "id": 4011,
  "resId": 1022,
  "series": 4011,
  "titleTextMapHash": 3264800815,
  "descTextMapHash": 3764035446,
  "luaPath": "Actor/Quest/AQ4011",
  "suggestTrackMainQuestList": [
    4012
  ],
  "rewardIdList": [
    104011
  ],
  "chapterId": 1403,
  "subQuests": [
    {
      "subId": 401101,
      "mainId": 4011,
      "order": 1,
      "descTextMapHash": 1354020604,
      "GMKDJFPEFFF": [
        340124
      ],
      "finishCond": [
        {
          "KPGKDHAFHFE": "QUEST_CONTENT_COMPLETE_TALK",
          "param": [
            401101,
            0
          ]
        }
      ],
      "guide": {
        "KPGKDHAFHFE": "QUEST_GUIDE_LOCATION",
        "param": [
          "[3_340100268:3474.083,283.270,4554.399]"
        ],
        "guideScene": 3,
        "guideStyle": "QUEST_GUIDE_STYLE_POINT",
        "guideLayer": "QUEST_GUIDE_LAYER_SCENE"
      },
      "guideHint": {
        "param1": ""
      },
      "isRewind": true,
      "versionBegin": "",
      "versionEnd": ""
    },
    {
      "subId": 401102,
      "mainId": 4011,
      "order": 2,
      "descTextMapHash": 3046103244,
      "GMKDJFPEFFF": [
        340124
      ],
      "finishCond": [
        {
          "KPGKDHAFHFE": "QUEST_CONTENT_COMPLETE_TALK",
          "param": [
            401102,
            0
          ]
        }
      ],
      "guide": {
        "KPGKDHAFHFE": "QUEST_GUIDE_LOCATION",
        "param": [
          "[3_340100205:3480.643,283.324,4551.362,0.000,89.770,0.000]"
        ],
        "guideScene": 3,
        "guideStyle": "QUEST_GUIDE_STYLE_POINT",
        "guideLayer": "QUEST_GUIDE_LAYER_SCENE"
      },
      "guideHint": {
        "param1": ""
      },
      "isRewind": true,
      "versionBegin": "",
      "versionEnd": ""
    },
    {
      "subId": 401103,
      "mainId": 4011,
      "order": 3,
      "descTextMapHash": 160977364,
      "GMKDJFPEFFF": [
        108303,
        340116,
        340212
      ],
      "finishCond": [
        {
          "KPGKDHAFHFE": "QUEST_CONTENT_COMPLETE_TALK",
          "param": [
            401103,
            0
          ]
        }
      ],
      "guide": {
        "KPGKDHAFHFE": "QUEST_GUIDE_NPC",
        "param": [
          "1076"
        ],
        "guideScene": 1083,
        "guideStyle": "QUEST_GUIDE_STYLE_TARGET",
        "guideLayer": "QUEST_GUIDE_LAYER_SCENE"
      },
      "guideHint": {
        "param1": ""
      },
      "isRewind": true,
      "versionBegin": "",
      "versionEnd": ""
    },
    {
      "subId": 401104,
      "mainId": 4011,
      "order": 4,
      "descTextMapHash": 1129494660,
      "GMKDJFPEFFF": [
        108303,
        340116,
        340212
      ],
      "finishCond": [
        {
          "KPGKDHAFHFE": "QUEST_CONTENT_COMPLETE_TALK",
          "param": [
            401104,
            0
          ]
        }
      ],
      "guide": {
        "KPGKDHAFHFE": "QUEST_GUIDE_NPC",
        "param": [
          "1076"
        ],
        "guideScene": 1083,
        "guideStyle": "QUEST_GUIDE_STYLE_TARGET",
        "guideLayer": "QUEST_GUIDE_LAYER_SCENE"
      },
      "guideHint": {
        "param1": ""
      },
      "isRewind": true,
      "finishExec": [
        {
          "KPGKDHAFHFE": "QUEST_EXEC_SET_GAME_TIME",
          "param": [
            "12"
          ]
        },
        {
          "KPGKDHAFHFE": "QUEST_EXEC_UNREGISTER_DYNAMIC_GROUP",
          "param": [
            "201083008"
          ]
        }
      ],
      "versionBegin": "",
      "versionEnd": ""
    },
    {
      "subId": 401105,
      "mainId": 4011,
      "order": 5,
      "descTextMapHash": 858425116,
      "GMKDJFPEFFF": [
        108303,
        340116,
        340212
      ],
      "finishCond": [
        {
          "KPGKDHAFHFE": "QUEST_CONTENT_COMPLETE_TALK",
          "param": [
            401105,
            0
          ]
        }
      ],
      "guide": {
        "KPGKDHAFHFE": "QUEST_GUIDE_LOCATION",
        "param": [
          "[3_340100219:3518.130,421.427,4612.499,0.000,139.710,0.000]"
        ],
        "guideScene": 3,
        "guideStyle": "QUEST_GUIDE_STYLE_POINT",
        "guideLayer": "QUEST_GUIDE_LAYER_SCENE"
      },
      "guideHint": {
        "param1": ""
      },
      "isRewind": true,
      "versionBegin": "",
      "versionEnd": ""
    },
    {
      "subId": 401106,
      "mainId": 4011,
      "order": 6,
      "descTextMapHash": 2814468780,
      "GMKDJFPEFFF": [
        340116,
        340212
      ],
      "finishCond": [
        {
          "KPGKDHAFHFE": "QUEST_CONTENT_COMPLETE_TALK",
          "param": [
            401106,
            0
          ]
        }
      ],
      "guide": {
        "KPGKDHAFHFE": "QUEST_GUIDE_NPC",
        "param": [
          "1076"
        ],
        "guideScene": 3,
        "guideStyle": "QUEST_GUIDE_STYLE_TARGET",
        "guideLayer": "QUEST_GUIDE_LAYER_SCENE"
      },
      "guideHint": {
        "param1": ""
      },
      "isRewind": true,
      "finishExec": [
        {
          "KPGKDHAFHFE": "QUEST_EXEC_UNREGISTER_DYNAMIC_GROUP",
          "param": [
            "133401486"
          ]
        },
        {
          "KPGKDHAFHFE": "QUEST_EXEC_SET_MAP_LAYER_UNLOCK_STATE",
          "param": [
            "3350401",
            "1"
          ]
        }
      ],
      "versionBegin": "",
      "versionEnd": ""
    },
    {
      "subId": 401107,
      "mainId": 4011,
      "order": 8,
      "descTextMapHash": 1048991596,
      "GMKDJFPEFFF": [
        340818,
        340212
      ],
      "finishCond": [
        {
          "KPGKDHAFHFE": "QUEST_CONTENT_FINISH_PLOT",
          "param": [
            401107,
            0
          ]
        }
      ],
      "guide": {
        "KPGKDHAFHFE": "QUEST_GUIDE_LOCATION",
        "param": [
          "[3_340200058:3317.729,323.950,3822.991]"
        ],
        "guideScene": 3,
        "guideStyle": "QUEST_GUIDE_STYLE_POINT",
        "guideLayer": "QUEST_GUIDE_LAYER_SCENE"
      },
      "guideHint": {
        "param1": ""
      },
      "isRewind": true,
      "versionBegin": "",
      "versionEnd": ""
    },
    {
      "subId": 401108,
      "mainId": 4011,
      "order": 9,
      "descTextMapHash": 3411720892,
      "GMKDJFPEFFF": [
        340818,
        340213
      ],
      "finishCond": [
        {
          "KPGKDHAFHFE": "QUEST_CONTENT_COMPLETE_TALK",
          "param": [
            401107,
            0
          ]
        }
      ],
      "guide": {
        "KPGKDHAFHFE": "QUEST_GUIDE_NPC",
        "param": [
          "5271"
        ],
        "guideScene": 3,
        "guideStyle": "QUEST_GUIDE_STYLE_TARGET",
        "guideLayer": "QUEST_GUIDE_LAYER_SCENE"
      },
      "guideHint": {
        "param1": ""
      },
      "isRewind": true,
      "finishExec": [
        {
          "KPGKDHAFHFE": "QUEST_EXEC_UNREGISTER_DYNAMIC_GROUP",
          "param": [
            "133402285"
          ]
        },
        {
          "KPGKDHAFHFE": "QUEST_EXEC_UNHIDE_SCENE_POINT",
          "param": [
            "3",
            "831"
          ]
        },
        {
          "KPGKDHAFHFE": "QUEST_EXEC_UNLOCK_POINT",
          "param": [
            "3",
            "831"
          ]
        }
      ],
      "versionBegin": "",
      "versionEnd": ""
    },
    {
      "subId": 401109,
      "mainId": 4011,
      "order": 11,
      "descTextMapHash": 2218005876,
      "GMKDJFPEFFF": [
        340818,
        340213
      ],
      "finishCond": [
        {
          "KPGKDHAFHFE": "QUEST_CONTENT_FINISH_PLOT",
          "param": [
            401109,
            0
          ]
        }
      ],
      "guide": {
        "KPGKDHAFHFE": "QUEST_GUIDE_LOCATION",
        "param": [
          "[3_340800059:4340.883,347.420,4526.379,0.000,38.020,0.000]",
          "25"
        ],
        "guideScene": 3,
        "guideStyle": "QUEST_GUIDE_STYLE_TARGET",
        "guideLayer": "QUEST_GUIDE_LAYER_SCENE"
      },
      "guideHint": {
        "param1": ""
      },
      "finishParent": true,
      "isRewind": true,
      "finishExec": [
        {
          "KPGKDHAFHFE": "QUEST_EXEC_SET_MAP_LAYER_UNLOCK_STATE",
          "param": [
            "3360101",
            "1"
          ]
        }
      ],
      "versionBegin": "",
      "versionEnd": ""
    },
    {
      "subId": 401110,
      "mainId": 4011,
      "order": 10,
      "showType": "QUEST_HIDDEN",
      "GMKDJFPEFFF": [
        340818,
        340213
      ],
      "finishCond": [
        {
          "KPGKDHAFHFE": "QUEST_CONTENT_FINISH_PLOT",
          "param": [
            401110,
            0
          ]
        }
      ],
      "guide": {},
      "guideHint": {
        "param1": ""
      },
      "finishExec": [
        {
          "KPGKDHAFHFE": "QUEST_EXEC_NOTIFY_GROUP_LUA",
          "param": [
            "3",
            "133402285"
          ]
        }
      ],
      "versionBegin": "",
      "versionEnd": ""
    },
    {
      "subId": 401111,
      "mainId": 4011,
      "order": 7,
      "showType": "QUEST_HIDDEN",
      "finishCond": [
        {
          "KPGKDHAFHFE": "QUEST_CONTENT_FINISH_PLOT",
          "param": [
            401111,
            0
          ]
        },
        {
          "KPGKDHAFHFE": "QUEST_CONTENT_COMPLETE_TALK",
          "param": [
            401106,
            0
          ]
        }
      ],
      "guide": {},
      "guideHint": {
        "param1": ""
      },
      "finishExec": [
        {
          "KPGKDHAFHFE": "QUEST_EXEC_NOTIFY_GROUP_LUA",
          "param": [
            "3",
            "133402188"
          ]
        }
      ],
      "versionBegin": "",
      "versionEnd": ""
    }
  ],
  "talks": [
    {
      "id": 401101,
      "beginWay": "TALK_BEGIN_MANUAL",
      "beginCond": [
        {
          "type": "QUEST_COND_STATE_EQUAL",
          "_param": [
            "401101",
            "2"
          ]
        }
      ],
      "priority": 5,
      "initDialog": 40110101,
      "npcId": [
        13554
      ],
      "performCfg": "QuestDialogue/AQ/Fontaine_4011/Q401101",
      "heroTalk": "TALK_HERO_MAIN",
      "questId": 4011,
      "assetIndex": 1303835861434868282,
      "prePerformCfg": "",
      "PLPFOOINAAJ": [
        "[3_340100331:3473.084,283.268,4552.314]",
        "[3_340100332:3472.534,283.260,4554.448,0.000,165.460,0.000]"
      ]
    },
    {
      "id": 401102,
      "beginWay": "TALK_BEGIN_MANUAL",
      "beginCond": [
        {
          "type": "QUEST_COND_STATE_EQUAL",
          "_param": [
            "401102",
            "2"
          ]
        }
      ],
      "priority": 5,
      "initDialog": 40110201,
      "npcId": [
        5005
      ],
      "performCfg": "QuestDialogue/AQ/Fontaine_4011/Q401102",
      "heroTalk": "TALK_HERO_MAIN",
      "questId": 4011,
      "assetIndex": 9173308570820071917,
      "prePerformCfg": "",
      "PLPFOOINAAJ": [
        "[3_340100333:3480.902,283.324,4551.269,0.000,89.770,0.000]",
        "[3_340100334:3482.412,283.370,4550.761,0.000,296.660,0.000]",
        "[3_340100335:3477.412,283.326,4549.791,0.000,77.990,0.000]"
      ]
    },
    {
      "id": 401103,
      "beginWay": "TALK_BEGIN_MANUAL",
      "beginCond": [
        {
          "type": "QUEST_COND_STATE_EQUAL",
          "_param": [
            "401103",
            "2"
          ]
        }
      ],
      "priority": 5,
      "initDialog": 40110301,
      "npcId": [
        1076,
        13316,
        1080
      ],
      "performCfg": "QuestDialogue/AQ/Fontaine_4011/Q401103",
      "heroTalk": "TALK_HERO_MAIN",
      "questId": 4011,
      "assetIndex": 14195787671109547878,
      "prePerformCfg": "",
      "lockGameTime": true,
      "PLPFOOINAAJ": [
        "[1083_38:-52.424,0.331,-14.442,0.000,266.490,0.000]",
        "[1083_41:-36.034,0.000,-15.118]",
        "[1083_42:-34.384,0.000,-15.067]"
      ]
    },
    {
      "id": 401104,
      "beginWay": "TALK_BEGIN_MANUAL",
      "beginCond": [
        {
          "type": "QUEST_COND_STATE_EQUAL",
          "_param": [
            "401104",
            "2"
          ]
        }
      ],
      "priority": 5,
      "initDialog": 40110401,
      "npcId": [
        1076
      ],
      "performCfg": "QuestDialogue/AQ/Fontaine_4011/Q401104",
      "heroTalk": "TALK_HERO_MAIN",
      "questId": 4011,
      "assetIndex": 12758993074900302828,
      "prePerformCfg": "",
      "lockGameTime": true,
      "PLPFOOINAAJ": [
        "[1083_68:-49.032,0.352,-14.930,0.000,94.720,0.000]",
        "[1083_69:-47.147,0.352,-15.668,0.000,298.960,0.000]",
        "[1083_70:-47.063,0.352,-14.541,0.000,259.650,0.000]"
      ]
    },
    {
      "id": 401105,
      "beginWay": "TALK_BEGIN_MANUAL",
      "beginCond": [
        {
          "type": "QUEST_COND_STATE_EQUAL",
          "_param": [
            "401105",
            "2"
          ]
        }
      ],
      "priority": 5,
      "initDialog": 40110501,
      "npcId": [
        1070
      ],
      "performCfg": "QuestDialogue/AQ/Fontaine_4011/Q401105",
      "heroTalk": "TALK_HERO_MAIN",
      "questId": 4011,
      "assetIndex": 5231714645548139567,
      "prePerformCfg": "",
      "lockGameTime": true,
      "PLPFOOINAAJ": [
        "[3_340100336:3518.903,421.427,4612.640,0.000,163.700,0.000]",
        "[3_340100337:3520.798,421.427,4612.369,0.000,243.940,0.000]",
        "[3_340100338:3517.472,421.427,4611.579,0.000,83.640,0.000]"
      ]
    },
    {
      "id": 401106,
      "beginWay": "TALK_BEGIN_MANUAL",
      "beginCond": [
        {
          "type": "QUEST_COND_STATE_EQUAL",
          "_param": [
            "401106",
            "2"
          ]
        }
      ],
      "priority": 5,
      "initDialog": 40110601,
      "npcId": [
        1076,
        13545
      ],
      "performCfg": "QuestDialogue/AQ/Fontaine_4011/Q401106",
      "heroTalk": "TALK_HERO_MAIN",
      "questId": 4011,
      "assetIndex": 3430274004820516809,
      "prePerformCfg": "",
      "PLPFOOINAAJ": [
        "[3_340200118:3330.912,454.615,3807.828,0.000,323.250,0.000]",
        "[3_340200119:3331.913,454.589,3808.604,0.000,309.670,0.000]",
        "[3_340200120:3329.356,454.489,3810.371,0.000,314.730,0.000]",
        "[3_340200121:3341.360,455.114,3800.700,0.000,311.570,0.000]"
      ]
    },
    {
      "id": 401107,
      "beginCond": [
        {
          "type": "QUEST_COND_STATE_EQUAL",
          "_param": [
            "401108",
            "2"
          ]
        }
      ],
      "priority": 5,
      "initDialog": 40110701,
      "npcId": [
        13462
      ],
      "performCfg": "QuestDialogue/AQ/Fontaine_4011/Q401107",
      "heroTalk": "TALK_HERO_MAIN",
      "questId": 4011,
      "assetIndex": 8339373339471979545,
      "prePerformCfg": ""
    },
    {
      "id": 401108,
      "beginWay": "TALK_BEGIN_MANUAL",
      "beginCond": [
        {
          "type": "QUEST_COND_STATE_EQUAL",
          "_param": [
            "401108",
            "2"
          ]
        }
      ],
      "priority": 5,
      "nextTalks": [
        401107
      ],
      "initDialog": 40110801,
      "npcId": [
        5271,
        13545,
        13462
      ],
      "performCfg": "QuestDialogue/AQ/Fontaine_4011/Q401108",
      "heroTalk": "TALK_HERO_MAIN",
      "questId": 4011,
      "assetIndex": 7075301990756238377,
      "prePerformCfg": "",
      "PLPFOOINAAJ": [
        "[3_340200122:3318.695,322.173,3883.397]",
        "[3_340200123:3319.473,322.147,3883.768]",
        "[3_340200124:3317.781,322.161,3887.493,0.000,180.670,0.000]",
        "[3_340200125:3317.066,322.134,3884.560]",
        "[3_340200126:3330.097,321.550,3901.870,0.000,248.300,0.000]"
      ]
    },
    {
      "id": 401109,
      "beginWay": "TALK_BEGIN_MANUAL",
      "beginCond": [
        {
          "type": "QUEST_COND_STATE_EQUAL",
          "_param": [
            "99902",
            "3"
          ]
        }
      ],
      "priority": 5,
      "initDialog": 40110901,
      "npcId": [
        13545
      ],
      "performCfg": "",
      "heroTalk": "TALK_HERO_MAIN",
      "questId": 4011,
      "assetIndex": 11730778169836650163,
      "prePerformCfg": ""
    },
    {
      "id": 401110,
      "beginWay": "TALK_BEGIN_MANUAL",
      "beginCond": [
        {
          "type": "QUEST_COND_STATE_EQUAL",
          "_param": [
            "401105",
            "2"
          ]
        }
      ],
      "priority": 5,
      "initDialog": 40111001,
      "npcId": [
        1076
      ],
      "performCfg": "QuestDialogue/AQ/Fontaine_4011/Q401110",
      "heroTalk": "TALK_HERO_MAIN",
      "questId": 4011,
      "assetIndex": 190005170478853768,
      "prePerformCfg": ""
    },
    {
      "id": 401111,
      "beginWay": "TALK_BEGIN_MANUAL",
      "beginCond": [
        {
          "type": "QUEST_COND_STATE_EQUAL",
          "_param": [
            "401106",
            "2"
          ]
        }
      ],
      "priority": 5,
      "initDialog": 40111101,
      "npcId": [
        1070
      ],
      "performCfg": "QuestDialogue/AQ/Fontaine_4011/Q401111",
      "heroTalk": "TALK_HERO_MAIN",
      "questId": 4011,
      "assetIndex": 10687720944367574184,
      "prePerformCfg": ""
    }
  ],
  "preloadLuaList": [
    14543151498650694083,
    16602408872074226092,
    5322165945599999449,
    5289853508409154028,
    12275713080857155574,
    10983061069053101123,
    8067545632714435462,
    4541261590783836258,
    9163566407717926537,
    16115591526141401972
  ],
  "forcePreloadLuaList": [
    63175464341758189
  ],
  "freeStyleDic": {
    "1070": [
      1230
    ],
    "13462": [
      1120
    ]
  }
}