{
  "id": 40115,
  "series": 40112,
  "KPGKDHAFHFE": "EQ",
  "titleTextMapHash": 3915478151,
  "descTextMapHash": 4172789534,
  "luaPath": "Actor/Quest/EQ40115",
  "suggestTrackMainQuestList": [
    40116
  ],
  "rewardIdList": [
    140115
  ],
  "chapterId": 10118,
  "showRedPoint": true,
  "activityId": 2023,
  "subQuests": [
    {
      "subId": 4011501,
      "mainId": 40115,
      "order": 2,
      "descTextMapHash": 3249637084,
      "finishCond": [
        {
          "KPGKDHAFHFE": "QUEST_CONTENT_COMPLETE_TALK",
          "param": [
            4011501,
            0
          ]
        }
      ],
      "guide": {
        "KPGKDHAFHFE": "QUEST_GUIDE_NPC",
        "param": [
          "13247"
        ],
        "guideScene": 10,
        "guideStyle": "QUEST_GUIDE_STYLE_TARGET",
        "guideLayer": "QUEST_GUIDE_LAYER_SCENE"
      },
      "guideHint": {
        "param1": ""
      },
      "isRewind": true,
      "finishExec": [
        {
          "KPGKDHAFHFE": "QUEST_EXEC_UNHIDE_SCENE_POINT",
          "param": [
            "10",
            "5"
          ]
        }
      ],
      "versionBegin": "",
      "versionEnd": ""
    },
    {
      "subId": 4011502,
      "mainId": 40115,
      "order": 5,
      "descTextMapHash": 2593679708,
      "finishCond": [
        {
          "KPGKDHAFHFE": "QUEST_CONTENT_FINISH_PLOT",
          "param": [
            4011502,
            0
          ]
        }
      ],
      "guide": {
        "KPGKDHAFHFE": "QUEST_GUIDE_NPC",
        "param": [
          "13251"
        ],
        "guideScene": 10,
        "guideStyle": "QUEST_GUIDE_STYLE_TARGET"
      },
      "guideHint": {
        "param1": ""
      },
      "isRewind": true,
      "versionBegin": "",
      "versionEnd": ""
    },
    {
      "subId": 4011503,
      "mainId": 40115,
      "order": 10,
      "descTextMapHash": 1881390516,
      "finishCond": [
        {
          "KPGKDHAFHFE": "QUEST_CONTENT_COMPLETE_TALK",
          "param": [
            4011503,
            0
          ]
        }
      ],
      "guide": {
        "KPGKDHAFHFE": "QUEST_GUIDE_NPC",
        "param": [
          "13251"
        ],
        "guideScene": 10,
        "guideStyle": "QUEST_GUIDE_STYLE_TARGET",
        "guideLayer": "QUEST_GUIDE_LAYER_SCENE"
      },
      "guideHint": {
        "param1": ""
      },
      "versionBegin": "",
      "versionEnd": ""
    },
    {
      "subId": 4011504,
      "mainId": 40115,
      "order": 12,
      "descTextMapHash": 183787628,
      "finishCond": [
        {
          "KPGKDHAFHFE": "QUEST_CONTENT_LUA_NOTIFY",
          "param": [
            0,
            0
          ],
          "count": 1
        }
      ],
      "guide": {
        "KPGKDHAFHFE": "QUEST_GUIDE_LOCATION",
        "param": [
          "[10_100175:845.039,242.215,288.044,0.000,297.770,0.000]"
        ],
        "guideScene": 10,
        "guideStyle": "QUEST_GUIDE_STYLE_TARGET"
      },
      "guideHint": {
        "param1": ""
      },
      "isRewind": true,
      "versionBegin": "",
      "versionEnd": ""
    },
    {
      "subId": 4011505,
      "mainId": 40115,
      "order": 14,
      "isMpBlock": true,
      "descTextMapHash": 2577592164,
      "finishCond": [
        {
          "KPGKDHAFHFE": "QUEST_CONTENT_COMPLETE_TALK",
          "param": [
            4011505,
            0
          ]
        }
      ],
      "failCond": [
        {
          "KPGKDHAFHFE": "QUEST_CONTENT_LEAVE_SCENE",
          "param": [
            20183,
            0
          ]
        },
        {
          "KPGKDHAFHFE": "QUEST_CONTENT_FAIL_DUNGEON",
          "param": [
            2191,
            0
          ]
        }
      ],
      "guide": {
        "KPGKDHAFHFE": "QUEST_GUIDE_NPC",
        "param": [
          "1029"
        ],
        "guideScene": 20183,
        "guideStyle": "QUEST_GUIDE_STYLE_TARGET",
        "guideLayer": "QUEST_GUIDE_LAYER_SCENE"
      },
      "guideHint": {
        "param1": ""
      },
      "isRewind": true,
      "failExec": [
        {
          "KPGKDHAFHFE": "QUEST_EXEC_ROLLBACK_QUEST",
          "param": [
            "4011504"
          ]
        },
        {
          "KPGKDHAFHFE": "QUEST_EXEC_REMOVE_TRIAL_AVATAR",
          "param": [
            "66"
          ]
        },
        {
          "KPGKDHAFHFE": "QUEST_EXEC_UNLOCK_AVATAR_TEAM_V2"
        },
        {
          "KPGKDHAFHFE": "QUEST_EXEC_REMOVE_TRIAL_AVATAR",
          "param": [
            "67"
          ]
        }
      ],
      "versionBegin": "",
      "versionEnd": ""
    },
    {
      "subId": 4011506,
      "mainId": 40115,
      "order": 15,
      "isMpBlock": true,
      "descTextMapHash": 1875253588,
      "finishCond": [
        {
          "KPGKDHAFHFE": "QUEST_CONTENT_FINISH_PLOT",
          "param": [
            4011506,
            0
          ]
        }
      ],
      "failCond": [
        {
          "KPGKDHAFHFE": "QUEST_CONTENT_LEAVE_SCENE",
          "param": [
            20183,
            0
          ]
        },
        {
          "KPGKDHAFHFE": "QUEST_CONTENT_FAIL_DUNGEON",
          "param": [
            2191,
            0
          ]
        }
      ],
      "guide": {
        "param": [
          "30"
        ],
        "guideScene": 20183
      },
      "showGuide": "QUEST_GUIDE_ITEM_DISABLE",
      "guideHint": {
        "param1": ""
      },
      "isRewind": true,
      "failExec": [
        {
          "KPGKDHAFHFE": "QUEST_EXEC_ROLLBACK_QUEST",
          "param": [
            "4011504"
          ]
        },
        {
          "KPGKDHAFHFE": "QUEST_EXEC_REMOVE_TRIAL_AVATAR",
          "param": [
            "66"
          ]
        },
        {
          "KPGKDHAFHFE": "QUEST_EXEC_UNLOCK_AVATAR_TEAM_V2"
        },
        {
          "KPGKDHAFHFE": "QUEST_EXEC_REMOVE_TRIAL_AVATAR",
          "param": [
            "67"
          ]
        }
      ],
      "versionBegin": "",
      "versionEnd": ""
    },
    {
      "subId": 4011507,
      "mainId": 40115,
      "order": 16,
      "isMpBlock": true,
      "descTextMapHash": 3520002700,
      "finishCond": [
        {
          "KPGKDHAFHFE": "QUEST_CONTENT_COMPLETE_TALK",
          "param": [
            4011507,
            0
          ]
        }
      ],
      "failCond": [
        {
          "KPGKDHAFHFE": "QUEST_CONTENT_LEAVE_SCENE",
          "param": [
            20183,
            0
          ]
        },
        {
          "KPGKDHAFHFE": "QUEST_CONTENT_FAIL_DUNGEON",
          "param": [
            2191,
            0
          ]
        }
      ],
      "guide": {
        "KPGKDHAFHFE": "QUEST_GUIDE_NPC",
        "param": [
          "13253"
        ],
        "guideScene": 20183,
        "guideStyle": "QUEST_GUIDE_STYLE_TARGET",
        "guideLayer": "QUEST_GUIDE_LAYER_SCENE"
      },
      "guideHint": {
        "param1": ""
      },
      "finishExec": [
        {
          "KPGKDHAFHFE": "QUEST_EXEC_NOTIFY_GROUP_LUA",
          "param": [
            "20183",
            "220183008"
          ]
        }
      ],
      "failExec": [
        {
          "KPGKDHAFHFE": "QUEST_EXEC_ROLLBACK_QUEST",
          "param": [
            "4011504"
          ]
        },
        {
          "KPGKDHAFHFE": "QUEST_EXEC_REMOVE_TRIAL_AVATAR",
          "param": [
            "66"
          ]
        },
        {
          "KPGKDHAFHFE": "QUEST_EXEC_UNLOCK_AVATAR_TEAM_V2"
        },
        {
          "KPGKDHAFHFE": "QUEST_EXEC_REMOVE_TRIAL_AVATAR",
          "param": [
            "67"
          ]
        }
      ],
      "versionBegin": "",
      "versionEnd": ""
    },
    {
      "subId": 4011508,
      "mainId": 40115,
      "order": 17,
      "isMpBlock": true,
      "descTextMapHash": 2821393220,
      "finishCond": [
        {
          "KPGKDHAFHFE": "QUEST_CONTENT_FINISH_PLOT",
          "param": [
            4011508,
            0
          ]
        }
      ],
      "failCond": [
        {
          "KPGKDHAFHFE": "QUEST_CONTENT_LEAVE_SCENE",
          "param": [
            20183,
            0
          ]
        },
        {
          "KPGKDHAFHFE": "QUEST_CONTENT_FAIL_DUNGEON",
          "param": [
            2191,
            0
          ]
        }
      ],
      "guide": {
        "param": [
          "30"
        ],
        "guideScene": 20183
      },
      "showGuide": "QUEST_GUIDE_ITEM_DISABLE",
      "guideHint": {
        "param1": ""
      },
      "isRewind": true,
      "failExec": [
        {
          "KPGKDHAFHFE": "QUEST_EXEC_ROLLBACK_QUEST",
          "param": [
            "4011504"
          ]
        },
        {
          "KPGKDHAFHFE": "QUEST_EXEC_REMOVE_TRIAL_AVATAR",
          "param": [
            "67"
          ]
        },
        {
          "KPGKDHAFHFE": "QUEST_EXEC_UNLOCK_AVATAR_TEAM_V2"
        },
        {
          "KPGKDHAFHFE": "QUEST_EXEC_REMOVE_TRIAL_AVATAR",
          "param": [
            "66"
          ]
        }
      ],
      "versionBegin": "",
      "versionEnd": ""
    },
    {
      "subId": 4011509,
      "mainId": 40115,
      "order": 3,
      "descTextMapHash": 1422508972,
      "finishCond": [
        {
          "KPGKDHAFHFE": "QUEST_CONTENT_FINISH_PLOT",
          "param": [
            4011509,
            0
          ]
        }
      ],
      "guide": {
        "KPGKDHAFHFE": "QUEST_GUIDE_LOCATION",
        "param": [
          "[10_100187:639.751,112.336,470.546]"
        ],
        "guideScene": 10,
        "guideStyle": "QUEST_GUIDE_STYLE_POINT"
      },
      "guideHint": {
        "param1": ""
      },
      "isRewind": true,
      "versionBegin": "",
      "versionEnd": ""
    },
    {
      "subId": 4011510,
      "mainId": 40115,
      "order": 99,
      "isMpBlock": true,
      "descTextMapHash": 4073592516,
      "finishCond": [
        {
          "KPGKDHAFHFE": "QUEST_CONTENT_FINISH_PLOT",
          "param": [
            4011510,
            0
          ]
        }
      ],
      "failCond": [
        {
          "KPGKDHAFHFE": "QUEST_CONTENT_LEAVE_SCENE",
          "param": [
            20183,
            0
          ]
        },
        {
          "KPGKDHAFHFE": "QUEST_CONTENT_FAIL_DUNGEON",
          "param": [
            2191,
            0
          ]
        }
      ],
      "guide": {
        "KPGKDHAFHFE": "QUEST_GUIDE_NPC",
        "param": [
          "1011"
        ],
        "guideScene": 20183,
        "guideStyle": "QUEST_GUIDE_STYLE_TARGET",
        "guideLayer": "QUEST_GUIDE_LAYER_SCENE"
      },
      "showGuide": "QUEST_GUIDE_ITEM_DISABLE",
      "guideHint": {
        "param1": ""
      },
      "isRewind": true,
      "failExec": [
        {
          "KPGKDHAFHFE": "QUEST_EXEC_ROLLBACK_QUEST",
          "param": [
            "4011504"
          ]
        },
        {
          "KPGKDHAFHFE": "QUEST_EXEC_REMOVE_TRIAL_AVATAR",
          "param": [
            "67"
          ]
        },
        {
          "KPGKDHAFHFE": "QUEST_EXEC_UNLOCK_AVATAR_TEAM_V2"
        },
        {
          "KPGKDHAFHFE": "QUEST_EXEC_REMOVE_TRIAL_AVATAR",
          "param": [
            "66"
          ]
        }
      ],
      "versionBegin": "",
      "versionEnd": ""
    },
    {
      "subId": 4011511,
      "mainId": 40115,
      "order": 19,
      "isMpBlock": true,
      "descTextMapHash": 2945276876,
      "finishCond": [
        {
          "KPGKDHAFHFE": "QUEST_CONTENT_COMPLETE_TALK",
          "param": [
            4011510,
            0
          ]
        }
      ],
      "failCond": [
        {
          "KPGKDHAFHFE": "QUEST_CONTENT_LEAVE_SCENE",
          "param": [
            20183,
            0
          ]
        },
        {
          "KPGKDHAFHFE": "QUEST_CONTENT_FAIL_DUNGEON",
          "param": [
            2191,
            0
          ]
        }
      ],
      "guide": {
        "KPGKDHAFHFE": "QUEST_GUIDE_NPC",
        "param": [
          "13251"
        ],
        "guideScene": 20183,
        "guideStyle": "QUEST_GUIDE_STYLE_TARGET"
      },
      "showGuide": "QUEST_GUIDE_ITEM_DISABLE",
      "guideHint": {
        "param1": ""
      },
      "failExec": [
        {
          "KPGKDHAFHFE": "QUEST_EXEC_ROLLBACK_QUEST",
          "param": [
            "4011504"
          ]
        },
        {
          "KPGKDHAFHFE": "QUEST_EXEC_REMOVE_TRIAL_AVATAR",
          "param": [
            "66"
          ]
        },
        {
          "KPGKDHAFHFE": "QUEST_EXEC_UNLOCK_AVATAR_TEAM_V2"
        },
        {
          "KPGKDHAFHFE": "QUEST_EXEC_REMOVE_TRIAL_AVATAR",
          "param": [
            "67"
          ]
        }
      ],
      "versionBegin": "",
      "versionEnd": ""
    },
    {
      "subId": 4011512,
      "mainId": 40115,
      "order": 20,
      "isMpBlock": true,
      "descTextMapHash": 390784340,
      "finishCond": [
        {
          "KPGKDHAFHFE": "QUEST_CONTENT_LUA_NOTIFY",
          "param": [
            0,
            0
          ],
          "count": 1
        }
      ],
      "failCond": [
        {
          "KPGKDHAFHFE": "QUEST_CONTENT_LEAVE_SCENE",
          "param": [
            20183,
            0
          ]
        },
        {
          "KPGKDHAFHFE": "QUEST_CONTENT_FAIL_DUNGEON",
          "param": [
            2191,
            0
          ]
        }
      ],
      "guide": {
        "guideScene": 20183,
        "guideStyle": "QUEST_GUIDE_STYLE_TARGET",
        "guideLayer": "QUEST_GUIDE_LAYER_SCENE"
      },
      "showGuide": "QUEST_GUIDE_ITEM_DISABLE",
      "guideHint": {
        "param1": ""
      },
      "isRewind": true,
      "failExec": [
        {
          "KPGKDHAFHFE": "QUEST_EXEC_ROLLBACK_QUEST",
          "param": [
            "4011504"
          ]
        },
        {
          "KPGKDHAFHFE": "QUEST_EXEC_REMOVE_TRIAL_AVATAR",
          "param": [
            "66"
          ]
        },
        {
          "KPGKDHAFHFE": "QUEST_EXEC_UNLOCK_AVATAR_TEAM_V2"
        },
        {
          "KPGKDHAFHFE": "QUEST_EXEC_REMOVE_TRIAL_AVATAR",
          "param": [
            "67"
          ]
        }
      ],
      "versionBegin": "",
      "versionEnd": ""
    },
    {
      "subId": 4011513,
      "mainId": 40115,
      "order": 21,
      "isMpBlock": true,
      "descTextMapHash": 3873976828,
      "finishCond": [
        {
          "KPGKDHAFHFE": "QUEST_CONTENT_FINISH_PLOT",
          "param": [
            4011513,
            0
          ]
        }
      ],
      "failCond": [
        {
          "KPGKDHAFHFE": "QUEST_CONTENT_LEAVE_SCENE",
          "param": [
            20183,
            0
          ]
        },
        {
          "KPGKDHAFHFE": "QUEST_CONTENT_FAIL_DUNGEON",
          "param": [
            2191,
            0
          ]
        }
      ],
      "guide": {
        "guideScene": 20183
      },
      "guideHint": {
        "param1": ""
      },
      "isRewind": true,
      "finishExec": [
        {
          "KPGKDHAFHFE": "QUEST_EXEC_REFRESH_GROUP_SUITE",
          "param": [
            "10",
            "510010301,1"
          ]
        },
        {
          "KPGKDHAFHFE": "QUEST_EXEC_UNLOCK_AVATAR_TEAM_V2"
        },
        {
          "KPGKDHAFHFE": "QUEST_EXEC_REMOVE_TRIAL_AVATAR",
          "param": [
            "66"
          ]
        },
        {
          "KPGKDHAFHFE": "QUEST_EXEC_REMOVE_TRIAL_AVATAR",
          "param": [
            "67"
          ]
        }
      ],
      "failExec": [
        {
          "KPGKDHAFHFE": "QUEST_EXEC_ROLLBACK_QUEST",
          "param": [
            "4011504"
          ]
        },
        {
          "KPGKDHAFHFE": "QUEST_EXEC_REMOVE_TRIAL_AVATAR",
          "param": [
            "66"
          ]
        },
        {
          "KPGKDHAFHFE": "QUEST_EXEC_UNLOCK_AVATAR_TEAM_V2"
        },
        {
          "KPGKDHAFHFE": "QUEST_EXEC_REMOVE_TRIAL_AVATAR",
          "param": [
            "67"
          ]
        }
      ],
      "versionBegin": "",
      "versionEnd": ""
    },
    {
      "subId": 4011514,
      "mainId": 40115,
      "order": 35,
      "descTextMapHash": 4187774084,
      "finishCond": [
        {
          "KPGKDHAFHFE": "QUEST_CONTENT_COMPLETE_TALK",
          "param": [
            4011514,
            0
          ]
        }
      ],
      "guide": {
        "KPGKDHAFHFE": "QUEST_GUIDE_LOCATION",
        "param": [
          "[10_100143:834.549,238.714,294.192,0.000,119.545,0.000]"
        ],
        "guideScene": 10,
        "guideStyle": "QUEST_GUIDE_STYLE_POINT",
        "guideLayer": "QUEST_GUIDE_LAYER_SCENE"
      },
      "guideHint": {
        "param1": ""
      },
      "isRewind": true,
      "versionBegin": "",
      "versionEnd": ""
    },
    {
      "subId": 4011515,
      "mainId": 40115,
      "order": 41,
      "descTextMapHash": 4156290516,
      "finishCond": [
        {
          "KPGKDHAFHFE": "QUEST_CONTENT_COMPLETE_TALK",
          "param": [
            4011515,
            0
          ]
        }
      ],
      "guide": {
        "KPGKDHAFHFE": "QUEST_GUIDE_NPC",
        "param": [
          "1037"
        ],
        "guideScene": 10,
        "guideStyle": "QUEST_GUIDE_STYLE_TARGET"
      },
      "guideHint": {
        "param1": ""
      },
      "finishParent": true,
      "isRewind": true,
      "finishExec": [
        {
          "KPGKDHAFHFE": "QUEST_EXEC_SET_QUEST_GLOBAL_VAR",
          "param": [
            "4011501",
            "1"
          ]
        }
      ],
      "versionBegin": "",
      "versionEnd": ""
    },
    {
      "subId": 4011516,
      "mainId": 40115,
      "order": 32,
      "descTextMapHash": 415815916,
      "finishCond": [
        {
          "KPGKDHAFHFE": "QUEST_CONTENT_FINISH_PLOT",
          "param": [
            4011516,
            0
          ]
        }
      ],
      "guide": {
        "KPGKDHAFHFE": "QUEST_GUIDE_LOCATION",
        "param": [
          "Q4011514_N1029"
        ],
        "guideScene": 10,
        "guideStyle": "QUEST_GUIDE_STYLE_POINT",
        "guideLayer": "QUEST_GUIDE_LAYER_SCENE"
      },
      "guideHint": {
        "param1": ""
      },
      "isRewind": true,
      "finishExec": [
        {
          "KPGKDHAFHFE": "QUEST_EXEC_ADD_SCENE_TAG",
          "param": [
            "10",
            "1266"
          ]
        },
        {
          "KPGKDHAFHFE": "QUEST_EXEC_DEL_SCENE_TAG",
          "param": [
            "10",
            "1265"
          ]
        },
        {
          "KPGKDHAFHFE": "QUEST_EXEC_MODIFY_WEATHER_AREA",
          "param": [
            "9026;9038;9030",
            "1;1;1"
          ]
        }
      ],
      "versionBegin": "",
      "versionEnd": ""
    },
    {
      "subId": 4011517,
      "mainId": 40115,
      "order": 11,
      "descTextMapHash": 3053880092,
      "finishCond": [
        {
          "KPGKDHAFHFE": "QUEST_CONTENT_COMPLETE_TALK",
          "param": [
            4011512,
            0
          ]
        }
      ],
      "guide": {
        "KPGKDHAFHFE": "QUEST_GUIDE_LOCATION",
        "param": [
          "Q4011514_N1029"
        ],
        "guideScene": 10,
        "guideStyle": "QUEST_GUIDE_STYLE_POINT"
      },
      "guideHint": {
        "param1": ""
      },
      "isRewind": true,
      "versionBegin": "",
      "versionEnd": ""
    },
    {
      "subId": 4011518,
      "mainId": 40115,
      "order": 1,
      "descTextMapHash": 1678201812,
      "finishCond": [
        {
          "KPGKDHAFHFE": "QUEST_CONTENT_GAME_TIME_TICK",
          "param": [
            1,
            0
          ]
        }
      ],
      "guide": {},
      "guideHint": {
        "param1": ""
      },
      "isRewind": true,
      "versionBegin": "",
      "versionEnd": ""
    },
    {
      "subId": 4011519,
      "mainId": 40115,
      "order": 13,
      "descTextMapHash": 729185532,
      "finishCond": [
        {
          "KPGKDHAFHFE": "QUEST_CONTENT_ENTER_DUNGEON",
          "param": [
            2191,
            14
          ]
        }
      ],
      "guide": {
        "KPGKDHAFHFE": "QUEST_GUIDE_LOCATION",
        "param": [
          "[10_100175:845.039,242.215,288.044,0.000,297.770,0.000]"
        ],
        "guideScene": 10,
        "guideStyle": "QUEST_GUIDE_STYLE_TARGET"
      },
      "guideHint": {
        "param1": ""
      },
      "versionBegin": "",
      "versionEnd": ""
    },
    {
      "subId": 4011520,
      "mainId": 40115,
      "order": 4,
      "descTextMapHash": 691143580,
      "finishCond": [
        {
          "KPGKDHAFHFE": "QUEST_CONTENT_FINISH_PLOT",
          "param": [
            4011520,
            0
          ]
        }
      ],
      "guide": {
        "KPGKDHAFHFE": "QUEST_GUIDE_LOCATION",
        "param": [
          "[10_100191:756.136,164.266,615.168]"
        ],
        "guideScene": 10,
        "guideStyle": "QUEST_GUIDE_STYLE_POINT"
      },
      "guideHint": {
        "param1": ""
      },
      "isRewind": true,
      "versionBegin": "",
      "versionEnd": ""
    }
  ],
  "talks": [
    {
      "id": 4011501,
      "beginWay": "TALK_BEGIN_MANUAL",
      "beginCond": [
        {
          "type": "QUEST_COND_STATE_EQUAL",
          "_param": [
            "4011501",
            "2"
          ]
        }
      ],
      "priority": 5,
      "initDialog": 401150101,
      "npcId": [
        1051,
        13247,
        1029
      ],
      "performCfg": "QuestDialogue/EQ/Penumbra_40115/Q4011501",
      "heroTalk": "TALK_HERO_MAIN",
      "questId": 40115,
      "assetIndex": 8828312621620019086,
      "prePerformCfg": "",
      "lockGameTime": true,
      "forceNpcNotDestroy": true,
      "PLPFOOINAAJ": [
        "[10_100108:491.198,87.751,516.530,0.000,55.876,0.000]",
        "[10_100109:490.833,87.742,517.532,0.000,90.821,0.000]",
        "[10_100110:488.524,87.752,517.251,0.000,70.727,0.000]"
      ]
    },
    {
      "id": 4011503,
      "beginWay": "TALK_BEGIN_MANUAL",
      "beginCond": [
        {
          "type": "QUEST_COND_STATE_EQUAL",
          "_param": [
            "4011503",
            "2"
          ]
        }
      ],
      "priority": 5,
      "initDialog": 401150301,
      "npcId": [
        13251
      ],
      "performCfg": "QuestDialogue/EQ/Penumbra_40115/Q4011503",
      "heroTalk": "TALK_HERO_MAIN",
      "questId": 40115,
      "assetIndex": 2481474104242062894,
      "prePerformCfg": "",
      "forceNpcNotDestroy": true,
      "PLPFOOINAAJ": [
        "[10_100138:764.624,234.782,432.888,0.000,217.557,0.000]",
        "[10_100139:762.702,234.904,433.803,0.000,187.324,0.000]",
        "[10_100140:761.540,235.225,433.224,0.000,170.352,0.000]",
        "[10_100141:763.168,234.946,432.603,0.000,207.885,0.000]"
      ]
    },
    {
      "id": 4011505,
      "beginWay": "TALK_BEGIN_MANUAL",
      "beginCond": [
        {
          "type": "QUEST_COND_STATE_EQUAL",
          "_param": [
            "4011505",
            "2"
          ]
        }
      ],
      "priority": 5,
      "initDialog": 401150501,
      "npcId": [
        1029
      ],
      "performCfg": "QuestDialogue/EQ/Penumbra_40115/Q4011505",
      "heroTalk": "TALK_HERO_MAIN",
      "questId": 40115,
      "assetIndex": 4729633018350212023,
      "prePerformCfg": "",
      "forceNpcNotDestroy": true,
      "PLPFOOINAAJ": [
        "[20183_5:429.464,0.023,567.443,0.000,174.531,0.000]",
        "[20183_6:433.191,0.131,567.047,0.000,230.791,0.000]",
        "[20183_7:430.743,0.000,565.027,0.000,206.331,0.000]",
        "[20183_8:428.312,0.008,566.363,0.000,162.212,0.000]"
      ]
    },
    {
      "id": 4011507,
      "beginWay": "TALK_BEGIN_MANUAL",
      "beginCond": [
        {
          "type": "QUEST_COND_STATE_EQUAL",
          "_param": [
            "4011507",
            "2"
          ]
        }
      ],
      "priority": 5,
      "initDialog": 401150701,
      "npcId": [
        13253
      ],
      "performCfg": "QuestDialogue/EQ/Penumbra_40115/Q4011507",
      "heroTalk": "TALK_HERO_MAIN",
      "questId": 40115,
      "assetIndex": 432737378208477800,
      "prePerformCfg": "",
      "forceNpcNotDestroy": true,
      "PLPFOOINAAJ": [
        "[20183_10:446.123,7.402,457.898,0.000,1.643,0.000]",
        "[20183_11:447.830,7.402,458.452,0.000,330.298,0.000]",
        "[20183_12:444.419,7.393,455.303,0.000,47.571,0.000]",
        "[20183_13:451.169,7.393,454.461,0.000,326.806,0.000]",
        "[20183_9:447.507,7.393,454.592,0.000,352.280,0.000]"
      ]
    },
    {
      "id": 4011509,
      "beginWay": "TALK_BEGIN_MANUAL",
      "beginCond": [
        {
          "type": "QUEST_COND_STATE_EQUAL",
          "_param": [
            "99902",
            "3"
          ]
        }
      ],
      "priority": 5,
      "initDialog": 401150901,
      "npcId": [
        13251
      ],
      "performCfg": "",
      "questId": 40115,
      "assetIndex": 14293611234200610936,
      "prePerformCfg": "",
      "forceNpcNotDestroy": true
    },
    {
      "id": 4011510,
      "beginWay": "TALK_BEGIN_MANUAL",
      "beginCond": [
        {
          "type": "QUEST_COND_STATE_EQUAL",
          "_param": [
            "4011511",
            "2"
          ]
        }
      ],
      "priority": 5,
      "initDialog": 401151001,
      "npcId": [
        13251
      ],
      "performCfg": "QuestDialogue/EQ/Penumbra_40115/Q4011510",
      "heroTalk": "TALK_HERO_MAIN",
      "questId": 40115,
      "assetIndex": 6169669091684171805,
      "prePerformCfg": "",
      "forceNpcNotDestroy": true,
      "PLPFOOINAAJ": [
        "[20183_14:401.421,41.827,491.425,0.000,143.785,0.000]",
        "[20183_15:400.665,41.827,488.853,0.000,82.404,0.000]",
        "[20183_16:400.736,41.827,487.672,0.000,53.025,0.000]"
      ]
    },
    {
      "id": 4011512,
      "beginWay": "TALK_BEGIN_MANUAL",
      "beginCond": [
        {
          "type": "QUEST_COND_STATE_EQUAL",
          "_param": [
            "4011517",
            "2"
          ]
        }
      ],
      "priority": 5,
      "initDialog": 401151201,
      "npcId": [
        13251
      ],
      "performCfg": "QuestDialogue/EQ/Penumbra_40115/Q4011512",
      "heroTalk": "TALK_HERO_MAIN",
      "questId": 40115,
      "assetIndex": 843220824587836617,
      "prePerformCfg": "",
      "forceNpcNotDestroy": true,
      "PLPFOOINAAJ": [
        "[10_100142:837.696,238.959,292.337,0.000,310.929,0.000]",
        "[10_100143:834.549,238.714,294.192,0.000,119.545,0.000]",
        "[10_100144:833.455,238.669,291.712,0.000,101.844,0.000]",
        "[10_100145:835.767,238.809,295.003,0.000,129.865,0.000]"
      ]
    },
    {
      "id": 4011514,
      "beginWay": "TALK_BEGIN_MANUAL",
      "beginCond": [
        {
          "type": "QUEST_COND_STATE_EQUAL",
          "_param": [
            "4011514",
            "2"
          ]
        }
      ],
      "priority": 5,
      "initDialog": 401151401,
      "npcId": [
        1029
      ],
      "performCfg": "QuestDialogue/EQ/Penumbra_40115/Q4011514",
      "heroTalk": "TALK_HERO_MAIN",
      "questId": 40115,
      "assetIndex": 5044032024585715507,
      "prePerformCfg": "",
      "forceNpcNotDestroy": true,
      "PLPFOOINAAJ": [
        "[10_100142:837.696,238.959,292.337,0.000,310.929,0.000]",
        "[10_100143:834.549,238.714,294.192,0.000,119.545,0.000]",
        "[10_100144:833.455,238.669,291.712,0.000,101.844,0.000]",
        "[10_100145:835.767,238.809,295.003,0.000,129.865,0.000]",
        "[10_100146:836.865,238.881,295.199,0.000,205.935,0.000]"
      ]
    },
    {
      "id": 4011515,
      "beginWay": "TALK_BEGIN_MANUAL",
      "beginCond": [
        {
          "type": "QUEST_COND_STATE_EQUAL",
          "_param": [
            "4011515",
            "2"
          ]
        }
      ],
      "priority": 5,
      "initDialog": 401151501,
      "npcId": [
        1037
      ],
      "performCfg": "QuestDialogue/EQ/Penumbra_40115/Q4011515",
      "heroTalk": "TALK_HERO_MAIN",
      "questId": 40115,
      "assetIndex": 1039952936570155082,
      "prePerformCfg": "",
      "forceNpcNotDestroy": true,
      "PLPFOOINAAJ": [
        "[10_100035:376.967,110.384,605.722,359.976,236.655,1.619]",
        "[10_100147:381.904,110.384,605.233,0.000,229.007,0.000]",
        "[10_100148:380.151,110.384,606.658,0.000,196.426,0.000]",
        "[10_100149:382.812,110.384,606.409,0.000,237.630,0.000]"
      ]
    },
    {
      "id": 4011516,
      "beginWay": "TALK_BEGIN_MANUAL",
      "beginCond": [
        {
          "type": "QUEST_COND_STATE_EQUAL",
          "_param": [
            "99902",
            "3"
          ]
        }
      ],
      "priority": 5,
      "initDialog": 401151601,
      "performCfg": "",
      "heroTalk": "TALK_HERO_MAIN",
      "questId": 40115,
      "assetIndex": 6771903625462900854,
      "prePerformCfg": "",
      "forceNpcNotDestroy": true
    }
  ],
  "preloadLuaList": [
    16131617539194968101,
    9096580737586477040,
    13848066606428087275,
    8061285378970670460,
    12947786086402110058,
    12478422896488545550,
    769388250635688810,
    6333724191396476036,
    16760151744240772779,
    12351299757588680638
  ],
  "forcePreloadLuaList": [
    18011912274803883288
  ],
  "freeStyleDic": {
    "13253": [
      4120
    ]
  },
  "dialogList": [
    {
      "id": 401151220,
      "talkRole": {
        "type": "TALK_ROLE_NPC",
        "_id": "13251"
      },
      "talkAssetPath": "",
      "talkAssetPathAlter": "",
      "talkAudioName": "",
      "actionBefore": "",
      "actionWhile": "",
      "actionAfter": "",
      "optionIcon": "",
      "iconPath": ""
    }
  ]
}