{
  "id": 40128,
  "KPGKDHAFHFE": "EQ",
  "titleTextMapHash": 1995237871,
  "descTextMapHash": 2556054414,
  "luaPath": "Actor/Quest/EQ40128",
  "suggestTrackMainQuestList": [
    40129
  ],
  "rewardIdList": [
    140128
  ],
  "chapterId": 10157,
  "activityId": 2026,
  "subQuests": [
    {
      "subId": 4012801,
      "mainId": 40128,
      "order": 1,
      "descTextMapHash": 977172612,
      "finishCond": [
        {
          "KPGKDHAFHFE": "QUEST_CONTENT_COMPLETE_TALK",
          "param": [
            4012801,
            0
          ]
        }
      ],
      "guide": {
        "KPGKDHAFHFE": "QUEST_GUIDE_NPC",
        "param": [
          "5073"
        ],
        "guideScene": 3,
        "guideStyle": "QUEST_GUIDE_STYLE_TARGET",
        "guideLayer": "QUEST_GUIDE_LAYER_SCENE"
      },
      "guideHint": {
        "param1": ""
      },
      "isRewind": true,
      "finishExec": [
        {
          "KPGKDHAFHFE": "QUEST_EXEC_REFRESH_GROUP_SUITE",
          "param": [
            "3",
            "133401305,1"
          ]
        }
      ],
      "versionBegin": "",
      "versionEnd": ""
    },
    {
      "subId": 4012802,
      "mainId": 40128,
      "order": 3,
      "descTextMapHash": 6374524,
      "finishCond": [
        {
          "KPGKDHAFHFE": "QUEST_CONTENT_COMPLETE_TALK",
          "param": [
            4012802,
            0
          ]
        }
      ],
      "guide": {
        "KPGKDHAFHFE": "QUEST_GUIDE_LOCATION",
        "param": [
          "[3_6201:3393.107,439.800,2967.876]"
        ],
        "guideScene": 3,
        "guideStyle": "QUEST_GUIDE_STYLE_POINT",
        "guideLayer": "QUEST_GUIDE_LAYER_SCENE"
      },
      "guideHint": {
        "param1": ""
      },
      "isRewind": true,
      "finishExec": [
        {
          "KPGKDHAFHFE": "QUEST_EXEC_UNREGISTER_DYNAMIC_GROUP",
          "param": [
            "133412013",
            "1"
          ]
        }
      ],
      "versionBegin": "",
      "versionEnd": ""
    },
    {
      "subId": 4012803,
      "mainId": 40128,
      "order": 8,
      "descTextMapHash": 2250999636,
      "finishCond": [
        {
          "KPGKDHAFHFE": "QUEST_CONTENT_FINISH_PLOT",
          "param": [
            4012803,
            0
          ]
        }
      ],
      "guide": {
        "KPGKDHAFHFE": "QUEST_GUIDE_LOCATION",
        "param": [
          "[3_6240:3111.797,415.040,3023.874]",
          "60"
        ],
        "guideScene": 3,
        "guideStyle": "QUEST_GUIDE_STYLE_TARGET",
        "guideLayer": "QUEST_GUIDE_LAYER_SCENE"
      },
      "guideHint": {
        "param1": ""
      },
      "isRewind": true,
      "versionBegin": "",
      "versionEnd": ""
    },
    {
      "subId": 4012804,
      "mainId": 40128,
      "order": 13,
      "descTextMapHash": 4075067116,
      "finishCond": [
        {
          "KPGKDHAFHFE": "QUEST_CONTENT_QUEST_STATE_EQUAL",
          "param": [
            4012813,
            3
          ]
        },
        {
          "KPGKDHAFHFE": "QUEST_CONTENT_QUEST_STATE_EQUAL",
          "param": [
            4012814,
            3
          ]
        },
        {
          "KPGKDHAFHFE": "QUEST_CONTENT_QUEST_STATE_EQUAL",
          "param": [
            4012815,
            3
          ]
        }
      ],
      "failCond": [
        {
          "KPGKDHAFHFE": "QUEST_CONTENT_LUA_NOTIFY",
          "param": [
            0,
            0
          ],
          "count": 1
        }
      ],
      "guide": {},
      "showGuide": "QUEST_GUIDE_ITEM_DISABLE",
      "guideHint": {
        "param1": ""
      },
      "finishExec": [
        {
          "KPGKDHAFHFE": "QUEST_EXEC_UNREGISTER_DYNAMIC_GROUP",
          "param": [
            "133412029",
            "1"
          ]
        }
      ],
      "failExec": [
        {
          "KPGKDHAFHFE": "QUEST_EXEC_ROLLBACK_QUEST",
          "param": [
            "4012810"
          ]
        }
      ],
      "versionBegin": "",
      "versionEnd": ""
    },
    {
      "subId": 4012805,
      "mainId": 40128,
      "order": 14,
      "descTextMapHash": 1607550004,
      "finishCond": [
        {
          "KPGKDHAFHFE": "QUEST_CONTENT_COMPLETE_TALK",
          "param": [
            4012805,
            0
          ]
        }
      ],
      "guide": {
        "KPGKDHAFHFE": "QUEST_GUIDE_NPC",
        "param": [
          "13558"
        ],
        "guideScene": 3,
        "guideStyle": "QUEST_GUIDE_STYLE_TARGET",
        "guideLayer": "QUEST_GUIDE_LAYER_SCENE"
      },
      "guideHint": {
        "param1": ""
      },
      "isRewind": true,
      "finishExec": [
        {
          "KPGKDHAFHFE": "QUEST_EXEC_DEL_ALL_SPECIFIC_PACK_ITEM",
          "param": [
            "120596"
          ]
        },
        {
          "KPGKDHAFHFE": "QUEST_EXEC_SET_QUEST_GLOBAL_VAR",
          "param": [
            "4012801",
            "0"
          ]
        }
      ],
      "versionBegin": "",
      "versionEnd": ""
    },
    {
      "subId": 4012806,
      "mainId": 40128,
      "order": 15,
      "descTextMapHash": 3317846068,
      "finishCond": [
        {
          "KPGKDHAFHFE": "QUEST_CONTENT_COMPLETE_TALK",
          "param": [
            4012806,
            0
          ]
        }
      ],
      "guide": {
        "KPGKDHAFHFE": "QUEST_GUIDE_NPC",
        "param": [
          "1074"
        ],
        "guideScene": 3,
        "guideStyle": "QUEST_GUIDE_STYLE_TARGET",
        "guideLayer": "QUEST_GUIDE_LAYER_SCENE"
      },
      "guideHint": {
        "param1": ""
      },
      "finishParent": true,
      "isRewind": true,
      "finishExec": [
        {
          "KPGKDHAFHFE": "QUEST_EXEC_INIT_TIME_VAR",
          "param": [
            "1"
          ]
        }
      ],
      "versionBegin": "",
      "versionEnd": ""
    },
    {
      "subId": 4012807,
      "mainId": 40128,
      "order": 6,
      "descTextMapHash": 2570486964,
      "finishCond": [
        {
          "KPGKDHAFHFE": "QUEST_CONTENT_ACTIVITY_TRIGGER_UPDATE",
          "param": [
            2026,
            4012807
          ],
          "count": 1
        }
      ],
      "guide": {
        "KPGKDHAFHFE": "QUEST_GUIDE_LOCATION",
        "param": [
          "[3_5806:3400.781,444.742,3013.794]"
        ],
        "guideScene": 3,
        "guideStyle": "QUEST_GUIDE_STYLE_TARGET",
        "guideLayer": "QUEST_GUIDE_LAYER_SCENE"
      },
      "guideHint": {
        "param1": ""
      },
      "isRewind": true,
      "finishExec": [
        {
          "KPGKDHAFHFE": "QUEST_EXEC_UNREGISTER_DYNAMIC_GROUP",
          "param": [
            "133412035"
          ]
        }
      ],
      "versionBegin": "",
      "versionEnd": ""
    },
    {
      "subId": 4012808,
      "mainId": 40128,
      "order": 7,
      "descTextMapHash": 3616639588,
      "finishCond": [
        {
          "KPGKDHAFHFE": "QUEST_CONTENT_COMPLETE_TALK",
          "param": [
            4012808,
            0
          ]
        }
      ],
      "guide": {
        "KPGKDHAFHFE": "QUEST_GUIDE_NPC",
        "param": [
          "1074"
        ],
        "guideScene": 3,
        "guideStyle": "QUEST_GUIDE_STYLE_TARGET",
        "guideLayer": "QUEST_GUIDE_LAYER_SCENE"
      },
      "guideHint": {
        "param1": ""
      },
      "isRewind": true,
      "versionBegin": "",
      "versionEnd": ""
    },
    {
      "subId": 4012809,
      "mainId": 40128,
      "order": 4,
      "descTextMapHash": 852821580,
      "finishCond": [
        {
          "KPGKDHAFHFE": "QUEST_CONTENT_FINISH_PLOT",
          "param": [
            4012809,
            0
          ]
        }
      ],
      "guide": {
        "KPGKDHAFHFE": "QUEST_GUIDE_LOCATION",
        "param": [
          "[3_5803:3400.553,443.389,3008.123]",
          "20"
        ],
        "guideScene": 3,
        "guideStyle": "QUEST_GUIDE_STYLE_POINT",
        "guideLayer": "QUEST_GUIDE_LAYER_SCENE"
      },
      "guideHint": {
        "param1": ""
      },
      "isRewind": true,
      "versionBegin": "",
      "versionEnd": ""
    },
    {
      "subId": 4012810,
      "mainId": 40128,
      "order": 12,
      "descTextMapHash": 978320652,
      "finishCond": [
        {
          "KPGKDHAFHFE": "QUEST_CONTENT_LUA_NOTIFY",
          "param": [
            0,
            0
          ],
          "count": 1
        },
        {
          "KPGKDHAFHFE": "QUEST_CONTENT_ITEM_NUM_EQUAL",
          "param": [
            120596,
            3
          ]
        }
      ],
      "guide": {
        "KPGKDHAFHFE": "QUEST_GUIDE_LOCATION",
        "param": [
          "[3_6240:3111.797,415.040,3023.874]"
        ],
        "guideScene": 3,
        "guideStyle": "QUEST_GUIDE_STYLE_TARGET",
        "guideLayer": "QUEST_GUIDE_LAYER_SCENE"
      },
      "guideHint": {
        "param1": ""
      },
      "isRewind": true,
      "versionBegin": "",
      "versionEnd": ""
    },
    {
      "subId": 4012811,
      "mainId": 40128,
      "order": 2,
      "descTextMapHash": 3423924292,
      "finishCond": [
        {
          "KPGKDHAFHFE": "QUEST_CONTENT_FINISH_PLOT",
          "param": [
            4012811,
            0
          ]
        }
      ],
      "guide": {
        "KPGKDHAFHFE": "QUEST_GUIDE_LOCATION",
        "param": [
          "[3_6200:3391.763,440.000,2969.048]",
          "35"
        ],
        "guideScene": 3,
        "guideStyle": "QUEST_GUIDE_STYLE_TARGET",
        "guideLayer": "QUEST_GUIDE_LAYER_SCENE"
      },
      "guideHint": {
        "param1": ""
      },
      "isRewind": true,
      "versionBegin": "",
      "versionEnd": ""
    },
    {
      "subId": 4012812,
      "mainId": 40128,
      "order": 5,
      "descTextMapHash": 409711940,
      "finishCond": [
        {
          "KPGKDHAFHFE": "QUEST_CONTENT_COMPLETE_TALK",
          "param": [
            4012809,
            0
          ]
        }
      ],
      "guide": {
        "KPGKDHAFHFE": "QUEST_GUIDE_NPC",
        "param": [
          "13587"
        ],
        "guideScene": 3,
        "guideStyle": "QUEST_GUIDE_STYLE_TARGET",
        "guideLayer": "QUEST_GUIDE_LAYER_SCENE"
      },
      "guideHint": {
        "param1": ""
      },
      "isRewind": true,
      "versionBegin": "",
      "versionEnd": ""
    },
    {
      "subId": 4012813,
      "mainId": 40128,
      "order": 9,
      "showType": "QUEST_HIDDEN",
      "finishCond": [
        {
          "KPGKDHAFHFE": "QUEST_CONTENT_LUA_NOTIFY",
          "param": [
            0,
            0
          ],
          "count": 1
        },
        {
          "KPGKDHAFHFE": "QUEST_CONTENT_ITEM_NUM_EQUAL",
          "param": [
            120596,
            3
          ]
        }
      ],
      "guide": {},
      "guideHint": {
        "param1": ""
      },
      "isRewind": true,
      "versionBegin": "",
      "versionEnd": ""
    },
    {
      "subId": 4012814,
      "mainId": 40128,
      "order": 11,
      "showType": "QUEST_HIDDEN",
      "finishCond": [
        {
          "KPGKDHAFHFE": "QUEST_CONTENT_LUA_NOTIFY",
          "param": [
            0,
            0
          ],
          "count": 1
        },
        {
          "KPGKDHAFHFE": "QUEST_CONTENT_ITEM_NUM_EQUAL",
          "param": [
            120596,
            3
          ]
        }
      ],
      "guide": {},
      "guideHint": {
        "param1": ""
      },
      "isRewind": true,
      "versionBegin": "",
      "versionEnd": ""
    },
    {
      "subId": 4012815,
      "mainId": 40128,
      "order": 10,
      "showType": "QUEST_HIDDEN",
      "finishCond": [
        {
          "KPGKDHAFHFE": "QUEST_CONTENT_LUA_NOTIFY",
          "param": [
            0,
            0
          ],
          "count": 1
        },
        {
          "KPGKDHAFHFE": "QUEST_CONTENT_ITEM_NUM_EQUAL",
          "param": [
            120596,
            3
          ]
        }
      ],
      "guide": {},
      "guideHint": {
        "param1": ""
      },
      "isRewind": true,
      "versionBegin": "",
      "versionEnd": ""
    }
  ],
  "talks": [
    {
      "id": 4012801,
      "beginWay": "TALK_BEGIN_MANUAL",
      "beginCondComb": "LOGIC_AND",
      "beginCond": [
        {
          "type": "QUEST_COND_STATE_EQUAL",
          "_param": [
            "4012801",
            "2"
          ]
        }
      ],
      "priority": 5,
      "initDialog": 401280101,
      "npcId": [
        5073
      ],
      "performCfg": "QuestDialogue/EQ/V4.2RainbowPrince_40128/Q4012801",
      "heroTalk": "TALK_HERO_MAIN",
      "questId": 40128,
      "assetIndex": 17515906739160620990,
      "prePerformCfg": "",
      "forceNpcNotDestroy": true,
      "PLPFOOINAAJ": [
        "[3_6621:3739.977,444.488,4260.838,0.000,181.660,0.000]",
        "[3_6622:3739.906,445.176,4257.873]",
        "[3_6623:3738.584,444.874,4260.059,0.000,180.580,0.000]"
      ]
    },
    {
      "id": 4012802,
      "beginWay": "TALK_BEGIN_MANUAL",
      "beginCond": [
        {
          "type": "QUEST_COND_STATE_EQUAL",
          "_param": [
            "4012802",
            "2"
          ]
        }
      ],
      "priority": 5,
      "initDialog": 401280201,
      "npcId": [
        13643
      ],
      "performCfg": "QuestDialogue/EQ/V4.2RainbowPrince_40128/Q4012802",
      "heroTalk": "TALK_HERO_MAIN",
      "questId": 40128,
      "assetIndex": 10412233992787893533,
      "prePerformCfg": "",
      "forceNpcNotDestroy": true,
      "PLPFOOINAAJ": [
        "[3_6583:3392.823,440.000,2973.037,0.000,286.860,0.000]",
        "[3_6584:3391.447,440.000,2971.603]",
        "[3_6585:3388.064,440.000,2976.320,0.000,135.670,0.000]"
      ]
    },
    {
      "id": 4012805,
      "beginWay": "TALK_BEGIN_MANUAL",
      "beginCond": [
        {
          "type": "QUEST_COND_STATE_EQUAL",
          "_param": [
            "4012805",
            "2"
          ]
        }
      ],
      "priority": 5,
      "initDialog": 401280501,
      "npcId": [
        13558
      ],
      "performCfg": "QuestDialogue/EQ/V4.2RainbowPrince_40128/Q4012805",
      "heroTalk": "TALK_HERO_MAIN",
      "questId": 40128,
      "assetIndex": 3323260352207348609,
      "prePerformCfg": "",
      "lockGameTime": true,
      "forceNpcNotDestroy": true,
      "PLPFOOINAAJ": [
        "[3_6596:3399.971,443.385,3006.691,0.000,256.440,0.000]",
        "[3_6597:3397.480,443.371,3004.349,0.000,33.820,0.000]",
        "[3_6598:3396.623,443.396,3007.189,0.000,88.000,0.000]",
        "[3_6599:3396.464,443.310,3005.660,0.000,69.070,0.000]",
        "[3_6842:3404.188,443.308,3006.478,0.000,287.010,0.000]"
      ]
    },
    {
      "id": 4012806,
      "beginWay": "TALK_BEGIN_MANUAL",
      "beginCond": [
        {
          "type": "QUEST_COND_STATE_EQUAL",
          "_param": [
            "4012806",
            "2"
          ]
        }
      ],
      "priority": 5,
      "initDialog": 401280601,
      "npcId": [
        1074
      ],
      "performCfg": "QuestDialogue/EQ/V4.2RainbowPrince_40128/Q4012806",
      "heroTalk": "TALK_HERO_MAIN",
      "questId": 40128,
      "assetIndex": 17806035966703515120,
      "prePerformCfg": "",
      "lockGameTime": true,
      "forceNpcNotDestroy": true,
      "PLPFOOINAAJ": [
        "[3_6593:3408.060,443.058,3003.569,0.000,279.270,0.000]",
        "[3_6594:3406.299,443.351,3002.959,0.000,67.230,0.000]",
        "[3_6595:3405.604,443.405,3004.463,0.000,115.480,0.000]",
        "[3_6843:3404.231,443.305,3006.442,0.000,281.120,0.000]"
      ]
    },
    {
      "id": 4012807,
      "beginWay": "TALK_BEGIN_MANUAL",
      "beginCond": [
        {
          "type": "QUEST_COND_STATE_EQUAL",
          "_param": [
            "4012807",
            "2"
          ]
        }
      ],
      "priority": 5,
      "initDialog": 401280701,
      "npcId": [
        1074
      ],
      "performCfg": "QuestDialogue/EQ/V4.2RainbowPrince_40128/Q4012807",
      "heroTalk": "TALK_HERO_MAIN",
      "questId": 40128,
      "assetIndex": 12182599068523099896,
      "prePerformCfg": "",
      "forceNpcNotDestroy": true
    },
    {
      "id": 4012808,
      "beginWay": "TALK_BEGIN_MANUAL",
      "beginCond": [
        {
          "type": "QUEST_COND_STATE_EQUAL",
          "_param": [
            "4012808",
            "2"
          ]
        }
      ],
      "priority": 5,
      "initDialog": 401280801,
      "npcId": [
        1074
      ],
      "performCfg": "QuestDialogue/EQ/V4.2RainbowPrince_40128/Q4012808",
      "heroTalk": "TALK_HERO_MAIN",
      "questId": 40128,
      "assetIndex": 9415308901847639502,
      "prePerformCfg": "",
      "forceNpcNotDestroy": true,
      "PLPFOOINAAJ": [
        "[3_6590:3399.260,443.325,3013.342,0.000,94.110,0.000]",
        "[3_6591:3402.660,443.382,3011.704,0.000,300.720,0.000]",
        "[3_6592:3399.370,443.348,3012.027,0.000,76.330,0.000]",
        "[3_6842:3404.188,443.308,3006.478,0.000,287.010,0.000]"
      ]
    },
    {
      "id": 4012809,
      "beginWay": "TALK_BEGIN_MANUAL",
      "beginCond": [
        {
          "type": "QUEST_COND_STATE_EQUAL",
          "_param": [
            "4012812",
            "2"
          ]
        }
      ],
      "priority": 5,
      "initDialog": 401280901,
      "npcId": [
        13587
      ],
      "performCfg": "QuestDialogue/EQ/V4.2RainbowPrince_40128/Q4012809",
      "heroTalk": "TALK_HERO_MAIN",
      "questId": 40128,
      "assetIndex": 4955887373225233618,
      "prePerformCfg": "",
      "forceNpcNotDestroy": true,
      "PLPFOOINAAJ": [
        "[3_6586:3400.499,443.363,3005.309,0.000,289.220,0.000]",
        "[3_6587:3396.954,443.307,3005.372,0.000,64.320,0.000]",
        "[3_6588:3397.094,443.388,3007.016,0.000,115.480,0.000]",
        "[3_6589:3400.802,443.370,3007.751,0.000,231.560,0.000]"
      ]
    },
    {
      "id": 4012812,
      "beginWay": "TALK_BEGIN_MANUAL",
      "beginCondComb": "LOGIC_AND",
      "beginCond": [
        {
          "type": "QUEST_COND_STATE_INTERVAL",
          "_param": [
            "4012807",
            "4012806"
          ]
        }
      ],
      "priority": 5,
      "initDialog": 401281201,
      "npcId": [
        13587
      ],
      "performCfg": "QuestDialogue/EQ/V4.2RainbowPrince_40128/Q4012812",
      "heroTalk": "TALK_HERO_MAIN",
      "questId": 40128,
      "assetIndex": 5885100122355987160,
      "prePerformCfg": "",
      "forceNpcNotDestroy": true
    }
  ],
  "preloadLuaList": [
    10660728732899158111,
    15830693684254870004,
    6510810183825933955,
    5951065091875783023
  ],
  "forcePreloadLuaList": [
    14032411154605427394
  ],
  "freeStyleDic": {
    "5073": [
      1190
    ],
    "1074": [
      1190,
      1220
    ],
    "13558": [
      1090
    ]
  },
  "dialogList": [
    {
      "id": 401280249,
      "nextDialogs": [
        401280250
      ],
      "talkRole": {
        "type": "TALK_ROLE_CONSEQUENT_NEED_CLICK_BLACK_SCREEN",
        "_id": ""
      },
      "talkContentTextMapHash": 4132070082,
      "talkAssetPath": "",
      "talkAssetPathAlter": "",
      "talkAudioName": "",
      "actionBefore": "",
      "actionWhile": "",
      "actionAfter": "",
      "optionIcon": "",
      "iconPath": ""
    },
    {
      "id": 401280250,
      "talkRole": {
        "type": "TALK_ROLE_CONSEQUENT_NEED_CLICK_BLACK_SCREEN",
        "_id": ""
      },
      "talkContentTextMapHash": 924915122,
      "talkAssetPath": "",
      "talkAssetPathAlter": "",
      "talkAudioName": "",
      "actionBefore": "",
      "actionWhile": "",
      "actionAfter": "",
      "optionIcon": "",
      "iconPath": ""
    },
    {
      "id": 401280571,
      "nextDialogs": [
        401280572
      ],
      "talkRole": {
        "type": "TALK_ROLE_CONSEQUENT_NEED_CLICK_BLACK_SCREEN",
        "_id": ""
      },
      "talkContentTextMapHash": 1594239802,
      "talkAssetPath": "",
      "talkAssetPathAlter": "",
      "talkAudioName": "",
      "actionBefore": "",
      "actionWhile": "",
      "actionAfter": "",
      "optionIcon": "",
      "iconPath": ""
    },
    {
      "id": 401280572,
      "talkRole": {
        "type": "TALK_ROLE_CONSEQUENT_NEED_CLICK_BLACK_SCREEN",
        "_id": ""
      },
      "talkContentTextMapHash": 2556711170,
      "talkAssetPath": "",
      "talkAssetPathAlter": "",
      "talkAudioName": "",
      "actionBefore": "",
      "actionWhile": "",
      "actionAfter": "",
      "optionIcon": "",
      "iconPath": ""
    },
    {
      "id": 401280573,
      "nextDialogs": [
        401280574
      ],
      "talkRole": {
        "type": "TALK_ROLE_CONSEQUENT_NEED_CLICK_BLACK_SCREEN",
        "_id": ""
      },
      "talkContentTextMapHash": 3971331514,
      "talkAssetPath": "",
      "talkAssetPathAlter": "",
      "talkAudioName": "",
      "actionBefore": "",
      "actionWhile": "",
      "actionAfter": "",
      "optionIcon": "",
      "iconPath": ""
    },
    {
      "id": 401280574,
      "talkRole": {
        "type": "TALK_ROLE_CONSEQUENT_NEED_CLICK_BLACK_SCREEN",
        "_id": ""
      },
      "talkContentTextMapHash": 2783785098,
      "talkAssetPath": "",
      "talkAssetPathAlter": "",
      "talkAudioName": "",
      "actionBefore": "",
      "actionWhile": "",
      "actionAfter": "",
      "optionIcon": "",
      "iconPath": ""
    },
    {
      "id": 401280575,
      "nextDialogs": [
        401280576
      ],
      "talkRole": {
        "type": "TALK_ROLE_CONSEQUENT_NEED_CLICK_BLACK_SCREEN",
        "_id": ""
      },
      "talkContentTextMapHash": 3005789218,
      "talkAssetPath": "",
      "talkAssetPathAlter": "",
      "talkAudioName": "",
      "actionBefore": "",
      "actionWhile": "",
      "actionAfter": "",
      "optionIcon": "",
      "iconPath": ""
    },
    {
      "id": 401280576,
      "nextDialogs": [
        401280577
      ],
      "talkRole": {
        "type": "TALK_ROLE_CONSEQUENT_NEED_CLICK_BLACK_SCREEN",
        "_id": ""
      },
      "talkContentTextMapHash": 2753774178,
      "talkAssetPath": "",
      "talkAssetPathAlter": "",
      "talkAudioName": "",
      "actionBefore": "",
      "actionWhile": "",
      "actionAfter": "",
      "optionIcon": "",
      "iconPath": ""
    },
    {
      "id": 401280577,
      "talkRole": {
        "type": "TALK_ROLE_CONSEQUENT_NEED_CLICK_BLACK_SCREEN",
        "_id": ""
      },
      "talkContentTextMapHash": 1133198330,
      "talkAssetPath": "",
      "talkAssetPathAlter": "",
      "talkAudioName": "",
      "actionBefore": "",
      "actionWhile": "",
      "actionAfter": "",
      "optionIcon": "",
      "iconPath": ""
    }
  ],
  "DDHNEIEDLJA": true
}