{
  "id": 40127,
  "KPGKDHAFHFE": "EQ",
  "activeMode": "PLAY_MODE_ALL",
  "titleTextMapHash": 1836584525,
  "luaPath": "Actor/Quest/EQ40127",
  "showType": "QUEST_HIDDEN",
  "activityId": 2026,
  "subQuests": [
    {
      "subId": 4012701,
      "mainId": 40127,
      "order": 1,
      "showType": "QUEST_HIDDEN",
      "finishCond": [
        {
          "KPGKDHAFHFE": "QUEST_CONTENT_TIME_VAR_PASS_DAY",
          "param": [
            40128,
            1
          ]
        }
      ],
      "guide": {},
      "guideHint": {
        "param1": ""
      },
      "finishParent": true,
      "isRewind": true,
      "finishExec": [
        {
          "KPGKDHAFHFE": "QUEST_EXEC_CLEAR_TIME_VAR",
          "param": [
            "40128",
            "1"
          ]
        }
      ],
      "versionBegin": "",
      "versionEnd": ""
    }
  ],
  "DDHNEIEDLJA": true
}