{
  "id": 40133,
  "series": 10161,
  "KPGKDHAFHFE": "EQ",
  "titleTextMapHash": 1001923551,
  "descTextMapHash": 1581110558,
  "luaPath": "Actor/Quest/EQ40133",
  "suggestTrackMainQuestList": [
    40134
  ],
  "rewardIdList": [
    140133
  ],
  "chapterId": 10162,
  "activityId": 2027,
  "subQuests": [
    {
      "subId": 4013301,
      "mainId": 40133,
      "order": 2,
      "descTextMapHash": 3301781412,
      "GMKDJFPEFFF": [
        108401,
        108402,
        340114
      ],
      "finishCond": [
        {
          "KPGKDHAFHFE": "QUEST_CONTENT_COMPLETE_TALK",
          "param": [
            4013301,
            0
          ]
        }
      ],
      "guide": {
        "KPGKDHAFHFE": "QUEST_GUIDE_LOCATION",
        "param": [
          "[3_340100423:3465.146,454.922,4641.685,0.000,219.159,0.000]"
        ],
        "guideScene": 3,
        "guideStyle": "QUEST_GUIDE_STYLE_POINT",
        "guideLayer": "QUEST_GUIDE_LAYER_SCENE"
      },
      "guideHint": {
        "param1": ""
      },
      "JPAAAIKKJNG": "QUEST_HIDDEN",
      "isRewind": true,
      "versionBegin": "",
      "versionEnd": ""
    },
    {
      "subId": 4013302,
      "mainId": 40133,
      "order": 3,
      "isMpBlock": true,
      "descTextMapHash": 2118007532,
      "GMKDJFPEFFF": [
        108401,
        108402,
        340114
      ],
      "finishCond": [
        {
          "KPGKDHAFHFE": "QUEST_CONTENT_COMPLETE_TALK",
          "param": [
            4013302,
            0
          ]
        }
      ],
      "guide": {
        "KPGKDHAFHFE": "QUEST_GUIDE_LOCATION",
        "param": [
          "[3_340200136:3373.403,424.644,4035.458,0.000,309.075,0.000]"
        ],
        "guideScene": 3,
        "guideStyle": "QUEST_GUIDE_STYLE_POINT",
        "guideLayer": "QUEST_GUIDE_LAYER_SCENE"
      },
      "guideHint": {
        "param1": ""
      },
      "JPAAAIKKJNG": "QUEST_HIDDEN",
      "versionBegin": "",
      "versionEnd": ""
    },
    {
      "subId": 4013303,
      "mainId": 40133,
      "order": 4,
      "descTextMapHash": 476826300,
      "GMKDJFPEFFF": [
        108401,
        108402,
        340114
      ],
      "finishCond": [
        {
          "KPGKDHAFHFE": "QUEST_CONTENT_COMPLETE_TALK",
          "param": [
            4013303,
            0
          ]
        }
      ],
      "guide": {
        "KPGKDHAFHFE": "QUEST_GUIDE_LOCATION",
        "param": [
          "[1084_27:-0.942,7.553,14.708]"
        ],
        "guideScene": 1084,
        "guideStyle": "QUEST_GUIDE_STYLE_POINT",
        "guideLayer": "QUEST_GUIDE_LAYER_SCENE"
      },
      "guideHint": {
        "param1": ""
      },
      "JPAAAIKKJNG": "QUEST_HIDDEN",
      "isRewind": true,
      "versionBegin": "",
      "versionEnd": ""
    },
    {
      "subId": 4013304,
      "mainId": 40133,
      "order": 13,
      "descTextMapHash": 3199547388,
      "GMKDJFPEFFF": [
        340134,
        340111
      ],
      "finishCond": [
        {
          "KPGKDHAFHFE": "QUEST_CONTENT_COMPLETE_TALK",
          "param": [
            4013304,
            0
          ]
        }
      ],
      "guide": {
        "KPGKDHAFHFE": "QUEST_GUIDE_NPC",
        "param": [
          "5029"
        ],
        "guideScene": 3,
        "guideStyle": "QUEST_GUIDE_STYLE_TARGET",
        "guideLayer": "QUEST_GUIDE_LAYER_SCENE"
      },
      "guideHint": {
        "param1": ""
      },
      "isRewind": true,
      "versionBegin": "",
      "versionEnd": ""
    },
    {
      "subId": 4013305,
      "mainId": 40133,
      "order": 14,
      "descTextMapHash": 1947936052,
      "GMKDJFPEFFF": [
        340106
      ],
      "finishCond": [
        {
          "KPGKDHAFHFE": "QUEST_CONTENT_COMPLETE_TALK",
          "param": [
            4013305,
            0
          ]
        }
      ],
      "guide": {
        "KPGKDHAFHFE": "QUEST_GUIDE_NPC",
        "param": [
          "5033"
        ],
        "guideScene": 3,
        "guideStyle": "QUEST_GUIDE_STYLE_TARGET",
        "guideLayer": "QUEST_GUIDE_LAYER_SCENE"
      },
      "guideHint": {
        "param1": ""
      },
      "isRewind": true,
      "versionBegin": "",
      "versionEnd": ""
    },
    {
      "subId": 4013306,
      "mainId": 40133,
      "order": 16,
      "subIdSet": 2,
      "descTextMapHash": 1098817212,
      "GMKDJFPEFFF": [
        340124,
        340130
      ],
      "finishCond": [
        {
          "KPGKDHAFHFE": "QUEST_CONTENT_COMPLETE_TALK",
          "param": [
            4013306,
            0
          ]
        }
      ],
      "guide": {
        "KPGKDHAFHFE": "QUEST_GUIDE_NPC",
        "param": [
          "5064"
        ],
        "guideScene": 3,
        "guideStyle": "QUEST_GUIDE_STYLE_TARGET",
        "guideLayer": "QUEST_GUIDE_LAYER_SCENE"
      },
      "guideHint": {
        "param1": ""
      },
      "isRewind": true,
      "versionBegin": "",
      "versionEnd": ""
    },
    {
      "subId": 4013307,
      "mainId": 40133,
      "order": 17,
      "subIdSet": 2,
      "descTextMapHash": 938252692,
      "GMKDJFPEFFF": [
        340124,
        340130
      ],
      "finishCond": [
        {
          "KPGKDHAFHFE": "QUEST_CONTENT_COMPLETE_TALK",
          "param": [
            4013307,
            0
          ]
        }
      ],
      "guide": {
        "KPGKDHAFHFE": "QUEST_GUIDE_NPC",
        "param": [
          "30444"
        ],
        "guideScene": 3,
        "guideStyle": "QUEST_GUIDE_STYLE_TARGET",
        "guideLayer": "QUEST_GUIDE_LAYER_SCENE"
      },
      "guideHint": {
        "param1": ""
      },
      "isRewind": true,
      "versionBegin": "",
      "versionEnd": ""
    },
    {
      "subId": 4013308,
      "mainId": 40133,
      "order": 18,
      "subIdSet": 2,
      "descTextMapHash": 2729707244,
      "GMKDJFPEFFF": [
        340124,
        340130
      ],
      "finishCond": [
        {
          "KPGKDHAFHFE": "QUEST_CONTENT_COMPLETE_TALK",
          "param": [
            4013308,
            0
          ]
        }
      ],
      "guide": {
        "KPGKDHAFHFE": "QUEST_GUIDE_LOCATION",
        "param": [
          "[3_340100438:3402.257,291.931,4481.466,0.000,58.187,0.000]"
        ],
        "guideScene": 3,
        "guideStyle": "QUEST_GUIDE_STYLE_POINT",
        "guideLayer": "QUEST_GUIDE_LAYER_SCENE"
      },
      "guideHint": {
        "param1": ""
      },
      "isRewind": true,
      "versionBegin": "",
      "versionEnd": ""
    },
    {
      "subId": 4013309,
      "mainId": 40133,
      "order": 20,
      "descTextMapHash": 2448785036,
      "GMKDJFPEFFF": [
        340124,
        340130
      ],
      "finishCond": [
        {
          "KPGKDHAFHFE": "QUEST_CONTENT_COMPLETE_TALK",
          "param": [
            4013309,
            0
          ]
        }
      ],
      "guide": {
        "KPGKDHAFHFE": "QUEST_GUIDE_LOCATION",
        "param": [
          "[3_340100445:3479.793,291.958,4514.708,0.000,102.561,0.000]"
        ],
        "guideScene": 3,
        "guideStyle": "QUEST_GUIDE_STYLE_POINT",
        "guideLayer": "QUEST_GUIDE_LAYER_SCENE"
      },
      "guideHint": {
        "param1": ""
      },
      "finishParent": true,
      "isRewind": true,
      "finishExec": [
        {
          "KPGKDHAFHFE": "QUEST_EXEC_UNREGISTER_DYNAMIC_GROUP",
          "param": [
            "133401802",
            "0"
          ]
        }
      ],
      "versionBegin": "",
      "versionEnd": ""
    },
    {
      "subId": 4013310,
      "mainId": 40133,
      "order": 1,
      "descTextMapHash": 1814730156,
      "finishCond": [
        {
          "KPGKDHAFHFE": "QUEST_CONTENT_GAME_TIME_TICK",
          "param": [
            1,
            0
          ]
        }
      ],
      "guide": {},
      "guideHint": {
        "param1": ""
      },
      "isRewind": true,
      "versionBegin": "",
      "versionEnd": ""
    },
    {
      "subId": 4013311,
      "mainId": 40133,
      "order": 5,
      "subIdSet": 1,
      "descTextMapHash": 581210660,
      "GMKDJFPEFFF": [
        108401,
        108402,
        340114
      ],
      "finishCond": [
        {
          "KPGKDHAFHFE": "QUEST_CONTENT_COMPLETE_TALK",
          "param": [
            4013312,
            0
          ]
        }
      ],
      "guide": {
        "KPGKDHAFHFE": "QUEST_GUIDE_NPC",
        "param": [
          "1082"
        ],
        "guideScene": 1084,
        "guideStyle": "QUEST_GUIDE_STYLE_TARGET",
        "guideLayer": "QUEST_GUIDE_LAYER_SCENE"
      },
      "guideHint": {
        "param1": ""
      },
      "isRewind": true,
      "versionBegin": "",
      "versionEnd": ""
    },
    {
      "subId": 4013312,
      "mainId": 40133,
      "order": 6,
      "subIdSet": 1,
      "descTextMapHash": 1537391180,
      "GMKDJFPEFFF": [
        108401,
        108402,
        340114
      ],
      "finishCond": [
        {
          "KPGKDHAFHFE": "QUEST_CONTENT_COMPLETE_TALK",
          "param": [
            4013311,
            0
          ]
        }
      ],
      "guide": {
        "KPGKDHAFHFE": "QUEST_GUIDE_NPC",
        "param": [
          "1035"
        ],
        "guideScene": 1084,
        "guideStyle": "QUEST_GUIDE_STYLE_TARGET",
        "guideLayer": "QUEST_GUIDE_LAYER_SCENE"
      },
      "guideHint": {
        "param1": ""
      },
      "isRewind": true,
      "versionBegin": "",
      "versionEnd": ""
    },
    {
      "subId": 4013313,
      "mainId": 40133,
      "order": 99,
      "finishCond": [
        {
          "KPGKDHAFHFE": "QUEST_CONTENT_FINISH_PLOT",
          "param": [
            4013313,
            0
          ]
        }
      ],
      "guide": {},
      "showGuide": "QUEST_GUIDE_ITEM_DISABLE",
      "guideHint": {
        "param1": ""
      },
      "versionBegin": "",
      "versionEnd": ""
    },
    {
      "subId": 4013314,
      "mainId": 40133,
      "order": 100,
      "finishCond": [
        {
          "KPGKDHAFHFE": "QUEST_CONTENT_FINISH_PLOT",
          "param": [
            4013313,
            0
          ]
        }
      ],
      "guide": {},
      "showGuide": "QUEST_GUIDE_ITEM_DISABLE",
      "guideHint": {
        "param1": ""
      },
      "versionBegin": "",
      "versionEnd": ""
    },
    {
      "subId": 4013315,
      "mainId": 40133,
      "order": 9,
      "showType": "QUEST_HIDDEN",
      "GMKDJFPEFFF": [
        108401,
        108402,
        340114
      ],
      "finishCond": [
        {
          "KPGKDHAFHFE": "QUEST_CONTENT_QUEST_STATE_EQUAL",
          "param": [
            4013311,
            3
          ]
        },
        {
          "KPGKDHAFHFE": "QUEST_CONTENT_QUEST_STATE_EQUAL",
          "param": [
            4013312,
            3
          ]
        }
      ],
      "guide": {},
      "guideHint": {
        "param1": ""
      },
      "failParentShow": "QUEST_HIDDEN",
      "JPAAAIKKJNG": "QUEST_HIDDEN",
      "isRewind": true,
      "versionBegin": "",
      "versionEnd": ""
    },
    {
      "subId": 4013316,
      "mainId": 40133,
      "order": 10,
      "descTextMapHash": 4028463044,
      "GMKDJFPEFFF": [
        108401,
        108402,
        340114
      ],
      "finishCond": [
        {
          "KPGKDHAFHFE": "QUEST_CONTENT_COMPLETE_TALK",
          "param": [
            4013316,
            0
          ]
        }
      ],
      "guide": {
        "KPGKDHAFHFE": "QUEST_GUIDE_NPC",
        "param": [
          "1081"
        ],
        "guideScene": 1084,
        "guideStyle": "QUEST_GUIDE_STYLE_TARGET",
        "guideLayer": "QUEST_GUIDE_LAYER_SCENE"
      },
      "guideHint": {
        "param1": ""
      },
      "isRewind": true,
      "versionBegin": "",
      "versionEnd": ""
    },
    {
      "subId": 4013317,
      "mainId": 40133,
      "order": 11,
      "descTextMapHash": 1456012620,
      "GMKDJFPEFFF": [
        108401,
        108402,
        340114
      ],
      "finishCond": [
        {
          "KPGKDHAFHFE": "QUEST_CONTENT_COMPLETE_TALK",
          "param": [
            4013317,
            0
          ]
        }
      ],
      "guide": {
        "KPGKDHAFHFE": "QUEST_GUIDE_LOCATION",
        "param": [
          "[1084_47:8.299,7.518,14.397,0.000,166.955,0.000]"
        ],
        "guideScene": 1084,
        "guideStyle": "QUEST_GUIDE_STYLE_POINT",
        "guideLayer": "QUEST_GUIDE_LAYER_SCENE"
      },
      "guideHint": {
        "param1": ""
      },
      "isRewind": true,
      "finishExec": [
        {
          "KPGKDHAFHFE": "QUEST_EXEC_UNREGISTER_DYNAMIC_GROUP",
          "param": [
            "201084006",
            "0"
          ]
        },
        {
          "KPGKDHAFHFE": "QUEST_EXEC_UNREGISTER_DYNAMIC_GROUP",
          "param": [
            "201084009",
            "0"
          ]
        }
      ],
      "versionBegin": "",
      "versionEnd": ""
    },
    {
      "subId": 4013318,
      "mainId": 40133,
      "order": 19,
      "showType": "QUEST_HIDDEN",
      "GMKDJFPEFFF": [
        340124,
        340130
      ],
      "finishCond": [
        {
          "KPGKDHAFHFE": "QUEST_CONTENT_QUEST_STATE_EQUAL",
          "param": [
            4013306,
            3
          ]
        },
        {
          "KPGKDHAFHFE": "QUEST_CONTENT_QUEST_STATE_EQUAL",
          "param": [
            4013307,
            3
          ]
        },
        {
          "KPGKDHAFHFE": "QUEST_CONTENT_QUEST_STATE_EQUAL",
          "param": [
            4013308,
            3
          ]
        }
      ],
      "guide": {},
      "guideHint": {
        "param1": ""
      },
      "failParentShow": "QUEST_HIDDEN",
      "JPAAAIKKJNG": "QUEST_HIDDEN",
      "isRewind": true,
      "versionBegin": "",
      "versionEnd": ""
    },
    {
      "subId": 4013319,
      "mainId": 40133,
      "order": 12,
      "descTextMapHash": 2584279580,
      "GMKDJFPEFFF": [
        340114
      ],
      "finishCond": [
        {
          "KPGKDHAFHFE": "QUEST_CONTENT_COMPLETE_TALK",
          "param": [
            4013319,
            0
          ]
        }
      ],
      "guide": {
        "KPGKDHAFHFE": "QUEST_GUIDE_LOCATION",
        "param": [
          "[3_340100489:3455.169,454.922,4630.004]"
        ],
        "guideScene": 3,
        "guideStyle": "QUEST_GUIDE_STYLE_POINT",
        "guideLayer": "QUEST_GUIDE_LAYER_SCENE"
      },
      "guideHint": {
        "param1": ""
      },
      "isRewind": true,
      "versionBegin": "",
      "versionEnd": ""
    },
    {
      "subId": 4013320,
      "mainId": 40133,
      "order": 15,
      "descTextMapHash": 662720148,
      "GMKDJFPEFFF": [
        340124,
        340130
      ],
      "finishCond": [
        {
          "KPGKDHAFHFE": "QUEST_CONTENT_FINISH_PLOT",
          "param": [
            4013320,
            0
          ]
        }
      ],
      "guide": {
        "KPGKDHAFHFE": "QUEST_GUIDE_LOCATION",
        "param": [
          "[3_340100445:3479.793,291.958,4514.708,0.000,102.561,0.000]",
          "30"
        ],
        "guideScene": 3,
        "guideStyle": "QUEST_GUIDE_STYLE_POINT",
        "guideLayer": "QUEST_GUIDE_LAYER_SCENE"
      },
      "guideHint": {
        "param1": ""
      },
      "isRewind": true,
      "versionBegin": "",
      "versionEnd": ""
    }
  ],
  "talks": [
    {
      "id": 4013301,
      "beginWay": "TALK_BEGIN_MANUAL",
      "beginCond": [
        {
          "type": "QUEST_COND_STATE_EQUAL",
          "_param": [
            "4013301",
            "2"
          ]
        }
      ],
      "priority": 5,
      "initDialog": 401330101,
      "npcId": [
        2604,
        1035
      ],
      "performCfg": "QuestDialogue/EQ/Filmfest_40133/Q4013301",
      "heroTalk": "TALK_HERO_MAIN",
      "questId": 40133,
      "assetIndex": 13792898352632081136,
      "prePerformCfg": "",
      "lockGameTime": true,
      "forceNpcNotDestroy": true,
      "PLPFOOINAAJ": [
        "[3_340100421:3458.680,454.922,4633.108,0.000,227.315,0.000]",
        "[3_340100422:3458.087,454.890,4632.354,0.000,40.995,0.000]",
        "[3_340100423:3465.146,454.922,4641.685,0.000,219.159,0.000]",
        "[3_340100424:3466.365,454.922,4644.950,0.000,225.654,0.000]"
      ]
    },
    {
      "id": 4013302,
      "beginWay": "TALK_BEGIN_MANUAL",
      "beginCond": [
        {
          "type": "QUEST_COND_STATE_EQUAL",
          "_param": [
            "4013302",
            "2"
          ]
        }
      ],
      "priority": 5,
      "initDialog": 401330201,
      "npcId": [
        1035
      ],
      "performCfg": "QuestDialogue/EQ/Filmfest_40133/Q4013302",
      "heroTalk": "TALK_HERO_MAIN",
      "questId": 40133,
      "assetIndex": 298372471280135579,
      "prePerformCfg": "",
      "lockGameTime": true,
      "forceNpcNotDestroy": true,
      "PLPFOOINAAJ": [
        "[3_340200134:3373.407,424.791,4034.765,0.000,296.503,0.000]",
        "[3_340200135:3372.849,424.763,4033.775,0.000,313.702,0.000]",
        "[3_340200136:3373.403,424.644,4035.458,0.000,309.075,0.000]"
      ]
    },
    {
      "id": 4013303,
      "beginWay": "TALK_BEGIN_MANUAL",
      "beginCond": [
        {
          "type": "QUEST_COND_STATE_EQUAL",
          "_param": [
            "4013303",
            "2"
          ]
        }
      ],
      "priority": 5,
      "initDialog": 401330301,
      "npcId": [
        2604
      ],
      "performCfg": "QuestDialogue/EQ/Filmfest_40133/Q4013303",
      "heroTalk": "TALK_HERO_MAIN",
      "questId": 40133,
      "assetIndex": 3239886480267038767,
      "prePerformCfg": "",
      "lockGameTime": true,
      "forceNpcNotDestroy": true,
      "PLPFOOINAAJ": [
        "[1084_26:-0.057,7.553,17.211,0.000,246.195,0.000]",
        "[1084_27:-0.942,7.553,14.708]",
        "[1084_28:0.840,7.553,14.068]",
        "[1084_29:5.658,7.535,16.996,0.000,279.598,0.000]",
        "[1084_30:5.596,7.535,15.618,0.000,277.451,0.000]",
        "[1084_31:5.549,7.535,14.184,0.000,311.396,0.000]",
        "[1084_32:8.490,7.518,15.801,0.000,294.685,0.000]",
        "[1084_33:8.485,7.518,14.007,0.000,299.147,0.000]",
        "[1084_34:10.635,7.518,15.282,0.000,269.976,0.000]",
        "[1084_35:10.321,7.518,13.743,0.000,295.412,0.000]",
        "[1084_36:10.883,7.518,17.533,0.000,273.510,0.000]",
        "[1084_37:10.968,7.518,16.369,0.000,283.088,0.000]"
      ]
    },
    {
      "id": 4013304,
      "beginWay": "TALK_BEGIN_MANUAL",
      "beginCond": [
        {
          "type": "QUEST_COND_STATE_EQUAL",
          "_param": [
            "4013304",
            "2"
          ]
        }
      ],
      "priority": 5,
      "initDialog": 401330401,
      "npcId": [
        5029
      ],
      "performCfg": "QuestDialogue/EQ/Filmfest_40133/Q4013304",
      "heroTalk": "TALK_HERO_MAIN",
      "questId": 40133,
      "assetIndex": 13437610522033300173,
      "prePerformCfg": "",
      "lockGameTime": true,
      "forceNpcNotDestroy": true,
      "PLPFOOINAAJ": [
        "[3_340100353:3563.208,446.167,4434.247,0.000,335.069,0.000]",
        "[3_340100491:3563.386,446.167,4436.283,0.000,203.752,0.000]",
        "[3_340100492:3561.902,446.167,4436.428,0.000,153.031,0.000]",
        "[3_340100493:3564.508,446.167,4435.964,0.000,229.346,0.000]"
      ]
    },
    {
      "id": 4013305,
      "beginWay": "TALK_BEGIN_MANUAL",
      "beginCond": [
        {
          "type": "QUEST_COND_STATE_EQUAL",
          "_param": [
            "4013305",
            "2"
          ]
        }
      ],
      "priority": 5,
      "initDialog": 401330501,
      "npcId": [
        5033
      ],
      "performCfg": "QuestDialogue/EQ/Filmfest_40133/Q4013305",
      "heroTalk": "TALK_HERO_MAIN",
      "questId": 40133,
      "assetIndex": 10660593301116670851,
      "prePerformCfg": "",
      "lockGameTime": true,
      "forceNpcNotDestroy": true,
      "PLPFOOINAAJ": [
        "[3_340100354:3606.608,428.203,4582.926,0.000,287.994,0.000]",
        "[3_340100494:3604.403,428.202,4583.008]",
        "[3_340100495:3604.390,428.242,4582.000]",
        "[3_340100496:3604.402,428.202,4584.025]"
      ]
    },
    {
      "id": 4013306,
      "beginWay": "TALK_BEGIN_MANUAL",
      "beginCond": [
        {
          "type": "QUEST_COND_STATE_EQUAL",
          "_param": [
            "4013306",
            "2"
          ]
        }
      ],
      "priority": 5,
      "initDialog": 401330601,
      "npcId": [
        5064
      ],
      "performCfg": "QuestDialogue/EQ/Filmfest_40133/Q4013306",
      "heroTalk": "TALK_HERO_MAIN",
      "questId": 40133,
      "assetIndex": 1977259573032889314,
      "prePerformCfg": "",
      "lockGameTime": true,
      "forceNpcNotDestroy": true,
      "PLPFOOINAAJ": [
        "[3_340100434:3486.839,283.655,4560.662,0.000,321.324,0.000]",
        "[3_340100435:3488.321,283.655,4559.409,0.000,310.034,0.000]",
        "[3_340100436:3489.038,283.655,4560.134,0.000,290.837,0.000]",
        "[3_340100437:3489.729,283.655,4560.820,0.000,283.950,0.000]"
      ]
    },
    {
      "id": 4013307,
      "beginWay": "TALK_BEGIN_MANUAL",
      "beginCond": [
        {
          "type": "QUEST_COND_STATE_EQUAL",
          "_param": [
            "4013307",
            "2"
          ]
        }
      ],
      "priority": 5,
      "initDialog": 401330701,
      "npcId": [
        30444
      ],
      "performCfg": "QuestDialogue/EQ/Filmfest_40133/Q4013307",
      "heroTalk": "TALK_HERO_MAIN",
      "questId": 40133,
      "assetIndex": 14875362607720360416,
      "prePerformCfg": "",
      "lockGameTime": true,
      "forceNpcNotDestroy": true,
      "PLPFOOINAAJ": [
        "[3_340100441:3500.772,299.740,4532.298,0.000,311.534,0.000]",
        "[3_340100442:3504.712,299.782,4530.333,0.000,299.210,0.000]",
        "[3_340100443:3504.235,299.782,4529.804,0.000,328.759,0.000]",
        "[3_340100444:3503.592,299.782,4529.220]"
      ]
    },
    {
      "id": 4013308,
      "beginWay": "TALK_BEGIN_MANUAL",
      "beginCond": [
        {
          "type": "QUEST_COND_STATE_EQUAL",
          "_param": [
            "4013308",
            "2"
          ]
        }
      ],
      "priority": 5,
      "initDialog": 401330801,
      "npcId": [
        30451
      ],
      "performCfg": "QuestDialogue/EQ/Filmfest_40133/Q4013308",
      "heroTalk": "TALK_HERO_MAIN",
      "questId": 40133,
      "assetIndex": 14534203148066361906,
      "prePerformCfg": "",
      "lockGameTime": true,
      "forceNpcNotDestroy": true,
      "PLPFOOINAAJ": [
        "[3_340100438:3402.257,291.931,4481.466,0.000,58.187,0.000]",
        "[3_340100439:3403.435,291.931,4480.152,0.000,304.853,0.000]",
        "[3_340100440:3403.300,292.020,4482.370,0.000,250.983,0.000]"
      ]
    },
    {
      "id": 4013309,
      "beginWay": "TALK_BEGIN_MANUAL",
      "beginCond": [
        {
          "type": "QUEST_COND_STATE_EQUAL",
          "_param": [
            "4013309",
            "2"
          ]
        }
      ],
      "priority": 5,
      "initDialog": 401330901,
      "npcId": [
        1081
      ],
      "performCfg": "QuestDialogue/EQ/Filmfest_40133/Q4013309",
      "heroTalk": "TALK_HERO_MAIN",
      "questId": 40133,
      "assetIndex": 1932874998550286272,
      "prePerformCfg": "",
      "lockGameTime": true,
      "forceNpcNotDestroy": true,
      "PLPFOOINAAJ": [
        "[3_340100360:3481.601,291.855,4513.427,0.000,322.013,0.000]",
        "[3_340100445:3479.793,291.958,4514.708,0.000,102.561,0.000]",
        "[3_340100446:3481.756,291.789,4515.298,0.000,223.153,0.000]"
      ]
    },
    {
      "id": 4013311,
      "beginWay": "TALK_BEGIN_MANUAL",
      "beginCond": [
        {
          "type": "QUEST_COND_STATE_EQUAL",
          "_param": [
            "4013312",
            "2"
          ]
        }
      ],
      "priority": 5,
      "initDialog": 401331101,
      "npcId": [
        1035
      ],
      "performCfg": "QuestDialogue/EQ/Filmfest_40133/Q4013311",
      "heroTalk": "TALK_HERO_MAIN",
      "questId": 40133,
      "assetIndex": 11122348664656308109,
      "prePerformCfg": "",
      "lockGameTime": true,
      "forceNpcNotDestroy": true,
      "PLPFOOINAAJ": [
        "[1084_49:-8.101,7.535,15.340,0.000,332.637,0.000]",
        "[1084_50:5.088,7.553,13.838,0.000,93.638,0.000]",
        "[1084_51:-8.287,7.535,13.671]",
        "[1084_52:-9.217,7.518,13.549]"
      ]
    },
    {
      "id": 4013312,
      "beginWay": "TALK_BEGIN_MANUAL",
      "beginCond": [
        {
          "type": "QUEST_COND_STATE_EQUAL",
          "_param": [
            "4013311",
            "2"
          ]
        }
      ],
      "priority": 5,
      "initDialog": 401331201,
      "npcId": [
        1082,
        1047
      ],
      "performCfg": "QuestDialogue/EQ/Filmfest_40133/Q4013312",
      "heroTalk": "TALK_HERO_MAIN",
      "questId": 40133,
      "assetIndex": 15491952024576392095,
      "prePerformCfg": "",
      "lockGameTime": true,
      "forceNpcNotDestroy": true,
      "PLPFOOINAAJ": [
        "[1084_45:11.012,7.518,16.217,0.000,175.395,0.000]",
        "[1084_46:11.851,7.518,15.823,0.000,214.266,0.000]",
        "[1084_47:8.299,7.518,14.397,0.000,166.955,0.000]",
        "[1084_48:9.406,7.518,14.677,0.000,186.896,0.000]"
      ]
    },
    {
      "id": 4013316,
      "beginWay": "TALK_BEGIN_MANUAL",
      "beginCond": [
        {
          "type": "QUEST_COND_STATE_EQUAL",
          "_param": [
            "4013316",
            "2"
          ]
        }
      ],
      "priority": 5,
      "initDialog": 401331601,
      "npcId": [
        1081
      ],
      "performCfg": "QuestDialogue/EQ/Filmfest_40133/Q4013316",
      "heroTalk": "TALK_HERO_MAIN",
      "questId": 40133,
      "assetIndex": 5314468907380966919,
      "prePerformCfg": "",
      "lockGameTime": true,
      "forceNpcNotDestroy": true,
      "PLPFOOINAAJ": [
        "[1084_45:11.012,7.518,16.217,0.000,175.395,0.000]",
        "[1084_46:11.851,7.518,15.823,0.000,214.266,0.000]",
        "[1084_47:8.299,7.518,14.397,0.000,166.955,0.000]",
        "[1084_53:0.034,7.553,21.715,0.000,181.001,0.000]",
        "[1084_57:9.664,7.518,9.684,0.000,133.598,0.000]",
        "[1084_58:9.490,7.518,8.788,0.000,75.770,0.000]",
        "[1084_59:10.264,7.518,8.150,0.000,341.941,0.000]",
        "[1084_63:6.955,7.518,16.057,0.000,100.750,0.000]"
      ]
    },
    {
      "id": 4013317,
      "beginWay": "TALK_BEGIN_MANUAL",
      "beginCond": [
        {
          "type": "QUEST_COND_STATE_EQUAL",
          "_param": [
            "4013317",
            "2"
          ]
        }
      ],
      "priority": 5,
      "initDialog": 401331701,
      "npcId": [
        1073
      ],
      "performCfg": "QuestDialogue/EQ/Filmfest_40133/Q4013317",
      "heroTalk": "TALK_HERO_MAIN",
      "questId": 40133,
      "assetIndex": 5512241619756294027,
      "prePerformCfg": "",
      "lockGameTime": true,
      "forceNpcNotDestroy": true,
      "PLPFOOINAAJ": [
        "[1084_37:10.968,7.518,16.369,0.000,283.088,0.000]",
        "[1084_47:8.299,7.518,14.397,0.000,166.955,0.000]",
        "[1084_48:9.406,7.518,14.677,0.000,186.896,0.000]",
        "[1084_49:-8.101,7.535,15.340,0.000,332.637,0.000]",
        "[1084_53:0.034,7.553,21.715,0.000,181.001,0.000]",
        "[1084_57:9.664,7.518,9.684,0.000,133.598,0.000]",
        "[1084_58:9.490,7.518,8.788,0.000,75.770,0.000]"
      ]
    },
    {
      "id": 4013319,
      "beginWay": "TALK_BEGIN_MANUAL",
      "beginCond": [
        {
          "type": "QUEST_COND_STATE_EQUAL",
          "_param": [
            "4013319",
            "2"
          ]
        }
      ],
      "priority": 5,
      "initDialog": 401331901,
      "npcId": [
        1081
      ],
      "performCfg": "QuestDialogue/EQ/Filmfest_40133/Q4013319",
      "heroTalk": "TALK_HERO_MAIN",
      "questId": 40133,
      "assetIndex": 13603278794138279540,
      "prePerformCfg": "",
      "lockGameTime": true,
      "forceNpcNotDestroy": true,
      "PLPFOOINAAJ": [
        "[3_340100484:3450.773,454.922,4626.562,0.000,41.991,0.000]",
        "[3_340100488:3451.281,455.453,4635.513,0.000,131.913,0.000]",
        "[3_340100489:3455.169,454.922,4630.004]",
        "[3_340100490:3456.745,454.922,4631.129,0.000,275.452,0.000]"
      ]
    },
    {
      "id": 4013322,
      "beginWay": "TALK_BEGIN_MANUAL",
      "beginCondComb": "LOGIC_A_AND_ETCOR",
      "beginCond": [
        {
          "type": "QUEST_COND_STATE_EQUAL",
          "_param": [
            "4013311",
            "3"
          ]
        },
        {
          "type": "QUEST_COND_STATE_EQUAL",
          "_param": [
            "4013315",
            "2"
          ]
        },
        {
          "type": "QUEST_COND_STATE_EQUAL",
          "_param": [
            "4013316",
            "2"
          ]
        }
      ],
      "priority": 5,
      "initDialog": 401332201,
      "npcId": [
        1047,
        1082
      ],
      "performCfg": "QuestDialogue/EQ/Filmfest_40133/Q4013322",
      "heroTalk": "TALK_HERO_MAIN",
      "questId": 40133,
      "assetIndex": 18284491960125093588,
      "prePerformCfg": "",
      "lowPriority": true,
      "forceNpcNotDestroy": true
    },
    {
      "id": 4013323,
      "beginWay": "TALK_BEGIN_MANUAL",
      "beginCondComb": "LOGIC_A_AND_ETCOR",
      "beginCond": [
        {
          "type": "QUEST_COND_STATE_EQUAL",
          "_param": [
            "4013303",
            "3"
          ]
        },
        {
          "type": "QUEST_COND_STATE_EQUAL",
          "_param": [
            "4013315",
            "2"
          ]
        },
        {
          "type": "QUEST_COND_STATE_EQUAL",
          "_param": [
            "4013316",
            "2"
          ]
        }
      ],
      "priority": 5,
      "initDialog": 401332301,
      "npcId": [
        1073
      ],
      "performCfg": "QuestDialogue/EQ/Filmfest_40133/Q4013323",
      "heroTalk": "TALK_HERO_MAIN",
      "questId": 40133,
      "assetIndex": 1766192656928629112,
      "prePerformCfg": "",
      "lowPriority": true,
      "forceNpcNotDestroy": true
    },
    {
      "id": 4013324,
      "beginWay": "TALK_BEGIN_MANUAL",
      "beginCondComb": "LOGIC_AND",
      "beginCond": [
        {
          "type": "QUEST_COND_STATE_EQUAL",
          "_param": [
            "4013303",
            "3"
          ]
        },
        {
          "type": "QUEST_COND_STATE_EQUAL",
          "_param": [
            "4013315",
            "2"
          ]
        }
      ],
      "priority": 5,
      "initDialog": 401332401,
      "npcId": [
        2604,
        1081
      ],
      "performCfg": "QuestDialogue/EQ/Filmfest_40133/Q4013324",
      "heroTalk": "TALK_HERO_MAIN",
      "questId": 40133,
      "assetIndex": 11319905515603353585,
      "prePerformCfg": "",
      "lowPriority": true,
      "forceNpcNotDestroy": true
    },
    {
      "id": 4013329,
      "beginWay": "TALK_BEGIN_MANUAL",
      "beginCondComb": "LOGIC_A_AND_ETCOR",
      "beginCond": [
        {
          "type": "QUEST_COND_STATE_EQUAL",
          "_param": [
            "4013308",
            "3"
          ]
        },
        {
          "type": "QUEST_COND_STATE_EQUAL",
          "_param": [
            "4013309",
            "2"
          ]
        },
        {
          "type": "QUEST_COND_STATE_EQUAL",
          "_param": [
            "4013318",
            "2"
          ]
        }
      ],
      "priority": 5,
      "initDialog": 401332901,
      "npcId": [
        30451
      ],
      "performCfg": "QuestDialogue/EQ/Filmfest_40133/Q4013329",
      "heroTalk": "TALK_HERO_MAIN",
      "questId": 40133,
      "assetIndex": 4962451959384875707,
      "prePerformCfg": "",
      "lowPriority": true,
      "forceNpcNotDestroy": true
    }
  ],
  "preloadLuaList": [
    14366430857876176635,
    16208400561443401262,
    15619747377416382735
  ],
  "forcePreloadLuaList": [
    7759686131686423429
  ],
  "freeStyleDic": {
    "1035": [
      1170,
      1230
    ],
    "2604": [
      1130,
      1190
    ],
    "30439": [
      1190
    ],
    "1081": [
      1120
    ],
    "1082": [
      1190
    ],
    "30436": [
      1170
    ],
    "1047": [
      0
    ],
    "1073": [
      8080
    ],
    "5029": [
      1120
    ],
    "5033": [
      1190
    ],
    "5064": [
      1120
    ],
    "30444": [
      1190
    ]
  },
  "dialogList": [
    {
      "id": 401339905,
      "talkRole": {
        "type": "TALK_ROLE_BLACK_SCREEN",
        "_id": ""
      },
      "talkAssetPath": "",
      "talkAssetPathAlter": "",
      "talkAudioName": "",
      "actionBefore": "",
      "actionWhile": "",
      "actionAfter": "",
      "optionIcon": "",
      "iconPath": ""
    }
  ],
  "DDHNEIEDLJA": true
}