{
  "id": 40148,
  "series": 40143,
  "KPGKDHAFHFE": "WQ",
  "mainQuestTag": "MAINQUEST_TAG_GUIDE",
  "titleTextMapHash": 963544663,
  "descTextMapHash": 2017271406,
  "luaPath": "Actor/Quest/WQ40148",
  "suggestTrackMainQuestList": [
    40149
  ],
  "rewardIdList": [
    140148
  ],
  "specialShowRewardId": [
    33477
  ],
  "showRedPoint": true,
  "activityId": 5178,
  "subQuests": [
    {
      "subId": 4014801,
      "mainId": 40148,
      "order": 1,
      "descTextMapHash": 1953986740,
      "finishCond": [
        {
          "KPGKDHAFHFE": "QUEST_CONTENT_GAME_TIME_TICK",
          "param": [
            1,
            0
          ]
        }
      ],
      "guide": {},
      "guideHint": {
        "param1": ""
      },
      "isRewind": true,
      "finishExec": [
        {
          "KPGKDHAFHFE": "QUEST_EXEC_SET_WEATHER_GADGET",
          "param": [
            "2250",
            "1"
          ]
        }
      ],
      "versionBegin": "",
      "versionEnd": ""
    },
    {
      "subId": 4014802,
      "mainId": 40148,
      "order": 2,
      "descTextMapHash": 3199302084,
      "finishCond": [
        {
          "KPGKDHAFHFE": "QUEST_CONTENT_COMPLETE_TALK",
          "param": [
            4014801,
            0
          ]
        }
      ],
      "guide": {
        "KPGKDHAFHFE": "QUEST_GUIDE_NPC",
        "param": [
          "2204"
        ],
        "guideScene": 3,
        "guideStyle": "QUEST_GUIDE_STYLE_TARGET",
        "guideLayer": "QUEST_GUIDE_LAYER_SCENE"
      },
      "guideHint": {
        "param1": ""
      },
      "isRewind": true,
      "finishExec": [
        {
          "KPGKDHAFHFE": "QUEST_EXEC_SET_GAME_TIME",
          "param": [
            "6"
          ]
        }
      ],
      "versionBegin": "",
      "versionEnd": ""
    },
    {
      "subId": 4014803,
      "mainId": 40148,
      "order": 4,
      "descTextMapHash": 93182908,
      "finishCond": [
        {
          "KPGKDHAFHFE": "QUEST_CONTENT_ACTIVITY_TRIGGER_UPDATE",
          "param": [
            5178,
            4014803
          ],
          "count": 1
        }
      ],
      "guide": {
        "KPGKDHAFHFE": "QUEST_GUIDE_LOCATION",
        "param": [
          "[3_310400554:895.916,255.563,330.665,0.000,46.100,0.000]"
        ],
        "guideScene": 3,
        "guideStyle": "QUEST_GUIDE_STYLE_POINT",
        "guideLayer": "QUEST_GUIDE_LAYER_UI"
      },
      "guideHint": {
        "param1": ""
      },
      "isRewind": true,
      "finishExec": [
        {
          "KPGKDHAFHFE": "QUEST_EXEC_SET_GAME_TIME",
          "param": [
            "6"
          ]
        },
        {
          "KPGKDHAFHFE": "QUEST_EXEC_UNREGISTER_DYNAMIC_GROUP",
          "param": [
            "133104834"
          ]
        }
      ],
      "versionBegin": "",
      "versionEnd": ""
    },
    {
      "subId": 4014804,
      "mainId": 40148,
      "order": 5,
      "descTextMapHash": 2349603252,
      "finishCond": [
        {
          "KPGKDHAFHFE": "QUEST_CONTENT_COMPLETE_TALK",
          "param": [
            4014802,
            0
          ]
        }
      ],
      "guide": {
        "KPGKDHAFHFE": "QUEST_GUIDE_NPC",
        "param": [
          "1044"
        ],
        "guideScene": 3,
        "guideStyle": "QUEST_GUIDE_STYLE_TARGET",
        "guideLayer": "QUEST_GUIDE_LAYER_SCENE"
      },
      "guideHint": {
        "param1": ""
      },
      "isRewind": true,
      "finishExec": [
        {
          "KPGKDHAFHFE": "QUEST_EXEC_SET_GAME_TIME",
          "param": [
            "6"
          ]
        }
      ],
      "versionBegin": "",
      "versionEnd": ""
    },
    {
      "subId": 4014805,
      "mainId": 40148,
      "order": 6,
      "descTextMapHash": 3355819660,
      "finishCond": [
        {
          "KPGKDHAFHFE": "QUEST_CONTENT_COMPLETE_TALK",
          "param": [
            4014803,
            0
          ]
        }
      ],
      "guide": {
        "KPGKDHAFHFE": "QUEST_GUIDE_NPC",
        "param": [
          "2204"
        ],
        "guideScene": 3,
        "guideStyle": "QUEST_GUIDE_STYLE_TARGET",
        "guideLayer": "QUEST_GUIDE_LAYER_SCENE"
      },
      "guideHint": {
        "param1": ""
      },
      "finishParent": true,
      "isRewind": true,
      "finishExec": [
        {
          "KPGKDHAFHFE": "QUEST_EXEC_SET_GAME_TIME",
          "param": [
            "6"
          ]
        },
        {
          "KPGKDHAFHFE": "QUEST_EXEC_UNREGISTER_DYNAMIC_GROUP",
          "param": [
            "133104837",
            "1"
          ]
        },
        {
          "KPGKDHAFHFE": "QUEST_EXEC_SET_WEATHER_GADGET",
          "param": [
            "2250",
            "0"
          ]
        }
      ],
      "versionBegin": "",
      "versionEnd": ""
    },
    {
      "subId": 4014806,
      "mainId": 40148,
      "order": 3,
      "descTextMapHash": 3541046124,
      "finishCond": [
        {
          "KPGKDHAFHFE": "QUEST_CONTENT_COMPLETE_TALK",
          "param": [
            4014804,
            0
          ]
        }
      ],
      "guide": {
        "KPGKDHAFHFE": "QUEST_GUIDE_NPC",
        "param": [
          "2204"
        ],
        "guideScene": 3,
        "guideStyle": "QUEST_GUIDE_STYLE_TARGET",
        "guideLayer": "QUEST_GUIDE_LAYER_SCENE"
      },
      "guideHint": {
        "param1": ""
      },
      "isRewind": true,
      "finishExec": [
        {
          "KPGKDHAFHFE": "QUEST_EXEC_SET_GAME_TIME",
          "param": [
            "6"
          ]
        }
      ],
      "versionBegin": "",
      "versionEnd": ""
    }
  ],
  "talks": [
    {
      "id": 4014801,
      "beginWay": "TALK_BEGIN_MANUAL",
      "beginCond": [
        {
          "type": "QUEST_COND_STATE_EQUAL",
          "_param": [
            "4014802",
            "2"
          ]
        }
      ],
      "priority": 5,
      "initDialog": 401480101,
      "npcId": [
        2204
      ],
      "performCfg": "QuestDialogue/WQ/Liyue_40148/Q4014801",
      "heroTalk": "TALK_HERO_MAIN",
      "questId": 40148,
      "assetIndex": 14983675294015981248,
      "prePerformCfg": "",
      "lockGameTime": true,
      "PLPFOOINAAJ": [
        "[3_310400533:888.421,255.563,329.875,0.000,106.702,0.000]",
        "[3_310400534:922.885,258.972,363.918,0.000,198.850,0.000]",
        "[3_310400535:924.154,258.972,367.775,0.000,46.044,0.000]",
        "[3_310400536:924.166,258.971,362.661,0.000,261.325,0.000]"
      ]
    },
    {
      "id": 4014802,
      "beginWay": "TALK_BEGIN_MANUAL",
      "beginCond": [
        {
          "type": "QUEST_COND_STATE_EQUAL",
          "_param": [
            "4014804",
            "2"
          ]
        }
      ],
      "priority": 5,
      "initDialog": 401480201,
      "npcId": [
        1044
      ],
      "performCfg": "QuestDialogue/WQ/Liyue_40148/Q4014802",
      "heroTalk": "TALK_HERO_MAIN",
      "questId": 40148,
      "assetIndex": 12653018208466728916,
      "prePerformCfg": "",
      "lockGameTime": true,
      "PLPFOOINAAJ": [
        "[3_310400534:922.885,258.972,363.918,0.000,198.850,0.000]",
        "[3_310400535:924.154,258.972,367.775,0.000,46.044,0.000]",
        "[3_310400536:924.166,258.971,362.661,0.000,261.325,0.000]"
      ]
    },
    {
      "id": 4014803,
      "beginWay": "TALK_BEGIN_MANUAL",
      "beginCond": [
        {
          "type": "QUEST_COND_STATE_EQUAL",
          "_param": [
            "4014805",
            "2"
          ]
        }
      ],
      "priority": 5,
      "initDialog": 401480301,
      "npcId": [
        2204
      ],
      "performCfg": "QuestDialogue/WQ/Liyue_40148/Q4014803",
      "heroTalk": "TALK_HERO_MAIN",
      "questId": 40148,
      "assetIndex": 1913936690389912134,
      "prePerformCfg": "",
      "PLPFOOINAAJ": [
        "[3_310400533:888.421,255.563,329.875,0.000,106.702,0.000]"
      ]
    },
    {
      "id": 4014804,
      "beginWay": "TALK_BEGIN_MANUAL",
      "beginCond": [
        {
          "type": "QUEST_COND_STATE_EQUAL",
          "_param": [
            "4014806",
            "2"
          ]
        }
      ],
      "priority": 5,
      "initDialog": 401480401,
      "npcId": [
        2204
      ],
      "performCfg": "QuestDialogue/WQ/Liyue_40148/Q4014804",
      "heroTalk": "TALK_HERO_MAIN",
      "questId": 40148,
      "assetIndex": 3315624168359882400,
      "prePerformCfg": "",
      "PLPFOOINAAJ": [
        "[3_310400530:888.953,255.563,331.809,0.000,127.215,0.000]",
        "[3_310400533:888.421,255.563,329.875,0.000,106.702,0.000]",
        "[3_310400534:922.885,258.972,363.918,0.000,198.850,0.000]"
      ]
    },
    {
      "id": 4014892,
      "beginWay": "TALK_BEGIN_MANUAL",
      "beginCond": [
        {
          "type": "QUEST_COND_STATE_EQUAL",
          "_param": [
            "4014801",
            "2"
          ]
        }
      ],
      "priority": 5,
      "initDialog": 401489201,
      "npcId": [
        2204
      ],
      "performCfg": "",
      "questId": 40148,
      "assetIndex": 12529093129231059226,
      "prePerformCfg": ""
    },
    {
      "id": 4014893,
      "beginWay": "TALK_BEGIN_MANUAL",
      "beginCondComb": "LOGIC_OR",
      "beginCond": [
        {
          "type": "QUEST_COND_STATE_EQUAL",
          "_param": [
            "4014801",
            "2"
          ]
        },
        {
          "type": "QUEST_COND_STATE_EQUAL",
          "_param": [
            "4014802",
            "2"
          ]
        },
        {
          "type": "QUEST_COND_STATE_EQUAL",
          "_param": [
            "4014806",
            "2"
          ]
        },
        {
          "type": "QUEST_COND_STATE_EQUAL",
          "_param": [
            "4014803",
            "2"
          ]
        },
        {
          "type": "QUEST_COND_STATE_EQUAL",
          "_param": [
            "4014804",
            "2"
          ]
        },
        {
          "type": "QUEST_COND_STATE_EQUAL",
          "_param": [
            "4014805",
            "2"
          ]
        }
      ],
      "priority": 5,
      "initDialog": 401489301,
      "npcId": [
        2202
      ],
      "performCfg": "",
      "questId": 40148,
      "assetIndex": 5260494824569389666,
      "prePerformCfg": ""
    },
    {
      "id": 4014894,
      "beginWay": "TALK_BEGIN_MANUAL",
      "beginCond": [
        {
          "type": "QUEST_COND_STATE_EQUAL",
          "_param": [
            "4014806",
            "2"
          ]
        }
      ],
      "priority": 5,
      "initDialog": 401489401,
      "npcId": [
        1049
      ],
      "performCfg": "QuestDialogue/WQ/Liyue_40148/Q4014894",
      "heroTalk": "TALK_HERO_MAIN",
      "questId": 40148,
      "assetIndex": 8330112274057128056,
      "prePerformCfg": ""
    },
    {
      "id": 4014895,
      "beginWay": "TALK_BEGIN_MANUAL",
      "beginCondComb": "LOGIC_OR",
      "beginCond": [
        {
          "type": "QUEST_COND_STATE_EQUAL",
          "_param": [
            "4014803",
            "2"
          ]
        },
        {
          "type": "QUEST_COND_STATE_EQUAL",
          "_param": [
            "4014804",
            "2"
          ]
        }
      ],
      "priority": 5,
      "initDialog": 401489501,
      "npcId": [
        2204,
        1049
      ],
      "performCfg": "QuestDialogue/WQ/Liyue_40148/Q4014895",
      "heroTalk": "TALK_HERO_MAIN",
      "questId": 40148,
      "assetIndex": 18272704652879157807,
      "prePerformCfg": ""
    },
    {
      "id": 4014896,
      "beginWay": "TALK_BEGIN_MANUAL",
      "beginCondComb": "LOGIC_OR",
      "beginCond": [
        {
          "type": "QUEST_COND_STATE_EQUAL",
          "_param": [
            "4014806",
            "2"
          ]
        },
        {
          "type": "QUEST_COND_STATE_EQUAL",
          "_param": [
            "4014803",
            "2"
          ]
        }
      ],
      "priority": 5,
      "initDialog": 401489601,
      "npcId": [
        1044,
        1047
      ],
      "performCfg": "QuestDialogue/WQ/Liyue_40148/Q4014896",
      "heroTalk": "TALK_HERO_MAIN",
      "questId": 40148,
      "assetIndex": 17087334702507335958,
      "prePerformCfg": ""
    },
    {
      "id": 4014897,
      "beginWay": "TALK_BEGIN_MANUAL",
      "beginCond": [
        {
          "type": "QUEST_COND_STATE_EQUAL",
          "_param": [
            "4014805",
            "2"
          ]
        }
      ],
      "priority": 5,
      "initDialog": 401489701,
      "npcId": [
        1047
      ],
      "performCfg": "QuestDialogue/WQ/Liyue_40148/Q4014897",
      "heroTalk": "TALK_HERO_MAIN",
      "questId": 40148,
      "assetIndex": 3399598924146638282,
      "prePerformCfg": ""
    },
    {
      "id": 4014898,
      "beginWay": "TALK_BEGIN_MANUAL",
      "beginCond": [
        {
          "type": "QUEST_COND_STATE_EQUAL",
          "_param": [
            "4014805",
            "2"
          ]
        }
      ],
      "priority": 5,
      "initDialog": 401489801,
      "npcId": [
        1044,
        1049
      ],
      "performCfg": "QuestDialogue/WQ/Liyue_40148/Q4014898",
      "heroTalk": "TALK_HERO_MAIN",
      "questId": 40148,
      "assetIndex": 16592251276120671544,
      "prePerformCfg": ""
    }
  ],
  "preloadLuaList": [
    17629926090119599486
  ],
  "forcePreloadLuaList": [
    4429097807714848906
  ],
  "freeStyleDic": {
    "1044": [
      1180,
      1170
    ],
    "1047": [
      0
    ],
    "1049": [
      0,
      1230
    ]
  },
  "DDHNEIEDLJA": true
}