{
  "id": 40157,
  "KPGKDHAFHFE": "EQ",
  "titleTextMapHash": 1727860191,
  "descTextMapHash": 79363574,
  "luaPath": "Actor/Quest/EQ40157",
  "rewardIdList": [
    140157
  ],
  "chapterId": 10190,
  "showRedPoint": true,
  "activityId": 2030,
  "subQuests": [
    {
      "subId": 4015701,
      "mainId": 40157,
      "order": 2,
      "descTextMapHash": 3692440204,
      "finishCond": [
        {
          "KPGKDHAFHFE": "QUEST_CONTENT_FINISH_PLOT",
          "param": [
            4015701,
            0
          ]
        }
      ],
      "guide": {
        "guideScene": 3
      },
      "guideHint": {
        "KPGKDHAFHFE": "QUEST_GUIDE_HINT_QUEST_ACTIVITY_GREATFESTIVALV2_INVITE",
        "param1": ""
      },
      "isRewind": true,
      "versionBegin": "",
      "versionEnd": ""
    },
    {
      "subId": 4015702,
      "mainId": 40157,
      "order": 3,
      "descTextMapHash": 3375366044,
      "finishCond": [
        {
          "KPGKDHAFHFE": "QUEST_CONTENT_FINISH_PLOT",
          "param": [
            4015702,
            0
          ]
        }
      ],
      "guide": {
        "KPGKDHAFHFE": "QUEST_GUIDE_LOCATION",
        "param": [
          "[3_321000253:-3593.838,208.681,-900.942,0.000,298.739,0.000]",
          "50"
        ],
        "guideScene": 3,
        "guideStyle": "QUEST_GUIDE_STYLE_POINT",
        "guideLayer": "QUEST_GUIDE_LAYER_SCENE"
      },
      "guideHint": {
        "param1": ""
      },
      "isRewind": true,
      "versionBegin": "",
      "versionEnd": ""
    },
    {
      "subId": 4015703,
      "mainId": 40157,
      "order": 4,
      "descTextMapHash": 1338721076,
      "finishCond": [
        {
          "KPGKDHAFHFE": "QUEST_CONTENT_COMPLETE_TALK",
          "param": [
            4015703,
            0
          ]
        }
      ],
      "guide": {
        "KPGKDHAFHFE": "QUEST_GUIDE_NPC",
        "param": [
          "30532"
        ],
        "guideScene": 3,
        "guideStyle": "QUEST_GUIDE_STYLE_TARGET",
        "guideLayer": "QUEST_GUIDE_LAYER_SCENE"
      },
      "guideHint": {
        "param1": ""
      },
      "isRewind": true,
      "versionBegin": "",
      "versionEnd": ""
    },
    {
      "subId": 4015704,
      "mainId": 40157,
      "order": 1,
      "descTextMapHash": 345964692,
      "showType": "QUEST_HIDDEN",
      "finishCond": [
        {
          "KPGKDHAFHFE": "QUEST_CONTENT_FINISH_PLOT",
          "param": [
            4015704,
            0
          ]
        }
      ],
      "guide": {},
      "guideHint": {
        "param1": ""
      },
      "isRewind": true,
      "versionBegin": "",
      "versionEnd": ""
    },
    {
      "subId": 4015705,
      "mainId": 40157,
      "order": 6,
      "descTextMapHash": 3290162436,
      "finishCond": [
        {
          "KPGKDHAFHFE": "QUEST_CONTENT_COMPLETE_TALK",
          "param": [
            4015705,
            0
          ]
        }
      ],
      "guide": {
        "KPGKDHAFHFE": "QUEST_GUIDE_LOCATION",
        "param": [
          "[3_321000267:-3615.737,201.872,-906.978]"
        ],
        "guideScene": 3,
        "guideStyle": "QUEST_GUIDE_STYLE_POINT",
        "guideLayer": "QUEST_GUIDE_LAYER_SCENE"
      },
      "guideHint": {
        "param1": ""
      },
      "finishParent": true,
      "isRewind": true,
      "versionBegin": "",
      "versionEnd": ""
    },
    {
      "subId": 4015706,
      "mainId": 40157,
      "order": 5,
      "descTextMapHash": 2807353420,
      "finishCond": [
        {
          "KPGKDHAFHFE": "QUEST_CONTENT_COMPLETE_TALK",
          "param": [
            4015706,
            0
          ]
        }
      ],
      "guide": {
        "KPGKDHAFHFE": "QUEST_GUIDE_LOCATION",
        "param": [
          "[3_321000254:-3612.493,199.310,-881.232,0.000,143.258,0.000]"
        ],
        "guideScene": 3,
        "guideStyle": "QUEST_GUIDE_STYLE_POINT",
        "guideLayer": "QUEST_GUIDE_LAYER_SCENE"
      },
      "guideHint": {
        "param1": ""
      },
      "isRewind": true,
      "versionBegin": "",
      "versionEnd": ""
    }
  ],
  "talks": [
    {
      "id": 4015703,
      "beginWay": "TALK_BEGIN_MANUAL",
      "beginCond": [
        {
          "type": "QUEST_COND_STATE_EQUAL",
          "_param": [
            "4015703",
            "2"
          ]
        }
      ],
      "priority": 5,
      "initDialog": 401570301,
      "npcId": [
        30532,
        1044
      ],
      "performCfg": "QuestDialogue/EQ/V4.6GreatFestivalV2_40157/Q4015703",
      "heroTalk": "TALK_HERO_MAIN",
      "questId": 40157,
      "assetIndex": 10285009455333139104,
      "prePerformCfg": "",
      "PLPFOOINAAJ": [
        "[3_321000270:-3594.754,208.725,-905.030,0.000,17.024,0.000]",
        "[3_321000271:-3594.325,208.669,-902.709,0.000,179.510,0.000]",
        "[3_321000272:-3592.018,208.900,-903.985,0.000,295.195,0.000]"
      ]
    },
    {
      "id": 4015704,
      "beginWay": "TALK_BEGIN_MANUAL",
      "beginCond": [
        {
          "type": "QUEST_COND_STATE_EQUAL",
          "_param": [
            "4015705",
            "2"
          ]
        }
      ],
      "priority": 5,
      "initDialog": 401570401,
      "npcId": [
        30532
      ],
      "performCfg": "QuestDialogue/EQ/V4.6GreatFestivalV2_40157/Q4015704",
      "heroTalk": "TALK_HERO_MAIN",
      "questId": 40157,
      "assetIndex": 3107039666123619127,
      "prePerformCfg": ""
    },
    {
      "id": 4015705,
      "beginWay": "TALK_BEGIN_MANUAL",
      "beginCond": [
        {
          "type": "QUEST_COND_STATE_EQUAL",
          "_param": [
            "4015705",
            "2"
          ]
        }
      ],
      "priority": 5,
      "initDialog": 401570501,
      "npcId": [
        1057
      ],
      "performCfg": "QuestDialogue/EQ/V4.6GreatFestivalV2_40157/Q4015705",
      "heroTalk": "TALK_HERO_MAIN",
      "questId": 40157,
      "assetIndex": 16646047887246808684,
      "prePerformCfg": "",
      "PLPFOOINAAJ": [
        "[3_321000267:-3615.737,201.872,-906.978]"
      ]
    },
    {
      "id": 4015706,
      "beginWay": "TALK_BEGIN_MANUAL",
      "beginCond": [
        {
          "type": "QUEST_COND_STATE_EQUAL",
          "_param": [
            "4015706",
            "2"
          ]
        }
      ],
      "priority": 5,
      "initDialog": 401570601,
      "npcId": [
        30532
      ],
      "performCfg": "QuestDialogue/EQ/V4.6GreatFestivalV2_40157/Q4015706",
      "heroTalk": "TALK_HERO_MAIN",
      "questId": 40157,
      "assetIndex": 975791728263079045,
      "prePerformCfg": "",
      "PLPFOOINAAJ": [
        "[3_321000254:-3612.493,199.310,-881.232,0.000,143.258,0.000]",
        "[3_321000255:-3611.492,199.310,-883.231,0.000,330.949,0.000]"
      ]
    },
    {
      "id": 4015788,
      "beginCond": [
        {
          "type": "QUEST_COND_ACTIVITY_CLIENT_COND",
          "_param": [
            "2030",
            "2030305",
            "1"
          ]
        }
      ],
      "priority": 5,
      "initDialog": 401578801,
      "npcId": [
        2023
      ],
      "performCfg": "",
      "questId": 40157,
      "assetIndex": 11541265117815291775,
      "prePerformCfg": ""
    },
    {
      "id": 4015789,
      "beginCond": [
        {
          "type": "QUEST_COND_ACTIVITY_CLIENT_COND",
          "_param": [
            "2030",
            "2030305",
            "1"
          ]
        }
      ],
      "priority": 5,
      "initDialog": 401578901,
      "npcId": [
        2023
      ],
      "performCfg": "",
      "questId": 40157,
      "assetIndex": 7845449675154841920,
      "prePerformCfg": ""
    }
  ],
  "preloadLuaList": [
    11727804977381517472
  ],
  "forcePreloadLuaList": [
    7215129031645766101
  ],
  "freeStyleDic": {
    "1044": [
      1180
    ],
    "30532": [
      1190
    ]
  },
  "dialogList": [
    {
      "id": 401579001,
      "nextDialogs": [
        401579002
      ],
      "talkRole": {
        "type": "TALK_ROLE_NPC",
        "_id": "2020"
      },
      "talkContentTextMapHash": 2094110122,
      "talkAssetPath": "",
      "talkAssetPathAlter": "",
      "talkAudioName": "",
      "actionBefore": "",
      "actionWhile": "",
      "actionAfter": "",
      "optionIcon": "",
      "iconPath": ""
    },
    {
      "id": 401579002,
      "nextDialogs": [
        401579003
      ],
      "talkRole": {
        "type": "TALK_ROLE_NPC",
        "_id": "2020"
      },
      "talkContentTextMapHash": 1314749594,
      "talkAssetPath": "",
      "talkAssetPathAlter": "",
      "talkAudioName": "",
      "actionBefore": "",
      "actionWhile": "",
      "actionAfter": "",
      "optionIcon": "",
      "iconPath": ""
    },
    {
      "id": 401579003,
      "nextDialogs": [
        401579004
      ],
      "talkRole": {
        "type": "TALK_ROLE_NPC",
        "_id": "2020"
      },
      "talkContentTextMapHash": 2838333474,
      "talkAssetPath": "",
      "talkAssetPathAlter": "",
      "talkAudioName": "",
      "actionBefore": "",
      "actionWhile": "",
      "actionAfter": "",
      "optionIcon": "",
      "iconPath": ""
    },
    {
      "id": 401579004,
      "nextDialogs": [
        401579005
      ],
      "talkRole": {
        "type": "TALK_ROLE_NPC",
        "_id": "2020"
      },
      "talkContentTextMapHash": 3754533266,
      "talkAssetPath": "",
      "talkAssetPathAlter": "",
      "talkAudioName": "",
      "actionBefore": "",
      "actionWhile": "",
      "actionAfter": "",
      "optionIcon": "",
      "iconPath": ""
    },
    {
      "id": 401579005,
      "nextDialogs": [
        401579006
      ],
      "talkRole": {
        "type": "TALK_ROLE_NPC",
        "_id": "2020"
      },
      "talkContentTextMapHash": 3194448314,
      "talkAssetPath": "",
      "talkAssetPathAlter": "",
      "talkAudioName": "",
      "actionBefore": "",
      "actionWhile": "",
      "actionAfter": "",
      "optionIcon": "",
      "iconPath": ""
    },
    {
      "id": 401579006,
      "nextDialogs": [
        401579007
      ],
      "talkRole": {
        "type": "TALK_ROLE_NPC",
        "_id": "2020"
      },
      "talkContentTextMapHash": 3001596210,
      "talkAssetPath": "",
      "talkAssetPathAlter": "",
      "talkAudioName": "",
      "actionBefore": "",
      "actionWhile": "",
      "actionAfter": "",
      "optionIcon": "",
      "iconPath": ""
    },
    {
      "id": 401579007,
      "talkRole": {
        "type": "TALK_ROLE_NPC",
        "_id": "2020"
      },
      "talkContentTextMapHash": 242101842,
      "talkAssetPath": "",
      "talkAssetPathAlter": "",
      "talkAudioName": "",
      "actionBefore": "",
      "actionWhile": "",
      "actionAfter": "",
      "optionIcon": "",
      "iconPath": ""
    },
    {
      "id": 401579101,
      "nextDialogs": [
        401579102
      ],
      "talkRole": {
        "type": "TALK_ROLE_NPC",
        "_id": "2023"
      },
      "talkContentTextMapHash": 3600704402,
      "talkAssetPath": "",
      "talkAssetPathAlter": "",
      "talkAudioName": "",
      "actionBefore": "",
      "actionWhile": "",
      "actionAfter": "",
      "optionIcon": "",
      "iconPath": ""
    },
    {
      "id": 401579102,
      "nextDialogs": [
        401579103
      ],
      "talkRole": {
        "type": "TALK_ROLE_NPC",
        "_id": "2023"
      },
      "talkContentTextMapHash": 328333322,
      "talkAssetPath": "",
      "talkAssetPathAlter": "",
      "talkAudioName": "",
      "actionBefore": "",
      "actionWhile": "",
      "actionAfter": "",
      "optionIcon": "",
      "iconPath": ""
    },
    {
      "id": 401579103,
      "nextDialogs": [
        401579104
      ],
      "talkRole": {
        "type": "TALK_ROLE_NPC",
        "_id": "2023"
      },
      "talkContentTextMapHash": 1893496274,
      "talkAssetPath": "",
      "talkAssetPathAlter": "",
      "talkAudioName": "",
      "actionBefore": "",
      "actionWhile": "",
      "actionAfter": "",
      "optionIcon": "",
      "iconPath": ""
    },
    {
      "id": 401579104,
      "nextDialogs": [
        401579105
      ],
      "talkRole": {
        "type": "TALK_ROLE_NPC",
        "_id": "2023"
      },
      "talkContentTextMapHash": 843255346,
      "talkAssetPath": "",
      "talkAssetPathAlter": "",
      "talkAudioName": "",
      "actionBefore": "",
      "actionWhile": "",
      "actionAfter": "",
      "optionIcon": "",
      "iconPath": ""
    },
    {
      "id": 401579105,
      "nextDialogs": [
        401579106
      ],
      "talkRole": {
        "type": "TALK_ROLE_NPC",
        "_id": "2023"
      },
      "talkContentTextMapHash": 2022624050,
      "talkAssetPath": "",
      "talkAssetPathAlter": "",
      "talkAudioName": "",
      "actionBefore": "",
      "actionWhile": "",
      "actionAfter": "",
      "optionIcon": "",
      "iconPath": ""
    },
    {
      "id": 401579106,
      "talkRole": {
        "type": "TALK_ROLE_NPC",
        "_id": "2023"
      },
      "talkContentTextMapHash": 2011754162,
      "talkAssetPath": "",
      "talkAssetPathAlter": "",
      "talkAudioName": "",
      "actionBefore": "",
      "actionWhile": "",
      "actionAfter": "",
      "optionIcon": "",
      "iconPath": ""
    },
    {
      "id": 401579201,
      "nextDialogs": [
        401579202
      ],
      "talkRole": {
        "type": "TALK_ROLE_NPC",
        "_id": "1625"
      },
      "talkContentTextMapHash": 2930808218,
      "talkAssetPath": "",
      "talkAssetPathAlter": "",
      "talkAudioName": "",
      "actionBefore": "",
      "actionWhile": "",
      "actionAfter": "",
      "optionIcon": "",
      "iconPath": ""
    },
    {
      "id": 401579202,
      "nextDialogs": [
        401579203
      ],
      "talkRole": {
        "type": "TALK_ROLE_NPC",
        "_id": "1625"
      },
      "talkContentTextMapHash": 1907952130,
      "talkAssetPath": "",
      "talkAssetPathAlter": "",
      "talkAudioName": "",
      "actionBefore": "",
      "actionWhile": "",
      "actionAfter": "",
      "optionIcon": "",
      "iconPath": ""
    },
    {
      "id": 401579203,
      "nextDialogs": [
        401579204
      ],
      "talkRole": {
        "type": "TALK_ROLE_NPC",
        "_id": "1625"
      },
      "talkContentTextMapHash": 1146953114,
      "talkAssetPath": "",
      "talkAssetPathAlter": "",
      "talkAudioName": "",
      "actionBefore": "",
      "actionWhile": "",
      "actionAfter": "",
      "optionIcon": "",
      "iconPath": ""
    },
    {
      "id": 401579204,
      "nextDialogs": [
        401579205
      ],
      "talkRole": {
        "type": "TALK_ROLE_NPC",
        "_id": "1625"
      },
      "talkContentTextMapHash": 3486987762,
      "talkAssetPath": "",
      "talkAssetPathAlter": "",
      "talkAudioName": "",
      "actionBefore": "",
      "actionWhile": "",
      "actionAfter": "",
      "optionIcon": "",
      "iconPath": ""
    },
    {
      "id": 401579205,
      "nextDialogs": [
        401579206
      ],
      "talkRole": {
        "type": "TALK_ROLE_NPC",
        "_id": "1625"
      },
      "talkContentTextMapHash": 2642300194,
      "talkAssetPath": "",
      "talkAssetPathAlter": "",
      "talkAudioName": "",
      "actionBefore": "",
      "actionWhile": "",
      "actionAfter": "",
      "optionIcon": "",
      "iconPath": ""
    },
    {
      "id": 401579206,
      "nextDialogs": [
        401579207
      ],
      "talkRole": {
        "type": "TALK_ROLE_NPC",
        "_id": "1625"
      },
      "talkContentTextMapHash": 1423470922,
      "talkAssetPath": "",
      "talkAssetPathAlter": "",
      "talkAudioName": "",
      "actionBefore": "",
      "actionWhile": "",
      "actionAfter": "",
      "optionIcon": "",
      "iconPath": ""
    },
    {
      "id": 401579207,
      "talkRole": {
        "type": "TALK_ROLE_NPC",
        "_id": "1625"
      },
      "talkContentTextMapHash": 561526066,
      "talkAssetPath": "",
      "talkAssetPathAlter": "",
      "talkAudioName": "",
      "actionBefore": "",
      "actionWhile": "",
      "actionAfter": "",
      "optionIcon": "",
      "iconPath": ""
    },
    {
      "id": 401579301,
      "nextDialogs": [
        401579302
      ],
      "talkRole": {
        "type": "TALK_ROLE_NPC",
        "_id": "1435"
      },
      "talkContentTextMapHash": 1414308578,
      "talkAssetPath": "",
      "talkAssetPathAlter": "",
      "talkAudioName": "",
      "actionBefore": "",
      "actionWhile": "",
      "actionAfter": "",
      "optionIcon": "",
      "iconPath": ""
    },
    {
      "id": 401579302,
      "nextDialogs": [
        401579303
      ],
      "talkRole": {
        "type": "TALK_ROLE_NPC",
        "_id": "1435"
      },
      "talkContentTextMapHash": 348074330,
      "talkAssetPath": "",
      "talkAssetPathAlter": "",
      "talkAudioName": "",
      "actionBefore": "",
      "actionWhile": "",
      "actionAfter": "",
      "optionIcon": "",
      "iconPath": ""
    },
    {
      "id": 401579303,
      "nextDialogs": [
        401579304
      ],
      "talkRole": {
        "type": "TALK_ROLE_NPC",
        "_id": "1435"
      },
      "talkContentTextMapHash": 2923167570,
      "talkAssetPath": "",
      "talkAssetPathAlter": "",
      "talkAudioName": "",
      "actionBefore": "",
      "actionWhile": "",
      "actionAfter": "",
      "optionIcon": "",
      "iconPath": ""
    },
    {
      "id": 401579304,
      "nextDialogs": [
        401579305
      ],
      "talkRole": {
        "type": "TALK_ROLE_NPC",
        "_id": "1435"
      },
      "talkContentTextMapHash": 2603577154,
      "talkAssetPath": "",
      "talkAssetPathAlter": "",
      "talkAudioName": "",
      "actionBefore": "",
      "actionWhile": "",
      "actionAfter": "",
      "optionIcon": "",
      "iconPath": ""
    },
    {
      "id": 401579305,
      "nextDialogs": [
        401579306
      ],
      "talkRole": {
        "type": "TALK_ROLE_NPC",
        "_id": "1435"
      },
      "talkContentTextMapHash": 1270181994,
      "talkAssetPath": "",
      "talkAssetPathAlter": "",
      "talkAudioName": "",
      "actionBefore": "",
      "actionWhile": "",
      "actionAfter": "",
      "optionIcon": "",
      "iconPath": ""
    },
    {
      "id": 401579306,
      "talkRole": {
        "type": "TALK_ROLE_NPC",
        "_id": "1435"
      },
      "talkContentTextMapHash": 894488474,
      "talkAssetPath": "",
      "talkAssetPathAlter": "",
      "talkAudioName": "",
      "actionBefore": "",
      "actionWhile": "",
      "actionAfter": "",
      "optionIcon": "",
      "iconPath": ""
    },
    {
      "id": 401579401,
      "nextDialogs": [
        401579402
      ],
      "talkRole": {
        "type": "TALK_ROLE_NPC",
        "_id": "1425"
      },
      "talkContentTextMapHash": 2680583794,
      "talkAssetPath": "",
      "talkAssetPathAlter": "",
      "talkAudioName": "",
      "actionBefore": "",
      "actionWhile": "",
      "actionAfter": "",
      "optionIcon": "",
      "iconPath": ""
    },
    {
      "id": 401579402,
      "nextDialogs": [
        401579403
      ],
      "talkRole": {
        "type": "TALK_ROLE_NPC",
        "_id": "1425"
      },
      "talkContentTextMapHash": 1683644546,
      "talkAssetPath": "",
      "talkAssetPathAlter": "",
      "talkAudioName": "",
      "actionBefore": "",
      "actionWhile": "",
      "actionAfter": "",
      "optionIcon": "",
      "iconPath": ""
    },
    {
      "id": 401579403,
      "nextDialogs": [
        401579404
      ],
      "talkRole": {
        "type": "TALK_ROLE_NPC",
        "_id": "1425"
      },
      "talkContentTextMapHash": 4214713378,
      "talkAssetPath": "",
      "talkAssetPathAlter": "",
      "talkAudioName": "",
      "actionBefore": "",
      "actionWhile": "",
      "actionAfter": "",
      "optionIcon": "",
      "iconPath": ""
    },
    {
      "id": 401579404,
      "talkRole": {
        "type": "TALK_ROLE_NPC",
        "_id": "1425"
      },
      "talkContentTextMapHash": 2977095426,
      "talkAssetPath": "",
      "talkAssetPathAlter": "",
      "talkAudioName": "",
      "actionBefore": "",
      "actionWhile": "",
      "actionAfter": "",
      "optionIcon": "",
      "iconPath": ""
    },
    {
      "id": 401579501,
      "nextDialogs": [
        401579502
      ],
      "talkRole": {
        "type": "TALK_ROLE_NPC",
        "_id": "1465"
      },
      "talkContentTextMapHash": 2283532770,
      "talkAssetPath": "",
      "talkAssetPathAlter": "",
      "talkAudioName": "",
      "actionBefore": "",
      "actionWhile": "",
      "actionAfter": "",
      "optionIcon": "",
      "iconPath": ""
    },
    {
      "id": 401579502,
      "nextDialogs": [
        401579503
      ],
      "talkRole": {
        "type": "TALK_ROLE_NPC",
        "_id": "1465"
      },
      "talkContentTextMapHash": 1811014234,
      "talkAssetPath": "",
      "talkAssetPathAlter": "",
      "talkAudioName": "",
      "actionBefore": "",
      "actionWhile": "",
      "actionAfter": "",
      "optionIcon": "",
      "iconPath": ""
    },
    {
      "id": 401579503,
      "nextDialogs": [
        401579504
      ],
      "talkRole": {
        "type": "TALK_ROLE_NPC",
        "_id": "1465"
      },
      "talkContentTextMapHash": 1185064250,
      "talkAssetPath": "",
      "talkAssetPathAlter": "",
      "talkAudioName": "",
      "actionBefore": "",
      "actionWhile": "",
      "actionAfter": "",
      "optionIcon": "",
      "iconPath": ""
    },
    {
      "id": 401579504,
      "nextDialogs": [
        401579505
      ],
      "talkRole": {
        "type": "TALK_ROLE_NPC",
        "_id": "1465"
      },
      "talkContentTextMapHash": 790655858,
      "talkAssetPath": "",
      "talkAssetPathAlter": "",
      "talkAudioName": "",
      "actionBefore": "",
      "actionWhile": "",
      "actionAfter": "",
      "optionIcon": "",
      "iconPath": ""
    },
    {
      "id": 401579505,
      "nextDialogs": [
        401579506
      ],
      "talkShowType": "TALK_SHOW_FORCE_SELECT",
      "talkRole": {
        "type": "TALK_ROLE_PLAYER",
        "_id": ""
      },
      "talkContentTextMapHash": 274288506,
      "talkAssetPath": "",
      "talkAssetPathAlter": "",
      "talkAudioName": "",
      "actionBefore": "",
      "actionWhile": "",
      "actionAfter": "",
      "optionIcon": "",
      "iconPath": ""
    },
    {
      "id": 401579506,
      "nextDialogs": [
        401579507
      ],
      "talkRole": {
        "type": "TALK_ROLE_NPC",
        "_id": "1465"
      },
      "talkContentTextMapHash": 2047612154,
      "talkAssetPath": "",
      "talkAssetPathAlter": "",
      "talkAudioName": "",
      "actionBefore": "",
      "actionWhile": "",
      "actionAfter": "",
      "optionIcon": "",
      "iconPath": ""
    },
    {
      "id": 401579507,
      "nextDialogs": [
        401579508
      ],
      "talkRole": {
        "type": "TALK_ROLE_NPC",
        "_id": "1465"
      },
      "talkContentTextMapHash": 1319819210,
      "talkAssetPath": "",
      "talkAssetPathAlter": "",
      "talkAudioName": "",
      "actionBefore": "",
      "actionWhile": "",
      "actionAfter": "",
      "optionIcon": "",
      "iconPath": ""
    },
    {
      "id": 401579508,
      "nextDialogs": [
        401579509
      ],
      "talkRole": {
        "type": "TALK_ROLE_NPC",
        "_id": "1465"
      },
      "talkContentTextMapHash": 3252049938,
      "talkAssetPath": "",
      "talkAssetPathAlter": "",
      "talkAudioName": "",
      "actionBefore": "",
      "actionWhile": "",
      "actionAfter": "",
      "optionIcon": "",
      "iconPath": ""
    },
    {
      "id": 401579509,
      "talkRole": {
        "type": "TALK_ROLE_NPC",
        "_id": "1465"
      },
      "talkContentTextMapHash": 3627121610,
      "talkAssetPath": "",
      "talkAssetPathAlter": "",
      "talkAudioName": "",
      "actionBefore": "",
      "actionWhile": "",
      "actionAfter": "",
      "optionIcon": "",
      "iconPath": ""
    },
    {
      "id": 401579601,
      "nextDialogs": [
        401579602
      ],
      "talkRole": {
        "type": "TALK_ROLE_NPC",
        "_id": "3002"
      },
      "talkContentTextMapHash": 3799476274,
      "talkAssetPath": "",
      "talkAssetPathAlter": "",
      "talkAudioName": "",
      "actionBefore": "",
      "actionWhile": "",
      "actionAfter": "",
      "optionIcon": "",
      "iconPath": ""
    },
    {
      "id": 401579602,
      "nextDialogs": [
        401579603
      ],
      "talkRole": {
        "type": "TALK_ROLE_NPC",
        "_id": "3002"
      },
      "talkContentTextMapHash": 318274338,
      "talkAssetPath": "",
      "talkAssetPathAlter": "",
      "talkAudioName": "",
      "actionBefore": "",
      "actionWhile": "",
      "actionAfter": "",
      "optionIcon": "",
      "iconPath": ""
    },
    {
      "id": 401579603,
      "nextDialogs": [
        401579604
      ],
      "talkRole": {
        "type": "TALK_ROLE_NPC",
        "_id": "3002"
      },
      "talkContentTextMapHash": 4027202562,
      "talkAssetPath": "",
      "talkAssetPathAlter": "",
      "talkAudioName": "",
      "actionBefore": "",
      "actionWhile": "",
      "actionAfter": "",
      "optionIcon": "",
      "iconPath": ""
    },
    {
      "id": 401579604,
      "nextDialogs": [
        401579605
      ],
      "talkRole": {
        "type": "TALK_ROLE_NPC",
        "_id": "3002"
      },
      "talkContentTextMapHash": 4193536578,
      "talkAssetPath": "",
      "talkAssetPathAlter": "",
      "talkAudioName": "",
      "actionBefore": "",
      "actionWhile": "",
      "actionAfter": "",
      "optionIcon": "",
      "iconPath": ""
    },
    {
      "id": 401579605,
      "talkRole": {
        "type": "TALK_ROLE_NPC",
        "_id": "3002"
      },
      "talkContentTextMapHash": 780037122,
      "talkAssetPath": "",
      "talkAssetPathAlter": "",
      "talkAudioName": "",
      "actionBefore": "",
      "actionWhile": "",
      "actionAfter": "",
      "optionIcon": "",
      "iconPath": ""
    },
    {
      "id": 401579701,
      "nextDialogs": [
        401579702
      ],
      "talkRole": {
        "type": "TALK_ROLE_NPC",
        "_id": "3173"
      },
      "talkContentTextMapHash": 2999440770,
      "talkAssetPath": "",
      "talkAssetPathAlter": "",
      "talkAudioName": "",
      "actionBefore": "",
      "actionWhile": "",
      "actionAfter": "",
      "optionIcon": "",
      "iconPath": ""
    },
    {
      "id": 401579702,
      "nextDialogs": [
        401579703
      ],
      "talkRole": {
        "type": "TALK_ROLE_NPC",
        "_id": "3173"
      },
      "talkContentTextMapHash": 426329714,
      "talkAssetPath": "",
      "talkAssetPathAlter": "",
      "talkAudioName": "",
      "actionBefore": "",
      "actionWhile": "",
      "actionAfter": "",
      "optionIcon": "",
      "iconPath": ""
    },
    {
      "id": 401579703,
      "nextDialogs": [
        401579704
      ],
      "talkRole": {
        "type": "TALK_ROLE_NPC",
        "_id": "3173"
      },
      "talkContentTextMapHash": 297495530,
      "talkAssetPath": "",
      "talkAssetPathAlter": "",
      "talkAudioName": "",
      "actionBefore": "",
      "actionWhile": "",
      "actionAfter": "",
      "optionIcon": "",
      "iconPath": ""
    },
    {
      "id": 401579704,
      "talkRole": {
        "type": "TALK_ROLE_NPC",
        "_id": "3173"
      },
      "talkContentTextMapHash": 376467146,
      "talkAssetPath": "",
      "talkAssetPathAlter": "",
      "talkAudioName": "",
      "actionBefore": "",
      "actionWhile": "",
      "actionAfter": "",
      "optionIcon": "",
      "iconPath": ""
    },
    {
      "id": 401579801,
      "nextDialogs": [
        401579802
      ],
      "talkRole": {
        "type": "TALK_ROLE_NPC",
        "_id": "3017"
      },
      "talkContentTextMapHash": 2931218362,
      "talkAssetPath": "",
      "talkAssetPathAlter": "",
      "talkAudioName": "",
      "actionBefore": "",
      "actionWhile": "",
      "actionAfter": "",
      "optionIcon": "",
      "iconPath": ""
    },
    {
      "id": 401579802,
      "nextDialogs": [
        401579803
      ],
      "talkRole": {
        "type": "TALK_ROLE_NPC",
        "_id": "3017"
      },
      "talkContentTextMapHash": 3862170434,
      "talkAssetPath": "",
      "talkAssetPathAlter": "",
      "talkAudioName": "",
      "actionBefore": "",
      "actionWhile": "",
      "actionAfter": "",
      "optionIcon": "",
      "iconPath": ""
    },
    {
      "id": 401579803,
      "nextDialogs": [
        401579804
      ],
      "talkRole": {
        "type": "TALK_ROLE_NPC",
        "_id": "3017"
      },
      "talkContentTextMapHash": 2174156114,
      "talkAssetPath": "",
      "talkAssetPathAlter": "",
      "talkAudioName": "",
      "actionBefore": "",
      "actionWhile": "",
      "actionAfter": "",
      "optionIcon": "",
      "iconPath": ""
    },
    {
      "id": 401579804,
      "nextDialogs": [
        401579805
      ],
      "talkRole": {
        "type": "TALK_ROLE_NPC",
        "_id": "3017"
      },
      "talkContentTextMapHash": 4003730714,
      "talkAssetPath": "",
      "talkAssetPathAlter": "",
      "talkAudioName": "",
      "actionBefore": "",
      "actionWhile": "",
      "actionAfter": "",
      "optionIcon": "",
      "iconPath": ""
    },
    {
      "id": 401579805,
      "talkRole": {
        "type": "TALK_ROLE_NPC",
        "_id": "3017"
      },
      "talkContentTextMapHash": 3372649298,
      "talkAssetPath": "",
      "talkAssetPathAlter": "",
      "talkAudioName": "",
      "actionBefore": "",
      "actionWhile": "",
      "actionAfter": "",
      "optionIcon": "",
      "iconPath": ""
    }
  ],
  "DDHNEIEDLJA": true,
  "ACJNJHGDNFF": [
    {
      "id": 120861,
      "actionType": "DIRECT_USE"
    }
  ]
}