{
  "id": 40159,
  "KPGKDHAFHFE": "EQ",
  "titleTextMapHash": 3666666247,
  "descTextMapHash": 467422230,
  "luaPath": "Actor/Quest/EQ40159",
  "showType": "QUEST_HIDDEN",
  "activityId": 2030,
  "subQuests": [
    {
      "subId": 4015901,
      "mainId": 40159,
      "order": 1,
      "descTextMapHash": 438767140,
      "showType": "QUEST_HIDDEN",
      "finishCond": [
        {
          "KPGKDHAFHFE": "QUEST_CONTENT_FINISH_PLOT",
          "param": [
            4015901,
            0
          ]
        }
      ],
      "guide": {
        "guideLayer": "QUEST_GUIDE_LAYER_SCENE"
      },
      "guideHint": {
        "param1": ""
      },
      "finishParent": true,
      "isRewind": true,
      "versionBegin": "",
      "versionEnd": ""
    }
  ],
  "DDHNEIEDLJA": true
}