{
  "id": 40161,
  "series": 40160,
  "KPGKDHAFHFE": "EQ",
  "titleTextMapHash": 448012711,
  "luaPath": "Actor/Quest/EQ40161",
  "chapterId": 10170,
  "showRedPoint": true,
  "activityId": 2029,
  "subQuests": [
    {
      "subId": 4016101,
      "mainId": 40161,
      "order": 1,
      "descTextMapHash": 77954476,
      "finishCond": [
        {
          "KPGKDHAFHFE": "QUEST_CONTENT_FINISH_PLOT",
          "param": [
            4016101,
            0
          ]
        }
      ],
      "guide": {
        "KPGKDHAFHFE": "QUEST_GUIDE_LOCATION",
        "param": [
          "[3_300300740:2515.331,202.810,-1136.838]"
        ],
        "guideScene": 3,
        "guideStyle": "QUEST_GUIDE_STYLE_POINT",
        "guideLayer": "QUEST_GUIDE_LAYER_SCENE"
      },
      "guideHint": {
        "param1": ""
      },
      "isRewind": true,
      "versionBegin": "",
      "versionEnd": ""
    },
    {
      "subId": 4016102,
      "mainId": 40161,
      "order": 2,
      "descTextMapHash": 4156570396,
      "finishCond": [
        {
          "KPGKDHAFHFE": "QUEST_CONTENT_COMPLETE_TALK",
          "param": [
            4016101,
            0
          ]
        }
      ],
      "guide": {
        "KPGKDHAFHFE": "QUEST_GUIDE_NPC",
        "param": [
          "30519"
        ],
        "guideScene": 3,
        "guideStyle": "QUEST_GUIDE_STYLE_TARGET",
        "guideLayer": "QUEST_GUIDE_LAYER_SCENE"
      },
      "guideHint": {
        "param1": ""
      },
      "finishParent": true,
      "isRewind": true,
      "versionBegin": "",
      "versionEnd": ""
    }
  ],
  "talks": [
    {
      "id": 4016101,
      "beginWay": "TALK_BEGIN_MANUAL",
      "beginCond": [
        {
          "type": "QUEST_COND_STATE_EQUAL",
          "_param": [
            "4016102",
            "2"
          ]
        }
      ],
      "priority": 5,
      "initDialog": 401610101,
      "npcId": [
        30519
      ],
      "performCfg": "QuestDialogue/EQ/V4.5AlchemySim_40161/Q4016101",
      "heroTalk": "TALK_HERO_MAIN",
      "questId": 40161,
      "assetIndex": 12708914458791714498,
      "prePerformCfg": "",
      "forceNpcNotDestroy": true,
      "PLPFOOINAAJ": [
        "[3_300300737:2513.601,202.481,-1125.999,0.000,150.066,0.000]",
        "[3_300300747:2514.157,202.481,-1127.220,0.000,348.178,0.000]",
        "[3_300300748:2514.932,202.481,-1126.583,0.000,297.100,0.000]"
      ]
    }
  ],
  "preloadLuaList": [
    10551467802894422987
  ],
  "forcePreloadLuaList": [
    11208811165945056287
  ],
  "DDHNEIEDLJA": true
}