{
  "id": 4021,
  "resId": 1023,
  "series": 4020,
  "titleTextMapHash": 3533015439,
  "descTextMapHash": 2657662598,
  "luaPath": "Actor/Quest/AQ4021",
  "suggestTrackMainQuestList": [
    4022
  ],
  "rewardIdList": [
    104021
  ],
  "chapterId": 1405,
  "subQuests": [
    {
      "subId": 402101,
      "mainId": 4021,
      "order": 1,
      "descTextMapHash": 2255868804,
      "GMKDJFPEFFF": [
        340124
      ],
      "finishCond": [
        {
          "KPGKDHAFHFE": "QUEST_CONTENT_COMPLETE_TALK",
          "param": [
            402101,
            0
          ]
        }
      ],
      "guide": {
        "KPGKDHAFHFE": "QUEST_GUIDE_LOCATION",
        "autoGuide": "QUEST_GUIDE_AUTO_ENABLE",
        "param": [
          "[3_340100279:3472.612,283.274,4551.272]",
          "10"
        ],
        "guideScene": 3,
        "guideStyle": "QUEST_GUIDE_STYLE_TARGET",
        "guideLayer": "QUEST_GUIDE_LAYER_SCENE"
      },
      "guideHint": {
        "param1": ""
      },
      "isRewind": true,
      "finishExec": [
        {
          "KPGKDHAFHFE": "QUEST_EXEC_UNREGISTER_DYNAMIC_GROUP",
          "param": [
            "133401677"
          ]
        }
      ],
      "versionBegin": "",
      "versionEnd": ""
    },
    {
      "subId": 402103,
      "mainId": 4021,
      "order": 2,
      "descTextMapHash": 2682548524,
      "GMKDJFPEFFF": [
        108303
      ],
      "finishCond": [
        {
          "KPGKDHAFHFE": "QUEST_CONTENT_COMPLETE_TALK",
          "param": [
            402103,
            0
          ]
        }
      ],
      "guide": {
        "KPGKDHAFHFE": "QUEST_GUIDE_LOCATION",
        "autoGuide": "QUEST_GUIDE_AUTO_ENABLE",
        "param": [
          "[1083_81:-9.544,0.022,-15.037]"
        ],
        "guideScene": 1083,
        "guideStyle": "QUEST_GUIDE_STYLE_POINT",
        "guideLayer": "QUEST_GUIDE_LAYER_SCENE"
      },
      "guideHint": {
        "param1": ""
      },
      "isRewind": true,
      "versionBegin": "",
      "versionEnd": ""
    },
    {
      "subId": 402104,
      "mainId": 4021,
      "order": 3,
      "descTextMapHash": 474551572,
      "finishCond": [
        {
          "KPGKDHAFHFE": "QUEST_CONTENT_GAME_TIME_TICK",
          "param": [
            1,
            0
          ]
        }
      ],
      "guide": {},
      "guideHint": {
        "param1": ""
      },
      "isRewind": true,
      "versionBegin": "",
      "versionEnd": ""
    },
    {
      "subId": 402105,
      "mainId": 4021,
      "order": 4,
      "descTextMapHash": 4228969084,
      "GMKDJFPEFFF": [
        340307
      ],
      "finishCond": [
        {
          "KPGKDHAFHFE": "QUEST_CONTENT_COMPLETE_TALK",
          "param": [
            402105,
            0
          ]
        }
      ],
      "guide": {
        "KPGKDHAFHFE": "QUEST_GUIDE_LOCATION",
        "autoGuide": "QUEST_GUIDE_AUTO_ENABLE",
        "param": [
          "[3_340300186:2844.630,398.039,4167.434,0.000,180.000,0.000]",
          "20"
        ],
        "guideScene": 3,
        "guideStyle": "QUEST_GUIDE_STYLE_TARGET",
        "guideLayer": "QUEST_GUIDE_LAYER_SCENE"
      },
      "guideHint": {
        "param1": ""
      },
      "isRewind": true,
      "versionBegin": "",
      "versionEnd": ""
    },
    {
      "subId": 402106,
      "mainId": 4021,
      "order": 5,
      "descTextMapHash": 1820566236,
      "GMKDJFPEFFF": [
        340124
      ],
      "finishCond": [
        {
          "KPGKDHAFHFE": "QUEST_CONTENT_COMPLETE_TALK",
          "param": [
            402106,
            0
          ]
        }
      ],
      "guide": {
        "KPGKDHAFHFE": "QUEST_GUIDE_LOCATION",
        "autoGuide": "QUEST_GUIDE_AUTO_ENABLE",
        "param": [
          "[3_340100282:3477.931,283.321,4550.447]"
        ],
        "guideScene": 3,
        "guideStyle": "QUEST_GUIDE_STYLE_POINT",
        "guideLayer": "QUEST_GUIDE_LAYER_SCENE"
      },
      "guideHint": {
        "param1": ""
      },
      "isRewind": true,
      "finishExec": [
        {
          "KPGKDHAFHFE": "QUEST_EXEC_UNREGISTER_DYNAMIC_GROUP",
          "param": [
            "133403666"
          ]
        },
        {
          "KPGKDHAFHFE": "QUEST_EXEC_UNREGISTER_DYNAMIC_GROUP",
          "param": [
            "133407028"
          ]
        }
      ],
      "versionBegin": "",
      "versionEnd": ""
    },
    {
      "subId": 402107,
      "mainId": 4021,
      "order": 6,
      "descTextMapHash": 2780750116,
      "GMKDJFPEFFF": [
        340124
      ],
      "finishCond": [
        {
          "KPGKDHAFHFE": "QUEST_CONTENT_COMPLETE_TALK",
          "param": [
            402107,
            0
          ]
        }
      ],
      "guide": {
        "KPGKDHAFHFE": "QUEST_GUIDE_LOCATION",
        "autoGuide": "QUEST_GUIDE_AUTO_ENABLE",
        "param": [
          "[3_340100285:3473.937,283.292,4550.651]",
          "20"
        ],
        "guideScene": 3,
        "guideStyle": "QUEST_GUIDE_STYLE_TARGET",
        "guideLayer": "QUEST_GUIDE_LAYER_SCENE"
      },
      "guideHint": {
        "param1": ""
      },
      "isRewind": true,
      "versionBegin": "",
      "versionEnd": ""
    },
    {
      "subId": 402108,
      "mainId": 4021,
      "order": 7,
      "descTextMapHash": 588608748,
      "GMKDJFPEFFF": [
        340113
      ],
      "finishCond": [
        {
          "KPGKDHAFHFE": "QUEST_CONTENT_COMPLETE_TALK",
          "param": [
            402108,
            0
          ]
        }
      ],
      "guide": {
        "KPGKDHAFHFE": "QUEST_GUIDE_LOCATION",
        "autoGuide": "QUEST_GUIDE_AUTO_ENABLE",
        "param": [
          "[3_340100288:3425.346,445.936,4552.448,0.000,290.690,0.000]",
          "20"
        ],
        "guideScene": 3,
        "guideStyle": "QUEST_GUIDE_STYLE_TARGET",
        "guideLayer": "QUEST_GUIDE_LAYER_SCENE"
      },
      "guideHint": {
        "param1": ""
      },
      "isRewind": true,
      "finishExec": [
        {
          "KPGKDHAFHFE": "QUEST_EXEC_REFRESH_GROUP_SUITE",
          "param": [
            "3",
            "133401735,1"
          ]
        },
        {
          "KPGKDHAFHFE": "QUEST_EXEC_UNREGISTER_DYNAMIC_GROUP",
          "param": [
            "133401677"
          ]
        }
      ],
      "versionBegin": "",
      "versionEnd": ""
    },
    {
      "subId": 402109,
      "mainId": 4021,
      "order": 9,
      "descTextMapHash": 3459102812,
      "GMKDJFPEFFF": [
        108401
      ],
      "finishCond": [
        {
          "KPGKDHAFHFE": "QUEST_CONTENT_COMPLETE_TALK",
          "param": [
            402109,
            0
          ]
        }
      ],
      "guide": {
        "KPGKDHAFHFE": "QUEST_GUIDE_LOCATION",
        "autoGuide": "QUEST_GUIDE_AUTO_ENABLE",
        "param": [
          "[1084_19:-0.309,0.100,17.059,0.000,142.995,0.000]",
          "20"
        ],
        "guideScene": 1084,
        "guideStyle": "QUEST_GUIDE_STYLE_TARGET",
        "guideLayer": "QUEST_GUIDE_LAYER_SCENE"
      },
      "guideHint": {
        "param1": ""
      },
      "isRewind": true,
      "versionBegin": "",
      "versionEnd": ""
    },
    {
      "subId": 402110,
      "mainId": 4021,
      "order": 11,
      "descTextMapHash": 654516684,
      "GMKDJFPEFFF": [
        340115
      ],
      "finishCond": [
        {
          "KPGKDHAFHFE": "QUEST_CONTENT_COMPLETE_TALK",
          "param": [
            402110,
            0
          ]
        }
      ],
      "guide": {
        "KPGKDHAFHFE": "QUEST_GUIDE_LOCATION",
        "autoGuide": "QUEST_GUIDE_AUTO_ENABLE",
        "param": [
          "[3_340100291:3501.973,445.946,4650.361,0.000,89.360,0.000]",
          "20"
        ],
        "guideScene": 3,
        "guideStyle": "QUEST_GUIDE_STYLE_TARGET",
        "guideLayer": "QUEST_GUIDE_LAYER_SCENE"
      },
      "guideHint": {
        "param1": ""
      },
      "isRewind": true,
      "versionBegin": "",
      "versionEnd": ""
    },
    {
      "subId": 402113,
      "mainId": 4021,
      "order": 12,
      "descTextMapHash": 814025092,
      "GMKDJFPEFFF": [
        340120
      ],
      "finishCond": [
        {
          "KPGKDHAFHFE": "QUEST_CONTENT_COMPLETE_TALK",
          "param": [
            402112,
            0
          ]
        }
      ],
      "guide": {
        "KPGKDHAFHFE": "QUEST_GUIDE_LOCATION",
        "autoGuide": "QUEST_GUIDE_AUTO_ENABLE",
        "param": [
          "[3_340100294:3623.555,510.662,4713.283]"
        ],
        "guideScene": 3,
        "guideStyle": "QUEST_GUIDE_STYLE_POINT",
        "guideLayer": "QUEST_GUIDE_LAYER_SCENE"
      },
      "guideHint": {
        "param1": ""
      },
      "isRewind": true,
      "versionBegin": "",
      "versionEnd": ""
    },
    {
      "subId": 402114,
      "mainId": 4021,
      "order": 13,
      "descTextMapHash": 2318230404,
      "GMKDJFPEFFF": [
        340124
      ],
      "finishCond": [
        {
          "KPGKDHAFHFE": "QUEST_CONTENT_COMPLETE_TALK",
          "param": [
            402113,
            0
          ]
        }
      ],
      "guide": {
        "KPGKDHAFHFE": "QUEST_GUIDE_LOCATION",
        "autoGuide": "QUEST_GUIDE_AUTO_ENABLE",
        "param": [
          "[3_340100287:3476.641,283.323,4551.830]"
        ],
        "guideScene": 3,
        "guideStyle": "QUEST_GUIDE_STYLE_POINT",
        "guideLayer": "QUEST_GUIDE_LAYER_SCENE"
      },
      "guideHint": {
        "param1": ""
      },
      "finishParent": true,
      "isRewind": true,
      "finishExec": [
        {
          "KPGKDHAFHFE": "QUEST_EXEC_UNREGISTER_DYNAMIC_GROUP",
          "param": [
            "133401677"
          ]
        }
      ],
      "versionBegin": "",
      "versionEnd": ""
    },
    {
      "subId": 402115,
      "mainId": 4021,
      "order": 10,
      "descTextMapHash": 1872514100,
      "GMKDJFPEFFF": [
        108401,
        340114
      ],
      "finishCond": [
        {
          "KPGKDHAFHFE": "QUEST_CONTENT_LEAVE_SCENE",
          "param": [
            1084,
            0
          ]
        },
        {
          "KPGKDHAFHFE": "QUEST_CONTENT_FINISH_PLOT",
          "param": [
            402115,
            0
          ]
        }
      ],
      "guide": {
        "KPGKDHAFHFE": "QUEST_GUIDE_LOCATION",
        "autoGuide": "QUEST_GUIDE_AUTO_ENABLE",
        "param": [
          "[3_340100413:3453.807,454.951,4632.102]"
        ],
        "guideScene": 3,
        "guideStyle": "QUEST_GUIDE_STYLE_POINT",
        "guideLayer": "QUEST_GUIDE_LAYER_SCENE"
      },
      "guideHint": {
        "param1": ""
      },
      "isRewind": true,
      "versionBegin": "",
      "versionEnd": ""
    },
    {
      "subId": 402116,
      "mainId": 4021,
      "order": 8,
      "descTextMapHash": 4274182732,
      "GMKDJFPEFFF": [
        340114,
        108401
      ],
      "finishCond": [
        {
          "KPGKDHAFHFE": "QUEST_CONTENT_COMPLETE_TALK",
          "param": [
            402135,
            0
          ]
        }
      ],
      "guide": {
        "KPGKDHAFHFE": "QUEST_GUIDE_LOCATION",
        "autoGuide": "QUEST_GUIDE_AUTO_ENABLE",
        "param": [
          "[3_340100447:3455.276,454.922,4626.890]",
          "20"
        ],
        "guideScene": 3,
        "guideStyle": "QUEST_GUIDE_STYLE_TARGET",
        "guideLayer": "QUEST_GUIDE_LAYER_SCENE"
      },
      "guideHint": {
        "param1": ""
      },
      "isRewind": true,
      "versionBegin": "",
      "versionEnd": ""
    }
  ],
  "talks": [
    {
      "id": 402101,
      "beginWay": "TALK_BEGIN_MANUAL",
      "beginCond": [
        {
          "type": "QUEST_COND_STATE_EQUAL",
          "_param": [
            "402101",
            "2"
          ]
        }
      ],
      "priority": 4,
      "initDialog": 40210101,
      "npcId": [
        10095,
        13310
      ],
      "performCfg": "QuestDialogue/AQ/Fontaine_4021/Q402101",
      "heroTalk": "TALK_HERO_MAIN",
      "questId": 4021,
      "assetIndex": 6825166980041422836,
      "prePerformCfg": "",
      "finishExec": [
        {
          "KPGKDHAFHFE": "TALK_EXEC_SAVE_TALK_ID",
          "param": [
            "402101"
          ]
        }
      ]
    },
    {
      "id": 402102,
      "beginWay": "TALK_BEGIN_MANUAL",
      "beginCond": [
        {
          "type": "QUEST_COND_STATE_EQUAL",
          "_param": [
            "402101",
            "2"
          ]
        }
      ],
      "priority": 5,
      "nextTalks": [
        402104,
        402111
      ],
      "initDialog": 40210215,
      "npcId": [
        13310,
        10095
      ],
      "performCfg": "QuestDialogue/AQ/Fontaine_4021/Q402102",
      "heroTalk": "TALK_HERO_MAIN",
      "questId": 4021,
      "assetIndex": 14433125420823957928,
      "prePerformCfg": "",
      "finishExec": [
        {
          "KPGKDHAFHFE": "TALK_EXEC_SAVE_TALK_ID",
          "param": [
            "402102"
          ]
        }
      ],
      "PLPFOOINAAJ": [
        "[3_340100279:3472.612,283.274,4551.272]",
        "[3_340100280:3471.927,283.261,4553.070]",
        "[3_340100307:3474.816,283.277,4552.494]",
        "[3_340100411:3487.964,283.655,4556.273]"
      ]
    },
    {
      "id": 402103,
      "beginWay": "TALK_BEGIN_MANUAL",
      "beginCond": [
        {
          "type": "QUEST_COND_STATE_EQUAL",
          "_param": [
            "402103",
            "2"
          ]
        }
      ],
      "priority": 5,
      "initDialog": 40210301,
      "npcId": [
        5087,
        13316,
        1076
      ],
      "performCfg": "QuestDialogue/AQ/Fontaine_4021/Q402103",
      "heroTalk": "TALK_HERO_MAIN",
      "questId": 4021,
      "assetIndex": 7309064421722024671,
      "prePerformCfg": "",
      "lockGameTime": true,
      "PLPFOOINAAJ": [
        "[1083_56:-5.309,0.030,-14.384,0.000,294.550,0.000]",
        "[1083_57:-5.278,0.030,-12.933,0.000,261.490,0.000]",
        "[1083_58:-43.435,0.352,-16.394]",
        "[1083_59:-42.361,0.352,-14.216,0.000,230.030,0.000]",
        "[1083_74:-2.482,1.242,-20.863]"
      ]
    },
    {
      "id": 402104,
      "beginWay": "TALK_BEGIN_MANUAL",
      "beginCondComb": "LOGIC_AND",
      "beginCond": [
        {
          "type": "QUEST_COND_STATE_EQUAL",
          "_param": [
            "402101",
            "2"
          ]
        },
        {
          "type": "QUEST_COND_QUEST_GLOBAL_VAR_EQUAL",
          "_param": [
            "40064",
            "1"
          ]
        }
      ],
      "priority": 4,
      "nextTalks": [
        402101
      ],
      "initDialog": 40210401,
      "npcId": [
        13310,
        10095
      ],
      "performCfg": "QuestDialogue/AQ/Fontaine_4021/Q402104",
      "heroTalk": "TALK_HERO_MAIN",
      "questId": 4021,
      "assetIndex": 15403236337447131542,
      "prePerformCfg": "",
      "finishExec": [
        {
          "KPGKDHAFHFE": "TALK_EXEC_SAVE_TALK_ID",
          "param": [
            "402104"
          ]
        }
      ]
    },
    {
      "id": 402105,
      "beginWay": "TALK_BEGIN_MANUAL",
      "beginCond": [
        {
          "type": "QUEST_COND_STATE_EQUAL",
          "_param": [
            "402105",
            "2"
          ]
        }
      ],
      "priority": 5,
      "initDialog": 40210502,
      "npcId": [
        1072,
        1071,
        1075,
        1074,
        1076,
        1077
      ],
      "performCfg": "QuestDialogue/AQ/Fontaine_4021/Q402105",
      "heroTalk": "TALK_HERO_MAIN",
      "questId": 4021,
      "assetIndex": 8862923012890923738,
      "prePerformCfg": "",
      "PLPFOOINAAJ": [
        "[3_340300184:2846.833,398.004,4163.012]",
        "[3_340300185:2842.411,398.004,4165.451]",
        "[3_340300186:2844.630,398.039,4167.434,0.000,180.000,0.000]",
        "[3_340300187:2839.778,398.004,4164.906]",
        "[3_340300188:2838.046,398.004,4165.698]",
        "[3_340300189:2841.698,398.004,4168.437]",
        "[3_340300190:2840.358,398.004,4166.625]",
        "[3_340300279:2850.766,398.004,4160.254]"
      ]
    },
    {
      "id": 402106,
      "beginWay": "TALK_BEGIN_MANUAL",
      "beginCond": [
        {
          "type": "QUEST_COND_STATE_EQUAL",
          "_param": [
            "402106",
            "2"
          ]
        }
      ],
      "priority": 4,
      "initDialog": 40210603,
      "npcId": [
        13611
      ],
      "performCfg": "QuestDialogue/AQ/Fontaine_4021/Q402106",
      "heroTalk": "TALK_HERO_MAIN",
      "questId": 4021,
      "assetIndex": 11581985481415486601,
      "prePerformCfg": "",
      "finishExec": [
        {
          "KPGKDHAFHFE": "TALK_EXEC_SAVE_TALK_ID",
          "param": [
            "402106"
          ]
        }
      ],
      "PLPFOOINAAJ": [
        "[3_340100282:3477.931,283.321,4550.447]",
        "[3_340100299:3483.120,283.353,4552.157,0.000,311.410,0.000]"
      ]
    },
    {
      "id": 402107,
      "beginWay": "TALK_BEGIN_MANUAL",
      "beginCond": [
        {
          "type": "QUEST_COND_STATE_EQUAL",
          "_param": [
            "402107",
            "2"
          ]
        }
      ],
      "priority": 4,
      "initDialog": 40210701,
      "npcId": [
        10095
      ],
      "performCfg": "QuestDialogue/AQ/Fontaine_4021/Q402107",
      "heroTalk": "TALK_HERO_MAIN",
      "questId": 4021,
      "assetIndex": 11754105570027551958,
      "prePerformCfg": "",
      "finishExec": [
        {
          "KPGKDHAFHFE": "TALK_EXEC_SAVE_TALK_ID",
          "param": [
            "402107"
          ]
        }
      ]
    },
    {
      "id": 402108,
      "beginWay": "TALK_BEGIN_MANUAL",
      "beginCond": [
        {
          "type": "QUEST_COND_STATE_EQUAL",
          "_param": [
            "402108",
            "2"
          ]
        }
      ],
      "priority": 5,
      "initDialog": 40210801,
      "npcId": [
        13612
      ],
      "performCfg": "QuestDialogue/AQ/Fontaine_4021/Q402108",
      "heroTalk": "TALK_HERO_MAIN",
      "questId": 4021,
      "assetIndex": 5050059100884103902,
      "prePerformCfg": "",
      "PLPFOOINAAJ": [
        "[3_340100288:3425.346,445.936,4552.448,0.000,290.690,0.000]",
        "[3_340100289:3426.091,446.090,4557.392,0.000,271.950,0.000]"
      ]
    },
    {
      "id": 402109,
      "beginWay": "TALK_BEGIN_MANUAL",
      "beginCond": [
        {
          "type": "QUEST_COND_STATE_EQUAL",
          "_param": [
            "402109",
            "2"
          ]
        }
      ],
      "priority": 5,
      "initDialog": 40210902,
      "npcId": [
        13612
      ],
      "performCfg": "QuestDialogue/AQ/Fontaine_4021/Q402109",
      "heroTalk": "TALK_HERO_MAIN",
      "questId": 4021,
      "assetIndex": 8430939645325754186,
      "prePerformCfg": "",
      "PLPFOOINAAJ": [
        "[1084_19:-0.309,0.100,17.059,0.000,142.995,0.000]",
        "[1084_20:0.120,0.026,13.428,0.000,358.828,0.000]",
        "[1084_24:-2.425,0.026,-1.106]"
      ]
    },
    {
      "id": 402110,
      "beginWay": "TALK_BEGIN_MANUAL",
      "beginCond": [
        {
          "type": "QUEST_COND_STATE_EQUAL",
          "_param": [
            "402110",
            "2"
          ]
        }
      ],
      "priority": 4,
      "initDialog": 40211001,
      "npcId": [
        1070
      ],
      "performCfg": "QuestDialogue/AQ/Fontaine_4021/Q402110",
      "heroTalk": "TALK_HERO_MAIN",
      "questId": 4021,
      "assetIndex": 5435118139865170627,
      "prePerformCfg": ""
    },
    {
      "id": 402111,
      "beginWay": "TALK_BEGIN_MANUAL",
      "beginCond": [
        {
          "type": "QUEST_COND_STATE_EQUAL",
          "_param": [
            "402101",
            "2"
          ]
        }
      ],
      "priority": 4,
      "nextTalks": [
        402101
      ],
      "initDialog": 40211101,
      "npcId": [
        1076,
        13310,
        10095
      ],
      "performCfg": "QuestDialogue/AQ/Fontaine_4021/Q402111",
      "heroTalk": "TALK_HERO_MAIN",
      "questId": 4021,
      "assetIndex": 6489558655163066667,
      "prePerformCfg": "",
      "finishExec": [
        {
          "KPGKDHAFHFE": "TALK_EXEC_SAVE_TALK_ID",
          "param": [
            "402111"
          ]
        }
      ]
    },
    {
      "id": 402112,
      "beginWay": "TALK_BEGIN_MANUAL",
      "beginCond": [
        {
          "type": "QUEST_COND_STATE_EQUAL",
          "_param": [
            "402113",
            "2"
          ]
        }
      ],
      "priority": 5,
      "initDialog": 40211201,
      "npcId": [
        13612
      ],
      "performCfg": "QuestDialogue/AQ/Fontaine_4021/Q402112",
      "heroTalk": "TALK_HERO_MAIN",
      "questId": 4021,
      "assetIndex": 3144750165910176507,
      "prePerformCfg": "",
      "PLPFOOINAAJ": [
        "[3_340100293:3621.134,510.662,4713.149]",
        "[3_340100294:3623.555,510.662,4713.283]"
      ]
    },
    {
      "id": 402113,
      "beginWay": "TALK_BEGIN_MANUAL",
      "beginCond": [
        {
          "type": "QUEST_COND_STATE_EQUAL",
          "_param": [
            "402114",
            "2"
          ]
        }
      ],
      "priority": 5,
      "initDialog": 40211301,
      "npcId": [
        13612
      ],
      "performCfg": "QuestDialogue/AQ/Fontaine_4021/Q402113",
      "heroTalk": "TALK_HERO_MAIN",
      "questId": 4021,
      "assetIndex": 15164251588483754183,
      "prePerformCfg": "",
      "PLPFOOINAAJ": [
        "[3_340100286:3475.287,283.328,4551.277]",
        "[3_340100287:3476.641,283.323,4551.830]",
        "[3_340100412:3470.866,283.266,4547.699]"
      ]
    },
    {
      "id": 402115,
      "beginWay": "TALK_BEGIN_MANUAL",
      "beginCondComb": "LOGIC_AND",
      "beginCond": [
        {
          "type": "QUEST_COND_STATE_EQUAL",
          "_param": [
            "402106",
            "2"
          ]
        },
        {
          "type": "QUEST_COND_QUEST_GLOBAL_VAR_EQUAL",
          "_param": [
            "4009907",
            "1"
          ]
        },
        {
          "type": "QUEST_COND_QUEST_GLOBAL_VAR_EQUAL",
          "_param": [
            "303201",
            "1"
          ]
        }
      ],
      "priority": 4,
      "nextTalks": [
        402106
      ],
      "initDialog": 40211501,
      "npcId": [
        13611
      ],
      "performCfg": "QuestDialogue/AQ/Fontaine_4021/Q402115",
      "heroTalk": "TALK_HERO_MAIN",
      "questId": 4021,
      "assetIndex": 8311905811227190375,
      "prePerformCfg": "",
      "finishExec": [
        {
          "KPGKDHAFHFE": "TALK_EXEC_SAVE_TALK_ID",
          "param": [
            "402115"
          ]
        }
      ],
      "PLPFOOINAAJ": [
        "[3_340100282:3477.931,283.321,4550.447]",
        "[3_340100299:3483.120,283.353,4552.157,0.000,311.410,0.000]"
      ]
    },
    {
      "id": 402116,
      "beginWay": "TALK_BEGIN_MANUAL",
      "beginCondComb": "LOGIC_AND",
      "beginCond": [
        {
          "type": "QUEST_COND_STATE_EQUAL",
          "_param": [
            "402106",
            "2"
          ]
        },
        {
          "type": "QUEST_COND_QUEST_GLOBAL_VAR_EQUAL",
          "_param": [
            "303201",
            "1"
          ]
        },
        {
          "type": "QUEST_COND_QUEST_GLOBAL_VAR_EQUAL",
          "_param": [
            "4009907",
            "0"
          ]
        }
      ],
      "priority": 4,
      "nextTalks": [
        402106
      ],
      "initDialog": 40211601,
      "npcId": [
        13611
      ],
      "performCfg": "QuestDialogue/AQ/Fontaine_4021/Q402116",
      "heroTalk": "TALK_HERO_MAIN",
      "questId": 4021,
      "assetIndex": 10972419638091189239,
      "prePerformCfg": "",
      "finishExec": [
        {
          "KPGKDHAFHFE": "TALK_EXEC_SAVE_TALK_ID",
          "param": [
            "402116"
          ]
        }
      ],
      "PLPFOOINAAJ": [
        "[3_340100282:3477.931,283.321,4550.447]",
        "[3_340100299:3483.120,283.353,4552.157,0.000,311.410,0.000]"
      ]
    },
    {
      "id": 402117,
      "beginWay": "TALK_BEGIN_MANUAL",
      "beginCond": [
        {
          "type": "QUEST_COND_STATE_EQUAL",
          "_param": [
            "402106",
            "2"
          ]
        }
      ],
      "priority": 5,
      "nextTalks": [
        402115,
        402116,
        402118,
        402119
      ],
      "initDialog": 40211701,
      "npcId": [
        13611
      ],
      "performCfg": "QuestDialogue/AQ/Fontaine_4021/Q402117",
      "heroTalk": "TALK_HERO_MAIN",
      "questId": 4021,
      "assetIndex": 7852587246581614365,
      "prePerformCfg": "",
      "finishExec": [
        {
          "KPGKDHAFHFE": "TALK_EXEC_SAVE_TALK_ID",
          "param": [
            "402117"
          ]
        }
      ],
      "PLPFOOINAAJ": [
        "[3_340100282:3477.931,283.321,4550.447]",
        "[3_340100283:3480.166,283.330,4550.005]",
        "[3_340100299:3483.120,283.353,4552.157,0.000,311.410,0.000]"
      ]
    },
    {
      "id": 402118,
      "beginWay": "TALK_BEGIN_MANUAL",
      "beginCondComb": "LOGIC_AND",
      "beginCond": [
        {
          "type": "QUEST_COND_STATE_EQUAL",
          "_param": [
            "402106",
            "2"
          ]
        },
        {
          "type": "QUEST_COND_QUEST_GLOBAL_VAR_EQUAL",
          "_param": [
            "4009907",
            "1"
          ]
        },
        {
          "type": "QUEST_COND_QUEST_GLOBAL_VAR_EQUAL",
          "_param": [
            "303201",
            "0"
          ]
        }
      ],
      "priority": 4,
      "nextTalks": [
        402106
      ],
      "initDialog": 40211801,
      "npcId": [
        13611
      ],
      "performCfg": "QuestDialogue/AQ/Fontaine_4021/Q402118",
      "heroTalk": "TALK_HERO_MAIN",
      "questId": 4021,
      "assetIndex": 16800616396462661859,
      "prePerformCfg": "",
      "finishExec": [
        {
          "KPGKDHAFHFE": "TALK_EXEC_SAVE_TALK_ID",
          "param": [
            "402118"
          ]
        }
      ],
      "PLPFOOINAAJ": [
        "[3_340100282:3477.931,283.321,4550.447]",
        "[3_340100299:3483.120,283.353,4552.157,0.000,311.410,0.000]"
      ]
    },
    {
      "id": 402119,
      "beginWay": "TALK_BEGIN_MANUAL",
      "beginCondComb": "LOGIC_AND",
      "beginCond": [
        {
          "type": "QUEST_COND_STATE_EQUAL",
          "_param": [
            "402106",
            "2"
          ]
        },
        {
          "type": "QUEST_COND_QUEST_GLOBAL_VAR_EQUAL",
          "_param": [
            "4009907",
            "0"
          ]
        },
        {
          "type": "QUEST_COND_QUEST_GLOBAL_VAR_EQUAL",
          "_param": [
            "303201",
            "0"
          ]
        }
      ],
      "priority": 4,
      "nextTalks": [
        402106
      ],
      "initDialog": 40211901,
      "npcId": [
        13611
      ],
      "performCfg": "QuestDialogue/AQ/Fontaine_4021/Q402119",
      "heroTalk": "TALK_HERO_MAIN",
      "questId": 4021,
      "assetIndex": 10839910580167813360,
      "prePerformCfg": "",
      "finishExec": [
        {
          "KPGKDHAFHFE": "TALK_EXEC_SAVE_TALK_ID",
          "param": [
            "402119"
          ]
        }
      ],
      "PLPFOOINAAJ": [
        "[3_340100282:3477.931,283.321,4550.447]",
        "[3_340100299:3483.120,283.353,4552.157,0.000,311.410,0.000]"
      ]
    },
    {
      "id": 402123,
      "beginWay": "TALK_BEGIN_MANUAL",
      "beginCond": [
        {
          "type": "QUEST_COND_STATE_EQUAL",
          "_param": [
            "402107",
            "2"
          ]
        }
      ],
      "priority": 5,
      "nextTalks": [
        402124,
        402125
      ],
      "initDialog": 40212301,
      "npcId": [
        10095
      ],
      "performCfg": "QuestDialogue/AQ/Fontaine_4021/Q402123",
      "heroTalk": "TALK_HERO_MAIN",
      "questId": 4021,
      "assetIndex": 17891431952014242018,
      "prePerformCfg": "",
      "finishExec": [
        {
          "KPGKDHAFHFE": "TALK_EXEC_SAVE_TALK_ID",
          "param": [
            "402123"
          ]
        }
      ],
      "PLPFOOINAAJ": [
        "[3_340100281:3470.816,283.331,4546.543]",
        "[3_340100284:3471.816,283.268,4550.872]",
        "[3_340100285:3473.937,283.292,4550.651]"
      ]
    },
    {
      "id": 402124,
      "beginWay": "TALK_BEGIN_MANUAL",
      "beginCondComb": "LOGIC_AND",
      "beginCond": [
        {
          "type": "QUEST_COND_STATE_EQUAL",
          "_param": [
            "402107",
            "2"
          ]
        },
        {
          "type": "QUEST_COND_QUEST_GLOBAL_VAR_EQUAL",
          "_param": [
            "4010701",
            "1"
          ]
        }
      ],
      "priority": 4,
      "nextTalks": [
        402107
      ],
      "initDialog": 40212401,
      "npcId": [
        10095
      ],
      "performCfg": "QuestDialogue/AQ/Fontaine_4021/Q402124",
      "heroTalk": "TALK_HERO_MAIN",
      "questId": 4021,
      "assetIndex": 15107916987477150594,
      "prePerformCfg": "",
      "finishExec": [
        {
          "KPGKDHAFHFE": "TALK_EXEC_SAVE_TALK_ID",
          "param": [
            "402124"
          ]
        }
      ],
      "PLPFOOINAAJ": [
        "[3_340100285:3473.937,283.292,4550.651]"
      ]
    },
    {
      "id": 402125,
      "beginWay": "TALK_BEGIN_MANUAL",
      "beginCondComb": "LOGIC_AND",
      "beginCond": [
        {
          "type": "QUEST_COND_STATE_EQUAL",
          "_param": [
            "402107",
            "2"
          ]
        },
        {
          "type": "QUEST_COND_QUEST_GLOBAL_VAR_EQUAL",
          "_param": [
            "4010701",
            "0"
          ]
        }
      ],
      "priority": 4,
      "nextTalks": [
        402107
      ],
      "initDialog": 40212501,
      "npcId": [
        10095
      ],
      "performCfg": "QuestDialogue/AQ/Fontaine_4021/Q402125",
      "heroTalk": "TALK_HERO_MAIN",
      "questId": 4021,
      "assetIndex": 6161492816712338812,
      "prePerformCfg": "",
      "finishExec": [
        {
          "KPGKDHAFHFE": "TALK_EXEC_SAVE_TALK_ID",
          "param": [
            "402125"
          ]
        }
      ],
      "PLPFOOINAAJ": [
        "[3_340100285:3473.937,283.292,4550.651]"
      ]
    },
    {
      "id": 402132,
      "beginWay": "TALK_BEGIN_MANUAL",
      "beginCond": [
        {
          "type": "QUEST_COND_STATE_EQUAL",
          "_param": [
            "402110",
            "2"
          ]
        }
      ],
      "priority": 5,
      "nextTalks": [
        402133,
        402134
      ],
      "initDialog": 40213201,
      "npcId": [
        1070
      ],
      "performCfg": "QuestDialogue/AQ/Fontaine_4021/Q402132",
      "heroTalk": "TALK_HERO_MAIN",
      "questId": 4021,
      "assetIndex": 592487099990200864,
      "prePerformCfg": "",
      "finishExec": [
        {
          "KPGKDHAFHFE": "TALK_EXEC_SAVE_TALK_ID",
          "param": [
            "402132"
          ]
        }
      ],
      "PLPFOOINAAJ": [
        "[3_340100290:3502.597,445.921,4648.773,0.000,36.720,0.000]",
        "[3_340100291:3501.973,445.946,4650.361,0.000,89.360,0.000]",
        "[3_340100292:3504.352,445.921,4649.451]"
      ]
    },
    {
      "id": 402133,
      "beginWay": "TALK_BEGIN_MANUAL",
      "beginCondComb": "LOGIC_AND",
      "beginCond": [
        {
          "type": "QUEST_COND_STATE_EQUAL",
          "_param": [
            "402110",
            "2"
          ]
        },
        {
          "type": "QUEST_COND_QUEST_GLOBAL_VAR_EQUAL",
          "_param": [
            "4010701",
            "0"
          ]
        }
      ],
      "priority": 4,
      "nextTalks": [
        402110
      ],
      "initDialog": 40213301,
      "npcId": [
        1070
      ],
      "performCfg": "QuestDialogue/AQ/Fontaine_4021/Q402133",
      "heroTalk": "TALK_HERO_MAIN",
      "questId": 4021,
      "assetIndex": 16126749774636471956,
      "prePerformCfg": "",
      "finishExec": [
        {
          "KPGKDHAFHFE": "TALK_EXEC_SAVE_TALK_ID",
          "param": [
            "402133"
          ]
        }
      ]
    },
    {
      "id": 402134,
      "beginWay": "TALK_BEGIN_MANUAL",
      "beginCondComb": "LOGIC_AND",
      "beginCond": [
        {
          "type": "QUEST_COND_STATE_EQUAL",
          "_param": [
            "402110",
            "2"
          ]
        },
        {
          "type": "QUEST_COND_QUEST_GLOBAL_VAR_EQUAL",
          "_param": [
            "4010701",
            "1"
          ]
        }
      ],
      "priority": 4,
      "nextTalks": [
        402110
      ],
      "initDialog": 40213401,
      "npcId": [
        1070
      ],
      "performCfg": "QuestDialogue/AQ/Fontaine_4021/Q402134",
      "heroTalk": "TALK_HERO_MAIN",
      "questId": 4021,
      "assetIndex": 8948838306503384391,
      "prePerformCfg": "",
      "finishExec": [
        {
          "KPGKDHAFHFE": "TALK_EXEC_SAVE_TALK_ID",
          "param": [
            "402134"
          ]
        }
      ]
    },
    {
      "id": 402135,
      "beginWay": "TALK_BEGIN_MANUAL",
      "beginCond": [
        {
          "type": "QUEST_COND_STATE_EQUAL",
          "_param": [
            "402116",
            "2"
          ]
        }
      ],
      "priority": 5,
      "initDialog": 40210901,
      "npcId": [
        13612
      ],
      "performCfg": "QuestDialogue/AQ/Fontaine_4021/Q402135",
      "heroTalk": "TALK_HERO_MAIN",
      "questId": 4021,
      "assetIndex": 14077420498495631184,
      "prePerformCfg": "",
      "PLPFOOINAAJ": [
        "[3_340100448:3452.998,454.922,4625.089]",
        "[3_340100449:3455.448,454.922,4625.266]"
      ]
    }
  ],
  "preloadLuaList": [
    15095897199711100819,
    7630778179686009072
  ],
  "forcePreloadLuaList": [
    11370982242512201513
  ],
  "dialogList": [
    {
      "id": 40210214,
      "talkRole": {
        "type": "TALK_ROLE_BLACK_SCREEN",
        "_id": ""
      },
      "talkContentTextMapHash": 2214472522,
      "talkAssetPath": "",
      "talkAssetPathAlter": "",
      "talkAudioName": "",
      "actionBefore": "",
      "actionWhile": "",
      "actionAfter": "",
      "optionIcon": "",
      "iconPath": ""
    },
    {
      "id": 40210501,
      "talkRole": {
        "type": "TALK_ROLE_BLACK_SCREEN",
        "_id": ""
      },
      "talkContentTextMapHash": 3028102834,
      "talkAssetPath": "",
      "talkAssetPathAlter": "",
      "talkAudioName": "",
      "actionBefore": "",
      "actionWhile": "",
      "actionAfter": "",
      "optionIcon": "",
      "iconPath": ""
    },
    {
      "id": 40212502,
      "talkRole": {
        "type": "TALK_ROLE_NPC",
        "_id": "10095"
      },
      "talkContentTextMapHash": 1721474090,
      "talkAssetPath": "",
      "talkAssetPathAlter": "",
      "talkAudioName": "",
      "actionBefore": "",
      "actionWhile": "",
      "actionAfter": "",
      "optionIcon": "",
      "iconPath": ""
    },
    {
      "id": 40219801,
      "talkRole": {
        "type": "TALK_ROLE_BLACK_SCREEN",
        "_id": ""
      },
      "talkAssetPath": "",
      "talkAssetPathAlter": "",
      "talkAudioName": "",
      "actionBefore": "",
      "actionWhile": "",
      "actionAfter": "",
      "optionIcon": "",
      "iconPath": ""
    }
  ],
  "DDHNEIEDLJA": true
}