{
  "id": 4022,
  "resId": 1023,
  "series": 4020,
  "titleTextMapHash": 2976612911,
  "descTextMapHash": 2728717278,
  "luaPath": "Actor/Quest/AQ4022",
  "suggestTrackMainQuestList": [
    4024
  ],
  "rewardIdList": [
    104022
  ],
  "chapterId": 1405,
  "subQuests": [
    {
      "subId": 402201,
      "mainId": 4022,
      "order": 1,
      "descTextMapHash": 1701750748,
      "GMKDJFPEFFF": [
        340305
      ],
      "finishCond": [
        {
          "KPGKDHAFHFE": "QUEST_CONTENT_COMPLETE_TALK",
          "param": [
            402201,
            0
          ]
        }
      ],
      "guide": {
        "KPGKDHAFHFE": "QUEST_GUIDE_LOCATION",
        "autoGuide": "QUEST_GUIDE_AUTO_ENABLE",
        "param": [
          "[3_340300191:2764.815,361.389,4191.450]",
          "20"
        ],
        "guideScene": 3,
        "guideStyle": "QUEST_GUIDE_STYLE_TARGET",
        "guideLayer": "QUEST_GUIDE_LAYER_SCENE"
      },
      "guideHint": {
        "param1": ""
      },
      "JPAAAIKKJNG": "QUEST_HIDDEN",
      "isRewind": true,
      "finishExec": [
        {
          "KPGKDHAFHFE": "QUEST_EXEC_UNREGISTER_DYNAMIC_GROUP",
          "param": [
            "133407028"
          ]
        }
      ],
      "versionBegin": "",
      "versionEnd": ""
    },
    {
      "subId": 402202,
      "mainId": 4022,
      "order": 3,
      "isMpBlock": true,
      "descTextMapHash": 1690335796,
      "GMKDJFPEFFF": [
        108501
      ],
      "finishCond": [
        {
          "KPGKDHAFHFE": "QUEST_CONTENT_COMPLETE_TALK",
          "param": [
            402202,
            0
          ]
        }
      ],
      "guide": {
        "KPGKDHAFHFE": "QUEST_GUIDE_LOCATION",
        "autoGuide": "QUEST_GUIDE_AUTO_ENABLE",
        "param": [
          "[1085_270:27.773,15.378,36.749]",
          "20"
        ],
        "guideScene": 1085,
        "guideStyle": "QUEST_GUIDE_STYLE_TARGET",
        "guideLayer": "QUEST_GUIDE_LAYER_SCENE"
      },
      "guideHint": {
        "param1": ""
      },
      "JPAAAIKKJNG": "QUEST_HIDDEN",
      "isRewind": true,
      "versionBegin": "",
      "versionEnd": ""
    },
    {
      "subId": 402203,
      "mainId": 4022,
      "order": 4,
      "isMpBlock": true,
      "descTextMapHash": 568553748,
      "GMKDJFPEFFF": [
        108501
      ],
      "finishCond": [
        {
          "KPGKDHAFHFE": "QUEST_CONTENT_COMPLETE_TALK",
          "param": [
            402215,
            0
          ]
        }
      ],
      "guide": {
        "KPGKDHAFHFE": "QUEST_GUIDE_LOCATION",
        "autoGuide": "QUEST_GUIDE_AUTO_ENABLE",
        "param": [
          "[1085_270:27.773,15.378,36.749]",
          "20"
        ],
        "guideScene": 1085,
        "guideStyle": "QUEST_GUIDE_STYLE_TARGET",
        "guideLayer": "QUEST_GUIDE_LAYER_SCENE"
      },
      "guideHint": {
        "param1": ""
      },
      "JPAAAIKKJNG": "QUEST_HIDDEN",
      "isRewind": true,
      "versionBegin": "",
      "versionEnd": ""
    },
    {
      "subId": 402204,
      "mainId": 4022,
      "order": 5,
      "isMpBlock": true,
      "descTextMapHash": 1693660412,
      "GMKDJFPEFFF": [
        108501
      ],
      "finishCond": [
        {
          "KPGKDHAFHFE": "QUEST_CONTENT_COMPLETE_TALK",
          "param": [
            402204,
            0
          ]
        }
      ],
      "guide": {
        "KPGKDHAFHFE": "QUEST_GUIDE_LOCATION",
        "autoGuide": "QUEST_GUIDE_AUTO_ENABLE",
        "param": [
          "[1085_270:27.773,15.378,36.749]",
          "20"
        ],
        "guideScene": 1085,
        "guideStyle": "QUEST_GUIDE_STYLE_TARGET",
        "guideLayer": "QUEST_GUIDE_LAYER_SCENE"
      },
      "guideHint": {
        "param1": ""
      },
      "JPAAAIKKJNG": "QUEST_HIDDEN",
      "isRewind": true,
      "versionBegin": "",
      "versionEnd": ""
    },
    {
      "subId": 402205,
      "mainId": 4022,
      "order": 6,
      "isMpBlock": true,
      "descTextMapHash": 963828316,
      "GMKDJFPEFFF": [
        108501
      ],
      "finishCond": [
        {
          "KPGKDHAFHFE": "QUEST_CONTENT_COMPLETE_TALK",
          "param": [
            402205,
            0
          ]
        }
      ],
      "guide": {
        "KPGKDHAFHFE": "QUEST_GUIDE_LOCATION",
        "autoGuide": "QUEST_GUIDE_AUTO_ENABLE",
        "param": [
          "[1085_270:27.773,15.378,36.749]",
          "20"
        ],
        "guideScene": 1085,
        "guideStyle": "QUEST_GUIDE_STYLE_TARGET",
        "guideLayer": "QUEST_GUIDE_LAYER_SCENE"
      },
      "guideHint": {
        "param1": ""
      },
      "JPAAAIKKJNG": "QUEST_HIDDEN",
      "isRewind": true,
      "versionBegin": "",
      "versionEnd": ""
    },
    {
      "subId": 402206,
      "mainId": 4022,
      "order": 7,
      "isMpBlock": true,
      "descTextMapHash": 406728332,
      "GMKDJFPEFFF": [
        108501
      ],
      "finishCond": [
        {
          "KPGKDHAFHFE": "QUEST_CONTENT_COMPLETE_TALK",
          "param": [
            402206,
            0
          ]
        }
      ],
      "guide": {
        "KPGKDHAFHFE": "QUEST_GUIDE_LOCATION",
        "autoGuide": "QUEST_GUIDE_AUTO_ENABLE",
        "param": [
          "[1085_270:27.773,15.378,36.749]",
          "20"
        ],
        "guideScene": 1085,
        "guideStyle": "QUEST_GUIDE_STYLE_TARGET",
        "guideLayer": "QUEST_GUIDE_LAYER_SCENE"
      },
      "guideHint": {
        "param1": ""
      },
      "JPAAAIKKJNG": "QUEST_HIDDEN",
      "isRewind": true,
      "versionBegin": "",
      "versionEnd": ""
    },
    {
      "subId": 402207,
      "mainId": 4022,
      "order": 8,
      "isMpBlock": true,
      "descTextMapHash": 3397892812,
      "GMKDJFPEFFF": [
        108501
      ],
      "finishCond": [
        {
          "KPGKDHAFHFE": "QUEST_CONTENT_COMPLETE_TALK",
          "param": [
            402207,
            0
          ]
        }
      ],
      "guide": {
        "KPGKDHAFHFE": "QUEST_GUIDE_LOCATION",
        "autoGuide": "QUEST_GUIDE_AUTO_ENABLE",
        "param": [
          "[1085_270:27.773,15.378,36.749]",
          "20"
        ],
        "guideScene": 1085,
        "guideStyle": "QUEST_GUIDE_STYLE_TARGET",
        "guideLayer": "QUEST_GUIDE_LAYER_SCENE"
      },
      "guideHint": {
        "param1": ""
      },
      "JPAAAIKKJNG": "QUEST_HIDDEN",
      "isRewind": true,
      "versionBegin": "",
      "versionEnd": ""
    },
    {
      "subId": 402208,
      "mainId": 4022,
      "order": 10,
      "isMpBlock": true,
      "descTextMapHash": 3027559020,
      "GMKDJFPEFFF": [
        108501
      ],
      "finishCond": [
        {
          "KPGKDHAFHFE": "QUEST_CONTENT_COMPLETE_TALK",
          "param": [
            402208,
            0
          ]
        }
      ],
      "guide": {
        "KPGKDHAFHFE": "QUEST_GUIDE_LOCATION",
        "autoGuide": "QUEST_GUIDE_AUTO_ENABLE",
        "param": [
          "[1085_270:27.773,15.378,36.749]",
          "20"
        ],
        "guideScene": 1085,
        "guideStyle": "QUEST_GUIDE_STYLE_TARGET",
        "guideLayer": "QUEST_GUIDE_LAYER_SCENE"
      },
      "guideHint": {
        "param1": ""
      },
      "finishParent": true,
      "JPAAAIKKJNG": "QUEST_HIDDEN",
      "isRewind": true,
      "finishExec": [
        {
          "KPGKDHAFHFE": "QUEST_EXEC_ADD_SCENE_TAG",
          "param": [
            "1085",
            "1351"
          ]
        },
        {
          "KPGKDHAFHFE": "QUEST_EXEC_DEL_SCENE_TAG",
          "param": [
            "1085",
            "1352"
          ]
        },
        {
          "KPGKDHAFHFE": "QUEST_EXEC_REFRESH_GROUP_SUITE",
          "param": [
            "1085",
            "201085004,2"
          ]
        }
      ],
      "versionBegin": "",
      "versionEnd": ""
    },
    {
      "subId": 402209,
      "mainId": 4022,
      "order": 2,
      "isMpBlock": true,
      "descTextMapHash": 2103579844,
      "GMKDJFPEFFF": [
        108501,
        340305
      ],
      "finishCond": [
        {
          "KPGKDHAFHFE": "QUEST_CONTENT_COMPLETE_TALK",
          "param": [
            402209,
            0
          ]
        }
      ],
      "guide": {
        "KPGKDHAFHFE": "QUEST_GUIDE_LOCATION",
        "autoGuide": "QUEST_GUIDE_AUTO_ENABLE",
        "param": [
          "[3_340300338:2804.846,364.113,4140.110]",
          "0"
        ],
        "guideScene": 3,
        "guideStyle": "QUEST_GUIDE_STYLE_POINT",
        "guideLayer": "QUEST_GUIDE_LAYER_SCENE"
      },
      "guideHint": {
        "param1": ""
      },
      "JPAAAIKKJNG": "QUEST_HIDDEN",
      "isRewind": true,
      "finishExec": [
        {
          "KPGKDHAFHFE": "QUEST_EXEC_REFRESH_GROUP_SUITE",
          "param": [
            "3",
            "133403709,2"
          ]
        }
      ],
      "versionBegin": "",
      "versionEnd": ""
    },
    {
      "subId": 402210,
      "mainId": 4022,
      "order": 9,
      "isMpBlock": true,
      "descTextMapHash": 40724788,
      "GMKDJFPEFFF": [
        108501
      ],
      "finishCond": [
        {
          "KPGKDHAFHFE": "QUEST_CONTENT_COMPLETE_TALK",
          "param": [
            402210,
            0
          ]
        }
      ],
      "guide": {
        "KPGKDHAFHFE": "QUEST_GUIDE_LOCATION",
        "autoGuide": "QUEST_GUIDE_AUTO_ENABLE",
        "param": [
          "[1085_270:27.773,15.378,36.749]",
          "20"
        ],
        "guideScene": 1085,
        "guideStyle": "QUEST_GUIDE_STYLE_TARGET",
        "guideLayer": "QUEST_GUIDE_LAYER_SCENE"
      },
      "guideHint": {
        "param1": ""
      },
      "JPAAAIKKJNG": "QUEST_HIDDEN",
      "isRewind": true,
      "versionBegin": "",
      "versionEnd": ""
    }
  ],
  "talks": [
    {
      "id": 402201,
      "beginWay": "TALK_BEGIN_MANUAL",
      "beginCond": [
        {
          "type": "QUEST_COND_STATE_EQUAL",
          "_param": [
            "402201",
            "2"
          ]
        }
      ],
      "priority": 5,
      "initDialog": 40220103,
      "npcId": [
        13316,
        13696
      ],
      "performCfg": "QuestDialogue/AQ/Fontaine_4022/Q402201",
      "heroTalk": "TALK_HERO_MAIN",
      "questId": 4022,
      "assetIndex": 7494714460903449901,
      "prePerformCfg": "",
      "PLPFOOINAAJ": [
        "[3_340300191:2764.815,361.389,4191.450]",
        "[3_340300192:2765.892,361.400,4180.375]",
        "[3_340300193:2768.546,361.396,4182.041]"
      ]
    },
    {
      "id": 402202,
      "beginWay": "TALK_BEGIN_MANUAL",
      "beginCond": [
        {
          "type": "QUEST_COND_STATE_EQUAL",
          "_param": [
            "402202",
            "2"
          ]
        }
      ],
      "priority": 5,
      "initDialog": 40220201,
      "npcId": [
        1071,
        13316,
        1076,
        1077,
        13751,
        13752,
        13753,
        13754,
        13755,
        1075,
        1072,
        13365
      ],
      "performCfg": "QuestDialogue/AQ/Fontaine_4022/Q402202",
      "heroTalk": "TALK_HERO_MAIN",
      "questId": 4022,
      "assetIndex": 10711147089014533365,
      "prePerformCfg": "",
      "PLPFOOINAAJ": [
        "[1085_163:0.157,41.060,78.826,0.000,180.000,0.000]",
        "[1085_270:27.773,15.378,36.749]",
        "[1085_271:26.347,15.378,38.042]",
        "[1085_297:0.226,18.669,3.190]",
        "[1085_298:-18.435,-0.111,35.479]",
        "[1085_300:0.118,-1.803,56.533]",
        "[1085_301:23.959,-0.736,59.427]",
        "[1085_302:-19.441,-0.111,37.980]",
        "[1085_303:-15.642,-2.933,48.034]",
        "[1085_324:-12.738,-1.701,56.682,0.000,173.280,0.000]",
        "[1085_325:-6.285,-0.062,64.938,0.000,180.000,0.000]",
        "[1085_326:8.690,-0.061,65.291,0.000,180.000,0.000]",
        "[1085_327:-8.629,-0.061,65.151,0.000,180.000,0.000]",
        "[1085_328:22.513,-1.696,55.579,0.000,180.000,0.000]",
        "[1085_329:12.939,0.916,68.168,0.000,180.000,0.000]",
        "[1085_330:10.449,-0.060,64.974,0.000,180.000,0.000]",
        "[1085_331:26.693,-1.697,54.777,0.000,180.000,0.000]",
        "[1085_332:-12.796,-0.059,64.956,0.000,180.000,0.000]",
        "[1085_333:-8.613,0.916,68.736,0.000,180.000,0.000]",
        "[1085_334:6.607,0.916,68.998,0.000,180.000,0.000]",
        "[1085_335:12.783,-0.060,64.833,0.000,180.000,0.000]",
        "[1085_336:10.626,0.916,68.166,0.000,180.000,0.000]",
        "[1085_337:23.071,-0.058,63.620,0.000,180.000,0.000]",
        "[1085_338:-10.861,-0.060,65.109,0.000,180.000,0.000]",
        "[1085_339:-10.798,0.916,67.942,0.000,180.000,0.000]",
        "[1085_340:24.178,-1.697,55.159,0.000,180.000,0.000]",
        "[1085_341:25.501,-0.057,63.403,0.000,180.000,0.000]",
        "[1085_342:-6.732,0.916,68.693,0.000,180.000,0.000]",
        "[1085_343:8.800,0.916,68.587,0.000,180.000,0.000]",
        "[1085_344:6.669,-0.062,65.412,0.000,180.000,0.000]",
        "[1085_345:-13.201,0.916,68.051,0.000,180.000,0.000]"
      ]
    },
    {
      "id": 402203,
      "beginWay": "TALK_BEGIN_MANUAL",
      "beginCond": [
        {
          "type": "QUEST_COND_STATE_EQUAL",
          "_param": [
            "402203",
            "2"
          ]
        }
      ],
      "priority": 5,
      "initDialog": 40220301,
      "npcId": [
        1076,
        13316,
        13746,
        13747,
        13748,
        13749,
        1075
      ],
      "performCfg": "QuestDialogue/AQ/Fontaine_4022/Q402203",
      "heroTalk": "TALK_HERO_MAIN",
      "questId": 4022,
      "assetIndex": 8074293234394581431,
      "prePerformCfg": "",
      "PLPFOOINAAJ": [
        "[1085_270:27.773,15.378,36.749]",
        "[1085_276:124.517,22.132,13.390]",
        "[1085_297:0.226,18.669,3.190]",
        "[1085_324:-12.738,-1.701,56.682,0.000,173.280,0.000]",
        "[1085_325:-6.285,-0.062,64.938,0.000,180.000,0.000]",
        "[1085_326:8.690,-0.061,65.291,0.000,180.000,0.000]",
        "[1085_327:-8.629,-0.061,65.151,0.000,180.000,0.000]",
        "[1085_328:22.513,-1.696,55.579,0.000,180.000,0.000]",
        "[1085_329:12.939,0.916,68.168,0.000,180.000,0.000]",
        "[1085_330:10.449,-0.060,64.974,0.000,180.000,0.000]",
        "[1085_331:26.693,-1.697,54.777,0.000,180.000,0.000]",
        "[1085_332:-12.796,-0.059,64.956,0.000,180.000,0.000]",
        "[1085_333:-8.613,0.916,68.736,0.000,180.000,0.000]",
        "[1085_334:6.607,0.916,68.998,0.000,180.000,0.000]",
        "[1085_335:12.783,-0.060,64.833,0.000,180.000,0.000]",
        "[1085_336:10.626,0.916,68.166,0.000,180.000,0.000]",
        "[1085_337:23.071,-0.058,63.620,0.000,180.000,0.000]",
        "[1085_338:-10.861,-0.060,65.109,0.000,180.000,0.000]",
        "[1085_339:-10.798,0.916,67.942,0.000,180.000,0.000]",
        "[1085_340:24.178,-1.697,55.159,0.000,180.000,0.000]",
        "[1085_341:25.501,-0.057,63.403,0.000,180.000,0.000]",
        "[1085_342:-6.732,0.916,68.693,0.000,180.000,0.000]",
        "[1085_343:8.800,0.916,68.587,0.000,180.000,0.000]",
        "[1085_344:6.669,-0.062,65.412,0.000,180.000,0.000]",
        "[1085_345:-13.201,0.916,68.051,0.000,180.000,0.000]",
        "[1085_347:-8.613,-1.701,56.829,0.000,180.000,0.000]",
        "[1085_348:-6.102,-1.702,56.756,0.000,180.000,0.000]",
        "[1085_349:5.887,-1.702,56.495,0.000,180.000,0.000]",
        "[1085_350:8.006,-1.702,56.366,0.000,180.000,0.000]",
        "[1085_352:12.709,-1.701,56.501,0.000,180.000,0.000]"
      ]
    },
    {
      "id": 402204,
      "beginWay": "TALK_BEGIN_MANUAL",
      "beginCond": [
        {
          "type": "QUEST_COND_STATE_EQUAL",
          "_param": [
            "402204",
            "2"
          ]
        }
      ],
      "priority": 5,
      "initDialog": 40220401,
      "npcId": [
        1074,
        1071,
        1076,
        13316
      ],
      "performCfg": "QuestDialogue/AQ/Fontaine_4022/Q402204",
      "heroTalk": "TALK_HERO_MAIN",
      "questId": 4022,
      "assetIndex": 3046225349608472854,
      "prePerformCfg": "",
      "PLPFOOINAAJ": [
        "[1085_270:27.773,15.378,36.749]",
        "[1085_271:26.347,15.378,38.042]",
        "[1085_276:124.517,22.132,13.390]",
        "[1085_297:0.226,18.669,3.190]",
        "[1085_299:-5.870,-2.933,46.967]",
        "[1085_347:-8.613,-1.701,56.829,0.000,180.000,0.000]",
        "[1085_348:-6.102,-1.702,56.756,0.000,180.000,0.000]",
        "[1085_349:5.887,-1.702,56.495,0.000,180.000,0.000]",
        "[1085_350:8.006,-1.702,56.366,0.000,180.000,0.000]",
        "[1085_351:10.197,-1.701,55.926,0.000,180.000,0.000]",
        "[1085_352:12.709,-1.701,56.501,0.000,180.000,0.000]"
      ]
    },
    {
      "id": 402205,
      "beginWay": "TALK_BEGIN_MANUAL",
      "beginCond": [
        {
          "type": "QUEST_COND_STATE_EQUAL",
          "_param": [
            "402205",
            "2"
          ]
        }
      ],
      "priority": 5,
      "npcId": [
        13316
      ],
      "performCfg": "QuestDialogue/AQ/Fontaine_4022/Q402205",
      "questId": 4022,
      "assetIndex": 326011890603444312,
      "prePerformCfg": "",
      "PLPFOOINAAJ": [
        "[1085_270:27.773,15.378,36.749]"
      ]
    },
    {
      "id": 402206,
      "beginWay": "TALK_BEGIN_MANUAL",
      "beginCond": [
        {
          "type": "QUEST_COND_STATE_EQUAL",
          "_param": [
            "402206",
            "2"
          ]
        }
      ],
      "priority": 5,
      "initDialog": 40220601,
      "npcId": [
        1076,
        1072,
        1071,
        1075,
        13762,
        13763,
        13764,
        1077,
        13316
      ],
      "performCfg": "QuestDialogue/AQ/Fontaine_4022/Q402206",
      "heroTalk": "TALK_HERO_MAIN",
      "questId": 4022,
      "assetIndex": 2374517671986649728,
      "prePerformCfg": "",
      "PLPFOOINAAJ": [
        "[1085_270:27.773,15.378,36.749]",
        "[1085_271:26.347,15.378,38.042]",
        "[1085_276:124.517,22.132,13.390]",
        "[1085_277:-10.483,-1.701,56.761,0.000,180.000,0.000]",
        "[1085_278:-8.212,-1.701,56.874,0.000,180.000,0.000]",
        "[1085_280:6.286,-1.702,56.778,0.000,180.000,0.000]",
        "[1085_281:8.334,-1.701,56.816,0.000,180.000,0.000]",
        "[1085_285:27.365,15.378,35.491]",
        "[1085_297:0.226,18.669,3.190]",
        "[1085_324:-12.738,-1.701,56.682,0.000,173.280,0.000]",
        "[1085_325:-6.285,-0.062,64.938,0.000,180.000,0.000]",
        "[1085_326:8.690,-0.061,65.291,0.000,180.000,0.000]",
        "[1085_327:-8.629,-0.061,65.151,0.000,180.000,0.000]",
        "[1085_328:22.513,-1.696,55.579,0.000,180.000,0.000]",
        "[1085_329:12.939,0.916,68.168,0.000,180.000,0.000]",
        "[1085_330:10.449,-0.060,64.974,0.000,180.000,0.000]",
        "[1085_331:26.693,-1.697,54.777,0.000,180.000,0.000]",
        "[1085_332:-12.796,-0.059,64.956,0.000,180.000,0.000]",
        "[1085_333:-8.613,0.916,68.736,0.000,180.000,0.000]",
        "[1085_334:6.607,0.916,68.998,0.000,180.000,0.000]",
        "[1085_335:12.783,-0.060,64.833,0.000,180.000,0.000]",
        "[1085_336:10.626,0.916,68.166,0.000,180.000,0.000]",
        "[1085_337:23.071,-0.058,63.620,0.000,180.000,0.000]",
        "[1085_338:-10.861,-0.060,65.109,0.000,180.000,0.000]",
        "[1085_339:-10.798,0.916,67.942,0.000,180.000,0.000]",
        "[1085_340:24.178,-1.697,55.159,0.000,180.000,0.000]",
        "[1085_341:25.501,-0.057,63.403,0.000,180.000,0.000]",
        "[1085_342:-6.732,0.916,68.693,0.000,180.000,0.000]",
        "[1085_343:8.800,0.916,68.587,0.000,180.000,0.000]",
        "[1085_344:6.669,-0.062,65.412,0.000,180.000,0.000]",
        "[1085_345:-13.201,0.916,68.051,0.000,180.000,0.000]",
        "[1085_346:-10.855,-1.701,56.877,0.000,180.000,0.000]",
        "[1085_347:-8.613,-1.701,56.829,0.000,180.000,0.000]",
        "[1085_348:-6.102,-1.702,56.756,0.000,180.000,0.000]",
        "[1085_349:5.887,-1.702,56.495,0.000,180.000,0.000]",
        "[1085_350:8.006,-1.702,56.366,0.000,180.000,0.000]",
        "[1085_351:10.197,-1.701,55.926,0.000,180.000,0.000]",
        "[1085_352:12.709,-1.701,56.501,0.000,180.000,0.000]"
      ]
    },
    {
      "id": 402207,
      "beginWay": "TALK_BEGIN_MANUAL",
      "beginCond": [
        {
          "type": "QUEST_COND_STATE_EQUAL",
          "_param": [
            "402207",
            "2"
          ]
        }
      ],
      "priority": 5,
      "npcId": [
        13316
      ],
      "performCfg": "QuestDialogue/AQ/Fontaine_4022/Q402207",
      "questId": 4022,
      "assetIndex": 11932683444473482643,
      "prePerformCfg": "",
      "PLPFOOINAAJ": [
        "[1085_270:27.773,15.378,36.749]"
      ]
    },
    {
      "id": 402208,
      "beginWay": "TALK_BEGIN_MANUAL",
      "beginCond": [
        {
          "type": "QUEST_COND_STATE_EQUAL",
          "_param": [
            "402208",
            "2"
          ]
        }
      ],
      "priority": 5,
      "initDialog": 40220801,
      "npcId": [
        1076,
        1077,
        1075,
        1071,
        13611,
        13316
      ],
      "performCfg": "QuestDialogue/AQ/Fontaine_4022/Q402208",
      "heroTalk": "TALK_HERO_MAIN",
      "questId": 4022,
      "assetIndex": 2511725346379189870,
      "prePerformCfg": "",
      "PLPFOOINAAJ": [
        "[1085_270:27.773,15.378,36.749]",
        "[1085_275:123.714,22.132,13.390]",
        "[1085_297:0.226,18.669,3.190]",
        "[1085_298:-18.435,-0.111,35.479]",
        "[1085_300:0.118,-1.803,56.533]",
        "[1085_301:23.959,-0.736,59.427]",
        "[1085_303:-15.642,-2.933,48.034]"
      ]
    },
    {
      "id": 402209,
      "beginWay": "TALK_BEGIN_MANUAL",
      "beginCond": [
        {
          "type": "QUEST_COND_STATE_EQUAL",
          "_param": [
            "402209",
            "2"
          ]
        }
      ],
      "priority": 5,
      "initDialog": 40220901,
      "npcId": [
        13316
      ],
      "performCfg": "QuestDialogue/AQ/Fontaine_4022/Q402209",
      "heroTalk": "TALK_HERO_MAIN",
      "questId": 4022,
      "assetIndex": 10493490998787062996,
      "prePerformCfg": "",
      "PLPFOOINAAJ": [
        "[1085_274:123.714,22.132,12.186]",
        "[1085_275:123.714,22.132,13.390]",
        "[1085_276:124.517,22.132,13.390]"
      ]
    },
    {
      "id": 402210,
      "beginWay": "TALK_BEGIN_MANUAL",
      "beginCond": [
        {
          "type": "QUEST_COND_STATE_EQUAL",
          "_param": [
            "402210",
            "2"
          ]
        }
      ],
      "priority": 5,
      "initDialog": 40221001,
      "npcId": [
        13316
      ],
      "performCfg": "QuestDialogue/AQ/Fontaine_4022/Q402210",
      "questId": 4022,
      "assetIndex": 18283121407604910179,
      "prePerformCfg": "",
      "PLPFOOINAAJ": [
        "[1085_270:27.773,15.378,36.749]",
        "[1085_271:26.347,15.378,38.042]"
      ]
    },
    {
      "id": 402211,
      "beginWay": "TALK_BEGIN_MANUAL",
      "beginCond": [
        {
          "type": "QUEST_COND_STATE_EQUAL",
          "_param": [
            "402203",
            "2"
          ]
        }
      ],
      "priority": 4,
      "initDialog": 40221101,
      "npcId": [
        13316,
        1076,
        13751,
        13750
      ],
      "performCfg": "QuestDialogue/AQ/Fontaine_4022/Q402211",
      "heroTalk": "TALK_HERO_MAIN",
      "questId": 4022,
      "assetIndex": 12977711832192255127,
      "prePerformCfg": "",
      "PLPFOOINAAJ": [
        "[1085_324:-12.738,-1.701,56.682,0.000,173.280,0.000]",
        "[1085_325:-6.285,-0.062,64.938,0.000,180.000,0.000]",
        "[1085_326:8.690,-0.061,65.291,0.000,180.000,0.000]",
        "[1085_327:-8.629,-0.061,65.151,0.000,180.000,0.000]",
        "[1085_328:22.513,-1.696,55.579,0.000,180.000,0.000]",
        "[1085_329:12.939,0.916,68.168,0.000,180.000,0.000]",
        "[1085_330:10.449,-0.060,64.974,0.000,180.000,0.000]",
        "[1085_331:26.693,-1.697,54.777,0.000,180.000,0.000]",
        "[1085_332:-12.796,-0.059,64.956,0.000,180.000,0.000]",
        "[1085_333:-8.613,0.916,68.736,0.000,180.000,0.000]",
        "[1085_334:6.607,0.916,68.998,0.000,180.000,0.000]",
        "[1085_335:12.783,-0.060,64.833,0.000,180.000,0.000]",
        "[1085_336:10.626,0.916,68.166,0.000,180.000,0.000]",
        "[1085_337:23.071,-0.058,63.620,0.000,180.000,0.000]",
        "[1085_338:-10.861,-0.060,65.109,0.000,180.000,0.000]",
        "[1085_339:-10.798,0.916,67.942,0.000,180.000,0.000]",
        "[1085_340:24.178,-1.697,55.159,0.000,180.000,0.000]",
        "[1085_341:25.501,-0.057,63.403,0.000,180.000,0.000]",
        "[1085_342:-6.732,0.916,68.693,0.000,180.000,0.000]",
        "[1085_343:8.800,0.916,68.587,0.000,180.000,0.000]",
        "[1085_344:6.669,-0.062,65.412,0.000,180.000,0.000]",
        "[1085_345:-13.201,0.916,68.051,0.000,180.000,0.000]"
      ]
    },
    {
      "id": 402212,
      "beginCond": [
        {
          "type": "QUEST_COND_STATE_EQUAL",
          "_param": [
            "402203",
            "2"
          ]
        }
      ],
      "priority": 3,
      "initDialog": 40221201,
      "npcId": [
        13316
      ],
      "performCfg": "QuestDialogue/AQ/Fontaine_4022/Q402212",
      "heroTalk": "TALK_HERO_MAIN",
      "questId": 4022,
      "assetIndex": 1148809028551835550,
      "prePerformCfg": ""
    },
    {
      "id": 402213,
      "beginWay": "TALK_BEGIN_MANUAL",
      "beginCond": [
        {
          "type": "QUEST_COND_STATE_EQUAL",
          "_param": [
            "402203",
            "2"
          ]
        }
      ],
      "priority": 4,
      "initDialog": 40221301,
      "npcId": [
        13316,
        1076,
        13749,
        13743,
        13744,
        13745
      ],
      "performCfg": "QuestDialogue/AQ/Fontaine_4022/Q402213",
      "heroTalk": "TALK_HERO_MAIN",
      "questId": 4022,
      "assetIndex": 996990125464030846,
      "prePerformCfg": "",
      "PLPFOOINAAJ": [
        "[1085_3:23.540,15.423,35.058,0.000,270.000,0.000]",
        "[1085_324:-12.738,-1.701,56.682,0.000,173.280,0.000]",
        "[1085_325:-6.285,-0.062,64.938,0.000,180.000,0.000]",
        "[1085_326:8.690,-0.061,65.291,0.000,180.000,0.000]",
        "[1085_327:-8.629,-0.061,65.151,0.000,180.000,0.000]",
        "[1085_328:22.513,-1.696,55.579,0.000,180.000,0.000]",
        "[1085_329:12.939,0.916,68.168,0.000,180.000,0.000]",
        "[1085_330:10.449,-0.060,64.974,0.000,180.000,0.000]",
        "[1085_331:26.693,-1.697,54.777,0.000,180.000,0.000]",
        "[1085_332:-12.796,-0.059,64.956,0.000,180.000,0.000]",
        "[1085_333:-8.613,0.916,68.736,0.000,180.000,0.000]",
        "[1085_334:6.607,0.916,68.998,0.000,180.000,0.000]",
        "[1085_335:12.783,-0.060,64.833,0.000,180.000,0.000]",
        "[1085_336:10.626,0.916,68.166,0.000,180.000,0.000]",
        "[1085_337:23.071,-0.058,63.620,0.000,180.000,0.000]",
        "[1085_338:-10.861,-0.060,65.109,0.000,180.000,0.000]",
        "[1085_339:-10.798,0.916,67.942,0.000,180.000,0.000]",
        "[1085_340:24.178,-1.697,55.159,0.000,180.000,0.000]",
        "[1085_341:25.501,-0.057,63.403,0.000,180.000,0.000]",
        "[1085_342:-6.732,0.916,68.693,0.000,180.000,0.000]",
        "[1085_343:8.800,0.916,68.587,0.000,180.000,0.000]",
        "[1085_344:6.669,-0.062,65.412,0.000,180.000,0.000]",
        "[1085_345:-13.201,0.916,68.051,0.000,180.000,0.000]",
        "[1085_347:-8.613,-1.701,56.829,0.000,180.000,0.000]",
        "[1085_348:-6.102,-1.702,56.756,0.000,180.000,0.000]",
        "[1085_349:5.887,-1.702,56.495,0.000,180.000,0.000]",
        "[1085_350:8.006,-1.702,56.366,0.000,180.000,0.000]",
        "[1085_352:12.709,-1.701,56.501,0.000,180.000,0.000]",
        "[1085_8:0.039,18.669,3.131]"
      ]
    },
    {
      "id": 402214,
      "beginCond": [
        {
          "type": "QUEST_COND_STATE_EQUAL",
          "_param": [
            "402203",
            "2"
          ]
        }
      ],
      "priority": 3,
      "initDialog": 40221401,
      "npcId": [
        13316
      ],
      "performCfg": "QuestDialogue/AQ/Fontaine_4022/Q402214",
      "questId": 4022,
      "assetIndex": 15936492530249461124,
      "prePerformCfg": ""
    },
    {
      "id": 402215,
      "beginWay": "TALK_BEGIN_MANUAL",
      "beginCond": [
        {
          "type": "QUEST_COND_STATE_EQUAL",
          "_param": [
            "402203",
            "2"
          ]
        }
      ],
      "priority": 4,
      "initDialog": 40221501,
      "npcId": [
        1075,
        1076,
        13758,
        13759,
        13316,
        13756,
        13757,
        1079,
        13760,
        13746,
        13747,
        13761
      ],
      "performCfg": "QuestDialogue/AQ/Fontaine_4022/Q402215",
      "heroTalk": "TALK_HERO_MAIN",
      "questId": 4022,
      "assetIndex": 7523057624148495171,
      "prePerformCfg": "",
      "PLPFOOINAAJ": [
        "[1085_276:124.517,22.132,13.390]",
        "[1085_290:-17.218,2.587,76.648]",
        "[1085_337:23.071,-0.058,63.620,0.000,180.000,0.000]",
        "[1085_338:-10.861,-0.060,65.109,0.000,180.000,0.000]",
        "[1085_339:-10.798,0.916,67.942,0.000,180.000,0.000]",
        "[1085_340:24.178,-1.697,55.159,0.000,180.000,0.000]",
        "[1085_346:-10.855,-1.701,56.877,0.000,180.000,0.000]",
        "[1085_347:-8.613,-1.701,56.829,0.000,180.000,0.000]",
        "[1085_349:5.887,-1.702,56.495,0.000,180.000,0.000]",
        "[1085_351:10.197,-1.701,55.926,0.000,180.000,0.000]",
        "[1085_8:0.039,18.669,3.131]"
      ]
    },
    {
      "id": 402216,
      "beginCond": [
        {
          "type": "QUEST_COND_STATE_EQUAL",
          "_param": [
            "402203",
            "2"
          ]
        }
      ],
      "priority": 3,
      "initDialog": 40221601,
      "npcId": [
        13316
      ],
      "performCfg": "QuestDialogue/AQ/Fontaine_4022/Q402216",
      "questId": 4022,
      "assetIndex": 8481939245774347548,
      "prePerformCfg": ""
    },
    {
      "id": 402217,
      "initDialog": 40221701,
      "performCfg": "",
      "questId": 4022,
      "assetIndex": 14566485529061699462,
      "prePerformCfg": ""
    },
    {
      "id": 402218,
      "initDialog": 40221801,
      "performCfg": "",
      "questId": 4022,
      "assetIndex": 13937399646927040773,
      "prePerformCfg": ""
    }
  ],
  "preloadLuaList": [
    11288343755453126377,
    5945410616824617219,
    16444165582098823713
  ],
  "forcePreloadLuaList": [
    15420017751335353654
  ],
  "dialogList": [
    {
      "id": 40220501,
      "nextDialogs": [
        40220502
      ],
      "talkRole": {
        "type": "TALK_ROLE_NPC",
        "_id": "1005"
      },
      "talkContentTextMapHash": 2501289938,
      "talkAssetPath": "",
      "talkAssetPathAlter": "",
      "talkAudioName": "",
      "actionBefore": "",
      "actionWhile": "",
      "actionAfter": "",
      "optionIcon": "",
      "iconPath": ""
    },
    {
      "id": 40220502,
      "nextDialogs": [
        40220503
      ],
      "talkRole": {
        "type": "TALK_ROLE_NPC",
        "_id": "1005"
      },
      "talkContentTextMapHash": 2045519698,
      "talkAssetPath": "",
      "talkAssetPathAlter": "",
      "talkAudioName": "",
      "actionBefore": "",
      "actionWhile": "",
      "actionAfter": "",
      "optionIcon": "",
      "iconPath": ""
    },
    {
      "id": 40220503,
      "talkRole": {
        "type": "TALK_ROLE_NPC",
        "_id": "1005"
      },
      "talkContentTextMapHash": 1302108938,
      "talkAssetPath": "",
      "talkAssetPathAlter": "",
      "talkAudioName": "",
      "actionBefore": "",
      "actionWhile": "",
      "actionAfter": "",
      "optionIcon": "",
      "iconPath": ""
    },
    {
      "id": 40220701,
      "nextDialogs": [
        40220702
      ],
      "talkRole": {
        "type": "TALK_ROLE_NPC",
        "_id": "1076"
      },
      "talkContentTextMapHash": 103058146,
      "talkAssetPath": "",
      "talkAssetPathAlter": "",
      "talkAudioName": "",
      "actionBefore": "",
      "actionWhile": "",
      "actionAfter": "",
      "optionIcon": "",
      "iconPath": ""
    },
    {
      "id": 40220702,
      "talkRole": {
        "type": "TALK_ROLE_NPC",
        "_id": "1076"
      },
      "talkContentTextMapHash": 762252698,
      "talkAssetPath": "",
      "talkAssetPathAlter": "",
      "talkAudioName": "",
      "actionBefore": "",
      "actionWhile": "",
      "actionAfter": "",
      "optionIcon": "",
      "iconPath": ""
    },
    {
      "id": 40220954,
      "talkRole": {
        "type": "TALK_ROLE_PLAYER",
        "_id": ""
      },
      "talkAssetPath": "",
      "talkAssetPathAlter": "",
      "talkAudioName": "",
      "actionBefore": "",
      "actionWhile": "",
      "actionAfter": "",
      "optionIcon": "",
      "iconPath": ""
    },
    {
      "id": 40220960,
      "talkRole": {
        "type": "TALK_ROLE_PLAYER",
        "_id": ""
      },
      "talkAssetPath": "",
      "talkAssetPathAlter": "",
      "talkAudioName": "",
      "actionBefore": "",
      "actionWhile": "",
      "actionAfter": "",
      "optionIcon": "",
      "iconPath": ""
    },
    {
      "id": 40221201,
      "talkRole": {
        "type": "TALK_ROLE_NPC",
        "_id": "1005"
      },
      "talkContentTextMapHash": 1094768538,
      "talkAssetPath": "",
      "talkAssetPathAlter": "",
      "talkAudioName": "",
      "actionBefore": "",
      "actionWhile": "",
      "actionAfter": "",
      "optionIcon": "",
      "iconPath": ""
    },
    {
      "id": 40221401,
      "talkRole": {
        "type": "TALK_ROLE_NPC",
        "_id": "1005"
      },
      "talkContentTextMapHash": 1695023738,
      "talkAssetPath": "",
      "talkAssetPathAlter": "",
      "talkAudioName": "",
      "actionBefore": "",
      "actionWhile": "",
      "actionAfter": "",
      "optionIcon": "",
      "iconPath": ""
    }
  ],
  "DDHNEIEDLJA": true
}