{
  "id": 4023,
  "resId": 1023,
  "series": 4020,
  "titleTextMapHash": 3021282799,
  "descTextMapHash": 2462311726,
  "luaPath": "Actor/Quest/AQ4023",
  "suggestTrackMainQuestList": [
    4020
  ],
  "rewardIdList": [
    104023
  ],
  "chapterId": 1405,
  "subQuests": [
    {
      "subId": 402301,
      "mainId": 4023,
      "order": 1,
      "descTextMapHash": 4286854244,
      "finishCond": [
        {
          "KPGKDHAFHFE": "QUEST_CONTENT_GAME_TIME_TICK",
          "param": [
            1,
            0
          ]
        }
      ],
      "guide": {},
      "guideHint": {
        "param1": ""
      },
      "isRewind": true,
      "versionBegin": "",
      "versionEnd": ""
    },
    {
      "subId": 402302,
      "mainId": 4023,
      "order": 2,
      "descTextMapHash": 414848260,
      "GMKDJFPEFFF": [
        340826
      ],
      "finishCond": [
        {
          "KPGKDHAFHFE": "QUEST_CONTENT_COMPLETE_TALK",
          "param": [
            402302,
            0
          ]
        }
      ],
      "guide": {
        "KPGKDHAFHFE": "QUEST_GUIDE_LOCATION",
        "param": [
          "[3_340100311:4520.077,157.991,4561.173]"
        ],
        "guideScene": 3,
        "guideStyle": "QUEST_GUIDE_STYLE_POINT"
      },
      "guideHint": {
        "param1": ""
      },
      "isRewind": true,
      "versionBegin": "",
      "versionEnd": ""
    },
    {
      "subId": 402303,
      "mainId": 4023,
      "order": 4,
      "descTextMapHash": 1645512764,
      "GMKDJFPEFFF": [
        108601
      ],
      "finishCond": [
        {
          "KPGKDHAFHFE": "QUEST_CONTENT_FINISH_PLOT",
          "param": [
            402303,
            0
          ]
        }
      ],
      "guide": {
        "KPGKDHAFHFE": "QUEST_GUIDE_NPC",
        "param": [
          "1078"
        ],
        "guideScene": 1086,
        "guideStyle": "QUEST_GUIDE_STYLE_TARGET",
        "guideLayer": "QUEST_GUIDE_LAYER_SCENE"
      },
      "guideHint": {
        "param1": ""
      },
      "isRewind": true,
      "versionBegin": "",
      "versionEnd": ""
    },
    {
      "subId": 402304,
      "mainId": 4023,
      "order": 5,
      "descTextMapHash": 3733880724,
      "GMKDJFPEFFF": [
        108601
      ],
      "finishCond": [
        {
          "KPGKDHAFHFE": "QUEST_CONTENT_COMPLETE_TALK",
          "param": [
            402304,
            0
          ]
        }
      ],
      "guide": {
        "KPGKDHAFHFE": "QUEST_GUIDE_NPC",
        "param": [
          "1078"
        ],
        "guideScene": 1086,
        "guideStyle": "QUEST_GUIDE_STYLE_TARGET",
        "guideLayer": "QUEST_GUIDE_LAYER_SCENE"
      },
      "guideHint": {
        "param1": ""
      },
      "finishExec": [
        {
          "KPGKDHAFHFE": "QUEST_EXEC_ADD_SCENE_TAG",
          "param": [
            "3",
            "1346"
          ]
        }
      ],
      "versionBegin": "",
      "versionEnd": ""
    },
    {
      "subId": 402305,
      "mainId": 4023,
      "order": 6,
      "descTextMapHash": 2997486732,
      "GMKDJFPEFFF": [
        108303,
        108301,
        108601
      ],
      "finishCond": [
        {
          "KPGKDHAFHFE": "QUEST_CONTENT_FINISH_PLOT",
          "param": [
            402305,
            0
          ]
        }
      ],
      "guide": {
        "KPGKDHAFHFE": "QUEST_GUIDE_NPC",
        "param": [
          "1076"
        ],
        "guideScene": 1083,
        "guideStyle": "QUEST_GUIDE_STYLE_TARGET"
      },
      "guideHint": {
        "param1": ""
      },
      "isRewind": true,
      "versionBegin": "",
      "versionEnd": ""
    },
    {
      "subId": 402306,
      "mainId": 4023,
      "order": 7,
      "descTextMapHash": 457782140,
      "stepDescTextMapHash": 2240065597,
      "GMKDJFPEFFF": [
        108301,
        108303,
        108601
      ],
      "finishCond": [
        {
          "KPGKDHAFHFE": "QUEST_CONTENT_COMPLETE_TALK",
          "param": [
            402306,
            0
          ]
        }
      ],
      "guide": {
        "KPGKDHAFHFE": "QUEST_GUIDE_NPC",
        "param": [
          "1076"
        ],
        "guideScene": 1083,
        "guideStyle": "QUEST_GUIDE_STYLE_TARGET",
        "guideLayer": "QUEST_GUIDE_LAYER_SCENE"
      },
      "guideHint": {
        "param1": ""
      },
      "versionBegin": "",
      "versionEnd": ""
    },
    {
      "subId": 402307,
      "mainId": 4023,
      "order": 8,
      "descTextMapHash": 1034504772,
      "GMKDJFPEFFF": [
        340302,
        108301,
        108303
      ],
      "finishCond": [
        {
          "KPGKDHAFHFE": "QUEST_CONTENT_COMPLETE_TALK",
          "param": [
            402307,
            0
          ]
        }
      ],
      "guide": {
        "KPGKDHAFHFE": "QUEST_GUIDE_LOCATION",
        "param": [
          "[3_340300202:2708.435,405.132,4255.270]"
        ],
        "guideScene": 3,
        "guideStyle": "QUEST_GUIDE_STYLE_POINT"
      },
      "guideHint": {
        "param1": ""
      },
      "isRewind": true,
      "finishExec": [
        {
          "KPGKDHAFHFE": "QUEST_EXEC_REFRESH_GROUP_SUITE",
          "param": [
            "1083",
            "201083006,1"
          ]
        }
      ],
      "versionBegin": "",
      "versionEnd": ""
    },
    {
      "subId": 402308,
      "mainId": 4023,
      "order": 9,
      "descTextMapHash": 1080873196,
      "GMKDJFPEFFF": [
        340302,
        108301,
        108303
      ],
      "finishCond": [
        {
          "KPGKDHAFHFE": "QUEST_CONTENT_COMPLETE_TALK",
          "param": [
            402309,
            0
          ]
        }
      ],
      "guide": {
        "KPGKDHAFHFE": "QUEST_GUIDE_LOCATION",
        "param": [
          "[3_340300280:2733.959,387.335,4194.499]"
        ],
        "guideScene": 3,
        "guideStyle": "QUEST_GUIDE_STYLE_POINT",
        "guideLayer": "QUEST_GUIDE_LAYER_SCENE"
      },
      "guideHint": {
        "param1": ""
      },
      "isRewind": true,
      "versionBegin": "",
      "versionEnd": ""
    },
    {
      "subId": 402309,
      "mainId": 4023,
      "order": 11,
      "descTextMapHash": 1429922740,
      "GMKDJFPEFFF": [
        340308
      ],
      "finishCond": [
        {
          "KPGKDHAFHFE": "QUEST_CONTENT_FINISH_PLOT",
          "param": [
            402309,
            0
          ]
        }
      ],
      "guide": {
        "KPGKDHAFHFE": "QUEST_GUIDE_LOCATION",
        "param": [
          "[3_340300195:2640.334,462.164,4273.938,0.000,279.901,0.000]"
        ],
        "guideScene": 3,
        "guideStyle": "QUEST_GUIDE_STYLE_POINT"
      },
      "guideHint": {
        "param1": ""
      },
      "isRewind": true,
      "versionBegin": "",
      "versionEnd": ""
    },
    {
      "subId": 402310,
      "mainId": 4023,
      "order": 12,
      "descTextMapHash": 9937124,
      "GMKDJFPEFFF": [
        340308
      ],
      "finishCond": [
        {
          "KPGKDHAFHFE": "QUEST_CONTENT_COMPLETE_TALK",
          "param": [
            402310,
            0
          ]
        }
      ],
      "guide": {
        "KPGKDHAFHFE": "QUEST_GUIDE_NPC",
        "param": [
          "1075"
        ],
        "guideScene": 3,
        "guideStyle": "QUEST_GUIDE_STYLE_TARGET",
        "guideLayer": "QUEST_GUIDE_LAYER_SCENE"
      },
      "guideHint": {
        "param1": ""
      },
      "finishParent": true,
      "finishExec": [
        {
          "KPGKDHAFHFE": "QUEST_EXEC_UNREGISTER_DYNAMIC_GROUP",
          "param": [
            "133407028",
            "0"
          ]
        },
        {
          "KPGKDHAFHFE": "QUEST_EXEC_UNREGISTER_DYNAMIC_GROUP",
          "param": [
            "133403787",
            "0"
          ]
        }
      ],
      "versionBegin": "",
      "versionEnd": ""
    },
    {
      "subId": 402311,
      "mainId": 4023,
      "order": 3,
      "descTextMapHash": 2321256068,
      "finishCond": [
        {
          "KPGKDHAFHFE": "QUEST_CONTENT_COMPLETE_TALK",
          "param": [
            402303,
            0
          ]
        }
      ],
      "guide": {
        "KPGKDHAFHFE": "QUEST_GUIDE_NPC",
        "param": [
          "5202"
        ],
        "guideScene": 3,
        "guideStyle": "QUEST_GUIDE_STYLE_TARGET"
      },
      "guideHint": {
        "param1": ""
      },
      "isRewind": true,
      "finishExec": [
        {
          "KPGKDHAFHFE": "QUEST_EXEC_DEL_ALL_SPECIFIC_PACK_ITEM",
          "param": [
            "120489"
          ]
        }
      ],
      "versionBegin": "",
      "versionEnd": ""
    },
    {
      "subId": 402312,
      "mainId": 4023,
      "order": 10,
      "descTextMapHash": 2644208916,
      "GMKDJFPEFFF": [
        340305
      ],
      "finishCond": [
        {
          "KPGKDHAFHFE": "QUEST_CONTENT_COMPLETE_TALK",
          "param": [
            402308,
            0
          ]
        }
      ],
      "guide": {
        "KPGKDHAFHFE": "QUEST_GUIDE_LOCATION",
        "param": [
          "[3_340300194:2814.382,373.182,4182.042,0.000,139.739,0.000]",
          "20"
        ],
        "guideScene": 3,
        "guideStyle": "QUEST_GUIDE_STYLE_TARGET",
        "guideLayer": "QUEST_GUIDE_LAYER_SCENE"
      },
      "guideHint": {
        "param1": ""
      },
      "isRewind": true,
      "versionBegin": "",
      "versionEnd": ""
    }
  ],
  "talks": [
    {
      "id": 402302,
      "beginWay": "TALK_BEGIN_MANUAL",
      "beginCond": [
        {
          "type": "QUEST_COND_STATE_EQUAL",
          "_param": [
            "402302",
            "2"
          ]
        }
      ],
      "priority": 5,
      "initDialog": 40230201,
      "npcId": [
        1005
      ],
      "performCfg": "QuestDialogue/AQ/Fontaine_4023/Q402302",
      "heroTalk": "TALK_HERO_MAIN",
      "questId": 4023,
      "assetIndex": 14612987859886622674,
      "prePerformCfg": "",
      "PLPFOOINAAJ": [
        "[3_340100311:4520.077,157.991,4561.173]"
      ]
    },
    {
      "id": 402303,
      "beginWay": "TALK_BEGIN_MANUAL",
      "beginCond": [
        {
          "type": "QUEST_COND_STATE_EQUAL",
          "_param": [
            "402311",
            "2"
          ]
        }
      ],
      "priority": 5,
      "initDialog": 40230301,
      "npcId": [
        5202
      ],
      "performCfg": "QuestDialogue/AQ/Fontaine_4023/Q402303",
      "heroTalk": "TALK_HERO_MAIN",
      "questId": 4023,
      "assetIndex": 14377242005762766817,
      "prePerformCfg": "",
      "PLPFOOINAAJ": [
        "[3_340800338:4468.437,121.820,4558.240,0.000,246.534,0.000]",
        "[3_340800429:4465.286,121.820,4557.719,0.000,82.884,0.000]"
      ]
    },
    {
      "id": 402304,
      "beginWay": "TALK_BEGIN_MANUAL",
      "beginCond": [
        {
          "type": "QUEST_COND_STATE_EQUAL",
          "_param": [
            "402304",
            "2"
          ]
        }
      ],
      "priority": 5,
      "initDialog": 40230401,
      "npcId": [
        1078
      ],
      "performCfg": "QuestDialogue/AQ/Fontaine_4023/Q402304",
      "heroTalk": "TALK_HERO_MAIN",
      "questId": 4023,
      "assetIndex": 7134339766083285237,
      "prePerformCfg": "",
      "PLPFOOINAAJ": [
        "[1086_43:2.507,17.061,-0.063,0.000,272.917,0.000]",
        "[1086_67:-0.855,17.055,2.315,0.000,118.467,0.000]",
        "[1086_68:-0.244,17.071,5.509,0.000,118.578,0.000]"
      ]
    },
    {
      "id": 402306,
      "beginWay": "TALK_BEGIN_MANUAL",
      "beginCond": [
        {
          "type": "QUEST_COND_STATE_EQUAL",
          "_param": [
            "402306",
            "2"
          ]
        }
      ],
      "priority": 5,
      "initDialog": 40230601,
      "npcId": [
        1076,
        5087
      ],
      "performCfg": "QuestDialogue/AQ/Fontaine_4023/Q402306",
      "heroTalk": "TALK_HERO_MAIN",
      "questId": 4023,
      "assetIndex": 12077766099013911854,
      "prePerformCfg": "",
      "PLPFOOINAAJ": [
        "[1083_67:-48.110,0.352,-14.059,0.000,135.445,0.000]",
        "[1083_76:-43.625,0.352,-15.604,0.000,266.350,0.000]",
        "[1083_77:-2.940,0.011,-13.765,0.000,159.719,0.000]"
      ]
    },
    {
      "id": 402307,
      "beginWay": "TALK_BEGIN_MANUAL",
      "beginCond": [
        {
          "type": "QUEST_COND_STATE_EQUAL",
          "_param": [
            "402307",
            "2"
          ]
        }
      ],
      "priority": 5,
      "initDialog": 40230701,
      "npcId": [
        1005
      ],
      "performCfg": "QuestDialogue/AQ/Fontaine_4023/Q402307",
      "heroTalk": "TALK_HERO_MAIN",
      "questId": 4023,
      "assetIndex": 17632407315953704529,
      "prePerformCfg": "",
      "PLPFOOINAAJ": [
        "[3_340300202:2708.435,405.132,4255.270]"
      ]
    },
    {
      "id": 402308,
      "beginWay": "TALK_BEGIN_MANUAL",
      "beginCond": [
        {
          "type": "QUEST_COND_STATE_EQUAL",
          "_param": [
            "402312",
            "2"
          ]
        }
      ],
      "priority": 5,
      "initDialog": 40230801,
      "npcId": [
        1075
      ],
      "performCfg": "QuestDialogue/AQ/Fontaine_4023/Q402308",
      "heroTalk": "TALK_HERO_MAIN",
      "questId": 4023,
      "assetIndex": 13931270684047362229,
      "prePerformCfg": "",
      "lockGameTime": true,
      "PLPFOOINAAJ": [
        "[3_340300194:2814.382,373.182,4182.042,0.000,139.739,0.000]",
        "[3_340300307:2819.143,373.180,4178.789,0.000,257.246,0.000]"
      ]
    },
    {
      "id": 402309,
      "beginWay": "TALK_BEGIN_MANUAL",
      "beginCond": [
        {
          "type": "QUEST_COND_STATE_EQUAL",
          "_param": [
            "402308",
            "2"
          ]
        }
      ],
      "priority": 5,
      "initDialog": 40230901,
      "npcId": [
        13727
      ],
      "performCfg": "QuestDialogue/AQ/Fontaine_4023/Q402309",
      "heroTalk": "TALK_HERO_MAIN",
      "questId": 4023,
      "assetIndex": 10460927563250527169,
      "prePerformCfg": "",
      "PLPFOOINAAJ": [
        "[3_340300201:2736.763,395.871,4189.003,0.000,337.192,0.000]",
        "[3_340300306:2734.765,387.335,4195.686]"
      ]
    },
    {
      "id": 402310,
      "beginWay": "TALK_BEGIN_MANUAL",
      "beginCond": [
        {
          "type": "QUEST_COND_STATE_EQUAL",
          "_param": [
            "402310",
            "2"
          ]
        }
      ],
      "priority": 5,
      "initDialog": 40231001,
      "npcId": [
        1075
      ],
      "performCfg": "QuestDialogue/AQ/Fontaine_4023/Q402310",
      "heroTalk": "TALK_HERO_MAIN",
      "questId": 4023,
      "assetIndex": 15111017253547509485,
      "prePerformCfg": "",
      "lockGameTime": true,
      "PLPFOOINAAJ": [
        "[3_340300195:2640.334,462.164,4273.938,0.000,279.901,0.000]",
        "[3_340300308:2642.675,461.587,4271.876]"
      ]
    },
    {
      "id": 402312,
      "beginWay": "TALK_BEGIN_MANUAL",
      "beginCondComb": "LOGIC_OR",
      "beginCond": [
        {
          "type": "QUEST_COND_STATE_EQUAL",
          "_param": [
            "402305",
            "2"
          ]
        },
        {
          "type": "QUEST_COND_STATE_EQUAL",
          "_param": [
            "402306",
            "2"
          ]
        }
      ],
      "priority": 5,
      "initDialog": 40231201,
      "npcId": [
        1078,
        1079
      ],
      "performCfg": "QuestDialogue/AQ/Fontaine_4023/Q402312",
      "heroTalk": "TALK_HERO_MAIN",
      "questId": 4023,
      "assetIndex": 10663101418036288313,
      "prePerformCfg": ""
    },
    {
      "id": 402314,
      "beginWay": "TALK_BEGIN_MANUAL",
      "beginCondComb": "LOGIC_OR",
      "beginCond": [
        {
          "type": "QUEST_COND_STATE_EQUAL",
          "_param": [
            "402307",
            "2"
          ]
        },
        {
          "type": "QUEST_COND_STATE_EQUAL",
          "_param": [
            "402308",
            "2"
          ]
        }
      ],
      "priority": 5,
      "initDialog": 40231401,
      "npcId": [
        1076
      ],
      "performCfg": "QuestDialogue/AQ/Fontaine_4023/Q402314",
      "heroTalk": "TALK_HERO_MAIN",
      "questId": 4023,
      "assetIndex": 2256011736086609741,
      "prePerformCfg": ""
    },
    {
      "id": 402317,
      "beginWay": "TALK_BEGIN_MANUAL",
      "beginCond": [
        {
          "type": "QUEST_COND_STATE_EQUAL",
          "_param": [
            "402312",
            "2"
          ]
        }
      ],
      "priority": 5,
      "initDialog": 40231701,
      "npcId": [
        13727
      ],
      "performCfg": "QuestDialogue/AQ/Fontaine_4023/Q402317",
      "heroTalk": "TALK_HERO_MAIN",
      "questId": 4023,
      "assetIndex": 2730682012815165491,
      "prePerformCfg": ""
    },
    {
      "id": 402318,
      "beginWay": "TALK_BEGIN_MANUAL",
      "beginCond": [
        {
          "type": "QUEST_COND_STATE_EQUAL",
          "_param": [
            "402312",
            "2"
          ]
        }
      ],
      "priority": 5,
      "initDialog": 40230906,
      "npcId": [
        13728
      ],
      "performCfg": "QuestDialogue/AQ/Fontaine_4023/Q402318",
      "heroTalk": "TALK_HERO_MAIN",
      "questId": 4023,
      "assetIndex": 17999739039872536665,
      "prePerformCfg": ""
    },
    {
      "id": 402319,
      "beginWay": "TALK_BEGIN_MANUAL",
      "beginCond": [
        {
          "type": "QUEST_COND_STATE_EQUAL",
          "_param": [
            "402312",
            "2"
          ]
        }
      ],
      "priority": 5,
      "initDialog": 40230909,
      "npcId": [
        13729
      ],
      "performCfg": "QuestDialogue/AQ/Fontaine_4023/Q402319",
      "heroTalk": "TALK_HERO_MAIN",
      "questId": 4023,
      "assetIndex": 17519910364632936219,
      "prePerformCfg": ""
    }
  ],
  "preloadLuaList": [
    14457059026087496718,
    1656673438724048727,
    14425012045992744467,
    7426925543998955406,
    17581373442183574550,
    15118816676538842903,
    15068956811518353151
  ],
  "forcePreloadLuaList": [
    15841689495504873151
  ],
  "freeStyleDic": {
    "1078": [
      0
    ],
    "1079": [
      1130
    ],
    "1076": [
      1190
    ],
    "13727": [
      4120
    ],
    "1075": [
      1130
    ],
    "13728": [
      1240
    ],
    "13729": [
      4120
    ],
    "13731": [
      1280
    ]
  }
}