{
  "id": 41121,
  "KPGKDHAFHFE": "EQ",
  "titleTextMapHash": 439659487,
  "descTextMapHash": 1396646814,
  "luaPath": "Actor/Quest/EQ41121",
  "rewardIdList": [
    3001011
  ],
  "subQuests": [
    {
      "subId": 4112101,
      "mainId": 41121,
      "order": 2,
      "descTextMapHash": 1299084124,
      "finishCond": [
        {
          "KPGKDHAFHFE": "QUEST_CONTENT_FINISH_PLOT",
          "param": [
            4112101,
            0
          ]
        }
      ],
      "guide": {
        "KPGKDHAFHFE": "QUEST_GUIDE_NPC",
        "autoGuide": "QUEST_GUIDE_AUTO_ENABLE",
        "param": [
          "1419"
        ],
        "guideScene": 3,
        "guideStyle": "QUEST_GUIDE_STYLE_TARGET",
        "guideLayer": "QUEST_GUIDE_LAYER_UI"
      },
      "guideHint": {
        "param1": ""
      },
      "isRewind": true,
      "versionBegin": "",
      "versionEnd": ""
    },
    {
      "subId": 4112102,
      "mainId": 41121,
      "order": 3,
      "isMpBlock": true,
      "descTextMapHash": 3454919644,
      "stepDescTextMapHash": 2251268037,
      "banType": "BAN_GROUP_TRANSPOR_GOTO_SCENE",
      "finishCond": [
        {
          "KPGKDHAFHFE": "QUEST_CONTENT_COMPLETE_TALK",
          "param": [
            4112102,
            0
          ]
        }
      ],
      "failCond": [
        {
          "KPGKDHAFHFE": "QUEST_CONTENT_NOT_FINISH_PLOT",
          "param": [
            4112102,
            0
          ]
        },
        {
          "KPGKDHAFHFE": "QUEST_CONTENT_ITEM_LESS_THAN",
          "param": [
            100646,
            1
          ]
        },
        {
          "KPGKDHAFHFE": "QUEST_CONTENT_ACTIVITY_TRIGGER_FAILED",
          "param": [
            5006,
            0
          ]
        }
      ],
      "guide": {
        "KPGKDHAFHFE": "QUEST_GUIDE_NPC",
        "autoGuide": "QUEST_GUIDE_AUTO_ENABLE",
        "param": [
          "1593"
        ],
        "guideScene": 3,
        "guideStyle": "QUEST_GUIDE_STYLE_FINISH",
        "guideLayer": "QUEST_GUIDE_LAYER_UI"
      },
      "guideHint": {
        "param1": ""
      },
      "finishExec": [
        {
          "KPGKDHAFHFE": "QUEST_EXEC_DEL_PACK_ITEM",
          "param": [
            "100646",
            "1"
          ]
        },
        {
          "KPGKDHAFHFE": "QUEST_EXEC_UNREGISTER_DYNAMIC_GROUP",
          "param": [
            "133003770"
          ]
        }
      ],
      "failExec": [
        {
          "KPGKDHAFHFE": "QUEST_EXEC_DEL_PACK_ITEM",
          "param": [
            "100646",
            "1"
          ]
        },
        {
          "KPGKDHAFHFE": "QUEST_EXEC_ROLLBACK_QUEST",
          "param": [
            "4112101"
          ]
        },
        {
          "KPGKDHAFHFE": "QUEST_EXEC_UNREGISTER_DYNAMIC_GROUP",
          "param": [
            "133003770"
          ]
        }
      ],
      "versionBegin": "",
      "versionEnd": ""
    },
    {
      "subId": 4112103,
      "mainId": 41121,
      "order": 4,
      "descTextMapHash": 243326108,
      "finishCond": [
        {
          "KPGKDHAFHFE": "QUEST_CONTENT_COMPLETE_TALK",
          "param": [
            4112106,
            0
          ]
        }
      ],
      "guide": {
        "KPGKDHAFHFE": "QUEST_GUIDE_NPC",
        "autoGuide": "QUEST_GUIDE_AUTO_ENABLE",
        "param": [
          "156701"
        ],
        "guideScene": 3,
        "guideStyle": "QUEST_GUIDE_STYLE_FINISH",
        "guideLayer": "QUEST_GUIDE_LAYER_UI"
      },
      "guideHint": {
        "param1": ""
      },
      "finishParent": true,
      "isRewind": true,
      "versionBegin": "",
      "versionEnd": ""
    },
    {
      "subId": 4112104,
      "mainId": 41121,
      "order": 1,
      "showType": "QUEST_HIDDEN",
      "finishCond": [
        {
          "KPGKDHAFHFE": "QUEST_CONTENT_FINISH_PLOT",
          "param": [
            4112104,
            0
          ]
        }
      ],
      "guide": {},
      "guideHint": {
        "param1": ""
      },
      "versionBegin": "",
      "versionEnd": ""
    }
  ],
  "talks": [
    {
      "id": 4112101,
      "beginCond": [
        {
          "type": "QUEST_COND_STATE_EQUAL",
          "_param": [
            "4112101",
            "2"
          ]
        }
      ],
      "priority": 10,
      "initDialog": 411210101,
      "npcId": [
        1419
      ],
      "performCfg": "",
      "heroTalk": "TALK_HERO_MAIN",
      "questId": 41121,
      "assetIndex": 9074273379160249587,
      "prePerformCfg": ""
    },
    {
      "id": 4112102,
      "beginWay": "TALK_BEGIN_MANUAL",
      "beginCond": [
        {
          "type": "QUEST_COND_STATE_EQUAL",
          "_param": [
            "4112101",
            "3"
          ]
        }
      ],
      "priority": 10,
      "nextTalks": [
        4112106
      ],
      "initDialog": 411210201,
      "npcId": [
        1593
      ],
      "performCfg": "",
      "heroTalk": "TALK_HERO_MAIN",
      "questId": 41121,
      "assetIndex": 13403594089083171271,
      "prePerformCfg": ""
    },
    {
      "id": 4112103,
      "beginCond": [
        {
          "type": "QUEST_COND_STATE_EQUAL",
          "_param": [
            "4112101",
            "2"
          ]
        }
      ],
      "priority": 90,
      "nextTalks": [
        4112101,
        4112104
      ],
      "initDialog": 411210301,
      "npcId": [
        1419
      ],
      "performCfg": "",
      "heroTalk": "TALK_HERO_MAIN",
      "questId": 41121,
      "assetIndex": 9350228671180382336,
      "dontBlockDaily": true,
      "prePerformCfg": ""
    },
    {
      "id": 4112104,
      "beginCond": [
        {
          "type": "QUEST_COND_STATE_EQUAL",
          "_param": [
            "4112101",
            "2"
          ]
        }
      ],
      "priority": 10,
      "initDialog": 411210401,
      "npcId": [
        1419
      ],
      "performCfg": "",
      "heroTalk": "TALK_HERO_MAIN",
      "questId": 41121,
      "assetIndex": 7536750949982894390,
      "prePerformCfg": ""
    },
    {
      "id": 4112105,
      "beginWay": "TALK_BEGIN_MANUAL",
      "beginCond": [
        {
          "type": "QUEST_COND_STATE_EQUAL",
          "_param": [
            "4112101",
            "2"
          ]
        }
      ],
      "initDialog": 411210501,
      "npcId": [
        1593
      ],
      "performCfg": "",
      "heroTalk": "TALK_HERO_MAIN",
      "questId": 41121,
      "assetIndex": 15291358709084461243,
      "prePerformCfg": ""
    },
    {
      "id": 4112106,
      "activeMode": "PLAY_MODE_ALL",
      "beginCond": [
        {
          "type": "QUEST_COND_STATE_EQUAL",
          "_param": [
            "4112103",
            "2"
          ]
        }
      ],
      "initDialog": 411210601,
      "npcId": [
        1593
      ],
      "performCfg": "",
      "questId": 41121,
      "assetIndex": 4117893931243239312,
      "prePerformCfg": ""
    }
  ]
}