{
  "id": 41150,
  "KPGKDHAFHFE": "EQ",
  "titleTextMapHash": 81720207,
  "descTextMapHash": 455015638,
  "luaPath": "Actor/Quest/EQ41150",
  "rewardIdList": [
    3001042
  ],
  "subQuests": [
    {
      "subId": 4115001,
      "mainId": 41150,
      "order": 2,
      "descTextMapHash": 1284419164,
      "finishCond": [
        {
          "KPGKDHAFHFE": "QUEST_CONTENT_FINISH_PLOT",
          "param": [
            4115001,
            0
          ]
        }
      ],
      "guide": {
        "KPGKDHAFHFE": "QUEST_GUIDE_NPC",
        "autoGuide": "QUEST_GUIDE_AUTO_ENABLE",
        "param": [
          "2204"
        ],
        "guideScene": 3,
        "guideStyle": "QUEST_GUIDE_STYLE_TARGET",
        "guideLayer": "QUEST_GUIDE_LAYER_UI"
      },
      "guideHint": {
        "param1": ""
      },
      "isRewind": true,
      "versionBegin": "",
      "versionEnd": ""
    },
    {
      "subId": 4115002,
      "mainId": 41150,
      "order": 3,
      "isMpBlock": true,
      "descTextMapHash": 3973450820,
      "stepDescTextMapHash": 2450691573,
      "banType": "BAN_GROUP_TRANSPOR_GOTO_SCENE",
      "finishCond": [
        {
          "KPGKDHAFHFE": "QUEST_CONTENT_COMPLETE_TALK",
          "param": [
            4115002,
            0
          ]
        }
      ],
      "failCond": [
        {
          "KPGKDHAFHFE": "QUEST_CONTENT_NOT_FINISH_PLOT",
          "param": [
            4115002,
            0
          ]
        },
        {
          "KPGKDHAFHFE": "QUEST_CONTENT_ITEM_LESS_THAN",
          "param": [
            100656,
            1
          ]
        },
        {
          "KPGKDHAFHFE": "QUEST_CONTENT_ACTIVITY_TRIGGER_FAILED",
          "param": [
            5006,
            0
          ]
        }
      ],
      "guide": {
        "KPGKDHAFHFE": "QUEST_GUIDE_NPC",
        "autoGuide": "QUEST_GUIDE_AUTO_ENABLE",
        "param": [
          "30027"
        ],
        "guideScene": 3,
        "guideStyle": "QUEST_GUIDE_STYLE_FINISH",
        "guideLayer": "QUEST_GUIDE_LAYER_UI"
      },
      "guideHint": {
        "param1": ""
      },
      "finishExec": [
        {
          "KPGKDHAFHFE": "QUEST_EXEC_DEL_PACK_ITEM",
          "param": [
            "100656",
            "1"
          ]
        },
        {
          "KPGKDHAFHFE": "QUEST_EXEC_UNREGISTER_DYNAMIC_GROUP",
          "param": [
            "133104063"
          ]
        }
      ],
      "failExec": [
        {
          "KPGKDHAFHFE": "QUEST_EXEC_DEL_PACK_ITEM",
          "param": [
            "100656",
            "1"
          ]
        },
        {
          "KPGKDHAFHFE": "QUEST_EXEC_ROLLBACK_QUEST",
          "param": [
            "4115001"
          ]
        },
        {
          "KPGKDHAFHFE": "QUEST_EXEC_UNREGISTER_DYNAMIC_GROUP",
          "param": [
            "133104063"
          ]
        }
      ],
      "versionBegin": "",
      "versionEnd": ""
    },
    {
      "subId": 4115003,
      "mainId": 41150,
      "order": 4,
      "descTextMapHash": 3811198276,
      "finishCond": [
        {
          "KPGKDHAFHFE": "QUEST_CONTENT_COMPLETE_TALK",
          "param": [
            4115006,
            0
          ]
        }
      ],
      "guide": {
        "KPGKDHAFHFE": "QUEST_GUIDE_NPC",
        "autoGuide": "QUEST_GUIDE_AUTO_ENABLE",
        "param": [
          "30027"
        ],
        "guideScene": 3,
        "guideStyle": "QUEST_GUIDE_STYLE_FINISH",
        "guideLayer": "QUEST_GUIDE_LAYER_UI"
      },
      "guideHint": {
        "param1": ""
      },
      "finishParent": true,
      "isRewind": true,
      "versionBegin": "",
      "versionEnd": ""
    },
    {
      "subId": 4115004,
      "mainId": 41150,
      "order": 1,
      "showType": "QUEST_HIDDEN",
      "finishCond": [
        {
          "KPGKDHAFHFE": "QUEST_CONTENT_FINISH_PLOT",
          "param": [
            4115004,
            0
          ]
        }
      ],
      "guide": {},
      "guideHint": {
        "param1": ""
      },
      "versionBegin": "",
      "versionEnd": ""
    }
  ],
  "talks": [
    {
      "id": 4115001,
      "beginCond": [
        {
          "type": "QUEST_COND_STATE_EQUAL",
          "_param": [
            "4115001",
            "2"
          ]
        }
      ],
      "priority": 10,
      "initDialog": 411500101,
      "npcId": [
        2204
      ],
      "performCfg": "",
      "heroTalk": "TALK_HERO_MAIN",
      "questId": 41150,
      "assetIndex": 5659594648031793616,
      "dontBlockDaily": true,
      "prePerformCfg": ""
    },
    {
      "id": 4115002,
      "beginWay": "TALK_BEGIN_MANUAL",
      "beginCond": [
        {
          "type": "QUEST_COND_STATE_EQUAL",
          "_param": [
            "4115001",
            "3"
          ]
        }
      ],
      "priority": 10,
      "nextTalks": [
        4115006
      ],
      "initDialog": 411500201,
      "npcId": [
        30027
      ],
      "performCfg": "",
      "heroTalk": "TALK_HERO_MAIN",
      "questId": 41150,
      "assetIndex": 1680909104189696648,
      "prePerformCfg": ""
    },
    {
      "id": 4115003,
      "beginCond": [
        {
          "type": "QUEST_COND_STATE_EQUAL",
          "_param": [
            "4115001",
            "2"
          ]
        }
      ],
      "priority": 90,
      "nextTalks": [
        4115001,
        4115004
      ],
      "initDialog": 411500301,
      "npcId": [
        2204
      ],
      "performCfg": "",
      "heroTalk": "TALK_HERO_MAIN",
      "questId": 41150,
      "assetIndex": 6162870274270654860,
      "dontBlockDaily": true,
      "prePerformCfg": ""
    },
    {
      "id": 4115004,
      "beginCond": [
        {
          "type": "QUEST_COND_STATE_EQUAL",
          "_param": [
            "4115001",
            "2"
          ]
        }
      ],
      "priority": 10,
      "initDialog": 411500401,
      "npcId": [
        2204
      ],
      "performCfg": "",
      "heroTalk": "TALK_HERO_MAIN",
      "questId": 41150,
      "assetIndex": 10624403389943319592,
      "prePerformCfg": ""
    },
    {
      "id": 4115005,
      "beginWay": "TALK_BEGIN_MANUAL",
      "beginCond": [
        {
          "type": "QUEST_COND_STATE_EQUAL",
          "_param": [
            "4115001",
            "2"
          ]
        }
      ],
      "priority": 5,
      "initDialog": 411500501,
      "npcId": [
        30027
      ],
      "performCfg": "",
      "heroTalk": "TALK_HERO_MAIN",
      "questId": 41150,
      "assetIndex": 4083081615968173630,
      "prePerformCfg": ""
    },
    {
      "id": 4115006,
      "activeMode": "PLAY_MODE_ALL",
      "beginCond": [
        {
          "type": "QUEST_COND_STATE_EQUAL",
          "_param": [
            "4115003",
            "2"
          ]
        }
      ],
      "initDialog": 411500601,
      "npcId": [
        30027
      ],
      "performCfg": "",
      "questId": 41150,
      "assetIndex": 10635697838162921327,
      "prePerformCfg": ""
    }
  ]
}