{
  "id": 41154,
  "KPGKDHAFHFE": "EQ",
  "titleTextMapHash": 4122950647,
  "descTextMapHash": 209116934,
  "luaPath": "Actor/Quest/EQ41154",
  "rewardIdList": [
    3001053
  ],
  "subQuests": [
    {
      "subId": 4115401,
      "mainId": 41154,
      "order": 2,
      "descTextMapHash": 3945119460,
      "finishCond": [
        {
          "KPGKDHAFHFE": "QUEST_CONTENT_FINISH_PLOT",
          "param": [
            4115401,
            0
          ]
        }
      ],
      "guide": {
        "KPGKDHAFHFE": "QUEST_GUIDE_NPC",
        "autoGuide": "QUEST_GUIDE_AUTO_ENABLE",
        "param": [
          "2045"
        ],
        "guideScene": 3,
        "guideStyle": "QUEST_GUIDE_STYLE_TARGET",
        "guideLayer": "QUEST_GUIDE_LAYER_UI"
      },
      "guideHint": {
        "param1": ""
      },
      "isRewind": true,
      "versionBegin": "",
      "versionEnd": ""
    },
    {
      "subId": 4115402,
      "mainId": 41154,
      "order": 3,
      "isMpBlock": true,
      "descTextMapHash": 1388424852,
      "stepDescTextMapHash": 2490120325,
      "banType": "BAN_GROUP_TRANSPOR_GOTO_SCENE",
      "finishCond": [
        {
          "KPGKDHAFHFE": "QUEST_CONTENT_COMPLETE_TALK",
          "param": [
            4115402,
            0
          ]
        }
      ],
      "failCond": [
        {
          "KPGKDHAFHFE": "QUEST_CONTENT_NOT_FINISH_PLOT",
          "param": [
            4115402,
            0
          ]
        },
        {
          "KPGKDHAFHFE": "QUEST_CONTENT_ITEM_LESS_THAN",
          "param": [
            100660,
            1
          ]
        },
        {
          "KPGKDHAFHFE": "QUEST_CONTENT_ACTIVITY_TRIGGER_FAILED",
          "param": [
            5006,
            0
          ]
        }
      ],
      "guide": {
        "KPGKDHAFHFE": "QUEST_GUIDE_NPC",
        "autoGuide": "QUEST_GUIDE_AUTO_ENABLE",
        "param": [
          "30027"
        ],
        "guideScene": 3,
        "guideStyle": "QUEST_GUIDE_STYLE_FINISH",
        "guideLayer": "QUEST_GUIDE_LAYER_UI"
      },
      "guideHint": {
        "param1": ""
      },
      "finishExec": [
        {
          "KPGKDHAFHFE": "QUEST_EXEC_DEL_PACK_ITEM",
          "param": [
            "100660",
            "1"
          ]
        },
        {
          "KPGKDHAFHFE": "QUEST_EXEC_UNREGISTER_DYNAMIC_GROUP",
          "param": [
            "133103581"
          ]
        }
      ],
      "failExec": [
        {
          "KPGKDHAFHFE": "QUEST_EXEC_DEL_PACK_ITEM",
          "param": [
            "100660",
            "1"
          ]
        },
        {
          "KPGKDHAFHFE": "QUEST_EXEC_ROLLBACK_QUEST",
          "param": [
            "4115401"
          ]
        },
        {
          "KPGKDHAFHFE": "QUEST_EXEC_UNREGISTER_DYNAMIC_GROUP",
          "param": [
            "133103581"
          ]
        }
      ],
      "versionBegin": "",
      "versionEnd": ""
    },
    {
      "subId": 4115403,
      "mainId": 41154,
      "order": 4,
      "descTextMapHash": 3658988516,
      "finishCond": [
        {
          "KPGKDHAFHFE": "QUEST_CONTENT_COMPLETE_TALK",
          "param": [
            4115406,
            0
          ]
        }
      ],
      "guide": {
        "KPGKDHAFHFE": "QUEST_GUIDE_NPC",
        "autoGuide": "QUEST_GUIDE_AUTO_ENABLE",
        "param": [
          "30027"
        ],
        "guideScene": 3,
        "guideStyle": "QUEST_GUIDE_STYLE_FINISH",
        "guideLayer": "QUEST_GUIDE_LAYER_UI"
      },
      "guideHint": {
        "param1": ""
      },
      "finishParent": true,
      "isRewind": true,
      "versionBegin": "",
      "versionEnd": ""
    },
    {
      "subId": 4115404,
      "mainId": 41154,
      "order": 1,
      "showType": "QUEST_HIDDEN",
      "finishCond": [
        {
          "KPGKDHAFHFE": "QUEST_CONTENT_FINISH_PLOT",
          "param": [
            4115404,
            0
          ]
        }
      ],
      "guide": {},
      "guideHint": {
        "param1": ""
      },
      "versionBegin": "",
      "versionEnd": ""
    }
  ],
  "talks": [
    {
      "id": 4115401,
      "beginCond": [
        {
          "type": "QUEST_COND_STATE_EQUAL",
          "_param": [
            "4115401",
            "2"
          ]
        }
      ],
      "priority": 10,
      "initDialog": 411540101,
      "npcId": [
        2045
      ],
      "performCfg": "",
      "heroTalk": "TALK_HERO_MAIN",
      "questId": 41154,
      "assetIndex": 3317723879183791950,
      "dontBlockDaily": true,
      "prePerformCfg": ""
    },
    {
      "id": 4115402,
      "beginWay": "TALK_BEGIN_MANUAL",
      "beginCond": [
        {
          "type": "QUEST_COND_STATE_EQUAL",
          "_param": [
            "4115401",
            "3"
          ]
        }
      ],
      "priority": 10,
      "nextTalks": [
        4115406
      ],
      "initDialog": 411540201,
      "npcId": [
        30027
      ],
      "performCfg": "",
      "heroTalk": "TALK_HERO_MAIN",
      "questId": 41154,
      "assetIndex": 2033394596858379261,
      "prePerformCfg": ""
    },
    {
      "id": 4115403,
      "beginCond": [
        {
          "type": "QUEST_COND_STATE_EQUAL",
          "_param": [
            "4115401",
            "2"
          ]
        }
      ],
      "priority": 90,
      "nextTalks": [
        4115401,
        4115404
      ],
      "initDialog": 411540301,
      "npcId": [
        2045
      ],
      "performCfg": "",
      "heroTalk": "TALK_HERO_MAIN",
      "questId": 41154,
      "assetIndex": 3895067797574772646,
      "dontBlockDaily": true,
      "prePerformCfg": ""
    },
    {
      "id": 4115404,
      "beginCond": [
        {
          "type": "QUEST_COND_STATE_EQUAL",
          "_param": [
            "4115401",
            "2"
          ]
        }
      ],
      "priority": 10,
      "initDialog": 411540401,
      "npcId": [
        2045
      ],
      "performCfg": "",
      "heroTalk": "TALK_HERO_MAIN",
      "questId": 41154,
      "assetIndex": 8117049842587692021,
      "prePerformCfg": ""
    },
    {
      "id": 4115405,
      "beginWay": "TALK_BEGIN_MANUAL",
      "beginCond": [
        {
          "type": "QUEST_COND_STATE_EQUAL",
          "_param": [
            "4115401",
            "2"
          ]
        }
      ],
      "priority": 5,
      "initDialog": 411540501,
      "npcId": [
        30027
      ],
      "performCfg": "",
      "heroTalk": "TALK_HERO_MAIN",
      "questId": 41154,
      "assetIndex": 8972881247375823214,
      "prePerformCfg": ""
    },
    {
      "id": 4115406,
      "activeMode": "PLAY_MODE_ALL",
      "beginCond": [
        {
          "type": "QUEST_COND_STATE_EQUAL",
          "_param": [
            "4115403",
            "2"
          ]
        }
      ],
      "initDialog": 411540601,
      "npcId": [
        30027
      ],
      "performCfg": "",
      "questId": 41154,
      "assetIndex": 3037053145089179825,
      "prePerformCfg": ""
    }
  ]
}