{
  "id": 41155,
  "KPGKDHAFHFE": "EQ",
  "titleTextMapHash": 1153527447,
  "descTextMapHash": 3662208414,
  "luaPath": "Actor/Quest/EQ41155",
  "rewardIdList": [
    3001061
  ],
  "subQuests": [
    {
      "subId": 4115501,
      "mainId": 41155,
      "order": 2,
      "descTextMapHash": 1690628124,
      "finishCond": [
        {
          "KPGKDHAFHFE": "QUEST_CONTENT_FINISH_PLOT",
          "param": [
            4115501,
            0
          ]
        }
      ],
      "guide": {
        "KPGKDHAFHFE": "QUEST_GUIDE_NPC",
        "autoGuide": "QUEST_GUIDE_AUTO_ENABLE",
        "param": [
          "1419"
        ],
        "guideScene": 3,
        "guideStyle": "QUEST_GUIDE_STYLE_TARGET",
        "guideLayer": "QUEST_GUIDE_LAYER_UI"
      },
      "guideHint": {
        "param1": ""
      },
      "isRewind": true,
      "versionBegin": "",
      "versionEnd": ""
    },
    {
      "subId": 4115502,
      "mainId": 41155,
      "order": 3,
      "isMpBlock": true,
      "descTextMapHash": 3126366404,
      "stepDescTextMapHash": 2933034325,
      "banType": "BAN_GROUP_TRANSPOR_GOTO_SCENE",
      "finishCond": [
        {
          "KPGKDHAFHFE": "QUEST_CONTENT_COMPLETE_TALK",
          "param": [
            4115502,
            0
          ]
        }
      ],
      "failCond": [
        {
          "KPGKDHAFHFE": "QUEST_CONTENT_NOT_FINISH_PLOT",
          "param": [
            4115502,
            0
          ]
        },
        {
          "KPGKDHAFHFE": "QUEST_CONTENT_ITEM_LESS_THAN",
          "param": [
            100661,
            1
          ]
        },
        {
          "KPGKDHAFHFE": "QUEST_CONTENT_ACTIVITY_TRIGGER_FAILED",
          "param": [
            5006,
            0
          ]
        }
      ],
      "guide": {
        "KPGKDHAFHFE": "QUEST_GUIDE_NPC",
        "autoGuide": "QUEST_GUIDE_AUTO_ENABLE",
        "param": [
          "159301"
        ],
        "guideScene": 3,
        "guideStyle": "QUEST_GUIDE_STYLE_FINISH",
        "guideLayer": "QUEST_GUIDE_LAYER_UI"
      },
      "guideHint": {
        "param1": ""
      },
      "finishExec": [
        {
          "KPGKDHAFHFE": "QUEST_EXEC_DEL_PACK_ITEM",
          "param": [
            "100661",
            "1"
          ]
        },
        {
          "KPGKDHAFHFE": "QUEST_EXEC_UNREGISTER_DYNAMIC_GROUP",
          "param": [
            "133007266"
          ]
        },
        {
          "KPGKDHAFHFE": "QUEST_EXEC_UNREGISTER_DYNAMIC_GROUP",
          "param": [
            "133007267"
          ]
        }
      ],
      "failExec": [
        {
          "KPGKDHAFHFE": "QUEST_EXEC_DEL_PACK_ITEM",
          "param": [
            "100661",
            "1"
          ]
        },
        {
          "KPGKDHAFHFE": "QUEST_EXEC_ROLLBACK_QUEST",
          "param": [
            "4115501"
          ]
        },
        {
          "KPGKDHAFHFE": "QUEST_EXEC_UNREGISTER_DYNAMIC_GROUP",
          "param": [
            "133007266"
          ]
        },
        {
          "KPGKDHAFHFE": "QUEST_EXEC_UNREGISTER_DYNAMIC_GROUP",
          "param": [
            "133007267"
          ]
        }
      ],
      "versionBegin": "",
      "versionEnd": ""
    },
    {
      "subId": 4115503,
      "mainId": 41155,
      "order": 4,
      "descTextMapHash": 702109580,
      "finishCond": [
        {
          "KPGKDHAFHFE": "QUEST_CONTENT_COMPLETE_TALK",
          "param": [
            4115506,
            0
          ]
        }
      ],
      "guide": {
        "KPGKDHAFHFE": "QUEST_GUIDE_NPC",
        "autoGuide": "QUEST_GUIDE_AUTO_ENABLE",
        "param": [
          "159301"
        ],
        "guideScene": 3,
        "guideStyle": "QUEST_GUIDE_STYLE_FINISH",
        "guideLayer": "QUEST_GUIDE_LAYER_UI"
      },
      "guideHint": {
        "param1": ""
      },
      "finishParent": true,
      "isRewind": true,
      "versionBegin": "",
      "versionEnd": ""
    },
    {
      "subId": 4115504,
      "mainId": 41155,
      "order": 1,
      "showType": "QUEST_HIDDEN",
      "finishCond": [
        {
          "KPGKDHAFHFE": "QUEST_CONTENT_FINISH_PLOT",
          "param": [
            4115504,
            0
          ]
        }
      ],
      "guide": {},
      "guideHint": {
        "param1": ""
      },
      "versionBegin": "",
      "versionEnd": ""
    }
  ],
  "talks": [
    {
      "id": 4115501,
      "beginCond": [
        {
          "type": "QUEST_COND_STATE_EQUAL",
          "_param": [
            "4115501",
            "2"
          ]
        }
      ],
      "priority": 10,
      "initDialog": 411550101,
      "npcId": [
        1419
      ],
      "performCfg": "",
      "heroTalk": "TALK_HERO_MAIN",
      "questId": 41155,
      "assetIndex": 1824590369683432914,
      "dontBlockDaily": true,
      "prePerformCfg": ""
    },
    {
      "id": 4115502,
      "beginWay": "TALK_BEGIN_MANUAL",
      "beginCond": [
        {
          "type": "QUEST_COND_STATE_EQUAL",
          "_param": [
            "4115501",
            "3"
          ]
        }
      ],
      "priority": 10,
      "nextTalks": [
        4115506
      ],
      "initDialog": 411550201,
      "npcId": [
        159301
      ],
      "performCfg": "",
      "heroTalk": "TALK_HERO_MAIN",
      "questId": 41155,
      "assetIndex": 14601673247068301677,
      "prePerformCfg": ""
    },
    {
      "id": 4115503,
      "beginCond": [
        {
          "type": "QUEST_COND_STATE_EQUAL",
          "_param": [
            "4115501",
            "2"
          ]
        }
      ],
      "priority": 90,
      "nextTalks": [
        4115501,
        4115504
      ],
      "initDialog": 411550301,
      "npcId": [
        1419
      ],
      "performCfg": "",
      "heroTalk": "TALK_HERO_MAIN",
      "questId": 41155,
      "assetIndex": 8210660922970576692,
      "dontBlockDaily": true,
      "prePerformCfg": ""
    },
    {
      "id": 4115504,
      "beginCond": [
        {
          "type": "QUEST_COND_STATE_EQUAL",
          "_param": [
            "4115501",
            "2"
          ]
        }
      ],
      "priority": 10,
      "initDialog": 411550401,
      "npcId": [
        1419
      ],
      "performCfg": "",
      "heroTalk": "TALK_HERO_MAIN",
      "questId": 41155,
      "assetIndex": 8580044375138164980,
      "prePerformCfg": ""
    },
    {
      "id": 4115505,
      "beginWay": "TALK_BEGIN_MANUAL",
      "beginCond": [
        {
          "type": "QUEST_COND_STATE_EQUAL",
          "_param": [
            "4115501",
            "2"
          ]
        }
      ],
      "priority": 5,
      "initDialog": 411550501,
      "npcId": [
        159301
      ],
      "performCfg": "",
      "heroTalk": "TALK_HERO_MAIN",
      "questId": 41155,
      "assetIndex": 7968261013646346713,
      "prePerformCfg": ""
    },
    {
      "id": 4115506,
      "activeMode": "PLAY_MODE_ALL",
      "beginCond": [
        {
          "type": "QUEST_COND_STATE_EQUAL",
          "_param": [
            "4115503",
            "2"
          ]
        }
      ],
      "initDialog": 411550601,
      "npcId": [
        159301
      ],
      "performCfg": "",
      "questId": 41155,
      "assetIndex": 17560919252936134931,
      "prePerformCfg": ""
    }
  ]
}