{
  "id": 466,
  "resId": 2002,
  "series": 2002,
  "KPGKDHAFHFE": "LQ",
  "titleTextMapHash": 1620948153,
  "descTextMapHash": 3190644391,
  "luaPath": "Actor/Quest/LQ466",
  "rewardIdList": [
    100466
  ],
  "chapterId": 2002,
  "subQuests": [
    {
      "subId": 46601,
      "mainId": 466,
      "order": 1,
      "descTextMapHash": 2865188119,
      "GMKDJFPEFFF": [
        101801
      ],
      "finishCond": [
        {
          "KPGKDHAFHFE": "QUEST_CONTENT_ENTER_ROOM",
          "param": [
            1018,
            0
          ]
        }
      ],
      "guide": {
        "KPGKDHAFHFE": "QUEST_GUIDE_LOCATION",
        "param": [
          "Q465DilucTemp1"
        ],
        "guideScene": 3
      },
      "guideHint": {
        "param1": ""
      },
      "versionBegin": "",
      "versionEnd": ""
    },
    {
      "subId": 46602,
      "mainId": 466,
      "order": 2,
      "descTextMapHash": 3954215311,
      "GMKDJFPEFFF": [
        101801
      ],
      "finishCond": [
        {
          "KPGKDHAFHFE": "QUEST_CONTENT_COMPLETE_TALK",
          "param": [
            46601,
            0
          ]
        }
      ],
      "guide": {
        "KPGKDHAFHFE": "QUEST_GUIDE_NPC",
        "param": [
          "1009"
        ],
        "guideScene": 1018,
        "guideStyle": "QUEST_GUIDE_STYLE_TARGET",
        "guideLayer": "QUEST_GUIDE_LAYER_SCENE"
      },
      "guideHint": {
        "param1": ""
      },
      "isRewind": true,
      "versionBegin": "",
      "versionEnd": ""
    },
    {
      "subId": 46603,
      "mainId": 466,
      "order": 3,
      "descTextMapHash": 2042266431,
      "GMKDJFPEFFF": [
        301,
        101801
      ],
      "finishCond": [
        {
          "KPGKDHAFHFE": "QUEST_CONTENT_ENTER_MY_WORLD",
          "param": [
            3,
            0
          ]
        },
        {
          "KPGKDHAFHFE": "QUEST_CONTENT_TRIGGER_FIRE",
          "param": [
            1080,
            0
          ]
        }
      ],
      "guide": {
        "KPGKDHAFHFE": "QUEST_GUIDE_LOCATION",
        "param": [
          "Q466LeaveChateau"
        ],
        "guideScene": 1018
      },
      "guideHint": {
        "param1": ""
      },
      "finishExec": [
        {
          "KPGKDHAFHFE": "QUEST_EXEC_REFRESH_GROUP_SUITE",
          "param": [
            "3",
            "133002233,1"
          ]
        }
      ],
      "versionBegin": "",
      "versionEnd": ""
    },
    {
      "subId": 46604,
      "mainId": 466,
      "order": 6,
      "descTextMapHash": 1629919871,
      "finishCond": [
        {
          "KPGKDHAFHFE": "QUEST_CONTENT_INTERACT_GADGET",
          "param": [
            70300052,
            0
          ],
          "count": 1
        }
      ],
      "guide": {
        "KPGKDHAFHFE": "QUEST_GUIDE_LOCATION",
        "param": [
          "Q466LureGuide1"
        ],
        "guideScene": 3,
        "guideStyle": "QUEST_GUIDE_STYLE_TARGET",
        "guideLayer": "QUEST_GUIDE_LAYER_UI"
      },
      "guideHint": {
        "param1": ""
      },
      "isRewind": true,
      "versionBegin": "",
      "versionEnd": ""
    },
    {
      "subId": 46605,
      "mainId": 466,
      "order": 7,
      "descTextMapHash": 1048923095,
      "finishCond": [
        {
          "KPGKDHAFHFE": "QUEST_CONTENT_COMPLETE_TALK",
          "param": [
            46602,
            0
          ]
        }
      ],
      "guide": {
        "KPGKDHAFHFE": "QUEST_GUIDE_NPC",
        "param": [
          "1009"
        ],
        "guideScene": 3,
        "guideStyle": "QUEST_GUIDE_STYLE_TARGET",
        "guideLayer": "QUEST_GUIDE_LAYER_SCENE"
      },
      "guideHint": {
        "param1": ""
      },
      "isRewind": true,
      "finishExec": [
        {
          "KPGKDHAFHFE": "QUEST_EXEC_REFRESH_GROUP_SUITE",
          "param": [
            "3",
            "133002035,2;133002227,2"
          ]
        }
      ],
      "versionBegin": "",
      "versionEnd": ""
    },
    {
      "subId": 46606,
      "mainId": 466,
      "order": 8,
      "descTextMapHash": 2959734855,
      "finishCond": [
        {
          "KPGKDHAFHFE": "QUEST_CONTENT_LUA_NOTIFY",
          "param": [
            0,
            0
          ],
          "count": 1
        }
      ],
      "failCond": [
        {
          "KPGKDHAFHFE": "QUEST_CONTENT_LUA_NOTIFY",
          "param": [
            0,
            0
          ],
          "count": 1
        }
      ],
      "guide": {
        "KPGKDHAFHFE": "QUEST_GUIDE_LOCATION",
        "param": [
          "Q466Protect",
          "25"
        ],
        "guideScene": 3
      },
      "showGuide": "QUEST_GUIDE_ITEM_DISABLE",
      "guideHint": {
        "param1": ""
      },
      "finishExec": [
        {
          "KPGKDHAFHFE": "QUEST_EXEC_REFRESH_GROUP_SUITE",
          "param": [
            "3",
            "133002035,1"
          ]
        },
        {
          "KPGKDHAFHFE": "QUEST_EXEC_REFRESH_GROUP_SUITE",
          "param": [
            "3",
            "133002227,1"
          ]
        }
      ],
      "failExec": [
        {
          "KPGKDHAFHFE": "QUEST_EXEC_ROLLBACK_QUEST",
          "param": [
            "46604"
          ]
        },
        {
          "KPGKDHAFHFE": "QUEST_EXEC_REFRESH_GROUP_SUITE",
          "param": [
            "3",
            "133002035,1;133002227,1"
          ]
        }
      ],
      "versionBegin": "",
      "versionEnd": ""
    },
    {
      "subId": 46607,
      "mainId": 466,
      "order": 9,
      "descTextMapHash": 1640506247,
      "finishCond": [
        {
          "KPGKDHAFHFE": "QUEST_CONTENT_COMPLETE_TALK",
          "param": [
            46603,
            0
          ]
        }
      ],
      "guide": {
        "KPGKDHAFHFE": "QUEST_GUIDE_NPC",
        "param": [
          "1009"
        ],
        "guideScene": 3,
        "guideStyle": "QUEST_GUIDE_STYLE_TARGET",
        "guideLayer": "QUEST_GUIDE_LAYER_SCENE"
      },
      "guideHint": {
        "param1": ""
      },
      "isRewind": true,
      "versionBegin": "",
      "versionEnd": ""
    },
    {
      "subId": 46608,
      "mainId": 466,
      "order": 10,
      "descTextMapHash": 1718837183,
      "GMKDJFPEFFF": [
        1009,
        300406
      ],
      "finishCond": [
        {
          "KPGKDHAFHFE": "QUEST_CONTENT_ENTER_ROOM",
          "param": [
            1009,
            0
          ]
        }
      ],
      "guide": {
        "KPGKDHAFHFE": "QUEST_GUIDE_LOCATION",
        "param": [
          "QuestBarEnter"
        ],
        "guideScene": 3
      },
      "guideHint": {
        "param1": ""
      },
      "isRewind": true,
      "versionBegin": "",
      "versionEnd": ""
    },
    {
      "subId": 46609,
      "mainId": 466,
      "order": 11,
      "descTextMapHash": 2856577751,
      "GMKDJFPEFFF": [
        1009,
        300406
      ],
      "finishCond": [
        {
          "KPGKDHAFHFE": "QUEST_CONTENT_GAME_TIME_TICK",
          "param": [
            0,
            0
          ]
        }
      ],
      "failCond": [
        {
          "KPGKDHAFHFE": "QUEST_CONTENT_NOT_FINISH_PLOT",
          "param": [
            46609,
            0
          ]
        },
        {
          "KPGKDHAFHFE": "QUEST_CONTENT_ENTER_MY_WORLD",
          "param": [
            3,
            0
          ]
        }
      ],
      "guide": {},
      "guideHint": {
        "param1": ""
      },
      "finishExec": [
        {
          "KPGKDHAFHFE": "QUEST_EXEC_SET_IS_GAME_TIME_LOCKED",
          "param": [
            "1"
          ]
        }
      ],
      "failExec": [
        {
          "KPGKDHAFHFE": "QUEST_EXEC_ROLLBACK_QUEST",
          "param": [
            "46608"
          ]
        }
      ],
      "versionBegin": "",
      "versionEnd": ""
    },
    {
      "subId": 46610,
      "mainId": 466,
      "order": 12,
      "isMpBlock": true,
      "descTextMapHash": 1417136215,
      "GMKDJFPEFFF": [
        1009,
        300406
      ],
      "finishCond": [
        {
          "KPGKDHAFHFE": "QUEST_CONTENT_COMPLETE_TALK",
          "param": [
            46604,
            0
          ]
        }
      ],
      "failCond": [
        {
          "KPGKDHAFHFE": "QUEST_CONTENT_NOT_FINISH_PLOT",
          "param": [
            46610,
            0
          ]
        },
        {
          "KPGKDHAFHFE": "QUEST_CONTENT_ENTER_MY_WORLD",
          "param": [
            3,
            0
          ]
        }
      ],
      "guide": {
        "KPGKDHAFHFE": "QUEST_GUIDE_NPC",
        "param": [
          "1009"
        ],
        "guideScene": 1009,
        "guideStyle": "QUEST_GUIDE_STYLE_TARGET",
        "guideLayer": "QUEST_GUIDE_LAYER_SCENE"
      },
      "guideHint": {
        "param1": ""
      },
      "isRewind": true,
      "failExec": [
        {
          "KPGKDHAFHFE": "QUEST_EXEC_ROLLBACK_QUEST",
          "param": [
            "46608"
          ]
        }
      ],
      "versionBegin": "",
      "versionEnd": ""
    },
    {
      "subId": 46611,
      "mainId": 466,
      "order": 14,
      "isMpBlock": true,
      "descTextMapHash": 298668135,
      "GMKDJFPEFFF": [
        1009,
        300406
      ],
      "banType": "BAN_GROUP_TRANSPORT_ONLY",
      "finishCond": [
        {
          "KPGKDHAFHFE": "QUEST_CONTENT_INTERACT_GADGET",
          "param": [
            70300052,
            0
          ],
          "count": 1
        }
      ],
      "failCond": [
        {
          "KPGKDHAFHFE": "QUEST_CONTENT_NOT_FINISH_PLOT",
          "param": [
            46611,
            0
          ]
        }
      ],
      "guide": {
        "KPGKDHAFHFE": "QUEST_GUIDE_LOCATION",
        "param": [
          "Q466LureGuide2"
        ],
        "guideScene": 3,
        "guideStyle": "QUEST_GUIDE_STYLE_TARGET",
        "guideLayer": "QUEST_GUIDE_LAYER_UI"
      },
      "guideHint": {
        "param1": ""
      },
      "finishExec": [
        {
          "KPGKDHAFHFE": "QUEST_EXEC_DEL_PACK_ITEM",
          "param": [
            "100177",
            "1"
          ]
        }
      ],
      "failExec": [
        {
          "KPGKDHAFHFE": "QUEST_EXEC_ROLLBACK_QUEST",
          "param": [
            "46608"
          ]
        }
      ],
      "versionBegin": "",
      "versionEnd": ""
    },
    {
      "subId": 46612,
      "mainId": 466,
      "order": 16,
      "isMpBlock": true,
      "descTextMapHash": 2126748183,
      "showType": "QUEST_HIDDEN",
      "GMKDJFPEFFF": [
        1009,
        300406
      ],
      "finishCond": [
        {
          "KPGKDHAFHFE": "QUEST_CONTENT_ENTER_ROOM",
          "param": [
            1009,
            0
          ]
        }
      ],
      "failCond": [
        {
          "KPGKDHAFHFE": "QUEST_CONTENT_NOT_FINISH_PLOT",
          "param": [
            46612,
            0
          ]
        }
      ],
      "guide": {
        "KPGKDHAFHFE": "QUEST_GUIDE_LOCATION",
        "param": [
          "QuestBarEnter"
        ],
        "guideScene": 3
      },
      "showGuide": "QUEST_GUIDE_ITEM_DISABLE",
      "guideHint": {
        "param1": ""
      },
      "failExec": [
        {
          "KPGKDHAFHFE": "QUEST_EXEC_ROLLBACK_QUEST",
          "param": [
            "46608"
          ]
        }
      ],
      "versionBegin": "",
      "versionEnd": ""
    },
    {
      "subId": 46613,
      "mainId": 466,
      "order": 18,
      "isMpBlock": true,
      "descTextMapHash": 554762383,
      "GMKDJFPEFFF": [
        1009,
        300406
      ],
      "banType": "BAN_GROUP_TRANSPORT_MAP",
      "finishCond": [
        {
          "KPGKDHAFHFE": "QUEST_CONTENT_COMPLETE_TALK",
          "param": [
            46605,
            0
          ]
        }
      ],
      "failCond": [
        {
          "KPGKDHAFHFE": "QUEST_CONTENT_NOT_FINISH_PLOT",
          "param": [
            46613,
            0
          ]
        },
        {
          "KPGKDHAFHFE": "QUEST_CONTENT_ENTER_MY_WORLD",
          "param": [
            3,
            0
          ]
        }
      ],
      "guide": {
        "KPGKDHAFHFE": "QUEST_GUIDE_NPC",
        "param": [
          "1009"
        ],
        "guideScene": 1009,
        "guideStyle": "QUEST_GUIDE_STYLE_TARGET",
        "guideLayer": "QUEST_GUIDE_LAYER_SCENE"
      },
      "guideHint": {
        "param1": ""
      },
      "isRewind": true,
      "failExec": [
        {
          "KPGKDHAFHFE": "QUEST_EXEC_ROLLBACK_QUEST",
          "param": [
            "46608"
          ]
        }
      ],
      "versionBegin": "",
      "versionEnd": ""
    },
    {
      "subId": 46614,
      "mainId": 466,
      "order": 19,
      "isMpBlock": true,
      "descTextMapHash": 3550338487,
      "GMKDJFPEFFF": [
        1009,
        300406
      ],
      "banType": "BAN_GROUP_TRANSPORT_MAP",
      "finishCond": [
        {
          "KPGKDHAFHFE": "QUEST_CONTENT_TRIGGER_FIRE",
          "param": [
            1081,
            0
          ]
        }
      ],
      "failCond": [
        {
          "KPGKDHAFHFE": "QUEST_CONTENT_NOT_FINISH_PLOT",
          "param": [
            46614,
            0
          ]
        }
      ],
      "guide": {
        "KPGKDHAFHFE": "QUEST_GUIDE_LOCATION",
        "param": [
          "Q354Gate"
        ],
        "guideScene": 3,
        "guideStyle": "QUEST_GUIDE_STYLE_POINT"
      },
      "guideHint": {
        "param1": ""
      },
      "isRewind": true,
      "failExec": [
        {
          "KPGKDHAFHFE": "QUEST_EXEC_ROLLBACK_QUEST",
          "param": [
            "46608"
          ]
        }
      ],
      "versionBegin": "",
      "versionEnd": ""
    },
    {
      "subId": 46615,
      "mainId": 466,
      "order": 21,
      "isMpBlock": true,
      "descTextMapHash": 24884159,
      "GMKDJFPEFFF": [
        1009,
        300406
      ],
      "banType": "BAN_GROUP_TRANSPORT_ONLY",
      "finishCond": [
        {
          "KPGKDHAFHFE": "QUEST_CONTENT_LUA_NOTIFY",
          "param": [
            0,
            0
          ],
          "count": 13
        }
      ],
      "failCond": [
        {
          "KPGKDHAFHFE": "QUEST_CONTENT_NOT_FINISH_PLOT",
          "param": [
            46615,
            0
          ]
        },
        {
          "KPGKDHAFHFE": "QUEST_CONTENT_LEAVE_SCENE_RANGE",
          "param": [
            3,
            185
          ]
        }
      ],
      "guide": {
        "KPGKDHAFHFE": "QUEST_GUIDE_LOCATION",
        "param": [
          "Q466Monster4"
        ],
        "guideScene": 3
      },
      "showGuide": "QUEST_GUIDE_ITEM_DISABLE",
      "guideHint": {
        "param1": ""
      },
      "failExec": [
        {
          "KPGKDHAFHFE": "QUEST_EXEC_ROLLBACK_QUEST",
          "param": [
            "46608"
          ]
        }
      ],
      "versionBegin": "",
      "versionEnd": ""
    },
    {
      "subId": 46616,
      "mainId": 466,
      "order": 23,
      "isMpBlock": true,
      "descTextMapHash": 3008945863,
      "GMKDJFPEFFF": [
        1009,
        300406
      ],
      "banType": "BAN_GROUP_TRANSPORT_ONLY",
      "finishCond": [
        {
          "KPGKDHAFHFE": "QUEST_CONTENT_COMPLETE_TALK",
          "param": [
            46606,
            0
          ]
        }
      ],
      "failCond": [
        {
          "KPGKDHAFHFE": "QUEST_CONTENT_NOT_FINISH_PLOT",
          "param": [
            46616,
            0
          ]
        }
      ],
      "guide": {
        "KPGKDHAFHFE": "QUEST_GUIDE_NPC",
        "param": [
          "1009"
        ],
        "guideScene": 3,
        "guideStyle": "QUEST_GUIDE_STYLE_TARGET",
        "guideLayer": "QUEST_GUIDE_LAYER_SCENE"
      },
      "guideHint": {
        "param1": ""
      },
      "isRewind": true,
      "failExec": [
        {
          "KPGKDHAFHFE": "QUEST_EXEC_ROLLBACK_QUEST",
          "param": [
            "46608"
          ]
        }
      ],
      "versionBegin": "",
      "versionEnd": ""
    },
    {
      "subId": 46617,
      "mainId": 466,
      "order": 24,
      "isMpBlock": true,
      "descTextMapHash": 4161986711,
      "GMKDJFPEFFF": [
        1009,
        300406
      ],
      "banType": "BAN_GROUP_TRANSPORT_MAP",
      "finishCond": [
        {
          "KPGKDHAFHFE": "QUEST_CONTENT_ENTER_ROOM",
          "param": [
            1009,
            0
          ]
        }
      ],
      "failCond": [
        {
          "KPGKDHAFHFE": "QUEST_CONTENT_NOT_FINISH_PLOT",
          "param": [
            46617,
            0
          ]
        }
      ],
      "guide": {
        "KPGKDHAFHFE": "QUEST_GUIDE_LOCATION",
        "param": [
          "QuestBarEnter"
        ],
        "guideScene": 3
      },
      "guideHint": {
        "param1": ""
      },
      "isRewind": true,
      "failExec": [
        {
          "KPGKDHAFHFE": "QUEST_EXEC_ROLLBACK_QUEST",
          "param": [
            "46608"
          ]
        }
      ],
      "versionBegin": "",
      "versionEnd": ""
    },
    {
      "subId": 46618,
      "mainId": 466,
      "order": 25,
      "isMpBlock": true,
      "descTextMapHash": 2085478303,
      "GMKDJFPEFFF": [
        1009,
        300406
      ],
      "finishCond": [
        {
          "KPGKDHAFHFE": "QUEST_CONTENT_COMPLETE_TALK",
          "param": [
            46607,
            0
          ]
        }
      ],
      "failCond": [
        {
          "KPGKDHAFHFE": "QUEST_CONTENT_NOT_FINISH_PLOT",
          "param": [
            46618,
            0
          ]
        },
        {
          "KPGKDHAFHFE": "QUEST_CONTENT_ENTER_MY_WORLD",
          "param": [
            3,
            0
          ]
        }
      ],
      "guide": {
        "KPGKDHAFHFE": "QUEST_GUIDE_NPC",
        "param": [
          "1009"
        ],
        "guideScene": 1009,
        "guideStyle": "QUEST_GUIDE_STYLE_FINISH",
        "guideLayer": "QUEST_GUIDE_LAYER_SCENE"
      },
      "guideHint": {
        "param1": ""
      },
      "finishParent": true,
      "isRewind": true,
      "finishExec": [
        {
          "KPGKDHAFHFE": "QUEST_EXEC_SET_IS_GAME_TIME_LOCKED",
          "param": [
            "0"
          ]
        },
        {
          "KPGKDHAFHFE": "QUEST_EXEC_SET_QUEST_GLOBAL_VAR",
          "param": [
            "20001",
            "1"
          ]
        }
      ],
      "failExec": [
        {
          "KPGKDHAFHFE": "QUEST_EXEC_ROLLBACK_QUEST",
          "param": [
            "46608"
          ]
        }
      ],
      "versionBegin": "",
      "versionEnd": ""
    },
    {
      "subId": 46619,
      "mainId": 466,
      "order": 15,
      "descTextMapHash": 2846196807,
      "showType": "QUEST_HIDDEN",
      "finishCond": [
        {
          "KPGKDHAFHFE": "QUEST_CONTENT_FINISH_PLOT",
          "param": [
            0,
            0
          ]
        }
      ],
      "guide": {},
      "guideHint": {
        "param1": ""
      },
      "finishExec": [
        {
          "KPGKDHAFHFE": "QUEST_EXEC_ROLLBACK_QUEST",
          "param": [
            "46610"
          ]
        }
      ],
      "versionBegin": "",
      "versionEnd": ""
    },
    {
      "subId": 46620,
      "mainId": 466,
      "order": 13,
      "isMpBlock": true,
      "descTextMapHash": 3060649191,
      "GMKDJFPEFFF": [
        1009,
        300406
      ],
      "banType": "BAN_GROUP_TRANSPORT_MAP",
      "finishCond": [
        {
          "KPGKDHAFHFE": "QUEST_CONTENT_ENTER_MY_WORLD",
          "param": [
            3,
            0
          ]
        }
      ],
      "failCond": [
        {
          "KPGKDHAFHFE": "QUEST_CONTENT_NOT_FINISH_PLOT",
          "param": [
            46620,
            0
          ]
        }
      ],
      "guide": {
        "KPGKDHAFHFE": "QUEST_GUIDE_LOCATION",
        "param": [
          "Q466Lure2"
        ],
        "guideScene": 3
      },
      "guideHint": {
        "param1": ""
      },
      "failExec": [
        {
          "KPGKDHAFHFE": "QUEST_EXEC_ROLLBACK_QUEST",
          "param": [
            "46608"
          ]
        }
      ],
      "versionBegin": "",
      "versionEnd": ""
    },
    {
      "subId": 46621,
      "mainId": 466,
      "order": 4,
      "subIdSet": 1,
      "descTextMapHash": 2486774663,
      "finishCond": [
        {
          "KPGKDHAFHFE": "QUEST_CONTENT_OBTAIN_ITEM",
          "param": [
            100052,
            0
          ],
          "count": 4
        }
      ],
      "guide": {},
      "guideHint": {
        "param1": ""
      },
      "isRewind": true,
      "versionBegin": "",
      "versionEnd": ""
    },
    {
      "subId": 46622,
      "mainId": 466,
      "order": 5,
      "descTextMapHash": 3751942399,
      "finishCond": [
        {
          "KPGKDHAFHFE": "QUEST_CONTENT_COMPLETE_TALK",
          "param": [
            46609,
            0
          ]
        }
      ],
      "guide": {
        "KPGKDHAFHFE": "QUEST_GUIDE_NPC",
        "param": [
          "1009"
        ],
        "guideScene": 3,
        "guideStyle": "QUEST_GUIDE_STYLE_TARGET",
        "guideLayer": "QUEST_GUIDE_LAYER_SCENE"
      },
      "guideHint": {
        "param1": ""
      },
      "isRewind": true,
      "finishExec": [
        {
          "KPGKDHAFHFE": "QUEST_EXEC_DEL_PACK_ITEM",
          "param": [
            "100052",
            "4"
          ]
        }
      ],
      "versionBegin": "",
      "versionEnd": ""
    },
    {
      "subId": 46623,
      "mainId": 466,
      "order": 20,
      "isMpBlock": true,
      "descTextMapHash": 4249390567,
      "showType": "QUEST_HIDDEN",
      "GMKDJFPEFFF": [
        1009,
        300406
      ],
      "banType": "BAN_GROUP_TRANSPORT_ONLY",
      "finishCond": [
        {
          "KPGKDHAFHFE": "QUEST_CONTENT_FINISH_PLOT",
          "param": [
            46623,
            0
          ]
        }
      ],
      "failCond": [
        {
          "KPGKDHAFHFE": "QUEST_CONTENT_NOT_FINISH_PLOT",
          "param": [
            46623,
            0
          ]
        }
      ],
      "guide": {
        "KPGKDHAFHFE": "QUEST_GUIDE_LOCATION",
        "param": [
          "Q354Gate"
        ],
        "guideScene": 3
      },
      "showGuide": "QUEST_GUIDE_ITEM_DISABLE",
      "guideHint": {
        "param1": ""
      },
      "finishExec": [
        {
          "KPGKDHAFHFE": "QUEST_EXEC_GRANT_TRIAL_AVATAR",
          "param": [
            "4"
          ]
        },
        {
          "KPGKDHAFHFE": "QUEST_EXEC_REFRESH_GROUP_SUITE",
          "param": [
            "3",
            "133004118,2"
          ]
        }
      ],
      "failExec": [
        {
          "KPGKDHAFHFE": "QUEST_EXEC_ROLLBACK_QUEST",
          "param": [
            "46608"
          ]
        }
      ],
      "versionBegin": "",
      "versionEnd": ""
    },
    {
      "subId": 46624,
      "mainId": 466,
      "order": 22,
      "isMpBlock": true,
      "descTextMapHash": 280756871,
      "showType": "QUEST_HIDDEN",
      "GMKDJFPEFFF": [
        1009,
        300406
      ],
      "banType": "BAN_GROUP_TRANSPORT_ONLY",
      "finishCond": [
        {
          "KPGKDHAFHFE": "QUEST_CONTENT_FINISH_PLOT",
          "param": [
            46624,
            0
          ]
        }
      ],
      "failCond": [
        {
          "KPGKDHAFHFE": "QUEST_CONTENT_NOT_FINISH_PLOT",
          "param": [
            46624,
            0
          ]
        }
      ],
      "guide": {},
      "guideHint": {
        "param1": ""
      },
      "finishExec": [
        {
          "KPGKDHAFHFE": "QUEST_EXEC_REMOVE_TRIAL_AVATAR",
          "param": [
            "4"
          ]
        }
      ],
      "failExec": [
        {
          "KPGKDHAFHFE": "QUEST_EXEC_ROLLBACK_QUEST",
          "param": [
            "46608"
          ]
        },
        {
          "KPGKDHAFHFE": "QUEST_EXEC_REMOVE_TRIAL_AVATAR",
          "param": [
            "4"
          ]
        }
      ],
      "versionBegin": "",
      "versionEnd": ""
    },
    {
      "subId": 46625,
      "mainId": 466,
      "order": 17,
      "descTextMapHash": 3463295927,
      "showType": "QUEST_HIDDEN",
      "finishCond": [
        {
          "KPGKDHAFHFE": "QUEST_CONTENT_TRIGGER_FIRE",
          "param": [
            1171,
            0
          ]
        }
      ],
      "guide": {},
      "guideHint": {
        "param1": ""
      },
      "isRewind": true,
      "finishExec": [
        {
          "KPGKDHAFHFE": "QUEST_EXEC_ROLLBACK_QUEST",
          "param": [
            "46625"
          ]
        }
      ],
      "versionBegin": "",
      "versionEnd": ""
    }
  ],
  "talks": [
    {
      "id": 46601,
      "beginWay": "TALK_BEGIN_MANUAL",
      "beginCond": [
        {
          "type": "QUEST_COND_STATE_EQUAL",
          "_param": [
            "46602",
            "2"
          ]
        }
      ],
      "priority": 5,
      "initDialog": 4660101,
      "npcId": [
        1009
      ],
      "performCfg": "QuestDialogue/LQ/Diluc1_466/Q46601",
      "heroTalk": "TALK_HERO_MAIN",
      "questId": 466,
      "assetIndex": 17368194277823389296,
      "prePerformCfg": ""
    },
    {
      "id": 46602,
      "beginWay": "TALK_BEGIN_MANUAL",
      "beginCond": [
        {
          "type": "QUEST_COND_STATE_EQUAL",
          "_param": [
            "46605",
            "2"
          ]
        }
      ],
      "priority": 5,
      "initDialog": 4660201,
      "npcId": [
        1009
      ],
      "performCfg": "QuestDialogue/LQ/Diluc1_466/Q46602",
      "heroTalk": "TALK_HERO_MAIN",
      "questId": 466,
      "assetIndex": 16451082609465762341,
      "prePerformCfg": ""
    },
    {
      "id": 46603,
      "beginWay": "TALK_BEGIN_MANUAL",
      "beginCond": [
        {
          "type": "QUEST_COND_STATE_EQUAL",
          "_param": [
            "46607",
            "2"
          ]
        }
      ],
      "priority": 5,
      "initDialog": 4660301,
      "npcId": [
        1009
      ],
      "performCfg": "QuestDialogue/LQ/Diluc1_466/Q46603",
      "heroTalk": "TALK_HERO_MAIN",
      "questId": 466,
      "assetIndex": 16638242228200343679,
      "prePerformCfg": ""
    },
    {
      "id": 46604,
      "beginWay": "TALK_BEGIN_MANUAL",
      "beginCond": [
        {
          "type": "QUEST_COND_STATE_EQUAL",
          "_param": [
            "46610",
            "2"
          ]
        }
      ],
      "priority": 5,
      "initDialog": 4660401,
      "npcId": [
        1009
      ],
      "performCfg": "QuestDialogue/LQ/Diluc1_466/Q46604",
      "heroTalk": "TALK_HERO_MAIN",
      "questId": 466,
      "assetIndex": 6801771973685744343,
      "prePerformCfg": ""
    },
    {
      "id": 46605,
      "beginWay": "TALK_BEGIN_MANUAL",
      "beginCond": [
        {
          "type": "QUEST_COND_STATE_EQUAL",
          "_param": [
            "46613",
            "2"
          ]
        }
      ],
      "priority": 5,
      "initDialog": 4660501,
      "npcId": [
        1009
      ],
      "performCfg": "QuestDialogue/LQ/Diluc1_466/Q46605",
      "heroTalk": "TALK_HERO_MAIN",
      "questId": 466,
      "assetIndex": 2543839183883727405,
      "prePerformCfg": ""
    },
    {
      "id": 46606,
      "beginWay": "TALK_BEGIN_MANUAL",
      "beginCond": [
        {
          "type": "QUEST_COND_STATE_EQUAL",
          "_param": [
            "46616",
            "2"
          ]
        }
      ],
      "priority": 5,
      "initDialog": 4660601,
      "npcId": [
        1009
      ],
      "performCfg": "QuestDialogue/LQ/Diluc1_466/Q46606",
      "heroTalk": "TALK_HERO_MAIN",
      "questId": 466,
      "assetIndex": 18090565676617524927,
      "prePerformCfg": ""
    },
    {
      "id": 46607,
      "beginWay": "TALK_BEGIN_MANUAL",
      "beginCond": [
        {
          "type": "QUEST_COND_STATE_EQUAL",
          "_param": [
            "46618",
            "2"
          ]
        }
      ],
      "priority": 5,
      "initDialog": 4660701,
      "npcId": [
        1009
      ],
      "performCfg": "QuestDialogue/LQ/Diluc1_466/Q46607",
      "heroTalk": "TALK_HERO_MAIN",
      "questId": 466,
      "assetIndex": 17061091803012706531,
      "prePerformCfg": ""
    },
    {
      "id": 46608,
      "beginWay": "TALK_BEGIN_MANUAL",
      "beginCondComb": "LOGIC_OR",
      "beginCond": [
        {
          "type": "QUEST_COND_STATE_EQUAL",
          "_param": [
            "46621",
            "2"
          ]
        },
        {
          "type": "QUEST_COND_STATE_EQUAL",
          "_param": [
            "46622",
            "2"
          ]
        }
      ],
      "priority": 4,
      "initDialog": 4660801,
      "npcId": [
        1009
      ],
      "performCfg": "",
      "heroTalk": "TALK_HERO_MAIN",
      "questId": 466,
      "assetIndex": 1502899914005691251,
      "prePerformCfg": ""
    },
    {
      "id": 46609,
      "beginWay": "TALK_BEGIN_MANUAL",
      "beginCondComb": "LOGIC_AND",
      "beginCond": [
        {
          "type": "QUEST_COND_STATE_EQUAL",
          "_param": [
            "46622",
            "2"
          ]
        },
        {
          "type": "QUEST_COND_PACK_HAVE_ITEM",
          "_param": [
            "100052",
            "4"
          ]
        }
      ],
      "priority": 5,
      "initDialog": 4660901,
      "npcId": [
        1009
      ],
      "performCfg": "QuestDialogue/LQ/Diluc1_466/Q46609",
      "heroTalk": "TALK_HERO_MAIN",
      "questId": 466,
      "assetIndex": 17583747756804232720,
      "prePerformCfg": ""
    },
    {
      "id": 46610,
      "beginWay": "TALK_BEGIN_MANUAL",
      "beginCondComb": "LOGIC_OR",
      "beginCond": [
        {
          "type": "QUEST_COND_STATE_EQUAL",
          "_param": [
            "46622",
            "2"
          ]
        },
        {
          "type": "QUEST_COND_STATE_EQUAL",
          "_param": [
            "46604",
            "2"
          ]
        },
        {
          "type": "QUEST_COND_STATE_EQUAL",
          "_param": [
            "46605",
            "2"
          ]
        }
      ],
      "priority": 4,
      "initDialog": 4661001,
      "npcId": [
        10022
      ],
      "performCfg": "",
      "heroTalk": "TALK_HERO_MAIN",
      "questId": 466,
      "assetIndex": 1402470986882346754,
      "prePerformCfg": ""
    },
    {
      "id": 46611,
      "beginWay": "TALK_BEGIN_MANUAL",
      "beginCond": [
        {
          "type": "QUEST_COND_STATE_EQUAL",
          "_param": [
            "46620",
            "2"
          ]
        }
      ],
      "priority": 4,
      "initDialog": 4661101,
      "npcId": [
        1009
      ],
      "performCfg": "",
      "heroTalk": "TALK_HERO_MAIN",
      "questId": 466,
      "assetIndex": 10444512223747984742,
      "prePerformCfg": ""
    },
    {
      "id": 46612,
      "beginWay": "TALK_BEGIN_MANUAL",
      "beginCond": [
        {
          "type": "QUEST_COND_STATE_EQUAL",
          "_param": [
            "46620",
            "2"
          ]
        }
      ],
      "priority": 4,
      "initDialog": 4661201,
      "npcId": [
        1218
      ],
      "performCfg": "",
      "heroTalk": "TALK_HERO_MAIN",
      "questId": 466,
      "assetIndex": 15302673872000066090,
      "prePerformCfg": ""
    },
    {
      "id": 46613,
      "beginWay": "TALK_BEGIN_MANUAL",
      "beginCond": [
        {
          "type": "QUEST_COND_STATE_EQUAL",
          "_param": [
            "46606",
            "2"
          ]
        }
      ],
      "priority": 4,
      "initDialog": 4661301,
      "npcId": [
        1009
      ],
      "performCfg": "",
      "heroTalk": "TALK_HERO_MAIN",
      "questId": 466,
      "assetIndex": 2974395148383118472,
      "prePerformCfg": ""
    }
  ],
  "preloadLuaList": [
    2268650960672206304,
    5575916732172504491,
    14457059026087496718,
    10841700135441927722,
    12807869122572730430,
    9585544404203558135,
    17159858755499729482,
    17934682482795458377
  ],
  "forcePreloadLuaList": [
    6012353335377493027
  ]
}