{
  "id": 467,
  "KPGKDHAFHFE": "WQ",
  "titleTextMapHash": 2621545049,
  "descTextMapHash": 3459088143,
  "luaPath": "Actor/Quest/IQ467",
  "rewardIdList": [
    100467
  ],
  "showRedPoint": true,
  "subQuests": [
    {
      "subId": 46701,
      "mainId": 467,
      "order": 1,
      "descTextMapHash": 3093212919,
      "showType": "QUEST_HIDDEN",
      "finishCond": [
        {
          "KPGKDHAFHFE": "QUEST_CONTENT_TRIGGER_FIRE",
          "param": [
            1093,
            0
          ]
        }
      ],
      "guide": {},
      "guideHint": {
        "param1": ""
      },
      "isRewind": true,
      "versionBegin": "",
      "versionEnd": ""
    },
    {
      "subId": 46702,
      "mainId": 467,
      "order": 2,
      "descTextMapHash": 3617007087,
      "finishCond": [
        {
          "KPGKDHAFHFE": "QUEST_CONTENT_COMPLETE_TALK",
          "param": [
            46701,
            0
          ]
        }
      ],
      "guide": {
        "KPGKDHAFHFE": "QUEST_GUIDE_NPC",
        "param": [
          "1479"
        ],
        "guideScene": 3,
        "guideStyle": "QUEST_GUIDE_STYLE_TARGET",
        "guideLayer": "QUEST_GUIDE_LAYER_SCENE"
      },
      "guideHint": {
        "param1": ""
      },
      "isRewind": true,
      "versionBegin": "",
      "versionEnd": ""
    },
    {
      "subId": 46703,
      "mainId": 467,
      "order": 3,
      "descTextMapHash": 3578823407,
      "finishCond": [
        {
          "KPGKDHAFHFE": "QUEST_CONTENT_COMPLETE_ANY_TALK",
          "param": [
            0,
            0
          ]
        }
      ],
      "guide": {
        "KPGKDHAFHFE": "QUEST_GUIDE_NPC",
        "param": [
          "1479"
        ],
        "guideScene": 3,
        "guideStyle": "QUEST_GUIDE_STYLE_TARGET",
        "guideLayer": "QUEST_GUIDE_LAYER_SCENE"
      },
      "guideHint": {
        "param1": ""
      },
      "finishParent": true,
      "isRewind": true,
      "versionBegin": "",
      "versionEnd": ""
    }
  ],
  "talks": [
    {
      "id": 46701,
      "beginWay": "TALK_BEGIN_MANUAL",
      "beginCond": [
        {
          "type": "QUEST_COND_STATE_EQUAL",
          "_param": [
            "46702",
            "2"
          ]
        }
      ],
      "priority": 5,
      "initDialog": 4670101,
      "npcId": [
        1479
      ],
      "performCfg": "QuestDialogue/WQ/Mengde_467/Q46701",
      "questId": 467,
      "assetIndex": 17229158061191009015,
      "prePerformCfg": "",
      "freeStyleList": [
        9000
      ]
    },
    {
      "id": 46702,
      "beginWay": "TALK_BEGIN_MANUAL",
      "beginCondComb": "LOGIC_AND",
      "beginCond": [
        {
          "type": "QUEST_COND_STATE_EQUAL",
          "_param": [
            "46703",
            "2"
          ]
        },
        {
          "type": "QUEST_COND_PACK_HAVE_ITEM",
          "_param": [
            "100011",
            "1"
          ]
        },
        {
          "type": "QUEST_COND_PACK_HAVE_ITEM",
          "_param": [
            "100064",
            "1"
          ]
        }
      ],
      "priority": 4,
      "initDialog": 4670201,
      "npcId": [
        1479
      ],
      "performCfg": "",
      "questId": 467,
      "assetIndex": 9466781796016320206,
      "prePerformCfg": ""
    },
    {
      "id": 46703,
      "beginWay": "TALK_BEGIN_MANUAL",
      "beginCondComb": "LOGIC_AND",
      "beginCond": [
        {
          "type": "QUEST_COND_STATE_EQUAL",
          "_param": [
            "46703",
            "2"
          ]
        },
        {
          "type": "QUEST_COND_PACK_HAVE_ITEM",
          "_param": [
            "108011",
            "1"
          ]
        }
      ],
      "priority": 5,
      "initDialog": 4670301,
      "npcId": [
        1479
      ],
      "performCfg": "QuestDialogue/WQ/Mengde_467/Q46703",
      "questId": 467,
      "assetIndex": 4817676632904372787,
      "prePerformCfg": "",
      "freeStyleList": [
        9000
      ]
    },
    {
      "id": 46708,
      "beginCond": [
        {
          "type": "QUEST_COND_STATE_EQUAL",
          "_param": [
            "46703",
            "2"
          ]
        }
      ],
      "priority": 3,
      "initDialog": 4670801,
      "npcId": [
        1479
      ],
      "performCfg": "",
      "questId": 467,
      "assetIndex": 6860341999255928021,
      "prePerformCfg": ""
    },
    {
      "id": 46709,
      "beginCond": [
        {
          "type": "QUEST_COND_STATE_EQUAL",
          "_param": [
            "46703",
            "2"
          ]
        }
      ],
      "priority": 3,
      "initDialog": 4670901,
      "npcId": [
        1479
      ],
      "performCfg": "",
      "questId": 467,
      "assetIndex": 3134518575307504206,
      "prePerformCfg": ""
    },
    {
      "id": 46710,
      "beginCond": [
        {
          "type": "QUEST_COND_STATE_EQUAL",
          "_param": [
            "46703",
            "2"
          ]
        }
      ],
      "priority": 3,
      "initDialog": 4671001,
      "npcId": [
        1479
      ],
      "performCfg": "",
      "questId": 467,
      "assetIndex": 463956383068262024,
      "prePerformCfg": ""
    },
    {
      "id": 46711,
      "beginWay": "TALK_BEGIN_MANUAL",
      "beginCondComb": "LOGIC_AND",
      "beginCond": [
        {
          "type": "QUEST_COND_STATE_EQUAL",
          "_param": [
            "46703",
            "2"
          ]
        },
        {
          "type": "QUEST_COND_PACK_HAVE_ITEM",
          "_param": [
            "108012",
            "1"
          ]
        }
      ],
      "priority": 5,
      "initDialog": 4671101,
      "npcId": [
        1479
      ],
      "performCfg": "QuestDialogue/WQ/Mengde_467/Q46711",
      "questId": 467,
      "assetIndex": 17486429775149511566,
      "prePerformCfg": "",
      "freeStyleList": [
        9000
      ]
    },
    {
      "id": 46712,
      "beginWay": "TALK_BEGIN_MANUAL",
      "beginCondComb": "LOGIC_AND",
      "beginCond": [
        {
          "type": "QUEST_COND_STATE_EQUAL",
          "_param": [
            "46703",
            "2"
          ]
        },
        {
          "type": "QUEST_COND_PACK_HAVE_ITEM",
          "_param": [
            "108013",
            "1"
          ]
        }
      ],
      "priority": 5,
      "initDialog": 4671201,
      "npcId": [
        1479
      ],
      "performCfg": "QuestDialogue/WQ/Mengde_467/Q46712",
      "questId": 467,
      "assetIndex": 1209913630168776754,
      "prePerformCfg": "",
      "freeStyleList": [
        9000
      ]
    },
    {
      "id": 46713,
      "beginWay": "TALK_BEGIN_MANUAL",
      "beginCondComb": "LOGIC_AND",
      "beginCond": [
        {
          "type": "QUEST_COND_STATE_EQUAL",
          "_param": [
            "46703",
            "2"
          ]
        },
        {
          "type": "QUEST_COND_PACK_HAVE_ITEM",
          "_param": [
            "108014",
            "1"
          ]
        }
      ],
      "priority": 5,
      "initDialog": 4671301,
      "npcId": [
        1479
      ],
      "performCfg": "QuestDialogue/WQ/Mengde_467/Q46713",
      "questId": 467,
      "assetIndex": 18042722700249467302,
      "prePerformCfg": "",
      "freeStyleList": [
        9000
      ]
    }
  ],
  "preloadLuaList": [
    14457059026087496718,
    10841700135441927722
  ]
}