{
  "id": 480,
  "resId": 2003,
  "series": 2003,
  "KPGKDHAFHFE": "LQ",
  "titleTextMapHash": 2580572529,
  "descTextMapHash": 3478806343,
  "luaPath": "Actor/Quest/LQ480",
  "suggestTrackMainQuestList": [
    427
  ],
  "rewardIdList": [
    100480
  ],
  "chapterId": 2003,
  "subQuests": [
    {
      "subId": 48001,
      "mainId": 480,
      "order": 2,
      "descTextMapHash": 3317344511,
      "finishCond": [
        {
          "KPGKDHAFHFE": "QUEST_CONTENT_COMPLETE_TALK",
          "param": [
            48001,
            0
          ]
        }
      ],
      "guide": {
        "KPGKDHAFHFE": "QUEST_GUIDE_NPC",
        "param": [
          "1002"
        ],
        "guideScene": 3,
        "guideStyle": "QUEST_GUIDE_STYLE_TARGET",
        "guideLayer": "QUEST_GUIDE_LAYER_SCENE"
      },
      "guideHint": {
        "param1": ""
      },
      "isRewind": true,
      "versionBegin": "",
      "versionEnd": ""
    },
    {
      "subId": 48002,
      "mainId": 480,
      "order": 3,
      "isMpBlock": true,
      "descTextMapHash": 3649254423,
      "finishCond": [
        {
          "KPGKDHAFHFE": "QUEST_CONTENT_FINISH_PLOT",
          "param": [
            48002,
            0
          ]
        }
      ],
      "failCond": [
        {
          "KPGKDHAFHFE": "QUEST_CONTENT_NOT_FINISH_PLOT",
          "param": [
            48002,
            0
          ]
        }
      ],
      "guide": {},
      "guideHint": {
        "param1": ""
      },
      "isRewind": true,
      "versionBegin": "",
      "versionEnd": ""
    },
    {
      "subId": 48003,
      "mainId": 480,
      "order": 4,
      "descTextMapHash": 2194342463,
      "finishCond": [
        {
          "KPGKDHAFHFE": "QUEST_CONTENT_COMPLETE_TALK",
          "param": [
            4800302,
            0
          ]
        }
      ],
      "guide": {
        "KPGKDHAFHFE": "QUEST_GUIDE_NPC",
        "param": [
          "1002"
        ],
        "guideScene": 3,
        "guideStyle": "QUEST_GUIDE_STYLE_TARGET",
        "guideLayer": "QUEST_GUIDE_LAYER_SCENE"
      },
      "guideHint": {
        "param1": ""
      },
      "isRewind": true,
      "finishExec": [
        {
          "KPGKDHAFHFE": "QUEST_EXEC_ROLLBACK_QUEST",
          "param": [
            "48002"
          ]
        }
      ],
      "versionBegin": "",
      "versionEnd": ""
    },
    {
      "subId": 48004,
      "mainId": 480,
      "order": 5,
      "descTextMapHash": 1893467943,
      "finishCond": [
        {
          "KPGKDHAFHFE": "QUEST_CONTENT_COMPLETE_TALK",
          "param": [
            48004,
            0
          ]
        }
      ],
      "guide": {
        "KPGKDHAFHFE": "QUEST_GUIDE_NPC",
        "param": [
          "1002"
        ],
        "guideScene": 3,
        "guideStyle": "QUEST_GUIDE_STYLE_FINISH",
        "guideLayer": "QUEST_GUIDE_LAYER_SCENE"
      },
      "guideHint": {
        "param1": ""
      },
      "finishParent": true,
      "isRewind": true,
      "versionBegin": "",
      "versionEnd": ""
    },
    {
      "subId": 48005,
      "mainId": 480,
      "order": 1,
      "isMpBlock": true,
      "descTextMapHash": 1060061583,
      "finishCond": [
        {
          "KPGKDHAFHFE": "QUEST_CONTENT_FINISH_PLOT",
          "param": [
            48005,
            0
          ]
        }
      ],
      "guide": {
        "KPGKDHAFHFE": "QUEST_GUIDE_LOCATION",
        "param": [
          "Q48001Ambor"
        ],
        "guideScene": 3,
        "guideStyle": "QUEST_GUIDE_STYLE_POINT"
      },
      "guideHint": {
        "param1": ""
      },
      "isRewind": true,
      "versionBegin": "",
      "versionEnd": ""
    }
  ],
  "talks": [
    {
      "id": 48001,
      "beginWay": "TALK_BEGIN_MANUAL",
      "beginCond": [
        {
          "type": "QUEST_COND_STATE_EQUAL",
          "_param": [
            "48001",
            "2"
          ]
        }
      ],
      "initDialog": 4800101,
      "npcId": [
        1002
      ],
      "performCfg": "QuestDialogue/LQ/Ambor1_480/Q48001",
      "heroTalk": "TALK_HERO_MAIN",
      "questId": 480,
      "assetIndex": 9463810318427260284,
      "prePerformCfg": ""
    },
    {
      "id": 48004,
      "beginWay": "TALK_BEGIN_MANUAL",
      "beginCond": [
        {
          "type": "QUEST_COND_STATE_EQUAL",
          "_param": [
            "48004",
            "2"
          ]
        }
      ],
      "initDialog": 4800401,
      "npcId": [
        1002
      ],
      "performCfg": "",
      "heroTalk": "TALK_HERO_MAIN",
      "questId": 480,
      "assetIndex": 14798464235857585102,
      "prePerformCfg": ""
    },
    {
      "id": 4800301,
      "beginWay": "TALK_BEGIN_MANUAL",
      "beginCond": [
        {
          "type": "QUEST_COND_STATE_EQUAL",
          "_param": [
            "48003",
            "2"
          ]
        }
      ],
      "nextTalks": [
        4800302,
        4800303
      ],
      "initDialog": 4800301,
      "npcId": [
        1002
      ],
      "performCfg": "",
      "heroTalk": "TALK_HERO_MAIN",
      "questId": 480,
      "assetIndex": 8904078474456938077,
      "prePerformCfg": ""
    },
    {
      "id": 4800302,
      "initDialog": 4800303,
      "npcId": [
        1002
      ],
      "performCfg": "",
      "heroTalk": "TALK_HERO_MAIN",
      "questId": 480,
      "assetIndex": 2073810571186672604,
      "prePerformCfg": ""
    },
    {
      "id": 4800303,
      "initDialog": 4800305,
      "npcId": [
        1002
      ],
      "performCfg": "",
      "heroTalk": "TALK_HERO_MAIN",
      "questId": 480,
      "assetIndex": 621473552704991627,
      "prePerformCfg": ""
    }
  ],
  "preloadLuaList": [
    5909385756826696338,
    10878533643055658763,
    13856987515280259129
  ],
  "forcePreloadLuaList": [
    14301210597810918340
  ]
}