{
  "id": 70001,
  "KPGKDHAFHFE": "WQ",
  "mainQuestTag": "MAINQUEST_TAG_ACTIVITY",
  "activeMode": "PLAY_MODE_ALL",
  "titleTextMapHash": 815643167,
  "descTextMapHash": 842097662,
  "luaPath": "Actor/Quest/WQ70001",
  "rewardIdList": [
    170001
  ],
  "showRedPoint": true,
  "activityId": 2003,
  "subQuests": [
    {
      "subId": 7000101,
      "mainId": 70001,
      "order": 2,
      "descTextMapHash": 1951995100,
      "finishCond": [
        {
          "KPGKDHAFHFE": "QUEST_CONTENT_FINISH_PLOT",
          "param": [
            7000101,
            0
          ]
        }
      ],
      "guide": {
        "KPGKDHAFHFE": "QUEST_GUIDE_LOCATION",
        "autoGuide": "QUEST_GUIDE_AUTO_ENABLE",
        "param": [
          "Q7000101wei",
          "10"
        ],
        "guideScene": 3,
        "guideStyle": "QUEST_GUIDE_STYLE_TARGET",
        "guideLayer": "QUEST_GUIDE_LAYER_SCENE"
      },
      "guideHint": {
        "param1": ""
      },
      "isRewind": true,
      "versionBegin": "",
      "versionEnd": ""
    },
    {
      "subId": 7000102,
      "mainId": 70001,
      "order": 3,
      "descTextMapHash": 1417316676,
      "finishCond": [
        {
          "KPGKDHAFHFE": "QUEST_CONTENT_COMPLETE_TALK",
          "param": [
            7000102,
            0
          ]
        }
      ],
      "guide": {
        "KPGKDHAFHFE": "QUEST_GUIDE_NPC",
        "autoGuide": "QUEST_GUIDE_AUTO_ENABLE",
        "param": [
          "152501"
        ],
        "guideScene": 3,
        "guideStyle": "QUEST_GUIDE_STYLE_TARGET",
        "guideLayer": "QUEST_GUIDE_LAYER_SCENE"
      },
      "guideHint": {
        "param1": ""
      },
      "isRewind": true,
      "versionBegin": "",
      "versionEnd": ""
    },
    {
      "subId": 7000103,
      "mainId": 70001,
      "order": 6,
      "descTextMapHash": 1670397092,
      "finishCond": [
        {
          "KPGKDHAFHFE": "QUEST_CONTENT_COMPLETE_TALK",
          "param": [
            7000103,
            0
          ]
        }
      ],
      "guide": {
        "KPGKDHAFHFE": "QUEST_GUIDE_LOCATION",
        "autoGuide": "QUEST_GUIDE_AUTO_ENABLE",
        "param": [
          "Q7000103guild",
          "60"
        ],
        "guideScene": 3,
        "guideStyle": "QUEST_GUIDE_STYLE_TARGET",
        "guideLayer": "QUEST_GUIDE_LAYER_SCENE"
      },
      "guideHint": {
        "param1": ""
      },
      "isRewind": true,
      "versionBegin": "",
      "versionEnd": ""
    },
    {
      "subId": 7000104,
      "mainId": 70001,
      "order": 7,
      "descTextMapHash": 1677481452,
      "finishCond": [
        {
          "KPGKDHAFHFE": "QUEST_CONTENT_FINISH_PLOT",
          "param": [
            7000104,
            0
          ]
        }
      ],
      "guide": {
        "KPGKDHAFHFE": "QUEST_GUIDE_LOCATION",
        "autoGuide": "QUEST_GUIDE_AUTO_ENABLE",
        "param": [
          "Q7000104guild",
          "30"
        ],
        "guideScene": 3,
        "guideStyle": "QUEST_GUIDE_STYLE_TARGET",
        "guideLayer": "QUEST_GUIDE_LAYER_SCENE"
      },
      "guideHint": {
        "param1": ""
      },
      "isRewind": true,
      "versionBegin": "",
      "versionEnd": ""
    },
    {
      "subId": 7000105,
      "mainId": 70001,
      "order": 8,
      "descTextMapHash": 2568812252,
      "finishCond": [
        {
          "KPGKDHAFHFE": "QUEST_CONTENT_CLEAR_GROUP_MONSTER",
          "param": [
            133003924,
            0
          ]
        }
      ],
      "guide": {
        "KPGKDHAFHFE": "QUEST_GUIDE_LOCATION",
        "autoGuide": "QUEST_GUIDE_AUTO_ENABLE",
        "param": [
          "Q7000104guild",
          "30"
        ],
        "guideScene": 3,
        "guideStyle": "QUEST_GUIDE_STYLE_TARGET",
        "guideLayer": "QUEST_GUIDE_LAYER_SCENE"
      },
      "guideHint": {
        "param1": ""
      },
      "isRewind": true,
      "versionBegin": "",
      "versionEnd": ""
    },
    {
      "subId": 7000106,
      "mainId": 70001,
      "order": 4,
      "descTextMapHash": 878942820,
      "showType": "QUEST_HIDDEN",
      "finishCond": [
        {
          "KPGKDHAFHFE": "QUEST_CONTENT_COMPLETE_TALK",
          "param": [
            7000104,
            0
          ]
        }
      ],
      "guide": {},
      "guideHint": {
        "param1": ""
      },
      "isRewind": true,
      "versionBegin": "",
      "versionEnd": ""
    },
    {
      "subId": 7000107,
      "mainId": 70001,
      "order": 5,
      "descTextMapHash": 2417204316,
      "showType": "QUEST_HIDDEN",
      "finishCond": [
        {
          "KPGKDHAFHFE": "QUEST_CONTENT_COMPLETE_TALK",
          "param": [
            7000105,
            0
          ]
        }
      ],
      "guide": {},
      "guideHint": {
        "param1": ""
      },
      "isRewind": true,
      "versionBegin": "",
      "versionEnd": ""
    },
    {
      "subId": 7000110,
      "mainId": 70001,
      "order": 1,
      "descTextMapHash": 2659744316,
      "showType": "QUEST_HIDDEN",
      "finishCond": [
        {
          "KPGKDHAFHFE": "QUEST_CONTENT_FINISH_PLOT",
          "param": [
            7000110,
            0
          ]
        }
      ],
      "guide": {},
      "showGuide": "QUEST_GUIDE_ITEM_DISABLE",
      "guideHint": {
        "param1": ""
      },
      "isRewind": true,
      "versionBegin": "",
      "versionEnd": ""
    },
    {
      "subId": 7000111,
      "mainId": 70001,
      "order": 9,
      "descTextMapHash": 909422260,
      "finishCond": [
        {
          "KPGKDHAFHFE": "QUEST_CONTENT_COMPLETE_TALK",
          "param": [
            7000106,
            0
          ]
        }
      ],
      "guide": {
        "KPGKDHAFHFE": "QUEST_GUIDE_NPC",
        "autoGuide": "QUEST_GUIDE_AUTO_ENABLE",
        "param": [
          "152501"
        ],
        "guideScene": 3,
        "guideStyle": "QUEST_GUIDE_STYLE_TARGET",
        "guideLayer": "QUEST_GUIDE_LAYER_SCENE"
      },
      "guideHint": {
        "param1": ""
      },
      "finishParent": true,
      "isRewind": true,
      "finishExec": [
        {
          "KPGKDHAFHFE": "QUEST_EXEC_REFRESH_GROUP_SUITE",
          "param": [
            "3",
            "133003924,1"
          ]
        }
      ],
      "versionBegin": "",
      "versionEnd": ""
    }
  ],
  "talks": [
    {
      "id": 7000102,
      "beginWay": "TALK_BEGIN_MANUAL",
      "activeMode": "PLAY_MODE_HOST",
      "beginCond": [
        {
          "type": "QUEST_COND_STATE_EQUAL",
          "_param": [
            "7000102",
            "2"
          ]
        }
      ],
      "priority": 5,
      "initDialog": 700010201,
      "npcId": [
        152501
      ],
      "performCfg": "",
      "heroTalk": "TALK_HERO_MAIN",
      "questId": 70001,
      "assetIndex": 14681832609394613375,
      "prePerformCfg": ""
    },
    {
      "id": 7000103,
      "beginWay": "TALK_BEGIN_MANUAL",
      "activeMode": "PLAY_MODE_HOST",
      "beginCond": [
        {
          "type": "QUEST_COND_STATE_EQUAL",
          "_param": [
            "7000103",
            "2"
          ]
        }
      ],
      "priority": 5,
      "initDialog": 700010301,
      "npcId": [
        10396
      ],
      "performCfg": "QuestDialogue/WQ/Mengde_70001/Q7000103",
      "heroTalk": "TALK_HERO_MAIN",
      "questId": 70001,
      "assetIndex": 14269271748755135215,
      "prePerformCfg": ""
    },
    {
      "id": 7000104,
      "beginWay": "TALK_BEGIN_MANUAL",
      "activeMode": "PLAY_MODE_HOST",
      "beginCond": [
        {
          "type": "QUEST_COND_STATE_EQUAL",
          "_param": [
            "7000106",
            "2"
          ]
        }
      ],
      "priority": 5,
      "initDialog": 700010401,
      "npcId": [
        10397
      ],
      "performCfg": "QuestDialogue/WQ/Mengde_70001/Q7000104",
      "heroTalk": "TALK_HERO_MAIN",
      "questId": 70001,
      "assetIndex": 10857943712765911039,
      "prePerformCfg": ""
    },
    {
      "id": 7000105,
      "beginWay": "TALK_BEGIN_MANUAL",
      "activeMode": "PLAY_MODE_HOST",
      "beginCond": [
        {
          "type": "QUEST_COND_STATE_EQUAL",
          "_param": [
            "7000107",
            "2"
          ]
        }
      ],
      "priority": 5,
      "initDialog": 700010501,
      "npcId": [
        10398
      ],
      "performCfg": "QuestDialogue/WQ/Mengde_70001/Q7000105",
      "heroTalk": "TALK_HERO_MAIN",
      "questId": 70001,
      "assetIndex": 8739510146717730886,
      "prePerformCfg": ""
    },
    {
      "id": 7000106,
      "beginWay": "TALK_BEGIN_MANUAL",
      "activeMode": "PLAY_MODE_HOST",
      "beginCond": [
        {
          "type": "QUEST_COND_STATE_EQUAL",
          "_param": [
            "7000111",
            "2"
          ]
        }
      ],
      "priority": 5,
      "initDialog": 700010601,
      "npcId": [
        152501
      ],
      "performCfg": "",
      "heroTalk": "TALK_HERO_MAIN",
      "questId": 70001,
      "assetIndex": 7294468209253799239,
      "prePerformCfg": ""
    },
    {
      "id": 7000108,
      "beginWay": "TALK_BEGIN_MANUAL",
      "activeMode": "PLAY_MODE_HOST",
      "beginCond": [
        {
          "type": "QUEST_COND_STATE_EQUAL",
          "_param": [
            "7000106",
            "3"
          ]
        }
      ],
      "priority": 5,
      "initDialog": 700010801,
      "npcId": [
        10397
      ],
      "performCfg": "",
      "heroTalk": "TALK_HERO_MAIN",
      "questId": 70001,
      "assetIndex": 4353956120114997973,
      "prePerformCfg": ""
    },
    {
      "id": 7000110,
      "beginWay": "TALK_BEGIN_MANUAL",
      "activeMode": "PLAY_MODE_HOST",
      "beginCond": [
        {
          "type": "QUEST_COND_STATE_EQUAL",
          "_param": [
            "7000107",
            "3"
          ]
        }
      ],
      "priority": 5,
      "initDialog": 700011001,
      "npcId": [
        10398
      ],
      "performCfg": "",
      "heroTalk": "TALK_HERO_MAIN",
      "questId": 70001,
      "assetIndex": 12379044207683307462,
      "prePerformCfg": ""
    },
    {
      "id": 7000111,
      "beginWay": "TALK_BEGIN_MANUAL",
      "activeMode": "PLAY_MODE_HOST",
      "beginCond": [
        {
          "type": "QUEST_COND_STATE_EQUAL",
          "_param": [
            "7000103",
            "2"
          ]
        }
      ],
      "priority": 5,
      "initDialog": 700010223,
      "npcId": [
        152501
      ],
      "performCfg": "",
      "heroTalk": "TALK_HERO_MAIN",
      "questId": 70001,
      "assetIndex": 1245904973193406242,
      "prePerformCfg": ""
    }
  ],
  "preloadLuaList": [
    14457059026087496718,
    13553466558494482081,
    12639171481491328975
  ],
  "forcePreloadLuaList": [
    18248003618910058858
  ]
}