{
  "id": 70015,
  "KPGKDHAFHFE": "WQ",
  "mainQuestTag": "MAINQUEST_TAG_ACTIVITY",
  "activeMode": "PLAY_MODE_ALL",
  "titleTextMapHash": 2694683543,
  "descTextMapHash": 355810038,
  "luaPath": "Actor/Quest/WQ70015",
  "rewardIdList": [
    170015
  ],
  "activityId": 5024,
  "subQuests": [
    {
      "subId": 7001501,
      "mainId": 70015,
      "order": 1,
      "descTextMapHash": 613119004,
      "finishCond": [
        {
          "KPGKDHAFHFE": "QUEST_CONTENT_COMPLETE_TALK",
          "param": [
            7001501,
            0
          ]
        }
      ],
      "guide": {
        "KPGKDHAFHFE": "QUEST_GUIDE_LOCATION",
        "autoGuide": "QUEST_GUIDE_AUTO_ENABLE",
        "param": [
          "Q70015guild",
          "75"
        ],
        "guideScene": 3,
        "guideStyle": "QUEST_GUIDE_STYLE_TARGET",
        "guideLayer": "QUEST_GUIDE_LAYER_SCENE"
      },
      "guideHint": {
        "param1": ""
      },
      "isRewind": true,
      "versionBegin": "",
      "versionEnd": ""
    },
    {
      "subId": 7001502,
      "mainId": 70015,
      "order": 2,
      "descTextMapHash": 3510553404,
      "finishCond": [
        {
          "KPGKDHAFHFE": "QUEST_CONTENT_COMPLETE_TALK",
          "param": [
            7001503,
            0
          ]
        },
        {
          "KPGKDHAFHFE": "QUEST_CONTENT_COMPLETE_TALK",
          "param": [
            7001504,
            0
          ]
        }
      ],
      "guide": {
        "KPGKDHAFHFE": "QUEST_GUIDE_NPC",
        "autoGuide": "QUEST_GUIDE_AUTO_ENABLE",
        "param": [
          "11008",
          "SELECT_NPC_NONE"
        ],
        "guideScene": 3,
        "guideStyle": "QUEST_GUIDE_STYLE_TARGET",
        "guideLayer": "QUEST_GUIDE_LAYER_SCENE"
      },
      "guideHint": {
        "param1": ""
      },
      "isRewind": true,
      "versionBegin": "",
      "versionEnd": ""
    },
    {
      "subId": 7001503,
      "mainId": 70015,
      "order": 3,
      "descTextMapHash": 2482686980,
      "showType": "QUEST_HIDDEN",
      "finishCond": [
        {
          "KPGKDHAFHFE": "QUEST_CONTENT_COMPLETE_TALK",
          "param": [
            7001503,
            0
          ]
        }
      ],
      "guide": {},
      "guideHint": {
        "param1": ""
      },
      "finishParent": true,
      "isRewind": true,
      "finishExec": [
        {
          "KPGKDHAFHFE": "QUEST_EXEC_UNREGISTER_DYNAMIC_GROUP",
          "param": [
            "133004474"
          ]
        }
      ],
      "versionBegin": "",
      "versionEnd": ""
    },
    {
      "subId": 7001504,
      "mainId": 70015,
      "order": 4,
      "descTextMapHash": 1602349540,
      "showType": "QUEST_HIDDEN",
      "finishCond": [
        {
          "KPGKDHAFHFE": "QUEST_CONTENT_COMPLETE_TALK",
          "param": [
            7001504,
            0
          ]
        }
      ],
      "guide": {},
      "guideHint": {
        "param1": ""
      },
      "isRewind": true,
      "finishExec": [
        {
          "KPGKDHAFHFE": "QUEST_EXEC_ROLLBACK_QUEST",
          "param": [
            "7001502"
          ]
        }
      ],
      "versionBegin": "",
      "versionEnd": ""
    }
  ],
  "talks": [
    {
      "id": 7001501,
      "beginWay": "TALK_BEGIN_MANUAL",
      "activeMode": "PLAY_MODE_HOST",
      "beginCond": [
        {
          "type": "QUEST_COND_STATE_EQUAL",
          "_param": [
            "7001501",
            "2"
          ]
        }
      ],
      "priority": 5,
      "initDialog": 700150101,
      "npcId": [
        11008,
        156501
      ],
      "performCfg": "QuestDialogue/WQ/MimiTomo_70024/Q7001501",
      "heroTalk": "TALK_HERO_MAIN",
      "questId": 70015,
      "assetIndex": 4911983281990368566,
      "prePerformCfg": ""
    },
    {
      "id": 7001502,
      "beginWay": "TALK_BEGIN_MANUAL",
      "activeMode": "PLAY_MODE_HOST",
      "beginCondComb": "LOGIC_AND",
      "beginCond": [
        {
          "type": "QUEST_COND_STATE_EQUAL",
          "_param": [
            "7001502",
            "2"
          ]
        },
        {
          "type": "QUEST_COND_ITEM_GIVING_ACTIVED",
          "_param": [
            "7001202"
          ]
        }
      ],
      "priority": 5,
      "initDialog": 700150201,
      "npcId": [
        11008
      ],
      "performCfg": "",
      "heroTalk": "TALK_HERO_MAIN",
      "questId": 70015,
      "assetIndex": 4735266591303679753,
      "prePerformCfg": ""
    },
    {
      "id": 7001503,
      "beginWay": "TALK_BEGIN_AUTO",
      "activeMode": "PLAY_MODE_HOST",
      "beginCondComb": "LOGIC_AND",
      "beginCond": [
        {
          "type": "QUEST_COND_STATE_EQUAL",
          "_param": [
            "7001503",
            "2"
          ]
        }
      ],
      "priority": 6,
      "initDialog": 700150301,
      "npcId": [
        11008,
        1005
      ],
      "performCfg": "QuestDialogue/WQ/MimiTomo_70024/Q7001502",
      "heroTalk": "TALK_HERO_MAIN",
      "questId": 70015,
      "assetIndex": 6214975335913760102,
      "prePerformCfg": ""
    },
    {
      "id": 7001504,
      "beginWay": "TALK_BEGIN_AUTO",
      "activeMode": "PLAY_MODE_HOST",
      "beginCondComb": "LOGIC_AND",
      "beginCond": [
        {
          "type": "QUEST_COND_STATE_EQUAL",
          "_param": [
            "7001504",
            "2"
          ]
        }
      ],
      "priority": 6,
      "initDialog": 700150401,
      "npcId": [
        11008,
        156501,
        1005
      ],
      "performCfg": "QuestDialogue/WQ/MimiTomo_70024/Q7001503",
      "heroTalk": "TALK_HERO_MAIN",
      "questId": 70015,
      "assetIndex": 4323761603282957163,
      "prePerformCfg": ""
    }
  ],
  "preloadLuaList": [
    14457059026087496718
  ],
  "freeStyleDic": {
    "11008": [
      11
    ]
  }
}