{
  "id": 70109,
  "KPGKDHAFHFE": "WQ",
  "activeMode": "PLAY_MODE_ALL",
  "titleTextMapHash": 2134840623,
  "descTextMapHash": 2599432758,
  "luaPath": "Actor/Quest/WQ70109",
  "subQuests": [
    {
      "subId": 7010901,
      "mainId": 70109,
      "order": 1,
      "subIdSet": 1,
      "descTextMapHash": 3976349500,
      "finishCond": [
        {
          "KPGKDHAFHFE": "QUEST_CONTENT_OBTAIN_ITEM",
          "param": [
            101006,
            0
          ],
          "count": 8
        }
      ],
      "guide": {},
      "guideHint": {
        "param1": ""
      },
      "finishParent": true,
      "isRewind": true,
      "versionBegin": "",
      "versionEnd": ""
    }
  ]
}