{
  "id": 70507,
  "resId": 4009,
  "KPGKDHAFHFE": "WQ",
  "mainQuestTag": "MAINQUEST_TAG_ACTIVITY",
  "titleTextMapHash": 2112472727,
  "descTextMapHash": 3336713870,
  "luaPath": "Actor/Quest/WQ70507",
  "suggestTrackMainQuestList": [
    70506
  ],
  "suggestTrackOutOfOrder": true,
  "rewardIdList": [
    170507
  ],
  "showRedPoint": true,
  "activityId": 5062,
  "subQuests": [
    {
      "subId": 7050701,
      "mainId": 70507,
      "order": 1,
      "descTextMapHash": 3389623188,
      "finishCond": [
        {
          "KPGKDHAFHFE": "QUEST_CONTENT_FINISH_PLOT",
          "param": [
            7050701,
            0
          ]
        }
      ],
      "guide": {
        "KPGKDHAFHFE": "QUEST_GUIDE_NPC",
        "autoGuide": "QUEST_GUIDE_AUTO_ENABLE",
        "param": [
          "30112"
        ],
        "guideScene": 3,
        "guideStyle": "QUEST_GUIDE_STYLE_START",
        "guideLayer": "QUEST_GUIDE_LAYER_SCENE"
      },
      "guideHint": {
        "param1": ""
      },
      "isRewind": true,
      "versionBegin": "",
      "versionEnd": ""
    },
    {
      "subId": 7050702,
      "mainId": 70507,
      "order": 4,
      "isMpBlock": true,
      "descTextMapHash": 2771030228,
      "finishCond": [
        {
          "KPGKDHAFHFE": "QUEST_CONTENT_FINISH_PLOT",
          "param": [
            7050702,
            0
          ]
        }
      ],
      "failCond": [
        {
          "KPGKDHAFHFE": "QUEST_CONTENT_NOT_FINISH_PLOT",
          "param": [
            7050702,
            0
          ]
        },
        {
          "KPGKDHAFHFE": "QUEST_CONTENT_LEAVE_SCENE_RANGE",
          "param": [
            1068,
            40
          ]
        }
      ],
      "guide": {
        "KPGKDHAFHFE": "QUEST_GUIDE_NPC",
        "autoGuide": "QUEST_GUIDE_AUTO_ENABLE",
        "param": [
          "10232"
        ],
        "guideScene": 1068,
        "guideStyle": "QUEST_GUIDE_STYLE_START",
        "guideLayer": "QUEST_GUIDE_LAYER_SCENE"
      },
      "guideHint": {
        "param1": ""
      },
      "failExec": [
        {
          "KPGKDHAFHFE": "QUEST_EXEC_ROLLBACK_QUEST",
          "param": [
            "7050701"
          ]
        }
      ],
      "versionBegin": "",
      "versionEnd": ""
    },
    {
      "subId": 7050703,
      "mainId": 70507,
      "order": 5,
      "isMpBlock": true,
      "descTextMapHash": 996592252,
      "finishCond": [
        {
          "KPGKDHAFHFE": "QUEST_CONTENT_COMPLETE_TALK",
          "param": [
            7050702,
            0
          ]
        }
      ],
      "failCond": [
        {
          "KPGKDHAFHFE": "QUEST_CONTENT_LEAVE_SCENE_RANGE",
          "param": [
            1068,
            50
          ]
        }
      ],
      "guide": {
        "KPGKDHAFHFE": "QUEST_GUIDE_NPC",
        "autoGuide": "QUEST_GUIDE_AUTO_ENABLE",
        "param": [
          "10232"
        ],
        "guideScene": 1068,
        "guideStyle": "QUEST_GUIDE_STYLE_TARGET",
        "guideLayer": "QUEST_GUIDE_LAYER_SCENE"
      },
      "guideHint": {
        "param1": ""
      },
      "finishParent": true,
      "isRewind": true,
      "failExec": [
        {
          "KPGKDHAFHFE": "QUEST_EXEC_ROLLBACK_QUEST",
          "param": [
            "7050701"
          ]
        }
      ],
      "versionBegin": "",
      "versionEnd": ""
    },
    {
      "subId": 7050704,
      "mainId": 70507,
      "order": 3,
      "isMpBlock": true,
      "descTextMapHash": 864599884,
      "finishCond": [
        {
          "KPGKDHAFHFE": "QUEST_CONTENT_COMPLETE_TALK",
          "param": [
            7050701,
            0
          ]
        }
      ],
      "failCond": [
        {
          "KPGKDHAFHFE": "QUEST_CONTENT_LEAVE_SCENE_RANGE",
          "param": [
            1068,
            50
          ]
        }
      ],
      "guide": {
        "KPGKDHAFHFE": "QUEST_GUIDE_NPC",
        "autoGuide": "QUEST_GUIDE_AUTO_ENABLE",
        "param": [
          "10232"
        ],
        "guideScene": 1068,
        "guideStyle": "QUEST_GUIDE_STYLE_TARGET",
        "guideLayer": "QUEST_GUIDE_LAYER_SCENE"
      },
      "guideHint": {
        "param1": ""
      },
      "failExec": [
        {
          "KPGKDHAFHFE": "QUEST_EXEC_ROLLBACK_QUEST",
          "param": [
            "7050701"
          ]
        }
      ],
      "versionBegin": "",
      "versionEnd": ""
    },
    {
      "subId": 7050705,
      "mainId": 70507,
      "order": 2,
      "isMpBlock": true,
      "descTextMapHash": 1148559252,
      "finishCond": [
        {
          "KPGKDHAFHFE": "QUEST_CONTENT_LUA_NOTIFY",
          "param": [
            0,
            0
          ],
          "count": 1
        },
        {
          "KPGKDHAFHFE": "QUEST_CONTENT_QUEST_VAR_EQUAL",
          "param": [
            0,
            1
          ]
        },
        {
          "KPGKDHAFHFE": "QUEST_CONTENT_QUEST_STATE_EQUAL",
          "param": [
            7050606,
            3
          ]
        }
      ],
      "failCond": [
        {
          "KPGKDHAFHFE": "QUEST_CONTENT_LEAVE_SCENE_RANGE",
          "param": [
            1068,
            50
          ]
        }
      ],
      "guide": {
        "KPGKDHAFHFE": "QUEST_GUIDE_LOCATION",
        "param": [
          "OpenBartender_guide",
          "0"
        ],
        "guideScene": 1068,
        "guideStyle": "QUEST_GUIDE_STYLE_TARGET",
        "guideLayer": "QUEST_GUIDE_LAYER_SCENE"
      },
      "guideHint": {
        "param1": ""
      },
      "isRewind": true,
      "finishExec": [
        {
          "KPGKDHAFHFE": "QUEST_EXEC_SET_QUEST_VAR",
          "param": [
            "0",
            "1",
            "7050705"
          ]
        }
      ],
      "failExec": [
        {
          "KPGKDHAFHFE": "QUEST_EXEC_ROLLBACK_QUEST",
          "param": [
            "7050701"
          ]
        }
      ],
      "versionBegin": "",
      "versionEnd": ""
    }
  ],
  "talks": [
    {
      "id": 7050701,
      "beginWay": "TALK_BEGIN_MANUAL",
      "beginCondComb": "LOGIC_OR",
      "beginCond": [
        {
          "type": "QUEST_COND_STATE_EQUAL",
          "_param": [
            "7050704",
            "2"
          ]
        },
        {
          "type": "QUEST_COND_STATE_EQUAL",
          "_param": [
            "7050702",
            "2"
          ]
        }
      ],
      "priority": 5,
      "initDialog": 705070101,
      "npcId": [
        10232
      ],
      "performCfg": "QuestDialogue/WQ/Mengde_70507/Q7050701",
      "heroTalk": "TALK_HERO_MAIN",
      "questId": 70507,
      "assetIndex": 6101448928308279847,
      "prePerformCfg": ""
    },
    {
      "id": 7050702,
      "beginWay": "TALK_BEGIN_MANUAL",
      "beginCond": [
        {
          "type": "QUEST_COND_STATE_EQUAL",
          "_param": [
            "7050703",
            "2"
          ]
        }
      ],
      "priority": 5,
      "initDialog": 705070201,
      "npcId": [
        10232
      ],
      "performCfg": "QuestDialogue/WQ/Mengde_70507/Q7050702",
      "heroTalk": "TALK_HERO_MAIN",
      "questId": 70507,
      "assetIndex": 8816050284383590193,
      "prePerformCfg": ""
    }
  ],
  "preloadLuaList": [
    14457059026087496718,
    16367129037605643679
  ],
  "forcePreloadLuaList": [
    17382078949823750647
  ],
  "freeStyleDic": {
    "10232": [
      8010
    ]
  }
}