{
  "id": 70516,
  "resId": 4014,
  "KPGKDHAFHFE": "WQ",
  "mainQuestTag": "MAINQUEST_TAG_GUIDE",
  "activeMode": "PLAY_MODE_ALL",
  "titleTextMapHash": 1358845351,
  "luaPath": "Actor/Quest/WQ70516",
  "showType": "QUEST_HIDDEN",
  "subQuests": [
    {
      "subId": 7051601,
      "mainId": 70516,
      "order": 2,
      "showType": "QUEST_HIDDEN",
      "finishCond": [
        {
          "KPGKDHAFHFE": "QUEST_CONTENT_FINISH_PLOT",
          "param": [
            70516,
            0
          ]
        }
      ],
      "guide": {},
      "guideHint": {
        "param1": ""
      },
      "versionBegin": "",
      "versionEnd": ""
    },
    {
      "subId": 7051602,
      "mainId": 70516,
      "order": 3,
      "showType": "QUEST_HIDDEN",
      "finishCond": [
        {
          "KPGKDHAFHFE": "QUEST_CONTENT_COMPLETE_TALK",
          "param": [
            7051309,
            0
          ]
        }
      ],
      "guide": {},
      "guideHint": {
        "param1": ""
      },
      "finishExec": [
        {
          "KPGKDHAFHFE": "QUEST_EXEC_UNREGISTER_DYNAMIC_GROUP",
          "param": [
            "133001100"
          ]
        }
      ],
      "versionBegin": "",
      "versionEnd": ""
    },
    {
      "subId": 7051603,
      "mainId": 70516,
      "order": 6,
      "showType": "QUEST_HIDDEN",
      "finishCond": [
        {
          "KPGKDHAFHFE": "QUEST_CONTENT_FINISH_PLOT",
          "param": [
            70516,
            0
          ]
        }
      ],
      "guide": {},
      "guideHint": {
        "param1": ""
      },
      "versionBegin": "",
      "versionEnd": ""
    },
    {
      "subId": 7051604,
      "mainId": 70516,
      "order": 7,
      "showType": "QUEST_HIDDEN",
      "finishCond": [
        {
          "KPGKDHAFHFE": "QUEST_CONTENT_FINISH_PLOT",
          "param": [
            70516,
            0
          ]
        }
      ],
      "guide": {},
      "guideHint": {
        "param1": ""
      },
      "finishParent": true,
      "versionBegin": "",
      "versionEnd": ""
    },
    {
      "subId": 7051605,
      "mainId": 70516,
      "order": 8,
      "showType": "QUEST_HIDDEN",
      "finishCond": [
        {
          "KPGKDHAFHFE": "QUEST_CONTENT_FINISH_PLOT",
          "param": [
            7051605,
            0
          ]
        }
      ],
      "guide": {},
      "guideHint": {
        "param1": ""
      },
      "finishParent": true,
      "isRewind": true,
      "versionBegin": "",
      "versionEnd": ""
    },
    {
      "subId": 7051606,
      "mainId": 70516,
      "order": 4,
      "showType": "QUEST_HIDDEN",
      "finishCond": [
        {
          "KPGKDHAFHFE": "QUEST_CONTENT_FINISH_PLOT",
          "param": [
            70516,
            0
          ]
        }
      ],
      "guide": {},
      "guideHint": {
        "param1": ""
      },
      "versionBegin": "",
      "versionEnd": ""
    },
    {
      "subId": 7051607,
      "mainId": 70516,
      "order": 5,
      "showType": "QUEST_HIDDEN",
      "finishCond": [
        {
          "KPGKDHAFHFE": "QUEST_CONTENT_QUEST_STATE_EQUAL",
          "param": [
            7051301,
            2
          ]
        },
        {
          "KPGKDHAFHFE": "QUEST_CONTENT_QUEST_STATE_EQUAL",
          "param": [
            7051301,
            3
          ]
        }
      ],
      "guide": {},
      "guideHint": {
        "param1": ""
      },
      "versionBegin": "",
      "versionEnd": ""
    },
    {
      "subId": 7051608,
      "mainId": 70516,
      "order": 1,
      "showType": "QUEST_HIDDEN",
      "finishCond": [
        {
          "KPGKDHAFHFE": "QUEST_CONTENT_FINISH_PLOT",
          "param": [
            7051608,
            0
          ]
        }
      ],
      "guide": {},
      "guideHint": {
        "param1": ""
      },
      "isRewind": true,
      "versionBegin": "",
      "versionEnd": ""
    }
  ],
  "talks": [
    {
      "id": 7051601,
      "beginWay": "TALK_BEGIN_MANUAL",
      "activeMode": "PLAY_MODE_HOST",
      "beginCond": [
        {
          "type": "QUEST_COND_STATE_EQUAL",
          "_param": [
            "7051604",
            "2"
          ]
        }
      ],
      "priority": 5,
      "initDialog": 705160101,
      "npcId": [
        30195
      ],
      "performCfg": "QuestDialogue/WQ/Mengde_70516/Q7051601",
      "heroTalk": "TALK_HERO_MAIN",
      "questId": 70516,
      "assetIndex": 16284585919629711939,
      "prePerformCfg": ""
    },
    {
      "id": 7051605,
      "beginWay": "TALK_BEGIN_MANUAL",
      "activeMode": "PLAY_MODE_HOST",
      "beginCond": [
        {
          "type": "QUEST_COND_STATE_EQUAL",
          "_param": [
            "7051602",
            "2"
          ]
        }
      ],
      "priority": 5,
      "initDialog": 705160501,
      "npcId": [
        30194
      ],
      "performCfg": "QuestDialogue/WQ/Mengde_70516/Q7051605",
      "heroTalk": "TALK_HERO_MAIN",
      "questId": 70516,
      "assetIndex": 2145573990566422081,
      "prePerformCfg": ""
    },
    {
      "id": 7051607,
      "beginWay": "TALK_BEGIN_MANUAL",
      "activeMode": "PLAY_MODE_HOST",
      "beginCond": [
        {
          "type": "QUEST_COND_STATE_EQUAL",
          "_param": [
            "7051604",
            "2"
          ]
        }
      ],
      "priority": 5,
      "initDialog": 705160701,
      "npcId": [
        30196
      ],
      "performCfg": "QuestDialogue/WQ/Mengde_70516/Q7051607",
      "heroTalk": "TALK_HERO_MAIN",
      "questId": 70516,
      "assetIndex": 1869710934584517114,
      "prePerformCfg": ""
    },
    {
      "id": 7051608,
      "beginWay": "TALK_BEGIN_MANUAL",
      "activeMode": "PLAY_MODE_HOST",
      "beginCond": [
        {
          "type": "QUEST_COND_STATE_EQUAL",
          "_param": [
            "7051604",
            "2"
          ]
        }
      ],
      "priority": 5,
      "initDialog": 705160801,
      "npcId": [
        30197
      ],
      "performCfg": "QuestDialogue/WQ/Mengde_70516/Q7051608",
      "heroTalk": "TALK_HERO_MAIN",
      "questId": 70516,
      "assetIndex": 6138778142337515733,
      "prePerformCfg": ""
    },
    {
      "id": 7051610,
      "beginWay": "TALK_BEGIN_MANUAL",
      "activeMode": "PLAY_MODE_HOST",
      "beginCond": [
        {
          "type": "QUEST_COND_STATE_EQUAL",
          "_param": [
            "7051604",
            "2"
          ]
        }
      ],
      "priority": 5,
      "initDialog": 705161001,
      "npcId": [
        30198
      ],
      "performCfg": "QuestDialogue/WQ/Mengde_70516/Q7051610",
      "heroTalk": "TALK_HERO_MAIN",
      "questId": 70516,
      "assetIndex": 1053289388582138184,
      "prePerformCfg": ""
    },
    {
      "id": 7051611,
      "beginWay": "TALK_BEGIN_MANUAL",
      "activeMode": "PLAY_MODE_HOST",
      "beginCond": [
        {
          "type": "QUEST_COND_STATE_EQUAL",
          "_param": [
            "7051604",
            "2"
          ]
        }
      ],
      "priority": 5,
      "initDialog": 705161101,
      "npcId": [
        30202
      ],
      "performCfg": "QuestDialogue/WQ/Mengde_70516/Q7051611",
      "heroTalk": "TALK_HERO_MAIN",
      "questId": 70516,
      "assetIndex": 17088456713166182747,
      "prePerformCfg": ""
    },
    {
      "id": 7051612,
      "beginWay": "TALK_BEGIN_MANUAL",
      "activeMode": "PLAY_MODE_HOST",
      "beginCond": [
        {
          "type": "QUEST_COND_STATE_EQUAL",
          "_param": [
            "7051604",
            "2"
          ]
        }
      ],
      "priority": 5,
      "initDialog": 705161201,
      "npcId": [
        30199
      ],
      "performCfg": "QuestDialogue/WQ/Mengde_70516/Q7051612",
      "heroTalk": "TALK_HERO_MAIN",
      "questId": 70516,
      "assetIndex": 13586009445482778635,
      "prePerformCfg": ""
    },
    {
      "id": 7051613,
      "beginWay": "TALK_BEGIN_MANUAL",
      "activeMode": "PLAY_MODE_HOST",
      "beginCond": [
        {
          "type": "QUEST_COND_STATE_EQUAL",
          "_param": [
            "7051604",
            "2"
          ]
        }
      ],
      "priority": 5,
      "initDialog": 705161301,
      "npcId": [
        30200
      ],
      "performCfg": "QuestDialogue/WQ/Mengde_70516/Q7051613",
      "heroTalk": "TALK_HERO_MAIN",
      "questId": 70516,
      "assetIndex": 7958043618686851499,
      "prePerformCfg": ""
    },
    {
      "id": 7051614,
      "beginWay": "TALK_BEGIN_MANUAL",
      "activeMode": "PLAY_MODE_HOST",
      "beginCond": [
        {
          "type": "QUEST_COND_STATE_EQUAL",
          "_param": [
            "7051604",
            "2"
          ]
        }
      ],
      "priority": 5,
      "initDialog": 705161401,
      "npcId": [
        30201
      ],
      "performCfg": "QuestDialogue/WQ/Mengde_70516/Q7051614",
      "heroTalk": "TALK_HERO_MAIN",
      "questId": 70516,
      "assetIndex": 16371633605945641187,
      "prePerformCfg": ""
    },
    {
      "id": 7051615,
      "beginWay": "TALK_BEGIN_MANUAL",
      "activeMode": "PLAY_MODE_HOST",
      "beginCond": [
        {
          "type": "QUEST_COND_STATE_EQUAL",
          "_param": [
            "7051604",
            "2"
          ]
        }
      ],
      "priority": 5,
      "nextTalks": [
        7051618,
        7051619,
        7051620,
        7051616,
        7051617,
        7051621
      ],
      "initDialog": 705161501,
      "npcId": [
        30242
      ],
      "performCfg": "QuestDialogue/WQ/Mengde_70516/Q7051615",
      "heroTalk": "TALK_HERO_MAIN",
      "questId": 70516,
      "assetIndex": 17744183096169834113,
      "prePerformCfg": ""
    },
    {
      "id": 7051616,
      "beginWay": "TALK_BEGIN_MANUAL",
      "activeMode": "PLAY_MODE_HOST",
      "beginCond": [
        {
          "type": "QUEST_COND_STATE_EQUAL",
          "_param": [
            "7051604",
            "2"
          ]
        }
      ],
      "priority": 5,
      "initDialog": 705132001,
      "npcId": [
        30192
      ],
      "performCfg": "QuestDialogue/WQ/Mengde_70513/Q7051332",
      "heroTalk": "TALK_HERO_MAIN",
      "questId": 70516,
      "assetIndex": 13624900090713521272,
      "prePerformCfg": ""
    },
    {
      "id": 7051617,
      "beginWay": "TALK_BEGIN_MANUAL",
      "activeMode": "PLAY_MODE_HOST",
      "beginCond": [
        {
          "type": "QUEST_COND_STATE_EQUAL",
          "_param": [
            "7051604",
            "2"
          ]
        }
      ],
      "priority": 5,
      "initDialog": 705132101,
      "npcId": [
        30192
      ],
      "performCfg": "QuestDialogue/WQ/Mengde_70513/Q7051333",
      "heroTalk": "TALK_HERO_MAIN",
      "questId": 70516,
      "assetIndex": 17011011723720672675,
      "prePerformCfg": ""
    },
    {
      "id": 7051618,
      "beginWay": "TALK_BEGIN_MANUAL",
      "activeMode": "PLAY_MODE_HOST",
      "beginCond": [
        {
          "type": "QUEST_COND_STATE_EQUAL",
          "_param": [
            "7051604",
            "2"
          ]
        }
      ],
      "priority": 5,
      "initDialog": 705132201,
      "npcId": [
        30192
      ],
      "performCfg": "QuestDialogue/WQ/Mengde_70513/Q7051334",
      "heroTalk": "TALK_HERO_MAIN",
      "questId": 70516,
      "assetIndex": 12871285670811590687,
      "prePerformCfg": ""
    },
    {
      "id": 7051619,
      "beginWay": "TALK_BEGIN_MANUAL",
      "activeMode": "PLAY_MODE_HOST",
      "beginCond": [
        {
          "type": "QUEST_COND_STATE_EQUAL",
          "_param": [
            "7051604",
            "2"
          ]
        }
      ],
      "priority": 5,
      "initDialog": 705132301,
      "npcId": [
        30192
      ],
      "performCfg": "QuestDialogue/WQ/Mengde_70513/Q7051335",
      "heroTalk": "TALK_HERO_MAIN",
      "questId": 70516,
      "assetIndex": 11374568352513105599,
      "prePerformCfg": ""
    },
    {
      "id": 7051620,
      "beginWay": "TALK_BEGIN_MANUAL",
      "activeMode": "PLAY_MODE_HOST",
      "beginCond": [
        {
          "type": "QUEST_COND_STATE_EQUAL",
          "_param": [
            "7051604",
            "2"
          ]
        }
      ],
      "priority": 5,
      "initDialog": 705132401,
      "npcId": [
        30192
      ],
      "performCfg": "QuestDialogue/WQ/Mengde_70513/Q7051336",
      "heroTalk": "TALK_HERO_MAIN",
      "questId": 70516,
      "assetIndex": 12510201769304102270,
      "prePerformCfg": ""
    },
    {
      "id": 7051621,
      "beginWay": "TALK_BEGIN_MANUAL",
      "activeMode": "PLAY_MODE_HOST",
      "beginCond": [
        {
          "type": "QUEST_COND_STATE_EQUAL",
          "_param": [
            "7051604",
            "2"
          ]
        }
      ],
      "priority": 5,
      "initDialog": 705132501,
      "npcId": [
        30192
      ],
      "performCfg": "QuestDialogue/WQ/Mengde_70513/Q7051337",
      "heroTalk": "TALK_HERO_MAIN",
      "questId": 70516,
      "assetIndex": 8657215606810047621,
      "prePerformCfg": ""
    }
  ]
}