{
  "id": 70527,
  "KPGKDHAFHFE": "WQ",
  "mainQuestTag": "MAINQUEST_TAG_GUIDE",
  "titleTextMapHash": 180404023,
  "descTextMapHash": 2954578566,
  "luaPath": "Actor/Quest/WQ70527",
  "rewardIdList": [
    170527
  ],
  "showRedPoint": true,
  "activityId": 5125,
  "subQuests": [
    {
      "subId": 7052701,
      "mainId": 70527,
      "order": 1,
      "descTextMapHash": 1555373260,
      "finishCond": [
        {
          "KPGKDHAFHFE": "QUEST_CONTENT_FINISH_PLOT",
          "param": [
            7052701,
            0
          ]
        }
      ],
      "guide": {
        "KPGKDHAFHFE": "QUEST_GUIDE_NPC",
        "param": [
          "30159"
        ],
        "guideScene": 3,
        "guideStyle": "QUEST_GUIDE_STYLE_TARGET",
        "guideLayer": "QUEST_GUIDE_LAYER_SCENE"
      },
      "guideHint": {
        "param1": ""
      },
      "isRewind": true,
      "versionBegin": "",
      "versionEnd": ""
    },
    {
      "subId": 7052702,
      "mainId": 70527,
      "order": 2,
      "descTextMapHash": 3556048836,
      "finishCond": [
        {
          "KPGKDHAFHFE": "QUEST_CONTENT_COMPLETE_TALK",
          "param": [
            7052701,
            0
          ]
        }
      ],
      "guide": {
        "KPGKDHAFHFE": "QUEST_GUIDE_NPC",
        "param": [
          "30159"
        ],
        "guideScene": 3,
        "guideStyle": "QUEST_GUIDE_STYLE_TARGET",
        "guideLayer": "QUEST_GUIDE_LAYER_SCENE"
      },
      "guideHint": {
        "param1": ""
      },
      "finishParent": true,
      "isRewind": true,
      "versionBegin": "",
      "versionEnd": ""
    }
  ],
  "talks": [
    {
      "id": 7052701,
      "beginWay": "TALK_BEGIN_MANUAL",
      "beginCond": [
        {
          "type": "QUEST_COND_STATE_EQUAL",
          "_param": [
            "7052702",
            "2"
          ]
        }
      ],
      "priority": 5,
      "initDialog": 705270101,
      "npcId": [
        30159,
        1419
      ],
      "performCfg": "QuestDialogue/WQ/Mengde_70527/Q7052701",
      "heroTalk": "TALK_HERO_MAIN",
      "questId": 70527,
      "assetIndex": 9241059459644924117,
      "prePerformCfg": ""
    }
  ],
  "preloadLuaList": [
    5256158677191109750
  ],
  "forcePreloadLuaList": [
    15174437337102960039
  ],
  "freeStyleDic": {
    "30159": [
      1170
    ]
  }
}