{
  "id": 70520,
  "KPGKDHAFHFE": "WQ",
  "mainQuestTag": "MAINQUEST_TAG_GUIDE",
  "activeMode": "PLAY_MODE_ALL",
  "titleTextMapHash": 3372725047,
  "descTextMapHash": 2727152582,
  "luaPath": "Actor/Quest/WQ70520",
  "rewardIdList": [
    170520
  ],
  "showRedPoint": true,
  "activityId": 2016,
  "subQuests": [
    {
      "subId": 7052001,
      "mainId": 70520,
      "order": 1,
      "descTextMapHash": 3488558932,
      "finishCond": [
        {
          "KPGKDHAFHFE": "QUEST_CONTENT_COMPLETE_TALK",
          "param": [
            7052001,
            0
          ]
        }
      ],
      "guide": {
        "KPGKDHAFHFE": "QUEST_GUIDE_LOCATION",
        "autoGuide": "QUEST_GUIDE_AUTO_ENABLE",
        "param": [
          "Q7052001_N30234",
          "0"
        ],
        "guideScene": 3,
        "guideStyle": "QUEST_GUIDE_STYLE_POINT",
        "guideLayer": "QUEST_GUIDE_LAYER_SCENE"
      },
      "guideHint": {
        "param1": ""
      },
      "finishParent": true,
      "isRewind": true,
      "versionBegin": "",
      "versionEnd": ""
    }
  ],
  "talks": [
    {
      "id": 7052001,
      "beginWay": "TALK_BEGIN_MANUAL",
      "activeMode": "PLAY_MODE_ALL",
      "beginCond": [
        {
          "type": "QUEST_COND_STATE_EQUAL",
          "_param": [
            "7052001",
            "2"
          ]
        }
      ],
      "priority": 5,
      "initDialog": 705200101,
      "npcId": [
        30234,
        30243,
        30244,
        1018
      ],
      "performCfg": "QuestDialogue/WQ/Vintage_70520/Q7052001",
      "questId": 70520,
      "assetIndex": 11276411278050689711,
      "prePerformCfg": ""
    },
    {
      "id": 7052002,
      "activeMode": "PLAY_MODE_ALL",
      "beginCond": [
        {
          "type": "QUEST_COND_STATE_EQUAL",
          "_param": [
            "7052001",
            "2"
          ]
        }
      ],
      "priority": 7,
      "initDialog": 705200201,
      "npcId": [
        30234
      ],
      "performCfg": "",
      "questId": 70520,
      "assetIndex": 201519068814204357,
      "prePerformCfg": ""
    }
  ]
}