{
  "id": 70542,
  "KPGKDHAFHFE": "WQ",
  "titleTextMapHash": 3799081631,
  "descTextMapHash": 3530296630,
  "luaPath": "Actor/Quest/WQ70542",
  "showType": "QUEST_HIDDEN",
  "activityId": 5183,
  "subQuests": [
    {
      "subId": 7054201,
      "mainId": 70542,
      "order": 1,
      "descTextMapHash": 43114236,
      "showType": "QUEST_HIDDEN",
      "finishCond": [
        {
          "KPGKDHAFHFE": "QUEST_CONTENT_COMPLETE_TALK",
          "param": [
            7054201,
            0
          ]
        }
      ],
      "guide": {},
      "guideHint": {
        "param1": ""
      },
      "finishParent": true,
      "isRewind": true,
      "versionBegin": "",
      "versionEnd": ""
    }
  ],
  "talks": [
    {
      "id": 7054201,
      "beginWay": "TALK_BEGIN_MANUAL",
      "beginCond": [
        {
          "type": "QUEST_COND_STATE_EQUAL",
          "_param": [
            "7054201",
            "2"
          ]
        }
      ],
      "priority": 5,
      "initDialog": 705420101,
      "npcId": [
        30521
      ],
      "performCfg": "QuestDialogue/WQ/V4.5CatCafe_70539/Q7054201",
      "heroTalk": "TALK_HERO_MAIN",
      "questId": 70542,
      "assetIndex": 11528055842470754101,
      "prePerformCfg": "",
      "lockGameTime": true,
      "forceNpcNotDestroy": true,
      "PLPFOOINAAJ": [
        "[1090_11:11.968,0.007,11.277,0.000,329.130,0.000]",
        "[1090_18:9.414,0.000,10.610,0.000,40.450,0.000]"
      ]
    }
  ],
  "DDHNEIEDLJA": true
}