{
  "id": 70545,
  "KPGKDHAFHFE": "WQ",
  "titleTextMapHash": 1841739871,
  "descTextMapHash": 479432542,
  "luaPath": "Actor/Quest/WQ70545",
  "showType": "QUEST_HIDDEN",
  "activityId": 5183,
  "subQuests": [
    {
      "subId": 7054501,
      "mainId": 70545,
      "order": 1,
      "descTextMapHash": 744557644,
      "showType": "QUEST_HIDDEN",
      "finishCond": [
        {
          "KPGKDHAFHFE": "QUEST_CONTENT_COMPLETE_TALK",
          "param": [
            7054501,
            0
          ]
        }
      ],
      "guide": {},
      "guideHint": {
        "param1": ""
      },
      "finishParent": true,
      "isRewind": true,
      "versionBegin": "",
      "versionEnd": ""
    }
  ],
  "talks": [
    {
      "id": 7054501,
      "beginWay": "TALK_BEGIN_MANUAL",
      "beginCond": [
        {
          "type": "QUEST_COND_STATE_EQUAL",
          "_param": [
            "7054501",
            "2"
          ]
        }
      ],
      "priority": 5,
      "initDialog": 705450101,
      "npcId": [
        30523
      ],
      "performCfg": "QuestDialogue/WQ/V4.5CatCafe_70539/Q7054501",
      "heroTalk": "TALK_HERO_MAIN",
      "questId": 70545,
      "assetIndex": 7493699212169422037,
      "prePerformCfg": "",
      "lockGameTime": true,
      "forceNpcNotDestroy": true,
      "PLPFOOINAAJ": [
        "[1090_12:16.632,0.000,9.762,0.000,146.690,0.000]",
        "[1090_13:17.886,0.009,8.465,0.000,318.360,0.000]",
        "[1090_8:16.388,0.009,8.303,0.000,52.710,0.000]"
      ]
    }
  ],
  "DDHNEIEDLJA": true
}