{
  "id": 70664,
  "KPGKDHAFHFE": "WQ",
  "mainQuestTag": "MAINQUEST_TAG_GUIDE",
  "titleTextMapHash": 1106775007,
  "descTextMapHash": 3678800334,
  "luaPath": "Actor/Quest/WQ70664",
  "rewardIdList": [
    170664
  ],
  "showRedPoint": true,
  "activityId": 5095,
  "subQuests": [
    {
      "subId": 7066401,
      "mainId": 70664,
      "order": 1,
      "descTextMapHash": 4291538836,
      "finishCond": [
        {
          "KPGKDHAFHFE": "QUEST_CONTENT_COMPLETE_TALK",
          "param": [
            7066401,
            0
          ]
        }
      ],
      "guide": {
        "KPGKDHAFHFE": "QUEST_GUIDE_NPC",
        "param": [
          "30153"
        ],
        "guideScene": 3,
        "guideStyle": "QUEST_GUIDE_STYLE_TARGET",
        "guideLayer": "QUEST_GUIDE_LAYER_SCENE"
      },
      "guideHint": {
        "param1": ""
      },
      "finishParent": true,
      "isRewind": true,
      "versionBegin": "",
      "versionEnd": ""
    }
  ],
  "talks": [
    {
      "id": 7066401,
      "beginWay": "TALK_BEGIN_MANUAL",
      "beginCond": [
        {
          "type": "QUEST_COND_STATE_EQUAL",
          "_param": [
            "7066401",
            "2"
          ]
        }
      ],
      "priority": 5,
      "initDialog": 706640101,
      "npcId": [
        30153
      ],
      "performCfg": "QuestDialogue/WQ/Mengde_70664/Q7066401",
      "questId": 70664,
      "assetIndex": 13013555713818421536,
      "prePerformCfg": ""
    }
  ],
  "freeStyleDic": {
    "30153": [
      1240
    ]
  }
}