{
  "id": 70708,
  "KPGKDHAFHFE": "WQ",
  "mainQuestTag": "MAINQUEST_TAG_REPUTATION",
  "titleTextMapHash": 3705599111,
  "descTextMapHash": 2150702902,
  "luaPath": "Actor/Quest/WQ70708",
  "subQuests": [
    {
      "subId": 7070801,
      "mainId": 70708,
      "order": 1,
      "descTextMapHash": 2594202340,
      "finishCond": [
        {
          "KPGKDHAFHFE": "QUEST_CONTENT_FINISH_ITEM_GIVING",
          "param": [
            7070801,
            0
          ]
        }
      ],
      "guide": {
        "KPGKDHAFHFE": "QUEST_GUIDE_NPC",
        "param": [
          "1643"
        ],
        "guideScene": 3,
        "guideLayer": "QUEST_GUIDE_LAYER_SCENE"
      },
      "guideHint": {
        "param1": ""
      },
      "isRewind": true,
      "versionBegin": "",
      "versionEnd": ""
    },
    {
      "subId": 7070802,
      "mainId": 70708,
      "order": 2,
      "descTextMapHash": 2984156844,
      "finishCond": [
        {
          "KPGKDHAFHFE": "QUEST_CONTENT_COMPLETE_TALK",
          "param": [
            7070802,
            0
          ]
        }
      ],
      "guide": {
        "KPGKDHAFHFE": "QUEST_GUIDE_NPC",
        "param": [
          "1643"
        ],
        "guideScene": 3,
        "guideLayer": "QUEST_GUIDE_LAYER_SCENE"
      },
      "guideHint": {
        "param1": ""
      },
      "finishParent": true,
      "isRewind": true,
      "versionBegin": "",
      "versionEnd": ""
    }
  ],
  "talks": [
    {
      "id": 7070801,
      "beginWay": "TALK_BEGIN_MANUAL",
      "beginCondComb": "LOGIC_AND",
      "beginCond": [
        {
          "type": "QUEST_COND_STATE_EQUAL",
          "_param": [
            "7070801",
            "2"
          ]
        },
        {
          "type": "QUEST_COND_ITEM_GIVING_ACTIVED",
          "_param": [
            "7070801"
          ]
        }
      ],
      "priority": 1,
      "initDialog": 707080101,
      "npcId": [
        1643
      ],
      "performCfg": "",
      "questId": 70708,
      "assetIndex": 13090400539705474582,
      "dontBlockDaily": true,
      "prePerformCfg": ""
    },
    {
      "id": 7070802,
      "beginWay": "TALK_BEGIN_AUTO",
      "beginCond": [
        {
          "type": "QUEST_COND_STATE_EQUAL",
          "_param": [
            "7070802",
            "2"
          ]
        }
      ],
      "priority": 1,
      "initDialog": 707080201,
      "npcId": [
        1643
      ],
      "performCfg": "",
      "questId": 70708,
      "assetIndex": 1459508740733380001,
      "prePerformCfg": ""
    }
  ]
}