{
  "id": 70803,
  "KPGKDHAFHFE": "WQ",
  "activeMode": "PLAY_MODE_ALL",
  "titleTextMapHash": 3337444231,
  "descTextMapHash": 2953401558,
  "luaPath": "Actor/Quest/WQ70803",
  "rewardIdList": [
    170803
  ],
  "subQuests": [
    {
      "subId": 7080301,
      "mainId": 70803,
      "order": 1,
      "descTextMapHash": 2579784724,
      "showType": "QUEST_HIDDEN",
      "finishCond": [
        {
          "KPGKDHAFHFE": "QUEST_CONTENT_TIME_VAR_PASS_DAY",
          "param": [
            70802,
            1
          ]
        }
      ],
      "guide": {},
      "guideHint": {
        "param1": ""
      },
      "failParentShow": "QUEST_HIDDEN",
      "isRewind": true,
      "finishExec": [
        {
          "KPGKDHAFHFE": "QUEST_EXEC_CLEAR_TIME_VAR",
          "param": [
            "70802",
            "1"
          ]
        }
      ],
      "versionBegin": "",
      "versionEnd": ""
    },
    {
      "subId": 7080302,
      "mainId": 70803,
      "order": 2,
      "descTextMapHash": 105946012,
      "finishCond": [
        {
          "KPGKDHAFHFE": "QUEST_CONTENT_COMPLETE_TALK",
          "param": [
            7080301,
            0
          ]
        }
      ],
      "guide": {
        "KPGKDHAFHFE": "QUEST_GUIDE_LOCATION",
        "autoGuide": "QUEST_GUIDE_AUTO_ENABLE",
        "param": [
          "Q7080302_guide",
          "20"
        ],
        "guideScene": 3,
        "guideStyle": "QUEST_GUIDE_STYLE_TARGET",
        "guideLayer": "QUEST_GUIDE_LAYER_SCENE"
      },
      "guideHint": {
        "param1": ""
      },
      "finishParent": true,
      "isRewind": true,
      "finishExec": [
        {
          "KPGKDHAFHFE": "QUEST_EXEC_SET_QUEST_GLOBAL_VAR",
          "param": [
            "40029",
            "1"
          ]
        }
      ],
      "versionBegin": "",
      "versionEnd": ""
    }
  ],
  "talks": [
    {
      "id": 7080301,
      "beginWay": "TALK_BEGIN_MANUAL",
      "activeMode": "PLAY_MODE_HOST",
      "beginCond": [
        {
          "type": "QUEST_COND_STATE_EQUAL",
          "_param": [
            "7080302",
            "2"
          ]
        }
      ],
      "priority": 5,
      "initDialog": 708030101,
      "npcId": [
        1577,
        1668,
        1674,
        1409
      ],
      "performCfg": "QuestDialogue/WQ/Mengde_70803/Q7080301",
      "heroTalk": "TALK_HERO_MAIN",
      "questId": 70803,
      "assetIndex": 2765321175711413197,
      "prePerformCfg": ""
    }
  ],
  "preloadLuaList": [
    12911603319647084221
  ],
  "forcePreloadLuaList": [
    16295542556749506699
  ]
}