{
  "id": 70802,
  "KPGKDHAFHFE": "WQ",
  "activeMode": "PLAY_MODE_ALL",
  "titleTextMapHash": 1751061447,
  "descTextMapHash": 2454922134,
  "luaPath": "Actor/Quest/WQ70802",
  "rewardIdList": [
    170802
  ],
  "subQuests": [
    {
      "subId": 7080201,
      "mainId": 70802,
      "order": 1,
      "descTextMapHash": 143069420,
      "showType": "QUEST_HIDDEN",
      "finishCond": [
        {
          "KPGKDHAFHFE": "QUEST_CONTENT_TIME_VAR_PASS_DAY",
          "param": [
            70804,
            0
          ]
        }
      ],
      "guide": {},
      "showGuide": "QUEST_GUIDE_ITEM_DISABLE",
      "guideHint": {
        "param1": ""
      },
      "failParentShow": "QUEST_HIDDEN",
      "isRewind": true,
      "finishExec": [
        {
          "KPGKDHAFHFE": "QUEST_EXEC_CLEAR_TIME_VAR",
          "param": [
            "70804",
            "0"
          ]
        }
      ],
      "versionBegin": "",
      "versionEnd": ""
    },
    {
      "subId": 7080202,
      "mainId": 70802,
      "order": 2,
      "descTextMapHash": 3884448948,
      "finishCond": [
        {
          "KPGKDHAFHFE": "QUEST_CONTENT_COMPLETE_TALK",
          "param": [
            7080201,
            0
          ]
        }
      ],
      "guide": {
        "KPGKDHAFHFE": "QUEST_GUIDE_NPC",
        "autoGuide": "QUEST_GUIDE_AUTO_ENABLE",
        "param": [
          "1668"
        ],
        "guideScene": 3,
        "guideStyle": "QUEST_GUIDE_STYLE_START",
        "guideLayer": "QUEST_GUIDE_LAYER_SCENE"
      },
      "guideHint": {
        "param1": ""
      },
      "isRewind": true,
      "versionBegin": "",
      "versionEnd": ""
    },
    {
      "subId": 7080203,
      "mainId": 70802,
      "order": 3,
      "descTextMapHash": 3139610012,
      "finishCond": [
        {
          "KPGKDHAFHFE": "QUEST_CONTENT_COMPLETE_TALK",
          "param": [
            7080202,
            0
          ]
        }
      ],
      "guide": {
        "KPGKDHAFHFE": "QUEST_GUIDE_NPC",
        "param": [
          "1409"
        ],
        "guideScene": 3,
        "guideStyle": "QUEST_GUIDE_STYLE_TARGET",
        "guideLayer": "QUEST_GUIDE_LAYER_SCENE"
      },
      "guideHint": {
        "param1": ""
      },
      "isRewind": true,
      "versionBegin": "",
      "versionEnd": ""
    },
    {
      "subId": 7080204,
      "mainId": 70802,
      "order": 4,
      "descTextMapHash": 3785935700,
      "finishCond": [
        {
          "KPGKDHAFHFE": "QUEST_CONTENT_FINISH_PLOT",
          "param": [
            7080204,
            0
          ]
        }
      ],
      "guide": {
        "KPGKDHAFHFE": "QUEST_GUIDE_LOCATION",
        "autoGuide": "QUEST_GUIDE_AUTO_ENABLE",
        "param": [
          "Q7080204_guide",
          "0"
        ],
        "guideScene": 3,
        "guideStyle": "QUEST_GUIDE_STYLE_POINT",
        "guideLayer": "QUEST_GUIDE_LAYER_SCENE"
      },
      "guideHint": {
        "param1": ""
      },
      "isRewind": true,
      "versionBegin": "",
      "versionEnd": ""
    },
    {
      "subId": 7080205,
      "mainId": 70802,
      "order": 5,
      "descTextMapHash": 2313359100,
      "finishCond": [
        {
          "KPGKDHAFHFE": "QUEST_CONTENT_LUA_NOTIFY",
          "param": [
            0,
            0
          ],
          "count": 1
        }
      ],
      "guide": {
        "KPGKDHAFHFE": "QUEST_GUIDE_LOCATION",
        "autoGuide": "QUEST_GUIDE_AUTO_ENABLE",
        "param": [
          "Q7080205_guide",
          "40"
        ],
        "guideScene": 3,
        "guideStyle": "QUEST_GUIDE_STYLE_TARGET",
        "guideLayer": "QUEST_GUIDE_LAYER_SCENE"
      },
      "guideHint": {
        "param1": ""
      },
      "versionBegin": "",
      "versionEnd": ""
    },
    {
      "subId": 7080206,
      "mainId": 70802,
      "order": 6,
      "descTextMapHash": 3948586836,
      "finishCond": [
        {
          "KPGKDHAFHFE": "QUEST_CONTENT_COMPLETE_TALK",
          "param": [
            7080203,
            0
          ]
        }
      ],
      "guide": {
        "KPGKDHAFHFE": "QUEST_GUIDE_NPC",
        "autoGuide": "QUEST_GUIDE_AUTO_ENABLE",
        "param": [
          "1577"
        ],
        "guideScene": 3,
        "guideStyle": "QUEST_GUIDE_STYLE_TARGET",
        "guideLayer": "QUEST_GUIDE_LAYER_SCENE"
      },
      "guideHint": {
        "param1": ""
      },
      "isRewind": true,
      "finishExec": [
        {
          "KPGKDHAFHFE": "QUEST_EXEC_UNREGISTER_DYNAMIC_GROUP",
          "param": [
            "133105073"
          ]
        }
      ],
      "versionBegin": "",
      "versionEnd": ""
    },
    {
      "subId": 7080207,
      "mainId": 70802,
      "order": 7,
      "descTextMapHash": 3671326268,
      "finishCond": [
        {
          "KPGKDHAFHFE": "QUEST_CONTENT_COMPLETE_TALK",
          "param": [
            7080204,
            0
          ]
        }
      ],
      "guide": {
        "KPGKDHAFHFE": "QUEST_GUIDE_NPC",
        "autoGuide": "QUEST_GUIDE_AUTO_ENABLE",
        "param": [
          "1409"
        ],
        "guideScene": 3,
        "guideStyle": "QUEST_GUIDE_STYLE_TARGET",
        "guideLayer": "QUEST_GUIDE_LAYER_SCENE"
      },
      "guideHint": {
        "param1": ""
      },
      "isRewind": true,
      "versionBegin": "",
      "versionEnd": ""
    },
    {
      "subId": 7080208,
      "mainId": 70802,
      "order": 8,
      "descTextMapHash": 566560596,
      "finishCond": [
        {
          "KPGKDHAFHFE": "QUEST_CONTENT_COMPLETE_TALK",
          "param": [
            7080205,
            0
          ]
        }
      ],
      "guide": {
        "KPGKDHAFHFE": "QUEST_GUIDE_NPC",
        "autoGuide": "QUEST_GUIDE_AUTO_ENABLE",
        "param": [
          "1668"
        ],
        "guideScene": 3,
        "guideStyle": "QUEST_GUIDE_STYLE_FINISH",
        "guideLayer": "QUEST_GUIDE_LAYER_SCENE"
      },
      "guideHint": {
        "param1": ""
      },
      "finishParent": true,
      "isRewind": true,
      "finishExec": [
        {
          "KPGKDHAFHFE": "QUEST_EXEC_INIT_TIME_VAR",
          "param": [
            "1"
          ]
        }
      ],
      "versionBegin": "",
      "versionEnd": ""
    }
  ],
  "talks": [
    {
      "id": 7080201,
      "beginWay": "TALK_BEGIN_MANUAL",
      "activeMode": "PLAY_MODE_HOST",
      "beginCond": [
        {
          "type": "QUEST_COND_STATE_EQUAL",
          "_param": [
            "7080202",
            "2"
          ]
        }
      ],
      "priority": 5,
      "initDialog": 708020101,
      "npcId": [
        1668
      ],
      "performCfg": "",
      "heroTalk": "TALK_HERO_MAIN",
      "questId": 70802,
      "assetIndex": 6303777485624527815,
      "prePerformCfg": "",
      "freeStyleList": [
        9000
      ]
    },
    {
      "id": 7080202,
      "beginWay": "TALK_BEGIN_MANUAL",
      "activeMode": "PLAY_MODE_HOST",
      "beginCond": [
        {
          "type": "QUEST_COND_STATE_EQUAL",
          "_param": [
            "7080203",
            "2"
          ]
        }
      ],
      "priority": 5,
      "initDialog": 708020201,
      "npcId": [
        1409,
        1577
      ],
      "performCfg": "QuestDialogue/WQ/Mengde_70802/Q7080202",
      "heroTalk": "TALK_HERO_MAIN",
      "questId": 70802,
      "assetIndex": 10170723459250343816,
      "prePerformCfg": ""
    },
    {
      "id": 7080203,
      "beginWay": "TALK_BEGIN_MANUAL",
      "activeMode": "PLAY_MODE_HOST",
      "beginCond": [
        {
          "type": "QUEST_COND_STATE_EQUAL",
          "_param": [
            "7080206",
            "2"
          ]
        }
      ],
      "priority": 5,
      "initDialog": 708020301,
      "npcId": [
        1577
      ],
      "performCfg": "QuestDialogue/WQ/Mengde_70802/Q7080203",
      "heroTalk": "TALK_HERO_MAIN",
      "questId": 70802,
      "assetIndex": 6901119331448530384,
      "prePerformCfg": "",
      "lockGameTime": true
    },
    {
      "id": 7080204,
      "beginWay": "TALK_BEGIN_MANUAL",
      "activeMode": "PLAY_MODE_HOST",
      "beginCond": [
        {
          "type": "QUEST_COND_STATE_EQUAL",
          "_param": [
            "7080207",
            "2"
          ]
        }
      ],
      "priority": 5,
      "initDialog": 708020401,
      "npcId": [
        1409
      ],
      "performCfg": "",
      "heroTalk": "TALK_HERO_MAIN",
      "questId": 70802,
      "assetIndex": 9317131622424949415,
      "prePerformCfg": ""
    },
    {
      "id": 7080205,
      "beginWay": "TALK_BEGIN_MANUAL",
      "activeMode": "PLAY_MODE_HOST",
      "beginCond": [
        {
          "type": "QUEST_COND_STATE_EQUAL",
          "_param": [
            "7080208",
            "2"
          ]
        }
      ],
      "priority": 5,
      "initDialog": 708020501,
      "npcId": [
        1668
      ],
      "performCfg": "QuestDialogue/WQ/Mengde_70802/Q7080205",
      "heroTalk": "TALK_HERO_MAIN",
      "questId": 70802,
      "assetIndex": 4601333891234420693,
      "prePerformCfg": ""
    },
    {
      "id": 7080206,
      "beginWay": "TALK_BEGIN_MANUAL",
      "activeMode": "PLAY_MODE_HOST",
      "beginCondComb": "LOGIC_OR",
      "beginCond": [
        {
          "type": "QUEST_COND_STATE_EQUAL",
          "_param": [
            "7080203",
            "2"
          ]
        },
        {
          "type": "QUEST_COND_STATE_EQUAL",
          "_param": [
            "7080204",
            "2"
          ]
        },
        {
          "type": "QUEST_COND_STATE_EQUAL",
          "_param": [
            "7080205",
            "2"
          ]
        },
        {
          "type": "QUEST_COND_STATE_EQUAL",
          "_param": [
            "7080206",
            "2"
          ]
        },
        {
          "type": "QUEST_COND_STATE_EQUAL",
          "_param": [
            "7080207",
            "2"
          ]
        }
      ],
      "priority": 3,
      "initDialog": 708020601,
      "npcId": [
        1668
      ],
      "performCfg": "",
      "heroTalk": "TALK_HERO_MAIN",
      "questId": 70802,
      "assetIndex": 1701737064977716410,
      "prePerformCfg": "",
      "lowPriority": true,
      "freeStyleList": [
        9000
      ]
    },
    {
      "id": 7080207,
      "beginWay": "TALK_BEGIN_MANUAL",
      "activeMode": "PLAY_MODE_HOST",
      "beginCondComb": "LOGIC_OR",
      "beginCond": [
        {
          "type": "QUEST_COND_STATE_EQUAL",
          "_param": [
            "7080204",
            "2"
          ]
        },
        {
          "type": "QUEST_COND_STATE_EQUAL",
          "_param": [
            "7080205",
            "2"
          ]
        },
        {
          "type": "QUEST_COND_STATE_EQUAL",
          "_param": [
            "7080206",
            "2"
          ]
        }
      ],
      "priority": 3,
      "initDialog": 708020701,
      "npcId": [
        1409
      ],
      "performCfg": "",
      "heroTalk": "TALK_HERO_MAIN",
      "questId": 70802,
      "assetIndex": 16532717776961951037,
      "prePerformCfg": "",
      "lowPriority": true,
      "freeStyleList": [
        9000
      ]
    },
    {
      "id": 7080208,
      "beginWay": "TALK_BEGIN_MANUAL",
      "activeMode": "PLAY_MODE_HOST",
      "beginCond": [
        {
          "type": "QUEST_COND_STATE_EQUAL",
          "_param": [
            "7080208",
            "2"
          ]
        }
      ],
      "priority": 3,
      "initDialog": 708020801,
      "npcId": [
        1409
      ],
      "performCfg": "",
      "heroTalk": "TALK_HERO_MAIN",
      "questId": 70802,
      "assetIndex": 4948093942952020945,
      "prePerformCfg": "",
      "lowPriority": true,
      "freeStyleList": [
        9000
      ]
    }
  ],
  "preloadLuaList": [
    12874405991699768456,
    4785952031433464101
  ],
  "forcePreloadLuaList": [
    9683218805785328464
  ]
}