{
  "id": 70926,
  "KPGKDHAFHFE": "WQ",
  "titleTextMapHash": 3748798639,
  "descTextMapHash": 1628910878,
  "luaPath": "",
  "rewardIdList": [
    551024
  ],
  "showType": "QUEST_HIDDEN",
  "subQuests": [
    {
      "subId": 7092601,
      "mainId": 70926,
      "order": 1,
      "showType": "QUEST_HIDDEN",
      "finishCond": [
        {
          "KPGKDHAFHFE": "QUEST_CONTENT_COMPLETE_TALK",
          "param": [
            7092601,
            0
          ]
        }
      ],
      "guide": {},
      "guideHint": {
        "param1": ""
      },
      "finishParent": true,
      "versionBegin": "",
      "versionEnd": ""
    }
  ]
}