{
  "id": 71003,
  "KPGKDHAFHFE": "WQ",
  "titleTextMapHash": 1350306783,
  "luaPath": "Actor/Quest/WQ71003",
  "suggestTrackMainQuestList": [
    71024
  ],
  "chapterId": 10015,
  "subQuests": [
    {
      "subId": 7100301,
      "mainId": 71003,
      "order": 1,
      "descTextMapHash": 272065452,
      "finishCond": [
        {
          "KPGKDHAFHFE": "QUEST_CONTENT_LUA_NOTIFY",
          "param": [
            0,
            0
          ],
          "count": 1
        }
      ],
      "guide": {
        "param": [
          "Q133102091zhiyin",
          "45"
        ],
        "guideScene": 3,
        "guideLayer": "QUEST_GUIDE_LAYER_SCENE"
      },
      "guideHint": {
        "param1": ""
      },
      "versionBegin": "",
      "versionEnd": ""
    },
    {
      "subId": 7100302,
      "mainId": 71003,
      "order": 2,
      "descTextMapHash": 786036900,
      "finishCond": [
        {
          "KPGKDHAFHFE": "QUEST_CONTENT_LUA_NOTIFY",
          "param": [
            0,
            0
          ],
          "count": 1
        }
      ],
      "guide": {
        "param": [
          "Q133102091wanfa",
          "25"
        ],
        "guideScene": 3,
        "guideLayer": "QUEST_GUIDE_LAYER_SCENE"
      },
      "guideHint": {
        "param1": ""
      },
      "finishParent": true,
      "versionBegin": "",
      "versionEnd": ""
    }
  ]
}