{
  "id": 71096,
  "KPGKDHAFHFE": "WQ",
  "activeMode": "PLAY_MODE_ALL",
  "titleTextMapHash": 2967824999,
  "luaPath": "Actor/Quest/WQ71096",
  "rewardIdList": [
    171096
  ],
  "showType": "QUEST_HIDDEN",
  "subQuests": [
    {
      "subId": 7109601,
      "mainId": 71096,
      "order": 1,
      "descTextMapHash": 2938812836,
      "showType": "QUEST_HIDDEN",
      "finishCond": [
        {
          "KPGKDHAFHFE": "QUEST_CONTENT_FINISH_ITEM_GIVING",
          "param": [
            7107402,
            0
          ]
        }
      ],
      "guide": {},
      "showGuide": "QUEST_GUIDE_ITEM_DISABLE",
      "guideHint": {
        "param1": ""
      },
      "isRewind": true,
      "versionBegin": "",
      "versionEnd": ""
    },
    {
      "subId": 7109602,
      "mainId": 71096,
      "order": 2,
      "descTextMapHash": 1454224972,
      "showType": "QUEST_HIDDEN",
      "finishCond": [
        {
          "KPGKDHAFHFE": "QUEST_CONTENT_COMPLETE_TALK",
          "param": [
            7109602,
            0
          ]
        }
      ],
      "guide": {},
      "showGuide": "QUEST_GUIDE_ITEM_DISABLE",
      "guideHint": {
        "param1": ""
      },
      "finishParent": true,
      "isRewind": true,
      "versionBegin": "",
      "versionEnd": ""
    }
  ],
  "talks": [
    {
      "id": 7109601,
      "beginWay": "TALK_BEGIN_MANUAL",
      "activeMode": "PLAY_MODE_HOST",
      "beginCond": [
        {
          "type": "QUEST_COND_ITEM_GIVING_ACTIVED",
          "_param": [
            "7107402"
          ]
        }
      ],
      "priority": 6,
      "initDialog": 710960101,
      "npcId": [
        2061
      ],
      "performCfg": "QuestDialogue/WQ/Liyue_71096/Q7109601",
      "heroTalk": "TALK_HERO_MAIN",
      "questId": 71096,
      "assetIndex": 13806941497070570831,
      "prePerformCfg": "",
      "lowPriority": true
    },
    {
      "id": 7109602,
      "beginWay": "TALK_BEGIN_AUTO",
      "activeMode": "PLAY_MODE_HOST",
      "beginCond": [
        {
          "type": "QUEST_COND_STATE_EQUAL",
          "_param": [
            "7109602",
            "2"
          ]
        }
      ],
      "priority": 6,
      "initDialog": 710960201,
      "npcId": [
        2061,
        1005
      ],
      "performCfg": "QuestDialogue/WQ/Liyue_71096/Q7109602",
      "heroTalk": "TALK_HERO_MAIN",
      "questId": 71096,
      "assetIndex": 14169254000431193259,
      "prePerformCfg": ""
    }
  ]
}