{
  "id": 71097,
  "KPGKDHAFHFE": "WQ",
  "activeMode": "PLAY_MODE_ALL",
  "titleTextMapHash": 4098730455,
  "luaPath": "Actor/Quest/WQ71096",
  "rewardIdList": [
    171097
  ],
  "showType": "QUEST_HIDDEN",
  "subQuests": [
    {
      "subId": 7109701,
      "mainId": 71097,
      "order": 1,
      "descTextMapHash": 3351384884,
      "showType": "QUEST_HIDDEN",
      "finishCond": [
        {
          "KPGKDHAFHFE": "QUEST_CONTENT_FINISH_ITEM_GIVING",
          "param": [
            7107403,
            0
          ]
        }
      ],
      "guide": {},
      "showGuide": "QUEST_GUIDE_ITEM_DISABLE",
      "guideHint": {
        "param1": ""
      },
      "isRewind": true,
      "versionBegin": "",
      "versionEnd": ""
    },
    {
      "subId": 7109702,
      "mainId": 71097,
      "order": 2,
      "descTextMapHash": 975393092,
      "showType": "QUEST_HIDDEN",
      "finishCond": [
        {
          "KPGKDHAFHFE": "QUEST_CONTENT_COMPLETE_TALK",
          "param": [
            7109702,
            0
          ]
        }
      ],
      "guide": {},
      "showGuide": "QUEST_GUIDE_ITEM_DISABLE",
      "guideHint": {
        "param1": ""
      },
      "finishParent": true,
      "isRewind": true,
      "versionBegin": "",
      "versionEnd": ""
    }
  ],
  "talks": [
    {
      "id": 7109701,
      "beginWay": "TALK_BEGIN_MANUAL",
      "activeMode": "PLAY_MODE_HOST",
      "beginCond": [
        {
          "type": "QUEST_COND_ITEM_GIVING_ACTIVED",
          "_param": [
            "7107403"
          ]
        }
      ],
      "priority": 6,
      "initDialog": 710970101,
      "npcId": [
        2061
      ],
      "performCfg": "QuestDialogue/WQ/Liyue_71097/Q7109701",
      "heroTalk": "TALK_HERO_MAIN",
      "questId": 71097,
      "assetIndex": 8908613448668119475,
      "prePerformCfg": "",
      "lowPriority": true
    },
    {
      "id": 7109702,
      "beginWay": "TALK_BEGIN_AUTO",
      "activeMode": "PLAY_MODE_HOST",
      "beginCond": [
        {
          "type": "QUEST_COND_STATE_EQUAL",
          "_param": [
            "7109702",
            "2"
          ]
        }
      ],
      "priority": 6,
      "initDialog": 710970201,
      "npcId": [
        2061,
        1005
      ],
      "performCfg": "QuestDialogue/WQ/Liyue_71097/Q7109702",
      "heroTalk": "TALK_HERO_MAIN",
      "questId": 71097,
      "assetIndex": 4214396967774941787,
      "prePerformCfg": ""
    }
  ]
}