{
  "id": 71117,
  "KPGKDHAFHFE": "WQ",
  "activeMode": "PLAY_MODE_ALL",
  "titleTextMapHash": 2402418631,
  "descTextMapHash": 3209688806,
  "luaPath": "Actor/Quest/WQ71117",
  "showType": "QUEST_HIDDEN",
  "subQuests": [
    {
      "subId": 7111701,
      "mainId": 71117,
      "order": 1,
      "descTextMapHash": 2229646116,
      "showType": "QUEST_HIDDEN",
      "finishCond": [
        {
          "KPGKDHAFHFE": "QUEST_CONTENT_COMPLETE_TALK",
          "param": [
            7111704,
            0
          ]
        }
      ],
      "guide": {
        "param": [
          "30"
        ],
        "guideScene": 3
      },
      "showGuide": "QUEST_GUIDE_ITEM_DISABLE",
      "guideHint": {
        "param1": ""
      },
      "JPAAAIKKJNG": "QUEST_HIDDEN",
      "isRewind": true,
      "versionBegin": "",
      "versionEnd": ""
    },
    {
      "subId": 7111702,
      "mainId": 71117,
      "order": 2,
      "descTextMapHash": 3961661972,
      "showType": "QUEST_HIDDEN",
      "finishCond": [
        {
          "KPGKDHAFHFE": "QUEST_CONTENT_FINISH_ITEM_GIVING",
          "param": [
            7111702,
            0
          ]
        }
      ],
      "guide": {
        "KPGKDHAFHFE": "QUEST_GUIDE_LOCATION",
        "autoGuide": "QUEST_GUIDE_AUTO_ENABLE",
        "param": [
          "Q7111702_guide",
          "30"
        ]
      },
      "showGuide": "QUEST_GUIDE_ITEM_DISABLE",
      "guideHint": {
        "param1": ""
      },
      "isRewind": true,
      "finishExec": [
        {
          "KPGKDHAFHFE": "QUEST_EXEC_NOTIFY_GROUP_LUA",
          "param": [
            "3",
            "133115090"
          ]
        },
        {
          "KPGKDHAFHFE": "QUEST_EXEC_DEACTIVE_ITEM_GIVING",
          "param": [
            "7111702"
          ]
        }
      ],
      "versionBegin": "",
      "versionEnd": ""
    },
    {
      "subId": 7111703,
      "mainId": 71117,
      "order": 3,
      "descTextMapHash": 1191483844,
      "showType": "QUEST_HIDDEN",
      "finishCond": [
        {
          "KPGKDHAFHFE": "QUEST_CONTENT_COMPLETE_TALK",
          "param": [
            7111703,
            0
          ]
        }
      ],
      "guide": {
        "KPGKDHAFHFE": "QUEST_GUIDE_NPC",
        "autoGuide": "QUEST_GUIDE_AUTO_ENABLE",
        "param": [
          "21312"
        ],
        "guideScene": 3,
        "guideStyle": "QUEST_GUIDE_STYLE_TARGET",
        "guideLayer": "QUEST_GUIDE_LAYER_SCENE"
      },
      "showGuide": "QUEST_GUIDE_ITEM_DISABLE",
      "guideHint": {
        "param1": ""
      },
      "finishParent": true,
      "isRewind": true,
      "finishExec": [
        {
          "KPGKDHAFHFE": "QUEST_EXEC_NOTIFY_GROUP_LUA",
          "param": [
            "3",
            "133115090"
          ]
        }
      ],
      "versionBegin": "",
      "versionEnd": ""
    }
  ],
  "talks": [
    {
      "id": 7111702,
      "beginWay": "TALK_BEGIN_MANUAL",
      "activeMode": "PLAY_MODE_HOST",
      "beginCond": [
        {
          "type": "QUEST_COND_STATE_EQUAL",
          "_param": [
            "7111702",
            "2"
          ]
        },
        {
          "type": "QUEST_COND_ITEM_GIVING_ACTIVED",
          "_param": [
            "7111702"
          ]
        }
      ],
      "priority": 5,
      "initDialog": 711170201,
      "npcId": [
        21312
      ],
      "performCfg": "",
      "heroTalk": "TALK_HERO_MAIN",
      "questId": 71117,
      "assetIndex": 2880245049627196563,
      "prePerformCfg": ""
    },
    {
      "id": 7111703,
      "beginWay": "TALK_BEGIN_AUTO",
      "activeMode": "PLAY_MODE_HOST",
      "beginCond": [
        {
          "type": "QUEST_COND_STATE_EQUAL",
          "_param": [
            "7111703",
            "2"
          ]
        }
      ],
      "priority": 5,
      "initDialog": 711170301,
      "npcId": [
        21312
      ],
      "performCfg": "QuestDialogue/WQ/Liyue_71117/Q7111703",
      "heroTalk": "TALK_HERO_MAIN",
      "questId": 71117,
      "assetIndex": 4479207853801360851,
      "prePerformCfg": "",
      "PLPFOOINAAJ": [
        "[3_311500099:2647.004,347.604,2255.587,1.269,26.573,0.171]",
        "[3_311500100:2647.794,347.822,2255.159,0.000,24.392,0.000]"
      ]
    },
    {
      "id": 7111704,
      "beginWay": "TALK_BEGIN_MANUAL",
      "activeMode": "PLAY_MODE_HOST",
      "beginCond": [
        {
          "type": "QUEST_COND_STATE_EQUAL",
          "_param": [
            "7111701",
            "2"
          ]
        }
      ],
      "priority": 5,
      "initDialog": 711170401,
      "npcId": [
        2236
      ],
      "performCfg": "QuestDialogue/WQ/Liyue_71117/Q7111704",
      "heroTalk": "TALK_HERO_MAIN",
      "questId": 71117,
      "assetIndex": 4332271957572766320,
      "prePerformCfg": "",
      "PLPFOOINAAJ": [
        "[3_311500188:2624.806,340.731,2252.975,0.000,6.361,0.000]",
        "[3_311500189:2623.929,340.809,2253.057,0.000,33.136,0.000]"
      ]
    }
  ]
}