{
  "id": 71115,
  "KPGKDHAFHFE": "WQ",
  "activeMode": "PLAY_MODE_ALL",
  "titleTextMapHash": 96483767,
  "descTextMapHash": 3328943142,
  "luaPath": "Actor/Quest/WQ71115",
  "rewardIdList": [
    171115
  ],
  "subQuests": [
    {
      "subId": 7111501,
      "mainId": 71115,
      "order": 1,
      "descTextMapHash": 303288948,
      "showType": "QUEST_HIDDEN",
      "finishCond": [
        {
          "KPGKDHAFHFE": "QUEST_CONTENT_COMPLETE_TALK",
          "param": [
            6224301,
            0
          ]
        }
      ],
      "failCond": [
        {
          "KPGKDHAFHFE": "QUEST_CONTENT_QUEST_STATE_EQUAL",
          "param": [
            7111503,
            3
          ]
        }
      ],
      "guide": {
        "KPGKDHAFHFE": "QUEST_GUIDE_NPC",
        "param": [
          "2243"
        ],
        "guideScene": 3,
        "guideStyle": "QUEST_GUIDE_STYLE_TARGET",
        "guideLayer": "QUEST_GUIDE_LAYER_SCENE"
      },
      "showGuide": "QUEST_GUIDE_ITEM_DISABLE",
      "guideHint": {
        "param1": ""
      },
      "isRewind": true,
      "versionBegin": "",
      "versionEnd": ""
    },
    {
      "subId": 7111502,
      "mainId": 71115,
      "order": 3,
      "descTextMapHash": 1697312668,
      "showType": "QUEST_HIDDEN",
      "finishCond": [
        {
          "KPGKDHAFHFE": "QUEST_CONTENT_FINISH_PLOT",
          "param": [
            7111502,
            0
          ]
        }
      ],
      "failCond": [
        {
          "KPGKDHAFHFE": "QUEST_CONTENT_QUEST_STATE_EQUAL",
          "param": [
            7111503,
            3
          ]
        }
      ],
      "guide": {
        "KPGKDHAFHFE": "QUEST_GUIDE_LOCATION",
        "autoGuide": "QUEST_GUIDE_AUTO_ENABLE",
        "param": [
          "[3_310100182:1574.057,176.315,1794.904,0.000,317.300,0.000]"
        ],
        "guideScene": 3,
        "guideStyle": "QUEST_GUIDE_STYLE_POINT",
        "guideLayer": "QUEST_GUIDE_LAYER_SCENE"
      },
      "guideHint": {
        "param1": ""
      },
      "isRewind": true,
      "versionBegin": "",
      "versionEnd": ""
    },
    {
      "subId": 7111503,
      "mainId": 71115,
      "order": 2,
      "descTextMapHash": 3027587556,
      "showType": "QUEST_HIDDEN",
      "finishCond": [
        {
          "KPGKDHAFHFE": "QUEST_CONTENT_FINISH_PLOT",
          "param": [
            7111503,
            0
          ]
        }
      ],
      "failCond": [
        {
          "KPGKDHAFHFE": "QUEST_CONTENT_QUEST_STATE_EQUAL",
          "param": [
            7111501,
            3
          ]
        }
      ],
      "guide": {
        "param": [
          "30"
        ],
        "guideScene": 3
      },
      "showGuide": "QUEST_GUIDE_ITEM_DISABLE",
      "guideHint": {
        "param1": ""
      },
      "isRewind": true,
      "versionBegin": "",
      "versionEnd": ""
    },
    {
      "subId": 7111504,
      "mainId": 71115,
      "order": 4,
      "descTextMapHash": 4145027124,
      "finishCond": [
        {
          "KPGKDHAFHFE": "QUEST_CONTENT_GADGET_STATE_CHANGE",
          "param": [
            133101311,
            311006
          ]
        }
      ],
      "guide": {
        "KPGKDHAFHFE": "QUEST_GUIDE_LOCATION",
        "autoGuide": "QUEST_GUIDE_AUTO_ENABLE",
        "param": [
          "[3_310100182:1574.057,176.315,1794.904,0.000,317.300,0.000]",
          "20"
        ],
        "guideScene": 3,
        "guideStyle": "QUEST_GUIDE_STYLE_TARGET",
        "guideLayer": "QUEST_GUIDE_LAYER_SCENE"
      },
      "guideHint": {
        "param1": ""
      },
      "isRewind": true,
      "versionBegin": "",
      "versionEnd": ""
    },
    {
      "subId": 7111505,
      "mainId": 71115,
      "order": 6,
      "subIdSet": 1,
      "descTextMapHash": 2524161964,
      "showType": "QUEST_HIDDEN",
      "finishCond": [
        {
          "KPGKDHAFHFE": "QUEST_CONTENT_GADGET_STATE_CHANGE",
          "param": [
            133101311,
            311001
          ]
        }
      ],
      "guide": {
        "KPGKDHAFHFE": "QUEST_GUIDE_GADGET",
        "autoGuide": "QUEST_GUIDE_AUTO_ENABLE",
        "param": [
          "133101294",
          "294001"
        ],
        "guideScene": 3,
        "guideStyle": "QUEST_GUIDE_STYLE_TARGET",
        "guideLayer": "QUEST_GUIDE_LAYER_SCENE"
      },
      "showGuide": "QUEST_GUIDE_ITEM_DISABLE",
      "guideHint": {
        "param1": ""
      },
      "finishExec": [
        {
          "KPGKDHAFHFE": "QUEST_EXEC_ADD_QUEST_PROGRESS",
          "param": [
            "7111510",
            "1"
          ]
        },
        {
          "KPGKDHAFHFE": "QUEST_EXEC_INC_QUEST_VAR",
          "param": [
            "1",
            "1"
          ]
        }
      ],
      "versionBegin": "",
      "versionEnd": ""
    },
    {
      "subId": 7111506,
      "mainId": 71115,
      "order": 7,
      "subIdSet": 1,
      "descTextMapHash": 738379404,
      "showType": "QUEST_HIDDEN",
      "finishCond": [
        {
          "KPGKDHAFHFE": "QUEST_CONTENT_GADGET_STATE_CHANGE",
          "param": [
            133101311,
            311005
          ]
        }
      ],
      "guide": {
        "KPGKDHAFHFE": "QUEST_GUIDE_GADGET",
        "autoGuide": "QUEST_GUIDE_AUTO_ENABLE",
        "param": [
          "133101293",
          "293001",
          "1490:188:1901"
        ],
        "guideScene": 3,
        "guideStyle": "QUEST_GUIDE_STYLE_TARGET",
        "guideLayer": "QUEST_GUIDE_LAYER_SCENE"
      },
      "showGuide": "QUEST_GUIDE_ITEM_DISABLE",
      "guideHint": {
        "param1": ""
      },
      "finishExec": [
        {
          "KPGKDHAFHFE": "QUEST_EXEC_ADD_QUEST_PROGRESS",
          "param": [
            "7111510",
            "1"
          ]
        },
        {
          "KPGKDHAFHFE": "QUEST_EXEC_INC_QUEST_VAR",
          "param": [
            "1",
            "1"
          ]
        }
      ],
      "versionBegin": "",
      "versionEnd": ""
    },
    {
      "subId": 7111507,
      "mainId": 71115,
      "order": 8,
      "subIdSet": 1,
      "descTextMapHash": 2722313732,
      "showType": "QUEST_HIDDEN",
      "finishCond": [
        {
          "KPGKDHAFHFE": "QUEST_CONTENT_GADGET_STATE_CHANGE",
          "param": [
            133101311,
            311002
          ]
        }
      ],
      "guide": {
        "KPGKDHAFHFE": "QUEST_GUIDE_GADGET",
        "autoGuide": "QUEST_GUIDE_AUTO_ENABLE",
        "param": [
          "133101291",
          "291004",
          "1544:174:1936"
        ],
        "guideScene": 3,
        "guideStyle": "QUEST_GUIDE_STYLE_TARGET",
        "guideLayer": "QUEST_GUIDE_LAYER_SCENE"
      },
      "showGuide": "QUEST_GUIDE_ITEM_DISABLE",
      "guideHint": {
        "param1": ""
      },
      "finishExec": [
        {
          "KPGKDHAFHFE": "QUEST_EXEC_ADD_QUEST_PROGRESS",
          "param": [
            "7111510",
            "1"
          ]
        },
        {
          "KPGKDHAFHFE": "QUEST_EXEC_INC_QUEST_VAR",
          "param": [
            "1",
            "1"
          ]
        }
      ],
      "versionBegin": "",
      "versionEnd": ""
    },
    {
      "subId": 7111508,
      "mainId": 71115,
      "order": 9,
      "subIdSet": 1,
      "descTextMapHash": 721364476,
      "showType": "QUEST_HIDDEN",
      "finishCond": [
        {
          "KPGKDHAFHFE": "QUEST_CONTENT_GADGET_STATE_CHANGE",
          "param": [
            133101311,
            311004
          ]
        }
      ],
      "guide": {
        "KPGKDHAFHFE": "QUEST_GUIDE_GADGET",
        "autoGuide": "QUEST_GUIDE_AUTO_ENABLE",
        "param": [
          "133101359",
          "359002",
          "1594:216:1897"
        ],
        "guideScene": 3,
        "guideStyle": "QUEST_GUIDE_STYLE_TARGET",
        "guideLayer": "QUEST_GUIDE_LAYER_SCENE"
      },
      "showGuide": "QUEST_GUIDE_ITEM_DISABLE",
      "guideHint": {
        "param1": ""
      },
      "finishExec": [
        {
          "KPGKDHAFHFE": "QUEST_EXEC_ADD_QUEST_PROGRESS",
          "param": [
            "7111510",
            "1"
          ]
        },
        {
          "KPGKDHAFHFE": "QUEST_EXEC_INC_QUEST_VAR",
          "param": [
            "1",
            "1"
          ]
        }
      ],
      "versionBegin": "",
      "versionEnd": ""
    },
    {
      "subId": 7111509,
      "mainId": 71115,
      "order": 10,
      "subIdSet": 1,
      "descTextMapHash": 2916569244,
      "showType": "QUEST_HIDDEN",
      "finishCond": [
        {
          "KPGKDHAFHFE": "QUEST_CONTENT_GADGET_STATE_CHANGE",
          "param": [
            133101311,
            311003
          ]
        }
      ],
      "guide": {
        "KPGKDHAFHFE": "QUEST_GUIDE_GADGET",
        "autoGuide": "QUEST_GUIDE_AUTO_ENABLE",
        "param": [
          "133101320",
          "320001",
          "1533:200:1896"
        ],
        "guideScene": 3,
        "guideStyle": "QUEST_GUIDE_STYLE_TARGET",
        "guideLayer": "QUEST_GUIDE_LAYER_SCENE"
      },
      "showGuide": "QUEST_GUIDE_ITEM_DISABLE",
      "guideHint": {
        "param1": ""
      },
      "finishExec": [
        {
          "KPGKDHAFHFE": "QUEST_EXEC_ADD_QUEST_PROGRESS",
          "param": [
            "7111510",
            "1"
          ]
        },
        {
          "KPGKDHAFHFE": "QUEST_EXEC_INC_QUEST_VAR",
          "param": [
            "1",
            "1"
          ]
        }
      ],
      "versionBegin": "",
      "versionEnd": ""
    },
    {
      "subId": 7111510,
      "mainId": 71115,
      "order": 11,
      "subIdSet": 2,
      "descTextMapHash": 1085087140,
      "finishCond": [
        {
          "KPGKDHAFHFE": "QUEST_CONTENT_ADD_QUEST_PROGRESS",
          "param": [
            7111510,
            0
          ],
          "count": 5
        }
      ],
      "guide": {
        "KPGKDHAFHFE": "QUEST_GUIDE_LOCATION",
        "autoGuide": "QUEST_GUIDE_AUTO_ENABLE",
        "param": [
          "[3_310100188:1535.932,181.268,1880.388]",
          "130"
        ],
        "guideScene": 3,
        "guideStyle": "QUEST_GUIDE_STYLE_POINT",
        "guideLayer": "QUEST_GUIDE_LAYER_SCENE",
        "poiRegionId": 4501,
        "poiPointId": 45010001
      },
      "guideHint": {
        "param1": ""
      },
      "isRewind": true,
      "versionBegin": "",
      "versionEnd": ""
    },
    {
      "subId": 7111511,
      "mainId": 71115,
      "order": 13,
      "descTextMapHash": 2620493860,
      "finishCond": [
        {
          "KPGKDHAFHFE": "QUEST_CONTENT_COMPLETE_TALK",
          "param": [
            7111511,
            0
          ]
        }
      ],
      "guide": {
        "KPGKDHAFHFE": "QUEST_GUIDE_LOCATION",
        "autoGuide": "QUEST_GUIDE_AUTO_ENABLE",
        "param": [
          "[3_310100183:1566.918,176.367,1793.507,0.000,290.556,0.000]",
          "15"
        ],
        "guideScene": 3,
        "guideStyle": "QUEST_GUIDE_STYLE_POINT",
        "guideLayer": "QUEST_GUIDE_LAYER_SCENE"
      },
      "guideHint": {
        "param1": ""
      },
      "isRewind": true,
      "finishExec": [
        {
          "KPGKDHAFHFE": "QUEST_EXEC_REFRESH_GROUP_SUITE",
          "param": [
            "3",
            "133101515,1"
          ]
        }
      ],
      "versionBegin": "",
      "versionEnd": ""
    },
    {
      "subId": 7111512,
      "mainId": 71115,
      "order": 14,
      "descTextMapHash": 4056240820,
      "finishCond": [
        {
          "KPGKDHAFHFE": "QUEST_CONTENT_COMPLETE_TALK",
          "param": [
            7111512,
            0
          ]
        }
      ],
      "guide": {
        "KPGKDHAFHFE": "QUEST_GUIDE_LOCATION",
        "param": [
          "[3_310100183:1566.918,176.367,1793.507,0.000,290.556,0.000]",
          "20"
        ],
        "guideScene": 3
      },
      "guideHint": {
        "param1": ""
      },
      "isRewind": true,
      "finishExec": [
        {
          "KPGKDHAFHFE": "QUEST_EXEC_DEL_SCENE_TAG",
          "param": [
            "3",
            "1354"
          ]
        },
        {
          "KPGKDHAFHFE": "QUEST_EXEC_ADD_SCENE_TAG",
          "param": [
            "3",
            "1355"
          ]
        },
        {
          "KPGKDHAFHFE": "QUEST_EXEC_NOTIFY_GROUP_LUA",
          "param": [
            "3",
            "133101517"
          ]
        },
        {
          "KPGKDHAFHFE": "QUEST_EXEC_NOTIFY_GROUP_LUA",
          "param": [
            "3",
            "133116031"
          ]
        }
      ],
      "versionBegin": "",
      "versionEnd": ""
    },
    {
      "subId": 7111513,
      "mainId": 71115,
      "order": 15,
      "descTextMapHash": 1656425412,
      "finishCond": [
        {
          "KPGKDHAFHFE": "QUEST_CONTENT_LUA_NOTIFY",
          "param": [
            0,
            0
          ],
          "count": 1
        }
      ],
      "guide": {
        "KPGKDHAFHFE": "QUEST_GUIDE_LOCATION",
        "autoGuide": "QUEST_GUIDE_AUTO_ENABLE",
        "param": [
          "[3_310100187:1546.746,186.075,1864.214]",
          "30"
        ],
        "guideScene": 3,
        "guideStyle": "QUEST_GUIDE_STYLE_TARGET",
        "guideLayer": "QUEST_GUIDE_LAYER_SCENE"
      },
      "guideHint": {
        "param1": ""
      },
      "isRewind": true,
      "finishExec": [
        {
          "KPGKDHAFHFE": "QUEST_EXEC_NOTIFY_GROUP_LUA",
          "param": [
            "3",
            "133101311"
          ]
        }
      ],
      "versionBegin": "",
      "versionEnd": ""
    },
    {
      "subId": 7111514,
      "mainId": 71115,
      "order": 16,
      "descTextMapHash": 3268576252,
      "finishCond": [
        {
          "KPGKDHAFHFE": "QUEST_CONTENT_FINISH_PLOT",
          "param": [
            7111514,
            0
          ]
        }
      ],
      "guide": {
        "KPGKDHAFHFE": "QUEST_GUIDE_LOCATION",
        "autoGuide": "QUEST_GUIDE_AUTO_ENABLE",
        "param": [
          "[3_310100184:1585.781,220.600,1521.181,0.000,273.719,0.000]",
          "30"
        ],
        "guideScene": 3,
        "guideStyle": "QUEST_GUIDE_STYLE_TARGET",
        "guideLayer": "QUEST_GUIDE_LAYER_SCENE"
      },
      "guideHint": {
        "param1": ""
      },
      "isRewind": true,
      "finishExec": [
        {
          "KPGKDHAFHFE": "QUEST_EXEC_UNREGISTER_DYNAMIC_GROUP",
          "param": [
            "133101371",
            "0"
          ]
        }
      ],
      "versionBegin": "",
      "versionEnd": ""
    },
    {
      "subId": 7111515,
      "mainId": 71115,
      "order": 17,
      "descTextMapHash": 2917523516,
      "finishCond": [
        {
          "KPGKDHAFHFE": "QUEST_CONTENT_LUA_NOTIFY",
          "param": [
            0,
            0
          ],
          "count": 1
        },
        {
          "KPGKDHAFHFE": "QUEST_CONTENT_GADGET_STATE_CHANGE",
          "param": [
            133101394,
            394045
          ]
        }
      ],
      "guide": {
        "KPGKDHAFHFE": "QUEST_GUIDE_LOCATION",
        "autoGuide": "QUEST_GUIDE_AUTO_ENABLE",
        "param": [
          "[3_310100185:1578.117,222.735,1522.959]",
          "10"
        ],
        "guideScene": 3,
        "guideStyle": "QUEST_GUIDE_STYLE_POINT",
        "guideLayer": "QUEST_GUIDE_LAYER_SCENE"
      },
      "guideHint": {
        "param1": ""
      },
      "isRewind": true,
      "finishExec": [
        {
          "KPGKDHAFHFE": "QUEST_EXEC_DEL_PACK_ITEM",
          "param": [
            "120724",
            "1"
          ]
        }
      ],
      "versionBegin": "",
      "versionEnd": ""
    },
    {
      "subId": 7111516,
      "mainId": 71115,
      "order": 18,
      "descTextMapHash": 631582300,
      "finishCond": [
        {
          "KPGKDHAFHFE": "QUEST_CONTENT_COMPLETE_TALK",
          "param": [
            6224201,
            0
          ]
        }
      ],
      "guide": {
        "KPGKDHAFHFE": "QUEST_GUIDE_LOCATION",
        "autoGuide": "QUEST_GUIDE_AUTO_ENABLE",
        "param": [
          "[3_310100186:1609.778,224.955,1491.666]",
          "30"
        ],
        "guideScene": 3,
        "guideStyle": "QUEST_GUIDE_STYLE_POINT",
        "guideLayer": "QUEST_GUIDE_LAYER_SCENE"
      },
      "guideHint": {
        "param1": ""
      },
      "finishParent": true,
      "isRewind": true,
      "versionBegin": "",
      "versionEnd": ""
    },
    {
      "subId": 7111517,
      "mainId": 71115,
      "order": 12,
      "descTextMapHash": 1168405380,
      "showType": "QUEST_HIDDEN",
      "finishCond": [
        {
          "KPGKDHAFHFE": "QUEST_CONTENT_QUEST_STATE_EQUAL",
          "param": [
            7111510,
            3
          ]
        }
      ],
      "guide": {
        "KPGKDHAFHFE": "QUEST_GUIDE_LOCATION",
        "autoGuide": "QUEST_GUIDE_AUTO_ENABLE",
        "param": [
          "[3_310100188:1535.932,181.268,1880.388]",
          "120"
        ],
        "guideScene": 3,
        "guideStyle": "QUEST_GUIDE_STYLE_POINT",
        "guideLayer": "QUEST_GUIDE_LAYER_SCENE"
      },
      "showGuide": "QUEST_GUIDE_ITEM_DISABLE",
      "guideHint": {
        "param1": ""
      },
      "isRewind": true,
      "versionBegin": "",
      "versionEnd": ""
    },
    {
      "subId": 7111518,
      "mainId": 71115,
      "order": 5,
      "descTextMapHash": 1750312652,
      "finishCond": [
        {
          "KPGKDHAFHFE": "QUEST_CONTENT_COMPLETE_TALK",
          "param": [
            7111505,
            0
          ]
        },
        {
          "KPGKDHAFHFE": "QUEST_CONTENT_COMPLETE_TALK",
          "param": [
            7111506,
            0
          ]
        }
      ],
      "guide": {
        "KPGKDHAFHFE": "QUEST_GUIDE_LOCATION",
        "autoGuide": "QUEST_GUIDE_AUTO_ENABLE",
        "param": [
          "[3_310100182:1574.057,176.315,1794.904,0.000,317.300,0.000]",
          "20"
        ],
        "guideScene": 3,
        "guideStyle": "QUEST_GUIDE_STYLE_POINT",
        "guideLayer": "QUEST_GUIDE_LAYER_SCENE"
      },
      "guideHint": {
        "param1": ""
      },
      "versionBegin": "",
      "versionEnd": ""
    }
  ],
  "talks": [
    {
      "id": 7111503,
      "beginWay": "TALK_BEGIN_MANUAL",
      "activeMode": "PLAY_MODE_HOST",
      "beginCondComb": "LOGIC_AND",
      "beginCond": [
        {
          "type": "QUEST_COND_STATE_EQUAL",
          "_param": [
            "7111504",
            "2"
          ]
        },
        {
          "type": "QUEST_COND_QUEST_VAR_EQUAL",
          "_param": [
            "1",
            "1",
            "71115"
          ]
        }
      ],
      "priority": 5,
      "initDialog": 711150301,
      "npcId": [
        21344
      ],
      "performCfg": "",
      "questId": 71115,
      "assetIndex": 16015148776122000435,
      "prePerformCfg": ""
    },
    {
      "id": 7111504,
      "beginWay": "TALK_BEGIN_MANUAL",
      "activeMode": "PLAY_MODE_HOST",
      "beginCondComb": "LOGIC_AND",
      "beginCond": [
        {
          "type": "QUEST_COND_STATE_EQUAL",
          "_param": [
            "7111504",
            "2"
          ]
        },
        {
          "type": "QUEST_COND_QUEST_VAR_EQUAL",
          "_param": [
            "1",
            "0",
            "71115"
          ]
        }
      ],
      "priority": 5,
      "initDialog": 711150401,
      "npcId": [
        21344
      ],
      "performCfg": "QuestDialogue/WQ/Liyue_71115/Q7111504",
      "questId": 71115,
      "assetIndex": 7757043259490533325,
      "prePerformCfg": "",
      "finishExec": [
        {
          "KPGKDHAFHFE": "TALK_EXEC_SET_QUEST_VAR",
          "param": [
            "1",
            "1",
            "71115"
          ]
        }
      ],
      "PLPFOOINAAJ": [
        "[3_310100215:1564.785,176.775,1791.793]",
        "[3_310100248:1571.267,176.334,1796.476]",
        "[3_310100249:1572.383,176.313,1796.337,0.000,345.500,0.000]"
      ]
    },
    {
      "id": 7111505,
      "beginWay": "TALK_BEGIN_MANUAL",
      "activeMode": "PLAY_MODE_HOST",
      "beginCondComb": "LOGIC_AND",
      "beginCond": [
        {
          "type": "QUEST_COND_STATE_EQUAL",
          "_param": [
            "7111501",
            "3"
          ]
        },
        {
          "type": "QUEST_COND_STATE_EQUAL",
          "_param": [
            "7111518",
            "2"
          ]
        }
      ],
      "priority": 5,
      "initDialog": 711150501,
      "npcId": [
        21344
      ],
      "performCfg": "QuestDialogue/WQ/Liyue_71115/Q7111505",
      "questId": 71115,
      "assetIndex": 9157688549748426022,
      "prePerformCfg": "",
      "PLPFOOINAAJ": [
        "[3_310100246:1566.438,176.485,1792.493,1.755,233.597,359.729]",
        "[3_310100247:1565.445,176.293,1792.852,0.000,188.609,0.000]"
      ]
    },
    {
      "id": 7111506,
      "beginWay": "TALK_BEGIN_MANUAL",
      "activeMode": "PLAY_MODE_HOST",
      "beginCondComb": "LOGIC_AND",
      "beginCond": [
        {
          "type": "QUEST_COND_STATE_EQUAL",
          "_param": [
            "7111503",
            "3"
          ]
        },
        {
          "type": "QUEST_COND_STATE_EQUAL",
          "_param": [
            "7111518",
            "2"
          ]
        }
      ],
      "priority": 5,
      "initDialog": 711150601,
      "npcId": [
        21344
      ],
      "performCfg": "QuestDialogue/WQ/Liyue_71115/Q7111506",
      "questId": 71115,
      "assetIndex": 222910074455341174,
      "prePerformCfg": "",
      "PLPFOOINAAJ": [
        "[3_310100215:1564.785,176.775,1791.793]",
        "[3_310100246:1566.438,176.485,1792.493,1.755,233.597,359.729]",
        "[3_310100247:1565.445,176.293,1792.852,0.000,188.609,0.000]"
      ]
    },
    {
      "id": 7111511,
      "beginWay": "TALK_BEGIN_MANUAL",
      "activeMode": "PLAY_MODE_HOST",
      "beginCond": [
        {
          "type": "QUEST_COND_STATE_EQUAL",
          "_param": [
            "7111511",
            "2"
          ]
        }
      ],
      "priority": 5,
      "initDialog": 711151101,
      "npcId": [
        21344
      ],
      "performCfg": "QuestDialogue/WQ/Liyue_71115/Q7111511",
      "questId": 71115,
      "assetIndex": 9184802389473245602,
      "prePerformCfg": "",
      "PLPFOOINAAJ": [
        "[3_310100215:1564.785,176.775,1791.793]",
        "[3_310100246:1566.438,176.485,1792.493,1.755,233.597,359.729]",
        "[3_310100247:1565.445,176.293,1792.852,0.000,188.609,0.000]"
      ]
    },
    {
      "id": 7111512,
      "beginWay": "TALK_BEGIN_MANUAL",
      "activeMode": "PLAY_MODE_HOST",
      "beginCond": [
        {
          "type": "QUEST_COND_STATE_EQUAL",
          "_param": [
            "7111512",
            "2"
          ]
        }
      ],
      "priority": 3,
      "initDialog": 711151201,
      "npcId": [
        21344
      ],
      "performCfg": "QuestDialogue/WQ/Liyue_71115/Q7111512",
      "questId": 71115,
      "assetIndex": 6916268230503069717,
      "prePerformCfg": "",
      "PLPFOOINAAJ": [
        "[3_310100215:1564.785,176.775,1791.793]",
        "[3_310100246:1566.438,176.485,1792.493,1.755,233.597,359.729]",
        "[3_310100247:1565.445,176.293,1792.852,0.000,188.609,0.000]"
      ]
    },
    {
      "id": 7111513,
      "beginWay": "TALK_BEGIN_MANUAL",
      "activeMode": "PLAY_MODE_HOST",
      "beginCondComb": "LOGIC_AND",
      "beginCond": [
        {
          "type": "QUEST_COND_STATE_EQUAL",
          "_param": [
            "7111510",
            "2"
          ]
        },
        {
          "type": "QUEST_COND_QUEST_VAR_EQUAL",
          "_param": [
            "1",
            "1",
            "71115"
          ]
        }
      ],
      "priority": 5,
      "initDialog": 711151301,
      "npcId": [
        21344
      ],
      "performCfg": "",
      "questId": 71115,
      "assetIndex": 10717717712251789034,
      "prePerformCfg": ""
    },
    {
      "id": 7111514,
      "beginWay": "TALK_BEGIN_MANUAL",
      "activeMode": "PLAY_MODE_HOST",
      "beginCond": [
        {
          "type": "QUEST_COND_STATE_EQUAL",
          "_param": [
            "7111514",
            "2"
          ]
        }
      ],
      "priority": 5,
      "initDialog": 711151401,
      "npcId": [
        21344
      ],
      "performCfg": "",
      "questId": 71115,
      "assetIndex": 5401342732505874899,
      "prePerformCfg": ""
    },
    {
      "id": 7111515,
      "beginWay": "TALK_BEGIN_MANUAL",
      "activeMode": "PLAY_MODE_HOST",
      "beginCondComb": "LOGIC_AND",
      "beginCond": [
        {
          "type": "QUEST_COND_STATE_EQUAL",
          "_param": [
            "7111510",
            "2"
          ]
        },
        {
          "type": "QUEST_COND_QUEST_VAR_GREATER",
          "_param": [
            "1",
            "1",
            "71115"
          ]
        },
        {
          "type": "QUEST_COND_STATE_EQUAL",
          "_param": [
            "7111505",
            "2"
          ]
        }
      ],
      "priority": 9,
      "initDialog": 711151501,
      "npcId": [
        21344
      ],
      "performCfg": "QuestDialogue/WQ/Liyue_71115/Q7111515",
      "questId": 71115,
      "assetIndex": 6919262594284452247,
      "prePerformCfg": "",
      "PLPFOOINAAJ": [
        "[3_310100215:1564.785,176.775,1791.793]",
        "[3_310100247:1565.445,176.293,1792.852,0.000,188.609,0.000]"
      ]
    },
    {
      "id": 7111516,
      "beginWay": "TALK_BEGIN_MANUAL",
      "activeMode": "PLAY_MODE_HOST",
      "beginCondComb": "LOGIC_AND",
      "beginCond": [
        {
          "type": "QUEST_COND_STATE_EQUAL",
          "_param": [
            "7111510",
            "2"
          ]
        },
        {
          "type": "QUEST_COND_QUEST_VAR_GREATER",
          "_param": [
            "1",
            "1",
            "71115"
          ]
        },
        {
          "type": "QUEST_COND_STATE_EQUAL",
          "_param": [
            "7111506",
            "2"
          ]
        }
      ],
      "priority": 8,
      "initDialog": 711151601,
      "npcId": [
        21344
      ],
      "performCfg": "QuestDialogue/WQ/Liyue_71115/Q7111516",
      "questId": 71115,
      "assetIndex": 8893463470251408041,
      "prePerformCfg": "",
      "PLPFOOINAAJ": [
        "[3_310100215:1564.785,176.775,1791.793]",
        "[3_310100247:1565.445,176.293,1792.852,0.000,188.609,0.000]"
      ]
    },
    {
      "id": 7111517,
      "beginWay": "TALK_BEGIN_MANUAL",
      "activeMode": "PLAY_MODE_HOST",
      "beginCondComb": "LOGIC_AND",
      "beginCond": [
        {
          "type": "QUEST_COND_STATE_EQUAL",
          "_param": [
            "7111510",
            "2"
          ]
        },
        {
          "type": "QUEST_COND_QUEST_VAR_GREATER",
          "_param": [
            "1",
            "1",
            "71115"
          ]
        },
        {
          "type": "QUEST_COND_STATE_EQUAL",
          "_param": [
            "7111507",
            "2"
          ]
        }
      ],
      "priority": 6,
      "initDialog": 711151701,
      "npcId": [
        21344
      ],
      "performCfg": "QuestDialogue/WQ/Liyue_71115/Q7111517",
      "questId": 71115,
      "assetIndex": 1817658344894402948,
      "prePerformCfg": "",
      "PLPFOOINAAJ": [
        "[3_310100215:1564.785,176.775,1791.793]",
        "[3_310100247:1565.445,176.293,1792.852,0.000,188.609,0.000]"
      ]
    },
    {
      "id": 7111518,
      "beginWay": "TALK_BEGIN_MANUAL",
      "activeMode": "PLAY_MODE_HOST",
      "beginCondComb": "LOGIC_AND",
      "beginCond": [
        {
          "type": "QUEST_COND_STATE_EQUAL",
          "_param": [
            "7111510",
            "2"
          ]
        },
        {
          "type": "QUEST_COND_QUEST_VAR_GREATER",
          "_param": [
            "1",
            "1",
            "71115"
          ]
        },
        {
          "type": "QUEST_COND_STATE_EQUAL",
          "_param": [
            "7111508",
            "2"
          ]
        }
      ],
      "priority": 5,
      "initDialog": 711151801,
      "npcId": [
        21344
      ],
      "performCfg": "QuestDialogue/WQ/Liyue_71115/Q7111518",
      "questId": 71115,
      "assetIndex": 6360086841095829007,
      "prePerformCfg": "",
      "PLPFOOINAAJ": [
        "[3_310100215:1564.785,176.775,1791.793]",
        "[3_310100247:1565.445,176.293,1792.852,0.000,188.609,0.000]"
      ]
    },
    {
      "id": 7111519,
      "beginWay": "TALK_BEGIN_MANUAL",
      "activeMode": "PLAY_MODE_HOST",
      "beginCondComb": "LOGIC_AND",
      "beginCond": [
        {
          "type": "QUEST_COND_STATE_EQUAL",
          "_param": [
            "7111510",
            "2"
          ]
        },
        {
          "type": "QUEST_COND_QUEST_VAR_GREATER",
          "_param": [
            "1",
            "1",
            "71115"
          ]
        },
        {
          "type": "QUEST_COND_STATE_EQUAL",
          "_param": [
            "7111509",
            "2"
          ]
        }
      ],
      "priority": 7,
      "initDialog": 711151901,
      "npcId": [
        21344
      ],
      "performCfg": "QuestDialogue/WQ/Liyue_71115/Q7111519",
      "questId": 71115,
      "assetIndex": 5556452600040663567,
      "prePerformCfg": "",
      "PLPFOOINAAJ": [
        "[3_310100215:1564.785,176.775,1791.793]",
        "[3_310100247:1565.445,176.293,1792.852,0.000,188.609,0.000]"
      ]
    }
  ],
  "preloadLuaList": [
    7406225702296465687,
    7567750238821577788,
    4955269411002177719,
    2473480681561677431,
    11020199017961164301
  ],
  "forcePreloadLuaList": [
    11532016178337367116
  ]
}