{
  "id": 71127,
  "KPGKDHAFHFE": "WQ",
  "mainQuestTag": "MAINQUEST_TAG_GUIDE",
  "activeMode": "PLAY_MODE_ALL",
  "titleTextMapHash": 4148225967,
  "descTextMapHash": 1235046510,
  "luaPath": "Actor/Quest/WQ71127",
  "rewardIdList": [
    171127
  ],
  "subQuests": [
    {
      "subId": 7112701,
      "mainId": 71127,
      "order": 1,
      "descTextMapHash": 2079829292,
      "showType": "QUEST_HIDDEN",
      "finishCond": [
        {
          "KPGKDHAFHFE": "QUEST_CONTENT_GAME_TIME_TICK",
          "param": [
            1,
            0
          ]
        }
      ],
      "guide": {},
      "guideHint": {
        "param1": ""
      },
      "isRewind": true,
      "finishExec": [
        {
          "KPGKDHAFHFE": "QUEST_EXEC_NOTIFY_GROUP_LUA",
          "param": [
            "3",
            "133116148"
          ]
        }
      ],
      "versionBegin": "",
      "versionEnd": ""
    },
    {
      "subId": 7112702,
      "mainId": 71127,
      "order": 2,
      "descTextMapHash": 10179796,
      "finishCond": [
        {
          "KPGKDHAFHFE": "QUEST_CONTENT_FINISH_PLOT",
          "param": [
            7112702,
            0
          ]
        }
      ],
      "guide": {
        "KPGKDHAFHFE": "QUEST_GUIDE_LOCATION",
        "param": [
          "[3_311600056:1493.597,443.529,2844.945,0.000,203.013,0.000]",
          "25"
        ],
        "guideScene": 3,
        "guideStyle": "QUEST_GUIDE_STYLE_TARGET",
        "guideLayer": "QUEST_GUIDE_LAYER_SCENE"
      },
      "showGuide": "QUEST_GUIDE_ITEM_DISABLE",
      "guideHint": {
        "param1": ""
      },
      "isRewind": true,
      "versionBegin": "",
      "versionEnd": ""
    },
    {
      "subId": 7112703,
      "mainId": 71127,
      "order": 4,
      "descTextMapHash": 3783716500,
      "finishCond": [
        {
          "KPGKDHAFHFE": "QUEST_CONTENT_FINISH_PLOT",
          "param": [
            7112703,
            0
          ]
        }
      ],
      "guide": {
        "KPGKDHAFHFE": "QUEST_GUIDE_GADGET",
        "param": [
          "133116148",
          "133116148",
          "1451.89:480.14:2744.98"
        ],
        "guideScene": 3,
        "guideStyle": "QUEST_GUIDE_STYLE_POINT",
        "guideLayer": "QUEST_GUIDE_LAYER_SCENE"
      },
      "guideHint": {
        "param1": ""
      },
      "isRewind": true,
      "finishExec": [
        {
          "KPGKDHAFHFE": "QUEST_EXEC_UNLOCK_POINT",
          "param": [
            "3",
            "966"
          ]
        },
        {
          "KPGKDHAFHFE": "QUEST_EXEC_UNHIDE_SCENE_POINT",
          "param": [
            "3",
            "966"
          ]
        },
        {
          "KPGKDHAFHFE": "QUEST_EXEC_SET_MAP_LAYER_UNLOCK_STATE",
          "param": [
            "3410102;3410103",
            "1"
          ]
        },
        {
          "KPGKDHAFHFE": "QUEST_EXEC_REFRESH_GROUP_SUITE",
          "param": [
            "3",
            "133116360,2"
          ]
        },
        {
          "KPGKDHAFHFE": "QUEST_EXEC_NOTIFY_GROUP_LUA",
          "param": [
            "3",
            "133116032"
          ]
        }
      ],
      "versionBegin": "",
      "versionEnd": ""
    },
    {
      "subId": 7112704,
      "mainId": 71127,
      "order": 7,
      "descTextMapHash": 804344700,
      "finishCond": [
        {
          "KPGKDHAFHFE": "QUEST_CONTENT_COMPLETE_TALK",
          "param": [
            7112705,
            0
          ]
        }
      ],
      "guide": {
        "KPGKDHAFHFE": "QUEST_GUIDE_LOCATION",
        "param": [
          "[3_311600080:1500.825,-45.352,2741.983,0.000,49.319,0.000]",
          "25"
        ],
        "guideScene": 3,
        "guideStyle": "QUEST_GUIDE_STYLE_POINT",
        "guideLayer": "QUEST_GUIDE_LAYER_SCENE"
      },
      "showGuide": "QUEST_GUIDE_ITEM_DISABLE",
      "guideHint": {
        "param1": ""
      },
      "finishParent": true,
      "isRewind": true,
      "finishExec": [
        {
          "KPGKDHAFHFE": "QUEST_EXEC_UNREGISTER_DYNAMIC_GROUP",
          "param": [
            "133116359"
          ]
        }
      ],
      "versionBegin": "",
      "versionEnd": ""
    },
    {
      "subId": 7112705,
      "mainId": 71127,
      "order": 3,
      "descTextMapHash": 612834948,
      "finishCond": [
        {
          "KPGKDHAFHFE": "QUEST_CONTENT_COMPLETE_TALK",
          "param": [
            7112704,
            0
          ]
        }
      ],
      "guide": {
        "KPGKDHAFHFE": "QUEST_GUIDE_NPC",
        "param": [
          "21307"
        ],
        "guideScene": 3,
        "guideStyle": "QUEST_GUIDE_STYLE_TARGET",
        "guideLayer": "QUEST_GUIDE_LAYER_SCENE"
      },
      "guideHint": {
        "param1": ""
      },
      "isRewind": true,
      "finishExec": [
        {
          "KPGKDHAFHFE": "QUEST_EXEC_NOTIFY_GROUP_LUA",
          "param": [
            "3",
            "133116148"
          ]
        }
      ],
      "versionBegin": "",
      "versionEnd": ""
    },
    {
      "subId": 7112706,
      "mainId": 71127,
      "order": 6,
      "descTextMapHash": 2344660980,
      "finishCond": [
        {
          "KPGKDHAFHFE": "QUEST_CONTENT_FINISH_PLOT",
          "param": [
            7112706,
            0
          ]
        }
      ],
      "guide": {
        "KPGKDHAFHFE": "QUEST_GUIDE_LOCATION",
        "param": [
          "[3_311600079:1531.666,-25.885,2786.134]",
          "20"
        ],
        "guideScene": 3,
        "guideStyle": "QUEST_GUIDE_STYLE_POINT",
        "guideLayer": "QUEST_GUIDE_LAYER_SCENE"
      },
      "showGuide": "QUEST_GUIDE_ITEM_DISABLE",
      "guideHint": {
        "param1": ""
      },
      "isRewind": true,
      "versionBegin": "",
      "versionEnd": ""
    },
    {
      "subId": 7112707,
      "mainId": 71127,
      "order": 5,
      "descTextMapHash": 3850986204,
      "finishCond": [
        {
          "KPGKDHAFHFE": "QUEST_CONTENT_FINISH_PLOT",
          "param": [
            7112707,
            0
          ]
        }
      ],
      "guide": {
        "KPGKDHAFHFE": "QUEST_GUIDE_LOCATION",
        "param": [
          "[3_311600078:1572.923,13.264,2872.436]",
          "20"
        ],
        "guideScene": 3,
        "guideStyle": "QUEST_GUIDE_STYLE_POINT",
        "guideLayer": "QUEST_GUIDE_LAYER_SCENE"
      },
      "showGuide": "QUEST_GUIDE_ITEM_DISABLE",
      "guideHint": {
        "param1": ""
      },
      "isRewind": true,
      "finishExec": [
        {
          "KPGKDHAFHFE": "QUEST_EXEC_NOTIFY_GROUP_LUA",
          "param": [
            "3",
            "133116200"
          ]
        }
      ],
      "versionBegin": "",
      "versionEnd": ""
    },
    {
      "subId": 7112708,
      "mainId": 71127,
      "order": 8,
      "descTextMapHash": 1106949484,
      "showType": "QUEST_HIDDEN",
      "finishCond": [
        {
          "KPGKDHAFHFE": "QUEST_CONTENT_FINISH_PLOT",
          "param": [
            7112708,
            0
          ]
        }
      ],
      "guide": {},
      "guideHint": {
        "param1": ""
      },
      "isRewind": true,
      "versionBegin": "",
      "versionEnd": ""
    },
    {
      "subId": 7112709,
      "mainId": 71127,
      "order": 9,
      "descTextMapHash": 2618122564,
      "showType": "QUEST_HIDDEN",
      "finishCond": [
        {
          "KPGKDHAFHFE": "QUEST_CONTENT_FINISH_PLOT",
          "param": [
            7112709,
            0
          ]
        }
      ],
      "guide": {},
      "guideHint": {
        "param1": ""
      },
      "versionBegin": "",
      "versionEnd": ""
    },
    {
      "subId": 7112710,
      "mainId": 71127,
      "order": 10,
      "descTextMapHash": 1348945204,
      "showType": "QUEST_HIDDEN",
      "finishCond": [
        {
          "KPGKDHAFHFE": "QUEST_CONTENT_FINISH_PLOT",
          "param": [
            7112710,
            0
          ]
        }
      ],
      "guide": {},
      "guideHint": {
        "param1": ""
      },
      "versionBegin": "",
      "versionEnd": ""
    },
    {
      "subId": 7112711,
      "mainId": 71127,
      "order": 11,
      "descTextMapHash": 2640010660,
      "showType": "QUEST_HIDDEN",
      "finishCond": [
        {
          "KPGKDHAFHFE": "QUEST_CONTENT_FINISH_PLOT",
          "param": [
            7112711,
            0
          ]
        }
      ],
      "guide": {},
      "guideHint": {
        "param1": ""
      },
      "versionBegin": "",
      "versionEnd": ""
    },
    {
      "subId": 7112712,
      "mainId": 71127,
      "order": 12,
      "descTextMapHash": 576564428,
      "showType": "QUEST_HIDDEN",
      "finishCond": [
        {
          "KPGKDHAFHFE": "QUEST_CONTENT_FINISH_PLOT",
          "param": [
            7112712,
            0
          ]
        }
      ],
      "guide": {},
      "guideHint": {
        "param1": ""
      },
      "versionBegin": "",
      "versionEnd": ""
    },
    {
      "subId": 7112713,
      "mainId": 71127,
      "order": 13,
      "descTextMapHash": 4148675780,
      "showType": "QUEST_HIDDEN",
      "finishCond": [
        {
          "KPGKDHAFHFE": "QUEST_CONTENT_FINISH_PLOT",
          "param": [
            7112713,
            0
          ]
        }
      ],
      "guide": {},
      "guideHint": {
        "param1": ""
      },
      "versionBegin": "",
      "versionEnd": ""
    }
  ],
  "talks": [
    {
      "id": 7112703,
      "beginWay": "TALK_BEGIN_MANUAL",
      "beginCond": [
        {
          "type": "QUEST_COND_STATE_EQUAL",
          "_param": [
            "7112708",
            "2"
          ]
        }
      ],
      "priority": 5,
      "initDialog": 711270301,
      "npcId": [
        21094,
        21307
      ],
      "performCfg": "",
      "heroTalk": "TALK_HERO_MAIN",
      "questId": 71127,
      "assetIndex": 60809219676872728,
      "prePerformCfg": ""
    },
    {
      "id": 7112704,
      "beginWay": "TALK_BEGIN_MANUAL",
      "activeMode": "PLAY_MODE_HOST",
      "beginCond": [
        {
          "type": "QUEST_COND_STATE_EQUAL",
          "_param": [
            "7112705",
            "2"
          ]
        }
      ],
      "priority": 5,
      "initDialog": 711270401,
      "npcId": [
        21307
      ],
      "performCfg": "QuestDialogue/WQ/Liyue_71127/Q7112704",
      "heroTalk": "TALK_HERO_MAIN",
      "questId": 71127,
      "assetIndex": 5988870696735675620,
      "prePerformCfg": "",
      "PLPFOOINAAJ": [
        "[3_311600056:1493.597,443.529,2844.945,0.000,203.013,0.000]",
        "[3_311600077:1493.036,443.555,2842.422,0.000,20.334,0.000]"
      ]
    },
    {
      "id": 7112705,
      "beginWay": "TALK_BEGIN_MANUAL",
      "activeMode": "PLAY_MODE_HOST",
      "beginCond": [
        {
          "type": "QUEST_COND_STATE_EQUAL",
          "_param": [
            "7112704",
            "2"
          ]
        }
      ],
      "priority": 5,
      "initDialog": 711270501,
      "npcId": [
        21094,
        21307
      ],
      "performCfg": "QuestDialogue/WQ/Liyue_71127/Q7112705",
      "heroTalk": "TALK_HERO_MAIN",
      "questId": 71127,
      "assetIndex": 12340816723745402101,
      "prePerformCfg": "",
      "PLPFOOINAAJ": [
        "[3_311600080:1500.825,-45.352,2741.983,0.000,49.319,0.000]",
        "[3_311600081:1500.751,-45.099,2743.810,0.000,132.497,0.000]",
        "[3_311600083:1496.432,-45.800,2741.249,0.000,15.709,0.000]",
        "[3_311600084:1501.650,-45.031,2743.523,0.000,272.336,0.000]"
      ]
    },
    {
      "id": 7112709,
      "beginWay": "TALK_BEGIN_MANUAL",
      "beginCond": [
        {
          "type": "QUEST_COND_STATE_EQUAL",
          "_param": [
            "7112709",
            "2"
          ]
        }
      ],
      "priority": 5,
      "initDialog": 711270901,
      "npcId": [
        2501,
        21307
      ],
      "performCfg": "",
      "heroTalk": "TALK_HERO_MAIN",
      "questId": 71127,
      "assetIndex": 13268882942135161897,
      "prePerformCfg": ""
    },
    {
      "id": 7112710,
      "beginWay": "TALK_BEGIN_MANUAL",
      "beginCond": [
        {
          "type": "QUEST_COND_STATE_EQUAL",
          "_param": [
            "7112710",
            "2"
          ]
        }
      ],
      "priority": 5,
      "initDialog": 711271001,
      "npcId": [
        21307
      ],
      "performCfg": "",
      "heroTalk": "TALK_HERO_MAIN",
      "questId": 71127,
      "assetIndex": 13390176104103443094,
      "prePerformCfg": ""
    },
    {
      "id": 7112711,
      "beginWay": "TALK_BEGIN_MANUAL",
      "beginCond": [
        {
          "type": "QUEST_COND_STATE_EQUAL",
          "_param": [
            "7112711",
            "2"
          ]
        }
      ],
      "priority": 5,
      "initDialog": 711271101,
      "npcId": [
        2501,
        2498
      ],
      "performCfg": "",
      "heroTalk": "TALK_HERO_MAIN",
      "questId": 71127,
      "assetIndex": 2400625180431986118,
      "prePerformCfg": ""
    },
    {
      "id": 7112712,
      "beginWay": "TALK_BEGIN_MANUAL",
      "beginCond": [
        {
          "type": "QUEST_COND_STATE_EQUAL",
          "_param": [
            "7112712",
            "2"
          ]
        }
      ],
      "priority": 5,
      "initDialog": 711271201,
      "npcId": [
        21307,
        21094
      ],
      "performCfg": "",
      "heroTalk": "TALK_HERO_MAIN",
      "questId": 71127,
      "assetIndex": 8212908691990747148,
      "prePerformCfg": ""
    },
    {
      "id": 7112713,
      "beginWay": "TALK_BEGIN_MANUAL",
      "beginCond": [
        {
          "type": "QUEST_COND_STATE_EQUAL",
          "_param": [
            "7112713",
            "2"
          ]
        }
      ],
      "priority": 5,
      "initDialog": 711271301,
      "npcId": [
        2501,
        21094
      ],
      "performCfg": "",
      "heroTalk": "TALK_HERO_MAIN",
      "questId": 71127,
      "assetIndex": 5006705526457413163,
      "prePerformCfg": ""
    }
  ],
  "preloadLuaList": [
    14457059026087496718,
    6503812365537779014,
    2783239371257714302,
    7227125044479981689,
    7495925623642294663,
    4501727621944533042
  ],
  "forcePreloadLuaList": [
    184167414030162213
  ],
  "DDHNEIEDLJA": true
}