{
  "id": 71144,
  "KPGKDHAFHFE": "WQ",
  "mainQuestTag": "MAINQUEST_TAG_GUIDE",
  "titleTextMapHash": 2160389351,
  "descTextMapHash": 3618623022,
  "luaPath": "Actor/Quest/WQ71144",
  "rewardIdList": [
    171144
  ],
  "showRedPoint": true,
  "activityId": 2031,
  "subQuests": [
    {
      "subId": 7114401,
      "mainId": 71144,
      "order": 1,
      "descTextMapHash": 3551732284,
      "showType": "QUEST_HIDDEN",
      "finishCond": [
        {
          "KPGKDHAFHFE": "QUEST_CONTENT_FINISH_PLOT",
          "param": [
            7114401,
            0
          ]
        }
      ],
      "guide": {
        "KPGKDHAFHFE": "QUEST_GUIDE_LOCATION",
        "param": [
          "[3_310702020:-744.205,222.910,319.269,0.000,59.366,0.000]",
          "30"
        ],
        "guideScene": 3,
        "guideStyle": "QUEST_GUIDE_STYLE_POINT",
        "guideLayer": "QUEST_GUIDE_LAYER_SCENE"
      },
      "guideHint": {
        "param1": ""
      },
      "isRewind": true,
      "versionBegin": "",
      "versionEnd": ""
    },
    {
      "subId": 7114402,
      "mainId": 71144,
      "order": 2,
      "descTextMapHash": 1480750572,
      "finishCond": [
        {
          "KPGKDHAFHFE": "QUEST_CONTENT_FINISH_PLOT",
          "param": [
            7114402,
            0
          ]
        }
      ],
      "guide": {
        "KPGKDHAFHFE": "QUEST_GUIDE_LOCATION",
        "param": [
          "[3_310702020:-744.205,222.910,319.269,0.000,59.366,0.000]",
          "30"
        ],
        "guideScene": 3,
        "guideStyle": "QUEST_GUIDE_STYLE_POINT",
        "guideLayer": "QUEST_GUIDE_LAYER_SCENE"
      },
      "guideHint": {
        "param1": ""
      },
      "isRewind": true,
      "versionBegin": "",
      "versionEnd": ""
    },
    {
      "subId": 7114403,
      "mainId": 71144,
      "order": 3,
      "descTextMapHash": 183016804,
      "finishCond": [
        {
          "KPGKDHAFHFE": "QUEST_CONTENT_COMPLETE_TALK",
          "param": [
            7114403,
            0
          ]
        }
      ],
      "guide": {
        "KPGKDHAFHFE": "QUEST_GUIDE_NPC",
        "param": [
          "30601"
        ],
        "guideScene": 3,
        "guideStyle": "QUEST_GUIDE_STYLE_TARGET",
        "guideLayer": "QUEST_GUIDE_LAYER_SCENE"
      },
      "guideHint": {
        "param1": ""
      },
      "finishParent": true,
      "isRewind": true,
      "versionBegin": "",
      "versionEnd": ""
    }
  ],
  "talks": [
    {
      "id": 7114403,
      "beginWay": "TALK_BEGIN_MANUAL",
      "beginCond": [
        {
          "type": "QUEST_COND_STATE_EQUAL",
          "_param": [
            "7114403",
            "2"
          ]
        }
      ],
      "priority": 5,
      "initDialog": 711440301,
      "npcId": [
        30601
      ],
      "performCfg": "QuestDialogue/WQ/4.7_guaiwuduitui_71144/Q7114403",
      "heroTalk": "TALK_HERO_MAIN",
      "questId": 71144,
      "assetIndex": 679811120227124476,
      "prePerformCfg": "",
      "PLPFOOINAAJ": [
        "[3_310702020:-744.205,222.910,319.269,0.000,59.366,0.000]",
        "[3_310702021:-744.533,222.824,320.688,0.000,114.919,0.000]"
      ]
    }
  ],
  "preloadLuaList": [
    5262255797177822617,
    18123741745987121799
  ],
  "forcePreloadLuaList": [
    9815464852825260065
  ],
  "DDHNEIEDLJA": true
}