{
  "id": 71510,
  "KPGKDHAFHFE": "WQ",
  "mainQuestTag": "MAINQUEST_TAG_ACTIVITY",
  "activeMode": "PLAY_MODE_ALL",
  "titleTextMapHash": 2627819599,
  "descTextMapHash": 863191990,
  "luaPath": "Actor/Quest/WQ71510",
  "showRedPoint": true,
  "activityId": 5079,
  "subQuests": [
    {
      "subId": 7151001,
      "mainId": 71510,
      "order": 1,
      "descTextMapHash": 3054510140,
      "finishCond": [
        {
          "KPGKDHAFHFE": "QUEST_CONTENT_COMPLETE_TALK",
          "param": [
            7151001,
            0
          ]
        }
      ],
      "guide": {
        "KPGKDHAFHFE": "QUEST_GUIDE_NPC",
        "autoGuide": "QUEST_GUIDE_AUTO_ENABLE",
        "param": [
          "30181"
        ],
        "guideScene": 6,
        "guideStyle": "QUEST_GUIDE_STYLE_TARGET",
        "guideLayer": "QUEST_GUIDE_LAYER_SCENE"
      },
      "guideHint": {
        "param1": ""
      },
      "finishParent": true,
      "isRewind": true,
      "versionBegin": "",
      "versionEnd": ""
    }
  ],
  "talks": [
    {
      "id": 7151001,
      "beginWay": "TALK_BEGIN_MANUAL",
      "activeMode": "PLAY_MODE_HOST",
      "beginCond": [
        {
          "type": "QUEST_COND_STATE_EQUAL",
          "_param": [
            "7151001",
            "2"
          ]
        }
      ],
      "priority": 15,
      "initDialog": 715100101,
      "npcId": [
        30181
      ],
      "performCfg": "QuestDialogue/WQ/TheChasmChallenge/Q7151001",
      "heroTalk": "TALK_HERO_MAIN",
      "questId": 71510,
      "assetIndex": 7328223780156519725,
      "prePerformCfg": ""
    }
  ]
}