{
  "id": 71515,
  "KPGKDHAFHFE": "WQ",
  "mainQuestTag": "MAINQUEST_TAG_GUIDE",
  "titleTextMapHash": 421072983,
  "descTextMapHash": 1492941654,
  "luaPath": "Actor/Quest/WQ71515",
  "rewardIdList": [
    171515
  ],
  "showRedPoint": true,
  "activityId": 2019,
  "subQuests": [
    {
      "subId": 7151501,
      "mainId": 71515,
      "order": 1,
      "descTextMapHash": 430981300,
      "finishCond": [
        {
          "KPGKDHAFHFE": "QUEST_CONTENT_COMPLETE_TALK",
          "param": [
            7151501,
            0
          ]
        }
      ],
      "guide": {
        "KPGKDHAFHFE": "QUEST_GUIDE_LOCATION",
        "param": [
          "Q7151501_guide",
          "0"
        ],
        "guideScene": 3,
        "guideStyle": "QUEST_GUIDE_STYLE_POINT",
        "guideLayer": "QUEST_GUIDE_LAYER_SCENE"
      },
      "guideHint": {
        "param1": ""
      },
      "isRewind": true,
      "versionBegin": "",
      "versionEnd": ""
    },
    {
      "subId": 7151502,
      "mainId": 71515,
      "order": 2,
      "descTextMapHash": 3830258388,
      "finishCond": [
        {
          "KPGKDHAFHFE": "QUEST_CONTENT_COMPLETE_TALK",
          "param": [
            7151502,
            0
          ]
        }
      ],
      "guide": {
        "KPGKDHAFHFE": "QUEST_GUIDE_NPC",
        "param": [
          "30308"
        ],
        "guideScene": 3,
        "guideStyle": "QUEST_GUIDE_STYLE_TARGET",
        "guideLayer": "QUEST_GUIDE_LAYER_SCENE"
      },
      "guideHint": {
        "param1": ""
      },
      "finishParent": true,
      "isRewind": true,
      "versionBegin": "",
      "versionEnd": ""
    }
  ],
  "talks": [
    {
      "id": 7151501,
      "beginWay": "TALK_BEGIN_MANUAL",
      "beginCond": [
        {
          "type": "QUEST_COND_STATE_EQUAL",
          "_param": [
            "7151501",
            "2"
          ]
        }
      ],
      "priority": 5,
      "initDialog": 715150101,
      "npcId": [
        30307
      ],
      "performCfg": "QuestDialogue/WQ/SeaLampV3_71515/Q7151501",
      "heroTalk": "TALK_HERO_MAIN",
      "questId": 71515,
      "assetIndex": 10961859001702825666,
      "prePerformCfg": ""
    },
    {
      "id": 7151502,
      "beginWay": "TALK_BEGIN_AUTO",
      "beginCond": [
        {
          "type": "QUEST_COND_STATE_EQUAL",
          "_param": [
            "7151502",
            "2"
          ]
        }
      ],
      "priority": 5,
      "initDialog": 715150201,
      "npcId": [
        30308
      ],
      "performCfg": "QuestDialogue/WQ/SeaLampV3_71515/Q7151502",
      "heroTalk": "TALK_HERO_MAIN",
      "questId": 71515,
      "assetIndex": 11335566078763555979,
      "prePerformCfg": ""
    }
  ],
  "freeStyleDic": {
    "30306": [
      4260
    ],
    "30307": [
      1060
    ],
    "30308": [
      5010
    ]
  }
}