{
  "id": 71526,
  "KPGKDHAFHFE": "WQ",
  "mainQuestTag": "MAINQUEST_TAG_ACTIVITY",
  "titleTextMapHash": 2044351967,
  "descTextMapHash": 414579134,
  "luaPath": "Actor/Quest/WQ71526",
  "showType": "QUEST_HIDDEN",
  "activityId": 5173,
  "subQuests": [
    {
      "subId": 7152601,
      "mainId": 71526,
      "order": 1,
      "descTextMapHash": 882839476,
      "showType": "QUEST_HIDDEN",
      "finishCond": [
        {
          "KPGKDHAFHFE": "QUEST_CONTENT_COMPLETE_TALK",
          "param": [
            7166630,
            0
          ]
        }
      ],
      "guide": {},
      "guideHint": {
        "param1": ""
      },
      "isRewind": true,
      "versionBegin": "",
      "versionEnd": ""
    },
    {
      "subId": 7152602,
      "mainId": 71526,
      "order": 2,
      "descTextMapHash": 2690657036,
      "showType": "QUEST_HIDDEN",
      "finishCond": [
        {
          "KPGKDHAFHFE": "QUEST_CONTENT_QUEST_STATE_EQUAL",
          "param": [
            7152603,
            2
          ]
        }
      ],
      "guide": {},
      "guideHint": {
        "param1": ""
      },
      "isRewind": true,
      "versionBegin": "",
      "versionEnd": ""
    },
    {
      "subId": 7152603,
      "mainId": 71526,
      "order": 3,
      "descTextMapHash": 1502159236,
      "showType": "QUEST_HIDDEN",
      "finishCond": [
        {
          "KPGKDHAFHFE": "QUEST_CONTENT_COMPLETE_TALK",
          "param": [
            7166631,
            0
          ]
        }
      ],
      "guide": {},
      "guideHint": {
        "param1": ""
      },
      "finishParent": true,
      "isRewind": true,
      "versionBegin": "",
      "versionEnd": ""
    }
  ],
  "talks": [
    {
      "id": 7166630,
      "beginWay": "TALK_BEGIN_MANUAL",
      "beginCondComb": "LOGIC_AND",
      "beginCond": [
        {
          "type": "QUEST_COND_ACTIVITY_CLIENT_COND",
          "_param": [
            "5173",
            "5173004",
            "1"
          ]
        },
        {
          "type": "QUEST_COND_STATE_EQUAL",
          "_param": [
            "7152601",
            "2"
          ]
        }
      ],
      "priority": 5,
      "initDialog": 716663001,
      "npcId": [
        30472
      ],
      "performCfg": "QuestDialogue/WQ/ElectroherculesBattleV2_71666/Q7166630",
      "heroTalk": "TALK_HERO_MAIN",
      "questId": 71526,
      "assetIndex": 9335992070722254459,
      "prePerformCfg": "",
      "lockGameTime": true,
      "PLPFOOINAAJ": [
        "[3_7027:-342.942,200.466,-710.953,0.000,3.460,0.000]"
      ]
    },
    {
      "id": 7166631,
      "beginWay": "TALK_BEGIN_MANUAL",
      "beginCond": [
        {
          "type": "QUEST_COND_STATE_EQUAL",
          "_param": [
            "7152603",
            "2"
          ]
        }
      ],
      "priority": 8,
      "initDialog": 716663101,
      "npcId": [
        30472
      ],
      "performCfg": "QuestDialogue/WQ/ElectroherculesBattleV2_71666/Q7166631",
      "heroTalk": "TALK_HERO_MAIN",
      "questId": 71526,
      "assetIndex": 82929428862313790,
      "prePerformCfg": "",
      "PLPFOOINAAJ": [
        "[3_7027:-342.942,200.466,-710.953,0.000,3.460,0.000]"
      ]
    },
    {
      "id": 7166633,
      "beginWay": "TALK_BEGIN_MANUAL",
      "beginCond": [
        {
          "type": "QUEST_COND_STATE_EQUAL",
          "_param": [
            "7152602",
            "2"
          ]
        }
      ],
      "priority": 5,
      "npcId": [
        13952
      ],
      "performCfg": "UI/open_actvity_ElectroherculesBattleV2_level2_page",
      "heroTalk": "TALK_HERO_MAIN",
      "questId": 71526,
      "assetIndex": 430786613798003988,
      "prePerformCfg": ""
    }
  ],
  "DDHNEIEDLJA": true
}