{
  "id": 71531,
  "KPGKDHAFHFE": "WQ",
  "mainQuestTag": "MAINQUEST_TAG_GUIDE",
  "titleTextMapHash": 1215171663,
  "descTextMapHash": 2120929662,
  "luaPath": "Actor/Quest/WQ71531",
  "rewardIdList": [
    171531
  ],
  "showRedPoint": true,
  "activityId": 2028,
  "subQuests": [
    {
      "subId": 7153101,
      "mainId": 71531,
      "order": 1,
      "descTextMapHash": 1043616692,
      "finishCond": [
        {
          "KPGKDHAFHFE": "QUEST_CONTENT_COMPLETE_TALK",
          "param": [
            7153101,
            0
          ]
        }
      ],
      "guide": {
        "KPGKDHAFHFE": "QUEST_GUIDE_NPC",
        "param": [
          "30458"
        ],
        "guideScene": 3,
        "guideStyle": "QUEST_GUIDE_STYLE_TARGET",
        "guideLayer": "QUEST_GUIDE_LAYER_SCENE"
      },
      "guideHint": {
        "param1": ""
      },
      "finishParent": true,
      "isRewind": true,
      "versionBegin": "",
      "versionEnd": ""
    }
  ],
  "talks": [
    {
      "id": 7153101,
      "beginWay": "TALK_BEGIN_MANUAL",
      "beginCond": [
        {
          "type": "QUEST_COND_STATE_EQUAL",
          "_param": [
            "7153101",
            "2"
          ]
        }
      ],
      "priority": 5,
      "initDialog": 715310101,
      "npcId": [
        30458
      ],
      "performCfg": "QuestDialogue/WQ/Liyue_71531/Q7153101",
      "heroTalk": "TALK_HERO_MAIN",
      "questId": 71531,
      "assetIndex": 3290772278712599260,
      "prePerformCfg": "",
      "PLPFOOINAAJ": [
        "[3_310701970:-474.084,209.748,326.701,0.000,130.606,0.000]",
        "[3_310701982:-474.918,209.748,326.204,0.000,58.687,0.000]",
        "[3_7745:-475.249,209.748,326.953,0.000,100.887,0.000]"
      ]
    }
  ],
  "freeStyleDic": {
    "30458": [
      1190
    ]
  },
  "DDHNEIEDLJA": true
}