{
  "id": 71651,
  "KPGKDHAFHFE": "WQ",
  "titleTextMapHash": 1655052439,
  "descTextMapHash": 2710822870,
  "luaPath": "",
  "rewardIdList": [
    171651
  ],
  "showRedPoint": true,
  "activityId": 5017,
  "subQuests": [
    {
      "subId": 7165101,
      "mainId": 71651,
      "order": 1,
      "descTextMapHash": 1080453348,
      "finishCond": [
        {
          "KPGKDHAFHFE": "QUEST_CONTENT_COMPLETE_TALK",
          "param": [
            7165101,
            0
          ]
        }
      ],
      "guide": {
        "KPGKDHAFHFE": "QUEST_GUIDE_NPC",
        "autoGuide": "QUEST_GUIDE_AUTO_ENABLE",
        "param": [
          "2078"
        ],
        "guideScene": 3,
        "guideStyle": "QUEST_GUIDE_STYLE_START",
        "guideLayer": "QUEST_GUIDE_LAYER_UI"
      },
      "guideHint": {
        "param1": ""
      },
      "finishParent": true,
      "versionBegin": "",
      "versionEnd": ""
    }
  ]
}