{
  "id": 71659,
  "KPGKDHAFHFE": "WQ",
  "mainQuestTag": "MAINQUEST_TAG_GUIDE",
  "titleTextMapHash": 2115444199,
  "descTextMapHash": 896707910,
  "luaPath": "Actor/Quest/WQ71659",
  "rewardIdList": [
    171659
  ],
  "activityId": 5058,
  "subQuests": [
    {
      "subId": 7165901,
      "mainId": 71659,
      "order": 1,
      "descTextMapHash": 1452093284,
      "finishCond": [
        {
          "KPGKDHAFHFE": "QUEST_CONTENT_COMPLETE_TALK",
          "param": [
            7165901,
            0
          ]
        }
      ],
      "guide": {
        "KPGKDHAFHFE": "QUEST_GUIDE_NPC",
        "param": [
          "1587"
        ],
        "guideScene": 3
      },
      "guideHint": {
        "param1": ""
      },
      "isRewind": true,
      "versionBegin": "",
      "versionEnd": ""
    },
    {
      "subId": 7165902,
      "mainId": 71659,
      "order": 2,
      "descTextMapHash": 1926009044,
      "finishCond": [
        {
          "KPGKDHAFHFE": "QUEST_CONTENT_COMPLETE_TALK",
          "param": [
            7165902,
            0
          ]
        }
      ],
      "guide": {
        "KPGKDHAFHFE": "QUEST_GUIDE_LOCATION",
        "param": [
          "Q7165902_N1587"
        ],
        "guideScene": 3,
        "guideStyle": "QUEST_GUIDE_STYLE_POINT"
      },
      "guideHint": {
        "param1": ""
      },
      "isRewind": true,
      "versionBegin": "",
      "versionEnd": ""
    },
    {
      "subId": 7165903,
      "mainId": 71659,
      "order": 6,
      "descTextMapHash": 1155718732,
      "finishCond": [
        {
          "KPGKDHAFHFE": "QUEST_CONTENT_COMPLETE_TALK",
          "param": [
            7165903,
            0
          ]
        }
      ],
      "guide": {
        "KPGKDHAFHFE": "QUEST_GUIDE_NPC",
        "param": [
          "2083"
        ],
        "guideScene": 3
      },
      "guideHint": {
        "param1": ""
      },
      "isRewind": true,
      "versionBegin": "",
      "versionEnd": ""
    },
    {
      "subId": 7165904,
      "mainId": 71659,
      "order": 7,
      "descTextMapHash": 1575491428,
      "finishCond": [
        {
          "KPGKDHAFHFE": "QUEST_CONTENT_COMPLETE_TALK",
          "param": [
            7165904,
            0
          ]
        }
      ],
      "guide": {
        "KPGKDHAFHFE": "QUEST_GUIDE_LOCATION",
        "param": [
          "Q7165904_N1005"
        ],
        "guideScene": 3,
        "guideStyle": "QUEST_GUIDE_STYLE_POINT"
      },
      "guideHint": {
        "param1": ""
      },
      "isRewind": true,
      "versionBegin": "",
      "versionEnd": ""
    },
    {
      "subId": 7165905,
      "mainId": 71659,
      "order": 8,
      "descTextMapHash": 1629597340,
      "finishCond": [
        {
          "KPGKDHAFHFE": "QUEST_CONTENT_ENTER_DUNGEON",
          "param": [
            2150,
            447
          ]
        },
        {
          "KPGKDHAFHFE": "QUEST_CONTENT_ENTER_DUNGEON",
          "param": [
            2151,
            447
          ]
        },
        {
          "KPGKDHAFHFE": "QUEST_CONTENT_ENTER_DUNGEON",
          "param": [
            2152,
            447
          ]
        },
        {
          "KPGKDHAFHFE": "QUEST_CONTENT_ENTER_DUNGEON",
          "param": [
            2153,
            447
          ]
        }
      ],
      "guide": {
        "KPGKDHAFHFE": "QUEST_GUIDE_LOCATION",
        "param": [
          "Q7165905_Guide"
        ],
        "guideScene": 3,
        "guideStyle": "QUEST_GUIDE_STYLE_TARGET"
      },
      "guideHint": {
        "param1": ""
      },
      "finishParent": true,
      "isRewind": true,
      "versionBegin": "",
      "versionEnd": ""
    },
    {
      "subId": 7165906,
      "mainId": 71659,
      "order": 3,
      "descTextMapHash": 3132225132,
      "finishCond": [
        {
          "KPGKDHAFHFE": "QUEST_CONTENT_COMPLETE_TALK",
          "param": [
            7165906,
            0
          ]
        }
      ],
      "guide": {
        "KPGKDHAFHFE": "QUEST_GUIDE_NPC",
        "param": [
          "2039"
        ],
        "guideScene": 3
      },
      "guideHint": {
        "param1": ""
      },
      "isRewind": true,
      "versionBegin": "",
      "versionEnd": ""
    },
    {
      "subId": 7165907,
      "mainId": 71659,
      "order": 4,
      "descTextMapHash": 1215441188,
      "finishCond": [
        {
          "KPGKDHAFHFE": "QUEST_CONTENT_COMPLETE_TALK",
          "param": [
            7165907,
            0
          ]
        }
      ],
      "guide": {
        "KPGKDHAFHFE": "QUEST_GUIDE_NPC",
        "param": [
          "2058"
        ],
        "guideScene": 3
      },
      "guideHint": {
        "param1": ""
      },
      "isRewind": true,
      "versionBegin": "",
      "versionEnd": ""
    }
  ],
  "talks": [
    {
      "id": 7165901,
      "beginWay": "TALK_BEGIN_MANUAL",
      "beginCond": [
        {
          "type": "QUEST_COND_STATE_EQUAL",
          "_param": [
            "7165901",
            "2"
          ]
        }
      ],
      "priority": 5,
      "initDialog": 716590101,
      "npcId": [
        1587
      ],
      "performCfg": "QuestDialogue/WQ/Liyue_71659/Q7165901",
      "heroTalk": "TALK_HERO_MAIN",
      "questId": 71659,
      "assetIndex": 3555852210926685443,
      "prePerformCfg": ""
    },
    {
      "id": 7165902,
      "beginWay": "TALK_BEGIN_MANUAL",
      "beginCond": [
        {
          "type": "QUEST_COND_STATE_EQUAL",
          "_param": [
            "7165902",
            "2"
          ]
        }
      ],
      "priority": 5,
      "initDialog": 716590201,
      "npcId": [
        1587
      ],
      "performCfg": "QuestDialogue/WQ/Liyue_71659/Q7165902",
      "heroTalk": "TALK_HERO_MAIN",
      "questId": 71659,
      "assetIndex": 4481014917603988864,
      "prePerformCfg": ""
    },
    {
      "id": 7165903,
      "beginWay": "TALK_BEGIN_MANUAL",
      "beginCond": [
        {
          "type": "QUEST_COND_STATE_EQUAL",
          "_param": [
            "7165903",
            "2"
          ]
        }
      ],
      "priority": 5,
      "initDialog": 716590301,
      "npcId": [
        2083
      ],
      "performCfg": "QuestDialogue/WQ/Liyue_71659/Q7165903",
      "heroTalk": "TALK_HERO_MAIN",
      "questId": 71659,
      "assetIndex": 8789217898110339579,
      "prePerformCfg": ""
    },
    {
      "id": 7165904,
      "beginWay": "TALK_BEGIN_MANUAL",
      "beginCond": [
        {
          "type": "QUEST_COND_STATE_EQUAL",
          "_param": [
            "7165904",
            "2"
          ]
        }
      ],
      "priority": 5,
      "initDialog": 716590401,
      "npcId": [
        1587,
        2083
      ],
      "performCfg": "QuestDialogue/WQ/Liyue_71659/Q7165904",
      "heroTalk": "TALK_HERO_MAIN",
      "questId": 71659,
      "assetIndex": 15978488058245904713,
      "prePerformCfg": ""
    },
    {
      "id": 7165905,
      "beginWay": "TALK_BEGIN_MANUAL",
      "beginCond": [
        {
          "type": "QUEST_COND_STATE_EQUAL",
          "_param": [
            "99902",
            "2"
          ]
        }
      ],
      "priority": 5,
      "initDialog": 716590501,
      "npcId": [
        1587
      ],
      "performCfg": "",
      "heroTalk": "TALK_HERO_MAIN",
      "questId": 71659,
      "assetIndex": 1814535056374806765,
      "prePerformCfg": ""
    },
    {
      "id": 7165906,
      "beginWay": "TALK_BEGIN_MANUAL",
      "beginCond": [
        {
          "type": "QUEST_COND_STATE_EQUAL",
          "_param": [
            "7165906",
            "2"
          ]
        }
      ],
      "priority": 5,
      "initDialog": 716590601,
      "npcId": [
        2039
      ],
      "performCfg": "QuestDialogue/WQ/Liyue_71659/Q7165906",
      "heroTalk": "TALK_HERO_MAIN",
      "questId": 71659,
      "assetIndex": 4150652428403412512,
      "prePerformCfg": ""
    },
    {
      "id": 7165907,
      "beginWay": "TALK_BEGIN_MANUAL",
      "beginCond": [
        {
          "type": "QUEST_COND_STATE_EQUAL",
          "_param": [
            "7165907",
            "2"
          ]
        }
      ],
      "priority": 5,
      "initDialog": 716590701,
      "npcId": [
        2058
      ],
      "performCfg": "QuestDialogue/WQ/Liyue_71659/Q7165907",
      "heroTalk": "TALK_HERO_MAIN",
      "questId": 71659,
      "assetIndex": 17819044779207096528,
      "prePerformCfg": ""
    },
    {
      "id": 7165951,
      "beginWay": "TALK_BEGIN_MANUAL",
      "beginCond": [
        {
          "type": "QUEST_COND_STATE_EQUAL",
          "_param": [
            "7165905",
            "2"
          ]
        }
      ],
      "priority": 5,
      "initDialog": 716595101,
      "npcId": [
        1587,
        2083
      ],
      "performCfg": "QuestDialogue/WQ/Liyue_71659/Q7165951",
      "heroTalk": "TALK_HERO_MAIN",
      "questId": 71659,
      "assetIndex": 14436738208818574469,
      "prePerformCfg": "",
      "stayFreeStyle": true
    }
  ],
  "preloadLuaList": [
    18344000694738099910,
    4777033214761762756
  ],
  "forcePreloadLuaList": [
    9470426934273899813
  ]
}