{
  "id": 71660,
  "KPGKDHAFHFE": "WQ",
  "mainQuestTag": "MAINQUEST_TAG_ACTIVITY",
  "activeMode": "PLAY_MODE_ALL",
  "titleTextMapHash": 3645207911,
  "descTextMapHash": 4053526518,
  "luaPath": "Actor/Quest/WQ71660",
  "rewardIdList": [
    171660
  ],
  "activityId": 5058,
  "subQuests": [
    {
      "subId": 7166001,
      "mainId": 71660,
      "order": 1,
      "descTextMapHash": 2703953924,
      "finishCond": [
        {
          "KPGKDHAFHFE": "QUEST_CONTENT_LEAVE_SCENE",
          "param": [
            35820,
            0
          ]
        },
        {
          "KPGKDHAFHFE": "QUEST_CONTENT_LEAVE_SCENE",
          "param": [
            35821,
            0
          ]
        },
        {
          "KPGKDHAFHFE": "QUEST_CONTENT_LEAVE_SCENE",
          "param": [
            35822,
            0
          ]
        },
        {
          "KPGKDHAFHFE": "QUEST_CONTENT_LEAVE_SCENE",
          "param": [
            35823,
            0
          ]
        }
      ],
      "guide": {
        "KPGKDHAFHFE": "QUEST_GUIDE_NPC",
        "param": [
          "1587"
        ],
        "guideScene": 3
      },
      "guideHint": {
        "param1": ""
      },
      "isRewind": true,
      "versionBegin": "",
      "versionEnd": ""
    },
    {
      "subId": 7166002,
      "mainId": 71660,
      "order": 2,
      "descTextMapHash": 15190364,
      "finishCond": [
        {
          "KPGKDHAFHFE": "QUEST_CONTENT_COMPLETE_TALK",
          "param": [
            7166001,
            0
          ]
        }
      ],
      "guide": {
        "KPGKDHAFHFE": "QUEST_GUIDE_NPC",
        "param": [
          "1587"
        ],
        "guideScene": 3
      },
      "guideHint": {
        "param1": ""
      },
      "finishParent": true,
      "isRewind": true,
      "versionBegin": "",
      "versionEnd": ""
    }
  ],
  "talks": [
    {
      "id": 7166001,
      "beginWay": "TALK_BEGIN_MANUAL",
      "activeMode": "PLAY_MODE_HOST",
      "beginCond": [
        {
          "type": "QUEST_COND_STATE_EQUAL",
          "_param": [
            "7166002",
            "2"
          ]
        }
      ],
      "priority": 5,
      "initDialog": 716600101,
      "npcId": [
        2083,
        1587
      ],
      "performCfg": "QuestDialogue/WQ/Liyue_71660/Q7166001",
      "heroTalk": "TALK_HERO_MAIN",
      "questId": 71660,
      "assetIndex": 1738841495620799153,
      "prePerformCfg": ""
    }
  ],
  "preloadLuaList": [
    14508182164073527186
  ],
  "forcePreloadLuaList": [
    2231746473014436875
  ],
  "freeStyleDic": {
    "1587": [
      1190
    ],
    "2083": [
      1170
    ]
  }
}