{
  "id": 71708,
  "KPGKDHAFHFE": "WQ",
  "mainQuestTag": "MAINQUEST_TAG_REPUTATION",
  "titleTextMapHash": 805132175,
  "descTextMapHash": 1099724526,
  "luaPath": "Actor/Quest/WQ71708",
  "subQuests": [
    {
      "subId": 7170801,
      "mainId": 71708,
      "order": 1,
      "descTextMapHash": 334930708,
      "finishCond": [
        {
          "KPGKDHAFHFE": "QUEST_CONTENT_FINISH_ITEM_GIVING",
          "param": [
            7170801,
            0
          ]
        }
      ],
      "guide": {
        "KPGKDHAFHFE": "QUEST_GUIDE_NPC",
        "param": [
          "2302"
        ],
        "guideScene": 3,
        "guideLayer": "QUEST_GUIDE_LAYER_SCENE"
      },
      "guideHint": {
        "param1": ""
      },
      "isRewind": true,
      "versionBegin": "",
      "versionEnd": ""
    },
    {
      "subId": 7170802,
      "mainId": 71708,
      "order": 2,
      "descTextMapHash": 756463580,
      "finishCond": [
        {
          "KPGKDHAFHFE": "QUEST_CONTENT_COMPLETE_TALK",
          "param": [
            7170802,
            0
          ]
        }
      ],
      "guide": {
        "KPGKDHAFHFE": "QUEST_GUIDE_NPC",
        "param": [
          "2302"
        ],
        "guideScene": 3,
        "guideLayer": "QUEST_GUIDE_LAYER_SCENE"
      },
      "guideHint": {
        "param1": ""
      },
      "finishParent": true,
      "isRewind": true,
      "versionBegin": "",
      "versionEnd": ""
    }
  ],
  "talks": [
    {
      "id": 7170801,
      "beginWay": "TALK_BEGIN_MANUAL",
      "beginCondComb": "LOGIC_AND",
      "beginCond": [
        {
          "type": "QUEST_COND_STATE_EQUAL",
          "_param": [
            "7170801",
            "2"
          ]
        },
        {
          "type": "QUEST_COND_ITEM_GIVING_ACTIVED",
          "_param": [
            "7170801"
          ]
        }
      ],
      "priority": 1,
      "initDialog": 717080101,
      "npcId": [
        2302
      ],
      "performCfg": "",
      "questId": 71708,
      "assetIndex": 5354270117766422902,
      "dontBlockDaily": true,
      "prePerformCfg": ""
    },
    {
      "id": 7170802,
      "beginWay": "TALK_BEGIN_AUTO",
      "beginCond": [
        {
          "type": "QUEST_COND_STATE_EQUAL",
          "_param": [
            "7170802",
            "2"
          ]
        }
      ],
      "priority": 1,
      "initDialog": 717080201,
      "npcId": [
        2302
      ],
      "performCfg": "",
      "questId": 71708,
      "assetIndex": 3806212570987743944,
      "prePerformCfg": ""
    }
  ]
}