{
  "id": 71711,
  "KPGKDHAFHFE": "WQ",
  "mainQuestTag": "MAINQUEST_TAG_REPUTATION",
  "titleTextMapHash": 1753770215,
  "descTextMapHash": 4151031062,
  "luaPath": "Actor/Quest/WQ71711",
  "subQuests": [
    {
      "subId": 7171101,
      "mainId": 71711,
      "order": 1,
      "descTextMapHash": 2476805316,
      "finishCond": [
        {
          "KPGKDHAFHFE": "QUEST_CONTENT_FINISH_ITEM_GIVING",
          "param": [
            7171101,
            0
          ]
        }
      ],
      "guide": {
        "KPGKDHAFHFE": "QUEST_GUIDE_NPC",
        "param": [
          "2046"
        ],
        "guideScene": 3,
        "guideLayer": "QUEST_GUIDE_LAYER_SCENE"
      },
      "guideHint": {
        "param1": ""
      },
      "isRewind": true,
      "versionBegin": "",
      "versionEnd": ""
    },
    {
      "subId": 7171102,
      "mainId": 71711,
      "order": 2,
      "descTextMapHash": 1125738564,
      "finishCond": [
        {
          "KPGKDHAFHFE": "QUEST_CONTENT_COMPLETE_TALK",
          "param": [
            7171102,
            0
          ]
        }
      ],
      "guide": {
        "KPGKDHAFHFE": "QUEST_GUIDE_NPC",
        "param": [
          "2046"
        ],
        "guideScene": 3,
        "guideLayer": "QUEST_GUIDE_LAYER_SCENE"
      },
      "guideHint": {
        "param1": ""
      },
      "finishParent": true,
      "isRewind": true,
      "versionBegin": "",
      "versionEnd": ""
    }
  ],
  "talks": [
    {
      "id": 7171101,
      "beginWay": "TALK_BEGIN_MANUAL",
      "beginCondComb": "LOGIC_AND",
      "beginCond": [
        {
          "type": "QUEST_COND_STATE_EQUAL",
          "_param": [
            "7171101",
            "2"
          ]
        },
        {
          "type": "QUEST_COND_ITEM_GIVING_ACTIVED",
          "_param": [
            "7171101"
          ]
        }
      ],
      "priority": 1,
      "initDialog": 717110101,
      "npcId": [
        2046
      ],
      "performCfg": "",
      "questId": 71711,
      "assetIndex": 12716882104334830639,
      "dontBlockDaily": true,
      "prePerformCfg": ""
    },
    {
      "id": 7171102,
      "beginWay": "TALK_BEGIN_AUTO",
      "beginCond": [
        {
          "type": "QUEST_COND_STATE_EQUAL",
          "_param": [
            "7171102",
            "2"
          ]
        }
      ],
      "priority": 1,
      "initDialog": 717110201,
      "npcId": [
        2046
      ],
      "performCfg": "",
      "questId": 71711,
      "assetIndex": 10174362873637729258,
      "prePerformCfg": ""
    }
  ]
}