{
  "id": 71713,
  "KPGKDHAFHFE": "WQ",
  "mainQuestTag": "MAINQUEST_TAG_REPUTATION",
  "titleTextMapHash": 2977003583,
  "descTextMapHash": 2017587350,
  "luaPath": "Actor/Quest/WQ71713",
  "subQuests": [
    {
      "subId": 7171301,
      "mainId": 71713,
      "order": 1,
      "descTextMapHash": 1011139612,
      "finishCond": [
        {
          "KPGKDHAFHFE": "QUEST_CONTENT_FINISH_ITEM_GIVING",
          "param": [
            7171301,
            0
          ]
        }
      ],
      "guide": {
        "KPGKDHAFHFE": "QUEST_GUIDE_NPC",
        "param": [
          "2048"
        ],
        "guideScene": 3,
        "guideLayer": "QUEST_GUIDE_LAYER_SCENE"
      },
      "guideHint": {
        "param1": ""
      },
      "isRewind": true,
      "versionBegin": "",
      "versionEnd": ""
    },
    {
      "subId": 7171302,
      "mainId": 71713,
      "order": 2,
      "descTextMapHash": 918307108,
      "finishCond": [
        {
          "KPGKDHAFHFE": "QUEST_CONTENT_COMPLETE_TALK",
          "param": [
            7171302,
            0
          ]
        }
      ],
      "guide": {
        "KPGKDHAFHFE": "QUEST_GUIDE_NPC",
        "param": [
          "2048"
        ],
        "guideScene": 3,
        "guideLayer": "QUEST_GUIDE_LAYER_SCENE"
      },
      "guideHint": {
        "param1": ""
      },
      "finishParent": true,
      "isRewind": true,
      "versionBegin": "",
      "versionEnd": ""
    }
  ],
  "talks": [
    {
      "id": 7171301,
      "beginWay": "TALK_BEGIN_MANUAL",
      "beginCondComb": "LOGIC_AND",
      "beginCond": [
        {
          "type": "QUEST_COND_STATE_EQUAL",
          "_param": [
            "7171301",
            "2"
          ]
        },
        {
          "type": "QUEST_COND_ITEM_GIVING_ACTIVED",
          "_param": [
            "7171301"
          ]
        }
      ],
      "priority": 1,
      "initDialog": 717130101,
      "npcId": [
        2048
      ],
      "performCfg": "",
      "questId": 71713,
      "assetIndex": 4266832565577458648,
      "dontBlockDaily": true,
      "prePerformCfg": ""
    },
    {
      "id": 7171302,
      "beginWay": "TALK_BEGIN_AUTO",
      "beginCond": [
        {
          "type": "QUEST_COND_STATE_EQUAL",
          "_param": [
            "7171302",
            "2"
          ]
        }
      ],
      "priority": 1,
      "initDialog": 717130201,
      "npcId": [
        2048
      ],
      "performCfg": "",
      "questId": 71713,
      "assetIndex": 6119250742568730695,
      "prePerformCfg": ""
    }
  ]
}