{
  "id": 71830,
  "series": 71035,
  "KPGKDHAFHFE": "WQ",
  "titleTextMapHash": 390530703,
  "descTextMapHash": 107774238,
  "luaPath": "Actor/Quest/WQ71830",
  "subQuests": [
    {
      "subId": 7183001,
      "mainId": 71830,
      "order": 1,
      "descTextMapHash": 162175332,
      "showType": "QUEST_HIDDEN",
      "finishCond": [
        {
          "KPGKDHAFHFE": "QUEST_CONTENT_TIME_VAR_PASS_DAY",
          "param": [
            71035,
            0
          ]
        }
      ],
      "guide": {},
      "guideHint": {
        "param1": ""
      },
      "isRewind": true,
      "finishExec": [
        {
          "KPGKDHAFHFE": "QUEST_EXEC_CLEAR_TIME_VAR",
          "param": [
            "71035"
          ]
        }
      ],
      "versionBegin": "",
      "versionEnd": ""
    },
    {
      "subId": 7183002,
      "mainId": 71830,
      "order": 2,
      "descTextMapHash": 1768953308,
      "GMKDJFPEFFF": [
        1101499
      ],
      "finishCond": [
        {
          "KPGKDHAFHFE": "QUEST_CONTENT_COMPLETE_TALK",
          "param": [
            7183002,
            0
          ]
        }
      ],
      "guide": {
        "KPGKDHAFHFE": "QUEST_GUIDE_NPC",
        "autoGuide": "QUEST_GUIDE_AUTO_ENABLE",
        "param": [
          "12326"
        ],
        "guideScene": 3,
        "guideStyle": "QUEST_GUIDE_STYLE_TARGET"
      },
      "guideHint": {
        "param1": ""
      },
      "isRewind": true,
      "versionBegin": "",
      "versionEnd": ""
    },
    {
      "subId": 7183003,
      "mainId": 71830,
      "order": 3,
      "descTextMapHash": 4167208364,
      "GMKDJFPEFFF": [
        1101499
      ],
      "finishCond": [
        {
          "KPGKDHAFHFE": "QUEST_CONTENT_LUA_NOTIFY",
          "param": [
            0,
            0
          ],
          "count": 1
        }
      ],
      "guide": {
        "KPGKDHAFHFE": "QUEST_GUIDE_LOCATION",
        "autoGuide": "QUEST_GUIDE_AUTO_ENABLE",
        "param": [
          "Q7183003_guide",
          "30"
        ],
        "guideScene": 3,
        "guideStyle": "QUEST_GUIDE_STYLE_POINT",
        "guideLayer": "QUEST_GUIDE_LAYER_SCENE"
      },
      "guideHint": {
        "param1": ""
      },
      "isRewind": true,
      "finishExec": [
        {
          "KPGKDHAFHFE": "QUEST_EXEC_UNREGISTER_DYNAMIC_GROUP",
          "param": [
            "133107195",
            "1"
          ]
        }
      ],
      "versionBegin": "",
      "versionEnd": ""
    },
    {
      "subId": 7183004,
      "mainId": 71830,
      "order": 4,
      "descTextMapHash": 1561216124,
      "GMKDJFPEFFF": [
        1101499
      ],
      "finishCond": [
        {
          "KPGKDHAFHFE": "QUEST_CONTENT_COMPLETE_TALK",
          "param": [
            7183004,
            0
          ]
        }
      ],
      "guide": {
        "KPGKDHAFHFE": "QUEST_GUIDE_LOCATION",
        "param": [
          "Q7183003_guide",
          "30"
        ],
        "guideScene": 3,
        "guideStyle": "QUEST_GUIDE_STYLE_POINT",
        "guideLayer": "QUEST_GUIDE_LAYER_SCENE"
      },
      "guideHint": {
        "param1": ""
      },
      "isRewind": true,
      "versionBegin": "",
      "versionEnd": ""
    },
    {
      "subId": 7183005,
      "mainId": 71830,
      "order": 6,
      "descTextMapHash": 2702975556,
      "GMKDJFPEFFF": [
        1101499
      ],
      "finishCond": [
        {
          "KPGKDHAFHFE": "QUEST_CONTENT_FINISH_ITEM_GIVING",
          "param": [
            7183005,
            0
          ]
        }
      ],
      "guide": {
        "KPGKDHAFHFE": "QUEST_GUIDE_NPC",
        "param": [
          "12326"
        ],
        "guideScene": 3,
        "guideStyle": "QUEST_GUIDE_STYLE_TARGET"
      },
      "guideHint": {
        "param1": ""
      },
      "isRewind": true,
      "versionBegin": "",
      "versionEnd": ""
    },
    {
      "subId": 7183006,
      "mainId": 71830,
      "order": 7,
      "descTextMapHash": 3501684612,
      "GMKDJFPEFFF": [
        1101499
      ],
      "finishCond": [
        {
          "KPGKDHAFHFE": "QUEST_CONTENT_COMPLETE_TALK",
          "param": [
            7183006,
            0
          ]
        }
      ],
      "guide": {
        "KPGKDHAFHFE": "QUEST_GUIDE_NPC",
        "param": [
          "12326"
        ],
        "guideScene": 3,
        "guideStyle": "QUEST_GUIDE_STYLE_TARGET"
      },
      "guideHint": {
        "param1": ""
      },
      "finishParent": true,
      "isRewind": true,
      "finishExec": [
        {
          "KPGKDHAFHFE": "QUEST_EXEC_INIT_TIME_VAR",
          "param": [
            "0"
          ]
        }
      ],
      "versionBegin": "",
      "versionEnd": ""
    },
    {
      "subId": 7183007,
      "mainId": 71830,
      "order": 5,
      "descTextMapHash": 1386263820,
      "GMKDJFPEFFF": [
        1101499
      ],
      "finishCond": [
        {
          "KPGKDHAFHFE": "QUEST_CONTENT_COMPLETE_TALK",
          "param": [
            7183007,
            0
          ]
        }
      ],
      "guide": {
        "KPGKDHAFHFE": "QUEST_GUIDE_NPC",
        "param": [
          "12326"
        ],
        "guideScene": 3,
        "guideStyle": "QUEST_GUIDE_STYLE_TARGET",
        "guideLayer": "QUEST_GUIDE_LAYER_UI"
      },
      "guideHint": {
        "param1": ""
      },
      "isRewind": true,
      "versionBegin": "",
      "versionEnd": ""
    },
    {
      "subId": 7183008,
      "mainId": 71830,
      "order": 8,
      "descTextMapHash": 1655425044,
      "showType": "QUEST_HIDDEN",
      "finishCond": [
        {
          "KPGKDHAFHFE": "QUEST_CONTENT_COMPLETE_TALK",
          "param": [
            7183006,
            0
          ]
        }
      ],
      "guide": {},
      "guideHint": {
        "param1": ""
      },
      "versionBegin": "",
      "versionEnd": ""
    }
  ],
  "talks": [
    {
      "id": 7183002,
      "beginWay": "TALK_BEGIN_MANUAL",
      "beginCond": [
        {
          "type": "QUEST_COND_STATE_EQUAL",
          "_param": [
            "7183002",
            "2"
          ]
        }
      ],
      "priority": 5,
      "initDialog": 718300201,
      "npcId": [
        12326
      ],
      "performCfg": "QuestDialogue/WQ/Liyue_71830/Q7183002",
      "heroTalk": "TALK_HERO_MAIN",
      "questId": 71830,
      "assetIndex": 3992047419149956174,
      "prePerformCfg": ""
    },
    {
      "id": 7183003,
      "beginWay": "TALK_BEGIN_MANUAL",
      "beginCondComb": "LOGIC_OR",
      "beginCond": [
        {
          "type": "QUEST_COND_STATE_EQUAL",
          "_param": [
            "7183003",
            "2"
          ]
        },
        {
          "type": "QUEST_COND_STATE_EQUAL",
          "_param": [
            "7183004",
            "2"
          ]
        }
      ],
      "priority": 3,
      "initDialog": 718300301,
      "npcId": [
        12326
      ],
      "performCfg": "QuestDialogue/WQ/Liyue_71830/Q7183003",
      "heroTalk": "TALK_HERO_MAIN",
      "questId": 71830,
      "assetIndex": 13988029231624590919,
      "prePerformCfg": "",
      "questIdleTalk": true
    },
    {
      "id": 7183004,
      "beginWay": "TALK_BEGIN_AUTO",
      "beginCond": [
        {
          "type": "QUEST_COND_STATE_EQUAL",
          "_param": [
            "7183004",
            "2"
          ]
        }
      ],
      "priority": 5,
      "initDialog": 718300401,
      "npcId": [
        12329
      ],
      "performCfg": "QuestDialogue/WQ/Liyue_71830/Q7183004",
      "heroTalk": "TALK_HERO_MAIN",
      "questId": 71830,
      "assetIndex": 17577349159614465627,
      "prePerformCfg": ""
    },
    {
      "id": 7183005,
      "beginWay": "TALK_BEGIN_MANUAL",
      "beginCondComb": "LOGIC_AND",
      "beginCond": [
        {
          "type": "QUEST_COND_STATE_EQUAL",
          "_param": [
            "7183005",
            "2"
          ]
        },
        {
          "type": "QUEST_COND_ITEM_GIVING_ACTIVED",
          "_param": [
            "7183005"
          ]
        }
      ],
      "priority": 5,
      "initDialog": 718300501,
      "npcId": [
        12326
      ],
      "performCfg": "",
      "heroTalk": "TALK_HERO_MAIN",
      "questId": 71830,
      "assetIndex": 10830947627001328248,
      "prePerformCfg": ""
    },
    {
      "id": 7183006,
      "beginWay": "TALK_BEGIN_AUTO",
      "beginCond": [
        {
          "type": "QUEST_COND_STATE_EQUAL",
          "_param": [
            "7183006",
            "2"
          ]
        }
      ],
      "priority": 5,
      "initDialog": 718300601,
      "npcId": [
        12326
      ],
      "performCfg": "QuestDialogue/WQ/Liyue_71830/Q7183006",
      "heroTalk": "TALK_HERO_MAIN",
      "questId": 71830,
      "assetIndex": 10005240812890050671,
      "prePerformCfg": ""
    },
    {
      "id": 7183007,
      "beginWay": "TALK_BEGIN_MANUAL",
      "beginCond": [
        {
          "type": "QUEST_COND_STATE_EQUAL",
          "_param": [
            "7183007",
            "2"
          ]
        }
      ],
      "priority": 5,
      "initDialog": 718300701,
      "npcId": [
        12326
      ],
      "performCfg": "QuestDialogue/WQ/Liyue_71830/Q7183007",
      "heroTalk": "TALK_HERO_MAIN",
      "questId": 71830,
      "assetIndex": 10021133276504077505,
      "prePerformCfg": ""
    },
    {
      "id": 7183011,
      "beginWay": "TALK_BEGIN_MANUAL",
      "beginCond": [
        {
          "type": "QUEST_COND_STATE_EQUAL",
          "_param": [
            "7183001",
            "2"
          ]
        }
      ],
      "priority": 3,
      "initDialog": 718301101,
      "npcId": [
        12326
      ],
      "performCfg": "",
      "heroTalk": "TALK_HERO_MAIN",
      "questId": 71830,
      "assetIndex": 548613220930898533,
      "prePerformCfg": ""
    }
  ],
  "preloadLuaList": [
    179878487079678723,
    14917458830246800697
  ],
  "forcePreloadLuaList": [
    13498577212982816254
  ],
  "freeStyleDic": {
    "12326": [
      1190
    ]
  }
}