{
  "id": 71902,
  "KPGKDHAFHFE": "WQ",
  "titleTextMapHash": 845741223,
  "descTextMapHash": 131253662,
  "luaPath": "",
  "rewardIdList": [
    552003
  ],
  "showType": "QUEST_HIDDEN",
  "subQuests": [
    {
      "subId": 7190201,
      "mainId": 71902,
      "order": 1,
      "showType": "QUEST_HIDDEN",
      "finishCond": [
        {
          "KPGKDHAFHFE": "QUEST_CONTENT_COMPLETE_TALK",
          "param": [
            7190201,
            0
          ]
        }
      ],
      "guide": {},
      "guideHint": {
        "param1": ""
      },
      "finishParent": true,
      "versionBegin": "",
      "versionEnd": ""
    }
  ]
}