{
  "id": 71905,
  "KPGKDHAFHFE": "WQ",
  "titleTextMapHash": 839367359,
  "descTextMapHash": 3254197854,
  "luaPath": "",
  "rewardIdList": [
    552007
  ],
  "showType": "QUEST_HIDDEN",
  "subQuests": [
    {
      "subId": 7190501,
      "mainId": 71905,
      "order": 1,
      "showType": "QUEST_HIDDEN",
      "finishCond": [
        {
          "KPGKDHAFHFE": "QUEST_CONTENT_COMPLETE_TALK",
          "param": [
            7190501,
            0
          ]
        }
      ],
      "guide": {},
      "guideHint": {
        "param1": ""
      },
      "finishParent": true,
      "versionBegin": "",
      "versionEnd": ""
    }
  ]
}