{
  "id": 71914,
  "KPGKDHAFHFE": "WQ",
  "titleTextMapHash": 1693634991,
  "descTextMapHash": 4036644350,
  "luaPath": "",
  "rewardIdList": [
    552017
  ],
  "showType": "QUEST_HIDDEN",
  "subQuests": [
    {
      "subId": 7191401,
      "mainId": 71914,
      "order": 1,
      "showType": "QUEST_HIDDEN",
      "finishCond": [
        {
          "KPGKDHAFHFE": "QUEST_CONTENT_COMPLETE_TALK",
          "param": [
            7191401,
            0
          ]
        }
      ],
      "guide": {},
      "guideHint": {
        "param1": ""
      },
      "finishParent": true,
      "versionBegin": "",
      "versionEnd": ""
    }
  ]
}