{
  "id": 71930,
  "KPGKDHAFHFE": "WQ",
  "titleTextMapHash": 36830279,
  "descTextMapHash": 1425450526,
  "luaPath": "",
  "rewardIdList": [
    552034
  ],
  "showType": "QUEST_HIDDEN",
  "subQuests": [
    {
      "subId": 7193001,
      "mainId": 71930,
      "order": 1,
      "showType": "QUEST_HIDDEN",
      "finishCond": [
        {
          "KPGKDHAFHFE": "QUEST_CONTENT_COMPLETE_TALK",
          "param": [
            7193001,
            0
          ]
        }
      ],
      "guide": {},
      "guideHint": {
        "param1": ""
      },
      "finishParent": true,
      "versionBegin": "",
      "versionEnd": ""
    }
  ]
}