{
  "id": 71940,
  "KPGKDHAFHFE": "WQ",
  "titleTextMapHash": 55083103,
  "descTextMapHash": 2170687094,
  "luaPath": "",
  "rewardIdList": [
    552045
  ],
  "showType": "QUEST_HIDDEN",
  "subQuests": [
    {
      "subId": 7194001,
      "mainId": 71940,
      "order": 1,
      "showType": "QUEST_HIDDEN",
      "finishCond": [
        {
          "KPGKDHAFHFE": "QUEST_CONTENT_COMPLETE_TALK",
          "param": [
            7194001,
            0
          ]
        }
      ],
      "guide": {},
      "guideHint": {
        "param1": ""
      },
      "finishParent": true,
      "versionBegin": "",
      "versionEnd": ""
    }
  ]
}