{
  "id": 71946,
  "KPGKDHAFHFE": "WQ",
  "titleTextMapHash": 1747482807,
  "descTextMapHash": 406717134,
  "luaPath": "",
  "rewardIdList": [
    552055
  ],
  "showType": "QUEST_HIDDEN",
  "subQuests": [
    {
      "subId": 7194601,
      "mainId": 71946,
      "order": 1,
      "showType": "QUEST_HIDDEN",
      "finishCond": [
        {
          "KPGKDHAFHFE": "QUEST_CONTENT_COMPLETE_TALK",
          "param": [
            7194601,
            0
          ]
        }
      ],
      "guide": {},
      "guideHint": {
        "param1": ""
      },
      "finishParent": true,
      "versionBegin": "",
      "versionEnd": ""
    }
  ]
}