{
  "id": 71942,
  "KPGKDHAFHFE": "WQ",
  "titleTextMapHash": 1560118535,
  "descTextMapHash": 1458738230,
  "luaPath": "",
  "rewardIdList": [
    552050
  ],
  "showType": "QUEST_HIDDEN",
  "subQuests": [
    {
      "subId": 7194201,
      "mainId": 71942,
      "order": 1,
      "showType": "QUEST_HIDDEN",
      "finishCond": [
        {
          "KPGKDHAFHFE": "QUEST_CONTENT_COMPLETE_TALK",
          "param": [
            7194201,
            0
          ]
        }
      ],
      "guide": {},
      "guideHint": {
        "param1": ""
      },
      "finishParent": true,
      "versionBegin": "",
      "versionEnd": ""
    }
  ]
}