{
  "id": 71953,
  "KPGKDHAFHFE": "WQ",
  "titleTextMapHash": 583141319,
  "descTextMapHash": 2025568694,
  "luaPath": "",
  "rewardIdList": [
    552002
  ],
  "showType": "QUEST_HIDDEN",
  "subQuests": [
    {
      "subId": 7195301,
      "mainId": 71953,
      "order": 1,
      "showType": "QUEST_HIDDEN",
      "finishCond": [
        {
          "KPGKDHAFHFE": "QUEST_CONTENT_COMPLETE_TALK",
          "param": [
            7195301,
            0
          ]
        }
      ],
      "guide": {},
      "guideHint": {
        "param1": ""
      },
      "finishParent": true,
      "versionBegin": "",
      "versionEnd": ""
    }
  ]
}