{
  "id": 71950,
  "KPGKDHAFHFE": "WQ",
  "titleTextMapHash": 3809677527,
  "descTextMapHash": 2966302446,
  "luaPath": "",
  "rewardIdList": [
    552059
  ],
  "showType": "QUEST_HIDDEN",
  "subQuests": [
    {
      "subId": 7195001,
      "mainId": 71950,
      "order": 1,
      "showType": "QUEST_HIDDEN",
      "finishCond": [
        {
          "KPGKDHAFHFE": "QUEST_CONTENT_COMPLETE_TALK",
          "param": [
            7195001,
            0
          ]
        }
      ],
      "guide": {},
      "guideHint": {
        "param1": ""
      },
      "finishParent": true,
      "versionBegin": "",
      "versionEnd": ""
    }
  ]
}