{
  "id": 72166,
  "series": 72166,
  "KPGKDHAFHFE": "WQ",
  "mainQuestTag": "MAINQUEST_TAG_RANK_ZERO_WQ",
  "activeMode": "PLAY_MODE_ALL",
  "titleTextMapHash": 2548337375,
  "descTextMapHash": 134877134,
  "luaPath": "Actor/Quest/WQ72166",
  "rewardIdList": [
    172166
  ],
  "chapterId": 10044,
  "subQuests": [
    {
      "subId": 7216601,
      "mainId": 72166,
      "order": 6,
      "descTextMapHash": 1021763428,
      "stepDescTextMapHash": 3008102677,
      "GMKDJFPEFFF": [
        19012
      ],
      "finishCond": [
        {
          "KPGKDHAFHFE": "QUEST_CONTENT_COMPLETE_TALK",
          "param": [
            7216601,
            0
          ]
        }
      ],
      "guide": {
        "KPGKDHAFHFE": "QUEST_GUIDE_LOCATION",
        "autoGuide": "QUEST_GUIDE_AUTO_ENABLE",
        "param": [
          "Q3_72116_1"
        ],
        "guideScene": 3,
        "guideStyle": "QUEST_GUIDE_STYLE_TARGET",
        "guideLayer": "QUEST_GUIDE_LAYER_SCENE"
      },
      "guideHint": {
        "param1": ""
      },
      "versionBegin": "",
      "versionEnd": ""
    },
    {
      "subId": 7216602,
      "mainId": 72166,
      "order": 9,
      "descTextMapHash": 3437536932,
      "finishCond": [
        {
          "KPGKDHAFHFE": "QUEST_CONTENT_FINISH_PLOT",
          "param": [
            7216602,
            0
          ]
        }
      ],
      "guide": {
        "KPGKDHAFHFE": "QUEST_GUIDE_LOCATION",
        "param": [
          "Q3_72116_2",
          "50"
        ],
        "guideScene": 3,
        "guideLayer": "QUEST_GUIDE_LAYER_SCENE"
      },
      "guideHint": {
        "param1": ""
      },
      "isRewind": true,
      "finishExec": [
        {
          "KPGKDHAFHFE": "QUEST_EXEC_UNREGISTER_DYNAMIC_GROUP",
          "param": [
            "133223326"
          ]
        }
      ],
      "versionBegin": "",
      "versionEnd": ""
    },
    {
      "subId": 7216603,
      "mainId": 72166,
      "order": 10,
      "descTextMapHash": 394981868,
      "finishCond": [
        {
          "KPGKDHAFHFE": "QUEST_CONTENT_COMPLETE_TALK",
          "param": [
            7216602,
            0
          ]
        }
      ],
      "guide": {
        "KPGKDHAFHFE": "QUEST_GUIDE_NPC",
        "autoGuide": "QUEST_GUIDE_AUTO_ENABLE",
        "param": [
          "20320"
        ],
        "guideScene": 3,
        "guideStyle": "QUEST_GUIDE_STYLE_TARGET",
        "guideLayer": "QUEST_GUIDE_LAYER_SCENE"
      },
      "guideHint": {
        "param1": ""
      },
      "isRewind": true,
      "finishExec": [
        {
          "KPGKDHAFHFE": "QUEST_EXEC_DEL_PACK_ITEM",
          "param": [
            "100950",
            "1"
          ]
        }
      ],
      "versionBegin": "",
      "versionEnd": ""
    },
    {
      "subId": 7216604,
      "mainId": 72166,
      "order": 12,
      "descTextMapHash": 1234618156,
      "finishCond": [
        {
          "KPGKDHAFHFE": "QUEST_CONTENT_LUA_NOTIFY",
          "param": [
            0,
            0
          ],
          "count": 1
        }
      ],
      "guide": {
        "KPGKDHAFHFE": "QUEST_GUIDE_GADGET",
        "autoGuide": "QUEST_GUIDE_AUTO_ENABLE",
        "param": [
          "133223312",
          "312001",
          "-6277.375:214.4355:-2993.29"
        ],
        "guideScene": 3,
        "guideStyle": "QUEST_GUIDE_STYLE_TARGET",
        "guideLayer": "QUEST_GUIDE_LAYER_SCENE"
      },
      "guideHint": {
        "param1": ""
      },
      "isRewind": true,
      "finishExec": [
        {
          "KPGKDHAFHFE": "QUEST_EXEC_NOTIFY_GROUP_LUA",
          "param": [
            "3",
            "133223312"
          ]
        }
      ],
      "versionBegin": "",
      "versionEnd": ""
    },
    {
      "subId": 7216605,
      "mainId": 72166,
      "order": 16,
      "showType": "QUEST_HIDDEN",
      "finishCond": [
        {
          "KPGKDHAFHFE": "QUEST_CONTENT_COMPLETE_TALK",
          "param": [
            7216603,
            0
          ]
        }
      ],
      "guide": {},
      "showGuide": "QUEST_GUIDE_ITEM_DISABLE",
      "guideHint": {
        "param1": ""
      },
      "isRewind": true,
      "versionBegin": "",
      "versionEnd": ""
    },
    {
      "subId": 7216606,
      "mainId": 72166,
      "order": 17,
      "descTextMapHash": 2243825604,
      "stepDescTextMapHash": 3155653189,
      "finishCond": [
        {
          "KPGKDHAFHFE": "QUEST_CONTENT_FINISH_PLOT",
          "param": [
            7216606,
            0
          ]
        }
      ],
      "guide": {
        "KPGKDHAFHFE": "QUEST_GUIDE_LOCATION",
        "autoGuide": "QUEST_GUIDE_AUTO_ENABLE",
        "param": [
          "Q3_72116_JS_Nav",
          "50"
        ],
        "guideScene": 3,
        "guideStyle": "QUEST_GUIDE_STYLE_TARGET",
        "guideLayer": "QUEST_GUIDE_LAYER_SCENE"
      },
      "guideHint": {
        "param1": ""
      },
      "isRewind": true,
      "versionBegin": "",
      "versionEnd": ""
    },
    {
      "subId": 7216607,
      "mainId": 72166,
      "order": 21,
      "subIdSet": 1,
      "descTextMapHash": 1080819508,
      "finishCond": [
        {
          "KPGKDHAFHFE": "QUEST_CONTENT_ADD_QUEST_PROGRESS",
          "param": [
            7216607,
            0
          ],
          "count": 3
        }
      ],
      "guide": {
        "KPGKDHAFHFE": "QUEST_GUIDE_LOCATION",
        "autoGuide": "QUEST_GUIDE_AUTO_ENABLE",
        "param": [
          "Q3_72166_JiSi_Center",
          "40"
        ],
        "guideScene": 3,
        "guideStyle": "QUEST_GUIDE_STYLE_TARGET",
        "guideLayer": "QUEST_GUIDE_LAYER_SCENE"
      },
      "guideHint": {
        "param1": ""
      },
      "isRewind": true,
      "versionBegin": "",
      "versionEnd": ""
    },
    {
      "subId": 7216608,
      "mainId": 72166,
      "order": 24,
      "descTextMapHash": 30850652,
      "stepDescTextMapHash": 2168556453,
      "finishCond": [
        {
          "KPGKDHAFHFE": "QUEST_CONTENT_FINISH_PLOT",
          "param": [
            7216608,
            0
          ]
        }
      ],
      "guide": {
        "KPGKDHAFHFE": "QUEST_GUIDE_LOCATION",
        "autoGuide": "QUEST_GUIDE_AUTO_ENABLE",
        "param": [
          "Q3_72116_AreaA_Nav"
        ],
        "guideScene": 3,
        "guideStyle": "QUEST_GUIDE_STYLE_POINT",
        "guideLayer": "QUEST_GUIDE_LAYER_SCENE"
      },
      "guideHint": {
        "param1": ""
      },
      "isRewind": true,
      "versionBegin": "",
      "versionEnd": ""
    },
    {
      "subId": 7216609,
      "mainId": 72166,
      "order": 26,
      "descTextMapHash": 2197604260,
      "finishCond": [
        {
          "KPGKDHAFHFE": "QUEST_CONTENT_COMPLETE_TALK",
          "param": [
            7216607,
            0
          ]
        }
      ],
      "guide": {
        "KPGKDHAFHFE": "QUEST_GUIDE_NPC",
        "param": [
          "20327"
        ],
        "guideScene": 3,
        "guideLayer": "QUEST_GUIDE_LAYER_SCENE"
      },
      "guideHint": {
        "param1": ""
      },
      "finishExec": [
        {
          "KPGKDHAFHFE": "QUEST_EXEC_UNREGISTER_DYNAMIC_GROUP",
          "param": [
            "133223327"
          ]
        }
      ],
      "versionBegin": "",
      "versionEnd": ""
    },
    {
      "subId": 7216610,
      "mainId": 72166,
      "order": 27,
      "descTextMapHash": 4114737988,
      "finishCond": [
        {
          "KPGKDHAFHFE": "QUEST_CONTENT_LUA_NOTIFY",
          "param": [
            0,
            0
          ],
          "count": 1
        }
      ],
      "guide": {
        "KPGKDHAFHFE": "QUEST_GUIDE_LOCATION",
        "autoGuide": "QUEST_GUIDE_AUTO_ENABLE",
        "param": [
          "Q_72166_AreaA_Puzzle_Nav",
          "25"
        ],
        "guideScene": 3,
        "guideStyle": "QUEST_GUIDE_STYLE_TARGET",
        "guideLayer": "QUEST_GUIDE_LAYER_SCENE"
      },
      "guideHint": {
        "param1": ""
      },
      "isRewind": true,
      "versionBegin": "",
      "versionEnd": ""
    },
    {
      "subId": 7216611,
      "mainId": 72166,
      "order": 29,
      "descTextMapHash": 3037295052,
      "stepDescTextMapHash": 1493874757,
      "finishCond": [
        {
          "KPGKDHAFHFE": "QUEST_CONTENT_FINISH_PLOT",
          "param": [
            7216611,
            0
          ]
        }
      ],
      "guide": {
        "KPGKDHAFHFE": "QUEST_GUIDE_LOCATION",
        "autoGuide": "QUEST_GUIDE_AUTO_ENABLE",
        "param": [
          "Q3_72116_AreaB_Nav",
          "35"
        ],
        "guideScene": 3,
        "guideStyle": "QUEST_GUIDE_STYLE_TARGET",
        "guideLayer": "QUEST_GUIDE_LAYER_SCENE"
      },
      "guideHint": {
        "param1": ""
      },
      "isRewind": true,
      "versionBegin": "",
      "versionEnd": ""
    },
    {
      "subId": 7216612,
      "mainId": 72166,
      "order": 31,
      "descTextMapHash": 1461307772,
      "finishCond": [
        {
          "KPGKDHAFHFE": "QUEST_CONTENT_COMPLETE_TALK",
          "param": [
            7216609,
            0
          ]
        }
      ],
      "guide": {
        "guideScene": 3,
        "guideStyle": "QUEST_GUIDE_STYLE_TARGET",
        "guideLayer": "QUEST_GUIDE_LAYER_SCENE"
      },
      "showGuide": "QUEST_GUIDE_ITEM_DISABLE",
      "guideHint": {
        "param1": ""
      },
      "isRewind": true,
      "finishExec": [
        {
          "KPGKDHAFHFE": "QUEST_EXEC_NOTIFY_GROUP_LUA",
          "param": [
            "3",
            "133223379"
          ]
        }
      ],
      "versionBegin": "",
      "versionEnd": ""
    },
    {
      "subId": 7216613,
      "mainId": 72166,
      "order": 35,
      "descTextMapHash": 3728961108,
      "finishCond": [
        {
          "KPGKDHAFHFE": "QUEST_CONTENT_LUA_NOTIFY",
          "param": [
            0,
            0
          ],
          "count": 1
        }
      ],
      "guide": {
        "KPGKDHAFHFE": "QUEST_GUIDE_GADGET",
        "autoGuide": "QUEST_GUIDE_AUTO_ENABLE",
        "param": [
          "133225049",
          "49001",
          "-6311.984:252:-2536"
        ],
        "guideScene": 3,
        "guideStyle": "QUEST_GUIDE_STYLE_TARGET",
        "guideLayer": "QUEST_GUIDE_LAYER_SCENE"
      },
      "guideHint": {
        "param1": ""
      },
      "versionBegin": "",
      "versionEnd": ""
    },
    {
      "subId": 7216614,
      "mainId": 72166,
      "order": 32,
      "descTextMapHash": 1180390956,
      "finishCond": [
        {
          "KPGKDHAFHFE": "QUEST_CONTENT_LUA_NOTIFY",
          "param": [
            0,
            0
          ],
          "count": 1
        }
      ],
      "guide": {
        "KPGKDHAFHFE": "QUEST_GUIDE_LOCATION",
        "autoGuide": "QUEST_GUIDE_AUTO_ENABLE",
        "param": [
          "Q3_72116_AreaB_Nav",
          "30"
        ],
        "guideScene": 3,
        "guideStyle": "QUEST_GUIDE_STYLE_TARGET",
        "guideLayer": "QUEST_GUIDE_LAYER_SCENE"
      },
      "guideHint": {
        "param1": ""
      },
      "isRewind": true,
      "versionBegin": "",
      "versionEnd": ""
    },
    {
      "subId": 7216615,
      "mainId": 72166,
      "order": 34,
      "descTextMapHash": 3744068708,
      "stepDescTextMapHash": 3885976997,
      "finishCond": [
        {
          "KPGKDHAFHFE": "QUEST_CONTENT_FINISH_PLOT",
          "param": [
            7216615,
            0
          ]
        }
      ],
      "guide": {
        "KPGKDHAFHFE": "QUEST_GUIDE_LOCATION",
        "autoGuide": "QUEST_GUIDE_AUTO_ENABLE",
        "param": [
          "Q3_72116_AreaC_Nav",
          "40"
        ],
        "guideScene": 3,
        "guideStyle": "QUEST_GUIDE_STYLE_TARGET",
        "guideLayer": "QUEST_GUIDE_LAYER_SCENE"
      },
      "guideHint": {
        "param1": ""
      },
      "isRewind": true,
      "versionBegin": "",
      "versionEnd": ""
    },
    {
      "subId": 7216616,
      "mainId": 72166,
      "order": 42,
      "subIdSet": 2,
      "descTextMapHash": 2890385980,
      "guideTipsTextMapHash": 3285929086,
      "finishCond": [
        {
          "KPGKDHAFHFE": "QUEST_CONTENT_LUA_NOTIFY",
          "param": [
            0,
            0
          ],
          "count": 1
        }
      ],
      "guide": {
        "guideScene": 3,
        "guideStyle": "QUEST_GUIDE_STYLE_TARGET",
        "guideLayer": "QUEST_GUIDE_LAYER_SCENE"
      },
      "showGuide": "QUEST_GUIDE_ITEM_DISABLE",
      "guideHint": {
        "param1": ""
      },
      "versionBegin": "",
      "versionEnd": ""
    },
    {
      "subId": 7216617,
      "mainId": 72166,
      "order": 45,
      "descTextMapHash": 1092618020,
      "finishCond": [
        {
          "KPGKDHAFHFE": "QUEST_CONTENT_LUA_NOTIFY",
          "param": [
            0,
            0
          ],
          "count": 1
        }
      ],
      "guide": {
        "KPGKDHAFHFE": "QUEST_GUIDE_LOCATION",
        "autoGuide": "QUEST_GUIDE_AUTO_ENABLE",
        "param": [
          "Q_72166_StoneTrigger",
          "30"
        ],
        "guideScene": 3,
        "guideStyle": "QUEST_GUIDE_STYLE_TARGET",
        "guideLayer": "QUEST_GUIDE_LAYER_SCENE"
      },
      "guideHint": {
        "param1": ""
      },
      "isRewind": true,
      "versionBegin": "",
      "versionEnd": ""
    },
    {
      "subId": 7216618,
      "mainId": 72166,
      "order": 47,
      "descTextMapHash": 3705777436,
      "stepDescTextMapHash": 2885383725,
      "finishCond": [
        {
          "KPGKDHAFHFE": "QUEST_CONTENT_FINISH_PLOT",
          "param": [
            7216618,
            0
          ]
        }
      ],
      "guide": {
        "KPGKDHAFHFE": "QUEST_GUIDE_LOCATION",
        "autoGuide": "QUEST_GUIDE_AUTO_ENABLE",
        "param": [
          "Q3_72116_JS_Nav",
          "50"
        ],
        "guideScene": 3,
        "guideStyle": "QUEST_GUIDE_STYLE_TARGET",
        "guideLayer": "QUEST_GUIDE_LAYER_SCENE"
      },
      "guideHint": {
        "param1": ""
      },
      "isRewind": true,
      "finishExec": [
        {
          "KPGKDHAFHFE": "QUEST_EXEC_NOTIFY_GROUP_LUA",
          "param": [
            "3",
            "133225091"
          ]
        }
      ],
      "versionBegin": "",
      "versionEnd": ""
    },
    {
      "subId": 7216619,
      "mainId": 72166,
      "order": 53,
      "descTextMapHash": 1840743716,
      "GMKDJFPEFFF": [
        19012
      ],
      "finishCond": [
        {
          "KPGKDHAFHFE": "QUEST_CONTENT_COMPLETE_TALK",
          "param": [
            7216606,
            0
          ]
        }
      ],
      "guide": {
        "KPGKDHAFHFE": "QUEST_GUIDE_NPC",
        "autoGuide": "QUEST_GUIDE_AUTO_ENABLE",
        "param": [
          "20321"
        ],
        "guideScene": 3,
        "guideStyle": "QUEST_GUIDE_STYLE_TARGET",
        "guideLayer": "QUEST_GUIDE_LAYER_SCENE"
      },
      "guideHint": {
        "param1": ""
      },
      "finishParent": true,
      "isRewind": true,
      "finishExec": [
        {
          "KPGKDHAFHFE": "QUEST_EXEC_INIT_TIME_VAR",
          "param": [
            "0"
          ]
        }
      ],
      "versionBegin": "",
      "versionEnd": ""
    },
    {
      "subId": 7216620,
      "mainId": 72166,
      "order": 36,
      "descTextMapHash": 1104225356,
      "finishCond": [
        {
          "KPGKDHAFHFE": "QUEST_CONTENT_COMPLETE_TALK",
          "param": [
            7216611,
            0
          ]
        }
      ],
      "guide": {
        "KPGKDHAFHFE": "QUEST_GUIDE_NPC",
        "autoGuide": "QUEST_GUIDE_AUTO_ENABLE",
        "param": [
          "20334"
        ],
        "guideScene": 3,
        "guideStyle": "QUEST_GUIDE_STYLE_TARGET",
        "guideLayer": "QUEST_GUIDE_LAYER_SCENE"
      },
      "guideHint": {
        "param1": ""
      },
      "isRewind": true,
      "finishExec": [
        {
          "KPGKDHAFHFE": "QUEST_EXEC_NOTIFY_GROUP_LUA",
          "param": [
            "3",
            "133225049"
          ]
        },
        {
          "KPGKDHAFHFE": "QUEST_EXEC_UNREGISTER_DYNAMIC_GROUP",
          "param": [
            "133225156"
          ]
        }
      ],
      "versionBegin": "",
      "versionEnd": ""
    },
    {
      "subId": 7216621,
      "mainId": 72166,
      "order": 18,
      "showType": "QUEST_HIDDEN",
      "finishCond": [
        {
          "KPGKDHAFHFE": "QUEST_CONTENT_COMPLETE_TALK",
          "param": [
            7216605,
            0
          ]
        }
      ],
      "guide": {
        "autoGuide": "QUEST_GUIDE_AUTO_ENABLE",
        "guideScene": 3,
        "guideStyle": "QUEST_GUIDE_STYLE_TARGET",
        "guideLayer": "QUEST_GUIDE_LAYER_SCENE"
      },
      "showGuide": "QUEST_GUIDE_ITEM_DISABLE",
      "guideHint": {
        "param1": ""
      },
      "finishExec": [
        {
          "KPGKDHAFHFE": "QUEST_EXEC_ADD_QUEST_PROGRESS",
          "param": [
            "7216607",
            "1"
          ]
        }
      ],
      "versionBegin": "",
      "versionEnd": ""
    },
    {
      "subId": 7216622,
      "mainId": 72166,
      "order": 19,
      "showType": "QUEST_HIDDEN",
      "finishCond": [
        {
          "KPGKDHAFHFE": "QUEST_CONTENT_COMPLETE_TALK",
          "param": [
            7216604,
            0
          ]
        }
      ],
      "guide": {
        "guideScene": 3,
        "guideLayer": "QUEST_GUIDE_LAYER_SCENE"
      },
      "showGuide": "QUEST_GUIDE_ITEM_DISABLE",
      "guideHint": {
        "param1": ""
      },
      "finishExec": [
        {
          "KPGKDHAFHFE": "QUEST_EXEC_ADD_QUEST_PROGRESS",
          "param": [
            "7216607",
            "1"
          ]
        }
      ],
      "versionBegin": "",
      "versionEnd": ""
    },
    {
      "subId": 7216623,
      "mainId": 72166,
      "order": 28,
      "descTextMapHash": 3239168996,
      "finishCond": [
        {
          "KPGKDHAFHFE": "QUEST_CONTENT_COMPLETE_TALK",
          "param": [
            7216608,
            0
          ]
        }
      ],
      "guide": {
        "KPGKDHAFHFE": "QUEST_GUIDE_NPC",
        "param": [
          "20327"
        ],
        "guideScene": 3,
        "guideStyle": "QUEST_GUIDE_STYLE_TARGET",
        "guideLayer": "QUEST_GUIDE_LAYER_SCENE"
      },
      "guideHint": {
        "param1": ""
      },
      "isRewind": true,
      "versionBegin": "",
      "versionEnd": ""
    },
    {
      "subId": 7216624,
      "mainId": 72166,
      "order": 33,
      "descTextMapHash": 1381476860,
      "finishCond": [
        {
          "KPGKDHAFHFE": "QUEST_CONTENT_COMPLETE_TALK",
          "param": [
            7216610,
            0
          ]
        }
      ],
      "guide": {
        "KPGKDHAFHFE": "QUEST_GUIDE_NPC",
        "param": [
          "20328"
        ],
        "guideScene": 3,
        "guideStyle": "QUEST_GUIDE_STYLE_TARGET",
        "guideLayer": "QUEST_GUIDE_LAYER_SCENE"
      },
      "guideHint": {
        "param1": ""
      },
      "isRewind": true,
      "versionBegin": "",
      "versionEnd": ""
    },
    {
      "subId": 7216625,
      "mainId": 72166,
      "order": 46,
      "descTextMapHash": 2977927932,
      "finishCond": [
        {
          "KPGKDHAFHFE": "QUEST_CONTENT_COMPLETE_TALK",
          "param": [
            7216612,
            0
          ]
        }
      ],
      "guide": {
        "KPGKDHAFHFE": "QUEST_GUIDE_NPC",
        "autoGuide": "QUEST_GUIDE_AUTO_ENABLE",
        "param": [
          "20334"
        ],
        "guideScene": 3,
        "guideStyle": "QUEST_GUIDE_STYLE_TARGET",
        "guideLayer": "QUEST_GUIDE_LAYER_SCENE"
      },
      "guideHint": {
        "param1": ""
      },
      "isRewind": true,
      "finishExec": [
        {
          "KPGKDHAFHFE": "QUEST_EXEC_UNREGISTER_DYNAMIC_GROUP",
          "param": [
            "133225157"
          ]
        }
      ],
      "versionBegin": "",
      "versionEnd": ""
    },
    {
      "subId": 7216626,
      "mainId": 72166,
      "order": 40,
      "subIdSet": 2,
      "descTextMapHash": 404796676,
      "guideTipsTextMapHash": 338623878,
      "finishCond": [
        {
          "KPGKDHAFHFE": "QUEST_CONTENT_LUA_NOTIFY",
          "param": [
            0,
            0
          ],
          "count": 1
        }
      ],
      "guide": {
        "guideScene": 3,
        "guideStyle": "QUEST_GUIDE_STYLE_TARGET",
        "guideLayer": "QUEST_GUIDE_LAYER_SCENE"
      },
      "showGuide": "QUEST_GUIDE_ITEM_DISABLE",
      "guideHint": {
        "param1": ""
      },
      "versionBegin": "",
      "versionEnd": ""
    },
    {
      "subId": 7216627,
      "mainId": 72166,
      "order": 41,
      "subIdSet": 2,
      "descTextMapHash": 3547723572,
      "guideTipsTextMapHash": 7803326,
      "finishCond": [
        {
          "KPGKDHAFHFE": "QUEST_CONTENT_LUA_NOTIFY",
          "param": [
            0,
            0
          ],
          "count": 1
        }
      ],
      "guide": {
        "guideScene": 3,
        "guideStyle": "QUEST_GUIDE_STYLE_TARGET",
        "guideLayer": "QUEST_GUIDE_LAYER_SCENE"
      },
      "showGuide": "QUEST_GUIDE_ITEM_DISABLE",
      "guideHint": {
        "param1": ""
      },
      "finishExec": [
        {
          "KPGKDHAFHFE": "QUEST_EXEC_REFRESH_GROUP_SUITE",
          "param": [
            "3",
            "133225271,1"
          ]
        }
      ],
      "versionBegin": "",
      "versionEnd": ""
    },
    {
      "subId": 7216628,
      "mainId": 72166,
      "order": 44,
      "descTextMapHash": 1125376524,
      "finishCond": [
        {
          "KPGKDHAFHFE": "QUEST_CONTENT_LUA_NOTIFY",
          "param": [
            0,
            0
          ],
          "count": 1
        }
      ],
      "guide": {
        "KPGKDHAFHFE": "QUEST_GUIDE_LOCATION",
        "autoGuide": "QUEST_GUIDE_AUTO_ENABLE",
        "param": [
          "Q_72166_StoneTrigger",
          "30"
        ],
        "guideScene": 3,
        "guideStyle": "QUEST_GUIDE_STYLE_TARGET",
        "guideLayer": "QUEST_GUIDE_LAYER_SCENE"
      },
      "guideHint": {
        "param1": ""
      },
      "isRewind": true,
      "versionBegin": "",
      "versionEnd": ""
    },
    {
      "subId": 7216629,
      "mainId": 72166,
      "order": 48,
      "showType": "QUEST_HIDDEN",
      "finishCond": [
        {
          "KPGKDHAFHFE": "QUEST_CONTENT_COMPLETE_TALK",
          "param": [
            7216613,
            0
          ]
        }
      ],
      "guide": {},
      "showGuide": "QUEST_GUIDE_ITEM_DISABLE",
      "guideHint": {
        "param1": ""
      },
      "versionBegin": "",
      "versionEnd": ""
    },
    {
      "subId": 7216630,
      "mainId": 72166,
      "order": 1,
      "showType": "QUEST_HIDDEN",
      "finishCond": [
        {
          "KPGKDHAFHFE": "QUEST_CONTENT_TIME_VAR_PASS_DAY",
          "param": [
            72167,
            0
          ]
        }
      ],
      "guide": {},
      "showGuide": "QUEST_GUIDE_ITEM_DISABLE",
      "guideHint": {
        "param1": ""
      },
      "isRewind": true,
      "finishExec": [
        {
          "KPGKDHAFHFE": "QUEST_EXEC_CHANGE_MAP_AREA_STATE",
          "param": [
            "1",
            "1"
          ]
        },
        {
          "KPGKDHAFHFE": "QUEST_EXEC_MODIFY_CLIMATE_AREA",
          "param": [
            "3",
            "7",
            "11"
          ]
        },
        {
          "KPGKDHAFHFE": "QUEST_EXEC_SET_WEATHER_GADGET",
          "param": [
            "3103",
            "1"
          ]
        }
      ],
      "versionBegin": "",
      "versionEnd": ""
    },
    {
      "subId": 7216631,
      "mainId": 72166,
      "order": 2,
      "showType": "QUEST_HIDDEN",
      "finishCond": [
        {
          "KPGKDHAFHFE": "QUEST_CONTENT_FINISH_PLOT",
          "param": [
            7216631,
            0
          ]
        }
      ],
      "guide": {
        "KPGKDHAFHFE": "QUEST_GUIDE_LOCATION",
        "guideStyle": "QUEST_GUIDE_STYLE_TARGET",
        "guideLayer": "QUEST_GUIDE_LAYER_SCENE"
      },
      "showGuide": "QUEST_GUIDE_ITEM_DISABLE",
      "guideHint": {
        "param1": ""
      },
      "isRewind": true,
      "versionBegin": "",
      "versionEnd": ""
    },
    {
      "subId": 7216632,
      "mainId": 72166,
      "order": 3,
      "showType": "QUEST_HIDDEN",
      "finishCond": [
        {
          "KPGKDHAFHFE": "QUEST_CONTENT_FINISH_PLOT",
          "param": [
            7216632,
            0
          ]
        }
      ],
      "failCond": [
        {
          "KPGKDHAFHFE": "QUEST_CONTENT_QUEST_STATE_EQUAL",
          "param": [
            7216601,
            3
          ]
        }
      ],
      "guide": {},
      "showGuide": "QUEST_GUIDE_ITEM_DISABLE",
      "guideHint": {
        "param1": ""
      },
      "versionBegin": "",
      "versionEnd": ""
    },
    {
      "subId": 7216633,
      "mainId": 72166,
      "order": 4,
      "showType": "QUEST_HIDDEN",
      "finishCond": [
        {
          "KPGKDHAFHFE": "QUEST_CONTENT_COMPLETE_TALK",
          "param": [
            7216614,
            0
          ]
        }
      ],
      "guide": {},
      "showGuide": "QUEST_GUIDE_ITEM_DISABLE",
      "guideHint": {
        "param1": ""
      },
      "isRewind": true,
      "versionBegin": "",
      "versionEnd": ""
    },
    {
      "subId": 7216634,
      "mainId": 72166,
      "order": 13,
      "showType": "QUEST_HIDDEN",
      "finishCond": [
        {
          "KPGKDHAFHFE": "QUEST_CONTENT_COMPLETE_TALK",
          "param": [
            7216619,
            0
          ]
        }
      ],
      "guide": {},
      "showGuide": "QUEST_GUIDE_ITEM_DISABLE",
      "guideHint": {
        "param1": ""
      },
      "versionBegin": "",
      "versionEnd": ""
    },
    {
      "subId": 7216635,
      "mainId": 72166,
      "order": 8,
      "descTextMapHash": 3564470188,
      "stepDescTextMapHash": 2612390653,
      "finishCond": [
        {
          "KPGKDHAFHFE": "QUEST_CONTENT_FINISH_PLOT",
          "param": [
            7216635,
            0
          ]
        }
      ],
      "guide": {
        "KPGKDHAFHFE": "QUEST_GUIDE_LOCATION",
        "autoGuide": "QUEST_GUIDE_AUTO_ENABLE",
        "param": [
          "72167_jinquan",
          "30"
        ],
        "guideScene": 3,
        "guideStyle": "QUEST_GUIDE_STYLE_TARGET",
        "guideLayer": "QUEST_GUIDE_LAYER_SCENE"
      },
      "guideHint": {
        "param1": ""
      },
      "isRewind": true,
      "finishExec": [
        {
          "KPGKDHAFHFE": "QUEST_EXEC_CHANGE_MAP_AREA_STATE",
          "param": [
            "1",
            "0"
          ]
        },
        {
          "KPGKDHAFHFE": "QUEST_EXEC_MODIFY_CLIMATE_AREA",
          "param": [
            "3",
            "7",
            "0"
          ]
        },
        {
          "KPGKDHAFHFE": "QUEST_EXEC_SET_WEATHER_GADGET",
          "param": [
            "3103",
            "0"
          ]
        }
      ],
      "versionBegin": "",
      "versionEnd": ""
    },
    {
      "subId": 7216636,
      "mainId": 72166,
      "order": 14,
      "descTextMapHash": 2691372612,
      "finishCond": [
        {
          "KPGKDHAFHFE": "QUEST_CONTENT_COMPLETE_TALK",
          "param": [
            7216620,
            0
          ]
        }
      ],
      "guide": {
        "KPGKDHAFHFE": "QUEST_GUIDE_NPC",
        "autoGuide": "QUEST_GUIDE_AUTO_ENABLE",
        "param": [
          "20444"
        ],
        "guideScene": 3,
        "guideStyle": "QUEST_GUIDE_STYLE_TARGET",
        "guideLayer": "QUEST_GUIDE_LAYER_SCENE"
      },
      "guideHint": {
        "param1": ""
      },
      "isRewind": true,
      "versionBegin": "",
      "versionEnd": ""
    },
    {
      "subId": 7216637,
      "mainId": 72166,
      "order": 15,
      "descTextMapHash": 1269309116,
      "finishCond": [
        {
          "KPGKDHAFHFE": "QUEST_CONTENT_LUA_NOTIFY",
          "param": [
            0,
            0
          ],
          "count": 1
        }
      ],
      "guide": {
        "KPGKDHAFHFE": "QUEST_GUIDE_LOCATION",
        "autoGuide": "QUEST_GUIDE_AUTO_ENABLE",
        "param": [
          "72166_AFu_Huanying",
          "20"
        ],
        "guideScene": 3,
        "guideStyle": "QUEST_GUIDE_STYLE_TARGET",
        "guideLayer": "QUEST_GUIDE_LAYER_SCENE"
      },
      "guideHint": {
        "param1": ""
      },
      "isRewind": true,
      "versionBegin": "",
      "versionEnd": ""
    },
    {
      "subId": 7216638,
      "mainId": 72166,
      "order": 49,
      "showType": "QUEST_HIDDEN",
      "GMKDJFPEFFF": [
        19012
      ],
      "finishCond": [
        {
          "KPGKDHAFHFE": "QUEST_CONTENT_FINISH_PLOT",
          "param": [
            7216638,
            0
          ]
        }
      ],
      "guide": {
        "autoGuide": "QUEST_GUIDE_AUTO_ENABLE",
        "guideStyle": "QUEST_GUIDE_STYLE_TARGET",
        "guideLayer": "QUEST_GUIDE_LAYER_SCENE"
      },
      "showGuide": "QUEST_GUIDE_ITEM_DISABLE",
      "guideHint": {
        "param1": ""
      },
      "isRewind": true,
      "versionBegin": "",
      "versionEnd": ""
    },
    {
      "subId": 7216639,
      "mainId": 72166,
      "order": 50,
      "showType": "QUEST_HIDDEN",
      "GMKDJFPEFFF": [
        19012
      ],
      "finishCond": [
        {
          "KPGKDHAFHFE": "QUEST_CONTENT_COMPLETE_TALK",
          "param": [
            7216628,
            0
          ]
        }
      ],
      "guide": {},
      "showGuide": "QUEST_GUIDE_ITEM_DISABLE",
      "guideHint": {
        "param1": ""
      },
      "versionBegin": "",
      "versionEnd": ""
    },
    {
      "subId": 7216640,
      "mainId": 72166,
      "order": 23,
      "showType": "QUEST_HIDDEN",
      "finishCond": [
        {
          "KPGKDHAFHFE": "QUEST_CONTENT_COMPLETE_TALK",
          "param": [
            7216629,
            0
          ]
        }
      ],
      "guide": {},
      "showGuide": "QUEST_GUIDE_ITEM_DISABLE",
      "guideHint": {
        "param1": ""
      },
      "isRewind": true,
      "versionBegin": "",
      "versionEnd": ""
    },
    {
      "subId": 7216641,
      "mainId": 72166,
      "order": 25,
      "descTextMapHash": 1431123292,
      "finishCond": [
        {
          "KPGKDHAFHFE": "QUEST_CONTENT_LUA_NOTIFY",
          "param": [
            0,
            0
          ],
          "count": 1
        }
      ],
      "guide": {
        "KPGKDHAFHFE": "QUEST_GUIDE_LOCATION",
        "autoGuide": "QUEST_GUIDE_AUTO_ENABLE",
        "param": [
          "Q3_72116_AreaA_Nav",
          "30"
        ],
        "guideScene": 3,
        "guideStyle": "QUEST_GUIDE_STYLE_TARGET",
        "guideLayer": "QUEST_GUIDE_LAYER_SCENE"
      },
      "guideHint": {
        "param1": ""
      },
      "versionBegin": "",
      "versionEnd": ""
    },
    {
      "subId": 7216642,
      "mainId": 72166,
      "order": 30,
      "descTextMapHash": 1486719428,
      "finishCond": [
        {
          "KPGKDHAFHFE": "QUEST_CONTENT_LUA_NOTIFY",
          "param": [
            0,
            0
          ],
          "count": 1
        }
      ],
      "guide": {
        "KPGKDHAFHFE": "QUEST_GUIDE_LOCATION",
        "autoGuide": "QUEST_GUIDE_AUTO_ENABLE",
        "param": [
          "Q3_72116_AreaB_Nav",
          "35"
        ],
        "guideScene": 3,
        "guideStyle": "QUEST_GUIDE_STYLE_TARGET",
        "guideLayer": "QUEST_GUIDE_LAYER_SCENE"
      },
      "guideHint": {
        "param1": ""
      },
      "versionBegin": "",
      "versionEnd": ""
    },
    {
      "subId": 7216643,
      "mainId": 72166,
      "order": 11,
      "descTextMapHash": 321747548,
      "stepDescTextMapHash": 1074582605,
      "finishCond": [
        {
          "KPGKDHAFHFE": "QUEST_CONTENT_FINISH_PLOT",
          "param": [
            7216643,
            0
          ]
        }
      ],
      "guide": {
        "KPGKDHAFHFE": "QUEST_GUIDE_NPC",
        "autoGuide": "QUEST_GUIDE_AUTO_ENABLE",
        "param": [
          "20320"
        ],
        "guideScene": 3,
        "guideStyle": "QUEST_GUIDE_STYLE_TARGET",
        "guideLayer": "QUEST_GUIDE_LAYER_SCENE"
      },
      "guideHint": {
        "param1": ""
      },
      "isRewind": true,
      "versionBegin": "",
      "versionEnd": ""
    },
    {
      "subId": 7216644,
      "mainId": 72166,
      "order": 20,
      "showType": "QUEST_HIDDEN",
      "finishCond": [
        {
          "KPGKDHAFHFE": "QUEST_CONTENT_COMPLETE_TALK",
          "param": [
            7216630,
            0
          ]
        }
      ],
      "guide": {},
      "showGuide": "QUEST_GUIDE_ITEM_DISABLE",
      "guideHint": {
        "param1": ""
      },
      "finishExec": [
        {
          "KPGKDHAFHFE": "QUEST_EXEC_ADD_QUEST_PROGRESS",
          "param": [
            "7216607",
            "1"
          ]
        }
      ],
      "versionBegin": "",
      "versionEnd": ""
    },
    {
      "subId": 7216645,
      "mainId": 72166,
      "order": 51,
      "descTextMapHash": 3240868620,
      "stepDescTextMapHash": 1933150805,
      "GMKDJFPEFFF": [
        19012
      ],
      "finishCond": [
        {
          "KPGKDHAFHFE": "QUEST_CONTENT_COMPLETE_TALK",
          "param": [
            7216633,
            0
          ]
        }
      ],
      "guide": {
        "KPGKDHAFHFE": "QUEST_GUIDE_NPC",
        "autoGuide": "QUEST_GUIDE_AUTO_ENABLE",
        "param": [
          "20321"
        ],
        "guideScene": 3,
        "guideStyle": "QUEST_GUIDE_STYLE_TARGET",
        "guideLayer": "QUEST_GUIDE_LAYER_SCENE"
      },
      "guideHint": {
        "param1": ""
      },
      "isRewind": true,
      "versionBegin": "",
      "versionEnd": ""
    },
    {
      "subId": 7216646,
      "mainId": 72166,
      "order": 37,
      "descTextMapHash": 1115108676,
      "stepDescTextMapHash": 2024712293,
      "finishCond": [
        {
          "KPGKDHAFHFE": "QUEST_CONTENT_FINISH_PLOT",
          "param": [
            7216646,
            0
          ]
        }
      ],
      "guide": {
        "KPGKDHAFHFE": "QUEST_GUIDE_LOCATION",
        "autoGuide": "QUEST_GUIDE_AUTO_ENABLE",
        "param": [
          "Q3_72116_AreaC_Nav",
          "40"
        ],
        "guideScene": 3,
        "guideStyle": "QUEST_GUIDE_STYLE_TARGET",
        "guideLayer": "QUEST_GUIDE_LAYER_SCENE"
      },
      "guideHint": {
        "param1": ""
      },
      "isRewind": true,
      "versionBegin": "",
      "versionEnd": ""
    },
    {
      "subId": 7216647,
      "mainId": 72166,
      "order": 52,
      "descTextMapHash": 1032585124,
      "GMKDJFPEFFF": [
        19012
      ],
      "finishCond": [
        {
          "KPGKDHAFHFE": "QUEST_CONTENT_FINISH_ITEM_GIVING",
          "param": [
            7216620,
            0
          ]
        }
      ],
      "guide": {
        "KPGKDHAFHFE": "QUEST_GUIDE_NPC",
        "autoGuide": "QUEST_GUIDE_AUTO_ENABLE",
        "param": [
          "20321"
        ],
        "guideScene": 3,
        "guideStyle": "QUEST_GUIDE_STYLE_TARGET",
        "guideLayer": "QUEST_GUIDE_LAYER_SCENE"
      },
      "guideHint": {
        "param1": ""
      },
      "isRewind": true,
      "versionBegin": "",
      "versionEnd": ""
    },
    {
      "subId": 7216648,
      "mainId": 72166,
      "order": 5,
      "showType": "QUEST_HIDDEN",
      "GMKDJFPEFFF": [
        19012
      ],
      "finishCond": [
        {
          "KPGKDHAFHFE": "QUEST_CONTENT_FINISH_PLOT",
          "param": [
            7216648,
            0
          ]
        }
      ],
      "guide": {},
      "showGuide": "QUEST_GUIDE_ITEM_DISABLE",
      "guideHint": {
        "param1": ""
      },
      "isRewind": true,
      "versionBegin": "",
      "versionEnd": ""
    },
    {
      "subId": 7216649,
      "mainId": 72166,
      "order": 38,
      "showType": "QUEST_HIDDEN",
      "finishCond": [
        {
          "KPGKDHAFHFE": "QUEST_CONTENT_COMPLETE_TALK",
          "param": [
            7216636,
            0
          ]
        }
      ],
      "guide": {},
      "guideHint": {
        "param1": ""
      },
      "finishExec": [
        {
          "KPGKDHAFHFE": "QUEST_EXEC_UNREGISTER_DYNAMIC_GROUP",
          "param": [
            "133225175"
          ]
        }
      ],
      "versionBegin": "",
      "versionEnd": ""
    },
    {
      "subId": 7216650,
      "mainId": 72166,
      "order": 39,
      "descTextMapHash": 3029710948,
      "finishCond": [
        {
          "KPGKDHAFHFE": "QUEST_CONTENT_LUA_NOTIFY",
          "param": [
            0,
            0
          ],
          "count": 1
        }
      ],
      "guide": {
        "KPGKDHAFHFE": "QUEST_GUIDE_GADGET",
        "autoGuide": "QUEST_GUIDE_AUTO_ENABLE",
        "param": [
          "133225034",
          "34001",
          "-6333:254.5:-2536"
        ],
        "guideScene": 3,
        "guideStyle": "QUEST_GUIDE_STYLE_TARGET",
        "guideLayer": "QUEST_GUIDE_LAYER_SCENE"
      },
      "guideHint": {
        "param1": ""
      },
      "isRewind": true,
      "versionBegin": "",
      "versionEnd": ""
    },
    {
      "subId": 7216651,
      "mainId": 72166,
      "order": 7,
      "showType": "QUEST_HIDDEN",
      "finishCond": [
        {
          "KPGKDHAFHFE": "QUEST_CONTENT_FINISH_PLOT",
          "param": [
            7216651,
            0
          ]
        },
        {
          "KPGKDHAFHFE": "QUEST_CONTENT_QUEST_STATE_EQUAL",
          "param": [
            7216635,
            3
          ]
        }
      ],
      "guide": {},
      "showGuide": "QUEST_GUIDE_ITEM_DISABLE",
      "guideHint": {
        "param1": ""
      },
      "isRewind": true,
      "versionBegin": "",
      "versionEnd": ""
    },
    {
      "subId": 7216652,
      "mainId": 72166,
      "order": 43,
      "showType": "QUEST_HIDDEN",
      "finishCond": [
        {
          "KPGKDHAFHFE": "QUEST_CONTENT_QUEST_STATE_EQUAL",
          "param": [
            7216626,
            3
          ]
        },
        {
          "KPGKDHAFHFE": "QUEST_CONTENT_QUEST_STATE_EQUAL",
          "param": [
            7216627,
            3
          ]
        },
        {
          "KPGKDHAFHFE": "QUEST_CONTENT_QUEST_STATE_EQUAL",
          "param": [
            7216616,
            3
          ]
        }
      ],
      "guide": {},
      "showGuide": "QUEST_GUIDE_ITEM_DISABLE",
      "guideHint": {
        "param1": ""
      },
      "isRewind": true,
      "versionBegin": "",
      "versionEnd": ""
    },
    {
      "subId": 7216653,
      "mainId": 72166,
      "order": 22,
      "showType": "QUEST_HIDDEN",
      "finishCond": [
        {
          "KPGKDHAFHFE": "QUEST_CONTENT_QUEST_STATE_EQUAL",
          "param": [
            7216607,
            3
          ]
        }
      ],
      "guide": {},
      "showGuide": "QUEST_GUIDE_ITEM_DISABLE",
      "guideHint": {
        "param1": ""
      },
      "isRewind": true,
      "versionBegin": "",
      "versionEnd": ""
    }
  ],
  "talks": [
    {
      "id": 7216601,
      "beginWay": "TALK_BEGIN_MANUAL",
      "activeMode": "PLAY_MODE_HOST",
      "beginCondComb": "LOGIC_AND",
      "beginCond": [
        {
          "type": "QUEST_COND_STATE_EQUAL",
          "_param": [
            "7216601",
            "2"
          ]
        }
      ],
      "priority": 5,
      "initDialog": 721660101,
      "npcId": [
        20321
      ],
      "performCfg": "QuestDialogue/WQ/Inazuma_72166/Q7216601",
      "heroTalk": "TALK_HERO_MAIN",
      "questId": 72166,
      "assetIndex": 12895318294520601824,
      "prePerformCfg": ""
    },
    {
      "id": 7216602,
      "beginWay": "TALK_BEGIN_AUTO",
      "activeMode": "PLAY_MODE_HOST",
      "beginCondComb": "LOGIC_AND",
      "beginCond": [
        {
          "type": "QUEST_COND_STATE_EQUAL",
          "_param": [
            "7216603",
            "2"
          ]
        },
        {
          "type": "QUEST_COND_STATE_EQUAL",
          "_param": [
            "7216602",
            "3"
          ]
        }
      ],
      "priority": 5,
      "initDialog": 721660201,
      "npcId": [
        20320,
        1005
      ],
      "performCfg": "QuestDialogue/WQ/Inazuma_72166/Q7216602",
      "heroTalk": "TALK_HERO_MAIN",
      "questId": 72166,
      "assetIndex": 12038118482390962131,
      "prePerformCfg": ""
    },
    {
      "id": 7216603,
      "beginWay": "TALK_BEGIN_AUTO",
      "activeMode": "PLAY_MODE_HOST",
      "beginCondComb": "LOGIC_AND",
      "beginCond": [
        {
          "type": "QUEST_COND_STATE_EQUAL",
          "_param": [
            "7216636",
            "3"
          ]
        },
        {
          "type": "QUEST_COND_STATE_EQUAL",
          "_param": [
            "7216605",
            "2"
          ]
        }
      ],
      "priority": 5,
      "initDialog": 721660301,
      "npcId": [
        1005
      ],
      "performCfg": "QuestDialogue/WQ/Inazuma_72166/Q7216603",
      "heroTalk": "TALK_HERO_MAIN",
      "questId": 72166,
      "assetIndex": 17498064054881213227,
      "prePerformCfg": ""
    },
    {
      "id": 7216604,
      "beginWay": "TALK_BEGIN_MANUAL",
      "activeMode": "PLAY_MODE_HOST",
      "beginCondComb": "LOGIC_AND",
      "beginCond": [
        {
          "type": "QUEST_COND_STATE_EQUAL",
          "_param": [
            "7216606",
            "3"
          ]
        },
        {
          "type": "QUEST_COND_STATE_EQUAL",
          "_param": [
            "7216622",
            "2"
          ]
        }
      ],
      "priority": 5,
      "initDialog": 721660401,
      "npcId": [
        20323,
        20324
      ],
      "performCfg": "QuestDialogue/WQ/Inazuma_72166/Q7216604",
      "heroTalk": "TALK_HERO_MAIN",
      "questId": 72166,
      "assetIndex": 10748570278461197177,
      "prePerformCfg": ""
    },
    {
      "id": 7216605,
      "beginWay": "TALK_BEGIN_MANUAL",
      "activeMode": "PLAY_MODE_HOST",
      "beginCondComb": "LOGIC_AND",
      "beginCond": [
        {
          "type": "QUEST_COND_STATE_EQUAL",
          "_param": [
            "7216606",
            "3"
          ]
        },
        {
          "type": "QUEST_COND_STATE_EQUAL",
          "_param": [
            "7216621",
            "2"
          ]
        }
      ],
      "priority": 5,
      "initDialog": 721660501,
      "npcId": [
        20450,
        20451
      ],
      "performCfg": "QuestDialogue/WQ/Inazuma_72166/Q7216605",
      "heroTalk": "TALK_HERO_MAIN",
      "questId": 72166,
      "assetIndex": 3525515695703682777,
      "prePerformCfg": ""
    },
    {
      "id": 7216606,
      "beginWay": "TALK_BEGIN_MANUAL",
      "activeMode": "PLAY_MODE_HOST",
      "beginCondComb": "LOGIC_AND",
      "beginCond": [
        {
          "type": "QUEST_COND_STATE_EQUAL",
          "_param": [
            "7216647",
            "3"
          ]
        },
        {
          "type": "QUEST_COND_STATE_EQUAL",
          "_param": [
            "7216619",
            "2"
          ]
        }
      ],
      "priority": 5,
      "initDialog": 721660602,
      "npcId": [
        20321
      ],
      "performCfg": "QuestDialogue/WQ/Inazuma_72166/Q7216606",
      "heroTalk": "TALK_HERO_MAIN",
      "questId": 72166,
      "assetIndex": 12038117856403099775,
      "prePerformCfg": ""
    },
    {
      "id": 7216607,
      "beginWay": "TALK_BEGIN_MANUAL",
      "activeMode": "PLAY_MODE_HOST",
      "beginCondComb": "LOGIC_AND",
      "beginCond": [
        {
          "type": "QUEST_COND_STATE_EQUAL",
          "_param": [
            "7216608",
            "3"
          ]
        },
        {
          "type": "QUEST_COND_STATE_EQUAL",
          "_param": [
            "7216609",
            "2"
          ]
        }
      ],
      "priority": 5,
      "initDialog": 721660701,
      "npcId": [
        20327,
        1005
      ],
      "performCfg": "QuestDialogue/WQ/Inazuma_72166/Q7216607",
      "heroTalk": "TALK_HERO_MAIN",
      "questId": 72166,
      "assetIndex": 5252963651932408744,
      "prePerformCfg": ""
    },
    {
      "id": 7216608,
      "beginWay": "TALK_BEGIN_MANUAL",
      "activeMode": "PLAY_MODE_HOST",
      "beginCondComb": "LOGIC_AND",
      "beginCond": [
        {
          "type": "QUEST_COND_STATE_EQUAL",
          "_param": [
            "7216610",
            "3"
          ]
        },
        {
          "type": "QUEST_COND_STATE_EQUAL",
          "_param": [
            "7216623",
            "2"
          ]
        }
      ],
      "priority": 5,
      "initDialog": 721660801,
      "npcId": [
        1005,
        20327
      ],
      "performCfg": "QuestDialogue/WQ/Inazuma_72166/Q7216608",
      "heroTalk": "TALK_HERO_MAIN",
      "questId": 72166,
      "assetIndex": 18147656111340381388,
      "prePerformCfg": ""
    },
    {
      "id": 7216609,
      "beginWay": "TALK_BEGIN_MANUAL",
      "activeMode": "PLAY_MODE_HOST",
      "beginCondComb": "LOGIC_AND",
      "beginCond": [
        {
          "type": "QUEST_COND_STATE_EQUAL",
          "_param": [
            "7216611",
            "3"
          ]
        },
        {
          "type": "QUEST_COND_STATE_EQUAL",
          "_param": [
            "7216612",
            "2"
          ]
        }
      ],
      "priority": 5,
      "initDialog": 721660901,
      "npcId": [
        20328,
        20444
      ],
      "performCfg": "QuestDialogue/WQ/Inazuma_72166/Q7216609",
      "heroTalk": "TALK_HERO_MAIN",
      "questId": 72166,
      "assetIndex": 10264541461331895165,
      "prePerformCfg": ""
    },
    {
      "id": 7216610,
      "beginWay": "TALK_BEGIN_MANUAL",
      "activeMode": "PLAY_MODE_HOST",
      "beginCondComb": "LOGIC_AND",
      "beginCond": [
        {
          "type": "QUEST_COND_STATE_EQUAL",
          "_param": [
            "7216614",
            "3"
          ]
        },
        {
          "type": "QUEST_COND_STATE_EQUAL",
          "_param": [
            "7216624",
            "2"
          ]
        }
      ],
      "priority": 5,
      "initDialog": 721661001,
      "npcId": [
        20328
      ],
      "performCfg": "QuestDialogue/WQ/Inazuma_72166/Q7216610",
      "heroTalk": "TALK_HERO_MAIN",
      "questId": 72166,
      "assetIndex": 7552739054573068534,
      "prePerformCfg": ""
    },
    {
      "id": 7216611,
      "beginWay": "TALK_BEGIN_MANUAL",
      "activeMode": "PLAY_MODE_HOST",
      "beginCondComb": "LOGIC_AND",
      "beginCond": [
        {
          "type": "QUEST_COND_STATE_EQUAL",
          "_param": [
            "7216615",
            "3"
          ]
        },
        {
          "type": "QUEST_COND_STATE_EQUAL",
          "_param": [
            "7216620",
            "2"
          ]
        }
      ],
      "priority": 5,
      "initDialog": 721661101,
      "npcId": [
        1005,
        20334
      ],
      "performCfg": "QuestDialogue/WQ/Inazuma_72166/Q7216611",
      "heroTalk": "TALK_HERO_MAIN",
      "questId": 72166,
      "assetIndex": 8329400435759663239,
      "prePerformCfg": "",
      "lockGameTime": true
    },
    {
      "id": 7216612,
      "beginWay": "TALK_BEGIN_MANUAL",
      "activeMode": "PLAY_MODE_HOST",
      "beginCondComb": "LOGIC_AND",
      "beginCond": [
        {
          "type": "QUEST_COND_STATE_EQUAL",
          "_param": [
            "7216617",
            "3"
          ]
        },
        {
          "type": "QUEST_COND_STATE_EQUAL",
          "_param": [
            "7216625",
            "2"
          ]
        }
      ],
      "priority": 5,
      "initDialog": 721661201,
      "npcId": [
        20334
      ],
      "performCfg": "QuestDialogue/WQ/Inazuma_72166/Q7216612",
      "heroTalk": "TALK_HERO_MAIN",
      "questId": 72166,
      "assetIndex": 8495473402089072784,
      "prePerformCfg": "",
      "lockGameTime": true
    },
    {
      "id": 7216613,
      "beginWay": "TALK_BEGIN_AUTO",
      "activeMode": "PLAY_MODE_HOST",
      "beginCondComb": "LOGIC_AND",
      "beginCond": [
        {
          "type": "QUEST_COND_STATE_EQUAL",
          "_param": [
            "7216618",
            "3"
          ]
        },
        {
          "type": "QUEST_COND_STATE_EQUAL",
          "_param": [
            "7216629",
            "2"
          ]
        }
      ],
      "priority": 5,
      "initDialog": 721661301,
      "npcId": [
        1005
      ],
      "performCfg": "QuestDialogue/WQ/Inazuma_72166/Q7216613",
      "heroTalk": "TALK_HERO_MAIN",
      "questId": 72166,
      "assetIndex": 12682828128156866541,
      "prePerformCfg": ""
    },
    {
      "id": 7216614,
      "beginWay": "TALK_BEGIN_AUTO",
      "activeMode": "PLAY_MODE_HOST",
      "beginCondComb": "LOGIC_AND",
      "beginCond": [
        {
          "type": "QUEST_COND_STATE_EQUAL",
          "_param": [
            "7216632",
            "3"
          ]
        },
        {
          "type": "QUEST_COND_STATE_EQUAL",
          "_param": [
            "7216633",
            "2"
          ]
        }
      ],
      "priority": 5,
      "initDialog": 721661401,
      "npcId": [
        1005
      ],
      "performCfg": "QuestDialogue/WQ/Inazuma_72166/Q7216614",
      "heroTalk": "TALK_HERO_MAIN",
      "questId": 72166,
      "assetIndex": 3883848282468007059,
      "prePerformCfg": ""
    },
    {
      "id": 7216615,
      "beginWay": "TALK_BEGIN_MANUAL",
      "activeMode": "PLAY_MODE_HOST",
      "beginCondComb": "LOGIC_AND",
      "beginCond": [
        {
          "type": "QUEST_COND_STATE_EQUAL",
          "_param": [
            "7216601",
            "3"
          ]
        },
        {
          "type": "QUEST_COND_STATE_EQUAL",
          "_param": [
            "7216635",
            "2"
          ]
        }
      ],
      "priority": 5,
      "initDialog": 721661501,
      "npcId": [
        20321
      ],
      "performCfg": "",
      "questId": 72166,
      "assetIndex": 1796226629962373872,
      "prePerformCfg": ""
    },
    {
      "id": 7216619,
      "beginWay": "TALK_BEGIN_MANUAL",
      "activeMode": "PLAY_MODE_HOST",
      "beginCondComb": "LOGIC_AND",
      "beginCond": [
        {
          "type": "QUEST_COND_STATE_EQUAL",
          "_param": [
            "7216604",
            "3"
          ]
        },
        {
          "type": "QUEST_COND_STATE_EQUAL",
          "_param": [
            "7216634",
            "2"
          ]
        }
      ],
      "priority": 5,
      "initDialog": 721661901,
      "npcId": [
        1005,
        20320
      ],
      "performCfg": "QuestDialogue/WQ/Inazuma_72166/Q7216619",
      "heroTalk": "TALK_HERO_MAIN",
      "questId": 72166,
      "assetIndex": 5951152650450870323,
      "prePerformCfg": ""
    },
    {
      "id": 7216620,
      "beginWay": "TALK_BEGIN_MANUAL",
      "activeMode": "PLAY_MODE_HOST",
      "beginCondComb": "LOGIC_AND",
      "beginCond": [
        {
          "type": "QUEST_COND_STATE_EQUAL",
          "_param": [
            "7216634",
            "3"
          ]
        },
        {
          "type": "QUEST_COND_STATE_EQUAL",
          "_param": [
            "7216636",
            "2"
          ]
        }
      ],
      "priority": 5,
      "initDialog": 721662001,
      "npcId": [
        20444
      ],
      "performCfg": "QuestDialogue/WQ/Inazuma_72166/Q7216620",
      "heroTalk": "TALK_HERO_MAIN",
      "questId": 72166,
      "assetIndex": 11904951527695763952,
      "prePerformCfg": ""
    },
    {
      "id": 7216624,
      "beginWay": "TALK_BEGIN_MANUAL",
      "activeMode": "PLAY_MODE_HOST",
      "beginCondComb": "LOGIC_AND",
      "beginCond": [
        {
          "type": "QUEST_COND_STATE_EQUAL",
          "_param": [
            "7216621",
            "3"
          ]
        }
      ],
      "priority": 5,
      "initDialog": 721662401,
      "npcId": [
        20450,
        20451
      ],
      "performCfg": "QuestDialogue/WQ/Inazuma_72166/Q7216624",
      "heroTalk": "TALK_HERO_MAIN",
      "questId": 72166,
      "assetIndex": 17099489998253556893,
      "prePerformCfg": "",
      "lowPriority": true
    },
    {
      "id": 7216628,
      "beginWay": "TALK_BEGIN_AUTO",
      "activeMode": "PLAY_MODE_HOST",
      "beginCondComb": "LOGIC_AND",
      "beginCond": [
        {
          "type": "QUEST_COND_STATE_EQUAL",
          "_param": [
            "7216638",
            "3"
          ]
        },
        {
          "type": "QUEST_COND_STATE_EQUAL",
          "_param": [
            "7216639",
            "2"
          ]
        }
      ],
      "priority": 5,
      "initDialog": 721662801,
      "npcId": [
        1005
      ],
      "performCfg": "QuestDialogue/WQ/Inazuma_72166/Q7216628",
      "heroTalk": "TALK_HERO_MAIN",
      "questId": 72166,
      "assetIndex": 4371276296831710763,
      "prePerformCfg": ""
    },
    {
      "id": 7216629,
      "beginWay": "TALK_BEGIN_AUTO",
      "activeMode": "PLAY_MODE_HOST",
      "beginCondComb": "LOGIC_AND",
      "beginCond": [
        {
          "type": "QUEST_COND_STATE_EQUAL",
          "_param": [
            "7216607",
            "3"
          ]
        },
        {
          "type": "QUEST_COND_STATE_EQUAL",
          "_param": [
            "7216640",
            "2"
          ]
        }
      ],
      "priority": 5,
      "initDialog": 721662901,
      "npcId": [
        1005
      ],
      "performCfg": "QuestDialogue/WQ/Inazuma_72166/Q7216629",
      "heroTalk": "TALK_HERO_MAIN",
      "questId": 72166,
      "assetIndex": 11150495327938926681,
      "prePerformCfg": ""
    },
    {
      "id": 7216630,
      "beginWay": "TALK_BEGIN_MANUAL",
      "activeMode": "PLAY_MODE_HOST",
      "beginCondComb": "LOGIC_AND",
      "beginCond": [
        {
          "type": "QUEST_COND_STATE_EQUAL",
          "_param": [
            "7216644",
            "2"
          ]
        },
        {
          "type": "QUEST_COND_STATE_EQUAL",
          "_param": [
            "7216606",
            "3"
          ]
        }
      ],
      "priority": 5,
      "initDialog": 721663001,
      "npcId": [
        20446,
        20447
      ],
      "performCfg": "QuestDialogue/WQ/Inazuma_72166/Q7216630",
      "heroTalk": "TALK_HERO_MAIN",
      "questId": 72166,
      "assetIndex": 10665823086200881774,
      "prePerformCfg": ""
    },
    {
      "id": 7216631,
      "beginWay": "TALK_BEGIN_MANUAL",
      "activeMode": "PLAY_MODE_HOST",
      "beginCondComb": "LOGIC_AND",
      "beginCond": [
        {
          "type": "QUEST_COND_STATE_EQUAL",
          "_param": [
            "7216634",
            "3"
          ]
        },
        {
          "type": "QUEST_COND_STATE_EQUAL",
          "_param": [
            "7216636",
            "2"
          ]
        }
      ],
      "initDialog": 721663101,
      "npcId": [
        20320
      ],
      "performCfg": "",
      "questId": 72166,
      "assetIndex": 10826694743117909408,
      "prePerformCfg": ""
    },
    {
      "id": 7216632,
      "beginWay": "TALK_BEGIN_MANUAL",
      "activeMode": "PLAY_MODE_HOST",
      "beginCondComb": "LOGIC_AND",
      "beginCond": [
        {
          "type": "QUEST_COND_STATE_EQUAL",
          "_param": [
            "7216644",
            "3"
          ]
        }
      ],
      "initDialog": 721663201,
      "npcId": [
        20447,
        20446
      ],
      "performCfg": "QuestDialogue/WQ/Inazuma_72166/Q7216632",
      "questId": 72166,
      "assetIndex": 1282563555305821783,
      "prePerformCfg": "",
      "lowPriority": true
    },
    {
      "id": 7216633,
      "beginWay": "TALK_BEGIN_MANUAL",
      "activeMode": "PLAY_MODE_HOST",
      "beginCondComb": "LOGIC_AND",
      "beginCond": [
        {
          "type": "QUEST_COND_STATE_EQUAL",
          "_param": [
            "7216645",
            "2"
          ]
        }
      ],
      "priority": 5,
      "initDialog": 721663301,
      "npcId": [
        20321
      ],
      "performCfg": "QuestDialogue/WQ/Inazuma_72166/Q7216633",
      "heroTalk": "TALK_HERO_MAIN",
      "questId": 72166,
      "assetIndex": 14698625415716810674,
      "prePerformCfg": ""
    },
    {
      "id": 7216635,
      "beginWay": "TALK_BEGIN_MANUAL",
      "activeMode": "PLAY_MODE_HOST",
      "beginCondComb": "LOGIC_AND",
      "beginCond": [
        {
          "type": "QUEST_COND_ITEM_GIVING_ACTIVED",
          "_param": [
            "7216620"
          ]
        },
        {
          "type": "QUEST_COND_STATE_EQUAL",
          "_param": [
            "7216647",
            "2"
          ]
        }
      ],
      "initDialog": 721663501,
      "npcId": [
        20321
      ],
      "performCfg": "",
      "heroTalk": "TALK_HERO_MAIN",
      "questId": 72166,
      "assetIndex": 6811796829805202709,
      "prePerformCfg": ""
    },
    {
      "id": 7216636,
      "beginWay": "TALK_BEGIN_MANUAL",
      "activeMode": "PLAY_MODE_HOST",
      "beginCondComb": "LOGIC_AND",
      "beginCond": [
        {
          "type": "QUEST_COND_STATE_EQUAL",
          "_param": [
            "7216649",
            "2"
          ]
        },
        {
          "type": "QUEST_COND_STATE_EQUAL",
          "_param": [
            "7216620",
            "3"
          ]
        }
      ],
      "initDialog": 721663601,
      "npcId": [
        1005
      ],
      "performCfg": "QuestDialogue/WQ/Inazuma_72166/Q7216636",
      "heroTalk": "TALK_HERO_MAIN",
      "questId": 72166,
      "assetIndex": 18254013931478589664,
      "prePerformCfg": "",
      "lockGameTime": true
    }
  ],
  "preloadLuaList": [
    14457059026087496718,
    13480942719051147418,
    4670307529255152719,
    3913658600451051154,
    10924467004184982250,
    16078722202221101613,
    1131788550890129932,
    16489757644520292360,
    6347079314395277268,
    14344090042472895939,
    4494146341131613812,
    14577931098722932598,
    2526893657476451995,
    8710241186254390081,
    9800672108065508305
  ],
  "forcePreloadLuaList": [
    6838056394380744442
  ],
  "freeStyleDic": {
    "20444": [
      1280
    ]
  }
}