{
  "id": 72168,
  "KPGKDHAFHFE": "WQ",
  "activeMode": "PLAY_MODE_ALL",
  "titleTextMapHash": 461972623,
  "descTextMapHash": 278000198,
  "luaPath": "Actor/Quest/WQ72168",
  "rewardIdList": [
    172168
  ],
  "subQuests": [
    {
      "subId": 7216801,
      "mainId": 72168,
      "order": 1,
      "descTextMapHash": 2993127204,
      "showType": "QUEST_HIDDEN",
      "finishCond": [
        {
          "KPGKDHAFHFE": "QUEST_CONTENT_COMPLETE_TALK",
          "param": [
            7216801,
            0
          ]
        }
      ],
      "guide": {},
      "guideHint": {
        "param1": ""
      },
      "isRewind": true,
      "versionBegin": "",
      "versionEnd": ""
    },
    {
      "subId": 7216802,
      "mainId": 72168,
      "order": 2,
      "descTextMapHash": 2020284604,
      "stepDescTextMapHash": 3841426253,
      "finishCond": [
        {
          "KPGKDHAFHFE": "QUEST_CONTENT_OBTAIN_ITEM",
          "param": [
            101517,
            0
          ],
          "count": 1
        }
      ],
      "guide": {
        "KPGKDHAFHFE": "QUEST_GUIDE_LOCATION",
        "param": [
          "WQ72168_LeiYingHuaBan",
          "0"
        ],
        "guideScene": 3,
        "guideStyle": "QUEST_GUIDE_STYLE_TARGET",
        "guideLayer": "QUEST_GUIDE_LAYER_SCENE"
      },
      "guideHint": {
        "param1": ""
      },
      "isRewind": true,
      "finishExec": [
        {
          "KPGKDHAFHFE": "QUEST_EXEC_REFRESH_GROUP_SUITE",
          "param": [
            "3",
            "133220211,2"
          ]
        }
      ],
      "versionBegin": "",
      "versionEnd": ""
    },
    {
      "subId": 7216803,
      "mainId": 72168,
      "order": 3,
      "descTextMapHash": 3898682380,
      "stepDescTextMapHash": 3613835373,
      "finishCond": [
        {
          "KPGKDHAFHFE": "QUEST_CONTENT_COMPLETE_TALK",
          "param": [
            7216802,
            0
          ]
        }
      ],
      "guide": {
        "KPGKDHAFHFE": "QUEST_GUIDE_NPC",
        "param": [
          "20268"
        ],
        "guideScene": 3,
        "guideStyle": "QUEST_GUIDE_STYLE_TARGET",
        "guideLayer": "QUEST_GUIDE_LAYER_SCENE"
      },
      "guideHint": {
        "param1": ""
      },
      "isRewind": true,
      "finishExec": [
        {
          "KPGKDHAFHFE": "QUEST_EXEC_DEL_ALL_SPECIFIC_PACK_ITEM",
          "param": [
            "101517"
          ]
        },
        {
          "KPGKDHAFHFE": "QUEST_EXEC_NOTIFY_GROUP_LUA",
          "param": [
            "3",
            "133220448"
          ]
        }
      ],
      "versionBegin": "",
      "versionEnd": ""
    },
    {
      "subId": 7216804,
      "mainId": 72168,
      "order": 4,
      "descTextMapHash": 1563999812,
      "stepDescTextMapHash": 2109507877,
      "finishCond": [
        {
          "KPGKDHAFHFE": "QUEST_CONTENT_COMPLETE_TALK",
          "param": [
            7216803,
            0
          ]
        }
      ],
      "guide": {
        "KPGKDHAFHFE": "QUEST_GUIDE_NPC",
        "param": [
          "20268"
        ],
        "guideScene": 3,
        "guideStyle": "QUEST_GUIDE_STYLE_FINISH",
        "guideLayer": "QUEST_GUIDE_LAYER_SCENE"
      },
      "guideHint": {
        "param1": ""
      },
      "finishParent": true,
      "isRewind": true,
      "finishExec": [
        {
          "KPGKDHAFHFE": "QUEST_EXEC_SET_QUEST_GLOBAL_VAR",
          "param": [
            "72168",
            "1"
          ]
        },
        {
          "KPGKDHAFHFE": "QUEST_EXEC_REFRESH_GROUP_SUITE",
          "param": [
            "3",
            "133220448,2"
          ]
        }
      ],
      "versionBegin": "",
      "versionEnd": ""
    }
  ],
  "talks": [
    {
      "id": 7216802,
      "beginWay": "TALK_BEGIN_MANUAL",
      "activeMode": "PLAY_MODE_HOST",
      "beginCond": [
        {
          "type": "QUEST_COND_STATE_EQUAL",
          "_param": [
            "7216803",
            "2"
          ]
        }
      ],
      "priority": 5,
      "initDialog": 721680201,
      "npcId": [
        20268
      ],
      "performCfg": "QuestDialogue/WQ/Inazuma_72168/Q7216802",
      "questId": 72168,
      "assetIndex": 17916615500021547987,
      "prePerformCfg": ""
    },
    {
      "id": 7216803,
      "beginWay": "TALK_BEGIN_AUTO",
      "activeMode": "PLAY_MODE_HOST",
      "beginCond": [
        {
          "type": "QUEST_COND_STATE_EQUAL",
          "_param": [
            "7216804",
            "2"
          ]
        }
      ],
      "priority": 5,
      "initDialog": 721680301,
      "npcId": [
        20268
      ],
      "performCfg": "",
      "questId": 72168,
      "assetIndex": 5413402513491151874,
      "prePerformCfg": ""
    },
    {
      "id": 7216804,
      "beginWay": "TALK_BEGIN_MANUAL",
      "activeMode": "PLAY_MODE_HOST",
      "beginCond": [
        {
          "type": "QUEST_COND_STATE_EQUAL",
          "_param": [
            "7216802",
            "2"
          ]
        }
      ],
      "priority": 5,
      "initDialog": 721680401,
      "npcId": [
        20268,
        20270,
        20269
      ],
      "performCfg": "QuestDialogue/WQ/Inazuma_72168/Q7216804",
      "questId": 72168,
      "assetIndex": 12062956951746406501,
      "prePerformCfg": ""
    },
    {
      "id": 7216805,
      "beginWay": "TALK_BEGIN_MANUAL",
      "activeMode": "PLAY_MODE_HOST",
      "beginCond": [
        {
          "type": "QUEST_COND_STATE_EQUAL",
          "_param": [
            "99902",
            "3"
          ]
        }
      ],
      "priority": 5,
      "initDialog": 721680501,
      "npcId": [
        20270
      ],
      "performCfg": "",
      "questId": 72168,
      "assetIndex": 13440599009882078346,
      "prePerformCfg": ""
    },
    {
      "id": 7216806,
      "beginWay": "TALK_BEGIN_MANUAL",
      "activeMode": "PLAY_MODE_HOST",
      "beginCond": [
        {
          "type": "QUEST_COND_STATE_EQUAL",
          "_param": [
            "99902",
            "3"
          ]
        }
      ],
      "priority": 5,
      "initDialog": 721680601,
      "npcId": [
        20269
      ],
      "performCfg": "",
      "questId": 72168,
      "assetIndex": 6930706599243177860,
      "prePerformCfg": ""
    },
    {
      "id": 7216807,
      "beginWay": "TALK_BEGIN_MANUAL",
      "activeMode": "PLAY_MODE_HOST",
      "beginCond": [
        {
          "type": "QUEST_COND_STATE_EQUAL",
          "_param": [
            "7216804",
            "2"
          ]
        }
      ],
      "priority": 5,
      "initDialog": 721680701,
      "npcId": [
        20270
      ],
      "performCfg": "",
      "questId": 72168,
      "assetIndex": 7636944782759787332,
      "prePerformCfg": ""
    },
    {
      "id": 7216808,
      "beginWay": "TALK_BEGIN_MANUAL",
      "activeMode": "PLAY_MODE_HOST",
      "beginCond": [
        {
          "type": "QUEST_COND_STATE_EQUAL",
          "_param": [
            "7216804",
            "2"
          ]
        }
      ],
      "priority": 5,
      "initDialog": 721680801,
      "npcId": [
        20269
      ],
      "performCfg": "",
      "questId": 72168,
      "assetIndex": 1790902237023041778,
      "prePerformCfg": ""
    }
  ]
}