{
  "id": 72176,
  "KPGKDHAFHFE": "WQ",
  "titleTextMapHash": 2881804079,
  "descTextMapHash": 718255526,
  "luaPath": "Actor/Quest/WQ72176",
  "rewardIdList": [
    172176
  ],
  "subQuests": [
    {
      "subId": 7217601,
      "mainId": 72176,
      "order": 1,
      "descTextMapHash": 2375557972,
      "showType": "QUEST_HIDDEN",
      "finishCond": [
        {
          "KPGKDHAFHFE": "QUEST_CONTENT_COMPLETE_TALK",
          "param": [
            7217601,
            0
          ]
        }
      ],
      "guide": {},
      "guideHint": {
        "param1": ""
      },
      "versionBegin": "",
      "versionEnd": ""
    },
    {
      "subId": 7217602,
      "mainId": 72176,
      "order": 4,
      "descTextMapHash": 3003221404,
      "finishCond": [
        {
          "KPGKDHAFHFE": "QUEST_CONTENT_COMPLETE_TALK",
          "param": [
            7217602,
            0
          ]
        }
      ],
      "guide": {
        "KPGKDHAFHFE": "QUEST_GUIDE_NPC",
        "param": [
          "20338"
        ],
        "guideScene": 3
      },
      "guideHint": {
        "param1": ""
      },
      "isRewind": true,
      "finishExec": [
        {
          "KPGKDHAFHFE": "QUEST_EXEC_ROLLBACK_QUEST",
          "param": [
            "7217603"
          ]
        }
      ],
      "versionBegin": "",
      "versionEnd": ""
    },
    {
      "subId": 7217603,
      "mainId": 72176,
      "order": 2,
      "descTextMapHash": 1056353028,
      "showType": "QUEST_HIDDEN",
      "banType": "BAN_GROUP_TRANSPORT_ONLY",
      "finishCond": [
        {
          "KPGKDHAFHFE": "QUEST_CONTENT_FINISH_PLOT",
          "param": [
            7217603,
            0
          ]
        }
      ],
      "guide": {},
      "guideHint": {
        "param1": ""
      },
      "isRewind": true,
      "versionBegin": "",
      "versionEnd": ""
    },
    {
      "subId": 7217604,
      "mainId": 72176,
      "order": 3,
      "descTextMapHash": 480468484,
      "banType": "BAN_GROUP_TRANSPORT_ONLY",
      "finishCond": [
        {
          "KPGKDHAFHFE": "QUEST_CONTENT_LUA_NOTIFY",
          "param": [
            0,
            0
          ],
          "count": 1
        }
      ],
      "failCond": [
        {
          "KPGKDHAFHFE": "QUEST_CONTENT_LUA_NOTIFY",
          "param": [
            0,
            0
          ],
          "count": 1
        }
      ],
      "guide": {},
      "guideHint": {
        "param1": ""
      },
      "versionBegin": "",
      "versionEnd": ""
    },
    {
      "subId": 7217605,
      "mainId": 72176,
      "order": 5,
      "descTextMapHash": 4084996420,
      "finishCond": [
        {
          "KPGKDHAFHFE": "QUEST_CONTENT_COMPLETE_TALK",
          "param": [
            7217607,
            0
          ]
        }
      ],
      "guide": {
        "KPGKDHAFHFE": "QUEST_GUIDE_NPC",
        "param": [
          "20338"
        ]
      },
      "guideHint": {
        "param1": ""
      },
      "finishParent": true,
      "isRewind": true,
      "versionBegin": "",
      "versionEnd": ""
    }
  ],
  "talks": [
    {
      "id": 7217601,
      "beginWay": "TALK_BEGIN_MANUAL",
      "beginCond": [
        {
          "type": "QUEST_COND_STATE_EQUAL",
          "_param": [
            "7217601",
            "2"
          ]
        }
      ],
      "priority": 5,
      "initDialog": 721760101,
      "npcId": [
        20338,
        1005
      ],
      "performCfg": "QuestDialogue/WQ/Inazuma_72176/Q7217601",
      "heroTalk": "TALK_HERO_MAIN",
      "questId": 72176,
      "assetIndex": 4253912618797815735,
      "prePerformCfg": "",
      "talkMarkType": "TALK_MARK_COMMON"
    },
    {
      "id": 7217602,
      "beginWay": "TALK_BEGIN_MANUAL",
      "beginCond": [
        {
          "type": "QUEST_COND_STATE_EQUAL",
          "_param": [
            "7217602",
            "2"
          ]
        }
      ],
      "priority": 5,
      "initDialog": 721760202,
      "npcId": [
        20338,
        1005
      ],
      "performCfg": "QuestDialogue/WQ/Inazuma_72176/Q7217602",
      "heroTalk": "TALK_HERO_MAIN",
      "questId": 72176,
      "assetIndex": 9372183761423494948,
      "prePerformCfg": ""
    },
    {
      "id": 7217607,
      "beginWay": "TALK_BEGIN_MANUAL",
      "beginCond": [
        {
          "type": "QUEST_COND_STATE_EQUAL",
          "_param": [
            "7217605",
            "2"
          ]
        }
      ],
      "priority": 5,
      "initDialog": 721760702,
      "npcId": [
        20338,
        1005
      ],
      "performCfg": "QuestDialogue/WQ/Inazuma_72176/Q7217607",
      "heroTalk": "TALK_HERO_MAIN",
      "questId": 72176,
      "assetIndex": 7143895754038901758,
      "prePerformCfg": ""
    }
  ]
}