{
  "id": 72198,
  "KPGKDHAFHFE": "WQ",
  "activeMode": "PLAY_MODE_ALL",
  "titleTextMapHash": 3436137623,
  "descTextMapHash": 1181733118,
  "luaPath": "Actor/Quest/WQ72198",
  "showType": "QUEST_HIDDEN",
  "subQuests": [
    {
      "subId": 7219801,
      "mainId": 72198,
      "order": 1,
      "stepDescTextMapHash": 2872334525,
      "showType": "QUEST_HIDDEN",
      "finishCond": [
        {
          "KPGKDHAFHFE": "QUEST_CONTENT_FINISH_PLOT",
          "param": [
            7219801,
            0
          ]
        },
        {
          "KPGKDHAFHFE": "QUEST_CONTENT_QUEST_STATE_EQUAL",
          "param": [
            7223310,
            3
          ]
        }
      ],
      "guide": {},
      "guideHint": {
        "param1": ""
      },
      "finishParent": true,
      "isRewind": true,
      "finishExec": [
        {
          "KPGKDHAFHFE": "QUEST_EXEC_UNLOCK_POINT",
          "param": [
            "5",
            "1"
          ]
        }
      ],
      "versionBegin": "",
      "versionEnd": ""
    }
  ],
  "preloadLuaList": [
    14255814892466815909
  ],
  "forcePreloadLuaList": [
    9780680129458913560
  ]
}