{
  "id": 72212,
  "KPGKDHAFHFE": "WQ",
  "titleTextMapHash": 3040736727,
  "descTextMapHash": 56679950,
  "luaPath": "Actor/Quest/WQ72212",
  "rewardIdList": [
    172212
  ],
  "subQuests": [
    {
      "subId": 7221201,
      "mainId": 72212,
      "order": 1,
      "descTextMapHash": 788508076,
      "showType": "QUEST_HIDDEN",
      "finishCond": [
        {
          "KPGKDHAFHFE": "QUEST_CONTENT_COMPLETE_TALK",
          "param": [
            7221201,
            0
          ]
        }
      ],
      "guide": {},
      "guideHint": {
        "param1": ""
      },
      "versionBegin": "",
      "versionEnd": ""
    },
    {
      "subId": 7221202,
      "mainId": 72212,
      "order": 2,
      "descTextMapHash": 4294228548,
      "finishCond": [
        {
          "KPGKDHAFHFE": "QUEST_CONTENT_COMPLETE_TALK",
          "param": [
            7221202,
            0
          ]
        }
      ],
      "guide": {
        "KPGKDHAFHFE": "QUEST_GUIDE_NPC",
        "param": [
          "3181"
        ],
        "guideScene": 3
      },
      "guideHint": {
        "param1": ""
      },
      "isRewind": true,
      "versionBegin": "",
      "versionEnd": ""
    },
    {
      "subId": 7221203,
      "mainId": 72212,
      "order": 3,
      "descTextMapHash": 276295868,
      "finishCond": [
        {
          "KPGKDHAFHFE": "QUEST_CONTENT_FINISH_PLOT",
          "param": [
            7221203,
            0
          ]
        }
      ],
      "guide": {
        "KPGKDHAFHFE": "QUEST_GUIDE_LOCATION",
        "param": [
          "WQ72212_Dadao01",
          "60"
        ],
        "guideScene": 3
      },
      "guideHint": {
        "param1": ""
      },
      "isRewind": true,
      "versionBegin": "",
      "versionEnd": ""
    },
    {
      "subId": 7221204,
      "mainId": 72212,
      "order": 4,
      "descTextMapHash": 1263583980,
      "finishCond": [
        {
          "KPGKDHAFHFE": "QUEST_CONTENT_COMPLETE_TALK",
          "param": [
            7221203,
            0
          ]
        }
      ],
      "guide": {
        "KPGKDHAFHFE": "QUEST_GUIDE_NPC",
        "param": [
          "20455"
        ],
        "guideScene": 3
      },
      "guideHint": {
        "param1": ""
      },
      "isRewind": true,
      "versionBegin": "",
      "versionEnd": ""
    },
    {
      "subId": 7221205,
      "mainId": 72212,
      "order": 5,
      "descTextMapHash": 2224707700,
      "finishCond": [
        {
          "KPGKDHAFHFE": "QUEST_CONTENT_COMPLETE_TALK",
          "param": [
            7221206,
            0
          ]
        }
      ],
      "guide": {
        "KPGKDHAFHFE": "QUEST_GUIDE_NPC",
        "param": [
          "3189"
        ],
        "guideScene": 3
      },
      "guideHint": {
        "param1": ""
      },
      "finishParent": true,
      "isRewind": true,
      "finishExec": [
        {
          "KPGKDHAFHFE": "QUEST_EXEC_INIT_TIME_VAR",
          "param": [
            "1"
          ]
        }
      ],
      "versionBegin": "",
      "versionEnd": ""
    }
  ],
  "talks": [
    {
      "id": 7221201,
      "beginWay": "TALK_BEGIN_MANUAL",
      "beginCond": [
        {
          "type": "QUEST_COND_STATE_EQUAL",
          "_param": [
            "7221201",
            "2"
          ]
        }
      ],
      "priority": 5,
      "initDialog": 722120101,
      "npcId": [
        3189,
        1005
      ],
      "performCfg": "QuestDialogue/WQ/Inazuma_72212/Q7221201",
      "heroTalk": "TALK_HERO_MAIN",
      "questId": 72212,
      "assetIndex": 8082685041219630110,
      "prePerformCfg": "",
      "talkMarkType": "TALK_MARK_COMMON"
    },
    {
      "id": 7221202,
      "beginWay": "TALK_BEGIN_MANUAL",
      "beginCond": [
        {
          "type": "QUEST_COND_STATE_EQUAL",
          "_param": [
            "7221202",
            "2"
          ]
        }
      ],
      "priority": 5,
      "initDialog": 722120201,
      "npcId": [
        3181,
        3180
      ],
      "performCfg": "QuestDialogue/WQ/Inazuma_72212/Q7221202",
      "heroTalk": "TALK_HERO_MAIN",
      "questId": 72212,
      "assetIndex": 14329815796235080317,
      "prePerformCfg": ""
    },
    {
      "id": 7221203,
      "beginWay": "TALK_BEGIN_MANUAL",
      "beginCond": [
        {
          "type": "QUEST_COND_STATE_EQUAL",
          "_param": [
            "7221204",
            "2"
          ]
        }
      ],
      "priority": 5,
      "initDialog": 722120301,
      "npcId": [
        20455,
        1005
      ],
      "performCfg": "QuestDialogue/WQ/Inazuma_72212/Q7221203",
      "heroTalk": "TALK_HERO_MAIN",
      "questId": 72212,
      "assetIndex": 1278647111060959819,
      "prePerformCfg": ""
    },
    {
      "id": 7221204,
      "beginWay": "TALK_BEGIN_MANUAL",
      "beginCond": [
        {
          "type": "QUEST_COND_STATE_EQUAL",
          "_param": [
            "7221205",
            "2"
          ]
        }
      ],
      "priority": 5,
      "nextTalks": [
        7221206
      ],
      "initDialog": 722120401,
      "npcId": [
        3189,
        3182,
        1005
      ],
      "performCfg": "QuestDialogue/WQ/Inazuma_72212/Q7221204",
      "heroTalk": "TALK_HERO_MAIN",
      "questId": 72212,
      "assetIndex": 3260904554967830883,
      "prePerformCfg": ""
    },
    {
      "id": 7221205,
      "beginWay": "TALK_BEGIN_MANUAL",
      "beginCondComb": "LOGIC_OR",
      "beginCond": [
        {
          "type": "QUEST_COND_STATE_EQUAL",
          "_param": [
            "7221201",
            "3"
          ]
        }
      ],
      "priority": 1,
      "initDialog": 722120501,
      "npcId": [
        3189
      ],
      "performCfg": "",
      "heroTalk": "TALK_HERO_MAIN",
      "questId": 72212,
      "assetIndex": 6652407752733610153,
      "prePerformCfg": "",
      "questIdleTalk": true
    },
    {
      "id": 7221206,
      "beginWay": "TALK_BEGIN_AUTO",
      "beginCond": [
        {
          "type": "QUEST_COND_STATE_EQUAL",
          "_param": [
            "7221205",
            "2"
          ]
        }
      ],
      "priority": 4,
      "initDialog": 722120601,
      "npcId": [
        3189
      ],
      "performCfg": "",
      "heroTalk": "TALK_HERO_MAIN",
      "questId": 72212,
      "assetIndex": 18333706904179667455,
      "prePerformCfg": ""
    }
  ],
  "preloadLuaList": [
    17464904036414943234
  ],
  "forcePreloadLuaList": [
    5396415847677100903
  ]
}