{
  "id": 72216,
  "KPGKDHAFHFE": "WQ",
  "titleTextMapHash": 3924740791,
  "descTextMapHash": 92996590,
  "luaPath": "Actor/Quest/WQ72216",
  "rewardIdList": [
    172216
  ],
  "subQuests": [
    {
      "subId": 7221601,
      "mainId": 72216,
      "order": 1,
      "descTextMapHash": 1458309004,
      "showType": "QUEST_HIDDEN",
      "finishCond": [
        {
          "KPGKDHAFHFE": "QUEST_CONTENT_COMPLETE_TALK",
          "param": [
            7221601,
            0
          ]
        }
      ],
      "guide": {},
      "guideHint": {
        "param1": ""
      },
      "versionBegin": "",
      "versionEnd": ""
    },
    {
      "subId": 7221602,
      "mainId": 72216,
      "order": 4,
      "isMpBlock": true,
      "descTextMapHash": 968851868,
      "finishCond": [
        {
          "KPGKDHAFHFE": "QUEST_CONTENT_COMPLETE_TALK",
          "param": [
            7221602,
            0
          ]
        }
      ],
      "guide": {
        "KPGKDHAFHFE": "QUEST_GUIDE_NPC",
        "param": [
          "3182"
        ],
        "guideScene": 3
      },
      "guideHint": {
        "param1": ""
      },
      "finishParent": true,
      "isRewind": true,
      "finishExec": [
        {
          "KPGKDHAFHFE": "QUEST_EXEC_REFRESH_GROUP_SUITE",
          "param": [
            "3",
            "133217178,4"
          ]
        },
        {
          "KPGKDHAFHFE": "QUEST_EXEC_REFRESH_GROUP_SUITE",
          "param": [
            "3",
            "133217237,2"
          ]
        },
        {
          "KPGKDHAFHFE": "QUEST_EXEC_SET_QUEST_GLOBAL_VAR",
          "param": [
            "72164",
            "1"
          ]
        }
      ],
      "versionBegin": "",
      "versionEnd": ""
    },
    {
      "subId": 7221603,
      "mainId": 72216,
      "order": 2,
      "descTextMapHash": 2276255428,
      "showType": "QUEST_HIDDEN",
      "finishCond": [
        {
          "KPGKDHAFHFE": "QUEST_CONTENT_FINISH_PLOT",
          "param": [
            7221603,
            0
          ]
        }
      ],
      "guide": {},
      "guideHint": {
        "param1": ""
      },
      "finishExec": [
        {
          "KPGKDHAFHFE": "QUEST_EXEC_SET_WEATHER_GADGET",
          "param": [
            "3113",
            "1"
          ]
        }
      ],
      "versionBegin": "",
      "versionEnd": ""
    },
    {
      "subId": 7221604,
      "mainId": 72216,
      "order": 3,
      "descTextMapHash": 2814371540,
      "showType": "QUEST_HIDDEN",
      "finishCond": [
        {
          "KPGKDHAFHFE": "QUEST_CONTENT_FINISH_PLOT",
          "param": [
            7221604,
            0
          ]
        }
      ],
      "guide": {},
      "guideHint": {
        "param1": ""
      },
      "isRewind": true,
      "finishExec": [
        {
          "KPGKDHAFHFE": "QUEST_EXEC_SET_GAME_TIME",
          "param": [
            "10"
          ]
        }
      ],
      "versionBegin": "",
      "versionEnd": ""
    }
  ],
  "talks": [
    {
      "id": 7221601,
      "beginWay": "TALK_BEGIN_MANUAL",
      "beginCond": [
        {
          "type": "QUEST_COND_STATE_EQUAL",
          "_param": [
            "7221601",
            "2"
          ]
        }
      ],
      "priority": 5,
      "initDialog": 722160101,
      "npcId": [
        3189
      ],
      "performCfg": "",
      "heroTalk": "TALK_HERO_MAIN",
      "questId": 72216,
      "assetIndex": 2305061233808089762,
      "prePerformCfg": "",
      "talkMarkType": "TALK_MARK_COMMON"
    },
    {
      "id": 7221602,
      "beginWay": "TALK_BEGIN_MANUAL",
      "beginCond": [
        {
          "type": "QUEST_COND_STATE_EQUAL",
          "_param": [
            "7221602",
            "2"
          ]
        }
      ],
      "priority": 5,
      "initDialog": 722160201,
      "npcId": [
        3182,
        3189,
        1005
      ],
      "performCfg": "QuestDialogue/WQ/Inazuma_72216/Q7221602",
      "heroTalk": "TALK_HERO_MAIN",
      "questId": 72216,
      "assetIndex": 10309921111532226026,
      "prePerformCfg": "",
      "lockGameTime": true
    },
    {
      "id": 7221603,
      "beginWay": "TALK_BEGIN_MANUAL",
      "beginCond": [
        {
          "type": "QUEST_COND_STATE_EQUAL",
          "_param": [
            "7221602",
            "3"
          ]
        }
      ],
      "priority": 5,
      "initDialog": 722160301,
      "npcId": [
        3182
      ],
      "performCfg": "",
      "heroTalk": "TALK_HERO_MAIN",
      "questId": 72216,
      "assetIndex": 15747480111644618017,
      "prePerformCfg": "",
      "questIdleTalk": true
    },
    {
      "id": 7221604,
      "beginWay": "TALK_BEGIN_MANUAL",
      "beginCond": [
        {
          "type": "QUEST_COND_STATE_EQUAL",
          "_param": [
            "7221602",
            "3"
          ]
        }
      ],
      "priority": 5,
      "initDialog": 722160401,
      "npcId": [
        3180,
        3181
      ],
      "performCfg": "",
      "heroTalk": "TALK_HERO_MAIN",
      "questId": 72216,
      "assetIndex": 8166613514140029424,
      "prePerformCfg": "",
      "questIdleTalk": true
    }
  ]
}