{
  "id": 72235,
  "KPGKDHAFHFE": "WQ",
  "activeMode": "PLAY_MODE_ALL",
  "titleTextMapHash": 2871776039,
  "descTextMapHash": 1473910422,
  "luaPath": "Actor/Quest/WQ72235",
  "rewardIdList": [
    172235
  ],
  "subQuests": [
    {
      "subId": 7223501,
      "mainId": 72235,
      "order": 1,
      "descTextMapHash": 2579933596,
      "finishCond": [
        {
          "KPGKDHAFHFE": "QUEST_CONTENT_COMPLETE_TALK",
          "param": [
            7223501,
            0
          ]
        }
      ],
      "guide": {
        "KPGKDHAFHFE": "QUEST_GUIDE_NPC",
        "param": [
          "20476"
        ],
        "guideScene": 5,
        "guideStyle": "QUEST_GUIDE_STYLE_TARGET",
        "guideLayer": "QUEST_GUIDE_LAYER_SCENE"
      },
      "guideHint": {
        "param1": ""
      },
      "isRewind": true,
      "versionBegin": "",
      "versionEnd": ""
    },
    {
      "subId": 7223502,
      "mainId": 72235,
      "order": 2,
      "subIdSet": 1,
      "descTextMapHash": 4274092364,
      "stepDescTextMapHash": 3077839165,
      "guideTipsTextMapHash": 3848702006,
      "finishCond": [
        {
          "KPGKDHAFHFE": "QUEST_CONTENT_OBTAIN_ITEM",
          "param": [
            100929,
            0
          ],
          "count": 1
        }
      ],
      "guide": {
        "KPGKDHAFHFE": "QUEST_GUIDE_SHOW_OR_HIDE_NPC",
        "param": [
          "20476",
          "11",
          "2"
        ],
        "guideScene": 5,
        "guideStyle": "QUEST_GUIDE_STYLE_TARGET",
        "guideLayer": "QUEST_GUIDE_LAYER_SCENE"
      },
      "guideHint": {
        "param1": ""
      },
      "versionBegin": "",
      "versionEnd": ""
    },
    {
      "subId": 7223503,
      "mainId": 72235,
      "order": 3,
      "subIdSet": 1,
      "descTextMapHash": 1240290460,
      "stepDescTextMapHash": 289176309,
      "guideTipsTextMapHash": 3568284470,
      "finishCond": [
        {
          "KPGKDHAFHFE": "QUEST_CONTENT_OBTAIN_ITEM",
          "param": [
            100930,
            0
          ],
          "count": 1
        }
      ],
      "guide": {
        "KPGKDHAFHFE": "QUEST_GUIDE_SHOW_OR_HIDE_NPC",
        "param": [
          "20476",
          "11",
          "2"
        ],
        "guideScene": 5,
        "guideStyle": "QUEST_GUIDE_STYLE_TARGET",
        "guideLayer": "QUEST_GUIDE_LAYER_SCENE"
      },
      "guideHint": {
        "param1": ""
      },
      "versionBegin": "",
      "versionEnd": ""
    },
    {
      "subId": 7223504,
      "mainId": 72235,
      "order": 4,
      "subIdSet": 1,
      "descTextMapHash": 2430108964,
      "stepDescTextMapHash": 3422684021,
      "guideTipsTextMapHash": 2619172454,
      "finishCond": [
        {
          "KPGKDHAFHFE": "QUEST_CONTENT_OBTAIN_ITEM",
          "param": [
            100931,
            0
          ],
          "count": 1
        }
      ],
      "guide": {
        "KPGKDHAFHFE": "QUEST_GUIDE_SHOW_OR_HIDE_NPC",
        "param": [
          "20476",
          "11",
          "2"
        ],
        "guideScene": 5,
        "guideStyle": "QUEST_GUIDE_STYLE_TARGET",
        "guideLayer": "QUEST_GUIDE_LAYER_SCENE"
      },
      "guideHint": {
        "param1": ""
      },
      "versionBegin": "",
      "versionEnd": ""
    },
    {
      "subId": 7223505,
      "mainId": 72235,
      "order": 5,
      "subIdSet": 1,
      "descTextMapHash": 2684409476,
      "stepDescTextMapHash": 2580941829,
      "guideTipsTextMapHash": 1591006214,
      "finishCond": [
        {
          "KPGKDHAFHFE": "QUEST_CONTENT_OBTAIN_ITEM",
          "param": [
            100932,
            0
          ],
          "count": 1
        }
      ],
      "guide": {
        "KPGKDHAFHFE": "QUEST_GUIDE_SHOW_OR_HIDE_NPC",
        "param": [
          "20476",
          "11",
          "2"
        ],
        "guideScene": 5,
        "guideStyle": "QUEST_GUIDE_STYLE_TARGET",
        "guideLayer": "QUEST_GUIDE_LAYER_SCENE"
      },
      "guideHint": {
        "param1": ""
      },
      "versionBegin": "",
      "versionEnd": ""
    },
    {
      "subId": 7223506,
      "mainId": 72235,
      "order": 6,
      "subIdSet": 1,
      "descTextMapHash": 1234305484,
      "stepDescTextMapHash": 3033182069,
      "guideTipsTextMapHash": 1993371062,
      "finishCond": [
        {
          "KPGKDHAFHFE": "QUEST_CONTENT_OBTAIN_ITEM",
          "param": [
            100933,
            0
          ],
          "count": 1
        }
      ],
      "guide": {
        "KPGKDHAFHFE": "QUEST_GUIDE_SHOW_OR_HIDE_NPC",
        "param": [
          "20476",
          "11",
          "2"
        ],
        "guideScene": 5,
        "guideStyle": "QUEST_GUIDE_STYLE_TARGET",
        "guideLayer": "QUEST_GUIDE_LAYER_SCENE"
      },
      "guideHint": {
        "param1": ""
      },
      "isRewind": true,
      "versionBegin": "",
      "versionEnd": ""
    },
    {
      "subId": 7223507,
      "mainId": 72235,
      "order": 7,
      "descTextMapHash": 3036057452,
      "guideTipsTextMapHash": 2484238542,
      "finishCond": [
        {
          "KPGKDHAFHFE": "QUEST_CONTENT_COMPLETE_TALK",
          "param": [
            7223502,
            0
          ]
        }
      ],
      "guide": {
        "KPGKDHAFHFE": "QUEST_GUIDE_SHOW_OR_HIDE_NPC",
        "param": [
          "20476",
          "11",
          "2"
        ],
        "guideScene": 5,
        "guideStyle": "QUEST_GUIDE_STYLE_TARGET",
        "guideLayer": "QUEST_GUIDE_LAYER_SCENE"
      },
      "guideHint": {
        "param1": ""
      },
      "isRewind": true,
      "versionBegin": "",
      "versionEnd": ""
    },
    {
      "subId": 7223508,
      "mainId": 72235,
      "order": 8,
      "descTextMapHash": 2505942628,
      "finishCond": [
        {
          "KPGKDHAFHFE": "QUEST_CONTENT_LUA_NOTIFY",
          "param": [
            0,
            0
          ],
          "count": 1
        }
      ],
      "guide": {
        "KPGKDHAFHFE": "QUEST_GUIDE_LOCATION",
        "param": [
          "Q7223508Gate",
          "10"
        ],
        "guideScene": 5,
        "guideStyle": "QUEST_GUIDE_STYLE_TARGET",
        "guideLayer": "QUEST_GUIDE_LAYER_SCENE"
      },
      "guideHint": {
        "param1": ""
      },
      "isRewind": true,
      "finishExec": [
        {
          "KPGKDHAFHFE": "QUEST_EXEC_REFRESH_GROUP_SUITE",
          "param": [
            "5",
            "155005110,1"
          ]
        },
        {
          "KPGKDHAFHFE": "QUEST_EXEC_REFRESH_GROUP_SUITE",
          "param": [
            "5",
            "155005086,2"
          ]
        }
      ],
      "versionBegin": "",
      "versionEnd": ""
    },
    {
      "subId": 7223509,
      "mainId": 72235,
      "order": 9,
      "descTextMapHash": 3875936548,
      "finishCond": [
        {
          "KPGKDHAFHFE": "QUEST_CONTENT_ENTER_MY_WORLD_SCENE",
          "param": [
            7,
            0
          ]
        },
        {
          "KPGKDHAFHFE": "QUEST_CONTENT_FINISH_PLOT",
          "param": [
            7223509,
            0
          ]
        }
      ],
      "guide": {
        "KPGKDHAFHFE": "QUEST_GUIDE_LOCATION",
        "param": [
          "Q7223508Gate"
        ],
        "guideScene": 5,
        "guideStyle": "QUEST_GUIDE_STYLE_TARGET",
        "guideLayer": "QUEST_GUIDE_LAYER_SCENE"
      },
      "showGuide": "QUEST_GUIDE_ITEM_DISABLE",
      "guideHint": {
        "param1": ""
      },
      "finishParent": true,
      "isRewind": true,
      "versionBegin": "",
      "versionEnd": ""
    }
  ],
  "preloadLuaList": [
    15485849706825187469
  ],
  "forcePreloadLuaList": [
    17721978839370082418
  ]
}