{
  "id": 72257,
  "KPGKDHAFHFE": "WQ",
  "activeMode": "PLAY_MODE_ALL",
  "titleTextMapHash": 3003418855,
  "descTextMapHash": 920340326,
  "luaPath": "Actor/Quest/WQ72257",
  "showType": "QUEST_HIDDEN",
  "subQuests": [
    {
      "subId": 7225701,
      "mainId": 72257,
      "order": 1,
      "showType": "QUEST_HIDDEN",
      "finishCond": [
        {
          "KPGKDHAFHFE": "QUEST_CONTENT_FINISH_ITEM_GIVING",
          "param": [
            7224406,
            0
          ]
        }
      ],
      "guide": {},
      "guideHint": {
        "param1": ""
      },
      "finishParent": true,
      "isRewind": true,
      "finishExec": [
        {
          "KPGKDHAFHFE": "QUEST_EXEC_NOTIFY_GROUP_LUA",
          "param": [
            "5",
            "155006045"
          ]
        }
      ],
      "versionBegin": "",
      "versionEnd": ""
    }
  ],
  "talks": [
    {
      "id": 7225701,
      "beginWay": "TALK_BEGIN_MANUAL",
      "activeMode": "PLAY_MODE_HOST",
      "beginCondComb": "LOGIC_AND",
      "beginCond": [
        {
          "type": "QUEST_COND_STATE_EQUAL",
          "_param": [
            "7225701",
            "2"
          ]
        },
        {
          "type": "QUEST_COND_ITEM_GIVING_ACTIVED",
          "_param": [
            "7224406"
          ]
        }
      ],
      "priority": 5,
      "initDialog": 722570101,
      "npcId": [
        20502
      ],
      "performCfg": "",
      "questId": 72257,
      "assetIndex": 5599152106593284215,
      "prePerformCfg": ""
    }
  ]
}