{
  "id": 72271,
  "KPGKDHAFHFE": "WQ",
  "activeMode": "PLAY_MODE_ALL",
  "titleTextMapHash": 1903449623,
  "luaPath": "Actor/Quest/WQ72271",
  "rewardIdList": [
    172271
  ],
  "showType": "QUEST_HIDDEN",
  "subQuests": [
    {
      "subId": 7227101,
      "mainId": 72271,
      "order": 1,
      "descTextMapHash": 1902141588,
      "showType": "QUEST_HIDDEN",
      "finishCond": [
        {
          "KPGKDHAFHFE": "QUEST_CONTENT_FINISH_PLOT",
          "param": [
            7227101,
            0
          ]
        }
      ],
      "failCond": [
        {
          "KPGKDHAFHFE": "QUEST_CONTENT_QUEST_STATE_EQUAL",
          "param": [
            7224301,
            3
          ]
        },
        {
          "KPGKDHAFHFE": "QUEST_CONTENT_QUEST_STATE_EQUAL",
          "param": [
            7227201,
            3
          ]
        }
      ],
      "guide": {},
      "guideHint": {
        "param1": ""
      },
      "finishParent": true,
      "finishExec": [
        {
          "KPGKDHAFHFE": "QUEST_EXEC_DEL_ALL_SPECIFIC_PACK_ITEM",
          "param": [
            "100945"
          ]
        }
      ],
      "versionBegin": "",
      "versionEnd": ""
    }
  ],
  "talks": [
    {
      "id": 7227101,
      "activeMode": "PLAY_MODE_HOST",
      "beginCondComb": "LOGIC_AND",
      "beginCond": [
        {
          "type": "QUEST_COND_STATE_EQUAL",
          "_param": [
            "7227101",
            "2"
          ]
        },
        {
          "type": "QUEST_COND_QUEST_VAR_EQUAL",
          "_param": [
            "1",
            "0",
            "72271"
          ]
        }
      ],
      "priority": 5,
      "initDialog": 722710102,
      "npcId": [
        2023
      ],
      "performCfg": "",
      "questId": 72271,
      "assetIndex": 15504104427744537580,
      "dontBlockDaily": true,
      "prePerformCfg": ""
    },
    {
      "id": 7227102,
      "activeMode": "PLAY_MODE_HOST",
      "beginCondComb": "LOGIC_AND",
      "beginCond": [
        {
          "type": "QUEST_COND_STATE_EQUAL",
          "_param": [
            "7227101",
            "2"
          ]
        },
        {
          "type": "QUEST_COND_QUEST_VAR_EQUAL",
          "_param": [
            "1",
            "1",
            "72271"
          ]
        }
      ],
      "priority": 5,
      "initDialog": 722710201,
      "npcId": [
        2023
      ],
      "performCfg": "",
      "questId": 72271,
      "assetIndex": 1398537828770556765,
      "dontBlockDaily": true,
      "prePerformCfg": ""
    }
  ]
}