{
  "id": 72653,
  "KPGKDHAFHFE": "WQ",
  "mainQuestTag": "MAINQUEST_TAG_GUIDE",
  "activeMode": "PLAY_MODE_ALL",
  "titleTextMapHash": 1170625447,
  "descTextMapHash": 1015129854,
  "luaPath": "Actor/Quest/WQ72653",
  "rewardIdList": [
    172653
  ],
  "showRedPoint": true,
  "activityId": 2006,
  "subQuests": [
    {
      "subId": 7265301,
      "mainId": 72653,
      "order": 1,
      "descTextMapHash": 1831601380,
      "finishCond": [
        {
          "KPGKDHAFHFE": "QUEST_CONTENT_COMPLETE_TALK",
          "param": [
            7265301,
            0
          ]
        }
      ],
      "guide": {
        "KPGKDHAFHFE": "QUEST_GUIDE_NPC",
        "param": [
          "30055"
        ],
        "guideScene": 3,
        "guideStyle": "QUEST_GUIDE_STYLE_TARGET",
        "guideLayer": "QUEST_GUIDE_LAYER_SCENE"
      },
      "guideHint": {
        "param1": ""
      },
      "isRewind": true,
      "versionBegin": "",
      "versionEnd": ""
    },
    {
      "subId": 7265302,
      "mainId": 72653,
      "order": 2,
      "descTextMapHash": 3420767020,
      "finishCond": [
        {
          "KPGKDHAFHFE": "QUEST_CONTENT_LUA_NOTIFY",
          "param": [
            0,
            0
          ],
          "count": 1
        }
      ],
      "guide": {
        "KPGKDHAFHFE": "QUEST_GUIDE_LOCATION",
        "param": [
          "Q72653target",
          "10"
        ],
        "guideScene": 3,
        "guideStyle": "QUEST_GUIDE_STYLE_TARGET",
        "guideLayer": "QUEST_GUIDE_LAYER_SCENE"
      },
      "guideHint": {
        "param1": ""
      },
      "finishParent": true,
      "isRewind": true,
      "versionBegin": "",
      "versionEnd": ""
    }
  ],
  "talks": [
    {
      "id": 7265301,
      "beginWay": "TALK_BEGIN_MANUAL",
      "activeMode": "PLAY_MODE_HOST",
      "beginCond": [
        {
          "type": "QUEST_COND_STATE_EQUAL",
          "_param": [
            "7265301",
            "2"
          ]
        }
      ],
      "priority": 5,
      "initDialog": 726530101,
      "npcId": [
        30055
      ],
      "performCfg": "QuestDialogue/WQ/Daoqi_72653/Q7265301",
      "heroTalk": "TALK_HERO_MAIN",
      "questId": 72653,
      "assetIndex": 996793915047442428,
      "prePerformCfg": ""
    }
  ],
  "preloadLuaList": [
    7580772806105676632
  ],
  "forcePreloadLuaList": [
    5616052871177708284
  ]
}