{
  "id": 72669,
  "KPGKDHAFHFE": "WQ",
  "titleTextMapHash": 1753902263,
  "descTextMapHash": 761035678,
  "luaPath": "Actor/Quest/WQ72669",
  "rewardIdList": [
    172667
  ],
  "showType": "QUEST_HIDDEN",
  "subQuests": [
    {
      "subId": 7266901,
      "mainId": 72669,
      "order": 1,
      "descTextMapHash": 2211258796,
      "showType": "QUEST_HIDDEN",
      "guide": {},
      "guideHint": {
        "param1": ""
      },
      "isRewind": true,
      "versionBegin": "",
      "versionEnd": ""
    },
    {
      "subId": 7266902,
      "mainId": 72669,
      "order": 2,
      "descTextMapHash": 972749060,
      "guide": {},
      "guideHint": {
        "param1": ""
      },
      "versionBegin": "",
      "versionEnd": ""
    },
    {
      "subId": 7266903,
      "mainId": 72669,
      "order": 3,
      "descTextMapHash": 2129701308,
      "guide": {},
      "guideHint": {
        "param1": ""
      },
      "versionBegin": "",
      "versionEnd": ""
    }
  ],
  "talks": [
    {
      "id": 7266901,
      "activeMode": "PLAY_MODE_ALL",
      "beginCond": [
        {
          "type": "QUEST_COND_STATE_EQUAL",
          "_param": [
            "7266902",
            "2"
          ]
        }
      ],
      "priority": 5,
      "initDialog": 726670102,
      "npcId": [
        3200
      ],
      "performCfg": "",
      "questId": 72669,
      "assetIndex": 51732820597000046,
      "prePerformCfg": ""
    }
  ]
}