{
  "id": 72661,
  "KPGKDHAFHFE": "WQ",
  "mainQuestTag": "MAINQUEST_TAG_ACTIVITY",
  "titleTextMapHash": 4168772743,
  "descTextMapHash": 233968710,
  "luaPath": "Actor/Quest/WQ72661",
  "suggestTrackMainQuestList": [
    72662
  ],
  "rewardIdList": [
    172661
  ],
  "showRedPoint": true,
  "activityId": 5041,
  "subQuests": [
    {
      "subId": 7266101,
      "mainId": 72661,
      "order": 1,
      "descTextMapHash": 3436344596,
      "finishCond": [
        {
          "KPGKDHAFHFE": "QUEST_CONTENT_COMPLETE_TALK",
          "param": [
            7266101,
            0
          ]
        }
      ],
      "guide": {
        "KPGKDHAFHFE": "QUEST_GUIDE_NPC",
        "param": [
          "1673"
        ],
        "guideScene": 3,
        "guideStyle": "QUEST_GUIDE_STYLE_TARGET"
      },
      "guideHint": {
        "param1": ""
      },
      "isRewind": true,
      "versionBegin": "",
      "versionEnd": ""
    },
    {
      "subId": 7266102,
      "mainId": 72661,
      "order": 10,
      "descTextMapHash": 1505679436,
      "finishCond": [
        {
          "KPGKDHAFHFE": "QUEST_CONTENT_FINISH_PLOT",
          "param": [
            7266102,
            0
          ]
        }
      ],
      "guide": {
        "KPGKDHAFHFE": "QUEST_GUIDE_LOCATION",
        "param": [
          "Q72661_Kuangchang",
          "30"
        ],
        "guideScene": 3,
        "guideStyle": "QUEST_GUIDE_STYLE_TARGET"
      },
      "guideHint": {
        "param1": ""
      },
      "isRewind": true,
      "versionBegin": "",
      "versionEnd": ""
    },
    {
      "subId": 7266103,
      "mainId": 72661,
      "order": 11,
      "subIdSet": 1,
      "descTextMapHash": 1216768172,
      "finishCond": [
        {
          "KPGKDHAFHFE": "QUEST_CONTENT_INTERACT_GADGET",
          "param": [
            70710505,
            0
          ],
          "count": 3
        }
      ],
      "guide": {
        "KPGKDHAFHFE": "QUEST_GUIDE_LOCATION",
        "param": [
          "Q72661_Kuangchang",
          "30"
        ],
        "guideScene": 3,
        "guideStyle": "QUEST_GUIDE_STYLE_TARGET"
      },
      "guideHint": {
        "param1": ""
      },
      "finishExec": [
        {
          "KPGKDHAFHFE": "QUEST_EXEC_UNREGISTER_DYNAMIC_GROUP",
          "param": [
            "133002060",
            "0"
          ]
        }
      ],
      "versionBegin": "",
      "versionEnd": ""
    },
    {
      "subId": 7266104,
      "mainId": 72661,
      "order": 14,
      "subIdSet": 1,
      "descTextMapHash": 2619863924,
      "finishCond": [
        {
          "KPGKDHAFHFE": "QUEST_CONTENT_INTERACT_GADGET",
          "param": [
            70710505,
            0
          ],
          "count": 2
        }
      ],
      "guide": {
        "KPGKDHAFHFE": "QUEST_GUIDE_LOCATION",
        "param": [
          "Q72661_Kuangchang",
          "30"
        ],
        "guideScene": 3,
        "guideStyle": "QUEST_GUIDE_STYLE_TARGET"
      },
      "showGuide": "QUEST_GUIDE_ITEM_DISABLE",
      "guideHint": {
        "param1": ""
      },
      "versionBegin": "",
      "versionEnd": ""
    },
    {
      "subId": 7266105,
      "mainId": 72661,
      "order": 17,
      "subIdSet": 1,
      "descTextMapHash": 3696670356,
      "finishCond": [
        {
          "KPGKDHAFHFE": "QUEST_CONTENT_INTERACT_GADGET",
          "param": [
            70710505,
            0
          ],
          "count": 1
        }
      ],
      "guide": {
        "KPGKDHAFHFE": "QUEST_GUIDE_LOCATION",
        "param": [
          "Q72661_Kuangchang",
          "30"
        ],
        "guideScene": 3,
        "guideStyle": "QUEST_GUIDE_STYLE_TARGET"
      },
      "showGuide": "QUEST_GUIDE_ITEM_DISABLE",
      "guideHint": {
        "param1": ""
      },
      "versionBegin": "",
      "versionEnd": ""
    },
    {
      "subId": 7266106,
      "mainId": 72661,
      "order": 19,
      "descTextMapHash": 1234677860,
      "finishCond": [
        {
          "KPGKDHAFHFE": "QUEST_CONTENT_COMPLETE_TALK",
          "param": [
            7266105,
            0
          ]
        }
      ],
      "guide": {
        "KPGKDHAFHFE": "QUEST_GUIDE_LOCATION",
        "param": [
          "Q72661_Kuangchang",
          "30"
        ],
        "guideScene": 3,
        "guideStyle": "QUEST_GUIDE_STYLE_TARGET"
      },
      "guideHint": {
        "param1": ""
      },
      "isRewind": true,
      "versionBegin": "",
      "versionEnd": ""
    },
    {
      "subId": 7266107,
      "mainId": 72661,
      "order": 20,
      "isMpBlock": true,
      "descTextMapHash": 2609677388,
      "finishCond": [
        {
          "KPGKDHAFHFE": "QUEST_CONTENT_FINISH_PLOT",
          "param": [
            7266107,
            0
          ]
        }
      ],
      "failCond": [
        {
          "KPGKDHAFHFE": "QUEST_CONTENT_NOT_FINISH_PLOT",
          "param": [
            7266107,
            0
          ]
        },
        {
          "KPGKDHAFHFE": "QUEST_CONTENT_TEAM_DEAD",
          "param": [
            0,
            0
          ]
        },
        {
          "KPGKDHAFHFE": "QUEST_CONTENT_ANY_MANUAL_TRANSPORT",
          "param": [
            0,
            0
          ]
        }
      ],
      "guide": {
        "KPGKDHAFHFE": "QUEST_GUIDE_NPC",
        "param": [
          "12164"
        ],
        "guideScene": 3,
        "guideStyle": "QUEST_GUIDE_STYLE_TARGET",
        "guideLayer": "QUEST_GUIDE_LAYER_SCENE"
      },
      "showGuide": "QUEST_GUIDE_ITEM_DISABLE",
      "guideHint": {
        "param1": ""
      },
      "finishExec": [
        {
          "KPGKDHAFHFE": "QUEST_EXEC_UNLOCK_AVATAR_TEAM"
        }
      ],
      "failExec": [
        {
          "KPGKDHAFHFE": "QUEST_EXEC_UNLOCK_AVATAR_TEAM"
        },
        {
          "KPGKDHAFHFE": "QUEST_EXEC_ROLLBACK_QUEST",
          "param": [
            "7266106"
          ]
        }
      ],
      "versionBegin": "",
      "versionEnd": ""
    },
    {
      "subId": 7266108,
      "mainId": 72661,
      "order": 23,
      "descTextMapHash": 4207222236,
      "finishCond": [
        {
          "KPGKDHAFHFE": "QUEST_CONTENT_LUA_NOTIFY",
          "param": [
            0,
            0
          ],
          "count": 1
        }
      ],
      "guide": {
        "KPGKDHAFHFE": "QUEST_GUIDE_LOCATION",
        "param": [
          "Q72661_Camp",
          "30"
        ],
        "guideScene": 3,
        "guideStyle": "QUEST_GUIDE_STYLE_TARGET"
      },
      "guideHint": {
        "param1": ""
      },
      "isRewind": true,
      "finishExec": [
        {
          "KPGKDHAFHFE": "QUEST_EXEC_UNREGISTER_DYNAMIC_GROUP",
          "param": [
            "133002036",
            "0"
          ]
        }
      ],
      "versionBegin": "",
      "versionEnd": ""
    },
    {
      "subId": 7266109,
      "mainId": 72661,
      "order": 25,
      "descTextMapHash": 4277037212,
      "finishCond": [
        {
          "KPGKDHAFHFE": "QUEST_CONTENT_COMPLETE_TALK",
          "param": [
            7266106,
            0
          ]
        }
      ],
      "guide": {
        "KPGKDHAFHFE": "QUEST_GUIDE_NPC",
        "param": [
          "3200"
        ],
        "guideScene": 3,
        "guideStyle": "QUEST_GUIDE_STYLE_TARGET"
      },
      "guideHint": {
        "param1": ""
      },
      "finishParent": true,
      "isRewind": true,
      "finishExec": [
        {
          "KPGKDHAFHFE": "QUEST_EXEC_UNREGISTER_DYNAMIC_GROUP",
          "param": [
            "133002037",
            "0"
          ]
        },
        {
          "KPGKDHAFHFE": "QUEST_EXEC_UNREGISTER_DYNAMIC_GROUP",
          "param": [
            "133002038",
            "0"
          ]
        },
        {
          "KPGKDHAFHFE": "QUEST_EXEC_DEL_ALL_SPECIFIC_PACK_ITEM",
          "param": [
            "101547"
          ]
        },
        {
          "KPGKDHAFHFE": "QUEST_EXEC_DEL_ALL_SPECIFIC_PACK_ITEM",
          "param": [
            "100984"
          ]
        }
      ],
      "versionBegin": "",
      "versionEnd": ""
    },
    {
      "subId": 7266110,
      "mainId": 72661,
      "order": 97,
      "descTextMapHash": 3604962908,
      "finishCond": [
        {
          "KPGKDHAFHFE": "QUEST_CONTENT_COMPLETE_TALK",
          "param": [
            7266102,
            0
          ]
        }
      ],
      "guide": {},
      "guideHint": {
        "param1": ""
      },
      "versionBegin": "",
      "versionEnd": ""
    },
    {
      "subId": 7266111,
      "mainId": 72661,
      "order": 98,
      "descTextMapHash": 1570597124,
      "finishCond": [
        {
          "KPGKDHAFHFE": "QUEST_CONTENT_COMPLETE_TALK",
          "param": [
            7266103,
            0
          ]
        }
      ],
      "guide": {},
      "guideHint": {
        "param1": ""
      },
      "versionBegin": "",
      "versionEnd": ""
    },
    {
      "subId": 7266112,
      "mainId": 72661,
      "order": 99,
      "descTextMapHash": 2830715772,
      "finishCond": [
        {
          "KPGKDHAFHFE": "QUEST_CONTENT_COMPLETE_TALK",
          "param": [
            7266104,
            0
          ]
        }
      ],
      "guide": {},
      "guideHint": {
        "param1": ""
      },
      "versionBegin": "",
      "versionEnd": ""
    },
    {
      "subId": 7266113,
      "mainId": 72661,
      "order": 21,
      "descTextMapHash": 2154456796,
      "finishCond": [
        {
          "KPGKDHAFHFE": "QUEST_CONTENT_COMPLETE_TALK",
          "param": [
            7266107,
            0
          ]
        }
      ],
      "guide": {},
      "guideHint": {
        "param1": ""
      },
      "versionBegin": "",
      "versionEnd": ""
    }
  ],
  "talks": [
    {
      "id": 7266101,
      "beginWay": "TALK_BEGIN_MANUAL",
      "beginCond": [
        {
          "type": "QUEST_COND_STATE_EQUAL",
          "_param": [
            "7266101",
            "2"
          ]
        }
      ],
      "priority": 5,
      "initDialog": 726610101,
      "npcId": [
        1673,
        1005
      ],
      "performCfg": "QuestDialogue/WQ/Daoqi_72661/Q7266101",
      "heroTalk": "TALK_HERO_MAIN",
      "questId": 72661,
      "assetIndex": 10687147414497178741,
      "prePerformCfg": ""
    },
    {
      "id": 7266102,
      "beginWay": "TALK_BEGIN_MANUAL",
      "beginCond": [
        {
          "type": "QUEST_COND_STATE_EQUAL",
          "_param": [
            "7266110",
            "2"
          ]
        }
      ],
      "priority": 5,
      "initDialog": 726610201,
      "npcId": [
        1005
      ],
      "performCfg": "",
      "questId": 72661,
      "assetIndex": 9400505319734111434,
      "prePerformCfg": ""
    },
    {
      "id": 7266103,
      "beginWay": "TALK_BEGIN_MANUAL",
      "beginCond": [
        {
          "type": "QUEST_COND_STATE_EQUAL",
          "_param": [
            "7266111",
            "2"
          ]
        }
      ],
      "priority": 5,
      "initDialog": 726610301,
      "npcId": [
        1005
      ],
      "performCfg": "",
      "questId": 72661,
      "assetIndex": 8964053955816444748,
      "prePerformCfg": ""
    },
    {
      "id": 7266104,
      "beginWay": "TALK_BEGIN_MANUAL",
      "beginCond": [
        {
          "type": "QUEST_COND_STATE_EQUAL",
          "_param": [
            "7266112",
            "2"
          ]
        }
      ],
      "priority": 5,
      "initDialog": 726610401,
      "npcId": [
        1005
      ],
      "performCfg": "",
      "questId": 72661,
      "assetIndex": 5323621564623911618,
      "prePerformCfg": ""
    },
    {
      "id": 7266105,
      "beginWay": "TALK_BEGIN_MANUAL",
      "beginCond": [
        {
          "type": "QUEST_COND_STATE_EQUAL",
          "_param": [
            "7266106",
            "2"
          ]
        }
      ],
      "priority": 5,
      "initDialog": 726610501,
      "npcId": [
        1005
      ],
      "performCfg": "QuestDialogue/WQ/Daoqi_72661/Q7266105",
      "heroTalk": "TALK_HERO_MAIN",
      "questId": 72661,
      "assetIndex": 381148362118572172,
      "prePerformCfg": "",
      "lockGameTime": true
    },
    {
      "id": 7266106,
      "beginWay": "TALK_BEGIN_MANUAL",
      "beginCond": [
        {
          "type": "QUEST_COND_STATE_EQUAL",
          "_param": [
            "7266109",
            "2"
          ]
        }
      ],
      "priority": 5,
      "initDialog": 726610601,
      "npcId": [
        3200,
        1005
      ],
      "performCfg": "QuestDialogue/WQ/Daoqi_72661/Q7266106",
      "heroTalk": "TALK_HERO_MAIN",
      "questId": 72661,
      "assetIndex": 9530947769374708607,
      "prePerformCfg": "",
      "lockGameTime": true
    },
    {
      "id": 7266107,
      "beginWay": "TALK_BEGIN_MANUAL",
      "beginCond": [
        {
          "type": "QUEST_COND_STATE_EQUAL",
          "_param": [
            "7266113",
            "2"
          ]
        }
      ],
      "priority": 5,
      "initDialog": 726610701,
      "npcId": [
        12164,
        12177,
        12178,
        1005
      ],
      "performCfg": "QuestDialogue/WQ/Daoqi_72661/Q7266107",
      "heroTalk": "TALK_HERO_MAIN",
      "questId": 72661,
      "assetIndex": 11429625927569893816,
      "prePerformCfg": "",
      "lockGameTime": true
    }
  ],
  "preloadLuaList": [
    14457059026087496718,
    4851104705847026684,
    8626733093375108349,
    9868650814492868736,
    6736203265474919639,
    9891488578133158938
  ],
  "forcePreloadLuaList": [
    5905380825666467381,
    11108662340521195773
  ]
}