{
  "id": 72676,
  "KPGKDHAFHFE": "WQ",
  "mainQuestTag": "MAINQUEST_TAG_ACTIVITY",
  "titleTextMapHash": 3104052111,
  "descTextMapHash": 3424725414,
  "luaPath": "Actor/Quest/WQ72676",
  "rewardIdList": [
    172676
  ],
  "showRedPoint": true,
  "activityId": 5055,
  "subQuests": [
    {
      "subId": 7267601,
      "mainId": 72676,
      "order": 2,
      "descTextMapHash": 4147319820,
      "GMKDJFPEFFF": [
        7267601
      ],
      "finishCond": [
        {
          "KPGKDHAFHFE": "QUEST_CONTENT_COMPLETE_TALK",
          "param": [
            7267601,
            0
          ]
        }
      ],
      "guide": {
        "KPGKDHAFHFE": "QUEST_GUIDE_NPC",
        "param": [
          "1419"
        ],
        "guideScene": 3,
        "guideStyle": "QUEST_GUIDE_STYLE_TARGET",
        "guideLayer": "QUEST_GUIDE_LAYER_SCENE"
      },
      "guideHint": {
        "param1": ""
      },
      "isRewind": true,
      "versionBegin": "",
      "versionEnd": ""
    },
    {
      "subId": 7267602,
      "mainId": 72676,
      "order": 3,
      "descTextMapHash": 1641679620,
      "finishCond": [
        {
          "KPGKDHAFHFE": "QUEST_CONTENT_OBTAIN_ITEM",
          "param": [
            108033,
            0
          ],
          "count": 1
        }
      ],
      "guide": {},
      "guideHint": {
        "param1": ""
      },
      "isRewind": true,
      "versionBegin": "",
      "versionEnd": ""
    },
    {
      "subId": 7267603,
      "mainId": 72676,
      "order": 4,
      "descTextMapHash": 2481265164,
      "GMKDJFPEFFF": [
        7267601
      ],
      "finishCond": [
        {
          "KPGKDHAFHFE": "QUEST_CONTENT_COMPLETE_TALK",
          "param": [
            7267603,
            0
          ]
        }
      ],
      "guide": {
        "KPGKDHAFHFE": "QUEST_GUIDE_LOCATION",
        "param": [
          "Q7267603_N3160"
        ],
        "guideScene": 3,
        "guideStyle": "QUEST_GUIDE_STYLE_POINT",
        "guideLayer": "QUEST_GUIDE_LAYER_SCENE"
      },
      "guideHint": {
        "param1": ""
      },
      "isRewind": true,
      "versionBegin": "",
      "versionEnd": ""
    },
    {
      "subId": 7267604,
      "mainId": 72676,
      "order": 5,
      "descTextMapHash": 3999030828,
      "finishCond": [
        {
          "KPGKDHAFHFE": "QUEST_CONTENT_FINISH_PLOT",
          "param": [
            7267604,
            0
          ]
        }
      ],
      "guide": {
        "KPGKDHAFHFE": "QUEST_GUIDE_LOCATION",
        "param": [
          "Q7267604_N3160"
        ],
        "guideScene": 3,
        "guideStyle": "QUEST_GUIDE_STYLE_POINT",
        "guideLayer": "QUEST_GUIDE_LAYER_SCENE"
      },
      "guideHint": {
        "param1": ""
      },
      "isRewind": true,
      "versionBegin": "",
      "versionEnd": ""
    },
    {
      "subId": 7267605,
      "mainId": 72676,
      "order": 6,
      "descTextMapHash": 935305044,
      "GMKDJFPEFFF": [
        7267605
      ],
      "finishCond": [
        {
          "KPGKDHAFHFE": "QUEST_CONTENT_COMPLETE_TALK",
          "param": [
            7267605,
            0
          ]
        }
      ],
      "guide": {
        "KPGKDHAFHFE": "QUEST_GUIDE_LOCATION",
        "param": [
          "Q7267605_N3160"
        ],
        "guideScene": 3,
        "guideStyle": "QUEST_GUIDE_STYLE_POINT",
        "guideLayer": "QUEST_GUIDE_LAYER_SCENE"
      },
      "guideHint": {
        "param1": ""
      },
      "isRewind": true,
      "versionBegin": "",
      "versionEnd": ""
    },
    {
      "subId": 7267606,
      "mainId": 72676,
      "order": 7,
      "descTextMapHash": 2214623956,
      "GMKDJFPEFFF": [
        7267605
      ],
      "finishCond": [
        {
          "KPGKDHAFHFE": "QUEST_CONTENT_FINISH_PLOT",
          "param": [
            7267606,
            0
          ]
        }
      ],
      "guide": {
        "KPGKDHAFHFE": "QUEST_GUIDE_LOCATION",
        "param": [
          "Q7267605_N10000005"
        ],
        "guideScene": 3,
        "guideStyle": "QUEST_GUIDE_STYLE_POINT",
        "guideLayer": "QUEST_GUIDE_LAYER_SCENE"
      },
      "guideHint": {
        "param1": ""
      },
      "versionBegin": "",
      "versionEnd": ""
    },
    {
      "subId": 7267607,
      "mainId": 72676,
      "order": 8,
      "descTextMapHash": 820830364,
      "GMKDJFPEFFF": [
        7267605
      ],
      "finishCond": [
        {
          "KPGKDHAFHFE": "QUEST_CONTENT_COMPLETE_TALK",
          "param": [
            7267607,
            0
          ]
        }
      ],
      "guide": {
        "KPGKDHAFHFE": "QUEST_GUIDE_NPC",
        "param": [
          "3160"
        ],
        "guideScene": 3,
        "guideStyle": "QUEST_GUIDE_STYLE_TARGET",
        "guideLayer": "QUEST_GUIDE_LAYER_SCENE"
      },
      "guideHint": {
        "param1": ""
      },
      "isRewind": true,
      "versionBegin": "",
      "versionEnd": ""
    },
    {
      "subId": 7267608,
      "mainId": 72676,
      "order": 9,
      "descTextMapHash": 4074127260,
      "finishCond": [
        {
          "KPGKDHAFHFE": "QUEST_CONTENT_COMPLETE_TALK",
          "param": [
            7267608,
            0
          ]
        }
      ],
      "guide": {
        "KPGKDHAFHFE": "QUEST_GUIDE_NPC",
        "param": [
          "2045"
        ],
        "guideScene": 3,
        "guideStyle": "QUEST_GUIDE_STYLE_TARGET",
        "guideLayer": "QUEST_GUIDE_LAYER_SCENE"
      },
      "guideHint": {
        "param1": ""
      },
      "isRewind": true,
      "versionBegin": "",
      "versionEnd": ""
    },
    {
      "subId": 7267609,
      "mainId": 72676,
      "order": 10,
      "descTextMapHash": 2024949916,
      "finishCond": [
        {
          "KPGKDHAFHFE": "QUEST_CONTENT_COMPLETE_TALK",
          "param": [
            7267609,
            0
          ]
        }
      ],
      "guide": {
        "KPGKDHAFHFE": "QUEST_GUIDE_NPC",
        "param": [
          "2022"
        ],
        "guideScene": 3,
        "guideStyle": "QUEST_GUIDE_STYLE_TARGET",
        "guideLayer": "QUEST_GUIDE_LAYER_SCENE"
      },
      "guideHint": {
        "param1": ""
      },
      "isRewind": true,
      "versionBegin": "",
      "versionEnd": ""
    },
    {
      "subId": 7267610,
      "mainId": 72676,
      "order": 12,
      "descTextMapHash": 355383452,
      "GMKDJFPEFFF": [
        1034
      ],
      "finishCond": [
        {
          "KPGKDHAFHFE": "QUEST_CONTENT_COMPLETE_TALK",
          "param": [
            7267610,
            0
          ]
        }
      ],
      "guide": {
        "KPGKDHAFHFE": "QUEST_GUIDE_LOCATION",
        "param": [
          "Q7267610_N3160"
        ],
        "guideScene": 3,
        "guideStyle": "QUEST_GUIDE_STYLE_POINT",
        "guideLayer": "QUEST_GUIDE_LAYER_SCENE"
      },
      "guideHint": {
        "param1": ""
      },
      "isRewind": true,
      "versionBegin": "",
      "versionEnd": ""
    },
    {
      "subId": 7267611,
      "mainId": 72676,
      "order": 13,
      "descTextMapHash": 410291012,
      "finishCond": [
        {
          "KPGKDHAFHFE": "QUEST_CONTENT_FINISH_PLOT",
          "param": [
            7267611,
            0
          ]
        }
      ],
      "guide": {
        "KPGKDHAFHFE": "QUEST_GUIDE_LOCATION",
        "param": [
          "Q7267610_N10000005"
        ],
        "guideScene": 3,
        "guideStyle": "QUEST_GUIDE_STYLE_POINT",
        "guideLayer": "QUEST_GUIDE_LAYER_SCENE"
      },
      "guideHint": {
        "param1": ""
      },
      "versionBegin": "",
      "versionEnd": ""
    },
    {
      "subId": 7267612,
      "mainId": 72676,
      "order": 14,
      "descTextMapHash": 977206212,
      "finishCond": [
        {
          "KPGKDHAFHFE": "QUEST_CONTENT_COMPLETE_TALK",
          "param": [
            7267612,
            0
          ]
        }
      ],
      "guide": {
        "KPGKDHAFHFE": "QUEST_GUIDE_NPC",
        "param": [
          "3160"
        ],
        "guideScene": 3,
        "guideStyle": "QUEST_GUIDE_STYLE_TARGET",
        "guideLayer": "QUEST_GUIDE_LAYER_SCENE"
      },
      "guideHint": {
        "param1": ""
      },
      "finishParent": true,
      "isRewind": true,
      "versionBegin": "",
      "versionEnd": ""
    },
    {
      "subId": 7267613,
      "mainId": 72676,
      "order": 11,
      "descTextMapHash": 1210562652,
      "GMKDJFPEFFF": [
        1034
      ],
      "finishCond": [
        {
          "KPGKDHAFHFE": "QUEST_CONTENT_COMPLETE_TALK",
          "param": [
            7267613,
            0
          ]
        }
      ],
      "guide": {
        "KPGKDHAFHFE": "QUEST_GUIDE_LOCATION",
        "param": [
          "Q7267613_N3160",
          "15"
        ],
        "guideScene": 1034,
        "guideStyle": "QUEST_GUIDE_STYLE_TARGET",
        "guideLayer": "QUEST_GUIDE_LAYER_SCENE"
      },
      "guideHint": {
        "param1": ""
      },
      "isRewind": true,
      "versionBegin": "",
      "versionEnd": ""
    },
    {
      "subId": 7267614,
      "mainId": 72676,
      "order": 1,
      "descTextMapHash": 1670100668,
      "showType": "QUEST_HIDDEN",
      "finishCond": [
        {
          "KPGKDHAFHFE": "QUEST_CONTENT_FINISH_PLOT",
          "param": [
            7267614,
            0
          ]
        }
      ],
      "guide": {},
      "guideHint": {
        "param1": ""
      },
      "isRewind": true,
      "versionBegin": "",
      "versionEnd": ""
    }
  ],
  "talks": [
    {
      "id": 7267601,
      "beginWay": "TALK_BEGIN_MANUAL",
      "beginCond": [
        {
          "type": "QUEST_COND_STATE_EQUAL",
          "_param": [
            "7267601",
            "2"
          ]
        }
      ],
      "priority": 5,
      "initDialog": 726760101,
      "npcId": [
        1419
      ],
      "performCfg": "QuestDialogue/WQ/Liyue_72676/Q7267601",
      "heroTalk": "TALK_HERO_MAIN",
      "questId": 72676,
      "assetIndex": 8684447045046450418,
      "prePerformCfg": ""
    },
    {
      "id": 7267603,
      "beginWay": "TALK_BEGIN_AUTO",
      "beginCond": [
        {
          "type": "QUEST_COND_STATE_EQUAL",
          "_param": [
            "7267603",
            "2"
          ]
        }
      ],
      "priority": 5,
      "initDialog": 726760301,
      "npcId": [
        12354
      ],
      "performCfg": "QuestDialogue/WQ/Liyue_72676/Q7267603",
      "heroTalk": "TALK_HERO_MAIN",
      "questId": 72676,
      "assetIndex": 10865871460557085269,
      "prePerformCfg": ""
    },
    {
      "id": 7267604,
      "beginWay": "TALK_BEGIN_MANUAL",
      "beginCondComb": "LOGIC_OR",
      "beginCond": [
        {
          "type": "QUEST_COND_STATE_EQUAL",
          "_param": [
            "7267602",
            "2"
          ]
        },
        {
          "type": "QUEST_COND_STATE_EQUAL",
          "_param": [
            "7267603",
            "2"
          ]
        }
      ],
      "priority": 5,
      "initDialog": 726760401,
      "npcId": [
        1419
      ],
      "performCfg": "QuestDialogue/WQ/Liyue_72676/Q7267604",
      "heroTalk": "TALK_HERO_MAIN",
      "questId": 72676,
      "assetIndex": 12493684271528805760,
      "prePerformCfg": ""
    },
    {
      "id": 7267605,
      "beginWay": "TALK_BEGIN_AUTO",
      "beginCond": [
        {
          "type": "QUEST_COND_STATE_EQUAL",
          "_param": [
            "7267605",
            "2"
          ]
        }
      ],
      "priority": 5,
      "initDialog": 726760501,
      "npcId": [
        12354
      ],
      "performCfg": "QuestDialogue/WQ/Liyue_72676/Q7267605",
      "heroTalk": "TALK_HERO_MAIN",
      "questId": 72676,
      "assetIndex": 11467809098363550875,
      "prePerformCfg": ""
    },
    {
      "id": 7267607,
      "beginWay": "TALK_BEGIN_MANUAL",
      "beginCond": [
        {
          "type": "QUEST_COND_STATE_EQUAL",
          "_param": [
            "7267607",
            "2"
          ]
        }
      ],
      "priority": 5,
      "initDialog": 726760701,
      "npcId": [
        3160
      ],
      "performCfg": "QuestDialogue/WQ/Liyue_72676/Q7267607",
      "heroTalk": "TALK_HERO_MAIN",
      "questId": 72676,
      "assetIndex": 8356023612271601276,
      "prePerformCfg": ""
    },
    {
      "id": 7267608,
      "beginWay": "TALK_BEGIN_AUTO",
      "beginCond": [
        {
          "type": "QUEST_COND_STATE_EQUAL",
          "_param": [
            "7267608",
            "2"
          ]
        }
      ],
      "priority": 5,
      "initDialog": 726760801,
      "npcId": [
        2045
      ],
      "performCfg": "QuestDialogue/WQ/Liyue_72676/Q7267608",
      "heroTalk": "TALK_HERO_MAIN",
      "questId": 72676,
      "assetIndex": 10795022668023757923,
      "prePerformCfg": ""
    },
    {
      "id": 7267609,
      "beginWay": "TALK_BEGIN_MANUAL",
      "beginCond": [
        {
          "type": "QUEST_COND_STATE_EQUAL",
          "_param": [
            "7267609",
            "2"
          ]
        }
      ],
      "priority": 5,
      "initDialog": 726760901,
      "npcId": [
        2022
      ],
      "performCfg": "QuestDialogue/WQ/Liyue_72676/Q7267609",
      "heroTalk": "TALK_HERO_MAIN",
      "questId": 72676,
      "assetIndex": 3356576035956547553,
      "prePerformCfg": ""
    },
    {
      "id": 7267610,
      "beginWay": "TALK_BEGIN_AUTO",
      "beginCond": [
        {
          "type": "QUEST_COND_STATE_EQUAL",
          "_param": [
            "7267610",
            "2"
          ]
        }
      ],
      "priority": 5,
      "initDialog": 726761001,
      "npcId": [
        12354
      ],
      "performCfg": "QuestDialogue/WQ/Liyue_72676/Q7267610",
      "heroTalk": "TALK_HERO_MAIN",
      "questId": 72676,
      "assetIndex": 9293411956318858641,
      "prePerformCfg": ""
    },
    {
      "id": 7267612,
      "beginWay": "TALK_BEGIN_MANUAL",
      "beginCond": [
        {
          "type": "QUEST_COND_STATE_EQUAL",
          "_param": [
            "7267612",
            "2"
          ]
        }
      ],
      "priority": 5,
      "initDialog": 726761201,
      "npcId": [
        3160
      ],
      "performCfg": "QuestDialogue/WQ/Liyue_72676/Q7267612",
      "heroTalk": "TALK_HERO_MAIN",
      "questId": 72676,
      "assetIndex": 10932340057345455376,
      "prePerformCfg": ""
    },
    {
      "id": 7267613,
      "beginWay": "TALK_BEGIN_MANUAL",
      "beginCond": [
        {
          "type": "QUEST_COND_STATE_EQUAL",
          "_param": [
            "7267613",
            "2"
          ]
        }
      ],
      "priority": 5,
      "initDialog": 726761301,
      "npcId": [
        12354
      ],
      "performCfg": "QuestDialogue/WQ/Liyue_72676/Q7267613",
      "heroTalk": "TALK_HERO_MAIN",
      "questId": 72676,
      "assetIndex": 7997685801381662400,
      "prePerformCfg": ""
    },
    {
      "id": 7267614,
      "beginWay": "TALK_BEGIN_MANUAL",
      "beginCond": [
        {
          "type": "QUEST_COND_STATE_EQUAL",
          "_param": [
            "7267606",
            "2"
          ]
        }
      ],
      "priority": 5,
      "npcId": [
        12354
      ],
      "performCfg": "QuestDialogue/WQ/Liyue_72676/Q7267614",
      "heroTalk": "TALK_HERO_MAIN",
      "questId": 72676,
      "assetIndex": 18154850935964800570,
      "prePerformCfg": ""
    },
    {
      "id": 7267615,
      "beginWay": "TALK_BEGIN_MANUAL",
      "beginCond": [
        {
          "type": "QUEST_COND_STATE_EQUAL",
          "_param": [
            "7267611",
            "2"
          ]
        }
      ],
      "priority": 5,
      "npcId": [
        12354
      ],
      "performCfg": "QuestDialogue/WQ/Liyue_72676/Q7267615",
      "heroTalk": "TALK_HERO_MAIN",
      "questId": 72676,
      "assetIndex": 8085721635642940631,
      "prePerformCfg": ""
    },
    {
      "id": 7267616,
      "beginWay": "TALK_BEGIN_MANUAL",
      "beginCond": [
        {
          "type": "QUEST_COND_STATE_EQUAL",
          "_param": [
            "7267613",
            "2"
          ]
        }
      ],
      "priority": 5,
      "initDialog": 726761601,
      "npcId": [
        2022
      ],
      "performCfg": "QuestDialogue/WQ/Liyue_72676/Q7267616",
      "heroTalk": "TALK_HERO_MAIN",
      "questId": 72676,
      "assetIndex": 5928406037864967274,
      "prePerformCfg": ""
    },
    {
      "id": 7267621,
      "beginWay": "TALK_BEGIN_MANUAL",
      "beginCondComb": "LOGIC_OR",
      "beginCond": [
        {
          "type": "QUEST_COND_STATE_EQUAL",
          "_param": [
            "7267609",
            "2"
          ]
        },
        {
          "type": "QUEST_COND_STATE_EQUAL",
          "_param": [
            "7267613",
            "2"
          ]
        }
      ],
      "priority": 5,
      "initDialog": 726762101,
      "npcId": [
        2082
      ],
      "performCfg": "QuestDialogue/WQ/Liyue_72676/Q7267621",
      "heroTalk": "TALK_HERO_MAIN",
      "questId": 72676,
      "assetIndex": 6108838205961438305,
      "prePerformCfg": ""
    },
    {
      "id": 7267622,
      "beginWay": "TALK_BEGIN_MANUAL",
      "beginCondComb": "LOGIC_OR",
      "beginCond": [
        {
          "type": "QUEST_COND_STATE_EQUAL",
          "_param": [
            "7267609",
            "2"
          ]
        },
        {
          "type": "QUEST_COND_STATE_EQUAL",
          "_param": [
            "7267613",
            "2"
          ]
        }
      ],
      "priority": 5,
      "initDialog": 726762201,
      "npcId": [
        2046
      ],
      "performCfg": "QuestDialogue/WQ/Liyue_72676/Q7267622",
      "heroTalk": "TALK_HERO_MAIN",
      "questId": 72676,
      "assetIndex": 16237322577625210304,
      "prePerformCfg": ""
    }
  ],
  "preloadLuaList": [
    3863456258821462454,
    13056499084784865440
  ],
  "forcePreloadLuaList": [
    5676442583859797867
  ],
  "freeStyleDic": {
    "2082": [
      8010
    ],
    "2046": [
      8010
    ]
  }
}