{
  "id": 72695,
  "KPGKDHAFHFE": "WQ",
  "mainQuestTag": "MAINQUEST_TAG_GUIDE",
  "activeMode": "PLAY_MODE_ALL",
  "titleTextMapHash": 3225421439,
  "descTextMapHash": 456556694,
  "luaPath": "Actor/Quest/WQ72695",
  "rewardIdList": [
    172695
  ],
  "showRedPoint": true,
  "activityId": 5080,
  "subQuests": [
    {
      "subId": 7269501,
      "mainId": 72695,
      "order": 1,
      "descTextMapHash": 992384964,
      "finishCond": [
        {
          "KPGKDHAFHFE": "QUEST_CONTENT_COMPLETE_TALK",
          "param": [
            7269501,
            0
          ]
        }
      ],
      "guide": {
        "KPGKDHAFHFE": "QUEST_GUIDE_NPC",
        "param": [
          "30187"
        ],
        "guideScene": 3,
        "guideStyle": "QUEST_GUIDE_STYLE_TARGET",
        "guideLayer": "QUEST_GUIDE_LAYER_SCENE"
      },
      "guideHint": {
        "param1": ""
      },
      "isRewind": true,
      "versionBegin": "",
      "versionEnd": ""
    },
    {
      "subId": 7269502,
      "mainId": 72695,
      "order": 2,
      "descTextMapHash": 3779057876,
      "finishCond": [
        {
          "KPGKDHAFHFE": "QUEST_CONTENT_ACTIVITY_TRIGGER_UPDATE",
          "param": [
            5080,
            201
          ],
          "count": 1
        }
      ],
      "guide": {
        "KPGKDHAFHFE": "QUEST_GUIDE_LOCATION",
        "param": [
          "Q7269502_guide"
        ],
        "guideScene": 3,
        "guideStyle": "QUEST_GUIDE_STYLE_POINT",
        "guideLayer": "QUEST_GUIDE_LAYER_SCENE"
      },
      "showGuide": "QUEST_GUIDE_ITEM_DISABLE",
      "guideHint": {
        "param1": ""
      },
      "isRewind": true,
      "versionBegin": "",
      "versionEnd": ""
    },
    {
      "subId": 7269503,
      "mainId": 72695,
      "order": 5,
      "descTextMapHash": 2268767540,
      "finishCond": [
        {
          "KPGKDHAFHFE": "QUEST_CONTENT_COMPLETE_TALK",
          "param": [
            7269503,
            0
          ]
        }
      ],
      "guide": {
        "KPGKDHAFHFE": "QUEST_GUIDE_NPC",
        "param": [
          "30187"
        ],
        "guideScene": 3,
        "guideStyle": "QUEST_GUIDE_STYLE_TARGET",
        "guideLayer": "QUEST_GUIDE_LAYER_SCENE"
      },
      "guideHint": {
        "param1": ""
      },
      "finishParent": true,
      "isRewind": true,
      "versionBegin": "",
      "versionEnd": ""
    },
    {
      "subId": 7269504,
      "mainId": 72695,
      "order": 3,
      "descTextMapHash": 4009770076,
      "finishCond": [
        {
          "KPGKDHAFHFE": "QUEST_CONTENT_ACTIVITY_TRIGGER_UPDATE",
          "param": [
            5080,
            202
          ],
          "count": 1
        }
      ],
      "guide": {
        "KPGKDHAFHFE": "QUEST_GUIDE_LOCATION",
        "param": [
          "Q7269504_guide"
        ],
        "guideScene": 3,
        "guideStyle": "QUEST_GUIDE_STYLE_POINT",
        "guideLayer": "QUEST_GUIDE_LAYER_SCENE"
      },
      "showGuide": "QUEST_GUIDE_ITEM_DISABLE",
      "guideHint": {
        "param1": ""
      },
      "isRewind": true,
      "versionBegin": "",
      "versionEnd": ""
    },
    {
      "subId": 7269505,
      "mainId": 72695,
      "order": 4,
      "descTextMapHash": 971810036,
      "finishCond": [
        {
          "KPGKDHAFHFE": "QUEST_CONTENT_ACTIVITY_TRIGGER_UPDATE",
          "param": [
            5080,
            203
          ],
          "count": 1
        }
      ],
      "guide": {
        "KPGKDHAFHFE": "QUEST_GUIDE_LOCATION",
        "param": [
          "Q7269505_guide"
        ],
        "guideScene": 3,
        "guideStyle": "QUEST_GUIDE_STYLE_POINT",
        "guideLayer": "QUEST_GUIDE_LAYER_SCENE"
      },
      "showGuide": "QUEST_GUIDE_ITEM_DISABLE",
      "guideHint": {
        "param1": ""
      },
      "isRewind": true,
      "versionBegin": "",
      "versionEnd": ""
    }
  ],
  "talks": [
    {
      "id": 7269501,
      "beginWay": "TALK_BEGIN_MANUAL",
      "activeMode": "PLAY_MODE_HOST",
      "beginCond": [
        {
          "type": "QUEST_COND_STATE_EQUAL",
          "_param": [
            "7269501",
            "2"
          ]
        }
      ],
      "priority": 5,
      "initDialog": 726950101,
      "npcId": [
        30187
      ],
      "performCfg": "QuestDialogue/WQ/Inazuma_72695/Q7269501",
      "heroTalk": "TALK_HERO_MAIN",
      "questId": 72695,
      "assetIndex": 11482977573894509296,
      "prePerformCfg": "",
      "freeStyleList": [
        1171,
        1172,
        1173,
        1160,
        1230
      ]
    },
    {
      "id": 7269502,
      "beginWay": "TALK_BEGIN_MANUAL",
      "activeMode": "PLAY_MODE_HOST",
      "beginCondComb": "LOGIC_OR",
      "beginCond": [
        {
          "type": "QUEST_COND_STATE_EQUAL",
          "_param": [
            "7269502",
            "2"
          ]
        },
        {
          "type": "QUEST_COND_STATE_EQUAL",
          "_param": [
            "7269504",
            "2"
          ]
        },
        {
          "type": "QUEST_COND_STATE_EQUAL",
          "_param": [
            "7269505",
            "2"
          ]
        }
      ],
      "priority": 5,
      "initDialog": 726950201,
      "npcId": [
        30187
      ],
      "performCfg": "",
      "heroTalk": "TALK_HERO_MAIN",
      "questId": 72695,
      "assetIndex": 13980514525640197772,
      "prePerformCfg": "",
      "freeStyleList": [
        1190
      ]
    },
    {
      "id": 7269503,
      "beginWay": "TALK_BEGIN_MANUAL",
      "activeMode": "PLAY_MODE_HOST",
      "beginCond": [
        {
          "type": "QUEST_COND_STATE_EQUAL",
          "_param": [
            "7269503",
            "2"
          ]
        }
      ],
      "priority": 5,
      "initDialog": 726950301,
      "npcId": [
        30187
      ],
      "performCfg": "QuestDialogue/WQ/Inazuma_72695/Q7269503",
      "heroTalk": "TALK_HERO_MAIN",
      "questId": 72695,
      "assetIndex": 5774649090032343768,
      "prePerformCfg": "",
      "freeStyleList": [
        1171,
        1172,
        1173,
        1230
      ]
    }
  ],
  "preloadLuaList": [
    14457059026087496718
  ]
}