{
  "id": 72706,
  "KPGKDHAFHFE": "WQ",
  "mainQuestTag": "MAINQUEST_TAG_REPUTATION",
  "titleTextMapHash": 2475186311,
  "descTextMapHash": 3597692046,
  "luaPath": "Actor/Quest/WQ72706",
  "subQuests": [
    {
      "subId": 7270601,
      "mainId": 72706,
      "order": 1,
      "descTextMapHash": 1949114020,
      "finishCond": [
        {
          "KPGKDHAFHFE": "QUEST_CONTENT_LUA_NOTIFY",
          "param": [
            0,
            0
          ],
          "count": 1
        }
      ],
      "guide": {
        "KPGKDHAFHFE": "QUEST_GUIDE_LOCATION",
        "param": [
          "Q3_72706_0",
          "30"
        ],
        "guideScene": 3,
        "guideStyle": "QUEST_GUIDE_STYLE_TARGET",
        "guideLayer": "QUEST_GUIDE_LAYER_SCENE"
      },
      "guideHint": {
        "param1": ""
      },
      "finishParent": true,
      "isRewind": true,
      "finishExec": [
        {
          "KPGKDHAFHFE": "QUEST_EXEC_UNREGISTER_DYNAMIC_GROUP",
          "param": [
            "133213051"
          ]
        }
      ],
      "versionBegin": "",
      "versionEnd": ""
    }
  ]
}