{
  "id": 72718,
  "KPGKDHAFHFE": "WQ",
  "mainQuestTag": "MAINQUEST_TAG_REPUTATION",
  "titleTextMapHash": 707646055,
  "descTextMapHash": 3548967566,
  "luaPath": "Actor/Quest/WQ72718",
  "subQuests": [
    {
      "subId": 7271801,
      "mainId": 72718,
      "order": 1,
      "descTextMapHash": 623235476,
      "finishCond": [
        {
          "KPGKDHAFHFE": "QUEST_CONTENT_FINISH_ITEM_GIVING",
          "param": [
            7271801,
            0
          ]
        }
      ],
      "guide": {
        "KPGKDHAFHFE": "QUEST_GUIDE_NPC",
        "param": [
          "3018"
        ],
        "guideScene": 3,
        "guideStyle": "QUEST_GUIDE_STYLE_TARGET",
        "guideLayer": "QUEST_GUIDE_LAYER_SCENE"
      },
      "guideHint": {
        "param1": ""
      },
      "isRewind": true,
      "versionBegin": "",
      "versionEnd": ""
    },
    {
      "subId": 7271802,
      "mainId": 72718,
      "order": 2,
      "descTextMapHash": 2635090324,
      "finishCond": [
        {
          "KPGKDHAFHFE": "QUEST_CONTENT_COMPLETE_TALK",
          "param": [
            7271802,
            0
          ]
        }
      ],
      "guide": {
        "KPGKDHAFHFE": "QUEST_GUIDE_NPC",
        "param": [
          "3018"
        ],
        "guideScene": 3,
        "guideStyle": "QUEST_GUIDE_STYLE_TARGET",
        "guideLayer": "QUEST_GUIDE_LAYER_SCENE"
      },
      "guideHint": {
        "param1": ""
      },
      "finishParent": true,
      "isRewind": true,
      "versionBegin": "",
      "versionEnd": ""
    }
  ],
  "talks": [
    {
      "id": 7271801,
      "beginCondComb": "LOGIC_AND",
      "beginCond": [
        {
          "type": "QUEST_COND_STATE_EQUAL",
          "_param": [
            "7271801",
            "2"
          ]
        },
        {
          "type": "QUEST_COND_ITEM_GIVING_ACTIVED",
          "_param": [
            "7271801"
          ]
        }
      ],
      "priority": 5,
      "initDialog": 727180101,
      "npcId": [
        3018
      ],
      "performCfg": "",
      "questId": 72718,
      "assetIndex": 2250049662120061558,
      "dontBlockDaily": true,
      "prePerformCfg": ""
    },
    {
      "id": 7271802,
      "beginWay": "TALK_BEGIN_AUTO",
      "beginCond": [
        {
          "type": "QUEST_COND_STATE_EQUAL",
          "_param": [
            "7271802",
            "2"
          ]
        }
      ],
      "priority": 5,
      "initDialog": 727180201,
      "npcId": [
        3018
      ],
      "performCfg": "",
      "questId": 72718,
      "assetIndex": 13432313263674184541,
      "prePerformCfg": ""
    }
  ]
}