{
  "id": 72713,
  "KPGKDHAFHFE": "WQ",
  "mainQuestTag": "MAINQUEST_TAG_REPUTATION",
  "titleTextMapHash": 1932786375,
  "descTextMapHash": 486570718,
  "luaPath": "Actor/Quest/WQ72713",
  "subQuests": [
    {
      "subId": 7271301,
      "mainId": 72713,
      "order": 1,
      "descTextMapHash": 2373559092,
      "finishCond": [
        {
          "KPGKDHAFHFE": "QUEST_CONTENT_FINISH_ITEM_GIVING",
          "param": [
            7271301,
            0
          ]
        }
      ],
      "guide": {
        "KPGKDHAFHFE": "QUEST_GUIDE_NPC",
        "param": [
          "3172"
        ],
        "guideScene": 3,
        "guideStyle": "QUEST_GUIDE_STYLE_TARGET",
        "guideLayer": "QUEST_GUIDE_LAYER_SCENE"
      },
      "guideHint": {
        "param1": ""
      },
      "isRewind": true,
      "versionBegin": "",
      "versionEnd": ""
    },
    {
      "subId": 7271302,
      "mainId": 72713,
      "order": 2,
      "descTextMapHash": 2891455612,
      "finishCond": [
        {
          "KPGKDHAFHFE": "QUEST_CONTENT_COMPLETE_TALK",
          "param": [
            7271302,
            0
          ]
        }
      ],
      "guide": {
        "KPGKDHAFHFE": "QUEST_GUIDE_NPC",
        "param": [
          "3172"
        ],
        "guideScene": 3,
        "guideStyle": "QUEST_GUIDE_STYLE_TARGET",
        "guideLayer": "QUEST_GUIDE_LAYER_SCENE"
      },
      "guideHint": {
        "param1": ""
      },
      "finishParent": true,
      "isRewind": true,
      "versionBegin": "",
      "versionEnd": ""
    }
  ],
  "talks": [
    {
      "id": 7271301,
      "beginCondComb": "LOGIC_AND",
      "beginCond": [
        {
          "type": "QUEST_COND_STATE_EQUAL",
          "_param": [
            "7271301",
            "2"
          ]
        },
        {
          "type": "QUEST_COND_ITEM_GIVING_ACTIVED",
          "_param": [
            "7271301"
          ]
        }
      ],
      "priority": 5,
      "initDialog": 727130101,
      "npcId": [
        3172
      ],
      "performCfg": "",
      "questId": 72713,
      "assetIndex": 12165966532656805200,
      "dontBlockDaily": true,
      "prePerformCfg": ""
    },
    {
      "id": 7271302,
      "beginWay": "TALK_BEGIN_AUTO",
      "beginCond": [
        {
          "type": "QUEST_COND_STATE_EQUAL",
          "_param": [
            "7271302",
            "2"
          ]
        }
      ],
      "priority": 5,
      "initDialog": 727130201,
      "npcId": [
        3172
      ],
      "performCfg": "",
      "questId": 72713,
      "assetIndex": 9261996296984108906,
      "prePerformCfg": ""
    }
  ]
}