{
  "id": 72727,
  "KPGKDHAFHFE": "WQ",
  "mainQuestTag": "MAINQUEST_TAG_GUIDE",
  "titleTextMapHash": 2831953327,
  "descTextMapHash": 3672285454,
  "luaPath": "Actor/Quest/WQ72727",
  "rewardIdList": [
    172727
  ],
  "showRedPoint": true,
  "activityId": 5094,
  "subQuests": [
    {
      "subId": 7272701,
      "mainId": 72727,
      "order": 1,
      "descTextMapHash": 4045628332,
      "finishCond": [
        {
          "KPGKDHAFHFE": "QUEST_CONTENT_COMPLETE_TALK",
          "param": [
            7272701,
            0
          ]
        }
      ],
      "guide": {
        "KPGKDHAFHFE": "QUEST_GUIDE_NPC",
        "param": [
          "30252"
        ],
        "guideScene": 3,
        "guideStyle": "QUEST_GUIDE_STYLE_START",
        "guideLayer": "QUEST_GUIDE_LAYER_SCENE"
      },
      "guideHint": {
        "param1": ""
      },
      "isRewind": true,
      "versionBegin": "",
      "versionEnd": ""
    },
    {
      "subId": 7272702,
      "mainId": 72727,
      "order": 2,
      "descTextMapHash": 516912164,
      "finishCond": [
        {
          "KPGKDHAFHFE": "QUEST_CONTENT_COMPLETE_TALK",
          "param": [
            7272702,
            0
          ]
        }
      ],
      "guide": {
        "KPGKDHAFHFE": "QUEST_GUIDE_NPC",
        "param": [
          "30252"
        ],
        "guideScene": 3,
        "guideStyle": "QUEST_GUIDE_STYLE_TARGET",
        "guideLayer": "QUEST_GUIDE_LAYER_SCENE"
      },
      "guideHint": {
        "param1": ""
      },
      "finishParent": true,
      "isRewind": true,
      "versionBegin": "",
      "versionEnd": ""
    }
  ],
  "talks": [
    {
      "id": 7272701,
      "beginWay": "TALK_BEGIN_MANUAL",
      "beginCond": [
        {
          "type": "QUEST_COND_STATE_EQUAL",
          "_param": [
            "7272701",
            "2"
          ]
        }
      ],
      "priority": 5,
      "initDialog": 727270101,
      "npcId": [
        30252
      ],
      "performCfg": "QuestDialogue/WQ/Daoqi_72727/Q7272701",
      "heroTalk": "TALK_HERO_MAIN",
      "questId": 72727,
      "assetIndex": 13680196628025347312,
      "prePerformCfg": ""
    },
    {
      "id": 7272702,
      "beginWay": "TALK_BEGIN_MANUAL",
      "beginCond": [
        {
          "type": "QUEST_COND_STATE_EQUAL",
          "_param": [
            "7272702",
            "2"
          ]
        }
      ],
      "priority": 5,
      "initDialog": 727270201,
      "npcId": [
        30252
      ],
      "performCfg": "QuestDialogue/WQ/Daoqi_72727/Q7272702",
      "heroTalk": "TALK_HERO_MAIN",
      "questId": 72727,
      "assetIndex": 5071903832634836146,
      "prePerformCfg": ""
    }
  ]
}