{
  "id": 72808,
  "KPGKDHAFHFE": "WQ",
  "titleTextMapHash": 2856599399,
  "descTextMapHash": 3216258006,
  "luaPath": "",
  "rewardIdList": [
    172808
  ],
  "subQuests": [
    {
      "subId": 7280801,
      "mainId": 72808,
      "order": 1,
      "descTextMapHash": 967225372,
      "finishCond": [
        {
          "KPGKDHAFHFE": "QUEST_CONTENT_COMPLETE_TALK",
          "param": [
            7280801,
            0
          ]
        }
      ],
      "guide": {
        "KPGKDHAFHFE": "QUEST_GUIDE_NPC",
        "param": [
          "3004"
        ],
        "guideScene": 3,
        "guideStyle": "QUEST_GUIDE_STYLE_TARGET",
        "guideLayer": "QUEST_GUIDE_LAYER_SCENE"
      },
      "guideHint": {
        "param1": ""
      },
      "finishParent": true,
      "isRewind": true,
      "versionBegin": "",
      "versionEnd": ""
    }
  ]
}