{
  "id": 72915,
  "KPGKDHAFHFE": "WQ",
  "titleTextMapHash": 3969036111,
  "descTextMapHash": 2772318190,
  "luaPath": "",
  "rewardIdList": [
    553017
  ],
  "showType": "QUEST_HIDDEN",
  "subQuests": [
    {
      "subId": 7291501,
      "mainId": 72915,
      "order": 1,
      "showType": "QUEST_HIDDEN",
      "finishCond": [
        {
          "KPGKDHAFHFE": "QUEST_CONTENT_COMPLETE_TALK",
          "param": [
            7291501,
            0
          ]
        }
      ],
      "guide": {},
      "guideHint": {
        "param1": ""
      },
      "finishParent": true,
      "versionBegin": "",
      "versionEnd": ""
    }
  ]
}