{
  "id": 72912,
  "KPGKDHAFHFE": "WQ",
  "titleTextMapHash": 1115090167,
  "descTextMapHash": 852927542,
  "luaPath": "",
  "rewardIdList": [
    553014
  ],
  "showType": "QUEST_HIDDEN",
  "subQuests": [
    {
      "subId": 7291201,
      "mainId": 72912,
      "order": 1,
      "showType": "QUEST_HIDDEN",
      "finishCond": [
        {
          "KPGKDHAFHFE": "QUEST_CONTENT_COMPLETE_TALK",
          "param": [
            7291201,
            0
          ]
        }
      ],
      "guide": {},
      "guideHint": {
        "param1": ""
      },
      "finishParent": true,
      "versionBegin": "",
      "versionEnd": ""
    }
  ]
}