{
  "id": 72922,
  "KPGKDHAFHFE": "WQ",
  "titleTextMapHash": 584870863,
  "descTextMapHash": 932479654,
  "luaPath": "",
  "rewardIdList": [
    553029
  ],
  "showType": "QUEST_HIDDEN",
  "subQuests": [
    {
      "subId": 7292201,
      "mainId": 72922,
      "order": 1,
      "showType": "QUEST_HIDDEN",
      "finishCond": [
        {
          "KPGKDHAFHFE": "QUEST_CONTENT_COMPLETE_TALK",
          "param": [
            7292201,
            0
          ]
        },
        {
          "KPGKDHAFHFE": "QUEST_CONTENT_COMPLETE_TALK",
          "param": [
            7292202,
            0
          ]
        }
      ],
      "guide": {},
      "guideHint": {
        "param1": ""
      },
      "finishParent": true,
      "versionBegin": "",
      "versionEnd": ""
    }
  ]
}