{
  "id": 72932,
  "KPGKDHAFHFE": "WQ",
  "titleTextMapHash": 1395866143,
  "descTextMapHash": 874426782,
  "luaPath": "",
  "rewardIdList": [
    553027
  ],
  "showType": "QUEST_HIDDEN",
  "subQuests": [
    {
      "subId": 7293201,
      "mainId": 72932,
      "order": 1,
      "showType": "QUEST_HIDDEN",
      "finishCond": [
        {
          "KPGKDHAFHFE": "QUEST_CONTENT_COMPLETE_TALK",
          "param": [
            7293201,
            0
          ]
        }
      ],
      "guide": {},
      "guideHint": {
        "param1": ""
      },
      "finishParent": true,
      "versionBegin": "",
      "versionEnd": ""
    }
  ]
}