{
  "id": 73010,
  "KPGKDHAFHFE": "WQ",
  "activeMode": "PLAY_MODE_ALL",
  "titleTextMapHash": 709293199,
  "luaPath": "Actor/Quest/WQ73010",
  "showType": "QUEST_HIDDEN",
  "subQuests": [
    {
      "subId": 7301001,
      "mainId": 73010,
      "order": 1,
      "showType": "QUEST_HIDDEN",
      "finishCond": [
        {
          "KPGKDHAFHFE": "QUEST_CONTENT_GAME_TIME_TICK",
          "param": [
            0,
            0
          ]
        }
      ],
      "guide": {},
      "guideHint": {
        "param1": ""
      },
      "isRewind": true,
      "versionBegin": "",
      "versionEnd": ""
    },
    {
      "subId": 7301002,
      "mainId": 73010,
      "order": 2,
      "showType": "QUEST_HIDDEN",
      "finishCond": [
        {
          "KPGKDHAFHFE": "QUEST_CONTENT_UNLOCK_TRANS_POINT",
          "param": [
            3,
            462
          ]
        }
      ],
      "guide": {},
      "guideHint": {
        "param1": ""
      },
      "isRewind": true,
      "versionBegin": "",
      "versionEnd": ""
    },
    {
      "subId": 7301003,
      "mainId": 73010,
      "order": 3,
      "showType": "QUEST_HIDDEN",
      "finishCond": [
        {
          "KPGKDHAFHFE": "QUEST_CONTENT_COMPLETE_TALK",
          "param": [
            7301001,
            0
          ]
        },
        {
          "KPGKDHAFHFE": "QUEST_CONTENT_QUEST_STATE_EQUAL",
          "param": [
            7300403,
            3
          ]
        },
        {
          "KPGKDHAFHFE": "QUEST_CONTENT_QUEST_STATE_EQUAL",
          "param": [
            7301103,
            3
          ]
        },
        {
          "KPGKDHAFHFE": "QUEST_CONTENT_QUEST_STATE_EQUAL",
          "param": [
            7301203,
            3
          ]
        }
      ],
      "guide": {},
      "guideHint": {
        "param1": ""
      },
      "finishParent": true,
      "finishExec": [
        {
          "KPGKDHAFHFE": "QUEST_EXEC_REFRESH_GROUP_SUITE",
          "param": [
            "3",
            "133301024,2"
          ]
        },
        {
          "KPGKDHAFHFE": "QUEST_EXEC_SET_QUEST_GLOBAL_VAR",
          "param": [
            "73101",
            "1"
          ]
        },
        {
          "KPGKDHAFHFE": "QUEST_EXEC_SET_QUEST_GLOBAL_VAR",
          "param": [
            "300107",
            "1"
          ]
        }
      ],
      "versionBegin": "",
      "versionEnd": ""
    }
  ],
  "talks": [
    {
      "id": 7301001,
      "beginWay": "TALK_BEGIN_MANUAL",
      "activeMode": "PLAY_MODE_HOST",
      "beginCondComb": "LOGIC_AND",
      "beginCond": [
        {
          "type": "QUEST_COND_STATE_EQUAL",
          "_param": [
            "7301002",
            "3"
          ]
        },
        {
          "type": "QUEST_COND_STATE_EQUAL",
          "_param": [
            "7301003",
            "2"
          ]
        }
      ],
      "priority": 5,
      "initDialog": 730100101,
      "npcId": [
        20903,
        20904,
        20905,
        20906,
        20907
      ],
      "performCfg": "QuestDialogue/WQ/Sumeru_73010/Q7301001",
      "heroTalk": "TALK_HERO_MAIN",
      "questId": 73010,
      "assetIndex": 10713979302106084564,
      "prePerformCfg": ""
    }
  ]
}