{
  "id": 73109,
  "KPGKDHAFHFE": "WQ",
  "titleTextMapHash": 891136279,
  "descTextMapHash": 1161650302,
  "luaPath": "Actor/Quest/WQ73109",
  "rewardIdList": [
    173109
  ],
  "subQuests": [
    {
      "subId": 7310901,
      "mainId": 73109,
      "order": 1,
      "descTextMapHash": 2120887268,
      "showType": "QUEST_HIDDEN",
      "finishCond": [
        {
          "KPGKDHAFHFE": "QUEST_CONTENT_COMPLETE_TALK",
          "param": [
            7310901,
            0
          ]
        }
      ],
      "guide": {
        "KPGKDHAFHFE": "QUEST_GUIDE_NPC",
        "param": [
          "20819"
        ],
        "guideScene": 3,
        "guideStyle": "QUEST_GUIDE_STYLE_TARGET",
        "guideLayer": "QUEST_GUIDE_LAYER_SCENE"
      },
      "guideHint": {
        "param1": ""
      },
      "isRewind": true,
      "versionBegin": "",
      "versionEnd": ""
    },
    {
      "subId": 7310902,
      "mainId": 73109,
      "order": 2,
      "descTextMapHash": 2448852140,
      "finishCond": [
        {
          "KPGKDHAFHFE": "QUEST_CONTENT_LUA_NOTIFY",
          "param": [
            0,
            0
          ],
          "count": 1
        }
      ],
      "guide": {
        "KPGKDHAFHFE": "QUEST_GUIDE_LOCATION",
        "param": [
          "Q7310902_guide",
          "30"
        ],
        "guideScene": 3,
        "guideStyle": "QUEST_GUIDE_STYLE_POINT",
        "guideLayer": "QUEST_GUIDE_LAYER_SCENE"
      },
      "showGuide": "QUEST_GUIDE_ITEM_DISABLE",
      "guideHint": {
        "param1": ""
      },
      "isRewind": true,
      "finishExec": [
        {
          "KPGKDHAFHFE": "QUEST_EXEC_UNREGISTER_DYNAMIC_GROUP",
          "param": [
            "133302225"
          ]
        }
      ],
      "versionBegin": "",
      "versionEnd": ""
    },
    {
      "subId": 7310903,
      "mainId": 73109,
      "order": 3,
      "descTextMapHash": 2595440964,
      "finishCond": [
        {
          "KPGKDHAFHFE": "QUEST_CONTENT_COMPLETE_TALK",
          "param": [
            7310903,
            0
          ]
        }
      ],
      "guide": {
        "KPGKDHAFHFE": "QUEST_GUIDE_NPC",
        "param": [
          "20819"
        ],
        "guideScene": 3,
        "guideStyle": "QUEST_GUIDE_STYLE_TARGET",
        "guideLayer": "QUEST_GUIDE_LAYER_SCENE"
      },
      "guideHint": {
        "param1": ""
      },
      "isRewind": true,
      "finishExec": [
        {
          "KPGKDHAFHFE": "QUEST_EXEC_DEL_PACK_ITEM",
          "param": [
            "120016",
            "1"
          ]
        }
      ],
      "versionBegin": "",
      "versionEnd": ""
    },
    {
      "subId": 7310904,
      "mainId": 73109,
      "order": 4,
      "subIdSet": 1,
      "descTextMapHash": 3600303340,
      "finishCond": [
        {
          "KPGKDHAFHFE": "QUEST_CONTENT_OBTAIN_ITEM",
          "param": [
            130027,
            0
          ],
          "count": 1
        },
        {
          "KPGKDHAFHFE": "QUEST_CONTENT_FINISH_PLOT",
          "param": [
            7310904,
            0
          ]
        }
      ],
      "guide": {
        "param": [
          "30"
        ],
        "guideScene": 3
      },
      "showGuide": "QUEST_GUIDE_ITEM_DISABLE",
      "guideHint": {
        "param1": ""
      },
      "isRewind": true,
      "versionBegin": "",
      "versionEnd": ""
    },
    {
      "subId": 7310905,
      "mainId": 73109,
      "order": 5,
      "descTextMapHash": 1882102716,
      "finishCond": [
        {
          "KPGKDHAFHFE": "QUEST_CONTENT_COMPLETE_TALK",
          "param": [
            7310905,
            0
          ]
        }
      ],
      "guide": {
        "KPGKDHAFHFE": "QUEST_GUIDE_NPC",
        "param": [
          "4160"
        ],
        "guideScene": 3,
        "guideStyle": "QUEST_GUIDE_STYLE_TARGET",
        "guideLayer": "QUEST_GUIDE_LAYER_SCENE"
      },
      "guideHint": {
        "param1": ""
      },
      "finishParent": true,
      "isRewind": true,
      "finishExec": [
        {
          "KPGKDHAFHFE": "QUEST_EXEC_DEL_PACK_ITEM",
          "param": [
            "130027",
            "1"
          ]
        }
      ],
      "versionBegin": "",
      "versionEnd": ""
    }
  ],
  "talks": [
    {
      "id": 7310901,
      "beginWay": "TALK_BEGIN_MANUAL",
      "beginCond": [
        {
          "type": "QUEST_COND_STATE_EQUAL",
          "_param": [
            "7310901",
            "2"
          ]
        }
      ],
      "priority": 5,
      "initDialog": 731090101,
      "npcId": [
        20819
      ],
      "performCfg": "QuestDialogue/WQ/Sumeru_73109/Q7310901",
      "heroTalk": "TALK_HERO_MAIN",
      "questId": 73109,
      "assetIndex": 3205320473640365367,
      "prePerformCfg": "",
      "talkMarkType": "TALK_MARK_COMMON"
    },
    {
      "id": 7310903,
      "beginWay": "TALK_BEGIN_MANUAL",
      "beginCond": [
        {
          "type": "QUEST_COND_STATE_EQUAL",
          "_param": [
            "7310903",
            "2"
          ]
        }
      ],
      "priority": 5,
      "initDialog": 731090301,
      "npcId": [
        20819
      ],
      "performCfg": "QuestDialogue/WQ/Sumeru_73109/Q7310903",
      "heroTalk": "TALK_HERO_MAIN",
      "questId": 73109,
      "assetIndex": 18430753145231462926,
      "prePerformCfg": ""
    },
    {
      "id": 7310905,
      "beginWay": "TALK_BEGIN_MANUAL",
      "beginCond": [
        {
          "type": "QUEST_COND_STATE_EQUAL",
          "_param": [
            "7310905",
            "2"
          ]
        }
      ],
      "priority": 5,
      "initDialog": 731090501,
      "npcId": [
        4160,
        20819
      ],
      "performCfg": "QuestDialogue/WQ/Sumeru_73109/Q7310905",
      "heroTalk": "TALK_HERO_MAIN",
      "questId": 73109,
      "assetIndex": 7023110976980217565,
      "prePerformCfg": ""
    },
    {
      "id": 7310930,
      "beginWay": "TALK_BEGIN_MANUAL",
      "beginCond": [
        {
          "type": "QUEST_COND_STATE_EQUAL",
          "_param": [
            "7310902",
            "2"
          ]
        }
      ],
      "priority": 5,
      "initDialog": 731093001,
      "npcId": [
        20819
      ],
      "performCfg": "",
      "heroTalk": "TALK_HERO_MAIN",
      "questId": 73109,
      "assetIndex": 2909361204635814303,
      "prePerformCfg": ""
    }
  ],
  "preloadLuaList": [
    2002911630892161520
  ],
  "forcePreloadLuaList": [
    16006770137963944687
  ],
  "freeStyleDic": {
    "20819": [
      1280,
      1170
    ],
    "4160": [
      1090
    ]
  }
}