{
  "id": 73201,
  "KPGKDHAFHFE": "WQ",
  "titleTextMapHash": 3614423679,
  "luaPath": "Actor/Quest/WQ73201",
  "repeatable": true,
  "showType": "QUEST_HIDDEN",
  "subQuests": [
    {
      "subId": 7320101,
      "mainId": 73201,
      "order": 1,
      "showType": "QUEST_HIDDEN",
      "finishCond": [
        {
          "KPGKDHAFHFE": "QUEST_CONTENT_COMPLETE_TALK",
          "param": [
            7320101,
            0
          ]
        }
      ],
      "guide": {},
      "guideHint": {
        "param1": ""
      },
      "finishExec": [
        {
          "KPGKDHAFHFE": "QUEST_EXEC_ADD_QUEST_PROGRESS",
          "param": [
            "73201",
            "1"
          ]
        }
      ],
      "versionBegin": "",
      "versionEnd": ""
    },
    {
      "subId": 7320102,
      "mainId": 73201,
      "order": 2,
      "showType": "QUEST_HIDDEN",
      "finishCond": [
        {
          "KPGKDHAFHFE": "QUEST_CONTENT_COMPLETE_TALK",
          "param": [
            7320102,
            0
          ]
        }
      ],
      "guide": {},
      "guideHint": {
        "param1": ""
      },
      "finishExec": [
        {
          "KPGKDHAFHFE": "QUEST_EXEC_ADD_QUEST_PROGRESS",
          "param": [
            "73201",
            "1"
          ]
        }
      ],
      "versionBegin": "",
      "versionEnd": ""
    },
    {
      "subId": 7320103,
      "mainId": 73201,
      "order": 3,
      "showType": "QUEST_HIDDEN",
      "finishCond": [
        {
          "KPGKDHAFHFE": "QUEST_CONTENT_COMPLETE_TALK",
          "param": [
            7320103,
            0
          ]
        }
      ],
      "guide": {},
      "guideHint": {
        "param1": ""
      },
      "finishExec": [
        {
          "KPGKDHAFHFE": "QUEST_EXEC_ADD_QUEST_PROGRESS",
          "param": [
            "73201",
            "1"
          ]
        }
      ],
      "versionBegin": "",
      "versionEnd": ""
    },
    {
      "subId": 7320104,
      "mainId": 73201,
      "order": 4,
      "showType": "QUEST_HIDDEN",
      "finishCond": [
        {
          "KPGKDHAFHFE": "QUEST_CONTENT_COMPLETE_TALK",
          "param": [
            7320104,
            0
          ]
        }
      ],
      "guide": {},
      "guideHint": {
        "param1": ""
      },
      "finishExec": [
        {
          "KPGKDHAFHFE": "QUEST_EXEC_ADD_QUEST_PROGRESS",
          "param": [
            "73201",
            "1"
          ]
        }
      ],
      "versionBegin": "",
      "versionEnd": ""
    },
    {
      "subId": 7320105,
      "mainId": 73201,
      "order": 5,
      "showType": "QUEST_HIDDEN",
      "finishCond": [
        {
          "KPGKDHAFHFE": "QUEST_CONTENT_COMPLETE_TALK",
          "param": [
            7320105,
            0
          ]
        }
      ],
      "guide": {},
      "guideHint": {
        "param1": ""
      },
      "finishExec": [
        {
          "KPGKDHAFHFE": "QUEST_EXEC_ADD_QUEST_PROGRESS",
          "param": [
            "73201",
            "1"
          ]
        }
      ],
      "versionBegin": "",
      "versionEnd": ""
    },
    {
      "subId": 7320106,
      "mainId": 73201,
      "order": 6,
      "showType": "QUEST_HIDDEN",
      "finishCond": [
        {
          "KPGKDHAFHFE": "QUEST_CONTENT_COMPLETE_TALK",
          "param": [
            7320106,
            0
          ]
        }
      ],
      "guide": {},
      "guideHint": {
        "param1": ""
      },
      "finishExec": [
        {
          "KPGKDHAFHFE": "QUEST_EXEC_ADD_QUEST_PROGRESS",
          "param": [
            "73201",
            "1"
          ]
        }
      ],
      "versionBegin": "",
      "versionEnd": ""
    },
    {
      "subId": 7320107,
      "mainId": 73201,
      "order": 7,
      "showType": "QUEST_HIDDEN",
      "finishCond": [
        {
          "KPGKDHAFHFE": "QUEST_CONTENT_COMPLETE_TALK",
          "param": [
            7320107,
            0
          ]
        }
      ],
      "guide": {},
      "guideHint": {
        "param1": ""
      },
      "finishExec": [
        {
          "KPGKDHAFHFE": "QUEST_EXEC_ADD_QUEST_PROGRESS",
          "param": [
            "73201",
            "1"
          ]
        }
      ],
      "versionBegin": "",
      "versionEnd": ""
    },
    {
      "subId": 7320108,
      "mainId": 73201,
      "order": 8,
      "showType": "QUEST_HIDDEN",
      "finishCond": [
        {
          "KPGKDHAFHFE": "QUEST_CONTENT_COMPLETE_TALK",
          "param": [
            7320108,
            0
          ]
        }
      ],
      "guide": {},
      "guideHint": {
        "param1": ""
      },
      "finishExec": [
        {
          "KPGKDHAFHFE": "QUEST_EXEC_ADD_QUEST_PROGRESS",
          "param": [
            "73201",
            "1"
          ]
        }
      ],
      "versionBegin": "",
      "versionEnd": ""
    },
    {
      "subId": 7320109,
      "mainId": 73201,
      "order": 9,
      "showType": "QUEST_HIDDEN",
      "finishCond": [
        {
          "KPGKDHAFHFE": "QUEST_CONTENT_COMPLETE_TALK",
          "param": [
            7320109,
            0
          ]
        }
      ],
      "guide": {},
      "guideHint": {
        "param1": ""
      },
      "finishExec": [
        {
          "KPGKDHAFHFE": "QUEST_EXEC_ADD_QUEST_PROGRESS",
          "param": [
            "73201",
            "1"
          ]
        }
      ],
      "versionBegin": "",
      "versionEnd": ""
    },
    {
      "subId": 7320110,
      "mainId": 73201,
      "order": 10,
      "showType": "QUEST_HIDDEN",
      "finishCond": [
        {
          "KPGKDHAFHFE": "QUEST_CONTENT_COMPLETE_TALK",
          "param": [
            7320110,
            0
          ]
        }
      ],
      "guide": {},
      "guideHint": {
        "param1": ""
      },
      "finishExec": [
        {
          "KPGKDHAFHFE": "QUEST_EXEC_ADD_QUEST_PROGRESS",
          "param": [
            "73201",
            "1"
          ]
        }
      ],
      "versionBegin": "",
      "versionEnd": ""
    },
    {
      "subId": 7320111,
      "mainId": 73201,
      "order": 11,
      "showType": "QUEST_HIDDEN",
      "finishCond": [
        {
          "KPGKDHAFHFE": "QUEST_CONTENT_COMPLETE_TALK",
          "param": [
            7320111,
            0
          ]
        }
      ],
      "guide": {},
      "guideHint": {
        "param1": ""
      },
      "finishExec": [
        {
          "KPGKDHAFHFE": "QUEST_EXEC_ADD_QUEST_PROGRESS",
          "param": [
            "73201",
            "1"
          ]
        }
      ],
      "versionBegin": "",
      "versionEnd": ""
    },
    {
      "subId": 7320112,
      "mainId": 73201,
      "order": 12,
      "showType": "QUEST_HIDDEN",
      "finishCond": [
        {
          "KPGKDHAFHFE": "QUEST_CONTENT_COMPLETE_TALK",
          "param": [
            7320112,
            0
          ]
        }
      ],
      "guide": {},
      "guideHint": {
        "param1": ""
      },
      "finishExec": [
        {
          "KPGKDHAFHFE": "QUEST_EXEC_ADD_QUEST_PROGRESS",
          "param": [
            "73201",
            "1"
          ]
        }
      ],
      "versionBegin": "",
      "versionEnd": ""
    },
    {
      "subId": 7320113,
      "mainId": 73201,
      "order": 13,
      "showType": "QUEST_HIDDEN",
      "finishCond": [
        {
          "KPGKDHAFHFE": "QUEST_CONTENT_COMPLETE_TALK",
          "param": [
            7320113,
            0
          ]
        }
      ],
      "guide": {},
      "guideHint": {
        "param1": ""
      },
      "finishExec": [
        {
          "KPGKDHAFHFE": "QUEST_EXEC_ADD_QUEST_PROGRESS",
          "param": [
            "73201",
            "1"
          ]
        }
      ],
      "versionBegin": "",
      "versionEnd": ""
    },
    {
      "subId": 7320114,
      "mainId": 73201,
      "order": 14,
      "showType": "QUEST_HIDDEN",
      "finishCond": [
        {
          "KPGKDHAFHFE": "QUEST_CONTENT_ADD_QUEST_PROGRESS",
          "param": [
            73201,
            0
          ],
          "count": 13
        }
      ],
      "guide": {},
      "guideHint": {
        "param1": ""
      },
      "finishExec": [
        {
          "KPGKDHAFHFE": "QUEST_EXEC_ROLLBACK_PARENT_QUEST"
        }
      ],
      "versionBegin": "",
      "versionEnd": ""
    }
  ],
  "talks": [
    {
      "id": 7320101,
      "beginWay": "TALK_BEGIN_MANUAL",
      "beginCond": [
        {
          "type": "QUEST_COND_STATE_EQUAL",
          "_param": [
            "7320101",
            "2"
          ]
        }
      ],
      "priority": 3,
      "initDialog": 732010101,
      "npcId": [
        12744
      ],
      "performCfg": "",
      "questId": 73201,
      "assetIndex": 4541955082703670942,
      "prePerformCfg": ""
    },
    {
      "id": 7320102,
      "beginWay": "TALK_BEGIN_MANUAL",
      "beginCond": [
        {
          "type": "QUEST_COND_STATE_EQUAL",
          "_param": [
            "7320102",
            "2"
          ]
        }
      ],
      "priority": 3,
      "initDialog": 732010201,
      "npcId": [
        12744
      ],
      "performCfg": "",
      "questId": 73201,
      "assetIndex": 8141000320404668115,
      "prePerformCfg": ""
    },
    {
      "id": 7320103,
      "beginWay": "TALK_BEGIN_MANUAL",
      "beginCond": [
        {
          "type": "QUEST_COND_STATE_EQUAL",
          "_param": [
            "7320103",
            "2"
          ]
        }
      ],
      "priority": 3,
      "initDialog": 732010301,
      "npcId": [
        12744
      ],
      "performCfg": "",
      "questId": 73201,
      "assetIndex": 15810965843985226869,
      "prePerformCfg": ""
    },
    {
      "id": 7320104,
      "beginWay": "TALK_BEGIN_MANUAL",
      "beginCond": [
        {
          "type": "QUEST_COND_STATE_EQUAL",
          "_param": [
            "7320104",
            "2"
          ]
        }
      ],
      "priority": 3,
      "initDialog": 732010401,
      "npcId": [
        12744
      ],
      "performCfg": "",
      "questId": 73201,
      "assetIndex": 1450548504196698193,
      "prePerformCfg": ""
    },
    {
      "id": 7320105,
      "beginWay": "TALK_BEGIN_MANUAL",
      "beginCond": [
        {
          "type": "QUEST_COND_STATE_EQUAL",
          "_param": [
            "7320105",
            "2"
          ]
        }
      ],
      "priority": 3,
      "initDialog": 732010501,
      "npcId": [
        12744
      ],
      "performCfg": "",
      "questId": 73201,
      "assetIndex": 13013869396028480362,
      "prePerformCfg": ""
    },
    {
      "id": 7320106,
      "beginWay": "TALK_BEGIN_MANUAL",
      "beginCond": [
        {
          "type": "QUEST_COND_STATE_EQUAL",
          "_param": [
            "7320106",
            "2"
          ]
        }
      ],
      "priority": 3,
      "initDialog": 732010601,
      "npcId": [
        12744
      ],
      "performCfg": "",
      "questId": 73201,
      "assetIndex": 15850460955029729641,
      "prePerformCfg": ""
    },
    {
      "id": 7320107,
      "beginWay": "TALK_BEGIN_MANUAL",
      "beginCond": [
        {
          "type": "QUEST_COND_STATE_EQUAL",
          "_param": [
            "7320107",
            "2"
          ]
        }
      ],
      "priority": 3,
      "initDialog": 732010701,
      "npcId": [
        12744
      ],
      "performCfg": "",
      "questId": 73201,
      "assetIndex": 15851666884105052061,
      "prePerformCfg": ""
    },
    {
      "id": 7320108,
      "beginWay": "TALK_BEGIN_MANUAL",
      "beginCond": [
        {
          "type": "QUEST_COND_STATE_EQUAL",
          "_param": [
            "7320108",
            "2"
          ]
        }
      ],
      "priority": 3,
      "initDialog": 732010801,
      "npcId": [
        12744
      ],
      "performCfg": "",
      "questId": 73201,
      "assetIndex": 12280940105599247151,
      "prePerformCfg": ""
    },
    {
      "id": 7320109,
      "beginWay": "TALK_BEGIN_MANUAL",
      "beginCond": [
        {
          "type": "QUEST_COND_STATE_EQUAL",
          "_param": [
            "7320109",
            "2"
          ]
        }
      ],
      "priority": 3,
      "initDialog": 732010901,
      "npcId": [
        12744
      ],
      "performCfg": "",
      "questId": 73201,
      "assetIndex": 17466903464218949938,
      "prePerformCfg": ""
    },
    {
      "id": 7320110,
      "beginWay": "TALK_BEGIN_MANUAL",
      "beginCond": [
        {
          "type": "QUEST_COND_STATE_EQUAL",
          "_param": [
            "7320110",
            "2"
          ]
        }
      ],
      "priority": 3,
      "initDialog": 732011001,
      "npcId": [
        12744
      ],
      "performCfg": "",
      "questId": 73201,
      "assetIndex": 17550560356069654713,
      "prePerformCfg": ""
    },
    {
      "id": 7320111,
      "beginWay": "TALK_BEGIN_MANUAL",
      "beginCond": [
        {
          "type": "QUEST_COND_STATE_EQUAL",
          "_param": [
            "7320111",
            "2"
          ]
        }
      ],
      "priority": 3,
      "initDialog": 732011101,
      "npcId": [
        12744
      ],
      "performCfg": "",
      "questId": 73201,
      "assetIndex": 221607795002728793,
      "prePerformCfg": ""
    },
    {
      "id": 7320112,
      "beginWay": "TALK_BEGIN_MANUAL",
      "beginCond": [
        {
          "type": "QUEST_COND_STATE_EQUAL",
          "_param": [
            "7320112",
            "2"
          ]
        }
      ],
      "priority": 3,
      "initDialog": 732011201,
      "npcId": [
        12744
      ],
      "performCfg": "",
      "questId": 73201,
      "assetIndex": 7700438662604956489,
      "prePerformCfg": ""
    },
    {
      "id": 7320113,
      "beginWay": "TALK_BEGIN_MANUAL",
      "beginCond": [
        {
          "type": "QUEST_COND_STATE_EQUAL",
          "_param": [
            "7320113",
            "2"
          ]
        }
      ],
      "priority": 3,
      "initDialog": 732011301,
      "npcId": [
        12744
      ],
      "performCfg": "",
      "questId": 73201,
      "assetIndex": 4930287072446195025,
      "prePerformCfg": ""
    }
  ]
}