{
  "id": 73210,
  "KPGKDHAFHFE": "WQ",
  "activeMode": "PLAY_MODE_ALL",
  "titleTextMapHash": 3995969719,
  "descTextMapHash": 74556254,
  "luaPath": "Actor/Quest/WQ73210",
  "showType": "QUEST_HIDDEN",
  "subQuests": [
    {
      "subId": 7321001,
      "mainId": 73210,
      "order": 99,
      "descTextMapHash": 1365934348,
      "stepDescTextMapHash": 1408423957,
      "showType": "QUEST_HIDDEN",
      "guide": {},
      "guideHint": {
        "param1": ""
      },
      "failParentShow": "QUEST_HIDDEN",
      "isRewind": true,
      "versionBegin": "",
      "versionEnd": ""
    },
    {
      "subId": 7321002,
      "mainId": 73210,
      "order": 98,
      "descTextMapHash": 2523022212,
      "stepDescTextMapHash": 2752999957,
      "showType": "QUEST_HIDDEN",
      "finishCond": [
        {
          "KPGKDHAFHFE": "QUEST_CONTENT_COMPLETE_TALK",
          "param": [
            7321006,
            0
          ]
        }
      ],
      "guide": {
        "KPGKDHAFHFE": "QUEST_GUIDE_NPC",
        "param": [
          "20885"
        ]
      },
      "guideHint": {
        "param1": ""
      },
      "failParentShow": "QUEST_HIDDEN",
      "isRewind": true,
      "versionBegin": "",
      "versionEnd": ""
    },
    {
      "subId": 7321003,
      "mainId": 73210,
      "order": 97,
      "descTextMapHash": 2203543284,
      "stepDescTextMapHash": 2913995317,
      "showType": "QUEST_HIDDEN",
      "guide": {},
      "guideHint": {
        "param1": ""
      },
      "failParentShow": "QUEST_HIDDEN",
      "isRewind": true,
      "versionBegin": "",
      "versionEnd": ""
    },
    {
      "subId": 7321004,
      "mainId": 73210,
      "order": 2,
      "descTextMapHash": 827358884,
      "stepDescTextMapHash": 3300238237,
      "showType": "QUEST_HIDDEN",
      "finishCond": [
        {
          "KPGKDHAFHFE": "QUEST_CONTENT_GADGET_STATE_CHANGE",
          "param": [
            133305010,
            10002
          ]
        },
        {
          "KPGKDHAFHFE": "QUEST_CONTENT_LUA_NOTIFY",
          "param": [
            0,
            0
          ],
          "count": 1
        }
      ],
      "guide": {
        "KPGKDHAFHFE": "QUEST_GUIDE_NPC",
        "param": [
          "20886"
        ]
      },
      "guideHint": {
        "param1": ""
      },
      "failParentShow": "QUEST_HIDDEN",
      "isRewind": true,
      "versionBegin": "",
      "versionEnd": ""
    },
    {
      "subId": 7321005,
      "mainId": 73210,
      "order": 3,
      "descTextMapHash": 1462074860,
      "stepDescTextMapHash": 1553481717,
      "showType": "QUEST_HIDDEN",
      "finishCond": [
        {
          "KPGKDHAFHFE": "QUEST_CONTENT_COMPLETE_TALK",
          "param": [
            7321005,
            0
          ]
        }
      ],
      "guide": {
        "guideScene": 3,
        "guideStyle": "QUEST_GUIDE_STYLE_TARGET",
        "guideLayer": "QUEST_GUIDE_LAYER_SCENE"
      },
      "guideHint": {
        "param1": ""
      },
      "finishParent": true,
      "failParentShow": "QUEST_HIDDEN",
      "isRewind": true,
      "versionBegin": "",
      "versionEnd": ""
    },
    {
      "subId": 7321006,
      "mainId": 73210,
      "order": 1,
      "showType": "QUEST_HIDDEN",
      "finishCond": [
        {
          "KPGKDHAFHFE": "QUEST_CONTENT_GADGET_STATE_CHANGE",
          "param": [
            133305010,
            10002
          ]
        },
        {
          "KPGKDHAFHFE": "QUEST_CONTENT_LUA_NOTIFY",
          "param": [
            0,
            0
          ],
          "count": 1
        }
      ],
      "guide": {
        "KPGKDHAFHFE": "QUEST_GUIDE_NPC",
        "param": [
          "20886"
        ]
      },
      "guideHint": {
        "param1": ""
      },
      "failParentShow": "QUEST_HIDDEN",
      "versionBegin": "",
      "versionEnd": ""
    }
  ],
  "talks": [
    {
      "id": 7321005,
      "beginWay": "TALK_BEGIN_MANUAL",
      "activeMode": "PLAY_MODE_HOST",
      "beginCond": [
        {
          "type": "QUEST_COND_STATE_EQUAL",
          "_param": [
            "7321005",
            "2"
          ]
        }
      ],
      "priority": 5,
      "initDialog": 732100501,
      "npcId": [
        1005
      ],
      "performCfg": "QuestDialogue/WQ/Sumeru_73210/Q7321005",
      "heroTalk": "TALK_HERO_MAIN",
      "questId": 73210,
      "assetIndex": 692846564085443181,
      "prePerformCfg": ""
    }
  ],
  "preloadLuaList": [
    14457059026087496718
  ]
}