{
  "id": 73216,
  "KPGKDHAFHFE": "WQ",
  "activeMode": "PLAY_MODE_ALL",
  "titleTextMapHash": 1897231023,
  "luaPath": "Actor/Quest/WQ73216",
  "showType": "QUEST_HIDDEN",
  "subQuests": [
    {
      "subId": 7321601,
      "mainId": 73216,
      "order": 1,
      "showType": "QUEST_HIDDEN",
      "finishCond": [
        {
          "KPGKDHAFHFE": "QUEST_CONTENT_OBTAIN_ITEM",
          "param": [
            101989,
            0
          ],
          "count": 1
        }
      ],
      "guide": {},
      "guideHint": {
        "param1": ""
      },
      "finishParent": true,
      "finishExec": [
        {
          "KPGKDHAFHFE": "QUEST_EXEC_INC_QUEST_GLOBAL_VAR",
          "param": [
            "73110",
            "1"
          ]
        }
      ],
      "versionBegin": "",
      "versionEnd": ""
    }
  ],
  "preloadLuaList": [
    6225340239952963383
  ],
  "forcePreloadLuaList": [
    13749644923498328759
  ]
}