{
  "id": 73223,
  "series": 73223,
  "KPGKDHAFHFE": "WQ",
  "activeMode": "PLAY_MODE_ALL",
  "titleTextMapHash": 3861047239,
  "descTextMapHash": 2149805846,
  "luaPath": "Actor/Quest/WQ73223",
  "showType": "QUEST_HIDDEN",
  "subQuests": [
    {
      "subId": 7322301,
      "mainId": 73223,
      "order": 1,
      "descTextMapHash": 1073369844,
      "showType": "QUEST_HIDDEN",
      "finishCond": [
        {
          "KPGKDHAFHFE": "QUEST_CONTENT_GADGET_STATE_CHANGE",
          "param": [
            133308164,
            164001
          ]
        },
        {
          "KPGKDHAFHFE": "QUEST_CONTENT_LUA_NOTIFY",
          "param": [
            0,
            0
          ],
          "count": 1
        }
      ],
      "guide": {
        "KPGKDHAFHFE": "QUEST_GUIDE_NPC",
        "guideScene": 3
      },
      "showGuide": "QUEST_GUIDE_ITEM_DISABLE",
      "guideHint": {
        "param1": ""
      },
      "isRewind": true,
      "versionBegin": "",
      "versionEnd": ""
    },
    {
      "subId": 7322302,
      "mainId": 73223,
      "order": 2,
      "descTextMapHash": 1601683372,
      "showType": "QUEST_HIDDEN",
      "finishCond": [
        {
          "KPGKDHAFHFE": "QUEST_CONTENT_GADGET_STATE_CHANGE",
          "param": [
            133308164,
            164003
          ]
        },
        {
          "KPGKDHAFHFE": "QUEST_CONTENT_LUA_NOTIFY",
          "param": [
            0,
            0
          ],
          "count": 1
        }
      ],
      "guide": {},
      "guideHint": {
        "param1": ""
      },
      "finishParent": true,
      "failParentShow": "QUEST_HIDDEN",
      "isRewind": true,
      "finishExec": [
        {
          "KPGKDHAFHFE": "QUEST_EXEC_INIT_TIME_VAR",
          "param": [
            "0"
          ]
        }
      ],
      "versionBegin": "",
      "versionEnd": ""
    }
  ],
  "talks": [
    {
      "id": 7322303,
      "beginWay": "TALK_BEGIN_AUTO",
      "activeMode": "PLAY_MODE_ALL",
      "beginCond": [
        {
          "type": "QUEST_COND_STATE_EQUAL",
          "_param": [
            "7322303",
            "2"
          ]
        }
      ],
      "priority": 5,
      "initDialog": 732230301,
      "performCfg": "",
      "questId": 73223,
      "assetIndex": 15455591650351266600,
      "prePerformCfg": ""
    },
    {
      "id": 7322304,
      "beginWay": "TALK_BEGIN_MANUAL",
      "activeMode": "PLAY_MODE_ALL",
      "beginCondComb": "LOGIC_AND",
      "beginCond": [
        {
          "type": "QUEST_COND_STATE_EQUAL",
          "_param": [
            "7322301",
            "2"
          ]
        },
        {
          "type": "QUEST_COND_ITEM_GIVING_ACTIVED",
          "_param": [
            "7322301"
          ]
        }
      ],
      "priority": 5,
      "initDialog": 732230401,
      "npcId": [
        20643
      ],
      "performCfg": "",
      "questId": 73223,
      "assetIndex": 9164209559147045443,
      "prePerformCfg": ""
    }
  ]
}