{
  "id": 73249,
  "KPGKDHAFHFE": "WQ",
  "activeMode": "PLAY_MODE_ALL",
  "titleTextMapHash": 51382247,
  "luaPath": "Actor/Quest/WQ73249",
  "showType": "QUEST_HIDDEN",
  "subQuests": [
    {
      "subId": 7324901,
      "mainId": 73249,
      "order": 1,
      "showType": "QUEST_HIDDEN",
      "finishCond": [
        {
          "KPGKDHAFHFE": "QUEST_CONTENT_COMPLETE_TALK",
          "param": [
            7324902,
            0
          ]
        }
      ],
      "guide": {},
      "showGuide": "QUEST_GUIDE_ITEM_DISABLE",
      "guideHint": {
        "param1": ""
      },
      "isRewind": true,
      "versionBegin": "",
      "versionEnd": ""
    },
    {
      "subId": 7324902,
      "mainId": 73249,
      "order": 3,
      "showType": "QUEST_HIDDEN",
      "finishCond": [
        {
          "KPGKDHAFHFE": "QUEST_CONTENT_LUA_NOTIFY",
          "param": [
            0,
            0
          ],
          "count": 1
        }
      ],
      "failCond": [
        {
          "KPGKDHAFHFE": "QUEST_CONTENT_LUA_NOTIFY",
          "param": [
            0,
            0
          ],
          "count": 1
        }
      ],
      "guide": {},
      "showGuide": "QUEST_GUIDE_ITEM_DISABLE",
      "guideHint": {
        "param1": ""
      },
      "versionBegin": "",
      "versionEnd": ""
    },
    {
      "subId": 7324903,
      "mainId": 73249,
      "order": 4,
      "showType": "QUEST_HIDDEN",
      "finishCond": [
        {
          "KPGKDHAFHFE": "QUEST_CONTENT_COMPLETE_TALK",
          "param": [
            7324904,
            0
          ]
        }
      ],
      "guide": {},
      "showGuide": "QUEST_GUIDE_ITEM_DISABLE",
      "guideHint": {
        "param1": ""
      },
      "finishParent": true,
      "finishExec": [
        {
          "KPGKDHAFHFE": "QUEST_EXEC_REFRESH_GROUP_SUITE",
          "param": [
            "3",
            "133304124,3"
          ]
        }
      ],
      "versionBegin": "",
      "versionEnd": ""
    },
    {
      "subId": 7324904,
      "mainId": 73249,
      "order": 5,
      "showType": "QUEST_HIDDEN",
      "finishCond": [
        {
          "KPGKDHAFHFE": "QUEST_CONTENT_COMPLETE_TALK",
          "param": [
            7324905,
            0
          ]
        }
      ],
      "guide": {},
      "showGuide": "QUEST_GUIDE_ITEM_DISABLE",
      "guideHint": {
        "param1": ""
      },
      "finishExec": [
        {
          "KPGKDHAFHFE": "QUEST_EXEC_ROLLBACK_QUEST",
          "param": [
            "7324901"
          ]
        }
      ],
      "versionBegin": "",
      "versionEnd": ""
    },
    {
      "subId": 7324905,
      "mainId": 73249,
      "order": 2,
      "showType": "QUEST_HIDDEN",
      "finishCond": [
        {
          "KPGKDHAFHFE": "QUEST_CONTENT_LUA_NOTIFY",
          "param": [
            0,
            0
          ],
          "count": 1
        }
      ],
      "guide": {},
      "showGuide": "QUEST_GUIDE_ITEM_DISABLE",
      "guideHint": {
        "param1": ""
      },
      "versionBegin": "",
      "versionEnd": ""
    },
    {
      "subId": 7324906,
      "mainId": 73249,
      "order": 6,
      "showType": "QUEST_HIDDEN",
      "finishCond": [
        {
          "KPGKDHAFHFE": "QUEST_CONTENT_COMPLETE_TALK",
          "param": [
            7324905,
            0
          ]
        }
      ],
      "guide": {},
      "showGuide": "QUEST_GUIDE_ITEM_DISABLE",
      "guideHint": {
        "param1": ""
      },
      "finishExec": [
        {
          "KPGKDHAFHFE": "QUEST_EXEC_ROLLBACK_QUEST",
          "param": [
            "7324901"
          ]
        }
      ],
      "versionBegin": "",
      "versionEnd": ""
    }
  ],
  "talks": [
    {
      "id": 7324901,
      "beginWay": "TALK_BEGIN_MANUAL",
      "activeMode": "PLAY_MODE_HOST",
      "beginCondComb": "LOGIC_AND",
      "beginCond": [
        {
          "type": "QUEST_COND_STATE_EQUAL",
          "_param": [
            "7324901",
            "2"
          ]
        }
      ],
      "priority": 5,
      "nextTalks": [
        7324902,
        7324903
      ],
      "initDialog": 732490101,
      "npcId": [
        422001
      ],
      "performCfg": "",
      "heroTalk": "TALK_HERO_MAIN",
      "questId": 73249,
      "assetIndex": 17037393151237526067,
      "prePerformCfg": ""
    },
    {
      "id": 7324902,
      "beginWay": "TALK_BEGIN_MANUAL",
      "activeMode": "PLAY_MODE_HOST",
      "beginCondComb": "LOGIC_AND",
      "beginCond": [
        {
          "type": "QUEST_COND_STATE_EQUAL",
          "_param": [
            "7324901",
            "2"
          ]
        }
      ],
      "priority": 3,
      "initDialog": 732490201,
      "npcId": [
        422001
      ],
      "performCfg": "",
      "heroTalk": "TALK_HERO_MAIN",
      "questId": 73249,
      "assetIndex": 8918404133708863970,
      "prePerformCfg": ""
    },
    {
      "id": 7324903,
      "beginWay": "TALK_BEGIN_MANUAL",
      "activeMode": "PLAY_MODE_HOST",
      "beginCondComb": "LOGIC_AND",
      "beginCond": [
        {
          "type": "QUEST_COND_STATE_EQUAL",
          "_param": [
            "7324901",
            "2"
          ]
        }
      ],
      "priority": 3,
      "initDialog": 732490301,
      "npcId": [
        422001
      ],
      "performCfg": "",
      "heroTalk": "TALK_HERO_MAIN",
      "questId": 73249,
      "assetIndex": 16312730765612523992,
      "prePerformCfg": ""
    },
    {
      "id": 7324904,
      "beginWay": "TALK_BEGIN_MANUAL",
      "activeMode": "PLAY_MODE_HOST",
      "beginCondComb": "LOGIC_AND",
      "beginCond": [
        {
          "type": "QUEST_COND_STATE_EQUAL",
          "_param": [
            "7324903",
            "2"
          ]
        }
      ],
      "priority": 5,
      "initDialog": 732490401,
      "npcId": [
        422001
      ],
      "performCfg": "QuestDialogue/WQ/Sumeru_73065/Q7324904",
      "heroTalk": "TALK_HERO_MAIN",
      "questId": 73249,
      "assetIndex": 3099178366056155724,
      "prePerformCfg": ""
    },
    {
      "id": 7324905,
      "beginWay": "TALK_BEGIN_MANUAL",
      "activeMode": "PLAY_MODE_HOST",
      "beginCondComb": "LOGIC_OR",
      "beginCond": [
        {
          "type": "QUEST_COND_STATE_EQUAL",
          "_param": [
            "7324904",
            "2"
          ]
        },
        {
          "type": "QUEST_COND_STATE_EQUAL",
          "_param": [
            "7324906",
            "2"
          ]
        }
      ],
      "priority": 5,
      "initDialog": 732490501,
      "npcId": [
        422001
      ],
      "performCfg": "QuestDialogue/WQ/Sumeru_73065/Q7324905",
      "heroTalk": "TALK_HERO_MAIN",
      "questId": 73249,
      "assetIndex": 11578147670942352732,
      "prePerformCfg": ""
    }
  ]
}