{
  "id": 73258,
  "KPGKDHAFHFE": "WQ",
  "activeMode": "PLAY_MODE_ALL",
  "titleTextMapHash": 2339654743,
  "luaPath": "Actor/Quest/WQ73258",
  "showType": "QUEST_HIDDEN",
  "subQuests": [
    {
      "subId": 7325801,
      "mainId": 73258,
      "order": 1,
      "showType": "QUEST_HIDDEN",
      "finishCond": [
        {
          "KPGKDHAFHFE": "QUEST_CONTENT_FINISH_PLOT",
          "param": [
            7325801,
            0
          ]
        }
      ],
      "guide": {},
      "guideHint": {
        "param1": ""
      },
      "versionBegin": "",
      "versionEnd": ""
    }
  ],
  "talks": [
    {
      "id": 7325801,
      "beginWay": "TALK_BEGIN_MANUAL",
      "activeMode": "PLAY_MODE_HOST",
      "priority": 40,
      "nextTalks": [
        7325802
      ],
      "initDialog": 732580101,
      "npcId": [
        4288
      ],
      "performCfg": "",
      "questId": 73258,
      "assetIndex": 2235789907580886770,
      "prePerformCfg": ""
    },
    {
      "id": 7325802,
      "beginWay": "TALK_BEGIN_MANUAL",
      "activeMode": "PLAY_MODE_HOST",
      "beginCond": [
        {
          "type": "QUEST_COND_STATE_EQUAL",
          "_param": [
            "7302515",
            "3"
          ]
        }
      ],
      "priority": 30,
      "nextTalks": [
        7325803,
        7325805
      ],
      "initDialog": 732580201,
      "npcId": [
        4288
      ],
      "performCfg": "",
      "questId": 73258,
      "assetIndex": 7392814552951943245,
      "prePerformCfg": ""
    },
    {
      "id": 7325803,
      "beginWay": "TALK_BEGIN_MANUAL",
      "activeMode": "PLAY_MODE_HOST",
      "beginCond": [
        {
          "type": "QUEST_COND_STATE_EQUAL",
          "_param": [
            "7303301",
            "3"
          ]
        }
      ],
      "priority": 20,
      "nextTalks": [
        7325804,
        7325806
      ],
      "initDialog": 732580301,
      "npcId": [
        4288
      ],
      "performCfg": "",
      "questId": 73258,
      "assetIndex": 4774179530707560790,
      "prePerformCfg": ""
    },
    {
      "id": 7325804,
      "beginWay": "TALK_BEGIN_MANUAL",
      "activeMode": "PLAY_MODE_HOST",
      "beginCond": [
        {
          "type": "QUEST_COND_STATE_EQUAL",
          "_param": [
            "7303208",
            "3"
          ]
        }
      ],
      "priority": 10,
      "initDialog": 732580401,
      "npcId": [
        4288
      ],
      "performCfg": "",
      "questId": 73258,
      "assetIndex": 8527490285212503214,
      "prePerformCfg": ""
    }
  ]
}