{
  "id": 73312,
  "KPGKDHAFHFE": "WQ",
  "activeMode": "PLAY_MODE_ALL",
  "titleTextMapHash": 1620159207,
  "descTextMapHash": 3451035310,
  "luaPath": "Actor/Quest/WQ73312",
  "rewardIdList": [
    173340
  ],
  "chapterId": 10126,
  "subQuests": [
    {
      "subId": 7331201,
      "mainId": 73312,
      "order": 1,
      "descTextMapHash": 3294802132,
      "showType": "QUEST_HIDDEN",
      "finishCond": [
        {
          "KPGKDHAFHFE": "QUEST_CONTENT_GAME_TIME_TICK",
          "param": [
            0,
            0
          ]
        }
      ],
      "guide": {
        "guideLayer": "QUEST_GUIDE_LAYER_UI"
      },
      "guideHint": {
        "param1": ""
      },
      "isRewind": true,
      "versionBegin": "",
      "versionEnd": ""
    },
    {
      "subId": 7331202,
      "mainId": 73312,
      "order": 2,
      "descTextMapHash": 4081082580,
      "showType": "QUEST_HIDDEN",
      "finishCond": [
        {
          "KPGKDHAFHFE": "QUEST_CONTENT_FINISH_PLOT",
          "param": [
            7331202,
            0
          ]
        }
      ],
      "guide": {
        "param": [
          "30"
        ],
        "guideScene": 3,
        "guideLayer": "QUEST_GUIDE_LAYER_UI"
      },
      "showGuide": "QUEST_GUIDE_ITEM_DISABLE",
      "guideHint": {
        "param1": ""
      },
      "isRewind": true,
      "versionBegin": "",
      "versionEnd": ""
    },
    {
      "subId": 7331203,
      "mainId": 73312,
      "order": 3,
      "descTextMapHash": 2995352292,
      "showType": "QUEST_HIDDEN",
      "finishCond": [
        {
          "KPGKDHAFHFE": "QUEST_CONTENT_COMPLETE_TALK",
          "param": [
            7331203,
            0
          ]
        },
        {
          "KPGKDHAFHFE": "QUEST_CONTENT_COMPLETE_TALK",
          "param": [
            7331202,
            0
          ]
        }
      ],
      "guide": {
        "KPGKDHAFHFE": "QUEST_GUIDE_NPC",
        "param": [
          "20987"
        ],
        "guideScene": 3,
        "guideStyle": "QUEST_GUIDE_STYLE_TARGET",
        "guideLayer": "QUEST_GUIDE_LAYER_UI"
      },
      "guideHint": {
        "param1": ""
      },
      "isRewind": true,
      "finishExec": [
        {
          "KPGKDHAFHFE": "QUEST_EXEC_SET_QUEST_GLOBAL_VAR",
          "param": [
            "7330701",
            "1"
          ]
        }
      ],
      "versionBegin": "",
      "versionEnd": ""
    },
    {
      "subId": 7331204,
      "mainId": 73312,
      "order": 5,
      "descTextMapHash": 1090321876,
      "finishCond": [
        {
          "KPGKDHAFHFE": "QUEST_CONTENT_LUA_NOTIFY",
          "param": [
            0,
            0
          ],
          "count": 1
        }
      ],
      "guide": {
        "KPGKDHAFHFE": "QUEST_GUIDE_LOCATION",
        "param": [
          "Q7331204_guide",
          "30"
        ],
        "guideScene": 3,
        "guideStyle": "QUEST_GUIDE_STYLE_POINT",
        "guideLayer": "QUEST_GUIDE_LAYER_UI"
      },
      "showGuide": "QUEST_GUIDE_ITEM_DISABLE",
      "guideHint": {
        "param1": ""
      },
      "isRewind": true,
      "versionBegin": "",
      "versionEnd": ""
    },
    {
      "subId": 7331205,
      "mainId": 73312,
      "order": 6,
      "descTextMapHash": 871415060,
      "finishCond": [
        {
          "KPGKDHAFHFE": "QUEST_CONTENT_COMPLETE_TALK",
          "param": [
            7331205,
            0
          ]
        }
      ],
      "guide": {
        "KPGKDHAFHFE": "QUEST_GUIDE_NPC",
        "param": [
          "20958"
        ],
        "guideScene": 3,
        "guideStyle": "QUEST_GUIDE_STYLE_TARGET",
        "guideLayer": "QUEST_GUIDE_LAYER_UI"
      },
      "guideHint": {
        "param1": ""
      },
      "isRewind": true,
      "versionBegin": "",
      "versionEnd": ""
    },
    {
      "subId": 7331206,
      "mainId": 73312,
      "order": 7,
      "subIdSet": 7331206,
      "descTextMapHash": 970669244,
      "finishCond": [
        {
          "KPGKDHAFHFE": "QUEST_CONTENT_LUA_NOTIFY",
          "param": [
            0,
            0
          ],
          "count": 1
        }
      ],
      "guide": {
        "KPGKDHAFHFE": "QUEST_GUIDE_LOCATION",
        "param": [
          "Q7331204_guide",
          "50"
        ],
        "guideScene": 3,
        "guideStyle": "QUEST_GUIDE_STYLE_POINT",
        "guideLayer": "QUEST_GUIDE_LAYER_UI"
      },
      "guideHint": {
        "param1": ""
      },
      "versionBegin": "",
      "versionEnd": ""
    },
    {
      "subId": 7331207,
      "mainId": 73312,
      "order": 11,
      "descTextMapHash": 2814550628,
      "finishCond": [
        {
          "KPGKDHAFHFE": "QUEST_CONTENT_COMPLETE_TALK",
          "param": [
            7331207,
            0
          ]
        }
      ],
      "guide": {
        "KPGKDHAFHFE": "QUEST_GUIDE_NPC",
        "param": [
          "20958"
        ],
        "guideScene": 3,
        "guideStyle": "QUEST_GUIDE_STYLE_TARGET",
        "guideLayer": "QUEST_GUIDE_LAYER_UI"
      },
      "guideHint": {
        "param1": ""
      },
      "isRewind": true,
      "finishExec": [
        {
          "KPGKDHAFHFE": "QUEST_EXEC_INC_QUEST_GLOBAL_VAR",
          "param": [
            "7330702",
            "1"
          ]
        }
      ],
      "versionBegin": "",
      "versionEnd": ""
    },
    {
      "subId": 7331208,
      "mainId": 73312,
      "order": 4,
      "descTextMapHash": 2766464300,
      "showType": "QUEST_HIDDEN",
      "finishCond": [
        {
          "KPGKDHAFHFE": "QUEST_CONTENT_GAME_TIME_TICK",
          "param": [
            0,
            0
          ]
        }
      ],
      "guide": {
        "guideLayer": "QUEST_GUIDE_LAYER_UI"
      },
      "guideHint": {
        "param1": ""
      },
      "isRewind": true,
      "versionBegin": "",
      "versionEnd": ""
    },
    {
      "subId": 7331209,
      "mainId": 73312,
      "order": 12,
      "descTextMapHash": 183802124,
      "showType": "QUEST_HIDDEN",
      "finishCond": [
        {
          "KPGKDHAFHFE": "QUEST_CONTENT_GAME_TIME_TICK",
          "param": [
            0,
            0
          ]
        }
      ],
      "guide": {},
      "guideHint": {
        "param1": ""
      },
      "finishParent": true,
      "isRewind": true,
      "versionBegin": "",
      "versionEnd": ""
    },
    {
      "subId": 7331210,
      "mainId": 73312,
      "order": 8,
      "subIdSet": 7331206,
      "descTextMapHash": 3072921108,
      "finishCond": [
        {
          "KPGKDHAFHFE": "QUEST_CONTENT_LUA_NOTIFY",
          "param": [
            0,
            0
          ],
          "count": 1
        }
      ],
      "guide": {
        "KPGKDHAFHFE": "QUEST_GUIDE_LOCATION",
        "param": [
          "Q7331204_guide",
          "50"
        ],
        "guideScene": 3,
        "guideStyle": "QUEST_GUIDE_STYLE_POINT",
        "guideLayer": "QUEST_GUIDE_LAYER_UI"
      },
      "guideHint": {
        "param1": ""
      },
      "versionBegin": "",
      "versionEnd": ""
    },
    {
      "subId": 7331211,
      "mainId": 73312,
      "order": 9,
      "subIdSet": 7331206,
      "descTextMapHash": 1398265860,
      "finishCond": [
        {
          "KPGKDHAFHFE": "QUEST_CONTENT_LUA_NOTIFY",
          "param": [
            0,
            0
          ],
          "count": 1
        }
      ],
      "guide": {
        "KPGKDHAFHFE": "QUEST_GUIDE_LOCATION",
        "param": [
          "Q7331204_guide",
          "50"
        ],
        "guideScene": 3,
        "guideStyle": "QUEST_GUIDE_STYLE_POINT",
        "guideLayer": "QUEST_GUIDE_LAYER_UI"
      },
      "guideHint": {
        "param1": ""
      },
      "versionBegin": "",
      "versionEnd": ""
    },
    {
      "subId": 7331213,
      "mainId": 73312,
      "order": 10,
      "descTextMapHash": 3518742956,
      "showType": "QUEST_HIDDEN",
      "finishCond": [
        {
          "KPGKDHAFHFE": "QUEST_CONTENT_LUA_NOTIFY",
          "param": [
            0,
            0
          ],
          "count": 1
        },
        {
          "KPGKDHAFHFE": "QUEST_CONTENT_QUEST_STATE_EQUAL",
          "param": [
            7331206,
            3
          ]
        },
        {
          "KPGKDHAFHFE": "QUEST_CONTENT_QUEST_STATE_EQUAL",
          "param": [
            7331210,
            3
          ]
        },
        {
          "KPGKDHAFHFE": "QUEST_CONTENT_QUEST_STATE_EQUAL",
          "param": [
            7331211,
            3
          ]
        }
      ],
      "guide": {},
      "guideHint": {
        "param1": ""
      },
      "isRewind": true,
      "versionBegin": "",
      "versionEnd": ""
    }
  ],
  "talks": [
    {
      "id": 7331202,
      "beginWay": "TALK_BEGIN_MANUAL",
      "activeMode": "PLAY_MODE_HOST",
      "beginCondComb": "LOGIC_AND",
      "beginCond": [
        {
          "type": "QUEST_COND_STATE_EQUAL",
          "_param": [
            "7331203",
            "2"
          ]
        },
        {
          "type": "QUEST_COND_QUEST_GLOBAL_VAR_EQUAL",
          "_param": [
            "7325103",
            "1"
          ]
        }
      ],
      "priority": 5,
      "initDialog": 733120201,
      "npcId": [
        20987
      ],
      "performCfg": "QuestDialogue/WQ/Sumeru_73312/Q7331202",
      "heroTalk": "TALK_HERO_MAIN",
      "questId": 73312,
      "assetIndex": 4482692784888381893,
      "prePerformCfg": ""
    },
    {
      "id": 7331203,
      "beginWay": "TALK_BEGIN_MANUAL",
      "activeMode": "PLAY_MODE_HOST",
      "beginCondComb": "LOGIC_AND",
      "beginCond": [
        {
          "type": "QUEST_COND_STATE_EQUAL",
          "_param": [
            "7331203",
            "2"
          ]
        },
        {
          "type": "QUEST_COND_QUEST_GLOBAL_VAR_EQUAL",
          "_param": [
            "7325103",
            "0"
          ]
        }
      ],
      "priority": 5,
      "initDialog": 733120301,
      "npcId": [
        20987
      ],
      "performCfg": "QuestDialogue/WQ/Sumeru_73312/Q7331203",
      "heroTalk": "TALK_HERO_MAIN",
      "questId": 73312,
      "assetIndex": 1826815421098874322,
      "prePerformCfg": ""
    },
    {
      "id": 7331205,
      "beginWay": "TALK_BEGIN_MANUAL",
      "activeMode": "PLAY_MODE_HOST",
      "beginCond": [
        {
          "type": "QUEST_COND_STATE_EQUAL",
          "_param": [
            "7331205",
            "2"
          ]
        }
      ],
      "priority": 5,
      "initDialog": 733120501,
      "npcId": [
        20958
      ],
      "performCfg": "QuestDialogue/WQ/Sumeru_73312/Q7331205",
      "heroTalk": "TALK_HERO_MAIN",
      "questId": 73312,
      "assetIndex": 9623226499352160556,
      "prePerformCfg": "",
      "talkMarkType": "TALK_MARK_COMMON"
    },
    {
      "id": 7331207,
      "beginWay": "TALK_BEGIN_MANUAL",
      "activeMode": "PLAY_MODE_HOST",
      "beginCond": [
        {
          "type": "QUEST_COND_STATE_EQUAL",
          "_param": [
            "7331207",
            "2"
          ]
        }
      ],
      "priority": 5,
      "initDialog": 733120701,
      "npcId": [
        20958
      ],
      "performCfg": "QuestDialogue/WQ/Sumeru_73312/Q7331207",
      "heroTalk": "TALK_HERO_MAIN",
      "questId": 73312,
      "assetIndex": 13657949815097038955,
      "prePerformCfg": ""
    },
    {
      "id": 7331220,
      "beginWay": "TALK_BEGIN_MANUAL",
      "activeMode": "PLAY_MODE_HOST",
      "beginCondComb": "LOGIC_OR",
      "beginCond": [
        {
          "type": "QUEST_COND_STATE_EQUAL",
          "_param": [
            "7331207",
            "2"
          ]
        },
        {
          "type": "QUEST_COND_QUEST_NOT_RECEIVE",
          "_param": [
            "7331207",
            "1"
          ]
        }
      ],
      "priority": 3,
      "initDialog": 733122001,
      "npcId": [
        20958
      ],
      "performCfg": "",
      "heroTalk": "TALK_HERO_MAIN",
      "questId": 73312,
      "assetIndex": 303687975476658990,
      "prePerformCfg": "",
      "questIdleTalk": true,
      "lowPriority": true
    }
  ],
  "preloadLuaList": [
    14558486557320103725
  ],
  "forcePreloadLuaList": [
    3847108480305447543
  ]
}