{
  "id": 73347,
  "KPGKDHAFHFE": "WQ",
  "activeMode": "PLAY_MODE_ALL",
  "titleTextMapHash": 1506757151,
  "descTextMapHash": 1400690294,
  "luaPath": "Actor/Quest/WQ73347",
  "rewardIdList": [
    173347
  ],
  "showType": "QUEST_HIDDEN",
  "subQuests": [
    {
      "subId": 7334701,
      "mainId": 73347,
      "order": 1,
      "showType": "QUEST_HIDDEN",
      "finishCond": [
        {
          "KPGKDHAFHFE": "QUEST_CONTENT_QUEST_STATE_EQUAL",
          "param": [
            7329702,
            3
          ]
        }
      ],
      "guide": {},
      "guideHint": {
        "param1": ""
      },
      "finishParent": true,
      "isRewind": true,
      "versionBegin": "",
      "versionEnd": ""
    }
  ]
}