{
  "id": 73348,
  "KPGKDHAFHFE": "WQ",
  "titleTextMapHash": 890796999,
  "descTextMapHash": 3643838422,
  "luaPath": "Actor/Quest/WQ73348",
  "rewardIdList": [
    173348
  ],
  "subQuests": [
    {
      "subId": 7334801,
      "mainId": 73348,
      "order": 3,
      "descTextMapHash": 3208947036,
      "finishCond": [
        {
          "KPGKDHAFHFE": "QUEST_CONTENT_COMPLETE_TALK",
          "param": [
            7334801,
            0
          ]
        }
      ],
      "guide": {
        "KPGKDHAFHFE": "QUEST_GUIDE_NPC",
        "param": [
          "21043"
        ],
        "guideScene": 3,
        "guideStyle": "QUEST_GUIDE_STYLE_TARGET",
        "guideLayer": "QUEST_GUIDE_LAYER_SCENE"
      },
      "guideHint": {
        "param1": ""
      },
      "isRewind": true,
      "finishExec": [
        {
          "KPGKDHAFHFE": "QUEST_EXEC_DEL_PACK_ITEM",
          "param": [
            "101628",
            "1"
          ]
        }
      ],
      "versionBegin": "",
      "versionEnd": ""
    },
    {
      "subId": 7334802,
      "mainId": 73348,
      "order": 4,
      "descTextMapHash": 4151125300,
      "stepDescTextMapHash": 2851177957,
      "finishCond": [
        {
          "KPGKDHAFHFE": "QUEST_CONTENT_LUA_NOTIFY",
          "param": [
            0,
            0
          ],
          "count": 1
        }
      ],
      "guide": {
        "KPGKDHAFHFE": "QUEST_GUIDE_LOCATION",
        "param": [
          "[3_330700022:-1832.710,152.748,5462.650]",
          "60"
        ],
        "guideScene": 3,
        "guideStyle": "QUEST_GUIDE_STYLE_POINT",
        "guideLayer": "QUEST_GUIDE_LAYER_SCENE"
      },
      "guideHint": {
        "param1": ""
      },
      "isRewind": true,
      "versionBegin": "",
      "versionEnd": ""
    },
    {
      "subId": 7334803,
      "mainId": 73348,
      "order": 6,
      "descTextMapHash": 689575564,
      "finishCond": [
        {
          "KPGKDHAFHFE": "QUEST_CONTENT_COMPLETE_TALK",
          "param": [
            7334802,
            0
          ]
        }
      ],
      "guide": {
        "KPGKDHAFHFE": "QUEST_GUIDE_LOCATION",
        "param": [
          "[3_330700023:-1856.942,155.632,5478.944,0.000,79.150,0.000]",
          "40"
        ],
        "guideScene": 3,
        "guideStyle": "QUEST_GUIDE_STYLE_TARGET",
        "guideLayer": "QUEST_GUIDE_LAYER_SCENE"
      },
      "guideHint": {
        "param1": ""
      },
      "isRewind": true,
      "finishExec": [
        {
          "KPGKDHAFHFE": "QUEST_EXEC_UNREGISTER_DYNAMIC_GROUP",
          "param": [
            "133307492",
            "1"
          ]
        },
        {
          "KPGKDHAFHFE": "QUEST_EXEC_UNREGISTER_DYNAMIC_GROUP",
          "param": [
            "133307527"
          ]
        }
      ],
      "versionBegin": "",
      "versionEnd": ""
    },
    {
      "subId": 7334804,
      "mainId": 73348,
      "order": 8,
      "descTextMapHash": 3296110004,
      "stepDescTextMapHash": 1354182573,
      "finishCond": [
        {
          "KPGKDHAFHFE": "QUEST_CONTENT_COMPLETE_TALK",
          "param": [
            7334804,
            0
          ]
        }
      ],
      "guide": {
        "KPGKDHAFHFE": "QUEST_GUIDE_NPC",
        "param": [
          "2618"
        ],
        "guideScene": 6,
        "guideStyle": "QUEST_GUIDE_STYLE_TARGET",
        "guideLayer": "QUEST_GUIDE_LAYER_SCENE"
      },
      "guideHint": {
        "param1": ""
      },
      "finishParent": true,
      "isRewind": true,
      "versionBegin": "",
      "versionEnd": ""
    },
    {
      "subId": 7334805,
      "mainId": 73348,
      "order": 7,
      "descTextMapHash": 3807588220,
      "finishCond": [
        {
          "KPGKDHAFHFE": "QUEST_CONTENT_COMPLETE_TALK",
          "param": [
            7334803,
            0
          ]
        }
      ],
      "guide": {
        "KPGKDHAFHFE": "QUEST_GUIDE_NPC",
        "param": [
          "21043"
        ],
        "guideScene": 3,
        "guideStyle": "QUEST_GUIDE_STYLE_TARGET",
        "guideLayer": "QUEST_GUIDE_LAYER_SCENE"
      },
      "guideHint": {
        "param1": ""
      },
      "isRewind": true,
      "finishExec": [
        {
          "KPGKDHAFHFE": "QUEST_EXEC_DEL_PACK_ITEM",
          "param": [
            "120355",
            "1"
          ]
        },
        {
          "KPGKDHAFHFE": "QUEST_EXEC_DEL_PACK_ITEM",
          "param": [
            "120356",
            "1"
          ]
        }
      ],
      "versionBegin": "",
      "versionEnd": ""
    },
    {
      "subId": 7334806,
      "mainId": 73348,
      "order": 2,
      "descTextMapHash": 2657163700,
      "finishCond": [
        {
          "KPGKDHAFHFE": "QUEST_CONTENT_COMPLETE_TALK",
          "param": [
            7334809,
            0
          ]
        }
      ],
      "guide": {
        "KPGKDHAFHFE": "QUEST_GUIDE_LOCATION",
        "param": [
          "[3_330201511:-407.608,281.228,2772.336,0.000,56.591,0.000]",
          "15"
        ],
        "guideScene": 3,
        "guideLayer": "QUEST_GUIDE_LAYER_SCENE"
      },
      "guideHint": {
        "param1": ""
      },
      "isRewind": true,
      "versionBegin": "",
      "versionEnd": ""
    },
    {
      "subId": 7334807,
      "mainId": 73348,
      "order": 5,
      "descTextMapHash": 1623850108,
      "finishCond": [
        {
          "KPGKDHAFHFE": "QUEST_CONTENT_LUA_NOTIFY",
          "param": [
            0,
            0
          ],
          "count": 1
        }
      ],
      "guide": {
        "KPGKDHAFHFE": "QUEST_GUIDE_LOCATION",
        "param": [
          "[3_330700025:-1855.176,155.344,5478.426,0.000,289.300,0.000]",
          "40"
        ],
        "guideScene": 3,
        "guideStyle": "QUEST_GUIDE_STYLE_POINT",
        "guideLayer": "QUEST_GUIDE_LAYER_SCENE"
      },
      "guideHint": {
        "param1": ""
      },
      "isRewind": true,
      "versionBegin": "",
      "versionEnd": ""
    },
    {
      "subId": 7334808,
      "mainId": 73348,
      "order": 1,
      "showType": "QUEST_HIDDEN",
      "finishCond": [
        {
          "KPGKDHAFHFE": "QUEST_CONTENT_FINISH_PLOT",
          "param": [
            7334808,
            0
          ]
        }
      ],
      "guide": {},
      "guideHint": {
        "param1": ""
      },
      "isRewind": true,
      "versionBegin": "",
      "versionEnd": ""
    }
  ],
  "talks": [
    {
      "id": 7334801,
      "beginWay": "TALK_BEGIN_MANUAL",
      "beginCond": [
        {
          "type": "QUEST_COND_STATE_EQUAL",
          "_param": [
            "7334801",
            "2"
          ]
        }
      ],
      "priority": 5,
      "initDialog": 733480101,
      "npcId": [
        21043
      ],
      "performCfg": "QuestDialogue/WQ/Sumeru_73348/Q7334801",
      "heroTalk": "TALK_HERO_MAIN",
      "questId": 73348,
      "assetIndex": 15465392758954519581,
      "prePerformCfg": "",
      "talkMarkType": "TALK_MARK_COMMON",
      "PLPFOOINAAJ": [
        "[3_330201507:-401.346,281.463,2808.643,0.000,338.720,0.000]",
        "[3_330201526:-400.228,281.463,2807.422,0.000,320.850,0.000]",
        "[3_330201527:-400.981,281.463,2807.056,0.000,356.030,0.000]"
      ]
    },
    {
      "id": 7334802,
      "beginWay": "TALK_BEGIN_MANUAL",
      "beginCond": [
        {
          "type": "QUEST_COND_STATE_EQUAL",
          "_param": [
            "7334803",
            "2"
          ]
        }
      ],
      "priority": 5,
      "initDialog": 733480201,
      "npcId": [
        21044
      ],
      "performCfg": "QuestDialogue/WQ/Sumeru_73348/Q7334802",
      "heroTalk": "TALK_HERO_MAIN",
      "questId": 73348,
      "assetIndex": 15706410887514971123,
      "prePerformCfg": "",
      "PLPFOOINAAJ": [
        "[3_330700023:-1856.942,155.632,5478.944,0.000,79.150,0.000]",
        "[3_330700024:-1855.365,155.684,5479.971,0.000,246.600,0.000]",
        "[3_330700025:-1855.176,155.344,5478.426,0.000,289.300,0.000]"
      ]
    },
    {
      "id": 7334803,
      "beginWay": "TALK_BEGIN_MANUAL",
      "beginCond": [
        {
          "type": "QUEST_COND_STATE_EQUAL",
          "_param": [
            "7334805",
            "2"
          ]
        }
      ],
      "priority": 5,
      "initDialog": 733480301,
      "npcId": [
        21043
      ],
      "performCfg": "QuestDialogue/WQ/Sumeru_73348/Q7334803",
      "heroTalk": "TALK_HERO_MAIN",
      "questId": 73348,
      "assetIndex": 4580290412422939209,
      "prePerformCfg": ""
    },
    {
      "id": 7334804,
      "beginWay": "TALK_BEGIN_MANUAL",
      "beginCond": [
        {
          "type": "QUEST_COND_STATE_EQUAL",
          "_param": [
            "7334804",
            "2"
          ]
        }
      ],
      "priority": 5,
      "initDialog": 733480401,
      "npcId": [
        2618
      ],
      "performCfg": "QuestDialogue/WQ/Sumeru_73348/Q7334804",
      "heroTalk": "TALK_HERO_MAIN",
      "questId": 73348,
      "assetIndex": 11654255278350046253,
      "prePerformCfg": "",
      "PLPFOOINAAJ": [
        "[6_600100252:193.491,460.563,623.943,0.000,200.570,0.000]",
        "[6_600100253:192.401,460.499,624.217,0.000,87.600,0.000]",
        "[6_600100254:192.631,460.346,623.552,0.000,58.900,0.000]"
      ]
    },
    {
      "id": 7334805,
      "beginWay": "TALK_BEGIN_MANUAL",
      "beginCond": [
        {
          "type": "QUEST_COND_STATE_EQUAL",
          "_param": [
            "7334802",
            "2"
          ]
        },
        {
          "type": "QUEST_COND_STATE_EQUAL",
          "_param": [
            "7334803"
          ]
        }
      ],
      "priority": 5,
      "initDialog": 733480501,
      "npcId": [
        21043
      ],
      "performCfg": "",
      "heroTalk": "TALK_HERO_MAIN",
      "questId": 73348,
      "assetIndex": 14960365471139400575,
      "prePerformCfg": ""
    },
    {
      "id": 7334808,
      "beginWay": "TALK_BEGIN_MANUAL",
      "beginCond": [
        {
          "type": "QUEST_COND_STATE_EQUAL",
          "_param": [
            "7334804",
            "2"
          ]
        }
      ],
      "priority": 5,
      "initDialog": 733480801,
      "npcId": [
        21043
      ],
      "performCfg": "",
      "heroTalk": "TALK_HERO_MAIN",
      "questId": 73348,
      "assetIndex": 14519235991983104098,
      "prePerformCfg": ""
    },
    {
      "id": 7334809,
      "beginWay": "TALK_BEGIN_MANUAL",
      "beginCond": [
        {
          "type": "QUEST_COND_STATE_EQUAL",
          "_param": [
            "7334806",
            "2"
          ]
        }
      ],
      "priority": 5,
      "initDialog": 733480901,
      "npcId": [
        4002
      ],
      "performCfg": "QuestDialogue/WQ/Sumeru_73348/Q7334809",
      "heroTalk": "TALK_HERO_MAIN",
      "questId": 73348,
      "assetIndex": 17258924909872146102,
      "prePerformCfg": "",
      "PLPFOOINAAJ": [
        "[3_330201511:-407.608,281.228,2772.336,0.000,56.591,0.000]",
        "[3_330201512:-406.909,281.228,2772.999,0.000,231.967,0.000]",
        "[3_330201524:-405.673,281.228,2771.531,0.000,321.120,0.000]",
        "[3_330201525:-407.010,281.228,2771.104]"
      ]
    },
    {
      "id": 7334810,
      "beginWay": "TALK_BEGIN_MANUAL",
      "beginCond": [
        {
          "type": "QUEST_COND_STATE_EQUAL",
          "_param": [
            "7334801",
            "2"
          ]
        }
      ],
      "priority": 5,
      "initDialog": 733481001,
      "npcId": [
        4002
      ],
      "performCfg": "",
      "heroTalk": "TALK_HERO_MAIN",
      "questId": 73348,
      "assetIndex": 4974435419912024833,
      "prePerformCfg": ""
    },
    {
      "id": 7334811,
      "beginWay": "TALK_BEGIN_MANUAL",
      "beginCond": [
        {
          "type": "QUEST_COND_STATE_EQUAL",
          "_param": [
            "7334801",
            "2"
          ]
        }
      ],
      "priority": 5,
      "initDialog": 733481101,
      "npcId": [
        4086
      ],
      "performCfg": "",
      "heroTalk": "TALK_HERO_MAIN",
      "questId": 73348,
      "assetIndex": 13366534470706972126,
      "prePerformCfg": ""
    }
  ],
  "preloadLuaList": [
    12901240736083687873,
    7386398117872586964,
    5307430409351725338
  ],
  "forcePreloadLuaList": [
    2447515984125396620
  ],
  "dialogList": [
    {
      "id": 733489902,
      "talkRole": {
        "type": "TALK_ROLE_NPC",
        "_id": "4002"
      },
      "talkContentTextMapHash": 1508817226,
      "talkAssetPath": "",
      "talkAssetPathAlter": "",
      "talkAudioName": "",
      "actionBefore": "",
      "actionWhile": "",
      "actionAfter": "",
      "optionIcon": "",
      "iconPath": ""
    },
    {
      "id": 733489903,
      "talkRole": {
        "type": "TALK_ROLE_NPC",
        "_id": "4086"
      },
      "talkContentTextMapHash": 3638618618,
      "talkAssetPath": "",
      "talkAssetPathAlter": "",
      "talkAudioName": "",
      "actionBefore": "",
      "actionWhile": "",
      "actionAfter": "",
      "optionIcon": "",
      "iconPath": ""
    },
    {
      "id": 733489904,
      "talkRole": {
        "type": "TALK_ROLE_NPC",
        "_id": "21043"
      },
      "talkContentTextMapHash": 2561595506,
      "talkAssetPath": "",
      "talkAssetPathAlter": "",
      "talkAudioName": "",
      "actionBefore": "",
      "actionWhile": "",
      "actionAfter": "",
      "optionIcon": "",
      "iconPath": ""
    },
    {
      "id": 733489906,
      "talkRole": {
        "type": "TALK_ROLE_NPC",
        "_id": "21043"
      },
      "talkContentTextMapHash": 3933343098,
      "talkAssetPath": "",
      "talkAssetPathAlter": "",
      "talkAudioName": "",
      "actionBefore": "",
      "actionWhile": "",
      "actionAfter": "",
      "optionIcon": "",
      "iconPath": ""
    },
    {
      "id": 733489907,
      "talkRole": {
        "type": "TALK_ROLE_NPC",
        "_id": "21043"
      },
      "talkContentTextMapHash": 1872622882,
      "talkAssetPath": "",
      "talkAssetPathAlter": "",
      "talkAudioName": "",
      "actionBefore": "",
      "actionWhile": "",
      "actionAfter": "",
      "optionIcon": "",
      "iconPath": ""
    }
  ]
}