{
  "id": 73507,
  "KPGKDHAFHFE": "WQ",
  "mainQuestTag": "MAINQUEST_TAG_GUIDE",
  "activeMode": "PLAY_MODE_ALL",
  "titleTextMapHash": 1159810967,
  "descTextMapHash": 248538550,
  "luaPath": "Actor/Quest/WQ73507",
  "rewardIdList": [
    173507
  ],
  "showRedPoint": true,
  "activityId": 5120,
  "subQuests": [
    {
      "subId": 7350701,
      "mainId": 73507,
      "order": 1,
      "descTextMapHash": 2243788572,
      "finishCond": [
        {
          "KPGKDHAFHFE": "QUEST_CONTENT_COMPLETE_TALK",
          "param": [
            7350701,
            0
          ]
        }
      ],
      "guide": {
        "KPGKDHAFHFE": "QUEST_GUIDE_NPC",
        "autoGuide": "QUEST_GUIDE_AUTO_ENABLE",
        "param": [
          "30319"
        ],
        "guideScene": 3,
        "guideStyle": "QUEST_GUIDE_STYLE_TARGET",
        "guideLayer": "QUEST_GUIDE_LAYER_SCENE"
      },
      "guideHint": {
        "param1": ""
      },
      "isRewind": true,
      "versionBegin": "",
      "versionEnd": ""
    },
    {
      "subId": 7350702,
      "mainId": 73507,
      "order": 3,
      "descTextMapHash": 4006431964,
      "finishCond": [
        {
          "KPGKDHAFHFE": "QUEST_CONTENT_ENTER_DUNGEON",
          "param": [
            3063,
            0
          ]
        }
      ],
      "guide": {
        "KPGKDHAFHFE": "QUEST_GUIDE_NPC",
        "autoGuide": "QUEST_GUIDE_AUTO_ENABLE",
        "param": [
          "30319"
        ],
        "guideScene": 3,
        "guideStyle": "QUEST_GUIDE_STYLE_TARGET",
        "guideLayer": "QUEST_GUIDE_LAYER_SCENE"
      },
      "guideHint": {
        "param1": ""
      },
      "isRewind": true,
      "versionBegin": "",
      "versionEnd": ""
    },
    {
      "subId": 7350703,
      "mainId": 73507,
      "order": 5,
      "descTextMapHash": 2882868188,
      "finishCond": [
        {
          "KPGKDHAFHFE": "QUEST_CONTENT_COMPLETE_TALK",
          "param": [
            7350703,
            0
          ]
        }
      ],
      "guide": {
        "KPGKDHAFHFE": "QUEST_GUIDE_NPC",
        "autoGuide": "QUEST_GUIDE_AUTO_ENABLE",
        "param": [
          "30319"
        ],
        "guideScene": 3,
        "guideStyle": "QUEST_GUIDE_STYLE_TARGET",
        "guideLayer": "QUEST_GUIDE_LAYER_SCENE"
      },
      "guideHint": {
        "param1": ""
      },
      "isRewind": true,
      "versionBegin": "",
      "versionEnd": ""
    },
    {
      "subId": 7350704,
      "mainId": 73507,
      "order": 4,
      "descTextMapHash": 4291304068,
      "guideTipsTextMapHash": 1043849670,
      "finishCond": [
        {
          "KPGKDHAFHFE": "QUEST_CONTENT_ACTIVITY_TRIGGER_UPDATE",
          "param": [
            5120,
            7350704
          ],
          "count": 1
        }
      ],
      "failCond": [
        {
          "KPGKDHAFHFE": "QUEST_CONTENT_LEAVE_SCENE",
          "param": [
            35899,
            0
          ]
        }
      ],
      "guide": {},
      "showGuide": "QUEST_GUIDE_ITEM_DISABLE",
      "guideHint": {
        "param1": ""
      },
      "isRewind": true,
      "finishExec": [
        {
          "KPGKDHAFHFE": "QUEST_EXEC_SET_QUEST_VAR",
          "param": [
            "1",
            "0",
            "73507"
          ]
        }
      ],
      "failExec": [
        {
          "KPGKDHAFHFE": "QUEST_EXEC_ROLLBACK_QUEST",
          "param": [
            "7350702"
          ]
        }
      ],
      "versionBegin": "",
      "versionEnd": ""
    },
    {
      "subId": 7350705,
      "mainId": 73507,
      "order": 6,
      "descTextMapHash": 2258543204,
      "finishCond": [
        {
          "KPGKDHAFHFE": "QUEST_CONTENT_COMPLETE_TALK",
          "param": [
            7350705,
            0
          ]
        }
      ],
      "guide": {
        "KPGKDHAFHFE": "QUEST_GUIDE_NPC",
        "autoGuide": "QUEST_GUIDE_AUTO_ENABLE",
        "param": [
          "30321"
        ],
        "guideScene": 3,
        "guideStyle": "QUEST_GUIDE_STYLE_TARGET",
        "guideLayer": "QUEST_GUIDE_LAYER_SCENE"
      },
      "guideHint": {
        "param1": ""
      },
      "finishParent": true,
      "isRewind": true,
      "versionBegin": "",
      "versionEnd": ""
    },
    {
      "subId": 7350706,
      "mainId": 73507,
      "order": 2,
      "showType": "QUEST_HIDDEN",
      "finishCond": [
        {
          "KPGKDHAFHFE": "QUEST_CONTENT_COMPLETE_TALK",
          "param": [
            7350705,
            0
          ]
        }
      ],
      "guide": {},
      "showGuide": "QUEST_GUIDE_ITEM_DISABLE",
      "guideHint": {
        "param1": ""
      },
      "isRewind": true,
      "versionBegin": "",
      "versionEnd": ""
    }
  ],
  "talks": [
    {
      "id": 7350701,
      "beginWay": "TALK_BEGIN_MANUAL",
      "activeMode": "PLAY_MODE_HOST",
      "beginCond": [
        {
          "type": "QUEST_COND_STATE_EQUAL",
          "_param": [
            "7350701",
            "2"
          ]
        }
      ],
      "priority": 5,
      "initDialog": 735070101,
      "npcId": [
        30318,
        30319
      ],
      "performCfg": "QuestDialogue/WQ/FungusFighterV2_73507/Q7350701",
      "heroTalk": "TALK_HERO_MAIN",
      "questId": 73507,
      "assetIndex": 2844824554463073821,
      "prePerformCfg": "",
      "forceNpcNotDestroy": true
    },
    {
      "id": 7350703,
      "beginWay": "TALK_BEGIN_MANUAL",
      "activeMode": "PLAY_MODE_HOST",
      "beginCondComb": "LOGIC_AND",
      "beginCond": [
        {
          "type": "QUEST_COND_STATE_EQUAL",
          "_param": [
            "7350703",
            "2"
          ]
        }
      ],
      "priority": 5,
      "initDialog": 735070301,
      "npcId": [
        30319,
        30318
      ],
      "performCfg": "QuestDialogue/WQ/V3.5FungusFighterV2_73507/Q7350703",
      "heroTalk": "TALK_HERO_MAIN",
      "questId": 73507,
      "assetIndex": 12666692893259698198,
      "prePerformCfg": "",
      "freeStyleList": [
        1171,
        1172,
        1173
      ],
      "forceNpcNotDestroy": true
    },
    {
      "id": 7350704,
      "beginWay": "TALK_BEGIN_MANUAL",
      "activeMode": "PLAY_MODE_HOST",
      "beginCondComb": "LOGIC_AND",
      "beginCond": [
        {
          "type": "QUEST_COND_STATE_EQUAL",
          "_param": [
            "7350701",
            "3"
          ]
        },
        {
          "type": "QUEST_COND_QUEST_VAR_EQUAL",
          "_param": [
            "1",
            "1",
            "73507"
          ]
        },
        {
          "type": "QUEST_COND_ACTIVITY_CLIENT_COND",
          "_param": [
            "5120",
            "5120014",
            "1"
          ]
        },
        {
          "type": "QUEST_COND_ACTIVITY_CLIENT_COND",
          "_param": [
            "5120",
            "5120017",
            "0"
          ]
        }
      ],
      "priority": 1,
      "initDialog": 735070401,
      "npcId": [
        30319
      ],
      "performCfg": "QuestDialogue/WQ/V3.5FungusFighterV2_73507/Q7350704",
      "heroTalk": "TALK_HERO_MAIN",
      "questId": 73507,
      "assetIndex": 2448043834107924016,
      "prePerformCfg": "",
      "forceNpcNotDestroy": true
    },
    {
      "id": 7350705,
      "beginWay": "TALK_BEGIN_MANUAL",
      "activeMode": "PLAY_MODE_HOST",
      "beginCond": [
        {
          "type": "QUEST_COND_STATE_EQUAL",
          "_param": [
            "7350705",
            "2"
          ]
        }
      ],
      "priority": 5,
      "initDialog": 735070501,
      "npcId": [
        30321,
        30320
      ],
      "performCfg": "QuestDialogue/WQ/V3.5FungusFighterV2_73507/Q7350705",
      "heroTalk": "TALK_HERO_MAIN",
      "questId": 73507,
      "assetIndex": 14876066683118707168,
      "prePerformCfg": "",
      "forceNpcNotDestroy": true
    },
    {
      "id": 7350713,
      "beginWay": "TALK_BEGIN_MANUAL",
      "activeMode": "PLAY_MODE_HOST",
      "beginCondComb": "LOGIC_AND",
      "beginCond": [
        {
          "type": "QUEST_COND_STATE_EQUAL",
          "_param": [
            "7350704",
            "3"
          ]
        },
        {
          "type": "QUEST_COND_ACTIVITY_CLIENT_COND",
          "_param": [
            "5120",
            "5120017",
            "0"
          ]
        }
      ],
      "priority": 2,
      "initDialog": 735071301,
      "npcId": [
        30318,
        30319
      ],
      "performCfg": "QuestDialogue/WQ/V3.5FungusFighterV2_73507/Q7350713",
      "heroTalk": "TALK_HERO_MAIN",
      "questId": 73507,
      "assetIndex": 17416172239004536674,
      "prePerformCfg": "",
      "questIdleTalk": true,
      "lowPriority": true,
      "forceNpcNotDestroy": true
    },
    {
      "id": 7350719,
      "beginWay": "TALK_BEGIN_MANUAL",
      "activeMode": "PLAY_MODE_HOST",
      "beginCondComb": "LOGIC_AND",
      "beginCond": [
        {
          "type": "QUEST_COND_STATE_EQUAL",
          "_param": [
            "7350701",
            "3"
          ]
        },
        {
          "type": "QUEST_COND_ACTIVITY_CLIENT_COND",
          "_param": [
            "5120",
            "5120017",
            "0"
          ]
        }
      ],
      "priority": 1,
      "initDialog": 735071901,
      "npcId": [
        30321,
        30320
      ],
      "performCfg": "QuestDialogue/WQ/V3.5FungusFighterV2_73507/Q7350719",
      "heroTalk": "TALK_HERO_MAIN",
      "questId": 73507,
      "assetIndex": 2607415334970099709,
      "prePerformCfg": "",
      "forceNpcNotDestroy": true
    }
  ],
  "preloadLuaList": [
    14457059026087496718,
    17672880239304027435,
    15272724020857106916
  ],
  "forcePreloadLuaList": [
    3052621094247347643
  ],
  "freeStyleDic": {
    "30318": [
      1230
    ],
    "30319": [
      1190
    ]
  }
}