{
  "id": 73511,
  "KPGKDHAFHFE": "WQ",
  "mainQuestTag": "MAINQUEST_TAG_ACTIVITY",
  "titleTextMapHash": 3628907599,
  "descTextMapHash": 2195586150,
  "luaPath": "Actor/Quest/WQ73511",
  "rewardIdList": [
    173511
  ],
  "showRedPoint": true,
  "activityId": 5128,
  "subQuests": [
    {
      "subId": 7351101,
      "mainId": 73511,
      "order": 1,
      "descTextMapHash": 2920155476,
      "GMKDJFPEFFF": [
        330801
      ],
      "finishCond": [
        {
          "KPGKDHAFHFE": "QUEST_CONTENT_COMPLETE_TALK",
          "param": [
            7351101,
            0
          ]
        }
      ],
      "guide": {
        "KPGKDHAFHFE": "QUEST_GUIDE_NPC",
        "param": [
          "30343"
        ],
        "guideScene": 3,
        "guideStyle": "QUEST_GUIDE_STYLE_TARGET",
        "guideLayer": "QUEST_GUIDE_LAYER_SCENE"
      },
      "guideHint": {
        "param1": ""
      },
      "isRewind": true,
      "versionBegin": "",
      "versionEnd": ""
    },
    {
      "subId": 7351102,
      "mainId": 73511,
      "order": 2,
      "descTextMapHash": 3590224564,
      "GMKDJFPEFFF": [
        330801
      ],
      "finishCond": [
        {
          "KPGKDHAFHFE": "QUEST_CONTENT_FINISH_PLOT",
          "param": [
            7351102,
            0
          ]
        }
      ],
      "guide": {
        "KPGKDHAFHFE": "QUEST_GUIDE_LOCATION",
        "param": [
          "Q7351102_guide",
          "30"
        ],
        "guideScene": 3,
        "guideStyle": "QUEST_GUIDE_STYLE_TARGET",
        "guideLayer": "QUEST_GUIDE_LAYER_SCENE"
      },
      "showGuide": "QUEST_GUIDE_ITEM_DISABLE",
      "guideHint": {
        "param1": ""
      },
      "isRewind": true,
      "versionBegin": "",
      "versionEnd": ""
    },
    {
      "subId": 7351103,
      "mainId": 73511,
      "order": 3,
      "descTextMapHash": 3733487948,
      "finishCond": [
        {
          "KPGKDHAFHFE": "QUEST_CONTENT_COMPLETE_TALK",
          "param": [
            7351103,
            0
          ]
        }
      ],
      "guide": {
        "KPGKDHAFHFE": "QUEST_GUIDE_NPC",
        "param": [
          "30342"
        ],
        "guideScene": 3,
        "guideStyle": "QUEST_GUIDE_STYLE_TARGET",
        "guideLayer": "QUEST_GUIDE_LAYER_SCENE"
      },
      "guideHint": {
        "param1": ""
      },
      "finishParent": true,
      "isRewind": true,
      "finishExec": [
        {
          "KPGKDHAFHFE": "QUEST_EXEC_UNREGISTER_DYNAMIC_GROUP",
          "param": [
            "133309822",
            "1"
          ]
        }
      ],
      "versionBegin": "",
      "versionEnd": ""
    }
  ],
  "talks": [
    {
      "id": 7351101,
      "beginWay": "TALK_BEGIN_MANUAL",
      "beginCond": [
        {
          "type": "QUEST_COND_STATE_EQUAL",
          "_param": [
            "7351101",
            "2"
          ]
        }
      ],
      "priority": 5,
      "initDialog": 735110101,
      "npcId": [
        30343,
        4403
      ],
      "performCfg": "QuestDialogue/WQ/V3.6SandSworm/Q7351101",
      "heroTalk": "TALK_HERO_MAIN",
      "questId": 73511,
      "assetIndex": 9895786378035366418,
      "prePerformCfg": "",
      "forceNpcNotDestroy": true
    },
    {
      "id": 7351103,
      "beginWay": "TALK_BEGIN_MANUAL",
      "beginCond": [
        {
          "type": "QUEST_COND_STATE_EQUAL",
          "_param": [
            "7351103",
            "2"
          ]
        }
      ],
      "priority": 5,
      "initDialog": 735110301,
      "npcId": [
        30342
      ],
      "performCfg": "QuestDialogue/WQ/V3.6SandSworm/Q7351103",
      "heroTalk": "TALK_HERO_MAIN",
      "questId": 73511,
      "assetIndex": 9924036157614027929,
      "prePerformCfg": "",
      "stayFreeStyle": true,
      "forceNpcNotDestroy": true
    },
    {
      "id": 7351105,
      "beginWay": "TALK_BEGIN_MANUAL",
      "beginCondComb": "LOGIC_AND",
      "beginCond": [
        {
          "type": "QUEST_COND_STATE_EQUAL",
          "_param": [
            "7351101",
            "3"
          ]
        },
        {
          "type": "QUEST_COND_ACTIVITY_CLIENT_COND",
          "_param": [
            "5128",
            "5128002",
            "0"
          ]
        }
      ],
      "priority": 1,
      "initDialog": 735110501,
      "npcId": [
        30343
      ],
      "performCfg": "",
      "heroTalk": "TALK_HERO_MAIN",
      "questId": 73511,
      "assetIndex": 15903137722830817548,
      "prePerformCfg": "",
      "lowPriority": true,
      "forceNpcNotDestroy": true
    },
    {
      "id": 7351106,
      "beginWay": "TALK_BEGIN_MANUAL",
      "beginCondComb": "LOGIC_AND",
      "beginCond": [
        {
          "type": "QUEST_COND_STATE_EQUAL",
          "_param": [
            "7351101",
            "3"
          ]
        },
        {
          "type": "QUEST_COND_ACTIVITY_CLIENT_COND",
          "_param": [
            "5128",
            "5128002",
            "0"
          ]
        },
        {
          "type": "QUEST_COND_STATE_EQUAL",
          "_param": [
            "7351102",
            "2"
          ]
        }
      ],
      "priority": 1,
      "initDialog": 735110601,
      "npcId": [
        4403
      ],
      "performCfg": "",
      "heroTalk": "TALK_HERO_MAIN",
      "questId": 73511,
      "assetIndex": 11683518066729829989,
      "prePerformCfg": "",
      "lowPriority": true,
      "forceNpcNotDestroy": true
    }
  ],
  "preloadLuaList": [
    17048749041196706445
  ],
  "forcePreloadLuaList": [
    2786838689869080304
  ],
  "freeStyleDic": {
    "30342": [
      1190
    ]
  }
}