{
  "id": 73526,
  "KPGKDHAFHFE": "WQ",
  "mainQuestTag": "MAINQUEST_TAG_GUIDE",
  "activeMode": "PLAY_MODE_ALL",
  "titleTextMapHash": 1390448423,
  "descTextMapHash": 3220365142,
  "luaPath": "Actor/Quest/WQ73526",
  "rewardIdList": [
    173526
  ],
  "showRedPoint": true,
  "activityId": 2023,
  "subQuests": [
    {
      "subId": 7352601,
      "mainId": 73526,
      "order": 1,
      "descTextMapHash": 1034892812,
      "finishCond": [
        {
          "KPGKDHAFHFE": "QUEST_CONTENT_COMPLETE_TALK",
          "param": [
            7352601,
            0
          ]
        }
      ],
      "guide": {
        "KPGKDHAFHFE": "QUEST_GUIDE_NPC",
        "param": [
          "30405"
        ],
        "guideScene": 10,
        "guideStyle": "QUEST_GUIDE_STYLE_TARGET",
        "guideLayer": "QUEST_GUIDE_LAYER_SCENE"
      },
      "guideHint": {
        "param1": ""
      },
      "finishParent": true,
      "isRewind": true,
      "versionBegin": "",
      "versionEnd": ""
    }
  ],
  "talks": [
    {
      "id": 7352601,
      "beginWay": "TALK_BEGIN_MANUAL",
      "activeMode": "PLAY_MODE_HOST",
      "beginCond": [
        {
          "type": "QUEST_COND_STATE_EQUAL",
          "_param": [
            "7352601",
            "2"
          ]
        }
      ],
      "priority": 5,
      "initDialog": 735260101,
      "npcId": [
        30405
      ],
      "performCfg": "QuestDialogue/WQ/Sumeru_73526/Q7352601",
      "heroTalk": "TALK_HERO_MAIN",
      "questId": 73526,
      "assetIndex": 13143713643885331264,
      "prePerformCfg": ""
    }
  ],
  "preloadLuaList": [
    1148516186012182962
  ],
  "forcePreloadLuaList": [
    308125582726477363
  ],
  "freeStyleDic": {
    "30405": [
      4120
    ]
  }
}