{
  "id": 73525,
  "KPGKDHAFHFE": "WQ",
  "mainQuestTag": "MAINQUEST_TAG_GUIDE",
  "titleTextMapHash": 4005974791,
  "descTextMapHash": 2671608358,
  "luaPath": "Actor/Quest/WQ73525",
  "rewardIdList": [
    173525
  ],
  "showRedPoint": true,
  "activityId": 5140,
  "subQuests": [
    {
      "subId": 7352501,
      "mainId": 73525,
      "order": 1,
      "descTextMapHash": 307771076,
      "finishCond": [
        {
          "KPGKDHAFHFE": "QUEST_CONTENT_COMPLETE_TALK",
          "param": [
            7352501,
            0
          ]
        }
      ],
      "guide": {
        "KPGKDHAFHFE": "QUEST_GUIDE_NPC",
        "param": [
          "30402"
        ],
        "guideScene": 3,
        "guideStyle": "QUEST_GUIDE_STYLE_TARGET",
        "guideLayer": "QUEST_GUIDE_LAYER_SCENE"
      },
      "guideHint": {
        "param1": ""
      },
      "finishParent": true,
      "isRewind": true,
      "versionBegin": "",
      "versionEnd": ""
    }
  ],
  "talks": [
    {
      "id": 7352501,
      "beginWay": "TALK_BEGIN_MANUAL",
      "beginCond": [
        {
          "type": "QUEST_COND_STATE_EQUAL",
          "_param": [
            "7352501",
            "2"
          ]
        }
      ],
      "priority": 5,
      "initDialog": 735250101,
      "npcId": [
        30402
      ],
      "performCfg": "QuestDialogue/WQ/Sumeru_73525/Q7352501",
      "heroTalk": "TALK_HERO_MAIN",
      "questId": 73525,
      "assetIndex": 3566012197212021613,
      "prePerformCfg": "",
      "stayFreeStyle": true,
      "forceNpcNotDestroy": true
    }
  ]
}