{
  "id": 73520,
  "series": 73520,
  "KPGKDHAFHFE": "WQ",
  "mainQuestTag": "MAINQUEST_TAG_ACTIVITY",
  "titleTextMapHash": 3021423519,
  "descTextMapHash": 3043547926,
  "luaPath": "Actor/Quest/WQ73520",
  "suggestTrackMainQuestList": [
    73521
  ],
  "rewardIdList": [
    173520
  ],
  "activityId": 2021,
  "subQuests": [
    {
      "subId": 7352001,
      "mainId": 73520,
      "order": 1,
      "descTextMapHash": 2053630756,
      "GMKDJFPEFFF": [
        330216
      ],
      "finishCond": [
        {
          "KPGKDHAFHFE": "QUEST_CONTENT_COMPLETE_TALK",
          "param": [
            7352001,
            0
          ]
        }
      ],
      "guide": {
        "KPGKDHAFHFE": "QUEST_GUIDE_NPC",
        "param": [
          "1055"
        ],
        "guideScene": 3,
        "guideStyle": "QUEST_GUIDE_STYLE_TARGET",
        "guideLayer": "QUEST_GUIDE_LAYER_SCENE"
      },
      "guideHint": {
        "param1": ""
      },
      "isRewind": true,
      "versionBegin": "",
      "versionEnd": ""
    },
    {
      "subId": 7352002,
      "mainId": 73520,
      "order": 2,
      "descTextMapHash": 235315140,
      "stepDescTextMapHash": 4270425957,
      "GMKDJFPEFFF": [
        330216
      ],
      "finishCond": [
        {
          "KPGKDHAFHFE": "QUEST_CONTENT_COMPLETE_TALK",
          "param": [
            7352032,
            0
          ]
        }
      ],
      "guide": {
        "KPGKDHAFHFE": "QUEST_GUIDE_NPC",
        "param": [
          "30353"
        ],
        "guideScene": 3,
        "guideStyle": "QUEST_GUIDE_STYLE_TARGET",
        "guideLayer": "QUEST_GUIDE_LAYER_SCENE"
      },
      "guideHint": {
        "param1": ""
      },
      "isRewind": true,
      "versionBegin": "",
      "versionEnd": ""
    },
    {
      "subId": 7352003,
      "mainId": 73520,
      "order": 3,
      "descTextMapHash": 3079295444,
      "stepDescTextMapHash": 2194270533,
      "finishCond": [
        {
          "KPGKDHAFHFE": "QUEST_CONTENT_COMPLETE_TALK",
          "param": [
            7352003,
            0
          ]
        }
      ],
      "guide": {
        "KPGKDHAFHFE": "QUEST_GUIDE_LOCATION",
        "param": [
          "Q7352003_N13254",
          "25"
        ],
        "guideScene": 3,
        "guideStyle": "QUEST_GUIDE_STYLE_TARGET",
        "guideLayer": "QUEST_GUIDE_LAYER_SCENE"
      },
      "guideHint": {
        "param1": ""
      },
      "finishParent": true,
      "isRewind": true,
      "finishExec": [
        {
          "KPGKDHAFHFE": "QUEST_EXEC_UNREGISTER_DYNAMIC_GROUP",
          "param": [
            "133302754",
            "1"
          ]
        }
      ],
      "versionBegin": "",
      "versionEnd": ""
    }
  ],
  "talks": [
    {
      "id": 7352001,
      "beginWay": "TALK_BEGIN_MANUAL",
      "beginCond": [
        {
          "type": "QUEST_COND_STATE_EQUAL",
          "_param": [
            "7352001",
            "2"
          ]
        }
      ],
      "priority": 5,
      "initDialog": 735200101,
      "npcId": [
        1055
      ],
      "performCfg": "QuestDialogue/WQ/Sumeru_73520/Q7352001",
      "heroTalk": "TALK_HERO_MAIN",
      "questId": 73520,
      "assetIndex": 7719432269182397955,
      "prePerformCfg": "",
      "PLPFOOINAAJ": [
        "[3_330201411:-301.263,242.098,2864.498,0.000,63.473,0.000]",
        "[3_330201412:-300.301,242.033,2865.054,0.000,245.021,0.000]"
      ]
    },
    {
      "id": 7352002,
      "beginWay": "TALK_BEGIN_MANUAL",
      "beginCond": [
        {
          "type": "QUEST_COND_STATE_EQUAL",
          "_param": [
            "7352002",
            "2"
          ]
        }
      ],
      "priority": 5,
      "nextTalks": [
        7352022,
        7352032
      ],
      "initDialog": 735200201,
      "npcId": [
        30353
      ],
      "performCfg": "QuestDialogue/WQ/Sumeru_73520/Q7352002",
      "heroTalk": "TALK_HERO_MAIN",
      "questId": 73520,
      "assetIndex": 5442146435344736753,
      "prePerformCfg": ""
    },
    {
      "id": 7352003,
      "beginWay": "TALK_BEGIN_MANUAL",
      "beginCond": [
        {
          "type": "QUEST_COND_STATE_EQUAL",
          "_param": [
            "7352003",
            "2"
          ]
        }
      ],
      "priority": 5,
      "initDialog": 735200301,
      "npcId": [
        13254
      ],
      "performCfg": "QuestDialogue/WQ/Sumeru_73520/Q7352003",
      "heroTalk": "TALK_HERO_MAIN",
      "questId": 73520,
      "assetIndex": 5968570714589021070,
      "prePerformCfg": "",
      "PLPFOOINAAJ": [
        "[3_330201443:-861.154,207.681,2591.043,0.000,252.847,0.000]",
        "[3_330201444:-861.532,207.773,2591.579,0.000,210.328,0.000]"
      ]
    },
    {
      "id": 7352022,
      "beginCond": [
        {
          "type": "QUEST_COND_STATE_EQUAL",
          "_param": [
            "7352002",
            "2"
          ]
        }
      ],
      "priority": 5,
      "initDialog": 735200202,
      "npcId": [
        30353
      ],
      "performCfg": "QuestDialogue/WQ/Sumeru_73520/Q7352022",
      "heroTalk": "TALK_HERO_MAIN",
      "questId": 73520,
      "assetIndex": 2631786727859803278,
      "prePerformCfg": ""
    },
    {
      "id": 7352032,
      "beginCond": [
        {
          "type": "QUEST_COND_STATE_EQUAL",
          "_param": [
            "7352002",
            "2"
          ]
        }
      ],
      "priority": 5,
      "initDialog": 735200203,
      "npcId": [
        30353
      ],
      "performCfg": "QuestDialogue/WQ/Sumeru_73520/Q7352032",
      "heroTalk": "TALK_HERO_MAIN",
      "questId": 73520,
      "assetIndex": 5682934959644190811,
      "prePerformCfg": ""
    },
    {
      "id": 7352033,
      "beginWay": "TALK_BEGIN_MANUAL",
      "beginCond": [
        {
          "type": "QUEST_COND_STATE_EQUAL",
          "_param": [
            "7352002",
            "2"
          ]
        }
      ],
      "priority": 5,
      "initDialog": 735203301,
      "npcId": [
        1055
      ],
      "performCfg": "QuestDialogue/WQ/Sumeru_73520/Q7352033",
      "heroTalk": "TALK_HERO_MAIN",
      "questId": 73520,
      "assetIndex": 17393619076462248150,
      "prePerformCfg": ""
    },
    {
      "id": 7352034,
      "beginWay": "TALK_BEGIN_MANUAL",
      "beginCond": [
        {
          "type": "QUEST_COND_STATE_EQUAL",
          "_param": [
            "7352003",
            "2"
          ]
        }
      ],
      "priority": 5,
      "initDialog": 735203401,
      "npcId": [
        30353
      ],
      "performCfg": "QuestDialogue/WQ/Sumeru_73520/Q7352034",
      "heroTalk": "TALK_HERO_MAIN",
      "questId": 73520,
      "assetIndex": 5408127099606699912,
      "prePerformCfg": ""
    }
  ],
  "preloadLuaList": [
    18269836315170237109
  ],
  "forcePreloadLuaList": [
    16074948092789522149
  ]
}