{
  "id": 73524,
  "KPGKDHAFHFE": "WQ",
  "mainQuestTag": "MAINQUEST_TAG_ACTIVITY",
  "titleTextMapHash": 805590159,
  "descTextMapHash": 4238776118,
  "luaPath": "Actor/Quest/WQ73524",
  "rewardIdList": [
    173524
  ],
  "activityId": 2021,
  "subQuests": [
    {
      "subId": 7352401,
      "mainId": 73524,
      "order": 1,
      "descTextMapHash": 4106778540,
      "finishCond": [
        {
          "KPGKDHAFHFE": "QUEST_CONTENT_QUEST_GLOBAL_VAR_EQUAL",
          "param": [
            7352101,
            1
          ]
        }
      ],
      "failCond": [
        {
          "KPGKDHAFHFE": "QUEST_CONTENT_QUEST_GLOBAL_VAR_EQUAL",
          "param": [
            7352101,
            0
          ]
        }
      ],
      "guide": {
        "guideScene": 3,
        "guideStyle": "QUEST_GUIDE_STYLE_TARGET",
        "guideLayer": "QUEST_GUIDE_LAYER_SCENE"
      },
      "showGuide": "QUEST_GUIDE_ITEM_DISABLE",
      "guideHint": {
        "param1": ""
      },
      "isRewind": true,
      "versionBegin": "",
      "versionEnd": ""
    },
    {
      "subId": 7352402,
      "mainId": 73524,
      "order": 2,
      "descTextMapHash": 535377764,
      "finishCond": [
        {
          "KPGKDHAFHFE": "QUEST_CONTENT_QUEST_GLOBAL_VAR_EQUAL",
          "param": [
            7352101,
            0
          ]
        }
      ],
      "failCond": [
        {
          "KPGKDHAFHFE": "QUEST_CONTENT_QUEST_GLOBAL_VAR_EQUAL",
          "param": [
            7352101,
            1
          ]
        }
      ],
      "guide": {
        "guideScene": 3,
        "guideStyle": "QUEST_GUIDE_STYLE_TARGET",
        "guideLayer": "QUEST_GUIDE_LAYER_SCENE"
      },
      "showGuide": "QUEST_GUIDE_ITEM_DISABLE",
      "guideHint": {
        "param1": ""
      },
      "isRewind": true,
      "versionBegin": "",
      "versionEnd": ""
    },
    {
      "subId": 7352403,
      "mainId": 73524,
      "order": 3,
      "descTextMapHash": 150750420,
      "GMKDJFPEFFF": [
        330208
      ],
      "finishCond": [
        {
          "KPGKDHAFHFE": "QUEST_CONTENT_COMPLETE_TALK",
          "param": [
            7352402,
            0
          ]
        }
      ],
      "failCond": [
        {
          "KPGKDHAFHFE": "QUEST_CONTENT_COMPLETE_TALK",
          "param": [
            7352403,
            0
          ]
        }
      ],
      "guide": {
        "KPGKDHAFHFE": "QUEST_GUIDE_NPC",
        "param": [
          "1064"
        ],
        "guideScene": 3,
        "guideStyle": "QUEST_GUIDE_STYLE_TARGET",
        "guideLayer": "QUEST_GUIDE_LAYER_SCENE"
      },
      "guideHint": {
        "param1": ""
      },
      "finishParent": true,
      "isRewind": true,
      "versionBegin": "",
      "versionEnd": ""
    },
    {
      "subId": 7352404,
      "mainId": 73524,
      "order": 6,
      "showType": "QUEST_HIDDEN",
      "guide": {},
      "guideHint": {
        "param1": ""
      },
      "versionBegin": "",
      "versionEnd": ""
    },
    {
      "subId": 7352405,
      "mainId": 73524,
      "order": 4,
      "descTextMapHash": 3391276820,
      "finishCond": [
        {
          "KPGKDHAFHFE": "QUEST_CONTENT_FINISH_PLOT",
          "param": [
            7352405,
            0
          ]
        }
      ],
      "guide": {
        "KPGKDHAFHFE": "QUEST_GUIDE_LOCATION",
        "param": [
          "Q1300711_N1005"
        ],
        "guideScene": 3,
        "guideStyle": "QUEST_GUIDE_STYLE_POINT",
        "guideLayer": "QUEST_GUIDE_LAYER_SCENE"
      },
      "guideHint": {
        "param1": ""
      },
      "isRewind": true,
      "versionBegin": "",
      "versionEnd": ""
    },
    {
      "subId": 7352406,
      "mainId": 73524,
      "order": 5,
      "descTextMapHash": 3610824236,
      "GMKDJFPEFFF": [
        330208
      ],
      "finishCond": [
        {
          "KPGKDHAFHFE": "QUEST_CONTENT_COMPLETE_TALK",
          "param": [
            7352404,
            0
          ]
        }
      ],
      "guide": {
        "KPGKDHAFHFE": "QUEST_GUIDE_NPC",
        "param": [
          "1064"
        ],
        "guideScene": 3,
        "guideStyle": "QUEST_GUIDE_STYLE_TARGET",
        "guideLayer": "QUEST_GUIDE_LAYER_SCENE"
      },
      "guideHint": {
        "param1": ""
      },
      "finishParent": true,
      "isRewind": true,
      "versionBegin": "",
      "versionEnd": ""
    }
  ],
  "talks": [
    {
      "id": 7352401,
      "beginWay": "TALK_BEGIN_MANUAL",
      "beginCond": [
        {
          "type": "QUEST_COND_STATE_EQUAL",
          "_param": [
            "7352403",
            "2"
          ]
        }
      ],
      "priority": 5,
      "nextTalks": [
        7352402,
        7352403
      ],
      "initDialog": 401060101,
      "npcId": [
        1064
      ],
      "performCfg": "QuestDialogue/EQ/AkaFes_40106/Q7352401",
      "heroTalk": "TALK_HERO_MAIN",
      "questId": 73524,
      "assetIndex": 15810674146387792642,
      "prePerformCfg": "",
      "PLPFOOINAAJ": [
        "[3_330201500:-409.637,280.711,2742.165,0.000,55.459,0.000]",
        "[3_330201505:-425.065,280.711,2746.681]"
      ]
    },
    {
      "id": 7352402,
      "beginCond": [
        {
          "type": "QUEST_COND_STATE_EQUAL",
          "_param": [
            "7352403",
            "2"
          ]
        }
      ],
      "priority": 5,
      "initDialog": 401060107,
      "npcId": [
        1064
      ],
      "performCfg": "QuestDialogue/EQ/AkaFes_40106/Q7352402",
      "heroTalk": "TALK_HERO_MAIN",
      "questId": 73524,
      "assetIndex": 8876181724871472421,
      "prePerformCfg": ""
    },
    {
      "id": 7352403,
      "beginCond": [
        {
          "type": "QUEST_COND_STATE_EQUAL",
          "_param": [
            "7352403",
            "2"
          ]
        }
      ],
      "priority": 5,
      "initDialog": 401060116,
      "npcId": [
        1064
      ],
      "performCfg": "QuestDialogue/EQ/AkaFes_40106/Q7352403",
      "heroTalk": "TALK_HERO_MAIN",
      "questId": 73524,
      "assetIndex": 13175443921006586800,
      "prePerformCfg": ""
    },
    {
      "id": 7352404,
      "beginWay": "TALK_BEGIN_MANUAL",
      "beginCond": [
        {
          "type": "QUEST_COND_STATE_EQUAL",
          "_param": [
            "7352406",
            "2"
          ]
        }
      ],
      "priority": 5,
      "initDialog": 401060201,
      "npcId": [
        1064,
        1053
      ],
      "performCfg": "QuestDialogue/EQ/AkaFes_40106/Q7352404",
      "heroTalk": "TALK_HERO_MAIN",
      "questId": 73524,
      "assetIndex": 15467043032786346425,
      "prePerformCfg": ""
    }
  ],
  "preloadLuaList": [
    10707950085686915561
  ],
  "forcePreloadLuaList": [
    17950231956979352213
  ],
  "freeStyleDic": {
    "1064": [
      1170
    ]
  },
  "dialogList": [
    {
      "id": 735240301,
      "talkRole": {
        "_id": ""
      },
      "talkContentTextMapHash": 3746542738,
      "talkAssetPath": "",
      "talkAssetPathAlter": "",
      "talkAudioName": "",
      "actionBefore": "",
      "actionWhile": "",
      "actionAfter": "",
      "optionIcon": "",
      "iconPath": ""
    }
  ]
}