{
  "id": 73660,
  "KPGKDHAFHFE": "WQ",
  "mainQuestTag": "MAINQUEST_TAG_REPUTATION",
  "titleTextMapHash": 3448307791,
  "descTextMapHash": 1195212446,
  "luaPath": "Actor/Quest/WQ73660",
  "subQuests": [
    {
      "subId": 7366001,
      "mainId": 73660,
      "order": 1,
      "descTextMapHash": 2420867628,
      "finishCond": [
        {
          "KPGKDHAFHFE": "QUEST_CONTENT_FINISH_ITEM_GIVING",
          "param": [
            7366001,
            0
          ]
        }
      ],
      "guide": {
        "KPGKDHAFHFE": "QUEST_GUIDE_NPC",
        "param": [
          "4094"
        ],
        "guideScene": 3,
        "guideStyle": "QUEST_GUIDE_STYLE_TARGET",
        "guideLayer": "QUEST_GUIDE_LAYER_SCENE"
      },
      "guideHint": {
        "param1": ""
      },
      "isRewind": true,
      "versionBegin": "",
      "versionEnd": ""
    },
    {
      "subId": 7366002,
      "mainId": 73660,
      "order": 2,
      "descTextMapHash": 2839979732,
      "finishCond": [
        {
          "KPGKDHAFHFE": "QUEST_CONTENT_COMPLETE_TALK",
          "param": [
            7366002,
            0
          ]
        }
      ],
      "guide": {
        "KPGKDHAFHFE": "QUEST_GUIDE_NPC",
        "param": [
          "4094"
        ],
        "guideScene": 3,
        "guideStyle": "QUEST_GUIDE_STYLE_TARGET",
        "guideLayer": "QUEST_GUIDE_LAYER_SCENE"
      },
      "guideHint": {
        "param1": ""
      },
      "finishParent": true,
      "isRewind": true,
      "versionBegin": "",
      "versionEnd": ""
    }
  ],
  "talks": [
    {
      "id": 7366001,
      "beginWay": "TALK_BEGIN_MANUAL",
      "beginCondComb": "LOGIC_AND",
      "beginCond": [
        {
          "type": "QUEST_COND_STATE_EQUAL",
          "_param": [
            "7366001",
            "2"
          ]
        },
        {
          "type": "QUEST_COND_ITEM_GIVING_ACTIVED",
          "_param": [
            "7366001"
          ]
        }
      ],
      "priority": 5,
      "initDialog": 736600107,
      "npcId": [
        4094
      ],
      "performCfg": "",
      "questId": 73660,
      "assetIndex": 15438147477643637233,
      "prePerformCfg": ""
    },
    {
      "id": 7366002,
      "beginWay": "TALK_BEGIN_AUTO",
      "beginCond": [
        {
          "type": "QUEST_COND_STATE_EQUAL",
          "_param": [
            "7366002",
            "2"
          ]
        }
      ],
      "priority": 5,
      "initDialog": 736600201,
      "npcId": [
        4094
      ],
      "performCfg": "",
      "questId": 73660,
      "assetIndex": 8456546627949974552,
      "prePerformCfg": ""
    }
  ]
}