{
  "id": 73678,
  "KPGKDHAFHFE": "WQ",
  "mainQuestTag": "MAINQUEST_TAG_GUIDE",
  "titleTextMapHash": 2202833311,
  "descTextMapHash": 3823068038,
  "luaPath": "Actor/Quest/WQ73678",
  "rewardIdList": [
    173678
  ],
  "showRedPoint": true,
  "activityId": 2016,
  "subQuests": [
    {
      "subId": 7367801,
      "mainId": 73678,
      "order": 1,
      "descTextMapHash": 3246938156,
      "finishCond": [
        {
          "KPGKDHAFHFE": "QUEST_CONTENT_COMPLETE_TALK",
          "param": [
            7367801,
            0
          ]
        }
      ],
      "guide": {
        "KPGKDHAFHFE": "QUEST_GUIDE_NPC",
        "param": [
          "30246"
        ],
        "guideScene": 3,
        "guideStyle": "QUEST_GUIDE_STYLE_TARGET",
        "guideLayer": "QUEST_GUIDE_LAYER_SCENE"
      },
      "guideHint": {
        "param1": ""
      },
      "isRewind": true,
      "versionBegin": "",
      "versionEnd": ""
    },
    {
      "subId": 7367802,
      "mainId": 73678,
      "order": 2,
      "descTextMapHash": 2514775268,
      "stepDescTextMapHash": 801076973,
      "finishCond": [
        {
          "KPGKDHAFHFE": "QUEST_CONTENT_ACTIVITY_TRIGGER_UPDATE",
          "param": [
            2016,
            102
          ],
          "count": 1
        }
      ],
      "guide": {
        "KPGKDHAFHFE": "QUEST_GUIDE_NPC",
        "param": [
          "30246"
        ],
        "guideScene": 3,
        "guideStyle": "QUEST_GUIDE_STYLE_TARGET",
        "guideLayer": "QUEST_GUIDE_LAYER_SCENE"
      },
      "guideHint": {
        "param1": ""
      },
      "finishParent": true,
      "isRewind": true,
      "versionBegin": "",
      "versionEnd": ""
    }
  ],
  "talks": [
    {
      "id": 7367801,
      "beginWay": "TALK_BEGIN_MANUAL",
      "beginCondComb": "LOGIC_AND",
      "beginCond": [
        {
          "type": "QUEST_COND_STATE_EQUAL",
          "_param": [
            "7367801",
            "2"
          ]
        },
        {
          "type": "QUEST_COND_ACTIVITY_CLIENT_COND",
          "_param": [
            "2016",
            "2016016",
            "1"
          ]
        }
      ],
      "priority": 5,
      "initDialog": 736780101,
      "npcId": [
        30246
      ],
      "performCfg": "QuestDialogue/WQ/Mengde_73678/Q7367801",
      "heroTalk": "TALK_HERO_MAIN",
      "questId": 73678,
      "assetIndex": 11659271575480324253,
      "prePerformCfg": ""
    }
  ],
  "freeStyleDic": {
    "30246": [
      1170
    ],
    "30247": [
      1190
    ]
  }
}