{
  "id": 73673,
  "KPGKDHAFHFE": "WQ",
  "titleTextMapHash": 643681247,
  "descTextMapHash": 4073812534,
  "luaPath": "Actor/Quest/WQ73673",
  "rewardIdList": [
    173673
  ],
  "showRedPoint": true,
  "subQuests": [
    {
      "subId": 7367301,
      "mainId": 73673,
      "order": 1,
      "descTextMapHash": 97835636,
      "finishCond": [
        {
          "KPGKDHAFHFE": "QUEST_CONTENT_COMPLETE_TALK",
          "param": [
            7367301,
            0
          ]
        }
      ],
      "guide": {
        "KPGKDHAFHFE": "QUEST_GUIDE_NPC",
        "param": [
          "4070"
        ],
        "guideScene": 3,
        "guideStyle": "QUEST_GUIDE_STYLE_START"
      },
      "guideHint": {
        "param1": ""
      },
      "isRewind": true,
      "versionBegin": "",
      "versionEnd": ""
    },
    {
      "subId": 7367302,
      "mainId": 73673,
      "order": 2,
      "descTextMapHash": 3351159756,
      "banType": "BAN_GROUP_TRANSPORT_MAP",
      "finishCond": [
        {
          "KPGKDHAFHFE": "QUEST_CONTENT_COMPLETE_TALK",
          "param": [
            7367302,
            0
          ]
        }
      ],
      "guide": {
        "KPGKDHAFHFE": "QUEST_GUIDE_NPC",
        "param": [
          "4070"
        ],
        "guideScene": 3
      },
      "guideHint": {
        "param1": ""
      },
      "finishParent": true,
      "versionBegin": "",
      "versionEnd": ""
    }
  ],
  "talks": [
    {
      "id": 7367301,
      "beginWay": "TALK_BEGIN_MANUAL",
      "beginCond": [
        {
          "type": "QUEST_COND_STATE_EQUAL",
          "_param": [
            "7367301",
            "2"
          ]
        }
      ],
      "priority": 8,
      "initDialog": 736730101,
      "npcId": [
        4070
      ],
      "performCfg": "",
      "heroTalk": "TALK_HERO_MAIN",
      "questId": 73673,
      "assetIndex": 5720267300474469901,
      "prePerformCfg": "",
      "freeStyleList": [
        9000
      ]
    },
    {
      "id": 7367302,
      "beginWay": "TALK_BEGIN_MANUAL",
      "beginCond": [
        {
          "type": "QUEST_COND_STATE_EQUAL",
          "_param": [
            "7367302",
            "2"
          ]
        }
      ],
      "priority": 8,
      "initDialog": 736730201,
      "npcId": [
        4070
      ],
      "performCfg": "",
      "heroTalk": "TALK_HERO_MAIN",
      "questId": 73673,
      "assetIndex": 6557999623359721084,
      "prePerformCfg": ""
    }
  ],
  "preloadLuaList": [
    9774698743532760232
  ],
  "forcePreloadLuaList": [
    11370675767132500744
  ]
}