{
  "id": 73685,
  "KPGKDHAFHFE": "WQ",
  "titleTextMapHash": 2959886015,
  "descTextMapHash": 464290622,
  "luaPath": "",
  "showType": "QUEST_HIDDEN",
  "activityId": 5096,
  "subQuests": [
    {
      "subId": 7368501,
      "mainId": 73685,
      "order": 1,
      "descTextMapHash": 101402924,
      "showType": "QUEST_HIDDEN",
      "finishCond": [
        {
          "KPGKDHAFHFE": "QUEST_CONTENT_QUEST_STATE_EQUAL",
          "param": [
            7367601,
            2
          ]
        },
        {
          "KPGKDHAFHFE": "QUEST_CONTENT_QUEST_STATE_EQUAL",
          "param": [
            7367601,
            3
          ]
        }
      ],
      "guide": {},
      "guideHint": {
        "param1": ""
      },
      "finishParent": true,
      "isRewind": true,
      "finishExec": [
        {
          "KPGKDHAFHFE": "QUEST_EXEC_UNREGISTER_DYNAMIC_GROUP",
          "param": [
            "133303650",
            "0"
          ]
        }
      ],
      "versionBegin": "",
      "versionEnd": ""
    }
  ]
}