{
  "id": 73915,
  "KPGKDHAFHFE": "WQ",
  "titleTextMapHash": 1549225383,
  "descTextMapHash": 2220155710,
  "luaPath": "",
  "rewardIdList": [
    554039
  ],
  "showType": "QUEST_HIDDEN",
  "subQuests": [
    {
      "subId": 7391501,
      "mainId": 73915,
      "order": 1,
      "showType": "QUEST_HIDDEN",
      "finishCond": [
        {
          "KPGKDHAFHFE": "QUEST_CONTENT_COMPLETE_TALK",
          "param": [
            7391501,
            0
          ]
        }
      ],
      "guide": {},
      "guideHint": {
        "param1": ""
      },
      "finishParent": true,
      "versionBegin": "",
      "versionEnd": ""
    }
  ]
}