{
  "id": 73914,
  "KPGKDHAFHFE": "WQ",
  "titleTextMapHash": 4290393143,
  "descTextMapHash": 2383889926,
  "luaPath": "",
  "rewardIdList": [
    554038
  ],
  "showType": "QUEST_HIDDEN",
  "subQuests": [
    {
      "subId": 7391401,
      "mainId": 73914,
      "order": 1,
      "showType": "QUEST_HIDDEN",
      "finishCond": [
        {
          "KPGKDHAFHFE": "QUEST_CONTENT_COMPLETE_TALK",
          "param": [
            7391401,
            0
          ]
        }
      ],
      "guide": {},
      "guideHint": {
        "param1": ""
      },
      "finishParent": true,
      "versionBegin": "",
      "versionEnd": ""
    }
  ]
}