{
  "id": 73910,
  "KPGKDHAFHFE": "WQ",
  "titleTextMapHash": 134125095,
  "descTextMapHash": 1760389158,
  "luaPath": "",
  "rewardIdList": [
    554034
  ],
  "showType": "QUEST_HIDDEN",
  "subQuests": [
    {
      "subId": 7391001,
      "mainId": 73910,
      "order": 1,
      "showType": "QUEST_HIDDEN",
      "finishCond": [
        {
          "KPGKDHAFHFE": "QUEST_CONTENT_COMPLETE_TALK",
          "param": [
            7391001,
            0
          ]
        }
      ],
      "guide": {},
      "guideHint": {
        "param1": ""
      },
      "finishParent": true,
      "versionBegin": "",
      "versionEnd": ""
    }
  ]
}