{
  "id": 73939,
  "KPGKDHAFHFE": "WQ",
  "titleTextMapHash": 871408719,
  "descTextMapHash": 4125857134,
  "luaPath": "",
  "rewardIdList": [
    554021
  ],
  "showType": "QUEST_HIDDEN",
  "subQuests": [
    {
      "subId": 7393901,
      "mainId": 73939,
      "order": 1,
      "showType": "QUEST_HIDDEN",
      "finishCond": [
        {
          "KPGKDHAFHFE": "QUEST_CONTENT_COMPLETE_TALK",
          "param": [
            7393901,
            0
          ]
        }
      ],
      "guide": {},
      "guideHint": {
        "param1": ""
      },
      "finishParent": true,
      "versionBegin": "",
      "versionEnd": ""
    }
  ]
}