{
  "id": 73941,
  "KPGKDHAFHFE": "WQ",
  "titleTextMapHash": 3088570175,
  "descTextMapHash": 284232302,
  "luaPath": "",
  "rewardIdList": [
    554023
  ],
  "showType": "QUEST_HIDDEN",
  "subQuests": [
    {
      "subId": 7394101,
      "mainId": 73941,
      "order": 1,
      "showType": "QUEST_HIDDEN",
      "finishCond": [
        {
          "KPGKDHAFHFE": "QUEST_CONTENT_COMPLETE_TALK",
          "param": [
            7394101,
            0
          ]
        }
      ],
      "guide": {},
      "guideHint": {
        "param1": ""
      },
      "finishParent": true,
      "versionBegin": "",
      "versionEnd": ""
    }
  ]
}