{
  "id": 73957,
  "KPGKDHAFHFE": "WQ",
  "titleTextMapHash": 3721726199,
  "descTextMapHash": 4049498886,
  "luaPath": "",
  "rewardIdList": [
    554058
  ],
  "showType": "QUEST_HIDDEN",
  "subQuests": [
    {
      "subId": 7395701,
      "mainId": 73957,
      "order": 1,
      "showType": "QUEST_HIDDEN",
      "finishCond": [
        {
          "KPGKDHAFHFE": "QUEST_CONTENT_COMPLETE_TALK",
          "param": [
            7395701,
            0
          ]
        }
      ],
      "guide": {},
      "guideHint": {
        "param1": ""
      },
      "finishParent": true,
      "versionBegin": "",
      "versionEnd": ""
    }
  ]
}