{
  "id": 73962,
  "KPGKDHAFHFE": "WQ",
  "titleTextMapHash": 1720236527,
  "descTextMapHash": 1483723750,
  "luaPath": "",
  "rewardIdList": [
    554063
  ],
  "showType": "QUEST_HIDDEN",
  "subQuests": [
    {
      "subId": 7396201,
      "mainId": 73962,
      "order": 1,
      "showType": "QUEST_HIDDEN",
      "finishCond": [
        {
          "KPGKDHAFHFE": "QUEST_CONTENT_COMPLETE_TALK",
          "param": [
            7396201,
            0
          ]
        }
      ],
      "guide": {},
      "guideHint": {
        "param1": ""
      },
      "finishParent": true,
      "versionBegin": "",
      "versionEnd": ""
    }
  ]
}