{
  "id": 74015,
  "KPGKDHAFHFE": "WQ",
  "activeMode": "PLAY_MODE_ALL",
  "titleTextMapHash": 3400910311,
  "descTextMapHash": 3431615998,
  "luaPath": "Actor/Quest/WQ74015",
  "rewardIdList": [
    174015
  ],
  "subQuests": [
    {
      "subId": 7401501,
      "mainId": 74015,
      "order": 1,
      "showType": "QUEST_HIDDEN",
      "finishCond": [
        {
          "KPGKDHAFHFE": "QUEST_CONTENT_LUA_NOTIFY",
          "param": [
            0,
            0
          ],
          "count": 1
        }
      ],
      "guide": {},
      "showGuide": "QUEST_GUIDE_ITEM_DISABLE",
      "guideHint": {
        "param1": ""
      },
      "isRewind": true,
      "finishExec": [
        {
          "KPGKDHAFHFE": "QUEST_EXEC_NOTIFY_GROUP_LUA",
          "param": [
            "3",
            "133403338"
          ]
        },
        {
          "KPGKDHAFHFE": "QUEST_EXEC_NOTIFY_GROUP_LUA",
          "param": [
            "3",
            "133403193"
          ]
        },
        {
          "KPGKDHAFHFE": "QUEST_EXEC_NOTIFY_GROUP_LUA",
          "param": [
            "3",
            "133403119"
          ]
        },
        {
          "KPGKDHAFHFE": "QUEST_EXEC_NOTIFY_GROUP_LUA",
          "param": [
            "3",
            "133403120"
          ]
        }
      ],
      "versionBegin": "",
      "versionEnd": ""
    },
    {
      "subId": 7401502,
      "mainId": 74015,
      "order": 2,
      "descTextMapHash": 782343636,
      "finishCond": [
        {
          "KPGKDHAFHFE": "QUEST_CONTENT_COMPLETE_TALK",
          "param": [
            7401601,
            0
          ]
        },
        {
          "KPGKDHAFHFE": "QUEST_CONTENT_COMPLETE_TALK",
          "param": [
            7401602,
            0
          ]
        },
        {
          "KPGKDHAFHFE": "QUEST_CONTENT_COMPLETE_TALK",
          "param": [
            7401603,
            0
          ]
        },
        {
          "KPGKDHAFHFE": "QUEST_CONTENT_COMPLETE_TALK",
          "param": [
            7401604,
            0
          ]
        },
        {
          "KPGKDHAFHFE": "QUEST_CONTENT_COMPLETE_TALK",
          "param": [
            7401605,
            0
          ]
        }
      ],
      "guide": {
        "KPGKDHAFHFE": "QUEST_GUIDE_LOCATION",
        "autoGuide": "QUEST_GUIDE_AUTO_ENABLE",
        "param": [
          "Q7401502_N21035",
          "0"
        ],
        "guideScene": 3,
        "guideStyle": "QUEST_GUIDE_STYLE_POINT",
        "guideLayer": "QUEST_GUIDE_LAYER_SCENE"
      },
      "guideHint": {
        "param1": ""
      },
      "isRewind": true,
      "versionBegin": "",
      "versionEnd": ""
    },
    {
      "subId": 7401503,
      "mainId": 74015,
      "order": 4,
      "descTextMapHash": 3992221924,
      "guideTipsTextMapHash": 922127318,
      "finishCond": [
        {
          "KPGKDHAFHFE": "QUEST_CONTENT_LUA_NOTIFY",
          "param": [
            0,
            0
          ],
          "count": 1
        }
      ],
      "guide": {
        "KPGKDHAFHFE": "QUEST_GUIDE_LOCATION",
        "autoGuide": "QUEST_GUIDE_AUTO_ENABLE",
        "param": [
          "Q7401503_guide",
          "20"
        ],
        "guideScene": 3,
        "guideStyle": "QUEST_GUIDE_STYLE_POINT",
        "guideLayer": "QUEST_GUIDE_LAYER_SCENE"
      },
      "guideHint": {
        "param1": ""
      },
      "isRewind": true,
      "versionBegin": "",
      "versionEnd": ""
    },
    {
      "subId": 7401504,
      "mainId": 74015,
      "order": 3,
      "descTextMapHash": 3888116740,
      "finishCond": [
        {
          "KPGKDHAFHFE": "QUEST_CONTENT_COMPLETE_TALK",
          "param": [
            7401503,
            0
          ]
        }
      ],
      "guide": {
        "KPGKDHAFHFE": "QUEST_GUIDE_NPC",
        "autoGuide": "QUEST_GUIDE_AUTO_ENABLE",
        "param": [
          "21035"
        ],
        "guideScene": 3,
        "guideStyle": "QUEST_GUIDE_STYLE_TARGET",
        "guideLayer": "QUEST_GUIDE_LAYER_SCENE"
      },
      "guideHint": {
        "param1": ""
      },
      "isRewind": true,
      "versionBegin": "",
      "versionEnd": ""
    },
    {
      "subId": 7401505,
      "mainId": 74015,
      "order": 6,
      "descTextMapHash": 3248189092,
      "finishCond": [
        {
          "KPGKDHAFHFE": "QUEST_CONTENT_COMPLETE_TALK",
          "param": [
            7401606,
            0
          ]
        },
        {
          "KPGKDHAFHFE": "QUEST_CONTENT_COMPLETE_TALK",
          "param": [
            7401607,
            0
          ]
        },
        {
          "KPGKDHAFHFE": "QUEST_CONTENT_COMPLETE_TALK",
          "param": [
            7401608,
            0
          ]
        },
        {
          "KPGKDHAFHFE": "QUEST_CONTENT_COMPLETE_TALK",
          "param": [
            7401609,
            0
          ]
        },
        {
          "KPGKDHAFHFE": "QUEST_CONTENT_COMPLETE_TALK",
          "param": [
            7401610,
            0
          ]
        }
      ],
      "guide": {
        "KPGKDHAFHFE": "QUEST_GUIDE_NPC",
        "autoGuide": "QUEST_GUIDE_AUTO_ENABLE",
        "param": [
          "21035"
        ],
        "guideScene": 3,
        "guideStyle": "QUEST_GUIDE_STYLE_TARGET",
        "guideLayer": "QUEST_GUIDE_LAYER_SCENE"
      },
      "guideHint": {
        "param1": ""
      },
      "finishParent": true,
      "isRewind": true,
      "finishExec": [
        {
          "KPGKDHAFHFE": "QUEST_EXEC_INC_QUEST_GLOBAL_VAR",
          "param": [
            "74016",
            "1"
          ]
        },
        {
          "KPGKDHAFHFE": "QUEST_EXEC_REFRESH_GROUP_SUITE",
          "param": [
            "3",
            "133401479,2"
          ]
        }
      ],
      "versionBegin": "",
      "versionEnd": ""
    },
    {
      "subId": 7401506,
      "mainId": 74015,
      "order": 5,
      "showType": "QUEST_HIDDEN",
      "finishCond": [
        {
          "KPGKDHAFHFE": "QUEST_CONTENT_COMPLETE_TALK",
          "param": [
            7401606,
            0
          ]
        },
        {
          "KPGKDHAFHFE": "QUEST_CONTENT_COMPLETE_TALK",
          "param": [
            7401607,
            0
          ]
        },
        {
          "KPGKDHAFHFE": "QUEST_CONTENT_COMPLETE_TALK",
          "param": [
            7401608,
            0
          ]
        },
        {
          "KPGKDHAFHFE": "QUEST_CONTENT_COMPLETE_TALK",
          "param": [
            7401609,
            0
          ]
        },
        {
          "KPGKDHAFHFE": "QUEST_CONTENT_COMPLETE_TALK",
          "param": [
            7401610,
            0
          ]
        }
      ],
      "guide": {},
      "guideHint": {
        "param1": ""
      },
      "isRewind": true,
      "finishExec": [
        {
          "KPGKDHAFHFE": "QUEST_EXEC_NOTIFY_GROUP_LUA",
          "param": [
            "3",
            "133403338"
          ]
        },
        {
          "KPGKDHAFHFE": "QUEST_EXEC_NOTIFY_GROUP_LUA",
          "param": [
            "3",
            "133403193"
          ]
        },
        {
          "KPGKDHAFHFE": "QUEST_EXEC_NOTIFY_GROUP_LUA",
          "param": [
            "3",
            "133403119"
          ]
        },
        {
          "KPGKDHAFHFE": "QUEST_EXEC_NOTIFY_GROUP_LUA",
          "param": [
            "3",
            "133403120"
          ]
        },
        {
          "KPGKDHAFHFE": "QUEST_EXEC_REFRESH_GROUP_SUITE",
          "param": [
            "3",
            "133401775,2"
          ]
        }
      ],
      "versionBegin": "",
      "versionEnd": ""
    },
    {
      "subId": 7401507,
      "mainId": 74015,
      "order": 7,
      "showType": "QUEST_HIDDEN",
      "finishCond": [
        {
          "KPGKDHAFHFE": "QUEST_CONTENT_FINISH_PLOT",
          "param": [
            7401507,
            0
          ]
        }
      ],
      "guide": {},
      "guideHint": {
        "param1": ""
      },
      "finishExec": [
        {
          "KPGKDHAFHFE": "QUEST_EXEC_REFRESH_GROUP_SUITE",
          "param": [
            "3",
            "133401479,2"
          ]
        }
      ],
      "versionBegin": "",
      "versionEnd": ""
    }
  ],
  "talks": [
    {
      "id": 7401502,
      "beginWay": "TALK_BEGIN_MANUAL",
      "activeMode": "PLAY_MODE_HOST",
      "beginCond": [
        {
          "type": "QUEST_COND_STATE_EQUAL",
          "_param": [
            "7401503",
            "2"
          ]
        }
      ],
      "priority": 5,
      "initDialog": 740150201,
      "npcId": [
        21035
      ],
      "performCfg": "QuestDialogue/WQ/Fontaine_74015/Q7401502",
      "heroTalk": "TALK_HERO_MAIN",
      "questId": 74015,
      "assetIndex": 3260654756137715110,
      "prePerformCfg": ""
    },
    {
      "id": 7401503,
      "beginWay": "TALK_BEGIN_MANUAL",
      "activeMode": "PLAY_MODE_HOST",
      "beginCond": [
        {
          "type": "QUEST_COND_STATE_EQUAL",
          "_param": [
            "7401504",
            "2"
          ]
        }
      ],
      "priority": 5,
      "initDialog": 740150301,
      "npcId": [
        21035
      ],
      "performCfg": "QuestDialogue/WQ/Fontaine_74015/Q7401503",
      "heroTalk": "TALK_HERO_MAIN",
      "questId": 74015,
      "assetIndex": 7184403737237342227,
      "prePerformCfg": ""
    },
    {
      "id": 7401601,
      "beginWay": "TALK_BEGIN_AUTO",
      "activeMode": "PLAY_MODE_HOST",
      "beginCondComb": "LOGIC_AND",
      "beginCond": [
        {
          "type": "QUEST_COND_STATE_EQUAL",
          "_param": [
            "7401502",
            "2"
          ]
        },
        {
          "type": "QUEST_COND_QUEST_GLOBAL_VAR_EQUAL",
          "_param": [
            "74016",
            "0"
          ]
        }
      ],
      "priority": 5,
      "nextTalks": [
        7401503
      ],
      "initDialog": 740160101,
      "npcId": [
        21035,
        21066
      ],
      "performCfg": "QuestDialogue/WQ/Fontaine_74016/Q7401601",
      "heroTalk": "TALK_HERO_MAIN",
      "questId": 74015,
      "assetIndex": 11899479653703079965,
      "prePerformCfg": ""
    },
    {
      "id": 7401602,
      "beginWay": "TALK_BEGIN_MANUAL",
      "activeMode": "PLAY_MODE_HOST",
      "beginCondComb": "LOGIC_AND",
      "beginCond": [
        {
          "type": "QUEST_COND_STATE_EQUAL",
          "_param": [
            "7401502",
            "2"
          ]
        },
        {
          "type": "QUEST_COND_QUEST_GLOBAL_VAR_EQUAL",
          "_param": [
            "74016",
            "1"
          ]
        }
      ],
      "priority": 5,
      "nextTalks": [
        7401503
      ],
      "initDialog": 740160201,
      "npcId": [
        21035
      ],
      "performCfg": "QuestDialogue/WQ/Fontaine_74016/Q7401602",
      "heroTalk": "TALK_HERO_MAIN",
      "questId": 74015,
      "assetIndex": 4771903161154490679,
      "prePerformCfg": ""
    },
    {
      "id": 7401603,
      "beginWay": "TALK_BEGIN_MANUAL",
      "activeMode": "PLAY_MODE_HOST",
      "beginCondComb": "LOGIC_AND",
      "beginCond": [
        {
          "type": "QUEST_COND_STATE_EQUAL",
          "_param": [
            "7401502",
            "2"
          ]
        },
        {
          "type": "QUEST_COND_QUEST_GLOBAL_VAR_EQUAL",
          "_param": [
            "74016",
            "2"
          ]
        }
      ],
      "priority": 5,
      "nextTalks": [
        7401503
      ],
      "initDialog": 740160301,
      "npcId": [
        21035
      ],
      "performCfg": "QuestDialogue/WQ/Fontaine_74016/Q7401603",
      "heroTalk": "TALK_HERO_MAIN",
      "questId": 74015,
      "assetIndex": 7207000316145605687,
      "prePerformCfg": ""
    },
    {
      "id": 7401604,
      "beginWay": "TALK_BEGIN_MANUAL",
      "activeMode": "PLAY_MODE_HOST",
      "beginCondComb": "LOGIC_AND",
      "beginCond": [
        {
          "type": "QUEST_COND_STATE_EQUAL",
          "_param": [
            "7401502",
            "2"
          ]
        },
        {
          "type": "QUEST_COND_QUEST_GLOBAL_VAR_EQUAL",
          "_param": [
            "74016",
            "3"
          ]
        }
      ],
      "priority": 5,
      "nextTalks": [
        7401503
      ],
      "initDialog": 740160401,
      "npcId": [
        21035
      ],
      "performCfg": "QuestDialogue/WQ/Fontaine_74016/Q7401604",
      "heroTalk": "TALK_HERO_MAIN",
      "questId": 74015,
      "assetIndex": 10476776807397920603,
      "prePerformCfg": ""
    },
    {
      "id": 7401605,
      "beginWay": "TALK_BEGIN_MANUAL",
      "activeMode": "PLAY_MODE_HOST",
      "beginCondComb": "LOGIC_AND",
      "beginCond": [
        {
          "type": "QUEST_COND_STATE_EQUAL",
          "_param": [
            "7401502",
            "2"
          ]
        },
        {
          "type": "QUEST_COND_QUEST_GLOBAL_VAR_EQUAL",
          "_param": [
            "74016",
            "4"
          ]
        }
      ],
      "priority": 5,
      "nextTalks": [
        7401503
      ],
      "initDialog": 740160501,
      "npcId": [
        21035
      ],
      "performCfg": "QuestDialogue/WQ/Fontaine_74016/Q7401605",
      "heroTalk": "TALK_HERO_MAIN",
      "questId": 74015,
      "assetIndex": 16440966387148430129,
      "prePerformCfg": ""
    },
    {
      "id": 7401606,
      "beginWay": "TALK_BEGIN_MANUAL",
      "activeMode": "PLAY_MODE_HOST",
      "beginCondComb": "LOGIC_AND",
      "beginCond": [
        {
          "type": "QUEST_COND_STATE_EQUAL",
          "_param": [
            "7401505",
            "2"
          ]
        },
        {
          "type": "QUEST_COND_QUEST_GLOBAL_VAR_EQUAL",
          "_param": [
            "74016",
            "0"
          ]
        }
      ],
      "priority": 5,
      "initDialog": 740160601,
      "npcId": [
        21035
      ],
      "performCfg": "QuestDialogue/WQ/Fontaine_74016/Q7401606",
      "heroTalk": "TALK_HERO_MAIN",
      "questId": 74015,
      "assetIndex": 5510272566983906957,
      "prePerformCfg": ""
    },
    {
      "id": 7401607,
      "beginWay": "TALK_BEGIN_MANUAL",
      "activeMode": "PLAY_MODE_HOST",
      "beginCondComb": "LOGIC_AND",
      "beginCond": [
        {
          "type": "QUEST_COND_STATE_EQUAL",
          "_param": [
            "7401505",
            "2"
          ]
        },
        {
          "type": "QUEST_COND_QUEST_GLOBAL_VAR_EQUAL",
          "_param": [
            "74016",
            "1"
          ]
        }
      ],
      "priority": 5,
      "initDialog": 740160701,
      "npcId": [
        21035
      ],
      "performCfg": "QuestDialogue/WQ/Fontaine_74016/Q7401607",
      "heroTalk": "TALK_HERO_MAIN",
      "questId": 74015,
      "assetIndex": 4025828402430244596,
      "prePerformCfg": ""
    },
    {
      "id": 7401608,
      "beginWay": "TALK_BEGIN_MANUAL",
      "activeMode": "PLAY_MODE_HOST",
      "beginCondComb": "LOGIC_AND",
      "beginCond": [
        {
          "type": "QUEST_COND_STATE_EQUAL",
          "_param": [
            "7401505",
            "2"
          ]
        },
        {
          "type": "QUEST_COND_QUEST_GLOBAL_VAR_EQUAL",
          "_param": [
            "74016",
            "2"
          ]
        }
      ],
      "priority": 5,
      "initDialog": 740160801,
      "npcId": [
        21035
      ],
      "performCfg": "QuestDialogue/WQ/Fontaine_74016/Q7401608",
      "heroTalk": "TALK_HERO_MAIN",
      "questId": 74015,
      "assetIndex": 1430238961985273899,
      "prePerformCfg": ""
    },
    {
      "id": 7401609,
      "beginWay": "TALK_BEGIN_MANUAL",
      "activeMode": "PLAY_MODE_HOST",
      "beginCondComb": "LOGIC_AND",
      "beginCond": [
        {
          "type": "QUEST_COND_STATE_EQUAL",
          "_param": [
            "7401505",
            "2"
          ]
        },
        {
          "type": "QUEST_COND_QUEST_GLOBAL_VAR_EQUAL",
          "_param": [
            "74016",
            "3"
          ]
        }
      ],
      "priority": 5,
      "initDialog": 740160901,
      "npcId": [
        21035
      ],
      "performCfg": "QuestDialogue/WQ/Fontaine_74016/Q7401609",
      "heroTalk": "TALK_HERO_MAIN",
      "questId": 74015,
      "assetIndex": 16134785964924875840,
      "prePerformCfg": ""
    },
    {
      "id": 7401610,
      "beginWay": "TALK_BEGIN_MANUAL",
      "activeMode": "PLAY_MODE_HOST",
      "beginCondComb": "LOGIC_AND",
      "beginCond": [
        {
          "type": "QUEST_COND_STATE_EQUAL",
          "_param": [
            "7401505",
            "2"
          ]
        },
        {
          "type": "QUEST_COND_QUEST_GLOBAL_VAR_EQUAL",
          "_param": [
            "74016",
            "4"
          ]
        }
      ],
      "priority": 5,
      "initDialog": 740161001,
      "npcId": [
        21035
      ],
      "performCfg": "QuestDialogue/WQ/Fontaine_74016/Q7401610",
      "heroTalk": "TALK_HERO_MAIN",
      "questId": 74015,
      "assetIndex": 2084869700469792443,
      "prePerformCfg": ""
    }
  ]
}