{
  "id": 74026,
  "series": 74025,
  "KPGKDHAFHFE": "WQ",
  "mainQuestTag": "MAINQUEST_TAG_RANK_ZERO_WQ",
  "activeMode": "PLAY_MODE_ALL",
  "titleTextMapHash": 2830875655,
  "luaPath": "Actor/Quest/WQ74026",
  "suggestTrackMainQuestList": [
    74028
  ],
  "rewardIdList": [
    174026
  ],
  "chapterId": 10143,
  "subQuests": [
    {
      "subId": 7402601,
      "mainId": 74026,
      "order": 1,
      "descTextMapHash": 734726668,
      "stepDescTextMapHash": 1859607053,
      "GMKDJFPEFFF": [
        340818,
        340819,
        340820,
        340821,
        340822,
        340823
      ],
      "finishCond": [
        {
          "KPGKDHAFHFE": "QUEST_CONTENT_FINISH_PLOT",
          "param": [
            7402601,
            0
          ]
        }
      ],
      "guide": {
        "KPGKDHAFHFE": "QUEST_GUIDE_LOCATION",
        "param": [
          "[3_4505:4946.262,442.011,4677.577]",
          "20"
        ],
        "guideScene": 3,
        "guideStyle": "QUEST_GUIDE_STYLE_TARGET",
        "guideLayer": "QUEST_GUIDE_LAYER_SCENE"
      },
      "guideHint": {
        "param1": ""
      },
      "isRewind": true,
      "finishExec": [
        {
          "KPGKDHAFHFE": "QUEST_EXEC_SET_GAME_TIME",
          "param": [
            "20"
          ]
        }
      ],
      "versionBegin": "",
      "versionEnd": ""
    },
    {
      "subId": 7402602,
      "mainId": 74026,
      "order": 2,
      "descTextMapHash": 1209601236,
      "GMKDJFPEFFF": [
        340818,
        340819,
        340820,
        340821,
        340822,
        340823
      ],
      "finishCond": [
        {
          "KPGKDHAFHFE": "QUEST_CONTENT_COMPLETE_TALK",
          "param": [
            7402602,
            0
          ]
        }
      ],
      "guide": {
        "KPGKDHAFHFE": "QUEST_GUIDE_NPC",
        "param": [
          "21034"
        ],
        "guideScene": 3,
        "guideStyle": "QUEST_GUIDE_STYLE_TARGET",
        "guideLayer": "QUEST_GUIDE_LAYER_SCENE"
      },
      "guideHint": {
        "param1": ""
      },
      "isRewind": true,
      "finishExec": [
        {
          "KPGKDHAFHFE": "QUEST_EXEC_SET_GAME_TIME",
          "param": [
            "22"
          ]
        }
      ],
      "versionBegin": "",
      "versionEnd": ""
    },
    {
      "subId": 7402603,
      "mainId": 74026,
      "order": 3,
      "descTextMapHash": 2641443996,
      "GMKDJFPEFFF": [
        340818,
        340819,
        340820,
        340821,
        340822,
        340823
      ],
      "finishCond": [
        {
          "KPGKDHAFHFE": "QUEST_CONTENT_LUA_NOTIFY",
          "param": [
            0,
            0
          ],
          "count": 1
        }
      ],
      "failCond": [
        {
          "KPGKDHAFHFE": "QUEST_CONTENT_LEAVE_SCENE_RANGE",
          "param": [
            3,
            50
          ]
        }
      ],
      "guide": {
        "KPGKDHAFHFE": "QUEST_GUIDE_LOCATION",
        "param": [
          "[3_4505:4946.262,442.011,4677.577]",
          "30"
        ],
        "guideScene": 3,
        "guideStyle": "QUEST_GUIDE_STYLE_POINT",
        "guideLayer": "QUEST_GUIDE_LAYER_SCENE"
      },
      "guideHint": {
        "param1": ""
      },
      "failExec": [
        {
          "KPGKDHAFHFE": "QUEST_EXEC_UNREGISTER_DYNAMIC_GROUP",
          "param": [
            "133408125",
            "0"
          ]
        },
        {
          "KPGKDHAFHFE": "QUEST_EXEC_ROLLBACK_QUEST",
          "param": [
            "7402602"
          ]
        }
      ],
      "versionBegin": "",
      "versionEnd": ""
    },
    {
      "subId": 7402604,
      "mainId": 74026,
      "order": 5,
      "descTextMapHash": 3346584324,
      "showType": "QUEST_HIDDEN",
      "GMKDJFPEFFF": [
        340818,
        340819,
        340820,
        340821,
        340822,
        340823
      ],
      "finishCond": [
        {
          "KPGKDHAFHFE": "QUEST_CONTENT_COMPLETE_TALK",
          "param": [
            7402604,
            0
          ]
        }
      ],
      "guide": {},
      "guideHint": {
        "param1": ""
      },
      "versionBegin": "",
      "versionEnd": ""
    },
    {
      "subId": 7402605,
      "mainId": 74026,
      "order": 6,
      "descTextMapHash": 433875316,
      "GMKDJFPEFFF": [
        340818,
        340819,
        340820,
        340821,
        340822,
        340823
      ],
      "finishCond": [
        {
          "KPGKDHAFHFE": "QUEST_CONTENT_LUA_NOTIFY",
          "param": [
            0,
            0
          ],
          "count": 1
        }
      ],
      "failCond": [
        {
          "KPGKDHAFHFE": "QUEST_CONTENT_LEAVE_SCENE_RANGE",
          "param": [
            3,
            50
          ]
        }
      ],
      "guide": {
        "KPGKDHAFHFE": "QUEST_GUIDE_LOCATION",
        "param": [
          "[3_4505:4946.262,442.011,4677.577]",
          "30"
        ],
        "guideScene": 3,
        "guideStyle": "QUEST_GUIDE_STYLE_POINT",
        "guideLayer": "QUEST_GUIDE_LAYER_SCENE"
      },
      "guideHint": {
        "param1": ""
      },
      "finishExec": [
        {
          "KPGKDHAFHFE": "QUEST_EXEC_UNREGISTER_DYNAMIC_GROUP",
          "param": [
            "133408126",
            "0"
          ]
        }
      ],
      "failExec": [
        {
          "KPGKDHAFHFE": "QUEST_EXEC_UNREGISTER_DYNAMIC_GROUP",
          "param": [
            "133408126",
            "0"
          ]
        },
        {
          "KPGKDHAFHFE": "QUEST_EXEC_ROLLBACK_QUEST",
          "param": [
            "7402602"
          ]
        }
      ],
      "versionBegin": "",
      "versionEnd": ""
    },
    {
      "subId": 7402606,
      "mainId": 74026,
      "order": 7,
      "descTextMapHash": 1135737100,
      "GMKDJFPEFFF": [
        340818,
        340819,
        340820,
        340821,
        340822,
        340823
      ],
      "finishCond": [
        {
          "KPGKDHAFHFE": "QUEST_CONTENT_COMPLETE_TALK",
          "param": [
            7402606,
            0
          ]
        }
      ],
      "guide": {
        "KPGKDHAFHFE": "QUEST_GUIDE_NPC",
        "param": [
          "21072"
        ],
        "guideScene": 3,
        "guideStyle": "QUEST_GUIDE_STYLE_TARGET",
        "guideLayer": "QUEST_GUIDE_LAYER_SCENE"
      },
      "guideHint": {
        "param1": ""
      },
      "isRewind": true,
      "finishExec": [
        {
          "KPGKDHAFHFE": "QUEST_EXEC_UNREGISTER_DYNAMIC_GROUP",
          "param": [
            "133408853",
            "0"
          ]
        }
      ],
      "versionBegin": "",
      "versionEnd": ""
    },
    {
      "subId": 7402607,
      "mainId": 74026,
      "order": 8,
      "descTextMapHash": 1073981220,
      "stepDescTextMapHash": 2900730437,
      "GMKDJFPEFFF": [
        340818,
        340819,
        340820,
        340821,
        340822,
        340823
      ],
      "finishCond": [
        {
          "KPGKDHAFHFE": "QUEST_CONTENT_COMPLETE_TALK",
          "param": [
            7402607,
            0
          ]
        }
      ],
      "guide": {
        "KPGKDHAFHFE": "QUEST_GUIDE_NPC",
        "param": [
          "5202"
        ],
        "guideScene": 3,
        "guideStyle": "QUEST_GUIDE_STYLE_TARGET",
        "guideLayer": "QUEST_GUIDE_LAYER_SCENE"
      },
      "guideHint": {
        "param1": ""
      },
      "isRewind": true,
      "versionBegin": "",
      "versionEnd": ""
    },
    {
      "subId": 7402608,
      "mainId": 74026,
      "order": 9,
      "descTextMapHash": 4139569004,
      "GMKDJFPEFFF": [
        340818,
        340819,
        340820,
        340821,
        340822,
        340823
      ],
      "finishCond": [
        {
          "KPGKDHAFHFE": "QUEST_CONTENT_FINISH_PLOT",
          "param": [
            7402608,
            0
          ]
        }
      ],
      "guide": {
        "KPGKDHAFHFE": "QUEST_GUIDE_LOCATION",
        "param": [
          "[3_4790:4347.594,158.024,4651.455]"
        ],
        "guideScene": 3,
        "guideStyle": "QUEST_GUIDE_STYLE_POINT",
        "guideLayer": "QUEST_GUIDE_LAYER_SCENE"
      },
      "guideHint": {
        "param1": ""
      },
      "isRewind": true,
      "versionBegin": "",
      "versionEnd": ""
    },
    {
      "subId": 7402609,
      "mainId": 74026,
      "order": 10,
      "descTextMapHash": 2484365620,
      "GMKDJFPEFFF": [
        340818,
        340819,
        340820,
        340821,
        340822,
        340823
      ],
      "finishCond": [
        {
          "KPGKDHAFHFE": "QUEST_CONTENT_FINISH_PLOT",
          "param": [
            7402609,
            0
          ]
        }
      ],
      "guide": {
        "KPGKDHAFHFE": "QUEST_GUIDE_NPC",
        "param": [
          "5248"
        ],
        "guideScene": 3,
        "guideStyle": "QUEST_GUIDE_STYLE_TARGET",
        "guideLayer": "QUEST_GUIDE_LAYER_SCENE"
      },
      "guideHint": {
        "param1": ""
      },
      "isRewind": true,
      "versionBegin": "",
      "versionEnd": ""
    },
    {
      "subId": 7402610,
      "mainId": 74026,
      "order": 11,
      "descTextMapHash": 455543964,
      "GMKDJFPEFFF": [
        340818,
        340819,
        340820,
        340821,
        340822,
        340823
      ],
      "finishCond": [
        {
          "KPGKDHAFHFE": "QUEST_CONTENT_COMPLETE_TALK",
          "param": [
            7402610,
            0
          ]
        },
        {
          "KPGKDHAFHFE": "QUEST_CONTENT_COMPLETE_TALK",
          "param": [
            7402650,
            0
          ]
        }
      ],
      "guide": {
        "KPGKDHAFHFE": "QUEST_GUIDE_NPC",
        "param": [
          "21172"
        ],
        "guideScene": 3,
        "guideStyle": "QUEST_GUIDE_STYLE_TARGET",
        "guideLayer": "QUEST_GUIDE_LAYER_SCENE"
      },
      "guideHint": {
        "param1": ""
      },
      "isRewind": true,
      "versionBegin": "",
      "versionEnd": ""
    },
    {
      "subId": 7402611,
      "mainId": 74026,
      "order": 12,
      "descTextMapHash": 2874450956,
      "GMKDJFPEFFF": [
        340818,
        340819,
        340820,
        340821,
        340822,
        340823
      ],
      "finishCond": [
        {
          "KPGKDHAFHFE": "QUEST_CONTENT_COMPLETE_TALK",
          "param": [
            7402612,
            0
          ]
        },
        {
          "KPGKDHAFHFE": "QUEST_CONTENT_COMPLETE_TALK",
          "param": [
            7402616,
            0
          ]
        }
      ],
      "guide": {
        "KPGKDHAFHFE": "QUEST_GUIDE_LOCATION",
        "param": [
          "[3_4791:4349.040,159.141,4658.206]"
        ],
        "guideScene": 3,
        "guideStyle": "QUEST_GUIDE_STYLE_POINT",
        "guideLayer": "QUEST_GUIDE_LAYER_SCENE"
      },
      "guideHint": {
        "param1": ""
      },
      "isRewind": true,
      "versionBegin": "",
      "versionEnd": ""
    },
    {
      "subId": 7402612,
      "mainId": 74026,
      "order": 14,
      "isMpBlock": true,
      "descTextMapHash": 3115276668,
      "guideTipsTextMapHash": 3639097966,
      "GMKDJFPEFFF": [
        340818,
        340819,
        340820,
        340821,
        340822,
        340823
      ],
      "finishCond": [
        {
          "KPGKDHAFHFE": "QUEST_CONTENT_FINISH_PLOT",
          "param": [
            7402612,
            0
          ]
        }
      ],
      "failCond": [
        {
          "KPGKDHAFHFE": "QUEST_CONTENT_LEAVE_SCENE",
          "param": [
            20188,
            0
          ]
        },
        {
          "KPGKDHAFHFE": "QUEST_CONTENT_ENTER_MY_WORLD",
          "param": [
            3,
            0
          ]
        }
      ],
      "guide": {
        "KPGKDHAFHFE": "QUEST_GUIDE_LOCATION",
        "param": [
          "[20188_6:4434.232,121.865,4689.415]"
        ],
        "guideScene": 20188,
        "guideStyle": "QUEST_GUIDE_STYLE_POINT",
        "guideLayer": "QUEST_GUIDE_LAYER_SCENE"
      },
      "guideHint": {
        "param1": ""
      },
      "isRewind": true,
      "finishExec": [
        {
          "KPGKDHAFHFE": "QUEST_EXEC_SET_QUEST_VAR",
          "param": [
            "0",
            "90",
            "7402612"
          ]
        }
      ],
      "failExec": [
        {
          "KPGKDHAFHFE": "QUEST_EXEC_ROLLBACK_QUEST",
          "param": [
            "7402611"
          ]
        }
      ],
      "versionBegin": "",
      "versionEnd": ""
    },
    {
      "subId": 7402613,
      "mainId": 74026,
      "order": 21,
      "isMpBlock": true,
      "descTextMapHash": 3318505644,
      "guideTipsTextMapHash": 3840353214,
      "GMKDJFPEFFF": [
        340818,
        340819,
        340820,
        340821,
        340822,
        340823
      ],
      "finishCond": [
        {
          "KPGKDHAFHFE": "QUEST_CONTENT_FINISH_PLOT",
          "param": [
            7402613,
            0
          ]
        }
      ],
      "failCond": [
        {
          "KPGKDHAFHFE": "QUEST_CONTENT_LEAVE_SCENE",
          "param": [
            20188,
            0
          ]
        },
        {
          "KPGKDHAFHFE": "QUEST_CONTENT_ENTER_MY_WORLD",
          "param": [
            3,
            0
          ]
        }
      ],
      "guide": {
        "KPGKDHAFHFE": "QUEST_GUIDE_LOCATION",
        "param": [
          "[20188_5:4500.819,6.633,4649.033,0.000,99.303,0.000]"
        ],
        "guideScene": 20188,
        "guideStyle": "QUEST_GUIDE_STYLE_POINT",
        "guideLayer": "QUEST_GUIDE_LAYER_SCENE"
      },
      "guideHint": {
        "param1": ""
      },
      "isRewind": true,
      "finishExec": [
        {
          "KPGKDHAFHFE": "QUEST_EXEC_SET_QUEST_VAR",
          "param": [
            "0",
            "92",
            "7402613"
          ]
        }
      ],
      "failExec": [
        {
          "KPGKDHAFHFE": "QUEST_EXEC_SET_QUEST_VAR",
          "param": [
            "0",
            "2",
            "7402613"
          ]
        },
        {
          "KPGKDHAFHFE": "QUEST_EXEC_ROLLBACK_QUEST",
          "param": [
            "7402629"
          ]
        }
      ],
      "versionBegin": "",
      "versionEnd": ""
    },
    {
      "subId": 7402614,
      "mainId": 74026,
      "order": 25,
      "isMpBlock": true,
      "descTextMapHash": 3740012756,
      "guideTipsTextMapHash": 2923270398,
      "GMKDJFPEFFF": [
        340818,
        340819,
        340820,
        340821,
        340822,
        340823
      ],
      "finishCond": [
        {
          "KPGKDHAFHFE": "QUEST_CONTENT_FINISH_PLOT",
          "param": [
            7402614,
            0
          ]
        }
      ],
      "failCond": [
        {
          "KPGKDHAFHFE": "QUEST_CONTENT_LEAVE_SCENE",
          "param": [
            20188,
            0
          ]
        },
        {
          "KPGKDHAFHFE": "QUEST_CONTENT_ENTER_MY_WORLD",
          "param": [
            3,
            0
          ]
        }
      ],
      "guide": {
        "KPGKDHAFHFE": "QUEST_GUIDE_LOCATION",
        "param": [
          "[20188_7:4539.262,8.801,4648.011]"
        ],
        "guideScene": 20188,
        "guideStyle": "QUEST_GUIDE_STYLE_POINT",
        "guideLayer": "QUEST_GUIDE_LAYER_SCENE"
      },
      "guideHint": {
        "param1": ""
      },
      "failExec": [
        {
          "KPGKDHAFHFE": "QUEST_EXEC_SET_QUEST_VAR",
          "param": [
            "0",
            "3",
            "7402614"
          ]
        },
        {
          "KPGKDHAFHFE": "QUEST_EXEC_ROLLBACK_QUEST",
          "param": [
            "7402631"
          ]
        }
      ],
      "versionBegin": "",
      "versionEnd": ""
    },
    {
      "subId": 7402615,
      "mainId": 74026,
      "order": 28,
      "isMpBlock": true,
      "descTextMapHash": 2641628620,
      "guideTipsTextMapHash": 2099527774,
      "GMKDJFPEFFF": [
        340818,
        340819,
        340820,
        340821,
        340822,
        340823
      ],
      "finishCond": [
        {
          "KPGKDHAFHFE": "QUEST_CONTENT_FINISH_PLOT",
          "param": [
            7402615,
            0
          ]
        }
      ],
      "failCond": [
        {
          "KPGKDHAFHFE": "QUEST_CONTENT_LEAVE_SCENE",
          "param": [
            20188,
            0
          ]
        },
        {
          "KPGKDHAFHFE": "QUEST_CONTENT_ENTER_MY_WORLD",
          "param": [
            3,
            0
          ]
        }
      ],
      "guide": {
        "KPGKDHAFHFE": "QUEST_GUIDE_LOCATION",
        "param": [
          "[20188_8:4540.537,-24.286,4648.269]"
        ],
        "guideScene": 20188,
        "guideStyle": "QUEST_GUIDE_STYLE_POINT",
        "guideLayer": "QUEST_GUIDE_LAYER_SCENE"
      },
      "guideHint": {
        "param1": ""
      },
      "isRewind": true,
      "finishExec": [
        {
          "KPGKDHAFHFE": "QUEST_EXEC_UNREGISTER_DYNAMIC_GROUP",
          "param": [
            "133408129",
            "0"
          ]
        },
        {
          "KPGKDHAFHFE": "QUEST_EXEC_NOTIFY_GROUP_LUA",
          "param": [
            "3",
            "133408319"
          ]
        }
      ],
      "failExec": [
        {
          "KPGKDHAFHFE": "QUEST_EXEC_SET_QUEST_VAR",
          "param": [
            "0",
            "4",
            "7402615"
          ]
        },
        {
          "KPGKDHAFHFE": "QUEST_EXEC_ROLLBACK_QUEST",
          "param": [
            "7402630"
          ]
        }
      ],
      "versionBegin": "",
      "versionEnd": ""
    },
    {
      "subId": 7402616,
      "mainId": 74026,
      "order": 29,
      "descTextMapHash": 601584004,
      "GMKDJFPEFFF": [
        340818,
        340819,
        340820,
        340821,
        340822,
        340823
      ],
      "finishCond": [
        {
          "KPGKDHAFHFE": "QUEST_CONTENT_FINISH_PLOT",
          "param": [
            7402616,
            0
          ]
        }
      ],
      "guide": {
        "KPGKDHAFHFE": "QUEST_GUIDE_LOCATION",
        "param": [
          "[3_4516:4663.356,-45.226,4720.728]"
        ],
        "guideScene": 3,
        "guideStyle": "QUEST_GUIDE_STYLE_POINT",
        "guideLayer": "QUEST_GUIDE_LAYER_SCENE"
      },
      "guideHint": {
        "param1": ""
      },
      "isRewind": true,
      "versionBegin": "",
      "versionEnd": ""
    },
    {
      "subId": 7402617,
      "mainId": 74026,
      "order": 30,
      "descTextMapHash": 3946631596,
      "GMKDJFPEFFF": [
        340818,
        340819,
        340820,
        340821,
        340822,
        340823
      ],
      "finishCond": [
        {
          "KPGKDHAFHFE": "QUEST_CONTENT_FINISH_PLOT",
          "param": [
            7402617,
            0
          ]
        }
      ],
      "guide": {
        "KPGKDHAFHFE": "QUEST_GUIDE_LOCATION",
        "param": [
          "[3_4517:4706.362,-37.083,4665.498]"
        ],
        "guideScene": 3,
        "guideStyle": "QUEST_GUIDE_STYLE_POINT",
        "guideLayer": "QUEST_GUIDE_LAYER_SCENE"
      },
      "guideHint": {
        "param1": ""
      },
      "isRewind": true,
      "versionBegin": "",
      "versionEnd": ""
    },
    {
      "subId": 7402618,
      "mainId": 74026,
      "order": 31,
      "descTextMapHash": 61689884,
      "GMKDJFPEFFF": [
        340818,
        340819,
        340820,
        340821,
        340822,
        340823
      ],
      "finishCond": [
        {
          "KPGKDHAFHFE": "QUEST_CONTENT_COMPLETE_TALK",
          "param": [
            7402618,
            0
          ]
        }
      ],
      "guide": {
        "KPGKDHAFHFE": "QUEST_GUIDE_NPC",
        "param": [
          "21172"
        ],
        "guideScene": 3,
        "guideStyle": "QUEST_GUIDE_STYLE_TARGET",
        "guideLayer": "QUEST_GUIDE_LAYER_SCENE"
      },
      "guideHint": {
        "param1": ""
      },
      "isRewind": true,
      "versionBegin": "",
      "versionEnd": ""
    },
    {
      "subId": 7402619,
      "mainId": 74026,
      "order": 32,
      "descTextMapHash": 453504660,
      "showType": "QUEST_HIDDEN",
      "GMKDJFPEFFF": [
        340818,
        340819,
        340820,
        340821,
        340822,
        340823
      ],
      "finishCond": [
        {
          "KPGKDHAFHFE": "QUEST_CONTENT_ADD_QUEST_PROGRESS",
          "param": [
            7402619,
            0
          ],
          "count": 3
        }
      ],
      "guide": {
        "KPGKDHAFHFE": "QUEST_GUIDE_LOCATION",
        "param": [
          "[3_4518:4758.594,-37.280,4668.424]",
          "40"
        ],
        "guideScene": 3,
        "guideStyle": "QUEST_GUIDE_STYLE_POINT",
        "guideLayer": "QUEST_GUIDE_LAYER_SCENE"
      },
      "showGuide": "QUEST_GUIDE_ITEM_DISABLE",
      "guideHint": {
        "param1": ""
      },
      "isRewind": true,
      "versionBegin": "",
      "versionEnd": ""
    },
    {
      "subId": 7402620,
      "mainId": 74026,
      "order": 38,
      "descTextMapHash": 1970133916,
      "GMKDJFPEFFF": [
        340818,
        340819,
        340820,
        340821,
        340822,
        340823
      ],
      "finishCond": [
        {
          "KPGKDHAFHFE": "QUEST_CONTENT_COMPLETE_TALK",
          "param": [
            7402620,
            0
          ]
        }
      ],
      "guide": {
        "KPGKDHAFHFE": "QUEST_GUIDE_NPC",
        "param": [
          "21172"
        ],
        "guideScene": 3,
        "guideStyle": "QUEST_GUIDE_STYLE_TARGET",
        "guideLayer": "QUEST_GUIDE_LAYER_SCENE"
      },
      "guideHint": {
        "param1": ""
      },
      "versionBegin": "",
      "versionEnd": ""
    },
    {
      "subId": 7402621,
      "mainId": 74026,
      "order": 39,
      "descTextMapHash": 3487718796,
      "GMKDJFPEFFF": [
        340818,
        340819,
        340820,
        340821,
        340822,
        340823
      ],
      "finishCond": [
        {
          "KPGKDHAFHFE": "QUEST_CONTENT_LUA_NOTIFY",
          "param": [
            0,
            0
          ],
          "count": 1
        }
      ],
      "failCond": [
        {
          "KPGKDHAFHFE": "QUEST_CONTENT_LEAVE_SCENE_RANGE",
          "param": [
            3,
            40
          ]
        }
      ],
      "guide": {
        "KPGKDHAFHFE": "QUEST_GUIDE_LOCATION",
        "param": [
          "[3_4519:4771.468,-36.800,4669.068]",
          "20"
        ],
        "guideScene": 3,
        "guideStyle": "QUEST_GUIDE_STYLE_POINT",
        "guideLayer": "QUEST_GUIDE_LAYER_SCENE"
      },
      "guideHint": {
        "param1": ""
      },
      "isRewind": true,
      "finishExec": [
        {
          "KPGKDHAFHFE": "QUEST_EXEC_UNREGISTER_DYNAMIC_GROUP",
          "param": [
            "133408127",
            "0"
          ]
        },
        {
          "KPGKDHAFHFE": "QUEST_EXEC_UNREGISTER_DYNAMIC_GROUP",
          "param": [
            "133408153",
            "0"
          ]
        }
      ],
      "failExec": [
        {
          "KPGKDHAFHFE": "QUEST_EXEC_UNREGISTER_DYNAMIC_GROUP",
          "param": [
            "133408127",
            "0"
          ]
        },
        {
          "KPGKDHAFHFE": "QUEST_EXEC_UNREGISTER_DYNAMIC_GROUP",
          "param": [
            "133408153",
            "0"
          ]
        },
        {
          "KPGKDHAFHFE": "QUEST_EXEC_ROLLBACK_QUEST",
          "param": [
            "7402642"
          ]
        }
      ],
      "versionBegin": "",
      "versionEnd": ""
    },
    {
      "subId": 7402622,
      "mainId": 74026,
      "order": 40,
      "descTextMapHash": 1170639492,
      "GMKDJFPEFFF": [
        340818,
        340819,
        340820,
        340821,
        340822,
        340823
      ],
      "finishCond": [
        {
          "KPGKDHAFHFE": "QUEST_CONTENT_COMPLETE_TALK",
          "param": [
            7402622,
            0
          ]
        }
      ],
      "guide": {
        "KPGKDHAFHFE": "QUEST_GUIDE_NPC",
        "param": [
          "21072"
        ],
        "guideScene": 3,
        "guideStyle": "QUEST_GUIDE_STYLE_TARGET",
        "guideLayer": "QUEST_GUIDE_LAYER_SCENE"
      },
      "guideHint": {
        "param1": ""
      },
      "isRewind": true,
      "versionBegin": "",
      "versionEnd": ""
    },
    {
      "subId": 7402623,
      "mainId": 74026,
      "order": 42,
      "descTextMapHash": 550431428,
      "GMKDJFPEFFF": [
        340818,
        340819,
        340820,
        340821,
        340822,
        340823
      ],
      "finishCond": [
        {
          "KPGKDHAFHFE": "QUEST_CONTENT_FINISH_PLOT",
          "param": [
            7402623,
            0
          ]
        }
      ],
      "failCond": [
        {
          "KPGKDHAFHFE": "QUEST_CONTENT_FINISH_PLOT",
          "param": [
            7402650,
            0
          ]
        },
        {
          "KPGKDHAFHFE": "QUEST_CONTENT_ANY_MANUAL_TRANSPORT",
          "param": [
            0,
            0
          ]
        }
      ],
      "guide": {
        "KPGKDHAFHFE": "QUEST_GUIDE_LOCATION",
        "param": [
          "[3_4521:4708.578,90.153,4655.118]",
          "15"
        ],
        "guideScene": 3,
        "guideStyle": "QUEST_GUIDE_STYLE_POINT",
        "guideLayer": "QUEST_GUIDE_LAYER_SCENE"
      },
      "guideHint": {
        "param1": ""
      },
      "finishParent": true,
      "isRewind": true,
      "finishExec": [
        {
          "KPGKDHAFHFE": "QUEST_EXEC_NOTIFY_GROUP_LUA",
          "param": [
            "3",
            "133408274"
          ]
        },
        {
          "KPGKDHAFHFE": "QUEST_EXEC_NOTIFY_GROUP_LUA",
          "param": [
            "3",
            "133408288"
          ]
        },
        {
          "KPGKDHAFHFE": "QUEST_EXEC_SET_QUEST_GLOBAL_VAR",
          "param": [
            "7402601",
            "1"
          ]
        },
        {
          "KPGKDHAFHFE": "QUEST_EXEC_SET_QUEST_GLOBAL_VAR",
          "param": [
            "7402602",
            "1"
          ]
        }
      ],
      "failExec": [
        {
          "KPGKDHAFHFE": "QUEST_EXEC_ROLLBACK_QUEST",
          "param": [
            "7402643"
          ]
        }
      ],
      "versionBegin": "",
      "versionEnd": ""
    },
    {
      "subId": 7402624,
      "mainId": 74026,
      "order": 33,
      "subIdSet": 1,
      "descTextMapHash": 1560104108,
      "GMKDJFPEFFF": [
        340818,
        340819,
        340820,
        340821,
        340822,
        340823
      ],
      "finishCond": [
        {
          "KPGKDHAFHFE": "QUEST_CONTENT_LUA_NOTIFY",
          "param": [
            0,
            0
          ],
          "count": 1
        }
      ],
      "guide": {
        "KPGKDHAFHFE": "QUEST_GUIDE_GADGET",
        "param": [
          "133408034",
          "34029",
          "4747.64:-37.2:4657.05"
        ],
        "guideScene": 3,
        "guideStyle": "QUEST_GUIDE_STYLE_TARGET",
        "guideLayer": "QUEST_GUIDE_LAYER_SCENE"
      },
      "guideHint": {
        "param1": ""
      },
      "isRewind": true,
      "finishExec": [
        {
          "KPGKDHAFHFE": "QUEST_EXEC_ADD_QUEST_PROGRESS",
          "param": [
            "7402619",
            "1"
          ]
        }
      ],
      "versionBegin": "",
      "versionEnd": ""
    },
    {
      "subId": 7402625,
      "mainId": 74026,
      "order": 34,
      "subIdSet": 1,
      "descTextMapHash": 1347206724,
      "GMKDJFPEFFF": [
        340818,
        340819,
        340820,
        340821,
        340822,
        340823
      ],
      "finishCond": [
        {
          "KPGKDHAFHFE": "QUEST_CONTENT_LUA_NOTIFY",
          "param": [
            0,
            0
          ],
          "count": 1
        }
      ],
      "guide": {
        "KPGKDHAFHFE": "QUEST_GUIDE_GADGET",
        "param": [
          "133408034",
          "34030",
          "4759.57:-37:4693.54"
        ],
        "guideScene": 3,
        "guideStyle": "QUEST_GUIDE_STYLE_TARGET",
        "guideLayer": "QUEST_GUIDE_LAYER_SCENE"
      },
      "guideHint": {
        "param1": ""
      },
      "isRewind": true,
      "finishExec": [
        {
          "KPGKDHAFHFE": "QUEST_EXEC_ADD_QUEST_PROGRESS",
          "param": [
            "7402619",
            "1"
          ]
        }
      ],
      "versionBegin": "",
      "versionEnd": ""
    },
    {
      "subId": 7402626,
      "mainId": 74026,
      "order": 35,
      "subIdSet": 1,
      "descTextMapHash": 1054179556,
      "GMKDJFPEFFF": [
        340818,
        340819,
        340820,
        340821,
        340822,
        340823
      ],
      "finishCond": [
        {
          "KPGKDHAFHFE": "QUEST_CONTENT_LUA_NOTIFY",
          "param": [
            0,
            0
          ],
          "count": 1
        }
      ],
      "guide": {
        "KPGKDHAFHFE": "QUEST_GUIDE_GADGET",
        "param": [
          "133408034",
          "34031",
          "4771.21:-36.86:4665.8"
        ],
        "guideScene": 3,
        "guideStyle": "QUEST_GUIDE_STYLE_TARGET",
        "guideLayer": "QUEST_GUIDE_LAYER_SCENE"
      },
      "guideHint": {
        "param1": ""
      },
      "isRewind": true,
      "finishExec": [
        {
          "KPGKDHAFHFE": "QUEST_EXEC_ADD_QUEST_PROGRESS",
          "param": [
            "7402619",
            "1"
          ]
        }
      ],
      "versionBegin": "",
      "versionEnd": ""
    },
    {
      "subId": 7402627,
      "mainId": 74026,
      "order": 36,
      "descTextMapHash": 3315962316,
      "showType": "QUEST_HIDDEN",
      "GMKDJFPEFFF": [
        340818,
        340819,
        340820,
        340821,
        340822,
        340823
      ],
      "finishCond": [
        {
          "KPGKDHAFHFE": "QUEST_CONTENT_QUEST_STATE_EQUAL",
          "param": [
            7402619,
            3
          ]
        }
      ],
      "guide": {},
      "guideHint": {
        "param1": ""
      },
      "isRewind": true,
      "versionBegin": "",
      "versionEnd": ""
    },
    {
      "subId": 7402628,
      "mainId": 74026,
      "order": 24,
      "isMpBlock": true,
      "descTextMapHash": 3819718788,
      "GMKDJFPEFFF": [
        340818,
        340819,
        340820,
        340821,
        340822,
        340823
      ],
      "finishCond": [
        {
          "KPGKDHAFHFE": "QUEST_CONTENT_LUA_NOTIFY",
          "param": [
            0,
            0
          ],
          "count": 1
        }
      ],
      "failCond": [
        {
          "KPGKDHAFHFE": "QUEST_CONTENT_LEAVE_SCENE",
          "param": [
            20188,
            0
          ]
        },
        {
          "KPGKDHAFHFE": "QUEST_CONTENT_ENTER_MY_WORLD",
          "param": [
            3,
            0
          ]
        }
      ],
      "guide": {
        "KPGKDHAFHFE": "QUEST_GUIDE_GADGET",
        "param": [
          "220188015",
          "15007",
          "4506:6.6:4633.4"
        ],
        "guideScene": 20188,
        "guideStyle": "QUEST_GUIDE_STYLE_TARGET",
        "guideLayer": "QUEST_GUIDE_LAYER_SCENE"
      },
      "guideHint": {
        "param1": ""
      },
      "isRewind": true,
      "finishExec": [
        {
          "KPGKDHAFHFE": "QUEST_EXEC_SET_QUEST_VAR",
          "param": [
            "0",
            "93",
            "7402628"
          ]
        },
        {
          "KPGKDHAFHFE": "QUEST_EXEC_NOTIFY_GROUP_LUA",
          "param": [
            "20188",
            "220188032"
          ]
        }
      ],
      "failExec": [
        {
          "KPGKDHAFHFE": "QUEST_EXEC_SET_QUEST_VAR",
          "param": [
            "0",
            "3",
            "7402628"
          ]
        },
        {
          "KPGKDHAFHFE": "QUEST_EXEC_ROLLBACK_QUEST",
          "param": [
            "7402631"
          ]
        }
      ],
      "versionBegin": "",
      "versionEnd": ""
    },
    {
      "subId": 7402629,
      "mainId": 74026,
      "order": 19,
      "descTextMapHash": 141262484,
      "GMKDJFPEFFF": [
        340818,
        340819,
        340820,
        340821,
        340822,
        340823
      ],
      "finishCond": [
        {
          "KPGKDHAFHFE": "QUEST_CONTENT_COMPLETE_TALK",
          "param": [
            7402612,
            0
          ]
        },
        {
          "KPGKDHAFHFE": "QUEST_CONTENT_COMPLETE_TALK",
          "param": [
            7402616,
            0
          ]
        }
      ],
      "guide": {
        "KPGKDHAFHFE": "QUEST_GUIDE_LOCATION",
        "param": [
          "[3_4791:4349.040,159.141,4658.206]"
        ],
        "guideScene": 3,
        "guideStyle": "QUEST_GUIDE_STYLE_POINT",
        "guideLayer": "QUEST_GUIDE_LAYER_SCENE"
      },
      "guideHint": {
        "param1": ""
      },
      "isRewind": true,
      "versionBegin": "",
      "versionEnd": ""
    },
    {
      "subId": 7402630,
      "mainId": 74026,
      "order": 26,
      "descTextMapHash": 2887743380,
      "GMKDJFPEFFF": [
        340818,
        340819,
        340820,
        340821,
        340822,
        340823
      ],
      "finishCond": [
        {
          "KPGKDHAFHFE": "QUEST_CONTENT_COMPLETE_TALK",
          "param": [
            7402612,
            0
          ]
        },
        {
          "KPGKDHAFHFE": "QUEST_CONTENT_COMPLETE_TALK",
          "param": [
            7402616,
            0
          ]
        }
      ],
      "guide": {
        "KPGKDHAFHFE": "QUEST_GUIDE_LOCATION",
        "param": [
          "[3_4791:4349.040,159.141,4658.206]"
        ],
        "guideScene": 3,
        "guideStyle": "QUEST_GUIDE_STYLE_POINT",
        "guideLayer": "QUEST_GUIDE_LAYER_SCENE"
      },
      "guideHint": {
        "param1": ""
      },
      "isRewind": true,
      "versionBegin": "",
      "versionEnd": ""
    },
    {
      "subId": 7402631,
      "mainId": 74026,
      "order": 22,
      "descTextMapHash": 3578087244,
      "GMKDJFPEFFF": [
        340818,
        340819,
        340820,
        340821,
        340822,
        340823
      ],
      "finishCond": [
        {
          "KPGKDHAFHFE": "QUEST_CONTENT_COMPLETE_TALK",
          "param": [
            7402612,
            0
          ]
        },
        {
          "KPGKDHAFHFE": "QUEST_CONTENT_COMPLETE_TALK",
          "param": [
            7402616,
            0
          ]
        }
      ],
      "guide": {
        "KPGKDHAFHFE": "QUEST_GUIDE_LOCATION",
        "param": [
          "[3_4791:4349.040,159.141,4658.206]"
        ],
        "guideScene": 3,
        "guideStyle": "QUEST_GUIDE_STYLE_POINT",
        "guideLayer": "QUEST_GUIDE_LAYER_SCENE"
      },
      "guideHint": {
        "param1": ""
      },
      "isRewind": true,
      "versionBegin": "",
      "versionEnd": ""
    },
    {
      "subId": 7402632,
      "mainId": 74026,
      "order": 15,
      "descTextMapHash": 1776649372,
      "GMKDJFPEFFF": [
        340818,
        340819,
        340820,
        340821,
        340822,
        340823
      ],
      "finishCond": [
        {
          "KPGKDHAFHFE": "QUEST_CONTENT_COMPLETE_TALK",
          "param": [
            7402612,
            0
          ]
        },
        {
          "KPGKDHAFHFE": "QUEST_CONTENT_COMPLETE_TALK",
          "param": [
            7402616,
            0
          ]
        }
      ],
      "guide": {
        "KPGKDHAFHFE": "QUEST_GUIDE_LOCATION",
        "param": [
          "[3_4791:4349.040,159.141,4658.206]"
        ],
        "guideScene": 3,
        "guideStyle": "QUEST_GUIDE_STYLE_POINT",
        "guideLayer": "QUEST_GUIDE_LAYER_SCENE"
      },
      "guideHint": {
        "param1": ""
      },
      "isRewind": true,
      "versionBegin": "",
      "versionEnd": ""
    },
    {
      "subId": 7402633,
      "mainId": 74026,
      "order": 17,
      "isMpBlock": true,
      "descTextMapHash": 1799428220,
      "GMKDJFPEFFF": [
        340818,
        340819,
        340820,
        340821,
        340822,
        340823
      ],
      "finishCond": [
        {
          "KPGKDHAFHFE": "QUEST_CONTENT_LUA_NOTIFY",
          "param": [
            0,
            0
          ],
          "count": 1
        }
      ],
      "failCond": [
        {
          "KPGKDHAFHFE": "QUEST_CONTENT_LEAVE_SCENE",
          "param": [
            20188,
            0
          ]
        },
        {
          "KPGKDHAFHFE": "QUEST_CONTENT_ENTER_MY_WORLD",
          "param": [
            3,
            0
          ]
        }
      ],
      "guide": {
        "KPGKDHAFHFE": "QUEST_GUIDE_GADGET",
        "param": [
          "220188012",
          "12005",
          "4432.377:123.18:4662.15"
        ],
        "guideScene": 20188,
        "guideStyle": "QUEST_GUIDE_STYLE_TARGET",
        "guideLayer": "QUEST_GUIDE_LAYER_SCENE"
      },
      "guideHint": {
        "param1": ""
      },
      "isRewind": true,
      "finishExec": [
        {
          "KPGKDHAFHFE": "QUEST_EXEC_SET_QUEST_VAR",
          "param": [
            "0",
            "91",
            "7402633"
          ]
        },
        {
          "KPGKDHAFHFE": "QUEST_EXEC_NOTIFY_GROUP_LUA",
          "param": [
            "20188",
            "220188032"
          ]
        }
      ],
      "failExec": [
        {
          "KPGKDHAFHFE": "QUEST_EXEC_SET_QUEST_VAR",
          "param": [
            "0",
            "1",
            "7402633"
          ]
        },
        {
          "KPGKDHAFHFE": "QUEST_EXEC_ROLLBACK_QUEST",
          "param": [
            "7402632"
          ]
        }
      ],
      "versionBegin": "",
      "versionEnd": ""
    },
    {
      "subId": 7402635,
      "mainId": 74026,
      "order": 18,
      "isMpBlock": true,
      "descTextMapHash": 1509521140,
      "guideTipsTextMapHash": 54229654,
      "GMKDJFPEFFF": [
        340818,
        340819,
        340820,
        340821,
        340822,
        340823
      ],
      "finishCond": [
        {
          "KPGKDHAFHFE": "QUEST_CONTENT_FINISH_PLOT",
          "param": [
            7402635,
            0
          ]
        }
      ],
      "failCond": [
        {
          "KPGKDHAFHFE": "QUEST_CONTENT_LEAVE_SCENE",
          "param": [
            20188,
            0
          ]
        },
        {
          "KPGKDHAFHFE": "QUEST_CONTENT_ENTER_MY_WORLD",
          "param": [
            3,
            0
          ]
        }
      ],
      "guide": {
        "KPGKDHAFHFE": "QUEST_GUIDE_LOCATION",
        "param": [
          "[20188_9:4430.277,7.532,4707.554,0.000,166.815,0.000]"
        ],
        "guideScene": 20188,
        "guideStyle": "QUEST_GUIDE_STYLE_POINT",
        "guideLayer": "QUEST_GUIDE_LAYER_SCENE"
      },
      "guideHint": {
        "param1": ""
      },
      "failExec": [
        {
          "KPGKDHAFHFE": "QUEST_EXEC_SET_QUEST_VAR",
          "param": [
            "0",
            "1",
            "7402635"
          ]
        },
        {
          "KPGKDHAFHFE": "QUEST_EXEC_ROLLBACK_QUEST",
          "param": [
            "7402632"
          ]
        }
      ],
      "versionBegin": "",
      "versionEnd": ""
    },
    {
      "subId": 7402636,
      "mainId": 74026,
      "order": 13,
      "isMpBlock": true,
      "showType": "QUEST_HIDDEN",
      "GMKDJFPEFFF": [
        340818,
        340819,
        340820,
        340821,
        340822,
        340823
      ],
      "finishCond": [
        {
          "KPGKDHAFHFE": "QUEST_CONTENT_FINISH_PLOT",
          "param": [
            7402636,
            0
          ]
        }
      ],
      "guide": {},
      "guideHint": {
        "param1": ""
      },
      "versionBegin": "",
      "versionEnd": ""
    },
    {
      "subId": 7402637,
      "mainId": 74026,
      "order": 16,
      "isMpBlock": true,
      "showType": "QUEST_HIDDEN",
      "GMKDJFPEFFF": [
        340818,
        340819,
        340820,
        340821,
        340822,
        340823
      ],
      "finishCond": [
        {
          "KPGKDHAFHFE": "QUEST_CONTENT_FINISH_PLOT",
          "param": [
            7402637,
            0
          ]
        }
      ],
      "guide": {},
      "guideHint": {
        "param1": ""
      },
      "versionBegin": "",
      "versionEnd": ""
    },
    {
      "subId": 7402638,
      "mainId": 74026,
      "order": 20,
      "isMpBlock": true,
      "showType": "QUEST_HIDDEN",
      "GMKDJFPEFFF": [
        340818,
        340819,
        340820,
        340821,
        340822,
        340823
      ],
      "finishCond": [
        {
          "KPGKDHAFHFE": "QUEST_CONTENT_FINISH_PLOT",
          "param": [
            7402638,
            0
          ]
        }
      ],
      "guide": {},
      "guideHint": {
        "param1": ""
      },
      "versionBegin": "",
      "versionEnd": ""
    },
    {
      "subId": 7402639,
      "mainId": 74026,
      "order": 23,
      "isMpBlock": true,
      "showType": "QUEST_HIDDEN",
      "GMKDJFPEFFF": [
        340818,
        340819,
        340820,
        340821,
        340822,
        340823
      ],
      "finishCond": [
        {
          "KPGKDHAFHFE": "QUEST_CONTENT_FINISH_PLOT",
          "param": [
            7402639,
            0
          ]
        }
      ],
      "guide": {},
      "guideHint": {
        "param1": ""
      },
      "versionBegin": "",
      "versionEnd": ""
    },
    {
      "subId": 7402640,
      "mainId": 74026,
      "order": 27,
      "isMpBlock": true,
      "showType": "QUEST_HIDDEN",
      "GMKDJFPEFFF": [
        340818,
        340819,
        340820,
        340821,
        340822,
        340823
      ],
      "finishCond": [
        {
          "KPGKDHAFHFE": "QUEST_CONTENT_FINISH_PLOT",
          "param": [
            7402640,
            0
          ]
        }
      ],
      "guide": {},
      "guideHint": {
        "param1": ""
      },
      "versionBegin": "",
      "versionEnd": ""
    },
    {
      "subId": 7402641,
      "mainId": 74026,
      "order": 4,
      "descTextMapHash": 2044865924,
      "showType": "QUEST_HIDDEN",
      "GMKDJFPEFFF": [
        340818,
        340819,
        340820,
        340821,
        340822,
        340823
      ],
      "finishCond": [
        {
          "KPGKDHAFHFE": "QUEST_CONTENT_FINISH_PLOT",
          "param": [
            7402641,
            0
          ]
        }
      ],
      "guide": {},
      "guideHint": {
        "param1": ""
      },
      "versionBegin": "",
      "versionEnd": ""
    },
    {
      "subId": 7402642,
      "mainId": 74026,
      "order": 37,
      "descTextMapHash": 1032085636,
      "GMKDJFPEFFF": [
        340818,
        340819,
        340820,
        340821,
        340822,
        340823
      ],
      "finishCond": [
        {
          "KPGKDHAFHFE": "QUEST_CONTENT_FINISH_PLOT",
          "param": [
            7402642,
            0
          ]
        }
      ],
      "guide": {
        "KPGKDHAFHFE": "QUEST_GUIDE_LOCATION",
        "param": [
          "[3_5590:4782.515,-36.766,4701.064]"
        ],
        "guideScene": 3,
        "guideStyle": "QUEST_GUIDE_STYLE_POINT",
        "guideLayer": "QUEST_GUIDE_LAYER_SCENE"
      },
      "guideHint": {
        "param1": ""
      },
      "isRewind": true,
      "versionBegin": "",
      "versionEnd": ""
    },
    {
      "subId": 7402643,
      "mainId": 74026,
      "order": 41,
      "descTextMapHash": 3299478908,
      "GMKDJFPEFFF": [
        340818,
        340819,
        340820,
        340821,
        340822,
        340823
      ],
      "finishCond": [
        {
          "KPGKDHAFHFE": "QUEST_CONTENT_FINISH_PLOT",
          "param": [
            7402643,
            0
          ]
        }
      ],
      "guide": {
        "KPGKDHAFHFE": "QUEST_GUIDE_LOCATION",
        "param": [
          "[3_6545:4820.227,-51.761,4725.051]"
        ],
        "guideScene": 3,
        "guideStyle": "QUEST_GUIDE_STYLE_POINT",
        "guideLayer": "QUEST_GUIDE_LAYER_SCENE"
      },
      "guideHint": {
        "param1": ""
      },
      "isRewind": true,
      "versionBegin": "",
      "versionEnd": ""
    }
  ],
  "talks": [
    {
      "id": 7402602,
      "beginWay": "TALK_BEGIN_MANUAL",
      "activeMode": "PLAY_MODE_HOST",
      "beginCond": [
        {
          "type": "QUEST_COND_STATE_EQUAL",
          "_param": [
            "7402602",
            "2"
          ]
        }
      ],
      "priority": 5,
      "initDialog": 740260201,
      "npcId": [
        21034,
        21048,
        21072
      ],
      "performCfg": "QuestDialogue/Q7402602",
      "heroTalk": "TALK_HERO_MAIN",
      "questId": 74026,
      "assetIndex": 16529457084027658483,
      "prePerformCfg": "",
      "PLPFOOINAAJ": [
        "[3_4620:4947.452,442.033,4682.860,0.000,210.550,0.000]",
        "[3_4621:4946.239,441.928,4683.560,0.000,128.888,0.000]",
        "[3_4622:4943.176,441.700,4681.556,0.000,265.172,0.000]",
        "[3_4627:4939.302,441.284,4672.173,0.000,47.698,0.000]",
        "[3_5747:4946.028,441.936,4681.987,0.000,70.000,0.000]"
      ]
    },
    {
      "id": 7402604,
      "beginWay": "TALK_BEGIN_MANUAL",
      "activeMode": "PLAY_MODE_HOST",
      "beginCond": [
        {
          "type": "QUEST_COND_STATE_EQUAL",
          "_param": [
            "7402604",
            "2"
          ]
        }
      ],
      "priority": 5,
      "initDialog": 740260401,
      "npcId": [
        21048
      ],
      "performCfg": "QuestDialogue/Q7402604",
      "heroTalk": "TALK_HERO_MAIN",
      "questId": 74026,
      "assetIndex": 14069836190544232071,
      "prePerformCfg": "",
      "PLPFOOINAAJ": [
        "[3_4625:4945.620,441.889,4682.924,0.000,177.306,0.000]",
        "[3_4646:4945.000,441.878,4679.837,0.000,208.598,0.000]"
      ]
    },
    {
      "id": 7402606,
      "beginWay": "TALK_BEGIN_MANUAL",
      "activeMode": "PLAY_MODE_HOST",
      "beginCond": [
        {
          "type": "QUEST_COND_STATE_EQUAL",
          "_param": [
            "7402606",
            "2"
          ]
        }
      ],
      "priority": 5,
      "initDialog": 740260601,
      "npcId": [
        5248,
        21072,
        21034,
        21172
      ],
      "performCfg": "QuestDialogue/Q7402606",
      "heroTalk": "TALK_HERO_MAIN",
      "questId": 74026,
      "assetIndex": 4148530767086758623,
      "prePerformCfg": "",
      "PLPFOOINAAJ": [
        "[3_4623:4946.421,441.945,4683.366,0.000,182.268,0.000]",
        "[3_4624:4947.211,442.022,4682.369,0.000,195.551,0.000]",
        "[3_4625:4945.620,441.889,4682.924,0.000,177.306,0.000]",
        "[3_4630:4946.512,441.992,4680.803]",
        "[3_5748:4944.268,441.802,4678.371,0.000,73.552,0.000]"
      ]
    },
    {
      "id": 7402607,
      "beginWay": "TALK_BEGIN_MANUAL",
      "activeMode": "PLAY_MODE_HOST",
      "beginCond": [
        {
          "type": "QUEST_COND_STATE_EQUAL",
          "_param": [
            "7402607",
            "2"
          ]
        }
      ],
      "priority": 5,
      "initDialog": 740260701,
      "npcId": [
        5202
      ],
      "performCfg": "QuestDialogue/Q7402607",
      "heroTalk": "TALK_HERO_MAIN",
      "questId": 74026,
      "assetIndex": 9007451042631496985,
      "prePerformCfg": "",
      "PLPFOOINAAJ": [
        "[3_5000:4465.670,121.811,4557.625,0.000,80.000,0.000]"
      ]
    },
    {
      "id": 7402609,
      "beginWay": "TALK_BEGIN_MANUAL",
      "activeMode": "PLAY_MODE_HOST",
      "beginCond": [
        {
          "type": "QUEST_COND_STATE_EQUAL",
          "_param": [
            "7402609",
            "2"
          ]
        }
      ],
      "priority": 5,
      "initDialog": 740260901,
      "npcId": [
        5248
      ],
      "performCfg": "QuestDialogue/Q7402609",
      "heroTalk": "TALK_HERO_MAIN",
      "questId": 74026,
      "assetIndex": 6340086230508515973,
      "prePerformCfg": "",
      "finishExec": [
        {
          "KPGKDHAFHFE": "TALK_EXEC_TRANS_SCENE_DUMMY_POINT",
          "param": [
            "3",
            "[3_4647:4350.040,157.630,4666.189,0.000,10.350,0.000]"
          ]
        }
      ],
      "PLPFOOINAAJ": [
        "[3_4769:4346.816,158.024,4655.789,0.000,162.438,0.000]",
        "[3_5749:4347.601,158.024,4654.770,0.000,320.000,0.000]"
      ]
    },
    {
      "id": 7402610,
      "beginWay": "TALK_BEGIN_MANUAL",
      "activeMode": "PLAY_MODE_HOST",
      "beginCondComb": "LOGIC_AND",
      "beginCond": [
        {
          "type": "QUEST_COND_STATE_EQUAL",
          "_param": [
            "7402610",
            "2"
          ]
        },
        {
          "type": "QUEST_COND_QUEST_GLOBAL_VAR_EQUAL",
          "_param": [
            "7407901",
            "0"
          ]
        }
      ],
      "priority": 5,
      "initDialog": 740261001,
      "npcId": [
        21172
      ],
      "performCfg": "QuestDialogue/Q7402610",
      "heroTalk": "TALK_HERO_MAIN",
      "questId": 74026,
      "assetIndex": 1685255354136261865,
      "prePerformCfg": "",
      "PLPFOOINAAJ": [
        "[3_4632:4346.570,157.630,4667.495,0.000,67.522,0.000]",
        "[3_5750:4347.689,157.630,4668.486,0.000,233.008,0.000]"
      ]
    },
    {
      "id": 7402611,
      "beginWay": "TALK_BEGIN_MANUAL",
      "activeMode": "PLAY_MODE_HOST",
      "beginCondComb": "LOGIC_AND",
      "beginCond": [
        {
          "type": "QUEST_COND_STATE_EQUAL",
          "_param": [
            "7402611",
            "2"
          ]
        },
        {
          "type": "QUEST_COND_QUEST_VAR_EQUAL",
          "_param": [
            "1",
            "0",
            "74026"
          ]
        }
      ],
      "priority": 5,
      "nextTalks": [
        7402612,
        7402613
      ],
      "initDialog": 740261101,
      "npcId": [
        21052
      ],
      "performCfg": "QuestDialogue/Q7402611",
      "heroTalk": "TALK_HERO_MAIN",
      "questId": 74026,
      "assetIndex": 11024536399737719464,
      "prePerformCfg": "",
      "PLPFOOINAAJ": [
        "[3_4770:4348.343,158.024,4655.563,0.000,190.521,0.000]",
        "[3_5751:4349.636,157.630,4663.929,0.000,180.000,0.000]",
        "[3_5752:4351.815,157.712,4663.866,0.000,205.000,0.000]",
        "[3_5760:4348.230,158.024,4649.646,0.000,2.797,0.000]"
      ]
    },
    {
      "id": 7402612,
      "activeMode": "PLAY_MODE_HOST",
      "beginCond": [
        {
          "type": "QUEST_COND_STATE_EQUAL",
          "_param": [
            "7402611",
            "2"
          ]
        }
      ],
      "priority": 5,
      "initDialog": 740261201,
      "npcId": [
        21052,
        21107
      ],
      "performCfg": "QuestDialogue/Q7402612",
      "heroTalk": "TALK_HERO_MAIN",
      "questId": 74026,
      "assetIndex": 11562082357684265014,
      "prePerformCfg": "",
      "finishExec": [
        {
          "KPGKDHAFHFE": "TALK_EXEC_SET_QUEST_VAR",
          "param": [
            "1",
            "1",
            "74026"
          ]
        }
      ]
    },
    {
      "id": 7402613,
      "activeMode": "PLAY_MODE_HOST",
      "beginCond": [
        {
          "type": "QUEST_COND_STATE_EQUAL",
          "_param": [
            "7402611",
            "2"
          ]
        }
      ],
      "priority": 5,
      "initDialog": 740261301,
      "npcId": [
        21052,
        21107
      ],
      "performCfg": "QuestDialogue/Q7402613",
      "heroTalk": "TALK_HERO_MAIN",
      "questId": 74026,
      "assetIndex": 17748465987725108021,
      "prePerformCfg": "",
      "finishExec": [
        {
          "KPGKDHAFHFE": "TALK_EXEC_SET_QUEST_VAR",
          "param": [
            "1",
            "1",
            "74026"
          ]
        }
      ]
    },
    {
      "id": 7402614,
      "beginWay": "TALK_BEGIN_MANUAL",
      "activeMode": "PLAY_MODE_HOST",
      "beginCondComb": "LOGIC_AND",
      "beginCond": [
        {
          "type": "QUEST_COND_STATE_EQUAL",
          "_param": [
            "7402611",
            "2"
          ]
        },
        {
          "type": "QUEST_COND_QUEST_VAR_EQUAL",
          "_param": [
            "1",
            "1",
            "74026"
          ]
        }
      ],
      "priority": 10,
      "nextTalks": [
        7402616,
        7402617
      ],
      "initDialog": 740261401,
      "npcId": [
        21052,
        21107
      ],
      "performCfg": "",
      "heroTalk": "TALK_HERO_MAIN",
      "questId": 74026,
      "assetIndex": 3176498840929409115,
      "prePerformCfg": ""
    },
    {
      "id": 7402615,
      "beginWay": "TALK_BEGIN_MANUAL",
      "activeMode": "PLAY_MODE_HOST",
      "beginCondComb": "LOGIC_OR",
      "beginCond": [
        {
          "type": "QUEST_COND_STATE_EQUAL",
          "_param": [
            "7402629",
            "2"
          ]
        },
        {
          "type": "QUEST_COND_STATE_EQUAL",
          "_param": [
            "7402630",
            "2"
          ]
        },
        {
          "type": "QUEST_COND_STATE_EQUAL",
          "_param": [
            "7402631",
            "2"
          ]
        },
        {
          "type": "QUEST_COND_STATE_EQUAL",
          "_param": [
            "7402632",
            "2"
          ]
        }
      ],
      "priority": 10,
      "nextTalks": [
        7402616,
        7402617
      ],
      "initDialog": 740261501,
      "npcId": [
        21052,
        21107
      ],
      "performCfg": "",
      "heroTalk": "TALK_HERO_MAIN",
      "questId": 74026,
      "assetIndex": 5592405476365441307,
      "prePerformCfg": ""
    },
    {
      "id": 7402616,
      "activeMode": "PLAY_MODE_HOST",
      "beginCondComb": "LOGIC_OR",
      "beginCond": [
        {
          "type": "QUEST_COND_STATE_EQUAL",
          "_param": [
            "7402611",
            "2"
          ]
        },
        {
          "type": "QUEST_COND_STATE_EQUAL",
          "_param": [
            "7402629",
            "2"
          ]
        },
        {
          "type": "QUEST_COND_STATE_EQUAL",
          "_param": [
            "7402630",
            "2"
          ]
        },
        {
          "type": "QUEST_COND_STATE_EQUAL",
          "_param": [
            "7402631",
            "2"
          ]
        },
        {
          "type": "QUEST_COND_STATE_EQUAL",
          "_param": [
            "7402632",
            "2"
          ]
        }
      ],
      "priority": 5,
      "initDialog": 740261601,
      "npcId": [
        21052,
        21107
      ],
      "performCfg": "",
      "heroTalk": "TALK_HERO_MAIN",
      "questId": 74026,
      "assetIndex": 569578351149196856,
      "prePerformCfg": ""
    },
    {
      "id": 7402617,
      "activeMode": "PLAY_MODE_HOST",
      "beginCondComb": "LOGIC_OR",
      "beginCond": [
        {
          "type": "QUEST_COND_STATE_EQUAL",
          "_param": [
            "7402611",
            "2"
          ]
        },
        {
          "type": "QUEST_COND_STATE_EQUAL",
          "_param": [
            "7402629",
            "2"
          ]
        },
        {
          "type": "QUEST_COND_STATE_EQUAL",
          "_param": [
            "7402630",
            "2"
          ]
        },
        {
          "type": "QUEST_COND_STATE_EQUAL",
          "_param": [
            "7402631",
            "2"
          ]
        },
        {
          "type": "QUEST_COND_STATE_EQUAL",
          "_param": [
            "7402632",
            "2"
          ]
        }
      ],
      "priority": 5,
      "initDialog": 740261701,
      "npcId": [
        21052,
        21107
      ],
      "performCfg": "",
      "heroTalk": "TALK_HERO_MAIN",
      "questId": 74026,
      "assetIndex": 17898530649678573547,
      "prePerformCfg": ""
    },
    {
      "id": 7402618,
      "beginWay": "TALK_BEGIN_MANUAL",
      "activeMode": "PLAY_MODE_HOST",
      "beginCond": [
        {
          "type": "QUEST_COND_STATE_EQUAL",
          "_param": [
            "7402618",
            "2"
          ]
        }
      ],
      "priority": 5,
      "initDialog": 740261801,
      "npcId": [
        21034,
        21172
      ],
      "performCfg": "QuestDialogue/Q7402618",
      "heroTalk": "TALK_HERO_MAIN",
      "questId": 74026,
      "assetIndex": 2347732974236219255,
      "prePerformCfg": "",
      "PLPFOOINAAJ": [
        "[3_4637:4708.746,-37.115,4666.456,0.000,248.513,0.000]",
        "[3_4638:4708.848,-37.095,4665.082,0.000,285.886,0.000]",
        "[3_5753:4707.056,-37.087,4665.275,0.000,91.162,0.000]"
      ]
    },
    {
      "id": 7402620,
      "beginWay": "TALK_BEGIN_MANUAL",
      "activeMode": "PLAY_MODE_HOST",
      "beginCond": [
        {
          "type": "QUEST_COND_STATE_EQUAL",
          "_param": [
            "7402620",
            "2"
          ]
        }
      ],
      "priority": 5,
      "initDialog": 740262001,
      "npcId": [
        21172,
        21072
      ],
      "performCfg": "QuestDialogue/Q7402620",
      "heroTalk": "TALK_HERO_MAIN",
      "questId": 74026,
      "assetIndex": 17130269011422552030,
      "prePerformCfg": "",
      "PLPFOOINAAJ": [
        "[3_4642:4776.781,-36.707,4691.266,0.000,30.000,0.000]",
        "[3_4643:4772.045,-36.800,4666.763,0.000,224.959,0.000]",
        "[3_5754:4779.029,-36.800,4694.660,0.000,30.000,0.000]"
      ]
    },
    {
      "id": 7402622,
      "beginWay": "TALK_BEGIN_MANUAL",
      "activeMode": "PLAY_MODE_HOST",
      "beginCond": [
        {
          "type": "QUEST_COND_STATE_EQUAL",
          "_param": [
            "7402622",
            "2"
          ]
        }
      ],
      "priority": 5,
      "initDialog": 740262201,
      "npcId": [
        21072,
        21034,
        5248,
        21172
      ],
      "performCfg": "QuestDialogue/Q7402622",
      "heroTalk": "TALK_HERO_MAIN",
      "questId": 74026,
      "assetIndex": 17241118330673414363,
      "prePerformCfg": "",
      "PLPFOOINAAJ": [
        "[3_5755:4772.113,-36.800,4671.153,0.000,160.000,0.000]",
        "[3_5756:4774.109,-36.800,4668.142,0.000,315.000,0.000]",
        "[3_5757:4771.594,-36.800,4670.012,0.000,130.000,0.000]",
        "[3_5758:4771.060,-36.800,4668.460,0.000,100.000,0.000]",
        "[3_5759:4775.412,-36.419,4665.248,0.000,320.000,0.000]"
      ]
    },
    {
      "id": 7402650,
      "beginWay": "TALK_BEGIN_MANUAL",
      "activeMode": "PLAY_MODE_HOST",
      "beginCondComb": "LOGIC_AND",
      "beginCond": [
        {
          "type": "QUEST_COND_STATE_EQUAL",
          "_param": [
            "7402610",
            "2"
          ]
        },
        {
          "type": "QUEST_COND_QUEST_GLOBAL_VAR_EQUAL",
          "_param": [
            "7407901",
            "1"
          ]
        }
      ],
      "priority": 5,
      "initDialog": 740265001,
      "npcId": [
        21172
      ],
      "performCfg": "QuestDialogue/Q7402650",
      "heroTalk": "TALK_HERO_MAIN",
      "questId": 74026,
      "assetIndex": 18018241386559305214,
      "prePerformCfg": "",
      "PLPFOOINAAJ": [
        "[3_4632:4346.570,157.630,4667.495,0.000,67.522,0.000]",
        "[3_5750:4347.689,157.630,4668.486,0.000,233.008,0.000]"
      ]
    },
    {
      "id": 7402651,
      "beginWay": "TALK_BEGIN_MANUAL",
      "activeMode": "PLAY_MODE_HOST",
      "beginCondComb": "LOGIC_AND",
      "beginCond": [
        {
          "type": "QUEST_COND_STATE_EQUAL",
          "_param": [
            "7402611",
            "2"
          ]
        },
        {
          "type": "QUEST_COND_QUEST_VAR_EQUAL",
          "_param": [
            "1",
            "0",
            "74026"
          ]
        }
      ],
      "priority": 5,
      "nextTalks": [
        7402612,
        7402613
      ],
      "initDialog": 740265101,
      "npcId": [
        21107
      ],
      "performCfg": "QuestDialogue/Q7402651",
      "heroTalk": "TALK_HERO_MAIN",
      "questId": 74026,
      "assetIndex": 3866621029840010568,
      "prePerformCfg": "",
      "PLPFOOINAAJ": [
        "[3_4770:4348.343,158.024,4655.563,0.000,190.521,0.000]",
        "[3_5752:4351.815,157.712,4663.866,0.000,205.000,0.000]",
        "[3_5760:4348.230,158.024,4649.646,0.000,2.797,0.000]",
        "[3_5761:4348.495,158.024,4654.367]"
      ]
    },
    {
      "id": 7402681,
      "beginWay": "TALK_BEGIN_MANUAL",
      "activeMode": "PLAY_MODE_HOST",
      "beginCond": [
        {
          "type": "QUEST_COND_STATE_EQUAL",
          "_param": [
            "7402602",
            "2"
          ]
        }
      ],
      "priority": 8,
      "initDialog": 740268101,
      "npcId": [
        5248
      ],
      "performCfg": "",
      "heroTalk": "TALK_HERO_MAIN",
      "questId": 74026,
      "assetIndex": 14150147768907789094,
      "prePerformCfg": ""
    },
    {
      "id": 7402682,
      "beginWay": "TALK_BEGIN_MANUAL",
      "activeMode": "PLAY_MODE_HOST",
      "beginCond": [
        {
          "type": "QUEST_COND_STATE_EQUAL",
          "_param": [
            "7402619",
            "2"
          ]
        }
      ],
      "priority": 5,
      "initDialog": 740268201,
      "npcId": [
        21034
      ],
      "performCfg": "",
      "heroTalk": "TALK_HERO_MAIN",
      "questId": 74026,
      "assetIndex": 3580188538993454821,
      "prePerformCfg": ""
    },
    {
      "id": 7402683,
      "beginWay": "TALK_BEGIN_MANUAL",
      "activeMode": "PLAY_MODE_HOST",
      "beginCond": [
        {
          "type": "QUEST_COND_STATE_EQUAL",
          "_param": [
            "7402619",
            "2"
          ]
        }
      ],
      "priority": 5,
      "initDialog": 740268301,
      "npcId": [
        21172
      ],
      "performCfg": "",
      "heroTalk": "TALK_HERO_MAIN",
      "questId": 74026,
      "assetIndex": 917677522631253056,
      "prePerformCfg": ""
    },
    {
      "id": 7402684,
      "beginWay": "TALK_BEGIN_MANUAL",
      "activeMode": "PLAY_MODE_HOST",
      "beginCond": [
        {
          "type": "QUEST_COND_STATE_EQUAL",
          "_param": [
            "7402611",
            "2"
          ]
        }
      ],
      "priority": 5,
      "initDialog": 740268401,
      "npcId": [
        21172
      ],
      "performCfg": "",
      "heroTalk": "TALK_HERO_MAIN",
      "questId": 74026,
      "assetIndex": 134451193895486135,
      "prePerformCfg": ""
    },
    {
      "id": 7402685,
      "beginWay": "TALK_BEGIN_MANUAL",
      "activeMode": "PLAY_MODE_HOST",
      "beginCondComb": "LOGIC_OR",
      "beginCond": [
        {
          "type": "QUEST_COND_STATE_EQUAL",
          "_param": [
            "7402629",
            "2"
          ]
        },
        {
          "type": "QUEST_COND_STATE_EQUAL",
          "_param": [
            "7402630",
            "2"
          ]
        },
        {
          "type": "QUEST_COND_STATE_EQUAL",
          "_param": [
            "7402631",
            "2"
          ]
        },
        {
          "type": "QUEST_COND_STATE_EQUAL",
          "_param": [
            "7402632",
            "2"
          ]
        }
      ],
      "priority": 5,
      "initDialog": 740268501,
      "npcId": [
        21172
      ],
      "performCfg": "",
      "heroTalk": "TALK_HERO_MAIN",
      "questId": 74026,
      "assetIndex": 18378294200861819604,
      "prePerformCfg": ""
    },
    {
      "id": 7402686,
      "beginWay": "TALK_BEGIN_MANUAL",
      "activeMode": "PLAY_MODE_HOST",
      "beginCondComb": "LOGIC_OR",
      "beginCond": [
        {
          "type": "QUEST_COND_STATE_EQUAL",
          "_param": [
            "7402629",
            "2"
          ]
        },
        {
          "type": "QUEST_COND_STATE_EQUAL",
          "_param": [
            "7402630",
            "2"
          ]
        },
        {
          "type": "QUEST_COND_STATE_EQUAL",
          "_param": [
            "7402631",
            "2"
          ]
        },
        {
          "type": "QUEST_COND_STATE_EQUAL",
          "_param": [
            "7402632",
            "2"
          ]
        }
      ],
      "priority": 5,
      "initDialog": 740268601,
      "npcId": [
        21034
      ],
      "performCfg": "",
      "heroTalk": "TALK_HERO_MAIN",
      "questId": 74026,
      "assetIndex": 15191487133369473424,
      "prePerformCfg": ""
    },
    {
      "id": 7402689,
      "beginWay": "TALK_BEGIN_MANUAL",
      "activeMode": "PLAY_MODE_HOST",
      "beginCond": [
        {
          "type": "QUEST_COND_STATE_EQUAL",
          "_param": [
            "7402610",
            "2"
          ]
        }
      ],
      "priority": 10,
      "initDialog": 740268901,
      "npcId": [
        5248
      ],
      "performCfg": "",
      "heroTalk": "TALK_HERO_MAIN",
      "questId": 74026,
      "assetIndex": 3876704957990297555,
      "prePerformCfg": "",
      "finishExec": [
        {
          "KPGKDHAFHFE": "TALK_EXEC_TRANS_SCENE_DUMMY_POINT",
          "param": [
            "3",
            "[3_4647:4350.040,157.630,4666.189,0.000,10.350,0.000]"
          ]
        }
      ]
    },
    {
      "id": 7402690,
      "activeMode": "PLAY_MODE_HOST",
      "beginCond": [
        {
          "type": "QUEST_COND_STATE_EQUAL",
          "_param": [
            "7402610",
            "2"
          ]
        }
      ],
      "priority": 5,
      "initDialog": 740269001,
      "npcId": [
        5248
      ],
      "performCfg": "",
      "heroTalk": "TALK_HERO_MAIN",
      "questId": 74026,
      "assetIndex": 641328832697000496,
      "prePerformCfg": "",
      "finishExec": [
        {
          "KPGKDHAFHFE": "TALK_EXEC_TRANS_SCENE_DUMMY_POINT",
          "param": [
            "3",
            "[3_4647:4350.040,157.630,4666.189,0.000,10.350,0.000]"
          ]
        }
      ]
    },
    {
      "id": 7402691,
      "activeMode": "PLAY_MODE_HOST",
      "beginCond": [
        {
          "type": "QUEST_COND_STATE_EQUAL",
          "_param": [
            "7402610",
            "2"
          ]
        }
      ],
      "priority": 5,
      "initDialog": 740269101,
      "npcId": [
        5248
      ],
      "performCfg": "",
      "heroTalk": "TALK_HERO_MAIN",
      "questId": 74026,
      "assetIndex": 3080653969361732407,
      "prePerformCfg": ""
    }
  ],
  "preloadLuaList": [
    16782318293299706109,
    6971773530033347015,
    9518224142810844696,
    9524215513732086490,
    9397810830913407037,
    18225756589110088588,
    8307476321402390355,
    16399015524231023976,
    4019197102826260736,
    1280106782714383569,
    2986907654908651551,
    2425577495713942756,
    11321379504191919848,
    10573815997363752501,
    7878703432866088761,
    11516544271417023411,
    4337125986411946622,
    9083405685722677811,
    13110261877445420203,
    13095296467576143484
  ],
  "forcePreloadLuaList": [
    8754206026903742261
  ],
  "freeStyleDic": {
    "21034": [
      1060
    ]
  },
  "dialogList": [
    {
      "id": 740260001,
      "talkRole": {
        "type": "TALK_ROLE_BLACK_SCREEN",
        "_id": ""
      },
      "talkContentTextMapHash": 4176192658,
      "talkAssetPath": "",
      "talkAssetPathAlter": "",
      "talkAudioName": "",
      "actionBefore": "",
      "actionWhile": "",
      "actionAfter": "",
      "optionIcon": "",
      "iconPath": ""
    },
    {
      "id": 740260002,
      "talkRole": {
        "type": "TALK_ROLE_BLACK_SCREEN",
        "_id": ""
      },
      "talkContentTextMapHash": 3273587994,
      "talkAssetPath": "",
      "talkAssetPathAlter": "",
      "talkAudioName": "",
      "actionBefore": "",
      "actionWhile": "",
      "actionAfter": "",
      "optionIcon": "",
      "iconPath": ""
    },
    {
      "id": 740260003,
      "talkRole": {
        "type": "TALK_ROLE_BLACK_SCREEN",
        "_id": ""
      },
      "talkContentTextMapHash": 1893051098,
      "talkAssetPath": "",
      "talkAssetPathAlter": "",
      "talkAudioName": "",
      "actionBefore": "",
      "actionWhile": "",
      "actionAfter": "",
      "optionIcon": "",
      "iconPath": ""
    },
    {
      "id": 740260004,
      "talkRole": {
        "type": "TALK_ROLE_BLACK_SCREEN",
        "_id": ""
      },
      "talkContentTextMapHash": 1999225738,
      "talkAssetPath": "",
      "talkAssetPathAlter": "",
      "talkAudioName": "",
      "actionBefore": "",
      "actionWhile": "",
      "actionAfter": "",
      "optionIcon": "",
      "iconPath": ""
    },
    {
      "id": 740260011,
      "talkRole": {
        "type": "TALK_ROLE_BLACK_SCREEN",
        "_id": ""
      },
      "talkContentTextMapHash": 2942159066,
      "talkAssetPath": "",
      "talkAssetPathAlter": "",
      "talkAudioName": "",
      "actionBefore": "",
      "actionWhile": "",
      "actionAfter": "",
      "optionIcon": "",
      "iconPath": ""
    }
  ]
}