{
  "id": 74038,
  "KPGKDHAFHFE": "WQ",
  "activeMode": "PLAY_MODE_ALL",
  "titleTextMapHash": 1537872167,
  "descTextMapHash": 2271003606,
  "luaPath": "Actor/Quest/WQ74038",
  "rewardIdList": [
    174038
  ],
  "subQuests": [
    {
      "subId": 7403801,
      "mainId": 74038,
      "order": 1,
      "descTextMapHash": 2458519004,
      "showType": "QUEST_HIDDEN",
      "finishCond": [
        {
          "KPGKDHAFHFE": "QUEST_CONTENT_COMPLETE_TALK",
          "param": [
            7403801,
            0
          ]
        }
      ],
      "guide": {},
      "showGuide": "QUEST_GUIDE_ITEM_DISABLE",
      "guideHint": {
        "param1": ""
      },
      "isRewind": true,
      "versionBegin": "",
      "versionEnd": ""
    },
    {
      "subId": 7403802,
      "mainId": 74038,
      "order": 14,
      "descTextMapHash": 320075396,
      "stepDescTextMapHash": 2787901285,
      "finishCond": [
        {
          "KPGKDHAFHFE": "QUEST_CONTENT_COMPLETE_TALK",
          "param": [
            7403814,
            0
          ]
        }
      ],
      "guide": {
        "KPGKDHAFHFE": "QUEST_GUIDE_LOCATION",
        "autoGuide": "QUEST_GUIDE_AUTO_ENABLE",
        "param": [
          "[3_340300158:2210.875,142.117,4695.980]",
          "15"
        ],
        "guideScene": 3,
        "guideStyle": "QUEST_GUIDE_STYLE_TARGET",
        "guideLayer": "QUEST_GUIDE_LAYER_SCENE"
      },
      "guideHint": {
        "param1": ""
      },
      "isRewind": true,
      "finishExec": [
        {
          "KPGKDHAFHFE": "QUEST_EXEC_REFRESH_GROUP_SUITE",
          "param": [
            "3",
            "133403058,1"
          ]
        }
      ],
      "versionBegin": "",
      "versionEnd": ""
    },
    {
      "subId": 7403803,
      "mainId": 74038,
      "order": 3,
      "descTextMapHash": 2300892116,
      "finishCond": [
        {
          "KPGKDHAFHFE": "QUEST_CONTENT_COMPLETE_TALK",
          "param": [
            7403802,
            0
          ]
        }
      ],
      "guide": {
        "KPGKDHAFHFE": "QUEST_GUIDE_NPC",
        "autoGuide": "QUEST_GUIDE_AUTO_ENABLE",
        "param": [
          "21054"
        ],
        "guideScene": 3,
        "guideStyle": "QUEST_GUIDE_STYLE_TARGET",
        "guideLayer": "QUEST_GUIDE_LAYER_SCENE"
      },
      "guideHint": {
        "param1": ""
      },
      "isRewind": true,
      "finishExec": [
        {
          "KPGKDHAFHFE": "QUEST_EXEC_UNREGISTER_DYNAMIC_GROUP",
          "param": [
            "133403261",
            "1"
          ]
        },
        {
          "KPGKDHAFHFE": "QUEST_EXEC_DEL_PACK_ITEM",
          "param": [
            "120488",
            "1"
          ]
        }
      ],
      "versionBegin": "",
      "versionEnd": ""
    },
    {
      "subId": 7403804,
      "mainId": 74038,
      "order": 4,
      "descTextMapHash": 194756588,
      "finishCond": [
        {
          "KPGKDHAFHFE": "QUEST_CONTENT_COMPLETE_TALK",
          "param": [
            7403803,
            0
          ]
        }
      ],
      "guide": {
        "KPGKDHAFHFE": "QUEST_GUIDE_LOCATION",
        "autoGuide": "QUEST_GUIDE_AUTO_ENABLE",
        "param": [
          "[3_4520:2385.194,189.554,4941.174]",
          "15"
        ],
        "guideScene": 3,
        "guideStyle": "QUEST_GUIDE_STYLE_TARGET",
        "guideLayer": "QUEST_GUIDE_LAYER_SCENE"
      },
      "guideHint": {
        "param1": ""
      },
      "isRewind": true,
      "versionBegin": "",
      "versionEnd": ""
    },
    {
      "subId": 7403805,
      "mainId": 74038,
      "order": 6,
      "descTextMapHash": 3399279156,
      "finishCond": [
        {
          "KPGKDHAFHFE": "QUEST_CONTENT_LUA_NOTIFY",
          "param": [
            0,
            0
          ],
          "count": 1
        },
        {
          "KPGKDHAFHFE": "QUEST_CONTENT_GADGET_STATE_CHANGE",
          "param": [
            133403144,
            144002
          ]
        }
      ],
      "guide": {
        "KPGKDHAFHFE": "QUEST_GUIDE_LOCATION",
        "autoGuide": "QUEST_GUIDE_AUTO_ENABLE",
        "param": [
          "[3_4532:2394.977,188.661,4951.056,0.000,254.629,0.000]",
          "30"
        ],
        "guideScene": 3,
        "guideStyle": "QUEST_GUIDE_STYLE_TARGET",
        "guideLayer": "QUEST_GUIDE_LAYER_SCENE"
      },
      "guideHint": {
        "param1": ""
      },
      "isRewind": true,
      "versionBegin": "",
      "versionEnd": ""
    },
    {
      "subId": 7403806,
      "mainId": 74038,
      "order": 7,
      "descTextMapHash": 475902004,
      "finishCond": [
        {
          "KPGKDHAFHFE": "QUEST_CONTENT_COMPLETE_TALK",
          "param": [
            7403804,
            0
          ]
        }
      ],
      "guide": {
        "KPGKDHAFHFE": "QUEST_GUIDE_LOCATION",
        "autoGuide": "QUEST_GUIDE_AUTO_ENABLE",
        "param": [
          "Q7403805_N5323",
          "0"
        ],
        "guideScene": 3,
        "guideStyle": "QUEST_GUIDE_STYLE_POINT",
        "guideLayer": "QUEST_GUIDE_LAYER_SCENE"
      },
      "guideHint": {
        "param1": ""
      },
      "isRewind": true,
      "versionBegin": "",
      "versionEnd": ""
    },
    {
      "subId": 7403807,
      "mainId": 74038,
      "order": 16,
      "descTextMapHash": 3429980628,
      "showType": "QUEST_HIDDEN",
      "finishCond": [
        {
          "KPGKDHAFHFE": "QUEST_CONTENT_LUA_NOTIFY",
          "param": [
            0,
            0
          ],
          "count": 1
        }
      ],
      "guide": {
        "autoGuide": "QUEST_GUIDE_AUTO_ENABLE",
        "guideScene": 3,
        "guideStyle": "QUEST_GUIDE_STYLE_TARGET",
        "guideLayer": "QUEST_GUIDE_LAYER_SCENE"
      },
      "showGuide": "QUEST_GUIDE_ITEM_DISABLE",
      "guideHint": {
        "param1": ""
      },
      "isRewind": true,
      "versionBegin": "",
      "versionEnd": ""
    },
    {
      "subId": 7403808,
      "mainId": 74038,
      "order": 102,
      "descTextMapHash": 852043060,
      "finishCond": [
        {
          "KPGKDHAFHFE": "QUEST_CONTENT_LUA_NOTIFY",
          "param": [
            0,
            0
          ],
          "count": 1
        }
      ],
      "guide": {
        "KPGKDHAFHFE": "QUEST_GUIDE_LOCATION",
        "autoGuide": "QUEST_GUIDE_AUTO_ENABLE",
        "param": [
          "[3_4543:2378.172,194.591,4954.099]"
        ],
        "guideScene": 3,
        "guideStyle": "QUEST_GUIDE_STYLE_TARGET",
        "guideLayer": "QUEST_GUIDE_LAYER_SCENE"
      },
      "guideHint": {
        "param1": ""
      },
      "isRewind": true,
      "versionBegin": "",
      "versionEnd": ""
    },
    {
      "subId": 7403809,
      "mainId": 74038,
      "order": 9,
      "descTextMapHash": 1428010908,
      "finishCond": [
        {
          "KPGKDHAFHFE": "QUEST_CONTENT_LUA_NOTIFY",
          "param": [
            0,
            0
          ],
          "count": 1
        }
      ],
      "guide": {
        "KPGKDHAFHFE": "QUEST_GUIDE_LOCATION",
        "autoGuide": "QUEST_GUIDE_AUTO_ENABLE",
        "param": [
          "[3_4544:2263.703,282.808,5069.490]",
          "15"
        ],
        "guideScene": 3,
        "guideStyle": "QUEST_GUIDE_STYLE_TARGET",
        "guideLayer": "QUEST_GUIDE_LAYER_SCENE"
      },
      "guideHint": {
        "param1": ""
      },
      "isRewind": true,
      "finishExec": [
        {
          "KPGKDHAFHFE": "QUEST_EXEC_REFRESH_GROUP_SUITE",
          "param": [
            "3",
            "133403144,4"
          ]
        },
        {
          "KPGKDHAFHFE": "QUEST_EXEC_UNREGISTER_DYNAMIC_GROUP",
          "param": [
            "133403147",
            "0"
          ]
        }
      ],
      "versionBegin": "",
      "versionEnd": ""
    },
    {
      "subId": 7403810,
      "mainId": 74038,
      "order": 10,
      "descTextMapHash": 1626480220,
      "finishCond": [
        {
          "KPGKDHAFHFE": "QUEST_CONTENT_LUA_NOTIFY",
          "param": [
            0,
            0
          ],
          "count": 1
        }
      ],
      "guide": {
        "KPGKDHAFHFE": "QUEST_GUIDE_LOCATION",
        "autoGuide": "QUEST_GUIDE_AUTO_ENABLE",
        "param": [
          "[3_4544:2263.703,282.808,5069.490]",
          "30"
        ],
        "guideScene": 3,
        "guideStyle": "QUEST_GUIDE_STYLE_TARGET",
        "guideLayer": "QUEST_GUIDE_LAYER_SCENE"
      },
      "guideHint": {
        "param1": ""
      },
      "isRewind": true,
      "finishExec": [
        {
          "KPGKDHAFHFE": "QUEST_EXEC_UNREGISTER_DYNAMIC_GROUP",
          "param": [
            "133403148",
            "0"
          ]
        },
        {
          "KPGKDHAFHFE": "QUEST_EXEC_UNREGISTER_DYNAMIC_GROUP",
          "param": [
            "133403672",
            "1"
          ]
        }
      ],
      "versionBegin": "",
      "versionEnd": ""
    },
    {
      "subId": 7403811,
      "mainId": 74038,
      "order": 11,
      "descTextMapHash": 3360776748,
      "finishCond": [
        {
          "KPGKDHAFHFE": "QUEST_CONTENT_COMPLETE_TALK",
          "param": [
            7403806,
            0
          ]
        }
      ],
      "guide": {
        "KPGKDHAFHFE": "QUEST_GUIDE_LOCATION",
        "autoGuide": "QUEST_GUIDE_AUTO_ENABLE",
        "param": [
          "[3_5286:2328.004,289.382,4999.722]",
          "0"
        ],
        "guideScene": 3,
        "guideStyle": "QUEST_GUIDE_STYLE_TARGET",
        "guideLayer": "QUEST_GUIDE_LAYER_SCENE"
      },
      "guideHint": {
        "param1": ""
      },
      "isRewind": true,
      "versionBegin": "",
      "versionEnd": ""
    },
    {
      "subId": 7403812,
      "mainId": 74038,
      "order": 12,
      "descTextMapHash": 2065726724,
      "stepDescTextMapHash": 3996779013,
      "finishCond": [
        {
          "KPGKDHAFHFE": "QUEST_CONTENT_COMPLETE_TALK",
          "param": [
            7403807,
            0
          ]
        }
      ],
      "guide": {
        "KPGKDHAFHFE": "QUEST_GUIDE_LOCATION",
        "autoGuide": "QUEST_GUIDE_AUTO_ENABLE",
        "param": [
          "[3_4553:3637.471,446.167,4496.428]",
          "20"
        ],
        "guideScene": 3,
        "guideStyle": "QUEST_GUIDE_STYLE_TARGET",
        "guideLayer": "QUEST_GUIDE_LAYER_SCENE"
      },
      "guideHint": {
        "param1": ""
      },
      "isRewind": true,
      "versionBegin": "",
      "versionEnd": ""
    },
    {
      "subId": 7403813,
      "mainId": 74038,
      "order": 13,
      "descTextMapHash": 2492206268,
      "finishCond": [
        {
          "KPGKDHAFHFE": "QUEST_CONTENT_COMPLETE_TALK",
          "param": [
            7403808,
            0
          ]
        }
      ],
      "guide": {
        "KPGKDHAFHFE": "QUEST_GUIDE_NPC",
        "autoGuide": "QUEST_GUIDE_AUTO_ENABLE",
        "param": [
          "5323"
        ],
        "guideScene": 3,
        "guideStyle": "QUEST_GUIDE_STYLE_TARGET",
        "guideLayer": "QUEST_GUIDE_LAYER_SCENE"
      },
      "guideHint": {
        "param1": ""
      },
      "isRewind": true,
      "finishExec": [
        {
          "KPGKDHAFHFE": "QUEST_EXEC_DEL_PACK_ITEM",
          "param": [
            "120473",
            "1"
          ]
        }
      ],
      "versionBegin": "",
      "versionEnd": ""
    },
    {
      "subId": 7403814,
      "mainId": 74038,
      "order": 15,
      "descTextMapHash": 2093276316,
      "finishCond": [
        {
          "KPGKDHAFHFE": "QUEST_CONTENT_FINISH_PLOT",
          "param": [
            7403814,
            0
          ]
        }
      ],
      "guide": {
        "KPGKDHAFHFE": "QUEST_GUIDE_LOCATION",
        "autoGuide": "QUEST_GUIDE_AUTO_ENABLE",
        "param": [
          "[3_4566:2182.276,154.558,4689.434]",
          "5"
        ],
        "guideScene": 3,
        "guideStyle": "QUEST_GUIDE_STYLE_TARGET",
        "guideLayer": "QUEST_GUIDE_LAYER_SCENE"
      },
      "guideHint": {
        "param1": ""
      },
      "isRewind": true,
      "finishExec": [
        {
          "KPGKDHAFHFE": "QUEST_EXEC_UNREGISTER_DYNAMIC_GROUP",
          "param": [
            "133403155",
            "0"
          ]
        },
        {
          "KPGKDHAFHFE": "QUEST_EXEC_DEL_PACK_ITEM",
          "param": [
            "120474",
            "1"
          ]
        }
      ],
      "versionBegin": "",
      "versionEnd": ""
    },
    {
      "subId": 7403815,
      "mainId": 74038,
      "order": 17,
      "descTextMapHash": 3949065956,
      "finishCond": [
        {
          "KPGKDHAFHFE": "QUEST_CONTENT_LUA_NOTIFY",
          "param": [
            0,
            0
          ],
          "count": 1
        }
      ],
      "guide": {
        "KPGKDHAFHFE": "QUEST_GUIDE_LOCATION",
        "autoGuide": "QUEST_GUIDE_AUTO_ENABLE",
        "param": [
          "[3_4567:2191.901,149.226,4682.238]",
          "0"
        ],
        "guideScene": 3,
        "guideStyle": "QUEST_GUIDE_STYLE_TARGET",
        "guideLayer": "QUEST_GUIDE_LAYER_SCENE"
      },
      "guideHint": {
        "param1": ""
      },
      "isRewind": true,
      "finishExec": [
        {
          "KPGKDHAFHFE": "QUEST_EXEC_UNREGISTER_DYNAMIC_GROUP",
          "param": [
            "133403236",
            "0"
          ]
        }
      ],
      "versionBegin": "",
      "versionEnd": ""
    },
    {
      "subId": 7403816,
      "mainId": 74038,
      "order": 18,
      "descTextMapHash": 3984994692,
      "finishCond": [
        {
          "KPGKDHAFHFE": "QUEST_CONTENT_LUA_NOTIFY",
          "param": [
            0,
            0
          ],
          "count": 1
        }
      ],
      "guide": {
        "KPGKDHAFHFE": "QUEST_GUIDE_LOCATION",
        "autoGuide": "QUEST_GUIDE_AUTO_ENABLE",
        "param": [
          "[3_4568:2196.428,139.939,4682.951]",
          "10"
        ],
        "guideScene": 3,
        "guideStyle": "QUEST_GUIDE_STYLE_TARGET",
        "guideLayer": "QUEST_GUIDE_LAYER_SCENE"
      },
      "guideHint": {
        "param1": ""
      },
      "isRewind": true,
      "finishExec": [
        {
          "KPGKDHAFHFE": "QUEST_EXEC_UNREGISTER_DYNAMIC_GROUP",
          "param": [
            "133403156",
            "0"
          ]
        }
      ],
      "versionBegin": "",
      "versionEnd": ""
    },
    {
      "subId": 7403817,
      "mainId": 74038,
      "order": 19,
      "descTextMapHash": 979312692,
      "finishCond": [
        {
          "KPGKDHAFHFE": "QUEST_CONTENT_COMPLETE_TALK",
          "param": [
            7403809,
            0
          ]
        }
      ],
      "guide": {
        "KPGKDHAFHFE": "QUEST_GUIDE_NPC",
        "autoGuide": "QUEST_GUIDE_AUTO_ENABLE",
        "param": [
          "5323"
        ],
        "guideScene": 3,
        "guideStyle": "QUEST_GUIDE_STYLE_TARGET",
        "guideLayer": "QUEST_GUIDE_LAYER_SCENE"
      },
      "guideHint": {
        "param1": ""
      },
      "finishParent": true,
      "isRewind": true,
      "finishExec": [
        {
          "KPGKDHAFHFE": "QUEST_EXEC_SET_QUEST_GLOBAL_VAR",
          "param": [
            "74038",
            "2"
          ]
        },
        {
          "KPGKDHAFHFE": "QUEST_EXEC_INC_QUEST_GLOBAL_VAR",
          "param": [
            "7404401",
            "1"
          ]
        },
        {
          "KPGKDHAFHFE": "QUEST_EXEC_REFRESH_GROUP_SUITE",
          "param": [
            "3",
            "133403725,2"
          ]
        }
      ],
      "versionBegin": "",
      "versionEnd": ""
    },
    {
      "subId": 7403818,
      "mainId": 74038,
      "order": 5,
      "showType": "QUEST_HIDDEN",
      "finishCond": [
        {
          "KPGKDHAFHFE": "QUEST_CONTENT_FINISH_PLOT",
          "param": [
            7403818,
            0
          ]
        }
      ],
      "guide": {},
      "showGuide": "QUEST_GUIDE_ITEM_DISABLE",
      "guideHint": {
        "param1": ""
      },
      "failParentShow": "QUEST_HIDDEN",
      "finishExec": [
        {
          "KPGKDHAFHFE": "QUEST_EXEC_REFRESH_GROUP_SUITE",
          "param": [
            "3",
            "133403144,2"
          ]
        }
      ],
      "versionBegin": "",
      "versionEnd": ""
    }
  ],
  "talks": [
    {
      "id": 7403801,
      "beginWay": "TALK_BEGIN_MANUAL",
      "activeMode": "PLAY_MODE_HOST",
      "beginCond": [
        {
          "type": "QUEST_COND_STATE_EQUAL",
          "_param": [
            "7403801",
            "2"
          ]
        }
      ],
      "priority": 5,
      "initDialog": 740380101,
      "npcId": [
        5305
      ],
      "performCfg": "QuestDialogue/WQ/Fontaine_74038/Q7403801",
      "heroTalk": "TALK_HERO_MAIN",
      "questId": 74038,
      "assetIndex": 16957293327983969399,
      "prePerformCfg": "",
      "talkMarkType": "TALK_MARK_COMMON",
      "PLPFOOINAAJ": [
        "[3_340300100:2419.060,245.432,4954.057,0.000,266.916,0.000]",
        "[3_340300101:2417.009,245.574,4954.686,0.000,114.869,0.000]",
        "[3_340300102:2417.093,245.504,4953.270,0.000,62.737,0.000]"
      ]
    },
    {
      "id": 7403802,
      "beginWay": "TALK_BEGIN_AUTO",
      "activeMode": "PLAY_MODE_HOST",
      "beginCond": [
        {
          "type": "QUEST_COND_STATE_EQUAL",
          "_param": [
            "7403803",
            "2"
          ]
        }
      ],
      "priority": 5,
      "initDialog": 740380201,
      "npcId": [
        21054
      ],
      "performCfg": "QuestDialogue/WQ/Fontaine_74038/Q7403802",
      "heroTalk": "TALK_HERO_MAIN",
      "questId": 74038,
      "assetIndex": 2173004904132302205,
      "prePerformCfg": "",
      "PLPFOOINAAJ": [
        "[3_340300087:2203.681,144.000,4684.235,0.000,280.159,0.000]",
        "[3_340300088:2203.073,144.000,4685.679,0.000,237.417,0.000]",
        "[3_4509:2201.381,144.000,4684.607,0.000,73.291,0.000]",
        "[3_5267:2202.100,144.000,4683.191,0.000,11.090,0.000]"
      ]
    },
    {
      "id": 7403803,
      "beginWay": "TALK_BEGIN_MANUAL",
      "activeMode": "PLAY_MODE_HOST",
      "beginCond": [
        {
          "type": "QUEST_COND_STATE_EQUAL",
          "_param": [
            "7403804",
            "2"
          ]
        }
      ],
      "priority": 5,
      "initDialog": 740380301,
      "npcId": [
        5323,
        21054
      ],
      "performCfg": "QuestDialogue/WQ/Fontaine_74038/Q7403803",
      "heroTalk": "TALK_HERO_MAIN",
      "questId": 74038,
      "assetIndex": 12461418674664265640,
      "prePerformCfg": "",
      "PLPFOOINAAJ": [
        "[3_340300103:2386.371,190.000,4942.602,0.000,184.626,0.000]",
        "[3_340300104:2384.835,190.000,4942.318,0.000,142.436,0.000]",
        "[3_340300105:2385.561,190.000,4939.988]",
        "[3_340300106:2386.979,190.000,4940.293,0.000,329.630,0.000]"
      ]
    },
    {
      "id": 7403804,
      "beginWay": "TALK_BEGIN_MANUAL",
      "activeMode": "PLAY_MODE_HOST",
      "beginCond": [
        {
          "type": "QUEST_COND_STATE_EQUAL",
          "_param": [
            "7403806",
            "2"
          ]
        }
      ],
      "priority": 5,
      "initDialog": 740380401,
      "npcId": [
        5323,
        21054
      ],
      "performCfg": "QuestDialogue/WQ/Fontaine_74038/Q7403804",
      "heroTalk": "TALK_HERO_MAIN",
      "questId": 74038,
      "assetIndex": 11463201982147197614,
      "prePerformCfg": "",
      "PLPFOOINAAJ": [
        "[3_340300103:2386.371,190.000,4942.602,0.000,184.626,0.000]",
        "[3_340300104:2384.835,190.000,4942.318,0.000,142.436,0.000]",
        "[3_340300105:2385.561,190.000,4939.988]",
        "[3_340300106:2386.979,190.000,4940.293,0.000,329.630,0.000]"
      ]
    },
    {
      "id": 7403805,
      "beginWay": "TALK_BEGIN_MANUAL",
      "activeMode": "PLAY_MODE_HOST",
      "beginCond": [
        {
          "type": "QUEST_COND_STATE_EQUAL",
          "_param": [
            "7403803",
            "2"
          ]
        }
      ],
      "priority": 5,
      "initDialog": 740380501,
      "npcId": [
        5305
      ],
      "performCfg": "",
      "heroTalk": "TALK_HERO_MAIN",
      "questId": 74038,
      "assetIndex": 8070725290069996517,
      "prePerformCfg": ""
    },
    {
      "id": 7403806,
      "beginWay": "TALK_BEGIN_MANUAL",
      "activeMode": "PLAY_MODE_HOST",
      "beginCond": [
        {
          "type": "QUEST_COND_STATE_EQUAL",
          "_param": [
            "7403811",
            "2"
          ]
        }
      ],
      "priority": 5,
      "initDialog": 740380601,
      "npcId": [
        21053
      ],
      "performCfg": "QuestDialogue/WQ/Fontaine_74038/Q7403806",
      "heroTalk": "TALK_HERO_MAIN",
      "questId": 74038,
      "assetIndex": 6825667567397801115,
      "prePerformCfg": "",
      "PLPFOOINAAJ": [
        "[3_340300109:2327.113,289.258,4999.997,0.000,80.281,0.000]",
        "[3_340300110:2327.454,288.840,5001.053,0.000,112.046,0.000]",
        "[3_4552:2328.545,289.085,5000.371,0.000,293.075,0.000]"
      ]
    },
    {
      "id": 7403807,
      "beginWay": "TALK_BEGIN_MANUAL",
      "activeMode": "PLAY_MODE_HOST",
      "beginCond": [
        {
          "type": "QUEST_COND_STATE_EQUAL",
          "_param": [
            "7403812",
            "2"
          ]
        }
      ],
      "priority": 5,
      "initDialog": 740380701,
      "npcId": [
        21083
      ],
      "performCfg": "QuestDialogue/WQ/Fontaine_74038/Q7403807",
      "heroTalk": "TALK_HERO_MAIN",
      "questId": 74038,
      "assetIndex": 7920731141448139674,
      "prePerformCfg": "",
      "PLPFOOINAAJ": [
        "[3_340300111:3640.282,446.190,4495.016,0.000,294.202,0.000]",
        "[3_340300112:3638.193,446.181,4496.857,0.000,144.288,0.000]",
        "[3_340300113:3639.264,446.181,4497.486,0.000,174.182,0.000]",
        "[3_340300114:3637.974,446.181,4494.848,0.000,74.300,0.000]"
      ]
    },
    {
      "id": 7403808,
      "beginWay": "TALK_BEGIN_MANUAL",
      "activeMode": "PLAY_MODE_HOST",
      "beginCond": [
        {
          "type": "QUEST_COND_STATE_EQUAL",
          "_param": [
            "7403813",
            "2"
          ]
        }
      ],
      "priority": 5,
      "initDialog": 740380801,
      "npcId": [
        5323
      ],
      "performCfg": "QuestDialogue/WQ/Fontaine_74038/Q7403808",
      "heroTalk": "TALK_HERO_MAIN",
      "questId": 74038,
      "assetIndex": 13155498995145805304,
      "prePerformCfg": "",
      "PLPFOOINAAJ": [
        "[3_340300115:2211.657,168.000,4799.323,0.000,153.693,0.000]",
        "[3_340300116:2210.997,168.000,4798.480,0.000,103.850,0.000]",
        "[3_340300122:2212.289,168.000,4798.150,0.000,308.505,0.000]"
      ]
    },
    {
      "id": 7403809,
      "beginWay": "TALK_BEGIN_MANUAL",
      "activeMode": "PLAY_MODE_HOST",
      "beginCond": [
        {
          "type": "QUEST_COND_STATE_EQUAL",
          "_param": [
            "7403817",
            "2"
          ]
        }
      ],
      "priority": 5,
      "initDialog": 740380901,
      "npcId": [
        5323
      ],
      "performCfg": "QuestDialogue/WQ/Fontaine_74038/Q7403809",
      "heroTalk": "TALK_HERO_MAIN",
      "questId": 74038,
      "assetIndex": 16027362327307843504,
      "prePerformCfg": "",
      "PLPFOOINAAJ": [
        "[3_340300117:2204.396,143.000,4690.884,0.000,90.421,0.000]",
        "[3_340300118:2205.908,143.000,4690.088,0.000,303.458,0.000]",
        "[3_340300119:2206.010,143.000,4691.441,0.000,245.666,0.000]"
      ]
    },
    {
      "id": 7403810,
      "beginWay": "TALK_BEGIN_MANUAL",
      "activeMode": "PLAY_MODE_HOST",
      "beginCond": [
        {
          "type": "QUEST_COND_STATE_EQUAL",
          "_param": [
            "7403805",
            "2"
          ]
        }
      ],
      "priority": 5,
      "initDialog": 740381001,
      "npcId": [
        21054
      ],
      "performCfg": "",
      "heroTalk": "TALK_HERO_MAIN",
      "questId": 74038,
      "assetIndex": 2171728445781453909,
      "prePerformCfg": ""
    },
    {
      "id": 7403811,
      "beginWay": "TALK_BEGIN_MANUAL",
      "activeMode": "PLAY_MODE_HOST",
      "beginCond": [
        {
          "type": "QUEST_COND_STATE_EQUAL",
          "_param": [
            "7403805",
            "2"
          ]
        }
      ],
      "priority": 5,
      "initDialog": 740381101,
      "npcId": [
        5323
      ],
      "performCfg": "",
      "heroTalk": "TALK_HERO_MAIN",
      "questId": 74038,
      "assetIndex": 18018073008465800416,
      "prePerformCfg": ""
    },
    {
      "id": 7403812,
      "beginWay": "TALK_BEGIN_MANUAL",
      "activeMode": "PLAY_MODE_HOST",
      "beginCond": [
        {
          "type": "QUEST_COND_STATE_EQUAL",
          "_param": [
            "7403812",
            "2"
          ]
        }
      ],
      "priority": 5,
      "initDialog": 740381201,
      "npcId": [
        5323
      ],
      "performCfg": "",
      "heroTalk": "TALK_HERO_MAIN",
      "questId": 74038,
      "assetIndex": 2077661277381351764,
      "prePerformCfg": ""
    },
    {
      "id": 7403813,
      "beginWay": "TALK_BEGIN_MANUAL",
      "activeMode": "PLAY_MODE_HOST",
      "beginCondComb": "LOGIC_OR",
      "beginCond": [
        {
          "type": "QUEST_COND_STATE_EQUAL",
          "_param": [
            "7403814",
            "2"
          ]
        },
        {
          "type": "QUEST_COND_STATE_EQUAL",
          "_param": [
            "7403815",
            "2"
          ]
        },
        {
          "type": "QUEST_COND_STATE_EQUAL",
          "_param": [
            "7403816",
            "2"
          ]
        }
      ],
      "priority": 5,
      "initDialog": 740381301,
      "npcId": [
        5323
      ],
      "performCfg": "",
      "heroTalk": "TALK_HERO_MAIN",
      "questId": 74038,
      "assetIndex": 5728791576235061843,
      "prePerformCfg": ""
    },
    {
      "id": 7403814,
      "beginWay": "TALK_BEGIN_MANUAL",
      "activeMode": "PLAY_MODE_HOST",
      "beginCond": [
        {
          "type": "QUEST_COND_STATE_EQUAL",
          "_param": [
            "7403802",
            "2"
          ]
        }
      ],
      "priority": 5,
      "initDialog": 740381401,
      "npcId": [
        5323
      ],
      "performCfg": "QuestDialogue/WQ/Fontaine_74038/Q7403814",
      "heroTalk": "TALK_HERO_MAIN",
      "questId": 74038,
      "assetIndex": 9514245431111467143,
      "prePerformCfg": "",
      "PLPFOOINAAJ": [
        "[3_340300159:2212.287,141.685,4696.588,0.000,174.990,0.000]",
        "[3_340300160:2211.941,141.685,4694.958,0.000,8.206,0.000]",
        "[3_340300161:2212.993,141.685,4695.236,0.000,321.569,0.000]"
      ]
    }
  ]
}