{
  "id": 74034,
  "series": 74034,
  "KPGKDHAFHFE": "WQ",
  "titleTextMapHash": 1203136399,
  "descTextMapHash": 146463830,
  "luaPath": "Actor/Quest/WQ74034",
  "suggestTrackMainQuestList": [
    74035
  ],
  "rewardIdList": [
    174034
  ],
  "subQuests": [
    {
      "subId": 7403401,
      "mainId": 74034,
      "order": 2,
      "showType": "QUEST_HIDDEN",
      "finishCond": [
        {
          "KPGKDHAFHFE": "QUEST_CONTENT_COMPLETE_TALK",
          "param": [
            7403404,
            0
          ]
        }
      ],
      "guide": {
        "guideScene": 3,
        "guideStyle": "QUEST_GUIDE_STYLE_START",
        "guideLayer": "QUEST_GUIDE_LAYER_SCENE"
      },
      "showGuide": "QUEST_GUIDE_ITEM_DISABLE",
      "guideHint": {
        "param1": ""
      },
      "isRewind": true,
      "versionBegin": "",
      "versionEnd": ""
    },
    {
      "subId": 7403402,
      "mainId": 74034,
      "order": 1,
      "showType": "QUEST_HIDDEN",
      "finishCond": [
        {
          "KPGKDHAFHFE": "QUEST_CONTENT_COMPLETE_TALK",
          "param": [
            7403401,
            0
          ]
        }
      ],
      "guide": {
        "guideScene": 3,
        "guideStyle": "QUEST_GUIDE_STYLE_START",
        "guideLayer": "QUEST_GUIDE_LAYER_SCENE"
      },
      "showGuide": "QUEST_GUIDE_ITEM_DISABLE",
      "guideHint": {
        "param1": ""
      },
      "isRewind": true,
      "versionBegin": "",
      "versionEnd": ""
    },
    {
      "subId": 7403403,
      "mainId": 74034,
      "order": 5,
      "descTextMapHash": 2513995796,
      "GMKDJFPEFFF": [
        108301
      ],
      "finishCond": [
        {
          "KPGKDHAFHFE": "QUEST_CONTENT_COMPLETE_TALK",
          "param": [
            7403405,
            0
          ]
        }
      ],
      "failCond": [
        {
          "KPGKDHAFHFE": "QUEST_CONTENT_QUEST_STATE_EQUAL",
          "param": [
            7403407,
            3
          ]
        }
      ],
      "guide": {
        "KPGKDHAFHFE": "QUEST_GUIDE_NPC",
        "param": [
          "13350"
        ],
        "guideScene": 1083,
        "guideStyle": "QUEST_GUIDE_STYLE_TARGET",
        "guideLayer": "QUEST_GUIDE_LAYER_SCENE"
      },
      "guideHint": {
        "param1": ""
      },
      "isRewind": true,
      "versionBegin": "",
      "versionEnd": ""
    },
    {
      "subId": 7403404,
      "mainId": 74034,
      "order": 13,
      "showType": "QUEST_HIDDEN",
      "guide": {
        "guideScene": 1083,
        "guideStyle": "QUEST_GUIDE_STYLE_TARGET",
        "guideLayer": "QUEST_GUIDE_LAYER_SCENE"
      },
      "showGuide": "QUEST_GUIDE_ITEM_DISABLE",
      "guideHint": {
        "param1": ""
      },
      "versionBegin": "",
      "versionEnd": ""
    },
    {
      "subId": 7403405,
      "mainId": 74034,
      "order": 6,
      "descTextMapHash": 1780174892,
      "GMKDJFPEFFF": [
        108301
      ],
      "finishCond": [
        {
          "KPGKDHAFHFE": "QUEST_CONTENT_COMPLETE_TALK",
          "param": [
            7403406,
            0
          ]
        }
      ],
      "failCond": [
        {
          "KPGKDHAFHFE": "QUEST_CONTENT_QUEST_STATE_EQUAL",
          "param": [
            7403407,
            3
          ]
        }
      ],
      "guide": {
        "KPGKDHAFHFE": "QUEST_GUIDE_NPC",
        "param": [
          "13351"
        ],
        "guideScene": 1083,
        "guideStyle": "QUEST_GUIDE_STYLE_TARGET",
        "guideLayer": "QUEST_GUIDE_LAYER_SCENE"
      },
      "guideHint": {
        "param1": ""
      },
      "isRewind": true,
      "versionBegin": "",
      "versionEnd": ""
    },
    {
      "subId": 7403406,
      "mainId": 74034,
      "order": 11,
      "showType": "QUEST_HIDDEN",
      "guide": {
        "guideScene": 1083,
        "guideStyle": "QUEST_GUIDE_STYLE_TARGET",
        "guideLayer": "QUEST_GUIDE_LAYER_SCENE"
      },
      "showGuide": "QUEST_GUIDE_ITEM_DISABLE",
      "guideHint": {
        "param1": ""
      },
      "versionBegin": "",
      "versionEnd": ""
    },
    {
      "subId": 7403407,
      "mainId": 74034,
      "order": 7,
      "descTextMapHash": 1839019516,
      "GMKDJFPEFFF": [
        108301
      ],
      "finishCond": [
        {
          "KPGKDHAFHFE": "QUEST_CONTENT_COMPLETE_TALK",
          "param": [
            7403407,
            0
          ]
        }
      ],
      "failCond": [
        {
          "KPGKDHAFHFE": "QUEST_CONTENT_QUEST_STATE_EQUAL",
          "param": [
            7403403,
            3
          ]
        }
      ],
      "guide": {
        "KPGKDHAFHFE": "QUEST_GUIDE_NPC",
        "param": [
          "13351"
        ],
        "guideScene": 1083,
        "guideStyle": "QUEST_GUIDE_STYLE_TARGET",
        "guideLayer": "QUEST_GUIDE_LAYER_SCENE"
      },
      "guideHint": {
        "param1": ""
      },
      "isRewind": true,
      "versionBegin": "",
      "versionEnd": ""
    },
    {
      "subId": 7403408,
      "mainId": 74034,
      "order": 10,
      "showType": "QUEST_HIDDEN",
      "guide": {
        "guideScene": 1083,
        "guideStyle": "QUEST_GUIDE_STYLE_TARGET",
        "guideLayer": "QUEST_GUIDE_LAYER_SCENE"
      },
      "showGuide": "QUEST_GUIDE_ITEM_DISABLE",
      "guideHint": {
        "param1": ""
      },
      "versionBegin": "",
      "versionEnd": ""
    },
    {
      "subId": 7403409,
      "mainId": 74034,
      "order": 8,
      "descTextMapHash": 96288284,
      "GMKDJFPEFFF": [
        108301
      ],
      "finishCond": [
        {
          "KPGKDHAFHFE": "QUEST_CONTENT_COMPLETE_TALK",
          "param": [
            7403408,
            0
          ]
        }
      ],
      "failCond": [
        {
          "KPGKDHAFHFE": "QUEST_CONTENT_QUEST_STATE_EQUAL",
          "param": [
            7403403,
            3
          ]
        }
      ],
      "guide": {
        "KPGKDHAFHFE": "QUEST_GUIDE_NPC",
        "param": [
          "13350"
        ],
        "guideScene": 1083,
        "guideStyle": "QUEST_GUIDE_STYLE_TARGET",
        "guideLayer": "QUEST_GUIDE_LAYER_SCENE"
      },
      "guideHint": {
        "param1": ""
      },
      "isRewind": true,
      "versionBegin": "",
      "versionEnd": ""
    },
    {
      "subId": 7403410,
      "mainId": 74034,
      "order": 12,
      "showType": "QUEST_HIDDEN",
      "guide": {
        "guideScene": 1083,
        "guideStyle": "QUEST_GUIDE_STYLE_TARGET",
        "guideLayer": "QUEST_GUIDE_LAYER_SCENE"
      },
      "showGuide": "QUEST_GUIDE_ITEM_DISABLE",
      "guideHint": {
        "param1": ""
      },
      "versionBegin": "",
      "versionEnd": ""
    },
    {
      "subId": 7403411,
      "mainId": 74034,
      "order": 9,
      "descTextMapHash": 3530378708,
      "GMKDJFPEFFF": [
        108301
      ],
      "finishCond": [
        {
          "KPGKDHAFHFE": "QUEST_CONTENT_COMPLETE_TALK",
          "param": [
            7403409,
            0
          ]
        }
      ],
      "guide": {
        "KPGKDHAFHFE": "QUEST_GUIDE_NPC",
        "param": [
          "5083"
        ],
        "guideScene": 1083,
        "guideStyle": "QUEST_GUIDE_STYLE_TARGET",
        "guideLayer": "QUEST_GUIDE_LAYER_SCENE"
      },
      "guideHint": {
        "param1": ""
      },
      "finishParent": true,
      "isRewind": true,
      "versionBegin": "",
      "versionEnd": ""
    },
    {
      "subId": 7403412,
      "mainId": 74034,
      "order": 14,
      "showType": "QUEST_HIDDEN",
      "guide": {
        "guideScene": 1083,
        "guideStyle": "QUEST_GUIDE_STYLE_TARGET",
        "guideLayer": "QUEST_GUIDE_LAYER_SCENE"
      },
      "showGuide": "QUEST_GUIDE_ITEM_DISABLE",
      "guideHint": {
        "param1": ""
      },
      "versionBegin": "",
      "versionEnd": ""
    },
    {
      "subId": 7403413,
      "mainId": 74034,
      "order": 15,
      "showType": "QUEST_HIDDEN",
      "guide": {
        "guideScene": 1083,
        "guideStyle": "QUEST_GUIDE_STYLE_TARGET",
        "guideLayer": "QUEST_GUIDE_LAYER_SCENE"
      },
      "showGuide": "QUEST_GUIDE_ITEM_DISABLE",
      "guideHint": {
        "param1": ""
      },
      "versionBegin": "",
      "versionEnd": ""
    },
    {
      "subId": 7403414,
      "mainId": 74034,
      "order": 3,
      "showType": "QUEST_HIDDEN",
      "finishCond": [
        {
          "KPGKDHAFHFE": "QUEST_CONTENT_COMPLETE_TALK",
          "param": [
            7403402,
            0
          ]
        }
      ],
      "guide": {
        "guideScene": 3,
        "guideStyle": "QUEST_GUIDE_STYLE_START",
        "guideLayer": "QUEST_GUIDE_LAYER_SCENE"
      },
      "showGuide": "QUEST_GUIDE_ITEM_DISABLE",
      "guideHint": {
        "param1": ""
      },
      "versionBegin": "",
      "versionEnd": ""
    },
    {
      "subId": 7403415,
      "mainId": 74034,
      "order": 4,
      "showType": "QUEST_HIDDEN",
      "finishCond": [
        {
          "KPGKDHAFHFE": "QUEST_CONTENT_COMPLETE_TALK",
          "param": [
            7403403,
            0
          ]
        }
      ],
      "guide": {
        "guideScene": 3,
        "guideStyle": "QUEST_GUIDE_STYLE_START",
        "guideLayer": "QUEST_GUIDE_LAYER_SCENE"
      },
      "showGuide": "QUEST_GUIDE_ITEM_DISABLE",
      "guideHint": {
        "param1": ""
      },
      "versionBegin": "",
      "versionEnd": ""
    }
  ],
  "talks": [
    {
      "id": 7403405,
      "beginWay": "TALK_BEGIN_MANUAL",
      "beginCond": [
        {
          "type": "QUEST_COND_STATE_EQUAL",
          "_param": [
            "7403403",
            "2"
          ]
        }
      ],
      "priority": 5,
      "initDialog": 740340501,
      "npcId": [
        13350
      ],
      "performCfg": "QuestDialogue/WQ/Fontaine_74034/Q7403405",
      "heroTalk": "TALK_HERO_MAIN",
      "questId": 74034,
      "assetIndex": 10082888898128345896,
      "prePerformCfg": "",
      "PLPFOOINAAJ": [
        "[1083_12:8.065,0.000,-6.116,0.000,272.361,0.000]",
        "[1083_24:5.143,0.000,-4.437,0.000,111.177,0.000]",
        "[1083_25:5.080,0.000,-6.286,0.000,66.916,0.000]",
        "[1083_26:5.337,0.000,-3.606,0.000,115.257,0.000]"
      ]
    },
    {
      "id": 7403406,
      "beginWay": "TALK_BEGIN_MANUAL",
      "beginCond": [
        {
          "type": "QUEST_COND_STATE_EQUAL",
          "_param": [
            "7403405",
            "2"
          ]
        }
      ],
      "priority": 5,
      "initDialog": 740340601,
      "npcId": [
        13351
      ],
      "performCfg": "QuestDialogue/WQ/Fontaine_74034/Q7403406",
      "heroTalk": "TALK_HERO_MAIN",
      "questId": 74034,
      "assetIndex": 16304672332031431180,
      "prePerformCfg": "",
      "PLPFOOINAAJ": [
        "[1083_13:-8.077,0.000,7.544,0.000,93.670,0.000]",
        "[1083_27:-4.844,0.000,7.777,0.000,272.972,0.000]",
        "[1083_28:-4.891,0.000,5.725,0.000,291.985,0.000]",
        "[1083_29:-4.946,0.000,4.838,0.000,315.180,0.000]"
      ]
    },
    {
      "id": 7403407,
      "beginWay": "TALK_BEGIN_MANUAL",
      "beginCond": [
        {
          "type": "QUEST_COND_STATE_EQUAL",
          "_param": [
            "7403407",
            "2"
          ]
        }
      ],
      "priority": 5,
      "initDialog": 740340701,
      "npcId": [
        13351
      ],
      "performCfg": "QuestDialogue/WQ/Fontaine_74034/Q7403407",
      "heroTalk": "TALK_HERO_MAIN",
      "questId": 74034,
      "assetIndex": 7238179508649077190,
      "prePerformCfg": "",
      "PLPFOOINAAJ": [
        "[1083_13:-8.077,0.000,7.544,0.000,93.670,0.000]",
        "[1083_27:-4.844,0.000,7.777,0.000,272.972,0.000]",
        "[1083_28:-4.891,0.000,5.725,0.000,291.985,0.000]",
        "[1083_29:-4.946,0.000,4.838,0.000,315.180,0.000]"
      ]
    },
    {
      "id": 7403408,
      "beginWay": "TALK_BEGIN_MANUAL",
      "beginCond": [
        {
          "type": "QUEST_COND_STATE_EQUAL",
          "_param": [
            "7403409",
            "2"
          ]
        }
      ],
      "priority": 5,
      "initDialog": 740340801,
      "npcId": [
        13350
      ],
      "performCfg": "QuestDialogue/WQ/Fontaine_74034/Q7403408",
      "heroTalk": "TALK_HERO_MAIN",
      "questId": 74034,
      "assetIndex": 18134535577492630304,
      "prePerformCfg": "",
      "PLPFOOINAAJ": [
        "[1083_12:8.065,0.000,-6.116,0.000,272.361,0.000]",
        "[1083_24:5.143,0.000,-4.437,0.000,111.177,0.000]",
        "[1083_25:5.080,0.000,-6.286,0.000,66.916,0.000]"
      ]
    },
    {
      "id": 7403409,
      "beginWay": "TALK_BEGIN_MANUAL",
      "beginCond": [
        {
          "type": "QUEST_COND_STATE_EQUAL",
          "_param": [
            "7403411",
            "2"
          ]
        }
      ],
      "priority": 5,
      "initDialog": 740340901,
      "npcId": [
        13351,
        13350,
        5083
      ],
      "performCfg": "QuestDialogue/WQ/Fontaine_74034/Q7403409",
      "heroTalk": "TALK_HERO_MAIN",
      "questId": 74034,
      "assetIndex": 13500330993936403008,
      "prePerformCfg": "",
      "PLPFOOINAAJ": [
        "[1083_16:5.077,0.000,-0.500,0.000,270.494,0.000]",
        "[1083_20:3.443,0.000,0.262,0.000,163.347,0.000]",
        "[1083_21:3.481,0.000,-1.356,0.000,24.917,0.000]",
        "[1083_30:1.967,0.000,-0.050,0.000,110.929,0.000]",
        "[1083_31:1.877,0.000,-1.993,0.000,76.080,0.000]",
        "[1083_32:1.880,0.000,-0.955,0.000,82.160,0.000]"
      ]
    }
  ],
  "preloadLuaList": [
    14721578296290058404
  ],
  "forcePreloadLuaList": [
    11217042168697061564
  ],
  "freeStyleDic": {
    "13350": [
      0,
      1120
    ],
    "13351": [
      0,
      1060
    ],
    "5083": [
      1170
    ]
  }
}