{
  "id": 74073,
  "KPGKDHAFHFE": "WQ",
  "mainQuestTag": "MAINQUEST_TAG_RANK_ZERO_WQ",
  "activeMode": "PLAY_MODE_ALL",
  "titleTextMapHash": 4140426071,
  "descTextMapHash": 4070475574,
  "luaPath": "Actor/Quest/WQ74073",
  "chapterId": 10152,
  "subQuests": [
    {
      "subId": 7407301,
      "mainId": 74073,
      "order": 1,
      "showType": "QUEST_HIDDEN",
      "finishCond": [
        {
          "KPGKDHAFHFE": "QUEST_CONTENT_FINISH_PLOT",
          "param": [
            7407301,
            0
          ]
        }
      ],
      "failCond": [
        {
          "KPGKDHAFHFE": "QUEST_CONTENT_QUEST_STATE_EQUAL",
          "param": [
            7407232,
            3
          ]
        }
      ],
      "guide": {},
      "guideHint": {
        "param1": ""
      },
      "isRewind": true,
      "versionBegin": "",
      "versionEnd": ""
    },
    {
      "subId": 7407302,
      "mainId": 74073,
      "order": 2,
      "descTextMapHash": 2585845108,
      "finishCond": [
        {
          "KPGKDHAFHFE": "QUEST_CONTENT_FINISH_PLOT",
          "param": [
            7407302,
            0
          ]
        }
      ],
      "guide": {
        "KPGKDHAFHFE": "QUEST_GUIDE_LOCATION",
        "param": [
          "[3_5099:3066.498,307.800,3663.661,0.000,328.332,0.000]"
        ],
        "guideScene": 3,
        "guideStyle": "QUEST_GUIDE_STYLE_POINT",
        "poiRegionId": 3801,
        "poiPointId": 38010007
      },
      "guideHint": {
        "param1": ""
      },
      "isRewind": true,
      "versionBegin": "",
      "versionEnd": ""
    },
    {
      "subId": 7407303,
      "mainId": 74073,
      "order": 4,
      "descTextMapHash": 3541027300,
      "finishCond": [
        {
          "KPGKDHAFHFE": "QUEST_CONTENT_COMPLETE_TALK",
          "param": [
            7407304,
            0
          ]
        }
      ],
      "guide": {
        "KPGKDHAFHFE": "QUEST_GUIDE_LOCATION",
        "param": [
          "[3_5099:3066.498,307.800,3663.661,0.000,328.332,0.000]"
        ],
        "guideScene": 3,
        "guideStyle": "QUEST_GUIDE_STYLE_POINT",
        "poiRegionId": 3801,
        "poiPointId": 38010007
      },
      "guideHint": {
        "param1": ""
      },
      "isRewind": true,
      "finishExec": [
        {
          "KPGKDHAFHFE": "QUEST_EXEC_INC_QUEST_GLOBAL_VAR",
          "param": [
            "7407201",
            "1"
          ]
        },
        {
          "KPGKDHAFHFE": "QUEST_EXEC_INC_QUEST_GLOBAL_VAR",
          "param": [
            "7407205",
            "1"
          ]
        }
      ],
      "versionBegin": "",
      "versionEnd": ""
    },
    {
      "subId": 7407304,
      "mainId": 74073,
      "order": 5,
      "showType": "QUEST_HIDDEN",
      "finishCond": [
        {
          "KPGKDHAFHFE": "QUEST_CONTENT_LUA_NOTIFY",
          "param": [
            0,
            0
          ],
          "count": 1
        },
        {
          "KPGKDHAFHFE": "QUEST_CONTENT_GADGET_STATE_CHANGE",
          "param": [
            133404123,
            123015
          ]
        }
      ],
      "failCond": [
        {
          "KPGKDHAFHFE": "QUEST_CONTENT_QUEST_STATE_EQUAL",
          "param": [
            7407232,
            3
          ]
        }
      ],
      "guide": {},
      "guideHint": {
        "param1": ""
      },
      "isRewind": true,
      "versionBegin": "",
      "versionEnd": ""
    },
    {
      "subId": 7407305,
      "mainId": 74073,
      "order": 8,
      "descTextMapHash": 3824441588,
      "finishCond": [
        {
          "KPGKDHAFHFE": "QUEST_CONTENT_COMPLETE_TALK",
          "param": [
            7407321,
            0
          ]
        },
        {
          "KPGKDHAFHFE": "QUEST_CONTENT_COMPLETE_TALK",
          "param": [
            7407322,
            0
          ]
        },
        {
          "KPGKDHAFHFE": "QUEST_CONTENT_COMPLETE_TALK",
          "param": [
            7407323,
            0
          ]
        }
      ],
      "guide": {
        "KPGKDHAFHFE": "QUEST_GUIDE_LOCATION",
        "param": [
          "[3_5100:3110.501,301.620,3690.573]"
        ],
        "guideScene": 3,
        "guideStyle": "QUEST_GUIDE_STYLE_POINT"
      },
      "guideHint": {
        "param1": ""
      },
      "finishParent": true,
      "isRewind": true,
      "finishExec": [
        {
          "KPGKDHAFHFE": "QUEST_EXEC_INC_QUEST_GLOBAL_VAR",
          "param": [
            "7407202",
            "1"
          ]
        },
        {
          "KPGKDHAFHFE": "QUEST_EXEC_INC_QUEST_GLOBAL_VAR",
          "param": [
            "7407206",
            "1"
          ]
        },
        {
          "KPGKDHAFHFE": "QUEST_EXEC_NOTIFY_GROUP_LUA",
          "param": [
            "3",
            "133404123"
          ]
        }
      ],
      "versionBegin": "",
      "versionEnd": ""
    },
    {
      "subId": 7407306,
      "mainId": 74073,
      "order": 6,
      "descTextMapHash": 3774965676,
      "finishCond": [
        {
          "KPGKDHAFHFE": "QUEST_CONTENT_LUA_NOTIFY",
          "param": [
            0,
            0
          ],
          "count": 1
        },
        {
          "KPGKDHAFHFE": "QUEST_CONTENT_GADGET_STATE_CHANGE",
          "param": [
            133404123,
            123015
          ]
        }
      ],
      "guide": {
        "KPGKDHAFHFE": "QUEST_GUIDE_LOCATION",
        "param": [
          "[3_5100:3110.501,301.620,3690.573]",
          "20"
        ],
        "guideScene": 3,
        "guideStyle": "QUEST_GUIDE_STYLE_TARGET"
      },
      "guideHint": {
        "param1": ""
      },
      "isRewind": true,
      "versionBegin": "",
      "versionEnd": ""
    },
    {
      "subId": 7407307,
      "mainId": 74073,
      "order": 3,
      "showType": "QUEST_HIDDEN",
      "finishCond": [
        {
          "KPGKDHAFHFE": "QUEST_CONTENT_COMPLETE_TALK",
          "param": [
            7407307,
            0
          ]
        }
      ],
      "failCond": [
        {
          "KPGKDHAFHFE": "QUEST_CONTENT_QUEST_STATE_EQUAL",
          "param": [
            7407232,
            3
          ]
        }
      ],
      "guide": {},
      "guideHint": {
        "param1": ""
      },
      "isRewind": true,
      "finishExec": [
        {
          "KPGKDHAFHFE": "QUEST_EXEC_INC_QUEST_GLOBAL_VAR",
          "param": [
            "7407201",
            "1"
          ]
        },
        {
          "KPGKDHAFHFE": "QUEST_EXEC_INC_QUEST_GLOBAL_VAR",
          "param": [
            "7407203",
            "1"
          ]
        }
      ],
      "versionBegin": "",
      "versionEnd": ""
    },
    {
      "subId": 7407308,
      "mainId": 74073,
      "order": 7,
      "showType": "QUEST_HIDDEN",
      "finishCond": [
        {
          "KPGKDHAFHFE": "QUEST_CONTENT_COMPLETE_TALK",
          "param": [
            7407332,
            0
          ]
        },
        {
          "KPGKDHAFHFE": "QUEST_CONTENT_COMPLETE_TALK",
          "param": [
            7407333,
            0
          ]
        },
        {
          "KPGKDHAFHFE": "QUEST_CONTENT_COMPLETE_TALK",
          "param": [
            7407334,
            0
          ]
        }
      ],
      "failCond": [
        {
          "KPGKDHAFHFE": "QUEST_CONTENT_QUEST_STATE_EQUAL",
          "param": [
            7407232,
            3
          ]
        }
      ],
      "guide": {},
      "guideHint": {
        "param1": ""
      },
      "isRewind": true,
      "finishExec": [
        {
          "KPGKDHAFHFE": "QUEST_EXEC_INC_QUEST_GLOBAL_VAR",
          "param": [
            "7407202",
            "1"
          ]
        },
        {
          "KPGKDHAFHFE": "QUEST_EXEC_INC_QUEST_GLOBAL_VAR",
          "param": [
            "7407204",
            "1"
          ]
        },
        {
          "KPGKDHAFHFE": "QUEST_EXEC_NOTIFY_GROUP_LUA",
          "param": [
            "3",
            "133404123"
          ]
        },
        {
          "KPGKDHAFHFE": "QUEST_EXEC_REFRESH_GROUP_SUITE",
          "param": [
            "3",
            "133404724,1"
          ]
        }
      ],
      "failExec": [
        {
          "KPGKDHAFHFE": "QUEST_EXEC_REFRESH_GROUP_SUITE",
          "param": [
            "3",
            "133404724,1"
          ]
        }
      ],
      "versionBegin": "",
      "versionEnd": ""
    },
    {
      "subId": 7407309,
      "mainId": 74073,
      "order": 9,
      "showType": "QUEST_HIDDEN",
      "finishCond": [
        {
          "KPGKDHAFHFE": "QUEST_CONTENT_FINISH_PLOT",
          "param": [
            7407309,
            0
          ]
        }
      ],
      "guide": {},
      "guideHint": {
        "param1": ""
      },
      "isRewind": true,
      "versionBegin": "",
      "versionEnd": ""
    }
  ],
  "talks": [
    {
      "id": 7407301,
      "beginWay": "TALK_BEGIN_MANUAL",
      "activeMode": "PLAY_MODE_HOST",
      "beginCond": [
        {
          "type": "QUEST_COND_STATE_EQUAL",
          "_param": [
            "7407303",
            "2"
          ]
        }
      ],
      "priority": 10,
      "nextTalks": [
        7407302,
        7407303,
        7407304
      ],
      "initDialog": 740730101,
      "npcId": [
        21125
      ],
      "performCfg": "QuestDialogue/WQ/Fontaine_74073/Q7407301",
      "heroTalk": "TALK_HERO_MAIN",
      "questId": 74073,
      "assetIndex": 572805982987203074,
      "prePerformCfg": "",
      "PLPFOOINAAJ": [
        "[3_7029:3058.989,307.800,3656.925,0.000,112.004,0.000]",
        "[3_7032:3058.861,307.917,3655.666,0.000,86.896,0.000]",
        "[3_7033:3060.305,307.800,3657.179,0.000,138.323,0.000]",
        "[3_7034:3060.689,307.907,3658.448,0.000,161.318,0.000]",
        "[3_7035:3061.978,308.162,3658.022,0.000,194.951,0.000]"
      ]
    },
    {
      "id": 7407302,
      "beginWay": "TALK_BEGIN_MANUAL",
      "activeMode": "PLAY_MODE_HOST",
      "beginCondComb": "LOGIC_AND",
      "beginCond": [
        {
          "type": "QUEST_COND_STATE_EQUAL",
          "_param": [
            "7407303",
            "2"
          ]
        },
        {
          "type": "QUEST_COND_QUEST_VAR_EQUAL",
          "_param": [
            "0",
            "0",
            "74073"
          ]
        }
      ],
      "priority": 5,
      "nextTalks": [
        7407303,
        7407304
      ],
      "initDialog": 740730201,
      "npcId": [
        21125
      ],
      "performCfg": "",
      "heroTalk": "TALK_HERO_MAIN",
      "questId": 74073,
      "assetIndex": 8521299894383776906,
      "prePerformCfg": "",
      "finishExec": [
        {
          "KPGKDHAFHFE": "TALK_EXEC_SET_QUEST_VAR",
          "param": [
            "0",
            "1",
            "74073"
          ]
        }
      ]
    },
    {
      "id": 7407303,
      "beginWay": "TALK_BEGIN_MANUAL",
      "activeMode": "PLAY_MODE_HOST",
      "beginCondComb": "LOGIC_AND",
      "beginCond": [
        {
          "type": "QUEST_COND_STATE_EQUAL",
          "_param": [
            "7407303",
            "2"
          ]
        },
        {
          "type": "QUEST_COND_QUEST_VAR_EQUAL",
          "_param": [
            "1",
            "0",
            "74073"
          ]
        }
      ],
      "priority": 5,
      "nextTalks": [
        7407302,
        7407304
      ],
      "initDialog": 740730301,
      "npcId": [
        21125
      ],
      "performCfg": "",
      "heroTalk": "TALK_HERO_MAIN",
      "questId": 74073,
      "assetIndex": 10222635502268118766,
      "prePerformCfg": "",
      "finishExec": [
        {
          "KPGKDHAFHFE": "TALK_EXEC_SET_QUEST_VAR",
          "param": [
            "1",
            "1",
            "74073"
          ]
        }
      ]
    },
    {
      "id": 7407304,
      "beginWay": "TALK_BEGIN_MANUAL",
      "activeMode": "PLAY_MODE_HOST",
      "beginCondComb": "LOGIC_AND",
      "beginCond": [
        {
          "type": "QUEST_COND_STATE_EQUAL",
          "_param": [
            "7407303",
            "2"
          ]
        }
      ],
      "priority": 5,
      "initDialog": 740730401,
      "npcId": [
        21125
      ],
      "performCfg": "QuestDialogue/WQ/Fontaine_74073/Q7407304",
      "heroTalk": "TALK_HERO_MAIN",
      "questId": 74073,
      "assetIndex": 5125952086151215958,
      "prePerformCfg": "",
      "PLPFOOINAAJ": [
        "[3_7029:3058.989,307.800,3656.925,0.000,112.004,0.000]",
        "[3_7032:3058.861,307.917,3655.666,0.000,86.896,0.000]",
        "[3_7033:3060.305,307.800,3657.179,0.000,138.323,0.000]",
        "[3_7034:3060.689,307.907,3658.448,0.000,161.318,0.000]",
        "[3_7035:3061.978,308.162,3658.022,0.000,194.951,0.000]"
      ]
    },
    {
      "id": 7407305,
      "beginWay": "TALK_BEGIN_MANUAL",
      "activeMode": "PLAY_MODE_HOST",
      "beginCond": [
        {
          "type": "QUEST_COND_STATE_EQUAL",
          "_param": [
            "7407307",
            "2"
          ]
        }
      ],
      "priority": 10,
      "nextTalks": [
        7407306,
        7407307
      ],
      "initDialog": 740730501,
      "npcId": [
        21125
      ],
      "performCfg": "QuestDialogue/WQ/Fontaine_74073/Q7407305",
      "heroTalk": "TALK_HERO_MAIN",
      "questId": 74073,
      "assetIndex": 8304007005747889489,
      "prePerformCfg": "",
      "PLPFOOINAAJ": [
        "[3_7237:3059.896,307.977,3656.666,0.000,118.326,0.000]",
        "[3_7238:3061.066,308.118,3657.128,0.000,157.978,0.000]"
      ]
    },
    {
      "id": 7407306,
      "beginWay": "TALK_BEGIN_MANUAL",
      "activeMode": "PLAY_MODE_HOST",
      "beginCondComb": "LOGIC_AND",
      "beginCond": [
        {
          "type": "QUEST_COND_STATE_EQUAL",
          "_param": [
            "7407307",
            "2"
          ]
        },
        {
          "type": "QUEST_COND_QUEST_VAR_EQUAL",
          "_param": [
            "2",
            "0",
            "74073"
          ]
        }
      ],
      "priority": 5,
      "nextTalks": [
        7407307
      ],
      "initDialog": 740730601,
      "npcId": [
        21125
      ],
      "performCfg": "",
      "heroTalk": "TALK_HERO_MAIN",
      "questId": 74073,
      "assetIndex": 5936043900854416021,
      "prePerformCfg": "",
      "finishExec": [
        {
          "KPGKDHAFHFE": "TALK_EXEC_SET_QUEST_VAR",
          "param": [
            "2",
            "1",
            "74073"
          ]
        }
      ]
    },
    {
      "id": 7407307,
      "beginWay": "TALK_BEGIN_MANUAL",
      "activeMode": "PLAY_MODE_HOST",
      "beginCond": [
        {
          "type": "QUEST_COND_STATE_EQUAL",
          "_param": [
            "7407307",
            "2"
          ]
        }
      ],
      "priority": 5,
      "initDialog": 740730701,
      "npcId": [
        21125
      ],
      "performCfg": "QuestDialogue/WQ/Fontaine_74073/Q7407307",
      "heroTalk": "TALK_HERO_MAIN",
      "questId": 74073,
      "assetIndex": 11432634724579552753,
      "prePerformCfg": "",
      "PLPFOOINAAJ": [
        "[3_7237:3059.896,307.977,3656.666,0.000,118.326,0.000]",
        "[3_7238:3061.066,308.118,3657.128,0.000,157.978,0.000]"
      ]
    },
    {
      "id": 7407321,
      "beginWay": "TALK_BEGIN_MANUAL",
      "activeMode": "PLAY_MODE_HOST",
      "beginCondComb": "LOGIC_AND",
      "beginCond": [
        {
          "type": "QUEST_COND_STATE_EQUAL",
          "_param": [
            "7407305",
            "2"
          ]
        },
        {
          "type": "QUEST_COND_QUEST_GLOBAL_VAR_EQUAL",
          "_param": [
            "7407202",
            "0"
          ]
        }
      ],
      "priority": 5,
      "initDialog": 740732101,
      "npcId": [
        21314
      ],
      "performCfg": "QuestDialogue/WQ/Fontaine_74073/Q7407321",
      "heroTalk": "TALK_HERO_MAIN",
      "questId": 74073,
      "assetIndex": 5333678177735119680,
      "prePerformCfg": "",
      "PLPFOOINAAJ": [
        "[3_7036:3104.269,295.800,3687.966,0.000,155.262,0.000]",
        "[3_7037:3106.845,295.870,3687.364,0.000,278.040,0.000]",
        "[3_7038:3105.802,295.800,3685.735,0.000,320.017,0.000]",
        "[3_7039:3106.809,295.870,3686.365,0.000,295.598,0.000]",
        "[3_7040:3104.282,295.800,3685.309,0.000,22.007,0.000]"
      ]
    },
    {
      "id": 7407322,
      "beginWay": "TALK_BEGIN_MANUAL",
      "activeMode": "PLAY_MODE_HOST",
      "beginCondComb": "LOGIC_AND",
      "beginCond": [
        {
          "type": "QUEST_COND_STATE_EQUAL",
          "_param": [
            "7407305",
            "2"
          ]
        },
        {
          "type": "QUEST_COND_QUEST_GLOBAL_VAR_EQUAL",
          "_param": [
            "7407202",
            "1"
          ]
        }
      ],
      "priority": 5,
      "initDialog": 740732201,
      "npcId": [
        21314
      ],
      "performCfg": "QuestDialogue/WQ/Fontaine_74073/Q7407322",
      "heroTalk": "TALK_HERO_MAIN",
      "questId": 74073,
      "assetIndex": 3005270728482142748,
      "prePerformCfg": "",
      "PLPFOOINAAJ": [
        "[3_7036:3104.269,295.800,3687.966,0.000,155.262,0.000]",
        "[3_7037:3106.845,295.870,3687.364,0.000,278.040,0.000]",
        "[3_7038:3105.802,295.800,3685.735,0.000,320.017,0.000]",
        "[3_7039:3106.809,295.870,3686.365,0.000,295.598,0.000]",
        "[3_7040:3104.282,295.800,3685.309,0.000,22.007,0.000]"
      ]
    },
    {
      "id": 7407323,
      "beginWay": "TALK_BEGIN_MANUAL",
      "activeMode": "PLAY_MODE_HOST",
      "beginCondComb": "LOGIC_AND",
      "beginCond": [
        {
          "type": "QUEST_COND_STATE_EQUAL",
          "_param": [
            "7407305",
            "2"
          ]
        },
        {
          "type": "QUEST_COND_QUEST_GLOBAL_VAR_EQUAL",
          "_param": [
            "7407202",
            "2"
          ]
        }
      ],
      "priority": 5,
      "initDialog": 740732301,
      "npcId": [
        21314
      ],
      "performCfg": "QuestDialogue/WQ/Fontaine_74073/Q7407323",
      "heroTalk": "TALK_HERO_MAIN",
      "questId": 74073,
      "assetIndex": 12060508208817040815,
      "prePerformCfg": "",
      "PLPFOOINAAJ": [
        "[3_7036:3104.269,295.800,3687.966,0.000,155.262,0.000]",
        "[3_7037:3106.845,295.870,3687.364,0.000,278.040,0.000]",
        "[3_7038:3105.802,295.800,3685.735,0.000,320.017,0.000]",
        "[3_7039:3106.809,295.870,3686.365,0.000,295.598,0.000]",
        "[3_7040:3104.282,295.800,3685.309,0.000,22.007,0.000]"
      ]
    },
    {
      "id": 7407332,
      "beginWay": "TALK_BEGIN_MANUAL",
      "activeMode": "PLAY_MODE_HOST",
      "beginCondComb": "LOGIC_AND",
      "beginCond": [
        {
          "type": "QUEST_COND_STATE_EQUAL",
          "_param": [
            "7407308",
            "2"
          ]
        },
        {
          "type": "QUEST_COND_QUEST_GLOBAL_VAR_EQUAL",
          "_param": [
            "7407202",
            "0"
          ]
        }
      ],
      "priority": 5,
      "initDialog": 740733201,
      "npcId": [
        21314
      ],
      "performCfg": "QuestDialogue/WQ/Fontaine_74073/Q7407332",
      "heroTalk": "TALK_HERO_MAIN",
      "questId": 74073,
      "assetIndex": 13470693567570353083,
      "prePerformCfg": "",
      "PLPFOOINAAJ": [
        "[3_7239:3106.580,295.800,3686.590,0.000,50.728,0.000]",
        "[3_7240:3107.295,295.870,3685.887,0.000,40.508,0.000]"
      ]
    },
    {
      "id": 7407333,
      "beginWay": "TALK_BEGIN_MANUAL",
      "activeMode": "PLAY_MODE_HOST",
      "beginCondComb": "LOGIC_AND",
      "beginCond": [
        {
          "type": "QUEST_COND_STATE_EQUAL",
          "_param": [
            "7407308",
            "2"
          ]
        },
        {
          "type": "QUEST_COND_QUEST_GLOBAL_VAR_EQUAL",
          "_param": [
            "7407202",
            "1"
          ]
        }
      ],
      "priority": 5,
      "initDialog": 740733301,
      "npcId": [
        21314
      ],
      "performCfg": "QuestDialogue/WQ/Fontaine_74073/Q7407333",
      "heroTalk": "TALK_HERO_MAIN",
      "questId": 74073,
      "assetIndex": 1081396037390738194,
      "prePerformCfg": "",
      "PLPFOOINAAJ": [
        "[3_7239:3106.580,295.800,3686.590,0.000,50.728,0.000]",
        "[3_7240:3107.295,295.870,3685.887,0.000,40.508,0.000]"
      ]
    },
    {
      "id": 7407334,
      "beginWay": "TALK_BEGIN_MANUAL",
      "activeMode": "PLAY_MODE_HOST",
      "beginCondComb": "LOGIC_AND",
      "beginCond": [
        {
          "type": "QUEST_COND_STATE_EQUAL",
          "_param": [
            "7407308",
            "2"
          ]
        },
        {
          "type": "QUEST_COND_QUEST_GLOBAL_VAR_EQUAL",
          "_param": [
            "7407202",
            "2"
          ]
        }
      ],
      "priority": 5,
      "initDialog": 740733401,
      "npcId": [
        21314
      ],
      "performCfg": "QuestDialogue/WQ/Fontaine_74073/Q7407334",
      "heroTalk": "TALK_HERO_MAIN",
      "questId": 74073,
      "assetIndex": 18390483288174480333,
      "prePerformCfg": "",
      "PLPFOOINAAJ": [
        "[3_7239:3106.580,295.800,3686.590,0.000,50.728,0.000]",
        "[3_7240:3107.295,295.870,3685.887,0.000,40.508,0.000]"
      ]
    }
  ],
  "preloadLuaList": [
    7225877465937578229,
    324006303687824142
  ],
  "forcePreloadLuaList": [
    195257211288435845
  ],
  "DDHNEIEDLJA": true
}