{
  "id": 74115,
  "KPGKDHAFHFE": "WQ",
  "activeMode": "PLAY_MODE_ALL",
  "titleTextMapHash": 14239567,
  "descTextMapHash": 1765850926,
  "luaPath": "Actor/Quest/WQ74115",
  "rewardIdList": [
    174115
  ],
  "chapterId": 10201,
  "subQuests": [
    {
      "subId": 7411501,
      "mainId": 74115,
      "order": 1,
      "descTextMapHash": 3847790300,
      "finishCond": [
        {
          "KPGKDHAFHFE": "QUEST_CONTENT_GAME_TIME_TICK",
          "param": [
            1,
            0
          ]
        }
      ],
      "guide": {},
      "guideHint": {
        "param1": ""
      },
      "isRewind": true,
      "versionBegin": "",
      "versionEnd": ""
    },
    {
      "subId": 7411502,
      "mainId": 74115,
      "order": 2,
      "descTextMapHash": 2211733236,
      "GMKDJFPEFFF": [
        108302
      ],
      "finishCond": [
        {
          "KPGKDHAFHFE": "QUEST_CONTENT_FINISH_PLOT",
          "param": [
            7411502,
            0
          ]
        }
      ],
      "guide": {
        "KPGKDHAFHFE": "QUEST_GUIDE_NPC",
        "param": [
          "21158"
        ],
        "guideScene": 1083,
        "guideStyle": "QUEST_GUIDE_STYLE_TARGET"
      },
      "guideHint": {
        "param1": ""
      },
      "isRewind": true,
      "versionBegin": "",
      "versionEnd": ""
    },
    {
      "subId": 7411503,
      "mainId": 74115,
      "order": 3,
      "descTextMapHash": 4143797252,
      "GMKDJFPEFFF": [
        108302
      ],
      "finishCond": [
        {
          "KPGKDHAFHFE": "QUEST_CONTENT_COMPLETE_TALK",
          "param": [
            7411503,
            0
          ]
        }
      ],
      "guide": {
        "KPGKDHAFHFE": "QUEST_GUIDE_NPC",
        "param": [
          "21158"
        ],
        "guideScene": 3,
        "guideStyle": "QUEST_GUIDE_STYLE_TARGET",
        "guideLayer": "QUEST_GUIDE_LAYER_SCENE"
      },
      "guideHint": {
        "param1": ""
      },
      "isRewind": true,
      "finishExec": [
        {
          "KPGKDHAFHFE": "QUEST_EXEC_UNREGISTER_DYNAMIC_GROUP",
          "param": [
            "201083007"
          ]
        },
        {
          "KPGKDHAFHFE": "QUEST_EXEC_UNLOCK_EVENTS_ITEM",
          "param": [
            "74113",
            "11323"
          ]
        }
      ],
      "versionBegin": "",
      "versionEnd": ""
    },
    {
      "subId": 7411504,
      "mainId": 74115,
      "order": 4,
      "descTextMapHash": 29285156,
      "finishCond": [
        {
          "KPGKDHAFHFE": "QUEST_CONTENT_FINISH_PLOT",
          "param": [
            7411504,
            0
          ]
        }
      ],
      "guide": {
        "KPGKDHAFHFE": "QUEST_GUIDE_LOCATION",
        "param": [
          "[3_5641:2508.042,250.007,4585.646,0.000,320.000,0.000]",
          "15"
        ],
        "guideScene": 3,
        "poiRegionId": 202,
        "poiPointId": 2020009
      },
      "guideHint": {
        "param1": ""
      },
      "isRewind": true,
      "finishExec": [
        {
          "KPGKDHAFHFE": "QUEST_EXEC_UNREGISTER_DYNAMIC_GROUP",
          "param": [
            "133402587"
          ]
        }
      ],
      "versionBegin": "",
      "versionEnd": ""
    },
    {
      "subId": 7411505,
      "mainId": 74115,
      "order": 5,
      "descTextMapHash": 3244207484,
      "finishCond": [
        {
          "KPGKDHAFHFE": "QUEST_CONTENT_COMPLETE_TALK",
          "param": [
            7411505,
            0
          ]
        }
      ],
      "guide": {
        "KPGKDHAFHFE": "QUEST_GUIDE_NPC",
        "param": [
          "21158"
        ],
        "guideScene": 3,
        "guideStyle": "QUEST_GUIDE_STYLE_TARGET",
        "guideLayer": "QUEST_GUIDE_LAYER_SCENE",
        "poiRegionId": 202,
        "poiPointId": 2020009
      },
      "guideHint": {
        "param1": ""
      },
      "isRewind": true,
      "versionBegin": "",
      "versionEnd": ""
    },
    {
      "subId": 7411506,
      "mainId": 74115,
      "order": 6,
      "descTextMapHash": 905601796,
      "finishCond": [
        {
          "KPGKDHAFHFE": "QUEST_CONTENT_LUA_NOTIFY",
          "param": [
            0,
            0
          ],
          "count": 1
        },
        {
          "KPGKDHAFHFE": "QUEST_CONTENT_GADGET_STATE_CHANGE",
          "param": [
            133403545,
            545006
          ]
        }
      ],
      "failCond": [
        {
          "KPGKDHAFHFE": "QUEST_CONTENT_LUA_NOTIFY",
          "param": [
            0,
            0
          ],
          "count": 1
        },
        {
          "KPGKDHAFHFE": "QUEST_CONTENT_NOT_FINISH_PLOT",
          "param": [
            7411506,
            0
          ]
        }
      ],
      "guide": {
        "KPGKDHAFHFE": "QUEST_GUIDE_GADGET",
        "param": [
          "133403545",
          "545006",
          "2501.545:252.2:4602.65"
        ],
        "guideScene": 3,
        "guideStyle": "QUEST_GUIDE_STYLE_TARGET",
        "poiRegionId": 202,
        "poiPointId": 2020009
      },
      "guideHint": {
        "param1": ""
      },
      "isRewind": true,
      "finishExec": [
        {
          "KPGKDHAFHFE": "QUEST_EXEC_UNREGISTER_DYNAMIC_GROUP",
          "param": [
            "133403632"
          ]
        },
        {
          "KPGKDHAFHFE": "QUEST_EXEC_NOTIFY_GROUP_LUA",
          "param": [
            "3",
            "133403564"
          ]
        },
        {
          "KPGKDHAFHFE": "QUEST_EXEC_UNREGISTER_DYNAMIC_GROUP",
          "param": [
            "133403545"
          ]
        }
      ],
      "failExec": [
        {
          "KPGKDHAFHFE": "QUEST_EXEC_ROLLBACK_QUEST",
          "param": [
            "7411506"
          ]
        },
        {
          "KPGKDHAFHFE": "QUEST_EXEC_REFRESH_GROUP_SUITE",
          "param": [
            "3",
            "133403632,1"
          ]
        }
      ],
      "versionBegin": "",
      "versionEnd": ""
    },
    {
      "subId": 7411507,
      "mainId": 74115,
      "order": 8,
      "descTextMapHash": 2525942156,
      "finishCond": [
        {
          "KPGKDHAFHFE": "QUEST_CONTENT_COMPLETE_TALK",
          "param": [
            7411507,
            0
          ]
        }
      ],
      "guide": {
        "KPGKDHAFHFE": "QUEST_GUIDE_NPC",
        "param": [
          "21158"
        ],
        "guideScene": 3,
        "guideStyle": "QUEST_GUIDE_STYLE_TARGET",
        "guideLayer": "QUEST_GUIDE_LAYER_SCENE",
        "poiRegionId": 202,
        "poiPointId": 2020009
      },
      "guideHint": {
        "param1": ""
      },
      "isRewind": true,
      "versionBegin": "",
      "versionEnd": ""
    },
    {
      "subId": 7411508,
      "mainId": 74115,
      "order": 14,
      "descTextMapHash": 664024988,
      "showType": "QUEST_HIDDEN",
      "finishCond": [
        {
          "KPGKDHAFHFE": "QUEST_CONTENT_FINISH_PLOT",
          "param": [
            7411508,
            0
          ]
        }
      ],
      "guide": {
        "KPGKDHAFHFE": "QUEST_GUIDE_GADGET",
        "param": [
          "133403564",
          "564016"
        ],
        "guideScene": 3,
        "guideStyle": "QUEST_GUIDE_STYLE_TARGET"
      },
      "guideHint": {
        "param1": ""
      },
      "isRewind": true,
      "versionBegin": "",
      "versionEnd": ""
    },
    {
      "subId": 7411509,
      "mainId": 74115,
      "order": 15,
      "descTextMapHash": 1427233500,
      "finishCond": [
        {
          "KPGKDHAFHFE": "QUEST_CONTENT_QUEST_STATE_EQUAL",
          "param": [
            7411523,
            3
          ]
        },
        {
          "KPGKDHAFHFE": "QUEST_CONTENT_QUEST_STATE_EQUAL",
          "param": [
            7411524,
            3
          ]
        },
        {
          "KPGKDHAFHFE": "QUEST_CONTENT_QUEST_STATE_EQUAL",
          "param": [
            7411525,
            3
          ]
        }
      ],
      "guide": {
        "KPGKDHAFHFE": "QUEST_GUIDE_LOCATION",
        "param": [
          "[3_5642:2498.972,251.737,4603.415,0.000,214.021,0.000]",
          "40"
        ],
        "guideScene": 3,
        "poiRegionId": 202,
        "poiPointId": 2020009
      },
      "guideHint": {
        "param1": ""
      },
      "isRewind": true,
      "finishExec": [
        {
          "KPGKDHAFHFE": "QUEST_EXEC_UNREGISTER_DYNAMIC_GROUP",
          "param": [
            "133403589"
          ]
        }
      ],
      "versionBegin": "",
      "versionEnd": ""
    },
    {
      "subId": 7411510,
      "mainId": 74115,
      "order": 16,
      "descTextMapHash": 1663774564,
      "finishCond": [
        {
          "KPGKDHAFHFE": "QUEST_CONTENT_COMPLETE_TALK",
          "param": [
            7411510,
            0
          ]
        }
      ],
      "guide": {
        "KPGKDHAFHFE": "QUEST_GUIDE_NPC",
        "param": [
          "21158"
        ],
        "guideScene": 3,
        "guideStyle": "QUEST_GUIDE_STYLE_TARGET",
        "guideLayer": "QUEST_GUIDE_LAYER_SCENE",
        "poiRegionId": 202,
        "poiPointId": 2020009
      },
      "guideHint": {
        "param1": ""
      },
      "isRewind": true,
      "versionBegin": "",
      "versionEnd": ""
    },
    {
      "subId": 7411511,
      "mainId": 74115,
      "order": 17,
      "descTextMapHash": 111024756,
      "finishCond": [
        {
          "KPGKDHAFHFE": "QUEST_CONTENT_LUA_NOTIFY",
          "param": [
            0,
            0
          ],
          "count": 1
        }
      ],
      "guide": {
        "KPGKDHAFHFE": "QUEST_GUIDE_LOCATION",
        "param": [
          "[3_5643:2516.050,250.294,4599.792,0.000,320.000,0.000]",
          "40"
        ],
        "guideScene": 3,
        "poiRegionId": 202,
        "poiPointId": 2020009
      },
      "guideHint": {
        "param1": ""
      },
      "isRewind": true,
      "finishExec": [
        {
          "KPGKDHAFHFE": "QUEST_EXEC_UNREGISTER_DYNAMIC_GROUP",
          "param": [
            "133403357"
          ]
        }
      ],
      "versionBegin": "",
      "versionEnd": ""
    },
    {
      "subId": 7411512,
      "mainId": 74115,
      "order": 18,
      "descTextMapHash": 202528972,
      "finishCond": [
        {
          "KPGKDHAFHFE": "QUEST_CONTENT_COMPLETE_TALK",
          "param": [
            7411512,
            0
          ]
        }
      ],
      "guide": {
        "KPGKDHAFHFE": "QUEST_GUIDE_NPC",
        "param": [
          "21163"
        ],
        "guideScene": 3,
        "guideStyle": "QUEST_GUIDE_STYLE_TARGET",
        "guideLayer": "QUEST_GUIDE_LAYER_SCENE",
        "poiRegionId": 202,
        "poiPointId": 2020009
      },
      "guideHint": {
        "param1": ""
      },
      "isRewind": true,
      "finishExec": [
        {
          "KPGKDHAFHFE": "QUEST_EXEC_UNLOCK_EVENTS_ITEM",
          "param": [
            "74113",
            "11314"
          ]
        }
      ],
      "versionBegin": "",
      "versionEnd": ""
    },
    {
      "subId": 7411513,
      "mainId": 74115,
      "order": 19,
      "descTextMapHash": 2656480204,
      "finishCond": [
        {
          "KPGKDHAFHFE": "QUEST_CONTENT_FINISH_PLOT",
          "param": [
            7411513,
            0
          ]
        }
      ],
      "guide": {
        "KPGKDHAFHFE": "QUEST_GUIDE_LOCATION",
        "param": [
          "[3_5644:3491.080,283.692,4556.493,0.000,100.000,0.000]",
          "30"
        ],
        "guideScene": 3
      },
      "guideHint": {
        "param1": ""
      },
      "isRewind": true,
      "finishExec": [
        {
          "KPGKDHAFHFE": "QUEST_EXEC_UNREGISTER_DYNAMIC_GROUP",
          "param": [
            "133401455"
          ]
        }
      ],
      "versionBegin": "",
      "versionEnd": ""
    },
    {
      "subId": 7411514,
      "mainId": 74115,
      "order": 20,
      "descTextMapHash": 3827040644,
      "GMKDJFPEFFF": [
        340124
      ],
      "finishCond": [
        {
          "KPGKDHAFHFE": "QUEST_CONTENT_COMPLETE_TALK",
          "param": [
            7411514,
            0
          ]
        }
      ],
      "guide": {
        "KPGKDHAFHFE": "QUEST_GUIDE_LOCATION",
        "param": [
          "[3_5644:3491.080,283.692,4556.493,0.000,100.000,0.000]"
        ],
        "guideScene": 3,
        "guideStyle": "QUEST_GUIDE_STYLE_POINT",
        "guideLayer": "QUEST_GUIDE_LAYER_SCENE"
      },
      "guideHint": {
        "param1": ""
      },
      "isRewind": true,
      "versionBegin": "",
      "versionEnd": ""
    },
    {
      "subId": 7411515,
      "mainId": 74115,
      "order": 21,
      "descTextMapHash": 3351428500,
      "GMKDJFPEFFF": [
        340124
      ],
      "finishCond": [
        {
          "KPGKDHAFHFE": "QUEST_CONTENT_FINISH_PLOT",
          "param": [
            7411515,
            0
          ]
        }
      ],
      "guide": {
        "KPGKDHAFHFE": "QUEST_GUIDE_NPC",
        "param": [
          "21167"
        ],
        "guideScene": 3
      },
      "guideHint": {
        "param1": ""
      },
      "isRewind": true,
      "versionBegin": "",
      "versionEnd": ""
    },
    {
      "subId": 7411516,
      "mainId": 74115,
      "order": 22,
      "descTextMapHash": 2503747140,
      "guide": {
        "KPGKDHAFHFE": "QUEST_GUIDE_LOCATION",
        "param": [
          "[3_5645:3512.280,285.124,4558.855,0.000,317.393,0.000]",
          "40"
        ],
        "guideScene": 3
      },
      "guideHint": {
        "param1": ""
      },
      "isRewind": true,
      "versionBegin": "",
      "versionEnd": ""
    },
    {
      "subId": 7411517,
      "mainId": 74115,
      "order": 23,
      "descTextMapHash": 1084333420,
      "GMKDJFPEFFF": [
        340124
      ],
      "finishCond": [
        {
          "KPGKDHAFHFE": "QUEST_CONTENT_COMPLETE_TALK",
          "param": [
            7411517,
            0
          ]
        }
      ],
      "guide": {
        "KPGKDHAFHFE": "QUEST_GUIDE_NPC",
        "param": [
          "21167"
        ],
        "guideScene": 3,
        "guideStyle": "QUEST_GUIDE_STYLE_TARGET",
        "guideLayer": "QUEST_GUIDE_LAYER_SCENE"
      },
      "guideHint": {
        "param1": ""
      },
      "isRewind": true,
      "finishExec": [
        {
          "KPGKDHAFHFE": "QUEST_EXEC_UNLOCK_EVENTS_ITEM",
          "param": [
            "74113",
            "11307,11308,11315,11324,11326,11327,11328,11329"
          ]
        }
      ],
      "versionBegin": "",
      "versionEnd": ""
    },
    {
      "subId": 7411518,
      "mainId": 74115,
      "order": 26,
      "descTextMapHash": 1255385692,
      "GMKDJFPEFFF": [
        108402
      ],
      "finishCond": [
        {
          "KPGKDHAFHFE": "QUEST_CONTENT_FINISH_PLOT",
          "param": [
            7411518,
            0
          ]
        }
      ],
      "guide": {
        "KPGKDHAFHFE": "QUEST_GUIDE_LOCATION",
        "param": [
          "[3_5649:3516.812,451.218,4655.091,0.000,254.490,0.000]"
        ],
        "guideScene": 3,
        "guideStyle": "QUEST_GUIDE_STYLE_POINT"
      },
      "guideHint": {
        "param1": ""
      },
      "isRewind": true,
      "finishExec": [
        {
          "KPGKDHAFHFE": "QUEST_EXEC_UNREGISTER_DYNAMIC_GROUP",
          "param": [
            "201084003"
          ]
        }
      ],
      "versionBegin": "",
      "versionEnd": ""
    },
    {
      "subId": 7411519,
      "mainId": 74115,
      "order": 27,
      "descTextMapHash": 2521340708,
      "finishCond": [
        {
          "KPGKDHAFHFE": "QUEST_CONTENT_COMPLETE_TALK",
          "param": [
            7411519,
            0
          ]
        }
      ],
      "guide": {
        "KPGKDHAFHFE": "QUEST_GUIDE_LOCATION",
        "param": [
          "[3_5649:3516.812,451.218,4655.091,0.000,254.490,0.000]",
          "15"
        ],
        "guideScene": 3,
        "guideLayer": "QUEST_GUIDE_LAYER_SCENE"
      },
      "guideHint": {
        "param1": ""
      },
      "finishParent": true,
      "isRewind": true,
      "finishExec": [
        {
          "KPGKDHAFHFE": "QUEST_EXEC_INIT_TIME_VAR",
          "param": [
            "0"
          ]
        }
      ],
      "versionBegin": "",
      "versionEnd": ""
    },
    {
      "subId": 7411520,
      "mainId": 74115,
      "order": 9,
      "descTextMapHash": 1324920548,
      "showType": "QUEST_HIDDEN",
      "finishCond": [
        {
          "KPGKDHAFHFE": "QUEST_CONTENT_LUA_NOTIFY",
          "param": [
            0,
            0
          ],
          "count": 1
        }
      ],
      "guide": {
        "param": [
          "30"
        ],
        "guideScene": 3
      },
      "showGuide": "QUEST_GUIDE_ITEM_DISABLE",
      "guideHint": {
        "param1": ""
      },
      "versionBegin": "",
      "versionEnd": ""
    },
    {
      "subId": 7411521,
      "mainId": 74115,
      "order": 10,
      "descTextMapHash": 779615684,
      "showType": "QUEST_HIDDEN",
      "guide": {
        "KPGKDHAFHFE": "QUEST_GUIDE_NPC",
        "param": [
          "21158"
        ],
        "guideScene": 3,
        "guideStyle": "QUEST_GUIDE_STYLE_TARGET",
        "guideLayer": "QUEST_GUIDE_LAYER_SCENE"
      },
      "showGuide": "QUEST_GUIDE_ITEM_DISABLE",
      "guideHint": {
        "param1": ""
      },
      "finishExec": [
        {
          "KPGKDHAFHFE": "QUEST_EXEC_ROLLBACK_QUEST",
          "param": [
            "7411506"
          ]
        }
      ],
      "versionBegin": "",
      "versionEnd": ""
    },
    {
      "subId": 7411522,
      "mainId": 74115,
      "order": 7,
      "descTextMapHash": 153570220,
      "finishCond": [
        {
          "KPGKDHAFHFE": "QUEST_CONTENT_FINISH_ITEM_GIVING",
          "param": [
            7411522,
            0
          ]
        }
      ],
      "failCond": [
        {
          "KPGKDHAFHFE": "QUEST_CONTENT_ANY_MANUAL_TRANSPORT",
          "param": [
            0,
            0
          ]
        },
        {
          "KPGKDHAFHFE": "QUEST_CONTENT_TEAM_DEAD",
          "param": [
            0,
            0
          ]
        }
      ],
      "guide": {
        "KPGKDHAFHFE": "QUEST_GUIDE_NPC",
        "param": [
          "21158"
        ],
        "guideScene": 3,
        "guideStyle": "QUEST_GUIDE_STYLE_TARGET",
        "guideLayer": "QUEST_GUIDE_LAYER_SCENE",
        "poiRegionId": 202,
        "poiPointId": 2020009
      },
      "guideHint": {
        "param1": ""
      },
      "isRewind": true,
      "failExec": [
        {
          "KPGKDHAFHFE": "QUEST_EXEC_ROLLBACK_QUEST",
          "param": [
            "7411506"
          ]
        },
        {
          "KPGKDHAFHFE": "QUEST_EXEC_DEACTIVE_ITEM_GIVING",
          "param": [
            "7411522"
          ]
        }
      ],
      "versionBegin": "",
      "versionEnd": ""
    },
    {
      "subId": 7411523,
      "mainId": 74115,
      "order": 11,
      "descTextMapHash": 1202059908,
      "showType": "QUEST_HIDDEN",
      "finishCond": [
        {
          "KPGKDHAFHFE": "QUEST_CONTENT_COMPLETE_TALK",
          "param": [
            7411525,
            0
          ]
        }
      ],
      "guide": {},
      "guideHint": {
        "param1": ""
      },
      "isRewind": true,
      "finishExec": [
        {
          "KPGKDHAFHFE": "QUEST_EXEC_UNLOCK_EVENTS_ITEM",
          "param": [
            "74113",
            "11321"
          ]
        },
        {
          "KPGKDHAFHFE": "QUEST_EXEC_NOTIFY_GROUP_LUA",
          "param": [
            "3",
            "133403589"
          ]
        }
      ],
      "versionBegin": "",
      "versionEnd": ""
    },
    {
      "subId": 7411524,
      "mainId": 74115,
      "order": 12,
      "descTextMapHash": 2659561732,
      "showType": "QUEST_HIDDEN",
      "finishCond": [
        {
          "KPGKDHAFHFE": "QUEST_CONTENT_COMPLETE_TALK",
          "param": [
            7411526,
            0
          ]
        }
      ],
      "guide": {},
      "guideHint": {
        "param1": ""
      },
      "isRewind": true,
      "finishExec": [
        {
          "KPGKDHAFHFE": "QUEST_EXEC_UNLOCK_EVENTS_ITEM",
          "param": [
            "74113",
            "11306"
          ]
        },
        {
          "KPGKDHAFHFE": "QUEST_EXEC_NOTIFY_GROUP_LUA",
          "param": [
            "3",
            "133403589"
          ]
        }
      ],
      "versionBegin": "",
      "versionEnd": ""
    },
    {
      "subId": 7411525,
      "mainId": 74115,
      "order": 13,
      "descTextMapHash": 1733891548,
      "showType": "QUEST_HIDDEN",
      "finishCond": [
        {
          "KPGKDHAFHFE": "QUEST_CONTENT_COMPLETE_TALK",
          "param": [
            7411527,
            0
          ]
        }
      ],
      "guide": {},
      "guideHint": {
        "param1": ""
      },
      "isRewind": true,
      "finishExec": [
        {
          "KPGKDHAFHFE": "QUEST_EXEC_NOTIFY_GROUP_LUA",
          "param": [
            "3",
            "133403589"
          ]
        }
      ],
      "versionBegin": "",
      "versionEnd": ""
    },
    {
      "subId": 7411526,
      "mainId": 74115,
      "order": 25,
      "descTextMapHash": 2529046500,
      "GMKDJFPEFFF": [
        108402
      ],
      "finishCond": [
        {
          "KPGKDHAFHFE": "QUEST_CONTENT_COMPLETE_TALK",
          "param": [
            7411533,
            0
          ]
        },
        {
          "KPGKDHAFHFE": "QUEST_CONTENT_COMPLETE_TALK",
          "param": [
            7411502,
            0
          ]
        }
      ],
      "guide": {
        "KPGKDHAFHFE": "QUEST_GUIDE_NPC",
        "param": [
          "21265"
        ],
        "guideScene": 1084,
        "guideStyle": "QUEST_GUIDE_STYLE_TARGET"
      },
      "guideHint": {
        "param1": ""
      },
      "isRewind": true,
      "finishExec": [
        {
          "KPGKDHAFHFE": "QUEST_EXEC_SET_GAME_TIME",
          "param": [
            "19"
          ]
        }
      ],
      "versionBegin": "",
      "versionEnd": ""
    },
    {
      "subId": 7411527,
      "mainId": 74115,
      "order": 24,
      "descTextMapHash": 2191579996,
      "finishCond": [
        {
          "KPGKDHAFHFE": "QUEST_CONTENT_GAME_TIME_TICK",
          "param": [
            0,
            0
          ]
        }
      ],
      "guide": {},
      "showGuide": "QUEST_GUIDE_ITEM_DISABLE",
      "guideHint": {
        "param1": ""
      },
      "isRewind": true,
      "versionBegin": "",
      "versionEnd": ""
    }
  ],
  "talks": [
    {
      "id": 7411502,
      "beginWay": "TALK_BEGIN_AUTO",
      "activeMode": "PLAY_MODE_HOST",
      "beginCondComb": "LOGIC_AND",
      "beginCond": [
        {
          "type": "QUEST_COND_STATE_EQUAL",
          "_param": [
            "7411526",
            "2"
          ]
        },
        {
          "type": "QUEST_COND_QUEST_GLOBAL_VAR_EQUAL",
          "_param": [
            "7400702",
            "1"
          ]
        }
      ],
      "priority": 5,
      "initDialog": 741150201,
      "npcId": [
        21265,
        21160
      ],
      "performCfg": "QuestDialogue/WQ/Fontaine_74115/Q7411502",
      "questId": 74115,
      "assetIndex": 12834455986279383730,
      "prePerformCfg": "",
      "PLPFOOINAAJ": [
        "[1084_22:10.797,7.815,-4.100,0.000,163.480,0.000]",
        "[1084_23:9.670,7.518,-5.252,0.000,137.288,0.000]",
        "[1084_68:10.888,7.520,-7.221]"
      ]
    },
    {
      "id": 7411503,
      "beginWay": "TALK_BEGIN_AUTO",
      "activeMode": "PLAY_MODE_HOST",
      "beginCond": [
        {
          "type": "QUEST_COND_STATE_EQUAL",
          "_param": [
            "7411503",
            "2"
          ]
        }
      ],
      "priority": 5,
      "initDialog": 741150301,
      "npcId": [
        21160,
        21158
      ],
      "performCfg": "QuestDialogue/WQ/Fontaine_74115/Q7411503",
      "questId": 74115,
      "assetIndex": 9406603716672257480,
      "prePerformCfg": "",
      "PLPFOOINAAJ": [
        "[1083_52:30.462,0.000,34.805,0.000,226.079,0.000]",
        "[1083_53:29.626,-0.008,32.245,0.000,353.232,0.000]",
        "[1083_82:27.840,0.000,33.640,0.000,90.000,0.000]"
      ]
    },
    {
      "id": 7411505,
      "beginWay": "TALK_BEGIN_MANUAL",
      "activeMode": "PLAY_MODE_HOST",
      "beginCond": [
        {
          "type": "QUEST_COND_STATE_EQUAL",
          "_param": [
            "7411505",
            "2"
          ]
        }
      ],
      "priority": 5,
      "initDialog": 741150501,
      "npcId": [
        21158,
        21160
      ],
      "performCfg": "QuestDialogue/WQ/Fontaine_74115/Q7411505",
      "questId": 74115,
      "assetIndex": 1125865478354042401,
      "prePerformCfg": "",
      "PLPFOOINAAJ": [
        "[3_5641:2508.042,250.007,4585.646,0.000,320.000,0.000]",
        "[3_6722:2506.706,250.125,4585.267,0.000,351.449,0.000]"
      ]
    },
    {
      "id": 7411506,
      "beginWay": "TALK_BEGIN_MANUAL",
      "activeMode": "PLAY_MODE_HOST",
      "beginCondComb": "LOGIC_AND",
      "beginCond": [
        {
          "type": "QUEST_COND_STATE_EQUAL",
          "_param": [
            "7411505",
            "3"
          ]
        },
        {
          "type": "QUEST_COND_STATE_EQUAL",
          "_param": [
            "7411512",
            "0"
          ]
        }
      ],
      "priority": 1,
      "initDialog": 741150601,
      "npcId": [
        21160
      ],
      "performCfg": "",
      "questId": 74115,
      "assetIndex": 15702632266290133378,
      "prePerformCfg": ""
    },
    {
      "id": 7411507,
      "beginWay": "TALK_BEGIN_AUTO",
      "activeMode": "PLAY_MODE_HOST",
      "beginCond": [
        {
          "type": "QUEST_COND_STATE_EQUAL",
          "_param": [
            "7411507",
            "2"
          ]
        }
      ],
      "priority": 5,
      "initDialog": 741150701,
      "npcId": [
        21158
      ],
      "performCfg": "QuestDialogue/WQ/Fontaine_74115/Q7411507",
      "questId": 74115,
      "assetIndex": 15571171161355723189,
      "prePerformCfg": "",
      "PLPFOOINAAJ": [
        "[3_7229:2499.977,251.845,4603.455,0.000,121.679,0.000]"
      ]
    },
    {
      "id": 7411508,
      "beginWay": "TALK_BEGIN_MANUAL",
      "activeMode": "PLAY_MODE_HOST",
      "beginCond": [
        {
          "type": "QUEST_COND_STATE_EQUAL",
          "_param": [
            "7411506",
            "2"
          ]
        }
      ],
      "priority": 5,
      "initDialog": 741150801,
      "npcId": [
        21330
      ],
      "performCfg": "",
      "questId": 74115,
      "assetIndex": 8112364023464226070,
      "prePerformCfg": ""
    },
    {
      "id": 7411509,
      "beginWay": "TALK_BEGIN_MANUAL",
      "activeMode": "PLAY_MODE_HOST",
      "beginCond": [
        {
          "type": "QUEST_COND_STATE_EQUAL",
          "_param": [
            "7411506",
            "2"
          ]
        }
      ],
      "priority": 5,
      "initDialog": 741150901,
      "npcId": [
        21331
      ],
      "performCfg": "",
      "questId": 74115,
      "assetIndex": 12531002741806453114,
      "prePerformCfg": ""
    },
    {
      "id": 7411510,
      "beginWay": "TALK_BEGIN_AUTO",
      "activeMode": "PLAY_MODE_HOST",
      "beginCond": [
        {
          "type": "QUEST_COND_STATE_EQUAL",
          "_param": [
            "7411510",
            "2"
          ]
        }
      ],
      "priority": 5,
      "initDialog": 741151010,
      "npcId": [
        21164,
        21163,
        21158
      ],
      "performCfg": "",
      "questId": 74115,
      "assetIndex": 10454962883933550282,
      "prePerformCfg": ""
    },
    {
      "id": 7411512,
      "beginWay": "TALK_BEGIN_MANUAL",
      "activeMode": "PLAY_MODE_HOST",
      "beginCond": [
        {
          "type": "QUEST_COND_STATE_EQUAL",
          "_param": [
            "7411512",
            "2"
          ]
        }
      ],
      "priority": 5,
      "initDialog": 741151201,
      "npcId": [
        21164,
        21163,
        21266
      ],
      "performCfg": "QuestDialogue/WQ/Fontaine_74115/Q7411512",
      "questId": 74115,
      "assetIndex": 17896384946957691938,
      "prePerformCfg": "",
      "PLPFOOINAAJ": [
        "[3_5779:2497.580,248.790,4590.472,0.000,300.000,0.000]",
        "[3_6525:2495.123,249.006,4590.238,0.000,330.000,0.000]",
        "[3_6529:2493.968,248.908,4592.397,0.000,160.000,0.000]",
        "[3_6558:2496.715,250.051,4595.868,0.000,200.000,0.000]",
        "[3_7359:2496.070,249.216,4593.882,0.000,210.000,0.000]"
      ]
    },
    {
      "id": 7411514,
      "beginWay": "TALK_BEGIN_MANUAL",
      "activeMode": "PLAY_MODE_HOST",
      "beginCond": [
        {
          "type": "QUEST_COND_STATE_EQUAL",
          "_param": [
            "7411514",
            "2"
          ]
        }
      ],
      "priority": 5,
      "initDialog": 741151401,
      "npcId": [
        21167
      ],
      "performCfg": "QuestDialogue/WQ/Fontaine_74115/Q7411514",
      "questId": 74115,
      "assetIndex": 1723979761293223233,
      "prePerformCfg": "",
      "PLPFOOINAAJ": [
        "[3_7335:3489.617,283.655,4560.521,0.000,312.888,0.000]",
        "[3_7336:3492.158,283.628,4561.342,0.000,120.059,0.000]"
      ]
    },
    {
      "id": 7411517,
      "beginWay": "TALK_BEGIN_AUTO",
      "activeMode": "PLAY_MODE_HOST",
      "beginCond": [
        {
          "type": "QUEST_COND_STATE_EQUAL",
          "_param": [
            "7411517",
            "2"
          ]
        }
      ],
      "priority": 5,
      "initDialog": 741151701,
      "npcId": [
        21167
      ],
      "performCfg": "QuestDialogue/WQ/Fontaine_74115/Q7411517",
      "questId": 74115,
      "assetIndex": 15942630299189930361,
      "prePerformCfg": "",
      "PLPFOOINAAJ": [
        "[3_7232:3498.918,294.281,4579.168,0.000,161.780,0.000]",
        "[3_7233:3499.357,294.287,4577.042,0.000,349.993,0.000]",
        "[3_7234:3500.037,294.214,4577.533,0.000,328.021,0.000]",
        "[3_7235:3498.047,294.215,4577.166,0.000,15.609,0.000]",
        "[3_7236:3498.897,294.225,4575.287]"
      ]
    },
    {
      "id": 7411519,
      "beginWay": "TALK_BEGIN_MANUAL",
      "activeMode": "PLAY_MODE_HOST",
      "beginCond": [
        {
          "type": "QUEST_COND_STATE_EQUAL",
          "_param": [
            "7411519",
            "2"
          ]
        }
      ],
      "priority": 5,
      "initDialog": 741151901,
      "npcId": [
        21265,
        21160
      ],
      "performCfg": "QuestDialogue/WQ/Fontaine_74115/Q7411519",
      "questId": 74115,
      "assetIndex": 3662166252255094853,
      "prePerformCfg": "",
      "PLPFOOINAAJ": [
        "[3_5624:3524.111,451.331,4657.417,0.000,270.000,0.000]",
        "[3_5649:3516.812,451.218,4655.091,0.000,254.490,0.000]",
        "[3_6225:3514.121,450.374,4654.608,0.000,70.000,0.000]",
        "[3_6789:3518.887,451.240,4652.399]",
        "[3_6790:3490.710,446.167,4656.665,0.000,120.000,0.000]"
      ]
    },
    {
      "id": 7411521,
      "beginWay": "TALK_BEGIN_MANUAL",
      "activeMode": "PLAY_MODE_HOST",
      "beginCond": [
        {
          "type": "QUEST_COND_STATE_EQUAL",
          "_param": [
            "7411521",
            "2"
          ]
        }
      ],
      "priority": 5,
      "initDialog": 741152101,
      "npcId": [
        21158
      ],
      "performCfg": "",
      "questId": 74115,
      "assetIndex": 13328038013877506481,
      "prePerformCfg": ""
    },
    {
      "id": 7411522,
      "beginWay": "TALK_BEGIN_MANUAL",
      "activeMode": "PLAY_MODE_HOST",
      "beginCondComb": "LOGIC_AND",
      "beginCond": [
        {
          "type": "QUEST_COND_STATE_EQUAL",
          "_param": [
            "7411522",
            "2"
          ]
        },
        {
          "type": "QUEST_COND_ITEM_GIVING_ACTIVED",
          "_param": [
            "7411522"
          ]
        }
      ],
      "priority": 5,
      "initDialog": 741152201,
      "npcId": [
        21158
      ],
      "performCfg": "",
      "questId": 74115,
      "assetIndex": 5437999591724878734,
      "prePerformCfg": ""
    },
    {
      "id": 7411523,
      "beginWay": "TALK_BEGIN_MANUAL",
      "activeMode": "PLAY_MODE_HOST",
      "beginCond": [
        {
          "type": "QUEST_COND_STATE_EQUAL",
          "_param": [
            "7411510",
            "2"
          ]
        }
      ],
      "priority": 8,
      "initDialog": 741152301,
      "npcId": [
        21164,
        21163,
        21158
      ],
      "performCfg": "QuestDialogue/WQ/Fontaine_74115/Q7411523",
      "questId": 74115,
      "assetIndex": 15787195687392471454,
      "prePerformCfg": "",
      "PLPFOOINAAJ": [
        "[3_6524:2494.787,248.928,4593.017,0.000,170.000,0.000]",
        "[3_6525:2495.123,249.006,4590.238,0.000,330.000,0.000]",
        "[3_6526:2494.065,249.014,4590.456,0.000,345.000,0.000]",
        "[3_6527:2493.717,249.138,4587.996]",
        "[3_6528:2492.966,248.806,4592.215,0.000,160.000,0.000]",
        "[3_6529:2493.968,248.908,4592.397,0.000,160.000,0.000]"
      ]
    },
    {
      "id": 7411524,
      "beginWay": "TALK_BEGIN_AUTO",
      "activeMode": "PLAY_MODE_HOST",
      "beginCond": [
        {
          "type": "QUEST_COND_STATE_EQUAL",
          "_param": [
            "7411510",
            "2"
          ]
        }
      ],
      "priority": 5,
      "initDialog": 741152401,
      "npcId": [
        21158
      ],
      "performCfg": "QuestDialogue/WQ/Fontaine_74115/Q7411524",
      "questId": 74115,
      "assetIndex": 11091728410241379546,
      "prePerformCfg": ""
    },
    {
      "id": 7411525,
      "beginWay": "TALK_BEGIN_MANUAL",
      "activeMode": "PLAY_MODE_HOST",
      "beginCond": [
        {
          "type": "QUEST_COND_STATE_EQUAL",
          "_param": [
            "7411523",
            "2"
          ]
        }
      ],
      "priority": 5,
      "initDialog": 741152501,
      "npcId": [
        21289
      ],
      "performCfg": "QuestDialogue/WQ/Fontaine_74115/Q7411525",
      "questId": 74115,
      "assetIndex": 2249584618341945824,
      "prePerformCfg": ""
    },
    {
      "id": 7411526,
      "beginWay": "TALK_BEGIN_MANUAL",
      "activeMode": "PLAY_MODE_HOST",
      "beginCond": [
        {
          "type": "QUEST_COND_STATE_EQUAL",
          "_param": [
            "7411524",
            "2"
          ]
        }
      ],
      "priority": 5,
      "initDialog": 741152601,
      "npcId": [
        21290
      ],
      "performCfg": "QuestDialogue/WQ/Fontaine_74115/Q7411526",
      "questId": 74115,
      "assetIndex": 11503420554475717260,
      "prePerformCfg": ""
    },
    {
      "id": 7411527,
      "beginWay": "TALK_BEGIN_MANUAL",
      "activeMode": "PLAY_MODE_HOST",
      "beginCond": [
        {
          "type": "QUEST_COND_STATE_EQUAL",
          "_param": [
            "7411509",
            "2"
          ]
        }
      ],
      "priority": 5,
      "initDialog": 741152701,
      "npcId": [
        21291
      ],
      "performCfg": "",
      "questId": 74115,
      "assetIndex": 10365593936340622096,
      "prePerformCfg": ""
    },
    {
      "id": 7411528,
      "beginWay": "TALK_BEGIN_MANUAL",
      "activeMode": "PLAY_MODE_HOST",
      "beginCond": [
        {
          "type": "QUEST_COND_STATE_EQUAL",
          "_param": [
            "7411508",
            "2"
          ]
        }
      ],
      "priority": 5,
      "initDialog": 741152801,
      "npcId": [
        21292
      ],
      "performCfg": "QuestDialogue/WQ/Fontaine_74115/Q7411528",
      "questId": 74115,
      "assetIndex": 7565575991485150570,
      "prePerformCfg": "",
      "PLPFOOINAAJ": [
        "[3_6530:2489.628,251.951,4610.346,0.000,142.259,0.000]"
      ]
    },
    {
      "id": 7411529,
      "beginWay": "TALK_BEGIN_MANUAL",
      "activeMode": "PLAY_MODE_HOST",
      "beginCond": [
        {
          "type": "QUEST_COND_STATE_EQUAL",
          "_param": [
            "7411509",
            "2"
          ]
        }
      ],
      "priority": 5,
      "initDialog": 741152901,
      "npcId": [
        21285
      ],
      "performCfg": "QuestDialogue/WQ/Fontaine_74015/Q7411529",
      "questId": 74115,
      "assetIndex": 14050113646968219928,
      "prePerformCfg": ""
    },
    {
      "id": 7411530,
      "beginWay": "TALK_BEGIN_MANUAL",
      "activeMode": "PLAY_MODE_HOST",
      "beginCond": [
        {
          "type": "QUEST_COND_STATE_EQUAL",
          "_param": [
            "7411509",
            "2"
          ]
        }
      ],
      "priority": 5,
      "initDialog": 741153001,
      "npcId": [
        21286
      ],
      "performCfg": "QuestDialogue/WQ/Fontaine_74115/Q7411530",
      "questId": 74115,
      "assetIndex": 10419304958188700601,
      "prePerformCfg": ""
    },
    {
      "id": 7411531,
      "beginWay": "TALK_BEGIN_MANUAL",
      "activeMode": "PLAY_MODE_HOST",
      "beginCond": [
        {
          "type": "QUEST_COND_STATE_EQUAL",
          "_param": [
            "7411509",
            "2"
          ]
        }
      ],
      "priority": 5,
      "initDialog": 741153101,
      "npcId": [
        21287
      ],
      "performCfg": "QuestDialogue/WQ/Fontaine_74115/Q7411531",
      "questId": 74115,
      "assetIndex": 4286972256336629433,
      "prePerformCfg": ""
    },
    {
      "id": 7411532,
      "beginWay": "TALK_BEGIN_MANUAL",
      "activeMode": "PLAY_MODE_HOST",
      "beginCond": [
        {
          "type": "QUEST_COND_STATE_EQUAL",
          "_param": [
            "7411509",
            "2"
          ]
        }
      ],
      "priority": 5,
      "initDialog": 741153201,
      "npcId": [
        21288
      ],
      "performCfg": "QuestDialogue/WQ/Fontaine_74115/Q7411532",
      "questId": 74115,
      "assetIndex": 7299437797411564361,
      "prePerformCfg": ""
    },
    {
      "id": 7411533,
      "beginWay": "TALK_BEGIN_AUTO",
      "activeMode": "PLAY_MODE_HOST",
      "beginCondComb": "LOGIC_AND",
      "beginCond": [
        {
          "type": "QUEST_COND_STATE_EQUAL",
          "_param": [
            "7411526",
            "2"
          ]
        },
        {
          "type": "QUEST_COND_QUEST_GLOBAL_VAR_NOT_EQUAL",
          "_param": [
            "7400702",
            "1"
          ]
        }
      ],
      "priority": 5,
      "initDialog": 741153301,
      "npcId": [
        21265,
        21160
      ],
      "performCfg": "QuestDialogue/WQ/Fontaine_74115/Q7411533",
      "questId": 74115,
      "assetIndex": 15390370640810838927,
      "prePerformCfg": "",
      "PLPFOOINAAJ": [
        "[1084_22:10.797,7.815,-4.100,0.000,163.480,0.000]",
        "[1084_23:9.670,7.518,-5.252,0.000,137.288,0.000]",
        "[1084_68:10.888,7.520,-7.221]"
      ]
    },
    {
      "id": 7411535,
      "activeMode": "PLAY_MODE_HOST",
      "priority": 5,
      "initDialog": 741153501,
      "npcId": [
        21164
      ],
      "performCfg": "",
      "questId": 74115,
      "assetIndex": 13650194660796599600,
      "prePerformCfg": ""
    }
  ],
  "preloadLuaList": [
    17666988420185524926,
    16568885553715123096,
    10157375531219202196,
    7258794964556880420,
    12200737615728901989,
    18327450889203726961,
    8245597433732388869,
    9667017810314527519
  ],
  "forcePreloadLuaList": [
    7400976632768489576
  ],
  "freeStyleDic": {
    "21158": [
      1190
    ],
    "21167": [
      1190
    ]
  },
  "DDHNEIEDLJA": true
}