{
  "id": 74114,
  "KPGKDHAFHFE": "WQ",
  "titleTextMapHash": 2557024695,
  "descTextMapHash": 1142234366,
  "luaPath": "Actor/Quest/WQ74114",
  "rewardIdList": [
    174114
  ],
  "subQuests": [
    {
      "subId": 7411401,
      "mainId": 74114,
      "order": 8,
      "descTextMapHash": 416718124,
      "finishCond": [
        {
          "KPGKDHAFHFE": "QUEST_CONTENT_GAME_TIME_TICK",
          "param": [
            1,
            0
          ]
        }
      ],
      "guide": {},
      "showGuide": "QUEST_GUIDE_ITEM_DISABLE",
      "guideHint": {
        "param1": ""
      },
      "isRewind": true,
      "versionBegin": "",
      "versionEnd": ""
    },
    {
      "subId": 7411402,
      "mainId": 74114,
      "order": 1,
      "descTextMapHash": 2073984996,
      "showType": "QUEST_HIDDEN",
      "finishCond": [
        {
          "KPGKDHAFHFE": "QUEST_CONTENT_COMPLETE_TALK",
          "param": [
            7411401,
            0
          ]
        }
      ],
      "guide": {},
      "showGuide": "QUEST_GUIDE_ITEM_DISABLE",
      "guideHint": {
        "param1": ""
      },
      "isRewind": true,
      "versionBegin": "",
      "versionEnd": ""
    },
    {
      "subId": 7411403,
      "mainId": 74114,
      "order": 2,
      "descTextMapHash": 2053592724,
      "finishCond": [
        {
          "KPGKDHAFHFE": "QUEST_CONTENT_LUA_NOTIFY",
          "param": [
            0,
            0
          ],
          "count": 1
        }
      ],
      "guide": {
        "KPGKDHAFHFE": "QUEST_GUIDE_GADGET",
        "autoGuide": "QUEST_GUIDE_AUTO_ENABLE",
        "param": [
          "133402050",
          "50004",
          "3410.306:426.2705:3875.702"
        ],
        "guideScene": 3,
        "guideStyle": "QUEST_GUIDE_STYLE_TARGET",
        "guideLayer": "QUEST_GUIDE_LAYER_SCENE"
      },
      "guideHint": {
        "param1": ""
      },
      "isRewind": true,
      "finishExec": [
        {
          "KPGKDHAFHFE": "QUEST_EXEC_UNREGISTER_DYNAMIC_GROUP",
          "param": [
            "133402050"
          ]
        }
      ],
      "versionBegin": "",
      "versionEnd": ""
    },
    {
      "subId": 7411404,
      "mainId": 74114,
      "order": 3,
      "descTextMapHash": 1254086788,
      "finishCond": [
        {
          "KPGKDHAFHFE": "QUEST_CONTENT_COMPLETE_TALK",
          "param": [
            7411403,
            0
          ]
        }
      ],
      "guide": {
        "KPGKDHAFHFE": "QUEST_GUIDE_NPC",
        "autoGuide": "QUEST_GUIDE_AUTO_ENABLE",
        "param": [
          "13489"
        ],
        "guideScene": 3,
        "guideStyle": "QUEST_GUIDE_STYLE_TARGET",
        "guideLayer": "QUEST_GUIDE_LAYER_SCENE"
      },
      "guideHint": {
        "param1": ""
      },
      "isRewind": true,
      "finishExec": [
        {
          "KPGKDHAFHFE": "QUEST_EXEC_UNREGISTER_DYNAMIC_GROUP",
          "param": [
            "133402045"
          ]
        },
        {
          "KPGKDHAFHFE": "QUEST_EXEC_DEL_ALL_SPECIFIC_PACK_ITEM",
          "param": [
            "120443"
          ]
        }
      ],
      "versionBegin": "",
      "versionEnd": ""
    },
    {
      "subId": 7411405,
      "mainId": 74114,
      "order": 4,
      "descTextMapHash": 986201244,
      "GMKDJFPEFFF": [
        108401
      ],
      "finishCond": [
        {
          "KPGKDHAFHFE": "QUEST_CONTENT_COMPLETE_TALK",
          "param": [
            7411404,
            0
          ]
        }
      ],
      "guide": {
        "KPGKDHAFHFE": "QUEST_GUIDE_NPC",
        "autoGuide": "QUEST_GUIDE_AUTO_ENABLE",
        "param": [
          "13489"
        ],
        "guideScene": 1084,
        "guideStyle": "QUEST_GUIDE_STYLE_TARGET",
        "guideLayer": "QUEST_GUIDE_LAYER_SCENE"
      },
      "guideHint": {
        "param1": ""
      },
      "isRewind": true,
      "finishExec": [
        {
          "KPGKDHAFHFE": "QUEST_EXEC_ACTIVE_ITEM_GIVING",
          "param": [
            "7405112"
          ]
        }
      ],
      "versionBegin": "",
      "versionEnd": ""
    },
    {
      "subId": 7411406,
      "mainId": 74114,
      "order": 5,
      "descTextMapHash": 2474316596,
      "GMKDJFPEFFF": [
        108401
      ],
      "finishCond": [
        {
          "KPGKDHAFHFE": "QUEST_CONTENT_FINISH_ITEM_GIVING",
          "param": [
            7405112,
            0
          ]
        }
      ],
      "guide": {
        "KPGKDHAFHFE": "QUEST_GUIDE_NPC",
        "autoGuide": "QUEST_GUIDE_AUTO_ENABLE",
        "param": [
          "13489"
        ],
        "guideScene": 1084,
        "guideStyle": "QUEST_GUIDE_STYLE_TARGET",
        "guideLayer": "QUEST_GUIDE_LAYER_SCENE"
      },
      "guideHint": {
        "param1": ""
      },
      "isRewind": true,
      "versionBegin": "",
      "versionEnd": ""
    },
    {
      "subId": 7411407,
      "mainId": 74114,
      "order": 7,
      "descTextMapHash": 1506543052,
      "GMKDJFPEFFF": [
        108401
      ],
      "finishCond": [
        {
          "KPGKDHAFHFE": "QUEST_CONTENT_COMPLETE_TALK",
          "param": [
            7411406,
            0
          ]
        }
      ],
      "guide": {
        "KPGKDHAFHFE": "QUEST_GUIDE_LOCATION",
        "autoGuide": "QUEST_GUIDE_AUTO_ENABLE",
        "param": [
          "[1084_8:-9.295,0.000,-2.443,0.000,87.541,0.000]"
        ],
        "guideScene": 1084,
        "guideStyle": "QUEST_GUIDE_STYLE_POINT",
        "guideLayer": "QUEST_GUIDE_LAYER_SCENE"
      },
      "guideHint": {
        "param1": ""
      },
      "finishParent": true,
      "isRewind": true,
      "versionBegin": "",
      "versionEnd": ""
    },
    {
      "subId": 7411408,
      "mainId": 74114,
      "order": 6,
      "descTextMapHash": 1582006060,
      "GMKDJFPEFFF": [
        108401
      ],
      "finishCond": [
        {
          "KPGKDHAFHFE": "QUEST_CONTENT_COMPLETE_TALK",
          "param": [
            7411407,
            0
          ]
        }
      ],
      "guide": {
        "KPGKDHAFHFE": "QUEST_GUIDE_NPC",
        "autoGuide": "QUEST_GUIDE_AUTO_ENABLE",
        "param": [
          "13489"
        ],
        "guideScene": 1084,
        "guideStyle": "QUEST_GUIDE_STYLE_TARGET",
        "guideLayer": "QUEST_GUIDE_LAYER_SCENE"
      },
      "guideHint": {
        "param1": ""
      },
      "isRewind": true,
      "versionBegin": "",
      "versionEnd": ""
    }
  ],
  "talks": [
    {
      "id": 7411401,
      "beginWay": "TALK_BEGIN_MANUAL",
      "beginCond": [
        {
          "type": "QUEST_COND_STATE_EQUAL",
          "_param": [
            "7411402",
            "2"
          ]
        }
      ],
      "priority": 5,
      "initDialog": 741140101,
      "npcId": [
        13489
      ],
      "performCfg": "QuestDialogue/WQ/Fontaine_74114/Q7411401",
      "heroTalk": "TALK_HERO_MAIN",
      "questId": 74114,
      "assetIndex": 1004418705893754709,
      "prePerformCfg": "",
      "talkMarkType": "TALK_MARK_COMMON",
      "PLPFOOINAAJ": [
        "[3_5191:3461.847,456.276,3837.557,0.000,47.271,0.000]",
        "[3_5192:3463.290,456.447,3839.019,0.000,222.062,0.000]",
        "[3_5193:3461.815,456.369,3839.092,0.000,175.602,0.000]",
        "[3_5891:3463.360,456.377,3837.862,0.000,312.016,0.000]"
      ]
    },
    {
      "id": 7411402,
      "beginWay": "TALK_BEGIN_MANUAL",
      "beginCond": [
        {
          "type": "QUEST_COND_STATE_EQUAL",
          "_param": [
            "7411403",
            "2"
          ]
        }
      ],
      "priority": 5,
      "initDialog": 741140201,
      "npcId": [
        13489,
        13491,
        13490
      ],
      "performCfg": "QuestDialogue/WQ/Fontaine_74114/Q7411402",
      "heroTalk": "TALK_HERO_MAIN",
      "questId": 74114,
      "assetIndex": 3996349080277094246,
      "prePerformCfg": ""
    },
    {
      "id": 7411403,
      "beginWay": "TALK_BEGIN_MANUAL",
      "beginCond": [
        {
          "type": "QUEST_COND_STATE_EQUAL",
          "_param": [
            "7411404",
            "2"
          ]
        }
      ],
      "priority": 5,
      "initDialog": 741140301,
      "npcId": [
        13489,
        13490,
        13491
      ],
      "performCfg": "QuestDialogue/WQ/Fontaine_74114/Q7411403",
      "heroTalk": "TALK_HERO_MAIN",
      "questId": 74114,
      "assetIndex": 11308089031677323511,
      "prePerformCfg": "",
      "PLPFOOINAAJ": [
        "[3_5191:3461.847,456.276,3837.557,0.000,47.271,0.000]",
        "[3_5192:3463.290,456.447,3839.019,0.000,222.062,0.000]",
        "[3_5193:3461.815,456.369,3839.092,0.000,175.602,0.000]",
        "[3_5891:3463.360,456.377,3837.862,0.000,312.016,0.000]"
      ]
    },
    {
      "id": 7411404,
      "beginWay": "TALK_BEGIN_MANUAL",
      "beginCond": [
        {
          "type": "QUEST_COND_STATE_EQUAL",
          "_param": [
            "7411405",
            "2"
          ]
        }
      ],
      "priority": 5,
      "initDialog": 741140401,
      "npcId": [
        13489,
        13490
      ],
      "performCfg": "QuestDialogue/WQ/Fontaine_74114/Q7411404",
      "heroTalk": "TALK_HERO_MAIN",
      "questId": 74114,
      "assetIndex": 10929440536700996499,
      "prePerformCfg": "",
      "PLPFOOINAAJ": [
        "[1084_16:-9.468,0.000,-1.145,0.000,165.212,0.000]",
        "[1084_18:-7.632,0.000,-2.183,0.000,262.875,0.000]",
        "[1084_8:-9.295,0.000,-2.443,0.000,87.541,0.000]"
      ]
    },
    {
      "id": 7411405,
      "beginWay": "TALK_BEGIN_MANUAL",
      "beginCondComb": "LOGIC_AND",
      "beginCond": [
        {
          "type": "QUEST_COND_STATE_EQUAL",
          "_param": [
            "7411406",
            "2"
          ]
        },
        {
          "type": "QUEST_COND_ITEM_GIVING_ACTIVED",
          "_param": [
            "7405112"
          ]
        }
      ],
      "priority": 5,
      "initDialog": 741140501,
      "npcId": [
        13489
      ],
      "performCfg": "",
      "heroTalk": "TALK_HERO_MAIN",
      "questId": 74114,
      "assetIndex": 14554000565688438019,
      "prePerformCfg": ""
    },
    {
      "id": 7411406,
      "beginWay": "TALK_BEGIN_MANUAL",
      "beginCond": [
        {
          "type": "QUEST_COND_STATE_EQUAL",
          "_param": [
            "7411407",
            "2"
          ]
        }
      ],
      "priority": 5,
      "initDialog": 741140601,
      "npcId": [
        13489,
        13488
      ],
      "performCfg": "QuestDialogue/WQ/Fontaine_74114/Q7411406",
      "heroTalk": "TALK_HERO_MAIN",
      "questId": 74114,
      "assetIndex": 6230507688815331257,
      "prePerformCfg": "",
      "PLPFOOINAAJ": [
        "[1084_17:-8.464,0.000,-1.114,0.000,205.355,0.000]",
        "[1084_18:-7.632,0.000,-2.183,0.000,262.875,0.000]",
        "[1084_8:-9.295,0.000,-2.443,0.000,87.541,0.000]"
      ]
    },
    {
      "id": 7411407,
      "beginWay": "TALK_BEGIN_AUTO",
      "beginCond": [
        {
          "type": "QUEST_COND_STATE_EQUAL",
          "_param": [
            "7411408",
            "2"
          ]
        }
      ],
      "priority": 5,
      "initDialog": 741140701,
      "npcId": [
        13489
      ],
      "performCfg": "",
      "heroTalk": "TALK_HERO_MAIN",
      "questId": 74114,
      "assetIndex": 8106861728000706702,
      "prePerformCfg": ""
    }
  ]
}