{
  "id": 74134,
  "KPGKDHAFHFE": "WQ",
  "mainQuestTag": "MAINQUEST_TAG_RANK_ZERO_WQ",
  "activeMode": "PLAY_MODE_ALL",
  "titleTextMapHash": 4164737215,
  "descTextMapHash": 2731853446,
  "luaPath": "Actor/Quest/WQ74134",
  "rewardIdList": [
    74134
  ],
  "subQuests": [
    {
      "subId": 7413401,
      "mainId": 74134,
      "order": 1,
      "descTextMapHash": 802236028,
      "guideTipsTextMapHash": 2791001286,
      "showType": "QUEST_HIDDEN",
      "finishCond": [
        {
          "KPGKDHAFHFE": "QUEST_CONTENT_QUEST_GLOBAL_VAR_EQUAL",
          "param": [
            7407901,
            1
          ]
        }
      ],
      "guide": {},
      "guideHint": {
        "param1": ""
      },
      "isRewind": true,
      "versionBegin": "",
      "versionEnd": ""
    },
    {
      "subId": 7413402,
      "mainId": 74134,
      "order": 2,
      "descTextMapHash": 2219004308,
      "showType": "QUEST_HIDDEN",
      "finishCond": [
        {
          "KPGKDHAFHFE": "QUEST_CONTENT_FINISH_PLOT",
          "param": [
            7413402,
            0
          ]
        }
      ],
      "guide": {
        "KPGKDHAFHFE": "QUEST_GUIDE_LOCATION",
        "param": [
          "[3_4523:3213.820,253.414,4176.430]",
          "20"
        ],
        "guideScene": 3,
        "guideStyle": "QUEST_GUIDE_STYLE_POINT",
        "guideLayer": "QUEST_GUIDE_LAYER_SCENE"
      },
      "guideHint": {
        "param1": ""
      },
      "isRewind": true,
      "versionBegin": "",
      "versionEnd": ""
    },
    {
      "subId": 7413403,
      "mainId": 74134,
      "order": 3,
      "descTextMapHash": 2751158932,
      "showType": "QUEST_HIDDEN",
      "finishCond": [
        {
          "KPGKDHAFHFE": "QUEST_CONTENT_FINISH_PLOT",
          "param": [
            7413403,
            0
          ]
        }
      ],
      "guide": {
        "KPGKDHAFHFE": "QUEST_GUIDE_LOCATION",
        "param": [
          "[3_4618:3201.079,254.568,4175.873]"
        ],
        "guideScene": 3,
        "guideStyle": "QUEST_GUIDE_STYLE_POINT",
        "guideLayer": "QUEST_GUIDE_LAYER_SCENE"
      },
      "guideHint": {
        "param1": ""
      },
      "isRewind": true,
      "versionBegin": "",
      "versionEnd": ""
    },
    {
      "subId": 7413404,
      "mainId": 74134,
      "order": 4,
      "descTextMapHash": 2740301612,
      "finishCond": [
        {
          "KPGKDHAFHFE": "QUEST_CONTENT_COMPLETE_TALK",
          "param": [
            7413409,
            0
          ]
        },
        {
          "KPGKDHAFHFE": "QUEST_CONTENT_COMPLETE_TALK",
          "param": [
            7413410,
            0
          ]
        },
        {
          "KPGKDHAFHFE": "QUEST_CONTENT_COMPLETE_TALK",
          "param": [
            7413411,
            0
          ]
        },
        {
          "KPGKDHAFHFE": "QUEST_CONTENT_COMPLETE_TALK",
          "param": [
            7413412,
            0
          ]
        }
      ],
      "guide": {
        "KPGKDHAFHFE": "QUEST_GUIDE_LOCATION",
        "param": [
          "[1080_1:220.687,-21.299,201.206,0.000,56.519,0.000]"
        ],
        "guideScene": 1080,
        "guideStyle": "QUEST_GUIDE_STYLE_POINT",
        "guideLayer": "QUEST_GUIDE_LAYER_SCENE"
      },
      "guideHint": {
        "param1": ""
      },
      "finishParent": true,
      "isRewind": true,
      "finishExec": [
        {
          "KPGKDHAFHFE": "QUEST_EXEC_SET_QUEST_GLOBAL_VAR",
          "param": [
            "7402801",
            "1"
          ]
        },
        {
          "KPGKDHAFHFE": "QUEST_EXEC_INC_QUEST_GLOBAL_VAR",
          "param": [
            "7400102",
            "1"
          ]
        }
      ],
      "versionBegin": "",
      "versionEnd": ""
    }
  ],
  "talks": [
    {
      "id": 7413401,
      "beginWay": "TALK_BEGIN_MANUAL",
      "activeMode": "PLAY_MODE_HOST",
      "beginCondComb": "LOGIC_AND",
      "beginCond": [
        {
          "type": "QUEST_COND_STATE_EQUAL",
          "_param": [
            "7413404",
            "2"
          ]
        },
        {
          "type": "QUEST_COND_QUEST_GLOBAL_VAR_EQUAL",
          "_param": [
            "7400102",
            "0"
          ]
        }
      ],
      "priority": 5,
      "nextTalks": [
        7413403
      ],
      "initDialog": 741340101,
      "npcId": [
        21048
      ],
      "performCfg": "QuestDialogue/WQ/Fontaine_74134/Q7413401",
      "heroTalk": "TALK_HERO_MAIN",
      "questId": 74134,
      "assetIndex": 7544344653597198608,
      "prePerformCfg": "",
      "PLPFOOINAAJ": [
        "[1080_1:220.687,-21.299,201.206,0.000,56.519,0.000]",
        "[1080_18:219.507,-21.350,201.032,0.000,80.092,0.000]",
        "[1080_23:219.979,-21.299,200.062,0.000,36.639,0.000]"
      ]
    },
    {
      "id": 7413402,
      "beginWay": "TALK_BEGIN_MANUAL",
      "activeMode": "PLAY_MODE_HOST",
      "beginCondComb": "LOGIC_AND",
      "beginCond": [
        {
          "type": "QUEST_COND_STATE_EQUAL",
          "_param": [
            "7413404",
            "2"
          ]
        },
        {
          "type": "QUEST_COND_QUEST_GLOBAL_VAR_GREATER",
          "_param": [
            "7400102",
            "0"
          ]
        }
      ],
      "priority": 5,
      "nextTalks": [
        7413403
      ],
      "initDialog": 741340201,
      "npcId": [
        21048
      ],
      "performCfg": "QuestDialogue/WQ/Fontaine_74134/Q7413402",
      "heroTalk": "TALK_HERO_MAIN",
      "questId": 74134,
      "assetIndex": 1507422898369768648,
      "prePerformCfg": "",
      "PLPFOOINAAJ": [
        "[1080_1:220.687,-21.299,201.206,0.000,56.519,0.000]",
        "[1080_18:219.507,-21.350,201.032,0.000,80.092,0.000]",
        "[1080_23:219.979,-21.299,200.062,0.000,36.639,0.000]"
      ]
    },
    {
      "id": 7413403,
      "activeMode": "PLAY_MODE_HOST",
      "beginCond": [
        {
          "type": "QUEST_COND_STATE_EQUAL",
          "_param": [
            "7413404",
            "2"
          ]
        }
      ],
      "priority": 5,
      "nextTalks": [
        7413405,
        7413406,
        7413407
      ],
      "initDialog": 741340301,
      "npcId": [
        21048
      ],
      "performCfg": "QuestDialogue/WQ/Fontaine_74134/Q7413403",
      "heroTalk": "TALK_HERO_MAIN",
      "questId": 74134,
      "assetIndex": 16734968034926247163,
      "prePerformCfg": "",
      "PLPFOOINAAJ": [
        "[1080_23:219.979,-21.299,200.062,0.000,36.639,0.000]"
      ]
    },
    {
      "id": 7413404,
      "activeMode": "PLAY_MODE_HOST",
      "beginCondComb": "LOGIC_OR",
      "beginCond": [
        {
          "type": "QUEST_COND_QUEST_VAR_EQUAL",
          "_param": [
            "1",
            "0",
            "74134"
          ]
        },
        {
          "type": "QUEST_COND_QUEST_VAR_EQUAL",
          "_param": [
            "2",
            "0",
            "74134"
          ]
        },
        {
          "type": "QUEST_COND_QUEST_VAR_EQUAL",
          "_param": [
            "3",
            "0",
            "74134"
          ]
        }
      ],
      "priority": 5,
      "nextTalks": [
        7413405,
        7413406,
        7413407
      ],
      "initDialog": 741340401,
      "npcId": [
        1005
      ],
      "performCfg": "QuestDialogue/WQ/Fontaine_74134/Q7413404",
      "heroTalk": "TALK_HERO_MAIN",
      "questId": 74134,
      "assetIndex": 2384190751490327405,
      "prePerformCfg": "",
      "PLPFOOINAAJ": [
        "[1080_23:219.979,-21.299,200.062,0.000,36.639,0.000]"
      ]
    },
    {
      "id": 7413405,
      "activeMode": "PLAY_MODE_HOST",
      "beginCondComb": "LOGIC_AND",
      "beginCond": [
        {
          "type": "QUEST_COND_STATE_EQUAL",
          "_param": [
            "7413404",
            "2"
          ]
        },
        {
          "type": "QUEST_COND_QUEST_VAR_EQUAL",
          "_param": [
            "1",
            "0",
            "74134"
          ]
        }
      ],
      "priority": 5,
      "nextTalks": [
        7413404,
        7413408
      ],
      "initDialog": 741340501,
      "npcId": [
        21048
      ],
      "performCfg": "QuestDialogue/WQ/Fontaine_74134/Q7413405",
      "heroTalk": "TALK_HERO_MAIN",
      "questId": 74134,
      "assetIndex": 14890031214607804015,
      "prePerformCfg": "",
      "finishExec": [
        {
          "KPGKDHAFHFE": "TALK_EXEC_SET_QUEST_VAR",
          "param": [
            "1",
            "1",
            "74134"
          ]
        }
      ],
      "PLPFOOINAAJ": [
        "[1080_17:220.089,-21.299,200.103]",
        "[1080_23:219.979,-21.299,200.062,0.000,36.639,0.000]"
      ]
    },
    {
      "id": 7413406,
      "activeMode": "PLAY_MODE_HOST",
      "beginCondComb": "LOGIC_AND",
      "beginCond": [
        {
          "type": "QUEST_COND_STATE_EQUAL",
          "_param": [
            "7413404",
            "2"
          ]
        },
        {
          "type": "QUEST_COND_QUEST_VAR_EQUAL",
          "_param": [
            "2",
            "0",
            "74134"
          ]
        }
      ],
      "priority": 5,
      "nextTalks": [
        7413404,
        7413408
      ],
      "initDialog": 741340601,
      "npcId": [
        21048
      ],
      "performCfg": "QuestDialogue/WQ/Fontaine_74134/Q7413406",
      "heroTalk": "TALK_HERO_MAIN",
      "questId": 74134,
      "assetIndex": 5162727927927468192,
      "prePerformCfg": "",
      "finishExec": [
        {
          "KPGKDHAFHFE": "TALK_EXEC_SET_QUEST_VAR",
          "param": [
            "2",
            "1",
            "74134"
          ]
        }
      ],
      "PLPFOOINAAJ": [
        "[1080_23:219.979,-21.299,200.062,0.000,36.639,0.000]"
      ]
    },
    {
      "id": 7413407,
      "activeMode": "PLAY_MODE_HOST",
      "beginCondComb": "LOGIC_AND",
      "beginCond": [
        {
          "type": "QUEST_COND_STATE_EQUAL",
          "_param": [
            "7413404",
            "2"
          ]
        },
        {
          "type": "QUEST_COND_QUEST_VAR_EQUAL",
          "_param": [
            "3",
            "0",
            "74134"
          ]
        }
      ],
      "priority": 5,
      "nextTalks": [
        7413404,
        7413408
      ],
      "initDialog": 741340701,
      "npcId": [
        21048
      ],
      "performCfg": "QuestDialogue/WQ/Fontaine_74134/Q7413407",
      "heroTalk": "TALK_HERO_MAIN",
      "questId": 74134,
      "assetIndex": 7855762526040017117,
      "prePerformCfg": "",
      "finishExec": [
        {
          "KPGKDHAFHFE": "TALK_EXEC_SET_QUEST_VAR",
          "param": [
            "3",
            "1",
            "74134"
          ]
        }
      ],
      "PLPFOOINAAJ": [
        "[1080_23:219.979,-21.299,200.062,0.000,36.639,0.000]"
      ]
    },
    {
      "id": 7413408,
      "activeMode": "PLAY_MODE_HOST",
      "beginCondComb": "LOGIC_AND",
      "beginCond": [
        {
          "type": "QUEST_COND_QUEST_VAR_EQUAL",
          "_param": [
            "1",
            "1",
            "74134"
          ]
        },
        {
          "type": "QUEST_COND_QUEST_VAR_EQUAL",
          "_param": [
            "2",
            "1",
            "74134"
          ]
        },
        {
          "type": "QUEST_COND_QUEST_VAR_EQUAL",
          "_param": [
            "3",
            "1",
            "74134"
          ]
        }
      ],
      "priority": 5,
      "nextTalks": [
        7413409,
        7413410,
        7413411,
        7413412
      ],
      "initDialog": 741340801,
      "npcId": [
        21048
      ],
      "performCfg": "QuestDialogue/WQ/Fontaine_74134/Q7413408",
      "heroTalk": "TALK_HERO_MAIN",
      "questId": 74134,
      "assetIndex": 2810734504199443947,
      "prePerformCfg": "",
      "PLPFOOINAAJ": [
        "[1080_23:219.979,-21.299,200.062,0.000,36.639,0.000]"
      ]
    },
    {
      "id": 7413409,
      "activeMode": "PLAY_MODE_HOST",
      "beginCondComb": "LOGIC_AND",
      "beginCond": [
        {
          "type": "QUEST_COND_STATE_EQUAL",
          "_param": [
            "7413404",
            "2"
          ]
        },
        {
          "type": "QUEST_COND_QUEST_GLOBAL_VAR_EQUAL",
          "_param": [
            "7400102",
            "0"
          ]
        }
      ],
      "priority": 5,
      "initDialog": 741340901,
      "npcId": [
        21048
      ],
      "performCfg": "QuestDialogue/WQ/Fontaine_74134/Q7413409",
      "heroTalk": "TALK_HERO_MAIN",
      "questId": 74134,
      "assetIndex": 8035078654398506445,
      "prePerformCfg": "",
      "PLPFOOINAAJ": [
        "[1080_23:219.979,-21.299,200.062,0.000,36.639,0.000]"
      ]
    },
    {
      "id": 7413410,
      "activeMode": "PLAY_MODE_HOST",
      "beginCondComb": "LOGIC_AND",
      "beginCond": [
        {
          "type": "QUEST_COND_STATE_EQUAL",
          "_param": [
            "7413404",
            "2"
          ]
        },
        {
          "type": "QUEST_COND_QUEST_GLOBAL_VAR_EQUAL",
          "_param": [
            "7400102",
            "1"
          ]
        },
        {
          "type": "QUEST_COND_QUEST_GLOBAL_VAR_EQUAL",
          "_param": [
            "7400401",
            "1"
          ]
        }
      ],
      "priority": 5,
      "initDialog": 741341001,
      "npcId": [
        20995,
        21048
      ],
      "performCfg": "QuestDialogue/WQ/Fontaine_74134/Q7413410",
      "heroTalk": "TALK_HERO_MAIN",
      "questId": 74134,
      "assetIndex": 5187552020783935387,
      "prePerformCfg": "",
      "PLPFOOINAAJ": [
        "[1080_19:219.608,-21.350,202.047,0.000,146.309,0.000]",
        "[1080_23:219.979,-21.299,200.062,0.000,36.639,0.000]"
      ]
    },
    {
      "id": 7413411,
      "activeMode": "PLAY_MODE_HOST",
      "beginCondComb": "LOGIC_AND",
      "beginCond": [
        {
          "type": "QUEST_COND_STATE_EQUAL",
          "_param": [
            "7413404",
            "2"
          ]
        },
        {
          "type": "QUEST_COND_QUEST_GLOBAL_VAR_EQUAL",
          "_param": [
            "7400102",
            "1"
          ]
        },
        {
          "type": "QUEST_COND_QUEST_GLOBAL_VAR_EQUAL",
          "_param": [
            "7400701",
            "1"
          ]
        }
      ],
      "priority": 5,
      "initDialog": 741341101,
      "npcId": [
        5303,
        21048
      ],
      "performCfg": "QuestDialogue/WQ/Fontaine_74134/Q7413411",
      "heroTalk": "TALK_HERO_MAIN",
      "questId": 74134,
      "assetIndex": 7035290636118282158,
      "prePerformCfg": "",
      "PLPFOOINAAJ": [
        "[1080_20:220.188,-21.350,202.503,0.000,165.588,0.000]",
        "[1080_23:219.979,-21.299,200.062,0.000,36.639,0.000]"
      ]
    },
    {
      "id": 7413412,
      "activeMode": "PLAY_MODE_HOST",
      "beginCondComb": "LOGIC_AND",
      "beginCond": [
        {
          "type": "QUEST_COND_STATE_EQUAL",
          "_param": [
            "7413404",
            "2"
          ]
        },
        {
          "type": "QUEST_COND_QUEST_GLOBAL_VAR_EQUAL",
          "_param": [
            "7400102",
            "2"
          ]
        }
      ],
      "priority": 5,
      "initDialog": 741341201,
      "npcId": [
        5303,
        20995,
        21048
      ],
      "performCfg": "QuestDialogue/WQ/Fontaine_74134/Q7413412",
      "heroTalk": "TALK_HERO_MAIN",
      "questId": 74134,
      "assetIndex": 4200796148031127310,
      "prePerformCfg": "",
      "PLPFOOINAAJ": [
        "[1080_19:219.608,-21.350,202.047,0.000,146.309,0.000]",
        "[1080_20:220.188,-21.350,202.503,0.000,165.588,0.000]",
        "[1080_23:219.979,-21.299,200.062,0.000,36.639,0.000]"
      ]
    }
  ],
  "preloadLuaList": [
    15931064274848758892,
    13318105842797246068
  ],
  "forcePreloadLuaList": [
    6913044830894112924
  ]
}