{
  "id": 74132,
  "series": 74001,
  "KPGKDHAFHFE": "WQ",
  "mainQuestTag": "MAINQUEST_TAG_RANK_ZERO_WQ",
  "activeMode": "PLAY_MODE_ALL",
  "titleTextMapHash": 2274418847,
  "luaPath": "Actor/Quest/WQ74132",
  "showType": "QUEST_HIDDEN",
  "subQuests": [
    {
      "subId": 7413201,
      "mainId": 74132,
      "order": 1,
      "descTextMapHash": 2400810308,
      "showType": "QUEST_HIDDEN",
      "finishCond": [
        {
          "KPGKDHAFHFE": "QUEST_CONTENT_GADGET_STATE_CHANGE",
          "param": [
            133401209,
            209004
          ]
        }
      ],
      "guide": {},
      "showGuide": "QUEST_GUIDE_ITEM_DISABLE",
      "guideHint": {
        "param1": ""
      },
      "finishParent": true,
      "isRewind": true,
      "versionBegin": "",
      "versionEnd": ""
    }
  ]
}