{
  "id": 74139,
  "KPGKDHAFHFE": "WQ",
  "activeMode": "PLAY_MODE_ALL",
  "descTextMapHash": 687819070,
  "luaPath": "Actor/Quest/WQ74139",
  "showType": "QUEST_HIDDEN",
  "subQuests": [
    {
      "subId": 7413901,
      "mainId": 74139,
      "order": 1,
      "showType": "QUEST_HIDDEN",
      "finishCond": [
        {
          "KPGKDHAFHFE": "QUEST_CONTENT_QUEST_GLOBAL_VAR_GREATER",
          "param": [
            7400102,
            1
          ]
        }
      ],
      "guide": {},
      "showGuide": "QUEST_GUIDE_ITEM_DISABLE",
      "guideHint": {
        "param1": ""
      },
      "finishParent": true,
      "isRewind": true,
      "versionBegin": "",
      "versionEnd": ""
    }
  ],
  "talks": [
    {
      "id": 7413901,
      "beginWay": "TALK_BEGIN_MANUAL",
      "beginCondComb": "LOGIC_AND",
      "beginCond": [
        {
          "type": "QUEST_COND_STATE_EQUAL",
          "_param": [
            "7412003",
            "3"
          ]
        },
        {
          "type": "QUEST_COND_QUEST_GLOBAL_VAR_EQUAL",
          "_param": [
            "7400102",
            "1"
          ]
        }
      ],
      "initDialog": 741390101,
      "npcId": [
        5303
      ],
      "performCfg": "",
      "questId": 74139,
      "assetIndex": 11288521838225201151,
      "prePerformCfg": ""
    }
  ]
}