{
  "id": 74144,
  "KPGKDHAFHFE": "WQ",
  "activeMode": "PLAY_MODE_ALL",
  "titleTextMapHash": 4000148991,
  "descTextMapHash": 2001468438,
  "luaPath": "Actor/Quest/WQ74144",
  "rewardIdList": [
    174144
  ],
  "subQuests": [
    {
      "subId": 7414401,
      "mainId": 74144,
      "order": 1,
      "descTextMapHash": 2865793068,
      "finishCond": [
        {
          "KPGKDHAFHFE": "QUEST_CONTENT_LUA_NOTIFY",
          "param": [
            0,
            0
          ],
          "count": 1
        }
      ],
      "guide": {
        "param": [
          "30"
        ],
        "guideScene": 3
      },
      "showGuide": "QUEST_GUIDE_ITEM_DISABLE",
      "guideHint": {
        "param1": ""
      },
      "isRewind": true,
      "versionBegin": "",
      "versionEnd": ""
    },
    {
      "subId": 7414402,
      "mainId": 74144,
      "order": 3,
      "descTextMapHash": 2002353340,
      "showType": "QUEST_HIDDEN",
      "finishCond": [
        {
          "KPGKDHAFHFE": "QUEST_CONTENT_FINISH_PLOT",
          "param": [
            7414402,
            0
          ]
        }
      ],
      "guide": {
        "param": [
          "30"
        ],
        "guideScene": 3
      },
      "showGuide": "QUEST_GUIDE_ITEM_DISABLE",
      "guideHint": {
        "param1": ""
      },
      "isRewind": true,
      "versionBegin": "",
      "versionEnd": ""
    },
    {
      "subId": 7414403,
      "mainId": 74144,
      "order": 5,
      "descTextMapHash": 520274116,
      "showType": "QUEST_HIDDEN",
      "finishCond": [
        {
          "KPGKDHAFHFE": "QUEST_CONTENT_COMPLETE_TALK",
          "param": [
            7414403,
            0
          ]
        }
      ],
      "guide": {
        "KPGKDHAFHFE": "QUEST_GUIDE_NPC",
        "param": [
          "21232"
        ],
        "guideScene": 3,
        "guideStyle": "QUEST_GUIDE_STYLE_TARGET",
        "guideLayer": "QUEST_GUIDE_LAYER_SCENE"
      },
      "guideHint": {
        "param1": ""
      },
      "isRewind": true,
      "versionBegin": "",
      "versionEnd": ""
    },
    {
      "subId": 7414404,
      "mainId": 74144,
      "order": 6,
      "descTextMapHash": 777219276,
      "finishCond": [
        {
          "KPGKDHAFHFE": "QUEST_CONTENT_COMPLETE_TALK",
          "param": [
            7414404,
            0
          ]
        }
      ],
      "guide": {
        "KPGKDHAFHFE": "QUEST_GUIDE_LOCATION",
        "param": [
          "[3_6822:3199.673,441.256,3612.202,0.000,190.958,0.000]"
        ],
        "guideScene": 3,
        "guideStyle": "QUEST_GUIDE_STYLE_POINT",
        "guideLayer": "QUEST_GUIDE_LAYER_SCENE"
      },
      "guideHint": {
        "param1": ""
      },
      "isRewind": true,
      "versionBegin": "",
      "versionEnd": ""
    },
    {
      "subId": 7414405,
      "mainId": 74144,
      "order": 8,
      "descTextMapHash": 3486993188,
      "finishCond": [
        {
          "KPGKDHAFHFE": "QUEST_CONTENT_COMPLETE_TALK",
          "param": [
            7414422,
            0
          ]
        }
      ],
      "guide": {
        "KPGKDHAFHFE": "QUEST_GUIDE_LOCATION",
        "param": [
          "[3_6804:3247.385,425.285,3759.712]",
          "20"
        ],
        "guideScene": 3,
        "guideStyle": "QUEST_GUIDE_STYLE_POINT"
      },
      "guideHint": {
        "param1": ""
      },
      "isRewind": true,
      "versionBegin": "",
      "versionEnd": ""
    },
    {
      "subId": 7414406,
      "mainId": 74144,
      "order": 11,
      "descTextMapHash": 4243953844,
      "finishCond": [
        {
          "KPGKDHAFHFE": "QUEST_CONTENT_COMPLETE_TALK",
          "param": [
            7414406,
            0
          ]
        }
      ],
      "guide": {
        "KPGKDHAFHFE": "QUEST_GUIDE_NPC",
        "param": [
          "21232"
        ],
        "guideScene": 3,
        "guideStyle": "QUEST_GUIDE_STYLE_TARGET",
        "guideLayer": "QUEST_GUIDE_LAYER_SCENE"
      },
      "guideHint": {
        "param1": ""
      },
      "isRewind": true,
      "finishExec": [
        {
          "KPGKDHAFHFE": "QUEST_EXEC_DEL_PACK_ITEM",
          "param": [
            "120720",
            "1"
          ]
        },
        {
          "KPGKDHAFHFE": "QUEST_EXEC_REFRESH_GROUP_SUITE",
          "param": [
            "3",
            "133412084,3"
          ]
        }
      ],
      "versionBegin": "",
      "versionEnd": ""
    },
    {
      "subId": 7414407,
      "mainId": 74144,
      "order": 12,
      "descTextMapHash": 2247498916,
      "finishCond": [
        {
          "KPGKDHAFHFE": "QUEST_CONTENT_FINISH_PLOT",
          "param": [
            7414407,
            0
          ]
        }
      ],
      "guide": {
        "KPGKDHAFHFE": "QUEST_GUIDE_NPC",
        "param": [
          "21233"
        ],
        "guideScene": 3,
        "guideStyle": "QUEST_GUIDE_STYLE_TARGET",
        "guideLayer": "QUEST_GUIDE_LAYER_SCENE"
      },
      "guideHint": {
        "param1": ""
      },
      "isRewind": true,
      "versionBegin": "",
      "versionEnd": ""
    },
    {
      "subId": 7414408,
      "mainId": 74144,
      "order": 13,
      "descTextMapHash": 306452292,
      "finishCond": [
        {
          "KPGKDHAFHFE": "QUEST_CONTENT_COMPLETE_TALK",
          "param": [
            7414408,
            0
          ]
        }
      ],
      "guide": {
        "KPGKDHAFHFE": "QUEST_GUIDE_NPC",
        "param": [
          "21233"
        ],
        "guideScene": 3,
        "guideStyle": "QUEST_GUIDE_STYLE_TARGET",
        "guideLayer": "QUEST_GUIDE_LAYER_SCENE"
      },
      "guideHint": {
        "param1": ""
      },
      "isRewind": true,
      "finishExec": [
        {
          "KPGKDHAFHFE": "QUEST_EXEC_UNREGISTER_DYNAMIC_GROUP",
          "param": [
            "133402017"
          ]
        }
      ],
      "versionBegin": "",
      "versionEnd": ""
    },
    {
      "subId": 7414409,
      "mainId": 74144,
      "order": 14,
      "descTextMapHash": 3511496708,
      "finishCond": [
        {
          "KPGKDHAFHFE": "QUEST_CONTENT_FINISH_PLOT",
          "param": [
            7414409,
            0
          ]
        }
      ],
      "guide": {
        "KPGKDHAFHFE": "QUEST_GUIDE_GADGET",
        "param": [
          "133402584",
          "584012",
          "3160:430:3579.8"
        ],
        "guideScene": 3,
        "guideStyle": "QUEST_GUIDE_STYLE_TARGET"
      },
      "guideHint": {
        "param1": ""
      },
      "isRewind": true,
      "versionBegin": "",
      "versionEnd": ""
    },
    {
      "subId": 7414410,
      "mainId": 74144,
      "order": 15,
      "descTextMapHash": 3741304020,
      "finishCond": [
        {
          "KPGKDHAFHFE": "QUEST_CONTENT_FINISH_PLOT",
          "param": [
            7414410,
            0
          ]
        }
      ],
      "guide": {
        "KPGKDHAFHFE": "QUEST_GUIDE_LOCATION",
        "param": [
          "[3_6328:3092.150,413.080,3467.800]",
          "20"
        ],
        "guideScene": 3
      },
      "guideHint": {
        "param1": ""
      },
      "isRewind": true,
      "versionBegin": "",
      "versionEnd": ""
    },
    {
      "subId": 7414411,
      "mainId": 74144,
      "order": 16,
      "descTextMapHash": 874359804,
      "finishCond": [
        {
          "KPGKDHAFHFE": "QUEST_CONTENT_LUA_NOTIFY",
          "param": [
            0,
            0
          ],
          "count": 1
        }
      ],
      "guide": {
        "KPGKDHAFHFE": "QUEST_GUIDE_LOCATION",
        "param": [
          "[3_6328:3092.150,413.080,3467.800]",
          "30"
        ],
        "guideScene": 3
      },
      "guideHint": {
        "param1": ""
      },
      "isRewind": true,
      "finishExec": [
        {
          "KPGKDHAFHFE": "QUEST_EXEC_UNREGISTER_DYNAMIC_GROUP",
          "param": [
            "133412087",
            "1"
          ]
        }
      ],
      "versionBegin": "",
      "versionEnd": ""
    },
    {
      "subId": 7414412,
      "mainId": 74144,
      "order": 17,
      "descTextMapHash": 4278424964,
      "finishCond": [
        {
          "KPGKDHAFHFE": "QUEST_CONTENT_FINISH_PLOT",
          "param": [
            7414412,
            0
          ]
        }
      ],
      "guide": {
        "KPGKDHAFHFE": "QUEST_GUIDE_GADGET",
        "param": [
          "133402584",
          "584002",
          "3107.7:411.271454:3437.797"
        ],
        "guideScene": 3,
        "guideStyle": "QUEST_GUIDE_STYLE_TARGET"
      },
      "guideHint": {
        "param1": ""
      },
      "isRewind": true,
      "versionBegin": "",
      "versionEnd": ""
    },
    {
      "subId": 7414413,
      "mainId": 74144,
      "order": 18,
      "descTextMapHash": 1745429836,
      "finishCond": [
        {
          "KPGKDHAFHFE": "QUEST_CONTENT_LUA_NOTIFY",
          "param": [
            0,
            0
          ],
          "count": 1
        }
      ],
      "guide": {
        "KPGKDHAFHFE": "QUEST_GUIDE_LOCATION",
        "param": [
          "[3_6329:3102.019,409.164,3246.208,334.011,276.688,4.493]",
          "40"
        ],
        "guideScene": 3
      },
      "guideHint": {
        "param1": ""
      },
      "isRewind": true,
      "versionBegin": "",
      "versionEnd": ""
    },
    {
      "subId": 7414414,
      "mainId": 74144,
      "order": 21,
      "descTextMapHash": 3282765524,
      "finishCond": [
        {
          "KPGKDHAFHFE": "QUEST_CONTENT_FINISH_PLOT",
          "param": [
            7414414,
            0
          ]
        }
      ],
      "guide": {
        "KPGKDHAFHFE": "QUEST_GUIDE_GADGET",
        "param": [
          "133402584",
          "584004",
          "2998:426:2943"
        ],
        "guideScene": 3,
        "guideStyle": "QUEST_GUIDE_STYLE_TARGET"
      },
      "guideHint": {
        "param1": ""
      },
      "isRewind": true,
      "versionBegin": "",
      "versionEnd": ""
    },
    {
      "subId": 7414415,
      "mainId": 74144,
      "order": 23,
      "descTextMapHash": 1488924836,
      "finishCond": [
        {
          "KPGKDHAFHFE": "QUEST_CONTENT_LUA_NOTIFY",
          "param": [
            0,
            0
          ],
          "count": 1
        }
      ],
      "guide": {
        "KPGKDHAFHFE": "QUEST_GUIDE_GADGET",
        "param": [
          "133402398",
          "398002",
          "2552.6:433.6:3207.9"
        ],
        "guideScene": 3,
        "guideStyle": "QUEST_GUIDE_STYLE_TARGET"
      },
      "guideHint": {
        "param1": ""
      },
      "isRewind": true,
      "finishExec": [
        {
          "KPGKDHAFHFE": "QUEST_EXEC_NOTIFY_GROUP_LUA",
          "param": [
            "3",
            "133402584"
          ]
        },
        {
          "KPGKDHAFHFE": "QUEST_EXEC_UNREGISTER_DYNAMIC_GROUP",
          "param": [
            "133402388"
          ]
        },
        {
          "KPGKDHAFHFE": "QUEST_EXEC_DEL_PACK_ITEM",
          "param": [
            "120719",
            "1"
          ]
        }
      ],
      "versionBegin": "",
      "versionEnd": ""
    },
    {
      "subId": 7414416,
      "mainId": 74144,
      "order": 24,
      "descTextMapHash": 2366743404,
      "finishCond": [
        {
          "KPGKDHAFHFE": "QUEST_CONTENT_COMPLETE_TALK",
          "param": [
            7414416,
            0
          ]
        }
      ],
      "guide": {
        "KPGKDHAFHFE": "QUEST_GUIDE_NPC",
        "param": [
          "21232"
        ],
        "guideScene": 3,
        "guideStyle": "QUEST_GUIDE_STYLE_TARGET",
        "guideLayer": "QUEST_GUIDE_LAYER_SCENE"
      },
      "guideHint": {
        "param1": ""
      },
      "isRewind": true,
      "versionBegin": "",
      "versionEnd": ""
    },
    {
      "subId": 7414417,
      "mainId": 74144,
      "order": 27,
      "descTextMapHash": 1605810004,
      "finishCond": [
        {
          "KPGKDHAFHFE": "QUEST_CONTENT_COMPLETE_TALK",
          "param": [
            7414417,
            0
          ]
        }
      ],
      "guide": {
        "KPGKDHAFHFE": "QUEST_GUIDE_NPC",
        "param": [
          "21232"
        ],
        "guideScene": 3,
        "guideStyle": "QUEST_GUIDE_STYLE_TARGET",
        "guideLayer": "QUEST_GUIDE_LAYER_SCENE"
      },
      "guideHint": {
        "param1": ""
      },
      "finishParent": true,
      "isRewind": true,
      "finishExec": [
        {
          "KPGKDHAFHFE": "QUEST_EXEC_UNREGISTER_DYNAMIC_GROUP",
          "param": [
            "133412023",
            "1"
          ]
        }
      ],
      "versionBegin": "",
      "versionEnd": ""
    },
    {
      "subId": 7414418,
      "mainId": 74144,
      "order": 2,
      "descTextMapHash": 3701635812,
      "guide": {},
      "guideHint": {
        "param1": ""
      },
      "isRewind": true,
      "versionBegin": "",
      "versionEnd": ""
    },
    {
      "subId": 7414419,
      "mainId": 74144,
      "order": 20,
      "descTextMapHash": 3470556612,
      "finishCond": [
        {
          "KPGKDHAFHFE": "QUEST_CONTENT_LUA_NOTIFY",
          "param": [
            0,
            0
          ],
          "count": 1
        }
      ],
      "guide": {
        "KPGKDHAFHFE": "QUEST_GUIDE_LOCATION",
        "param": [
          "[3_6384:3022.910,413.880,2982.070]",
          "60"
        ],
        "guideScene": 3
      },
      "guideHint": {
        "param1": ""
      },
      "isRewind": true,
      "finishExec": [
        {
          "KPGKDHAFHFE": "QUEST_EXEC_UNREGISTER_DYNAMIC_GROUP",
          "param": [
            "133412071",
            "1"
          ]
        }
      ],
      "versionBegin": "",
      "versionEnd": ""
    },
    {
      "subId": 7414420,
      "mainId": 74144,
      "order": 22,
      "descTextMapHash": 2709259060,
      "showType": "QUEST_HIDDEN",
      "finishCond": [
        {
          "KPGKDHAFHFE": "QUEST_CONTENT_LUA_NOTIFY",
          "param": [
            0,
            0
          ],
          "count": 1
        },
        {
          "KPGKDHAFHFE": "QUEST_CONTENT_GADGET_STATE_CHANGE",
          "param": [
            133402388,
            388020
          ]
        }
      ],
      "guide": {
        "KPGKDHAFHFE": "QUEST_GUIDE_LOCATION",
        "param": [
          "[3_6330:2557.393,431.720,3207.307]",
          "70"
        ],
        "guideScene": 3
      },
      "guideHint": {
        "param1": ""
      },
      "isRewind": true,
      "versionBegin": "",
      "versionEnd": ""
    },
    {
      "subId": 7414421,
      "mainId": 74144,
      "order": 7,
      "descTextMapHash": 3539116068,
      "finishCond": [
        {
          "KPGKDHAFHFE": "QUEST_CONTENT_COMPLETE_TALK",
          "param": [
            7414421,
            0
          ]
        }
      ],
      "guide": {
        "KPGKDHAFHFE": "QUEST_GUIDE_NPC",
        "param": [
          "21232"
        ],
        "guideScene": 3,
        "guideStyle": "QUEST_GUIDE_STYLE_TARGET",
        "guideLayer": "QUEST_GUIDE_LAYER_SCENE"
      },
      "guideHint": {
        "param1": ""
      },
      "isRewind": true,
      "versionBegin": "",
      "versionEnd": ""
    },
    {
      "subId": 7414422,
      "mainId": 74144,
      "order": 9,
      "descTextMapHash": 2456563836,
      "finishCond": [
        {
          "KPGKDHAFHFE": "QUEST_CONTENT_COMPLETE_TALK",
          "param": [
            7414423,
            0
          ]
        }
      ],
      "guide": {
        "KPGKDHAFHFE": "QUEST_GUIDE_LOCATION",
        "param": [
          "[3_6805:3166.423,429.788,3582.990]",
          "20"
        ],
        "guideScene": 3,
        "guideStyle": "QUEST_GUIDE_STYLE_POINT"
      },
      "guideHint": {
        "param1": ""
      },
      "isRewind": true,
      "versionBegin": "",
      "versionEnd": ""
    },
    {
      "subId": 7414423,
      "mainId": 74144,
      "order": 10,
      "descTextMapHash": 1791113660,
      "finishCond": [
        {
          "KPGKDHAFHFE": "QUEST_CONTENT_COMPLETE_TALK",
          "param": [
            7414424,
            0
          ]
        }
      ],
      "guide": {
        "KPGKDHAFHFE": "QUEST_GUIDE_LOCATION",
        "param": [
          "[3_6806:3108.756,421.778,3544.723]",
          "20"
        ],
        "guideScene": 3,
        "guideStyle": "QUEST_GUIDE_STYLE_POINT"
      },
      "guideHint": {
        "param1": ""
      },
      "isRewind": true,
      "finishExec": [
        {
          "KPGKDHAFHFE": "QUEST_EXEC_NOTIFY_GROUP_LUA",
          "param": [
            "3",
            "133412084"
          ]
        }
      ],
      "versionBegin": "",
      "versionEnd": ""
    },
    {
      "subId": 7414424,
      "mainId": 74144,
      "order": 19,
      "descTextMapHash": 2413468668,
      "finishCond": [
        {
          "KPGKDHAFHFE": "QUEST_CONTENT_COMPLETE_TALK",
          "param": [
            7414418,
            0
          ]
        }
      ],
      "guide": {
        "KPGKDHAFHFE": "QUEST_GUIDE_GADGET",
        "param": [
          "133402584",
          "584003",
          "3075:413:3233.5"
        ],
        "guideScene": 3
      },
      "guideHint": {
        "param1": ""
      },
      "isRewind": true,
      "versionBegin": "",
      "versionEnd": ""
    },
    {
      "subId": 7414425,
      "mainId": 74144,
      "order": 26,
      "descTextMapHash": 2341556868,
      "finishCond": [
        {
          "KPGKDHAFHFE": "QUEST_CONTENT_FINISH_PLOT",
          "param": [
            7414425,
            0
          ]
        }
      ],
      "guide": {
        "KPGKDHAFHFE": "QUEST_GUIDE_LOCATION",
        "param": [
          "[3_7416:3078.790,431.954,3281.971]",
          "20"
        ],
        "guideScene": 3,
        "guideLayer": "QUEST_GUIDE_LAYER_SCENE"
      },
      "guideHint": {
        "param1": ""
      },
      "isRewind": true,
      "versionBegin": "",
      "versionEnd": ""
    },
    {
      "subId": 7414426,
      "mainId": 74144,
      "order": 4,
      "descTextMapHash": 1669208164,
      "showType": "QUEST_HIDDEN",
      "finishCond": [
        {
          "KPGKDHAFHFE": "QUEST_CONTENT_FINISH_PLOT",
          "param": [
            7414426,
            0
          ]
        },
        {
          "KPGKDHAFHFE": "QUEST_CONTENT_COMPLETE_TALK",
          "param": [
            7414403,
            0
          ]
        }
      ],
      "guide": {},
      "guideHint": {
        "param1": ""
      },
      "isRewind": true,
      "versionBegin": "",
      "versionEnd": ""
    },
    {
      "subId": 7414427,
      "mainId": 74144,
      "order": 25,
      "descTextMapHash": 245116972,
      "finishCond": [
        {
          "KPGKDHAFHFE": "QUEST_CONTENT_FINISH_PLOT",
          "param": [
            7414427,
            0
          ]
        }
      ],
      "guide": {
        "KPGKDHAFHFE": "QUEST_GUIDE_GADGET",
        "param": [
          "133412023",
          "23001",
          "3164.37:433.5:3597.5"
        ],
        "guideScene": 3,
        "guideStyle": "QUEST_GUIDE_STYLE_TARGET",
        "guideLayer": "QUEST_GUIDE_LAYER_SCENE"
      },
      "guideHint": {
        "param1": ""
      },
      "isRewind": true,
      "versionBegin": "",
      "versionEnd": ""
    }
  ],
  "talks": [
    {
      "id": 7414401,
      "beginWay": "TALK_BEGIN_MANUAL",
      "activeMode": "PLAY_MODE_HOST",
      "beginCond": [
        {
          "type": "QUEST_COND_STATE_EQUAL",
          "_param": [
            "7414421",
            "2"
          ]
        }
      ],
      "priority": 2,
      "initDialog": 741440101,
      "npcId": [
        21233,
        21234
      ],
      "performCfg": "",
      "heroTalk": "TALK_HERO_MAIN",
      "questId": 74144,
      "assetIndex": 5652348064056195425,
      "prePerformCfg": ""
    },
    {
      "id": 7414402,
      "beginWay": "TALK_BEGIN_MANUAL",
      "activeMode": "PLAY_MODE_HOST",
      "beginCond": [
        {
          "type": "QUEST_COND_STATE_EQUAL",
          "_param": [
            "7414402",
            "3"
          ]
        }
      ],
      "priority": 1,
      "initDialog": 741440201,
      "npcId": [
        21232
      ],
      "performCfg": "",
      "heroTalk": "TALK_HERO_MAIN",
      "questId": 74144,
      "assetIndex": 17829241376097566842,
      "prePerformCfg": ""
    },
    {
      "id": 7414403,
      "beginWay": "TALK_BEGIN_MANUAL",
      "activeMode": "PLAY_MODE_HOST",
      "beginCond": [
        {
          "type": "QUEST_COND_STATE_EQUAL",
          "_param": [
            "7414403",
            "2"
          ]
        }
      ],
      "priority": 6,
      "initDialog": 741440301,
      "npcId": [
        21232
      ],
      "performCfg": "QuestDialogue/WQ/Fontaine_74144/Q7414403",
      "heroTalk": "TALK_HERO_MAIN",
      "questId": 74144,
      "assetIndex": 9497078111282585129,
      "prePerformCfg": "",
      "talkMarkType": "TALK_MARK_COMMON",
      "PLPFOOINAAJ": [
        "[3_6317:3188.672,441.447,3607.718,0.000,260.000,0.000]",
        "[3_6318:3188.131,441.392,3610.322,0.000,240.000,0.000]",
        "[3_6319:3190.038,441.306,3609.701,0.000,62.760,0.000]",
        "[3_6821:3196.195,441.362,3610.718,0.000,250.000,0.000]"
      ]
    },
    {
      "id": 7414404,
      "beginWay": "TALK_BEGIN_AUTO",
      "activeMode": "PLAY_MODE_HOST",
      "beginCond": [
        {
          "type": "QUEST_COND_STATE_EQUAL",
          "_param": [
            "7414404",
            "2"
          ]
        }
      ],
      "priority": 6,
      "initDialog": 741440401,
      "npcId": [
        21233,
        21234
      ],
      "performCfg": "QuestDialogue/WQ/Fontaine_74144/Q7414404",
      "heroTalk": "TALK_HERO_MAIN",
      "questId": 74144,
      "assetIndex": 10850230733861238756,
      "prePerformCfg": "",
      "PLPFOOINAAJ": [
        "[3_6320:3199.268,441.801,3610.352,0.000,8.879,0.000]",
        "[3_6321:3198.019,441.354,3611.093,0.000,38.042,0.000]",
        "[3_6822:3199.673,441.256,3612.202,0.000,190.958,0.000]",
        "[3_6823:3181.054,440.191,3606.656,0.000,251.666,0.000]"
      ]
    },
    {
      "id": 7414406,
      "beginWay": "TALK_BEGIN_AUTO",
      "activeMode": "PLAY_MODE_HOST",
      "beginCond": [
        {
          "type": "QUEST_COND_STATE_EQUAL",
          "_param": [
            "7414406",
            "2"
          ]
        }
      ],
      "priority": 6,
      "initDialog": 741440601,
      "npcId": [
        21232
      ],
      "performCfg": "QuestDialogue/WQ/Fontaine_74144/Q7414406",
      "heroTalk": "TALK_HERO_MAIN",
      "questId": 74144,
      "assetIndex": 4706768533776271116,
      "prePerformCfg": "",
      "PLPFOOINAAJ": [
        "[3_7241:3199.945,445.071,3601.397,0.000,253.619,0.000]",
        "[3_7242:3201.836,445.056,3600.187,0.000,295.061,0.000]",
        "[3_7315:3200.916,445.058,3598.551]",
        "[3_7317:3201.737,445.062,3601.832,0.000,249.311,0.000]"
      ]
    },
    {
      "id": 7414408,
      "beginWay": "TALK_BEGIN_MANUAL",
      "activeMode": "PLAY_MODE_HOST",
      "beginCond": [
        {
          "type": "QUEST_COND_STATE_EQUAL",
          "_param": [
            "7414408",
            "2"
          ]
        }
      ],
      "priority": 6,
      "initDialog": 741440801,
      "npcId": [
        21233
      ],
      "performCfg": "QuestDialogue/WQ/Fontaine_74144/Q7414408",
      "heroTalk": "TALK_HERO_MAIN",
      "questId": 74144,
      "assetIndex": 9915983973782423102,
      "prePerformCfg": "",
      "PLPFOOINAAJ": [
        "[3_6322:3216.935,447.585,3602.221,0.000,318.615,0.000]",
        "[3_7318:3215.315,445.199,3603.769,0.000,137.701,0.000]"
      ]
    },
    {
      "id": 7414409,
      "beginWay": "TALK_BEGIN_MANUAL",
      "activeMode": "PLAY_MODE_HOST",
      "beginCondComb": "LOGIC_AND",
      "beginCond": [
        {
          "type": "QUEST_COND_STATE_EQUAL",
          "_param": [
            "7414421",
            "3"
          ]
        },
        {
          "type": "QUEST_COND_STATE_EQUAL",
          "_param": [
            "7414407"
          ]
        }
      ],
      "priority": 2,
      "initDialog": 741440901,
      "npcId": [
        21233,
        21232,
        21234
      ],
      "performCfg": "",
      "heroTalk": "TALK_HERO_MAIN",
      "questId": 74144,
      "assetIndex": 16384535672823832673,
      "prePerformCfg": ""
    },
    {
      "id": 7414414,
      "beginWay": "TALK_BEGIN_MANUAL",
      "activeMode": "PLAY_MODE_HOST",
      "beginCond": [
        {
          "type": "QUEST_COND_STATE_EQUAL",
          "_param": [
            "7414406",
            "3"
          ]
        }
      ],
      "priority": 3,
      "initDialog": 741441401,
      "npcId": [
        21232,
        21234
      ],
      "performCfg": "",
      "heroTalk": "TALK_HERO_MAIN",
      "questId": 74144,
      "assetIndex": 9642186932644312577,
      "prePerformCfg": ""
    },
    {
      "id": 7414416,
      "beginWay": "TALK_BEGIN_AUTO",
      "activeMode": "PLAY_MODE_HOST",
      "beginCond": [
        {
          "type": "QUEST_COND_STATE_EQUAL",
          "_param": [
            "7414416",
            "2"
          ]
        }
      ],
      "priority": 6,
      "initDialog": 741441601,
      "npcId": [
        21233,
        21232,
        21234
      ],
      "performCfg": "QuestDialogue/WQ/Fontaine_74144/Q7414416",
      "heroTalk": "TALK_HERO_MAIN",
      "questId": 74144,
      "assetIndex": 10689852153153022845,
      "prePerformCfg": "",
      "PLPFOOINAAJ": [
        "[3_6316:3187.448,441.039,3608.238,0.000,258.243,0.000]",
        "[3_6317:3188.672,441.447,3607.718,0.000,260.000,0.000]",
        "[3_6318:3188.131,441.392,3610.322,0.000,240.000,0.000]",
        "[3_7319:3186.282,440.678,3607.735,0.000,68.477,0.000]"
      ]
    },
    {
      "id": 7414417,
      "beginWay": "TALK_BEGIN_AUTO",
      "activeMode": "PLAY_MODE_HOST",
      "beginCond": [
        {
          "type": "QUEST_COND_STATE_EQUAL",
          "_param": [
            "7414417",
            "2"
          ]
        }
      ],
      "priority": 6,
      "initDialog": 741441701,
      "npcId": [
        21232,
        21233,
        21234
      ],
      "performCfg": "QuestDialogue/WQ/Fontaine_74144/Q7414417",
      "heroTalk": "TALK_HERO_MAIN",
      "questId": 74144,
      "assetIndex": 18319804475308825001,
      "prePerformCfg": "",
      "PLPFOOINAAJ": [
        "[3_6809:3048.265,443.893,3278.420,0.000,9.045,0.000]",
        "[3_6810:3049.189,444.000,3278.783,4.454,336.264,355.668]",
        "[3_6811:3046.786,443.594,3279.645,0.000,58.951,0.000]",
        "[3_6833:3047.244,443.742,3278.449,0.000,23.036,0.000]"
      ]
    },
    {
      "id": 7414418,
      "beginWay": "TALK_BEGIN_AUTO",
      "activeMode": "PLAY_MODE_HOST",
      "beginCond": [
        {
          "type": "QUEST_COND_STATE_EQUAL",
          "_param": [
            "7414424",
            "2"
          ]
        }
      ],
      "priority": 6,
      "initDialog": 741441801,
      "npcId": [
        21318
      ],
      "performCfg": "QuestDialogue/WQ/Fontaine_74144/Q7414418",
      "heroTalk": "TALK_HERO_MAIN",
      "questId": 74144,
      "assetIndex": 13503772030761667586,
      "prePerformCfg": "",
      "PLPFOOINAAJ": [
        "[3_6812:3023.970,419.410,2970.650]",
        "[3_6830:3024.060,420.210,2973.975,0.000,180.000,0.000]"
      ]
    },
    {
      "id": 7414419,
      "beginWay": "TALK_BEGIN_MANUAL",
      "activeMode": "PLAY_MODE_HOST",
      "beginCond": [
        {
          "type": "QUEST_COND_STATE_EQUAL",
          "_param": [
            "7414408",
            "3"
          ]
        }
      ],
      "priority": 4,
      "initDialog": 741441901,
      "npcId": [
        21234,
        21232,
        21233
      ],
      "performCfg": "",
      "heroTalk": "TALK_HERO_MAIN",
      "questId": 74144,
      "assetIndex": 9225282414286797791,
      "prePerformCfg": ""
    },
    {
      "id": 7414421,
      "beginWay": "TALK_BEGIN_MANUAL",
      "activeMode": "PLAY_MODE_HOST",
      "beginCond": [
        {
          "type": "QUEST_COND_STATE_EQUAL",
          "_param": [
            "7414421",
            "2"
          ]
        }
      ],
      "priority": 6,
      "initDialog": 741442101,
      "npcId": [
        21232
      ],
      "performCfg": "QuestDialogue/WQ/Fontaine_74144/Q7414421",
      "heroTalk": "TALK_HERO_MAIN",
      "questId": 74144,
      "assetIndex": 2493726679519701269,
      "prePerformCfg": "",
      "PLPFOOINAAJ": [
        "[3_6824:3182.152,440.188,3606.859,0.000,87.148,0.000]",
        "[3_6825:3184.199,440.220,3606.271,0.000,280.253,0.000]",
        "[3_6826:3184.419,440.133,3607.490,0.000,257.148,0.000]",
        "[3_6827:3182.971,440.153,3608.269,0.000,197.148,0.000]",
        "[3_6828:3184.160,440.120,3608.222,0.000,242.148,0.000]"
      ]
    },
    {
      "id": 7414422,
      "beginWay": "TALK_BEGIN_AUTO",
      "activeMode": "PLAY_MODE_HOST",
      "beginCond": [
        {
          "type": "QUEST_COND_STATE_EQUAL",
          "_param": [
            "7414405",
            "2"
          ]
        }
      ],
      "priority": 6,
      "initDialog": 741442201,
      "npcId": [
        21318
      ],
      "performCfg": "QuestDialogue/WQ/Fontaine_74144/Q7414422",
      "heroTalk": "TALK_HERO_MAIN",
      "questId": 74144,
      "assetIndex": 1217640130254521207,
      "prePerformCfg": "",
      "PLPFOOINAAJ": [
        "[3_6804:3247.385,425.285,3759.712]",
        "[3_7370:3247.275,424.953,3760.462,0.000,158.756,0.000]",
        "[3_7393:3246.626,425.120,3757.689,0.000,37.963,0.000]"
      ]
    },
    {
      "id": 7414423,
      "beginWay": "TALK_BEGIN_AUTO",
      "activeMode": "PLAY_MODE_HOST",
      "beginCond": [
        {
          "type": "QUEST_COND_STATE_EQUAL",
          "_param": [
            "7414422",
            "2"
          ]
        }
      ],
      "priority": 6,
      "initDialog": 741442301,
      "npcId": [
        21318
      ],
      "performCfg": "QuestDialogue/WQ/Fontaine_74144/Q7414423",
      "heroTalk": "TALK_HERO_MAIN",
      "questId": 74144,
      "assetIndex": 16512419599627729362,
      "prePerformCfg": "",
      "PLPFOOINAAJ": [
        "[3_6805:3166.423,429.788,3582.990]",
        "[3_7371:3165.145,429.995,3582.666,0.000,42.864,0.000]",
        "[3_7394:3165.118,429.913,3584.420,0.000,142.711,0.000]"
      ]
    },
    {
      "id": 7414424,
      "beginWay": "TALK_BEGIN_MANUAL",
      "activeMode": "PLAY_MODE_HOST",
      "beginCond": [
        {
          "type": "QUEST_COND_STATE_EQUAL",
          "_param": [
            "7414423",
            "2"
          ]
        }
      ],
      "priority": 6,
      "initDialog": 741442401,
      "npcId": [
        1005,
        21318
      ],
      "performCfg": "QuestDialogue/WQ/Fontaine_74144/Q7414424",
      "heroTalk": "TALK_HERO_MAIN",
      "questId": 74144,
      "assetIndex": 12608475338231314952,
      "prePerformCfg": "",
      "PLPFOOINAAJ": [
        "[3_6806:3108.756,421.778,3544.723]",
        "[3_7372:3109.718,421.887,3542.994,0.000,325.156,0.000]",
        "[3_7395:3110.833,422.025,3544.563,0.000,282.410,0.000]"
      ]
    },
    {
      "id": 7414427,
      "beginWay": "TALK_BEGIN_MANUAL",
      "activeMode": "PLAY_MODE_HOST",
      "beginCond": [
        {
          "type": "QUEST_COND_STATE_EQUAL",
          "_param": [
            "7414416",
            "3"
          ]
        }
      ],
      "priority": 5,
      "initDialog": 741442701,
      "npcId": [
        21233,
        21232,
        21234
      ],
      "performCfg": "",
      "heroTalk": "TALK_HERO_MAIN",
      "questId": 74144,
      "assetIndex": 8990956933467471792,
      "prePerformCfg": ""
    }
  ],
  "preloadLuaList": [
    13549759130902833601,
    7161146053078226095,
    13048836501167327226,
    7464450938127437793,
    5476352205281564227,
    14834164056667668762,
    4807888701141697950,
    7534011211528910365,
    2022166930516333762,
    17121058277482967800,
    18377603245374306242,
    2017052972392316106,
    15838159205233549722,
    10013180897659922573,
    7673189682692378588,
    13777090450520640497,
    18247042522934770877,
    15703683553541427053
  ],
  "forcePreloadLuaList": [
    9914179908654235587
  ]
}