{
  "id": 74166,
  "KPGKDHAFHFE": "WQ",
  "mainQuestTag": "MAINQUEST_TAG_GUIDE",
  "titleTextMapHash": 1401906031,
  "descTextMapHash": 763821910,
  "luaPath": "Actor/Quest/WQ74166",
  "chapterId": 10160,
  "subQuests": [
    {
      "subId": 7416601,
      "mainId": 74166,
      "order": 1,
      "descTextMapHash": 2703255860,
      "showType": "QUEST_HIDDEN",
      "finishCond": [
        {
          "KPGKDHAFHFE": "QUEST_CONTENT_FINISH_PLOT",
          "param": [
            7416601,
            0
          ]
        }
      ],
      "guide": {},
      "showGuide": "QUEST_GUIDE_ITEM_DISABLE",
      "guideHint": {
        "param1": ""
      },
      "isRewind": true,
      "versionBegin": "",
      "versionEnd": ""
    },
    {
      "subId": 7416602,
      "mainId": 74166,
      "order": 2,
      "descTextMapHash": 1504084876,
      "showType": "QUEST_HIDDEN",
      "finishCond": [
        {
          "KPGKDHAFHFE": "QUEST_CONTENT_COMPLETE_TALK",
          "param": [
            7416602,
            0
          ]
        }
      ],
      "guide": {},
      "showGuide": "QUEST_GUIDE_ITEM_DISABLE",
      "guideHint": {
        "param1": ""
      },
      "isRewind": true,
      "versionBegin": "",
      "versionEnd": ""
    },
    {
      "subId": 7416603,
      "mainId": 74166,
      "order": 3,
      "descTextMapHash": 810372956,
      "finishCond": [
        {
          "KPGKDHAFHFE": "QUEST_CONTENT_COMPLETE_TALK",
          "param": [
            7416603,
            0
          ]
        }
      ],
      "guide": {
        "KPGKDHAFHFE": "QUEST_GUIDE_NPC",
        "param": [
          "13791"
        ],
        "guideScene": 3,
        "guideStyle": "QUEST_GUIDE_STYLE_TARGET",
        "guideLayer": "QUEST_GUIDE_LAYER_SCENE"
      },
      "guideHint": {
        "param1": ""
      },
      "isRewind": true,
      "versionBegin": "",
      "versionEnd": ""
    },
    {
      "subId": 7416604,
      "mainId": 74166,
      "order": 4,
      "descTextMapHash": 3499369900,
      "finishCond": [
        {
          "KPGKDHAFHFE": "QUEST_CONTENT_COMPLETE_TALK",
          "param": [
            7416604,
            0
          ]
        }
      ],
      "guide": {
        "KPGKDHAFHFE": "QUEST_GUIDE_LOCATION",
        "param": [
          "[3_340800417:4482.252,121.300,4605.498,0.000,215.344,0.000]"
        ],
        "guideScene": 3,
        "guideStyle": "QUEST_GUIDE_STYLE_POINT",
        "guideLayer": "QUEST_GUIDE_LAYER_SCENE"
      },
      "guideHint": {
        "param1": ""
      },
      "isRewind": true,
      "versionBegin": "",
      "versionEnd": ""
    },
    {
      "subId": 7416605,
      "mainId": 74166,
      "order": 5,
      "descTextMapHash": 2661576612,
      "finishCond": [
        {
          "KPGKDHAFHFE": "QUEST_CONTENT_COMPLETE_TALK",
          "param": [
            7416605,
            0
          ]
        }
      ],
      "guide": {
        "KPGKDHAFHFE": "QUEST_GUIDE_LOCATION",
        "param": [
          "[3_340800418:4469.092,121.300,4665.998,0.000,127.427,0.000]"
        ],
        "guideScene": 3,
        "guideStyle": "QUEST_GUIDE_STYLE_POINT",
        "guideLayer": "QUEST_GUIDE_LAYER_SCENE"
      },
      "guideHint": {
        "param1": ""
      },
      "isRewind": true,
      "versionBegin": "",
      "versionEnd": ""
    },
    {
      "subId": 7416606,
      "mainId": 74166,
      "order": 6,
      "descTextMapHash": 243807852,
      "finishCond": [
        {
          "KPGKDHAFHFE": "QUEST_CONTENT_COMPLETE_TALK",
          "param": [
            7416606,
            0
          ]
        }
      ],
      "guide": {
        "KPGKDHAFHFE": "QUEST_GUIDE_LOCATION",
        "param": [
          "[3_340800419:4434.701,121.600,4682.880,0.000,169.255,0.000]"
        ],
        "guideScene": 3,
        "guideStyle": "QUEST_GUIDE_STYLE_POINT",
        "guideLayer": "QUEST_GUIDE_LAYER_SCENE"
      },
      "guideHint": {
        "param1": ""
      },
      "isRewind": true,
      "versionBegin": "",
      "versionEnd": ""
    },
    {
      "subId": 7416607,
      "mainId": 74166,
      "order": 7,
      "descTextMapHash": 798719764,
      "finishCond": [
        {
          "KPGKDHAFHFE": "QUEST_CONTENT_COMPLETE_TALK",
          "param": [
            7416607,
            0
          ]
        }
      ],
      "guide": {
        "KPGKDHAFHFE": "QUEST_GUIDE_LOCATION",
        "param": [
          "[3_340800229:4397.292,125.517,4661.997,0.000,122.997,0.000]"
        ],
        "guideScene": 3,
        "guideStyle": "QUEST_GUIDE_STYLE_POINT",
        "guideLayer": "QUEST_GUIDE_LAYER_SCENE"
      },
      "guideHint": {
        "param1": ""
      },
      "finishParent": true,
      "isRewind": true,
      "versionBegin": "",
      "versionEnd": ""
    }
  ],
  "talks": [
    {
      "id": 7416602,
      "beginWay": "TALK_BEGIN_MANUAL",
      "beginCond": [
        {
          "type": "QUEST_COND_STATE_EQUAL",
          "_param": [
            "7416602",
            "2"
          ]
        }
      ],
      "priority": 5,
      "initDialog": 741660201,
      "npcId": [
        13791
      ],
      "performCfg": "QuestDialogue/WQ/Fontaine_74166/Q7416602",
      "questId": 74166,
      "assetIndex": 13408881406121580695,
      "prePerformCfg": "",
      "talkMarkType": "TALK_MARK_COMMON",
      "PLPFOOINAAJ": [
        "[3_340800238:4459.944,121.680,4555.897,0.000,173.486,0.000]",
        "[3_6678:4460.411,121.680,4554.587,0.000,348.393,0.000]",
        "[3_6679:4459.697,121.680,4554.477,0.000,3.539,0.000]"
      ]
    },
    {
      "id": 7416603,
      "beginWay": "TALK_BEGIN_MANUAL",
      "beginCond": [
        {
          "type": "QUEST_COND_STATE_EQUAL",
          "_param": [
            "7416603",
            "2"
          ]
        }
      ],
      "priority": 5,
      "initDialog": 741660301,
      "npcId": [
        13791
      ],
      "performCfg": "QuestDialogue/WQ/Fontaine_74166/Q7416603",
      "questId": 74166,
      "assetIndex": 10731042356486350731,
      "prePerformCfg": "",
      "PLPFOOINAAJ": [
        "[3_340800416:4453.599,121.865,4564.737,0.000,79.179,0.000]",
        "[3_6680:4455.122,121.865,4565.365,0.000,252.812,0.000]",
        "[3_6681:4455.230,121.865,4564.638,0.000,274.863,0.000]"
      ]
    },
    {
      "id": 7416604,
      "beginWay": "TALK_BEGIN_MANUAL",
      "beginCond": [
        {
          "type": "QUEST_COND_STATE_EQUAL",
          "_param": [
            "7416604",
            "2"
          ]
        }
      ],
      "priority": 5,
      "initDialog": 741660401,
      "npcId": [
        13650
      ],
      "performCfg": "QuestDialogue/WQ/Fontaine_74166/Q7416604",
      "questId": 74166,
      "assetIndex": 12503200258816197531,
      "prePerformCfg": "",
      "PLPFOOINAAJ": [
        "[3_340800417:4482.252,121.300,4605.498,0.000,215.344,0.000]",
        "[3_6682:4481.619,121.300,4603.887,0.000,25.722,0.000]",
        "[3_6683:4480.828,121.300,4604.346,0.000,44.720,0.000]"
      ]
    },
    {
      "id": 7416605,
      "beginWay": "TALK_BEGIN_MANUAL",
      "beginCond": [
        {
          "type": "QUEST_COND_STATE_EQUAL",
          "_param": [
            "7416605",
            "2"
          ]
        }
      ],
      "priority": 5,
      "initDialog": 741660501,
      "npcId": [
        13650
      ],
      "performCfg": "QuestDialogue/WQ/Fontaine_74166/Q7416605",
      "questId": 74166,
      "assetIndex": 13218512309660004501,
      "prePerformCfg": "",
      "PLPFOOINAAJ": [
        "[3_340800418:4469.092,121.300,4665.998,0.000,127.427,0.000]",
        "[3_6684:4469.990,121.300,4664.967,0.000,312.339,0.000]",
        "[3_6685:4470.438,121.300,4665.589,0.000,294.319,0.000]"
      ]
    },
    {
      "id": 7416606,
      "beginWay": "TALK_BEGIN_MANUAL",
      "beginCond": [
        {
          "type": "QUEST_COND_STATE_EQUAL",
          "_param": [
            "7416606",
            "2"
          ]
        }
      ],
      "priority": 5,
      "initDialog": 741660601,
      "npcId": [
        13650
      ],
      "performCfg": "QuestDialogue/WQ/Fontaine_74166/Q7416606",
      "questId": 74166,
      "assetIndex": 3975109875369716735,
      "prePerformCfg": "",
      "PLPFOOINAAJ": [
        "[3_340800419:4434.701,121.600,4682.880,0.000,169.255,0.000]",
        "[3_6686:4434.608,121.600,4681.365]",
        "[3_6687:4435.500,121.600,4681.602,0.000,336.490,0.000]"
      ]
    },
    {
      "id": 7416607,
      "beginWay": "TALK_BEGIN_MANUAL",
      "beginCond": [
        {
          "type": "QUEST_COND_STATE_EQUAL",
          "_param": [
            "7416607",
            "2"
          ]
        }
      ],
      "priority": 5,
      "initDialog": 741660701,
      "npcId": [
        13650
      ],
      "performCfg": "QuestDialogue/WQ/Fontaine_74166/Q7416607",
      "questId": 74166,
      "assetIndex": 7695147745245701215,
      "prePerformCfg": "",
      "PLPFOOINAAJ": [
        "[3_340800229:4397.292,125.517,4661.997,0.000,122.997,0.000]",
        "[3_6688:4398.217,125.517,4661.171,0.000,309.702,0.000]",
        "[3_6689:4398.624,125.517,4661.752,0.000,289.760,0.000]",
        "[3_6690:4396.553,125.517,4660.680,0.000,29.970,0.000]"
      ]
    }
  ],
  "preloadLuaList": [
    17130195903302788101,
    15535831638734930039
  ],
  "forcePreloadLuaList": [
    4894631183511735413
  ]
}