{
  "id": 74181,
  "KPGKDHAFHFE": "WQ",
  "activeMode": "PLAY_MODE_ALL",
  "titleTextMapHash": 1719886455,
  "descTextMapHash": 1992540574,
  "luaPath": "Actor/Quest/WQ74181",
  "showType": "QUEST_HIDDEN",
  "subQuests": [
    {
      "subId": 7418101,
      "mainId": 74181,
      "order": 1,
      "showType": "QUEST_HIDDEN",
      "finishCond": [
        {
          "KPGKDHAFHFE": "QUEST_CONTENT_GAME_TIME_TICK",
          "param": [
            1,
            0
          ]
        }
      ],
      "guide": {},
      "guideHint": {
        "param1": ""
      },
      "isRewind": true,
      "finishExec": [
        {
          "KPGKDHAFHFE": "QUEST_EXEC_NOTIFY_GROUP_LUA",
          "param": [
            "3",
            "133402426"
          ]
        },
        {
          "KPGKDHAFHFE": "QUEST_EXEC_NOTIFY_GROUP_LUA",
          "param": [
            "3",
            "133402666"
          ]
        }
      ],
      "versionBegin": "",
      "versionEnd": ""
    },
    {
      "subId": 7418102,
      "mainId": 74181,
      "order": 2,
      "showType": "QUEST_HIDDEN",
      "finishCond": [
        {
          "KPGKDHAFHFE": "QUEST_CONTENT_COMPLETE_TALK",
          "param": [
            7418101,
            0
          ]
        }
      ],
      "guide": {},
      "guideHint": {
        "param1": ""
      },
      "finishParent": true,
      "isRewind": true,
      "versionBegin": "",
      "versionEnd": ""
    }
  ],
  "talks": [
    {
      "id": 7418101,
      "beginWay": "TALK_BEGIN_AUTO",
      "activeMode": "PLAY_MODE_HOST",
      "beginCond": [
        {
          "type": "QUEST_COND_STATE_EQUAL",
          "_param": [
            "7418102",
            "2"
          ]
        }
      ],
      "priority": 5,
      "initDialog": 741810101,
      "npcId": [
        21284,
        1005
      ],
      "performCfg": "QuestDialogue/WQ/Fontaine_74181/Q7418101",
      "heroTalk": "TALK_HERO_MAIN",
      "questId": 74181,
      "assetIndex": 7129606146500988411,
      "prePerformCfg": ""
    },
    {
      "id": 7418102,
      "beginWay": "TALK_BEGIN_MANUAL",
      "activeMode": "PLAY_MODE_HOST",
      "beginCond": [
        {
          "type": "QUEST_COND_STATE_EQUAL",
          "_param": [
            "7418101",
            "3"
          ]
        }
      ],
      "priority": 5,
      "initDialog": 741810201,
      "npcId": [
        21330
      ],
      "performCfg": "",
      "heroTalk": "TALK_HERO_MAIN",
      "questId": 74181,
      "assetIndex": 7025968354988595356,
      "prePerformCfg": "",
      "questIdleTalk": true
    }
  ],
  "DDHNEIEDLJA": true
}