{
  "id": 74216,
  "KPGKDHAFHFE": "WQ",
  "activeMode": "PLAY_MODE_ALL",
  "titleTextMapHash": 2516937383,
  "descTextMapHash": 409270606,
  "luaPath": "Actor/Quest/WQ74216",
  "rewardIdList": [
    174216
  ],
  "subQuests": [
    {
      "subId": 7421601,
      "mainId": 74216,
      "order": 3,
      "descTextMapHash": 3226108260,
      "showType": "QUEST_HIDDEN",
      "finishCond": [
        {
          "KPGKDHAFHFE": "QUEST_CONTENT_COMPLETE_TALK",
          "param": [
            7421602,
            0
          ]
        },
        {
          "KPGKDHAFHFE": "QUEST_CONTENT_COMPLETE_TALK",
          "param": [
            7421604,
            0
          ]
        }
      ],
      "guide": {
        "guideScene": 3,
        "guideStyle": "QUEST_GUIDE_STYLE_START",
        "guideLayer": "QUEST_GUIDE_LAYER_SCENE"
      },
      "showGuide": "QUEST_GUIDE_ITEM_DISABLE",
      "guideHint": {
        "param1": ""
      },
      "failParentShow": "QUEST_HIDDEN",
      "JPAAAIKKJNG": "QUEST_HIDDEN",
      "isRewind": true,
      "versionBegin": "",
      "versionEnd": ""
    },
    {
      "subId": 7421602,
      "mainId": 74216,
      "order": 5,
      "descTextMapHash": 3235294828,
      "showType": "QUEST_HIDDEN",
      "finishCond": [
        {
          "KPGKDHAFHFE": "QUEST_CONTENT_COMPLETE_TALK",
          "param": [
            7421608,
            0
          ]
        },
        {
          "KPGKDHAFHFE": "QUEST_CONTENT_COMPLETE_TALK",
          "param": [
            7421609,
            0
          ]
        },
        {
          "KPGKDHAFHFE": "QUEST_CONTENT_COMPLETE_TALK",
          "param": [
            7421607,
            0
          ]
        }
      ],
      "guide": {
        "guideScene": 3,
        "guideStyle": "QUEST_GUIDE_STYLE_POINT",
        "guideLayer": "QUEST_GUIDE_LAYER_SCENE"
      },
      "showGuide": "QUEST_GUIDE_ITEM_DISABLE",
      "guideHint": {
        "param1": ""
      },
      "failParentShow": "QUEST_HIDDEN",
      "JPAAAIKKJNG": "QUEST_HIDDEN",
      "isRewind": true,
      "versionBegin": "",
      "versionEnd": ""
    },
    {
      "subId": 7421603,
      "mainId": 74216,
      "order": 6,
      "descTextMapHash": 4077525844,
      "finishCond": [
        {
          "KPGKDHAFHFE": "QUEST_CONTENT_COMPLETE_TALK",
          "param": [
            7421608,
            0
          ]
        },
        {
          "KPGKDHAFHFE": "QUEST_CONTENT_COMPLETE_TALK",
          "param": [
            7421611,
            0
          ]
        }
      ],
      "guide": {
        "KPGKDHAFHFE": "QUEST_GUIDE_NPC",
        "autoGuide": "QUEST_GUIDE_AUTO_ENABLE",
        "param": [
          "5338"
        ],
        "guideScene": 3,
        "guideStyle": "QUEST_GUIDE_STYLE_TARGET",
        "guideLayer": "QUEST_GUIDE_LAYER_SCENE"
      },
      "guideHint": {
        "param1": ""
      },
      "isRewind": true,
      "versionBegin": "",
      "versionEnd": ""
    },
    {
      "subId": 7421604,
      "mainId": 74216,
      "order": 7,
      "descTextMapHash": 3122735092,
      "finishCond": [
        {
          "KPGKDHAFHFE": "QUEST_CONTENT_COMPLETE_TALK",
          "param": [
            7421620,
            0
          ]
        }
      ],
      "guide": {
        "KPGKDHAFHFE": "QUEST_GUIDE_LOCATION",
        "param": [
          "[3_8005:1233.526,280.631,4449.629,0.000,29.847,0.000]"
        ],
        "guideScene": 3,
        "guideStyle": "QUEST_GUIDE_STYLE_POINT",
        "guideLayer": "QUEST_GUIDE_LAYER_SCENE"
      },
      "guideHint": {
        "param1": ""
      },
      "isRewind": true,
      "versionBegin": "",
      "versionEnd": ""
    },
    {
      "subId": 7421605,
      "mainId": 74216,
      "order": 8,
      "descTextMapHash": 3135396436,
      "finishCond": [
        {
          "KPGKDHAFHFE": "QUEST_CONTENT_COMPLETE_TALK",
          "param": [
            7421616,
            0
          ]
        }
      ],
      "guide": {
        "KPGKDHAFHFE": "QUEST_GUIDE_LOCATION",
        "autoGuide": "QUEST_GUIDE_AUTO_ENABLE",
        "param": [
          "[3_7683:1201.652,291.400,4387.212]",
          "20"
        ],
        "guideScene": 3,
        "guideStyle": "QUEST_GUIDE_STYLE_POINT",
        "guideLayer": "QUEST_GUIDE_LAYER_SCENE"
      },
      "guideHint": {
        "param1": ""
      },
      "isRewind": true,
      "versionBegin": "",
      "versionEnd": ""
    },
    {
      "subId": 7421606,
      "mainId": 74216,
      "order": 9,
      "descTextMapHash": 3019986052,
      "finishCond": [
        {
          "KPGKDHAFHFE": "QUEST_CONTENT_FINISH_PLOT",
          "param": [
            7421606,
            0
          ]
        }
      ],
      "guide": {
        "KPGKDHAFHFE": "QUEST_GUIDE_LOCATION",
        "param": [
          "[3_8006:1079.434,280.694,4354.530,0.000,252.406,0.000]",
          "30"
        ],
        "guideScene": 3,
        "guideStyle": "QUEST_GUIDE_STYLE_POINT",
        "guideLayer": "QUEST_GUIDE_LAYER_SCENE"
      },
      "guideHint": {
        "param1": ""
      },
      "isRewind": true,
      "versionBegin": "",
      "versionEnd": ""
    },
    {
      "subId": 7421607,
      "mainId": 74216,
      "order": 10,
      "descTextMapHash": 1722803468,
      "finishCond": [
        {
          "KPGKDHAFHFE": "QUEST_CONTENT_COMPLETE_TALK",
          "param": [
            7421617,
            0
          ]
        }
      ],
      "guide": {
        "KPGKDHAFHFE": "QUEST_GUIDE_LOCATION",
        "param": [
          "[3_8006:1079.434,280.694,4354.530,0.000,252.406,0.000]"
        ],
        "guideScene": 3,
        "guideStyle": "QUEST_GUIDE_STYLE_TARGET",
        "guideLayer": "QUEST_GUIDE_LAYER_SCENE"
      },
      "guideHint": {
        "param1": ""
      },
      "isRewind": true,
      "versionBegin": "",
      "versionEnd": ""
    },
    {
      "subId": 7421608,
      "mainId": 74216,
      "order": 11,
      "descTextMapHash": 3843668068,
      "finishCond": [
        {
          "KPGKDHAFHFE": "QUEST_CONTENT_LUA_NOTIFY",
          "param": [
            0,
            0
          ],
          "count": 1
        }
      ],
      "guide": {
        "KPGKDHAFHFE": "QUEST_GUIDE_LOCATION",
        "autoGuide": "QUEST_GUIDE_AUTO_ENABLE",
        "param": [
          "[3_8006:1079.434,280.694,4354.530,0.000,252.406,0.000]",
          "10"
        ],
        "guideScene": 3,
        "guideStyle": "QUEST_GUIDE_STYLE_POINT"
      },
      "guideHint": {
        "param1": ""
      },
      "isRewind": true,
      "versionBegin": "",
      "versionEnd": ""
    },
    {
      "subId": 7421609,
      "mainId": 74216,
      "order": 12,
      "descTextMapHash": 1899154676,
      "finishCond": [
        {
          "KPGKDHAFHFE": "QUEST_CONTENT_COMPLETE_TALK",
          "param": [
            7421618,
            0
          ]
        }
      ],
      "guide": {
        "KPGKDHAFHFE": "QUEST_GUIDE_NPC",
        "param": [
          "21408"
        ],
        "guideScene": 3,
        "guideStyle": "QUEST_GUIDE_STYLE_TARGET",
        "guideLayer": "QUEST_GUIDE_LAYER_SCENE"
      },
      "guideHint": {
        "param1": ""
      },
      "isRewind": true,
      "versionBegin": "",
      "versionEnd": ""
    },
    {
      "subId": 7421610,
      "mainId": 74216,
      "order": 13,
      "descTextMapHash": 2905961900,
      "finishCond": [
        {
          "KPGKDHAFHFE": "QUEST_CONTENT_COMPLETE_TALK",
          "param": [
            7421619,
            0
          ]
        }
      ],
      "guide": {
        "KPGKDHAFHFE": "QUEST_GUIDE_LOCATION",
        "autoGuide": "QUEST_GUIDE_AUTO_ENABLE",
        "param": [
          "[3_8010:1221.676,288.090,4397.833]",
          "10"
        ],
        "guideScene": 3,
        "guideStyle": "QUEST_GUIDE_STYLE_POINT",
        "guideLayer": "QUEST_GUIDE_LAYER_SCENE"
      },
      "guideHint": {
        "param1": ""
      },
      "finishParent": true,
      "isRewind": true,
      "finishExec": [
        {
          "KPGKDHAFHFE": "QUEST_EXEC_UNREGISTER_DYNAMIC_GROUP",
          "param": [
            "133405080",
            "0"
          ]
        },
        {
          "KPGKDHAFHFE": "QUEST_EXEC_SET_QUEST_GLOBAL_VAR",
          "param": [
            "7421604",
            "1"
          ]
        },
        {
          "KPGKDHAFHFE": "QUEST_EXEC_UNREGISTER_DYNAMIC_GROUP",
          "param": [
            "133405078",
            "0"
          ]
        }
      ],
      "versionBegin": "",
      "versionEnd": ""
    },
    {
      "subId": 7421611,
      "mainId": 74216,
      "order": 2,
      "descTextMapHash": 752186796,
      "showType": "QUEST_HIDDEN",
      "finishCond": [
        {
          "KPGKDHAFHFE": "QUEST_CONTENT_TIME_VAR_PASS_DAY",
          "param": [
            74216,
            0
          ]
        }
      ],
      "guide": {},
      "guideHint": {
        "param1": ""
      },
      "failParentShow": "QUEST_HIDDEN",
      "JPAAAIKKJNG": "QUEST_HIDDEN",
      "isRewind": true,
      "finishExec": [
        {
          "KPGKDHAFHFE": "QUEST_EXEC_CLEAR_TIME_VAR",
          "param": [
            "74216",
            "0"
          ]
        }
      ],
      "versionBegin": "",
      "versionEnd": ""
    },
    {
      "subId": 7421612,
      "mainId": 74216,
      "order": 1,
      "descTextMapHash": 2965489268,
      "showType": "QUEST_HIDDEN",
      "finishCond": [
        {
          "KPGKDHAFHFE": "QUEST_CONTENT_QUEST_GLOBAL_VAR_EQUAL",
          "param": [
            7419601,
            1
          ]
        }
      ],
      "guide": {},
      "showGuide": "QUEST_GUIDE_ITEM_DISABLE",
      "guideHint": {
        "param1": ""
      },
      "failParentShow": "QUEST_HIDDEN",
      "JPAAAIKKJNG": "QUEST_HIDDEN",
      "isRewind": true,
      "finishExec": [
        {
          "KPGKDHAFHFE": "QUEST_EXEC_INIT_TIME_VAR",
          "param": [
            "0"
          ]
        }
      ],
      "versionBegin": "",
      "versionEnd": ""
    },
    {
      "subId": 7421613,
      "mainId": 74216,
      "order": 4,
      "descTextMapHash": 2642515532,
      "showType": "QUEST_HIDDEN",
      "finishCond": [
        {
          "KPGKDHAFHFE": "QUEST_CONTENT_FINISH_PLOT",
          "param": [
            7421613,
            0
          ]
        }
      ],
      "guide": {},
      "showGuide": "QUEST_GUIDE_ITEM_DISABLE",
      "guideHint": {
        "param1": ""
      },
      "failParentShow": "QUEST_HIDDEN",
      "JPAAAIKKJNG": "QUEST_HIDDEN",
      "versionBegin": "",
      "versionEnd": ""
    }
  ],
  "talks": [
    {
      "id": 7421601,
      "beginWay": "TALK_BEGIN_MANUAL",
      "activeMode": "PLAY_MODE_HOST",
      "beginCondComb": "LOGIC_AND",
      "beginCond": [
        {
          "type": "QUEST_COND_STATE_EQUAL",
          "_param": [
            "7421601",
            "2"
          ]
        },
        {
          "type": "QUEST_COND_QUEST_GLOBAL_VAR_EQUAL",
          "_param": [
            "7421601",
            "0"
          ]
        }
      ],
      "priority": 5,
      "nextTalks": [
        7421602,
        7421603
      ],
      "initDialog": 742160101,
      "npcId": [
        21484
      ],
      "performCfg": "QuestDialogue/WQ/Fontaine_74216/Q7421601",
      "heroTalk": "TALK_HERO_MAIN",
      "questId": 74216,
      "assetIndex": 17436851272397490708,
      "prePerformCfg": "",
      "talkMarkType": "TALK_MARK_COMMON",
      "finishExec": [
        {
          "KPGKDHAFHFE": "TALK_EXEC_SET_QUEST_GLOBAL_VAR",
          "param": [
            "7421601",
            "1"
          ]
        },
        {
          "KPGKDHAFHFE": "TALK_EXEC_SET_QUEST_GLOBAL_VAR",
          "param": [
            "7421602",
            "1"
          ]
        }
      ],
      "PLPFOOINAAJ": [
        "[3_8001:1232.530,280.426,4466.810,0.000,317.434,0.000]",
        "[3_8111:1231.628,280.380,4467.962,0.000,149.943,0.000]"
      ]
    },
    {
      "id": 7421602,
      "activeMode": "PLAY_MODE_HOST",
      "beginCondComb": "LOGIC_AND",
      "beginCond": [
        {
          "type": "QUEST_COND_QUEST_GLOBAL_VAR_EQUAL",
          "_param": [
            "7419601",
            "1"
          ]
        },
        {
          "type": "QUEST_COND_STATE_EQUAL",
          "_param": [
            "7421601",
            "2"
          ]
        },
        {
          "type": "QUEST_COND_QUEST_GLOBAL_VAR_EQUAL",
          "_param": [
            "7421601",
            "1"
          ]
        }
      ],
      "priority": 4,
      "initDialog": 742160201,
      "npcId": [
        21484
      ],
      "performCfg": "QuestDialogue/WQ/Fontaine_74216/Q7421602",
      "heroTalk": "TALK_HERO_MAIN",
      "questId": 74216,
      "assetIndex": 229264669015347772,
      "prePerformCfg": ""
    },
    {
      "id": 7421603,
      "activeMode": "PLAY_MODE_HOST",
      "beginCondComb": "LOGIC_AND",
      "beginCond": [
        {
          "type": "QUEST_COND_QUEST_GLOBAL_VAR_EQUAL",
          "_param": [
            "7419601",
            "1"
          ]
        },
        {
          "type": "QUEST_COND_STATE_EQUAL",
          "_param": [
            "7421601",
            "2"
          ]
        },
        {
          "type": "QUEST_COND_QUEST_GLOBAL_VAR_EQUAL",
          "_param": [
            "7421601",
            "1"
          ]
        }
      ],
      "priority": 4,
      "initDialog": 742160301,
      "npcId": [
        21484
      ],
      "performCfg": "QuestDialogue/WQ/Fontaine_74216/Q7421603",
      "heroTalk": "TALK_HERO_MAIN",
      "questId": 74216,
      "assetIndex": 3329377446190945702,
      "prePerformCfg": "",
      "PLPFOOINAAJ": [
        "[3_8111:1231.628,280.380,4467.962,0.000,149.943,0.000]"
      ]
    },
    {
      "id": 7421604,
      "activeMode": "PLAY_MODE_HOST",
      "beginCondComb": "LOGIC_AND",
      "beginCond": [
        {
          "type": "QUEST_COND_QUEST_GLOBAL_VAR_EQUAL",
          "_param": [
            "7421601",
            "1"
          ]
        },
        {
          "type": "QUEST_COND_QUEST_GLOBAL_VAR_EQUAL",
          "_param": [
            "7419601",
            "1"
          ]
        },
        {
          "type": "QUEST_COND_STATE_EQUAL",
          "_param": [
            "7421601",
            "2"
          ]
        }
      ],
      "priority": 4,
      "initDialog": 742160401,
      "npcId": [
        21484
      ],
      "performCfg": "",
      "heroTalk": "TALK_HERO_MAIN",
      "questId": 74216,
      "assetIndex": 14866077212889039646,
      "prePerformCfg": "",
      "talkMarkType": "TALK_MARK_COMMON"
    },
    {
      "id": 7421605,
      "activeMode": "PLAY_MODE_HOST",
      "beginCondComb": "LOGIC_AND",
      "beginCond": [
        {
          "type": "QUEST_COND_QUEST_GLOBAL_VAR_EQUAL",
          "_param": [
            "7421601",
            "1"
          ]
        },
        {
          "type": "QUEST_COND_QUEST_GLOBAL_VAR_EQUAL",
          "_param": [
            "7419601",
            "1"
          ]
        },
        {
          "type": "QUEST_COND_STATE_EQUAL",
          "_param": [
            "7421601",
            "2"
          ]
        }
      ],
      "priority": 4,
      "initDialog": 742160501,
      "npcId": [
        21484
      ],
      "performCfg": "",
      "heroTalk": "TALK_HERO_MAIN",
      "questId": 74216,
      "assetIndex": 12811162464500486958,
      "prePerformCfg": ""
    },
    {
      "id": 7421606,
      "beginWay": "TALK_BEGIN_MANUAL",
      "activeMode": "PLAY_MODE_HOST",
      "beginCondComb": "LOGIC_AND",
      "beginCond": [
        {
          "type": "QUEST_COND_QUEST_GLOBAL_VAR_EQUAL",
          "_param": [
            "7421601",
            "1"
          ]
        },
        {
          "type": "QUEST_COND_QUEST_GLOBAL_VAR_EQUAL",
          "_param": [
            "7419601",
            "1"
          ]
        },
        {
          "type": "QUEST_COND_STATE_EQUAL",
          "_param": [
            "7421601",
            "2"
          ]
        }
      ],
      "priority": 5,
      "nextTalks": [
        7421604,
        7421605
      ],
      "initDialog": 742160601,
      "npcId": [
        21484
      ],
      "performCfg": "",
      "heroTalk": "TALK_HERO_MAIN",
      "questId": 74216,
      "assetIndex": 7582586371889966960,
      "prePerformCfg": "",
      "talkMarkType": "TALK_MARK_COMMON"
    },
    {
      "id": 7421607,
      "beginWay": "TALK_BEGIN_MANUAL",
      "activeMode": "PLAY_MODE_HOST",
      "beginCondComb": "LOGIC_AND",
      "beginCond": [
        {
          "type": "QUEST_COND_STATE_EQUAL",
          "_param": [
            "7421603",
            "2"
          ]
        },
        {
          "type": "QUEST_COND_QUEST_GLOBAL_VAR_EQUAL",
          "_param": [
            "7421603",
            "0"
          ]
        }
      ],
      "priority": 5,
      "nextTalks": [
        7421608,
        7421609
      ],
      "initDialog": 742160701,
      "npcId": [
        21484,
        5338,
        21408
      ],
      "performCfg": "QuestDialogue/WQ/Fontaine_74216/Q7421607",
      "heroTalk": "TALK_HERO_MAIN",
      "questId": 74216,
      "assetIndex": 7381855258270043959,
      "prePerformCfg": "",
      "finishExec": [
        {
          "KPGKDHAFHFE": "TALK_EXEC_SET_QUEST_GLOBAL_VAR",
          "param": [
            "7421603",
            "1"
          ]
        }
      ],
      "PLPFOOINAAJ": [
        "[3_7744:426.613,281.815,3256.301,0.000,135.212,0.000]",
        "[3_8002:428.351,281.752,3254.667,0.000,317.110,0.000]",
        "[3_8003:420.666,281.802,3259.978,0.000,50.231,0.000]",
        "[3_8004:427.194,281.804,3260.348,0.000,200.398,0.000]"
      ]
    },
    {
      "id": 7421608,
      "activeMode": "PLAY_MODE_HOST",
      "beginCondComb": "LOGIC_AND",
      "beginCond": [
        {
          "type": "QUEST_COND_STATE_EQUAL",
          "_param": [
            "7421603",
            "2"
          ]
        },
        {
          "type": "QUEST_COND_QUEST_GLOBAL_VAR_EQUAL",
          "_param": [
            "7421603",
            "1"
          ]
        }
      ],
      "priority": 4,
      "initDialog": 742160801,
      "npcId": [
        5338
      ],
      "performCfg": "QuestDialogue/WQ/Fontaine_74216/Q7421608",
      "heroTalk": "TALK_HERO_MAIN",
      "questId": 74216,
      "assetIndex": 3134798808945555846,
      "prePerformCfg": "",
      "PLPFOOINAAJ": [
        "[3_7744:426.613,281.815,3256.301,0.000,135.212,0.000]"
      ]
    },
    {
      "id": 7421609,
      "activeMode": "PLAY_MODE_HOST",
      "beginCondComb": "LOGIC_AND",
      "beginCond": [
        {
          "type": "QUEST_COND_STATE_EQUAL",
          "_param": [
            "7421603",
            "2"
          ]
        },
        {
          "type": "QUEST_COND_QUEST_GLOBAL_VAR_EQUAL",
          "_param": [
            "7421603",
            "1"
          ]
        }
      ],
      "priority": 4,
      "initDialog": 742160901,
      "npcId": [
        5338
      ],
      "performCfg": "QuestDialogue/WQ/Fontaine_74216/Q7421609",
      "heroTalk": "TALK_HERO_MAIN",
      "questId": 74216,
      "assetIndex": 12091258206277905440,
      "prePerformCfg": "",
      "PLPFOOINAAJ": [
        "[3_7744:426.613,281.815,3256.301,0.000,135.212,0.000]"
      ]
    },
    {
      "id": 7421610,
      "beginWay": "TALK_BEGIN_MANUAL",
      "activeMode": "PLAY_MODE_HOST",
      "beginCondComb": "LOGIC_AND",
      "beginCond": [
        {
          "type": "QUEST_COND_STATE_EQUAL",
          "_param": [
            "7421603",
            "2"
          ]
        },
        {
          "type": "QUEST_COND_QUEST_GLOBAL_VAR_EQUAL",
          "_param": [
            "7421603",
            "1"
          ]
        }
      ],
      "priority": 5,
      "nextTalks": [
        7421611,
        7421612
      ],
      "initDialog": 742161001,
      "npcId": [
        5338
      ],
      "performCfg": "",
      "heroTalk": "TALK_HERO_MAIN",
      "questId": 74216,
      "assetIndex": 16605721829618920274,
      "prePerformCfg": ""
    },
    {
      "id": 7421611,
      "activeMode": "PLAY_MODE_HOST",
      "beginCondComb": "LOGIC_AND",
      "beginCond": [
        {
          "type": "QUEST_COND_STATE_EQUAL",
          "_param": [
            "7421603",
            "2"
          ]
        },
        {
          "type": "QUEST_COND_QUEST_GLOBAL_VAR_EQUAL",
          "_param": [
            "7421603",
            "1"
          ]
        }
      ],
      "priority": 4,
      "initDialog": 742161110,
      "npcId": [
        5338
      ],
      "performCfg": "",
      "heroTalk": "TALK_HERO_MAIN",
      "questId": 74216,
      "assetIndex": 10294375222898757164,
      "prePerformCfg": ""
    },
    {
      "id": 7421612,
      "activeMode": "PLAY_MODE_HOST",
      "beginCondComb": "LOGIC_AND",
      "beginCond": [
        {
          "type": "QUEST_COND_STATE_EQUAL",
          "_param": [
            "7421603",
            "2"
          ]
        },
        {
          "type": "QUEST_COND_QUEST_GLOBAL_VAR_EQUAL",
          "_param": [
            "7421603",
            "1"
          ]
        }
      ],
      "priority": 4,
      "initDialog": 742161211,
      "npcId": [
        5338
      ],
      "performCfg": "",
      "heroTalk": "TALK_HERO_MAIN",
      "questId": 74216,
      "assetIndex": 17620526876128378564,
      "prePerformCfg": ""
    },
    {
      "id": 7421614,
      "beginWay": "TALK_BEGIN_MANUAL",
      "activeMode": "PLAY_MODE_HOST",
      "beginCond": [
        {
          "type": "QUEST_COND_STATE_EQUAL",
          "_param": [
            "7421605",
            "2"
          ]
        }
      ],
      "priority": 5,
      "initDialog": 742161403,
      "npcId": [
        5347
      ],
      "performCfg": "QuestDialogue/WQ/Fontaine_74216/Q7421614",
      "heroTalk": "TALK_HERO_MAIN",
      "questId": 74216,
      "assetIndex": 8350140656671468424,
      "prePerformCfg": "",
      "freeStyleList": [
        9000
      ]
    },
    {
      "id": 7421615,
      "beginWay": "TALK_BEGIN_MANUAL",
      "activeMode": "PLAY_MODE_HOST",
      "beginCond": [
        {
          "type": "QUEST_COND_STATE_EQUAL",
          "_param": [
            "7421605",
            "2"
          ]
        }
      ],
      "priority": 5,
      "initDialog": 742161503,
      "npcId": [
        5351
      ],
      "performCfg": "QuestDialogue/WQ/Fontaine_74216/Q7421615",
      "heroTalk": "TALK_HERO_MAIN",
      "questId": 74216,
      "assetIndex": 3577708759610621715,
      "prePerformCfg": "",
      "freeStyleList": [
        9000
      ]
    },
    {
      "id": 7421616,
      "beginWay": "TALK_BEGIN_MANUAL",
      "activeMode": "PLAY_MODE_HOST",
      "beginCond": [
        {
          "type": "QUEST_COND_STATE_EQUAL",
          "_param": [
            "7421605",
            "2"
          ]
        }
      ],
      "priority": 5,
      "initDialog": 742161603,
      "npcId": [
        5337
      ],
      "performCfg": "QuestDialogue/WQ/Fontaine_74216/Q7421616",
      "heroTalk": "TALK_HERO_MAIN",
      "questId": 74216,
      "assetIndex": 14078819806264999820,
      "prePerformCfg": "",
      "freeStyleList": [
        9000
      ]
    },
    {
      "id": 7421617,
      "beginWay": "TALK_BEGIN_MANUAL",
      "activeMode": "PLAY_MODE_HOST",
      "beginCond": [
        {
          "type": "QUEST_COND_STATE_EQUAL",
          "_param": [
            "7421607",
            "2"
          ]
        }
      ],
      "priority": 5,
      "initDialog": 742161703,
      "npcId": [
        21408,
        5337,
        5338
      ],
      "performCfg": "QuestDialogue/WQ/Fontaine_74216/Q7421617",
      "heroTalk": "TALK_HERO_MAIN",
      "questId": 74216,
      "assetIndex": 2825143989364304716,
      "prePerformCfg": "",
      "PLPFOOINAAJ": [
        "[3_7577:1087.190,280.171,4359.624,0.960,242.336,359.990]",
        "[3_8006:1079.434,280.694,4354.530,0.000,252.406,0.000]",
        "[3_8007:1076.946,280.609,4353.220,0.000,90.821,0.000]",
        "[3_8008:1086.261,280.461,4357.555,0.000,247.034,0.000]"
      ]
    },
    {
      "id": 7421618,
      "beginWay": "TALK_BEGIN_MANUAL",
      "activeMode": "PLAY_MODE_HOST",
      "beginCond": [
        {
          "type": "QUEST_COND_STATE_EQUAL",
          "_param": [
            "7421609",
            "2"
          ]
        }
      ],
      "priority": 5,
      "initDialog": 742161802,
      "npcId": [
        21408,
        5338,
        5337
      ],
      "performCfg": "QuestDialogue/WQ/Fontaine_74216/Q7421618",
      "heroTalk": "TALK_HERO_MAIN",
      "questId": 74216,
      "assetIndex": 8497568550420651728,
      "prePerformCfg": "",
      "PLPFOOINAAJ": [
        "[3_7568:1079.057,280.924,4352.453,0.694,327.931,359.814]",
        "[3_8006:1079.434,280.694,4354.530,0.000,252.406,0.000]",
        "[3_8007:1076.946,280.609,4353.220,0.000,90.821,0.000]",
        "[3_8009:1077.764,280.561,4354.571,354.039,146.948,359.696]"
      ]
    },
    {
      "id": 7421619,
      "beginWay": "TALK_BEGIN_MANUAL",
      "activeMode": "PLAY_MODE_HOST",
      "beginCond": [
        {
          "type": "QUEST_COND_STATE_EQUAL",
          "_param": [
            "7421610",
            "2"
          ]
        }
      ],
      "priority": 5,
      "initDialog": 742161901,
      "npcId": [
        5337,
        5338
      ],
      "performCfg": "QuestDialogue/WQ/Fontaine_74216/Q7421619",
      "heroTalk": "TALK_HERO_MAIN",
      "questId": 74216,
      "assetIndex": 6543461800489840307,
      "prePerformCfg": "",
      "PLPFOOINAAJ": [
        "[3_7746:1223.031,287.264,4398.402,0.000,206.184,0.000]",
        "[3_7817:1221.935,287.264,4399.018,0.000,200.921,0.000]",
        "[3_8012:1222.327,287.264,4396.673,0.000,26.292,0.000]",
        "[3_8013:1221.077,287.264,4397.264,0.000,29.344,0.000]"
      ]
    },
    {
      "id": 7421620,
      "beginWay": "TALK_BEGIN_MANUAL",
      "activeMode": "PLAY_MODE_HOST",
      "beginCond": [
        {
          "type": "QUEST_COND_STATE_EQUAL",
          "_param": [
            "7421604",
            "2"
          ]
        }
      ],
      "priority": 5,
      "initDialog": 742162003,
      "npcId": [
        5338
      ],
      "performCfg": "QuestDialogue/WQ/Fontaine_74216/Q7421620",
      "heroTalk": "TALK_HERO_MAIN",
      "questId": 74216,
      "assetIndex": 13258385278545195417,
      "prePerformCfg": "",
      "PLPFOOINAAJ": [
        "[3_7565:1234.639,280.704,4451.496,357.726,220.848,0.573]",
        "[3_8005:1233.526,280.631,4449.629,0.000,29.847,0.000]"
      ]
    }
  ],
  "preloadLuaList": [
    873509958582351113,
    1136137551239591108,
    14993731651309141371,
    1335935229797925433
  ],
  "forcePreloadLuaList": [
    1649661363966635269
  ],
  "freeStyleDic": {
    "5347": [
      1190
    ],
    "5351": [
      1160
    ],
    "5337": [
      1070
    ],
    "5338": [
      4190
    ]
  },
  "dialogList": [
    {
      "id": 742160199,
      "talkRole": {
        "_id": ""
      },
      "talkContentTextMapHash": 2399743642,
      "talkAssetPath": "",
      "talkAssetPathAlter": "",
      "talkAudioName": "",
      "actionBefore": "",
      "actionWhile": "",
      "actionAfter": "",
      "optionIcon": "",
      "iconPath": ""
    },
    {
      "id": 742160799,
      "talkRole": {
        "_id": ""
      },
      "talkContentTextMapHash": 3361197362,
      "talkAssetPath": "",
      "talkAssetPathAlter": "",
      "talkAudioName": "",
      "actionBefore": "",
      "actionWhile": "",
      "actionAfter": "",
      "optionIcon": "",
      "iconPath": ""
    }
  ]
}