{
  "id": 74227,
  "KPGKDHAFHFE": "WQ",
  "activeMode": "PLAY_MODE_ALL",
  "titleTextMapHash": 452938319,
  "luaPath": "Actor/Quest/WQ74227",
  "showType": "QUEST_HIDDEN",
  "subQuests": [
    {
      "subId": 7422701,
      "mainId": 74227,
      "order": 1,
      "descTextMapHash": 4053731924,
      "showType": "QUEST_HIDDEN",
      "finishCond": [
        {
          "KPGKDHAFHFE": "QUEST_CONTENT_LUA_NOTIFY",
          "param": [
            0,
            0
          ],
          "count": 1
        }
      ],
      "guide": {},
      "guideHint": {
        "param1": ""
      },
      "isRewind": true,
      "versionBegin": "",
      "versionEnd": ""
    },
    {
      "subId": 7422702,
      "mainId": 74227,
      "order": 2,
      "descTextMapHash": 1458747812,
      "showType": "QUEST_HIDDEN",
      "finishCond": [
        {
          "KPGKDHAFHFE": "QUEST_CONTENT_COMPLETE_TALK",
          "param": [
            7422701,
            0
          ]
        },
        {
          "KPGKDHAFHFE": "QUEST_CONTENT_QUEST_STATE_EQUAL",
          "param": [
            7422703,
            3
          ]
        }
      ],
      "guide": {},
      "guideHint": {
        "param1": ""
      },
      "finishParent": true,
      "isRewind": true,
      "versionBegin": "",
      "versionEnd": ""
    },
    {
      "subId": 7422703,
      "mainId": 74227,
      "order": 3,
      "descTextMapHash": 3826105140,
      "showType": "QUEST_HIDDEN",
      "finishCond": [
        {
          "KPGKDHAFHFE": "QUEST_CONTENT_FINISH_PLOT",
          "param": [
            7422703,
            0
          ]
        }
      ],
      "guide": {},
      "guideHint": {
        "param1": ""
      },
      "finishExec": [
        {
          "KPGKDHAFHFE": "QUEST_EXEC_REFRESH_GROUP_SUITE",
          "param": [
            "3",
            "133409439,4"
          ]
        }
      ],
      "versionBegin": "",
      "versionEnd": ""
    }
  ],
  "talks": [
    {
      "id": 7422701,
      "beginWay": "TALK_BEGIN_MANUAL",
      "activeMode": "PLAY_MODE_HOST",
      "beginCond": [
        {
          "type": "QUEST_COND_STATE_EQUAL",
          "_param": [
            "7422702",
            "2"
          ]
        }
      ],
      "priority": 5,
      "initDialog": 742270101,
      "npcId": [
        1005
      ],
      "performCfg": "QuestDialogue/WQ/Fontaine_74227/Q7422701",
      "heroTalk": "TALK_HERO_MAIN",
      "questId": 74227,
      "assetIndex": 11802054171676861579,
      "prePerformCfg": "",
      "PLPFOOINAAJ": [
        "[3_340900085:4799.100,344.551,3653.073,0.000,296.719,0.000]",
        "[3_340900088:4799.181,344.551,3653.852,0.000,282.874,0.000]"
      ]
    }
  ],
  "preloadLuaList": [
    14457059026087496718
  ],
  "DDHNEIEDLJA": true
}