{
  "id": 74681,
  "KPGKDHAFHFE": "WQ",
  "mainQuestTag": "MAINQUEST_TAG_GUIDE",
  "titleTextMapHash": 548981743,
  "descTextMapHash": 2096236702,
  "luaPath": "Actor/Quest/WQ74681",
  "rewardIdList": [
    174681
  ],
  "showRedPoint": true,
  "activityId": 2027,
  "subQuests": [
    {
      "subId": 7468101,
      "mainId": 74681,
      "order": 1,
      "descTextMapHash": 3835385300,
      "finishCond": [
        {
          "KPGKDHAFHFE": "QUEST_CONTENT_COMPLETE_TALK",
          "param": [
            7468101,
            0
          ]
        }
      ],
      "guide": {
        "KPGKDHAFHFE": "QUEST_GUIDE_NPC",
        "param": [
          "30487"
        ],
        "guideScene": 3,
        "guideStyle": "QUEST_GUIDE_STYLE_TARGET",
        "guideLayer": "QUEST_GUIDE_LAYER_SCENE"
      },
      "guideHint": {
        "param1": ""
      },
      "finishParent": true,
      "isRewind": true,
      "versionBegin": "",
      "versionEnd": ""
    }
  ],
  "talks": [
    {
      "id": 7468101,
      "beginWay": "TALK_BEGIN_MANUAL",
      "beginCond": [
        {
          "type": "QUEST_COND_STATE_EQUAL",
          "_param": [
            "7468101",
            "2"
          ]
        }
      ],
      "priority": 5,
      "initDialog": 746810101,
      "npcId": [
        30487
      ],
      "performCfg": "QuestDialogue/WQ/Filmfest_74681/Q7468101",
      "heroTalk": "TALK_HERO_MAIN",
      "questId": 74681,
      "assetIndex": 348231880084642352,
      "prePerformCfg": "",
      "PLPFOOINAAJ": [
        "[3_340100475:3417.103,449.586,4461.122,0.000,56.246,0.000]"
      ]
    }
  ],
  "freeStyleDic": {
    "30487": [
      1120
    ]
  }
}