{
  "id": 74902,
  "KPGKDHAFHFE": "WQ",
  "titleTextMapHash": 3471764503,
  "descTextMapHash": 2627959478,
  "luaPath": "",
  "rewardIdList": [
    555003
  ],
  "showType": "QUEST_HIDDEN",
  "subQuests": [
    {
      "subId": 7490201,
      "mainId": 74902,
      "order": 1,
      "showType": "QUEST_HIDDEN",
      "finishCond": [
        {
          "KPGKDHAFHFE": "QUEST_CONTENT_COMPLETE_TALK",
          "param": [
            7490201,
            0
          ]
        }
      ],
      "guide": {},
      "guideHint": {
        "param1": ""
      },
      "finishParent": true,
      "versionBegin": "",
      "versionEnd": ""
    }
  ]
}