{
  "id": 74927,
  "KPGKDHAFHFE": "WQ",
  "titleTextMapHash": 3561181207,
  "descTextMapHash": 1160197478,
  "luaPath": "",
  "rewardIdList": [
    555028
  ],
  "showType": "QUEST_HIDDEN",
  "subQuests": [
    {
      "subId": 7492701,
      "mainId": 74927,
      "order": 1,
      "showType": "QUEST_HIDDEN",
      "finishCond": [
        {
          "KPGKDHAFHFE": "QUEST_CONTENT_COMPLETE_TALK",
          "param": [
            7492701,
            0
          ]
        }
      ],
      "guide": {},
      "guideHint": {
        "param1": ""
      },
      "finishParent": true,
      "versionBegin": "",
      "versionEnd": ""
    }
  ]
}