{
  "id": 74926,
  "KPGKDHAFHFE": "WQ",
  "titleTextMapHash": 3416743631,
  "descTextMapHash": 543816886,
  "luaPath": "",
  "rewardIdList": [
    555027
  ],
  "showType": "QUEST_HIDDEN",
  "subQuests": [
    {
      "subId": 7492601,
      "mainId": 74926,
      "order": 1,
      "showType": "QUEST_HIDDEN",
      "finishCond": [
        {
          "KPGKDHAFHFE": "QUEST_CONTENT_COMPLETE_TALK",
          "param": [
            7492601,
            0
          ]
        }
      ],
      "guide": {},
      "guideHint": {
        "param1": ""
      },
      "finishParent": true,
      "versionBegin": "",
      "versionEnd": ""
    }
  ]
}