{
  "id": 74937,
  "KPGKDHAFHFE": "WQ",
  "titleTextMapHash": 43428839,
  "descTextMapHash": 767900550,
  "luaPath": "",
  "rewardIdList": [
    555037
  ],
  "showType": "QUEST_HIDDEN",
  "subQuests": [
    {
      "subId": 7493701,
      "mainId": 74937,
      "order": 1,
      "showType": "QUEST_HIDDEN",
      "finishCond": [
        {
          "KPGKDHAFHFE": "QUEST_CONTENT_COMPLETE_TALK",
          "param": [
            7493701,
            0
          ]
        }
      ],
      "guide": {},
      "guideHint": {
        "param1": ""
      },
      "finishParent": true,
      "versionBegin": "",
      "versionEnd": ""
    }
  ]
}