{
  "id": 74947,
  "KPGKDHAFHFE": "WQ",
  "titleTextMapHash": 4074833095,
  "descTextMapHash": 182820318,
  "luaPath": "",
  "rewardIdList": [
    555047
  ],
  "showType": "QUEST_HIDDEN",
  "subQuests": [
    {
      "subId": 7494701,
      "mainId": 74947,
      "order": 1,
      "showType": "QUEST_HIDDEN",
      "finishCond": [
        {
          "KPGKDHAFHFE": "QUEST_CONTENT_COMPLETE_TALK",
          "param": [
            7494701,
            0
          ]
        }
      ],
      "guide": {},
      "guideHint": {
        "param1": ""
      },
      "finishParent": true,
      "versionBegin": "",
      "versionEnd": ""
    }
  ],
  "DDHNEIEDLJA": true
}