{
  "id": 800,
  "KPGKDHAFHFE": "WQ",
  "titleTextMapHash": 4157279319,
  "descTextMapHash": 3367148502,
  "luaPath": "Actor/Quest/WQ800",
  "suggestTrackMainQuestList": [
    803
  ],
  "rewardIdList": [
    113027
  ],
  "subQuests": [
    {
      "subId": 80001,
      "mainId": 800,
      "order": 1,
      "isMpBlock": true,
      "descTextMapHash": 360046132,
      "banType": "BAN_GROUP_COMMON",
      "finishCond": [
        {
          "KPGKDHAFHFE": "QUEST_CONTENT_COMPLETE_TALK",
          "param": [
            80001,
            0
          ]
        }
      ],
      "guide": {
        "KPGKDHAFHFE": "QUEST_GUIDE_NPC",
        "autoGuide": "QUEST_GUIDE_AUTO_ENABLE",
        "param": [
          "96"
        ],
        "guideScene": 3,
        "guideStyle": "QUEST_GUIDE_STYLE_START",
        "guideLayer": "QUEST_GUIDE_LAYER_SCENE"
      },
      "guideHint": {
        "param1": ""
      },
      "isRewind": true,
      "finishExec": [
        {
          "KPGKDHAFHFE": "QUEST_EXEC_NOTIFY_GROUP_LUA",
          "param": [
            "3",
            "133103559"
          ]
        }
      ],
      "versionBegin": "",
      "versionEnd": ""
    },
    {
      "subId": 80002,
      "mainId": 800,
      "order": 2,
      "isMpBlock": true,
      "descTextMapHash": 1873944436,
      "banType": "BAN_GROUP_TRANSPORT_ONLY",
      "finishCond": [
        {
          "KPGKDHAFHFE": "QUEST_CONTENT_LUA_NOTIFY",
          "param": [
            2200901,
            0
          ],
          "count": 1
        }
      ],
      "failCond": [
        {
          "KPGKDHAFHFE": "QUEST_CONTENT_LUA_NOTIFY",
          "param": [
            0,
            0
          ],
          "count": 1
        }
      ],
      "guide": {
        "guideScene": 3,
        "guideStyle": "QUEST_GUIDE_STYLE_START",
        "guideLayer": "QUEST_GUIDE_LAYER_SCENE"
      },
      "guideHint": {
        "param1": ""
      },
      "finishExec": [
        {
          "KPGKDHAFHFE": "QUEST_EXEC_SET_IS_GAME_TIME_LOCKED",
          "param": [
            "0"
          ]
        }
      ],
      "failExec": [
        {
          "KPGKDHAFHFE": "QUEST_EXEC_ROLLBACK_QUEST",
          "param": [
            "80001"
          ]
        }
      ],
      "versionBegin": "",
      "versionEnd": ""
    },
    {
      "subId": 80003,
      "mainId": 800,
      "order": 3,
      "isMpBlock": true,
      "descTextMapHash": 810866276,
      "banType": "BAN_GROUP_TRANSPORT_MAP",
      "guide": {
        "guideScene": 3,
        "guideStyle": "QUEST_GUIDE_STYLE_START",
        "guideLayer": "QUEST_GUIDE_LAYER_SCENE"
      },
      "guideHint": {
        "param1": ""
      },
      "finishParent": true,
      "isRewind": true,
      "finishExec": [
        {
          "KPGKDHAFHFE": "QUEST_EXEC_SET_IS_GAME_TIME_LOCKED",
          "param": [
            "0"
          ]
        },
        {
          "KPGKDHAFHFE": "QUEST_EXEC_UNLOCK_AVATAR_TEAM"
        }
      ],
      "versionBegin": "",
      "versionEnd": ""
    },
    {
      "subId": 80004,
      "mainId": 800,
      "order": 4,
      "descTextMapHash": 100361652,
      "stepDescTextMapHash": 2903165941,
      "finishCond": [
        {
          "KPGKDHAFHFE": "QUEST_CONTENT_SCENE_LEVEL_TAG_EQ",
          "param": [
            1,
            0
          ]
        }
      ],
      "guide": {
        "KPGKDHAFHFE": "QUEST_GUIDE_LOCATION",
        "param": [
          "DUMMY_POS 500500003"
        ],
        "guideScene": 5
      },
      "guideHint": {
        "param1": ""
      },
      "isRewind": true,
      "versionBegin": "",
      "versionEnd": ""
    },
    {
      "subId": 80005,
      "mainId": 800,
      "order": 5,
      "descTextMapHash": 3752976076,
      "stepDescTextMapHash": 2818470461,
      "banType": "BAN_GROUP_TRANSPOR_GOTO_SCENE",
      "finishCond": [
        {
          "KPGKDHAFHFE": "QUEST_CONTENT_SCENE_LEVEL_TAG_EQ",
          "param": [
            2,
            0
          ]
        }
      ],
      "guide": {
        "KPGKDHAFHFE": "QUEST_GUIDE_LOCATION",
        "param": [
          "DUMMY_POS 500500003"
        ],
        "guideScene": 5
      },
      "guideHint": {
        "param1": ""
      },
      "isRewind": true,
      "versionBegin": "",
      "versionEnd": ""
    },
    {
      "subId": 80006,
      "mainId": 800,
      "order": 6,
      "descTextMapHash": 1234969212,
      "stepDescTextMapHash": 3435744781,
      "finishCond": [
        {
          "KPGKDHAFHFE": "QUEST_CONTENT_FINISH_PLOT",
          "param": [
            80006,
            0
          ]
        }
      ],
      "guide": {
        "KPGKDHAFHFE": "QUEST_GUIDE_LOCATION",
        "param": [
          "DUMMY_POS 500500003"
        ],
        "guideScene": 5
      },
      "guideHint": {
        "param1": ""
      },
      "isRewind": true,
      "finishExec": [
        {
          "KPGKDHAFHFE": "QUEST_EXEC_CHANGE_SCENE_LEVEL_TAG",
          "param": [
            "2"
          ]
        }
      ],
      "versionBegin": "",
      "versionEnd": ""
    },
    {
      "subId": 80007,
      "mainId": 800,
      "order": 7,
      "descTextMapHash": 324320164,
      "stepDescTextMapHash": 2484233317,
      "finishCond": [
        {
          "KPGKDHAFHFE": "QUEST_CONTENT_FINISH_PLOT",
          "param": [
            80007,
            0
          ]
        }
      ],
      "guide": {
        "KPGKDHAFHFE": "QUEST_GUIDE_LOCATION",
        "param": [
          "DUMMY_POS 500500003"
        ],
        "guideScene": 5
      },
      "guideHint": {
        "param1": ""
      },
      "isRewind": true,
      "finishExec": [
        {
          "KPGKDHAFHFE": "QUEST_EXEC_CHANGE_SCENE_LEVEL_TAG",
          "param": [
            "1"
          ]
        }
      ],
      "versionBegin": "",
      "versionEnd": ""
    },
    {
      "subId": 80008,
      "mainId": 800,
      "order": 8,
      "descTextMapHash": 1390464364,
      "finishCond": [
        {
          "KPGKDHAFHFE": "QUEST_CONTENT_LEAVE_SCENE",
          "param": [
            3,
            0
          ]
        }
      ],
      "guide": {},
      "guideHint": {
        "param1": ""
      },
      "isRewind": true,
      "versionBegin": "",
      "versionEnd": ""
    },
    {
      "subId": 80009,
      "mainId": 800,
      "order": 9,
      "descTextMapHash": 3085918164,
      "finishCond": [
        {
          "KPGKDHAFHFE": "QUEST_CONTENT_LEAVE_SCENE_RANGE",
          "param": [
            3,
            50
          ]
        }
      ],
      "guide": {
        "KPGKDHAFHFE": "QUEST_GUIDE_LOCATION",
        "param": [
          "Q12001FailTrigger",
          "50"
        ],
        "guideScene": 3
      },
      "guideHint": {
        "param1": ""
      },
      "isRewind": true,
      "versionBegin": "",
      "versionEnd": ""
    },
    {
      "subId": 80010,
      "mainId": 800,
      "order": 10,
      "descTextMapHash": 2413489044,
      "finishCond": [
        {
          "KPGKDHAFHFE": "QUEST_CONTENT_FINISH_PLOT",
          "param": [
            80010,
            0
          ]
        }
      ],
      "guide": {},
      "guideHint": {
        "param1": ""
      },
      "isRewind": true,
      "versionBegin": "",
      "versionEnd": ""
    },
    {
      "subId": 80011,
      "mainId": 800,
      "order": 11,
      "descTextMapHash": 4286677156,
      "finishCond": [
        {
          "KPGKDHAFHFE": "QUEST_CONTENT_FINISH_PLOT",
          "param": [
            80011,
            0
          ]
        }
      ],
      "guide": {},
      "guideHint": {
        "param1": ""
      },
      "isRewind": true,
      "versionBegin": "",
      "versionEnd": ""
    },
    {
      "subId": 80012,
      "mainId": 800,
      "order": 12,
      "descTextMapHash": 4175582340,
      "guideTipsTextMapHash": 2922665590,
      "finishCond": [
        {
          "KPGKDHAFHFE": "QUEST_CONTENT_FINISH_PLOT",
          "param": [
            80012,
            0
          ]
        }
      ],
      "guide": {
        "KPGKDHAFHFE": "QUEST_GUIDE_NPC",
        "param": [
          "20476"
        ],
        "guideScene": 5
      },
      "guideHint": {
        "param1": ""
      },
      "isRewind": true,
      "versionBegin": "",
      "versionEnd": ""
    },
    {
      "subId": 80013,
      "mainId": 800,
      "order": 13,
      "descTextMapHash": 3773672068,
      "stepDescTextMapHash": 2386040237,
      "finishCond": [
        {
          "KPGKDHAFHFE": "QUEST_CONTENT_CITY_LEVEL_UP",
          "param": [
            1,
            3
          ]
        }
      ],
      "guide": {
        "KPGKDHAFHFE": "QUEST_GUIDE_NPC",
        "param": [
          "1005"
        ],
        "guideScene": 3
      },
      "guideHint": {
        "param1": ""
      },
      "isRewind": true,
      "versionBegin": "",
      "versionEnd": ""
    },
    {
      "subId": 80014,
      "mainId": 800,
      "order": 14,
      "descTextMapHash": 3823319188,
      "finishCond": [
        {
          "KPGKDHAFHFE": "QUEST_CONTENT_FINISH_PLOT",
          "param": [
            80014,
            0
          ]
        }
      ],
      "guide": {
        "KPGKDHAFHFE": "QUEST_GUIDE_NPC",
        "param": [
          "1005"
        ],
        "guideScene": 3
      },
      "guideHint": {
        "param1": ""
      },
      "isRewind": true,
      "versionBegin": "",
      "versionEnd": ""
    },
    {
      "subId": 80015,
      "mainId": 800,
      "order": 15,
      "descTextMapHash": 2966869732,
      "finishCond": [
        {
          "KPGKDHAFHFE": "QUEST_CONTENT_FINISH_PLOT",
          "param": [
            80015,
            0
          ]
        }
      ],
      "guide": {},
      "guideHint": {
        "param1": ""
      },
      "isRewind": true,
      "versionBegin": "",
      "versionEnd": ""
    },
    {
      "subId": 80016,
      "mainId": 800,
      "order": 16,
      "descTextMapHash": 1270970804,
      "stepDescTextMapHash": 1225549021,
      "finishCond": [
        {
          "KPGKDHAFHFE": "QUEST_CONTENT_FINISH_PLOT",
          "param": [
            80016,
            0
          ]
        }
      ],
      "guide": {
        "KPGKDHAFHFE": "QUEST_GUIDE_NPC",
        "param": [
          "1005"
        ],
        "guideScene": 3
      },
      "guideHint": {
        "param1": ""
      },
      "isRewind": true,
      "versionBegin": "",
      "versionEnd": ""
    },
    {
      "subId": 80017,
      "mainId": 800,
      "order": 17,
      "descTextMapHash": 901798636,
      "stepDescTextMapHash": 2802082493,
      "finishCond": [
        {
          "KPGKDHAFHFE": "QUEST_CONTENT_ENTER_MY_WORLD",
          "param": [
            5,
            0
          ]
        }
      ],
      "guide": {
        "KPGKDHAFHFE": "QUEST_GUIDE_LOCATION",
        "param": [
          "Q7228001_N1038"
        ],
        "guideScene": 3
      },
      "guideHint": {
        "param1": ""
      },
      "isRewind": true,
      "versionBegin": "",
      "versionEnd": ""
    },
    {
      "subId": 80018,
      "mainId": 800,
      "order": 18,
      "descTextMapHash": 2944319556,
      "finishCond": [
        {
          "KPGKDHAFHFE": "QUEST_CONTENT_FINISH_PLOT",
          "param": [
            80018,
            0
          ]
        }
      ],
      "guide": {
        "KPGKDHAFHFE": "QUEST_GUIDE_LOCATION",
        "param": [
          "Q7228001_N1038"
        ],
        "guideScene": 3
      },
      "guideHint": {
        "param1": ""
      },
      "isRewind": true,
      "versionBegin": "",
      "versionEnd": ""
    },
    {
      "subId": 80019,
      "mainId": 800,
      "order": 19,
      "descTextMapHash": 1144468884,
      "stepDescTextMapHash": 3294304957,
      "finishCond": [
        {
          "KPGKDHAFHFE": "QUEST_CONTENT_FINISH_PLOT",
          "param": [
            80019,
            0
          ]
        }
      ],
      "guide": {
        "KPGKDHAFHFE": "QUEST_GUIDE_NPC",
        "param": [
          "1005"
        ],
        "guideScene": 3
      },
      "guideHint": {
        "param1": ""
      },
      "isRewind": true,
      "versionBegin": "",
      "versionEnd": ""
    },
    {
      "subId": 80020,
      "mainId": 800,
      "order": 20,
      "descTextMapHash": 2718284060,
      "stepDescTextMapHash": 3105547765,
      "guideTipsTextMapHash": 1493225382,
      "finishCond": [
        {
          "KPGKDHAFHFE": "QUEST_CONTENT_ENTER_VEHICLE",
          "param": [
            0,
            0
          ]
        }
      ],
      "guide": {},
      "guideHint": {
        "param1": ""
      },
      "isRewind": true,
      "versionBegin": "",
      "versionEnd": ""
    },
    {
      "subId": 80021,
      "mainId": 800,
      "order": 21,
      "descTextMapHash": 1705377772,
      "stepDescTextMapHash": 3426131005,
      "guideTipsTextMapHash": 1495627774,
      "finishCond": [
        {
          "KPGKDHAFHFE": "QUEST_CONTENT_COMPLETE_TALK",
          "param": [
            80022,
            0
          ]
        }
      ],
      "guide": {
        "KPGKDHAFHFE": "QUEST_GUIDE_NPC",
        "param": [
          "1001"
        ],
        "guideScene": 1009
      },
      "guideHint": {
        "param1": ""
      },
      "isRewind": true,
      "versionBegin": "",
      "versionEnd": ""
    },
    {
      "subId": 80022,
      "mainId": 800,
      "order": 22,
      "descTextMapHash": 3517588460,
      "finishCond": [
        {
          "KPGKDHAFHFE": "QUEST_CONTENT_COMPLETE_TALK",
          "param": [
            80023,
            0
          ]
        }
      ],
      "guide": {
        "KPGKDHAFHFE": "QUEST_GUIDE_NPC",
        "param": [
          "1001"
        ],
        "guideScene": 3
      },
      "guideHint": {
        "param1": ""
      },
      "isRewind": true,
      "versionBegin": "",
      "versionEnd": ""
    },
    {
      "subId": 80023,
      "mainId": 800,
      "order": 23,
      "descTextMapHash": 259185412,
      "stepDescTextMapHash": 4093873893,
      "guideTipsTextMapHash": 1908045062,
      "finishCond": [
        {
          "KPGKDHAFHFE": "QUEST_CONTENT_COMPLETE_TALK",
          "param": [
            80022,
            0
          ]
        }
      ],
      "guide": {
        "KPGKDHAFHFE": "QUEST_GUIDE_NPC",
        "param": [
          "1001"
        ],
        "guideScene": 3
      },
      "guideHint": {
        "param1": ""
      },
      "isRewind": true,
      "versionBegin": "",
      "versionEnd": ""
    },
    {
      "subId": 80024,
      "mainId": 800,
      "order": 24,
      "descTextMapHash": 3652289068,
      "finishCond": [
        {
          "KPGKDHAFHFE": "QUEST_CONTENT_COMPLETE_TALK",
          "param": [
            80023,
            0
          ]
        }
      ],
      "guide": {
        "KPGKDHAFHFE": "QUEST_GUIDE_NPC",
        "param": [
          "1001"
        ],
        "guideScene": 5
      },
      "guideHint": {
        "param1": ""
      },
      "isRewind": true,
      "versionBegin": "",
      "versionEnd": ""
    },
    {
      "subId": 80025,
      "mainId": 800,
      "order": 25,
      "descTextMapHash": 2065613548,
      "guide": {
        "KPGKDHAFHFE": "QUEST_GUIDE_NPC",
        "param": [
          "4184"
        ],
        "guideScene": 3
      },
      "guideHint": {
        "param1": ""
      },
      "isRewind": true,
      "versionBegin": "",
      "versionEnd": ""
    },
    {
      "subId": 80026,
      "mainId": 800,
      "order": 26,
      "descTextMapHash": 2538333652,
      "guide": {
        "KPGKDHAFHFE": "QUEST_GUIDE_NPC",
        "param": [
          "4184"
        ],
        "guideScene": 3
      },
      "guideHint": {
        "param1": ""
      },
      "isRewind": true,
      "versionBegin": "",
      "versionEnd": ""
    },
    {
      "subId": 80027,
      "mainId": 800,
      "order": 27,
      "descTextMapHash": 1552064516,
      "finishCond": [
        {
          "KPGKDHAFHFE": "QUEST_CONTENT_FINISH_PLOT",
          "param": [
            80027,
            0
          ]
        }
      ],
      "guide": {},
      "guideHint": {
        "param1": ""
      },
      "isRewind": true,
      "finishExec": [
        {
          "KPGKDHAFHFE": "QUEST_EXEC_HIDE_SCENE_POINT",
          "param": [
            "3",
            "517"
          ]
        }
      ],
      "versionBegin": "",
      "versionEnd": ""
    },
    {
      "subId": 80028,
      "mainId": 800,
      "order": 28,
      "descTextMapHash": 1084018780,
      "finishCond": [
        {
          "KPGKDHAFHFE": "QUEST_CONTENT_FINISH_PLOT",
          "param": [
            80028,
            0
          ]
        }
      ],
      "guide": {},
      "guideHint": {
        "param1": ""
      },
      "isRewind": true,
      "finishExec": [
        {
          "KPGKDHAFHFE": "QUEST_EXEC_UNHIDE_SCENE_POINT",
          "param": [
            "3",
            "517"
          ]
        }
      ],
      "versionBegin": "",
      "versionEnd": ""
    },
    {
      "subId": 80029,
      "mainId": 800,
      "order": 29,
      "descTextMapHash": 1314779276,
      "finishCond": [
        {
          "KPGKDHAFHFE": "QUEST_CONTENT_FINISH_PLOT",
          "param": [
            80029,
            0
          ]
        }
      ],
      "guide": {},
      "guideHint": {
        "param1": ""
      },
      "isRewind": true,
      "versionBegin": "",
      "versionEnd": ""
    },
    {
      "subId": 80030,
      "mainId": 800,
      "order": 30,
      "descTextMapHash": 1204857092,
      "finishCond": [
        {
          "KPGKDHAFHFE": "QUEST_CONTENT_FINISH_PLOT",
          "param": [
            80030,
            0
          ]
        }
      ],
      "guide": {},
      "guideHint": {
        "param1": ""
      },
      "isRewind": true,
      "versionBegin": "",
      "versionEnd": ""
    },
    {
      "subId": 80031,
      "mainId": 800,
      "order": 31,
      "descTextMapHash": 3719539564,
      "finishCond": [
        {
          "KPGKDHAFHFE": "QUEST_CONTENT_FINISH_PLOT",
          "param": [
            80031,
            0
          ]
        }
      ],
      "guide": {},
      "guideHint": {
        "param1": ""
      },
      "isRewind": true,
      "versionBegin": "",
      "versionEnd": ""
    },
    {
      "subId": 80032,
      "mainId": 800,
      "order": 32,
      "descTextMapHash": 1535244500,
      "finishCond": [
        {
          "KPGKDHAFHFE": "QUEST_CONTENT_FINISH_PLOT",
          "param": [
            80032,
            0
          ]
        }
      ],
      "guide": {
        "KPGKDHAFHFE": "QUEST_GUIDE_NPC",
        "param": [
          "1005"
        ],
        "guideScene": 3
      },
      "guideHint": {
        "param1": ""
      },
      "isRewind": true,
      "versionBegin": "",
      "versionEnd": ""
    },
    {
      "subId": 80033,
      "mainId": 800,
      "order": 33,
      "descTextMapHash": 4090989508,
      "finishCond": [
        {
          "KPGKDHAFHFE": "QUEST_CONTENT_FINISH_PLOT",
          "param": [
            80033,
            0
          ]
        }
      ],
      "guide": {},
      "guideHint": {
        "param1": ""
      },
      "isRewind": true,
      "versionBegin": "",
      "versionEnd": ""
    },
    {
      "subId": 80034,
      "mainId": 800,
      "order": 34,
      "descTextMapHash": 2554508612,
      "finishCond": [
        {
          "KPGKDHAFHFE": "QUEST_CONTENT_FINISH_PLOT",
          "param": [
            80034,
            0
          ]
        }
      ],
      "guide": {
        "KPGKDHAFHFE": "QUEST_GUIDE_NPC",
        "param": [
          "1001"
        ]
      },
      "guideHint": {
        "param1": ""
      },
      "isRewind": true,
      "versionBegin": "",
      "versionEnd": ""
    },
    {
      "subId": 80035,
      "mainId": 800,
      "order": 35,
      "descTextMapHash": 3375330044,
      "finishCond": [
        {
          "KPGKDHAFHFE": "QUEST_CONTENT_FINISH_PLOT",
          "param": [
            80035,
            0
          ]
        }
      ],
      "guide": {
        "KPGKDHAFHFE": "QUEST_GUIDE_NPC",
        "param": [
          "1001"
        ]
      },
      "guideHint": {
        "param1": ""
      },
      "isRewind": true,
      "versionBegin": "",
      "versionEnd": ""
    },
    {
      "subId": 80036,
      "mainId": 800,
      "order": 36,
      "descTextMapHash": 1521781540,
      "finishCond": [
        {
          "KPGKDHAFHFE": "QUEST_CONTENT_FINISH_PLOT",
          "param": [
            80036,
            0
          ]
        }
      ],
      "guide": {
        "KPGKDHAFHFE": "QUEST_GUIDE_NPC",
        "param": [
          "1038"
        ],
        "guideScene": 3
      },
      "guideHint": {
        "param1": ""
      },
      "isRewind": true,
      "versionBegin": "",
      "versionEnd": ""
    },
    {
      "subId": 80037,
      "mainId": 800,
      "order": 37,
      "descTextMapHash": 1210997636,
      "finishCond": [
        {
          "KPGKDHAFHFE": "QUEST_CONTENT_FINISH_PLOT",
          "param": [
            80037,
            0
          ]
        }
      ],
      "guide": {},
      "guideHint": {
        "param1": ""
      },
      "isRewind": true,
      "versionBegin": "",
      "versionEnd": ""
    },
    {
      "subId": 80038,
      "mainId": 800,
      "order": 38,
      "descTextMapHash": 431017828,
      "finishCond": [
        {
          "KPGKDHAFHFE": "QUEST_CONTENT_FINISH_PLOT",
          "param": [
            80038,
            0
          ]
        }
      ],
      "guide": {
        "KPGKDHAFHFE": "QUEST_GUIDE_NPC",
        "param": [
          "1002"
        ],
        "guideScene": 3
      },
      "guideHint": {
        "param1": ""
      },
      "isRewind": true,
      "versionBegin": "",
      "versionEnd": ""
    },
    {
      "subId": 80039,
      "mainId": 800,
      "order": 39,
      "descTextMapHash": 1435749532,
      "finishCond": [
        {
          "KPGKDHAFHFE": "QUEST_CONTENT_ENTER_ROOM",
          "param": [
            1075,
            0
          ]
        }
      ],
      "guide": {
        "KPGKDHAFHFE": "QUEST_GUIDE_NPC",
        "param": [
          "1002"
        ],
        "guideScene": 3
      },
      "guideHint": {
        "param1": ""
      },
      "isRewind": true,
      "versionBegin": "",
      "versionEnd": ""
    },
    {
      "subId": 80040,
      "mainId": 800,
      "order": 40,
      "descTextMapHash": 4130568588,
      "finishCond": [
        {
          "KPGKDHAFHFE": "QUEST_CONTENT_FINISH_PLOT",
          "param": [
            80040,
            0
          ]
        }
      ],
      "guide": {
        "KPGKDHAFHFE": "QUEST_GUIDE_NPC",
        "param": [
          "1002"
        ],
        "guideScene": 3
      },
      "guideHint": {
        "param1": ""
      },
      "isRewind": true,
      "versionBegin": "",
      "versionEnd": ""
    },
    {
      "subId": 80041,
      "mainId": 800,
      "order": 41,
      "descTextMapHash": 894710508,
      "finishCond": [
        {
          "KPGKDHAFHFE": "QUEST_CONTENT_FINISH_PLOT",
          "param": [
            80041,
            0
          ]
        }
      ],
      "guide": {
        "KPGKDHAFHFE": "QUEST_GUIDE_NPC",
        "param": [
          "1002"
        ],
        "guideScene": 3
      },
      "guideHint": {
        "param1": ""
      },
      "isRewind": true,
      "versionBegin": "",
      "versionEnd": ""
    },
    {
      "subId": 80042,
      "mainId": 800,
      "order": 42,
      "descTextMapHash": 2404448076,
      "finishCond": [
        {
          "KPGKDHAFHFE": "QUEST_CONTENT_FINISH_PLOT",
          "param": [
            80042,
            0
          ]
        }
      ],
      "guide": {
        "KPGKDHAFHFE": "QUEST_GUIDE_NPC",
        "param": [
          "1005"
        ],
        "guideScene": 1001
      },
      "guideHint": {
        "param1": ""
      },
      "isRewind": true,
      "versionBegin": "",
      "versionEnd": ""
    },
    {
      "subId": 80043,
      "mainId": 800,
      "order": 43,
      "descTextMapHash": 3137774124,
      "finishCond": [
        {
          "KPGKDHAFHFE": "QUEST_CONTENT_QUEST_GLOBAL_VAR_EQUAL",
          "param": [
            10006,
            1
          ]
        }
      ],
      "guide": {},
      "guideHint": {
        "param1": ""
      },
      "isRewind": true,
      "versionBegin": "",
      "versionEnd": ""
    },
    {
      "subId": 80044,
      "mainId": 800,
      "order": 44,
      "descTextMapHash": 1460994724,
      "finishCond": [
        {
          "KPGKDHAFHFE": "QUEST_CONTENT_FINISH_PLOT",
          "param": [
            80044,
            0
          ]
        }
      ],
      "guide": {
        "KPGKDHAFHFE": "QUEST_GUIDE_NPC",
        "param": [
          "1002"
        ],
        "guideScene": 3,
        "guideLayer": "QUEST_GUIDE_LAYER_UI"
      },
      "guideHint": {
        "param1": ""
      },
      "isRewind": true,
      "versionBegin": "",
      "versionEnd": ""
    },
    {
      "subId": 80045,
      "mainId": 800,
      "order": 45,
      "descTextMapHash": 2428438972,
      "finishCond": [
        {
          "KPGKDHAFHFE": "QUEST_CONTENT_FINISH_PLOT",
          "param": [
            80045,
            0
          ]
        }
      ],
      "guide": {
        "KPGKDHAFHFE": "QUEST_GUIDE_NPC",
        "param": [
          "1002"
        ],
        "guideScene": 3
      },
      "guideHint": {
        "param1": ""
      },
      "isRewind": true,
      "versionBegin": "",
      "versionEnd": ""
    },
    {
      "subId": 80046,
      "mainId": 800,
      "order": 46,
      "descTextMapHash": 1344596460,
      "finishCond": [
        {
          "KPGKDHAFHFE": "QUEST_CONTENT_FINISH_PLOT",
          "param": [
            80046,
            0
          ]
        }
      ],
      "guide": {},
      "guideHint": {
        "param1": ""
      },
      "isRewind": true,
      "versionBegin": "",
      "versionEnd": ""
    },
    {
      "subId": 80047,
      "mainId": 800,
      "order": 47,
      "descTextMapHash": 3190691636,
      "finishCond": [
        {
          "KPGKDHAFHFE": "QUEST_CONTENT_FINISH_PLOT",
          "param": [
            80047,
            0
          ]
        }
      ],
      "guide": {},
      "guideHint": {
        "param1": ""
      },
      "isRewind": true,
      "versionBegin": "",
      "versionEnd": ""
    },
    {
      "subId": 80048,
      "mainId": 800,
      "order": 48,
      "descTextMapHash": 1109566884,
      "finishCond": [
        {
          "KPGKDHAFHFE": "QUEST_CONTENT_FINISH_PLOT",
          "param": [
            80048,
            0
          ]
        }
      ],
      "guide": {
        "KPGKDHAFHFE": "QUEST_GUIDE_NPC",
        "param": [
          "9058"
        ],
        "guideScene": 3
      },
      "guideHint": {
        "param1": ""
      },
      "isRewind": true,
      "versionBegin": "",
      "versionEnd": ""
    },
    {
      "subId": 80049,
      "mainId": 800,
      "order": 49,
      "descTextMapHash": 1568099956,
      "finishCond": [
        {
          "KPGKDHAFHFE": "QUEST_CONTENT_FINISH_PLOT",
          "param": [
            80049,
            0
          ]
        }
      ],
      "guide": {},
      "guideHint": {
        "param1": ""
      },
      "finishParent": true,
      "isRewind": true,
      "versionBegin": "",
      "versionEnd": ""
    },
    {
      "subId": 80050,
      "mainId": 800,
      "order": 50,
      "descTextMapHash": 376207820,
      "stepDescTextMapHash": 1721499173,
      "finishCond": [
        {
          "KPGKDHAFHFE": "QUEST_CONTENT_FINISH_PLOT",
          "param": [
            80050,
            0
          ]
        }
      ],
      "guide": {
        "KPGKDHAFHFE": "QUEST_GUIDE_LOCATION",
        "param": [
          "Q80050_guide"
        ],
        "guideScene": 3,
        "guideStyle": "QUEST_GUIDE_STYLE_POINT",
        "guideLayer": "QUEST_GUIDE_LAYER_SCENE",
        "poiRegionId": 101,
        "poiPointId": 1010014
      },
      "guideHint": {
        "param1": ""
      },
      "isRewind": true,
      "versionBegin": "",
      "versionEnd": ""
    },
    {
      "subId": 80051,
      "mainId": 800,
      "order": 51,
      "descTextMapHash": 3290818308,
      "stepDescTextMapHash": 3379158877,
      "finishCond": [
        {
          "KPGKDHAFHFE": "QUEST_CONTENT_FINISH_PLOT",
          "param": [
            80051,
            0
          ]
        }
      ],
      "guide": {
        "KPGKDHAFHFE": "QUEST_GUIDE_LOCATION",
        "param": [
          "Q80051_guide"
        ],
        "guideScene": 3,
        "guideStyle": "QUEST_GUIDE_STYLE_POINT",
        "guideLayer": "QUEST_GUIDE_LAYER_SCENE",
        "poiRegionId": 101,
        "poiPointId": 1010007
      },
      "guideHint": {
        "param1": ""
      },
      "isRewind": true,
      "versionBegin": "",
      "versionEnd": ""
    },
    {
      "subId": 80052,
      "mainId": 800,
      "order": 52,
      "descTextMapHash": 1561334036,
      "stepDescTextMapHash": 1698843405,
      "finishCond": [
        {
          "KPGKDHAFHFE": "QUEST_CONTENT_FINISH_PLOT",
          "param": [
            80052,
            0
          ]
        }
      ],
      "guide": {
        "KPGKDHAFHFE": "QUEST_GUIDE_LOCATION",
        "param": [
          "[3_3955:-132.368,249.037,3470.135]"
        ],
        "guideScene": 3,
        "guideStyle": "QUEST_GUIDE_STYLE_POINT",
        "guideLayer": "QUEST_GUIDE_LAYER_SCENE",
        "poiRegionId": 102,
        "poiPointId": 1020010
      },
      "guideHint": {
        "param1": ""
      },
      "isRewind": true,
      "versionBegin": "",
      "versionEnd": ""
    },
    {
      "subId": 80053,
      "mainId": 800,
      "order": 53,
      "descTextMapHash": 2032535348,
      "stepDescTextMapHash": 2928499381,
      "finishCond": [
        {
          "KPGKDHAFHFE": "QUEST_CONTENT_FINISH_PLOT",
          "param": [
            80053,
            0
          ]
        }
      ],
      "guide": {
        "KPGKDHAFHFE": "QUEST_GUIDE_LOCATION",
        "param": [
          "[3_3954:-141.456,249.233,3454.855]"
        ],
        "guideScene": 3,
        "guideStyle": "QUEST_GUIDE_STYLE_POINT",
        "guideLayer": "QUEST_GUIDE_LAYER_SCENE",
        "poiRegionId": 102,
        "poiPointId": 1020006
      },
      "guideHint": {
        "param1": ""
      },
      "isRewind": true,
      "versionBegin": "",
      "versionEnd": ""
    },
    {
      "subId": 80054,
      "mainId": 800,
      "order": 54,
      "descTextMapHash": 562430364,
      "finishCond": [
        {
          "KPGKDHAFHFE": "QUEST_CONTENT_FINISH_PLOT",
          "param": [
            80054,
            0
          ]
        }
      ],
      "guide": {
        "KPGKDHAFHFE": "QUEST_GUIDE_NPC",
        "param": [
          "5317"
        ],
        "guideScene": 3
      },
      "guideHint": {
        "param1": ""
      },
      "isRewind": true,
      "versionBegin": "",
      "versionEnd": ""
    },
    {
      "subId": 80055,
      "mainId": 800,
      "order": 55,
      "descTextMapHash": 1316259492,
      "finishCond": [
        {
          "KPGKDHAFHFE": "QUEST_CONTENT_FINISH_PLOT",
          "param": [
            80055,
            0
          ]
        }
      ],
      "guide": {},
      "guideHint": {
        "param1": ""
      },
      "isRewind": true,
      "versionBegin": "",
      "versionEnd": ""
    },
    {
      "subId": 80056,
      "mainId": 800,
      "order": 56,
      "descTextMapHash": 854617380,
      "finishCond": [
        {
          "KPGKDHAFHFE": "QUEST_CONTENT_FINISH_PLOT",
          "param": [
            80056,
            0
          ]
        }
      ],
      "guide": {},
      "guideHint": {
        "param1": ""
      },
      "isRewind": true,
      "versionBegin": "",
      "versionEnd": ""
    },
    {
      "subId": 80057,
      "mainId": 800,
      "order": 57,
      "descTextMapHash": 612864156,
      "finishCond": [
        {
          "KPGKDHAFHFE": "QUEST_CONTENT_FINISH_PLOT",
          "param": [
            80057,
            0
          ]
        }
      ],
      "guide": {
        "KPGKDHAFHFE": "QUEST_GUIDE_NPC",
        "param": [
          "1002"
        ],
        "guideScene": 3,
        "guideStyle": "QUEST_GUIDE_STYLE_TARGET"
      },
      "guideHint": {
        "param1": ""
      },
      "isRewind": true,
      "versionBegin": "",
      "versionEnd": ""
    },
    {
      "subId": 80058,
      "mainId": 800,
      "order": 58,
      "finishCond": [
        {
          "KPGKDHAFHFE": "QUEST_CONTENT_FINISH_PLOT",
          "param": [
            80058,
            0
          ]
        }
      ],
      "guide": {
        "KPGKDHAFHFE": "QUEST_GUIDE_NPC",
        "param": [
          "1002"
        ],
        "guideScene": 3,
        "guideStyle": "QUEST_GUIDE_STYLE_TARGET",
        "guideLayer": "QUEST_GUIDE_LAYER_SCENE"
      },
      "guideHint": {
        "param1": ""
      },
      "isRewind": true,
      "versionBegin": "",
      "versionEnd": ""
    },
    {
      "subId": 80059,
      "mainId": 800,
      "order": 59,
      "finishCond": [
        {
          "KPGKDHAFHFE": "QUEST_CONTENT_FINISH_PLOT",
          "param": [
            80059,
            0
          ]
        }
      ],
      "guide": {},
      "guideHint": {
        "param1": ""
      },
      "isRewind": true,
      "versionBegin": "",
      "versionEnd": ""
    },
    {
      "subId": 80060,
      "mainId": 800,
      "order": 60,
      "descTextMapHash": 2174229260,
      "stepDescTextMapHash": 3359606781,
      "finishCond": [
        {
          "KPGKDHAFHFE": "QUEST_CONTENT_QUEST_GLOBAL_VAR_NOT_EQUAL",
          "param": [
            10001,
            1
          ]
        },
        {
          "KPGKDHAFHFE": "QUEST_CONTENT_QUEST_GLOBAL_VAR_NOT_EQUAL",
          "param": [
            10002,
            1
          ]
        },
        {
          "KPGKDHAFHFE": "QUEST_CONTENT_QUEST_GLOBAL_VAR_NOT_EQUAL",
          "param": [
            10003,
            1
          ]
        }
      ],
      "guide": {
        "KPGKDHAFHFE": "QUEST_GUIDE_NPC",
        "param": [
          "1002"
        ],
        "guideScene": 3
      },
      "guideHint": {
        "param1": ""
      },
      "isRewind": true,
      "versionBegin": "",
      "versionEnd": ""
    },
    {
      "subId": 80061,
      "mainId": 800,
      "order": 61,
      "descTextMapHash": 1329507140,
      "stepDescTextMapHash": 3299993445,
      "finishCond": [
        {
          "KPGKDHAFHFE": "QUEST_CONTENT_ITEM_NUM_GREATER",
          "param": [
            100031,
            10
          ]
        },
        {
          "KPGKDHAFHFE": "QUEST_CONTENT_ITEM_NUM_EQUAL",
          "param": [
            100032,
            10
          ]
        },
        {
          "KPGKDHAFHFE": "QUEST_CONTENT_ITEM_NUM_LESS",
          "param": [
            100051,
            10
          ]
        }
      ],
      "guide": {
        "KPGKDHAFHFE": "QUEST_GUIDE_NPC",
        "param": [
          "1002"
        ],
        "guideScene": 3
      },
      "guideHint": {
        "param1": ""
      },
      "isRewind": true,
      "versionBegin": "",
      "versionEnd": ""
    },
    {
      "subId": 80062,
      "mainId": 800,
      "order": 62,
      "descTextMapHash": 2081585164,
      "stepDescTextMapHash": 3048724301,
      "finishCond": [
        {
          "KPGKDHAFHFE": "QUEST_CONTENT_QUEST_VAR_NOT_EQUAL",
          "param": [
            0,
            1
          ]
        },
        {
          "KPGKDHAFHFE": "QUEST_CONTENT_QUEST_VAR_NOT_EQUAL",
          "param": [
            1,
            1
          ]
        },
        {
          "KPGKDHAFHFE": "QUEST_CONTENT_QUEST_VAR_NOT_EQUAL",
          "param": [
            2,
            1
          ]
        }
      ],
      "guide": {
        "KPGKDHAFHFE": "QUEST_GUIDE_NPC",
        "param": [
          "1002"
        ],
        "guideScene": 3
      },
      "guideHint": {
        "param1": ""
      },
      "isRewind": true,
      "versionBegin": "",
      "versionEnd": ""
    },
    {
      "subId": 80063,
      "mainId": 800,
      "order": 63,
      "descTextMapHash": 657516156,
      "finishCond": [
        {
          "KPGKDHAFHFE": "QUEST_CONTENT_FINISH_PLOT",
          "param": [
            80063,
            0
          ]
        }
      ],
      "guide": {},
      "guideHint": {
        "param1": ""
      },
      "isRewind": true,
      "versionBegin": "",
      "versionEnd": ""
    },
    {
      "subId": 80064,
      "mainId": 800,
      "order": 64,
      "descTextMapHash": 4207218388,
      "finishCond": [
        {
          "KPGKDHAFHFE": "QUEST_CONTENT_FINISH_PLOT",
          "param": [
            80064,
            0
          ]
        }
      ],
      "guide": {},
      "guideHint": {
        "param1": ""
      },
      "isRewind": true,
      "versionBegin": "",
      "versionEnd": ""
    },
    {
      "subId": 80065,
      "mainId": 800,
      "order": 65,
      "descTextMapHash": 4070209508,
      "finishCond": [
        {
          "KPGKDHAFHFE": "QUEST_CONTENT_FINISH_PLOT",
          "param": [
            80065,
            0
          ]
        }
      ],
      "guide": {},
      "guideHint": {
        "param1": ""
      },
      "isRewind": true,
      "versionBegin": "",
      "versionEnd": ""
    },
    {
      "subId": 80066,
      "mainId": 800,
      "order": 66,
      "descTextMapHash": 4145322740,
      "finishCond": [
        {
          "KPGKDHAFHFE": "QUEST_CONTENT_FINISH_PLOT",
          "param": [
            80066,
            0
          ]
        }
      ],
      "guide": {
        "KPGKDHAFHFE": "QUEST_GUIDE_LOCATION",
        "autoGuide": "QUEST_GUIDE_AUTO_ENABLE",
        "param": [
          "Q48001Player"
        ],
        "guideScene": 3,
        "guideStyle": "QUEST_GUIDE_STYLE_POINT",
        "guideLayer": "QUEST_GUIDE_LAYER_SCENE"
      },
      "guideHint": {
        "param1": ""
      },
      "isRewind": true,
      "finishExec": [
        {
          "KPGKDHAFHFE": "QUEST_EXEC_NOTIFY_GROUP_LUA",
          "param": [
            "3",
            "133001244"
          ]
        }
      ],
      "versionBegin": "",
      "versionEnd": ""
    },
    {
      "subId": 80067,
      "mainId": 800,
      "order": 67,
      "descTextMapHash": 3789943428,
      "finishCond": [
        {
          "KPGKDHAFHFE": "QUEST_CONTENT_FINISH_PLOT",
          "param": [
            80067,
            0
          ]
        }
      ],
      "guide": {
        "KPGKDHAFHFE": "QUEST_GUIDE_LOCATION",
        "autoGuide": "QUEST_GUIDE_AUTO_ENABLE",
        "param": [
          "COOP101401Victoria01"
        ],
        "guideScene": 3,
        "guideStyle": "QUEST_GUIDE_STYLE_POINT",
        "guideLayer": "QUEST_GUIDE_LAYER_SCENE"
      },
      "guideHint": {
        "param1": ""
      },
      "isRewind": true,
      "finishExec": [
        {
          "KPGKDHAFHFE": "QUEST_EXEC_NOTIFY_GROUP_LUA",
          "param": [
            "3",
            "133004148"
          ]
        }
      ],
      "versionBegin": "",
      "versionEnd": ""
    },
    {
      "subId": 80068,
      "mainId": 800,
      "order": 68,
      "descTextMapHash": 3801641468,
      "finishCond": [
        {
          "KPGKDHAFHFE": "QUEST_CONTENT_FINISH_PLOT",
          "param": [
            80068,
            0
          ]
        }
      ],
      "guide": {
        "KPGKDHAFHFE": "QUEST_GUIDE_LOCATION",
        "autoGuide": "QUEST_GUIDE_AUTO_ENABLE",
        "param": [
          "COOP101401Victoria01"
        ],
        "guideScene": 3,
        "guideStyle": "QUEST_GUIDE_STYLE_POINT",
        "guideLayer": "QUEST_GUIDE_LAYER_SCENE"
      },
      "guideHint": {
        "param1": ""
      },
      "isRewind": true,
      "finishExec": [
        {
          "KPGKDHAFHFE": "QUEST_EXEC_NOTIFY_GROUP_LUA",
          "param": [
            "3",
            "133004149"
          ]
        }
      ],
      "versionBegin": "",
      "versionEnd": ""
    }
  ],
  "talks": [
    {
      "id": 80001,
      "beginWay": "TALK_BEGIN_MANUAL",
      "beginCondComb": "LOGIC_AND",
      "beginCond": [
        {
          "type": "QUEST_COND_STATE_EQUAL",
          "_param": [
            "80001",
            "2"
          ]
        }
      ],
      "priority": 5,
      "initDialog": 8000101,
      "npcId": [
        96
      ],
      "performCfg": "",
      "questId": 800,
      "assetIndex": 3401000114178210064,
      "prePerformCfg": ""
    },
    {
      "id": 80003,
      "beginWay": "TALK_BEGIN_MANUAL",
      "beginCondComb": "LOGIC_AND",
      "beginCond": [
        {
          "type": "QUEST_COND_STATE_EQUAL",
          "_param": [
            "80003",
            "2"
          ]
        }
      ],
      "priority": 5,
      "initDialog": 8000301,
      "npcId": [
        96
      ],
      "performCfg": "",
      "questId": 800,
      "assetIndex": 1700138510821827309,
      "prePerformCfg": ""
    },
    {
      "id": 80004,
      "beginWay": "TALK_BEGIN_MANUAL",
      "beginCond": [
        {
          "type": "QUEST_COND_SCENE_LEVEL_TAG_EQ",
          "_param": [
            "1"
          ]
        }
      ],
      "priority": 5,
      "initDialog": 8000401,
      "npcId": [
        1005
      ],
      "performCfg": "",
      "questId": 800,
      "assetIndex": 16893255163837039694,
      "prePerformCfg": ""
    },
    {
      "id": 80005,
      "beginWay": "TALK_BEGIN_MANUAL",
      "beginCond": [
        {
          "type": "QUEST_COND_SCENE_LEVEL_TAG_EQ",
          "_param": [
            "2"
          ]
        }
      ],
      "priority": 5,
      "initDialog": 8000501,
      "npcId": [
        1005
      ],
      "performCfg": "",
      "questId": 800,
      "assetIndex": 13486083156174137284,
      "prePerformCfg": ""
    },
    {
      "id": 80006,
      "beginWay": "TALK_BEGIN_MANUAL",
      "beginCondComb": "LOGIC_AND",
      "beginCond": [
        {
          "type": "QUEST_COND_STATE_EQUAL",
          "_param": [
            "80013",
            "2"
          ]
        },
        {
          "type": "QUEST_COND_CITY_LEVEL_EQUAL_GREATER",
          "_param": [
            "2",
            "3"
          ]
        }
      ],
      "initDialog": 8000601,
      "npcId": [
        1005
      ],
      "performCfg": "",
      "questId": 800,
      "assetIndex": 1249466748075850275,
      "prePerformCfg": ""
    },
    {
      "id": 80007,
      "beginWay": "TALK_BEGIN_MANUAL",
      "beginCondComb": "LOGIC_OR",
      "beginCond": [
        {
          "type": "QUEST_COND_STATE_EQUAL",
          "_param": [
            "80014",
            "2"
          ]
        },
        {
          "type": "QUEST_COND_STATE_EQUAL",
          "_param": [
            "80015",
            "2"
          ]
        }
      ],
      "priority": 5,
      "initDialog": 8000701,
      "npcId": [
        1005
      ],
      "performCfg": "QuestDialogue/Test/Q80007",
      "questId": 800,
      "assetIndex": 3395167326137291190,
      "prePerformCfg": "",
      "stayFreeStyle": true
    },
    {
      "id": 80008,
      "beginWay": "TALK_BEGIN_MANUAL",
      "beginCond": [
        {
          "type": "QUEST_COND_STATE_EQUAL",
          "_param": [
            "80016",
            "2"
          ]
        }
      ],
      "priority": 5,
      "initDialog": 8000801,
      "npcId": [
        1005
      ],
      "performCfg": "",
      "questId": 800,
      "assetIndex": 5442615365990039497,
      "prePerformCfg": "",
      "stayFreeStyle": true,
      "finishExec": [
        {
          "KPGKDHAFHFE": "TALK_EXEC_TRANS_SCENE_DUMMY_POINT",
          "param": [
            "1004",
            "Q370AmborInside"
          ]
        }
      ]
    },
    {
      "id": 80009,
      "beginWay": "TALK_BEGIN_MANUAL",
      "beginCond": [
        {
          "type": "QUEST_COND_STATE_EQUAL",
          "_param": [
            "80019",
            "2"
          ]
        }
      ],
      "priority": 5,
      "nextTalks": [
        80010,
        80011,
        80012,
        80013
      ],
      "nextRandomTalks": [
        80014,
        80015,
        80016,
        80017
      ],
      "EIJGGNNHMLI": 2,
      "showRandomTalkCount": 3,
      "initDialog": 8000901,
      "npcId": [
        1005
      ],
      "performCfg": "",
      "questId": 800,
      "assetIndex": 14066603732722764339,
      "prePerformCfg": ""
    },
    {
      "id": 80010,
      "beginCond": [
        {
          "type": "QUEST_COND_STATE_EQUAL",
          "_param": [
            "80019",
            "2"
          ]
        }
      ],
      "priority": 5,
      "nextRandomTalks": [
        80014,
        80015,
        80016,
        80017
      ],
      "EIJGGNNHMLI": 1,
      "initDialog": 8001001,
      "npcId": [
        1005
      ],
      "performCfg": "",
      "questId": 800,
      "assetIndex": 9605192458323301465,
      "prePerformCfg": ""
    },
    {
      "id": 80011,
      "beginCond": [
        {
          "type": "QUEST_COND_STATE_EQUAL",
          "_param": [
            "80019",
            "2"
          ]
        }
      ],
      "priority": 5,
      "nextRandomTalks": [
        80018,
        80019,
        80020,
        80021
      ],
      "EIJGGNNHMLI": 1,
      "initDialog": 8001101,
      "npcId": [
        1005
      ],
      "performCfg": "",
      "questId": 800,
      "assetIndex": 12235928677482724845,
      "prePerformCfg": ""
    },
    {
      "id": 80012,
      "beginCond": [
        {
          "type": "QUEST_COND_STATE_EQUAL",
          "_param": [
            "80019",
            "2"
          ]
        }
      ],
      "priority": 5,
      "nextRandomTalks": [
        80014,
        80015,
        80016,
        80017
      ],
      "EIJGGNNHMLI": 2,
      "initDialog": 8001201,
      "npcId": [
        1005
      ],
      "performCfg": "",
      "questId": 800,
      "assetIndex": 3878621897551093851,
      "prePerformCfg": ""
    },
    {
      "id": 80013,
      "beginCond": [
        {
          "type": "QUEST_COND_STATE_EQUAL",
          "_param": [
            "80019",
            "2"
          ]
        }
      ],
      "priority": 5,
      "nextRandomTalks": [
        80018,
        80019,
        80020,
        80021
      ],
      "EIJGGNNHMLI": 2,
      "initDialog": 8001301,
      "npcId": [
        1005
      ],
      "performCfg": "",
      "questId": 800,
      "assetIndex": 16474811718917195837,
      "prePerformCfg": ""
    },
    {
      "id": 80014,
      "beginCond": [
        {
          "type": "QUEST_COND_STATE_EQUAL",
          "_param": [
            "80019",
            "2"
          ]
        }
      ],
      "priority": 5,
      "initDialog": 8001401,
      "npcId": [
        1005
      ],
      "performCfg": "",
      "questId": 800,
      "assetIndex": 5358500023659083920,
      "prePerformCfg": ""
    },
    {
      "id": 80015,
      "beginCond": [
        {
          "type": "QUEST_COND_STATE_EQUAL",
          "_param": [
            "80019",
            "2"
          ]
        }
      ],
      "priority": 5,
      "initDialog": 8001501,
      "npcId": [
        1005
      ],
      "performCfg": "",
      "questId": 800,
      "assetIndex": 5977842859268343534,
      "prePerformCfg": ""
    },
    {
      "id": 80016,
      "beginCond": [
        {
          "type": "QUEST_COND_STATE_EQUAL",
          "_param": [
            "80019",
            "2"
          ]
        }
      ],
      "priority": 5,
      "initDialog": 8001601,
      "npcId": [
        1005
      ],
      "performCfg": "",
      "questId": 800,
      "assetIndex": 18384440272833527302,
      "prePerformCfg": ""
    },
    {
      "id": 80017,
      "beginCond": [
        {
          "type": "QUEST_COND_STATE_EQUAL",
          "_param": [
            "80019",
            "2"
          ]
        }
      ],
      "priority": 5,
      "initDialog": 8001701,
      "npcId": [
        1005
      ],
      "performCfg": "",
      "questId": 800,
      "assetIndex": 9898282854737113062,
      "prePerformCfg": "",
      "questIdleTalk": true
    },
    {
      "id": 80018,
      "beginCond": [
        {
          "type": "QUEST_COND_STATE_EQUAL",
          "_param": [
            "80019",
            "2"
          ]
        }
      ],
      "priority": 5,
      "nextTalks": [
        80009
      ],
      "initDialog": 8001401,
      "npcId": [
        1005
      ],
      "performCfg": "",
      "questId": 800,
      "assetIndex": 3842518149308941201,
      "prePerformCfg": ""
    },
    {
      "id": 80019,
      "beginCond": [
        {
          "type": "QUEST_COND_STATE_EQUAL",
          "_param": [
            "80019",
            "2"
          ]
        }
      ],
      "priority": 5,
      "nextTalks": [
        80009
      ],
      "initDialog": 8001501,
      "npcId": [
        1005
      ],
      "performCfg": "",
      "questId": 800,
      "assetIndex": 2863528350441128779,
      "prePerformCfg": ""
    },
    {
      "id": 80020,
      "beginCond": [
        {
          "type": "QUEST_COND_STATE_EQUAL",
          "_param": [
            "80019",
            "2"
          ]
        }
      ],
      "priority": 5,
      "nextTalks": [
        80009
      ],
      "initDialog": 8001601,
      "npcId": [
        1005
      ],
      "performCfg": "",
      "questId": 800,
      "assetIndex": 7451385211107035283,
      "prePerformCfg": ""
    },
    {
      "id": 80021,
      "beginCond": [
        {
          "type": "QUEST_COND_STATE_EQUAL",
          "_param": [
            "80019",
            "2"
          ]
        }
      ],
      "priority": 5,
      "nextTalks": [
        80009
      ],
      "initDialog": 8001701,
      "npcId": [
        1005
      ],
      "performCfg": "",
      "questId": 800,
      "assetIndex": 10141680230160725097,
      "prePerformCfg": ""
    },
    {
      "id": 80022,
      "beginWay": "TALK_BEGIN_MANUAL",
      "beginCondComb": "LOGIC_OR",
      "beginCond": [
        {
          "type": "QUEST_COND_STATE_EQUAL",
          "_param": [
            "80021",
            "2"
          ]
        },
        {
          "type": "QUEST_COND_STATE_EQUAL",
          "_param": [
            "80023"
          ]
        }
      ],
      "priority": 5,
      "initDialog": 8002201,
      "npcId": [
        1001
      ],
      "performCfg": "",
      "questId": 800,
      "assetIndex": 14621503639020482327,
      "prePerformCfg": ""
    },
    {
      "id": 80023,
      "beginWay": "TALK_BEGIN_MANUAL",
      "beginCond": [
        {
          "type": "QUEST_COND_STATE_EQUAL",
          "_param": [
            "80022",
            "2"
          ]
        },
        {
          "type": "QUEST_COND_STATE_EQUAL",
          "_param": [
            "80024"
          ]
        }
      ],
      "initDialog": 8002301,
      "npcId": [
        1001
      ],
      "performCfg": "",
      "questId": 800,
      "assetIndex": 521327751714108523,
      "prePerformCfg": ""
    },
    {
      "id": 80024,
      "beginWay": "TALK_BEGIN_MANUAL",
      "beginCond": [
        {
          "type": "QUEST_COND_STATE_EQUAL",
          "_param": [
            "80026",
            "2"
          ]
        }
      ],
      "initDialog": 8002401,
      "npcId": [
        4184
      ],
      "performCfg": "",
      "questId": 800,
      "assetIndex": 1055404698758015025,
      "prePerformCfg": ""
    },
    {
      "id": 80025,
      "beginWay": "TALK_BEGIN_AUTO",
      "beginCondComb": "LOGIC_OR",
      "beginCond": [
        {
          "type": "QUEST_COND_STATE_EQUAL",
          "_param": [
            "80032",
            "2"
          ]
        },
        {
          "type": "QUEST_COND_STATE_EQUAL",
          "_param": [
            "80029",
            "2"
          ]
        }
      ],
      "priority": 5,
      "initDialog": 8002501,
      "npcId": [
        1005
      ],
      "performCfg": "",
      "questId": 800,
      "assetIndex": 16073408997375471278,
      "prePerformCfg": ""
    },
    {
      "id": 80026,
      "beginWay": "TALK_BEGIN_MANUAL",
      "beginCond": [
        {
          "type": "QUEST_COND_STATE_EQUAL",
          "_param": [
            "80038",
            "2"
          ]
        }
      ],
      "initDialog": 8002601,
      "npcId": [
        1002
      ],
      "performCfg": "QuestDialogue/Test/Q80026",
      "questId": 800,
      "assetIndex": 8244524401552649895,
      "prePerformCfg": ""
    },
    {
      "id": 80042,
      "beginWay": "TALK_BEGIN_MANUAL",
      "beginCond": [
        {
          "type": "QUEST_COND_STATE_EQUAL",
          "_param": [
            "80042",
            "2"
          ]
        }
      ],
      "initDialog": 8004201,
      "npcId": [
        1005
      ],
      "performCfg": "QuestDialogue/WQ/800/Q80042",
      "questId": 800,
      "assetIndex": 1109803162894358841,
      "prePerformCfg": ""
    },
    {
      "id": 80043,
      "beginWay": "TALK_BEGIN_MANUAL",
      "beginCond": [
        {
          "type": "QUEST_COND_STATE_EQUAL",
          "_param": [
            "80044",
            "2"
          ]
        }
      ],
      "priority": 5,
      "initDialog": 8004301,
      "npcId": [
        1002
      ],
      "performCfg": "QuestDialogue/WQ/800/Q80043",
      "questId": 800,
      "assetIndex": 2279714098660732706,
      "prePerformCfg": ""
    },
    {
      "id": 80044,
      "beginWay": "TALK_BEGIN_MANUAL",
      "beginCond": [
        {
          "type": "QUEST_COND_STATE_EQUAL",
          "_param": [
            "80045",
            "2"
          ]
        }
      ],
      "initDialog": 8004401,
      "npcId": [
        1002
      ],
      "performCfg": "QuestDialogue/WQ/800/Q80044",
      "questId": 800,
      "assetIndex": 14564031142050206734,
      "prePerformCfg": ""
    },
    {
      "id": 80045,
      "beginWay": "TALK_BEGIN_MANUAL",
      "beginCond": [
        {
          "type": "QUEST_COND_STATE_EQUAL",
          "_param": [
            "80057",
            "2"
          ]
        }
      ],
      "priority": 5,
      "initDialog": 8004501,
      "npcId": [
        1002
      ],
      "performCfg": "",
      "heroTalk": "TALK_HERO_MAIN",
      "questId": 800,
      "assetIndex": 6613117722370239546,
      "prePerformCfg": ""
    },
    {
      "id": 80058,
      "beginWay": "TALK_BEGIN_MANUAL",
      "beginCond": [
        {
          "type": "QUEST_COND_STATE_EQUAL",
          "_param": [
            "80058",
            "2"
          ]
        }
      ],
      "priority": 5,
      "initDialog": 8005801,
      "npcId": [
        1002
      ],
      "performCfg": "QuestDialogue/WQ/800/Q80058",
      "heroTalk": "TALK_HERO_MAIN",
      "questId": 800,
      "assetIndex": 13291208491612304683,
      "prePerformCfg": "",
      "PLPFOOINAAJ": [
        "[3_340100190:3419.180,437.609,4863.551]"
      ]
    },
    {
      "id": 80059,
      "beginWay": "TALK_BEGIN_MANUAL",
      "beginCondComb": "LOGIC_AND",
      "beginCond": [
        {
          "type": "QUEST_COND_QUEST_GLOBAL_VAR_NOT_EQUAL",
          "_param": [
            "10001",
            "1"
          ]
        },
        {
          "type": "QUEST_COND_QUEST_GLOBAL_VAR_NOT_EQUAL",
          "_param": [
            "10002",
            "1"
          ]
        },
        {
          "type": "QUEST_COND_QUEST_GLOBAL_VAR_NOT_EQUAL",
          "_param": [
            "10003",
            "1"
          ]
        }
      ],
      "initDialog": 8005901,
      "npcId": [
        1002
      ],
      "performCfg": "",
      "questId": 800,
      "assetIndex": 915415277191811430,
      "prePerformCfg": ""
    },
    {
      "id": 80060,
      "beginWay": "TALK_BEGIN_MANUAL",
      "beginCondComb": "LOGIC_AND",
      "beginCond": [
        {
          "type": "QUEST_COND_ITEM_NUM_GREATER",
          "_param": [
            "100031",
            "10"
          ]
        },
        {
          "type": "QUEST_COND_ITEM_NUM_EQUAL",
          "_param": [
            "100032",
            "10"
          ]
        },
        {
          "type": "QUEST_COND_ITEM_NUM_LESS",
          "_param": [
            "100051",
            "10"
          ]
        }
      ],
      "initDialog": 8006001,
      "npcId": [
        1002
      ],
      "performCfg": "",
      "questId": 800,
      "assetIndex": 15393153213870526067,
      "prePerformCfg": ""
    },
    {
      "id": 80061,
      "beginWay": "TALK_BEGIN_MANUAL",
      "beginCondComb": "LOGIC_AND",
      "beginCond": [
        {
          "type": "QUEST_COND_QUEST_VAR_NOT_EQUAL",
          "_param": [
            "0",
            "1",
            "800"
          ]
        },
        {
          "type": "QUEST_COND_QUEST_VAR_NOT_EQUAL",
          "_param": [
            "1",
            "1",
            "800"
          ]
        },
        {
          "type": "QUEST_COND_QUEST_VAR_NOT_EQUAL",
          "_param": [
            "2",
            "1",
            "800"
          ]
        }
      ],
      "initDialog": 8006101,
      "npcId": [
        1002
      ],
      "performCfg": "",
      "questId": 800,
      "assetIndex": 5246772198823686070,
      "prePerformCfg": ""
    }
  ],
  "preloadLuaList": [
    5909385756826696338,
    14457059026087496718,
    3088369788188086520,
    2268650960672206304,
    5575916732172504491,
    3430865805864751876,
    15826018437060047327
  ],
  "forcePreloadLuaList": [
    2881082964723286611
  ],
  "freeStyleDic": {
    "1038": [
      0
    ]
  },
  "dialogList": [
    {
      "id": 8009901,
      "talkRole": {
        "type": "TALK_ROLE_NPC",
        "_id": "1005"
      },
      "talkContentTextMapHash": 868064146,
      "talkAssetPath": "",
      "talkAssetPathAlter": "",
      "talkAudioName": "",
      "actionBefore": "",
      "actionWhile": "",
      "actionAfter": "",
      "optionIcon": "",
      "iconPath": ""
    }
  ],
  "ACJNJHGDNFF": [
    {
      "id": 220055,
      "actionType": "DIRECT_USE"
    },
    {
      "id": 220069,
      "actionType": "JUMP_BAG"
    },
    {
      "id": 220019,
      "actionType": "DIRECT_USE"
    },
    {
      "id": 100215,
      "actionType": "JUMP_BAG"
    },
    {
      "id": 220026,
      "actionType": "DIRECT_USE"
    }
  ]
}