{
  "id": 997,
  "KPGKDHAFHFE": "WQ",
  "titleTextMapHash": 3127375953,
  "luaPath": "Actor/Quest/SQ997",
  "subQuests": [
    {
      "subId": 99701,
      "mainId": 997,
      "order": 1,
      "descTextMapHash": 951560047,
      "finishCond": [
        {
          "KPGKDHAFHFE": "QUEST_CONTENT_COMPLETE_TALK",
          "param": [
            99701,
            0
          ]
        }
      ],
      "guide": {},
      "guideHint": {
        "param1": ""
      },
      "finishParent": true,
      "versionBegin": "",
      "versionEnd": ""
    }
  ],
  "talks": [
    {
      "id": 99702,
      "beginWay": "TALK_BEGIN_MANUAL",
      "beginCond": [
        {
          "type": "QUEST_COND_STATE_EQUAL",
          "_param": [
            "99701",
            "2"
          ]
        }
      ],
      "priority": 5,
      "initDialog": 9970201,
      "npcId": [
        1587
      ],
      "performCfg": "",
      "questId": 997,
      "assetIndex": 8489502081707627933,
      "prePerformCfg": "",
      "lowPriority": true
    }
  ],
  "preloadLuaList": [
    4543246233805805157,
    5909385756826696338,
    3958618578976986035,
    5575916732172504491
  ]
}