[
  {
    "weight": 4
  },
  {
    "weight": 16,
    "speed": 1
  },
  {
    "DCNFGAGBCMP": 5
  },
  {
    "DCNFGAGBCMP": 1
  },
  {
    "weight": -1,
    "speed": -1
  },
  {
    "DCNFGAGBCMP": 1
  }
]