[
  {
    "isSelf": true
  },
  {
    "configID": 1
  },
  {
    "isSelf": true
  },
  {
    "configID": 3110003,
    "zoneType": "GcgZoneAssist",
    "order": 1
  },
  {
    "configID": 1
  },
  {
    "configID": 1
  }
]