{
  "luaDataPath": "",
  "isSimpleTalk": true,
  "startBlackKeepTime": 1.0,
  "entityBan": "",
  "disableNpcLod": true,
  "startFade": {
    "startFadeInDuration": 0.5,
    "startFadeOutDuration": 0.5
  },
  "endFade": {
    "startFadeOutDuration": 0.0
  },
  "actors": [
    {
      "alias": "Avatar",
      "visible": true,
      "bornPointName": "Q22015Talk2",
      "relativePosNpcAlias": "",
      "_bindMovingTargetKey": ""
    },
    {
      "configID": 3041,
      "alias": "3041",
      "visible": true,
      "bornPointName": "Q22015_shanhu",
      "relativePosNpcAlias": "",
      "_bindMovingTargetKey": ""
    },
    {
      "configID": 3042,
      "alias": "3042",
      "visible": true,
      "bornPointName": "Q22019tianye",
      "forceCreateDaily": true,
      "relativePosNpcAlias": "",
      "_bindMovingTargetKey": ""
    }
  ],
  "group": [
    [
      {
        "$type": "EFHODGEJOHJ",
        "type": "CAMERA_FOCUS",
        "delayTime": 0.30000001192092896,
        "duration": 0.10000000149011612,
        "targetNpcAlias": "",
        "PHGBNNGCJKJ": "",
        "NFILMKCFHEB": "",
        "BGPNGHDAECF": ""
      },
      {
        "$type": "MoleMole.Config.ConfigTimeProtectAction",
        "type": "TIME_PROTECT",
        "duration": 0.4000000059604645
      },
      {
        "$type": "MoleMole.Config.ConfigTeleportToAction",
        "type": "TELEPORT_TO",
        "aliasList": [
          "3042"
        ],
        "position": {
          "x": -3016.26611328125,
          "y": 220.3144073486328,
          "z": -4379.384765625
        },
        "forward": {
          "x": -1.841796875,
          "y": -0.0008697509765625,
          "z": -1.65478515625
        },
        "_posBindMovingTargetKey": "",
        "_forwardBindMovingTargetKey": ""
      }
    ],
    [
      {
        "$type": "MJFAIFFAGOF",
        "type": "DIALOG",
        "aliasList": [
          "3041"
        ],
        "dialogID": 220180501,
        "protectTime": 0.5
      }
    ],
    [
      {
        "$type": "MoleMole.Config.ConfigSimpleBlackScreenAction",
        "type": "SIMPLE_BLACK_SCREEN",
        "durationToBlack": 0.5,
        "durationKeepBlack": 3.0,
        "durationFromBlack": 0.5,
        "textMapID": "QUEST_Message_Q22018"
      },
      {
        "$type": "MJFAIFFAGOF",
        "type": "DIALOG_CLEAR",
        "aliasList": [
          "3041"
        ]
      }
    ],
    [
      {
        "$type": "MJFAIFFAGOF",
        "type": "DIALOG",
        "aliasList": [
          "3041"
        ],
        "dialogID": 220180502,
        "protectTime": 0.5
      },
      {
        "$type": "EDCHPJLDKIN",
        "type": "BODY_LANG",
        "aliasList": [
          "3041"
        ],
        "bodyLangParam": 1190,
        "forceDoFreeStyle": true,
        "canDoRepeatFreeStyle": false,
        "eventPatternSuiteKey": ""
      }
    ],
    [
      {
        "$type": "MJFAIFFAGOF",
        "type": "DIALOG",
        "aliasList": [
          "3041"
        ],
        "dialogID": 220180503,
        "protectTime": 0.5
      }
    ],
    [
      {
        "$type": "MJFAIFFAGOF",
        "type": "DIALOG",
        "aliasList": [
          "3041"
        ],
        "dialogID": 220180504,
        "protectTime": 0.5
      }
    ],
    [
      {
        "$type": "OBCDECFOOBC",
        "type": "DIALOG_SELECT",
        "delayTime": 0.4000000059604645,
        "aliasList": [
          "Avatar"
        ],
        "dialogIDList": [
          220180506,
          220180509
        ],
        "grpIDList": [
          1057066622,
          2704294041
        ],
        "useGrpId": true
      },
      {
        "$type": "MJFAIFFAGOF",
        "type": "DIALOG",
        "aliasList": [
          "3041"
        ],
        "dialogID": 220180505,
        "protectTime": 0.5
      }
    ],
    [
      {
        "$type": "MJFAIFFAGOF",
        "type": "DIALOG",
        "aliasList": [
          "3041"
        ],
        "dialogID": 220180507,
        "protectTime": 0.5
      },
      {
        "$type": "EDCHPJLDKIN",
        "type": "BODY_LANG",
        "aliasList": [
          "3041"
        ],
        "isContinue": true,
        "bodyLangParam": 1172,
        "forceDoFreeStyle": true,
        "canDoRepeatFreeStyle": false,
        "eventPatternSuiteKey": ""
      }
    ],
    [
      {
        "$type": "MJFAIFFAGOF",
        "type": "DIALOG",
        "aliasList": [
          "3041"
        ],
        "dialogID": 220180508,
        "protectTime": 0.5
      }
    ],
    [
      {
        "$type": "MJFAIFFAGOF",
        "type": "DIALOG",
        "aliasList": [
          "3041"
        ],
        "dialogID": 220180510,
        "protectTime": 0.5
      }
    ],
    [
      {
        "$type": "MJFAIFFAGOF",
        "type": "DIALOG",
        "aliasList": [
          "3041"
        ],
        "dialogID": 220180511,
        "protectTime": 0.5
      },
      {
        "$type": "EDCHPJLDKIN",
        "type": "BODY_LANG",
        "aliasList": [
          "3041"
        ],
        "bodyLangParam": 1190,
        "forceDoFreeStyle": true,
        "canDoRepeatFreeStyle": false,
        "eventPatternSuiteKey": ""
      }
    ],
    [
      {
        "$type": "MJFAIFFAGOF",
        "type": "DIALOG",
        "aliasList": [
          "3041"
        ],
        "dialogID": 220180512,
        "protectTime": 0.5
      }
    ],
    [
      {
        "$type": "MJFAIFFAGOF",
        "type": "DIALOG",
        "aliasList": [
          "3041"
        ],
        "dialogID": 220180513,
        "protectTime": 0.5
      }
    ],
    [
      {
        "$type": "OBCDECFOOBC",
        "type": "DIALOG_SELECT",
        "delayTime": 0.4000000059604645,
        "aliasList": [
          "Avatar"
        ],
        "dialogIDList": [
          220180515,
          220180516
        ],
        "grpIDList": [
          2704294046,
          2704294046
        ],
        "useGrpId": true
      },
      {
        "$type": "MJFAIFFAGOF",
        "type": "DIALOG",
        "aliasList": [
          "3041"
        ],
        "dialogID": 220180514,
        "protectTime": 0.5
      }
    ],
    [
      {
        "$type": "MJFAIFFAGOF",
        "type": "DIALOG",
        "aliasList": [
          "3041"
        ],
        "dialogID": 220180517,
        "protectTime": 0.5
      },
      {
        "$type": "EDCHPJLDKIN",
        "type": "BODY_LANG",
        "aliasList": [
          "3041"
        ],
        "bodyLangParam": 1172,
        "forceDoFreeStyle": true,
        "canDoRepeatFreeStyle": false,
        "eventPatternSuiteKey": ""
      }
    ],
    [
      {
        "$type": "OBCDECFOOBC",
        "type": "DIALOG_SELECT",
        "delayTime": 0.4000000059604645,
        "aliasList": [
          "Avatar"
        ],
        "dialogIDList": [
          220180519
        ],
        "grpIDList": [
          2704294048
        ],
        "useGrpId": true
      },
      {
        "$type": "MJFAIFFAGOF",
        "type": "DIALOG",
        "aliasList": [
          "3041"
        ],
        "dialogID": 220180518,
        "protectTime": 0.5
      }
    ],
    [
      {
        "$type": "MJFAIFFAGOF",
        "type": "DIALOG",
        "aliasList": [
          "3041"
        ],
        "dialogID": 220180520,
        "protectTime": 0.5
      }
    ],
    [
      {
        "$type": "MJFAIFFAGOF",
        "type": "DIALOG",
        "aliasList": [
          "3041"
        ],
        "dialogID": 220180521,
        "protectTime": 0.5
      }
    ],
    [
      {
        "$type": "OBCDECFOOBC",
        "type": "DIALOG_SELECT",
        "delayTime": 0.4000000059604645,
        "aliasList": [
          "Avatar"
        ],
        "dialogIDList": [
          220180523
        ],
        "grpIDList": [
          2704294072
        ],
        "useGrpId": true
      },
      {
        "$type": "MJFAIFFAGOF",
        "type": "DIALOG",
        "aliasList": [
          "3041"
        ],
        "dialogID": 220180522,
        "protectTime": 0.5
      }
    ],
    [
      {
        "$type": "MJFAIFFAGOF",
        "type": "DIALOG",
        "aliasList": [
          "3041"
        ],
        "dialogID": 220180524,
        "protectTime": 0.5
      }
    ],
    [
      {
        "$type": "MJFAIFFAGOF",
        "type": "DIALOG",
        "aliasList": [
          "3041"
        ],
        "dialogID": 220180525,
        "protectTime": 0.5
      }
    ],
    [
      {
        "$type": "MJFAIFFAGOF",
        "type": "DIALOG",
        "aliasList": [
          "3041"
        ],
        "dialogID": 220180526,
        "protectTime": 0.5
      },
      {
        "$type": "EDCHPJLDKIN",
        "type": "BODY_LANG",
        "aliasList": [
          "3041"
        ],
        "bodyLangParam": 1120,
        "forceDoFreeStyle": true,
        "canDoRepeatFreeStyle": false,
        "eventPatternSuiteKey": ""
      }
    ],
    [
      {
        "$type": "MJFAIFFAGOF",
        "type": "DIALOG",
        "aliasList": [
          "3041"
        ],
        "dialogID": 220180527,
        "protectTime": 0.5
      }
    ],
    [
      {
        "$type": "OBCDECFOOBC",
        "type": "DIALOG_SELECT",
        "delayTime": 0.4000000059604645,
        "aliasList": [
          "Avatar"
        ],
        "dialogIDList": [
          220180529,
          220180530
        ],
        "grpIDList": [
          2704294077,
          2704294077
        ],
        "useGrpId": true
      },
      {
        "$type": "MJFAIFFAGOF",
        "type": "DIALOG",
        "aliasList": [
          "3041"
        ],
        "dialogID": 220180528,
        "protectTime": 0.5
      }
    ],
    [
      {
        "$type": "MJFAIFFAGOF",
        "type": "DIALOG",
        "aliasList": [
          "3041"
        ],
        "dialogID": 220180531,
        "protectTime": 0.5
      },
      {
        "$type": "EDCHPJLDKIN",
        "type": "BODY_LANG",
        "aliasList": [
          "3041"
        ],
        "bodyLangParam": 1130,
        "forceDoFreeStyle": true,
        "canDoRepeatFreeStyle": false,
        "eventPatternSuiteKey": ""
      }
    ],
    [
      {
        "$type": "MJFAIFFAGOF",
        "type": "DIALOG",
        "aliasList": [
          "3041"
        ],
        "dialogID": 220180532,
        "protectTime": 0.5
      }
    ],
    [
      {
        "$type": "MJFAIFFAGOF",
        "type": "DIALOG",
        "aliasList": [
          "3041"
        ],
        "dialogID": 220180533,
        "protectTime": 0.5
      },
      {
        "$type": "EDCHPJLDKIN",
        "type": "BODY_LANG",
        "aliasList": [
          "3041"
        ],
        "isContinue": true,
        "bodyLangParam": 1173,
        "forceDoFreeStyle": true,
        "canDoRepeatFreeStyle": false,
        "eventPatternSuiteKey": ""
      }
    ],
    [
      {
        "$type": "MJFAIFFAGOF",
        "type": "DIALOG",
        "aliasList": [
          "3041"
        ],
        "dialogID": 220180534,
        "protectTime": 0.5
      }
    ],
    [
      {
        "$type": "MoleMole.Config.ConfigTimeProtectAction",
        "type": "TIME_PROTECT",
        "duration": 0.10000000149011612
      }
    ]
  ],
  "groupId": [
    {
      "grpId": 1057066615,
      "nextGrpId": 1057066616
    },
    {
      "index": 1,
      "grpId": 1057066616,
      "nextGrpId": 1057066617
    },
    {
      "index": 2,
      "grpId": 1057066617,
      "nextGrpId": 1057066618
    },
    {
      "index": 3,
      "grpId": 1057066618,
      "nextGrpId": 1057066619
    },
    {
      "index": 4,
      "grpId": 1057066619,
      "nextGrpId": 1057066620
    },
    {
      "index": 5,
      "grpId": 1057066620,
      "nextGrpId": 1057066621
    },
    {
      "index": 6,
      "grpId": 1057066621,
      "nextGrpId": 1057066622
    },
    {
      "index": 7,
      "grpId": 1057066622,
      "nextGrpId": 1057066623
    },
    {
      "index": 8,
      "grpId": 1057066623,
      "nextGrpId": 2704294041
    },
    {
      "index": 9,
      "grpId": 2704294041,
      "nextGrpId": 2704294042
    },
    {
      "index": 10,
      "grpId": 2704294042,
      "nextGrpId": 2704294043
    },
    {
      "index": 11,
      "grpId": 2704294043,
      "nextGrpId": 2704294044
    },
    {
      "index": 12,
      "grpId": 2704294044,
      "nextGrpId": 2704294045
    },
    {
      "index": 13,
      "grpId": 2704294045,
      "nextGrpId": 2704294046
    },
    {
      "index": 14,
      "grpId": 2704294046,
      "nextGrpId": 2704294047
    },
    {
      "index": 15,
      "grpId": 2704294047,
      "nextGrpId": 2704294048
    },
    {
      "index": 16,
      "grpId": 2704294048,
      "nextGrpId": 2704294049
    },
    {
      "index": 17,
      "grpId": 2704294049,
      "nextGrpId": 2704294050
    },
    {
      "index": 18,
      "grpId": 2704294050,
      "nextGrpId": 2704294072
    },
    {
      "index": 19,
      "grpId": 2704294072,
      "nextGrpId": 2704294073
    },
    {
      "index": 20,
      "grpId": 2704294073,
      "nextGrpId": 2704294074
    },
    {
      "index": 21,
      "grpId": 2704294074,
      "nextGrpId": 2704294075
    },
    {
      "index": 22,
      "grpId": 2704294075,
      "nextGrpId": 2704294076
    },
    {
      "index": 23,
      "grpId": 2704294076,
      "nextGrpId": 2704294077
    },
    {
      "index": 24,
      "grpId": 2704294077,
      "nextGrpId": 2704294078
    },
    {
      "index": 25,
      "grpId": 2704294078,
      "nextGrpId": 2704294079
    },
    {
      "index": 26,
      "grpId": 2704294079,
      "nextGrpId": 2704294080
    },
    {
      "index": 27,
      "grpId": 2704294080,
      "nextGrpId": 2704294081
    },
    {
      "index": 28,
      "grpId": 2704294081,
      "nextGrpId": 2704294103
    }
  ],
  "freeStyleDic": {
    "3041": [
      1190,
      1172,
      1120,
      1130,
      1173
    ],
    "3042": []
  }
}