{
  "id": 28,
  "sceneId": 3,
  "regions": [
    {
      "$type": "DOCIEEHHKHL",
      "id": 2801,
      "regionPolygons": [
        {
          "minArea": {
            "x": -1224.97119140625,
            "y": 162.60647583007812,
            "z": 2424.771484375
          },
          "maxArea": {
            "x": -1121.6014404296875,
            "y": 224.85336303710938,
            "z": 2604.133056640625
          },
          "roadPoints": [
            {
              "x": -1175.7528076171875,
              "y": 162.60647583007812,
              "z": 2590.975341796875
            },
            {
              "x": -1192.33203125,
              "y": 162.60647583007812,
              "z": 2604.133056640625
            },
            {
              "x": -1218.76025390625,
              "y": 162.60647583007812,
              "z": 2572.718994140625
            },
            {
              "x": -1224.97119140625,
              "y": 162.60647583007812,
              "z": 2509.583984375
            },
            {
              "x": -1221.5858154296875,
              "y": 162.60647583007812,
              "z": 2480.17919921875
            },
            {
              "x": -1196.2750244140625,
              "y": 162.60647583007812,
              "z": 2444.389892578125
            },
            {
              "x": -1195.7216796875,
              "y": 162.60647583007812,
              "z": 2439.174560546875
            },
            {
              "x": -1200.3135986328125,
              "y": 162.60647583007812,
              "z": 2426.14404296875
            },
            {
              "x": -1194.658935546875,
              "y": 162.60647583007812,
              "z": 2424.771484375
            },
            {
              "x": -1143.9632568359375,
              "y": 162.60647583007812,
              "z": 2429.015380859375
            },
            {
              "x": -1123.7239990234375,
              "y": 162.60647583007812,
              "z": 2441.047119140625
            },
            {
              "x": -1121.6014404296875,
              "y": 162.60647583007812,
              "z": 2455.549560546875
            }
          ]
        }
      ],
      "routePoints": [
        {
          "id": 28010001,
          "KPGKDHAFHFE": "REGION_ENTRANCE",
          "pos": {
            "x": -1190.5201416015625,
            "y": 216.28428649902344,
            "z": 2596.810546875
          },
          "condslogicType": "LOGIC_AND",
          "adjacencies": [
            28010002
          ],
          "routeRegionId": 4294967295,
          "routePointId": 4294967295
        }
      ],
      "isRoutePointsFullyConnected": true
    }
  ]
}