{
  "id": 38,
  "sceneId": 3,
  "regions": [
    {
      "$type": "DOCIEEHHKHL",
      "id": 3801,
      "regionPolygons": [
        {
          "minArea": {
            "x": 2939.238037109375,
            "y": 281.01953125,
            "z": 3589.83740234375
          },
          "maxArea": {
            "x": 3167.213134765625,
            "y": 364.220703125,
            "z": 3740.399658203125
          },
          "roadPoints": [
            {
              "x": 3127.755126953125,
              "y": 281.01953125,
              "z": 3732.591064453125
            },
            {
              "x": 3155.102294921875,
              "y": 281.01953125,
              "z": 3693.83203125
            },
            {
              "x": 3167.213134765625,
              "y": 281.01953125,
              "z": 3640.66259765625
            },
            {
              "x": 3105.435546875,
              "y": 281.01953125,
              "z": 3589.83740234375
            },
            {
              "x": 3036.372802734375,
              "y": 281.01953125,
              "z": 3595.012939453125
            },
            {
              "x": 2999.125244140625,
              "y": 281.01953125,
              "z": 3653.465576171875
            },
            {
              "x": 2991.1982421875,
              "y": 281.01953125,
              "z": 3675.563720703125
            },
            {
              "x": 3011.162109375,
              "y": 281.01953125,
              "z": 3683.6240234375
            },
            {
              "x": 3004.890625,
              "y": 281.01953125,
              "z": 3697.79443359375
            },
            {
              "x": 2939.238037109375,
              "y": 281.01953125,
              "z": 3687.26318359375
            },
            {
              "x": 3053.42431640625,
              "y": 281.01953125,
              "z": 3738.602294921875
            },
            {
              "x": 3130.321533203125,
              "y": 281.01953125,
              "z": 3740.399658203125
            }
          ]
        }
      ],
      "limitShapes": [
        {
          "pos": {
            "x": 3019.669921875,
            "y": 427.7993469238281,
            "z": 3601.733642578125
          },
          "rot": {
            "y": 57.337074279785156
          },
          "shape": {
            "$type": "EHOAKHCMJJG",
            "useHeight": true,
            "height": 25.0,
            "centerType": "Center",
            "width": 35.0,
            "length": 40.0
          }
        },
        {
          "pos": {
            "x": 3012.364013671875,
            "y": 387.5777282714844,
            "z": 3641.201416015625
          },
          "rot": {
            "y": 334.0867004394531
          },
          "shape": {
            "$type": "EHOAKHCMJJG",
            "useHeight": true,
            "height": 70.0,
            "centerType": "Center",
            "width": 35.0,
            "length": 90.0
          }
        }
      ],
      "routePoints": [
        {
          "id": 38010001,
          "KPGKDHAFHFE": "REGION_ENTRANCE",
          "pos": {
            "x": 3016.089111328125,
            "y": 442.45458984375,
            "z": 3588.975341796875
          },
          "condslogicType": "LOGIC_AND",
          "adjacencies": [
            38010002
          ],
          "routeRegionId": 4294967295,
          "routePointId": 4294967295
        }
      ],
      "isRoutePointsFullyConnected": true
    }
  ]
}