{
  "id": 19,
  "sceneId": 3,
  "regions": [
    {
      "$type": "DOCIEEHHKHL",
      "id": 1901,
      "regionPolygons": [
        {
          "minArea": {
            "x": -775.7724609375,
            "y": 95.9321517944336,
            "z": 2211.80322265625
          },
          "maxArea": {
            "x": -510.054443359375,
            "y": 213.30465698242188,
            "z": 2440.412841796875
          },
          "roadPoints": [
            {
              "x": -770.175537109375,
              "y": 95.9321517944336,
              "z": 2271.6767578125
            },
            {
              "x": -775.7724609375,
              "y": 95.9321517944336,
              "z": 2291.3974609375
            },
            {
              "x": -673.5428466796875,
              "y": 95.9321517944336,
              "z": 2335.410888671875
            },
            {
              "x": -696.7435302734375,
              "y": 95.9321517944336,
              "z": 2404.78564453125
            },
            {
              "x": -626.74951171875,
              "y": 95.9321517944336,
              "z": 2440.412841796875
            },
            {
              "x": -614.4957275390625,
              "y": 95.9321517944336,
              "z": 2420.358154296875
            },
            {
              "x": -623.6268920898438,
              "y": 95.9321517944336,
              "z": 2346.637451171875
            },
            {
              "x": -519.746826171875,
              "y": 95.9321517944336,
              "z": 2328.07666015625
            },
            {
              "x": -510.054443359375,
              "y": 95.9321517944336,
              "z": 2292.040771484375
            },
            {
              "x": -518.638427734375,
              "y": 95.9321517944336,
              "z": 2229.259765625
            },
            {
              "x": -578.1317749023438,
              "y": 95.9321517944336,
              "z": 2211.80322265625
            },
            {
              "x": -638.0377197265625,
              "y": 95.9321517944336,
              "z": 2216.61572265625
            },
            {
              "x": -734.052490234375,
              "y": 95.9321517944336,
              "z": 2267.083251953125
            }
          ]
        },
        {
          "minArea": {
            "x": -597.3944091796875,
            "y": 88.32791137695312,
            "z": 2319.20947265625
          },
          "maxArea": {
            "x": -478.2452087402344,
            "y": 171.54464721679688,
            "z": 2412.967529296875
          },
          "roadPoints": [
            {
              "x": -526.2052001953125,
              "y": 88.32791137695312,
              "z": 2319.20947265625
            },
            {
              "x": -597.3944091796875,
              "y": 88.32791137695312,
              "z": 2337.018798828125
            },
            {
              "x": -589.3654174804688,
              "y": 88.32791137695312,
              "z": 2380.86376953125
            },
            {
              "x": -554.9796752929688,
              "y": 88.32791137695312,
              "z": 2412.967529296875
            },
            {
              "x": -510.2510986328125,
              "y": 88.32791137695312,
              "z": 2412.967529296875
            },
            {
              "x": -478.2452087402344,
              "y": 88.32791137695312,
              "z": 2352.1806640625
            },
            {
              "x": -516.5183715820312,
              "y": 88.32791137695312,
              "z": 2326.640380859375
            }
          ]
        },
        {
          "minArea": {
            "x": -685.391845703125,
            "y": 156.56288146972656,
            "z": 2304.7568359375
          },
          "maxArea": {
            "x": -604.858642578125,
            "y": 212.3893280029297,
            "z": 2435.489990234375
          },
          "roadPoints": [
            {
              "x": -604.858642578125,
              "y": 156.56288146972656,
              "z": 2343.0048828125
            },
            {
              "x": -643.8375854492188,
              "y": 156.56288146972656,
              "z": 2313.371826171875
            },
            {
              "x": -658.0608520507812,
              "y": 156.56288146972656,
              "z": 2304.7568359375
            },
            {
              "x": -685.391845703125,
              "y": 156.56288146972656,
              "z": 2382.041015625
            },
            {
              "x": -650.4237670898438,
              "y": 156.56288146972656,
              "z": 2425.471435546875
            },
            {
              "x": -632.4933471679688,
              "y": 156.56288146972656,
              "z": 2435.489990234375
            },
            {
              "x": -611.1450805664062,
              "y": 156.56288146972656,
              "z": 2422.727783203125
            }
          ]
        }
      ],
      "routePoints": [
        {
          "id": 19010001,
          "KPGKDHAFHFE": "REGION_ENTRANCE",
          "pos": {
            "x": -761.9881591796875,
            "y": 160.4868927001953,
            "z": 2282.4912109375
          },
          "ODGMJMJBOEG": {
            "offset": {
              "y": 1.0
            },
            "NKHJCEPLNCA": true
          },
          "condslogicType": "LOGIC_AND",
          "adjacencies": [
            19010002
          ],
          "routeRegionId": 4294967295,
          "routePointId": 4294967295
        }
      ],
      "isRoutePointsFullyConnected": true
    }
  ]
}