{
  "talkId": 5900076,
  "KPGKDHAFHFE": "BLOSSOM",
  "dialogList": [
    {
      "id": 590007601,
      "nextDialogs": [
        590007602
      ],
      "talkRole": {
        "type": "TALK_ROLE_NPC",
        "_id": "4114"
      },
      "talkContentTextMapHash": 1950223418,
      "talkAssetPath": "",
      "talkAssetPathAlter": "",
      "talkAudioName": "",
      "actionBefore": "",
      "actionWhile": "",
      "actionAfter": "",
      "optionIcon": "",
      "iconPath": ""
    },
    {
      "id": 590007602,
      "talkRole": {
        "type": "TALK_ROLE_NPC",
        "_id": "4114"
      },
      "talkContentTextMapHash": 968315458,
      "talkAssetPath": "",
      "talkAssetPathAlter": "",
      "talkAudioName": "",
      "actionBefore": "",
      "actionWhile": "",
      "actionAfter": "TEST/BlossomTalkEnd",
      "optionIcon": "",
      "iconPath": ""
    }
  ]
}