{
  "talkId": 5900030,
  "KPGKDHAFHFE": "BLOSSOM",
  "dialogList": [
    {
      "id": 590003001,
      "nextDialogs": [
        590003002
      ],
      "talkRole": {
        "type": "TALK_ROLE_NPC",
        "_id": "3113"
      },
      "talkContentTextMapHash": 3834383154,
      "talkAssetPath": "",
      "talkAssetPathAlter": "",
      "talkAudioName": "",
      "actionBefore": "",
      "actionWhile": "",
      "actionAfter": "",
      "optionIcon": "",
      "iconPath": ""
    },
    {
      "id": 590003002,
      "nextDialogs": [
        590003003
      ],
      "talkRole": {
        "type": "TALK_ROLE_NPC",
        "_id": "3113"
      },
      "talkContentTextMapHash": 3834855074,
      "talkAssetPath": "",
      "talkAssetPathAlter": "",
      "talkAudioName": "",
      "actionBefore": "",
      "actionWhile": "",
      "actionAfter": "",
      "optionIcon": "",
      "iconPath": ""
    },
    {
      "id": 590003003,
      "talkRole": {
        "type": "TALK_ROLE_NPC",
        "_id": "3113"
      },
      "talkContentTextMapHash": 1026740466,
      "talkAssetPath": "",
      "talkAssetPathAlter": "",
      "talkAudioName": "",
      "actionBefore": "",
      "actionWhile": "",
      "actionAfter": "TEST/BlossomTalkEnd",
      "optionIcon": "",
      "iconPath": ""
    }
  ]
}