{
  "talkId": 5900023,
  "KPGKDHAFHFE": "BLOSSOM",
  "dialogList": [
    {
      "id": 590002301,
      "nextDialogs": [
        590002302
      ],
      "talkRole": {
        "type": "TALK_ROLE_NPC",
        "_id": "3113"
      },
      "talkContentTextMapHash": 3385514402,
      "talkAssetPath": "",
      "talkAssetPathAlter": "",
      "talkAudioName": "",
      "actionBefore": "",
      "actionWhile": "",
      "actionAfter": "",
      "optionIcon": "",
      "iconPath": ""
    },
    {
      "id": 590002302,
      "nextDialogs": [
        590002303
      ],
      "talkRole": {
        "type": "TALK_ROLE_NPC",
        "_id": "3113"
      },
      "talkContentTextMapHash": 1125045578,
      "talkAssetPath": "",
      "talkAssetPathAlter": "",
      "talkAudioName": "",
      "actionBefore": "",
      "actionWhile": "",
      "actionAfter": "",
      "optionIcon": "",
      "iconPath": ""
    },
    {
      "id": 590002303,
      "talkRole": {
        "type": "TALK_ROLE_NPC",
        "_id": "3113"
      },
      "talkContentTextMapHash": 3353448434,
      "talkAssetPath": "",
      "talkAssetPathAlter": "",
      "talkAudioName": "",
      "actionBefore": "",
      "actionWhile": "",
      "actionAfter": "TEST/BlossomTalkEnd",
      "optionIcon": "",
      "iconPath": ""
    }
  ]
}