{
  "talkId": 5900175,
  "KPGKDHAFHFE": "BLOSSOM",
  "dialogList": [
    {
      "id": 590017501,
      "nextDialogs": [
        590017502
      ],
      "talkRole": {
        "type": "TALK_ROLE_NPC",
        "_id": "5187"
      },
      "talkContentTextMapHash": 3266638658,
      "talkAssetPath": "",
      "talkAssetPathAlter": "",
      "talkAudioName": "",
      "actionBefore": "",
      "actionWhile": "",
      "actionAfter": "",
      "optionIcon": "",
      "iconPath": ""
    },
    {
      "id": 590017502,
      "talkRole": {
        "type": "TALK_ROLE_NPC",
        "_id": "5187"
      },
      "talkContentTextMapHash": 2584436426,
      "talkAssetPath": "",
      "talkAssetPathAlter": "",
      "talkAudioName": "",
      "actionBefore": "",
      "actionWhile": "",
      "actionAfter": "TEST/BlossomTalkEnd",
      "optionIcon": "",
      "iconPath": ""
    }
  ]
}