{
  "talkId": 5900016,
  "KPGKDHAFHFE": "BLOSSOM",
  "dialogList": [
    {
      "id": 590001601,
      "nextDialogs": [
        590001602
      ],
      "talkRole": {
        "type": "TALK_ROLE_NPC",
        "_id": "3079"
      },
      "talkContentTextMapHash": 3632636978,
      "talkAssetPath": "",
      "talkAssetPathAlter": "",
      "talkAudioName": "",
      "actionBefore": "",
      "actionWhile": "",
      "actionAfter": "",
      "optionIcon": "",
      "iconPath": ""
    },
    {
      "id": 590001602,
      "nextDialogs": [
        590001603
      ],
      "talkRole": {
        "type": "TALK_ROLE_NPC",
        "_id": "3079"
      },
      "talkContentTextMapHash": 138932818,
      "talkAssetPath": "",
      "talkAssetPathAlter": "",
      "talkAudioName": "",
      "actionBefore": "",
      "actionWhile": "",
      "actionAfter": "",
      "optionIcon": "",
      "iconPath": ""
    },
    {
      "id": 590001603,
      "talkRole": {
        "type": "TALK_ROLE_NPC",
        "_id": "3079"
      },
      "talkContentTextMapHash": 566165154,
      "talkAssetPath": "",
      "talkAssetPathAlter": "",
      "talkAudioName": "",
      "actionBefore": "",
      "actionWhile": "",
      "actionAfter": "TEST/BlossomTalkEnd",
      "optionIcon": "",
      "iconPath": ""
    }
  ]
}