{
  "talkId": 5900083,
  "KPGKDHAFHFE": "BLOSSOM",
  "dialogList": [
    {
      "id": 590008301,
      "nextDialogs": [
        590008302
      ],
      "talkRole": {
        "type": "TALK_ROLE_NPC",
        "_id": "4345"
      },
      "talkContentTextMapHash": 2027430802,
      "talkAssetPath": "",
      "talkAssetPathAlter": "",
      "talkAudioName": "",
      "actionBefore": "",
      "actionWhile": "",
      "actionAfter": "",
      "optionIcon": "",
      "iconPath": ""
    },
    {
      "id": 590008302,
      "nextDialogs": [
        590008303
      ],
      "talkRole": {
        "type": "TALK_ROLE_NPC",
        "_id": "4345"
      },
      "talkContentTextMapHash": 3517382450,
      "talkAssetPath": "",
      "talkAssetPathAlter": "",
      "talkAudioName": "",
      "actionBefore": "",
      "actionWhile": "",
      "actionAfter": "",
      "optionIcon": "",
      "iconPath": ""
    },
    {
      "id": 590008303,
      "talkRole": {
        "type": "TALK_ROLE_NPC",
        "_id": "4345"
      },
      "talkContentTextMapHash": 1164765978,
      "talkAssetPath": "",
      "talkAssetPathAlter": "",
      "talkAudioName": "",
      "actionBefore": "",
      "actionWhile": "",
      "actionAfter": "TEST/BlossomTalkEnd",
      "optionIcon": "",
      "iconPath": ""
    }
  ]
}