{
  "talkId": 5900082,
  "KPGKDHAFHFE": "BLOSSOM",
  "dialogList": [
    {
      "id": 590008201,
      "nextDialogs": [
        590008202
      ],
      "talkRole": {
        "type": "TALK_ROLE_NPC",
        "_id": "4345"
      },
      "talkContentTextMapHash": 1309445674,
      "talkAssetPath": "",
      "talkAssetPathAlter": "",
      "talkAudioName": "",
      "actionBefore": "",
      "actionWhile": "",
      "actionAfter": "",
      "optionIcon": "",
      "iconPath": ""
    },
    {
      "id": 590008202,
      "nextDialogs": [
        590008203
      ],
      "talkRole": {
        "type": "TALK_ROLE_NPC",
        "_id": "4345"
      },
      "talkContentTextMapHash": 3579911066,
      "talkAssetPath": "",
      "talkAssetPathAlter": "",
      "talkAudioName": "",
      "actionBefore": "",
      "actionWhile": "",
      "actionAfter": "",
      "optionIcon": "",
      "iconPath": ""
    },
    {
      "id": 590008203,
      "talkRole": {
        "type": "TALK_ROLE_NPC",
        "_id": "4345"
      },
      "talkContentTextMapHash": 3652992890,
      "talkAssetPath": "",
      "talkAssetPathAlter": "",
      "talkAudioName": "",
      "actionBefore": "",
      "actionWhile": "",
      "actionAfter": "TEST/BlossomTalkEnd",
      "optionIcon": "",
      "iconPath": ""
    }
  ]
}