{
  "talkId": 5900118,
  "KPGKDHAFHFE": "BLOSSOM",
  "dialogList": [
    {
      "id": 590011801,
      "nextDialogs": [
        590011802
      ],
      "talkRole": {
        "type": "TALK_ROLE_NPC",
        "_id": "4413"
      },
      "talkContentTextMapHash": 805035834,
      "talkAssetPath": "",
      "talkAssetPathAlter": "",
      "talkAudioName": "",
      "actionBefore": "",
      "actionWhile": "",
      "actionAfter": "",
      "optionIcon": "",
      "iconPath": ""
    },
    {
      "id": 590011802,
      "talkRole": {
        "type": "TALK_ROLE_NPC",
        "_id": "4413"
      },
      "talkContentTextMapHash": 3271585210,
      "talkAssetPath": "",
      "talkAssetPathAlter": "",
      "talkAudioName": "",
      "actionBefore": "",
      "actionWhile": "",
      "actionAfter": "TEST/BlossomTalkEnd",
      "optionIcon": "",
      "iconPath": ""
    }
  ]
}