{
  "talkId": 5900104,
  "KPGKDHAFHFE": "BLOSSOM",
  "dialogList": [
    {
      "id": 590010401,
      "nextDialogs": [
        590010402
      ],
      "talkRole": {
        "type": "TALK_ROLE_NPC",
        "_id": "4363"
      },
      "talkContentTextMapHash": 3555399122,
      "talkAssetPath": "",
      "talkAssetPathAlter": "",
      "talkAudioName": "",
      "actionBefore": "",
      "actionWhile": "",
      "actionAfter": "",
      "optionIcon": "",
      "iconPath": ""
    },
    {
      "id": 590010402,
      "nextDialogs": [
        590010403
      ],
      "talkRole": {
        "type": "TALK_ROLE_NPC",
        "_id": "4363"
      },
      "talkContentTextMapHash": 1414633154,
      "talkAssetPath": "",
      "talkAssetPathAlter": "",
      "talkAudioName": "",
      "actionBefore": "",
      "actionWhile": "",
      "actionAfter": "",
      "optionIcon": "",
      "iconPath": ""
    },
    {
      "id": 590010403,
      "talkRole": {
        "type": "TALK_ROLE_NPC",
        "_id": "4363"
      },
      "talkContentTextMapHash": 3683344466,
      "talkAssetPath": "",
      "talkAssetPathAlter": "",
      "talkAudioName": "",
      "actionBefore": "",
      "actionWhile": "",
      "actionAfter": "TEST/BlossomTalkEnd",
      "optionIcon": "",
      "iconPath": ""
    }
  ]
}