{
  "talkId": 5900147,
  "KPGKDHAFHFE": "BLOSSOM",
  "dialogList": [
    {
      "id": 590014701,
      "nextDialogs": [
        590014702
      ],
      "talkRole": {
        "type": "TALK_ROLE_NPC",
        "_id": "5129"
      },
      "talkContentTextMapHash": 1959270082,
      "talkAssetPath": "",
      "talkAssetPathAlter": "",
      "talkAudioName": "",
      "actionBefore": "",
      "actionWhile": "",
      "actionAfter": "",
      "optionIcon": "",
      "iconPath": ""
    },
    {
      "id": 590014702,
      "nextDialogs": [
        590014703
      ],
      "talkRole": {
        "type": "TALK_ROLE_NPC",
        "_id": "5129"
      },
      "talkContentTextMapHash": 3054080218,
      "talkAssetPath": "",
      "talkAssetPathAlter": "",
      "talkAudioName": "",
      "actionBefore": "",
      "actionWhile": "",
      "actionAfter": "",
      "optionIcon": "",
      "iconPath": ""
    },
    {
      "id": 590014703,
      "talkRole": {
        "type": "TALK_ROLE_NPC",
        "_id": "5129"
      },
      "talkContentTextMapHash": 3553120794,
      "talkAssetPath": "",
      "talkAssetPathAlter": "",
      "talkAudioName": "",
      "actionBefore": "",
      "actionWhile": "",
      "actionAfter": "TEST/BlossomTalkEnd",
      "optionIcon": "",
      "iconPath": ""
    }
  ]
}