{
  "talkId": 5900112,
  "KPGKDHAFHFE": "BLOSSOM",
  "dialogList": [
    {
      "id": 590011201,
      "nextDialogs": [
        590011202
      ],
      "talkRole": {
        "type": "TALK_ROLE_NPC",
        "_id": "4413"
      },
      "talkContentTextMapHash": 3078823426,
      "talkAssetPath": "",
      "talkAssetPathAlter": "",
      "talkAudioName": "",
      "actionBefore": "",
      "actionWhile": "",
      "actionAfter": "",
      "optionIcon": "",
      "iconPath": ""
    },
    {
      "id": 590011202,
      "talkRole": {
        "type": "TALK_ROLE_NPC",
        "_id": "4413"
      },
      "talkContentTextMapHash": 2327776530,
      "talkAssetPath": "",
      "talkAssetPathAlter": "",
      "talkAudioName": "",
      "actionBefore": "",
      "actionWhile": "",
      "actionAfter": "TEST/BlossomTalkEnd",
      "optionIcon": "",
      "iconPath": ""
    }
  ]
}