{
  "talkId": 5900072,
  "KPGKDHAFHFE": "BLOSSOM",
  "dialogList": [
    {
      "id": 590007201,
      "nextDialogs": [
        590007202
      ],
      "talkRole": {
        "type": "TALK_ROLE_NPC",
        "_id": "4114"
      },
      "talkContentTextMapHash": 1824250546,
      "talkAssetPath": "",
      "talkAssetPathAlter": "",
      "talkAudioName": "",
      "actionBefore": "",
      "actionWhile": "",
      "actionAfter": "",
      "optionIcon": "",
      "iconPath": ""
    },
    {
      "id": 590007202,
      "talkRole": {
        "type": "TALK_ROLE_NPC",
        "_id": "4114"
      },
      "talkContentTextMapHash": 1071665634,
      "talkAssetPath": "",
      "talkAssetPathAlter": "",
      "talkAudioName": "",
      "actionBefore": "",
      "actionWhile": "",
      "actionAfter": "TEST/BlossomTalkEnd",
      "optionIcon": "",
      "iconPath": ""
    }
  ]
}