{
  "talkId": 5900078,
  "KPGKDHAFHFE": "BLOSSOM",
  "dialogList": [
    {
      "id": 590007801,
      "nextDialogs": [
        590007802
      ],
      "talkRole": {
        "type": "TALK_ROLE_NPC",
        "_id": "4114"
      },
      "talkContentTextMapHash": 494394306,
      "talkAssetPath": "",
      "talkAssetPathAlter": "",
      "talkAudioName": "",
      "actionBefore": "",
      "actionWhile": "",
      "actionAfter": "",
      "optionIcon": "",
      "iconPath": ""
    },
    {
      "id": 590007802,
      "talkRole": {
        "type": "TALK_ROLE_NPC",
        "_id": "4114"
      },
      "talkContentTextMapHash": 2722836042,
      "talkAssetPath": "",
      "talkAssetPathAlter": "",
      "talkAudioName": "",
      "actionBefore": "",
      "actionWhile": "",
      "actionAfter": "TEST/BlossomTalkEnd",
      "optionIcon": "",
      "iconPath": ""
    }
  ]
}