{
  "talkId": 5900115,
  "KPGKDHAFHFE": "BLOSSOM",
  "dialogList": [
    {
      "id": 590011501,
      "nextDialogs": [
        590011502
      ],
      "talkRole": {
        "type": "TALK_ROLE_NPC",
        "_id": "4413"
      },
      "talkContentTextMapHash": 3560798474,
      "talkAssetPath": "",
      "talkAssetPathAlter": "",
      "talkAudioName": "",
      "actionBefore": "",
      "actionWhile": "",
      "actionAfter": "",
      "optionIcon": "",
      "iconPath": ""
    },
    {
      "id": 590011502,
      "talkRole": {
        "type": "TALK_ROLE_NPC",
        "_id": "4413"
      },
      "talkContentTextMapHash": 3685380394,
      "talkAssetPath": "",
      "talkAssetPathAlter": "",
      "talkAudioName": "",
      "actionBefore": "",
      "actionWhile": "",
      "actionAfter": "TEST/BlossomTalkEnd",
      "optionIcon": "",
      "iconPath": ""
    }
  ]
}