{
  "talkId": 5900031,
  "KPGKDHAFHFE": "BLOSSOM",
  "dialogList": [
    {
      "id": 590003101,
      "nextDialogs": [
        590003102
      ],
      "talkRole": {
        "type": "TALK_ROLE_NPC",
        "_id": "3113"
      },
      "talkContentTextMapHash": 1335344114,
      "talkAssetPath": "",
      "talkAssetPathAlter": "",
      "talkAudioName": "",
      "actionBefore": "",
      "actionWhile": "",
      "actionAfter": "",
      "optionIcon": "",
      "iconPath": ""
    },
    {
      "id": 590003102,
      "nextDialogs": [
        590003103
      ],
      "talkRole": {
        "type": "TALK_ROLE_NPC",
        "_id": "3113"
      },
      "talkContentTextMapHash": 1633268802,
      "talkAssetPath": "",
      "talkAssetPathAlter": "",
      "talkAudioName": "",
      "actionBefore": "",
      "actionWhile": "",
      "actionAfter": "",
      "optionIcon": "",
      "iconPath": ""
    },
    {
      "id": 590003103,
      "talkRole": {
        "type": "TALK_ROLE_NPC",
        "_id": "3113"
      },
      "talkContentTextMapHash": 1921635298,
      "talkAssetPath": "",
      "talkAssetPathAlter": "",
      "talkAudioName": "",
      "actionBefore": "",
      "actionWhile": "",
      "actionAfter": "TEST/BlossomTalkEnd",
      "optionIcon": "",
      "iconPath": ""
    }
  ]
}