{
  "talkId": 8153707,
  "KPGKDHAFHFE": "BLOSSOM",
  "dialogList": [
    {
      "id": 815370701,
      "nextDialogs": [
        815370702
      ],
      "talkRole": {
        "type": "TALK_ROLE_NPC",
        "_id": "1537"
      },
      "talkContentTextMapHash": 3102259655,
      "talkAssetPath": "",
      "talkAssetPathAlter": "",
      "talkAudioName": "",
      "actionBefore": "",
      "actionWhile": "",
      "actionAfter": "",
      "optionIcon": "",
      "iconPath": ""
    },
    {
      "id": 815370702,
      "nextDialogs": [
        815370703
      ],
      "talkRole": {
        "type": "TALK_ROLE_NPC",
        "_id": "1537"
      },
      "talkContentTextMapHash": 538914079,
      "talkAssetPath": "",
      "talkAssetPathAlter": "",
      "talkAudioName": "",
      "actionBefore": "",
      "actionWhile": "",
      "actionAfter": "",
      "optionIcon": "",
      "iconPath": ""
    },
    {
      "id": 815370703,
      "talkRole": {
        "type": "TALK_ROLE_NPC",
        "_id": "1537"
      },
      "talkContentTextMapHash": 3571009487,
      "talkAssetPath": "",
      "talkAssetPathAlter": "",
      "talkAudioName": "",
      "actionBefore": "",
      "actionWhile": "",
      "actionAfter": "TEST/BlossomTalkEnd",
      "optionIcon": "",
      "iconPath": ""
    }
  ]
}