{
  "talkId": 8153706,
  "KPGKDHAFHFE": "BLOSSOM",
  "dialogList": [
    {
      "id": 815370601,
      "nextDialogs": [
        815370602
      ],
      "talkRole": {
        "type": "TALK_ROLE_NPC",
        "_id": "1537"
      },
      "talkContentTextMapHash": 3898941407,
      "talkAssetPath": "",
      "talkAssetPathAlter": "",
      "talkAudioName": "",
      "actionBefore": "",
      "actionWhile": "",
      "actionAfter": "",
      "optionIcon": "",
      "iconPath": ""
    },
    {
      "id": 815370602,
      "nextDialogs": [
        815370603
      ],
      "talkRole": {
        "type": "TALK_ROLE_NPC",
        "_id": "1537"
      },
      "talkContentTextMapHash": 3540946935,
      "talkAssetPath": "",
      "talkAssetPathAlter": "",
      "talkAudioName": "",
      "actionBefore": "",
      "actionWhile": "",
      "actionAfter": "",
      "optionIcon": "",
      "iconPath": ""
    },
    {
      "id": 815370603,
      "talkRole": {
        "type": "TALK_ROLE_NPC",
        "_id": "1537"
      },
      "talkContentTextMapHash": 3491851591,
      "talkAssetPath": "",
      "talkAssetPathAlter": "",
      "talkAudioName": "",
      "actionBefore": "",
      "actionWhile": "",
      "actionAfter": "TEST/BlossomTalkEnd",
      "optionIcon": "",
      "iconPath": ""
    }
  ]
}