{
  "talkId": 8153708,
  "KPGKDHAFHFE": "BLOSSOM",
  "dialogList": [
    {
      "id": 815370801,
      "nextDialogs": [
        815370802
      ],
      "talkRole": {
        "type": "TALK_ROLE_NPC",
        "_id": "1537"
      },
      "talkContentTextMapHash": 234766415,
      "talkAssetPath": "",
      "talkAssetPathAlter": "",
      "talkAudioName": "",
      "actionBefore": "",
      "actionWhile": "",
      "actionAfter": "",
      "optionIcon": "",
      "iconPath": ""
    },
    {
      "id": 815370802,
      "nextDialogs": [
        815370803
      ],
      "talkRole": {
        "type": "TALK_ROLE_NPC",
        "_id": "1537"
      },
      "talkContentTextMapHash": 914922575,
      "talkAssetPath": "",
      "talkAssetPathAlter": "",
      "talkAudioName": "",
      "actionBefore": "",
      "actionWhile": "",
      "actionAfter": "",
      "optionIcon": "",
      "iconPath": ""
    },
    {
      "id": 815370803,
      "talkRole": {
        "type": "TALK_ROLE_NPC",
        "_id": "1537"
      },
      "talkContentTextMapHash": 1826826279,
      "talkAssetPath": "",
      "talkAssetPathAlter": "",
      "talkAudioName": "",
      "actionBefore": "",
      "actionWhile": "",
      "actionAfter": "TEST/BlossomTalkEnd",
      "optionIcon": "",
      "iconPath": ""
    }
  ]
}