{
  "talkId": 8162804,
  "KPGKDHAFHFE": "BLOSSOM",
  "dialogList": [
    {
      "id": 816280401,
      "nextDialogs": [
        816280402
      ],
      "talkRole": {
        "type": "TALK_ROLE_NPC",
        "_id": "1628"
      },
      "talkContentTextMapHash": 289385671,
      "talkAssetPath": "",
      "talkAssetPathAlter": "",
      "talkAudioName": "",
      "actionBefore": "",
      "actionWhile": "",
      "actionAfter": "",
      "optionIcon": "",
      "iconPath": ""
    },
    {
      "id": 816280402,
      "nextDialogs": [
        816280403
      ],
      "talkRole": {
        "type": "TALK_ROLE_NPC",
        "_id": "1628"
      },
      "talkContentTextMapHash": 573046367,
      "talkAssetPath": "",
      "talkAssetPathAlter": "",
      "talkAudioName": "",
      "actionBefore": "",
      "actionWhile": "",
      "actionAfter": "",
      "optionIcon": "",
      "iconPath": ""
    },
    {
      "id": 816280403,
      "nextDialogs": [
        816280404
      ],
      "talkRole": {
        "type": "TALK_ROLE_NPC",
        "_id": "1628"
      },
      "talkContentTextMapHash": 455234031,
      "talkAssetPath": "",
      "talkAssetPathAlter": "",
      "talkAudioName": "",
      "actionBefore": "",
      "actionWhile": "",
      "actionAfter": "",
      "optionIcon": "",
      "iconPath": ""
    },
    {
      "id": 816280404,
      "nextDialogs": [
        816280405
      ],
      "talkRole": {
        "type": "TALK_ROLE_NPC",
        "_id": "1628"
      },
      "talkContentTextMapHash": 497693359,
      "talkAssetPath": "",
      "talkAssetPathAlter": "",
      "talkAudioName": "",
      "actionBefore": "",
      "actionWhile": "",
      "actionAfter": "",
      "optionIcon": "",
      "iconPath": ""
    },
    {
      "id": 816280405,
      "talkRole": {
        "type": "TALK_ROLE_NPC",
        "_id": "1628"
      },
      "talkContentTextMapHash": 3931718415,
      "talkAssetPath": "",
      "talkAssetPathAlter": "",
      "talkAudioName": "",
      "actionBefore": "",
      "actionWhile": "",
      "actionAfter": "TEST/BlossomTalkEnd",
      "optionIcon": "",
      "iconPath": ""
    }
  ]
}