{
  "talkId": 8162805,
  "KPGKDHAFHFE": "BLOSSOM",
  "dialogList": [
    {
      "id": 816280501,
      "nextDialogs": [
        816280502
      ],
      "talkRole": {
        "type": "TALK_ROLE_NPC",
        "_id": "1628"
      },
      "talkContentTextMapHash": 3642792543,
      "talkAssetPath": "",
      "talkAssetPathAlter": "",
      "talkAudioName": "",
      "actionBefore": "",
      "actionWhile": "",
      "actionAfter": "",
      "optionIcon": "",
      "iconPath": ""
    },
    {
      "id": 816280502,
      "nextDialogs": [
        816280503
      ],
      "talkRole": {
        "type": "TALK_ROLE_NPC",
        "_id": "1628"
      },
      "talkContentTextMapHash": 2218645719,
      "talkAssetPath": "",
      "talkAssetPathAlter": "",
      "talkAudioName": "",
      "actionBefore": "",
      "actionWhile": "",
      "actionAfter": "",
      "optionIcon": "",
      "iconPath": ""
    },
    {
      "id": 816280503,
      "nextDialogs": [
        816280504
      ],
      "talkRole": {
        "type": "TALK_ROLE_NPC",
        "_id": "1628"
      },
      "talkContentTextMapHash": 75860855,
      "talkAssetPath": "",
      "talkAssetPathAlter": "",
      "talkAudioName": "",
      "actionBefore": "",
      "actionWhile": "",
      "actionAfter": "",
      "optionIcon": "",
      "iconPath": ""
    },
    {
      "id": 816280504,
      "talkRole": {
        "type": "TALK_ROLE_NPC",
        "_id": "1628"
      },
      "talkContentTextMapHash": 3811446599,
      "talkAssetPath": "",
      "talkAssetPathAlter": "",
      "talkAudioName": "",
      "actionBefore": "",
      "actionWhile": "",
      "actionAfter": "TEST/BlossomTalkEnd",
      "optionIcon": "",
      "iconPath": ""
    }
  ]
}