{
  "talkId": 8204803,
  "KPGKDHAFHFE": "BLOSSOM",
  "dialogList": [
    {
      "id": 820480301,
      "nextDialogs": [
        820480302
      ],
      "talkRole": {
        "type": "TALK_ROLE_NPC",
        "_id": "2048"
      },
      "talkContentTextMapHash": 2460626423,
      "talkAssetPath": "",
      "talkAssetPathAlter": "",
      "talkAudioName": "",
      "actionBefore": "",
      "actionWhile": "",
      "actionAfter": "",
      "optionIcon": "",
      "iconPath": ""
    },
    {
      "id": 820480302,
      "nextDialogs": [
        820480303
      ],
      "talkRole": {
        "type": "TALK_ROLE_NPC",
        "_id": "2048"
      },
      "talkContentTextMapHash": 3415309327,
      "talkAssetPath": "",
      "talkAssetPathAlter": "",
      "talkAudioName": "",
      "actionBefore": "",
      "actionWhile": "",
      "actionAfter": "",
      "optionIcon": "",
      "iconPath": ""
    },
    {
      "id": 820480303,
      "nextDialogs": [
        820480304
      ],
      "talkRole": {
        "type": "TALK_ROLE_NPC",
        "_id": "2048"
      },
      "talkContentTextMapHash": 2968112487,
      "talkAssetPath": "",
      "talkAssetPathAlter": "",
      "talkAudioName": "",
      "actionBefore": "",
      "actionWhile": "",
      "actionAfter": "",
      "optionIcon": "",
      "iconPath": ""
    },
    {
      "id": 820480304,
      "talkRole": {
        "type": "TALK_ROLE_NPC",
        "_id": "2048"
      },
      "talkContentTextMapHash": 1003549775,
      "talkAssetPath": "",
      "talkAssetPathAlter": "",
      "talkAudioName": "",
      "actionBefore": "",
      "actionWhile": "",
      "actionAfter": "TEST/BlossomTalkEnd",
      "optionIcon": "",
      "iconPath": ""
    }
  ]
}