{
  "talkId": 8243124,
  "KPGKDHAFHFE": "BLOSSOM",
  "dialogList": [
    {
      "id": 824312401,
      "nextDialogs": [
        824312402
      ],
      "talkRole": {
        "type": "TALK_ROLE_NPC",
        "_id": "2431"
      },
      "talkContentTextMapHash": 2879023879,
      "talkAssetPath": "",
      "talkAssetPathAlter": "",
      "talkAudioName": "",
      "actionBefore": "",
      "actionWhile": "",
      "actionAfter": "",
      "optionIcon": "",
      "iconPath": ""
    },
    {
      "id": 824312402,
      "nextDialogs": [
        824312403
      ],
      "talkRole": {
        "type": "TALK_ROLE_NPC",
        "_id": "2431"
      },
      "talkContentTextMapHash": 303612919,
      "talkAssetPath": "",
      "talkAssetPathAlter": "",
      "talkAudioName": "",
      "actionBefore": "",
      "actionWhile": "",
      "actionAfter": "",
      "optionIcon": "",
      "iconPath": ""
    },
    {
      "id": 824312403,
      "nextDialogs": [
        824312404
      ],
      "talkRole": {
        "type": "TALK_ROLE_NPC",
        "_id": "2431"
      },
      "talkContentTextMapHash": 955641599,
      "talkAssetPath": "",
      "talkAssetPathAlter": "",
      "talkAudioName": "",
      "actionBefore": "",
      "actionWhile": "",
      "actionAfter": "",
      "optionIcon": "",
      "iconPath": ""
    },
    {
      "id": 824312404,
      "nextDialogs": [
        824312405
      ],
      "talkRole": {
        "type": "TALK_ROLE_NPC",
        "_id": "2431"
      },
      "talkContentTextMapHash": 177821983,
      "talkAssetPath": "",
      "talkAssetPathAlter": "",
      "talkAudioName": "",
      "actionBefore": "",
      "actionWhile": "",
      "actionAfter": "",
      "optionIcon": "",
      "iconPath": ""
    },
    {
      "id": 824312405,
      "talkRole": {
        "type": "TALK_ROLE_NPC",
        "_id": "2431"
      },
      "talkContentTextMapHash": 619530591,
      "talkAssetPath": "",
      "talkAssetPathAlter": "",
      "talkAudioName": "",
      "actionBefore": "",
      "actionWhile": "",
      "actionAfter": "TEST/BlossomTalkEnd",
      "optionIcon": "",
      "iconPath": ""
    }
  ]
}