[
  {
    "propName": "Actor_MaxHPRatio",
    "overallMin": -0.9,
    "overallMax": 9,
    "limitTagMin": -0.9,
    "limitTagMax": 9
  },
  {
    "propName": "Actor_DefenceRatio",
    "overallMin": -0.9,
    "overallMax": 5,
    "limitTagMin": -0.9,
    "limitTagMax": 5
  },
  {
    "propName": "Actor_AttackRatio",
    "overallMin": -0.9,
    "overallMax": 9,
    "limitTagMin": -0.9,
    "limitTagMax": 9
  },
  {
    "propName": "Actor_CriticalDelta",
    "overallMin": -3,
    "overallMax": 3,
    "limitTagMin": -3,
    "limitTagMax": 3
  },
  {
    "propName": "Actor_CriticalExtraDelta",
    "overallMin": -3,
    "overallMax": 3,
    "limitTagMin": -3,
    "limitTagMax": 3
  },
  {
    "propName": "Actor_AntiCriticalDelta",
    "overallMin": -0.9,
    "overallMax": 1,
    "limitTagMin": -0.9,
    "limitTagMax": 1
  },
  {
    "propName": "Actor_AntiCriticalExtraDelta",
    "overallMin": -0.9,
    "overallMax": 1,
    "limitTagMin": -0.9,
    "limitTagMax": 1
  },
  {
    "propName": "Actor_CriticalHurtDelta",
    "overallMin": -0.5,
    "overallMax": 5,
    "limitTagMin": -3,
    "limitTagMax": 5
  },
  {
    "propName": "Actor_CriticalHurtExtraDelta",
    "overallMin": -0.5,
    "overallMax": 5,
    "limitTagMin": -3,
    "limitTagMax": 5
  },
  {
    "propName": "Actor_ChargeEfficiencyDelta",
    "overallMin": -0.9,
    "overallMax": 3,
    "limitTagMin": -3,
    "limitTagMax": 3
  },
  {
    "propName": "Actor_ChargeEfficiencyExtraDelta",
    "overallMin": -0.9,
    "overallMax": 3,
    "limitTagMin": -3,
    "limitTagMax": 3
  },
  {
    "propName": "Actor_AddHurtDelta",
    "overallMin": -0.9,
    "overallMax": 3,
    "limitTagMin": -0.9,
    "limitTagMax": 3
  },
  {
    "propName": "Actor_SubHurtDelta",
    "overallMin": -1.5,
    "overallMax": 1,
    "limitTagMin": -1.5,
    "limitTagMax": 1
  },
  {
    "propName": "Actor_HealAddDelta",
    "overallMin": -0.9,
    "overallMax": 3,
    "limitTagMin": -0.9,
    "limitTagMax": 3
  },
  {
    "propName": "Actor_HealedAddDelta",
    "overallMin": -0.9,
    "overallMax": 3,
    "limitTagMin": -0.9,
    "limitTagMax": 3
  },
  {
    "propName": "Actor_FireAddHurtDelta",
    "overallMin": -0.9,
    "overallMax": 3,
    "limitTagMin": -0.9,
    "limitTagMax": 3
  },
  {
    "propName": "Actor_FireAddHurtExtraDelta",
    "overallMin": -0.9,
    "overallMax": 3,
    "limitTagMin": -0.9,
    "limitTagMax": 3
  },
  {
    "propName": "Actor_ElecAddHurtDelta",
    "overallMin": -0.9,
    "overallMax": 3,
    "limitTagMin": -0.9,
    "limitTagMax": 3
  },
  {
    "propName": "Actor_ElecAddHurtExtraDelta",
    "overallMin": -0.9,
    "overallMax": 3,
    "limitTagMin": -0.9,
    "limitTagMax": 3
  },
  {
    "propName": "Actor_WaterAddHurtDelta",
    "overallMin": -0.9,
    "overallMax": 3,
    "limitTagMin": -0.9,
    "limitTagMax": 3
  },
  {
    "propName": "Actor_WaterAddHurtExtraDelta",
    "overallMin": -0.9,
    "overallMax": 3,
    "limitTagMin": -0.9,
    "limitTagMax": 3
  },
  {
    "propName": "Actor_GrassAddHurtDelta",
    "overallMin": -0.9,
    "overallMax": 3,
    "limitTagMin": -0.9,
    "limitTagMax": 3
  },
  {
    "propName": "Actor_GrassAddHurtExtraDelta",
    "overallMin": -0.9,
    "overallMax": 3,
    "limitTagMin": -0.9,
    "limitTagMax": 3
  },
  {
    "propName": "Actor_WindAddHurtDelta",
    "overallMin": -0.9,
    "overallMax": 3,
    "limitTagMin": -0.9,
    "limitTagMax": 3
  },
  {
    "propName": "Actor_WindAddHurtExtraDelta",
    "overallMin": -0.9,
    "overallMax": 3,
    "limitTagMin": -0.9,
    "limitTagMax": 3
  },
  {
    "propName": "Actor_IceAddHurtDelta",
    "overallMin": -0.9,
    "overallMax": 3,
    "limitTagMin": -0.9,
    "limitTagMax": 3
  },
  {
    "propName": "Actor_IceAddHurtExtraDelta",
    "overallMin": -0.9,
    "overallMax": 3,
    "limitTagMin": -0.9,
    "limitTagMax": 3
  },
  {
    "propName": "Actor_RockAddHurtDelta",
    "overallMin": -0.9,
    "overallMax": 3,
    "limitTagMin": -0.9,
    "limitTagMax": 3
  },
  {
    "propName": "Actor_RockAddHurtExtraDelta",
    "overallMin": -0.9,
    "overallMax": 3,
    "limitTagMin": -0.9,
    "limitTagMax": 3
  },
  {
    "propName": "Actor_PhysicalAddHurtDelta",
    "overallMin": -0.9,
    "overallMax": 3,
    "limitTagMin": -0.9,
    "limitTagMax": 3
  },
  {
    "propName": "Actor_PhysicalAddHurtExtraDelta",
    "overallMin": -0.9,
    "overallMax": 3,
    "limitTagMin": -0.9,
    "limitTagMax": 3
  },
  {
    "propName": "Actor_FireSubHurtDelta",
    "overallMin": -2,
    "overallMax": 100,
    "limitTagMin": -2,
    "limitTagMax": 100
  },
  {
    "propName": "Actor_FireSubHurtExtraDelta",
    "overallMin": -2,
    "overallMax": 3,
    "limitTagMin": -2,
    "limitTagMax": 3
  },
  {
    "propName": "Actor_ElecSubHurtDelta",
    "overallMin": -2,
    "overallMax": 100,
    "limitTagMin": -2,
    "limitTagMax": 100
  },
  {
    "propName": "Actor_ElecSubHurtExtraDelta",
    "overallMin": -2,
    "overallMax": 3,
    "limitTagMin": -2,
    "limitTagMax": 3
  },
  {
    "propName": "Actor_WaterSubHurtDelta",
    "overallMin": -2,
    "overallMax": 100,
    "limitTagMin": -2,
    "limitTagMax": 100
  },
  {
    "propName": "Actor_WaterSubHurtExtraDelta",
    "overallMin": -2,
    "overallMax": 3,
    "limitTagMin": -2,
    "limitTagMax": 3
  },
  {
    "propName": "Actor_GrassSubHurtDelta",
    "overallMin": -2,
    "overallMax": 100,
    "limitTagMin": -2,
    "limitTagMax": 100
  },
  {
    "propName": "Actor_GrassSubHurtExtraDelta",
    "overallMin": -2,
    "overallMax": 3,
    "limitTagMin": -2,
    "limitTagMax": 3
  },
  {
    "propName": "Actor_WindSubHurtDelta",
    "overallMin": -2,
    "overallMax": 100,
    "limitTagMin": -2,
    "limitTagMax": 100
  },
  {
    "propName": "Actor_WindSubHurtExtraDelta",
    "overallMin": -2,
    "overallMax": 3,
    "limitTagMin": -2,
    "limitTagMax": 3
  },
  {
    "propName": "Actor_IceSubHurtDelta",
    "overallMin": -2,
    "overallMax": 100,
    "limitTagMin": -2,
    "limitTagMax": 100
  },
  {
    "propName": "Actor_IceSubHurtExtraDelta",
    "overallMin": -2,
    "overallMax": 3,
    "limitTagMin": -2,
    "limitTagMax": 3
  },
  {
    "propName": "Actor_RockSubHurtDelta",
    "overallMin": -2,
    "overallMax": 100,
    "limitTagMin": -2,
    "limitTagMax": 100
  },
  {
    "propName": "Actor_RockSubHurtExtraDelta",
    "overallMin": -2,
    "overallMax": 3,
    "limitTagMin": -2,
    "limitTagMax": 3
  },
  {
    "propName": "Actor_PhysicalSubHurtDelta",
    "overallMin": -2,
    "overallMax": 100,
    "limitTagMin": -2,
    "limitTagMax": 100
  },
  {
    "propName": "Actor_PhysicalSubHurtExtraDelta",
    "overallMin": -2,
    "overallMax": 3,
    "limitTagMin": -2,
    "limitTagMax": 3
  },
  {
    "propName": "Actor_AddGravityScale",
    "overallMin": -2,
    "overallMax": 99,
    "limitTagMin": -2,
    "limitTagMax": 99
  },
  {
    "propName": "Actor_SkillCDMinusRatio",
    "overallMin": -5,
    "overallMax": 0.8,
    "limitTagMin": -2,
    "limitTagMax": 0.67
  },
  {
    "propName": "Actor_SkillCDMinusExtraRatio",
    "overallMin": -5,
    "overallMax": 0.8,
    "limitTagMin": -2,
    "limitTagMax": 0.67
  },
  {
    "propName": "Actor_ShieldCostMinusRatio",
    "overallMin": -5,
    "overallMax": 3,
    "limitTagMin": -2,
    "limitTagMax": 3
  },
  {
    "propName": "Actor_ShieldCostMinusExtraRatio",
    "overallMin": -5,
    "overallMax": 3,
    "limitTagMin": -2,
    "limitTagMax": 3
  },
  {
    "propName": "Entity_ChargeSpeedRatioDelta",
    "overallMin": -0.8,
    "overallMax": 10
  },
  {
    "propName": "Entity_MassRatio",
    "overallMax": 10000
  },
  {
    "propName": "Entity_WeightRatio",
    "overallMax": 10000
  },
  {
    "propName": "Animator_MoveSpeedRatio",
    "overallMin": -0.4,
    "overallMax": 0.4
  },
  {
    "propName": "Animator_AttackSpeedRatio",
    "overallMin": -0.4,
    "overallMax": 0.6
  },
  {
    "propName": "Animator_OverallSpeedRatio",
    "overallMin": -0.4,
    "overallMax": 0.4
  },
  {
    "propName": "Animator_OverallSpeedRatioMultiplied",
    "overallMin": -1,
    "overallMax": 1.4
  },
  {
    "propName": "Actor_EndureDelta"
  },
  {
    "propName": "Actor_HitHeadDmgRatio",
    "overallMin": -0.9,
    "overallMax": 3
  },
  {
    "propName": "Actor_BulletMoveSpeedRatio",
    "overallMin": -1,
    "overallMax": 10
  }
]