[
  {
    "id": 1,
    "scheduleId": 5022001,
    "challengeWatcherId": 1502201,
    "dungeonShowContentType": "MIST_TRIAL_SYNC_PROGRESS",
    "showParam": [
      ""
    ],
    "progressFormatTextMapHash": 1388012027,
    "hintFormatTextMapHash": 1138911760
  },
  {
    "id": 2,
    "scheduleId": 5022001,
    "challengeWatcherId": 1502202,
    "dungeonShowContentType": "MIST_TRIAL_SYNC_STAT_VALUE",
    "showParam": [
      "1"
    ],
    "progressFormatTextMapHash": 2386555291,
    "hintFormatTextMapHash": 4037566904
  },
  {
    "id": 3,
    "scheduleId": 5022001,
    "challengeWatcherId": 1502205,
    "dungeonShowContentType": "MIST_TRIAL_SYNC_PROGRESS",
    "showParam": [
      ""
    ],
    "progressFormatTextMapHash": 4280201395,
    "hintFormatTextMapHash": 3901054352
  },
  {
    "id": 4,
    "scheduleId": 5022001,
    "challengeWatcherId": 1502204,
    "dungeonShowContentType": "MIST_TRIAL_SYNC_STAT_VALUE",
    "showParam": [
      "2"
    ],
    "progressFormatTextMapHash": 711886659,
    "hintFormatTextMapHash": 4107336664
  },
  {
    "id": 5,
    "scheduleId": 5022001,
    "challengeWatcherId": 1502203,
    "dungeonShowContentType": "MIST_TRIAL_SYNC_CHALLENGE_LEFT_TIME",
    "showParam": [
      "999"
    ],
    "progressFormatTextMapHash": 1084281683,
    "hintFormatTextMapHash": 763582552
  },
  {
    "id": 6,
    "scheduleId": 5022001,
    "challengeWatcherId": 1502206,
    "dungeonShowContentType": "MIST_TRIAL_SYNC_PROGRESS",
    "showParam": [
      ""
    ],
    "progressFormatTextMapHash": 2947008843,
    "hintFormatTextMapHash": 4216307224
  },
  {
    "id": 7,
    "scheduleId": 5022001,
    "challengeWatcherId": 1502207,
    "dungeonShowContentType": "MIST_TRIAL_SYNC_STAT_VALUE",
    "showParam": [
      "4"
    ],
    "progressFormatTextMapHash": 3431518939,
    "hintFormatTextMapHash": 3091706624
  },
  {
    "id": 8,
    "scheduleId": 5022001,
    "challengeWatcherId": 1502209,
    "dungeonShowContentType": "MIST_TRIAL_SYNC_PROGRESS",
    "showParam": [
      ""
    ],
    "progressFormatTextMapHash": 724210587,
    "hintFormatTextMapHash": 1352667672
  },
  {
    "id": 9,
    "scheduleId": 5022001,
    "challengeWatcherId": 1502210,
    "dungeonShowContentType": "MIST_TRIAL_SYNC_PROGRESS",
    "showParam": [
      ""
    ],
    "progressFormatTextMapHash": 2803719531,
    "hintFormatTextMapHash": 253920776
  },
  {
    "id": 10,
    "scheduleId": 5022001,
    "challengeWatcherId": 1502208,
    "dungeonShowContentType": "MIST_TRIAL_SYNC_CHALLENGE_LEFT_TIME",
    "showParam": [
      "999"
    ],
    "progressFormatTextMapHash": 2870813139,
    "hintFormatTextMapHash": 2713457840
  },
  {
    "id": 11,
    "scheduleId": 5022001,
    "challengeWatcherId": 1502211,
    "dungeonShowContentType": "MIST_TRIAL_SYNC_PROGRESS",
    "showParam": [
      ""
    ],
    "progressFormatTextMapHash": 2358002091,
    "hintFormatTextMapHash": 1899547016
  },
  {
    "id": 12,
    "scheduleId": 5022001,
    "challengeWatcherId": 1502212,
    "dungeonShowContentType": "MIST_TRIAL_SYNC_STAT_VALUE",
    "showParam": [
      "7"
    ],
    "progressFormatTextMapHash": 2130638195,
    "hintFormatTextMapHash": 2015686360
  },
  {
    "id": 13,
    "scheduleId": 5022001,
    "challengeWatcherId": 1502215,
    "dungeonShowContentType": "MIST_TRIAL_SYNC_PROGRESS",
    "showParam": [
      ""
    ],
    "progressFormatTextMapHash": 3784467715,
    "hintFormatTextMapHash": 3677752384
  },
  {
    "id": 14,
    "scheduleId": 5022001,
    "challengeWatcherId": 1502214,
    "dungeonShowContentType": "MIST_TRIAL_SYNC_PROGRESS",
    "showParam": [
      ""
    ],
    "progressFormatTextMapHash": 260191163,
    "hintFormatTextMapHash": 246476240
  },
  {
    "id": 15,
    "scheduleId": 5022001,
    "challengeWatcherId": 1502213,
    "dungeonShowContentType": "MIST_TRIAL_SYNC_CHALLENGE_LEFT_TIME",
    "showParam": [
      "999"
    ],
    "progressFormatTextMapHash": 2229289011,
    "hintFormatTextMapHash": 4166539696
  },
  {
    "id": 16,
    "scheduleId": 5022001,
    "challengeWatcherId": 1502216,
    "dungeonShowContentType": "MIST_TRIAL_SYNC_PROGRESS",
    "showParam": [
      ""
    ],
    "progressFormatTextMapHash": 4233613787,
    "hintFormatTextMapHash": 2694261656
  },
  {
    "id": 17,
    "scheduleId": 5022001,
    "challengeWatcherId": 1502217,
    "dungeonShowContentType": "MIST_TRIAL_SYNC_STAT_VALUE",
    "showParam": [
      "10"
    ],
    "progressFormatTextMapHash": 2105344019,
    "hintFormatTextMapHash": 3466202432
  },
  {
    "id": 18,
    "scheduleId": 5022001,
    "challengeWatcherId": 1502220,
    "dungeonShowContentType": "MIST_TRIAL_SYNC_PROGRESS",
    "showParam": [
      ""
    ],
    "progressFormatTextMapHash": 2258656963,
    "hintFormatTextMapHash": 1459119104
  },
  {
    "id": 19,
    "scheduleId": 5022001,
    "challengeWatcherId": 1502219,
    "dungeonShowContentType": "MIST_TRIAL_SYNC_STAT_VALUE",
    "showParam": [
      "11"
    ],
    "progressFormatTextMapHash": 2655980555,
    "hintFormatTextMapHash": 3410488256
  },
  {
    "id": 20,
    "scheduleId": 5022001,
    "challengeWatcherId": 1502218,
    "dungeonShowContentType": "MIST_TRIAL_SYNC_CHALLENGE_LEFT_TIME",
    "showParam": [
      "999"
    ],
    "progressFormatTextMapHash": 1989492739,
    "hintFormatTextMapHash": 2858786328
  },
  {
    "id": 21,
    "scheduleId": 5022001,
    "challengeWatcherId": 1502221,
    "dungeonShowContentType": "MIST_TRIAL_SYNC_PROGRESS",
    "showParam": [
      ""
    ],
    "progressFormatTextMapHash": 483256795,
    "hintFormatTextMapHash": 3435420568
  },
  {
    "id": 22,
    "scheduleId": 5022001,
    "challengeWatcherId": 1502222,
    "dungeonShowContentType": "MIST_TRIAL_SYNC_STAT_VALUE",
    "showParam": [
      "12"
    ],
    "progressFormatTextMapHash": 4112027339,
    "hintFormatTextMapHash": 697990144
  },
  {
    "id": 23,
    "scheduleId": 5022001,
    "challengeWatcherId": 1502225,
    "dungeonShowContentType": "MIST_TRIAL_SYNC_PROGRESS",
    "showParam": [
      ""
    ],
    "progressFormatTextMapHash": 1946937723,
    "hintFormatTextMapHash": 631292736
  },
  {
    "id": 24,
    "scheduleId": 5022001,
    "challengeWatcherId": 1502224,
    "dungeonShowContentType": "MIST_TRIAL_SYNC_STAT_VALUE",
    "showParam": [
      "13"
    ],
    "progressFormatTextMapHash": 3207746451,
    "hintFormatTextMapHash": 814850680
  },
  {
    "id": 25,
    "scheduleId": 5022001,
    "challengeWatcherId": 1502223,
    "dungeonShowContentType": "MIST_TRIAL_SYNC_CHALLENGE_LEFT_TIME",
    "showParam": [
      "999"
    ],
    "progressFormatTextMapHash": 1373554691,
    "hintFormatTextMapHash": 1645887744
  },
  {
    "id": 26,
    "scheduleId": 5022001,
    "challengeWatcherId": 1502226,
    "dungeonShowContentType": "MIST_TRIAL_SYNC_PROGRESS",
    "showParam": [
      ""
    ],
    "progressFormatTextMapHash": 2926068547,
    "hintFormatTextMapHash": 899427848
  },
  {
    "id": 27,
    "scheduleId": 5022001,
    "challengeWatcherId": 1502227,
    "dungeonShowContentType": "MIST_TRIAL_SYNC_STAT_VALUE",
    "showParam": [
      "15"
    ],
    "progressFormatTextMapHash": 28003187,
    "hintFormatTextMapHash": 2718120200
  },
  {
    "id": 28,
    "scheduleId": 5022001,
    "challengeWatcherId": 1502230,
    "dungeonShowContentType": "MIST_TRIAL_SYNC_PROGRESS",
    "showParam": [
      ""
    ],
    "progressFormatTextMapHash": 97134331,
    "hintFormatTextMapHash": 1852102936
  },
  {
    "id": 29,
    "scheduleId": 5022001,
    "challengeWatcherId": 1502229,
    "dungeonShowContentType": "MIST_TRIAL_SYNC_STAT_VALUE",
    "showParam": [
      "17"
    ],
    "progressFormatTextMapHash": 1201207971,
    "hintFormatTextMapHash": 3099213584
  },
  {
    "id": 30,
    "scheduleId": 5022001,
    "challengeWatcherId": 1502228,
    "dungeonShowContentType": "MIST_TRIAL_SYNC_CHALLENGE_LEFT_TIME",
    "showParam": [
      "999"
    ],
    "progressFormatTextMapHash": 2321295451,
    "hintFormatTextMapHash": 2057004976
  },
  {
    "id": 31,
    "scheduleId": 5054001,
    "challengeWatcherId": 1505401,
    "dungeonShowContentType": "MIST_TRIAL_SYNC_PROGRESS",
    "showParam": [
      ""
    ],
    "progressFormatTextMapHash": 305394003,
    "hintFormatTextMapHash": 3176670904
  },
  {
    "id": 32,
    "scheduleId": 5054001,
    "challengeWatcherId": 1505402,
    "dungeonShowContentType": "MIST_TRIAL_SYNC_PROGRESS",
    "showParam": [
      ""
    ],
    "progressFormatTextMapHash": 1305534707,
    "isNeedShowProgress": true,
    "hintFormatTextMapHash": 1125014392
  },
  {
    "id": 33,
    "scheduleId": 5054001,
    "challengeWatcherId": 1505403,
    "dungeonShowContentType": "MIST_TRIAL_SYNC_PROGRESS",
    "showParam": [
      ""
    ],
    "progressFormatTextMapHash": 1385751611,
    "hintFormatTextMapHash": 2282459768
  },
  {
    "id": 34,
    "scheduleId": 5054001,
    "challengeWatcherId": 1505404,
    "dungeonShowContentType": "MIST_TRIAL_SYNC_PROGRESS",
    "showParam": [
      ""
    ],
    "progressFormatTextMapHash": 2481455907,
    "isNeedShowProgress": true,
    "hintFormatTextMapHash": 2499215368
  },
  {
    "id": 35,
    "scheduleId": 5054001,
    "challengeWatcherId": 1505405,
    "dungeonShowContentType": "MIST_TRIAL_SYNC_PROGRESS",
    "showParam": [
      ""
    ],
    "progressFormatTextMapHash": 2319136307,
    "hintFormatTextMapHash": 2141964352
  },
  {
    "id": 36,
    "scheduleId": 5054001,
    "challengeWatcherId": 1505406,
    "dungeonShowContentType": "MIST_TRIAL_SYNC_PROGRESS",
    "showParam": [
      ""
    ],
    "progressFormatTextMapHash": 2569534363,
    "isNeedShowProgress": true,
    "hintFormatTextMapHash": 1342277720
  },
  {
    "id": 37,
    "scheduleId": 5054001,
    "challengeWatcherId": 1505407,
    "dungeonShowContentType": "MIST_TRIAL_SYNC_PROGRESS",
    "showParam": [
      ""
    ],
    "progressFormatTextMapHash": 363490035,
    "hintFormatTextMapHash": 2719562304
  },
  {
    "id": 38,
    "scheduleId": 5054001,
    "challengeWatcherId": 1505408,
    "dungeonShowContentType": "MIST_TRIAL_SYNC_PROGRESS",
    "showParam": [
      ""
    ],
    "progressFormatTextMapHash": 2996757395,
    "isNeedShowProgress": true,
    "hintFormatTextMapHash": 3520867016
  },
  {
    "id": 39,
    "scheduleId": 5054001,
    "challengeWatcherId": 1505409,
    "dungeonShowContentType": "MIST_TRIAL_SYNC_PROGRESS",
    "showParam": [
      ""
    ],
    "progressFormatTextMapHash": 1777408371,
    "hintFormatTextMapHash": 4232710504
  },
  {
    "id": 40,
    "scheduleId": 5054001,
    "challengeWatcherId": 1505410,
    "dungeonShowContentType": "MIST_TRIAL_SYNC_PROGRESS",
    "showParam": [
      ""
    ],
    "progressFormatTextMapHash": 2471069491,
    "isNeedShowProgress": true,
    "hintFormatTextMapHash": 1913383672
  },
  {
    "id": 41,
    "scheduleId": 5054001,
    "challengeWatcherId": 1505411,
    "dungeonShowContentType": "MIST_TRIAL_SYNC_PROGRESS",
    "showParam": [
      ""
    ],
    "progressFormatTextMapHash": 3400134579,
    "hintFormatTextMapHash": 2428335056
  },
  {
    "id": 42,
    "scheduleId": 5054001,
    "challengeWatcherId": 1505412,
    "dungeonShowContentType": "MIST_TRIAL_SYNC_PROGRESS",
    "showParam": [
      ""
    ],
    "progressFormatTextMapHash": 2952982651,
    "isNeedShowProgress": true,
    "hintFormatTextMapHash": 1608664840
  },
  {
    "id": 43,
    "scheduleId": 5054001,
    "challengeWatcherId": 1505413,
    "dungeonShowContentType": "MIST_TRIAL_SYNC_PROGRESS",
    "showParam": [
      ""
    ],
    "progressFormatTextMapHash": 1088441635,
    "hintFormatTextMapHash": 2093819088
  },
  {
    "id": 44,
    "scheduleId": 5054001,
    "challengeWatcherId": 1505414,
    "dungeonShowContentType": "MIST_TRIAL_SYNC_PROGRESS",
    "showParam": [
      ""
    ],
    "progressFormatTextMapHash": 2881139955,
    "isNeedShowProgress": true,
    "hintFormatTextMapHash": 1833721416
  },
  {
    "id": 45,
    "scheduleId": 5114001,
    "challengeWatcherId": 1511401,
    "dungeonShowContentType": "MIST_TRIAL_SYNC_PROGRESS",
    "showParam": [
      ""
    ],
    "progressFormatTextMapHash": 1824823939,
    "hintFormatTextMapHash": 2299987304
  },
  {
    "id": 46,
    "scheduleId": 5114001,
    "challengeWatcherId": 1511402,
    "dungeonShowContentType": "MIST_TRIAL_SYNC_PROGRESS",
    "showParam": [
      ""
    ],
    "progressFormatTextMapHash": 987494155,
    "isNeedShowProgress": true,
    "hintFormatTextMapHash": 2119509680
  },
  {
    "id": 47,
    "scheduleId": 5114001,
    "challengeWatcherId": 1511403,
    "dungeonShowContentType": "MIST_TRIAL_SYNC_PROGRESS",
    "showParam": [
      ""
    ],
    "progressFormatTextMapHash": 558605155,
    "hintFormatTextMapHash": 1012479224
  },
  {
    "id": 48,
    "scheduleId": 5114001,
    "challengeWatcherId": 1511404,
    "dungeonShowContentType": "MIST_TRIAL_SYNC_PROGRESS",
    "showParam": [
      ""
    ],
    "progressFormatTextMapHash": 2195735291,
    "isNeedShowProgress": true,
    "hintFormatTextMapHash": 2989538552
  },
  {
    "id": 49,
    "scheduleId": 5114001,
    "challengeWatcherId": 1511405,
    "dungeonShowContentType": "MIST_TRIAL_SYNC_PROGRESS",
    "showParam": [
      ""
    ],
    "progressFormatTextMapHash": 1082825507,
    "hintFormatTextMapHash": 3387461976
  },
  {
    "id": 50,
    "scheduleId": 5114001,
    "challengeWatcherId": 1511406,
    "dungeonShowContentType": "MIST_TRIAL_SYNC_PROGRESS",
    "showParam": [
      ""
    ],
    "progressFormatTextMapHash": 345678187,
    "isNeedShowProgress": true,
    "hintFormatTextMapHash": 2260786224
  },
  {
    "id": 51,
    "scheduleId": 5114001,
    "challengeWatcherId": 1511407,
    "dungeonShowContentType": "MIST_TRIAL_SYNC_PROGRESS",
    "showParam": [
      ""
    ],
    "progressFormatTextMapHash": 1553751179,
    "hintFormatTextMapHash": 2834029568
  },
  {
    "id": 52,
    "scheduleId": 5114001,
    "challengeWatcherId": 1511408,
    "dungeonShowContentType": "MIST_TRIAL_SYNC_PROGRESS",
    "showParam": [
      ""
    ],
    "progressFormatTextMapHash": 809800171,
    "isNeedShowProgress": true,
    "hintFormatTextMapHash": 2367720616
  },
  {
    "id": 53,
    "scheduleId": 5114001,
    "challengeWatcherId": 1511409,
    "dungeonShowContentType": "MIST_TRIAL_SYNC_PROGRESS",
    "showParam": [
      ""
    ],
    "progressFormatTextMapHash": 1529556283,
    "hintFormatTextMapHash": 267129048
  },
  {
    "id": 54,
    "scheduleId": 5114001,
    "challengeWatcherId": 1511410,
    "dungeonShowContentType": "MIST_TRIAL_SYNC_PROGRESS",
    "showParam": [
      ""
    ],
    "progressFormatTextMapHash": 737749923,
    "isNeedShowProgress": true,
    "hintFormatTextMapHash": 4173523288
  },
  {
    "id": 55,
    "scheduleId": 5114001,
    "challengeWatcherId": 1511411,
    "dungeonShowContentType": "MIST_TRIAL_SYNC_PROGRESS",
    "showParam": [
      ""
    ],
    "progressFormatTextMapHash": 4070010883,
    "hintFormatTextMapHash": 623498520
  },
  {
    "id": 56,
    "scheduleId": 5114001,
    "challengeWatcherId": 1511412,
    "dungeonShowContentType": "MIST_TRIAL_SYNC_PROGRESS",
    "showParam": [
      ""
    ],
    "progressFormatTextMapHash": 4212330699,
    "isNeedShowProgress": true,
    "hintFormatTextMapHash": 3663046696
  },
  {
    "id": 57,
    "scheduleId": 5114001,
    "challengeWatcherId": 1511413,
    "dungeonShowContentType": "MIST_TRIAL_SYNC_PROGRESS",
    "showParam": [
      ""
    ],
    "progressFormatTextMapHash": 1474303907,
    "hintFormatTextMapHash": 896184016
  },
  {
    "id": 58,
    "scheduleId": 5114001,
    "challengeWatcherId": 1511414,
    "dungeonShowContentType": "MIST_TRIAL_SYNC_PROGRESS",
    "showParam": [
      ""
    ],
    "progressFormatTextMapHash": 3523345459,
    "isNeedShowProgress": true,
    "hintFormatTextMapHash": 2599892712
  },
  {
    "id": 59,
    "scheduleId": 5167001,
    "challengeWatcherId": 1516701,
    "dungeonShowContentType": "MIST_TRIAL_SYNC_PROGRESS",
    "showParam": [
      ""
    ],
    "progressFormatTextMapHash": 3160711019,
    "hintFormatTextMapHash": 3384795656
  },
  {
    "id": 60,
    "scheduleId": 5167001,
    "challengeWatcherId": 1516702,
    "dungeonShowContentType": "MIST_TRIAL_SYNC_PROGRESS",
    "showParam": [
      ""
    ],
    "progressFormatTextMapHash": 3350303819,
    "isNeedShowProgress": true,
    "hintFormatTextMapHash": 3082959536
  },
  {
    "id": 61,
    "scheduleId": 5167001,
    "challengeWatcherId": 1516703,
    "dungeonShowContentType": "MIST_TRIAL_SYNC_PROGRESS",
    "showParam": [
      ""
    ],
    "progressFormatTextMapHash": 3185805131,
    "hintFormatTextMapHash": 1897224656
  },
  {
    "id": 62,
    "scheduleId": 5167001,
    "challengeWatcherId": 1516704,
    "dungeonShowContentType": "MIST_TRIAL_SYNC_PROGRESS",
    "showParam": [
      ""
    ],
    "progressFormatTextMapHash": 4170658835,
    "isNeedShowProgress": true,
    "hintFormatTextMapHash": 1042649160
  },
  {
    "id": 63,
    "scheduleId": 5167001,
    "challengeWatcherId": 1516705,
    "dungeonShowContentType": "MIST_TRIAL_SYNC_PROGRESS",
    "showParam": [
      ""
    ],
    "progressFormatTextMapHash": 3939490067,
    "hintFormatTextMapHash": 2416666592
  },
  {
    "id": 64,
    "scheduleId": 5167001,
    "challengeWatcherId": 1516706,
    "dungeonShowContentType": "MIST_TRIAL_SYNC_PROGRESS",
    "showParam": [
      ""
    ],
    "progressFormatTextMapHash": 1072681339,
    "isNeedShowProgress": true,
    "hintFormatTextMapHash": 4262015976
  },
  {
    "id": 65,
    "scheduleId": 5167001,
    "challengeWatcherId": 1516707,
    "dungeonShowContentType": "MIST_TRIAL_SYNC_PROGRESS",
    "showParam": [
      ""
    ],
    "progressFormatTextMapHash": 3111289971,
    "hintFormatTextMapHash": 1436571912
  },
  {
    "id": 66,
    "scheduleId": 5167001,
    "challengeWatcherId": 1516708,
    "dungeonShowContentType": "MIST_TRIAL_SYNC_PROGRESS",
    "showParam": [
      ""
    ],
    "progressFormatTextMapHash": 4057141027,
    "isNeedShowProgress": true,
    "hintFormatTextMapHash": 1994254912
  },
  {
    "id": 67,
    "scheduleId": 5167001,
    "challengeWatcherId": 1516709,
    "dungeonShowContentType": "MIST_TRIAL_SYNC_PROGRESS",
    "showParam": [
      ""
    ],
    "progressFormatTextMapHash": 1307570403,
    "hintFormatTextMapHash": 101661296
  },
  {
    "id": 68,
    "scheduleId": 5167001,
    "challengeWatcherId": 1516710,
    "dungeonShowContentType": "MIST_TRIAL_SYNC_PROGRESS",
    "showParam": [
      ""
    ],
    "progressFormatTextMapHash": 3922554891,
    "isNeedShowProgress": true,
    "hintFormatTextMapHash": 1676397168
  },
  {
    "id": 69,
    "scheduleId": 5167001,
    "challengeWatcherId": 1516711,
    "dungeonShowContentType": "MIST_TRIAL_SYNC_PROGRESS",
    "showParam": [
      ""
    ],
    "progressFormatTextMapHash": 840665315,
    "hintFormatTextMapHash": 2224569936
  },
  {
    "id": 70,
    "scheduleId": 5167001,
    "challengeWatcherId": 1516712,
    "dungeonShowContentType": "MIST_TRIAL_SYNC_PROGRESS",
    "showParam": [
      ""
    ],
    "progressFormatTextMapHash": 2529000667,
    "isNeedShowProgress": true,
    "hintFormatTextMapHash": 1863562000
  },
  {
    "id": 71,
    "scheduleId": 5167001,
    "challengeWatcherId": 1516713,
    "dungeonShowContentType": "MIST_TRIAL_SYNC_PROGRESS",
    "showParam": [
      ""
    ],
    "progressFormatTextMapHash": 1081945267,
    "hintFormatTextMapHash": 3594868392
  },
  {
    "id": 72,
    "scheduleId": 5167001,
    "challengeWatcherId": 1516714,
    "dungeonShowContentType": "MIST_TRIAL_SYNC_PROGRESS",
    "showParam": [
      ""
    ],
    "progressFormatTextMapHash": 2479820171,
    "isNeedShowProgress": true,
    "hintFormatTextMapHash": 3852595968
  }
]