[
  {
    "activityId": 2022,
    "AAKBFLDCIKO": 70531,
    "POJKLIBMPFJ": 70534,
    "IPFKKMOOOFN": 70532,
    "KDJELPOIFIH": 70533,
    "DKAAJLLCHPD": 6135,
    "GCOEPCDDHBM": 6138,
    "OCHNLFOANEO": 6136,
    "IJLOEHEHOHF": 6137,
    "FJDDCIPIOFL": 332020,
    "IEALLGJCPCP": 2022011,
    "GKHCHHFACNN": 500
  }
]