[
  {
    "scheduleId": 5099001,
    "randomLevelCount": 3,
    "watcherIdList": [
      1509901,
      1509902,
      1509903,
      1509904,
      1509905,
      1509906,
      1509907
    ],
    "previewPageMinTime": 8,
    "BFLBIEDGHKH": [
      1,
      2,
      3,
      4,
      5
    ]
  },
  {
    "scheduleId": 5141001,
    "randomLevelCount": 3,
    "watcherIdList": [
      1514101,
      1514102,
      1514103,
      1514104,
      1514105
    ],
    "previewPageMinTime": 8,
    "BFLBIEDGHKH": [
      6,
      7,
      8,
      9,
      10
    ]
  }
]