[
  {
    "modeType": "GCG_FESTIVAL_MODE_TYPE_PAIMON",
    "titleTextMapHash": 1570079447,
    "descTextMapHash": 3151484833,
    "startDescTextMapHash": 4231990802
  },
  {
    "modeType": "GCG_FESTIVAL_MODE_TYPE_COST_REDUCTION",
    "titleTextMapHash": 2163875159,
    "descTextMapHash": 1560775833,
    "startDescTextMapHash": 499719818
  },
  {
    "modeType": "GCG_FESTIVAL_MODE_TYPE_FAST",
    "titleTextMapHash": 395476863,
    "descTextMapHash": 4222141553,
    "startDescTextMapHash": 4231399314
  },
  {
    "modeType": "GCG_FESTIVAL_MODE_TYPE_PICK",
    "titleTextMapHash": 3290710575,
    "descTextMapHash": 3037463201,
    "startDescTextMapHash": 3418887634
  },
  {
    "modeType": "GCG_FESTIVAL_MODE_TYPE_RUSH_PICK",
    "titleTextMapHash": 3676713719,
    "descTextMapHash": 1597466729,
    "startDescTextMapHash": 4015151058
  }
]