[
  {
    "buffId": 1,
    "abilityGroupName": "ActivityAbility_CrystalLink_Action_UltimateSkillDamageUp",
    "abilityName": "ActivityAbility_CrystalLink_Action_UltimateSkillDamageUp",
    "gvName": "",
    "abilityTitleTextMapHash": 4073629896,
    "abilityDescTextMapHash": 392659938,
    "IOOMJOAMOKE": 1520256652,
    "FKNGMGNPKLD": 4183403675,
    "iconNameHash": 15961219207512365024,
    "desParam": [
      "40",
      "60",
      "70",
      ""
    ]
  },
  {
    "buffId": 2,
    "abilityGroupName": "ActivityAbility_CrystalLink_Action_IncreaseElemMastery",
    "abilityName": "ActivityAbility_CrystalLink_Action_IncreaseElemMastery",
    "gvName": "",
    "abilityTitleTextMapHash": 38002288,
    "abilityDescTextMapHash": 2734169890,
    "IOOMJOAMOKE": 3819997156,
    "FKNGMGNPKLD": 726566795,
    "iconNameHash": 8655192396955145130,
    "desParam": [
      "80",
      "120",
      "140",
      ""
    ]
  },
  {
    "buffId": 3,
    "abilityGroupName": "ActivityAbility_CrystalLink_Action_ChargeEfficiencyUp",
    "abilityName": "ActivityAbility_CrystalLink_Action_ChargeEfficiencyUp",
    "gvName": "",
    "abilityTitleTextMapHash": 2908943760,
    "abilityDescTextMapHash": 649522346,
    "IOOMJOAMOKE": 4013730388,
    "FKNGMGNPKLD": 1469033323,
    "iconNameHash": 5546816565762747067,
    "desParam": [
      "50",
      "75",
      "87.5",
      ""
    ]
  },
  {
    "buffId": 4,
    "abilityGroupName": "ActivityAbility_CrystalLink_Action_NormalAttackDamageUp",
    "abilityName": "ActivityAbility_CrystalLink_Action_NormalAttackDamageUp",
    "gvName": "",
    "abilityTitleTextMapHash": 46715952,
    "abilityDescTextMapHash": 2165589818,
    "IOOMJOAMOKE": 2564489996,
    "FKNGMGNPKLD": 2027372939,
    "iconNameHash": 18279437551487751373,
    "desParam": [
      "40",
      "60",
      "70",
      ""
    ]
  },
  {
    "buffId": 5,
    "abilityGroupName": "ActivityAbility_CrystalLink_Action_AllElementalDamageUp",
    "abilityName": "ActivityAbility_CrystalLink_Action_AllElementalDamageUp",
    "gvName": "",
    "abilityTitleTextMapHash": 75995776,
    "abilityDescTextMapHash": 1630120970,
    "IOOMJOAMOKE": 4168186916,
    "FKNGMGNPKLD": 592856955,
    "iconNameHash": 7058137017973472409,
    "desParam": [
      "40",
      "60",
      "70",
      ""
    ]
  },
  {
    "buffId": 6,
    "abilityGroupName": "ActivityAbility_CrystalLink_Action_AttackSpeedUp",
    "abilityName": "ActivityAbility_CrystalLink_Action_AttackSpeedUp",
    "gvName": "",
    "abilityTitleTextMapHash": 4112885936,
    "abilityDescTextMapHash": 1161101138,
    "IOOMJOAMOKE": 172797324,
    "FKNGMGNPKLD": 2598279027,
    "iconNameHash": 17313553580826604776,
    "desParam": [
      "20",
      "30",
      "35",
      ""
    ]
  },
  {
    "buffId": 7,
    "abilityGroupName": "ActivityAbility_CrystalLink_Action_SkillDamageUp",
    "abilityName": "ActivityAbility_CrystalLink_Action_SkillDamageUp",
    "gvName": "",
    "abilityTitleTextMapHash": 1312836496,
    "abilityDescTextMapHash": 50471650,
    "IOOMJOAMOKE": 3415032132,
    "FKNGMGNPKLD": 2982082059,
    "iconNameHash": 17537222650958445803,
    "desParam": [
      "40",
      "60",
      "70",
      ""
    ]
  },
  {
    "buffId": 8,
    "abilityGroupName": "ActivityAbility_CrystalLink_Action_IncreaseElemMastery_Level3",
    "abilityName": "ActivityAbility_CrystalLink_Action_IncreaseElemMastery_Level3",
    "gvName": "",
    "abilityTitleTextMapHash": 1922254752,
    "abilityDescTextMapHash": 4256233722,
    "IOOMJOAMOKE": 943568980,
    "FKNGMGNPKLD": 63947035,
    "iconNameHash": 8655192396955145130,
    "desParam": [
      "80",
      "120",
      "140",
      ""
    ]
  },
  {
    "buffId": 9,
    "abilityGroupName": "ActivityAbility_CrystalLink_Action_UltimateSkillDamageUp_Level3",
    "abilityName": "ActivityAbility_CrystalLink_Action_UltimateSkillDamageUp_Level3",
    "gvName": "",
    "abilityTitleTextMapHash": 4251219568,
    "abilityDescTextMapHash": 1987555610,
    "IOOMJOAMOKE": 3605876756,
    "FKNGMGNPKLD": 986860443,
    "iconNameHash": 15961219207512365024,
    "desParam": [
      "40",
      "60",
      "70",
      ""
    ]
  },
  {
    "buffId": 10,
    "abilityGroupName": "ActivityAbility_CrystalLink_Action_MaxHPUp",
    "abilityName": "ActivityAbility_CrystalLink_Action_MaxHPUp",
    "gvName": "",
    "abilityTitleTextMapHash": 1937600432,
    "abilityDescTextMapHash": 974698842,
    "IOOMJOAMOKE": 754382380,
    "FKNGMGNPKLD": 2137831643,
    "iconNameHash": 413304355716682787,
    "desParam": [
      "40",
      "60",
      "70",
      ""
    ]
  },
  {
    "buffId": 11,
    "abilityGroupName": "ActivityAbility_CrystalLink_Action_AttackUp",
    "abilityName": "ActivityAbility_CrystalLink_Action_AttackUp",
    "gvName": "",
    "abilityTitleTextMapHash": 2005768840,
    "abilityDescTextMapHash": 1552800866,
    "IOOMJOAMOKE": 882831740,
    "FKNGMGNPKLD": 660074019,
    "iconNameHash": 3960589848252116656,
    "desParam": [
      "35",
      "53.5",
      "62.25",
      ""
    ]
  },
  {
    "buffId": 12,
    "abilityGroupName": "ActivityAbility_CrystalLink_Action_WaterDamageUp",
    "abilityName": "ActivityAbility_CrystalLink_Action_WaterDamageUp",
    "gvName": "",
    "abilityTitleTextMapHash": 4237997880,
    "abilityDescTextMapHash": 2702041658,
    "IOOMJOAMOKE": 3914466860,
    "FKNGMGNPKLD": 2443996323,
    "iconNameHash": 4946534183124467382,
    "desParam": [
      "40",
      "60",
      "70",
      ""
    ]
  },
  {
    "buffId": 13,
    "abilityGroupName": "ActivityAbility_CrystalLink_Action_RockDamageUp",
    "abilityName": "ActivityAbility_CrystalLink_Action_RockDamageUp",
    "gvName": "",
    "abilityTitleTextMapHash": 3706986416,
    "abilityDescTextMapHash": 3002926154,
    "IOOMJOAMOKE": 1929121012,
    "FKNGMGNPKLD": 4119885939,
    "iconNameHash": 8350657926630315916,
    "desParam": [
      "40",
      "60",
      "70",
      ""
    ]
  },
  {
    "buffId": 14,
    "abilityGroupName": "ActivityAbility_CrystalLink_Action_AttackUp_Level4",
    "abilityName": "ActivityAbility_CrystalLink_Action_AttackUp_Level4",
    "gvName": "",
    "abilityTitleTextMapHash": 1426055472,
    "abilityDescTextMapHash": 2730663682,
    "IOOMJOAMOKE": 313853876,
    "FKNGMGNPKLD": 1856228339,
    "iconNameHash": 3960589848252116656,
    "desParam": [
      "35",
      "53.5",
      "62.25",
      ""
    ]
  },
  {
    "buffId": 15,
    "abilityGroupName": "ActivityAbility_CrystalLink_Action_CriticalUp",
    "abilityName": "ActivityAbility_CrystalLink_Action_CriticalUp",
    "gvName": "",
    "abilityTitleTextMapHash": 2284690856,
    "abilityDescTextMapHash": 52882202,
    "IOOMJOAMOKE": 3710497436,
    "FKNGMGNPKLD": 2626949587,
    "iconNameHash": 11969698938663960157,
    "desParam": [
      "25",
      "37.5",
      "43.75",
      ""
    ]
  },
  {
    "buffId": 16,
    "abilityGroupName": "ActivityAbility_CrystalLink_Action_WaterDamageUp_Level6",
    "abilityName": "ActivityAbility_CrystalLink_Action_WaterDamageUp_Level6",
    "gvName": "",
    "abilityTitleTextMapHash": 1934686792,
    "abilityDescTextMapHash": 3465406114,
    "IOOMJOAMOKE": 289449556,
    "FKNGMGNPKLD": 3863382843,
    "iconNameHash": 4946534183124467382,
    "desParam": [
      "40",
      "60",
      "70",
      ""
    ]
  },
  {
    "buffId": 17,
    "abilityGroupName": "ActivityAbility_CrystalLink_Action_IceDamageUp",
    "abilityName": "ActivityAbility_CrystalLink_Action_IceDamageUp",
    "gvName": "",
    "abilityTitleTextMapHash": 3184544744,
    "abilityDescTextMapHash": 2477967402,
    "IOOMJOAMOKE": 2261517012,
    "FKNGMGNPKLD": 3429270571,
    "iconNameHash": 12738797111152422349,
    "desParam": [
      "40",
      "60",
      "70",
      ""
    ]
  },
  {
    "buffId": 18,
    "abilityGroupName": "ActivityAbility_CrystalLink_Action_FrozenDamageUp",
    "abilityName": "ActivityAbility_CrystalLink_Action_FrozenDamageUp",
    "gvName": "",
    "abilityTitleTextMapHash": 1339921712,
    "abilityDescTextMapHash": 2402184522,
    "IOOMJOAMOKE": 610425420,
    "FKNGMGNPKLD": 1351801531,
    "iconNameHash": 2908506998350595870,
    "desParam": [
      "40",
      "60",
      "70",
      ""
    ]
  },
  {
    "buffId": 19,
    "abilityGroupName": "ActivityAbility_CrystalLink_Action_FireDamageUp",
    "abilityName": "ActivityAbility_CrystalLink_Action_FireDamageUp",
    "gvName": "FireDamageUpLevel",
    "abilityTitleTextMapHash": 2837136632,
    "abilityDescTextMapHash": 3953521706,
    "IOOMJOAMOKE": 3328185788,
    "FKNGMGNPKLD": 2624414715,
    "iconNameHash": 4281202599538828673,
    "desParam": [
      "32",
      "48",
      "56",
      ""
    ]
  },
  {
    "buffId": 20,
    "abilityGroupName": "ActivityAbility_CrystalLink_Action_ExtraAttackDamageUp",
    "abilityName": "ActivityAbility_CrystalLink_Action_ExtraAttackDamageUp",
    "gvName": "ExtraAtkDamageUpLevel",
    "abilityTitleTextMapHash": 3131614936,
    "abilityDescTextMapHash": 2602388498,
    "IOOMJOAMOKE": 4132873772,
    "FKNGMGNPKLD": 3328792483,
    "iconNameHash": 15444200074424170562,
    "desParam": [
      "32",
      "48",
      "56",
      ""
    ]
  },
  {
    "buffId": 21,
    "abilityGroupName": "ActivityAbility_CrystalLink_Action_IncreaseAttackRatio",
    "abilityName": "ActivityAbility_CrystalLink_Action_IncreaseAttackRatio",
    "gvName": "AttackRatioUpLevel",
    "abilityTitleTextMapHash": 3098995080,
    "abilityDescTextMapHash": 4005848674,
    "IOOMJOAMOKE": 2909421260,
    "FKNGMGNPKLD": 2585805947,
    "iconNameHash": 3960589848252116656,
    "desParam": [
      "32",
      "48",
      "56",
      ""
    ]
  },
  {
    "buffId": 22,
    "abilityGroupName": "ActivityAbility_CrystalLink_Action_WindDamageUp",
    "abilityName": "ActivityAbility_CrystalLink_Action_WindDamageUp",
    "gvName": "WindDamageUpLevel",
    "abilityTitleTextMapHash": 1775475048,
    "abilityDescTextMapHash": 1246141546,
    "IOOMJOAMOKE": 893477940,
    "FKNGMGNPKLD": 301634795,
    "iconNameHash": 16107267998582599581,
    "desParam": [
      "32",
      "48",
      "56",
      ""
    ]
  },
  {
    "buffId": 23,
    "abilityGroupName": "ActivityAbility_CrystalLink_Action_AttackbonusCriticalUp",
    "abilityName": "ActivityAbility_CrystalLink_Action_AttackbonusCriticalUp",
    "gvName": "BonusCriticalUpLevel",
    "abilityTitleTextMapHash": 3378616312,
    "abilityDescTextMapHash": 1319093138,
    "IOOMJOAMOKE": 458439108,
    "FKNGMGNPKLD": 3323528211,
    "iconNameHash": 3037824403484096191,
    "desParam": [
      "50",
      "75",
      "87.5",
      ""
    ]
  },
  {
    "buffId": 24,
    "abilityGroupName": "ActivityAbility_CrystalLink_Action_IncreaseAttackRatio_Level2",
    "abilityName": "ActivityAbility_CrystalLink_Action_IncreaseAttackRatio_Level2",
    "gvName": "AttackRatioUpLevel",
    "abilityTitleTextMapHash": 3562518168,
    "abilityDescTextMapHash": 3242770234,
    "IOOMJOAMOKE": 2195383772,
    "FKNGMGNPKLD": 4249892699,
    "iconNameHash": 3960589848252116656,
    "desParam": [
      "32",
      "48",
      "56",
      ""
    ]
  },
  {
    "buffId": 25,
    "abilityGroupName": "ActivityAbility_CrystalLink_Action_AllElementDamageUp",
    "abilityName": "ActivityAbility_CrystalLink_Action_AllElementDamageUp",
    "gvName": "AllElementDamageUpLevel",
    "abilityTitleTextMapHash": 1535172704,
    "abilityDescTextMapHash": 3359413866,
    "IOOMJOAMOKE": 2503500484,
    "FKNGMGNPKLD": 562508795,
    "iconNameHash": 7058137017973472409,
    "desParam": [
      "32",
      "48",
      "56",
      ""
    ]
  },
  {
    "buffId": 26,
    "abilityGroupName": "ActivityAbility_CrystalLink_Action_ElementalBurstDamageUp",
    "abilityName": "ActivityAbility_CrystalLink_Action_ElementalBurstDamageUp",
    "gvName": "ElementalBurslDamageUpLevel",
    "abilityTitleTextMapHash": 919530256,
    "abilityDescTextMapHash": 4195031410,
    "IOOMJOAMOKE": 299480292,
    "FKNGMGNPKLD": 1334839539,
    "iconNameHash": 15961219207512365024,
    "desParam": [
      "32",
      "48",
      "56",
      ""
    ]
  },
  {
    "buffId": 27,
    "abilityGroupName": "ActivityAbility_CrystalLink_Action_IncreaseCritical",
    "abilityName": "ActivityAbility_CrystalLink_Action_IncreaseCritical",
    "gvName": "CriticalUpLevel",
    "abilityTitleTextMapHash": 3816010480,
    "abilityDescTextMapHash": 1193252378,
    "IOOMJOAMOKE": 524448852,
    "FKNGMGNPKLD": 3648350499,
    "iconNameHash": 12066820945821843267,
    "desParam": [
      "25",
      "37.5",
      "43.75",
      ""
    ]
  },
  {
    "buffId": 28,
    "abilityGroupName": "ActivityAbility_CrystalLink_Action_ElectricDamageUp",
    "abilityName": "ActivityAbility_CrystalLink_Action_ElectricDamageUp",
    "gvName": "ElectricDamageUpLevel",
    "abilityTitleTextMapHash": 75337816,
    "abilityDescTextMapHash": 1938359250,
    "IOOMJOAMOKE": 1619367860,
    "FKNGMGNPKLD": 705331555,
    "iconNameHash": 16289765965165488789,
    "desParam": [
      "32",
      "48",
      "56",
      ""
    ]
  },
  {
    "buffId": 29,
    "abilityGroupName": "ActivityAbility_CrystalLink_Action_ElemMasteryUp_Level6",
    "abilityName": "ActivityAbility_CrystalLink_Action_ElemMasteryUp_Level6",
    "gvName": "ElemMasteryUpLevel_2",
    "abilityTitleTextMapHash": 2399689672,
    "abilityDescTextMapHash": 3590180978,
    "IOOMJOAMOKE": 1139192116,
    "FKNGMGNPKLD": 4059456875,
    "iconNameHash": 8655192396955145130,
    "desParam": [
      "60",
      "90",
      "105",
      ""
    ]
  },
  {
    "buffId": 30,
    "abilityGroupName": "ActivityAbility_CrystalLink_Action_GainEnergy",
    "abilityName": "ActivityAbility_CrystalLink_Action_GainEnergy",
    "gvName": "GainEnergyLevel",
    "abilityTitleTextMapHash": 2064869848,
    "abilityDescTextMapHash": 1591935330,
    "IOOMJOAMOKE": 2872944348,
    "FKNGMGNPKLD": 1946986011,
    "iconNameHash": 4815066450003162680,
    "desParam": [
      "3",
      "4.5",
      "5.75",
      ""
    ]
  },
  {
    "buffId": 31,
    "abilityGroupName": "ActivityAbility_CrystalLink_Action_IncreaseIceDamage",
    "abilityName": "ActivityAbility_CrystalLink_Action_IncreaseIceDamage",
    "gvName": "IncreaseIceDamageLevel",
    "abilityTitleTextMapHash": 1007201000,
    "abilityDescTextMapHash": 361904042,
    "IOOMJOAMOKE": 891911444,
    "FKNGMGNPKLD": 4165769955,
    "iconNameHash": 12738797111152422349,
    "desParam": [
      "32",
      "48",
      "56",
      ""
    ]
  },
  {
    "buffId": 32,
    "abilityGroupName": "ActivityAbility_CrystalLink_Action_IncreaseFrozen",
    "abilityName": "ActivityAbility_CrystalLink_Action_IncreaseFrozen",
    "gvName": "IncreaseFrozenDamageLevel",
    "abilityTitleTextMapHash": 3086705856,
    "abilityDescTextMapHash": 3672177794,
    "IOOMJOAMOKE": 57169452,
    "FKNGMGNPKLD": 3272960035,
    "iconNameHash": 2908506998350595870,
    "desParam": [
      "32",
      "48",
      "56",
      ""
    ]
  },
  {
    "buffId": 33,
    "abilityGroupName": "ActivityAbility_CrystalLink_Action_ElementalBurstDamageUp_Level4",
    "abilityName": "ActivityAbility_CrystalLink_Action_ElementalBurstDamageUp_Level4",
    "gvName": "ElementalBurslDamageUpLevel_Level4",
    "abilityTitleTextMapHash": 3217714864,
    "abilityDescTextMapHash": 2403054306,
    "IOOMJOAMOKE": 3095361844,
    "FKNGMGNPKLD": 1409845275,
    "iconNameHash": 15961219207512365024,
    "desParam": [
      "32",
      "48",
      "56",
      ""
    ]
  },
  {
    "buffId": 34,
    "abilityGroupName": "ActivityAbility_CrystalLink_Action_GrassDamageUp",
    "abilityName": "ActivityAbility_CrystalLink_Action_GrassDamageUp",
    "gvName": "GrassDamageUpLevel",
    "abilityTitleTextMapHash": 736309528,
    "abilityDescTextMapHash": 2397080250,
    "IOOMJOAMOKE": 2323017220,
    "FKNGMGNPKLD": 1527050979,
    "iconNameHash": 6533209789504558773,
    "desParam": [
      "32",
      "48",
      "56",
      ""
    ]
  },
  {
    "buffId": 35,
    "abilityGroupName": "ActivityAbility_CrystalLink_Action_ElemMasteryUp",
    "abilityName": "ActivityAbility_CrystalLink_Action_ElemMasteryUp",
    "gvName": "ElemMasteryUpLevel",
    "abilityTitleTextMapHash": 279878624,
    "abilityDescTextMapHash": 2878346978,
    "IOOMJOAMOKE": 144795532,
    "FKNGMGNPKLD": 419058523,
    "iconNameHash": 8655192396955145130,
    "desParam": [
      "60",
      "90",
      "105",
      ""
    ]
  },
  {
    "buffId": 36,
    "abilityGroupName": "ActivityAbility_CrystalLink_Action_NormalAtkDamageUp",
    "abilityName": "ActivityAbility_CrystalLink_Action_NormalAtkDamageUp",
    "gvName": "NormalAtkDamageLevel",
    "abilityTitleTextMapHash": 3683857664,
    "abilityDescTextMapHash": 2753823698,
    "IOOMJOAMOKE": 2022736636,
    "FKNGMGNPKLD": 1955960811,
    "iconNameHash": 18279437551487751373,
    "desParam": [
      "32",
      "48",
      "56",
      ""
    ]
  },
  {
    "buffId": 37,
    "abilityGroupName": "ActivityAbility_CrystalLink_V3_Buff_Stage_01_01",
    "abilityName": "ActivityAbility_CrystalLink_V3_Buff_Stage_01_01",
    "gvName": "_ABILITY_CrystalLink_V3_Buff_Level_Stage_01_01",
    "abilityTitleTextMapHash": 865247344,
    "abilityDescTextMapHash": 2151977266,
    "IOOMJOAMOKE": 3309363436,
    "FKNGMGNPKLD": 2980927211,
    "iconNameHash": 1561027882668996191,
    "desParam": [
      "30",
      "55",
      "75",
      ""
    ]
  },
  {
    "buffId": 38,
    "abilityGroupName": "ActivityAbility_CrystalLink_V3_Buff_Stage_01_02",
    "abilityName": "ActivityAbility_CrystalLink_V3_Buff_Stage_01_02",
    "gvName": "_ABILITY_CrystalLink_V3_Buff_Level_Stage_01_02",
    "abilityTitleTextMapHash": 1046749664,
    "abilityDescTextMapHash": 2283597538,
    "IOOMJOAMOKE": 1672101260,
    "FKNGMGNPKLD": 2004144347,
    "iconNameHash": 823303866602056947,
    "desParam": [
      "30",
      "55",
      "75",
      ""
    ]
  },
  {
    "buffId": 39,
    "abilityGroupName": "ActivityAbility_CrystalLink_V3_Buff_Stage_01_03",
    "abilityName": "ActivityAbility_CrystalLink_V3_Buff_Stage_01_03",
    "gvName": "_ABILITY_CrystalLink_V3_Buff_Level_Stage_01_03",
    "abilityTitleTextMapHash": 4030774408,
    "abilityDescTextMapHash": 3701830186,
    "IOOMJOAMOKE": 868942484,
    "FKNGMGNPKLD": 2097570275,
    "iconNameHash": 16609965008212732747,
    "desParam": [
      "100",
      "180",
      "245",
      ""
    ]
  },
  {
    "buffId": 40,
    "abilityGroupName": "ActivityAbility_CrystalLink_V3_Buff_Stage_02_01",
    "abilityName": "ActivityAbility_CrystalLink_V3_Buff_Stage_02_01",
    "gvName": "_ABILITY_CrystalLink_V3_Buff_Level_Stage_02_01",
    "abilityTitleTextMapHash": 1556222472,
    "abilityDescTextMapHash": 2036514890,
    "IOOMJOAMOKE": 551491388,
    "FKNGMGNPKLD": 2476861571,
    "iconNameHash": 16643637071907427775,
    "desParam": [
      "30",
      "55",
      "75",
      ""
    ]
  },
  {
    "buffId": 41,
    "abilityGroupName": "ActivityAbility_CrystalLink_V3_Buff_Stage_02_02",
    "abilityName": "ActivityAbility_CrystalLink_V3_Buff_Stage_02_02",
    "gvName": "_ABILITY_CrystalLink_V3_Buff_Level_Stage_02_02",
    "abilityTitleTextMapHash": 3915235648,
    "abilityDescTextMapHash": 1465621626,
    "IOOMJOAMOKE": 403820428,
    "FKNGMGNPKLD": 746128763,
    "iconNameHash": 2548317850202260873,
    "desParam": [
      "25",
      "55",
      "80",
      ""
    ]
  },
  {
    "buffId": 42,
    "abilityGroupName": "ActivityAbility_CrystalLink_V3_Buff_Stage_02_03",
    "abilityName": "ActivityAbility_CrystalLink_V3_Buff_Stage_02_03",
    "gvName": "_ABILITY_CrystalLink_V3_Buff_Level_Stage_02_03",
    "abilityTitleTextMapHash": 335796072,
    "abilityDescTextMapHash": 4048688890,
    "IOOMJOAMOKE": 1060024660,
    "FKNGMGNPKLD": 4129309627,
    "iconNameHash": 16609965008212732747,
    "desParam": [
      "100",
      "180",
      "245",
      ""
    ]
  },
  {
    "buffId": 43,
    "abilityGroupName": "ActivityAbility_CrystalLink_V3_Buff_Stage_03_01",
    "abilityName": "ActivityAbility_CrystalLink_V3_Buff_Stage_03_01",
    "gvName": "_ABILITY_CrystalLink_V3_Buff_Level_Stage_03_01",
    "abilityTitleTextMapHash": 3439761080,
    "abilityDescTextMapHash": 307630178,
    "IOOMJOAMOKE": 464770948,
    "FKNGMGNPKLD": 2749363771,
    "iconNameHash": 1561027882668996191,
    "desParam": [
      "30",
      "55",
      "75",
      ""
    ]
  },
  {
    "buffId": 44,
    "abilityGroupName": "ActivityAbility_CrystalLink_V3_Buff_Stage_03_02",
    "abilityName": "ActivityAbility_CrystalLink_V3_Buff_Stage_03_02",
    "gvName": "_ABILITY_CrystalLink_V3_Buff_Level_Stage_03_02",
    "abilityTitleTextMapHash": 46227784,
    "abilityDescTextMapHash": 2085099682,
    "IOOMJOAMOKE": 3846612148,
    "FKNGMGNPKLD": 17116123,
    "iconNameHash": 16643637071907427775,
    "desParam": [
      "30",
      "55",
      "75",
      ""
    ]
  },
  {
    "buffId": 45,
    "abilityGroupName": "ActivityAbility_CrystalLink_V3_Buff_Stage_03_03",
    "abilityName": "ActivityAbility_CrystalLink_V3_Buff_Stage_03_03",
    "gvName": "_ABILITY_CrystalLink_V3_Buff_Level_Stage_03_03",
    "abilityTitleTextMapHash": 4000938856,
    "abilityDescTextMapHash": 3233189922,
    "IOOMJOAMOKE": 1974320212,
    "FKNGMGNPKLD": 3003219243,
    "iconNameHash": 17899788978805675480,
    "desParam": [
      "33.3",
      "53.7",
      "66.7",
      ""
    ]
  },
  {
    "buffId": 46,
    "abilityGroupName": "ActivityAbility_CrystalLink_V3_Buff_Stage_04_01",
    "abilityName": "ActivityAbility_CrystalLink_V3_Buff_Stage_04_01",
    "gvName": "_ABILITY_CrystalLink_V3_Buff_Level_Stage_04_01",
    "abilityTitleTextMapHash": 2835528880,
    "abilityDescTextMapHash": 913339186,
    "IOOMJOAMOKE": 1469480148,
    "FKNGMGNPKLD": 2476828747,
    "iconNameHash": 214796254076436614,
    "desParam": [
      "30",
      "55",
      "75",
      ""
    ]
  },
  {
    "buffId": 47,
    "abilityGroupName": "ActivityAbility_CrystalLink_V3_Buff_Stage_04_02",
    "abilityName": "ActivityAbility_CrystalLink_V3_Buff_Stage_04_02",
    "gvName": "_ABILITY_CrystalLink_V3_Buff_Level_Stage_04_02",
    "abilityTitleTextMapHash": 815572648,
    "abilityDescTextMapHash": 2736004194,
    "IOOMJOAMOKE": 2622884540,
    "FKNGMGNPKLD": 3366786395,
    "iconNameHash": 17263240542898284148,
    "desParam": [
      "45",
      "80",
      "110",
      ""
    ]
  },
  {
    "buffId": 48,
    "abilityGroupName": "ActivityAbility_CrystalLink_V3_Buff_Stage_04_03",
    "abilityName": "ActivityAbility_CrystalLink_V3_Buff_Stage_04_03",
    "gvName": "_ABILITY_CrystalLink_V3_Buff_Level_Stage_04_03",
    "abilityTitleTextMapHash": 1132984688,
    "abilityDescTextMapHash": 2441647706,
    "IOOMJOAMOKE": 868432572,
    "FKNGMGNPKLD": 3960766139,
    "iconNameHash": 16643637071907427775,
    "desParam": [
      "30",
      "55",
      "75",
      ""
    ]
  },
  {
    "buffId": 49,
    "abilityGroupName": "ActivityAbility_CrystalLink_V3_Buff_Stage_05_01",
    "abilityName": "ActivityAbility_CrystalLink_V3_Buff_Stage_05_01",
    "gvName": "_ABILITY_CrystalLink_V3_Buff_Level_Stage_05_01",
    "abilityTitleTextMapHash": 1441780624,
    "abilityDescTextMapHash": 3236208658,
    "IOOMJOAMOKE": 3287716860,
    "FKNGMGNPKLD": 3912330755,
    "iconNameHash": 14965769353796094257,
    "desParam": [
      "30",
      "55",
      "75",
      ""
    ]
  },
  {
    "buffId": 50,
    "abilityGroupName": "ActivityAbility_CrystalLink_V3_Buff_Stage_05_02",
    "abilityName": "ActivityAbility_CrystalLink_V3_Buff_Stage_05_02",
    "gvName": "_ABILITY_CrystalLink_V3_Buff_Level_Stage_05_02",
    "abilityTitleTextMapHash": 1133579376,
    "abilityDescTextMapHash": 1663063058,
    "IOOMJOAMOKE": 1656928260,
    "FKNGMGNPKLD": 3429960363,
    "iconNameHash": 17263240542898284148,
    "desParam": [
      "45",
      "80",
      "110",
      ""
    ]
  },
  {
    "buffId": 51,
    "abilityGroupName": "ActivityAbility_CrystalLink_V3_Buff_Stage_05_03",
    "abilityName": "ActivityAbility_CrystalLink_V3_Buff_Stage_05_03",
    "gvName": "_ABILITY_CrystalLink_V3_Buff_Level_Stage_05_03",
    "abilityTitleTextMapHash": 2199671640,
    "abilityDescTextMapHash": 1646294642,
    "IOOMJOAMOKE": 2256727604,
    "FKNGMGNPKLD": 1243807435,
    "iconNameHash": 17899788978805675480,
    "desParam": [
      "33.3",
      "53.7",
      "66.7",
      ""
    ]
  },
  {
    "buffId": 52,
    "abilityGroupName": "ActivityAbility_CrystalLink_V3_Buff_Stage_06_01",
    "abilityName": "ActivityAbility_CrystalLink_V3_Buff_Stage_06_01",
    "gvName": "_ABILITY_CrystalLink_V3_Buff_Level_Stage_06_01",
    "abilityTitleTextMapHash": 3317835352,
    "abilityDescTextMapHash": 651305322,
    "IOOMJOAMOKE": 3774907252,
    "FKNGMGNPKLD": 64269227,
    "iconNameHash": 2993976242255437938,
    "desParam": [
      "30",
      "55",
      "75",
      ""
    ]
  },
  {
    "buffId": 53,
    "abilityGroupName": "ActivityAbility_CrystalLink_V3_Buff_Stage_06_02",
    "abilityName": "ActivityAbility_CrystalLink_V3_Buff_Stage_06_02",
    "gvName": "_ABILITY_CrystalLink_V3_Buff_Level_Stage_06_02",
    "abilityTitleTextMapHash": 2434066408,
    "abilityDescTextMapHash": 384512610,
    "IOOMJOAMOKE": 3511356916,
    "FKNGMGNPKLD": 2518911963,
    "iconNameHash": 11107264298930881684,
    "desParam": [
      "UI_Activity_CrystalLinkThird_SomeDamage",
      "UI_Activity_CrystalLinkThird_MoreDamage",
      "UI_Activity_CrystalLinkThird_MuchMoreDamage",
      ""
    ]
  },
  {
    "buffId": 54,
    "abilityGroupName": "ActivityAbility_CrystalLink_V3_Buff_Stage_06_03",
    "abilityName": "ActivityAbility_CrystalLink_V3_Buff_Stage_06_03",
    "gvName": "_ABILITY_CrystalLink_V3_Buff_Level_Stage_06_03",
    "abilityTitleTextMapHash": 3093766472,
    "abilityDescTextMapHash": 87885794,
    "IOOMJOAMOKE": 3979994580,
    "FKNGMGNPKLD": 1879561363,
    "iconNameHash": 17263240542898284148,
    "desParam": [
      "45",
      "80",
      "110",
      ""
    ]
  }
]