[
  {
    "id": 1,
    "stageId": 1,
    "questId": [
      4003101
    ],
    "questTitleTextMapHash": 1199192159,
    "questDescTextMapHash": 3015199484,
    "stealthTitleTextMapHash": 1924393222,
    "battleDescTextMapHash": 2118923051,
    "stealthWatcher": 1505101,
    "battleWatcher": 1505104,
    "stealthGroup": "1505101;133212590",
    "battleGroup": "1505104;133212598",
    "pushTip": 11004,
    "openDay": 1,
    "stealthTriggerPointMarkPos": [
      -3640,
      205,
      -2905
    ],
    "stealthMarkPos": [
      -3707,
      201,
      -2896
    ],
    "battleMarkPos": [
      -3465,
      207,
      -2149
    ],
    "finalQuestId": [
      4003108
    ],
    "mapMarkLoadQuest": [
      4003110,
      4003105
    ],
    "stealthChallengeIndex": 1001,
    "battleChallengeIndex": 1002,
    "stealthRadius": 90,
    "battleRadius": 40
  },
  {
    "id": 2,
    "stageId": 2,
    "questId": [
      4003204,
      4003201
    ],
    "questTitleTextMapHash": 716583711,
    "questDescTextMapHash": 2559179716,
    "stealthTitleTextMapHash": 3379448934,
    "battleDescTextMapHash": 2891858571,
    "stealthWatcher": 1505102,
    "battleWatcher": 1505105,
    "stealthGroup": "",
    "battleGroup": "",
    "pushTip": 11004,
    "openDay": 3,
    "stealthTriggerPointMarkPos": [
      -3185,
      218,
      -4735
    ],
    "stealthMarkPos": [
      -3176,
      207,
      -4745
    ],
    "battleMarkPos": [
      -2831,
      200,
      -4559
    ],
    "finalQuestId": [
      4003203
    ],
    "mapMarkLoadQuest": [
      4003201,
      4003201
    ],
    "stealthChallengeIndex": 2001,
    "battleChallengeIndex": 2002,
    "stealthRadius": 70,
    "battleRadius": 40
  },
  {
    "id": 3,
    "stageId": 3,
    "questId": [
      4003304,
      4003301
    ],
    "questTitleTextMapHash": 1981993887,
    "questDescTextMapHash": 3687587460,
    "stealthTitleTextMapHash": 645500798,
    "battleDescTextMapHash": 1395539139,
    "stealthWatcher": 1505103,
    "battleWatcher": 1505106,
    "stealthGroup": "",
    "battleGroup": "",
    "pushTip": 11004,
    "openDay": 5,
    "stealthTriggerPointMarkPos": [
      -3298,
      224,
      -3257
    ],
    "stealthMarkPos": [
      -3287,
      208,
      -3253
    ],
    "battleMarkPos": [
      -3654,
      201,
      -3348
    ],
    "finalQuestId": [
      4003303
    ],
    "mapMarkLoadQuest": [
      4003301,
      4003301
    ],
    "stealthChallengeIndex": 3001,
    "battleChallengeIndex": 3002,
    "stealthRadius": 60,
    "battleRadius": 40
  }
]