[
  {
    "id": 5119001,
    "nameTextMapHash": 3904265874,
    "descTextMapHash": 1164777999,
    "modeType": "GCG_FESTIVAL_MODE_TYPE_PAIMON",
    "matchId": 101,
    "openDay": 1,
    "closeDay": 10
  },
  {
    "id": 5119002,
    "nameTextMapHash": 2637716674,
    "descTextMapHash": 200458295,
    "modeType": "GCG_FESTIVAL_MODE_TYPE_COST_REDUCTION",
    "matchId": 102,
    "openDay": 1,
    "closeDay": 10
  },
  {
    "id": 5119003,
    "nameTextMapHash": 1979661162,
    "descTextMapHash": 1397395775,
    "modeType": "GCG_FESTIVAL_MODE_TYPE_FAST",
    "matchId": 103,
    "openDay": 1,
    "closeDay": 10
  },
  {
    "id": 5119004,
    "nameTextMapHash": 625531754,
    "descTextMapHash": 3583868975,
    "modeType": "GCG_FESTIVAL_MODE_TYPE_PICK",
    "matchId": 104,
    "openDay": 1,
    "closeDay": 10
  },
  {
    "id": 5119005,
    "nameTextMapHash": 1132328778,
    "descTextMapHash": 4063377679,
    "modeType": "GCG_FESTIVAL_MODE_TYPE_PAIMON",
    "matchId": 105,
    "openDay": 1,
    "closeDay": 10,
    "CGPFLBJDBNF": 101
  },
  {
    "id": 5119006,
    "nameTextMapHash": 3853552098,
    "descTextMapHash": 1574760743,
    "modeType": "GCG_FESTIVAL_MODE_TYPE_COST_REDUCTION",
    "matchId": 106,
    "openDay": 1,
    "closeDay": 10,
    "CGPFLBJDBNF": 102
  },
  {
    "id": 5119007,
    "nameTextMapHash": 288386826,
    "descTextMapHash": 2356487639,
    "modeType": "GCG_FESTIVAL_MODE_TYPE_FAST",
    "matchId": 107,
    "openDay": 1,
    "closeDay": 10,
    "CGPFLBJDBNF": 103
  },
  {
    "id": 5119008,
    "nameTextMapHash": 3788530954,
    "descTextMapHash": 101433871,
    "modeType": "GCG_FESTIVAL_MODE_TYPE_PICK",
    "matchId": 108,
    "openDay": 1,
    "closeDay": 17
  },
  {
    "id": 5119009,
    "nameTextMapHash": 1460388466,
    "descTextMapHash": 3998830063,
    "modeType": "GCG_FESTIVAL_MODE_TYPE_RUSH_PICK",
    "matchId": 109,
    "openDay": 1,
    "closeDay": 17
  },
  {
    "id": 5119010,
    "nameTextMapHash": 2452705386,
    "descTextMapHash": 3641179887,
    "modeType": "GCG_FESTIVAL_MODE_TYPE_PICK",
    "matchId": 110,
    "openDay": 1,
    "closeDay": 17
  },
  {
    "id": 5119011,
    "nameTextMapHash": 3712348714,
    "descTextMapHash": 3015971543,
    "modeType": "GCG_FESTIVAL_MODE_TYPE_RUSH_PICK",
    "matchId": 111,
    "openDay": 1,
    "closeDay": 17
  },
  {
    "id": 5119012,
    "nameTextMapHash": 1715930354,
    "descTextMapHash": 4010371447,
    "modeType": "GCG_FESTIVAL_MODE_TYPE_PICK",
    "matchId": 112,
    "openDay": 1,
    "closeDay": 17
  },
  {
    "id": 5119013,
    "nameTextMapHash": 1216861698,
    "descTextMapHash": 332198855,
    "modeType": "GCG_FESTIVAL_MODE_TYPE_RUSH_PICK",
    "matchId": 113,
    "openDay": 1,
    "closeDay": 17
  }
]