[
  {
    "configId": 10000052,
    "AFJMEDEFNAF": [
      1000001,
      1000002,
      1000003,
      1000004,
      1000005,
      1000006,
      1000007,
      1000008,
      1000009,
      1000010,
      1000011,
      1000012,
      1000013,
      1000014,
      1000015,
      1000016,
      1000017,
      1052001,
      1052002,
      1052003,
      1052004,
      1052005,
      1052006,
      1052007,
      1052008,
      1052009,
      1052010,
      1052011,
      1052012,
      1052013,
      1052014,
      1052015
    ],
    "MNCENFNJCGK": [
      [
        0,
        0,
        2
      ],
      [],
      []
    ]
  },
  {
    "configId": 10000073,
    "AFJMEDEFNAF": [
      1000001,
      1000002,
      1000003,
      1000004,
      1000005,
      1000006,
      1000007,
      1000008,
      1000009,
      1000010,
      1000011,
      1000012,
      1000013,
      1000014,
      1000015,
      1000016,
      1000017,
      1073001,
      1073002,
      1073003,
      1073004,
      1073005,
      1073006,
      1073007,
      1073008,
      1073009,
      1073010,
      1073011,
      1073012
    ],
    "MNCENFNJCGK": [
      [
        0,
        0,
        -2
      ],
      [
        -2,
        0,
        0
      ],
      [
        -1,
        -0.5,
        -1
      ]
    ]
  },
  {
    "configId": 10000071,
    "AFJMEDEFNAF": [
      1000001,
      1000002,
      1000003,
      1000004,
      1000005,
      1000006,
      1000007,
      1000008,
      1000009,
      1000010,
      1000011,
      1000012,
      1000013,
      1000014,
      1000015,
      1000016,
      1000017,
      1071001,
      1071002,
      1071003,
      1071004,
      1071005,
      1071006,
      1071007,
      1071008,
      1071009,
      1071010,
      1071011,
      1071012,
      1071013
    ],
    "MNCENFNJCGK": [
      [
        0,
        0,
        -3
      ],
      [
        -3,
        0,
        0
      ],
      [
        3,
        0,
        0
      ]
    ]
  },
  {
    "configId": 10000082,
    "AFJMEDEFNAF": [
      1000001,
      1000002,
      1000003,
      1000004,
      1000005,
      1000006,
      1000007,
      1000008,
      1000009,
      1000010,
      1000011,
      1000012,
      1000013,
      1000014,
      1000015,
      1000016,
      1000017,
      1082001,
      1082002,
      1082003,
      1082004,
      1082005,
      1082006,
      1082007,
      1082008
    ],
    "MNCENFNJCGK": [
      [
        0,
        0,
        -4
      ],
      [
        0,
        0,
        3
      ],
      []
    ]
  },
  {
    "configId": 10000002,
    "AFJMEDEFNAF": [
      1000001,
      1000002,
      1000003,
      1000004,
      1000005,
      1000006,
      1000007,
      1000008,
      1000009,
      1000010,
      1000011,
      1000012,
      1000013,
      1000014,
      1000015,
      1000016,
      1000017,
      1002001,
      1002002,
      1002003,
      1002004,
      1002005,
      1002006,
      1002007,
      1002008,
      1002009,
      1002010,
      1002011,
      1002012
    ],
    "MNCENFNJCGK": [
      [
        0,
        0,
        2
      ],
      [
        -3,
        0,
        0
      ],
      [
        3,
        0,
        0
      ]
    ]
  },
  {
    "configId": 10000063,
    "AFJMEDEFNAF": [
      1000001,
      1000002,
      1000003,
      1000004,
      1000005,
      1000006,
      1000007,
      1000008,
      1000009,
      1000010,
      1000011,
      1000012,
      1000013,
      1000014,
      1000015,
      1000016,
      1000017,
      1063001,
      1063002,
      1063003,
      1063004,
      1063005,
      1063006,
      1063007,
      1063008,
      1063009,
      1063010,
      1063011
    ],
    "MNCENFNJCGK": [
      [
        2,
        0.3,
        0.5
      ],
      [
        1,
        -0.5,
        -1.5
      ],
      [
        -3,
        0,
        0
      ]
    ]
  },
  {
    "configId": 10000084,
    "AFJMEDEFNAF": [
      1000001,
      1000002,
      1000003,
      1000004,
      1000005,
      1000006,
      1000007,
      1000008,
      1000009,
      1000010,
      1000011,
      1000012,
      1000013,
      1000014,
      1000015,
      1000016,
      1000017,
      1084001,
      1084002,
      1084003,
      1084004,
      1084005,
      1084006,
      1084007,
      1084008,
      1084009,
      1084010,
      1084011,
      1084012
    ],
    "MNCENFNJCGK": [
      [
        3,
        0,
        0
      ],
      [
        0,
        0,
        2
      ],
      []
    ]
  },
  {
    "configId": 10000079,
    "AFJMEDEFNAF": [
      1000001,
      1000002,
      1000003,
      1000004,
      1000005,
      1000006,
      1000007,
      1000008,
      1000009,
      1000010,
      1000011,
      1000012,
      1000013,
      1000014,
      1000015,
      1000016,
      1000017,
      1079001,
      1079002,
      1079003,
      1079004,
      1079005,
      1079006,
      1079007,
      1079008,
      1079009,
      1079010,
      1079011,
      1079012,
      1079013,
      1079014,
      1079015,
      1079016
    ],
    "MNCENFNJCGK": [
      [
        0,
        0,
        3
      ],
      [],
      []
    ]
  },
  {
    "configId": 10000078,
    "AFJMEDEFNAF": [
      1000001,
      1000002,
      1000003,
      1000004,
      1000005,
      1000006,
      1000007,
      1000008,
      1000009,
      1000010,
      1000011,
      1000012,
      1000013,
      1000014,
      1000015,
      1000016,
      1000017,
      1078001,
      1078002,
      1078003,
      1078004,
      1078005,
      1078006,
      1078007,
      1078008,
      1078009,
      1078010,
      1078011,
      1078012,
      1078013,
      1078014,
      1078015
    ],
    "MNCENFNJCGK": [
      [
        0,
        -0.5,
        -3
      ],
      [
        2,
        0.5,
        -1
      ],
      [
        1,
        -0.5,
        2
      ]
    ]
  },
  {
    "configId": 10000058,
    "AFJMEDEFNAF": [
      1000001,
      1000002,
      1000003,
      1000004,
      1000005,
      1000006,
      1000007,
      1000008,
      1000009,
      1000010,
      1000011,
      1000012,
      1000013,
      1000014,
      1000015,
      1000016,
      1000017,
      1058001,
      1058002,
      1058003,
      1058004,
      1058005,
      1058006,
      1058007,
      1058008,
      1058009,
      1058010,
      1058011,
      1058012
    ],
    "MNCENFNJCGK": [
      [
        0,
        -0.5,
        -3
      ],
      [
        -2,
        0,
        -1
      ],
      [
        2,
        0,
        0
      ]
    ]
  },
  {
    "configId": 10000054,
    "AFJMEDEFNAF": [
      1000001,
      1000002,
      1000003,
      1000004,
      1000005,
      1000006,
      1000007,
      1000008,
      1000009,
      1000010,
      1000011,
      1000012,
      1000013,
      1000014,
      1000015,
      1000016,
      1000017,
      1054001,
      1054002,
      1054003,
      1054004,
      1054005,
      1054006,
      1054007,
      1054008,
      1054009,
      1054010,
      1054011,
      1054012
    ],
    "MNCENFNJCGK": [
      [
        -2,
        0,
        0
      ],
      [
        0,
        0,
        2
      ],
      [
        -2,
        -0.5,
        -3
      ]
    ]
  },
  {
    "configId": 10000046,
    "AFJMEDEFNAF": [
      1000001,
      1000002,
      1000003,
      1000004,
      1000005,
      1000006,
      1000007,
      1000008,
      1000009,
      1000010,
      1000011,
      1000012,
      1000013,
      1000014,
      1000015,
      1000016,
      1000017,
      1046001,
      1046002,
      1046003,
      1046004,
      1046005,
      1046006,
      1046007,
      1046008,
      1046009,
      1046010,
      1046011,
      1046012,
      1046013,
      1046014,
      1046015
    ],
    "MNCENFNJCGK": [
      [
        3,
        0,
        0
      ],
      [],
      []
    ]
  },
  {
    "configId": 10000086,
    "AFJMEDEFNAF": [
      1000001,
      1000002,
      1000003,
      1000004,
      1000005,
      1000006,
      1000007,
      1000008,
      1000009,
      1000010,
      1000011,
      1000012,
      1000013,
      1000014,
      1000015,
      1000016,
      1000017,
      1086001,
      1086002,
      1086003,
      1086004,
      1086005,
      1086006,
      1086007,
      1086008,
      1086009,
      1086010,
      1086011
    ],
    "MNCENFNJCGK": [
      [
        0,
        0,
        -4
      ],
      [
        -3,
        0,
        0
      ],
      [
        3,
        0,
        0
      ]
    ]
  },
  {
    "configId": 10000089,
    "AFJMEDEFNAF": [
      1000001,
      1000002,
      1000003,
      1000004,
      1000005,
      1000006,
      1000007,
      1000008,
      1000009,
      1000010,
      1000011,
      1000012,
      1000013,
      1000014,
      1000015,
      1000016,
      1000017,
      1089001,
      1089002,
      1089003,
      1089004,
      1089005,
      1089006,
      1089007,
      1089008,
      1089009,
      1089010,
      1089011,
      1089012,
      1089013
    ],
    "MNCENFNJCGK": [
      [
        -2,
        -0.5,
        -2
      ],
      [
        1,
        0,
        2
      ],
      [
        0,
        -0.5,
        -3
      ]
    ]
  },
  {
    "configId": 10000026,
    "AFJMEDEFNAF": [
      1000001,
      1000002,
      1000003,
      1000004,
      1000005,
      1000006,
      1000007,
      1000008,
      1000009,
      1000010,
      1000011,
      1000012,
      1000013,
      1000014,
      1000015,
      1000016,
      1000017,
      1026001,
      1026002,
      1026003,
      1026004,
      1026005,
      1026006,
      1026007,
      1026008,
      1026009,
      1026010,
      1026011,
      1026012,
      1026013,
      1026014,
      1026015,
      1026016,
      1026017,
      1026018,
      1026019
    ],
    "MNCENFNJCGK": [
      [
        -1,
        0,
        0
      ],
      [
        -0.7,
        0,
        0.7
      ],
      [
        0.7,
        0,
        0.7
      ]
    ]
  },
  {
    "configId": 10000093,
    "AFJMEDEFNAF": [
      1000001,
      1000002,
      1000003,
      1000004,
      1000005,
      1000006,
      1000007,
      1000008,
      1000009,
      1000010,
      1000011,
      1000012,
      1000013,
      1000014,
      1000015,
      1000016,
      1000017,
      1093001,
      1093002,
      1093003,
      1093004,
      1093005,
      1093006,
      1093007,
      1093008,
      1093009,
      1093010,
      1093011,
      1093012,
      1093013,
      1093014,
      1093015,
      1093016,
      1093017,
      1093018,
      1093019
    ],
    "MNCENFNJCGK": [
      [
        0,
        0,
        -2
      ],
      [
        -2,
        0,
        0
      ],
      [
        0,
        0,
        2
      ]
    ]
  },
  {
    "configId": 10000003,
    "AFJMEDEFNAF": [
      1000001,
      1000002,
      1000003,
      1000004,
      1000005,
      1000006,
      1000007,
      1000008,
      1000009,
      1000010,
      1000011,
      1000012,
      1000013,
      1000014,
      1000015,
      1000016,
      1000017,
      1003001,
      1003002,
      1003003,
      1003004,
      1003005,
      1003006,
      1003007,
      1003008,
      1003009,
      1003010,
      1003011,
      1003012,
      1003013,
      1003014,
      1003015,
      1003016,
      1003017,
      1003018,
      1003019
    ],
    "MNCENFNJCGK": [
      [
        3,
        0,
        0
      ],
      [],
      []
    ]
  },
  {
    "configId": 10000047,
    "AFJMEDEFNAF": [
      1000001,
      1000002,
      1000003,
      1000004,
      1000005,
      1000006,
      1000007,
      1000008,
      1000009,
      1000010,
      1000011,
      1000012,
      1000013,
      1000014,
      1000015,
      1000016,
      1000017,
      1047001,
      1047002,
      1047003,
      1047004,
      1047005,
      1047006,
      1047007,
      1047008,
      1047009,
      1047010,
      1047011,
      1047012,
      1047013,
      1047014,
      1047015
    ],
    "MNCENFNJCGK": [
      [
        0,
        0,
        -3
      ],
      [
        3,
        0,
        0
      ],
      [
        2,
        0,
        2
      ]
    ]
  },
  {
    "configId": 10000087,
    "AFJMEDEFNAF": [
      1000001,
      1000002,
      1000003,
      1000004,
      1000005,
      1000006,
      1000007,
      1000008,
      1000009,
      1000010,
      1000011,
      1000012,
      1000013,
      1000014,
      1000015,
      1000016,
      1000017,
      1087001,
      1087002,
      1087003,
      1087004,
      1087005,
      1087006,
      1087007,
      1087008,
      1087009,
      1087010,
      1087011,
      1087012,
      1087013
    ],
    "MNCENFNJCGK": [
      [
        3,
        -0.5,
        0
      ],
      [
        0,
        -0.5,
        -4
      ],
      [
        0,
        0,
        1
      ]
    ]
  },
  {
    "configId": 10000091,
    "AFJMEDEFNAF": [
      1000001,
      1000002,
      1000003,
      1000004,
      1000005,
      1000006,
      1000007,
      1000008,
      1000009,
      1000010,
      1000011,
      1000012,
      1000013,
      1000014,
      1000015,
      1000016,
      1000017,
      1091001,
      1091002,
      1091003,
      1091004,
      1091005,
      1091006,
      1091007,
      1091008,
      1091009,
      1091010,
      1091011,
      1091012,
      1091013,
      1091014,
      1091015,
      1091016,
      1091017
    ],
    "MNCENFNJCGK": [
      [
        2,
        0.3,
        0.5
      ],
      [
        -1,
        0.3,
        -3
      ],
      [
        -3,
        0.3,
        0
      ]
    ]
  },
  {
    "configId": 10000038,
    "AFJMEDEFNAF": [
      1000001,
      1000002,
      1000003,
      1000004,
      1000005,
      1000006,
      1000007,
      1000008,
      1000009,
      1000010,
      1000011,
      1000012,
      1000013,
      1000014,
      1000015,
      1000016,
      1000017,
      1038001,
      1038002,
      1038003,
      1038004,
      1038005,
      1038006,
      1038007,
      1038008,
      1038009,
      1038010,
      1038011,
      1038012,
      1038013,
      1038014,
      1038015,
      1038016,
      1038017,
      1038018,
      1038019
    ],
    "MNCENFNJCGK": [
      [
        -1,
        0,
        0
      ],
      [
        -0.7,
        0,
        0.7
      ],
      [
        0.7,
        0,
        0.7
      ]
    ]
  },
  {
    "configId": 10000094,
    "AFJMEDEFNAF": [
      1000001,
      1000002,
      1000003,
      1000004,
      1000005,
      1000006,
      1000007,
      1000008,
      1000009,
      1000010,
      1000011,
      1000012,
      1000013,
      1000014,
      1000015,
      1000016,
      1000017,
      1094001,
      1094002,
      1094003,
      1094004,
      1094005,
      1094006,
      1094007,
      1094008,
      1094009,
      1094010,
      1094011,
      1094012,
      1094013,
      1094014,
      1094015,
      1094016
    ],
    "MNCENFNJCGK": [
      [
        2,
        -0.5,
        -2
      ],
      [
        2,
        -0.5,
        0
      ],
      [
        -0.5,
        -0.5,
        -2
      ]
    ]
  },
  {
    "configId": 10000030,
    "AFJMEDEFNAF": [
      1000001,
      1000002,
      1000003,
      1000004,
      1000005,
      1000006,
      1000007,
      1000008,
      1000009,
      1000010,
      1000011,
      1000012,
      1000013,
      1000014,
      1000015,
      1000016,
      1000017,
      1030001,
      1030002,
      1030003,
      1030004,
      1030005,
      1030006,
      1030007,
      1030008,
      1030009,
      1030010,
      1030011,
      1030012,
      1030013,
      1030014,
      1030015,
      1030016,
      1030017,
      1030018
    ],
    "MNCENFNJCGK": [
      [
        -1.2,
        1,
        -3
      ],
      [
        -3,
        0,
        0
      ],
      [
        2,
        -0.5,
        -2
      ]
    ]
  },
  {
    "configId": 10000057,
    "AFJMEDEFNAF": [
      1000001,
      1000002,
      1000003,
      1000004,
      1000005,
      1000006,
      1000007,
      1000008,
      1000009,
      1000010,
      1000011,
      1000012,
      1000013,
      1000014,
      1000015,
      1000016,
      1000017,
      1057001,
      1057002,
      1057003,
      1057004,
      1057005,
      1057006,
      1057007,
      1057008,
      1057009,
      1057010,
      1057011,
      1057012,
      1057013,
      1057014,
      1057015,
      1057016,
      1057017,
      1057018,
      1057019
    ],
    "MNCENFNJCGK": [
      [
        0,
        0,
        -4
      ],
      [],
      []
    ]
  }
]