[
  {
    "FNFFOFLLDLD": 1,
    "AOOHMLNIHHF": 100,
    "MJOFBLLLGEN": true,
    "descriptionTextMapHash": 1326380424,
    "CGBAPGELIND": 0.8,
    "IKFHNGBIIFK": 0.7,
    "quality": 2,
    "star": 2
  },
  {
    "FNFFOFLLDLD": 2,
    "GBBDJGLBJNO": 200,
    "AOOHMLNIHHF": 300,
    "MJOFBLLLGEN": true,
    "descriptionTextMapHash": 1420784704,
    "CGBAPGELIND": 0.85,
    "IKFHNGBIIFK": 0.8,
    "quality": 3,
    "star": 3
  },
  {
    "FNFFOFLLDLD": 3,
    "GBBDJGLBJNO": 400,
    "AOOHMLNIHHF": 600,
    "MJOFBLLLGEN": true,
    "descriptionTextMapHash": 1656718296,
    "CGBAPGELIND": 0.9,
    "IKFHNGBIIFK": 0.9,
    "quality": 4,
    "star": 4
  },
  {
    "FNFFOFLLDLD": 4,
    "GBBDJGLBJNO": 800,
    "AOOHMLNIHHF": 2000,
    "MJOFBLLLGEN": true,
    "descriptionTextMapHash": 3570192736,
    "CGBAPGELIND": 0.95,
    "IKFHNGBIIFK": 1,
    "quality": 5,
    "star": 5
  }
]