[
  {
    "IEMCFFPEBBM": 1,
    "GKJPCAKJGAI": "ALCHEMY_SIM_TECH_TREE_TYPE_ALCHEMY",
    "EELBKHMOPDC": 1,
    "OFKHHGIEPPE": 3384213892,
    "IKMJHJOAPOG": 2554130732,
    "iconPath": "",
    "OGFGJBNPHAJ": true,
    "BLBGKALBIDP": [
      {
        "PCOLBJIPHMJ": []
      },
      {
        "PCOLBJIPHMJ": []
      }
    ],
    "JMLNOOFPHCD": [
      {
        "AILLLHKBPPE": "ALCHEMY_SIM_PROPERTY_POTION_LEVEL_EXP_CRIT_PROB",
        "JIMDAPHPAII": 20
      },
      {},
      {}
    ]
  },
  {
    "IEMCFFPEBBM": 2,
    "GKJPCAKJGAI": "ALCHEMY_SIM_TECH_TREE_TYPE_ALCHEMY",
    "EELBKHMOPDC": 1,
    "IEBBHLPFFCC": true,
    "OFKHHGIEPPE": 1521232740,
    "IKMJHJOAPOG": 146139012,
    "iconPath": "ART/UI/Atlas/Activity/AlchemySim/UI_Activity_AlcSimTech_Alc_Crit",
    "level": 1,
    "AKAMEFBDJLC": 15000,
    "BLBGKALBIDP": [
      {
        "NNGPGNKIEMP": "ALCHEMY_SIM_TECH_TREE_UNLOCK_PRE_COND_TYPE_TECH_UNLOCKED",
        "PCOLBJIPHMJ": [
          1
        ]
      },
      {
        "PCOLBJIPHMJ": []
      }
    ],
    "JMLNOOFPHCD": [
      {
        "AILLLHKBPPE": "ALCHEMY_SIM_PROPERTY_POTION_LEVEL_EXP_CRIT_PROB",
        "JIMDAPHPAII": 30
      },
      {},
      {}
    ]
  },
  {
    "IEMCFFPEBBM": 3,
    "GKJPCAKJGAI": "ALCHEMY_SIM_TECH_TREE_TYPE_ALCHEMY",
    "EELBKHMOPDC": 1,
    "IEBBHLPFFCC": true,
    "OFKHHGIEPPE": 3806145716,
    "IKMJHJOAPOG": 375212476,
    "iconPath": "ART/UI/Atlas/Activity/AlchemySim/UI_Activity_AlcSimTech_Alc_Crit",
    "level": 2,
    "AKAMEFBDJLC": 30000,
    "BLBGKALBIDP": [
      {
        "NNGPGNKIEMP": "ALCHEMY_SIM_TECH_TREE_UNLOCK_PRE_COND_TYPE_TECH_UNLOCKED",
        "PCOLBJIPHMJ": [
          2
        ]
      },
      {
        "PCOLBJIPHMJ": []
      }
    ],
    "JMLNOOFPHCD": [
      {
        "AILLLHKBPPE": "ALCHEMY_SIM_PROPERTY_POTION_LEVEL_EXP_CRIT_PROB",
        "JIMDAPHPAII": 40
      },
      {},
      {}
    ]
  },
  {
    "IEMCFFPEBBM": 4,
    "GKJPCAKJGAI": "ALCHEMY_SIM_TECH_TREE_TYPE_ALCHEMY",
    "EELBKHMOPDC": 1,
    "IEBBHLPFFCC": true,
    "OFKHHGIEPPE": 2367232436,
    "IKMJHJOAPOG": 1860251108,
    "iconPath": "ART/UI/Atlas/Activity/AlchemySim/UI_Activity_AlcSimTech_Alc_Crit",
    "level": 3,
    "AKAMEFBDJLC": 90000,
    "BLBGKALBIDP": [
      {
        "NNGPGNKIEMP": "ALCHEMY_SIM_TECH_TREE_UNLOCK_PRE_COND_TYPE_TECH_UNLOCKED",
        "PCOLBJIPHMJ": [
          3
        ]
      },
      {
        "PCOLBJIPHMJ": []
      }
    ],
    "JMLNOOFPHCD": [
      {
        "AILLLHKBPPE": "ALCHEMY_SIM_PROPERTY_POTION_LEVEL_EXP_CRIT_PROB",
        "JIMDAPHPAII": 50
      },
      {},
      {}
    ]
  },
  {
    "IEMCFFPEBBM": 5,
    "GKJPCAKJGAI": "ALCHEMY_SIM_TECH_TREE_TYPE_ALCHEMY",
    "EELBKHMOPDC": 2,
    "OFKHHGIEPPE": 1528335796,
    "IKMJHJOAPOG": 3299155828,
    "iconPath": "",
    "OGFGJBNPHAJ": true,
    "BLBGKALBIDP": [
      {
        "PCOLBJIPHMJ": []
      },
      {
        "PCOLBJIPHMJ": []
      }
    ],
    "JMLNOOFPHCD": [
      {
        "AILLLHKBPPE": "ALCHEMY_SIM_PROPERTY_ALCHEMY_EXP_PERCENT_ADD"
      },
      {},
      {}
    ]
  },
  {
    "IEMCFFPEBBM": 6,
    "GKJPCAKJGAI": "ALCHEMY_SIM_TECH_TREE_TYPE_ALCHEMY",
    "EELBKHMOPDC": 2,
    "IEBBHLPFFCC": true,
    "OFKHHGIEPPE": 683719308,
    "IKMJHJOAPOG": 1608147860,
    "iconPath": "ART/UI/Atlas/Activity/AlchemySim/UI_Activity_AlcSimTech_Alc_Exp",
    "level": 1,
    "AKAMEFBDJLC": 15000,
    "BLBGKALBIDP": [
      {
        "NNGPGNKIEMP": "ALCHEMY_SIM_TECH_TREE_UNLOCK_PRE_COND_TYPE_TECH_UNLOCKED",
        "PCOLBJIPHMJ": [
          5
        ]
      },
      {
        "PCOLBJIPHMJ": []
      }
    ],
    "JMLNOOFPHCD": [
      {
        "AILLLHKBPPE": "ALCHEMY_SIM_PROPERTY_ALCHEMY_EXP_PERCENT_ADD",
        "JIMDAPHPAII": 30
      },
      {},
      {}
    ]
  },
  {
    "IEMCFFPEBBM": 7,
    "GKJPCAKJGAI": "ALCHEMY_SIM_TECH_TREE_TYPE_ALCHEMY",
    "EELBKHMOPDC": 2,
    "IEBBHLPFFCC": true,
    "OFKHHGIEPPE": 1165087812,
    "IKMJHJOAPOG": 3950533684,
    "iconPath": "ART/UI/Atlas/Activity/AlchemySim/UI_Activity_AlcSimTech_Alc_Exp",
    "level": 2,
    "AKAMEFBDJLC": 30000,
    "BLBGKALBIDP": [
      {
        "NNGPGNKIEMP": "ALCHEMY_SIM_TECH_TREE_UNLOCK_PRE_COND_TYPE_TECH_UNLOCKED",
        "PCOLBJIPHMJ": [
          6
        ]
      },
      {
        "PCOLBJIPHMJ": []
      }
    ],
    "JMLNOOFPHCD": [
      {
        "AILLLHKBPPE": "ALCHEMY_SIM_PROPERTY_ALCHEMY_EXP_PERCENT_ADD",
        "JIMDAPHPAII": 60
      },
      {},
      {}
    ]
  },
  {
    "IEMCFFPEBBM": 8,
    "GKJPCAKJGAI": "ALCHEMY_SIM_TECH_TREE_TYPE_ALCHEMY",
    "EELBKHMOPDC": 2,
    "IEBBHLPFFCC": true,
    "OFKHHGIEPPE": 2007517956,
    "IKMJHJOAPOG": 3601444492,
    "iconPath": "ART/UI/Atlas/Activity/AlchemySim/UI_Activity_AlcSimTech_Alc_Exp",
    "level": 3,
    "AKAMEFBDJLC": 90000,
    "BLBGKALBIDP": [
      {
        "NNGPGNKIEMP": "ALCHEMY_SIM_TECH_TREE_UNLOCK_PRE_COND_TYPE_TECH_UNLOCKED",
        "PCOLBJIPHMJ": [
          7
        ]
      },
      {
        "PCOLBJIPHMJ": []
      }
    ],
    "JMLNOOFPHCD": [
      {
        "AILLLHKBPPE": "ALCHEMY_SIM_PROPERTY_ALCHEMY_EXP_PERCENT_ADD",
        "JIMDAPHPAII": 100
      },
      {},
      {}
    ]
  },
  {
    "IEMCFFPEBBM": 13,
    "GKJPCAKJGAI": "ALCHEMY_SIM_TECH_TREE_TYPE_ALCHEMY",
    "EELBKHMOPDC": 3,
    "OFKHHGIEPPE": 1859741980,
    "IKMJHJOAPOG": 2454029732,
    "iconPath": "",
    "OGFGJBNPHAJ": true,
    "BLBGKALBIDP": [
      {
        "PCOLBJIPHMJ": []
      },
      {
        "PCOLBJIPHMJ": []
      }
    ],
    "JMLNOOFPHCD": [
      {
        "AILLLHKBPPE": "ALCHEMY_SIM_PROPERTY_POTION_TAG_LIMIT",
        "JIMDAPHPAII": 2
      },
      {
        "AILLLHKBPPE": "ALCHEMY_SIM_PROPERTY_POTION_LEVEL_LIMIT",
        "JIMDAPHPAII": 10
      },
      {}
    ]
  },
  {
    "IEMCFFPEBBM": 14,
    "GKJPCAKJGAI": "ALCHEMY_SIM_TECH_TREE_TYPE_ALCHEMY",
    "EELBKHMOPDC": 3,
    "IEBBHLPFFCC": true,
    "OFKHHGIEPPE": 188646844,
    "IKMJHJOAPOG": 3357330148,
    "iconPath": "ART/UI/Atlas/Activity/AlchemySim/UI_Activity_AlcSimTech_Alc_Fin",
    "level": 1,
    "BLBGKALBIDP": [
      {
        "NNGPGNKIEMP": "ALCHEMY_SIM_TECH_TREE_UNLOCK_PRE_COND_TYPE_TECH_UNLOCKED",
        "PCOLBJIPHMJ": [
          4,
          8,
          13
        ]
      },
      {
        "PCOLBJIPHMJ": []
      }
    ],
    "JMLNOOFPHCD": [
      {
        "AILLLHKBPPE": "ALCHEMY_SIM_PROPERTY_POTION_TAG_LIMIT_ADD",
        "JIMDAPHPAII": 1
      },
      {
        "AILLLHKBPPE": "ALCHEMY_SIM_PROPERTY_POTION_LEVEL_ADD",
        "JIMDAPHPAII": 5
      },
      {
        "AILLLHKBPPE": "ALCHEMY_SIM_PROPERTY_POTION_LEVEL_LIMIT_ADD",
        "JIMDAPHPAII": 5
      }
    ]
  },
  {
    "IEMCFFPEBBM": 15,
    "GKJPCAKJGAI": "ALCHEMY_SIM_TECH_TREE_TYPE_PLANT",
    "EELBKHMOPDC": 1,
    "OFKHHGIEPPE": 3055157548,
    "IKMJHJOAPOG": 2043261564,
    "iconPath": "",
    "OGFGJBNPHAJ": true,
    "BLBGKALBIDP": [
      {
        "PCOLBJIPHMJ": []
      },
      {
        "PCOLBJIPHMJ": []
      }
    ],
    "JMLNOOFPHCD": [
      {
        "AILLLHKBPPE": "ALCHEMY_SIM_PROPERTY_CROP_EXTRA_YIELD_PROB"
      },
      {},
      {}
    ]
  },
  {
    "IEMCFFPEBBM": 16,
    "GKJPCAKJGAI": "ALCHEMY_SIM_TECH_TREE_TYPE_PLANT",
    "EELBKHMOPDC": 1,
    "IEBBHLPFFCC": true,
    "OFKHHGIEPPE": 2333447556,
    "IKMJHJOAPOG": 2594401292,
    "iconPath": "ART/UI/Atlas/Activity/AlchemySim/UI_Activity_AlcSimTech_Crop_Crit",
    "level": 1,
    "AKAMEFBDJLC": 15000,
    "BLBGKALBIDP": [
      {
        "NNGPGNKIEMP": "ALCHEMY_SIM_TECH_TREE_UNLOCK_PRE_COND_TYPE_TECH_UNLOCKED",
        "PCOLBJIPHMJ": [
          15
        ]
      },
      {
        "PCOLBJIPHMJ": []
      }
    ],
    "JMLNOOFPHCD": [
      {
        "AILLLHKBPPE": "ALCHEMY_SIM_PROPERTY_CROP_EXTRA_YIELD_PROB",
        "JIMDAPHPAII": 30
      },
      {},
      {}
    ]
  },
  {
    "IEMCFFPEBBM": 17,
    "GKJPCAKJGAI": "ALCHEMY_SIM_TECH_TREE_TYPE_PLANT",
    "EELBKHMOPDC": 1,
    "IEBBHLPFFCC": true,
    "OFKHHGIEPPE": 2030770452,
    "IKMJHJOAPOG": 2415957268,
    "iconPath": "ART/UI/Atlas/Activity/AlchemySim/UI_Activity_AlcSimTech_Crop_Crit",
    "level": 2,
    "AKAMEFBDJLC": 30000,
    "BLBGKALBIDP": [
      {
        "NNGPGNKIEMP": "ALCHEMY_SIM_TECH_TREE_UNLOCK_PRE_COND_TYPE_TECH_UNLOCKED",
        "PCOLBJIPHMJ": [
          16
        ]
      },
      {
        "PCOLBJIPHMJ": []
      }
    ],
    "JMLNOOFPHCD": [
      {
        "AILLLHKBPPE": "ALCHEMY_SIM_PROPERTY_CROP_EXTRA_YIELD_PROB",
        "JIMDAPHPAII": 60
      },
      {},
      {}
    ]
  },
  {
    "IEMCFFPEBBM": 18,
    "GKJPCAKJGAI": "ALCHEMY_SIM_TECH_TREE_TYPE_PLANT",
    "EELBKHMOPDC": 1,
    "IEBBHLPFFCC": true,
    "OFKHHGIEPPE": 3488549852,
    "IKMJHJOAPOG": 3740150700,
    "iconPath": "ART/UI/Atlas/Activity/AlchemySim/UI_Activity_AlcSimTech_Crop_Crit",
    "level": 3,
    "AKAMEFBDJLC": 90000,
    "BLBGKALBIDP": [
      {
        "NNGPGNKIEMP": "ALCHEMY_SIM_TECH_TREE_UNLOCK_PRE_COND_TYPE_TECH_UNLOCKED",
        "PCOLBJIPHMJ": [
          17
        ]
      },
      {
        "PCOLBJIPHMJ": []
      }
    ],
    "JMLNOOFPHCD": [
      {
        "AILLLHKBPPE": "ALCHEMY_SIM_PROPERTY_CROP_EXTRA_YIELD_PROB",
        "JIMDAPHPAII": 100
      },
      {},
      {}
    ]
  },
  {
    "IEMCFFPEBBM": 19,
    "GKJPCAKJGAI": "ALCHEMY_SIM_TECH_TREE_TYPE_PLANT",
    "EELBKHMOPDC": 2,
    "OFKHHGIEPPE": 1229808236,
    "IKMJHJOAPOG": 3337274476,
    "iconPath": "",
    "OGFGJBNPHAJ": true,
    "BLBGKALBIDP": [
      {
        "PCOLBJIPHMJ": []
      },
      {
        "PCOLBJIPHMJ": []
      }
    ],
    "JMLNOOFPHCD": [
      {
        "AILLLHKBPPE": "ALCHEMY_SIM_PROPERTY_CROP_YIELD_PERCENT_ADD"
      },
      {},
      {}
    ]
  },
  {
    "IEMCFFPEBBM": 20,
    "GKJPCAKJGAI": "ALCHEMY_SIM_TECH_TREE_TYPE_PLANT",
    "EELBKHMOPDC": 2,
    "IEBBHLPFFCC": true,
    "OFKHHGIEPPE": 4145866428,
    "IKMJHJOAPOG": 3403347620,
    "iconPath": "ART/UI/Atlas/Activity/AlchemySim/UI_Activity_AlcSimTech_Crop_Output",
    "level": 1,
    "AKAMEFBDJLC": 30000,
    "BLBGKALBIDP": [
      {
        "NNGPGNKIEMP": "ALCHEMY_SIM_TECH_TREE_UNLOCK_PRE_COND_TYPE_TECH_UNLOCKED",
        "PCOLBJIPHMJ": [
          19
        ]
      },
      {
        "PCOLBJIPHMJ": []
      }
    ],
    "JMLNOOFPHCD": [
      {
        "AILLLHKBPPE": "ALCHEMY_SIM_PROPERTY_CROP_YIELD_PERCENT_ADD",
        "JIMDAPHPAII": 50
      },
      {},
      {}
    ]
  },
  {
    "IEMCFFPEBBM": 21,
    "GKJPCAKJGAI": "ALCHEMY_SIM_TECH_TREE_TYPE_PLANT",
    "EELBKHMOPDC": 2,
    "IEBBHLPFFCC": true,
    "OFKHHGIEPPE": 1019637444,
    "IKMJHJOAPOG": 665186764,
    "iconPath": "ART/UI/Atlas/Activity/AlchemySim/UI_Activity_AlcSimTech_Crop_Output",
    "level": 2,
    "AKAMEFBDJLC": 60000,
    "BLBGKALBIDP": [
      {
        "NNGPGNKIEMP": "ALCHEMY_SIM_TECH_TREE_UNLOCK_PRE_COND_TYPE_TECH_UNLOCKED",
        "PCOLBJIPHMJ": [
          20
        ]
      },
      {
        "PCOLBJIPHMJ": []
      }
    ],
    "JMLNOOFPHCD": [
      {
        "AILLLHKBPPE": "ALCHEMY_SIM_PROPERTY_CROP_YIELD_PERCENT_ADD",
        "JIMDAPHPAII": 100
      },
      {},
      {}
    ]
  },
  {
    "IEMCFFPEBBM": 22,
    "GKJPCAKJGAI": "ALCHEMY_SIM_TECH_TREE_TYPE_PLANT",
    "EELBKHMOPDC": 2,
    "IEBBHLPFFCC": true,
    "OFKHHGIEPPE": 1179607700,
    "IKMJHJOAPOG": 83096460,
    "iconPath": "ART/UI/Atlas/Activity/AlchemySim/UI_Activity_AlcSimTech_Crop_Output",
    "level": 3,
    "AKAMEFBDJLC": 180000,
    "BLBGKALBIDP": [
      {
        "NNGPGNKIEMP": "ALCHEMY_SIM_TECH_TREE_UNLOCK_PRE_COND_TYPE_TECH_UNLOCKED",
        "PCOLBJIPHMJ": [
          21
        ]
      },
      {
        "PCOLBJIPHMJ": []
      }
    ],
    "JMLNOOFPHCD": [
      {
        "AILLLHKBPPE": "ALCHEMY_SIM_PROPERTY_CROP_YIELD_PERCENT_ADD",
        "JIMDAPHPAII": 150
      },
      {},
      {}
    ]
  },
  {
    "IEMCFFPEBBM": 23,
    "GKJPCAKJGAI": "ALCHEMY_SIM_TECH_TREE_TYPE_PLANT",
    "EELBKHMOPDC": 3,
    "OFKHHGIEPPE": 999536604,
    "IKMJHJOAPOG": 2256721404,
    "iconPath": "",
    "OGFGJBNPHAJ": true,
    "BLBGKALBIDP": [
      {
        "PCOLBJIPHMJ": []
      },
      {
        "PCOLBJIPHMJ": []
      }
    ],
    "JMLNOOFPHCD": [
      {
        "AILLLHKBPPE": "ALCHEMY_SIM_PROPERTY_CROP_EXP_PERCENT_ADD"
      },
      {},
      {}
    ]
  },
  {
    "IEMCFFPEBBM": 24,
    "GKJPCAKJGAI": "ALCHEMY_SIM_TECH_TREE_TYPE_PLANT",
    "EELBKHMOPDC": 3,
    "IEBBHLPFFCC": true,
    "OFKHHGIEPPE": 4040077716,
    "IKMJHJOAPOG": 3218003196,
    "iconPath": "ART/UI/Atlas/Activity/AlchemySim/UI_Activity_AlcSimTech_Crop_Exp",
    "level": 1,
    "AKAMEFBDJLC": 15000,
    "BLBGKALBIDP": [
      {
        "NNGPGNKIEMP": "ALCHEMY_SIM_TECH_TREE_UNLOCK_PRE_COND_TYPE_TECH_UNLOCKED",
        "PCOLBJIPHMJ": [
          23
        ]
      },
      {
        "PCOLBJIPHMJ": []
      }
    ],
    "JMLNOOFPHCD": [
      {
        "AILLLHKBPPE": "ALCHEMY_SIM_PROPERTY_CROP_EXP_PERCENT_ADD",
        "JIMDAPHPAII": 15
      },
      {},
      {}
    ]
  },
  {
    "IEMCFFPEBBM": 25,
    "GKJPCAKJGAI": "ALCHEMY_SIM_TECH_TREE_TYPE_PLANT",
    "EELBKHMOPDC": 3,
    "IEBBHLPFFCC": true,
    "OFKHHGIEPPE": 267610460,
    "IKMJHJOAPOG": 1337330164,
    "iconPath": "ART/UI/Atlas/Activity/AlchemySim/UI_Activity_AlcSimTech_Crop_Exp",
    "level": 2,
    "AKAMEFBDJLC": 30000,
    "BLBGKALBIDP": [
      {
        "NNGPGNKIEMP": "ALCHEMY_SIM_TECH_TREE_UNLOCK_PRE_COND_TYPE_TECH_UNLOCKED",
        "PCOLBJIPHMJ": [
          24
        ]
      },
      {
        "PCOLBJIPHMJ": []
      }
    ],
    "JMLNOOFPHCD": [
      {
        "AILLLHKBPPE": "ALCHEMY_SIM_PROPERTY_CROP_EXP_PERCENT_ADD",
        "JIMDAPHPAII": 30
      },
      {},
      {}
    ]
  },
  {
    "IEMCFFPEBBM": 26,
    "GKJPCAKJGAI": "ALCHEMY_SIM_TECH_TREE_TYPE_PLANT",
    "EELBKHMOPDC": 3,
    "IEBBHLPFFCC": true,
    "OFKHHGIEPPE": 4086826628,
    "IKMJHJOAPOG": 910361628,
    "iconPath": "ART/UI/Atlas/Activity/AlchemySim/UI_Activity_AlcSimTech_Crop_Exp",
    "level": 3,
    "AKAMEFBDJLC": 90000,
    "BLBGKALBIDP": [
      {
        "NNGPGNKIEMP": "ALCHEMY_SIM_TECH_TREE_UNLOCK_PRE_COND_TYPE_TECH_UNLOCKED",
        "PCOLBJIPHMJ": [
          25
        ]
      },
      {
        "PCOLBJIPHMJ": []
      }
    ],
    "JMLNOOFPHCD": [
      {
        "AILLLHKBPPE": "ALCHEMY_SIM_PROPERTY_CROP_EXP_PERCENT_ADD",
        "JIMDAPHPAII": 50
      },
      {},
      {}
    ]
  },
  {
    "IEMCFFPEBBM": 27,
    "GKJPCAKJGAI": "ALCHEMY_SIM_TECH_TREE_TYPE_PLANT",
    "EELBKHMOPDC": 4,
    "OFKHHGIEPPE": 1392547100,
    "IKMJHJOAPOG": 2437644044,
    "iconPath": "",
    "OGFGJBNPHAJ": true,
    "BLBGKALBIDP": [
      {
        "PCOLBJIPHMJ": []
      },
      {
        "PCOLBJIPHMJ": []
      }
    ],
    "JMLNOOFPHCD": [
      {},
      {},
      {}
    ]
  },
  {
    "IEMCFFPEBBM": 28,
    "GKJPCAKJGAI": "ALCHEMY_SIM_TECH_TREE_TYPE_PLANT",
    "EELBKHMOPDC": 4,
    "IEBBHLPFFCC": true,
    "OFKHHGIEPPE": 1781465876,
    "IKMJHJOAPOG": 3014349036,
    "iconPath": "ART/UI/Atlas/Activity/AlchemySim/UI_Activity_AlcSimTech_Crop_Fin",
    "level": 1,
    "BLBGKALBIDP": [
      {
        "NNGPGNKIEMP": "ALCHEMY_SIM_TECH_TREE_UNLOCK_PRE_COND_TYPE_TECH_UNLOCKED",
        "PCOLBJIPHMJ": [
          18,
          22,
          26,
          27
        ]
      },
      {
        "PCOLBJIPHMJ": []
      }
    ],
    "JMLNOOFPHCD": [
      {
        "AILLLHKBPPE": "ALCHEMY_SIM_PROPERTY_CROP_UNLIMIT_FOOD_TYPE",
        "JIMDAPHPAII": 1
      },
      {
        "AILLLHKBPPE": "ALCHEMY_SIM_PROPERTY_CROP_LESS_ROUND",
        "JIMDAPHPAII": 1
      },
      {}
    ]
  },
  {
    "IEMCFFPEBBM": 29,
    "GKJPCAKJGAI": "ALCHEMY_SIM_TECH_TREE_TYPE_SALE",
    "EELBKHMOPDC": 1,
    "OFKHHGIEPPE": 2010522516,
    "IKMJHJOAPOG": 377848284,
    "iconPath": "",
    "OGFGJBNPHAJ": true,
    "BLBGKALBIDP": [
      {
        "PCOLBJIPHMJ": []
      },
      {
        "PCOLBJIPHMJ": []
      }
    ],
    "JMLNOOFPHCD": [
      {
        "AILLLHKBPPE": "ALCHEMY_SIM_PROPERTY_SALE_SLOT_LIMIT",
        "JIMDAPHPAII": 3
      },
      {
        "AILLLHKBPPE": "ALCHEMY_SIM_PROPERTY_NEWS_LIMIT",
        "JIMDAPHPAII": 2
      },
      {}
    ]
  },
  {
    "IEMCFFPEBBM": 30,
    "GKJPCAKJGAI": "ALCHEMY_SIM_TECH_TREE_TYPE_SALE",
    "EELBKHMOPDC": 1,
    "IEBBHLPFFCC": true,
    "OFKHHGIEPPE": 2885319996,
    "IKMJHJOAPOG": 2905906028,
    "iconPath": "ART/UI/Atlas/Activity/AlchemySim/UI_Activity_AlcSimTech_Sell_Num",
    "level": 1,
    "AKAMEFBDJLC": 30000,
    "BLBGKALBIDP": [
      {
        "NNGPGNKIEMP": "ALCHEMY_SIM_TECH_TREE_UNLOCK_PRE_COND_TYPE_TECH_UNLOCKED",
        "PCOLBJIPHMJ": [
          29
        ]
      },
      {
        "PCOLBJIPHMJ": []
      }
    ],
    "JMLNOOFPHCD": [
      {
        "AILLLHKBPPE": "ALCHEMY_SIM_PROPERTY_SALE_SLOT_LIMIT",
        "JIMDAPHPAII": 4
      },
      {},
      {}
    ]
  },
  {
    "IEMCFFPEBBM": 31,
    "GKJPCAKJGAI": "ALCHEMY_SIM_TECH_TREE_TYPE_SALE",
    "EELBKHMOPDC": 1,
    "IEBBHLPFFCC": true,
    "OFKHHGIEPPE": 3565758828,
    "IKMJHJOAPOG": 4215505004,
    "iconPath": "ART/UI/Atlas/Activity/AlchemySim/UI_Activity_AlcSimTech_Sell_Num",
    "level": 2,
    "AKAMEFBDJLC": 60000,
    "BLBGKALBIDP": [
      {
        "NNGPGNKIEMP": "ALCHEMY_SIM_TECH_TREE_UNLOCK_PRE_COND_TYPE_TECH_UNLOCKED",
        "PCOLBJIPHMJ": [
          30
        ]
      },
      {
        "PCOLBJIPHMJ": []
      }
    ],
    "JMLNOOFPHCD": [
      {
        "AILLLHKBPPE": "ALCHEMY_SIM_PROPERTY_SALE_SLOT_LIMIT",
        "JIMDAPHPAII": 5
      },
      {},
      {}
    ]
  },
  {
    "IEMCFFPEBBM": 32,
    "GKJPCAKJGAI": "ALCHEMY_SIM_TECH_TREE_TYPE_SALE",
    "EELBKHMOPDC": 1,
    "IEBBHLPFFCC": true,
    "OFKHHGIEPPE": 1691134436,
    "IKMJHJOAPOG": 2366990924,
    "iconPath": "ART/UI/Atlas/Activity/AlchemySim/UI_Activity_AlcSimTech_Sell_Num",
    "level": 3,
    "AKAMEFBDJLC": 180000,
    "BLBGKALBIDP": [
      {
        "NNGPGNKIEMP": "ALCHEMY_SIM_TECH_TREE_UNLOCK_PRE_COND_TYPE_TECH_UNLOCKED",
        "PCOLBJIPHMJ": [
          31
        ]
      },
      {
        "PCOLBJIPHMJ": []
      }
    ],
    "JMLNOOFPHCD": [
      {
        "AILLLHKBPPE": "ALCHEMY_SIM_PROPERTY_SALE_SLOT_LIMIT",
        "JIMDAPHPAII": 6
      },
      {},
      {}
    ]
  },
  {
    "IEMCFFPEBBM": 33,
    "GKJPCAKJGAI": "ALCHEMY_SIM_TECH_TREE_TYPE_SALE",
    "EELBKHMOPDC": 2,
    "OFKHHGIEPPE": 1471027572,
    "IKMJHJOAPOG": 1797902004,
    "iconPath": "",
    "OGFGJBNPHAJ": true,
    "BLBGKALBIDP": [
      {
        "PCOLBJIPHMJ": []
      },
      {
        "PCOLBJIPHMJ": []
      }
    ],
    "JMLNOOFPHCD": [
      {
        "AILLLHKBPPE": "ALCHEMY_SIM_PROPERTY_SALE_BASE_NUM_ADD"
      },
      {},
      {}
    ]
  },
  {
    "IEMCFFPEBBM": 34,
    "GKJPCAKJGAI": "ALCHEMY_SIM_TECH_TREE_TYPE_SALE",
    "EELBKHMOPDC": 2,
    "IEBBHLPFFCC": true,
    "OFKHHGIEPPE": 2081895396,
    "IKMJHJOAPOG": 1542414884,
    "iconPath": "ART/UI/Atlas/Activity/AlchemySim/UI_Activity_AlcSimTech_Sell_Sales",
    "level": 1,
    "AKAMEFBDJLC": 15000,
    "BLBGKALBIDP": [
      {
        "NNGPGNKIEMP": "ALCHEMY_SIM_TECH_TREE_UNLOCK_PRE_COND_TYPE_TECH_UNLOCKED",
        "PCOLBJIPHMJ": [
          33
        ]
      },
      {
        "PCOLBJIPHMJ": []
      }
    ],
    "JMLNOOFPHCD": [
      {
        "AILLLHKBPPE": "ALCHEMY_SIM_PROPERTY_SALE_BASE_NUM_ADD",
        "JIMDAPHPAII": 2
      },
      {},
      {}
    ]
  },
  {
    "IEMCFFPEBBM": 35,
    "GKJPCAKJGAI": "ALCHEMY_SIM_TECH_TREE_TYPE_SALE",
    "EELBKHMOPDC": 2,
    "IEBBHLPFFCC": true,
    "OFKHHGIEPPE": 1098983700,
    "IKMJHJOAPOG": 1293352772,
    "iconPath": "ART/UI/Atlas/Activity/AlchemySim/UI_Activity_AlcSimTech_Sell_Sales",
    "level": 2,
    "AKAMEFBDJLC": 30000,
    "BLBGKALBIDP": [
      {
        "NNGPGNKIEMP": "ALCHEMY_SIM_TECH_TREE_UNLOCK_PRE_COND_TYPE_TECH_UNLOCKED",
        "PCOLBJIPHMJ": [
          34
        ]
      },
      {
        "PCOLBJIPHMJ": []
      }
    ],
    "JMLNOOFPHCD": [
      {
        "AILLLHKBPPE": "ALCHEMY_SIM_PROPERTY_SALE_BASE_NUM_ADD",
        "JIMDAPHPAII": 4
      },
      {},
      {}
    ]
  },
  {
    "IEMCFFPEBBM": 36,
    "GKJPCAKJGAI": "ALCHEMY_SIM_TECH_TREE_TYPE_SALE",
    "EELBKHMOPDC": 2,
    "IEBBHLPFFCC": true,
    "OFKHHGIEPPE": 288009148,
    "IKMJHJOAPOG": 3452114828,
    "iconPath": "ART/UI/Atlas/Activity/AlchemySim/UI_Activity_AlcSimTech_Sell_Sales",
    "level": 3,
    "AKAMEFBDJLC": 90000,
    "BLBGKALBIDP": [
      {
        "NNGPGNKIEMP": "ALCHEMY_SIM_TECH_TREE_UNLOCK_PRE_COND_TYPE_TECH_UNLOCKED",
        "PCOLBJIPHMJ": [
          35
        ]
      },
      {
        "PCOLBJIPHMJ": []
      }
    ],
    "JMLNOOFPHCD": [
      {
        "AILLLHKBPPE": "ALCHEMY_SIM_PROPERTY_SALE_BASE_NUM_ADD",
        "JIMDAPHPAII": 6
      },
      {},
      {}
    ]
  },
  {
    "IEMCFFPEBBM": 37,
    "GKJPCAKJGAI": "ALCHEMY_SIM_TECH_TREE_TYPE_SALE",
    "EELBKHMOPDC": 3,
    "OFKHHGIEPPE": 650034748,
    "IKMJHJOAPOG": 4195349956,
    "iconPath": "",
    "OGFGJBNPHAJ": true,
    "BLBGKALBIDP": [
      {
        "PCOLBJIPHMJ": []
      },
      {
        "PCOLBJIPHMJ": []
      }
    ],
    "JMLNOOFPHCD": [
      {},
      {},
      {}
    ]
  },
  {
    "IEMCFFPEBBM": 38,
    "GKJPCAKJGAI": "ALCHEMY_SIM_TECH_TREE_TYPE_SALE",
    "EELBKHMOPDC": 3,
    "IEBBHLPFFCC": true,
    "OFKHHGIEPPE": 2325553892,
    "IKMJHJOAPOG": 48330828,
    "iconPath": "ART/UI/Atlas/Activity/AlchemySim/UI_Activity_AlcSimTech_Sell_Fin",
    "level": 1,
    "BLBGKALBIDP": [
      {
        "NNGPGNKIEMP": "ALCHEMY_SIM_TECH_TREE_UNLOCK_PRE_COND_TYPE_TECH_UNLOCKED",
        "PCOLBJIPHMJ": [
          32,
          36,
          37
        ]
      },
      {
        "PCOLBJIPHMJ": []
      }
    ],
    "JMLNOOFPHCD": [
      {
        "AILLLHKBPPE": "ALCHEMY_SIM_PROPERTY_NEWS_LIMIT_ADD",
        "JIMDAPHPAII": 1
      },
      {},
      {}
    ]
  },
  {
    "IEMCFFPEBBM": 39,
    "GKJPCAKJGAI": "ALCHEMY_SIM_TECH_TREE_TYPE_EXAM",
    "EELBKHMOPDC": 1,
    "IEBBHLPFFCC": true,
    "OFKHHGIEPPE": 3521433564,
    "IKMJHJOAPOG": 2751909884,
    "iconPath": "ART/UI/Atlas/Activity/AlchemySim/UI_Activity_AlcSimTech_Exam",
    "level": 1,
    "OGFGJBNPHAJ": true,
    "BLBGKALBIDP": [
      {
        "PCOLBJIPHMJ": []
      },
      {
        "NNGPGNKIEMP": "ALCHEMY_SIM_TECH_TREE_UNLOCK_PRE_COND_TYPE_EXAM_PASSED",
        "PCOLBJIPHMJ": [
          101
        ]
      }
    ],
    "JMLNOOFPHCD": [
      {
        "AILLLHKBPPE": "ALCHEMY_SIM_PROPERTY_POTION_PRICE_PERCENT_ADD",
        "JIMDAPHPAII": 10
      },
      {},
      {}
    ]
  },
  {
    "IEMCFFPEBBM": 40,
    "GKJPCAKJGAI": "ALCHEMY_SIM_TECH_TREE_TYPE_EXAM",
    "EELBKHMOPDC": 1,
    "IEBBHLPFFCC": true,
    "OFKHHGIEPPE": 1550917012,
    "IKMJHJOAPOG": 912400708,
    "iconPath": "ART/UI/Atlas/Activity/AlchemySim/UI_Activity_AlcSimTech_Exam",
    "level": 2,
    "OGFGJBNPHAJ": true,
    "BLBGKALBIDP": [
      {
        "NNGPGNKIEMP": "ALCHEMY_SIM_TECH_TREE_UNLOCK_PRE_COND_TYPE_TECH_UNLOCKED",
        "PCOLBJIPHMJ": [
          39
        ]
      },
      {
        "NNGPGNKIEMP": "ALCHEMY_SIM_TECH_TREE_UNLOCK_PRE_COND_TYPE_EXAM_PASSED",
        "PCOLBJIPHMJ": [
          102
        ]
      }
    ],
    "JMLNOOFPHCD": [
      {
        "AILLLHKBPPE": "ALCHEMY_SIM_PROPERTY_POTION_PRICE_PERCENT_ADD",
        "JIMDAPHPAII": 20
      },
      {},
      {}
    ]
  },
  {
    "IEMCFFPEBBM": 41,
    "GKJPCAKJGAI": "ALCHEMY_SIM_TECH_TREE_TYPE_EXAM",
    "EELBKHMOPDC": 1,
    "IEBBHLPFFCC": true,
    "OFKHHGIEPPE": 2832778564,
    "IKMJHJOAPOG": 2403734660,
    "iconPath": "ART/UI/Atlas/Activity/AlchemySim/UI_Activity_AlcSimTech_Exam",
    "level": 3,
    "OGFGJBNPHAJ": true,
    "BLBGKALBIDP": [
      {
        "NNGPGNKIEMP": "ALCHEMY_SIM_TECH_TREE_UNLOCK_PRE_COND_TYPE_TECH_UNLOCKED",
        "PCOLBJIPHMJ": [
          40
        ]
      },
      {
        "NNGPGNKIEMP": "ALCHEMY_SIM_TECH_TREE_UNLOCK_PRE_COND_TYPE_EXAM_PASSED",
        "PCOLBJIPHMJ": [
          103
        ]
      }
    ],
    "JMLNOOFPHCD": [
      {
        "AILLLHKBPPE": "ALCHEMY_SIM_PROPERTY_POTION_PRICE_PERCENT_ADD",
        "JIMDAPHPAII": 30
      },
      {},
      {}
    ]
  },
  {
    "IEMCFFPEBBM": 42,
    "GKJPCAKJGAI": "ALCHEMY_SIM_TECH_TREE_TYPE_EXAM",
    "EELBKHMOPDC": 1,
    "IEBBHLPFFCC": true,
    "OFKHHGIEPPE": 556607012,
    "IKMJHJOAPOG": 2582899148,
    "iconPath": "ART/UI/Atlas/Activity/AlchemySim/UI_Activity_AlcSimTech_Exam",
    "level": 4,
    "OGFGJBNPHAJ": true,
    "BLBGKALBIDP": [
      {
        "NNGPGNKIEMP": "ALCHEMY_SIM_TECH_TREE_UNLOCK_PRE_COND_TYPE_TECH_UNLOCKED",
        "PCOLBJIPHMJ": [
          41
        ]
      },
      {
        "NNGPGNKIEMP": "ALCHEMY_SIM_TECH_TREE_UNLOCK_PRE_COND_TYPE_EXAM_PASSED",
        "PCOLBJIPHMJ": [
          104
        ]
      }
    ],
    "JMLNOOFPHCD": [
      {
        "AILLLHKBPPE": "ALCHEMY_SIM_PROPERTY_POTION_PRICE_PERCENT_ADD",
        "JIMDAPHPAII": 80
      },
      {},
      {}
    ]
  }
]