[
  {
    "id": 1,
    "GHDAOLBBLOE": 2701,
    "BBIBICBPKOK": 158
  },
  {
    "id": 2,
    "GHDAOLBBLOE": 2701,
    "BBIBICBPKOK": 159
  },
  {
    "id": 3,
    "GHDAOLBBLOE": 4204,
    "BBIBICBPKOK": 1145
  },
  {
    "id": 4,
    "GHDAOLBBLOE": 4204,
    "BBIBICBPKOK": 1162
  }
]