[
  {
    "GALEJNBGHEF": 2,
    "AKCGEHPMGOK": 0.25,
    "GDILHMINANN": 20,
    "JMLPOJMLKGM": 150,
    "BGMHOJBDLOC": 10
  },
  {
    "type": "Mid",
    "GALEJNBGHEF": 3,
    "AKCGEHPMGOK": 0.3,
    "GDILHMINANN": 20,
    "JMLPOJMLKGM": 150,
    "BGMHOJBDLOC": 10
  },
  {
    "type": "Hi",
    "GALEJNBGHEF": 4,
    "AKCGEHPMGOK": 0.4,
    "GDILHMINANN": 20,
    "JMLPOJMLKGM": 150,
    "BGMHOJBDLOC": 10
  },
  {
    "type": "Top",
    "GALEJNBGHEF": 5,
    "AKCGEHPMGOK": 0.5,
    "GDILHMINANN": 20,
    "JMLPOJMLKGM": 180,
    "BGMHOJBDLOC": 10
  }
]