[
  {
    "id": 1,
    "MDKHDFIHMKA": [
      1
    ],
    "PBCJPMFOJGL": [
      "Jester",
      "丑角",
      "丑角",
      "LeFou",
      "Narr",
      "Bufón",
      "BoboDaCorte",
      "Шут",
      "道化",
      "어릿광대",
      "Jester",
      "Jester",
      "Jester",
      "Soytarı",
      "Giullare"
    ]
  },
  {
    "id": 2,
    "MDKHDFIHMKA": [
      1
    ],
    "PBCJPMFOJGL": [
      "Captain",
      "队长",
      "隊長",
      "Capitaine",
      "Truppenführer",
      "Capitán",
      "Capitão",
      "Капитан",
      "隊長",
      "대장",
      "Captain",
      "Captain",
      "Captain",
      "Kaptan",
      "Condottiero"
    ]
  },
  {
    "id": 3,
    "MDKHDFIHMKA": [
      1
    ],
    "PBCJPMFOJGL": [
      "Doctor",
      "博士",
      "博士",
      "LeDocteur",
      "Doktor",
      "Doctor",
      "Dottore",
      "Доктор",
      "博士",
      "박사",
      "Doctor",
      "Doctor",
      "Doctor",
      "Doktor",
      "Luminare"
    ]
  },
  {
    "id": 4,
    "MDKHDFIHMKA": [
      1
    ],
    "PBCJPMFOJGL": [
      "Damselette",
      "少女",
      "少女",
      "Jouvencelle",
      "Jungfrau",
      "Damisela",
      "Donzela",
      "Субретка",
      "少女",
      "소녀",
      "Damselette",
      "Damselette",
      "Damselette",
      "KüçükHanım",
      "Damigella"
    ]
  },
  {
    "id": 5,
    "MDKHDFIHMKA": [
      1
    ],
    "PBCJPMFOJGL": [
      "Knave",
      "仆人",
      "僕人",
      "Valet",
      "Bedienstete",
      "Sota",
      "AServa",
      "Слуга",
      "召使",
      "하인",
      "Knave",
      "Knave",
      "Knave",
      "Üçkağıtçı",
      "Üçkağıtçı"
    ]
  },
  {
    "id": 6,
    "MDKHDFIHMKA": [
      1
    ],
    "PBCJPMFOJGL": [
      "Rooster",
      "公鸡",
      "公雞",
      "Coq",
      "Hahn",
      "Gallo",
      "OGalo",
      "Цыплёнок",
      "雄鶏",
      "수탉",
      "Rooster",
      "Rooster",
      "Rooster",
      "Horoz",
      "Gallo"
    ]
  },
  {
    "id": 7,
    "MDKHDFIHMKA": [
      1
    ],
    "PBCJPMFOJGL": [
      "Marionette",
      "木偶",
      "木偶",
      "Pantin",
      "Marionette",
      "Títere",
      "AMarionete",
      "Марионетка",
      "傀儡",
      "꼭두각시",
      "Marionette",
      "Marionette",
      "Marionette",
      "Kukla",
      "Marionetta"
    ]
  },
  {
    "id": 8,
    "MDKHDFIHMKA": [
      1
    ],
    "PBCJPMFOJGL": [
      "FairLady",
      "女士",
      "女士",
      "LaDemoiselle",
      "Dame",
      "Dama",
      "Signora",
      "Дама",
      "淑女",
      "숙녀",
      "FairLady",
      "FairLady",
      "FairLady",
      "GüzelHanımefendi",
      "Gentildonna"
    ]
  },
  {
    "id": 9,
    "MDKHDFIHMKA": [
      1
    ],
    "PBCJPMFOJGL": [
      "Regrator",
      "富人",
      "富人",
      "Fortuné",
      "Geschäftsmann",
      "Regatero",
      "Magnata",
      "Делец",
      "富者",
      "거상",
      "Regrator",
      "Regrator",
      "Regrator",
      "Madrabaz",
      "Affarista"
    ]
  },
  {
    "id": 10,
    "MDKHDFIHMKA": [
      1
    ],
    "PBCJPMFOJGL": [
      "Childe",
      "公子",
      "公子",
      "JeuneSire",
      "Graf",
      "Nobile",
      "Childe",
      "Чайльд",
      "公子",
      "귀공자",
      "Childe",
      "Childe",
      "Childe",
      "Asilzade",
      "Principe"
    ]
  },
  {
    "id": 11,
    "MDKHDFIHMKA": [
      1
    ],
    "PBCJPMFOJGL": [
      "Pierro",
      "皮耶罗",
      "皮耶羅",
      "Pierro",
      "Pierro",
      "Pierotto",
      "Pierro",
      "Пьеро",
      "ピエロ",
      "피에로",
      "Pierro",
      "Pierro",
      "Pierro",
      "Pierro",
      "Pierrot"
    ]
  },
  {
    "id": 12,
    "MDKHDFIHMKA": [
      1
    ],
    "PBCJPMFOJGL": [
      "Capitano",
      "卡皮塔诺",
      "卡皮塔諾",
      "Capitano",
      "Capitano",
      "Capitano",
      "Capitano",
      "Капитано",
      "カピターノ",
      "카피타노",
      "Capitano",
      "Capitano",
      "Capitano",
      "Capitano",
      "Capitano"
    ]
  },
  {
    "id": 13,
    "MDKHDFIHMKA": [
      1
    ],
    "PBCJPMFOJGL": [
      "Dottore",
      "多托雷",
      "多托雷",
      "Dottore",
      "Dottore",
      "Dottore",
      "Dottore",
      "Дотторе",
      "ドットーレ",
      "도토레",
      "Dottore",
      "Dottore",
      "Dottore",
      "Dottore",
      "Dottore"
    ]
  },
  {
    "id": 14,
    "MDKHDFIHMKA": [
      1
    ],
    "PBCJPMFOJGL": [
      "Columbina",
      "哥伦比娅",
      "哥倫比婭",
      "Columbina",
      "Columbina",
      "Colombina",
      "Columbina",
      "Коломбина",
      "コロンビーナ",
      "콜롬비나",
      "Columbina",
      "Columbina",
      "Columbina",
      "Columbina",
      "Colombina"
    ]
  },
  {
    "id": 15,
    "MDKHDFIHMKA": [
      1
    ],
    "PBCJPMFOJGL": [
      "Arlecchino",
      "阿蕾奇诺",
      "阿蕾奇諾",
      "Arlecchino",
      "Arlecchino",
      "Arlecchino",
      "Arlecchino",
      "Арлекино",
      "アルレッキーノ",
      "아를레키노",
      "Arlecchino",
      "Arlecchino",
      "Arlecchino",
      "Arlecchino",
      "Arlecchino"
    ]
  },
  {
    "id": 16,
    "MDKHDFIHMKA": [
      1
    ],
    "PBCJPMFOJGL": [
      "Pulcinella",
      "普契涅拉",
      "普契涅拉",
      "Pulcinella",
      "Pulcinella",
      "Pulcinella",
      "Pulcinella",
      "Пульчинелла",
      "プルチネッラ",
      "풀치넬라",
      "Pulcinella",
      "Pulcinella",
      "Pulcinella",
      "Pulcinella",
      "Pulcinella"
    ]
  },
  {
    "id": 17,
    "MDKHDFIHMKA": [
      1
    ],
    "PBCJPMFOJGL": [
      "Sandrone",
      "桑多涅",
      "桑多涅",
      "Sandrone",
      "Sandrone",
      "Sandrone",
      "Sandrone",
      "Сандроне",
      "サンドローネ",
      "산드로네",
      "Sandrone",
      "Sandrone",
      "Sandrone",
      "Sandrone",
      "Sandrone"
    ]
  },
  {
    "id": 18,
    "MDKHDFIHMKA": [
      1
    ],
    "PBCJPMFOJGL": [
      "Signora",
      "席诺拉",
      "席諾拉",
      "Signora",
      "Signora",
      "Signora",
      "Signora",
      "Синьора",
      "シニョーラ",
      "시뇨라",
      "Signora",
      "Signora",
      "Signora",
      "Sinyora",
      "Signora"
    ]
  },
  {
    "id": 19,
    "MDKHDFIHMKA": [
      1
    ],
    "PBCJPMFOJGL": [
      "Pantalone",
      "潘塔罗涅",
      "潘塔羅涅",
      "Pantalone",
      "Pantalone",
      "Pantalone",
      "Pantalone",
      "Панталоне",
      "パンタローネ",
      "판탈로네",
      "Pantalone",
      "Pantalone",
      "Pantalone",
      "Pantalone",
      "Pantalone"
    ]
  },
  {
    "id": 20,
    "MDKHDFIHMKA": [
      1
    ],
    "PBCJPMFOJGL": [
      "Tartaglia",
      "达达利亚",
      "達達利亞",
      "Tartaglia",
      "Tartaglia",
      "Tartaglia",
      "Tartaglia",
      "Тарталья",
      "タルタリヤ",
      "타르탈리아",
      "Tartaglia",
      "Tartaglia",
      "Tartaglia",
      "Tartaglia",
      "Tartaglia"
    ]
  },
  {
    "id": 21,
    "MDKHDFIHMKA": [
      1
    ],
    "PBCJPMFOJGL": [
      "Ajax",
      "阿贾克斯",
      "阿賈克斯",
      "Ajax",
      "Ajax",
      "Ajax",
      "Ajax",
      "Аякс",
      "アヤックス",
      "아약스",
      "Ajax",
      "Ajax",
      "Ajax",
      "Ajax",
      "Ajax"
    ]
  },
  {
    "id": 22,
    "MDKHDFIHMKA": [
      1
    ],
    "PBCJPMFOJGL": [
      "Zandik",
      "赞迪克",
      "贊迪克",
      "Zandik",
      "Zandik",
      "Zandik",
      "Zandik",
      "Зандик",
      "ザンディク",
      "잔디크",
      "Zandik",
      "Zandik",
      "Zandik",
      "Zandik",
      "Zandik"
    ]
  },
  {
    "id": 23,
    "MDKHDFIHMKA": [
      1
    ],
    "PBCJPMFOJGL": [
      "Rosalyne",
      "罗莎琳",
      "蘿莎琳",
      "Rosalyne",
      "Rosalyne",
      "Rosalyne",
      "Rosalyne",
      "Розалина",
      "ロザリン",
      "로잘린",
      "Rosalyne",
      "Rosalyne",
      "Rosalyne",
      "Rosalyne",
      "Rosalyne"
    ]
  },
  {
    "id": 24,
    "MDKHDFIHMKA": [
      1
    ],
    "PBCJPMFOJGL": [
      "Kruzchka",
      "克鲁兹希卡",
      "克魯茲希卡",
      "Kruzchka",
      "Kruzchka",
      "Kruzchka",
      "Kruzchka",
      "Кручка",
      "クルーズチカ",
      "크루즈카",
      "Kruzchka",
      "Kruzchka",
      "Kruzchka",
      "Kruzchka",
      "Kruzchka"
    ]
  },
  {
    "id": 25,
    "MDKHDFIHMKA": [
      1
    ],
    "PBCJPMFOJGL": [
      "Lohefalter",
      "洛厄法特",
      "洛厄法特",
      "Lohefalter",
      "Lohefalter",
      "Lohefalter",
      "Lohefalter",
      "Лоефальтер",
      "ローエファルタ",
      "로헤팔터",
      "Lohefalter",
      "Lohefalter",
      "Lohefalter",
      "Lohefalter",
      "Lohefalter"
    ]
  },
  {
    "id": 26,
    "MDKHDFIHMKA": [
      1
    ],
    "PBCJPMFOJGL": [
      "Balladeer",
      "散兵",
      "散兵",
      "Vagabond",
      "Bänkelsänger",
      "Baladista",
      "Baladeiro",
      "Сказитель",
      "散兵",
      "산병",
      "Balladeer",
      "Balladeer",
      "Balladeer",
      "Kasideci",
      "Menestrello"
    ]
  },
  {
    "id": 27,
    "MDKHDFIHMKA": [
      1
    ],
    "PBCJPMFOJGL": [
      "Scaramouche",
      "斯卡拉姆齐",
      "斯卡拉姆齊",
      "Scaramuccia",
      "Scaramouche",
      "Scaramuccia",
      "Scaramouche",
      "Скарамучча",
      "スカラマシュ",
      "스카라무슈",
      "Scaramouche",
      "Scaramouche",
      "Scaramouche",
      "Scaramuccia",
      "Scaramouche"
    ]
  },
  {
    "id": 28,
    "MDKHDFIHMKA": [
      1
    ],
    "PBCJPMFOJGL": [
      "Kunikuzushi",
      "国崩",
      "國崩",
      "Kunikuzushi",
      "Kunikuzushi",
      "Kunikuzushi",
      "Kunikuzushi",
      "Куникудзуси",
      "国崩",
      "쿠니쿠즈시",
      "Kunikuzushi",
      "Kunikuzushi",
      "Kunikuzushi",
      "Kunikuzushi",
      "Kunikuzushi"
    ]
  },
  {
    "id": 29,
    "MDKHDFIHMKA": [
      1
    ],
    "PBCJPMFOJGL": [
      "Kabukimono",
      "倾奇者",
      "傾奇者",
      "Kabukimono",
      "Kabukimono",
      "Kabukimono",
      "Kabukimono",
      "Кабукимоно",
      "傾奇者",
      "가부키모노",
      "Kabukimono",
      "Kabukimono",
      "Kabukimono",
      "Kabukimono",
      "Kabukimono"
    ]
  },
  {
    "id": 30,
    "MDKHDFIHMKA": [
      1
    ],
    "PBCJPMFOJGL": [
      "RaidenShogun",
      "雷电将军",
      "雷電將軍",
      "ShogunRaiden",
      "ShougunRaiden",
      "ShogunRaiden",
      "ShogunRaiden",
      "СёгунРайдэн",
      "雷電将軍",
      "라이덴쇼군",
      "RaidenShogun",
      "RaidenShogun",
      "RaidenShogun",
      "ŞogunRaiden",
      "ShogunRaiden"
    ]
  },
  {
    "id": 31,
    "MDKHDFIHMKA": [
      1
    ],
    "PBCJPMFOJGL": [
      "RaidenEi",
      "雷电影",
      "雷電影",
      "RaidenEi",
      "RaidenEi",
      "RaidenEi",
      "RaidenEi",
      "РайдэнЭи",
      "雷電影",
      "라이덴에이",
      "RaidenEi",
      "RaidenEi",
      "RaidenEi",
      "RaidenEi",
      "RaidenEi"
    ]
  },
  {
    "id": 32,
    "MDKHDFIHMKA": [
      1
    ],
    "PBCJPMFOJGL": [
      "RaidenMakoto",
      "雷电真",
      "雷電真",
      "RaidenMakoto",
      "RaidenMakoto",
      "RaidenMakoto",
      "RaidenMakoto",
      "РайдэнМакото",
      "雷電眞",
      "라이덴마코토",
      "RaidenMakoto",
      "RaidenMakoto",
      "RaidenMakoto",
      "RaidenMakoto",
      "RaidenMakoto"
    ]
  },
  {
    "id": 33,
    "MDKHDFIHMKA": [
      1
    ],
    "PBCJPMFOJGL": [
      "Baal",
      "巴尔",
      "巴爾",
      "Baal",
      "Baal",
      "Baal",
      "Baal",
      "Баал",
      "バアル",
      "바알",
      "Baal",
      "Baal",
      "Baal",
      "Baal",
      "Baal"
    ]
  },
  {
    "id": 34,
    "MDKHDFIHMKA": [
      1
    ],
    "PBCJPMFOJGL": [
      "Beelzebul",
      "巴尔泽布",
      "巴爾澤布",
      "Belzébuth",
      "Beelzebul",
      "Beelzebul",
      "Beelzebul",
      "Вельзевул",
      "バアルゼブル",
      "바알세불",
      "Beelzebul",
      "Beelzebul",
      "Beelzebul",
      "Beelzebul",
      "Beelzebul"
    ]
  },
  {
    "id": 35,
    "MDKHDFIHMKA": [
      1
    ],
    "PBCJPMFOJGL": [
      "KamisatoAyaka",
      "神里绫华",
      "神里綾華",
      "KamisatoAyaka",
      "KamisatoAyaka",
      "KamisatoAyaka",
      "KamisatoAyaka",
      "КамисатоАяка",
      "神里綾華",
      "카미사토아야카",
      "KamisatoAyaka",
      "KamisatoAyaka",
      "KamisatoAyaka",
      "KamisatoAyaka",
      "KamisatoAyaka"
    ]
  },
  {
    "id": 36,
    "MDKHDFIHMKA": [
      1
    ],
    "PBCJPMFOJGL": [
      "Jean",
      "琴",
      "琴",
      "Jean",
      "Jean",
      "Jean",
      "Jean",
      "Джинн",
      "ジン",
      "진",
      "Jean",
      "Jean",
      "Jean",
      "Jean",
      "Jean"
    ]
  },
  {
    "id": 37,
    "MDKHDFIHMKA": [
      1
    ],
    "PBCJPMFOJGL": [
      "Lisa",
      "丽莎",
      "麗莎",
      "Lisa",
      "Lisa",
      "Lisa",
      "Lisa",
      "Лиза",
      "リサ",
      "리사",
      "Lisa",
      "Lisa",
      "Lisa",
      "Lisa",
      "Lisa"
    ]
  },
  {
    "id": 38,
    "MDKHDFIHMKA": [
      1
    ],
    "PBCJPMFOJGL": [
      "Barbara",
      "芭芭拉",
      "芭芭拉",
      "Barbara",
      "Barbara",
      "Bárbara",
      "Barbara",
      "Барбара",
      "バーバラ",
      "바바라",
      "Barbara",
      "Barbara",
      "Barbara",
      "Barbara",
      "Barbara"
    ]
  },
  {
    "id": 39,
    "MDKHDFIHMKA": [
      1
    ],
    "PBCJPMFOJGL": [
      "Kaeya",
      "凯亚",
      "凱亞",
      "Kaeya",
      "Kaeya",
      "Kaeya",
      "Kaeya",
      "Кэйа",
      "ガイア",
      "케이아",
      "Kaeya",
      "Kaeya",
      "Kaeya",
      "Kaeya",
      "Kaeya"
    ]
  },
  {
    "id": 40,
    "MDKHDFIHMKA": [
      1
    ],
    "PBCJPMFOJGL": [
      "Diluc",
      "迪卢克",
      "迪盧克",
      "Diluc",
      "Diluc",
      "Diluc",
      "Diluc",
      "Дилюк",
      "ディルック",
      "다이루크",
      "Diluc",
      "Diluc",
      "Diluc",
      "Diluc",
      "Diluc"
    ]
  },
  {
    "id": 41,
    "MDKHDFIHMKA": [
      1
    ],
    "PBCJPMFOJGL": [
      "Razor",
      "雷泽",
      "雷澤",
      "Razor",
      "Razor",
      "Razor",
      "Razor",
      "Рэйзор",
      "レザー",
      "레이저",
      "Razor",
      "Razor",
      "Razor",
      "Razor",
      "Razor"
    ]
  },
  {
    "id": 42,
    "MDKHDFIHMKA": [
      1
    ],
    "PBCJPMFOJGL": [
      "Amber",
      "安柏",
      "安柏",
      "Amber",
      "Amber",
      "Amber",
      "Amber",
      "Эмбер",
      "アンバー",
      "엠버",
      "Amber",
      "Amber",
      "Amber",
      "Amber",
      "Amber"
    ]
  },
  {
    "id": 43,
    "MDKHDFIHMKA": [
      1
    ],
    "PBCJPMFOJGL": [
      "Venti",
      "温迪",
      "溫迪",
      "Venti",
      "Venti",
      "Venti",
      "Venti",
      "Венти",
      "ウェンティ",
      "벤티",
      "Venti",
      "Venti",
      "Venti",
      "Venti",
      "Venti"
    ]
  },
  {
    "id": 44,
    "MDKHDFIHMKA": [
      1
    ],
    "PBCJPMFOJGL": [
      "Xiangling",
      "香菱",
      "香菱",
      "Xiangling",
      "Xiangling",
      "Xiangling",
      "Xiangling",
      "СянЛин",
      "香菱",
      "향릉",
      "Xiangling",
      "Xiangling",
      "Xiangling",
      "Xiangling",
      "Xiangling"
    ]
  },
  {
    "id": 45,
    "MDKHDFIHMKA": [
      1
    ],
    "PBCJPMFOJGL": [
      "Beidou",
      "北斗",
      "北斗",
      "Beidou",
      "Beidou",
      "Beidou",
      "Beidou",
      "БэйДоу",
      "北斗",
      "북두",
      "Beidou",
      "Beidou",
      "Beidou",
      "Beidou",
      "Beidou"
    ]
  },
  {
    "id": 46,
    "MDKHDFIHMKA": [
      1
    ],
    "PBCJPMFOJGL": [
      "Xingqiu",
      "行秋",
      "行秋",
      "Xingqiu",
      "Xingqiu",
      "Xingchiu",
      "Xingqiu",
      "СинЦю",
      "行秋",
      "행추",
      "Xingqiu",
      "Xingqiu",
      "Xingqiu",
      "Xingqiu",
      "Xingqiu"
    ]
  },
  {
    "id": 47,
    "MDKHDFIHMKA": [
      1
    ],
    "PBCJPMFOJGL": [
      "Xiao",
      "魈",
      "魈",
      "Xiao",
      "Xiao",
      "Xiao",
      "Xiao",
      "Сяо",
      "魈",
      "소",
      "Xiao",
      "Xiao",
      "Xiao",
      "Xiao",
      "Xiao"
    ]
  },
  {
    "id": 48,
    "MDKHDFIHMKA": [
      1
    ],
    "PBCJPMFOJGL": [
      "Ningguang",
      "凝光",
      "凝光",
      "Ningguang",
      "Ningguang",
      "Ninguang",
      "Ningguang",
      "НинГуан",
      "凝光",
      "응광",
      "Ningguang",
      "Ningguang",
      "Ningguang",
      "Ningguang",
      "Ningguang"
    ]
  },
  {
    "id": 49,
    "MDKHDFIHMKA": [
      1
    ],
    "PBCJPMFOJGL": [
      "Klee",
      "可莉",
      "可莉",
      "Klee",
      "Klee",
      "Klee",
      "Klee",
      "Кли",
      "クレー",
      "클레",
      "Klee",
      "Klee",
      "Klee",
      "Klee",
      "Klee"
    ]
  },
  {
    "id": 50,
    "MDKHDFIHMKA": [
      1
    ],
    "PBCJPMFOJGL": [
      "Zhongli",
      "钟离",
      "鍾離",
      "Zhongli",
      "Zhongli",
      "Zhongli",
      "Zhongli",
      "ЧжунЛи",
      "鍾離",
      "종려",
      "Zhongli",
      "Zhongli",
      "Zhongli",
      "Zhongli",
      "Zhongli"
    ]
  },
  {
    "id": 51,
    "MDKHDFIHMKA": [
      1
    ],
    "PBCJPMFOJGL": [
      "Fischl",
      "菲谢尔",
      "菲謝爾",
      "Fischl",
      "Fischl",
      "Fischl",
      "Fischl",
      "Фишль",
      "フィッシュル",
      "피슬",
      "Fischl",
      "Fischl",
      "Fischl",
      "Fischl",
      "Fischl"
    ]
  },
  {
    "id": 52,
    "MDKHDFIHMKA": [
      1
    ],
    "PBCJPMFOJGL": [
      "Bennett",
      "班尼特",
      "班尼特",
      "Bennett",
      "Bennett",
      "Bennett",
      "Bennett",
      "Беннет",
      "ベネット",
      "베넷",
      "Bennett",
      "Bennett",
      "Bennett",
      "Bennett",
      "Bennett"
    ]
  },
  {
    "id": 53,
    "MDKHDFIHMKA": [
      1
    ],
    "PBCJPMFOJGL": [
      "Noelle",
      "诺艾尔",
      "諾艾爾",
      "Noëlle",
      "Noelle",
      "Noelle",
      "Noelle",
      "Ноэлль",
      "ノエル",
      "노엘",
      "Noelle",
      "Noelle",
      "Noelle",
      "Noelle",
      "Noelle"
    ]
  },
  {
    "id": 54,
    "MDKHDFIHMKA": [
      1
    ],
    "PBCJPMFOJGL": [
      "Qiqi",
      "七七",
      "七七",
      "Qiqi",
      "Qiqi",
      "Qiqi",
      "Qiqi",
      "ЦиЦи",
      "七七",
      "치치",
      "Qiqi",
      "Qiqi",
      "Qiqi",
      "Qiqi",
      "Qiqi"
    ]
  },
  {
    "id": 55,
    "MDKHDFIHMKA": [
      1
    ],
    "PBCJPMFOJGL": [
      "Chongyun",
      "重云",
      "重雲",
      "Chongyun",
      "Chongyun",
      "Chongyun",
      "Chongyun",
      "ЧунЮнь",
      "重雲",
      "중운",
      "Chongyun",
      "Chongyun",
      "Chongyun",
      "Chongyun",
      "Chongyun"
    ]
  },
  {
    "id": 56,
    "MDKHDFIHMKA": [
      1
    ],
    "PBCJPMFOJGL": [
      "Ganyu",
      "甘雨",
      "甘雨",
      "Ganyu",
      "Ganyu",
      "Ganyu",
      "Ganyu",
      "ГаньЮй",
      "甘雨",
      "감우",
      "Ganyu",
      "Ganyu",
      "Ganyu",
      "Ganyu",
      "Ganyu"
    ]
  },
  {
    "id": 57,
    "MDKHDFIHMKA": [
      1
    ],
    "PBCJPMFOJGL": [
      "Albedo",
      "阿贝多",
      "阿貝多",
      "Albedo",
      "Albedo",
      "Albedo",
      "Albedo",
      "Альбедо",
      "アルベド",
      "알베도",
      "Albedo",
      "Albedo",
      "Albedo",
      "Albedo",
      "Albedo"
    ]
  },
  {
    "id": 58,
    "MDKHDFIHMKA": [
      1
    ],
    "PBCJPMFOJGL": [
      "Diona",
      "迪奥娜",
      "迪奧娜",
      "Diona",
      "Diona",
      "Diona",
      "Diona",
      "Диона",
      "ディオナ",
      "디오나",
      "Diona",
      "Diona",
      "Diona",
      "Diona",
      "Diona"
    ]
  },
  {
    "id": 59,
    "MDKHDFIHMKA": [
      1
    ],
    "PBCJPMFOJGL": [
      "Mona",
      "莫娜",
      "莫娜",
      "Mona",
      "Mona",
      "Mona",
      "Mona",
      "Мона",
      "モナ",
      "모나",
      "Mona",
      "Mona",
      "Mona",
      "Mona",
      "Mona"
    ]
  },
  {
    "id": 60,
    "MDKHDFIHMKA": [
      1
    ],
    "PBCJPMFOJGL": [
      "Keqing",
      "刻晴",
      "刻晴",
      "Keqing",
      "Keqing",
      "Keching",
      "Keqing",
      "КэЦин",
      "刻晴",
      "각청",
      "Keqing",
      "Keqing",
      "Keqing",
      "Keqing",
      "Keqing"
    ]
  },
  {
    "id": 61,
    "MDKHDFIHMKA": [
      1
    ],
    "PBCJPMFOJGL": [
      "Sucrose",
      "砂糖",
      "砂糖",
      "Sucrose",
      "Saccharose",
      "Sacarosa",
      "Sucrose",
      "Сахароза",
      "スクロース",
      "설탕",
      "Sucrose",
      "Sucrose",
      "Sucrose",
      "Sucrose",
      "Sucrose"
    ]
  },
  {
    "id": 62,
    "MDKHDFIHMKA": [
      1
    ],
    "PBCJPMFOJGL": [
      "Xinyan",
      "辛焱",
      "辛焱",
      "Xinyan",
      "Xinyan",
      "Xinyan",
      "Xinyan",
      "СиньЯнь",
      "辛炎",
      "신염",
      "Xinyan",
      "Xinyan",
      "Xinyan",
      "Xinyan",
      "Xinyan"
    ]
  },
  {
    "id": 63,
    "MDKHDFIHMKA": [
      1
    ],
    "PBCJPMFOJGL": [
      "Rosaria",
      "罗莎莉亚",
      "蘿莎莉亞",
      "Rosalia",
      "Rosaria",
      "Rosaria",
      "Rosaria",
      "Розария",
      "ロサリア",
      "로자리아",
      "Rosaria",
      "Rosaria",
      "Rosaria",
      "Rosaria",
      "Rosaria"
    ]
  },
  {
    "id": 64,
    "MDKHDFIHMKA": [
      1
    ],
    "PBCJPMFOJGL": [
      "HuTao",
      "胡桃",
      "胡桃",
      "HuTao",
      "HuTao",
      "HuTao",
      "Hutao",
      "ХуТао",
      "胡桃",
      "호두",
      "HuTao",
      "HuTao",
      "HuTao",
      "HuTao",
      "HuTao"
    ]
  },
  {
    "id": 65,
    "MDKHDFIHMKA": [
      1
    ],
    "PBCJPMFOJGL": [
      "KaedeharaKazuha",
      "枫原万叶",
      "楓原萬葉",
      "KaedeharaKazuha",
      "KaedeharaKazuha",
      "KaedeharaKazuha",
      "KaedeharaKazuha",
      "КаэдэхараКадзуха",
      "楓原万葉",
      "카에데하라카즈하",
      "KaedeharaKazuha",
      "KaedeharaKazuha",
      "KaedeharaKazuha",
      "KaedeharaKazuha",
      "KaedeharaKazuha"
    ]
  },
  {
    "id": 66,
    "MDKHDFIHMKA": [
      1
    ],
    "PBCJPMFOJGL": [
      "Yanfei",
      "烟绯",
      "煙緋",
      "Yanfei",
      "Yanfei",
      "Yanfei",
      "Yanfei",
      "ЯньФэй",
      "煙緋",
      "연비",
      "Yanfei",
      "Yanfei",
      "Yanfei",
      "Yanfei",
      "Yanfei"
    ]
  },
  {
    "id": 67,
    "MDKHDFIHMKA": [
      1
    ],
    "PBCJPMFOJGL": [
      "Yoimiya",
      "宵宫",
      "宵宮",
      "Yoimiya",
      "Yoimiya",
      "Yoimiya",
      "Yoimiya",
      "Ёимия",
      "宵宮",
      "요이미야",
      "Yoimiya",
      "Yoimiya",
      "Yoimiya",
      "Yoimiya",
      "Yoimiya"
    ]
  },
  {
    "id": 68,
    "MDKHDFIHMKA": [
      1
    ],
    "PBCJPMFOJGL": [
      "Thoma",
      "托马",
      "托馬",
      "Thomas",
      "Thoma",
      "Thoma",
      "Thoma",
      "Тома",
      "トーマ",
      "토마",
      "Thoma",
      "Thoma",
      "Thoma",
      "Thoma",
      "Thoma"
    ]
  },
  {
    "id": 69,
    "MDKHDFIHMKA": [
      1
    ],
    "PBCJPMFOJGL": [
      "Eula",
      "优菈",
      "優菈",
      "Eula",
      "Eula",
      "Eula",
      "Eula",
      "Эола",
      "エウルア",
      "유라",
      "Eula",
      "Eula",
      "Eula",
      "Eula",
      "Eula"
    ]
  },
  {
    "id": 70,
    "MDKHDFIHMKA": [
      1
    ],
    "PBCJPMFOJGL": [
      "Sayu",
      "早柚",
      "早柚",
      "Sayu",
      "Sayu",
      "Sayu",
      "Sayu",
      "Саю",
      "早柚",
      "사유",
      "Sayu",
      "Sayu",
      "Sayu",
      "Sayu",
      "Sayu"
    ]
  },
  {
    "id": 71,
    "MDKHDFIHMKA": [
      1
    ],
    "PBCJPMFOJGL": [
      "SangonomiyaKokomi",
      "珊瑚宫心海",
      "珊瑚宮心海",
      "SangonomiyaKokomi",
      "SangonomiyaKokomi",
      "SangonomiyaKokomi",
      "SangonomiyaKokomi",
      "СангономияКокоми",
      "珊瑚宮心海",
      "산고노미야코코미",
      "SangonomiyaKokomi",
      "SangonomiyaKokomi",
      "SangonomiyaKokomi",
      "SangonomiyaKokomi",
      "SangonomiyaKokomi"
    ]
  },
  {
    "id": 72,
    "MDKHDFIHMKA": [
      1
    ],
    "PBCJPMFOJGL": [
      "Gorou",
      "五郎",
      "五郎",
      "Gorou",
      "Gorou",
      "Gorou",
      "Gorou",
      "Горо",
      "ゴロー",
      "고로",
      "Gorou",
      "Gorou",
      "Gorou",
      "Gorou",
      "Gorou"
    ]
  },
  {
    "id": 73,
    "MDKHDFIHMKA": [
      1
    ],
    "PBCJPMFOJGL": [
      "KujouSara",
      "九条裟罗",
      "九條裟羅",
      "KujouSara",
      "KujouSara",
      "KujouSara",
      "KujouSara",
      "КудзёСара",
      "九条裟羅",
      "쿠죠사라",
      "KujouSara",
      "KujouSara",
      "KujouSara",
      "KujouSara",
      "KujouSara"
    ]
  },
  {
    "id": 74,
    "MDKHDFIHMKA": [
      1
    ],
    "PBCJPMFOJGL": [
      "Aratakiitto",
      "荒泷一斗",
      "荒瀧一斗",
      "AratakiItto",
      "AratakiItto",
      "AratakiItto",
      "AratakiItto",
      "АратакиИтто",
      "荒瀧一斗",
      "아라타키이토",
      "AratakiItto",
      "AratakiItto",
      "AratakiItto",
      "AratakiItto",
      "AratakiItto"
    ]
  },
  {
    "id": 75,
    "MDKHDFIHMKA": [
      1
    ],
    "PBCJPMFOJGL": [
      "YaeMiko",
      "八重神子",
      "八重神子",
      "YaeMiko",
      "YaeMiko",
      "YaeMiko",
      "YaeMiko",
      "ЯэМико",
      "八重神子",
      "야에미코",
      "YaeMiko",
      "YaeMiko",
      "YaeMiko",
      "YaeMiko",
      "YaeMiko"
    ]
  },
  {
    "id": 76,
    "MDKHDFIHMKA": [
      1
    ],
    "PBCJPMFOJGL": [
      "ShikanoinHeizou",
      "鹿野院平藏",
      "鹿野院平藏",
      "ShikanoinHeizou",
      "ShikanoinHeizou",
      "ShikanoinHeizou",
      "ShikanoinHeizou",
      "СиканоинХэйдзо",
      "鹿野院平蔵",
      "시카노인헤이조",
      "ShikanoinHeizou",
      "ShikanoinHeizou",
      "ShikanoinHeizou",
      "ShikanoinHeizou",
      "ShikanoinHeizou"
    ]
  },
  {
    "id": 77,
    "MDKHDFIHMKA": [
      1
    ],
    "PBCJPMFOJGL": [
      "Yelan",
      "夜兰",
      "夜蘭",
      "Yelan",
      "Yelan",
      "Yelan",
      "Yelan",
      "ЕЛань",
      "夜蘭",
      "야란",
      "Yelan",
      "Yelan",
      "Yelan",
      "Yelan",
      "Yelan"
    ]
  },
  {
    "id": 78,
    "MDKHDFIHMKA": [
      1
    ],
    "PBCJPMFOJGL": [
      "Aloy",
      "埃洛伊",
      "亞蘿伊",
      "Aloy",
      "Aloy",
      "Aloy",
      "Aloy",
      "Элой",
      "アーロイ",
      "에일로이",
      "Aloy",
      "Aloy",
      "Aloy",
      "Aloy",
      "Aloy"
    ]
  },
  {
    "id": 79,
    "MDKHDFIHMKA": [
      1
    ],
    "PBCJPMFOJGL": [
      "Shenhe",
      "申鹤",
      "申鶴",
      "Shenhe",
      "Shenhe",
      "Shenhe",
      "Shenhe",
      "ШэньХэ",
      "申鶴",
      "신학",
      "Shenhe",
      "Shenhe",
      "Shenhe",
      "Shenhe",
      "Shenhe"
    ]
  },
  {
    "id": 80,
    "MDKHDFIHMKA": [
      1
    ],
    "PBCJPMFOJGL": [
      "YunJin",
      "云堇",
      "雲堇",
      "YunJin",
      "YunJin",
      "YunJin",
      "Yunjin",
      "ЮньЦзинь",
      "雲菫",
      "운근",
      "YunJin",
      "YunJin",
      "YunJin",
      "YunJin",
      "YunJin"
    ]
  },
  {
    "id": 81,
    "MDKHDFIHMKA": [
      1
    ],
    "PBCJPMFOJGL": [
      "KukiShinobu",
      "久岐忍",
      "久岐忍",
      "KukiShinobu",
      "KukiShinobu",
      "KukiShinobu",
      "KukiShinobu",
      "КукиСинобу",
      "久岐忍",
      "쿠키시노부",
      "KukiShinobu",
      "KukiShinobu",
      "KukiShinobu",
      "KukiShinobu",
      "KukiShinobu"
    ]
  },
  {
    "id": 82,
    "MDKHDFIHMKA": [
      1
    ],
    "PBCJPMFOJGL": [
      "KamisatoAyato",
      "神里绫人",
      "神里綾人",
      "KamisatoAyato",
      "KamisatoAyato",
      "KamisatoAyato",
      "KamisatoAyato",
      "КамисатоАято",
      "神里綾人",
      "카미사토아야토",
      "KamisatoAyato",
      "KamisatoAyato",
      "KamisatoAyato",
      "KamisatoAyato",
      "KamisatoAyato"
    ]
  },
  {
    "id": 83,
    "MDKHDFIHMKA": [
      1
    ],
    "PBCJPMFOJGL": [
      "Collei",
      "柯莱",
      "柯萊",
      "Collei",
      "Collei",
      "Collei",
      "Collei",
      "Коллеи",
      "コレイ",
      "콜레이",
      "Collei",
      "Collei",
      "Collei",
      "Collei",
      "Collei"
    ]
  },
  {
    "id": 84,
    "MDKHDFIHMKA": [
      1
    ],
    "PBCJPMFOJGL": [
      "Dori",
      "多莉",
      "多莉",
      "Dori",
      "Dori",
      "Dori",
      "Dori",
      "Дори",
      "ドリー",
      "도리",
      "Dori",
      "Dori",
      "Dori",
      "Dori",
      "Dori"
    ]
  },
  {
    "id": 85,
    "MDKHDFIHMKA": [
      1
    ],
    "PBCJPMFOJGL": [
      "Tighnari",
      "提纳里",
      "提納里",
      "Tighnari",
      "Tighnari",
      "Tignari",
      "Tighnari",
      "Тигнари",
      "ティナリ",
      "타이나리",
      "Tighnari",
      "Tighnari",
      "Tighnari",
      "Tighnari",
      "Tighnari"
    ]
  },
  {
    "id": 86,
    "MDKHDFIHMKA": [
      1
    ],
    "PBCJPMFOJGL": [
      "Nilou",
      "妮露",
      "妮露",
      "Nilou",
      "Nilou",
      "Nilou",
      "Nilou",
      "Нилу",
      "ニィロウ",
      "닐루",
      "Nilou",
      "Nilou",
      "Nilou",
      "Nilou",
      "Nilou"
    ]
  },
  {
    "id": 87,
    "MDKHDFIHMKA": [
      1
    ],
    "PBCJPMFOJGL": [
      "Cyno",
      "赛诺",
      "賽諾",
      "Cyno",
      "Cyno",
      "Cyno",
      "Cyno",
      "Сайно",
      "セノ",
      "사이노",
      "Cyno",
      "Cyno",
      "Cyno",
      "Cyno",
      "Cyno"
    ]
  },
  {
    "id": 88,
    "MDKHDFIHMKA": [
      1
    ],
    "PBCJPMFOJGL": [
      "Candace",
      "坎蒂丝",
      "坎蒂絲",
      "Candace",
      "Candace",
      "Candace",
      "Candace",
      "Кандакия",
      "キャンディス",
      "캔디스",
      "Candace",
      "Candace",
      "Candace",
      "Candace",
      "Candace"
    ]
  },
  {
    "id": 89,
    "MDKHDFIHMKA": [
      1
    ],
    "PBCJPMFOJGL": [
      "Nahida",
      "纳西妲",
      "納西妲",
      "Nahida",
      "Nahida",
      "Nahida",
      "Nahida",
      "Нахида",
      "ナヒーダ",
      "나히다",
      "Nahida",
      "Nahida",
      "Nahida",
      "Nahida",
      "Nahida"
    ]
  },
  {
    "id": 90,
    "MDKHDFIHMKA": [
      1
    ],
    "PBCJPMFOJGL": [
      "Layla",
      "莱依拉",
      "萊依拉",
      "Layla",
      "Layla",
      "Laila",
      "Layla",
      "Лайла",
      "レイラ",
      "레일라",
      "Layla",
      "Layla",
      "Layla",
      "Layla",
      "Layla"
    ]
  },
  {
    "id": 91,
    "MDKHDFIHMKA": [
      1
    ],
    "PBCJPMFOJGL": [
      "Alhaitham",
      "艾尔海森",
      "艾爾海森",
      "Alhaitham",
      "Alhaitham",
      "Alhacén",
      "Alhaitham",
      "Аль-Хайтам",
      "アルハイゼン",
      "알하이탐",
      "Alhaitham",
      "Alhaitham",
      "Alhaitham",
      "Alhaitham",
      "Alhaitham"
    ]
  },
  {
    "id": 92,
    "MDKHDFIHMKA": [
      1
    ],
    "PBCJPMFOJGL": [
      "Dehya",
      "迪希雅",
      "迪希雅",
      "Dehya",
      "Dehya",
      "Dehya",
      "Dehya",
      "Дэхья",
      "ディシア",
      "데히야",
      "Dehya",
      "Dehya",
      "Dehya",
      "Dehya",
      "Dehya"
    ]
  },
  {
    "id": 93,
    "MDKHDFIHMKA": [
      1
    ],
    "PBCJPMFOJGL": [
      "Paimon",
      "派蒙",
      "派蒙",
      "Paimon",
      "Paimon",
      "Paimon",
      "Paimon",
      "Паймон",
      "パイモン",
      "페이몬",
      "Paimon",
      "Paimon",
      "Paimon",
      "Paimon",
      "Paimon"
    ]
  },
  {
    "id": 94,
    "MDKHDFIHMKA": [
      1
    ],
    "PBCJPMFOJGL": [
      "Yaoyao",
      "瑶瑶",
      "瑤瑤",
      "Yaoyao",
      "Yaoyao",
      "Yaoyao",
      "Yaoyao",
      "ЯоЯо",
      "ヨォーヨ",
      "요요",
      "Yaoyao",
      "Yaoyao",
      "Yaoyao",
      "Yaoyao",
      "Yaoyao"
    ]
  },
  {
    "id": 95,
    "MDKHDFIHMKA": [
      1
    ],
    "PBCJPMFOJGL": [
      "Baizhu",
      "白术",
      "白朮",
      "Baizhu",
      "Baizhu",
      "Baizhu",
      "Baizhu",
      "БайЧжу",
      "白朮",
      "백출",
      "Baizhu",
      "Baizhu",
      "Baizhu",
      "Baizhu",
      "Baizhu"
    ]
  },
  {
    "id": 96,
    "MDKHDFIHMKA": [
      1
    ],
    "PBCJPMFOJGL": [
      "Faruzan",
      "珐露珊",
      "琺露珊",
      "Faruzan",
      "Faruzan",
      "Faruzán",
      "Faruzan",
      "Фарузан",
      "ファルザン",
      "파루잔",
      "Faruzan",
      "Faruzan",
      "Faruzan",
      "Faruzan",
      "Faruzan"
    ]
  },
  {
    "id": 97,
    "MDKHDFIHMKA": [
      1
    ],
    "PBCJPMFOJGL": [
      "Mika",
      "米卡",
      "米卡",
      "Mika",
      "Mika",
      "Mika",
      "Mika",
      "Мика",
      "ミカ",
      "미카",
      "Mika",
      "Mika",
      "Mika",
      "Mika",
      "Mika"
    ]
  },
  {
    "id": 98,
    "MDKHDFIHMKA": [
      1
    ],
    "PBCJPMFOJGL": [
      "Kaveh",
      "卡维",
      "卡維",
      "Kaveh",
      "Kaveh",
      "Kaveh",
      "Kaveh",
      "Кавех",
      "カーヴェ",
      "카베",
      "Kaveh",
      "Kaveh",
      "Kaveh",
      "Kaveh",
      "Kaveh"
    ]
  },
  {
    "id": 99,
    "MDKHDFIHMKA": [
      1
    ],
    "PBCJPMFOJGL": [
      "Neuvillette",
      "那维莱特",
      "那維萊特",
      "Neuvillette",
      "Neuvillette",
      "Neuvillette",
      "Neuvillette",
      "Нёвиллет",
      "ヌヴィレット",
      "느비예트",
      "Neuvillette",
      "Neuvillette",
      "Neuvillette",
      "Neuvillette",
      "Neuvillette"
    ]
  },
  {
    "id": 100,
    "MDKHDFIHMKA": [
      1
    ],
    "PBCJPMFOJGL": [
      "Lyney",
      "林尼",
      "林尼",
      "Lyney",
      "Lyney",
      "Lyney",
      "Lyney",
      "Линн",
      "リネ",
      "리니",
      "Lyney",
      "Lyney",
      "Lyney",
      "Lyney",
      "Lyney"
    ]
  },
  {
    "id": 101,
    "MDKHDFIHMKA": [
      1
    ],
    "PBCJPMFOJGL": [
      "Lynette",
      "琳妮特",
      "琳妮特",
      "Lynette",
      "Lynette",
      "Lynette",
      "Lynette",
      "Линетт",
      "リネット",
      "리넷",
      "Lynette",
      "Lynette",
      "Lynette",
      "Lynette",
      "Lynette"
    ]
  },
  {
    "id": 102,
    "MDKHDFIHMKA": [
      1
    ],
    "PBCJPMFOJGL": [
      "Iansan",
      "伊安珊",
      "伊安珊",
      "Iansan",
      "Iansan",
      "Iansan",
      "Iansan",
      "Иансан",
      "イアンサ",
      "얀사",
      "Iansan",
      "Iansan",
      "Iansan",
      "Iansan",
      "Iansan"
    ]
  },
  {
    "id": 103,
    "MDKHDFIHMKA": [
      1
    ],
    "PBCJPMFOJGL": [
      "RexLapis",
      "帝君",
      "帝君",
      "SouveraindelaRoche",
      "RexLapis",
      "RexLapis",
      "RexLapis",
      "ВластелинКамня",
      "帝君",
      "제군",
      "RexLapis",
      "RexLapis",
      "RexLapis",
      "RexLapis",
      "RexLapis"
    ]
  },
  {
    "id": 104,
    "MDKHDFIHMKA": [
      1
    ],
    "PBCJPMFOJGL": [
      "RexLapis",
      "岩王帝君",
      "岩王帝君",
      "SouveraindeRoche",
      "RexLapis",
      "RexLapis",
      "RexLapis",
      "ВластелинКамня",
      "岩王帝君",
      "암왕제군",
      "ราชาแห่งหิน",
      "NhamVươngĐếQuân",
      "RexLapis",
      "RexLapis",
      "RexLapis"
    ]
  },
  {
    "id": 105,
    "MDKHDFIHMKA": [
      1
    ],
    "PBCJPMFOJGL": [
      "LordofGeo",
      "岩王爷",
      "岩王爺",
      "SouverainRoche",
      "HerrscherüberdieFelsen",
      "RexLapis",
      "ArconteGeo",
      "ВластелинКамня",
      "岩王帝君",
      "바위신",
      "ลอร์ดแห่งหิน",
      "NhamVươngGia",
      "LordofGeo",
      "ToprağınEfendisi",
      "SignorediGeo"
    ]
  },
  {
    "id": 106,
    "MDKHDFIHMKA": [
      1
    ],
    "PBCJPMFOJGL": [
      "Morax",
      "摩拉克斯",
      "摩拉克斯",
      "Morax",
      "Morax",
      "Morax",
      "Morax",
      "Моракс",
      "モラクス",
      "모락스",
      "Morax",
      "Morax",
      "Morax",
      "Morax",
      "Morax"
    ]
  },
  {
    "id": 107,
    "MDKHDFIHMKA": [
      1
    ],
    "PBCJPMFOJGL": [
      "GodofContracts",
      "契约之神",
      "契約之神",
      "Dieudescontrats",
      "GottderVerträge",
      "Patronodeloscontratos",
      "DeusDosContratos",
      "Богконтрактов",
      "契約の神",
      "계약의신",
      "เทพแห่งพันธสัญญา",
      "ThầnKhếƯớc",
      "DewaKontrak",
      "SözleşmeTanrısı",
      "DiodeiContratti"
    ]
  },
  {
    "id": 108,
    "MDKHDFIHMKA": [
      1
    ],
    "PBCJPMFOJGL": [
      "Dain",
      "戴因",
      "戴因",
      "Dain",
      "Dain",
      "Dain",
      "Dain",
      "Дайн",
      "ダイン",
      "데인",
      "Dain",
      "Dain",
      "Dain",
      "Dain",
      "Dain"
    ]
  },
  {
    "id": 109,
    "MDKHDFIHMKA": [
      1
    ],
    "PBCJPMFOJGL": [
      "Dainsleif",
      "戴因斯雷布",
      "戴因斯雷布",
      "Dainsleif",
      "Dainsleif",
      "Dainsleif",
      "Dainsleif",
      "Дайнслейф",
      "ダインスレイヴ",
      "데인슬레이프",
      "Dainsleif",
      "Dainsleif",
      "Dainsleif",
      "Dainsleif",
      "Dainsleif"
    ]
  },
  {
    "id": 110,
    "MDKHDFIHMKA": [
      1
    ],
    "PBCJPMFOJGL": [
      "Kirara",
      "绮良良",
      "綺良良",
      "Kirara",
      "Kirara",
      "Kirara",
      "Kirara",
      "Кирара",
      "綺良々",
      "키라라",
      "Kirara",
      "Kirara",
      "Kirara",
      "Kirara",
      "Kirara"
    ]
  },
  {
    "id": 111,
    "MDKHDFIHMKA": [
      1
    ],
    "PBCJPMFOJGL": [
      "Traveler",
      "旅行者",
      "旅行者",
      "Voyageur",
      "Reisender",
      "Viajero",
      "Viajante",
      "Путешественник",
      "旅人",
      "여행자",
      "นักเดินทาง",
      "NhàLữHành",
      "Pengembara",
      "Gezgin",
      "Viaggiatore"
    ]
  },
  {
    "id": 112,
    "MDKHDFIHMKA": [
      1
    ],
    "PBCJPMFOJGL": [
      "Traveler",
      "旅行者",
      "旅行者",
      "Voyageuse",
      "Reisende",
      "Viajera",
      "Viajante",
      "Путешественница",
      "旅人",
      "여행자",
      "นักเดินทาง",
      "NhàLữHành",
      "Pengembara",
      "Gezgin",
      "Viaggiatrice"
    ]
  },
  {
    "id": 113,
    "MDKHDFIHMKA": [
      1
    ],
    "PBCJPMFOJGL": [
      "\"Jester\"",
      "「丑角」",
      "「丑角」",
      "«LeFou»",
      "„Narr“",
      "“Bufón”",
      "\"BoboDaCorte\"",
      "«Шут»",
      "「道化」",
      "「어릿광대」",
      "\"Jester\"",
      "Jester",
      "\"Jester\"",
      "\"Soytarı\"",
      "\"Giullare\""
    ]
  },
  {
    "id": 114,
    "MDKHDFIHMKA": [
      1
    ],
    "PBCJPMFOJGL": [
      "\"Captain\"",
      "「队长」",
      "「隊長」",
      "«Capitaine»",
      "„Truppenführer“",
      "“Capitán”",
      "\"Capitão\"",
      "«Капитан»",
      "「隊長」",
      "「대장」",
      "\"Captain\"",
      "Captain",
      "\"Captain\"",
      "\"Kaptan\"",
      "\"Condottiero\""
    ]
  },
  {
    "id": 115,
    "MDKHDFIHMKA": [
      1
    ],
    "PBCJPMFOJGL": [
      "\"Doctor\"",
      "「博士」",
      "「博士」",
      "«LeDocteur»",
      "„Doktor“",
      "“Doctor”",
      "\"Doutor\"",
      "«Доктор»",
      "「博士」",
      "「박사」",
      "\"Doctor\"",
      "Doctor",
      "\"Doctor\"",
      "\"Doktor\"",
      "\"Luminare\""
    ]
  },
  {
    "id": 116,
    "MDKHDFIHMKA": [
      1
    ],
    "PBCJPMFOJGL": [
      "\"Damselette\"",
      "「少女」",
      "「少女」",
      "«Jouvencelle»",
      "„Jungfrau“",
      "“Damisela”",
      "\"Donzela\"",
      "«Субретка»",
      "「少女」",
      "「소녀」",
      "\"Damselette\"",
      "Damselette",
      "\"Damselette\"",
      "\"KüçükHanım\"",
      "\"Damigella\""
    ]
  },
  {
    "id": 117,
    "MDKHDFIHMKA": [
      1
    ],
    "PBCJPMFOJGL": [
      "\"Knave\"",
      "「仆人」",
      "「僕人」",
      "«Valet»",
      "„Bedienstete“",
      "“Sota”",
      "\"Serva\"",
      "«Слуга»",
      "「召使」",
      "「하인」",
      "\"Knave\"",
      "Knave",
      "\"Knave\"",
      "\"Üçkağıtçı\"",
      "\"Üçkağıtçı\""
    ]
  },
  {
    "id": 118,
    "MDKHDFIHMKA": [
      1
    ],
    "PBCJPMFOJGL": [
      "\"Rooster\"",
      "「公鸡」",
      "「公雞」",
      "«Coq»",
      "„Hahn“",
      "“Gallo”",
      "\"Galo\"",
      "«Цыплёнок»",
      "「雄鶏」",
      "「수탉」",
      "\"Rooster\"",
      "Rooster",
      "\"Rooster\"",
      "\"Horoz\"",
      "\"Gallo\""
    ]
  },
  {
    "id": 119,
    "MDKHDFIHMKA": [
      1
    ],
    "PBCJPMFOJGL": [
      "\"Marionette\"",
      "「木偶」",
      "「木偶」",
      "«Pantin»",
      "„Marionette“",
      "“Títere”",
      "\"Marionete\"",
      "«Марионетка»",
      "「傀儡」",
      "「꼭두각시」",
      "\"Marionette\"",
      "Marionette",
      "\"Marionette\"",
      "\"Kukla\"",
      "\"Marionetta\""
    ]
  },
  {
    "id": 120,
    "MDKHDFIHMKA": [
      1
    ],
    "PBCJPMFOJGL": [
      "\"FairLady\"",
      "「女士」",
      "「女士」",
      "«LaDemoiselle»",
      "„Dame“",
      "“Dama”",
      "\"Dama\"",
      "«Дама»",
      "「淑女」",
      "「숙녀」",
      "\"FairLady\"",
      "FairLady",
      "\"FairLady\"",
      "\"GüzelHanımefendi\"",
      "\"Gentildonna\""
    ]
  },
  {
    "id": 121,
    "MDKHDFIHMKA": [
      1
    ],
    "PBCJPMFOJGL": [
      "\"Regrator\"",
      "「富人」",
      "「富人」",
      "«Fortuné»",
      "„Geschäftsmann“",
      "“Regatero”",
      "\"Magnata\"",
      "«Делец»",
      "「富者」",
      "「거상」",
      "\"Regrator\"",
      "Regrator",
      "\"Regrator\"",
      "\"Madrabaz\"",
      "\"Affarista\""
    ]
  },
  {
    "id": 122,
    "MDKHDFIHMKA": [
      1
    ],
    "PBCJPMFOJGL": [
      "\"Childe\"",
      "「公子」",
      "「公子」",
      "«JeuneSire»",
      "„Graf“",
      "“Nobile”",
      "\"Childe\"",
      "«Чайльд»",
      "「公子」",
      "「귀공자」",
      "\"Childe\"",
      "Childe",
      "\"Childe\"",
      "\"Asilzade\"",
      "\"Principe\""
    ]
  },
  {
    "id": 123,
    "MDKHDFIHMKA": [
      1
    ],
    "PBCJPMFOJGL": [
      "\"Balladeer\"",
      "「散兵」",
      "「散兵」",
      "«Vagabond»",
      "„Bänkelsänger“",
      "“Baladista”",
      "\"Baladeiro\"",
      "«Сказитель»",
      "「散兵」",
      "「산병」",
      "\"Balladeer\"",
      "Balladeer",
      "\"Balladeer\"",
      "\"Kasideci\"",
      "\"Menestrello\""
    ]
  },
  {
    "id": 124,
    "MDKHDFIHMKA": [
      1
    ],
    "PBCJPMFOJGL": [
      "jester",
      "丑角",
      "丑角",
      "lefou",
      "narr",
      "bufón",
      "bobodacorte",
      "шут",
      "道化",
      "어릿광대",
      "jester",
      "jester",
      "jester",
      "soytarı",
      "giullare"
    ]
  },
  {
    "id": 125,
    "MDKHDFIHMKA": [
      1
    ],
    "PBCJPMFOJGL": [
      "captain",
      "队长",
      "隊長",
      "capitaine",
      "truppenführer",
      "capitán",
      "capitão",
      "капитан",
      "隊長",
      "대장",
      "captain",
      "captain",
      "captain",
      "kaptan",
      "condottiero"
    ]
  },
  {
    "id": 126,
    "MDKHDFIHMKA": [
      1
    ],
    "PBCJPMFOJGL": [
      "doctor",
      "博士",
      "博士",
      "ledocteur",
      "doktor",
      "doctor",
      "dottore",
      "доктор",
      "博士",
      "박사",
      "doctor",
      "doctor",
      "doctor",
      "doktor",
      "luminare"
    ]
  },
  {
    "id": 127,
    "MDKHDFIHMKA": [
      1
    ],
    "PBCJPMFOJGL": [
      "damselette",
      "少女",
      "少女",
      "jouvencelle",
      "jungfrau",
      "damisela",
      "donzela",
      "субретка",
      "少女",
      "소녀",
      "damselette",
      "damselette",
      "damselette",
      "küçükhanım",
      "damigella"
    ]
  },
  {
    "id": 128,
    "MDKHDFIHMKA": [
      1
    ],
    "PBCJPMFOJGL": [
      "knave",
      "仆人",
      "僕人",
      "valet",
      "bedienstete",
      "sota",
      "aserva",
      "слуга",
      "召使",
      "하인",
      "knave",
      "knave",
      "knave",
      "üçkağıtçı",
      "üçkağıtçı"
    ]
  },
  {
    "id": 129,
    "MDKHDFIHMKA": [
      1
    ],
    "PBCJPMFOJGL": [
      "rooster",
      "公鸡",
      "公雞",
      "coq",
      "hahn",
      "gallo",
      "ogalo",
      "цыплёнок",
      "雄鶏",
      "수탉",
      "rooster",
      "rooster",
      "rooster",
      "horoz",
      "gallo"
    ]
  },
  {
    "id": 130,
    "MDKHDFIHMKA": [
      1
    ],
    "PBCJPMFOJGL": [
      "marionette",
      "木偶",
      "木偶",
      "pantin",
      "marionette",
      "títere",
      "amarionete",
      "марионетка",
      "傀儡",
      "꼭두각시",
      "marionette",
      "marionette",
      "marionette",
      "kukla",
      "marionetta"
    ]
  },
  {
    "id": 131,
    "MDKHDFIHMKA": [
      1
    ],
    "PBCJPMFOJGL": [
      "fairlady",
      "女士",
      "女士",
      "lademoiselle",
      "dame",
      "dama",
      "signora",
      "дама",
      "淑女",
      "숙녀",
      "fairlady",
      "fairlady",
      "fairlady",
      "güzelhanımefendi",
      "gentildonna"
    ]
  },
  {
    "id": 132,
    "MDKHDFIHMKA": [
      1
    ],
    "PBCJPMFOJGL": [
      "regrator",
      "富人",
      "富人",
      "fortuné",
      "geschäftsmann",
      "regatero",
      "magnata",
      "делец",
      "富者",
      "거상",
      "regrator",
      "regrator",
      "regrator",
      "madrabaz",
      "affarista"
    ]
  },
  {
    "id": 133,
    "MDKHDFIHMKA": [
      1
    ],
    "PBCJPMFOJGL": [
      "childe",
      "公子",
      "公子",
      "jeunesire",
      "graf",
      "nobile",
      "childe",
      "чайльд",
      "公子",
      "귀공자",
      "childe",
      "childe",
      "childe",
      "asilzade",
      "principe"
    ]
  },
  {
    "id": 134,
    "MDKHDFIHMKA": [
      1
    ],
    "PBCJPMFOJGL": [
      "pierro",
      "皮耶罗",
      "皮耶羅",
      "pierro",
      "pierro",
      "pierotto",
      "pierro",
      "пьеро",
      "ピエロ",
      "피에로",
      "pierro",
      "pierro",
      "pierro",
      "pierro",
      "pierrot"
    ]
  },
  {
    "id": 135,
    "MDKHDFIHMKA": [
      1
    ],
    "PBCJPMFOJGL": [
      "capitano",
      "卡皮塔诺",
      "卡皮塔諾",
      "capitano",
      "capitano",
      "capitano",
      "capitano",
      "капитано",
      "カピターノ",
      "카피타노",
      "capitano",
      "capitano",
      "capitano",
      "capitano",
      "capitano"
    ]
  },
  {
    "id": 136,
    "MDKHDFIHMKA": [
      1
    ],
    "PBCJPMFOJGL": [
      "dottore",
      "多托雷",
      "多托雷",
      "dottore",
      "dottore",
      "dottore",
      "dottore",
      "дотторе",
      "ドットーレ",
      "도토레",
      "dottore",
      "dottore",
      "dottore",
      "dottore",
      "dottore"
    ]
  },
  {
    "id": 137,
    "MDKHDFIHMKA": [
      1
    ],
    "PBCJPMFOJGL": [
      "columbina",
      "哥伦比娅",
      "哥倫比婭",
      "columbina",
      "columbina",
      "colombina",
      "columbina",
      "коломбина",
      "コロンビーナ",
      "콜롬비나",
      "columbina",
      "columbina",
      "columbina",
      "columbina",
      "colombina"
    ]
  },
  {
    "id": 138,
    "MDKHDFIHMKA": [
      1
    ],
    "PBCJPMFOJGL": [
      "arlecchino",
      "阿蕾奇诺",
      "阿蕾奇諾",
      "arlecchino",
      "arlecchino",
      "arlecchino",
      "arlecchino",
      "арлекино",
      "アルレッキーノ",
      "아를레키노",
      "arlecchino",
      "arlecchino",
      "arlecchino",
      "arlecchino",
      "arlecchino"
    ]
  },
  {
    "id": 139,
    "MDKHDFIHMKA": [
      1
    ],
    "PBCJPMFOJGL": [
      "pulcinella",
      "普契涅拉",
      "普契涅拉",
      "pulcinella",
      "pulcinella",
      "pulcinella",
      "pulcinella",
      "пульчинелла",
      "プルチネッラ",
      "풀치넬라",
      "pulcinella",
      "pulcinella",
      "pulcinella",
      "pulcinella",
      "pulcinella"
    ]
  },
  {
    "id": 140,
    "MDKHDFIHMKA": [
      1
    ],
    "PBCJPMFOJGL": [
      "sandrone",
      "桑多涅",
      "桑多涅",
      "sandrone",
      "sandrone",
      "sandrone",
      "sandrone",
      "сандроне",
      "サンドローネ",
      "산드로네",
      "sandrone",
      "sandrone",
      "sandrone",
      "sandrone",
      "sandrone"
    ]
  },
  {
    "id": 141,
    "MDKHDFIHMKA": [
      1
    ],
    "PBCJPMFOJGL": [
      "signora",
      "席诺拉",
      "席諾拉",
      "signora",
      "signora",
      "signora",
      "signora",
      "синьора",
      "シニョーラ",
      "시뇨라",
      "signora",
      "signora",
      "signora",
      "sinyora",
      "signora"
    ]
  },
  {
    "id": 142,
    "MDKHDFIHMKA": [
      1
    ],
    "PBCJPMFOJGL": [
      "pantalone",
      "潘塔罗涅",
      "潘塔羅涅",
      "pantalone",
      "pantalone",
      "pantalone",
      "pantalone",
      "панталоне",
      "パンタローネ",
      "판탈로네",
      "pantalone",
      "pantalone",
      "pantalone",
      "pantalone",
      "pantalone"
    ]
  },
  {
    "id": 143,
    "MDKHDFIHMKA": [
      1
    ],
    "PBCJPMFOJGL": [
      "tartaglia",
      "达达利亚",
      "達達利亞",
      "tartaglia",
      "tartaglia",
      "tartaglia",
      "tartaglia",
      "тарталья",
      "タルタリヤ",
      "타르탈리아",
      "tartaglia",
      "tartaglia",
      "tartaglia",
      "tartaglia",
      "tartaglia"
    ]
  },
  {
    "id": 144,
    "MDKHDFIHMKA": [
      1
    ],
    "PBCJPMFOJGL": [
      "ajax",
      "阿贾克斯",
      "阿賈克斯",
      "ajax",
      "ajax",
      "ajax",
      "ajax",
      "аякс",
      "アヤックス",
      "아약스",
      "ajax",
      "ajax",
      "ajax",
      "ajax",
      "ajax"
    ]
  },
  {
    "id": 145,
    "MDKHDFIHMKA": [
      1
    ],
    "PBCJPMFOJGL": [
      "zandik",
      "赞迪克",
      "贊迪克",
      "zandik",
      "zandik",
      "zandik",
      "zandik",
      "зандик",
      "ザンディク",
      "잔디크",
      "zandik",
      "zandik",
      "zandik",
      "zandik",
      "zandik"
    ]
  },
  {
    "id": 146,
    "MDKHDFIHMKA": [
      1
    ],
    "PBCJPMFOJGL": [
      "rosalyne",
      "罗莎琳",
      "蘿莎琳",
      "rosalyne",
      "rosalyne",
      "rosalyne",
      "rosalyne",
      "розалина",
      "ロザリン",
      "로잘린",
      "rosalyne",
      "rosalyne",
      "rosalyne",
      "rosalyne",
      "rosalyne"
    ]
  },
  {
    "id": 147,
    "MDKHDFIHMKA": [
      1
    ],
    "PBCJPMFOJGL": [
      "kruzchka",
      "克鲁兹希卡",
      "克魯茲希卡",
      "kruzchka",
      "kruzchka",
      "kruzchka",
      "kruzchka",
      "кручка",
      "クルーズチカ",
      "크루즈카",
      "kruzchka",
      "kruzchka",
      "kruzchka",
      "kruzchka",
      "kruzchka"
    ]
  },
  {
    "id": 148,
    "MDKHDFIHMKA": [
      1
    ],
    "PBCJPMFOJGL": [
      "lohefalter",
      "洛厄法特",
      "洛厄法特",
      "lohefalter",
      "lohefalter",
      "lohefalter",
      "lohefalter",
      "лоефальтер",
      "ローエファルタ",
      "로헤팔터",
      "lohefalter",
      "lohefalter",
      "lohefalter",
      "lohefalter",
      "lohefalter"
    ]
  },
  {
    "id": 149,
    "MDKHDFIHMKA": [
      1
    ],
    "PBCJPMFOJGL": [
      "balladeer",
      "散兵",
      "散兵",
      "vagabond",
      "bänkelsänger",
      "baladista",
      "baladeiro",
      "сказитель",
      "散兵",
      "산병",
      "balladeer",
      "balladeer",
      "balladeer",
      "kasideci",
      "menestrello"
    ]
  },
  {
    "id": 150,
    "MDKHDFIHMKA": [
      1
    ],
    "PBCJPMFOJGL": [
      "scaramouche",
      "斯卡拉姆齐",
      "斯卡拉姆齊",
      "scaramuccia",
      "scaramouche",
      "scaramuccia",
      "scaramouche",
      "скарамучча",
      "スカラマシュ",
      "스카라무슈",
      "scaramouche",
      "scaramouche",
      "scaramouche",
      "scaramuccia",
      "scaramouche"
    ]
  },
  {
    "id": 151,
    "MDKHDFIHMKA": [
      1
    ],
    "PBCJPMFOJGL": [
      "kunikuzushi",
      "国崩",
      "國崩",
      "kunikuzushi",
      "kunikuzushi",
      "kunikuzushi",
      "kunikuzushi",
      "куникудзуси",
      "国崩",
      "쿠니쿠즈시",
      "kunikuzushi",
      "kunikuzushi",
      "kunikuzushi",
      "kunikuzushi",
      "kunikuzushi"
    ]
  },
  {
    "id": 152,
    "MDKHDFIHMKA": [
      1
    ],
    "PBCJPMFOJGL": [
      "kabukimono",
      "倾奇者",
      "傾奇者",
      "kabukimono",
      "kabukimono",
      "kabukimono",
      "kabukimono",
      "кабукимоно",
      "傾奇者",
      "가부키모노",
      "kabukimono",
      "kabukimono",
      "kabukimono",
      "kabukimono",
      "kabukimono"
    ]
  },
  {
    "id": 153,
    "MDKHDFIHMKA": [
      1
    ],
    "PBCJPMFOJGL": [
      "raidenshogun",
      "雷电将军",
      "雷電將軍",
      "shogunraiden",
      "shougunraiden",
      "shogunraiden",
      "shogunraiden",
      "сёгунрайдэн",
      "雷電将軍",
      "라이덴쇼군",
      "raidenshogun",
      "raidenshogun",
      "raidenshogun",
      "şogunraiden",
      "shogunraiden"
    ]
  },
  {
    "id": 154,
    "MDKHDFIHMKA": [
      1
    ],
    "PBCJPMFOJGL": [
      "raidenei",
      "雷电影",
      "雷電影",
      "raidenei",
      "raidenei",
      "raidenei",
      "raidenei",
      "райдэнэи",
      "雷電影",
      "라이덴에이",
      "raidenei",
      "raidenei",
      "raidenei",
      "raidenei",
      "raidenei"
    ]
  },
  {
    "id": 155,
    "MDKHDFIHMKA": [
      1
    ],
    "PBCJPMFOJGL": [
      "raidenmakoto",
      "雷电真",
      "雷電真",
      "raidenmakoto",
      "raidenmakoto",
      "raidenmakoto",
      "raidenmakoto",
      "райдэнмакото",
      "雷電眞",
      "라이덴마코토",
      "raidenmakoto",
      "raidenmakoto",
      "raidenmakoto",
      "raidenmakoto",
      "raidenmakoto"
    ]
  },
  {
    "id": 156,
    "MDKHDFIHMKA": [
      1
    ],
    "PBCJPMFOJGL": [
      "baal",
      "巴尔",
      "巴爾",
      "baal",
      "baal",
      "baal",
      "baal",
      "баал",
      "バアル",
      "바알",
      "baal",
      "baal",
      "baal",
      "baal",
      "baal"
    ]
  },
  {
    "id": 157,
    "MDKHDFIHMKA": [
      1
    ],
    "PBCJPMFOJGL": [
      "beelzebul",
      "巴尔泽布",
      "巴爾澤布",
      "belzébuth",
      "beelzebul",
      "beelzebul",
      "beelzebul",
      "вельзевул",
      "バアルゼブル",
      "바알세불",
      "beelzebul",
      "beelzebul",
      "beelzebul",
      "beelzebul",
      "beelzebul"
    ]
  },
  {
    "id": 158,
    "MDKHDFIHMKA": [
      1
    ],
    "PBCJPMFOJGL": [
      "kamisatoayaka",
      "神里绫华",
      "神里綾華",
      "kamisatoayaka",
      "kamisatoayaka",
      "kamisatoayaka",
      "kamisatoayaka",
      "камисатоаяка",
      "神里綾華",
      "카미사토아야카",
      "kamisatoayaka",
      "kamisatoayaka",
      "kamisatoayaka",
      "kamisatoayaka",
      "kamisatoayaka"
    ]
  },
  {
    "id": 159,
    "MDKHDFIHMKA": [
      1
    ],
    "PBCJPMFOJGL": [
      "jean",
      "琴",
      "琴",
      "jean",
      "jean",
      "jean",
      "jean",
      "джинн",
      "ジン",
      "진",
      "jean",
      "jean",
      "jean",
      "jean",
      "jean"
    ]
  },
  {
    "id": 160,
    "MDKHDFIHMKA": [
      1
    ],
    "PBCJPMFOJGL": [
      "lisa",
      "丽莎",
      "麗莎",
      "lisa",
      "lisa",
      "lisa",
      "lisa",
      "лиза",
      "リサ",
      "리사",
      "lisa",
      "lisa",
      "lisa",
      "lisa",
      "lisa"
    ]
  },
  {
    "id": 161,
    "MDKHDFIHMKA": [
      1
    ],
    "PBCJPMFOJGL": [
      "barbara",
      "芭芭拉",
      "芭芭拉",
      "barbara",
      "barbara",
      "bárbara",
      "barbara",
      "барбара",
      "バーバラ",
      "바바라",
      "barbara",
      "barbara",
      "barbara",
      "barbara",
      "barbara"
    ]
  },
  {
    "id": 162,
    "MDKHDFIHMKA": [
      1
    ],
    "PBCJPMFOJGL": [
      "kaeya",
      "凯亚",
      "凱亞",
      "kaeya",
      "kaeya",
      "kaeya",
      "kaeya",
      "кэйа",
      "ガイア",
      "케이아",
      "kaeya",
      "kaeya",
      "kaeya",
      "kaeya",
      "kaeya"
    ]
  },
  {
    "id": 163,
    "MDKHDFIHMKA": [
      1
    ],
    "PBCJPMFOJGL": [
      "diluc",
      "迪卢克",
      "迪盧克",
      "diluc",
      "diluc",
      "diluc",
      "diluc",
      "дилюк",
      "ディルック",
      "다이루크",
      "diluc",
      "diluc",
      "diluc",
      "diluc",
      "diluc"
    ]
  },
  {
    "id": 164,
    "MDKHDFIHMKA": [
      1
    ],
    "PBCJPMFOJGL": [
      "razor",
      "雷泽",
      "雷澤",
      "razor",
      "razor",
      "razor",
      "razor",
      "рэйзор",
      "レザー",
      "레이저",
      "razor",
      "razor",
      "razor",
      "razor",
      "razor"
    ]
  },
  {
    "id": 165,
    "MDKHDFIHMKA": [
      1
    ],
    "PBCJPMFOJGL": [
      "amber",
      "安柏",
      "安柏",
      "amber",
      "amber",
      "amber",
      "amber",
      "эмбер",
      "アンバー",
      "엠버",
      "amber",
      "amber",
      "amber",
      "amber",
      "amber"
    ]
  },
  {
    "id": 166,
    "MDKHDFIHMKA": [
      1
    ],
    "PBCJPMFOJGL": [
      "venti",
      "温迪",
      "溫迪",
      "venti",
      "venti",
      "venti",
      "venti",
      "венти",
      "ウェンティ",
      "벤티",
      "venti",
      "venti",
      "venti",
      "venti",
      "venti"
    ]
  },
  {
    "id": 167,
    "MDKHDFIHMKA": [
      1
    ],
    "PBCJPMFOJGL": [
      "xiangling",
      "香菱",
      "香菱",
      "xiangling",
      "xiangling",
      "xiangling",
      "xiangling",
      "сянлин",
      "香菱",
      "향릉",
      "xiangling",
      "xiangling",
      "xiangling",
      "xiangling",
      "xiangling"
    ]
  },
  {
    "id": 168,
    "MDKHDFIHMKA": [
      1
    ],
    "PBCJPMFOJGL": [
      "beidou",
      "北斗",
      "北斗",
      "beidou",
      "beidou",
      "beidou",
      "beidou",
      "бэйдоу",
      "北斗",
      "북두",
      "beidou",
      "beidou",
      "beidou",
      "beidou",
      "beidou"
    ]
  },
  {
    "id": 169,
    "MDKHDFIHMKA": [
      1
    ],
    "PBCJPMFOJGL": [
      "xingqiu",
      "行秋",
      "行秋",
      "xingqiu",
      "xingqiu",
      "xingchiu",
      "xingqiu",
      "синцю",
      "行秋",
      "행추",
      "xingqiu",
      "xingqiu",
      "xingqiu",
      "xingqiu",
      "xingqiu"
    ]
  },
  {
    "id": 170,
    "MDKHDFIHMKA": [
      1
    ],
    "PBCJPMFOJGL": [
      "xiao",
      "魈",
      "魈",
      "xiao",
      "xiao",
      "xiao",
      "xiao",
      "сяо",
      "魈",
      "소",
      "xiao",
      "xiao",
      "xiao",
      "xiao",
      "xiao"
    ]
  },
  {
    "id": 171,
    "MDKHDFIHMKA": [
      1
    ],
    "PBCJPMFOJGL": [
      "ningguang",
      "凝光",
      "凝光",
      "ningguang",
      "ningguang",
      "ninguang",
      "ningguang",
      "нингуан",
      "凝光",
      "응광",
      "ningguang",
      "ningguang",
      "ningguang",
      "ningguang",
      "ningguang"
    ]
  },
  {
    "id": 172,
    "MDKHDFIHMKA": [
      1
    ],
    "PBCJPMFOJGL": [
      "klee",
      "可莉",
      "可莉",
      "klee",
      "klee",
      "klee",
      "klee",
      "кли",
      "クレー",
      "클레",
      "klee",
      "klee",
      "klee",
      "klee",
      "klee"
    ]
  },
  {
    "id": 173,
    "MDKHDFIHMKA": [
      1
    ],
    "PBCJPMFOJGL": [
      "zhongli",
      "钟离",
      "鍾離",
      "zhongli",
      "zhongli",
      "zhongli",
      "zhongli",
      "чжунли",
      "鍾離",
      "종려",
      "zhongli",
      "zhongli",
      "zhongli",
      "zhongli",
      "zhongli"
    ]
  },
  {
    "id": 174,
    "MDKHDFIHMKA": [
      1
    ],
    "PBCJPMFOJGL": [
      "fischl",
      "菲谢尔",
      "菲謝爾",
      "fischl",
      "fischl",
      "fischl",
      "fischl",
      "фишль",
      "フィッシュル",
      "피슬",
      "fischl",
      "fischl",
      "fischl",
      "fischl",
      "fischl"
    ]
  },
  {
    "id": 175,
    "MDKHDFIHMKA": [
      1
    ],
    "PBCJPMFOJGL": [
      "bennett",
      "班尼特",
      "班尼特",
      "bennett",
      "bennett",
      "bennett",
      "bennett",
      "беннет",
      "ベネット",
      "베넷",
      "bennett",
      "bennett",
      "bennett",
      "bennett",
      "bennett"
    ]
  },
  {
    "id": 176,
    "MDKHDFIHMKA": [
      1
    ],
    "PBCJPMFOJGL": [
      "noelle",
      "诺艾尔",
      "諾艾爾",
      "noëlle",
      "noelle",
      "noelle",
      "noelle",
      "ноэлль",
      "ノエル",
      "노엘",
      "noelle",
      "noelle",
      "noelle",
      "noelle",
      "noelle"
    ]
  },
  {
    "id": 177,
    "MDKHDFIHMKA": [
      1
    ],
    "PBCJPMFOJGL": [
      "qiqi",
      "七七",
      "七七",
      "qiqi",
      "qiqi",
      "qiqi",
      "qiqi",
      "цици",
      "七七",
      "치치",
      "qiqi",
      "qiqi",
      "qiqi",
      "qiqi",
      "qiqi"
    ]
  },
  {
    "id": 178,
    "MDKHDFIHMKA": [
      1
    ],
    "PBCJPMFOJGL": [
      "chongyun",
      "重云",
      "重雲",
      "chongyun",
      "chongyun",
      "chongyun",
      "chongyun",
      "чунюнь",
      "重雲",
      "중운",
      "chongyun",
      "chongyun",
      "chongyun",
      "chongyun",
      "chongyun"
    ]
  },
  {
    "id": 179,
    "MDKHDFIHMKA": [
      1
    ],
    "PBCJPMFOJGL": [
      "ganyu",
      "甘雨",
      "甘雨",
      "ganyu",
      "ganyu",
      "ganyu",
      "ganyu",
      "ганьюй",
      "甘雨",
      "감우",
      "ganyu",
      "ganyu",
      "ganyu",
      "ganyu",
      "ganyu"
    ]
  },
  {
    "id": 180,
    "MDKHDFIHMKA": [
      1
    ],
    "PBCJPMFOJGL": [
      "albedo",
      "阿贝多",
      "阿貝多",
      "albedo",
      "albedo",
      "albedo",
      "albedo",
      "альбедо",
      "アルベド",
      "알베도",
      "albedo",
      "albedo",
      "albedo",
      "albedo",
      "albedo"
    ]
  },
  {
    "id": 181,
    "MDKHDFIHMKA": [
      1
    ],
    "PBCJPMFOJGL": [
      "diona",
      "迪奥娜",
      "迪奧娜",
      "diona",
      "diona",
      "diona",
      "diona",
      "диона",
      "ディオナ",
      "디오나",
      "diona",
      "diona",
      "diona",
      "diona",
      "diona"
    ]
  },
  {
    "id": 182,
    "MDKHDFIHMKA": [
      1
    ],
    "PBCJPMFOJGL": [
      "mona",
      "莫娜",
      "莫娜",
      "mona",
      "mona",
      "mona",
      "mona",
      "мона",
      "モナ",
      "모나",
      "mona",
      "mona",
      "mona",
      "mona",
      "mona"
    ]
  },
  {
    "id": 183,
    "MDKHDFIHMKA": [
      1
    ],
    "PBCJPMFOJGL": [
      "keqing",
      "刻晴",
      "刻晴",
      "keqing",
      "keqing",
      "keching",
      "keqing",
      "кэцин",
      "刻晴",
      "각청",
      "keqing",
      "keqing",
      "keqing",
      "keqing",
      "keqing"
    ]
  },
  {
    "id": 184,
    "MDKHDFIHMKA": [
      1
    ],
    "PBCJPMFOJGL": [
      "sucrose",
      "砂糖",
      "砂糖",
      "sucrose",
      "saccharose",
      "sacarosa",
      "sucrose",
      "сахароза",
      "スクロース",
      "설탕",
      "sucrose",
      "sucrose",
      "sucrose",
      "sucrose",
      "sucrose"
    ]
  },
  {
    "id": 185,
    "MDKHDFIHMKA": [
      1
    ],
    "PBCJPMFOJGL": [
      "xinyan",
      "辛焱",
      "辛焱",
      "xinyan",
      "xinyan",
      "xinyan",
      "xinyan",
      "синьянь",
      "辛炎",
      "신염",
      "xinyan",
      "xinyan",
      "xinyan",
      "xinyan",
      "xinyan"
    ]
  },
  {
    "id": 186,
    "MDKHDFIHMKA": [
      1
    ],
    "PBCJPMFOJGL": [
      "rosaria",
      "罗莎莉亚",
      "蘿莎莉亞",
      "rosalia",
      "rosaria",
      "rosaria",
      "rosaria",
      "розария",
      "ロサリア",
      "로자리아",
      "rosaria",
      "rosaria",
      "rosaria",
      "rosaria",
      "rosaria"
    ]
  },
  {
    "id": 187,
    "MDKHDFIHMKA": [
      1
    ],
    "PBCJPMFOJGL": [
      "hutao",
      "胡桃",
      "胡桃",
      "hutao",
      "hutao",
      "hutao",
      "hutao",
      "хутао",
      "胡桃",
      "호두",
      "hutao",
      "hutao",
      "hutao",
      "hutao",
      "hutao"
    ]
  },
  {
    "id": 188,
    "MDKHDFIHMKA": [
      1
    ],
    "PBCJPMFOJGL": [
      "kaedeharakazuha",
      "枫原万叶",
      "楓原萬葉",
      "kaedeharakazuha",
      "kaedeharakazuha",
      "kaedeharakazuha",
      "kaedeharakazuha",
      "каэдэхаракадзуха",
      "楓原万葉",
      "카에데하라카즈하",
      "kaedeharakazuha",
      "kaedeharakazuha",
      "kaedeharakazuha",
      "kaedeharakazuha",
      "kaedeharakazuha"
    ]
  },
  {
    "id": 189,
    "MDKHDFIHMKA": [
      1
    ],
    "PBCJPMFOJGL": [
      "yanfei",
      "烟绯",
      "煙緋",
      "yanfei",
      "yanfei",
      "yanfei",
      "yanfei",
      "яньфэй",
      "煙緋",
      "연비",
      "yanfei",
      "yanfei",
      "yanfei",
      "yanfei",
      "yanfei"
    ]
  },
  {
    "id": 190,
    "MDKHDFIHMKA": [
      1
    ],
    "PBCJPMFOJGL": [
      "yoimiya",
      "宵宫",
      "宵宮",
      "yoimiya",
      "yoimiya",
      "yoimiya",
      "yoimiya",
      "ёимия",
      "宵宮",
      "요이미야",
      "yoimiya",
      "yoimiya",
      "yoimiya",
      "yoimiya",
      "yoimiya"
    ]
  },
  {
    "id": 191,
    "MDKHDFIHMKA": [
      1
    ],
    "PBCJPMFOJGL": [
      "thoma",
      "托马",
      "托馬",
      "thomas",
      "thoma",
      "thoma",
      "thoma",
      "тома",
      "トーマ",
      "토마",
      "thoma",
      "thoma",
      "thoma",
      "thoma",
      "thoma"
    ]
  },
  {
    "id": 192,
    "MDKHDFIHMKA": [
      1
    ],
    "PBCJPMFOJGL": [
      "eula",
      "优菈",
      "優菈",
      "eula",
      "eula",
      "eula",
      "eula",
      "эола",
      "エウルア",
      "유라",
      "eula",
      "eula",
      "eula",
      "eula",
      "eula"
    ]
  },
  {
    "id": 193,
    "MDKHDFIHMKA": [
      1
    ],
    "PBCJPMFOJGL": [
      "sayu",
      "早柚",
      "早柚",
      "sayu",
      "sayu",
      "sayu",
      "sayu",
      "саю",
      "早柚",
      "사유",
      "sayu",
      "sayu",
      "sayu",
      "sayu",
      "sayu"
    ]
  },
  {
    "id": 194,
    "MDKHDFIHMKA": [
      1
    ],
    "PBCJPMFOJGL": [
      "sangonomiyakokomi",
      "珊瑚宫心海",
      "珊瑚宮心海",
      "sangonomiyakokomi",
      "sangonomiyakokomi",
      "sangonomiyakokomi",
      "sangonomiyakokomi",
      "сангономиякокоми",
      "珊瑚宮心海",
      "산고노미야코코미",
      "sangonomiyakokomi",
      "sangonomiyakokomi",
      "sangonomiyakokomi",
      "sangonomiyakokomi",
      "sangonomiyakokomi"
    ]
  },
  {
    "id": 195,
    "MDKHDFIHMKA": [
      1
    ],
    "PBCJPMFOJGL": [
      "gorou",
      "五郎",
      "五郎",
      "gorou",
      "gorou",
      "gorou",
      "gorou",
      "горо",
      "ゴロー",
      "고로",
      "gorou",
      "gorou",
      "gorou",
      "gorou",
      "gorou"
    ]
  },
  {
    "id": 196,
    "MDKHDFIHMKA": [
      1
    ],
    "PBCJPMFOJGL": [
      "kujousara",
      "九条裟罗",
      "九條裟羅",
      "kujousara",
      "kujousara",
      "kujousara",
      "kujousara",
      "кудзёсара",
      "九条裟羅",
      "쿠죠사라",
      "kujousara",
      "kujousara",
      "kujousara",
      "kujousara",
      "kujousara"
    ]
  },
  {
    "id": 197,
    "MDKHDFIHMKA": [
      1
    ],
    "PBCJPMFOJGL": [
      "aratakiitto",
      "荒泷一斗",
      "荒瀧一斗",
      "aratakiitto",
      "aratakiitto",
      "aratakiitto",
      "aratakiitto",
      "аратакиитто",
      "荒瀧一斗",
      "아라타키이토",
      "aratakiitto",
      "aratakiitto",
      "aratakiitto",
      "aratakiitto",
      "aratakiitto"
    ]
  },
  {
    "id": 198,
    "MDKHDFIHMKA": [
      1
    ],
    "PBCJPMFOJGL": [
      "yaemiko",
      "八重神子",
      "八重神子",
      "yaemiko",
      "yaemiko",
      "yaemiko",
      "yaemiko",
      "яэмико",
      "八重神子",
      "야에미코",
      "yaemiko",
      "yaemiko",
      "yaemiko",
      "yaemiko",
      "yaemiko"
    ]
  },
  {
    "id": 199,
    "MDKHDFIHMKA": [
      1
    ],
    "PBCJPMFOJGL": [
      "shikanoinheizou",
      "鹿野院平藏",
      "鹿野院平藏",
      "shikanoinheizou",
      "shikanoinheizou",
      "shikanoinheizou",
      "shikanoinheizou",
      "сиканоинхэйдзо",
      "鹿野院平蔵",
      "시카노인헤이조",
      "shikanoinheizou",
      "shikanoinheizou",
      "shikanoinheizou",
      "shikanoinheizou",
      "shikanoinheizou"
    ]
  },
  {
    "id": 200,
    "MDKHDFIHMKA": [
      1
    ],
    "PBCJPMFOJGL": [
      "yelan",
      "夜兰",
      "夜蘭",
      "yelan",
      "yelan",
      "yelan",
      "yelan",
      "елань",
      "夜蘭",
      "야란",
      "yelan",
      "yelan",
      "yelan",
      "yelan",
      "yelan"
    ]
  },
  {
    "id": 201,
    "MDKHDFIHMKA": [
      1
    ],
    "PBCJPMFOJGL": [
      "aloy",
      "埃洛伊",
      "亞蘿伊",
      "aloy",
      "aloy",
      "aloy",
      "aloy",
      "элой",
      "アーロイ",
      "에일로이",
      "aloy",
      "aloy",
      "aloy",
      "aloy",
      "aloy"
    ]
  },
  {
    "id": 202,
    "MDKHDFIHMKA": [
      1
    ],
    "PBCJPMFOJGL": [
      "shenhe",
      "申鹤",
      "申鶴",
      "shenhe",
      "shenhe",
      "shenhe",
      "shenhe",
      "шэньхэ",
      "申鶴",
      "신학",
      "shenhe",
      "shenhe",
      "shenhe",
      "shenhe",
      "shenhe"
    ]
  },
  {
    "id": 203,
    "MDKHDFIHMKA": [
      1
    ],
    "PBCJPMFOJGL": [
      "yunjin",
      "云堇",
      "雲堇",
      "yunjin",
      "yunjin",
      "yunjin",
      "yunjin",
      "юньцзинь",
      "雲菫",
      "운근",
      "yunjin",
      "yunjin",
      "yunjin",
      "yunjin",
      "yunjin"
    ]
  },
  {
    "id": 204,
    "MDKHDFIHMKA": [
      1
    ],
    "PBCJPMFOJGL": [
      "kukishinobu",
      "久岐忍",
      "久岐忍",
      "kukishinobu",
      "kukishinobu",
      "kukishinobu",
      "kukishinobu",
      "кукисинобу",
      "久岐忍",
      "쿠키시노부",
      "kukishinobu",
      "kukishinobu",
      "kukishinobu",
      "kukishinobu",
      "kukishinobu"
    ]
  },
  {
    "id": 205,
    "MDKHDFIHMKA": [
      1
    ],
    "PBCJPMFOJGL": [
      "kamisatoayato",
      "神里绫人",
      "神里綾人",
      "kamisatoayato",
      "kamisatoayato",
      "kamisatoayato",
      "kamisatoayato",
      "камисатоаято",
      "神里綾人",
      "카미사토아야토",
      "kamisatoayato",
      "kamisatoayato",
      "kamisatoayato",
      "kamisatoayato",
      "kamisatoayato"
    ]
  },
  {
    "id": 206,
    "MDKHDFIHMKA": [
      1
    ],
    "PBCJPMFOJGL": [
      "collei",
      "柯莱",
      "柯萊",
      "collei",
      "collei",
      "collei",
      "collei",
      "коллеи",
      "コレイ",
      "콜레이",
      "collei",
      "collei",
      "collei",
      "collei",
      "collei"
    ]
  },
  {
    "id": 207,
    "MDKHDFIHMKA": [
      1
    ],
    "PBCJPMFOJGL": [
      "dori",
      "多莉",
      "多莉",
      "dori",
      "dori",
      "dori",
      "dori",
      "дори",
      "ドリー",
      "도리",
      "dori",
      "dori",
      "dori",
      "dori",
      "dori"
    ]
  },
  {
    "id": 208,
    "MDKHDFIHMKA": [
      1
    ],
    "PBCJPMFOJGL": [
      "tighnari",
      "提纳里",
      "提納里",
      "tighnari",
      "tighnari",
      "tignari",
      "tighnari",
      "тигнари",
      "ティナリ",
      "타이나리",
      "tighnari",
      "tighnari",
      "tighnari",
      "tighnari",
      "tighnari"
    ]
  },
  {
    "id": 209,
    "MDKHDFIHMKA": [
      1
    ],
    "PBCJPMFOJGL": [
      "nilou",
      "妮露",
      "妮露",
      "nilou",
      "nilou",
      "nilou",
      "nilou",
      "нилу",
      "ニィロウ",
      "닐루",
      "nilou",
      "nilou",
      "nilou",
      "nilou",
      "nilou"
    ]
  },
  {
    "id": 210,
    "MDKHDFIHMKA": [
      1
    ],
    "PBCJPMFOJGL": [
      "cyno",
      "赛诺",
      "賽諾",
      "cyno",
      "cyno",
      "cyno",
      "cyno",
      "сайно",
      "セノ",
      "사이노",
      "cyno",
      "cyno",
      "cyno",
      "cyno",
      "cyno"
    ]
  },
  {
    "id": 211,
    "MDKHDFIHMKA": [
      1
    ],
    "PBCJPMFOJGL": [
      "candace",
      "坎蒂丝",
      "坎蒂絲",
      "candace",
      "candace",
      "candace",
      "candace",
      "кандакия",
      "キャンディス",
      "캔디스",
      "candace",
      "candace",
      "candace",
      "candace",
      "candace"
    ]
  },
  {
    "id": 212,
    "MDKHDFIHMKA": [
      1
    ],
    "PBCJPMFOJGL": [
      "nahida",
      "纳西妲",
      "納西妲",
      "nahida",
      "nahida",
      "nahida",
      "nahida",
      "нахида",
      "ナヒーダ",
      "나히다",
      "nahida",
      "nahida",
      "nahida",
      "nahida",
      "nahida"
    ]
  },
  {
    "id": 213,
    "MDKHDFIHMKA": [
      1
    ],
    "PBCJPMFOJGL": [
      "layla",
      "莱依拉",
      "萊依拉",
      "layla",
      "layla",
      "laila",
      "layla",
      "лайла",
      "レイラ",
      "레일라",
      "layla",
      "layla",
      "layla",
      "layla",
      "layla"
    ]
  },
  {
    "id": 214,
    "MDKHDFIHMKA": [
      1
    ],
    "PBCJPMFOJGL": [
      "alhaitham",
      "艾尔海森",
      "艾爾海森",
      "alhaitham",
      "alhaitham",
      "alhacén",
      "alhaitham",
      "аль-хайтам",
      "アルハイゼン",
      "알하이탐",
      "alhaitham",
      "alhaitham",
      "alhaitham",
      "alhaitham",
      "alhaitham"
    ]
  },
  {
    "id": 215,
    "MDKHDFIHMKA": [
      1
    ],
    "PBCJPMFOJGL": [
      "dehya",
      "迪希雅",
      "迪希雅",
      "dehya",
      "dehya",
      "dehya",
      "dehya",
      "дэхья",
      "ディシア",
      "데히야",
      "dehya",
      "dehya",
      "dehya",
      "dehya",
      "dehya"
    ]
  },
  {
    "id": 216,
    "MDKHDFIHMKA": [
      1
    ],
    "PBCJPMFOJGL": [
      "paimon",
      "派蒙",
      "派蒙",
      "paimon",
      "paimon",
      "paimon",
      "paimon",
      "паймон",
      "パイモン",
      "페이몬",
      "paimon",
      "paimon",
      "paimon",
      "paimon",
      "paimon"
    ]
  },
  {
    "id": 217,
    "MDKHDFIHMKA": [
      1
    ],
    "PBCJPMFOJGL": [
      "yaoyao",
      "瑶瑶",
      "瑤瑤",
      "yaoyao",
      "yaoyao",
      "yaoyao",
      "yaoyao",
      "яояо",
      "ヨォーヨ",
      "요요",
      "yaoyao",
      "yaoyao",
      "yaoyao",
      "yaoyao",
      "yaoyao"
    ]
  },
  {
    "id": 218,
    "MDKHDFIHMKA": [
      1
    ],
    "PBCJPMFOJGL": [
      "baizhu",
      "白术",
      "白朮",
      "baizhu",
      "baizhu",
      "baizhu",
      "baizhu",
      "байчжу",
      "白朮",
      "백출",
      "baizhu",
      "baizhu",
      "baizhu",
      "baizhu",
      "baizhu"
    ]
  },
  {
    "id": 219,
    "MDKHDFIHMKA": [
      1
    ],
    "PBCJPMFOJGL": [
      "faruzan",
      "珐露珊",
      "琺露珊",
      "faruzan",
      "faruzan",
      "faruzán",
      "faruzan",
      "фарузан",
      "ファルザン",
      "파루잔",
      "faruzan",
      "faruzan",
      "faruzan",
      "faruzan",
      "faruzan"
    ]
  },
  {
    "id": 220,
    "MDKHDFIHMKA": [
      1
    ],
    "PBCJPMFOJGL": [
      "mika",
      "米卡",
      "米卡",
      "mika",
      "mika",
      "mika",
      "mika",
      "мика",
      "ミカ",
      "미카",
      "mika",
      "mika",
      "mika",
      "mika",
      "mika"
    ]
  },
  {
    "id": 221,
    "MDKHDFIHMKA": [
      1
    ],
    "PBCJPMFOJGL": [
      "kaveh",
      "卡维",
      "卡維",
      "kaveh",
      "kaveh",
      "kaveh",
      "kaveh",
      "кавех",
      "カーヴェ",
      "카베",
      "kaveh",
      "kaveh",
      "kaveh",
      "kaveh",
      "kaveh"
    ]
  },
  {
    "id": 222,
    "MDKHDFIHMKA": [
      1
    ],
    "PBCJPMFOJGL": [
      "neuvillette",
      "那维莱特",
      "那維萊特",
      "neuvillette",
      "neuvillette",
      "neuvillette",
      "neuvillette",
      "нёвиллет",
      "ヌヴィレット",
      "느비예트",
      "neuvillette",
      "neuvillette",
      "neuvillette",
      "neuvillette",
      "neuvillette"
    ]
  },
  {
    "id": 223,
    "MDKHDFIHMKA": [
      1
    ],
    "PBCJPMFOJGL": [
      "lyney",
      "林尼",
      "林尼",
      "lyney",
      "lyney",
      "lyney",
      "lyney",
      "линн",
      "リネ",
      "리니",
      "lyney",
      "lyney",
      "lyney",
      "lyney",
      "lyney"
    ]
  },
  {
    "id": 224,
    "MDKHDFIHMKA": [
      1
    ],
    "PBCJPMFOJGL": [
      "lynette",
      "琳妮特",
      "琳妮特",
      "lynette",
      "lynette",
      "lynette",
      "lynette",
      "линетт",
      "リネット",
      "리넷",
      "lynette",
      "lynette",
      "lynette",
      "lynette",
      "lynette"
    ]
  },
  {
    "id": 225,
    "MDKHDFIHMKA": [
      1
    ],
    "PBCJPMFOJGL": [
      "iansan",
      "伊安珊",
      "伊安珊",
      "iansan",
      "iansan",
      "iansan",
      "iansan",
      "иансан",
      "イアンサ",
      "얀사",
      "iansan",
      "iansan",
      "iansan",
      "iansan",
      "iansan"
    ]
  },
  {
    "id": 226,
    "MDKHDFIHMKA": [
      1
    ],
    "PBCJPMFOJGL": [
      "rexlapis",
      "帝君",
      "帝君",
      "souveraindelaroche",
      "rexlapis",
      "rexlapis",
      "rexlapis",
      "властелинкамня",
      "帝君",
      "제군",
      "rexlapis",
      "rexlapis",
      "rexlapis",
      "rexlapis",
      "rexlapis"
    ]
  },
  {
    "id": 227,
    "MDKHDFIHMKA": [
      1
    ],
    "PBCJPMFOJGL": [
      "rexlapis",
      "岩王帝君",
      "岩王帝君",
      "souverainderoche",
      "rexlapis",
      "rexlapis",
      "rexlapis",
      "властелинкамня",
      "岩王帝君",
      "암왕제군",
      "ราชาแห่งหิน",
      "nhamvươngđếquân",
      "rexlapis",
      "rexlapis",
      "rexlapis"
    ]
  },
  {
    "id": 228,
    "MDKHDFIHMKA": [
      1
    ],
    "PBCJPMFOJGL": [
      "lordofgeo",
      "岩王爷",
      "岩王爺",
      "souverainroche",
      "herrscherüberdiefelsen",
      "rexlapis",
      "arcontegeo",
      "властелинкамня",
      "岩王帝君",
      "바위신",
      "ลอร์ดแห่งหิน",
      "nhamvươnggia",
      "lordofgeo",
      "toprağınefendisi",
      "signoredigeo"
    ]
  },
  {
    "id": 229,
    "MDKHDFIHMKA": [
      1
    ],
    "PBCJPMFOJGL": [
      "morax",
      "摩拉克斯",
      "摩拉克斯",
      "morax",
      "morax",
      "morax",
      "morax",
      "моракс",
      "モラクス",
      "모락스",
      "morax",
      "morax",
      "morax",
      "morax",
      "morax"
    ]
  },
  {
    "id": 230,
    "MDKHDFIHMKA": [
      1
    ],
    "PBCJPMFOJGL": [
      "godofcontracts",
      "契约之神",
      "契約之神",
      "dieudescontrats",
      "gottderverträge",
      "patronodeloscontratos",
      "deusdoscontratos",
      "богконтрактов",
      "契約の神",
      "계약의신",
      "เทพแห่งพันธสัญญา",
      "thầnkhếước",
      "dewakontrak",
      "sözleşmetanrısı",
      "diodeicontratti"
    ]
  },
  {
    "id": 231,
    "MDKHDFIHMKA": [
      1
    ],
    "PBCJPMFOJGL": [
      "dain",
      "戴因",
      "戴因",
      "dain",
      "dain",
      "dain",
      "dain",
      "дайн",
      "ダイン",
      "데인",
      "dain",
      "dain",
      "dain",
      "dain",
      "dain"
    ]
  },
  {
    "id": 232,
    "MDKHDFIHMKA": [
      1
    ],
    "PBCJPMFOJGL": [
      "dainsleif",
      "戴因斯雷布",
      "戴因斯雷布",
      "dainsleif",
      "dainsleif",
      "dainsleif",
      "dainsleif",
      "дайнслейф",
      "ダインスレイヴ",
      "데인슬레이프",
      "dainsleif",
      "dainsleif",
      "dainsleif",
      "dainsleif",
      "dainsleif"
    ]
  },
  {
    "id": 233,
    "MDKHDFIHMKA": [
      1
    ],
    "PBCJPMFOJGL": [
      "kirara",
      "绮良良",
      "綺良良",
      "kirara",
      "kirara",
      "kirara",
      "kirara",
      "кирара",
      "綺良々",
      "키라라",
      "kirara",
      "kirara",
      "kirara",
      "kirara",
      "kirara"
    ]
  },
  {
    "id": 234,
    "MDKHDFIHMKA": [
      1
    ],
    "PBCJPMFOJGL": [
      "traveler",
      "旅行者",
      "旅行者",
      "voyageur",
      "reisender",
      "viajero",
      "viajante",
      "путешественник",
      "旅人",
      "여행자",
      "นักเดินทาง",
      "nhàlữhành",
      "pengembara",
      "gezgin",
      "viaggiatore"
    ]
  },
  {
    "id": 235,
    "MDKHDFIHMKA": [
      1
    ],
    "PBCJPMFOJGL": [
      "traveler",
      "旅行者",
      "旅行者",
      "voyageuse",
      "reisende",
      "viajera",
      "viajante",
      "путешественница",
      "旅人",
      "여행자",
      "นักเดินทาง",
      "nhàlữhành",
      "pengembara",
      "gezgin",
      "viaggiatrice"
    ]
  },
  {
    "id": 236,
    "MDKHDFIHMKA": [
      1
    ],
    "PBCJPMFOJGL": [
      "\"jester\"",
      "「丑角」",
      "「丑角」",
      "«lefou»",
      "„narr“",
      "“bufón”",
      "\"bobodacorte\"",
      "«шут»",
      "「道化」",
      "「어릿광대」",
      "\"jester\"",
      "jester",
      "\"jester\"",
      "\"soytarı\"",
      "\"giullare\""
    ]
  },
  {
    "id": 237,
    "MDKHDFIHMKA": [
      1
    ],
    "PBCJPMFOJGL": [
      "\"captain\"",
      "「队长」",
      "「隊長」",
      "«capitaine»",
      "„truppenführer“",
      "“capitán”",
      "\"capitão\"",
      "«капитан»",
      "「隊長」",
      "「대장」",
      "\"captain\"",
      "captain",
      "\"captain\"",
      "\"kaptan\"",
      "\"condottiero\""
    ]
  },
  {
    "id": 238,
    "MDKHDFIHMKA": [
      1
    ],
    "PBCJPMFOJGL": [
      "\"doctor\"",
      "「博士」",
      "「博士」",
      "«ledocteur»",
      "„doktor“",
      "“doctor”",
      "\"doutor\"",
      "«доктор»",
      "「博士」",
      "「박사」",
      "\"doctor\"",
      "doctor",
      "\"doctor\"",
      "\"doktor\"",
      "\"luminare\""
    ]
  },
  {
    "id": 239,
    "MDKHDFIHMKA": [
      1
    ],
    "PBCJPMFOJGL": [
      "\"damselette\"",
      "「少女」",
      "「少女」",
      "«jouvencelle»",
      "„jungfrau“",
      "“damisela”",
      "\"donzela\"",
      "«субретка»",
      "「少女」",
      "「소녀」",
      "\"damselette\"",
      "damselette",
      "\"damselette\"",
      "\"küçükhanım\"",
      "\"damigella\""
    ]
  },
  {
    "id": 240,
    "MDKHDFIHMKA": [
      1
    ],
    "PBCJPMFOJGL": [
      "\"knave\"",
      "「仆人」",
      "「僕人」",
      "«valet»",
      "„bedienstete“",
      "“sota”",
      "\"serva\"",
      "«слуга»",
      "「召使」",
      "「하인」",
      "\"knave\"",
      "knave",
      "\"knave\"",
      "\"üçkağıtçı\"",
      "\"üçkağıtçı\""
    ]
  },
  {
    "id": 241,
    "MDKHDFIHMKA": [
      1
    ],
    "PBCJPMFOJGL": [
      "\"rooster\"",
      "「公鸡」",
      "「公雞」",
      "«coq»",
      "„hahn“",
      "“gallo”",
      "\"galo\"",
      "«цыплёнок»",
      "「雄鶏」",
      "「수탉」",
      "\"rooster\"",
      "rooster",
      "\"rooster\"",
      "\"horoz\"",
      "\"gallo\""
    ]
  },
  {
    "id": 242,
    "MDKHDFIHMKA": [
      1
    ],
    "PBCJPMFOJGL": [
      "\"marionette\"",
      "「木偶」",
      "「木偶」",
      "«pantin»",
      "„marionette“",
      "“títere”",
      "\"marionete\"",
      "«марионетка»",
      "「傀儡」",
      "「꼭두각시」",
      "\"marionette\"",
      "marionette",
      "\"marionette\"",
      "\"kukla\"",
      "\"marionetta\""
    ]
  },
  {
    "id": 243,
    "MDKHDFIHMKA": [
      1
    ],
    "PBCJPMFOJGL": [
      "\"fairlady\"",
      "「女士」",
      "「女士」",
      "«lademoiselle»",
      "„dame“",
      "“dama”",
      "\"dama\"",
      "«дама»",
      "「淑女」",
      "「숙녀」",
      "\"fairlady\"",
      "fairlady",
      "\"fairlady\"",
      "\"güzelhanımefendi\"",
      "\"gentildonna\""
    ]
  },
  {
    "id": 244,
    "MDKHDFIHMKA": [
      1
    ],
    "PBCJPMFOJGL": [
      "\"regrator\"",
      "「富人」",
      "「富人」",
      "«fortuné»",
      "„geschäftsmann“",
      "“regatero”",
      "\"magnata\"",
      "«делец»",
      "「富者」",
      "「거상」",
      "\"regrator\"",
      "regrator",
      "\"regrator\"",
      "\"madrabaz\"",
      "\"affarista\""
    ]
  },
  {
    "id": 245,
    "MDKHDFIHMKA": [
      1
    ],
    "PBCJPMFOJGL": [
      "\"childe\"",
      "「公子」",
      "「公子」",
      "«jeunesire»",
      "„graf“",
      "“nobile”",
      "\"childe\"",
      "«чайльд»",
      "「公子」",
      "「귀공자」",
      "\"childe\"",
      "childe",
      "\"childe\"",
      "\"asilzade\"",
      "\"principe\""
    ]
  },
  {
    "id": 246,
    "MDKHDFIHMKA": [
      1
    ],
    "PBCJPMFOJGL": [
      "\"balladeer\"",
      "「散兵」",
      "「散兵」",
      "«vagabond»",
      "„bänkelsänger“",
      "“baladista”",
      "\"baladeiro\"",
      "«сказитель»",
      "「散兵」",
      "「산병」",
      "\"balladeer\"",
      "balladeer",
      "\"balladeer\"",
      "\"kasideci\"",
      "\"menestrello\""
    ]
  }
]