[
  {
    "sceneId": 3,
    "cityId": 1,
    "level": 1,
    "consumeItem": {},
    "rewardID": 210311,
    "actionVec": [
      {
        "param1Vec": [],
        "param2Vec": []
      },
      {
        "param1Vec": [],
        "param2Vec": []
      },
      {
        "param1Vec": [],
        "param2Vec": []
      },
      {
        "param1Vec": [],
        "param2Vec": []
      },
      {
        "param1Vec": [],
        "param2Vec": []
      }
    ]
  },
  {
    "sceneId": 3,
    "cityId": 1,
    "level": 2,
    "consumeItem": {
      "itemId": 107001,
      "itemNum": 1
    },
    "rewardID": 210312,
    "actionVec": [
      {
        "type": "WORLD_AREA_ACTION_IMPROVE_STAMINA",
        "param1Vec": [
          7
        ],
        "param2Vec": []
      },
      {
        "type": "WORLD_AREA_ACTION_UNLOCK_FORCE",
        "param1Vec": [
          1
        ],
        "param2Vec": []
      },
      {
        "type": "WORLD_AREA_ACTION_ACTIVATE_ITEM",
        "param1Vec": [
          70220012
        ],
        "param2Vec": [
          70220011
        ]
      },
      {
        "param1Vec": [],
        "param2Vec": []
      },
      {
        "param1Vec": [],
        "param2Vec": []
      }
    ]
  },
  {
    "sceneId": 3,
    "cityId": 1,
    "level": 3,
    "consumeItem": {
      "itemId": 107001,
      "itemNum": 2
    },
    "rewardID": 210313,
    "actionVec": [
      {
        "type": "WORLD_AREA_ACTION_IMPROVE_STAMINA",
        "param1Vec": [
          7
        ],
        "param2Vec": []
      },
      {
        "param1Vec": [],
        "param2Vec": []
      },
      {
        "param1Vec": [],
        "param2Vec": []
      },
      {
        "param1Vec": [],
        "param2Vec": []
      },
      {
        "param1Vec": [],
        "param2Vec": []
      }
    ]
  },
  {
    "sceneId": 3,
    "cityId": 1,
    "level": 4,
    "consumeItem": {
      "itemId": 107001,
      "itemNum": 4
    },
    "rewardID": 210314,
    "actionVec": [
      {
        "type": "WORLD_AREA_ACTION_IMPROVE_STAMINA",
        "param1Vec": [
          8
        ],
        "param2Vec": []
      },
      {
        "param1Vec": [],
        "param2Vec": []
      },
      {
        "param1Vec": [],
        "param2Vec": []
      },
      {
        "param1Vec": [],
        "param2Vec": []
      },
      {
        "param1Vec": [],
        "param2Vec": []
      }
    ]
  },
  {
    "sceneId": 3,
    "cityId": 1,
    "level": 5,
    "consumeItem": {
      "itemId": 107001,
      "itemNum": 6
    },
    "rewardID": 210315,
    "actionVec": [
      {
        "type": "WORLD_AREA_ACTION_IMPROVE_STAMINA",
        "param1Vec": [
          8
        ],
        "param2Vec": []
      },
      {
        "param1Vec": [],
        "param2Vec": []
      },
      {
        "param1Vec": [],
        "param2Vec": []
      },
      {
        "param1Vec": [],
        "param2Vec": []
      },
      {
        "param1Vec": [],
        "param2Vec": []
      }
    ]
  },
  {
    "sceneId": 3,
    "cityId": 1,
    "level": 6,
    "consumeItem": {
      "itemId": 107001,
      "itemNum": 7
    },
    "rewardID": 210316,
    "actionVec": [
      {
        "type": "WORLD_AREA_ACTION_IMPROVE_STAMINA",
        "param1Vec": [
          8
        ],
        "param2Vec": []
      },
      {
        "param1Vec": [],
        "param2Vec": []
      },
      {
        "param1Vec": [],
        "param2Vec": []
      },
      {
        "param1Vec": [],
        "param2Vec": []
      },
      {
        "param1Vec": [],
        "param2Vec": []
      }
    ]
  },
  {
    "sceneId": 3,
    "cityId": 1,
    "level": 7,
    "consumeItem": {
      "itemId": 107001,
      "itemNum": 8
    },
    "rewardID": 210317,
    "actionVec": [
      {
        "type": "WORLD_AREA_ACTION_IMPROVE_STAMINA",
        "param1Vec": [
          8
        ],
        "param2Vec": []
      },
      {
        "param1Vec": [],
        "param2Vec": []
      },
      {
        "param1Vec": [],
        "param2Vec": []
      },
      {
        "param1Vec": [],
        "param2Vec": []
      },
      {
        "param1Vec": [],
        "param2Vec": []
      }
    ]
  },
  {
    "sceneId": 3,
    "cityId": 1,
    "level": 8,
    "consumeItem": {
      "itemId": 107001,
      "itemNum": 10
    },
    "rewardID": 210318,
    "actionVec": [
      {
        "type": "WORLD_AREA_ACTION_IMPROVE_STAMINA",
        "param1Vec": [
          8
        ],
        "param2Vec": []
      },
      {
        "param1Vec": [],
        "param2Vec": []
      },
      {
        "param1Vec": [],
        "param2Vec": []
      },
      {
        "param1Vec": [],
        "param2Vec": []
      },
      {
        "param1Vec": [],
        "param2Vec": []
      }
    ]
  },
  {
    "sceneId": 3,
    "cityId": 1,
    "level": 9,
    "consumeItem": {
      "itemId": 107001,
      "itemNum": 12
    },
    "rewardID": 210319,
    "actionVec": [
      {
        "type": "WORLD_AREA_ACTION_IMPROVE_STAMINA",
        "param1Vec": [
          8
        ],
        "param2Vec": []
      },
      {
        "param1Vec": [],
        "param2Vec": []
      },
      {
        "param1Vec": [],
        "param2Vec": []
      },
      {
        "param1Vec": [],
        "param2Vec": []
      },
      {
        "param1Vec": [],
        "param2Vec": []
      }
    ]
  },
  {
    "sceneId": 3,
    "cityId": 1,
    "level": 10,
    "consumeItem": {
      "itemId": 107001,
      "itemNum": 15
    },
    "rewardID": 210320,
    "actionVec": [
      {
        "type": "WORLD_AREA_ACTION_IMPROVE_STAMINA",
        "param1Vec": [
          8
        ],
        "param2Vec": []
      },
      {
        "param1Vec": [],
        "param2Vec": []
      },
      {
        "param1Vec": [],
        "param2Vec": []
      },
      {
        "param1Vec": [],
        "param2Vec": []
      },
      {
        "param1Vec": [],
        "param2Vec": []
      }
    ]
  },
  {
    "sceneId": 3,
    "cityId": 2,
    "level": 1,
    "consumeItem": {},
    "rewardID": 210321,
    "actionVec": [
      {
        "param1Vec": [],
        "param2Vec": []
      },
      {
        "param1Vec": [],
        "param2Vec": []
      },
      {
        "param1Vec": [],
        "param2Vec": []
      },
      {
        "param1Vec": [],
        "param2Vec": []
      },
      {
        "param1Vec": [],
        "param2Vec": []
      }
    ]
  },
  {
    "sceneId": 3,
    "cityId": 2,
    "level": 2,
    "consumeItem": {
      "itemId": 107003,
      "itemNum": 2
    },
    "rewardID": 210322,
    "actionVec": [
      {
        "type": "WORLD_AREA_ACTION_IMPROVE_STAMINA",
        "param1Vec": [
          7
        ],
        "param2Vec": []
      },
      {
        "param1Vec": [],
        "param2Vec": []
      },
      {
        "param1Vec": [],
        "param2Vec": []
      },
      {
        "param1Vec": [],
        "param2Vec": []
      },
      {
        "param1Vec": [],
        "param2Vec": []
      }
    ]
  },
  {
    "sceneId": 3,
    "cityId": 2,
    "level": 3,
    "consumeItem": {
      "itemId": 107003,
      "itemNum": 4
    },
    "rewardID": 210323,
    "actionVec": [
      {
        "type": "WORLD_AREA_ACTION_IMPROVE_STAMINA",
        "param1Vec": [
          7
        ],
        "param2Vec": []
      },
      {
        "param1Vec": [],
        "param2Vec": []
      },
      {
        "param1Vec": [],
        "param2Vec": []
      },
      {
        "param1Vec": [],
        "param2Vec": []
      },
      {
        "param1Vec": [],
        "param2Vec": []
      }
    ]
  },
  {
    "sceneId": 3,
    "cityId": 2,
    "level": 4,
    "consumeItem": {
      "itemId": 107003,
      "itemNum": 8
    },
    "rewardID": 210324,
    "actionVec": [
      {
        "type": "WORLD_AREA_ACTION_IMPROVE_STAMINA",
        "param1Vec": [
          8
        ],
        "param2Vec": []
      },
      {
        "param1Vec": [],
        "param2Vec": []
      },
      {
        "param1Vec": [],
        "param2Vec": []
      },
      {
        "param1Vec": [],
        "param2Vec": []
      },
      {
        "param1Vec": [],
        "param2Vec": []
      }
    ]
  },
  {
    "sceneId": 3,
    "cityId": 2,
    "level": 5,
    "consumeItem": {
      "itemId": 107003,
      "itemNum": 12
    },
    "rewardID": 210325,
    "actionVec": [
      {
        "type": "WORLD_AREA_ACTION_IMPROVE_STAMINA",
        "param1Vec": [
          8
        ],
        "param2Vec": []
      },
      {
        "param1Vec": [],
        "param2Vec": []
      },
      {
        "param1Vec": [],
        "param2Vec": []
      },
      {
        "param1Vec": [],
        "param2Vec": []
      },
      {
        "param1Vec": [],
        "param2Vec": []
      }
    ]
  },
  {
    "sceneId": 3,
    "cityId": 2,
    "level": 6,
    "consumeItem": {
      "itemId": 107003,
      "itemNum": 14
    },
    "rewardID": 210326,
    "actionVec": [
      {
        "type": "WORLD_AREA_ACTION_IMPROVE_STAMINA",
        "param1Vec": [
          8
        ],
        "param2Vec": []
      },
      {
        "param1Vec": [],
        "param2Vec": []
      },
      {
        "param1Vec": [],
        "param2Vec": []
      },
      {
        "param1Vec": [],
        "param2Vec": []
      },
      {
        "param1Vec": [],
        "param2Vec": []
      }
    ]
  },
  {
    "sceneId": 3,
    "cityId": 2,
    "level": 7,
    "consumeItem": {
      "itemId": 107003,
      "itemNum": 16
    },
    "rewardID": 210327,
    "actionVec": [
      {
        "type": "WORLD_AREA_ACTION_IMPROVE_STAMINA",
        "param1Vec": [
          8
        ],
        "param2Vec": []
      },
      {
        "param1Vec": [],
        "param2Vec": []
      },
      {
        "param1Vec": [],
        "param2Vec": []
      },
      {
        "param1Vec": [],
        "param2Vec": []
      },
      {
        "param1Vec": [],
        "param2Vec": []
      }
    ]
  },
  {
    "sceneId": 3,
    "cityId": 2,
    "level": 8,
    "consumeItem": {
      "itemId": 107003,
      "itemNum": 20
    },
    "rewardID": 210328,
    "actionVec": [
      {
        "type": "WORLD_AREA_ACTION_IMPROVE_STAMINA",
        "param1Vec": [
          8
        ],
        "param2Vec": []
      },
      {
        "param1Vec": [],
        "param2Vec": []
      },
      {
        "param1Vec": [],
        "param2Vec": []
      },
      {
        "param1Vec": [],
        "param2Vec": []
      },
      {
        "param1Vec": [],
        "param2Vec": []
      }
    ]
  },
  {
    "sceneId": 3,
    "cityId": 2,
    "level": 9,
    "consumeItem": {
      "itemId": 107003,
      "itemNum": 24
    },
    "rewardID": 210329,
    "actionVec": [
      {
        "type": "WORLD_AREA_ACTION_IMPROVE_STAMINA",
        "param1Vec": [
          8
        ],
        "param2Vec": []
      },
      {
        "param1Vec": [],
        "param2Vec": []
      },
      {
        "param1Vec": [],
        "param2Vec": []
      },
      {
        "param1Vec": [],
        "param2Vec": []
      },
      {
        "param1Vec": [],
        "param2Vec": []
      }
    ]
  },
  {
    "sceneId": 3,
    "cityId": 2,
    "level": 10,
    "consumeItem": {
      "itemId": 107003,
      "itemNum": 30
    },
    "rewardID": 210330,
    "actionVec": [
      {
        "type": "WORLD_AREA_ACTION_IMPROVE_STAMINA",
        "param1Vec": [
          8
        ],
        "param2Vec": []
      },
      {
        "param1Vec": [],
        "param2Vec": []
      },
      {
        "param1Vec": [],
        "param2Vec": []
      },
      {
        "param1Vec": [],
        "param2Vec": []
      },
      {
        "param1Vec": [],
        "param2Vec": []
      }
    ]
  },
  {
    "sceneId": 3,
    "cityId": 3,
    "level": 1,
    "consumeItem": {},
    "actionVec": [
      {
        "param1Vec": [],
        "param2Vec": []
      },
      {
        "param1Vec": [],
        "param2Vec": []
      },
      {
        "param1Vec": [],
        "param2Vec": []
      },
      {
        "param1Vec": [],
        "param2Vec": []
      },
      {
        "param1Vec": [],
        "param2Vec": []
      }
    ]
  },
  {
    "sceneId": 3,
    "cityId": 3,
    "level": 2,
    "consumeItem": {
      "itemId": 107014,
      "itemNum": 10
    },
    "rewardID": 210332,
    "actionVec": [
      {
        "param1Vec": [],
        "param2Vec": []
      },
      {
        "param1Vec": [],
        "param2Vec": []
      },
      {
        "param1Vec": [],
        "param2Vec": []
      },
      {
        "param1Vec": [],
        "param2Vec": []
      },
      {
        "param1Vec": [],
        "param2Vec": []
      }
    ]
  },
  {
    "sceneId": 3,
    "cityId": 3,
    "level": 3,
    "consumeItem": {
      "itemId": 107014,
      "itemNum": 12
    },
    "rewardID": 210333,
    "actionVec": [
      {
        "param1Vec": [],
        "param2Vec": []
      },
      {
        "param1Vec": [],
        "param2Vec": []
      },
      {
        "param1Vec": [],
        "param2Vec": []
      },
      {
        "param1Vec": [],
        "param2Vec": []
      },
      {
        "param1Vec": [],
        "param2Vec": []
      }
    ]
  },
  {
    "sceneId": 3,
    "cityId": 3,
    "level": 4,
    "consumeItem": {
      "itemId": 107014,
      "itemNum": 15
    },
    "rewardID": 210334,
    "actionVec": [
      {
        "param1Vec": [],
        "param2Vec": []
      },
      {
        "param1Vec": [],
        "param2Vec": []
      },
      {
        "param1Vec": [],
        "param2Vec": []
      },
      {
        "param1Vec": [],
        "param2Vec": []
      },
      {
        "param1Vec": [],
        "param2Vec": []
      }
    ]
  },
  {
    "sceneId": 3,
    "cityId": 3,
    "level": 5,
    "consumeItem": {
      "itemId": 107014,
      "itemNum": 18
    },
    "rewardID": 210335,
    "actionVec": [
      {
        "param1Vec": [],
        "param2Vec": []
      },
      {
        "param1Vec": [],
        "param2Vec": []
      },
      {
        "param1Vec": [],
        "param2Vec": []
      },
      {
        "param1Vec": [],
        "param2Vec": []
      },
      {
        "param1Vec": [],
        "param2Vec": []
      }
    ]
  },
  {
    "sceneId": 3,
    "cityId": 3,
    "level": 6,
    "consumeItem": {
      "itemId": 107014,
      "itemNum": 20
    },
    "rewardID": 210336,
    "actionVec": [
      {
        "param1Vec": [],
        "param2Vec": []
      },
      {
        "param1Vec": [],
        "param2Vec": []
      },
      {
        "param1Vec": [],
        "param2Vec": []
      },
      {
        "param1Vec": [],
        "param2Vec": []
      },
      {
        "param1Vec": [],
        "param2Vec": []
      }
    ]
  },
  {
    "sceneId": 3,
    "cityId": 3,
    "level": 7,
    "consumeItem": {
      "itemId": 107014,
      "itemNum": 22
    },
    "rewardID": 210337,
    "actionVec": [
      {
        "param1Vec": [],
        "param2Vec": []
      },
      {
        "param1Vec": [],
        "param2Vec": []
      },
      {
        "param1Vec": [],
        "param2Vec": []
      },
      {
        "param1Vec": [],
        "param2Vec": []
      },
      {
        "param1Vec": [],
        "param2Vec": []
      }
    ]
  },
  {
    "sceneId": 3,
    "cityId": 3,
    "level": 8,
    "consumeItem": {
      "itemId": 107014,
      "itemNum": 25
    },
    "rewardID": 210338,
    "actionVec": [
      {
        "param1Vec": [],
        "param2Vec": []
      },
      {
        "param1Vec": [],
        "param2Vec": []
      },
      {
        "param1Vec": [],
        "param2Vec": []
      },
      {
        "param1Vec": [],
        "param2Vec": []
      },
      {
        "param1Vec": [],
        "param2Vec": []
      }
    ]
  },
  {
    "sceneId": 3,
    "cityId": 3,
    "level": 9,
    "consumeItem": {
      "itemId": 107014,
      "itemNum": 28
    },
    "rewardID": 210339,
    "actionVec": [
      {
        "param1Vec": [],
        "param2Vec": []
      },
      {
        "param1Vec": [],
        "param2Vec": []
      },
      {
        "param1Vec": [],
        "param2Vec": []
      },
      {
        "param1Vec": [],
        "param2Vec": []
      },
      {
        "param1Vec": [],
        "param2Vec": []
      }
    ]
  },
  {
    "sceneId": 3,
    "cityId": 3,
    "level": 10,
    "consumeItem": {
      "itemId": 107014,
      "itemNum": 30
    },
    "rewardID": 210340,
    "actionVec": [
      {
        "param1Vec": [],
        "param2Vec": []
      },
      {
        "param1Vec": [],
        "param2Vec": []
      },
      {
        "param1Vec": [],
        "param2Vec": []
      },
      {
        "param1Vec": [],
        "param2Vec": []
      },
      {
        "param1Vec": [],
        "param2Vec": []
      }
    ]
  },
  {
    "sceneId": 3,
    "cityId": 4,
    "level": 1,
    "consumeItem": {},
    "actionVec": [
      {
        "param1Vec": [],
        "param2Vec": []
      },
      {
        "param1Vec": [],
        "param2Vec": []
      },
      {
        "param1Vec": [],
        "param2Vec": []
      },
      {
        "param1Vec": [],
        "param2Vec": []
      },
      {
        "param1Vec": [],
        "param2Vec": []
      }
    ]
  },
  {
    "sceneId": 3,
    "cityId": 4,
    "level": 2,
    "consumeItem": {
      "itemId": 107017,
      "itemNum": 20
    },
    "rewardID": 210342,
    "actionVec": [
      {
        "param1Vec": [],
        "param2Vec": []
      },
      {
        "param1Vec": [],
        "param2Vec": []
      },
      {
        "param1Vec": [],
        "param2Vec": []
      },
      {
        "param1Vec": [],
        "param2Vec": []
      },
      {
        "param1Vec": [],
        "param2Vec": []
      }
    ]
  },
  {
    "sceneId": 3,
    "cityId": 4,
    "level": 3,
    "consumeItem": {
      "itemId": 107017,
      "itemNum": 22
    },
    "rewardID": 210343,
    "actionVec": [
      {
        "param1Vec": [],
        "param2Vec": []
      },
      {
        "param1Vec": [],
        "param2Vec": []
      },
      {
        "param1Vec": [],
        "param2Vec": []
      },
      {
        "param1Vec": [],
        "param2Vec": []
      },
      {
        "param1Vec": [],
        "param2Vec": []
      }
    ]
  },
  {
    "sceneId": 3,
    "cityId": 4,
    "level": 4,
    "consumeItem": {
      "itemId": 107017,
      "itemNum": 25
    },
    "rewardID": 210344,
    "actionVec": [
      {
        "param1Vec": [],
        "param2Vec": []
      },
      {
        "param1Vec": [],
        "param2Vec": []
      },
      {
        "param1Vec": [],
        "param2Vec": []
      },
      {
        "param1Vec": [],
        "param2Vec": []
      },
      {
        "param1Vec": [],
        "param2Vec": []
      }
    ]
  },
  {
    "sceneId": 3,
    "cityId": 4,
    "level": 5,
    "consumeItem": {
      "itemId": 107017,
      "itemNum": 28
    },
    "rewardID": 210345,
    "actionVec": [
      {
        "param1Vec": [],
        "param2Vec": []
      },
      {
        "param1Vec": [],
        "param2Vec": []
      },
      {
        "param1Vec": [],
        "param2Vec": []
      },
      {
        "param1Vec": [],
        "param2Vec": []
      },
      {
        "param1Vec": [],
        "param2Vec": []
      }
    ]
  },
  {
    "sceneId": 3,
    "cityId": 4,
    "level": 6,
    "consumeItem": {
      "itemId": 107017,
      "itemNum": 30
    },
    "rewardID": 210346,
    "actionVec": [
      {
        "param1Vec": [],
        "param2Vec": []
      },
      {
        "param1Vec": [],
        "param2Vec": []
      },
      {
        "param1Vec": [],
        "param2Vec": []
      },
      {
        "param1Vec": [],
        "param2Vec": []
      },
      {
        "param1Vec": [],
        "param2Vec": []
      }
    ]
  },
  {
    "sceneId": 3,
    "cityId": 4,
    "level": 7,
    "consumeItem": {
      "itemId": 107017,
      "itemNum": 32
    },
    "rewardID": 210347,
    "actionVec": [
      {
        "param1Vec": [],
        "param2Vec": []
      },
      {
        "param1Vec": [],
        "param2Vec": []
      },
      {
        "param1Vec": [],
        "param2Vec": []
      },
      {
        "param1Vec": [],
        "param2Vec": []
      },
      {
        "param1Vec": [],
        "param2Vec": []
      }
    ]
  },
  {
    "sceneId": 3,
    "cityId": 4,
    "level": 8,
    "consumeItem": {
      "itemId": 107017,
      "itemNum": 35
    },
    "rewardID": 210348,
    "actionVec": [
      {
        "param1Vec": [],
        "param2Vec": []
      },
      {
        "param1Vec": [],
        "param2Vec": []
      },
      {
        "param1Vec": [],
        "param2Vec": []
      },
      {
        "param1Vec": [],
        "param2Vec": []
      },
      {
        "param1Vec": [],
        "param2Vec": []
      }
    ]
  },
  {
    "sceneId": 3,
    "cityId": 4,
    "level": 9,
    "consumeItem": {
      "itemId": 107017,
      "itemNum": 38
    },
    "rewardID": 210349,
    "actionVec": [
      {
        "param1Vec": [],
        "param2Vec": []
      },
      {
        "param1Vec": [],
        "param2Vec": []
      },
      {
        "param1Vec": [],
        "param2Vec": []
      },
      {
        "param1Vec": [],
        "param2Vec": []
      },
      {
        "param1Vec": [],
        "param2Vec": []
      }
    ]
  },
  {
    "sceneId": 3,
    "cityId": 4,
    "level": 10,
    "consumeItem": {
      "itemId": 107017,
      "itemNum": 40
    },
    "rewardID": 210350,
    "actionVec": [
      {
        "param1Vec": [],
        "param2Vec": []
      },
      {
        "param1Vec": [],
        "param2Vec": []
      },
      {
        "param1Vec": [],
        "param2Vec": []
      },
      {
        "param1Vec": [],
        "param2Vec": []
      },
      {
        "param1Vec": [],
        "param2Vec": []
      }
    ]
  },
  {
    "sceneId": 3,
    "cityId": 5,
    "level": 1,
    "consumeItem": {},
    "actionVec": [
      {
        "param1Vec": [],
        "param2Vec": []
      },
      {
        "param1Vec": [],
        "param2Vec": []
      },
      {
        "param1Vec": [],
        "param2Vec": []
      },
      {
        "param1Vec": [],
        "param2Vec": []
      },
      {
        "param1Vec": [],
        "param2Vec": []
      }
    ]
  },
  {
    "sceneId": 3,
    "cityId": 5,
    "level": 2,
    "consumeItem": {
      "itemId": 107023,
      "itemNum": 20
    },
    "rewardID": 210352,
    "actionVec": [
      {
        "param1Vec": [],
        "param2Vec": []
      },
      {
        "param1Vec": [],
        "param2Vec": []
      },
      {
        "param1Vec": [],
        "param2Vec": []
      },
      {
        "param1Vec": [],
        "param2Vec": []
      },
      {
        "param1Vec": [],
        "param2Vec": []
      }
    ]
  },
  {
    "sceneId": 3,
    "cityId": 5,
    "level": 3,
    "consumeItem": {
      "itemId": 107023,
      "itemNum": 22
    },
    "rewardID": 210353,
    "actionVec": [
      {
        "param1Vec": [],
        "param2Vec": []
      },
      {
        "param1Vec": [],
        "param2Vec": []
      },
      {
        "param1Vec": [],
        "param2Vec": []
      },
      {
        "param1Vec": [],
        "param2Vec": []
      },
      {
        "param1Vec": [],
        "param2Vec": []
      }
    ]
  },
  {
    "sceneId": 3,
    "cityId": 5,
    "level": 4,
    "consumeItem": {
      "itemId": 107023,
      "itemNum": 25
    },
    "rewardID": 210354,
    "actionVec": [
      {
        "param1Vec": [],
        "param2Vec": []
      },
      {
        "param1Vec": [],
        "param2Vec": []
      },
      {
        "param1Vec": [],
        "param2Vec": []
      },
      {
        "param1Vec": [],
        "param2Vec": []
      },
      {
        "param1Vec": [],
        "param2Vec": []
      }
    ]
  },
  {
    "sceneId": 3,
    "cityId": 5,
    "level": 5,
    "consumeItem": {
      "itemId": 107023,
      "itemNum": 28
    },
    "rewardID": 210355,
    "actionVec": [
      {
        "param1Vec": [],
        "param2Vec": []
      },
      {
        "param1Vec": [],
        "param2Vec": []
      },
      {
        "param1Vec": [],
        "param2Vec": []
      },
      {
        "param1Vec": [],
        "param2Vec": []
      },
      {
        "param1Vec": [],
        "param2Vec": []
      }
    ]
  },
  {
    "sceneId": 3,
    "cityId": 5,
    "level": 6,
    "consumeItem": {
      "itemId": 107023,
      "itemNum": 30
    },
    "rewardID": 210356,
    "actionVec": [
      {
        "param1Vec": [],
        "param2Vec": []
      },
      {
        "param1Vec": [],
        "param2Vec": []
      },
      {
        "param1Vec": [],
        "param2Vec": []
      },
      {
        "param1Vec": [],
        "param2Vec": []
      },
      {
        "param1Vec": [],
        "param2Vec": []
      }
    ]
  },
  {
    "sceneId": 3,
    "cityId": 5,
    "level": 7,
    "consumeItem": {
      "itemId": 107023,
      "itemNum": 32
    },
    "rewardID": 210357,
    "actionVec": [
      {
        "param1Vec": [],
        "param2Vec": []
      },
      {
        "param1Vec": [],
        "param2Vec": []
      },
      {
        "param1Vec": [],
        "param2Vec": []
      },
      {
        "param1Vec": [],
        "param2Vec": []
      },
      {
        "param1Vec": [],
        "param2Vec": []
      }
    ]
  },
  {
    "sceneId": 3,
    "cityId": 5,
    "level": 8,
    "consumeItem": {
      "itemId": 107023,
      "itemNum": 35
    },
    "rewardID": 210358,
    "actionVec": [
      {
        "param1Vec": [],
        "param2Vec": []
      },
      {
        "param1Vec": [],
        "param2Vec": []
      },
      {
        "param1Vec": [],
        "param2Vec": []
      },
      {
        "param1Vec": [],
        "param2Vec": []
      },
      {
        "param1Vec": [],
        "param2Vec": []
      }
    ]
  },
  {
    "sceneId": 3,
    "cityId": 5,
    "level": 9,
    "consumeItem": {
      "itemId": 107023,
      "itemNum": 38
    },
    "rewardID": 210359,
    "actionVec": [
      {
        "param1Vec": [],
        "param2Vec": []
      },
      {
        "param1Vec": [],
        "param2Vec": []
      },
      {
        "param1Vec": [],
        "param2Vec": []
      },
      {
        "param1Vec": [],
        "param2Vec": []
      },
      {
        "param1Vec": [],
        "param2Vec": []
      }
    ]
  },
  {
    "sceneId": 3,
    "cityId": 5,
    "level": 10,
    "consumeItem": {
      "itemId": 107023,
      "itemNum": 40
    },
    "rewardID": 210360,
    "actionVec": [
      {
        "param1Vec": [],
        "param2Vec": []
      },
      {
        "param1Vec": [],
        "param2Vec": []
      },
      {
        "param1Vec": [],
        "param2Vec": []
      },
      {
        "param1Vec": [],
        "param2Vec": []
      },
      {
        "param1Vec": [],
        "param2Vec": []
      }
    ]
  }
]