[
  {
    "id": 1,
    "dieType": "PLAYER_DIE_ABYSS",
    "abilityName": "",
    "modifierName": "",
    "KFGLCPCGIPP": "",
    "CIEFHJNADLG": "",
    "KCDJMIPCHJH": "PlayerDieAbyss",
    "tips": [
      3839993671,
      3428333390,
      1376849636,
      3110632689
    ]
  },
  {
    "id": 2,
    "dieType": "PLAYER_DIE_FALL",
    "abilityName": "",
    "modifierName": "",
    "KFGLCPCGIPP": "",
    "CIEFHJNADLG": "",
    "KCDJMIPCHJH": "PlayerDieFall",
    "tips": [
      3837316207,
      1336646302,
      977692932,
      2211102201
    ]
  },
  {
    "id": 3,
    "dieType": "PLAYER_DIE_DRAWN",
    "abilityName": "",
    "modifierName": "",
    "KFGLCPCGIPP": "",
    "CIEFHJNADLG": "",
    "KCDJMIPCHJH": "PlayerDieDrawn",
    "tips": [
      393844615,
      1359726582,
      2302475196,
      1732688361
    ]
  },
  {
    "id": 4,
    "dieType": "PLAYER_DIE_KILL_BY_MONSTER",
    "abilityName": "",
    "modifierName": "",
    "KFGLCPCGIPP": "",
    "CIEFHJNADLG": "",
    "monsterID": 1,
    "KCDJMIPCHJH": "PlayerDieKillByMonster",
    "tips": [
      3831936567,
      2476558462,
      258765852,
      3841752913
    ]
  },
  {
    "id": 5,
    "dieType": "PLAYER_DIE_KILL_BY_MONSTER",
    "abilityName": "",
    "modifierName": "",
    "KFGLCPCGIPP": "",
    "CIEFHJNADLG": "",
    "monsterID": 21020101,
    "KCDJMIPCHJH": "PlayerDieKillByMonster",
    "tips": [
      2589967055,
      465629334,
      4096214572,
      851120865
    ]
  },
  {
    "id": 6,
    "dieType": "PLAYER_DIE_KILL_BY_MONSTER",
    "abilityName": "",
    "modifierName": "",
    "KFGLCPCGIPP": "",
    "CIEFHJNADLG": "",
    "monsterID": 21020201,
    "KCDJMIPCHJH": "PlayerDieKillByMonster",
    "tips": [
      3326349615,
      3744466230,
      602328780,
      412538793
    ]
  },
  {
    "id": 7,
    "dieType": "PLAYER_DIE_KILL_BY_MONSTER",
    "abilityName": "",
    "modifierName": "",
    "KFGLCPCGIPP": "",
    "CIEFHJNADLG": "",
    "monsterID": 20020101,
    "KCDJMIPCHJH": "PlayerDieKillByMonster",
    "tips": [
      981888551,
      3064727110,
      2748097812,
      3234656713
    ]
  },
  {
    "id": 8,
    "dieType": "PLAYER_DIE_KILL_BY_MONSTER",
    "abilityName": "",
    "modifierName": "",
    "KFGLCPCGIPP": "",
    "CIEFHJNADLG": "",
    "monsterID": 22010101,
    "KCDJMIPCHJH": "PlayerDieKillByMonster",
    "tips": [
      2958076071,
      3076265494,
      1730160060,
      2805238865
    ]
  },
  {
    "id": 9,
    "dieType": "PLAYER_DIE_KILL_BY_MONSTER",
    "abilityName": "",
    "modifierName": "",
    "KFGLCPCGIPP": "",
    "CIEFHJNADLG": "",
    "monsterID": 22010201,
    "KCDJMIPCHJH": "PlayerDieKillByMonster",
    "tips": [
      3939734079,
      846273878,
      324100340,
      3429877265
    ]
  },
  {
    "id": 10,
    "dieType": "PLAYER_DIE_KILL_BY_MONSTER",
    "abilityName": "",
    "modifierName": "",
    "KFGLCPCGIPP": "",
    "CIEFHJNADLG": "",
    "monsterID": 22010301,
    "KCDJMIPCHJH": "PlayerDieKillByMonster",
    "tips": [
      452913191,
      479600390,
      2417840236,
      857634129
    ]
  },
  {
    "id": 11,
    "dieType": "PLAYER_DIE_KILL_BY_MONSTER",
    "abilityName": "",
    "modifierName": "",
    "KFGLCPCGIPP": "",
    "CIEFHJNADLG": "",
    "monsterID": 20011201,
    "KCDJMIPCHJH": "PlayerDieKillByMonster",
    "tips": [
      1267393463,
      373643766,
      408329188,
      3120696273
    ]
  },
  {
    "id": 12,
    "dieType": "PLAYER_DIE_KILL_BY_MONSTER",
    "abilityName": "",
    "modifierName": "",
    "KFGLCPCGIPP": "",
    "CIEFHJNADLG": "",
    "monsterID": 20011301,
    "KCDJMIPCHJH": "PlayerDieKillByMonster",
    "tips": [
      2175273999,
      515134678,
      288067940,
      3813658713
    ]
  },
  {
    "id": 13,
    "dieType": "PLAYER_DIE_KILL_BY_MONSTER",
    "abilityName": "",
    "modifierName": "",
    "KFGLCPCGIPP": "",
    "CIEFHJNADLG": "",
    "monsterID": 20011401,
    "KCDJMIPCHJH": "PlayerDieKillByMonster",
    "tips": [
      1290430751,
      1479505926,
      2227390532,
      3567090977
    ]
  },
  {
    "id": 14,
    "dieType": "PLAYER_DIE_KILL_BY_MONSTER",
    "abilityName": "",
    "modifierName": "",
    "KFGLCPCGIPP": "",
    "CIEFHJNADLG": "",
    "monsterID": 20011501,
    "KCDJMIPCHJH": "PlayerDieKillByMonster",
    "tips": [
      1445493447,
      258819486,
      1998406900,
      4085623233
    ]
  },
  {
    "id": 15,
    "dieType": "PLAYER_DIE_KILL_BY_MONSTER",
    "abilityName": "",
    "modifierName": "",
    "KFGLCPCGIPP": "",
    "CIEFHJNADLG": "",
    "monsterID": 20010301,
    "KCDJMIPCHJH": "PlayerDieKillByMonster",
    "tips": [
      3122524551,
      3794385262,
      2317783228,
      2560718153
    ]
  },
  {
    "id": 16,
    "dieType": "PLAYER_DIE_KILL_BY_MONSTER",
    "abilityName": "",
    "modifierName": "",
    "KFGLCPCGIPP": "",
    "CIEFHJNADLG": "",
    "monsterID": 20010401,
    "KCDJMIPCHJH": "PlayerDieKillByMonster",
    "tips": [
      3716688703,
      142355806,
      1434299508,
      2142491929
    ]
  },
  {
    "id": 17,
    "dieType": "PLAYER_DIE_KILL_BY_MONSTER",
    "abilityName": "",
    "modifierName": "",
    "KFGLCPCGIPP": "",
    "CIEFHJNADLG": "",
    "monsterID": 20010101,
    "KCDJMIPCHJH": "PlayerDieKillByMonster",
    "tips": [
      2047064879,
      1523571678,
      839313484,
      2982042481
    ]
  },
  {
    "id": 18,
    "dieType": "PLAYER_DIE_KILL_BY_MONSTER",
    "abilityName": "",
    "modifierName": "",
    "KFGLCPCGIPP": "",
    "CIEFHJNADLG": "",
    "monsterID": 20010201,
    "KCDJMIPCHJH": "PlayerDieKillByMonster",
    "tips": [
      2188108919,
      425306974,
      1392883108,
      3776208241
    ]
  },
  {
    "id": 19,
    "dieType": "PLAYER_DIE_KILL_BY_MONSTER",
    "abilityName": "",
    "modifierName": "",
    "KFGLCPCGIPP": "",
    "CIEFHJNADLG": "",
    "monsterID": 20010801,
    "KCDJMIPCHJH": "PlayerDieKillByMonster",
    "tips": [
      3150948207,
      2638268518,
      2781035956,
      2490151209
    ]
  },
  {
    "id": 20,
    "dieType": "PLAYER_DIE_KILL_BY_MONSTER",
    "abilityName": "",
    "modifierName": "",
    "KFGLCPCGIPP": "",
    "CIEFHJNADLG": "",
    "monsterID": 20010901,
    "KCDJMIPCHJH": "PlayerDieKillByMonster",
    "tips": [
      122205591,
      1661914678,
      3178902236,
      3177989977
    ]
  },
  {
    "id": 21,
    "dieType": "PLAYER_DIE_KILL_BY_MONSTER",
    "abilityName": "",
    "modifierName": "",
    "KFGLCPCGIPP": "",
    "CIEFHJNADLG": "",
    "monsterID": 20010501,
    "KCDJMIPCHJH": "PlayerDieKillByMonster",
    "tips": [
      505781079,
      325387526,
      1225602484,
      598432897
    ]
  },
  {
    "id": 22,
    "dieType": "PLAYER_DIE_KILL_BY_MONSTER",
    "abilityName": "",
    "modifierName": "",
    "KFGLCPCGIPP": "",
    "CIEFHJNADLG": "",
    "monsterID": 20010601,
    "KCDJMIPCHJH": "PlayerDieKillByMonster",
    "tips": [
      1849088175,
      2712686886,
      2236206284,
      3617446833
    ]
  },
  {
    "id": 23,
    "dieType": "PLAYER_DIE_KILL_BY_MONSTER",
    "abilityName": "",
    "modifierName": "",
    "KFGLCPCGIPP": "",
    "CIEFHJNADLG": "",
    "monsterID": 20010701,
    "KCDJMIPCHJH": "PlayerDieKillByMonster",
    "tips": [
      2793698823,
      307082510,
      132062276,
      2645550945
    ]
  },
  {
    "id": 24,
    "dieType": "PLAYER_DIE_KILL_BY_MONSTER",
    "abilityName": "",
    "modifierName": "",
    "KFGLCPCGIPP": "",
    "CIEFHJNADLG": "",
    "monsterID": 20011001,
    "KCDJMIPCHJH": "PlayerDieKillByMonster",
    "tips": [
      2490501087,
      4037110070,
      1115679372,
      4196594241
    ]
  },
  {
    "id": 25,
    "dieType": "PLAYER_DIE_KILL_BY_MONSTER",
    "abilityName": "",
    "modifierName": "",
    "KFGLCPCGIPP": "",
    "CIEFHJNADLG": "",
    "monsterID": 20011101,
    "KCDJMIPCHJH": "PlayerDieKillByMonster",
    "tips": [
      171050463,
      3499921902,
      4165169588,
      1309473617
    ]
  },
  {
    "id": 26,
    "dieType": "PLAYER_DIE_KILL_BY_MONSTER",
    "abilityName": "",
    "modifierName": "",
    "KFGLCPCGIPP": "",
    "CIEFHJNADLG": "",
    "monsterID": 21030101,
    "KCDJMIPCHJH": "PlayerDieKillByMonster",
    "tips": [
      2666669631,
      1676134686,
      3356243084,
      2627526345
    ]
  },
  {
    "id": 27,
    "dieType": "PLAYER_DIE_KILL_BY_MONSTER",
    "abilityName": "",
    "modifierName": "",
    "KFGLCPCGIPP": "",
    "CIEFHJNADLG": "",
    "monsterID": 21030201,
    "KCDJMIPCHJH": "PlayerDieKillByMonster",
    "tips": [
      3822737791,
      1071811862,
      970016292,
      4023488801
    ]
  },
  {
    "id": 28,
    "dieType": "PLAYER_DIE_KILL_BY_MONSTER",
    "abilityName": "",
    "modifierName": "",
    "KFGLCPCGIPP": "",
    "CIEFHJNADLG": "",
    "monsterID": 21030301,
    "KCDJMIPCHJH": "PlayerDieKillByMonster",
    "tips": [
      1844717783,
      2069846846,
      1798145428,
      2289276705
    ]
  },
  {
    "id": 29,
    "dieType": "PLAYER_DIE_KILL_BY_MONSTER",
    "abilityName": "",
    "modifierName": "",
    "KFGLCPCGIPP": "",
    "CIEFHJNADLG": "",
    "monsterID": 24010101,
    "KCDJMIPCHJH": "PlayerDieKillByMonster",
    "tips": [
      204408135,
      2731143182,
      3545853372,
      797698993
    ]
  },
  {
    "id": 30,
    "dieType": "PLAYER_DIE_KILL_BY_MONSTER",
    "abilityName": "",
    "modifierName": "",
    "KFGLCPCGIPP": "",
    "CIEFHJNADLG": "",
    "monsterID": 21010101,
    "KCDJMIPCHJH": "PlayerDieKillByMonster",
    "tips": [
      2151581743,
      3935642166,
      3178151956,
      128407937
    ]
  },
  {
    "id": 31,
    "dieType": "PLAYER_DIE_KILL_BY_MONSTER",
    "abilityName": "",
    "modifierName": "",
    "KFGLCPCGIPP": "",
    "CIEFHJNADLG": "",
    "monsterID": 21010201,
    "KCDJMIPCHJH": "PlayerDieKillByMonster",
    "tips": [
      705940679,
      3414114910,
      2766290468,
      3165386497
    ]
  },
  {
    "id": 32,
    "dieType": "PLAYER_DIE_KILL_BY_MONSTER",
    "abilityName": "",
    "modifierName": "",
    "KFGLCPCGIPP": "",
    "CIEFHJNADLG": "",
    "monsterID": 21010301,
    "KCDJMIPCHJH": "PlayerDieKillByMonster",
    "tips": [
      1089835183,
      3268893134,
      3617987260,
      936215553
    ]
  },
  {
    "id": 33,
    "dieType": "PLAYER_DIE_KILL_BY_MONSTER",
    "abilityName": "",
    "modifierName": "",
    "KFGLCPCGIPP": "",
    "CIEFHJNADLG": "",
    "monsterID": 21010401,
    "KCDJMIPCHJH": "PlayerDieKillByMonster",
    "tips": [
      4270205759,
      3447081974,
      31918756,
      2668623185
    ]
  },
  {
    "id": 34,
    "dieType": "PLAYER_DIE_KILL_BY_MONSTER",
    "abilityName": "",
    "modifierName": "",
    "KFGLCPCGIPP": "",
    "CIEFHJNADLG": "",
    "monsterID": 21010501,
    "KCDJMIPCHJH": "PlayerDieKillByMonster",
    "tips": [
      1285997215,
      49208726,
      1062979204,
      1749570961
    ]
  },
  {
    "id": 35,
    "dieType": "PLAYER_DIE_KILL_BY_MONSTER",
    "abilityName": "",
    "modifierName": "",
    "KFGLCPCGIPP": "",
    "CIEFHJNADLG": "",
    "monsterID": 21010601,
    "KCDJMIPCHJH": "PlayerDieKillByMonster",
    "tips": [
      2788917367,
      340422350,
      1131449468,
      3394037305
    ]
  },
  {
    "id": 36,
    "dieType": "PLAYER_DIE_KILL_BY_MONSTER",
    "abilityName": "",
    "modifierName": "",
    "KFGLCPCGIPP": "",
    "CIEFHJNADLG": "",
    "monsterID": 21010701,
    "KCDJMIPCHJH": "PlayerDieKillByMonster",
    "tips": [
      3573987119,
      1010826958,
      1918593036,
      1843890489
    ]
  },
  {
    "id": 37,
    "dieType": "PLAYER_DIE_KILL_BY_MONSTER",
    "abilityName": "",
    "modifierName": "",
    "KFGLCPCGIPP": "",
    "CIEFHJNADLG": "",
    "monsterID": 21010801,
    "KCDJMIPCHJH": "PlayerDieKillByMonster",
    "tips": [
      1659776463,
      1607751926,
      341587764,
      408721617
    ]
  },
  {
    "id": 38,
    "dieType": "PLAYER_DIE_KILL_BY_MONSTER",
    "abilityName": "",
    "modifierName": "",
    "KFGLCPCGIPP": "",
    "CIEFHJNADLG": "",
    "monsterID": 21010901,
    "KCDJMIPCHJH": "PlayerDieKillByMonster",
    "tips": [
      2242786431,
      447592646,
      3365558676,
      1505762833
    ]
  },
  {
    "id": 39,
    "dieType": "PLAYER_DIE_KILL_BY_GEAR",
    "abilityName": "",
    "modifierName": "",
    "KFGLCPCGIPP": "",
    "CIEFHJNADLG": "",
    "KCDJMIPCHJH": "PlayerDieKillByGear",
    "tips": [
      3489843175,
      2845605414,
      3947311316,
      1585900809
    ]
  },
  {
    "id": 40,
    "abilityName": "",
    "modifierName": "",
    "KFGLCPCGIPP": "",
    "CIEFHJNADLG": "",
    "KCDJMIPCHJH": "PlayerDieNone",
    "tips": [
      432443335,
      1732443646,
      2111424476,
      4289559889
    ]
  },
  {
    "id": 41,
    "dieType": "PLAYER_DIE_KILL_BY_GEAR",
    "abilityName": "",
    "modifierName": "",
    "KFGLCPCGIPP": "TileAttackManagerMixin",
    "CIEFHJNADLG": "TileAttack_Water",
    "KCDJMIPCHJH": "TIP_DIETIP_TILEATTACK_WATER",
    "tips": [
      3099475831,
      424044174,
      543809796,
      2585821913
    ]
  },
  {
    "id": 42,
    "dieType": "PLAYER_DIE_KILL_BY_GEAR",
    "abilityName": "",
    "modifierName": "",
    "KFGLCPCGIPP": "TileAttackManagerMixin",
    "CIEFHJNADLG": "TileAttack_Grass",
    "KCDJMIPCHJH": "TIP_DIETIP_TILEATTACK_GRASS",
    "tips": [
      1592484663,
      2093491302,
      1562298724,
      4059152217
    ]
  },
  {
    "id": 43,
    "abilityName": "ClimateAbility_Cold",
    "modifierName": "",
    "KFGLCPCGIPP": "",
    "CIEFHJNADLG": "",
    "KCDJMIPCHJH": "TIP_DIETIP_CLIMATE_COLD",
    "tips": [
      3030772503,
      150724510,
      3647820,
      3717633313
    ]
  },
  {
    "id": 44,
    "abilityName": "ClimateAbility_TatariRegion",
    "modifierName": "",
    "KFGLCPCGIPP": "",
    "CIEFHJNADLG": "",
    "KCDJMIPCHJH": "TIP_DIETIP_CLIMATE_TATARIREGION",
    "tips": [
      1324457031,
      2316454878,
      3751262164,
      422252689
    ]
  },
  {
    "id": 45,
    "abilityName": "SceneAbility_ElectricWaterArea",
    "modifierName": "",
    "KFGLCPCGIPP": "",
    "CIEFHJNADLG": "",
    "KCDJMIPCHJH": "TIP_DIETIP_SCENE_ELECTRICWATERAREA",
    "tips": [
      1756016079,
      3874688286,
      3691787684,
      3581012209
    ]
  },
  {
    "id": 46,
    "abilityName": "SceneAbility_BlackMudArea",
    "modifierName": "",
    "KFGLCPCGIPP": "",
    "CIEFHJNADLG": "",
    "KCDJMIPCHJH": "TIP_DIETIP_SCENE_BLACKMUDAREA",
    "tips": [
      2743979551,
      949596198,
      18222188,
      1645627593
    ]
  },
  {
    "id": 47,
    "abilityName": "DynamicAbility_DeathZone",
    "modifierName": "",
    "KFGLCPCGIPP": "",
    "CIEFHJNADLG": "",
    "KCDJMIPCHJH": "TIP_DIETIP_DYNAMIC_DEATHZONE",
    "tips": [
      1815739511,
      4161487134,
      3664043660,
      1398140161
    ]
  },
  {
    "id": 48,
    "dieType": "PLAYER_DIE_KILL_BY_MONSTER",
    "abilityName": "SceneObj_Area_Desert_Property_Ani_Prop_SandWorm_Direct_01",
    "modifierName": "",
    "KFGLCPCGIPP": "",
    "CIEFHJNADLG": "",
    "KCDJMIPCHJH": "TIP_DIETIP_SCENE_SANDWORM_1",
    "tips": [
      38180527,
      824581398,
      1606544396,
      2913646329
    ]
  },
  {
    "id": 49,
    "dieType": "PLAYER_DIE_KILL_BY_MONSTER",
    "abilityName": "SceneObj_Area_Desert_Property_Ani_Prop_SandWorm_Bullet_01",
    "modifierName": "",
    "KFGLCPCGIPP": "",
    "CIEFHJNADLG": "",
    "KCDJMIPCHJH": "TIP_DIETIP_SCENE_SANDWORM_2",
    "tips": [
      1018103183,
      2437318726,
      427463980,
      3070725577
    ]
  },
  {
    "id": 50,
    "abilityName": "DynamicAbility_HotWater_4_0",
    "modifierName": "",
    "KFGLCPCGIPP": "",
    "CIEFHJNADLG": "",
    "KCDJMIPCHJH": "TIP_DIETIP_DYNAMIC_BOILLAKEHOTWATER",
    "tips": [
      423066407,
      1881405790,
      3829845684,
      233046409
    ]
  },
  {
    "id": 51,
    "dieType": "PLAYER_DIE_DIRTY_WATER_EROSION",
    "abilityName": "",
    "modifierName": "",
    "KFGLCPCGIPP": "",
    "CIEFHJNADLG": "",
    "KCDJMIPCHJH": "TIP_DIETIP_SCENE_POLLUTEDWATER",
    "tips": [
      738256047,
      2222998718,
      2417329852,
      3564147601
    ]
  },
  {
    "id": 52,
    "abilityName": "DynamicAbility_SeaVine",
    "modifierName": "",
    "KFGLCPCGIPP": "",
    "CIEFHJNADLG": "",
    "KCDJMIPCHJH": "TIP_DIETIP_DYNAMIC_SEAVINE",
    "tips": [
      2263790231,
      1544389702,
      4219464948,
      713811665
    ]
  },
  {
    "id": 53,
    "dieType": "PLAYER_DIE_KILL_BY_MONSTER",
    "abilityName": "SceneObj_Area_Common_Property_Ani_FoulCore_Bullet",
    "modifierName": "",
    "KFGLCPCGIPP": "",
    "CIEFHJNADLG": "",
    "KCDJMIPCHJH": "TIP_DIETIP_DYNAMIC_DIRTBULLET",
    "tips": [
      542549903,
      819621582,
      2250287044,
      2948389129
    ]
  }
]