[
  {
    "id": 1,
    "titleTextMapHash": 2488236553,
    "descTextMapHash": 3428079787
  },
  {
    "id": 2,
    "titleTextMapHash": 3132308393,
    "descTextMapHash": 1678464675
  },
  {
    "id": 3,
    "titleTextMapHash": 886316601,
    "descTextMapHash": 2088873619
  },
  {
    "id": 4,
    "titleTextMapHash": 3835562961,
    "descTextMapHash": 3455124963
  },
  {
    "id": 5,
    "titleTextMapHash": 2860896433,
    "descTextMapHash": 738913675
  },
  {
    "id": 6,
    "titleTextMapHash": 1150761193,
    "descTextMapHash": 1659254267
  },
  {
    "id": 7,
    "titleTextMapHash": 4004070449,
    "descTextMapHash": 3036949667
  },
  {
    "id": 8,
    "titleTextMapHash": 3102462553,
    "descTextMapHash": 3725564571
  },
  {
    "id": 9,
    "titleTextMapHash": 1124394905,
    "descTextMapHash": 1281285947
  },
  {
    "id": 10,
    "titleTextMapHash": 3779606809,
    "descTextMapHash": 1415487683
  },
  {
    "id": 11,
    "titleTextMapHash": 3764740849,
    "descTextMapHash": 1135691267
  },
  {
    "id": 12,
    "titleTextMapHash": 2638612889,
    "descTextMapHash": 2074088627
  },
  {
    "id": 13,
    "titleTextMapHash": 2725382049,
    "descTextMapHash": 2356590563
  },
  {
    "id": 14,
    "titleTextMapHash": 334459265,
    "descTextMapHash": 4172895531
  },
  {
    "id": 15,
    "titleTextMapHash": 243135577,
    "descTextMapHash": 1168625115
  },
  {
    "id": 16,
    "titleTextMapHash": 3075618081,
    "descTextMapHash": 756614091
  }
]