[
  {
    "id": 1,
    "levelTitleTextMapHash": 643725559,
    "levelDocTextMapHash": 3739025256,
    "levelIdList": [
      16
    ],
    "openTime": 1,
    "selfHerculesNameTextMapHash": 3139356418,
    "enemyHerculesNameTextMapHash": 3754942282,
    "selfHerculesHeadIconMale": "UI_AvatarIcon_Paimon_Circle",
    "selfHerculesHeadIconFemale": "UI_AvatarIcon_Paimon_Circle",
    "enemyHerculesHeadIcon": "UI_AvatarIcon_Shinobu_Circle",
    "stageType": "ELECTROHERCULES_BATTLE_LEVEL_TYPE_GUIDE",
    "firstSettleNPCCommentTextMapHash": 1490395024,
    "firstSettleHardNPCCommentTextMapHash": 1998313051
  },
  {
    "id": 2,
    "levelTitleTextMapHash": 2842510191,
    "levelDocTextMapHash": 4031651944,
    "pushTipsId": 6143,
    "levelIdList": [
      1,
      2,
      3
    ],
    "openTime": 1,
    "selfHerculesNameTextMapHash": 3857805154,
    "enemyHerculesNameTextMapHash": 3530058146,
    "selfHerculesHeadIconMale": "UI_AvatarIcon_Itto_Circle",
    "selfHerculesHeadIconFemale": "UI_AvatarIcon_Itto_Circle",
    "enemyHerculesHeadIcon": "UI_Gcg_NPC_Liyue_IronTongueTian_Circle",
    "stageType": "ELECTROHERCULES_BATTLE_LEVEL_TYPE_CHALLENGE",
    "firstSettleNPCCommentTextMapHash": 3107491080,
    "firstSettleHardNPCCommentTextMapHash": 1299284003
  },
  {
    "id": 3,
    "levelTitleTextMapHash": 2914834487,
    "levelDocTextMapHash": 2800650672,
    "pushTipsId": 6144,
    "levelIdList": [
      4,
      5,
      6
    ],
    "openTime": 2,
    "selfHerculesNameTextMapHash": 1648526362,
    "enemyHerculesNameTextMapHash": 135712378,
    "selfHerculesHeadIconMale": "UI_AvatarIcon_Paimon_Circle",
    "selfHerculesHeadIconFemale": "UI_AvatarIcon_Paimon_Circle",
    "enemyHerculesHeadIcon": "UI_NPC_Liyue_Changchang_Circle",
    "stageType": "ELECTROHERCULES_BATTLE_LEVEL_TYPE_CHALLENGE",
    "firstSettleNPCCommentTextMapHash": 2494661720,
    "firstSettleHardNPCCommentTextMapHash": 1924789979,
    "PJEMFNMEMID": 986
  },
  {
    "id": 4,
    "levelTitleTextMapHash": 1299630471,
    "levelDocTextMapHash": 436176272,
    "pushTipsId": 6145,
    "levelIdList": [
      7,
      8,
      9
    ],
    "openTime": 3,
    "selfHerculesNameTextMapHash": 1118582274,
    "enemyHerculesNameTextMapHash": 1060018098,
    "selfHerculesHeadIconMale": "UI_AvatarIcon_PlayerBoy_Circle",
    "selfHerculesHeadIconFemale": "UI_AvatarIcon_PlayerGirl_Circle",
    "enemyHerculesHeadIcon": "UI_AvatarIcon_Feiyan_Circle",
    "stageType": "ELECTROHERCULES_BATTLE_LEVEL_TYPE_CHALLENGE",
    "firstSettleNPCCommentTextMapHash": 1545813432,
    "firstSettleHardNPCCommentTextMapHash": 2091212443
  },
  {
    "id": 5,
    "levelTitleTextMapHash": 2691678831,
    "levelDocTextMapHash": 14180704,
    "pushTipsId": 6146,
    "levelIdList": [
      10,
      11,
      12
    ],
    "openTime": 4,
    "selfHerculesNameTextMapHash": 1945752730,
    "enemyHerculesNameTextMapHash": 2577881474,
    "selfHerculesHeadIconMale": "UI_AvatarIcon_PlayerBoy_Circle",
    "selfHerculesHeadIconFemale": "UI_AvatarIcon_PlayerGirl_Circle",
    "enemyHerculesHeadIcon": "UI_Gcg_NPC_Liyue_Lan_Circle",
    "stageType": "ELECTROHERCULES_BATTLE_LEVEL_TYPE_CHALLENGE",
    "firstSettleNPCCommentTextMapHash": 2213884032,
    "firstSettleHardNPCCommentTextMapHash": 3302850947,
    "PJEMFNMEMID": 987
  },
  {
    "id": 6,
    "levelTitleTextMapHash": 1607467807,
    "levelDocTextMapHash": 617130024,
    "pushTipsId": 6147,
    "levelIdList": [
      13,
      14,
      15
    ],
    "openTime": 5,
    "selfHerculesNameTextMapHash": 195897650,
    "enemyHerculesNameTextMapHash": 1601196458,
    "selfHerculesHeadIconMale": "UI_AvatarIcon_Itto_Circle",
    "selfHerculesHeadIconFemale": "UI_AvatarIcon_Itto_Circle",
    "enemyHerculesHeadIcon": "UI_NPC_Liyue_Gooba_Circle",
    "stageType": "ELECTROHERCULES_BATTLE_LEVEL_TYPE_CHALLENGE",
    "firstSettleNPCCommentTextMapHash": 3882826632,
    "firstSettleHardNPCCommentTextMapHash": 3113977515
  }
]