[
  {
    "id": 10701001,
    "displayId": 10701001,
    "seriesID": 10701,
    "displayTitleTextMapHash": 3966712675,
    "displayFormatTextMapHash": 1606186022,
    "displayType": "EXHIBITION_DISPLAY_TYPE_TIME_MINSEC"
  },
  {
    "id": 10701002,
    "displayId": 10701002,
    "seriesID": 10701,
    "displayTitleTextMapHash": 1088577771,
    "displayFormatTextMapHash": 2161958190,
    "displayType": "EXHIBITION_DISPLAY_TYPE_INT"
  },
  {
    "id": 10701003,
    "displayId": 10701003,
    "seriesID": 10701,
    "displayTitleTextMapHash": 1069832883,
    "displayFormatTextMapHash": 913078174,
    "displayType": "EXHIBITION_DISPLAY_TYPE_INT"
  },
  {
    "id": 10701004,
    "displayId": 10701004,
    "seriesID": 10701,
    "displayTitleTextMapHash": 3871856155,
    "displayFormatTextMapHash": 3740120302,
    "displayType": "EXHIBITION_DISPLAY_TYPE_INT"
  },
  {
    "id": 10701005,
    "displayId": 10701005,
    "seriesID": 10701,
    "displayTitleTextMapHash": 2956830771,
    "displayFormatTextMapHash": 3964129534,
    "displayType": "EXHIBITION_DISPLAY_TYPE_TIME_MINSEC"
  },
  {
    "id": 10701006,
    "displayId": 10701006,
    "seriesID": 10701,
    "displayTitleTextMapHash": 2068211507,
    "displayFormatTextMapHash": 90658390,
    "displayType": "EXHIBITION_DISPLAY_TYPE_INT"
  },
  {
    "id": 10701007,
    "displayId": 10701007,
    "seriesID": 10701,
    "displayTitleTextMapHash": 2737236995,
    "displayFormatTextMapHash": 2093285806,
    "displayType": "EXHIBITION_DISPLAY_TYPE_INT"
  },
  {
    "id": 10701008,
    "displayId": 10701008,
    "seriesID": 10701,
    "displayTitleTextMapHash": 2054005179,
    "displayFormatTextMapHash": 4044407382,
    "displayType": "EXHIBITION_DISPLAY_TYPE_INT"
  },
  {
    "id": 10701009,
    "displayId": 10701009,
    "seriesID": 10701,
    "displayTitleTextMapHash": 2764000435,
    "displayFormatTextMapHash": 3588333390,
    "displayType": "EXHIBITION_DISPLAY_TYPE_TIME_MINSEC"
  },
  {
    "id": 10701010,
    "displayId": 10701010,
    "seriesID": 10701,
    "displayTitleTextMapHash": 263489027,
    "displayFormatTextMapHash": 3891808454,
    "displayType": "EXHIBITION_DISPLAY_TYPE_INT"
  },
  {
    "id": 10701011,
    "displayId": 10701011,
    "seriesID": 10701,
    "displayTitleTextMapHash": 715888003,
    "displayFormatTextMapHash": 4097305726,
    "displayType": "EXHIBITION_DISPLAY_TYPE_INT"
  },
  {
    "id": 10701012,
    "displayId": 10701012,
    "seriesID": 10701,
    "displayTitleTextMapHash": 1803527747,
    "displayFormatTextMapHash": 217727590,
    "displayType": "EXHIBITION_DISPLAY_TYPE_INT"
  },
  {
    "id": 10701013,
    "displayId": 10701013,
    "seriesID": 10701,
    "displayTitleTextMapHash": 2080720803,
    "displayFormatTextMapHash": 3527369742,
    "displayType": "EXHIBITION_DISPLAY_TYPE_TIME_MINSEC"
  },
  {
    "id": 10701014,
    "displayId": 10701014,
    "seriesID": 10701,
    "displayTitleTextMapHash": 3758204323,
    "displayFormatTextMapHash": 2247772678,
    "displayType": "EXHIBITION_DISPLAY_TYPE_INT"
  },
  {
    "id": 10701015,
    "displayId": 10701015,
    "seriesID": 10701,
    "displayTitleTextMapHash": 2728274731,
    "displayFormatTextMapHash": 2641678358,
    "displayType": "EXHIBITION_DISPLAY_TYPE_INT"
  },
  {
    "id": 10701016,
    "displayId": 10701016,
    "seriesID": 10701,
    "displayTitleTextMapHash": 1051511603,
    "displayFormatTextMapHash": 3202784974,
    "displayType": "EXHIBITION_DISPLAY_TYPE_INT"
  },
  {
    "id": 10701017,
    "displayId": 10701017,
    "seriesID": 10701,
    "displayTitleTextMapHash": 3443909443,
    "displayFormatTextMapHash": 494822158,
    "displayType": "EXHIBITION_DISPLAY_TYPE_TIME_MINSEC"
  },
  {
    "id": 10701018,
    "displayId": 10701018,
    "seriesID": 10701,
    "displayTitleTextMapHash": 3397117563,
    "displayFormatTextMapHash": 4048364710,
    "displayType": "EXHIBITION_DISPLAY_TYPE_INT"
  },
  {
    "id": 10701019,
    "displayId": 10701019,
    "seriesID": 10701,
    "displayTitleTextMapHash": 1326385411,
    "displayFormatTextMapHash": 4224008966,
    "displayType": "EXHIBITION_DISPLAY_TYPE_INT"
  },
  {
    "id": 10701020,
    "displayId": 10701020,
    "seriesID": 10701,
    "displayTitleTextMapHash": 2575983827,
    "displayFormatTextMapHash": 1303957678,
    "displayType": "EXHIBITION_DISPLAY_TYPE_INT"
  },
  {
    "id": 10701021,
    "displayId": 10701021,
    "seriesID": 10701,
    "displayTitleTextMapHash": 1160590163,
    "displayFormatTextMapHash": 4108142838,
    "displayType": "EXHIBITION_DISPLAY_TYPE_TIME_MINSEC"
  },
  {
    "id": 10701022,
    "displayId": 10701022,
    "seriesID": 10701,
    "displayTitleTextMapHash": 623134115,
    "displayFormatTextMapHash": 1867747510,
    "displayType": "EXHIBITION_DISPLAY_TYPE_INT"
  },
  {
    "id": 10701023,
    "displayId": 10701023,
    "seriesID": 10701,
    "displayTitleTextMapHash": 2130183307,
    "displayFormatTextMapHash": 1095413022,
    "displayType": "EXHIBITION_DISPLAY_TYPE_INT"
  },
  {
    "id": 10701024,
    "displayId": 10701024,
    "seriesID": 10701,
    "displayTitleTextMapHash": 2426380715,
    "displayFormatTextMapHash": 3097884774,
    "displayType": "EXHIBITION_DISPLAY_TYPE_INT"
  },
  {
    "id": 10701025,
    "displayId": 10701025,
    "seriesID": 10701,
    "displayTitleTextMapHash": 960263179,
    "displayFormatTextMapHash": 2108066910,
    "displayType": "EXHIBITION_DISPLAY_TYPE_TIME_MINSEC"
  },
  {
    "id": 10701026,
    "displayId": 10701026,
    "seriesID": 10701,
    "displayTitleTextMapHash": 2788837827,
    "displayFormatTextMapHash": 3431050966,
    "displayType": "EXHIBITION_DISPLAY_TYPE_INT"
  },
  {
    "id": 10701027,
    "displayId": 10701027,
    "seriesID": 10701,
    "displayTitleTextMapHash": 3199413683,
    "displayFormatTextMapHash": 4268281542,
    "displayType": "EXHIBITION_DISPLAY_TYPE_INT"
  },
  {
    "id": 10701028,
    "displayId": 10701028,
    "seriesID": 10701,
    "displayTitleTextMapHash": 3734748355,
    "displayFormatTextMapHash": 1510111918,
    "displayType": "EXHIBITION_DISPLAY_TYPE_INT"
  },
  {
    "id": 11801001,
    "displayId": 11801001,
    "seriesID": 11801,
    "displayTitleTextMapHash": 2755421515,
    "displayFormatTextMapHash": 318488430,
    "displayType": "EXHIBITION_DISPLAY_TYPE_TIME_MINSEC"
  },
  {
    "id": 11801002,
    "displayId": 11801002,
    "seriesID": 11801,
    "displayTitleTextMapHash": 3102592675,
    "displayFormatTextMapHash": 2269902686,
    "displayType": "EXHIBITION_DISPLAY_TYPE_INT_CHARACTER"
  },
  {
    "id": 11801003,
    "displayId": 11801003,
    "seriesID": 11801,
    "displayTitleTextMapHash": 3882787939,
    "displayFormatTextMapHash": 3567912158,
    "displayType": "EXHIBITION_DISPLAY_TYPE_INT"
  },
  {
    "id": 11801004,
    "displayId": 11801004,
    "seriesID": 11801,
    "displayTitleTextMapHash": 1047442531,
    "displayFormatTextMapHash": 1866119702,
    "displayType": "EXHIBITION_DISPLAY_TYPE_INT"
  },
  {
    "id": 11801005,
    "displayId": 11801005,
    "seriesID": 11801,
    "displayTitleTextMapHash": 860083099,
    "displayFormatTextMapHash": 4076682150,
    "displayType": "EXHIBITION_DISPLAY_TYPE_TIME_MINSEC"
  },
  {
    "id": 11801006,
    "displayId": 11801006,
    "seriesID": 11801,
    "displayTitleTextMapHash": 1605409083,
    "displayFormatTextMapHash": 1998080422,
    "displayType": "EXHIBITION_DISPLAY_TYPE_INT_CHARACTER"
  },
  {
    "id": 11801007,
    "displayId": 11801007,
    "seriesID": 11801,
    "displayTitleTextMapHash": 3509437483,
    "displayFormatTextMapHash": 1140443638,
    "displayType": "EXHIBITION_DISPLAY_TYPE_INT"
  },
  {
    "id": 11801008,
    "displayId": 11801008,
    "seriesID": 11801,
    "displayTitleTextMapHash": 2494047731,
    "displayFormatTextMapHash": 2024684326,
    "displayType": "EXHIBITION_DISPLAY_TYPE_INT"
  },
  {
    "id": 11801009,
    "displayId": 11801009,
    "seriesID": 11801,
    "displayTitleTextMapHash": 3138879259,
    "displayFormatTextMapHash": 2281677814,
    "displayType": "EXHIBITION_DISPLAY_TYPE_TIME_MINSEC"
  },
  {
    "id": 11801010,
    "displayId": 11801010,
    "seriesID": 11801,
    "displayTitleTextMapHash": 3447115211,
    "displayFormatTextMapHash": 446740366,
    "displayType": "EXHIBITION_DISPLAY_TYPE_INT_CHARACTER"
  },
  {
    "id": 11801011,
    "displayId": 11801011,
    "seriesID": 11801,
    "displayTitleTextMapHash": 3131140171,
    "displayFormatTextMapHash": 2575985726,
    "displayType": "EXHIBITION_DISPLAY_TYPE_INT"
  },
  {
    "id": 11801012,
    "displayId": 11801012,
    "seriesID": 11801,
    "displayTitleTextMapHash": 1781571899,
    "displayFormatTextMapHash": 3009722438,
    "displayType": "EXHIBITION_DISPLAY_TYPE_INT"
  },
  {
    "id": 11801013,
    "displayId": 11801013,
    "seriesID": 11801,
    "displayTitleTextMapHash": 2556448059,
    "displayFormatTextMapHash": 3834917398,
    "displayType": "EXHIBITION_DISPLAY_TYPE_TIME_MINSEC"
  },
  {
    "id": 11801014,
    "displayId": 11801014,
    "seriesID": 11801,
    "displayTitleTextMapHash": 3463284803,
    "displayFormatTextMapHash": 2009296726,
    "displayType": "EXHIBITION_DISPLAY_TYPE_INT_CHARACTER"
  },
  {
    "id": 11801015,
    "displayId": 11801015,
    "seriesID": 11801,
    "displayTitleTextMapHash": 2447546563,
    "displayFormatTextMapHash": 2456722702,
    "displayType": "EXHIBITION_DISPLAY_TYPE_INT"
  },
  {
    "id": 11801016,
    "displayId": 11801016,
    "seriesID": 11801,
    "displayTitleTextMapHash": 89749963,
    "displayFormatTextMapHash": 299660470,
    "displayType": "EXHIBITION_DISPLAY_TYPE_INT"
  },
  {
    "id": 11801017,
    "displayId": 11801017,
    "seriesID": 11801,
    "displayTitleTextMapHash": 2775528347,
    "displayFormatTextMapHash": 3877813262,
    "displayType": "EXHIBITION_DISPLAY_TYPE_TIME_MINSEC"
  },
  {
    "id": 11801018,
    "displayId": 11801018,
    "seriesID": 11801,
    "displayTitleTextMapHash": 274145483,
    "displayFormatTextMapHash": 3219291870,
    "displayType": "EXHIBITION_DISPLAY_TYPE_INT_CHARACTER"
  },
  {
    "id": 11801019,
    "displayId": 11801019,
    "seriesID": 11801,
    "displayTitleTextMapHash": 2255549835,
    "displayFormatTextMapHash": 3576355974,
    "displayType": "EXHIBITION_DISPLAY_TYPE_INT"
  },
  {
    "id": 11801020,
    "displayId": 11801020,
    "seriesID": 11801,
    "displayTitleTextMapHash": 3379549203,
    "displayFormatTextMapHash": 429195070,
    "displayType": "EXHIBITION_DISPLAY_TYPE_INT"
  },
  {
    "id": 11801021,
    "displayId": 11801021,
    "seriesID": 11801,
    "displayTitleTextMapHash": 2866488107,
    "displayFormatTextMapHash": 1852388806,
    "displayType": "EXHIBITION_DISPLAY_TYPE_TIME_MINSEC"
  },
  {
    "id": 11801022,
    "displayId": 11801022,
    "seriesID": 11801,
    "displayTitleTextMapHash": 3626184883,
    "displayFormatTextMapHash": 3307668038,
    "displayType": "EXHIBITION_DISPLAY_TYPE_INT_CHARACTER"
  },
  {
    "id": 11801023,
    "displayId": 11801023,
    "seriesID": 11801,
    "displayTitleTextMapHash": 3634620891,
    "displayFormatTextMapHash": 4282072094,
    "displayType": "EXHIBITION_DISPLAY_TYPE_INT"
  },
  {
    "id": 11801024,
    "displayId": 11801024,
    "seriesID": 11801,
    "displayTitleTextMapHash": 1333348531,
    "displayFormatTextMapHash": 3160870510,
    "displayType": "EXHIBITION_DISPLAY_TYPE_INT"
  },
  {
    "id": 11801025,
    "displayId": 11801025,
    "seriesID": 11801,
    "displayTitleTextMapHash": 2915680275,
    "displayFormatTextMapHash": 85377070,
    "displayType": "EXHIBITION_DISPLAY_TYPE_TIME_MINSEC"
  },
  {
    "id": 11801026,
    "displayId": 11801026,
    "seriesID": 11801,
    "displayTitleTextMapHash": 2271859603,
    "displayFormatTextMapHash": 1797562846,
    "displayType": "EXHIBITION_DISPLAY_TYPE_INT_CHARACTER"
  },
  {
    "id": 11801027,
    "displayId": 11801027,
    "seriesID": 11801,
    "displayTitleTextMapHash": 1492117019,
    "displayFormatTextMapHash": 1645665934,
    "displayType": "EXHIBITION_DISPLAY_TYPE_INT"
  },
  {
    "id": 11801028,
    "displayId": 11801028,
    "seriesID": 11801,
    "displayTitleTextMapHash": 236913227,
    "displayFormatTextMapHash": 1633253966,
    "displayType": "EXHIBITION_DISPLAY_TYPE_INT"
  },
  {
    "id": 13506001,
    "displayId": 13506001,
    "seriesID": 13506,
    "displayTitleTextMapHash": 3166856299,
    "displayFormatTextMapHash": 2174005622,
    "displayType": "EXHIBITION_DISPLAY_TYPE_TIME_MINSEC"
  },
  {
    "id": 13506002,
    "displayId": 13506002,
    "seriesID": 13506,
    "displayTitleTextMapHash": 3000794875,
    "displayFormatTextMapHash": 2846706406,
    "displayType": "EXHIBITION_DISPLAY_TYPE_INT_CHARACTER"
  },
  {
    "id": 13506003,
    "displayId": 13506003,
    "seriesID": 13506,
    "displayTitleTextMapHash": 2452205667,
    "displayFormatTextMapHash": 2103949574,
    "displayType": "EXHIBITION_DISPLAY_TYPE_INT"
  },
  {
    "id": 13506004,
    "displayId": 13506004,
    "seriesID": 13506,
    "displayTitleTextMapHash": 1184028747,
    "displayFormatTextMapHash": 1103125214,
    "displayType": "EXHIBITION_DISPLAY_TYPE_INT"
  },
  {
    "id": 13506005,
    "displayId": 13506005,
    "seriesID": 13506,
    "displayTitleTextMapHash": 2715613139,
    "displayFormatTextMapHash": 4220456254,
    "displayType": "EXHIBITION_DISPLAY_TYPE_TIME_MINSEC"
  },
  {
    "id": 13506006,
    "displayId": 13506006,
    "seriesID": 13506,
    "displayTitleTextMapHash": 474729451,
    "displayFormatTextMapHash": 2462598214,
    "displayType": "EXHIBITION_DISPLAY_TYPE_INT_CHARACTER"
  },
  {
    "id": 13506007,
    "displayId": 13506007,
    "seriesID": 13506,
    "displayTitleTextMapHash": 2508131339,
    "displayFormatTextMapHash": 3253409822,
    "displayType": "EXHIBITION_DISPLAY_TYPE_INT"
  },
  {
    "id": 13506008,
    "displayId": 13506008,
    "seriesID": 13506,
    "displayTitleTextMapHash": 1176169507,
    "displayFormatTextMapHash": 1715045086,
    "displayType": "EXHIBITION_DISPLAY_TYPE_INT"
  },
  {
    "id": 13506009,
    "displayId": 13506009,
    "seriesID": 13506,
    "displayTitleTextMapHash": 960986307,
    "displayFormatTextMapHash": 2055271902,
    "displayType": "EXHIBITION_DISPLAY_TYPE_TIME_MINSEC"
  },
  {
    "id": 13506010,
    "displayId": 13506010,
    "seriesID": 13506,
    "displayTitleTextMapHash": 709416227,
    "displayFormatTextMapHash": 3315576006,
    "displayType": "EXHIBITION_DISPLAY_TYPE_INT_CHARACTER"
  },
  {
    "id": 13506011,
    "displayId": 13506011,
    "seriesID": 13506,
    "displayTitleTextMapHash": 846958827,
    "displayFormatTextMapHash": 3231132094,
    "displayType": "EXHIBITION_DISPLAY_TYPE_INT"
  },
  {
    "id": 13506012,
    "displayId": 13506012,
    "seriesID": 13506,
    "displayTitleTextMapHash": 3837360227,
    "displayFormatTextMapHash": 1608520606,
    "displayType": "EXHIBITION_DISPLAY_TYPE_INT"
  },
  {
    "id": 13506013,
    "displayId": 13506013,
    "seriesID": 13506,
    "displayTitleTextMapHash": 1806071675,
    "displayFormatTextMapHash": 1627595902,
    "displayType": "EXHIBITION_DISPLAY_TYPE_TIME_MINSEC"
  },
  {
    "id": 13506014,
    "displayId": 13506014,
    "seriesID": 13506,
    "displayTitleTextMapHash": 2067213611,
    "displayFormatTextMapHash": 619774598,
    "displayType": "EXHIBITION_DISPLAY_TYPE_INT_CHARACTER"
  },
  {
    "id": 13506015,
    "displayId": 13506015,
    "seriesID": 13506,
    "displayTitleTextMapHash": 3375411555,
    "displayFormatTextMapHash": 2810331918,
    "displayType": "EXHIBITION_DISPLAY_TYPE_INT"
  },
  {
    "id": 13506016,
    "displayId": 13506016,
    "seriesID": 13506,
    "displayTitleTextMapHash": 1351531675,
    "displayFormatTextMapHash": 1014058910,
    "displayType": "EXHIBITION_DISPLAY_TYPE_INT"
  },
  {
    "id": 13506017,
    "displayId": 13506017,
    "seriesID": 13506,
    "displayTitleTextMapHash": 2031436563,
    "displayFormatTextMapHash": 3048989838,
    "displayType": "EXHIBITION_DISPLAY_TYPE_TIME_MINSEC"
  },
  {
    "id": 13506018,
    "displayId": 13506018,
    "seriesID": 13506,
    "displayTitleTextMapHash": 3585607587,
    "displayFormatTextMapHash": 3075998278,
    "displayType": "EXHIBITION_DISPLAY_TYPE_INT_CHARACTER"
  },
  {
    "id": 13506019,
    "displayId": 13506019,
    "seriesID": 13506,
    "displayTitleTextMapHash": 1177135587,
    "displayFormatTextMapHash": 872202374,
    "displayType": "EXHIBITION_DISPLAY_TYPE_INT"
  },
  {
    "id": 13506020,
    "displayId": 13506020,
    "seriesID": 13506,
    "displayTitleTextMapHash": 3864586523,
    "displayFormatTextMapHash": 2322159734,
    "displayType": "EXHIBITION_DISPLAY_TYPE_INT"
  },
  {
    "id": 13506021,
    "displayId": 13506021,
    "seriesID": 13506,
    "displayTitleTextMapHash": 639461043,
    "displayFormatTextMapHash": 2244040494,
    "displayType": "EXHIBITION_DISPLAY_TYPE_TIME_MINSEC"
  },
  {
    "id": 13506022,
    "displayId": 13506022,
    "seriesID": 13506,
    "displayTitleTextMapHash": 364390131,
    "displayFormatTextMapHash": 3720829086,
    "displayType": "EXHIBITION_DISPLAY_TYPE_INT_CHARACTER"
  },
  {
    "id": 13506023,
    "displayId": 13506023,
    "seriesID": 13506,
    "displayTitleTextMapHash": 103564843,
    "displayFormatTextMapHash": 2456966318,
    "displayType": "EXHIBITION_DISPLAY_TYPE_INT"
  },
  {
    "id": 13506024,
    "displayId": 13506024,
    "seriesID": 13506,
    "displayTitleTextMapHash": 1719947931,
    "displayFormatTextMapHash": 579413870,
    "displayType": "EXHIBITION_DISPLAY_TYPE_INT"
  },
  {
    "id": 13506025,
    "displayId": 13506025,
    "seriesID": 13506,
    "displayTitleTextMapHash": 3871194459,
    "displayFormatTextMapHash": 4184457902,
    "displayType": "EXHIBITION_DISPLAY_TYPE_TIME_MINSEC"
  },
  {
    "id": 13506026,
    "displayId": 13506026,
    "seriesID": 13506,
    "displayTitleTextMapHash": 3614350859,
    "displayFormatTextMapHash": 269465390,
    "displayType": "EXHIBITION_DISPLAY_TYPE_INT_CHARACTER"
  },
  {
    "id": 13506027,
    "displayId": 13506027,
    "seriesID": 13506,
    "displayTitleTextMapHash": 2910941331,
    "displayFormatTextMapHash": 1452813054,
    "displayType": "EXHIBITION_DISPLAY_TYPE_INT"
  },
  {
    "id": 13506028,
    "displayId": 13506028,
    "seriesID": 13506,
    "displayTitleTextMapHash": 3478908971,
    "displayFormatTextMapHash": 1521506718,
    "displayType": "EXHIBITION_DISPLAY_TYPE_INT"
  }
]