[
  {
    "id": 1,
    "openDay": 1,
    "watcherList": [
      15150101,
      15150102,
      15150103
    ],
    "indexID": 1,
    "IEJNJAHJIBA": 1886146190,
    "stageDescTextMapHash": 2798018526,
    "pushTipsID": 13118
  },
  {
    "id": 2,
    "openDay": 1,
    "watcherList": [
      15150107,
      15150108,
      15150109
    ],
    "indexID": 2,
    "IEJNJAHJIBA": 3657282286,
    "stageDescTextMapHash": 3378629510,
    "pushTipsID": 13118
  },
  {
    "id": 3,
    "openDay": 1,
    "watcherList": [
      15150110,
      15150111,
      15150112
    ],
    "indexID": 3,
    "IEJNJAHJIBA": 3118147814,
    "stageDescTextMapHash": 531498574,
    "pushTipsID": 13118
  },
  {
    "id": 4,
    "openDay": 1,
    "watcherList": [
      15150113,
      15150114,
      15150115
    ],
    "indexID": 4,
    "IEJNJAHJIBA": 2398201414,
    "stageDescTextMapHash": 2998094182,
    "pushTipsID": 13118
  },
  {
    "id": 5,
    "openDay": 1,
    "watcherList": [
      15150119,
      15150120
    ],
    "indexID": 5,
    "IEJNJAHJIBA": 1361177286,
    "stageDescTextMapHash": 2795210342,
    "pushTipsID": 13119
  },
  {
    "id": 6,
    "openDay": 1,
    "watcherList": [
      15150125,
      15150126
    ],
    "indexID": 6,
    "IEJNJAHJIBA": 2753007614,
    "stageDescTextMapHash": 2169000622,
    "pushTipsID": 13120
  }
]