[
  {
    "channelID": 999,
    "isChinaServer": true,
    "url": "https://apps.apple.com/cn/app/id1467190251"
  },
  {
    "channelID": 1,
    "isChinaServer": true,
    "url": "https://apps.apple.com/cn/app/id1467190251"
  },
  {
    "channelID": 999,
    "isChinaServer": true,
    "platform": "PLATFORM_ANDROID",
    "url": "https://bbs.mihoyo.com/ys/"
  },
  {
    "channelID": 1,
    "subChannelId": 1,
    "isChinaServer": true,
    "platform": "PLATFORM_ANDROID",
    "url": "https://bbs.mihoyo.com/ys/"
  },
  {
    "channelID": 1,
    "subChannelId": 2,
    "isChinaServer": true,
    "platform": "PLATFORM_ANDROID",
    "url": "https://bbs.mihoyo.com/ys/"
  },
  {
    "channelID": 11,
    "isChinaServer": true,
    "platform": "PLATFORM_ANDROID",
    "url": "https://bbs.mihoyo.com/ys/"
  },
  {
    "channelID": 14,
    "isChinaServer": true,
    "platform": "PLATFORM_ANDROID",
    "url": "https://bbs.mihoyo.com/ys/"
  },
  {
    "channelID": 999,
    "isChinaServer": true,
    "platform": "PLATFORM_PC",
    "url": "https://bbs.mihoyo.com/ys/"
  },
  {
    "channelID": 1,
    "subChannelId": 1,
    "isChinaServer": true,
    "platform": "PLATFORM_PC",
    "url": "https://bbs.mihoyo.com/ys/"
  },
  {
    "channelID": 999,
    "url": "https://apps.apple.com/app/id1517783697"
  },
  {
    "channelID": 1,
    "subChannelId": 1,
    "url": "https://apps.apple.com/app/id1517783697"
  },
  {
    "channelID": 999,
    "platform": "PLATFORM_ANDROID",
    "url": "https://play.google.com/store/apps/details?id=com.miHoYo.GenshinImpact"
  },
  {
    "channelID": 1,
    "subChannelId": 1,
    "platform": "PLATFORM_ANDROID",
    "url": "https://play.google.com/store/apps/details?id=com.miHoYo.GenshinImpact"
  },
  {
    "channelID": 999,
    "platform": "PLATFORM_PC",
    "url": "https://www.hoyolab.com/genshin/"
  },
  {
    "channelID": 1,
    "subChannelId": 1,
    "platform": "PLATFORM_PC",
    "url": "https://www.hoyolab.com/genshin/"
  },
  {
    "channelID": 999,
    "url": "https://apps.apple.com/app/id6451477469",
    "KEKEGJPKEBN": true
  },
  {
    "channelID": 1,
    "subChannelId": 1,
    "url": "https://apps.apple.com/app/id6451477469",
    "KEKEGJPKEBN": true
  },
  {
    "channelID": 999,
    "platform": "PLATFORM_ANDROID",
    "url": "https://play.google.com/store/apps/details?id=com.miHoYo.GenshinImpact.vn",
    "KEKEGJPKEBN": true
  },
  {
    "channelID": 1,
    "subChannelId": 1,
    "platform": "PLATFORM_ANDROID",
    "url": "https://play.google.com/store/apps/details?id=com.miHoYo.GenshinImpact.vn",
    "KEKEGJPKEBN": true
  }
]