[
  {
    "mainQuestGuideID": 1,
    "investigationTargetID": 64001,
    "preMainQuestGuideIDList": []
  },
  {
    "mainQuestGuideID": 2,
    "investigationTargetID": 64002,
    "preMainQuestGuideIDList": [
      1
    ]
  },
  {
    "mainQuestGuideID": 3,
    "investigationTargetID": 64003,
    "preMainQuestGuideIDList": [
      2
    ]
  },
  {
    "mainQuestGuideID": 4,
    "investigationTargetID": 64004,
    "preMainQuestGuideIDList": [
      3
    ]
  },
  {
    "mainQuestGuideID": 5,
    "investigationTargetID": 64005,
    "preMainQuestGuideIDList": [
      4
    ]
  },
  {
    "mainQuestGuideID": 6,
    "investigationTargetID": 64006,
    "preMainQuestGuideIDList": [
      5
    ]
  },
  {
    "mainQuestGuideID": 7,
    "investigationTargetID": 64007,
    "preMainQuestGuideIDList": [
      6
    ]
  },
  {
    "mainQuestGuideID": 8,
    "investigationTargetID": 64008,
    "preMainQuestGuideIDList": [
      7
    ]
  },
  {
    "mainQuestGuideID": 9,
    "investigationTargetID": 64009,
    "preMainQuestGuideIDList": [
      8
    ]
  },
  {
    "mainQuestGuideID": 10,
    "investigationTargetID": 64010,
    "preMainQuestGuideIDList": [
      9
    ]
  },
  {
    "mainQuestGuideID": 11,
    "investigationTargetID": 64011,
    "preMainQuestGuideIDList": [
      10
    ]
  },
  {
    "mainQuestGuideID": 12,
    "investigationTargetID": 64012,
    "preMainQuestGuideIDList": [
      11
    ]
  },
  {
    "mainQuestGuideID": 13,
    "investigationTargetID": 64013,
    "preMainQuestGuideIDList": [
      12
    ]
  },
  {
    "mainQuestGuideID": 14,
    "investigationTargetID": 64014,
    "preMainQuestGuideIDList": [
      13
    ]
  },
  {
    "mainQuestGuideID": 15,
    "investigationTargetID": 64015,
    "preMainQuestGuideIDList": [
      14
    ]
  },
  {
    "mainQuestGuideID": 16,
    "investigationTargetID": 64016,
    "preMainQuestGuideIDList": [
      15
    ]
  },
  {
    "mainQuestGuideID": 17,
    "investigationTargetID": 64017,
    "preMainQuestGuideIDList": [
      16
    ]
  },
  {
    "mainQuestGuideID": 18,
    "investigationTargetID": 64018,
    "preMainQuestGuideIDList": [
      17
    ]
  },
  {
    "mainQuestGuideID": 19,
    "investigationTargetID": 64019,
    "preMainQuestGuideIDList": [
      18
    ]
  },
  {
    "mainQuestGuideID": 20,
    "investigationTargetID": 64020,
    "preMainQuestGuideIDList": [
      19
    ]
  },
  {
    "mainQuestGuideID": 21,
    "investigationTargetID": 64021,
    "preMainQuestGuideIDList": [
      20
    ]
  },
  {
    "mainQuestGuideID": 22,
    "investigationTargetID": 64022,
    "preMainQuestGuideIDList": [
      21
    ]
  },
  {
    "mainQuestGuideID": 23,
    "investigationTargetID": 64023,
    "preMainQuestGuideIDList": [
      22
    ]
  },
  {
    "mainQuestGuideID": 24,
    "investigationTargetID": 64024,
    "preMainQuestGuideIDList": [
      23
    ]
  },
  {
    "mainQuestGuideID": 25,
    "investigationTargetID": 64025,
    "preMainQuestGuideIDList": [
      24
    ]
  },
  {
    "mainQuestGuideID": 26,
    "investigationTargetID": 64026,
    "preMainQuestGuideIDList": [
      25
    ]
  },
  {
    "mainQuestGuideID": 27,
    "investigationTargetID": 64027,
    "preMainQuestGuideIDList": [
      26
    ]
  }
]