[
  {
    "configID": 1,
    "sceneID": 2001,
    "areaID": 1,
    "areaType": "ExteriorArea",
    "nameTextMapHash": 2337481454,
    "maxComfort": 999999999,
    "safePointStr": "800,316,190,160",
    "playerSafePointStr": "",
    "lowLoadLimit": 6000,
    "middleLoadLimit": 9900,
    "highLoadLimit": 10000,
    "areaCenterPos": [
      0,
      0,
      0
    ],
    "areaCenterRot": [
      0,
      0,
      0
    ],
    "blueprintImageAddr": "UI_Pic_HomeworldBlueprint_2001",
    "blueprintSlotNameTextMapHash": 2792985202,
    "blueprintSafePointStr": "806,316,194,160;808,316,194,160;808,316,196,160;806,316,196,160",
    "BEKEKECJBLF": "",
    "DEMMEEPEMLE": ""
  },
  {
    "configID": 2,
    "sceneID": 2001,
    "areaID": 2,
    "areaType": "ExteriorArea",
    "nameTextMapHash": 2212840766,
    "maxComfort": 999999999,
    "safePointStr": "715,342,347,70",
    "playerSafePointStr": "",
    "lowLoadLimit": 6000,
    "middleLoadLimit": 9900,
    "highLoadLimit": 10000,
    "areaCenterPos": [
      0,
      0,
      0
    ],
    "areaCenterRot": [
      0,
      0,
      0
    ],
    "blueprintImageAddr": "UI_Pic_HomeworldBlueprint_2001",
    "blueprintSlotNameTextMapHash": 3953662978,
    "blueprintSafePointStr": "716,343,352,70;716,343,354,70;714,343,352,70;714,343,354,70",
    "BEKEKECJBLF": "",
    "DEMMEEPEMLE": ""
  },
  {
    "configID": 3,
    "sceneID": 2001,
    "areaID": 3,
    "areaType": "ExteriorArea",
    "nameTextMapHash": 4017734462,
    "maxComfort": 999999999,
    "safePointStr": "454,439,555,70",
    "playerSafePointStr": "",
    "lowLoadLimit": 6000,
    "middleLoadLimit": 9900,
    "highLoadLimit": 10000,
    "areaCenterPos": [
      0,
      0,
      0
    ],
    "areaCenterRot": [
      0,
      0,
      0
    ],
    "blueprintImageAddr": "UI_Pic_HomeworldBlueprint_2001",
    "blueprintSlotNameTextMapHash": 2016692538,
    "blueprintSafePointStr": "455,440,564,70;455,440,566,70;453,440,564,70;453,440,566,70",
    "BEKEKECJBLF": "",
    "DEMMEEPEMLE": ""
  },
  {
    "configID": 4,
    "sceneID": 2001,
    "areaID": 4,
    "areaType": "ExteriorArea",
    "nameTextMapHash": 2072010014,
    "maxComfort": 999999999,
    "safePointStr": "150,525,800,70",
    "playerSafePointStr": "",
    "lowLoadLimit": 6000,
    "middleLoadLimit": 9900,
    "highLoadLimit": 10000,
    "areaCenterPos": [
      0,
      0,
      0
    ],
    "areaCenterRot": [
      0,
      0,
      0
    ],
    "blueprintImageAddr": "UI_Pic_HomeworldBlueprint_2001",
    "blueprintSlotNameTextMapHash": 3324919250,
    "blueprintSafePointStr": "151,526,807,70;151,526,809,70;149,526,807,70;149,526,809,70",
    "BEKEKECJBLF": "",
    "DEMMEEPEMLE": ""
  },
  {
    "configID": 5,
    "sceneID": 2002,
    "areaID": 1,
    "areaType": "ExteriorArea",
    "nameTextMapHash": 3999577022,
    "maxComfort": 999999999,
    "safePointStr": "332,396,701,0",
    "playerSafePointStr": "",
    "lowLoadLimit": 6000,
    "middleLoadLimit": 9900,
    "highLoadLimit": 10000,
    "areaCenterPos": [
      0,
      0,
      0
    ],
    "areaCenterRot": [
      0,
      0,
      0
    ],
    "blueprintImageAddr": "UI_Pic_HomeworldBlueprint_2002",
    "blueprintSlotNameTextMapHash": 2897901154,
    "blueprintSafePointStr": "343,396,700,0;345,396,700,0;347,396,700,0;347,396,701,0",
    "BEKEKECJBLF": "",
    "DEMMEEPEMLE": ""
  },
  {
    "configID": 6,
    "sceneID": 2002,
    "areaID": 2,
    "areaType": "ExteriorArea",
    "nameTextMapHash": 1169198886,
    "maxComfort": 999999999,
    "safePointStr": "376,411,572,-200",
    "playerSafePointStr": "",
    "lowLoadLimit": 6000,
    "middleLoadLimit": 9900,
    "highLoadLimit": 10000,
    "areaCenterPos": [
      0,
      0,
      0
    ],
    "areaCenterRot": [
      0,
      0,
      0
    ],
    "blueprintImageAddr": "UI_Pic_HomeworldBlueprint_2002",
    "blueprintSlotNameTextMapHash": 1995411786,
    "blueprintSafePointStr": "368,411,557,-200;368,411,559,-200;366,411,557,-200;366,411,559,-200",
    "BEKEKECJBLF": "",
    "DEMMEEPEMLE": ""
  },
  {
    "configID": 7,
    "sceneID": 2002,
    "areaID": 3,
    "areaType": "ExteriorArea",
    "nameTextMapHash": 3402759534,
    "maxComfort": 999999999,
    "safePointStr": "565,443,544,-266",
    "playerSafePointStr": "",
    "lowLoadLimit": 6000,
    "middleLoadLimit": 9900,
    "highLoadLimit": 10000,
    "areaCenterPos": [
      0,
      0,
      0
    ],
    "areaCenterRot": [
      0,
      0,
      0
    ],
    "blueprintImageAddr": "UI_Pic_HomeworldBlueprint_2002",
    "blueprintSlotNameTextMapHash": 3352675170,
    "blueprintSafePointStr": "568,443,528,-266;568,443,526,-266;567,443,530,-266;565,443,530,-266",
    "BEKEKECJBLF": "",
    "DEMMEEPEMLE": ""
  },
  {
    "configID": 8,
    "sceneID": 2002,
    "areaID": 4,
    "areaType": "ExteriorArea",
    "nameTextMapHash": 3388864206,
    "maxComfort": 999999999,
    "safePointStr": "540,460,475,-86",
    "playerSafePointStr": "",
    "lowLoadLimit": 6000,
    "middleLoadLimit": 9900,
    "highLoadLimit": 10000,
    "areaCenterPos": [
      0,
      0,
      0
    ],
    "areaCenterRot": [
      0,
      0,
      0
    ],
    "blueprintImageAddr": "UI_Pic_HomeworldBlueprint_2002",
    "blueprintSlotNameTextMapHash": 1772413226,
    "blueprintSafePointStr": "540,460,481,-86;542,460,481,-86;540,460,483,-86;542,460,483,-86",
    "BEKEKECJBLF": "",
    "DEMMEEPEMLE": ""
  },
  {
    "configID": 9,
    "sceneID": 2003,
    "areaID": 1,
    "areaType": "ExteriorArea",
    "nameTextMapHash": 3465021590,
    "maxComfort": 999999999,
    "safePointStr": "555,228,600,-60",
    "playerSafePointStr": "",
    "lowLoadLimit": 6000,
    "middleLoadLimit": 9900,
    "highLoadLimit": 10000,
    "areaCenterPos": [
      0,
      0,
      0
    ],
    "areaCenterRot": [
      0,
      0,
      0
    ],
    "blueprintImageAddr": "UI_Pic_HomeworldBlueprint_2003",
    "blueprintSlotNameTextMapHash": 2328394826,
    "blueprintSafePointStr": "559,229,608,-60;561,229,608,-60;563,229,608,-60;565,229,608,-60",
    "BEKEKECJBLF": "",
    "DEMMEEPEMLE": ""
  },
  {
    "configID": 10,
    "sceneID": 2003,
    "areaID": 2,
    "areaType": "ExteriorArea",
    "nameTextMapHash": 1440428438,
    "maxComfort": 999999999,
    "safePointStr": "266,201,487,60",
    "playerSafePointStr": "",
    "lowLoadLimit": 6000,
    "middleLoadLimit": 9900,
    "highLoadLimit": 10000,
    "areaCenterPos": [
      0,
      0,
      0
    ],
    "areaCenterRot": [
      0,
      0,
      0
    ],
    "blueprintImageAddr": "UI_Pic_HomeworldBlueprint_2003",
    "blueprintSlotNameTextMapHash": 513389162,
    "blueprintSafePointStr": "261,202,489,60;259,202,489,60;261,202,491,60;259,202,491,60",
    "BEKEKECJBLF": "",
    "DEMMEEPEMLE": ""
  },
  {
    "configID": 11,
    "sceneID": 2003,
    "areaID": 3,
    "areaType": "ExteriorArea",
    "nameTextMapHash": 2909790366,
    "maxComfort": 999999999,
    "safePointStr": "732,209,647,100",
    "playerSafePointStr": "",
    "lowLoadLimit": 6000,
    "middleLoadLimit": 9900,
    "highLoadLimit": 10000,
    "areaCenterPos": [
      0,
      0,
      0
    ],
    "areaCenterRot": [
      0,
      0,
      0
    ],
    "blueprintImageAddr": "UI_Pic_HomeworldBlueprint_2003",
    "blueprintSlotNameTextMapHash": 3944703914,
    "blueprintSafePointStr": "738,209,653,100;736,209,653,100;736,209,651,100;738,209,651,100",
    "BEKEKECJBLF": "",
    "DEMMEEPEMLE": ""
  },
  {
    "configID": 12,
    "sceneID": 2003,
    "areaID": 4,
    "areaType": "ExteriorArea",
    "nameTextMapHash": 1964826566,
    "maxComfort": 999999999,
    "safePointStr": "736,200,405,135",
    "playerSafePointStr": "",
    "lowLoadLimit": 6000,
    "middleLoadLimit": 9900,
    "highLoadLimit": 10000,
    "areaCenterPos": [
      0,
      0,
      0
    ],
    "areaCenterRot": [
      0,
      0,
      0
    ],
    "blueprintImageAddr": "UI_Pic_HomeworldBlueprint_2003",
    "blueprintSlotNameTextMapHash": 496891618,
    "blueprintSafePointStr": "733,201,402,135;731,201,402,135;729,201,402,135;727,201,402,135",
    "BEKEKECJBLF": "",
    "DEMMEEPEMLE": ""
  },
  {
    "configID": 13,
    "sceneID": 2201,
    "areaID": 1,
    "nameTextMapHash": 2421363822,
    "maxComfort": 999999999,
    "safePointStr": "-11,2.48,1.25,45",
    "playerSafePointStr": "-6.44,1.33,1.52",
    "lowLoadLimit": 6000,
    "middleLoadLimit": 9900,
    "highLoadLimit": 10000,
    "areaCenterPos": [
      0,
      0,
      0
    ],
    "areaCenterRot": [
      0,
      0,
      0
    ],
    "blueprintImageAddr": "UI_Pic_HomeworldBlueprint_2201",
    "blueprintSlotNameTextMapHash": 1821070658,
    "blueprintSafePointStr": "",
    "BEKEKECJBLF": "",
    "DEMMEEPEMLE": ""
  },
  {
    "configID": 14,
    "sceneID": 2201,
    "areaID": 2,
    "nameTextMapHash": 2633717782,
    "maxComfort": 999999999,
    "safePointStr": "-11,2.48,1.25,45",
    "playerSafePointStr": "-6.44,1.33,1.52",
    "lowLoadLimit": 2000,
    "middleLoadLimit": 3700,
    "highLoadLimit": 4000,
    "areaCenterPos": [
      -12.5,
      0,
      -5
    ],
    "areaCenterRot": [
      0,
      90,
      0
    ],
    "blueprintImageAddr": "UI_Pic_HomeworldBlueprint_2201",
    "blueprintSlotNameTextMapHash": 403408082,
    "blueprintSafePointStr": "",
    "BEKEKECJBLF": "",
    "DEMMEEPEMLE": ""
  },
  {
    "configID": 15,
    "sceneID": 2201,
    "areaID": 3,
    "nameTextMapHash": 1356966502,
    "maxComfort": 999999999,
    "safePointStr": "-11,2.48,1.25,45",
    "playerSafePointStr": "-6.44,1.33,1.52",
    "lowLoadLimit": 2000,
    "middleLoadLimit": 3700,
    "highLoadLimit": 4000,
    "areaCenterPos": [
      -5,
      0,
      -15
    ],
    "areaCenterRot": [
      0,
      0,
      0
    ],
    "blueprintImageAddr": "UI_Pic_HomeworldBlueprint_2201",
    "blueprintSlotNameTextMapHash": 2563175178,
    "blueprintSafePointStr": "",
    "BEKEKECJBLF": "",
    "DEMMEEPEMLE": ""
  },
  {
    "configID": 16,
    "sceneID": 2201,
    "areaID": 4,
    "nameTextMapHash": 2792877438,
    "maxComfort": 999999999,
    "safePointStr": "-11,2.48,1.25,45",
    "playerSafePointStr": "-6.44,1.33,1.52",
    "lowLoadLimit": 2000,
    "middleLoadLimit": 3700,
    "highLoadLimit": 4000,
    "areaCenterPos": [
      7.5,
      0,
      12.5
    ],
    "areaCenterRot": [
      0,
      90,
      0
    ],
    "blueprintImageAddr": "UI_Pic_HomeworldBlueprint_2201",
    "blueprintSlotNameTextMapHash": 3960133058,
    "blueprintSafePointStr": "",
    "BEKEKECJBLF": "",
    "DEMMEEPEMLE": ""
  },
  {
    "configID": 17,
    "sceneID": 2201,
    "areaID": 5,
    "nameTextMapHash": 34817542,
    "maxComfort": 999999999,
    "safePointStr": "-11,2.48,1.25,45",
    "playerSafePointStr": "-6.44,1.33,1.52",
    "lowLoadLimit": 6000,
    "middleLoadLimit": 9900,
    "highLoadLimit": 10000,
    "areaCenterPos": [
      0,
      5.3,
      0
    ],
    "areaCenterRot": [
      0,
      0,
      0
    ],
    "blueprintImageAddr": "UI_Pic_HomeworldBlueprint_2201",
    "blueprintSlotNameTextMapHash": 1418120890,
    "blueprintSafePointStr": "",
    "BEKEKECJBLF": "",
    "DEMMEEPEMLE": ""
  },
  {
    "configID": 18,
    "sceneID": 2201,
    "areaID": 6,
    "nameTextMapHash": 843684398,
    "maxComfort": 999999999,
    "safePointStr": "-11,2.48,1.25,45",
    "playerSafePointStr": "-6.44,1.33,1.52",
    "lowLoadLimit": 2000,
    "middleLoadLimit": 3700,
    "highLoadLimit": 4000,
    "areaCenterPos": [
      -12.5,
      5.3,
      -5
    ],
    "areaCenterRot": [
      0,
      90,
      0
    ],
    "blueprintImageAddr": "UI_Pic_HomeworldBlueprint_2201",
    "blueprintSlotNameTextMapHash": 1217802954,
    "blueprintSafePointStr": "",
    "BEKEKECJBLF": "",
    "DEMMEEPEMLE": ""
  },
  {
    "configID": 19,
    "sceneID": 2201,
    "areaID": 7,
    "nameTextMapHash": 118684254,
    "maxComfort": 999999999,
    "safePointStr": "-11,2.48,1.25,45",
    "playerSafePointStr": "-6.44,1.33,1.52",
    "lowLoadLimit": 2000,
    "middleLoadLimit": 3700,
    "highLoadLimit": 4000,
    "areaCenterPos": [
      5,
      5.3,
      15
    ],
    "areaCenterRot": [
      0,
      0,
      0
    ],
    "blueprintImageAddr": "UI_Pic_HomeworldBlueprint_2201",
    "blueprintSlotNameTextMapHash": 1421966346,
    "blueprintSafePointStr": "",
    "BEKEKECJBLF": "",
    "DEMMEEPEMLE": ""
  },
  {
    "configID": 20,
    "sceneID": 2202,
    "areaID": 1,
    "nameTextMapHash": 455370910,
    "maxComfort": 999999999,
    "safePointStr": "-6.57,3.47,14,135",
    "playerSafePointStr": "6.57,3.47,14",
    "lowLoadLimit": 6000,
    "middleLoadLimit": 9900,
    "highLoadLimit": 10000,
    "areaCenterPos": [
      0,
      0,
      0
    ],
    "areaCenterRot": [
      0,
      0,
      0
    ],
    "blueprintImageAddr": "UI_Pic_HomeworldBlueprint_2202",
    "blueprintSlotNameTextMapHash": 2248918026,
    "blueprintSafePointStr": "",
    "BEKEKECJBLF": "",
    "DEMMEEPEMLE": ""
  },
  {
    "configID": 21,
    "sceneID": 2202,
    "areaID": 2,
    "nameTextMapHash": 3604009326,
    "maxComfort": 999999999,
    "safePointStr": "-6.57,3.47,14,135",
    "playerSafePointStr": "6.57,3.47,14",
    "lowLoadLimit": 2000,
    "middleLoadLimit": 3700,
    "highLoadLimit": 4000,
    "areaCenterPos": [
      -12.5,
      0,
      -10
    ],
    "areaCenterRot": [
      0,
      0,
      0
    ],
    "blueprintImageAddr": "UI_Pic_HomeworldBlueprint_2202",
    "blueprintSlotNameTextMapHash": 270759506,
    "blueprintSafePointStr": "",
    "BEKEKECJBLF": "",
    "DEMMEEPEMLE": ""
  },
  {
    "configID": 22,
    "sceneID": 2202,
    "areaID": 3,
    "nameTextMapHash": 532086446,
    "maxComfort": 999999999,
    "safePointStr": "-6.57,3.47,14,135",
    "playerSafePointStr": "6.57,3.47,14",
    "lowLoadLimit": 2000,
    "middleLoadLimit": 3700,
    "highLoadLimit": 4000,
    "areaCenterPos": [
      -12.5,
      0,
      5
    ],
    "areaCenterRot": [
      0,
      -180,
      0
    ],
    "blueprintImageAddr": "UI_Pic_HomeworldBlueprint_2202",
    "blueprintSlotNameTextMapHash": 4176424978,
    "blueprintSafePointStr": "",
    "BEKEKECJBLF": "",
    "DEMMEEPEMLE": ""
  },
  {
    "configID": 23,
    "sceneID": 2202,
    "areaID": 4,
    "nameTextMapHash": 1262544822,
    "maxComfort": 999999999,
    "safePointStr": "-6.57,3.47,14,135",
    "playerSafePointStr": "6.57,3.47,14",
    "lowLoadLimit": 2000,
    "middleLoadLimit": 3700,
    "highLoadLimit": 4000,
    "areaCenterPos": [
      12.5,
      0,
      5
    ],
    "areaCenterRot": [
      0,
      -180,
      0
    ],
    "blueprintImageAddr": "UI_Pic_HomeworldBlueprint_2202",
    "blueprintSlotNameTextMapHash": 2441551274,
    "blueprintSafePointStr": "",
    "BEKEKECJBLF": "",
    "DEMMEEPEMLE": ""
  },
  {
    "configID": 24,
    "sceneID": 2202,
    "areaID": 5,
    "nameTextMapHash": 2999395758,
    "maxComfort": 999999999,
    "safePointStr": "-6.57,3.47,14,135",
    "playerSafePointStr": "6.57,3.47,14",
    "lowLoadLimit": 6000,
    "middleLoadLimit": 9900,
    "highLoadLimit": 10000,
    "areaCenterPos": [
      0,
      5.3,
      0
    ],
    "areaCenterRot": [
      0,
      0,
      0
    ],
    "blueprintImageAddr": "UI_Pic_HomeworldBlueprint_2202",
    "blueprintSlotNameTextMapHash": 877944538,
    "blueprintSafePointStr": "",
    "BEKEKECJBLF": "",
    "DEMMEEPEMLE": ""
  },
  {
    "configID": 25,
    "sceneID": 2202,
    "areaID": 6,
    "nameTextMapHash": 1900754486,
    "maxComfort": 999999999,
    "safePointStr": "-6.57,3.47,14,135",
    "playerSafePointStr": "6.57,3.47,14",
    "lowLoadLimit": 2000,
    "middleLoadLimit": 3700,
    "highLoadLimit": 4000,
    "areaCenterPos": [
      -17.5,
      5.3,
      0
    ],
    "areaCenterRot": [
      0,
      90,
      0
    ],
    "blueprintImageAddr": "UI_Pic_HomeworldBlueprint_2202",
    "blueprintSlotNameTextMapHash": 2392771626,
    "blueprintSafePointStr": "",
    "BEKEKECJBLF": "",
    "DEMMEEPEMLE": ""
  },
  {
    "configID": 26,
    "sceneID": 2202,
    "areaID": 7,
    "nameTextMapHash": 2387373446,
    "maxComfort": 999999999,
    "safePointStr": "-6.57,3.47,14,135",
    "playerSafePointStr": "6.57,3.47,14",
    "lowLoadLimit": 2000,
    "middleLoadLimit": 3700,
    "highLoadLimit": 4000,
    "areaCenterPos": [
      17.5,
      5.3,
      0
    ],
    "areaCenterRot": [
      0,
      90,
      0
    ],
    "blueprintImageAddr": "UI_Pic_HomeworldBlueprint_2202",
    "blueprintSlotNameTextMapHash": 2611250210,
    "blueprintSafePointStr": "",
    "BEKEKECJBLF": "",
    "DEMMEEPEMLE": ""
  },
  {
    "configID": 27,
    "sceneID": 2203,
    "areaID": 1,
    "nameTextMapHash": 665932590,
    "maxComfort": 999999999,
    "safePointStr": "-11.457,2.492,8.14,0",
    "playerSafePointStr": "-11.52,5.3,2.35",
    "lowLoadLimit": 6000,
    "middleLoadLimit": 9900,
    "highLoadLimit": 10000,
    "areaCenterPos": [
      2,
      0,
      0
    ],
    "areaCenterRot": [
      0,
      90,
      0
    ],
    "blueprintImageAddr": "UI_Pic_HomeworldBlueprint_2203",
    "blueprintSlotNameTextMapHash": 2333828586,
    "blueprintSafePointStr": "",
    "BEKEKECJBLF": "",
    "DEMMEEPEMLE": ""
  },
  {
    "configID": 28,
    "sceneID": 2203,
    "areaID": 2,
    "nameTextMapHash": 1383904654,
    "maxComfort": 999999999,
    "safePointStr": "-11.457,2.492,8.14,0",
    "playerSafePointStr": "-11.52,5.3,2.35",
    "lowLoadLimit": 2000,
    "middleLoadLimit": 3700,
    "highLoadLimit": 4000,
    "areaCenterPos": [
      2,
      0,
      10
    ],
    "areaCenterRot": [
      0,
      90,
      0
    ],
    "blueprintImageAddr": "UI_Pic_HomeworldBlueprint_2203",
    "blueprintSlotNameTextMapHash": 3905118194,
    "blueprintSafePointStr": "",
    "BEKEKECJBLF": "",
    "DEMMEEPEMLE": ""
  },
  {
    "configID": 29,
    "sceneID": 2203,
    "areaID": 3,
    "nameTextMapHash": 2986892806,
    "maxComfort": 999999999,
    "safePointStr": "-11.457,2.492,8.14,0",
    "playerSafePointStr": "-11.52,5.3,2.35",
    "lowLoadLimit": 2000,
    "middleLoadLimit": 3700,
    "highLoadLimit": 4000,
    "areaCenterPos": [
      -13,
      0,
      -5
    ],
    "areaCenterRot": [
      0,
      90,
      0
    ],
    "blueprintImageAddr": "UI_Pic_HomeworldBlueprint_2203",
    "blueprintSlotNameTextMapHash": 2175203298,
    "blueprintSafePointStr": "",
    "BEKEKECJBLF": "",
    "DEMMEEPEMLE": ""
  },
  {
    "configID": 30,
    "sceneID": 2203,
    "areaID": 4,
    "nameTextMapHash": 809877670,
    "maxComfort": 999999999,
    "safePointStr": "-11.457,2.492,8.14,0",
    "playerSafePointStr": "-11.52,5.3,2.35",
    "lowLoadLimit": 2000,
    "middleLoadLimit": 3700,
    "highLoadLimit": 4000,
    "areaCenterPos": [
      12,
      0,
      5
    ],
    "areaCenterRot": [
      0,
      -90,
      0
    ],
    "blueprintImageAddr": "UI_Pic_HomeworldBlueprint_2203",
    "blueprintSlotNameTextMapHash": 1672671682,
    "blueprintSafePointStr": "",
    "BEKEKECJBLF": "",
    "DEMMEEPEMLE": ""
  },
  {
    "configID": 31,
    "sceneID": 2203,
    "areaID": 5,
    "nameTextMapHash": 1965260846,
    "maxComfort": 999999999,
    "safePointStr": "-11.457,2.492,8.14,0",
    "playerSafePointStr": "-11.52,5.3,2.35",
    "lowLoadLimit": 6000,
    "middleLoadLimit": 9900,
    "highLoadLimit": 10000,
    "areaCenterPos": [
      -10.5,
      5.3,
      0
    ],
    "areaCenterRot": [
      0,
      -180,
      0
    ],
    "blueprintImageAddr": "UI_Pic_HomeworldBlueprint_2203",
    "blueprintSlotNameTextMapHash": 2743709562,
    "blueprintSafePointStr": "",
    "BEKEKECJBLF": "",
    "DEMMEEPEMLE": ""
  },
  {
    "configID": 32,
    "sceneID": 2203,
    "areaID": 6,
    "nameTextMapHash": 1818680606,
    "maxComfort": 999999999,
    "safePointStr": "-11.457,2.492,8.14,0",
    "playerSafePointStr": "-11.52,5.3,2.35",
    "lowLoadLimit": 2000,
    "middleLoadLimit": 3700,
    "highLoadLimit": 4000,
    "areaCenterPos": [
      -3,
      5.3,
      0
    ],
    "areaCenterRot": [
      0,
      -90,
      0
    ],
    "blueprintImageAddr": "UI_Pic_HomeworldBlueprint_2203",
    "blueprintSlotNameTextMapHash": 1704623706,
    "blueprintSafePointStr": "",
    "BEKEKECJBLF": "",
    "DEMMEEPEMLE": ""
  },
  {
    "configID": 33,
    "sceneID": 2203,
    "areaID": 7,
    "nameTextMapHash": 545661742,
    "maxComfort": 999999999,
    "safePointStr": "-11.457,2.492,8.14,0",
    "playerSafePointStr": "-11.52,5.3,2.35",
    "lowLoadLimit": 2000,
    "middleLoadLimit": 3700,
    "highLoadLimit": 4000,
    "areaCenterPos": [
      -18,
      5.3,
      -5
    ],
    "areaCenterRot": [
      0,
      90,
      0
    ],
    "blueprintImageAddr": "UI_Pic_HomeworldBlueprint_2203",
    "blueprintSlotNameTextMapHash": 1675137074,
    "blueprintSafePointStr": "",
    "BEKEKECJBLF": "",
    "DEMMEEPEMLE": ""
  },
  {
    "configID": 34,
    "sceneID": 2004,
    "areaID": 1,
    "areaType": "ExteriorArea",
    "nameTextMapHash": 3386554270,
    "maxComfort": 999999999,
    "safePointStr": "216.93,186.522,463.9,0",
    "playerSafePointStr": "",
    "lowLoadLimit": 6000,
    "middleLoadLimit": 9900,
    "highLoadLimit": 10000,
    "areaCenterPos": [
      0,
      0,
      0
    ],
    "areaCenterRot": [
      0,
      0,
      0
    ],
    "blueprintImageAddr": "UI_Pic_HomeworldBlueprint_2004",
    "blueprintSlotNameTextMapHash": 1640174074,
    "blueprintSafePointStr": "209,188,463,0;209,188,461,0;209,188,459,0;209,188,457,0",
    "BEKEKECJBLF": "",
    "DEMMEEPEMLE": ""
  },
  {
    "configID": 35,
    "sceneID": 2004,
    "areaID": 2,
    "areaType": "ExteriorArea",
    "nameTextMapHash": 2976163294,
    "maxComfort": 999999999,
    "safePointStr": "270.629,203.8919,375.064,0",
    "playerSafePointStr": "",
    "lowLoadLimit": 6000,
    "middleLoadLimit": 9900,
    "highLoadLimit": 10000,
    "areaCenterPos": [
      0,
      0,
      0
    ],
    "areaCenterRot": [
      0,
      0,
      0
    ],
    "blueprintImageAddr": "UI_Pic_HomeworldBlueprint_2004",
    "blueprintSlotNameTextMapHash": 1830890378,
    "blueprintSafePointStr": "275,204,380,0;275,204,382,0;275,204,384,0;275,204,386,0",
    "BEKEKECJBLF": "",
    "DEMMEEPEMLE": ""
  },
  {
    "configID": 36,
    "sceneID": 2004,
    "areaID": 3,
    "areaType": "ExteriorArea",
    "nameTextMapHash": 1031206534,
    "maxComfort": 999999999,
    "safePointStr": "522.392,192.5,557.753,0",
    "playerSafePointStr": "",
    "lowLoadLimit": 6000,
    "middleLoadLimit": 9900,
    "highLoadLimit": 10000,
    "areaCenterPos": [
      0,
      0,
      0
    ],
    "areaCenterRot": [
      0,
      0,
      0
    ],
    "blueprintImageAddr": "UI_Pic_HomeworldBlueprint_2004",
    "blueprintSlotNameTextMapHash": 3638149906,
    "blueprintSafePointStr": "516,193,555,0;518,193,555,0;516,193,557,0;518,193,557,0",
    "BEKEKECJBLF": "",
    "DEMMEEPEMLE": ""
  },
  {
    "configID": 37,
    "sceneID": 2004,
    "areaID": 4,
    "areaType": "ExteriorArea",
    "nameTextMapHash": 1328783958,
    "maxComfort": 999999999,
    "safePointStr": "661.269,203.5,718.153,0",
    "playerSafePointStr": "",
    "lowLoadLimit": 6000,
    "middleLoadLimit": 9900,
    "highLoadLimit": 10000,
    "areaCenterPos": [
      0,
      0,
      0
    ],
    "areaCenterRot": [
      0,
      0,
      0
    ],
    "blueprintImageAddr": "UI_Pic_HomeworldBlueprint_2004",
    "blueprintSlotNameTextMapHash": 3284743482,
    "blueprintSafePointStr": "657,204,715,0;657,204,713,0;657,204,717,0;657,204,711,0",
    "BEKEKECJBLF": "",
    "DEMMEEPEMLE": ""
  },
  {
    "configID": 38,
    "sceneID": 2005,
    "areaID": 1,
    "areaType": "ExteriorArea",
    "nameTextMapHash": 60822894,
    "maxComfort": 999999999,
    "safePointStr": "616,383,208,0",
    "playerSafePointStr": "",
    "lowLoadLimit": 6000,
    "middleLoadLimit": 9900,
    "highLoadLimit": 10000,
    "areaCenterPos": [
      0,
      0,
      0
    ],
    "areaCenterRot": [
      0,
      0,
      0
    ],
    "blueprintImageAddr": "UI_Pic_HomeworldBlueprint_2005",
    "blueprintSlotNameTextMapHash": 3635161314,
    "blueprintSafePointStr": "618,383,219,0;618,383,221,0;620,383,219,0;620,383,221,0",
    "BEKEKECJBLF": "",
    "DEMMEEPEMLE": ""
  },
  {
    "configID": 39,
    "sceneID": 2005,
    "areaID": 2,
    "areaType": "ExteriorArea",
    "nameTextMapHash": 1381699782,
    "maxComfort": 999999999,
    "safePointStr": "339,342,386,0",
    "playerSafePointStr": "",
    "lowLoadLimit": 6000,
    "middleLoadLimit": 9900,
    "highLoadLimit": 10000,
    "areaCenterPos": [
      0,
      0,
      0
    ],
    "areaCenterRot": [
      0,
      0,
      0
    ],
    "blueprintImageAddr": "UI_Pic_HomeworldBlueprint_2005",
    "blueprintSlotNameTextMapHash": 2326690194,
    "blueprintSafePointStr": "335,342,381,0;335,342,383,0;333,342,381,0;333,342,383,0",
    "BEKEKECJBLF": "",
    "DEMMEEPEMLE": ""
  },
  {
    "configID": 40,
    "sceneID": 2005,
    "areaID": 3,
    "areaType": "ExteriorArea",
    "nameTextMapHash": 2952160086,
    "maxComfort": 999999999,
    "safePointStr": "620,364,531,0",
    "playerSafePointStr": "",
    "lowLoadLimit": 6000,
    "middleLoadLimit": 9900,
    "highLoadLimit": 10000,
    "areaCenterPos": [
      0,
      0,
      0
    ],
    "areaCenterRot": [
      0,
      0,
      0
    ],
    "blueprintImageAddr": "UI_Pic_HomeworldBlueprint_2005",
    "blueprintSlotNameTextMapHash": 3032142578,
    "blueprintSafePointStr": "628,364,543,0;628,364,541,0;630,364,543,0;630,364,541,0",
    "BEKEKECJBLF": "",
    "DEMMEEPEMLE": ""
  },
  {
    "configID": 41,
    "sceneID": 2005,
    "areaID": 4,
    "areaType": "ExteriorArea",
    "nameTextMapHash": 2846500510,
    "maxComfort": 999999999,
    "safePointStr": "458,385,660,0",
    "playerSafePointStr": "",
    "lowLoadLimit": 6000,
    "middleLoadLimit": 9900,
    "highLoadLimit": 10000,
    "areaCenterPos": [
      0,
      0,
      0
    ],
    "areaCenterRot": [
      0,
      0,
      0
    ],
    "blueprintImageAddr": "UI_Pic_HomeworldBlueprint_2005",
    "blueprintSlotNameTextMapHash": 3192939378,
    "blueprintSafePointStr": "469,385,669,0;471,385,670,0;467,385,667,0;466,385,665,0",
    "BEKEKECJBLF": "",
    "DEMMEEPEMLE": ""
  },
  {
    "configID": 42,
    "sceneID": 2204,
    "areaID": 1,
    "nameTextMapHash": 2362051886,
    "maxComfort": 999999999,
    "safePointStr": "-11.325,3.819,13.572,0",
    "playerSafePointStr": "11.325,3.819,13.572",
    "lowLoadLimit": 6000,
    "middleLoadLimit": 9900,
    "highLoadLimit": 10000,
    "areaCenterPos": [
      0,
      0,
      2.5
    ],
    "areaCenterRot": [
      0,
      0,
      0
    ],
    "blueprintImageAddr": "UI_Pic_HomeworldBlueprint_2204",
    "blueprintSlotNameTextMapHash": 3492841514,
    "blueprintSafePointStr": "",
    "BEKEKECJBLF": "",
    "DEMMEEPEMLE": ""
  },
  {
    "configID": 43,
    "sceneID": 2204,
    "areaID": 2,
    "nameTextMapHash": 3751538446,
    "maxComfort": 999999999,
    "safePointStr": "-11.325,3.819,13.572,0",
    "playerSafePointStr": "11.325,3.819,13.572",
    "lowLoadLimit": 2000,
    "middleLoadLimit": 3700,
    "highLoadLimit": 4000,
    "areaCenterPos": [
      0,
      0,
      20.08
    ],
    "areaCenterRot": [
      0,
      0,
      0
    ],
    "blueprintImageAddr": "UI_Pic_HomeworldBlueprint_2204",
    "blueprintSlotNameTextMapHash": 4062089202,
    "blueprintSafePointStr": "",
    "BEKEKECJBLF": "",
    "DEMMEEPEMLE": ""
  },
  {
    "configID": 44,
    "sceneID": 2204,
    "areaID": 3,
    "nameTextMapHash": 296721758,
    "maxComfort": 999999999,
    "safePointStr": "-11.325,3.819,13.572,0",
    "playerSafePointStr": "11.325,3.819,13.572",
    "lowLoadLimit": 2000,
    "middleLoadLimit": 3700,
    "highLoadLimit": 4000,
    "areaCenterPos": [
      17.5,
      0,
      2.5
    ],
    "areaCenterRot": [
      0,
      90,
      0
    ],
    "blueprintImageAddr": "UI_Pic_HomeworldBlueprint_2204",
    "blueprintSlotNameTextMapHash": 491657274,
    "blueprintSafePointStr": "",
    "BEKEKECJBLF": "",
    "DEMMEEPEMLE": ""
  },
  {
    "configID": 45,
    "sceneID": 2204,
    "areaID": 4,
    "nameTextMapHash": 1373994374,
    "maxComfort": 999999999,
    "safePointStr": "-11.325,3.819,13.572,0",
    "playerSafePointStr": "11.325,3.819,13.572",
    "lowLoadLimit": 2000,
    "middleLoadLimit": 3700,
    "highLoadLimit": 4000,
    "areaCenterPos": [
      -17.5,
      0,
      2.5
    ],
    "areaCenterRot": [
      0,
      -90,
      0
    ],
    "blueprintImageAddr": "UI_Pic_HomeworldBlueprint_2204",
    "blueprintSlotNameTextMapHash": 2229318218,
    "blueprintSafePointStr": "",
    "BEKEKECJBLF": "",
    "DEMMEEPEMLE": ""
  },
  {
    "configID": 46,
    "sceneID": 2204,
    "areaID": 5,
    "nameTextMapHash": 1377140502,
    "maxComfort": 999999999,
    "safePointStr": "-11.325,3.819,13.572,0",
    "playerSafePointStr": "11.325,3.819,13.572",
    "lowLoadLimit": 6000,
    "middleLoadLimit": 9900,
    "highLoadLimit": 10000,
    "areaCenterPos": [
      0,
      5,
      2.5
    ],
    "areaCenterRot": [
      0,
      0,
      0
    ],
    "blueprintImageAddr": "UI_Pic_HomeworldBlueprint_2204",
    "blueprintSlotNameTextMapHash": 369713810,
    "blueprintSafePointStr": "",
    "BEKEKECJBLF": "",
    "DEMMEEPEMLE": ""
  },
  {
    "configID": 47,
    "sceneID": 2204,
    "areaID": 6,
    "nameTextMapHash": 1587229814,
    "maxComfort": 999999999,
    "safePointStr": "-11.325,3.819,13.572,0",
    "playerSafePointStr": "11.325,3.819,13.572",
    "lowLoadLimit": 2000,
    "middleLoadLimit": 3700,
    "highLoadLimit": 4000,
    "areaCenterPos": [
      17.5,
      5,
      2.5
    ],
    "areaCenterRot": [
      0,
      90,
      0
    ],
    "blueprintImageAddr": "UI_Pic_HomeworldBlueprint_2204",
    "blueprintSlotNameTextMapHash": 1444124610,
    "blueprintSafePointStr": "",
    "BEKEKECJBLF": "",
    "DEMMEEPEMLE": ""
  },
  {
    "configID": 48,
    "sceneID": 2204,
    "areaID": 7,
    "nameTextMapHash": 2672056382,
    "maxComfort": 999999999,
    "safePointStr": "-11.325,3.819,13.572,0",
    "playerSafePointStr": "11.325,3.819,13.572",
    "lowLoadLimit": 2000,
    "middleLoadLimit": 3700,
    "highLoadLimit": 4000,
    "areaCenterPos": [
      -17.5,
      5,
      2.5
    ],
    "areaCenterRot": [
      0,
      -90,
      0
    ],
    "blueprintImageAddr": "UI_Pic_HomeworldBlueprint_2204",
    "blueprintSlotNameTextMapHash": 3204931330,
    "blueprintSafePointStr": "",
    "BEKEKECJBLF": "",
    "DEMMEEPEMLE": ""
  },
  {
    "configID": 49,
    "sceneID": 2006,
    "areaID": 1,
    "areaType": "ExteriorArea",
    "nameTextMapHash": 3647187198,
    "maxComfort": 999999999,
    "safePointStr": "773,328,526,-141",
    "playerSafePointStr": "",
    "lowLoadLimit": 6000,
    "middleLoadLimit": 9900,
    "highLoadLimit": 10000,
    "areaCenterPos": [
      0,
      0,
      0
    ],
    "areaCenterRot": [
      0,
      0,
      0
    ],
    "blueprintImageAddr": "UI_Pic_HomeworldBlueprint_2006",
    "blueprintSlotNameTextMapHash": 505939218,
    "blueprintSafePointStr": "787,329,525,-137;785,328,526,-132;783,328,527,-127;781,328,528,-132",
    "BEKEKECJBLF": "Data/Environment/EnviroSystemProfile/Homeworld/ESP_HomeExterior_Fd_A",
    "DEMMEEPEMLE": "Data/Environment/Weather/Homeworld/Weather_ClearSky_HomeExterior_A"
  },
  {
    "configID": 50,
    "sceneID": 2006,
    "areaID": 2,
    "areaType": "ExteriorArea",
    "nameTextMapHash": 3000186198,
    "maxComfort": 999999999,
    "safePointStr": "849,313,652,-55",
    "playerSafePointStr": "",
    "lowLoadLimit": 6000,
    "middleLoadLimit": 9900,
    "highLoadLimit": 10000,
    "areaCenterPos": [
      0,
      0,
      0
    ],
    "areaCenterRot": [
      0,
      0,
      0
    ],
    "blueprintImageAddr": "UI_Pic_HomeworldBlueprint_2006",
    "blueprintSlotNameTextMapHash": 936286898,
    "blueprintSafePointStr": "818,312,633,-5;816,312,633,9;814,312,633,-17;811,312,633,9",
    "BEKEKECJBLF": "Data/Environment/EnviroSystemProfile/Homeworld/ESP_HomeExterior_Fd_A",
    "DEMMEEPEMLE": "Data/Environment/Weather/Homeworld/Weather_ClearSky_HomeExterior_A"
  },
  {
    "configID": 51,
    "sceneID": 2006,
    "areaID": 3,
    "areaType": "ExteriorArea",
    "nameTextMapHash": 2610224270,
    "maxComfort": 999999999,
    "safePointStr": "523,370,766,-93",
    "playerSafePointStr": "",
    "lowLoadLimit": 6000,
    "middleLoadLimit": 9900,
    "highLoadLimit": 10000,
    "areaCenterPos": [
      0,
      0,
      0
    ],
    "areaCenterRot": [
      0,
      0,
      0
    ],
    "blueprintImageAddr": "UI_Pic_HomeworldBlueprint_2006",
    "blueprintSlotNameTextMapHash": 1776260426,
    "blueprintSafePointStr": "523,370,773,-120;522,370,775,-129;520,370,777,-95;519,370,778,-118",
    "BEKEKECJBLF": "Data/Environment/EnviroSystemProfile/Homeworld/ESP_HomeExterior_Fd_B",
    "DEMMEEPEMLE": "Data/Environment/Weather/Homeworld/Weather_ClearSky_HomeExterior_B"
  },
  {
    "configID": 52,
    "sceneID": 2006,
    "areaID": 4,
    "areaType": "ExteriorArea",
    "nameTextMapHash": 542827566,
    "maxComfort": 999999999,
    "safePointStr": "299,466,487,53",
    "playerSafePointStr": "",
    "lowLoadLimit": 6000,
    "middleLoadLimit": 9900,
    "highLoadLimit": 10000,
    "areaCenterPos": [
      0,
      0,
      0
    ],
    "areaCenterRot": [
      0,
      0,
      0
    ],
    "blueprintImageAddr": "UI_Pic_HomeworldBlueprint_2006",
    "blueprintSlotNameTextMapHash": 2157237554,
    "blueprintSafePointStr": "298,466,534,84;299,466,533,105;300,466,530,99;300,466,527,97",
    "BEKEKECJBLF": "Data/Environment/EnviroSystemProfile/Homeworld/ESP_HomeExterior_Fd_C",
    "DEMMEEPEMLE": "Data/Environment/Weather/Homeworld/Weather_ClearSky_HomeExterior_C"
  },
  {
    "configID": 53,
    "sceneID": 2205,
    "areaID": 1,
    "nameTextMapHash": 750233358,
    "maxComfort": 999999999,
    "safePointStr": "-11.325,3.819,13.572,0",
    "playerSafePointStr": "11.325,3.819,13.572",
    "lowLoadLimit": 6000,
    "middleLoadLimit": 9900,
    "highLoadLimit": 10000,
    "areaCenterPos": [
      0,
      0,
      2.5
    ],
    "areaCenterRot": [
      0,
      0,
      0
    ],
    "blueprintImageAddr": "UI_Pic_HomeworldBlueprint_2205",
    "blueprintSlotNameTextMapHash": 2422958314,
    "blueprintSafePointStr": "",
    "BEKEKECJBLF": "",
    "DEMMEEPEMLE": ""
  },
  {
    "configID": 54,
    "sceneID": 2205,
    "areaID": 2,
    "nameTextMapHash": 2783187350,
    "maxComfort": 999999999,
    "safePointStr": "-11.325,3.819,13.572,0",
    "playerSafePointStr": "11.325,3.819,13.572",
    "lowLoadLimit": 2000,
    "middleLoadLimit": 3700,
    "highLoadLimit": 4000,
    "areaCenterPos": [
      0,
      0,
      20.08
    ],
    "areaCenterRot": [
      0,
      0,
      0
    ],
    "blueprintImageAddr": "UI_Pic_HomeworldBlueprint_2205",
    "blueprintSlotNameTextMapHash": 4019183786,
    "blueprintSafePointStr": "",
    "BEKEKECJBLF": "",
    "DEMMEEPEMLE": ""
  },
  {
    "configID": 55,
    "sceneID": 2205,
    "areaID": 3,
    "nameTextMapHash": 1532124070,
    "maxComfort": 999999999,
    "safePointStr": "-11.325,3.819,13.572,0",
    "playerSafePointStr": "11.325,3.819,13.572",
    "lowLoadLimit": 2000,
    "middleLoadLimit": 3700,
    "highLoadLimit": 4000,
    "areaCenterPos": [
      17.5,
      0,
      2.5
    ],
    "areaCenterRot": [
      0,
      90,
      0
    ],
    "blueprintImageAddr": "UI_Pic_HomeworldBlueprint_2205",
    "blueprintSlotNameTextMapHash": 2736849554,
    "blueprintSafePointStr": "",
    "BEKEKECJBLF": "",
    "DEMMEEPEMLE": ""
  },
  {
    "configID": 56,
    "sceneID": 2205,
    "areaID": 4,
    "nameTextMapHash": 2372374798,
    "maxComfort": 999999999,
    "safePointStr": "-11.325,3.819,13.572,0",
    "playerSafePointStr": "11.325,3.819,13.572",
    "lowLoadLimit": 2000,
    "middleLoadLimit": 3700,
    "highLoadLimit": 4000,
    "areaCenterPos": [
      -17.5,
      0,
      2.5
    ],
    "areaCenterRot": [
      0,
      -90,
      0
    ],
    "blueprintImageAddr": "UI_Pic_HomeworldBlueprint_2205",
    "blueprintSlotNameTextMapHash": 887013842,
    "blueprintSafePointStr": "",
    "BEKEKECJBLF": "",
    "DEMMEEPEMLE": ""
  },
  {
    "configID": 57,
    "sceneID": 2205,
    "areaID": 5,
    "nameTextMapHash": 2955936558,
    "maxComfort": 999999999,
    "safePointStr": "-11.325,3.819,13.572,0",
    "playerSafePointStr": "11.325,3.819,13.572",
    "lowLoadLimit": 6000,
    "middleLoadLimit": 9900,
    "highLoadLimit": 10000,
    "areaCenterPos": [
      0,
      5,
      2.5
    ],
    "areaCenterRot": [
      0,
      0,
      0
    ],
    "blueprintImageAddr": "UI_Pic_HomeworldBlueprint_2205",
    "blueprintSlotNameTextMapHash": 4070258194,
    "blueprintSafePointStr": "",
    "BEKEKECJBLF": "",
    "DEMMEEPEMLE": ""
  },
  {
    "configID": 58,
    "sceneID": 2205,
    "areaID": 6,
    "nameTextMapHash": 4071019262,
    "maxComfort": 999999999,
    "safePointStr": "-11.325,3.819,13.572,0",
    "playerSafePointStr": "11.325,3.819,13.572",
    "lowLoadLimit": 2000,
    "middleLoadLimit": 3700,
    "highLoadLimit": 4000,
    "areaCenterPos": [
      17.5,
      5,
      2.5
    ],
    "areaCenterRot": [
      0,
      90,
      0
    ],
    "blueprintImageAddr": "UI_Pic_HomeworldBlueprint_2205",
    "blueprintSlotNameTextMapHash": 1545453146,
    "blueprintSafePointStr": "",
    "BEKEKECJBLF": "",
    "DEMMEEPEMLE": ""
  },
  {
    "configID": 59,
    "sceneID": 2205,
    "areaID": 7,
    "nameTextMapHash": 3334443558,
    "maxComfort": 999999999,
    "safePointStr": "-11.325,3.819,13.572,0",
    "playerSafePointStr": "11.325,3.819,13.572",
    "lowLoadLimit": 2000,
    "middleLoadLimit": 3700,
    "highLoadLimit": 4000,
    "areaCenterPos": [
      -17.5,
      5,
      2.5
    ],
    "areaCenterRot": [
      0,
      -90,
      0
    ],
    "blueprintImageAddr": "UI_Pic_HomeworldBlueprint_2205",
    "blueprintSlotNameTextMapHash": 1552939442,
    "blueprintSafePointStr": "",
    "BEKEKECJBLF": "",
    "DEMMEEPEMLE": ""
  }
]