[
  {
    "itemID": 1,
    "itemNameTextMapHash": 2935135922,
    "PKPOCLFFMKO": 962672114,
    "CJNGDKOEJIM": 18194644516723905860
  },
  {
    "itemID": 2,
    "itemNameTextMapHash": 3032926026,
    "PKPOCLFFMKO": 2491017858,
    "CJNGDKOEJIM": 8360154787007828256
  },
  {
    "itemID": 3,
    "itemNameTextMapHash": 4003496658,
    "PKPOCLFFMKO": 3655945650,
    "CJNGDKOEJIM": 17552543411085153780
  },
  {
    "itemID": 4,
    "itemNameTextMapHash": 779860386,
    "PKPOCLFFMKO": 2891629538,
    "CJNGDKOEJIM": 6653134088870228032
  },
  {
    "itemID": 5,
    "itemNameTextMapHash": 976618506,
    "PKPOCLFFMKO": 4289117962,
    "CJNGDKOEJIM": 14473379779269265731
  },
  {
    "itemID": 6,
    "itemNameTextMapHash": 1881682698,
    "PKPOCLFFMKO": 554989002,
    "CJNGDKOEJIM": 11698295391089569229
  },
  {
    "itemID": 7,
    "itemNameTextMapHash": 1648820162,
    "PKPOCLFFMKO": 2466197738,
    "CJNGDKOEJIM": 3886555756356686555
  },
  {
    "itemID": 8,
    "itemNameTextMapHash": 1529405066,
    "PKPOCLFFMKO": 2676733882,
    "CJNGDKOEJIM": 13216195400190417080
  }
]