[
  {
    "id": 1,
    "dungeonID": 3050,
    "perfabPath": "ART/UI/Menus/Activity/BrickBreaker/BrickBreakerDungeonLoadingDialog"
  },
  {
    "id": 2,
    "dungeonID": 3051,
    "perfabPath": "ART/UI/Menus/Activity/BrickBreaker/BrickBreakerDungeonLoadingDialog"
  },
  {
    "id": 3,
    "dungeonID": 3052,
    "perfabPath": "ART/UI/Menus/Activity/BrickBreaker/BrickBreakerDungeonLoadingDialog"
  },
  {
    "id": 4,
    "enterReason": 100,
    "perfabPath": "ART/UI/Menus/Dialog/FlightVehicleLoadingDialog"
  },
  {
    "id": 5,
    "enterReason": 101,
    "perfabPath": "ART/UI/Menus/Dialog/FlightVehicleLoadingDialog"
  },
  {
    "id": 6,
    "enterReason": 104,
    "perfabPath": "ART/UI/Menus/Dialog/FlightVehicleLoadingDialog"
  },
  {
    "id": 7,
    "dungeonID": 8901,
    "perfabPath": "ART/UI/Menus/Activity/UGCV2/UGC_LoadingDialog"
  },
  {
    "id": 8,
    "dungeonID": 8902,
    "perfabPath": "ART/UI/Menus/Activity/UGCV2/UGC_LoadingDialog"
  },
  {
    "id": 9,
    "enterReason": 107,
    "perfabPath": "ART/UI/Menus/Activity/UGCV2/UGC_LoadingDialog"
  },
  {
    "id": 10,
    "enterReason": 106,
    "perfabPath": "ART/UI/Menus/Activity/UGCV2/UGC_LoadingDialog"
  },
  {
    "id": 11,
    "enterReason": 105,
    "perfabPath": "ART/UI/Menus/Activity/UGCV2/UGC_LoadingDialog"
  }
]