[
  {
    "instrumentID": 1,
    "KCHJCIJDMKD": "INSTRUMENT_HARP",
    "widgetID": 220025,
    "MLJIENLBHCB": 5,
    "performID": 301,
    "singleNoteAudioEvent": "Play_ui_activity_musicgame_btn_Harp",
    "longPressNoteHeadAudioEvent": "Play_ui_activity_musicgame_btn_Harp_Hold",
    "longPressNoteTailAudioEvent": "Play_ui_activity_musicgame_btn_Harp_Release",
    "freeModePerfabPath": "InLevelMusicPage"
  },
  {
    "instrumentID": 2,
    "KCHJCIJDMKD": "INSTRUMENT_SHAMISEN",
    "widgetID": 220044,
    "MLJIENLBHCB": 6,
    "performID": 302,
    "singleNoteAudioEvent": "Play_ui_activity_musicgame_btn_Shamisen",
    "longPressNoteHeadAudioEvent": "Play_ui_activity_musicgame_btn_Shamisen_Hold",
    "longPressNoteTailAudioEvent": "Play_ui_activity_musicgame_btn_Shamisen_Release",
    "freeModePerfabPath": "InLevelMusicPage_Brown"
  },
  {
    "instrumentID": 3,
    "KCHJCIJDMKD": "INSTRUMENT_DRUM",
    "widgetID": 220051,
    "MLJIENLBHCB": 7,
    "performID": 303,
    "singleNoteAudioEvent": "Play_ui_activity_musicgame_btn_Drum",
    "longPressNoteHeadAudioEvent": "Play_ui_activity_musicgame_btn_Drum_Hold",
    "longPressNoteTailAudioEvent": "Play_ui_activity_musicgame_btn_Drum_Release",
    "freeModePerfabPath": "InLevelDrumPage"
  },
  {
    "instrumentID": 4,
    "KCHJCIJDMKD": "INSTRUMENT_KANUN",
    "widgetID": 220066,
    "MLJIENLBHCB": 5,
    "performID": 301,
    "singleNoteAudioEvent": "",
    "longPressNoteHeadAudioEvent": "",
    "longPressNoteTailAudioEvent": "",
    "freeModePerfabPath": "InLevelMusicPage_Aranara"
  },
  {
    "instrumentID": 5,
    "KCHJCIJDMKD": "INSTRUMENT_DRUM",
    "widgetID": 220078,
    "MLJIENLBHCB": 7,
    "performID": 303,
    "singleNoteAudioEvent": "Play_ui_activity_musicgame_btn_Drum",
    "longPressNoteHeadAudioEvent": "Play_ui_activity_musicgame_btn_Drum_Hold",
    "longPressNoteTailAudioEvent": "Play_ui_activity_musicgame_btn_Drum_Release",
    "freeModePerfabPath": "InLevelDrumPage"
  },
  {
    "instrumentID": 6,
    "KCHJCIJDMKD": "INSTRUMENT_FRENCHHORN",
    "widgetID": 220097,
    "MLJIENLBHCB": 8,
    "performID": 304,
    "singleNoteAudioEvent": "Play_UI_activity_musicgame_btn_Horn",
    "longPressNoteHeadAudioEvent": "Play_UI_activity_musicgame_btn_Horn",
    "longPressNoteTailAudioEvent": "Play_UI_activity_musicgame_btn_Horn_Release",
    "freeModePerfabPath": "InLevelMusicPage_Frenchhorn"
  }
]