[
  {
    "scheduleId": 2002001,
    "condId": 2002164,
    "watcherIdList": [],
    "avatarRewardList": [
      3008001,
      3008006,
      3008002,
      3008004,
      3008003,
      3008005
    ],
    "trialAvatarIdList": [],
    "descTextMapHash": 4093489151,
    "costItemIdList": [
      115
    ],
    "costItemNumList": [
      1000
    ]
  },
  {
    "scheduleId": 2004001,
    "condId": 2004014,
    "watcherIdList": [],
    "avatarRewardList": [
      3015401
    ],
    "trialAvatarIdList": [],
    "descTextMapHash": 4209415871,
    "costItemIdList": [
      122
    ],
    "costItemNumList": [
      1000
    ]
  },
  {
    "scheduleId": 2006001,
    "condId": 2006111,
    "watcherIdList": [],
    "avatarRewardList": [
      3020001
    ],
    "trialAvatarIdList": [],
    "descTextMapHash": 2565587871,
    "costItemIdList": [
      127,
      128
    ],
    "costItemNumList": [
      1000,
      1000
    ]
  },
  {
    "scheduleId": 2008001,
    "condId": 2008009,
    "watcherIdList": [
      2008018
    ],
    "avatarRewardList": [
      3025001
    ],
    "trialAvatarIdList": [],
    "descTextMapHash": 3129338567,
    "costItemIdList": [
      134
    ],
    "costItemNumList": [
      1000
    ]
  },
  {
    "scheduleId": 2010001,
    "condId": 2010007,
    "watcherIdList": [],
    "avatarRewardList": [
      3035001,
      3035002,
      3035003,
      3035004,
      3035005,
      3035006,
      3035007,
      3035008
    ],
    "trialAvatarIdList": [],
    "descTextMapHash": 1068450767,
    "costItemIdList": [
      137,
      139
    ],
    "costItemNumList": [
      1000,
      1000
    ]
  },
  {
    "scheduleId": 2012001,
    "condId": 2012120,
    "watcherIdList": [
      12012103,
      12012235,
      12012234,
      12012304
    ],
    "avatarRewardList": [
      3042001
    ],
    "trialAvatarIdList": [],
    "descTextMapHash": 1443525671,
    "costItemIdList": [],
    "costItemNumList": []
  },
  {
    "scheduleId": 2014001,
    "condId": 2014002,
    "watcherIdList": [
      12014501
    ],
    "avatarRewardList": [
      3047001
    ],
    "trialAvatarIdList": [],
    "descTextMapHash": 2555517879,
    "costItemIdList": [],
    "costItemNumList": []
  },
  {
    "scheduleId": 2017001,
    "condId": 2017502,
    "watcherIdList": [],
    "avatarRewardList": [
      3058001
    ],
    "trialAvatarIdList": [],
    "descTextMapHash": 1254380255,
    "costItemIdList": [
      151,
      152
    ],
    "costItemNumList": [
      1000,
      1000
    ]
  },
  {
    "scheduleId": 2019001,
    "condId": 2019001,
    "watcherIdList": [
      1201904
    ],
    "avatarRewardList": [
      3065001,
      3065002,
      3065003,
      3065004,
      3065005,
      3065006,
      3065007,
      3065008,
      3065009
    ],
    "trialAvatarIdList": [],
    "descTextMapHash": 522775383,
    "costItemIdList": [],
    "costItemNumList": []
  },
  {
    "scheduleId": 2021001,
    "condId": 2021007,
    "watcherIdList": [
      12021001
    ],
    "avatarRewardList": [
      3068106
    ],
    "trialAvatarIdList": [],
    "descTextMapHash": 1791666775,
    "costItemIdList": [],
    "costItemNumList": []
  },
  {
    "scheduleId": 2023001,
    "condId": 2023001,
    "watcherIdList": [
      12023004
    ],
    "avatarRewardList": [
      3075001
    ],
    "trialAvatarIdList": [],
    "descTextMapHash": 953870831,
    "costItemIdList": [],
    "costItemNumList": []
  },
  {
    "scheduleId": 2024001,
    "condId": 2024013,
    "watcherIdList": [
      12024201
    ],
    "avatarRewardList": [
      3078001
    ],
    "trialAvatarIdList": [
      6046
    ],
    "descTextMapHash": 1121427567,
    "costItemIdList": [],
    "costItemNumList": []
  },
  {
    "scheduleId": 2026001,
    "condId": 2026001,
    "watcherIdList": [
      12026401
    ],
    "avatarRewardList": [
      3085001
    ],
    "trialAvatarIdList": [
      6069
    ],
    "descTextMapHash": 1829736111,
    "costItemIdList": [],
    "costItemNumList": []
  },
  {
    "scheduleId": 2028001,
    "condId": 2028001,
    "watcherIdList": [
      12028904
    ],
    "avatarRewardList": [
      3094001,
      3094002,
      3094003,
      3094004,
      3094005,
      3094006,
      3094007,
      3094008,
      3094009,
      3094010
    ],
    "trialAvatarIdList": [],
    "descTextMapHash": 449387327,
    "costItemIdList": [],
    "costItemNumList": []
  },
  {
    "scheduleId": 2030001,
    "condId": 2030001,
    "watcherIdList": [
      12030006
    ],
    "avatarRewardList": [
      3100001
    ],
    "trialAvatarIdList": [
      6040
    ],
    "descTextMapHash": 3906938983,
    "costItemIdList": [],
    "costItemNumList": []
  }
]