[
  {
    "offeringId": 1,
    "openState": "OPEN_STATE_SNOW_MOUNTAIN_ELDER_TREE",
    "itemLimit": "ITEM_LIMIT_SNOW_MOUNTAIN_TREE_LEVEL",
    "maxLevelLimitType": "OFFERING_MAX_LEVEL_LIMIT_NORMAL"
  },
  {
    "offeringId": 2,
    "openState": "OPEN_STATE_ORAIONOKAMI",
    "itemLimit": "ITEM_LIMIT_EXPLORATION_LINE_LEVEL_REWARD",
    "isContinuousLevelUp": true,
    "maxLevelLimitType": "OFFERING_MAX_LEVEL_LIMIT_NORMAL"
  },
  {
    "offeringId": 3,
    "openState": "OPEN_STATE_LUMEN_STONE",
    "itemLimit": "ITEM_LIMIT_LUMEN_STONE_LEVEL",
    "maxLevelLimitType": "OFFERING_MAX_LEVEL_LIMIT_NORMAL",
    "isAllowHostInMpMode": true
  },
  {
    "offeringId": 4,
    "openState": "OPEN_STATE_MICHIAE_CASKET",
    "itemLimit": "ITEM_LIMIT_ACTIVITY_MICHIAE_MATSURI",
    "maxLevelLimitType": "OFFERING_MAX_LEVEL_LIMIT_MICHIAE",
    "activityId": 2011,
    "isAllowHostInMpMode": true
  },
  {
    "offeringId": 5,
    "openState": "OPEN_STATE_VANASARA",
    "itemLimit": "ITEM_LIMIT_EXPLORATION_LINE_LEVEL_REWARD",
    "isContinuousLevelUp": true,
    "maxLevelLimitType": "OFFERING_MAX_LEVEL_LIMIT_NORMAL"
  },
  {
    "offeringId": 6,
    "openState": "OPEN_STATE_OFFERINGPARI",
    "itemLimit": "ITEM_LIMIT_OFFERING_PARI_LEVEL",
    "maxLevelLimitType": "OFFERING_MAX_LEVEL_LIMIT_NORMAL",
    "pushTipID": 13040
  },
  {
    "offeringId": 7,
    "openState": "OPEN_STATE_WISHINGPOND",
    "itemLimit": "ITEM_LIMIT_EXPLORATION_LINE_LEVEL_REWARD",
    "isContinuousLevelUp": true,
    "maxLevelLimitType": "OFFERING_MAX_LEVEL_LIMIT_NORMAL",
    "pushTipID": 13110,
    "scenePointID": 980
  },
  {
    "offeringId": 8,
    "openState": "OPEN_STATE_SILONG",
    "itemLimit": "ITEM_LIMIT_SILONG",
    "isContinuousLevelUp": true,
    "maxLevelLimitType": "OFFERING_MAX_LEVEL_LIMIT_NORMAL",
    "pushTipID": 13263
  }
]