[
  {
    "taskId": 10001,
    "sceneID": 3,
    "centerX": -443.4528,
    "centerY": 247,
    "centerZ": 508,
    "radius": 10,
    "targetGadgetID": [
      "Q11200_Player",
      "Q1120201NPC",
      "Q11200Chenxiang",
      "Q1120201Chenxiang"
    ],
    "endTime": 24,
    "questid": 4133302,
    "finishTipsTextMapHash": 2052324292,
    "startTipsTextMapHash": 3858495521
  },
  {
    "taskId": 10002,
    "sceneID": 3,
    "centerX": -232.304,
    "centerY": 266.402,
    "centerZ": 219.5348,
    "radius": 10,
    "targetGadgetID": [
      "Npc1627Born",
      "Q4131218Player",
      "Q4131218Player",
      "Q4131218JiaYi"
    ],
    "endTime": 24,
    "questid": 4133303,
    "finishTipsTextMapHash": 2301631540,
    "startTipsTextMapHash": 3885144089
  },
  {
    "taskId": 10003,
    "sceneID": 3,
    "centerX": 1569.551,
    "centerY": 334.8748,
    "centerZ": -2019.854,
    "radius": 10,
    "targetGadgetID": [
      "Q19069PhotoVowShore1",
      "Q19069PhotoVowShore2",
      "Q19069PhotoVowShore3",
      "Q19069PhotoVowShore4"
    ],
    "endTime": 24,
    "questid": 1906904,
    "finishTipsTextMapHash": 3910992500,
    "startTipsTextMapHash": 4207093169
  },
  {
    "taskId": 10004,
    "sceneID": 3,
    "centerX": 2636.564,
    "centerY": 380.8635,
    "centerZ": -1731.742,
    "radius": 10,
    "targetGadgetID": [
      "Q19069PhotoStarP1",
      "Q19069PhotoStarP2",
      "Q19069PhotoStarP3",
      "Q19069PhotoStarP4"
    ],
    "startTime": 19,
    "endTime": 24,
    "questid": 1906906,
    "finishTipsTextMapHash": 600927172,
    "startTipsTextMapHash": 3331058913
  },
  {
    "taskId": 10005,
    "sceneID": 3,
    "centerX": 1919.914,
    "centerY": 196.7635,
    "centerZ": -1310.843,
    "radius": 10,
    "targetGadgetID": [
      "Q19069PhotoWindP1",
      "Q19069PhotoWindP2",
      "Q19069PhotoWindP3",
      "Q19069PhotoWindP4"
    ],
    "endTime": 24,
    "questid": 1906912,
    "finishTipsTextMapHash": 1304186460,
    "startTipsTextMapHash": 923488681
  },
  {
    "taskId": 10006,
    "sceneID": 3,
    "centerX": 2228.511,
    "centerY": 209.99,
    "centerZ": -936.7253,
    "radius": 10,
    "targetGadgetID": [
      "Q7000002phonto1",
      "Q7000002phonto2",
      "Q7000002phonto3",
      "Q7000002phonto4"
    ],
    "endTime": 24,
    "questid": 7000002,
    "finishTipsTextMapHash": 611180996,
    "startTipsTextMapHash": 419891057
  },
  {
    "taskId": 10007,
    "sceneID": 3,
    "centerX": 2312.251,
    "centerY": 249.9899,
    "centerZ": -768.9196,
    "radius": 15,
    "targetGadgetID": [
      "Q7000003phonto1",
      "Q7000003phonto2",
      "Q7000003phonto3",
      "Q7000003phonto4"
    ],
    "endTime": 24,
    "questid": 7000003,
    "finishTipsTextMapHash": 2831265724,
    "startTipsTextMapHash": 160095129
  },
  {
    "taskId": 10008,
    "sceneID": 3,
    "centerX": 2243.584,
    "centerY": 209.99,
    "centerZ": -932.4507,
    "radius": 10,
    "targetGadgetID": [
      "Q7000004phonto1",
      "Q7000004phonto2",
      "Q7000004phonto3",
      "Q7000004phonto4"
    ],
    "endTime": 24,
    "questid": 7000004,
    "finishTipsTextMapHash": 96133236,
    "startTipsTextMapHash": 2309351273
  },
  {
    "taskId": 10009,
    "sceneID": 3,
    "centerX": 1315.828,
    "centerY": 292.0868,
    "centerZ": -1030.151,
    "radius": 10,
    "targetGadgetID": [
      "Q70010PhotoTree1",
      "Q70010PhotoTree2",
      "Q70010PhotoTree3",
      "Q70010PhotoTree4"
    ],
    "endTime": 24,
    "questid": 7001004,
    "finishTipsTextMapHash": 1854818796,
    "startTipsTextMapHash": 1793355809
  },
  {
    "taskId": 10010,
    "sceneID": 3,
    "centerX": 1157.569,
    "centerY": 407.8387,
    "centerZ": -1004.102,
    "radius": 10,
    "targetGadgetID": [
      "Q70010PhotoStatue1",
      "Q70010PhotoStatue2",
      "Q70010PhotoStatue3",
      "Q70010PhotoStatue4"
    ],
    "endTime": 24,
    "questid": 7001005,
    "finishTipsTextMapHash": 1827682436,
    "startTipsTextMapHash": 2493338161
  },
  {
    "taskId": 10011,
    "sceneID": 4,
    "centerX": -688.517,
    "centerY": 136.3259,
    "centerZ": -154.018,
    "radius": 10,
    "targetGadgetID": [
      "q7900405photo1",
      "q7900405photo2",
      "q7900405photo3",
      "q7900405photo4"
    ],
    "endTime": 24,
    "questid": 7900405,
    "finishTipsTextMapHash": 528656508,
    "startTipsTextMapHash": 3655326489
  },
  {
    "taskId": 10012,
    "sceneID": 4,
    "centerX": 187.8626,
    "centerY": 131.633,
    "centerZ": 320.7514,
    "radius": 10,
    "targetGadgetID": [
      "q7900406photo1",
      "q7900406photo2",
      "q7900406photo3",
      "q7900406photo4"
    ],
    "endTime": 24,
    "questid": 7900406,
    "finishTipsTextMapHash": 443362572,
    "startTipsTextMapHash": 1774729569
  },
  {
    "taskId": 10013,
    "sceneID": 4,
    "centerX": 431.9523,
    "centerY": 135.3641,
    "centerZ": -467.7543,
    "radius": 10,
    "targetGadgetID": [
      "q7900408photo1",
      "q7900408photo2",
      "q7900408photo3",
      "q7900408photo4"
    ],
    "endTime": 24,
    "questid": 7900408,
    "finishTipsTextMapHash": 1139903140,
    "startTipsTextMapHash": 498031881
  },
  {
    "taskId": 10014,
    "sceneID": 4,
    "centerX": 541.376,
    "centerY": 126.3202,
    "centerZ": -103.9288,
    "radius": 10,
    "targetGadgetID": [
      "q7900407photo1",
      "q7900407photo2",
      "q7900407photo3",
      "q7900407photo4"
    ],
    "endTime": 24,
    "questid": 7900407,
    "finishTipsTextMapHash": 3450342892,
    "startTipsTextMapHash": 2768964801
  },
  {
    "taskId": 10015,
    "sceneID": 3,
    "centerX": -2577.693,
    "centerY": 210.8772,
    "centerZ": -3816.516,
    "radius": 10,
    "targetGadgetID": [
      "Q72153photo1",
      "Q72153photo2",
      "Q72153photo3",
      "Q72153photo4"
    ],
    "endTime": 24,
    "questid": 7215303,
    "finishTipsTextMapHash": 872380252,
    "startTipsTextMapHash": 2084558273
  },
  {
    "taskId": 10016,
    "sceneID": 3,
    "centerX": -2569.18,
    "centerY": 210.8772,
    "centerZ": -3806.927,
    "radius": 10,
    "targetGadgetID": [
      "Q72153photo5",
      "Q72153photo6",
      "Q72153photo7",
      "Q72153photo8"
    ],
    "endTime": 24,
    "questid": 7215306,
    "finishTipsTextMapHash": 2955245268,
    "startTipsTextMapHash": 2305528041
  },
  {
    "taskId": 10017,
    "sceneID": 3,
    "centerX": -2572.619,
    "centerY": 201.9739,
    "centerZ": -3736.152,
    "radius": 10,
    "targetGadgetID": [
      "Q72153photo9",
      "Q72153photo10",
      "Q72153photo11",
      "Q72153photo12"
    ],
    "endTime": 24,
    "questid": 7215309,
    "finishTipsTextMapHash": 4254049156,
    "startTipsTextMapHash": 1107332649
  },
  {
    "taskId": 10018,
    "sceneID": 3,
    "centerX": -3724.512,
    "centerY": 274.0873,
    "centerZ": -3143.209,
    "radius": 8,
    "targetGadgetID": [
      "WQ_72114_ShotSquare1",
      "WQ_72114_ShotSquare2",
      "WQ_72114_ShotSquare3",
      "WQ_72114_ShotSquare3"
    ],
    "endTime": 24,
    "questid": 7211420,
    "finishTipsTextMapHash": 3636274780,
    "startTipsTextMapHash": 2408512345
  },
  {
    "taskId": 10019,
    "sceneID": 3,
    "centerX": -3712.376,
    "centerY": 200,
    "centerZ": -3133.702,
    "radius": 8,
    "targetGadgetID": [
      "WQ_72118_ShotSquare1",
      "WQ_72118_ShotSquare2",
      "WQ_72118_ShotSquare3",
      "WQ_72118_ShotSquare3"
    ],
    "endTime": 24,
    "questid": 7211803,
    "finishTipsTextMapHash": 1360275380,
    "startTipsTextMapHash": 985432105
  },
  {
    "taskId": 10020,
    "sceneID": 3,
    "centerX": -3639.618,
    "centerY": 206.7626,
    "centerZ": -3201.1,
    "radius": 8,
    "targetGadgetID": [
      "WQ_72118_ShotSquare4",
      "WQ_72118_ShotSquare5",
      "WQ_72118_ShotSquare6",
      "WQ_72118_ShotSquare6"
    ],
    "endTime": 24,
    "questid": 7211804,
    "finishTipsTextMapHash": 267092148,
    "startTipsTextMapHash": 3566475337
  },
  {
    "taskId": 10021,
    "sceneID": 4,
    "centerX": 1449.589,
    "centerY": 134.8455,
    "centerZ": -730.6699,
    "radius": 10,
    "targetGadgetID": [
      "q7900409photo1",
      "q7900409photo2",
      "q7900409photo3",
      "q7900409photo4"
    ],
    "endTime": 24,
    "questid": 7900409,
    "finishTipsTextMapHash": 1997758860,
    "startTipsTextMapHash": 761572841
  },
  {
    "taskId": 10022,
    "sceneID": 3,
    "centerX": -4335.842,
    "centerY": 234.8236,
    "centerZ": -4156.704,
    "radius": 30,
    "targetGadgetID": [
      "WQ72163_Photo0101",
      "WQ72163_Photo0102",
      "WQ72163_Photo0103",
      "WQ72163_Photo0103"
    ],
    "endTime": 24,
    "questid": 7216303,
    "finishTipsTextMapHash": 2290549500,
    "startTipsTextMapHash": 1457976785
  },
  {
    "taskId": 10023,
    "sceneID": 3,
    "centerX": -4510.227,
    "centerY": 222.3215,
    "centerZ": -3900.84,
    "radius": 20,
    "targetGadgetID": [
      "WQ72163_Photo0201",
      "WQ72163_Photo0202",
      "WQ72163_Photo0203",
      "WQ72163_Photo0203"
    ],
    "endTime": 24,
    "questid": 7216304,
    "finishTipsTextMapHash": 754016220,
    "startTipsTextMapHash": 4171012385
  },
  {
    "taskId": 10024,
    "sceneID": 3,
    "centerX": -4439.05,
    "centerY": 201.8312,
    "centerZ": -3668.591,
    "radius": 18,
    "targetGadgetID": [
      "WQ72163_Photo0301",
      "WQ72163_Photo0302",
      "WQ72163_Photo0303",
      "WQ72163_Photo0303"
    ],
    "endTime": 24,
    "questid": 7216305,
    "finishTipsTextMapHash": 243759940,
    "startTipsTextMapHash": 2456633185
  },
  {
    "taskId": 10025,
    "sceneID": 3,
    "centerX": -4559.992,
    "centerY": 200.8242,
    "centerZ": -4211.993,
    "radius": 15,
    "targetGadgetID": [
      "WQ72163_Photo0401",
      "WQ72163_Photo0402",
      "WQ72163_Photo0403",
      "WQ72163_Photo0403"
    ],
    "endTime": 24,
    "questid": 7216306,
    "finishTipsTextMapHash": 373210652,
    "startTipsTextMapHash": 1550363401
  },
  {
    "taskId": 10026,
    "taskType": "PHOTOGRAPH_TASK_TYPE_INTERACTION",
    "sceneID": 3,
    "centerX": -3027,
    "centerY": 236,
    "centerZ": -4439,
    "radius": 15,
    "targetGadgetID": [
      "Q12017Watch2",
      "Q12017Watch2",
      "Q12017Watch2",
      "Q12017Watch2"
    ],
    "endTime": 24,
    "questid": 1201704,
    "finishTipsTextMapHash": 820108420,
    "startTipsTextMapHash": 2448091329
  },
  {
    "taskId": 10027,
    "sceneID": 3,
    "centerX": -3046.524,
    "centerY": 211.5074,
    "centerZ": -4290.349,
    "radius": 10,
    "targetGadgetID": [
      "RQ30027_1",
      "RQ30027_1",
      "RQ30027_1",
      "RQ30027_1"
    ],
    "endTime": 24,
    "questid": 3002702,
    "finishTipsTextMapHash": 175733508,
    "startTipsTextMapHash": 2491355713
  },
  {
    "taskId": 10028,
    "sceneID": 3,
    "centerX": -2958.634,
    "centerY": 203.3437,
    "centerZ": -3968.746,
    "radius": 10,
    "targetGadgetID": [
      "RQ30027_2",
      "RQ30027_2",
      "RQ30027_2",
      "RQ30027_2"
    ],
    "endTime": 24,
    "questid": 3002702,
    "finishTipsTextMapHash": 3967026404,
    "startTipsTextMapHash": 2164673633
  },
  {
    "taskId": 10029,
    "sceneID": 3,
    "centerX": -2998.785,
    "centerY": 213.0631,
    "centerZ": -4010.311,
    "radius": 10,
    "targetGadgetID": [
      "RQ30027_3",
      "RQ30027_3",
      "RQ30027_3",
      "RQ30027_3"
    ],
    "endTime": 24,
    "questid": 3002702,
    "finishTipsTextMapHash": 2655981908,
    "startTipsTextMapHash": 3195713393
  },
  {
    "taskId": 10030,
    "sceneID": 3,
    "centerX": -2753.561,
    "centerY": 205.4326,
    "centerZ": -4114.52,
    "radius": 10,
    "targetGadgetID": [
      "RQ30027_4",
      "RQ30027_4",
      "RQ30027_4",
      "RQ30027_4"
    ],
    "endTime": 24,
    "questid": 3002702,
    "finishTipsTextMapHash": 1485616028,
    "startTipsTextMapHash": 2833080993
  },
  {
    "taskId": 10034,
    "sceneID": 3,
    "centerX": -3170.77,
    "centerY": 200.0656,
    "centerZ": -3923.123,
    "radius": 10,
    "targetGadgetID": [
      "RQ30027_8",
      "RQ30027_8",
      "RQ30027_8",
      "RQ30027_8"
    ],
    "endTime": 24,
    "questid": 3002702,
    "finishTipsTextMapHash": 2233104732,
    "startTipsTextMapHash": 3232967865
  },
  {
    "taskId": 10035,
    "sceneID": 3,
    "centerX": -2567.177,
    "centerY": 210.8772,
    "centerZ": -3805.009,
    "radius": 10,
    "targetGadgetID": [
      "RQ30027_9",
      "RQ30027_9",
      "RQ30027_9",
      "RQ30027_9"
    ],
    "endTime": 24,
    "questid": 3002702,
    "finishTipsTextMapHash": 478503372,
    "startTipsTextMapHash": 2768344825
  },
  {
    "taskId": 10036,
    "sceneID": 3,
    "centerX": -2600.047,
    "centerY": 268.018,
    "centerZ": -4568.247,
    "radius": 10,
    "targetGadgetID": [
      "RQ30027_10",
      "RQ30027_10",
      "RQ30027_10",
      "RQ30027_10"
    ],
    "endTime": 24,
    "questid": 3002702,
    "finishTipsTextMapHash": 1860874308,
    "startTipsTextMapHash": 3643510025
  },
  {
    "taskId": 10037,
    "taskType": "PHOTOGRAPH_TASK_TYPE_INTERACTION",
    "sceneID": 3,
    "centerX": -3036.724,
    "centerY": 212.78384,
    "centerZ": -4306.42,
    "radius": 3,
    "targetGadgetID": [
      "Q1911801photo1",
      "Q1911801photo2",
      "Q1911801photo3",
      "Q1911801photo4"
    ],
    "endTime": 24,
    "questid": 1911801,
    "finishTipsTextMapHash": 1450062980,
    "startTipsTextMapHash": 3999241921
  },
  {
    "taskId": 10038,
    "sceneID": 3,
    "centerX": -5871.852,
    "centerY": 157.8745,
    "centerZ": -2667.054,
    "radius": 5,
    "targetGadgetID": [
      "Q3_7217503_Photo_1",
      "Q3_7217503_Photo_2",
      "Q3_7217503_Photo_3",
      "Q3_7217503_Photo_4"
    ],
    "endTime": 24,
    "questid": 7217503,
    "finishTipsTextMapHash": 1519866164,
    "startTipsTextMapHash": 3875625537
  },
  {
    "taskId": 10039,
    "sceneID": 3,
    "centerX": -5908.776,
    "centerY": 166.6249,
    "centerZ": -2757.613,
    "radius": 5,
    "targetGadgetID": [
      "Q3_7217504_Photo_1",
      "Q3_7217504_Photo_2",
      "Q3_7217504_Photo_3",
      "Q3_7217504_Photo_4"
    ],
    "endTime": 24,
    "questid": 7217504,
    "finishTipsTextMapHash": 1164613876,
    "startTipsTextMapHash": 1026303617
  },
  {
    "taskId": 10040,
    "sceneID": 3,
    "centerX": -5992.949,
    "centerY": 164.4061,
    "centerZ": -2759.309,
    "radius": 5,
    "targetGadgetID": [
      "Q3_7217505_Photo_1",
      "Q3_7217505_Photo_2",
      "Q3_7217505_Photo_3",
      "Q3_7217505_Photo_4"
    ],
    "endTime": 24,
    "questid": 7217505,
    "finishTipsTextMapHash": 3702241812,
    "startTipsTextMapHash": 3580435153
  },
  {
    "taskId": 10041,
    "sceneID": 3,
    "centerX": -5989.18,
    "centerY": 173.4071,
    "centerZ": -2695.516,
    "radius": 5,
    "targetGadgetID": [
      "Q3_7217506_Photo_1",
      "Q3_7217506_Photo_2",
      "Q3_7217506_Photo_3",
      "Q3_7217506_Photo_4"
    ],
    "endTime": 24,
    "questid": 7217506,
    "finishTipsTextMapHash": 2334443852,
    "startTipsTextMapHash": 3851402905
  },
  {
    "taskId": 10042,
    "sceneID": 3,
    "centerX": -5989.18,
    "centerY": 173.4071,
    "centerZ": -2695.516,
    "radius": 5,
    "targetGadgetID": [
      "Q3_7217507_Photo_1",
      "Q3_7217507_Photo_2",
      "Q3_7217507_Photo_3",
      "Q3_7217507_Photo_4"
    ],
    "endTime": 24,
    "questid": 7217507,
    "finishTipsTextMapHash": 1682698916,
    "startTipsTextMapHash": 330815553
  },
  {
    "taskId": 10043,
    "sceneID": 3,
    "centerX": -5989.18,
    "centerY": 173.4071,
    "centerZ": -2695.516,
    "radius": 5,
    "targetGadgetID": [
      "Q3_7217508_Photo_1",
      "Q3_7217508_Photo_2",
      "Q3_7217508_Photo_3",
      "Q3_7217508_Photo_4"
    ],
    "endTime": 24,
    "questid": 7217508,
    "finishTipsTextMapHash": 3976887324,
    "startTipsTextMapHash": 785402993
  },
  {
    "taskId": 10044,
    "sceneID": 3,
    "centerX": -6132.3,
    "centerY": 224.38,
    "centerZ": -2937.518,
    "radius": 5,
    "targetGadgetID": [
      "Q3_7217512_Photo_1",
      "Q3_7217512_Photo_2",
      "Q3_7217512_Photo_3",
      "Q3_7217512_Photo_4"
    ],
    "endTime": 24,
    "questid": 7217512,
    "finishTipsTextMapHash": 705364932,
    "startTipsTextMapHash": 4063737
  },
  {
    "taskId": 10045,
    "sceneID": 3,
    "centerX": -6358.6,
    "centerY": 200.13,
    "centerZ": -2710.14,
    "radius": 5,
    "targetGadgetID": [
      "Q3_7217513_Photo_1",
      "Q3_7217513_Photo_2",
      "Q3_7217513_Photo_3",
      "Q3_7217513_Photo_4"
    ],
    "endTime": 24,
    "questid": 7217513,
    "finishTipsTextMapHash": 3646842484,
    "startTipsTextMapHash": 166258961
  },
  {
    "taskId": 10046,
    "sceneID": 3,
    "centerX": -6003.3,
    "centerY": 211.9,
    "centerZ": -2568.7,
    "radius": 5,
    "targetGadgetID": [
      "Q3_7217514_Photo_1",
      "Q3_7217514_Photo_2",
      "Q3_7217514_Photo_3",
      "Q3_7217514_Photo_4"
    ],
    "endTime": 24,
    "questid": 7217514,
    "finishTipsTextMapHash": 1404253788,
    "startTipsTextMapHash": 1411896497
  },
  {
    "taskId": 10047,
    "taskType": "PHOTOGRAPH_TASK_TYPE_INTERACTION",
    "sceneID": 3,
    "centerX": -3041.3296,
    "centerY": 212.6401,
    "centerZ": -4303.458,
    "radius": 3,
    "targetGadgetID": [
      "Q1911801photo1",
      "Q1911801photo2",
      "Q1911801photo3",
      "Q1911801photo4"
    ],
    "endTime": 24,
    "questid": 1911805,
    "finishTipsTextMapHash": 2590170020,
    "startTipsTextMapHash": 1355969881
  },
  {
    "taskId": 10048,
    "taskType": "PHOTOGRAPH_TASK_TYPE_INTERACTION",
    "sceneID": 3,
    "centerX": -4719.2,
    "centerY": 216.2,
    "centerZ": -3709.3,
    "radius": 5,
    "targetGadgetID": [
      "Q22045Photo",
      "Q22045Photo",
      "Q22045Photo",
      "Q22045Photo"
    ],
    "endTime": 24,
    "questid": 2204502,
    "finishTipsTextMapHash": 977466764,
    "startTipsTextMapHash": 2524338449
  },
  {
    "taskId": 10049,
    "taskType": "PHOTOGRAPH_TASK_TYPE_INTERACTION",
    "sceneID": 3,
    "centerX": -4720.2,
    "centerY": 216.2,
    "centerZ": -3714.3,
    "radius": 5,
    "targetGadgetID": [
      "Q22045Photo",
      "Q22045Photo",
      "Q22045Photo",
      "Q22045Photo"
    ],
    "endTime": 24,
    "questid": 2204503,
    "finishTipsTextMapHash": 1923538740,
    "startTipsTextMapHash": 1878207169
  },
  {
    "taskId": 10050,
    "taskType": "PHOTOGRAPH_TASK_TYPE_INTERACTION",
    "sceneID": 3,
    "centerX": 941,
    "centerY": 211,
    "centerZ": 667,
    "radius": 15,
    "targetGadgetID": [
      "COOP10240101Target01",
      "COOP10240101Target01",
      "COOP10240101Target01",
      "COOP10240101Target01"
    ],
    "endTime": 24,
    "questid": 1905109,
    "finishTipsTextMapHash": 2470147332,
    "startTipsTextMapHash": 3785416297
  },
  {
    "taskId": 10051,
    "taskType": "PHOTOGRAPH_TASK_TYPE_INTERACTION",
    "sceneID": 3,
    "centerX": 696.4118,
    "centerY": 413.0023,
    "centerZ": 1856.338,
    "radius": 5,
    "targetGadgetID": [
      "Q3_72261_Photo1",
      "Q3_72261_Photo2",
      "Q3_72261_Photo3",
      "Q3_72261_Photo4"
    ],
    "endTime": 24,
    "questid": 7226103,
    "finishTipsTextMapHash": 511036996,
    "startTipsTextMapHash": 1295887985
  },
  {
    "taskId": 10052,
    "taskType": "PHOTOGRAPH_TASK_TYPE_INTERACTION",
    "sceneID": 3,
    "centerX": 1444.427,
    "centerY": 253.5312,
    "centerZ": 484.8094,
    "radius": 5,
    "targetGadgetID": [
      "Q3_72262_Photo1",
      "Q3_72262_Photo2",
      "Q3_72262_Photo3",
      "Q3_72262_Photo4"
    ],
    "endTime": 24,
    "questid": 7226203,
    "finishTipsTextMapHash": 3547046628,
    "startTipsTextMapHash": 958628857
  },
  {
    "taskId": 10053,
    "taskType": "PHOTOGRAPH_TASK_TYPE_INTERACTION",
    "sceneID": 3,
    "centerX": 1035.3506,
    "centerY": 316.03958,
    "centerZ": -1124.8542,
    "radius": 5,
    "targetGadgetID": [
      "WQ7226404_3160_1",
      "WQ7226406_photo_p2",
      "WQ7226406_photo_p3",
      "WQ7226406_photo_p4"
    ],
    "endTime": 24,
    "questid": 7226406,
    "finishTipsTextMapHash": 561419180,
    "startTipsTextMapHash": 499800145
  },
  {
    "taskId": 10054,
    "taskType": "PHOTOGRAPH_TASK_TYPE_INTERACTION",
    "sceneID": 3,
    "centerX": -276.5301,
    "centerY": 213.7747,
    "centerZ": -1025.267,
    "radius": 5,
    "targetGadgetID": [
      "Q7267505_guide_1",
      "Q7267505_guide_1",
      "Q7267507_guide",
      "Q7267504_N3160"
    ],
    "endTime": 24,
    "questid": 7267505,
    "finishTipsTextMapHash": 1175949020,
    "startTipsTextMapHash": 3659612825
  },
  {
    "taskId": 10055,
    "taskType": "PHOTOGRAPH_TASK_TYPE_INTERACTION",
    "sceneID": 3,
    "centerX": 2319.491,
    "centerY": 272.1544,
    "centerZ": -752.9274,
    "radius": 5,
    "targetGadgetID": [
      "Q7267605_N3160",
      "Q7267605_N3160",
      "Q7267605_N3160",
      "Q7267605_N3160"
    ],
    "endTime": 24,
    "questid": 7267606,
    "finishTipsTextMapHash": 2922947812,
    "startTipsTextMapHash": 3569686329
  },
  {
    "taskId": 10056,
    "taskType": "PHOTOGRAPH_TASK_TYPE_INTERACTION",
    "sceneID": 3,
    "centerX": -208.3441,
    "centerY": 282.0631,
    "centerZ": 234.9221,
    "radius": 5,
    "targetGadgetID": [
      "Q7267610_N3160",
      "Q7267610_N3160",
      "Q7267610_N3160",
      "Q7267610_N3160"
    ],
    "endTime": 24,
    "questid": 7267611,
    "finishTipsTextMapHash": 431138644,
    "startTipsTextMapHash": 4010809369
  },
  {
    "taskId": 10057,
    "taskType": "PHOTOGRAPH_TASK_TYPE_INTERACTION",
    "sceneID": 3,
    "centerX": 213.3841,
    "centerY": 208.4624,
    "centerZ": 961.9625,
    "radius": 5,
    "targetGadgetID": [
      "Q7267704_Photo1",
      "Q7267704_Photo2",
      "Q7267704_Photo3",
      "Q7267704_Photo4"
    ],
    "endTime": 24,
    "questid": 7267704,
    "finishTipsTextMapHash": 395983228,
    "startTipsTextMapHash": 4289553369
  },
  {
    "taskId": 10058,
    "taskType": "PHOTOGRAPH_TASK_TYPE_INTERACTION",
    "sceneID": 3,
    "centerX": 2402.903,
    "centerY": 225.4431,
    "centerZ": 44.71541,
    "radius": 5,
    "targetGadgetID": [
      "Q7267801_Photo1",
      "Q7267801_Photo2",
      "Q7267801_Photo3",
      "Q7267801_Photo4"
    ],
    "endTime": 24,
    "questid": 7267802,
    "finishTipsTextMapHash": 2515303668,
    "startTipsTextMapHash": 317492809
  },
  {
    "taskId": 10059,
    "taskType": "PHOTOGRAPH_TASK_TYPE_INTERACTION",
    "sceneID": 6,
    "centerX": 863.3089,
    "centerY": 995.8977,
    "centerZ": 723.7786,
    "radius": 5,
    "targetGadgetID": [
      "Q7104001Photo1",
      "Q7104001Photo1",
      "Q7104001Photo1",
      "Q7104001Photo1"
    ],
    "endTime": 24,
    "questid": 7104001,
    "finishTipsTextMapHash": 489721220,
    "startTipsTextMapHash": 571579913
  },
  {
    "taskId": 10060,
    "sceneID": 3,
    "centerX": 1789.26,
    "centerY": 233.1621,
    "centerZ": -881.4741,
    "radius": 20,
    "targetGadgetID": [
      "Q2002002",
      "Q2002002",
      "Q2002002",
      "Q2002002"
    ],
    "endTime": 24,
    "questid": 2002003,
    "finishTipsTextMapHash": 27643036,
    "startTipsTextMapHash": 542470193
  },
  {
    "taskId": 10061,
    "sceneID": 3,
    "centerX": 1937.647,
    "centerY": 242.338,
    "centerZ": -351.7214,
    "radius": 20,
    "targetGadgetID": [
      "Q2002003",
      "Q2002003",
      "Q2002003",
      "Q2002003"
    ],
    "endTime": 24,
    "questid": 2002012,
    "finishTipsTextMapHash": 1518505196,
    "startTipsTextMapHash": 1611066889
  },
  {
    "taskId": 10062,
    "sceneID": 3,
    "centerX": 2482.777,
    "centerY": 326.634,
    "centerZ": -1681.649,
    "radius": 20,
    "targetGadgetID": [
      "Q2002004",
      "Q2002004",
      "Q2002004",
      "Q2002004"
    ],
    "endTime": 24,
    "questid": 2002021,
    "finishTipsTextMapHash": 256014596,
    "startTipsTextMapHash": 3340473705
  },
  {
    "taskId": 10063,
    "taskType": "PHOTOGRAPH_TASK_TYPE_INTERACTION",
    "sceneID": 6,
    "centerX": 1133.602,
    "centerY": 740.25,
    "centerZ": 406.93,
    "radius": 5,
    "targetGadgetID": [
      "Q7105201_Target",
      "Q7105201_Target",
      "Q7105201_Target",
      "Q7105201_Target"
    ],
    "endTime": 24,
    "questid": 7105201,
    "finishTipsTextMapHash": 922210188,
    "startTipsTextMapHash": 569646689
  },
  {
    "taskId": 10064,
    "taskType": "PHOTOGRAPH_TASK_TYPE_INTERACTION",
    "sceneID": 6,
    "centerX": 953.3259,
    "centerY": 862.81,
    "centerZ": 676.1527,
    "radius": 5,
    "targetGadgetID": [
      "Q7105202_Target",
      "Q7105202_Target",
      "Q7105202_Target",
      "Q7105202_Target"
    ],
    "endTime": 24,
    "questid": 7105202,
    "finishTipsTextMapHash": 2426349052,
    "startTipsTextMapHash": 3474818601
  },
  {
    "taskId": 10065,
    "taskType": "PHOTOGRAPH_TASK_TYPE_INTERACTION",
    "sceneID": 6,
    "centerX": 799.0076,
    "centerY": 602.429,
    "centerZ": 698.6,
    "radius": 5,
    "targetGadgetID": [
      "Q7105203_Target",
      "Q7105203_Target",
      "Q7105203_Target",
      "Q7105203_Target"
    ],
    "endTime": 24,
    "questid": 7105203,
    "finishTipsTextMapHash": 451373420,
    "startTipsTextMapHash": 1813676929
  },
  {
    "taskId": 10066,
    "taskType": "PHOTOGRAPH_TASK_TYPE_INTERACTION",
    "sceneID": 6,
    "centerX": 590.164,
    "centerY": 378.5,
    "centerZ": 706.4,
    "radius": 5,
    "targetGadgetID": [
      "Q7105204_Target",
      "Q7105204_Target",
      "Q7105204_Target",
      "Q7105204_Target"
    ],
    "endTime": 24,
    "questid": 7105204,
    "finishTipsTextMapHash": 3864536996,
    "startTipsTextMapHash": 1902189289
  },
  {
    "taskId": 10067,
    "taskType": "PHOTOGRAPH_TASK_TYPE_INTERACTION",
    "sceneID": 6,
    "centerX": 391.83,
    "centerY": 85.34,
    "centerZ": 1102.233,
    "radius": 5,
    "targetGadgetID": [
      "Q7105205_Target",
      "Q7105205_Target",
      "Q7105205_Target",
      "Q7105205_Target"
    ],
    "endTime": 24,
    "questid": 7105205,
    "finishTipsTextMapHash": 3080047636,
    "startTipsTextMapHash": 4030050297
  },
  {
    "taskId": 10068,
    "taskType": "PHOTOGRAPH_TASK_TYPE_INTERACTION",
    "sceneID": 3,
    "centerX": -672.9505,
    "centerY": 219.543,
    "centerZ": 257.2119,
    "radius": 15,
    "targetGadgetID": [
      "Q1904008_Check1",
      "Q1904008_Check2",
      "Q1904008_Check3",
      "Q1904008_Check4"
    ],
    "endTime": 24,
    "questid": 1904008,
    "finishTipsTextMapHash": 3997164044,
    "startTipsTextMapHash": 3647792241
  },
  {
    "taskId": 10069,
    "taskType": "PHOTOGRAPH_TASK_TYPE_INTERACTION",
    "sceneID": 9,
    "centerX": 532.2176,
    "centerY": 191.7584,
    "centerZ": -94.0963,
    "radius": 10,
    "targetGadgetID": [
      "Q7902104_Check1",
      "Q7902104_Check2",
      "Q7902104_Check3",
      "Q7902104_Check4"
    ],
    "endTime": 24,
    "questid": 7902106,
    "finishTipsTextMapHash": 3959446916,
    "startTipsTextMapHash": 2941712593
  },
  {
    "taskId": 10070,
    "taskType": "PHOTOGRAPH_TASK_TYPE_INTERACTION",
    "sceneID": 3,
    "centerX": -452.1136,
    "centerY": 200.1155,
    "centerZ": 2901.93,
    "radius": 5,
    "targetGadgetID": [
      "Q2302704_target1",
      "Q2302704_target2",
      "Q2302704_target3",
      "Q2302704_target3"
    ],
    "endTime": 24,
    "questid": 2302704,
    "finishTipsTextMapHash": 3461446100,
    "startTipsTextMapHash": 652805185
  },
  {
    "taskId": 10071,
    "taskType": "PHOTOGRAPH_TASK_TYPE_INTERACTION",
    "sceneID": 3,
    "centerX": -263.3028,
    "centerY": 200.9979,
    "centerZ": 2676.247,
    "radius": 5,
    "targetGadgetID": [
      "Q2302707_target1",
      "Q2302707_target2",
      "Q2302707_target3",
      "Q2302707_target3"
    ],
    "endTime": 24,
    "questid": 2302707,
    "finishTipsTextMapHash": 2896959020,
    "startTipsTextMapHash": 4031725121
  },
  {
    "taskId": 10072,
    "taskType": "PHOTOGRAPH_TASK_TYPE_INTERACTION",
    "sceneID": 3,
    "centerX": -258.15,
    "centerY": 168.7336,
    "centerZ": 2415.315,
    "radius": 5,
    "targetGadgetID": [
      "Q2302710_target1",
      "Q2302710_target2",
      "Q2302710_target3",
      "Q2302710_target3"
    ],
    "endTime": 24,
    "questid": 2302710,
    "finishTipsTextMapHash": 1417363804,
    "startTipsTextMapHash": 955507201
  },
  {
    "taskId": 10073,
    "taskType": "PHOTOGRAPH_TASK_TYPE_INTERACTION",
    "sceneID": 3,
    "centerX": -35.46754,
    "centerY": 300.1759,
    "centerZ": 2810.732,
    "radius": 5,
    "targetGadgetID": [
      "Q2302903_target1",
      "Q2302903_target2",
      "Q2302903_target3",
      "Q2302903_target4"
    ],
    "endTime": 24,
    "questid": 2302903,
    "finishTipsTextMapHash": 4098775100,
    "startTipsTextMapHash": 1915993833
  },
  {
    "taskId": 10074,
    "taskType": "PHOTOGRAPH_TASK_TYPE_INTERACTION",
    "sceneID": 3,
    "centerX": -651.515,
    "centerY": 159.4082,
    "centerZ": 2703.018,
    "radius": 5,
    "targetGadgetID": [
      "Q2303309_N12130",
      "Q2303309_N12130",
      "Q2303309_N12130",
      "Q2303309_N12130"
    ],
    "endTime": 24,
    "questid": 2303309,
    "finishTipsTextMapHash": 3167932004,
    "startTipsTextMapHash": 2043401665
  },
  {
    "taskId": 10075,
    "taskType": "PHOTOGRAPH_TASK_TYPE_INTERACTION",
    "sceneID": 1074,
    "centerX": -7.5,
    "centerY": 0.555,
    "centerZ": 7.473,
    "radius": 10,
    "targetGadgetID": [
      "Q2303505_CynoCam",
      "Q2303505_CynoCam",
      "Q2303505_CynoCam",
      "Q2303505_CynoCam"
    ],
    "endTime": 24,
    "questid": 2303505,
    "finishTipsTextMapHash": 2140116604,
    "startTipsTextMapHash": 2203638657
  },
  {
    "taskId": 10076,
    "sceneID": 3,
    "centerX": -526.934,
    "centerY": 201.525,
    "centerZ": 2838.326,
    "radius": 10,
    "targetGadgetID": [
      "RQ30031_1",
      "RQ30031_1",
      "RQ30031_1",
      "RQ30031_1"
    ],
    "endTime": 24,
    "questid": 3003102,
    "finishTipsTextMapHash": 1785225860,
    "startTipsTextMapHash": 3368349513
  },
  {
    "taskId": 10077,
    "sceneID": 3,
    "centerX": -1954.391,
    "centerY": 202.3295,
    "centerZ": 2489.404,
    "radius": 10,
    "targetGadgetID": [
      "RQ30031_2",
      "RQ30031_2",
      "RQ30031_2",
      "RQ30031_2"
    ],
    "endTime": 24,
    "questid": 3003102,
    "finishTipsTextMapHash": 1040181108,
    "startTipsTextMapHash": 888712617
  },
  {
    "taskId": 10078,
    "sceneID": 3,
    "centerX": -2012.661,
    "centerY": 201.3894,
    "centerZ": 2455.83,
    "radius": 10,
    "targetGadgetID": [
      "RQ30031_3",
      "RQ30031_3",
      "RQ30031_3",
      "RQ30031_3"
    ],
    "endTime": 24,
    "questid": 3003102,
    "finishTipsTextMapHash": 2951274516,
    "startTipsTextMapHash": 130438817
  },
  {
    "taskId": 10079,
    "sceneID": 3,
    "centerX": -1558.639,
    "centerY": 250.4149,
    "centerZ": 3824.035,
    "radius": 10,
    "targetGadgetID": [
      "RQ30031_4",
      "RQ30031_4",
      "RQ30031_4",
      "RQ30031_4"
    ],
    "endTime": 24,
    "questid": 3003102,
    "finishTipsTextMapHash": 3223571012,
    "startTipsTextMapHash": 4221341489
  },
  {
    "taskId": 10080,
    "sceneID": 3,
    "centerX": -1646.555,
    "centerY": 259.9066,
    "centerZ": 3872.218,
    "radius": 10,
    "targetGadgetID": [
      "RQ30031_5",
      "RQ30031_5",
      "RQ30031_5",
      "RQ30031_5"
    ],
    "endTime": 24,
    "questid": 3003102,
    "finishTipsTextMapHash": 3771643964,
    "startTipsTextMapHash": 504221553
  },
  {
    "taskId": 10081,
    "sceneID": 3,
    "centerX": -794.9529,
    "centerY": 165.3775,
    "centerZ": 2439.696,
    "radius": 10,
    "targetGadgetID": [
      "RQ30031_6",
      "RQ30031_6",
      "RQ30031_6",
      "RQ30031_6"
    ],
    "endTime": 24,
    "questid": 3003102,
    "finishTipsTextMapHash": 1584923076,
    "startTipsTextMapHash": 2025564225
  },
  {
    "taskId": 10082,
    "sceneID": 3,
    "centerX": -1912.056,
    "centerY": 203.0997,
    "centerZ": 2507.228,
    "radius": 5,
    "targetGadgetID": [
      "Q4008318_Target",
      "Q4008318_Target",
      "Q4008318_Target",
      "Q4008318_Target"
    ],
    "endTime": 24,
    "questid": 4008318,
    "finishTipsTextMapHash": 1504030556,
    "startTipsTextMapHash": 669545657
  },
  {
    "taskId": 10083,
    "taskType": "PHOTOGRAPH_TASK_TYPE_INTERACTION",
    "sceneID": 3,
    "centerX": -266.753,
    "centerY": 246.3422,
    "centerZ": 307.3645,
    "radius": 5,
    "targetGadgetID": [
      "Q21038_photo1",
      "Q21038_photo2",
      "Q21038_SUNYU",
      "Q21038_SUNYU"
    ],
    "endTime": 24,
    "questid": 2103802,
    "finishTipsTextMapHash": 2756373164,
    "startTipsTextMapHash": 2952086625
  },
  {
    "taskId": 10084,
    "taskType": "PHOTOGRAPH_TASK_TYPE_INTERACTION",
    "sceneID": 10,
    "centerX": -54,
    "centerY": 396.8,
    "centerZ": 1388.16,
    "radius": 150,
    "targetGadgetID": [
      "Q7905403_Check1",
      "Q7905403_Check2",
      "Q7905403_Check3",
      "Q7905403_Check4"
    ],
    "endTime": 24,
    "questid": 7905403,
    "finishTipsTextMapHash": 4153482364,
    "startTipsTextMapHash": 175469553
  },
  {
    "taskId": 10085,
    "taskType": "PHOTOGRAPH_TASK_TYPE_INTERACTION",
    "sceneID": 10,
    "centerX": 331.3693,
    "centerY": 225.1529,
    "centerZ": -174.0079,
    "radius": 10,
    "targetGadgetID": [
      "Studio1_A",
      "Studio1_B",
      "Studio1_C",
      "Studio1_D"
    ],
    "endTime": 24,
    "questid": 7905502,
    "finishTipsTextMapHash": 1671836276,
    "startTipsTextMapHash": 3009896017,
    "OKJHNPDDJDJ": 510020021,
    "ALEEPGCLMDH": 21003,
    "HAFNAFMBMIP": 201
  },
  {
    "taskId": 10086,
    "taskType": "PHOTOGRAPH_TASK_TYPE_INTERACTION",
    "sceneID": 3,
    "centerX": -543.3932,
    "centerY": 201.5522,
    "centerZ": 2796.635,
    "radius": 5,
    "targetGadgetID": [
      "Q7335003_Photo1",
      "Q7335003_Photo2",
      "Q7335003_Photo3",
      "Q7335003_Photo4"
    ],
    "endTime": 24,
    "questid": 7335002,
    "finishTipsTextMapHash": 3171428844,
    "startTipsTextMapHash": 2762266865
  },
  {
    "taskId": 10087,
    "taskType": "PHOTOGRAPH_TASK_TYPE_INTERACTION",
    "sceneID": 3,
    "centerX": 2593.479,
    "centerY": 325.4836,
    "centerZ": 4512.662,
    "radius": 5,
    "targetGadgetID": [
      "Q24009_photo_1_target1",
      "Q24009_photo_1_target2",
      "Q24009_photo_1_target3",
      "Q24009_photo_1_target4"
    ],
    "endTime": 24,
    "questid": 2400903,
    "finishTipsTextMapHash": 2601626932,
    "startTipsTextMapHash": 1183148049
  },
  {
    "taskId": 10088,
    "taskType": "PHOTOGRAPH_TASK_TYPE_INTERACTION",
    "sceneID": 3,
    "centerX": 3282.752,
    "centerY": 317.268,
    "centerZ": 4537.623,
    "radius": 5,
    "targetGadgetID": [
      "Q24009_photo_2_target1",
      "Q24009_photo_2_target1",
      "Q24009_photo_2_target2",
      "Q24009_photo_2_target3"
    ],
    "endTime": 24,
    "questid": 2400905,
    "finishTipsTextMapHash": 3759968660,
    "startTipsTextMapHash": 3152479937
  },
  {
    "taskId": 10089,
    "taskType": "PHOTOGRAPH_TASK_TYPE_INTERACTION",
    "sceneID": 3,
    "centerX": 2798.208,
    "centerY": 418.7895,
    "centerZ": 4412.898,
    "radius": 5,
    "targetGadgetID": [
      "Q24009_photo_3_target1",
      "Q24009_photo_3_target2",
      "Q24009_photo_3_target3",
      "Q24009_photo_3_target4"
    ],
    "endTime": 24,
    "questid": 2400907,
    "finishTipsTextMapHash": 3658728532,
    "startTipsTextMapHash": 351319801
  },
  {
    "taskId": 10090,
    "taskType": "PHOTOGRAPH_TASK_TYPE_INTERACTION",
    "sceneID": 3,
    "centerX": 3050.269,
    "centerY": 399.0768,
    "centerZ": 4614.302,
    "radius": 5,
    "targetGadgetID": [
      "Q24009_photo_4_target1",
      "Q24009_photo_4_target2",
      "Q24009_photo_4_target3",
      "Q24009_photo_4_target4"
    ],
    "endTime": 24,
    "questid": 2400911,
    "finishTipsTextMapHash": 4145751788,
    "startTipsTextMapHash": 907276553
  },
  {
    "taskId": 10091,
    "taskType": "PHOTOGRAPH_TASK_TYPE_INTERACTION",
    "sceneID": 3,
    "centerX": 3193.322,
    "centerY": 404.1106,
    "centerZ": 4621.104,
    "radius": 5,
    "targetGadgetID": [
      "Q24009_photo_5_target1",
      "Q24009_photo_5_target2",
      "Q24009_photo_5_target3",
      "Q24009_photo_5_target4"
    ],
    "endTime": 24,
    "questid": 2400912,
    "finishTipsTextMapHash": 1147721100,
    "startTipsTextMapHash": 1197748657
  },
  {
    "taskId": 10092,
    "taskType": "PHOTOGRAPH_TASK_TYPE_INTERACTION",
    "sceneID": 3,
    "centerX": 3033.918,
    "centerY": 379.8101,
    "centerZ": 4464.202,
    "radius": 5,
    "targetGadgetID": [
      "Q24009_photo_6_target1",
      "Q24009_photo_6_target2",
      "Q24009_photo_6_target3",
      "Q24009_photo_6_target4"
    ],
    "endTime": 24,
    "questid": 2400913,
    "finishTipsTextMapHash": 3214899156,
    "startTipsTextMapHash": 2223147769
  },
  {
    "taskId": 10093,
    "taskType": "PHOTOGRAPH_TASK_TYPE_INTERACTION",
    "sceneID": 10,
    "centerX": 458.4396,
    "centerY": 321.9358,
    "centerZ": -131.0558,
    "radius": 10,
    "targetGadgetID": [
      "Studio2_A",
      "Studio2_B",
      "Studio2_C",
      "Studio2_D"
    ],
    "endTime": 24,
    "questid": 7905802,
    "finishTipsTextMapHash": 3188057100,
    "startTipsTextMapHash": 3261520697,
    "OKJHNPDDJDJ": 510020174,
    "ALEEPGCLMDH": 174003,
    "HAFNAFMBMIP": 201
  },
  {
    "taskId": 10094,
    "taskType": "PHOTOGRAPH_TASK_TYPE_INTERACTION",
    "sceneID": 10,
    "centerX": 443.7477,
    "centerY": 327.384,
    "centerZ": -259.7215,
    "radius": 10,
    "targetGadgetID": [
      "Studio3_A",
      "Studio3_B",
      "Studio3_C",
      "Studio3_D"
    ],
    "endTime": 24,
    "questid": 7905902,
    "finishTipsTextMapHash": 3837776740,
    "startTipsTextMapHash": 2230445713,
    "OKJHNPDDJDJ": 510020176,
    "ALEEPGCLMDH": 176002,
    "HAFNAFMBMIP": 201
  },
  {
    "taskId": 10095,
    "taskType": "PHOTOGRAPH_TASK_TYPE_INTERACTION",
    "sceneID": 3,
    "centerX": 2491.926,
    "centerY": 252.6405,
    "centerZ": 4607.847,
    "radius": 5,
    "targetGadgetID": [
      "Q7411508_guide",
      "Q7411508_guide",
      "Q7411508_guide",
      "Q7411508_guide"
    ],
    "endTime": 24,
    "questid": 7411508,
    "finishTipsTextMapHash": 580804100,
    "startTipsTextMapHash": 497938857
  },
  {
    "taskId": 10096,
    "taskType": "PHOTOGRAPH_TASK_TYPE_INTERACTION",
    "sceneID": 3,
    "centerX": 4730.025,
    "centerY": 684.1548,
    "centerZ": 3890.585,
    "radius": 10,
    "targetGadgetID": [
      "Q7405347_photo1",
      "Q7405347_photo2",
      "Q7405347_photo3",
      "Q7405347_photo3"
    ],
    "endTime": 24,
    "questid": 7405347,
    "finishTipsTextMapHash": 2259847588,
    "startTipsTextMapHash": 4231570793
  },
  {
    "taskId": 10097,
    "sceneID": 3,
    "centerX": 1896,
    "centerY": 280,
    "centerZ": 1593,
    "radius": 10,
    "targetGadgetID": [
      "Q7111003_P1",
      "Q7111003_P2",
      "Q7111003_P3",
      "Q7111003_P4"
    ],
    "questid": 7111003,
    "finishTipsTextMapHash": 2621950396,
    "startTipsTextMapHash": 3025700601,
    "DBMHNDMNHCN": true
  },
  {
    "taskId": 10098,
    "sceneID": 3,
    "centerX": 2173,
    "centerY": 286,
    "centerZ": 1544,
    "radius": 5,
    "targetGadgetID": [
      "Q7111004_P1",
      "Q7111004_P2",
      "Q7111004_P3",
      "Q7111004_P4"
    ],
    "questid": 7111004,
    "finishTipsTextMapHash": 2347476204,
    "startTipsTextMapHash": 3747263425,
    "DBMHNDMNHCN": true
  },
  {
    "taskId": 10099,
    "sceneID": 3,
    "centerX": 1854.4,
    "centerY": 299.99,
    "centerZ": 2181.48,
    "radius": 30,
    "targetGadgetID": [
      "Q7111005_P1",
      "Q7111005_P2",
      "Q7111005_P3",
      "Q7111005_P4"
    ],
    "questid": 7111005,
    "finishTipsTextMapHash": 2639000460,
    "startTipsTextMapHash": 15244361,
    "DBMHNDMNHCN": true
  },
  {
    "taskId": 10100,
    "sceneID": 3,
    "centerX": 1454.248,
    "centerY": 292.8731,
    "centerZ": 1736.7,
    "radius": 10,
    "targetGadgetID": [
      "Q7111006_P1",
      "Q7111006_P2",
      "Q7111006_P3",
      "Q7111006_P4"
    ],
    "questid": 7111006,
    "finishTipsTextMapHash": 1869348,
    "startTipsTextMapHash": 687998289,
    "DBMHNDMNHCN": true
  },
  {
    "taskId": 10101,
    "sceneID": 3,
    "centerX": 4323.244,
    "centerY": 486.6609,
    "centerZ": 4142.65,
    "radius": 5,
    "targetGadgetID": [
      "Q7412708_P1",
      "Q7412708_P2",
      "Q7412708_P3",
      "Q7412708_P4"
    ],
    "endTime": 24,
    "questid": 7412708,
    "finishTipsTextMapHash": 273208940,
    "startTipsTextMapHash": 3288845153
  },
  {
    "taskId": 10102,
    "taskType": "PHOTOGRAPH_TASK_TYPE_INTERACTION",
    "sceneID": 3,
    "centerX": 2228.768,
    "centerY": 286.6945,
    "centerZ": 1534.213,
    "radius": 5,
    "targetGadgetID": [
      "Q7005009_photo",
      "Q7005009_photo",
      "Q7005009_photo",
      "Q7005009_photo"
    ],
    "endTime": 24,
    "questid": 7005009,
    "finishTipsTextMapHash": 1814966460,
    "startTipsTextMapHash": 1087359617
  },
  {
    "taskId": 10103,
    "taskType": "PHOTOGRAPH_TASK_TYPE_INTERACTION",
    "sceneID": 3,
    "centerX": 3288.826,
    "centerY": 407.3933,
    "centerZ": 3884.498,
    "radius": 5,
    "targetGadgetID": [
      "Q7416413_pos01",
      "Q7416413_pos01",
      "Q7416413_pos01",
      "Q7416413_pos01"
    ],
    "endTime": 24,
    "questid": 7416413,
    "finishTipsTextMapHash": 2868045244,
    "startTipsTextMapHash": 1558201265
  },
  {
    "taskId": 10104,
    "taskType": "PHOTOGRAPH_TASK_TYPE_INTERACTION",
    "sceneID": 3,
    "centerX": 3288.826,
    "centerY": 407.3933,
    "centerZ": 3884.498,
    "radius": 5,
    "targetGadgetID": [
      "Q7416414_pos01",
      "Q7416414_pos01",
      "Q7416414_pos01",
      "Q7416414_pos01"
    ],
    "endTime": 24,
    "questid": 7416414,
    "finishTipsTextMapHash": 1656695132,
    "startTipsTextMapHash": 1194036033
  },
  {
    "taskId": 10105,
    "taskType": "PHOTOGRAPH_TASK_TYPE_INTERACTION",
    "sceneID": 3,
    "centerX": 3288.826,
    "centerY": 407.3933,
    "centerZ": 3884.498,
    "radius": 5,
    "targetGadgetID": [
      "Q7416415_pos01",
      "Q7416415_pos01",
      "Q7416415_pos01",
      "Q7416415_pos01"
    ],
    "endTime": 24,
    "questid": 7416415,
    "finishTipsTextMapHash": 3352965100,
    "startTipsTextMapHash": 2391451681
  }
]