[
  {
    "buffId": 1,
    "abilityGroupName": "Activity_QuikTimeCombat_Level1_FireDamageUp_Lv1",
    "cost": 40,
    "LKAGACEAOFP": 1,
    "iconPath": "UI_Activity_Common_Buff_039",
    "HNKJGJPCJAK": [
      30,
      0,
      0,
      0,
      0
    ],
    "descriptionTextMapHash": 2046009243
  },
  {
    "buffId": 2,
    "abilityGroupName": "Activity_QuikTimeCombat_Level1_FireDamageUp_Lv2",
    "cost": 100,
    "LKAGACEAOFP": 1,
    "iconPath": "UI_Activity_Common_Buff_039",
    "HNKJGJPCJAK": [
      60,
      0,
      0,
      0,
      0
    ],
    "descriptionTextMapHash": 565222923
  },
  {
    "buffId": 3,
    "abilityGroupName": "Activity_QuikTimeCombat_Level1_AttackDamageUp_Lv1",
    "cost": 40,
    "LKAGACEAOFP": 2,
    "iconPath": "UI_Activity_Common_Buff_003",
    "HNKJGJPCJAK": [
      30,
      0,
      0,
      0,
      0
    ],
    "descriptionTextMapHash": 3273739139
  },
  {
    "buffId": 4,
    "abilityGroupName": "Activity_QuikTimeCombat_Level1_AttackDamageUp_Lv2",
    "cost": 100,
    "LKAGACEAOFP": 2,
    "iconPath": "UI_Activity_Common_Buff_003",
    "HNKJGJPCJAK": [
      60,
      0,
      0,
      0,
      0
    ],
    "descriptionTextMapHash": 2533016211
  },
  {
    "buffId": 5,
    "abilityGroupName": "Activity_QuikTimeCombat_Level1_LowHPTriggerDamageUp_Lv1",
    "cost": 40,
    "LKAGACEAOFP": 3,
    "iconPath": "UI_Activity_Common_Buff_015",
    "HNKJGJPCJAK": [
      50,
      10,
      20,
      0,
      0
    ],
    "descriptionTextMapHash": 3212629419
  },
  {
    "buffId": 6,
    "abilityGroupName": "Activity_QuikTimeCombat_Level1_LowHPTriggerDamageUp_Lv2",
    "cost": 100,
    "LKAGACEAOFP": 3,
    "iconPath": "UI_Activity_Common_Buff_015",
    "HNKJGJPCJAK": [
      50,
      20,
      40,
      0,
      0
    ],
    "descriptionTextMapHash": 1003851843
  },
  {
    "buffId": 7,
    "abilityGroupName": "Activity_QuikTimeCombat_Level1_AttackTriggerWave_Lv1",
    "cost": 40,
    "LKAGACEAOFP": 4,
    "iconPath": "UI_Activity_Common_Buff_002",
    "HNKJGJPCJAK": [
      5,
      5,
      0,
      0,
      0
    ],
    "descriptionTextMapHash": 1183138395
  },
  {
    "buffId": 8,
    "abilityGroupName": "Activity_QuikTimeCombat_Level1_AttackTriggerWave_Lv2",
    "cost": 100,
    "LKAGACEAOFP": 4,
    "iconPath": "UI_Activity_Common_Buff_002",
    "HNKJGJPCJAK": [
      5,
      5,
      0,
      0,
      0
    ],
    "descriptionTextMapHash": 878358707
  },
  {
    "buffId": 9,
    "abilityGroupName": "Activity_QuikTimeCombat_Level2_GrassDamageUp_Lv1",
    "cost": 40,
    "LKAGACEAOFP": 5,
    "iconPath": "UI_Activity_Common_Buff_030",
    "HNKJGJPCJAK": [
      30,
      0,
      0,
      0,
      0
    ],
    "descriptionTextMapHash": 3513197627
  },
  {
    "buffId": 10,
    "abilityGroupName": "Activity_QuikTimeCombat_Level2_GrassDamageUp_Lv2",
    "cost": 100,
    "LKAGACEAOFP": 5,
    "iconPath": "UI_Activity_Common_Buff_030",
    "HNKJGJPCJAK": [
      60,
      0,
      0,
      0,
      0
    ],
    "descriptionTextMapHash": 1161103019
  },
  {
    "buffId": 11,
    "abilityGroupName": "Activity_QuikTimeCombat_Level2_ElecDamageUp_Lv1",
    "cost": 40,
    "LKAGACEAOFP": 6,
    "iconPath": "UI_Activity_Common_Buff_037",
    "HNKJGJPCJAK": [
      30,
      0,
      0,
      0,
      0
    ],
    "descriptionTextMapHash": 2706397483
  },
  {
    "buffId": 12,
    "abilityGroupName": "Activity_QuikTimeCombat_Level2_ElecDamageUp_Lv2",
    "cost": 100,
    "LKAGACEAOFP": 6,
    "iconPath": "UI_Activity_Common_Buff_037",
    "HNKJGJPCJAK": [
      60,
      0,
      0,
      0,
      0
    ],
    "descriptionTextMapHash": 1107366907
  },
  {
    "buffId": 13,
    "abilityGroupName": "Activity_QuikTimeCombat_Level2_GrassReactionTriggerElemMasteryDelta_Lv1",
    "cost": 40,
    "LKAGACEAOFP": 7,
    "iconPath": "UI_Activity_Common_Buff_041",
    "HNKJGJPCJAK": [
      135,
      10,
      0,
      0,
      0
    ],
    "descriptionTextMapHash": 4071806643
  },
  {
    "buffId": 14,
    "abilityGroupName": "Activity_QuikTimeCombat_Level2_GrassReactionTriggerElemMasteryDelta_Lv2",
    "cost": 100,
    "LKAGACEAOFP": 7,
    "iconPath": "UI_Activity_Common_Buff_041",
    "HNKJGJPCJAK": [
      270,
      10,
      0,
      0,
      0
    ],
    "descriptionTextMapHash": 2905592299
  },
  {
    "buffId": 15,
    "abilityGroupName": "Activity_QuikTimeCombat_Level2_OverGrowTriggerWave_Lv1",
    "cost": 40,
    "LKAGACEAOFP": 8,
    "iconPath": "UI_Activity_Common_Buff_031",
    "HNKJGJPCJAK": [
      5,
      5,
      0,
      0,
      0
    ],
    "descriptionTextMapHash": 1361712355
  },
  {
    "buffId": 16,
    "abilityGroupName": "Activity_QuikTimeCombat_Level2_OverGrowTriggerWave_Lv2",
    "cost": 100,
    "LKAGACEAOFP": 8,
    "iconPath": "UI_Activity_Common_Buff_031",
    "HNKJGJPCJAK": [
      5,
      5,
      0,
      0,
      0
    ],
    "descriptionTextMapHash": 4276618115
  },
  {
    "buffId": 17,
    "abilityGroupName": "Activity_QuikTimeCombat_Level3_ShieldTriggerDamageUp_Lv1",
    "cost": 40,
    "LKAGACEAOFP": 9,
    "iconPath": "UI_Activity_Common_Buff_043",
    "HNKJGJPCJAK": [
      10,
      20,
      0,
      0,
      0
    ],
    "descriptionTextMapHash": 1003569083
  },
  {
    "buffId": 18,
    "abilityGroupName": "Activity_QuikTimeCombat_Level3_ShieldTriggerDamageUp_Lv2",
    "cost": 100,
    "LKAGACEAOFP": 9,
    "iconPath": "UI_Activity_Common_Buff_043",
    "HNKJGJPCJAK": [
      20,
      40,
      0,
      0,
      0
    ],
    "descriptionTextMapHash": 1326556363
  },
  {
    "buffId": 19,
    "abilityGroupName": "Activity_QuikTimeCombat_Level3_HealedTriggerAttackRatioUp_Lv1",
    "cost": 40,
    "LKAGACEAOFP": 10,
    "iconPath": "UI_Activity_Common_Buff_014",
    "HNKJGJPCJAK": [
      45,
      10,
      0,
      0,
      0
    ],
    "descriptionTextMapHash": 1650400579
  },
  {
    "buffId": 20,
    "abilityGroupName": "Activity_QuikTimeCombat_Level3_HealedTriggerAttackRatioUp_Lv2",
    "cost": 100,
    "LKAGACEAOFP": 10,
    "iconPath": "UI_Activity_Common_Buff_014",
    "HNKJGJPCJAK": [
      90,
      10,
      0,
      0,
      0
    ],
    "descriptionTextMapHash": 3542536875
  },
  {
    "buffId": 21,
    "abilityGroupName": "Activity_QuikTimeCombat_Level3_ExtraAttackTriggerWave_Lv1",
    "cost": 40,
    "LKAGACEAOFP": 11,
    "iconPath": "UI_Activity_Common_Buff_044",
    "HNKJGJPCJAK": [
      5,
      5,
      0,
      0,
      0
    ],
    "descriptionTextMapHash": 1135365891
  },
  {
    "buffId": 22,
    "abilityGroupName": "Activity_QuikTimeCombat_Level3_ExtraAttackTriggerWave_Lv2",
    "cost": 100,
    "LKAGACEAOFP": 11,
    "iconPath": "UI_Activity_Common_Buff_044",
    "HNKJGJPCJAK": [
      5,
      5,
      0,
      0,
      0
    ],
    "descriptionTextMapHash": 711969459
  },
  {
    "buffId": 23,
    "abilityGroupName": "Activity_QuikTimeCombat_Level4_WaterDamageUp_Lv1",
    "cost": 40,
    "LKAGACEAOFP": 12,
    "iconPath": "UI_Activity_Common_Buff_038",
    "HNKJGJPCJAK": [
      30,
      0,
      0,
      0,
      0
    ],
    "descriptionTextMapHash": 2151488355
  },
  {
    "buffId": 24,
    "abilityGroupName": "Activity_QuikTimeCombat_Level4_WaterDamageUp_Lv2",
    "cost": 100,
    "LKAGACEAOFP": 12,
    "iconPath": "UI_Activity_Common_Buff_038",
    "HNKJGJPCJAK": [
      60,
      0,
      0,
      0,
      0
    ],
    "descriptionTextMapHash": 2892641659
  },
  {
    "buffId": 25,
    "abilityGroupName": "Activity_QuikTimeCombat_Level4_HealedTriggerExtraAttackDamageUp_Lv1",
    "cost": 40,
    "LKAGACEAOFP": 13,
    "iconPath": "UI_Activity_Common_Buff_014",
    "HNKJGJPCJAK": [
      40,
      5,
      0,
      0,
      0
    ],
    "descriptionTextMapHash": 1381740707
  },
  {
    "buffId": 26,
    "abilityGroupName": "Activity_QuikTimeCombat_Level4_HealedTriggerExtraAttackDamageUp_Lv2",
    "cost": 100,
    "LKAGACEAOFP": 13,
    "iconPath": "UI_Activity_Common_Buff_014",
    "HNKJGJPCJAK": [
      80,
      5,
      0,
      0,
      0
    ],
    "descriptionTextMapHash": 3593106627
  },
  {
    "buffId": 27,
    "abilityGroupName": "Activity_QuikTimeCombat_Level4_WaterReactionTriggerWave_Lv1",
    "cost": 40,
    "LKAGACEAOFP": 14,
    "iconPath": "UI_Activity_Common_Buff_034",
    "HNKJGJPCJAK": [
      5,
      5,
      0,
      0,
      0
    ],
    "descriptionTextMapHash": 3813754915
  },
  {
    "buffId": 28,
    "abilityGroupName": "Activity_QuikTimeCombat_Level4_WaterReactionTriggerWave_Lv2",
    "cost": 100,
    "LKAGACEAOFP": 14,
    "iconPath": "UI_Activity_Common_Buff_034",
    "HNKJGJPCJAK": [
      5,
      5,
      0,
      0,
      0
    ],
    "descriptionTextMapHash": 2218649307
  },
  {
    "buffId": 29,
    "abilityGroupName": "Activity_QuikTimeCombat_Level5_IceDamageUp_Lv1",
    "cost": 40,
    "LKAGACEAOFP": 15,
    "iconPath": "UI_Activity_Common_Buff_040",
    "HNKJGJPCJAK": [
      30,
      0,
      0,
      0,
      0
    ],
    "descriptionTextMapHash": 4033301851
  },
  {
    "buffId": 30,
    "abilityGroupName": "Activity_QuikTimeCombat_Level5_IceDamageUp_Lv2",
    "cost": 100,
    "LKAGACEAOFP": 15,
    "iconPath": "UI_Activity_Common_Buff_040",
    "HNKJGJPCJAK": [
      60,
      0,
      0,
      0,
      0
    ],
    "descriptionTextMapHash": 2487628259
  },
  {
    "buffId": 31,
    "abilityGroupName": "Activity_QuikTimeCombat_Level5_ElemMasteryDelta_Lv1",
    "cost": 40,
    "LKAGACEAOFP": 16,
    "iconPath": "UI_Activity_Common_Buff_041",
    "HNKJGJPCJAK": [
      120,
      0,
      0,
      0,
      0
    ],
    "descriptionTextMapHash": 2132868395
  },
  {
    "buffId": 32,
    "abilityGroupName": "Activity_QuikTimeCombat_Level5_ElemMasteryDelta_Lv2",
    "cost": 100,
    "LKAGACEAOFP": 16,
    "iconPath": "UI_Activity_Common_Buff_041",
    "HNKJGJPCJAK": [
      240,
      0,
      0,
      0,
      0
    ],
    "descriptionTextMapHash": 4043072739
  },
  {
    "buffId": 33,
    "abilityGroupName": "Activity_QuikTimeCombat_Level5_HighHPTriggerDamageUp_Lv1",
    "cost": 40,
    "LKAGACEAOFP": 17,
    "iconPath": "UI_Activity_Common_Buff_035",
    "HNKJGJPCJAK": [
      50,
      40,
      0,
      0,
      0
    ],
    "descriptionTextMapHash": 1857923163
  },
  {
    "buffId": 34,
    "abilityGroupName": "Activity_QuikTimeCombat_Level5_HighHPTriggerDamageUp_Lv2",
    "cost": 100,
    "LKAGACEAOFP": 17,
    "iconPath": "UI_Activity_Common_Buff_035",
    "HNKJGJPCJAK": [
      50,
      80,
      0,
      0,
      0
    ],
    "descriptionTextMapHash": 1053345475
  }
]