[
  {
    "id": 1,
    "equipType": "EQUIP_RING",
    "OMDPDFMLDHI": [
      30,
      40,
      41,
      42,
      43,
      44,
      45,
      46
    ]
  },
  {
    "id": 2,
    "equipType": "EQUIP_DRESS",
    "OMDPDFMLDHI": [
      20
    ]
  },
  {
    "id": 3,
    "equipType": "EQUIP_DRESS",
    "OMDPDFMLDHI": [
      22
    ]
  }
]