[
  {
    "id": 1001,
    "reminderID": [
      1105001,
      1105002
    ],
    "showType": "TALK"
  },
  {
    "id": 1002,
    "reminderID": [
      1106001,
      1106002,
      1106003
    ],
    "showType": "TALK"
  },
  {
    "id": 1003,
    "reminderID": [
      1107001,
      1107002,
      1107003
    ],
    "showType": "TALK"
  },
  {
    "id": 1004,
    "reminderID": [
      1108001
    ],
    "showType": "TALK"
  }
]