[
  {
    "scheduleId": 1,
    "beginTimeStr": "2024-03-01 04:00:00",
    "ACFKNNHODHI": "2024-04-23 13:59:59",
    "avatarConfigId": 1,
    "rewardGroupId": 1,
    "EFHCIMEBLLB": [
      1,
      2
    ],
    "FFEJEMNNALJ": [
      1,
      2,
      3
    ],
    "DKCOPJDEMGN": [
      1054001,
      1054002,
      1054003,
      1054004,
      1054005,
      1054006
    ],
    "GLKGJCANHDF": 15
  },
  {
    "scheduleId": 2,
    "beginTimeStr": "2024-04-23 14:00:00",
    "ACFKNNHODHI": "2024-05-22 03:59:59",
    "avatarConfigId": 1,
    "rewardGroupId": 1,
    "EFHCIMEBLLB": [
      1,
      2
    ],
    "FFEJEMNNALJ": [
      1,
      2,
      3
    ],
    "DKCOPJDEMGN": [
      1054001,
      1054002,
      1054003,
      1054004,
      1054005,
      1054006
    ],
    "GLKGJCANHDF": 15
  },
  {
    "scheduleId": 3,
    "beginTimeStr": "2024-07-01 10:00:00",
    "ACFKNNHODHI": "2024-08-01 03:59:59",
    "avatarConfigId": 1,
    "rewardGroupId": 1,
    "EFHCIMEBLLB": [
      1,
      2
    ],
    "FFEJEMNNALJ": [
      1,
      2,
      3
    ],
    "DKCOPJDEMGN": [
      1054001,
      1054002,
      1054003,
      1054004,
      1054005,
      1054006
    ],
    "GLKGJCANHDF": 15
  }
]