[
  {
    "id": 1,
    "subSpritePath": "ART/UI/Atlas/GCG/BuffIcon/UI_Gcg_Buff_Common_Element_Physics",
    "subSpriteHeightScale": 1
  },
  {
    "id": 2,
    "subSpritePath": "ART/UI/Atlas/GCG/BuffIcon/UI_Gcg_Buff_Common_Element_Physics",
    "subSpriteHeightScale": 0.7,
    "subSpriteOffsetX": 20,
    "subSpriteOffsetY": 20
  }
]