[
  {
    "id": 1,
    "nameTextMapHash": 1296604533,
    "iconPath": "Ui_SystemOpenIcon_Gacha",
    "descTextMapHash": 1072889423
  },
  {
    "id": 2,
    "nameTextMapHash": 3430130293,
    "iconPath": "Ui_SystemOpenIcon_SeaLampGiving",
    "descTextMapHash": 3795216775
  },
  {
    "id": 3,
    "nameTextMapHash": 2299426197,
    "iconPath": "Ui_SystemOpenIcon_Obscurae",
    "descTextMapHash": 1450940447
  },
  {
    "id": 4,
    "nameTextMapHash": 2556010021,
    "iconPath": "Ui_SystemOpenIcon_Domain",
    "descTextMapHash": 4099058839
  },
  {
    "id": 5,
    "nameTextMapHash": 3018561549,
    "iconPath": "Ui_SystemOpenIcon_Domain",
    "descTextMapHash": 1941061399
  },
  {
    "id": 6,
    "nameTextMapHash": 3980114813,
    "iconPath": "Ui_SystemOpenIcon_Domain",
    "descTextMapHash": 910761623
  },
  {
    "id": 7,
    "nameTextMapHash": 1678090781,
    "iconPath": "Ui_SystemOpenIcon_Domain",
    "descTextMapHash": 2378740319
  },
  {
    "id": 8,
    "nameTextMapHash": 3149990789,
    "iconPath": "Ui_SystemOpenIcon_Domain",
    "descTextMapHash": 1158973039
  },
  {
    "id": 9,
    "nameTextMapHash": 834874869,
    "iconPath": "Ui_SystemOpenIcon_MultiPlayer",
    "descTextMapHash": 1193632439
  },
  {
    "id": 10,
    "nameTextMapHash": 1652207429,
    "iconPath": "Ui_SystemOpenIcon_BattlePass",
    "descTextMapHash": 1593629711
  },
  {
    "id": 11,
    "nameTextMapHash": 225120485,
    "iconPath": "Ui_SystemOpenIcon_Blossom",
    "descTextMapHash": 3177532175
  },
  {
    "id": 12,
    "nameTextMapHash": 1830212389,
    "iconPath": "Ui_SystemOpenIcon_Mall",
    "descTextMapHash": 142910503
  },
  {
    "id": 13,
    "nameTextMapHash": 3174833333,
    "iconPath": "Ui_SystemOpenIcon_Appearance",
    "descTextMapHash": 1265680447
  },
  {
    "id": 14,
    "nameTextMapHash": 2122605205,
    "iconPath": "Ui_SystemOpenIcon_Reputation",
    "descTextMapHash": 727634575
  },
  {
    "id": 15,
    "nameTextMapHash": 658569365,
    "iconPath": "Ui_SystemOpenIcon_Eldertree",
    "descTextMapHash": 3616541199
  },
  {
    "id": 16,
    "nameTextMapHash": 1911628725,
    "iconPath": "Ui_SystemOpenIcon_Homeworld",
    "descTextMapHash": 4168951967
  },
  {
    "id": 17,
    "nameTextMapHash": 314479405,
    "iconPath": "Ui_SystemOpenIcon_LegendQuest",
    "descTextMapHash": 3335066855
  },
  {
    "id": 18,
    "nameTextMapHash": 462929885,
    "iconPath": "Ui_SystemOpenIcon_Oraionokami",
    "descTextMapHash": 2355779071
  },
  {
    "id": 19,
    "nameTextMapHash": 914868997,
    "iconPath": "Ui_SystemOpenIcon_Fishing",
    "descTextMapHash": 4285667119
  },
  {
    "id": 20,
    "nameTextMapHash": 4253760733,
    "iconPath": "Ui_SystemOpenIcon_LuminanceStone",
    "descTextMapHash": 3167870799
  },
  {
    "id": 21,
    "nameTextMapHash": 3007531069,
    "iconPath": "Ui_SystemOpenIcon_Vasara01",
    "descTextMapHash": 1395143615
  },
  {
    "id": 22,
    "nameTextMapHash": 3351818149,
    "iconPath": "Ui_SystemOpenIcon_Gcg",
    "descTextMapHash": 3982537839,
    "waitMainPage": true
  },
  {
    "id": 23,
    "nameTextMapHash": 744645637,
    "iconPath": "Ui_SystemOpenIcon_OfferingPari",
    "descTextMapHash": 2634484239
  },
  {
    "id": 24,
    "nameTextMapHash": 880047005,
    "iconPath": "Ui_SystemOpenIcon_WishingPond",
    "descTextMapHash": 2154709847
  },
  {
    "id": 25,
    "nameTextMapHash": 1818643765,
    "iconPath": "UI_SystemOpenIcon_Silong",
    "descTextMapHash": 2582019407
  },
  {
    "id": 26,
    "nameTextMapHash": 3915606029,
    "iconPath": "Ui_SystemOpenIcon_RoleCombat",
    "descTextMapHash": 3605663999
  }
]