[
  {
    "id": 1,
    "openDay": 1,
    "galleryId": 68004,
    "IHEDOHBKIFH": 133403713,
    "POLLOJDICDC": [
      713030,
      713007
    ],
    "OBPIFIJMPAL": 713017
  },
  {
    "id": 2,
    "openDay": 2,
    "galleryId": 68003,
    "IHEDOHBKIFH": 133401538,
    "POLLOJDICDC": [
      538013
    ],
    "LJIGGLENOFB": true,
    "OBPIFIJMPAL": 538001
  },
  {
    "id": 3,
    "openDay": 3,
    "galleryId": 68005,
    "IHEDOHBKIFH": 133408623,
    "POLLOJDICDC": [
      623026,
      623011
    ],
    "OBPIFIJMPAL": 623043
  },
  {
    "id": 4,
    "openDay": 4,
    "galleryId": 68006,
    "IHEDOHBKIFH": 133408933,
    "POLLOJDICDC": [
      933019
    ],
    "LJIGGLENOFB": true,
    "OBPIFIJMPAL": 933073
  },
  {
    "id": 5,
    "openDay": 5,
    "galleryId": 68008,
    "IHEDOHBKIFH": 133402378,
    "POLLOJDICDC": [
      378026,
      378011
    ],
    "OBPIFIJMPAL": 378045
  },
  {
    "id": 6,
    "openDay": 6,
    "galleryId": 68007,
    "IHEDOHBKIFH": 133412190,
    "POLLOJDICDC": [
      190019
    ],
    "LJIGGLENOFB": true,
    "OBPIFIJMPAL": 190073
  }
]