[
  {
    "id": 1,
    "FBJIENDHOCB": 2357161279,
    "KPAHLJKBMBG": "UGC_DUNGEON_LABEL_BELONG_BASIC",
    "JKCJELIPPJA": "UGC_DUNGEON_LABEL_NO_ICON",
    "NAIHJEFMHCF": [
      2
    ],
    "OLHGCIFFIIH": "",
    "EIJHPEPGPFJ": "",
    "GBNFCCOJHAB": "",
    "ECCFLECACAJ": "",
    "JHDLMFBKIAF": "#D1D0CFC0",
    "DDGLAIIJIKF": "#5c6980FF",
    "sortID": 3,
    "KHKAGLNCNMO": "",
    "MFCFDBNPIGD": 183326526
  },
  {
    "id": 2,
    "FBJIENDHOCB": 2412653215,
    "KPAHLJKBMBG": "UGC_DUNGEON_LABEL_BELONG_BASIC",
    "JKCJELIPPJA": "UGC_DUNGEON_LABEL_NO_ICON",
    "NAIHJEFMHCF": [
      1
    ],
    "OLHGCIFFIIH": "",
    "EIJHPEPGPFJ": "",
    "GBNFCCOJHAB": "",
    "ECCFLECACAJ": "",
    "JHDLMFBKIAF": "#F0B7ADC0",
    "DDGLAIIJIKF": "#cc5949FF",
    "sortID": 4,
    "KHKAGLNCNMO": "",
    "MFCFDBNPIGD": 3936266918
  },
  {
    "id": 3,
    "FBJIENDHOCB": 2332904191,
    "KPAHLJKBMBG": "UGC_DUNGEON_LABEL_BELONG_BASIC",
    "JKCJELIPPJA": "UGC_DUNGEON_LABEL_NO_ICON",
    "NAIHJEFMHCF": [
      4
    ],
    "OLHGCIFFIIH": "",
    "EIJHPEPGPFJ": "",
    "GBNFCCOJHAB": "",
    "ECCFLECACAJ": "",
    "JHDLMFBKIAF": "#D1D0CFC0",
    "DDGLAIIJIKF": "#5c6980FF",
    "sortID": 1,
    "KHKAGLNCNMO": "",
    "MFCFDBNPIGD": 3743380206
  },
  {
    "id": 4,
    "FBJIENDHOCB": 53014055,
    "KPAHLJKBMBG": "UGC_DUNGEON_LABEL_BELONG_BASIC",
    "JKCJELIPPJA": "UGC_DUNGEON_LABEL_NO_ICON",
    "NAIHJEFMHCF": [
      3
    ],
    "OLHGCIFFIIH": "",
    "EIJHPEPGPFJ": "",
    "GBNFCCOJHAB": "",
    "ECCFLECACAJ": "",
    "JHDLMFBKIAF": "#F0B7ADC0",
    "DDGLAIIJIKF": "#cc5949FF",
    "sortID": 2,
    "KHKAGLNCNMO": "",
    "MFCFDBNPIGD": 459504526
  },
  {
    "id": 5,
    "FBJIENDHOCB": 1458411223,
    "KPAHLJKBMBG": "UGC_DUNGEON_LABEL_BELONG_BASIC",
    "JKCJELIPPJA": "UGC_DUNGEON_LABEL_NO_ICON",
    "NAIHJEFMHCF": [
      6
    ],
    "OLHGCIFFIIH": "",
    "EIJHPEPGPFJ": "",
    "GBNFCCOJHAB": "",
    "ECCFLECACAJ": "",
    "JHDLMFBKIAF": "#D1D0CFC0",
    "DDGLAIIJIKF": "#5c6980FF",
    "sortID": 5,
    "HKKDLFMMNJH": "Require_MaxPlayer",
    "KHKAGLNCNMO": "1",
    "MFCFDBNPIGD": 206472894
  },
  {
    "id": 6,
    "FBJIENDHOCB": 2262788351,
    "KPAHLJKBMBG": "UGC_DUNGEON_LABEL_BELONG_BASIC",
    "JKCJELIPPJA": "UGC_DUNGEON_LABEL_NO_ICON",
    "NAIHJEFMHCF": [
      5
    ],
    "OLHGCIFFIIH": "",
    "EIJHPEPGPFJ": "",
    "GBNFCCOJHAB": "",
    "ECCFLECACAJ": "",
    "JHDLMFBKIAF": "#D1D0CFC0",
    "DDGLAIIJIKF": "#5c6980FF",
    "sortID": 6,
    "HKKDLFMMNJH": "Require_MaxPlayer",
    "KHKAGLNCNMO": "2",
    "MFCFDBNPIGD": 2537058942
  },
  {
    "id": 7,
    "FBJIENDHOCB": 4065670663,
    "KPAHLJKBMBG": "UGC_DUNGEON_LABEL_BELONG_ADVANCE",
    "JKCJELIPPJA": "UGC_DUNGEON_LABEL_SPECIFIC_ICON",
    "NAIHJEFMHCF": [],
    "OLHGCIFFIIH": "UI_Img_UgcType_Survival_Pic_Alpha",
    "EIJHPEPGPFJ": "UI_Img_UgcType_Survival_UpLoad",
    "GBNFCCOJHAB": "UI_Img_UgcType_Survival_Pic_Bg",
    "ECCFLECACAJ": "UI_Icon_UgcType_Survival_Pic",
    "JHDLMFBKIAF": "#7eb249FF",
    "DDGLAIIJIKF": "#FFFFFFFF",
    "sortID": 7,
    "KHKAGLNCNMO": "",
    "MFCFDBNPIGD": 1192143374
  },
  {
    "id": 8,
    "FBJIENDHOCB": 3191394559,
    "KPAHLJKBMBG": "UGC_DUNGEON_LABEL_BELONG_ADVANCE",
    "JKCJELIPPJA": "UGC_DUNGEON_LABEL_SPECIFIC_ICON",
    "NAIHJEFMHCF": [],
    "OLHGCIFFIIH": "UI_Img_UgcType_Tower_Pic_Alpha",
    "EIJHPEPGPFJ": "UI_Img_UgcType_Tower_UpLoad",
    "GBNFCCOJHAB": "UI_Img_UgcType_Tower_Pic_Bg",
    "ECCFLECACAJ": "UI_Icon_UgcType_Tower_Pic",
    "JHDLMFBKIAF": "#669dadFF",
    "DDGLAIIJIKF": "#FFFFFFFF",
    "sortID": 8,
    "KHKAGLNCNMO": "",
    "MFCFDBNPIGD": 1174806326
  },
  {
    "id": 9,
    "FBJIENDHOCB": 2849266607,
    "KPAHLJKBMBG": "UGC_DUNGEON_LABEL_BELONG_ADVANCE",
    "JKCJELIPPJA": "UGC_DUNGEON_LABEL_SPECIFIC_ICON",
    "NAIHJEFMHCF": [],
    "OLHGCIFFIIH": "UI_Img_UgcType_Pass_Pic_Alpha",
    "EIJHPEPGPFJ": "UI_Img_UgcType_Pass_UpLoad",
    "GBNFCCOJHAB": "UI_Img_UgcType_Pass_Pic_Bg",
    "ECCFLECACAJ": "UI_Icon_UgcType_Pass_Pic",
    "JHDLMFBKIAF": "#79b8adFF",
    "DDGLAIIJIKF": "#FFFFFFFF",
    "sortID": 9,
    "KHKAGLNCNMO": "",
    "MFCFDBNPIGD": 813077862
  },
  {
    "id": 10,
    "FBJIENDHOCB": 3579163567,
    "KPAHLJKBMBG": "UGC_DUNGEON_LABEL_BELONG_ADVANCE",
    "JKCJELIPPJA": "UGC_DUNGEON_LABEL_SPECIFIC_ICON",
    "NAIHJEFMHCF": [],
    "OLHGCIFFIIH": "UI_Img_UgcType_Parkour_Pic_Alpha",
    "EIJHPEPGPFJ": "UI_Img_UgcType_Parkour_UpLoad",
    "GBNFCCOJHAB": "UI_Img_UgcType_Parkour_Pic_Bg",
    "ECCFLECACAJ": "UI_Icon_UgcType_Parkour_Pic",
    "JHDLMFBKIAF": "#bda959FF",
    "DDGLAIIJIKF": "#FFFFFFFF",
    "sortID": 10,
    "KHKAGLNCNMO": "",
    "MFCFDBNPIGD": 2139210214
  },
  {
    "id": 11,
    "FBJIENDHOCB": 2553328255,
    "KPAHLJKBMBG": "UGC_DUNGEON_LABEL_BELONG_ADVANCE",
    "JKCJELIPPJA": "UGC_DUNGEON_LABEL_SPECIFIC_ICON",
    "NAIHJEFMHCF": [],
    "OLHGCIFFIIH": "UI_Img_UgcType_Battle_Pic_Alpha",
    "EIJHPEPGPFJ": "UI_Img_UgcType_Battle_Pic_UpLoad",
    "GBNFCCOJHAB": "UI_Img_UgcType_Battle_Pic_Bg",
    "ECCFLECACAJ": "UI_Icon_UgcType_Battle_Pic",
    "JHDLMFBKIAF": "#d17164FF",
    "DDGLAIIJIKF": "#FFFFFFFF",
    "sortID": 11,
    "KHKAGLNCNMO": "",
    "MFCFDBNPIGD": 2063915894
  },
  {
    "id": 12,
    "FBJIENDHOCB": 1290246031,
    "KPAHLJKBMBG": "UGC_DUNGEON_LABEL_BELONG_NOT_SHOW",
    "JKCJELIPPJA": "UGC_DUNGEON_LABEL_EMPTY_ICON",
    "NAIHJEFMHCF": [],
    "OLHGCIFFIIH": "UI_Img_UgcType_None_Pic_Alpha",
    "EIJHPEPGPFJ": "",
    "GBNFCCOJHAB": "UI_Img_UgcType_None_Pic_Bg",
    "ECCFLECACAJ": "UI_Icon_UgcType_None_Pic",
    "JHDLMFBKIAF": "",
    "DDGLAIIJIKF": "",
    "KHKAGLNCNMO": "",
    "MFCFDBNPIGD": 1545778238
  },
  {
    "id": 13,
    "FBJIENDHOCB": 1694892775,
    "KPAHLJKBMBG": "UGC_DUNGEON_LABEL_BELONG_NOT_SHOW",
    "JKCJELIPPJA": "UGC_DUNGEON_LABEL_MIXED_ICON",
    "NAIHJEFMHCF": [],
    "OLHGCIFFIIH": "UI_Img_UgcType_Blend_Pic_Alpha",
    "EIJHPEPGPFJ": "",
    "GBNFCCOJHAB": "UI_Img_UgcType_Blend_Pic_Bg",
    "ECCFLECACAJ": "UI_Icon_UgcType_Blend_Pic",
    "JHDLMFBKIAF": "",
    "DDGLAIIJIKF": "",
    "KHKAGLNCNMO": "",
    "MFCFDBNPIGD": 1374508254
  }
]