[
  {
    "id": 1,
    "HFNDLKHEDBN": "dungeon8801_ugcdungeon_config",
    "GMPNPMNNBHL": 8902,
    "dungeonId": 8901,
    "JEHCAJOMDHO": [
      1,
      2,
      3,
      4,
      5,
      6,
      7
    ],
    "GOKBBHBHGFM": 6,
    "CNIOGFNJMBA": 5,
    "JHGBDHMCJIA": 8,
    "NCEMBILPFPJ": 4,
    "CPPOINGKDHP": [
      1,
      10,
      3
    ],
    "HOCBHNADDFH": [
      0,
      10,
      1
    ],
    "OOBABEKJDNG": [
      30,
      5999,
      240
    ],
    "FGDCIGEDDAF": [
      1,
      2,
      1
    ],
    "LMFAAJGOKDA": 41001,
    "controlGroupId": 247501001,
    "BGOEJENOHMF": 20,
    "JEGBLOJGFJL": 3,
    "CMCGPGJANFA": 5,
    "JKKOMBNHOEA": 3,
    "MHNHNIIECAG": 8003,
    "NCLNJLHMINK": 8002,
    "KJMADHHKEJL": 8002,
    "ICHENIFKLPE": 470610005,
    "MNBEGKALADM": 470610006,
    "PFDDMHBLEPC": 100,
    "MCILPLJAAIM": 100,
    "PHGANEPOOJL": 4,
    "MCOHHMKCAHJ": 10,
    "FJJKODDEJHE": 20,
    "EGPPGFGOJMB": "SGV_UGCHeartHealth",
    "NEKLMAHILBG": 1,
    "CFKPDCPMFHP": [
      5,
      6000,
      5
    ],
    "HJJFBGLLJLI": 470610007,
    "KMCPGLPDPEO": 4,
    "GDIEODPCJMB": 999,
    "PGKDMLHMILG": "SGV_UGCRemoveTower",
    "JCMMGLNBCPG": [
      15133018
    ],
    "JIGFCKALNBC": 15,
    "CDGMABCJJAF": 60,
    "OJMDAGLCLLP": 12,
    "DHGEALEHFHF": 13,
    "markId": 913,
    "MNKAJKKKHPF": 1418,
    "AMCJDHNBLON": 1419,
    "JEDBNGMJFCJ": [
      10,
      10
    ],
    "LOOCFPPOLBH": [
      1411,
      1451
    ],
    "PKADPIDBHHB": 20,
    "CEFLFALHMHJ": 30,
    "OCAMPBMKDFJ": 99999,
    "ANHIFEKDHBF": 10
  }
]