[
  {
    "DHFDMOOBKEM": "Ground",
    "ONNFAJIAKKP": [
      1,
      7,
      8
    ]
  },
  {
    "DHFDMOOBKEM": "Prop",
    "ONNFAJIAKKP": [
      2,
      4,
      6,
      7,
      8
    ]
  },
  {
    "DHFDMOOBKEM": "Airflow",
    "ONNFAJIAKKP": [
      3,
      7,
      8
    ]
  },
  {
    "DHFDMOOBKEM": "Spike",
    "ONNFAJIAKKP": [
      2,
      4,
      7,
      8
    ]
  },
  {
    "DHFDMOOBKEM": "WindCircle",
    "ONNFAJIAKKP": [
      5,
      7,
      8
    ]
  },
  {
    "DHFDMOOBKEM": "Bubble",
    "ONNFAJIAKKP": [
      2,
      6
    ]
  },
  {
    "DHFDMOOBKEM": "Monstermodel",
    "ONNFAJIAKKP": [
      1,
      2,
      3,
      4,
      5,
      7
    ]
  },
  {
    "DHFDMOOBKEM": "Monsterskill",
    "ONNFAJIAKKP": [
      1,
      2,
      3,
      4,
      5,
      8
    ]
  },
  {
    "DHFDMOOBKEM": "MonsterWave",
    "ONNFAJIAKKP": [
      9
    ]
  }
]