[
  {
    "id": 1,
    "PEEKNGLIMHP": [
      "UGC_DUNGEON_SCORE_MONSTER_DIE",
      "UGC_DUNGEON_SCORE_COIN",
      "UGC_DUNGEON_SCORE_CHEST_OPEN",
      "UGC_DUNGEON_SCORE_ROOM_SETTLE"
    ],
    "OIHDPMMLJGF": 4093243915,
    "KAPFPCAIFHB": "UI_Icon_UgcType_Blend",
    "KLLKPLOAICD": []
  },
  {
    "id": 2,
    "PEEKNGLIMHP": [
      "UGC_DUNGEON_SCORE_MONSTER_DIE"
    ],
    "OIHDPMMLJGF": 632753235,
    "KAPFPCAIFHB": "UI_Icon_UgcType_Battle",
    "KLLKPLOAICD": [
      11
    ]
  },
  {
    "id": 3,
    "PEEKNGLIMHP": [
      "UGC_DUNGEON_SCORE_COIN"
    ],
    "OIHDPMMLJGF": 2939016883,
    "KAPFPCAIFHB": "UI_Icon_UgcType_Parkour",
    "KLLKPLOAICD": [
      10
    ]
  },
  {
    "id": 4,
    "PEEKNGLIMHP": [
      "UGC_DUNGEON_SCORE_ROOM_SETTLE"
    ],
    "OIHDPMMLJGF": 1689658267,
    "KAPFPCAIFHB": "UI_Icon_UgcType_Pass",
    "KLLKPLOAICD": [
      9
    ]
  }
]