[
  {
    "Default": {
      "$type": "MoleMole.Config.GNKCLKNDOAK",
      "abilityName": "Animal_Thoarder_Weasel_Alert",
      "BFBDNNJCDLH": {
        "SetSelfAttackTarget": {
          "modifierName": "",
          "elementDurability": 100.0,
          "OAOGLLGGJPD": [
            {
              "$type": "MoleMole.Config.SetSelfAttackTarget",
              "MLDBFKEGPEF": "Caster"
            }
          ]
        }
      },
      "OAOGLLGGJPD": [
        {
          "$type": "MoleMole.Config.AddGlobalValue",
          "value": 1.0,
          "key": "_IS_WEASEL",
          "HPICGAMGEGA": true,
          "maxValue": 1.0,
          "GCEOGBJIFCP": 0.0
        }
      ],
      "EIIHGJGFDHC": [
        {
          "$type": "MoleMole.Config.RemoveUniqueModifier",
          "doOffStage": true,
          "modifierName": "UNIQUE_Invisible"
        },
        {
          "$type": "MoleMole.Config.AttachEffect",
          "doOffStage": true,
          "effectPattern": "Eff_Animal_Thoarder_Weasel_Jump",
          "born": {
            "$type": "KPFCCIOJAMK",
            "onGround": true
          },
          "effectTempleteID": -1.0
        },
        {
          "$type": "MoleMole.Config.Predicated",
          "otherTargets": {
            "$type": "BBODFELHFPD",
            "value": 2
          },
          "CKBKOCJPJMM": [
            {
              "$type": "IPGGGPIJONN",
              "key": "_IS_MOLE_HOLE",
              "value": 1.0
            }
          ],
          "successActions": [
            {
              "$type": "MoleMole.Config.ApplyModifier",
              "MLDBFKEGPEF": "Target",
              "modifierName": "SetSelfAttackTarget"
            }
          ]
        }
      ]
    }
  },
  {
    "Default": {
      "$type": "MoleMole.Config.GNKCLKNDOAK",
      "abilityName": "Animal_Thoarder_Weasel_Drill",
      "BFBDNNJCDLH": {
        "UNIQUE_Blink_Actions": {
          "modifierName": "",
          "LLIJGLMEHFK": true,
          "elementDurability": 100.0,
          "OAOGLLGGJPD": [
            {
              "$type": "MoleMole.Config.AttachModifier",
              "modifierName": "Blink_Invincible"
            },
            {
              "$type": "MoleMole.Config.AttachModifier",
              "modifierName": "Blink_DenyLockOn"
            },
            {
              "$type": "MoleMole.Config.TriggerSetVisible"
            },
            {
              "$type": "MoleMole.Config.EnableHitBoxByName",
              "MAEGDKKBDPK": [
                "HitBox"
              ]
            }
          ],
          "MINFJCDAIBB": [
            {
              "$type": "MoleMole.Config.EnableHitBoxByName",
              "MAEGDKKBDPK": [
                "HitBox"
              ],
              "NJKBCLADIBK": true
            },
            {
              "$type": "MoleMole.Config.TriggerSetVisible",
              "LJBECOMGDEJ": true
            }
          ]
        },
        "Blink_Invincible": {
          "modifierName": "",
          "elementDurability": 100.0,
          "state": "Invincible"
        },
        "Blink_DenyLockOn": {
          "modifierName": "",
          "elementDurability": 100.0,
          "state": "DenyLockOn"
        },
        "TriggerGadgetState": {
          "modifierName": "",
          "elementDurability": 100.0,
          "OAOGLLGGJPD": [
            {
              "$type": "MoleMole.Config.ExecuteGadgetLua",
              "param1": 203
            }
          ]
        }
      },
      "OAOGLLGGJPD": [
        {
          "$type": "MoleMole.Config.AddGlobalValue",
          "value": 1.0,
          "key": "_IS_WEASEL",
          "HPICGAMGEGA": true,
          "maxValue": 1.0,
          "GCEOGBJIFCP": 0.0
        }
      ],
      "EIIHGJGFDHC": [
        {
          "$type": "MoleMole.Config.ApplyModifier",
          "modifierName": "UNIQUE_Blink_Actions"
        },
        {
          "$type": "MoleMole.Config.Predicated",
          "otherTargets": {
            "$type": "BBODFELHFPD",
            "value": 2
          },
          "CKBKOCJPJMM": [
            {
              "$type": "IPGGGPIJONN",
              "key": "_IS_MOLE_HOLE",
              "value": 1.0
            }
          ],
          "successActions": [
            {
              "$type": "MoleMole.Config.ApplyModifier",
              "MLDBFKEGPEF": "Target",
              "modifierName": "TriggerGadgetState"
            },
            {
              "$type": "MoleMole.Config.SetAnimatorBool",
              "KIAGMJMPHPG": "Disappear",
              "value": true
            }
          ]
        },
        {
          "$type": "MoleMole.Config.KillSelf",
          "JAGAFBEMCPB": "Disappear",
          "BAHAOLGFMGF": true,
          "GPCAENCEJGM": true
        }
      ]
    }
  },
  {
    "Default": {
      "$type": "MoleMole.Config.GNKCLKNDOAK",
      "abilityName": "Animal_Thoarder_Weasel_Drill_Exit",
      "BFBDNNJCDLH": {
        "Disappear_Invincible": {
          "modifierName": "",
          "elementDurability": 100.0,
          "state": "Invincible"
        },
        "Disappear_DenyLockOn": {
          "modifierName": "",
          "elementDurability": 100.0,
          "state": "DenyLockOn"
        },
        "Disappear_Display": {
          "modifierName": "",
          "elementDurability": 100.0,
          "OAOGLLGGJPD": [
            {
              "$type": "MoleMole.Config.AttachModifier",
              "modifierName": "Disappear_Invincible"
            },
            {
              "$type": "MoleMole.Config.AttachModifier",
              "modifierName": "Disappear_DenyLockOn"
            },
            {
              "$type": "MoleMole.Config.TriggerSetVisible"
            },
            {
              "$type": "MoleMole.Config.EnableHitBoxByName",
              "MAEGDKKBDPK": [
                "HitBox"
              ]
            }
          ]
        }
      },
      "EIIHGJGFDHC": [
        {
          "$type": "MoleMole.Config.ApplyModifier",
          "modifierName": "Disappear_Display"
        },
        {
          "$type": "MoleMole.Config.KillSelf",
          "JAGAFBEMCPB": "Disappear",
          "BAHAOLGFMGF": true,
          "GPCAENCEJGM": true
        }
      ]
    }
  },
  {
    "Default": {
      "$type": "MoleMole.Config.GNKCLKNDOAK",
      "abilityName": "Animal_Thoarder_Weasel_Jump",
      "PIDAPNFJNDF": [
        {
          "$type": "MoleMole.Config.AttachToPoseIDMixin",
          "LEPKMNMJJHJ": [
            3
          ],
          "modifierName": "UNIQUE_Invisible"
        }
      ],
      "BFBDNNJCDLH": {
        "Invisible": {
          "modifierName": "",
          "elementDurability": 100.0,
          "OAOGLLGGJPD": [
            {
              "$type": "MoleMole.Config.ApplyModifier",
              "modifierName": "UNIQUE_Invisible"
            }
          ]
        },
        "UNIQUE_Invisible": {
          "modifierName": "",
          "LLIJGLMEHFK": true,
          "elementDurability": 100.0,
          "OAOGLLGGJPD": [
            {
              "$type": "MoleMole.Config.AttachModifier",
              "modifierName": "Invincible"
            },
            {
              "$type": "MoleMole.Config.AttachModifier",
              "modifierName": "DenyLockOn"
            },
            {
              "$type": "MoleMole.Config.TriggerSetVisible"
            },
            {
              "$type": "MoleMole.Config.EnableHitBoxByName",
              "MAEGDKKBDPK": [
                "HitBox"
              ]
            }
          ],
          "MINFJCDAIBB": [
            {
              "$type": "MoleMole.Config.EnableHitBoxByName",
              "MAEGDKKBDPK": [
                "HitBox"
              ],
              "NJKBCLADIBK": true
            },
            {
              "$type": "MoleMole.Config.TriggerSetVisible",
              "LJBECOMGDEJ": true
            }
          ]
        },
        "Invincible": {
          "modifierName": "",
          "elementDurability": 100.0,
          "state": "Invincible"
        },
        "DenyLockOn": {
          "modifierName": "",
          "elementDurability": 100.0,
          "state": "DenyLockOn"
        }
      }
    }
  },
  {
    "Default": {
      "$type": "MoleMole.Config.GNKCLKNDOAK",
      "abilityName": "Animal_Thoarder_Weasel_Flee",
      "PIDAPNFJNDF": [
        {
          "$type": "MoleMole.Config.AttachToPoseIDMixin",
          "LEPKMNMJJHJ": [
            901,
            911
          ],
          "modifierName": "DropMora"
        },
        {
          "$type": "MoleMole.Config.AttachToAnimatorStateIDMixin",
          "stateIDs": [
            "Run",
            "Disappear",
            "Walk",
            "Standby_Walk"
          ],
          "modifierName": "Effect",
          "MJFJKAHGHDJ": ""
        },
        {
          "$type": "MoleMole.Config.DoActionByAnimatorStateIDMixin",
          "stateIDs": [
            "Disappear"
          ],
          "GEDBCEGNPPO": [
            {
              "$type": "MoleMole.Config.ApplyModifier",
              "modifierName": "Disappear"
            }
          ],
          "MJFJKAHGHDJ": ""
        }
      ],
      "BFBDNNJCDLH": {
        "Effect": {
          "modifierName": "",
          "elementDurability": 100.0,
          "OAOGLLGGJPD": [
            {
              "$type": "MoleMole.Config.AttachEffect",
              "effectPattern": "Eff_Animal_Thoarder_Weasel_Walk",
              "effectTempleteID": -1.0
            }
          ]
        },
        "DropMora": {
          "modifierName": "",
          "elementDurability": 100.0,
          "BNJENAIMDPL": 0.5,
          "PJKELBNICOI": [
            {
              "$type": "MoleMole.Config.DropSubfield",
              "NIMKMHNHBMD": "MoraDrop"
            }
          ]
        },
        "Disappear": {
          "modifierName": "",
          "duration": 2.0,
          "elementDurability": 100.0,
          "OAOGLLGGJPD": [
            {
              "$type": "MoleMole.Config.StartDither",
              "NCBIBKJDCHI": 3.0
            }
          ],
          "MINFJCDAIBB": [
            {
              "$type": "MoleMole.Config.RemoveModifier",
              "modifierName": "DropMora"
            },
            {
              "$type": "MoleMole.Config.KillSelf",
              "JAGAFBEMCPB": "Disappear",
              "BAHAOLGFMGF": true,
              "GPCAENCEJGM": true
            },
            {
              "$type": "MoleMole.Config.SetAnimatorBool",
              "KIAGMJMPHPG": "Disappear",
              "value": true
            }
          ]
        }
      }
    }
  },
  {
    "Default": {
      "$type": "MoleMole.Config.GNKCLKNDOAK",
      "abilityName": "Animal_Thoarder_Weasel_ToWander",
      "EIIHGJGFDHC": [
        {
          "$type": "MoleMole.Config.SetPoseBool",
          "KIAGMJMPHPG": "Wander",
          "value": true
        }
      ]
    }
  },
  {
    "Default": {
      "$type": "MoleMole.Config.GNKCLKNDOAK",
      "abilityName": "Animal_Thoarder_Weasel_ToIdle",
      "EIIHGJGFDHC": [
        {
          "$type": "MoleMole.Config.SetPoseBool",
          "KIAGMJMPHPG": "Wander"
        }
      ]
    }
  },
  {
    "Default": {
      "$type": "MoleMole.Config.GNKCLKNDOAK",
      "abilityName": "Animal_Thoarder_Weasel_State",
      "PIDAPNFJNDF": [
        {
          "$type": "MoleMole.Config.AttachToPoseIDMixin",
          "LEPKMNMJJHJ": [
            1,
            2,
            3,
            101,
            102,
            9
          ],
          "modifierName": "LockHp"
        }
      ],
      "BFBDNNJCDLH": {
        "LockHp": {
          "modifierName": "",
          "elementDurability": 100.0,
          "state": "LockHP"
        },
        "HideUIBillBoard": {
          "modifierName": "",
          "elementDurability": 100.0,
          "OAOGLLGGJPD": [
            {
              "$type": "MoleMole.Config.HideUIBillBoard",
              "hide": true
            }
          ]
        }
      },
      "OAOGLLGGJPD": [
        {
          "$type": "MoleMole.Config.ApplyModifier",
          "modifierName": "HideUIBillBoard"
        },
        {
          "$type": "MoleMole.Config.AttachEffect",
          "predicates": [
            {
              "$type": "IPGGGPIJONN",
              "key": "_THOARDER_WEASEL_LEVEL01",
              "value": 1.0
            }
          ],
          "effectPattern": "Eff_Animal_Thoarder_Weasel_Bag01",
          "effectTempleteID": -1.0
        },
        {
          "$type": "MoleMole.Config.AttachEffect",
          "predicates": [
            {
              "$type": "IPGGGPIJONN",
              "key": "_THOARDER_WEASEL_LEVEL02",
              "value": 1.0
            }
          ],
          "effectPattern": "Eff_Animal_Thoarder_Weasel_Bag02",
          "effectTempleteID": -1.0
        },
        {
          "$type": "MoleMole.Config.AttachEffect",
          "predicates": [
            {
              "$type": "IPGGGPIJONN",
              "key": "_THOARDER_WEASEL_LEVEL03",
              "value": 1.0
            }
          ],
          "effectPattern": "Eff_Animal_Thoarder_Weasel_Bag03",
          "effectTempleteID": -1.0
        }
      ]
    }
  }
]