{
  "luaDataPath": "",
  "isSimpleTalk": true,
  "entityBan": "",
  "disableNpcLod": true,
  "startFade": {
    "startFadeOutDuration": 0.0
  },
  "endFade": {
    "startFadeOutDuration": 0.0
  },
  "actors": [
    {
      "alias": "Avatar",
      "visible": true,
      "bornPointName": "",
      "relativePosNpcAlias": "",
      "_bindMovingTargetKey": ""
    },
    {
      "configID": 3151,
      "alias": "3151",
      "visible": true,
      "bornPointName": "",
      "relativePosNpcAlias": "",
      "_bindMovingTargetKey": ""
    },
    {
      "configID": 1005,
      "alias": "1005",
      "visible": true,
      "bornPointName": "",
      "relativePos": {
        "x": -0.5,
        "z": 0.5
      },
      "relativePosNpcAlias": "",
      "_bindMovingTargetKey": ""
    }
  ],
  "group": [
    [
      {
        "$type": "EFHODGEJOHJ",
        "type": "CAMERA_FOCUS",
        "delayTime": 0.30000001192092896,
        "duration": 0.10000000149011612,
        "targetNpcAlias": "",
        "PHGBNNGCJKJ": "",
        "NFILMKCFHEB": "",
        "BGPNGHDAECF": ""
      },
      {
        "$type": "MoleMole.Config.ConfigTimeProtectAction",
        "type": "TIME_PROTECT",
        "duration": 0.4000000059604645
      }
    ],
    [
      {
        "$type": "IEKHMHNHENB",
        "type": "STEER_TO",
        "duration": 0.800000011920929,
        "aliasList": [
          "Avatar"
        ],
        "steerType": "TO_TARGET",
        "useSteerAnim": true,
        "targetNpcAlias": "3151",
        "BHGPHGNFCBF": ""
      },
      {
        "$type": "MJFAIFFAGOF",
        "type": "DIALOG",
        "aliasList": [
          "3151"
        ],
        "dialogID": 721110201,
        "protectTime": 0.5
      }
    ],
    [
      {
        "$type": "MJFAIFFAGOF",
        "type": "DIALOG",
        "aliasList": [
          "3151"
        ],
        "dialogID": 721110202,
        "protectTime": 0.5
      }
    ],
    [
      {
        "$type": "MJFAIFFAGOF",
        "type": "DIALOG",
        "aliasList": [
          "3151"
        ],
        "dialogID": 721110203,
        "protectTime": 0.5
      }
    ],
    [
      {
        "$type": "OBCDECFOOBC",
        "type": "DIALOG_SELECT",
        "delayTime": 0.4000000059604645,
        "aliasList": [
          "Avatar"
        ],
        "dialogIDList": [
          721110205,
          721110206
        ],
        "grpIDList": [
          3299635834,
          3299635832
        ],
        "useGrpId": true
      },
      {
        "$type": "MJFAIFFAGOF",
        "type": "DIALOG",
        "aliasList": [
          "1005"
        ],
        "dialogID": 721110204,
        "protectTime": 0.5
      }
    ],
    [
      {
        "$type": "MJFAIFFAGOF",
        "type": "DIALOG",
        "aliasList": [
          "3151"
        ],
        "dialogID": 721110207,
        "protectTime": 0.5
      }
    ],
    [
      {
        "$type": "MJFAIFFAGOF",
        "type": "DIALOG",
        "aliasList": [
          "3151"
        ],
        "dialogID": 721110208,
        "protectTime": 0.5
      }
    ],
    [
      {
        "$type": "MJFAIFFAGOF",
        "type": "DIALOG",
        "aliasList": [
          "3151"
        ],
        "dialogID": 721110210,
        "protectTime": 0.5
      }
    ],
    [
      {
        "$type": "MJFAIFFAGOF",
        "type": "DIALOG",
        "aliasList": [
          "3151"
        ],
        "dialogID": 721110211,
        "protectTime": 0.5
      }
    ],
    [
      {
        "$type": "MJFAIFFAGOF",
        "type": "DIALOG",
        "aliasList": [
          "3151"
        ],
        "dialogID": 721110212,
        "protectTime": 0.5
      }
    ],
    [
      {
        "$type": "OBCDECFOOBC",
        "type": "DIALOG_SELECT",
        "delayTime": 0.4000000059604645,
        "aliasList": [
          "Avatar"
        ],
        "dialogIDList": [
          721110214
        ],
        "grpIDList": [
          3504462879
        ],
        "useGrpId": true
      },
      {
        "$type": "MJFAIFFAGOF",
        "type": "DIALOG",
        "aliasList": [
          "3151"
        ],
        "dialogID": 721110213,
        "protectTime": 0.5
      }
    ],
    [
      {
        "$type": "MJFAIFFAGOF",
        "type": "DIALOG",
        "aliasList": [
          "3151"
        ],
        "dialogID": 721110215,
        "protectTime": 0.5
      }
    ],
    [
      {
        "$type": "OBCDECFOOBC",
        "type": "DIALOG_SELECT",
        "delayTime": 0.4000000059604645,
        "aliasList": [
          "Avatar"
        ],
        "dialogIDList": [
          721110217,
          721110218
        ],
        "grpIDList": [
          3504462881,
          3504462881
        ],
        "useGrpId": true
      },
      {
        "$type": "MJFAIFFAGOF",
        "type": "DIALOG",
        "aliasList": [
          "3151"
        ],
        "dialogID": 721110216,
        "protectTime": 0.5
      }
    ],
    [
      {
        "$type": "MJFAIFFAGOF",
        "type": "DIALOG",
        "aliasList": [
          "3151"
        ],
        "dialogID": 721110219,
        "protectTime": 0.5
      }
    ],
    [
      {
        "$type": "MJFAIFFAGOF",
        "type": "DIALOG",
        "aliasList": [
          "3151"
        ],
        "dialogID": 721110220,
        "protectTime": 0.5
      }
    ],
    [
      {
        "$type": "OBCDECFOOBC",
        "type": "DIALOG_SELECT",
        "delayTime": 0.4000000059604645,
        "aliasList": [
          "Avatar"
        ],
        "dialogIDList": [
          721110222,
          721110223
        ],
        "grpIDList": [
          3504462886,
          3504462884
        ],
        "useGrpId": true
      },
      {
        "$type": "MJFAIFFAGOF",
        "type": "DIALOG",
        "aliasList": [
          "1005"
        ],
        "dialogID": 721110221,
        "protectTime": 0.5
      }
    ],
    [
      {
        "$type": "MJFAIFFAGOF",
        "type": "DIALOG",
        "aliasList": [
          "1005"
        ],
        "dialogID": 721110224,
        "protectTime": 0.5
      }
    ],
    [
      {
        "$type": "MJFAIFFAGOF",
        "type": "DIALOG",
        "aliasList": [
          "1005"
        ],
        "dialogID": 721110225,
        "protectTime": 0.5
      }
    ],
    [
      {
        "$type": "MJFAIFFAGOF",
        "type": "DIALOG",
        "aliasList": [
          "3151"
        ],
        "dialogID": 721110227,
        "protectTime": 0.5
      }
    ],
    [
      {
        "$type": "MJFAIFFAGOF",
        "type": "DIALOG",
        "aliasList": [
          "1005"
        ],
        "dialogID": 721110228,
        "protectTime": 0.5
      }
    ],
    [
      {
        "$type": "MJFAIFFAGOF",
        "type": "DIALOG",
        "aliasList": [
          "1005"
        ],
        "dialogID": 721110229,
        "protectTime": 0.5
      }
    ],
    [
      {
        "$type": "OBCDECFOOBC",
        "type": "DIALOG_SELECT",
        "delayTime": 0.4000000059604645,
        "aliasList": [
          "Avatar"
        ],
        "dialogIDList": [
          721110231
        ],
        "grpIDList": [
          3504462911
        ],
        "useGrpId": true
      },
      {
        "$type": "MJFAIFFAGOF",
        "type": "DIALOG",
        "aliasList": [
          "1005"
        ],
        "dialogID": 721110230,
        "protectTime": 0.5
      }
    ],
    [
      {
        "$type": "MoleMole.Config.ConfigTimeProtectAction",
        "type": "TIME_PROTECT",
        "duration": 0.10000000149011612
      },
      {
        "$type": "MoleMole.Config.ConfigUITriggerInterAction",
        "type": "UI_TRIGGER",
        "contextName": "GivenDialog",
        "_param": ""
      }
    ],
    [
      {
        "$type": "MoleMole.Config.ConfigTimeProtectAction",
        "type": "TIME_PROTECT",
        "duration": 0.10000000149011612
      }
    ]
  ],
  "groupId": [
    {
      "grpId": 3299635827,
      "nextGrpId": 3299635828
    },
    {
      "index": 1,
      "grpId": 3299635828,
      "nextGrpId": 3299635829
    },
    {
      "index": 2,
      "grpId": 3299635829,
      "nextGrpId": 3299635830
    },
    {
      "index": 3,
      "grpId": 3299635830,
      "nextGrpId": 3299635831
    },
    {
      "index": 4,
      "grpId": 3299635831,
      "nextGrpId": 3299635832
    },
    {
      "index": 5,
      "grpId": 3299635832,
      "nextGrpId": 3299635833
    },
    {
      "index": 6,
      "grpId": 3299635833,
      "nextGrpId": 3299635834
    },
    {
      "index": 7,
      "grpId": 3299635834,
      "nextGrpId": 3299635835
    },
    {
      "index": 8,
      "grpId": 3299635835,
      "nextGrpId": 3504462877
    },
    {
      "index": 9,
      "grpId": 3504462877,
      "nextGrpId": 3504462878
    },
    {
      "index": 10,
      "grpId": 3504462878,
      "nextGrpId": 3504462879
    },
    {
      "index": 11,
      "grpId": 3504462879,
      "nextGrpId": 3504462880
    },
    {
      "index": 12,
      "grpId": 3504462880,
      "nextGrpId": 3504462881
    },
    {
      "index": 13,
      "grpId": 3504462881,
      "nextGrpId": 3504462882
    },
    {
      "index": 14,
      "grpId": 3504462882,
      "nextGrpId": 3504462883
    },
    {
      "index": 15,
      "grpId": 3504462883,
      "nextGrpId": 3504462884
    },
    {
      "index": 16,
      "grpId": 3504462884,
      "nextGrpId": 3504462885
    },
    {
      "index": 17,
      "grpId": 3504462885,
      "nextGrpId": 3504462886
    },
    {
      "index": 18,
      "grpId": 3504462886,
      "nextGrpId": 3504462908
    },
    {
      "index": 19,
      "grpId": 3504462908,
      "nextGrpId": 3504462909
    },
    {
      "index": 20,
      "grpId": 3504462909,
      "nextGrpId": 3504462910
    },
    {
      "index": 21,
      "grpId": 3504462910,
      "nextGrpId": 3504462911
    },
    {
      "index": 22,
      "grpId": 3504462911,
      "nextGrpId": 3504462912
    },
    {
      "index": 23,
      "grpId": 3504462912,
      "nextGrpId": 3504462913
    }
  ],
  "freeStyleDic": {
    "3151": []
  }
}