{
  "luaDataPath": "",
  "entityBan": "",
  "isKeyInteraction": false,
  "group": [
    [
      {
        "$type": "MoleMole.Config.ConfigUITriggerInterAction",
        "type": "UI_TRIGGER",
        "contextName": "RemusEntityTouch",
        "_param": "511010138;138002;28020527;RemusCat_Camera07;SceneObj_Area_Fd_Property_Ani_Prop_RemusCatIntee_01;SceneObj_Area_Fd_Property_Ani_Prop_RemusCatIntee_02;138006"
      },
      {
        "$type": "MJFAIFFAGOF",
        "type": "DIALOG_CLEAR",
        "playAudio": false
      }
    ],
    [
      {
        "$type": "EFHODGEJOHJ",
        "type": "CAMERA_MOVE",
        "duration": 1.0,
        "cameraPosType": "EXIT",
        "camTargetType": "TO_INTEE",
        "lerpRatio": 5.0,
        "targetNpcAlias": "",
        "PHGBNNGCJKJ": "",
        "NFILMKCFHEB": "",
        "BGPNGHDAECF": ""
      }
    ]
  ]
}