{
  "luaDataPath": "",
  "startBlackKeepTime": 0.4000000059604645,
  "entityBan": "",
  "disableNpcLod": true,
  "protectNpcMobileLod": true,
  "startFade": {
    "startFadeInDuration": 0.30000001192092896,
    "startFadeOutDuration": 0.30000001192092896
  },
  "endFade": {
    "startFadeOutDuration": 0.0
  },
  "actors": [
    {
      "alias": "Avatar",
      "visible": true,
      "bornPointName": "Q7280404player",
      "relativePosType": "AVATAR_NEW",
      "relativePosNpcAlias": "",
      "_bindMovingTargetKey": ""
    },
    {
      "configID": 3060,
      "alias": "3060",
      "visible": true,
      "bornPointName": "Q7280404NPC3060",
      "removeActorType": "REMOVE",
      "relativePosType": "AVATAR_NEW",
      "relativePosNpcAlias": "",
      "_bindMovingTargetKey": ""
    },
    {
      "configID": 20331,
      "alias": "20331",
      "visible": true,
      "bornPointName": "Q7280404hailuangui",
      "removeActorType": "REMOVE",
      "relativePosType": "AVATAR_NEW",
      "relativePosNpcAlias": "",
      "_bindMovingTargetKey": ""
    }
  ],
  "group": [
    [
      {
        "$type": "NPCNMEOCADD",
        "type": "LOOK_AT",
        "duration": 0.10000000149011612,
        "aliasList": [
          "Avatar"
        ],
        "actionId": 126,
        "enableHead": true,
        "headTurnTime": 0.5,
        "targetNpcAlias": "20331",
        "targetNpcLookAtPoint": "",
        "BHGPHGNFCBF": ""
      },
      {
        "$type": "MJFAIFFAGOF",
        "type": "DIALOG",
        "aliasList": [
          "20331"
        ],
        "actionId": 147,
        "dialogID": 728040206,
        "protectTime": 0.5
      },
      {
        "$type": "EFHODGEJOHJ",
        "type": "CAMERA_FOCUS",
        "delayTime": 0.3919999897480011,
        "duration": 0.10000000149011612,
        "actionId": 120,
        "targetNpcAlias": "",
        "PHGBNNGCJKJ": "",
        "NFILMKCFHEB": "",
        "BGPNGHDAECF": ""
      }
    ],
    [
      {
        "$type": "MJFAIFFAGOF",
        "type": "DIALOG",
        "aliasList": [
          "3060"
        ],
        "actionId": 134,
        "dialogID": 728040207,
        "protectTime": 0.5
      }
    ],
    [
      {
        "$type": "MJFAIFFAGOF",
        "type": "DIALOG",
        "aliasList": [
          "20331"
        ],
        "actionId": 148,
        "dialogID": 728040208,
        "protectTime": 0.5
      }
    ],
    [
      {
        "$type": "MJFAIFFAGOF",
        "type": "DIALOG",
        "aliasList": [
          "3060"
        ],
        "actionId": 135,
        "dialogID": 728040209,
        "protectTime": 0.5
      }
    ],
    [
      {
        "$type": "MJFAIFFAGOF",
        "type": "DIALOG",
        "aliasList": [
          "20331"
        ],
        "actionId": 149,
        "dialogID": 728040210,
        "protectTime": 0.5
      },
      {
        "$type": "OBCDECFOOBC",
        "type": "DIALOG_SELECT",
        "delayTime": 0.4000000059604645,
        "aliasList": [
          "Avatar"
        ],
        "actionId": 127,
        "dialogIDList": [
          728040211,
          728040212
        ],
        "grpIDList": [
          2333076504,
          2333076504
        ],
        "useGrpId": true
      }
    ],
    [
      {
        "$type": "MJFAIFFAGOF",
        "type": "DIALOG",
        "aliasList": [
          "20331"
        ],
        "actionId": 150,
        "dialogID": 728040213,
        "protectTime": 0.5
      }
    ],
    [
      {
        "$type": "MJFAIFFAGOF",
        "type": "DIALOG",
        "aliasList": [
          "20331"
        ],
        "actionId": 151,
        "dialogID": 728040214,
        "protectTime": 0.5
      }
    ],
    [
      {
        "$type": "MJFAIFFAGOF",
        "type": "DIALOG",
        "aliasList": [
          "3060"
        ],
        "actionId": 136,
        "dialogID": 728040215,
        "protectTime": 0.5
      }
    ],
    [
      {
        "$type": "MJFAIFFAGOF",
        "type": "DIALOG",
        "aliasList": [
          "20331"
        ],
        "actionId": 152,
        "dialogID": 728040216,
        "protectTime": 0.5
      },
      {
        "$type": "OBCDECFOOBC",
        "type": "DIALOG_SELECT",
        "delayTime": 0.4000000059604645,
        "aliasList": [
          "Avatar"
        ],
        "actionId": 128,
        "dialogIDList": [
          728040217
        ],
        "grpIDList": [
          3605894781
        ],
        "useGrpId": true
      }
    ],
    [
      {
        "$type": "MJFAIFFAGOF",
        "type": "DIALOG",
        "aliasList": [
          "20331"
        ],
        "actionId": 153,
        "dialogID": 728040218,
        "protectTime": 0.5
      }
    ],
    [
      {
        "$type": "MJFAIFFAGOF",
        "type": "DIALOG_CLEAR",
        "actionId": 121
      },
      {
        "$type": "MoleMole.Config.ConfigBlackScreenAction",
        "type": "BLACK_SCREEN",
        "delayTime": 0.4000000059604645,
        "actionId": 122,
        "durationToBlack": 0.4000000059604645,
        "durationKeepBlack": 2.0,
        "durationFromBlack": 0.4000000059604645,
        "inteePos": "",
        "textMapID": "QUEST_Message_Q7280404",
        "useTextFade": true
      },
      {
        "$type": "MoleMole.Config.ConfigVisibleInterAction",
        "type": "VISIBLE",
        "delayTime": 1.0,
        "aliasList": [
          "20331"
        ],
        "actionId": 154,
        "_extraParam": ""
      },
      {
        "$type": "EFHODGEJOHJ",
        "type": "CAMERA_FOCUS",
        "delayTime": 2.0,
        "duration": 0.10000000149011612,
        "actionId": 123,
        "targetNpcAlias": "",
        "PHGBNNGCJKJ": "",
        "NFILMKCFHEB": "",
        "BGPNGHDAECF": ""
      }
    ],
    [
      {
        "$type": "MJFAIFFAGOF",
        "type": "DIALOG",
        "aliasList": [
          "3060"
        ],
        "actionId": 138,
        "dialogID": 728040219,
        "protectTime": 0.5
      },
      {
        "$type": "OBCDECFOOBC",
        "type": "DIALOG_SELECT",
        "delayTime": 0.4000000059604645,
        "aliasList": [
          "Avatar"
        ],
        "actionId": 130,
        "dialogIDList": [
          728040220
        ],
        "grpIDList": [
          3605894784
        ],
        "useGrpId": true
      }
    ],
    [
      {
        "$type": "MJFAIFFAGOF",
        "type": "DIALOG",
        "aliasList": [
          "3060"
        ],
        "actionId": 139,
        "dialogID": 728040221,
        "protectTime": 0.5
      },
      {
        "$type": "IEKHMHNHENB",
        "type": "STEER_TO",
        "delayTime": 0.28600001335144043,
        "duration": 0.800000011920929,
        "aliasList": [
          "Avatar"
        ],
        "actionId": 131,
        "steerType": "TO_TARGET",
        "useSteerAnim": true,
        "forceSteer": true,
        "targetNpcAlias": "3060",
        "BHGPHGNFCBF": ""
      },
      {
        "$type": "IEKHMHNHENB",
        "type": "STEER_TO",
        "delayTime": 0.4000000059604645,
        "duration": 0.800000011920929,
        "aliasList": [
          "3060"
        ],
        "actionId": 140,
        "steerType": "TO_LOCAL_AVATAR",
        "useSteerAnim": true,
        "forceSteer": true,
        "targetNpcAlias": "",
        "BHGPHGNFCBF": ""
      },
      {
        "$type": "NPCNMEOCADD",
        "type": "LOOK_AT",
        "delayTime": 0.800000011920929,
        "duration": 0.10000000149011612,
        "aliasList": [
          "3060"
        ],
        "actionId": 141,
        "enableHead": true,
        "headTurnTime": 0.5,
        "targetNpcAlias": "Avatar",
        "targetNpcLookAtPoint": "",
        "BHGPHGNFCBF": ""
      },
      {
        "$type": "NPCNMEOCADD",
        "type": "LOOK_AT",
        "delayTime": 1.1080000400543213,
        "duration": 0.10000000149011612,
        "aliasList": [
          "Avatar"
        ],
        "actionId": 132,
        "enableHead": true,
        "headTurnTime": 0.5,
        "targetNpcAlias": "3060",
        "targetNpcLookAtPoint": "",
        "BHGPHGNFCBF": ""
      }
    ],
    [
      {
        "$type": "MJFAIFFAGOF",
        "type": "DIALOG",
        "aliasList": [
          "3060"
        ],
        "actionId": 142,
        "dialogID": 728040222,
        "protectTime": 0.5
      }
    ],
    [
      {
        "$type": "MJFAIFFAGOF",
        "type": "DIALOG",
        "aliasList": [
          "3060"
        ],
        "actionId": 143,
        "dialogID": 728040223,
        "protectTime": 0.5
      }
    ],
    [
      {
        "$type": "MJFAIFFAGOF",
        "type": "DIALOG",
        "aliasList": [
          "3060"
        ],
        "actionId": 144,
        "dialogID": 728040224,
        "protectTime": 0.5
      }
    ],
    [
      {
        "$type": "MJFAIFFAGOF",
        "type": "DIALOG",
        "aliasList": [
          "3060"
        ],
        "actionId": 145,
        "dialogID": 728040225,
        "protectTime": 0.5
      },
      {
        "$type": "OBCDECFOOBC",
        "type": "DIALOG_SELECT",
        "delayTime": 0.4000000059604645,
        "aliasList": [
          "Avatar"
        ],
        "actionId": 133,
        "dialogIDList": [
          728040226,
          728040227
        ],
        "grpIDList": [
          3605894789,
          3605894789
        ],
        "useGrpId": true
      }
    ],
    [
      {
        "$type": "MJFAIFFAGOF",
        "type": "DIALOG",
        "aliasList": [
          "3060"
        ],
        "actionId": 146,
        "dialogID": 728040228,
        "protectTime": 0.5
      }
    ],
    [
      {
        "$type": "MoleMole.Config.ConfigSimpleBlackScreenAction",
        "type": "SIMPLE_BLACK_SCREEN",
        "actionId": 124,
        "durationToBlack": 0.5,
        "durationKeepBlack": 1.0,
        "durationFromBlack": 0.5,
        "textMapID": ""
      },
      {
        "$type": "MoleMole.Config.ConfigTimeProtectAction",
        "type": "TIME_PROTECT",
        "duration": 0.699999988079071,
        "actionId": 125
      }
    ]
  ],
  "groupId": [
    {
      "grpId": 2333076499,
      "nextGrpId": 2333076500
    },
    {
      "index": 1,
      "grpId": 2333076500,
      "nextGrpId": 2333076501
    },
    {
      "index": 2,
      "grpId": 2333076501,
      "nextGrpId": 2333076502
    },
    {
      "index": 3,
      "grpId": 2333076502,
      "nextGrpId": 2333076503
    },
    {
      "index": 4,
      "grpId": 2333076503,
      "nextGrpId": 2333076504
    },
    {
      "index": 5,
      "grpId": 2333076504,
      "nextGrpId": 2333076505
    },
    {
      "index": 6,
      "grpId": 2333076505,
      "nextGrpId": 2333076506
    },
    {
      "index": 7,
      "grpId": 2333076506,
      "nextGrpId": 2333076507
    },
    {
      "index": 8,
      "grpId": 2333076507,
      "nextGrpId": 3605894781
    },
    {
      "index": 9,
      "grpId": 3605894781,
      "nextGrpId": 3605894782
    },
    {
      "index": 10,
      "grpId": 3605894782,
      "nextGrpId": 3605894783
    },
    {
      "index": 11,
      "grpId": 3605894783,
      "nextGrpId": 3605894784
    },
    {
      "index": 12,
      "grpId": 3605894784,
      "nextGrpId": 3605894785
    },
    {
      "index": 13,
      "grpId": 3605894785,
      "nextGrpId": 3605894786
    },
    {
      "index": 14,
      "grpId": 3605894786,
      "nextGrpId": 3605894787
    },
    {
      "index": 15,
      "grpId": 3605894787,
      "nextGrpId": 3605894788
    },
    {
      "index": 16,
      "grpId": 3605894788,
      "nextGrpId": 3605894789
    },
    {
      "index": 17,
      "grpId": 3605894789,
      "nextGrpId": 3605894790
    },
    {
      "index": 18,
      "grpId": 3605894790,
      "nextGrpId": 3605894812
    }
  ],
  "freeStyleDic": {
    "3060": []
  }
}