{
  "coopInteractionMap": {
    "1915002": {
      "id": 1915002,
      "coopMap": {
        "192": {
          "$type": "ACIMPHCKHJB",
          "coopNodeId": 192,
          "coopNodeType": "COOP_NODE_COND",
          "nextNodeArray": [
            191,
            409
          ],
          "coopCondGrp": {
            "coopCondList": [
              {
                "KPGKDHAFHFE": "COOP_COND_QUEST_GLOBAL_VALUE_COMPARE",
                "param": [
                  1,
                  4008110,
                  1
                ]
              }
            ]
          }
        },
        "231": {
          "$type": "CNJIHIGFGDN",
          "coopNodeId": 231,
          "coopNodeType": "COOP_NODE_SELECT",
          "nextNodeArray": [
            236,
            234,
            235
          ],
          "selectList": [
            {
              "dialogId": 191501699,
              "hideCond": {},
              "enableCond": {}
            },
            {
              "dialogId": 191501698,
              "hideCond": {},
              "enableCond": {}
            },
            {
              "dialogId": 191501697,
              "hideCond": {},
              "enableCond": {}
            }
          ]
        },
        "191": {
          "$type": "GNNLMEOHCNA",
          "coopNodeId": 191,
          "coopNodeType": "COOP_NODE_TALK",
          "nextNodeArray": [
            231
          ],
          "talkConfig": {
            "id": 191,
            "performCfg": "QuestDialogue/COOP/Coop107401/Q1915016",
            "loadType": "TALK_COOP",
            "questId": 19150,
            "assetIndex": 5618691766761400585,
            "prePerformCfg": ""
          },
          "OOKANGCPHOK": 7
        },
        "236": {
          "$type": "GNNLMEOHCNA",
          "coopNodeId": 236,
          "coopNodeType": "COOP_NODE_TALK",
          "nextNodeArray": [
            324
          ],
          "talkConfig": {
            "id": 236,
            "performCfg": "QuestDialogue/COOP/Coop107401/Q1915019",
            "loadType": "TALK_COOP",
            "questId": 19150,
            "assetIndex": 5544455317399854183,
            "prePerformCfg": ""
          },
          "OOKANGCPHOK": 4
        },
        "324": {
          "$type": "KOKAKIKFOMH",
          "coopNodeId": 324,
          "coopNodeType": "COOP_NODE_ACTION",
          "nextNodeArray": [
            196
          ],
          "actionList": [
            {
              "actionType": "COOP_ACTION_CONFIDENCE_ADD",
              "param": [
                1
              ]
            }
          ]
        },
        "197": {
          "$type": "CNJIHIGFGDN",
          "coopNodeId": 197,
          "coopNodeType": "COOP_NODE_SELECT",
          "nextNodeArray": [
            200,
            201,
            202
          ],
          "selectList": [
            {
              "dialogId": 191500699,
              "hideCond": {},
              "enableCond": {}
            },
            {
              "dialogId": 191500698,
              "hideCond": {},
              "enableCond": {}
            },
            {
              "dialogId": 191500697,
              "hideCond": {},
              "enableCond": {}
            }
          ]
        },
        "196": {
          "$type": "GNNLMEOHCNA",
          "coopNodeId": 196,
          "coopNodeType": "COOP_NODE_TALK",
          "nextNodeArray": [
            197
          ],
          "talkConfig": {
            "id": 196,
            "performCfg": "QuestDialogue/COOP/Coop107401/Q1915006",
            "loadType": "TALK_COOP",
            "questId": 19150,
            "assetIndex": 12686020227106048784,
            "prePerformCfg": ""
          },
          "OOKANGCPHOK": 4
        },
        "200": {
          "$type": "GNNLMEOHCNA",
          "coopNodeId": 200,
          "coopNodeType": "COOP_NODE_TALK",
          "nextNodeArray": [
            203
          ],
          "talkConfig": {
            "id": 200,
            "performCfg": "QuestDialogue/COOP/Coop107401/Q1915007",
            "loadType": "TALK_COOP",
            "questId": 19150,
            "assetIndex": 14188518949891119729,
            "prePerformCfg": ""
          },
          "OOKANGCPHOK": 5
        },
        "204": {
          "$type": "CNJIHIGFGDN",
          "coopNodeId": 204,
          "coopNodeType": "COOP_NODE_SELECT",
          "nextNodeArray": [
            206,
            207
          ],
          "selectList": [
            {
              "dialogId": 191501099,
              "hideCond": {},
              "enableCond": {}
            },
            {
              "dialogId": 191501098,
              "hideCond": {},
              "enableCond": {}
            }
          ]
        },
        "203": {
          "$type": "GNNLMEOHCNA",
          "coopNodeId": 203,
          "coopNodeType": "COOP_NODE_TALK",
          "nextNodeArray": [
            204
          ],
          "talkConfig": {
            "id": 203,
            "performCfg": "QuestDialogue/COOP/Coop107401/Q1915010",
            "loadType": "TALK_COOP",
            "questId": 19150,
            "assetIndex": 14464589601654497696,
            "prePerformCfg": ""
          },
          "OOKANGCPHOK": 5
        },
        "225": {
          "$type": "CNJIHIGFGDN",
          "coopNodeId": 225,
          "coopNodeType": "COOP_NODE_SELECT",
          "nextNodeArray": [
            227,
            228
          ],
          "selectList": [
            {
              "dialogId": 191501199,
              "hideCond": {},
              "enableCond": {}
            },
            {
              "dialogId": 191501198,
              "hideCond": {},
              "enableCond": {}
            }
          ]
        },
        "206": {
          "$type": "GNNLMEOHCNA",
          "coopNodeId": 206,
          "coopNodeType": "COOP_NODE_TALK",
          "nextNodeArray": [
            225
          ],
          "talkConfig": {
            "id": 206,
            "performCfg": "QuestDialogue/COOP/Coop107401/Q1915011",
            "loadType": "TALK_COOP",
            "questId": 19150,
            "assetIndex": 17212513033920585720,
            "prePerformCfg": ""
          },
          "OOKANGCPHOK": 6
        },
        "227": {
          "$type": "GNNLMEOHCNA",
          "coopNodeId": 227,
          "coopNodeType": "COOP_NODE_TALK",
          "nextNodeArray": [
            229
          ],
          "talkConfig": {
            "id": 227,
            "performCfg": "QuestDialogue/COOP/Coop107401/Q1915012",
            "loadType": "TALK_COOP",
            "questId": 19150,
            "assetIndex": 13589661626750037209,
            "prePerformCfg": ""
          },
          "OOKANGCPHOK": 1
        },
        "229": {
          "$type": "GNNLMEOHCNA",
          "coopNodeId": 229,
          "coopNodeType": "COOP_NODE_TALK",
          "nextNodeArray": [
            10
          ],
          "talkConfig": {
            "id": 229,
            "performCfg": "QuestDialogue/COOP/Coop107401/Q1915014",
            "loadType": "TALK_COOP",
            "questId": 19150,
            "assetIndex": 6337945643322836811,
            "prePerformCfg": ""
          },
          "OOKANGCPHOK": 1
        },
        "10": {
          "$type": "DCADCNINCPF",
          "coopNodeId": 10,
          "coopNodeType": "COOP_NODE_END",
          "savePointId": 191500201
        },
        "228": {
          "$type": "GNNLMEOHCNA",
          "coopNodeId": 228,
          "coopNodeType": "COOP_NODE_TALK",
          "nextNodeArray": [
            229
          ],
          "talkConfig": {
            "id": 228,
            "performCfg": "QuestDialogue/COOP/Coop107401/Q1915013",
            "loadType": "TALK_COOP",
            "questId": 19150,
            "assetIndex": 12445551498524452452,
            "prePerformCfg": ""
          },
          "OOKANGCPHOK": 1
        },
        "207": {
          "$type": "GNNLMEOHCNA",
          "coopNodeId": 207,
          "coopNodeType": "COOP_NODE_TALK",
          "nextNodeArray": [
            11
          ],
          "talkConfig": {
            "id": 207,
            "performCfg": "QuestDialogue/COOP/Coop107401/Q1915015",
            "loadType": "TALK_COOP",
            "questId": 19150,
            "assetIndex": 4323718726276949728,
            "prePerformCfg": ""
          },
          "OOKANGCPHOK": 2
        },
        "11": {
          "$type": "DCADCNINCPF",
          "coopNodeId": 11,
          "coopNodeType": "COOP_NODE_END",
          "savePointId": 191500202
        },
        "201": {
          "$type": "GNNLMEOHCNA",
          "coopNodeId": 201,
          "coopNodeType": "COOP_NODE_TALK",
          "nextNodeArray": [
            203
          ],
          "talkConfig": {
            "id": 201,
            "performCfg": "QuestDialogue/COOP/Coop107401/Q1915008",
            "loadType": "TALK_COOP",
            "questId": 19150,
            "assetIndex": 12206523884421484375,
            "prePerformCfg": ""
          },
          "OOKANGCPHOK": 5
        },
        "202": {
          "$type": "GNNLMEOHCNA",
          "coopNodeId": 202,
          "coopNodeType": "COOP_NODE_TALK",
          "nextNodeArray": [
            203
          ],
          "talkConfig": {
            "id": 202,
            "performCfg": "QuestDialogue/COOP/Coop107401/Q1915009",
            "loadType": "TALK_COOP",
            "questId": 19150,
            "assetIndex": 4366067237594524824,
            "prePerformCfg": ""
          },
          "OOKANGCPHOK": 5
        },
        "234": {
          "$type": "GNNLMEOHCNA",
          "coopNodeId": 234,
          "coopNodeType": "COOP_NODE_TALK",
          "nextNodeArray": [
            236
          ],
          "talkConfig": {
            "id": 234,
            "performCfg": "QuestDialogue/COOP/Coop107401/Q1915017",
            "loadType": "TALK_COOP",
            "questId": 19150,
            "assetIndex": 9096707751647148067,
            "prePerformCfg": ""
          },
          "OOKANGCPHOK": 4
        },
        "235": {
          "$type": "GNNLMEOHCNA",
          "coopNodeId": 235,
          "coopNodeType": "COOP_NODE_TALK",
          "nextNodeArray": [
            236
          ],
          "talkConfig": {
            "id": 235,
            "performCfg": "QuestDialogue/COOP/Coop107401/Q1915018",
            "loadType": "TALK_COOP",
            "questId": 19150,
            "assetIndex": 7369729528404121409,
            "prePerformCfg": ""
          },
          "OOKANGCPHOK": 4
        },
        "409": {
          "$type": "ACIMPHCKHJB",
          "coopNodeId": 409,
          "coopNodeType": "COOP_NODE_COND",
          "nextNodeArray": [
            191,
            4
          ],
          "coopCondGrp": {
            "coopCondList": [
              {
                "KPGKDHAFHFE": "COOP_COND_QUEST_GLOBAL_VALUE_COMPARE",
                "param": [
                  1,
                  4010006,
                  1
                ]
              }
            ]
          }
        },
        "6": {
          "$type": "CNJIHIGFGDN",
          "coopNodeId": 6,
          "coopNodeType": "COOP_NODE_SELECT",
          "nextNodeArray": [
            8,
            9,
            195
          ],
          "selectList": [
            {
              "dialogId": 191500199,
              "hideCond": {},
              "enableCond": {}
            },
            {
              "dialogId": 191500198,
              "hideCond": {},
              "enableCond": {}
            },
            {
              "dialogId": 191500197,
              "hideCond": {},
              "enableCond": {}
            }
          ]
        },
        "4": {
          "$type": "GNNLMEOHCNA",
          "coopNodeId": 4,
          "coopNodeType": "COOP_NODE_TALK",
          "nextNodeArray": [
            6
          ],
          "talkConfig": {
            "id": 4,
            "performCfg": "QuestDialogue/COOP/Coop107401/Q1915001",
            "loadType": "TALK_COOP",
            "questId": 19150,
            "assetIndex": 6306951315593988357,
            "prePerformCfg": ""
          },
          "OOKANGCPHOK": 3
        },
        "8": {
          "$type": "GNNLMEOHCNA",
          "coopNodeId": 8,
          "coopNodeType": "COOP_NODE_TALK",
          "nextNodeArray": [
            230
          ],
          "talkConfig": {
            "id": 8,
            "performCfg": "QuestDialogue/COOP/Coop107401/Q1915002",
            "loadType": "TALK_COOP",
            "questId": 19150,
            "assetIndex": 7963696395537113475,
            "prePerformCfg": ""
          },
          "OOKANGCPHOK": 4
        },
        "230": {
          "$type": "GNNLMEOHCNA",
          "coopNodeId": 230,
          "coopNodeType": "COOP_NODE_TALK",
          "nextNodeArray": [
            324
          ],
          "talkConfig": {
            "id": 230,
            "performCfg": "QuestDialogue/COOP/Coop107401/Q1915005",
            "loadType": "TALK_COOP",
            "questId": 19150,
            "assetIndex": 11713516058958204982,
            "prePerformCfg": ""
          },
          "OOKANGCPHOK": 4
        },
        "9": {
          "$type": "GNNLMEOHCNA",
          "coopNodeId": 9,
          "coopNodeType": "COOP_NODE_TALK",
          "nextNodeArray": [
            230
          ],
          "talkConfig": {
            "id": 9,
            "performCfg": "QuestDialogue/COOP/Coop107401/Q1915003",
            "loadType": "TALK_COOP",
            "questId": 19150,
            "assetIndex": 14237962280078736672,
            "prePerformCfg": ""
          },
          "OOKANGCPHOK": 4
        },
        "195": {
          "$type": "GNNLMEOHCNA",
          "coopNodeId": 195,
          "coopNodeType": "COOP_NODE_TALK",
          "nextNodeArray": [
            230
          ],
          "talkConfig": {
            "id": 195,
            "performCfg": "QuestDialogue/COOP/Coop107401/Q1915004",
            "loadType": "TALK_COOP",
            "questId": 19150,
            "assetIndex": 6981830679653066503,
            "prePerformCfg": ""
          },
          "OOKANGCPHOK": 4
        }
      },
      "startNodeId": 192,
      "PMOFDEGOCOL": true
    },
    "1915101": {
      "id": 1915101,
      "coopMap": {
        "14": {
          "$type": "GNNLMEOHCNA",
          "coopNodeId": 14,
          "coopNodeType": "COOP_NODE_TALK",
          "nextNodeArray": [
            16
          ],
          "talkConfig": {
            "id": 14,
            "performCfg": "QuestDialogue/COOP/Coop107401/Q1915101",
            "loadType": "TALK_COOP",
            "questId": 19151,
            "assetIndex": 3826498631719221921,
            "prePerformCfg": ""
          },
          "OOKANGCPHOK": 8
        },
        "16": {
          "$type": "DCADCNINCPF",
          "coopNodeId": 16,
          "coopNodeType": "COOP_NODE_END",
          "savePointId": 191510101
        }
      },
      "startNodeId": 14,
      "PMOFDEGOCOL": true
    },
    "1915103": {
      "id": 1915103,
      "coopMap": {
        "349": {
          "$type": "GNNLMEOHCNA",
          "coopNodeId": 349,
          "coopNodeType": "COOP_NODE_TALK",
          "nextNodeArray": [
            350
          ],
          "talkConfig": {
            "id": 349,
            "performCfg": "QuestDialogue/COOP/Coop107401/Q1915103",
            "loadType": "TALK_COOP",
            "questId": 19151,
            "assetIndex": 13611518467995530902,
            "prePerformCfg": ""
          },
          "OOKANGCPHOK": 11
        },
        "350": {
          "$type": "KOKAKIKFOMH",
          "coopNodeId": 350,
          "coopNodeType": "COOP_NODE_ACTION",
          "nextNodeArray": [
            352
          ],
          "actionList": [
            {
              "actionType": "COOP_ACTION_CONFIDENCE_MINUS",
              "param": [
                1
              ]
            }
          ]
        },
        "352": {
          "$type": "GNNLMEOHCNA",
          "coopNodeId": 352,
          "coopNodeType": "COOP_NODE_TALK",
          "nextNodeArray": [
            353
          ],
          "talkConfig": {
            "id": 352,
            "performCfg": "QuestDialogue/COOP/Coop107401/Q1915104",
            "loadType": "TALK_COOP",
            "questId": 19151,
            "assetIndex": 3488750338110000512,
            "prePerformCfg": ""
          },
          "OOKANGCPHOK": 11
        },
        "353": {
          "$type": "KOKAKIKFOMH",
          "coopNodeId": 353,
          "coopNodeType": "COOP_NODE_ACTION",
          "nextNodeArray": [
            19
          ],
          "actionList": [
            {
              "actionType": "COOP_ACTION_CONFIDENCE_ADD",
              "param": [
                1
              ]
            }
          ]
        },
        "208": {
          "$type": "CNJIHIGFGDN",
          "coopNodeId": 208,
          "coopNodeType": "COOP_NODE_SELECT",
          "nextNodeArray": [
            210,
            211
          ],
          "selectList": [
            {
              "dialogId": 191510299,
              "hideCond": {},
              "enableCond": {}
            },
            {
              "dialogId": 191510298,
              "hideCond": {},
              "enableCond": {}
            }
          ]
        },
        "19": {
          "$type": "GNNLMEOHCNA",
          "coopNodeId": 19,
          "coopNodeType": "COOP_NODE_TALK",
          "nextNodeArray": [
            208
          ],
          "talkConfig": {
            "id": 19,
            "performCfg": "QuestDialogue/COOP/Coop107401/Q1915102",
            "loadType": "TALK_COOP",
            "questId": 19151,
            "assetIndex": 11648894730914278042,
            "prePerformCfg": ""
          },
          "OOKANGCPHOK": 11
        },
        "210": {
          "$type": "GNNLMEOHCNA",
          "coopNodeId": 210,
          "coopNodeType": "COOP_NODE_TALK",
          "nextNodeArray": [
            213
          ],
          "talkConfig": {
            "id": 210,
            "performCfg": "QuestDialogue/COOP/Coop107401/Q1915106",
            "loadType": "TALK_COOP",
            "questId": 19151,
            "assetIndex": 4089050739184265890,
            "prePerformCfg": ""
          },
          "OOKANGCPHOK": 9
        },
        "213": {
          "$type": "DCADCNINCPF",
          "coopNodeId": 213,
          "coopNodeType": "COOP_NODE_END",
          "savePointId": 191510301
        },
        "211": {
          "$type": "GNNLMEOHCNA",
          "coopNodeId": 211,
          "coopNodeType": "COOP_NODE_TALK",
          "nextNodeArray": [
            214
          ],
          "talkConfig": {
            "id": 211,
            "performCfg": "QuestDialogue/COOP/Coop107401/Q1915107",
            "loadType": "TALK_COOP",
            "questId": 19151,
            "assetIndex": 864835911550799852,
            "prePerformCfg": ""
          },
          "OOKANGCPHOK": 10
        },
        "214": {
          "$type": "DCADCNINCPF",
          "coopNodeId": 214,
          "coopNodeType": "COOP_NODE_END",
          "savePointId": 191510302
        },
        "351": {
          "$type": "DCADCNINCPF",
          "coopNodeId": 351,
          "coopNodeType": "COOP_NODE_END",
          "savePointId": 191510303
        }
      },
      "startNodeId": 349,
      "failNodeId": 351,
      "PMOFDEGOCOL": true
    },
    "1915201": {
      "id": 1915201,
      "coopMap": {
        "27": {
          "$type": "GNNLMEOHCNA",
          "coopNodeId": 27,
          "coopNodeType": "COOP_NODE_TALK",
          "nextNodeArray": [
            38
          ],
          "talkConfig": {
            "id": 27,
            "performCfg": "QuestDialogue/COOP/Coop107401/Q1915201",
            "loadType": "TALK_COOP",
            "questId": 19152,
            "assetIndex": 5258444583003979967,
            "prePerformCfg": ""
          },
          "OOKANGCPHOK": 12
        },
        "38": {
          "$type": "DCADCNINCPF",
          "coopNodeId": 38,
          "coopNodeType": "COOP_NODE_END",
          "savePointId": 191520101
        }
      },
      "startNodeId": 27,
      "PMOFDEGOCOL": true
    },
    "1915202": {
      "id": 1915202,
      "coopMap": {
        "31": {
          "$type": "GNNLMEOHCNA",
          "coopNodeId": 31,
          "coopNodeType": "COOP_NODE_TALK",
          "nextNodeArray": [
            39
          ],
          "talkConfig": {
            "id": 31,
            "performCfg": "QuestDialogue/COOP/Coop107401/Q1915202",
            "loadType": "TALK_COOP",
            "questId": 19152,
            "assetIndex": 8402182744694232751,
            "prePerformCfg": ""
          },
          "OOKANGCPHOK": 13
        },
        "39": {
          "$type": "DCADCNINCPF",
          "coopNodeId": 39,
          "coopNodeType": "COOP_NODE_END",
          "savePointId": 191520201
        }
      },
      "startNodeId": 31,
      "PMOFDEGOCOL": true
    },
    "1915203": {
      "id": 1915203,
      "coopMap": {
        "35": {
          "$type": "GNNLMEOHCNA",
          "coopNodeId": 35,
          "coopNodeType": "COOP_NODE_TALK",
          "nextNodeArray": [
            40
          ],
          "talkConfig": {
            "id": 35,
            "performCfg": "QuestDialogue/COOP/Coop107401/Q1915203",
            "loadType": "TALK_COOP",
            "questId": 19152,
            "assetIndex": 16745130716315713117,
            "prePerformCfg": ""
          },
          "OOKANGCPHOK": 14
        },
        "40": {
          "$type": "DCADCNINCPF",
          "coopNodeId": 40,
          "coopNodeType": "COOP_NODE_END",
          "savePointId": 191520301
        }
      },
      "startNodeId": 35,
      "PMOFDEGOCOL": true
    },
    "1915302": {
      "id": 1915302,
      "coopMap": {
        "382": {
          "$type": "GNNLMEOHCNA",
          "coopNodeId": 382,
          "coopNodeType": "COOP_NODE_TALK",
          "nextNodeArray": [
            386
          ],
          "talkConfig": {
            "id": 382,
            "performCfg": "QuestDialogue/COOP/Coop107401/Q1915312",
            "loadType": "TALK_COOP",
            "questId": 19153,
            "assetIndex": 123776635990577801,
            "prePerformCfg": ""
          }
        },
        "386": {
          "$type": "ACIMPHCKHJB",
          "coopNodeId": 386,
          "coopNodeType": "COOP_NODE_COND",
          "nextNodeArray": [
            387,
            389
          ],
          "coopCondGrp": {
            "coopCondList": [
              {
                "KPGKDHAFHFE": "COOP_COND_INFERENCE_CONCLUSION_FINISH",
                "param": [
                  1018,
                  101801
                ]
              }
            ]
          }
        },
        "387": {
          "$type": "GNNLMEOHCNA",
          "coopNodeId": 387,
          "coopNodeType": "COOP_NODE_TALK",
          "nextNodeArray": [
            388
          ],
          "talkConfig": {
            "id": 387,
            "performCfg": "QuestDialogue/COOP/Coop107401/Q1915313",
            "loadType": "TALK_COOP",
            "questId": 19153,
            "assetIndex": 15264240861813352250,
            "prePerformCfg": ""
          },
          "OOKANGCPHOK": 58
        },
        "388": {
          "$type": "DCADCNINCPF",
          "coopNodeId": 388,
          "coopNodeType": "COOP_NODE_END",
          "savePointId": 191530201
        },
        "389": {
          "$type": "GNNLMEOHCNA",
          "coopNodeId": 389,
          "coopNodeType": "COOP_NODE_TALK",
          "nextNodeArray": [
            0
          ],
          "talkConfig": {
            "id": 389,
            "performCfg": "QuestDialogue/COOP/Coop107401/Q1915314",
            "loadType": "TALK_COOP",
            "questId": 19153,
            "assetIndex": 5827942002078661425,
            "prePerformCfg": ""
          }
        }
      },
      "startNodeId": 382,
      "PMOFDEGOCOL": true
    },
    "1915306": {
      "id": 1915306,
      "coopMap": {
        "325": {
          "$type": "GNNLMEOHCNA",
          "coopNodeId": 325,
          "coopNodeType": "COOP_NODE_TALK",
          "nextNodeArray": [
            329
          ],
          "talkConfig": {
            "id": 325,
            "performCfg": "QuestDialogue/COOP/Coop107401/Q1915301",
            "loadType": "TALK_COOP",
            "questId": 19153,
            "assetIndex": 4652440343167804909,
            "prePerformCfg": "",
            "lockGameTime": true
          },
          "OOKANGCPHOK": 16
        },
        "329": {
          "$type": "KOKAKIKFOMH",
          "coopNodeId": 329,
          "coopNodeType": "COOP_NODE_ACTION",
          "nextNodeArray": [
            327
          ],
          "actionList": [
            {
              "actionType": "COOP_ACTION_CONFIDENCE_ADD",
              "param": [
                1
              ]
            }
          ]
        },
        "327": {
          "$type": "GNNLMEOHCNA",
          "coopNodeId": 327,
          "coopNodeType": "COOP_NODE_TALK",
          "nextNodeArray": [
            328
          ],
          "talkConfig": {
            "id": 327,
            "performCfg": "QuestDialogue/COOP/Coop107401/Q1915302",
            "loadType": "TALK_COOP",
            "questId": 19153,
            "assetIndex": 4847271212787774447,
            "prePerformCfg": "",
            "lockGameTime": true
          },
          "OOKANGCPHOK": 16
        },
        "328": {
          "$type": "KOKAKIKFOMH",
          "coopNodeId": 328,
          "coopNodeType": "COOP_NODE_ACTION",
          "nextNodeArray": [
            330
          ],
          "actionList": [
            {
              "actionType": "COOP_ACTION_CONFIDENCE_ADD",
              "param": [
                1
              ]
            }
          ]
        },
        "330": {
          "$type": "GNNLMEOHCNA",
          "coopNodeId": 330,
          "coopNodeType": "COOP_NODE_TALK",
          "nextNodeArray": [
            331
          ],
          "talkConfig": {
            "id": 330,
            "performCfg": "QuestDialogue/COOP/Coop107401/Q1915310",
            "loadType": "TALK_COOP",
            "questId": 19153,
            "assetIndex": 13642361740543781137,
            "prePerformCfg": "",
            "lockGameTime": true
          },
          "OOKANGCPHOK": 16
        },
        "331": {
          "$type": "KOKAKIKFOMH",
          "coopNodeId": 331,
          "coopNodeType": "COOP_NODE_ACTION",
          "nextNodeArray": [
            56
          ],
          "actionList": [
            {
              "actionType": "COOP_ACTION_CONFIDENCE_ADD",
              "param": [
                1
              ]
            }
          ]
        },
        "259": {
          "$type": "CNJIHIGFGDN",
          "coopNodeId": 259,
          "coopNodeType": "COOP_NODE_SELECT",
          "nextNodeArray": [
            268,
            263,
            264
          ],
          "selectList": [
            {
              "dialogId": 191530399,
              "hideCond": {},
              "enableCond": {}
            },
            {
              "dialogId": 191530398,
              "hideCond": {},
              "enableCond": {}
            },
            {
              "dialogId": 191530397,
              "hideCond": {},
              "enableCond": {}
            }
          ]
        },
        "56": {
          "$type": "GNNLMEOHCNA",
          "coopNodeId": 56,
          "coopNodeType": "COOP_NODE_TALK",
          "nextNodeArray": [
            259
          ],
          "talkConfig": {
            "id": 56,
            "performCfg": "QuestDialogue/COOP/Coop107401/Q1915303",
            "loadType": "TALK_COOP",
            "questId": 19153,
            "assetIndex": 14918790592410632329,
            "prePerformCfg": "",
            "lockGameTime": true
          },
          "OOKANGCPHOK": 16
        },
        "265": {
          "$type": "CNJIHIGFGDN",
          "coopNodeId": 265,
          "coopNodeType": "COOP_NODE_SELECT",
          "nextNodeArray": [
            267,
            269
          ],
          "selectList": [
            {
              "dialogId": 191530499,
              "hideCond": {},
              "enableCond": {}
            },
            {
              "dialogId": 191530498,
              "hideCond": {},
              "enableCond": {}
            }
          ]
        },
        "268": {
          "$type": "GNNLMEOHCNA",
          "coopNodeId": 268,
          "coopNodeType": "COOP_NODE_TALK",
          "nextNodeArray": [
            265
          ],
          "talkConfig": {
            "id": 268,
            "performCfg": "QuestDialogue/COOP/Coop107401/Q1915304",
            "loadType": "TALK_COOP",
            "questId": 19153,
            "assetIndex": 17308900360437776884,
            "prePerformCfg": "",
            "lockGameTime": true
          },
          "OOKANGCPHOK": 17
        },
        "272": {
          "$type": "CNJIHIGFGDN",
          "coopNodeId": 272,
          "coopNodeType": "COOP_NODE_SELECT",
          "nextNodeArray": [
            274
          ],
          "selectList": [
            {
              "dialogId": 191530597,
              "hideCond": {},
              "enableCond": {}
            }
          ]
        },
        "267": {
          "$type": "GNNLMEOHCNA",
          "coopNodeId": 267,
          "coopNodeType": "COOP_NODE_TALK",
          "nextNodeArray": [
            272
          ],
          "talkConfig": {
            "id": 267,
            "performCfg": "QuestDialogue/COOP/Coop107401/Q1915305",
            "loadType": "TALK_COOP",
            "questId": 19153,
            "assetIndex": 3019239752752602343,
            "prePerformCfg": "",
            "lockGameTime": true
          },
          "OOKANGCPHOK": 18
        },
        "274": {
          "$type": "GNNLMEOHCNA",
          "coopNodeId": 274,
          "coopNodeType": "COOP_NODE_TALK",
          "nextNodeArray": [
            276
          ],
          "talkConfig": {
            "id": 274,
            "performCfg": "QuestDialogue/COOP/Coop107401/Q1915306",
            "loadType": "TALK_COOP",
            "questId": 19153,
            "assetIndex": 5638667075015524167,
            "prePerformCfg": "",
            "lockGameTime": true
          },
          "OOKANGCPHOK": 15
        },
        "276": {
          "$type": "GNNLMEOHCNA",
          "coopNodeId": 276,
          "coopNodeType": "COOP_NODE_TALK",
          "nextNodeArray": [
            372
          ],
          "talkConfig": {
            "id": 276,
            "performCfg": "QuestDialogue/COOP/Coop107401/Q1915307",
            "loadType": "TALK_COOP",
            "questId": 19153,
            "assetIndex": 17956274510334378503,
            "prePerformCfg": "",
            "lockGameTime": true
          },
          "OOKANGCPHOK": 15
        },
        "372": {
          "$type": "KOKAKIKFOMH",
          "coopNodeId": 372,
          "coopNodeType": "COOP_NODE_ACTION",
          "nextNodeArray": [
            373
          ],
          "actionList": [
            {
              "actionType": "COOP_ACTION_CONFIDENCE_MINUS",
              "param": [
                1
              ]
            }
          ]
        },
        "373": {
          "$type": "GNNLMEOHCNA",
          "coopNodeId": 373,
          "coopNodeType": "COOP_NODE_TALK",
          "nextNodeArray": [
            58
          ],
          "talkConfig": {
            "id": 373,
            "performCfg": "QuestDialogue/COOP/Coop107401/Q1915311",
            "loadType": "TALK_COOP",
            "questId": 19153,
            "assetIndex": 1541926406438570796,
            "prePerformCfg": "",
            "lockGameTime": true
          },
          "OOKANGCPHOK": 15
        },
        "58": {
          "$type": "DCADCNINCPF",
          "coopNodeId": 58,
          "coopNodeType": "COOP_NODE_END",
          "savePointId": 191530601
        },
        "273": {
          "$type": "CNJIHIGFGDN",
          "coopNodeId": 273,
          "coopNodeType": "COOP_NODE_SELECT",
          "nextNodeArray": [
            275
          ],
          "selectList": [
            {
              "dialogId": 191530697,
              "hideCond": {},
              "enableCond": {}
            }
          ]
        },
        "269": {
          "$type": "GNNLMEOHCNA",
          "coopNodeId": 269,
          "coopNodeType": "COOP_NODE_TALK",
          "nextNodeArray": [
            273
          ],
          "talkConfig": {
            "id": 269,
            "performCfg": "QuestDialogue/COOP/Coop107401/Q1915306",
            "loadType": "TALK_COOP",
            "questId": 19153,
            "assetIndex": 3172704431116925427,
            "prePerformCfg": "",
            "lockGameTime": true
          },
          "OOKANGCPHOK": 19
        },
        "275": {
          "$type": "GNNLMEOHCNA",
          "coopNodeId": 275,
          "coopNodeType": "COOP_NODE_TALK",
          "nextNodeArray": [
            276
          ],
          "talkConfig": {
            "id": 275,
            "performCfg": "QuestDialogue/COOP/Coop107401/Q1915305",
            "loadType": "TALK_COOP",
            "questId": 19153,
            "assetIndex": 3469490020762456838,
            "prePerformCfg": "",
            "lockGameTime": true
          },
          "OOKANGCPHOK": 15
        },
        "279": {
          "$type": "CNJIHIGFGDN",
          "coopNodeId": 279,
          "coopNodeType": "COOP_NODE_SELECT",
          "nextNodeArray": [
            281,
            282
          ],
          "selectList": [
            {
              "dialogId": 191530599,
              "hideCond": {},
              "enableCond": {}
            },
            {
              "dialogId": 191530598,
              "hideCond": {},
              "enableCond": {}
            }
          ]
        },
        "263": {
          "$type": "GNNLMEOHCNA",
          "coopNodeId": 263,
          "coopNodeType": "COOP_NODE_TALK",
          "nextNodeArray": [
            279
          ],
          "talkConfig": {
            "id": 263,
            "performCfg": "QuestDialogue/COOP/Coop107401/Q1915305",
            "loadType": "TALK_COOP",
            "questId": 19153,
            "assetIndex": 16327496301632462326,
            "prePerformCfg": "",
            "lockGameTime": true
          },
          "OOKANGCPHOK": 20
        },
        "285": {
          "$type": "CNJIHIGFGDN",
          "coopNodeId": 285,
          "coopNodeType": "COOP_NODE_SELECT",
          "nextNodeArray": [
            287
          ],
          "selectList": [
            {
              "dialogId": 191530497,
              "hideCond": {},
              "enableCond": {}
            }
          ]
        },
        "281": {
          "$type": "GNNLMEOHCNA",
          "coopNodeId": 281,
          "coopNodeType": "COOP_NODE_TALK",
          "nextNodeArray": [
            285
          ],
          "talkConfig": {
            "id": 281,
            "performCfg": "QuestDialogue/COOP/Coop107401/Q1915304",
            "loadType": "TALK_COOP",
            "questId": 19153,
            "assetIndex": 12666680263457039099,
            "prePerformCfg": "",
            "lockGameTime": true
          },
          "OOKANGCPHOK": 21
        },
        "287": {
          "$type": "GNNLMEOHCNA",
          "coopNodeId": 287,
          "coopNodeType": "COOP_NODE_TALK",
          "nextNodeArray": [
            276
          ],
          "talkConfig": {
            "id": 287,
            "performCfg": "QuestDialogue/COOP/Coop107401/Q1915306",
            "loadType": "TALK_COOP",
            "questId": 19153,
            "assetIndex": 4778256138451997349,
            "prePerformCfg": "",
            "lockGameTime": true
          },
          "OOKANGCPHOK": 15
        },
        "286": {
          "$type": "CNJIHIGFGDN",
          "coopNodeId": 286,
          "coopNodeType": "COOP_NODE_SELECT",
          "nextNodeArray": [
            288
          ],
          "selectList": [
            {
              "dialogId": 191530696,
              "hideCond": {},
              "enableCond": {}
            }
          ]
        },
        "282": {
          "$type": "GNNLMEOHCNA",
          "coopNodeId": 282,
          "coopNodeType": "COOP_NODE_TALK",
          "nextNodeArray": [
            286
          ],
          "talkConfig": {
            "id": 282,
            "performCfg": "QuestDialogue/COOP/Coop107401/Q1915306",
            "loadType": "TALK_COOP",
            "questId": 19153,
            "assetIndex": 2803260945470133876,
            "prePerformCfg": "",
            "lockGameTime": true
          },
          "OOKANGCPHOK": 22
        },
        "288": {
          "$type": "GNNLMEOHCNA",
          "coopNodeId": 288,
          "coopNodeType": "COOP_NODE_TALK",
          "nextNodeArray": [
            276
          ],
          "talkConfig": {
            "id": 288,
            "performCfg": "QuestDialogue/COOP/Coop107401/Q1915304",
            "loadType": "TALK_COOP",
            "questId": 19153,
            "assetIndex": 3758076470715794268,
            "prePerformCfg": "",
            "lockGameTime": true
          },
          "OOKANGCPHOK": 15
        },
        "289": {
          "$type": "CNJIHIGFGDN",
          "coopNodeId": 289,
          "coopNodeType": "COOP_NODE_SELECT",
          "nextNodeArray": [
            291,
            295
          ],
          "selectList": [
            {
              "dialogId": 191530699,
              "hideCond": {},
              "enableCond": {}
            },
            {
              "dialogId": 191530698,
              "hideCond": {},
              "enableCond": {}
            }
          ]
        },
        "264": {
          "$type": "GNNLMEOHCNA",
          "coopNodeId": 264,
          "coopNodeType": "COOP_NODE_TALK",
          "nextNodeArray": [
            289
          ],
          "talkConfig": {
            "id": 264,
            "performCfg": "QuestDialogue/COOP/Coop107401/Q1915306",
            "loadType": "TALK_COOP",
            "questId": 19153,
            "assetIndex": 15530466900411123509,
            "prePerformCfg": "",
            "lockGameTime": true
          },
          "OOKANGCPHOK": 23
        },
        "293": {
          "$type": "CNJIHIGFGDN",
          "coopNodeId": 293,
          "coopNodeType": "COOP_NODE_SELECT",
          "nextNodeArray": [
            294
          ],
          "selectList": [
            {
              "dialogId": 191530496,
              "hideCond": {},
              "enableCond": {}
            }
          ]
        },
        "291": {
          "$type": "GNNLMEOHCNA",
          "coopNodeId": 291,
          "coopNodeType": "COOP_NODE_TALK",
          "nextNodeArray": [
            293
          ],
          "talkConfig": {
            "id": 291,
            "performCfg": "QuestDialogue/COOP/Coop107401/Q1915304",
            "loadType": "TALK_COOP",
            "questId": 19153,
            "assetIndex": 3957674400200182663,
            "prePerformCfg": "",
            "lockGameTime": true
          },
          "OOKANGCPHOK": 24
        },
        "294": {
          "$type": "GNNLMEOHCNA",
          "coopNodeId": 294,
          "coopNodeType": "COOP_NODE_TALK",
          "nextNodeArray": [
            276
          ],
          "talkConfig": {
            "id": 294,
            "performCfg": "QuestDialogue/COOP/Coop107401/Q1915305",
            "loadType": "TALK_COOP",
            "questId": 19153,
            "assetIndex": 5891002784380244172,
            "prePerformCfg": "",
            "lockGameTime": true
          },
          "OOKANGCPHOK": 15
        },
        "297": {
          "$type": "CNJIHIGFGDN",
          "coopNodeId": 297,
          "coopNodeType": "COOP_NODE_SELECT",
          "nextNodeArray": [
            298
          ],
          "selectList": [
            {
              "dialogId": 191530596,
              "hideCond": {},
              "enableCond": {}
            }
          ]
        },
        "295": {
          "$type": "GNNLMEOHCNA",
          "coopNodeId": 295,
          "coopNodeType": "COOP_NODE_TALK",
          "nextNodeArray": [
            297
          ],
          "talkConfig": {
            "id": 295,
            "performCfg": "QuestDialogue/COOP/Coop107401/Q1915305",
            "loadType": "TALK_COOP",
            "questId": 19153,
            "assetIndex": 16326596945295961746,
            "prePerformCfg": "",
            "lockGameTime": true
          },
          "OOKANGCPHOK": 25
        },
        "298": {
          "$type": "GNNLMEOHCNA",
          "coopNodeId": 298,
          "coopNodeType": "COOP_NODE_TALK",
          "nextNodeArray": [
            276
          ],
          "talkConfig": {
            "id": 298,
            "performCfg": "QuestDialogue/COOP/Coop107401/Q1915304",
            "loadType": "TALK_COOP",
            "questId": 19153,
            "assetIndex": 14488333740496256300,
            "prePerformCfg": "",
            "lockGameTime": true
          },
          "OOKANGCPHOK": 15
        },
        "374": {
          "$type": "DCADCNINCPF",
          "coopNodeId": 374,
          "coopNodeType": "COOP_NODE_END",
          "savePointId": 191530602
        }
      },
      "startNodeId": 325,
      "failNodeId": 374,
      "PMOFDEGOCOL": true
    },
    "1915402": {
      "id": 1915402,
      "coopMap": {
        "64": {
          "$type": "GNNLMEOHCNA",
          "coopNodeId": 64,
          "coopNodeType": "COOP_NODE_TALK",
          "nextNodeArray": [
            66
          ],
          "talkConfig": {
            "id": 64,
            "performCfg": "QuestDialogue/COOP/Coop107401/Q1915401",
            "loadType": "TALK_COOP",
            "questId": 19154,
            "assetIndex": 3731754053834805801,
            "prePerformCfg": "",
            "lockGameTime": true
          },
          "OOKANGCPHOK": 26
        },
        "66": {
          "$type": "DCADCNINCPF",
          "coopNodeId": 66,
          "coopNodeType": "COOP_NODE_END",
          "savePointId": 191540201
        }
      },
      "startNodeId": 64,
      "PMOFDEGOCOL": true
    },
    "1915403": {
      "id": 1915403,
      "coopMap": {
        "240": {
          "$type": "GNNLMEOHCNA",
          "coopNodeId": 240,
          "coopNodeType": "COOP_NODE_TALK",
          "nextNodeArray": [
            361
          ],
          "talkConfig": {
            "id": 240,
            "performCfg": "QuestDialogue/COOP/Coop107401/Q1915406",
            "loadType": "TALK_COOP",
            "questId": 19154,
            "assetIndex": 12183847869011150169,
            "prePerformCfg": ""
          },
          "OOKANGCPHOK": 54
        },
        "361": {
          "$type": "KOKAKIKFOMH",
          "coopNodeId": 361,
          "coopNodeType": "COOP_NODE_ACTION",
          "nextNodeArray": [
            360
          ],
          "actionList": [
            {
              "actionType": "COOP_ACTION_CONFIDENCE_ADD",
              "param": [
                1
              ]
            }
          ]
        },
        "360": {
          "$type": "GNNLMEOHCNA",
          "coopNodeId": 360,
          "coopNodeType": "COOP_NODE_TALK",
          "nextNodeArray": [
            242
          ],
          "talkConfig": {
            "id": 360,
            "performCfg": "QuestDialogue/COOP/Coop107401/Q1915407",
            "loadType": "TALK_COOP",
            "questId": 19154,
            "assetIndex": 17190667119976907796,
            "prePerformCfg": ""
          },
          "OOKANGCPHOK": 54
        },
        "242": {
          "$type": "DCADCNINCPF",
          "coopNodeId": 242,
          "coopNodeType": "COOP_NODE_END",
          "savePointId": 191540301
        }
      },
      "startNodeId": 240,
      "PMOFDEGOCOL": true
    },
    "1915404": {
      "id": 1915404,
      "coopMap": {
        "249": {
          "$type": "CNJIHIGFGDN",
          "coopNodeId": 249,
          "coopNodeType": "COOP_NODE_SELECT",
          "nextNodeArray": [
            251,
            252
          ],
          "selectList": [
            {
              "dialogId": 191540299,
              "hideCond": {},
              "enableCond": {}
            },
            {
              "dialogId": 191540298,
              "hideCond": {},
              "enableCond": {}
            }
          ]
        },
        "245": {
          "$type": "GNNLMEOHCNA",
          "coopNodeId": 245,
          "coopNodeType": "COOP_NODE_TALK",
          "nextNodeArray": [
            249
          ],
          "talkConfig": {
            "id": 245,
            "performCfg": "QuestDialogue/COOP/Coop107401/Q1915402",
            "loadType": "TALK_COOP",
            "questId": 19154,
            "assetIndex": 16498447361504128663,
            "prePerformCfg": ""
          },
          "OOKANGCPHOK": 56
        },
        "251": {
          "$type": "GNNLMEOHCNA",
          "coopNodeId": 251,
          "coopNodeType": "COOP_NODE_TALK",
          "nextNodeArray": [
            253
          ],
          "talkConfig": {
            "id": 251,
            "performCfg": "QuestDialogue/COOP/Coop107401/Q1915408",
            "loadType": "TALK_COOP",
            "questId": 19154,
            "assetIndex": 12147690410209773059,
            "prePerformCfg": ""
          },
          "OOKANGCPHOK": 55
        },
        "253": {
          "$type": "GNNLMEOHCNA",
          "coopNodeId": 253,
          "coopNodeType": "COOP_NODE_TALK",
          "nextNodeArray": [
            247
          ],
          "talkConfig": {
            "id": 253,
            "performCfg": "QuestDialogue/COOP/Coop107401/Q1915411",
            "loadType": "TALK_COOP",
            "questId": 19154,
            "assetIndex": 13096517271005124310,
            "prePerformCfg": ""
          },
          "OOKANGCPHOK": 55
        },
        "247": {
          "$type": "DCADCNINCPF",
          "coopNodeId": 247,
          "coopNodeType": "COOP_NODE_END",
          "savePointId": 191540401
        },
        "252": {
          "$type": "GNNLMEOHCNA",
          "coopNodeId": 252,
          "coopNodeType": "COOP_NODE_TALK",
          "nextNodeArray": [
            253
          ],
          "talkConfig": {
            "id": 252,
            "performCfg": "QuestDialogue/COOP/Coop107401/Q1915410",
            "loadType": "TALK_COOP",
            "questId": 19154,
            "assetIndex": 7634359965503401481,
            "prePerformCfg": ""
          },
          "OOKANGCPHOK": 55
        }
      },
      "startNodeId": 245,
      "PMOFDEGOCOL": true
    },
    "1915405": {
      "id": 1915405,
      "coopMap": {
        "254": {
          "$type": "CNJIHIGFGDN",
          "coopNodeId": 254,
          "coopNodeType": "COOP_NODE_SELECT",
          "nextNodeArray": [
            256,
            257
          ],
          "selectList": [
            {
              "dialogId": 191540999,
              "hideCond": {},
              "enableCond": {}
            },
            {
              "dialogId": 191540998,
              "hideCond": {},
              "enableCond": {}
            }
          ]
        },
        "221": {
          "$type": "GNNLMEOHCNA",
          "coopNodeId": 221,
          "coopNodeType": "COOP_NODE_TALK",
          "nextNodeArray": [
            254
          ],
          "talkConfig": {
            "id": 221,
            "performCfg": "QuestDialogue/COOP/Coop107401/Q1915409",
            "loadType": "TALK_COOP",
            "questId": 19154,
            "assetIndex": 14774162214023552659,
            "prePerformCfg": ""
          },
          "OOKANGCPHOK": 53
        },
        "256": {
          "$type": "GNNLMEOHCNA",
          "coopNodeId": 256,
          "coopNodeType": "COOP_NODE_TALK",
          "nextNodeArray": [
            258
          ],
          "talkConfig": {
            "id": 256,
            "performCfg": "QuestDialogue/COOP/Coop107401/Q1915412",
            "loadType": "TALK_COOP",
            "questId": 19154,
            "assetIndex": 12966498126968243600,
            "prePerformCfg": ""
          },
          "OOKANGCPHOK": 52
        },
        "258": {
          "$type": "GNNLMEOHCNA",
          "coopNodeId": 258,
          "coopNodeType": "COOP_NODE_TALK",
          "nextNodeArray": [
            248
          ],
          "talkConfig": {
            "id": 258,
            "performCfg": "QuestDialogue/COOP/Coop107401/Q1915414",
            "loadType": "TALK_COOP",
            "questId": 19154,
            "assetIndex": 14818533931119035616,
            "prePerformCfg": ""
          },
          "OOKANGCPHOK": 52
        },
        "248": {
          "$type": "DCADCNINCPF",
          "coopNodeId": 248,
          "coopNodeType": "COOP_NODE_END",
          "savePointId": 191540501
        },
        "257": {
          "$type": "GNNLMEOHCNA",
          "coopNodeId": 257,
          "coopNodeType": "COOP_NODE_TALK",
          "nextNodeArray": [
            258
          ],
          "talkConfig": {
            "id": 257,
            "performCfg": "QuestDialogue/COOP/Coop107401/Q1915413",
            "loadType": "TALK_COOP",
            "questId": 19154,
            "assetIndex": 3764779992135978920,
            "prePerformCfg": ""
          },
          "OOKANGCPHOK": 52
        }
      },
      "startNodeId": 221,
      "PMOFDEGOCOL": true
    },
    "1915406": {
      "id": 1915406,
      "coopMap": {
        "357": {
          "$type": "GNNLMEOHCNA",
          "coopNodeId": 357,
          "coopNodeType": "COOP_NODE_TALK",
          "nextNodeArray": [
            358
          ],
          "talkConfig": {
            "id": 357,
            "performCfg": "QuestDialogue/COOP/Coop107401/Q1915415",
            "loadType": "TALK_COOP",
            "questId": 19154,
            "assetIndex": 8051470213815401343,
            "prePerformCfg": ""
          },
          "OOKANGCPHOK": 29
        },
        "358": {
          "$type": "KOKAKIKFOMH",
          "coopNodeId": 358,
          "coopNodeType": "COOP_NODE_ACTION",
          "nextNodeArray": [
            73
          ],
          "actionList": [
            {
              "actionType": "COOP_ACTION_CONFIDENCE_ADD",
              "param": [
                1
              ]
            }
          ]
        },
        "75": {
          "$type": "CNJIHIGFGDN",
          "coopNodeId": 75,
          "coopNodeType": "COOP_NODE_SELECT",
          "nextNodeArray": [
            111,
            112
          ],
          "selectList": [
            {
              "dialogId": 191540399,
              "hideCond": {},
              "enableCond": {}
            },
            {
              "dialogId": 191540398,
              "hideCond": {},
              "enableCond": {}
            }
          ]
        },
        "73": {
          "$type": "GNNLMEOHCNA",
          "coopNodeId": 73,
          "coopNodeType": "COOP_NODE_TALK",
          "nextNodeArray": [
            75
          ],
          "talkConfig": {
            "id": 73,
            "performCfg": "QuestDialogue/COOP/Coop107401/Q1915403",
            "loadType": "TALK_COOP",
            "questId": 19154,
            "assetIndex": 4016982035305184516,
            "prePerformCfg": ""
          },
          "OOKANGCPHOK": 29
        },
        "111": {
          "$type": "GNNLMEOHCNA",
          "coopNodeId": 111,
          "coopNodeType": "COOP_NODE_TALK",
          "nextNodeArray": [
            74
          ],
          "talkConfig": {
            "id": 111,
            "performCfg": "QuestDialogue/COOP/Coop107401/Q1915404",
            "loadType": "TALK_COOP",
            "questId": 19154,
            "assetIndex": 3143294850513050957,
            "prePerformCfg": ""
          },
          "OOKANGCPHOK": 27
        },
        "74": {
          "$type": "DCADCNINCPF",
          "coopNodeId": 74,
          "coopNodeType": "COOP_NODE_END",
          "savePointId": 191540601
        },
        "112": {
          "$type": "GNNLMEOHCNA",
          "coopNodeId": 112,
          "coopNodeType": "COOP_NODE_TALK",
          "nextNodeArray": [
            77
          ],
          "talkConfig": {
            "id": 112,
            "performCfg": "QuestDialogue/COOP/Coop107401/Q1915405",
            "loadType": "TALK_COOP",
            "questId": 19154,
            "assetIndex": 17476732786650737157,
            "prePerformCfg": ""
          },
          "OOKANGCPHOK": 28
        },
        "77": {
          "$type": "DCADCNINCPF",
          "coopNodeId": 77,
          "coopNodeType": "COOP_NODE_END",
          "savePointId": 191540602
        }
      },
      "startNodeId": 357,
      "PMOFDEGOCOL": true
    },
    "1915502": {
      "id": 1915502,
      "coopMap": {
        "80": {
          "$type": "GNNLMEOHCNA",
          "coopNodeId": 80,
          "coopNodeType": "COOP_NODE_TALK",
          "nextNodeArray": [
            82
          ],
          "talkConfig": {
            "id": 80,
            "performCfg": "QuestDialogue/COOP/Coop107401/Q1915501",
            "loadType": "TALK_COOP",
            "questId": 19155,
            "assetIndex": 9326852932834215650,
            "prePerformCfg": ""
          },
          "OOKANGCPHOK": 30
        },
        "82": {
          "$type": "DCADCNINCPF",
          "coopNodeId": 82,
          "coopNodeType": "COOP_NODE_END",
          "savePointId": 191550201
        }
      },
      "startNodeId": 80,
      "PMOFDEGOCOL": true
    },
    "1915504": {
      "id": 1915504,
      "coopMap": {
        "85": {
          "$type": "GNNLMEOHCNA",
          "coopNodeId": 85,
          "coopNodeType": "COOP_NODE_TALK",
          "nextNodeArray": [
            366
          ],
          "talkConfig": {
            "id": 85,
            "performCfg": "QuestDialogue/COOP/Coop107401/Q1915502",
            "loadType": "TALK_COOP",
            "questId": 19155,
            "assetIndex": 5763573512840937043,
            "prePerformCfg": "",
            "lockGameTime": true
          },
          "OOKANGCPHOK": 31
        },
        "366": {
          "$type": "GNNLMEOHCNA",
          "coopNodeId": 366,
          "coopNodeType": "COOP_NODE_TALK",
          "nextNodeArray": [
            367
          ],
          "talkConfig": {
            "id": 366,
            "performCfg": "QuestDialogue/COOP/Coop107401/Q1915503",
            "loadType": "TALK_COOP",
            "questId": 19155,
            "assetIndex": 18356814971447394778,
            "prePerformCfg": "",
            "lockGameTime": true
          },
          "OOKANGCPHOK": 31
        },
        "367": {
          "$type": "KOKAKIKFOMH",
          "coopNodeId": 367,
          "coopNodeType": "COOP_NODE_ACTION",
          "nextNodeArray": [
            390
          ],
          "actionList": [
            {
              "actionType": "COOP_ACTION_CONFIDENCE_MINUS",
              "param": [
                2
              ]
            }
          ]
        },
        "390": {
          "$type": "GNNLMEOHCNA",
          "coopNodeId": 390,
          "coopNodeType": "COOP_NODE_TALK",
          "nextNodeArray": [
            391
          ],
          "talkConfig": {
            "id": 390,
            "performCfg": "QuestDialogue/COOP/Coop107401/Q1915505",
            "loadType": "TALK_COOP",
            "questId": 19155,
            "assetIndex": 9677757862195888994,
            "prePerformCfg": "",
            "lockGameTime": true
          },
          "OOKANGCPHOK": 31
        },
        "391": {
          "$type": "KOKAKIKFOMH",
          "coopNodeId": 391,
          "coopNodeType": "COOP_NODE_ACTION",
          "nextNodeArray": [
            368
          ],
          "actionList": [
            {
              "actionType": "COOP_ACTION_CONFIDENCE_MINUS",
              "param": [
                2
              ]
            }
          ]
        },
        "368": {
          "$type": "GNNLMEOHCNA",
          "coopNodeId": 368,
          "coopNodeType": "COOP_NODE_TALK",
          "nextNodeArray": [
            88
          ],
          "talkConfig": {
            "id": 368,
            "performCfg": "QuestDialogue/COOP/Coop107401/Q1915504",
            "loadType": "TALK_COOP",
            "questId": 19155,
            "assetIndex": 1018038787033374590,
            "prePerformCfg": "",
            "lockGameTime": true
          },
          "OOKANGCPHOK": 31
        },
        "88": {
          "$type": "DCADCNINCPF",
          "coopNodeId": 88,
          "coopNodeType": "COOP_NODE_END",
          "savePointId": 191550401
        },
        "369": {
          "$type": "DCADCNINCPF",
          "coopNodeId": 369,
          "coopNodeType": "COOP_NODE_END",
          "savePointId": 191550402
        }
      },
      "startNodeId": 85,
      "failNodeId": 369,
      "PMOFDEGOCOL": true
    },
    "1915602": {
      "id": 1915602,
      "coopMap": {
        "91": {
          "$type": "GNNLMEOHCNA",
          "coopNodeId": 91,
          "coopNodeType": "COOP_NODE_TALK",
          "nextNodeArray": [
            93
          ],
          "talkConfig": {
            "id": 91,
            "performCfg": "QuestDialogue/COOP/Coop107401/Q1915601",
            "loadType": "TALK_COOP",
            "questId": 19156,
            "assetIndex": 5970158835540477728,
            "prePerformCfg": "",
            "lockGameTime": true
          },
          "OOKANGCPHOK": 32
        },
        "93": {
          "$type": "DCADCNINCPF",
          "coopNodeId": 93,
          "coopNodeType": "COOP_NODE_END",
          "savePointId": 191560201
        }
      },
      "startNodeId": 91,
      "PMOFDEGOCOL": true
    },
    "1915606": {
      "id": 1915606,
      "coopMap": {
        "100": {
          "$type": "GNNLMEOHCNA",
          "coopNodeId": 100,
          "coopNodeType": "COOP_NODE_TALK",
          "nextNodeArray": [
            363
          ],
          "talkConfig": {
            "id": 100,
            "performCfg": "QuestDialogue/COOP/Coop107401/Q1915603",
            "loadType": "TALK_COOP",
            "questId": 19156,
            "assetIndex": 11798854051540046634,
            "prePerformCfg": "",
            "lockGameTime": true
          },
          "OOKANGCPHOK": 33
        },
        "363": {
          "$type": "KOKAKIKFOMH",
          "coopNodeId": 363,
          "coopNodeType": "COOP_NODE_ACTION",
          "nextNodeArray": [
            362
          ],
          "actionList": [
            {
              "actionType": "COOP_ACTION_CONFIDENCE_MINUS",
              "param": [
                1
              ]
            }
          ]
        },
        "362": {
          "$type": "GNNLMEOHCNA",
          "coopNodeId": 362,
          "coopNodeType": "COOP_NODE_TALK",
          "nextNodeArray": [
            102
          ],
          "talkConfig": {
            "id": 362,
            "performCfg": "QuestDialogue/COOP/Coop107401/Q1915604",
            "loadType": "TALK_COOP",
            "questId": 19156,
            "assetIndex": 10713767949772877772,
            "prePerformCfg": "",
            "lockGameTime": true
          },
          "OOKANGCPHOK": 33
        },
        "102": {
          "$type": "DCADCNINCPF",
          "coopNodeId": 102,
          "coopNodeType": "COOP_NODE_END",
          "savePointId": 191560601
        },
        "364": {
          "$type": "DCADCNINCPF",
          "coopNodeId": 364,
          "coopNodeType": "COOP_NODE_END",
          "savePointId": 191560602
        }
      },
      "startNodeId": 100,
      "failNodeId": 364,
      "PMOFDEGOCOL": true
    },
    "1915702": {
      "id": 1915702,
      "coopMap": {
        "370": {
          "$type": "GNNLMEOHCNA",
          "coopNodeId": 370,
          "coopNodeType": "COOP_NODE_TALK",
          "nextNodeArray": [
            371
          ],
          "talkConfig": {
            "id": 370,
            "performCfg": "QuestDialogue/COOP/Coop107401/Q1915704",
            "loadType": "TALK_COOP",
            "questId": 19157,
            "assetIndex": 12796060113447633923,
            "prePerformCfg": "",
            "lockGameTime": true
          },
          "OOKANGCPHOK": 36
        },
        "371": {
          "$type": "KOKAKIKFOMH",
          "coopNodeId": 371,
          "coopNodeType": "COOP_NODE_ACTION",
          "nextNodeArray": [
            105
          ],
          "actionList": [
            {
              "actionType": "COOP_ACTION_CONFIDENCE_ADD",
              "param": [
                1
              ]
            }
          ]
        },
        "107": {
          "$type": "CNJIHIGFGDN",
          "coopNodeId": 107,
          "coopNodeType": "COOP_NODE_SELECT",
          "nextNodeArray": [
            113,
            115
          ],
          "selectList": [
            {
              "dialogId": 191570199,
              "hideCond": {},
              "enableCond": {}
            },
            {
              "dialogId": 191570198,
              "hideCond": {},
              "enableCond": {}
            }
          ]
        },
        "105": {
          "$type": "GNNLMEOHCNA",
          "coopNodeId": 105,
          "coopNodeType": "COOP_NODE_TALK",
          "nextNodeArray": [
            107
          ],
          "talkConfig": {
            "id": 105,
            "performCfg": "QuestDialogue/COOP/Coop107401/Q1915701",
            "loadType": "TALK_COOP",
            "questId": 19157,
            "assetIndex": 16569767575533046854,
            "prePerformCfg": "",
            "lockGameTime": true
          },
          "OOKANGCPHOK": 36
        },
        "113": {
          "$type": "GNNLMEOHCNA",
          "coopNodeId": 113,
          "coopNodeType": "COOP_NODE_TALK",
          "nextNodeArray": [
            114
          ],
          "talkConfig": {
            "id": 113,
            "performCfg": "QuestDialogue/COOP/Coop107401/Q1915702",
            "loadType": "TALK_COOP",
            "questId": 19157,
            "assetIndex": 3892677910479125137,
            "prePerformCfg": "",
            "lockGameTime": true
          },
          "OOKANGCPHOK": 34
        },
        "114": {
          "$type": "DCADCNINCPF",
          "coopNodeId": 114,
          "coopNodeType": "COOP_NODE_END",
          "savePointId": 191570201
        },
        "115": {
          "$type": "GNNLMEOHCNA",
          "coopNodeId": 115,
          "coopNodeType": "COOP_NODE_TALK",
          "nextNodeArray": [
            116
          ],
          "talkConfig": {
            "id": 115,
            "performCfg": "QuestDialogue/COOP/Coop107401/Q1915703",
            "loadType": "TALK_COOP",
            "questId": 19157,
            "assetIndex": 14210603471841168647,
            "prePerformCfg": "",
            "lockGameTime": true
          },
          "OOKANGCPHOK": 35
        },
        "116": {
          "$type": "DCADCNINCPF",
          "coopNodeId": 116,
          "coopNodeType": "COOP_NODE_END",
          "savePointId": 191570202
        }
      },
      "startNodeId": 370,
      "PMOFDEGOCOL": true
    },
    "1915801": {
      "id": 1915801,
      "coopMap": {
        "119": {
          "$type": "GNNLMEOHCNA",
          "coopNodeId": 119,
          "coopNodeType": "COOP_NODE_TALK",
          "nextNodeArray": [
            144
          ],
          "talkConfig": {
            "id": 119,
            "performCfg": "QuestDialogue/COOP/Coop107401/Q1915801",
            "loadType": "TALK_COOP",
            "questId": 19158,
            "assetIndex": 7729561593655715435,
            "prePerformCfg": ""
          },
          "OOKANGCPHOK": 37
        },
        "144": {
          "$type": "DCADCNINCPF",
          "coopNodeId": 144,
          "coopNodeType": "COOP_NODE_END",
          "savePointId": 191580101
        }
      },
      "startNodeId": 119,
      "PMOFDEGOCOL": true
    },
    "1915802": {
      "id": 1915802,
      "coopMap": {
        "306": {
          "$type": "CNJIHIGFGDN",
          "coopNodeId": 306,
          "coopNodeType": "COOP_NODE_SELECT",
          "nextNodeArray": [
            153,
            315,
            316
          ],
          "selectList": [
            {
              "dialogId": 191580299,
              "hideCond": {},
              "enableCond": {}
            },
            {
              "dialogId": 191580298,
              "hideCond": {},
              "enableCond": {}
            },
            {
              "dialogId": 191580297,
              "hideCond": {},
              "enableCond": {}
            }
          ]
        },
        "147": {
          "$type": "GNNLMEOHCNA",
          "coopNodeId": 147,
          "coopNodeType": "COOP_NODE_TALK",
          "nextNodeArray": [
            306
          ],
          "talkConfig": {
            "id": 147,
            "performCfg": "QuestDialogue/COOP/Coop107401/Q1915802",
            "loadType": "TALK_COOP",
            "questId": 19158,
            "assetIndex": 455466751238804240,
            "prePerformCfg": ""
          },
          "OOKANGCPHOK": 45
        },
        "153": {
          "$type": "GNNLMEOHCNA",
          "coopNodeId": 153,
          "coopNodeType": "COOP_NODE_TALK",
          "nextNodeArray": [
            154
          ],
          "talkConfig": {
            "id": 153,
            "performCfg": "QuestDialogue/COOP/Coop107401/Q1915803",
            "loadType": "TALK_COOP",
            "questId": 19158,
            "assetIndex": 14926122866608510793,
            "prePerformCfg": ""
          },
          "OOKANGCPHOK": 43
        },
        "154": {
          "$type": "DCADCNINCPF",
          "coopNodeId": 154,
          "coopNodeType": "COOP_NODE_END",
          "savePointId": 191580201
        },
        "315": {
          "$type": "KOKAKIKFOMH",
          "coopNodeId": 315,
          "coopNodeType": "COOP_NODE_ACTION",
          "nextNodeArray": [
            153
          ],
          "actionList": [
            {
              "actionType": "COOP_ACTION_CONFIDENCE_ADD",
              "param": [
                1
              ]
            }
          ]
        },
        "316": {
          "$type": "KOKAKIKFOMH",
          "coopNodeId": 316,
          "coopNodeType": "COOP_NODE_ACTION",
          "nextNodeArray": [
            334
          ],
          "actionList": [
            {
              "actionType": "COOP_ACTION_CONFIDENCE_ADD",
              "param": [
                1
              ]
            }
          ]
        },
        "334": {
          "$type": "GNNLMEOHCNA",
          "coopNodeId": 334,
          "coopNodeType": "COOP_NODE_TALK",
          "nextNodeArray": [
            336
          ],
          "talkConfig": {
            "id": 334,
            "performCfg": "QuestDialogue/COOP/Coop107401/Q1915804",
            "loadType": "TALK_COOP",
            "questId": 19158,
            "assetIndex": 15012278767613715420,
            "prePerformCfg": ""
          },
          "OOKANGCPHOK": 44
        },
        "336": {
          "$type": "KOKAKIKFOMH",
          "coopNodeId": 336,
          "coopNodeType": "COOP_NODE_ACTION",
          "nextNodeArray": [
            163
          ],
          "actionList": [
            {
              "actionType": "COOP_ACTION_CONFIDENCE_ADD",
              "param": [
                1
              ]
            }
          ]
        },
        "163": {
          "$type": "GNNLMEOHCNA",
          "coopNodeId": 163,
          "coopNodeType": "COOP_NODE_TALK",
          "nextNodeArray": [
            164
          ],
          "talkConfig": {
            "id": 163,
            "performCfg": "QuestDialogue/COOP/Coop107401/Q1915806",
            "loadType": "TALK_COOP",
            "questId": 19158,
            "assetIndex": 13530953296105974721,
            "prePerformCfg": ""
          },
          "OOKANGCPHOK": 44
        },
        "164": {
          "$type": "DCADCNINCPF",
          "coopNodeId": 164,
          "coopNodeType": "COOP_NODE_END",
          "savePointId": 191580202
        }
      },
      "startNodeId": 147,
      "PMOFDEGOCOL": true
    },
    "1915902": {
      "id": 1915902,
      "coopMap": {
        "175": {
          "$type": "CNJIHIGFGDN",
          "coopNodeId": 175,
          "coopNodeType": "COOP_NODE_SELECT",
          "nextNodeArray": [
            177,
            181,
            302
          ],
          "selectList": [
            {
              "dialogId": 191590199,
              "hideCond": {},
              "enableCond": {}
            },
            {
              "dialogId": 191590198,
              "hideCond": {},
              "enableCond": {}
            },
            {
              "dialogId": 191590197,
              "hideCond": {},
              "enableCond": {}
            }
          ]
        },
        "167": {
          "$type": "GNNLMEOHCNA",
          "coopNodeId": 167,
          "coopNodeType": "COOP_NODE_TALK",
          "nextNodeArray": [
            175
          ],
          "talkConfig": {
            "id": 167,
            "performCfg": "QuestDialogue/COOP/Coop107401/Q1915901",
            "loadType": "TALK_COOP",
            "questId": 19159,
            "assetIndex": 15468350305542747349,
            "prePerformCfg": ""
          },
          "OOKANGCPHOK": 47
        },
        "177": {
          "$type": "GNNLMEOHCNA",
          "coopNodeId": 177,
          "coopNodeType": "COOP_NODE_TALK",
          "nextNodeArray": [
            392
          ],
          "talkConfig": {
            "id": 177,
            "performCfg": "QuestDialogue/COOP/Coop107401/Q1915902",
            "loadType": "TALK_COOP",
            "questId": 19159,
            "assetIndex": 4136405350496756613,
            "prePerformCfg": ""
          },
          "OOKANGCPHOK": 49
        },
        "392": {
          "$type": "GNNLMEOHCNA",
          "coopNodeId": 392,
          "coopNodeType": "COOP_NODE_TALK",
          "nextNodeArray": [
            393
          ],
          "talkConfig": {
            "id": 392,
            "performCfg": "QuestDialogue/COOP/Coop107401/Q1915910",
            "loadType": "TALK_COOP",
            "questId": 19159,
            "assetIndex": 4634787177142105294,
            "prePerformCfg": ""
          },
          "OOKANGCPHOK": 49
        },
        "393": {
          "$type": "KOKAKIKFOMH",
          "coopNodeId": 393,
          "coopNodeType": "COOP_NODE_ACTION",
          "nextNodeArray": [
            394
          ],
          "actionList": [
            {
              "actionType": "COOP_ACTION_CONFIDENCE_MINUS",
              "param": [
                2
              ]
            }
          ]
        },
        "394": {
          "$type": "GNNLMEOHCNA",
          "coopNodeId": 394,
          "coopNodeType": "COOP_NODE_TALK",
          "nextNodeArray": [
            395
          ],
          "talkConfig": {
            "id": 394,
            "performCfg": "QuestDialogue/COOP/Coop107401/Q1915911",
            "loadType": "TALK_COOP",
            "questId": 19159,
            "assetIndex": 13710040228023110787,
            "prePerformCfg": ""
          },
          "OOKANGCPHOK": 49
        },
        "395": {
          "$type": "KOKAKIKFOMH",
          "coopNodeId": 395,
          "coopNodeType": "COOP_NODE_ACTION",
          "nextNodeArray": [
            303
          ],
          "actionList": [
            {
              "actionType": "COOP_ACTION_CONFIDENCE_MINUS",
              "param": [
                1
              ]
            }
          ]
        },
        "303": {
          "$type": "GNNLMEOHCNA",
          "coopNodeId": 303,
          "coopNodeType": "COOP_NODE_TALK",
          "nextNodeArray": [
            401
          ],
          "talkConfig": {
            "id": 303,
            "performCfg": "QuestDialogue/COOP/Coop107401/Q1915905",
            "loadType": "TALK_COOP",
            "questId": 19159,
            "assetIndex": 10199614057892797704,
            "prePerformCfg": ""
          },
          "OOKANGCPHOK": 49
        },
        "401": {
          "$type": "ACIMPHCKHJB",
          "coopNodeId": 401,
          "coopNodeType": "COOP_NODE_COND",
          "nextNodeArray": [
            403,
            404
          ],
          "coopCondGrp": {
            "coopCondList": [
              {
                "KPGKDHAFHFE": "COOP_COND_CONFIDENCE_COMPARE",
                "param": [
                  1,
                  0
                ]
              }
            ]
          }
        },
        "403": {
          "$type": "KOKAKIKFOMH",
          "coopNodeId": 403,
          "coopNodeType": "COOP_NODE_ACTION",
          "nextNodeArray": [
            169
          ],
          "actionList": [
            {
              "actionType": "COOP_ACTION_TEMP_VALUE_SET",
              "param": [
                3,
                1
              ]
            }
          ]
        },
        "169": {
          "$type": "DCADCNINCPF",
          "coopNodeId": 169,
          "coopNodeType": "COOP_NODE_END",
          "savePointId": 191590201
        },
        "404": {
          "$type": "KOKAKIKFOMH",
          "coopNodeId": 404,
          "coopNodeType": "COOP_NODE_ACTION",
          "nextNodeArray": [
            169
          ],
          "actionList": [
            {
              "actionType": "COOP_ACTION_TEMP_VALUE_SET",
              "param": [
                3,
                0
              ]
            }
          ]
        },
        "181": {
          "$type": "GNNLMEOHCNA",
          "coopNodeId": 181,
          "coopNodeType": "COOP_NODE_TALK",
          "nextNodeArray": [
            321
          ],
          "talkConfig": {
            "id": 181,
            "performCfg": "QuestDialogue/COOP/Coop107401/Q1915903",
            "loadType": "TALK_COOP",
            "questId": 19159,
            "assetIndex": 5756746872090091999,
            "prePerformCfg": ""
          },
          "OOKANGCPHOK": 48
        },
        "321": {
          "$type": "ACIMPHCKHJB",
          "coopNodeId": 321,
          "coopNodeType": "COOP_NODE_COND",
          "nextNodeArray": [
            337,
            345
          ],
          "coopCondGrp": {
            "coopCondList": [
              {
                "KPGKDHAFHFE": "COOP_COND_CONFIDENCE_COMPARE",
                "param": [
                  1,
                  4
                ]
              }
            ]
          }
        },
        "337": {
          "$type": "GNNLMEOHCNA",
          "coopNodeId": 337,
          "coopNodeType": "COOP_NODE_TALK",
          "nextNodeArray": [
            323
          ],
          "talkConfig": {
            "id": 337,
            "performCfg": "QuestDialogue/COOP/Coop107401/Q1915909",
            "loadType": "TALK_COOP",
            "questId": 19159,
            "assetIndex": 7944436809711939961,
            "prePerformCfg": ""
          },
          "OOKANGCPHOK": 46
        },
        "323": {
          "$type": "KOKAKIKFOMH",
          "coopNodeId": 323,
          "coopNodeType": "COOP_NODE_ACTION",
          "nextNodeArray": [
            304
          ],
          "actionList": [
            {
              "actionType": "COOP_ACTION_CONFIDENCE_ADD",
              "param": [
                1
              ]
            }
          ]
        },
        "304": {
          "$type": "GNNLMEOHCNA",
          "coopNodeId": 304,
          "coopNodeType": "COOP_NODE_TALK",
          "nextNodeArray": [
            305
          ],
          "talkConfig": {
            "id": 304,
            "performCfg": "QuestDialogue/COOP/Coop107401/Q1915906",
            "loadType": "TALK_COOP",
            "questId": 19159,
            "assetIndex": 3198146921482984025,
            "prePerformCfg": ""
          },
          "OOKANGCPHOK": 46
        },
        "305": {
          "$type": "GNNLMEOHCNA",
          "coopNodeId": 305,
          "coopNodeType": "COOP_NODE_TALK",
          "nextNodeArray": [
            182
          ],
          "talkConfig": {
            "id": 305,
            "performCfg": "QuestDialogue/COOP/Coop107401/Q1915907",
            "loadType": "TALK_COOP",
            "questId": 19159,
            "assetIndex": 4543296326551070719,
            "prePerformCfg": ""
          },
          "OOKANGCPHOK": 46
        },
        "182": {
          "$type": "DCADCNINCPF",
          "coopNodeId": 182,
          "coopNodeType": "COOP_NODE_END",
          "savePointId": 191600201
        },
        "345": {
          "$type": "KOKAKIKFOMH",
          "coopNodeId": 345,
          "coopNodeType": "COOP_NODE_ACTION",
          "nextNodeArray": [
            392
          ],
          "actionList": [
            {
              "actionType": "COOP_ACTION_CONFIDENCE_ADD",
              "param": [
                1
              ]
            }
          ]
        },
        "302": {
          "$type": "GNNLMEOHCNA",
          "coopNodeId": 302,
          "coopNodeType": "COOP_NODE_TALK",
          "nextNodeArray": [
            405
          ],
          "talkConfig": {
            "id": 302,
            "performCfg": "QuestDialogue/COOP/Coop107401/Q1915904",
            "loadType": "TALK_COOP",
            "questId": 19159,
            "assetIndex": 13358283499818587709,
            "prePerformCfg": ""
          },
          "OOKANGCPHOK": 50
        },
        "405": {
          "$type": "ACIMPHCKHJB",
          "coopNodeId": 405,
          "coopNodeType": "COOP_NODE_COND",
          "nextNodeArray": [
            337,
            407
          ],
          "coopCondGrp": {
            "coopCondList": [
              {
                "KPGKDHAFHFE": "COOP_COND_CONFIDENCE_COMPARE",
                "param": [
                  1,
                  4
                ]
              }
            ]
          }
        },
        "407": {
          "$type": "KOKAKIKFOMH",
          "coopNodeId": 407,
          "coopNodeType": "COOP_NODE_ACTION",
          "nextNodeArray": [
            337
          ],
          "actionList": [
            {
              "actionType": "COOP_ACTION_CONFIDENCE_ADD",
              "param": [
                1
              ]
            }
          ]
        }
      },
      "startNodeId": 167,
      "PMOFDEGOCOL": true
    },
    "1916002": {
      "id": 1916002,
      "coopMap": {
        "172": {
          "$type": "GNNLMEOHCNA",
          "coopNodeId": 172,
          "coopNodeType": "COOP_NODE_TALK",
          "nextNodeArray": [
            174
          ],
          "talkConfig": {
            "id": 172,
            "performCfg": "QuestDialogue/COOP/Coop107401/Q1916001",
            "loadType": "TALK_COOP",
            "questId": 19160,
            "assetIndex": 17610567230747753490,
            "prePerformCfg": ""
          },
          "OOKANGCPHOK": 51
        },
        "174": {
          "$type": "DCADCNINCPF",
          "coopNodeId": 174,
          "coopNodeType": "COOP_NODE_END",
          "savePointId": 191600201
        }
      },
      "startNodeId": 172,
      "PMOFDEGOCOL": true
    },
    "1916102": {
      "id": 1916102,
      "coopMap": {
        "123": {
          "$type": "GNNLMEOHCNA",
          "coopNodeId": 123,
          "coopNodeType": "COOP_NODE_TALK",
          "nextNodeArray": [
            125
          ],
          "talkConfig": {
            "id": 123,
            "performCfg": "QuestDialogue/COOP/Coop107401/Q1916101",
            "loadType": "TALK_COOP",
            "questId": 19161,
            "assetIndex": 16445896437700372862,
            "prePerformCfg": "",
            "lockGameTime": true
          },
          "OOKANGCPHOK": 38
        },
        "125": {
          "$type": "DCADCNINCPF",
          "coopNodeId": 125,
          "coopNodeType": "COOP_NODE_END",
          "savePointId": 191610201
        }
      },
      "startNodeId": 123,
      "PMOFDEGOCOL": true
    },
    "1916106": {
      "id": 1916106,
      "coopMap": {
        "311": {
          "$type": "GNNLMEOHCNA",
          "coopNodeId": 311,
          "coopNodeType": "COOP_NODE_TALK",
          "nextNodeArray": [
            313
          ],
          "talkConfig": {
            "id": 311,
            "performCfg": "QuestDialogue/COOP/Coop107401/Q1916103",
            "loadType": "TALK_COOP",
            "questId": 19161,
            "assetIndex": 1191759923395747037,
            "prePerformCfg": ""
          },
          "OOKANGCPHOK": 57
        },
        "313": {
          "$type": "DCADCNINCPF",
          "coopNodeId": 313,
          "coopNodeType": "COOP_NODE_END",
          "savePointId": 191610601
        }
      },
      "startNodeId": 311,
      "PMOFDEGOCOL": true
    },
    "1916108": {
      "id": 1916108,
      "coopMap": {
        "128": {
          "$type": "GNNLMEOHCNA",
          "coopNodeId": 128,
          "coopNodeType": "COOP_NODE_TALK",
          "nextNodeArray": [
            341
          ],
          "talkConfig": {
            "id": 128,
            "performCfg": "QuestDialogue/COOP/Coop107401/Q1916102",
            "loadType": "TALK_COOP",
            "questId": 19161,
            "assetIndex": 16858842405056598729,
            "prePerformCfg": "",
            "enableCameraDisplacement": true,
            "lockGameTime": true
          },
          "OOKANGCPHOK": 39
        },
        "341": {
          "$type": "KOKAKIKFOMH",
          "coopNodeId": 341,
          "coopNodeType": "COOP_NODE_ACTION",
          "nextNodeArray": [
            375
          ],
          "actionList": [
            {
              "actionType": "COOP_ACTION_CONFIDENCE_MINUS",
              "param": [
                1
              ]
            }
          ]
        },
        "375": {
          "$type": "GNNLMEOHCNA",
          "coopNodeId": 375,
          "coopNodeType": "COOP_NODE_TALK",
          "nextNodeArray": [
            129
          ],
          "talkConfig": {
            "id": 375,
            "performCfg": "QuestDialogue/COOP/Coop107401/Q1916105",
            "loadType": "TALK_COOP",
            "questId": 19161,
            "assetIndex": 2558484702500370314,
            "prePerformCfg": "",
            "enableCameraDisplacement": true,
            "lockGameTime": true
          },
          "OOKANGCPHOK": 39
        },
        "129": {
          "$type": "DCADCNINCPF",
          "coopNodeId": 129,
          "coopNodeType": "COOP_NODE_END",
          "savePointId": 191610301
        },
        "342": {
          "$type": "DCADCNINCPF",
          "coopNodeId": 342,
          "coopNodeType": "COOP_NODE_END",
          "savePointId": 191610801
        }
      },
      "startNodeId": 128,
      "failNodeId": 342,
      "PMOFDEGOCOL": true
    },
    "1916202": {
      "id": 1916202,
      "coopMap": {
        "132": {
          "$type": "GNNLMEOHCNA",
          "coopNodeId": 132,
          "coopNodeType": "COOP_NODE_TALK",
          "nextNodeArray": [
            134
          ],
          "talkConfig": {
            "id": 132,
            "performCfg": "QuestDialogue/COOP/Coop107401/Q1916201",
            "loadType": "TALK_COOP",
            "questId": 19162,
            "assetIndex": 3996380594743627438,
            "prePerformCfg": "",
            "lockGameTime": true
          },
          "OOKANGCPHOK": 40
        },
        "134": {
          "$type": "DCADCNINCPF",
          "coopNodeId": 134,
          "coopNodeType": "COOP_NODE_END",
          "savePointId": 191620201
        }
      },
      "startNodeId": 132,
      "PMOFDEGOCOL": true
    },
    "1916204": {
      "id": 1916204,
      "coopMap": {
        "137": {
          "$type": "GNNLMEOHCNA",
          "coopNodeId": 137,
          "coopNodeType": "COOP_NODE_TALK",
          "nextNodeArray": [
            344
          ],
          "talkConfig": {
            "id": 137,
            "performCfg": "QuestDialogue/COOP/Coop107401/Q1916202",
            "loadType": "TALK_COOP",
            "questId": 19162,
            "assetIndex": 16609325193048441627,
            "prePerformCfg": "",
            "enableCameraDisplacement": true,
            "lockGameTime": true
          },
          "OOKANGCPHOK": 41
        },
        "344": {
          "$type": "KOKAKIKFOMH",
          "coopNodeId": 344,
          "coopNodeType": "COOP_NODE_ACTION",
          "nextNodeArray": [
            376
          ],
          "actionList": [
            {
              "actionType": "COOP_ACTION_CONFIDENCE_MINUS",
              "param": [
                1
              ]
            }
          ]
        },
        "376": {
          "$type": "GNNLMEOHCNA",
          "coopNodeId": 376,
          "coopNodeType": "COOP_NODE_TALK",
          "nextNodeArray": [
            138
          ],
          "talkConfig": {
            "id": 376,
            "performCfg": "QuestDialogue/COOP/Coop107401/Q1916204",
            "loadType": "TALK_COOP",
            "questId": 19162,
            "assetIndex": 14225198308602618893,
            "prePerformCfg": "",
            "enableCameraDisplacement": true,
            "lockGameTime": true
          },
          "OOKANGCPHOK": 41
        },
        "138": {
          "$type": "DCADCNINCPF",
          "coopNodeId": 138,
          "coopNodeType": "COOP_NODE_END",
          "savePointId": 191620301
        },
        "343": {
          "$type": "DCADCNINCPF",
          "coopNodeId": 343,
          "coopNodeType": "COOP_NODE_END",
          "savePointId": 191620401
        }
      },
      "startNodeId": 137,
      "failNodeId": 343,
      "PMOFDEGOCOL": true
    },
    "1916206": {
      "id": 1916206,
      "coopMap": {
        "141": {
          "$type": "GNNLMEOHCNA",
          "coopNodeId": 141,
          "coopNodeType": "COOP_NODE_TALK",
          "nextNodeArray": [
            379
          ],
          "talkConfig": {
            "id": 141,
            "performCfg": "QuestDialogue/COOP/Coop107401/Q1916203",
            "loadType": "TALK_COOP",
            "questId": 19162,
            "assetIndex": 4186727321086859642,
            "prePerformCfg": "",
            "lockGameTime": true
          },
          "OOKANGCPHOK": 42
        },
        "379": {
          "$type": "GNNLMEOHCNA",
          "coopNodeId": 379,
          "coopNodeType": "COOP_NODE_TALK",
          "nextNodeArray": [
            378
          ],
          "talkConfig": {
            "id": 379,
            "performCfg": "QuestDialogue/COOP/Coop107401/Q1916205",
            "loadType": "TALK_COOP",
            "questId": 19162,
            "assetIndex": 11053924715895542482,
            "prePerformCfg": "",
            "lockGameTime": true
          },
          "OOKANGCPHOK": 42
        },
        "378": {
          "$type": "KOKAKIKFOMH",
          "coopNodeId": 378,
          "coopNodeType": "COOP_NODE_ACTION",
          "nextNodeArray": [
            396
          ],
          "actionList": [
            {
              "actionType": "COOP_ACTION_CONFIDENCE_MINUS",
              "param": [
                1
              ]
            }
          ]
        },
        "396": {
          "$type": "GNNLMEOHCNA",
          "coopNodeId": 396,
          "coopNodeType": "COOP_NODE_TALK",
          "nextNodeArray": [
            143
          ],
          "talkConfig": {
            "id": 396,
            "performCfg": "QuestDialogue/COOP/Coop107401/Q1916206",
            "loadType": "TALK_COOP",
            "questId": 19162,
            "assetIndex": 12854008989453720104,
            "prePerformCfg": "",
            "lockGameTime": true
          },
          "OOKANGCPHOK": 42
        },
        "143": {
          "$type": "DCADCNINCPF",
          "coopNodeId": 143,
          "coopNodeType": "COOP_NODE_END",
          "savePointId": 191620601
        },
        "377": {
          "$type": "DCADCNINCPF",
          "coopNodeId": 377,
          "coopNodeType": "COOP_NODE_END",
          "savePointId": 191620602
        }
      },
      "startNodeId": 141,
      "failNodeId": 377,
      "PMOFDEGOCOL": true
    }
  },
  "subStartPointMap": {
    "1915002": {
      "id": 1915002,
      "coopInteractionId": 1915002
    },
    "1915101": {
      "id": 1915101,
      "coopInteractionId": 1915101
    },
    "1915103": {
      "id": 1915103,
      "coopInteractionId": 1915103
    },
    "1915201": {
      "id": 1915201,
      "coopInteractionId": 1915201
    },
    "1915202": {
      "id": 1915202,
      "coopInteractionId": 1915202
    },
    "1915203": {
      "id": 1915203,
      "coopInteractionId": 1915203
    },
    "1915302": {
      "id": 1915302,
      "coopInteractionId": 1915302
    },
    "1915306": {
      "id": 1915306,
      "coopInteractionId": 1915306
    },
    "1915402": {
      "id": 1915402,
      "coopInteractionId": 1915402
    },
    "1915403": {
      "id": 1915403,
      "coopInteractionId": 1915403
    },
    "1915404": {
      "id": 1915404,
      "coopInteractionId": 1915404
    },
    "1915405": {
      "id": 1915405,
      "coopInteractionId": 1915405
    },
    "1915406": {
      "id": 1915406,
      "coopInteractionId": 1915406
    },
    "1915502": {
      "id": 1915502,
      "coopInteractionId": 1915502
    },
    "1915504": {
      "id": 1915504,
      "coopInteractionId": 1915504
    },
    "1915602": {
      "id": 1915602,
      "coopInteractionId": 1915602
    },
    "1915606": {
      "id": 1915606,
      "coopInteractionId": 1915606
    },
    "1915702": {
      "id": 1915702,
      "coopInteractionId": 1915702
    },
    "1915801": {
      "id": 1915801,
      "coopInteractionId": 1915801
    },
    "1915802": {
      "id": 1915802,
      "coopInteractionId": 1915802
    },
    "1915902": {
      "id": 1915902,
      "coopInteractionId": 1915902
    },
    "1916002": {
      "id": 1916002,
      "coopInteractionId": 1916002
    },
    "1916102": {
      "id": 1916102,
      "coopInteractionId": 1916102
    },
    "1916106": {
      "id": 1916106,
      "coopInteractionId": 1916106
    },
    "1916108": {
      "id": 1916108,
      "coopInteractionId": 1916108
    },
    "1916202": {
      "id": 1916202,
      "coopInteractionId": 1916202
    },
    "1916204": {
      "id": 1916204,
      "coopInteractionId": 1916204
    },
    "1916206": {
      "id": 1916206,
      "coopInteractionId": 1916206
    }
  },
  "savePointMap": {
    "191500201": {
      "id": 191500201
    },
    "191500202": {
      "id": 191500202
    },
    "191510101": {
      "id": 191510101
    },
    "191510301": {
      "id": 191510301
    },
    "191510302": {
      "id": 191510302
    },
    "191510303": {
      "id": 191510303
    },
    "191520101": {
      "id": 191520101
    },
    "191520201": {
      "id": 191520201
    },
    "191520301": {
      "id": 191520301
    },
    "191530201": {
      "id": 191530201
    },
    "191530601": {
      "id": 191530601,
      "isEnd": true
    },
    "191530602": {
      "id": 191530602
    },
    "191540201": {
      "id": 191540201
    },
    "191540301": {
      "id": 191540301
    },
    "191540401": {
      "id": 191540401
    },
    "191540501": {
      "id": 191540501
    },
    "191540601": {
      "id": 191540601
    },
    "191540602": {
      "id": 191540602
    },
    "191550201": {
      "id": 191550201
    },
    "191550401": {
      "id": 191550401,
      "isEnd": true
    },
    "191550402": {
      "id": 191550402
    },
    "191560201": {
      "id": 191560201
    },
    "191560601": {
      "id": 191560601,
      "isEnd": true
    },
    "191560602": {
      "id": 191560602
    },
    "191570201": {
      "id": 191570201
    },
    "191570202": {
      "id": 191570202
    },
    "191580101": {
      "id": 191580101
    },
    "191580201": {
      "id": 191580201
    },
    "191580202": {
      "id": 191580202
    },
    "191590201": {
      "id": 191590201,
      "isEnd": true,
      "isEndSaveData": true
    },
    "191600201": {
      "id": 191600201,
      "isEnd": true
    },
    "191610201": {
      "id": 191610201
    },
    "191610601": {
      "id": 191610601
    },
    "191610301": {
      "id": 191610301
    },
    "191610801": {
      "id": 191610801
    },
    "191620201": {
      "id": 191620201
    },
    "191620301": {
      "id": 191620301
    },
    "191620401": {
      "id": 191620401
    },
    "191620601": {
      "id": 191620601,
      "isEnd": true
    },
    "191620602": {
      "id": 191620602
    }
  },
  "confidenceValue": 1,
  "maxConfidenceValue": 5,
  "temperamentMap": {
    "COOP_TEMPERAMENT_1": {
      "value": 50,
      "ratio": 1.0
    },
    "COOP_TEMPERAMENT_2": {
      "value": 50,
      "ratio": 1.0
    },
    "COOP_TEMPERAMENT_3": {
      "value": 50,
      "ratio": 1.0
    },
    "COOP_TEMPERAMENT_4": {
      "value": 50,
      "ratio": 1.0
    }
  },
  "useTemperament": false,
  "coopTempValueMap": {
    "3": {
      "id": 3,
      "isCoopVar": true
    }
  },
  "closeAutoFail": true,
  "PMOFDEGOCOL": true
}