{
  "freeStyleStateMap": {
    "10100": [],
    "10101": [],
    "10201": [],
    "10301": [],
    "10401": [],
    "10501": [],
    "10601": [],
    "10701": [],
    "10801": [],
    "1231": [
      "Ani_Avatar_NPC_AkimboHand01BS_0",
      "Ani_Avatar_NPC_AkimboHand01BS_Sync_0",
      "Ani_Avatar_NPC_AkimboHand01Loop_0",
      "Ani_Avatar_NPC_AkimboHand01Loop_Sync_0",
      "Ani_Avatar_NPC_AkimboHand01AS_0",
      "Ani_Avatar_NPC_AkimboHand01AS_Sync_0",
      "Ani_Avatar_NPC_Akimbo01Loop_0",
      "Ani_Avatar_NPC_Akimbo01Loop_Sync_0",
      "Ani_Avatar_NPC_Akimbo01AS_0",
      "Ani_Avatar_NPC_Akimbo01AS_Sync_0"
    ],
    "1121": [
      "Ani_Avatar_NPC_HoldArmHand01BS_0",
      "Ani_Avatar_NPC_HoldArmHand01BS_Sync_0",
      "Ani_Avatar_NPC_HoldArmHand01Loop_0",
      "Ani_Avatar_NPC_HoldArmHand01Loop_Sync_0",
      "Ani_Avatar_NPC_HoldArmHand01AS_0",
      "Ani_Avatar_NPC_HoldArmHand01AS_Sync_0",
      "Ani_Avatar_NPC_HoldArm01Loop_0",
      "Ani_Avatar_NPC_HoldArm01Loop_Sync_0",
      "Ani_Avatar_NPC_HoldArm01AS_0",
      "Ani_Avatar_NPC_HoldArm01AS_Sync_0"
    ],
    "1191": [
      "Ani_Avatar_NPC_ThinkHand01BS_0",
      "Ani_Avatar_NPC_ThinkHand01BS_Sync_0",
      "Ani_Avatar_NPC_ThinkHand01Loop_0",
      "Ani_Avatar_NPC_ThinkHand01Loop_Sync_0",
      "Ani_Avatar_NPC_ThinkHand01AS_0",
      "Ani_Avatar_NPC_ThinkHand01AS_Sync_0",
      "Ani_Avatar_NPC_Think01Loop_0",
      "Ani_Avatar_NPC_Think01Loop_Sync_0",
      "Ani_Avatar_NPC_Think01AS_0",
      "Ani_Avatar_NPC_Think01AS_Sync_0"
    ],
    "1221": [
      "Ani_Avatar_NPC_AkimboHand02BS_0",
      "Ani_Avatar_NPC_AkimboHand02BS_Sync_0",
      "Ani_Avatar_NPC_AkimboHand02Loop_0",
      "Ani_Avatar_NPC_AkimboHand02Loop_Sync_0",
      "Ani_Avatar_NPC_AkimboHand02AS_0",
      "Ani_Avatar_NPC_AkimboHand02AS_Sync_0",
      "Ani_Avatar_NPC_Akimbo02Loop_0",
      "Ani_Avatar_NPC_Akimbo02Loop_Sync_0",
      "Ani_Avatar_NPC_Akimbo02AS_0",
      "Ani_Avatar_NPC_Akimbo02AS_Sync_0"
    ],
    "8040": [
      "Ani_Avatar_NPC_SitHoldArm01BS_0",
      "Ani_Avatar_NPC_SitHoldArm01BS_Sync_0",
      "Ani_Avatar_NPC_SitHoldArm01Loop_0",
      "Ani_Avatar_NPC_SitHoldArm01Loop_Sync_0",
      "Ani_Avatar_NPC_SitHoldArm01AS_0",
      "Ani_Avatar_NPC_SitHoldArm01AS_Sync_0"
    ],
    "8011": [
      "Ani_Avatar_NPC_SitChat01BS_0",
      "Ani_Avatar_NPC_SitChat01BS_Sync_0",
      "Ani_Avatar_NPC_SitChat01Loop_0",
      "Ani_Avatar_NPC_SitChat01Loop_Sync_0",
      "Ani_Avatar_NPC_SitChat01AS_0",
      "Ani_Avatar_NPC_SitChat01AS_Sync_0"
    ],
    "8041": [
      "Ani_Avatar_NPC_SitHoldArmHand01BS_0",
      "Ani_Avatar_NPC_SitHoldArmHand01Loop_0",
      "Ani_Avatar_NPC_SitHoldArmHand01AS_0",
      "Ani_Avatar_NPC_SitHoldArm01Loop_0",
      "Ani_Avatar_NPC_SitHoldArm01Loop_Sync_0",
      "Ani_Avatar_NPC_SitHoldArm01AS_0",
      "Ani_Avatar_NPC_SitHoldArm01AS_Sync_0"
    ],
    "1230": [
      "Ani_Avatar_NPC_Akimbo01BS_0",
      "Ani_Avatar_NPC_Akimbo01BS_Sync_0",
      "Ani_Avatar_NPC_Akimbo01Loop_0",
      "Ani_Avatar_NPC_Akimbo01Loop_Sync_0",
      "Ani_Avatar_NPC_Akimbo01AS_0",
      "Ani_Avatar_NPC_Akimbo01AS_Sync_0"
    ],
    "1040": [
      "Ani_Avatar_NPC_Backrake01BS_0",
      "Ani_Avatar_NPC_Backrake01BS_Sync_0",
      "Ani_Avatar_NPC_Backrake01Loop_0",
      "Ani_Avatar_NPC_Backrake01Loop_Sync_0",
      "Ani_Avatar_NPC_Backrake01AS_0",
      "Ani_Avatar_NPC_Backrake01AS_Sync_0"
    ],
    "1050": [
      "Ani_Avatar_NPC_Confuse01BS_0",
      "Ani_Avatar_NPC_Confuse01BS_Sync_0",
      "Ani_Avatar_NPC_Confuse01Loop_0",
      "Ani_Avatar_NPC_Confuse01Loop_Sync_0",
      "Ani_Avatar_NPC_Confuse01AS_0",
      "Ani_Avatar_NPC_Confuse01AS_Sync_0"
    ],
    "1060": [
      "Ani_Avatar_NPC_Forerake01BS_0",
      "Ani_Avatar_NPC_Forerake01BS_Sync_0",
      "Ani_Avatar_NPC_Forerake01Loop_0",
      "Ani_Avatar_NPC_Forerake01Loop_Sync_0",
      "Ani_Avatar_NPC_Forerake01AS_0",
      "Ani_Avatar_NPC_Forerake01AS_Sync_0"
    ],
    "1070": [
      "Ani_Avatar_NPC_Afraid01BS_0",
      "Ani_Avatar_NPC_Afraid01Loop_0",
      "Ani_Avatar_NPC_Afraid01AS_0"
    ],
    "1080": [
      "Ani_Avatar_NPC_Alert01BS_0",
      "Ani_Avatar_NPC_Alert01BS_Sync_0",
      "Ani_Avatar_NPC_Alert01Loop_0",
      "Ani_Avatar_NPC_Alert01Loop_Sync_0",
      "Ani_Avatar_NPC_Alert01AS_0",
      "Ani_Avatar_NPC_Alert01AS_Sync_0"
    ],
    "1090": [
      "Ani_Avatar_NPC_Shy01BS_0",
      "Ani_Avatar_NPC_Shy01BS_Sync_0",
      "Ani_Avatar_NPC_Shy01Loop_0",
      "Ani_Avatar_NPC_Shy01Loop_Sync_0",
      "Ani_Avatar_NPC_Shy01AS_0",
      "Ani_Avatar_NPC_Shy01AS_Sync_0"
    ],
    "1110": [
      "Ani_Avatar_NPC_Shrug01BS_0",
      "Ani_Avatar_NPC_Shrug01BS_Sync_0",
      "Ani_Avatar_NPC_Shrug01Loop_0",
      "Ani_Avatar_NPC_Shrug01Loop_Sync_0",
      "Ani_Avatar_NPC_Shrug01AS_0",
      "Ani_Avatar_NPC_Shrug01AS_Sync_0"
    ],
    "1120": [
      "Ani_Avatar_NPC_HoldArm01BS_0",
      "Ani_Avatar_NPC_HoldArm01BS_Sync_0",
      "Ani_Avatar_NPC_HoldArm01Loop_0",
      "Ani_Avatar_NPC_HoldArm01Loop_Sync_0",
      "Ani_Avatar_NPC_HoldArm01AS_0",
      "Ani_Avatar_NPC_HoldArm01AS_Sync_0"
    ],
    "1130": [
      "Ani_Avatar_NPC_StrikeChest01BS_0",
      "Ani_Avatar_NPC_StrikeChest01BS_Sync_0",
      "Ani_Avatar_NPC_StrikeChest01Loop_0",
      "Ani_Avatar_NPC_StrikeChest01Loop_Sync_0",
      "Ani_Avatar_NPC_StrikeChest01AS_0",
      "Ani_Avatar_NPC_StrikeChest01AS_Sync_0"
    ],
    "1150": [
      "Ani_Avatar_NPC_Refuse01_0",
      "Ani_Avatar_NPC_Refuse01_Sync_0"
    ],
    "1160": [
      "Ani_Avatar_NPC_Downcast01BS_0",
      "Ani_Avatar_NPC_Downcast01BS_Sync_0",
      "Ani_Avatar_NPC_Downcast01Loop_0",
      "Ani_Avatar_NPC_Downcast01Loop_Sync_0",
      "Ani_Avatar_NPC_Downcast01AS_0",
      "Ani_Avatar_NPC_Downcast01AS_Sync_0"
    ],
    "1170": [
      "Ani_Avatar_NPC_Chat01BS_0",
      "Ani_Avatar_NPC_Chat01BS_Sync_0",
      "Ani_Avatar_NPC_Chat01Loop_0",
      "Ani_Avatar_NPC_Chat01Loop_Sync_0",
      "Ani_Avatar_NPC_Chat01AS_0",
      "Ani_Avatar_NPC_Chat01AS_Sync_0"
    ],
    "1180": [
      "Ani_Avatar_NPC_Chat02BS_0",
      "Ani_Avatar_NPC_Chat02BS_Sync_0",
      "Ani_Avatar_NPC_Chat02Loop_0",
      "Ani_Avatar_NPC_Chat02Loop_Sync_0",
      "Ani_Avatar_NPC_Chat02AS_0",
      "Ani_Avatar_NPC_Chat02AS_Sync_0"
    ],
    "1190": [
      "Ani_Avatar_NPC_Think01BS_0",
      "Ani_Avatar_NPC_Think01BS_Sync_0",
      "Ani_Avatar_NPC_Think01Loop_0",
      "Ani_Avatar_NPC_Think01Loop_Sync_0",
      "Ani_Avatar_NPC_Think01AS_0",
      "Ani_Avatar_NPC_Think01AS_Sync_0"
    ],
    "9030": [],
    "9040": [],
    "1140": [
      "Ani_Avatar_NPC_PointR01BS_0",
      "Ani_Avatar_NPC_PointR01Loop_0",
      "Ani_Avatar_NPC_PointR01AS_0"
    ],
    "1210": [
      "Ani_Avatar_NPC_SaluteMengde01BS_0",
      "Ani_Avatar_NPC_SaluteMengde01Loop_0",
      "Ani_Avatar_NPC_SaluteMengde01AS_0"
    ],
    "1200": [
      "Ani_Avatar_NPC_Greet01_0",
      "Ani_Avatar_NPC_Greet01_Sync_0"
    ],
    "1240": [
      "Ani_Avatar_NPC_HoldHead01BS_0",
      "Ani_Avatar_NPC_HoldHead01BS_Sync_0",
      "Ani_Avatar_NPC_HoldHead01Loop_0",
      "Ani_Avatar_NPC_HoldHead01Loop_Sync_0",
      "Ani_Avatar_NPC_HoldHead01AS_0",
      "Ani_Avatar_NPC_HoldHead01AS_Sync_0"
    ],
    "1030": [
      "Ani_Avatar_NPC_PutHand01BS_0",
      "Ani_Avatar_NPC_PutHand01BS_Sync_0",
      "Ani_Avatar_NPC_PutHand01Loop_0",
      "Ani_Avatar_NPC_PutHand01Loop_Sync_0",
      "Ani_Avatar_NPC_PutHand01AS_0",
      "Ani_Avatar_NPC_PutHand01AS_Sync_0"
    ],
    "1220": [
      "Ani_Avatar_NPC_Akimbo02BS_0",
      "Ani_Avatar_NPC_Akimbo02BS_Sync_0",
      "Ani_Avatar_NPC_Akimbo02Loop_0",
      "Ani_Avatar_NPC_Akimbo02Loop_Sync_0",
      "Ani_Avatar_NPC_Akimbo02AS_0",
      "Ani_Avatar_NPC_Akimbo02AS_Sync_0"
    ],
    "8010": [],
    "8020": [],
    "1142": [
      "Ani_Avatar_NPC_PointL01BS_0",
      "Ani_Avatar_NPC_PointL01Loop_0",
      "Ani_Avatar_NPC_PointL01AS_0"
    ],
    "1141": [
      "Ani_Avatar_NPC_PointF01BS_0",
      "Ani_Avatar_NPC_PointF01Loop_0",
      "Ani_Avatar_NPC_PointF01AS_0"
    ],
    "1171": [
      "Ani_Avatar_NPC_Talk01_0",
      "Ani_Avatar_NPC_Talk01_Sync_0"
    ],
    "1172": [
      "Ani_Avatar_NPC_Talk02_0",
      "Ani_Avatar_NPC_Talk02_Sync_0"
    ],
    "1173": [
      "Ani_Avatar_NPC_Talk03_0",
      "Ani_Avatar_NPC_Talk03_Sync_0"
    ],
    "1250": [
      "Ani_Avatar_NPC_Request01BS_0",
      "Ani_Avatar_NPC_Request01Loop_0",
      "Ani_Avatar_NPC_Request01AS_0"
    ],
    "1260": [
      "Ani_Avatar_NPC_Clap01_0"
    ],
    "1270": [
      "Ani_Avatar_NPC_Cheer01BS_0",
      "Ani_Avatar_NPC_Cheer01Loop_0",
      "Ani_Avatar_NPC_Cheer01AS_0"
    ],
    "1280": [
      "Ani_Avatar_NPC_Investigate01BS_0",
      "Ani_Avatar_NPC_Investigate01BS_Sync_0",
      "Ani_Avatar_NPC_Investigate01Loop_0",
      "Ani_Avatar_NPC_Investigate01Loop_Sync_0",
      "Ani_Avatar_NPC_Investigate01AS_0",
      "Ani_Avatar_NPC_Investigate01AS_Sync_0"
    ],
    "1290": [
      "Ani_Avatar_NPC_Laugh01_0",
      "Ani_Avatar_NPC_Laugh01_Sync_0"
    ],
    "1300": [
      "Ani_Avatar_NPC_Encourage01_0",
      "Ani_Avatar_NPC_Encourage01_Sync_0"
    ],
    "1310": [
      "Ani_Avatar_NPC_Dusting01_0"
    ],
    "1340": [
      "Ani_Avatar_Catalyst_Show_01_0",
      "Ani_Avatar_Catalyst_Show_01_Sync_0"
    ],
    "134001": [
      "Ani_Avatar_Catalyst_Show_01_0",
      "Ani_Avatar_Catalyst_Show_01_Sync_0"
    ]
  },
  "stateAnimeMap": {
    "Ani_Avatar_NPC_Akimbo01BS_0": 12002732006589543497,
    "Ani_Avatar_NPC_Akimbo01BS_Sync_0": 7262803831352845980,
    "Ani_Avatar_NPC_Backrake01BS_0": 12304312941631364880,
    "Ani_Avatar_NPC_Backrake01BS_Sync_0": 1678126934597223488,
    "Ani_Avatar_NPC_Confuse01BS_0": 3139081683793024625,
    "Ani_Avatar_NPC_Confuse01BS_Sync_0": 13548086040270858015,
    "Ani_Avatar_NPC_Forerake01BS_0": 15489957333636784756,
    "Ani_Avatar_NPC_Forerake01BS_Sync_0": 499663027691635940,
    "Ani_Avatar_NPC_Afraid01BS_0": 12118280073056191585,
    "Ani_Avatar_NPC_Alert01BS_0": 6218644576028995025,
    "Ani_Avatar_NPC_Alert01BS_Sync_0": 1950165198887029209,
    "Ani_Avatar_NPC_Shy01BS_0": 10475580930823327634,
    "Ani_Avatar_NPC_Shy01BS_Sync_0": 17220921830776001938,
    "Ani_Avatar_NPC_Shrug01BS_0": 2344160388602314054,
    "Ani_Avatar_NPC_Shrug01BS_Sync_0": 12227283267778291355,
    "Ani_Avatar_NPC_HoldArm01BS_0": 14454480652233980313,
    "Ani_Avatar_NPC_HoldArm01BS_Sync_0": 11071019818902437714,
    "Ani_Avatar_NPC_StrikeChest01BS_0": 2199181609597335826,
    "Ani_Avatar_NPC_StrikeChest01BS_Sync_0": 3345701837966217100,
    "Ani_Avatar_NPC_Refuse01_0": 13212186097833847035,
    "Ani_Avatar_NPC_Refuse01_Sync_0": 1740665409644158842,
    "Ani_Avatar_NPC_Akimbo01Loop_0": 5876594105244376747,
    "Ani_Avatar_NPC_Akimbo01Loop_Sync_0": 16535628545044116901,
    "Ani_Avatar_NPC_Akimbo01AS_0": 17515976922844950932,
    "Ani_Avatar_NPC_Akimbo01AS_Sync_0": 8289239210619009049,
    "Ani_Avatar_NPC_Backrake01Loop_0": 6937731160617886434,
    "Ani_Avatar_NPC_Backrake01Loop_Sync_0": 8079243806190584194,
    "Ani_Avatar_NPC_Backrake01AS_0": 6062109248297129891,
    "Ani_Avatar_NPC_Backrake01AS_Sync_0": 3882659347426807961,
    "Ani_Avatar_NPC_Confuse01Loop_0": 15757847635688408548,
    "Ani_Avatar_NPC_Confuse01Loop_Sync_0": 14522531637891039006,
    "Ani_Avatar_NPC_Confuse01AS_0": 10125542119570611131,
    "Ani_Avatar_NPC_Confuse01AS_Sync_0": 11882371575538494169,
    "Ani_Avatar_NPC_Forerake01Loop_0": 8170168353111961343,
    "Ani_Avatar_NPC_Forerake01Loop_Sync_0": 176639072268206100,
    "Ani_Avatar_NPC_Forerake01AS_0": 8527096408826045181,
    "Ani_Avatar_NPC_Forerake01AS_Sync_0": 15112760297041078043,
    "Ani_Avatar_NPC_Afraid01Loop_0": 15632757109642416464,
    "Ani_Avatar_NPC_Afraid01AS_0": 16878525226519596410,
    "Ani_Avatar_NPC_Alert01Loop_0": 16238299689047756731,
    "Ani_Avatar_NPC_Alert01Loop_Sync_0": 4760416427677337193,
    "Ani_Avatar_NPC_Alert01AS_0": 7006777614685145405,
    "Ani_Avatar_NPC_Alert01AS_Sync_0": 7775103853332340677,
    "Ani_Avatar_NPC_Shy01Loop_0": 13293611592878795963,
    "Ani_Avatar_NPC_Shy01Loop_Sync_0": 11908328008486164938,
    "Ani_Avatar_NPC_Shy01AS_0": 3140275080341386018,
    "Ani_Avatar_NPC_Shy01AS_Sync_0": 11816454055144638363,
    "Ani_Avatar_NPC_Shrug01Loop_0": 12914892828708297928,
    "Ani_Avatar_NPC_Shrug01Loop_Sync_0": 1843969049132917115,
    "Ani_Avatar_NPC_Shrug01AS_0": 5795392761848685567,
    "Ani_Avatar_NPC_Shrug01AS_Sync_0": 9833953186664837752,
    "Ani_Avatar_NPC_HoldArm01Loop_0": 2712784722907725023,
    "Ani_Avatar_NPC_HoldArm01Loop_Sync_0": 14816176572208829864,
    "Ani_Avatar_NPC_HoldArm01AS_0": 14956858484718116242,
    "Ani_Avatar_NPC_HoldArm01AS_Sync_0": 16355817020810300615,
    "Ani_Avatar_NPC_StrikeChest01Loop_0": 12289133401867920319,
    "Ani_Avatar_NPC_StrikeChest01Loop_Sync_0": 8527221988549361813,
    "Ani_Avatar_NPC_StrikeChest01AS_0": 15082139529621809394,
    "Ani_Avatar_NPC_StrikeChest01AS_Sync_0": 4445471586750452416,
    "Ani_Avatar_NPC_Downcast01BS_0": 16972052261006187983,
    "Ani_Avatar_NPC_Downcast01BS_Sync_0": 5383657247201298424,
    "Ani_Avatar_NPC_Chat01BS_0": 12334278457379334854,
    "Ani_Avatar_NPC_Chat01BS_Sync_0": 13991717588436096565,
    "Ani_Avatar_NPC_Chat02BS_0": 5822508329159035797,
    "Ani_Avatar_NPC_Chat02BS_Sync_0": 10755157708158046550,
    "Ani_Avatar_NPC_Think01BS_0": 13723847955209670272,
    "Ani_Avatar_NPC_Think01BS_Sync_0": 7506754615631772199,
    "Ani_Avatar_NPC_Downcast01AS_0": 2318526436723880692,
    "Ani_Avatar_NPC_Downcast01AS_Sync_0": 2307360969860090691,
    "Ani_Avatar_NPC_Downcast01Loop_0": 13654891879356656175,
    "Ani_Avatar_NPC_Downcast01Loop_Sync_0": 1463499274801909437,
    "Ani_Avatar_NPC_Chat01Loop_0": 13955028106685023541,
    "Ani_Avatar_NPC_Chat01Loop_Sync_0": 10615278756991412880,
    "Ani_Avatar_NPC_Chat01AS_0": 8373659355821280247,
    "Ani_Avatar_NPC_Chat01AS_Sync_0": 14438993664721846990,
    "Ani_Avatar_NPC_Chat02AS_0": 10289732853286531923,
    "Ani_Avatar_NPC_Chat02AS_Sync_0": 278712254664109604,
    "Ani_Avatar_NPC_Chat02Loop_0": 13499657539522866334,
    "Ani_Avatar_NPC_Chat02Loop_Sync_0": 14968249276576698868,
    "Ani_Avatar_NPC_Think01Loop_0": 5147551597555091732,
    "Ani_Avatar_NPC_Think01Loop_Sync_0": 14279688270127728257,
    "Ani_Avatar_NPC_Think01AS_0": 1840744184921628751,
    "Ani_Avatar_NPC_Think01AS_Sync_0": 4351925118192486018,
    "Ani_Avatar_NPC_PointR01BS_0": 10887847079340830859,
    "Ani_Avatar_NPC_PointR01Loop_0": 9395754805933613668,
    "Ani_Avatar_NPC_PointR01AS_0": 8726068157042884252,
    "Ani_Avatar_NPC_AkimboHand01Loop_0": 1231815773482736845,
    "Ani_Avatar_NPC_AkimboHand01Loop_Sync_0": 8011519600741660396,
    "Ani_Avatar_NPC_HoldArmHand01Loop_0": 18218276883247647089,
    "Ani_Avatar_NPC_HoldArmHand01Loop_Sync_0": 15788307501662623766,
    "Ani_Avatar_NPC_ThinkHand01Loop_0": 13535106672637416471,
    "Ani_Avatar_NPC_ThinkHand01Loop_Sync_0": 13918609312969300135,
    "Ani_Avatar_NPC_AkimboHand01BS_0": 16610762320734700397,
    "Ani_Avatar_NPC_AkimboHand01BS_Sync_0": 8420805502403463515,
    "Ani_Avatar_NPC_AkimboHand01AS_0": 13056383738308938672,
    "Ani_Avatar_NPC_AkimboHand01AS_Sync_0": 12132607474996562267,
    "Ani_Avatar_NPC_HoldArmHand01BS_0": 6817790876420330362,
    "Ani_Avatar_NPC_HoldArmHand01BS_Sync_0": 10863854624950212904,
    "Ani_Avatar_NPC_HoldArmHand01AS_0": 3377678925020103837,
    "Ani_Avatar_NPC_HoldArmHand01AS_Sync_0": 9951739166096958242,
    "Ani_Avatar_NPC_ThinkHand01BS_0": 3924216980230896905,
    "Ani_Avatar_NPC_ThinkHand01BS_Sync_0": 12661898079402147068,
    "Ani_Avatar_NPC_ThinkHand01AS_0": 9966080335549816475,
    "Ani_Avatar_NPC_ThinkHand01AS_Sync_0": 9750901343326770452,
    "Ani_Avatar_NPC_SaluteMengde01BS_0": 6948710577134158709,
    "Ani_Avatar_NPC_Greet01_0": 4807574160995883665,
    "Ani_Avatar_NPC_Greet01_Sync_0": 5026539195121098560,
    "Ani_Avatar_NPC_HoldHead01BS_0": 3172197871657557207,
    "Ani_Avatar_NPC_HoldHead01BS_Sync_0": 15739576110478161327,
    "Ani_Avatar_NPC_HoldHead01Loop_0": 15134216858968829851,
    "Ani_Avatar_NPC_HoldHead01Loop_Sync_0": 11887333864850808375,
    "Ani_Avatar_NPC_HoldHead01AS_0": 511842456851281478,
    "Ani_Avatar_NPC_HoldHead01AS_Sync_0": 14287461094508000371,
    "Ani_Avatar_NPC_PutHand01BS_0": 15504407369039152460,
    "Ani_Avatar_NPC_PutHand01BS_Sync_0": 16263451177078536100,
    "Ani_Avatar_NPC_PutHand01Loop_0": 4643790343390901058,
    "Ani_Avatar_NPC_PutHand01Loop_Sync_0": 12519710964503042041,
    "Ani_Avatar_NPC_PutHand01AS_0": 13645449391005338112,
    "Ani_Avatar_NPC_PutHand01AS_Sync_0": 12966625785974262349,
    "Ani_Avatar_NPC_Akimbo02BS_0": 13596782976026310736,
    "Ani_Avatar_NPC_Akimbo02BS_Sync_0": 7226300818408204620,
    "Ani_Avatar_NPC_Akimbo02Loop_0": 5337688734592544898,
    "Ani_Avatar_NPC_Akimbo02Loop_Sync_0": 14541837001841993174,
    "Ani_Avatar_NPC_Akimbo02AS_0": 7851888299767128152,
    "Ani_Avatar_NPC_Akimbo02AS_Sync_0": 16015546862565474239,
    "Ani_Avatar_NPC_AkimboHand02Loop_0": 605139762964384541,
    "Ani_Avatar_NPC_AkimboHand02Loop_Sync_0": 6070073735821227656,
    "Ani_Avatar_NPC_AkimboHand02BS_0": 8526227671876100202,
    "Ani_Avatar_NPC_AkimboHand02BS_Sync_0": 3288853461604338927,
    "Ani_Avatar_NPC_AkimboHand02AS_0": 16924208477815429150,
    "Ani_Avatar_NPC_AkimboHand02AS_Sync_0": 17766187407952288557,
    "Ani_Avatar_NPC_SaluteMengde01Loop_0": 15575800236833985210,
    "Ani_Avatar_NPC_SaluteMengde01AS_0": 572634571619495982,
    "Ani_Avatar_NPC_PointF01BS_0": 2402652337658281069,
    "Ani_Avatar_NPC_PointF01Loop_0": 15383296661743566963,
    "Ani_Avatar_NPC_PointF01AS_0": 17534256406230126150,
    "Ani_Avatar_NPC_PointL01BS_0": 10973455785460576960,
    "Ani_Avatar_NPC_PointL01Loop_0": 13955063712576629916,
    "Ani_Avatar_NPC_PointL01AS_0": 830780926405855241,
    "Ani_Avatar_NPC_Talk01_0": 2607898709680240281,
    "Ani_Avatar_NPC_Talk01_Sync_0": 7852613884623221722,
    "Ani_Avatar_NPC_Talk02_0": 12203867269152116789,
    "Ani_Avatar_NPC_Talk02_Sync_0": 5677877983965255334,
    "Ani_Avatar_NPC_Talk03_0": 9549065577555540971,
    "Ani_Avatar_NPC_Talk03_Sync_0": 3845933563174099538,
    "Ani_Avatar_NPC_Request01BS_0": 1631481629563757939,
    "Ani_Avatar_NPC_Request01Loop_0": 17913889959995538269,
    "Ani_Avatar_NPC_Request01AS_0": 170203550946877348,
    "Ani_Avatar_NPC_Clap01_0": 2229706450100451062,
    "Ani_Avatar_NPC_Cheer01BS_0": 470026575450229787,
    "Ani_Avatar_NPC_Cheer01Loop_0": 6876549708323835596,
    "Ani_Avatar_NPC_Cheer01AS_0": 4092214044762322594,
    "Ani_Avatar_NPC_Investigate01BS_0": 7994758252379745588,
    "Ani_Avatar_NPC_Investigate01BS_Sync_0": 10772551727883671431,
    "Ani_Avatar_NPC_Investigate01Loop_0": 593214587457204204,
    "Ani_Avatar_NPC_Investigate01Loop_Sync_0": 6649456013048582263,
    "Ani_Avatar_NPC_Investigate01AS_0": 1846078816518724261,
    "Ani_Avatar_NPC_Investigate01AS_Sync_0": 6671691310319736992,
    "Ani_Avatar_NPC_Laugh01_0": 10620210162053771310,
    "Ani_Avatar_NPC_Laugh01_Sync_0": 10805053286482508977,
    "Ani_Avatar_NPC_Encourage01_0": 5904239476224598071,
    "Ani_Avatar_NPC_Encourage01_Sync_0": 7906106310926773221,
    "Ani_Avatar_NPC_Dusting01_0": 3548156315016490228,
    "Ani_Avatar_NPC_SitHoldArm01AS_0": 10417777817592031813,
    "Ani_Avatar_NPC_SitHoldArm01AS_Sync_0": 8350493958816348047,
    "Ani_Avatar_NPC_SitHoldArm01Loop_0": 16052087864423792567,
    "Ani_Avatar_NPC_SitHoldArm01Loop_Sync_0": 10791490817403396547,
    "Ani_Avatar_NPC_SitHoldArm01BS_0": 1334257093933679047,
    "Ani_Avatar_NPC_SitHoldArm01BS_Sync_0": 12070507603309994881,
    "Ani_Avatar_NPC_SitHoldArmHand01BS_0": 9952101636424799802,
    "Ani_Avatar_NPC_SitHoldArmHand01Loop_0": 8806178906359010329,
    "Ani_Avatar_NPC_SitHoldArmHand01AS_0": 12153681914280866653,
    "Ani_Avatar_Catalyst_Show_01_0": 18216025894181952913,
    "Ani_Avatar_Catalyst_Show_01_Sync_0": 18216025894181952913,
    "Ani_Avatar_NPC_SitChat01BS_0": 16311306459120472037,
    "Ani_Avatar_NPC_SitChat01BS_Sync_0": 3787223693377081306,
    "Ani_Avatar_NPC_SitChat01AS_0": 10240025634800466028,
    "Ani_Avatar_NPC_SitChat01AS_Sync_0": 14885739639334993797,
    "Ani_Avatar_NPC_SitChat01Loop_0": 18143174498540232073,
    "Ani_Avatar_NPC_SitChat01Loop_Sync_0": 8294247119580069681
  }
}