{
  "freeStyleStateMap": {
    "10100": [],
    "10101": [],
    "10201": [],
    "10301": [],
    "10401": [],
    "10501": [],
    "10601": [],
    "10701": [],
    "10801": [],
    "1231": [
      "Ani_Avatar_NPC_AkimboHand01BS_0",
      "Ani_Avatar_NPC_AkimboHand01BS_Sync_0",
      "Ani_Avatar_NPC_AkimboHand01Loop_0",
      "Ani_Avatar_NPC_AkimboHand01Loop_Sync_0",
      "Ani_Avatar_NPC_AkimboHand01AS_0",
      "Ani_Avatar_NPC_AkimboHand01AS_Sync_0",
      "Ani_Avatar_NPC_Akimbo01Loop_0",
      "Ani_Avatar_NPC_Akimbo01Loop_Sync_0",
      "Ani_Avatar_NPC_Akimbo01AS_0",
      "Ani_Avatar_NPC_Akimbo01AS_Sync_0"
    ],
    "1121": [
      "Ani_Avatar_NPC_HoldArmHand01BS_0",
      "Ani_Avatar_NPC_HoldArmHand01BS_Sync_0",
      "Ani_Avatar_NPC_HoldArmHand01Loop_0",
      "Ani_Avatar_NPC_HoldArmHand01Loop_Sync_0",
      "Ani_Avatar_NPC_HoldArmHand01AS_0",
      "Ani_Avatar_NPC_HoldArmHand01AS_Sync_0",
      "Ani_Avatar_NPC_HoldArm01Loop_0",
      "Ani_Avatar_NPC_HoldArm01Loop_Sync_0",
      "Ani_Avatar_NPC_HoldArm01AS_0",
      "Ani_Avatar_NPC_HoldArm01AS_Sync_0"
    ],
    "1191": [
      "Ani_Avatar_NPC_ThinkHand01BS_0",
      "Ani_Avatar_NPC_ThinkHand01BS_Sync_0",
      "Ani_Avatar_NPC_ThinkHand01Loop_0",
      "Ani_Avatar_NPC_ThinkHand01Loop_Sync_0",
      "Ani_Avatar_NPC_ThinkHand01AS_0",
      "Ani_Avatar_NPC_ThinkHand01AS_Sync_0",
      "Ani_Avatar_NPC_Think01Loop_0",
      "Ani_Avatar_NPC_Think01Loop_Sync_0",
      "Ani_Avatar_NPC_Think01AS_0",
      "Ani_Avatar_NPC_Think01AS_Sync_0"
    ],
    "1221": [
      "Ani_Avatar_NPC_AkimboHand02BS_0",
      "Ani_Avatar_NPC_AkimboHand02BS_Sync_0",
      "Ani_Avatar_NPC_AkimboHand02Loop_0",
      "Ani_Avatar_NPC_AkimboHand02Loop_Sync_0",
      "Ani_Avatar_NPC_AkimboHand02AS_0",
      "Ani_Avatar_NPC_AkimboHand02AS_Sync_0",
      "Ani_Avatar_NPC_Akimbo02Loop_0",
      "Ani_Avatar_NPC_Akimbo02Loop_Sync_0",
      "Ani_Avatar_NPC_Akimbo02AS_0",
      "Ani_Avatar_NPC_Akimbo02AS_Sync_0"
    ],
    "8062": [
      "Ani_Avatar_NPC_SitWrite01BS_0",
      "Ani_Avatar_NPC_SitWrite01Loop_0",
      "Ani_Avatar_NPC_SitWrite01AS_0"
    ],
    "8040": [
      "Ani_Avatar_NPC_SitHoldArm01BS_0",
      "Ani_Avatar_NPC_SitHoldArm01BS_Sync_0",
      "Ani_Avatar_NPC_SitHoldArm01Loop_0",
      "Ani_Avatar_NPC_SitHoldArm01Loop_Sync_0",
      "Ani_Avatar_NPC_SitHoldArm01AS_0",
      "Ani_Avatar_NPC_SitHoldArm01AS_Sync_0"
    ],
    "8061": [
      "Ani_Avatar_NPC_SitCrouch01BS_0",
      "Ani_Avatar_NPC_SitCrouch01Loop_0",
      "Ani_Avatar_NPC_SitCrouch01AS_0",
      "Ani_Avatar_NPC_SitWrite01Loop_0",
      "Ani_Avatar_NPC_SitWrite01AS_0"
    ],
    "8041": [
      "Ani_Avatar_NPC_SitHoldArmHand01BS_0",
      "Ani_Avatar_NPC_SitHoldArmHand01Loop_0",
      "Ani_Avatar_NPC_SitHoldArmHand01AS_0",
      "Ani_Avatar_NPC_SitHoldArm01Loop_0",
      "Ani_Avatar_NPC_SitHoldArm01Loop_Sync_0",
      "Ani_Avatar_NPC_SitHoldArm01AS_0",
      "Ani_Avatar_NPC_SitHoldArm01AS_Sync_0"
    ],
    "1230": [
      "Ani_Avatar_NPC_Akimbo01BS_0",
      "Ani_Avatar_NPC_Akimbo01BS_Sync_0",
      "Ani_Avatar_NPC_Akimbo01Loop_0",
      "Ani_Avatar_NPC_Akimbo01Loop_Sync_0",
      "Ani_Avatar_NPC_Akimbo01AS_0",
      "Ani_Avatar_NPC_Akimbo01AS_Sync_0"
    ],
    "1040": [
      "Ani_Avatar_NPC_Backrake01BS_0",
      "Ani_Avatar_NPC_Backrake01BS_Sync_0",
      "Ani_Avatar_NPC_Backrake01Loop_0",
      "Ani_Avatar_NPC_Backrake01Loop_Sync_0",
      "Ani_Avatar_NPC_Backrake01AS_0",
      "Ani_Avatar_NPC_Backrake01AS_Sync_0"
    ],
    "1050": [
      "Ani_Avatar_NPC_Confuse01BS_0",
      "Ani_Avatar_NPC_Confuse01BS_Sync_0",
      "Ani_Avatar_NPC_Confuse01Loop_0",
      "Ani_Avatar_NPC_Confuse01Loop_Sync_0",
      "Ani_Avatar_NPC_Confuse01AS_0",
      "Ani_Avatar_NPC_Confuse01AS_Sync_0"
    ],
    "1060": [
      "Ani_Avatar_NPC_Forerake01BS_0",
      "Ani_Avatar_NPC_Forerake01BS_Sync_0",
      "Ani_Avatar_NPC_Forerake01Loop_0",
      "Ani_Avatar_NPC_Forerake01Loop_Sync_0",
      "Ani_Avatar_NPC_Forerake01AS_0",
      "Ani_Avatar_NPC_Forerake01AS_Sync_0"
    ],
    "1070": [
      "Ani_Avatar_NPC_Afraid01BS_0",
      "Ani_Avatar_NPC_Afraid01Loop_0",
      "Ani_Avatar_NPC_Afraid01AS_0"
    ],
    "1080": [
      "Ani_Avatar_NPC_Alert01BS_0",
      "Ani_Avatar_NPC_Alert01BS_Sync_0",
      "Ani_Avatar_NPC_Alert01Loop_0",
      "Ani_Avatar_NPC_Alert01Loop_Sync_0",
      "Ani_Avatar_NPC_Alert01AS_0",
      "Ani_Avatar_NPC_Alert01AS_Sync_0"
    ],
    "1090": [
      "Ani_Avatar_NPC_Shy01BS_0",
      "Ani_Avatar_NPC_Shy01BS_Sync_0",
      "Ani_Avatar_NPC_Shy01Loop_0",
      "Ani_Avatar_NPC_Shy01Loop_Sync_0",
      "Ani_Avatar_NPC_Shy01AS_0",
      "Ani_Avatar_NPC_Shy01AS_Sync_0"
    ],
    "1110": [
      "Ani_Avatar_NPC_Shrug01BS_0",
      "Ani_Avatar_NPC_Shrug01BS_Sync_0",
      "Ani_Avatar_NPC_Shrug01Loop_0",
      "Ani_Avatar_NPC_Shrug01Loop_Sync_0",
      "Ani_Avatar_NPC_Shrug01AS_0",
      "Ani_Avatar_NPC_Shrug01AS_Sync_0"
    ],
    "1120": [
      "Ani_Avatar_NPC_HoldArm01BS_0",
      "Ani_Avatar_NPC_HoldArm01BS_Sync_0",
      "Ani_Avatar_NPC_HoldArm01Loop_0",
      "Ani_Avatar_NPC_HoldArm01Loop_Sync_0",
      "Ani_Avatar_NPC_HoldArm01AS_0",
      "Ani_Avatar_NPC_HoldArm01AS_Sync_0"
    ],
    "1130": [
      "Ani_Avatar_NPC_StrikeChest01BS_0",
      "Ani_Avatar_NPC_StrikeChest01BS_Sync_0",
      "Ani_Avatar_NPC_StrikeChest01Loop_0",
      "Ani_Avatar_NPC_StrikeChest01Loop_Sync_0",
      "Ani_Avatar_NPC_StrikeChest01AS_0",
      "Ani_Avatar_NPC_StrikeChest01AS_Sync_0"
    ],
    "1150": [
      "Ani_Avatar_NPC_Refuse01_0",
      "Ani_Avatar_NPC_Refuse01_Sync_0"
    ],
    "1160": [
      "Ani_Avatar_NPC_Downcast01BS_0",
      "Ani_Avatar_NPC_Downcast01BS_Sync_0",
      "Ani_Avatar_NPC_Downcast01Loop_0",
      "Ani_Avatar_NPC_Downcast01Loop_Sync_0",
      "Ani_Avatar_NPC_Downcast01AS_0",
      "Ani_Avatar_NPC_Downcast01AS_Sync_0"
    ],
    "1170": [
      "Ani_Avatar_NPC_Chat01BS_0",
      "Ani_Avatar_NPC_Chat01BS_Sync_0",
      "Ani_Avatar_NPC_Chat01Loop_0",
      "Ani_Avatar_NPC_Chat01Loop_Sync_0",
      "Ani_Avatar_NPC_Chat01AS_0",
      "Ani_Avatar_NPC_Chat01AS_Sync_0"
    ],
    "1180": [
      "Ani_Avatar_NPC_Chat02BS_0",
      "Ani_Avatar_NPC_Chat02BS_Sync_0",
      "Ani_Avatar_NPC_Chat02Loop_0",
      "Ani_Avatar_NPC_Chat02Loop_Sync_0",
      "Ani_Avatar_NPC_Chat02AS_0",
      "Ani_Avatar_NPC_Chat02AS_Sync_0"
    ],
    "1190": [
      "Ani_Avatar_NPC_Think01BS_0",
      "Ani_Avatar_NPC_Think01BS_Sync_0",
      "Ani_Avatar_NPC_Think01Loop_0",
      "Ani_Avatar_NPC_Think01Loop_Sync_0",
      "Ani_Avatar_NPC_Think01AS_0",
      "Ani_Avatar_NPC_Think01AS_Sync_0"
    ],
    "9030": [],
    "9040": [],
    "1140": [
      "Ani_Avatar_NPC_PointR01BS_0",
      "Ani_Avatar_NPC_PointR01BS_Sync_0",
      "Ani_Avatar_NPC_PointR01Loop_0",
      "Ani_Avatar_NPC_PointR01Loop_Sync_0",
      "Ani_Avatar_NPC_PointR01AS_0",
      "Ani_Avatar_NPC_PointR01AS_Sync_0"
    ],
    "1200": [
      "Ani_Avatar_NPC_Greet01_0",
      "Ani_Avatar_NPC_Greet01_Sync_0"
    ],
    "1220": [
      "Ani_Avatar_NPC_Akimbo02BS_0",
      "Ani_Avatar_NPC_Akimbo02BS_Sync_0",
      "Ani_Avatar_NPC_Akimbo02Loop_0",
      "Ani_Avatar_NPC_Akimbo02Loop_Sync_0",
      "Ani_Avatar_NPC_Akimbo02AS_0",
      "Ani_Avatar_NPC_Akimbo02AS_Sync_0"
    ],
    "1210": [
      "Ani_Avatar_NPC_SaluteMengde01BS_0",
      "Ani_Avatar_NPC_SaluteMengde01Loop_0",
      "Ani_Avatar_NPC_SaluteMengde01AS_0"
    ],
    "1240": [
      "Ani_Avatar_NPC_HoldHead01BS_0",
      "Ani_Avatar_NPC_HoldHead01BS_Sync_0",
      "Ani_Avatar_NPC_HoldHead01Loop_0",
      "Ani_Avatar_NPC_HoldHead01Loop_Sync_0",
      "Ani_Avatar_NPC_HoldHead01AS_0",
      "Ani_Avatar_NPC_HoldHead01AS_Sync_0"
    ],
    "1030": [
      "Ani_Avatar_NPC_PutHand01BS_0",
      "Ani_Avatar_NPC_PutHand01BS_Sync_0",
      "Ani_Avatar_NPC_PutHand01Loop_0",
      "Ani_Avatar_NPC_PutHand01Loop_Sync_0",
      "Ani_Avatar_NPC_PutHand01AS_0",
      "Ani_Avatar_NPC_PutHand01AS_Sync_0"
    ],
    "8010": [],
    "8020": [],
    "1141": [
      "Ani_Avatar_NPC_PointF01BS_0",
      "Ani_Avatar_NPC_PointF01Loop_0",
      "Ani_Avatar_NPC_PointF01AS_0"
    ],
    "1142": [
      "Ani_Avatar_NPC_PointL01BS_0",
      "Ani_Avatar_NPC_PointL01Loop_0",
      "Ani_Avatar_NPC_PointL01AS_0"
    ],
    "1171": [
      "Ani_Avatar_NPC_Talk01_0",
      "Ani_Avatar_NPC_Talk01_Sync_0"
    ],
    "1172": [
      "Ani_Avatar_NPC_Talk02_0",
      "Ani_Avatar_NPC_Talk02_Sync_0"
    ],
    "1173": [
      "Ani_Avatar_NPC_Talk03_0",
      "Ani_Avatar_NPC_Talk03_Sync_0"
    ],
    "1250": [
      "Ani_Avatar_NPC_Request01BS_0",
      "Ani_Avatar_NPC_Request01Loop_0",
      "Ani_Avatar_NPC_Request01AS_0"
    ],
    "1260": [
      "Ani_Avatar_NPC_Clap01_0"
    ],
    "1270": [
      "Ani_Avatar_NPC_Cheer01BS_0",
      "Ani_Avatar_NPC_Cheer01Loop_0",
      "Ani_Avatar_NPC_Cheer01AS_0"
    ],
    "1280": [
      "Ani_Avatar_NPC_Investigate01BS_0",
      "Ani_Avatar_NPC_Investigate01BS_Sync_0",
      "Ani_Avatar_NPC_Investigate01Loop_0",
      "Ani_Avatar_NPC_Investigate01Loop_Sync_0",
      "Ani_Avatar_NPC_Investigate01AS_0",
      "Ani_Avatar_NPC_Investigate01AS_Sync_0"
    ],
    "1290": [
      "Ani_Avatar_NPC_Laugh01_0",
      "Ani_Avatar_NPC_Laugh01_Sync_0"
    ],
    "1300": [
      "Ani_Avatar_NPC_Encourage01_0",
      "Ani_Avatar_NPC_Encourage01_Sync_0"
    ],
    "1310": [
      "Ani_Avatar_NPC_Dusting01_0",
      "Ani_Avatar_NPC_Dusting01_Sync_0"
    ]
  },
  "stateAnimeMap": {
    "Ani_Avatar_NPC_Akimbo01BS_0": 17808563838262250903,
    "Ani_Avatar_NPC_Akimbo01BS_Sync_0": 1857568099859518304,
    "Ani_Avatar_NPC_Akimbo01Loop_0": 3698990100384912758,
    "Ani_Avatar_NPC_Akimbo01Loop_Sync_0": 10356298768614647634,
    "Ani_Avatar_NPC_Akimbo01AS_0": 17231282099813686918,
    "Ani_Avatar_NPC_Akimbo01AS_Sync_0": 1837237134232922310,
    "Ani_Avatar_NPC_Backrake01BS_0": 10541301572794611904,
    "Ani_Avatar_NPC_Backrake01BS_Sync_0": 11883636456013261244,
    "Ani_Avatar_NPC_Backrake01Loop_0": 17851746432415068884,
    "Ani_Avatar_NPC_Backrake01Loop_Sync_0": 10235324738392228385,
    "Ani_Avatar_NPC_Backrake01AS_0": 15979133594291744427,
    "Ani_Avatar_NPC_Backrake01AS_Sync_0": 11103977913236836960,
    "Ani_Avatar_NPC_Confuse01BS_0": 16825985772937717983,
    "Ani_Avatar_NPC_Confuse01BS_Sync_0": 6757733941538604421,
    "Ani_Avatar_NPC_Confuse01Loop_0": 14322486160117559263,
    "Ani_Avatar_NPC_Confuse01Loop_Sync_0": 6520086485260938217,
    "Ani_Avatar_NPC_Confuse01AS_0": 5862776028816915474,
    "Ani_Avatar_NPC_Confuse01AS_Sync_0": 17647990585185158555,
    "Ani_Avatar_NPC_Forerake01BS_0": 10372470894623871992,
    "Ani_Avatar_NPC_Forerake01BS_Sync_0": 12098494487891251439,
    "Ani_Avatar_NPC_Forerake01Loop_0": 10944675270973061941,
    "Ani_Avatar_NPC_Forerake01Loop_Sync_0": 1600404738716070959,
    "Ani_Avatar_NPC_Forerake01AS_0": 1878485755215805895,
    "Ani_Avatar_NPC_Forerake01AS_Sync_0": 6476072650255389004,
    "Ani_Avatar_NPC_Afraid01BS_0": 5919571007522644361,
    "Ani_Avatar_NPC_Afraid01Loop_0": 16140323329418155251,
    "Ani_Avatar_NPC_Afraid01AS_0": 5108029159097340126,
    "Ani_Avatar_NPC_Alert01BS_0": 11947342516082398809,
    "Ani_Avatar_NPC_Alert01BS_Sync_0": 16364717381048974910,
    "Ani_Avatar_NPC_Alert01Loop_0": 7999215008345676699,
    "Ani_Avatar_NPC_Alert01Loop_Sync_0": 15684094355659729272,
    "Ani_Avatar_NPC_Alert01AS_0": 3093315304569279358,
    "Ani_Avatar_NPC_Alert01AS_Sync_0": 17351941463105354075,
    "Ani_Avatar_NPC_Shy01BS_0": 9961865173928422733,
    "Ani_Avatar_NPC_Shy01BS_Sync_0": 15275905407746558396,
    "Ani_Avatar_NPC_Shy01Loop_0": 4041581189663958796,
    "Ani_Avatar_NPC_Shy01Loop_Sync_0": 3756896095891315683,
    "Ani_Avatar_NPC_Shy01AS_0": 7649532895684221791,
    "Ani_Avatar_NPC_Shy01AS_Sync_0": 4652723334244711384,
    "Ani_Avatar_NPC_Shrug01BS_0": 16806136975575635866,
    "Ani_Avatar_NPC_Shrug01BS_Sync_0": 4832866590704649931,
    "Ani_Avatar_NPC_Shrug01Loop_0": 15451686239166989946,
    "Ani_Avatar_NPC_Shrug01Loop_Sync_0": 7604116564272305436,
    "Ani_Avatar_NPC_Shrug01AS_0": 16760501205338179306,
    "Ani_Avatar_NPC_Shrug01AS_Sync_0": 654706602208155649,
    "Ani_Avatar_NPC_HoldArm01BS_0": 17093605301484238355,
    "Ani_Avatar_NPC_HoldArm01BS_Sync_0": 10626523082229520793,
    "Ani_Avatar_NPC_HoldArm01Loop_0": 6194030211062479584,
    "Ani_Avatar_NPC_HoldArm01Loop_Sync_0": 11855809140831232422,
    "Ani_Avatar_NPC_HoldArm01AS_0": 1813075382803065542,
    "Ani_Avatar_NPC_HoldArm01AS_Sync_0": 6737263509085089756,
    "Ani_Avatar_NPC_StrikeChest01BS_0": 14922601239525796892,
    "Ani_Avatar_NPC_StrikeChest01BS_Sync_0": 3551995812036254045,
    "Ani_Avatar_NPC_StrikeChest01Loop_0": 17650358728252941721,
    "Ani_Avatar_NPC_StrikeChest01Loop_Sync_0": 5647356767708005541,
    "Ani_Avatar_NPC_StrikeChest01AS_0": 16613496432812205125,
    "Ani_Avatar_NPC_StrikeChest01AS_Sync_0": 14656519351481465383,
    "Ani_Avatar_NPC_Refuse01_0": 5802797809675852601,
    "Ani_Avatar_NPC_Refuse01_Sync_0": 5114205332851956620,
    "Ani_Avatar_NPC_Downcast01BS_0": 3016140030360198665,
    "Ani_Avatar_NPC_Downcast01BS_Sync_0": 12166271750613242823,
    "Ani_Avatar_NPC_Downcast01AS_0": 16487625481055186522,
    "Ani_Avatar_NPC_Downcast01AS_Sync_0": 14837299135560618185,
    "Ani_Avatar_NPC_Downcast01Loop_0": 4517546540247200367,
    "Ani_Avatar_NPC_Downcast01Loop_Sync_0": 11405386518534460272,
    "Ani_Avatar_NPC_Chat01BS_0": 10544371832341776162,
    "Ani_Avatar_NPC_Chat01BS_Sync_0": 4954282735692856231,
    "Ani_Avatar_NPC_Chat01Loop_0": 17969213660672431327,
    "Ani_Avatar_NPC_Chat01Loop_Sync_0": 13058612628057664327,
    "Ani_Avatar_NPC_Chat01AS_0": 17332028244544208519,
    "Ani_Avatar_NPC_Chat01AS_Sync_0": 2819077636369912420,
    "Ani_Avatar_NPC_Chat02BS_0": 6193289113049372972,
    "Ani_Avatar_NPC_Chat02BS_Sync_0": 13431933197500309470,
    "Ani_Avatar_NPC_Chat02AS_0": 5618997472169333350,
    "Ani_Avatar_NPC_Chat02AS_Sync_0": 5495723921382837821,
    "Ani_Avatar_NPC_Chat02Loop_0": 13117115527499436123,
    "Ani_Avatar_NPC_Chat02Loop_Sync_0": 9128531962797786042,
    "Ani_Avatar_NPC_Think01BS_0": 10702816432768187363,
    "Ani_Avatar_NPC_Think01BS_Sync_0": 2384189205823944261,
    "Ani_Avatar_NPC_Think01Loop_0": 2129849238023720320,
    "Ani_Avatar_NPC_Think01Loop_Sync_0": 16640221700821431378,
    "Ani_Avatar_NPC_Think01AS_0": 2177979098496024738,
    "Ani_Avatar_NPC_Think01AS_Sync_0": 10298937368497404693,
    "Ani_Avatar_NPC_PointR01BS_0": 18338399901394187061,
    "Ani_Avatar_NPC_PointR01BS_Sync_0": 10156117133947432967,
    "Ani_Avatar_NPC_PointR01Loop_0": 17048663202693339122,
    "Ani_Avatar_NPC_PointR01Loop_Sync_0": 11233037717529099746,
    "Ani_Avatar_NPC_PointR01AS_0": 3960469674015953513,
    "Ani_Avatar_NPC_PointR01AS_Sync_0": 6497682159244949009,
    "Ani_Avatar_NPC_Greet01_0": 7820351069042579524,
    "Ani_Avatar_NPC_Greet01_Sync_0": 16966191258589351119,
    "Ani_Avatar_NPC_AkimboHand01BS_0": 4724428577586130788,
    "Ani_Avatar_NPC_AkimboHand01BS_Sync_0": 8850664275093074946,
    "Ani_Avatar_NPC_AkimboHand01Loop_0": 5382625325982941049,
    "Ani_Avatar_NPC_AkimboHand01Loop_Sync_0": 4799703462890954993,
    "Ani_Avatar_NPC_AkimboHand01AS_0": 1290942189728818014,
    "Ani_Avatar_NPC_AkimboHand01AS_Sync_0": 17956787145037074792,
    "Ani_Avatar_NPC_Akimbo02BS_0": 3917820622504503976,
    "Ani_Avatar_NPC_Akimbo02BS_Sync_0": 3098097329730337358,
    "Ani_Avatar_NPC_Akimbo02Loop_0": 2830221956127583306,
    "Ani_Avatar_NPC_Akimbo02Loop_Sync_0": 14820559362761927331,
    "Ani_Avatar_NPC_Akimbo02AS_0": 14049918462833621321,
    "Ani_Avatar_NPC_Akimbo02AS_Sync_0": 7507139277660720724,
    "Ani_Avatar_NPC_HoldArmHand01BS_0": 461812467861540165,
    "Ani_Avatar_NPC_HoldArmHand01BS_Sync_0": 4121794308181706981,
    "Ani_Avatar_NPC_HoldArmHand01Loop_0": 5595527951911308988,
    "Ani_Avatar_NPC_HoldArmHand01Loop_Sync_0": 2439684072391933254,
    "Ani_Avatar_NPC_HoldArmHand01AS_0": 12548631340555500145,
    "Ani_Avatar_NPC_HoldArmHand01AS_Sync_0": 13647345212497523721,
    "Ani_Avatar_NPC_ThinkHand01BS_0": 3921681851626916138,
    "Ani_Avatar_NPC_ThinkHand01BS_Sync_0": 6139569819724673460,
    "Ani_Avatar_NPC_ThinkHand01Loop_0": 10950933107933844262,
    "Ani_Avatar_NPC_ThinkHand01Loop_Sync_0": 4767811891169609987,
    "Ani_Avatar_NPC_ThinkHand01AS_0": 118426546131643651,
    "Ani_Avatar_NPC_ThinkHand01AS_Sync_0": 1319658548815600761,
    "Ani_Avatar_NPC_AkimboHand02BS_0": 10667457411689929881,
    "Ani_Avatar_NPC_AkimboHand02BS_Sync_0": 16424878176338884088,
    "Ani_Avatar_NPC_AkimboHand02AS_0": 5438593478066181355,
    "Ani_Avatar_NPC_AkimboHand02AS_Sync_0": 1366358662196014547,
    "Ani_Avatar_NPC_AkimboHand02Loop_0": 1215253095530864433,
    "Ani_Avatar_NPC_AkimboHand02Loop_Sync_0": 6777769724992162948,
    "Ani_Avatar_NPC_SaluteMengde01BS_0": 16025055723338215473,
    "Ani_Avatar_NPC_HoldHead01BS_0": 3671211971999795114,
    "Ani_Avatar_NPC_HoldHead01BS_Sync_0": 319508273305231151,
    "Ani_Avatar_NPC_HoldHead01Loop_0": 17513417648005269961,
    "Ani_Avatar_NPC_HoldHead01Loop_Sync_0": 3254712622413557293,
    "Ani_Avatar_NPC_HoldHead01AS_0": 16840336586170293822,
    "Ani_Avatar_NPC_HoldHead01AS_Sync_0": 16842191483613804068,
    "Ani_Avatar_NPC_PutHand01BS_0": 10708705061107342757,
    "Ani_Avatar_NPC_PutHand01BS_Sync_0": 4736880823126569819,
    "Ani_Avatar_NPC_PutHand01Loop_0": 3167276611893355623,
    "Ani_Avatar_NPC_PutHand01Loop_Sync_0": 12160635386343247493,
    "Ani_Avatar_NPC_PutHand01AS_0": 7863968327219607263,
    "Ani_Avatar_NPC_PutHand01AS_Sync_0": 7293106801390520219,
    "Ani_Avatar_NPC_SaluteMengde01Loop_0": 8041053879500403015,
    "Ani_Avatar_NPC_SaluteMengde01AS_0": 4070098330587948583,
    "Ani_Avatar_NPC_SitCrouch01BS_0": 16377650867527407991,
    "Ani_Avatar_NPC_SitCrouch01Loop_0": 2104335253519582698,
    "Ani_Avatar_NPC_SitCrouch01AS_0": 11422202999520014270,
    "Ani_Avatar_NPC_SitWrite01BS_0": 11685458251476772801,
    "Ani_Avatar_NPC_SitWrite01Loop_0": 5787887012403168987,
    "Ani_Avatar_NPC_SitWrite01AS_0": 2107246607652567887,
    "Ani_Avatar_NPC_PointF01BS_0": 1502068314405378117,
    "Ani_Avatar_NPC_PointF01Loop_0": 1930762153072332943,
    "Ani_Avatar_NPC_PointF01AS_0": 6688215028527780726,
    "Ani_Avatar_NPC_PointL01AS_0": 12948180242273430091,
    "Ani_Avatar_NPC_PointL01Loop_0": 10812944103398014260,
    "Ani_Avatar_NPC_PointL01BS_0": 5437460205690976927,
    "Ani_Avatar_NPC_Talk01_0": 9540975369266547718,
    "Ani_Avatar_NPC_Talk01_Sync_0": 4266307588899402746,
    "Ani_Avatar_NPC_Talk02_0": 6447496390808125435,
    "Ani_Avatar_NPC_Talk02_Sync_0": 8298947051477184444,
    "Ani_Avatar_NPC_Talk03_0": 2199872620430507824,
    "Ani_Avatar_NPC_Talk03_Sync_0": 17596464702259123830,
    "Ani_Avatar_NPC_Request01BS_0": 2826673581370689991,
    "Ani_Avatar_NPC_Request01Loop_0": 5633701326608576861,
    "Ani_Avatar_NPC_Request01AS_0": 6299310106475775042,
    "Ani_Avatar_NPC_Clap01_0": 2462539563624645565,
    "Ani_Avatar_NPC_Cheer01BS_0": 7850706655445033247,
    "Ani_Avatar_NPC_Cheer01Loop_0": 7944607208050787803,
    "Ani_Avatar_NPC_Cheer01AS_0": 6908818964935966017,
    "Ani_Avatar_NPC_Investigate01BS_0": 9183443271303046901,
    "Ani_Avatar_NPC_Investigate01BS_Sync_0": 12944298673810014350,
    "Ani_Avatar_NPC_Investigate01Loop_0": 8053637901786458385,
    "Ani_Avatar_NPC_Investigate01Loop_Sync_0": 15315594195970944720,
    "Ani_Avatar_NPC_Investigate01AS_0": 16883245911650572960,
    "Ani_Avatar_NPC_Investigate01AS_Sync_0": 4008830322515359524,
    "Ani_Avatar_NPC_Laugh01_0": 4763790946361231747,
    "Ani_Avatar_NPC_Laugh01_Sync_0": 65167362317060339,
    "Ani_Avatar_NPC_Encourage01_0": 4392172275753143126,
    "Ani_Avatar_NPC_Encourage01_Sync_0": 90184615265346124,
    "Ani_Avatar_NPC_Dusting01_0": 16016546907284346176,
    "Ani_Avatar_NPC_Dusting01_Sync_0": 15654920393301287308,
    "Ani_Avatar_NPC_SitHoldArm01BS_0": 7203237215697025650,
    "Ani_Avatar_NPC_SitHoldArm01BS_Sync_0": 13207230562056471717,
    "Ani_Avatar_NPC_SitHoldArm01Loop_0": 1530863151218984108,
    "Ani_Avatar_NPC_SitHoldArm01Loop_Sync_0": 11966872236975234565,
    "Ani_Avatar_NPC_SitHoldArm01AS_0": 5032155922292631097,
    "Ani_Avatar_NPC_SitHoldArm01AS_Sync_0": 1217750136117759572,
    "Ani_Avatar_NPC_SitHoldArmHand01BS_0": 2697517464634689899,
    "Ani_Avatar_NPC_SitHoldArmHand01Loop_0": 7901661565080280533,
    "Ani_Avatar_NPC_SitHoldArmHand01AS_0": 5099273143024645464
  }
}