{
  "freeStyleStateMap": {
    "10100": [],
    "10101": [],
    "10201": [],
    "10301": [],
    "10401": [],
    "10501": [],
    "10601": [],
    "10701": [],
    "10801": [],
    "1231": [
      "Ani_Avatar_NPC_AkimboHand01BS_0",
      "Ani_Avatar_NPC_AkimboHand01BS_Sync_0",
      "Ani_Avatar_NPC_AkimboHand01Loop_0",
      "Ani_Avatar_NPC_AkimboHand01Loop_Sync_0",
      "Ani_Avatar_NPC_AkimboHand01AS_0",
      "Ani_Avatar_NPC_AkimboHand01AS_Sync_0",
      "Ani_Avatar_NPC_Akimbo01Loop_0",
      "Ani_Avatar_NPC_Akimbo01Loop_Sync_0",
      "Ani_Avatar_NPC_Akimbo01AS_0",
      "Ani_Avatar_NPC_Akimbo01AS_Sync_0"
    ],
    "1121": [
      "Ani_Avatar_NPC_HoldArmHand01BS_0",
      "Ani_Avatar_NPC_HoldArmHand01BS_Sync_0",
      "Ani_Avatar_NPC_HoldArmHand01Loop_0",
      "Ani_Avatar_NPC_HoldArmHand01Loop_Sync_0",
      "Ani_Avatar_NPC_HoldArmHand01AS_0",
      "Ani_Avatar_NPC_HoldArmHand01AS_Sync_0",
      "Ani_Avatar_NPC_HoldArm01Loop_0",
      "Ani_Avatar_NPC_HoldArm01Loop_Sync_0",
      "Ani_Avatar_NPC_HoldArm01AS_0",
      "Ani_Avatar_NPC_HoldArm01AS_Sync_0"
    ],
    "1191": [
      "Ani_Avatar_NPC_ThinkHand01BS_0",
      "Ani_Avatar_NPC_ThinkHand01BS_Sync_0",
      "Ani_Avatar_NPC_ThinkHand01Loop_0",
      "Ani_Avatar_NPC_ThinkHand01Loop_Sync_0",
      "Ani_Avatar_NPC_ThinkHand01AS_0",
      "Ani_Avatar_NPC_ThinkHand01AS_Sync_0",
      "Ani_Avatar_NPC_Think01Loop_0",
      "Ani_Avatar_NPC_Think01Loop_Sync_0",
      "Ani_Avatar_NPC_Think01AS_0",
      "Ani_Avatar_NPC_Think01AS_Sync_0"
    ],
    "1221": [
      "Ani_Avatar_NPC_AkimboHand02BS_0",
      "Ani_Avatar_NPC_AkimboHand02BS_Sync_0",
      "Ani_Avatar_NPC_AkimboHand02Loop_0",
      "Ani_Avatar_NPC_AkimboHand02Loop_Sync_0",
      "Ani_Avatar_NPC_AkimboHand02AS_0",
      "Ani_Avatar_NPC_AkimboHand02AS_Sync_0",
      "Ani_Avatar_NPC_Akimbo02Loop_0",
      "Ani_Avatar_NPC_Akimbo02Loop_Sync_0",
      "Ani_Avatar_NPC_Akimbo02AS_0",
      "Ani_Avatar_NPC_Akimbo02AS_Sync_0"
    ],
    "8040": [
      "Ani_Avatar_NPC_SitHoldArm01BS_0",
      "Ani_Avatar_NPC_SitHoldArm01BS_Sync_0",
      "Ani_Avatar_NPC_SitHoldArm01Loop_0",
      "Ani_Avatar_NPC_SitHoldArm01Loop_Sync_0",
      "Ani_Avatar_NPC_SitHoldArm01AS_0",
      "Ani_Avatar_NPC_SitHoldArm01AS_Sync_0"
    ],
    "8011": [
      "Ani_Avatar_NPC_SitChat01BS_0",
      "Ani_Avatar_NPC_SitChat01Loop_0",
      "Ani_Avatar_NPC_SitChat01AS_0"
    ],
    "8012": [
      "Ani_Avatar_NPC_SitShrug01BS_0",
      "Ani_Avatar_NPC_SitShrug01Loop_0",
      "Ani_Avatar_NPC_SitShrug01AS_0"
    ],
    "8013": [
      "Ani_Avatar_NPC_SitThink01BS_0",
      "Ani_Avatar_NPC_SitThink01BS_Sync_0",
      "Ani_Avatar_NPC_SitThink01Loop_0",
      "Ani_Avatar_NPC_SitThink01Loop_Sync_0",
      "Ani_Avatar_NPC_SitThink01AS_0",
      "Ani_Avatar_NPC_SitThink01AS_Sync_0"
    ],
    "8041": [
      "Ani_Avatar_NPC_SitHoldArmHand01BS_0",
      "Ani_Avatar_NPC_SitHoldArmHand01BS_Sync_0",
      "Ani_Avatar_NPC_SitHoldArmHand01Loop_0",
      "Ani_Avatar_NPC_SitHoldArmHand01Loop_Sync_0",
      "Ani_Avatar_NPC_SitHoldArmHand01AS_0",
      "Ani_Avatar_NPC_SitHoldArmHand01AS_Sync_0",
      "Ani_Avatar_NPC_SitHoldArm01Loop_0",
      "Ani_Avatar_NPC_SitHoldArm01Loop_Sync_0",
      "Ani_Avatar_NPC_SitHoldArm01AS_0",
      "Ani_Avatar_NPC_SitHoldArm01AS_Sync_0"
    ],
    "1230": [
      "Ani_Avatar_NPC_Akimbo01BS_0",
      "Ani_Avatar_NPC_Akimbo01BS_Sync_0",
      "Ani_Avatar_NPC_Akimbo01Loop_0",
      "Ani_Avatar_NPC_Akimbo01Loop_Sync_0",
      "Ani_Avatar_NPC_Akimbo01AS_0",
      "Ani_Avatar_NPC_Akimbo01AS_Sync_0"
    ],
    "1040": [
      "Ani_Avatar_NPC_Backrake01BS_0",
      "Ani_Avatar_NPC_Backrake01BS_Sync_0",
      "Ani_Avatar_NPC_Backrake01Loop_0",
      "Ani_Avatar_NPC_Backrake01Loop_Sync_0",
      "Ani_Avatar_NPC_Backrake01AS_0",
      "Ani_Avatar_NPC_Backrake01AS_Sync_0"
    ],
    "1050": [
      "Ani_Avatar_NPC_Confuse01BS_0",
      "Ani_Avatar_NPC_Confuse01BS_Sync_0",
      "Ani_Avatar_NPC_Confuse01Loop_0",
      "Ani_Avatar_NPC_Confuse01Loop_Sync_0",
      "Ani_Avatar_NPC_Confuse01AS_0",
      "Ani_Avatar_NPC_Confuse01AS_Sync_0"
    ],
    "1060": [
      "Ani_Avatar_NPC_Forerake01BS_0",
      "Ani_Avatar_NPC_Forerake01BS_Sync_0",
      "Ani_Avatar_NPC_Forerake01Loop_0",
      "Ani_Avatar_NPC_Forerake01Loop_Sync_0",
      "Ani_Avatar_NPC_Forerake01AS_0",
      "Ani_Avatar_NPC_Forerake01AS_Sync_0"
    ],
    "1070": [
      "Ani_Avatar_NPC_Afraid01BS_0",
      "Ani_Avatar_NPC_Afraid01BS_Sync_0",
      "Ani_Avatar_NPC_Afraid01Loop_0",
      "Ani_Avatar_NPC_Afraid01Loop_Sync_0",
      "Ani_Avatar_NPC_Afraid01AS_0",
      "Ani_Avatar_NPC_Afraid01AS_Sync_0"
    ],
    "1080": [
      "Ani_Avatar_NPC_Alert01BS_0",
      "Ani_Avatar_NPC_Alert01BS_Sync_0",
      "Ani_Avatar_NPC_Alert01Loop_0",
      "Ani_Avatar_NPC_Alert01Loop_Sync_0",
      "Ani_Avatar_NPC_Alert01AS_0",
      "Ani_Avatar_NPC_Alert01AS_Sync_0"
    ],
    "1090": [
      "Ani_Avatar_NPC_Shy01BS_0",
      "Ani_Avatar_NPC_Shy01BS_Sync_0",
      "Ani_Avatar_NPC_Shy01Loop_0",
      "Ani_Avatar_NPC_Shy01Loop_Sync_0",
      "Ani_Avatar_NPC_Shy01AS_0",
      "Ani_Avatar_NPC_Shy01AS_Sync_0"
    ],
    "1110": [
      "Ani_Avatar_NPC_Shrug01BS_0",
      "Ani_Avatar_NPC_Shrug01BS_Sync_0",
      "Ani_Avatar_NPC_Shrug01Loop_0",
      "Ani_Avatar_NPC_Shrug01Loop_Sync_0",
      "Ani_Avatar_NPC_Shrug01AS_0",
      "Ani_Avatar_NPC_Shrug01AS_Sync_0"
    ],
    "1120": [
      "Ani_Avatar_NPC_HoldArm01BS_0",
      "Ani_Avatar_NPC_HoldArm01BS_Sync_0",
      "Ani_Avatar_NPC_HoldArm01Loop_0",
      "Ani_Avatar_NPC_HoldArm01Loop_Sync_0",
      "Ani_Avatar_NPC_HoldArm01AS_0",
      "Ani_Avatar_NPC_HoldArm01AS_Sync_0"
    ],
    "1130": [
      "Ani_Avatar_NPC_StrikeChest01BS_0",
      "Ani_Avatar_NPC_StrikeChest01BS_Sync_0",
      "Ani_Avatar_NPC_StrikeChest01Loop_0",
      "Ani_Avatar_NPC_StrikeChest01Loop_Sync_0",
      "Ani_Avatar_NPC_StrikeChest01AS_0",
      "Ani_Avatar_NPC_StrikeChest01AS_Sync_0"
    ],
    "1140": [
      "Ani_Avatar_NPC_PointR01BS_0",
      "Ani_Avatar_NPC_PointR01BS_Sync_0",
      "Ani_Avatar_NPC_PointR01Loop_0",
      "Ani_Avatar_NPC_PointR01Loop_Sync_0",
      "Ani_Avatar_NPC_PointR01AS_0",
      "Ani_Avatar_NPC_PointR01AS_Sync_0"
    ],
    "1150": [
      "Ani_Avatar_NPC_Refuse01_0",
      "Ani_Avatar_NPC_Refuse01_Sync_0"
    ],
    "1160": [
      "Ani_Avatar_NPC_Downcast01BS_0",
      "Ani_Avatar_NPC_Downcast01BS_Sync_0",
      "Ani_Avatar_NPC_Downcast01Loop_0",
      "Ani_Avatar_NPC_Downcast01Loop_Sync_0",
      "Ani_Avatar_NPC_Downcast01AS_0",
      "Ani_Avatar_NPC_Downcast01AS_Sync_0"
    ],
    "1170": [
      "Ani_Avatar_NPC_Chat01BS_0",
      "Ani_Avatar_NPC_Chat01BS_Sync_0",
      "Ani_Avatar_NPC_Chat01Loop_0",
      "Ani_Avatar_NPC_Chat01Loop_Sync_0",
      "Ani_Avatar_NPC_Chat01AS_0",
      "Ani_Avatar_NPC_Chat01AS_Sync_0"
    ],
    "1180": [
      "Ani_Avatar_NPC_Chat02BS_0",
      "Ani_Avatar_NPC_Chat02BS_Sync_0",
      "Ani_Avatar_NPC_Chat02Loop_0",
      "Ani_Avatar_NPC_Chat02Loop_Sync_0",
      "Ani_Avatar_NPC_Chat02AS_0",
      "Ani_Avatar_NPC_Chat02AS_Sync_0"
    ],
    "1190": [
      "Ani_Avatar_NPC_Think01BS_0",
      "Ani_Avatar_NPC_Think01BS_Sync_0",
      "Ani_Avatar_NPC_Think01Loop_0",
      "Ani_Avatar_NPC_Think01Loop_Sync_0",
      "Ani_Avatar_NPC_Think01AS_0",
      "Ani_Avatar_NPC_Think01AS_Sync_0"
    ],
    "9030": [],
    "9040": [],
    "1220": [
      "Ani_Avatar_NPC_Akimbo02BS_0",
      "Ani_Avatar_NPC_Akimbo02BS_Sync_0",
      "Ani_Avatar_NPC_Akimbo02Loop_0",
      "Ani_Avatar_NPC_Akimbo02Loop_Sync_0",
      "Ani_Avatar_NPC_Akimbo02AS_0",
      "Ani_Avatar_NPC_Akimbo02AS_Sync_0"
    ],
    "1240": [
      "Ani_Avatar_NPC_HoldHead01BS_0",
      "Ani_Avatar_NPC_HoldHead01BS_Sync_0",
      "Ani_Avatar_NPC_HoldHead01Loop_0",
      "Ani_Avatar_NPC_HoldHead01Loop_Sync_0",
      "Ani_Avatar_NPC_HoldHead01AS_0",
      "Ani_Avatar_NPC_HoldHead01AS_Sync_0"
    ],
    "1030": [
      "Ani_Avatar_NPC_PutHand01BS_0",
      "Ani_Avatar_NPC_PutHand01BS_Sync_0",
      "Ani_Avatar_NPC_PutHand01Loop_0",
      "Ani_Avatar_NPC_PutHand01Loop_Sync_0",
      "Ani_Avatar_NPC_PutHand01AS_0",
      "Ani_Avatar_NPC_PutHand01AS_Sync_0"
    ],
    "1200": [
      "Ani_Avatar_NPC_Greet01_0",
      "Ani_Avatar_NPC_Greet01_Sync_0"
    ],
    "1210": [
      "Ani_Avatar_NPC_SaluteMengde01BS_0",
      "Ani_Avatar_NPC_SaluteMengde01BS_Sync_0",
      "Ani_Avatar_NPC_SaluteMengde01Loop_0",
      "Ani_Avatar_NPC_SaluteMengde01Loop_Sync_0",
      "Ani_Avatar_NPC_SaluteMengde01AS_0",
      "Ani_Avatar_NPC_SaluteMengde01AS_Sync_0"
    ],
    "8010": [],
    "8020": [],
    "1250": [
      "Ani_Avatar_NPC_Request01BS_0",
      "Ani_Avatar_NPC_Request01BS_Sync_0",
      "Ani_Avatar_NPC_Request01Loop_0",
      "Ani_Avatar_NPC_Request01Loop_Sync_0",
      "Ani_Avatar_NPC_Request01AS_0",
      "Ani_Avatar_NPC_Request01AS_Sync_0"
    ],
    "1260": [
      "Ani_Avatar_NPC_Clap01_0",
      "Ani_Avatar_NPC_Clap01_Sync_0"
    ],
    "1270": [
      "Ani_Avatar_NPC_Cheer01BS_0",
      "Ani_Avatar_NPC_Cheer01BS_Sync_0",
      "Ani_Avatar_NPC_Cheer01Loop_0",
      "Ani_Avatar_NPC_Cheer01Loop_Sync_0",
      "Ani_Avatar_NPC_Cheer01AS_0",
      "Ani_Avatar_NPC_Cheer01AS_Sync_0"
    ],
    "1280": [
      "Ani_Avatar_NPC_Investigate01BS_0",
      "Ani_Avatar_NPC_Investigate01BS_Sync_0",
      "Ani_Avatar_NPC_Investigate01Loop_0",
      "Ani_Avatar_NPC_Investigate01Loop_Sync_0",
      "Ani_Avatar_NPC_Investigate01AS_0",
      "Ani_Avatar_NPC_Investigate01AS_Sync_0"
    ],
    "1290": [
      "Ani_Avatar_NPC_Laugh01_0",
      "Ani_Avatar_NPC_Laugh01_Sync_0"
    ],
    "1300": [
      "Ani_Avatar_NPC_Encourage01_0",
      "Ani_Avatar_NPC_Encourage01_Sync_0"
    ],
    "1310": [
      "Ani_Avatar_NPC_Dusting01_0",
      "Ani_Avatar_NPC_Dusting01_Sync_0"
    ],
    "1141": [
      "Ani_Avatar_NPC_PointF01BS_0",
      "Ani_Avatar_NPC_PointF01BS_Sync_0",
      "Ani_Avatar_NPC_PointF01Loop_0",
      "Ani_Avatar_NPC_PointF01Loop_Sync_0",
      "Ani_Avatar_NPC_PointF01AS_0",
      "Ani_Avatar_NPC_PointF01AS_Sync_0"
    ],
    "1142": [
      "Ani_Avatar_NPC_PointL01BS_0",
      "Ani_Avatar_NPC_PointL01BS_Sync_0",
      "Ani_Avatar_NPC_PointL01Loop_0",
      "Ani_Avatar_NPC_PointL01Loop_Sync_0",
      "Ani_Avatar_NPC_PointL01AS_0",
      "Ani_Avatar_NPC_PointL01AS_Sync_0"
    ],
    "1171": [
      "Ani_Avatar_NPC_Talk01_0",
      "Ani_Avatar_NPC_Talk01_Sync_0"
    ],
    "1172": [
      "Ani_Avatar_NPC_Talk02_0",
      "Ani_Avatar_NPC_Talk02_Sync_0"
    ],
    "1173": [
      "Ani_Avatar_NPC_Talk03_0",
      "Ani_Avatar_NPC_Talk03_Sync_0"
    ],
    "1340": [
      "Ani_Avatar_Sword_Show_01_0",
      "Ani_Avatar_Sword_Show_01_Sync_0"
    ],
    "1342": [
      "Ani_Avatar_Channel01BS_0",
      "Ani_Avatar_Sword_Channel01BS_Sync_0",
      "Ani_Avatar_Channel01Loop_0",
      "Ani_Avatar_Sword_Channel01Loop_Sync_0",
      "Ani_Avatar_Channel01AS_0",
      "Ani_Avatar_Sword_Channel01AS_Sync_0"
    ],
    "4503": [
      "Ani_Avatar_Sword_WeaponStandby_0",
      "Ani_Avatar_Sword_WeaponStandby_Sync_0"
    ],
    "4100": [
      "Ani_Avatar_NPC_SitOnFloor01Cycle_0",
      "Ani_Avatar_NPC_SitOnFloor01Cycle_Sync_0"
    ],
    "1343": [
      "Ani_Avatar_Sword_Show_02_0",
      "Ani_Avatar_Sword_Show_02_Sync_0"
    ],
    "1440": [
      "Ani_Avatar_NPC_Whisper01BS_0",
      "Ani_Avatar_NPC_Whisper01BS_Sync_0",
      "Ani_Avatar_NPC_Whisper01Loop_0",
      "Ani_Avatar_NPC_Whisper01Loop_Sync_0",
      "Ani_Avatar_NPC_Whisper01AS_0",
      "Ani_Avatar_NPC_Whisper01AS_Sync_0"
    ],
    "4504": [
      "Ani_Avatar_Sword_ElementalArt_Wind_BS_0",
      "Ani_Avatar_Sword_ElementalArt_Wind_BS_Sync_0",
      "Ani_Avatar_Sword_ElementalArt_Wind_Charge_01_0",
      "Ani_Avatar_Sword_ElementalArt_Wind_Charge_01_Sync_0",
      "Ani_Avatar_Sword_ElementalArt_Wind_Charge_02_0",
      "Ani_Avatar_Sword_ElementalArt_Wind_Charge_02_Sync_0",
      "Ani_Avatar_Sword_ElementalArt_Wind_Strike_0",
      "Ani_Avatar_Sword_ElementalArt_Wind_Strike_Sync_0",
      "Ani_Avatar_Sword_ElementalArt_Wind_AS_0",
      "Ani_Avatar_Sword_ElementalArt_Wind_AS_Sync_0"
    ],
    "4121": [
      "Ani_Avatar_NPC_LieOnGround01Cycle_0",
      "Ani_Avatar_NPC_LieOnGround01Cycle_Sync_0"
    ],
    "133002": [
      "Ani_Avatar_NPC_PersonalRead01BS_0",
      "Ani_Avatar_NPC_PersonalRead01BS_Sync_0",
      "Ani_Avatar_NPC_PersonalRead01Loop_0",
      "Ani_Avatar_NPC_PersonalRead01Loop_Sync_0",
      "Ani_Avatar_NPC_PersonalRead01AS_0",
      "Ani_Avatar_NPC_PersonalRead01AS_Sync_0"
    ],
    "4700": [
      "Ani_Avatar_WalkStopL_0",
      "Ani_Avatar_Sword_WalkStopL_Sync_0",
      "Ani_Avatar_WalkStopL+Mirror_0",
      "Ani_Avatar_Sword_WalkStopL+Mirror_Sync_0"
    ],
    "4701": [
      "Ani_Avatar_RunStopL_0",
      "Ani_Avatar_Sword_RunStopL_Sync_0",
      "Ani_Avatar_RunStopL+Mirror_0",
      "Ani_Avatar_Sword_RunStopL+Mirror_Sync_0"
    ],
    "1371": [
      "Ani_Avatar_NPC_Knock01_0",
      "Ani_Avatar_NPC_Knock01_Sync_0"
    ],
    "301040": [
      "Ani_Avatar_NPC_DiveBackrake01BS_0",
      "Ani_Avatar_NPC_DiveBackrake01BS_Sync_0",
      "Ani_Avatar_NPC_DiveBackrake01Loop_0",
      "Ani_Avatar_NPC_DiveBackrake01Loop_Sync_0",
      "Ani_Avatar_NPC_DiveBackrake01AS_0",
      "Ani_Avatar_NPC_DiveBackrake01AS_Sync_0"
    ],
    "301060": [
      "Ani_Avatar_NPC_DiveForerake01BS_0",
      "Ani_Avatar_NPC_DiveForerake01BS_Sync_0",
      "Ani_Avatar_NPC_DiveForerake01Loop_0",
      "Ani_Avatar_NPC_DiveForerake01Loop_Sync_0",
      "Ani_Avatar_NPC_DiveForerake01AS_0",
      "Ani_Avatar_NPC_DiveForerake01AS_Sync_0"
    ],
    "301200": [
      "Ani_Avatar_NPC_DiveGreet01_0",
      "Ani_Avatar_NPC_DiveGreet01_Sync_0"
    ],
    "301120": [
      "Ani_Avatar_NPC_DiveHoldArm01BS_0",
      "Ani_Avatar_NPC_DiveHoldArm01BS_Sync_0",
      "Ani_Avatar_NPC_DiveHoldArm01Loop_0",
      "Ani_Avatar_NPC_DiveHoldArm01Loop_Sync_0",
      "Ani_Avatar_NPC_DiveHoldArm01AS_0",
      "Ani_Avatar_NPC_DiveHoldArm01AS_Sync_0"
    ],
    "301280": [
      "Ani_Avatar_NPC_DiveInvestigate01BS_0",
      "Ani_Avatar_NPC_DiveInvestigate01BS_Sync_0",
      "Ani_Avatar_NPC_DiveInvestigate01Loop_0",
      "Ani_Avatar_NPC_DiveInvestigate01Loop_Sync_0",
      "Ani_Avatar_NPC_DiveInvestigate01AS_0",
      "Ani_Avatar_NPC_DiveInvestigate01AS_Sync_0"
    ],
    "301141": [
      "Ani_Avatar_NPC_DivePointF01BS_0",
      "Ani_Avatar_NPC_DivePointF01BS_Sync_0",
      "Ani_Avatar_NPC_DivePointF01Loop_0",
      "Ani_Avatar_NPC_DivePointF01Loop_Sync_0",
      "Ani_Avatar_NPC_DivePointF01AS_0",
      "Ani_Avatar_NPC_DivePointF01AS_Sync_0"
    ],
    "301142": [
      "Ani_Avatar_NPC_DivePointL01BS_0",
      "Ani_Avatar_NPC_DivePointL01BS_Sync_0",
      "Ani_Avatar_NPC_DivePointL01Loop_0",
      "Ani_Avatar_NPC_DivePointL01Loop_Sync_0",
      "Ani_Avatar_NPC_DivePointL01AS_0",
      "Ani_Avatar_NPC_DivePointL01AS_Sync_0"
    ],
    "301150": [
      "Ani_Avatar_NPC_DiveRefuse01_0",
      "Ani_Avatar_NPC_DiveRefuse01_Sync_0"
    ],
    "301030": [
      "Ani_Avatar_NPC_DivePutHand01BS_0",
      "Ani_Avatar_NPC_DivePutHand01BS_Sync_0",
      "Ani_Avatar_NPC_DivePutHand01Loop_0",
      "Ani_Avatar_NPC_DivePutHand01Loop_Sync_0",
      "Ani_Avatar_NPC_DivePutHand01AS_0",
      "Ani_Avatar_NPC_DivePutHand01AS_Sync_0"
    ],
    "301110": [
      "Ani_Avatar_NPC_DiveShrug01BS_0",
      "Ani_Avatar_NPC_DiveShrug01BS_Sync_0",
      "Ani_Avatar_NPC_DiveShrug01Loop_0",
      "Ani_Avatar_NPC_DiveShrug01Loop_Sync_0",
      "Ani_Avatar_NPC_DiveShrug01AS_0",
      "Ani_Avatar_NPC_DiveShrug01AS_Sync_0"
    ],
    "301130": [
      "Ani_Avatar_NPC_DiveStrikeChest01BS_0",
      "Ani_Avatar_NPC_DiveStrikeChest01BS_Sync_0",
      "Ani_Avatar_NPC_DiveStrikeChest01Loop_0",
      "Ani_Avatar_NPC_DiveStrikeChest01Loop_Sync_0",
      "Ani_Avatar_NPC_DiveStrikeChest01AS_0",
      "Ani_Avatar_NPC_DiveStrikeChest01AS_Sync_0"
    ],
    "301171": [
      "Ani_Avatar_NPC_DiveTalk01_0",
      "Ani_Avatar_NPC_DiveTalk01_Sync_0"
    ],
    "301172": [
      "Ani_Avatar_NPC_DiveTalk02_0",
      "Ani_Avatar_NPC_DiveTalk02_Sync_0"
    ],
    "301173": [
      "Ani_Avatar_NPC_DiveTalk03_0",
      "Ani_Avatar_NPC_DiveTalk03_Sync_0"
    ],
    "301190": [
      "Ani_Avatar_NPC_DiveThink01BS_0",
      "Ani_Avatar_NPC_DiveThink01BS_Sync_0",
      "Ani_Avatar_NPC_DiveThink01Loop_0",
      "Ani_Avatar_NPC_DiveThink01Loop_Sync_0",
      "Ani_Avatar_NPC_DiveThink01AS_0",
      "Ani_Avatar_NPC_DiveThink01AS_Sync_0"
    ],
    "9031": [],
    "9041": []
  },
  "stateAnimeMap": {
    "Ani_Avatar_NPC_Akimbo01BS_0": 8687207375418286163,
    "Ani_Avatar_NPC_Akimbo01BS_Sync_0": 1130191024392028274,
    "Ani_Avatar_NPC_Backrake01BS_0": 18139229080019537150,
    "Ani_Avatar_NPC_Backrake01BS_Sync_0": 5265572010307135392,
    "Ani_Avatar_NPC_Confuse01BS_0": 11715920638266377077,
    "Ani_Avatar_NPC_Confuse01BS_Sync_0": 4705894173098514094,
    "Ani_Avatar_NPC_Forerake01BS_0": 9482724689116420649,
    "Ani_Avatar_NPC_Forerake01BS_Sync_0": 7414358113651292297,
    "Ani_Avatar_NPC_Afraid01BS_0": 765711825507843518,
    "Ani_Avatar_NPC_Afraid01BS_Sync_0": 14379682290465538400,
    "Ani_Avatar_NPC_Alert01BS_0": 13148714946584556741,
    "Ani_Avatar_NPC_Alert01BS_Sync_0": 15180327246974807244,
    "Ani_Avatar_NPC_Shy01BS_0": 12397695083377975973,
    "Ani_Avatar_NPC_Shy01BS_Sync_0": 867051056390834010,
    "Ani_Avatar_NPC_Shrug01BS_0": 12127153981674536026,
    "Ani_Avatar_NPC_Shrug01BS_Sync_0": 2268575517444205628,
    "Ani_Avatar_NPC_HoldArm01BS_0": 8572885602709724251,
    "Ani_Avatar_NPC_HoldArm01BS_Sync_0": 11001915499245095965,
    "Ani_Avatar_NPC_StrikeChest01BS_0": 171853446183227172,
    "Ani_Avatar_NPC_StrikeChest01BS_Sync_0": 15756053330193708622,
    "Ani_Avatar_NPC_PointR01BS_0": 2450299560933512599,
    "Ani_Avatar_NPC_PointR01BS_Sync_0": 9811525661318669998,
    "Ani_Avatar_NPC_Refuse01_0": 2696954681140064523,
    "Ani_Avatar_NPC_Refuse01_Sync_0": 3662771817128576354,
    "Ani_Avatar_NPC_Downcast01BS_0": 9956927130043792575,
    "Ani_Avatar_NPC_Downcast01BS_Sync_0": 617264178556446778,
    "Ani_Avatar_NPC_Chat01BS_0": 14203316671546789106,
    "Ani_Avatar_NPC_Chat01BS_Sync_0": 3988118394811466842,
    "Ani_Avatar_NPC_Chat02BS_0": 2307247068619310817,
    "Ani_Avatar_NPC_Chat02BS_Sync_0": 17002899993380766524,
    "Ani_Avatar_NPC_Akimbo01Loop_0": 8134597280124444900,
    "Ani_Avatar_NPC_Akimbo01Loop_Sync_0": 1303210240892778275,
    "Ani_Avatar_NPC_Akimbo01AS_0": 11435557217339532046,
    "Ani_Avatar_NPC_Akimbo01AS_Sync_0": 11748340659507578477,
    "Ani_Avatar_NPC_Backrake01Loop_0": 11326868709249839570,
    "Ani_Avatar_NPC_Backrake01Loop_Sync_0": 10723822232945210754,
    "Ani_Avatar_NPC_Confuse01Loop_0": 18277076844544176847,
    "Ani_Avatar_NPC_Confuse01Loop_Sync_0": 15138621599816098193,
    "Ani_Avatar_NPC_Confuse01AS_0": 2490866027202930585,
    "Ani_Avatar_NPC_Confuse01AS_Sync_0": 11206167390866287010,
    "Ani_Avatar_NPC_Forerake01Loop_0": 139899639811135947,
    "Ani_Avatar_NPC_Forerake01Loop_Sync_0": 17715052738690882537,
    "Ani_Avatar_NPC_Forerake01AS_0": 12853025141386432951,
    "Ani_Avatar_NPC_Forerake01AS_Sync_0": 1120352944026448424,
    "Ani_Avatar_NPC_Afraid01Loop_0": 6665345415241813034,
    "Ani_Avatar_NPC_Afraid01Loop_Sync_0": 15460976430712241056,
    "Ani_Avatar_NPC_Afraid01AS_0": 11791885082899028542,
    "Ani_Avatar_NPC_Afraid01AS_Sync_0": 4330777960206593518,
    "Ani_Avatar_NPC_Alert01Loop_0": 15561321928905059974,
    "Ani_Avatar_NPC_Alert01Loop_Sync_0": 3572451137183161172,
    "Ani_Avatar_NPC_Alert01AS_0": 3869554312248714179,
    "Ani_Avatar_NPC_Alert01AS_Sync_0": 14365317940787718822,
    "Ani_Avatar_NPC_Shy01Loop_0": 2350597875515910506,
    "Ani_Avatar_NPC_Shy01Loop_Sync_0": 162849281421892732,
    "Ani_Avatar_NPC_Shy01AS_0": 12897711137515889451,
    "Ani_Avatar_NPC_Shy01AS_Sync_0": 13500045064264039712,
    "Ani_Avatar_NPC_Shrug01Loop_0": 12058799096195234772,
    "Ani_Avatar_NPC_Shrug01Loop_Sync_0": 18032823959708823130,
    "Ani_Avatar_NPC_Shrug01AS_0": 12804492378682926018,
    "Ani_Avatar_NPC_Shrug01AS_Sync_0": 1206911954148059724,
    "Ani_Avatar_NPC_HoldArm01Loop_0": 3495303117420885207,
    "Ani_Avatar_NPC_HoldArm01Loop_Sync_0": 9258037912747659262,
    "Ani_Avatar_NPC_HoldArm01AS_0": 14896751227684016452,
    "Ani_Avatar_NPC_HoldArm01AS_Sync_0": 8736510757599779100,
    "Ani_Avatar_NPC_StrikeChest01Loop_0": 18299091073645162818,
    "Ani_Avatar_NPC_StrikeChest01Loop_Sync_0": 10469500468767640687,
    "Ani_Avatar_NPC_StrikeChest01AS_0": 1076331244716096050,
    "Ani_Avatar_NPC_StrikeChest01AS_Sync_0": 8916248799926250325,
    "Ani_Avatar_NPC_PointR01Loop_0": 13985388450949558776,
    "Ani_Avatar_NPC_PointR01Loop_Sync_0": 546159241294830349,
    "Ani_Avatar_NPC_PointR01AS_0": 7238902072470349650,
    "Ani_Avatar_NPC_PointR01AS_Sync_0": 7587017213329502419,
    "Ani_Avatar_NPC_Downcast01Loop_0": 15555115093798985087,
    "Ani_Avatar_NPC_Downcast01Loop_Sync_0": 6003287803560784086,
    "Ani_Avatar_NPC_Downcast01AS_0": 7115919146685306883,
    "Ani_Avatar_NPC_Downcast01AS_Sync_0": 6450380064035017750,
    "Ani_Avatar_NPC_Chat01Loop_0": 14659987411826124975,
    "Ani_Avatar_NPC_Chat01Loop_Sync_0": 12878573857060114754,
    "Ani_Avatar_NPC_Chat01AS_0": 13102734640143592331,
    "Ani_Avatar_NPC_Chat01AS_Sync_0": 10971458300428174638,
    "Ani_Avatar_NPC_Chat02Loop_0": 3410315206843931438,
    "Ani_Avatar_NPC_Chat02Loop_Sync_0": 9026316957138042636,
    "Ani_Avatar_NPC_Chat02AS_0": 17465793649590367375,
    "Ani_Avatar_NPC_Chat02AS_Sync_0": 9151813898639370642,
    "Ani_Avatar_NPC_Backrake01AS_0": 16029758900288241219,
    "Ani_Avatar_NPC_Backrake01AS_Sync_0": 2498575556318134484,
    "Ani_Avatar_NPC_Think01BS_0": 3267776653497341819,
    "Ani_Avatar_NPC_Think01BS_Sync_0": 1599261819123696578,
    "Ani_Avatar_NPC_Think01Loop_0": 12870466669703548874,
    "Ani_Avatar_NPC_Think01Loop_Sync_0": 17303872902024192901,
    "Ani_Avatar_NPC_Think01AS_0": 5510419431146566170,
    "Ani_Avatar_NPC_Think01AS_Sync_0": 5338295865898910726,
    "Ani_Avatar_NPC_AkimboHand01Loop_0": 16064249559893479989,
    "Ani_Avatar_NPC_AkimboHand01Loop_Sync_0": 6844039726347523511,
    "Ani_Avatar_NPC_HoldArmHand01Loop_0": 7282614356745302843,
    "Ani_Avatar_NPC_HoldArmHand01Loop_Sync_0": 11868029468395145310,
    "Ani_Avatar_NPC_ThinkHand01Loop_0": 1958743396184326307,
    "Ani_Avatar_NPC_ThinkHand01Loop_Sync_0": 11497457469158824173,
    "Ani_Avatar_NPC_Akimbo02BS_0": 11986320645291187843,
    "Ani_Avatar_NPC_Akimbo02BS_Sync_0": 2401326451387665318,
    "Ani_Avatar_NPC_Akimbo02Loop_0": 17957217819281953073,
    "Ani_Avatar_NPC_Akimbo02Loop_Sync_0": 13419233928091623629,
    "Ani_Avatar_NPC_AkimboHand02Loop_0": 1181399341019210846,
    "Ani_Avatar_NPC_AkimboHand02Loop_Sync_0": 14854167117120892390,
    "Ani_Avatar_NPC_Akimbo02AS_0": 18435948481139493343,
    "Ani_Avatar_NPC_Akimbo02AS_Sync_0": 3317038655976316403,
    "Ani_Avatar_NPC_HoldHead01BS_0": 3068465902692858479,
    "Ani_Avatar_NPC_HoldHead01BS_Sync_0": 13658214184709985731,
    "Ani_Avatar_NPC_HoldHead01Loop_0": 17543212152755533704,
    "Ani_Avatar_NPC_HoldHead01Loop_Sync_0": 17427676600647416888,
    "Ani_Avatar_NPC_HoldHead01AS_0": 7706419061033644890,
    "Ani_Avatar_NPC_HoldHead01AS_Sync_0": 15978191287456124241,
    "Ani_Avatar_NPC_PutHand01BS_0": 6016005119198646822,
    "Ani_Avatar_NPC_PutHand01BS_Sync_0": 2277012165285653869,
    "Ani_Avatar_NPC_PutHand01Loop_0": 7576767650025618235,
    "Ani_Avatar_NPC_PutHand01Loop_Sync_0": 5394871706524664847,
    "Ani_Avatar_NPC_PutHand01AS_0": 13151329314105255936,
    "Ani_Avatar_NPC_PutHand01AS_Sync_0": 6726920067415164366,
    "Ani_Avatar_NPC_Greet01_0": 5505813724457782911,
    "Ani_Avatar_NPC_Greet01_Sync_0": 12977629895945491542,
    "Ani_Avatar_NPC_AkimboHand02BS_0": 16692740252883503539,
    "Ani_Avatar_NPC_AkimboHand02BS_Sync_0": 16791110775377609327,
    "Ani_Avatar_NPC_AkimboHand02AS_0": 10816773832952764853,
    "Ani_Avatar_NPC_AkimboHand02AS_Sync_0": 14821457411540525331,
    "Ani_Avatar_NPC_ThinkHand01BS_0": 5171352576585395867,
    "Ani_Avatar_NPC_ThinkHand01BS_Sync_0": 8233185623920364808,
    "Ani_Avatar_NPC_ThinkHand01AS_0": 16997449098437790761,
    "Ani_Avatar_NPC_ThinkHand01AS_Sync_0": 14202909481452429933,
    "Ani_Avatar_NPC_HoldArmHand01BS_0": 13723733493210159374,
    "Ani_Avatar_NPC_HoldArmHand01BS_Sync_0": 1657541383008974567,
    "Ani_Avatar_NPC_HoldArmHand01AS_0": 14576753436420329001,
    "Ani_Avatar_NPC_HoldArmHand01AS_Sync_0": 11680418573159874118,
    "Ani_Avatar_NPC_AkimboHand01BS_0": 10215559716233001902,
    "Ani_Avatar_NPC_AkimboHand01BS_Sync_0": 4860685660160481240,
    "Ani_Avatar_NPC_AkimboHand01AS_0": 15129101753489867980,
    "Ani_Avatar_NPC_AkimboHand01AS_Sync_0": 13156599035986406414,
    "Ani_Avatar_NPC_SaluteMengde01BS_0": 3306235769379269077,
    "Ani_Avatar_NPC_SaluteMengde01BS_Sync_0": 7922603577449023129,
    "Ani_Avatar_NPC_SaluteMengde01Loop_0": 10236314454883616832,
    "Ani_Avatar_NPC_SaluteMengde01Loop_Sync_0": 3675462780301613574,
    "Ani_Avatar_NPC_SaluteMengde01AS_0": 14885348931116653476,
    "Ani_Avatar_NPC_SaluteMengde01AS_Sync_0": 10005753822215066405,
    "Ani_Avatar_NPC_Request01BS_0": 9936857264206168529,
    "Ani_Avatar_NPC_Request01BS_Sync_0": 34485024635405739,
    "Ani_Avatar_NPC_Request01Loop_0": 6374177630891191620,
    "Ani_Avatar_NPC_Request01Loop_Sync_0": 16336369400242026434,
    "Ani_Avatar_NPC_Request01AS_0": 9164730333659093262,
    "Ani_Avatar_NPC_Request01AS_Sync_0": 1868133528133290450,
    "Ani_Avatar_NPC_Clap01_0": 4961091061510278021,
    "Ani_Avatar_NPC_Clap01_Sync_0": 16699392624575000746,
    "Ani_Avatar_NPC_Cheer01BS_0": 7988877946935402340,
    "Ani_Avatar_NPC_Cheer01BS_Sync_0": 9327257881308242300,
    "Ani_Avatar_NPC_Cheer01Loop_0": 9777476586530568780,
    "Ani_Avatar_NPC_Cheer01Loop_Sync_0": 10195371068511657424,
    "Ani_Avatar_NPC_Cheer01AS_0": 16407410337300191228,
    "Ani_Avatar_NPC_Cheer01AS_Sync_0": 4425556534312103784,
    "Ani_Avatar_NPC_Investigate01BS_0": 7522376129043743785,
    "Ani_Avatar_NPC_Investigate01BS_Sync_0": 14541453602167867955,
    "Ani_Avatar_NPC_Investigate01Loop_0": 12738416125288287606,
    "Ani_Avatar_NPC_Investigate01Loop_Sync_0": 15048553506829155550,
    "Ani_Avatar_NPC_Investigate01AS_0": 5807098459050076511,
    "Ani_Avatar_NPC_Investigate01AS_Sync_0": 4970843603618675153,
    "Ani_Avatar_NPC_Laugh01_0": 7876482344547923385,
    "Ani_Avatar_NPC_Laugh01_Sync_0": 8738982866918765572,
    "Ani_Avatar_NPC_Encourage01_0": 1534883273217584015,
    "Ani_Avatar_NPC_Encourage01_Sync_0": 12345748278404528059,
    "Ani_Avatar_NPC_Dusting01_0": 4164629401641599748,
    "Ani_Avatar_NPC_Dusting01_Sync_0": 6613611410741746739,
    "Ani_Avatar_NPC_SitHoldArm01BS_0": 15894387410133763959,
    "Ani_Avatar_NPC_SitHoldArm01BS_Sync_0": 10196212730752961765,
    "Ani_Avatar_NPC_SitHoldArm01Loop_0": 17077048878690754462,
    "Ani_Avatar_NPC_SitHoldArm01Loop_Sync_0": 11060671080361446362,
    "Ani_Avatar_NPC_SitHoldArm01AS_0": 8099871174104290865,
    "Ani_Avatar_NPC_SitHoldArm01AS_Sync_0": 13168130092121025305,
    "Ani_Avatar_NPC_SitHoldArmHand01BS_0": 7290034449212747123,
    "Ani_Avatar_NPC_SitHoldArmHand01BS_Sync_0": 10223339697544843782,
    "Ani_Avatar_NPC_SitHoldArmHand01Loop_0": 17692956009122600378,
    "Ani_Avatar_NPC_SitHoldArmHand01Loop_Sync_0": 4477056125603194179,
    "Ani_Avatar_NPC_SitHoldArmHand01AS_0": 8316703107244978878,
    "Ani_Avatar_NPC_SitHoldArmHand01AS_Sync_0": 4436217644542943338,
    "Ani_Avatar_NPC_PointF01BS_0": 4269772795759373827,
    "Ani_Avatar_NPC_PointF01BS_Sync_0": 7206344686356651060,
    "Ani_Avatar_NPC_PointF01Loop_0": 18088829858859345885,
    "Ani_Avatar_NPC_PointF01Loop_Sync_0": 7451780281800539257,
    "Ani_Avatar_NPC_PointF01AS_0": 2597239928668397361,
    "Ani_Avatar_NPC_PointF01AS_Sync_0": 11629720332327847554,
    "Ani_Avatar_NPC_PointL01BS_0": 8040414391445719757,
    "Ani_Avatar_NPC_PointL01BS_Sync_0": 2167156556423205105,
    "Ani_Avatar_NPC_PointL01Loop_0": 14236168800317313477,
    "Ani_Avatar_NPC_PointL01Loop_Sync_0": 17207645954750011809,
    "Ani_Avatar_NPC_PointL01AS_0": 5681792259202939434,
    "Ani_Avatar_NPC_PointL01AS_Sync_0": 12241092099475238069,
    "Ani_Avatar_NPC_Talk01_0": 16988454061104439873,
    "Ani_Avatar_NPC_Talk01_Sync_0": 17404610280522884513,
    "Ani_Avatar_NPC_Talk02_0": 12917184784851561876,
    "Ani_Avatar_NPC_Talk02_Sync_0": 6086239028174761154,
    "Ani_Avatar_NPC_Talk03_0": 17273248841709214632,
    "Ani_Avatar_NPC_Talk03_Sync_0": 6896131855336263846,
    "Ani_Avatar_Sword_Show_01_0": 13336872001209360873,
    "Ani_Avatar_Sword_Show_01_Sync_0": 13336872001209360873,
    "Ani_Avatar_NPC_SitChat01BS_0": 17103245973768843628,
    "Ani_Avatar_NPC_SitChat01Loop_0": 18200756731242232918,
    "Ani_Avatar_NPC_SitChat01AS_0": 6753239789011064203,
    "Ani_Avatar_NPC_SitShrug01AS_0": 14887505765630971277,
    "Ani_Avatar_NPC_SitShrug01Loop_0": 12610928121848419269,
    "Ani_Avatar_NPC_SitShrug01BS_0": 14081138902873304601,
    "Ani_Avatar_NPC_SitThink01BS_0": 1620694295148601423,
    "Ani_Avatar_NPC_SitThink01BS_Sync_0": 5339935702581886975,
    "Ani_Avatar_NPC_SitThink01Loop_0": 14270342546635714715,
    "Ani_Avatar_NPC_SitThink01Loop_Sync_0": 14083132632070107732,
    "Ani_Avatar_NPC_SitThink01AS_0": 6839562659632883548,
    "Ani_Avatar_NPC_SitThink01AS_Sync_0": 9679953259101832284,
    "Ani_Avatar_Channel01BS_0": 5960687249005625433,
    "Ani_Avatar_Sword_Channel01BS_Sync_0": 11293254487949210841,
    "Ani_Avatar_Channel01Loop_0": 838208740136918127,
    "Ani_Avatar_Sword_Channel01Loop_Sync_0": 7337685014369194041,
    "Ani_Avatar_Channel01AS_0": 3329961036921765553,
    "Ani_Avatar_Sword_Channel01AS_Sync_0": 8171337883650602566,
    "Ani_Avatar_Sword_WeaponStandby_0": 9310133326726814990,
    "Ani_Avatar_Sword_WeaponStandby_Sync_0": 4448568705841416181,
    "Ani_Avatar_Sword_Show_02_0": 43181033397860376,
    "Ani_Avatar_Sword_Show_02_Sync_0": 43181033397860376,
    "Ani_Avatar_NPC_SitOnFloor01Cycle_0": 6434905894950122607,
    "Ani_Avatar_NPC_SitOnFloor01Cycle_Sync_0": 6411711781046969992,
    "Ani_Avatar_NPC_Whisper01BS_0": 1374686681335471908,
    "Ani_Avatar_NPC_Whisper01BS_Sync_0": 15533516703001973854,
    "Ani_Avatar_NPC_Whisper01AS_0": 542087577240958415,
    "Ani_Avatar_NPC_Whisper01AS_Sync_0": 4928685420390779913,
    "Ani_Avatar_NPC_Whisper01Loop_0": 12822069025039711843,
    "Ani_Avatar_NPC_Whisper01Loop_Sync_0": 5243024597776844062,
    "Ani_Avatar_Sword_ElementalArt_Wind_BS_0": 3539745693867254453,
    "Ani_Avatar_Sword_ElementalArt_Wind_BS_Sync_0": 3539745693867254453,
    "Ani_Avatar_Sword_ElementalArt_Wind_Charge_01_0": 15332319019056038468,
    "Ani_Avatar_Sword_ElementalArt_Wind_Charge_01_Sync_0": 15332319019056038468,
    "Ani_Avatar_Sword_ElementalArt_Wind_Charge_02_0": 8326731554515715652,
    "Ani_Avatar_Sword_ElementalArt_Wind_Charge_02_Sync_0": 8326731554515715652,
    "Ani_Avatar_Sword_ElementalArt_Wind_Strike_0": 1277034975738364812,
    "Ani_Avatar_Sword_ElementalArt_Wind_Strike_Sync_0": 1277034975738364812,
    "Ani_Avatar_Sword_ElementalArt_Wind_AS_0": 7384566809477074883,
    "Ani_Avatar_Sword_ElementalArt_Wind_AS_Sync_0": 7384566809477074883,
    "Ani_Avatar_NPC_LieOnGround01Cycle_0": 644913676371134557,
    "Ani_Avatar_NPC_LieOnGround01Cycle_Sync_0": 15669794351909816711,
    "Ani_Avatar_NPC_PersonalRead01BS_0": 16730403200393110794,
    "Ani_Avatar_NPC_PersonalRead01BS_Sync_0": 3665092973082405047,
    "Ani_Avatar_NPC_PersonalRead01Loop_0": 16739651617347429708,
    "Ani_Avatar_NPC_PersonalRead01Loop_Sync_0": 13543946190093585973,
    "Ani_Avatar_NPC_PersonalRead01AS_0": 12262887963549237446,
    "Ani_Avatar_NPC_PersonalRead01AS_Sync_0": 2315838973210713327,
    "Ani_Avatar_WalkStopL_0": 9443906017914286720,
    "Ani_Avatar_Sword_WalkStopL_Sync_0": 16303727835468396172,
    "Ani_Avatar_WalkStopL+Mirror_0": 14563570483641672415,
    "Ani_Avatar_Sword_WalkStopL+Mirror_Sync_0": 6999499398312211609,
    "Ani_Avatar_RunStopL_0": 10072663993743526734,
    "Ani_Avatar_Sword_RunStopL_Sync_0": 11100397667119988389,
    "Ani_Avatar_RunStopL+Mirror_0": 6377232840627418852,
    "Ani_Avatar_Sword_RunStopL+Mirror_Sync_0": 3745781612645547526,
    "Ani_Avatar_NPC_Knock01_0": 11806969891643805439,
    "Ani_Avatar_NPC_Knock01_Sync_0": 13906284462529090914,
    "Ani_Avatar_NPC_DiveBackrake01AS_0": 95043697977345953,
    "Ani_Avatar_NPC_DiveBackrake01AS_Sync_0": 10668068205954476875,
    "Ani_Avatar_NPC_DiveBackrake01BS_0": 2035375095615363161,
    "Ani_Avatar_NPC_DiveBackrake01BS_Sync_0": 5992381512992200914,
    "Ani_Avatar_NPC_DiveBackrake01Loop_0": 12579874746714720117,
    "Ani_Avatar_NPC_DiveBackrake01Loop_Sync_0": 10023545191333551365,
    "Ani_Avatar_NPC_DiveForerake01AS_0": 4636173872657931216,
    "Ani_Avatar_NPC_DiveForerake01AS_Sync_0": 8785207866370246209,
    "Ani_Avatar_NPC_DiveForerake01BS_0": 17757967291566471898,
    "Ani_Avatar_NPC_DiveForerake01BS_Sync_0": 15303107982320125301,
    "Ani_Avatar_NPC_DiveForerake01Loop_0": 17847020514573542298,
    "Ani_Avatar_NPC_DiveForerake01Loop_Sync_0": 13767565494136442692,
    "Ani_Avatar_NPC_DiveGreet01_0": 9694681941051889679,
    "Ani_Avatar_NPC_DiveGreet01_Sync_0": 2541157731801249090,
    "Ani_Avatar_NPC_DiveHoldArm01AS_0": 14100216753400094222,
    "Ani_Avatar_NPC_DiveHoldArm01AS_Sync_0": 14943155297717575724,
    "Ani_Avatar_NPC_DiveHoldArm01BS_0": 7200079008167174710,
    "Ani_Avatar_NPC_DiveHoldArm01BS_Sync_0": 15205189426003153019,
    "Ani_Avatar_NPC_DiveHoldArm01Loop_0": 15859908219023967828,
    "Ani_Avatar_NPC_DiveHoldArm01Loop_Sync_0": 2749987763634719364,
    "Ani_Avatar_NPC_DiveInvestigate01AS_0": 11322350325983929861,
    "Ani_Avatar_NPC_DiveInvestigate01AS_Sync_0": 5813953249580270990,
    "Ani_Avatar_NPC_DiveInvestigate01BS_0": 6467352839663240089,
    "Ani_Avatar_NPC_DiveInvestigate01BS_Sync_0": 846701015372031893,
    "Ani_Avatar_NPC_DiveInvestigate01Loop_0": 16370774739237427284,
    "Ani_Avatar_NPC_DiveInvestigate01Loop_Sync_0": 16357374668963011714,
    "Ani_Avatar_NPC_DivePointF01AS_0": 15283119024979826870,
    "Ani_Avatar_NPC_DivePointF01AS_Sync_0": 1671296893531956193,
    "Ani_Avatar_NPC_DivePointF01BS_0": 691406585519504751,
    "Ani_Avatar_NPC_DivePointF01BS_Sync_0": 9575016655920644272,
    "Ani_Avatar_NPC_DivePointF01Loop_0": 5156031847051241226,
    "Ani_Avatar_NPC_DivePointF01Loop_Sync_0": 10553336892159632384,
    "Ani_Avatar_NPC_DivePointL01AS_0": 2074958812511421526,
    "Ani_Avatar_NPC_DivePointL01AS_Sync_0": 17593247733949892105,
    "Ani_Avatar_NPC_DivePointL01BS_0": 17151178525057698477,
    "Ani_Avatar_NPC_DivePointL01BS_Sync_0": 18034105697032759312,
    "Ani_Avatar_NPC_DivePointL01Loop_0": 2105440747926404343,
    "Ani_Avatar_NPC_DivePointL01Loop_Sync_0": 2147708627532122458,
    "Ani_Avatar_NPC_DivePutHand01AS_0": 5346991644796887870,
    "Ani_Avatar_NPC_DivePutHand01AS_Sync_0": 1892533365304734544,
    "Ani_Avatar_NPC_DivePutHand01BS_0": 1818740665870903,
    "Ani_Avatar_NPC_DivePutHand01BS_Sync_0": 878450782902493801,
    "Ani_Avatar_NPC_DivePutHand01Loop_0": 15328912652849406658,
    "Ani_Avatar_NPC_DivePutHand01Loop_Sync_0": 645242112229561834,
    "Ani_Avatar_NPC_DiveRefuse01_0": 4597884942838200309,
    "Ani_Avatar_NPC_DiveRefuse01_Sync_0": 44779899004206564,
    "Ani_Avatar_NPC_DiveShrug01AS_0": 3292578048102403672,
    "Ani_Avatar_NPC_DiveShrug01AS_Sync_0": 14557165612930695849,
    "Ani_Avatar_NPC_DiveShrug01BS_0": 12024521962332728248,
    "Ani_Avatar_NPC_DiveShrug01BS_Sync_0": 14882027838833204118,
    "Ani_Avatar_NPC_DiveShrug01Loop_0": 7627701699276724987,
    "Ani_Avatar_NPC_DiveShrug01Loop_Sync_0": 15451351778149990195,
    "Ani_Avatar_NPC_DiveStrikeChest01AS_0": 13263873008500349820,
    "Ani_Avatar_NPC_DiveStrikeChest01AS_Sync_0": 15871160420219604171,
    "Ani_Avatar_NPC_DiveStrikeChest01BS_0": 14738429188045033637,
    "Ani_Avatar_NPC_DiveStrikeChest01BS_Sync_0": 13426960333360452383,
    "Ani_Avatar_NPC_DiveStrikeChest01Loop_0": 15993038785205849586,
    "Ani_Avatar_NPC_DiveStrikeChest01Loop_Sync_0": 3612027224752935228,
    "Ani_Avatar_NPC_DiveTalk01_0": 4312990413260812307,
    "Ani_Avatar_NPC_DiveTalk01_Sync_0": 742861566689723332,
    "Ani_Avatar_NPC_DiveTalk02_0": 4761453161211479372,
    "Ani_Avatar_NPC_DiveTalk02_Sync_0": 8732461495416141082,
    "Ani_Avatar_NPC_DiveTalk03_0": 9458849301191764921,
    "Ani_Avatar_NPC_DiveTalk03_Sync_0": 13212907648727529633,
    "Ani_Avatar_NPC_DiveThink01AS_0": 15432732085332732518,
    "Ani_Avatar_NPC_DiveThink01AS_Sync_0": 8605468668898968986,
    "Ani_Avatar_NPC_DiveThink01BS_0": 4642355302516064978,
    "Ani_Avatar_NPC_DiveThink01BS_Sync_0": 17296605204631544056,
    "Ani_Avatar_NPC_DiveThink01Loop_0": 10579379433746699525,
    "Ani_Avatar_NPC_DiveThink01Loop_Sync_0": 5028110398914385892
  }
}