{
  "luaDataPath": "",
  "entityBan": "",
  "actors": [
    {
      "alias": "Avatar",
      "visible": true,
      "bornPointName": "",
      "relativePosType": "AVATAR_NEW",
      "relativePosNpcAlias": "",
      "_bindMovingTargetKey": ""
    }
  ],
  "group": [
    [
      {
        "$type": "MoleMole.Config.ConfigUITriggerInterAction",
        "type": "UI_TRIGGER",
        "contextName": "GcgLevelPage",
        "_param": ""
      },
      {
        "$type": "NPCNMEOCADD",
        "type": "LOOK_AT",
        "enableHead": true,
        "useTargetPos": true,
        "targetOffset": {
          "y": 1.0,
          "z": 3.5
        },
        "headTurnTime": -1.0,
        "targetNpcAlias": "",
        "openBackProtect": true,
        "targetNpcLookAtPoint": "",
        "BHGPHGNFCBF": ""
      },
      {
        "$type": "MoleMole.Config.ConfigVisibleInterAction",
        "type": "VISIBLE",
        "aliasList": [
          "Avatar"
        ],
        "_extraParam": ""
      },
      {
        "$type": "IEKHMHNHENB",
        "type": "STEER_TO",
        "steerType": "RETURN",
        "targetNpcAlias": "",
        "BHGPHGNFCBF": ""
      },
      {
        "$type": "EFHODGEJOHJ",
        "type": "CAMERA_MOVE",
        "cameraPosType": "RELATIVE_TO_INTEE_ONLY",
        "camPosOffset": {
          "y": 1.0,
          "z": 3.5
        },
        "nearLength": 5.0,
        "camTargetType": "RELATIVE_TO_INTEE_FORWARD",
        "camForwardTargetOffset": {
          "x": -0.6000000238418579,
          "y": 1.1799999475479126
        },
        "camFov": 25.0,
        "lerpRatio": 1.0,
        "lerpPattern": 6,
        "cameraBlendType": "EaseInOutCubic",
        "MDKBPBJCMHH": {
          "duration": 0.0
        },
        "rotateAngle": 4.0,
        "targetNpcAlias": "",
        "PHGBNNGCJKJ": "",
        "exFreestyleTypeList": [
          8010,
          8020,
          8011,
          8012,
          8013,
          8060,
          8061,
          8062,
          8040,
          8041
        ],
        "exCamPosOffset": {
          "x": 1.2999999523162842,
          "y": 1.0800000429153442,
          "z": 1.399999976158142
        },
        "exCamForwardTargetOffset": {
          "x": 0.20000000298023224,
          "y": 1.0700000524520874,
          "z": 0.3400000035762787
        },
        "NFILMKCFHEB": "",
        "BGPNGHDAECF": ""
      }
    ],
    [
      {
        "$type": "EFHODGEJOHJ",
        "type": "CAMERA_FOCUS",
        "duration": 1.0,
        "cameraPosType": "EXIT",
        "camTargetType": "TO_INTEE",
        "lerpRatio": 2.0,
        "lerpPattern": 9,
        "targetNpcAlias": "",
        "PHGBNNGCJKJ": "",
        "NFILMKCFHEB": "",
        "BGPNGHDAECF": ""
      },
      {
        "$type": "MoleMole.Config.ConfigVisibleInterAction",
        "type": "VISIBLE",
        "duration": 1.0,
        "aliasList": [
          "Avatar"
        ],
        "isVisible": true,
        "useDither": true,
        "_extraParam": ""
      },
      {
        "$type": "NPCNMEOCADD",
        "type": "LOOK_AT",
        "enableHead": true,
        "headTurnTime": 0.5,
        "targetNpcAlias": "NONE",
        "openBackProtect": true,
        "targetNpcLookAtPoint": "",
        "BHGPHGNFCBF": ""
      },
      {
        "$type": "NPCNMEOCADD",
        "type": "LOOK_AT",
        "delayTime": 0.5,
        "headTurnTime": 0.5,
        "targetNpcAlias": "NONE",
        "openBackProtect": true,
        "targetNpcLookAtPoint": "",
        "BHGPHGNFCBF": ""
      },
      {
        "$type": "MJFAIFFAGOF",
        "type": "DIALOG_CLEAR",
        "playAudio": false
      }
    ]
  ]
}