{
  "luaDataPath": "",
  "entityBan": "",
  "group": [
    [
      {
        "$type": "MoleMole.Config.ConfigUITriggerInterAction",
        "type": "UI_TRIGGER",
        "contextName": "GcgLevelPage",
        "_param": ""
      },
      {
        "$type": "NPCNMEOCADD",
        "type": "LOOK_AT",
        "enableHead": true,
        "useTargetPos": true,
        "targetOffset": {
          "y": 1.0,
          "z": 3.0
        },
        "headTurnTime": -1.0,
        "targetNpcAlias": "",
        "openBackProtect": true,
        "targetNpcLookAtPoint": "",
        "BHGPHGNFCBF": ""
      },
      {
        "$type": "MoleMole.Config.ConfigVisibleInterAction",
        "type": "VISIBLE",
        "target": "ACTION_AVATAR",
        "_extraParam": ""
      },
      {
        "$type": "IEKHMHNHENB",
        "type": "STEER_TO",
        "steerType": "RETURN",
        "targetNpcAlias": "",
        "BHGPHGNFCBF": ""
      },
      {
        "$type": "EFHODGEJOHJ",
        "type": "CAMERA_MOVE",
        "cameraPosType": "RELATIVE_TO_INTEE_ONLY",
        "camPosOffset": {
          "y": 1.4700000286102295,
          "z": 2.6500000953674316
        },
        "nearLength": 5.0,
        "camTargetType": "RELATIVE_TO_INTEE_FORWARD",
        "camForwardTargetOffset": {
          "x": -0.5,
          "y": 1.4700000286102295
        },
        "camFov": 25.0,
        "lerpRatio": 1.0,
        "lerpPattern": 6,
        "cameraBlendType": "EaseInOutCubic",
        "MDKBPBJCMHH": {
          "duration": 0.0
        },
        "rotateAngle": 4.0,
        "targetNpcAlias": "",
        "PHGBNNGCJKJ": "",
        "NFILMKCFHEB": "",
        "BGPNGHDAECF": ""
      }
    ],
    [
      {
        "$type": "EFHODGEJOHJ",
        "type": "CAMERA_FOCUS",
        "duration": 1.0,
        "cameraPosType": "EXIT",
        "camTargetType": "TO_INTEE",
        "lerpRatio": 2.0,
        "lerpPattern": 9,
        "targetNpcAlias": "",
        "PHGBNNGCJKJ": "",
        "NFILMKCFHEB": "",
        "BGPNGHDAECF": ""
      },
      {
        "$type": "MoleMole.Config.ConfigVisibleInterAction",
        "type": "VISIBLE",
        "duration": 1.0,
        "isVisible": true,
        "useDither": true,
        "target": "ACTION_AVATAR",
        "_extraParam": ""
      },
      {
        "$type": "NPCNMEOCADD",
        "type": "LOOK_AT",
        "enableHead": true,
        "headTurnTime": 0.5,
        "targetNpcAlias": "NONE",
        "openBackProtect": true,
        "targetNpcLookAtPoint": "",
        "BHGPHGNFCBF": ""
      },
      {
        "$type": "NPCNMEOCADD",
        "type": "LOOK_AT",
        "delayTime": 0.5,
        "headTurnTime": 0.5,
        "targetNpcAlias": "NONE",
        "openBackProtect": true,
        "targetNpcLookAtPoint": "",
        "BHGPHGNFCBF": ""
      },
      {
        "$type": "MJFAIFFAGOF",
        "type": "DIALOG_CLEAR",
        "playAudio": false
      }
    ]
  ]
}