[
  {
    "$type": "FOFPICOLHNK",
    "id": 10160001,
    "gameParam": "QuestIdList",
    "value": 35901
  },
  {
    "$type": "FOFPICOLHNK",
    "id": 10160002,
    "gameParam": "QuestIdList",
    "value": 36005
  },
  {
    "$type": "NCLADMNMCKI",
    "id": 10160003,
    "innerId": 10160002
  },
  {
    "$type": "FOFPICOLHNK",
    "id": 10160004,
    "gameParam": "QuestIdList",
    "value": 35723
  },
  {
    "$type": "CPNKNIONJHO",
    "id": 10160005,
    "gameParam": "QuestIdList",
    "values": [
      37103,
      37104,
      37105,
      37106,
      37107,
      37108,
      37109,
      37110,
      37111,
      37112,
      37113
    ]
  },
  {
    "$type": "CPNKNIONJHO",
    "id": 10160006,
    "gameParam": "QuestIdList",
    "values": [
      37506,
      37507
    ]
  },
  {
    "$type": "FOFPICOLHNK",
    "id": 10160007,
    "gameParam": "QuestIdList",
    "value": 37602
  },
  {
    "$type": "FOFPICOLHNK",
    "id": 10160008,
    "gameParam": "QuestIdList",
    "value": 39303
  }
]