{
  "luaDataPath": "",
  "isSimpleTalk": true,
  "entityBan": "",
  "disableNpcLod": true,
  "protectNpcMobileLod": true,
  "startFade": {
    "startFadeOutDuration": 0.0
  },
  "endFade": {
    "startFadeOutDuration": 0.0
  },
  "actors": [
    {
      "alias": "Avatar",
      "visible": true,
      "bornPointName": "N10000005_T7325116",
      "relativePosType": "AVATAR_NEW",
      "relativePosNpcAlias": "",
      "_bindMovingTargetKey": ""
    },
    {
      "configID": 1005,
      "alias": "1005",
      "visible": true,
      "bornPointName": "N1005_T7325116",
      "removeActorType": "REMOVE_WITH_DISAPPEAR",
      "relativePosType": "AVATAR_NEW",
      "relativePosNpcAlias": "",
      "_bindMovingTargetKey": ""
    },
    {
      "configID": 4283,
      "alias": "4283",
      "visible": true,
      "bornPointName": "N4283_T7325116",
      "removeActorType": "REMOVE",
      "forceCreateDaily": true,
      "relativePosType": "AVATAR_NEW",
      "relativePosNpcAlias": "",
      "_bindMovingTargetKey": ""
    },
    {
      "configID": 20883,
      "alias": "20883",
      "visible": true,
      "bornPointName": "N20883_T7325116",
      "removeActorType": "REMOVE",
      "relativePosType": "AVATAR_NEW",
      "relativePosNpcAlias": "",
      "_bindMovingTargetKey": ""
    }
  ],
  "group": [
    [
      {
        "$type": "EFHODGEJOHJ",
        "type": "CAMERA_FOCUS",
        "duration": 0.10000000149011612,
        "actionId": 103,
        "targetNpcAlias": "",
        "PHGBNNGCJKJ": "",
        "NFILMKCFHEB": "",
        "BGPNGHDAECF": ""
      },
      {
        "$type": "MoleMole.Config.ConfigTimeProtectAction",
        "type": "TIME_PROTECT",
        "duration": 0.10000000149011612,
        "actionId": 104
      },
      {
        "$type": "IEKHMHNHENB",
        "type": "STEER_TO",
        "delayTime": 0.30000001192092896,
        "duration": 0.800000011920929,
        "aliasList": [
          "Avatar"
        ],
        "actionId": 172,
        "steerType": "TO_TARGET_ADVANCED",
        "useSteerAnim": true,
        "interruptFreestyle": true,
        "forceSteer": true,
        "targetNpcAlias": "1005",
        "fixInterNull": true,
        "BHGPHGNFCBF": ""
      },
      {
        "$type": "IEKHMHNHENB",
        "type": "STEER_TO",
        "delayTime": 0.30000001192092896,
        "duration": 0.800000011920929,
        "aliasList": [
          "4283"
        ],
        "actionId": 173,
        "steerType": "TO_LOCAL_AVATAR_ADVANCED",
        "useSteerAnim": true,
        "interruptFreestyle": true,
        "forceSteer": true,
        "targetNpcAlias": "",
        "fixInterNull": true,
        "BHGPHGNFCBF": ""
      },
      {
        "$type": "IEKHMHNHENB",
        "type": "STEER_TO",
        "delayTime": 0.30000001192092896,
        "duration": 0.800000011920929,
        "aliasList": [
          "20883"
        ],
        "actionId": 174,
        "steerType": "TO_LOCAL_AVATAR_ADVANCED",
        "useSteerAnim": true,
        "interruptFreestyle": true,
        "forceSteer": true,
        "targetNpcAlias": "",
        "fixInterNull": true,
        "BHGPHGNFCBF": ""
      }
    ],
    [
      {
        "$type": "MJFAIFFAGOF",
        "type": "DIALOG",
        "aliasList": [
          "1005"
        ],
        "actionId": 107,
        "dialogID": 732511601,
        "protectTime": 0.5
      }
    ],
    [
      {
        "$type": "MJFAIFFAGOF",
        "type": "DIALOG",
        "aliasList": [
          "1005"
        ],
        "actionId": 109,
        "dialogID": 732511602,
        "protectTime": 0.5
      }
    ],
    [
      {
        "$type": "MJFAIFFAGOF",
        "type": "DIALOG",
        "aliasList": [
          "4283"
        ],
        "actionId": 111,
        "dialogID": 732511603,
        "protectTime": 0.5
      }
    ],
    [
      {
        "$type": "MJFAIFFAGOF",
        "type": "DIALOG",
        "aliasList": [
          "4283"
        ],
        "actionId": 113,
        "dialogID": 732511604,
        "protectTime": 0.5
      }
    ],
    [
      {
        "$type": "MJFAIFFAGOF",
        "type": "DIALOG",
        "aliasList": [
          "4283"
        ],
        "actionId": 115,
        "dialogID": 732511605,
        "protectTime": 0.5
      }
    ],
    [
      {
        "$type": "MJFAIFFAGOF",
        "type": "DIALOG",
        "aliasList": [
          "4283"
        ],
        "actionId": 117,
        "dialogID": 732511606,
        "protectTime": 0.5
      }
    ],
    [
      {
        "$type": "MJFAIFFAGOF",
        "type": "DIALOG",
        "aliasList": [
          "4283"
        ],
        "actionId": 119,
        "dialogID": 732511607,
        "protectTime": 0.5
      }
    ],
    [
      {
        "$type": "MJFAIFFAGOF",
        "type": "DIALOG",
        "aliasList": [
          "1005"
        ],
        "actionId": 121,
        "dialogID": 732511608,
        "protectTime": 0.5
      },
      {
        "$type": "OBCDECFOOBC",
        "type": "DIALOG_SELECT",
        "delayTime": 0.4000000059604645,
        "aliasList": [
          "Avatar"
        ],
        "actionId": 122,
        "dialogIDList": [
          732511609,
          732511611
        ],
        "grpIDList": [
          3889175974,
          3889175975
        ],
        "useGrpId": true,
        "countDownGrpId": 2342214601
      }
    ],
    [
      {
        "$type": "MJFAIFFAGOF",
        "type": "DIALOG",
        "aliasList": [
          "20883"
        ],
        "actionId": 124,
        "dialogID": 732511610,
        "protectTime": 0.5
      }
    ],
    [
      {
        "$type": "MJFAIFFAGOF",
        "type": "DIALOG",
        "aliasList": [
          "20883"
        ],
        "actionId": 126,
        "dialogID": 732511612,
        "protectTime": 0.5
      }
    ],
    [
      {
        "$type": "MJFAIFFAGOF",
        "type": "DIALOG",
        "aliasList": [
          "4283"
        ],
        "actionId": 128,
        "dialogID": 732511613,
        "protectTime": 0.5
      }
    ],
    [
      {
        "$type": "MJFAIFFAGOF",
        "type": "DIALOG",
        "aliasList": [
          "20883"
        ],
        "actionId": 130,
        "dialogID": 732511614,
        "protectTime": 0.5
      }
    ],
    [
      {
        "$type": "MJFAIFFAGOF",
        "type": "DIALOG",
        "aliasList": [
          "4283"
        ],
        "actionId": 132,
        "dialogID": 732511615,
        "protectTime": 0.5
      }
    ],
    [
      {
        "$type": "MJFAIFFAGOF",
        "type": "DIALOG",
        "aliasList": [
          "4283"
        ],
        "actionId": 134,
        "dialogID": 732511616,
        "protectTime": 0.5
      }
    ],
    [
      {
        "$type": "MJFAIFFAGOF",
        "type": "DIALOG",
        "aliasList": [
          "4283"
        ],
        "actionId": 136,
        "dialogID": 732511617,
        "protectTime": 0.5
      }
    ],
    [
      {
        "$type": "MJFAIFFAGOF",
        "type": "DIALOG",
        "aliasList": [
          "4283"
        ],
        "actionId": 138,
        "dialogID": 732511618,
        "protectTime": 0.5
      }
    ],
    [
      {
        "$type": "MJFAIFFAGOF",
        "type": "DIALOG",
        "aliasList": [
          "1005"
        ],
        "actionId": 140,
        "dialogID": 732511619,
        "protectTime": 0.5
      }
    ],
    [
      {
        "$type": "MJFAIFFAGOF",
        "type": "DIALOG",
        "aliasList": [
          "4283"
        ],
        "actionId": 142,
        "dialogID": 732511620,
        "protectTime": 0.5
      }
    ],
    [
      {
        "$type": "MJFAIFFAGOF",
        "type": "DIALOG",
        "aliasList": [
          "4283"
        ],
        "actionId": 144,
        "dialogID": 732511621,
        "protectTime": 0.5
      }
    ],
    [
      {
        "$type": "MJFAIFFAGOF",
        "type": "DIALOG",
        "aliasList": [
          "4283"
        ],
        "actionId": 146,
        "dialogID": 732511622,
        "protectTime": 0.5
      }
    ],
    [
      {
        "$type": "MJFAIFFAGOF",
        "type": "DIALOG",
        "aliasList": [
          "4283"
        ],
        "actionId": 148,
        "dialogID": 732511623,
        "protectTime": 0.5
      }
    ],
    [
      {
        "$type": "MJFAIFFAGOF",
        "type": "DIALOG",
        "aliasList": [
          "4283"
        ],
        "actionId": 150,
        "dialogID": 732511624,
        "protectTime": 0.5
      },
      {
        "$type": "OBCDECFOOBC",
        "type": "DIALOG_SELECT",
        "delayTime": 0.4000000059604645,
        "aliasList": [
          "Avatar"
        ],
        "actionId": 151,
        "dialogIDList": [
          732511625,
          732511628
        ],
        "grpIDList": [
          3889176009,
          3889176011
        ],
        "useGrpId": true,
        "countDownGrpId": 2342214601
      }
    ],
    [
      {
        "$type": "MJFAIFFAGOF",
        "type": "DIALOG",
        "aliasList": [
          "4283"
        ],
        "actionId": 153,
        "dialogID": 732511626,
        "protectTime": 0.5
      }
    ],
    [
      {
        "$type": "MJFAIFFAGOF",
        "type": "DIALOG",
        "aliasList": [
          "4283"
        ],
        "actionId": 155,
        "dialogID": 732511627,
        "protectTime": 0.5
      }
    ],
    [
      {
        "$type": "MJFAIFFAGOF",
        "type": "DIALOG",
        "aliasList": [
          "4283"
        ],
        "actionId": 157,
        "dialogID": 732511629,
        "protectTime": 0.5
      }
    ],
    [
      {
        "$type": "MJFAIFFAGOF",
        "type": "DIALOG",
        "aliasList": [
          "4283"
        ],
        "actionId": 159,
        "dialogID": 732511630,
        "protectTime": 0.5
      }
    ],
    [
      {
        "$type": "MJFAIFFAGOF",
        "type": "DIALOG",
        "aliasList": [
          "4283"
        ],
        "actionId": 161,
        "dialogID": 732511631,
        "protectTime": 0.5
      }
    ],
    [
      {
        "$type": "MJFAIFFAGOF",
        "type": "DIALOG",
        "aliasList": [
          "4283"
        ],
        "actionId": 163,
        "dialogID": 732511632,
        "protectTime": 0.5
      }
    ],
    [
      {
        "$type": "MJFAIFFAGOF",
        "type": "DIALOG",
        "aliasList": [
          "4283"
        ],
        "actionId": 165,
        "dialogID": 732511633,
        "protectTime": 0.5
      }
    ],
    [
      {
        "$type": "MJFAIFFAGOF",
        "type": "DIALOG",
        "aliasList": [
          "1005"
        ],
        "actionId": 167,
        "dialogID": 732511634,
        "protectTime": 0.5
      }
    ],
    [
      {
        "$type": "MJFAIFFAGOF",
        "type": "DIALOG",
        "aliasList": [
          "4283"
        ],
        "actionId": 169,
        "dialogID": 732511635,
        "protectTime": 0.5
      }
    ],
    [
      {
        "$type": "MJFAIFFAGOF",
        "type": "DIALOG",
        "aliasList": [
          "4283"
        ],
        "actionId": 171,
        "dialogID": 732511636,
        "protectTime": 0.5
      }
    ],
    [
      {
        "$type": "MoleMole.Config.ConfigTimeProtectAction",
        "type": "TIME_PROTECT",
        "duration": 0.10000000149011612,
        "actionId": 105
      }
    ]
  ],
  "groupId": [
    {
      "grpId": 2342214602,
      "nextGrpId": 2342214603
    },
    {
      "index": 1,
      "grpId": 2342214603,
      "nextGrpId": 2342214604
    },
    {
      "index": 2,
      "grpId": 2342214604,
      "nextGrpId": 2342214605
    },
    {
      "index": 3,
      "grpId": 2342214605,
      "nextGrpId": 2342214606
    },
    {
      "index": 4,
      "grpId": 2342214606,
      "nextGrpId": 2342214607
    },
    {
      "index": 5,
      "grpId": 2342214607,
      "nextGrpId": 2342214608
    },
    {
      "index": 6,
      "grpId": 2342214608,
      "nextGrpId": 2342214609
    },
    {
      "index": 7,
      "grpId": 2342214609,
      "nextGrpId": 2342214610
    },
    {
      "index": 8,
      "grpId": 2342214610,
      "nextGrpId": 3889175974
    },
    {
      "index": 9,
      "grpId": 3889175974,
      "nextGrpId": 3889175976
    },
    {
      "index": 10,
      "grpId": 3889175975,
      "nextGrpId": 3889175976
    },
    {
      "index": 11,
      "grpId": 3889175976,
      "nextGrpId": 3889175977
    },
    {
      "index": 12,
      "grpId": 3889175977,
      "nextGrpId": 3889175978
    },
    {
      "index": 13,
      "grpId": 3889175978,
      "nextGrpId": 3889175979
    },
    {
      "index": 14,
      "grpId": 3889175979,
      "nextGrpId": 3889175980
    },
    {
      "index": 15,
      "grpId": 3889175980,
      "nextGrpId": 3889175981
    },
    {
      "index": 16,
      "grpId": 3889175981,
      "nextGrpId": 3889175982
    },
    {
      "index": 17,
      "grpId": 3889175982,
      "nextGrpId": 3889175983
    },
    {
      "index": 18,
      "grpId": 3889175983,
      "nextGrpId": 3889176005
    },
    {
      "index": 19,
      "grpId": 3889176005,
      "nextGrpId": 3889176006
    },
    {
      "index": 20,
      "grpId": 3889176006,
      "nextGrpId": 3889176007
    },
    {
      "index": 21,
      "grpId": 3889176007,
      "nextGrpId": 3889176008
    },
    {
      "index": 22,
      "grpId": 3889176008,
      "nextGrpId": 3889176009
    },
    {
      "index": 23,
      "grpId": 3889176009,
      "nextGrpId": 3889176010
    },
    {
      "index": 24,
      "grpId": 3889176010,
      "nextGrpId": 3889176014
    },
    {
      "index": 25,
      "grpId": 3889176011,
      "nextGrpId": 3889176012
    },
    {
      "index": 26,
      "grpId": 3889176012,
      "nextGrpId": 3889176013
    },
    {
      "index": 27,
      "grpId": 3889176013,
      "nextGrpId": 3889176014
    },
    {
      "index": 28,
      "grpId": 3889176014,
      "nextGrpId": 3889176036
    },
    {
      "index": 29,
      "grpId": 3889176036,
      "nextGrpId": 3889176037
    },
    {
      "index": 30,
      "grpId": 3889176037,
      "nextGrpId": 3889176038
    },
    {
      "index": 31,
      "grpId": 3889176038,
      "nextGrpId": 3889176039
    },
    {
      "index": 32,
      "grpId": 3889176039,
      "nextGrpId": 3889176040
    },
    {
      "index": 33,
      "grpId": 3889176040,
      "nextGrpId": 3889176041
    }
  ],
  "freeStyleDic": {
    "4283": []
  }
}