{
  "luaDataPath": "",
  "startBlackKeepTime": 0.5,
  "entityBan": "",
  "disableNpcLod": true,
  "startFade": {
    "startFadeInDuration": 0.5,
    "startFadeOutDuration": 0.5
  },
  "endFade": {
    "startFadeOutDuration": 0.0
  },
  "actors": [
    {
      "alias": "Avatar",
      "visible": true,
      "bornPointName": "Q2205004Player",
      "relativePosNpcAlias": "",
      "_bindMovingTargetKey": ""
    },
    {
      "configID": 3105,
      "alias": "3105",
      "visible": true,
      "bornPointName": "Q2205004Cat",
      "forceCreateDaily": true,
      "relativePosNpcAlias": "",
      "_bindMovingTargetKey": ""
    },
    {
      "configID": 1005,
      "alias": "1005",
      "visible": true,
      "bornPointName": "Q2205004Paimon",
      "removeActorType": "REMOVE_WITH_DISAPPEAR",
      "relativePosNpcAlias": "",
      "_bindMovingTargetKey": ""
    },
    {
      "configID": 3189,
      "alias": "3189",
      "visible": true,
      "bornPointName": "Q2205004Cat1",
      "removeActorType": "REMOVE",
      "forceCreateDaily": true,
      "relativePosNpcAlias": "",
      "_bindMovingTargetKey": ""
    }
  ],
  "group": [
    [
      {
        "$type": "MoleMole.Config.ConfigSimpleBlackScreenAction",
        "type": "SIMPLE_BLACK_SCREEN",
        "duration": 1.0,
        "durationToBlack": 0.5,
        "durationKeepBlack": 0.5,
        "durationFromBlack": 0.5,
        "textMapID": ""
      },
      {
        "$type": "MoleMole.Config.ConfigTimeProtectAction",
        "type": "TIME_PROTECT",
        "duration": 1.0
      }
    ],
    [
      {
        "$type": "MJFAIFFAGOF",
        "type": "DIALOG",
        "aliasList": [
          "3105"
        ],
        "dialogID": 220500401,
        "protectTime": 0.5
      }
    ],
    [
      {
        "$type": "MJFAIFFAGOF",
        "type": "DIALOG",
        "aliasList": [
          "3105"
        ],
        "dialogID": 220500402,
        "protectTime": 0.5
      }
    ],
    [
      {
        "$type": "MJFAIFFAGOF",
        "type": "DIALOG",
        "aliasList": [
          "1005"
        ],
        "dialogID": 220500403,
        "protectTime": 0.5
      }
    ],
    [
      {
        "$type": "OBCDECFOOBC",
        "type": "DIALOG_SELECT",
        "delayTime": 0.4000000059604645,
        "aliasList": [
          "Avatar"
        ],
        "dialogIDList": [
          220500405
        ],
        "grpIDList": [
          433632346
        ],
        "useGrpId": true
      },
      {
        "$type": "MJFAIFFAGOF",
        "type": "DIALOG",
        "aliasList": [
          "3105"
        ],
        "dialogID": 220500404,
        "protectTime": 0.5
      }
    ],
    [
      {
        "$type": "MJFAIFFAGOF",
        "type": "DIALOG",
        "delayTime": 3.0,
        "aliasList": [
          "3105"
        ],
        "dialogID": 220500406,
        "protectTime": 0.5
      },
      {
        "$type": "MoleMole.Config.ConfigBlackScreenAction",
        "type": "BLACK_SCREEN",
        "aliasList": [
          "3105"
        ],
        "durationToBlack": 0.5,
        "durationKeepBlack": 2.0,
        "durationFromBlack": 0.5,
        "inteePos": "",
        "textMapID": "QUEST_Message_Q2205001",
        "useTextFade": true
      },
      {
        "$type": "MJFAIFFAGOF",
        "type": "DIALOG_CLEAR",
        "aliasList": [
          "3105"
        ]
      }
    ],
    [
      {
        "$type": "MJFAIFFAGOF",
        "type": "DIALOG",
        "aliasList": [
          "3189"
        ],
        "dialogID": 220500407,
        "protectTime": 0.5
      }
    ],
    [
      {
        "$type": "MJFAIFFAGOF",
        "type": "DIALOG",
        "aliasList": [
          "3105"
        ],
        "dialogID": 220500408,
        "protectTime": 0.5
      }
    ],
    [
      {
        "$type": "MJFAIFFAGOF",
        "type": "DIALOG",
        "aliasList": [
          "3189"
        ],
        "dialogID": 220500409,
        "protectTime": 0.5
      }
    ],
    [
      {
        "$type": "MJFAIFFAGOF",
        "type": "DIALOG",
        "aliasList": [
          "3189"
        ],
        "dialogID": 220500410,
        "protectTime": 0.5
      }
    ],
    [
      {
        "$type": "MJFAIFFAGOF",
        "type": "DIALOG",
        "aliasList": [
          "3105"
        ],
        "dialogID": 220500411,
        "protectTime": 0.5
      }
    ],
    [
      {
        "$type": "MJFAIFFAGOF",
        "type": "DIALOG",
        "aliasList": [
          "3105"
        ],
        "dialogID": 220500412,
        "protectTime": 0.5
      }
    ],
    [
      {
        "$type": "OBCDECFOOBC",
        "type": "DIALOG_SELECT",
        "delayTime": 0.4000000059604645,
        "aliasList": [
          "Avatar"
        ],
        "dialogIDList": [
          220500414
        ],
        "grpIDList": [
          557700735
        ],
        "useGrpId": true
      },
      {
        "$type": "MJFAIFFAGOF",
        "type": "DIALOG",
        "aliasList": [
          "1005"
        ],
        "dialogID": 220500413,
        "protectTime": 0.5
      }
    ],
    [
      {
        "$type": "MJFAIFFAGOF",
        "type": "DIALOG",
        "aliasList": [
          "3105"
        ],
        "dialogID": 220500415,
        "protectTime": 0.5
      }
    ],
    [
      {
        "$type": "MJFAIFFAGOF",
        "type": "DIALOG",
        "aliasList": [
          "3105"
        ],
        "dialogID": 220500416,
        "protectTime": 0.5
      }
    ],
    [
      {
        "$type": "MJFAIFFAGOF",
        "type": "DIALOG",
        "aliasList": [
          "3105"
        ],
        "dialogID": 220500417,
        "protectTime": 0.5
      }
    ],
    [
      {
        "$type": "MJFAIFFAGOF",
        "type": "DIALOG",
        "aliasList": [
          "3105"
        ],
        "dialogID": 220500418,
        "protectTime": 0.5
      }
    ],
    [
      {
        "$type": "OBCDECFOOBC",
        "type": "DIALOG_SELECT",
        "delayTime": 0.4000000059604645,
        "aliasList": [
          "Avatar"
        ],
        "dialogIDList": [
          220500420,
          220500421
        ],
        "grpIDList": [
          557700740,
          557700740
        ],
        "useGrpId": true
      },
      {
        "$type": "MJFAIFFAGOF",
        "type": "DIALOG",
        "aliasList": [
          "3105"
        ],
        "dialogID": 220500419,
        "protectTime": 0.5
      }
    ],
    [
      {
        "$type": "OBCDECFOOBC",
        "type": "DIALOG_SELECT",
        "delayTime": 0.4000000059604645,
        "aliasList": [
          "Avatar"
        ],
        "dialogIDList": [
          220500423
        ],
        "grpIDList": [
          557700762
        ],
        "useGrpId": true
      },
      {
        "$type": "MJFAIFFAGOF",
        "type": "DIALOG",
        "aliasList": [
          "3105"
        ],
        "dialogID": 220500422,
        "protectTime": 0.5
      }
    ],
    [
      {
        "$type": "MJFAIFFAGOF",
        "type": "DIALOG",
        "aliasList": [
          "1005"
        ],
        "dialogID": 220500424,
        "protectTime": 0.5
      }
    ],
    [
      {
        "$type": "MJFAIFFAGOF",
        "type": "DIALOG",
        "aliasList": [
          "1005"
        ],
        "dialogID": 220500425,
        "protectTime": 0.5
      }
    ],
    [
      {
        "$type": "MJFAIFFAGOF",
        "type": "DIALOG",
        "aliasList": [
          "3189"
        ],
        "dialogID": 220500426,
        "protectTime": 0.5
      }
    ],
    [
      {
        "$type": "MJFAIFFAGOF",
        "type": "DIALOG",
        "aliasList": [
          "3189"
        ],
        "dialogID": 220500427,
        "protectTime": 0.5
      }
    ],
    [
      {
        "$type": "OBCDECFOOBC",
        "type": "DIALOG_SELECT",
        "delayTime": 0.4000000059604645,
        "aliasList": [
          "Avatar"
        ],
        "dialogIDList": [
          220500429,
          220500431
        ],
        "grpIDList": [
          557700767,
          557700768
        ],
        "useGrpId": true
      },
      {
        "$type": "MJFAIFFAGOF",
        "type": "DIALOG",
        "aliasList": [
          "1005"
        ],
        "dialogID": 220500428,
        "protectTime": 0.5
      }
    ],
    [
      {
        "$type": "MJFAIFFAGOF",
        "type": "DIALOG",
        "aliasList": [
          "1005"
        ],
        "dialogID": 220500430,
        "protectTime": 0.5
      }
    ],
    [
      {
        "$type": "MJFAIFFAGOF",
        "type": "DIALOG",
        "aliasList": [
          "1005"
        ],
        "dialogID": 220500432,
        "protectTime": 0.5
      }
    ],
    [
      {
        "$type": "MJFAIFFAGOF",
        "type": "DIALOG",
        "aliasList": [
          "3189"
        ],
        "dialogID": 220500433,
        "protectTime": 0.5
      }
    ],
    [
      {
        "$type": "OBCDECFOOBC",
        "type": "DIALOG_SELECT",
        "delayTime": 0.4000000059604645,
        "aliasList": [
          "Avatar"
        ],
        "dialogIDList": [
          220500435
        ],
        "grpIDList": [
          557700771
        ],
        "useGrpId": true
      },
      {
        "$type": "MJFAIFFAGOF",
        "type": "DIALOG",
        "aliasList": [
          "3105"
        ],
        "dialogID": 220500434,
        "protectTime": 0.5
      }
    ],
    [
      {
        "$type": "MJFAIFFAGOF",
        "type": "DIALOG",
        "aliasList": [
          "1005"
        ],
        "dialogID": 220500436,
        "protectTime": 0.5
      }
    ],
    [
      {
        "$type": "MJFAIFFAGOF",
        "type": "DIALOG",
        "aliasList": [
          "3189"
        ],
        "dialogID": 220500437,
        "protectTime": 0.5
      }
    ],
    [
      {
        "$type": "MJFAIFFAGOF",
        "type": "DIALOG",
        "aliasList": [
          "3189"
        ],
        "dialogID": 220500438,
        "protectTime": 0.5
      }
    ],
    [
      {
        "$type": "MJFAIFFAGOF",
        "type": "DIALOG",
        "aliasList": [
          "3189"
        ],
        "dialogID": 220500439,
        "protectTime": 0.5
      }
    ],
    [
      {
        "$type": "OBCDECFOOBC",
        "type": "DIALOG_SELECT",
        "delayTime": 0.4000000059604645,
        "aliasList": [
          "Avatar"
        ],
        "dialogIDList": [
          220500441
        ],
        "grpIDList": [
          557700797
        ],
        "useGrpId": true
      },
      {
        "$type": "MJFAIFFAGOF",
        "type": "DIALOG",
        "aliasList": [
          "1005"
        ],
        "dialogID": 220500440,
        "protectTime": 0.5
      }
    ],
    [
      {
        "$type": "MJFAIFFAGOF",
        "type": "DIALOG",
        "aliasList": [
          "3105"
        ],
        "dialogID": 220500442,
        "protectTime": 0.5
      }
    ],
    [
      {
        "$type": "MoleMole.Config.ConfigSimpleBlackScreenAction",
        "type": "SIMPLE_BLACK_SCREEN",
        "durationToBlack": 0.5,
        "durationKeepBlack": 1.0,
        "durationFromBlack": 0.5,
        "textMapID": "",
        "useTextFade": true
      },
      {
        "$type": "MoleMole.Config.ConfigTimeProtectAction",
        "type": "TIME_PROTECT",
        "duration": 0.699999988079071
      }
    ]
  ],
  "groupId": [
    {
      "grpId": 433632341,
      "nextGrpId": 433632342
    },
    {
      "index": 1,
      "grpId": 433632342,
      "nextGrpId": 433632343
    },
    {
      "index": 2,
      "grpId": 433632343,
      "nextGrpId": 433632344
    },
    {
      "index": 3,
      "grpId": 433632344,
      "nextGrpId": 433632345
    },
    {
      "index": 4,
      "grpId": 433632345,
      "nextGrpId": 433632346
    },
    {
      "index": 5,
      "grpId": 433632346,
      "nextGrpId": 433632347
    },
    {
      "index": 6,
      "grpId": 433632347,
      "nextGrpId": 433632348
    },
    {
      "index": 7,
      "grpId": 433632348,
      "nextGrpId": 433632349
    },
    {
      "index": 8,
      "grpId": 433632349,
      "nextGrpId": 557700731
    },
    {
      "index": 9,
      "grpId": 557700731,
      "nextGrpId": 557700732
    },
    {
      "index": 10,
      "grpId": 557700732,
      "nextGrpId": 557700733
    },
    {
      "index": 11,
      "grpId": 557700733,
      "nextGrpId": 557700734
    },
    {
      "index": 12,
      "grpId": 557700734,
      "nextGrpId": 557700735
    },
    {
      "index": 13,
      "grpId": 557700735,
      "nextGrpId": 557700736
    },
    {
      "index": 14,
      "grpId": 557700736,
      "nextGrpId": 557700737
    },
    {
      "index": 15,
      "grpId": 557700737,
      "nextGrpId": 557700738
    },
    {
      "index": 16,
      "grpId": 557700738,
      "nextGrpId": 557700739
    },
    {
      "index": 17,
      "grpId": 557700739,
      "nextGrpId": 557700740
    },
    {
      "index": 18,
      "grpId": 557700740,
      "nextGrpId": 557700762
    },
    {
      "index": 19,
      "grpId": 557700762,
      "nextGrpId": 557700763
    },
    {
      "index": 20,
      "grpId": 557700763,
      "nextGrpId": 557700764
    },
    {
      "index": 21,
      "grpId": 557700764,
      "nextGrpId": 557700765
    },
    {
      "index": 22,
      "grpId": 557700765,
      "nextGrpId": 557700766
    },
    {
      "index": 23,
      "grpId": 557700766,
      "nextGrpId": 557700767
    },
    {
      "index": 24,
      "grpId": 557700767,
      "nextGrpId": 557700769
    },
    {
      "index": 25,
      "grpId": 557700768,
      "nextGrpId": 557700769
    },
    {
      "index": 26,
      "grpId": 557700769,
      "nextGrpId": 557700770
    },
    {
      "index": 27,
      "grpId": 557700770,
      "nextGrpId": 557700771
    },
    {
      "index": 28,
      "grpId": 557700771,
      "nextGrpId": 557700793
    },
    {
      "index": 29,
      "grpId": 557700793,
      "nextGrpId": 557700794
    },
    {
      "index": 30,
      "grpId": 557700794,
      "nextGrpId": 557700795
    },
    {
      "index": 31,
      "grpId": 557700795,
      "nextGrpId": 557700796
    },
    {
      "index": 32,
      "grpId": 557700796,
      "nextGrpId": 557700797
    },
    {
      "index": 33,
      "grpId": 557700797,
      "nextGrpId": 557700798
    },
    {
      "index": 34,
      "grpId": 557700798,
      "nextGrpId": 557700799
    }
  ],
  "freeStyleDic": {
    "3105": []
  }
}