{
  "luaDataPath": "",
  "isSimpleTalk": true,
  "startBlackKeepTime": 1.0,
  "entityBan": "",
  "disableNpcLod": true,
  "startFade": {
    "startFadeInDuration": 0.5,
    "startFadeOutDuration": 0.5
  },
  "endFade": {
    "startFadeOutDuration": 0.0
  },
  "actors": [
    {
      "alias": "Avatar",
      "visible": true,
      "bornPointName": "Q2205001Player",
      "relativePosNpcAlias": "",
      "_bindMovingTargetKey": ""
    },
    {
      "configID": 3189,
      "alias": "3189",
      "visible": true,
      "bornPointName": "Q2205001Cat",
      "forceCreateDaily": true,
      "relativePosNpcAlias": "",
      "_bindMovingTargetKey": ""
    },
    {
      "configID": 1005,
      "alias": "1005",
      "visible": true,
      "bornPointName": "Q2205001Paimon",
      "removeActorType": "REMOVE_WITH_DISAPPEAR",
      "relativePosNpcAlias": "",
      "_bindMovingTargetKey": ""
    }
  ],
  "group": [
    [
      {
        "$type": "EFHODGEJOHJ",
        "type": "CAMERA_FOCUS",
        "delayTime": 0.30000001192092896,
        "duration": 0.10000000149011612,
        "targetNpcAlias": "",
        "PHGBNNGCJKJ": "",
        "NFILMKCFHEB": "",
        "BGPNGHDAECF": ""
      },
      {
        "$type": "MoleMole.Config.ConfigTimeProtectAction",
        "type": "TIME_PROTECT",
        "duration": 0.4000000059604645
      }
    ],
    [
      {
        "$type": "MJFAIFFAGOF",
        "type": "DIALOG",
        "aliasList": [
          "3189"
        ],
        "dialogID": 220500101,
        "protectTime": 0.5
      }
    ],
    [
      {
        "$type": "OBCDECFOOBC",
        "type": "DIALOG_SELECT",
        "delayTime": 0.4000000059604645,
        "aliasList": [
          "Avatar"
        ],
        "dialogIDList": [
          220500103
        ],
        "grpIDList": [
          433629461
        ],
        "useGrpId": true
      },
      {
        "$type": "MJFAIFFAGOF",
        "type": "DIALOG",
        "aliasList": [
          "3189"
        ],
        "dialogID": 220500102,
        "protectTime": 0.5
      }
    ],
    [
      {
        "$type": "MJFAIFFAGOF",
        "type": "DIALOG",
        "aliasList": [
          "3189"
        ],
        "dialogID": 220500104,
        "protectTime": 0.5
      }
    ],
    [
      {
        "$type": "MJFAIFFAGOF",
        "type": "DIALOG",
        "aliasList": [
          "3189"
        ],
        "dialogID": 220500105,
        "protectTime": 0.5
      }
    ],
    [
      {
        "$type": "OBCDECFOOBC",
        "type": "DIALOG_SELECT",
        "delayTime": 0.4000000059604645,
        "aliasList": [
          "Avatar"
        ],
        "dialogIDList": [
          220500107
        ],
        "grpIDList": [
          433629464
        ],
        "useGrpId": true
      },
      {
        "$type": "MJFAIFFAGOF",
        "type": "DIALOG",
        "aliasList": [
          "1005"
        ],
        "dialogID": 220500106,
        "protectTime": 0.5
      }
    ],
    [
      {
        "$type": "OBCDECFOOBC",
        "type": "DIALOG_SELECT",
        "delayTime": 0.4000000059604645,
        "aliasList": [
          "Avatar"
        ],
        "dialogIDList": [
          220500109,
          220500110
        ],
        "grpIDList": [
          433629465,
          433629465
        ],
        "useGrpId": true
      },
      {
        "$type": "MJFAIFFAGOF",
        "type": "DIALOG",
        "aliasList": [
          "1005"
        ],
        "dialogID": 220500108,
        "protectTime": 0.5
      }
    ],
    [
      {
        "$type": "MJFAIFFAGOF",
        "type": "DIALOG",
        "aliasList": [
          "3189"
        ],
        "dialogID": 220500111,
        "protectTime": 0.5
      }
    ],
    [
      {
        "$type": "MJFAIFFAGOF",
        "type": "DIALOG",
        "aliasList": [
          "3189"
        ],
        "dialogID": 220500112,
        "protectTime": 0.5
      }
    ],
    [
      {
        "$type": "MJFAIFFAGOF",
        "type": "DIALOG",
        "aliasList": [
          "1005"
        ],
        "dialogID": 220500113,
        "protectTime": 0.5
      }
    ],
    [
      {
        "$type": "OBCDECFOOBC",
        "type": "DIALOG_SELECT",
        "delayTime": 0.4000000059604645,
        "aliasList": [
          "Avatar"
        ],
        "dialogIDList": [
          220500115
        ],
        "grpIDList": [
          557611360
        ],
        "useGrpId": true
      },
      {
        "$type": "MJFAIFFAGOF",
        "type": "DIALOG",
        "aliasList": [
          "1005"
        ],
        "dialogID": 220500114,
        "protectTime": 0.5
      }
    ],
    [
      {
        "$type": "OBCDECFOOBC",
        "type": "DIALOG_SELECT",
        "delayTime": 0.4000000059604645,
        "aliasList": [
          "Avatar"
        ],
        "dialogIDList": [
          220500117
        ],
        "grpIDList": [
          557611361
        ],
        "useGrpId": true
      },
      {
        "$type": "MJFAIFFAGOF",
        "type": "DIALOG",
        "aliasList": [
          "1005"
        ],
        "dialogID": 220500116,
        "protectTime": 0.5
      }
    ],
    [
      {
        "$type": "MJFAIFFAGOF",
        "type": "DIALOG",
        "aliasList": [
          "3189"
        ],
        "dialogID": 220500118,
        "protectTime": 0.5
      }
    ],
    [
      {
        "$type": "MJFAIFFAGOF",
        "type": "DIALOG",
        "aliasList": [
          "3189"
        ],
        "dialogID": 220500119,
        "protectTime": 0.5
      }
    ],
    [
      {
        "$type": "MJFAIFFAGOF",
        "type": "DIALOG",
        "aliasList": [
          "3189"
        ],
        "dialogID": 220500120,
        "protectTime": 0.5
      }
    ],
    [
      {
        "$type": "MJFAIFFAGOF",
        "type": "DIALOG",
        "aliasList": [
          "3189"
        ],
        "dialogID": 220500121,
        "protectTime": 0.5
      }
    ],
    [
      {
        "$type": "MJFAIFFAGOF",
        "type": "DIALOG",
        "aliasList": [
          "3189"
        ],
        "dialogID": 220500122,
        "protectTime": 0.5
      }
    ],
    [
      {
        "$type": "MJFAIFFAGOF",
        "type": "DIALOG",
        "aliasList": [
          "3189"
        ],
        "dialogID": 220500123,
        "protectTime": 0.5
      }
    ],
    [
      {
        "$type": "MJFAIFFAGOF",
        "type": "DIALOG",
        "aliasList": [
          "3189"
        ],
        "dialogID": 220500124,
        "protectTime": 0.5
      }
    ],
    [
      {
        "$type": "MJFAIFFAGOF",
        "type": "DIALOG",
        "aliasList": [
          "1005"
        ],
        "dialogID": 220500125,
        "protectTime": 0.5
      }
    ],
    [
      {
        "$type": "OBCDECFOOBC",
        "type": "DIALOG_SELECT",
        "delayTime": 0.4000000059604645,
        "aliasList": [
          "Avatar"
        ],
        "dialogIDList": [
          220500127,
          220500128
        ],
        "grpIDList": [
          557611391,
          557611391
        ],
        "useGrpId": true
      },
      {
        "$type": "MJFAIFFAGOF",
        "type": "DIALOG",
        "aliasList": [
          "3189"
        ],
        "dialogID": 220500126,
        "protectTime": 0.5
      }
    ],
    [
      {
        "$type": "MJFAIFFAGOF",
        "type": "DIALOG",
        "aliasList": [
          "1005"
        ],
        "dialogID": 220500129,
        "protectTime": 0.5
      }
    ],
    [
      {
        "$type": "MJFAIFFAGOF",
        "type": "DIALOG",
        "aliasList": [
          "1005"
        ],
        "dialogID": 220500130,
        "protectTime": 0.5
      }
    ],
    [
      {
        "$type": "MoleMole.Config.ConfigTimeProtectAction",
        "type": "TIME_PROTECT",
        "duration": 0.10000000149011612
      }
    ]
  ],
  "groupId": [
    {
      "grpId": 433629458,
      "nextGrpId": 433629459
    },
    {
      "index": 1,
      "grpId": 433629459,
      "nextGrpId": 433629460
    },
    {
      "index": 2,
      "grpId": 433629460,
      "nextGrpId": 433629461
    },
    {
      "index": 3,
      "grpId": 433629461,
      "nextGrpId": 433629462
    },
    {
      "index": 4,
      "grpId": 433629462,
      "nextGrpId": 433629463
    },
    {
      "index": 5,
      "grpId": 433629463,
      "nextGrpId": 433629464
    },
    {
      "index": 6,
      "grpId": 433629464,
      "nextGrpId": 433629465
    },
    {
      "index": 7,
      "grpId": 433629465,
      "nextGrpId": 433629466
    },
    {
      "index": 8,
      "grpId": 433629466,
      "nextGrpId": 557611358
    },
    {
      "index": 9,
      "grpId": 557611358,
      "nextGrpId": 557611359
    },
    {
      "index": 10,
      "grpId": 557611359,
      "nextGrpId": 557611360
    },
    {
      "index": 11,
      "grpId": 557611360,
      "nextGrpId": 557611361
    },
    {
      "index": 12,
      "grpId": 557611361,
      "nextGrpId": 557611362
    },
    {
      "index": 13,
      "grpId": 557611362,
      "nextGrpId": 557611363
    },
    {
      "index": 14,
      "grpId": 557611363,
      "nextGrpId": 557611364
    },
    {
      "index": 15,
      "grpId": 557611364,
      "nextGrpId": 557611365
    },
    {
      "index": 16,
      "grpId": 557611365,
      "nextGrpId": 557611366
    },
    {
      "index": 17,
      "grpId": 557611366,
      "nextGrpId": 557611367
    },
    {
      "index": 18,
      "grpId": 557611367,
      "nextGrpId": 557611389
    },
    {
      "index": 19,
      "grpId": 557611389,
      "nextGrpId": 557611390
    },
    {
      "index": 20,
      "grpId": 557611390,
      "nextGrpId": 557611391
    },
    {
      "index": 21,
      "grpId": 557611391,
      "nextGrpId": 557611392
    },
    {
      "index": 22,
      "grpId": 557611392,
      "nextGrpId": 557611393
    },
    {
      "index": 23,
      "grpId": 557611393,
      "nextGrpId": 557611394
    }
  ]
}