{
  "luaDataPath": "",
  "isSimpleTalk": true,
  "entityBan": "",
  "disableNpcLod": true,
  "startFade": {
    "startFadeOutDuration": 0.0
  },
  "endFade": {
    "startFadeOutDuration": 0.0
  },
  "actors": [
    {
      "alias": "Avatar",
      "bornPointName": "",
      "relativePosNpcAlias": "",
      "_bindMovingTargetKey": ""
    },
    {
      "configID": 3154,
      "alias": "3154",
      "bornPointName": "",
      "relativePosNpcAlias": "",
      "_bindMovingTargetKey": ""
    },
    {
      "configID": 1005,
      "alias": "1005",
      "visible": true,
      "bornPointName": "",
      "useRelativePos": true,
      "relativePos": {
        "x": -0.5,
        "z": 0.5
      },
      "removeActorType": "REMOVE_WITH_DISAPPEAR",
      "relativePosNpcAlias": "",
      "_bindMovingTargetKey": ""
    }
  ],
  "group": [
    [
      {
        "$type": "EFHODGEJOHJ",
        "type": "CAMERA_FOCUS",
        "delayTime": 0.30000001192092896,
        "duration": 0.10000000149011612,
        "targetNpcAlias": "",
        "PHGBNNGCJKJ": "",
        "NFILMKCFHEB": "",
        "BGPNGHDAECF": ""
      },
      {
        "$type": "MoleMole.Config.ConfigTimeProtectAction",
        "type": "TIME_PROTECT",
        "duration": 0.4000000059604645
      }
    ],
    [
      {
        "$type": "OBCDECFOOBC",
        "type": "DIALOG_SELECT",
        "delayTime": 0.4000000059604645,
        "aliasList": [
          "Avatar"
        ],
        "dialogIDList": [
          721061202
        ],
        "grpIDList": [
          4214470676
        ],
        "useGrpId": true
      },
      {
        "$type": "MJFAIFFAGOF",
        "type": "DIALOG",
        "aliasList": [
          "3154"
        ],
        "dialogID": 721061201,
        "protectTime": 0.5
      }
    ],
    [
      {
        "$type": "MJFAIFFAGOF",
        "type": "DIALOG",
        "aliasList": [
          "3154"
        ],
        "dialogID": 721061203,
        "protectTime": 0.5
      }
    ],
    [
      {
        "$type": "MJFAIFFAGOF",
        "type": "DIALOG",
        "aliasList": [
          "3154"
        ],
        "dialogID": 721061204,
        "protectTime": 0.5
      }
    ],
    [
      {
        "$type": "MJFAIFFAGOF",
        "type": "DIALOG",
        "aliasList": [
          "3154"
        ],
        "dialogID": 721061205,
        "protectTime": 0.5
      }
    ],
    [
      {
        "$type": "MJFAIFFAGOF",
        "type": "DIALOG",
        "aliasList": [
          "3154"
        ],
        "dialogID": 721061206,
        "protectTime": 0.5
      }
    ],
    [
      {
        "$type": "MJFAIFFAGOF",
        "type": "DIALOG",
        "aliasList": [
          "3154"
        ],
        "dialogID": 721061207,
        "protectTime": 0.5
      }
    ],
    [
      {
        "$type": "OBCDECFOOBC",
        "type": "DIALOG_SELECT",
        "delayTime": 0.4000000059604645,
        "aliasList": [
          "Avatar"
        ],
        "dialogIDList": [
          721061209
        ],
        "grpIDList": [
          4214470682
        ],
        "useGrpId": true
      },
      {
        "$type": "MJFAIFFAGOF",
        "type": "DIALOG",
        "aliasList": [
          "3154"
        ],
        "dialogID": 721061208,
        "protectTime": 0.5
      }
    ],
    [
      {
        "$type": "MJFAIFFAGOF",
        "type": "DIALOG",
        "aliasList": [
          "3154"
        ],
        "dialogID": 721061210,
        "protectTime": 0.5
      }
    ],
    [
      {
        "$type": "MJFAIFFAGOF",
        "type": "DIALOG",
        "aliasList": [
          "3154"
        ],
        "dialogID": 721061211,
        "protectTime": 0.5
      }
    ],
    [
      {
        "$type": "MJFAIFFAGOF",
        "type": "DIALOG",
        "aliasList": [
          "3154"
        ],
        "dialogID": 721061212,
        "protectTime": 0.5
      }
    ],
    [
      {
        "$type": "MJFAIFFAGOF",
        "type": "DIALOG",
        "aliasList": [
          "3154"
        ],
        "dialogID": 721061213,
        "protectTime": 0.5
      }
    ],
    [
      {
        "$type": "MJFAIFFAGOF",
        "type": "DIALOG",
        "aliasList": [
          "3154"
        ],
        "dialogID": 721061214,
        "protectTime": 0.5
      }
    ],
    [
      {
        "$type": "MJFAIFFAGOF",
        "type": "DIALOG",
        "aliasList": [
          "3154"
        ],
        "dialogID": 721061215,
        "protectTime": 0.5
      }
    ],
    [
      {
        "$type": "MJFAIFFAGOF",
        "type": "DIALOG",
        "aliasList": [
          "3154"
        ],
        "dialogID": 721061216,
        "protectTime": 0.5
      }
    ],
    [
      {
        "$type": "MJFAIFFAGOF",
        "type": "DIALOG",
        "aliasList": [
          "3154"
        ],
        "dialogID": 721061217,
        "protectTime": 0.5
      }
    ],
    [
      {
        "$type": "OBCDECFOOBC",
        "type": "DIALOG_SELECT",
        "delayTime": 0.4000000059604645,
        "aliasList": [
          "Avatar"
        ],
        "dialogIDList": [
          721061219
        ],
        "grpIDList": [
          1799572070
        ],
        "useGrpId": true
      },
      {
        "$type": "MJFAIFFAGOF",
        "type": "DIALOG",
        "aliasList": [
          "3154"
        ],
        "dialogID": 721061218,
        "protectTime": 0.5
      }
    ],
    [
      {
        "$type": "MJFAIFFAGOF",
        "type": "DIALOG",
        "aliasList": [
          "1005"
        ],
        "dialogID": 721061220,
        "protectTime": 0.5
      }
    ],
    [
      {
        "$type": "MJFAIFFAGOF",
        "type": "DIALOG",
        "aliasList": [
          "3154"
        ],
        "dialogID": 721061221,
        "protectTime": 0.5
      }
    ],
    [
      {
        "$type": "MJFAIFFAGOF",
        "type": "DIALOG",
        "aliasList": [
          "3154"
        ],
        "dialogID": 721061222,
        "protectTime": 0.5
      }
    ],
    [
      {
        "$type": "MJFAIFFAGOF",
        "type": "DIALOG",
        "aliasList": [
          "3154"
        ],
        "dialogID": 721061223,
        "protectTime": 0.5
      }
    ],
    [
      {
        "$type": "MJFAIFFAGOF",
        "type": "DIALOG",
        "aliasList": [
          "3154"
        ],
        "dialogID": 721061224,
        "protectTime": 0.5
      }
    ],
    [
      {
        "$type": "MJFAIFFAGOF",
        "type": "DIALOG",
        "aliasList": [
          "3154"
        ],
        "dialogID": 721061225,
        "protectTime": 0.5
      }
    ],
    [
      {
        "$type": "MJFAIFFAGOF",
        "type": "DIALOG",
        "aliasList": [
          "3154"
        ],
        "dialogID": 721061226,
        "protectTime": 0.5
      }
    ],
    [
      {
        "$type": "MoleMole.Config.ConfigTimeProtectAction",
        "type": "TIME_PROTECT",
        "duration": 0.10000000149011612
      }
    ]
  ],
  "groupId": [
    {
      "grpId": 4214470674,
      "nextGrpId": 4214470675
    },
    {
      "index": 1,
      "grpId": 4214470675,
      "nextGrpId": 4214470676
    },
    {
      "index": 2,
      "grpId": 4214470676,
      "nextGrpId": 4214470677
    },
    {
      "index": 3,
      "grpId": 4214470677,
      "nextGrpId": 4214470678
    },
    {
      "index": 4,
      "grpId": 4214470678,
      "nextGrpId": 4214470679
    },
    {
      "index": 5,
      "grpId": 4214470679,
      "nextGrpId": 4214470680
    },
    {
      "index": 6,
      "grpId": 4214470680,
      "nextGrpId": 4214470681
    },
    {
      "index": 7,
      "grpId": 4214470681,
      "nextGrpId": 4214470682
    },
    {
      "index": 8,
      "grpId": 4214470682,
      "nextGrpId": 1799572062
    },
    {
      "index": 9,
      "grpId": 1799572062,
      "nextGrpId": 1799572063
    },
    {
      "index": 10,
      "grpId": 1799572063,
      "nextGrpId": 1799572064
    },
    {
      "index": 11,
      "grpId": 1799572064,
      "nextGrpId": 1799572065
    },
    {
      "index": 12,
      "grpId": 1799572065,
      "nextGrpId": 1799572066
    },
    {
      "index": 13,
      "grpId": 1799572066,
      "nextGrpId": 1799572067
    },
    {
      "index": 14,
      "grpId": 1799572067,
      "nextGrpId": 1799572068
    },
    {
      "index": 15,
      "grpId": 1799572068,
      "nextGrpId": 1799572069
    },
    {
      "index": 16,
      "grpId": 1799572069,
      "nextGrpId": 1799572070
    },
    {
      "index": 17,
      "grpId": 1799572070,
      "nextGrpId": 1799572071
    },
    {
      "index": 18,
      "grpId": 1799572071,
      "nextGrpId": 1799572093
    },
    {
      "index": 19,
      "grpId": 1799572093,
      "nextGrpId": 1799572094
    },
    {
      "index": 20,
      "grpId": 1799572094,
      "nextGrpId": 1799572095
    },
    {
      "index": 21,
      "grpId": 1799572095,
      "nextGrpId": 1799572096
    },
    {
      "index": 22,
      "grpId": 1799572096,
      "nextGrpId": 1799572097
    },
    {
      "index": 23,
      "grpId": 1799572097,
      "nextGrpId": 1799572098
    },
    {
      "index": 24,
      "grpId": 1799572098,
      "nextGrpId": 1799572099
    }
  ],
  "freeStyleDic": {
    "3154": []
  }
}