{
  "Weapon_Pole_Zephyrus_0": [
    {
      "$type": "LIPCJEMPMCO",
      "abilityName": "Weapon_Pole_Zephyrus"
    }
  ],
  "Weapon_Pole_Zephyrus_1": [
    {
      "$type": "CHIFLIJCPME",
      "abilityName": "Weapon_Pole_Zephyrus",
      "paramSpecial": "HealHP",
      "paramDelta": 0.029999999329447746,
      "paramRatio": 0.0
    }
  ],
  "Weapon_Pole_Zephyrus_2": [
    {
      "$type": "CHIFLIJCPME",
      "abilityName": "Weapon_Pole_Zephyrus",
      "paramSpecial": "HealHP",
      "paramDelta": 0.029999999329447746,
      "paramRatio": 0.0
    }
  ],
  "Weapon_Pole_Zephyrus_3": [
    {
      "$type": "CHIFLIJCPME",
      "abilityName": "Weapon_Pole_Zephyrus",
      "paramSpecial": "HealHP",
      "paramDelta": 0.029999999329447746,
      "paramRatio": 0.0
    }
  ],
  "Weapon_Pole_Zephyrus_4": [
    {
      "$type": "CHIFLIJCPME",
      "abilityName": "Weapon_Pole_Zephyrus",
      "paramSpecial": "HealHP",
      "paramDelta": 0.029999999329447746,
      "paramRatio": 0.0
    }
  ],
  "Weapon_Pole_NormalAttackUpUnlessBeinghit_0": [
    {
      "$type": "LIPCJEMPMCO",
      "abilityName": "Weapon_Pole_NormalAttackUpUnlessBeinghit"
    }
  ],
  "Weapon_Pole_NormalAttackUpUnlessBeinghit_1": [
    {
      "$type": "CHIFLIJCPME",
      "abilityName": "Weapon_Pole_NormalAttackUpUnlessBeinghit",
      "paramSpecial": "Rate",
      "paramDelta": 0.029999999329447746,
      "paramRatio": 0.0
    }
  ],
  "Weapon_Pole_NormalAttackUpUnlessBeinghit_2": [
    {
      "$type": "CHIFLIJCPME",
      "abilityName": "Weapon_Pole_NormalAttackUpUnlessBeinghit",
      "paramSpecial": "Rate",
      "paramDelta": 0.029999999329447746,
      "paramRatio": 0.0
    }
  ],
  "Weapon_Pole_NormalAttackUpUnlessBeinghit_3": [
    {
      "$type": "CHIFLIJCPME",
      "abilityName": "Weapon_Pole_NormalAttackUpUnlessBeinghit",
      "paramSpecial": "Rate",
      "paramDelta": 0.029999999329447746,
      "paramRatio": 0.0
    }
  ],
  "Weapon_Pole_NormalAttackUpUnlessBeinghit_4": [
    {
      "$type": "CHIFLIJCPME",
      "abilityName": "Weapon_Pole_NormalAttackUpUnlessBeinghit",
      "paramSpecial": "Rate",
      "paramDelta": 0.029999999329447746,
      "paramRatio": 0.0
    }
  ],
  "Weapon_Pole_NormalAttackUp": [
    {
      "$type": "LIPCJEMPMCO",
      "abilityName": "Weapon_Pole_NormalAttackUp"
    },
    {
      "$type": "CHIFLIJCPME",
      "abilityName": "Weapon_Pole_NormalAttackUp",
      "paramSpecial": "Rate",
      "paramDelta": "%1",
      "paramRatio": 0.0
    }
  ],
  "Weapon_Pole_ExtraDamageWhenCDReady": [
    {
      "$type": "LIPCJEMPMCO",
      "abilityName": "Weapon_Pole_ExtraDamageWhenCDReady"
    },
    {
      "$type": "CHIFLIJCPME",
      "abilityName": "Weapon_Pole_ExtraDamageWhenCDReady",
      "paramSpecial": "Rate",
      "paramDelta": "%1",
      "paramRatio": 0.0
    },
    {
      "$type": "CHIFLIJCPME",
      "abilityName": "Weapon_Pole_ExtraDamageWhenCDReady",
      "paramSpecial": "CDTime",
      "paramDelta": "%2",
      "paramRatio": 0.0
    }
  ],
  "Weapon_Pole_SlimeKiller": [
    {
      "$type": "LIPCJEMPMCO",
      "abilityName": "Weapon_Pole_SlimeKiller"
    },
    {
      "$type": "CHIFLIJCPME",
      "abilityName": "Weapon_Pole_SlimeKiller",
      "paramSpecial": "Rate",
      "paramDelta": "%1",
      "paramRatio": 0.0
    }
  ],
  "Weapon_Pole_AttackUpWhenEnter": [
    {
      "$type": "LIPCJEMPMCO",
      "abilityName": "Weapon_Pole_AttackUpWhenEnter"
    },
    {
      "$type": "CHIFLIJCPME",
      "abilityName": "Weapon_Pole_AttackUpWhenEnter",
      "paramSpecial": "Rate",
      "paramDelta": "%1",
      "paramRatio": 0.0
    },
    {
      "$type": "CHIFLIJCPME",
      "abilityName": "Weapon_Pole_AttackUpWhenEnter",
      "paramSpecial": "Time",
      "paramDelta": "%2",
      "paramRatio": 0.0
    }
  ],
  "Weapon_Pole_HealAmountHPonEnemyKilled": [
    {
      "$type": "LIPCJEMPMCO",
      "abilityName": "Weapon_Pole_HealAmountHPonEnemyKilled"
    },
    {
      "$type": "CHIFLIJCPME",
      "abilityName": "Weapon_Pole_HealAmountHPonEnemyKilled",
      "paramSpecial": "HealAmount",
      "paramDelta": "%1",
      "paramRatio": 0.0
    }
  ],
  "Weapon_Pole_DamageUpToWaterEnemy": [
    {
      "$type": "LIPCJEMPMCO",
      "abilityName": "Weapon_Pole_DamageUpToWaterEnemy"
    },
    {
      "$type": "CHIFLIJCPME",
      "abilityName": "Weapon_Pole_DamageUpToWaterEnemy",
      "paramSpecial": "Rate",
      "paramDelta": "%1",
      "paramRatio": 0.0
    }
  ],
  "Weapon_Pole_NormalAttackExtraDamageWhenGetEnergyBall": [
    {
      "$type": "LIPCJEMPMCO",
      "abilityName": "Weapon_Pole_NormalAttackExtraDamageWhenGetEnergyBall"
    },
    {
      "$type": "CHIFLIJCPME",
      "abilityName": "Weapon_Pole_NormalAttackExtraDamageWhenGetEnergyBall",
      "paramSpecial": "Rate",
      "paramDelta": "%1",
      "paramRatio": 0.0
    }
  ],
  "Weapon_Pole_NormalAttackAndExtraAttackUpAfterSkill": [
    {
      "$type": "LIPCJEMPMCO",
      "abilityName": "Weapon_Pole_NormalAttackAndExtraAttackUpAfterSkill"
    },
    {
      "$type": "CHIFLIJCPME",
      "abilityName": "Weapon_Pole_NormalAttackAndExtraAttackUpAfterSkill",
      "paramSpecial": "Rate",
      "paramDelta": "%1",
      "paramRatio": 0.0
    }
  ],
  "Weapon_Pole_Blackrock": [
    {
      "$type": "LIPCJEMPMCO",
      "abilityName": "Weapon_Pole_Blackrock"
    },
    {
      "$type": "CHIFLIJCPME",
      "abilityName": "Weapon_Pole_Blackrock",
      "paramSpecial": "Rate",
      "paramDelta": "%1",
      "paramRatio": 0.0
    },
    {
      "$type": "CHIFLIJCPME",
      "abilityName": "Weapon_Pole_Blackrock",
      "paramSpecial": "Dua",
      "paramDelta": "%2",
      "paramRatio": 0.0
    }
  ],
  "Weapon_Pole_Dual": [
    {
      "$type": "LIPCJEMPMCO",
      "abilityName": "Weapon_Pole_Dual"
    },
    {
      "$type": "CHIFLIJCPME",
      "abilityName": "Weapon_Pole_Dual",
      "paramSpecial": "Count",
      "paramDelta": "%1",
      "paramRatio": 0.0
    },
    {
      "$type": "CHIFLIJCPME",
      "abilityName": "Weapon_Pole_Dual",
      "paramSpecial": "Rate",
      "paramDelta": "%2",
      "paramRatio": 0.0
    },
    {
      "$type": "CHIFLIJCPME",
      "abilityName": "Weapon_Pole_Dual",
      "paramSpecial": "Atk",
      "paramDelta": "%3",
      "paramRatio": 0.0
    },
    {
      "$type": "CHIFLIJCPME",
      "abilityName": "Weapon_Pole_Dual",
      "paramSpecial": "Def",
      "paramDelta": "%4",
      "paramRatio": 0.0
    }
  ],
  "Weapon_Pole_HeavyExtra": [
    {
      "$type": "LIPCJEMPMCO",
      "abilityName": "Weapon_Pole_HeavyExtra"
    },
    {
      "$type": "CHIFLIJCPME",
      "abilityName": "Weapon_Pole_HeavyExtra",
      "paramSpecial": "Chance",
      "paramDelta": "%1",
      "paramRatio": 0.0
    },
    {
      "$type": "CHIFLIJCPME",
      "abilityName": "Weapon_Pole_HeavyExtra",
      "paramSpecial": "Rate",
      "paramDelta": "%2",
      "paramRatio": 0.0
    },
    {
      "$type": "CHIFLIJCPME",
      "abilityName": "Weapon_Pole_HeavyExtra",
      "paramSpecial": "Time",
      "paramDelta": "%3",
      "paramRatio": 0.0
    }
  ],
  "Weapon_Pole_Liyue": [
    {
      "$type": "LIPCJEMPMCO",
      "abilityName": "Weapon_Pole_Liyue"
    },
    {
      "$type": "CHIFLIJCPME",
      "abilityName": "Weapon_Pole_Liyue",
      "paramSpecial": "Rate",
      "paramDelta": "%1",
      "paramRatio": 0.0
    },
    {
      "$type": "CHIFLIJCPME",
      "abilityName": "Weapon_Pole_Liyue",
      "paramSpecial": "Crit",
      "paramDelta": "%2",
      "paramRatio": 0.0
    }
  ],
  "Weapon_Pole_GenerateBallWhenCritic": [
    {
      "$type": "LIPCJEMPMCO",
      "abilityName": "Weapon_Pole_GenerateBallWhenCritic"
    },
    {
      "$type": "CHIFLIJCPME",
      "abilityName": "Weapon_Pole_GenerateBallWhenCritic",
      "paramSpecial": "Rate",
      "paramDelta": "%1",
      "paramRatio": 0.0
    },
    {
      "$type": "CHIFLIJCPME",
      "abilityName": "Weapon_Pole_GenerateBallWhenCritic",
      "paramSpecial": "CDTime",
      "paramDelta": "%2",
      "paramRatio": 0.0
    }
  ],
  "Weapon_Pole_CritUpWhenHitNoCrit": [
    {
      "$type": "LIPCJEMPMCO",
      "abilityName": "Weapon_Pole_CritUpWhenHitNoCrit"
    },
    {
      "$type": "CHIFLIJCPME",
      "abilityName": "Weapon_Pole_CritUpWhenHitNoCrit",
      "paramSpecial": "Rate",
      "paramDelta": "%1",
      "paramRatio": 0.0
    }
  ],
  "Weapon_Pole_Dragonfell": [
    {
      "$type": "LIPCJEMPMCO",
      "abilityName": "Weapon_Pole_Dragonfell"
    },
    {
      "$type": "CHIFLIJCPME",
      "abilityName": "Weapon_Pole_Dragonfell",
      "paramSpecial": "ChanceProb",
      "paramDelta": "%1",
      "paramRatio": 0.0
    },
    {
      "$type": "CHIFLIJCPME",
      "abilityName": "Weapon_Pole_Dragonfell_Gadget",
      "paramSpecial": "Rate",
      "paramDelta": "%2",
      "paramRatio": 0.0
    },
    {
      "$type": "CHIFLIJCPME",
      "abilityName": "Weapon_Pole_Dragonfell_Gadget",
      "paramSpecial": "RateToIce",
      "paramDelta": "%3",
      "paramRatio": 0.0
    },
    {
      "$type": "CHIFLIJCPME",
      "abilityName": "Weapon_Pole_Dragonfell",
      "paramSpecial": "CDTime",
      "paramDelta": "%4",
      "paramRatio": 0.0
    },
    {
      "$type": "CHIFLIJCPME",
      "abilityName": "Weapon_Pole_Dragonfell",
      "paramSpecial": "Rate",
      "paramDelta": "%2",
      "paramRatio": 0.0
    },
    {
      "$type": "CHIFLIJCPME",
      "abilityName": "Weapon_Pole_Dragonfell",
      "paramSpecial": "RateToIce",
      "paramDelta": "%3",
      "paramRatio": 0.0
    }
  ],
  "Weapon_Pole_Homa": [
    {
      "$type": "LIPCJEMPMCO",
      "abilityName": "Weapon_Pole_Homa_MaxHpToAtk"
    },
    {
      "$type": "CHIFLIJCPME",
      "abilityName": "Weapon_Pole_Homa_MaxHpToAtk",
      "paramSpecial": "Hp_Rate",
      "paramDelta": "%1",
      "paramRatio": 0.0
    },
    {
      "$type": "CHIFLIJCPME",
      "abilityName": "Weapon_Pole_Homa_MaxHpToAtk",
      "paramSpecial": "MaxHptoAtk_Factor",
      "paramDelta": "%2",
      "paramRatio": 0.0
    },
    {
      "$type": "CHIFLIJCPME",
      "abilityName": "Weapon_Pole_Homa_MaxHpToAtk",
      "paramSpecial": "MaxHptoAtk_Extra_Factor",
      "paramDelta": "%3",
      "paramRatio": 0.0
    }
  ],
  "Weapon_Pole_Dvalin": [
    {
      "$type": "LIPCJEMPMCO",
      "abilityName": "Weapon_Pole_Dvalin"
    },
    {
      "$type": "CHIFLIJCPME",
      "abilityName": "Weapon_Pole_Dvalin",
      "paramSpecial": "Crit_Rate",
      "paramDelta": "%1",
      "paramRatio": 0.0
    },
    {
      "$type": "CHIFLIJCPME",
      "abilityName": "Weapon_Pole_Dvalin",
      "paramSpecial": "Speed_Rate",
      "paramDelta": "%2",
      "paramRatio": 0.0
    },
    {
      "$type": "CHIFLIJCPME",
      "abilityName": "Weapon_Pole_Dvalin",
      "paramSpecial": "ChanceProb",
      "paramDelta": "%3",
      "paramRatio": 0.0
    },
    {
      "$type": "CHIFLIJCPME",
      "abilityName": "Weapon_Dvalin_Wave_Bullet",
      "paramSpecial": "Atk_Rate",
      "paramDelta": "%4",
      "paramRatio": 0.0
    },
    {
      "$type": "CHIFLIJCPME",
      "abilityName": "Weapon_Pole_Dvalin",
      "paramSpecial": "Atk_Rate",
      "paramDelta": "%4",
      "paramRatio": 0.0
    },
    {
      "$type": "CHIFLIJCPME",
      "abilityName": "Weapon_Pole_Dvalin",
      "paramSpecial": "CDTime",
      "paramDelta": "%5",
      "paramRatio": 0.0
    }
  ],
  "Weapon_Pole_EnergyPoem": [],
  "Weapon_Pole_DamageUpToAllElement": [],
  "Weapon_Pole_Kunwu_DamageUpWithShield": [
    {
      "$type": "LIPCJEMPMCO",
      "abilityName": "Weapon_Pole_Kunwu_DamageUpWithShield"
    },
    {
      "$type": "CHIFLIJCPME",
      "abilityName": "Weapon_Pole_Kunwu_DamageUpWithShield",
      "paramSpecial": "Shield_Up",
      "paramDelta": "%1",
      "paramRatio": 0.0
    },
    {
      "$type": "CHIFLIJCPME",
      "abilityName": "Weapon_Pole_Kunwu_DamageUpWithShield",
      "paramSpecial": "Dmg_Rate",
      "paramDelta": "%2",
      "paramRatio": 0.0
    },
    {
      "$type": "CHIFLIJCPME",
      "abilityName": "Weapon_Pole_Kunwu_DamageUpWithShield",
      "paramSpecial": "Timer",
      "paramDelta": "%3",
      "paramRatio": 0.0
    }
  ],
  "Weapon_Pole_AttackUpAndSkillDamageUp": [
    {
      "$type": "LIPCJEMPMCO",
      "abilityName": "Weapon_Pole_AttackUpAndSkillDamageUp"
    },
    {
      "$type": "CHIFLIJCPME",
      "abilityName": "Weapon_Pole_AttackUpAndSkillDamageUp",
      "paramSpecial": "Rate",
      "paramDelta": "%1",
      "paramRatio": 0.0
    },
    {
      "$type": "CHIFLIJCPME",
      "abilityName": "Weapon_Pole_AttackUpAndSkillDamageUp",
      "paramSpecial": "Rate2",
      "paramDelta": "%2",
      "paramRatio": 0.0
    }
  ],
  "Weapon_Pole_Regicide": [
    {
      "$type": "LIPCJEMPMCO",
      "abilityName": "Weapon_Pole_Regicide"
    },
    {
      "$type": "CHIFLIJCPME",
      "abilityName": "Weapon_Pole_Regicide",
      "paramSpecial": "Cost",
      "paramDelta": "%2",
      "paramRatio": 0.0
    },
    {
      "$type": "CHIFLIJCPME",
      "abilityName": "Weapon_Pole_Regicide",
      "paramSpecial": "Rate",
      "paramDelta": "%3",
      "paramRatio": 0.0
    }
  ],
  "Weapon_Pole_AttacktUpAfterReaction": [
    {
      "$type": "LIPCJEMPMCO",
      "abilityName": "Weapon_Pole_AttacktUpAfterReaction"
    },
    {
      "$type": "CHIFLIJCPME",
      "abilityName": "Weapon_Pole_AttacktUpAfterReaction",
      "paramSpecial": "Rate",
      "paramDelta": "%1",
      "paramRatio": 0.0
    }
  ],
  "Weapon_Pole_DamageUpToEnemy_0": [
    {
      "$type": "LIPCJEMPMCO",
      "abilityName": "Weapon_Pole_DamageUpToEnemy"
    }
  ],
  "Weapon_Pole_DamageUpToEnemy_1": [
    {
      "$type": "CHIFLIJCPME",
      "abilityName": "Weapon_Pole_DamageUpToEnemy",
      "paramSpecial": "Rate",
      "paramDelta": 0.029999999329447746,
      "paramRatio": 0.0
    }
  ],
  "Weapon_Pole_DamageUpToEnemy_2": [
    {
      "$type": "CHIFLIJCPME",
      "abilityName": "Weapon_Pole_DamageUpToEnemy",
      "paramSpecial": "Rate",
      "paramDelta": 0.029999999329447746,
      "paramRatio": 0.0
    }
  ],
  "Weapon_Pole_DamageUpToEnemy_3": [
    {
      "$type": "CHIFLIJCPME",
      "abilityName": "Weapon_Pole_DamageUpToEnemy",
      "paramSpecial": "Rate",
      "paramDelta": 0.029999999329447746,
      "paramRatio": 0.0
    }
  ],
  "Weapon_Pole_DamageUpToEnemy_4": [
    {
      "$type": "CHIFLIJCPME",
      "abilityName": "Weapon_Pole_DamageUpToEnemy",
      "paramSpecial": "Rate",
      "paramDelta": 0.029999999329447746,
      "paramRatio": 0.0
    }
  ],
  "Weapon_Pole_Bakufu": [
    {
      "$type": "LIPCJEMPMCO",
      "abilityName": "Weapon_Pole_Bakufu"
    },
    {
      "$type": "CHIFLIJCPME",
      "abilityName": "Weapon_Pole_Bakufu",
      "paramSpecial": "Rate",
      "paramDelta": "%1"
    },
    {
      "$type": "CHIFLIJCPME",
      "abilityName": "Weapon_Pole_Bakufu",
      "paramSpecial": "EnergyCost",
      "paramDelta": "%2"
    },
    {
      "$type": "CHIFLIJCPME",
      "abilityName": "Weapon_Pole_Bakufu",
      "paramSpecial": "EnergyPerTime",
      "paramDelta": "%3"
    },
    {
      "$type": "CHIFLIJCPME",
      "abilityName": "Weapon_Pole_Bakufu",
      "paramSpecial": "Dura",
      "paramDelta": "%4"
    },
    {
      "$type": "CHIFLIJCPME",
      "abilityName": "Weapon_Pole_Bakufu",
      "paramSpecial": "CDTime",
      "paramDelta": "%5"
    }
  ],
  "Weapon_Pole_Mori": [
    {
      "$type": "LIPCJEMPMCO",
      "abilityName": "Weapon_Pole_Mori"
    },
    {
      "$type": "CHIFLIJCPME",
      "abilityName": "Weapon_Pole_Mori",
      "paramSpecial": "Damage_Rate",
      "paramDelta": "%1",
      "paramRatio": 0.0
    },
    {
      "$type": "CHIFLIJCPME",
      "abilityName": "Weapon_Pole_Mori",
      "paramSpecial": "Crit_Rate",
      "paramDelta": "%2",
      "paramRatio": 0.0
    }
  ],
  "Weapon_Pole_Maria": [
    {
      "$type": "LIPCJEMPMCO",
      "abilityName": "Weapon_Pole_Maria"
    },
    {
      "$type": "CHIFLIJCPME",
      "abilityName": "Weapon_Pole_Maria",
      "paramSpecial": "Ratio",
      "paramDelta": "%1",
      "paramRatio": 0.0
    },
    {
      "$type": "CHIFLIJCPME",
      "abilityName": "Weapon_Pole_Maria",
      "paramSpecial": "Max_Value",
      "paramDelta": "%2",
      "paramRatio": 0.0
    }
  ],
  "Weapon_Pole_Narukami": [
    {
      "$type": "LIPCJEMPMCO",
      "abilityName": "Weapon_Pole_Narukami"
    },
    {
      "$type": "CHIFLIJCPME",
      "abilityName": "Weapon_Pole_Narukami",
      "paramSpecial": "ChargetoAtk_Factor",
      "paramDelta": "%1",
      "paramRatio": 0.0
    },
    {
      "$type": "CHIFLIJCPME",
      "abilityName": "Weapon_Pole_Narukami",
      "paramSpecial": "MaxAttackRatio",
      "paramDelta": "%2",
      "paramRatio": 0.0
    },
    {
      "$type": "CHIFLIJCPME",
      "abilityName": "Weapon_Pole_Narukami",
      "paramSpecial": "ChargeEfficiency",
      "paramDelta": "%3",
      "paramRatio": 0.0
    },
    {
      "$type": "CHIFLIJCPME",
      "abilityName": "Weapon_Pole_Narukami",
      "paramSpecial": "Dura",
      "paramDelta": "%4",
      "paramRatio": 0.0
    }
  ],
  "Weapon_Pole_Santika": [
    {
      "$type": "LIPCJEMPMCO",
      "abilityName": "Weapon_Pole_Santika"
    },
    {
      "$type": "CHIFLIJCPME",
      "abilityName": "Weapon_Pole_Santika",
      "paramSpecial": "BaseBuff",
      "paramDelta": "%1",
      "paramRatio": 0.0
    },
    {
      "$type": "CHIFLIJCPME",
      "abilityName": "Weapon_Pole_Santika",
      "paramSpecial": "Interval",
      "paramDelta": "%2",
      "paramRatio": 0.0
    },
    {
      "$type": "CHIFLIJCPME",
      "abilityName": "Weapon_Pole_Santika",
      "paramSpecial": "AttackRatio",
      "paramDelta": "%3",
      "paramRatio": 0.0
    },
    {
      "$type": "CHIFLIJCPME",
      "abilityName": "Weapon_Pole_Santika",
      "paramSpecial": "Dura",
      "paramDelta": "%5",
      "paramRatio": 0.0
    }
  ],
  "Weapon_Pole_Arakalari": [
    {
      "$type": "LIPCJEMPMCO",
      "abilityName": "Weapon_Pole_Arakalari"
    },
    {
      "$type": "CHIFLIJCPME",
      "abilityName": "Ability_Weapon_Pole_Arakalari_Trigger",
      "paramSpecial": "Rate",
      "paramDelta": "%1",
      "paramRatio": 0.0
    },
    {
      "$type": "CHIFLIJCPME",
      "abilityName": "Ability_Weapon_Pole_Arakalari_Trigger",
      "paramSpecial": "BuffTime",
      "paramDelta": "%2",
      "paramRatio": 0.0
    },
    {
      "$type": "CHIFLIJCPME",
      "abilityName": "Weapon_Pole_Arakalari",
      "paramSpecial": "ColdDown",
      "paramDelta": "%3",
      "paramRatio": 0.0
    },
    {
      "$type": "CHIFLIJCPME",
      "abilityName": "Ability_Weapon_Pole_Arakalari_Trigger",
      "paramSpecial": "TriggerDuration",
      "paramDelta": "%4",
      "paramRatio": 0.0
    }
  ],
  "Weapon_Pole_Deshret": [
    {
      "$type": "LIPCJEMPMCO",
      "abilityName": "Weapon_Pole_Deshret"
    },
    {
      "$type": "CHIFLIJCPME",
      "abilityName": "Weapon_Pole_Deshret",
      "paramSpecial": "Ratio_Base",
      "paramDelta": "%1",
      "paramRatio": 0.0
    },
    {
      "$type": "CHIFLIJCPME",
      "abilityName": "Weapon_Pole_Deshret",
      "paramSpecial": "Ratio_Level",
      "paramDelta": "%2",
      "paramRatio": 0.0
    },
    {
      "$type": "CHIFLIJCPME",
      "abilityName": "Weapon_Pole_Deshret",
      "paramSpecial": "Dura",
      "paramDelta": "%3",
      "paramRatio": 0.0
    },
    {
      "$type": "CHIFLIJCPME",
      "abilityName": "Weapon_Pole_Deshret",
      "paramSpecial": "Trigger_CD",
      "paramDelta": "%4",
      "paramRatio": 0.0
    }
  ],
  "Weapon_Pole_Windvane": [
    {
      "$type": "LIPCJEMPMCO",
      "abilityName": "Weapon_Pole_Windvane"
    },
    {
      "$type": "CHIFLIJCPME",
      "abilityName": "Weapon_Pole_Windvane",
      "paramSpecial": "AttackRate",
      "paramDelta": "%1",
      "paramRatio": 0.0
    },
    {
      "$type": "CHIFLIJCPME",
      "abilityName": "Weapon_Pole_Windvane",
      "paramSpecial": "ElemMastery",
      "paramDelta": "%2",
      "paramRatio": 0.0
    },
    {
      "$type": "CHIFLIJCPME",
      "abilityName": "Weapon_Pole_Windvane",
      "paramSpecial": "Dura",
      "paramDelta": "%3",
      "paramRatio": 0.0
    }
  ],
  "Weapon_Pole_Shanty": [
    {
      "$type": "LIPCJEMPMCO",
      "abilityName": "Weapon_Pole_Shanty"
    },
    {
      "$type": "CHIFLIJCPME",
      "abilityName": "Weapon_Pole_Shanty",
      "paramSpecial": "MasteryUp",
      "paramDelta": "%1",
      "paramRatio": 0.0
    }
  ],
  "Weapon_Pole_Vorpal": [
    {
      "$type": "LIPCJEMPMCO",
      "abilityName": "Weapon_Pole_Vorpal"
    },
    {
      "$type": "CHIFLIJCPME",
      "abilityName": "Weapon_Pole_Vorpal",
      "paramSpecial": "Rate",
      "paramDelta": "%1",
      "paramRatio": 0.0
    },
    {
      "$type": "CHIFLIJCPME",
      "abilityName": "Weapon_Pole_Vorpal",
      "paramSpecial": "Time",
      "paramDelta": "%2",
      "paramRatio": 0.0
    }
  ],
  "Weapon_Pole_Mechanic": [
    {
      "$type": "LIPCJEMPMCO",
      "abilityName": "Weapon_Pole_Mechanic"
    },
    {
      "$type": "CHIFLIJCPME",
      "abilityName": "Weapon_Pole_Mechanic",
      "paramSpecial": "MarkDuration",
      "paramDelta": "%1",
      "paramRatio": 0.0
    },
    {
      "$type": "CHIFLIJCPME",
      "abilityName": "Weapon_Pole_Mechanic",
      "paramSpecial": "BuffDuration",
      "paramDelta": "%2",
      "paramRatio": 0.0
    },
    {
      "$type": "CHIFLIJCPME",
      "abilityName": "Weapon_Pole_Mechanic",
      "paramSpecial": "BuffCD",
      "paramDelta": "%3",
      "paramRatio": 0.0
    },
    {
      "$type": "CHIFLIJCPME",
      "abilityName": "Weapon_Pole_Mechanic",
      "paramSpecial": "AttackUp",
      "paramDelta": "%4",
      "paramRatio": 0.0
    },
    {
      "$type": "CHIFLIJCPME",
      "abilityName": "Weapon_Pole_Mechanic",
      "paramSpecial": "ElementalUp",
      "paramDelta": "%5",
      "paramRatio": 0.0
    }
  ],
  "Weapon_Pole_Caduceus": [
    {
      "$type": "LIPCJEMPMCO",
      "abilityName": "Weapon_Pole_Caduceus"
    },
    {
      "$type": "CHIFLIJCPME",
      "abilityName": "Weapon_Pole_Caduceus",
      "paramSpecial": "Energy",
      "paramDelta": "%1"
    },
    {
      "$type": "CHIFLIJCPME",
      "abilityName": "Weapon_Pole_Caduceus",
      "paramSpecial": "CDTime",
      "paramDelta": "%2"
    }
  ],
  "Weapon_Pole_BloodMoon": [
    {
      "$type": "LIPCJEMPMCO",
      "abilityName": "Weapon_Pole_BloodMoon"
    },
    {
      "$type": "CHIFLIJCPME",
      "abilityName": "Weapon_Pole_BloodMoon",
      "paramSpecial": "Debts",
      "paramDelta": "%1"
    },
    {
      "$type": "CHIFLIJCPME",
      "abilityName": "Weapon_Pole_BloodMoon",
      "paramSpecial": "CD_Time",
      "paramDelta": "%2"
    },
    {
      "$type": "CHIFLIJCPME",
      "abilityName": "Weapon_Pole_BloodMoon",
      "paramSpecial": "DamageUp1",
      "paramDelta": "%3"
    },
    {
      "$type": "CHIFLIJCPME",
      "abilityName": "Weapon_Pole_BloodMoon",
      "paramSpecial": "DebtsCompare",
      "paramDelta": "%4"
    },
    {
      "$type": "CHIFLIJCPME",
      "abilityName": "Weapon_Pole_BloodMoon",
      "paramSpecial": "DamageUp2",
      "paramDelta": "%3"
    },
    {
      "$type": "CHIFLIJCPME",
      "abilityName": "Weapon_Pole_BloodMoon",
      "paramSpecial": "DamageUp2",
      "paramDelta": "%5"
    }
  ]
}