{
  "luaDataPath": "",
  "isSimpleTalk": true,
  "entityBan": "",
  "disableNpcLod": true,
  "startFade": {
    "startFadeOutDuration": 0.0
  },
  "endFade": {
    "startFadeOutDuration": 0.0
  },
  "actors": [
    {
      "alias": "Avatar",
      "visible": true,
      "bornPointName": "",
      "relativePosNpcAlias": "",
      "_bindMovingTargetKey": ""
    },
    {
      "configID": 20333,
      "alias": "20333",
      "visible": true,
      "bornPointName": "",
      "relativePosNpcAlias": "",
      "_bindMovingTargetKey": ""
    },
    {
      "configID": 1005,
      "alias": "1005",
      "visible": true,
      "bornPointName": "",
      "useRelativePos": true,
      "relativePos": {
        "x": 0.5,
        "z": 0.5
      },
      "relativePosNpcAlias": "",
      "_bindMovingTargetKey": ""
    }
  ],
  "group": [
    [
      {
        "$type": "MoleMole.Config.ConfigTimeProtectAction",
        "type": "TIME_PROTECT",
        "duration": 0.10000000149011612
      },
      {
        "$type": "EFHODGEJOHJ",
        "type": "CAMERA_FOCUS",
        "duration": 0.10000000149011612,
        "targetNpcAlias": "",
        "PHGBNNGCJKJ": "",
        "NFILMKCFHEB": "",
        "BGPNGHDAECF": ""
      }
    ],
    [
      {
        "$type": "MJFAIFFAGOF",
        "type": "DIALOG",
        "aliasList": [
          "20333"
        ],
        "dialogID": 721751801,
        "protectTime": 0.5
      }
    ],
    [
      {
        "$type": "MJFAIFFAGOF",
        "type": "DIALOG",
        "aliasList": [
          "1005"
        ],
        "dialogID": 721751802,
        "protectTime": 0.5
      }
    ],
    [
      {
        "$type": "MJFAIFFAGOF",
        "type": "DIALOG",
        "aliasList": [
          "20333"
        ],
        "dialogID": 721751803,
        "protectTime": 0.5
      }
    ],
    [
      {
        "$type": "MJFAIFFAGOF",
        "type": "DIALOG",
        "aliasList": [
          "1005"
        ],
        "dialogID": 721751804,
        "protectTime": 0.5
      },
      {
        "$type": "OBCDECFOOBC",
        "type": "DIALOG_SELECT",
        "delayTime": 0.4000000059604645,
        "aliasList": [
          "Avatar"
        ],
        "dialogIDList": [
          721751805,
          721751807
        ],
        "grpIDList": [
          2231053213,
          2231053214
        ],
        "useGrpId": true
      }
    ],
    [
      {
        "$type": "MJFAIFFAGOF",
        "type": "DIALOG",
        "aliasList": [
          "1005"
        ],
        "dialogID": 721751806,
        "protectTime": 0.5
      }
    ],
    [
      {
        "$type": "MJFAIFFAGOF",
        "type": "DIALOG",
        "aliasList": [
          "1005"
        ],
        "dialogID": 721751808,
        "protectTime": 0.5
      }
    ],
    [
      {
        "$type": "MJFAIFFAGOF",
        "type": "DIALOG",
        "aliasList": [
          "20333"
        ],
        "dialogID": 721751809,
        "protectTime": 0.5
      }
    ],
    [
      {
        "$type": "MJFAIFFAGOF",
        "type": "DIALOG",
        "aliasList": [
          "20333"
        ],
        "dialogID": 721751810,
        "protectTime": 0.5
      }
    ],
    [
      {
        "$type": "MJFAIFFAGOF",
        "type": "DIALOG",
        "aliasList": [
          "1005"
        ],
        "dialogID": 721751811,
        "protectTime": 0.5
      },
      {
        "$type": "OBCDECFOOBC",
        "type": "DIALOG_SELECT",
        "delayTime": 0.4000000059604645,
        "aliasList": [
          "Avatar"
        ],
        "dialogIDList": [
          721751812
        ],
        "grpIDList": [
          443172761
        ],
        "useGrpId": true
      }
    ],
    [
      {
        "$type": "MJFAIFFAGOF",
        "type": "DIALOG",
        "aliasList": [
          "20333"
        ],
        "dialogID": 721751813,
        "protectTime": 0.5
      }
    ],
    [
      {
        "$type": "MJFAIFFAGOF",
        "type": "DIALOG",
        "aliasList": [
          "20333"
        ],
        "dialogID": 721751814,
        "protectTime": 0.5
      }
    ],
    [
      {
        "$type": "MJFAIFFAGOF",
        "type": "DIALOG",
        "aliasList": [
          "1005"
        ],
        "dialogID": 721751815,
        "protectTime": 0.5
      },
      {
        "$type": "OBCDECFOOBC",
        "type": "DIALOG_SELECT",
        "delayTime": 0.4000000059604645,
        "aliasList": [
          "Avatar"
        ],
        "dialogIDList": [
          721751816,
          721751817
        ],
        "grpIDList": [
          443172764,
          443172764
        ],
        "useGrpId": true
      }
    ],
    [
      {
        "$type": "MJFAIFFAGOF",
        "type": "DIALOG",
        "aliasList": [
          "20333"
        ],
        "dialogID": 721751818,
        "protectTime": 0.5
      }
    ],
    [
      {
        "$type": "MJFAIFFAGOF",
        "type": "DIALOG",
        "aliasList": [
          "1005"
        ],
        "dialogID": 721751819,
        "protectTime": 0.5
      }
    ],
    [
      {
        "$type": "MJFAIFFAGOF",
        "type": "DIALOG",
        "aliasList": [
          "20333"
        ],
        "dialogID": 721751820,
        "protectTime": 0.5
      }
    ],
    [
      {
        "$type": "MJFAIFFAGOF",
        "type": "DIALOG",
        "aliasList": [
          "1005"
        ],
        "dialogID": 721751821,
        "protectTime": 0.5
      }
    ],
    [
      {
        "$type": "MJFAIFFAGOF",
        "type": "DIALOG",
        "aliasList": [
          "20333"
        ],
        "dialogID": 721751822,
        "protectTime": 0.5
      }
    ],
    [
      {
        "$type": "MJFAIFFAGOF",
        "type": "DIALOG",
        "aliasList": [
          "20333"
        ],
        "dialogID": 721751823,
        "protectTime": 0.5
      }
    ],
    [
      {
        "$type": "MJFAIFFAGOF",
        "type": "DIALOG",
        "aliasList": [
          "1005"
        ],
        "dialogID": 721751824,
        "protectTime": 0.5
      }
    ],
    [
      {
        "$type": "MJFAIFFAGOF",
        "type": "DIALOG",
        "aliasList": [
          "20333"
        ],
        "dialogID": 721751825,
        "protectTime": 0.5
      },
      {
        "$type": "OBCDECFOOBC",
        "type": "DIALOG_SELECT",
        "delayTime": 0.4000000059604645,
        "aliasList": [
          "Avatar"
        ],
        "dialogIDList": [
          721751826
        ],
        "grpIDList": [
          443172793
        ],
        "useGrpId": true
      }
    ],
    [
      {
        "$type": "MJFAIFFAGOF",
        "type": "DIALOG",
        "aliasList": [
          "20333"
        ],
        "dialogID": 721751827,
        "protectTime": 0.5
      }
    ],
    [
      {
        "$type": "MJFAIFFAGOF",
        "type": "DIALOG",
        "aliasList": [
          "20333"
        ],
        "dialogID": 721751828,
        "protectTime": 0.5
      },
      {
        "$type": "OBCDECFOOBC",
        "type": "DIALOG_SELECT",
        "delayTime": 0.4000000059604645,
        "aliasList": [
          "Avatar"
        ],
        "dialogIDList": [
          721751829,
          721751830
        ],
        "grpIDList": [
          443172795,
          443172795
        ],
        "useGrpId": true
      }
    ],
    [
      {
        "$type": "MJFAIFFAGOF",
        "type": "DIALOG",
        "aliasList": [
          "20333"
        ],
        "dialogID": 721751831,
        "protectTime": 0.5
      }
    ],
    [
      {
        "$type": "MJFAIFFAGOF",
        "type": "DIALOG",
        "aliasList": [
          "1005"
        ],
        "dialogID": 721751832,
        "protectTime": 0.5
      }
    ],
    [
      {
        "$type": "MJFAIFFAGOF",
        "type": "DIALOG",
        "aliasList": [
          "20333"
        ],
        "dialogID": 721751833,
        "protectTime": 0.5
      }
    ],
    [
      {
        "$type": "MJFAIFFAGOF",
        "type": "DIALOG",
        "aliasList": [
          "20333"
        ],
        "dialogID": 721751834,
        "protectTime": 0.5
      }
    ],
    [
      {
        "$type": "MJFAIFFAGOF",
        "type": "DIALOG",
        "aliasList": [
          "20333"
        ],
        "dialogID": 721751835,
        "protectTime": 0.5
      }
    ],
    [
      {
        "$type": "MJFAIFFAGOF",
        "type": "DIALOG",
        "aliasList": [
          "20333"
        ],
        "dialogID": 721751836,
        "protectTime": 0.5
      }
    ],
    [
      {
        "$type": "MJFAIFFAGOF",
        "type": "DIALOG",
        "aliasList": [
          "1005"
        ],
        "dialogID": 721751837,
        "protectTime": 0.5
      }
    ],
    [
      {
        "$type": "MJFAIFFAGOF",
        "type": "DIALOG",
        "aliasList": [
          "20333"
        ],
        "dialogID": 721751838,
        "protectTime": 0.5
      }
    ],
    [
      {
        "$type": "MJFAIFFAGOF",
        "type": "DIALOG",
        "aliasList": [
          "20333"
        ],
        "dialogID": 721751839,
        "protectTime": 0.5
      }
    ],
    [
      {
        "$type": "MJFAIFFAGOF",
        "type": "DIALOG",
        "aliasList": [
          "20333"
        ],
        "dialogID": 721751840,
        "protectTime": 0.5
      }
    ],
    [
      {
        "$type": "MJFAIFFAGOF",
        "type": "DIALOG",
        "aliasList": [
          "1005"
        ],
        "dialogID": 721751841,
        "protectTime": 0.5
      }
    ],
    [
      {
        "$type": "MJFAIFFAGOF",
        "type": "DIALOG",
        "aliasList": [
          "20333"
        ],
        "dialogID": 721751842,
        "protectTime": 0.5
      }
    ],
    [
      {
        "$type": "MJFAIFFAGOF",
        "type": "DIALOG",
        "aliasList": [
          "20333"
        ],
        "dialogID": 721751843,
        "protectTime": 0.5
      }
    ],
    [
      {
        "$type": "MJFAIFFAGOF",
        "type": "DIALOG",
        "aliasList": [
          "20333"
        ],
        "dialogID": 721751844,
        "protectTime": 0.5
      }
    ],
    [
      {
        "$type": "MJFAIFFAGOF",
        "type": "DIALOG",
        "aliasList": [
          "20333"
        ],
        "dialogID": 721751845,
        "protectTime": 0.5
      }
    ],
    [
      {
        "$type": "MoleMole.Config.ConfigTimeProtectAction",
        "type": "TIME_PROTECT",
        "duration": 0.10000000149011612
      }
    ]
  ],
  "groupId": [
    {
      "grpId": 2231053208,
      "nextGrpId": 2231053209
    },
    {
      "index": 1,
      "grpId": 2231053209,
      "nextGrpId": 2231053210
    },
    {
      "index": 2,
      "grpId": 2231053210,
      "nextGrpId": 2231053211
    },
    {
      "index": 3,
      "grpId": 2231053211,
      "nextGrpId": 2231053212
    },
    {
      "index": 4,
      "grpId": 2231053212,
      "nextGrpId": 2231053213
    },
    {
      "index": 5,
      "grpId": 2231053213,
      "nextGrpId": 2231053215
    },
    {
      "index": 6,
      "grpId": 2231053214,
      "nextGrpId": 2231053215
    },
    {
      "index": 7,
      "grpId": 2231053215,
      "nextGrpId": 2231053216
    },
    {
      "index": 8,
      "grpId": 2231053216,
      "nextGrpId": 443172760
    },
    {
      "index": 9,
      "grpId": 443172760,
      "nextGrpId": 443172761
    },
    {
      "index": 10,
      "grpId": 443172761,
      "nextGrpId": 443172762
    },
    {
      "index": 11,
      "grpId": 443172762,
      "nextGrpId": 443172763
    },
    {
      "index": 12,
      "grpId": 443172763,
      "nextGrpId": 443172764
    },
    {
      "index": 13,
      "grpId": 443172764,
      "nextGrpId": 443172765
    },
    {
      "index": 14,
      "grpId": 443172765,
      "nextGrpId": 443172766
    },
    {
      "index": 15,
      "grpId": 443172766,
      "nextGrpId": 443172767
    },
    {
      "index": 16,
      "grpId": 443172767,
      "nextGrpId": 443172768
    },
    {
      "index": 17,
      "grpId": 443172768,
      "nextGrpId": 443172769
    },
    {
      "index": 18,
      "grpId": 443172769,
      "nextGrpId": 443172791
    },
    {
      "index": 19,
      "grpId": 443172791,
      "nextGrpId": 443172792
    },
    {
      "index": 20,
      "grpId": 443172792,
      "nextGrpId": 443172793
    },
    {
      "index": 21,
      "grpId": 443172793,
      "nextGrpId": 443172794
    },
    {
      "index": 22,
      "grpId": 443172794,
      "nextGrpId": 443172795
    },
    {
      "index": 23,
      "grpId": 443172795,
      "nextGrpId": 443172796
    },
    {
      "index": 24,
      "grpId": 443172796,
      "nextGrpId": 443172797
    },
    {
      "index": 25,
      "grpId": 443172797,
      "nextGrpId": 443172798
    },
    {
      "index": 26,
      "grpId": 443172798,
      "nextGrpId": 443172799
    },
    {
      "index": 27,
      "grpId": 443172799,
      "nextGrpId": 443172800
    },
    {
      "index": 28,
      "grpId": 443172800,
      "nextGrpId": 443172822
    },
    {
      "index": 29,
      "grpId": 443172822,
      "nextGrpId": 443172823
    },
    {
      "index": 30,
      "grpId": 443172823,
      "nextGrpId": 443172824
    },
    {
      "index": 31,
      "grpId": 443172824,
      "nextGrpId": 443172825
    },
    {
      "index": 32,
      "grpId": 443172825,
      "nextGrpId": 443172826
    },
    {
      "index": 33,
      "grpId": 443172826,
      "nextGrpId": 443172827
    },
    {
      "index": 34,
      "grpId": 443172827,
      "nextGrpId": 443172828
    },
    {
      "index": 35,
      "grpId": 443172828,
      "nextGrpId": 443172829
    },
    {
      "index": 36,
      "grpId": 443172829,
      "nextGrpId": 443172830
    },
    {
      "index": 37,
      "grpId": 443172830,
      "nextGrpId": 443172831
    },
    {
      "index": 38,
      "grpId": 443172831,
      "nextGrpId": 443172853
    }
  ],
  "freeStyleDic": {
    "20333": []
  }
}