[
  {
    "id": 1,
    "storyId": 300136731,
    "ICENIOBJNDM": {
      "$type": "MGILDPJPBLA",
      "sceneId": 3,
      "OEMOPMPPELD": [
        {
          "npcId": 13673,
          "AEDPIJPOLCN": 421367300
        }
      ],
      "FHJKIOEOFJA": "STORY_BY_NPC_DEPLOY_ALL_VALID"
    }
  },
  {
    "id": 2,
    "storyId": 300135871,
    "ICENIOBJNDM": {
      "$type": "MGILDPJPBLA",
      "sceneId": 3,
      "OEMOPMPPELD": [
        {
          "npcId": 13587,
          "AEDPIJPOLCN": 421358700
        }
      ],
      "FHJKIOEOFJA": "STORY_BY_NPC_DEPLOY_ALL_VALID"
    }
  },
  {
    "id": 3,
    "storyId": 300025140,
    "ICENIOBJNDM": {
      "$type": "MGILDPJPBLA",
      "sceneId": 3,
      "OEMOPMPPELD": [
        {
          "npcId": 2514,
          "AEDPIJPOLCN": 442514000
        }
      ],
      "FHJKIOEOFJA": "STORY_BY_NPC_DEPLOY_ALL_VALID"
    }
  },
  {
    "id": 430001,
    "storyId": 300304601,
    "ICENIOBJNDM": {
      "$type": "MGILDPJPBLA",
      "sceneId": 3,
      "OEMOPMPPELD": [
        {
          "npcId": 30460,
          "AEDPIJPOLCN": 433046001
        }
      ],
      "FHJKIOEOFJA": "STORY_BY_NPC_DEPLOY_ALL_VALID",
      "DJLAFGLCEAN": "STORY_BY_NPC_CANCEL_ANY_DESTROY"
    }
  },
  {
    "id": 440001,
    "storyId": 300025150,
    "ICENIOBJNDM": {
      "$type": "MGILDPJPBLA",
      "sceneId": 3,
      "OEMOPMPPELD": [
        {
          "npcId": 2515,
          "AEDPIJPOLCN": 442515000
        }
      ]
    }
  },
  {
    "id": 440002,
    "storyId": 300304921,
    "ICENIOBJNDM": {
      "$type": "MGILDPJPBLA",
      "sceneId": 3,
      "OEMOPMPPELD": [
        {
          "npcId": 30492,
          "AEDPIJPOLCN": 443049200
        },
        {
          "npcId": 30493,
          "AEDPIJPOLCN": 443049300
        }
      ],
      "DJLAFGLCEAN": "STORY_BY_NPC_CANCEL_ALL_INVALID"
    }
  },
  {
    "id": 440003,
    "storyId": 300022400,
    "ICENIOBJNDM": {
      "$type": "MGILDPJPBLA",
      "sceneId": 3,
      "OEMOPMPPELD": [
        {
          "npcId": 2240,
          "AEDPIJPOLCN": 442240000
        }
      ]
    }
  },
  {
    "id": 440004,
    "storyId": 300022410,
    "ICENIOBJNDM": {
      "$type": "MGILDPJPBLA",
      "sceneId": 3,
      "OEMOPMPPELD": [
        {
          "npcId": 2241,
          "AEDPIJPOLCN": 442241000
        }
      ]
    }
  },
  {
    "id": 440005,
    "storyId": 300304961,
    "ICENIOBJNDM": {
      "$type": "MGILDPJPBLA",
      "sceneId": 3,
      "OEMOPMPPELD": [
        {
          "npcId": 30496,
          "AEDPIJPOLCN": 443049600
        },
        {
          "npcId": 30497,
          "AEDPIJPOLCN": 443049700
        }
      ],
      "DJLAFGLCEAN": "STORY_BY_NPC_CANCEL_ALL_INVALID"
    }
  },
  {
    "id": 440006,
    "storyId": 300304981,
    "ICENIOBJNDM": {
      "$type": "MGILDPJPBLA",
      "sceneId": 3,
      "OEMOPMPPELD": [
        {
          "npcId": 30498,
          "AEDPIJPOLCN": 443049800
        },
        {
          "npcId": 30499,
          "AEDPIJPOLCN": 443049900
        }
      ],
      "DJLAFGLCEAN": "STORY_BY_NPC_CANCEL_ALL_INVALID"
    }
  },
  {
    "id": 470001,
    "storyId": 300095001,
    "ICENIOBJNDM": {
      "$type": "MGILDPJPBLA",
      "sceneId": 48000,
      "OEMOPMPPELD": [
        {
          "npcId": 9500,
          "AEDPIJPOLCN": 479500000
        }
      ]
    }
  }
]