{
  "luaDataPath": "",
  "entityBan": "",
  "startFade": {
    "startFadeOutDuration": 0.0
  },
  "endFade": {
    "startFadeOutDuration": 0.0
  },
  "actors": [
    {
      "alias": "Avatar",
      "visible": true,
      "bornPointName": "Q20517_Player_InitPos",
      "relativePosNpcAlias": "",
      "_bindMovingTargetKey": ""
    },
    {
      "configID": 1005,
      "alias": "1005",
      "visible": true,
      "bornPointName": "Q20517_Paimeng_InitPos",
      "relativePosNpcAlias": "",
      "_bindMovingTargetKey": ""
    },
    {
      "configID": 20141,
      "alias": "20141",
      "visible": true,
      "bornPointName": "Q20517_DaoBaoTuan",
      "relativePosNpcAlias": "",
      "_bindMovingTargetKey": ""
    },
    {
      "configID": 1473,
      "alias": "1473",
      "visible": true,
      "bornPointName": "Q20517_Jiliana2_InitPos",
      "relativePosNpcAlias": "",
      "_bindMovingTargetKey": ""
    }
  ],
  "group": [
    [
      {
        "$type": "EFHODGEJOHJ",
        "type": "CAMERA_MOVE",
        "duration": 1.0,
        "camPosOffset": {
          "x": 2467.64599609375,
          "y": 209.4929962158203,
          "z": -1134.626708984375
        },
        "nearLength": 10.0,
        "camForwardTargetOffset": {
          "x": 2466.975830078125,
          "y": 209.49835205078125,
          "z": -1133.884521484375
        },
        "camFov": 20.0,
        "lerpPattern": 6,
        "cameraBlendType": "EaseInOutCubic",
        "MDKBPBJCMHH": {},
        "targetNpcAlias": "",
        "PHGBNNGCJKJ": "",
        "NFILMKCFHEB": "",
        "BGPNGHDAECF": ""
      },
      {
        "$type": "EFHODGEJOHJ",
        "type": "CAMERA_MOVE",
        "delayTime": 0.75,
        "duration": 6.0,
        "camPosOffset": {
          "x": 2475.333984375,
          "y": 209.77923583984375,
          "z": -1148.364990234375
        },
        "camForwardTargetOffset": {
          "x": 2474.664306640625,
          "y": 209.73960876464844,
          "z": -1147.623291015625
        },
        "camFov": 20.0,
        "cameraBlendType": "EaseInOutSine",
        "MDKBPBJCMHH": {},
        "targetNpcAlias": "",
        "PHGBNNGCJKJ": "",
        "NFILMKCFHEB": "",
        "BGPNGHDAECF": ""
      },
      {
        "$type": "MJFAIFFAGOF",
        "type": "DIALOG",
        "aliasList": [
          "1005"
        ],
        "dialogID": 205174701
      },
      {
        "$type": "EDCHPJLDKIN",
        "type": "BODY_LANG",
        "delayTime": 0.7416666746139526,
        "aliasList": [
          "20141"
        ],
        "bodyLangParam": 1060,
        "eventPatternSuiteKey": ""
      }
    ],
    [
      {
        "$type": "MJFAIFFAGOF",
        "type": "DIALOG",
        "aliasList": [
          "1005"
        ],
        "dialogID": 205174702
      }
    ],
    [
      {
        "$type": "MJFAIFFAGOF",
        "type": "DIALOG",
        "aliasList": [
          "1005"
        ],
        "dialogID": 205174703
      }
    ],
    [
      {
        "$type": "OBCDECFOOBC",
        "type": "DIALOG_SELECT",
        "delayTime": 0.4000000059604645,
        "aliasList": [
          "Avatar"
        ],
        "dialogIDList": [
          205174704
        ],
        "grpIDList": [
          2933683671
        ],
        "useGrpId": true
      }
    ],
    [
      {
        "$type": "MJFAIFFAGOF",
        "type": "DIALOG",
        "aliasList": [
          "1005"
        ],
        "dialogID": 205174705
      }
    ],
    [
      {
        "$type": "MJFAIFFAGOF",
        "type": "DIALOG",
        "aliasList": [
          "1005"
        ],
        "dialogID": 205174706
      }
    ],
    [
      {
        "$type": "EFHODGEJOHJ",
        "type": "CAMERA_MOVE",
        "duration": 1.0,
        "camPosOffset": {
          "x": 2462.092529296875,
          "y": 209.76611328125,
          "z": -1130.9107666015625
        },
        "camForwardTargetOffset": {
          "x": 2462.333740234375,
          "y": 209.75047302246094,
          "z": -1129.9404296875
        },
        "camFov": 40.0,
        "lerpPattern": 6,
        "cameraBlendType": "EaseInOutCubic",
        "MDKBPBJCMHH": {},
        "targetNpcAlias": "",
        "PHGBNNGCJKJ": "",
        "NFILMKCFHEB": "",
        "BGPNGHDAECF": ""
      },
      {
        "$type": "EFHODGEJOHJ",
        "type": "CAMERA_MOVE",
        "delayTime": 0.75,
        "duration": 5.0,
        "camPosOffset": {
          "x": 2462.6533203125,
          "y": 209.70448303222656,
          "z": -1131.05078125
        },
        "camForwardTargetOffset": {
          "x": 2462.5849609375,
          "y": 209.69483947753906,
          "z": -1130.05322265625
        },
        "camFov": 40.0,
        "cameraBlendType": "EaseOutQuad",
        "MDKBPBJCMHH": {},
        "targetNpcAlias": "",
        "PHGBNNGCJKJ": "",
        "NFILMKCFHEB": "",
        "BGPNGHDAECF": ""
      },
      {
        "$type": "MJFAIFFAGOF",
        "type": "DIALOG",
        "delayTime": 0.20000000298023224,
        "aliasList": [
          "20141"
        ],
        "dialogID": 205174707
      },
      {
        "$type": "EDCHPJLDKIN",
        "type": "BODY_LANG",
        "aliasList": [
          "20141"
        ],
        "bodyLangParam": 1030,
        "eventPatternSuiteKey": ""
      }
    ],
    [
      {
        "$type": "MJFAIFFAGOF",
        "type": "DIALOG",
        "aliasList": [
          "20141"
        ],
        "dialogID": 205174708
      }
    ],
    [
      {
        "$type": "MJFAIFFAGOF",
        "type": "DIALOG",
        "aliasList": [
          "20141"
        ],
        "dialogID": 205174709
      }
    ],
    [
      {
        "$type": "MJFAIFFAGOF",
        "type": "DIALOG",
        "aliasList": [
          "1473"
        ],
        "dialogID": 205174710
      },
      {
        "$type": "EDCHPJLDKIN",
        "type": "BODY_LANG",
        "aliasList": [
          "1473"
        ],
        "bodyLangParam": 1040,
        "eventPatternSuiteKey": ""
      }
    ],
    [
      {
        "$type": "EFHODGEJOHJ",
        "type": "CAMERA_MOVE",
        "duration": 1.0,
        "camPosOffset": {
          "x": 2463.2255859375,
          "y": 209.2220001220703,
          "z": -1128.998779296875
        },
        "camForwardTargetOffset": {
          "x": 2462.41748046875,
          "y": 209.5140380859375,
          "z": -1129.510498046875
        },
        "lerpPattern": 6,
        "cameraBlendType": "EaseInOutCubic",
        "MDKBPBJCMHH": {},
        "targetNpcAlias": "",
        "PHGBNNGCJKJ": "",
        "NFILMKCFHEB": "",
        "BGPNGHDAECF": ""
      },
      {
        "$type": "EFHODGEJOHJ",
        "type": "CAMERA_MOVE",
        "delayTime": 0.75,
        "duration": 7.0,
        "camPosOffset": {
          "x": 2463.500244140625,
          "y": 209.26405334472656,
          "z": -1129.4078369140625
        },
        "camForwardTargetOffset": {
          "x": 2462.5498046875,
          "y": 209.52438354492188,
          "z": -1129.578369140625
        },
        "cameraBlendType": "EaseOutQuad",
        "MDKBPBJCMHH": {},
        "targetNpcAlias": "",
        "PHGBNNGCJKJ": "",
        "NFILMKCFHEB": "",
        "BGPNGHDAECF": ""
      },
      {
        "$type": "MJFAIFFAGOF",
        "type": "DIALOG",
        "aliasList": [
          "20141"
        ],
        "dialogID": 205174711
      },
      {
        "$type": "EDCHPJLDKIN",
        "type": "BODY_LANG",
        "aliasList": [
          "20141"
        ],
        "bodyLangParam": 1110,
        "eventPatternSuiteKey": ""
      }
    ],
    [
      {
        "$type": "MJFAIFFAGOF",
        "type": "DIALOG",
        "aliasList": [
          "20141"
        ],
        "dialogID": 205174712
      }
    ],
    [
      {
        "$type": "MJFAIFFAGOF",
        "type": "DIALOG",
        "aliasList": [
          "20141"
        ],
        "dialogID": 205174713
      }
    ],
    [
      {
        "$type": "EFHODGEJOHJ",
        "type": "CAMERA_MOVE",
        "duration": 1.0,
        "camPosOffset": {
          "x": 2462.419677734375,
          "y": 209.3074188232422,
          "z": -1130.773193359375
        },
        "camForwardTargetOffset": {
          "x": 2462.47998046875,
          "y": 209.40562438964844,
          "z": -1129.7799072265625
        },
        "camFov": 25.0,
        "lerpPattern": 6,
        "cameraBlendType": "EaseInOutSine",
        "MDKBPBJCMHH": {},
        "targetNpcAlias": "",
        "PHGBNNGCJKJ": "",
        "NFILMKCFHEB": "",
        "BGPNGHDAECF": ""
      },
      {
        "$type": "MJFAIFFAGOF",
        "type": "DIALOG",
        "delayTime": 0.5,
        "aliasList": [
          "1473"
        ],
        "dialogID": 205174714
      },
      {
        "$type": "EDCHPJLDKIN",
        "type": "BODY_LANG",
        "aliasList": [
          "1473"
        ],
        "bodyLangParam": 1070,
        "eventPatternSuiteKey": ""
      }
    ],
    [
      {
        "$type": "MJFAIFFAGOF",
        "type": "DIALOG",
        "aliasList": [
          "1473"
        ],
        "dialogID": 205174715
      }
    ],
    [
      {
        "$type": "MJFAIFFAGOF",
        "type": "DIALOG",
        "aliasList": [
          "20141"
        ],
        "dialogID": 205174716
      },
      {
        "$type": "EDCHPJLDKIN",
        "type": "BODY_LANG",
        "aliasList": [
          "20141"
        ],
        "bodyLangParam": 1060,
        "eventPatternSuiteKey": ""
      }
    ],
    [
      {
        "$type": "MJFAIFFAGOF",
        "type": "DIALOG",
        "aliasList": [
          "20141"
        ],
        "dialogID": 205174717
      }
    ],
    [
      {
        "$type": "MJFAIFFAGOF",
        "type": "DIALOG",
        "aliasList": [
          "1473"
        ],
        "dialogID": 205174718
      },
      {
        "$type": "EDCHPJLDKIN",
        "type": "BODY_LANG",
        "aliasList": [
          "1473"
        ],
        "bodyLangParam": 1060,
        "eventPatternSuiteKey": ""
      }
    ],
    [
      {
        "$type": "EFHODGEJOHJ",
        "type": "CAMERA_MOVE",
        "delayTime": 0.75,
        "duration": 7.0,
        "camPosOffset": {
          "x": 2465.67138671875,
          "y": 209.24575805664062,
          "z": -1129.48095703125
        },
        "camForwardTargetOffset": {
          "x": 2464.7099609375,
          "y": 209.25111389160156,
          "z": -1129.2061767578125
        },
        "camFov": 50.0,
        "cameraBlendType": "EaseOutQuad",
        "MDKBPBJCMHH": {},
        "targetNpcAlias": "",
        "PHGBNNGCJKJ": "",
        "NFILMKCFHEB": "",
        "BGPNGHDAECF": ""
      },
      {
        "$type": "EFHODGEJOHJ",
        "type": "CAMERA_MOVE",
        "duration": 1.0,
        "camPosOffset": {
          "x": 2465.45068359375,
          "y": 209.221923828125,
          "z": -1130.2513427734375
        },
        "camForwardTargetOffset": {
          "x": 2464.4892578125,
          "y": 209.22727966308594,
          "z": -1129.9765625
        },
        "camFov": 50.0,
        "lerpPattern": 6,
        "cameraBlendType": "EaseInOutCubic",
        "MDKBPBJCMHH": {},
        "targetNpcAlias": "",
        "PHGBNNGCJKJ": "",
        "NFILMKCFHEB": "",
        "BGPNGHDAECF": ""
      },
      {
        "$type": "MJFAIFFAGOF",
        "type": "DIALOG",
        "aliasList": [
          "20141"
        ],
        "dialogID": 205174719
      },
      {
        "$type": "EDCHPJLDKIN",
        "type": "BODY_LANG",
        "aliasList": [
          "20141"
        ],
        "bodyLangParam": 1030,
        "eventPatternSuiteKey": ""
      }
    ],
    [
      {
        "$type": "MJFAIFFAGOF",
        "type": "DIALOG",
        "aliasList": [
          "20141"
        ],
        "dialogID": 205174720
      }
    ],
    [
      {
        "$type": "MJFAIFFAGOF",
        "type": "DIALOG",
        "aliasList": [
          "1473"
        ],
        "dialogID": 205174721
      },
      {
        "$type": "EDCHPJLDKIN",
        "type": "BODY_LANG",
        "aliasList": [
          "1473"
        ],
        "bodyLangParam": 1040,
        "eventPatternSuiteKey": ""
      }
    ],
    [
      {
        "$type": "MJFAIFFAGOF",
        "type": "DIALOG",
        "aliasList": [
          "20141"
        ],
        "dialogID": 205174722
      },
      {
        "$type": "EDCHPJLDKIN",
        "type": "BODY_LANG",
        "aliasList": [
          "20141"
        ],
        "bodyLangParam": 1060,
        "eventPatternSuiteKey": ""
      }
    ],
    [
      {
        "$type": "EFHODGEJOHJ",
        "type": "CAMERA_MOVE",
        "duration": 1.0,
        "camPosOffset": {
          "x": 2463.865234375,
          "y": 209.64071655273438,
          "z": -1126.552490234375
        },
        "camForwardTargetOffset": {
          "x": 2463.2705078125,
          "y": 209.6670684814453,
          "z": -1127.35595703125
        },
        "camFov": 30.0,
        "lerpPattern": 6,
        "cameraBlendType": "EaseInOutCubic",
        "MDKBPBJCMHH": {},
        "targetNpcAlias": "",
        "PHGBNNGCJKJ": "",
        "NFILMKCFHEB": "",
        "BGPNGHDAECF": ""
      },
      {
        "$type": "MJFAIFFAGOF",
        "type": "DIALOG",
        "aliasList": [
          "20141"
        ],
        "dialogID": 205174723
      }
    ],
    [
      {
        "$type": "MJFAIFFAGOF",
        "type": "DIALOG",
        "aliasList": [
          "20141"
        ],
        "dialogID": 205174724
      }
    ],
    [
      {
        "$type": "MJFAIFFAGOF",
        "type": "DIALOG",
        "aliasList": [
          "20141"
        ],
        "dialogID": 205174725
      }
    ],
    [
      {
        "$type": "MJFAIFFAGOF",
        "type": "DIALOG",
        "aliasList": [
          "1473"
        ],
        "dialogID": 205174726
      },
      {
        "$type": "EDCHPJLDKIN",
        "type": "BODY_LANG",
        "aliasList": [
          "1473"
        ],
        "bodyLangParam": 1070,
        "eventPatternSuiteKey": ""
      }
    ],
    [
      {
        "$type": "EFHODGEJOHJ",
        "type": "CAMERA_MOVE",
        "delayTime": 0.75,
        "duration": 5.0,
        "camPosOffset": {
          "x": 2462.45556640625,
          "y": 209.67701721191406,
          "z": -1128.8568115234375
        },
        "camForwardTargetOffset": {
          "x": 2462.148193359375,
          "y": 209.60743713378906,
          "z": -1129.805908203125
        },
        "camFov": 40.0,
        "cameraBlendType": "EaseInOutSine",
        "MDKBPBJCMHH": {},
        "targetNpcAlias": "",
        "PHGBNNGCJKJ": "",
        "NFILMKCFHEB": "",
        "BGPNGHDAECF": ""
      },
      {
        "$type": "EFHODGEJOHJ",
        "type": "CAMERA_MOVE",
        "duration": 1.0,
        "camPosOffset": {
          "x": 2462.671875,
          "y": 209.59214782714844,
          "z": -1128.288330078125
        },
        "camForwardTargetOffset": {
          "x": 2462.364501953125,
          "y": 209.52256774902344,
          "z": -1129.2374267578125
        },
        "camFov": 40.0,
        "lerpPattern": 6,
        "cameraBlendType": "EaseOutQuad",
        "MDKBPBJCMHH": {},
        "targetNpcAlias": "",
        "PHGBNNGCJKJ": "",
        "NFILMKCFHEB": "",
        "BGPNGHDAECF": ""
      },
      {
        "$type": "MJFAIFFAGOF",
        "type": "DIALOG",
        "aliasList": [
          "20141"
        ],
        "dialogID": 205174727
      },
      {
        "$type": "EDCHPJLDKIN",
        "type": "BODY_LANG",
        "aliasList": [
          "20141"
        ],
        "bodyLangParam": 1290,
        "eventPatternSuiteKey": ""
      }
    ],
    [
      {
        "$type": "MJFAIFFAGOF",
        "type": "DIALOG",
        "aliasList": [
          "20141"
        ],
        "dialogID": 205174728
      }
    ],
    [
      {
        "$type": "MJFAIFFAGOF",
        "type": "DIALOG",
        "aliasList": [
          "20141"
        ],
        "dialogID": 205174729
      }
    ],
    [
      {
        "$type": "MJFAIFFAGOF",
        "type": "DIALOG",
        "aliasList": [
          "20141"
        ],
        "dialogID": 205174730
      }
    ],
    [
      {
        "$type": "EFHODGEJOHJ",
        "type": "CAMERA_MOVE",
        "delayTime": 0.75,
        "duration": 5.0,
        "camPosOffset": {
          "x": 2462.45556640625,
          "y": 208.5684814453125,
          "z": -1126.4803466796875
        },
        "camForwardTargetOffset": {
          "x": 2462.593994140625,
          "y": 208.79681396484375,
          "z": -1127.4439697265625
        },
        "camFov": 35.0,
        "cameraBlendType": "EaseInOutSine",
        "MDKBPBJCMHH": {},
        "targetNpcAlias": "",
        "PHGBNNGCJKJ": "",
        "NFILMKCFHEB": "",
        "BGPNGHDAECF": ""
      },
      {
        "$type": "EFHODGEJOHJ",
        "type": "CAMERA_MOVE",
        "duration": 1.0,
        "camPosOffset": {
          "x": 2462.45556640625,
          "y": 208.5684814453125,
          "z": -1126.4803466796875
        },
        "camForwardTargetOffset": {
          "x": 2462.593994140625,
          "y": 208.79681396484375,
          "z": -1127.4439697265625
        },
        "camFov": 55.0,
        "lerpPattern": 6,
        "cameraBlendType": "EaseOutQuad",
        "MDKBPBJCMHH": {},
        "targetNpcAlias": "",
        "PHGBNNGCJKJ": "",
        "NFILMKCFHEB": "",
        "BGPNGHDAECF": ""
      },
      {
        "$type": "MJFAIFFAGOF",
        "type": "DIALOG",
        "aliasList": [
          "1473"
        ],
        "dialogID": 205174731
      },
      {
        "$type": "EDCHPJLDKIN",
        "type": "BODY_LANG",
        "aliasList": [
          "1473"
        ],
        "bodyLangParam": 4190,
        "eventPatternSuiteKey": ""
      }
    ],
    [
      {
        "$type": "MJFAIFFAGOF",
        "type": "DIALOG",
        "aliasList": [
          "1005"
        ],
        "dialogID": 205174733
      }
    ],
    [
      {
        "$type": "OBCDECFOOBC",
        "type": "DIALOG_SELECT",
        "delayTime": 0.4000000059604645,
        "aliasList": [
          "Avatar"
        ],
        "dialogIDList": [
          205174734
        ],
        "grpIDList": [
          749880575
        ],
        "useGrpId": true
      }
    ],
    [
      {
        "$type": "MJFAIFFAGOF",
        "type": "DIALOG",
        "aliasList": [
          "20141"
        ],
        "dialogID": 205174732
      },
      {
        "$type": "EDCHPJLDKIN",
        "type": "BODY_LANG",
        "aliasList": [
          "20141"
        ],
        "bodyLangParam": 4060,
        "eventPatternSuiteKey": ""
      }
    ],
    [
      {
        "$type": "MoleMole.Config.ConfigBlackScreenAction",
        "type": "BLACK_SCREEN",
        "durationToBlack": 0.20000000298023224,
        "durationKeepBlack": 0.4000000059604645,
        "durationFromBlack": 0.20000000298023224,
        "inteePos": "",
        "textMapID": ""
      },
      {
        "$type": "EFHODGEJOHJ",
        "type": "CAMERA_MOVE",
        "delayTime": 0.20000000298023224,
        "duration": 1.0,
        "camPosOffset": {
          "x": 2457.89794921875,
          "y": 210.44741821289062,
          "z": -1130.2015380859375
        },
        "camForwardTargetOffset": {
          "x": 2458.81591796875,
          "y": 210.12277221679688,
          "z": -1129.9739990234375
        },
        "camFov": 40.0,
        "lerpPattern": 6,
        "cameraBlendType": "EaseInOutCubic",
        "MDKBPBJCMHH": {},
        "targetNpcAlias": "",
        "PHGBNNGCJKJ": "",
        "NFILMKCFHEB": "",
        "BGPNGHDAECF": ""
      },
      {
        "$type": "EFHODGEJOHJ",
        "type": "CAMERA_MOVE",
        "delayTime": 0.949999988079071,
        "duration": 10.0,
        "camPosOffset": {
          "x": 2458.50439453125,
          "y": 210.49998474121094,
          "z": -1126.1947021484375
        },
        "camForwardTargetOffset": {
          "x": 2459.304443359375,
          "y": 210.15274047851562,
          "z": -1126.68408203125
        },
        "camFov": 40.0,
        "cameraBlendType": "EaseOutQuad",
        "MDKBPBJCMHH": {},
        "targetNpcAlias": "",
        "PHGBNNGCJKJ": "",
        "NFILMKCFHEB": "",
        "BGPNGHDAECF": ""
      },
      {
        "$type": "MoleMole.Config.ConfigMoveToAction",
        "type": "MOVE_TO",
        "delayTime": 0.20000000298023224,
        "aliasList": [
          "Avatar"
        ],
        "routeList": [
          {
            "x": 2462.116943359375,
            "y": 208.3511962890625,
            "z": -1126.8699951171875
          }
        ],
        "_bindMovingTargetKey": ""
      },
      {
        "$type": "EDCHPJLDKIN",
        "type": "BODY_LANG",
        "delayTime": 0.20000000298023224,
        "aliasList": [
          "Avatar"
        ],
        "bodyLangParam": 1030,
        "eventPatternSuiteKey": ""
      },
      {
        "$type": "IEKHMHNHENB",
        "type": "STEER_TO",
        "aliasList": [
          "Avatar"
        ],
        "steerDir": {
          "x": -0.5221465229988098,
          "z": -0.852855920791626
        },
        "targetNpcAlias": "",
        "BHGPHGNFCBF": ""
      },
      {
        "$type": "MoleMole.Config.ConfigMoveToAction",
        "type": "MOVE_TO",
        "delayTime": 0.20000000298023224,
        "aliasList": [
          "1005"
        ],
        "routeList": [
          {
            "x": 2463.805419921875,
            "y": 208.0890350341797,
            "z": -1127.4962158203125
          }
        ],
        "_bindMovingTargetKey": ""
      },
      {
        "$type": "IEKHMHNHENB",
        "type": "STEER_TO",
        "aliasList": [
          "1005"
        ],
        "steerType": "TO_LOCAL_AVATAR",
        "targetNpcAlias": "",
        "BHGPHGNFCBF": ""
      },
      {
        "$type": "IEKHMHNHENB",
        "type": "STEER_TO",
        "aliasList": [
          "1005"
        ],
        "steerDir": {
          "x": -0.522146463394165,
          "z": -0.8528558611869812
        },
        "targetNpcAlias": "",
        "BHGPHGNFCBF": ""
      }
    ],
    [
      {
        "$type": "OBCDECFOOBC",
        "type": "DIALOG_SELECT",
        "delayTime": 0.4000000059604645,
        "aliasList": [
          "Avatar"
        ],
        "dialogIDList": [
          205174735,
          205174737
        ],
        "grpIDList": [
          749880578,
          749880579
        ],
        "useGrpId": true
      }
    ],
    [
      {
        "$type": "MJFAIFFAGOF",
        "type": "DIALOG",
        "aliasList": [
          "20141"
        ],
        "dialogID": 205174736
      },
      {
        "$type": "EDCHPJLDKIN",
        "type": "BODY_LANG",
        "aliasList": [
          "20141"
        ],
        "bodyLangParam": 1060,
        "forceInterrupt": false,
        "eventPatternSuiteKey": ""
      }
    ],
    [
      {
        "$type": "MJFAIFFAGOF",
        "type": "DIALOG",
        "aliasList": [
          "1473"
        ],
        "dialogID": 205174738
      }
    ],
    [
      {
        "$type": "MJFAIFFAGOF",
        "type": "DIALOG",
        "aliasList": [
          "20141"
        ],
        "dialogID": 205174739
      },
      {
        "$type": "EDCHPJLDKIN",
        "type": "BODY_LANG",
        "aliasList": [
          "20141"
        ],
        "bodyLangParam": 1060,
        "eventPatternSuiteKey": ""
      }
    ],
    [
      {
        "$type": "EFHODGEJOHJ",
        "type": "CAMERA_MOVE",
        "duration": 1.0,
        "camPosOffset": {
          "x": 2464.340576171875,
          "y": 209.66867065429688,
          "z": -1123.4876708984375
        },
        "camForwardTargetOffset": {
          "x": 2463.99462890625,
          "y": 209.63504028320312,
          "z": -1124.42529296875
        },
        "camFov": 25.0,
        "lerpPattern": 6,
        "cameraBlendType": "EaseInOutCubic",
        "MDKBPBJCMHH": {},
        "targetNpcAlias": "",
        "PHGBNNGCJKJ": "",
        "NFILMKCFHEB": "",
        "BGPNGHDAECF": ""
      },
      {
        "$type": "EFHODGEJOHJ",
        "type": "CAMERA_MOVE",
        "delayTime": 0.75,
        "duration": 5.0,
        "camPosOffset": {
          "x": 2463.093505859375,
          "y": 209.5464630126953,
          "z": -1126.862060546875
        },
        "camForwardTargetOffset": {
          "x": 2462.74755859375,
          "y": 209.51283264160156,
          "z": -1127.7996826171875
        },
        "camFov": 25.0,
        "cameraBlendType": "EaseOutQuad",
        "MDKBPBJCMHH": {},
        "targetNpcAlias": "",
        "PHGBNNGCJKJ": "",
        "NFILMKCFHEB": "",
        "BGPNGHDAECF": ""
      },
      {
        "$type": "MJFAIFFAGOF",
        "type": "DIALOG",
        "aliasList": [
          "20141"
        ],
        "dialogID": 205174740
      },
      {
        "$type": "EDCHPJLDKIN",
        "type": "BODY_LANG",
        "aliasList": [
          "20141"
        ],
        "bodyLangParam": 4060,
        "eventPatternSuiteKey": ""
      }
    ],
    [
      {
        "$type": "MJFAIFFAGOF",
        "type": "DIALOG",
        "aliasList": [
          "20141"
        ],
        "dialogID": 205174741
      }
    ],
    [
      {
        "$type": "MJFAIFFAGOF",
        "type": "DIALOG",
        "aliasList": [
          "20141"
        ],
        "dialogID": 205174742
      }
    ]
  ],
  "groupId": [
    {
      "grpId": 2933683667,
      "nextGrpId": 2933683668
    },
    {
      "index": 1,
      "grpId": 2933683668,
      "nextGrpId": 2933683669
    },
    {
      "index": 2,
      "grpId": 2933683669,
      "nextGrpId": 2933683670
    },
    {
      "index": 3,
      "grpId": 2933683670,
      "nextGrpId": 2933683671
    },
    {
      "index": 4,
      "grpId": 2933683671,
      "nextGrpId": 2933683672
    },
    {
      "index": 5,
      "grpId": 2933683672,
      "nextGrpId": 2933683673
    },
    {
      "index": 6,
      "grpId": 2933683673,
      "nextGrpId": 2933683674
    },
    {
      "index": 7,
      "grpId": 2933683674,
      "nextGrpId": 2933683675
    },
    {
      "index": 8,
      "grpId": 2933683675,
      "nextGrpId": 749880509
    },
    {
      "index": 9,
      "grpId": 749880509,
      "nextGrpId": 749880510
    },
    {
      "index": 10,
      "grpId": 749880510,
      "nextGrpId": 749880511
    },
    {
      "index": 11,
      "grpId": 749880511,
      "nextGrpId": 749880512
    },
    {
      "index": 12,
      "grpId": 749880512,
      "nextGrpId": 749880513
    },
    {
      "index": 13,
      "grpId": 749880513,
      "nextGrpId": 749880514
    },
    {
      "index": 14,
      "grpId": 749880514,
      "nextGrpId": 749880515
    },
    {
      "index": 15,
      "grpId": 749880515,
      "nextGrpId": 749880516
    },
    {
      "index": 16,
      "grpId": 749880516,
      "nextGrpId": 749880517
    },
    {
      "index": 17,
      "grpId": 749880517,
      "nextGrpId": 749880518
    },
    {
      "index": 18,
      "grpId": 749880518,
      "nextGrpId": 749880540
    },
    {
      "index": 19,
      "grpId": 749880540,
      "nextGrpId": 749880541
    },
    {
      "index": 20,
      "grpId": 749880541,
      "nextGrpId": 749880542
    },
    {
      "index": 21,
      "grpId": 749880542,
      "nextGrpId": 749880543
    },
    {
      "index": 22,
      "grpId": 749880543,
      "nextGrpId": 749880544
    },
    {
      "index": 23,
      "grpId": 749880544,
      "nextGrpId": 749880545
    },
    {
      "index": 24,
      "grpId": 749880545,
      "nextGrpId": 749880546
    },
    {
      "index": 25,
      "grpId": 749880546,
      "nextGrpId": 749880547
    },
    {
      "index": 26,
      "grpId": 749880547,
      "nextGrpId": 749880548
    },
    {
      "index": 27,
      "grpId": 749880548,
      "nextGrpId": 749880549
    },
    {
      "index": 28,
      "grpId": 749880549,
      "nextGrpId": 749880571
    },
    {
      "index": 29,
      "grpId": 749880571,
      "nextGrpId": 749880572
    },
    {
      "index": 30,
      "grpId": 749880572,
      "nextGrpId": 749880573
    },
    {
      "index": 31,
      "grpId": 749880573,
      "nextGrpId": 749880574
    },
    {
      "index": 32,
      "grpId": 749880574,
      "nextGrpId": 749880575
    },
    {
      "index": 33,
      "grpId": 749880575,
      "nextGrpId": 749880576
    },
    {
      "index": 34,
      "grpId": 749880576,
      "nextGrpId": 749880577
    },
    {
      "index": 35,
      "grpId": 749880577,
      "nextGrpId": 749880578
    },
    {
      "index": 36,
      "grpId": 749880578,
      "nextGrpId": 749880602
    },
    {
      "index": 37,
      "grpId": 749880579,
      "nextGrpId": 749880580
    },
    {
      "index": 38,
      "grpId": 749880580,
      "nextGrpId": 749880602
    },
    {
      "index": 39,
      "grpId": 749880602,
      "nextGrpId": 749880603
    },
    {
      "index": 40,
      "grpId": 749880603,
      "nextGrpId": 749880604
    },
    {
      "index": 41,
      "grpId": 749880604,
      "nextGrpId": 749880605
    }
  ],
  "freeStyleDic": {
    "20141": [
      1060,
      1030,
      1110,
      1290,
      4060
    ],
    "1473": [
      1040,
      1070,
      1060,
      4190
    ]
  }
}