{
  "luaDataPath": "",
  "isSimpleTalk": true,
  "entityBan": "",
  "disableNpcLod": true,
  "isBanWidgetPet": true,
  "protectNpcMobileLod": true,
  "talkFlag": 5,
  "startFade": {
    "startFadeOutDuration": 0.0
  },
  "endFade": {
    "startFadeOutDuration": 0.0
  },
  "actors": [
    {
      "alias": "Avatar",
      "visible": true,
      "bornPointName": "[3_4023:684.984,241.600,6409.836,0.000,210.000,0.000]",
      "relativePosType": "AVATAR_NEW",
      "relativePosNpcAlias": "",
      "_bindMovingTargetKey": ""
    },
    {
      "configID": 20987,
      "alias": "20987",
      "visible": true,
      "bornPointName": "",
      "removeActorType": "NEW_REMOVE_WITH_DISAPPEAR",
      "relativePosType": "AVATAR_NEW",
      "relativePosNpcAlias": "",
      "_bindMovingTargetKey": ""
    },
    {
      "configID": 1005,
      "alias": "1005",
      "visible": true,
      "bornPointName": "",
      "useRelativePos": true,
      "relativePos": {
        "x": -0.6000000238418579,
        "z": -0.20000000298023224
      },
      "removeActorType": "NEW_REMOVE_WITH_DISAPPEAR",
      "relativePosType": "AVATAR_NEW",
      "relativePosNpcAlias": "",
      "_bindMovingTargetKey": ""
    }
  ],
  "group": [
    [
      {
        "$type": "EFHODGEJOHJ",
        "type": "CAMERA_FOCUS",
        "duration": 0.10000000149011612,
        "actionId": 103,
        "targetNpcAlias": "",
        "PHGBNNGCJKJ": "",
        "NFILMKCFHEB": "",
        "BGPNGHDAECF": ""
      },
      {
        "$type": "MoleMole.Config.ConfigTimeProtectAction",
        "type": "TIME_PROTECT",
        "duration": 0.10000000149011612,
        "actionId": 104
      },
      {
        "$type": "IEKHMHNHENB",
        "type": "STEER_TO",
        "delayTime": 0.30000001192092896,
        "duration": 0.800000011920929,
        "aliasList": [
          "Avatar"
        ],
        "actionId": 152,
        "steerType": "TO_TARGET_ADVANCED",
        "useSteerAnim": true,
        "interruptFreestyle": true,
        "forceSteer": true,
        "targetNpcAlias": "20987",
        "fixInterNull": true,
        "BHGPHGNFCBF": ""
      }
    ],
    [
      {
        "$type": "MJFAIFFAGOF",
        "type": "DIALOG",
        "aliasList": [
          "20987"
        ],
        "actionId": 107,
        "dialogID": 733170201,
        "protectTime": 0.5
      }
    ],
    [
      {
        "$type": "MJFAIFFAGOF",
        "type": "DIALOG",
        "aliasList": [
          "1005"
        ],
        "actionId": 109,
        "dialogID": 733170202,
        "protectTime": 0.5
      }
    ],
    [
      {
        "$type": "MJFAIFFAGOF",
        "type": "DIALOG",
        "aliasList": [
          "20987"
        ],
        "actionId": 111,
        "dialogID": 733170203,
        "protectTime": 0.5
      }
    ],
    [
      {
        "$type": "MJFAIFFAGOF",
        "type": "DIALOG",
        "aliasList": [
          "1005"
        ],
        "actionId": 113,
        "dialogID": 733170204,
        "protectTime": 0.5
      }
    ],
    [
      {
        "$type": "MJFAIFFAGOF",
        "type": "DIALOG",
        "aliasList": [
          "1005"
        ],
        "actionId": 115,
        "dialogID": 733170205,
        "protectTime": 0.5
      },
      {
        "$type": "OBCDECFOOBC",
        "type": "DIALOG_SELECT",
        "delayTime": 0.4000000059604645,
        "aliasList": [
          "Avatar"
        ],
        "actionId": 116,
        "dialogIDList": [
          733170206,
          733170207
        ],
        "grpIDList": [
          268291597,
          268291597
        ],
        "useGrpId": true,
        "countDownGrpId": 268291590
      }
    ],
    [
      {
        "$type": "MJFAIFFAGOF",
        "type": "DIALOG",
        "aliasList": [
          "1005"
        ],
        "actionId": 118,
        "dialogID": 733170208,
        "protectTime": 0.5
      }
    ],
    [
      {
        "$type": "MJFAIFFAGOF",
        "type": "DIALOG",
        "aliasList": [
          "20987"
        ],
        "actionId": 120,
        "dialogID": 733170209,
        "protectTime": 0.5
      }
    ],
    [
      {
        "$type": "MJFAIFFAGOF",
        "type": "DIALOG",
        "aliasList": [
          "1005"
        ],
        "actionId": 122,
        "dialogID": 733170210,
        "protectTime": 0.5
      }
    ],
    [
      {
        "$type": "MJFAIFFAGOF",
        "type": "DIALOG",
        "aliasList": [
          "20987"
        ],
        "actionId": 124,
        "dialogID": 733170211,
        "protectTime": 0.5
      }
    ],
    [
      {
        "$type": "MJFAIFFAGOF",
        "type": "DIALOG",
        "aliasList": [
          "20987"
        ],
        "actionId": 126,
        "dialogID": 733170212,
        "protectTime": 0.5
      }
    ],
    [
      {
        "$type": "MJFAIFFAGOF",
        "type": "DIALOG",
        "aliasList": [
          "1005"
        ],
        "actionId": 128,
        "dialogID": 733170213,
        "protectTime": 0.5
      }
    ],
    [
      {
        "$type": "MJFAIFFAGOF",
        "type": "DIALOG",
        "aliasList": [
          "20987"
        ],
        "actionId": 130,
        "dialogID": 733170214,
        "protectTime": 0.5
      }
    ],
    [
      {
        "$type": "MJFAIFFAGOF",
        "type": "DIALOG",
        "aliasList": [
          "20987"
        ],
        "actionId": 132,
        "dialogID": 733170215,
        "protectTime": 0.5
      }
    ],
    [
      {
        "$type": "MJFAIFFAGOF",
        "type": "DIALOG",
        "aliasList": [
          "20987"
        ],
        "actionId": 134,
        "dialogID": 733170216,
        "protectTime": 0.5
      }
    ],
    [
      {
        "$type": "MJFAIFFAGOF",
        "type": "DIALOG",
        "aliasList": [
          "20987"
        ],
        "actionId": 136,
        "dialogID": 733170217,
        "protectTime": 0.5
      }
    ],
    [
      {
        "$type": "MJFAIFFAGOF",
        "type": "DIALOG",
        "aliasList": [
          "20987"
        ],
        "actionId": 138,
        "dialogID": 733170218,
        "protectTime": 0.5
      },
      {
        "$type": "OBCDECFOOBC",
        "type": "DIALOG_SELECT",
        "delayTime": 0.4000000059604645,
        "aliasList": [
          "Avatar"
        ],
        "actionId": 139,
        "dialogIDList": [
          733170219,
          733170220
        ],
        "grpIDList": [
          4022072081,
          4022072081
        ],
        "useGrpId": true,
        "countDownGrpId": 268291590
      }
    ],
    [
      {
        "$type": "MJFAIFFAGOF",
        "type": "DIALOG",
        "aliasList": [
          "1005"
        ],
        "actionId": 141,
        "dialogID": 733170221,
        "protectTime": 0.5
      }
    ],
    [
      {
        "$type": "MJFAIFFAGOF",
        "type": "DIALOG",
        "aliasList": [
          "20987"
        ],
        "actionId": 143,
        "dialogID": 733170222,
        "protectTime": 0.5
      }
    ],
    [
      {
        "$type": "MJFAIFFAGOF",
        "type": "DIALOG",
        "aliasList": [
          "1005"
        ],
        "actionId": 145,
        "dialogID": 733170223,
        "protectTime": 0.5
      }
    ],
    [
      {
        "$type": "MJFAIFFAGOF",
        "type": "DIALOG",
        "aliasList": [
          "1005"
        ],
        "actionId": 147,
        "dialogID": 733170224,
        "protectTime": 0.5
      }
    ],
    [
      {
        "$type": "MJFAIFFAGOF",
        "type": "DIALOG",
        "aliasList": [
          "20987"
        ],
        "actionId": 149,
        "dialogID": 733170225,
        "protectTime": 0.5
      }
    ],
    [
      {
        "$type": "MJFAIFFAGOF",
        "type": "DIALOG",
        "aliasList": [
          "20987"
        ],
        "actionId": 151,
        "dialogID": 733170226,
        "protectTime": 0.5
      }
    ],
    [
      {
        "$type": "MoleMole.Config.ConfigTimeProtectAction",
        "type": "TIME_PROTECT",
        "duration": 0.10000000149011612,
        "actionId": 105
      }
    ]
  ],
  "groupId": [
    {
      "grpId": 268291591,
      "nextGrpId": 268291592
    },
    {
      "index": 1,
      "grpId": 268291592,
      "nextGrpId": 268291593
    },
    {
      "index": 2,
      "grpId": 268291593,
      "nextGrpId": 268291594
    },
    {
      "index": 3,
      "grpId": 268291594,
      "nextGrpId": 268291595
    },
    {
      "index": 4,
      "grpId": 268291595,
      "nextGrpId": 268291596
    },
    {
      "index": 5,
      "grpId": 268291596,
      "nextGrpId": 268291597
    },
    {
      "index": 6,
      "grpId": 268291597,
      "nextGrpId": 268291598
    },
    {
      "index": 7,
      "grpId": 268291598,
      "nextGrpId": 268291599
    },
    {
      "index": 8,
      "grpId": 268291599,
      "nextGrpId": 4022072073
    },
    {
      "index": 9,
      "grpId": 4022072073,
      "nextGrpId": 4022072074
    },
    {
      "index": 10,
      "grpId": 4022072074,
      "nextGrpId": 4022072075
    },
    {
      "index": 11,
      "grpId": 4022072075,
      "nextGrpId": 4022072076
    },
    {
      "index": 12,
      "grpId": 4022072076,
      "nextGrpId": 4022072077
    },
    {
      "index": 13,
      "grpId": 4022072077,
      "nextGrpId": 4022072078
    },
    {
      "index": 14,
      "grpId": 4022072078,
      "nextGrpId": 4022072079
    },
    {
      "index": 15,
      "grpId": 4022072079,
      "nextGrpId": 4022072080
    },
    {
      "index": 16,
      "grpId": 4022072080,
      "nextGrpId": 4022072081
    },
    {
      "index": 17,
      "grpId": 4022072081,
      "nextGrpId": 4022072082
    },
    {
      "index": 18,
      "grpId": 4022072082,
      "nextGrpId": 4022072104
    },
    {
      "index": 19,
      "grpId": 4022072104,
      "nextGrpId": 4022072105
    },
    {
      "index": 20,
      "grpId": 4022072105,
      "nextGrpId": 4022072106
    },
    {
      "index": 21,
      "grpId": 4022072106,
      "nextGrpId": 4022072107
    },
    {
      "index": 22,
      "grpId": 4022072107,
      "nextGrpId": 4022072108
    },
    {
      "index": 23,
      "grpId": 4022072108,
      "nextGrpId": 4022072109
    }
  ],
  "freeStyleDic": {
    "20987": []
  }
}