{
  "BPPPGGNKHNI": 32201,
  "NDIKKJNFLLK": [
    {
      "BKGCMILAILD": 3220101,
      "regionPolygons": [
        {
          "minArea": {
            "x": -908.355224609375,
            "y": 180.9212646484375,
            "z": 3253.095947265625
          },
          "maxArea": {
            "x": -799.4622192382812,
            "y": 231.79446411132812,
            "z": 3364.573974609375
          },
          "roadPoints": [
            {
              "x": -908.355224609375,
              "y": 180.9212646484375,
              "z": 3310.506591796875
            },
            {
              "x": -892.5288696289062,
              "y": 180.9212646484375,
              "z": 3317.46630859375
            },
            {
              "x": -846.5931396484375,
              "y": 180.9212646484375,
              "z": 3364.573974609375
            },
            {
              "x": -803.8502807617188,
              "y": 180.9212646484375,
              "z": 3336.684326171875
            },
            {
              "x": -799.4622192382812,
              "y": 180.9212646484375,
              "z": 3314.677490234375
            },
            {
              "x": -807.08837890625,
              "y": 180.9212646484375,
              "z": 3253.095947265625
            },
            {
              "x": -831.3995971679688,
              "y": 180.9212646484375,
              "z": 3265.962890625
            },
            {
              "x": -850.6671142578125,
              "y": 180.9212646484375,
              "z": 3306.396240234375
            },
            {
              "x": -848.6058959960938,
              "y": 180.9212646484375,
              "z": 3273.34033203125
            },
            {
              "x": -867.7120971679688,
              "y": 180.9212646484375,
              "z": 3262.606689453125
            },
            {
              "x": -892.1011352539062,
              "y": 180.9212646484375,
              "z": 3287.8671875
            }
          ]
        },
        {
          "minArea": {
            "x": -891.004638671875,
            "y": 213.1719207763672,
            "z": 3147.673828125
          },
          "maxArea": {
            "x": -761.0355224609375,
            "y": 258.9162292480469,
            "z": 3279.53515625
          },
          "roadPoints": [
            {
              "x": -871.0317993164062,
              "y": 213.1719207763672,
              "z": 3251.904296875
            },
            {
              "x": -864.21923828125,
              "y": 213.1719207763672,
              "z": 3276.756103515625
            },
            {
              "x": -839.5870361328125,
              "y": 213.1719207763672,
              "z": 3279.53515625
            },
            {
              "x": -767.2428588867188,
              "y": 213.1719207763672,
              "z": 3258.202392578125
            },
            {
              "x": -761.0355224609375,
              "y": 213.1719207763672,
              "z": 3251.286376953125
            },
            {
              "x": -766.1177978515625,
              "y": 213.1719207763672,
              "z": 3236.140625
            },
            {
              "x": -781.6553955078125,
              "y": 213.1719207763672,
              "z": 3235.5185546875
            },
            {
              "x": -796.5701904296875,
              "y": 213.1719207763672,
              "z": 3246.66552734375
            },
            {
              "x": -809.0120239257812,
              "y": 213.1719207763672,
              "z": 3195.302734375
            },
            {
              "x": -774.86328125,
              "y": 213.1719207763672,
              "z": 3182.107177734375
            },
            {
              "x": -782.3615112304688,
              "y": 213.1719207763672,
              "z": 3147.673828125
            },
            {
              "x": -801.65625,
              "y": 213.1719207763672,
              "z": 3149.6533203125
            },
            {
              "x": -804.0278930664062,
              "y": 213.1719207763672,
              "z": 3160.30224609375
            },
            {
              "x": -859.8619384765625,
              "y": 213.1719207763672,
              "z": 3176.4052734375
            },
            {
              "x": -891.004638671875,
              "y": 213.1719207763672,
              "z": 3198.80224609375
            }
          ]
        },
        {
          "minArea": {
            "x": -841.7117919921875,
            "y": 189.31283569335938,
            "z": 3100.457763671875
          },
          "maxArea": {
            "x": -802.0303955078125,
            "y": 206.41111755371094,
            "z": 3134.084716796875
          },
          "roadPoints": [
            {
              "x": -841.7117919921875,
              "y": 189.31283569335938,
              "z": 3100.457763671875
            },
            {
              "x": -825.0999145507812,
              "y": 189.31283569335938,
              "z": 3101.165771484375
            },
            {
              "x": -822.4044799804688,
              "y": 189.31283569335938,
              "z": 3115.6904296875
            },
            {
              "x": -805.6524047851562,
              "y": 189.31283569335938,
              "z": 3113.310302734375
            },
            {
              "x": -802.0303955078125,
              "y": 189.31283569335938,
              "z": 3132.333251953125
            },
            {
              "x": -839.5136108398438,
              "y": 189.31283569335938,
              "z": 3134.084716796875
            }
          ]
        }
      ],
      "limitShapes": [
        {
          "pos": {
            "x": -922.2496337890625,
            "y": 300.5536804199219,
            "z": 3264.521240234375
          },
          "rot": {
            "y": 281.1619567871094
          },
          "shape": {
            "$type": "EHOAKHCMJJG",
            "useHeight": true,
            "height": 18.210100173950195,
            "centerType": "Center",
            "width": 41.5528450012207,
            "length": 20.119651794433594
          }
        },
        {
          "pos": {
            "x": -945.9344482421875,
            "y": 294.25299072265625,
            "z": 3264.494140625
          },
          "rot": {
            "y": 10.774659156799316
          },
          "shape": {
            "$type": "EHOAKHCMJJG",
            "useHeight": true,
            "height": 26.722415924072266,
            "centerType": "Center",
            "width": 28.202251434326172,
            "length": 38.1209602355957
          }
        },
        {
          "pos": {
            "x": -906.1317138671875,
            "y": 288.30657958984375,
            "z": 3271.12890625
          },
          "shape": {
            "$type": "GLNLJIJMDJD",
            "useHeight": true,
            "height": 28.1647891998291,
            "radius": 64.81069946289062
          }
        },
        {
          "pos": {
            "x": -919.4321899414062,
            "y": 259.2217712402344,
            "z": 3260.220947265625
          },
          "shape": {
            "$type": "GLNLJIJMDJD",
            "useHeight": true,
            "height": 40.0,
            "radius": 55.70000076293945
          }
        },
        {
          "pos": {
            "x": -920.72509765625,
            "y": 219.98394775390625,
            "z": 3250.895751953125
          },
          "shape": {
            "$type": "GLNLJIJMDJD",
            "useHeight": true,
            "height": 60.0,
            "radius": 66.0999984741211
          }
        },
        {
          "pos": {
            "x": -792.427001953125,
            "y": 208.54345703125,
            "z": 3135.899169921875
          },
          "shape": {
            "$type": "GLNLJIJMDJD",
            "useHeight": true,
            "height": 60.0,
            "radius": 25.0
          }
        }
      ]
    },
    {
      "BKGCMILAILD": 3220102,
      "limitShapes": [
        {
          "pos": {
            "x": -887.9307861328125,
            "y": 103.78263092041016,
            "z": 3185.90283203125
          },
          "rot": {
            "y": 30.686859130859375
          },
          "shape": {
            "$type": "EHOAKHCMJJG",
            "useHeight": true,
            "height": 147.40933227539062,
            "centerType": "Center",
            "width": 200.86109924316406,
            "length": 233.18922424316406
          }
        },
        {
          "pos": {
            "x": -839.737060546875,
            "y": 165.4478759765625,
            "z": 3223.645263671875
          },
          "rot": {
            "y": 310.4371643066406
          },
          "shape": {
            "$type": "EHOAKHCMJJG",
            "useHeight": true,
            "height": 71.40938568115234,
            "centerType": "Center",
            "width": 112.76325988769531,
            "length": 94.65485382080078
          }
        }
      ]
    },
    {
      "BKGCMILAILD": 3220103,
      "limitShapes": [
        {
          "pos": {
            "x": -779.7566528320312,
            "y": 131.1524658203125,
            "z": 3377.751953125
          },
          "rot": {
            "y": 30.686859130859375
          },
          "shape": {
            "$type": "EHOAKHCMJJG",
            "useHeight": true,
            "height": 133.48094177246094,
            "centerType": "Center",
            "width": 210.625244140625,
            "length": 202.70472717285156
          }
        },
        {
          "pos": {
            "x": -692.2742919921875,
            "y": 148.0127410888672,
            "z": 3476.1123046875
          },
          "rot": {
            "y": 30.000001907348633
          },
          "shape": {
            "$type": "EHOAKHCMJJG",
            "useHeight": true,
            "height": 55.98511505126953,
            "centerType": "Center",
            "width": 76.21690368652344,
            "length": 57.039974212646484
          }
        },
        {
          "pos": {
            "x": -684.051025390625,
            "y": 128.15213012695312,
            "z": 3433.19140625
          },
          "rot": {
            "y": 30.000001907348633
          },
          "shape": {
            "$type": "EHOAKHCMJJG",
            "useHeight": true,
            "height": 12.75827693939209,
            "centerType": "Center",
            "width": 43.68275451660156,
            "length": 12.24097728729248
          }
        },
        {
          "pos": {
            "x": -662.7630615234375,
            "y": 133.73907470703125,
            "z": 3446.48681640625
          },
          "rot": {
            "y": 5.692282199859619
          },
          "shape": {
            "$type": "EHOAKHCMJJG",
            "useHeight": true,
            "height": 23.046039581298828,
            "centerType": "Center",
            "width": 36.5345573425293,
            "length": 32.07952880859375
          }
        },
        {
          "pos": {
            "x": -610.716064453125,
            "y": 160.9938507080078,
            "z": 3344.65673828125
          },
          "rot": {
            "x": 1.253534236411724e-07,
            "y": 330.5207824707031,
            "z": 3.0641672310594004e-07
          },
          "shape": {
            "$type": "MNMPFNCILOP",
            "useHeight": true,
            "height": 34.370513916015625,
            "width": 25.021169662475586,
            "length": 12.694073677062988
          }
        },
        {
          "pos": {
            "x": -632.2352294921875,
            "y": 158.1338348388672,
            "z": 3339.9130859375
          },
          "rot": {
            "y": 333.1087341308594
          },
          "shape": {
            "$type": "EHOAKHCMJJG",
            "useHeight": true,
            "height": 24.930566787719727,
            "centerType": "Center",
            "width": 29.5659122467041,
            "length": 20.058103561401367
          }
        },
        {
          "pos": {
            "x": -651.7835693359375,
            "y": 143.19351196289062,
            "z": 3359.513671875
          },
          "rot": {
            "y": 46.93118667602539
          },
          "shape": {
            "$type": "EHOAKHCMJJG",
            "useHeight": true,
            "height": 24.725812911987305,
            "centerType": "Center",
            "width": 40.86688995361328,
            "length": 17.28483772277832
          }
        }
      ]
    },
    {
      "BKGCMILAILD": 3220104,
      "limitShapes": [
        {
          "pos": {
            "x": -857.7728881835938,
            "y": -4.370420455932617,
            "z": 3217.638916015625
          },
          "rot": {
            "y": 25.263259887695312
          },
          "shape": {
            "$type": "EHOAKHCMJJG",
            "useHeight": true,
            "height": 142.89443969726562,
            "centerType": "Center",
            "width": 208.95037841796875,
            "length": 296.3243713378906
          }
        }
      ]
    }
  ],
  "minArea": {
    "x": -1033.801513671875,
    "y": -75.81764221191406,
    "z": 3034.380859375
  },
  "maxArea": {
    "x": -596.70166015625,
    "y": 309.65875244140625,
    "z": 3519.865234375
  }
}