{
  "BPPPGGNKHNI": 32303,
  "NDIKKJNFLLK": [
    {
      "BKGCMILAILD": 3230301,
      "regionPolygons": [
        {
          "minArea": {
            "x": -1320.9334716796875,
            "y": 134.2098388671875,
            "z": 3531.4462890625
          },
          "maxArea": {
            "x": -1215.71923828125,
            "y": 221.34466552734375,
            "z": 3640.179443359375
          },
          "roadPoints": [
            {
              "x": -1305.039794921875,
              "y": 134.2098388671875,
              "z": 3535.794921875
            },
            {
              "x": -1292.4583740234375,
              "y": 134.2098388671875,
              "z": 3531.4462890625
            },
            {
              "x": -1274.2843017578125,
              "y": 134.2098388671875,
              "z": 3538.383544921875
            },
            {
              "x": -1215.71923828125,
              "y": 134.2098388671875,
              "z": 3596.092041015625
            },
            {
              "x": -1278.9420166015625,
              "y": 134.2098388671875,
              "z": 3640.179443359375
            },
            {
              "x": -1320.9334716796875,
              "y": 134.2098388671875,
              "z": 3586.200927734375
            },
            {
              "x": -1313.33837890625,
              "y": 134.2098388671875,
              "z": 3559.639892578125
            }
          ]
        }
      ],
      "limitShapes": [
        {
          "pos": {
            "x": -1166.55419921875,
            "y": 97.92091369628906,
            "z": 3738.78076171875
          },
          "rot": {
            "y": 296.101318359375
          },
          "shape": {
            "$type": "EHOAKHCMJJG",
            "useHeight": true,
            "height": 114.1716537475586,
            "centerType": "Center",
            "width": 424.84552001953125,
            "length": 206.1520538330078
          }
        }
      ]
    }
  ],
  "minArea": {
    "x": -1352.57568359375,
    "y": 40.8350830078125,
    "z": 3502.671875
  },
  "maxArea": {
    "x": -980.53271484375,
    "y": 221.34466552734375,
    "z": 3974.8896484375
  }
}