{
  "BPPPGGNKHNI": 33203,
  "NDIKKJNFLLK": [
    {
      "BKGCMILAILD": 3320301,
      "limitShapes": [
        {
          "pos": {
            "x": -1295.1416015625,
            "y": -35.6960334777832,
            "z": 5566.078125
          },
          "rot": {
            "y": 14.613758087158203
          },
          "shape": {
            "$type": "EHOAKHCMJJG",
            "useHeight": true,
            "height": 67.7503433227539,
            "centerType": "Center",
            "width": 98.4276123046875,
            "length": 38.76554870605469
          }
        },
        {
          "pos": {
            "x": -1231.0509033203125,
            "y": -43.2877311706543,
            "z": 5586.6318359375
          },
          "rot": {
            "y": 347.97967529296875
          },
          "shape": {
            "$type": "EHOAKHCMJJG",
            "useHeight": true,
            "height": 70.13489532470703,
            "centerType": "Center",
            "width": 62.10350036621094,
            "length": 50.21263885498047
          }
        },
        {
          "pos": {
            "x": -1151.288818359375,
            "y": -32.57188415527344,
            "z": 5653.4248046875
          },
          "rot": {
            "y": 46.32187271118164
          },
          "shape": {
            "$type": "EHOAKHCMJJG",
            "useHeight": true,
            "height": 101.5362319946289,
            "centerType": "Center",
            "width": 114.09705352783203,
            "length": 228.6505889892578
          }
        }
      ]
    },
    {
      "BKGCMILAILD": 3320302,
      "limitShapes": [
        {
          "pos": {
            "x": -1295.1416015625,
            "y": -35.6960334777832,
            "z": 5566.078125
          },
          "rot": {
            "y": 14.613758087158203
          },
          "shape": {
            "$type": "EHOAKHCMJJG",
            "useHeight": true,
            "height": 67.7503433227539,
            "centerType": "Center",
            "width": 98.4276123046875,
            "length": 38.76554870605469
          }
        },
        {
          "pos": {
            "x": -1231.0509033203125,
            "y": -43.2877311706543,
            "z": 5586.6318359375
          },
          "rot": {
            "y": 347.97967529296875
          },
          "shape": {
            "$type": "EHOAKHCMJJG",
            "useHeight": true,
            "height": 70.13489532470703,
            "centerType": "Center",
            "width": 62.10350036621094,
            "length": 50.21263885498047
          }
        },
        {
          "pos": {
            "x": -1151.288818359375,
            "y": -32.57188415527344,
            "z": 5653.4248046875
          },
          "rot": {
            "y": 46.32187271118164
          },
          "shape": {
            "$type": "EHOAKHCMJJG",
            "useHeight": true,
            "height": 101.5362319946289,
            "centerType": "Center",
            "width": 114.09705352783203,
            "length": 228.6505889892578
          }
        },
        {
          "pos": {
            "x": -1056.183349609375,
            "y": -33.141883850097656,
            "z": 5649.4404296875
          },
          "rot": {
            "y": 21.898700714111328
          },
          "shape": {
            "$type": "EHOAKHCMJJG",
            "useHeight": true,
            "height": 95.41800689697266,
            "centerType": "Center",
            "width": 54.946205139160156,
            "length": 67.58794403076172
          }
        }
      ]
    }
  ],
  "minArea": {
    "x": -1347.653564453125,
    "y": -83.33999633789062,
    "z": 5533.2119140625
  },
  "maxArea": {
    "x": -1018.088623046875,
    "y": 18.19622802734375,
    "z": 5773.6376953125
  }
}