{
  "BPPPGGNKHNI": 33605,
  "NDIKKJNFLLK": [
    {
      "BKGCMILAILD": 3360501,
      "limitShapes": [
        {
          "pos": {
            "x": 4995.2890625,
            "y": 491.5665283203125,
            "z": 4443.037109375
          },
          "rot": {
            "x": 354.9288024902344,
            "y": 14.530291557312012,
            "z": 358.2834167480469
          },
          "shape": {
            "$type": "MNMPFNCILOP",
            "useHeight": true,
            "height": 31.615453720092773,
            "width": 56.492794036865234,
            "length": 93.63081359863281
          }
        },
        {
          "pos": {
            "x": 4994.0478515625,
            "y": 424.5198974609375,
            "z": 4411.5146484375
          },
          "shape": {
            "$type": "GLNLJIJMDJD",
            "useHeight": true,
            "height": 123.7548828125,
            "radius": 10.337294578552246
          }
        }
      ]
    },
    {
      "BKGCMILAILD": 3360502,
      "regionPolygons": [
        {
          "minArea": {
            "x": 4924.21044921875,
            "y": 366.52197265625,
            "z": 4438.5380859375
          },
          "maxArea": {
            "x": 4961.84765625,
            "y": 414.12677001953125,
            "z": 4480.37109375
          },
          "roadPoints": [
            {
              "x": 4960.69970703125,
              "y": 366.52197265625,
              "z": 4451.49853515625
            },
            {
              "x": 4961.84765625,
              "y": 366.52197265625,
              "z": 4477.154296875
            },
            {
              "x": 4948.56689453125,
              "y": 366.52197265625,
              "z": 4480.37109375
            },
            {
              "x": 4932.90185546875,
              "y": 366.52197265625,
              "z": 4476.416015625
            },
            {
              "x": 4924.21044921875,
              "y": 366.52197265625,
              "z": 4444.35888671875
            },
            {
              "x": 4951.02197265625,
              "y": 366.52197265625,
              "z": 4438.5380859375
            }
          ]
        }
      ],
      "limitShapes": [
        {
          "pos": {
            "x": 4994.1474609375,
            "y": 374.4391784667969,
            "z": 4443.7841796875
          },
          "rot": {
            "x": 90.0
          },
          "shape": {
            "$type": "DNDNFLPEDHN",
            "useHeight": true,
            "height": 49.68129348754883,
            "radius": 6.438058853149414
          }
        },
        {
          "pos": {
            "x": 4980.3349609375,
            "y": 376.5594787597656,
            "z": 4462.841796875
          },
          "rot": {
            "z": 90.0
          },
          "shape": {
            "$type": "DNDNFLPEDHN",
            "useHeight": true,
            "height": 42.46324920654297,
            "radius": 11.062499046325684
          }
        }
      ]
    },
    {
      "BKGCMILAILD": 3360503,
      "limitShapes": [
        {
          "pos": {
            "x": 4938.60693359375,
            "y": 368.08782958984375,
            "z": 4497.345703125
          },
          "rot": {
            "x": 75.00001525878906,
            "y": 180.0,
            "z": 191.51007080078125
          },
          "shape": {
            "$type": "DNDNFLPEDHN",
            "useHeight": true,
            "height": 40.10358810424805,
            "radius": 7.305797576904297
          }
        },
        {
          "pos": {
            "x": 4989.24951171875,
            "y": 339.0555725097656,
            "z": 4511.0634765625
          },
          "shape": {
            "$type": "GLNLJIJMDJD",
            "useHeight": true,
            "height": 85.59496307373047,
            "radius": 20.209814071655273
          }
        },
        {
          "pos": {
            "x": 4956.80517578125,
            "y": 364.1659240722656,
            "z": 4511.640625
          },
          "rot": {
            "z": 85.72344207763672
          },
          "shape": {
            "$type": "DNDNFLPEDHN",
            "useHeight": true,
            "height": 42.277313232421875,
            "radius": 9.762654304504395
          }
        }
      ]
    },
    {
      "BKGCMILAILD": 3360504,
      "limitShapes": [
        {
          "pos": {
            "x": 4989.37451171875,
            "y": 310.64483642578125,
            "z": 4564.10498046875
          },
          "shape": {
            "$type": "GLNLJIJMDJD",
            "useHeight": true,
            "height": 119.87838745117188,
            "radius": 8.57205581665039
          }
        },
        {
          "pos": {
            "x": 4989.32080078125,
            "y": 333.3901672363281,
            "z": 4545.419921875
          },
          "rot": {
            "x": 270.0
          },
          "shape": {
            "$type": "DNDNFLPEDHN",
            "useHeight": true,
            "height": 42.54241180419922,
            "radius": 8.312491416931152
          }
        }
      ]
    },
    {
      "BKGCMILAILD": 3360505,
      "limitShapes": [
        {
          "pos": {
            "x": 4932.6904296875,
            "y": 395.8875427246094,
            "z": 4415.8173828125
          },
          "shape": {
            "$type": "GLNLJIJMDJD",
            "useHeight": true,
            "height": 54.73466491699219,
            "radius": 36.19852066040039
          }
        },
        {
          "pos": {
            "x": 4883.087890625,
            "y": 383.3868408203125,
            "z": 4425.328125
          },
          "rot": {
            "x": -8.537736562175269e-07,
            "y": 15.000000953674316,
            "z": 270.0
          },
          "shape": {
            "$type": "DNDNFLPEDHN",
            "useHeight": true,
            "height": 50.246864318847656,
            "radius": 16.541608810424805
          }
        },
        {
          "pos": {
            "x": 4866.4658203125,
            "y": 385.46142578125,
            "z": 4421.35009765625
          },
          "shape": {
            "$type": "EHOAKHCMJJG",
            "useHeight": true,
            "height": 51.98731994628906,
            "centerType": "Center",
            "width": 58.35413360595703,
            "length": 63.352561950683594
          }
        },
        {
          "pos": {
            "x": 4873.18310546875,
            "y": 340.78790283203125,
            "z": 4419.50341796875
          },
          "shape": {
            "$type": "GLNLJIJMDJD",
            "useHeight": true,
            "height": 121.75062561035156,
            "radius": 10.03125
          }
        }
      ]
    },
    {
      "BKGCMILAILD": 3360506,
      "limitShapes": [
        {
          "pos": {
            "x": 4989.6591796875,
            "y": 261.631591796875,
            "z": 4546.873046875
          },
          "rot": {
            "x": 270.0
          },
          "shape": {
            "$type": "DNDNFLPEDHN",
            "useHeight": true,
            "height": 39.71428680419922,
            "radius": 8.308255195617676
          }
        },
        {
          "pos": {
            "x": 4957.298828125,
            "y": 261.0921936035156,
            "z": 4539.97900390625
          },
          "rot": {
            "z": 90.0
          },
          "shape": {
            "$type": "DNDNFLPEDHN",
            "useHeight": true,
            "height": 76.65196228027344,
            "radius": 7.002199172973633
          }
        },
        {
          "pos": {
            "x": 4936.0,
            "y": 276.89349365234375,
            "z": 4544.6806640625
          },
          "rot": {
            "x": 15.000001907348633
          },
          "shape": {
            "$type": "DNDNFLPEDHN",
            "useHeight": true,
            "height": 113.4214859008789,
            "radius": 20.54151725769043
          }
        }
      ]
    },
    {
      "BKGCMILAILD": 3360507,
      "limitShapes": [
        {
          "pos": {
            "x": 4873.1845703125,
            "y": 294.58160400390625,
            "z": 4544.64306640625
          },
          "rot": {
            "x": 343.7384338378906,
            "y": 353.8367919921875,
            "z": 264.425048828125
          },
          "shape": {
            "$type": "DNDNFLPEDHN",
            "useHeight": true,
            "height": 108.6456527709961,
            "radius": 12.066288948059082
          }
        },
        {
          "pos": {
            "x": 4868.9619140625,
            "y": 301.50872802734375,
            "z": 4498.7197265625
          },
          "shape": {
            "$type": "EHOAKHCMJJG",
            "useHeight": true,
            "height": 38.523040771484375,
            "centerType": "Center",
            "width": 106.36619567871094,
            "length": 61.89897537231445
          }
        },
        {
          "pos": {
            "x": 4849.18115234375,
            "y": 275.5484924316406,
            "z": 4502.9189453125
          },
          "shape": {
            "$type": "GLNLJIJMDJD",
            "useHeight": true,
            "height": 20.66530990600586,
            "radius": 22.498918533325195
          }
        }
      ]
    },
    {
      "BKGCMILAILD": 3360508,
      "limitShapes": [
        {
          "pos": {
            "x": 4873.283203125,
            "y": 290.846923828125,
            "z": 4447.9150390625
          },
          "rot": {
            "x": 88.39452362060547,
            "y": 180.0,
            "z": 180.0
          },
          "shape": {
            "$type": "DNDNFLPEDHN",
            "useHeight": true,
            "height": 45.82683563232422,
            "radius": 8.714786529541016
          }
        },
        {
          "pos": {
            "x": 4858.646484375,
            "y": 290.59735107421875,
            "z": 4443.72998046875
          },
          "rot": {
            "z": 90.0
          },
          "shape": {
            "$type": "DNDNFLPEDHN",
            "useHeight": true,
            "height": 47.45098114013672,
            "radius": 9.883810997009277
          }
        },
        {
          "pos": {
            "x": 4847.1064453125,
            "y": 280.03790283203125,
            "z": 4443.27880859375
          },
          "shape": {
            "$type": "GLNLJIJMDJD",
            "useHeight": true,
            "height": 39.42563247680664,
            "radius": 12.045063972473145
          }
        }
      ]
    }
  ],
  "minArea": {
    "x": 4815.7783203125,
    "y": 216.798583984375,
    "z": 4379.619140625
  },
  "maxArea": {
    "x": 5034.4462890625,
    "y": 512.2863159179688,
    "z": 4579.2001953125
  }
}