{
  "BPPPGGNKHNI": 33903,
  "NDIKKJNFLLK": [
    {
      "BKGCMILAILD": 3390301,
      "regionPolygons": [
        {
          "minArea": {
            "x": 2407.524169921875,
            "y": 427.3272705078125,
            "z": 3854.753662109375
          },
          "maxArea": {
            "x": 2462.658203125,
            "y": 454.7966003417969,
            "z": 3935.7890625
          },
          "roadPoints": [
            {
              "x": 2458.5166015625,
              "y": 427.3272705078125,
              "z": 3854.753662109375
            },
            {
              "x": 2429.7841796875,
              "y": 427.3272705078125,
              "z": 3860.696533203125
            },
            {
              "x": 2418.34619140625,
              "y": 427.3272705078125,
              "z": 3875.8359375
            },
            {
              "x": 2407.524169921875,
              "y": 427.3272705078125,
              "z": 3905.912353515625
            },
            {
              "x": 2413.330810546875,
              "y": 427.3272705078125,
              "z": 3916.74365234375
            },
            {
              "x": 2426.277099609375,
              "y": 427.3272705078125,
              "z": 3935.7890625
            },
            {
              "x": 2462.658203125,
              "y": 427.3272705078125,
              "z": 3910.656005859375
            }
          ]
        }
      ]
    },
    {
      "BKGCMILAILD": 3390302,
      "limitShapes": [
        {
          "pos": {
            "x": 2351.336669921875,
            "y": 384.1348571777344,
            "z": 4026.3486328125
          },
          "shape": {
            "$type": "EHOAKHCMJJG",
            "useHeight": true,
            "height": 60.0,
            "centerType": "Center",
            "width": 150.0,
            "length": 150.0
          }
        },
        {
          "pos": {
            "x": 2399.47509765625,
            "y": 379.1240234375,
            "z": 3946.435546875
          },
          "shape": {
            "$type": "GLNLJIJMDJD",
            "useHeight": true,
            "height": 140.0,
            "radius": 60.0
          }
        }
      ]
    }
  ],
  "minArea": {
    "x": 2276.3369140625,
    "y": 309.1240234375,
    "z": 3854.75390625
  },
  "maxArea": {
    "x": 2462.658203125,
    "y": 454.796630859375,
    "z": 4101.3486328125
  }
}