{
  "talkId": 1400822,
  "KPGKDHAFHFE": "GADGET",
  "dialogList": [
    {
      "id": 140071401,
      "nextDialogs": [
        140071402
      ],
      "talkRole": {
        "type": "TALK_ROLE_GADGET",
        "_id": "70711219"
      },
      "talkContentTextMapHash": 3785266658,
      "talkRoleNameTextMapHash": 2872315283,
      "talkAssetPath": "",
      "talkAssetPathAlter": "",
      "talkAudioName": "",
      "actionBefore": "",
      "actionWhile": "",
      "actionAfter": "",
      "optionIcon": "",
      "iconPath": ""
    },
    {
      "id": 140071402,
      "nextDialogs": [
        140071403
      ],
      "talkRole": {
        "type": "TALK_ROLE_GADGET",
        "_id": "70711219"
      },
      "talkContentTextMapHash": 3424276450,
      "talkRoleNameTextMapHash": 2171354107,
      "talkAssetPath": "",
      "talkAssetPathAlter": "",
      "talkAudioName": "",
      "actionBefore": "",
      "actionWhile": "",
      "actionAfter": "",
      "optionIcon": "",
      "iconPath": ""
    },
    {
      "id": 140071403,
      "talkRole": {
        "type": "TALK_ROLE_GADGET",
        "_id": "70711219"
      },
      "talkContentTextMapHash": 722415482,
      "talkRoleNameTextMapHash": 903463459,
      "talkAssetPath": "",
      "talkAssetPathAlter": "",
      "talkAudioName": "",
      "actionBefore": "",
      "actionWhile": "",
      "actionAfter": "",
      "optionIcon": "",
      "iconPath": ""
    }
  ]
}