{
  "talkId": 1905513,
  "KPGKDHAFHFE": "GADGET",
  "dialogList": [
    {
      "id": 190551301,
      "talkRole": {
        "type": "TALK_ROLE_NPC",
        "_id": "1005"
      },
      "talkContentTextMapHash": 1098010962,
      "talkRoleNameTextMapHash": 994695979,
      "talkAssetPath": "",
      "talkAssetPathAlter": "",
      "talkAudioName": "",
      "actionBefore": "",
      "actionWhile": "",
      "actionAfter": "",
      "optionIcon": "",
      "iconPath": ""
    }
  ]
}