{
  "talkId": 4014417,
  "KPGKDHAFHFE": "GADGET",
  "dialogList": [
    {
      "id": 401441601,
      "nextDialogs": [
        401441602
      ],
      "talkRole": {
        "type": "TALK_ROLE_GADGET",
        "_id": "70291409"
      },
      "talkContentTextMapHash": 1745234986,
      "talkAssetPath": "",
      "talkAssetPathAlter": "",
      "talkAudioName": "",
      "actionBefore": "SimpleTalk/LerpInNpcNoSteer_Start",
      "actionWhile": "",
      "actionAfter": "",
      "optionIcon": "",
      "iconPath": ""
    },
    {
      "id": 401441602,
      "nextDialogs": [
        401441603
      ],
      "talkRole": {
        "type": "TALK_ROLE_GADGET",
        "_id": "70291409"
      },
      "talkContentTextMapHash": 4002516450,
      "talkAssetPath": "",
      "talkAssetPathAlter": "",
      "talkAudioName": "",
      "actionBefore": "",
      "actionWhile": "",
      "actionAfter": "",
      "optionIcon": "",
      "iconPath": ""
    },
    {
      "id": 401441603,
      "nextDialogs": [
        401441604
      ],
      "talkRole": {
        "type": "TALK_ROLE_GADGET",
        "_id": "70291409"
      },
      "talkContentTextMapHash": 2116887474,
      "talkAssetPath": "",
      "talkAssetPathAlter": "",
      "talkAudioName": "",
      "actionBefore": "",
      "actionWhile": "",
      "actionAfter": "",
      "optionIcon": "",
      "iconPath": ""
    },
    {
      "id": 401441604,
      "talkRole": {
        "type": "TALK_ROLE_GADGET",
        "_id": "70291409"
      },
      "talkContentTextMapHash": 367206866,
      "talkAssetPath": "",
      "talkAssetPathAlter": "",
      "talkAudioName": "",
      "actionBefore": "",
      "actionWhile": "",
      "actionAfter": "SimpleTalk/LerpOutNpcNoSteer_End",
      "optionIcon": "",
      "iconPath": ""
    }
  ]
}