{
  "talkId": 4014412,
  "KPGKDHAFHFE": "GADGET",
  "dialogList": [
    {
      "id": 401441201,
      "talkRole": {
        "type": "TALK_ROLE_GADGET",
        "_id": "70291409"
      },
      "talkContentTextMapHash": 3107052218,
      "talkAssetPath": "",
      "talkAssetPathAlter": "",
      "talkAudioName": "",
      "actionBefore": "SimpleTalk/LerpInNpcNoSteer_Start",
      "actionWhile": "",
      "actionAfter": "SimpleTalk/LerpOutNpcNoSteer_End",
      "optionIcon": "",
      "iconPath": ""
    }
  ]
}