{
  "talkId": 6800297,
  "KPGKDHAFHFE": "GADGET",
  "dialogList": [
    {
      "id": 680029001,
      "talkRole": {
        "type": "TALK_ROLE_NPC",
        "_id": "1005"
      },
      "talkContentTextMapHash": 2467142610,
      "talkRoleNameTextMapHash": 456802307,
      "talkAssetPath": "",
      "talkAssetPathAlter": "",
      "talkAudioName": "",
      "actionBefore": "SimpleTalk/LerpInNpcNoSteer_Start",
      "actionWhile": "",
      "actionAfter": "",
      "optionIcon": "",
      "iconPath": ""
    }
  ]
}