{
  "talkId": 6800229,
  "KPGKDHAFHFE": "GADGET",
  "dialogList": [
    {
      "id": 680022901,
      "talkRole": {
        "type": "TALK_ROLE_GADGET",
        "_id": "70380274"
      },
      "talkContentTextMapHash": 3370753026,
      "talkRoleNameTextMapHash": 3388393043,
      "talkAssetPath": "",
      "talkAssetPathAlter": "",
      "talkAudioName": "",
      "actionBefore": "TEST/LerpInNpcNoSteer",
      "actionWhile": "TEST/EchoConchShowEff",
      "actionAfter": "TEST/LerpOutNpcNoSteerAndGadgetTouch",
      "optionIcon": "",
      "iconPath": ""
    }
  ]
}