{
  "talkId": 6800201,
  "KPGKDHAFHFE": "GADGET",
  "dialogList": [
    {
      "id": 680020101,
      "nextDialogs": [
        680020102
      ],
      "talkRole": {
        "type": "TALK_ROLE_GADGET",
        "_id": "70380274"
      },
      "talkContentTextMapHash": 516295226,
      "talkRoleNameTextMapHash": 4212781163,
      "talkAssetPath": "",
      "talkAssetPathAlter": "",
      "talkAudioName": "",
      "actionBefore": "TEST/LerpInNpcNoSteer",
      "actionWhile": "TEST/EchoConchShowEff",
      "actionAfter": "",
      "optionIcon": "",
      "iconPath": ""
    },
    {
      "id": 680020102,
      "nextDialogs": [
        680020103
      ],
      "talkRole": {
        "type": "TALK_ROLE_GADGET",
        "_id": "70380274"
      },
      "talkContentTextMapHash": 1159801986,
      "talkRoleNameTextMapHash": 3371622963,
      "talkAssetPath": "",
      "talkAssetPathAlter": "",
      "talkAudioName": "",
      "actionBefore": "",
      "actionWhile": "TEST/EchoConchShowEff",
      "actionAfter": "",
      "optionIcon": "",
      "iconPath": ""
    },
    {
      "id": 680020103,
      "talkRole": {
        "type": "TALK_ROLE_GADGET",
        "_id": "70380274"
      },
      "talkContentTextMapHash": 1448753482,
      "talkRoleNameTextMapHash": 3913582699,
      "talkAssetPath": "",
      "talkAssetPathAlter": "",
      "talkAudioName": "",
      "actionBefore": "",
      "actionWhile": "TEST/EchoConchShowEff",
      "actionAfter": "TEST/LerpOutNpcNoSteerAndGadgetTouch",
      "optionIcon": "",
      "iconPath": ""
    }
  ]
}