{
  "talkId": 6800270,
  "KPGKDHAFHFE": "GADGET",
  "dialogList": [
    {
      "id": 680027001,
      "nextDialogs": [
        680027002
      ],
      "talkRole": {
        "type": "TALK_ROLE_GADGET",
        "_id": "70500036"
      },
      "talkContentTextMapHash": 1538962522,
      "talkRoleNameTextMapHash": 3341306275,
      "talkAssetPath": "",
      "talkAssetPathAlter": "",
      "talkAudioName": "",
      "actionBefore": "TEST/LerpInNpcNoSteer",
      "actionWhile": "",
      "actionAfter": "",
      "optionIcon": "",
      "iconPath": ""
    },
    {
      "id": 680027002,
      "talkRole": {
        "type": "TALK_ROLE_GADGET",
        "_id": "70500036"
      },
      "talkContentTextMapHash": 4170757002,
      "talkRoleNameTextMapHash": 614866275,
      "talkAssetPath": "",
      "talkAssetPathAlter": "",
      "talkAudioName": "",
      "actionBefore": "",
      "actionWhile": "",
      "actionAfter": "TEST/LerpOutNpcNoSteerAndGadgetTouch",
      "optionIcon": "",
      "iconPath": ""
    }
  ]
}