{
  "talkId": 6800325,
  "KPGKDHAFHFE": "GADGET",
  "dialogList": [
    {
      "id": 680032501,
      "nextDialogs": [
        680032502
      ],
      "talkRole": {
        "type": "TALK_ROLE_GADGET",
        "_id": "70310332"
      },
      "talkContentTextMapHash": 657438218,
      "talkRoleNameTextMapHash": 3418266179,
      "talkAssetPath": "",
      "talkAssetPathAlter": "",
      "talkAudioName": "",
      "actionBefore": "",
      "actionWhile": "",
      "actionAfter": "",
      "optionIcon": "",
      "iconPath": ""
    },
    {
      "id": 680032502,
      "talkRole": {
        "type": "TALK_ROLE_GADGET",
        "_id": "70310332"
      },
      "talkContentTextMapHash": 1398305898,
      "talkRoleNameTextMapHash": 1544653955,
      "talkAssetPath": "",
      "talkAssetPathAlter": "",
      "talkAudioName": "",
      "actionBefore": "",
      "actionWhile": "",
      "actionAfter": "",
      "optionIcon": "",
      "iconPath": ""
    }
  ]
}