{
  "talkId": 6800403,
  "KPGKDHAFHFE": "GADGET",
  "dialogList": [
    {
      "id": 680040301,
      "nextDialogs": [
        680040302
      ],
      "talkRole": {
        "type": "TALK_ROLE_GADGET",
        "_id": "70950101"
      },
      "talkContentTextMapHash": 58660642,
      "talkRoleNameTextMapHash": 3035430915,
      "talkAssetPath": "",
      "talkAssetPathAlter": "",
      "talkAudioName": "",
      "actionBefore": "TEST/LerpInNpcNoSteer",
      "actionWhile": "",
      "actionAfter": "",
      "optionIcon": "",
      "iconPath": ""
    },
    {
      "id": 680040302,
      "nextDialogs": [
        680040303
      ],
      "talkRole": {
        "type": "TALK_ROLE_GADGET",
        "_id": "70950101"
      },
      "talkContentTextMapHash": 1250941914,
      "talkRoleNameTextMapHash": 2609491979,
      "talkAssetPath": "",
      "talkAssetPathAlter": "",
      "talkAudioName": "",
      "actionBefore": "",
      "actionWhile": "",
      "actionAfter": "",
      "optionIcon": "",
      "iconPath": ""
    },
    {
      "id": 680040303,
      "nextDialogs": [
        680040304
      ],
      "talkRole": {
        "type": "TALK_ROLE_GADGET",
        "_id": "70950101"
      },
      "talkContentTextMapHash": 1267543794,
      "talkRoleNameTextMapHash": 2951008299,
      "talkAssetPath": "",
      "talkAssetPathAlter": "",
      "talkAudioName": "",
      "actionBefore": "",
      "actionWhile": "",
      "actionAfter": "",
      "optionIcon": "",
      "iconPath": ""
    },
    {
      "id": 680040304,
      "talkRole": {
        "type": "TALK_ROLE_GADGET",
        "_id": "70950101"
      },
      "talkContentTextMapHash": 408175090,
      "talkRoleNameTextMapHash": 1729192419,
      "talkAssetPath": "",
      "talkAssetPathAlter": "",
      "talkAudioName": "",
      "actionBefore": "",
      "actionWhile": "",
      "actionAfter": "TEST/LerpOutNpcNoSteer",
      "optionIcon": "",
      "iconPath": ""
    }
  ]
}