{
  "talkId": 6800342,
  "KPGKDHAFHFE": "GADGET",
  "dialogList": [
    {
      "id": 680034201,
      "talkRole": {
        "type": "TALK_ROLE_GADGET",
        "_id": "70310332"
      },
      "talkContentTextMapHash": 858100922,
      "talkRoleNameTextMapHash": 1666490011,
      "talkAssetPath": "",
      "talkAssetPathAlter": "",
      "talkAudioName": "",
      "actionBefore": "",
      "actionWhile": "",
      "actionAfter": "",
      "optionIcon": "",
      "iconPath": ""
    }
  ]
}