{
  "talkId": 6800366,
  "KPGKDHAFHFE": "GADGET",
  "dialogList": [
    {
      "id": 680036601,
      "nextDialogs": [
        680036602
      ],
      "talkRole": {
        "type": "TALK_ROLE_GADGET",
        "_id": "70900428"
      },
      "talkContentTextMapHash": 2865588266,
      "talkRoleNameTextMapHash": 2761248859,
      "talkAssetPath": "",
      "talkAssetPathAlter": "",
      "talkAudioName": "",
      "actionBefore": "",
      "actionWhile": "",
      "actionAfter": "",
      "optionIcon": "",
      "iconPath": ""
    },
    {
      "id": 680036602,
      "nextDialogs": [
        680036603
      ],
      "talkRole": {
        "type": "TALK_ROLE_GADGET",
        "_id": "70900428"
      },
      "talkContentTextMapHash": 2822515026,
      "talkRoleNameTextMapHash": 1528125995,
      "talkAssetPath": "",
      "talkAssetPathAlter": "",
      "talkAudioName": "",
      "actionBefore": "",
      "actionWhile": "",
      "actionAfter": "",
      "optionIcon": "",
      "iconPath": ""
    },
    {
      "id": 680036603,
      "talkRole": {
        "type": "TALK_ROLE_GADGET",
        "_id": "70900428"
      },
      "talkContentTextMapHash": 3127024778,
      "talkRoleNameTextMapHash": 1094083427,
      "talkAssetPath": "",
      "talkAssetPathAlter": "",
      "talkAudioName": "",
      "actionBefore": "",
      "actionWhile": "",
      "actionAfter": "",
      "optionIcon": "",
      "iconPath": ""
    }
  ]
}