{
  "talkId": 6800252,
  "KPGKDHAFHFE": "GADGET",
  "dialogList": [
    {
      "id": 680025201,
      "nextDialogs": [
        680025202,
        680025204
      ],
      "talkRole": {
        "type": "TALK_ROLE_GADGET",
        "_id": "70310332"
      },
      "talkContentTextMapHash": 2118685746,
      "talkRoleNameTextMapHash": 284949739,
      "talkAssetPath": "",
      "talkAssetPathAlter": "",
      "talkAudioName": "",
      "actionBefore": "",
      "actionWhile": "",
      "actionAfter": "",
      "optionIcon": "",
      "iconPath": ""
    },
    {
      "id": 680025202,
      "nextDialogs": [
        680025203
      ],
      "talkShowType": "TALK_SHOW_FORCE_SELECT",
      "talkRole": {
        "type": "TALK_ROLE_PLAYER",
        "_id": ""
      },
      "talkContentTextMapHash": 75194618,
      "talkAssetPath": "",
      "talkAssetPathAlter": "",
      "talkAudioName": "",
      "actionBefore": "",
      "actionWhile": "",
      "actionAfter": "",
      "optionIcon": "",
      "iconPath": ""
    },
    {
      "id": 680025203,
      "nextDialogs": [
        680025206
      ],
      "talkRole": {
        "type": "TALK_ROLE_GADGET",
        "_id": "70310332"
      },
      "talkContentTextMapHash": 1287120386,
      "talkRoleNameTextMapHash": 2398526555,
      "talkAssetPath": "",
      "talkAssetPathAlter": "",
      "talkAudioName": "",
      "actionBefore": "",
      "actionWhile": "",
      "actionAfter": "",
      "optionIcon": "",
      "iconPath": ""
    },
    {
      "id": 680025206,
      "nextDialogs": [
        680025207
      ],
      "talkRole": {
        "type": "TALK_ROLE_GADGET",
        "_id": "70310332"
      },
      "talkContentTextMapHash": 507695706,
      "talkRoleNameTextMapHash": 3369146211,
      "talkAssetPath": "",
      "talkAssetPathAlter": "",
      "talkAudioName": "",
      "actionBefore": "",
      "actionWhile": "",
      "actionAfter": "",
      "optionIcon": "",
      "iconPath": ""
    },
    {
      "id": 680025207,
      "nextDialogs": [
        680025208
      ],
      "talkRole": {
        "type": "TALK_ROLE_GADGET",
        "_id": "70310332"
      },
      "talkContentTextMapHash": 1876719018,
      "talkRoleNameTextMapHash": 1943481963,
      "talkAssetPath": "",
      "talkAssetPathAlter": "",
      "talkAudioName": "",
      "actionBefore": "",
      "actionWhile": "",
      "actionAfter": "",
      "optionIcon": "",
      "iconPath": ""
    },
    {
      "id": 680025208,
      "nextDialogs": [
        680025209
      ],
      "talkRole": {
        "type": "TALK_ROLE_GADGET",
        "_id": "70310332"
      },
      "talkContentTextMapHash": 3074339906,
      "talkRoleNameTextMapHash": 3730037107,
      "talkAssetPath": "",
      "talkAssetPathAlter": "",
      "talkAudioName": "",
      "actionBefore": "",
      "actionWhile": "",
      "actionAfter": "",
      "optionIcon": "",
      "iconPath": ""
    },
    {
      "id": 680025209,
      "nextDialogs": [
        680025210
      ],
      "talkShowType": "TALK_SHOW_FORCE_SELECT",
      "talkRole": {
        "type": "TALK_ROLE_PLAYER",
        "_id": ""
      },
      "talkContentTextMapHash": 3157793626,
      "talkAssetPath": "",
      "talkAssetPathAlter": "",
      "talkAudioName": "",
      "actionBefore": "",
      "actionWhile": "",
      "actionAfter": "",
      "optionIcon": "",
      "iconPath": ""
    },
    {
      "id": 680025210,
      "talkRole": {
        "type": "TALK_ROLE_GADGET",
        "_id": "70310332"
      },
      "talkContentTextMapHash": 2162311394,
      "talkRoleNameTextMapHash": 3606342035,
      "talkAssetPath": "",
      "talkAssetPathAlter": "",
      "talkAudioName": "",
      "actionBefore": "",
      "actionWhile": "",
      "actionAfter": "",
      "optionIcon": "",
      "iconPath": ""
    },
    {
      "id": 680025204,
      "nextDialogs": [
        680025205
      ],
      "talkShowType": "TALK_SHOW_FORCE_SELECT",
      "talkRole": {
        "type": "TALK_ROLE_PLAYER",
        "_id": ""
      },
      "talkContentTextMapHash": 458037666,
      "talkAssetPath": "",
      "talkAssetPathAlter": "",
      "talkAudioName": "",
      "actionBefore": "",
      "actionWhile": "",
      "actionAfter": "",
      "optionIcon": "",
      "iconPath": ""
    },
    {
      "id": 680025205,
      "nextDialogs": [
        680025206
      ],
      "talkRole": {
        "type": "TALK_ROLE_GADGET",
        "_id": "70310332"
      },
      "talkContentTextMapHash": 2031961170,
      "talkRoleNameTextMapHash": 4108394051,
      "talkAssetPath": "",
      "talkAssetPathAlter": "",
      "talkAudioName": "",
      "actionBefore": "",
      "actionWhile": "",
      "actionAfter": "",
      "optionIcon": "",
      "iconPath": ""
    }
  ]
}