{
  "talkId": 6800804,
  "KPGKDHAFHFE": "GADGET",
  "dialogList": [
    {
      "id": 680080401,
      "nextDialogs": [
        680080402
      ],
      "talkRole": {
        "type": "TALK_ROLE_GADGET",
        "_id": "70950118"
      },
      "talkContentTextMapHash": 2258460010,
      "talkAssetPath": "",
      "talkAssetPathAlter": "",
      "talkAudioName": "",
      "actionBefore": "TEST/LerpInNpcNoSteer",
      "actionWhile": "",
      "actionAfter": "",
      "optionIcon": "",
      "iconPath": ""
    },
    {
      "id": 680080402,
      "nextDialogs": [
        680080403
      ],
      "talkRole": {
        "type": "TALK_ROLE_GADGET",
        "_id": "70950118"
      },
      "talkContentTextMapHash": 285643338,
      "talkAssetPath": "",
      "talkAssetPathAlter": "",
      "talkAudioName": "",
      "actionBefore": "",
      "actionWhile": "",
      "actionAfter": "",
      "optionIcon": "",
      "iconPath": ""
    },
    {
      "id": 680080403,
      "nextDialogs": [
        680080404
      ],
      "talkRole": {
        "type": "TALK_ROLE_GADGET",
        "_id": "70950118"
      },
      "talkContentTextMapHash": 3206785322,
      "talkAssetPath": "",
      "talkAssetPathAlter": "",
      "talkAudioName": "",
      "actionBefore": "",
      "actionWhile": "",
      "actionAfter": "",
      "optionIcon": "",
      "iconPath": ""
    },
    {
      "id": 680080404,
      "nextDialogs": [
        680080405
      ],
      "talkRole": {
        "type": "TALK_ROLE_GADGET",
        "_id": "70950118"
      },
      "talkContentTextMapHash": 1962702186,
      "talkAssetPath": "",
      "talkAssetPathAlter": "",
      "talkAudioName": "",
      "actionBefore": "",
      "actionWhile": "",
      "actionAfter": "",
      "optionIcon": "",
      "iconPath": ""
    },
    {
      "id": 680080405,
      "nextDialogs": [
        680080406
      ],
      "talkRole": {
        "type": "TALK_ROLE_GADGET",
        "_id": "70950118"
      },
      "talkContentTextMapHash": 3088390306,
      "talkAssetPath": "",
      "talkAssetPathAlter": "",
      "talkAudioName": "",
      "actionBefore": "",
      "actionWhile": "",
      "actionAfter": "",
      "optionIcon": "",
      "iconPath": ""
    },
    {
      "id": 680080406,
      "talkRole": {
        "type": "TALK_ROLE_GADGET",
        "_id": "70950118"
      },
      "talkContentTextMapHash": 3289705114,
      "talkAssetPath": "",
      "talkAssetPathAlter": "",
      "talkAudioName": "",
      "actionBefore": "",
      "actionWhile": "",
      "actionAfter": "TEST/LerpOutNpcNoSteer",
      "optionIcon": "",
      "iconPath": ""
    }
  ]
}