{
  "talkId": 6800302,
  "KPGKDHAFHFE": "GADGET",
  "dialogList": [
    {
      "id": 680030201,
      "nextDialogs": [
        680030202
      ],
      "talkShowType": "TALK_SHOW_FORCE_SELECT",
      "talkRole": {
        "type": "TALK_ROLE_PLAYER",
        "_id": ""
      },
      "talkContentTextMapHash": 1652131578,
      "talkAssetPath": "",
      "talkAssetPathAlter": "",
      "talkAudioName": "",
      "actionBefore": "",
      "actionWhile": "",
      "actionAfter": "",
      "optionIcon": "",
      "iconPath": ""
    },
    {
      "id": 680030202,
      "talkRole": {
        "type": "TALK_ROLE_GADGET",
        "_id": "70950098"
      },
      "talkContentTextMapHash": 4110915178,
      "talkRoleNameTextMapHash": 1546733003,
      "talkAssetPath": "",
      "talkAssetPathAlter": "",
      "talkAudioName": "",
      "actionBefore": "",
      "actionWhile": "",
      "actionAfter": "UI/open_drawlots_page",
      "optionIcon": "",
      "iconPath": ""
    }
  ]
}