{
  "talkId": 6800107,
  "KPGKDHAFHFE": "GADGET",
  "dialogList": [
    {
      "id": 680010701,
      "talkRole": {
        "type": "TALK_ROLE_GADGET",
        "_id": "70900381"
      },
      "talkContentTextMapHash": 903529458,
      "talkRoleNameTextMapHash": 834192003,
      "talkAssetPath": "",
      "talkAssetPathAlter": "",
      "talkAudioName": "",
      "actionBefore": "TEST/LerpInNpcNoSteer",
      "actionWhile": "",
      "actionAfter": "TEST/LerpOutNpcNoSteer",
      "optionIcon": "",
      "iconPath": ""
    }
  ]
}