{
  "talkId": 6800321,
  "KPGKDHAFHFE": "GADGET",
  "dialogList": [
    {
      "id": 680032101,
      "talkRole": {
        "type": "TALK_ROLE_GADGET",
        "_id": "70310332"
      },
      "talkContentTextMapHash": 1962280362,
      "talkRoleNameTextMapHash": 3520170451,
      "talkAssetPath": "",
      "talkAssetPathAlter": "",
      "talkAudioName": "",
      "actionBefore": "",
      "actionWhile": "",
      "actionAfter": "",
      "optionIcon": "",
      "iconPath": ""
    }
  ]
}