{
  "talkId": 6800337,
  "KPGKDHAFHFE": "GADGET",
  "dialogList": [
    {
      "id": 680033701,
      "talkRole": {
        "type": "TALK_ROLE_GADGET",
        "_id": "70310332"
      },
      "talkContentTextMapHash": 2079966346,
      "talkRoleNameTextMapHash": 4049046347,
      "talkAssetPath": "",
      "talkAssetPathAlter": "",
      "talkAudioName": "",
      "actionBefore": "",
      "actionWhile": "",
      "actionAfter": "",
      "optionIcon": "",
      "iconPath": ""
    }
  ]
}