{
  "talkId": 6800267,
  "KPGKDHAFHFE": "GADGET",
  "dialogList": [
    {
      "id": 680026701,
      "nextDialogs": [
        680026702
      ],
      "talkRole": {
        "type": "TALK_ROLE_GADGET",
        "_id": "70500036"
      },
      "talkContentTextMapHash": 2055136698,
      "talkRoleNameTextMapHash": 2731487203,
      "talkAssetPath": "",
      "talkAssetPathAlter": "",
      "talkAudioName": "",
      "actionBefore": "TEST/LerpInNpcNoSteer",
      "actionWhile": "",
      "actionAfter": "",
      "optionIcon": "",
      "iconPath": ""
    },
    {
      "id": 680026702,
      "nextDialogs": [
        680026703
      ],
      "talkRole": {
        "type": "TALK_ROLE_GADGET",
        "_id": "70500036"
      },
      "talkContentTextMapHash": 4268422298,
      "talkRoleNameTextMapHash": 121942075,
      "talkAssetPath": "",
      "talkAssetPathAlter": "",
      "talkAudioName": "",
      "actionBefore": "",
      "actionWhile": "",
      "actionAfter": "",
      "optionIcon": "",
      "iconPath": ""
    },
    {
      "id": 680026703,
      "talkRole": {
        "type": "TALK_ROLE_GADGET",
        "_id": "70500036"
      },
      "talkContentTextMapHash": 1497152074,
      "talkRoleNameTextMapHash": 3933958339,
      "talkAssetPath": "",
      "talkAssetPathAlter": "",
      "talkAudioName": "",
      "actionBefore": "",
      "actionWhile": "",
      "actionAfter": "TEST/LerpOutNpcNoSteerAndGadgetTouch",
      "optionIcon": "",
      "iconPath": ""
    }
  ]
}