{
  "talkId": 6800269,
  "KPGKDHAFHFE": "GADGET",
  "dialogList": [
    {
      "id": 680026901,
      "talkRole": {
        "type": "TALK_ROLE_GADGET",
        "_id": "70500036"
      },
      "talkContentTextMapHash": 1521140978,
      "talkRoleNameTextMapHash": 733907843,
      "talkAssetPath": "",
      "talkAssetPathAlter": "",
      "talkAudioName": "",
      "actionBefore": "TEST/LerpInNpcNoSteer",
      "actionWhile": "",
      "actionAfter": "TEST/LerpOutNpcNoSteerAndGadgetTouch",
      "optionIcon": "",
      "iconPath": ""
    }
  ]
}