{
  "talkId": 6800236,
  "KPGKDHAFHFE": "GADGET",
  "dialogList": [
    {
      "id": 680023301,
      "talkRole": {
        "type": "TALK_ROLE_GADGET",
        "_id": "70380275"
      },
      "talkContentTextMapHash": 1851185738,
      "talkRoleNameTextMapHash": 2249814587,
      "talkAssetPath": "",
      "talkAssetPathAlter": "",
      "talkAudioName": "",
      "actionBefore": "TEST/LerpInNpcNoSteer",
      "actionWhile": "",
      "actionAfter": "TEST/LerpOutNpcNoSteer",
      "optionIcon": "",
      "iconPath": ""
    }
  ]
}