{
  "talkId": 6800374,
  "KPGKDHAFHFE": "GADGET",
  "dialogList": [
    {
      "id": 680037401,
      "talkRole": {
        "type": "TALK_ROLE_GADGET",
        "_id": "70310332"
      },
      "talkContentTextMapHash": 2699574362,
      "talkRoleNameTextMapHash": 3268696795,
      "talkAssetPath": "",
      "talkAssetPathAlter": "",
      "talkAudioName": "",
      "actionBefore": "",
      "actionWhile": "",
      "actionAfter": "",
      "optionIcon": "",
      "iconPath": ""
    }
  ]
}