{
  "talkId": 6801802,
  "KPGKDHAFHFE": "GADGET",
  "dialogList": [
    {
      "id": 680180201,
      "talkRole": {
        "type": "TALK_ROLE_NPC",
        "_id": "5120"
      },
      "talkContentTextMapHash": 1261964458,
      "talkAssetPath": "",
      "talkAssetPathAlter": "",
      "talkAudioName": "",
      "actionBefore": "DialogAction/Nutcracker_LerpIn_Paimon",
      "actionWhile": "",
      "actionAfter": "",
      "optionIcon": "",
      "iconPath": ""
    }
  ]
}