{
  "talkId": 6801904,
  "KPGKDHAFHFE": "GADGET",
  "dialogList": [
    {
      "id": 680190401,
      "talkRole": {
        "_id": ""
      },
      "talkContentTextMapHash": 4018043570,
      "talkRoleNameTextMapHash": 1107500587,
      "talkAssetPath": "",
      "talkAssetPathAlter": "",
      "talkAudioName": "",
      "actionBefore": "SimpleTalk/LerpInNpcNoSteer_Start",
      "actionWhile": "",
      "actionAfter": "SimpleTalk/LerpOutNpcNoSteer_End",
      "optionIcon": "",
      "iconPath": ""
    }
  ]
}