{
  "talkId": 6801902,
  "KPGKDHAFHFE": "GADGET",
  "dialogList": [
    {
      "id": 680190201,
      "talkRole": {
        "_id": ""
      },
      "talkContentTextMapHash": 2202911514,
      "talkRoleNameTextMapHash": 2310354675,
      "talkAssetPath": "",
      "talkAssetPathAlter": "",
      "talkAudioName": "",
      "actionBefore": "SimpleTalk/LerpInNpcNoSteer_Start",
      "actionWhile": "",
      "actionAfter": "SimpleTalk/LerpOutNpcNoSteer_End",
      "optionIcon": "",
      "iconPath": ""
    }
  ]
}