{
  "talkId": 6801801,
  "KPGKDHAFHFE": "GADGET",
  "dialogList": [
    {
      "id": 680180101,
      "nextDialogs": [
        680180102
      ],
      "talkRole": {
        "type": "TALK_ROLE_NPC",
        "_id": "5120"
      },
      "talkContentTextMapHash": 3746636202,
      "talkAssetPath": "",
      "talkAssetPathAlter": "",
      "talkAudioName": "",
      "actionBefore": "DialogAction/Nutcracker_LerpIn",
      "actionWhile": "",
      "actionAfter": "",
      "optionIcon": "",
      "iconPath": ""
    },
    {
      "id": 680180102,
      "nextDialogs": [
        680180103
      ],
      "talkRole": {
        "type": "TALK_ROLE_NPC",
        "_id": "5120"
      },
      "talkContentTextMapHash": 884915954,
      "talkAssetPath": "",
      "talkAssetPathAlter": "",
      "talkAudioName": "",
      "actionBefore": "",
      "actionWhile": "",
      "actionAfter": "",
      "optionIcon": "",
      "iconPath": ""
    },
    {
      "id": 680180103,
      "nextDialogs": [
        680180104
      ],
      "talkRole": {
        "type": "TALK_ROLE_NPC",
        "_id": "5120"
      },
      "talkContentTextMapHash": 244015866,
      "talkAssetPath": "",
      "talkAssetPathAlter": "",
      "talkAudioName": "",
      "actionBefore": "",
      "actionWhile": "",
      "actionAfter": "",
      "optionIcon": "",
      "iconPath": ""
    },
    {
      "id": 680180104,
      "nextDialogs": [
        680180105
      ],
      "talkRole": {
        "type": "TALK_ROLE_NPC",
        "_id": "5120"
      },
      "talkContentTextMapHash": 1841119042,
      "talkAssetPath": "",
      "talkAssetPathAlter": "",
      "talkAudioName": "",
      "actionBefore": "",
      "actionWhile": "",
      "actionAfter": "",
      "optionIcon": "",
      "iconPath": ""
    },
    {
      "id": 680180105,
      "nextDialogs": [
        680180106
      ],
      "talkRole": {
        "type": "TALK_ROLE_NPC",
        "_id": "5120"
      },
      "talkContentTextMapHash": 4260616642,
      "talkAssetPath": "",
      "talkAssetPathAlter": "",
      "talkAudioName": "",
      "actionBefore": "",
      "actionWhile": "",
      "actionAfter": "",
      "optionIcon": "",
      "iconPath": ""
    },
    {
      "id": 680180106,
      "nextDialogs": [
        680180107
      ],
      "talkRole": {
        "type": "TALK_ROLE_NPC",
        "_id": "5120"
      },
      "talkContentTextMapHash": 2309598546,
      "talkAssetPath": "",
      "talkAssetPathAlter": "",
      "talkAudioName": "",
      "actionBefore": "",
      "actionWhile": "",
      "actionAfter": "",
      "optionIcon": "",
      "iconPath": ""
    },
    {
      "id": 680180107,
      "nextDialogs": [
        680180108
      ],
      "talkRole": {
        "type": "TALK_ROLE_NPC",
        "_id": "5120"
      },
      "talkContentTextMapHash": 2644382698,
      "talkAssetPath": "",
      "talkAssetPathAlter": "",
      "talkAudioName": "",
      "actionBefore": "",
      "actionWhile": "",
      "actionAfter": "",
      "optionIcon": "",
      "iconPath": ""
    },
    {
      "id": 680180108,
      "nextDialogs": [
        680180109
      ],
      "talkRole": {
        "type": "TALK_ROLE_NPC",
        "_id": "5120"
      },
      "talkContentTextMapHash": 166932218,
      "talkAssetPath": "",
      "talkAssetPathAlter": "",
      "talkAudioName": "",
      "actionBefore": "",
      "actionWhile": "",
      "actionAfter": "",
      "optionIcon": "",
      "iconPath": ""
    },
    {
      "id": 680180109,
      "nextDialogs": [
        680180110
      ],
      "talkRole": {
        "type": "TALK_ROLE_NPC",
        "_id": "5120"
      },
      "talkContentTextMapHash": 2727857530,
      "talkAssetPath": "",
      "talkAssetPathAlter": "",
      "talkAudioName": "",
      "actionBefore": "",
      "actionWhile": "",
      "actionAfter": "",
      "optionIcon": "",
      "iconPath": ""
    },
    {
      "id": 680180110,
      "nextDialogs": [
        680180111
      ],
      "talkRole": {
        "type": "TALK_ROLE_NPC",
        "_id": "5120"
      },
      "talkContentTextMapHash": 2902637762,
      "talkAssetPath": "",
      "talkAssetPathAlter": "",
      "talkAudioName": "",
      "actionBefore": "",
      "actionWhile": "",
      "actionAfter": "DialogAction/D680180101_After",
      "optionIcon": "",
      "iconPath": ""
    },
    {
      "id": 680180111,
      "talkRole": {
        "type": "TALK_ROLE_NPC",
        "_id": "5120"
      },
      "talkContentTextMapHash": 3212522802,
      "talkAssetPath": "",
      "talkAssetPathAlter": "",
      "talkAudioName": "",
      "actionBefore": "",
      "actionWhile": "",
      "actionAfter": "",
      "optionIcon": "",
      "iconPath": ""
    }
  ]
}