{
  "talkId": 6801103,
  "KPGKDHAFHFE": "GADGET",
  "dialogList": [
    {
      "id": 680110301,
      "nextDialogs": [
        680110302
      ],
      "talkRole": {
        "_id": ""
      },
      "talkContentTextMapHash": 2094291594,
      "talkRoleNameTextMapHash": 3348887203,
      "talkAssetPath": "",
      "talkAssetPathAlter": "",
      "talkAudioName": "",
      "actionBefore": "",
      "actionWhile": "",
      "actionAfter": "",
      "optionIcon": "",
      "iconPath": ""
    },
    {
      "id": 680110302,
      "talkRole": {
        "_id": ""
      },
      "talkContentTextMapHash": 2083982026,
      "talkRoleNameTextMapHash": 2413942059,
      "talkAssetPath": "",
      "talkAssetPathAlter": "",
      "talkAudioName": "",
      "actionBefore": "",
      "actionWhile": "",
      "actionAfter": "",
      "optionIcon": "",
      "iconPath": ""
    }
  ]
}