{
  "talkId": 6833021,
  "KPGKDHAFHFE": "GADGET",
  "dialogList": [
    {
      "id": 683302101,
      "nextDialogs": [
        683302102
      ],
      "talkRole": {
        "type": "TALK_ROLE_GADGET",
        "_id": "70710953"
      },
      "talkContentTextMapHash": 2571339098,
      "talkRoleNameTextMapHash": 3309883475,
      "talkAssetPath": "",
      "talkAssetPathAlter": "",
      "talkAudioName": "",
      "actionBefore": "SimpleTalk/LerpInNpcNoSteer_Start",
      "actionWhile": "",
      "actionAfter": "",
      "optionIcon": "",
      "iconPath": ""
    },
    {
      "id": 683302102,
      "talkRole": {
        "type": "TALK_ROLE_GADGET",
        "_id": "70710953"
      },
      "talkContentTextMapHash": 3937554858,
      "talkRoleNameTextMapHash": 2419998019,
      "talkAssetPath": "",
      "talkAssetPathAlter": "",
      "talkAudioName": "",
      "actionBefore": "",
      "actionWhile": "",
      "actionAfter": "SimpleTalk/LerpOutNpcNoSteer_End",
      "optionIcon": "",
      "iconPath": ""
    }
  ]
}