{
  "talkId": 6834300,
  "KPGKDHAFHFE": "GADGET",
  "dialogList": [
    {
      "id": 683430001,
      "nextDialogs": [
        683430002
      ],
      "talkRole": {
        "type": "TALK_ROLE_GADGET",
        "_id": "70330324"
      },
      "talkContentTextMapHash": 306656858,
      "talkRoleNameTextMapHash": 3696339411,
      "talkAssetPath": "",
      "talkAssetPathAlter": "",
      "talkAudioName": "",
      "actionBefore": "SimpleTalk/LerpInNpcNoSteer_Start",
      "actionWhile": "",
      "actionAfter": "",
      "optionIcon": "",
      "iconPath": ""
    },
    {
      "id": 683430002,
      "nextDialogs": [
        683430003
      ],
      "talkRole": {
        "type": "TALK_ROLE_GADGET",
        "_id": "70330324"
      },
      "talkContentTextMapHash": 2843516018,
      "talkRoleNameTextMapHash": 168732859,
      "talkAssetPath": "",
      "talkAssetPathAlter": "",
      "talkAudioName": "",
      "actionBefore": "",
      "actionWhile": "",
      "actionAfter": "",
      "optionIcon": "",
      "iconPath": ""
    },
    {
      "id": 683430003,
      "nextDialogs": [
        683430004
      ],
      "talkRole": {
        "type": "TALK_ROLE_GADGET",
        "_id": "70330324"
      },
      "talkContentTextMapHash": 1033792266,
      "talkRoleNameTextMapHash": 2665690531,
      "talkAssetPath": "",
      "talkAssetPathAlter": "",
      "talkAudioName": "",
      "actionBefore": "",
      "actionWhile": "",
      "actionAfter": "",
      "optionIcon": "",
      "iconPath": ""
    },
    {
      "id": 683430004,
      "nextDialogs": [
        683430005
      ],
      "talkRole": {
        "type": "TALK_ROLE_GADGET",
        "_id": "70330324"
      },
      "talkContentTextMapHash": 3313289810,
      "talkRoleNameTextMapHash": 367897867,
      "talkAssetPath": "",
      "talkAssetPathAlter": "",
      "talkAudioName": "",
      "actionBefore": "",
      "actionWhile": "",
      "actionAfter": "",
      "optionIcon": "",
      "iconPath": ""
    },
    {
      "id": 683430005,
      "nextDialogs": [
        683430006
      ],
      "talkRole": {
        "type": "TALK_ROLE_GADGET",
        "_id": "70330324"
      },
      "talkContentTextMapHash": 297738370,
      "talkRoleNameTextMapHash": 1733801875,
      "talkAssetPath": "",
      "talkAssetPathAlter": "",
      "talkAudioName": "",
      "actionBefore": "",
      "actionWhile": "",
      "actionAfter": "",
      "optionIcon": "",
      "iconPath": ""
    },
    {
      "id": 683430006,
      "nextDialogs": [
        683430007
      ],
      "talkRole": {
        "type": "TALK_ROLE_GADGET",
        "_id": "70330324"
      },
      "talkContentTextMapHash": 459881258,
      "talkRoleNameTextMapHash": 3505068923,
      "talkAssetPath": "",
      "talkAssetPathAlter": "",
      "talkAudioName": "",
      "actionBefore": "",
      "actionWhile": "",
      "actionAfter": "",
      "optionIcon": "",
      "iconPath": ""
    },
    {
      "id": 683430007,
      "talkRole": {
        "type": "TALK_ROLE_GADGET",
        "_id": "70330324"
      },
      "talkContentTextMapHash": 676974642,
      "talkRoleNameTextMapHash": 3117914131,
      "talkAssetPath": "",
      "talkAssetPathAlter": "",
      "talkAudioName": "",
      "actionBefore": "",
      "actionWhile": "",
      "actionAfter": "SimpleTalk/LerpOutNpcNoSteer_End",
      "optionIcon": "",
      "iconPath": ""
    }
  ]
}