{
  "talkId": 6834610,
  "KPGKDHAFHFE": "GADGET",
  "dialogList": [
    {
      "id": 683461001,
      "nextDialogs": [
        683461002
      ],
      "talkRole": {
        "type": "TALK_ROLE_GADGET",
        "_id": "70330324"
      },
      "talkContentTextMapHash": 4163341690,
      "talkRoleNameTextMapHash": 1608737547,
      "talkAssetPath": "",
      "talkAssetPathAlter": "",
      "talkAudioName": "",
      "actionBefore": "SimpleTalk/LerpInNpcNoSteer_Start",
      "actionWhile": "",
      "actionAfter": "",
      "optionIcon": "",
      "iconPath": ""
    },
    {
      "id": 683461002,
      "nextDialogs": [
        683461003
      ],
      "talkRole": {
        "type": "TALK_ROLE_GADGET",
        "_id": "70330324"
      },
      "talkContentTextMapHash": 3224738290,
      "talkRoleNameTextMapHash": 622357459,
      "talkAssetPath": "",
      "talkAssetPathAlter": "",
      "talkAudioName": "",
      "actionBefore": "",
      "actionWhile": "",
      "actionAfter": "",
      "optionIcon": "",
      "iconPath": ""
    },
    {
      "id": 683461003,
      "nextDialogs": [
        683461004
      ],
      "talkRole": {
        "type": "TALK_ROLE_GADGET",
        "_id": "70330324"
      },
      "talkContentTextMapHash": 1051532906,
      "talkRoleNameTextMapHash": 2401828091,
      "talkAssetPath": "",
      "talkAssetPathAlter": "",
      "talkAudioName": "",
      "actionBefore": "",
      "actionWhile": "",
      "actionAfter": "",
      "optionIcon": "",
      "iconPath": ""
    },
    {
      "id": 683461004,
      "nextDialogs": [
        683461005
      ],
      "talkRole": {
        "type": "TALK_ROLE_GADGET",
        "_id": "70330324"
      },
      "talkContentTextMapHash": 123218146,
      "talkRoleNameTextMapHash": 2212265531,
      "talkAssetPath": "",
      "talkAssetPathAlter": "",
      "talkAudioName": "",
      "actionBefore": "",
      "actionWhile": "",
      "actionAfter": "",
      "optionIcon": "",
      "iconPath": ""
    },
    {
      "id": 683461005,
      "talkRole": {
        "type": "TALK_ROLE_GADGET",
        "_id": "70330324"
      },
      "talkContentTextMapHash": 2034101522,
      "talkRoleNameTextMapHash": 2169340355,
      "talkAssetPath": "",
      "talkAssetPathAlter": "",
      "talkAudioName": "",
      "actionBefore": "",
      "actionWhile": "",
      "actionAfter": "SimpleTalk/LerpOutNpcNoSteer_End",
      "optionIcon": "",
      "iconPath": ""
    }
  ]
}