{
  "talkId": 6840903,
  "KPGKDHAFHFE": "GADGET",
  "dialogList": [
    {
      "id": 684090301,
      "nextDialogs": [
        684090302
      ],
      "talkRole": {
        "type": "TALK_ROLE_GADGET",
        "_id": "707111181"
      },
      "talkContentTextMapHash": 764084802,
      "talkRoleNameTextMapHash": 2815827435,
      "talkAssetPath": "",
      "talkAssetPathAlter": "",
      "talkAudioName": "",
      "actionBefore": "",
      "actionWhile": "",
      "actionAfter": "",
      "optionIcon": "",
      "iconPath": ""
    },
    {
      "id": 684090302,
      "talkRole": {
        "type": "TALK_ROLE_GADGET",
        "_id": "707111181"
      },
      "talkContentTextMapHash": 3282811186,
      "talkRoleNameTextMapHash": 2965703539,
      "talkAssetPath": "",
      "talkAssetPathAlter": "",
      "talkAudioName": "",
      "actionBefore": "",
      "actionWhile": "",
      "actionAfter": "",
      "optionIcon": "",
      "iconPath": ""
    }
  ]
}