{
  "talkId": 6840606,
  "KPGKDHAFHFE": "GADGET",
  "dialogList": [
    {
      "id": 684060601,
      "nextDialogs": [
        684060602
      ],
      "talkRole": {
        "type": "TALK_ROLE_GADGET",
        "_id": "707111181"
      },
      "talkContentTextMapHash": 3675135834,
      "talkRoleNameTextMapHash": 3345811611,
      "talkAssetPath": "",
      "talkAssetPathAlter": "",
      "talkAudioName": "",
      "actionBefore": "",
      "actionWhile": "",
      "actionAfter": "",
      "optionIcon": "",
      "iconPath": ""
    },
    {
      "id": 684060602,
      "talkRole": {
        "type": "TALK_ROLE_GADGET",
        "_id": "707111181"
      },
      "talkContentTextMapHash": 1574008602,
      "talkRoleNameTextMapHash": 103370187,
      "talkAssetPath": "",
      "talkAssetPathAlter": "",
      "talkAudioName": "",
      "actionBefore": "",
      "actionWhile": "",
      "actionAfter": "",
      "optionIcon": "",
      "iconPath": ""
    }
  ]
}