{
  "talkId": 6840805,
  "KPGKDHAFHFE": "GADGET",
  "dialogList": [
    {
      "id": 684080501,
      "nextDialogs": [
        684080502
      ],
      "talkRole": {
        "type": "TALK_ROLE_GADGET",
        "_id": "707111132"
      },
      "talkContentTextMapHash": 41655626,
      "talkRoleNameTextMapHash": 1645364803,
      "talkAssetPath": "",
      "talkAssetPathAlter": "",
      "talkAudioName": "",
      "actionBefore": "",
      "actionWhile": "",
      "actionAfter": "",
      "optionIcon": "",
      "iconPath": ""
    },
    {
      "id": 684080502,
      "talkRole": {
        "type": "TALK_ROLE_GADGET",
        "_id": "707111132"
      },
      "talkContentTextMapHash": 1953653362,
      "talkRoleNameTextMapHash": 3247982379,
      "talkAssetPath": "",
      "talkAssetPathAlter": "",
      "talkAudioName": "",
      "actionBefore": "",
      "actionWhile": "",
      "actionAfter": "",
      "optionIcon": "",
      "iconPath": ""
    }
  ]
}