{
  "talkId": 6840518,
  "KPGKDHAFHFE": "GADGET",
  "dialogList": [
    {
      "id": 684051801,
      "nextDialogs": [
        684051802
      ],
      "talkRole": {
        "type": "TALK_ROLE_GADGET",
        "_id": "707111182"
      },
      "talkContentTextMapHash": 3862051602,
      "talkRoleNameTextMapHash": 585101019,
      "talkAssetPath": "",
      "talkAssetPathAlter": "",
      "talkAudioName": "",
      "actionBefore": "",
      "actionWhile": "",
      "actionAfter": "",
      "optionIcon": "",
      "iconPath": ""
    },
    {
      "id": 684051802,
      "nextDialogs": [
        684051803
      ],
      "talkRole": {
        "type": "TALK_ROLE_GADGET",
        "_id": "707111182"
      },
      "talkContentTextMapHash": 3703204634,
      "talkRoleNameTextMapHash": 23424123,
      "talkAssetPath": "",
      "talkAssetPathAlter": "",
      "talkAudioName": "",
      "actionBefore": "",
      "actionWhile": "",
      "actionAfter": "",
      "optionIcon": "",
      "iconPath": ""
    },
    {
      "id": 684051803,
      "talkRole": {
        "type": "TALK_ROLE_GADGET",
        "_id": "707111182"
      },
      "talkContentTextMapHash": 1220803106,
      "talkRoleNameTextMapHash": 641881147,
      "talkAssetPath": "",
      "talkAssetPathAlter": "",
      "talkAudioName": "",
      "actionBefore": "",
      "actionWhile": "",
      "actionAfter": "",
      "optionIcon": "",
      "iconPath": ""
    }
  ]
}