{
  "talkId": 6840010,
  "KPGKDHAFHFE": "GADGET",
  "dialogList": [
    {
      "id": 684001001,
      "nextDialogs": [
        684001002
      ],
      "talkRole": {
        "type": "TALK_ROLE_GADGET",
        "_id": "707111132"
      },
      "talkContentTextMapHash": 1679851194,
      "talkRoleNameTextMapHash": 2121202755,
      "talkAssetPath": "",
      "talkAssetPathAlter": "",
      "talkAudioName": "",
      "actionBefore": "",
      "actionWhile": "",
      "actionAfter": "",
      "optionIcon": "",
      "iconPath": ""
    },
    {
      "id": 684001002,
      "nextDialogs": [
        684001003
      ],
      "talkRole": {
        "type": "TALK_ROLE_GADGET",
        "_id": "707111132"
      },
      "talkContentTextMapHash": 3115531130,
      "talkRoleNameTextMapHash": 3139226147,
      "talkAssetPath": "",
      "talkAssetPathAlter": "",
      "talkAudioName": "",
      "actionBefore": "",
      "actionWhile": "",
      "actionAfter": "",
      "optionIcon": "",
      "iconPath": ""
    },
    {
      "id": 684001003,
      "talkRole": {
        "type": "TALK_ROLE_GADGET",
        "_id": "707111132"
      },
      "talkContentTextMapHash": 334954674,
      "talkRoleNameTextMapHash": 1638074211,
      "talkAssetPath": "",
      "talkAssetPathAlter": "",
      "talkAudioName": "",
      "actionBefore": "",
      "actionWhile": "",
      "actionAfter": "",
      "optionIcon": "",
      "iconPath": ""
    }
  ]
}