{
  "talkId": 6840006,
  "KPGKDHAFHFE": "GADGET",
  "dialogList": [
    {
      "id": 684000601,
      "nextDialogs": [
        684000602
      ],
      "talkRole": {
        "type": "TALK_ROLE_GADGET",
        "_id": "707111132"
      },
      "talkContentTextMapHash": 778983402,
      "talkRoleNameTextMapHash": 96775307,
      "talkAssetPath": "",
      "talkAssetPathAlter": "",
      "talkAudioName": "",
      "actionBefore": "",
      "actionWhile": "",
      "actionAfter": "",
      "optionIcon": "",
      "iconPath": ""
    },
    {
      "id": 684000602,
      "nextDialogs": [
        684000603
      ],
      "talkRole": {
        "type": "TALK_ROLE_GADGET",
        "_id": "707111132"
      },
      "talkContentTextMapHash": 3817962434,
      "talkRoleNameTextMapHash": 3969298107,
      "talkAssetPath": "",
      "talkAssetPathAlter": "",
      "talkAudioName": "",
      "actionBefore": "",
      "actionWhile": "",
      "actionAfter": "",
      "optionIcon": "",
      "iconPath": ""
    },
    {
      "id": 684000603,
      "talkRole": {
        "type": "TALK_ROLE_GADGET",
        "_id": "707111132"
      },
      "talkContentTextMapHash": 359031714,
      "talkRoleNameTextMapHash": 1076761611,
      "talkAssetPath": "",
      "talkAssetPathAlter": "",
      "talkAudioName": "",
      "actionBefore": "",
      "actionWhile": "",
      "actionAfter": "",
      "optionIcon": "",
      "iconPath": ""
    }
  ]
}