{
  "talkId": 6840607,
  "KPGKDHAFHFE": "GADGET",
  "dialogList": [
    {
      "id": 684060701,
      "nextDialogs": [
        684060702
      ],
      "talkRole": {
        "type": "TALK_ROLE_GADGET",
        "_id": "707111181"
      },
      "talkContentTextMapHash": 4151701626,
      "talkRoleNameTextMapHash": 3952237843,
      "talkAssetPath": "",
      "talkAssetPathAlter": "",
      "talkAudioName": "",
      "actionBefore": "",
      "actionWhile": "",
      "actionAfter": "",
      "optionIcon": "",
      "iconPath": ""
    },
    {
      "id": 684060702,
      "nextDialogs": [
        684060703
      ],
      "talkRole": {
        "type": "TALK_ROLE_GADGET",
        "_id": "707111181"
      },
      "talkContentTextMapHash": 2889458482,
      "talkRoleNameTextMapHash": 2038364747,
      "talkAssetPath": "",
      "talkAssetPathAlter": "",
      "talkAudioName": "",
      "actionBefore": "",
      "actionWhile": "",
      "actionAfter": "",
      "optionIcon": "",
      "iconPath": ""
    },
    {
      "id": 684060703,
      "nextDialogs": [
        684060704
      ],
      "talkRole": {
        "type": "TALK_ROLE_GADGET",
        "_id": "707111181"
      },
      "talkContentTextMapHash": 2114907610,
      "talkRoleNameTextMapHash": 4249628075,
      "talkAssetPath": "",
      "talkAssetPathAlter": "",
      "talkAudioName": "",
      "actionBefore": "",
      "actionWhile": "",
      "actionAfter": "",
      "optionIcon": "",
      "iconPath": ""
    },
    {
      "id": 684060704,
      "nextDialogs": [
        684060705
      ],
      "talkRole": {
        "type": "TALK_ROLE_GADGET",
        "_id": "707111181"
      },
      "talkContentTextMapHash": 2004690658,
      "talkRoleNameTextMapHash": 813644779,
      "talkAssetPath": "",
      "talkAssetPathAlter": "",
      "talkAudioName": "",
      "actionBefore": "",
      "actionWhile": "",
      "actionAfter": "",
      "optionIcon": "",
      "iconPath": ""
    },
    {
      "id": 684060705,
      "talkRole": {
        "type": "TALK_ROLE_GADGET",
        "_id": "707111181"
      },
      "talkContentTextMapHash": 308238298,
      "talkRoleNameTextMapHash": 888521811,
      "talkAssetPath": "",
      "talkAssetPathAlter": "",
      "talkAudioName": "",
      "actionBefore": "",
      "actionWhile": "",
      "actionAfter": "",
      "optionIcon": "",
      "iconPath": ""
    }
  ]
}