{
  "talkId": 6840510,
  "KPGKDHAFHFE": "GADGET",
  "dialogList": [
    {
      "id": 684051001,
      "nextDialogs": [
        684051002
      ],
      "talkRole": {
        "type": "TALK_ROLE_GADGET",
        "_id": "707111182"
      },
      "talkContentTextMapHash": 2619617130,
      "talkRoleNameTextMapHash": 1807717259,
      "talkAssetPath": "",
      "talkAssetPathAlter": "",
      "talkAudioName": "",
      "actionBefore": "",
      "actionWhile": "",
      "actionAfter": "",
      "optionIcon": "",
      "iconPath": ""
    },
    {
      "id": 684051002,
      "nextDialogs": [
        684051003
      ],
      "talkRole": {
        "type": "TALK_ROLE_GADGET",
        "_id": "707111182"
      },
      "talkContentTextMapHash": 1035708698,
      "talkRoleNameTextMapHash": 2541868451,
      "talkAssetPath": "",
      "talkAssetPathAlter": "",
      "talkAudioName": "",
      "actionBefore": "",
      "actionWhile": "",
      "actionAfter": "",
      "optionIcon": "",
      "iconPath": ""
    },
    {
      "id": 684051003,
      "nextDialogs": [
        684051004
      ],
      "talkRole": {
        "type": "TALK_ROLE_GADGET",
        "_id": "707111182"
      },
      "talkContentTextMapHash": 3197165618,
      "talkRoleNameTextMapHash": 1416926691,
      "talkAssetPath": "",
      "talkAssetPathAlter": "",
      "talkAudioName": "",
      "actionBefore": "",
      "actionWhile": "",
      "actionAfter": "",
      "optionIcon": "",
      "iconPath": ""
    },
    {
      "id": 684051004,
      "talkRole": {
        "type": "TALK_ROLE_GADGET",
        "_id": "707111182"
      },
      "talkContentTextMapHash": 4035861042,
      "talkRoleNameTextMapHash": 627549691,
      "talkAssetPath": "",
      "talkAssetPathAlter": "",
      "talkAudioName": "",
      "actionBefore": "",
      "actionWhile": "",
      "actionAfter": "",
      "optionIcon": "",
      "iconPath": ""
    }
  ]
}