{
  "talkId": 6844610,
  "KPGKDHAFHFE": "GADGET",
  "dialogList": [
    {
      "id": 684461001,
      "talkRole": {
        "type": "TALK_ROLE_GADGET",
        "_id": "71700743"
      },
      "talkContentTextMapHash": 3011622474,
      "talkRoleNameTextMapHash": 2803168259,
      "talkAssetPath": "",
      "talkAssetPathAlter": "",
      "talkAudioName": "",
      "actionBefore": "TEST/LerpInNpcNoSteer",
      "actionWhile": "",
      "actionAfter": "TEST/LerpOutNpcNoSteer",
      "optionIcon": "",
      "iconPath": ""
    }
  ]
}