{
  "talkId": 6846005,
  "KPGKDHAFHFE": "GADGET",
  "dialogList": [
    {
      "id": 684620201,
      "talkShowType": "TALK_SHOW_FORCE_SELECT",
      "talkRole": {
        "_id": ""
      },
      "talkContentTextMapHash": 237907394,
      "talkAssetPath": "",
      "talkAssetPathAlter": "",
      "talkAudioName": "",
      "actionBefore": "",
      "actionWhile": "",
      "actionAfter": "SimpleTalk/LerpOutNpcNoSteer_End",
      "optionIcon": "UI_Icon_Intee_Talk",
      "iconPath": ""
    }
  ]
}