{
  "talkId": 6846101,
  "KPGKDHAFHFE": "GADGET",
  "dialogList": [
    {
      "id": 684610101,
      "talkShowType": "TALK_SHOW_FORCE_SELECT",
      "talkRole": {
        "_id": ""
      },
      "talkContentTextMapHash": 2926763730,
      "talkAssetPath": "",
      "talkAssetPathAlter": "",
      "talkAudioName": "",
      "actionBefore": "",
      "actionWhile": "",
      "actionAfter": "UI/open_gadget_whale_trench",
      "optionIcon": "",
      "iconPath": ""
    }
  ]
}