{
  "talkId": 6849005,
  "KPGKDHAFHFE": "GADGET",
  "dialogList": [
    {
      "id": 684900501,
      "nextDialogs": [
        684900502
      ],
      "talkShowType": "TALK_SHOW_FORCE_SELECT",
      "talkRole": {
        "type": "TALK_ROLE_PLAYER",
        "_id": ""
      },
      "talkContentTextMapHash": 485516738,
      "talkAssetPath": "",
      "talkAssetPathAlter": "",
      "talkAudioName": "",
      "actionBefore": "",
      "actionWhile": "",
      "actionAfter": "",
      "optionIcon": "",
      "iconPath": ""
    },
    {
      "id": 684900502,
      "talkRole": {
        "type": "TALK_ROLE_GADGET",
        "_id": "70330985"
      },
      "talkContentTextMapHash": 1684221642,
      "talkRoleNameTextMapHash": 2889331531,
      "talkAssetPath": "",
      "talkAssetPathAlter": "",
      "talkAudioName": "",
      "actionBefore": "",
      "actionWhile": "",
      "actionAfter": "SimpleTalk/LerpOutNpcNoSteer_End",
      "optionIcon": "",
      "iconPath": ""
    }
  ]
}