{
  "talkId": 6852004,
  "KPGKDHAFHFE": "GADGET",
  "dialogList": [
    {
      "id": 685200401,
      "nextDialogs": [
        685200402
      ],
      "talkShowType": "TALK_SHOW_FORCE_SELECT",
      "talkRole": {
        "type": "TALK_ROLE_PLAYER",
        "_id": ""
      },
      "talkContentTextMapHash": 1964233770,
      "talkAssetPath": "",
      "talkAssetPathAlter": "",
      "talkAudioName": "",
      "actionBefore": "",
      "actionWhile": "",
      "actionAfter": "",
      "optionIcon": "",
      "iconPath": ""
    },
    {
      "id": 685200402,
      "talkRole": {
        "type": "TALK_ROLE_GADGET",
        "_id": "70330975"
      },
      "talkContentTextMapHash": 4283911890,
      "talkRoleNameTextMapHash": 3420297531,
      "talkAssetPath": "",
      "talkAssetPathAlter": "",
      "talkAudioName": "",
      "actionBefore": "",
      "actionWhile": "DialogAction/V4.6GadgetCat/GadgetCat_Weak_Face",
      "actionAfter": "SimpleTalk/LerpOutNpcNoSteer_End",
      "optionIcon": "",
      "OMBMBJIACEP": 1476036548,
      "iconPath": ""
    }
  ]
}