{
  "talkId": 6852007,
  "KPGKDHAFHFE": "GADGET",
  "dialogList": [
    {
      "id": 685200701,
      "talkShowType": "TALK_SHOW_FORCE_SELECT",
      "talkRole": {
        "type": "TALK_ROLE_PLAYER",
        "_id": ""
      },
      "talkContentTextMapHash": 3697711906,
      "talkAssetPath": "",
      "talkAssetPathAlter": "",
      "talkAudioName": "",
      "actionBefore": "",
      "actionWhile": "",
      "actionAfter": "UI/open_RemusEntityTouch_3020_01",
      "optionIcon": "UI_Icon_Intee_PickUp",
      "iconPath": ""
    }
  ]
}