{
  "talkId": 6853004,
  "KPGKDHAFHFE": "GADGET",
  "dialogList": [
    {
      "id": 685300401,
      "nextDialogs": [
        685300402
      ],
      "talkShowType": "TALK_SHOW_FORCE_SELECT",
      "talkRole": {
        "type": "TALK_ROLE_PLAYER",
        "_id": ""
      },
      "talkContentTextMapHash": 1652678026,
      "talkAssetPath": "",
      "talkAssetPathAlter": "",
      "talkAudioName": "",
      "actionBefore": "",
      "actionWhile": "",
      "actionAfter": "",
      "optionIcon": "",
      "iconPath": ""
    },
    {
      "id": 685300402,
      "talkRole": {
        "type": "TALK_ROLE_GADGET",
        "_id": "70330975"
      },
      "talkContentTextMapHash": 2595769578,
      "talkRoleNameTextMapHash": 4174021123,
      "talkAssetPath": "",
      "talkAssetPathAlter": "",
      "talkAudioName": "",
      "actionBefore": "",
      "actionWhile": "DialogAction/V4.6GadgetCat/GadgetCat_Weak_Face",
      "actionAfter": "SimpleTalk/LerpOutNpcNoSteer_End",
      "optionIcon": "",
      "OMBMBJIACEP": 778087956,
      "iconPath": ""
    }
  ]
}