{
  "talkId": 6890408,
  "KPGKDHAFHFE": "GADGET",
  "dialogList": [
    {
      "id": 689010801,
      "talkShowType": "TALK_SHOW_FORCE_SELECT",
      "talkRole": {
        "type": "TALK_ROLE_PLAYER",
        "_id": ""
      },
      "talkContentTextMapHash": 1244538658,
      "talkAssetPath": "",
      "talkAssetPathAlter": "",
      "talkAudioName": "",
      "actionBefore": "UI/open_homeworld_switch_page",
      "actionWhile": "",
      "actionAfter": "",
      "optionIcon": "UI_Icon_Intee_HomeSwitch",
      "iconPath": ""
    }
  ]
}