{
  "talkId": 6890405,
  "KPGKDHAFHFE": "GADGET",
  "dialogList": [
    {
      "id": 689010501,
      "nextDialogs": [
        689010502
      ],
      "talkShowType": "TALK_SHOW_FORCE_SELECT",
      "talkRole": {
        "type": "TALK_ROLE_PLAYER",
        "_id": ""
      },
      "talkContentTextMapHash": 2216455546,
      "talkAssetPath": "",
      "talkAssetPathAlter": "",
      "talkAudioName": "",
      "actionBefore": "UI/open_homeworld_shop_page",
      "actionWhile": "",
      "actionAfter": "",
      "optionIcon": "UI_Icon_Intee_Shop",
      "iconPath": ""
    }
  ]
}