{
  "talkId": 6890116,
  "KPGKDHAFHFE": "GADGET",
  "dialogList": [
    {
      "id": 689010401,
      "nextDialogs": [
        689010402
      ],
      "talkShowType": "TALK_SHOW_FORCE_SELECT",
      "talkRole": {
        "type": "TALK_ROLE_PLAYER",
        "_id": ""
      },
      "talkContentTextMapHash": 4054774274,
      "talkAssetPath": "",
      "talkAssetPathAlter": "",
      "talkAudioName": "",
      "actionBefore": "UI/open_homeworld_build_page",
      "actionWhile": "",
      "actionAfter": "",
      "optionIcon": "UI_Icon_Intee_FurnitureBuild",
      "iconPath": ""
    }
  ]
}