{
  "talkId": 6890409,
  "KPGKDHAFHFE": "GADGET",
  "dialogList": [
    {
      "id": 689010901,
      "talkShowType": "TALK_SHOW_FORCE_SELECT",
      "talkRole": {
        "type": "TALK_ROLE_PLAYER",
        "_id": ""
      },
      "talkContentTextMapHash": 946166658,
      "talkAssetPath": "",
      "talkAssetPathAlter": "",
      "talkAudioName": "",
      "actionBefore": "UI/open_homeworld_level_page",
      "actionWhile": "",
      "actionAfter": "",
      "optionIcon": "UI_Icon_Intee_Comfort",
      "iconPath": ""
    }
  ]
}