{
  "talkId": 6890211,
  "KPGKDHAFHFE": "GADGET",
  "dialogList": [
    {
      "id": 689011101,
      "talkRole": {
        "type": "TALK_ROLE_GADGET",
        "_id": "1001"
      },
      "talkContentTextMapHash": 931813474,
      "talkRoleNameTextMapHash": 693811963,
      "talkAssetPath": "",
      "talkAssetPathAlter": "",
      "talkAudioName": "",
      "actionBefore": "HomeWorld/huling_start",
      "actionWhile": "",
      "actionAfter": "",
      "optionIcon": "",
      "iconPath": ""
    }
  ]
}