{
  "talkId": 6890414,
  "KPGKDHAFHFE": "GADGET",
  "dialogList": [
    {
      "id": 689041401,
      "talkRole": {
        "type": "TALK_ROLE_GADGET",
        "_id": "1004"
      },
      "talkContentTextMapHash": 312184010,
      "talkRoleNameTextMapHash": 3550406387,
      "talkAssetPath": "",
      "talkAssetPathAlter": "",
      "talkAudioName": "",
      "actionBefore": "HomeWorld/huling_bansleep",
      "actionWhile": "",
      "actionAfter": "",
      "showDuration": 0.10000000149011612,
      "optionIcon": "",
      "iconPath": ""
    }
  ]
}