{
  "talkId": 7306403,
  "KPGKDHAFHFE": "GADGET",
  "dialogList": [
    {
      "id": 730640301,
      "nextDialogs": [
        730640302
      ],
      "talkRole": {
        "type": "TALK_ROLE_GADGET",
        "_id": "70950101"
      },
      "talkContentTextMapHash": 2277355882,
      "talkRoleNameTextMapHash": 3474058987,
      "talkAssetPath": "",
      "talkAssetPathAlter": "",
      "talkAudioName": "",
      "actionBefore": "SimpleTalk/LerpInNpcNoSteer_Start",
      "actionWhile": "",
      "actionAfter": "",
      "optionIcon": "",
      "iconPath": ""
    },
    {
      "id": 730640302,
      "nextDialogs": [
        730640303
      ],
      "talkRole": {
        "type": "TALK_ROLE_GADGET",
        "_id": "70950101"
      },
      "talkContentTextMapHash": 3113325938,
      "talkRoleNameTextMapHash": 3977751227,
      "talkAssetPath": "",
      "talkAssetPathAlter": "",
      "talkAudioName": "",
      "actionBefore": "",
      "actionWhile": "",
      "actionAfter": "",
      "optionIcon": "",
      "iconPath": ""
    },
    {
      "id": 730640303,
      "nextDialogs": [
        730640304
      ],
      "talkRole": {
        "type": "TALK_ROLE_GADGET",
        "_id": "70950101"
      },
      "talkContentTextMapHash": 2525307338,
      "talkRoleNameTextMapHash": 3870359603,
      "talkAssetPath": "",
      "talkAssetPathAlter": "",
      "talkAudioName": "",
      "actionBefore": "",
      "actionWhile": "",
      "actionAfter": "",
      "optionIcon": "",
      "iconPath": ""
    },
    {
      "id": 730640304,
      "nextDialogs": [
        730640305
      ],
      "talkRole": {
        "type": "TALK_ROLE_GADGET",
        "_id": "70950101"
      },
      "talkContentTextMapHash": 234454410,
      "talkRoleNameTextMapHash": 2787766691,
      "talkAssetPath": "",
      "talkAssetPathAlter": "",
      "talkAudioName": "",
      "actionBefore": "",
      "actionWhile": "",
      "actionAfter": "",
      "optionIcon": "",
      "iconPath": ""
    },
    {
      "id": 730640305,
      "talkRole": {
        "type": "TALK_ROLE_GADGET",
        "_id": "70950101"
      },
      "talkContentTextMapHash": 1194809698,
      "talkRoleNameTextMapHash": 2259397523,
      "talkAssetPath": "",
      "talkAssetPathAlter": "",
      "talkAudioName": "",
      "actionBefore": "",
      "actionWhile": "",
      "actionAfter": "SimpleTalk/LerpOutNpcNoSteer_End",
      "optionIcon": "",
      "iconPath": ""
    }
  ]
}