{
  "luaDataPath": "",
  "isSimpleTalk": true,
  "dontUseDefaultFinish": true,
  "entityBan": "",
  "disableNpcLod": true,
  "startFade": {
    "startFadeOutDuration": 0.0
  },
  "endFade": {
    "startFadeOutDuration": 0.0
  },
  "actors": [
    {
      "alias": "Avatar",
      "visible": true,
      "bornPointName": "",
      "relativePosNpcAlias": "",
      "_bindMovingTargetKey": ""
    },
    {
      "configID": 20520,
      "alias": "20520",
      "visible": true,
      "bornPointName": "",
      "forceCreateDaily": true,
      "relativePosNpcAlias": "",
      "_bindMovingTargetKey": ""
    },
    {
      "configID": 1005,
      "alias": "1005",
      "visible": true,
      "bornPointName": "",
      "useRelativePos": true,
      "relativePos": {
        "x": -0.5,
        "z": 0.5
      },
      "relativePosNpcAlias": "",
      "_bindMovingTargetKey": ""
    }
  ],
  "group": [
    [
      {
        "$type": "MoleMole.Config.ConfigTimeProtectAction",
        "type": "TIME_PROTECT",
        "duration": 0.10000000149011612
      },
      {
        "$type": "EFHODGEJOHJ",
        "type": "CAMERA_FOCUS",
        "duration": 0.10000000149011612,
        "targetNpcAlias": "",
        "PHGBNNGCJKJ": "",
        "NFILMKCFHEB": "",
        "BGPNGHDAECF": ""
      },
      {
        "$type": "IEKHMHNHENB",
        "type": "STEER_TO",
        "delayTime": 0.30000001192092896,
        "duration": 0.800000011920929,
        "aliasList": [
          "20520"
        ],
        "steerType": "TO_LOCAL_AVATAR_ADVANCED",
        "useSteerAnim": true,
        "interruptFreestyle": true,
        "forceSteer": true,
        "targetNpcAlias": "",
        "BHGPHGNFCBF": ""
      }
    ],
    [
      {
        "$type": "MJFAIFFAGOF",
        "type": "DIALOG",
        "aliasList": [
          "20520"
        ],
        "dialogID": 722632201,
        "protectTime": 0.5
      }
    ],
    [
      {
        "$type": "MJFAIFFAGOF",
        "type": "DIALOG",
        "aliasList": [
          "1005"
        ],
        "dialogID": 722632202,
        "protectTime": 0.5
      },
      {
        "$type": "OBCDECFOOBC",
        "type": "DIALOG_SELECT",
        "delayTime": 0.4000000059604645,
        "aliasList": [
          "Avatar"
        ],
        "dialogIDList": [
          722632203
        ],
        "grpIDList": [
          2617783668
        ],
        "useGrpId": true
      }
    ],
    [
      {
        "$type": "MJFAIFFAGOF",
        "type": "DIALOG",
        "aliasList": [
          "20520"
        ],
        "dialogID": 722632204,
        "protectTime": 0.5
      }
    ],
    [
      {
        "$type": "MJFAIFFAGOF",
        "type": "DIALOG",
        "aliasList": [
          "20520"
        ],
        "dialogID": 722632205,
        "protectTime": 0.5
      }
    ],
    [
      {
        "$type": "MJFAIFFAGOF",
        "type": "DIALOG",
        "aliasList": [
          "20520"
        ],
        "dialogID": 722632206,
        "protectTime": 0.5
      },
      {
        "$type": "OBCDECFOOBC",
        "type": "DIALOG_SELECT",
        "delayTime": 0.4000000059604645,
        "aliasList": [
          "Avatar"
        ],
        "dialogIDList": [
          722632207
        ],
        "grpIDList": [
          2617783671
        ],
        "useGrpId": true
      }
    ],
    [
      {
        "$type": "MJFAIFFAGOF",
        "type": "DIALOG",
        "aliasList": [
          "20520"
        ],
        "dialogID": 722632208,
        "protectTime": 0.5
      }
    ],
    [
      {
        "$type": "MJFAIFFAGOF",
        "type": "DIALOG",
        "aliasList": [
          "1005"
        ],
        "dialogID": 722632209,
        "protectTime": 0.5
      }
    ],
    [
      {
        "$type": "MJFAIFFAGOF",
        "type": "DIALOG",
        "aliasList": [
          "20520"
        ],
        "dialogID": 722632210,
        "protectTime": 0.5
      }
    ],
    [
      {
        "$type": "MJFAIFFAGOF",
        "type": "DIALOG",
        "aliasList": [
          "20520"
        ],
        "dialogID": 722632211,
        "protectTime": 0.5
      }
    ],
    [
      {
        "$type": "MJFAIFFAGOF",
        "type": "DIALOG",
        "aliasList": [
          "20520"
        ],
        "dialogID": 722632212,
        "protectTime": 0.5
      }
    ],
    [
      {
        "$type": "MJFAIFFAGOF",
        "type": "DIALOG",
        "aliasList": [
          "20520"
        ],
        "dialogID": 722632213,
        "protectTime": 0.5
      }
    ],
    [
      {
        "$type": "MJFAIFFAGOF",
        "type": "DIALOG",
        "aliasList": [
          "20520"
        ],
        "dialogID": 722632214,
        "protectTime": 0.5
      }
    ],
    [
      {
        "$type": "MoleMole.Config.ConfigTimeProtectAction",
        "type": "TIME_PROTECT",
        "duration": 0.10000000149011612
      }
    ]
  ],
  "groupId": [
    {
      "grpId": 2617783665,
      "nextGrpId": 2617783666
    },
    {
      "index": 1,
      "grpId": 2617783666,
      "nextGrpId": 2617783667
    },
    {
      "index": 2,
      "grpId": 2617783667,
      "nextGrpId": 2617783668
    },
    {
      "index": 3,
      "grpId": 2617783668,
      "nextGrpId": 2617783669
    },
    {
      "index": 4,
      "grpId": 2617783669,
      "nextGrpId": 2617783670
    },
    {
      "index": 5,
      "grpId": 2617783670,
      "nextGrpId": 2617783671
    },
    {
      "index": 6,
      "grpId": 2617783671,
      "nextGrpId": 2617783672
    },
    {
      "index": 7,
      "grpId": 2617783672,
      "nextGrpId": 2617783673
    },
    {
      "index": 8,
      "grpId": 2617783673,
      "nextGrpId": 3841882335
    },
    {
      "index": 9,
      "grpId": 3841882335,
      "nextGrpId": 3841882336
    },
    {
      "index": 10,
      "grpId": 3841882336,
      "nextGrpId": 3841882337
    },
    {
      "index": 11,
      "grpId": 3841882337,
      "nextGrpId": 3841882338
    },
    {
      "index": 12,
      "grpId": 3841882338,
      "nextGrpId": 3841882339
    },
    {
      "index": 13,
      "grpId": 3841882339,
      "nextGrpId": 3841882340
    }
  ],
  "freeStyleDic": {
    "20520": []
  }
}