{
  "luaDataPath": "",
  "startBlackKeepTime": 0.5,
  "entityBan": "",
  "disableNpcLod": true,
  "isAutoBanNpc": true,
  "isBanWidgetPet": true,
  "protectNpcMobileLod": true,
  "startFade": {
    "startFadeInDuration": 0.5,
    "startFadeOutDuration": 0.5
  },
  "endFade": {
    "startFadeOutDuration": 0.0
  },
  "actors": [
    {
      "alias": "Avatar",
      "visible": true,
      "bornPointName": "N10000005_T7321209",
      "relativePosType": "AVATAR_NEW",
      "relativePosNpcAlias": "",
      "_bindMovingTargetKey": ""
    },
    {
      "configID": 1005,
      "alias": "1005",
      "visible": true,
      "bornPointName": "N1005_T7321209",
      "removeActorType": "REMOVE_WITH_DISAPPEAR",
      "relativePosType": "AVATAR_NEW",
      "relativePosNpcAlias": "",
      "_bindMovingTargetKey": ""
    }
  ],
  "group": [
    [
      {
        "$type": "MoleMole.Config.ConfigTimeProtectAction",
        "type": "TIME_PROTECT",
        "duration": 0.5,
        "actionId": 104
      },
      {
        "$type": "MoleMole.Config.ConfigBlackScreenAction",
        "type": "BLACK_SCREEN",
        "duration": 0.5,
        "actionId": 137,
        "blackScreenType": "KEEP_BLACK",
        "inteePos": "",
        "textMapID": "",
        "useTextFade": true
      },
      {
        "$type": "EFHODGEJOHJ",
        "type": "CAMERA_MOVE",
        "delayTime": 0.11699999868869781,
        "duration": 0.0,
        "actionId": 212,
        "camPosOffset": {
          "x": -1151.0059814453125,
          "y": 109.14399719238281,
          "z": 4817.93798828125
        },
        "camForwardTargetOffset": {
          "x": -1151.3299560546875,
          "y": 108.9489974975586,
          "z": 4817.01220703125
        },
        "lerpPattern": 6,
        "cameraBlendType": "EaseInOutCubic",
        "MDKBPBJCMHH": {},
        "needZAxisRotate": true,
        "rotateAngle": -0.0020000000949949026,
        "openCameraDither": false,
        "targetNpcAlias": "",
        "closeTreeLeafDither": true,
        "PHGBNNGCJKJ": "",
        "NFILMKCFHEB": "",
        "BGPNGHDAECF": ""
      }
    ],
    [
      {
        "$type": "MoleMole.Config.ConfigBlackScreenAction",
        "type": "BLACK_SCREEN",
        "duration": 0.5,
        "actionId": 138,
        "blackScreenType": "FROM_BLACK",
        "durationKeepBlack": 0.5,
        "durationFromBlack": 0.5,
        "inteePos": "",
        "textMapID": "",
        "useTextFade": true
      },
      {
        "$type": "NPCNMEOCADD",
        "type": "LOOK_AT",
        "aliasList": [
          "Avatar"
        ],
        "actionId": 219,
        "enableHead": true,
        "headRotateVec": {
          "x": 40.0
        },
        "enableBody": true,
        "bodyAngle": 30.0,
        "headTurnTime": 0.5,
        "targetNpcAlias": "",
        "lookAtTargetType": "NONE",
        "openBackProtect": true,
        "targetNpcLookAtPoint": "",
        "BHGPHGNFCBF": ""
      },
      {
        "$type": "MJFAIFFAGOF",
        "type": "DIALOG",
        "aliasList": [
          "1005"
        ],
        "actionId": 107,
        "dialogID": 732120901,
        "protectTime": 3.5
      },
      {
        "$type": "NPCNMEOCADD",
        "type": "LOOK_AT",
        "aliasList": [
          "1005"
        ],
        "actionId": 159,
        "enableHead": true,
        "headRotateVec": {
          "x": -50.0
        },
        "enableBody": true,
        "bodyAngle": -15.0,
        "headTurnTime": 0.5,
        "targetNpcAlias": "",
        "lookAtTargetType": "NONE",
        "targetNpcRotateVecPlus": {
          "x": 10.0
        },
        "openBackProtect": true,
        "targetNpcLookAtPoint": "",
        "BHGPHGNFCBF": ""
      },
      {
        "$type": "EFHODGEJOHJ",
        "type": "CAMERA_MOVE",
        "delayTime": 0.017000000923871994,
        "duration": 0.0,
        "actionId": 150,
        "camPosOffset": {
          "x": -1151.0059814453125,
          "y": 109.14399719238281,
          "z": 4817.93798828125
        },
        "camForwardTargetOffset": {
          "x": -1151.3299560546875,
          "y": 108.9489974975586,
          "z": 4817.01220703125
        },
        "lerpPattern": 6,
        "cameraBlendType": "EaseInOutCubic",
        "MDKBPBJCMHH": {},
        "needZAxisRotate": true,
        "rotateAngle": -0.0020000000949949026,
        "openCameraDither": false,
        "targetNpcAlias": "",
        "closeTreeLeafDither": true,
        "PHGBNNGCJKJ": "",
        "NFILMKCFHEB": "",
        "BGPNGHDAECF": ""
      },
      {
        "$type": "ICHLNKHGCAG",
        "type": "EMO_SYNC",
        "delayTime": 0.28299999237060547,
        "aliasList": [
          "1005"
        ],
        "actionId": 202,
        "dataPath": "Cs_Emo_Avatar_Simple_Common_Set/Cs_Emo_Emotions/Cs_Emo_Pet_Common/Cs_Emo_Paimon_Happy01",
        "phonemePath": "",
        "emotionPath": "",
        "mateDataPath": "Cs_Emo_Avatar_Simple_Common_Set/Cs_Emo_Emotions/Cs_Emo_Pet_Common/Cs_Emo_Paimon_Happy01",
        "matePhonemePath": "",
        "mateEmotionPath": "",
        "enableBlink": false,
        "dataPathHashList": [
          11795538569676462054,
          5514455715760618983,
          6871647363300542652,
          8381196293596717205
        ],
        "mateDataPathHashList": [
          11795538569676462054,
          5514455715760618983,
          6871647363300542652,
          8381196293596717205
        ],
        "PACNIGOOENN": "",
        "PIBDNPHIAGC": ""
      },
      {
        "$type": "EFHODGEJOHJ",
        "type": "CAMERA_MOVE",
        "delayTime": 0.40799999237060547,
        "duration": 4.0,
        "actionId": 206,
        "camPosOffset": {
          "x": -1151.0059814453125,
          "y": 109.14399719238281,
          "z": 4817.93798828125
        },
        "camForwardTargetOffset": {
          "x": -1151.2659912109375,
          "y": 108.9489974975586,
          "z": 4816.9921875
        },
        "camFov": 44.0,
        "lerpPattern": 2,
        "cameraBlendType": "Linear",
        "MDKBPBJCMHH": {},
        "needZAxisRotate": true,
        "rotateAngle": -0.0020000000949949026,
        "openCameraDither": false,
        "targetNpcAlias": "",
        "closeTreeLeafDither": true,
        "PHGBNNGCJKJ": "",
        "NFILMKCFHEB": "",
        "BGPNGHDAECF": ""
      },
      {
        "$type": "EDCHPJLDKIN",
        "type": "BODY_LANG",
        "delayTime": 0.5080000162124634,
        "aliasList": [
          "1005"
        ],
        "actionId": 157,
        "bodyLangParam": 1130,
        "forceDoFreeStyle": true,
        "canDoRepeatFreeStyle": false,
        "cantBackToIdleWhenSitLoop": true,
        "eventPatternSuiteKey": ""
      },
      {
        "$type": "EDCHPJLDKIN",
        "type": "BODY_LANG",
        "delayTime": 1.125,
        "aliasList": [
          "Avatar"
        ],
        "actionId": 220,
        "bodyLangParam": 1230,
        "forceDoFreeStyle": true,
        "canDoRepeatFreeStyle": false,
        "cantBackToIdleWhenSitLoop": true,
        "eventPatternSuiteKey": ""
      },
      {
        "$type": "NPCNMEOCADD",
        "type": "LOOK_AT",
        "delayTime": 1.6579999923706055,
        "aliasList": [
          "1005"
        ],
        "actionId": 160,
        "enableHead": true,
        "headTurnTime": 0.5,
        "targetNpcAlias": "Avatar",
        "openBackProtect": true,
        "targetNpcLookAtPoint": "",
        "BHGPHGNFCBF": ""
      },
      {
        "$type": "EDCHPJLDKIN",
        "type": "BODY_LANG",
        "delayTime": 1.7920000553131104,
        "aliasList": [
          "1005"
        ],
        "actionId": 161,
        "bodyLangParam": 1250,
        "forceDoFreeStyle": true,
        "canDoRepeatFreeStyle": false,
        "cantBackToIdleWhenSitLoop": true,
        "eventPatternSuiteKey": ""
      },
      {
        "$type": "NPCNMEOCADD",
        "type": "LOOK_AT",
        "delayTime": 2.257999897003174,
        "aliasList": [
          "Avatar"
        ],
        "actionId": 221,
        "enableHead": true,
        "headTurnTime": 0.5,
        "targetNpcAlias": "",
        "openBackProtect": true,
        "targetNpcLookAtPoint": "",
        "BHGPHGNFCBF": ""
      },
      {
        "$type": "OBCDECFOOBC",
        "type": "DIALOG_SELECT",
        "delayTime": 2.575000047683716,
        "aliasList": [
          "Avatar"
        ],
        "actionId": 218,
        "dialogIDList": [
          732120902
        ],
        "grpIDList": [
          3531289360
        ],
        "useGrpId": true,
        "countDownGrpId": 3531289357
      },
      {
        "$type": "ICHLNKHGCAG",
        "type": "EMO_SYNC",
        "delayTime": 4.375,
        "aliasList": [
          "1005"
        ],
        "actionId": 203,
        "dataPath": "",
        "phonemePath": "",
        "emotionPath": "",
        "mateDataPath": "",
        "matePhonemePath": "",
        "mateEmotionPath": "",
        "PACNIGOOENN": "",
        "PIBDNPHIAGC": ""
      },
      {
        "$type": "EDCHPJLDKIN",
        "type": "BODY_LANG",
        "delayTime": 5.119999885559082,
        "aliasList": [
          "1005"
        ],
        "actionId": 162,
        "isContinue": true,
        "forceDoFreeStyle": true,
        "canDoRepeatFreeStyle": false,
        "cantBackToIdleWhenSitLoop": true,
        "eventPatternSuiteKey": ""
      }
    ],
    [
      {
        "$type": "EFHODGEJOHJ",
        "type": "CAMERA_MOVE",
        "duration": 0.5,
        "actionId": 215,
        "camPosOffset": {
          "x": -1151.2530517578125,
          "y": 109.12100219726562,
          "z": 4816.7841796875
        },
        "camForwardTargetOffset": {
          "x": -1150.927978515625,
          "y": 108.98500061035156,
          "z": 4815.84814453125
        },
        "camFov": 47.0,
        "lerpPattern": 6,
        "cameraBlendType": "EaseInOutCubic",
        "MDKBPBJCMHH": {},
        "needZAxisRotate": true,
        "rotateAngle": -0.0020000000949949026,
        "openCameraDither": false,
        "targetNpcAlias": "",
        "closeTreeLeafDither": true,
        "PHGBNNGCJKJ": "",
        "NFILMKCFHEB": "",
        "BGPNGHDAECF": ""
      },
      {
        "$type": "MJFAIFFAGOF",
        "type": "DIALOG",
        "aliasList": [
          "1005"
        ],
        "actionId": 110,
        "dialogID": 732120903,
        "protectTime": 1.7419999837875366
      },
      {
        "$type": "ICHLNKHGCAG",
        "type": "EMO_SYNC",
        "delayTime": 0.054999999701976776,
        "aliasList": [
          "1005"
        ],
        "actionId": 204,
        "dataPath": "Cs_Emo_Avatar_Simple_Common_Set/Cs_Emo_Emotions/Cs_Emo_Pet_Common/Cs_Emo_Paimon_Angry01",
        "phonemePath": "",
        "emotionPath": "",
        "mateDataPath": "Cs_Emo_Avatar_Simple_Common_Set/Cs_Emo_Emotions/Cs_Emo_Pet_Common/Cs_Emo_Paimon_Angry01",
        "matePhonemePath": "",
        "mateEmotionPath": "",
        "dataPathHashList": [
          2289104602833775057,
          9212328771478276374,
          17241220668487233641,
          237688263355969894
        ],
        "mateDataPathHashList": [
          2289104602833775057,
          9212328771478276374,
          17241220668487233641,
          237688263355969894
        ],
        "PACNIGOOENN": "",
        "PIBDNPHIAGC": ""
      },
      {
        "$type": "EDCHPJLDKIN",
        "type": "BODY_LANG",
        "delayTime": 0.3449999988079071,
        "aliasList": [
          "1005"
        ],
        "actionId": 163,
        "bodyLangParam": 1230,
        "forceDoFreeStyle": true,
        "canDoRepeatFreeStyle": false,
        "cantBackToIdleWhenSitLoop": true,
        "eventPatternSuiteKey": ""
      },
      {
        "$type": "EDCHPJLDKIN",
        "type": "BODY_LANG",
        "delayTime": 0.8109999895095825,
        "aliasList": [
          "Avatar"
        ],
        "actionId": 223,
        "isContinue": true,
        "forceDoFreeStyle": true,
        "canDoRepeatFreeStyle": false,
        "cantBackToIdleWhenSitLoop": true,
        "eventPatternSuiteKey": ""
      },
      {
        "$type": "OBCDECFOOBC",
        "type": "DIALOG_SELECT",
        "delayTime": 1.6330000162124634,
        "aliasList": [
          "Avatar"
        ],
        "actionId": 222,
        "dialogIDList": [
          732120904
        ],
        "grpIDList": [
          3531289361
        ],
        "useGrpId": true,
        "countDownGrpId": 3531289357
      },
      {
        "$type": "ICHLNKHGCAG",
        "type": "EMO_SYNC",
        "delayTime": 1.847000002861023,
        "aliasList": [
          "1005"
        ],
        "actionId": 205,
        "dataPath": "",
        "phonemePath": "",
        "emotionPath": "",
        "mateDataPath": "",
        "matePhonemePath": "",
        "mateEmotionPath": "",
        "PACNIGOOENN": "",
        "PIBDNPHIAGC": ""
      }
    ],
    [
      {
        "$type": "MJFAIFFAGOF",
        "type": "DIALOG",
        "aliasList": [
          "1005"
        ],
        "actionId": 113,
        "dialogID": 732120905,
        "protectTime": 1.0
      },
      {
        "$type": "EFHODGEJOHJ",
        "type": "CAMERA_MOVE",
        "delayTime": 0.13300000131130219,
        "duration": 1.0,
        "actionId": 152,
        "camPosOffset": {
          "x": -1151.1190185546875,
          "y": 109.07599639892578,
          "z": 4816.35595703125
        },
        "camForwardTargetOffset": {
          "x": -1150.7950439453125,
          "y": 109.01100158691406,
          "z": 4815.412109375
        },
        "camFov": 50.0,
        "lerpPattern": 2,
        "cameraBlendType": "EaseInOutQuad",
        "MDKBPBJCMHH": {},
        "needZAxisRotate": true,
        "rotateAngle": -0.0020000000949949026,
        "openCameraDither": false,
        "targetNpcAlias": "",
        "closeTreeLeafDither": true,
        "PHGBNNGCJKJ": "",
        "NFILMKCFHEB": "",
        "BGPNGHDAECF": ""
      },
      {
        "$type": "EDCHPJLDKIN",
        "type": "BODY_LANG",
        "delayTime": 0.1420000046491623,
        "aliasList": [
          "1005"
        ],
        "actionId": 164,
        "bodyLangParam": 1060,
        "forceDoFreeStyle": true,
        "canDoRepeatFreeStyle": false,
        "cantBackToIdleWhenSitLoop": true,
        "eventPatternSuiteKey": ""
      },
      {
        "$type": "EDCHPJLDKIN",
        "type": "BODY_LANG",
        "delayTime": 1.3179999589920044,
        "aliasList": [
          "1005"
        ],
        "actionId": 166,
        "isContinue": true,
        "forceDoFreeStyle": true,
        "canDoRepeatFreeStyle": false,
        "cantBackToIdleWhenSitLoop": true,
        "eventPatternSuiteKey": ""
      }
    ],
    [
      {
        "$type": "MJFAIFFAGOF",
        "type": "DIALOG",
        "aliasList": [
          "1005"
        ],
        "actionId": 115,
        "dialogID": 732120906,
        "protectTime": 1.5420000553131104
      },
      {
        "$type": "EDCHPJLDKIN",
        "type": "BODY_LANG",
        "delayTime": 0.14300000667572021,
        "aliasList": [
          "1005"
        ],
        "actionId": 165,
        "bodyLangParam": 1050,
        "forceDoFreeStyle": true,
        "canDoRepeatFreeStyle": false,
        "cantBackToIdleWhenSitLoop": true,
        "eventPatternSuiteKey": ""
      },
      {
        "$type": "OBCDECFOOBC",
        "type": "DIALOG_SELECT",
        "delayTime": 1.5420000553131104,
        "aliasList": [
          "Avatar"
        ],
        "actionId": 224,
        "dialogIDList": [
          732120907
        ],
        "grpIDList": [
          3531289363
        ],
        "useGrpId": true,
        "countDownGrpId": 3531289357
      },
      {
        "$type": "EDCHPJLDKIN",
        "type": "BODY_LANG",
        "delayTime": 2.2730000019073486,
        "aliasList": [
          "1005"
        ],
        "actionId": 167,
        "isContinue": true,
        "forceDoFreeStyle": true,
        "canDoRepeatFreeStyle": false,
        "cantBackToIdleWhenSitLoop": true,
        "eventPatternSuiteKey": ""
      }
    ],
    [
      {
        "$type": "EFHODGEJOHJ",
        "type": "CAMERA_MOVE",
        "duration": 0.0,
        "actionId": 153,
        "camPosOffset": {
          "x": -1150.218994140625,
          "y": 109.13999938964844,
          "z": 4815.9140625
        },
        "camForwardTargetOffset": {
          "x": -1151.1820068359375,
          "y": 108.9739990234375,
          "z": 4816.1279296875
        },
        "camFov": 47.0,
        "lerpPattern": 6,
        "cameraBlendType": "EaseInOutCubic",
        "MDKBPBJCMHH": {},
        "needZAxisRotate": true,
        "rotateAngle": -0.0020000000949949026,
        "openCameraDither": false,
        "targetNpcAlias": "",
        "closeTreeLeafDither": true,
        "PHGBNNGCJKJ": "",
        "NFILMKCFHEB": "",
        "BGPNGHDAECF": ""
      },
      {
        "$type": "MoleMole.Config.ConfigTimeProtectAction",
        "type": "TIME_PROTECT",
        "duration": 0.800000011920929,
        "aliasList": [
          "Avatar"
        ],
        "actionId": 226
      },
      {
        "$type": "EFHODGEJOHJ",
        "type": "CAMERA_MOVE",
        "delayTime": 0.20000000298023224,
        "duration": 4.199999809265137,
        "actionId": 209,
        "camPosOffset": {
          "x": -1150.218994140625,
          "y": 109.16000366210938,
          "z": 4815.9140625
        },
        "camForwardTargetOffset": {
          "x": -1151.1820068359375,
          "y": 108.99400329589844,
          "z": 4816.1279296875
        },
        "cameraBlendType": "EaseOutQuad",
        "MDKBPBJCMHH": {},
        "needZAxisRotate": true,
        "rotateAngle": -0.0020000000949949026,
        "openCameraDither": false,
        "targetNpcAlias": "",
        "closeTreeLeafDither": true,
        "PHGBNNGCJKJ": "",
        "NFILMKCFHEB": "",
        "BGPNGHDAECF": ""
      },
      {
        "$type": "OBCDECFOOBC",
        "type": "DIALOG_SELECT",
        "delayTime": 0.7670000195503235,
        "aliasList": [
          "Avatar"
        ],
        "actionId": 225,
        "dialogIDList": [
          732120908
        ],
        "grpIDList": [
          3531289364
        ],
        "useGrpId": true,
        "countDownGrpId": 3531289357
      }
    ],
    [
      {
        "$type": "EFHODGEJOHJ",
        "type": "CAMERA_MOVE",
        "duration": 0.5,
        "actionId": 154,
        "camPosOffset": {
          "x": -1151.426025390625,
          "y": 109.0739974975586,
          "z": 4816.43994140625
        },
        "camForwardTargetOffset": {
          "x": -1150.842041015625,
          "y": 108.95899963378906,
          "z": 4815.63720703125
        },
        "camFov": 48.0,
        "lerpPattern": 6,
        "cameraBlendType": "EaseInOutCubic",
        "MDKBPBJCMHH": {},
        "needZAxisRotate": true,
        "rotateAngle": -0.0020000000949949026,
        "openCameraDither": false,
        "targetNpcAlias": "",
        "closeTreeLeafDither": true,
        "PHGBNNGCJKJ": "",
        "NFILMKCFHEB": "",
        "BGPNGHDAECF": ""
      },
      {
        "$type": "MJFAIFFAGOF",
        "type": "DIALOG",
        "aliasList": [
          "1005"
        ],
        "actionId": 120,
        "dialogID": 732120909,
        "protectTime": 2.4000000953674316
      },
      {
        "$type": "EDCHPJLDKIN",
        "type": "BODY_LANG",
        "delayTime": 0.09200000017881393,
        "aliasList": [
          "1005"
        ],
        "actionId": 168,
        "bodyLangParam": 1270,
        "forceDoFreeStyle": true,
        "canDoRepeatFreeStyle": false,
        "cantBackToIdleWhenSitLoop": true,
        "eventPatternSuiteKey": ""
      },
      {
        "$type": "EDCHPJLDKIN",
        "type": "BODY_LANG",
        "delayTime": 1.9839999675750732,
        "aliasList": [
          "1005"
        ],
        "actionId": 179,
        "bodyLangParam": 1030,
        "forceDoFreeStyle": true,
        "canDoRepeatFreeStyle": false,
        "cantBackToIdleWhenSitLoop": true,
        "eventPatternSuiteKey": ""
      },
      {
        "$type": "EDCHPJLDKIN",
        "type": "BODY_LANG",
        "delayTime": 4.35099983215332,
        "aliasList": [
          "1005"
        ],
        "actionId": 180,
        "isContinue": true,
        "forceDoFreeStyle": true,
        "canDoRepeatFreeStyle": false,
        "cantBackToIdleWhenSitLoop": true,
        "eventPatternSuiteKey": ""
      }
    ],
    [
      {
        "$type": "EFHODGEJOHJ",
        "type": "CAMERA_MOVE",
        "duration": 0.5,
        "actionId": 216,
        "camPosOffset": {
          "x": -1151.426025390625,
          "y": 109.0739974975586,
          "z": 4816.43994140625
        },
        "camForwardTargetOffset": {
          "x": -1150.842041015625,
          "y": 108.95899963378906,
          "z": 4815.63720703125
        },
        "camFov": 48.0,
        "lerpPattern": 6,
        "cameraBlendType": "EaseInOutCubic",
        "MDKBPBJCMHH": {},
        "needZAxisRotate": true,
        "rotateAngle": -0.0020000000949949026,
        "openCameraDither": false,
        "targetNpcAlias": "",
        "closeTreeLeafDither": true,
        "PHGBNNGCJKJ": "",
        "NFILMKCFHEB": "",
        "BGPNGHDAECF": ""
      },
      {
        "$type": "MJFAIFFAGOF",
        "type": "DIALOG",
        "aliasList": [
          "1005"
        ],
        "actionId": 122,
        "dialogID": 732120910,
        "protectTime": 3.0
      },
      {
        "$type": "EDCHPJLDKIN",
        "type": "BODY_LANG",
        "delayTime": 0.052000001072883606,
        "aliasList": [
          "1005"
        ],
        "actionId": 169,
        "bodyLangParam": 1300,
        "forceDoFreeStyle": true,
        "canDoRepeatFreeStyle": false,
        "cantBackToIdleWhenSitLoop": true,
        "eventPatternSuiteKey": ""
      },
      {
        "$type": "EDCHPJLDKIN",
        "type": "BODY_LANG",
        "delayTime": 5.459000110626221,
        "aliasList": [
          "1005"
        ],
        "actionId": 181,
        "isContinue": true,
        "forceDoFreeStyle": true,
        "canDoRepeatFreeStyle": false,
        "cantBackToIdleWhenSitLoop": true,
        "eventPatternSuiteKey": ""
      }
    ],
    [
      {
        "$type": "EFHODGEJOHJ",
        "type": "CAMERA_MOVE",
        "duration": 0.5,
        "actionId": 213,
        "camPosOffset": {
          "x": -1149.489013671875,
          "y": 109.30599975585938,
          "z": 4817.60595703125
        },
        "camForwardTargetOffset": {
          "x": -1150.2989501953125,
          "y": 109.06400299072266,
          "z": 4817.07177734375
        },
        "camFov": 48.0,
        "lerpPattern": 6,
        "cameraBlendType": "EaseInOutCubic",
        "MDKBPBJCMHH": {},
        "needZAxisRotate": true,
        "rotateAngle": -0.0020000000949949026,
        "openCameraDither": false,
        "targetNpcAlias": "",
        "closeTreeLeafDither": true,
        "PHGBNNGCJKJ": "",
        "NFILMKCFHEB": "",
        "BGPNGHDAECF": ""
      },
      {
        "$type": "MJFAIFFAGOF",
        "type": "DIALOG",
        "aliasList": [
          "1005"
        ],
        "actionId": 124,
        "dialogID": 732120911,
        "protectTime": 2.5
      },
      {
        "$type": "EDCHPJLDKIN",
        "type": "BODY_LANG",
        "delayTime": 0.10000000149011612,
        "aliasList": [
          "1005"
        ],
        "actionId": 170,
        "bodyLangParam": 1120,
        "forceDoFreeStyle": true,
        "canDoRepeatFreeStyle": false,
        "cantBackToIdleWhenSitLoop": true,
        "eventPatternSuiteKey": ""
      },
      {
        "$type": "EDCHPJLDKIN",
        "type": "BODY_LANG",
        "delayTime": 2.3239998817443848,
        "aliasList": [
          "1005"
        ],
        "actionId": 171,
        "bodyLangParam": 1100,
        "forceDoFreeStyle": true,
        "canDoRepeatFreeStyle": false,
        "cantBackToIdleWhenSitLoop": true,
        "eventPatternSuiteKey": ""
      },
      {
        "$type": "EDCHPJLDKIN",
        "type": "BODY_LANG",
        "delayTime": 5.085000038146973,
        "aliasList": [
          "1005"
        ],
        "actionId": 172,
        "isContinue": true,
        "forceDoFreeStyle": true,
        "canDoRepeatFreeStyle": false,
        "cantBackToIdleWhenSitLoop": true,
        "eventPatternSuiteKey": ""
      }
    ],
    [
      {
        "$type": "EFHODGEJOHJ",
        "type": "CAMERA_MOVE",
        "duration": 0.5,
        "actionId": 155,
        "camPosOffset": {
          "x": -1151.613037109375,
          "y": 109.14299774169922,
          "z": 4817.39794921875
        },
        "camForwardTargetOffset": {
          "x": -1151.4129638671875,
          "y": 109.01899719238281,
          "z": 4816.42578125
        },
        "camFov": 35.0,
        "lerpPattern": 6,
        "cameraBlendType": "EaseInOutCubic",
        "MDKBPBJCMHH": {},
        "needZAxisRotate": true,
        "rotateAngle": -0.0020000000949949026,
        "openCameraDither": false,
        "targetNpcAlias": "",
        "closeTreeLeafDither": true,
        "PHGBNNGCJKJ": "",
        "NFILMKCFHEB": "",
        "BGPNGHDAECF": ""
      },
      {
        "$type": "MJFAIFFAGOF",
        "type": "DIALOG",
        "aliasList": [
          "1005"
        ],
        "actionId": 126,
        "dialogID": 732120912,
        "protectTime": 3.6419999599456787
      },
      {
        "$type": "EDCHPJLDKIN",
        "type": "BODY_LANG",
        "delayTime": 0.06300000101327896,
        "aliasList": [
          "1005"
        ],
        "actionId": 173,
        "bodyLangParam": 1190,
        "forceDoFreeStyle": true,
        "canDoRepeatFreeStyle": false,
        "cantBackToIdleWhenSitLoop": true,
        "eventPatternSuiteKey": ""
      },
      {
        "$type": "EDCHPJLDKIN",
        "type": "BODY_LANG",
        "delayTime": 2.5260000228881836,
        "aliasList": [
          "Avatar"
        ],
        "actionId": 228,
        "bodyLangParam": 1190,
        "forceDoFreeStyle": true,
        "canDoRepeatFreeStyle": false,
        "cantBackToIdleWhenSitLoop": true,
        "eventPatternSuiteKey": ""
      },
      {
        "$type": "EDCHPJLDKIN",
        "type": "BODY_LANG",
        "delayTime": 3.1389999389648438,
        "aliasList": [
          "1005"
        ],
        "actionId": 175,
        "bodyLangParam": 1420,
        "forceDoFreeStyle": true,
        "canDoRepeatFreeStyle": false,
        "cantBackToIdleWhenSitLoop": true,
        "eventPatternSuiteKey": ""
      },
      {
        "$type": "OBCDECFOOBC",
        "type": "DIALOG_SELECT",
        "delayTime": 3.6419999599456787,
        "aliasList": [
          "Avatar"
        ],
        "actionId": 227,
        "dialogIDList": [
          732120913
        ],
        "grpIDList": [
          2095787747
        ],
        "useGrpId": true,
        "countDownGrpId": 3531289357
      },
      {
        "$type": "EDCHPJLDKIN",
        "type": "BODY_LANG",
        "delayTime": 5.010000228881836,
        "aliasList": [
          "1005"
        ],
        "actionId": 177,
        "isContinue": true,
        "forceDoFreeStyle": true,
        "canDoRepeatFreeStyle": false,
        "cantBackToIdleWhenSitLoop": true,
        "eventPatternSuiteKey": ""
      },
      {
        "$type": "EDCHPJLDKIN",
        "type": "BODY_LANG",
        "delayTime": 5.565999984741211,
        "aliasList": [
          "Avatar"
        ],
        "actionId": 233,
        "isContinue": true,
        "forceDoFreeStyle": true,
        "canDoRepeatFreeStyle": false,
        "cantBackToIdleWhenSitLoop": true,
        "eventPatternSuiteKey": ""
      }
    ],
    [
      {
        "$type": "EDCHPJLDKIN",
        "type": "BODY_LANG",
        "aliasList": [
          "Avatar"
        ],
        "actionId": 232,
        "isContinue": true,
        "forceDoFreeStyle": true,
        "canDoRepeatFreeStyle": false,
        "cantBackToIdleWhenSitLoop": true,
        "eventPatternSuiteKey": ""
      },
      {
        "$type": "MJFAIFFAGOF",
        "type": "DIALOG",
        "aliasList": [
          "1005"
        ],
        "actionId": 129,
        "dialogID": 732120914,
        "protectTime": 1.0750000476837158
      },
      {
        "$type": "EDCHPJLDKIN",
        "type": "BODY_LANG",
        "delayTime": 0.6200000047683716,
        "aliasList": [
          "1005"
        ],
        "actionId": 176,
        "bodyLangParam": 1110,
        "forceDoFreeStyle": true,
        "canDoRepeatFreeStyle": false,
        "cantBackToIdleWhenSitLoop": true,
        "eventPatternSuiteKey": ""
      },
      {
        "$type": "OBCDECFOOBC",
        "type": "DIALOG_SELECT",
        "delayTime": 1.0410000085830688,
        "aliasList": [
          "Avatar"
        ],
        "actionId": 229,
        "dialogIDList": [
          732120915
        ],
        "grpIDList": [
          2095787748
        ],
        "useGrpId": true,
        "countDownGrpId": 3531289357
      },
      {
        "$type": "EDCHPJLDKIN",
        "type": "BODY_LANG",
        "delayTime": 2.609999895095825,
        "aliasList": [
          "1005"
        ],
        "actionId": 182,
        "isContinue": true,
        "forceDoFreeStyle": true,
        "canDoRepeatFreeStyle": false,
        "cantBackToIdleWhenSitLoop": true,
        "eventPatternSuiteKey": ""
      }
    ],
    [
      {
        "$type": "EFHODGEJOHJ",
        "type": "CAMERA_MOVE",
        "duration": 0.0,
        "actionId": 156,
        "camPosOffset": {
          "x": -1151.196044921875,
          "y": 109.1050033569336,
          "z": 4816.3681640625
        },
        "camForwardTargetOffset": {
          "x": -1150.8580322265625,
          "y": 108.95999908447266,
          "z": 4815.43798828125
        },
        "camFov": 52.0,
        "lerpPattern": 6,
        "cameraBlendType": "EaseInOutCubic",
        "MDKBPBJCMHH": {},
        "needZAxisRotate": true,
        "rotateAngle": -0.0020000000949949026,
        "openCameraDither": false,
        "targetNpcAlias": "",
        "closeTreeLeafDither": true,
        "PHGBNNGCJKJ": "",
        "NFILMKCFHEB": "",
        "BGPNGHDAECF": ""
      },
      {
        "$type": "MJFAIFFAGOF",
        "type": "DIALOG",
        "aliasList": [
          "1005"
        ],
        "actionId": 132,
        "dialogID": 732120916,
        "protectTime": 2.299999952316284
      },
      {
        "$type": "EDCHPJLDKIN",
        "type": "BODY_LANG",
        "delayTime": 0.02500000037252903,
        "aliasList": [
          "1005"
        ],
        "actionId": 183,
        "bodyLangParam": 1030,
        "forceDoFreeStyle": true,
        "canDoRepeatFreeStyle": false,
        "cantBackToIdleWhenSitLoop": true,
        "eventPatternSuiteKey": ""
      },
      {
        "$type": "ICHLNKHGCAG",
        "type": "EMO_SYNC",
        "delayTime": 0.08399999886751175,
        "aliasList": [
          "1005"
        ],
        "actionId": 199,
        "dataPath": "Cs_Emo_Avatar_Simple_Common_Set/Cs_Emo_Emotions/Cs_Emo_Pet_Common/Cs_Emo_Paimon_Sad03",
        "phonemePath": "",
        "emotionPath": "",
        "mateDataPath": "Cs_Emo_Avatar_Simple_Common_Set/Cs_Emo_Emotions/Cs_Emo_Pet_Common/Cs_Emo_Paimon_Sad03",
        "matePhonemePath": "",
        "mateEmotionPath": "",
        "dataPathHashList": [
          9794507150368076923,
          7318507819405273730,
          3801003847133313910,
          13149708887998795332
        ],
        "mateDataPathHashList": [
          9794507150368076923,
          7318507819405273730,
          3801003847133313910,
          13149708887998795332
        ],
        "PACNIGOOENN": "",
        "PIBDNPHIAGC": ""
      },
      {
        "$type": "EDCHPJLDKIN",
        "type": "BODY_LANG",
        "delayTime": 1.8320000171661377,
        "aliasList": [
          "1005"
        ],
        "actionId": 185,
        "isContinue": true,
        "forceDoFreeStyle": true,
        "canDoRepeatFreeStyle": false,
        "cantBackToIdleWhenSitLoop": true,
        "eventPatternSuiteKey": ""
      },
      {
        "$type": "NPCNMEOCADD",
        "type": "LOOK_AT",
        "delayTime": 2.0480000972747803,
        "aliasList": [
          "1005"
        ],
        "actionId": 186,
        "enableHead": true,
        "headRotateVec": {
          "x": -20.0,
          "y": 35.0
        },
        "headTurnTime": 0.5,
        "targetNpcAlias": "",
        "lookAtTargetType": "NONE",
        "openBackProtect": true,
        "targetNpcLookAtPoint": "",
        "BHGPHGNFCBF": ""
      }
    ],
    [
      {
        "$type": "MJFAIFFAGOF",
        "type": "DIALOG",
        "aliasList": [
          "1005"
        ],
        "actionId": 134,
        "dialogID": 732120917,
        "protectTime": 2.0
      },
      {
        "$type": "ICHLNKHGCAG",
        "type": "EMO_SYNC",
        "aliasList": [
          "1005"
        ],
        "actionId": 201,
        "dataPath": "",
        "phonemePath": "",
        "emotionPath": "",
        "mateDataPath": "",
        "matePhonemePath": "",
        "mateEmotionPath": "",
        "PACNIGOOENN": "",
        "PIBDNPHIAGC": ""
      },
      {
        "$type": "EDCHPJLDKIN",
        "type": "BODY_LANG",
        "delayTime": 0.1860000044107437,
        "aliasList": [
          "1005"
        ],
        "actionId": 184,
        "bodyLangParam": 4040,
        "forceDoFreeStyle": true,
        "canDoRepeatFreeStyle": false,
        "cantBackToIdleWhenSitLoop": true,
        "eventPatternSuiteKey": ""
      },
      {
        "$type": "NPCNMEOCADD",
        "type": "LOOK_AT",
        "delayTime": 0.18799999356269836,
        "aliasList": [
          "1005"
        ],
        "actionId": 187,
        "enableHead": true,
        "headTurnTime": 0.5,
        "targetNpcAlias": "Avatar",
        "openBackProtect": true,
        "targetNpcLookAtPoint": "",
        "BHGPHGNFCBF": ""
      },
      {
        "$type": "EFHODGEJOHJ",
        "type": "CAMERA_MOVE",
        "delayTime": 0.20000000298023224,
        "duration": 1.5,
        "actionId": 214,
        "camPosOffset": {
          "x": -1151.196044921875,
          "y": 109.1050033569336,
          "z": 4816.3681640625
        },
        "camForwardTargetOffset": {
          "x": -1150.8480224609375,
          "y": 108.99800109863281,
          "z": 4815.43701171875
        },
        "camFov": 50.0,
        "lerpPattern": 2,
        "cameraBlendType": "EaseInOutQuad",
        "MDKBPBJCMHH": {},
        "needZAxisRotate": true,
        "rotateAngle": -0.0020000000949949026,
        "openCameraDither": false,
        "targetNpcAlias": "",
        "closeTreeLeafDither": true,
        "PHGBNNGCJKJ": "",
        "NFILMKCFHEB": "",
        "BGPNGHDAECF": ""
      },
      {
        "$type": "ICHLNKHGCAG",
        "type": "EMO_SYNC",
        "delayTime": 1.093000054359436,
        "aliasList": [
          "1005"
        ],
        "actionId": 200,
        "dataPath": "Cs_Emo_Avatar_Simple_Common_Set/Cs_Emo_Phonemes/Cs_Emo_Pet_Common/Cs_Emo_Paimon_Smile01",
        "phonemePath": "",
        "emotionPath": "",
        "mateDataPath": "Cs_Emo_Avatar_Simple_Common_Set/Cs_Emo_Phonemes/Cs_Emo_Pet_Common/Cs_Emo_Paimon_Smile01",
        "matePhonemePath": "",
        "mateEmotionPath": "",
        "dataPathHashList": [
          14444568113189515118,
          6334906583242748066,
          8352861918685421043,
          6062231986990823827
        ],
        "mateDataPathHashList": [
          14444568113189515118,
          6334906583242748066,
          8352861918685421043,
          6062231986990823827
        ],
        "PACNIGOOENN": "",
        "PIBDNPHIAGC": ""
      },
      {
        "$type": "EDCHPJLDKIN",
        "type": "BODY_LANG",
        "delayTime": 1.6670000553131104,
        "aliasList": [
          "1005"
        ],
        "actionId": 178,
        "bodyLangParam": 1230,
        "forceDoFreeStyle": true,
        "canDoRepeatFreeStyle": false,
        "cantBackToIdleWhenSitLoop": true,
        "eventPatternSuiteKey": ""
      }
    ],
    [
      {
        "$type": "MoleMole.Config.ConfigTimeProtectAction",
        "type": "TIME_PROTECT",
        "duration": 0.10000000149011612,
        "actionId": 105
      },
      {
        "$type": "MoleMole.Config.ConfigSimpleBlackScreenAction",
        "type": "SIMPLE_BLACK_SCREEN",
        "actionId": 135,
        "durationToBlack": 0.5,
        "durationKeepBlack": 1.0,
        "durationFromBlack": 0.5,
        "textMapID": ""
      },
      {
        "$type": "MoleMole.Config.ConfigTimeProtectAction",
        "type": "TIME_PROTECT",
        "duration": 0.699999988079071,
        "actionId": 136
      },
      {
        "$type": "EFHODGEJOHJ",
        "type": "CAMERA_MOVE",
        "delayTime": 0.5669999718666077,
        "duration": 0.0,
        "actionId": 211,
        "camPosOffset": {
          "x": -1153.9820556640625,
          "y": 108.83699798583984,
          "z": 4818.80078125
        },
        "camForwardTargetOffset": {
          "x": -1153.2760009765625,
          "y": 108.78700256347656,
          "z": 4818.09423828125
        },
        "camFov": 55.79999923706055,
        "lerpPattern": 6,
        "cameraBlendType": "EaseInOutCubic",
        "MDKBPBJCMHH": {},
        "needZAxisRotate": true,
        "rotateAngle": -0.0020000000949949026,
        "openCameraDither": false,
        "targetNpcAlias": "",
        "closeTreeLeafDither": true,
        "PHGBNNGCJKJ": "",
        "NFILMKCFHEB": "",
        "BGPNGHDAECF": ""
      },
      {
        "$type": "MoleMole.Config.ConfigTeleportToAction",
        "type": "TELEPORT_TO",
        "delayTime": 0.5669999718666077,
        "aliasList": [
          "Avatar"
        ],
        "actionId": 231,
        "position": {
          "x": -1151.73095703125,
          "y": 107.73899841308594,
          "z": 4816.76806640625
        },
        "forward": {
          "x": 0.6940000057220459,
          "z": -0.7200000286102295
        },
        "openLongDisTeleport": true,
        "_posBindMovingTargetKey": "",
        "_forwardBindMovingTargetKey": ""
      }
    ]
  ],
  "groupId": [
    {
      "grpId": 3531289358,
      "nextGrpId": 3531289359
    },
    {
      "index": 1,
      "grpId": 3531289359,
      "nextGrpId": 3531289360
    },
    {
      "index": 2,
      "grpId": 3531289360,
      "nextGrpId": 3531289361
    },
    {
      "index": 3,
      "grpId": 3531289361,
      "nextGrpId": 3531289362
    },
    {
      "index": 4,
      "grpId": 3531289362,
      "nextGrpId": 3531289363
    },
    {
      "index": 5,
      "grpId": 3531289363,
      "nextGrpId": 3531289364
    },
    {
      "index": 6,
      "grpId": 3531289364,
      "nextGrpId": 3531289365
    },
    {
      "index": 7,
      "grpId": 3531289365,
      "nextGrpId": 3531289366
    },
    {
      "index": 8,
      "grpId": 3531289366,
      "nextGrpId": 2095787746
    },
    {
      "index": 9,
      "grpId": 2095787746,
      "nextGrpId": 2095787747
    },
    {
      "index": 10,
      "grpId": 2095787747,
      "nextGrpId": 2095787748
    },
    {
      "index": 11,
      "grpId": 2095787748,
      "nextGrpId": 2095787749
    },
    {
      "index": 12,
      "grpId": 2095787749,
      "nextGrpId": 2095787750
    },
    {
      "index": 13,
      "grpId": 2095787750,
      "nextGrpId": 2095787751
    }
  ]
}