{
  "luaDataPath": "",
  "startBlackKeepTime": 1.0,
  "entityBan": "",
  "disableNpcLod": true,
  "startFade": {
    "startFadeInDuration": 0.5,
    "startFadeOutDuration": 0.5
  },
  "endFade": {
    "startFadeOutDuration": 0.0
  },
  "actors": [
    {
      "alias": "Avatar",
      "visible": true,
      "bornPointName": "WQ7223205_player",
      "relativePosNpcAlias": "",
      "_bindMovingTargetKey": ""
    },
    {
      "configID": 20467,
      "alias": "20467",
      "visible": true,
      "bornPointName": "WQ7223205_fatui",
      "relativePosNpcAlias": "",
      "_bindMovingTargetKey": ""
    },
    {
      "configID": 20463,
      "alias": "20463",
      "visible": true,
      "bornPointName": "WQ7223205_wunv",
      "relativePosNpcAlias": "",
      "_bindMovingTargetKey": ""
    }
  ],
  "group": [
    [
      {
        "$type": "MoleMole.Config.ConfigTimeProtectAction",
        "type": "TIME_PROTECT",
        "duration": 0.4000000059604645
      },
      {
        "$type": "EFHODGEJOHJ",
        "type": "CAMERA_FOCUS",
        "delayTime": 0.30000001192092896,
        "duration": 0.10000000149011612,
        "targetNpcAlias": "",
        "PHGBNNGCJKJ": "",
        "NFILMKCFHEB": "",
        "BGPNGHDAECF": ""
      }
    ],
    [
      {
        "$type": "MJFAIFFAGOF",
        "type": "DIALOG",
        "aliasList": [
          "20467"
        ],
        "dialogID": 722320401,
        "protectTime": 0.5
      },
      {
        "$type": "MoleMole.Config.ConfigLuaAction",
        "type": "LUA_ACTION",
        "duration": 0.10000000149011612,
        "invoke": true,
        "invokeAlias": "72232",
        "invokeParam": 1
      },
      {
        "$type": "NPCNMEOCADD",
        "type": "LOOK_AT",
        "delayTime": 0.07500000298023224,
        "aliasList": [
          "20463"
        ],
        "enableHead": true,
        "useTargetPos": true,
        "headTurnTime": 0.5,
        "targetNpcAlias": "20467",
        "targetNpcLookAtPoint": "",
        "BHGPHGNFCBF": ""
      }
    ],
    [
      {
        "$type": "MJFAIFFAGOF",
        "type": "DIALOG",
        "aliasList": [
          "20463"
        ],
        "dialogID": 722320402,
        "protectTime": 0.5
      },
      {
        "$type": "EDCHPJLDKIN",
        "type": "BODY_LANG",
        "delayTime": 0.10000000149011612,
        "aliasList": [
          "20463"
        ],
        "bodyLangParam": 4040,
        "forceDoFreeStyle": true,
        "canDoRepeatFreeStyle": false,
        "eventPatternSuiteKey": ""
      },
      {
        "$type": "NPCNMEOCADD",
        "type": "LOOK_AT",
        "delayTime": 0.1080000028014183,
        "aliasList": [
          "20463"
        ],
        "enableHead": true,
        "headTurnTime": 0.5,
        "targetNpcAlias": "20467",
        "targetNpcLookAtPoint": "",
        "BHGPHGNFCBF": ""
      },
      {
        "$type": "OBCDECFOOBC",
        "type": "DIALOG_SELECT",
        "delayTime": 0.4000000059604645,
        "aliasList": [
          "Avatar"
        ],
        "dialogIDList": [
          722320403
        ],
        "grpIDList": [
          3282041336
        ],
        "useGrpId": true
      }
    ],
    [
      {
        "$type": "MJFAIFFAGOF",
        "type": "DIALOG",
        "aliasList": [
          "20467"
        ],
        "dialogID": 722320404,
        "protectTime": 0.5
      }
    ],
    [
      {
        "$type": "MJFAIFFAGOF",
        "type": "DIALOG",
        "aliasList": [
          "20463"
        ],
        "dialogID": 722320405,
        "protectTime": 0.5
      },
      {
        "$type": "NPCNMEOCADD",
        "type": "LOOK_AT",
        "delayTime": 0.1080000028014183,
        "aliasList": [
          "Avatar"
        ],
        "enableHead": true,
        "useTargetPos": true,
        "headTurnTime": 0.5,
        "targetNpcAlias": "20463",
        "targetNpcLookAtPoint": "",
        "BHGPHGNFCBF": ""
      }
    ],
    [
      {
        "$type": "MJFAIFFAGOF",
        "type": "DIALOG",
        "aliasList": [
          "20463"
        ],
        "dialogID": 722320406,
        "protectTime": 0.5
      }
    ],
    [
      {
        "$type": "MJFAIFFAGOF",
        "type": "DIALOG",
        "aliasList": [
          "20463"
        ],
        "dialogID": 722320407,
        "protectTime": 0.5
      },
      {
        "$type": "EDCHPJLDKIN",
        "type": "BODY_LANG",
        "delayTime": 0.09200000017881393,
        "aliasList": [
          "20463"
        ],
        "bodyLangParam": 1172,
        "forceDoFreeStyle": true,
        "canDoRepeatFreeStyle": false,
        "eventPatternSuiteKey": ""
      }
    ],
    [
      {
        "$type": "MJFAIFFAGOF",
        "type": "DIALOG",
        "aliasList": [
          "20467"
        ],
        "dialogID": 722320408,
        "protectTime": 0.5
      },
      {
        "$type": "NPCNMEOCADD",
        "type": "LOOK_AT",
        "delayTime": 0.06599999964237213,
        "aliasList": [
          "Avatar"
        ],
        "enableHead": true,
        "useTargetPos": true,
        "headTurnTime": 0.5,
        "targetNpcAlias": "20467",
        "targetNpcLookAtPoint": "",
        "BHGPHGNFCBF": ""
      }
    ],
    [
      {
        "$type": "MJFAIFFAGOF",
        "type": "DIALOG",
        "aliasList": [
          "20463"
        ],
        "dialogID": 722320409,
        "protectTime": 0.5
      },
      {
        "$type": "OBCDECFOOBC",
        "type": "DIALOG_SELECT",
        "delayTime": 0.4000000059604645,
        "aliasList": [
          "Avatar"
        ],
        "dialogIDList": [
          722320410
        ],
        "grpIDList": [
          2959033563
        ],
        "useGrpId": true
      },
      {
        "$type": "NPCNMEOCADD",
        "type": "LOOK_AT",
        "delayTime": 0.5389999747276306,
        "aliasList": [
          "20463"
        ],
        "enableHead": true,
        "headTurnTime": 0.5,
        "targetNpcAlias": "Avatar",
        "targetNpcLookAtPoint": "",
        "BHGPHGNFCBF": ""
      }
    ],
    [
      {
        "$type": "MJFAIFFAGOF",
        "type": "DIALOG",
        "aliasList": [
          "20467"
        ],
        "dialogID": 722320411,
        "protectTime": 0.5
      }
    ],
    [
      {
        "$type": "MJFAIFFAGOF",
        "type": "DIALOG",
        "aliasList": [
          "20463"
        ],
        "dialogID": 722320412,
        "protectTime": 0.5
      },
      {
        "$type": "NPCNMEOCADD",
        "type": "LOOK_AT",
        "delayTime": 0.17900000512599945,
        "aliasList": [
          "20463"
        ],
        "enableHead": true,
        "headTurnTime": 0.5,
        "targetNpcAlias": "20467",
        "targetNpcLookAtPoint": "",
        "BHGPHGNFCBF": ""
      }
    ],
    [
      {
        "$type": "MJFAIFFAGOF",
        "type": "DIALOG",
        "aliasList": [
          "20467"
        ],
        "dialogID": 722320413,
        "protectTime": 0.5
      }
    ],
    [
      {
        "$type": "MJFAIFFAGOF",
        "type": "DIALOG",
        "aliasList": [
          "20467"
        ],
        "dialogID": 722320414,
        "protectTime": 0.5
      }
    ],
    [
      {
        "$type": "MJFAIFFAGOF",
        "type": "DIALOG",
        "aliasList": [
          "20467"
        ],
        "dialogID": 722320415,
        "protectTime": 0.5
      }
    ],
    [
      {
        "$type": "MJFAIFFAGOF",
        "type": "DIALOG",
        "aliasList": [
          "20467"
        ],
        "dialogID": 722320416,
        "protectTime": 0.5
      },
      {
        "$type": "OBCDECFOOBC",
        "type": "DIALOG_SELECT",
        "delayTime": 0.4000000059604645,
        "aliasList": [
          "Avatar"
        ],
        "dialogIDList": [
          722320417,
          722320418
        ],
        "grpIDList": [
          2959033569,
          2959033569
        ],
        "useGrpId": true
      }
    ],
    [
      {
        "$type": "MJFAIFFAGOF",
        "type": "DIALOG",
        "aliasList": [
          "20467"
        ],
        "dialogID": 722320419,
        "protectTime": 0.5
      },
      {
        "$type": "OBCDECFOOBC",
        "type": "DIALOG_SELECT",
        "delayTime": 0.4000000059604645,
        "aliasList": [
          "Avatar"
        ],
        "dialogIDList": [
          722320420
        ],
        "grpIDList": [
          2959033570
        ],
        "useGrpId": true
      }
    ],
    [
      {
        "$type": "MJFAIFFAGOF",
        "type": "DIALOG",
        "aliasList": [
          "20463"
        ],
        "dialogID": 722320421,
        "protectTime": 0.5
      },
      {
        "$type": "EDCHPJLDKIN",
        "type": "BODY_LANG",
        "delayTime": 0.11100000143051147,
        "aliasList": [
          "20463"
        ],
        "bodyLangParam": 1090,
        "forceDoFreeStyle": true,
        "canDoRepeatFreeStyle": false,
        "eventPatternSuiteKey": ""
      }
    ],
    [
      {
        "$type": "MJFAIFFAGOF",
        "type": "DIALOG",
        "aliasList": [
          "20467"
        ],
        "dialogID": 722320422,
        "protectTime": 0.5
      }
    ],
    [
      {
        "$type": "MJFAIFFAGOF",
        "type": "DIALOG",
        "aliasList": [
          "20463"
        ],
        "dialogID": 722320423,
        "protectTime": 0.5
      }
    ],
    [
      {
        "$type": "MJFAIFFAGOF",
        "type": "DIALOG",
        "aliasList": [
          "20467"
        ],
        "dialogID": 722320424,
        "protectTime": 0.5
      }
    ],
    [
      {
        "$type": "MJFAIFFAGOF",
        "type": "DIALOG",
        "aliasList": [
          "20467"
        ],
        "dialogID": 722320425,
        "protectTime": 0.5
      },
      {
        "$type": "OBCDECFOOBC",
        "type": "DIALOG_SELECT",
        "delayTime": 0.4000000059604645,
        "aliasList": [
          "Avatar"
        ],
        "dialogIDList": [
          722320426
        ],
        "grpIDList": [
          2959033596
        ],
        "useGrpId": true
      }
    ],
    [
      {
        "$type": "MJFAIFFAGOF",
        "type": "DIALOG",
        "aliasList": [
          "20467"
        ],
        "dialogID": 722320427,
        "protectTime": 0.5
      }
    ],
    [
      {
        "$type": "MJFAIFFAGOF",
        "type": "DIALOG",
        "aliasList": [
          "20463"
        ],
        "dialogID": 722320428,
        "protectTime": 0.5
      },
      {
        "$type": "EDCHPJLDKIN",
        "type": "BODY_LANG",
        "delayTime": 0.11699999868869781,
        "aliasList": [
          "20463"
        ],
        "bodyLangParam": 1172,
        "forceDoFreeStyle": true,
        "canDoRepeatFreeStyle": false,
        "eventPatternSuiteKey": ""
      }
    ],
    [
      {
        "$type": "MJFAIFFAGOF",
        "type": "DIALOG",
        "aliasList": [
          "20467"
        ],
        "dialogID": 722320429,
        "protectTime": 0.5
      },
      {
        "$type": "NPCNMEOCADD",
        "type": "LOOK_AT",
        "delayTime": 0.12099999934434891,
        "aliasList": [
          "20467"
        ],
        "enableHead": true,
        "useTargetPos": true,
        "headTurnTime": 0.5,
        "targetNpcAlias": "20463",
        "targetNpcLookAtPoint": "",
        "BHGPHGNFCBF": ""
      }
    ],
    [
      {
        "$type": "MJFAIFFAGOF",
        "type": "DIALOG",
        "aliasList": [
          "20463"
        ],
        "dialogID": 722320430,
        "protectTime": 0.5
      },
      {
        "$type": "NPCNMEOCADD",
        "type": "LOOK_AT",
        "delayTime": 0.13099999725818634,
        "aliasList": [
          "Avatar"
        ],
        "enableHead": true,
        "headTurnTime": 0.5,
        "targetNpcAlias": "20463",
        "targetNpcLookAtPoint": "",
        "BHGPHGNFCBF": ""
      }
    ],
    [
      {
        "$type": "MJFAIFFAGOF",
        "type": "DIALOG",
        "aliasList": [
          "20467"
        ],
        "dialogID": 722320431,
        "protectTime": 0.5
      }
    ],
    [
      {
        "$type": "MJFAIFFAGOF",
        "type": "DIALOG",
        "aliasList": [
          "20463"
        ],
        "dialogID": 722320432,
        "protectTime": 0.5
      },
      {
        "$type": "NPCNMEOCADD",
        "type": "LOOK_AT",
        "delayTime": 0.19200000166893005,
        "aliasList": [
          "Avatar"
        ],
        "enableHead": true,
        "useTargetPos": true,
        "headTurnTime": 0.5,
        "targetNpcAlias": "20463",
        "targetNpcLookAtPoint": "",
        "BHGPHGNFCBF": ""
      },
      {
        "$type": "OBCDECFOOBC",
        "type": "DIALOG_SELECT",
        "delayTime": 0.4000000059604645,
        "aliasList": [
          "Avatar"
        ],
        "dialogIDList": [
          722320433,
          722320434
        ],
        "grpIDList": [
          2959033602,
          2959033602
        ],
        "useGrpId": true
      }
    ],
    [
      {
        "$type": "MJFAIFFAGOF",
        "type": "DIALOG",
        "aliasList": [
          "20463"
        ],
        "dialogID": 722320435,
        "protectTime": 0.5
      },
      {
        "$type": "NPCNMEOCADD",
        "type": "LOOK_AT",
        "delayTime": 0.06800000369548798,
        "aliasList": [
          "20463"
        ],
        "enableHead": true,
        "useTargetPos": true,
        "headTurnTime": 0.5,
        "targetNpcAlias": "Avatar",
        "targetNpcLookAtPoint": "",
        "BHGPHGNFCBF": ""
      }
    ],
    [
      {
        "$type": "MJFAIFFAGOF",
        "type": "DIALOG",
        "aliasList": [
          "20467"
        ],
        "dialogID": 722320436,
        "protectTime": 0.5
      },
      {
        "$type": "NPCNMEOCADD",
        "type": "LOOK_AT",
        "delayTime": 0.06400000303983688,
        "aliasList": [
          "Avatar"
        ],
        "enableHead": true,
        "useTargetPos": true,
        "headTurnTime": 0.5,
        "targetNpcAlias": "20467",
        "targetNpcLookAtPoint": "",
        "BHGPHGNFCBF": ""
      },
      {
        "$type": "NPCNMEOCADD",
        "type": "LOOK_AT",
        "delayTime": 0.1469999998807907,
        "aliasList": [
          "20463"
        ],
        "enableHead": true,
        "useTargetPos": true,
        "headTurnTime": 0.5,
        "targetNpcAlias": "20467",
        "targetNpcLookAtPoint": "",
        "BHGPHGNFCBF": ""
      }
    ],
    [
      {
        "$type": "MJFAIFFAGOF",
        "type": "DIALOG",
        "aliasList": [
          "20463"
        ],
        "dialogID": 722320437,
        "protectTime": 0.5
      },
      {
        "$type": "NPCNMEOCADD",
        "type": "LOOK_AT",
        "delayTime": 0.0989999994635582,
        "aliasList": [
          "20463"
        ],
        "enableHead": true,
        "headTurnTime": 0.5,
        "targetNpcAlias": "20467",
        "targetNpcLookAtPoint": "",
        "BHGPHGNFCBF": ""
      }
    ],
    [
      {
        "$type": "MJFAIFFAGOF",
        "type": "DIALOG",
        "aliasList": [
          "20467"
        ],
        "dialogID": 722320438,
        "protectTime": 0.5
      },
      {
        "$type": "NPCNMEOCADD",
        "type": "LOOK_AT",
        "delayTime": 0.28200000524520874,
        "aliasList": [
          "Avatar"
        ],
        "enableHead": true,
        "headTurnTime": 0.5,
        "targetNpcAlias": "20467",
        "targetNpcLookAtPoint": "",
        "BHGPHGNFCBF": ""
      }
    ],
    [
      {
        "$type": "MJFAIFFAGOF",
        "type": "DIALOG",
        "aliasList": [
          "20463"
        ],
        "dialogID": 722320439,
        "protectTime": 0.5
      },
      {
        "$type": "EDCHPJLDKIN",
        "type": "BODY_LANG",
        "delayTime": 0.12099999934434891,
        "aliasList": [
          "20463"
        ],
        "bodyLangParam": 1172,
        "forceDoFreeStyle": true,
        "canDoRepeatFreeStyle": false,
        "eventPatternSuiteKey": ""
      }
    ],
    [
      {
        "$type": "MJFAIFFAGOF",
        "type": "DIALOG",
        "aliasList": [
          "20467"
        ],
        "dialogID": 722320440,
        "protectTime": 0.5
      }
    ],
    [
      {
        "$type": "MJFAIFFAGOF",
        "type": "DIALOG",
        "aliasList": [
          "20463"
        ],
        "dialogID": 722320441,
        "protectTime": 0.5
      },
      {
        "$type": "EDCHPJLDKIN",
        "type": "BODY_LANG",
        "delayTime": 0.16300000250339508,
        "aliasList": [
          "20463"
        ],
        "bodyLangParam": 4040,
        "forceDoFreeStyle": true,
        "canDoRepeatFreeStyle": false,
        "eventPatternSuiteKey": ""
      }
    ],
    [
      {
        "$type": "MJFAIFFAGOF",
        "type": "DIALOG",
        "aliasList": [
          "20463"
        ],
        "dialogID": 722320442,
        "protectTime": 0.5
      }
    ],
    [
      {
        "$type": "MJFAIFFAGOF",
        "type": "DIALOG",
        "aliasList": [
          "20467"
        ],
        "dialogID": 722320443,
        "protectTime": 0.5
      }
    ],
    [
      {
        "$type": "MJFAIFFAGOF",
        "type": "DIALOG",
        "aliasList": [
          "20463"
        ],
        "dialogID": 722320444,
        "protectTime": 0.5
      },
      {
        "$type": "NPCNMEOCADD",
        "type": "LOOK_AT",
        "delayTime": 0.31200000643730164,
        "aliasList": [
          "Avatar"
        ],
        "enableHead": true,
        "headTurnTime": 0.5,
        "targetNpcAlias": "20463",
        "targetNpcLookAtPoint": "",
        "BHGPHGNFCBF": ""
      }
    ],
    [
      {
        "$type": "MJFAIFFAGOF",
        "type": "DIALOG",
        "aliasList": [
          "20463"
        ],
        "dialogID": 722320445,
        "protectTime": 0.5
      },
      {
        "$type": "EDCHPJLDKIN",
        "type": "BODY_LANG",
        "delayTime": 0.1379999965429306,
        "aliasList": [
          "20463"
        ],
        "bodyLangParam": 1173,
        "forceDoFreeStyle": true,
        "canDoRepeatFreeStyle": false,
        "eventPatternSuiteKey": ""
      }
    ],
    [
      {
        "$type": "MJFAIFFAGOF",
        "type": "DIALOG",
        "aliasList": [
          "20463"
        ],
        "dialogID": 722320446,
        "protectTime": 0.5
      }
    ],
    [
      {
        "$type": "MJFAIFFAGOF",
        "type": "DIALOG",
        "aliasList": [
          "20463"
        ],
        "dialogID": 722320447,
        "protectTime": 0.5
      }
    ],
    [
      {
        "$type": "MJFAIFFAGOF",
        "type": "DIALOG",
        "aliasList": [
          "20463"
        ],
        "dialogID": 722320448,
        "protectTime": 0.5
      }
    ],
    [
      {
        "$type": "MJFAIFFAGOF",
        "type": "DIALOG",
        "aliasList": [
          "20463"
        ],
        "dialogID": 722320449,
        "protectTime": 0.5
      },
      {
        "$type": "NPCNMEOCADD",
        "type": "LOOK_AT",
        "delayTime": 0.11699999868869781,
        "aliasList": [
          "20463"
        ],
        "enableHead": true,
        "headTurnTime": 0.5,
        "targetNpcAlias": "Avatar",
        "targetNpcLookAtPoint": "",
        "BHGPHGNFCBF": ""
      },
      {
        "$type": "NPCNMEOCADD",
        "type": "LOOK_AT",
        "delayTime": 0.6169999837875366,
        "aliasList": [
          "Avatar"
        ],
        "enableHead": true,
        "headTurnTime": 0.5,
        "targetNpcAlias": "20467",
        "targetNpcLookAtPoint": "",
        "BHGPHGNFCBF": ""
      }
    ],
    [
      {
        "$type": "MoleMole.Config.ConfigTimeProtectAction",
        "type": "TIME_PROTECT",
        "duration": 0.10000000149011612
      },
      {
        "$type": "MoleMole.Config.ConfigLuaAction",
        "type": "LUA_ACTION",
        "delayTime": 0.5,
        "duration": 0.10000000149011612,
        "invoke": true,
        "invokeAlias": "72232",
        "invokeParam": 2
      }
    ]
  ],
  "groupId": [
    {
      "grpId": 3282041333,
      "nextGrpId": 3282041334
    },
    {
      "index": 1,
      "grpId": 3282041334,
      "nextGrpId": 3282041335
    },
    {
      "index": 2,
      "grpId": 3282041335,
      "nextGrpId": 3282041336
    },
    {
      "index": 3,
      "grpId": 3282041336,
      "nextGrpId": 3282041337
    },
    {
      "index": 4,
      "grpId": 3282041337,
      "nextGrpId": 3282041338
    },
    {
      "index": 5,
      "grpId": 3282041338,
      "nextGrpId": 3282041339
    },
    {
      "index": 6,
      "grpId": 3282041339,
      "nextGrpId": 3282041340
    },
    {
      "index": 7,
      "grpId": 3282041340,
      "nextGrpId": 3282041341
    },
    {
      "index": 8,
      "grpId": 3282041341,
      "nextGrpId": 2959033563
    },
    {
      "index": 9,
      "grpId": 2959033563,
      "nextGrpId": 2959033564
    },
    {
      "index": 10,
      "grpId": 2959033564,
      "nextGrpId": 2959033565
    },
    {
      "index": 11,
      "grpId": 2959033565,
      "nextGrpId": 2959033566
    },
    {
      "index": 12,
      "grpId": 2959033566,
      "nextGrpId": 2959033567
    },
    {
      "index": 13,
      "grpId": 2959033567,
      "nextGrpId": 2959033568
    },
    {
      "index": 14,
      "grpId": 2959033568,
      "nextGrpId": 2959033569
    },
    {
      "index": 15,
      "grpId": 2959033569,
      "nextGrpId": 2959033570
    },
    {
      "index": 16,
      "grpId": 2959033570,
      "nextGrpId": 2959033571
    },
    {
      "index": 17,
      "grpId": 2959033571,
      "nextGrpId": 2959033572
    },
    {
      "index": 18,
      "grpId": 2959033572,
      "nextGrpId": 2959033594
    },
    {
      "index": 19,
      "grpId": 2959033594,
      "nextGrpId": 2959033595
    },
    {
      "index": 20,
      "grpId": 2959033595,
      "nextGrpId": 2959033596
    },
    {
      "index": 21,
      "grpId": 2959033596,
      "nextGrpId": 2959033597
    },
    {
      "index": 22,
      "grpId": 2959033597,
      "nextGrpId": 2959033598
    },
    {
      "index": 23,
      "grpId": 2959033598,
      "nextGrpId": 2959033599
    },
    {
      "index": 24,
      "grpId": 2959033599,
      "nextGrpId": 2959033600
    },
    {
      "index": 25,
      "grpId": 2959033600,
      "nextGrpId": 2959033601
    },
    {
      "index": 26,
      "grpId": 2959033601,
      "nextGrpId": 2959033602
    },
    {
      "index": 27,
      "grpId": 2959033602,
      "nextGrpId": 2959033603
    },
    {
      "index": 28,
      "grpId": 2959033603,
      "nextGrpId": 2959033625
    },
    {
      "index": 29,
      "grpId": 2959033625,
      "nextGrpId": 2959033626
    },
    {
      "index": 30,
      "grpId": 2959033626,
      "nextGrpId": 2959033627
    },
    {
      "index": 31,
      "grpId": 2959033627,
      "nextGrpId": 2959033628
    },
    {
      "index": 32,
      "grpId": 2959033628,
      "nextGrpId": 2959033629
    },
    {
      "index": 33,
      "grpId": 2959033629,
      "nextGrpId": 2959033630
    },
    {
      "index": 34,
      "grpId": 2959033630,
      "nextGrpId": 2959033631
    },
    {
      "index": 35,
      "grpId": 2959033631,
      "nextGrpId": 2959033632
    },
    {
      "index": 36,
      "grpId": 2959033632,
      "nextGrpId": 2959033633
    },
    {
      "index": 37,
      "grpId": 2959033633,
      "nextGrpId": 2959033634
    },
    {
      "index": 38,
      "grpId": 2959033634,
      "nextGrpId": 2959033656
    },
    {
      "index": 39,
      "grpId": 2959033656,
      "nextGrpId": 2959033657
    },
    {
      "index": 40,
      "grpId": 2959033657,
      "nextGrpId": 2959033658
    },
    {
      "index": 41,
      "grpId": 2959033658,
      "nextGrpId": 2959033659
    },
    {
      "index": 42,
      "grpId": 2959033659,
      "nextGrpId": 2959033660
    }
  ],
  "freeStyleDic": {
    "20463": [
      4040,
      1172,
      1090,
      1173
    ]
  }
}