{
  "Keqing_SkillUpgrade_1": [
    {
      "$type": "CHIFLIJCPME",
      "abilityName": "Avatar_Keqing_NormalAttack_DamageHandler",
      "paramSpecial": "Attack_01",
      "paramDelta": "%1",
      "paramRatio": 0.0
    },
    {
      "$type": "CHIFLIJCPME",
      "abilityName": "Avatar_Keqing_NormalAttack_DamageHandler",
      "paramSpecial": "Attack_02",
      "paramDelta": "%2",
      "paramRatio": 0.0
    },
    {
      "$type": "CHIFLIJCPME",
      "abilityName": "Avatar_Keqing_NormalAttack_DamageHandler",
      "paramSpecial": "Attack_03",
      "paramDelta": "%3",
      "paramRatio": 0.0
    },
    {
      "$type": "CHIFLIJCPME",
      "abilityName": "Avatar_Keqing_NormalAttack_DamageHandler",
      "paramSpecial": "Attack_04_01",
      "paramDelta": "%4",
      "paramRatio": 0.0
    },
    {
      "$type": "CHIFLIJCPME",
      "abilityName": "Avatar_Keqing_NormalAttack_DamageHandler",
      "paramSpecial": "Attack_04_02",
      "paramDelta": "%5",
      "paramRatio": 0.0
    },
    {
      "$type": "CHIFLIJCPME",
      "abilityName": "Avatar_Keqing_NormalAttack_DamageHandler",
      "paramSpecial": "Attack_05",
      "paramDelta": "%6",
      "paramRatio": 0.0
    },
    {
      "$type": "CHIFLIJCPME",
      "abilityName": "Avatar_Keqing_NormalAttack_DamageHandler",
      "paramSpecial": "ExtraAttack1",
      "paramDelta": "%7"
    },
    {
      "$type": "CHIFLIJCPME",
      "abilityName": "Avatar_Keqing_NormalAttack_DamageHandler",
      "paramSpecial": "ExtraAttack2",
      "paramDelta": "%8"
    },
    {
      "$type": "CHIFLIJCPME",
      "abilityName": "Avatar_Keqing_ExtraAttack",
      "paramSpecial": "ExtraAttack_Sword_Stamina_Cost",
      "paramDelta": "%9",
      "paramRatio": 0.0
    },
    {
      "$type": "CHIFLIJCPME",
      "abilityName": "Avatar_Keqing_FallingAnthem",
      "paramSpecial": "FallingAnthem_Normal_Loop_Damage",
      "paramDelta": "%10"
    },
    {
      "$type": "CHIFLIJCPME",
      "abilityName": "Avatar_Keqing_FallingAnthem",
      "paramSpecial": "FallingAnthem_Normal_Rank_1_Damage",
      "paramDelta": "%11"
    },
    {
      "$type": "CHIFLIJCPME",
      "abilityName": "Avatar_Keqing_FallingAnthem",
      "paramSpecial": "FallingAnthem_Normal_Rank_2_Damage",
      "paramDelta": "%12"
    }
  ],
  "Keqing_SkillUpgrade_2": [
    {
      "$type": "CHIFLIJCPME",
      "abilityName": "Keqing_SkillBullet_Material",
      "paramSpecial": "Damage",
      "paramDelta": "%1",
      "paramRatio": 0.0
    },
    {
      "$type": "CHIFLIJCPME",
      "abilityName": "Avatar_Keqing_Electrans_Strike",
      "paramSpecial": "Damage",
      "paramDelta": "%2",
      "paramRatio": 0.0
    },
    {
      "$type": "CHIFLIJCPME",
      "abilityName": "Keqing_TrapBurst_Material",
      "paramSpecial": "Damage1",
      "paramDelta": "%3",
      "paramRatio": 0.0
    },
    {
      "$type": "CHIFLIJCPME",
      "abilityName": "Keqing_TrapBurst_Material",
      "paramSpecial": "Damage2",
      "paramDelta": "%3",
      "paramRatio": 0.0
    }
  ],
  "Keqing_SkillUpgrade_3": [
    {
      "$type": "CHIFLIJCPME",
      "abilityName": "Keqing_ElementalBurst_Gadget_StartAttack",
      "paramSpecial": "Damage_Start",
      "paramDelta": "%1",
      "paramRatio": 0.0
    },
    {
      "$type": "CHIFLIJCPME",
      "abilityName": "Keqing_ElementalBurst_Gadget_AttackType1",
      "paramSpecial": "Damage",
      "paramDelta": "%2",
      "paramRatio": 0.0
    },
    {
      "$type": "CHIFLIJCPME",
      "abilityName": "Keqing_ElementalBurst_Gadget_AttackType2",
      "paramSpecial": "Damage",
      "paramDelta": "%2",
      "paramRatio": 0.0
    },
    {
      "$type": "CHIFLIJCPME",
      "abilityName": "Keqing_ElementalBurst_Gadget_AttackType3",
      "paramSpecial": "Damage",
      "paramDelta": "%2",
      "paramRatio": 0.0
    },
    {
      "$type": "CHIFLIJCPME",
      "abilityName": "Keqing_ElementalBurst_Gadget_AttackType4",
      "paramSpecial": "Damage",
      "paramDelta": "%2",
      "paramRatio": 0.0
    },
    {
      "$type": "CHIFLIJCPME",
      "abilityName": "Keqing_ElementalBurst_Gadget_AttackType5",
      "paramSpecial": "Damage",
      "paramDelta": "%2",
      "paramRatio": 0.0
    },
    {
      "$type": "CHIFLIJCPME",
      "abilityName": "Keqing_ElementalBurst_Gadget_Material",
      "paramSpecial": "Damage_Last",
      "paramDelta": "%3",
      "paramRatio": 0.0
    }
  ],
  "Keqing_Constellation_1": [
    {
      "$type": "KFNGNPHDCGK",
      "abilityName": "Avatar_Keqing_Electrans_Part2",
      "talentParam": "Keqing_ElementalArt_BlinkAttack"
    },
    {
      "$type": "LIPCJEMPMCO",
      "abilityName": "Avatar_Keqing_Talent_Electrans_BlinkAttack1"
    },
    {
      "$type": "LIPCJEMPMCO",
      "abilityName": "Avatar_Keqing_Talent_Electrans_BlinkAttack2"
    },
    {
      "$type": "CHIFLIJCPME",
      "abilityName": "Avatar_Keqing_Talent_Electrans_BlinkAttack1",
      "paramSpecial": "Damage",
      "paramDelta": "%1"
    },
    {
      "$type": "CHIFLIJCPME",
      "abilityName": "Avatar_Keqing_Talent_Electrans_BlinkAttack2",
      "paramSpecial": "Damage",
      "paramDelta": "%1"
    }
  ],
  "Keqing_Constellation_2": [
    {
      "$type": "LIPCJEMPMCO",
      "abilityName": "Avatar_Keqing_DropBall_Talent"
    },
    {
      "$type": "CHIFLIJCPME",
      "abilityName": "Avatar_Keqing_DropBall_Talent",
      "paramSpecial": "Chance",
      "paramDelta": "%1"
    },
    {
      "$type": "CHIFLIJCPME",
      "abilityName": "Avatar_Keqing_DropBall_Talent",
      "paramSpecial": "CDTime",
      "paramDelta": "%2"
    }
  ],
  "Keqing_Constellation_3": [
    {
      "$type": "JFOIHGPJFMH",
      "talentType": "AvatarSkill",
      "talentIndex": 9,
      "extraLevel": 3
    }
  ],
  "Keqing_Constellation_4": [
    {
      "$type": "LIPCJEMPMCO",
      "abilityName": "Avatar_Keqing_ElecReaction_Talent"
    },
    {
      "$type": "CHIFLIJCPME",
      "abilityName": "Avatar_Keqing_ElecReaction_Talent",
      "paramSpecial": "Dura",
      "paramDelta": "%1"
    },
    {
      "$type": "CHIFLIJCPME",
      "abilityName": "Avatar_Keqing_ElecReaction_Talent",
      "paramSpecial": "AttackUp",
      "paramDelta": "%2"
    }
  ],
  "Keqing_Constellation_5": [
    {
      "$type": "JFOIHGPJFMH",
      "talentType": "AvatarSkill",
      "talentIndex": 2,
      "extraLevel": 3
    }
  ],
  "Keqing_Constellation_6": [
    {
      "$type": "LIPCJEMPMCO",
      "abilityName": "Avatar_Keqing_ElecUpWhenDoSkill_Talent"
    },
    {
      "$type": "CHIFLIJCPME",
      "abilityName": "Avatar_Keqing_ElecUpWhenDoSkill_Talent",
      "paramSpecial": "Rate",
      "paramDelta": "%1"
    },
    {
      "$type": "CHIFLIJCPME",
      "abilityName": "Avatar_Keqing_ElecUpWhenDoSkill_Talent",
      "paramSpecial": "Dura",
      "paramDelta": "%2"
    }
  ],
  "Keqing_PermanentSkill_1": [
    {
      "$type": "KFNGNPHDCGK",
      "abilityName": "Avatar_Keqing_Electrans_Part2",
      "talentParam": "Keqing_ElementalArt_AttackElectric"
    },
    {
      "$type": "CHIFLIJCPME",
      "abilityName": "Avatar_Keqing_Electrans_Part2",
      "paramSpecial": "Dura",
      "paramDelta": "%1"
    }
  ],
  "Keqing_PermanentSkill_2": [
    {
      "$type": "KFNGNPHDCGK",
      "abilityName": "Avatar_Keqing_ElementalBurst_Camera",
      "talentParam": "Keqing_ElementalBurst_Buff"
    },
    {
      "$type": "CHIFLIJCPME",
      "abilityName": "Avatar_Keqing_ElementalBurst_Camera",
      "paramSpecial": "Critic",
      "paramDelta": "%1"
    },
    {
      "$type": "CHIFLIJCPME",
      "abilityName": "Avatar_Keqing_ElementalBurst_Camera",
      "paramSpecial": "ChargeRatio",
      "paramDelta": "%2"
    },
    {
      "$type": "CHIFLIJCPME",
      "abilityName": "Avatar_Keqing_ElementalBurst_Camera",
      "paramSpecial": "Time",
      "paramDelta": "%3"
    }
  ]
}