{
  "Fischl_Talent_331": [
    {
      "$type": "LIPCJEMPMCO",
      "abilityName": "Avatar_Fischl_Talent_A_Show"
    },
    {
      "$type": "KFNGNPHDCGK",
      "abilityName": "Avatar_Fischl_ElectricalCrow_Crow_Attack",
      "talentParam": "Avatar_Fischl_Talent_A_CrowBallAttack"
    },
    {
      "$type": "CHIFLIJCPME",
      "abilityName": "Avatar_Fischl_Talent_A_NormalAttack_Hit",
      "paramSpecial": "AS_Fischl_Talent_331_Damage_AttackRatio",
      "paramDelta": "%1"
    }
  ],
  "Fischl_Talent_332": [
    {
      "$type": "KFNGNPHDCGK",
      "abilityName": "Ability_Fischl_Skill_S_CrowSummon",
      "talentParam": "Avatar_Fischl_Talent_B_CrowSummonAttack"
    },
    {
      "$type": "CHIFLIJCPME",
      "abilityName": "Ability_Fischl_Skill_S_CrowSummon",
      "paramSpecial": "AS_Fischl_Talent_332_Damage_AttackRatio",
      "paramDelta": "%1"
    },
    {
      "$type": "CHIFLIJCPME",
      "abilityName": "Ability_Fischl_Skill_S_ControlCrow_Show",
      "paramSpecial": "AS_Fischl_Talent_332_Damage_AttackRatio",
      "paramDelta": "%2"
    }
  ],
  "Fischl_Talent_S_Levelup": [
    {
      "$type": "JFOIHGPJFMH",
      "talentType": "AvatarSkill",
      "talentIndex": 2,
      "extraLevel": 3
    }
  ],
  "Fischl_Talent_334": [
    {
      "$type": "KFNGNPHDCGK",
      "abilityName": "Ability_Fischl_Skill_E_CrowQueen",
      "talentParam": "Avatar_Fischl_Talent_334_CrowHealHp"
    },
    {
      "$type": "CHIFLIJCPME",
      "abilityName": "Ability_Fischl_Skill_E_CrowQueen",
      "paramSpecial": "AS_Fischl_Talent_334_OnceDamage_AttackRatio",
      "paramDelta": "%1"
    },
    {
      "$type": "CHIFLIJCPME",
      "abilityName": "Ability_Fischl_Skill_E_CrowQueen",
      "paramSpecial": "AS_Fischl_Talent_334_HealHp_MaxHpRatio",
      "paramDelta": "%2"
    }
  ],
  "Fischl_Talent_E_Levelup": [
    {
      "$type": "JFOIHGPJFMH",
      "talentType": "AvatarSkill",
      "talentIndex": 9,
      "extraLevel": 3
    }
  ],
  "Fischl_Talent_336": [
    {
      "$type": "KFNGNPHDCGK",
      "abilityName": "Avatar_Fischl_Skill_S_Crow_Handle",
      "talentParam": "Avatar_Fischl_Talent_336_AssistAttack"
    },
    {
      "$type": "CHIFLIJCPME",
      "abilityName": "Avatar_Fischl_Talent_D_Crow_NormalAttack_01",
      "paramSpecial": "AS_Fischl_Talent_336_AttackRatio_AssistAttack",
      "paramDelta": "%1"
    },
    {
      "$type": "CHIFLIJCPME",
      "abilityName": "Avatar_Fischl_CrowSummon_Init",
      "paramSpecial": "AS_Fischl_Talent_Skill_S_TimeUp",
      "paramDelta": "%2"
    },
    {
      "$type": "CHIFLIJCPME",
      "abilityName": "Ability_Fischl_Skill_S_CrowSummon",
      "paramSpecial": "AS_Fischl_Talent_Skill_S_TimeUp",
      "paramDelta": "%2"
    }
  ],
  "Fischl_ProudSkill_21": [
    {
      "$type": "KFNGNPHDCGK",
      "abilityName": "Avatar_Fischl_ExtraAttack_Element_FindCrow",
      "talentParam": "Avatar_Fischl_ProudSkill_21_ExteaAttackThunder"
    },
    {
      "$type": "KFNGNPHDCGK",
      "abilityName": "Avatar_Fischl_ExtraAttack_Element_Hit",
      "talentParam": "Avatar_Fischl_ProudSkill_21_ExteaAttackThunder"
    },
    {
      "$type": "KFNGNPHDCGK",
      "abilityName": "Avatar_Fischl_Skill_S_Crow_Handle",
      "talentParam": "Avatar_Fischl_ProudSkill_21_ExteaAttackThunder"
    },
    {
      "$type": "CHIFLIJCPME",
      "abilityName": "Avatar_Fischl_Talent_ExteaAttackThunder_Hit",
      "paramSpecial": "AS_Fischl_ProudSkill_21_AttackRatio_ExteaAttackThunder",
      "paramDelta": "%1"
    }
  ],
  "Fischl_ProudSkill_22": [
    {
      "$type": "KFNGNPHDCGK",
      "abilityName": "Avatar_Fischl_Skill_S_Crow_Handle",
      "talentParam": "Avatar_Fischl_ProudSkill_ElementReaction"
    },
    {
      "$type": "CHIFLIJCPME",
      "abilityName": "Avatar_Fischl_ProudSkill_ElementReactionAttackThunder",
      "paramSpecial": "AS_Fischl_ProudSkill_22_ElementReactionAttack_AttackRatio",
      "paramDelta": "%1"
    }
  ],
  "Fischl_ProudSkill_31": [
    {
      "$type": "CHIFLIJCPME",
      "abilityName": "Effect_Fischl_ShootArrow_Trail_Light_Fx",
      "paramSpecial": "Fischl_ProudSkill_31_P1_Damage_Percentage",
      "paramDelta": "%1"
    },
    {
      "$type": "CHIFLIJCPME",
      "abilityName": "Effect_Fischl_ShootArrow_Trail_Light_Fx",
      "paramSpecial": "Fischl_ProudSkill_31_P2_Damage_Percentage",
      "paramDelta": "%2"
    },
    {
      "$type": "CHIFLIJCPME",
      "abilityName": "Effect_Fischl_ShootArrow_Trail_Light_Fx",
      "paramSpecial": "Fischl_ProudSkill_31_P4_Damage_Percentage",
      "paramDelta": "%4"
    },
    {
      "$type": "CHIFLIJCPME",
      "abilityName": "Effect_Fischl_ShootArrow_Trail_Fx",
      "paramSpecial": "Fischl_ProudSkill_31_P3_Damage_Percentage",
      "paramDelta": "%3"
    },
    {
      "$type": "CHIFLIJCPME",
      "abilityName": "Effect_Fischl_ShootArrow_Trail_Fx",
      "paramSpecial": "Fischl_ProudSkill_31_P5_Damage_Percentage",
      "paramDelta": "%5"
    },
    {
      "$type": "CHIFLIJCPME",
      "abilityName": "Avatar_Fischl_ExtraAttack_WithoutElement_Hit",
      "paramSpecial": "Fischl_ProudSkill_31_P6_ExtraAttack_WithoutElement_Damage_Percentage",
      "paramDelta": "%6"
    },
    {
      "$type": "CHIFLIJCPME",
      "abilityName": "Avatar_Fischl_ExtraAttack_Element_Hit",
      "paramSpecial": "Fischl_ProudSkill_31_P7_ChargeElementDamage_Percentage",
      "paramDelta": "%7"
    },
    {
      "$type": "CHIFLIJCPME",
      "abilityName": "Avatar_Fischl_Talent_ExteaAttackThunder_Hit",
      "paramSpecial": "Fischl_ProudSkill_31_P7_ChargeElementDamage_Percentage",
      "paramDelta": "%7"
    },
    {
      "$type": "CHIFLIJCPME",
      "abilityName": "Avatar_Fischl_FallingAnthem",
      "paramSpecial": "FallingAnthem_Normal_Loop_Damage",
      "paramDelta": "%8"
    },
    {
      "$type": "CHIFLIJCPME",
      "abilityName": "Avatar_Fischl_FallingAnthem",
      "paramSpecial": "FallingAnthem_Normal_Rank_1_Damage",
      "paramDelta": "%9"
    },
    {
      "$type": "CHIFLIJCPME",
      "abilityName": "Avatar_Fischl_FallingAnthem",
      "paramSpecial": "FallingAnthem_Normal_Rank_2_Damage",
      "paramDelta": "%10"
    }
  ],
  "Fischl_ProudSkill_32": [
    {
      "$type": "CHIFLIJCPME",
      "abilityName": "Avatar_Fischl_Skill_S_Crow_AutoAttack_Hit_01",
      "paramSpecial": "AS_Fischl_ProudSkill_32_Damage_AttackRatio",
      "paramDelta": "%1"
    },
    {
      "$type": "CHIFLIJCPME",
      "abilityName": "Ability_Fischl_Skill_S_CrowSummon",
      "paramSpecial": "AS_Fischl_ProudSkill_32_P2_SummonAttack",
      "paramDelta": "%2"
    },
    {
      "$type": "CHIFLIJCPME",
      "abilityName": "Avatar_Fischl_CrowSummon_Init",
      "paramSpecial": "AS_Fischl_ProudSkill_32_P4_Time",
      "paramDelta": "%4"
    },
    {
      "$type": "CHIFLIJCPME",
      "abilityName": "Ability_Fischl_Skill_S_CrowSummon",
      "paramSpecial": "AS_Fischl_ProudSkill_32_P4_Time",
      "paramDelta": "%4"
    }
  ],
  "Fischl_ProudSkill_33": [
    {
      "$type": "CHIFLIJCPME",
      "abilityName": "Ability_Fischl_Skill_E_CrowQueen",
      "paramSpecial": "AS_Fischl_ProudSkill_33_LoopDamage_AttackRatio",
      "paramDelta": "%1"
    }
  ]
}