{
  "Charlotte_SkillUpgrade_1": [
    {
      "$type": "CHIFLIJCPME",
      "abilityName": "Avatar_Charlotte_Attack01",
      "paramSpecial": "NormalAttack_01_Damage",
      "paramDelta": "%1",
      "paramRatio": 0.0
    },
    {
      "$type": "CHIFLIJCPME",
      "abilityName": "Avatar_Charlotte_Attack02",
      "paramSpecial": "NormalAttack_02_Damage",
      "paramDelta": "%2",
      "paramRatio": 0.0
    },
    {
      "$type": "CHIFLIJCPME",
      "abilityName": "SkillObj_Charlotte_NormalAttack_03",
      "paramSpecial": "NormalAttack_03_Damage",
      "paramDelta": "%3",
      "paramRatio": 0.0
    },
    {
      "$type": "CHIFLIJCPME",
      "abilityName": "Avatar_Charlotte_ExtraAttack_Gadget",
      "paramSpecial": "ExtraAttack_Damage",
      "paramDelta": "%4",
      "paramRatio": 0.0
    },
    {
      "$type": "CHIFLIJCPME",
      "abilityName": "Avatar_Charlotte_ExtraAttack",
      "paramSpecial": "ExtraAttack_Catalyst_Stamina_Cost",
      "paramDelta": "%5",
      "paramRatio": 0.0
    },
    {
      "$type": "CHIFLIJCPME",
      "abilityName": "Avatar_Charlotte_FallingAnthem",
      "paramSpecial": "FallingAnthem_Normal_Loop_Damage",
      "paramDelta": "%6"
    },
    {
      "$type": "CHIFLIJCPME",
      "abilityName": "Avatar_Charlotte_FallingAnthem",
      "paramSpecial": "FallingAnthem_Normal_Rank_1_Damage",
      "paramDelta": "%7"
    },
    {
      "$type": "CHIFLIJCPME",
      "abilityName": "Avatar_Charlotte_FallingAnthem",
      "paramSpecial": "FallingAnthem_Normal_Rank_2_Damage",
      "paramDelta": "%8"
    },
    {
      "$type": "CHIFLIJCPME",
      "abilityName": "Avatar_Charlotte_ExtraAttack_Gadget",
      "paramSpecial": "ExtraAttack_Arkhe_Ratio",
      "paramDelta": "%9",
      "paramRatio": 0.0
    },
    {
      "$type": "CHIFLIJCPME",
      "abilityName": "Avatar_Charlotte_ExtraAttack_Gadget",
      "paramSpecial": "ExtraAttack_Arkhe_CD",
      "paramDelta": "%10",
      "paramRatio": 0.0
    }
  ],
  "Charlotte_SkillUpgrade_2": [
    {
      "$type": "CHIFLIJCPME",
      "abilityName": "Avatar_Charlotte_ElementalArt_Click",
      "paramSpecial": "Click_Damage",
      "paramDelta": "%1",
      "paramRatio": 0.0
    },
    {
      "$type": "CHIFLIJCPME",
      "abilityName": "Avatar_Charlotte_ElementalArtHold_RayCast",
      "paramSpecial": "QuitHold_Damage",
      "paramDelta": "%2",
      "paramRatio": 0.0
    },
    {
      "$type": "CHIFLIJCPME",
      "abilityName": "Avatar_Charlotte_ElementalArtHold_RayCast",
      "paramSpecial": "ElementalArt_Dot_Weak_Damage",
      "paramDelta": "%3",
      "paramRatio": 0.0
    },
    {
      "$type": "CHIFLIJCPME",
      "abilityName": "Avatar_Charlotte_ElementalArtHold_RayCast",
      "paramSpecial": "ElementalArt_Dot_Weak_InterVal",
      "paramDelta": "%4",
      "paramRatio": 0.0
    },
    {
      "$type": "CHIFLIJCPME",
      "abilityName": "Avatar_Charlotte_ElementalArtHold_RayCast",
      "paramSpecial": "ElementalArt_Dot_Weak_Dura",
      "paramDelta": "%5",
      "paramRatio": 0.0
    },
    {
      "$type": "CHIFLIJCPME",
      "abilityName": "Avatar_Charlotte_ElementalArtHold_RayCast",
      "paramSpecial": "ElementalArt_Dot_Strong_Damage",
      "paramDelta": "%6",
      "paramRatio": 0.0
    },
    {
      "$type": "CHIFLIJCPME",
      "abilityName": "Avatar_Charlotte_ElementalArtHold_RayCast",
      "paramSpecial": "ElementalArt_Dot_Strong_InterVal",
      "paramDelta": "%7",
      "paramRatio": 0.0
    },
    {
      "$type": "CHIFLIJCPME",
      "abilityName": "Avatar_Charlotte_ElementalArtHold_RayCast",
      "paramSpecial": "ElementalArt_Dot_Strong_Dura",
      "paramDelta": "%8",
      "paramRatio": 0.0
    }
  ],
  "Charlotte_SkillUpgrade_3": [
    {
      "$type": "CHIFLIJCPME",
      "abilityName": "Avatar_Charlotte_ElementalBurst",
      "paramSpecial": "Heal_Ratio_Once",
      "paramDelta": "%1",
      "paramRatio": 0.0
    },
    {
      "$type": "CHIFLIJCPME",
      "abilityName": "Avatar_Charlotte_ElementalBurst",
      "paramSpecial": "Heal_Const_Once",
      "paramDelta": "%2",
      "paramRatio": 0.0
    },
    {
      "$type": "CHIFLIJCPME",
      "abilityName": "SkillObj_Charlotte_ElementalBurst_Stage",
      "paramSpecial": "ElementalBurst_DamOnceRatio",
      "paramDelta": "%3",
      "paramRatio": 0.0
    },
    {
      "$type": "CHIFLIJCPME",
      "abilityName": "SkillObj_Charlotte_ElementalBurst_Stage",
      "paramSpecial": "Stage_HealRatio",
      "paramDelta": "%4",
      "paramRatio": 0.0
    },
    {
      "$type": "CHIFLIJCPME",
      "abilityName": "SkillObj_Charlotte_ElementalBurst_Stage",
      "paramSpecial": "Stage_HealConst",
      "paramDelta": "%5",
      "paramRatio": 0.0
    },
    {
      "$type": "CHIFLIJCPME",
      "abilityName": "SkillObj_Charlotte_ElementalBurst_Stage",
      "paramSpecial": "Stage_DamRatio",
      "paramDelta": "%6",
      "paramRatio": 0.0
    }
  ],
  "Charlotte_Constellation_1": [
    {
      "$type": "LIPCJEMPMCO",
      "abilityName": "Avatar_Charlotte_Constellation_Extra_Hot"
    },
    {
      "$type": "CHIFLIJCPME",
      "abilityName": "Avatar_Charlotte_Constellation_Extra_Hot",
      "paramSpecial": "Constellation_ExtraHot_HealRatio",
      "paramDelta": "%2"
    },
    {
      "$type": "CHIFLIJCPME",
      "abilityName": "Avatar_Charlotte_Constellation_Extra_Hot",
      "paramSpecial": "Constellation_AddExtraHot_InterVal",
      "paramDelta": "%1"
    },
    {
      "$type": "CHIFLIJCPME",
      "abilityName": "Avatar_Charlotte_Constellation_Extra_Hot",
      "paramSpecial": "Constellation_AddExtraHot_Dura",
      "paramDelta": "%3"
    }
  ],
  "Charlotte_Constellation_2": [
    {
      "$type": "LIPCJEMPMCO",
      "abilityName": "Avatar_Charlotte_Constellation_ElementalArt_AddAtkUp"
    },
    {
      "$type": "CHIFLIJCPME",
      "abilityName": "Avatar_Charlotte_Constellation_ElementalArt_AddAtkUp",
      "paramSpecial": "Ratio_Lv1",
      "paramDelta": "%1"
    },
    {
      "$type": "CHIFLIJCPME",
      "abilityName": "Avatar_Charlotte_Constellation_ElementalArt_AddAtkUp",
      "paramSpecial": "Ratio_Lv2",
      "paramDelta": "%2"
    },
    {
      "$type": "CHIFLIJCPME",
      "abilityName": "Avatar_Charlotte_Constellation_ElementalArt_AddAtkUp",
      "paramSpecial": "Ratio_Lv3",
      "paramDelta": "%3"
    },
    {
      "$type": "CHIFLIJCPME",
      "abilityName": "Avatar_Charlotte_Constellation_ElementalArt_AddAtkUp",
      "paramSpecial": "Dura",
      "paramDelta": "%4"
    }
  ],
  "Charlotte_Constellation_3": [
    {
      "$type": "JFOIHGPJFMH",
      "talentType": "AvatarSkill",
      "talentIndex": 9,
      "extraLevel": 3
    }
  ],
  "Charlotte_Constellation_4": [
    {
      "$type": "LIPCJEMPMCO",
      "abilityName": "Avatar_Charlotte_Constellation_ReviveElemEnergy"
    },
    {
      "$type": "CHIFLIJCPME",
      "abilityName": "Avatar_Charlotte_Constellation_ReviveElemEnergy",
      "paramSpecial": "Burst_DamageUp",
      "paramDelta": "%1"
    },
    {
      "$type": "CHIFLIJCPME",
      "abilityName": "Avatar_Charlotte_Constellation_ReviveElemEnergy",
      "paramSpecial": "CDTime",
      "paramDelta": "%3"
    },
    {
      "$type": "CHIFLIJCPME",
      "abilityName": "Avatar_Charlotte_Constellation_ReviveElemEnergy",
      "paramSpecial": "MaxCount",
      "paramDelta": "%4"
    }
  ],
  "Charlotte_Constellation_5": [
    {
      "$type": "JFOIHGPJFMH",
      "talentType": "AvatarSkill",
      "talentIndex": 2,
      "extraLevel": 3
    }
  ],
  "Charlotte_Constellation_6": [
    {
      "$type": "CHIFLIJCPME",
      "abilityName": "Avatar_Charlotte_Constellation_ExtraCamera_Gadget",
      "paramSpecial": "Constellation_ExtraCameraDamage",
      "paramDelta": "%1"
    },
    {
      "$type": "CHIFLIJCPME",
      "abilityName": "Avatar_Charlotte_Constellation_ExtraCamera_Gadget",
      "paramSpecial": "ExtraCamera_HealRatio",
      "paramDelta": "%2"
    },
    {
      "$type": "CHIFLIJCPME",
      "abilityName": "Avatar_Charlotte_ElementalArtHold_RayCast",
      "paramSpecial": "Trigger_CD",
      "paramDelta": "%3"
    },
    {
      "$type": "KFNGNPHDCGK",
      "abilityName": "Avatar_Charlotte_ElementalArtHold_RayCast",
      "talentParam": "Avatar_Charlotte_Constellation_6"
    }
  ],
  "Charlotte_PermanentSkill_1": [
    {
      "$type": "LIPCJEMPMCO",
      "abilityName": "Avatar_Charlotte_PermanentSkill_1"
    },
    {
      "$type": "CHIFLIJCPME",
      "abilityName": "Avatar_Charlotte_PermanentSkill_1",
      "paramSpecial": "Art_CD",
      "paramDelta": "%1"
    },
    {
      "$type": "CHIFLIJCPME",
      "abilityName": "Avatar_Charlotte_PermanentSkill_1",
      "paramSpecial": "TimeLimit",
      "paramDelta": "%2"
    },
    {
      "$type": "CHIFLIJCPME",
      "abilityName": "Avatar_Charlotte_PermanentSkill_1",
      "paramSpecial": "Count",
      "paramDelta": "%3"
    }
  ],
  "Charlotte_PermanentSkill_2": [
    {
      "$type": "LIPCJEMPMCO",
      "abilityName": "Avatar_Charlotte_PermanentSkill_2"
    },
    {
      "$type": "CHIFLIJCPME",
      "abilityName": "Avatar_Charlotte_PermanentSkill_2",
      "paramSpecial": "HealAddDelta_P1",
      "paramDelta": "%1"
    },
    {
      "$type": "CHIFLIJCPME",
      "abilityName": "Avatar_Charlotte_PermanentSkill_2",
      "paramSpecial": "IceAddHurtDelta_P2",
      "paramDelta": "%2"
    }
  ]
}