{
  "PlayerBoy_Grass_SkillUpgrade_1": [
    {
      "$type": "CHIFLIJCPME",
      "abilityName": "Avatar_PlayerBoy_NormalAttack_DamageHandler",
      "paramSpecial": "NormalAttack_01_DamagePercentage",
      "paramDelta": "%1"
    },
    {
      "$type": "CHIFLIJCPME",
      "abilityName": "Avatar_PlayerBoy_NormalAttack_DamageHandler",
      "paramSpecial": "NormalAttack_02_DamagePercentage",
      "paramDelta": "%2"
    },
    {
      "$type": "CHIFLIJCPME",
      "abilityName": "Avatar_PlayerBoy_NormalAttack_DamageHandler",
      "paramSpecial": "NormalAttack_03_DamagePercentage",
      "paramDelta": "%3"
    },
    {
      "$type": "CHIFLIJCPME",
      "abilityName": "Avatar_PlayerBoy_NormalAttack_DamageHandler",
      "paramSpecial": "NormalAttack_04_DamagePercentage",
      "paramDelta": "%4"
    },
    {
      "$type": "CHIFLIJCPME",
      "abilityName": "Avatar_PlayerBoy_NormalAttack_DamageHandler",
      "paramSpecial": "NormalAttack_05_DamagePercentage",
      "paramDelta": "%5"
    },
    {
      "$type": "CHIFLIJCPME",
      "abilityName": "Avatar_PlayerBoy_NormalAttack_DamageHandler",
      "paramSpecial": "ExtraAttack_01_DamagePercentage",
      "paramDelta": "%6"
    },
    {
      "$type": "CHIFLIJCPME",
      "abilityName": "Avatar_PlayerBoy_NormalAttack_DamageHandler",
      "paramSpecial": "ExtraAttack_02_DamagePercentage",
      "paramDelta": "%7"
    },
    {
      "$type": "CHIFLIJCPME",
      "abilityName": "Avatar_PlayerBoy_ExtraAttack_Grass",
      "paramSpecial": "ExtraAttack_Sword_Stamina_Cost",
      "paramDelta": "%8"
    },
    {
      "$type": "CHIFLIJCPME",
      "abilityName": "Avatar_PlayerBoy_FallingAnthem",
      "paramSpecial": "FallingAnthem_Normal_Loop_Damage",
      "paramDelta": "%9"
    },
    {
      "$type": "CHIFLIJCPME",
      "abilityName": "Avatar_PlayerBoy_FallingAnthem",
      "paramSpecial": "FallingAnthem_Normal_Rank_1_Damage",
      "paramDelta": "%10"
    },
    {
      "$type": "CHIFLIJCPME",
      "abilityName": "Avatar_PlayerBoy_FallingAnthem",
      "paramSpecial": "FallingAnthem_Normal_Rank_2_Damage",
      "paramDelta": "%11"
    }
  ],
  "PlayerGirl_Grass_SkillUpgrade_1": [
    {
      "$type": "CHIFLIJCPME",
      "abilityName": "Avatar_PlayerGirl_NormalAttack_DamageHandler",
      "paramSpecial": "NormalAttack_01_DamagePercentage",
      "paramDelta": "%1"
    },
    {
      "$type": "CHIFLIJCPME",
      "abilityName": "Avatar_PlayerGirl_NormalAttack_DamageHandler",
      "paramSpecial": "NormalAttack_02_DamagePercentage",
      "paramDelta": "%2"
    },
    {
      "$type": "CHIFLIJCPME",
      "abilityName": "Avatar_PlayerGirl_NormalAttack_DamageHandler",
      "paramSpecial": "NormalAttack_03_DamagePercentage",
      "paramDelta": "%3"
    },
    {
      "$type": "CHIFLIJCPME",
      "abilityName": "Avatar_PlayerGirl_NormalAttack_DamageHandler",
      "paramSpecial": "NormalAttack_04_DamagePercentage",
      "paramDelta": "%4"
    },
    {
      "$type": "CHIFLIJCPME",
      "abilityName": "Avatar_PlayerGirl_NormalAttack_DamageHandler",
      "paramSpecial": "NormalAttack_05_DamagePercentage",
      "paramDelta": "%5"
    },
    {
      "$type": "CHIFLIJCPME",
      "abilityName": "Avatar_PlayerGirl_NormalAttack_DamageHandler",
      "paramSpecial": "ExtraAttack_01_DamagePercentage",
      "paramDelta": "%6"
    },
    {
      "$type": "CHIFLIJCPME",
      "abilityName": "Avatar_PlayerGirl_NormalAttack_DamageHandler",
      "paramSpecial": "ExtraAttack_02_DamagePercentage",
      "paramDelta": "%7"
    },
    {
      "$type": "CHIFLIJCPME",
      "abilityName": "Avatar_PlayerGirl_ExtraAttack_Grass",
      "paramSpecial": "ExtraAttack_Sword_Stamina_Cost",
      "paramDelta": "%8"
    },
    {
      "$type": "CHIFLIJCPME",
      "abilityName": "Avatar_PlayerGirl_FallingAnthem",
      "paramSpecial": "FallingAnthem_Normal_Loop_Damage",
      "paramDelta": "%9"
    },
    {
      "$type": "CHIFLIJCPME",
      "abilityName": "Avatar_PlayerGirl_FallingAnthem",
      "paramSpecial": "FallingAnthem_Normal_Rank_1_Damage",
      "paramDelta": "%10"
    },
    {
      "$type": "CHIFLIJCPME",
      "abilityName": "Avatar_PlayerGirl_FallingAnthem",
      "paramSpecial": "FallingAnthem_Normal_Rank_2_Damage",
      "paramDelta": "%11"
    }
  ],
  "Player_Grass_Constellation_1": [
    {
      "$type": "KFNGNPHDCGK",
      "abilityName": "Avatar_PlayerBoy_ElementalArt_Grass",
      "talentParam": "Player_Grass_ElementArt_Energy_Recover_Talent_1"
    },
    {
      "$type": "CHIFLIJCPME",
      "abilityName": "Avatar_PlayerBoy_ElementalArt_Grass",
      "paramSpecial": "Element_Recover_By_Talent_1",
      "paramDelta": "%1"
    }
  ],
  "Player_Grass_Constellation_2": [
    {
      "$type": "KFNGNPHDCGK",
      "abilityName": "Avatar_Player_Grass_Seed_Gadget",
      "talentParam": "Player_Grass_Seed_Prolong_Talent_2"
    },
    {
      "$type": "CHIFLIJCPME",
      "abilityName": "Avatar_Player_Grass_Seed_Gadget",
      "paramSpecial": "Grass_Seed_Duration",
      "paramDelta": "%1"
    }
  ],
  "Player_Grass_Constellation_3": [
    {
      "$type": "JFOIHGPJFMH",
      "talentType": "AvatarSkill",
      "talentIndex": 2,
      "extraLevel": 3
    }
  ],
  "Player_Grass_Constellation_4": [
    {
      "$type": "KFNGNPHDCGK",
      "abilityName": "Avatar_Player_Grass_Permanent_Skill_1",
      "talentParam": "Player_Grass_Seed_Aura_Up_Talent_4"
    }
  ],
  "Player_Grass_Constellation_5": [
    {
      "$type": "JFOIHGPJFMH",
      "talentType": "AvatarSkill",
      "talentIndex": 9,
      "extraLevel": 3
    }
  ],
  "Player_Grass_Constellation_6": [
    {
      "$type": "KFNGNPHDCGK",
      "abilityName": "Avatar_Player_Grass_Permanent_Skill_1",
      "talentParam": "Player_Grass_Seed_Aura_Extra_Talent_6"
    },
    {
      "$type": "CHIFLIJCPME",
      "abilityName": "Avatar_Player_Grass_Permanent_Skill_1",
      "paramSpecial": "Elemental_Damage_Up_Ratio",
      "paramDelta": "%1"
    }
  ],
  "Player_Grass_PermanentSkill_1": [
    {
      "$type": "KFNGNPHDCGK",
      "abilityName": "Avatar_Player_Grass_Permanent_Skill_1",
      "talentParam": "Player_Grass_Seed_Aura_Permanent_Skill_1"
    },
    {
      "$type": "CHIFLIJCPME",
      "abilityName": "Avatar_Player_Grass_Permanent_Skill_1",
      "paramSpecial": "Grass_Seed_Element_Mastery_Up",
      "paramDelta": "%1"
    }
  ],
  "Player_Grass_PermanentSkill_2": [
    {
      "$type": "LIPCJEMPMCO",
      "abilityName": "Avatar_Player_Grass_Damage_Up_By_Element_Mastery"
    },
    {
      "$type": "CHIFLIJCPME",
      "abilityName": "Avatar_Player_Grass_Damage_Up_By_Element_Mastery",
      "paramSpecial": "Element_Mastery_Transform_To_ElementArt_Damage_Ratio",
      "paramDelta": "%1"
    },
    {
      "$type": "CHIFLIJCPME",
      "abilityName": "Avatar_Player_Grass_Damage_Up_By_Element_Mastery",
      "paramSpecial": "Element_Mastery_Transform_To_ElementBurst_Damage_Ratio",
      "paramDelta": "%2"
    }
  ],
  "Player_Grass_SkillUpgrade_1": [
    {
      "$type": "CHIFLIJCPME",
      "abilityName": "Avatar_PlayerBoy_ElementalArt_Grass",
      "paramSpecial": "ElementArt_Damage",
      "paramDelta": "%1"
    }
  ],
  "Player_Grass_SkillUpgrade_2": [
    {
      "$type": "CHIFLIJCPME",
      "abilityName": "Avatar_Player_Grass_Seed_Gadget",
      "paramSpecial": "Grass_Seed_Damage_Ratio",
      "paramDelta": "%1"
    },
    {
      "$type": "CHIFLIJCPME",
      "abilityName": "Avatar_Player_Grass_Seed_Gadget",
      "paramSpecial": "Grass_Seed_Fire_Boom_Ratio",
      "paramDelta": "%2"
    },
    {
      "$type": "CHIFLIJCPME",
      "abilityName": "Avatar_Player_Grass_Seed_Gadget",
      "paramSpecial": "Grass_Seed_Duration",
      "paramDelta": "%5"
    }
  ]
}