{
  "Ganyu_Constellation_1": [
    {
      "$type": "KFNGNPHDCGK",
      "abilityName": "Bullet_Ganyu_ShootArrow_WithIce_BeforeFission",
      "talentParam": "PerfectFission"
    },
    {
      "$type": "CHIFLIJCPME",
      "abilityName": "Bullet_Ganyu_ShootArrow_WithIce_BeforeFission",
      "paramSpecial": "Ganyu_IceSubHurt",
      "paramDelta": "%1"
    },
    {
      "$type": "CHIFLIJCPME",
      "abilityName": "Bullet_Ganyu_ShootArrow_WithIce_BeforeFission",
      "paramSpecial": "Ganyu_IceSubHurtTime",
      "paramDelta": "%2"
    },
    {
      "$type": "CHIFLIJCPME",
      "abilityName": "Avatar_Ganyu_Fission_GainEnergy",
      "paramSpecial": "Ganyu_Fission_GainEnergy",
      "paramDelta": "%3"
    }
  ],
  "Ganyu_Constellation_2": [
    {
      "$type": "AJFNLFLMLFI",
      "skillID": 10372,
      "pointDelta": 1
    }
  ],
  "Ganyu_Constellation_3": [
    {
      "$type": "JFOIHGPJFMH",
      "talentType": "AvatarSkill",
      "talentIndex": 9,
      "extraLevel": 3
    }
  ],
  "Ganyu_Constellation_4": [
    {
      "$type": "KFNGNPHDCGK",
      "abilityName": "SkillObj_Ganyu_UnbreakableIce_Dummy",
      "talentParam": "SubHurtWithTime"
    }
  ],
  "Ganyu_Constellation_5": [
    {
      "$type": "JFOIHGPJFMH",
      "talentType": "AvatarSkill",
      "talentIndex": 2,
      "extraLevel": 3
    }
  ],
  "Ganyu_Constellation_6": [
    {
      "$type": "KFNGNPHDCGK",
      "abilityName": "Avatar_Ganyu_IceBreaker",
      "talentParam": "QuickBloom"
    }
  ],
  "Ganyu_PermanentSkill_1": [
    {
      "$type": "KFNGNPHDCGK",
      "abilityName": "Bullet_Ganyu_ShootArrow_WithIce_BeforeFission",
      "talentParam": "CriticalFission"
    },
    {
      "$type": "CHIFLIJCPME",
      "abilityName": "Avatar_Ganyu_EnchantedFission",
      "paramSpecial": "EnchantedFission_Timer",
      "paramDelta": "%1"
    },
    {
      "$type": "CHIFLIJCPME",
      "abilityName": "Bullet_Ganyu_ShootArrow_WithIce_BeforeFission",
      "paramSpecial": "FissionBonusCritical",
      "paramDelta": "%2"
    },
    {
      "$type": "CHIFLIJCPME",
      "abilityName": "Bullet_Ganyu_ShootArrow_WithIce_AfterFission",
      "paramSpecial": "FissionBonusCritical",
      "paramDelta": "%2"
    }
  ],
  "Ganyu_PermanentSkill_2": [
    {
      "$type": "KFNGNPHDCGK",
      "abilityName": "SkillObj_Ganyu_UnbreakableIce_Dummy",
      "talentParam": "IceAttackUp"
    },
    {
      "$type": "CHIFLIJCPME",
      "abilityName": "SkillObj_Ganyu_UnbreakableIce_Dummy",
      "paramSpecial": "Ganyu_IceAdd",
      "paramDelta": "%1"
    }
  ],
  "Ganyu_SkillUpgrade_1": [
    {
      "$type": "CHIFLIJCPME",
      "abilityName": "Bullet_Ganyu_ShootArrow",
      "paramSpecial": "NormalAttack_01_DamagePercentage",
      "paramDelta": "%1"
    },
    {
      "$type": "CHIFLIJCPME",
      "abilityName": "Bullet_Ganyu_ShootArrow",
      "paramSpecial": "NormalAttack_02_DamagePercentage",
      "paramDelta": "%2"
    },
    {
      "$type": "CHIFLIJCPME",
      "abilityName": "Bullet_Ganyu_ShootArrow",
      "paramSpecial": "NormalAttack_03_DamagePercentage",
      "paramDelta": "%3"
    },
    {
      "$type": "CHIFLIJCPME",
      "abilityName": "Bullet_Ganyu_ShootArrow",
      "paramSpecial": "NormalAttack_04_DamagePercentage",
      "paramDelta": "%4"
    },
    {
      "$type": "CHIFLIJCPME",
      "abilityName": "Bullet_Ganyu_ShootArrow",
      "paramSpecial": "NormalAttack_05_DamagePercentage",
      "paramDelta": "%5"
    },
    {
      "$type": "CHIFLIJCPME",
      "abilityName": "Bullet_Ganyu_ShootArrow",
      "paramSpecial": "NormalAttack_06_DamagePercentage",
      "paramDelta": "%6"
    },
    {
      "$type": "CHIFLIJCPME",
      "abilityName": "Avatar_Ganyu_ShootArrow_Enchanted_WithoutIce",
      "paramSpecial": "DamageWithoutIce",
      "paramDelta": "%7"
    },
    {
      "$type": "CHIFLIJCPME",
      "abilityName": "Bullet_Ganyu_ShootArrow_WithIce",
      "paramSpecial": "DamageWithIce",
      "paramDelta": "%8"
    },
    {
      "$type": "CHIFLIJCPME",
      "abilityName": "Bullet_Ganyu_ShootArrow_WithIce_BeforeFission",
      "paramSpecial": "DamageWithIce_BeforeFission",
      "paramDelta": "%9"
    },
    {
      "$type": "CHIFLIJCPME",
      "abilityName": "Bullet_Ganyu_ShootArrow_WithIce_AfterFission",
      "paramSpecial": "DamageWithIce_AfterFission",
      "paramDelta": "%10"
    },
    {
      "$type": "CHIFLIJCPME",
      "abilityName": "Avatar_Ganyu_FallingAnthem",
      "paramSpecial": "FallingAnthem_Normal_Loop_Damage",
      "paramDelta": "%11"
    },
    {
      "$type": "CHIFLIJCPME",
      "abilityName": "Avatar_Ganyu_FallingAnthem",
      "paramSpecial": "FallingAnthem_Normal_Rank_1_Damage",
      "paramDelta": "%12"
    },
    {
      "$type": "CHIFLIJCPME",
      "abilityName": "Avatar_Ganyu_FallingAnthem",
      "paramSpecial": "FallingAnthem_Normal_Rank_2_Damage",
      "paramDelta": "%13"
    }
  ],
  "Ganyu_SkillUpgrade_2": [
    {
      "$type": "CHIFLIJCPME",
      "abilityName": "SkillObj_Ganyu_IceBreaker_Dummy",
      "paramSpecial": "MaxHPRatio",
      "paramDelta": "%1"
    },
    {
      "$type": "CHIFLIJCPME",
      "abilityName": "SkillObj_Ganyu_IceBreaker_Dummy",
      "paramSpecial": "damage",
      "paramDelta": "%2"
    },
    {
      "$type": "CHIFLIJCPME",
      "abilityName": "SkillObj_Ganyu_IceBreaker_Dummy_EndBoom",
      "paramSpecial": "damage",
      "paramDelta": "%2"
    }
  ],
  "Ganyu_SkillUpgrade_3": [
    {
      "$type": "CHIFLIJCPME",
      "abilityName": "Bullet_Ganyu_UnbreakableIce_Iceberg1",
      "paramSpecial": "damage",
      "paramDelta": "%1"
    }
  ]
}