{
  "luaDataPath": "",
  "dontUseDefaultFinish": true,
  "startBlackKeepTime": 0.5,
  "entityBan": "",
  "disableNpcLod": true,
  "isAutoBanNpc": true,
  "isBanWidgetPet": true,
  "protectNpcMobileLod": true,
  "talkFlag": 7,
  "startFade": {
    "startFadeInDuration": 0.5,
    "startFadeOutDuration": 0.5
  },
  "endFade": {
    "startFadeOutDuration": 0.5
  },
  "actors": [
    {
      "alias": "Avatar",
      "visible": true,
      "bornPointName": "Q2401101_N5084",
      "relativePosType": "AVATAR_NEW",
      "relativePosNpcAlias": "",
      "_bindMovingTargetKey": ""
    },
    {
      "alias": "AvatarNpc",
      "visible": true,
      "bornPointName": "Q2401101_N5084",
      "removeActorType": "NEW_REMOVE",
      "relativePosType": "AVATAR_NEW",
      "relativePosNpcAlias": "",
      "_bindMovingTargetKey": ""
    },
    {
      "configID": 5084,
      "alias": "5084",
      "visible": true,
      "bornPointName": "Q2401101_N5084",
      "forceCreateDaily": true,
      "relativePosType": "AVATAR_NEW",
      "relativePosNpcAlias": "",
      "_bindMovingTargetKey": ""
    },
    {
      "configID": 1005,
      "alias": "1005",
      "visible": true,
      "bornPointName": "Q2401101_N5084",
      "removeActorType": "NEW_REMOVE_WITH_DISAPPEAR",
      "relativePosType": "AVATAR_NEW",
      "relativePosNpcAlias": "",
      "_bindMovingTargetKey": ""
    },
    {
      "configID": 13555,
      "alias": "13555",
      "visible": true,
      "bornPointName": "[3_5570:3618.010,510.662,4714.210,0.000,103.578,0.000]",
      "removeActorType": "NEW_REMOVE",
      "relativePosType": "AVATAR_NEW",
      "relativePosNpcAlias": "",
      "_bindMovingTargetKey": ""
    }
  ],
  "group": [
    [
      {
        "$type": "MoleMole.Config.ConfigTimeProtectAction",
        "type": "TIME_PROTECT",
        "duration": 1.0,
        "actionId": 104
      },
      {
        "$type": "MoleMole.Config.ConfigBlackScreenAction",
        "type": "BLACK_SCREEN",
        "duration": 1.0,
        "actionId": 121,
        "_flag": 2048,
        "blackScreenType": "KEEP_BLACK",
        "durationToBlack": 0.5,
        "durationKeepBlack": 1.0,
        "durationFromBlack": 0.5,
        "inteePos": "",
        "textMapID": "",
        "useTextFade": true
      },
      {
        "$type": "MoleMole.Config.ConfigSitOrStandAction",
        "type": "SIT_OR_STAND",
        "aliasList": [
          "Avatar"
        ],
        "actionId": 125,
        "_flag": 8192,
        "banResetFreestyle": true
      },
      {
        "$type": "MoleMole.Config.ConfigVisibleInterAction",
        "type": "VISIBLE",
        "aliasList": [
          "Avatar"
        ],
        "actionId": 131,
        "_extraParam": ""
      },
      {
        "$type": "MoleMole.Config.ConfigTeleportToAction",
        "type": "TELEPORT_TO",
        "aliasList": [
          "Avatar"
        ],
        "actionId": 144,
        "position": {
          "x": 3620.74609375,
          "y": 510.6619873046875,
          "z": 4711.85205078125
        },
        "forward": {
          "x": -2.9000000953674316,
          "y": 0.07999999821186066,
          "z": 2.5139999389648438
        },
        "openLongDisTeleport": true,
        "_posBindMovingTargetKey": "",
        "_forwardBindMovingTargetKey": ""
      },
      {
        "$type": "MoleMole.Config.ConfigTeleportToAction",
        "type": "TELEPORT_TO",
        "aliasList": [
          "AvatarNpc"
        ],
        "actionId": 124,
        "position": {
          "x": 3620.74609375,
          "y": 510.6619873046875,
          "z": 4711.85205078125
        },
        "forward": {
          "x": -2.9000000953674316,
          "y": 0.07999999821186066,
          "z": 2.5139999389648438
        },
        "openLongDisTeleport": true,
        "_posBindMovingTargetKey": "",
        "_forwardBindMovingTargetKey": ""
      },
      {
        "$type": "MoleMole.Config.ConfigPlayerNPCEnergyTypeAction",
        "type": "SET_PLAYER_NPC_ENERGY_TYPE",
        "aliasList": [
          "AvatarNpc"
        ],
        "actionId": 126,
        "setHeroEngergyType": true
      },
      {
        "$type": "EDCHPJLDKIN",
        "type": "BODY_LANG",
        "aliasList": [
          "AvatarNpc"
        ],
        "actionId": 127,
        "isContinue": true,
        "forceDoFreeStyle": true,
        "canDoRepeatFreeStyle": false,
        "eventPatternSuiteKey": ""
      },
      {
        "$type": "EDCHPJLDKIN",
        "type": "BODY_LANG",
        "aliasList": [
          "5084"
        ],
        "actionId": 114,
        "isContinue": true,
        "forceDoFreeStyle": true,
        "canDoRepeatFreeStyle": false,
        "eventPatternSuiteKey": ""
      },
      {
        "$type": "MoleMole.Config.ConfigTeleportToAction",
        "type": "TELEPORT_TO",
        "aliasList": [
          "5084"
        ],
        "actionId": 119,
        "position": {
          "x": 3625.032958984375,
          "y": 510.6619873046875,
          "z": 4711.68017578125
        },
        "forward": {
          "x": -6.789000034332275,
          "y": 0.1720000058412552,
          "z": 2.2839999198913574
        },
        "openLongDisTeleport": true,
        "_posBindMovingTargetKey": "",
        "_forwardBindMovingTargetKey": ""
      },
      {
        "$type": "EDCHPJLDKIN",
        "type": "BODY_LANG",
        "aliasList": [
          "1005"
        ],
        "actionId": 116,
        "isContinue": true,
        "forceDoFreeStyle": true,
        "canDoRepeatFreeStyle": false,
        "eventPatternSuiteKey": ""
      },
      {
        "$type": "MoleMole.Config.ConfigTeleportToAction",
        "type": "TELEPORT_TO",
        "aliasList": [
          "1005"
        ],
        "actionId": 120,
        "position": {
          "x": 3620.5009765625,
          "y": 510.71600341796875,
          "z": 4711.12109375
        },
        "forward": {
          "x": -2.513000011444092,
          "y": -0.05700000002980232,
          "z": 3.066999912261963
        },
        "openLongDisTeleport": true,
        "_posBindMovingTargetKey": "",
        "_forwardBindMovingTargetKey": ""
      },
      {
        "$type": "MoleMole.Config.ConfigTeleportToAction",
        "type": "TELEPORT_TO",
        "aliasList": [
          "13555"
        ],
        "actionId": 145,
        "position": {
          "x": 3612.716064453125,
          "y": 510.6619873046875,
          "z": 4718.705078125
        },
        "forward": {
          "x": 3.5450000762939453,
          "y": 0.07500000298023224,
          "z": -2.937999963760376
        },
        "openLongDisTeleport": true,
        "_posBindMovingTargetKey": "",
        "_forwardBindMovingTargetKey": ""
      }
    ],
    [
      {
        "$type": "EFHODGEJOHJ",
        "type": "CAMERA_MOVE",
        "duration": 0.5,
        "actionId": 154,
        "camPosOffset": {
          "x": 3623.910888671875,
          "y": 514.3480224609375,
          "z": 4710.69384765625
        },
        "camForwardTargetOffset": {
          "x": 3623.157958984375,
          "y": 513.875,
          "z": 4711.15185546875
        },
        "camFov": 53.356998443603516,
        "lerpPattern": 6,
        "cameraBlendType": "EaseInOutCubic",
        "MDKBPBJCMHH": {},
        "openCameraDither": false,
        "targetNpcAlias": "",
        "closeTreeLeafDither": true,
        "PHGBNNGCJKJ": "",
        "NFILMKCFHEB": "",
        "BGPNGHDAECF": ""
      },
      {
        "$type": "MoleMole.Config.ConfigBlackScreenAction",
        "type": "BLACK_SCREEN",
        "duration": 0.5,
        "actionId": 156,
        "_flag": 2048,
        "blackScreenType": "FROM_BLACK",
        "durationToBlack": 0.5,
        "durationKeepBlack": 0.5,
        "durationFromBlack": 0.5,
        "inteePos": "",
        "textMapID": "",
        "useTextFade": true
      },
      {
        "$type": "EDCHPJLDKIN",
        "type": "BODY_LANG",
        "aliasList": [
          "13555"
        ],
        "actionId": 157,
        "bodyLangParam": 3,
        "forceDoFreeStyle": true,
        "canDoRepeatFreeStyle": false,
        "cantBackToIdleWhenSitLoop": true,
        "eventPatternSuiteKey": ""
      },
      {
        "$type": "EFHODGEJOHJ",
        "type": "CAMERA_MOVE",
        "delayTime": 0.10000000149011612,
        "duration": 5.0,
        "actionId": 155,
        "camPosOffset": {
          "x": 3623.75,
          "y": 513.5360107421875,
          "z": 4710.748046875
        },
        "camForwardTargetOffset": {
          "x": 3622.955078125,
          "y": 513.1510009765625,
          "z": 4711.21484375
        },
        "camFov": 53.356998443603516,
        "cameraBlendType": "EaseOutQuad",
        "MDKBPBJCMHH": {},
        "needZAxisRotate": true,
        "openCameraDither": false,
        "targetNpcAlias": "",
        "closeTreeLeafDither": true,
        "PHGBNNGCJKJ": "",
        "NFILMKCFHEB": "",
        "BGPNGHDAECF": ""
      }
    ],
    [
      {
        "$type": "MoleMole.Config.ConfigMoveToAction",
        "type": "MOVE_TO",
        "aliasList": [
          "13555"
        ],
        "actionId": 152,
        "haveNextAction": true,
        "moveType": "WALK",
        "routeList": [
          {
            "x": 3617.73095703125,
            "y": 510.6619873046875,
            "z": 4714.51318359375
          }
        ],
        "exactlyMove": true,
        "closeNavMesh": true,
        "openSetPos": true,
        "_bindMovingTargetKey": ""
      },
      {
        "$type": "EDCHPJLDKIN",
        "type": "BODY_LANG",
        "delayTime": 0.21699999272823334,
        "aliasList": [
          "13555"
        ],
        "actionId": 150,
        "preActionId": 152,
        "bodyLangParam": 5,
        "forceDoFreeStyle": true,
        "canDoRepeatFreeStyle": false,
        "cantBackToIdleWhenSitLoop": true,
        "eventPatternSuiteKey": ""
      },
      {
        "$type": "MoleMole.Config.ConfigMoveToAction",
        "type": "MOVE_TO",
        "delayTime": 0.3330000042915344,
        "aliasList": [
          "5084"
        ],
        "actionId": 135,
        "moveType": "WALK",
        "routeList": [
          {
            "x": 3621.716064453125,
            "y": 510.6619873046875,
            "z": 4712.85400390625
          }
        ],
        "exactlyMove": true,
        "closeNavMesh": true,
        "openSetPos": true,
        "_bindMovingTargetKey": ""
      },
      {
        "$type": "MJFAIFFAGOF",
        "type": "DIALOG",
        "delayTime": 0.46700000762939453,
        "aliasList": [
          "5084"
        ],
        "actionId": 107,
        "dialogID": 240111001,
        "protectTime": 1.2669999599456787
      }
    ],
    [
      {
        "$type": "MJFAIFFAGOF",
        "type": "DIALOG",
        "aliasList": [
          "5084"
        ],
        "actionId": 109,
        "dialogID": 240111002,
        "protectTime": 1.4420000314712524
      },
      {
        "$type": "IEKHMHNHENB",
        "type": "STEER_TO",
        "delayTime": 0.21699999272823334,
        "duration": 1.0,
        "aliasList": [
          "1005"
        ],
        "actionId": 140,
        "_flag": 32,
        "steerType": "TO_TARGET",
        "steerDir": {
          "x": 3619.866943359375,
          "y": 510.6619873046875,
          "z": 4711.89501953125
        },
        "useSteerAnim": true,
        "interruptFreestyle": true,
        "forceSteer": true,
        "targetNpcAlias": "5084",
        "ignoreY": true,
        "fixInterNull": true,
        "BHGPHGNFCBF": ""
      },
      {
        "$type": "IEKHMHNHENB",
        "type": "STEER_TO",
        "delayTime": 0.2919999957084656,
        "duration": 1.0,
        "aliasList": [
          "AvatarNpc"
        ],
        "actionId": 139,
        "_flag": 32,
        "steerType": "TO_TARGET",
        "steerDir": {
          "x": 3619.989990234375,
          "y": 510.6619873046875,
          "z": 4712.5068359375
        },
        "useSteerAnim": true,
        "interruptFreestyle": true,
        "forceSteer": true,
        "targetNpcAlias": "5084",
        "ignoreY": true,
        "fixInterNull": true,
        "BHGPHGNFCBF": ""
      },
      {
        "$type": "IEKHMHNHENB",
        "type": "STEER_TO",
        "delayTime": 0.44200000166893005,
        "duration": 1.0,
        "aliasList": [
          "5084"
        ],
        "actionId": 136,
        "_flag": 32,
        "steerType": "TO_TARGET",
        "steerDir": {
          "x": 3620.8330078125,
          "y": 510.6619873046875,
          "z": 4713.3232421875
        },
        "useSteerAnim": true,
        "interruptFreestyle": true,
        "forceSteer": true,
        "targetNpcAlias": "AvatarNpc",
        "ignoreY": true,
        "fixInterNull": true,
        "BHGPHGNFCBF": ""
      },
      {
        "$type": "NPCNMEOCADD",
        "type": "LOOK_AT",
        "delayTime": 0.6169999837875366,
        "aliasList": [
          "5084"
        ],
        "actionId": 138,
        "_flag": 64,
        "enableHead": true,
        "headTurnTime": 0.5,
        "targetNpcAlias": "AvatarNpc",
        "openBackProtect": true,
        "backProtectAngle": 60.0,
        "targetNpcLookAtPoint": "",
        "BHGPHGNFCBF": ""
      }
    ],
    [
      {
        "$type": "MJFAIFFAGOF",
        "type": "DIALOG",
        "aliasList": [
          "5084"
        ],
        "actionId": 111,
        "dialogID": 240111003,
        "protectTime": 0.5
      },
      {
        "$type": "EDCHPJLDKIN",
        "type": "BODY_LANG",
        "aliasList": [
          "5084"
        ],
        "actionId": 141,
        "bodyLangParam": 1160,
        "forceDoFreeStyle": true,
        "canDoRepeatFreeStyle": false,
        "cantBackToIdleWhenSitLoop": true,
        "eventPatternSuiteKey": ""
      },
      {
        "$type": "NPCNMEOCADD",
        "type": "LOOK_AT",
        "aliasList": [
          "5084"
        ],
        "actionId": 141,
        "_flag": 64,
        "headTurnTime": 0.5,
        "targetNpcAlias": "",
        "openBackProtect": true,
        "backProtectAngle": 60.0,
        "targetNpcLookAtPoint": "",
        "BHGPHGNFCBF": ""
      },
      {
        "$type": "EDCHPJLDKIN",
        "type": "BODY_LANG",
        "delayTime": 0.5,
        "aliasList": [
          "5084"
        ],
        "actionId": 142,
        "bodyLangParam": 4040,
        "forceDoFreeStyle": true,
        "canDoRepeatFreeStyle": false,
        "cantBackToIdleWhenSitLoop": true,
        "eventPatternSuiteKey": ""
      }
    ],
    [
      {
        "$type": "MoleMole.Config.ConfigTimeProtectAction",
        "type": "TIME_PROTECT",
        "duration": 0.10000000149011612,
        "actionId": 105
      },
      {
        "$type": "MoleMole.Config.ConfigSimpleBlackScreenAction",
        "type": "SIMPLE_BLACK_SCREEN",
        "actionId": 112,
        "durationToBlack": 0.5,
        "durationKeepBlack": 1.5,
        "durationFromBlack": 0.5,
        "textMapID": ""
      },
      {
        "$type": "MoleMole.Config.ConfigTimeProtectAction",
        "type": "TIME_PROTECT",
        "duration": 0.699999988079071,
        "actionId": 113
      },
      {
        "$type": "EFHODGEJOHJ",
        "type": "CAMERA_MOVE",
        "delayTime": 0.5,
        "duration": 0.10000000149011612,
        "actionId": 123,
        "cameraPosType": "EXIT",
        "camForwardTargetOffset": {
          "z": 1.0
        },
        "camFov": 30.0,
        "lerpPattern": 5,
        "cameraBlendType": "EaseInOutCubic",
        "MDKBPBJCMHH": {},
        "openCameraDither": false,
        "targetNpcAlias": "",
        "closeTreeLeafDither": true,
        "PHGBNNGCJKJ": "",
        "NFILMKCFHEB": "",
        "BGPNGHDAECF": ""
      },
      {
        "$type": "MoleMole.Config.ConfigVisibleInterAction",
        "type": "VISIBLE",
        "delayTime": 0.6000000238418579,
        "aliasList": [
          "Avatar"
        ],
        "actionId": 130,
        "isVisible": true,
        "_extraParam": ""
      },
      {
        "$type": "EDCHPJLDKIN",
        "type": "BODY_LANG",
        "delayTime": 0.6000000238418579,
        "aliasList": [
          "AvatarNpc"
        ],
        "actionId": 128,
        "isContinue": true,
        "forceDoFreeStyle": true,
        "canDoRepeatFreeStyle": false,
        "eventPatternSuiteKey": ""
      },
      {
        "$type": "MoleMole.Config.ConfigVisibleInterAction",
        "type": "VISIBLE",
        "delayTime": 0.6000000238418579,
        "aliasList": [
          "AvatarNpc"
        ],
        "actionId": 159,
        "_extraParam": ""
      },
      {
        "$type": "EDCHPJLDKIN",
        "type": "BODY_LANG",
        "delayTime": 0.6000000238418579,
        "aliasList": [
          "5084"
        ],
        "actionId": 115,
        "isContinue": true,
        "forceDoFreeStyle": true,
        "canDoRepeatFreeStyle": false,
        "eventPatternSuiteKey": ""
      },
      {
        "$type": "EDCHPJLDKIN",
        "type": "BODY_LANG",
        "delayTime": 0.6000000238418579,
        "aliasList": [
          "1005"
        ],
        "actionId": 117,
        "isContinue": true,
        "forceDoFreeStyle": true,
        "canDoRepeatFreeStyle": false,
        "eventPatternSuiteKey": ""
      }
    ]
  ],
  "groupId": [
    {
      "grpId": 107000961,
      "nextGrpId": 107000962
    },
    {
      "index": 1,
      "grpId": 107000962,
      "nextGrpId": 107000963
    },
    {
      "index": 2,
      "grpId": 107000963,
      "nextGrpId": 107000964
    },
    {
      "index": 3,
      "grpId": 107000964,
      "nextGrpId": 107000965
    },
    {
      "index": 4,
      "grpId": 107000965,
      "nextGrpId": 107000966
    },
    {
      "index": 5,
      "grpId": 107000966,
      "nextGrpId": 107000967
    }
  ],
  "freeStyleDic": {
    "1025": [],
    "1026": [],
    "5084": [
      1160,
      4040
    ]
  },
  "GHHKLKIGEOD": {
    "5084": [
      "SitChat01AS",
      "SitHoldArm01AS",
      "SitPutArm01AS",
      "SitRaiseHand01AS",
      "SitRead01AS"
    ]
  },
  "GOCHGPDDIEK": {
    "GLDEKKOPHPB": "",
    "MONBEELCJPA": ""
  }
}