{
  "16515": {
    "PEDMEEAKIGO": {
      "LDLHCDEPOBD": 2.718544592442612e+23
    }
  },
  "101": {
    "BOHKGMDOMBG": {},
    "PEDMEEAKIGO": {
      "LDLHCDEPOBD": 9.592287358365705e-39,
      "NEDNLFIBCEI": [
        2.3745044516937955e-38,
        1.4959141366360287e-40,
        6.067362098085032e+28,
        2.622106709749043e+20,
        2.567756451909986e-09,
        561.3009033203125,
        4.3989311869558016e+21,
        8.893064618042956e-10,
        2.603914648935863e-30,
        1.9144327328192573e+28,
        7.7130332882300185e+31,
        6.319440604230669e+28,
        573.7567749023438,
        2.8822229647780746e+26,
        6.048416435992407e+28,
        2.7259579579376022e+20,
        8987.6025390625,
        7.557058646123995e+31,
        15999534080.0,
        7.684634451268993e-31,
        1.8989587184465142e+28,
        1.8056955221847008e+28,
        2.645158806654204e+20,
        4.1206705020319736e+30,
        2.5680366722014014e-09,
        2.9640586805252557e+29,
        1.2082506006944515e+33,
        1.8470177203290686e+25,
        7.212838612047057e+22,
        6.319440604230669e+28,
        590296842240.0,
        2.568038226513636e-09,
        2.9640586805252557e+29,
        1.1570941581163201e+27,
        2.6434504294674307e+20,
        46449040.0,
        1.1854374907816558e-29,
        244.4114227294922,
        4.527482779144395e+21,
        46449056.0,
        -2.0365661017438052e-19,
        1.0330467163453314e+22,
        2.8572841821150455e+32,
        2.3572030445266456e+20,
        4.452118320088328e-38,
        1.5163880712931578e-36,
        4.738990421815166e+30,
        2.351306516136284e-38,
        6.0044932330985885e+28,
        4.084135706752322e-28,
        1.6388684805908201e+19,
        7.183775532571747e+22,
        7.150701997628264e+22,
        7.928824222025094e+34,
        1.545512789154281e-33,
        2.8063399984898874e+20,
        2.6452539803807043e+20,
        2.3513076371750553e-38,
        1.4811998774347326e+25,
        2.9757684493508386e+29,
        4.451825728968977e-38,
        4.4328421662499946e+21,
        1.6622352753160366e+22,
        7.774188493311372e+31,
        9088.0009765625,
        985249480704.0,
        6.979493154194147e+22,
        7.183775532571747e+22,
        2.351308197694441e-38,
        1.5116891172083616e+25,
        1.1017217017391377e+24,
        2.241910190378519e+20,
        2.79490630901404e+20,
        2.5669020242702345e-09,
        2.5510270964126652e+29,
        6.209103348696485e+22,
        15641.3623046875,
        985249480704.0,
        6.979493154194147e+22,
        7.392986618878192e+31
      ],
      "FLOGMKOMFHJ": [
        {
          "DEIEMJBCEGJ": 15642.1005859375
        },
        {
          "DEIEMJBCEGJ": 2.7946387318643045e+20,
          "OHPABFACFAP": 2.5669020242702345e-09
        },
        {
          "DEIEMJBCEGJ": 4.4328441365748316e+21
        },
        {
          "DEIEMJBCEGJ": 7.183775532571747e+22,
          "OHPABFACFAP": 7.150701997628264e+22
        },
        {
          "DEIEMJBCEGJ": 1.2062874187032546e+27
        },
        {
          "DEIEMJBCEGJ": 4.5606508938314355e+30
        },
        {
          "DEIEMJBCEGJ": 830613291008.0
        },
        {
          "DEIEMJBCEGJ": 4.4328441365748316e+21
        },
        {
          "DEIEMJBCEGJ": 7.183775532571747e+22,
          "OHPABFACFAP": 7.150701997628264e+22
        },
        {
          "DEIEMJBCEGJ": 1.2062874187032546e+27
        },
        {
          "DEIEMJBCEGJ": 6.972988605252336e+22
        },
        {
          "OHPABFACFAP": 11.074329376220703
        },
        {
          "DEIEMJBCEGJ": 2.5510270964126652e+29,
          "OHPABFACFAP": 6.209103348696485e+22
        },
        {
          "DEIEMJBCEGJ": 3.930799635117849e+30,
          "OHPABFACFAP": 6.699408951203805e+31
        },
        {
          "DEIEMJBCEGJ": 134.39617919921875
        },
        {},
        {
          "DEIEMJBCEGJ": 3.2544517841844144e-38
        },
        {
          "OHPABFACFAP": 1.6388684805908201e+19
        },
        {
          "OHPABFACFAP": 7.271584837361508e+31
        },
        {
          "OHPABFACFAP": 985249480704.0
        },
        {},
        {
          "DEIEMJBCEGJ": 1.5826050960939836e-30
        },
        {
          "DEIEMJBCEGJ": 63063411654656.0
        },
        {
          "DEIEMJBCEGJ": 985215336448.0,
          "OHPABFACFAP": 7.212844466726573e+22
        },
        {},
        {},
        {
          "DEIEMJBCEGJ": 2.478963489952141e+20
        },
        {},
        {
          "DEIEMJBCEGJ": 2.4476057215016136e+32,
          "OHPABFACFAP": 1.7251429798782173e+19
        },
        {
          "DEIEMJBCEGJ": 14995784704.0,
          "OHPABFACFAP": 4.3979232250642007e+21
        },
        {
          "DEIEMJBCEGJ": 1.0896836309519529e+27
        },
        {
          "DEIEMJBCEGJ": 1.8980743372634348e+28,
          "OHPABFACFAP": 2.4475562039000422e+32
        },
        {},
        {
          "DEIEMJBCEGJ": 2.252494880955863e+20
        },
        {},
        {
          "DEIEMJBCEGJ": 1.8062050655282025e+28,
          "OHPABFACFAP": 239869673472.0
        },
        {
          "DEIEMJBCEGJ": 4.1209808937361597e+30
        },
        {
          "DEIEMJBCEGJ": 6.573344305021935e+28,
          "OHPABFACFAP": 1.7443688640324004e+28
        },
        {},
        {
          "OHPABFACFAP": 9.937859535217285
        },
        {
          "DEIEMJBCEGJ": 1.7251429798782173e+19
        },
        {
          "DEIEMJBCEGJ": 14995784704.0,
          "OHPABFACFAP": 4.3979232250642007e+21
        },
        {
          "DEIEMJBCEGJ": 7.499253506715055e+28
        },
        {
          "OHPABFACFAP": 1027913089024.0
        },
        {},
        {
          "DEIEMJBCEGJ": 7.346850288044455e+34
        },
        {},
        {
          "DEIEMJBCEGJ": 1.7589389309047403e+22,
          "OHPABFACFAP": 6.575756489821385e+28
        },
        {
          "DEIEMJBCEGJ": 1.713319048331591e-21,
          "OHPABFACFAP": 1.726180017431225e+25
        },
        {
          "DEIEMJBCEGJ": 7.138874763728148e+31,
          "OHPABFACFAP": 1.8308724381628552e+25
        },
        {
          "OHPABFACFAP": 959478693888.0
        },
        {},
        {
          "DEIEMJBCEGJ": 7.346850288044455e+34
        },
        {},
        {
          "DEIEMJBCEGJ": 4.5968679471192977e-35,
          "OHPABFACFAP": 1.0787520466028554e+24
        },
        {
          "DEIEMJBCEGJ": 9.375290870666504
        },
        {
          "DEIEMJBCEGJ": 1.7251429798782173e+19
        },
        {
          "DEIEMJBCEGJ": 14995784704.0,
          "OHPABFACFAP": 4.3979232250642007e+21
        },
        {
          "DEIEMJBCEGJ": 1.7654793960535798e+22
        },
        {
          "DEIEMJBCEGJ": 6.066679243891609e+28,
          "OHPABFACFAP": 1.3353062655596659e-08
        },
        {
          "DEIEMJBCEGJ": 1.8096568936483172e+22
        },
        {
          "DEIEMJBCEGJ": 2.252494880955863e+20
        },
        {},
        {
          "DEIEMJBCEGJ": 1.8062050655282025e+28,
          "OHPABFACFAP": 893.5841674804688
        },
        {
          "DEIEMJBCEGJ": 4.3146072448888293e-35,
          "OHPABFACFAP": 1.0787520466028554e+24
        },
        {
          "DEIEMJBCEGJ": 9.375292778015137
        },
        {
          "DEIEMJBCEGJ": 1.7251429798782173e+19
        },
        {
          "DEIEMJBCEGJ": 14995784704.0,
          "OHPABFACFAP": 4.3979232250642007e+21
        },
        {
          "DEIEMJBCEGJ": 1.7654793960535798e+22
        },
        {
          "DEIEMJBCEGJ": 6.1408512963436855e+22,
          "OHPABFACFAP": 1.852662054158405e+28
        },
        {
          "DEIEMJBCEGJ": 7.931616519577706e+34
        },
        {
          "DEIEMJBCEGJ": 3.8802198303086977e-38,
          "OHPABFACFAP": 1.809658019548224e+22
        },
        {
          "DEIEMJBCEGJ": 2.252494880955863e+20
        },
        {},
        {
          "DEIEMJBCEGJ": 1.8062050655282025e+28,
          "OHPABFACFAP": 14991854592.0
        },
        {
          "DEIEMJBCEGJ": 1.852662054158405e+28
        }
      ]
    }
  },
  "97": {
    "OCKAGCNFOIA": {
      "GDKJHMHMHBH": 1.2932495348319912e+19,
      "FLOGMKOMFHJ": [
        {
          "DEIEMJBCEGJ": 7.499212422126654e+28,
          "OHPABFACFAP": 55.84905242919922
        },
        {
          "DEIEMJBCEGJ": 2.448150415118899e+32,
          "OHPABFACFAP": 1.7251429798782173e+19
        },
        {
          "DEIEMJBCEGJ": 14995784704.0,
          "OHPABFACFAP": 4.3979232250642007e+21
        },
        {
          "DEIEMJBCEGJ": 4.542030716126276e+30
        },
        {
          "DEIEMJBCEGJ": 1.0901192692599976e+27,
          "OHPABFACFAP": 5.808070469015547e-08
        },
        {
          "DEIEMJBCEGJ": 9417066496.0,
          "OHPABFACFAP": 7.534315188903769e+28
        },
        {
          "OHPABFACFAP": 7.397481405075519e+31
        },
        {
          "DEIEMJBCEGJ": 9.812792778015137
        },
        {
          "DEIEMJBCEGJ": 1.7251429798782173e+19
        },
        {
          "DEIEMJBCEGJ": 14995784704.0,
          "OHPABFACFAP": 4.3979232250642007e+21
        },
        {
          "DEIEMJBCEGJ": 4.542030716126276e+30
        },
        {
          "DEIEMJBCEGJ": 1.0901192692599976e+27,
          "OHPABFACFAP": 5.808070469015547e-08
        },
        {
          "DEIEMJBCEGJ": 1.9204570028509495e+31,
          "OHPABFACFAP": 1.0901192692599976e+27
        },
        {
          "DEIEMJBCEGJ": 1.300455294235784e+19
        },
        {
          "OHPABFACFAP": 10.000323295593262
        },
        {
          "DEIEMJBCEGJ": 1.7251429798782173e+19
        },
        {
          "DEIEMJBCEGJ": 14995784704.0,
          "OHPABFACFAP": 4.3979232250642007e+21
        },
        {
          "DEIEMJBCEGJ": 4.542030716126276e+30
        },
        {
          "DEIEMJBCEGJ": 1.0901192692599976e+27,
          "OHPABFACFAP": 2.3232281876062189e-07
        },
        {
          "DEIEMJBCEGJ": 2307689807872.0,
          "OHPABFACFAP": 8.564651765574638e-10
        },
        {
          "DEIEMJBCEGJ": 2.4477047567047564e+32
        },
        {},
        {
          "DEIEMJBCEGJ": 2.252494880955863e+20
        },
        {},
        {
          "DEIEMJBCEGJ": 1.8062050655282025e+28,
          "OHPABFACFAP": 3837914775552.0
        },
        {
          "DEIEMJBCEGJ": 2.5672433068280043e-09
        },
        {},
        {},
        {
          "DEIEMJBCEGJ": 1.1279666754369564e+27,
          "OHPABFACFAP": 2.7599149232061153e+20
        },
        {
          "OHPABFACFAP": 7.740763628680339e+31
        },
        {
          "DEIEMJBCEGJ": -6.354489388455926e+26
        },
        {
          "DEIEMJBCEGJ": -152547440459776.0
        },
        {
          "DEIEMJBCEGJ": 1.9482681902689494e-20,
          "OHPABFACFAP": 2.224841571808512e-41
        },
        {},
        {
          "DEIEMJBCEGJ": 45.0
        },
        {
          "DEIEMJBCEGJ": 1.2611686178923354e-44
        },
        {},
        {
          "DEIEMJBCEGJ": 4.721587173998912e-38,
          "OHPABFACFAP": 7.22247284949978e-34
        },
        {
          "DEIEMJBCEGJ": 2.644713196581699e+20
        },
        {},
        {},
        {
          "DEIEMJBCEGJ": 0.30000001192092896
        },
        {
          "OHPABFACFAP": 3.5099524950026084e-38
        },
        {},
        {
          "DEIEMJBCEGJ": 4.13439098914394e-40
        },
        {},
        {
          "DEIEMJBCEGJ": 2.387794646589145e-38
        },
        {
          "DEIEMJBCEGJ": 6.669346425961427e-24
        },
        {
          "OHPABFACFAP": 1.6530389308438418e-39
        },
        {},
        {},
        {},
        {},
        {},
        {
          "OHPABFACFAP": 1025235904.0
        },
        {
          "DEIEMJBCEGJ": -1.0875569068572898e-19,
          "OHPABFACFAP": -2.2420775429197073e-44
        },
        {},
        {},
        {},
        {},
        {
          "OHPABFACFAP": 3.5887253671358565e-42
        },
        {},
        {
          "DEIEMJBCEGJ": 55338841669632.0,
          "OHPABFACFAP": 1.4219061391771304e+19
        },
        {},
        {
          "DEIEMJBCEGJ": 1.7438884813019305e+28
        },
        {}
      ]
    }
  }
}