{
  "common": {
    "effectAttachShape": {
      "$type": "DPGKNHENGLM",
      "DDDEJPIFECG": "EffectMesh"
    },
    "mass": 100000.0,
    "affectedByWorld": true,
    "useGrassDisplacement": true
  },
  "headControl": {
    "$type": "NJIKCGBDNDF",
    "useHeadControl": true,
    "OGCMKPPOFLM": false,
    "PFHDNDGGBFC": [
      "Turn01_90LBS",
      "Turn01_90LAS",
      "Turn01_90RBS",
      "Turn01_90RAS",
      "Downcast01BS",
      "Downcast01AS",
      "Downcast01Loop",
      "DrinkToComplain",
      "FountainPray",
      "FountainSneak",
      "Pray01Loop",
      "Investigate01Loop",
      "Shy01Loop",
      "HoldHead01Loop",
      "SitCrouch01Loop"
    ]
  },
  "stateLayers": {
    "defaultLayer": {
      "$type": "EPAPJJAGHKG",
      "ACOCIAFGIAD": "",
      "stateIDs": {
        "Born": {
          "$type": "MNKOHCHNPGD",
          "DLOHGBDFFGB": {
            "Born": [
              "Npc_FadeIn"
            ]
          },
          "FNFODFANKGO": false
        },
        "Disappear": {
          "$type": "MNKOHCHNPGD",
          "DLOHGBDFFGB": {
            "Disappear": [
              "Npc_FadeOut"
            ]
          },
          "FNFODFANKGO": false
        },
        "Item_SwordWood_Appear": {
          "$type": "MNKOHCHNPGD",
          "DLOHGBDFFGB": {
            "StandbySword01BS": [
              "Npc_Item_SwordWood_Appear"
            ]
          },
          "FNFODFANKGO": false
        },
        "Item_SwordWood_Disappear": {
          "$type": "MNKOHCHNPGD",
          "DLOHGBDFFGB": {
            "StandbySword01AS": [
              "Npc_Item_SwordWood_Disappear"
            ]
          },
          "FNFODFANKGO": false
        },
        "Item_BardLyre_Appear": {
          "$type": "MNKOHCHNPGD",
          "DLOHGBDFFGB": {
            "PlayAndSing01BS": [
              "Npc_Item_BardLyre_Appear"
            ]
          },
          "FNFODFANKGO": false
        },
        "Item_BardLyre_Disappear": {
          "$type": "MNKOHCHNPGD",
          "DLOHGBDFFGB": {
            "PlayAndSing01AS": [
              "Npc_Item_BardLyre_Disappear"
            ]
          },
          "FNFODFANKGO": false
        },
        "Item_Book_Appear": {
          "$type": "MNKOHCHNPGD",
          "DLOHGBDFFGB": {
            "Read01BS": [
              "Npc_Item_Book_Appear"
            ]
          },
          "FNFODFANKGO": false
        },
        "Item_Book_Disappear": {
          "$type": "MNKOHCHNPGD",
          "DLOHGBDFFGB": {
            "Read01AS": [
              "Npc_Item_Book_Disappear"
            ]
          },
          "FNFODFANKGO": false
        },
        "Item_Hammer01_Appear": {
          "$type": "MNKOHCHNPGD",
          "DLOHGBDFFGB": {
            "Repair01BS": [
              "Npc_Item_Hammer01_Appear"
            ]
          },
          "FNFODFANKGO": false
        },
        "Item_Hammer01_Disappear": {
          "$type": "MNKOHCHNPGD",
          "DLOHGBDFFGB": {
            "Repair01AS": [
              "Npc_Item_Hammer01_Disappear"
            ]
          },
          "FNFODFANKGO": false
        },
        "Item_FishingRod_Appear": {
          "$type": "MNKOHCHNPGD",
          "DLOHGBDFFGB": {
            "Fishing01Cycle": [
              "Npc_Item_FishingRod_Appear"
            ]
          }
        },
        "Item_BeerGlass_Appear": {
          "$type": "MNKOHCHNPGD",
          "DLOHGBDFFGB": {
            "DrinkToComplain": [
              "Npc_Item_BeerGlass_Appear"
            ]
          }
        },
        "Item_TeaBowl01_Appear": {
          "$type": "MNKOHCHNPGD",
          "DLOHGBDFFGB": {
            "SitDrink01": [
              "Npc_Item_TeaBowl01_Appear"
            ]
          }
        },
        "Item_ChopsticksAndBow_Appear": {
          "$type": "MNKOHCHNPGD",
          "DLOHGBDFFGB": {
            "SitEat01": [
              "NPC_Item_ChopsticksAndBow_Appear"
            ]
          }
        },
        "Item_All_Disappear": {
          "$type": "MNKOHCHNPGD",
          "DLOHGBDFFGB": {
            "Standby": [
              "Npc_Item_SwordWood_Disappear",
              "Npc_Item_BardLyre_Disappear",
              "Npc_Item_Book_Disappear",
              "Npc_Item_TeaBowl01_Disappear",
              "Npc_Item_BeerGlass_Disappear",
              "Npc_Item_FishingRod_Disappear",
              "Npc_Item_Hammer01_Disappear",
              "NPC_Item_ChopsticksAndBow_Disappear"
            ],
            "Sit01Loop": [
              "Npc_Item_SwordWood_Disappear",
              "Npc_Item_BardLyre_Disappear",
              "Npc_Item_Book_Disappear",
              "Npc_Item_TeaBowl01_Disappear",
              "Npc_Item_BeerGlass_Disappear",
              "Npc_Item_FishingRod_Disappear",
              "Npc_Item_Hammer01_Disappear",
              "NPC_Item_ChopsticksAndBow_Disappear"
            ],
            "SitPutArm01Loop": [
              "Npc_Item_SwordWood_Disappear",
              "Npc_Item_BardLyre_Disappear",
              "Npc_Item_Book_Disappear",
              "Npc_Item_TeaBowl01_Disappear",
              "Npc_Item_BeerGlass_Disappear",
              "Npc_Item_FishingRod_Disappear",
              "Npc_Item_Hammer01_Disappear",
              "NPC_Item_ChopsticksAndBow_Disappear"
            ],
            "SitCrouch01Loop": [
              "Npc_Item_SwordWood_Disappear",
              "Npc_Item_BardLyre_Disappear",
              "Npc_Item_Book_Disappear",
              "Npc_Item_TeaBowl01_Disappear",
              "Npc_Item_BeerGlass_Disappear",
              "Npc_Item_FishingRod_Disappear",
              "Npc_Item_Hammer01_Disappear",
              "NPC_Item_ChopsticksAndBow_Disappear"
            ],
            "Turn01_90LBS": [
              "Npc_Item_SwordWood_Disappear",
              "Npc_Item_BardLyre_Disappear",
              "Npc_Item_Book_Disappear",
              "Npc_Item_TeaBowl01_Disappear",
              "Npc_Item_BeerGlass_Disappear",
              "Npc_Item_FishingRod_Disappear",
              "Npc_Item_Hammer01_Disappear",
              "NPC_Item_ChopsticksAndBow_Disappear"
            ],
            "Turn01_90RBS": [
              "Npc_Item_SwordWood_Disappear",
              "Npc_Item_BardLyre_Disappear",
              "Npc_Item_Book_Disappear",
              "Npc_Item_TeaBowl01_Disappear",
              "Npc_Item_BeerGlass_Disappear",
              "Npc_Item_FishingRod_Disappear",
              "Npc_Item_Hammer01_Disappear",
              "NPC_Item_ChopsticksAndBow_Disappear"
            ]
          }
        },
        "PersonalityShow01": {
          "$type": "MNKOHCHNPGD",
          "DLOHGBDFFGB": {
            "PersonalityShow01": [
              "NPC_Baizhuer_Show01"
            ]
          },
          "FNFODFANKGO": false
        },
        "FreeStyleReset": {
          "$type": "MNKOHCHNPGD",
          "DLOHGBDFFGB": {
            "HitLightBackrake01": [
              "Npc_ResetFreeStyle"
            ],
            "HitLightForerake01": [
              "Npc_ResetFreeStyle"
            ],
            "AfraidAS": [
              "Npc_ResetFreeStyle"
            ],
            "Alert01AS": [
              "Npc_ResetFreeStyle"
            ],
            "Clap01": [
              "Npc_ResetFreeStyle",
              "Audio_NPC_MengDe_Male_Clap01"
            ]
          }
        },
        "MaleVoiceState": {
          "$type": "MNKOHCHNPGD",
          "DLOHGBDFFGB": {
            "Walk": [
              "Audio_NPC_MengDe_Male_Walk_footsteps"
            ],
            "Run": [
              "Audio_NPC_MengDe_Male_Walk_footsteps"
            ],
            "FountainSneak": [
              "Audio_NPC_MengDe_Male_FountainSneak"
            ],
            "StandbyBow01BS": [
              "Audio_NPC_MengDe_Male_StandbyBow01BS"
            ],
            "StandbyBow01AS": [
              "Audio_NPC_MengDe_Male_StandbyBow01AS"
            ],
            "Shy01BS": [
              "Audio_NPC_MengDe_Male_Shy01BS"
            ],
            "Shy01AS": [
              "Audio_NPC_MengDe_Male_Shy01AS"
            ],
            "Shout01BS": [
              "Audio_NPC_MengDe_Male_Shout01BS"
            ],
            "Shout01Loop": [
              "Audio_NPC_MengDe_Male_Shout01Loop"
            ],
            "Shout01AS": [
              "Audio_NPC_MengDe_Male_Shout01AS"
            ],
            "Request01BS": [
              "Audio_NPC_MengDe_Male_Request01BS"
            ],
            "Request01AS": [
              "Audio_NPC_MengDe_Male_Request01AS"
            ],
            "Refuse01BS": [
              "Audio_NPC_MengDe_Male_Refuse01BS"
            ],
            "Pour01": [
              "Audio_NPC_MengDe_Male_Pour01"
            ],
            "Pray01BS": [
              "Audio_NPC_MengDe_Male_Pray01BS"
            ],
            "Pray01AS": [
              "Audio_NPC_MengDe_Male_Pray01AS"
            ],
            "Laugh01": [
              "Audio_NPC_MengDe_Male_Laugh01"
            ],
            "Investigate01BS": [
              "Audio_NPC_MengDe_Male_Investigate01BS"
            ],
            "Investigate01AS": [
              "Audio_NPC_MengDe_Male_Investigate01AS"
            ],
            "HoldArmHand01BS": [
              "Audio_NPC_MengDe_Male_HoldArmHand01BS"
            ],
            "Forerake01BS": [
              "Audio_NPC_MengDe_Male_Forerake01BS"
            ],
            "Encourage01": [
              "Audio_NPC_MengDe_Male_Encourage01"
            ],
            "Eat01": [
              "Audio_NPC_MengDe_Male_Eat01"
            ],
            "Confuse01AS": [
              "Audio_NPC_MengDe_Male_Confuse01AS"
            ],
            "Confuse01BS": [
              "Audio_NPC_MengDe_Male_Confuse01BS"
            ],
            "Cheer01BS": [
              "Audio_NPC_MengDe_Male_Cheer01BS"
            ],
            "Cheer01Loop": [
              "Audio_NPC_MengDe_Male_Cheer01Loop"
            ],
            "Backrake01BS": [
              "Audio_NPC_MengDe_Female_Backrake01BS"
            ],
            "Akimbo01BS": [
              "Audio_NPC_MengDe_Female_Akimbo01BS"
            ],
            "Afraid01BS": [
              "Audio_NPC_MengDe_Male_Afraid01BS"
            ],
            "HitHeavyForerake01": [
              "Audio_NPC_MengDe_Male_HitHeavyForerake_footsteps"
            ],
            "HitHeavyBackrake01": [
              "Audio_NPC_MengDe_Male_HitHeavyBackrake_footsteps"
            ],
            "MengdeSalute01": [
              "Audio_NPC_MengDe_Male_Salute"
            ],
            "SaluteMengde01BS": [
              "Audio_NPC_MengDe_Male_Salute"
            ],
            "Ani_NPC_Male_SaluteMengde01BS": [
              "Audio_NPC_MengDe_Male_Salute"
            ],
            "Applaud": [
              "Audio_NPC_MengDe_Male_Applaud"
            ],
            "HoldArm01BS": [
              "Audio_NPC_MengDe_Male_HoldArm_BS"
            ],
            "HoldArm01AS": [
              "Audio_NPC_MengDe_Male_HoldArm_AS"
            ],
            "Think01BS": [
              "Audio_NPC_MengDe_Male_HoldArm_BS"
            ],
            "Think01AS": [
              "Audio_NPC_MengDe_Male_HoldArm_AS"
            ],
            "Iron01BS": [
              "Audio_NPC_MengDe_Male_Blacksmith_hit_BS"
            ],
            "Blacksmith": [
              "Audio_NPC_MengDe_Male_Blacksmith_hit"
            ],
            "IronLoop": [
              "Audio_NPC_MengDe_Male_Blacksmith_hit"
            ]
          }
        }
      }
    }
  },
  "billboard": {
    "$type": "AHECOFGJCIP",
    "attachPoint": "BillboardAttach",
    "offset": {
      "x": -0.09000000357627869,
      "y": 0.009999999776482582
    },
    "EMFFJPOKEKF": "Character",
    "LOMMBJLKPHE": 0.12999999523162842,
    "showDistance": 20.0,
    "BDJDNLAGHPD": 45.0
  },
  "BJAONMEENOG": 0.0,
  "aibeta": {
    "enable": true,
    "friendliness": 1,
    "moveSetting": {
      "navMeshAgentName": "Undead01",
      "almostReachedDistanceWalk": 0.30000001192092896,
      "almostReachedDistanceRun": 0.6000000238418579
    },
    "sensing": {
      "enable": false
    },
    "threat": {
      "enable": false,
      "JGFOPCOIJOI": ""
    },
    "defendArea": {
      "enable": false
    },
    "profiling": {
      "lodStrategy": "Npc"
    },
    "combatFixedMoveTactic": [
      {
        "$type": "EONBNFNCMNG",
        "enable": true,
        "LMMKNFEMOMG": {
          "KIHPEPHJMOG": 1,
          "JOCOJHEICNA": "",
          "DBIELIMGBMC": ""
        }
      }
    ]
  },
  "move": {
    "$type": "DPGHEPFBKDO",
    "EIEIGIPKLAO": {
      "includeForces": [
        "RetreatType",
        "RetreatAirType",
        "RushMoveType",
        "WindZoneType",
        "AirflowType",
        "RiseType",
        "SpeedupType",
        "AirflowAccType",
        "InertiaType"
      ]
    },
    "FACNOEFNHIB": "RootNode"
  },
  "ABLELGOIMNA": {
    "NJPKBKOCFNF": true
  },
  "emojiBubble": {},
  "CGNLIFNLFNK": [
    {
      "$type": "DOGMJNFHBMK",
      "FHGNMKCBDIN": "HeadControllerEx1Layer",
      "MKJMBDGHFHD": "HeadEx1Hor",
      "GKMPCKMHBKK": "HeadEx1Ver"
    }
  ],
  "CLOKLJBCLIJ": "PRIVATE_Pendant"
}