[
  {
    "Default": {
      "$type": "MoleMole.Config.GNKCLKNDOAK",
      "abilityName": "SceneObj_Area_Fd_Property_Ani_Prop_LanternFishPacman_WaterGlideChampOrb_01",
      "PIDAPNFJNDF": [
        {
          "$type": "MoleMole.Config.AttachToGadgetStateMixin",
          "modifierName": "Normal"
        },
        {
          "$type": "MoleMole.Config.AttachToGadgetStateMixin",
          "MHKDFIPGJJO": 201,
          "modifierName": "Hide"
        },
        {
          "$type": "MoleMole.Config.AttachToGadgetStateMixin",
          "MHKDFIPGJJO": 202,
          "modifierName": "Hide"
        }
      ],
      "BFBDNNJCDLH": {
        "Normal": {
          "modifierName": "",
          "elementDurability": 100.0,
          "OAOGLLGGJPD": [
            {
              "$type": "MoleMole.Config.AttachEffect",
              "effectPattern": "Eff_SceneObj_FontaineGlideChampOrb_01",
              "effectTempleteID": -1.0
            }
          ]
        },
        "Hide": {
          "modifierName": "",
          "elementDurability": 100.0
        }
      },
      "GGGLNDFDIMI": [
        {
          "$type": "MoleMole.Config.Predicated",
          "MLDBFKEGPEF": "Target",
          "CKBKOCJPJMM": [
            {
              "$type": "DLLOJMFICPG",
              "JBEIOINCLFB": [
                "Avatar"
              ]
            },
            {
              "$type": "CBCGGIMMENP",
              "MLDBFKEGPEF": "Self"
            }
          ],
          "successActions": [
            {
              "$type": "MoleMole.Config.FireEffect",
              "effectPattern": "Eff_SceneObj_FontaineGlideChampOrb_01_Smash",
              "effectTempleteID": -1.0
            },
            {
              "$type": "MoleMole.Config.ServerLuaCall",
              "MECCMJIFJKG": "FromGroup",
              "ACMHGHCMOIF": "SLC_Avatar_PickUp",
              "param1": 0.0,
              "param2": 0.0,
              "GBOGNIOMAGM": 0.0
            },
            {
              "$type": "MoleMole.Config.ChangeGadgetState",
              "HOJGPJHDKFJ": 201
            }
          ],
          "failActions": [
            {
              "$type": "MoleMole.Config.Predicated",
              "MLDBFKEGPEF": "Target",
              "CKBKOCJPJMM": [
                {
                  "$type": "DLLOJMFICPG",
                  "JBEIOINCLFB": [
                    "Platform"
                  ]
                },
                {
                  "$type": "CBCGGIMMENP",
                  "MLDBFKEGPEF": "Self"
                }
              ],
              "successActions": [
                {
                  "$type": "MoleMole.Config.FireEffect",
                  "effectPattern": "Eff_SceneObj_FontaineGlideChampOrb_01_Smash",
                  "effectTempleteID": -1.0
                },
                {
                  "$type": "MoleMole.Config.ServerLuaCall",
                  "MECCMJIFJKG": "FromGroup",
                  "ACMHGHCMOIF": "SLC_RemusLanternFish_PickUp",
                  "param1": 0.0,
                  "param2": 0.0,
                  "GBOGNIOMAGM": 0.0
                },
                {
                  "$type": "MoleMole.Config.ChangeGadgetState",
                  "HOJGPJHDKFJ": 202
                }
              ]
            }
          ]
        }
      ]
    }
  },
  {
    "Default": {
      "$type": "MoleMole.Config.GNKCLKNDOAK",
      "abilityName": "SceneObj_Area_Fd_Property_Ani_Prop_LanternFishPacman_RemusLanternFish_01",
      "PIDAPNFJNDF": [
        {
          "$type": "MoleMole.Config.PlatformMoveMixin",
          "HKLMJIAMOPI": [
            "move"
          ],
          "BLGAMFGKJNA": [
            "stop"
          ]
        },
        {
          "$type": "MoleMole.Config.AttachToStateIDMixin",
          "stateIDs": [
            "OnStandby"
          ],
          "modifierName": "IsStandBy",
          "NHFFFFLKCPD": true,
          "MJFJKAHGHDJ": ""
        },
        {
          "$type": "MoleMole.Config.AttachToStateIDMixin",
          "stateIDs": [
            "OnStill"
          ],
          "modifierName": "IsStill",
          "NHFFFFLKCPD": true,
          "MJFJKAHGHDJ": ""
        },
        {
          "$type": "MoleMole.Config.AttachToStateIDMixin",
          "stateIDs": [
            "OnAlert"
          ],
          "modifierName": "IsAlert",
          "NHFFFFLKCPD": true,
          "FKMPJGCHCGI": 3,
          "MJFJKAHGHDJ": ""
        },
        {
          "$type": "MoleMole.Config.AttachToStateIDMixin",
          "stateIDs": [
            "OnWaring"
          ],
          "modifierName": "IsWaring",
          "NHFFFFLKCPD": true,
          "FKMPJGCHCGI": 3,
          "MJFJKAHGHDJ": ""
        },
        {
          "$type": "MoleMole.Config.AttachToStateIDMixin",
          "stateIDs": [
            "DoorOpen"
          ],
          "modifierName": "IsDoorOpen",
          "NHFFFFLKCPD": true,
          "FKMPJGCHCGI": 1,
          "MJFJKAHGHDJ": ""
        },
        {
          "$type": "MoleMole.Config.AttachToStateIDMixin",
          "stateIDs": [
            "DoorClose"
          ],
          "modifierName": "IsDoorClose",
          "NHFFFFLKCPD": true,
          "FKMPJGCHCGI": 1,
          "MJFJKAHGHDJ": ""
        },
        {
          "$type": "MoleMole.Config.AttachModifierToSelfGlobalValueNoInitMixin",
          "globalValueKey": "IsLightOpen",
          "FJEPHJNDEAI": [
            -0.5,
            0.5,
            1.5
          ],
          "IJEPHCMOAPE": [
            "LightClose",
            "LightOpen"
          ]
        },
        {
          "$type": "MoleMole.Config.AttachToGadgetStateMixin",
          "modifierName": "MouthOff"
        },
        {
          "$type": "MoleMole.Config.AttachToGadgetStateMixin",
          "MHKDFIPGJJO": 901,
          "modifierName": "MouthOn"
        }
      ],
      "DHNPEDCLIJK": [
        "SGV_REMUSLANTERNFISH_STILL_TIME"
      ],
      "BFBDNNJCDLH": {
        "Blank": {
          "modifierName": "",
          "elementDurability": 100.0
        },
        "move": {
          "modifierName": "",
          "elementDurability": 100.0,
          "OAOGLLGGJPD": [
            {
              "$type": "MoleMole.Config.AttachEffect",
              "effectPattern": "Eff_SceneObj_RemusLanternFish_Move",
              "born": {
                "$type": "JEDNAGFKIDP",
                "useRotation": true,
                "OBNIJLKICKN": "Tail"
              },
              "effectTempleteID": -1.0
            },
            {
              "$type": "MoleMole.Config.SetAnimatorBool",
              "KIAGMJMPHPG": "Search",
              "value": true
            }
          ]
        },
        "stop": {
          "modifierName": "",
          "elementDurability": 100.0,
          "OAOGLLGGJPD": [
            {
              "$type": "MoleMole.Config.FireEffect",
              "effectPattern": "Eff_SceneObj_RemusLanternFish_Retract",
              "born": {
                "$type": "JEDNAGFKIDP",
                "useRotation": true,
                "OBNIJLKICKN": "Tail"
              },
              "effectTempleteID": -1.0
            },
            {
              "$type": "MoleMole.Config.SetAnimatorBool",
              "KIAGMJMPHPG": "Search"
            }
          ]
        },
        "MouthOff": {
          "modifierName": "",
          "elementDurability": 100.0,
          "OAOGLLGGJPD": [
            {
              "$type": "MoleMole.Config.SetAnimatorBool",
              "canBeHandledOnRecover": true,
              "KIAGMJMPHPG": "DoorOpen"
            }
          ]
        },
        "MouthOn": {
          "modifierName": "",
          "elementDurability": 100.0,
          "OAOGLLGGJPD": [
            {
              "$type": "MoleMole.Config.SetAnimatorBool",
              "canBeHandledOnRecover": true,
              "KIAGMJMPHPG": "DoorOpen",
              "value": true
            }
          ]
        },
        "IsStandBy": {
          "modifierName": "",
          "elementDurability": 100.0,
          "OAOGLLGGJPD": [
            {
              "$type": "MoleMole.Config.SetGlobalValueV2",
              "value": 1.0,
              "key": "IsLightOpen",
              "maxValue": 0.0,
              "GCEOGBJIFCP": 0.0
            }
          ]
        },
        "IsStill": {
          "modifierName": "",
          "elementDurability": 100.0,
          "OAOGLLGGJPD": [
            {
              "$type": "MoleMole.Config.SetGlobalValueV2",
              "value": 0.0,
              "key": "IsLightOpen",
              "maxValue": 0.0,
              "GCEOGBJIFCP": 0.0
            }
          ]
        },
        "IsAlert": {
          "modifierName": "",
          "elementDurability": 100.0,
          "OAOGLLGGJPD": [
            {
              "$type": "MoleMole.Config.SetGlobalValueV2",
              "value": 1.0,
              "key": "IsLightOpen",
              "maxValue": 0.0,
              "GCEOGBJIFCP": 0.0
            },
            {
              "$type": "MoleMole.Config.AttachEffect",
              "effectPattern": "Eff_SceneObj_RemusLanternFish_Shield_Appear",
              "born": {
                "$type": "JEDNAGFKIDP",
                "useRotation": true,
                "OBNIJLKICKN": "Tail"
              },
              "effectTempleteID": -1.0
            }
          ],
          "MINFJCDAIBB": [
            {
              "$type": "MoleMole.Config.FireEffect",
              "effectPattern": "Eff_SceneObj_RemusLanternFish_Shield_Disappear",
              "born": {
                "$type": "JEDNAGFKIDP",
                "useRotation": true,
                "OBNIJLKICKN": "Tail"
              },
              "effectTempleteID": -1.0
            }
          ]
        },
        "IsWaring": {
          "modifierName": "",
          "elementDurability": 100.0,
          "OAOGLLGGJPD": [
            {
              "$type": "MoleMole.Config.SetGlobalValueV2",
              "value": 1.0,
              "key": "IsLightOpen",
              "maxValue": 0.0,
              "GCEOGBJIFCP": 0.0
            }
          ]
        },
        "IsDoorOpen": {
          "modifierName": "",
          "elementDurability": 100.0,
          "OAOGLLGGJPD": [
            {
              "$type": "MoleMole.Config.FireEffect",
              "effectPattern": "Eff_SceneObj_RemusLanternFish_OpenDoor",
              "born": {
                "$type": "JEDNAGFKIDP",
                "useRotation": true,
                "OBNIJLKICKN": "Body"
              },
              "effectTempleteID": -1.0
            }
          ]
        },
        "IsDoorClose": {
          "modifierName": "",
          "elementDurability": 100.0,
          "OAOGLLGGJPD": [
            {
              "$type": "MoleMole.Config.FireEffect",
              "effectPattern": "Eff_SceneObj_RemusLanternFish_CloseDoor",
              "born": {
                "$type": "JEDNAGFKIDP",
                "useRotation": true,
                "OBNIJLKICKN": "Body"
              },
              "effectTempleteID": -1.0
            }
          ]
        },
        "LightOpen": {
          "modifierName": "",
          "elementDurability": 100.0,
          "OAOGLLGGJPD": [
            {
              "$type": "MoleMole.Config.AttachEffect",
              "effectPattern": "Eff_SceneObj_RemusLanternFish_Light",
              "born": {
                "$type": "JEDNAGFKIDP",
                "useRotation": true,
                "OBNIJLKICKN": "Lamp"
              },
              "effectTempleteID": -1.0
            },
            {
              "$type": "MoleMole.Config.AttachModifier",
              "modifierName": "LightColorControl"
            }
          ]
        },
        "LightClose": {
          "modifierName": "",
          "elementDurability": 100.0
        },
        "LightColorControl": {
          "modifierName": "",
          "elementDurability": 100.0,
          "JPIFFPJJEMK": [
            {
              "$type": "MoleMole.Config.AttachModifierToGlobalValueMixin",
              "globalValueKey": "SGV_IsWarning",
              "FJEPHJNDEAI": [
                -0.5,
                0.5,
                1.5
              ],
              "IJEPHCMOAPE": [
                "LightYellow",
                "LightRed"
              ],
              "BMNOPNNALIB": true
            }
          ]
        },
        "LightRed": {
          "modifierName": "",
          "elementDurability": 100.0,
          "OAOGLLGGJPD": [
            {
              "$type": "MoleMole.Config.SendEffectTrigger",
              "canBeHandledOnRecover": true,
              "parameter": "GadgetState",
              "attachPoint": "",
              "KPGKDHAFHFE": "Int",
              "value": 1,
              "effectPattern": "Eff_SceneObj_RemusLanternFish_Light"
            }
          ]
        },
        "LightYellow": {
          "modifierName": "",
          "elementDurability": 100.0,
          "OAOGLLGGJPD": [
            {
              "$type": "MoleMole.Config.SendEffectTrigger",
              "canBeHandledOnRecover": true,
              "parameter": "GadgetState",
              "attachPoint": "",
              "KPGKDHAFHFE": "Int",
              "effectPattern": "Eff_SceneObj_RemusLanternFish_Light"
            }
          ]
        },
        "State_Control": {
          "modifierName": "",
          "elementDurability": 100.0,
          "JPIFFPJJEMK": [
            {
              "$type": "MoleMole.Config.AttachModifierToSelfGlobalValueNoInitMixin",
              "globalValueKey": "InternalState_4_6",
              "FJEPHJNDEAI": [
                -0.5,
                0.5,
                1.5,
                2.5,
                3.5
              ],
              "IJEPHCMOAPE": [
                "OnStandByHandle",
                "OnStillHandle",
                "OnStandByHandle",
                "OnMoveHandle"
              ]
            }
          ]
        },
        "BlankHandle": {
          "modifierName": "",
          "elementDurability": 100.0
        },
        "OnStillHandle": {
          "modifierName": "",
          "elementDurability": 100.0,
          "OAOGLLGGJPD": [
            {
              "$type": "MoleMole.Config.AttachModifier",
              "modifierName": "FreezeState"
            },
            {
              "$type": "MoleMole.Config.AttachModifier",
              "modifierName": "Resume2Standby"
            },
            {
              "$type": "MoleMole.Config.SetGlobalValueV2",
              "value": 1.0,
              "key": "GV_MUSICMECH_Hold",
              "maxValue": 0.0,
              "GCEOGBJIFCP": 0.0
            }
          ]
        },
        "OnStandByHandle": {
          "modifierName": "",
          "elementDurability": 100.0,
          "OAOGLLGGJPD": [
            {
              "$type": "MoleMole.Config.AttachModifier",
              "modifierName": "PlayerDetect"
            },
            {
              "$type": "MoleMole.Config.SetGlobalValueV2",
              "value": 0.0,
              "key": "GV_MUSICMECH_Hold",
              "maxValue": 0.0,
              "GCEOGBJIFCP": 0.0
            },
            {
              "$type": "MoleMole.Config.ServerLuaCall",
              "predicates": [
                {
                  "$type": "IPGGGPIJONN",
                  "MLDBFKEGPEF": "Self",
                  "key": "SGV_MUSICMECH_ACTIVE",
                  "value": 1.0
                }
              ],
              "MECCMJIFJKG": "FromGroup",
              "ACMHGHCMOIF": "SLC_WB46_MovePlat_Move",
              "param1": 0.0,
              "param2": 0.0,
              "GBOGNIOMAGM": 0.0
            }
          ]
        },
        "OnMoveHandle": {
          "modifierName": "",
          "elementDurability": 100.0
        },
        "Resume2Standby": {
          "modifierName": "",
          "elementDurability": 100.0,
          "BNJENAIMDPL": "SGV_REMUSLANTERNFISH_STILL_TIME",
          "PJKELBNICOI": [
            {
              "$type": "MoleMole.Config.SetGlobalValueV2",
              "value": 2.0,
              "key": "InternalState_4_6",
              "maxValue": 0.0,
              "GCEOGBJIFCP": 0.0
            }
          ]
        },
        "PlayerDetect": {
          "modifierName": "",
          "elementDurability": 100.0,
          "JPIFFPJJEMK": [
            {
              "$type": "MoleMole.Config.AttachModifierToGlobalValueMixin",
              "globalValueKey": "SGV_IsWarning",
              "FJEPHJNDEAI": [
                -0.5,
                0.5,
                1.5
              ],
              "IJEPHCMOAPE": [
                "FreeState",
                "AlertState"
              ],
              "BMNOPNNALIB": true
            }
          ]
        },
        "DetectWarning": {
          "modifierName": "",
          "elementDurability": 100.0
        },
        "RefreshWarningState": {
          "modifierName": "",
          "elementDurability": 100.0
        },
        "FreezeState": {
          "modifierName": "",
          "elementDurability": 100.0,
          "JPIFFPJJEMK": [
            {
              "$type": "MoleMole.Config.ShaderStateMachineSwitchMixin",
              "PDMMEKFIMDB": 1,
              "HNDLOLDKOHO": ""
            }
          ],
          "OAOGLLGGJPD": [
            {
              "$type": "MoleMole.Config.DebugLog",
              "KNKPIGLBMEP": "BeAttack_4_6"
            },
            {
              "$type": "MoleMole.Config.SetAnimatorInt",
              "canBeHandledOnRecover": true,
              "intID": "GadgetState",
              "value": 202.0
            },
            {
              "$type": "MoleMole.Config.SetAnimatorFloat",
              "canBeHandledOnRecover": true,
              "floatID": "Speed",
              "value": 0.0
            },
            {
              "$type": "MoleMole.Config.ServerLuaCall",
              "MECCMJIFJKG": "FromGroup",
              "ACMHGHCMOIF": "SLC_WB46_MovePlat_Stop",
              "param1": 0.0,
              "param2": 0.0,
              "GBOGNIOMAGM": 0.0
            }
          ]
        },
        "FreeState": {
          "modifierName": "",
          "elementDurability": 100.0,
          "JPIFFPJJEMK": [
            {
              "$type": "MoleMole.Config.ShaderStateMachineSwitchMixin",
              "PDMMEKFIMDB": 2,
              "HNDLOLDKOHO": ""
            }
          ],
          "OAOGLLGGJPD": [
            {
              "$type": "MoleMole.Config.SetAnimatorInt",
              "canBeHandledOnRecover": true,
              "intID": "GadgetState",
              "value": 0.0
            },
            {
              "$type": "MoleMole.Config.SetAnimatorFloat",
              "canBeHandledOnRecover": true,
              "floatID": "Speed",
              "value": 1.0
            }
          ]
        },
        "AlertState": {
          "modifierName": "",
          "elementDurability": 100.0,
          "JPIFFPJJEMK": [
            {
              "$type": "MoleMole.Config.ShaderStateMachineSwitchMixin",
              "PDMMEKFIMDB": 3,
              "HNDLOLDKOHO": ""
            }
          ],
          "OAOGLLGGJPD": [
            {
              "$type": "MoleMole.Config.SetAnimatorInt",
              "canBeHandledOnRecover": true,
              "intID": "GadgetState",
              "value": 201.0
            },
            {
              "$type": "MoleMole.Config.SetAnimatorFloat",
              "canBeHandledOnRecover": true,
              "floatID": "Speed",
              "value": 1.5
            }
          ]
        }
      },
      "OAOGLLGGJPD": [
        {
          "$type": "MoleMole.Config.ChangeTag",
          "BMHGAAIEHDH": true,
          "tag": "IS_LMS_WHALE_SCAN_TARGET"
        },
        {
          "$type": "MoleMole.Config.SetGlobalValueV2",
          "value": 1.0,
          "key": "IsLightOpen",
          "maxValue": 0.0,
          "GCEOGBJIFCP": 0.0
        },
        {
          "$type": "MoleMole.Config.AttachModifier",
          "modifierName": "State_Control"
        },
        {
          "$type": "MoleMole.Config.SetGlobalValueV2",
          "value": 1.0,
          "key": "GV_MUSICMECH_Tap",
          "maxValue": 0.0,
          "GCEOGBJIFCP": 0.0
        },
        {
          "$type": "MoleMole.Config.SetGlobalValueV2",
          "value": 1.0,
          "key": "GV_MUSICMECH_Hold",
          "maxValue": 0.0,
          "GCEOGBJIFCP": 0.0
        }
      ]
    }
  },
  {
    "Default": {
      "$type": "MoleMole.Config.GNKCLKNDOAK",
      "abilityName": "SceneObj_Area_Fd_Property_Ani_Prop_WoodenFish_GamePlayController_01",
      "BFBDNNJCDLH": {
        "WoodenFish_Handle": {
          "modifierName": "",
          "elementDurability": 100.0,
          "OAOGLLGGJPD": [
            {
              "$type": "MoleMole.Config.AttachModifier",
              "otherTargets": {
                "$type": "BBODFELHFPD",
                "value": 1
              },
              "modifierName": "WoodenFish_Walker_01"
            },
            {
              "$type": "MoleMole.Config.AttachModifier",
              "otherTargets": {
                "$type": "BBODFELHFPD",
                "value": 2
              },
              "modifierName": "WoodenFish_Walker_02"
            },
            {
              "$type": "MoleMole.Config.AttachModifier",
              "otherTargets": {
                "$type": "BBODFELHFPD",
                "value": 3
              },
              "modifierName": "WoodenFish_Watcher"
            }
          ]
        },
        "WoodenFish_Walker_01": {
          "modifierName": "",
          "elementDurability": 100.0,
          "JPIFFPJJEMK": [
            {
              "$type": "MoleMole.Config.PlatformMoveMixin",
              "LJLAFDCPJEJ": true,
              "HKLMJIAMOPI": [
                "Walker_Move_01"
              ]
            }
          ],
          "OAOGLLGGJPD": [
            {
              "$type": "MoleMole.Config.DebugLog",
              "KNKPIGLBMEP": "木头人:1号上modifier"
            }
          ]
        },
        "Walker_Move_01": {
          "modifierName": "",
          "elementDurability": 100.0,
          "OAOGLLGGJPD": [
            {
              "$type": "MoleMole.Config.DebugLog",
              "KNKPIGLBMEP": "木头人:1号动"
            },
            {
              "$type": "MoleMole.Config.AttachModifier",
              "MLDBFKEGPEF": "Caster",
              "modifierName": "Set_Move_State_01"
            },
            {
              "$type": "MoleMole.Config.ServerLuaCall",
              "MECCMJIFJKG": "FromGroup",
              "ACMHGHCMOIF": "SLC_Walker_Move_01",
              "param1": 0.0,
              "param2": 0.0,
              "GBOGNIOMAGM": 0.0
            }
          ],
          "MINFJCDAIBB": [
            {
              "$type": "MoleMole.Config.DebugLog",
              "KNKPIGLBMEP": "木头人:1号停"
            },
            {
              "$type": "MoleMole.Config.AttachModifier",
              "MLDBFKEGPEF": "Caster",
              "modifierName": "Set_Stop_State_01"
            },
            {
              "$type": "MoleMole.Config.ServerLuaCall",
              "MECCMJIFJKG": "FromGroup",
              "ACMHGHCMOIF": "SLC_Walker_Stop_01",
              "param1": 0.0,
              "param2": 0.0,
              "GBOGNIOMAGM": 0.0
            }
          ]
        },
        "Set_Move_State_01": {
          "modifierName": "",
          "elementDurability": 100.0,
          "OAOGLLGGJPD": [
            {
              "$type": "MoleMole.Config.SetGlobalValueV2",
              "value": 1.0,
              "key": "Walker_Move_State_01",
              "maxValue": 0.0,
              "GCEOGBJIFCP": 0.0
            }
          ]
        },
        "Set_Stop_State_01": {
          "modifierName": "",
          "elementDurability": 100.0,
          "OAOGLLGGJPD": [
            {
              "$type": "MoleMole.Config.SetGlobalValueV2",
              "value": 0.0,
              "key": "Walker_Move_State_01",
              "maxValue": 0.0,
              "GCEOGBJIFCP": 0.0
            }
          ]
        },
        "WoodenFish_Walker_02": {
          "modifierName": "",
          "elementDurability": 100.0,
          "JPIFFPJJEMK": [
            {
              "$type": "MoleMole.Config.PlatformMoveMixin",
              "LJLAFDCPJEJ": true,
              "HKLMJIAMOPI": [
                "Walker_Move_02"
              ]
            }
          ],
          "OAOGLLGGJPD": [
            {
              "$type": "MoleMole.Config.DebugLog",
              "KNKPIGLBMEP": "木头人:2号上modifier"
            }
          ]
        },
        "Walker_Move_02": {
          "modifierName": "",
          "elementDurability": 100.0,
          "OAOGLLGGJPD": [
            {
              "$type": "MoleMole.Config.DebugLog",
              "KNKPIGLBMEP": "木头人:2号动"
            },
            {
              "$type": "MoleMole.Config.AttachModifier",
              "MLDBFKEGPEF": "Caster",
              "modifierName": "Set_Move_State_02"
            },
            {
              "$type": "MoleMole.Config.ServerLuaCall",
              "MECCMJIFJKG": "FromGroup",
              "ACMHGHCMOIF": "SLC_Walker_Move_02",
              "param1": 0.0,
              "param2": 0.0,
              "GBOGNIOMAGM": 0.0
            }
          ],
          "MINFJCDAIBB": [
            {
              "$type": "MoleMole.Config.DebugLog",
              "KNKPIGLBMEP": "木头人:2号停"
            },
            {
              "$type": "MoleMole.Config.AttachModifier",
              "MLDBFKEGPEF": "Caster",
              "modifierName": "Set_Stop_State_02"
            },
            {
              "$type": "MoleMole.Config.ServerLuaCall",
              "MECCMJIFJKG": "FromGroup",
              "ACMHGHCMOIF": "SLC_Walker_Stop_02",
              "param1": 0.0,
              "param2": 0.0,
              "GBOGNIOMAGM": 0.0
            }
          ]
        },
        "Set_Move_State_02": {
          "modifierName": "",
          "elementDurability": 100.0,
          "OAOGLLGGJPD": [
            {
              "$type": "MoleMole.Config.SetGlobalValueV2",
              "value": 1.0,
              "key": "Walker_Move_State_02",
              "maxValue": 0.0,
              "GCEOGBJIFCP": 0.0
            }
          ]
        },
        "Set_Stop_State_02": {
          "modifierName": "",
          "elementDurability": 100.0,
          "OAOGLLGGJPD": [
            {
              "$type": "MoleMole.Config.SetGlobalValueV2",
              "value": 0.0,
              "key": "Walker_Move_State_02",
              "maxValue": 0.0,
              "GCEOGBJIFCP": 0.0
            }
          ]
        },
        "WoodenFish_Watcher": {
          "modifierName": "",
          "elementDurability": 100.0,
          "JPIFFPJJEMK": [
            {
              "$type": "MoleMole.Config.AttachToStateIDMixin",
              "stateIDs": [
                "Opposite"
              ],
              "modifierName": "Is_Watching",
              "MJFJKAHGHDJ": ""
            }
          ],
          "OAOGLLGGJPD": [
            {
              "$type": "MoleMole.Config.DebugLog",
              "KNKPIGLBMEP": "木头人:3号上modifier"
            }
          ]
        },
        "Is_Watching": {
          "modifierName": "",
          "elementDurability": 100.0,
          "OAOGLLGGJPD": [
            {
              "$type": "MoleMole.Config.DebugLog",
              "KNKPIGLBMEP": "木头人：开始监视"
            },
            {
              "$type": "MoleMole.Config.AttachModifier",
              "MLDBFKEGPEF": "Caster",
              "modifierName": "Watcher_01"
            }
          ],
          "MINFJCDAIBB": [
            {
              "$type": "MoleMole.Config.DebugLog",
              "KNKPIGLBMEP": "木头人：结束监视"
            }
          ]
        },
        "Watcher_01": {
          "modifierName": "",
          "elementDurability": 100.0,
          "JPIFFPJJEMK": [
            {
              "$type": "MoleMole.Config.AttachModifierToSelfGlobalValueNoInitMixin",
              "globalValueKey": "Walker_Move_State_01",
              "FJEPHJNDEAI": [
                -0.5,
                0.5,
                1.5
              ],
              "IJEPHCMOAPE": [
                "Empty",
                "Challenge_Failed"
              ]
            },
            {
              "$type": "MoleMole.Config.AttachModifierToSelfGlobalValueNoInitMixin",
              "globalValueKey": "Walker_Move_State_02",
              "FJEPHJNDEAI": [
                -0.5,
                0.5,
                1.5
              ],
              "IJEPHCMOAPE": [
                "Empty",
                "Challenge_Failed"
              ]
            }
          ]
        },
        "Challenge_Failed": {
          "modifierName": "",
          "elementDurability": 100.0,
          "OAOGLLGGJPD": [
            {
              "$type": "MoleMole.Config.DebugLog",
              "KNKPIGLBMEP": "木头人:挑战失败TriggerAbility"
            },
            {
              "$type": "MoleMole.Config.TriggerAbility",
              "MLDBFKEGPEF": "Caster",
              "abilityName": "SceneObj_Area_Fd_Property_Ani_Prop_WoodenFish_GamePlayController_02"
            }
          ]
        },
        "Empty": {
          "modifierName": "",
          "elementDurability": 100.0
        }
      },
      "OAOGLLGGJPD": [
        {
          "$type": "MoleMole.Config.ApplyModifier",
          "modifierName": "WoodenFish_Handle"
        }
      ]
    }
  },
  {
    "Default": {
      "$type": "MoleMole.Config.GNKCLKNDOAK",
      "abilityName": "SceneObj_Area_Fd_Property_Ani_Prop_WoodenFish_GamePlayController_02",
      "EIIHGJGFDHC": [
        {
          "$type": "MoleMole.Config.ServerLuaCall",
          "MECCMJIFJKG": "FromGroup",
          "ACMHGHCMOIF": "SLC_Challenge_Failed",
          "param1": 0.0,
          "param2": 0.0,
          "GBOGNIOMAGM": 0.0
        }
      ]
    }
  }
]