[
  {
    "Default": {
      "$type": "MoleMole.Config.GNKCLKNDOAK",
      "abilityName": "SceneObj_Area_Xm_Property_Ani_Prop_AkaFesGrapplingHookPoint_01_Ability",
      "BFBDNNJCDLH": {
        "AttachEffect": {
          "modifierName": "",
          "elementDurability": 100.0,
          "OAOGLLGGJPD": [
            {
              "$type": "MoleMole.Config.AttachEffect",
              "effectPattern": "Eff_SceneObj_GrappleHook_01_Follow",
              "born": {
                "$type": "JEDNAGFKIDP",
                "useRotation": true,
                "OBNIJLKICKN": "AttachPoint"
              },
              "effectTempleteID": -1.0
            },
            {
              "$type": "MoleMole.Config.FireEffect",
              "effectPattern": "Eff_SceneObj_GrappleHook_01_Appear",
              "born": {
                "$type": "JEDNAGFKIDP",
                "useRotation": true,
                "OBNIJLKICKN": "AttachPoint"
              },
              "effectTempleteID": -1.0
            }
          ]
        }
      },
      "OAOGLLGGJPD": [
        {
          "$type": "MoleMole.Config.ApplyModifier",
          "modifierName": "AttachEffect"
        }
      ]
    }
  },
  {
    "Default": {
      "$type": "MoleMole.Config.GNKCLKNDOAK",
      "abilityName": "SceneObj_Area_Xm_Property_Ani_Prop_AkaFesGrapplingHookPoint_02_Ability",
      "BFBDNNJCDLH": {
        "CreatHookPoint": {
          "modifierName": "",
          "elementDurability": 100.0,
          "OAOGLLGGJPD": [
            {
              "$type": "MoleMole.Config.CreateGadget",
              "born": {
                "$type": "JEDNAGFKIDP",
                "useRotation": true,
                "OBNIJLKICKN": "RootNode"
              },
              "ACNKPHHONBO": true,
              "gadgetID": 70291120,
              "campID": 5001,
              "LKMNHMDMHJA": true
            }
          ]
        }
      },
      "OAOGLLGGJPD": [
        {
          "$type": "MoleMole.Config.ApplyModifier",
          "modifierName": "CreatHookPoint"
        }
      ]
    }
  },
  {
    "Default": {
      "$type": "MoleMole.Config.GNKCLKNDOAK",
      "abilityName": "SceneObj_Area_Xm_Property_Ani_Prop_AkaFesGrapplingHookPoint_03_Ability",
      "PIDAPNFJNDF": [
        {
          "$type": "MoleMole.Config.ScanEntityMixin",
          "tag": "GrapplingHook"
        }
      ],
      "OAOGLLGGJPD": [
        {
          "$type": "MoleMole.Config.ChangeTag",
          "BMHGAAIEHDH": true,
          "tag": "GrapplingHookPoint"
        },
        {
          "$type": "MoleMole.Config.FireEffect",
          "effectPattern": "Eff_SceneObj_GrappleHook_01_Appear",
          "effectTempleteID": -1.0
        }
      ]
    }
  },
  {
    "Default": {
      "$type": "MoleMole.Config.GNKCLKNDOAK",
      "abilityName": "AkaFesGrapplingHookSkill_Ability",
      "PIDAPNFJNDF": [
        {
          "$type": "MoleMole.Config.CheckScanEntityMixin",
          "tag": "GrapplingHook",
          "JBELCPGCFKC": [
            {
              "$type": "MoleMole.Config.AddAvatarSkillInfo",
              "doOffStage": true,
              "skillID": 20043
            },
            {
              "$type": "MoleMole.Config.AddAvatarSkillInfo",
              "doOffStage": true,
              "skillID": 20044
            },
            {
              "$type": "MoleMole.Config.ApplyModifier",
              "doOffStage": true,
              "modifierName": "Hook_SwitchAirSkill"
            },
            {
              "$type": "MoleMole.Config.DoWatcherSystemAction",
              "watcherId": 10014,
              "BCOHCCCCGAA": true
            }
          ],
          "KHNMEFADPPN": [
            {
              "$type": "MoleMole.Config.RemoveAvatarSkillInfo",
              "doOffStage": true,
              "skillID": 20043
            },
            {
              "$type": "MoleMole.Config.RemoveAvatarSkillInfo",
              "doOffStage": true,
              "skillID": 20044
            },
            {
              "$type": "MoleMole.Config.RemoveModifier",
              "doOffStage": true,
              "modifierName": "Hook_SwitchAirSkill"
            }
          ],
          "BFENNOJLNJH": "AVATAR_GrapplingHookSkill"
        },
        {
          "$type": "MoleMole.Config.AttachModifierToSelfGlobalValueMixin",
          "globalValueKey": "_ABILITY_GrapplingHookSkill_Step",
          "KADKJMOFOLI": 0.0,
          "FJEPHJNDEAI": [
            -0.5,
            0.5,
            3.9000000953674316
          ],
          "IJEPHCMOAPE": [
            "Blank",
            "UNIQUE_AkaFes_GrapplingHookSkill_GrassCoreEffect"
          ]
        },
        {
          "$type": "MoleMole.Config.AttachToStateIDMixin",
          "stateIDs": [
            "ActivitySkill_GrapplingHook"
          ],
          "modifierName": "UNIQUE_AkaFes_GrapplingHookSkill_SkillHandler",
          "MJFJKAHGHDJ": ""
        }
      ],
      "BFBDNNJCDLH": {
        "Blank": {
          "modifierName": "",
          "elementDurability": 100.0
        },
        "UNIQUE_AkaFes_GrapplingHookSkill_RecoverHandler": {
          "modifierName": "",
          "LLIJGLMEHFK": true,
          "elementDurability": 100.0,
          "PMDLJDGOIKO": [
            {
              "$type": "MoleMole.Config.SetGlobalValue",
              "doOffStage": true,
              "value": 0.0,
              "key": "_ABILITY_GrapplingHookSkill_Step",
              "maxValue": 0.0,
              "GCEOGBJIFCP": 0.0
            },
            {
              "$type": "MoleMole.Config.RemoveModifier",
              "doOffStage": true,
              "modifierName": "UNIQUE_AkaFes_GrapplingHookSkill_PreSkill"
            },
            {
              "$type": "MoleMole.Config.RemoveModifier",
              "doOffStage": true,
              "modifierName": "UNIQUE_AkaFes_GrapplingHookSkill_ThrowHook"
            },
            {
              "$type": "MoleMole.Config.RemoveModifier",
              "doOffStage": true,
              "modifierName": "UNIQUE_AkaFes_GrapplingHookSkill_SkillStart"
            }
          ]
        },
        "UNIQUE_AkaFes_GrapplingHookSkill_SkillHandler": {
          "modifierName": "",
          "LLIJGLMEHFK": true,
          "elementDurability": 100.0,
          "JPIFFPJJEMK": [
            {
              "$type": "MoleMole.Config.AttachModifierToSelfGlobalValueMixin",
              "globalValueKey": "_ABILITY_GrapplingHookSkill_Step",
              "KADKJMOFOLI": 0.0,
              "FJEPHJNDEAI": [
                0.5,
                1.5,
                3.5
              ],
              "IJEPHCMOAPE": [
                "UNIQUE_AkaFes_GrapplingHookSkill_PreSkill",
                "UNIQUE_AkaFes_GrapplingHookSkill_ThrowHook"
              ]
            },
            {
              "$type": "MoleMole.Config.AttachModifierToSelfGlobalValueMixin",
              "globalValueKey": "_ABILITY_GrapplingHookSkill_Step",
              "KADKJMOFOLI": 0.0,
              "FJEPHJNDEAI": [
                2.5,
                4.5
              ],
              "IJEPHCMOAPE": [
                "UNIQUE_AkaFes_GrapplingHookSkill_SkillStart"
              ]
            }
          ],
          "OAOGLLGGJPD": [
            {
              "$type": "MoleMole.Config.SetGlobalValue",
              "value": 1.0,
              "key": "_ABILITY_GrapplingHookSkill_Step",
              "maxValue": 0.0,
              "GCEOGBJIFCP": 0.0
            }
          ],
          "MINFJCDAIBB": [
            {
              "$type": "MoleMole.Config.SetGlobalValue",
              "doOffStage": true,
              "predicates": [
                {
                  "$type": "IPGGGPIJONN",
                  "key": "_ABILITY_GrapplingHookSkill_Step",
                  "value": 3.0,
                  "compareType": "LessAndEqual"
                }
              ],
              "value": 0.0,
              "key": "_ABILITY_GrapplingHookSkill_Step",
              "maxValue": 0.0,
              "GCEOGBJIFCP": 0.0
            }
          ]
        },
        "Hook_SwitchAirSkill": {
          "modifierName": "",
          "elementDurability": 100.0,
          "JPIFFPJJEMK": [
            {
              "$type": "MoleMole.Config.ActivitySkillMixin",
              "priority": "Auto",
              "GDJNMKMIPEI": 20050
            },
            {
              "$type": "MoleMole.Config.AvatarChangeSkillMixin",
              "index": -1,
              "priority": "Playmode",
              "KGEMAFCBDNE": 20044,
              "PCPPHBHAHCD": 20044
            },
            {
              "$type": "MoleMole.Config.AttachToStateIDMixin",
              "stateIDs": [
                "Fly",
                "Fall"
              ],
              "modifierName": "ChangePlayMode_FlyMark",
              "NHFFFFLKCPD": true,
              "MJFJKAHGHDJ": ""
            },
            {
              "$type": "MoleMole.Config.AttachToStateIDMixin",
              "stateIDs": [
                "Jump"
              ],
              "modifierName": "ChangePlayMode_JumpMark_Handler",
              "NHFFFFLKCPD": true,
              "MJFJKAHGHDJ": ""
            },
            {
              "$type": "MoleMole.Config.AttachModifierToSelfGlobalValueMixin",
              "globalValueKey": "_ABILITY_GrapplingHookSkill_JoypadAirSkill_Mark",
              "KADKJMOFOLI": 0.0,
              "FJEPHJNDEAI": [
                -0.5,
                0.5,
                5.5
              ],
              "IJEPHCMOAPE": [
                "Blank",
                "ChangePlayModeForJoypad"
              ]
            }
          ]
        },
        "ChangePlayModeForJoypad": {
          "modifierName": "",
          "elementDurability": 100.0,
          "OAOGLLGGJPD": [
            {
              "$type": "MoleMole.Config.ChangePlayMode",
              "doOffStage": true,
              "muteRemoteAction": true,
              "CKOEBHFKNCO": "GrapplingHook"
            }
          ],
          "MINFJCDAIBB": [
            {
              "$type": "MoleMole.Config.ChangePlayMode",
              "doOffStage": true,
              "muteRemoteAction": true
            }
          ]
        },
        "ChangePlayMode_FlyMark": {
          "modifierName": "",
          "elementDurability": 100.0,
          "OAOGLLGGJPD": [
            {
              "$type": "MoleMole.Config.AddGlobalValue",
              "doOffStage": true,
              "value": 1.0,
              "key": "_ABILITY_GrapplingHookSkill_JoypadAirSkill_Mark",
              "HPICGAMGEGA": true,
              "maxValue": 5.0,
              "GCEOGBJIFCP": 0.0
            }
          ],
          "MINFJCDAIBB": [
            {
              "$type": "MoleMole.Config.AddGlobalValue",
              "doOffStage": true,
              "value": -1.0,
              "key": "_ABILITY_GrapplingHookSkill_JoypadAirSkill_Mark",
              "HPICGAMGEGA": true,
              "maxValue": 5.0,
              "GCEOGBJIFCP": 0.0
            }
          ]
        },
        "ChangePlayMode_JumpMark_Handler": {
          "modifierName": "",
          "elementDurability": 100.0,
          "BNJENAIMDPL": 0.699999988079071,
          "PJKELBNICOI": [
            {
              "$type": "MoleMole.Config.AttachModifier",
              "modifierName": "ChangePlayMode_JumpMark"
            }
          ]
        },
        "ChangePlayMode_JumpMark": {
          "modifierName": "",
          "elementDurability": 100.0,
          "OAOGLLGGJPD": [
            {
              "$type": "MoleMole.Config.AddGlobalValue",
              "doOffStage": true,
              "value": 1.0,
              "key": "_ABILITY_GrapplingHookSkill_JoypadAirSkill_Mark",
              "HPICGAMGEGA": true,
              "maxValue": 5.0,
              "GCEOGBJIFCP": 0.0
            }
          ],
          "MINFJCDAIBB": [
            {
              "$type": "MoleMole.Config.AddGlobalValue",
              "doOffStage": true,
              "value": -1.0,
              "key": "_ABILITY_GrapplingHookSkill_JoypadAirSkill_Mark",
              "HPICGAMGEGA": true,
              "maxValue": 5.0,
              "GCEOGBJIFCP": 0.0
            }
          ]
        },
        "UNIQUE_AkaFes_GrapplingHookSkill_PreSkill": {
          "modifierName": "",
          "LLIJGLMEHFK": true,
          "elementDurability": 100.0,
          "EPKCPIKGJOJ": {
            "Actor_EndureDelta": 0.0
          },
          "OAOGLLGGJPD": [
            {
              "$type": "MoleMole.Config.AttachModifier",
              "modifierName": "RushMoveOnGround"
            },
            {
              "$type": "MoleMole.Config.ApplyModifier",
              "modifierName": "UNIQUE_AkaFes_StreamingOptimization"
            },
            {
              "$type": "MoleMole.Config.DoWatcherSystemAction",
              "watcherId": 81260,
              "BCOHCCCCGAA": true
            }
          ]
        },
        "RushMoveOnGround": {
          "modifierName": "",
          "duration": 0.05999999865889549,
          "elementDurability": 100.0,
          "EPKCPIKGJOJ": {
            "Actor_EndureDelta": 0.0
          },
          "OAOGLLGGJPD": [
            {
              "$type": "MoleMole.Config.Predicated",
              "CKBKOCJPJMM": [
                {
                  "$type": "KICGNCCKIBK",
                  "logic": "LesserOrEqual",
                  "value": 0.5
                }
              ],
              "successActions": [
                {
                  "$type": "MoleMole.Config.RemoveVelocityForce",
                  "forces": [
                    "RushMoveType",
                    "InertiaType"
                  ]
                },
                {
                  "$type": "MoleMole.Config.FixedAvatarRushMove",
                  "AOFHAEGNPNM": {
                    "$type": "KPFCCIOJAMK",
                    "offset": {
                      "GOAPOLCAJBP": 0.0,
                      "FMOPCJGGFMH": 0.5,
                      "EJJEPFCDDAM": 0.0
                    },
                    "useRotation": true
                  },
                  "CCCEOGENKHO": 0.05000000074505806,
                  "PINMBGMOMIF": 2.0,
                  "DEMLBEAGONB": [
                    "ActivitySkill_GrapplingHook"
                  ],
                  "FPDNOCJKMNB": "",
                  "PIFOOLCOABP": true
                }
              ]
            }
          ],
          "MINFJCDAIBB": [
            {
              "$type": "MoleMole.Config.RemoveVelocityForce",
              "forces": [
                "RushMoveType",
                "InertiaType"
              ]
            },
            {
              "$type": "MoleMole.Config.AddGlobalValue",
              "value": 1.0,
              "key": "Avatar_HookVisible",
              "maxValue": 0.0,
              "GCEOGBJIFCP": 0.0
            },
            {
              "$type": "MoleMole.Config.SetGlobalValue",
              "predicates": [
                {
                  "$type": "IPGGGPIJONN",
                  "key": "_ABILITY_GrapplingHookSkill_Step",
                  "value": 1.0
                }
              ],
              "value": 2.0,
              "key": "_ABILITY_GrapplingHookSkill_Step",
              "maxValue": 0.0,
              "GCEOGBJIFCP": 0.0
            }
          ]
        },
        "UNIQUE_AkaFes_GrapplingHookSkill_ThrowHook": {
          "modifierName": "",
          "LLIJGLMEHFK": true,
          "elementDurability": 100.0,
          "JPIFFPJJEMK": [
            {
              "$type": "MoleMole.Config.ThrowGrapplingHookMixin",
              "effectPattern": "Eff_SceneObj_Grapple_01_Line",
              "CINDHKBGJMG": "_GrapplingHook_TargetPos",
              "MNPKJIPGJOE": [
                {
                  "$type": "MoleMole.Config.SetGlobalValue",
                  "predicates": [
                    {
                      "$type": "IPGGGPIJONN",
                      "key": "_ABILITY_GrapplingHookSkill_Step",
                      "value": 2.0
                    }
                  ],
                  "value": 3.0,
                  "key": "_ABILITY_GrapplingHookSkill_Step",
                  "maxValue": 0.0,
                  "GCEOGBJIFCP": 0.0
                },
                {
                  "$type": "MoleMole.Config.AttachModifier",
                  "modifierName": "HookEffectTrigger"
                }
              ],
              "PFDCNDBNMCH": true
            },
            {
              "$type": "MoleMole.Config.GrapplingHookMoveStayInPlaceMixin"
            }
          ],
          "EPKCPIKGJOJ": {
            "Actor_EndureDelta": 0.0
          }
        },
        "UNIQUE_AkaFes_GrapplingHookSkill_SkillStart": {
          "modifierName": "",
          "LLIJGLMEHFK": true,
          "elementDurability": 100.0,
          "JPIFFPJJEMK": [
            {
              "$type": "MoleMole.Config.GrapplingHookMoveMixin",
              "CFAMIJNGGHD": [
                {
                  "$type": "MoleMole.Config.SetGlobalValue",
                  "predicates": [
                    {
                      "$type": "IPGGGPIJONN",
                      "key": "_ABILITY_GrapplingHookSkill_Step",
                      "value": 3.0
                    }
                  ],
                  "value": 4.0,
                  "key": "_ABILITY_GrapplingHookSkill_Step",
                  "maxValue": 0.0,
                  "GCEOGBJIFCP": 0.0
                },
                {
                  "$type": "MoleMole.Config.ApplyModifier",
                  "modifierName": "GrapplingHook_ArrivedRushMove"
                }
              ],
              "JOKIMJPLIKC": 5.0,
              "AKGJHAFMMCO": 1.0,
              "GPLAACLHHJM": 0.5
            },
            {
              "$type": "MoleMole.Config.ModifyCameraMaxDistanceMixin",
              "ECGEECDANPN": 10.0,
              "IEGJPJBKEOC": true,
              "ENKCCFICHIM": 0.20000000298023224,
              "CJJLDLPKMFP": 0.699999988079071
            },
            {
              "$type": "MoleMole.Config.TriggerPostProcessEffectMixin",
              "MJBNOIPNMPF": "PostEffect_Skiff_Sprint",
              "NCBIBKJDCHI": 0.0
            }
          ],
          "OAOGLLGGJPD": [
            {
              "$type": "MoleMole.Config.GrapplingHookRushMove",
              "predicates": [
                {
                  "$type": "IPGGGPIJONN",
                  "key": "_ABILITY_GrapplingHookSkill_Step",
                  "value": 3.0
                }
              ],
              "AOFHAEGNPNM": {
                "$type": "IPPOJFGKJFD",
                "offset": {
                  "GOAPOLCAJBP": 0.0,
                  "FMOPCJGGFMH": -0.5,
                  "EJJEPFCDDAM": 0.0
                },
                "direction": {
                  "$type": "FLKIECDFAGL",
                  "DLKPHEEBIKB": "_GrapplingHook_TargetDir"
                },
                "CINDHKBGJMG": "_GrapplingHook_TargetPos",
                "DLKPHEEBIKB": ""
              },
              "CNPJFFKKIKB": 15.0,
              "HJJOAJGGCMO": 10.0,
              "OFHBEJEFPDI": 20.0,
              "DEMLBEAGONB": [
                "ActivitySkill_GrapplingHook",
                "Fly",
                "Standby",
                "Run"
              ],
              "PIFOOLCOABP": true
            },
            {
              "$type": "MoleMole.Config.AttachModifier",
              "predicates": [
                {
                  "$type": "IPGGGPIJONN",
                  "key": "_ABILITY_GrapplingHookSkill_Step",
                  "value": 3.0
                }
              ],
              "modifierName": "Camera_Blur"
            },
            {
              "$type": "MoleMole.Config.DebugLog",
              "KNKPIGLBMEP": "!!!!!!!!!!!Camera_Blur!!!!!!!!!!"
            }
          ]
        },
        "UNIQUE_AkaFes_GrapplingHookSkill_HookHideHanlde": {
          "modifierName": "",
          "LLIJGLMEHFK": true,
          "elementDurability": 100.0,
          "JPIFFPJJEMK": [
            {
              "$type": "MoleMole.Config.DoActionOnGlobalValueChangeMixin",
              "globalValueKey": "Avatar_HookVisible",
              "actions": [
                {
                  "$type": "MoleMole.Config.TriggerSetVisible",
                  "predicates": [
                    {
                      "$type": "IPGGGPIJONN",
                      "key": "Avatar_HookVisible",
                      "value": 1.0,
                      "compareType": "MoreThanAndEqual"
                    }
                  ]
                }
              ]
            }
          ],
          "OAOGLLGGJPD": [
            {
              "$type": "MoleMole.Config.TriggerSetVisible"
            }
          ],
          "MINFJCDAIBB": [
            {
              "$type": "MoleMole.Config.SetGlobalValue",
              "doOffStage": true,
              "value": 0.0,
              "key": "Avatar_HookVisible",
              "maxValue": 0.0,
              "GCEOGBJIFCP": 0.0
            },
            {
              "$type": "MoleMole.Config.TriggerSetVisible",
              "doOffStage": true,
              "canBeHandledOnRecover": true,
              "LJBECOMGDEJ": true
            }
          ]
        },
        "UNIQUE_AkaFes_GrapplingHookSkill_GrassCoreEffect": {
          "modifierName": "",
          "LLIJGLMEHFK": true,
          "elementDurability": 100.0,
          "EPKCPIKGJOJ": {
            "Actor_AddGravityScale": -2.0
          },
          "OAOGLLGGJPD": [
            {
              "$type": "MoleMole.Config.SetVelocityIgnoreAirGY",
              "LFAHHKGHOEF": true
            },
            {
              "$type": "MoleMole.Config.FireEffect",
              "effectPattern": "Eff_SceneObj_Grapple_01_MoveIn",
              "effectTempleteID": -1.0
            },
            {
              "$type": "MoleMole.Config.AttachEffect",
              "effectPattern": "Eff_SceneObj_Grapple_01_Moving",
              "born": {
                "$type": "KPFCCIOJAMK",
                "direction": {
                  "$type": "FLKIECDFAGL",
                  "DLKPHEEBIKB": "_GrapplingHook_TargetDir"
                },
                "useRotation": true
              },
              "effectTempleteID": -1.0
            },
            {
              "$type": "MoleMole.Config.RemoveUniqueModifier",
              "modifierName": "UNIQUE_AkaFes_GrapplingHookSkill_HookHideHanlde"
            },
            {
              "$type": "MoleMole.Config.AttachModifier",
              "doOffStage": true,
              "modifierName": "UNIQUE_AkaFes_GrapplingHookSkill_HookHideHanlde"
            }
          ],
          "MINFJCDAIBB": [
            {
              "$type": "MoleMole.Config.SetVelocityIgnoreAirGY",
              "doOffStage": true
            },
            {
              "$type": "MoleMole.Config.RemoveVelocityForce",
              "doOffStage": true,
              "forces": [
                "RushMoveType",
                "InertiaType"
              ]
            },
            {
              "$type": "MoleMole.Config.FireEffect",
              "effectPattern": "Eff_SceneObj_Grapple_01_MoveOut",
              "effectTempleteID": -1.0
            },
            {
              "$type": "MoleMole.Config.ApplyModifier",
              "doOffStage": true,
              "modifierName": "GrapplingHook_SkillCharge"
            }
          ]
        },
        "GrapplingHook_SkillCharge": {
          "modifierName": "",
          "duration": 1.0,
          "elementDurability": 100.0,
          "MINFJCDAIBB": [
            {
              "$type": "MoleMole.Config.SetGlobalValue",
              "doOffStage": true,
              "value": 100.0,
              "key": "AVATAR_GrapplingHookSkill",
              "HPICGAMGEGA": true,
              "maxValue": 100.0,
              "GCEOGBJIFCP": 0.0
            }
          ]
        },
        "GrapplingHook_ArrivedRushMove": {
          "modifierName": "",
          "duration": 0.20000000298023224,
          "elementDurability": 100.0,
          "EPKCPIKGJOJ": {
            "Actor_AddGravityScale": -2.0
          },
          "OAOGLLGGJPD": [
            {
              "$type": "MoleMole.Config.AvatarExitCameraShot",
              "doOffStage": true
            },
            {
              "$type": "MoleMole.Config.SetVelocityIgnoreAirGY",
              "LFAHHKGHOEF": true
            },
            {
              "$type": "MoleMole.Config.RemoveVelocityForce",
              "forces": [
                "InertiaType",
                "GrapplingHookMoveType"
              ]
            },
            {
              "$type": "MoleMole.Config.FixedAvatarRushMove",
              "MLDBFKEGPEF": "CurLocalAvatar",
              "AOFHAEGNPNM": {
                "$type": "KPFCCIOJAMK",
                "offset": {
                  "GOAPOLCAJBP": 0.0,
                  "FMOPCJGGFMH": 1.0,
                  "EJJEPFCDDAM": 0.0
                },
                "useRotation": true
              },
              "CCCEOGENKHO": 0.05000000074505806,
              "PINMBGMOMIF": 0.5,
              "DEMLBEAGONB": [
                "ActivitySkill_GrapplingHook",
                "DropDown"
              ],
              "FPDNOCJKMNB": "",
              "PIFOOLCOABP": true
            }
          ],
          "MINFJCDAIBB": [
            {
              "$type": "MoleMole.Config.SetVelocityIgnoreAirGY"
            },
            {
              "$type": "MoleMole.Config.SetAnimatorTrigger",
              "triggerID": "GrapplingHook_Drop"
            },
            {
              "$type": "MoleMole.Config.SetGlobalValue",
              "value": 0.0,
              "key": "_ABILITY_GrapplingHookSkill_Step",
              "maxValue": 0.0,
              "GCEOGBJIFCP": 0.0
            }
          ]
        },
        "Camera_Blur": {
          "modifierName": "",
          "duration": 0.20000000298023224,
          "elementDurability": 100.0,
          "JPIFFPJJEMK": [
            {
              "$type": "MoleMole.Config.CameraBlurMixin",
              "BNKAAOANKPF": {
                "KGALJHJDKGI": 1.0,
                "DKGOEPPEFPN": 0.10000000149011612
              }
            }
          ]
        },
        "UNIQUE_AkaFes_StreamingOptimization": {
          "modifierName": "",
          "LLIJGLMEHFK": true,
          "duration": 4.0,
          "elementDurability": 100.0,
          "JPIFFPJJEMK": [
            {
              "$type": "MoleMole.Config.StreamingModifierMixin"
            }
          ]
        },
        "GrapplingHook_Init": {
          "EODJPKICNGG": "MultipleRefresh",
          "MPHEFFBDDNI": {
            "DFCKOFNNADO": "",
            "PDBIGMFIALF": 1.0
          },
          "modifierName": "",
          "elementDurability": 100.0,
          "OAOGLLGGJPD": [
            {
              "$type": "MoleMole.Config.SetGlobalValue",
              "value": 0.0,
              "key": "_ABILITY_GrapplingHookSkill_Step",
              "maxValue": 0.0,
              "GCEOGBJIFCP": 0.0
            },
            {
              "$type": "MoleMole.Config.SetAnimatorTrigger",
              "triggerID": "GrapplingHook_Drop"
            },
            {
              "$type": "MoleMole.Config.SetVelocityIgnoreAirGY",
              "doOffStage": true
            },
            {
              "$type": "MoleMole.Config.RemoveVelocityForce",
              "forces": [
                "RushMoveType",
                "InertiaType",
                "FixedRushMoveType",
                "SpeedupType",
                "GrapplingHookMoveType"
              ]
            }
          ]
        },
        "HookEffectTrigger": {
          "modifierName": "",
          "elementDurability": 100.0,
          "OAOGLLGGJPD": [
            {
              "$type": "MoleMole.Config.AttachEffect",
              "muteRemoteAction": true,
              "effectPattern": "Eff_SceneObj_GrappleHook_01_Active",
              "born": {
                "$type": "IPPOJFGKJFD",
                "CINDHKBGJMG": "_GrapplingHook_TargetPos",
                "DLKPHEEBIKB": ""
              },
              "effectTempleteID": -1.0
            },
            {
              "$type": "MoleMole.Config.SendEffectTrigger",
              "parameter": "Get",
              "attachPoint": "",
              "effectPattern": "Eff_SceneObj_Grapple_01_Line"
            }
          ]
        }
      },
      "OAOGLLGGJPD": [
        {
          "$type": "MoleMole.Config.SetGlobalValue",
          "doOffStage": true,
          "value": 0.0,
          "key": "_ABILITY_GrapplingHookSkill_Step",
          "maxValue": 0.0,
          "GCEOGBJIFCP": 0.0
        },
        {
          "$type": "MoleMole.Config.ApplyModifier",
          "modifierName": "UNIQUE_AkaFes_GrapplingHookSkill_RecoverHandler"
        }
      ],
      "EIIHGJGFDHC": [
        {
          "$type": "MoleMole.Config.ClearGlobalPos",
          "key": "_GrapplingHook_TargetPos"
        },
        {
          "$type": "MoleMole.Config.Predicated",
          "otherTargets": {
            "$type": "MKNMDMJDLIO",
            "KHHAHILDJDO": 1,
            "tag": "GrapplingHook"
          },
          "successActions": [
            {
              "$type": "MoleMole.Config.DebugLog",
              "KNKPIGLBMEP": "TD:Hook AbilityStart!!!"
            },
            {
              "$type": "MoleMole.Config.SetGlobalPos",
              "MLDBFKEGPEF": "Target",
              "key": "_GrapplingHook_TargetPos",
              "born": {
                "$type": "INKMBJGOPCK"
              },
              "CIGMKELFHHB": false
            },
            {
              "$type": "MoleMole.Config.SetGlobalDir",
              "MLDBFKEGPEF": "Target",
              "key": "_GrapplingHook_TargetDir",
              "born": {
                "$type": "KPFCCIOJAMK",
                "direction": {
                  "$type": "KODKPEPMJJL",
                  "namedTransform": ""
                },
                "useRotation": true
              },
              "CIGMKELFHHB": false
            },
            {
              "$type": "MoleMole.Config.SetSelfAttackTarget",
              "MLDBFKEGPEF": "Target",
              "CCJPKLDHIIJ": true
            },
            {
              "$type": "MoleMole.Config.EntityDoSkill",
              "skillID": 20044
            },
            {
              "$type": "MoleMole.Config.EntityDoSkill",
              "skillID": 20043
            }
          ]
        }
      ],
      "DOFDCKKDGHL": [
        {
          "$type": "MoleMole.Config.ApplyModifier",
          "modifierName": "GrapplingHook_Init"
        }
      ],
      "LLNGCHGGPLC": true
    }
  },
  {
    "Default": {
      "$type": "MoleMole.Config.GNKCLKNDOAK",
      "abilityName": "SceneObj_Level_Xm_Property_Ani_Prop_AkaFesArcCheckPoint_01",
      "PIDAPNFJNDF": [
        {
          "$type": "MoleMole.Config.AttachToGadgetStateMixin",
          "modifierName": "ShowLightHole"
        },
        {
          "$type": "MoleMole.Config.AttachToGadgetStateMixin",
          "MHKDFIPGJJO": 201,
          "modifierName": "StandBy"
        },
        {
          "$type": "MoleMole.Config.AttachToGadgetStateMixin",
          "MHKDFIPGJJO": 202,
          "modifierName": "Interacted"
        }
      ],
      "BFBDNNJCDLH": {
        "EffectAttach": {
          "modifierName": "",
          "elementDurability": 100.0,
          "OAOGLLGGJPD": [
            {
              "$type": "MoleMole.Config.AttachEffect",
              "effectPattern": "Eff_SceneObj_AkaFesArcCheckPoint_01",
              "born": {
                "$type": "JEDNAGFKIDP",
                "offset": {
                  "GOAPOLCAJBP": 0.0,
                  "FMOPCJGGFMH": 0.0,
                  "EJJEPFCDDAM": 0.0
                },
                "useRotation": true,
                "OBNIJLKICKN": "RootNode"
              },
              "effectTempleteID": -1.0
            }
          ]
        },
        "ShowLightHole": {
          "modifierName": "",
          "elementDurability": 100.0,
          "OAOGLLGGJPD": [
            {
              "$type": "MoleMole.Config.AttachEffect",
              "effectPattern": "Eff_SceneObj_AkaFesArcCheckPoint_01_Hint",
              "born": {
                "$type": "JEDNAGFKIDP",
                "offset": {
                  "GOAPOLCAJBP": 0.0,
                  "FMOPCJGGFMH": 0.0,
                  "EJJEPFCDDAM": 0.0
                },
                "useRotation": true,
                "OBNIJLKICKN": "RootNode"
              },
              "effectTempleteID": -1.0
            }
          ]
        },
        "StandBy": {
          "modifierName": "",
          "elementDurability": 100.0
        },
        "Interacted": {
          "modifierName": "",
          "elementDurability": 100.0,
          "OAOGLLGGJPD": [
            {
              "$type": "MoleMole.Config.AttachEffect",
              "effectPattern": "Eff_SceneObj_AkaFesArcCheckPoint_01_Active",
              "born": {
                "$type": "JEDNAGFKIDP",
                "offset": {
                  "GOAPOLCAJBP": 0.0,
                  "FMOPCJGGFMH": 0.0,
                  "EJJEPFCDDAM": 0.0
                },
                "useRotation": true,
                "OBNIJLKICKN": "RootNode"
              },
              "effectTempleteID": -1.0
            }
          ]
        }
      },
      "OAOGLLGGJPD": [
        {
          "$type": "MoleMole.Config.ApplyModifier",
          "modifierName": "EffectAttach"
        }
      ],
      "GGGLNDFDIMI": [
        {
          "$type": "MoleMole.Config.Predicated",
          "MLDBFKEGPEF": "Target",
          "CKBKOCJPJMM": [
            {
              "$type": "DLLOJMFICPG",
              "JBEIOINCLFB": [
                "Avatar"
              ]
            },
            {
              "$type": "CBCGGIMMENP",
              "MLDBFKEGPEF": "Self",
              "MHKDFIPGJJO": 201
            }
          ],
          "successActions": [
            {
              "$type": "MoleMole.Config.ServerLuaCall",
              "MECCMJIFJKG": "CurGalleryControlGroup",
              "ACMHGHCMOIF": "SLC_Activity_AkaFesArchitect_CheckPointArrived",
              "param1": 0.0,
              "param2": 0.0,
              "GBOGNIOMAGM": 0.0
            }
          ]
        }
      ]
    }
  },
  {
    "Default": {
      "$type": "MoleMole.Config.GNKCLKNDOAK",
      "abilityName": "MonsterPowerUp_Amplifier_Ice_AkaFes",
      "PIDAPNFJNDF": [
        {
          "$type": "MoleMole.Config.AttachToGadgetStateMixin",
          "LLIJGLMEHFK": true,
          "MHKDFIPGJJO": 201,
          "modifierName": "UNIQUE_MonsterPowerUp_Amplifier_Ice_Host_AkaFes"
        }
      ],
      "BFBDNNJCDLH": {
        "UNIQUE_MonsterPowerUp_Amplifier_Ice_Host_AkaFes": {
          "modifierName": "",
          "LLIJGLMEHFK": true,
          "elementDurability": 100.0,
          "BNJENAIMDPL": 15.0,
          "PJKELBNICOI": [
            {
              "$type": "MoleMole.Config.AttachEffect",
              "effectPattern": "Eff_SceneObj_MonsterPowerUp_Wave",
              "effectTempleteID": -1.0
            },
            {
              "$type": "MoleMole.Config.ApplyModifier",
              "otherTargets": {
                "$type": "DOMPKGOHKNB",
                "shapeName": "CircleR30",
                "FAMCBLCIFCJ": "AllExceptSelf",
                "CONEFMBNECE": 1.0
              },
              "predicates": [
                {
                  "$type": "DLLOJMFICPG",
                  "JBEIOINCLFB": [
                    "Monster"
                  ]
                },
                {
                  "$type": "IPGGGPIJONN",
                  "key": "_AMPLIFIER_ICE_SLAVE",
                  "value": 0.0,
                  "compareType": "NoneOrEqual"
                },
                {
                  "$type": "IPGGGPIJONN",
                  "key": "_AMPLIFIER_COOLDOWN",
                  "value": 0.0,
                  "compareType": "NoneOrEqual"
                },
                {
                  "$type": "LNALCOIFPDK",
                  "predicates": [
                    {
                      "$type": "OFEHCLIGCND",
                      "predicates": [
                        {
                          "$type": "LCEDJHFGCEN",
                          "MOKIGFFMJNB": [
                            3005
                          ]
                        }
                      ]
                    },
                    {
                      "$type": "KIHJDAIGJPH",
                      "NJPOIJLMAFI": "Frozen"
                    },
                    {
                      "$type": "KIHJDAIGJPH",
                      "NJPOIJLMAFI": "Ice"
                    }
                  ]
                }
              ],
              "modifierName": "UNIQUE_MonsterPowerUp_Amplifier_Ice_Slave_AkaFes"
            },
            {
              "$type": "MoleMole.Config.Predicated",
              "otherTargets": {
                "$type": "DOMPKGOHKNB",
                "shapeName": "CircleR30",
                "FAMCBLCIFCJ": "All",
                "CONEFMBNECE": 1.0
              },
              "CKBKOCJPJMM": [
                {
                  "$type": "DLLOJMFICPG",
                  "JBEIOINCLFB": [
                    "Monster"
                  ]
                }
              ],
              "successActions": [
                {
                  "$type": "MoleMole.Config.ApplyModifier",
                  "MLDBFKEGPEF": "Target",
                  "modifierName": "MonsterPowerUp_Amplifier_Add_Buff"
                }
              ]
            }
          ]
        },
        "UNIQUE_MonsterPowerUp_Amplifier_Ice_Slave_AkaFes": {
          "modifierName": "",
          "LLIJGLMEHFK": true,
          "elementType": "Ice",
          "elementDurability": 100.0,
          "JPIFFPJJEMK": [
            {
              "$type": "MoleMole.Config.ElementOuterGlowEffectMixin"
            }
          ],
          "EPKCPIKGJOJ": {
            "Actor_EndureDelta": 0.009999999776482582,
            "Actor_PhysicalSubHurtDelta": 0.5,
            "Actor_FireSubHurtDelta": 0.5,
            "Actor_ElecSubHurtDelta": 0.5,
            "Actor_IceSubHurtDelta": 1.0,
            "Actor_WaterSubHurtDelta": 0.5,
            "Actor_GrassSubHurtDelta": 0.5,
            "Actor_WindSubHurtDelta": 0.5,
            "Actor_RockSubHurtDelta": 0.5,
            "Actor_AttackRatio": 0.10000000149011612
          },
          "state": "DefenseUp",
          "OAOGLLGGJPD": [
            {
              "$type": "MoleMole.Config.AddGlobalValue",
              "value": 1.0,
              "key": "_AMPLIFIER_ICE_SLAVE",
              "HPICGAMGEGA": true,
              "maxValue": 1.0,
              "GCEOGBJIFCP": 0.0
            }
          ],
          "MINFJCDAIBB": [
            {
              "$type": "MoleMole.Config.AddGlobalValue",
              "value": -2.0,
              "key": "_AMPLIFIER_COOLDOWN",
              "HPICGAMGEGA": true,
              "maxValue": 0.0,
              "GCEOGBJIFCP": -2.0
            },
            {
              "$type": "MoleMole.Config.AddGlobalValue",
              "value": -1.0,
              "key": "_AMPLIFIER_ICE_SLAVE",
              "HPICGAMGEGA": true,
              "maxValue": 1.0,
              "GCEOGBJIFCP": 0.0
            }
          ]
        },
        "MonsterPowerUp_Amplifier_Add_Buff": {
          "modifierName": "",
          "duration": 0.5,
          "elementDurability": 100.0,
          "OAOGLLGGJPD": [
            {
              "$type": "MoleMole.Config.AddElementDurability",
              "MLDBFKEGPEF": "Target",
              "value": 30.0,
              "modifierName": "UNIQUE_MonsterPowerUp_Amplifier_Ice_Slave_AkaFes",
              "elementType": "Ice",
              "HPICGAMGEGA": true,
              "maxValue": 100.0,
              "GCEOGBJIFCP": 0.0
            },
            {
              "$type": "MoleMole.Config.AddGlobalValue",
              "MLDBFKEGPEF": "Target",
              "value": 1.0,
              "key": "_AMPLIFIER_COOLDOWN",
              "HPICGAMGEGA": true,
              "maxValue": 0.0,
              "GCEOGBJIFCP": -2.0
            }
          ]
        }
      }
    }
  }
]