[
  {
    "Default": {
      "$type": "MoleMole.Config.GNKCLKNDOAK",
      "abilityName": "SceneObj_Level_Xm_Property_Unique_TwoDObj_01_Ability",
      "PIDAPNFJNDF": [
        {
          "$type": "MoleMole.Config.AttachToGadgetStateMixin",
          "modifierName": "HideState"
        },
        {
          "$type": "MoleMole.Config.AttachToGadgetStateMixin",
          "MHKDFIPGJJO": 201,
          "modifierName": "ActiveState"
        }
      ],
      "BFBDNNJCDLH": {
        "HideState": {
          "modifierName": "",
          "elementDurability": 100.0,
          "OAOGLLGGJPD": [
            {
              "$type": "MoleMole.Config.EnableSceneTransformByName",
              "MKNNBEGONKE": [
                "Root"
              ]
            }
          ]
        },
        "ActiveState": {
          "modifierName": "",
          "elementDurability": 100.0,
          "OAOGLLGGJPD": [
            {
              "$type": "MoleMole.Config.EnableSceneTransformByName",
              "MKNNBEGONKE": [
                "Root"
              ],
              "NJKBCLADIBK": true
            }
          ]
        }
      }
    }
  },
  {
    "Default": {
      "$type": "MoleMole.Config.GNKCLKNDOAK",
      "abilityName": "SceneObj_Level_Xm_Property_Prop_BubblePlatform_01_Ability",
      "PIDAPNFJNDF": [
        {
          "$type": "MoleMole.Config.AttachToGadgetStateMixin",
          "MHKDFIPGJJO": 201,
          "modifierName": "KillBySelf"
        }
      ],
      "BFBDNNJCDLH": {
        "Bubble": {
          "modifierName": "",
          "duration": 3.0,
          "elementDurability": 100.0,
          "EPKCPIKGJOJ": {
            "Actor_AddGravityScale": -2.0
          },
          "state": "Struggle",
          "OAOGLLGGJPD": [
            {
              "$type": "MoleMole.Config.AttachEffect",
              "effectPattern": "Eff_SceneObj_BubbleShoot_01_Bubble",
              "effectTempleteID": -1.0
            }
          ],
          "MINFJCDAIBB": [
            {
              "$type": "MoleMole.Config.FireEffect",
              "effectPattern": "Eff_SceneObj_BubbleShoot_01_Bubble_Die",
              "effectTempleteID": -1.0
            }
          ]
        },
        "KillBySelf": {
          "modifierName": "",
          "elementDurability": 100.0,
          "OAOGLLGGJPD": [
            {
              "$type": "MoleMole.Config.FireEffect",
              "effectPattern": "Eff_SceneObj_BubbleShoot_01_Bubble_Die",
              "effectTempleteID": -1.0
            },
            {
              "$type": "MoleMole.Config.KillSelf",
              "BPPEBCCLLKC": true
            }
          ]
        }
      },
      "GGGLNDFDIMI": [
        {
          "$type": "MoleMole.Config.Predicated",
          "MLDBFKEGPEF": "Target",
          "CKBKOCJPJMM": [
            {
              "$type": "DLLOJMFICPG",
              "JBEIOINCLFB": [
                "Avatar"
              ]
            }
          ],
          "successActions": [
            {
              "$type": "MoleMole.Config.ApplyModifier",
              "MLDBFKEGPEF": "Target",
              "modifierName": "Bubble"
            },
            {
              "$type": "MoleMole.Config.KillSelf",
              "NCBIBKJDCHI": 1.0,
              "BPPEBCCLLKC": true
            }
          ]
        }
      ]
    }
  },
  {
    "Default": {
      "$type": "MoleMole.Config.GNKCLKNDOAK",
      "abilityName": "SceneObj_Level_Xm_Property_Ani_Prop_DungeonMushroom_01_Ability",
      "PIDAPNFJNDF": [
        {
          "$type": "MoleMole.Config.AttachToGadgetStateMixin",
          "modifierName": "DefaultState"
        }
      ],
      "BFBDNNJCDLH": {
        "DefaultState": {
          "modifierName": "",
          "elementDurability": 100.0,
          "JPIFFPJJEMK": [
            {
              "$type": "MoleMole.Config.SetTrampolineAbilityMixin",
              "abilityName": "Avatar_Trampoline_Jump_Controller",
              "FJHGGAMEBFF": false,
              "AOBNCFHPLPP": ""
            }
          ],
          "OAOGLLGGJPD": [
            {
              "$type": "MoleMole.Config.FireEffect",
              "effectPattern": "Eff_SceneObj_BouncingMushroom_01_Appear",
              "effectTempleteID": -1.0
            }
          ]
        }
      },
      "DOFDCKKDGHL": [
        {
          "$type": "MoleMole.Config.FireEffect",
          "effectPattern": "Eff_SceneObj_BouncingMushroom_01_Disappear",
          "effectTempleteID": -1.0
        }
      ]
    }
  },
  {
    "Default": {
      "$type": "MoleMole.Config.GNKCLKNDOAK",
      "abilityName": "SceneObj_Level_Xm_Property_Ani_Prop_DungeonMushroom_02_Ability",
      "PIDAPNFJNDF": [
        {
          "$type": "MoleMole.Config.AttachToGadgetStateMixin",
          "modifierName": "DefaultState"
        }
      ],
      "BFBDNNJCDLH": {
        "DefaultState": {
          "modifierName": "",
          "elementDurability": 100.0,
          "BNJENAIMDPL": 2.0,
          "JPIFFPJJEMK": [
            {
              "$type": "MoleMole.Config.SetTrampolineAbilityMixin",
              "abilityName": "Avatar_Trampoline_Jump_Controller",
              "AOBNCFHPLPP": ""
            }
          ],
          "OAOGLLGGJPD": [
            {
              "$type": "MoleMole.Config.FireEffect",
              "effectPattern": "Eff_SceneObj_BouncingMushroom_01_Appear",
              "effectTempleteID": -1.0
            }
          ],
          "PJKELBNICOI": [
            {
              "$type": "MoleMole.Config.AttachModifier",
              "modifierName": "BreathLight01"
            }
          ]
        },
        "BreathLight01": {
          "modifierName": "",
          "duration": 1.100000023841858,
          "elementDurability": 100.0,
          "BNJENAIMDPL": 1.0,
          "OAOGLLGGJPD": [
            {
              "$type": "MoleMole.Config.SetMaterialParamFloatByTransform",
              "BOMCOINOGJJ": "Mat",
              "NBBNACBLOCB": "_EmissionStrength",
              "value": 2.0
            },
            {
              "$type": "MoleMole.Config.SetMaterialParamFloatByTransform",
              "canBeHandledOnRecover": true,
              "BOMCOINOGJJ": "Mat",
              "NBBNACBLOCB": "_EmissionStrength",
              "value": 6.0,
              "IKGKPGNHIED": true,
              "lerpTime": 1.0
            }
          ],
          "PJKELBNICOI": [
            {
              "$type": "MoleMole.Config.ApplyModifier",
              "modifierName": "BreathLight02"
            }
          ]
        },
        "BreathLight02": {
          "modifierName": "",
          "duration": 0.20000000298023224,
          "elementDurability": 100.0,
          "OAOGLLGGJPD": [
            {
              "$type": "MoleMole.Config.SetMaterialParamFloatByTransform",
              "BOMCOINOGJJ": "Mat",
              "NBBNACBLOCB": "_EmissionStrength",
              "value": 6.0
            },
            {
              "$type": "MoleMole.Config.SetMaterialParamFloatByTransform",
              "canBeHandledOnRecover": true,
              "BOMCOINOGJJ": "Mat",
              "NBBNACBLOCB": "_EmissionStrength",
              "value": 2.0,
              "IKGKPGNHIED": true,
              "lerpTime": 1.0
            }
          ]
        }
      },
      "DOFDCKKDGHL": [
        {
          "$type": "MoleMole.Config.FireEffect",
          "effectPattern": "Eff_SceneObj_BouncingMushroom_01_Disappear",
          "effectTempleteID": -1.0
        }
      ]
    }
  },
  {
    "Default": {
      "$type": "MoleMole.Config.GNKCLKNDOAK",
      "abilityName": "SceneObj_Level_Xm_Property_Prop_SmrEnigmaticSeal_01_Ability",
      "PIDAPNFJNDF": [
        {
          "$type": "MoleMole.Config.AttachToGadgetStateMixin",
          "MHKDFIPGJJO": 201,
          "modifierName": "Dissolve"
        }
      ],
      "BFBDNNJCDLH": {
        "Dissolve": {
          "modifierName": "",
          "elementDurability": 100.0,
          "OAOGLLGGJPD": [
            {
              "$type": "MoleMole.Config.SetMaterialParamFloatByTransform",
              "BOMCOINOGJJ": "Mat",
              "NBBNACBLOCB": "_DissolveValue",
              "value": 1.0,
              "IKGKPGNHIED": true,
              "lerpTime": 1.0
            }
          ]
        }
      }
    }
  },
  {
    "Default": {
      "$type": "MoleMole.Config.GNKCLKNDOAK",
      "abilityName": "SceneObj_Level_Xm_Property_Prop_Woodenpile_01_Ability",
      "PIDAPNFJNDF": [
        {
          "$type": "MoleMole.Config.AttachToGadgetStateMutexMixin",
          "GFILCGCNBGO": [
            0,
            201
          ],
          "NDNJKGCLOPM": [
            [
              "Alive"
            ],
            [
              "Disappear"
            ]
          ]
        },
        {
          "$type": "MoleMole.Config.AttachModifierToSelfGlobalValueNoInitMixin",
          "globalValueKey": "_IsDelete",
          "FJEPHJNDEAI": [
            0.5,
            1.5
          ],
          "IJEPHCMOAPE": [
            "DeleteHandle"
          ]
        }
      ],
      "BFBDNNJCDLH": {
        "Alive": {
          "modifierName": "",
          "elementDurability": 100.0,
          "OAOGLLGGJPD": [
            {
              "$type": "MoleMole.Config.SetGlobalValue",
              "value": 0.0,
              "key": "_IsDelete",
              "maxValue": 0.0,
              "GCEOGBJIFCP": 0.0
            },
            {
              "$type": "MoleMole.Config.SetMaterialParamFloatByTransform",
              "canBeHandledOnRecover": true,
              "BOMCOINOGJJ": "Mat",
              "NBBNACBLOCB": "_DitherAlpha",
              "value": 1.0
            },
            {
              "$type": "MoleMole.Config.EnableSceneTransformByName",
              "canBeHandledOnRecover": true,
              "MKNNBEGONKE": [
                "Collider"
              ],
              "NJKBCLADIBK": true
            }
          ]
        },
        "DeleteHandle": {
          "modifierName": "",
          "elementDurability": 100.0,
          "OAOGLLGGJPD": [
            {
              "$type": "MoleMole.Config.ChangeGadgetState",
              "HOJGPJHDKFJ": 201
            }
          ]
        },
        "Disappear": {
          "modifierName": "",
          "elementDurability": 100.0,
          "OAOGLLGGJPD": [
            {
              "$type": "MoleMole.Config.SetMaterialParamFloatByTransform",
              "BOMCOINOGJJ": "Mat",
              "NBBNACBLOCB": "_DitherAlpha",
              "value": 0.0,
              "IKGKPGNHIED": true,
              "lerpTime": 1.5
            },
            {
              "$type": "MoleMole.Config.EnableSceneTransformByName",
              "canBeHandledOnRecover": true,
              "MKNNBEGONKE": [
                "Collider"
              ]
            }
          ]
        }
      },
      "OAOGLLGGJPD": [
        {
          "$type": "MoleMole.Config.SetMaterialParamFloatByTransform",
          "predicates": [
            {
              "$type": "CBCGGIMMENP",
              "MHKDFIPGJJO": 201
            }
          ],
          "BOMCOINOGJJ": "Mat",
          "NBBNACBLOCB": "_DitherAlpha",
          "value": 0.0
        },
        {
          "$type": "MoleMole.Config.ChangeTag",
          "BMHGAAIEHDH": true,
          "tag": "DeleteHanaTarget"
        }
      ]
    }
  },
  {
    "Default": {
      "$type": "MoleMole.Config.GNKCLKNDOAK",
      "abilityName": "SceneObj_Level_Xm_Property_Ani_Prop_TighnariBlankDoor_01_Ability",
      "PIDAPNFJNDF": [
        {
          "$type": "MoleMole.Config.AttachToGadgetStateMutexMixin",
          "GFILCGCNBGO": [
            0,
            201
          ],
          "NDNJKGCLOPM": [
            [
              "Close"
            ],
            [
              "Open"
            ]
          ]
        }
      ],
      "BFBDNNJCDLH": {
        "Close": {
          "modifierName": "",
          "elementDurability": 100.0,
          "OAOGLLGGJPD": [
            {
              "$type": "MoleMole.Config.SetMaterialParamFloatByTransform",
              "canBeHandledOnRecover": true,
              "BOMCOINOGJJ": "Mat",
              "NBBNACBLOCB": "_DitherAlpha",
              "value": 1.0
            },
            {
              "$type": "MoleMole.Config.EnableSceneTransformByName",
              "canBeHandledOnRecover": true,
              "MKNNBEGONKE": [
                "Airwall"
              ],
              "NJKBCLADIBK": true
            }
          ]
        },
        "Open": {
          "modifierName": "",
          "elementDurability": 100.0,
          "OAOGLLGGJPD": [
            {
              "$type": "MoleMole.Config.SetMaterialParamFloatByTransform",
              "BOMCOINOGJJ": "Mat",
              "NBBNACBLOCB": "_DitherAlpha",
              "value": 0.0,
              "IKGKPGNHIED": true,
              "lerpTime": 1.0
            },
            {
              "$type": "MoleMole.Config.EnableSceneTransformByName",
              "canBeHandledOnRecover": true,
              "MKNNBEGONKE": [
                "Airwall"
              ]
            }
          ]
        }
      }
    }
  },
  {
    "Default": {
      "$type": "MoleMole.Config.GNKCLKNDOAK",
      "abilityName": "SceneObj_Area_Xm_Property_Ani_Prop_Flying_Orb_01_Ability",
      "PIDAPNFJNDF": [
        {
          "$type": "MoleMole.Config.AttachToGadgetStateMixin",
          "MHKDFIPGJJO": 201,
          "modifierName": "StartPlay"
        }
      ],
      "BFBDNNJCDLH": {
        "StartPlay": {
          "modifierName": "",
          "elementDurability": 100.0,
          "JPIFFPJJEMK": [
            {
              "$type": "MoleMole.Config.PlatformMoveMixin",
              "HKLMJIAMOPI": [
                "State_Moving"
              ],
              "BLGAMFGKJNA": [
                "State_Stop"
              ]
            }
          ]
        },
        "State_Moving": {
          "modifierName": "",
          "elementDurability": 100.0,
          "OAOGLLGGJPD": [
            {
              "$type": "MoleMole.Config.SendEffectTrigger",
              "parameter": "Moving",
              "attachPoint": "",
              "KPGKDHAFHFE": "Bool",
              "value": 1,
              "effectPattern": "Eff_SceneObj_Flying_Orb"
            },
            {
              "$type": "MoleMole.Config.SendEffectTrigger",
              "parameter": "State",
              "attachPoint": "",
              "KPGKDHAFHFE": "Int",
              "effectPattern": "Eff_SceneObj_Flying_Orb"
            }
          ]
        },
        "State_Stop": {
          "modifierName": "",
          "elementDurability": 100.0,
          "OAOGLLGGJPD": [
            {
              "$type": "MoleMole.Config.AttachEffect",
              "effectPattern": "Eff_SceneObj_Flying_Orb_Ridicule",
              "effectTempleteID": -1.0
            },
            {
              "$type": "MoleMole.Config.SendEffectTrigger",
              "parameter": "Moving",
              "attachPoint": "",
              "KPGKDHAFHFE": "Bool",
              "effectPattern": "Eff_SceneObj_Flying_Orb"
            },
            {
              "$type": "MoleMole.Config.SendEffectTrigger",
              "parameter": "State",
              "attachPoint": "",
              "KPGKDHAFHFE": "Int",
              "value": 201,
              "effectPattern": "Eff_SceneObj_Flying_Orb"
            }
          ]
        }
      },
      "GGGLNDFDIMI": [
        {
          "$type": "MoleMole.Config.Predicated",
          "MLDBFKEGPEF": "Target",
          "CKBKOCJPJMM": [
            {
              "$type": "DLLOJMFICPG",
              "JBEIOINCLFB": [
                "Avatar"
              ]
            },
            {
              "$type": "OLDIADOPIAG"
            },
            {
              "$type": "CBCGGIMMENP",
              "MLDBFKEGPEF": "Self",
              "MHKDFIPGJJO": 201
            }
          ],
          "successActions": [
            {
              "$type": "MoleMole.Config.SendEffectTrigger",
              "parameter": "State",
              "attachPoint": "",
              "KPGKDHAFHFE": "Int",
              "value": 203,
              "effectPattern": "Eff_SceneObj_Flying_Orb"
            },
            {
              "$type": "MoleMole.Config.ChangeGadgetState",
              "HOJGPJHDKFJ": 202
            }
          ]
        }
      ]
    }
  },
  {
    "Default": {
      "$type": "MoleMole.Config.GNKCLKNDOAK",
      "abilityName": "SceneObj_Level_Xm_Property_Ani_Prop_VineDoor_01_Ability",
      "PIDAPNFJNDF": [
        {
          "$type": "MoleMole.Config.AttachToGadgetStateMutexMixin",
          "GFILCGCNBGO": [
            0,
            201
          ],
          "NDNJKGCLOPM": [
            [
              "Close"
            ],
            [
              "Open"
            ]
          ]
        }
      ],
      "BFBDNNJCDLH": {
        "Close": {
          "modifierName": "",
          "elementDurability": 100.0,
          "OAOGLLGGJPD": [
            {
              "$type": "MoleMole.Config.EnableSceneTransformByName",
              "canBeHandledOnRecover": true,
              "MKNNBEGONKE": [
                "Airwall"
              ],
              "NJKBCLADIBK": true
            },
            {
              "$type": "MoleMole.Config.SendEffectTrigger",
              "parameter": "gadgetState",
              "attachPoint": "",
              "KPGKDHAFHFE": "Int",
              "effectPattern": "Eff_SceneObj_VineDoor_02_Default_Full"
            }
          ]
        },
        "Open": {
          "modifierName": "",
          "elementDurability": 100.0,
          "OAOGLLGGJPD": [
            {
              "$type": "MoleMole.Config.EnableSceneTransformByName",
              "canBeHandledOnRecover": true,
              "MKNNBEGONKE": [
                "Airwall"
              ]
            },
            {
              "$type": "MoleMole.Config.SendEffectTrigger",
              "parameter": "gadgetState",
              "attachPoint": "",
              "KPGKDHAFHFE": "Int",
              "value": 201,
              "effectPattern": "Eff_SceneObj_VineDoor_02_Default_Full"
            }
          ]
        }
      }
    }
  },
  {
    "Default": {
      "$type": "MoleMole.Config.GNKCLKNDOAK",
      "abilityName": "SceneObj_Level_Xm_Property_Ani_Prop_VineDoor_02_Ability",
      "PIDAPNFJNDF": [
        {
          "$type": "MoleMole.Config.AttachToGadgetStateMutexMixin",
          "GFILCGCNBGO": [
            0,
            201
          ],
          "NDNJKGCLOPM": [
            [
              "Close"
            ],
            [
              "Open"
            ]
          ]
        }
      ],
      "BFBDNNJCDLH": {
        "Close": {
          "modifierName": "",
          "elementDurability": 100.0,
          "OAOGLLGGJPD": [
            {
              "$type": "MoleMole.Config.EnableSceneTransformByName",
              "canBeHandledOnRecover": true,
              "MKNNBEGONKE": [
                "Airwall"
              ],
              "NJKBCLADIBK": true
            },
            {
              "$type": "MoleMole.Config.SendEffectTrigger",
              "parameter": "gadgetState",
              "attachPoint": "",
              "KPGKDHAFHFE": "Int",
              "effectPattern": "Eff_SceneObj_VineDoor_02_Default"
            }
          ]
        },
        "Open": {
          "modifierName": "",
          "elementDurability": 100.0,
          "OAOGLLGGJPD": [
            {
              "$type": "MoleMole.Config.SendEffectTrigger",
              "parameter": "gadgetState",
              "attachPoint": "",
              "KPGKDHAFHFE": "Int",
              "value": 201,
              "effectPattern": "Eff_SceneObj_VineDoor_02_Default"
            },
            {
              "$type": "MoleMole.Config.EnableSceneTransformByName",
              "canBeHandledOnRecover": true,
              "MKNNBEGONKE": [
                "Airwall"
              ]
            }
          ]
        }
      }
    }
  },
  {
    "Default": {
      "$type": "MoleMole.Config.GNKCLKNDOAK",
      "abilityName": "SceneObj_Level_Xm_Property_Prop_FlowerPortal_01_Ability",
      "PIDAPNFJNDF": [
        {
          "$type": "MoleMole.Config.CurLocalAvatarMixinV2",
          "modifierName": "FlowerPortal_AvatarState"
        }
      ],
      "BFBDNNJCDLH": {
        "FlowerPortal_AvatarState": {
          "modifierName": "",
          "elementDurability": 100.0,
          "JPIFFPJJEMK": [
            {
              "$type": "MoleMole.Config.AvatarFollowRouteStateChangeMixin",
              "OCEGKAAACKJ": [
                {
                  "$type": "MoleMole.Config.SetGlobalValueV2",
                  "value": 1.0,
                  "key": "_FlowerPortal_AvatarRouteMove",
                  "maxValue": 0.0,
                  "GCEOGBJIFCP": 0.0
                }
              ],
              "LKBEKJOGNHG": [
                {
                  "$type": "MoleMole.Config.SetGlobalValueV2",
                  "doOffStage": true,
                  "value": 0.0,
                  "key": "_FlowerPortal_AvatarRouteMove",
                  "maxValue": 0.0,
                  "GCEOGBJIFCP": 0.0
                }
              ]
            },
            {
              "$type": "MoleMole.Config.AttachModifierToSelfGlobalValueNoInitMixin",
              "globalValueKey": "_FlowerPortal_AvatarRouteMove",
              "FJEPHJNDEAI": [
                0.5,
                1.5
              ],
              "IJEPHCMOAPE": [
                "FlowerPortal_StandbyState"
              ]
            }
          ],
          "OAOGLLGGJPD": [
            {
              "$type": "MoleMole.Config.SetGlobalValueV2",
              "value": 0.0,
              "key": "_FlowerPortal_AvatarRouteMove",
              "maxValue": 0.0,
              "GCEOGBJIFCP": 0.0
            }
          ],
          "PMDLJDGOIKO": [
            {
              "$type": "MoleMole.Config.SetGlobalValueV2",
              "doOffStage": true,
              "value": 0.0,
              "key": "_FlowerPortal_AvatarRouteMove",
              "maxValue": 0.0,
              "GCEOGBJIFCP": 0.0
            }
          ]
        },
        "FlowerPortal_StandbyState": {
          "modifierName": "",
          "elementDurability": 100.0,
          "BNJENAIMDPL": 1.0,
          "OAOGLLGGJPD": [
            {
              "$type": "MoleMole.Config.DungeonFogEffects",
              "doOffStage": true,
              "enable": true,
              "KAJEHOIDNDC": "Eff_SceneObj_FlowerPortal_CameraAbsorbIn",
              "PMBDAEKEDED": ""
            }
          ],
          "MINFJCDAIBB": [
            {
              "$type": "MoleMole.Config.DungeonFogEffects",
              "doOffStage": true,
              "KAJEHOIDNDC": "",
              "PMBDAEKEDED": ""
            }
          ],
          "PJKELBNICOI": [
            {
              "$type": "MoleMole.Config.TurnDirectionToPos",
              "otherTargets": {
                "$type": "AGCDFMGOFPH",
                "KHHAHILDJDO": 1,
                "sortType": "Nearest",
                "tag": "SceneLook"
              },
              "AOFHAEGNPNM": {
                "$type": "INKMBJGOPCK"
              }
            }
          ]
        }
      }
    }
  },
  {
    "Default": {
      "$type": "MoleMole.Config.GNKCLKNDOAK",
      "abilityName": "SceneObj_Level_Xm_Property_Prop_PlantOperator_01_Ability",
      "PIDAPNFJNDF": [
        {
          "$type": "MoleMole.Config.AttachToGadgetStateMixin",
          "modifierName": "Idle"
        },
        {
          "$type": "MoleMole.Config.AttachToGadgetStateMixin",
          "MHKDFIPGJJO": 201,
          "modifierName": "Active"
        },
        {
          "$type": "MoleMole.Config.AttachToGadgetStateMixin",
          "MHKDFIPGJJO": 202,
          "modifierName": "Lock"
        }
      ],
      "BFBDNNJCDLH": {
        "Idle": {
          "modifierName": "",
          "elementDurability": 100.0,
          "OAOGLLGGJPD": [
            {
              "$type": "MoleMole.Config.AttachEffect",
              "effectPattern": "Eff_SceneObj_PlantOperator_01_Stay",
              "effectTempleteID": -1.0
            },
            {
              "$type": "MoleMole.Config.SetMaterialParamFloatByTransform",
              "canBeHandledOnRecover": true,
              "BOMCOINOGJJ": "Gadget",
              "NBBNACBLOCB": "_EmissionStrength",
              "value": 2.0
            }
          ]
        },
        "Active": {
          "modifierName": "",
          "elementDurability": 100.0,
          "OAOGLLGGJPD": [
            {
              "$type": "MoleMole.Config.AttachEffect",
              "effectPattern": "Eff_SceneObj_PlantOperator_01_Active",
              "effectTempleteID": -1.0
            },
            {
              "$type": "MoleMole.Config.SetMaterialParamFloatByTransform",
              "canBeHandledOnRecover": true,
              "BOMCOINOGJJ": "Gadget",
              "NBBNACBLOCB": "_EmissionStrength",
              "value": 4.0
            }
          ]
        },
        "Lock": {
          "modifierName": "",
          "elementDurability": 100.0,
          "OAOGLLGGJPD": [
            {
              "$type": "MoleMole.Config.AttachEffect",
              "effectPattern": "Eff_SceneObj_PlantOperator_01_Idle",
              "effectTempleteID": -1.0
            },
            {
              "$type": "MoleMole.Config.SetMaterialParamFloatByTransform",
              "canBeHandledOnRecover": true,
              "BOMCOINOGJJ": "Gadget",
              "NBBNACBLOCB": "_EmissionStrength",
              "value": 0.0
            }
          ]
        }
      }
    }
  },
  {
    "Default": {
      "$type": "MoleMole.Config.GNKCLKNDOAK",
      "abilityName": "SceneObj_Level_Xm_Property_Ani_Prop_NutTransformPlatform_01_Ability",
      "PIDAPNFJNDF": [
        {
          "$type": "MoleMole.Config.AttachToGadgetStateMixin",
          "modifierName": "Hide"
        },
        {
          "$type": "MoleMole.Config.AttachToGadgetStateMixin",
          "MHKDFIPGJJO": 201,
          "modifierName": "Show"
        },
        {
          "$type": "MoleMole.Config.WidgetMpSupportMixin",
          "ILDPCIKFNCF": [
            {
              "$type": "MoleMole.Config.ChangeGadgetState",
              "predicates": [
                {
                  "$type": "CBCGGIMMENP",
                  "MLDBFKEGPEF": "Self",
                  "MHKDFIPGJJO": 201
                }
              ]
            }
          ]
        }
      ],
      "BFBDNNJCDLH": {
        "Hide": {
          "modifierName": "",
          "elementDurability": 100.0,
          "OAOGLLGGJPD": [
            {
              "$type": "MoleMole.Config.EnableSceneTransformByName",
              "MKNNBEGONKE": [
                "Object"
              ]
            },
            {
              "$type": "MoleMole.Config.EnableGadgetInteeMp"
            }
          ],
          "MINFJCDAIBB": [
            {
              "$type": "MoleMole.Config.FireEffect",
              "effectPattern": "Eff_SceneObj_NutTransformPlatform_Appear",
              "effectTempleteID": -1.0
            }
          ]
        },
        "Show": {
          "modifierName": "",
          "elementDurability": 100.0,
          "OAOGLLGGJPD": [
            {
              "$type": "MoleMole.Config.EnableSceneTransformByName",
              "MKNNBEGONKE": [
                "Object"
              ],
              "NJKBCLADIBK": true
            },
            {
              "$type": "MoleMole.Config.EnableGadgetInteeMp",
              "enable": true
            }
          ],
          "MINFJCDAIBB": [
            {
              "$type": "MoleMole.Config.FireEffect",
              "effectPattern": "Eff_SceneObj_NutTransformPlatform_Disappear",
              "effectTempleteID": -1.0
            }
          ]
        }
      }
    }
  },
  {
    "Default": {
      "$type": "MoleMole.Config.GNKCLKNDOAK",
      "abilityName": "SceneObj_Level_Xm_Property_Ani_Prop_NutTransformPlatform_02_Ability",
      "PIDAPNFJNDF": [
        {
          "$type": "MoleMole.Config.AttachToGadgetStateMixin",
          "modifierName": "Hide"
        },
        {
          "$type": "MoleMole.Config.AttachToGadgetStateMixin",
          "MHKDFIPGJJO": 201,
          "modifierName": "Show"
        }
      ],
      "BFBDNNJCDLH": {
        "Show": {
          "modifierName": "",
          "elementDurability": 100.0,
          "OAOGLLGGJPD": [
            {
              "$type": "MoleMole.Config.EnableSceneTransformByName",
              "MKNNBEGONKE": [
                "Object"
              ]
            },
            {
              "$type": "MoleMole.Config.FireEffect",
              "effectPattern": "Eff_SceneObj_NutTransformPlatform_Disappear",
              "effectTempleteID": -1.0
            }
          ]
        },
        "Hide": {
          "modifierName": "",
          "elementDurability": 100.0,
          "OAOGLLGGJPD": [
            {
              "$type": "MoleMole.Config.EnableSceneTransformByName",
              "MKNNBEGONKE": [
                "Object"
              ],
              "NJKBCLADIBK": true
            },
            {
              "$type": "MoleMole.Config.FireEffect",
              "effectPattern": "Eff_SceneObj_NutTransformPlatform_Appear",
              "effectTempleteID": -1.0
            }
          ]
        }
      }
    }
  },
  {
    "Default": {
      "$type": "MoleMole.Config.GNKCLKNDOAK",
      "abilityName": "SceneObj_Level_Xm_Property_Prop_ThornsTrap_01_Ability",
      "PIDAPNFJNDF": [
        {
          "$type": "MoleMole.Config.AttachToGadgetStateMixin",
          "modifierName": "Disactive"
        },
        {
          "$type": "MoleMole.Config.AttachToGadgetStateMixin",
          "MHKDFIPGJJO": 201,
          "modifierName": "Active"
        }
      ],
      "LLLCANIGIOE": {
        "ElementLevelCo": 1.0,
        "DamageRatio": 0.6000000238418579
      },
      "BFBDNNJCDLH": {
        "Disactive": {
          "modifierName": "",
          "elementDurability": 100.0,
          "OAOGLLGGJPD": [
            {
              "$type": "MoleMole.Config.SendEffectTrigger",
              "parameter": "State",
              "attachPoint": "",
              "KPGKDHAFHFE": "Int",
              "effectPattern": "Eff_SceneObj_ThornsTrap_05"
            }
          ]
        },
        "Active": {
          "modifierName": "",
          "elementDurability": 100.0,
          "BNJENAIMDPL": 0.5,
          "JPIFFPJJEMK": [
            {
              "$type": "MoleMole.Config.AttachModifierToSelfGlobalValueMixin",
              "globalValueKey": "ThornsTrapRate",
              "KADKJMOFOLI": 0.0,
              "FJEPHJNDEAI": [
                -0.6000000238418579,
                1.600000023841858,
                6.099999904632568,
                7.099999904632568
              ],
              "IJEPHCMOAPE": [
                "Ready",
                "Fire",
                "Disappear"
              ]
            }
          ],
          "OAOGLLGGJPD": [
            {
              "$type": "MoleMole.Config.SetGlobalValue",
              "value": -1.0,
              "key": "ThornsTrapRate",
              "maxValue": 0.0,
              "GCEOGBJIFCP": 0.0
            }
          ],
          "PJKELBNICOI": [
            {
              "$type": "MoleMole.Config.AddGlobalValue",
              "value": 0.5,
              "key": "ThornsTrapRate",
              "maxValue": 0.0,
              "GCEOGBJIFCP": 0.0
            }
          ]
        },
        "Ready": {
          "modifierName": "",
          "elementDurability": 100.0,
          "OAOGLLGGJPD": [
            {
              "$type": "MoleMole.Config.SendEffectTrigger",
              "parameter": "State",
              "attachPoint": "",
              "KPGKDHAFHFE": "Int",
              "value": 1,
              "effectPattern": "Eff_SceneObj_ThornsTrap_05"
            }
          ]
        },
        "Disappear": {
          "modifierName": "",
          "elementDurability": 100.0,
          "OAOGLLGGJPD": [
            {
              "$type": "MoleMole.Config.SetGlobalValue",
              "value": -1.0,
              "key": "ThornsTrapRate",
              "maxValue": 0.0,
              "GCEOGBJIFCP": 0.0
            }
          ]
        },
        "Fire": {
          "modifierName": "",
          "elementDurability": 100.0,
          "BNJENAIMDPL": 0.5,
          "OAOGLLGGJPD": [
            {
              "$type": "MoleMole.Config.SendEffectTrigger",
              "parameter": "State",
              "attachPoint": "",
              "KPGKDHAFHFE": "Int",
              "value": 2,
              "effectPattern": "Eff_SceneObj_ThornsTrap_05"
            },
            {
              "$type": "MoleMole.Config.TriggerAttackEvent",
              "attackEvent": {
                "attackPattern": {
                  "$type": "CKCNJHBMNGJ",
                  "triggerType": "TriggerNoRepeat",
                  "born": {
                    "$type": "KPFCCIOJAMK",
                    "offset": {
                      "GOAPOLCAJBP": 0.0,
                      "FMOPCJGGFMH": 0.0,
                      "EJJEPFCDDAM": -2.5
                    }
                  },
                  "size": {
                    "GOAPOLCAJBP": 2.5,
                    "FMOPCJGGFMH": 2.0,
                    "EJJEPFCDDAM": 5.0
                  }
                },
                "attackInfo": {
                  "attackTag": "",
                  "attenuationTag": "ExtraAttack",
                  "attenuationGroup": "SceneObj_ThunderFloor",
                  "attackProperty": {
                    "JMLMDDCBIAO": 0.0,
                    "damagePercentageRatio": 0.0,
                    "elementType": "Grass",
                    "elementDurability": 25.0,
                    "ignoreAttackerProperty": true,
                    "strikeType": "Default",
                    "enBreak": 0.0,
                    "attackType": "Range",
                    "damageExtra": [
                      "ElementLevelCo",
                      "DamageRatio",
                      "MUL"
                    ],
                    "trueDamage": true,
                    "damagePercentage": 0.0
                  },
                  "hitPattern": {
                    "onHitEffectName": "default",
                    "hitImpulseY": "",
                    "hitImpulseType": "LV3"
                  }
                }
              },
              "targetType": "AllExceptSelf"
            }
          ],
          "PJKELBNICOI": [
            {
              "$type": "MoleMole.Config.TriggerAttackEvent",
              "attackEvent": {
                "attackPattern": {
                  "$type": "CKCNJHBMNGJ",
                  "triggerType": "TriggerNoRepeat",
                  "born": {
                    "$type": "KPFCCIOJAMK",
                    "offset": {
                      "GOAPOLCAJBP": 0.0,
                      "FMOPCJGGFMH": 0.0,
                      "EJJEPFCDDAM": -2.5
                    }
                  },
                  "size": {
                    "GOAPOLCAJBP": 2.5,
                    "FMOPCJGGFMH": 2.0,
                    "EJJEPFCDDAM": 5.0
                  }
                },
                "attackInfo": {
                  "attackTag": "",
                  "attenuationTag": "ExtraAttack",
                  "attenuationGroup": "SceneObj_ThunderFloor",
                  "attackProperty": {
                    "JMLMDDCBIAO": 0.0,
                    "damagePercentageRatio": 0.0,
                    "elementType": "Grass",
                    "elementDurability": 25.0,
                    "ignoreAttackerProperty": true,
                    "strikeType": "Default",
                    "enBreak": 0.0,
                    "attackType": "Range",
                    "damageExtra": [
                      "ElementLevelCo",
                      "DamageRatio",
                      "MUL"
                    ],
                    "trueDamage": true,
                    "damagePercentage": 0.0
                  },
                  "hitPattern": {
                    "onHitEffectName": "default",
                    "hitImpulseY": "",
                    "hitImpulseType": "LV3"
                  }
                }
              },
              "targetType": "AllExceptSelf"
            }
          ]
        }
      },
      "OAOGLLGGJPD": [
        {
          "$type": "MoleMole.Config.SetSystemValueToOverrideMap",
          "doOffStage": true,
          "key": "ElementLevelCo",
          "KPGKDHAFHFE": "ElementLevelCo"
        }
      ]
    }
  },
  {
    "Default": {
      "$type": "MoleMole.Config.GNKCLKNDOAK",
      "abilityName": "SceneObj_Level_Xm_Property_Prop_PlantSeal_01_Ability",
      "PIDAPNFJNDF": [
        {
          "$type": "MoleMole.Config.AttachToGadgetStateMixin",
          "modifierName": "Show"
        },
        {
          "$type": "MoleMole.Config.AttachToGadgetStateMixin",
          "MHKDFIPGJJO": 201,
          "modifierName": "Hide"
        },
        {
          "$type": "MoleMole.Config.AttachModifierToSelfGlobalValueNoInitMixin",
          "globalValueKey": "HasBall",
          "FJEPHJNDEAI": [
            0.5,
            1.5
          ],
          "IJEPHCMOAPE": [
            "Ball_Show"
          ]
        }
      ],
      "BFBDNNJCDLH": {
        "Ball_Show": {
          "modifierName": "",
          "elementDurability": 100.0,
          "OAOGLLGGJPD": [
            {
              "$type": "MoleMole.Config.AttachEffect",
              "effectPattern": "Eff_SceneObj_PlantSeal_01",
              "effectTempleteID": -1.0
            }
          ]
        },
        "Show": {
          "modifierName": "",
          "elementDurability": 100.0,
          "OAOGLLGGJPD": [
            {
              "$type": "MoleMole.Config.SetGlobalValue",
              "value": 1.0,
              "key": "HasBall",
              "maxValue": 0.0,
              "GCEOGBJIFCP": 0.0
            },
            {
              "$type": "MoleMole.Config.EnableSceneTransformByName",
              "MKNNBEGONKE": [
                "Collider"
              ],
              "NJKBCLADIBK": true
            }
          ]
        },
        "Hide": {
          "modifierName": "",
          "elementDurability": 100.0,
          "OAOGLLGGJPD": [
            {
              "$type": "MoleMole.Config.SetGlobalValue",
              "value": 0.0,
              "key": "HasBall",
              "maxValue": 0.0,
              "GCEOGBJIFCP": 0.0
            },
            {
              "$type": "MoleMole.Config.FireEffect",
              "effectPattern": "Eff_SceneObj_PlantSeal_01_Disappear",
              "effectTempleteID": -1.0
            },
            {
              "$type": "MoleMole.Config.EnableSceneTransformByName",
              "MKNNBEGONKE": [
                "Collider"
              ]
            }
          ]
        }
      }
    }
  },
  {
    "Default": {
      "$type": "MoleMole.Config.GNKCLKNDOAK",
      "abilityName": "SceneObj_Level_Xm_Property_Prop_PlantSeal_02_Ability",
      "PIDAPNFJNDF": [
        {
          "$type": "MoleMole.Config.AttachToGadgetStateMixin",
          "modifierName": "Show"
        },
        {
          "$type": "MoleMole.Config.AttachToGadgetStateMixin",
          "MHKDFIPGJJO": 201,
          "modifierName": "Hide"
        },
        {
          "$type": "MoleMole.Config.AttachModifierToSelfGlobalValueNoInitMixin",
          "globalValueKey": "HasBall",
          "FJEPHJNDEAI": [
            0.5,
            1.5
          ],
          "IJEPHCMOAPE": [
            "Ball_Show"
          ]
        }
      ],
      "BFBDNNJCDLH": {
        "Ball_Show": {
          "modifierName": "",
          "elementDurability": 100.0,
          "OAOGLLGGJPD": [
            {
              "$type": "MoleMole.Config.AttachEffect",
              "effectPattern": "Eff_SceneObj_PlantSeal_02",
              "effectTempleteID": -1.0
            }
          ]
        },
        "Show": {
          "modifierName": "",
          "elementDurability": 100.0,
          "OAOGLLGGJPD": [
            {
              "$type": "MoleMole.Config.SetGlobalValue",
              "value": 1.0,
              "key": "HasBall",
              "maxValue": 0.0,
              "GCEOGBJIFCP": 0.0
            },
            {
              "$type": "MoleMole.Config.EnableSceneTransformByName",
              "MKNNBEGONKE": [
                "Collider"
              ],
              "NJKBCLADIBK": true
            }
          ]
        },
        "Hide": {
          "modifierName": "",
          "elementDurability": 100.0,
          "OAOGLLGGJPD": [
            {
              "$type": "MoleMole.Config.SetGlobalValue",
              "value": 0.0,
              "key": "HasBall",
              "maxValue": 0.0,
              "GCEOGBJIFCP": 0.0
            },
            {
              "$type": "MoleMole.Config.FireEffect",
              "effectPattern": "Eff_SceneObj_PlantSeal_02_Disappear",
              "effectTempleteID": -1.0
            },
            {
              "$type": "MoleMole.Config.EnableSceneTransformByName",
              "MKNNBEGONKE": [
                "Collider"
              ]
            }
          ]
        }
      }
    }
  },
  {
    "Default": {
      "$type": "MoleMole.Config.GNKCLKNDOAK",
      "abilityName": "SceneObj_Level_Xm_Property_Prop_PlantSeal_03_Ability",
      "PIDAPNFJNDF": [
        {
          "$type": "MoleMole.Config.AttachToGadgetStateMixin",
          "modifierName": "Show"
        },
        {
          "$type": "MoleMole.Config.AttachToGadgetStateMixin",
          "MHKDFIPGJJO": 201,
          "modifierName": "Hide"
        },
        {
          "$type": "MoleMole.Config.AttachModifierToSelfGlobalValueNoInitMixin",
          "globalValueKey": "HasBall",
          "FJEPHJNDEAI": [
            0.5,
            1.5
          ],
          "IJEPHCMOAPE": [
            "Ball_Show"
          ]
        }
      ],
      "BFBDNNJCDLH": {
        "Ball_Show": {
          "modifierName": "",
          "elementDurability": 100.0,
          "OAOGLLGGJPD": [
            {
              "$type": "MoleMole.Config.AttachEffect",
              "effectPattern": "Eff_SceneObj_PlantSeal_03",
              "effectTempleteID": -1.0
            }
          ]
        },
        "Show": {
          "modifierName": "",
          "elementDurability": 100.0,
          "OAOGLLGGJPD": [
            {
              "$type": "MoleMole.Config.SetGlobalValue",
              "value": 1.0,
              "key": "HasBall",
              "maxValue": 0.0,
              "GCEOGBJIFCP": 0.0
            },
            {
              "$type": "MoleMole.Config.EnableSceneTransformByName",
              "MKNNBEGONKE": [
                "Collider"
              ],
              "NJKBCLADIBK": true
            }
          ]
        },
        "Hide": {
          "modifierName": "",
          "elementDurability": 100.0,
          "OAOGLLGGJPD": [
            {
              "$type": "MoleMole.Config.SetGlobalValue",
              "value": 0.0,
              "key": "HasBall",
              "maxValue": 0.0,
              "GCEOGBJIFCP": 0.0
            },
            {
              "$type": "MoleMole.Config.FireEffect",
              "effectPattern": "Eff_SceneObj_PlantSeal_03_Disappear",
              "effectTempleteID": -1.0
            },
            {
              "$type": "MoleMole.Config.EnableSceneTransformByName",
              "MKNNBEGONKE": [
                "Collider"
              ]
            }
          ]
        }
      }
    }
  },
  {
    "Default": {
      "$type": "MoleMole.Config.GNKCLKNDOAK",
      "abilityName": "SceneObj_Level_Xm_Property_Ani_Prop_DestructibleVine_01_Ability",
      "BFBDNNJCDLH": {
        "DestroyOnBeHit": {
          "modifierName": "",
          "elementDurability": 100.0,
          "onBeingHit": [
            {
              "$type": "MoleMole.Config.KillSelf"
            }
          ]
        }
      },
      "OAOGLLGGJPD": [
        {
          "$type": "MoleMole.Config.ApplyModifier",
          "modifierName": "DestroyOnBeHit"
        }
      ],
      "DOFDCKKDGHL": [
        {
          "$type": "MoleMole.Config.FireEffect",
          "effectPattern": "Eff_SceneObj_DestructibleVine_01",
          "effectTempleteID": -1.0
        }
      ]
    }
  },
  {
    "Default": {
      "$type": "MoleMole.Config.GNKCLKNDOAK",
      "abilityName": "SceneObj_Level_Xm_Property_Ani_Prop_DestructiblePavement_01_Ability",
      "PIDAPNFJNDF": [
        {
          "$type": "MoleMole.Config.AttachToGadgetStateMixin",
          "modifierName": "ShowFloor"
        },
        {
          "$type": "MoleMole.Config.AttachToGadgetStateMixin",
          "MHKDFIPGJJO": 201,
          "modifierName": "DestroyFloor"
        }
      ],
      "BFBDNNJCDLH": {
        "ShowFloor": {
          "modifierName": "",
          "elementDurability": 100.0,
          "OAOGLLGGJPD": [
            {
              "$type": "MoleMole.Config.EnableSceneTransformByName",
              "MKNNBEGONKE": [
                "Floor"
              ],
              "NJKBCLADIBK": true
            },
            {
              "$type": "MoleMole.Config.EnableSceneTransformByName",
              "MKNNBEGONKE": [
                "Collider"
              ],
              "NJKBCLADIBK": true
            }
          ]
        },
        "DestroyFloor": {
          "modifierName": "",
          "elementDurability": 100.0,
          "OAOGLLGGJPD": [
            {
              "$type": "MoleMole.Config.FireEffect",
              "effectPattern": "Eff_SceneObj_DestructiblePavement_01",
              "effectTempleteID": -1.0
            },
            {
              "$type": "MoleMole.Config.EnableSceneTransformByName",
              "MKNNBEGONKE": [
                "Floor"
              ]
            },
            {
              "$type": "MoleMole.Config.EnableSceneTransformByName",
              "MKNNBEGONKE": [
                "Collider"
              ]
            }
          ]
        }
      },
      "EIIHGJGFDHC": [
        {
          "$type": "MoleMole.Config.ChangeGadgetState",
          "HOJGPJHDKFJ": 201
        }
      ]
    }
  },
  {
    "Default": {
      "$type": "MoleMole.Config.GNKCLKNDOAK",
      "abilityName": "SceneObj_Level_Xm_Property_Ani_Prop_PlantMovingPlatform_01_Ability",
      "PIDAPNFJNDF": [
        {
          "$type": "MoleMole.Config.AttachToGadgetStateMutexMixin",
          "GFILCGCNBGO": [
            0,
            201
          ],
          "NDNJKGCLOPM": [
            [
              "Alive"
            ],
            [
              "Disappear"
            ]
          ]
        }
      ],
      "BFBDNNJCDLH": {
        "Moving": {
          "modifierName": "",
          "elementDurability": 100.0,
          "BNJENAIMDPL": 3.0,
          "OAOGLLGGJPD": [
            {
              "$type": "MoleMole.Config.AttachEffect",
              "effectPattern": "Eff_SceneObj_PlantMovingPlatform_Move",
              "effectTempleteID": -1.0
            }
          ],
          "MINFJCDAIBB": [
            {
              "$type": "MoleMole.Config.SetMaterialParamFloatByTransform",
              "BOMCOINOGJJ": "Mat",
              "NBBNACBLOCB": "_EmissionStrength",
              "value": 1.0
            }
          ],
          "PJKELBNICOI": [
            {
              "$type": "MoleMole.Config.AttachModifier",
              "modifierName": "BreathLight01"
            }
          ]
        },
        "BreathLight01": {
          "modifierName": "",
          "duration": 1.600000023841858,
          "elementDurability": 100.0,
          "BNJENAIMDPL": 1.5,
          "OAOGLLGGJPD": [
            {
              "$type": "MoleMole.Config.SetMaterialParamFloatByTransform",
              "BOMCOINOGJJ": "Mat",
              "NBBNACBLOCB": "_EmissionStrength",
              "value": 1.0
            },
            {
              "$type": "MoleMole.Config.SetMaterialParamFloatByTransform",
              "canBeHandledOnRecover": true,
              "BOMCOINOGJJ": "Mat",
              "NBBNACBLOCB": "_EmissionStrength",
              "value": 3.5,
              "IKGKPGNHIED": true,
              "lerpTime": 1.5
            }
          ],
          "PJKELBNICOI": [
            {
              "$type": "MoleMole.Config.ApplyModifier",
              "modifierName": "BreathLight02"
            }
          ]
        },
        "BreathLight02": {
          "modifierName": "",
          "duration": 0.20000000298023224,
          "elementDurability": 100.0,
          "OAOGLLGGJPD": [
            {
              "$type": "MoleMole.Config.SetMaterialParamFloatByTransform",
              "BOMCOINOGJJ": "Mat",
              "NBBNACBLOCB": "_EmissionStrength",
              "value": 3.5
            },
            {
              "$type": "MoleMole.Config.SetMaterialParamFloatByTransform",
              "canBeHandledOnRecover": true,
              "BOMCOINOGJJ": "Mat",
              "NBBNACBLOCB": "_EmissionStrength",
              "value": 1.0,
              "IKGKPGNHIED": true,
              "lerpTime": 1.5
            }
          ]
        },
        "Alive": {
          "modifierName": "",
          "elementDurability": 100.0,
          "JPIFFPJJEMK": [
            {
              "$type": "MoleMole.Config.PlatformMoveMixin",
              "HKLMJIAMOPI": [
                "Moving"
              ]
            }
          ],
          "OAOGLLGGJPD": [
            {
              "$type": "MoleMole.Config.EnableSceneTransformByName",
              "canBeHandledOnRecover": true,
              "MKNNBEGONKE": [
                "Collider"
              ],
              "NJKBCLADIBK": true
            }
          ]
        },
        "Disappear": {
          "modifierName": "",
          "elementDurability": 100.0,
          "OAOGLLGGJPD": [
            {
              "$type": "MoleMole.Config.EnableSceneTransformByName",
              "canBeHandledOnRecover": true,
              "MKNNBEGONKE": [
                "Collider"
              ]
            }
          ]
        }
      }
    }
  }
]