[
  {
    "Default": {
      "$type": "MoleMole.Config.GNKCLKNDOAK",
      "abilityName": "SceneObj_Area_Common_Property_Ani_Prop_PitchPotNormalpot_01",
      "PIDAPNFJNDF": [
        {
          "$type": "MoleMole.Config.AttachToGadgetStateMixin",
          "modifierName": "Normalpot_State_0"
        },
        {
          "$type": "MoleMole.Config.AttachToGadgetStateMixin",
          "MHKDFIPGJJO": 201,
          "modifierName": "Normalpot_State_201"
        },
        {
          "$type": "MoleMole.Config.AttachToGadgetStateMixin",
          "MHKDFIPGJJO": 202,
          "modifierName": "Normalpot_State_202"
        }
      ],
      "BFBDNNJCDLH": {
        "Normalpot_State_0": {
          "modifierName": "",
          "elementDurability": 100.0,
          "OAOGLLGGJPD": [
            {
              "$type": "MoleMole.Config.ChangeTag",
              "BMHGAAIEHDH": true,
              "tag": "Is_NormalPot"
            },
            {
              "$type": "MoleMole.Config.FireEffect",
              "effectPattern": "Eff_SceneObj_PitchPotNormalpot_01_Born",
              "effectTempleteID": -1.0
            }
          ],
          "MINFJCDAIBB": [
            {
              "$type": "MoleMole.Config.ChangeTag",
              "tag": "Is_NormalPot"
            }
          ]
        },
        "Normalpot_State_201": {
          "modifierName": "",
          "elementDurability": 100.0,
          "OAOGLLGGJPD": [
            {
              "$type": "MoleMole.Config.FireEffect",
              "effectPattern": "Eff_SceneObj_PitchPotNormalpot_01_Disaper",
              "effectTempleteID": -1.0
            },
            {
              "$type": "MoleMole.Config.KillSelf"
            }
          ]
        },
        "Normalpot_State_202": {
          "modifierName": "",
          "elementDurability": 100.0,
          "OAOGLLGGJPD": [
            {
              "$type": "MoleMole.Config.FireEffect",
              "effectPattern": "Eff_SceneObj_PitchPotNormalpot_01_DitherDisaper",
              "effectTempleteID": -1.0
            },
            {
              "$type": "MoleMole.Config.KillSelf"
            }
          ]
        }
      }
    }
  },
  {
    "Default": {
      "$type": "MoleMole.Config.GNKCLKNDOAK",
      "abilityName": "SceneObj_Area_Common_Property_Ani_Prop_PitchPotNormalpot_03",
      "PIDAPNFJNDF": [
        {
          "$type": "MoleMole.Config.AttachToGadgetStateMixin",
          "modifierName": "Normalpot_State_0"
        },
        {
          "$type": "MoleMole.Config.AttachToGadgetStateMixin",
          "MHKDFIPGJJO": 201,
          "modifierName": "Normalpot_State_201"
        },
        {
          "$type": "MoleMole.Config.AttachToGadgetStateMixin",
          "MHKDFIPGJJO": 202,
          "modifierName": "Normalpot_State_202"
        }
      ],
      "BFBDNNJCDLH": {
        "Normalpot_State_0": {
          "modifierName": "",
          "elementDurability": 100.0,
          "OAOGLLGGJPD": [
            {
              "$type": "MoleMole.Config.ChangeTag",
              "BMHGAAIEHDH": true,
              "tag": "Is_NormalPot"
            },
            {
              "$type": "MoleMole.Config.FireEffect",
              "effectPattern": "Eff_SceneObj_PitchPotNormalpot_01_Born",
              "effectTempleteID": -1.0
            },
            {
              "$type": "MoleMole.Config.AttachEffect",
              "effectPattern": "Eff_SceneObj_PitchPotNormalpot_01_Buff",
              "effectTempleteID": -1.0
            }
          ],
          "MINFJCDAIBB": [
            {
              "$type": "MoleMole.Config.ChangeTag",
              "tag": "Is_NormalPot"
            },
            {
              "$type": "MoleMole.Config.FireEffect",
              "effectPattern": "Eff_SceneObj_PitchPotNormalpot_01_BuffDisaper",
              "effectTempleteID": -1.0
            }
          ]
        },
        "Normalpot_State_201": {
          "modifierName": "",
          "elementDurability": 100.0,
          "OAOGLLGGJPD": [
            {
              "$type": "MoleMole.Config.FireEffect",
              "effectPattern": "Eff_SceneObj_PitchPotNormalpot_01_Disaper",
              "effectTempleteID": -1.0
            },
            {
              "$type": "MoleMole.Config.KillSelf"
            }
          ]
        },
        "Normalpot_State_202": {
          "modifierName": "",
          "elementDurability": 100.0,
          "OAOGLLGGJPD": [
            {
              "$type": "MoleMole.Config.FireEffect",
              "effectPattern": "Eff_SceneObj_PitchPotNormalpot_01_DitherDisaper",
              "effectTempleteID": -1.0
            },
            {
              "$type": "MoleMole.Config.KillSelf"
            }
          ]
        }
      }
    }
  },
  {
    "Default": {
      "$type": "MoleMole.Config.GNKCLKNDOAK",
      "abilityName": "SceneObj_Area_Common_Property_Ani_Prop_PitchPotBoompot_01",
      "PIDAPNFJNDF": [
        {
          "$type": "MoleMole.Config.AttachToGadgetStateMixin",
          "modifierName": "BoomPot_State_0"
        },
        {
          "$type": "MoleMole.Config.AttachToGadgetStateMixin",
          "MHKDFIPGJJO": 201,
          "modifierName": "BoomPot_State_201"
        },
        {
          "$type": "MoleMole.Config.AttachToGadgetStateMixin",
          "MHKDFIPGJJO": 202,
          "modifierName": "BoomPot_State_202"
        }
      ],
      "BFBDNNJCDLH": {
        "BoomPot_State_0": {
          "modifierName": "",
          "elementDurability": 100.0,
          "OAOGLLGGJPD": [
            {
              "$type": "MoleMole.Config.ChangeTag",
              "BMHGAAIEHDH": true,
              "tag": "Is_ExplodePot"
            },
            {
              "$type": "MoleMole.Config.FireEffect",
              "effectPattern": "Eff_SceneObj_PitchPotNormalpot_01_Born",
              "effectTempleteID": -1.0
            }
          ],
          "MINFJCDAIBB": [
            {
              "$type": "MoleMole.Config.ChangeTag",
              "tag": "Is_ExplodePot"
            }
          ]
        },
        "BoomPot_State_201": {
          "modifierName": "",
          "elementDurability": 100.0,
          "OAOGLLGGJPD": [
            {
              "$type": "MoleMole.Config.FireEffect",
              "effectPattern": "Eff_SceneObj_PitchPotBoompot_01_Boom",
              "effectTempleteID": -1.0
            },
            {
              "$type": "MoleMole.Config.KillSelf"
            }
          ]
        },
        "BoomPot_State_202": {
          "modifierName": "",
          "elementDurability": 100.0,
          "OAOGLLGGJPD": [
            {
              "$type": "MoleMole.Config.FireEffect",
              "effectPattern": "Eff_SceneObj_PitchPotNormalpot_01_DitherDisaper",
              "effectTempleteID": -1.0
            },
            {
              "$type": "MoleMole.Config.KillSelf"
            }
          ]
        }
      }
    }
  },
  {
    "Default": {
      "$type": "MoleMole.Config.GNKCLKNDOAK",
      "abilityName": "SceneObj_Area_Common_Property_Ani_Prop_PitchPotHugepot_01",
      "PIDAPNFJNDF": [
        {
          "$type": "MoleMole.Config.AttachModifierToGlobalValueMixin",
          "globalValueKey": "SGV_HitTime",
          "FJEPHJNDEAI": [
            -0.5,
            2.5,
            5.5,
            8.5,
            100.0
          ],
          "IJEPHCMOAPE": [
            "HugePot_State_Big",
            "HugePot_State_Mid",
            "HugePot_State_Small",
            "HugePot_State_Die"
          ],
          "BMNOPNNALIB": true
        },
        {
          "$type": "MoleMole.Config.AttachToGadgetStateMixin",
          "MHKDFIPGJJO": 201,
          "modifierName": "HugePot_State_Die"
        },
        {
          "$type": "MoleMole.Config.AttachToGadgetStateMixin",
          "MHKDFIPGJJO": 202,
          "modifierName": "HugePot_State_202"
        }
      ],
      "BFBDNNJCDLH": {
        "HugePot_State_Big": {
          "modifierName": "",
          "elementDurability": 100.0,
          "BNJENAIMDPL": 0.5,
          "JPIFFPJJEMK": [
            {
              "$type": "MoleMole.Config.DoActionOnGlobalValueChangeMixin",
              "globalValueKey": "SGV_HitTime",
              "actions": [
                {
                  "$type": "MoleMole.Config.ApplyModifier",
                  "predicates": [
                    {
                      "$type": "IPGGGPIJONN",
                      "key": "SGV_HitTime",
                      "value": 0.0,
                      "compareType": "MoreThan"
                    }
                  ],
                  "modifierName": "UNIQUE_HugePotBig_BeHit"
                }
              ]
            }
          ],
          "OAOGLLGGJPD": [
            {
              "$type": "MoleMole.Config.FireEffect",
              "effectPattern": "Eff_SceneObj_PitchPotNormalpot_01_Born",
              "scale": 1.2999999523162842,
              "effectTempleteID": -1.0
            },
            {
              "$type": "MoleMole.Config.EnableSceneTransformByName",
              "MKNNBEGONKE": [
                "BigPot",
                "MidPot"
              ],
              "NJKBCLADIBK": true
            },
            {
              "$type": "MoleMole.Config.EnableSceneTransformByName",
              "MKNNBEGONKE": [
                "SmallPot"
              ]
            },
            {
              "$type": "MoleMole.Config.EnableHitBoxByName",
              "MAEGDKKBDPK": [
                "HitBoxBig"
              ],
              "NJKBCLADIBK": true
            },
            {
              "$type": "MoleMole.Config.EnableHitBoxByName",
              "MAEGDKKBDPK": [
                "HitBoxMid",
                "HitBoxSmall"
              ]
            },
            {
              "$type": "MoleMole.Config.ApplyModifier",
              "modifierName": "UNIQUE_HugePotBig_Normal"
            }
          ],
          "PJKELBNICOI": [
            {
              "$type": "MoleMole.Config.ApplyModifier",
              "otherTargets": {
                "$type": "DOMPKGOHKNB",
                "shapeName": "CircleR2H1",
                "FAMCBLCIFCJ": "AllExceptSelf",
                "CONEFMBNECE": 1.0
              },
              "predicates": [
                {
                  "$type": "LNALCOIFPDK",
                  "predicates": [
                    {
                      "$type": "GJPAIDOLIGI",
                      "tag": "Is_NormalPot"
                    },
                    {
                      "$type": "GJPAIDOLIGI",
                      "tag": "Is_ExplodePot"
                    },
                    {
                      "$type": "GJPAIDOLIGI",
                      "tag": "Is_Predictable"
                    }
                  ]
                }
              ],
              "modifierName": "SLC_PotCruhsed"
            }
          ]
        },
        "HugePot_State_Mid": {
          "modifierName": "",
          "elementDurability": 100.0,
          "BNJENAIMDPL": 0.5,
          "JPIFFPJJEMK": [
            {
              "$type": "MoleMole.Config.DoActionOnGlobalValueChangeMixin",
              "globalValueKey": "SGV_HitTime",
              "actions": [
                {
                  "$type": "MoleMole.Config.ApplyModifier",
                  "predicates": [
                    {
                      "$type": "IPGGGPIJONN",
                      "key": "SGV_HitTime",
                      "value": 0.0,
                      "compareType": "MoreThan"
                    }
                  ],
                  "modifierName": "UNIQUE_HugePotMid_BeHit"
                }
              ]
            }
          ],
          "OAOGLLGGJPD": [
            {
              "$type": "MoleMole.Config.FireEffect",
              "effectPattern": "Eff_SceneObj_PitchPotHugepot_01_Change",
              "effectTempleteID": -1.0
            },
            {
              "$type": "MoleMole.Config.EnableSceneTransformByName",
              "MKNNBEGONKE": [
                "MidPot",
                "SmallPot"
              ],
              "NJKBCLADIBK": true
            },
            {
              "$type": "MoleMole.Config.EnableSceneTransformByName",
              "MKNNBEGONKE": [
                "BigPot"
              ]
            },
            {
              "$type": "MoleMole.Config.EnableHitBoxByName",
              "MAEGDKKBDPK": [
                "HitBoxMid"
              ],
              "NJKBCLADIBK": true
            },
            {
              "$type": "MoleMole.Config.EnableHitBoxByName",
              "MAEGDKKBDPK": [
                "HitBoxBig",
                "HitBoxSmall"
              ]
            },
            {
              "$type": "MoleMole.Config.ApplyModifier",
              "modifierName": "UNIQUE_HugePotMid_Normal"
            }
          ],
          "PJKELBNICOI": [
            {
              "$type": "MoleMole.Config.ApplyModifier",
              "otherTargets": {
                "$type": "DOMPKGOHKNB",
                "shapeName": "CircleR2H1",
                "FAMCBLCIFCJ": "AllExceptSelf",
                "CONEFMBNECE": 1.0
              },
              "predicates": [
                {
                  "$type": "LNALCOIFPDK",
                  "predicates": [
                    {
                      "$type": "GJPAIDOLIGI",
                      "tag": "Is_NormalPot"
                    },
                    {
                      "$type": "GJPAIDOLIGI",
                      "tag": "Is_ExplodePot"
                    },
                    {
                      "$type": "GJPAIDOLIGI",
                      "tag": "Is_Predictable"
                    }
                  ]
                }
              ],
              "modifierName": "SLC_PotCruhsed"
            }
          ]
        },
        "HugePot_State_Small": {
          "modifierName": "",
          "elementDurability": 100.0,
          "BNJENAIMDPL": 0.5,
          "JPIFFPJJEMK": [
            {
              "$type": "MoleMole.Config.DoActionOnGlobalValueChangeMixin",
              "globalValueKey": "SGV_HitTime",
              "actions": [
                {
                  "$type": "MoleMole.Config.ApplyModifier",
                  "predicates": [
                    {
                      "$type": "IPGGGPIJONN",
                      "key": "SGV_HitTime",
                      "value": 0.0,
                      "compareType": "MoreThan"
                    }
                  ],
                  "modifierName": "UNIQUE_HugePotSmall_BeHit"
                }
              ]
            }
          ],
          "OAOGLLGGJPD": [
            {
              "$type": "MoleMole.Config.FireEffect",
              "effectPattern": "Eff_SceneObj_PitchPotHugepot_01_Change",
              "effectTempleteID": -1.0
            },
            {
              "$type": "MoleMole.Config.EnableSceneTransformByName",
              "MKNNBEGONKE": [
                "SmallPot"
              ],
              "NJKBCLADIBK": true
            },
            {
              "$type": "MoleMole.Config.EnableSceneTransformByName",
              "MKNNBEGONKE": [
                "MidPot",
                "BigPot"
              ]
            },
            {
              "$type": "MoleMole.Config.EnableHitBoxByName",
              "MAEGDKKBDPK": [
                "HitBoxSmall"
              ],
              "NJKBCLADIBK": true
            },
            {
              "$type": "MoleMole.Config.EnableHitBoxByName",
              "MAEGDKKBDPK": [
                "HitBoxBig",
                "HitBoxMid"
              ]
            },
            {
              "$type": "MoleMole.Config.ApplyModifier",
              "modifierName": "UNIQUE_HugePotSmall_Normal"
            }
          ],
          "PJKELBNICOI": [
            {
              "$type": "MoleMole.Config.ApplyModifier",
              "otherTargets": {
                "$type": "DOMPKGOHKNB",
                "shapeName": "CircleR2H1",
                "FAMCBLCIFCJ": "AllExceptSelf",
                "CONEFMBNECE": 1.0
              },
              "predicates": [
                {
                  "$type": "LNALCOIFPDK",
                  "predicates": [
                    {
                      "$type": "GJPAIDOLIGI",
                      "tag": "Is_NormalPot"
                    },
                    {
                      "$type": "GJPAIDOLIGI",
                      "tag": "Is_ExplodePot"
                    },
                    {
                      "$type": "GJPAIDOLIGI",
                      "tag": "Is_Predictable"
                    }
                  ]
                }
              ],
              "modifierName": "SLC_PotCruhsed"
            }
          ]
        },
        "HugePot_State_Die": {
          "modifierName": "",
          "elementDurability": 100.0,
          "OAOGLLGGJPD": [
            {
              "$type": "MoleMole.Config.ChangeTag",
              "tag": "Is_HugePot"
            },
            {
              "$type": "MoleMole.Config.FireEffect",
              "effectPattern": "Eff_SceneObj_PitchPotHugepot_01_DisaperLast",
              "scale": 0.8999999761581421,
              "effectTempleteID": -1.0
            },
            {
              "$type": "MoleMole.Config.KillSelf"
            }
          ]
        },
        "HugePot_State_202": {
          "modifierName": "",
          "elementDurability": 100.0,
          "OAOGLLGGJPD": [
            {
              "$type": "MoleMole.Config.ChangeTag",
              "tag": "Is_HugePot"
            },
            {
              "$type": "MoleMole.Config.FireEffect",
              "predicates": [
                {
                  "$type": "IPGGGPIJONN",
                  "key": "SGV_HitTime",
                  "value": 2.0,
                  "compareType": "LessAndEqual"
                }
              ],
              "effectPattern": "Eff_SceneObj_PitchPotNormalpot_01_DitherDisaper",
              "scale": 1.600000023841858,
              "effectTempleteID": -1.0
            },
            {
              "$type": "MoleMole.Config.FireEffect",
              "predicates": [
                {
                  "$type": "IPGGGPIJONN",
                  "key": "SGV_HitTime",
                  "value": 3.0,
                  "compareType": "MoreThanAndEqual"
                },
                {
                  "$type": "IPGGGPIJONN",
                  "key": "SGV_HitTime",
                  "value": 5.0,
                  "compareType": "LessAndEqual"
                }
              ],
              "effectPattern": "Eff_SceneObj_PitchPotNormalpot_01_DitherDisaper",
              "scale": 1.100000023841858,
              "effectTempleteID": -1.0
            },
            {
              "$type": "MoleMole.Config.FireEffect",
              "predicates": [
                {
                  "$type": "IPGGGPIJONN",
                  "key": "SGV_HitTime",
                  "value": 6.0,
                  "compareType": "MoreThanAndEqual"
                }
              ],
              "effectPattern": "Eff_SceneObj_PitchPotNormalpot_01_DitherDisaper",
              "effectTempleteID": -1.0
            },
            {
              "$type": "MoleMole.Config.KillSelf"
            }
          ]
        },
        "UNIQUE_HugePotBig_BeHit": {
          "modifierName": "",
          "LLIJGLMEHFK": true,
          "duration": 0.4000000059604645,
          "elementDurability": 100.0,
          "JPIFFPJJEMK": [
            {
              "$type": "MoleMole.Config.ShaderStateMachineSwitchMixin",
              "PDMMEKFIMDB": 1,
              "KLAGHLNDOII": 5.0,
              "HNDLOLDKOHO": ""
            }
          ],
          "MINFJCDAIBB": [
            {
              "$type": "MoleMole.Config.ApplyModifier",
              "predicates": [
                {
                  "$type": "IPGGGPIJONN",
                  "key": "SGV_HitTime",
                  "value": 3.0,
                  "compareType": "LessAndEqual"
                }
              ],
              "modifierName": "UNIQUE_HugePotBig_Normal"
            }
          ]
        },
        "UNIQUE_HugePotBig_Normal": {
          "modifierName": "",
          "LLIJGLMEHFK": true,
          "duration": 0.4000000059604645,
          "elementDurability": 100.0,
          "JPIFFPJJEMK": [
            {
              "$type": "MoleMole.Config.ShaderStateMachineSwitchMixin",
              "KLAGHLNDOII": 3.0,
              "HNDLOLDKOHO": ""
            }
          ]
        },
        "UNIQUE_HugePotMid_BeHit": {
          "modifierName": "",
          "LLIJGLMEHFK": true,
          "duration": 0.4000000059604645,
          "elementDurability": 100.0,
          "JPIFFPJJEMK": [
            {
              "$type": "MoleMole.Config.ShaderStateMachineSwitchMixin",
              "PDMMEKFIMDB": 3,
              "KLAGHLNDOII": 5.0,
              "HNDLOLDKOHO": ""
            }
          ],
          "MINFJCDAIBB": [
            {
              "$type": "MoleMole.Config.ApplyModifier",
              "predicates": [
                {
                  "$type": "IPGGGPIJONN",
                  "key": "SGV_HitTime",
                  "value": 6.0,
                  "compareType": "LessAndEqual"
                }
              ],
              "modifierName": "UNIQUE_HugePotMid_Normal"
            }
          ]
        },
        "UNIQUE_HugePotMid_Normal": {
          "modifierName": "",
          "LLIJGLMEHFK": true,
          "duration": 0.4000000059604645,
          "elementDurability": 100.0,
          "JPIFFPJJEMK": [
            {
              "$type": "MoleMole.Config.ShaderStateMachineSwitchMixin",
              "PDMMEKFIMDB": 2,
              "KLAGHLNDOII": 3.0,
              "HNDLOLDKOHO": ""
            }
          ]
        },
        "UNIQUE_HugePotSmall_BeHit": {
          "modifierName": "",
          "LLIJGLMEHFK": true,
          "duration": 0.4000000059604645,
          "elementDurability": 100.0,
          "JPIFFPJJEMK": [
            {
              "$type": "MoleMole.Config.ShaderStateMachineSwitchMixin",
              "PDMMEKFIMDB": 5,
              "KLAGHLNDOII": 5.0,
              "HNDLOLDKOHO": ""
            }
          ],
          "MINFJCDAIBB": [
            {
              "$type": "MoleMole.Config.ApplyModifier",
              "predicates": [
                {
                  "$type": "IPGGGPIJONN",
                  "key": "SGV_HitTime",
                  "value": 9.0,
                  "compareType": "LessAndEqual"
                }
              ],
              "modifierName": "UNIQUE_HugePotSmall_Normal"
            }
          ]
        },
        "UNIQUE_HugePotSmall_Normal": {
          "modifierName": "",
          "LLIJGLMEHFK": true,
          "duration": 0.4000000059604645,
          "elementDurability": 100.0,
          "JPIFFPJJEMK": [
            {
              "$type": "MoleMole.Config.ShaderStateMachineSwitchMixin",
              "PDMMEKFIMDB": 4,
              "KLAGHLNDOII": 3.0,
              "HNDLOLDKOHO": ""
            }
          ]
        },
        "SLC_PotCruhsed": {
          "EODJPKICNGG": "MultipleRefresh",
          "modifierName": "",
          "duration": 0.5,
          "elementDurability": 100.0,
          "OAOGLLGGJPD": [
            {
              "$type": "MoleMole.Config.ServerLuaCall",
              "MECCMJIFJKG": "CurGalleryControlGroup",
              "ACMHGHCMOIF": "SLC_PotCruhsed",
              "param1": 0.0,
              "param2": 0.0,
              "GBOGNIOMAGM": 0.0
            }
          ]
        }
      },
      "OAOGLLGGJPD": [
        {
          "$type": "MoleMole.Config.ChangeTag",
          "BMHGAAIEHDH": true,
          "tag": "Is_HugePot"
        }
      ]
    }
  },
  {
    "Default": {
      "$type": "MoleMole.Config.GNKCLKNDOAK",
      "abilityName": "SceneObj_Area_Common_Property_Ani_Prop_PitchPotHugepotMark_01",
      "PIDAPNFJNDF": [
        {
          "$type": "MoleMole.Config.AttachToGadgetStateMixin",
          "modifierName": "Mark_State_0"
        }
      ],
      "BFBDNNJCDLH": {
        "Mark_State_0": {
          "modifierName": "",
          "elementDurability": 100.0,
          "OAOGLLGGJPD": [
            {
              "$type": "MoleMole.Config.AttachEffect",
              "effectPattern": "Eff_SceneObj_PitchPotHugepot_01_EndPoint",
              "effectTempleteID": -1.0
            }
          ]
        }
      }
    }
  },
  {
    "Default": {
      "$type": "MoleMole.Config.GNKCLKNDOAK",
      "abilityName": "SceneObj_Area_Common_Property_Ani_Prop_PitchPotScoreRing_01",
      "PIDAPNFJNDF": [
        {
          "$type": "MoleMole.Config.AttachToGadgetStateMixin",
          "MHKDFIPGJJO": 201,
          "modifierName": "ScoreRing_Disable"
        },
        {
          "$type": "MoleMole.Config.AttachToGadgetStateMixin",
          "MHKDFIPGJJO": 202,
          "modifierName": "ScoreRing_Warning"
        }
      ],
      "BFBDNNJCDLH": {
        "ScoreRing_Effect": {
          "modifierName": "",
          "elementDurability": 100.0,
          "OAOGLLGGJPD": [
            {
              "$type": "MoleMole.Config.ChangeTag",
              "BMHGAAIEHDH": true,
              "tag": "Is_ScoreRing"
            },
            {
              "$type": "MoleMole.Config.AttachEffect",
              "effectPattern": "Eff_SceneObj_PitchPotScoreRing",
              "effectTempleteID": -1.0
            }
          ],
          "MINFJCDAIBB": [
            {
              "$type": "MoleMole.Config.ChangeTag",
              "tag": "Is_ScoreRing"
            }
          ]
        },
        "ScoreRing_Disable": {
          "modifierName": "",
          "elementDurability": 100.0,
          "OAOGLLGGJPD": [
            {
              "$type": "MoleMole.Config.FireEffect",
              "effectPattern": "Eff_SceneObj_PitchPotScoreRing_Die",
              "effectTempleteID": -1.0
            },
            {
              "$type": "MoleMole.Config.RemoveModifier",
              "modifierName": "ScoreRing_Effect"
            },
            {
              "$type": "MoleMole.Config.KillSelf"
            }
          ]
        },
        "ScoreRing_Warning": {
          "modifierName": "",
          "elementDurability": 100.0,
          "OAOGLLGGJPD": [
            {
              "$type": "MoleMole.Config.SendEffectTrigger",
              "parameter": "State",
              "attachPoint": "",
              "KPGKDHAFHFE": "Int",
              "value": 202,
              "effectPattern": "Eff_SceneObj_PitchPotScoreRing"
            }
          ]
        }
      },
      "OAOGLLGGJPD": [
        {
          "$type": "MoleMole.Config.AttachModifier",
          "modifierName": "ScoreRing_Effect"
        }
      ]
    }
  },
  {
    "Default": {
      "$type": "MoleMole.Config.GNKCLKNDOAK",
      "abilityName": "SceneObj_Area_Common_Property_Ani_Prop_PitchPotPredictablepot_01",
      "PIDAPNFJNDF": [
        {
          "$type": "MoleMole.Config.AttachToGadgetStateMixin",
          "modifierName": "Predictablepot_State_0"
        },
        {
          "$type": "MoleMole.Config.AttachToGadgetStateMixin",
          "MHKDFIPGJJO": 201,
          "modifierName": "Predictablepot_State_201"
        },
        {
          "$type": "MoleMole.Config.AttachToGadgetStateMixin",
          "MHKDFIPGJJO": 202,
          "modifierName": "Predictablepot_State_202"
        },
        {
          "$type": "MoleMole.Config.AttachModifierToGlobalValueMixin",
          "globalValueKey": "SGV_Movedir",
          "FJEPHJNDEAI": [
            0.5,
            1.5,
            2.5
          ],
          "IJEPHCMOAPE": [
            "MoveForward",
            "MoveBackward"
          ],
          "BMNOPNNALIB": true
        }
      ],
      "BFBDNNJCDLH": {
        "MoveForward": {
          "modifierName": "",
          "elementDurability": 100.0,
          "OAOGLLGGJPD": [
            {
              "$type": "MoleMole.Config.FireEffect",
              "effectPattern": "Eff_SceneObj_PitchPotPredictablepot_01_ChangePosition",
              "effectTempleteID": -1.0
            }
          ]
        },
        "MoveBackward": {
          "modifierName": "",
          "elementDurability": 100.0,
          "OAOGLLGGJPD": [
            {
              "$type": "MoleMole.Config.FireEffect",
              "effectPattern": "Eff_SceneObj_PitchPotPredictablepot_02_ChangePosition",
              "effectTempleteID": -1.0
            }
          ]
        },
        "Predictablepot_State_0": {
          "modifierName": "",
          "elementDurability": 100.0,
          "OAOGLLGGJPD": [
            {
              "$type": "MoleMole.Config.ChangeTag",
              "BMHGAAIEHDH": true,
              "tag": "Is_Predictable"
            },
            {
              "$type": "MoleMole.Config.FireEffect",
              "effectPattern": "Eff_SceneObj_PitchPotNormalpot_01_Born",
              "effectTempleteID": -1.0
            }
          ],
          "MINFJCDAIBB": [
            {
              "$type": "MoleMole.Config.ChangeTag",
              "tag": "Is_Predictable"
            }
          ]
        },
        "Predictablepot_State_201": {
          "modifierName": "",
          "elementDurability": 100.0,
          "OAOGLLGGJPD": [
            {
              "$type": "MoleMole.Config.FireEffect",
              "effectPattern": "Eff_SceneObj_PitchPotChainpot_01_DisaperLast",
              "effectTempleteID": -1.0
            },
            {
              "$type": "MoleMole.Config.KillSelf"
            }
          ]
        },
        "Predictablepot_State_202": {
          "modifierName": "",
          "elementDurability": 100.0,
          "OAOGLLGGJPD": [
            {
              "$type": "MoleMole.Config.FireEffect",
              "effectPattern": "Eff_SceneObj_PitchPotNormalpot_01_DitherDisaper",
              "effectTempleteID": -1.0
            },
            {
              "$type": "MoleMole.Config.KillSelf"
            }
          ]
        }
      }
    }
  },
  {
    "Default": {
      "$type": "MoleMole.Config.GNKCLKNDOAK",
      "abilityName": "SceneObj_Area_Common_Property_Ani_Prop_PitchPotChainpot_01",
      "PIDAPNFJNDF": [
        {
          "$type": "MoleMole.Config.AttachToGadgetStateMixin",
          "modifierName": "Chainpot_State_0"
        },
        {
          "$type": "MoleMole.Config.AttachToGadgetStateMixin",
          "MHKDFIPGJJO": 201,
          "modifierName": "Chainpot_State_201"
        },
        {
          "$type": "MoleMole.Config.AttachToGadgetStateMixin",
          "MHKDFIPGJJO": 202,
          "modifierName": "Chainpot_State_202"
        },
        {
          "$type": "MoleMole.Config.AttachToGadgetStateMixin",
          "MHKDFIPGJJO": 203,
          "modifierName": "Chainpot_State_203"
        },
        {
          "$type": "MoleMole.Config.AttachModifierToGlobalValueMixin",
          "globalValueKey": "SGV_Index",
          "FJEPHJNDEAI": [
            0.5,
            1.5,
            2.5,
            3.5
          ],
          "IJEPHCMOAPE": [
            "ChainPot01",
            "ChainPot02",
            "ChainPot03"
          ],
          "BMNOPNNALIB": true
        }
      ],
      "BFBDNNJCDLH": {
        "Chainpot_State_0": {
          "modifierName": "",
          "elementDurability": 100.0,
          "JPIFFPJJEMK": [
            {
              "$type": "MoleMole.Config.ShaderStateMachineSwitchMixin",
              "HNDLOLDKOHO": ""
            }
          ],
          "OAOGLLGGJPD": [
            {
              "$type": "MoleMole.Config.ChangeTag",
              "BMHGAAIEHDH": true,
              "tag": "Is_NormalPot"
            },
            {
              "$type": "MoleMole.Config.FireEffect",
              "effectPattern": "Eff_SceneObj_PitchPotNormalpot_01_Born",
              "effectTempleteID": -1.0
            }
          ],
          "MINFJCDAIBB": [
            {
              "$type": "MoleMole.Config.ChangeTag",
              "tag": "Is_NormalPot"
            }
          ]
        },
        "Chainpot_State_201": {
          "modifierName": "",
          "elementDurability": 100.0,
          "JPIFFPJJEMK": [
            {
              "$type": "MoleMole.Config.ShaderStateMachineSwitchMixin",
              "PDMMEKFIMDB": 2,
              "HNDLOLDKOHO": ""
            }
          ],
          "OAOGLLGGJPD": [
            {
              "$type": "MoleMole.Config.FireEffect",
              "effectPattern": "Eff_SceneObj_PitchPotNormalpot_01_Disaper",
              "effectTempleteID": -1.0
            },
            {
              "$type": "MoleMole.Config.KillSelf"
            }
          ]
        },
        "Chainpot_State_202": {
          "modifierName": "",
          "elementDurability": 100.0,
          "JPIFFPJJEMK": [
            {
              "$type": "MoleMole.Config.ShaderStateMachineSwitchMixin",
              "PDMMEKFIMDB": 2,
              "HNDLOLDKOHO": ""
            }
          ],
          "OAOGLLGGJPD": [
            {
              "$type": "MoleMole.Config.FireEffect",
              "effectPattern": "Eff_SceneObj_PitchPotNormalpot_01_DitherDisaper",
              "effectTempleteID": -1.0
            },
            {
              "$type": "MoleMole.Config.KillSelf"
            }
          ]
        },
        "Chainpot_State_203": {
          "modifierName": "",
          "elementDurability": 100.0,
          "OAOGLLGGJPD": [
            {
              "$type": "MoleMole.Config.FireEffect",
              "effectPattern": "Eff_SceneObj_PitchPotChainpot_01_DisaperLast",
              "effectTempleteID": -1.0
            },
            {
              "$type": "MoleMole.Config.KillSelf"
            }
          ]
        },
        "ChainPot01": {
          "modifierName": "",
          "elementDurability": 100.0,
          "JPIFFPJJEMK": [
            {
              "$type": "MoleMole.Config.AttachModifierToGlobalValueMixin",
              "globalValueKey": "SGV_Disappear",
              "FJEPHJNDEAI": [
                -0.5,
                0.5,
                100.0
              ],
              "IJEPHCMOAPE": [
                "ChainPot_01_Normal",
                "ChainPot_01_Disappear"
              ],
              "BMNOPNNALIB": true
            }
          ]
        },
        "ChainPot_01_Normal": {
          "modifierName": "",
          "elementDurability": 100.0,
          "JPIFFPJJEMK": [
            {
              "$type": "MoleMole.Config.ShaderStateMachineSwitchMixin",
              "HNDLOLDKOHO": ""
            }
          ]
        },
        "ChainPot_01_Disappear": {
          "modifierName": "",
          "elementDurability": 100.0,
          "JPIFFPJJEMK": [
            {
              "$type": "MoleMole.Config.ShaderStateMachineSwitchMixin",
              "PDMMEKFIMDB": 1,
              "HNDLOLDKOHO": ""
            }
          ]
        },
        "ChainPot02": {
          "modifierName": "",
          "elementDurability": 100.0,
          "JPIFFPJJEMK": [
            {
              "$type": "MoleMole.Config.AttachModifierToGlobalValueMixin",
              "globalValueKey": "SGV_Disappear",
              "FJEPHJNDEAI": [
                -0.5,
                0.5,
                100.0
              ],
              "IJEPHCMOAPE": [
                "ChainPot_02_Normal",
                "ChainPot_02_Disappear"
              ],
              "BMNOPNNALIB": true
            }
          ]
        },
        "ChainPot_02_Normal": {
          "modifierName": "",
          "elementDurability": 100.0,
          "JPIFFPJJEMK": [
            {
              "$type": "MoleMole.Config.ShaderStateMachineSwitchMixin",
              "PDMMEKFIMDB": 3,
              "HNDLOLDKOHO": ""
            }
          ]
        },
        "ChainPot_02_Disappear": {
          "modifierName": "",
          "elementDurability": 100.0,
          "JPIFFPJJEMK": [
            {
              "$type": "MoleMole.Config.ShaderStateMachineSwitchMixin",
              "PDMMEKFIMDB": 4,
              "HNDLOLDKOHO": ""
            }
          ]
        },
        "ChainPot03": {
          "modifierName": "",
          "elementDurability": 100.0,
          "JPIFFPJJEMK": [
            {
              "$type": "MoleMole.Config.AttachModifierToGlobalValueMixin",
              "globalValueKey": "SGV_Disappear",
              "FJEPHJNDEAI": [
                -0.5,
                0.5,
                100.0
              ],
              "IJEPHCMOAPE": [
                "ChainPot_03_Normal",
                "ChainPot_03_Disappear"
              ],
              "BMNOPNNALIB": true
            }
          ]
        },
        "ChainPot_03_Normal": {
          "modifierName": "",
          "elementDurability": 100.0,
          "JPIFFPJJEMK": [
            {
              "$type": "MoleMole.Config.ShaderStateMachineSwitchMixin",
              "PDMMEKFIMDB": 6,
              "HNDLOLDKOHO": ""
            }
          ]
        },
        "ChainPot_03_Disappear": {
          "modifierName": "",
          "elementDurability": 100.0,
          "JPIFFPJJEMK": [
            {
              "$type": "MoleMole.Config.ShaderStateMachineSwitchMixin",
              "PDMMEKFIMDB": 7,
              "HNDLOLDKOHO": ""
            }
          ]
        }
      }
    }
  },
  {
    "Default": {
      "$type": "MoleMole.Config.GNKCLKNDOAK",
      "abilityName": "SceneObj_Area_Common_Property_Ani_Prop_PitchPotBoard_01",
      "PIDAPNFJNDF": [
        {
          "$type": "MoleMole.Config.AttachToGadgetStateMixin",
          "modifierName": "Board_State_0"
        },
        {
          "$type": "MoleMole.Config.AttachToGadgetStateMixin",
          "MHKDFIPGJJO": 201,
          "modifierName": "Board_State_201"
        },
        {
          "$type": "MoleMole.Config.AttachToGadgetStateMixin",
          "MHKDFIPGJJO": 202,
          "modifierName": "Board_State_202"
        },
        {
          "$type": "MoleMole.Config.AttachToGadgetStateMixin",
          "MHKDFIPGJJO": 203,
          "modifierName": "Board_State_203"
        }
      ],
      "BFBDNNJCDLH": {
        "Board_State_0": {
          "modifierName": "",
          "elementDurability": 100.0,
          "OAOGLLGGJPD": [
            {
              "$type": "MoleMole.Config.FireEffect",
              "effectPattern": "Eff_SceneObj_PitchPotNormalpot_01_Born",
              "effectTempleteID": -1.0
            },
            {
              "$type": "MoleMole.Config.EnableSceneTransformByName",
              "MKNNBEGONKE": [
                "PitchBoard01",
                "PitchBoard02"
              ],
              "NJKBCLADIBK": true
            },
            {
              "$type": "MoleMole.Config.EnableSceneTransformByName",
              "MKNNBEGONKE": [
                "PitchBoard03"
              ]
            }
          ]
        },
        "Board_State_201": {
          "modifierName": "",
          "elementDurability": 100.0,
          "OAOGLLGGJPD": [
            {
              "$type": "MoleMole.Config.TriggerAudio",
              "DEGBIGJECEC": {
                "$type": "HHIKBIFANNO",
                "DEGBIGJECEC": {
                  "text": "Play_amb_sceneObj_gear_pitchPotHugepot_01_hit_wood"
                }
              }
            },
            {
              "$type": "MoleMole.Config.EnableSceneTransformByName",
              "MKNNBEGONKE": [
                "PitchBoard02",
                "PitchBoard03"
              ],
              "NJKBCLADIBK": true
            },
            {
              "$type": "MoleMole.Config.EnableSceneTransformByName",
              "MKNNBEGONKE": [
                "PitchBoard01"
              ]
            }
          ]
        },
        "Board_State_202": {
          "modifierName": "",
          "elementDurability": 100.0,
          "OAOGLLGGJPD": [
            {
              "$type": "MoleMole.Config.TriggerAudio",
              "DEGBIGJECEC": {
                "$type": "HHIKBIFANNO",
                "DEGBIGJECEC": {
                  "text": "Play_amb_sceneObj_gear_pitchPotHugepot_01_hit_wood"
                }
              }
            },
            {
              "$type": "MoleMole.Config.EnableSceneTransformByName",
              "MKNNBEGONKE": [
                "PitchBoard03"
              ],
              "NJKBCLADIBK": true
            },
            {
              "$type": "MoleMole.Config.EnableSceneTransformByName",
              "MKNNBEGONKE": [
                "PitchBoard01",
                "PitchBoard02"
              ]
            }
          ]
        },
        "Board_State_203": {
          "modifierName": "",
          "elementDurability": 100.0,
          "OAOGLLGGJPD": [
            {
              "$type": "MoleMole.Config.TriggerAudio",
              "DEGBIGJECEC": {
                "$type": "HHIKBIFANNO",
                "DEGBIGJECEC": {
                  "text": "Play_amb_sceneObj_gear_pitchPotHugepot_01_hit_wood"
                }
              }
            },
            {
              "$type": "MoleMole.Config.KillSelf"
            }
          ]
        }
      },
      "OAOGLLGGJPD": [
        {
          "$type": "MoleMole.Config.ChangeTag",
          "BMHGAAIEHDH": true,
          "tag": "Is_Board"
        }
      ]
    }
  },
  {
    "Default": {
      "$type": "MoleMole.Config.GNKCLKNDOAK",
      "abilityName": "SceneObj_Area_Fd_Property_Ani_Prop_LuminousJellyfish_02",
      "BFBDNNJCDLH": {
        "Effect_Attacher": {
          "modifierName": "",
          "elementDurability": 100.0,
          "OAOGLLGGJPD": [
            {
              "$type": "MoleMole.Config.FireEffect",
              "effectPattern": "Eff_SceneObj_LuminousJellyfish_01",
              "effectTempleteID": -1.0
            },
            {
              "$type": "MoleMole.Config.AttachEffect",
              "effectPattern": "Eff_Stages_SceneObj_ArtBoids_LuminousJellyfish_02",
              "effectTempleteID": -1.0
            }
          ]
        },
        "KillApplier_Handler": {
          "modifierName": "",
          "duration": 0.5,
          "elementDurability": 100.0,
          "OAOGLLGGJPD": [
            {
              "$type": "MoleMole.Config.ApplyModifier",
              "MLDBFKEGPEF": "Applier",
              "predicates": [
                {
                  "$type": "OLDIADOPIAG",
                  "MLDBFKEGPEF": "Self"
                }
              ],
              "modifierName": "KillSelf_Handler"
            }
          ]
        },
        "KillSelf_Handler": {
          "modifierName": "",
          "elementDurability": 100.0,
          "OAOGLLGGJPD": [
            {
              "$type": "MoleMole.Config.KillSelf"
            }
          ]
        }
      },
      "OAOGLLGGJPD": [
        {
          "$type": "MoleMole.Config.AttachModifier",
          "modifierName": "Effect_Attacher"
        }
      ],
      "GGGLNDFDIMI": [
        {
          "$type": "MoleMole.Config.Predicated",
          "MLDBFKEGPEF": "Target",
          "CKBKOCJPJMM": [
            {
              "$type": "OLDIADOPIAG"
            }
          ],
          "successActions": [
            {
              "$type": "MoleMole.Config.RemoveModifier",
              "modifierName": "Effect_Attacher"
            },
            {
              "$type": "MoleMole.Config.FireEffect",
              "effectPattern": "Eff_SceneObj_LuminousJellyfish_02",
              "effectTempleteID": -1.0
            },
            {
              "$type": "MoleMole.Config.ApplyModifier",
              "MLDBFKEGPEF": "Target",
              "modifierName": "KillApplier_Handler"
            }
          ]
        }
      ]
    }
  },
  {
    "Default": {
      "$type": "MoleMole.Config.GNKCLKNDOAK",
      "abilityName": "SceneObj_Area_Fd_Property_Ani_Prop_LuminousJellyfish_01",
      "BFBDNNJCDLH": {
        "Effect_Attacher": {
          "modifierName": "",
          "elementDurability": 100.0,
          "OAOGLLGGJPD": [
            {
              "$type": "MoleMole.Config.FireEffect",
              "effectPattern": "Eff_SceneObj_LuminousJellyfish_03",
              "effectTempleteID": -1.0
            },
            {
              "$type": "MoleMole.Config.AttachEffect",
              "effectPattern": "Eff_Stages_SceneObj_ArtBoids_LuminousJellyfish_01",
              "effectTempleteID": -1.0
            }
          ]
        },
        "KillApplier_Handler": {
          "modifierName": "",
          "duration": 0.5,
          "elementDurability": 100.0,
          "OAOGLLGGJPD": [
            {
              "$type": "MoleMole.Config.ApplyModifier",
              "MLDBFKEGPEF": "Applier",
              "predicates": [
                {
                  "$type": "OLDIADOPIAG",
                  "MLDBFKEGPEF": "Self"
                }
              ],
              "modifierName": "KillSelf_Handler"
            }
          ]
        },
        "KillSelf_Handler": {
          "modifierName": "",
          "elementDurability": 100.0,
          "OAOGLLGGJPD": [
            {
              "$type": "MoleMole.Config.KillSelf"
            }
          ]
        }
      },
      "OAOGLLGGJPD": [
        {
          "$type": "MoleMole.Config.AttachModifier",
          "modifierName": "Effect_Attacher"
        }
      ],
      "GGGLNDFDIMI": [
        {
          "$type": "MoleMole.Config.Predicated",
          "MLDBFKEGPEF": "Target",
          "CKBKOCJPJMM": [
            {
              "$type": "OLDIADOPIAG"
            }
          ],
          "successActions": [
            {
              "$type": "MoleMole.Config.RemoveModifier",
              "modifierName": "Effect_Attacher"
            },
            {
              "$type": "MoleMole.Config.FireEffect",
              "effectPattern": "Eff_SceneObj_LuminousJellyfish_04",
              "effectTempleteID": -1.0
            },
            {
              "$type": "MoleMole.Config.ApplyModifier",
              "MLDBFKEGPEF": "Target",
              "modifierName": "KillApplier_Handler"
            }
          ]
        }
      ]
    }
  },
  {
    "Default": {
      "$type": "MoleMole.Config.GNKCLKNDOAK",
      "abilityName": "Activity_UnderWater_TeamAbility",
      "PIDAPNFJNDF": [
        {
          "$type": "MoleMole.Config.DoActionOnGlobalValueChangeMixin",
          "globalValueKey": "SGV_ALGA_NUM",
          "actions": [
            {
              "$type": "MoleMole.Config.AttachModifier",
              "MLDBFKEGPEF": "CurLocalAvatar",
              "predicates": [
                {
                  "$type": "IPGGGPIJONN",
                  "MLDBFKEGPEF": "Team",
                  "key": "SGV_ALGA_NUM",
                  "value": 0.0,
                  "compareType": "MoreThan"
                }
              ],
              "modifierName": "UNIQUE_Avatar_Has_Alga"
            },
            {
              "$type": "MoleMole.Config.ApplyModifier",
              "MLDBFKEGPEF": "CurLocalAvatar",
              "predicates": [
                {
                  "$type": "IPGGGPIJONN",
                  "MLDBFKEGPEF": "Team",
                  "key": "SGV_ALGA_NUM",
                  "value": 0.0,
                  "compareType": "MoreThan"
                }
              ],
              "modifierName": "UNIQUE_Avatar_Alga_Appear"
            }
          ]
        }
      ],
      "BFBDNNJCDLH": {
        "UNIQUE_Avatar_Alga_Appear": {
          "modifierName": "",
          "LLIJGLMEHFK": true,
          "duration": 10.0,
          "elementDurability": 100.0,
          "OAOGLLGGJPD": [
            {
              "$type": "MoleMole.Config.SendEffectTrigger",
              "MLDBFKEGPEF": "CurLocalAvatar",
              "parameter": "GadgetState",
              "attachPoint": "",
              "KPGKDHAFHFE": "Int",
              "effectPattern": "Eff_SceneObj_LuminousJellyfish_05"
            },
            {
              "$type": "MoleMole.Config.SetGlobalValueV2",
              "MLDBFKEGPEF": "Team",
              "value": 1.0,
              "key": "Mark_Has_Alga",
              "maxValue": 0.0,
              "GCEOGBJIFCP": 0.0
            }
          ],
          "MINFJCDAIBB": [
            {
              "$type": "MoleMole.Config.SendEffectTrigger",
              "MLDBFKEGPEF": "CurLocalAvatar",
              "parameter": "GadgetState",
              "attachPoint": "",
              "KPGKDHAFHFE": "Int",
              "value": 201,
              "effectPattern": "Eff_SceneObj_LuminousJellyfish_05"
            },
            {
              "$type": "MoleMole.Config.SetGlobalValueV2",
              "MLDBFKEGPEF": "Team",
              "value": 0.0,
              "key": "Mark_Has_Alga",
              "maxValue": 0.0,
              "GCEOGBJIFCP": 0.0
            }
          ]
        },
        "UNIQUE_Avatar_Has_Alga": {
          "modifierName": "",
          "LLIJGLMEHFK": true,
          "elementDurability": 100.0,
          "BNJENAIMDPL": 5.0,
          "JPIFFPJJEMK": [
            {
              "$type": "MoleMole.Config.CurLocalAvatarMixinV2",
              "modifierName": "UNIQUE_Avatar_Has_AlgaEffect"
            }
          ],
          "PJKELBNICOI": [
            {
              "$type": "MoleMole.Config.AttachModifier",
              "MLDBFKEGPEF": "CurLocalAvatar",
              "doOffStage": true,
              "modifierName": "UNIQUE_Avatar_Has_AlgaEffect"
            }
          ]
        },
        "UNIQUE_Avatar_Has_AlgaEffect": {
          "EODJPKICNGG": "Unique",
          "modifierName": "",
          "LLIJGLMEHFK": true,
          "elementDurability": 100.0,
          "OAOGLLGGJPD": [
            {
              "$type": "MoleMole.Config.AttachEffect",
              "doOffStage": true,
              "effectPattern": "Eff_SceneObj_LuminousJellyfish_05",
              "effectTempleteID": -1.0
            },
            {
              "$type": "MoleMole.Config.SendEffectTrigger",
              "MLDBFKEGPEF": "CurLocalAvatar",
              "predicates": [
                {
                  "$type": "IPGGGPIJONN",
                  "MLDBFKEGPEF": "Team",
                  "key": "Mark_Has_Alga",
                  "value": 0.0
                }
              ],
              "parameter": "GadgetState",
              "attachPoint": "",
              "KPGKDHAFHFE": "Int",
              "value": 201,
              "effectPattern": "Eff_SceneObj_LuminousJellyfish_05"
            },
            {
              "$type": "MoleMole.Config.SendEffectTrigger",
              "MLDBFKEGPEF": "CurLocalAvatar",
              "predicates": [
                {
                  "$type": "IPGGGPIJONN",
                  "MLDBFKEGPEF": "Team",
                  "key": "Mark_Has_Alga",
                  "value": 0.0,
                  "compareType": "MoreThan"
                }
              ],
              "parameter": "GadgetState",
              "attachPoint": "",
              "KPGKDHAFHFE": "Int",
              "effectPattern": "Eff_SceneObj_LuminousJellyfish_05"
            }
          ],
          "JOHFNNOKAOA": [
            {
              "$type": "MoleMole.Config.RemoveModifier",
              "doOffStage": true,
              "modifierName": "UNIQUE_Avatar_Has_AlgaEffect"
            }
          ]
        }
      },
      "OAOGLLGGJPD": [
        {
          "$type": "MoleMole.Config.SetGlobalValueV2",
          "MLDBFKEGPEF": "Team",
          "value": 0.0,
          "key": "Mark_Has_Alga",
          "maxValue": 0.0,
          "GCEOGBJIFCP": 0.0
        }
      ],
      "LLNGCHGGPLC": true
    }
  },
  {
    "Default": {
      "$type": "MoleMole.Config.GNKCLKNDOAK",
      "abilityName": "SceneObj_Area_Common_Property_Ani_Prop_PaintingRepair_01",
      "PIDAPNFJNDF": [
        {
          "$type": "MoleMole.Config.AttachToGadgetStateMixin",
          "modifierName": "Opeartor_Show"
        },
        {
          "$type": "MoleMole.Config.AttachToGadgetStateMixin",
          "MHKDFIPGJJO": 201,
          "modifierName": "Opeartor_Hide"
        },
        {
          "$type": "MoleMole.Config.UIInteractMixin",
          "ABIOGHOPAHH": "OpenPage",
          "actionList": [
            {
              "$type": "MoleMole.Config.ApplyModifier",
              "modifierName": "UIPage_Open"
            }
          ]
        },
        {
          "$type": "MoleMole.Config.UIInteractMixin",
          "ABIOGHOPAHH": "ClosePage",
          "actionList": [
            {
              "$type": "MoleMole.Config.ApplyModifier",
              "modifierName": "UIPage_Close"
            }
          ]
        }
      ],
      "BFBDNNJCDLH": {
        "Opeartor_Recover": {
          "modifierName": "",
          "elementDurability": 100.0,
          "PMDLJDGOIKO": [
            {
              "$type": "MoleMole.Config.ChangeGadgetState"
            }
          ]
        },
        "Opeartor_Show": {
          "modifierName": "",
          "elementDurability": 100.0,
          "OAOGLLGGJPD": [
            {
              "$type": "MoleMole.Config.AttachEffect",
              "effectPattern": "Eff_SceneObj_CameraActiveOperator_01",
              "effectTempleteID": -1.0
            },
            {
              "$type": "MoleMole.Config.HideUIBillBoard"
            }
          ],
          "MINFJCDAIBB": [
            {
              "$type": "MoleMole.Config.FireEffect",
              "effectPattern": "Eff_SceneObj_CameraActiveOperator_01_Disappear",
              "effectTempleteID": -1.0
            },
            {
              "$type": "MoleMole.Config.HideUIBillBoard",
              "hide": true
            }
          ]
        },
        "Opeartor_Hide": {
          "modifierName": "",
          "elementDurability": 100.0
        },
        "UIPage_Open": {
          "modifierName": "",
          "duration": 1.0,
          "elementDurability": 100.0,
          "OAOGLLGGJPD": [
            {
              "$type": "MoleMole.Config.ChangeGadgetState",
              "HOJGPJHDKFJ": 201
            }
          ]
        },
        "UIPage_Close": {
          "modifierName": "",
          "duration": 1.0,
          "elementDurability": 100.0,
          "OAOGLLGGJPD": [
            {
              "$type": "MoleMole.Config.ChangeGadgetState"
            }
          ]
        }
      },
      "OAOGLLGGJPD": [
        {
          "$type": "MoleMole.Config.AttachModifier",
          "modifierName": "Opeartor_Recover"
        }
      ]
    }
  },
  {
    "Default": {
      "$type": "MoleMole.Config.GNKCLKNDOAK",
      "abilityName": "SceneObj_Area_Fd_Property_Ani_Prop_LuminousBoostRing_01",
      "BFBDNNJCDLH": {
        "OceanCurrentBoost_Avatar_Eff": {
          "EODJPKICNGG": "MultipleRefresh",
          "MPHEFFBDDNI": {
            "DFCKOFNNADO": "",
            "PDBIGMFIALF": 1.0
          },
          "modifierName": "",
          "duration": 4.0,
          "elementDurability": 100.0,
          "EPKCPIKGJOJ": {
            "Animator_MoveSpeedRatio": 0.5
          },
          "OAOGLLGGJPD": [
            {
              "$type": "MoleMole.Config.FireEffect",
              "effectPattern": "Eff_SceneObj_SpeedUp_Ring_Dash",
              "effectTempleteID": -1.0
            },
            {
              "$type": "MoleMole.Config.AttachEffect",
              "effectPattern": "Eff_SceneObj_SpeedWaterBall_Buff_01_State",
              "effectTempleteID": -1.0
            },
            {
              "$type": "MoleMole.Config.ApplyModifier",
              "modifierName": "OceanCurrentBoost_Avatar_Eff_Disappear"
            },
            {
              "$type": "MoleMole.Config.SendEffectTrigger",
              "parameter": "State",
              "attachPoint": "",
              "KPGKDHAFHFE": "Int",
              "value": 203,
              "effectPattern": "Eff_SceneObj_SpeedWaterBall_Buff_01_State"
            }
          ]
        },
        "OceanCurrentBoost_Avatar_Eff_Disappear": {
          "EODJPKICNGG": "MultipleRefresh",
          "MPHEFFBDDNI": {
            "DFCKOFNNADO": "",
            "PDBIGMFIALF": 1.0
          },
          "modifierName": "",
          "duration": 2.799999952316284,
          "elementDurability": 100.0,
          "MINFJCDAIBB": [
            {
              "$type": "MoleMole.Config.SendEffectTrigger",
              "parameter": "State",
              "attachPoint": "",
              "KPGKDHAFHFE": "Int",
              "effectPattern": "Eff_SceneObj_SpeedWaterBall_Buff_01_State"
            }
          ]
        },
        "OceanCurrentBoost_DelayKill": {
          "modifierName": "",
          "duration": 1.0,
          "elementDurability": 100.0,
          "MINFJCDAIBB": [
            {
              "$type": "MoleMole.Config.KillSelf",
              "doOffStage": true
            }
          ]
        },
        "OceanCurrentBoost_Eff": {
          "modifierName": "",
          "elementDurability": 100.0,
          "OAOGLLGGJPD": [
            {
              "$type": "MoleMole.Config.AttachEffect",
              "effectPattern": "Eff_SceneObj_SpeedWaterBall_Idle_01_CY",
              "effectTempleteID": -1.0
            }
          ],
          "MINFJCDAIBB": [
            {
              "$type": "MoleMole.Config.FireEffect",
              "effectPattern": "Eff_SceneObj_SpeedWaterBall_Idle_01_DS",
              "effectTempleteID": -1.0
            }
          ]
        }
      },
      "OAOGLLGGJPD": [
        {
          "$type": "MoleMole.Config.AttachModifier",
          "modifierName": "OceanCurrentBoost_Eff"
        }
      ],
      "GGGLNDFDIMI": [
        {
          "$type": "MoleMole.Config.RemoveModifier",
          "modifierName": "OceanCurrentBoost_Eff"
        },
        {
          "$type": "MoleMole.Config.ApplyModifier",
          "modifierName": "OceanCurrentBoost_DelayKill"
        },
        {
          "$type": "MoleMole.Config.ApplyModifier",
          "MLDBFKEGPEF": "Target",
          "modifierName": "OceanCurrentBoost_Avatar_Eff"
        }
      ]
    }
  },
  {
    "Default": {
      "$type": "MoleMole.Config.GNKCLKNDOAK",
      "abilityName": "ActivityAbility_QuickTimeCombat_V1",
      "BFBDNNJCDLH": {
        "QTE_Reset_Camera_Handler": {
          "modifierName": "",
          "duration": 1.0,
          "elementDurability": 100.0,
          "MINFJCDAIBB": [
            {
              "$type": "MoleMole.Config.ApplyModifier",
              "MLDBFKEGPEF": "CurLocalAvatar",
              "modifierName": "QTE_Reset_Camera"
            }
          ]
        },
        "QTE_Reset_Camera": {
          "modifierName": "",
          "duration": 1.0,
          "elementDurability": 100.0,
          "OAOGLLGGJPD": [
            {
              "$type": "MoleMole.Config.ResetCamera",
              "EMIJLLDBAIM": 1
            }
          ]
        }
      },
      "OAOGLLGGJPD": [
        {
          "$type": "MoleMole.Config.ShowExtraAbility",
          "skillID": 20066
        },
        {
          "$type": "MoleMole.Config.SetExtraAbilityEnable",
          "enable": true
        }
      ],
      "MINFJCDAIBB": [
        {
          "$type": "MoleMole.Config.ShowExtraAbility"
        },
        {
          "$type": "MoleMole.Config.ApplyModifier",
          "MLDBFKEGPEF": "Team",
          "modifierName": "QTE_Reset_Camera_Handler"
        }
      ],
      "EIIHGJGFDHC": [
        {
          "$type": "MoleMole.Config.SetExtraAbilityState"
        },
        {
          "$type": "MoleMole.Config.PushInterActionByConfigPath",
          "MLDBFKEGPEF": "CurLocalAvatar",
          "predicates": [
            {
              "$type": "LNHOBEDOKHB",
              "MLDBFKEGPEF": "CurLocalAvatar"
            }
          ],
          "JIMBMOKGFLI": "UI/open_QuickTimeCombat_V1_page"
        },
        {
          "$type": "MoleMole.Config.SetGlobalValue",
          "MLDBFKEGPEF": "Team",
          "value": 0.0,
          "key": "GV_Activity_QuickTimeCombat_QTETriggerCJB",
          "maxValue": 0.0,
          "GCEOGBJIFCP": 0.0
        },
        {
          "$type": "MoleMole.Config.DebugLog",
          "KNKPIGLBMEP": "## TD: T键触发 - QuickTimeCombat_V1"
        }
      ],
      "LLNGCHGGPLC": true
    }
  },
  {
    "Default": {
      "$type": "MoleMole.Config.GNKCLKNDOAK",
      "abilityName": "ActivityAbility_QuickTimeCombat_ClientCall",
      "EIIHGJGFDHC": [
        {
          "$type": "MoleMole.Config.ServerLuaCall",
          "MECCMJIFJKG": "CurGalleryControlGroup",
          "ACMHGHCMOIF": "SLC_QTE_Client_Judge_Finish",
          "param1": 0.0,
          "param2": 0.0,
          "GBOGNIOMAGM": 0.0
        }
      ],
      "LLNGCHGGPLC": true
    }
  },
  {
    "Default": {
      "$type": "MoleMole.Config.GNKCLKNDOAK",
      "abilityName": "SceneObj_Area_Common_Property_Ani_Prop_Leaves_01",
      "PIDAPNFJNDF": [
        {
          "$type": "MoleMole.Config.AttachToGadgetStateMixin",
          "modifierName": "Leaves_Effect_0"
        },
        {
          "$type": "MoleMole.Config.AttachToGadgetStateMixin",
          "MHKDFIPGJJO": 201,
          "modifierName": "Leaves_Effect_201"
        }
      ],
      "BFBDNNJCDLH": {
        "Leaves_Effect_0": {
          "modifierName": "",
          "elementDurability": 100.0,
          "OAOGLLGGJPD": [
            {
              "$type": "MoleMole.Config.AttachEffect",
              "effectPattern": "Eff_SceneObj_Property_Ani_Prop_Leaves_01_Water_Stop",
              "effectTempleteID": -1.0
            }
          ]
        },
        "Leaves_Effect_201": {
          "modifierName": "",
          "elementDurability": 100.0,
          "OAOGLLGGJPD": [
            {
              "$type": "MoleMole.Config.AttachEffect",
              "effectPattern": "Eff_SceneObj_Property_Ani_Prop_Leaves_01_Water",
              "effectTempleteID": -1.0
            }
          ]
        }
      }
    }
  },
  {
    "Default": {
      "$type": "MoleMole.Config.GNKCLKNDOAK",
      "abilityName": "SceneObj_Area_Fd_Property_Ani_Prop_LuminousMark_01",
      "BFBDNNJCDLH": {
        "RefreshBillboard": {
          "modifierName": "",
          "duration": 0.10000000149011612,
          "elementDurability": 100.0,
          "OAOGLLGGJPD": [
            {
              "$type": "MoleMole.Config.HideUIBillBoard",
              "hide": true
            }
          ],
          "MINFJCDAIBB": [
            {
              "$type": "MoleMole.Config.HideUIBillBoard"
            }
          ]
        }
      },
      "OAOGLLGGJPD": [
        {
          "$type": "MoleMole.Config.ApplyModifier",
          "modifierName": "RefreshBillboard"
        }
      ]
    }
  },
  {
    "Default": {
      "$type": "MoleMole.Config.GNKCLKNDOAK",
      "abilityName": "SceneObj_Area_Common_Property_Prop_QTEAirWall_01",
      "BFBDNNJCDLH": {
        "QTEAirWall_Effect": {
          "modifierName": "",
          "elementDurability": 100.0,
          "OAOGLLGGJPD": [
            {
              "$type": "MoleMole.Config.AttachEffect",
              "effectPattern": "Eff_SceneObj_Airwall_QTEDungeon_01",
              "effectTempleteID": -1.0
            }
          ]
        }
      },
      "OAOGLLGGJPD": [
        {
          "$type": "MoleMole.Config.ApplyModifier",
          "modifierName": "QTEAirWall_Effect"
        }
      ]
    }
  }
]