[
  {
    "Default": {
      "$type": "MoleMole.Config.GNKCLKNDOAK",
      "abilityName": "SceneObj_Area_Common_Property_Ani_Effect_ElementTrackIce_01_Ability",
      "BFBDNNJCDLH": {
        "Footprint_Ice_Modifier": {
          "modifierName": "",
          "elementType": "Ice",
          "elementDurability": 50.0
        }
      },
      "OAOGLLGGJPD": [
        {
          "$type": "MoleMole.Config.AttachEffect",
          "effectPattern": "Eff_ElementFootprint_Ice01",
          "effectTempleteID": -1.0
        },
        {
          "$type": "MoleMole.Config.ApplyModifier",
          "modifierName": "Footprint_Ice_Modifier"
        }
      ]
    }
  },
  {
    "Default": {
      "$type": "MoleMole.Config.GNKCLKNDOAK",
      "abilityName": "SceneObj_Quest_Cengyan2_Xiao_Element_Ability",
      "BFBDNNJCDLH": {
        "Footprint_Ice_Modifier": {
          "modifierName": "",
          "elementType": "Wind",
          "elementDurability": 50.0
        }
      },
      "OAOGLLGGJPD": [
        {
          "$type": "MoleMole.Config.AttachEffect",
          "effectPattern": "Eff_Quest_YaksaTrace_01",
          "effectTempleteID": -1.0
        },
        {
          "$type": "MoleMole.Config.ApplyModifier",
          "modifierName": "Footprint_Ice_Modifier"
        }
      ]
    }
  },
  {
    "Default": {
      "$type": "MoleMole.Config.GNKCLKNDOAK",
      "abilityName": "SceneObj_Area_Ljxs_Property_Prop_AlbedoFootprint_01_Ability",
      "BFBDNNJCDLH": {
        "Footprint_Rock_Modifier": {
          "modifierName": "",
          "elementType": "Rock",
          "elementDurability": 50.0
        }
      },
      "OAOGLLGGJPD": [
        {
          "$type": "MoleMole.Config.AttachEffect",
          "effectPattern": "Eff_Quest_ElementFootprint_Albedo_Rock_01",
          "born": {
            "$type": "JEDNAGFKIDP",
            "OBNIJLKICKN": "RootNode"
          },
          "effectTempleteID": -1.0
        },
        {
          "$type": "MoleMole.Config.ApplyModifier",
          "modifierName": "Footprint_Rock_Modifier"
        }
      ]
    }
  },
  {
    "Default": {
      "$type": "MoleMole.Config.GNKCLKNDOAK",
      "abilityName": "SceneObj_Area_Dq_Property_Prop_IttoFootprint_01_Ability",
      "BFBDNNJCDLH": {
        "Footprint_Rock_Modifier": {
          "modifierName": "",
          "elementType": "Rock",
          "elementDurability": 50.0
        }
      },
      "OAOGLLGGJPD": [
        {
          "$type": "MoleMole.Config.AttachEffect",
          "effectPattern": "Eff_ElementFootprint_Rock01",
          "born": {
            "$type": "JEDNAGFKIDP",
            "OBNIJLKICKN": "RootNode"
          },
          "effectTempleteID": -1.0
        },
        {
          "$type": "MoleMole.Config.ApplyModifier",
          "modifierName": "Footprint_Rock_Modifier"
        }
      ]
    }
  }
]