[
  {
    "Default": {
      "$type": "MoleMole.Config.GNKCLKNDOAK",
      "abilityName": "Ability_Golden_Hall",
      "PIDAPNFJNDF": [
        {
          "$type": "MoleMole.Config.CurLocalAvatarMixinV2",
          "modifierName": "Avatar_GoldenHall_Fly"
        }
      ],
      "LLLCANIGIOE": {
        "tempGV_key_0": 0.0
      },
      "BFBDNNJCDLH": {
        "Avatar_GoldenHall_Fly": {
          "modifierName": "",
          "elementDurability": 100.0,
          "JPIFFPJJEMK": [
            {
              "$type": "MoleMole.Config.AttachToStateIDMixin",
              "stateIDs": [
                "ActivitySkill_CommonMove"
              ],
              "modifierName": "InFly",
              "MJFJKAHGHDJ": ""
            },
            {
              "$type": "MoleMole.Config.AttachModifierToGlobalValueMixin",
              "globalValueKey": "GV_IsInFly",
              "FJEPHJNDEAI": [
                -0.5,
                0.5,
                1.5
              ],
              "IJEPHCMOAPE": [
                "GV_IsInFly_0",
                "GV_IsInFly_1"
              ]
            },
            {
              "$type": "MoleMole.Config.ReplaceEventPatternMixin",
              "DIPJIKANBOP": [
                "PlayMusic_Lyre_Boy",
                "PlayMusic_Lyre_Girl",
                "PlayMusic_Lyre_Boy_AS",
                "PlayMusic_Lyre_Girl_AS"
              ],
              "EEOMLDEAJCE": [
                "PlayMusic_GoldenHall_Qin_Boy",
                "PlayMusic_GoldenHall_Qin_Girl",
                "PlayMusic_GoldenHall_Qin_Boy_AS",
                "PlayMusic_GoldenHall_Qin_Girl_AS"
              ]
            }
          ],
          "OAOGLLGGJPD": [
            {
              "$type": "MoleMole.Config.SetGlobalValueV2",
              "value": 0.0,
              "key": "GV_IsInFly",
              "maxValue": 0.0,
              "GCEOGBJIFCP": 0.0
            }
          ]
        },
        "InFly": {
          "modifierName": "",
          "elementDurability": 100.0,
          "OAOGLLGGJPD": [
            {
              "$type": "MoleMole.Config.DebugLog",
              "KNKPIGLBMEP": "Golden_Hall InFly onAdd"
            },
            {
              "$type": "MoleMole.Config.SetGlobalValueV2",
              "doOffStage": true,
              "value": 1.0,
              "key": "GV_IsInFly",
              "maxValue": 0.0,
              "GCEOGBJIFCP": 0.0
            }
          ],
          "MINFJCDAIBB": [
            {
              "$type": "MoleMole.Config.DebugLog",
              "KNKPIGLBMEP": "Golden_Hall InFly onRemoved"
            },
            {
              "$type": "MoleMole.Config.SetGlobalValueV2",
              "doOffStage": true,
              "value": 0.0,
              "key": "GV_IsInFly",
              "maxValue": 0.0,
              "GCEOGBJIFCP": 0.0
            }
          ]
        },
        "GV_IsInFly_0": {
          "modifierName": "",
          "elementDurability": 100.0,
          "BNJENAIMDPL": 1.0,
          "OAOGLLGGJPD": [
            {
              "$type": "MoleMole.Config.KillGadget",
              "doOffStage": true,
              "GBDKOCEAFOO": {
                "sortType": "Reversed",
                "configID": 70330847
              }
            }
          ],
          "PJKELBNICOI": [
            {
              "$type": "MoleMole.Config.KillGadget",
              "doOffStage": true,
              "GBDKOCEAFOO": {
                "sortType": "Reversed",
                "configID": 70330847
              }
            }
          ]
        },
        "GV_IsInFly_1": {
          "modifierName": "",
          "elementDurability": 100.0,
          "JPIFFPJJEMK": [
            {
              "$type": "MoleMole.Config.LevelCurveMixin",
              "tag": "RollerCoaster",
              "OHGCNLBHIMM": [
                "TEST_GV_0",
                "TEST_GV_1"
              ],
              "KDAHALPNNJE": [
                "StartCustomCameraList",
                "SetCameraOffset",
                "SetGroupVariable",
                "GoToStage3_GoldenHall"
              ],
              "MCAGONDFFHB": [
                [
                  {
                    "$type": "MoleMole.Config.DebugLog",
                    "KNKPIGLBMEP": "LevelCurveMixin > StartCustomCameraList"
                  },
                  {
                    "$type": "MoleMole.Config.SetCurveProgressInfoToGlobalValue",
                    "NCDDLPHDEIB": "TEST_GV_"
                  },
                  {
                    "$type": "MoleMole.Config.Predicated",
                    "otherTargets": {
                      "$type": "AGCDFMGOFPH",
                      "KHHAHILDJDO": 1,
                      "sortType": "Nearest",
                      "tag": "GoldenHall_Interact_Desk"
                    },
                    "successActions": [
                      {
                        "$type": "MoleMole.Config.SetGlobalValueToOverrideMap",
                        "globalValueKey": "TEST_GV_0",
                        "FDKJEIGEABF": "tempGV_key_0"
                      },
                      {
                        "$type": "MoleMole.Config.SetGlobalValue",
                        "MLDBFKEGPEF": "Other",
                        "doOffStage": true,
                        "value": "tempGV_key_0",
                        "key": "Cam_ID",
                        "maxValue": 0.0,
                        "GCEOGBJIFCP": 0.0
                      },
                      {
                        "$type": "MoleMole.Config.AddGlobalValue",
                        "MLDBFKEGPEF": "Other",
                        "value": 1.0,
                        "key": "Cam_Trigger",
                        "maxValue": 0.0,
                        "GCEOGBJIFCP": 0.0
                      }
                    ]
                  }
                ],
                [
                  {
                    "$type": "MoleMole.Config.DebugLog",
                    "KNKPIGLBMEP": "LevelCurveMixin > SetCameraOffset"
                  },
                  {
                    "$type": "MoleMole.Config.SetCurveProgressInfoToGlobalValue",
                    "NCDDLPHDEIB": "TEST_GV_"
                  },
                  {
                    "$type": "MoleMole.Config.TriggerCurveCameraOffset",
                    "predicates": [
                      {
                        "$type": "IPGGGPIJONN",
                        "key": "TEST_GV_0",
                        "value": 0.0
                      }
                    ],
                    "lerpInTime": 1.0,
                    "NAHHCCGEPNF": 0,
                    "EKONABADKPP": 60.0,
                    "MLOHKOJCHHG": 60.0,
                    "fov": 65.0,
                    "JPHHHNCCFJH": true
                  },
                  {
                    "$type": "MoleMole.Config.TriggerCurveCameraOffset",
                    "predicates": [
                      {
                        "$type": "IPGGGPIJONN",
                        "key": "TEST_GV_0",
                        "value": 1.0
                      }
                    ],
                    "DECKKNEODGN": {
                      "y": -2.0
                    },
                    "APDOAGJJBCK": {
                      "y": 10.0
                    },
                    "lerpInTime": 2.0,
                    "NAHHCCGEPNF": 0,
                    "EKONABADKPP": 60.0,
                    "MLOHKOJCHHG": 60.0,
                    "fov": 75.0,
                    "JPHHHNCCFJH": true
                  },
                  {
                    "$type": "MoleMole.Config.TriggerCurveCameraOffset",
                    "predicates": [
                      {
                        "$type": "IPGGGPIJONN",
                        "key": "TEST_GV_0",
                        "value": 2.0
                      }
                    ],
                    "APDOAGJJBCK": {
                      "x": 89.0,
                      "y": -25.0
                    },
                    "lerpInTime": 1.0,
                    "NAHHCCGEPNF": 3,
                    "EKONABADKPP": 10.0,
                    "MLOHKOJCHHG": 10.0,
                    "fov": 75.0,
                    "JPHHHNCCFJH": true
                  },
                  {
                    "$type": "MoleMole.Config.TriggerCurveCameraOffset",
                    "predicates": [
                      {
                        "$type": "IPGGGPIJONN",
                        "key": "TEST_GV_0",
                        "value": 3.0
                      }
                    ],
                    "DECKKNEODGN": {
                      "z": -1.0
                    },
                    "APDOAGJJBCK": {
                      "x": 30.0,
                      "y": -15.0
                    },
                    "lerpInTime": 1.0,
                    "NAHHCCGEPNF": 0,
                    "EKONABADKPP": 60.0,
                    "MLOHKOJCHHG": 60.0,
                    "fov": 75.0,
                    "JPHHHNCCFJH": true
                  },
                  {
                    "$type": "MoleMole.Config.TriggerCurveCameraOffset",
                    "predicates": [
                      {
                        "$type": "IPGGGPIJONN",
                        "key": "TEST_GV_0",
                        "value": 4.0
                      }
                    ],
                    "DECKKNEODGN": {
                      "z": -1.0
                    },
                    "APDOAGJJBCK": {
                      "x": 60.0,
                      "y": 10.0
                    },
                    "lerpInTime": 1.0,
                    "NAHHCCGEPNF": 0,
                    "EKONABADKPP": 60.0,
                    "MLOHKOJCHHG": 60.0,
                    "fov": 75.0,
                    "JPHHHNCCFJH": true
                  },
                  {
                    "$type": "MoleMole.Config.TriggerCurveCameraOffset",
                    "predicates": [
                      {
                        "$type": "IPGGGPIJONN",
                        "key": "TEST_GV_0",
                        "value": 5.0
                      }
                    ],
                    "APDOAGJJBCK": {
                      "y": 20.0
                    },
                    "lerpInTime": 1.0,
                    "NAHHCCGEPNF": 0,
                    "EKONABADKPP": 60.0,
                    "MLOHKOJCHHG": 60.0,
                    "fov": 75.0,
                    "BJFFNLFGELE": 6.0,
                    "JPHHHNCCFJH": true
                  },
                  {
                    "$type": "MoleMole.Config.TriggerCurveCameraOffset",
                    "predicates": [
                      {
                        "$type": "IPGGGPIJONN",
                        "key": "TEST_GV_0",
                        "value": 6.0
                      }
                    ],
                    "DECKKNEODGN": {
                      "y": -2.0
                    },
                    "APDOAGJJBCK": {
                      "y": 5.0
                    },
                    "lerpInTime": 1.0,
                    "NAHHCCGEPNF": 0,
                    "EKONABADKPP": 60.0,
                    "MLOHKOJCHHG": 60.0,
                    "fov": 75.0,
                    "BJFFNLFGELE": 10.0,
                    "JPHHHNCCFJH": true
                  },
                  {
                    "$type": "MoleMole.Config.TriggerCurveCameraOffset",
                    "predicates": [
                      {
                        "$type": "IPGGGPIJONN",
                        "key": "TEST_GV_0",
                        "value": 7.0
                      }
                    ],
                    "DECKKNEODGN": {
                      "y": -1.0
                    },
                    "APDOAGJJBCK": {
                      "y": -10.0
                    },
                    "lerpInTime": 1.0,
                    "NAHHCCGEPNF": 0,
                    "EKONABADKPP": 60.0,
                    "MLOHKOJCHHG": 60.0,
                    "fov": 75.0,
                    "BJFFNLFGELE": 8.0,
                    "JPHHHNCCFJH": true
                  },
                  {
                    "$type": "MoleMole.Config.TriggerCurveCameraOffset",
                    "predicates": [
                      {
                        "$type": "IPGGGPIJONN",
                        "key": "TEST_GV_0",
                        "value": 8.0
                      }
                    ],
                    "lerpInTime": 0.0,
                    "NAHHCCGEPNF": 0,
                    "EKONABADKPP": 30.0,
                    "MLOHKOJCHHG": 30.0,
                    "BJFFNLFGELE": 8.0,
                    "JPHHHNCCFJH": true
                  }
                ],
                [
                  {
                    "$type": "MoleMole.Config.DebugLog",
                    "KNKPIGLBMEP": "LevelCurveMixin > SetGroupVariable"
                  },
                  {
                    "$type": "MoleMole.Config.SetCurveProgressInfoToGlobalValue",
                    "NCDDLPHDEIB": "TEST_GV_"
                  },
                  {
                    "$type": "MoleMole.Config.SetGlobalValueToOverrideMap",
                    "globalValueKey": "TEST_GV_0",
                    "FDKJEIGEABF": "TEST_GV_0"
                  },
                  {
                    "$type": "MoleMole.Config.SetGlobalValueToOverrideMap",
                    "globalValueKey": "TEST_GV_1",
                    "FDKJEIGEABF": "TEST_GV_1"
                  },
                  {
                    "$type": "MoleMole.Config.ServerLuaCall",
                    "MECCMJIFJKG": "SpecificGroup",
                    "GBHMPOPDGNL": [
                      511020002
                    ],
                    "ACMHGHCMOIF": "SLC_GoldenHall_SetVar",
                    "EPFBIHBJPAH": 2,
                    "param1": "TEST_GV_0",
                    "param2": "TEST_GV_1",
                    "GBOGNIOMAGM": 0.0
                  }
                ],
                [
                  {
                    "$type": "MoleMole.Config.NotifyUI",
                    "JCEIFCMKFFK": "GoldenHall",
                    "DDCHCPODMKB": "GoToStage3",
                    "stringParam": "1449.86,-404.5424,3566.42|1,0,0"
                  }
                ]
              ]
            }
          ],
          "state": "IsGhostToEnemy",
          "OAOGLLGGJPD": [
            {
              "$type": "MoleMole.Config.CreateGadget",
              "doOffStage": true,
              "born": {
                "$type": "KPFCCIOJAMK",
                "useRotation": true
              },
              "gadgetID": 70330847
            }
          ],
          "MINFJCDAIBB": [
            {
              "$type": "MoleMole.Config.KillGadget",
              "doOffStage": true,
              "GBDKOCEAFOO": {
                "sortType": "Reversed",
                "configID": 70330847
              }
            }
          ]
        }
      },
      "LLNGCHGGPLC": true
    }
  },
  {
    "Default": {
      "$type": "MoleMole.Config.GNKCLKNDOAK",
      "abilityName": "GoldenHall_Avatar_Control",
      "PIDAPNFJNDF": [
        {
          "$type": "MoleMole.Config.DoActionOnGlobalValueChangeMixin",
          "globalValueKey": "ExitCameTrigger",
          "actions": [
            {
              "$type": "MoleMole.Config.AvatarExitCameraShot",
              "doOffStage": true,
              "KOEHPPEDKHE": "LEVEL"
            }
          ]
        },
        {
          "$type": "MoleMole.Config.StageReadyMixin",
          "ALBNCCINJJJ": [
            {
              "$type": "MoleMole.Config.DebugLog",
              "KNKPIGLBMEP": "GoldenHall > StageReady"
            },
            {
              "$type": "MoleMole.Config.AddGlobalValueV2",
              "doOffStage": true,
              "value": 1.0,
              "key": "ExitCameTrigger",
              "maxValue": 0.0,
              "GCEOGBJIFCP": 0.0
            }
          ]
        }
      ],
      "BFBDNNJCDLH": {
        "Controller": {
          "modifierName": "",
          "elementDurability": 100.0
        },
        "Blank": {
          "modifierName": "",
          "elementDurability": 100.0
        }
      },
      "LLNGCHGGPLC": true
    }
  },
  {
    "Default": {
      "$type": "MoleMole.Config.GNKCLKNDOAK",
      "abilityName": "SceneObj_GoldenHall_Stop_Point",
      "PIDAPNFJNDF": [
        {
          "$type": "MoleMole.Config.AttachToGadgetStateMixin",
          "modifierName": "Controller"
        }
      ],
      "BFBDNNJCDLH": {
        "Controller": {
          "modifierName": "",
          "elementDurability": 100.0,
          "JPIFFPJJEMK": [
            {
              "$type": "MoleMole.Config.RollerCoasterStationMixin",
              "CDHOFLBBDAA": [
                {
                  "$type": "MoleMole.Config.DebugLog",
                  "KNKPIGLBMEP": "RollerCoasterStationMixin > OnArrived"
                },
                {
                  "$type": "MoleMole.Config.Predicated",
                  "CKBKOCJPJMM": [
                    {
                      "$type": "LNALCOIFPDK",
                      "predicates": [
                        {
                          "$type": "CBCGGIMMENP",
                          "MLDBFKEGPEF": "Self"
                        },
                        {
                          "$type": "IPGGGPIJONN",
                          "MLDBFKEGPEF": "Self",
                          "key": "SGV_Stopover",
                          "value": 1.0
                        }
                      ]
                    }
                  ],
                  "successActions": [
                    {
                      "$type": "MoleMole.Config.AvatarExitCurveMove",
                      "MLDBFKEGPEF": "CurLocalAvatar"
                    }
                  ]
                }
              ]
            }
          ]
        }
      }
    }
  },
  {
    "Default": {
      "$type": "MoleMole.Config.GNKCLKNDOAK",
      "abilityName": "SceneObj_GoldenHall_Bee_Group_02",
      "BFBDNNJCDLH": {
        "Controller": {
          "modifierName": "",
          "elementDurability": 100.0,
          "OAOGLLGGJPD": [
            {
              "$type": "MoleMole.Config.AttachEffect",
              "effectPattern": "Eff_Stages_SceneObj_VABoids_BeeGhostGroupJSDT_01",
              "effectTempleteID": -1.0
            }
          ]
        }
      },
      "OAOGLLGGJPD": [
        {
          "$type": "MoleMole.Config.AttachModifier",
          "modifierName": "Controller"
        }
      ]
    }
  },
  {
    "Default": {
      "$type": "MoleMole.Config.GNKCLKNDOAK",
      "abilityName": "SceneObj_GoldenHall_Bee_Group_03",
      "BFBDNNJCDLH": {
        "Controller": {
          "modifierName": "",
          "elementDurability": 100.0,
          "OAOGLLGGJPD": [
            {
              "$type": "MoleMole.Config.AttachEffect",
              "effectPattern": "Eff_Stages_SceneObj_VABoids_BeeGhostGroupJSDTFinal_01",
              "effectTempleteID": -1.0
            }
          ]
        }
      },
      "OAOGLLGGJPD": [
        {
          "$type": "MoleMole.Config.AttachModifier",
          "modifierName": "Controller"
        }
      ]
    }
  },
  {
    "Default": {
      "$type": "MoleMole.Config.GNKCLKNDOAK",
      "abilityName": "SceneObj_GoldenHall_SmallStage_Bee_Group_01",
      "PIDAPNFJNDF": [
        {
          "$type": "MoleMole.Config.AttachToGadgetStateMixin",
          "modifierName": "Controller"
        }
      ],
      "BFBDNNJCDLH": {
        "Controller": {
          "modifierName": "",
          "elementDurability": 100.0,
          "OAOGLLGGJPD": [
            {
              "$type": "MoleMole.Config.AttachEffect",
              "effectPattern": "Eff_Stages_SceneObj_VABoids_BeeGhostGroupJSDTLittle_01",
              "effectTempleteID": -1.0
            }
          ]
        }
      },
      "DOFDCKKDGHL": [
        {
          "$type": "MoleMole.Config.SendEffectTrigger",
          "parameter": "FadeOut",
          "attachPoint": "",
          "value": 1,
          "effectPattern": "Eff_Stages_SceneObj_VABoids_BeeGhostGroupJSDTLittle_01"
        }
      ]
    }
  },
  {
    "Default": {
      "$type": "MoleMole.Config.GNKCLKNDOAK",
      "abilityName": "SceneObj_Area_SuperBigWhale_GoldenHall",
      "PIDAPNFJNDF": [
        {
          "$type": "MoleMole.Config.AttachToGadgetStateMixin",
          "modifierName": "Controller"
        }
      ],
      "BFBDNNJCDLH": {
        "Controller": {
          "modifierName": "",
          "elementDurability": 100.0,
          "JPIFFPJJEMK": [
            {
              "$type": "MoleMole.Config.LevelCurveMixin",
              "tag": "OceanShip",
              "OHGCNLBHIMM": [
                "TEST_GV_0",
                "TEST_GV_1"
              ],
              "KDAHALPNNJE": [
                "SetGroupVariable"
              ],
              "MCAGONDFFHB": [
                [
                  {
                    "$type": "MoleMole.Config.DebugLog",
                    "KNKPIGLBMEP": "LevelCurveMixin > SetGroupVariable"
                  },
                  {
                    "$type": "MoleMole.Config.SetCurveProgressInfoToGlobalValue",
                    "NCDDLPHDEIB": "TEST_GV_"
                  },
                  {
                    "$type": "MoleMole.Config.SetGlobalValueToOverrideMap",
                    "globalValueKey": "TEST_GV_0",
                    "FDKJEIGEABF": "TEST_GV_0"
                  },
                  {
                    "$type": "MoleMole.Config.SetGlobalValueToOverrideMap",
                    "globalValueKey": "TEST_GV_1",
                    "FDKJEIGEABF": "TEST_GV_1"
                  },
                  {
                    "$type": "MoleMole.Config.ServerLuaCall",
                    "MECCMJIFJKG": "SpecificGroup",
                    "GBHMPOPDGNL": [
                      511020002
                    ],
                    "ACMHGHCMOIF": "SLC_GoldenHall_SetVar",
                    "EPFBIHBJPAH": 2,
                    "param1": "TEST_GV_0",
                    "param2": "TEST_GV_1",
                    "GBOGNIOMAGM": 0.0
                  }
                ]
              ]
            }
          ]
        }
      },
      "OAOGLLGGJPD": [
        {
          "$type": "MoleMole.Config.SetAnimatorBool",
          "KIAGMJMPHPG": "NoFogMat",
          "value": true
        }
      ]
    }
  },
  {
    "Default": {
      "$type": "MoleMole.Config.GNKCLKNDOAK",
      "abilityName": "SceneObj_GoldenWay_Starter",
      "PIDAPNFJNDF": [
        {
          "$type": "MoleMole.Config.AttachToGadgetStateMixin",
          "modifierName": "Normal"
        },
        {
          "$type": "MoleMole.Config.AttachToGadgetStateMixin",
          "MHKDFIPGJJO": 201,
          "modifierName": "Active"
        },
        {
          "$type": "MoleMole.Config.AttachToGadgetStateMixin",
          "MHKDFIPGJJO": 202,
          "modifierName": "DeActive"
        }
      ],
      "BFBDNNJCDLH": {
        "Normal": {
          "modifierName": "",
          "elementDurability": 100.0,
          "JPIFFPJJEMK": [
            {
              "$type": "MoleMole.Config.ShaderStateMachineSwitchMixin",
              "HNDLOLDKOHO": ""
            }
          ],
          "OAOGLLGGJPD": [
            {
              "$type": "MoleMole.Config.AttachEffect",
              "effectPattern": "Eff_SceneObj_GoldenChannelLauncher_Hint",
              "effectTempleteID": -1.0
            }
          ],
          "MINFJCDAIBB": [
            {
              "$type": "MoleMole.Config.FireEffect",
              "effectPattern": "Eff_SceneObj_GoldenChannelLauncher_Active",
              "effectTempleteID": -1.0
            },
            {
              "$type": "MoleMole.Config.SetAnimatorTrigger",
              "triggerID": "Active"
            }
          ]
        },
        "Active": {
          "modifierName": "",
          "elementDurability": 100.0,
          "JPIFFPJJEMK": [
            {
              "$type": "MoleMole.Config.ShaderStateMachineSwitchMixin",
              "PDMMEKFIMDB": 1,
              "HNDLOLDKOHO": ""
            }
          ]
        },
        "DeActive": {
          "modifierName": "",
          "elementDurability": 100.0,
          "JPIFFPJJEMK": [
            {
              "$type": "MoleMole.Config.ShaderStateMachineSwitchMixin",
              "HNDLOLDKOHO": ""
            }
          ]
        }
      },
      "OAOGLLGGJPD": [
        {
          "$type": "MoleMole.Config.ChangeTag",
          "BMHGAAIEHDH": true,
          "tag": "IS_LMS_WHALE_SCAN_TARGET"
        }
      ]
    }
  },
  {
    "Default": {
      "$type": "MoleMole.Config.GNKCLKNDOAK",
      "abilityName": "SceneObj_FlashBack_Cam_Follow",
      "PIDAPNFJNDF": [
        {
          "$type": "MoleMole.Config.AttachToGadgetStateMixin",
          "modifierName": "Controller"
        },
        {
          "$type": "MoleMole.Config.AttachToGadgetStateMixin",
          "MHKDFIPGJJO": 201,
          "modifierName": "LookState"
        },
        {
          "$type": "MoleMole.Config.AttachToGadgetStateMixin",
          "MHKDFIPGJJO": 202,
          "modifierName": "LookState_2"
        }
      ],
      "BFBDNNJCDLH": {
        "Controller": {
          "modifierName": "",
          "elementDurability": 100.0
        },
        "LookState": {
          "modifierName": "",
          "elementDurability": 100.0,
          "OAOGLLGGJPD": [
            {
              "$type": "MoleMole.Config.SetCameraForwardType",
              "EOFOLDKABPP": "RootNode",
              "DJFAENCAKCF": "PivotToTarget",
              "NNCCNIHABPO": 999.0
            }
          ],
          "MINFJCDAIBB": [
            {
              "$type": "MoleMole.Config.SetCameraForwardType",
              "EOFOLDKABPP": "RootNode",
              "NNCCNIHABPO": 999.0
            }
          ]
        },
        "LookState_2": {
          "modifierName": "",
          "elementDurability": 100.0,
          "OAOGLLGGJPD": [
            {
              "$type": "MoleMole.Config.SetCameraForwardType",
              "EOFOLDKABPP": "RootNode",
              "DJFAENCAKCF": "PivotToTarget",
              "NNCCNIHABPO": 5.0
            }
          ],
          "MINFJCDAIBB": [
            {
              "$type": "MoleMole.Config.SetCameraForwardType",
              "EOFOLDKABPP": "RootNode"
            }
          ]
        }
      }
    }
  },
  {
    "Default": {
      "$type": "MoleMole.Config.GNKCLKNDOAK",
      "abilityName": "SceneObj_GoldenHall_Pigeon_Avatar_Follow",
      "BFBDNNJCDLH": {
        "Controller": {
          "modifierName": "",
          "elementDurability": 100.0,
          "BNJENAIMDPL": 0.20000000298023224,
          "OAOGLLGGJPD": [
            {
              "$type": "MoleMole.Config.AttachEffect",
              "effectPattern": "Eff_SceneObj_PigeonGhostSingle_Idle",
              "effectTempleteID": -1.0
            },
            {
              "$type": "MoleMole.Config.AttachEffect",
              "effectPattern": "Eff_SceneObj_PigeonGhostSingle_Trail_01",
              "effectTempleteID": -1.0
            },
            {
              "$type": "MoleMole.Config.FireEffect",
              "effectPattern": "Eff_SceneObj_PigeonGhost_01_Appear",
              "effectTempleteID": -1.0
            },
            {
              "$type": "MoleMole.Config.SetAnimatorInt",
              "intID": "GadgetState",
              "value": 201.0
            },
            {
              "$type": "MoleMole.Config.SetAnimatorInt",
              "intID": "IsFlying",
              "value": 1.0
            }
          ],
          "PJKELBNICOI": [
            {
              "$type": "MoleMole.Config.SetAnimatorInt",
              "intID": "GadgetState",
              "value": 201.0
            },
            {
              "$type": "MoleMole.Config.SetAnimatorInt",
              "intID": "IsFlying",
              "value": 1.0
            }
          ]
        }
      },
      "OAOGLLGGJPD": [
        {
          "$type": "MoleMole.Config.AttachModifier",
          "modifierName": "Controller"
        }
      ]
    }
  },
  {
    "Default": {
      "$type": "MoleMole.Config.GNKCLKNDOAK",
      "abilityName": "SceneObj_GoldenHall_Interact_Desk",
      "PIDAPNFJNDF": [
        {
          "$type": "MoleMole.Config.AttachToGadgetStateMixin",
          "modifierName": "Normal"
        },
        {
          "$type": "MoleMole.Config.AttachToGadgetStateMixin",
          "MHKDFIPGJJO": 201,
          "modifierName": "DelayEnterQTE"
        },
        {
          "$type": "MoleMole.Config.AttachModifierToSelfGlobalValueNoInitMixin",
          "globalValueKey": "SGV_Main_Stage",
          "FJEPHJNDEAI": [
            0.5,
            1.5,
            2.5
          ],
          "IJEPHCMOAPE": [
            "MainStage_1",
            "MainStage_2"
          ],
          "BMNOPNNALIB": true
        },
        {
          "$type": "MoleMole.Config.DoActionOnGlobalValueChangeMixin",
          "globalValueKey": "Cam_Trigger",
          "actions": [
            {
              "$type": "MoleMole.Config.AvatarEnterCameraShot",
              "predicates": [
                {
                  "$type": "IPGGGPIJONN",
                  "key": "Cam_ID",
                  "value": 1.0
                }
              ],
              "FBKJFMLJNJE": "Camera_Gadget_GoldenHall_4",
              "KOEHPPEDKHE": "LEVEL"
            }
          ]
        }
      ],
      "LLLCANIGIOE": {
        "local_Success_Target": 0.0,
        "local_Stage_ID": 0.0,
        "local_GoldenHall_Var": 0.0,
        "temp_player_stage": 0.0
      },
      "BFBDNNJCDLH": {
        "MainStage_1": {
          "modifierName": "",
          "elementDurability": 100.0
        },
        "MainStage_2": {
          "modifierName": "",
          "elementDurability": 100.0,
          "OAOGLLGGJPD": [
            {
              "$type": "MoleMole.Config.NotifyUI",
              "JCEIFCMKFFK": "GoldenHall",
              "DDCHCPODMKB": "GoToStage2",
              "stringParam": ""
            }
          ]
        },
        "Normal": {
          "modifierName": "",
          "elementDurability": 100.0
        },
        "DelayEnterQTE": {
          "modifierName": "",
          "duration": 0.10000000149011612,
          "elementDurability": 100.0,
          "OAOGLLGGJPD": [
            {
              "$type": "MoleMole.Config.RemoveModifier",
              "modifierName": "State_QTE"
            },
            {
              "$type": "MoleMole.Config.SetGlobalValue",
              "value": 1.0,
              "key": "GV_Player_Stage",
              "maxValue": 0.0,
              "GCEOGBJIFCP": 0.0
            }
          ],
          "MINFJCDAIBB": [
            {
              "$type": "MoleMole.Config.ApplyModifier",
              "modifierName": "State_QTE"
            }
          ]
        },
        "State_QTE": {
          "modifierName": "",
          "elementDurability": 100.0,
          "JPIFFPJJEMK": [
            {
              "$type": "MoleMole.Config.AttachToContextMixin",
              "DMJDKMGMMCM": {
                "$type": "BBJCMIOGHFJ",
                "CDCBIBCMOIM": "GoldenHall",
                "DPIDPJCFJDI": {
                  "x": 1509.990966796875,
                  "y": -414.64471435546875,
                  "z": 3566.3720703125
                },
                "ODFMNBCCFAJ": {
                  "x": -1.0
                },
                "EOIOKJJGCEO": "SceneObj_GoldenHall_QTE_Goal",
                "IONMNAMOADN": "SceneObj_GoldenHall_QTE_Goal_Fail"
              }
            },
            {
              "$type": "MoleMole.Config.TimeTrackEventReceiverMixin",
              "FPPEEOKFDGI": "SuccessCheck",
              "MHFEEBCNCIB": [
                {
                  "$type": "MoleMole.Config.DebugLog",
                  "KNKPIGLBMEP": "金色大厅qte SuccessCheck"
                },
                {
                  "$type": "MoleMole.Config.Predicated",
                  "CKBKOCJPJMM": [
                    {
                      "$type": "IPGGGPIJONN",
                      "key": "GV_Success_Counter",
                      "value": "local_Success_Target",
                      "compareType": "MoreThanAndEqual"
                    }
                  ],
                  "successActions": [
                    {
                      "$type": "MoleMole.Config.SetTimeTrackEventNoteParamToGlobalValue",
                      "FFLDIAIDJMD": "NextStage",
                      "globalValueKey": "GV_Player_Stage"
                    },
                    {
                      "$type": "MoleMole.Config.SetGlobalValueToOverrideMap",
                      "globalValueKey": "GV_Player_Stage",
                      "FDKJEIGEABF": "local_Stage_ID"
                    },
                    {
                      "$type": "MoleMole.Config.ServerLuaCall",
                      "MECCMJIFJKG": "FromGroup",
                      "ACMHGHCMOIF": "SLC_GoToNextStage",
                      "EPFBIHBJPAH": 1,
                      "param1": "local_Stage_ID",
                      "param2": 0.0,
                      "GBOGNIOMAGM": 0.0
                    }
                  ]
                }
              ]
            },
            {
              "$type": "MoleMole.Config.TimeTrackEventReceiverMixin",
              "FPPEEOKFDGI": "GroupSLC",
              "MHFEEBCNCIB": [
                {
                  "$type": "MoleMole.Config.DebugLog",
                  "KNKPIGLBMEP": "金色大厅qte GroupSLC"
                },
                {
                  "$type": "MoleMole.Config.SetTimeTrackEventNoteParamToGlobalValue",
                  "FFLDIAIDJMD": "GoldenHall_Var",
                  "globalValueKey": "GV_GoldenHall_Var"
                },
                {
                  "$type": "MoleMole.Config.SetGlobalValueToOverrideMap",
                  "globalValueKey": "GV_GoldenHall_Var",
                  "FDKJEIGEABF": "local_GoldenHall_Var"
                },
                {
                  "$type": "MoleMole.Config.ServerLuaCall",
                  "MECCMJIFJKG": "SpecificGroup",
                  "GBHMPOPDGNL": [
                    511020002
                  ],
                  "ACMHGHCMOIF": "SLC_GoldenHall_SetVar",
                  "EPFBIHBJPAH": 2,
                  "param1": 0.0,
                  "param2": "local_GoldenHall_Var",
                  "GBOGNIOMAGM": 0.0
                }
              ]
            },
            {
              "$type": "MoleMole.Config.TimeTrackEventReceiverMixin",
              "FPPEEOKFDGI": "CheckSuccAndSLC",
              "MHFEEBCNCIB": [
                {
                  "$type": "MoleMole.Config.DebugLog",
                  "KNKPIGLBMEP": "金色大厅qte CheckSuccAndSLC"
                },
                {
                  "$type": "MoleMole.Config.Predicated",
                  "CKBKOCJPJMM": [
                    {
                      "$type": "IPGGGPIJONN",
                      "key": "GV_Success_Counter",
                      "value": "local_Success_Target",
                      "compareType": "MoreThanAndEqual"
                    }
                  ],
                  "successActions": [
                    {
                      "$type": "MoleMole.Config.ServerLuaCall",
                      "MECCMJIFJKG": "FromGroup",
                      "ACMHGHCMOIF": "SLC_On_Stage_Succ",
                      "EPFBIHBJPAH": 1,
                      "param1": "local_Stage_ID",
                      "param2": 0.0,
                      "GBOGNIOMAGM": 0.0
                    }
                  ],
                  "failActions": [
                    {
                      "$type": "MoleMole.Config.ServerLuaCall",
                      "MECCMJIFJKG": "FromGroup",
                      "ACMHGHCMOIF": "SLC_On_Stage_Fail",
                      "EPFBIHBJPAH": 1,
                      "param1": "local_Stage_ID",
                      "param2": 0.0,
                      "GBOGNIOMAGM": 0.0
                    }
                  ]
                }
              ]
            },
            {
              "$type": "MoleMole.Config.TimeTrackEventReceiverMixin",
              "FPPEEOKFDGI": "InitSuccessTarget",
              "MHFEEBCNCIB": [
                {
                  "$type": "MoleMole.Config.SetGlobalValue",
                  "value": 0.0,
                  "key": "GV_Success_Counter",
                  "maxValue": 0.0,
                  "GCEOGBJIFCP": 0.0
                },
                {
                  "$type": "MoleMole.Config.DebugLog",
                  "KNKPIGLBMEP": "金色大厅qte InitSuccessTarget"
                },
                {
                  "$type": "MoleMole.Config.SetTimeTrackEventNoteParamToGlobalValue",
                  "FFLDIAIDJMD": "TargetSuccessCount",
                  "globalValueKey": "GV_Success_Target"
                },
                {
                  "$type": "MoleMole.Config.SetGlobalValueToOverrideMap",
                  "globalValueKey": "GV_Success_Target",
                  "FDKJEIGEABF": "local_Success_Target"
                }
              ]
            },
            {
              "$type": "MoleMole.Config.AttachModifierToGlobalValueMixin",
              "globalValueKey": "GV_Player_Stage",
              "FJEPHJNDEAI": [
                -0.5,
                0.5,
                1.5,
                2.5,
                3.5,
                4.5,
                5.5,
                6.5,
                7.5,
                8.5,
                9.5,
                10.5,
                11.5
              ],
              "IJEPHCMOAPE": [
                "Blank",
                "PlayerStage_1",
                "PlayerStage_2",
                "PlayerStage_3",
                "PlayerStage_4",
                "PlayerStage_5",
                "PlayerStage_6",
                "PlayerStage_7",
                "PlayerStage_8",
                "PlayerStage_9",
                "PlayerStage_10",
                "PlayerStage_11"
              ],
              "BMNOPNNALIB": true
            },
            {
              "$type": "MoleMole.Config.DoActionOnGlobalValueChangeMixin",
              "globalValueKey": "GV_Player_Stage",
              "actions": [
                {
                  "$type": "MoleMole.Config.SetGlobalValueToOverrideMap",
                  "globalValueKey": "GV_Player_Stage",
                  "FDKJEIGEABF": "temp_player_stage"
                },
                {
                  "$type": "MoleMole.Config.ServerLuaCall",
                  "MECCMJIFJKG": "FromGroup",
                  "ACMHGHCMOIF": "SLC_On_PlayerStage_Change",
                  "EPFBIHBJPAH": 1,
                  "param1": "temp_player_stage",
                  "param2": 0.0,
                  "GBOGNIOMAGM": 0.0
                }
              ]
            }
          ],
          "OAOGLLGGJPD": [
            {
              "$type": "MoleMole.Config.SetGlobalValue",
              "value": 1.0,
              "key": "GV_Player_Stage",
              "maxValue": 0.0,
              "GCEOGBJIFCP": 0.0
            }
          ],
          "MINFJCDAIBB": [
            {
              "$type": "MoleMole.Config.SetGlobalValue",
              "value": 0.0,
              "key": "GV_Player_Stage",
              "maxValue": 0.0,
              "GCEOGBJIFCP": 0.0
            },
            {
              "$type": "MoleMole.Config.ApplyModifier",
              "otherTargets": {
                "$type": "DOMPKGOHKNB",
                "shapeName": "CircleR200",
                "FAMCBLCIFCJ": "AllExceptSelf",
                "CONEFMBNECE": 1.0
              },
              "predicates": [
                {
                  "$type": "DLLOJMFICPG",
                  "JBEIOINCLFB": [
                    "Avatar"
                  ]
                }
              ],
              "modifierName": "ExitCamera"
            },
            {
              "$type": "MoleMole.Config.ServerLuaCall",
              "MECCMJIFJKG": "FromGroup",
              "ACMHGHCMOIF": "SLC_End_Play",
              "param1": 0.0,
              "param2": 0.0,
              "GBOGNIOMAGM": 0.0
            }
          ]
        },
        "DisableFlyObj": {
          "modifierName": "",
          "elementDurability": 100.0,
          "OAOGLLGGJPD": [
            {
              "$type": "MoleMole.Config.SetGlobalValueV2",
              "doOffStage": true,
              "value": 0.0,
              "key": "Eff_On",
              "maxValue": 0.0,
              "GCEOGBJIFCP": 0.0
            }
          ]
        },
        "PlayerStage_1": {
          "modifierName": "",
          "elementDurability": 100.0,
          "JPIFFPJJEMK": [
            {
              "$type": "MoleMole.Config.TimeTrackPlayerMixin",
              "AOMAPLFKIFO": "",
              "CNCFLBPKMLD": 6
            }
          ]
        },
        "PlayerStage_2": {
          "modifierName": "",
          "elementDurability": 100.0,
          "JPIFFPJJEMK": [
            {
              "$type": "MoleMole.Config.TimeTrackPlayerMixin",
              "AOMAPLFKIFO": "",
              "CNCFLBPKMLD": 7
            }
          ]
        },
        "PlayerStage_3": {
          "modifierName": "",
          "elementDurability": 100.0,
          "JPIFFPJJEMK": [
            {
              "$type": "MoleMole.Config.TimeTrackPlayerMixin",
              "AOMAPLFKIFO": "",
              "CNCFLBPKMLD": 8
            }
          ]
        },
        "PlayerStage_4": {
          "modifierName": "",
          "elementDurability": 100.0,
          "JPIFFPJJEMK": [
            {
              "$type": "MoleMole.Config.TimeTrackPlayerMixin",
              "AOMAPLFKIFO": "",
              "CNCFLBPKMLD": 12
            }
          ]
        },
        "PlayerStage_5": {
          "modifierName": "",
          "elementDurability": 100.0,
          "JPIFFPJJEMK": [
            {
              "$type": "MoleMole.Config.TimeTrackPlayerMixin",
              "AOMAPLFKIFO": "",
              "CNCFLBPKMLD": 13
            }
          ]
        },
        "PlayerStage_6": {
          "modifierName": "",
          "elementDurability": 100.0,
          "JPIFFPJJEMK": [
            {
              "$type": "MoleMole.Config.TimeTrackPlayerMixin",
              "AOMAPLFKIFO": "",
              "CNCFLBPKMLD": 14
            }
          ]
        },
        "PlayerStage_7": {
          "modifierName": "",
          "elementDurability": 100.0,
          "JPIFFPJJEMK": [
            {
              "$type": "MoleMole.Config.TimeTrackPlayerMixin",
              "AOMAPLFKIFO": "",
              "CNCFLBPKMLD": 15
            }
          ]
        },
        "PlayerStage_8": {
          "modifierName": "",
          "elementDurability": 100.0,
          "JPIFFPJJEMK": [
            {
              "$type": "MoleMole.Config.TimeTrackPlayerMixin",
              "AOMAPLFKIFO": "",
              "CNCFLBPKMLD": 16
            }
          ]
        },
        "PlayerStage_9": {
          "modifierName": "",
          "elementDurability": 100.0,
          "JPIFFPJJEMK": [
            {
              "$type": "MoleMole.Config.TimeTrackPlayerMixin",
              "AOMAPLFKIFO": "",
              "CNCFLBPKMLD": 8
            }
          ]
        },
        "PlayerStage_10": {
          "modifierName": "",
          "elementDurability": 100.0,
          "JPIFFPJJEMK": [
            {
              "$type": "MoleMole.Config.TimeTrackPlayerMixin",
              "AOMAPLFKIFO": "",
              "CNCFLBPKMLD": 8
            }
          ]
        },
        "PlayerStage_11": {
          "modifierName": "",
          "elementDurability": 100.0,
          "JPIFFPJJEMK": [
            {
              "$type": "MoleMole.Config.TimeTrackPlayerMixin",
              "AOMAPLFKIFO": "",
              "CNCFLBPKMLD": 17
            }
          ]
        },
        "ExitCamera": {
          "modifierName": "",
          "duration": 0.10000000149011612,
          "elementDurability": 100.0,
          "OAOGLLGGJPD": [
            {
              "$type": "MoleMole.Config.AddGlobalValue",
              "doOffStage": true,
              "value": 1.0,
              "key": "ExitCameTrigger",
              "maxValue": 0.0,
              "GCEOGBJIFCP": 0.0
            },
            {
              "$type": "MoleMole.Config.DebugLog",
              "KNKPIGLBMEP": "goldenHall > ExitCameTrigger"
            }
          ]
        }
      },
      "OAOGLLGGJPD": [
        {
          "$type": "MoleMole.Config.SetGlobalValue",
          "value": 0.0,
          "key": "Cam_ID",
          "maxValue": 0.0,
          "GCEOGBJIFCP": 0.0
        },
        {
          "$type": "MoleMole.Config.SetGlobalValue",
          "value": 100.0,
          "key": "TestQTE_Count",
          "maxValue": 0.0,
          "GCEOGBJIFCP": 0.0
        },
        {
          "$type": "MoleMole.Config.SetGlobalValue",
          "value": 0.0,
          "key": "GV_Player_Stage",
          "maxValue": 0.0,
          "GCEOGBJIFCP": 0.0
        },
        {
          "$type": "MoleMole.Config.SetGlobalValue",
          "value": 0.0,
          "key": "GV_Success_Counter",
          "maxValue": 0.0,
          "GCEOGBJIFCP": 0.0
        },
        {
          "$type": "MoleMole.Config.SetGlobalValue",
          "value": 0.0,
          "key": "GV_Success_Target",
          "maxValue": 0.0,
          "GCEOGBJIFCP": 0.0
        },
        {
          "$type": "MoleMole.Config.SetGlobalValue",
          "value": 0.0,
          "key": "Cam_Trigger",
          "maxValue": 0.0,
          "GCEOGBJIFCP": 0.0
        },
        {
          "$type": "MoleMole.Config.ChangeTag",
          "BMHGAAIEHDH": true,
          "tag": "GoldenHall_Interact_Desk"
        }
      ]
    }
  },
  {
    "Default": {
      "$type": "MoleMole.Config.GNKCLKNDOAK",
      "abilityName": "SceneObj_GoldenHall_QTE_Fly_Point_V2",
      "PIDAPNFJNDF": [
        {
          "$type": "MoleMole.Config.AttachModifierToGlobalValueMixin",
          "globalValueKey": "Is_Goal_Success",
          "FJEPHJNDEAI": [
            -0.5,
            0.5,
            1.5
          ],
          "IJEPHCMOAPE": [
            "Blank",
            "Success"
          ]
        },
        {
          "$type": "MoleMole.Config.AttachModifierToGlobalValueMixin",
          "globalValueKey": "Eff_On",
          "FJEPHJNDEAI": [
            -0.5,
            0.5,
            1.5
          ],
          "IJEPHCMOAPE": [
            "NoFire",
            "FireMat"
          ]
        },
        {
          "$type": "MoleMole.Config.DoActionOnGlobalValueChangeMixin",
          "globalValueKey": "GV_Refresh_Trigger",
          "actions": [
            {
              "$type": "MoleMole.Config.RemoveModifier",
              "modifierName": "Controller"
            },
            {
              "$type": "MoleMole.Config.AttachModifier",
              "modifierName": "Controller"
            }
          ]
        },
        {
          "$type": "MoleMole.Config.DoActionOnGlobalValueChangeMixin",
          "globalValueKey": "SGV_CurveStartTrigger",
          "actions": [
            {
              "$type": "MoleMole.Config.ApplyModifier",
              "modifierName": "DelayAddFireMat"
            }
          ]
        }
      ],
      "LLLCANIGIOE": {
        "local_qteID": 1.0,
        "local_qte_Group": 1.0,
        "local_qte_Time": 1.0
      },
      "BFBDNNJCDLH": {
        "Blank": {
          "modifierName": "",
          "elementDurability": 100.0
        },
        "Controller": {
          "modifierName": "",
          "elementDurability": 100.0,
          "JPIFFPJJEMK": [
            {
              "$type": "MoleMole.Config.TimeTrackEventReceiverMixin",
              "FPPEEOKFDGI": "EventReceiver",
              "MHFEEBCNCIB": [
                {
                  "$type": "MoleMole.Config.DebugLog",
                  "KNKPIGLBMEP": "金色大厅qte Fly_Point qte receive"
                },
                {
                  "$type": "MoleMole.Config.SetTimeTrackEventNoteParamToGlobalValue",
                  "FFLDIAIDJMD": "qteID",
                  "globalValueKey": "GV_qteID"
                },
                {
                  "$type": "MoleMole.Config.SetGlobalValueToOverrideMap",
                  "globalValueKey": "GV_qteID",
                  "FDKJEIGEABF": "local_qteID"
                },
                {
                  "$type": "MoleMole.Config.ServerLuaCall",
                  "MECCMJIFJKG": "FromGroup",
                  "ACMHGHCMOIF": "SLC_Start_QTE",
                  "EPFBIHBJPAH": 1,
                  "param1": "local_qteID",
                  "param2": 0.0,
                  "GBOGNIOMAGM": 0.0
                },
                {
                  "$type": "MoleMole.Config.ApplyModifier",
                  "modifierName": "DelayAddFireMat"
                },
                {
                  "$type": "MoleMole.Config.TriggerPlatformCurveMove",
                  "predicates": [
                    {
                      "$type": "IPGGGPIJONN",
                      "key": "GV_qteID",
                      "value": 4.0
                    }
                  ],
                  "LCEEOKKDGMD": 901102007,
                  "LOIDCAMLDGO": 0.0,
                  "CNPJFFKKIKB": 12.0
                },
                {
                  "$type": "MoleMole.Config.TriggerPlatformCurveMove",
                  "predicates": [
                    {
                      "$type": "IPGGGPIJONN",
                      "key": "GV_qteID",
                      "value": 5.0
                    }
                  ],
                  "LCEEOKKDGMD": 901102008,
                  "LOIDCAMLDGO": 0.0,
                  "CNPJFFKKIKB": 12.0
                },
                {
                  "$type": "MoleMole.Config.TriggerPlatformCurveMove",
                  "predicates": [
                    {
                      "$type": "IPGGGPIJONN",
                      "key": "GV_qteID",
                      "value": 6.0
                    }
                  ],
                  "LCEEOKKDGMD": 901102009,
                  "LOIDCAMLDGO": 0.0,
                  "CNPJFFKKIKB": 12.0
                },
                {
                  "$type": "MoleMole.Config.TriggerPlatformCurveMove",
                  "predicates": [
                    {
                      "$type": "IPGGGPIJONN",
                      "key": "GV_qteID",
                      "value": 7.0
                    }
                  ],
                  "LCEEOKKDGMD": 901102021,
                  "LOIDCAMLDGO": 0.0,
                  "CNPJFFKKIKB": 12.0
                },
                {
                  "$type": "MoleMole.Config.TriggerPlatformCurveMove",
                  "predicates": [
                    {
                      "$type": "IPGGGPIJONN",
                      "key": "GV_qteID",
                      "value": 8.0
                    }
                  ],
                  "LCEEOKKDGMD": 901102022,
                  "LOIDCAMLDGO": 0.0,
                  "CNPJFFKKIKB": 12.0
                },
                {
                  "$type": "MoleMole.Config.TriggerPlatformCurveMove",
                  "predicates": [
                    {
                      "$type": "IPGGGPIJONN",
                      "key": "GV_qteID",
                      "value": 9.0
                    }
                  ],
                  "LCEEOKKDGMD": 901102012,
                  "LOIDCAMLDGO": 0.0,
                  "CNPJFFKKIKB": 12.0
                },
                {
                  "$type": "MoleMole.Config.TriggerPlatformCurveMove",
                  "predicates": [
                    {
                      "$type": "IPGGGPIJONN",
                      "key": "GV_qteID",
                      "value": 10.0
                    }
                  ],
                  "LCEEOKKDGMD": 901102025,
                  "LOIDCAMLDGO": 0.0,
                  "CNPJFFKKIKB": 12.0
                },
                {
                  "$type": "MoleMole.Config.TriggerPlatformCurveMove",
                  "predicates": [
                    {
                      "$type": "IPGGGPIJONN",
                      "key": "GV_qteID",
                      "value": 11.0
                    }
                  ],
                  "LCEEOKKDGMD": 901102026,
                  "LOIDCAMLDGO": 0.0,
                  "CNPJFFKKIKB": 12.0
                },
                {
                  "$type": "MoleMole.Config.TriggerPlatformCurveMove",
                  "predicates": [
                    {
                      "$type": "IPGGGPIJONN",
                      "key": "GV_qteID",
                      "value": 12.0
                    }
                  ],
                  "LCEEOKKDGMD": 901102029,
                  "LOIDCAMLDGO": 0.0,
                  "CNPJFFKKIKB": 12.0
                },
                {
                  "$type": "MoleMole.Config.TriggerPlatformCurveMove",
                  "predicates": [
                    {
                      "$type": "IPGGGPIJONN",
                      "key": "GV_qteID",
                      "value": 13.0
                    }
                  ],
                  "LCEEOKKDGMD": 901102030,
                  "LOIDCAMLDGO": 0.0,
                  "CNPJFFKKIKB": 12.0
                },
                {
                  "$type": "MoleMole.Config.TriggerPlatformCurveMove",
                  "predicates": [
                    {
                      "$type": "IPGGGPIJONN",
                      "key": "GV_qteID",
                      "value": 14.0
                    }
                  ],
                  "LCEEOKKDGMD": 901102004,
                  "LOIDCAMLDGO": 0.0,
                  "CNPJFFKKIKB": 12.0
                },
                {
                  "$type": "MoleMole.Config.TriggerPlatformCurveMove",
                  "predicates": [
                    {
                      "$type": "IPGGGPIJONN",
                      "key": "GV_qteID",
                      "value": 15.0
                    }
                  ],
                  "LCEEOKKDGMD": 901102015,
                  "LOIDCAMLDGO": 0.0,
                  "CNPJFFKKIKB": 12.0
                },
                {
                  "$type": "MoleMole.Config.TriggerPlatformCurveMove",
                  "predicates": [
                    {
                      "$type": "IPGGGPIJONN",
                      "key": "GV_qteID",
                      "value": 16.0
                    }
                  ],
                  "LCEEOKKDGMD": 901102016,
                  "LOIDCAMLDGO": 0.0,
                  "CNPJFFKKIKB": 12.0
                },
                {
                  "$type": "MoleMole.Config.TriggerPlatformCurveMove",
                  "predicates": [
                    {
                      "$type": "IPGGGPIJONN",
                      "key": "GV_qteID",
                      "value": 17.0
                    }
                  ],
                  "LCEEOKKDGMD": 901102014,
                  "LOIDCAMLDGO": 0.0,
                  "CNPJFFKKIKB": 17.0
                },
                {
                  "$type": "MoleMole.Config.TriggerPlatformCurveMove",
                  "predicates": [
                    {
                      "$type": "IPGGGPIJONN",
                      "key": "GV_qteID",
                      "value": 18.0
                    }
                  ],
                  "LCEEOKKDGMD": 901102013,
                  "LOIDCAMLDGO": 0.0,
                  "CNPJFFKKIKB": 17.0
                },
                {
                  "$type": "MoleMole.Config.TriggerPlatformCurveMove",
                  "predicates": [
                    {
                      "$type": "IPGGGPIJONN",
                      "key": "GV_qteID",
                      "value": 19.0
                    }
                  ],
                  "LCEEOKKDGMD": 901102011,
                  "LOIDCAMLDGO": 0.0,
                  "CNPJFFKKIKB": 17.0
                },
                {
                  "$type": "MoleMole.Config.TriggerPlatformCurveMove",
                  "predicates": [
                    {
                      "$type": "IPGGGPIJONN",
                      "key": "GV_qteID",
                      "value": 20.0
                    }
                  ],
                  "LCEEOKKDGMD": 901102010,
                  "LOIDCAMLDGO": 0.0,
                  "CNPJFFKKIKB": 17.0
                },
                {
                  "$type": "MoleMole.Config.TriggerPlatformCurveMove",
                  "predicates": [
                    {
                      "$type": "IPGGGPIJONN",
                      "key": "GV_qteID",
                      "value": 21.0
                    }
                  ],
                  "LCEEOKKDGMD": 901102005,
                  "LOIDCAMLDGO": 0.0,
                  "CNPJFFKKIKB": 17.0
                },
                {
                  "$type": "MoleMole.Config.TriggerPlatformCurveMove",
                  "predicates": [
                    {
                      "$type": "IPGGGPIJONN",
                      "key": "GV_qteID",
                      "value": 22.0
                    }
                  ],
                  "LCEEOKKDGMD": 901102037,
                  "LOIDCAMLDGO": 0.0,
                  "CNPJFFKKIKB": 17.0
                },
                {
                  "$type": "MoleMole.Config.TriggerPlatformCurveMove",
                  "predicates": [
                    {
                      "$type": "IPGGGPIJONN",
                      "key": "GV_qteID",
                      "value": 23.0
                    }
                  ],
                  "LCEEOKKDGMD": 901102072,
                  "LOIDCAMLDGO": 0.0,
                  "CNPJFFKKIKB": 17.0
                }
              ]
            },
            {
              "$type": "MoleMole.Config.TimeTrackEventReceiverMixin",
              "FPPEEOKFDGI": "Event_ShowGoal",
              "MHFEEBCNCIB": [
                {
                  "$type": "MoleMole.Config.DebugLog",
                  "KNKPIGLBMEP": "金色大厅qte Event_ShowGoal"
                },
                {
                  "$type": "MoleMole.Config.SetGlobalValueToOverrideMap",
                  "globalValueKey": "SGV_QTE_Group_ID",
                  "FDKJEIGEABF": "local_qte_Group"
                },
                {
                  "$type": "MoleMole.Config.Predicated",
                  "otherTargets": {
                    "$type": "AGCDFMGOFPH",
                    "tag": "GoldenHall_QTE_Goal"
                  },
                  "CKBKOCJPJMM": [
                    {
                      "$type": "IPGGGPIJONN",
                      "key": "SGV_QTE_Group_ID",
                      "value": "local_qte_Group"
                    }
                  ],
                  "successActions": [
                    {
                      "$type": "MoleMole.Config.ApplyModifier",
                      "MLDBFKEGPEF": "Other",
                      "modifierName": "ShowGoal"
                    }
                  ]
                }
              ]
            },
            {
              "$type": "MoleMole.Config.TimeTrackEventReceiverMixin",
              "FPPEEOKFDGI": "Event_StartQTE",
              "MHFEEBCNCIB": [
                {
                  "$type": "MoleMole.Config.DebugLog",
                  "KNKPIGLBMEP": "触发金色大厅qte"
                },
                {
                  "$type": "MoleMole.Config.SetTimeTrackEventNoteParamToGlobalValue",
                  "FFLDIAIDJMD": "QTETime",
                  "globalValueKey": "GV_QTE_Time"
                },
                {
                  "$type": "MoleMole.Config.Predicated",
                  "CKBKOCJPJMM": [
                    {
                      "$type": "IPGGGPIJONN",
                      "MLDBFKEGPEF": "Self",
                      "key": "GV_QTE_Time",
                      "value": 0.0
                    }
                  ],
                  "successActions": [
                    {
                      "$type": "MoleMole.Config.SetOverrideMapValue",
                      "value": 1.5,
                      "FDKJEIGEABF": "local_qte_Time",
                      "maxValue": 0.0,
                      "GCEOGBJIFCP": 0.0
                    }
                  ],
                  "failActions": [
                    {
                      "$type": "MoleMole.Config.SetGlobalValueToOverrideMap",
                      "globalValueKey": "GV_QTE_Time",
                      "FDKJEIGEABF": "local_qte_Time"
                    }
                  ]
                },
                {
                  "$type": "MoleMole.Config.SetGlobalValueToOverrideMap",
                  "globalValueKey": "SGV_QTE_Group_ID",
                  "FDKJEIGEABF": "local_qte_Group"
                },
                {
                  "$type": "MoleMole.Config.Predicated",
                  "otherTargets": {
                    "$type": "AGCDFMGOFPH",
                    "tag": "GoldenHall_QTE_Goal"
                  },
                  "CKBKOCJPJMM": [
                    {
                      "$type": "IPGGGPIJONN",
                      "key": "SGV_QTE_Group_ID",
                      "value": "local_qte_Group"
                    }
                  ],
                  "successActions": [
                    {
                      "$type": "MoleMole.Config.ApplyModifier",
                      "MLDBFKEGPEF": "Other",
                      "modifierName": "ShowQte"
                    }
                  ]
                }
              ]
            },
            {
              "$type": "MoleMole.Config.LevelCurveMixin",
              "tag": "OceanShip",
              "OHGCNLBHIMM": [
                "GV_UnderSeaShip_Index"
              ],
              "KDAHALPNNJE": [
                "ShipEnd",
                "ShowQTE_GoldenHall",
                "SetGroupVariable"
              ],
              "MCAGONDFFHB": [
                [
                  {
                    "$type": "MoleMole.Config.SetGlobalValueV2",
                    "doOffStage": true,
                    "value": 0.0,
                    "key": "Eff_On",
                    "maxValue": 0.0,
                    "GCEOGBJIFCP": 0.0
                  }
                ],
                [],
                [
                  {
                    "$type": "MoleMole.Config.DebugLog",
                    "KNKPIGLBMEP": "LevelCurveMixin > SetGroupVariable"
                  },
                  {
                    "$type": "MoleMole.Config.SetCurveProgressInfoToGlobalValue",
                    "NCDDLPHDEIB": "TEST_GV_"
                  },
                  {
                    "$type": "MoleMole.Config.SetGlobalValueToOverrideMap",
                    "globalValueKey": "TEST_GV_0",
                    "FDKJEIGEABF": "TEST_GV_0"
                  },
                  {
                    "$type": "MoleMole.Config.SetGlobalValueToOverrideMap",
                    "globalValueKey": "TEST_GV_1",
                    "FDKJEIGEABF": "TEST_GV_1"
                  },
                  {
                    "$type": "MoleMole.Config.ServerLuaCall",
                    "MECCMJIFJKG": "SpecificGroup",
                    "GBHMPOPDGNL": [
                      511020002
                    ],
                    "ACMHGHCMOIF": "SLC_GoldenHall_SetVar",
                    "EPFBIHBJPAH": 2,
                    "param1": "TEST_GV_0",
                    "param2": "TEST_GV_1",
                    "GBOGNIOMAGM": 0.0
                  }
                ]
              ]
            }
          ]
        },
        "ShowQte": {
          "modifierName": "",
          "elementDurability": 100.0,
          "OAOGLLGGJPD": [
            {
              "$type": "MoleMole.Config.SetGlobalValueV2",
              "doOffStage": true,
              "value": "local_qte_Time",
              "key": "GV_QTE_Perfect_Time",
              "maxValue": 0.0,
              "GCEOGBJIFCP": 0.0
            },
            {
              "$type": "MoleMole.Config.SetGlobalValueV2",
              "value": 1.0,
              "key": "GV_ShowQte",
              "maxValue": 0.0,
              "GCEOGBJIFCP": 0.0
            }
          ]
        },
        "ShowGoal": {
          "modifierName": "",
          "elementDurability": 100.0,
          "OAOGLLGGJPD": [
            {
              "$type": "MoleMole.Config.SetGlobalValueV2",
              "value": 1.0,
              "key": "GV_ShowEff",
              "maxValue": 0.0,
              "GCEOGBJIFCP": 0.0
            }
          ]
        },
        "DelayAddFireMat": {
          "modifierName": "",
          "duration": 0.10000000149011612,
          "elementDurability": 100.0,
          "MINFJCDAIBB": [
            {
              "$type": "MoleMole.Config.SetGlobalValueV2",
              "doOffStage": true,
              "value": 1.0,
              "key": "Eff_On",
              "maxValue": 0.0,
              "GCEOGBJIFCP": 0.0
            }
          ]
        },
        "NoFire": {
          "modifierName": "",
          "elementDurability": 100.0,
          "OAOGLLGGJPD": [
            {
              "$type": "MoleMole.Config.SetAnimatorInt",
              "intID": "MatState",
              "value": 203.0
            }
          ]
        },
        "FireMat": {
          "modifierName": "",
          "elementDurability": 100.0,
          "OAOGLLGGJPD": [
            {
              "$type": "MoleMole.Config.FireEffect",
              "effectPattern": "Eff_SceneObj_PigeonGhost_01_Appear",
              "born": {
                "$type": "JEDNAGFKIDP",
                "useRotation": true,
                "OBNIJLKICKN": "EffRoot"
              },
              "scale": 0.4000000059604645,
              "effectTempleteID": -1.0
            },
            {
              "$type": "MoleMole.Config.AttachEffect",
              "effectPattern": "Eff_SceneObj_BeeGhost_Idle_Wide",
              "effectTempleteID": -1.0
            },
            {
              "$type": "MoleMole.Config.TriggerSetRenderersEnableV2",
              "LNJJKBMBDPG": [
                "Property_Ani_Prop_BeeGhost_01"
              ],
              "NJKBCLADIBK": true
            },
            {
              "$type": "MoleMole.Config.SetAnimatorInt",
              "intID": "MatState",
              "value": 0.0
            }
          ],
          "MINFJCDAIBB": [
            {
              "$type": "MoleMole.Config.FireEffect",
              "effectPattern": "Eff_SceneObj_BeeGhost_01_Disappear",
              "born": {
                "$type": "JEDNAGFKIDP",
                "useRotation": true,
                "OBNIJLKICKN": "EffRoot"
              },
              "effectTempleteID": -1.0
            }
          ]
        },
        "Success": {
          "modifierName": "",
          "duration": 0.30000001192092896,
          "elementDurability": 100.0,
          "OAOGLLGGJPD": [
            {
              "$type": "MoleMole.Config.FireEffect",
              "effectPattern": "Eff_SceneObj_PigeonGhostSingle_Active",
              "born": {
                "$type": "JEDNAGFKIDP",
                "useRotation": true,
                "OBNIJLKICKN": "EffRoot"
              },
              "scale": 0.4000000059604645,
              "effectTempleteID": -1.0
            }
          ],
          "MINFJCDAIBB": [
            {
              "$type": "MoleMole.Config.SetGlobalValue",
              "doOffStage": true,
              "value": 0.0,
              "key": "Is_Goal_Success",
              "maxValue": 0.0,
              "GCEOGBJIFCP": 0.0
            }
          ]
        }
      },
      "OAOGLLGGJPD": [
        {
          "$type": "MoleMole.Config.ChangeTag",
          "BMHGAAIEHDH": true,
          "tag": "Is_GoldenHall_QTE_Fly_Point"
        },
        {
          "$type": "MoleMole.Config.SetGlobalValueV2",
          "doOffStage": true,
          "value": 0.0,
          "key": "Eff_On",
          "maxValue": 0.0,
          "GCEOGBJIFCP": 0.0
        },
        {
          "$type": "MoleMole.Config.SetGlobalValue",
          "doOffStage": true,
          "value": 0.0,
          "key": "Is_Goal_Success",
          "maxValue": 0.0,
          "GCEOGBJIFCP": 0.0
        },
        {
          "$type": "MoleMole.Config.SetGlobalValue",
          "doOffStage": true,
          "value": 0.0,
          "key": "GV_Refresh_Trigger",
          "maxValue": 0.0,
          "GCEOGBJIFCP": 0.0
        },
        {
          "$type": "MoleMole.Config.AttachModifier",
          "modifierName": "Controller"
        }
      ]
    }
  },
  {
    "Default": {
      "$type": "MoleMole.Config.GNKCLKNDOAK",
      "abilityName": "SceneObj_GoldenHall_QTE_Goal",
      "PIDAPNFJNDF": [
        {
          "$type": "MoleMole.Config.AttachToGadgetStateMixin",
          "modifierName": "Controller"
        },
        {
          "$type": "MoleMole.Config.AttachModifierToGlobalValueMixin",
          "globalValueKey": "Is_Goal_Success",
          "FJEPHJNDEAI": [
            -0.5,
            0.5,
            1.5
          ],
          "IJEPHCMOAPE": [
            "Blank",
            "Success"
          ]
        },
        {
          "$type": "MoleMole.Config.AttachModifierToGlobalValueMixin",
          "globalValueKey": "GV_ShowQte",
          "FJEPHJNDEAI": [
            -0.5,
            0.5,
            1.5
          ],
          "IJEPHCMOAPE": [
            "Blank",
            "QteOn"
          ]
        },
        {
          "$type": "MoleMole.Config.AttachModifierToGlobalValueMixin",
          "globalValueKey": "GV_ShowEff",
          "FJEPHJNDEAI": [
            -0.5,
            0.5,
            1.5
          ],
          "IJEPHCMOAPE": [
            "Blank",
            "ShowEff"
          ]
        }
      ],
      "LLLCANIGIOE": {
        "local_qte_Group": 1.0,
        "local_qte_ID": 0.0
      },
      "BFBDNNJCDLH": {
        "Blank": {
          "modifierName": "",
          "elementDurability": 100.0
        },
        "Controller": {
          "modifierName": "",
          "elementDurability": 100.0
        },
        "ShowEff": {
          "modifierName": "",
          "elementDurability": 100.0,
          "OAOGLLGGJPD": [
            {
              "$type": "MoleMole.Config.AttachEffect",
              "effectPattern": "Eff_SceneObj_MMBubble_01",
              "effectTempleteID": -1.0
            }
          ]
        },
        "QteOn": {
          "modifierName": "",
          "elementDurability": 100.0,
          "OAOGLLGGJPD": [
            {
              "$type": "MoleMole.Config.NotifyUI",
              "JCEIFCMKFFK": "GoldenHall",
              "DDCHCPODMKB": "show",
              "stringParam": ""
            },
            {
              "$type": "MoleMole.Config.DebugLog",
              "KNKPIGLBMEP": "金色大厅qte 目标点QteOn"
            }
          ]
        },
        "Success": {
          "modifierName": "",
          "duration": 1.0,
          "elementDurability": 100.0,
          "OAOGLLGGJPD": [
            {
              "$type": "MoleMole.Config.SendEffectTrigger",
              "canBeHandledOnRecover": true,
              "parameter": "GadgetState",
              "attachPoint": "",
              "KPGKDHAFHFE": "Int",
              "value": 201,
              "effectPattern": "Eff_SceneObj_MMBubble_01"
            }
          ],
          "MINFJCDAIBB": [
            {
              "$type": "MoleMole.Config.KillSelf"
            }
          ]
        }
      },
      "OAOGLLGGJPD": [
        {
          "$type": "MoleMole.Config.SetGlobalValueV2",
          "doOffStage": true,
          "value": 1.5,
          "key": "GV_QTE_Perfect_Time",
          "maxValue": 0.0,
          "GCEOGBJIFCP": 0.0
        },
        {
          "$type": "MoleMole.Config.SetGlobalValueToOverrideMap",
          "globalValueKey": "SGV_QTE_Group_ID",
          "FDKJEIGEABF": "local_qte_Group"
        },
        {
          "$type": "MoleMole.Config.SetGlobalValue",
          "doOffStage": true,
          "value": 1.0,
          "key": "QTE_Goal",
          "maxValue": 0.0,
          "GCEOGBJIFCP": 0.0
        },
        {
          "$type": "MoleMole.Config.SetGlobalValue",
          "doOffStage": true,
          "value": 0.0,
          "key": "GV_ShowQte",
          "maxValue": 0.0,
          "GCEOGBJIFCP": 0.0
        },
        {
          "$type": "MoleMole.Config.SetGlobalValue",
          "doOffStage": true,
          "value": 0.0,
          "key": "GV_ShowEff",
          "maxValue": 0.0,
          "GCEOGBJIFCP": 0.0
        },
        {
          "$type": "MoleMole.Config.SetGlobalValue",
          "doOffStage": true,
          "value": 0.0,
          "key": "Is_Goal_Success",
          "maxValue": 0.0,
          "GCEOGBJIFCP": 0.0
        },
        {
          "$type": "MoleMole.Config.ChangeTag",
          "BMHGAAIEHDH": true,
          "tag": "GoldenHall_QTE_Goal"
        }
      ],
      "EIIHGJGFDHC": [
        {
          "$type": "MoleMole.Config.DebugLog",
          "KNKPIGLBMEP": "SceneObj_GoldenHall_QTE_Goal > onAbilityStart"
        },
        {
          "$type": "MoleMole.Config.Predicated",
          "otherTargets": {
            "$type": "AGCDFMGOFPH",
            "KHHAHILDJDO": 5,
            "sortType": "Nearest",
            "tag": "Is_GoldenHall_QTE_Fly_Point"
          },
          "CKBKOCJPJMM": [
            {
              "$type": "IPGGGPIJONN",
              "key": "SGV_QTE_Group_ID",
              "value": "local_qte_Group"
            }
          ],
          "successActions": [
            {
              "$type": "MoleMole.Config.SetGlobalValue",
              "MLDBFKEGPEF": "Target",
              "doOffStage": true,
              "value": 1.0,
              "key": "Is_Goal_Success",
              "maxValue": 0.0,
              "GCEOGBJIFCP": 0.0
            },
            {
              "$type": "MoleMole.Config.SetGlobalValue",
              "doOffStage": true,
              "value": 1.0,
              "key": "Is_Goal_Success",
              "maxValue": 0.0,
              "GCEOGBJIFCP": 0.0
            }
          ]
        },
        {
          "$type": "MoleMole.Config.Predicated",
          "otherTargets": {
            "$type": "AGCDFMGOFPH",
            "KHHAHILDJDO": 5,
            "sortType": "Nearest",
            "tag": "GoldenHall_Interact_Desk"
          },
          "successActions": [
            {
              "$type": "MoleMole.Config.AddGlobalValue",
              "MLDBFKEGPEF": "Target",
              "value": 1.0,
              "key": "GV_Success_Counter",
              "maxValue": 0.0,
              "GCEOGBJIFCP": 0.0
            }
          ]
        },
        {
          "$type": "MoleMole.Config.SetGlobalValueToOverrideMap",
          "globalValueKey": "SGV_QTE_ID",
          "FDKJEIGEABF": "local_qte_ID"
        },
        {
          "$type": "MoleMole.Config.ServerLuaCall",
          "MECCMJIFJKG": "SpecificGroup",
          "GBHMPOPDGNL": [
            511020002
          ],
          "ACMHGHCMOIF": "SLC_On_QTE_Succ",
          "EPFBIHBJPAH": 1,
          "param1": "local_qte_ID",
          "param2": 0.0,
          "GBOGNIOMAGM": 0.0
        }
      ]
    }
  },
  {
    "Default": {
      "$type": "MoleMole.Config.GNKCLKNDOAK",
      "abilityName": "SceneObj_Bee_Ghost_Platform_01",
      "BFBDNNJCDLH": {
        "Controller": {
          "modifierName": "",
          "elementDurability": 100.0,
          "OAOGLLGGJPD": [
            {
              "$type": "MoleMole.Config.FireEffect",
              "effectPattern": "Eff_SceneObj_PigeonGhost_01_Appear",
              "born": {
                "$type": "JEDNAGFKIDP",
                "useRotation": true,
                "OBNIJLKICKN": "EffRoot"
              },
              "scale": 0.4000000059604645,
              "effectTempleteID": -1.0
            },
            {
              "$type": "MoleMole.Config.AttachEffect",
              "effectPattern": "Eff_SceneObj_BeeGhost_Idle",
              "effectTempleteID": -1.0
            },
            {
              "$type": "MoleMole.Config.TriggerSetRenderersEnableV2",
              "LNJJKBMBDPG": [
                "Property_Ani_Prop_BeeGhost_01"
              ],
              "NJKBCLADIBK": true
            },
            {
              "$type": "MoleMole.Config.SetAnimatorInt",
              "intID": "MatState",
              "value": 0.0
            }
          ]
        }
      },
      "OAOGLLGGJPD": [
        {
          "$type": "MoleMole.Config.AttachModifier",
          "modifierName": "Controller"
        }
      ],
      "DOFDCKKDGHL": [
        {
          "$type": "MoleMole.Config.FireEffect",
          "effectPattern": "Eff_SceneObj_BeeGhost_01_Disappear",
          "born": {
            "$type": "JEDNAGFKIDP",
            "useRotation": true,
            "OBNIJLKICKN": "EffRoot"
          },
          "effectTempleteID": -1.0
        },
        {
          "$type": "MoleMole.Config.SetAnimatorInt",
          "intID": "MatState",
          "value": 203.0
        }
      ]
    }
  },
  {
    "Default": {
      "$type": "MoleMole.Config.GNKCLKNDOAK",
      "abilityName": "SceneObj_GoldenHall_Stage2_Activate",
      "PIDAPNFJNDF": [
        {
          "$type": "MoleMole.Config.AttachToGadgetStateMixin",
          "modifierName": "Controller"
        },
        {
          "$type": "MoleMole.Config.AttachToGadgetStateMixin",
          "MHKDFIPGJJO": 201,
          "modifierName": "Activate"
        }
      ],
      "BFBDNNJCDLH": {
        "Controller": {
          "modifierName": "",
          "elementDurability": 100.0
        },
        "Activate": {
          "modifierName": "",
          "elementDurability": 100.0,
          "OAOGLLGGJPD": [
            {
              "$type": "MoleMole.Config.AttachEffect",
              "effectPattern": "Eff_SceneObj_POI_Fd_JSDT_Change_01",
              "effectTempleteID": -1.0
            }
          ]
        }
      }
    }
  },
  {
    "Default": {
      "$type": "MoleMole.Config.GNKCLKNDOAK",
      "abilityName": "SceneObj_GoldenHall_Gate",
      "PIDAPNFJNDF": [
        {
          "$type": "MoleMole.Config.AttachToGadgetStateMixin",
          "modifierName": "Controller"
        },
        {
          "$type": "MoleMole.Config.AttachToGadgetStateMixin",
          "MHKDFIPGJJO": 201,
          "modifierName": "ForceActive"
        }
      ],
      "BFBDNNJCDLH": {
        "Eff_Modifier": {
          "modifierName": "",
          "elementDurability": 100.0,
          "BNJENAIMDPL": 0.30000001192092896,
          "OAOGLLGGJPD": [
            {
              "$type": "MoleMole.Config.AttachEffect",
              "effectPattern": "Eff_Stages_SceneObj_DeepSea_GoldenHallPortal_01",
              "effectTempleteID": -1.0,
              "isPlatformDependent": true
            }
          ],
          "PJKELBNICOI": [
            {
              "$type": "MoleMole.Config.SetGlobalValueV2",
              "value": 0.0,
              "key": "GV_AvatarCount",
              "maxValue": 0.0,
              "GCEOGBJIFCP": 0.0
            },
            {
              "$type": "MoleMole.Config.Predicated",
              "otherTargets": {
                "$type": "DOMPKGOHKNB",
                "shapeName": "CircleR50H50C",
                "FAMCBLCIFCJ": "AllExceptSelf",
                "CONEFMBNECE": 1.0
              },
              "CKBKOCJPJMM": [
                {
                  "$type": "DLLOJMFICPG",
                  "JBEIOINCLFB": [
                    "Avatar"
                  ]
                }
              ],
              "successActions": [
                {
                  "$type": "MoleMole.Config.AddGlobalValue",
                  "value": 1.0,
                  "key": "GV_AvatarCount",
                  "maxValue": 0.0,
                  "GCEOGBJIFCP": 0.0
                }
              ]
            },
            {
              "$type": "MoleMole.Config.Predicated",
              "CKBKOCJPJMM": [
                {
                  "$type": "IPGGGPIJONN",
                  "MLDBFKEGPEF": "Self",
                  "key": "GV_AvatarCount",
                  "value": 1.0,
                  "compareType": "MoreThanAndEqual"
                }
              ],
              "successActions": [
                {
                  "$type": "MoleMole.Config.SendEffectTrigger",
                  "canBeHandledOnRecover": true,
                  "parameter": "State",
                  "attachPoint": "",
                  "KPGKDHAFHFE": "Int",
                  "value": 201,
                  "effectPattern": "Eff_Stages_SceneObj_DeepSea_GoldenHallPortal_01",
                  "isPlatformDependent": true
                }
              ],
              "failActions": [
                {
                  "$type": "MoleMole.Config.SendEffectTrigger",
                  "canBeHandledOnRecover": true,
                  "parameter": "State",
                  "attachPoint": "",
                  "KPGKDHAFHFE": "Int",
                  "effectPattern": "Eff_Stages_SceneObj_DeepSea_GoldenHallPortal_01",
                  "isPlatformDependent": true
                }
              ]
            }
          ]
        },
        "Controller": {
          "modifierName": "",
          "elementDurability": 100.0,
          "OAOGLLGGJPD": [
            {
              "$type": "MoleMole.Config.AttachModifier",
              "modifierName": "Eff_Modifier"
            }
          ]
        },
        "ForceActive": {
          "modifierName": "",
          "elementDurability": 100.0,
          "OAOGLLGGJPD": [
            {
              "$type": "MoleMole.Config.AttachEffect",
              "effectPattern": "Eff_Stages_SceneObj_DeepSea_GoldenHallPortal_01",
              "effectTempleteID": -1.0,
              "isPlatformDependent": true
            },
            {
              "$type": "MoleMole.Config.SendEffectTrigger",
              "canBeHandledOnRecover": true,
              "parameter": "State",
              "attachPoint": "",
              "KPGKDHAFHFE": "Int",
              "value": 201,
              "effectPattern": "Eff_Stages_SceneObj_DeepSea_GoldenHallPortal_01",
              "isPlatformDependent": true
            }
          ]
        }
      }
    }
  },
  {
    "Default": {
      "$type": "MoleMole.Config.GNKCLKNDOAK",
      "abilityName": "SceneObj_GoldenHall_QTE_Goal_Fail",
      "PIDAPNFJNDF": [
        {
          "$type": "MoleMole.Config.AttachToGadgetStateMixin",
          "modifierName": "Controller"
        }
      ],
      "LLLCANIGIOE": {
        "local_qte_Group": 1.0
      },
      "BFBDNNJCDLH": {
        "Controller": {
          "modifierName": "",
          "elementDurability": 100.0
        },
        "KillSelfDelay": {
          "modifierName": "",
          "duration": 1.0,
          "elementDurability": 100.0,
          "MINFJCDAIBB": [
            {
              "$type": "MoleMole.Config.KillSelf"
            }
          ]
        }
      },
      "OAOGLLGGJPD": [
        {
          "$type": "MoleMole.Config.SetGlobalValueToOverrideMap",
          "globalValueKey": "SGV_QTE_Group_ID",
          "FDKJEIGEABF": "local_qte_Group"
        }
      ],
      "EIIHGJGFDHC": [
        {
          "$type": "MoleMole.Config.DebugLog",
          "KNKPIGLBMEP": "SceneObj_GoldenHall_QTE_Goal_Fail > onAbilityStart"
        },
        {
          "$type": "MoleMole.Config.SendEffectTrigger",
          "canBeHandledOnRecover": true,
          "parameter": "GadgetState",
          "attachPoint": "",
          "KPGKDHAFHFE": "Int",
          "value": 202,
          "effectPattern": "Eff_SceneObj_MMBubble_01"
        },
        {
          "$type": "MoleMole.Config.ApplyModifier",
          "modifierName": "KillSelfDelay"
        }
      ]
    }
  },
  {
    "Default": {
      "$type": "MoleMole.Config.GNKCLKNDOAK",
      "abilityName": "SceneObj_GoldenHall_Harp_White",
      "PIDAPNFJNDF": [
        {
          "$type": "MoleMole.Config.AttachToGadgetStateMixin",
          "modifierName": "Controller"
        }
      ],
      "BFBDNNJCDLH": {
        "Controller": {
          "modifierName": "",
          "elementDurability": 100.0,
          "OAOGLLGGJPD": [
            {
              "$type": "MoleMole.Config.TriggerSetRenderersEnableV2",
              "doOffStage": true,
              "LNJJKBMBDPG": [
                "String_01"
              ],
              "NJKBCLADIBK": true
            },
            {
              "$type": "MoleMole.Config.TriggerSetRenderersEnableV2",
              "doOffStage": true,
              "LNJJKBMBDPG": [
                "String_02"
              ]
            },
            {
              "$type": "MoleMole.Config.AttachEffect",
              "effectPattern": "Eff_SceneObj_GoldenHallHarp_Idle_SparkWhite",
              "born": {
                "$type": "JEDNAGFKIDP",
                "useRotation": true,
                "OBNIJLKICKN": "RootNode"
              },
              "scale": 2.5,
              "effectTempleteID": -1.0
            },
            {
              "$type": "MoleMole.Config.AttachEffect",
              "effectPattern": "Eff_SceneObj_GoldenHallHarp_Idle_LightWhite",
              "born": {
                "$type": "JEDNAGFKIDP",
                "useRotation": true,
                "OBNIJLKICKN": "RootNode"
              },
              "scale": 2.5,
              "effectTempleteID": -1.0
            }
          ]
        }
      }
    }
  },
  {
    "Default": {
      "$type": "MoleMole.Config.GNKCLKNDOAK",
      "abilityName": "SceneObj_GoldenHall_Harp_Red",
      "PIDAPNFJNDF": [
        {
          "$type": "MoleMole.Config.AttachToGadgetStateMixin",
          "modifierName": "Controller"
        }
      ],
      "BFBDNNJCDLH": {
        "Controller": {
          "modifierName": "",
          "elementDurability": 100.0,
          "OAOGLLGGJPD": [
            {
              "$type": "MoleMole.Config.TriggerSetRenderersEnableV2",
              "doOffStage": true,
              "LNJJKBMBDPG": [
                "String_01"
              ]
            },
            {
              "$type": "MoleMole.Config.TriggerSetRenderersEnableV2",
              "doOffStage": true,
              "LNJJKBMBDPG": [
                "String_02"
              ],
              "NJKBCLADIBK": true
            },
            {
              "$type": "MoleMole.Config.AttachEffect",
              "effectPattern": "Eff_SceneObj_GoldenHallHarp_Idle_SparkRed",
              "born": {
                "$type": "JEDNAGFKIDP",
                "useRotation": true,
                "OBNIJLKICKN": "RootNode"
              },
              "scale": 2.5,
              "effectTempleteID": -1.0
            },
            {
              "$type": "MoleMole.Config.AttachEffect",
              "effectPattern": "Eff_SceneObj_GoldenHallHarp_Idle_LightRed",
              "born": {
                "$type": "JEDNAGFKIDP",
                "useRotation": true,
                "OBNIJLKICKN": "RootNode"
              },
              "scale": 2.5,
              "effectTempleteID": -1.0
            }
          ]
        }
      }
    }
  },
  {
    "Default": {
      "$type": "MoleMole.Config.GNKCLKNDOAK",
      "abilityName": "SceneObj_GoldenHall_Jump_Water",
      "PIDAPNFJNDF": [
        {
          "$type": "MoleMole.Config.AttachToGadgetStateMixin",
          "modifierName": "Controller"
        },
        {
          "$type": "MoleMole.Config.AttachToGadgetStateMixin",
          "MHKDFIPGJJO": 201,
          "modifierName": "Active_Small"
        },
        {
          "$type": "MoleMole.Config.AttachToGadgetStateMixin",
          "MHKDFIPGJJO": 202,
          "modifierName": "Active_Mid"
        },
        {
          "$type": "MoleMole.Config.AttachToGadgetStateMixin",
          "MHKDFIPGJJO": 203,
          "modifierName": "Active_Big"
        },
        {
          "$type": "MoleMole.Config.DoActionOnGlobalValueChangeMixin",
          "globalValueKey": "SGV_JumpWater_Trigger",
          "actions": [
            {
              "$type": "MoleMole.Config.DebugLog",
              "KNKPIGLBMEP": "jumpWater TriggerBubble by SGV"
            },
            {
              "$type": "MoleMole.Config.ApplyModifier",
              "modifierName": "TriggerEffect"
            }
          ]
        }
      ],
      "BFBDNNJCDLH": {
        "Controller": {
          "modifierName": "",
          "elementDurability": 100.0
        },
        "TimeTrackFireEffControl": {
          "modifierName": "",
          "elementDurability": 100.0,
          "JPIFFPJJEMK": [
            {
              "$type": "MoleMole.Config.TimeTrackEventReceiverMixin",
              "FPPEEOKFDGI": "TriggerBubble",
              "MHFEEBCNCIB": [
                {
                  "$type": "MoleMole.Config.DebugLog",
                  "KNKPIGLBMEP": "jumpWater TriggerBubble"
                },
                {
                  "$type": "MoleMole.Config.ApplyModifier",
                  "modifierName": "TriggerEffect"
                }
              ]
            }
          ]
        },
        "ShootCD": {
          "modifierName": "",
          "duration": 0.5,
          "elementDurability": 100.0,
          "OAOGLLGGJPD": [
            {
              "$type": "MoleMole.Config.SetGlobalValueV2",
              "doOffStage": true,
              "value": 1.0,
              "key": "GV_InShootCD",
              "maxValue": 0.0,
              "GCEOGBJIFCP": 0.0
            }
          ],
          "MINFJCDAIBB": [
            {
              "$type": "MoleMole.Config.SetGlobalValueV2",
              "doOffStage": true,
              "value": 0.0,
              "key": "GV_InShootCD",
              "maxValue": 0.0,
              "GCEOGBJIFCP": 0.0
            }
          ]
        },
        "Active_Small": {
          "modifierName": "",
          "elementDurability": 100.0,
          "OAOGLLGGJPD": [
            {
              "$type": "MoleMole.Config.AttachEffect",
              "effectPattern": "Eff_Stages_SceneObj_RemusSyllable_Fd_MMMusic_01_Loop",
              "effectTempleteID": -1.0
            },
            {
              "$type": "MoleMole.Config.ApplyModifier",
              "modifierName": "TriggerEffect"
            },
            {
              "$type": "MoleMole.Config.ApplyModifier",
              "modifierName": "ShootCD"
            }
          ]
        },
        "Active_Mid": {
          "modifierName": "",
          "elementDurability": 100.0,
          "OAOGLLGGJPD": [
            {
              "$type": "MoleMole.Config.AttachEffect",
              "effectPattern": "Eff_Stages_SceneObj_RemusSyllable_Fd_MMMusic_01_Loop",
              "effectTempleteID": -1.0
            },
            {
              "$type": "MoleMole.Config.ApplyModifier",
              "modifierName": "TriggerEffect"
            },
            {
              "$type": "MoleMole.Config.ApplyModifier",
              "modifierName": "ShootCD"
            }
          ]
        },
        "Active_Big": {
          "modifierName": "",
          "elementDurability": 100.0,
          "OAOGLLGGJPD": [
            {
              "$type": "MoleMole.Config.AttachEffect",
              "effectPattern": "Eff_Stages_SceneObj_RemusSyllable_Fd_MMMusic_Big_02_Loop",
              "effectTempleteID": -1.0
            },
            {
              "$type": "MoleMole.Config.ApplyModifier",
              "modifierName": "TriggerEffect"
            },
            {
              "$type": "MoleMole.Config.ApplyModifier",
              "modifierName": "ShootCD"
            }
          ]
        },
        "TriggerEffect": {
          "modifierName": "",
          "duration": 0.10000000149011612,
          "elementDurability": 100.0,
          "OAOGLLGGJPD": [
            {
              "$type": "MoleMole.Config.SetGlobalValue",
              "value": 0.0,
              "key": "_randomEff",
              "HPICGAMGEGA": true,
              "FIMBNFNNKHD": true,
              "maxValue": 2.0,
              "GCEOGBJIFCP": 0.0
            },
            {
              "$type": "MoleMole.Config.FireEffect",
              "predicates": [
                {
                  "$type": "IPGGGPIJONN",
                  "key": "GV_InShootCD",
                  "value": 0.0
                },
                {
                  "$type": "CBCGGIMMENP",
                  "MLDBFKEGPEF": "Self",
                  "MHKDFIPGJJO": 201
                },
                {
                  "$type": "IPGGGPIJONN",
                  "key": "_randomEff",
                  "value": 0.0,
                  "compareType": "MoreThan"
                },
                {
                  "$type": "IPGGGPIJONN",
                  "key": "_randomEff",
                  "value": 1.0,
                  "compareType": "LessAndEqual"
                }
              ],
              "effectPattern": "Eff_Stages_SceneObj_RemusSyllable_Fd_MMMusic_Small_01",
              "effectTempleteID": -1.0
            },
            {
              "$type": "MoleMole.Config.FireEffect",
              "predicates": [
                {
                  "$type": "IPGGGPIJONN",
                  "key": "GV_InShootCD",
                  "value": 0.0
                },
                {
                  "$type": "CBCGGIMMENP",
                  "MLDBFKEGPEF": "Self",
                  "MHKDFIPGJJO": 201
                },
                {
                  "$type": "IPGGGPIJONN",
                  "key": "_randomEff",
                  "value": 1.0,
                  "compareType": "MoreThan"
                },
                {
                  "$type": "IPGGGPIJONN",
                  "key": "_randomEff",
                  "value": 2.0,
                  "compareType": "LessAndEqual"
                }
              ],
              "effectPattern": "Eff_Stages_SceneObj_RemusSyllable_Fd_MMMusic_Small_02",
              "effectTempleteID": -1.0
            },
            {
              "$type": "MoleMole.Config.FireEffect",
              "predicates": [
                {
                  "$type": "IPGGGPIJONN",
                  "key": "GV_InShootCD",
                  "value": 0.0
                },
                {
                  "$type": "CBCGGIMMENP",
                  "MLDBFKEGPEF": "Self",
                  "MHKDFIPGJJO": 202
                },
                {
                  "$type": "IPGGGPIJONN",
                  "key": "_randomEff",
                  "value": 0.0,
                  "compareType": "MoreThan"
                },
                {
                  "$type": "IPGGGPIJONN",
                  "key": "_randomEff",
                  "value": 1.0,
                  "compareType": "LessAndEqual"
                }
              ],
              "effectPattern": "Eff_Stages_SceneObj_RemusSyllable_Fd_MMMusic_Medium_01",
              "effectTempleteID": -1.0
            },
            {
              "$type": "MoleMole.Config.FireEffect",
              "predicates": [
                {
                  "$type": "IPGGGPIJONN",
                  "key": "GV_InShootCD",
                  "value": 0.0
                },
                {
                  "$type": "CBCGGIMMENP",
                  "MLDBFKEGPEF": "Self",
                  "MHKDFIPGJJO": 202
                },
                {
                  "$type": "IPGGGPIJONN",
                  "key": "_randomEff",
                  "value": 1.0,
                  "compareType": "MoreThan"
                },
                {
                  "$type": "IPGGGPIJONN",
                  "key": "_randomEff",
                  "value": 2.0,
                  "compareType": "LessAndEqual"
                }
              ],
              "effectPattern": "Eff_Stages_SceneObj_RemusSyllable_Fd_MMMusic_Medium_02",
              "effectTempleteID": -1.0
            },
            {
              "$type": "MoleMole.Config.FireEffect",
              "predicates": [
                {
                  "$type": "IPGGGPIJONN",
                  "key": "GV_InShootCD",
                  "value": 0.0
                },
                {
                  "$type": "IPGGGPIJONN",
                  "key": "_randomEff",
                  "value": 0.0,
                  "compareType": "MoreThan"
                },
                {
                  "$type": "IPGGGPIJONN",
                  "key": "_randomEff",
                  "value": 1.0,
                  "compareType": "LessAndEqual"
                },
                {
                  "$type": "CBCGGIMMENP",
                  "MLDBFKEGPEF": "Self",
                  "MHKDFIPGJJO": 203
                }
              ],
              "effectPattern": "Eff_Stages_SceneObj_RemusSyllable_Fd_MMMusic_Big_01",
              "effectTempleteID": -1.0
            },
            {
              "$type": "MoleMole.Config.FireEffect",
              "predicates": [
                {
                  "$type": "IPGGGPIJONN",
                  "key": "GV_InShootCD",
                  "value": 0.0
                },
                {
                  "$type": "IPGGGPIJONN",
                  "key": "_randomEff",
                  "value": 1.0,
                  "compareType": "MoreThan"
                },
                {
                  "$type": "IPGGGPIJONN",
                  "key": "_randomEff",
                  "value": 2.0,
                  "compareType": "LessAndEqual"
                },
                {
                  "$type": "CBCGGIMMENP",
                  "MLDBFKEGPEF": "Self",
                  "MHKDFIPGJJO": 203
                }
              ],
              "effectPattern": "Eff_Stages_SceneObj_RemusSyllable_Fd_MMMusic_Big_02",
              "effectTempleteID": -1.0
            }
          ]
        }
      },
      "OAOGLLGGJPD": [
        {
          "$type": "MoleMole.Config.SetGlobalValueV2",
          "doOffStage": true,
          "value": 0.0,
          "key": "GV_InShootCD",
          "maxValue": 0.0,
          "GCEOGBJIFCP": 0.0
        },
        {
          "$type": "MoleMole.Config.AttachModifier",
          "modifierName": "TimeTrackFireEffControl"
        }
      ]
    }
  }
]