[
  {
    "Default": {
      "$type": "MoleMole.Config.GNKCLKNDOAK",
      "abilityName": "SceneObj_Gear_Gate_Common_RockGate",
      "PIDAPNFJNDF": [
        {
          "$type": "MoleMole.Config.AttachToGadgetStateMixin",
          "modifierName": "Idle"
        }
      ],
      "BFBDNNJCDLH": {
        "Idle": {
          "modifierName": "",
          "elementDurability": 100.0,
          "MINFJCDAIBB": [
            {
              "$type": "MoleMole.Config.FireEffect",
              "effectPattern": "Eff_SceneObj_CommonRockGate_Open",
              "effectTempleteID": -1.0
            }
          ]
        }
      }
    }
  },
  {
    "Default": {
      "$type": "MoleMole.Config.GNKCLKNDOAK",
      "abilityName": "SceneObj_Gear_Gate_AncientGate",
      "PIDAPNFJNDF": [
        {
          "$type": "MoleMole.Config.AttachToGadgetStateMixin",
          "MHKDFIPGJJO": 201,
          "modifierName": "Active"
        }
      ],
      "BFBDNNJCDLH": {
        "Active": {
          "modifierName": "",
          "elementDurability": 100.0,
          "OAOGLLGGJPD": [
            {
              "$type": "MoleMole.Config.FireEffect",
              "effectPattern": "Eff_SceneObj_AncientGate_01_Open",
              "effectTempleteID": -1.0
            }
          ]
        }
      }
    }
  },
  {
    "Default": {
      "$type": "MoleMole.Config.GNKCLKNDOAK",
      "abilityName": "SceneObj_Gear_Gate_Temple01",
      "PIDAPNFJNDF": [
        {
          "$type": "MoleMole.Config.AttachToGadgetStateMixin",
          "MHKDFIPGJJO": 201,
          "modifierName": "Active"
        }
      ],
      "BFBDNNJCDLH": {
        "Active": {
          "modifierName": "",
          "elementDurability": 100.0,
          "OAOGLLGGJPD": [
            {
              "$type": "MoleMole.Config.FireEffect",
              "effectPattern": "Eff_SceneObj_TempleUnlock_01",
              "effectTempleteID": -1.0
            }
          ]
        }
      }
    }
  },
  {
    "Default": {
      "$type": "MoleMole.Config.GNKCLKNDOAK",
      "abilityName": "SceneObj_Gear_Gate_Temple01_Ly",
      "PIDAPNFJNDF": [
        {
          "$type": "MoleMole.Config.AttachToGadgetStateMixin",
          "MHKDFIPGJJO": 201,
          "modifierName": "Active"
        }
      ],
      "BFBDNNJCDLH": {
        "Active": {
          "modifierName": "",
          "elementDurability": 100.0,
          "OAOGLLGGJPD": [
            {
              "$type": "MoleMole.Config.FireEffect",
              "effectPattern": "Eff_SceneObj_TempleUnlock_01_Ly",
              "effectTempleteID": -1.0
            }
          ]
        }
      }
    }
  },
  {
    "Default": {
      "$type": "MoleMole.Config.GNKCLKNDOAK",
      "abilityName": "SceneObj_Gear_Gate_Temple01_dq",
      "PIDAPNFJNDF": [
        {
          "$type": "MoleMole.Config.AttachToGadgetStateMixin",
          "MHKDFIPGJJO": 201,
          "modifierName": "Active"
        }
      ],
      "BFBDNNJCDLH": {
        "Active": {
          "modifierName": "",
          "elementDurability": 100.0,
          "OAOGLLGGJPD": [
            {
              "$type": "MoleMole.Config.FireEffect",
              "effectPattern": "Eff_SceneObj_TempleUnlock_01_Dq",
              "effectTempleteID": -1.0
            }
          ]
        }
      }
    }
  },
  {
    "Default": {
      "$type": "MoleMole.Config.GNKCLKNDOAK",
      "abilityName": "SceneObj_Gear_Gate_Temple01_Xm",
      "PIDAPNFJNDF": [
        {
          "$type": "MoleMole.Config.AttachToGadgetStateMixin",
          "modifierName": "DefaultState"
        },
        {
          "$type": "MoleMole.Config.AttachToGadgetStateMixin",
          "MHKDFIPGJJO": 201,
          "modifierName": "Active"
        }
      ],
      "BFBDNNJCDLH": {
        "DefaultState": {
          "modifierName": "",
          "elementDurability": 100.0,
          "OAOGLLGGJPD": [
            {
              "$type": "MoleMole.Config.AttachEffect",
              "effectPattern": "Eff_SceneObj_Temple01_Xm_Lock",
              "effectTempleteID": -1.0
            }
          ]
        },
        "Active": {
          "modifierName": "",
          "elementDurability": 100.0,
          "OAOGLLGGJPD": [
            {
              "$type": "MoleMole.Config.FireEffect",
              "effectPattern": "Eff_SceneObj_Temple01_Xm_Unlock",
              "effectTempleteID": -1.0
            }
          ]
        }
      }
    }
  },
  {
    "Default": {
      "$type": "MoleMole.Config.GNKCLKNDOAK",
      "abilityName": "SceneObj_Gear_Gate_Temple01_Fd",
      "PIDAPNFJNDF": [
        {
          "$type": "MoleMole.Config.AttachToGadgetStateMixin",
          "MHKDFIPGJJO": 201,
          "modifierName": "Active"
        },
        {
          "$type": "MoleMole.Config.AttachModifierToSelfGlobalValueNoInitMixin",
          "globalValueKey": "SGV_EnvironmentType",
          "FJEPHJNDEAI": [
            1.5,
            2.5
          ],
          "IJEPHCMOAPE": [
            "InteractLvUp"
          ],
          "BMNOPNNALIB": true
        }
      ],
      "BFBDNNJCDLH": {
        "Active": {
          "modifierName": "",
          "elementDurability": 100.0,
          "OAOGLLGGJPD": [
            {
              "$type": "MoleMole.Config.FireEffect",
              "effectPattern": "Eff_SceneObj_TempleUnlock_01_Fontaine",
              "effectTempleteID": -1.0
            }
          ]
        },
        "InteractLvUp": {
          "modifierName": "",
          "elementDurability": 100.0,
          "JPIFFPJJEMK": [
            {
              "$type": "MoleMole.Config.UIInteractOverrideMixin",
              "EKABPMFLBBN": 7.0,
              "GJPHANNOHGE": 7.0
            }
          ]
        }
      }
    }
  },
  {
    "Default": {
      "$type": "MoleMole.Config.GNKCLKNDOAK",
      "abilityName": "SceneObj_Gear_Gate_Temple02_Electric",
      "OAOGLLGGJPD": [
        {
          "$type": "MoleMole.Config.AttachEffect",
          "effectPattern": "Eff_SceneObj_Gear_Temple_02_Electric",
          "effectTempleteID": -1.0
        }
      ]
    }
  },
  {
    "Default": {
      "$type": "MoleMole.Config.GNKCLKNDOAK",
      "abilityName": "SceneObj_Gear_Gate_Temple02_Rock",
      "OAOGLLGGJPD": [
        {
          "$type": "MoleMole.Config.AttachEffect",
          "effectPattern": "Eff_SceneObj_Gear_Temple_02_Rock",
          "effectTempleteID": -1.0
        }
      ]
    }
  },
  {
    "Default": {
      "$type": "MoleMole.Config.GNKCLKNDOAK",
      "abilityName": "SceneObj_Gear_Gate_Temple02_Wind",
      "OAOGLLGGJPD": [
        {
          "$type": "MoleMole.Config.AttachEffect",
          "effectPattern": "Eff_SceneObj_Gear_Temple_02_Wind",
          "effectTempleteID": -1.0
        }
      ]
    }
  },
  {
    "Default": {
      "$type": "MoleMole.Config.GNKCLKNDOAK",
      "abilityName": "SceneObj_Homeworld_Ani_Interior_Common_Room_Door_01_WhiteBox_Ability",
      "GGGLNDFDIMI": [
        {
          "$type": "MoleMole.Config.Predicated",
          "MLDBFKEGPEF": "Target",
          "CKBKOCJPJMM": [
            {
              "$type": "ILKKPJMKGDF",
              "logic": "Lesser",
              "value": 90.0
            }
          ],
          "successActions": [
            {
              "$type": "MoleMole.Config.SetAnimatorBool",
              "KIAGMJMPHPG": "Open",
              "value": true
            }
          ],
          "failActions": [
            {
              "$type": "MoleMole.Config.SetAnimatorBool",
              "KIAGMJMPHPG": "In",
              "value": true
            }
          ]
        }
      ],
      "GCBLHJHFDFA": [
        {
          "$type": "MoleMole.Config.SetAnimatorBool",
          "KIAGMJMPHPG": "Open"
        },
        {
          "$type": "MoleMole.Config.SetAnimatorBool",
          "KIAGMJMPHPG": "In"
        }
      ]
    }
  },
  {
    "Default": {
      "$type": "MoleMole.Config.GNKCLKNDOAK",
      "abilityName": "SceneObj_Area_Ly_Property_Build_DahakaEntry_01_Ability",
      "PIDAPNFJNDF": [
        {
          "$type": "MoleMole.Config.AttachToGadgetStateMixin",
          "MHKDFIPGJJO": 201,
          "modifierName": "IceFireModifier"
        },
        {
          "$type": "MoleMole.Config.AttachToGadgetStateMixin",
          "MHKDFIPGJJO": 202,
          "modifierName": "IceWaterModifier"
        },
        {
          "$type": "MoleMole.Config.AttachToGadgetStateMixin",
          "MHKDFIPGJJO": 203,
          "modifierName": "ElectricFireModifier"
        },
        {
          "$type": "MoleMole.Config.AttachToGadgetStateMixin",
          "MHKDFIPGJJO": 204,
          "modifierName": "ElectricWaterModifier"
        }
      ],
      "BFBDNNJCDLH": {
        "IceFireModifier": {
          "modifierName": "",
          "elementDurability": 100.0,
          "OAOGLLGGJPD": [
            {
              "$type": "MoleMole.Config.AttachEffect",
              "effectPattern": "Eff_SceneObj_DahakaEntrySymbol_Ice",
              "born": {
                "$type": "JEDNAGFKIDP",
                "OBNIJLKICKN": "CharNode01"
              },
              "effectTempleteID": -1.0
            },
            {
              "$type": "MoleMole.Config.AttachEffect",
              "effectPattern": "Eff_SceneObj_DahakaEntrySymbol_Fire",
              "born": {
                "$type": "JEDNAGFKIDP",
                "OBNIJLKICKN": "CharNode02"
              },
              "effectTempleteID": -1.0
            }
          ]
        },
        "IceWaterModifier": {
          "modifierName": "",
          "elementDurability": 100.0,
          "OAOGLLGGJPD": [
            {
              "$type": "MoleMole.Config.AttachEffect",
              "effectPattern": "Eff_SceneObj_DahakaEntrySymbol_Ice",
              "born": {
                "$type": "JEDNAGFKIDP",
                "OBNIJLKICKN": "CharNode01"
              },
              "effectTempleteID": -1.0
            },
            {
              "$type": "MoleMole.Config.AttachEffect",
              "effectPattern": "Eff_SceneObj_DahakaEntrySymbol_Water",
              "born": {
                "$type": "JEDNAGFKIDP",
                "OBNIJLKICKN": "CharNode02"
              },
              "effectTempleteID": -1.0
            }
          ]
        },
        "ElectricFireModifier": {
          "modifierName": "",
          "elementDurability": 100.0,
          "OAOGLLGGJPD": [
            {
              "$type": "MoleMole.Config.AttachEffect",
              "effectPattern": "Eff_SceneObj_DahakaEntrySymbol_Electric",
              "born": {
                "$type": "JEDNAGFKIDP",
                "OBNIJLKICKN": "CharNode01"
              },
              "effectTempleteID": -1.0
            },
            {
              "$type": "MoleMole.Config.AttachEffect",
              "effectPattern": "Eff_SceneObj_DahakaEntrySymbol_Fire",
              "born": {
                "$type": "JEDNAGFKIDP",
                "OBNIJLKICKN": "CharNode02"
              },
              "effectTempleteID": -1.0
            }
          ]
        },
        "ElectricWaterModifier": {
          "modifierName": "",
          "elementDurability": 100.0,
          "OAOGLLGGJPD": [
            {
              "$type": "MoleMole.Config.AttachEffect",
              "effectPattern": "Eff_SceneObj_DahakaEntrySymbol_Electric",
              "born": {
                "$type": "JEDNAGFKIDP",
                "OBNIJLKICKN": "CharNode01"
              },
              "effectTempleteID": -1.0
            },
            {
              "$type": "MoleMole.Config.AttachEffect",
              "effectPattern": "Eff_SceneObj_DahakaEntrySymbol_Water",
              "born": {
                "$type": "JEDNAGFKIDP",
                "OBNIJLKICKN": "CharNode02"
              },
              "effectTempleteID": -1.0
            }
          ]
        }
      }
    }
  },
  {
    "Default": {
      "$type": "MoleMole.Config.GNKCLKNDOAK",
      "abilityName": "SceneObj_Area_Dq_Property_Ani_Prop_CommonRockGate_03",
      "PIDAPNFJNDF": [
        {
          "$type": "MoleMole.Config.AttachToGadgetStateMixin",
          "modifierName": "Idle"
        }
      ],
      "BFBDNNJCDLH": {
        "Idle": {
          "modifierName": "",
          "elementDurability": 100.0,
          "MINFJCDAIBB": [
            {
              "$type": "MoleMole.Config.FireEffect",
              "effectPattern": "Eff_SceneObj_CommonRockGate_03_Open",
              "born": {
                "$type": "JEDNAGFKIDP",
                "OBNIJLKICKN": "EffectNode"
              },
              "effectTempleteID": -1.0
            }
          ]
        }
      }
    }
  },
  {
    "Default": {
      "$type": "MoleMole.Config.GNKCLKNDOAK",
      "abilityName": "SceneObj_Area_Dq_Property_Ani_Build_CommonRockGate_04",
      "PIDAPNFJNDF": [
        {
          "$type": "MoleMole.Config.AttachToGadgetStateMixin",
          "modifierName": "Idle"
        }
      ],
      "BFBDNNJCDLH": {
        "Idle": {
          "modifierName": "",
          "elementDurability": 100.0,
          "MINFJCDAIBB": [
            {
              "$type": "MoleMole.Config.FireEffect",
              "effectPattern": "Eff_SceneObj_CommonRockGate_04_Open",
              "effectTempleteID": -1.0
            }
          ]
        }
      }
    }
  },
  {
    "Default": {
      "$type": "MoleMole.Config.GNKCLKNDOAK",
      "abilityName": "SceneObj_Area_Dq_Property_Ani_Prop_RuinTrapDoor_01",
      "PIDAPNFJNDF": [
        {
          "$type": "MoleMole.Config.AttachToGadgetStateMixin",
          "MHKDFIPGJJO": 201,
          "modifierName": "Close"
        },
        {
          "$type": "MoleMole.Config.AttachToGadgetStateMixin",
          "MHKDFIPGJJO": 203,
          "modifierName": "Open"
        }
      ],
      "BFBDNNJCDLH": {
        "Open": {
          "modifierName": "",
          "elementDurability": 100.0,
          "OAOGLLGGJPD": [
            {
              "$type": "MoleMole.Config.EnableSceneTransformByName",
              "MKNNBEGONKE": [
                "Collider"
              ]
            }
          ],
          "MINFJCDAIBB": [
            {
              "$type": "MoleMole.Config.FireEffect",
              "effectPattern": "Eff_SceneObj_RuinGate_01_Close",
              "effectTempleteID": -1.0
            }
          ]
        },
        "Close": {
          "modifierName": "",
          "elementDurability": 100.0,
          "OAOGLLGGJPD": [
            {
              "$type": "MoleMole.Config.EnableSceneTransformByName",
              "MKNNBEGONKE": [
                "Collider"
              ],
              "NJKBCLADIBK": true
            },
            {
              "$type": "MoleMole.Config.SetGlobalValue",
              "value": 0.0,
              "key": "GV_ReginSignal",
              "maxValue": 0.0,
              "GCEOGBJIFCP": 0.0
            }
          ],
          "MINFJCDAIBB": [
            {
              "$type": "MoleMole.Config.FireEffect",
              "effectPattern": "Eff_SceneObj_RuinGate_01_Open",
              "effectTempleteID": -1.0
            }
          ]
        },
        "Receiver": {
          "modifierName": "",
          "elementDurability": 100.0,
          "JPIFFPJJEMK": [
            {
              "$type": "MoleMole.Config.AttachModifierToSelfGlobalValueMixin",
              "globalValueKey": "GV_ReginSignal",
              "KADKJMOFOLI": 0.0,
              "FJEPHJNDEAI": [
                0.5,
                20.0
              ],
              "IJEPHCMOAPE": [
                "OpenByGV"
              ]
            }
          ]
        },
        "OpenByGV": {
          "modifierName": "",
          "elementDurability": 100.0,
          "OAOGLLGGJPD": [
            {
              "$type": "MoleMole.Config.ExecuteGadgetLua",
              "param1": 203
            }
          ]
        }
      },
      "OAOGLLGGJPD": [
        {
          "$type": "MoleMole.Config.SetGlobalValue",
          "value": 1.0,
          "key": "GV_ReginGadget",
          "maxValue": 0.0,
          "GCEOGBJIFCP": 0.0
        },
        {
          "$type": "MoleMole.Config.SetGlobalValue",
          "value": 0.0,
          "key": "GV_ReginSignal",
          "maxValue": 0.0,
          "GCEOGBJIFCP": 0.0
        },
        {
          "$type": "MoleMole.Config.ApplyModifier",
          "modifierName": "Receiver"
        }
      ]
    }
  }
]