[
  {
    "Default": {
      "$type": "MoleMole.Config.GNKCLKNDOAK",
      "abilityName": "SceneObj_Area_Fd_Property_Ani_Prop_WaterSeed_01",
      "PIDAPNFJNDF": [
        {
          "$type": "MoleMole.Config.AttachModifierToSelfGlobalValueNoInitMixin",
          "globalValueKey": "_EnableInteract",
          "FJEPHJNDEAI": [
            0.5,
            1.5,
            2.5
          ],
          "IJEPHCMOAPE": [
            "Active",
            "PickUpWaterSeed"
          ]
        },
        {
          "$type": "MoleMole.Config.AttachToGadgetStateMixin",
          "modifierName": "EnableInteract"
        },
        {
          "$type": "MoleMole.Config.AttachToGadgetStateMixin",
          "MHKDFIPGJJO": 202,
          "modifierName": "CannotInteract"
        }
      ],
      "LLLCANIGIOE": {
        "WaterSeed_Recover_Time": 21.0
      },
      "BFBDNNJCDLH": {
        "Active": {
          "modifierName": "",
          "elementDurability": 100.0,
          "OAOGLLGGJPD": [
            {
              "$type": "MoleMole.Config.AttachEffect",
              "effectPattern": "Eff_SceneObj_HydroSeed_01",
              "born": {
                "$type": "JEDNAGFKIDP",
                "useRotation": true,
                "OBNIJLKICKN": "EffectNode"
              },
              "effectTempleteID": -1.0
            },
            {
              "$type": "MoleMole.Config.ChangeGadgetState"
            }
          ]
        },
        "PickUpWaterSeed": {
          "modifierName": "",
          "elementDurability": 100.0,
          "OAOGLLGGJPD": [
            {
              "$type": "MoleMole.Config.FireEffect",
              "effectPattern": "Eff_SceneObj_HydroSeed_01_Disappear",
              "born": {
                "$type": "JEDNAGFKIDP",
                "useRotation": true,
                "OBNIJLKICKN": "EffectNode"
              },
              "effectTempleteID": -1.0
            },
            {
              "$type": "MoleMole.Config.ChangeGadgetState",
              "HOJGPJHDKFJ": 202
            }
          ]
        },
        "EnableInteract": {
          "modifierName": "",
          "elementDurability": 100.0,
          "OAOGLLGGJPD": [
            {
              "$type": "MoleMole.Config.SetGlobalValueV2",
              "value": 1.0,
              "key": "_EnableInteract",
              "maxValue": 0.0,
              "GCEOGBJIFCP": 0.0
            }
          ]
        },
        "CannotInteract": {
          "modifierName": "",
          "duration": "WaterSeed_Recover_Time",
          "elementDurability": 100.0,
          "MINFJCDAIBB": [
            {
              "$type": "MoleMole.Config.SetGlobalValueV2",
              "value": 1.0,
              "key": "_EnableInteract",
              "maxValue": 0.0,
              "GCEOGBJIFCP": 0.0
            }
          ]
        }
      },
      "OAOGLLGGJPD": [
        {
          "$type": "MoleMole.Config.SetGlobalValueV2",
          "value": 1.0,
          "key": "Is_WaterSeed_Single",
          "maxValue": 0.0,
          "GCEOGBJIFCP": 0.0
        }
      ]
    }
  },
  {
    "Default": {
      "$type": "MoleMole.Config.GNKCLKNDOAK",
      "abilityName": "SceneObj_Area_Fd_Property_Ani_Prop_WaterSeed_02",
      "PIDAPNFJNDF": [
        {
          "$type": "MoleMole.Config.AttachModifierToSelfGlobalValueNoInitMixin",
          "globalValueKey": "_EnableInteract",
          "FJEPHJNDEAI": [
            0.5,
            1.5,
            2.5
          ],
          "IJEPHCMOAPE": [
            "Active",
            "PickUpWaterSeed"
          ]
        },
        {
          "$type": "MoleMole.Config.AttachToGadgetStateMixin",
          "modifierName": "EnableInteract"
        },
        {
          "$type": "MoleMole.Config.AttachToGadgetStateMixin",
          "MHKDFIPGJJO": 202,
          "modifierName": "CannotInteract"
        }
      ],
      "BFBDNNJCDLH": {
        "Active": {
          "modifierName": "",
          "elementDurability": 100.0,
          "OAOGLLGGJPD": [
            {
              "$type": "MoleMole.Config.AttachEffect",
              "effectPattern": "Eff_SceneObj_HydroSeed_01",
              "born": {
                "$type": "JEDNAGFKIDP",
                "useRotation": true,
                "OBNIJLKICKN": "EffectNode"
              },
              "effectTempleteID": -1.0
            },
            {
              "$type": "MoleMole.Config.ChangeGadgetState"
            }
          ]
        },
        "PickUpWaterSeed": {
          "modifierName": "",
          "elementDurability": 100.0,
          "OAOGLLGGJPD": [
            {
              "$type": "MoleMole.Config.FireEffect",
              "effectPattern": "Eff_SceneObj_HydroSeed_01_Disappear",
              "born": {
                "$type": "JEDNAGFKIDP",
                "useRotation": true,
                "OBNIJLKICKN": "EffectNode"
              },
              "effectTempleteID": -1.0
            },
            {
              "$type": "MoleMole.Config.ChangeGadgetState",
              "HOJGPJHDKFJ": 202
            }
          ]
        },
        "EnableInteract": {
          "modifierName": "",
          "elementDurability": 100.0,
          "OAOGLLGGJPD": [
            {
              "$type": "MoleMole.Config.SetGlobalValueV2",
              "value": 1.0,
              "key": "_EnableInteract",
              "maxValue": 0.0,
              "GCEOGBJIFCP": 0.0
            }
          ]
        },
        "CannotInteract": {
          "modifierName": "",
          "elementDurability": 100.0
        }
      },
      "OAOGLLGGJPD": [
        {
          "$type": "MoleMole.Config.SetGlobalValueV2",
          "value": 1.0,
          "key": "Is_WaterSeed_Single",
          "maxValue": 0.0,
          "GCEOGBJIFCP": 0.0
        }
      ]
    }
  },
  {
    "Default": {
      "$type": "MoleMole.Config.GNKCLKNDOAK",
      "abilityName": "SceneObj_Area_Fd_Property_Ani_Prop_WaterSeed_BuffHandler",
      "PIDAPNFJNDF": [
        {
          "$type": "MoleMole.Config.WidgetMpSupportMixin",
          "ILDPCIKFNCF": [
            {
              "$type": "MoleMole.Config.ApplyModifier",
              "MLDBFKEGPEF": "Target",
              "modifierName": "AddWaterSeed_Max"
            },
            {
              "$type": "MoleMole.Config.ChangeGadgetState"
            },
            {
              "$type": "MoleMole.Config.ApplyModifier",
              "modifierName": "WaterSeed_Intee_CD"
            }
          ],
          "failActions": [
            {
              "$type": "MoleMole.Config.Predicated",
              "MLDBFKEGPEF": "Target",
              "CKBKOCJPJMM": [
                {
                  "$type": "IPGGGPIJONN",
                  "key": "_WaterSeed_IsSpreading",
                  "value": 1.0
                }
              ],
              "successActions": [
                {
                  "$type": "MoleMole.Config.ApplyModifier",
                  "MLDBFKEGPEF": "Target",
                  "modifierName": "WaterSeed_Clear"
                },
                {
                  "$type": "MoleMole.Config.ChangeGadgetState",
                  "HOJGPJHDKFJ": 201
                }
              ],
              "failActions": [
                {
                  "$type": "MoleMole.Config.ShowReminder",
                  "id": 1022240000
                }
              ]
            },
            {
              "$type": "MoleMole.Config.ApplyModifier",
              "modifierName": "WaterSeed_Intee_CD"
            }
          ],
          "predicates": [
            {
              "$type": "IPGGGPIJONN",
              "MLDBFKEGPEF": "Self",
              "key": "_Has_WaterSeed",
              "value": 1.0
            }
          ]
        }
      ],
      "LLLCANIGIOE": {
        "WaterSeedValue_PickUpOne": 1.0,
        "WaterSeed_LifeTime": 15.0,
        "WaterSeed_SpreadWarningTime": 7.0
      },
      "BFBDNNJCDLH": {
        "WaterSeed_Intee_CD": {
          "modifierName": "",
          "duration": 1.0,
          "elementDurability": 100.0,
          "OAOGLLGGJPD": [
            {
              "$type": "MoleMole.Config.EnableGadgetInteeMp"
            }
          ],
          "MINFJCDAIBB": [
            {
              "$type": "MoleMole.Config.EnableGadgetInteeMp",
              "enable": true
            }
          ]
        },
        "WaterSeed_Blank": {
          "modifierName": "",
          "duration": 0.5,
          "elementDurability": 100.0,
          "OAOGLLGGJPD": [
            {
              "$type": "MoleMole.Config.SendEffectTrigger",
              "MLDBFKEGPEF": "CurTeamAvatars",
              "doOffStage": true,
              "canBeHandledOnRecover": true,
              "parameter": "GadgetState",
              "attachPoint": "",
              "KPGKDHAFHFE": "Int",
              "value": 202,
              "effectPattern": "Eff_SceneObj_HydroSeed_02"
            },
            {
              "$type": "MoleMole.Config.SendEffectTrigger",
              "MLDBFKEGPEF": "CurTeamAvatars",
              "doOffStage": true,
              "canBeHandledOnRecover": true,
              "parameter": "IsShow",
              "attachPoint": "",
              "KPGKDHAFHFE": "Int",
              "effectPattern": "Eff_SceneObj_HydroSeed_03"
            }
          ],
          "MINFJCDAIBB": [
            {
              "$type": "MoleMole.Config.RemoveUniqueModifier",
              "predicates": [
                {
                  "$type": "IPGGGPIJONN",
                  "MLDBFKEGPEF": "Self",
                  "key": "_WaterSeedValue",
                  "value": 0.0,
                  "compareType": "NoneOrEqual"
                }
              ],
              "modifierName": "UNIQUE_WaterSeed_Team_Handle"
            }
          ]
        },
        "UNIQUE_WaterSeed_Team_Handle": {
          "EODJPKICNGG": "RefreshUniqueDurability",
          "modifierName": "",
          "LLIJGLMEHFK": true,
          "duration": "WaterSeed_LifeTime",
          "elementDurability": 100.0,
          "JPIFFPJJEMK": [
            {
              "$type": "MoleMole.Config.AttachModifierToSelfGlobalValueNoInitMixin",
              "globalValueKey": "_WaterSeedValue",
              "FJEPHJNDEAI": [
                -10.0,
                0.5,
                2.5
              ],
              "IJEPHCMOAPE": [
                "WaterSeed_Blank",
                "WaterSeed_Effect_Lv1And2_Team"
              ],
              "EKDIKMENPBF": false
            },
            {
              "$type": "MoleMole.Config.AttachModifierToSelfGlobalValueNoInitMixin",
              "globalValueKey": "_WaterSeedValue",
              "FJEPHJNDEAI": [
                2.5,
                999.0
              ],
              "IJEPHCMOAPE": [
                "WaterSeed_SpreadStart"
              ]
            },
            {
              "$type": "MoleMole.Config.CurLocalAvatarMixinV2",
              "modifierName": "WaterSeed_Avatar_ActionListener"
            }
          ],
          "OAOGLLGGJPD": [
            {
              "$type": "MoleMole.Config.SetGlobalValueV2",
              "value": 0.0,
              "key": "_WaterSeedValue",
              "maxValue": 0.0,
              "GCEOGBJIFCP": 0.0
            },
            {
              "$type": "MoleMole.Config.SetGlobalValueV2",
              "value": 0.0,
              "key": "_WaterSeed_IsSpreading",
              "maxValue": 0.0,
              "GCEOGBJIFCP": 0.0
            },
            {
              "$type": "MoleMole.Config.DoWatcherSystemAction",
              "watcherId": 10128
            }
          ]
        },
        "AddWaterSeed_PickUpOne": {
          "modifierName": "",
          "duration": 0.10000000149011612,
          "elementDurability": 100.0,
          "OAOGLLGGJPD": [
            {
              "$type": "MoleMole.Config.ApplyModifier",
              "MLDBFKEGPEF": "Team",
              "modifierName": "UNIQUE_WaterSeed_Team_Handle"
            },
            {
              "$type": "MoleMole.Config.AddGlobalValueV2",
              "MLDBFKEGPEF": "Team",
              "value": "WaterSeedValue_PickUpOne",
              "key": "_WaterSeedValue",
              "HPICGAMGEGA": true,
              "maxValue": 100.0,
              "GCEOGBJIFCP": 0.0
            }
          ]
        },
        "AddWaterSeed_Max": {
          "modifierName": "",
          "duration": 0.10000000149011612,
          "elementDurability": 100.0,
          "OAOGLLGGJPD": [
            {
              "$type": "MoleMole.Config.ApplyModifier",
              "MLDBFKEGPEF": "Team",
              "modifierName": "UNIQUE_WaterSeed_Team_Handle"
            },
            {
              "$type": "MoleMole.Config.AddGlobalValueV2",
              "MLDBFKEGPEF": "Team",
              "value": 100.0,
              "key": "_WaterSeedValue",
              "HPICGAMGEGA": true,
              "maxValue": 100.0,
              "GCEOGBJIFCP": 0.0
            }
          ]
        },
        "WaterSeed_SpreadStart": {
          "modifierName": "",
          "elementDurability": 100.0,
          "OAOGLLGGJPD": [
            {
              "$type": "MoleMole.Config.ReportBuriedPoint",
              "CALDPLJPOPC": 10001
            },
            {
              "$type": "MoleMole.Config.ApplyModifier",
              "predicates": [
                {
                  "$type": "IPGGGPIJONN",
                  "MLDBFKEGPEF": "Team",
                  "key": "_WaterSeed_CircleR10",
                  "value": 0.0,
                  "compareType": "NoneOrEqual"
                }
              ],
              "modifierName": "WaterSeed_SpreadState_Team"
            },
            {
              "$type": "MoleMole.Config.ApplyModifier",
              "predicates": [
                {
                  "$type": "IPGGGPIJONN",
                  "MLDBFKEGPEF": "Team",
                  "key": "_WaterSeed_CircleR10",
                  "value": 1.0
                }
              ],
              "modifierName": "UNIQUE_WaterSeed_SpreadState_Team_CircleR10"
            }
          ]
        },
        "WaterSeed_SpreadState_Avatar": {
          "modifierName": "",
          "elementDurability": 100.0,
          "BNJENAIMDPL": 1.5,
          "JPIFFPJJEMK": [
            {
              "$type": "MoleMole.Config.AttachToStateIDMixin",
              "stateIDs": [
                "Dive",
                "Swim"
              ],
              "modifierName": "WaterSeed_Clear",
              "MJFJKAHGHDJ": ""
            }
          ],
          "OAOGLLGGJPD": [
            {
              "$type": "MoleMole.Config.AttachEffect",
              "effectPattern": "Eff_SceneObj_HydroSeed_04",
              "born": {
                "$type": "INKMBJGOPCK",
                "direction": {
                  "$type": "BCHKMOHKDHH",
                  "HOHFMGJNCAG": {
                    "y": 1.0
                  }
                }
              },
              "effectTempleteID": -1.0
            }
          ],
          "PJKELBNICOI": [
            {
              "$type": "MoleMole.Config.TriggerAttackEvent",
              "attackEvent": {
                "attackPattern": {
                  "$type": "LGEKKELKDAN",
                  "triggerType": "TriggerNoRepeat",
                  "entityAttackFilter": "IgnoreSceneProp",
                  "height": 2.0,
                  "MFGGJCPPBGA": 5.0
                },
                "attackInfo": {
                  "attackTag": "WaterSeed_Dump",
                  "attenuationTag": "",
                  "attenuationGroup": "default",
                  "attackProperty": {
                    "JMLMDDCBIAO": 0.0,
                    "damagePercentageRatio": 0.0,
                    "elementType": "Water",
                    "elementRank": 1.5,
                    "elementDurability": 25.0,
                    "strikeType": "Default",
                    "enBreak": 0.0,
                    "damagePercentage": 0.0
                  },
                  "hitPattern": {
                    "onHitEffectName": "none",
                    "hitImpulseY": "",
                    "hitImpulseType": "LV0",
                    "muteHitText": true
                  }
                }
              },
              "targetType": "AllExceptSelf"
            },
            {
              "$type": "MoleMole.Config.Predicated",
              "otherTargets": {
                "$type": "DOMPKGOHKNB",
                "shapeName": "CircleR5H3",
                "FAMCBLCIFCJ": "AllExceptSelf",
                "CONEFMBNECE": 1.0
              },
              "CKBKOCJPJMM": [
                {
                  "$type": "OFEHCLIGCND",
                  "predicates": [
                    {
                      "$type": "DLLOJMFICPG",
                      "JBEIOINCLFB": [
                        "Equip"
                      ]
                    }
                  ]
                }
              ],
              "successActions": [
                {
                  "$type": "MoleMole.Config.ApplyModifier",
                  "MLDBFKEGPEF": "Other",
                  "modifierName": "WaterSeed_Target_Dump"
                },
                {
                  "$type": "MoleMole.Config.ApplyModifier",
                  "MLDBFKEGPEF": "Other",
                  "predicates": [
                    {
                      "$type": "IPGGGPIJONN",
                      "key": "Detector_IsReceving",
                      "value": 1.0,
                      "compareType": "MoreThanAndEqual"
                    }
                  ],
                  "modifierName": "WaterSeed_Target_ForHydoDetector"
                }
              ]
            }
          ]
        },
        "WaterSeed_Target_ForHydoDetector": {
          "modifierName": "",
          "duration": 0.10000000149011612,
          "elementDurability": 100.0,
          "OAOGLLGGJPD": [
            {
              "$type": "MoleMole.Config.AddGlobalValueV2",
              "value": 8.0,
              "key": "Detector_ChargeValue",
              "maxValue": 0.0,
              "GCEOGBJIFCP": 0.0
            }
          ]
        },
        "WaterSeed_SpreadState_Avatar_CircleR10": {
          "modifierName": "",
          "elementDurability": 100.0,
          "BNJENAIMDPL": 1.5,
          "JPIFFPJJEMK": [
            {
              "$type": "MoleMole.Config.AttachToStateIDMixin",
              "stateIDs": [
                "Dive",
                "Swim"
              ],
              "modifierName": "WaterSeed_Clear",
              "MJFJKAHGHDJ": ""
            }
          ],
          "OAOGLLGGJPD": [
            {
              "$type": "MoleMole.Config.AttachEffect",
              "effectPattern": "Eff_SceneObj_HydroSeed_05",
              "effectTempleteID": -1.0
            }
          ],
          "PJKELBNICOI": [
            {
              "$type": "MoleMole.Config.TriggerAttackEvent",
              "attackEvent": {
                "attackPattern": {
                  "$type": "LGEKKELKDAN",
                  "triggerType": "TriggerNoRepeat",
                  "entityAttackFilter": "IgnoreSceneProp",
                  "height": 2.0,
                  "MFGGJCPPBGA": 10.0
                },
                "attackInfo": {
                  "attackTag": "WaterSeed_Dump",
                  "attenuationTag": "",
                  "attenuationGroup": "default",
                  "attackProperty": {
                    "JMLMDDCBIAO": 0.0,
                    "damagePercentageRatio": 0.0,
                    "elementType": "Water",
                    "elementRank": 1.5,
                    "elementDurability": 25.0,
                    "strikeType": "Default",
                    "enBreak": 0.0,
                    "damagePercentage": 0.0
                  },
                  "hitPattern": {
                    "onHitEffectName": "none",
                    "hitImpulseY": "",
                    "hitImpulseType": "LV0",
                    "muteHitText": true
                  }
                }
              },
              "targetType": "AllExceptSelf"
            },
            {
              "$type": "MoleMole.Config.Predicated",
              "otherTargets": {
                "$type": "DOMPKGOHKNB",
                "shapeName": "CircleR10H3",
                "FAMCBLCIFCJ": "AllExceptSelf",
                "CONEFMBNECE": 1.0
              },
              "CKBKOCJPJMM": [
                {
                  "$type": "OFEHCLIGCND",
                  "predicates": [
                    {
                      "$type": "DLLOJMFICPG",
                      "JBEIOINCLFB": [
                        "Equip"
                      ]
                    }
                  ]
                }
              ],
              "successActions": [
                {
                  "$type": "MoleMole.Config.ApplyModifier",
                  "modifierName": "WaterSeed_Target_Dump"
                },
                {
                  "$type": "MoleMole.Config.ApplyModifier",
                  "predicates": [
                    {
                      "$type": "IPGGGPIJONN",
                      "key": "Detector_IsReceving",
                      "value": 1.0,
                      "compareType": "MoreThanAndEqual"
                    }
                  ],
                  "modifierName": "WaterSeed_Target_ForHydoDetector"
                }
              ]
            }
          ]
        },
        "WaterSeed_SpreadState_Team": {
          "modifierName": "",
          "duration": 20.0,
          "elementDurability": 100.0,
          "JPIFFPJJEMK": [
            {
              "$type": "MoleMole.Config.CurLocalAvatarMixinV2",
              "modifierName": "WaterSeed_SpreadState_Avatar"
            }
          ],
          "OAOGLLGGJPD": [
            {
              "$type": "MoleMole.Config.SetGlobalValueV2",
              "value": 1.0,
              "key": "_WaterSeed_IsSpreading",
              "maxValue": 0.0,
              "GCEOGBJIFCP": 0.0
            },
            {
              "$type": "MoleMole.Config.RemoveModifier",
              "modifierName": "WaterSeed_Effect_Lv3_Team"
            },
            {
              "$type": "MoleMole.Config.ApplyModifier",
              "modifierName": "WaterSeed_Effect_Lv3_Team"
            }
          ],
          "MINFJCDAIBB": [
            {
              "$type": "MoleMole.Config.SetGlobalValueV2",
              "value": 0.0,
              "key": "_WaterSeedValue",
              "maxValue": 0.0,
              "GCEOGBJIFCP": 0.0
            },
            {
              "$type": "MoleMole.Config.SetGlobalValueV2",
              "value": 0.0,
              "key": "_WaterSeed_IsSpreading",
              "maxValue": 0.0,
              "GCEOGBJIFCP": 0.0
            },
            {
              "$type": "MoleMole.Config.SendEffectTrigger",
              "MLDBFKEGPEF": "CurTeamAvatars",
              "doOffStage": true,
              "canBeHandledOnRecover": true,
              "parameter": "GadgetState",
              "attachPoint": "",
              "KPGKDHAFHFE": "Int",
              "value": 202,
              "effectPattern": "Eff_SceneObj_HydroSeed_02"
            },
            {
              "$type": "MoleMole.Config.SendEffectTrigger",
              "MLDBFKEGPEF": "CurTeamAvatars",
              "doOffStage": true,
              "canBeHandledOnRecover": true,
              "parameter": "IsShow",
              "attachPoint": "",
              "KPGKDHAFHFE": "Int",
              "effectPattern": "Eff_SceneObj_HydroSeed_03"
            }
          ]
        },
        "UNIQUE_WaterSeed_SpreadState_Team_CircleR10": {
          "modifierName": "",
          "LLIJGLMEHFK": true,
          "duration": 20.0,
          "elementDurability": 100.0,
          "JPIFFPJJEMK": [
            {
              "$type": "MoleMole.Config.CurLocalAvatarMixinV2",
              "modifierName": "WaterSeed_SpreadState_Avatar_CircleR10"
            }
          ],
          "OAOGLLGGJPD": [
            {
              "$type": "MoleMole.Config.SetGlobalValueV2",
              "value": 1.0,
              "key": "_WaterSeed_IsSpreading",
              "maxValue": 0.0,
              "GCEOGBJIFCP": 0.0
            },
            {
              "$type": "MoleMole.Config.RemoveModifier",
              "modifierName": "WaterSeed_Effect_Lv3_Team"
            },
            {
              "$type": "MoleMole.Config.ApplyModifier",
              "modifierName": "WaterSeed_Effect_Lv3_Team"
            }
          ],
          "MINFJCDAIBB": [
            {
              "$type": "MoleMole.Config.SetGlobalValueV2",
              "value": 0.0,
              "key": "_WaterSeedValue",
              "maxValue": 0.0,
              "GCEOGBJIFCP": 0.0
            },
            {
              "$type": "MoleMole.Config.SetGlobalValueV2",
              "value": 0.0,
              "key": "_WaterSeed_IsSpreading",
              "maxValue": 0.0,
              "GCEOGBJIFCP": 0.0
            },
            {
              "$type": "MoleMole.Config.SendEffectTrigger",
              "MLDBFKEGPEF": "CurTeamAvatars",
              "doOffStage": true,
              "canBeHandledOnRecover": true,
              "parameter": "GadgetState",
              "attachPoint": "",
              "KPGKDHAFHFE": "Int",
              "value": 202,
              "effectPattern": "Eff_SceneObj_HydroSeed_02"
            },
            {
              "$type": "MoleMole.Config.SendEffectTrigger",
              "MLDBFKEGPEF": "CurTeamAvatars",
              "doOffStage": true,
              "canBeHandledOnRecover": true,
              "parameter": "IsShow",
              "attachPoint": "",
              "KPGKDHAFHFE": "Int",
              "effectPattern": "Eff_SceneObj_HydroSeed_03"
            }
          ]
        },
        "WaterSeed_Target_Dump": {
          "modifierName": "",
          "duration": 2.0,
          "elementType": "Water",
          "elementDurability": 10.0,
          "OAOGLLGGJPD": [
            {
              "$type": "MoleMole.Config.AddGlobalValueV2",
              "value": 1.0,
              "key": "_Is_Dump_By_WaterSeed",
              "maxValue": 0.0,
              "GCEOGBJIFCP": 0.0
            }
          ],
          "MINFJCDAIBB": [
            {
              "$type": "MoleMole.Config.AddGlobalValueV2",
              "value": -1.0,
              "key": "_Is_Dump_By_WaterSeed",
              "maxValue": 0.0,
              "GCEOGBJIFCP": 0.0
            }
          ]
        },
        "WaterSeed_Avatar_ActionListener": {
          "modifierName": "",
          "elementDurability": 100.0,
          "JPIFFPJJEMK": [
            {
              "$type": "MoleMole.Config.AttachToStateIDMixin",
              "stateIDs": [
                "Dive",
                "Swim"
              ],
              "modifierName": "WaterSeed_Clear",
              "MJFJKAHGHDJ": ""
            },
            {
              "$type": "MoleMole.Config.OnAvatarUseSkillMixin",
              "IEENLMJPNFG": [
                {
                  "$type": "MoleMole.Config.AddGlobalValueV2",
                  "MLDBFKEGPEF": "Team",
                  "predicates": [
                    {
                      "$type": "HMAEDCJJMMP",
                      "MLDBFKEGPEF": "CurLocalAvatar",
                      "elementType": "Water"
                    },
                    {
                      "$type": "IPGGGPIJONN",
                      "MLDBFKEGPEF": "Team",
                      "key": "_WaterSeed_IsSpreading",
                      "value": 0.0
                    }
                  ],
                  "value": 1.0,
                  "key": "_WaterSeedValue",
                  "HPICGAMGEGA": true,
                  "maxValue": 3.0,
                  "GCEOGBJIFCP": 0.0
                },
                {
                  "$type": "MoleMole.Config.ApplyModifier",
                  "MLDBFKEGPEF": "Team",
                  "predicates": [
                    {
                      "$type": "HMAEDCJJMMP",
                      "MLDBFKEGPEF": "CurLocalAvatar",
                      "elementType": "Water"
                    },
                    {
                      "$type": "IPGGGPIJONN",
                      "MLDBFKEGPEF": "Team",
                      "key": "_WaterSeed_IsSpreading",
                      "value": 0.0
                    }
                  ],
                  "modifierName": "UNIQUE_WaterSeed_Team_Handle"
                }
              ],
              "PEOLNCKHHLK": [
                {
                  "$type": "MoleMole.Config.AddGlobalValueV2",
                  "MLDBFKEGPEF": "Team",
                  "predicates": [
                    {
                      "$type": "HMAEDCJJMMP",
                      "MLDBFKEGPEF": "CurLocalAvatar",
                      "elementType": "Water"
                    },
                    {
                      "$type": "IPGGGPIJONN",
                      "MLDBFKEGPEF": "Team",
                      "key": "_WaterSeed_IsSpreading",
                      "value": 0.0
                    }
                  ],
                  "value": 2.0,
                  "key": "_WaterSeedValue",
                  "HPICGAMGEGA": true,
                  "maxValue": 3.0,
                  "GCEOGBJIFCP": 0.0
                },
                {
                  "$type": "MoleMole.Config.ApplyModifier",
                  "MLDBFKEGPEF": "Team",
                  "predicates": [
                    {
                      "$type": "HMAEDCJJMMP",
                      "MLDBFKEGPEF": "CurLocalAvatar",
                      "elementType": "Water"
                    },
                    {
                      "$type": "IPGGGPIJONN",
                      "MLDBFKEGPEF": "Team",
                      "key": "_WaterSeed_IsSpreading",
                      "value": 0.0
                    }
                  ],
                  "modifierName": "UNIQUE_WaterSeed_Team_Handle"
                }
              ]
            },
            {
              "$type": "MoleMole.Config.AttachToElementTypeMixin",
              "FEOAHJHBMIF": [
                "Water"
              ],
              "modifierName": "WaterSeed_AvatarDump"
            }
          ]
        },
        "WaterSeed_AvatarDump": {
          "modifierName": "",
          "elementDurability": 100.0,
          "BNJENAIMDPL": 2.0,
          "PJKELBNICOI": [
            {
              "$type": "MoleMole.Config.AddGlobalValueV2",
              "MLDBFKEGPEF": "Team",
              "predicates": [
                {
                  "$type": "IPGGGPIJONN",
                  "MLDBFKEGPEF": "Team",
                  "key": "_WaterSeed_IsSpreading",
                  "value": 0.0
                },
                {
                  "$type": "IPGGGPIJONN",
                  "MLDBFKEGPEF": "Team",
                  "key": "_WaterSeedValue",
                  "value": 0.0,
                  "compareType": "MoreThan"
                }
              ],
              "value": 1.0,
              "key": "_WaterSeedValue",
              "HPICGAMGEGA": true,
              "maxValue": 3.0,
              "GCEOGBJIFCP": 0.0
            }
          ]
        },
        "WaterSeed_Clear": {
          "modifierName": "",
          "duration": 0.10000000149011612,
          "elementDurability": 100.0,
          "OAOGLLGGJPD": [
            {
              "$type": "MoleMole.Config.SetGlobalValueV2",
              "MLDBFKEGPEF": "Team",
              "value": 0.0,
              "key": "_WaterSeedValue",
              "maxValue": 0.0,
              "GCEOGBJIFCP": 0.0
            },
            {
              "$type": "MoleMole.Config.RemoveModifier",
              "MLDBFKEGPEF": "Team",
              "modifierName": "WaterSeed_SpreadState_Team"
            },
            {
              "$type": "MoleMole.Config.RemoveUniqueModifier",
              "MLDBFKEGPEF": "Team",
              "modifierName": "UNIQUE_WaterSeed_SpreadState_Team_CircleR10"
            }
          ]
        },
        "WaterSeed_Effect_Lv1And2_Team": {
          "modifierName": "",
          "elementDurability": 100.0,
          "JPIFFPJJEMK": [
            {
              "$type": "MoleMole.Config.CurLocalAvatarMixinV2",
              "modifierName": "WaterSeed_Effect_Lv1And2_Avatar"
            },
            {
              "$type": "MoleMole.Config.AttachModifierToSelfGlobalValueNoInitMixin",
              "globalValueKey": "_WaterSeedValue",
              "FJEPHJNDEAI": [
                0.5,
                1.5,
                2.5
              ],
              "IJEPHCMOAPE": [
                "WaterSeed_Effect_Lv1And2_State_1",
                "WaterSeed_Effect_Lv1And2_State_2"
              ]
            }
          ],
          "OAOGLLGGJPD": [
            {
              "$type": "MoleMole.Config.RemoveModifier",
              "modifierName": "WaterSeed_Blank"
            },
            {
              "$type": "MoleMole.Config.RemoveModifier",
              "modifierName": "WaterSeed_Effect_Lv3_Team"
            }
          ]
        },
        "WaterSeed_Effect_Lv3_Team": {
          "modifierName": "",
          "duration": 20.5,
          "elementDurability": 100.0,
          "JPIFFPJJEMK": [
            {
              "$type": "MoleMole.Config.CurLocalAvatarMixinV2",
              "modifierName": "WaterSeed_Effect_Lv3_Avatar"
            }
          ],
          "OAOGLLGGJPD": [
            {
              "$type": "MoleMole.Config.RemoveModifier",
              "modifierName": "WaterSeed_Blank"
            },
            {
              "$type": "MoleMole.Config.RemoveModifier",
              "modifierName": "WaterSeed_Effect_Lv1And2_Team"
            }
          ]
        },
        "WaterSeed_Effect_Lv1And2_Avatar": {
          "modifierName": "",
          "elementDurability": 100.0,
          "OAOGLLGGJPD": [
            {
              "$type": "MoleMole.Config.AttachEffect",
              "effectPattern": "Eff_SceneObj_HydroSeed_02",
              "born": {
                "$type": "INKMBJGOPCK",
                "direction": {
                  "$type": "BCHKMOHKDHH",
                  "HOHFMGJNCAG": {
                    "y": 1.0
                  }
                }
              },
              "effectTempleteID": -1.0
            }
          ]
        },
        "WaterSeed_Effect_Lv1And2_State_1": {
          "modifierName": "",
          "elementDurability": 100.0,
          "OAOGLLGGJPD": [
            {
              "$type": "MoleMole.Config.SendEffectTrigger",
              "MLDBFKEGPEF": "CurTeamAvatars",
              "doOffStage": true,
              "canBeHandledOnRecover": true,
              "parameter": "GadgetState",
              "attachPoint": "",
              "KPGKDHAFHFE": "Int",
              "effectPattern": "Eff_SceneObj_HydroSeed_02"
            }
          ]
        },
        "WaterSeed_Effect_Lv1And2_State_2": {
          "modifierName": "",
          "elementDurability": 100.0,
          "OAOGLLGGJPD": [
            {
              "$type": "MoleMole.Config.SendEffectTrigger",
              "MLDBFKEGPEF": "CurTeamAvatars",
              "doOffStage": true,
              "canBeHandledOnRecover": true,
              "parameter": "GadgetState",
              "attachPoint": "",
              "KPGKDHAFHFE": "Int",
              "value": 201,
              "effectPattern": "Eff_SceneObj_HydroSeed_02"
            }
          ]
        },
        "WaterSeed_Effect_Lv3_Avatar": {
          "modifierName": "",
          "elementDurability": 100.0,
          "BNJENAIMDPL": 1.0,
          "OAOGLLGGJPD": [
            {
              "$type": "MoleMole.Config.AttachEffect",
              "predicates": [
                {
                  "$type": "IPGGGPIJONN",
                  "MLDBFKEGPEF": "Team",
                  "key": "_WaterSeed_IsSpreading",
                  "value": 1.0,
                  "compareType": "MoreThanAndEqual"
                }
              ],
              "effectPattern": "Eff_SceneObj_HydroSeed_03",
              "effectTempleteID": -1.0
            },
            {
              "$type": "MoleMole.Config.SendEffectTrigger",
              "MLDBFKEGPEF": "CurTeamAvatars",
              "doOffStage": true,
              "canBeHandledOnRecover": true,
              "parameter": "IsShow",
              "attachPoint": "",
              "KPGKDHAFHFE": "Int",
              "value": 1,
              "effectPattern": "Eff_SceneObj_HydroSeed_03"
            }
          ],
          "PJKELBNICOI": [
            {
              "$type": "MoleMole.Config.SendEffectTrigger",
              "MLDBFKEGPEF": "CurTeamAvatars",
              "doOffStage": true,
              "canBeHandledOnRecover": true,
              "predicates": [
                {
                  "$type": "IPGGGPIJONN",
                  "MLDBFKEGPEF": "Team",
                  "key": "_WaterSeed_IsSpreading",
                  "value": 1.0,
                  "compareType": "MoreThanAndEqual"
                }
              ],
              "parameter": "IsShow",
              "attachPoint": "",
              "KPGKDHAFHFE": "Int",
              "value": 1,
              "effectPattern": "Eff_SceneObj_HydroSeed_03"
            }
          ]
        }
      },
      "GGGLNDFDIMI": [
        {
          "$type": "MoleMole.Config.Predicated",
          "MLDBFKEGPEF": "Target",
          "predicates": [
            {
              "$type": "IPGGGPIJONN",
              "MLDBFKEGPEF": "Self",
              "key": "_EnableInteract",
              "value": 1.0
            }
          ],
          "CKBKOCJPJMM": [
            {
              "$type": "OFEHCLIGCND",
              "predicates": [
                {
                  "$type": "IPGGGPIJONN",
                  "MLDBFKEGPEF": "TargetTeam",
                  "key": "_WaterSeed_IsSpreading",
                  "value": 1.0
                }
              ]
            }
          ],
          "successActions": [
            {
              "$type": "MoleMole.Config.ApplyModifier",
              "MLDBFKEGPEF": "Target",
              "modifierName": "AddWaterSeed_PickUpOne"
            },
            {
              "$type": "MoleMole.Config.SetGlobalValueV2",
              "value": 2.0,
              "key": "_EnableInteract",
              "maxValue": 0.0,
              "GCEOGBJIFCP": 0.0
            }
          ]
        }
      ]
    }
  },
  {
    "Default": {
      "$type": "MoleMole.Config.GNKCLKNDOAK",
      "abilityName": "SceneObj_Area_Fd_Property_Ani_Prop_WaterSeedCreate_01",
      "PIDAPNFJNDF": [
        {
          "$type": "MoleMole.Config.AttachToGadgetStateMixin",
          "modifierName": "WaterSeedCreate_NoSeed"
        },
        {
          "$type": "MoleMole.Config.AttachToGadgetStateMixin",
          "MHKDFIPGJJO": 201,
          "modifierName": "WaterSeedCreate_HasSeed"
        },
        {
          "$type": "MoleMole.Config.AttachToGadgetStateMixin",
          "MHKDFIPGJJO": 202,
          "modifierName": "CannotInteract"
        }
      ],
      "LLLCANIGIOE": {
        "WaterSeed_SpreadInterval": 0.5
      },
      "BFBDNNJCDLH": {
        "WaterSeed_Target_Dump": {
          "modifierName": "",
          "duration": 2.0,
          "elementType": "Water",
          "elementDurability": 10.0,
          "OAOGLLGGJPD": [
            {
              "$type": "MoleMole.Config.SetGlobalValueV2",
              "value": 1.0,
              "key": "_Is_Dump_By_WaterSeed",
              "maxValue": 0.0,
              "GCEOGBJIFCP": 0.0
            }
          ],
          "MINFJCDAIBB": [
            {
              "$type": "MoleMole.Config.SetGlobalValueV2",
              "value": 0.0,
              "key": "_Is_Dump_By_WaterSeed",
              "maxValue": 0.0,
              "GCEOGBJIFCP": 0.0
            }
          ]
        },
        "WaterSeedCreate_NoSeed": {
          "modifierName": "",
          "elementDurability": 100.0,
          "OAOGLLGGJPD": [
            {
              "$type": "MoleMole.Config.SetGlobalValueV2",
              "value": 0.0,
              "key": "_Has_WaterSeed",
              "maxValue": 0.0,
              "GCEOGBJIFCP": 0.0
            },
            {
              "$type": "MoleMole.Config.ChangeGadgetUIInteractHint",
              "canBeHandledOnRecover": true,
              "GDCNGMCDHCH": "UI_HydroSeed_Intee_01",
              "iconName": ""
            },
            {
              "$type": "MoleMole.Config.SendEffectTrigger",
              "doOffStage": true,
              "canBeHandledOnRecover": true,
              "parameter": "IsShow",
              "attachPoint": "",
              "KPGKDHAFHFE": "Int",
              "effectPattern": "Eff_SceneObj_HydroSeed_03_01"
            }
          ]
        },
        "WaterSeedCreate_HasSeed": {
          "modifierName": "",
          "elementDurability": 100.0,
          "BNJENAIMDPL": "WaterSeed_SpreadInterval",
          "OAOGLLGGJPD": [
            {
              "$type": "MoleMole.Config.SetGlobalValueV2",
              "value": 1.0,
              "key": "_Has_WaterSeed",
              "maxValue": 0.0,
              "GCEOGBJIFCP": 0.0
            },
            {
              "$type": "MoleMole.Config.ChangeGadgetUIInteractHint",
              "canBeHandledOnRecover": true,
              "GDCNGMCDHCH": "UI_HydroSeed_Intee_02",
              "iconName": ""
            },
            {
              "$type": "MoleMole.Config.SendEffectTrigger",
              "doOffStage": true,
              "canBeHandledOnRecover": true,
              "parameter": "IsShow",
              "attachPoint": "",
              "KPGKDHAFHFE": "Int",
              "value": 1,
              "effectPattern": "Eff_SceneObj_HydroSeed_03_01"
            },
            {
              "$type": "MoleMole.Config.AttachEffect",
              "effectPattern": "Eff_SceneObj_HydroSeed_05",
              "born": {
                "$type": "JEDNAGFKIDP",
                "useRotation": true,
                "OBNIJLKICKN": "RootNode"
              },
              "effectTempleteID": -1.0
            },
            {
              "$type": "MoleMole.Config.AttachEffect",
              "effectPattern": "Eff_SceneObj_HydroSeed_06",
              "born": {
                "$type": "JEDNAGFKIDP",
                "useRotation": true,
                "OBNIJLKICKN": "AttachPoint"
              },
              "effectTempleteID": -1.0
            }
          ],
          "PJKELBNICOI": [
            {
              "$type": "MoleMole.Config.TriggerAttackEvent",
              "attackEvent": {
                "attackPattern": {
                  "$type": "LGEKKELKDAN",
                  "triggerType": "TriggerNoRepeat",
                  "entityAttackFilter": "IgnoreSceneProp",
                  "height": 2.0,
                  "MFGGJCPPBGA": 5.0
                },
                "attackInfo": {
                  "attackTag": "WaterSeed_Dump",
                  "attenuationTag": "",
                  "attenuationGroup": "default",
                  "attackProperty": {
                    "JMLMDDCBIAO": 0.0,
                    "damagePercentageRatio": 0.0,
                    "elementType": "Water",
                    "elementRank": 1.5,
                    "elementDurability": 25.0,
                    "strikeType": "Default",
                    "enBreak": 0.0,
                    "damagePercentage": 0.0
                  },
                  "hitPattern": {
                    "onHitEffectName": "none",
                    "hitImpulseY": "",
                    "hitImpulseType": "LV0",
                    "muteHitText": true
                  }
                }
              },
              "targetType": "AllExceptSelf"
            },
            {
              "$type": "MoleMole.Config.ApplyModifier",
              "otherTargets": {
                "$type": "DOMPKGOHKNB",
                "shapeName": "CircleR5",
                "FAMCBLCIFCJ": "AllExceptSelf",
                "CONEFMBNECE": 1.0
              },
              "predicates": [
                {
                  "$type": "OFEHCLIGCND",
                  "predicates": [
                    {
                      "$type": "DLLOJMFICPG",
                      "JBEIOINCLFB": [
                        "Equip"
                      ]
                    }
                  ]
                }
              ],
              "modifierName": "WaterSeed_Target_Dump"
            }
          ]
        },
        "CannotInteract": {
          "modifierName": "",
          "elementDurability": 100.0
        }
      }
    }
  },
  {
    "Default": {
      "$type": "MoleMole.Config.GNKCLKNDOAK",
      "abilityName": "SceneObj_Undersea_WaterSeedLocker_01",
      "PIDAPNFJNDF": [
        {
          "$type": "MoleMole.Config.AttachModifierToSelfGlobalValueNoInitMixin",
          "globalValueKey": "_Is_Dump_By_WaterSeed",
          "FJEPHJNDEAI": [
            0.5,
            1.5
          ],
          "IJEPHCMOAPE": [
            "WaterSeedLocker_Destory"
          ]
        }
      ],
      "BFBDNNJCDLH": {
        "WaterSeedLocker_Locked": {
          "modifierName": "",
          "elementDurability": 100.0,
          "OAOGLLGGJPD": [
            {
              "$type": "MoleMole.Config.AttachEffect",
              "effectPattern": "Eff_SceneObj_DIK_SealA_01",
              "effectTempleteID": 100.0
            }
          ]
        },
        "WaterSeedLocker_Destory": {
          "modifierName": "",
          "elementDurability": 100.0,
          "JPIFFPJJEMK": [
            {
              "$type": "MoleMole.Config.ChangeColliderTagMixin",
              "ANBDLKLGLMI": "Collider",
              "tag": "Airwall"
            }
          ],
          "OAOGLLGGJPD": [
            {
              "$type": "MoleMole.Config.FireEffect",
              "effectPattern": "Eff_SceneObj_Stone_XuMiPlantinshitou_Disappear",
              "born": {
                "$type": "JEDNAGFKIDP",
                "useRotation": true,
                "OBNIJLKICKN": "RootNode"
              },
              "effectTempleteID": -1.0
            },
            {
              "$type": "MoleMole.Config.KillSelf"
            }
          ]
        }
      },
      "OAOGLLGGJPD": [
        {
          "$type": "MoleMole.Config.AttachModifier",
          "modifierName": "WaterSeedLocker_Locked"
        }
      ]
    }
  },
  {
    "Default": {
      "$type": "MoleMole.Config.GNKCLKNDOAK",
      "abilityName": "SceneObj_Area_Fd_Property_Ani_Prop_HydroDetector_01",
      "PIDAPNFJNDF": [
        {
          "$type": "MoleMole.Config.AttachToGadgetStateMixin",
          "MHKDFIPGJJO": 202,
          "modifierName": "WaterDetector_Lock"
        },
        {
          "$type": "MoleMole.Config.AttachToGadgetStateMixin",
          "MHKDFIPGJJO": 901,
          "modifierName": "WaterDetector_HoldOn"
        },
        {
          "$type": "MoleMole.Config.AttachToGadgetStateMixin",
          "MHKDFIPGJJO": 201,
          "modifierName": "WaterDetector_On"
        },
        {
          "$type": "MoleMole.Config.AttachToGadgetStateMixin",
          "modifierName": "WaterDetector_Off"
        }
      ],
      "LLLCANIGIOE": {
        "WaterDetector_TurnOn_Pertick": 4.0,
        "WaterDetector_TurnOn_Tick": 1.0,
        "WaterDetector_Attack_CD": 0.5
      },
      "BFBDNNJCDLH": {
        "WaterDetector_Lock": {
          "modifierName": "",
          "elementDurability": 100.0,
          "JPIFFPJJEMK": [
            {
              "$type": "MoleMole.Config.ShaderStateMachineSwitchMixin",
              "KLAGHLNDOII": 0.5,
              "HNDLOLDKOHO": ""
            }
          ],
          "OAOGLLGGJPD": [
            {
              "$type": "MoleMole.Config.SetGlobalValueV2",
              "value": 0.0,
              "key": "Detector_ChargeValue",
              "maxValue": 0.0,
              "GCEOGBJIFCP": 0.0
            },
            {
              "$type": "MoleMole.Config.SetGlobalValueV2",
              "value": 0.0,
              "key": "Detector_IsReceving",
              "maxValue": 0.0,
              "GCEOGBJIFCP": 0.0
            },
            {
              "$type": "MoleMole.Config.AttachEffect",
              "effectPattern": "Eff_Item_SpecialTreasureBox_LockIdle_Little",
              "born": {
                "$type": "JEDNAGFKIDP",
                "useRotation": true,
                "OBNIJLKICKN": "LockEffect"
              },
              "effectTempleteID": -1.0
            },
            {
              "$type": "MoleMole.Config.SetEffectFollowPath",
              "HMHMBNEODMJ": "LockEffect",
              "effectPattern": "Eff_Item_SpecialTreasureBox_LockIdle_Little",
              "attachPoint": ""
            },
            {
              "$type": "MoleMole.Config.SendEffectTrigger",
              "doOffStage": true,
              "canBeHandledOnRecover": true,
              "parameter": "GadgetState",
              "attachPoint": "",
              "KPGKDHAFHFE": "Int",
              "effectPattern": "Eff_SceneObj_HydroDetector_04"
            }
          ],
          "MINFJCDAIBB": [
            {
              "$type": "MoleMole.Config.FireEffect",
              "effectPattern": "Eff_Item_SpecialTreasureBox_Unlock_Little",
              "born": {
                "$type": "JEDNAGFKIDP",
                "useRotation": true,
                "OBNIJLKICKN": "LockEffect"
              },
              "effectTempleteID": -1.0
            },
            {
              "$type": "MoleMole.Config.SetEffectFollowPath",
              "HMHMBNEODMJ": "LockEffect",
              "effectPattern": "Eff_Item_SpecialTreasureBox_Unlock_Little",
              "attachPoint": ""
            }
          ]
        },
        "WaterDetector_Property": {
          "modifierName": "",
          "elementDurability": 100.0
        },
        "WaterDetector_Off": {
          "modifierName": "",
          "elementDurability": 100.0,
          "JPIFFPJJEMK": [
            {
              "$type": "MoleMole.Config.DoActionOnGlobalValueChangeMixin",
              "globalValueKey": "Detector_ChargeValue",
              "actions": [
                {
                  "$type": "MoleMole.Config.ChangeGadgetState",
                  "predicates": [
                    {
                      "$type": "IPGGGPIJONN",
                      "key": "Detector_ChargeValue",
                      "value": 15.0,
                      "compareType": "MoreThanAndEqual"
                    }
                  ],
                  "HOJGPJHDKFJ": 201
                }
              ]
            },
            {
              "$type": "MoleMole.Config.AttachToElementTypeMixin",
              "FEOAHJHBMIF": [
                "Water"
              ],
              "modifierName": "WaterDetector_TurningOn_ByHasElement"
            },
            {
              "$type": "MoleMole.Config.ShaderStateMachineSwitchMixin",
              "KLAGHLNDOII": 0.5,
              "HNDLOLDKOHO": ""
            }
          ],
          "OAOGLLGGJPD": [
            {
              "$type": "MoleMole.Config.SetGlobalValueV2",
              "value": 1.0,
              "key": "Detector_IsReceving",
              "maxValue": 0.0,
              "GCEOGBJIFCP": 0.0
            },
            {
              "$type": "MoleMole.Config.SetGlobalValueV2",
              "value": 0.0,
              "key": "Detector_ChargeValue",
              "maxValue": 0.0,
              "GCEOGBJIFCP": 0.0
            },
            {
              "$type": "MoleMole.Config.SendEffectTrigger",
              "doOffStage": true,
              "canBeHandledOnRecover": true,
              "parameter": "GadgetState",
              "attachPoint": "",
              "KPGKDHAFHFE": "Int",
              "effectPattern": "Eff_SceneObj_HydroDetector_04"
            }
          ],
          "onBeingHit": [
            {
              "$type": "MoleMole.Config.Predicated",
              "MLDBFKEGPEF": "Target",
              "predicates": [
                {
                  "$type": "IPGGGPIJONN",
                  "MLDBFKEGPEF": "Self",
                  "key": "_WaterDetector_HitCD",
                  "value": 0.0,
                  "compareType": "NoneOrEqual"
                }
              ],
              "CKBKOCJPJMM": [
                {
                  "$type": "MIPKJILPPCP",
                  "NJPOIJLMAFI": "Water"
                }
              ],
              "successActions": [
                {
                  "$type": "MoleMole.Config.ApplyModifier",
                  "modifierName": "UNIQUE_WaterDetector_HitCD"
                },
                {
                  "$type": "MoleMole.Config.ApplyModifier",
                  "modifierName": "UNIQUE_WaterDetector_SelfDump"
                }
              ]
            }
          ]
        },
        "UNIQUE_WaterDetector_SelfDump": {
          "modifierName": "",
          "LLIJGLMEHFK": true,
          "duration": 2.0,
          "elementType": "Water",
          "elementDurability": 25.0
        },
        "UNIQUE_WaterDetector_HitCD": {
          "EODJPKICNGG": "Unique",
          "modifierName": "",
          "LLIJGLMEHFK": true,
          "duration": "WaterDetector_Attack_CD",
          "elementDurability": 100.0,
          "OAOGLLGGJPD": [
            {
              "$type": "MoleMole.Config.SetGlobalValueV2",
              "value": 1.0,
              "key": "_WaterDetector_HitCD",
              "maxValue": 0.0,
              "GCEOGBJIFCP": 0.0
            }
          ],
          "MINFJCDAIBB": [
            {
              "$type": "MoleMole.Config.SetGlobalValueV2",
              "value": 0.0,
              "key": "_WaterDetector_HitCD",
              "maxValue": 0.0,
              "GCEOGBJIFCP": 0.0
            }
          ]
        },
        "WaterDetector_On": {
          "modifierName": "",
          "elementDurability": 100.0,
          "BNJENAIMDPL": 0.20000000298023224,
          "JPIFFPJJEMK": [
            {
              "$type": "MoleMole.Config.ShaderStateMachineSwitchMixin",
              "PDMMEKFIMDB": 2,
              "KLAGHLNDOII": 0.5,
              "HNDLOLDKOHO": ""
            }
          ],
          "OAOGLLGGJPD": [
            {
              "$type": "MoleMole.Config.ServerLuaCall",
              "ACMHGHCMOIF": "SLC_HydroDetector_On",
              "param1": 0.0,
              "param2": 0.0,
              "GBOGNIOMAGM": 0.0
            },
            {
              "$type": "MoleMole.Config.SetGlobalValueV2",
              "value": 0.0,
              "key": "Detector_IsReceving",
              "maxValue": 0.0,
              "GCEOGBJIFCP": 0.0
            },
            {
              "$type": "MoleMole.Config.SetGlobalValueV2",
              "value": 0.0,
              "key": "Detector_ChargeValue",
              "maxValue": 0.0,
              "GCEOGBJIFCP": 0.0
            },
            {
              "$type": "MoleMole.Config.AttachEffect",
              "effectPattern": "Eff_SceneObj_HydroDetector_02",
              "effectTempleteID": -1.0
            },
            {
              "$type": "MoleMole.Config.FireEffect",
              "effectPattern": "Eff_SceneObj_HydroDetector_01",
              "effectTempleteID": -1.0
            },
            {
              "$type": "MoleMole.Config.SendEffectTrigger",
              "doOffStage": true,
              "canBeHandledOnRecover": true,
              "parameter": "GadgetState",
              "attachPoint": "",
              "KPGKDHAFHFE": "Int",
              "value": 202,
              "effectPattern": "Eff_SceneObj_HydroDetector_04"
            }
          ],
          "onBeingHit": [
            {
              "$type": "MoleMole.Config.Predicated",
              "MLDBFKEGPEF": "Target",
              "predicates": [
                {
                  "$type": "IPGGGPIJONN",
                  "MLDBFKEGPEF": "Self",
                  "key": "_WaterDetector_HitCD",
                  "value": 0.0,
                  "compareType": "NoneOrEqual"
                }
              ],
              "CKBKOCJPJMM": [
                {
                  "$type": "MIPKJILPPCP",
                  "NJPOIJLMAFI": "Water"
                }
              ],
              "successActions": [
                {
                  "$type": "MoleMole.Config.ApplyModifier",
                  "modifierName": "UNIQUE_WaterDetector_HitCD"
                },
                {
                  "$type": "MoleMole.Config.ApplyModifier",
                  "modifierName": "UNIQUE_WaterDetector_SelfDump"
                }
              ]
            }
          ],
          "PJKELBNICOI": [
            {
              "$type": "MoleMole.Config.Predicated",
              "predicates": [
                {
                  "$type": "OFEHCLIGCND",
                  "predicates": [
                    {
                      "$type": "KIHJDAIGJPH",
                      "NJPOIJLMAFI": "Water"
                    }
                  ]
                }
              ],
              "successActions": [
                {
                  "$type": "MoleMole.Config.SetGlobalValueV2",
                  "value": 0.0,
                  "key": "Detector_ChargeValue",
                  "maxValue": 0.0,
                  "GCEOGBJIFCP": 0.0
                },
                {
                  "$type": "MoleMole.Config.ChangeGadgetState"
                }
              ]
            }
          ]
        },
        "WaterDetector_HoldOn": {
          "modifierName": "",
          "elementDurability": 100.0,
          "JPIFFPJJEMK": [
            {
              "$type": "MoleMole.Config.ShaderStateMachineSwitchMixin",
              "PDMMEKFIMDB": 2,
              "KLAGHLNDOII": 0.5,
              "HNDLOLDKOHO": ""
            }
          ],
          "OAOGLLGGJPD": [
            {
              "$type": "MoleMole.Config.SetGlobalValueV2",
              "value": 0.0,
              "key": "Detector_IsReceving",
              "maxValue": 0.0,
              "GCEOGBJIFCP": 0.0
            },
            {
              "$type": "MoleMole.Config.SetGlobalValueV2",
              "value": 0.0,
              "key": "Detector_ChargeValue",
              "maxValue": 0.0,
              "GCEOGBJIFCP": 0.0
            },
            {
              "$type": "MoleMole.Config.AttachEffect",
              "effectPattern": "Eff_SceneObj_HydroDetector_02",
              "effectTempleteID": -1.0
            },
            {
              "$type": "MoleMole.Config.SendEffectTrigger",
              "doOffStage": true,
              "canBeHandledOnRecover": true,
              "parameter": "GadgetState",
              "attachPoint": "",
              "KPGKDHAFHFE": "Int",
              "value": 202,
              "effectPattern": "Eff_SceneObj_HydroDetector_04"
            }
          ]
        },
        "WaterDetector_TurningOn_ByHasElement": {
          "modifierName": "",
          "elementDurability": 100.0,
          "BNJENAIMDPL": "WaterDetector_TurnOn_Tick",
          "JPIFFPJJEMK": [
            {
              "$type": "MoleMole.Config.ShaderStateMachineSwitchMixin",
              "PDMMEKFIMDB": 1,
              "KLAGHLNDOII": 0.5,
              "HNDLOLDKOHO": ""
            }
          ],
          "OAOGLLGGJPD": [
            {
              "$type": "MoleMole.Config.AttachEffect",
              "effectPattern": "Eff_SceneObj_HydroDetector_03",
              "effectTempleteID": -1.0
            },
            {
              "$type": "MoleMole.Config.SendEffectTrigger",
              "doOffStage": true,
              "canBeHandledOnRecover": true,
              "parameter": "GadgetState",
              "attachPoint": "",
              "KPGKDHAFHFE": "Int",
              "value": 201,
              "effectPattern": "Eff_SceneObj_HydroDetector_04"
            }
          ],
          "PJKELBNICOI": [
            {
              "$type": "MoleMole.Config.AddGlobalValueV2",
              "value": "WaterDetector_TurnOn_Pertick",
              "key": "Detector_ChargeValue",
              "maxValue": 0.0,
              "GCEOGBJIFCP": 0.0
            }
          ]
        }
      },
      "OAOGLLGGJPD": [
        {
          "$type": "MoleMole.Config.SetGlobalValueV2",
          "value": 0.0,
          "key": "_WaterDetector_HitCD",
          "maxValue": 0.0,
          "GCEOGBJIFCP": 0.0
        },
        {
          "$type": "MoleMole.Config.SetGlobalValueV2",
          "value": 0.0,
          "key": "Detector_ChargeValue",
          "maxValue": 0.0,
          "GCEOGBJIFCP": 0.0
        },
        {
          "$type": "MoleMole.Config.ApplyModifier",
          "modifierName": "WaterDetector_Property"
        }
      ]
    }
  },
  {
    "Default": {
      "$type": "MoleMole.Config.GNKCLKNDOAK",
      "abilityName": "SceneObj_Area_Fd_Property_Ani_Prop_HydroDetector_02",
      "PIDAPNFJNDF": [
        {
          "$type": "MoleMole.Config.AttachToGadgetStateMixin",
          "MHKDFIPGJJO": 202,
          "modifierName": "WaterDetector_Lock"
        },
        {
          "$type": "MoleMole.Config.AttachToGadgetStateMixin",
          "MHKDFIPGJJO": 901,
          "modifierName": "WaterDetector_HoldOn"
        },
        {
          "$type": "MoleMole.Config.AttachToGadgetStateMixin",
          "MHKDFIPGJJO": 201,
          "modifierName": "WaterDetector_On"
        },
        {
          "$type": "MoleMole.Config.AttachToGadgetStateMixin",
          "modifierName": "WaterDetector_Off"
        }
      ],
      "LLLCANIGIOE": {
        "WaterDetector_TurnOn_Pertick": 4.0,
        "WaterDetector_TurnOn_Tick": 1.0,
        "WaterDetector_Attack_CD": 0.5
      },
      "BFBDNNJCDLH": {
        "WaterDetector_Lock": {
          "modifierName": "",
          "elementDurability": 100.0,
          "OAOGLLGGJPD": [
            {
              "$type": "MoleMole.Config.SetGlobalValueV2",
              "value": 0.0,
              "key": "Detector_ChargeValue",
              "maxValue": 0.0,
              "GCEOGBJIFCP": 0.0
            },
            {
              "$type": "MoleMole.Config.SetGlobalValueV2",
              "value": 0.0,
              "key": "Detector_IsReceving",
              "maxValue": 0.0,
              "GCEOGBJIFCP": 0.0
            }
          ]
        },
        "WaterDetector_Property": {
          "modifierName": "",
          "elementDurability": 100.0
        },
        "WaterDetector_Off": {
          "modifierName": "",
          "elementDurability": 100.0,
          "JPIFFPJJEMK": [
            {
              "$type": "MoleMole.Config.DoActionOnGlobalValueChangeMixin",
              "globalValueKey": "Detector_ChargeValue",
              "actions": [
                {
                  "$type": "MoleMole.Config.ChangeGadgetState",
                  "predicates": [
                    {
                      "$type": "IPGGGPIJONN",
                      "key": "Detector_ChargeValue",
                      "value": 15.0,
                      "compareType": "MoreThanAndEqual"
                    }
                  ],
                  "HOJGPJHDKFJ": 201
                }
              ]
            },
            {
              "$type": "MoleMole.Config.AttachToElementTypeMixin",
              "FEOAHJHBMIF": [
                "Water"
              ],
              "modifierName": "WaterDetector_TurningOn_ByHasElement"
            }
          ],
          "OAOGLLGGJPD": [
            {
              "$type": "MoleMole.Config.SetGlobalValueV2",
              "value": 1.0,
              "key": "Detector_IsReceving",
              "maxValue": 0.0,
              "GCEOGBJIFCP": 0.0
            },
            {
              "$type": "MoleMole.Config.SetGlobalValueV2",
              "value": 0.0,
              "key": "Detector_ChargeValue",
              "maxValue": 0.0,
              "GCEOGBJIFCP": 0.0
            }
          ],
          "onBeingHit": [
            {
              "$type": "MoleMole.Config.Predicated",
              "MLDBFKEGPEF": "Target",
              "predicates": [
                {
                  "$type": "IPGGGPIJONN",
                  "MLDBFKEGPEF": "Self",
                  "key": "_WaterDetector_HitCD",
                  "value": 0.0,
                  "compareType": "NoneOrEqual"
                }
              ],
              "CKBKOCJPJMM": [
                {
                  "$type": "MIPKJILPPCP",
                  "NJPOIJLMAFI": "Water"
                }
              ],
              "successActions": [
                {
                  "$type": "MoleMole.Config.ApplyModifier",
                  "modifierName": "UNIQUE_WaterDetector_HitCD_02"
                },
                {
                  "$type": "MoleMole.Config.ApplyModifier",
                  "modifierName": "UNIQUE_WaterDetector_SelfDump_02"
                }
              ]
            }
          ]
        },
        "UNIQUE_WaterDetector_SelfDump_02": {
          "modifierName": "",
          "LLIJGLMEHFK": true,
          "duration": 2.0,
          "elementType": "Water",
          "elementDurability": 25.0
        },
        "UNIQUE_WaterDetector_HitCD_02": {
          "EODJPKICNGG": "Unique",
          "modifierName": "",
          "LLIJGLMEHFK": true,
          "duration": "WaterDetector_Attack_CD",
          "elementDurability": 100.0,
          "OAOGLLGGJPD": [
            {
              "$type": "MoleMole.Config.SetGlobalValueV2",
              "value": 1.0,
              "key": "_WaterDetector_HitCD",
              "maxValue": 0.0,
              "GCEOGBJIFCP": 0.0
            }
          ],
          "MINFJCDAIBB": [
            {
              "$type": "MoleMole.Config.SetGlobalValueV2",
              "value": 0.0,
              "key": "_WaterDetector_HitCD",
              "maxValue": 0.0,
              "GCEOGBJIFCP": 0.0
            }
          ]
        },
        "WaterDetector_On": {
          "modifierName": "",
          "elementDurability": 100.0,
          "BNJENAIMDPL": 0.20000000298023224,
          "OAOGLLGGJPD": [
            {
              "$type": "MoleMole.Config.ServerLuaCall",
              "ACMHGHCMOIF": "SLC_HydroDetector_On",
              "param1": 0.0,
              "param2": 0.0,
              "GBOGNIOMAGM": 0.0
            },
            {
              "$type": "MoleMole.Config.SetGlobalValueV2",
              "value": 0.0,
              "key": "Detector_IsReceving",
              "maxValue": 0.0,
              "GCEOGBJIFCP": 0.0
            },
            {
              "$type": "MoleMole.Config.SetGlobalValueV2",
              "value": 0.0,
              "key": "Detector_ChargeValue",
              "maxValue": 0.0,
              "GCEOGBJIFCP": 0.0
            }
          ],
          "onBeingHit": [
            {
              "$type": "MoleMole.Config.Predicated",
              "MLDBFKEGPEF": "Target",
              "predicates": [
                {
                  "$type": "IPGGGPIJONN",
                  "MLDBFKEGPEF": "Self",
                  "key": "_WaterDetector_HitCD",
                  "value": 0.0,
                  "compareType": "NoneOrEqual"
                }
              ],
              "CKBKOCJPJMM": [
                {
                  "$type": "MIPKJILPPCP",
                  "NJPOIJLMAFI": "Water"
                }
              ],
              "successActions": [
                {
                  "$type": "MoleMole.Config.ApplyModifier",
                  "modifierName": "UNIQUE_WaterDetector_HitCD_02"
                },
                {
                  "$type": "MoleMole.Config.ApplyModifier",
                  "modifierName": "UNIQUE_WaterDetector_SelfDump_02"
                }
              ]
            }
          ],
          "PJKELBNICOI": [
            {
              "$type": "MoleMole.Config.Predicated",
              "predicates": [
                {
                  "$type": "OFEHCLIGCND",
                  "predicates": [
                    {
                      "$type": "KIHJDAIGJPH",
                      "NJPOIJLMAFI": "Water"
                    }
                  ]
                }
              ],
              "successActions": [
                {
                  "$type": "MoleMole.Config.SetGlobalValueV2",
                  "value": 0.0,
                  "key": "Detector_ChargeValue",
                  "maxValue": 0.0,
                  "GCEOGBJIFCP": 0.0
                },
                {
                  "$type": "MoleMole.Config.ChangeGadgetState"
                }
              ]
            }
          ]
        },
        "WaterDetector_HoldOn": {
          "modifierName": "",
          "elementDurability": 100.0,
          "OAOGLLGGJPD": [
            {
              "$type": "MoleMole.Config.SetGlobalValueV2",
              "value": 0.0,
              "key": "Detector_IsReceving",
              "maxValue": 0.0,
              "GCEOGBJIFCP": 0.0
            },
            {
              "$type": "MoleMole.Config.SetGlobalValueV2",
              "value": 0.0,
              "key": "Detector_ChargeValue",
              "maxValue": 0.0,
              "GCEOGBJIFCP": 0.0
            }
          ]
        },
        "WaterDetector_TurningOn_ByHasElement": {
          "modifierName": "",
          "elementDurability": 100.0,
          "BNJENAIMDPL": "WaterDetector_TurnOn_Tick",
          "PJKELBNICOI": [
            {
              "$type": "MoleMole.Config.AddGlobalValueV2",
              "value": "WaterDetector_TurnOn_Pertick",
              "key": "Detector_ChargeValue",
              "maxValue": 0.0,
              "GCEOGBJIFCP": 0.0
            }
          ]
        }
      },
      "OAOGLLGGJPD": [
        {
          "$type": "MoleMole.Config.SetGlobalValueV2",
          "value": 0.0,
          "key": "_WaterDetector_HitCD",
          "maxValue": 0.0,
          "GCEOGBJIFCP": 0.0
        },
        {
          "$type": "MoleMole.Config.SetGlobalValueV2",
          "value": 0.0,
          "key": "Detector_ChargeValue",
          "maxValue": 0.0,
          "GCEOGBJIFCP": 0.0
        },
        {
          "$type": "MoleMole.Config.ApplyModifier",
          "modifierName": "WaterDetector_Property"
        }
      ]
    }
  }
]