[
  {
    "Default": {
      "$type": "MoleMole.Config.GNKCLKNDOAK",
      "abilityName": "SceneObj_Area_Common_Property_Tree_CameraActivityOperator_01",
      "PIDAPNFJNDF": [
        {
          "$type": "MoleMole.Config.AttachToGadgetStateMixin",
          "modifierName": "Interactable"
        },
        {
          "$type": "MoleMole.Config.AttachToGadgetStateMixin",
          "MHKDFIPGJJO": 201,
          "modifierName": "Mute"
        }
      ],
      "BFBDNNJCDLH": {
        "Interactable": {
          "modifierName": "",
          "elementDurability": 100.0,
          "OAOGLLGGJPD": [
            {
              "$type": "MoleMole.Config.AttachEffect",
              "effectPattern": "Eff_SceneObj_CameraActiveOperator_01",
              "effectTempleteID": -1.0
            }
          ],
          "MINFJCDAIBB": [
            {
              "$type": "MoleMole.Config.FireEffect",
              "effectPattern": "Eff_SceneObj_CameraActiveOperator_01_Disappear",
              "effectTempleteID": -1.0
            }
          ]
        },
        "Mute": {
          "modifierName": "",
          "elementDurability": 100.0
        }
      },
      "GGGLNDFDIMI": [
        {
          "$type": "MoleMole.Config.DebugLog",
          "KNKPIGLBMEP": "TESTTESTTEST: 触发了fieldEnter！！！"
        }
      ],
      "GCBLHJHFDFA": [
        {
          "$type": "MoleMole.Config.DebugLog",
          "KNKPIGLBMEP": "TESTTESTTEST: 触发了fieldEnter！！！"
        }
      ]
    }
  },
  {
    "Default": {
      "$type": "MoleMole.Config.GNKCLKNDOAK",
      "abilityName": "SceneObj_Level_Common_Property_Ani_Prop_ReactionGem_01",
      "PIDAPNFJNDF": [
        {
          "$type": "MoleMole.Config.AttachToGadgetStateMixin",
          "modifierName": "Mute"
        },
        {
          "$type": "MoleMole.Config.AttachToGadgetStateMixin",
          "MHKDFIPGJJO": 201,
          "modifierName": "Active"
        },
        {
          "$type": "MoleMole.Config.AttachToGadgetStateMixin",
          "MHKDFIPGJJO": 202,
          "modifierName": "Burst"
        }
      ],
      "BFBDNNJCDLH": {
        "Mute": {
          "modifierName": "",
          "elementDurability": 100.0,
          "OAOGLLGGJPD": [
            {
              "$type": "MoleMole.Config.SetMaterialParamFloatByTransform",
              "BOMCOINOGJJ": "GemMat",
              "NBBNACBLOCB": "_EmissionStrength",
              "value": 2.0
            }
          ]
        },
        "Active": {
          "modifierName": "",
          "elementDurability": 100.0,
          "OAOGLLGGJPD": [
            {
              "$type": "MoleMole.Config.SetMaterialParamFloatByTransform",
              "BOMCOINOGJJ": "GemMat",
              "NBBNACBLOCB": "_EmissionStrength",
              "value": 10.0,
              "IKGKPGNHIED": true,
              "lerpCurveIndex": 1,
              "lerpTime": 1.0
            },
            {
              "$type": "MoleMole.Config.FireEffect",
              "effectPattern": "Eff_SceneObj_ReactionGem_01_Active_Once",
              "effectTempleteID": -1.0
            }
          ]
        },
        "Burst": {
          "modifierName": "",
          "elementDurability": 100.0,
          "OAOGLLGGJPD": [
            {
              "$type": "MoleMole.Config.SetMaterialParamFloatByTransform",
              "BOMCOINOGJJ": "GemMat",
              "NBBNACBLOCB": "_EmissionStrength",
              "value": 10.0
            },
            {
              "$type": "MoleMole.Config.FireEffect",
              "effectPattern": "Eff_SceneObj_ReactionGem_01_Active_Once",
              "effectTempleteID": -1.0
            },
            {
              "$type": "MoleMole.Config.AttachEffect",
              "effectPattern": "Eff_SceneObj_ReactionGem_01_Active_Loop",
              "effectTempleteID": -1.0
            }
          ]
        }
      }
    }
  },
  {
    "Default": {
      "$type": "MoleMole.Config.GNKCLKNDOAK",
      "abilityName": "SceneObj_Level_Common_Property_Ani_Prop_ReactionGem_02",
      "PIDAPNFJNDF": [
        {
          "$type": "MoleMole.Config.AttachToGadgetStateMixin",
          "modifierName": "Mute"
        },
        {
          "$type": "MoleMole.Config.AttachToGadgetStateMixin",
          "MHKDFIPGJJO": 201,
          "modifierName": "Active"
        },
        {
          "$type": "MoleMole.Config.AttachToGadgetStateMixin",
          "MHKDFIPGJJO": 202,
          "modifierName": "Burst"
        }
      ],
      "BFBDNNJCDLH": {
        "Mute": {
          "modifierName": "",
          "elementDurability": 100.0,
          "OAOGLLGGJPD": [
            {
              "$type": "MoleMole.Config.SetMaterialParamFloatByTransform",
              "BOMCOINOGJJ": "GemMat",
              "NBBNACBLOCB": "_EmissionStrength",
              "value": 2.0
            }
          ]
        },
        "Active": {
          "modifierName": "",
          "elementDurability": 100.0,
          "OAOGLLGGJPD": [
            {
              "$type": "MoleMole.Config.SetMaterialParamFloatByTransform",
              "BOMCOINOGJJ": "GemMat",
              "NBBNACBLOCB": "_EmissionStrength",
              "value": 14.0,
              "IKGKPGNHIED": true,
              "lerpCurveIndex": 1,
              "lerpTime": 1.0
            },
            {
              "$type": "MoleMole.Config.FireEffect",
              "effectPattern": "Eff_SceneObj_ReactionGem_02_Active_Once",
              "effectTempleteID": -1.0
            }
          ]
        },
        "Burst": {
          "modifierName": "",
          "elementDurability": 100.0,
          "OAOGLLGGJPD": [
            {
              "$type": "MoleMole.Config.SetMaterialParamFloatByTransform",
              "BOMCOINOGJJ": "GemMat",
              "NBBNACBLOCB": "_EmissionStrength",
              "value": 14.0
            },
            {
              "$type": "MoleMole.Config.FireEffect",
              "effectPattern": "Eff_SceneObj_ReactionGem_02_Active_Once",
              "effectTempleteID": -1.0
            },
            {
              "$type": "MoleMole.Config.AttachEffect",
              "effectPattern": "Eff_SceneObj_ReactionGem_02_Active_Loop",
              "effectTempleteID": -1.0
            }
          ]
        }
      }
    }
  },
  {
    "Default": {
      "$type": "MoleMole.Config.GNKCLKNDOAK",
      "abilityName": "SceneObj_Area_Common_Property_Ani_Decal_IrodoriPainting_02",
      "PIDAPNFJNDF": [
        {
          "$type": "MoleMole.Config.AttachToGadgetStateMixin",
          "modifierName": "Disappeared"
        },
        {
          "$type": "MoleMole.Config.AttachToGadgetStateMixin",
          "MHKDFIPGJJO": 201,
          "modifierName": "Appeared"
        },
        {
          "$type": "MoleMole.Config.AttachToGadgetStateMixin",
          "MHKDFIPGJJO": 301,
          "modifierName": "Appearing"
        },
        {
          "$type": "MoleMole.Config.AttachToGadgetStateMixin",
          "MHKDFIPGJJO": 302,
          "modifierName": "Disappearing"
        }
      ],
      "BFBDNNJCDLH": {
        "Disappeared": {
          "modifierName": "",
          "elementDurability": 100.0,
          "OAOGLLGGJPD": [
            {
              "$type": "MoleMole.Config.SetMaterialParamFloatByTransform",
              "canBeHandledOnRecover": true,
              "BOMCOINOGJJ": "OMat",
              "NBBNACBLOCB": "_Opacity",
              "value": 0.0
            }
          ],
          "onBeingHit": [
            {
              "$type": "MoleMole.Config.ExecuteGadgetLua",
              "predicates": [
                {
                  "$type": "OKIKPAGDKMB",
                  "NJPOIJLMAFI": "Water",
                  "EAPPJHPGGOE": 20.0,
                  "compareType": "MoreThan"
                }
              ],
              "param1": 301
            }
          ]
        },
        "Appeared": {
          "modifierName": "",
          "duration": 8.0,
          "elementDurability": 100.0,
          "OAOGLLGGJPD": [
            {
              "$type": "MoleMole.Config.SetMaterialParamFloatByTransform",
              "canBeHandledOnRecover": true,
              "BOMCOINOGJJ": "OMat",
              "NBBNACBLOCB": "_Opacity",
              "value": 1.0
            }
          ],
          "MINFJCDAIBB": [
            {
              "$type": "MoleMole.Config.ExecuteGadgetLua",
              "param1": 302
            }
          ]
        },
        "Appearing": {
          "modifierName": "",
          "duration": 2.0,
          "elementDurability": 100.0,
          "OAOGLLGGJPD": [
            {
              "$type": "MoleMole.Config.SetMaterialParamFloatByTransform",
              "canBeHandledOnRecover": true,
              "BOMCOINOGJJ": "OMat",
              "NBBNACBLOCB": "_Opacity",
              "value": 1.0,
              "IKGKPGNHIED": true,
              "lerpCurveIndex": 2,
              "lerpTime": 2.0
            }
          ],
          "MINFJCDAIBB": [
            {
              "$type": "MoleMole.Config.ExecuteGadgetLua",
              "param1": 201
            }
          ]
        },
        "Disappearing": {
          "modifierName": "",
          "duration": 2.0,
          "elementDurability": 100.0,
          "OAOGLLGGJPD": [
            {
              "$type": "MoleMole.Config.SetMaterialParamFloatByTransform",
              "canBeHandledOnRecover": true,
              "BOMCOINOGJJ": "OMat",
              "NBBNACBLOCB": "_Opacity",
              "value": 0.0,
              "IKGKPGNHIED": true,
              "lerpCurveIndex": 2,
              "lerpTime": 2.0
            }
          ],
          "MINFJCDAIBB": [
            {
              "$type": "MoleMole.Config.ExecuteGadgetLua"
            }
          ]
        }
      },
      "OAOGLLGGJPD": [
        {
          "$type": "MoleMole.Config.AttachAbilityStateResistance",
          "OHNGCCEOFAM": 11001
        }
      ]
    }
  }
]