{
  "luaDataPath": "",
  "isSimpleTalk": true,
  "entityBan": "",
  "disableNpcLod": true,
  "protectNpcMobileLod": true,
  "talkFlag": 7,
  "startFade": {
    "startFadeOutDuration": 0.0
  },
  "endFade": {
    "startFadeOutDuration": 0.0
  },
  "actors": [
    {
      "alias": "Avatar",
      "visible": true,
      "bornPointName": "",
      "relativePosType": "AVATAR_NEW",
      "relativePosNpcAlias": "",
      "_notDestroyInTalk": true,
      "_bindMovingTargetKey": ""
    },
    {
      "configID": 1005,
      "alias": "1005",
      "visible": true,
      "bornPointName": "",
      "useRelativePos": true,
      "relativePos": {
        "x": 0.5,
        "z": 0.5
      },
      "removeActorType": "REMOVE_WITH_DISAPPEAR",
      "relativePosType": "AVATAR_NEW",
      "relativePosNpcAlias": "",
      "_notDestroyInTalk": true,
      "_bindMovingTargetKey": ""
    },
    {
      "configID": 5337,
      "alias": "5337",
      "visible": true,
      "bornPointName": "",
      "forceCreateDaily": true,
      "relativePosType": "AVATAR_NEW",
      "relativePosNpcAlias": "",
      "_notDestroyInTalk": true,
      "_bindMovingTargetKey": ""
    }
  ],
  "group": [
    [
      {
        "$type": "MoleMole.Config.ConfigTimeProtectAction",
        "type": "TIME_PROTECT",
        "duration": 0.10000000149011612,
        "actionId": 104
      },
      {
        "$type": "IEKHMHNHENB",
        "type": "STEER_TO",
        "delayTime": 0.30000001192092896,
        "duration": 0.800000011920929,
        "aliasList": [
          "Avatar"
        ],
        "actionId": 126,
        "_flag": 32,
        "steerType": "TO_TARGET_ADVANCED",
        "useSteerAnim": true,
        "interruptFreestyle": true,
        "forceSteer": true,
        "targetNpcAlias": "5337",
        "fixInterNull": true,
        "BHGPHGNFCBF": ""
      },
      {
        "$type": "IEKHMHNHENB",
        "type": "STEER_TO",
        "delayTime": 0.30000001192092896,
        "duration": 0.800000011920929,
        "aliasList": [
          "5337"
        ],
        "actionId": 127,
        "_flag": 32,
        "steerType": "TO_LOCAL_AVATAR_ADVANCED",
        "useSteerAnim": true,
        "interruptFreestyle": true,
        "forceSteer": true,
        "targetNpcAlias": "",
        "fixInterNull": true,
        "BHGPHGNFCBF": ""
      }
    ],
    [
      {
        "$type": "MJFAIFFAGOF",
        "type": "DIALOG",
        "aliasList": [
          "1005"
        ],
        "actionId": 107,
        "dialogID": 742161603,
        "protectTime": 1.0
      }
    ],
    [
      {
        "$type": "MoleMole.Config.ConfigSimpleBlackScreenAction",
        "type": "SIMPLE_BLACK_SCREEN",
        "actionId": 109,
        "durationToBlack": 0.5,
        "durationKeepBlack": 3.0,
        "durationFromBlack": 0.5,
        "textMapID": "",
        "useTextFade": true,
        "_dialogID": 742161604,
        "_changeAudioState": true
      }
    ],
    [
      {
        "$type": "MJFAIFFAGOF",
        "type": "DIALOG",
        "aliasList": [
          "5337"
        ],
        "actionId": 112,
        "dialogID": 742161605,
        "protectTime": 0.5
      }
    ],
    [
      {
        "$type": "MJFAIFFAGOF",
        "type": "DIALOG",
        "aliasList": [
          "1005"
        ],
        "actionId": 114,
        "dialogID": 742161606,
        "protectTime": 0.5
      }
    ],
    [
      {
        "$type": "MJFAIFFAGOF",
        "type": "DIALOG",
        "aliasList": [
          "5337"
        ],
        "actionId": 116,
        "dialogID": 742161607,
        "protectTime": 0.5
      }
    ],
    [
      {
        "$type": "MJFAIFFAGOF",
        "type": "DIALOG",
        "aliasList": [
          "5337"
        ],
        "actionId": 118,
        "dialogID": 742161608,
        "protectTime": 0.5
      }
    ],
    [
      {
        "$type": "MJFAIFFAGOF",
        "type": "DIALOG",
        "aliasList": [
          "5337"
        ],
        "actionId": 120,
        "dialogID": 742161609,
        "protectTime": 0.5
      },
      {
        "$type": "OBCDECFOOBC",
        "type": "DIALOG_SELECT",
        "delayTime": 0.4000000059604645,
        "aliasList": [
          "Avatar"
        ],
        "actionId": 121,
        "dialogIDList": [
          742161610,
          742161611
        ],
        "grpIDList": [
          3544542401,
          3544542401
        ],
        "useGrpId": true,
        "countDownGrpId": 3544542392
      }
    ],
    [
      {
        "$type": "MJFAIFFAGOF",
        "type": "DIALOG",
        "aliasList": [
          "1005"
        ],
        "actionId": 123,
        "dialogID": 742161612,
        "protectTime": 0.5
      }
    ],
    [
      {
        "$type": "MJFAIFFAGOF",
        "type": "DIALOG",
        "aliasList": [
          "5337"
        ],
        "actionId": 125,
        "dialogID": 742161613,
        "protectTime": 0.5
      }
    ],
    [
      {
        "$type": "MoleMole.Config.ConfigTimeProtectAction",
        "type": "TIME_PROTECT",
        "duration": 0.10000000149011612,
        "actionId": 105
      },
      {
        "$type": "IEKHMHNHENB",
        "type": "STEER_TO",
        "duration": 1.0,
        "aliasList": [
          "5337"
        ],
        "actionId": 128,
        "_flag": 32,
        "steerType": "RETURN",
        "useSteerAnim": true,
        "interruptFreestyle": true,
        "forceSteer": true,
        "targetNpcAlias": "",
        "ignoreY": true,
        "fixInterNull": true,
        "BHGPHGNFCBF": ""
      }
    ]
  ],
  "groupId": [
    {
      "grpId": 3544542393,
      "nextGrpId": 3544542394,
      "_noCircleNextGrpId": 3544542394
    },
    {
      "index": 1,
      "grpId": 3544542394,
      "nextGrpId": 3544542395,
      "_noCircleNextGrpId": 3544542395
    },
    {
      "index": 2,
      "grpId": 3544542395,
      "nextGrpId": 3544542396,
      "_noCircleNextGrpId": 3544542396
    },
    {
      "index": 3,
      "grpId": 3544542396,
      "nextGrpId": 3544542397,
      "_noCircleNextGrpId": 3544542397
    },
    {
      "index": 4,
      "grpId": 3544542397,
      "nextGrpId": 3544542398,
      "_noCircleNextGrpId": 3544542398
    },
    {
      "index": 5,
      "grpId": 3544542398,
      "nextGrpId": 3544542399,
      "_noCircleNextGrpId": 3544542399
    },
    {
      "index": 6,
      "grpId": 3544542399,
      "nextGrpId": 3544542400,
      "_noCircleNextGrpId": 3544542400
    },
    {
      "index": 7,
      "grpId": 3544542400,
      "nextGrpId": 3544542401,
      "_noCircleNextGrpId": 3544542401
    },
    {
      "index": 8,
      "grpId": 3544542401,
      "nextGrpId": 2506631831,
      "_noCircleNextGrpId": 2506631831
    },
    {
      "index": 9,
      "grpId": 2506631831,
      "nextGrpId": 2506631832,
      "_noCircleNextGrpId": 2506631832
    },
    {
      "index": 10,
      "grpId": 2506631832,
      "nextGrpId": 2506631833,
      "_noCircleNextGrpId": 2506631833
    }
  ],
  "freeStyleDic": {
    "5337": []
  },
  "IDMJJGEMEPG": 2506631832
}