{
  "luaDataPath": "",
  "startBlackKeepTime": 0.5,
  "entityBan": "",
  "disableNpcLod": true,
  "startFade": {
    "startFadeInDuration": 0.5,
    "startFadeOutDuration": 0.5
  },
  "endFade": {
    "startFadeOutDuration": 0.0
  },
  "actors": [
    {
      "alias": "Avatar",
      "visible": true,
      "bornPointName": "Q2013Player05",
      "relativePosNpcAlias": "",
      "_bindMovingTargetKey": ""
    },
    {
      "configID": 3086,
      "alias": "3086",
      "visible": true,
      "bornPointName": "Q2013Qianli01",
      "removeActorType": "REMOVE",
      "forceCreateDaily": true,
      "relativePosNpcAlias": "",
      "_bindMovingTargetKey": ""
    },
    {
      "configID": 1005,
      "alias": "1005",
      "visible": true,
      "bornPointName": "Q2013Paimon05",
      "removeActorType": "REMOVE_WITH_DISAPPEAR",
      "relativePosNpcAlias": "",
      "_bindMovingTargetKey": ""
    }
  ],
  "group": [
    [
      {
        "$type": "MoleMole.Config.ConfigSimpleBlackScreenAction",
        "type": "SIMPLE_BLACK_SCREEN",
        "duration": 1.0,
        "durationToBlack": 0.5,
        "durationKeepBlack": 0.5,
        "durationFromBlack": 0.5,
        "textMapID": ""
      },
      {
        "$type": "MoleMole.Config.ConfigTimeProtectAction",
        "type": "TIME_PROTECT",
        "duration": 1.0
      },
      {
        "$type": "MoleMole.Config.ConfigTeleportToAction",
        "type": "TELEPORT_TO",
        "aliasList": [
          "Avatar"
        ],
        "position": {
          "x": -2486.320068359375,
          "y": 231.0364227294922,
          "z": -3862.7021484375
        },
        "forward": {
          "x": -0.9038400053977966,
          "z": 0.42787057161331177
        },
        "_posBindMovingTargetKey": "",
        "_forwardBindMovingTargetKey": ""
      },
      {
        "$type": "NPCNMEOCADD",
        "type": "LOOK_AT",
        "delayTime": 0.10000000149011612,
        "aliasList": [
          "Avatar"
        ],
        "headTurnTime": 0.5,
        "targetNpcAlias": "3086",
        "targetNpcLookAtPoint": "",
        "BHGPHGNFCBF": ""
      },
      {
        "$type": "MoleMole.Config.ConfigTeleportToAction",
        "type": "TELEPORT_TO",
        "aliasList": [
          "3086"
        ],
        "position": {
          "x": -2487.20556640625,
          "y": 231.0364227294922,
          "z": -3861.854248046875
        },
        "forward": {
          "x": 0.917549192905426,
          "z": -0.3976227045059204
        },
        "_posBindMovingTargetKey": "",
        "_forwardBindMovingTargetKey": ""
      },
      {
        "$type": "NPCNMEOCADD",
        "type": "LOOK_AT",
        "aliasList": [
          "3086"
        ],
        "enableHead": true,
        "headRotateVec": {
          "x": 107.10075378417969,
          "y": 314.84320068359375
        },
        "headTurnTime": 0.5,
        "targetNpcAlias": "Avatar",
        "targetNpcLookAtPoint": "",
        "BHGPHGNFCBF": ""
      },
      {
        "$type": "MoleMole.Config.ConfigTeleportToAction",
        "type": "TELEPORT_TO",
        "aliasList": [
          "1005"
        ],
        "position": {
          "x": -2486.02294921875,
          "y": 231.0364227294922,
          "z": -3861.6005859375
        },
        "forward": {
          "x": -0.997742772102356,
          "z": -0.06715285778045654
        },
        "_posBindMovingTargetKey": "",
        "_forwardBindMovingTargetKey": ""
      },
      {
        "$type": "NPCNMEOCADD",
        "type": "LOOK_AT",
        "delayTime": 0.10000000149011612,
        "aliasList": [
          "1005"
        ],
        "headTurnTime": 0.5,
        "targetNpcAlias": "3086",
        "targetNpcLookAtPoint": "",
        "BHGPHGNFCBF": ""
      }
    ],
    [
      {
        "$type": "EFHODGEJOHJ",
        "type": "CAMERA_MOVE",
        "delayTime": 0.10000000149011612,
        "duration": 20.0,
        "camPosOffset": {
          "x": -2482.058837890625,
          "y": 232.59661865234375,
          "z": -3865.1611328125
        },
        "camForwardTargetOffset": {
          "x": -2482.88818359375,
          "y": 232.39930725097656,
          "z": -3864.638427734375
        },
        "camFov": 30.0,
        "cameraBlendType": "EaseOutQuad",
        "MDKBPBJCMHH": {},
        "openCameraDither": false,
        "targetNpcAlias": "",
        "PHGBNNGCJKJ": "",
        "NFILMKCFHEB": "",
        "BGPNGHDAECF": ""
      },
      {
        "$type": "EFHODGEJOHJ",
        "type": "CAMERA_MOVE",
        "duration": 1.0,
        "camPosOffset": {
          "x": -2482.033203125,
          "y": 232.33082580566406,
          "z": -3865.230224609375
        },
        "camForwardTargetOffset": {
          "x": -2482.8642578125,
          "y": 232.1748504638672,
          "z": -3864.6962890625
        },
        "camFov": 30.0,
        "lerpPattern": 6,
        "cameraBlendType": "EaseInOutCubic",
        "MDKBPBJCMHH": {},
        "openCameraDither": false,
        "targetNpcAlias": "",
        "PHGBNNGCJKJ": "",
        "NFILMKCFHEB": "",
        "BGPNGHDAECF": ""
      },
      {
        "$type": "NPCNMEOCADD",
        "type": "LOOK_AT",
        "aliasList": [
          "Avatar"
        ],
        "enableHead": true,
        "headTurnTime": 0.5,
        "targetNpcAlias": "3086",
        "targetNpcLookAtPoint": "",
        "BHGPHGNFCBF": ""
      },
      {
        "$type": "EDCHPJLDKIN",
        "type": "BODY_LANG",
        "aliasList": [
          "Avatar"
        ],
        "isContinue": true,
        "forceDoFreeStyle": true,
        "canDoRepeatFreeStyle": false,
        "eventPatternSuiteKey": ""
      },
      {
        "$type": "HGDDIPABPCA",
        "type": "LOOK_AT_EYECTRL",
        "aliasList": [
          "Avatar"
        ],
        "useTargetPos": false,
        "turnTime": 1.0,
        "targetNpcAlias": "",
        "targetPoint": "Face"
      },
      {
        "$type": "ICHLNKHGCAG",
        "type": "EMO_SYNC",
        "aliasList": [
          "Avatar"
        ],
        "dataPath": "",
        "phonemePath": "Cs_Emo_Avatar_Common/Cs_Emo_Avatar_Default01",
        "emotionPath": "Cs_Emo_Avatar_Common/Cs_Emo_Avatar_Default01",
        "mateDataPath": "",
        "matePhonemePath": "",
        "mateEmotionPath": "",
        "phonemePathHashList": [
          1010565500959774114,
          17914558573000180712,
          14498871351621154070,
          14348654671849899985
        ],
        "emotionPathHashList": [
          17551147554270584215,
          11567349927864383394,
          11535483659151300012,
          3124390413002392171
        ],
        "PACNIGOOENN": "",
        "PIBDNPHIAGC": ""
      },
      {
        "$type": "MJFAIFFAGOF",
        "type": "DIALOG",
        "aliasList": [
          "3086"
        ],
        "dialogID": 20130701,
        "protectTime": 0.5
      },
      {
        "$type": "EDCHPJLDKIN",
        "type": "BODY_LANG",
        "aliasList": [
          "3086"
        ],
        "bodyLangParam": 1060,
        "forceDoFreeStyle": true,
        "canDoRepeatFreeStyle": false,
        "eventPatternSuiteKey": ""
      },
      {
        "$type": "EDCHPJLDKIN",
        "type": "BODY_LANG",
        "delayTime": 3.3483808040618896,
        "aliasList": [
          "3086"
        ],
        "isContinue": true,
        "forceDoFreeStyle": true,
        "canDoRepeatFreeStyle": false,
        "eventPatternSuiteKey": ""
      },
      {
        "$type": "ICHLNKHGCAG",
        "type": "EMO_SYNC",
        "aliasList": [
          "3086"
        ],
        "dataPath": "Cs_Emo_Avatar_Simple_Common_Set/Cs_Emo_Avatar_Talk/Cs_Emo_Avatar_MainLine/Cs_Emo_Avatar_Inazuma/Cs_Emo_20130701",
        "phonemePath": "",
        "emotionPath": "",
        "mateDataPath": "",
        "matePhonemePath": "",
        "mateEmotionPath": "",
        "dataPathHashList": [
          11383437321724383563,
          18251597466517446576,
          16095401630713816646,
          11013747703785898880
        ],
        "PACNIGOOENN": "",
        "PIBDNPHIAGC": ""
      }
    ],
    [
      {
        "$type": "MJFAIFFAGOF",
        "type": "DIALOG",
        "aliasList": [
          "3086"
        ],
        "dialogID": 20130702,
        "protectTime": 0.5
      },
      {
        "$type": "EDCHPJLDKIN",
        "type": "BODY_LANG",
        "delayTime": 1.061811089515686,
        "aliasList": [
          "3086"
        ],
        "bodyLangParam": 1172,
        "forceDoFreeStyle": true,
        "canDoRepeatFreeStyle": false,
        "eventPatternSuiteKey": ""
      },
      {
        "$type": "EDCHPJLDKIN",
        "type": "BODY_LANG",
        "aliasList": [
          "3086"
        ],
        "isContinue": true,
        "forceDoFreeStyle": true,
        "canDoRepeatFreeStyle": false,
        "eventPatternSuiteKey": ""
      },
      {
        "$type": "ICHLNKHGCAG",
        "type": "EMO_SYNC",
        "aliasList": [
          "3086"
        ],
        "dataPath": "Cs_Emo_Avatar_Simple_Common_Set/Cs_Emo_Avatar_Talk/Cs_Emo_Avatar_MainLine/Cs_Emo_Avatar_Inazuma/Cs_Emo_20130702",
        "phonemePath": "",
        "emotionPath": "",
        "mateDataPath": "",
        "matePhonemePath": "",
        "mateEmotionPath": "",
        "dataPathHashList": [
          14734249544321561319,
          10925626092266197140,
          6017197002843809144,
          12084502754968316793
        ],
        "PACNIGOOENN": "",
        "PIBDNPHIAGC": ""
      },
      {
        "$type": "EDCHPJLDKIN",
        "type": "BODY_LANG",
        "delayTime": 2.3115034103393555,
        "aliasList": [
          "3086"
        ],
        "bodyLangParam": 4030,
        "forceDoFreeStyle": true,
        "canDoRepeatFreeStyle": false,
        "eventPatternSuiteKey": ""
      }
    ],
    [
      {
        "$type": "EFHODGEJOHJ",
        "type": "CAMERA_MOVE",
        "duration": 1.0,
        "camPosOffset": {
          "x": -2486.4306640625,
          "y": 232.2614288330078,
          "z": -3860.689453125
        },
        "camForwardTargetOffset": {
          "x": -2486.172607421875,
          "y": 232.27880859375,
          "z": -3861.655517578125
        },
        "camFov": 30.0,
        "lerpPattern": 6,
        "cameraBlendType": "EaseInOutCubic",
        "MDKBPBJCMHH": {},
        "openCameraDither": false,
        "targetNpcAlias": "",
        "PHGBNNGCJKJ": "",
        "NFILMKCFHEB": "",
        "BGPNGHDAECF": ""
      },
      {
        "$type": "OBCDECFOOBC",
        "type": "DIALOG_SELECT",
        "delayTime": 0.4000000059604645,
        "aliasList": [
          "Avatar"
        ],
        "dialogIDList": [
          20130704,
          20130705
        ],
        "grpIDList": [
          3058743105,
          3058743105
        ],
        "useGrpId": true
      },
      {
        "$type": "ICHLNKHGCAG",
        "type": "EMO_SYNC",
        "aliasList": [
          "Avatar"
        ],
        "dataPath": "",
        "phonemePath": "Cs_Emo_Avatar_Common/Cs_Emo_Avatar_Smile02",
        "emotionPath": "Cs_Emo_Avatar_Common/Cs_Emo_Avatar_Normal02_B",
        "mateDataPath": "",
        "matePhonemePath": "",
        "mateEmotionPath": "",
        "phonemePathHashList": [
          15274239198195246957,
          9768209525821909755,
          14483744751478460935,
          3571615719802784112
        ],
        "emotionPathHashList": [
          10207524410485606206,
          783930019878876805,
          5913389397642645946,
          16488022828473814120
        ],
        "PACNIGOOENN": "",
        "PIBDNPHIAGC": ""
      },
      {
        "$type": "EDCHPJLDKIN",
        "type": "BODY_LANG",
        "aliasList": [
          "3086"
        ],
        "isContinue": true,
        "forceDoFreeStyle": true,
        "canDoRepeatFreeStyle": false,
        "eventPatternSuiteKey": ""
      },
      {
        "$type": "MJFAIFFAGOF",
        "type": "DIALOG",
        "aliasList": [
          "1005"
        ],
        "dialogID": 20130703,
        "protectTime": 0.5
      },
      {
        "$type": "EDCHPJLDKIN",
        "type": "BODY_LANG",
        "aliasList": [
          "1005"
        ],
        "bodyLangParam": 1260,
        "forceDoFreeStyle": true,
        "canDoRepeatFreeStyle": false,
        "eventPatternSuiteKey": ""
      },
      {
        "$type": "ICHLNKHGCAG",
        "type": "EMO_SYNC",
        "aliasList": [
          "1005"
        ],
        "dataPath": "Cs_Emo_Avatar_Simple_Common_Set/Cs_Emo_Avatar_Talk/Cs_Emo_Avatar_MainLine/Cs_Emo_Avatar_Inazuma/Cs_Emo_20130703",
        "phonemePath": "",
        "emotionPath": "",
        "mateDataPath": "",
        "matePhonemePath": "",
        "mateEmotionPath": "",
        "dataPathHashList": [
          2316442575364578923,
          10678865524566058299,
          4928120651261085438,
          14360083712533028240
        ],
        "PACNIGOOENN": "",
        "PIBDNPHIAGC": ""
      }
    ],
    [
      {
        "$type": "EFHODGEJOHJ",
        "type": "CAMERA_MOVE",
        "duration": 1.0,
        "camPosOffset": {
          "x": -2485.286865234375,
          "y": 232.47052001953125,
          "z": -3862.8154296875
        },
        "camForwardTargetOffset": {
          "x": -2486.252197265625,
          "y": 232.44290161132812,
          "z": -3862.556396484375
        },
        "camFov": 25.0,
        "lerpPattern": 6,
        "cameraBlendType": "EaseInOutCubic",
        "MDKBPBJCMHH": {},
        "openCameraDither": false,
        "targetNpcAlias": "",
        "PHGBNNGCJKJ": "",
        "NFILMKCFHEB": "",
        "BGPNGHDAECF": ""
      },
      {
        "$type": "NPCNMEOCADD",
        "type": "LOOK_AT",
        "aliasList": [
          "Avatar"
        ],
        "enableHead": true,
        "headTurnTime": 0.5,
        "targetNpcAlias": "3086",
        "targetNpcLookAtPoint": "",
        "BHGPHGNFCBF": ""
      },
      {
        "$type": "MJFAIFFAGOF",
        "type": "DIALOG",
        "aliasList": [
          "3086"
        ],
        "dialogID": 20130706,
        "protectTime": 0.5
      },
      {
        "$type": "MoleMole.Config.ConfigTeleportToAction",
        "type": "TELEPORT_TO",
        "aliasList": [
          "3086"
        ],
        "position": {
          "x": -2486.8662109375,
          "y": 231.0364227294922,
          "z": -3862.137451171875
        },
        "forward": {
          "x": 0.92919921875,
          "z": -0.4189453125
        },
        "_posBindMovingTargetKey": "",
        "_forwardBindMovingTargetKey": ""
      },
      {
        "$type": "EDCHPJLDKIN",
        "type": "BODY_LANG",
        "aliasList": [
          "3086"
        ],
        "bodyLangParam": 4040,
        "forceDoFreeStyle": true,
        "canDoRepeatFreeStyle": false,
        "eventPatternSuiteKey": ""
      },
      {
        "$type": "EDCHPJLDKIN",
        "type": "BODY_LANG",
        "aliasList": [
          "3086"
        ],
        "isContinue": true,
        "forceDoFreeStyle": true,
        "canDoRepeatFreeStyle": false,
        "eventPatternSuiteKey": ""
      },
      {
        "$type": "ICHLNKHGCAG",
        "type": "EMO_SYNC",
        "aliasList": [
          "3086"
        ],
        "dataPath": "Cs_Emo_Avatar_Simple_Common_Set/Cs_Emo_Avatar_Talk/Cs_Emo_Avatar_MainLine/Cs_Emo_Avatar_Inazuma/Cs_Emo_20130706",
        "phonemePath": "",
        "emotionPath": "",
        "mateDataPath": "",
        "matePhonemePath": "",
        "mateEmotionPath": "",
        "enableBlink": false,
        "dataPathHashList": [
          1130512358307491053,
          10169328000497073359,
          8159566963402772340,
          7363425179953930292
        ],
        "PACNIGOOENN": "",
        "PIBDNPHIAGC": ""
      },
      {
        "$type": "EDCHPJLDKIN",
        "type": "BODY_LANG",
        "delayTime": 2.5775961875915527,
        "aliasList": [
          "3086"
        ],
        "bodyLangParam": 1060,
        "forceDoFreeStyle": true,
        "canDoRepeatFreeStyle": false,
        "eventPatternSuiteKey": ""
      },
      {
        "$type": "EDCHPJLDKIN",
        "type": "BODY_LANG",
        "delayTime": 5.242103576660156,
        "aliasList": [
          "3086"
        ],
        "isContinue": true,
        "forceDoFreeStyle": true,
        "canDoRepeatFreeStyle": false,
        "eventPatternSuiteKey": ""
      },
      {
        "$type": "IEKHMHNHENB",
        "type": "STEER_TO",
        "duration": 0.800000011920929,
        "aliasList": [
          "1005"
        ],
        "steerType": "ABSOLUTE",
        "steerDir": {
          "x": -2486.697021484375,
          "y": 231.03643798828125,
          "z": -3862.5869140625
        },
        "targetNpcAlias": "",
        "BHGPHGNFCBF": ""
      },
      {
        "$type": "NPCNMEOCADD",
        "type": "LOOK_AT",
        "aliasList": [
          "1005"
        ],
        "enableHead": true,
        "headTurnTime": 0.5,
        "targetNpcAlias": "Avatar",
        "targetNpcLookAtPoint": "",
        "BHGPHGNFCBF": ""
      }
    ],
    [
      {
        "$type": "EFHODGEJOHJ",
        "type": "CAMERA_MOVE",
        "delayTime": 0.10000000149011612,
        "duration": 10.0,
        "camPosOffset": {
          "x": -2487.04541015625,
          "y": 232.5874481201172,
          "z": -3863.196044921875
        },
        "camForwardTargetOffset": {
          "x": -2486.526611328125,
          "y": 232.4166717529297,
          "z": -3862.3583984375
        },
        "camFov": 25.0,
        "cameraBlendType": "EaseOutQuad",
        "MDKBPBJCMHH": {},
        "openCameraDither": false,
        "targetNpcAlias": "",
        "PHGBNNGCJKJ": "",
        "NFILMKCFHEB": "",
        "BGPNGHDAECF": ""
      },
      {
        "$type": "EFHODGEJOHJ",
        "type": "CAMERA_MOVE",
        "duration": 1.0,
        "camPosOffset": {
          "x": -2487.147705078125,
          "y": 232.62432861328125,
          "z": -3863.359375
        },
        "camForwardTargetOffset": {
          "x": -2486.62890625,
          "y": 232.45355224609375,
          "z": -3862.521728515625
        },
        "camFov": 25.0,
        "lerpPattern": 6,
        "cameraBlendType": "EaseInOutCubic",
        "MDKBPBJCMHH": {},
        "openCameraDither": false,
        "targetNpcAlias": "",
        "PHGBNNGCJKJ": "",
        "NFILMKCFHEB": "",
        "BGPNGHDAECF": ""
      },
      {
        "$type": "NPCNMEOCADD",
        "type": "LOOK_AT",
        "aliasList": [
          "Avatar"
        ],
        "enableHead": true,
        "headRotateVec": {
          "y": -18.0
        },
        "headTurnTime": 0.20000000298023224,
        "targetNpcAlias": "",
        "lookAtTargetType": "NONE",
        "targetNpcLookAtPoint": "",
        "BHGPHGNFCBF": ""
      },
      {
        "$type": "EDCHPJLDKIN",
        "type": "BODY_LANG",
        "aliasList": [
          "3086"
        ],
        "isContinue": true,
        "forceDoFreeStyle": true,
        "canDoRepeatFreeStyle": false,
        "eventPatternSuiteKey": ""
      },
      {
        "$type": "ICHLNKHGCAG",
        "type": "EMO_SYNC",
        "aliasList": [
          "3086"
        ],
        "dataPath": "",
        "phonemePath": "Cs_Emo_NPC_Common/Cs_Emo_NPC_Smile01",
        "emotionPath": "Cs_Emo_NPC_Common/Cs_Emo_NPC_WinkA01",
        "mateDataPath": "",
        "matePhonemePath": "",
        "mateEmotionPath": "",
        "enableBlink": false,
        "phonemePathHashList": [
          16904578549667717032,
          1816638257688317738,
          5794653667040553837,
          4994398500180388018
        ],
        "emotionPathHashList": [
          3765270258116979292,
          5819579798871825639,
          6466964524325215505,
          5921498707822553356
        ],
        "PACNIGOOENN": "",
        "PIBDNPHIAGC": ""
      },
      {
        "$type": "NPCNMEOCADD",
        "type": "LOOK_AT",
        "aliasList": [
          "3086"
        ],
        "enableHead": true,
        "headRotateVec": {
          "y": 20.0
        },
        "headTurnTime": 0.20000000298023224,
        "targetNpcAlias": "",
        "lookAtTargetType": "NONE",
        "targetNpcLookAtPoint": "",
        "BHGPHGNFCBF": ""
      },
      {
        "$type": "MJFAIFFAGOF",
        "type": "DIALOG",
        "aliasList": [
          "1005"
        ],
        "dialogID": 20130707,
        "protectTime": 0.5
      },
      {
        "$type": "EDCHPJLDKIN",
        "type": "BODY_LANG",
        "aliasList": [
          "1005"
        ],
        "bodyLangParam": 1050,
        "forceDoFreeStyle": true,
        "canDoRepeatFreeStyle": false,
        "eventPatternSuiteKey": ""
      },
      {
        "$type": "NPCNMEOCADD",
        "type": "LOOK_AT",
        "delayTime": 2.299821138381958,
        "aliasList": [
          "1005"
        ],
        "enableHead": true,
        "headTurnTime": 0.5,
        "targetNpcAlias": "Avatar",
        "targetNpcLookAtPoint": "",
        "BHGPHGNFCBF": ""
      },
      {
        "$type": "ICHLNKHGCAG",
        "type": "EMO_SYNC",
        "aliasList": [
          "1005"
        ],
        "dataPath": "Cs_Emo_Avatar_Simple_Common_Set/Cs_Emo_Avatar_Talk/Cs_Emo_Avatar_MainLine/Cs_Emo_Avatar_Inazuma/Cs_Emo_20130707",
        "phonemePath": "",
        "emotionPath": "",
        "mateDataPath": "",
        "matePhonemePath": "",
        "mateEmotionPath": "",
        "dataPathHashList": [
          4339592052027057681,
          8832767339017032797,
          6281960420471120268,
          14045701134434127902
        ],
        "PACNIGOOENN": "",
        "PIBDNPHIAGC": ""
      },
      {
        "$type": "NPCNMEOCADD",
        "type": "LOOK_AT",
        "aliasList": [
          "1005"
        ],
        "enableHead": true,
        "headTurnTime": 0.5,
        "targetNpcAlias": "3086",
        "targetNpcLookAtPoint": "",
        "BHGPHGNFCBF": ""
      }
    ],
    [
      {
        "$type": "EFHODGEJOHJ",
        "type": "CAMERA_MOVE",
        "duration": 1.0,
        "camPosOffset": {
          "x": -2486.025634765625,
          "y": 232.38853454589844,
          "z": -3862.68017578125
        },
        "camForwardTargetOffset": {
          "x": -2486.830078125,
          "y": 232.57875061035156,
          "z": -3862.11767578125
        },
        "camFov": 25.0,
        "lerpPattern": 6,
        "cameraBlendType": "EaseInOutCubic",
        "MDKBPBJCMHH": {},
        "openCameraDither": false,
        "targetNpcAlias": "",
        "PHGBNNGCJKJ": "",
        "NFILMKCFHEB": "",
        "BGPNGHDAECF": ""
      },
      {
        "$type": "EFHODGEJOHJ",
        "type": "CAMERA_MOVE",
        "delayTime": 0.10000000149011612,
        "duration": 10.0,
        "camPosOffset": {
          "x": -2486.16162109375,
          "y": 232.42068481445312,
          "z": -3862.585205078125
        },
        "camForwardTargetOffset": {
          "x": -2486.966064453125,
          "y": 232.61090087890625,
          "z": -3862.022705078125
        },
        "camFov": 25.0,
        "cameraBlendType": "EaseOutQuad",
        "MDKBPBJCMHH": {},
        "openCameraDither": false,
        "targetNpcAlias": "",
        "PHGBNNGCJKJ": "",
        "NFILMKCFHEB": "",
        "BGPNGHDAECF": ""
      },
      {
        "$type": "NPCNMEOCADD",
        "type": "LOOK_AT",
        "aliasList": [
          "Avatar"
        ],
        "enableHead": true,
        "headTurnTime": 0.5,
        "targetNpcAlias": "3086",
        "targetNpcLookAtPoint": "",
        "BHGPHGNFCBF": ""
      },
      {
        "$type": "MoleMole.Config.ConfigVisibleInterAction",
        "type": "VISIBLE",
        "aliasList": [
          "Avatar"
        ],
        "_extraParam": ""
      },
      {
        "$type": "MJFAIFFAGOF",
        "type": "DIALOG",
        "aliasList": [
          "3086"
        ],
        "dialogID": 20130708,
        "protectTime": 0.5
      },
      {
        "$type": "EDCHPJLDKIN",
        "type": "BODY_LANG",
        "aliasList": [
          "3086"
        ],
        "bodyLangParam": 1130,
        "forceDoFreeStyle": true,
        "canDoRepeatFreeStyle": false,
        "eventPatternSuiteKey": ""
      },
      {
        "$type": "EDCHPJLDKIN",
        "type": "BODY_LANG",
        "delayTime": 5.001096248626709,
        "aliasList": [
          "3086"
        ],
        "bodyLangParam": 4040,
        "forceDoFreeStyle": true,
        "canDoRepeatFreeStyle": false,
        "eventPatternSuiteKey": ""
      },
      {
        "$type": "EDCHPJLDKIN",
        "type": "BODY_LANG",
        "delayTime": 2.99906325340271,
        "aliasList": [
          "3086"
        ],
        "isContinue": true,
        "forceDoFreeStyle": true,
        "canDoRepeatFreeStyle": false,
        "eventPatternSuiteKey": ""
      },
      {
        "$type": "ICHLNKHGCAG",
        "type": "EMO_SYNC",
        "aliasList": [
          "3086"
        ],
        "dataPath": "Cs_Emo_Avatar_Simple_Common_Set/Cs_Emo_Avatar_Talk/Cs_Emo_Avatar_MainLine/Cs_Emo_Avatar_Inazuma/Cs_Emo_20130708",
        "phonemePath": "",
        "emotionPath": "",
        "mateDataPath": "",
        "matePhonemePath": "",
        "mateEmotionPath": "",
        "dataPathHashList": [
          7222555063665256859,
          17224047304107454958,
          5558679055262110451,
          9739025857533341377
        ],
        "PACNIGOOENN": "",
        "PIBDNPHIAGC": ""
      }
    ],
    [
      {
        "$type": "EFHODGEJOHJ",
        "type": "CAMERA_MOVE",
        "duration": 1.0,
        "camPosOffset": {
          "x": -2484.765380859375,
          "y": 232.38092041015625,
          "z": -3861.182861328125
        },
        "camForwardTargetOffset": {
          "x": -2485.654296875,
          "y": 232.3802947998047,
          "z": -3861.640869140625
        },
        "camFov": 30.0,
        "lerpPattern": 6,
        "cameraBlendType": "EaseInOutCubic",
        "MDKBPBJCMHH": {},
        "openCameraDither": false,
        "targetNpcAlias": "",
        "PHGBNNGCJKJ": "",
        "NFILMKCFHEB": "",
        "BGPNGHDAECF": ""
      },
      {
        "$type": "MoleMole.Config.ConfigVisibleInterAction",
        "type": "VISIBLE",
        "aliasList": [
          "Avatar"
        ],
        "isVisible": true,
        "_extraParam": ""
      },
      {
        "$type": "NPCNMEOCADD",
        "type": "LOOK_AT",
        "aliasList": [
          "Avatar"
        ],
        "enableHead": true,
        "headTurnTime": 0.5,
        "targetNpcAlias": "3086",
        "targetNpcLookAtPoint": "",
        "BHGPHGNFCBF": ""
      },
      {
        "$type": "EDCHPJLDKIN",
        "type": "BODY_LANG",
        "aliasList": [
          "3086"
        ],
        "isContinue": true,
        "forceDoFreeStyle": true,
        "canDoRepeatFreeStyle": false,
        "eventPatternSuiteKey": ""
      },
      {
        "$type": "NPCNMEOCADD",
        "type": "LOOK_AT",
        "aliasList": [
          "3086"
        ],
        "enableHead": true,
        "headTurnTime": 0.5,
        "targetNpcAlias": "Avatar",
        "targetNpcLookAtPoint": "",
        "BHGPHGNFCBF": ""
      },
      {
        "$type": "MJFAIFFAGOF",
        "type": "DIALOG",
        "aliasList": [
          "1005"
        ],
        "dialogID": 20130709,
        "protectTime": 0.5
      },
      {
        "$type": "EDCHPJLDKIN",
        "type": "BODY_LANG",
        "aliasList": [
          "1005"
        ],
        "bodyLangParam": 1040,
        "forceDoFreeStyle": true,
        "canDoRepeatFreeStyle": false,
        "eventPatternSuiteKey": ""
      },
      {
        "$type": "NPCNMEOCADD",
        "type": "LOOK_AT",
        "aliasList": [
          "1005"
        ],
        "enableHead": true,
        "headTurnTime": 0.5,
        "targetNpcAlias": "3086",
        "targetNpcLookAtPoint": "",
        "BHGPHGNFCBF": ""
      },
      {
        "$type": "ICHLNKHGCAG",
        "type": "EMO_SYNC",
        "aliasList": [
          "1005"
        ],
        "dataPath": "Cs_Emo_Avatar_Simple_Common_Set/Cs_Emo_Avatar_Talk/Cs_Emo_Avatar_MainLine/Cs_Emo_Avatar_Inazuma/Cs_Emo_20130709",
        "phonemePath": "",
        "emotionPath": "",
        "mateDataPath": "",
        "matePhonemePath": "",
        "mateEmotionPath": "",
        "dataPathHashList": [
          17694483800823770647,
          12995498049498618403,
          7495677067217370845,
          2470440536755674793
        ],
        "PACNIGOOENN": "",
        "PIBDNPHIAGC": ""
      }
    ],
    [
      {
        "$type": "EFHODGEJOHJ",
        "type": "CAMERA_MOVE",
        "duration": 1.0,
        "camPosOffset": {
          "x": -2487.57421875,
          "y": 232.6657257080078,
          "z": -3862.183837890625
        },
        "camForwardTargetOffset": {
          "x": -2486.611328125,
          "y": 232.45079040527344,
          "z": -3862.34765625
        },
        "camFov": 25.0,
        "lerpPattern": 6,
        "cameraBlendType": "EaseInOutCubic",
        "MDKBPBJCMHH": {},
        "openCameraDither": false,
        "targetNpcAlias": "",
        "PHGBNNGCJKJ": "",
        "NFILMKCFHEB": "",
        "BGPNGHDAECF": ""
      },
      {
        "$type": "OBCDECFOOBC",
        "type": "DIALOG_SELECT",
        "delayTime": 3.799999952316284,
        "aliasList": [
          "Avatar"
        ],
        "dialogIDList": [
          20130711,
          20130712
        ],
        "grpIDList": [
          331755667,
          331755667
        ],
        "useGrpId": true
      },
      {
        "$type": "ICHLNKHGCAG",
        "type": "EMO_SYNC",
        "delayTime": 3.0,
        "aliasList": [
          "Avatar"
        ],
        "dataPath": "",
        "phonemePath": "Cs_Emo_Avatar_Common/Cs_Emo_Avatar_E",
        "emotionPath": "Cs_Emo_Avatar_Common/Cs_Emo_Avatar_Gentle03_B",
        "mateDataPath": "",
        "matePhonemePath": "",
        "mateEmotionPath": "",
        "phonemePathHashList": [
          10815805571552082420,
          12429370217103288127,
          3063755663869121798,
          8984089751187222091
        ],
        "emotionPathHashList": [
          17725315554403610697,
          9804002130209517257,
          6808173280887363693,
          2427898717475203145
        ],
        "PACNIGOOENN": "",
        "PIBDNPHIAGC": ""
      },
      {
        "$type": "MJFAIFFAGOF",
        "type": "DIALOG",
        "aliasList": [
          "3086"
        ],
        "dialogID": 20130710,
        "protectTime": 4.0
      },
      {
        "$type": "MoleMole.Config.ConfigTeleportToAction",
        "type": "TELEPORT_TO",
        "aliasList": [
          "3086"
        ],
        "position": {
          "x": -2486.8662109375,
          "y": 231.0364227294922,
          "z": -3862.137451171875
        },
        "forward": {
          "x": 0.9621075391769409,
          "z": -0.27267026901245117
        },
        "_posBindMovingTargetKey": "",
        "_forwardBindMovingTargetKey": ""
      },
      {
        "$type": "EDCHPJLDKIN",
        "type": "BODY_LANG",
        "aliasList": [
          "3086"
        ],
        "bodyLangParam": 1090,
        "forceDoFreeStyle": true,
        "canDoRepeatFreeStyle": false,
        "eventPatternSuiteKey": ""
      },
      {
        "$type": "ICHLNKHGCAG",
        "type": "EMO_SYNC",
        "aliasList": [
          "3086"
        ],
        "dataPath": "Cs_Emo_Avatar_Simple_Common_Set/Cs_Emo_Avatar_Talk/Cs_Emo_Avatar_MainLine/Cs_Emo_Avatar_Inazuma/Cs_Emo_20130710",
        "phonemePath": "",
        "emotionPath": "",
        "mateDataPath": "",
        "matePhonemePath": "",
        "mateEmotionPath": "",
        "dataPathHashList": [
          2167873736731906483,
          8871219224177390186,
          8916029916214879597,
          4861095447023838401
        ],
        "PACNIGOOENN": "",
        "PIBDNPHIAGC": ""
      },
      {
        "$type": "EDCHPJLDKIN",
        "type": "BODY_LANG",
        "aliasList": [
          "1005"
        ],
        "isContinue": true,
        "forceDoFreeStyle": true,
        "canDoRepeatFreeStyle": false,
        "eventPatternSuiteKey": ""
      }
    ],
    [
      {
        "$type": "EFHODGEJOHJ",
        "type": "CAMERA_MOVE",
        "delayTime": 0.4000000059604645,
        "duration": 1.0,
        "camPosOffset": {
          "x": -2486.061279296875,
          "y": 232.21426391601562,
          "z": -3864.0244140625
        },
        "camForwardTargetOffset": {
          "x": -2486.1337890625,
          "y": 232.20164489746094,
          "z": -3863.027099609375
        },
        "camFov": 20.0,
        "lerpPattern": 6,
        "cameraBlendType": "EaseInOutCubic",
        "MDKBPBJCMHH": {},
        "openCameraDither": false,
        "targetNpcAlias": "",
        "PHGBNNGCJKJ": "",
        "NFILMKCFHEB": "",
        "BGPNGHDAECF": ""
      },
      {
        "$type": "IEKHMHNHENB",
        "type": "STEER_TO",
        "duration": 1.0,
        "aliasList": [
          "Avatar"
        ],
        "steerType": "ABSOLUTE",
        "steerDir": {
          "x": -2485.42919921875,
          "y": 231.0364227294922,
          "z": -3862.937744140625
        },
        "useSteerAnim": true,
        "targetNpcAlias": "",
        "BHGPHGNFCBF": ""
      },
      {
        "$type": "MoleMole.Config.ConfigMoveToAction",
        "type": "MOVE_TO",
        "delayTime": 0.9683690071105957,
        "aliasList": [
          "Avatar"
        ],
        "moveType": "WALK",
        "routeList": [
          {
            "x": -2484.862548828125,
            "y": 230.90811157226562,
            "z": -3863.12060546875
          }
        ],
        "_bindMovingTargetKey": ""
      },
      {
        "$type": "NPCNMEOCADD",
        "type": "LOOK_AT",
        "aliasList": [
          "Avatar"
        ],
        "headTurnTime": 0.5,
        "targetNpcAlias": "",
        "lookAtTargetType": "NONE",
        "targetNpcLookAtPoint": "",
        "BHGPHGNFCBF": ""
      },
      {
        "$type": "ICHLNKHGCAG",
        "type": "EMO_SYNC",
        "aliasList": [
          "Avatar"
        ],
        "dataPath": "",
        "phonemePath": "Cs_Emo_Avatar_Common/Cs_Emo_Avatar_Angry01",
        "emotionPath": "Cs_Emo_Avatar_Common/Cs_Emo_Avatar_LowClosed03",
        "mateDataPath": "",
        "matePhonemePath": "",
        "mateEmotionPath": "",
        "enableBlink": false,
        "phonemePathHashList": [
          14296606849723709100,
          5508348580450379567,
          7627497203169383327,
          8979581647593659876
        ],
        "emotionPathHashList": [
          4578083158145212847,
          13541061040993653912,
          5783149225970675472,
          15726026895739775518
        ],
        "PACNIGOOENN": "",
        "PIBDNPHIAGC": ""
      },
      {
        "$type": "EDCHPJLDKIN",
        "type": "BODY_LANG",
        "aliasList": [
          "3086"
        ],
        "isContinue": true,
        "forceDoFreeStyle": true,
        "canDoRepeatFreeStyle": false,
        "eventPatternSuiteKey": ""
      },
      {
        "$type": "MJFAIFFAGOF",
        "type": "DIALOG",
        "aliasList": [
          "1005"
        ],
        "dialogID": 20130713,
        "protectTime": 1.0
      },
      {
        "$type": "EDCHPJLDKIN",
        "type": "BODY_LANG",
        "aliasList": [
          "1005"
        ],
        "bodyLangParam": 1300,
        "forceDoFreeStyle": true,
        "canDoRepeatFreeStyle": false,
        "eventPatternSuiteKey": ""
      },
      {
        "$type": "EDCHPJLDKIN",
        "type": "BODY_LANG",
        "delayTime": 2.766892433166504,
        "aliasList": [
          "1005"
        ],
        "bodyLangParam": 1110,
        "forceDoFreeStyle": true,
        "canDoRepeatFreeStyle": false,
        "eventPatternSuiteKey": ""
      },
      {
        "$type": "ICHLNKHGCAG",
        "type": "EMO_SYNC",
        "aliasList": [
          "1005"
        ],
        "dataPath": "Cs_Emo_Avatar_Simple_Common_Set/Cs_Emo_Avatar_Talk/Cs_Emo_Avatar_MainLine/Cs_Emo_Avatar_Inazuma/Cs_Emo_20130713",
        "phonemePath": "",
        "emotionPath": "",
        "mateDataPath": "",
        "matePhonemePath": "",
        "mateEmotionPath": "",
        "dataPathHashList": [
          13446779537592150857,
          15310325153657503290,
          16681539303959744863,
          4607911319087368095
        ],
        "PACNIGOOENN": "",
        "PIBDNPHIAGC": ""
      }
    ],
    [
      {
        "$type": "EFHODGEJOHJ",
        "type": "CAMERA_MOVE",
        "duration": 1.0,
        "camPosOffset": {
          "x": -2484.72802734375,
          "y": 232.32937622070312,
          "z": -3863.0849609375
        },
        "camForwardTargetOffset": {
          "x": -2485.703857421875,
          "y": 232.33175659179688,
          "z": -3862.866455078125
        },
        "camFov": 25.0,
        "lerpPattern": 6,
        "cameraBlendType": "EaseInOutCubic",
        "MDKBPBJCMHH": {},
        "openCameraDither": false,
        "targetNpcAlias": "",
        "PHGBNNGCJKJ": "",
        "NFILMKCFHEB": "",
        "BGPNGHDAECF": ""
      },
      {
        "$type": "NPCNMEOCADD",
        "type": "LOOK_AT",
        "delayTime": 0.550568699836731,
        "aliasList": [
          "Avatar"
        ],
        "enableHead": true,
        "headRotateVec": {
          "x": -15.0,
          "y": 15.0
        },
        "headTurnTime": 0.5,
        "targetNpcAlias": "",
        "lookAtTargetType": "NONE",
        "targetNpcLookAtPoint": "",
        "BHGPHGNFCBF": ""
      },
      {
        "$type": "MoleMole.Config.ConfigTeleportToAction",
        "type": "TELEPORT_TO",
        "aliasList": [
          "Avatar"
        ],
        "position": {
          "x": -2485.57470703125,
          "y": 231.0933380126953,
          "z": -3862.971435546875
        },
        "forward": {
          "x": 0.9410065412521362,
          "z": -0.3383890390396118
        },
        "_posBindMovingTargetKey": "",
        "_forwardBindMovingTargetKey": ""
      },
      {
        "$type": "ICHLNKHGCAG",
        "type": "EMO_SYNC",
        "aliasList": [
          "Avatar"
        ],
        "dataPath": "",
        "phonemePath": "Cs_Emo_Avatar_Common/Cs_Emo_Avatar_Angry01",
        "emotionPath": "Cs_Emo_Avatar_Common/Cs_Emo_Avatar_Normal05_B",
        "mateDataPath": "",
        "matePhonemePath": "",
        "mateEmotionPath": "",
        "phonemePathHashList": [
          14296606849723709100,
          5508348580450379567,
          7627497203169383327,
          8979581647593659876
        ],
        "emotionPathHashList": [
          6620998161488745944,
          11862335174870937635,
          10561129588811636574,
          3173415388368082309
        ],
        "PACNIGOOENN": "",
        "PIBDNPHIAGC": ""
      },
      {
        "$type": "HGDDIPABPCA",
        "type": "LOOK_AT_EYECTRL",
        "aliasList": [
          "Avatar"
        ],
        "useTargetPos": false,
        "eyeRotateVecLeft": {
          "x": -5.0
        },
        "eyeRotateVecRight": {
          "x": -5.0
        },
        "turnTime": 1.0,
        "targetNpcAlias": "",
        "targetPoint": "Face"
      },
      {
        "$type": "MJFAIFFAGOF",
        "type": "DIALOG",
        "aliasList": [
          "3086"
        ],
        "dialogID": 20130714,
        "protectTime": 0.5
      },
      {
        "$type": "EDCHPJLDKIN",
        "type": "BODY_LANG",
        "aliasList": [
          "3086"
        ],
        "bodyLangParam": 1060,
        "forceDoFreeStyle": true,
        "canDoRepeatFreeStyle": false,
        "eventPatternSuiteKey": ""
      },
      {
        "$type": "ICHLNKHGCAG",
        "type": "EMO_SYNC",
        "aliasList": [
          "3086"
        ],
        "dataPath": "Cs_Emo_Avatar_Simple_Common_Set/Cs_Emo_Avatar_Talk/Cs_Emo_Avatar_MainLine/Cs_Emo_Avatar_Inazuma/Cs_Emo_20130714",
        "phonemePath": "",
        "emotionPath": "",
        "mateDataPath": "",
        "matePhonemePath": "",
        "mateEmotionPath": "",
        "dataPathHashList": [
          2455781179635109224,
          6974905749197623170,
          12995556766974839654,
          17521427009685679160
        ],
        "PACNIGOOENN": "",
        "PIBDNPHIAGC": ""
      },
      {
        "$type": "EDCHPJLDKIN",
        "type": "BODY_LANG",
        "aliasList": [
          "1005"
        ],
        "isContinue": true,
        "forceDoFreeStyle": true,
        "canDoRepeatFreeStyle": false,
        "eventPatternSuiteKey": ""
      }
    ],
    [
      {
        "$type": "ICHLNKHGCAG",
        "type": "EMO_SYNC",
        "aliasList": [
          "Avatar"
        ],
        "dataPath": "",
        "phonemePath": "Cs_Emo_Avatar_Common/Cs_Emo_Avatar_Angry01",
        "emotionPath": "Cs_Emo_Avatar_Common/Cs_Emo_Avatar_Normal05_B",
        "mateDataPath": "",
        "matePhonemePath": "",
        "mateEmotionPath": "",
        "phonemePathHashList": [
          14296606849723709100,
          5508348580450379567,
          7627497203169383327,
          8979581647593659876
        ],
        "emotionPathHashList": [
          6620998161488745944,
          11862335174870937635,
          10561129588811636574,
          3173415388368082309
        ],
        "PACNIGOOENN": "",
        "PIBDNPHIAGC": ""
      },
      {
        "$type": "MJFAIFFAGOF",
        "type": "DIALOG",
        "aliasList": [
          "3086"
        ],
        "dialogID": 20130715,
        "protectTime": 0.5
      },
      {
        "$type": "EDCHPJLDKIN",
        "type": "BODY_LANG",
        "aliasList": [
          "3086"
        ],
        "isContinue": true,
        "forceDoFreeStyle": true,
        "canDoRepeatFreeStyle": false,
        "eventPatternSuiteKey": ""
      },
      {
        "$type": "EDCHPJLDKIN",
        "type": "BODY_LANG",
        "delayTime": 4.843672752380371,
        "aliasList": [
          "3086"
        ],
        "bodyLangParam": 1130,
        "forceDoFreeStyle": true,
        "canDoRepeatFreeStyle": false,
        "eventPatternSuiteKey": ""
      },
      {
        "$type": "EDCHPJLDKIN",
        "type": "BODY_LANG",
        "delayTime": 0.9716150760650635,
        "aliasList": [
          "3086"
        ],
        "bodyLangParam": 1172,
        "forceDoFreeStyle": true,
        "canDoRepeatFreeStyle": false,
        "eventPatternSuiteKey": ""
      },
      {
        "$type": "NPCNMEOCADD",
        "type": "LOOK_AT",
        "delayTime": 4.806042671203613,
        "aliasList": [
          "3086"
        ],
        "enableHead": true,
        "headRotateVec": {
          "y": 20.0
        },
        "headTurnTime": 0.5,
        "targetNpcAlias": "",
        "targetNpcLookAtPoint": "",
        "BHGPHGNFCBF": ""
      },
      {
        "$type": "ICHLNKHGCAG",
        "type": "EMO_SYNC",
        "aliasList": [
          "3086"
        ],
        "dataPath": "Cs_Emo_Avatar_Simple_Common_Set/Cs_Emo_Avatar_Talk/Cs_Emo_Avatar_MainLine/Cs_Emo_Avatar_Inazuma/Cs_Emo_20130715",
        "phonemePath": "",
        "emotionPath": "",
        "mateDataPath": "",
        "matePhonemePath": "",
        "mateEmotionPath": "",
        "dataPathHashList": [
          13499373978348911784,
          1055550758589123859,
          4354001110689226132,
          8901650554848930585
        ],
        "PACNIGOOENN": "",
        "PIBDNPHIAGC": ""
      },
      {
        "$type": "NPCNMEOCADD",
        "type": "LOOK_AT",
        "delayTime": 2.266131639480591,
        "aliasList": [
          "3086"
        ],
        "enableHead": true,
        "headTurnTime": 0.5,
        "targetNpcAlias": "Avatar",
        "targetNpcLookAtPoint": "",
        "BHGPHGNFCBF": ""
      },
      {
        "$type": "NPCNMEOCADD",
        "type": "LOOK_AT",
        "aliasList": [
          "3086"
        ],
        "enableHead": true,
        "headTurnTime": 0.5,
        "targetNpcAlias": "1005",
        "targetNpcLookAtPoint": "",
        "BHGPHGNFCBF": ""
      }
    ],
    [
      {
        "$type": "EFHODGEJOHJ",
        "type": "CAMERA_MOVE",
        "delayTime": 0.10000000149011612,
        "duration": 40.0,
        "camPosOffset": {
          "x": -2488.350341796875,
          "y": 231.5663299560547,
          "z": -3854.095947265625
        },
        "camForwardTargetOffset": {
          "x": -2488.03955078125,
          "y": 231.57171630859375,
          "z": -3855.04638671875
        },
        "camFov": 30.0,
        "cameraBlendType": "EaseOutQuad",
        "MDKBPBJCMHH": {},
        "openCameraDither": false,
        "targetNpcAlias": "",
        "PHGBNNGCJKJ": "",
        "NFILMKCFHEB": "",
        "BGPNGHDAECF": ""
      },
      {
        "$type": "EFHODGEJOHJ",
        "type": "CAMERA_MOVE",
        "duration": 1.0,
        "camPosOffset": {
          "x": -2489.290283203125,
          "y": 231.4839630126953,
          "z": -3854.46142578125
        },
        "camForwardTargetOffset": {
          "x": -2488.878662109375,
          "y": 231.49534606933594,
          "z": -3855.372802734375
        },
        "camFov": 30.0,
        "lerpPattern": 6,
        "cameraBlendType": "EaseInOutCubic",
        "MDKBPBJCMHH": {},
        "openCameraDither": false,
        "targetNpcAlias": "",
        "PHGBNNGCJKJ": "",
        "NFILMKCFHEB": "",
        "BGPNGHDAECF": ""
      },
      {
        "$type": "IEKHMHNHENB",
        "type": "STEER_TO",
        "duration": 1.0,
        "aliasList": [
          "Avatar"
        ],
        "steerType": "ABSOLUTE",
        "steerDir": {
          "x": -2486.3232421875,
          "y": 231.0933380126953,
          "z": -3862.4697265625
        },
        "useSteerAnim": true,
        "targetNpcAlias": "",
        "BHGPHGNFCBF": ""
      },
      {
        "$type": "ICHLNKHGCAG",
        "type": "EMO_SYNC",
        "aliasList": [
          "Avatar"
        ],
        "dataPath": "",
        "phonemePath": "Cs_Emo_Avatar_Common/Cs_Emo_Avatar_Angry02",
        "emotionPath": "Cs_Emo_Avatar_Common/Cs_Emo_Avatar_Sweat03",
        "mateDataPath": "",
        "matePhonemePath": "",
        "mateEmotionPath": "",
        "phonemePathHashList": [
          9079369598195085523,
          12257893830083629476,
          17312525641519871385,
          8522458870559476085
        ],
        "emotionPathHashList": [
          47487495523196665,
          18430600206889498036,
          4132855576842028565,
          16631225980017358081
        ],
        "PACNIGOOENN": "",
        "PIBDNPHIAGC": ""
      },
      {
        "$type": "NPCNMEOCADD",
        "type": "LOOK_AT",
        "aliasList": [
          "Avatar"
        ],
        "headTurnTime": 0.5,
        "targetNpcAlias": "",
        "lookAtTargetType": "NONE",
        "targetNpcLookAtPoint": "",
        "BHGPHGNFCBF": ""
      },
      {
        "$type": "HGDDIPABPCA",
        "type": "LOOK_AT_EYECTRL",
        "aliasList": [
          "Avatar"
        ],
        "useTargetPos": false,
        "turnTime": 1.0,
        "targetNpcAlias": "",
        "targetPoint": "Face"
      },
      {
        "$type": "MJFAIFFAGOF",
        "type": "DIALOG",
        "aliasList": [
          "3086"
        ],
        "dialogID": 20130716,
        "protectTime": 1.0
      },
      {
        "$type": "EDCHPJLDKIN",
        "type": "BODY_LANG",
        "aliasList": [
          "3086"
        ],
        "isContinue": true,
        "forceDoFreeStyle": true,
        "canDoRepeatFreeStyle": false,
        "eventPatternSuiteKey": ""
      },
      {
        "$type": "NPCNMEOCADD",
        "type": "LOOK_AT",
        "delayTime": 6.684642791748047,
        "aliasList": [
          "3086"
        ],
        "enableHead": true,
        "headRotateVec": {
          "y": 20.0
        },
        "headTurnTime": 0.5,
        "targetNpcAlias": "",
        "targetNpcLookAtPoint": "",
        "BHGPHGNFCBF": ""
      },
      {
        "$type": "NPCNMEOCADD",
        "type": "LOOK_AT",
        "aliasList": [
          "3086"
        ],
        "enableHead": true,
        "headTurnTime": 0.5,
        "targetNpcAlias": "Avatar",
        "targetNpcLookAtPoint": "",
        "BHGPHGNFCBF": ""
      },
      {
        "$type": "EDCHPJLDKIN",
        "type": "BODY_LANG",
        "delayTime": 6.655609607696533,
        "aliasList": [
          "3086"
        ],
        "bodyLangParam": 1130,
        "forceDoFreeStyle": true,
        "canDoRepeatFreeStyle": false,
        "eventPatternSuiteKey": ""
      },
      {
        "$type": "ICHLNKHGCAG",
        "type": "EMO_SYNC",
        "aliasList": [
          "3086"
        ],
        "dataPath": "Cs_Emo_Avatar_Simple_Common_Set/Cs_Emo_Avatar_Talk/Cs_Emo_Avatar_MainLine/Cs_Emo_Avatar_Inazuma/Cs_Emo_20130716",
        "phonemePath": "",
        "emotionPath": "",
        "mateDataPath": "",
        "matePhonemePath": "",
        "mateEmotionPath": "",
        "dataPathHashList": [
          5120637945687405854,
          11485948947227914817,
          18339179908245991822,
          10804779245225923347
        ],
        "PACNIGOOENN": "",
        "PIBDNPHIAGC": ""
      },
      {
        "$type": "EDCHPJLDKIN",
        "type": "BODY_LANG",
        "delayTime": 2.131079912185669,
        "aliasList": [
          "3086"
        ],
        "bodyLangParam": 1172,
        "forceDoFreeStyle": true,
        "canDoRepeatFreeStyle": false,
        "eventPatternSuiteKey": ""
      }
    ],
    [
      {
        "$type": "MJFAIFFAGOF",
        "type": "DIALOG",
        "aliasList": [
          "3086"
        ],
        "dialogID": 20130717,
        "protectTime": 0.5
      },
      {
        "$type": "EDCHPJLDKIN",
        "type": "BODY_LANG",
        "delayTime": 0.705446720123291,
        "aliasList": [
          "3086"
        ],
        "bodyLangParam": 4040,
        "forceDoFreeStyle": true,
        "canDoRepeatFreeStyle": false,
        "eventPatternSuiteKey": ""
      },
      {
        "$type": "EDCHPJLDKIN",
        "type": "BODY_LANG",
        "delayTime": 3.6745033264160156,
        "aliasList": [
          "3086"
        ],
        "bodyLangParam": 1172,
        "forceDoFreeStyle": true,
        "canDoRepeatFreeStyle": false,
        "eventPatternSuiteKey": ""
      },
      {
        "$type": "NPCNMEOCADD",
        "type": "LOOK_AT",
        "delayTime": 3.720393657684326,
        "aliasList": [
          "3086"
        ],
        "enableHead": true,
        "headTurnTime": 0.5,
        "targetNpcAlias": "Avatar",
        "targetNpcLookAtPoint": "",
        "BHGPHGNFCBF": ""
      },
      {
        "$type": "EDCHPJLDKIN",
        "type": "BODY_LANG",
        "aliasList": [
          "3086"
        ],
        "isContinue": true,
        "forceDoFreeStyle": true,
        "canDoRepeatFreeStyle": false,
        "eventPatternSuiteKey": ""
      },
      {
        "$type": "ICHLNKHGCAG",
        "type": "EMO_SYNC",
        "aliasList": [
          "3086"
        ],
        "dataPath": "Cs_Emo_Avatar_Simple_Common_Set/Cs_Emo_Avatar_Talk/Cs_Emo_Avatar_MainLine/Cs_Emo_Avatar_Inazuma/Cs_Emo_20130717",
        "phonemePath": "",
        "emotionPath": "",
        "mateDataPath": "",
        "matePhonemePath": "",
        "mateEmotionPath": "",
        "dataPathHashList": [
          3663820194069929112,
          10458402570387516820,
          12284595060833681939,
          15175764191169440843
        ],
        "PACNIGOOENN": "",
        "PIBDNPHIAGC": ""
      }
    ],
    [
      {
        "$type": "EFHODGEJOHJ",
        "type": "CAMERA_MOVE",
        "duration": 1.0,
        "camPosOffset": {
          "x": -2486.648681640625,
          "y": 232.36080932617188,
          "z": -3862.559814453125
        },
        "camForwardTargetOffset": {
          "x": -2486.173095703125,
          "y": 232.24644470214844,
          "z": -3861.687744140625
        },
        "camFov": 30.0,
        "lerpPattern": 6,
        "cameraBlendType": "EaseInOutCubic",
        "MDKBPBJCMHH": {},
        "openCameraDither": false,
        "targetNpcAlias": "",
        "PHGBNNGCJKJ": "",
        "NFILMKCFHEB": "",
        "BGPNGHDAECF": ""
      },
      {
        "$type": "ICHLNKHGCAG",
        "type": "EMO_SYNC",
        "aliasList": [
          "Avatar"
        ],
        "dataPath": "",
        "phonemePath": "Cs_Emo_Avatar_Common/Cs_Emo_Avatar_Default01",
        "emotionPath": "Cs_Emo_Avatar_Common/Cs_Emo_Avatar_Default01",
        "mateDataPath": "",
        "matePhonemePath": "",
        "mateEmotionPath": "",
        "phonemePathHashList": [
          1010565500959774114,
          17914558573000180712,
          14498871351621154070,
          14348654671849899985
        ],
        "emotionPathHashList": [
          17551147554270584215,
          11567349927864383394,
          11535483659151300012,
          3124390413002392171
        ],
        "PACNIGOOENN": "",
        "PIBDNPHIAGC": ""
      },
      {
        "$type": "MJFAIFFAGOF",
        "type": "DIALOG",
        "aliasList": [
          "1005"
        ],
        "dialogID": 20130718,
        "protectTime": 0.5
      },
      {
        "$type": "EDCHPJLDKIN",
        "type": "BODY_LANG",
        "aliasList": [
          "1005"
        ],
        "bodyLangParam": 1190,
        "forceDoFreeStyle": true,
        "canDoRepeatFreeStyle": false,
        "eventPatternSuiteKey": ""
      },
      {
        "$type": "NPCNMEOCADD",
        "type": "LOOK_AT",
        "aliasList": [
          "1005"
        ],
        "enableHead": true,
        "headTurnTime": 0.5,
        "targetNpcAlias": "3086",
        "targetNpcLookAtPoint": "",
        "BHGPHGNFCBF": ""
      },
      {
        "$type": "ICHLNKHGCAG",
        "type": "EMO_SYNC",
        "aliasList": [
          "1005"
        ],
        "dataPath": "Cs_Emo_Avatar_Simple_Common_Set/Cs_Emo_Avatar_Talk/Cs_Emo_Avatar_MainLine/Cs_Emo_Avatar_Inazuma/Cs_Emo_20130718",
        "phonemePath": "",
        "emotionPath": "",
        "mateDataPath": "",
        "matePhonemePath": "",
        "mateEmotionPath": "",
        "dataPathHashList": [
          1192037231617254491,
          9245901292965296523,
          11632203553035823432,
          18074919454830842484
        ],
        "PACNIGOOENN": "",
        "PIBDNPHIAGC": ""
      }
    ],
    [
      {
        "$type": "EFHODGEJOHJ",
        "type": "CAMERA_MOVE",
        "delayTime": 0.10000000149011612,
        "duration": 10.0,
        "camPosOffset": {
          "x": -2484.033203125,
          "y": 232.02200317382812,
          "z": -3862.821533203125
        },
        "camForwardTargetOffset": {
          "x": -2485.01171875,
          "y": 232.05438232421875,
          "z": -3862.617919921875
        },
        "camFov": 30.0,
        "cameraBlendType": "EaseOutQuad",
        "MDKBPBJCMHH": {},
        "openCameraDither": false,
        "targetNpcAlias": "",
        "PHGBNNGCJKJ": "",
        "NFILMKCFHEB": "",
        "BGPNGHDAECF": ""
      },
      {
        "$type": "EFHODGEJOHJ",
        "type": "CAMERA_MOVE",
        "delayTime": 0.03601780906319618,
        "duration": 1.0,
        "camPosOffset": {
          "x": -2483.743408203125,
          "y": 232.01242065429688,
          "z": -3862.8818359375
        },
        "camForwardTargetOffset": {
          "x": -2484.721923828125,
          "y": 232.0447998046875,
          "z": -3862.67822265625
        },
        "camFov": 30.0,
        "lerpPattern": 6,
        "cameraBlendType": "EaseInOutCubic",
        "MDKBPBJCMHH": {},
        "openCameraDither": false,
        "targetNpcAlias": "",
        "PHGBNNGCJKJ": "",
        "NFILMKCFHEB": "",
        "BGPNGHDAECF": ""
      },
      {
        "$type": "OBCDECFOOBC",
        "type": "DIALOG_SELECT",
        "delayTime": 0.4000000059604645,
        "aliasList": [
          "Avatar"
        ],
        "dialogIDList": [
          20130720,
          20130721
        ],
        "grpIDList": [
          331755674,
          331755674
        ],
        "useGrpId": true
      },
      {
        "$type": "MoleMole.Config.ConfigTeleportToAction",
        "type": "TELEPORT_TO",
        "aliasList": [
          "Avatar"
        ],
        "position": {
          "x": -2485.921875,
          "y": 231.0364227294922,
          "z": -3862.943115234375
        },
        "forward": {
          "x": -1.2255859375,
          "z": 0.76904296875
        },
        "_posBindMovingTargetKey": "",
        "_forwardBindMovingTargetKey": ""
      },
      {
        "$type": "MJFAIFFAGOF",
        "type": "DIALOG",
        "aliasList": [
          "3086"
        ],
        "dialogID": 20130719,
        "protectTime": 0.5
      },
      {
        "$type": "EDCHPJLDKIN",
        "type": "BODY_LANG",
        "aliasList": [
          "3086"
        ],
        "bodyLangParam": 1130,
        "forceDoFreeStyle": true,
        "canDoRepeatFreeStyle": false,
        "eventPatternSuiteKey": ""
      },
      {
        "$type": "ICHLNKHGCAG",
        "type": "EMO_SYNC",
        "aliasList": [
          "3086"
        ],
        "dataPath": "Cs_Emo_Avatar_Simple_Common_Set/Cs_Emo_Avatar_Talk/Cs_Emo_Avatar_MainLine/Cs_Emo_Avatar_Inazuma/Cs_Emo_20130719",
        "phonemePath": "",
        "emotionPath": "",
        "mateDataPath": "",
        "matePhonemePath": "",
        "mateEmotionPath": "",
        "dataPathHashList": [
          9213030079966671224,
          6715882091688168076,
          17182163601636661543,
          1169319495159006567
        ],
        "PACNIGOOENN": "",
        "PIBDNPHIAGC": ""
      },
      {
        "$type": "NPCNMEOCADD",
        "type": "LOOK_AT",
        "aliasList": [
          "3086"
        ],
        "enableHead": true,
        "headTurnTime": 0.5,
        "targetNpcAlias": "1005",
        "targetNpcLookAtPoint": "",
        "BHGPHGNFCBF": ""
      },
      {
        "$type": "NPCNMEOCADD",
        "type": "LOOK_AT",
        "delayTime": 4.185347557067871,
        "aliasList": [
          "3086"
        ],
        "enableHead": true,
        "headTurnTime": 0.5,
        "targetNpcAlias": "Avatar",
        "targetNpcLookAtPoint": "",
        "BHGPHGNFCBF": ""
      },
      {
        "$type": "EDCHPJLDKIN",
        "type": "BODY_LANG",
        "delayTime": 2.0245401859283447,
        "aliasList": [
          "3086"
        ],
        "bodyLangParam": 4030,
        "forceDoFreeStyle": true,
        "canDoRepeatFreeStyle": false,
        "eventPatternSuiteKey": ""
      },
      {
        "$type": "EDCHPJLDKIN",
        "type": "BODY_LANG",
        "aliasList": [
          "1005"
        ],
        "isContinue": true,
        "forceDoFreeStyle": true,
        "canDoRepeatFreeStyle": false,
        "eventPatternSuiteKey": ""
      }
    ],
    [
      {
        "$type": "EFHODGEJOHJ",
        "type": "CAMERA_MOVE",
        "delayTime": 0.10000000149011612,
        "duration": 20.0,
        "camPosOffset": {
          "x": -2490.63525390625,
          "y": 231.6328887939453,
          "z": -3868.98193359375
        },
        "camForwardTargetOffset": {
          "x": -2490.31298828125,
          "y": 231.54238891601562,
          "z": -3868.03955078125
        },
        "camFov": 30.0,
        "cameraBlendType": "EaseOutQuad",
        "MDKBPBJCMHH": {},
        "openCameraDither": false,
        "targetNpcAlias": "",
        "PHGBNNGCJKJ": "",
        "NFILMKCFHEB": "",
        "BGPNGHDAECF": ""
      },
      {
        "$type": "EFHODGEJOHJ",
        "type": "CAMERA_MOVE",
        "delayTime": 0.0022577904164791107,
        "duration": 1.0,
        "camPosOffset": {
          "x": -2490.830078125,
          "y": 231.62449645996094,
          "z": -3868.91650390625
        },
        "camForwardTargetOffset": {
          "x": -2490.5078125,
          "y": 231.53399658203125,
          "z": -3867.97412109375
        },
        "camFov": 30.0,
        "lerpPattern": 6,
        "cameraBlendType": "EaseInOutCubic",
        "MDKBPBJCMHH": {},
        "openCameraDither": false,
        "targetNpcAlias": "",
        "PHGBNNGCJKJ": "",
        "NFILMKCFHEB": "",
        "BGPNGHDAECF": ""
      },
      {
        "$type": "MJFAIFFAGOF",
        "type": "DIALOG",
        "aliasList": [
          "3086"
        ],
        "dialogID": 20130722,
        "protectTime": 0.5
      },
      {
        "$type": "EDCHPJLDKIN",
        "type": "BODY_LANG",
        "delayTime": 2.723630428314209,
        "aliasList": [
          "3086"
        ],
        "bodyLangParam": 4040,
        "forceDoFreeStyle": true,
        "canDoRepeatFreeStyle": false,
        "eventPatternSuiteKey": ""
      },
      {
        "$type": "EDCHPJLDKIN",
        "type": "BODY_LANG",
        "aliasList": [
          "3086"
        ],
        "isContinue": true,
        "forceDoFreeStyle": true,
        "canDoRepeatFreeStyle": false,
        "eventPatternSuiteKey": ""
      },
      {
        "$type": "ICHLNKHGCAG",
        "type": "EMO_SYNC",
        "aliasList": [
          "3086"
        ],
        "dataPath": "Cs_Emo_Avatar_Simple_Common_Set/Cs_Emo_Avatar_Talk/Cs_Emo_Avatar_MainLine/Cs_Emo_Avatar_Inazuma/Cs_Emo_20130722",
        "phonemePath": "",
        "emotionPath": "",
        "mateDataPath": "",
        "matePhonemePath": "",
        "mateEmotionPath": "",
        "dataPathHashList": [
          8711502888036539340,
          15639483771650256843,
          9827125639410024193,
          8320213206059136995
        ],
        "PACNIGOOENN": "",
        "PIBDNPHIAGC": ""
      },
      {
        "$type": "NPCNMEOCADD",
        "type": "LOOK_AT",
        "aliasList": [
          "3086"
        ],
        "enableHead": true,
        "headRotateVec": {
          "y": 20.0
        },
        "headTurnTime": 0.5,
        "targetNpcAlias": "",
        "lookAtTargetType": "NONE",
        "targetNpcLookAtPoint": "",
        "BHGPHGNFCBF": ""
      },
      {
        "$type": "NPCNMEOCADD",
        "type": "LOOK_AT",
        "delayTime": 2.9233298301696777,
        "aliasList": [
          "3086"
        ],
        "enableHead": true,
        "headTurnTime": 0.5,
        "targetNpcAlias": "Avatar",
        "targetNpcLookAtPoint": "",
        "BHGPHGNFCBF": ""
      }
    ],
    [
      {
        "$type": "NPCNMEOCADD",
        "type": "LOOK_AT",
        "delayTime": 0.2486572414636612,
        "aliasList": [
          "3086"
        ],
        "enableHead": true,
        "headTurnTime": 0.5,
        "targetNpcAlias": "1005",
        "targetNpcLookAtPoint": "",
        "BHGPHGNFCBF": ""
      },
      {
        "$type": "MJFAIFFAGOF",
        "type": "DIALOG",
        "aliasList": [
          "1005"
        ],
        "dialogID": 20130723,
        "protectTime": 0.5
      },
      {
        "$type": "EDCHPJLDKIN",
        "type": "BODY_LANG",
        "aliasList": [
          "1005"
        ],
        "bodyLangParam": 1270,
        "forceDoFreeStyle": true,
        "canDoRepeatFreeStyle": false,
        "eventPatternSuiteKey": ""
      },
      {
        "$type": "EDCHPJLDKIN",
        "type": "BODY_LANG",
        "delayTime": 2.443040609359741,
        "aliasList": [
          "1005"
        ],
        "bodyLangParam": 1300,
        "forceDoFreeStyle": true,
        "canDoRepeatFreeStyle": false,
        "eventPatternSuiteKey": ""
      },
      {
        "$type": "ICHLNKHGCAG",
        "type": "EMO_SYNC",
        "aliasList": [
          "1005"
        ],
        "dataPath": "Cs_Emo_Avatar_Simple_Common_Set/Cs_Emo_Avatar_Talk/Cs_Emo_Avatar_MainLine/Cs_Emo_Avatar_Inazuma/Cs_Emo_20130723",
        "phonemePath": "",
        "emotionPath": "",
        "mateDataPath": "",
        "matePhonemePath": "",
        "mateEmotionPath": "",
        "dataPathHashList": [
          2500634728953301242,
          6727265559555654690,
          18350328318775187540,
          13130525126232107052
        ],
        "PACNIGOOENN": "",
        "PIBDNPHIAGC": ""
      }
    ],
    [
      {
        "$type": "EFHODGEJOHJ",
        "type": "CAMERA_MOVE",
        "delayTime": 0.10000000149011612,
        "duration": 20.0,
        "camPosOffset": {
          "x": -2485.9365234375,
          "y": 232.85206604003906,
          "z": -3861.939697265625
        },
        "camForwardTargetOffset": {
          "x": -2486.821533203125,
          "y": 232.53311157226562,
          "z": -3862.27880859375
        },
        "camFov": 30.0,
        "cameraBlendType": "EaseOutQuad",
        "MDKBPBJCMHH": {},
        "openCameraDither": false,
        "targetNpcAlias": "",
        "PHGBNNGCJKJ": "",
        "NFILMKCFHEB": "",
        "BGPNGHDAECF": ""
      },
      {
        "$type": "EFHODGEJOHJ",
        "type": "CAMERA_MOVE",
        "duration": 1.0,
        "camPosOffset": {
          "x": -2486.02734375,
          "y": 232.8565216064453,
          "z": -3861.707275390625
        },
        "camForwardTargetOffset": {
          "x": -2486.912353515625,
          "y": 232.53756713867188,
          "z": -3862.04638671875
        },
        "camFov": 30.0,
        "lerpPattern": 6,
        "cameraBlendType": "EaseInOutCubic",
        "MDKBPBJCMHH": {},
        "openCameraDither": false,
        "targetNpcAlias": "",
        "PHGBNNGCJKJ": "",
        "NFILMKCFHEB": "",
        "BGPNGHDAECF": ""
      },
      {
        "$type": "MJFAIFFAGOF",
        "type": "DIALOG",
        "aliasList": [
          "3086"
        ],
        "dialogID": 20130724,
        "protectTime": 0.5
      },
      {
        "$type": "EDCHPJLDKIN",
        "type": "BODY_LANG",
        "aliasList": [
          "3086"
        ],
        "bodyLangParam": 1171,
        "forceDoFreeStyle": true,
        "canDoRepeatFreeStyle": false,
        "eventPatternSuiteKey": ""
      },
      {
        "$type": "ICHLNKHGCAG",
        "type": "EMO_SYNC",
        "aliasList": [
          "3086"
        ],
        "dataPath": "Cs_Emo_Avatar_Simple_Common_Set/Cs_Emo_Avatar_Talk/Cs_Emo_Avatar_MainLine/Cs_Emo_Avatar_Inazuma/Cs_Emo_20130724",
        "phonemePath": "",
        "emotionPath": "",
        "mateDataPath": "",
        "matePhonemePath": "",
        "mateEmotionPath": "",
        "dataPathHashList": [
          5571154494203891997,
          17432980612506374050,
          6307668611707774271,
          5279784922288753852
        ],
        "PACNIGOOENN": "",
        "PIBDNPHIAGC": ""
      }
    ],
    [
      {
        "$type": "OBCDECFOOBC",
        "type": "DIALOG_SELECT",
        "delayTime": 0.4000000059604645,
        "aliasList": [
          "Avatar"
        ],
        "dialogIDList": [
          20130726,
          20130727
        ],
        "grpIDList": [
          331755699,
          331755699
        ],
        "useGrpId": true
      },
      {
        "$type": "MJFAIFFAGOF",
        "type": "DIALOG",
        "aliasList": [
          "3086"
        ],
        "dialogID": 20130725,
        "protectTime": 0.5
      },
      {
        "$type": "EDCHPJLDKIN",
        "type": "BODY_LANG",
        "aliasList": [
          "3086"
        ],
        "bodyLangParam": 1190,
        "forceDoFreeStyle": true,
        "canDoRepeatFreeStyle": false,
        "eventPatternSuiteKey": ""
      },
      {
        "$type": "EDCHPJLDKIN",
        "type": "BODY_LANG",
        "delayTime": 3.210339307785034,
        "aliasList": [
          "3086"
        ],
        "isContinue": true,
        "forceDoFreeStyle": true,
        "canDoRepeatFreeStyle": false,
        "eventPatternSuiteKey": ""
      },
      {
        "$type": "EDCHPJLDKIN",
        "type": "BODY_LANG",
        "delayTime": 4.890969753265381,
        "aliasList": [
          "3086"
        ],
        "bodyLangParam": 1171,
        "forceDoFreeStyle": true,
        "canDoRepeatFreeStyle": false,
        "eventPatternSuiteKey": ""
      },
      {
        "$type": "NPCNMEOCADD",
        "type": "LOOK_AT",
        "delayTime": 5.2286057472229,
        "aliasList": [
          "3086"
        ],
        "enableHead": true,
        "headTurnTime": 0.5,
        "targetNpcAlias": "1005",
        "targetNpcLookAtPoint": "",
        "BHGPHGNFCBF": ""
      },
      {
        "$type": "NPCNMEOCADD",
        "type": "LOOK_AT",
        "aliasList": [
          "3086"
        ],
        "headTurnTime": 0.5,
        "targetNpcAlias": "",
        "lookAtTargetType": "NONE",
        "targetNpcLookAtPoint": "",
        "BHGPHGNFCBF": ""
      },
      {
        "$type": "ICHLNKHGCAG",
        "type": "EMO_SYNC",
        "aliasList": [
          "3086"
        ],
        "dataPath": "Cs_Emo_Avatar_Simple_Common_Set/Cs_Emo_Avatar_Talk/Cs_Emo_Avatar_MainLine/Cs_Emo_Avatar_Inazuma/Cs_Emo_20130725",
        "phonemePath": "",
        "emotionPath": "",
        "mateDataPath": "",
        "matePhonemePath": "",
        "mateEmotionPath": "",
        "dataPathHashList": [
          4941971779880453652,
          18013631140477107998,
          8043445557947864989,
          16624723155399004070
        ],
        "PACNIGOOENN": "",
        "PIBDNPHIAGC": ""
      }
    ],
    [
      {
        "$type": "EFHODGEJOHJ",
        "type": "CAMERA_MOVE",
        "delayTime": 0.10000000149011612,
        "duration": 10.0,
        "camPosOffset": {
          "x": -2495.0751953125,
          "y": 236.8649444580078,
          "z": -3858.3271484375
        },
        "camForwardTargetOffset": {
          "x": -2494.29150390625,
          "y": 236.3920135498047,
          "z": -3858.729736328125
        },
        "camFov": 25.0,
        "cameraBlendType": "EaseOutQuad",
        "MDKBPBJCMHH": {},
        "openCameraDither": false,
        "targetNpcAlias": "",
        "PHGBNNGCJKJ": "",
        "NFILMKCFHEB": "",
        "BGPNGHDAECF": ""
      },
      {
        "$type": "EFHODGEJOHJ",
        "type": "CAMERA_MOVE",
        "duration": 1.0,
        "camPosOffset": {
          "x": -2495.19677734375,
          "y": 236.864501953125,
          "z": -3858.56982421875
        },
        "camForwardTargetOffset": {
          "x": -2494.403564453125,
          "y": 236.39157104492188,
          "z": -3858.95361328125
        },
        "camFov": 25.0,
        "lerpPattern": 6,
        "cameraBlendType": "EaseInOutCubic",
        "MDKBPBJCMHH": {},
        "openCameraDither": false,
        "targetNpcAlias": "",
        "PHGBNNGCJKJ": "",
        "NFILMKCFHEB": "",
        "BGPNGHDAECF": ""
      },
      {
        "$type": "MJFAIFFAGOF",
        "type": "DIALOG",
        "aliasList": [
          "3086"
        ],
        "dialogID": 20130728,
        "protectTime": 0.5
      },
      {
        "$type": "EDCHPJLDKIN",
        "type": "BODY_LANG",
        "delayTime": 0.9336794018745422,
        "aliasList": [
          "3086"
        ],
        "bodyLangParam": 1172,
        "forceDoFreeStyle": true,
        "canDoRepeatFreeStyle": false,
        "eventPatternSuiteKey": ""
      },
      {
        "$type": "EDCHPJLDKIN",
        "type": "BODY_LANG",
        "aliasList": [
          "3086"
        ],
        "isContinue": true,
        "forceDoFreeStyle": true,
        "canDoRepeatFreeStyle": false,
        "eventPatternSuiteKey": ""
      },
      {
        "$type": "EDCHPJLDKIN",
        "type": "BODY_LANG",
        "delayTime": 4.059872150421143,
        "aliasList": [
          "3086"
        ],
        "bodyLangParam": 4030,
        "forceDoFreeStyle": true,
        "canDoRepeatFreeStyle": false,
        "eventPatternSuiteKey": ""
      },
      {
        "$type": "ICHLNKHGCAG",
        "type": "EMO_SYNC",
        "aliasList": [
          "3086"
        ],
        "dataPath": "Cs_Emo_Avatar_Simple_Common_Set/Cs_Emo_Avatar_Talk/Cs_Emo_Avatar_MainLine/Cs_Emo_Avatar_Inazuma/Cs_Emo_20130728",
        "phonemePath": "",
        "emotionPath": "",
        "mateDataPath": "",
        "matePhonemePath": "",
        "mateEmotionPath": "",
        "dataPathHashList": [
          15339005724633889133,
          10658464465997099590,
          5227830715040788962,
          17501149983231163274
        ],
        "PACNIGOOENN": "",
        "PIBDNPHIAGC": ""
      },
      {
        "$type": "NPCNMEOCADD",
        "type": "LOOK_AT",
        "aliasList": [
          "3086"
        ],
        "enableHead": true,
        "headTurnTime": 0.5,
        "targetNpcAlias": "Avatar",
        "targetNpcLookAtPoint": "",
        "BHGPHGNFCBF": ""
      }
    ],
    [
      {
        "$type": "MoleMole.Config.ConfigBlackScreenAction",
        "type": "BLACK_SCREEN",
        "durationToBlack": 0.5,
        "durationKeepBlack": 2.0,
        "durationFromBlack": 0.5,
        "inteePos": "",
        "textMapID": "QUEST_Message_Q201301",
        "useTextFade": true
      },
      {
        "$type": "MJFAIFFAGOF",
        "type": "DIALOG_CLEAR"
      },
      {
        "$type": "MoleMole.Config.ConfigTimeProtectAction",
        "type": "TIME_PROTECT",
        "duration": 3.0
      },
      {
        "$type": "EFHODGEJOHJ",
        "type": "CAMERA_MOVE",
        "delayTime": 0.6000000238418579,
        "duration": 1.0,
        "camPosOffset": {
          "x": -2488.255859375,
          "y": 232.24209594726562,
          "z": -3862.29345703125
        },
        "camForwardTargetOffset": {
          "x": -2487.2578125,
          "y": 232.2684783935547,
          "z": -3862.2353515625
        },
        "camFov": 30.0,
        "lerpPattern": 6,
        "cameraBlendType": "EaseInOutCubic",
        "MDKBPBJCMHH": {},
        "openCameraDither": false,
        "targetNpcAlias": "",
        "PHGBNNGCJKJ": "",
        "NFILMKCFHEB": "",
        "BGPNGHDAECF": ""
      },
      {
        "$type": "MoleMole.Config.ConfigTeleportToAction",
        "type": "TELEPORT_TO",
        "delayTime": 1.0,
        "aliasList": [
          "Avatar"
        ],
        "position": {
          "x": -2486.320068359375,
          "y": 231.0364227294922,
          "z": -3862.7021484375
        },
        "forward": {
          "x": -0.9038400053977966,
          "z": 0.42787057161331177
        },
        "_posBindMovingTargetKey": "",
        "_forwardBindMovingTargetKey": ""
      },
      {
        "$type": "IEKHMHNHENB",
        "type": "STEER_TO",
        "duration": 0.800000011920929,
        "aliasList": [
          "1005"
        ],
        "steerType": "ABSOLUTE",
        "steerDir": {
          "x": -2486.769775390625,
          "y": 231.03643798828125,
          "z": -3861.810302734375
        },
        "targetNpcAlias": "",
        "BHGPHGNFCBF": ""
      }
    ],
    [
      {
        "$type": "EFHODGEJOHJ",
        "type": "CAMERA_MOVE",
        "duration": 10.0,
        "camPosOffset": {
          "x": -2488.249267578125,
          "y": 232.2488250732422,
          "z": -3862.40625
        },
        "camForwardTargetOffset": {
          "x": -2487.251220703125,
          "y": 232.27520751953125,
          "z": -3862.34814453125
        },
        "camFov": 30.0,
        "cameraBlendType": "EaseOutQuad",
        "MDKBPBJCMHH": {},
        "openCameraDither": false,
        "targetNpcAlias": "",
        "PHGBNNGCJKJ": "",
        "NFILMKCFHEB": "",
        "BGPNGHDAECF": ""
      },
      {
        "$type": "MoleMole.Config.ConfigTeleportToAction",
        "type": "TELEPORT_TO",
        "aliasList": [
          "Avatar"
        ],
        "position": {
          "x": -2486.320068359375,
          "y": 231.0364227294922,
          "z": -3862.7021484375
        },
        "forward": {
          "x": -0.9038400053977966,
          "z": 0.42787057161331177
        },
        "_posBindMovingTargetKey": "",
        "_forwardBindMovingTargetKey": ""
      },
      {
        "$type": "MJFAIFFAGOF",
        "type": "DIALOG",
        "aliasList": [
          "3086"
        ],
        "dialogID": 20130730,
        "protectTime": 0.5
      },
      {
        "$type": "NPCNMEOCADD",
        "type": "LOOK_AT",
        "aliasList": [
          "3086"
        ],
        "enableHead": true,
        "headTurnTime": 0.5,
        "targetNpcAlias": "Avatar",
        "targetNpcLookAtPoint": "",
        "BHGPHGNFCBF": ""
      },
      {
        "$type": "EDCHPJLDKIN",
        "type": "BODY_LANG",
        "aliasList": [
          "3086"
        ],
        "bodyLangParam": 1172,
        "forceDoFreeStyle": true,
        "canDoRepeatFreeStyle": false,
        "eventPatternSuiteKey": ""
      },
      {
        "$type": "IEKHMHNHENB",
        "type": "STEER_TO",
        "delayTime": 4.874139308929443,
        "duration": 0.800000011920929,
        "aliasList": [
          "3086"
        ],
        "steerType": "ABSOLUTE",
        "steerDir": {
          "x": -2490.160888671875,
          "y": 231.0364227294922,
          "z": -3860.852294921875
        },
        "useSteerAnim": true,
        "targetNpcAlias": "",
        "BHGPHGNFCBF": ""
      },
      {
        "$type": "MoleMole.Config.ConfigMoveToAction",
        "type": "MOVE_TO",
        "delayTime": 5.828568935394287,
        "aliasList": [
          "3086"
        ],
        "moveType": "WALK",
        "routeList": [
          {
            "x": -2488.916259765625,
            "y": 231.0364227294922,
            "z": -3861.202392578125
          }
        ],
        "_bindMovingTargetKey": ""
      },
      {
        "$type": "NPCNMEOCADD",
        "type": "LOOK_AT",
        "delayTime": 4.957129001617432,
        "aliasList": [
          "3086"
        ],
        "headTurnTime": 0.5,
        "targetNpcAlias": "",
        "lookAtTargetType": "NONE",
        "targetNpcLookAtPoint": "",
        "BHGPHGNFCBF": ""
      },
      {
        "$type": "ICHLNKHGCAG",
        "type": "EMO_SYNC",
        "aliasList": [
          "3086"
        ],
        "dataPath": "Cs_Emo_Avatar_Simple_Common_Set/Cs_Emo_Avatar_Talk/Cs_Emo_Avatar_MainLine/Cs_Emo_Avatar_Inazuma/Cs_Emo_20130730",
        "phonemePath": "",
        "emotionPath": "",
        "mateDataPath": "",
        "matePhonemePath": "",
        "mateEmotionPath": "",
        "dataPathHashList": [
          14427036094969442545,
          6683599488822497236,
          11351430280836813820,
          15875852335138254700
        ],
        "PACNIGOOENN": "",
        "PIBDNPHIAGC": ""
      },
      {
        "$type": "EDCHPJLDKIN",
        "type": "BODY_LANG",
        "delayTime": 3.3034210205078125,
        "aliasList": [
          "3086"
        ],
        "isContinue": true,
        "forceDoFreeStyle": true,
        "canDoRepeatFreeStyle": false,
        "eventPatternSuiteKey": ""
      }
    ],
    [
      {
        "$type": "MoleMole.Config.ConfigSimpleBlackScreenAction",
        "type": "SIMPLE_BLACK_SCREEN",
        "durationToBlack": 0.5,
        "durationKeepBlack": 1.0,
        "durationFromBlack": 0.5,
        "textMapID": ""
      },
      {
        "$type": "MoleMole.Config.ConfigTimeProtectAction",
        "type": "TIME_PROTECT",
        "duration": 0.699999988079071
      },
      {
        "$type": "EFHODGEJOHJ",
        "type": "CAMERA_MOVE",
        "delayTime": 0.6000000238418579,
        "duration": 1.0,
        "cameraPosType": "EXIT",
        "camTargetType": "Other",
        "lerpPattern": 6,
        "cameraBlendType": "EaseInOutCubic",
        "MDKBPBJCMHH": {},
        "openCameraDither": false,
        "targetNpcAlias": "",
        "PHGBNNGCJKJ": "",
        "NFILMKCFHEB": "",
        "BGPNGHDAECF": ""
      },
      {
        "$type": "MoleMole.Config.ConfigVisibleInterAction",
        "type": "VISIBLE",
        "delayTime": 0.6000000238418579,
        "aliasList": [
          "3086"
        ],
        "_extraParam": ""
      }
    ]
  ],
  "groupId": [
    {
      "grpId": 3058743101,
      "nextGrpId": 3058743102
    },
    {
      "index": 1,
      "grpId": 3058743102,
      "nextGrpId": 3058743103
    },
    {
      "index": 2,
      "grpId": 3058743103,
      "nextGrpId": 3058743104
    },
    {
      "index": 3,
      "grpId": 3058743104,
      "nextGrpId": 3058743105
    },
    {
      "index": 4,
      "grpId": 3058743105,
      "nextGrpId": 3058743106
    },
    {
      "index": 5,
      "grpId": 3058743106,
      "nextGrpId": 3058743107
    },
    {
      "index": 6,
      "grpId": 3058743107,
      "nextGrpId": 3058743108
    },
    {
      "index": 7,
      "grpId": 3058743108,
      "nextGrpId": 3058743109
    },
    {
      "index": 8,
      "grpId": 3058743109,
      "nextGrpId": 331755667
    },
    {
      "index": 9,
      "grpId": 331755667,
      "nextGrpId": 331755668
    },
    {
      "index": 10,
      "grpId": 331755668,
      "nextGrpId": 331755669
    },
    {
      "index": 11,
      "grpId": 331755669,
      "nextGrpId": 331755670
    },
    {
      "index": 12,
      "grpId": 331755670,
      "nextGrpId": 331755671
    },
    {
      "index": 13,
      "grpId": 331755671,
      "nextGrpId": 331755672
    },
    {
      "index": 14,
      "grpId": 331755672,
      "nextGrpId": 331755673
    },
    {
      "index": 15,
      "grpId": 331755673,
      "nextGrpId": 331755674
    },
    {
      "index": 16,
      "grpId": 331755674,
      "nextGrpId": 331755675
    },
    {
      "index": 17,
      "grpId": 331755675,
      "nextGrpId": 331755676
    },
    {
      "index": 18,
      "grpId": 331755676,
      "nextGrpId": 331755698
    },
    {
      "index": 19,
      "grpId": 331755698,
      "nextGrpId": 331755699
    },
    {
      "index": 20,
      "grpId": 331755699,
      "nextGrpId": 331755700
    },
    {
      "index": 21,
      "grpId": 331755700,
      "nextGrpId": 331755701
    },
    {
      "index": 22,
      "grpId": 331755701,
      "nextGrpId": 331755702
    },
    {
      "index": 23,
      "grpId": 331755702,
      "nextGrpId": 331755703
    }
  ],
  "freeStyleDic": {
    "3086": [
      1060,
      1172,
      4030,
      4040,
      1130,
      1090,
      1171,
      1190
    ]
  }
}