{
  "instruments": {
    "1": {
      "24": {
        "text": "Play_ui_midi_harp_c1"
      },
      "25": {
        "text": "Play_ui_midi_harp_c_1"
      },
      "26": {
        "text": "Play_ui_midi_harp_d1"
      },
      "27": {
        "text": "Play_ui_midi_harp_d_1"
      },
      "28": {
        "text": "Play_ui_midi_harp_e1"
      },
      "29": {
        "text": "Play_ui_midi_harp_f1"
      },
      "30": {
        "text": "Play_ui_midi_harp_f_1"
      },
      "31": {
        "text": "Play_ui_midi_harp_g1"
      },
      "32": {
        "text": "Play_ui_midi_harp_g_1"
      },
      "33": {
        "text": "Play_ui_midi_harp_a1"
      },
      "34": {
        "text": "Play_ui_midi_harp_a_1"
      },
      "35": {
        "text": "Play_ui_midi_harp_b1"
      },
      "36": {
        "text": "Play_ui_midi_harp_c2"
      },
      "37": {
        "text": "Play_ui_midi_harp_c_2"
      },
      "38": {
        "text": "Play_ui_midi_harp_d2"
      },
      "39": {
        "text": "Play_ui_midi_harp_d_2"
      },
      "40": {
        "text": "Play_ui_midi_harp_e2"
      },
      "41": {
        "text": "Play_ui_midi_harp_f2"
      },
      "42": {
        "text": "Play_ui_midi_harp_f_2"
      },
      "43": {
        "text": "Play_ui_midi_harp_g2"
      },
      "44": {
        "text": "Play_ui_midi_harp_g_2"
      },
      "45": {
        "text": "Play_ui_midi_harp_a2"
      },
      "46": {
        "text": "Play_ui_midi_harp_a_2"
      },
      "47": {
        "text": "Play_ui_midi_harp_b2"
      },
      "48": {
        "text": "Play_ui_midi_harp_c3"
      },
      "49": {
        "text": "Play_ui_midi_harp_c_3"
      },
      "50": {
        "text": "Play_ui_midi_harp_d3"
      },
      "51": {
        "text": "Play_ui_midi_harp_d_3"
      },
      "52": {
        "text": "Play_ui_midi_harp_e3"
      },
      "53": {
        "text": "Play_ui_midi_harp_f3"
      },
      "54": {
        "text": "Play_ui_midi_harp_f_3"
      },
      "55": {
        "text": "Play_ui_midi_harp_g3"
      },
      "56": {
        "text": "Play_ui_midi_harp_g_3"
      },
      "57": {
        "text": "Play_ui_midi_harp_a3"
      },
      "58": {
        "text": "Play_ui_midi_harp_a_3"
      },
      "59": {
        "text": "Play_ui_midi_harp_b3"
      },
      "60": {
        "text": "Play_ui_midi_harp_c4"
      },
      "61": {
        "text": "Play_ui_midi_harp_c_4"
      },
      "62": {
        "text": "Play_ui_midi_harp_d4"
      },
      "63": {
        "text": "Play_ui_midi_harp_d_4"
      },
      "64": {
        "text": "Play_ui_midi_harp_e4"
      },
      "65": {
        "text": "Play_ui_midi_harp_f4"
      },
      "66": {
        "text": "Play_ui_midi_harp_f_4"
      },
      "67": {
        "text": "Play_ui_midi_harp_g4"
      },
      "68": {
        "text": "Play_ui_midi_harp_g_4"
      },
      "69": {
        "text": "Play_ui_midi_harp_a4"
      },
      "70": {
        "text": "Play_ui_midi_harp_a_4"
      },
      "71": {
        "text": "Play_ui_midi_harp_b4"
      },
      "72": {
        "text": "Play_ui_midi_harp_c5"
      },
      "73": {
        "text": "Play_ui_midi_harp_c_5"
      },
      "74": {
        "text": "Play_ui_midi_harp_d5"
      },
      "75": {
        "text": "Play_ui_midi_harp_d_5"
      },
      "76": {
        "text": "Play_ui_midi_harp_e5"
      },
      "77": {
        "text": "Play_ui_midi_harp_f5"
      },
      "78": {
        "text": "Play_ui_midi_harp_f_5"
      },
      "79": {
        "text": "Play_ui_midi_harp_g5"
      },
      "80": {
        "text": "Play_ui_midi_harp_g_5"
      },
      "81": {
        "text": "Play_ui_midi_harp_a5"
      },
      "82": {
        "text": "Play_ui_midi_harp_a_5"
      },
      "83": {
        "text": "Play_ui_midi_harp_b5"
      },
      "84": {
        "text": "Play_ui_midi_harp_c6"
      }
    },
    "2": {
      "36": {
        "text": "Play_ui_midi_shamisen_c1"
      },
      "38": {
        "text": "Play_ui_midi_shamisen_d1"
      },
      "40": {
        "text": "Play_ui_midi_shamisen_e1"
      },
      "41": {
        "text": "Play_ui_midi_shamisen_f1"
      },
      "43": {
        "text": "Play_ui_midi_shamisen_g1"
      },
      "45": {
        "text": "Play_ui_midi_shamisen_a1"
      },
      "47": {
        "text": "Play_ui_midi_shamisen_b1"
      },
      "48": {
        "text": "Play_ui_midi_shamisen_c2"
      },
      "50": {
        "text": "Play_ui_midi_shamisen_d2"
      },
      "52": {
        "text": "Play_ui_midi_shamisen_e2"
      },
      "53": {
        "text": "Play_ui_midi_shamisen_f2"
      },
      "55": {
        "text": "Play_ui_midi_shamisen_g2"
      },
      "57": {
        "text": "Play_ui_midi_shamisen_a2"
      },
      "59": {
        "text": "Play_ui_midi_shamisen_b2"
      },
      "60": {
        "text": "Play_ui_midi_shamisen_c3"
      },
      "62": {
        "text": "Play_ui_midi_shamisen_d3"
      },
      "64": {
        "text": "Play_ui_midi_shamisen_e3"
      },
      "65": {
        "text": "Play_ui_midi_shamisen_f3"
      },
      "67": {
        "text": "Play_ui_midi_shamisen_g3"
      },
      "69": {
        "text": "Play_ui_midi_shamisen_a3"
      },
      "71": {
        "text": "Play_ui_midi_shamisen_b3"
      }
    },
    "3": {
      "60": {
        "text": "Play_ui_midi_DrumEdge"
      },
      "62": {
        "text": "Play_ui_midi_Drum"
      },
      "64": {
        "text": "Play_ui_midi_Drum"
      },
      "65": {
        "text": "Play_ui_midi_DrumEdge"
      }
    },
    "4": {
      "36": {
        "text": "Play_ui_midi_kanun_48_C3"
      },
      "38": {
        "text": "Play_ui_midi_kanun_50_D3"
      },
      "40": {
        "text": "Play_ui_midi_kanun_51_Eb3"
      },
      "41": {
        "text": "Play_ui_midi_kanun_53_F3"
      },
      "43": {
        "text": "Play_ui_midi_kanun_55_G3"
      },
      "45": {
        "text": "Play_ui_midi_kanun_57_A3"
      },
      "47": {
        "text": "Play_ui_midi_kanun_58_Bb3"
      },
      "48": {
        "text": "Play_ui_midi_kanun_60_C4"
      },
      "50": {
        "text": "Play_ui_midi_kanun_62_D4"
      },
      "52": {
        "text": "Play_ui_midi_kanun_63_Eb4"
      },
      "53": {
        "text": "Play_ui_midi_kanun_65_F4"
      },
      "55": {
        "text": "Play_ui_midi_kanun_67_G4"
      },
      "57": {
        "text": "Play_ui_midi_kanun_69_A4"
      },
      "59": {
        "text": "Play_ui_midi_kanun_70_Bb4"
      },
      "60": {
        "text": "Play_ui_midi_kanun_72_C5"
      },
      "62": {
        "text": "Play_ui_midi_kanun_73_Db5"
      },
      "64": {
        "text": "Play_ui_midi_kanun_75_Eb5"
      },
      "65": {
        "text": "Play_ui_midi_kanun_77_F5"
      },
      "67": {
        "text": "Play_ui_midi_kanun_79_G5"
      },
      "69": {
        "text": "Play_ui_midi_kanun_80_Ab5"
      },
      "71": {
        "text": "Play_ui_midi_kanun_82_Bb5"
      }
    },
    "5": {
      "36": {
        "text": "Play_UI_Music_Horn_C2_NonLegato"
      },
      "38": {
        "text": "Play_UI_Music_Horn_D2_NonLegato"
      },
      "40": {
        "text": "Play_UI_Music_Horn_E2_NonLegato"
      },
      "41": {
        "text": "Play_UI_Music_Horn_F2_NonLegato"
      },
      "43": {
        "text": "Play_UI_Music_Horn_G2_NonLegato"
      },
      "45": {
        "text": "Play_UI_Music_Horn_A2_NonLegato"
      },
      "47": {
        "text": "Play_UI_Music_Horn_B2_NonLegato"
      },
      "48": {
        "text": "Play_UI_Music_Horn_C3_NonLegato"
      },
      "50": {
        "text": "Play_UI_Music_Horn_D3_NonLegato"
      },
      "52": {
        "text": "Play_UI_Music_Horn_E3_NonLegato"
      },
      "53": {
        "text": "Play_UI_Music_Horn_F3_NonLegato"
      },
      "55": {
        "text": "Play_UI_Music_Horn_G3_NonLegato"
      },
      "57": {
        "text": "Play_UI_Music_Horn_A3_NonLegato"
      },
      "59": {
        "text": "Play_UI_Music_Horn_B3_NonLegato"
      }
    }
  },
  "CFCNAIOMCBK": [
    {
      "instrumentID": 5,
      "ADFLKBHMNNK": [
        {
          "$type": "MFJGGIJKGFO",
          "IGPHBEKKODC": 48,
          "playEvent": {
            "text": "Play_UI_Music_Horn_C2_Legato"
          },
          "stopEvent": {
            "text": "Stop_UI_Music_Horn_C2_Legato"
          }
        },
        {
          "$type": "MFJGGIJKGFO",
          "IGPHBEKKODC": 50,
          "playEvent": {
            "text": "Play_UI_Music_Horn_D2_Legato"
          },
          "stopEvent": {
            "text": "Stop_UI_Music_Horn_D2_Legato"
          }
        },
        {
          "$type": "MFJGGIJKGFO",
          "IGPHBEKKODC": 52,
          "playEvent": {
            "text": "Play_UI_Music_Horn_E2_Legato"
          },
          "stopEvent": {
            "text": "Stop_UI_Music_Horn_E2_Legato"
          }
        },
        {
          "$type": "MFJGGIJKGFO",
          "IGPHBEKKODC": 53,
          "playEvent": {
            "text": "Play_UI_Music_Horn_F2_Legato"
          },
          "stopEvent": {
            "text": "Stop_UI_Music_Horn_F2_Legato"
          }
        },
        {
          "$type": "MFJGGIJKGFO",
          "IGPHBEKKODC": 55,
          "playEvent": {
            "text": "Play_UI_Music_Horn_G2_Legato"
          },
          "stopEvent": {
            "text": "Stop_UI_Music_Horn_G2_Legato"
          }
        },
        {
          "$type": "MFJGGIJKGFO",
          "IGPHBEKKODC": 57,
          "playEvent": {
            "text": "Play_UI_Music_Horn_A2_Legato"
          },
          "stopEvent": {
            "text": "Stop_UI_Music_Horn_A2_Legato"
          }
        },
        {
          "$type": "MFJGGIJKGFO",
          "IGPHBEKKODC": 59,
          "playEvent": {
            "text": "Play_UI_Music_Horn_B2_Legato"
          },
          "stopEvent": {
            "text": "Stop_UI_Music_Horn_B2_Legato"
          }
        },
        {
          "$type": "MFJGGIJKGFO",
          "IGPHBEKKODC": 60,
          "playEvent": {
            "text": "Play_UI_Music_Horn_C3_Legato"
          },
          "stopEvent": {
            "text": "Stop_UI_Music_Horn_C3_Legato"
          }
        },
        {
          "$type": "MFJGGIJKGFO",
          "IGPHBEKKODC": 62,
          "playEvent": {
            "text": "Play_UI_Music_Horn_D3_Legato"
          },
          "stopEvent": {
            "text": "Stop_UI_Music_Horn_D3_Legato"
          }
        },
        {
          "$type": "MFJGGIJKGFO",
          "IGPHBEKKODC": 64,
          "playEvent": {
            "text": "Play_UI_Music_Horn_E3_Legato"
          },
          "stopEvent": {
            "text": "Stop_UI_Music_Horn_E3_Legato"
          }
        },
        {
          "$type": "MFJGGIJKGFO",
          "IGPHBEKKODC": 65,
          "playEvent": {
            "text": "Play_UI_Music_Horn_F3_Legato"
          },
          "stopEvent": {
            "text": "Stop_UI_Music_Horn_F3_Legato"
          }
        },
        {
          "$type": "MFJGGIJKGFO",
          "IGPHBEKKODC": 67,
          "playEvent": {
            "text": "Play_UI_Music_Horn_G3_Legato"
          },
          "stopEvent": {
            "text": "Stop_UI_Music_Horn_G3_Legato"
          }
        },
        {
          "$type": "MFJGGIJKGFO",
          "IGPHBEKKODC": 69,
          "playEvent": {
            "text": "Play_UI_Music_Horn_A3_Legato"
          },
          "stopEvent": {
            "text": "Stop_UI_Music_Horn_A3_Legato"
          }
        },
        {
          "$type": "MFJGGIJKGFO",
          "IGPHBEKKODC": 71,
          "playEvent": {
            "text": "Play_UI_Music_Horn_B3_Legato"
          },
          "stopEvent": {
            "text": "Stop_UI_Music_Horn_B3_Legato"
          }
        }
      ]
    }
  ],
  "freeplayButtons": {
    "0": 60,
    "1": 62,
    "2": 64,
    "3": 65,
    "4": 67,
    "5": 69,
    "6": 71,
    "7": 48,
    "8": 50,
    "9": 52,
    "10": 53,
    "11": 55,
    "12": 57,
    "13": 59,
    "14": 36,
    "15": 38,
    "16": 40,
    "17": 41,
    "18": 43,
    "19": 45,
    "20": 47
  },
  "freeplayTimeout": 10.0,
  "freeplayMaxDistance": 18.0
}