{
  "luaDataPath": "",
  "startBlackKeepTime": 0.5,
  "entityBan": "",
  "disableNpcLod": true,
  "isAutoBanNpc": true,
  "isBanWidgetPet": true,
  "protectNpcMobileLod": true,
  "startFade": {
    "startFadeInDuration": 0.5,
    "startFadeOutDuration": 0.5
  },
  "endFade": {
    "startFadeOutDuration": 0.0
  },
  "actors": [
    {
      "alias": "Avatar",
      "visible": true,
      "bornPointName": "N10000005_T1300103",
      "relativePosType": "AVATAR_NEW",
      "relativePosNpcAlias": "",
      "_bindMovingTargetKey": ""
    },
    {
      "configID": 1005,
      "alias": "1005",
      "visible": true,
      "bornPointName": "N1005_T1300103",
      "removeActorType": "REMOVE_WITH_DISAPPEAR",
      "relativePosType": "AVATAR_NEW",
      "relativePosNpcAlias": "",
      "_bindMovingTargetKey": ""
    },
    {
      "configID": 1050,
      "alias": "1050",
      "visible": true,
      "bornPointName": "N1050_T1300103",
      "relativePosType": "AVATAR_NEW",
      "relativePosNpcAlias": "",
      "_bindMovingTargetKey": ""
    },
    {
      "configID": 12603,
      "alias": "12603",
      "visible": true,
      "bornPointName": "Q1300103_guide",
      "removeActorType": "REMOVE",
      "relativePosType": "AVATAR_NEW",
      "relativePosNpcAlias": "",
      "_bindMovingTargetKey": ""
    }
  ],
  "group": [
    [
      {
        "$type": "MoleMole.Config.ConfigTimeProtectAction",
        "type": "TIME_PROTECT",
        "duration": 0.10000000149011612
      },
      {
        "$type": "MoleMole.Config.ConfigBlackScreenAction",
        "type": "BLACK_SCREEN",
        "actionId": 140,
        "blackScreenType": "KEEP_BLACK",
        "durationKeepBlack": 0.5,
        "inteePos": "",
        "textMapID": "",
        "useTextFade": true
      },
      {
        "$type": "MoleMole.Config.ConfigTeleportToAction",
        "type": "TELEPORT_TO",
        "aliasList": [
          "Avatar"
        ],
        "actionId": 152,
        "position": {
          "x": -621.7020263671875,
          "y": 132.10499572753906,
          "z": 2516.577880859375
        },
        "forward": {
          "x": -1.371999979019165,
          "y": 0.14000000059604645,
          "z": 2.3369998931884766
        },
        "openLongDisTeleport": true,
        "_posBindMovingTargetKey": "",
        "_forwardBindMovingTargetKey": ""
      },
      {
        "$type": "NPCNMEOCADD",
        "type": "LOOK_AT",
        "aliasList": [
          "Avatar"
        ],
        "actionId": 162,
        "headTurnTime": 0.5,
        "targetNpcAlias": "",
        "openBackProtect": true,
        "targetNpcLookAtPoint": "",
        "BHGPHGNFCBF": ""
      },
      {
        "$type": "MoleMole.Config.ConfigTeleportToAction",
        "type": "TELEPORT_TO",
        "aliasList": [
          "1005"
        ],
        "actionId": 149,
        "position": {
          "x": -622.906005859375,
          "y": 132.1510009765625,
          "z": 2517.159912109375
        },
        "forward": {
          "x": -0.7329999804496765,
          "y": 0.07000000029802322,
          "z": 1.8329999446868896
        },
        "openLongDisTeleport": true,
        "_posBindMovingTargetKey": "",
        "_forwardBindMovingTargetKey": ""
      },
      {
        "$type": "NPCNMEOCADD",
        "type": "LOOK_AT",
        "aliasList": [
          "1005"
        ],
        "actionId": 158,
        "headTurnTime": 0.5,
        "targetNpcAlias": "",
        "openBackProtect": true,
        "targetNpcLookAtPoint": "",
        "BHGPHGNFCBF": ""
      },
      {
        "$type": "MoleMole.Config.ConfigTeleportToAction",
        "type": "TELEPORT_TO",
        "aliasList": [
          "1050"
        ],
        "actionId": 150,
        "position": {
          "x": -623.3150024414062,
          "y": 132.22900390625,
          "z": 2518.718994140625
        },
        "forward": {
          "x": -0.5789999961853027,
          "y": 0.04500000178813934,
          "z": 1.9220000505447388
        },
        "openLongDisTeleport": true,
        "_posBindMovingTargetKey": "",
        "_forwardBindMovingTargetKey": ""
      },
      {
        "$type": "MoleMole.Config.ConfigTeleportToAction",
        "type": "TELEPORT_TO",
        "aliasList": [
          "12603"
        ],
        "actionId": 151,
        "position": {
          "x": -624.2730102539062,
          "y": 132.27000427246094,
          "z": 2519.77001953125
        },
        "forward": {
          "x": -1.3550000190734863,
          "y": -0.3109999895095825,
          "z": 2.928999900817871
        },
        "openLongDisTeleport": true,
        "_posBindMovingTargetKey": "",
        "_forwardBindMovingTargetKey": ""
      }
    ],
    [
      {
        "$type": "EFHODGEJOHJ",
        "type": "CAMERA_MOVE",
        "duration": 1.0,
        "actionId": 139,
        "camPosOffset": {
          "x": -623.7630004882812,
          "y": 142.66099548339844,
          "z": 2529.839111328125
        },
        "camForwardTargetOffset": {
          "x": -623.68701171875,
          "y": 142.03599548339844,
          "z": 2529.06298828125
        },
        "camFov": 15.0,
        "lerpPattern": 6,
        "cameraBlendType": "EaseInOutCubic",
        "MDKBPBJCMHH": {},
        "needZAxisRotate": true,
        "openCameraDither": false,
        "targetNpcAlias": "",
        "closeTreeLeafDither": true,
        "PHGBNNGCJKJ": "",
        "NFILMKCFHEB": "",
        "BGPNGHDAECF": ""
      },
      {
        "$type": "MoleMole.Config.ConfigBlackScreenAction",
        "type": "BLACK_SCREEN",
        "actionId": 141,
        "blackScreenType": "FROM_BLACK",
        "durationFromBlack": 0.5,
        "inteePos": "",
        "textMapID": "",
        "useTextFade": true
      },
      {
        "$type": "MoleMole.Config.ConfigTimeProtectAction",
        "type": "TIME_PROTECT",
        "duration": 2.2939999103546143,
        "actionId": 153
      },
      {
        "$type": "MoleMole.Config.ConfigMoveToAction",
        "type": "MOVE_TO",
        "aliasList": [
          "Avatar"
        ],
        "actionId": 146,
        "moveType": "WALK",
        "routeList": [
          {
            "x": -622.4080200195312,
            "y": 132.24000549316406,
            "z": 2517.947021484375
          }
        ],
        "exactlyMove": true,
        "closeNavMesh": true,
        "_bindMovingTargetKey": ""
      },
      {
        "$type": "NPCNMEOCADD",
        "type": "LOOK_AT",
        "aliasList": [
          "1050"
        ],
        "actionId": 285,
        "headTurnTime": 0.5,
        "targetNpcAlias": "",
        "openBackProtect": true,
        "targetNpcLookAtPoint": "",
        "BHGPHGNFCBF": ""
      },
      {
        "$type": "MoleMole.Config.ConfigMoveToAction",
        "type": "MOVE_TO",
        "aliasList": [
          "1005"
        ],
        "actionId": 145,
        "moveType": "WALK",
        "routeList": [
          {
            "x": -623.0889892578125,
            "y": 132.2259979248047,
            "z": 2518.10498046875
          }
        ],
        "exactlyMove": true,
        "closeNavMesh": true,
        "_bindMovingTargetKey": ""
      },
      {
        "$type": "MoleMole.Config.ConfigMoveToAction",
        "type": "MOVE_TO",
        "aliasList": [
          "12603"
        ],
        "actionId": 147,
        "moveType": "WALK",
        "routeList": [
          {
            "x": -625.6090087890625,
            "y": 132.2519989013672,
            "z": 2521.590087890625
          }
        ],
        "exactlyMove": true,
        "closeNavMesh": true,
        "_bindMovingTargetKey": ""
      },
      {
        "$type": "MoleMole.Config.ConfigMoveToAction",
        "type": "MOVE_TO",
        "aliasList": [
          "1050"
        ],
        "actionId": 148,
        "moveType": "WALK",
        "routeList": [
          {
            "x": -623.666015625,
            "y": 132.26199340820312,
            "z": 2519.407958984375
          }
        ],
        "exactlyMove": true,
        "closeNavMesh": true,
        "_bindMovingTargetKey": ""
      },
      {
        "$type": "NPCNMEOCADD",
        "type": "LOOK_AT",
        "aliasList": [
          "1005"
        ],
        "actionId": 159,
        "enableHead": true,
        "useTargetPos": true,
        "enableAbsolute": true,
        "targetPosition": {
          "x": -624.947998046875,
          "y": 133.51800537109375,
          "z": 2518.248046875
        },
        "headTurnTime": 0.5,
        "targetNpcAlias": "",
        "lookAtTargetType": "NONE",
        "openBackProtect": true,
        "targetNpcLookAtPoint": "",
        "BHGPHGNFCBF": ""
      },
      {
        "$type": "EFHODGEJOHJ",
        "type": "CAMERA_MOVE",
        "delayTime": 0.10000000149011612,
        "duration": 3.9700000286102295,
        "actionId": 164,
        "camPosOffset": {
          "x": -623.9970092773438,
          "y": 142.3800048828125,
          "z": 2530.04296875
        },
        "camForwardTargetOffset": {
          "x": -623.9210205078125,
          "y": 141.7550048828125,
          "z": 2529.26611328125
        },
        "camFov": 15.0,
        "cameraBlendType": "EaseOutQuad",
        "MDKBPBJCMHH": {},
        "needZAxisRotate": true,
        "openCameraDither": false,
        "targetNpcAlias": "",
        "closeTreeLeafDither": true,
        "PHGBNNGCJKJ": "",
        "NFILMKCFHEB": "",
        "BGPNGHDAECF": ""
      },
      {
        "$type": "MJFAIFFAGOF",
        "type": "DIALOG",
        "delayTime": 1.0,
        "aliasList": [
          "1005"
        ],
        "dialogID": 130010301,
        "protectTime": 3.0
      },
      {
        "$type": "ICHLNKHGCAG",
        "type": "EMO_SYNC",
        "delayTime": 1.0,
        "aliasList": [
          "1005"
        ],
        "dataPath": "Cs_Emo_Avatar_Simple_Common_Set/Cs_Emo_Avatar_Talk/Cs_Emo_Avatar_PersonalLine/Cs_Emo_Avatar_Tighnari/Cs_Emo_130010301",
        "phonemePath": "",
        "emotionPath": "",
        "mateDataPath": "",
        "matePhonemePath": "",
        "mateEmotionPath": "",
        "dataPathHashList": [
          10385134778092867346,
          803485098006697895,
          7516247328805645958,
          12712828308820754633
        ],
        "PACNIGOOENN": "",
        "PIBDNPHIAGC": ""
      },
      {
        "$type": "NPCNMEOCADD",
        "type": "LOOK_AT",
        "delayTime": 1.9320000410079956,
        "aliasList": [
          "1005"
        ],
        "actionId": 161,
        "enableHead": true,
        "headTurnTime": 0.5,
        "targetNpcAlias": "1050",
        "openBackProtect": true,
        "targetNpcLookAtPoint": "",
        "BHGPHGNFCBF": ""
      },
      {
        "$type": "EFHODGEJOHJ",
        "type": "CAMERA_MOVE",
        "delayTime": 2.0,
        "duration": 1.0,
        "actionId": 165,
        "camPosOffset": {
          "x": -618.968017578125,
          "y": 134.6820068359375,
          "z": 2526.555908203125
        },
        "camForwardTargetOffset": {
          "x": -619.4299926757812,
          "y": 134.51400756835938,
          "z": 2525.68505859375
        },
        "camFov": 15.0,
        "lerpPattern": 6,
        "cameraBlendType": "EaseInOutCubic",
        "MDKBPBJCMHH": {},
        "needZAxisRotate": true,
        "openCameraDither": false,
        "targetNpcAlias": "",
        "closeTreeLeafDither": true,
        "PHGBNNGCJKJ": "",
        "NFILMKCFHEB": "",
        "BGPNGHDAECF": ""
      },
      {
        "$type": "EFHODGEJOHJ",
        "type": "CAMERA_MOVE",
        "delayTime": 2.0999999046325684,
        "duration": 12.13700008392334,
        "actionId": 166,
        "camPosOffset": {
          "x": -619.2050170898438,
          "y": 134.5959930419922,
          "z": 2526.10888671875
        },
        "camForwardTargetOffset": {
          "x": -619.6669921875,
          "y": 134.42799377441406,
          "z": 2525.238037109375
        },
        "camFov": 15.0,
        "cameraBlendType": "EaseOutQuad",
        "MDKBPBJCMHH": {},
        "needZAxisRotate": true,
        "openCameraDither": false,
        "targetNpcAlias": "",
        "closeTreeLeafDither": true,
        "PHGBNNGCJKJ": "",
        "NFILMKCFHEB": "",
        "BGPNGHDAECF": ""
      },
      {
        "$type": "EDCHPJLDKIN",
        "type": "BODY_LANG",
        "delayTime": 2.427000045776367,
        "aliasList": [
          "1005"
        ],
        "actionId": 155,
        "bodyLangParam": 1110,
        "forceDoFreeStyle": true,
        "canDoRepeatFreeStyle": false,
        "cantBackToIdleWhenSitLoop": true,
        "eventPatternSuiteKey": ""
      },
      {
        "$type": "NPCNMEOCADD",
        "type": "LOOK_AT",
        "delayTime": 2.563999891281128,
        "aliasList": [
          "1050"
        ],
        "actionId": 286,
        "enableHead": true,
        "headTurnTime": 0.5,
        "targetNpcAlias": "1005",
        "openBackProtect": true,
        "targetNpcLookAtPoint": "",
        "BHGPHGNFCBF": ""
      },
      {
        "$type": "NPCNMEOCADD",
        "type": "LOOK_AT",
        "delayTime": 2.7360000610351562,
        "aliasList": [
          "Avatar"
        ],
        "actionId": 163,
        "enableHead": true,
        "headTurnTime": 0.5,
        "targetNpcAlias": "1005",
        "openBackProtect": true,
        "targetNpcLookAtPoint": "",
        "BHGPHGNFCBF": ""
      },
      {
        "$type": "IEKHMHNHENB",
        "type": "STEER_TO",
        "delayTime": 2.8519999980926514,
        "duration": 1.0,
        "aliasList": [
          "1050"
        ],
        "actionId": 284,
        "steerType": "ABSOLUTE",
        "steerDir": {
          "x": -623.5159912109375,
          "y": 132.2480010986328,
          "z": 2519.1240234375
        },
        "useSteerAnim": true,
        "targetNpcAlias": "",
        "BHGPHGNFCBF": ""
      },
      {
        "$type": "NPCNMEOCADD",
        "type": "LOOK_AT",
        "delayTime": 3.384000062942505,
        "aliasList": [
          "1050"
        ],
        "actionId": 290,
        "enableHead": true,
        "headTurnTime": 0.30000001192092896,
        "targetNpcAlias": "1005",
        "openBackProtect": true,
        "targetNpcLookAtPoint": "",
        "BHGPHGNFCBF": ""
      },
      {
        "$type": "IEKHMHNHENB",
        "type": "STEER_TO",
        "delayTime": 4.175000190734863,
        "duration": 1.0,
        "aliasList": [
          "12603"
        ],
        "actionId": 294,
        "steerType": "ABSOLUTE",
        "steerDir": {
          "x": -623.5159912109375,
          "y": 132.2480010986328,
          "z": 2519.1240234375
        },
        "useSteerAnim": true,
        "targetNpcAlias": "",
        "BHGPHGNFCBF": ""
      },
      {
        "$type": "EDCHPJLDKIN",
        "type": "BODY_LANG",
        "delayTime": 4.4070000648498535,
        "aliasList": [
          "1005"
        ],
        "actionId": 156,
        "isContinue": true,
        "forceDoFreeStyle": true,
        "canDoRepeatFreeStyle": false,
        "cantBackToIdleWhenSitLoop": true,
        "eventPatternSuiteKey": ""
      }
    ],
    [
      {
        "$type": "EFHODGEJOHJ",
        "type": "CAMERA_MOVE",
        "duration": 1.0,
        "actionId": 168,
        "camPosOffset": {
          "x": -621.8829956054688,
          "y": 133.70199584960938,
          "z": 2519.927978515625
        },
        "camForwardTargetOffset": {
          "x": -622.3179931640625,
          "y": 133.63499450683594,
          "z": 2519.030029296875
        },
        "camFov": 20.0,
        "lerpPattern": 6,
        "cameraBlendType": "EaseInOutCubic",
        "MDKBPBJCMHH": {},
        "needZAxisRotate": true,
        "openCameraDither": false,
        "targetNpcAlias": "",
        "closeTreeLeafDither": true,
        "PHGBNNGCJKJ": "",
        "NFILMKCFHEB": "",
        "BGPNGHDAECF": ""
      },
      {
        "$type": "MJFAIFFAGOF",
        "type": "DIALOG",
        "aliasList": [
          "1005"
        ],
        "dialogID": 130010302,
        "protectTime": 1.0
      },
      {
        "$type": "ICHLNKHGCAG",
        "type": "EMO_SYNC",
        "aliasList": [
          "1005"
        ],
        "dataPath": "Cs_Emo_Avatar_Simple_Common_Set/Cs_Emo_Avatar_Talk/Cs_Emo_Avatar_PersonalLine/Cs_Emo_Avatar_Tighnari/Cs_Emo_130010302",
        "phonemePath": "",
        "emotionPath": "",
        "mateDataPath": "",
        "matePhonemePath": "",
        "mateEmotionPath": "",
        "dataPathHashList": [
          4752557954308669002,
          5313214293468434039,
          5836360372546649408,
          1961758192001073889
        ],
        "PACNIGOOENN": "",
        "PIBDNPHIAGC": ""
      },
      {
        "$type": "NPCNMEOCADD",
        "type": "LOOK_AT",
        "aliasList": [
          "1005"
        ],
        "actionId": 287,
        "enableHead": true,
        "targetPosition": {
          "x": -622.3099975585938,
          "y": 133.6929931640625,
          "z": 2518.237060546875
        },
        "headTurnTime": 0.5,
        "targetNpcAlias": "Avatar",
        "targetNpcRotateVecPlus": {
          "x": 342.29998779296875,
          "y": 353.0580139160156
        },
        "openBackProtect": true,
        "targetNpcLookAtPoint": "",
        "BHGPHGNFCBF": ""
      },
      {
        "$type": "IEKHMHNHENB",
        "type": "STEER_TO",
        "duration": 1.0,
        "aliasList": [
          "1005"
        ],
        "actionId": 288,
        "steerType": "ABSOLUTE",
        "steerDir": {
          "x": -622.4520263671875,
          "y": 132.25599670410156,
          "z": 2518.7490234375
        },
        "targetNpcAlias": "",
        "BHGPHGNFCBF": ""
      },
      {
        "$type": "MoleMole.Config.ConfigTeleportToAction",
        "type": "TELEPORT_TO",
        "aliasList": [
          "1050"
        ],
        "actionId": 185,
        "position": {
          "x": -623.6939697265625,
          "y": 132.28900146484375,
          "z": 2520.009033203125
        },
        "forward": {
          "x": 0.20000000298023224,
          "z": -0.08399999886751175
        },
        "openLongDisTeleport": true,
        "_posBindMovingTargetKey": "",
        "_forwardBindMovingTargetKey": ""
      },
      {
        "$type": "MoleMole.Config.ConfigTeleportToAction",
        "type": "TELEPORT_TO",
        "aliasList": [
          "12603"
        ],
        "actionId": 186,
        "position": {
          "x": -626.2219848632812,
          "y": 132.24200439453125,
          "z": 2520.946044921875
        },
        "forward": {
          "x": 0.7509999871253967,
          "z": -0.6600000262260437
        },
        "openLongDisTeleport": true,
        "_posBindMovingTargetKey": "",
        "_forwardBindMovingTargetKey": ""
      },
      {
        "$type": "EFHODGEJOHJ",
        "type": "CAMERA_MOVE",
        "delayTime": 0.10000000149011612,
        "duration": 14.550000190734863,
        "actionId": 176,
        "camPosOffset": {
          "x": -621.9290161132812,
          "y": 133.7050018310547,
          "z": 2519.949951171875
        },
        "camForwardTargetOffset": {
          "x": -622.364013671875,
          "y": 133.63800048828125,
          "z": 2519.052001953125
        },
        "camFov": 20.0,
        "cameraBlendType": "EaseOutQuad",
        "MDKBPBJCMHH": {},
        "needZAxisRotate": true,
        "openCameraDither": false,
        "targetNpcAlias": "",
        "closeTreeLeafDither": true,
        "PHGBNNGCJKJ": "",
        "NFILMKCFHEB": "",
        "BGPNGHDAECF": ""
      },
      {
        "$type": "EDCHPJLDKIN",
        "type": "BODY_LANG",
        "delayTime": 2.4159998893737793,
        "aliasList": [
          "1005"
        ],
        "actionId": 170,
        "bodyLangParam": 1300,
        "forceDoFreeStyle": true,
        "canDoRepeatFreeStyle": false,
        "cantBackToIdleWhenSitLoop": true,
        "eventPatternSuiteKey": ""
      }
    ],
    [
      {
        "$type": "EFHODGEJOHJ",
        "type": "CAMERA_MOVE",
        "duration": 1.0,
        "actionId": 174,
        "camPosOffset": {
          "x": -619.843017578125,
          "y": 133.74000549316406,
          "z": 2516.7548828125
        },
        "camForwardTargetOffset": {
          "x": -620.6900024414062,
          "y": 133.6529998779297,
          "z": 2517.279052734375
        },
        "camFov": 20.0,
        "lerpPattern": 6,
        "cameraBlendType": "EaseInOutCubic",
        "MDKBPBJCMHH": {},
        "needZAxisRotate": true,
        "openCameraDither": false,
        "targetNpcAlias": "",
        "closeTreeLeafDither": true,
        "PHGBNNGCJKJ": "",
        "NFILMKCFHEB": "",
        "BGPNGHDAECF": ""
      },
      {
        "$type": "MoleMole.Config.ConfigTeleportToAction",
        "type": "TELEPORT_TO",
        "aliasList": [
          "Avatar"
        ],
        "actionId": 302,
        "position": {
          "x": -622.2550048828125,
          "y": 132.2480010986328,
          "z": 2517.97900390625
        },
        "forward": {
          "x": -0.45899999141693115,
          "z": 0.8880000114440918
        },
        "openLongDisTeleport": true,
        "_posBindMovingTargetKey": "",
        "_forwardBindMovingTargetKey": ""
      },
      {
        "$type": "MoleMole.Config.ConfigTeleportToAction",
        "type": "TELEPORT_TO",
        "aliasList": [
          "1005"
        ],
        "actionId": 179,
        "position": {
          "x": -623.0889892578125,
          "y": 132.2239990234375,
          "z": 2517.9990234375
        },
        "forward": {
          "x": -0.16500000655651093,
          "y": 0.0020000000949949026,
          "z": 1.093000054359436
        },
        "openLongDisTeleport": true,
        "_posBindMovingTargetKey": "",
        "_forwardBindMovingTargetKey": ""
      },
      {
        "$type": "EDCHPJLDKIN",
        "type": "BODY_LANG",
        "aliasList": [
          "1005"
        ],
        "actionId": 229,
        "isContinue": true,
        "forceDoFreeStyle": true,
        "canDoRepeatFreeStyle": false,
        "cantBackToIdleWhenSitLoop": true,
        "eventPatternSuiteKey": ""
      },
      {
        "$type": "IEKHMHNHENB",
        "type": "STEER_TO",
        "duration": 1.0,
        "aliasList": [
          "1005"
        ],
        "actionId": 289,
        "steerType": "ABSOLUTE",
        "steerDir": {
          "x": -623.2760009765625,
          "y": 132.2259979248047,
          "z": 2519.068115234375
        },
        "useSteerAnim": true,
        "targetNpcAlias": "",
        "BHGPHGNFCBF": ""
      },
      {
        "$type": "NPCNMEOCADD",
        "type": "LOOK_AT",
        "aliasList": [
          "1005"
        ],
        "actionId": 291,
        "enableHead": true,
        "headTurnTime": 0.5,
        "targetNpcAlias": "1050",
        "openBackProtect": true,
        "targetNpcLookAtPoint": "",
        "BHGPHGNFCBF": ""
      },
      {
        "$type": "MJFAIFFAGOF",
        "type": "DIALOG",
        "aliasList": [
          "1050"
        ],
        "dialogID": 130010303,
        "protectTime": 1.0
      },
      {
        "$type": "MoleMole.Config.ConfigTeleportToAction",
        "type": "TELEPORT_TO",
        "aliasList": [
          "1050"
        ],
        "actionId": 175,
        "position": {
          "x": -623.5020141601562,
          "y": 132.28399658203125,
          "z": 2519.889892578125
        },
        "forward": {
          "x": 0.39100000262260437,
          "z": -0.9079999923706055
        },
        "openLongDisTeleport": true,
        "_posBindMovingTargetKey": "",
        "_forwardBindMovingTargetKey": ""
      },
      {
        "$type": "EDCHPJLDKIN",
        "type": "BODY_LANG",
        "aliasList": [
          "1050"
        ],
        "actionId": 183,
        "bodyLangParam": 1173,
        "forceDoFreeStyle": true,
        "canDoRepeatFreeStyle": false,
        "cantBackToIdleWhenSitLoop": true,
        "eventPatternSuiteKey": ""
      },
      {
        "$type": "ICHLNKHGCAG",
        "type": "EMO_SYNC",
        "aliasList": [
          "1050"
        ],
        "dataPath": "Cs_Emo_Avatar_Simple_Common_Set/Cs_Emo_Avatar_Talk/Cs_Emo_Avatar_PersonalLine/Cs_Emo_Avatar_Tighnari/Cs_Emo_130010303",
        "phonemePath": "",
        "emotionPath": "",
        "mateDataPath": "",
        "matePhonemePath": "",
        "mateEmotionPath": "",
        "dataPathHashList": [
          7287858902109304949,
          12801658936596201271,
          13069228282436252389,
          4695590532984873673
        ],
        "PACNIGOOENN": "",
        "PIBDNPHIAGC": ""
      },
      {
        "$type": "MoleMole.Config.ConfigTeleportToAction",
        "type": "TELEPORT_TO",
        "aliasList": [
          "12603"
        ],
        "actionId": 293,
        "position": {
          "x": -626.0130004882812,
          "y": 132.25100708007812,
          "z": 2521.531005859375
        },
        "forward": {
          "x": 0.6439999938011169,
          "z": -0.7649999856948853
        },
        "openLongDisTeleport": true,
        "_posBindMovingTargetKey": "",
        "_forwardBindMovingTargetKey": ""
      },
      {
        "$type": "EFHODGEJOHJ",
        "type": "CAMERA_MOVE",
        "delayTime": 0.10000000149011612,
        "duration": 18.510000228881836,
        "actionId": 178,
        "camPosOffset": {
          "x": -619.5349731445312,
          "y": 133.77200317382812,
          "z": 2516.56396484375
        },
        "camForwardTargetOffset": {
          "x": -620.3820190429688,
          "y": 133.6840057373047,
          "z": 2517.087890625
        },
        "camFov": 20.0,
        "cameraBlendType": "EaseOutQuad",
        "MDKBPBJCMHH": {},
        "needZAxisRotate": true,
        "openCameraDither": false,
        "targetNpcAlias": "",
        "closeTreeLeafDither": true,
        "PHGBNNGCJKJ": "",
        "NFILMKCFHEB": "",
        "BGPNGHDAECF": ""
      },
      {
        "$type": "NPCNMEOCADD",
        "type": "LOOK_AT",
        "delayTime": 0.19099999964237213,
        "aliasList": [
          "Avatar"
        ],
        "actionId": 177,
        "enableHead": true,
        "headTurnTime": 0.5,
        "targetNpcAlias": "1050",
        "openBackProtect": true,
        "targetNpcLookAtPoint": "",
        "BHGPHGNFCBF": ""
      },
      {
        "$type": "NPCNMEOCADD",
        "type": "LOOK_AT",
        "delayTime": 3.811000108718872,
        "aliasList": [
          "1050"
        ],
        "actionId": 218,
        "enableHead": true,
        "headTurnTime": 0.5,
        "targetNpcAlias": "Avatar",
        "openBackProtect": true,
        "targetNpcLookAtPoint": "",
        "BHGPHGNFCBF": ""
      },
      {
        "$type": "EDCHPJLDKIN",
        "type": "BODY_LANG",
        "delayTime": 4.300000190734863,
        "aliasList": [
          "1050"
        ],
        "actionId": 184,
        "bodyLangParam": 1120,
        "forceDoFreeStyle": true,
        "canDoRepeatFreeStyle": false,
        "cantBackToIdleWhenSitLoop": true,
        "eventPatternSuiteKey": ""
      }
    ],
    [
      {
        "$type": "EFHODGEJOHJ",
        "type": "CAMERA_MOVE",
        "duration": 1.0,
        "actionId": 180,
        "camPosOffset": {
          "x": -622.3829956054688,
          "y": 133.93299865722656,
          "z": 2519.0849609375
        },
        "camForwardTargetOffset": {
          "x": -623.2269897460938,
          "y": 133.73599243164062,
          "z": 2519.5830078125
        },
        "camFov": 20.0,
        "lerpPattern": 6,
        "cameraBlendType": "EaseInOutCubic",
        "MDKBPBJCMHH": {},
        "needZAxisRotate": true,
        "openCameraDither": false,
        "targetNpcAlias": "",
        "closeTreeLeafDither": true,
        "PHGBNNGCJKJ": "",
        "NFILMKCFHEB": "",
        "BGPNGHDAECF": ""
      },
      {
        "$type": "MoleMole.Config.ConfigCameraDOFAction",
        "type": "CAMERA_DOF",
        "actionId": 187,
        "enabled": true,
        "focusDistance": 2.5,
        "focusRange": 0.10000000149011612,
        "nearFocalTransDistance": 0.10000000149011612,
        "dofBlurAmount": 3.0,
        "quality": 3
      },
      {
        "$type": "MJFAIFFAGOF",
        "type": "DIALOG",
        "aliasList": [
          "1050"
        ],
        "dialogID": 130010304,
        "protectTime": 0.5
      },
      {
        "$type": "EDCHPJLDKIN",
        "type": "BODY_LANG",
        "aliasList": [
          "1050"
        ],
        "actionId": 182,
        "bodyLangParam": 1120,
        "forceDoFreeStyle": true,
        "canDoRepeatFreeStyle": false,
        "cantBackToIdleWhenSitLoop": true,
        "eventPatternSuiteKey": ""
      },
      {
        "$type": "NPCNMEOCADD",
        "type": "LOOK_AT",
        "aliasList": [
          "1050"
        ],
        "actionId": 244,
        "enableHead": true,
        "headTurnTime": 0.5,
        "targetNpcAlias": "Avatar",
        "openBackProtect": true,
        "targetNpcLookAtPoint": "",
        "BHGPHGNFCBF": ""
      },
      {
        "$type": "ICHLNKHGCAG",
        "type": "EMO_SYNC",
        "aliasList": [
          "1050"
        ],
        "dataPath": "Cs_Emo_Avatar_Simple_Common_Set/Cs_Emo_Avatar_Talk/Cs_Emo_Avatar_PersonalLine/Cs_Emo_Avatar_Tighnari/Cs_Emo_130010304",
        "phonemePath": "",
        "emotionPath": "",
        "mateDataPath": "",
        "matePhonemePath": "",
        "mateEmotionPath": "",
        "dataPathHashList": [
          8342627721115843525,
          5044044579185521577,
          3486751260417608675,
          9931454158111290018
        ],
        "PACNIGOOENN": "",
        "PIBDNPHIAGC": ""
      },
      {
        "$type": "EFHODGEJOHJ",
        "type": "CAMERA_MOVE",
        "delayTime": 0.10000000149011612,
        "duration": 13.961999893188477,
        "actionId": 181,
        "camPosOffset": {
          "x": -622.406982421875,
          "y": 133.93699645996094,
          "z": 2519.044921875
        },
        "camForwardTargetOffset": {
          "x": -623.2509765625,
          "y": 133.74000549316406,
          "z": 2519.54296875
        },
        "camFov": 20.0,
        "cameraBlendType": "EaseOutQuad",
        "MDKBPBJCMHH": {},
        "needZAxisRotate": true,
        "openCameraDither": false,
        "targetNpcAlias": "",
        "closeTreeLeafDither": true,
        "PHGBNNGCJKJ": "",
        "NFILMKCFHEB": "",
        "BGPNGHDAECF": ""
      },
      {
        "$type": "EDCHPJLDKIN",
        "type": "BODY_LANG",
        "delayTime": 1.8730000257492065,
        "aliasList": [
          "1050"
        ],
        "actionId": 226,
        "bodyLangParam": 4040,
        "forceDoFreeStyle": true,
        "canDoRepeatFreeStyle": false,
        "cantBackToIdleWhenSitLoop": true,
        "eventPatternSuiteKey": ""
      }
    ],
    [
      {
        "$type": "MoleMole.Config.ConfigCameraDOFAction",
        "type": "CAMERA_DOF",
        "actionId": 188,
        "enabled": true,
        "dofBlurAmount": 1.0,
        "quality": 3
      },
      {
        "$type": "EFHODGEJOHJ",
        "type": "CAMERA_MOVE",
        "duration": 1.0,
        "actionId": 189,
        "camPosOffset": {
          "x": -622.6119995117188,
          "y": 133.9810028076172,
          "z": 2519.166015625
        },
        "camForwardTargetOffset": {
          "x": -623.010009765625,
          "y": 133.64199829101562,
          "z": 2518.31298828125
        },
        "camFov": 20.0,
        "lerpPattern": 6,
        "cameraBlendType": "EaseInOutCubic",
        "MDKBPBJCMHH": {},
        "needZAxisRotate": true,
        "openCameraDither": false,
        "targetNpcAlias": "",
        "closeTreeLeafDither": true,
        "PHGBNNGCJKJ": "",
        "NFILMKCFHEB": "",
        "BGPNGHDAECF": ""
      },
      {
        "$type": "MJFAIFFAGOF",
        "type": "DIALOG",
        "aliasList": [
          "1005"
        ],
        "dialogID": 130010305,
        "protectTime": 0.5
      },
      {
        "$type": "EDCHPJLDKIN",
        "type": "BODY_LANG",
        "aliasList": [
          "1005"
        ],
        "actionId": 191,
        "bodyLangParam": 1110,
        "forceDoFreeStyle": true,
        "canDoRepeatFreeStyle": false,
        "cantBackToIdleWhenSitLoop": true,
        "eventPatternSuiteKey": ""
      },
      {
        "$type": "NPCNMEOCADD",
        "type": "LOOK_AT",
        "aliasList": [
          "1005"
        ],
        "actionId": 194,
        "enableHead": true,
        "headTurnTime": 0.5,
        "targetNpcAlias": "1050",
        "openBackProtect": true,
        "targetNpcLookAtPoint": "",
        "BHGPHGNFCBF": ""
      },
      {
        "$type": "ICHLNKHGCAG",
        "type": "EMO_SYNC",
        "aliasList": [
          "1005"
        ],
        "dataPath": "Cs_Emo_Avatar_Simple_Common_Set/Cs_Emo_Avatar_Talk/Cs_Emo_Avatar_PersonalLine/Cs_Emo_Avatar_Tighnari/Cs_Emo_130010305",
        "phonemePath": "",
        "emotionPath": "",
        "mateDataPath": "",
        "matePhonemePath": "",
        "mateEmotionPath": "",
        "dataPathHashList": [
          7528368347241573338,
          10983862485712329295,
          14148520720883824203,
          14443987557145932497
        ],
        "PACNIGOOENN": "",
        "PIBDNPHIAGC": ""
      },
      {
        "$type": "EFHODGEJOHJ",
        "type": "CAMERA_MOVE",
        "delayTime": 0.10000000149011612,
        "duration": 11.611000061035156,
        "actionId": 190,
        "camPosOffset": {
          "x": -622.6640014648438,
          "y": 133.82200622558594,
          "z": 2519.239990234375
        },
        "camForwardTargetOffset": {
          "x": -623.0250244140625,
          "y": 133.59500122070312,
          "z": 2518.3349609375
        },
        "camFov": 20.0,
        "cameraBlendType": "EaseOutQuad",
        "MDKBPBJCMHH": {},
        "needZAxisRotate": true,
        "openCameraDither": false,
        "targetNpcAlias": "",
        "closeTreeLeafDither": true,
        "PHGBNNGCJKJ": "",
        "NFILMKCFHEB": "",
        "BGPNGHDAECF": ""
      },
      {
        "$type": "NPCNMEOCADD",
        "type": "LOOK_AT",
        "delayTime": 0.1550000011920929,
        "aliasList": [
          "1050"
        ],
        "actionId": 219,
        "enableHead": true,
        "headTurnTime": 0.5,
        "targetNpcAlias": "1005",
        "openBackProtect": true,
        "targetNpcLookAtPoint": "",
        "BHGPHGNFCBF": ""
      },
      {
        "$type": "EDCHPJLDKIN",
        "type": "BODY_LANG",
        "delayTime": 2.930000066757202,
        "aliasList": [
          "1005"
        ],
        "actionId": 193,
        "isContinue": true,
        "forceDoFreeStyle": true,
        "canDoRepeatFreeStyle": false,
        "cantBackToIdleWhenSitLoop": true,
        "eventPatternSuiteKey": ""
      }
    ],
    [
      {
        "$type": "EFHODGEJOHJ",
        "type": "CAMERA_MOVE",
        "duration": 1.0,
        "actionId": 196,
        "camPosOffset": {
          "x": -606.4550170898438,
          "y": 141.82400512695312,
          "z": 2503.14306640625
        },
        "camForwardTargetOffset": {
          "x": -607.1619873046875,
          "y": 141.4770050048828,
          "z": 2503.759033203125
        },
        "camFov": 20.0,
        "lerpPattern": 6,
        "cameraBlendType": "EaseInOutCubic",
        "MDKBPBJCMHH": {},
        "openCameraDither": false,
        "targetNpcAlias": "",
        "closeTreeLeafDither": true,
        "PHGBNNGCJKJ": "",
        "NFILMKCFHEB": "",
        "BGPNGHDAECF": ""
      },
      {
        "$type": "NPCNMEOCADD",
        "type": "LOOK_AT",
        "aliasList": [
          "1005"
        ],
        "actionId": 195,
        "enableHead": true,
        "headTurnTime": 0.5,
        "targetNpcAlias": "1050",
        "openBackProtect": true,
        "targetNpcLookAtPoint": "",
        "BHGPHGNFCBF": ""
      },
      {
        "$type": "EDCHPJLDKIN",
        "type": "BODY_LANG",
        "aliasList": [
          "1005"
        ],
        "actionId": 227,
        "isContinue": true,
        "forceDoFreeStyle": true,
        "canDoRepeatFreeStyle": false,
        "cantBackToIdleWhenSitLoop": true,
        "eventPatternSuiteKey": ""
      },
      {
        "$type": "MJFAIFFAGOF",
        "type": "DIALOG",
        "aliasList": [
          "1050"
        ],
        "dialogID": 130010306,
        "protectTime": 0.5
      },
      {
        "$type": "EDCHPJLDKIN",
        "type": "BODY_LANG",
        "aliasList": [
          "1050"
        ],
        "actionId": 198,
        "bodyLangParam": 1121,
        "forceDoFreeStyle": true,
        "canDoRepeatFreeStyle": false,
        "cantBackToIdleWhenSitLoop": true,
        "eventPatternSuiteKey": ""
      },
      {
        "$type": "ICHLNKHGCAG",
        "type": "EMO_SYNC",
        "aliasList": [
          "1050"
        ],
        "dataPath": "Cs_Emo_Avatar_Simple_Common_Set/Cs_Emo_Avatar_Talk/Cs_Emo_Avatar_PersonalLine/Cs_Emo_Avatar_Tighnari/Cs_Emo_130010306",
        "phonemePath": "",
        "emotionPath": "",
        "mateDataPath": "",
        "matePhonemePath": "",
        "mateEmotionPath": "",
        "dataPathHashList": [
          10632016589419281175,
          12160126047193074857,
          3022182118378753905,
          2706269844489945069
        ],
        "PACNIGOOENN": "",
        "PIBDNPHIAGC": ""
      },
      {
        "$type": "EFHODGEJOHJ",
        "type": "CAMERA_MOVE",
        "delayTime": 0.10000000149011612,
        "duration": 13.220000267028809,
        "actionId": 197,
        "camPosOffset": {
          "x": -607.260986328125,
          "y": 141.42799377441406,
          "z": 2503.844970703125
        },
        "camForwardTargetOffset": {
          "x": -607.968017578125,
          "y": 141.08099365234375,
          "z": 2504.4609375
        },
        "camFov": 20.0,
        "cameraBlendType": "EaseOutQuad",
        "MDKBPBJCMHH": {},
        "openCameraDither": false,
        "targetNpcAlias": "",
        "closeTreeLeafDither": true,
        "PHGBNNGCJKJ": "",
        "NFILMKCFHEB": "",
        "BGPNGHDAECF": ""
      },
      {
        "$type": "EDCHPJLDKIN",
        "type": "BODY_LANG",
        "delayTime": 2.8010001182556152,
        "aliasList": [
          "1050"
        ],
        "actionId": 199,
        "isContinue": true,
        "forceDoFreeStyle": true,
        "canDoRepeatFreeStyle": false,
        "cantBackToIdleWhenSitLoop": true,
        "eventPatternSuiteKey": ""
      }
    ],
    [
      {
        "$type": "EFHODGEJOHJ",
        "type": "CAMERA_MOVE",
        "duration": 1.0,
        "actionId": 201,
        "camPosOffset": {
          "x": -621.3469848632812,
          "y": 134.60800170898438,
          "z": 2524.201904296875
        },
        "camForwardTargetOffset": {
          "x": -621.635986328125,
          "y": 134.3459930419922,
          "z": 2523.281005859375
        },
        "camFov": 20.0,
        "lerpPattern": 6,
        "cameraBlendType": "EaseInOutCubic",
        "MDKBPBJCMHH": {},
        "needZAxisRotate": true,
        "openCameraDither": false,
        "targetNpcAlias": "",
        "closeTreeLeafDither": true,
        "PHGBNNGCJKJ": "",
        "NFILMKCFHEB": "",
        "BGPNGHDAECF": ""
      },
      {
        "$type": "MJFAIFFAGOF",
        "type": "DIALOG",
        "aliasList": [
          "1050"
        ],
        "dialogID": 130010307,
        "protectTime": 0.5
      },
      {
        "$type": "EDCHPJLDKIN",
        "type": "BODY_LANG",
        "aliasList": [
          "1050"
        ],
        "actionId": 200,
        "isContinue": true,
        "forceDoFreeStyle": true,
        "canDoRepeatFreeStyle": false,
        "cantBackToIdleWhenSitLoop": true,
        "eventPatternSuiteKey": ""
      },
      {
        "$type": "NPCNMEOCADD",
        "type": "LOOK_AT",
        "aliasList": [
          "1050"
        ],
        "actionId": 220,
        "enableHead": true,
        "headTurnTime": 0.5,
        "targetNpcAlias": "Avatar",
        "openBackProtect": true,
        "targetNpcLookAtPoint": "",
        "BHGPHGNFCBF": ""
      },
      {
        "$type": "ICHLNKHGCAG",
        "type": "EMO_SYNC",
        "aliasList": [
          "1050"
        ],
        "dataPath": "Cs_Emo_Avatar_Simple_Common_Set/Cs_Emo_Avatar_Talk/Cs_Emo_Avatar_PersonalLine/Cs_Emo_Avatar_Tighnari/Cs_Emo_130010307",
        "phonemePath": "",
        "emotionPath": "",
        "mateDataPath": "",
        "matePhonemePath": "",
        "mateEmotionPath": "",
        "dataPathHashList": [
          1657934366827524702,
          4997412681806443355,
          6366119205669649594,
          6917297352073350017
        ],
        "PACNIGOOENN": "",
        "PIBDNPHIAGC": ""
      },
      {
        "$type": "EFHODGEJOHJ",
        "type": "CAMERA_MOVE",
        "delayTime": 0.10000000149011612,
        "duration": 7.440999984741211,
        "actionId": 202,
        "camPosOffset": {
          "x": -621.4119873046875,
          "y": 134.79800415039062,
          "z": 2524.0
        },
        "camForwardTargetOffset": {
          "x": -621.698974609375,
          "y": 134.51100158691406,
          "z": 2523.0859375
        },
        "camFov": 20.0,
        "cameraBlendType": "EaseOutQuad",
        "MDKBPBJCMHH": {},
        "needZAxisRotate": true,
        "openCameraDither": false,
        "targetNpcAlias": "",
        "closeTreeLeafDither": true,
        "PHGBNNGCJKJ": "",
        "NFILMKCFHEB": "",
        "BGPNGHDAECF": ""
      },
      {
        "$type": "EDCHPJLDKIN",
        "type": "BODY_LANG",
        "delayTime": 0.6259999871253967,
        "aliasList": [
          "1050"
        ],
        "actionId": 205,
        "bodyLangParam": 1171,
        "forceDoFreeStyle": true,
        "canDoRepeatFreeStyle": false,
        "cantBackToIdleWhenSitLoop": true,
        "eventPatternSuiteKey": ""
      },
      {
        "$type": "NPCNMEOCADD",
        "type": "LOOK_AT",
        "delayTime": 4.589000225067139,
        "aliasList": [
          "1050"
        ],
        "actionId": 221,
        "enableHead": true,
        "headTurnTime": 0.5,
        "targetNpcAlias": "1005",
        "openBackProtect": true,
        "targetNpcLookAtPoint": "",
        "BHGPHGNFCBF": ""
      },
      {
        "$type": "EFHODGEJOHJ",
        "type": "CAMERA_MOVE",
        "delayTime": 4.599999904632568,
        "duration": 1.0,
        "actionId": 204,
        "camPosOffset": {
          "x": -621.14599609375,
          "y": 133.6199951171875,
          "z": 2520.10205078125
        },
        "camForwardTargetOffset": {
          "x": -622.1320190429688,
          "y": 133.61599731445312,
          "z": 2519.93408203125
        },
        "camFov": 20.0,
        "lerpPattern": 6,
        "cameraBlendType": "EaseInOutCubic",
        "MDKBPBJCMHH": {},
        "openCameraDither": false,
        "targetNpcAlias": "",
        "closeTreeLeafDither": true,
        "PHGBNNGCJKJ": "",
        "NFILMKCFHEB": "",
        "BGPNGHDAECF": ""
      },
      {
        "$type": "EFHODGEJOHJ",
        "type": "CAMERA_MOVE",
        "delayTime": 4.699999809265137,
        "duration": 11.302000045776367,
        "actionId": 203,
        "camPosOffset": {
          "x": -621.1259765625,
          "y": 133.6230010986328,
          "z": 2519.98095703125
        },
        "camForwardTargetOffset": {
          "x": -622.1119995117188,
          "y": 133.61900329589844,
          "z": 2519.81298828125
        },
        "camFov": 20.0,
        "cameraBlendType": "EaseOutQuad",
        "MDKBPBJCMHH": {},
        "openCameraDither": false,
        "targetNpcAlias": "",
        "closeTreeLeafDither": true,
        "PHGBNNGCJKJ": "",
        "NFILMKCFHEB": "",
        "BGPNGHDAECF": ""
      },
      {
        "$type": "EDCHPJLDKIN",
        "type": "BODY_LANG",
        "delayTime": 4.863999843597412,
        "aliasList": [
          "1050"
        ],
        "actionId": 206,
        "bodyLangParam": 1172,
        "forceDoFreeStyle": true,
        "canDoRepeatFreeStyle": false,
        "cantBackToIdleWhenSitLoop": true,
        "eventPatternSuiteKey": ""
      }
    ],
    [
      {
        "$type": "EFHODGEJOHJ",
        "type": "CAMERA_MOVE",
        "duration": 1.0,
        "actionId": 207,
        "camPosOffset": {
          "x": -598.7999877929688,
          "y": 139.27000427246094,
          "z": 2518.3720703125
        },
        "camForwardTargetOffset": {
          "x": -599.7769775390625,
          "y": 139.05499267578125,
          "z": 2518.3798828125
        },
        "camFov": 20.0,
        "lerpPattern": 6,
        "cameraBlendType": "EaseInOutCubic",
        "MDKBPBJCMHH": {},
        "needZAxisRotate": true,
        "openCameraDither": false,
        "targetNpcAlias": "",
        "closeTreeLeafDither": true,
        "PHGBNNGCJKJ": "",
        "NFILMKCFHEB": "",
        "BGPNGHDAECF": ""
      },
      {
        "$type": "MoleMole.Config.ConfigTeleportToAction",
        "type": "TELEPORT_TO",
        "aliasList": [
          "1005"
        ],
        "actionId": 296,
        "position": {
          "x": -623.0889892578125,
          "y": 132.20199584960938,
          "z": 2517.76806640625
        },
        "forward": {
          "x": -0.19099999964237213,
          "z": 0.9819999933242798
        },
        "openLongDisTeleport": true,
        "_posBindMovingTargetKey": "",
        "_forwardBindMovingTargetKey": ""
      },
      {
        "$type": "MJFAIFFAGOF",
        "type": "DIALOG",
        "aliasList": [
          "1050"
        ],
        "dialogID": 130010308,
        "protectTime": 0.5
      },
      {
        "$type": "EDCHPJLDKIN",
        "type": "BODY_LANG",
        "aliasList": [
          "1050"
        ],
        "actionId": 213,
        "bodyLangParam": 1220,
        "forceDoFreeStyle": true,
        "canDoRepeatFreeStyle": false,
        "cantBackToIdleWhenSitLoop": true,
        "eventPatternSuiteKey": ""
      },
      {
        "$type": "NPCNMEOCADD",
        "type": "LOOK_AT",
        "aliasList": [
          "1050"
        ],
        "actionId": 222,
        "enableHead": true,
        "headTurnTime": 0.5,
        "targetNpcAlias": "Avatar",
        "openBackProtect": true,
        "targetNpcLookAtPoint": "",
        "BHGPHGNFCBF": ""
      },
      {
        "$type": "ICHLNKHGCAG",
        "type": "EMO_SYNC",
        "aliasList": [
          "1050"
        ],
        "dataPath": "Cs_Emo_Avatar_Simple_Common_Set/Cs_Emo_Avatar_Talk/Cs_Emo_Avatar_PersonalLine/Cs_Emo_Avatar_Tighnari/Cs_Emo_130010308",
        "phonemePath": "",
        "emotionPath": "",
        "mateDataPath": "",
        "matePhonemePath": "",
        "mateEmotionPath": "",
        "dataPathHashList": [
          16532652105050764096,
          8260129629174783483,
          12581056331810290790,
          814370299563354907
        ],
        "PACNIGOOENN": "",
        "PIBDNPHIAGC": ""
      },
      {
        "$type": "EFHODGEJOHJ",
        "type": "CAMERA_MOVE",
        "delayTime": 0.10000000149011612,
        "duration": 12.569999694824219,
        "actionId": 208,
        "camPosOffset": {
          "x": -600.0330200195312,
          "y": 138.9980010986328,
          "z": 2518.383056640625
        },
        "camForwardTargetOffset": {
          "x": -601.010009765625,
          "y": 138.7830047607422,
          "z": 2518.39111328125
        },
        "camFov": 20.0,
        "cameraBlendType": "EaseOutQuad",
        "MDKBPBJCMHH": {},
        "needZAxisRotate": true,
        "openCameraDither": false,
        "targetNpcAlias": "",
        "closeTreeLeafDither": true,
        "PHGBNNGCJKJ": "",
        "NFILMKCFHEB": "",
        "BGPNGHDAECF": ""
      }
    ],
    [
      {
        "$type": "EFHODGEJOHJ",
        "type": "CAMERA_MOVE",
        "duration": 1.0,
        "actionId": 209,
        "camPosOffset": {
          "x": -622.1599731445312,
          "y": 133.7270050048828,
          "z": 2516.6650390625
        },
        "camForwardTargetOffset": {
          "x": -622.5579833984375,
          "y": 133.6719970703125,
          "z": 2517.5810546875
        },
        "camFov": 20.0,
        "lerpPattern": 6,
        "cameraBlendType": "EaseInOutCubic",
        "MDKBPBJCMHH": {},
        "needZAxisRotate": true,
        "openCameraDither": false,
        "targetNpcAlias": "",
        "closeTreeLeafDither": true,
        "PHGBNNGCJKJ": "",
        "NFILMKCFHEB": "",
        "BGPNGHDAECF": ""
      },
      {
        "$type": "MoleMole.Config.ConfigTeleportToAction",
        "type": "TELEPORT_TO",
        "aliasList": [
          "Avatar"
        ],
        "actionId": 303,
        "position": {
          "x": -622.4940185546875,
          "y": 132.2429962158203,
          "z": 2518.050048828125
        },
        "forward": {
          "x": -0.45899999141693115,
          "z": 0.8880000114440918
        },
        "openLongDisTeleport": true,
        "_posBindMovingTargetKey": "",
        "_forwardBindMovingTargetKey": ""
      },
      {
        "$type": "MoleMole.Config.ConfigTeleportToAction",
        "type": "TELEPORT_TO",
        "aliasList": [
          "1005"
        ],
        "actionId": 295,
        "position": {
          "x": -623.0889892578125,
          "y": 132.2239990234375,
          "z": 2517.9990234375
        },
        "forward": {
          "x": -0.19099999964237213,
          "z": 0.9819999933242798
        },
        "openLongDisTeleport": true,
        "_posBindMovingTargetKey": "",
        "_forwardBindMovingTargetKey": ""
      },
      {
        "$type": "MJFAIFFAGOF",
        "type": "DIALOG",
        "aliasList": [
          "1050"
        ],
        "dialogID": 130010309,
        "protectTime": 4.699999809265137
      },
      {
        "$type": "NPCNMEOCADD",
        "type": "LOOK_AT",
        "aliasList": [
          "1050"
        ],
        "actionId": 223,
        "enableHead": true,
        "headTurnTime": 0.5,
        "targetNpcAlias": "1005",
        "openBackProtect": true,
        "targetNpcLookAtPoint": "",
        "BHGPHGNFCBF": ""
      },
      {
        "$type": "ICHLNKHGCAG",
        "type": "EMO_SYNC",
        "aliasList": [
          "1050"
        ],
        "dataPath": "Cs_Emo_Avatar_Simple_Common_Set/Cs_Emo_Avatar_Talk/Cs_Emo_Avatar_PersonalLine/Cs_Emo_Avatar_Tighnari/Cs_Emo_130010309",
        "phonemePath": "",
        "emotionPath": "",
        "mateDataPath": "",
        "matePhonemePath": "",
        "mateEmotionPath": "",
        "dataPathHashList": [
          5180945808162585210,
          8880006611309368555,
          4734994758259779049,
          3626062741857395519
        ],
        "PACNIGOOENN": "",
        "PIBDNPHIAGC": ""
      },
      {
        "$type": "EFHODGEJOHJ",
        "type": "CAMERA_MOVE",
        "delayTime": 0.10000000149011612,
        "duration": 6.789000034332275,
        "actionId": 210,
        "camPosOffset": {
          "x": -622.2050170898438,
          "y": 133.7209930419922,
          "z": 2516.76904296875
        },
        "camForwardTargetOffset": {
          "x": -622.60400390625,
          "y": 133.66600036621094,
          "z": 2517.68505859375
        },
        "camFov": 20.0,
        "cameraBlendType": "EaseOutQuad",
        "MDKBPBJCMHH": {},
        "needZAxisRotate": true,
        "openCameraDither": false,
        "targetNpcAlias": "",
        "closeTreeLeafDither": true,
        "PHGBNNGCJKJ": "",
        "NFILMKCFHEB": "",
        "BGPNGHDAECF": ""
      },
      {
        "$type": "EDCHPJLDKIN",
        "type": "BODY_LANG",
        "delayTime": 1.6820000410079956,
        "aliasList": [
          "1050"
        ],
        "actionId": 214,
        "bodyLangParam": 1221,
        "forceDoFreeStyle": true,
        "canDoRepeatFreeStyle": false,
        "cantBackToIdleWhenSitLoop": true,
        "eventPatternSuiteKey": ""
      },
      {
        "$type": "EDCHPJLDKIN",
        "type": "BODY_LANG",
        "delayTime": 3.6610000133514404,
        "aliasList": [
          "1050"
        ],
        "actionId": 215,
        "isContinue": true,
        "forceDoFreeStyle": true,
        "canDoRepeatFreeStyle": false,
        "cantBackToIdleWhenSitLoop": true,
        "eventPatternSuiteKey": ""
      },
      {
        "$type": "EFHODGEJOHJ",
        "type": "CAMERA_MOVE",
        "delayTime": 4.400000095367432,
        "duration": 1.0,
        "actionId": 211,
        "camPosOffset": {
          "x": -621.7960205078125,
          "y": 133.79299926757812,
          "z": 2519.547119140625
        },
        "camForwardTargetOffset": {
          "x": -622.323974609375,
          "y": 133.65199279785156,
          "z": 2518.708984375
        },
        "camFov": 20.0,
        "lerpPattern": 6,
        "cameraBlendType": "EaseInOutCubic",
        "MDKBPBJCMHH": {},
        "needZAxisRotate": true,
        "openCameraDither": false,
        "targetNpcAlias": "",
        "closeTreeLeafDither": true,
        "PHGBNNGCJKJ": "",
        "NFILMKCFHEB": "",
        "BGPNGHDAECF": ""
      },
      {
        "$type": "EFHODGEJOHJ",
        "type": "CAMERA_MOVE",
        "delayTime": 4.5,
        "duration": 10.496999740600586,
        "actionId": 212,
        "camPosOffset": {
          "x": -621.8930053710938,
          "y": 133.76699829101562,
          "z": 2519.39306640625
        },
        "camForwardTargetOffset": {
          "x": -622.4210205078125,
          "y": 133.62600708007812,
          "z": 2518.554931640625
        },
        "camFov": 20.0,
        "cameraBlendType": "EaseOutQuad",
        "MDKBPBJCMHH": {},
        "needZAxisRotate": true,
        "openCameraDither": false,
        "targetNpcAlias": "",
        "closeTreeLeafDither": true,
        "PHGBNNGCJKJ": "",
        "NFILMKCFHEB": "",
        "BGPNGHDAECF": ""
      },
      {
        "$type": "NPCNMEOCADD",
        "type": "LOOK_AT",
        "delayTime": 4.574999809265137,
        "aliasList": [
          "1050"
        ],
        "actionId": 224,
        "enableHead": true,
        "headTurnTime": 0.5,
        "targetNpcAlias": "Avatar",
        "openBackProtect": true,
        "targetNpcLookAtPoint": "",
        "BHGPHGNFCBF": ""
      },
      {
        "$type": "OBCDECFOOBC",
        "type": "DIALOG_SELECT",
        "delayTime": 4.699999809265137,
        "aliasList": [
          "Avatar"
        ],
        "dialogIDList": [
          130010310
        ],
        "grpIDList": [
          813425294
        ],
        "useGrpId": true
      },
      {
        "$type": "ICHLNKHGCAG",
        "type": "EMO_SYNC",
        "delayTime": 7.394999980926514,
        "aliasList": [
          "Avatar"
        ],
        "actionId": 300,
        "dataPath": "",
        "phonemePath": "Cs_Emo_Avatar_Common/Cs_Emo_Avatar_Angry01",
        "emotionPath": "Cs_Emo_Avatar_Common/Cs_Emo_Avatar_Doubt01_B",
        "mateDataPath": "",
        "matePhonemePath": "",
        "mateEmotionPath": "",
        "phonemePathHashList": [
          14296606849723709100,
          5508348580450379567,
          7627497203169383327,
          8979581647593659876
        ],
        "emotionPathHashList": [
          2728448682492692904,
          1898638695637929735,
          6744657920390554177,
          3457791262489437525
        ],
        "PACNIGOOENN": "",
        "PIBDNPHIAGC": ""
      },
      {
        "$type": "EDCHPJLDKIN",
        "type": "BODY_LANG",
        "delayTime": 7.400000095367432,
        "aliasList": [
          "Avatar"
        ],
        "actionId": 230,
        "bodyLangParam": 1190,
        "forceDoFreeStyle": true,
        "canDoRepeatFreeStyle": false,
        "cantBackToIdleWhenSitLoop": true,
        "eventPatternSuiteKey": ""
      }
    ],
    [
      {
        "$type": "EFHODGEJOHJ",
        "type": "CAMERA_MOVE",
        "duration": 1.0,
        "actionId": 231,
        "camPosOffset": {
          "x": -621.5120239257812,
          "y": 138.66900634765625,
          "z": 2530.45703125
        },
        "camForwardTargetOffset": {
          "x": -621.6690063476562,
          "y": 138.23300170898438,
          "z": 2529.571044921875
        },
        "camFov": 20.0,
        "lerpPattern": 6,
        "cameraBlendType": "EaseInOutCubic",
        "MDKBPBJCMHH": {},
        "needZAxisRotate": true,
        "openCameraDither": false,
        "targetNpcAlias": "",
        "closeTreeLeafDither": true,
        "PHGBNNGCJKJ": "",
        "NFILMKCFHEB": "",
        "BGPNGHDAECF": ""
      },
      {
        "$type": "EDCHPJLDKIN",
        "type": "BODY_LANG",
        "aliasList": [
          "Avatar"
        ],
        "actionId": 256,
        "bodyLangParam": 1190,
        "forceDoFreeStyle": true,
        "canDoRepeatFreeStyle": false,
        "cantBackToIdleWhenSitLoop": true,
        "eventPatternSuiteKey": ""
      },
      {
        "$type": "MoleMole.Config.ConfigTeleportToAction",
        "type": "TELEPORT_TO",
        "aliasList": [
          "Avatar"
        ],
        "actionId": 304,
        "position": {
          "x": -622.302001953125,
          "y": 132.218994140625,
          "z": 2517.6669921875
        },
        "forward": {
          "x": -0.45899999141693115,
          "z": 0.8880000114440918
        },
        "openLongDisTeleport": true,
        "_posBindMovingTargetKey": "",
        "_forwardBindMovingTargetKey": ""
      },
      {
        "$type": "MJFAIFFAGOF",
        "type": "DIALOG",
        "aliasList": [
          "1005"
        ],
        "dialogID": 130010311,
        "protectTime": 0.5
      },
      {
        "$type": "EDCHPJLDKIN",
        "type": "BODY_LANG",
        "aliasList": [
          "1005"
        ],
        "actionId": 234,
        "bodyLangParam": 1050,
        "forceDoFreeStyle": true,
        "canDoRepeatFreeStyle": false,
        "cantBackToIdleWhenSitLoop": true,
        "eventPatternSuiteKey": ""
      },
      {
        "$type": "ICHLNKHGCAG",
        "type": "EMO_SYNC",
        "aliasList": [
          "1005"
        ],
        "dataPath": "Cs_Emo_Avatar_Simple_Common_Set/Cs_Emo_Avatar_Talk/Cs_Emo_Avatar_PersonalLine/Cs_Emo_Avatar_Tighnari/Cs_Emo_130010311",
        "phonemePath": "",
        "emotionPath": "",
        "mateDataPath": "",
        "matePhonemePath": "",
        "mateEmotionPath": "",
        "dataPathHashList": [
          14830310742119661315,
          18170502144213359602,
          7556362314375987105,
          1238838428458878424
        ],
        "PACNIGOOENN": "",
        "PIBDNPHIAGC": ""
      },
      {
        "$type": "EFHODGEJOHJ",
        "type": "CAMERA_MOVE",
        "delayTime": 0.10000000149011612,
        "duration": 10.281000137329102,
        "actionId": 233,
        "camPosOffset": {
          "x": -620.6079711914062,
          "y": 138.66900634765625,
          "z": 2530.258056640625
        },
        "camForwardTargetOffset": {
          "x": -620.8359985351562,
          "y": 138.23300170898438,
          "z": 2529.386962890625
        },
        "camFov": 20.0,
        "cameraBlendType": "EaseOutQuad",
        "MDKBPBJCMHH": {},
        "needZAxisRotate": true,
        "openCameraDither": false,
        "targetNpcAlias": "",
        "closeTreeLeafDither": true,
        "PHGBNNGCJKJ": "",
        "NFILMKCFHEB": "",
        "BGPNGHDAECF": ""
      },
      {
        "$type": "NPCNMEOCADD",
        "type": "LOOK_AT",
        "delayTime": 0.22100000083446503,
        "aliasList": [
          "1050"
        ],
        "actionId": 225,
        "enableHead": true,
        "headTurnTime": 0.5,
        "targetNpcAlias": "1005",
        "openBackProtect": true,
        "targetNpcLookAtPoint": "",
        "BHGPHGNFCBF": ""
      },
      {
        "$type": "EDCHPJLDKIN",
        "type": "BODY_LANG",
        "delayTime": 1.7990000247955322,
        "aliasList": [
          "1005"
        ],
        "actionId": 235,
        "isContinue": true,
        "forceDoFreeStyle": true,
        "canDoRepeatFreeStyle": false,
        "cantBackToIdleWhenSitLoop": true,
        "eventPatternSuiteKey": ""
      }
    ],
    [
      {
        "$type": "EDCHPJLDKIN",
        "type": "BODY_LANG",
        "aliasList": [
          "1005"
        ],
        "actionId": 310,
        "isContinue": true,
        "forceDoFreeStyle": true,
        "canDoRepeatFreeStyle": false,
        "cantBackToIdleWhenSitLoop": true,
        "eventPatternSuiteKey": ""
      },
      {
        "$type": "MJFAIFFAGOF",
        "type": "DIALOG",
        "aliasList": [
          "1050"
        ],
        "dialogID": 130010312,
        "protectTime": 0.5
      },
      {
        "$type": "ICHLNKHGCAG",
        "type": "EMO_SYNC",
        "aliasList": [
          "1050"
        ],
        "dataPath": "Cs_Emo_Avatar_Simple_Common_Set/Cs_Emo_Avatar_Talk/Cs_Emo_Avatar_PersonalLine/Cs_Emo_Avatar_Tighnari/Cs_Emo_130010312_2",
        "phonemePath": "",
        "emotionPath": "",
        "mateDataPath": "Cs_Emo_Avatar_Simple_Common_Set/Cs_Emo_Avatar_Talk/Cs_Emo_Avatar_PersonalLine/Cs_Emo_Avatar_Tighnari/Cs_Emo_130010312_1",
        "matePhonemePath": "",
        "mateEmotionPath": "",
        "dataPathHashList": [
          4046404306320698873,
          9456142683683942254,
          10411185052309147330,
          3259618204162214874
        ],
        "mateDataPathHashList": [
          9693796474312815248,
          17739966441515668235,
          3470435910121838745,
          4787594645060740378
        ],
        "PACNIGOOENN": "",
        "PIBDNPHIAGC": ""
      },
      {
        "$type": "EDCHPJLDKIN",
        "type": "BODY_LANG",
        "delayTime": 0.3709999918937683,
        "aliasList": [
          "1050"
        ],
        "actionId": 240,
        "bodyLangParam": 4040,
        "forceDoFreeStyle": true,
        "canDoRepeatFreeStyle": false,
        "cantBackToIdleWhenSitLoop": true,
        "eventPatternSuiteKey": ""
      },
      {
        "$type": "EFHODGEJOHJ",
        "type": "CAMERA_MOVE",
        "delayTime": 0.5,
        "duration": 1.0,
        "actionId": 236,
        "camPosOffset": {
          "x": -613.3610229492188,
          "y": 135.0070037841797,
          "z": 2512.324951171875
        },
        "camForwardTargetOffset": {
          "x": -614.1190185546875,
          "y": 134.8300018310547,
          "z": 2512.952880859375
        },
        "camFov": 25.0,
        "lerpPattern": 6,
        "cameraBlendType": "EaseInOutCubic",
        "MDKBPBJCMHH": {},
        "needZAxisRotate": true,
        "openCameraDither": false,
        "targetNpcAlias": "",
        "closeTreeLeafDither": true,
        "PHGBNNGCJKJ": "",
        "NFILMKCFHEB": "",
        "BGPNGHDAECF": ""
      },
      {
        "$type": "MoleMole.Config.ConfigTeleportToAction",
        "type": "TELEPORT_TO",
        "delayTime": 0.5,
        "aliasList": [
          "Avatar"
        ],
        "actionId": 305,
        "position": {
          "x": -622.0089721679688,
          "y": 132.2469940185547,
          "z": 2517.864013671875
        },
        "forward": {
          "x": -0.45899999141693115,
          "z": 0.8880000114440918
        },
        "openLongDisTeleport": true,
        "_posBindMovingTargetKey": "",
        "_forwardBindMovingTargetKey": ""
      },
      {
        "$type": "EFHODGEJOHJ",
        "type": "CAMERA_MOVE",
        "delayTime": 0.6000000238418579,
        "duration": 22.729000091552734,
        "actionId": 242,
        "camPosOffset": {
          "x": -613.9530029296875,
          "y": 134.96299743652344,
          "z": 2511.64599609375
        },
        "camForwardTargetOffset": {
          "x": -614.6820068359375,
          "y": 134.79200744628906,
          "z": 2512.30810546875
        },
        "camFov": 25.0,
        "cameraBlendType": "EaseOutQuad",
        "MDKBPBJCMHH": {},
        "needZAxisRotate": true,
        "openCameraDither": false,
        "targetNpcAlias": "",
        "closeTreeLeafDither": true,
        "PHGBNNGCJKJ": "",
        "NFILMKCFHEB": "",
        "BGPNGHDAECF": ""
      },
      {
        "$type": "EDCHPJLDKIN",
        "type": "BODY_LANG",
        "delayTime": 1.2990000247955322,
        "aliasList": [
          "1050"
        ],
        "actionId": 239,
        "isContinue": true,
        "forceDoFreeStyle": true,
        "canDoRepeatFreeStyle": false,
        "cantBackToIdleWhenSitLoop": true,
        "eventPatternSuiteKey": ""
      },
      {
        "$type": "EDCHPJLDKIN",
        "type": "BODY_LANG",
        "delayTime": 2.049999952316284,
        "aliasList": [
          "1050"
        ],
        "actionId": 241,
        "bodyLangParam": 1172,
        "forceDoFreeStyle": true,
        "canDoRepeatFreeStyle": false,
        "cantBackToIdleWhenSitLoop": true,
        "eventPatternSuiteKey": ""
      },
      {
        "$type": "NPCNMEOCADD",
        "type": "LOOK_AT",
        "delayTime": 2.296999931335449,
        "aliasList": [
          "1050"
        ],
        "actionId": 237,
        "enableHead": true,
        "headTurnTime": 0.5,
        "targetNpcAlias": "Avatar",
        "openBackProtect": true,
        "targetNpcLookAtPoint": "",
        "BHGPHGNFCBF": ""
      },
      {
        "$type": "EDCHPJLDKIN",
        "type": "BODY_LANG",
        "delayTime": 2.5,
        "aliasList": [
          "Avatar"
        ],
        "actionId": 232,
        "isContinue": true,
        "forceDoFreeStyle": true,
        "canDoRepeatFreeStyle": false,
        "cantBackToIdleWhenSitLoop": true,
        "eventPatternSuiteKey": ""
      }
    ],
    [
      {
        "$type": "EFHODGEJOHJ",
        "type": "CAMERA_MOVE",
        "duration": 1.0,
        "actionId": 243,
        "camPosOffset": {
          "x": -619.885009765625,
          "y": 133.70199584960938,
          "z": 2516.5029296875
        },
        "camForwardTargetOffset": {
          "x": -620.7039794921875,
          "y": 133.6320037841797,
          "z": 2517.072998046875
        },
        "camFov": 20.0,
        "lerpPattern": 6,
        "cameraBlendType": "EaseInOutCubic",
        "MDKBPBJCMHH": {},
        "needZAxisRotate": true,
        "openCameraDither": false,
        "targetNpcAlias": "",
        "closeTreeLeafDither": true,
        "PHGBNNGCJKJ": "",
        "NFILMKCFHEB": "",
        "BGPNGHDAECF": ""
      },
      {
        "$type": "EDCHPJLDKIN",
        "type": "BODY_LANG",
        "aliasList": [
          "1050"
        ],
        "actionId": 249,
        "bodyLangParam": 1173,
        "forceDoFreeStyle": true,
        "canDoRepeatFreeStyle": false,
        "cantBackToIdleWhenSitLoop": true,
        "eventPatternSuiteKey": ""
      },
      {
        "$type": "NPCNMEOCADD",
        "type": "LOOK_AT",
        "aliasList": [
          "1050"
        ],
        "actionId": 245,
        "enableHead": true,
        "headTurnTime": 0.5,
        "targetNpcAlias": "Avatar",
        "openBackProtect": true,
        "targetNpcLookAtPoint": "",
        "BHGPHGNFCBF": ""
      },
      {
        "$type": "MJFAIFFAGOF",
        "type": "DIALOG",
        "aliasList": [
          "1050"
        ],
        "dialogID": 130010313,
        "protectTime": 6.0
      },
      {
        "$type": "ICHLNKHGCAG",
        "type": "EMO_SYNC",
        "aliasList": [
          "1050"
        ],
        "dataPath": "Cs_Emo_Avatar_Simple_Common_Set/Cs_Emo_Avatar_Talk/Cs_Emo_Avatar_PersonalLine/Cs_Emo_Avatar_Tighnari/Cs_Emo_130010313",
        "phonemePath": "",
        "emotionPath": "",
        "mateDataPath": "",
        "matePhonemePath": "",
        "mateEmotionPath": "",
        "dataPathHashList": [
          17804609213469588248,
          11771245002582225343,
          6768155825955053649,
          13069281568406719949
        ],
        "PACNIGOOENN": "",
        "PIBDNPHIAGC": ""
      },
      {
        "$type": "ICHLNKHGCAG",
        "type": "EMO_SYNC",
        "aliasList": [
          "Avatar"
        ],
        "actionId": 301,
        "dataPath": "",
        "phonemePath": "Cs_Emo_Avatar_Common/Cs_Emo_Avatar_Default01",
        "emotionPath": "Cs_Emo_Avatar_Common/Cs_Emo_Avatar_Default01",
        "mateDataPath": "",
        "matePhonemePath": "",
        "mateEmotionPath": "",
        "phonemePathHashList": [
          1010565500959774114,
          17914558573000180712,
          14498871351621154070,
          14348654671849899985
        ],
        "emotionPathHashList": [
          17551147554270584215,
          11567349927864383394,
          11535483659151300012,
          3124390413002392171
        ],
        "PACNIGOOENN": "",
        "PIBDNPHIAGC": ""
      },
      {
        "$type": "MoleMole.Config.ConfigTeleportToAction",
        "type": "TELEPORT_TO",
        "aliasList": [
          "Avatar"
        ],
        "actionId": 306,
        "position": {
          "x": -622.3319702148438,
          "y": 132.24899291992188,
          "z": 2518.10595703125
        },
        "forward": {
          "x": -0.45899999141693115,
          "z": 0.8880000114440918
        },
        "openLongDisTeleport": true,
        "_posBindMovingTargetKey": "",
        "_forwardBindMovingTargetKey": ""
      },
      {
        "$type": "EDCHPJLDKIN",
        "type": "BODY_LANG",
        "aliasList": [
          "Avatar"
        ],
        "actionId": 238,
        "isContinue": true,
        "forceDoFreeStyle": true,
        "canDoRepeatFreeStyle": false,
        "cantBackToIdleWhenSitLoop": true,
        "eventPatternSuiteKey": ""
      },
      {
        "$type": "EFHODGEJOHJ",
        "type": "CAMERA_MOVE",
        "delayTime": 0.10000000149011612,
        "duration": 8.486000061035156,
        "actionId": 246,
        "camPosOffset": {
          "x": -620.0280151367188,
          "y": 133.69000244140625,
          "z": 2516.60205078125
        },
        "camForwardTargetOffset": {
          "x": -620.8469848632812,
          "y": 133.6199951171875,
          "z": 2517.172119140625
        },
        "camFov": 20.0,
        "cameraBlendType": "EaseOutQuad",
        "MDKBPBJCMHH": {},
        "needZAxisRotate": true,
        "openCameraDither": false,
        "targetNpcAlias": "",
        "closeTreeLeafDither": true,
        "PHGBNNGCJKJ": "",
        "NFILMKCFHEB": "",
        "BGPNGHDAECF": ""
      },
      {
        "$type": "EDCHPJLDKIN",
        "type": "BODY_LANG",
        "delayTime": 3.2009999752044678,
        "aliasList": [
          "1050"
        ],
        "actionId": 297,
        "bodyLangParam": 4040,
        "forceDoFreeStyle": true,
        "canDoRepeatFreeStyle": false,
        "cantBackToIdleWhenSitLoop": true,
        "eventPatternSuiteKey": ""
      },
      {
        "$type": "EDCHPJLDKIN",
        "type": "BODY_LANG",
        "delayTime": 5.021999835968018,
        "aliasList": [
          "1050"
        ],
        "actionId": 250,
        "bodyLangParam": 1230,
        "forceDoFreeStyle": true,
        "canDoRepeatFreeStyle": false,
        "cantBackToIdleWhenSitLoop": true,
        "eventPatternSuiteKey": ""
      },
      {
        "$type": "MoleMole.Config.ConfigCameraDOFAction",
        "type": "CAMERA_DOF",
        "delayTime": 6.0,
        "actionId": 253,
        "enabled": true,
        "focusDistance": 2.5,
        "focusRange": 0.10000000149011612,
        "nearFocalTransDistance": 0.10000000149011612,
        "dofBlurAmount": 3.0,
        "quality": 3
      },
      {
        "$type": "EFHODGEJOHJ",
        "type": "CAMERA_MOVE",
        "delayTime": 6.0,
        "duration": 1.0,
        "actionId": 248,
        "camPosOffset": {
          "x": -622.1580200195312,
          "y": 133.78799438476562,
          "z": 2518.3759765625
        },
        "camForwardTargetOffset": {
          "x": -622.9119873046875,
          "y": 133.71499633789062,
          "z": 2519.029052734375
        },
        "camFov": 20.0,
        "lerpPattern": 6,
        "cameraBlendType": "EaseInOutCubic",
        "MDKBPBJCMHH": {},
        "needZAxisRotate": true,
        "openCameraDither": false,
        "targetNpcAlias": "",
        "closeTreeLeafDither": true,
        "PHGBNNGCJKJ": "",
        "NFILMKCFHEB": "",
        "BGPNGHDAECF": ""
      },
      {
        "$type": "EFHODGEJOHJ",
        "type": "CAMERA_MOVE",
        "delayTime": 6.099999904632568,
        "duration": 14.704000473022461,
        "actionId": 247,
        "camPosOffset": {
          "x": -622.1909790039062,
          "y": 133.81100463867188,
          "z": 2518.341064453125
        },
        "camForwardTargetOffset": {
          "x": -622.97900390625,
          "y": 133.72900390625,
          "z": 2518.951904296875
        },
        "camFov": 20.0,
        "cameraBlendType": "EaseOutQuad",
        "MDKBPBJCMHH": {},
        "openCameraDither": false,
        "targetNpcAlias": "",
        "closeTreeLeafDither": true,
        "PHGBNNGCJKJ": "",
        "NFILMKCFHEB": "",
        "BGPNGHDAECF": ""
      },
      {
        "$type": "NPCNMEOCADD",
        "type": "LOOK_AT",
        "delayTime": 6.815999984741211,
        "aliasList": [
          "1050"
        ],
        "actionId": 251,
        "enableHead": true,
        "useTargetPos": true,
        "enableAbsolute": true,
        "targetPosition": {
          "x": -623.64501953125,
          "y": 133.58900451660156,
          "z": 2519.554931640625
        },
        "headTurnTime": 0.5,
        "targetNpcAlias": "12603",
        "lookAtTargetType": "NONE",
        "openBackProtect": true,
        "targetNpcLookAtPoint": "",
        "BHGPHGNFCBF": ""
      },
      {
        "$type": "HGDDIPABPCA",
        "type": "LOOK_AT_EYECTRL",
        "delayTime": 6.908999919891357,
        "aliasList": [
          "1050"
        ],
        "actionId": 252,
        "useTargetPos": false,
        "eyeRotateVecLeft": {
          "x": 6.0,
          "z": 2.0
        },
        "eyeRotateVecRight": {
          "x": 6.0,
          "z": 2.0
        },
        "turnTime": 0.20000000298023224,
        "targetNpcAlias": "",
        "targetPoint": "Face"
      },
      {
        "$type": "MoleMole.Config.ConfigCameraDOFAction",
        "type": "CAMERA_DOF",
        "delayTime": 7.504000186920166,
        "duration": 1.0,
        "actionId": 254,
        "enabled": true,
        "focusDistance": 100.0,
        "focusRange": 0.10000000149011612,
        "nearFocalTransDistance": 0.10000000149011612,
        "dofBlurAmount": 3.0,
        "quality": 3
      }
    ],
    [
      {
        "$type": "MoleMole.Config.ConfigCameraDOFAction",
        "type": "CAMERA_DOF",
        "duration": 0.0,
        "actionId": 260,
        "enabled": true,
        "dofBlurAmount": 1.0,
        "quality": 3
      },
      {
        "$type": "NPCNMEOCADD",
        "type": "LOOK_AT",
        "aliasList": [
          "1050"
        ],
        "actionId": 308,
        "enableHead": true,
        "useTargetPos": true,
        "enableAbsolute": true,
        "targetPosition": {
          "x": -623.64501953125,
          "y": 133.58900451660156,
          "z": 2519.554931640625
        },
        "headTurnTime": 0.5,
        "targetNpcAlias": "12603",
        "lookAtTargetType": "NONE",
        "openBackProtect": true,
        "targetNpcLookAtPoint": "",
        "BHGPHGNFCBF": ""
      },
      {
        "$type": "HGDDIPABPCA",
        "type": "LOOK_AT_EYECTRL",
        "aliasList": [
          "1050"
        ],
        "actionId": 309,
        "useTargetPos": false,
        "eyeRotateVecLeft": {
          "x": 6.0,
          "z": 2.0
        },
        "eyeRotateVecRight": {
          "x": 6.0,
          "z": 2.0
        },
        "turnTime": 0.20000000298023224,
        "targetNpcAlias": "",
        "targetPoint": "Face"
      },
      {
        "$type": "MJFAIFFAGOF",
        "type": "DIALOG",
        "aliasList": [
          "12603"
        ],
        "dialogID": 130010314,
        "protectTime": 0.5
      },
      {
        "$type": "NPCNMEOCADD",
        "type": "LOOK_AT",
        "aliasList": [
          "12603"
        ],
        "actionId": 255,
        "enableHead": true,
        "headTurnTime": 0.5,
        "targetNpcAlias": "1050",
        "openBackProtect": true,
        "targetNpcLookAtPoint": "",
        "BHGPHGNFCBF": ""
      },
      {
        "$type": "IEKHMHNHENB",
        "type": "STEER_TO",
        "duration": 1.0,
        "aliasList": [
          "12603"
        ],
        "actionId": 257,
        "steerType": "ABSOLUTE",
        "steerDir": {
          "x": -624.9580078125,
          "y": 132.25100708007812,
          "z": 2520.56591796875
        },
        "useSteerAnim": true,
        "targetNpcAlias": "",
        "BHGPHGNFCBF": ""
      },
      {
        "$type": "ICHLNKHGCAG",
        "type": "EMO_SYNC",
        "aliasList": [
          "12603"
        ],
        "dataPath": "Cs_Emo_Avatar_Simple_Common_Set/Cs_Emo_Avatar_Talk/Cs_Emo_Avatar_PersonalLine/Cs_Emo_Avatar_Tighnari/Cs_Emo_130010314",
        "phonemePath": "",
        "emotionPath": "",
        "mateDataPath": "",
        "matePhonemePath": "",
        "mateEmotionPath": "",
        "dataPathHashList": [
          16401523365374272491,
          13387206444970782819,
          6393930309205276640,
          17520661195262542776
        ],
        "PACNIGOOENN": "",
        "PIBDNPHIAGC": ""
      },
      {
        "$type": "MoleMole.Config.ConfigTeleportToAction",
        "type": "TELEPORT_TO",
        "aliasList": [
          "12603"
        ],
        "actionId": 298,
        "position": {
          "x": -626.197998046875,
          "y": 132.25100708007812,
          "z": 2521.35302734375
        },
        "forward": {
          "x": 0.6940000057220459,
          "z": -0.7310000061988831
        },
        "openLongDisTeleport": true,
        "_posBindMovingTargetKey": "",
        "_forwardBindMovingTargetKey": ""
      }
    ],
    [
      {
        "$type": "EFHODGEJOHJ",
        "type": "CAMERA_MOVE",
        "duration": 1.0,
        "actionId": 258,
        "camPosOffset": {
          "x": -623.4039916992188,
          "y": 134.5070037841797,
          "z": 2526.990966796875
        },
        "camForwardTargetOffset": {
          "x": -623.469970703125,
          "y": 134.34800720214844,
          "z": 2526.006103515625
        },
        "camFov": 20.0,
        "lerpPattern": 6,
        "cameraBlendType": "EaseInOutCubic",
        "MDKBPBJCMHH": {},
        "needZAxisRotate": true,
        "openCameraDither": false,
        "targetNpcAlias": "",
        "closeTreeLeafDither": true,
        "PHGBNNGCJKJ": "",
        "NFILMKCFHEB": "",
        "BGPNGHDAECF": ""
      },
      {
        "$type": "MoleMole.Config.ConfigTeleportToAction",
        "type": "TELEPORT_TO",
        "aliasList": [
          "Avatar"
        ],
        "actionId": 307,
        "position": {
          "x": -622.2520141601562,
          "y": 132.23500061035156,
          "z": 2517.837890625
        },
        "forward": {
          "x": -0.45899999141693115,
          "z": 0.8880000114440918
        },
        "openLongDisTeleport": true,
        "_posBindMovingTargetKey": "",
        "_forwardBindMovingTargetKey": ""
      },
      {
        "$type": "MJFAIFFAGOF",
        "type": "DIALOG",
        "aliasList": [
          "1050"
        ],
        "dialogID": 130010315,
        "protectTime": 0.5
      },
      {
        "$type": "NPCNMEOCADD",
        "type": "LOOK_AT",
        "aliasList": [
          "1050"
        ],
        "actionId": 261,
        "enableHead": true,
        "headTurnTime": 0.5,
        "targetNpcAlias": "Avatar",
        "openBackProtect": true,
        "targetNpcLookAtPoint": "",
        "BHGPHGNFCBF": ""
      },
      {
        "$type": "HGDDIPABPCA",
        "type": "LOOK_AT_EYECTRL",
        "aliasList": [
          "1050"
        ],
        "actionId": 267,
        "useTargetPos": false,
        "turnTime": 1.0,
        "targetNpcAlias": "",
        "targetPoint": "Face"
      },
      {
        "$type": "ICHLNKHGCAG",
        "type": "EMO_SYNC",
        "aliasList": [
          "1050"
        ],
        "dataPath": "Cs_Emo_Avatar_Simple_Common_Set/Cs_Emo_Avatar_Talk/Cs_Emo_Avatar_PersonalLine/Cs_Emo_Avatar_Tighnari/Cs_Emo_130010315",
        "phonemePath": "",
        "emotionPath": "",
        "mateDataPath": "",
        "matePhonemePath": "",
        "mateEmotionPath": "",
        "dataPathHashList": [
          10753325276281246857,
          9288635197951105068,
          7854405116827567606,
          14549462772521508688
        ],
        "PACNIGOOENN": "",
        "PIBDNPHIAGC": ""
      },
      {
        "$type": "EFHODGEJOHJ",
        "type": "CAMERA_MOVE",
        "delayTime": 0.10000000149011612,
        "duration": 13.034000396728516,
        "actionId": 259,
        "camPosOffset": {
          "x": -623.2100219726562,
          "y": 134.51199340820312,
          "z": 2526.97705078125
        },
        "camForwardTargetOffset": {
          "x": -623.2760009765625,
          "y": 134.35299682617188,
          "z": 2525.991943359375
        },
        "camFov": 20.0,
        "cameraBlendType": "EaseOutQuad",
        "MDKBPBJCMHH": {},
        "needZAxisRotate": true,
        "openCameraDither": false,
        "targetNpcAlias": "",
        "closeTreeLeafDither": true,
        "PHGBNNGCJKJ": "",
        "NFILMKCFHEB": "",
        "BGPNGHDAECF": ""
      },
      {
        "$type": "EDCHPJLDKIN",
        "type": "BODY_LANG",
        "delayTime": 1.6990000009536743,
        "aliasList": [
          "1050"
        ],
        "actionId": 262,
        "bodyLangParam": 1231,
        "forceDoFreeStyle": true,
        "canDoRepeatFreeStyle": false,
        "cantBackToIdleWhenSitLoop": true,
        "eventPatternSuiteKey": ""
      },
      {
        "$type": "EDCHPJLDKIN",
        "type": "BODY_LANG",
        "delayTime": 3.802999973297119,
        "aliasList": [
          "1050"
        ],
        "actionId": 263,
        "isContinue": true,
        "forceDoFreeStyle": true,
        "canDoRepeatFreeStyle": false,
        "cantBackToIdleWhenSitLoop": true,
        "eventPatternSuiteKey": ""
      }
    ],
    [
      {
        "$type": "MoleMole.Config.ConfigSimpleBlackScreenAction",
        "type": "SIMPLE_BLACK_SCREEN",
        "durationToBlack": 0.5,
        "durationKeepBlack": 1.0,
        "durationFromBlack": 0.5,
        "textMapID": ""
      },
      {
        "$type": "MoleMole.Config.ConfigTimeProtectAction",
        "type": "TIME_PROTECT",
        "duration": 0.699999988079071
      },
      {
        "$type": "EFHODGEJOHJ",
        "type": "CAMERA_MOVE",
        "delayTime": 0.6000000238418579,
        "duration": 0.10000000149011612,
        "actionId": 266,
        "camPosOffset": {
          "x": -623.9099731445312,
          "y": 133.6959991455078,
          "z": 2520.156005859375
        },
        "camForwardTargetOffset": {
          "x": -623.3350219726562,
          "y": 133.48699951171875,
          "z": 2519.364990234375
        },
        "lerpPattern": 6,
        "cameraBlendType": "EaseInOutCubic",
        "MDKBPBJCMHH": {},
        "needZAxisRotate": true,
        "openCameraDither": false,
        "targetNpcAlias": "",
        "closeTreeLeafDither": true,
        "PHGBNNGCJKJ": "",
        "NFILMKCFHEB": "",
        "BGPNGHDAECF": ""
      },
      {
        "$type": "MoleMole.Config.ConfigTeleportToAction",
        "type": "TELEPORT_TO",
        "delayTime": 0.6000000238418579,
        "aliasList": [
          "Avatar"
        ],
        "actionId": 268,
        "position": {
          "x": -622.2459716796875,
          "y": 132.2239990234375,
          "z": 2517.7099609375
        },
        "forward": {
          "x": 0.8500000238418579,
          "y": 0.020999999716877937,
          "z": -1.2869999408721924
        },
        "openLongDisTeleport": true,
        "_posBindMovingTargetKey": "",
        "_forwardBindMovingTargetKey": ""
      },
      {
        "$type": "MoleMole.Config.ConfigTeleportToAction",
        "type": "TELEPORT_TO",
        "delayTime": 0.6000000238418579,
        "aliasList": [
          "1005"
        ],
        "actionId": 269,
        "position": {
          "x": -623.2750244140625,
          "y": 132.18499755859375,
          "z": 2517.64599609375
        },
        "forward": {
          "x": 0.9950000047683716,
          "y": 0.04100000113248825,
          "z": -1.4190000295639038
        },
        "openLongDisTeleport": true,
        "_posBindMovingTargetKey": "",
        "_forwardBindMovingTargetKey": ""
      },
      {
        "$type": "MoleMole.Config.ConfigVisibleInterAction",
        "type": "VISIBLE",
        "delayTime": 0.6000000238418579,
        "aliasList": [
          "1050"
        ],
        "actionId": 264,
        "_extraParam": ""
      },
      {
        "$type": "MoleMole.Config.ConfigVisibleInterAction",
        "type": "VISIBLE",
        "delayTime": 0.6000000238418579,
        "aliasList": [
          "12603"
        ],
        "actionId": 265,
        "_extraParam": ""
      }
    ]
  ],
  "groupId": [
    {
      "grpId": 3212828163,
      "nextGrpId": 3212828164
    },
    {
      "index": 1,
      "grpId": 3212828164,
      "nextGrpId": 3212828165
    },
    {
      "index": 2,
      "grpId": 3212828165,
      "nextGrpId": 3212828166
    },
    {
      "index": 3,
      "grpId": 3212828166,
      "nextGrpId": 3212828167
    },
    {
      "index": 4,
      "grpId": 3212828167,
      "nextGrpId": 3212828168
    },
    {
      "index": 5,
      "grpId": 3212828168,
      "nextGrpId": 3212828169
    },
    {
      "index": 6,
      "grpId": 3212828169,
      "nextGrpId": 3212828170
    },
    {
      "index": 7,
      "grpId": 3212828170,
      "nextGrpId": 3212828171
    },
    {
      "index": 8,
      "grpId": 3212828171,
      "nextGrpId": 813425293
    },
    {
      "index": 9,
      "grpId": 813425293,
      "nextGrpId": 813425294
    },
    {
      "index": 10,
      "grpId": 813425294,
      "nextGrpId": 813425295
    },
    {
      "index": 11,
      "grpId": 813425295,
      "nextGrpId": 813425296
    },
    {
      "index": 12,
      "grpId": 813425296,
      "nextGrpId": 813425297
    },
    {
      "index": 13,
      "grpId": 813425297,
      "nextGrpId": 813425298
    },
    {
      "index": 14,
      "grpId": 813425298,
      "nextGrpId": 813425299
    },
    {
      "index": 15,
      "grpId": 813425299,
      "nextGrpId": 813425300
    }
  ],
  "freeStyleDic": {
    "1050": [
      1173,
      1120,
      4040,
      1121,
      1171,
      1172,
      1220,
      1221,
      1230,
      1231
    ]
  }
}