{
  "luaDataPath": "",
  "startBlackKeepTime": 1.0,
  "entityBan": "",
  "disableNpcLod": true,
  "protectNpcMobileLod": true,
  "talkFlag": 7,
  "startFade": {
    "startFadeInDuration": 0.5,
    "startFadeOutDuration": 0.5
  },
  "endFade": {
    "startFadeOutDuration": 0.0
  },
  "actors": [
    {
      "alias": "Avatar",
      "visible": true,
      "bornPointName": "",
      "relativePosType": "AVATAR_NEW",
      "relativePosNpcAlias": "",
      "_notDestroyInTalk": true,
      "_bindMovingTargetKey": ""
    },
    {
      "configID": 509,
      "alias": "509",
      "visible": true,
      "bornPointName": "",
      "relativePosType": "AVATAR_NEW",
      "relativePosNpcAlias": "",
      "_notDestroyInTalk": true,
      "_bindMovingTargetKey": ""
    }
  ],
  "group": [
    [
      {
        "$type": "MoleMole.Config.ConfigCameraDOFAction",
        "type": "CAMERA_DOF",
        "actionId": 103,
        "focusDistance": 6.0,
        "focusRange": 6.0,
        "quality": 3
      },
      {
        "$type": "EFHODGEJOHJ",
        "type": "CAMERA_MOVE",
        "duration": 1.0,
        "actionId": 249,
        "cameraPosType": "RELATIVE_TO_TARGET_ENTITY",
        "camTargetType": "RELATIVE_TO_TARGET_ENTITY",
        "camFov": 30.0,
        "lerpPattern": 6,
        "cameraBlendType": "EaseInOutCubic",
        "MDKBPBJCMHH": {},
        "openCameraDither": false,
        "targetNpcAlias": "509",
        "closeTreeLeafDither": true,
        "PHGBNNGCJKJ": "",
        "NFILMKCFHEB": "",
        "BGPNGHDAECF": ""
      },
      {
        "$type": "MoleMole.Config.ConfigBlackScreenAction",
        "type": "BLACK_SCREEN",
        "actionId": 250,
        "_flag": 2048,
        "blackScreenType": "KEEP_BLACK",
        "durationKeepBlack": 0.5,
        "inteePos": "",
        "textMapID": "",
        "useTextFade": true
      },
      {
        "$type": "MoleMole.Config.ConfigTimeProtectAction",
        "type": "TIME_PROTECT",
        "duration": 0.5,
        "actionId": 252
      },
      {
        "$type": "MoleMole.Config.ConfigVisibleInterAction",
        "type": "VISIBLE",
        "aliasList": [
          "Avatar"
        ],
        "actionId": 106,
        "_extraParam": ""
      },
      {
        "$type": "NPCNMEOCADD",
        "type": "LOOK_AT",
        "aliasList": [
          "Avatar"
        ],
        "actionId": 254,
        "_flag": 64,
        "headTurnTime": 0.5,
        "targetNpcAlias": "",
        "targetNpcLookAtPoint": "",
        "BHGPHGNFCBF": ""
      },
      {
        "$type": "MoleMole.Config.ConfigEmotionTemplateAction",
        "type": "EMOTION_TEMPLATE",
        "aliasList": [
          "509"
        ],
        "actionId": 253,
        "_flag": 384,
        "emoTemplateID": 10100
      },
      {
        "$type": "NPCNMEOCADD",
        "type": "LOOK_AT",
        "aliasList": [
          "509"
        ],
        "actionId": 255,
        "_flag": 64,
        "headTurnTime": 0.5,
        "targetNpcAlias": "",
        "targetNpcLookAtPoint": "",
        "BHGPHGNFCBF": ""
      }
    ],
    [
      {
        "$type": "EFHODGEJOHJ",
        "type": "CAMERA_MOVE",
        "duration": 1.0,
        "actionId": 180,
        "cameraPosType": "RELATIVE_TO_TARGET_ENTITY",
        "camTargetType": "RELATIVE_TO_TARGET_ENTITY",
        "camFov": 30.0,
        "lerpPattern": 6,
        "cameraBlendType": "EaseInOutCubic",
        "MDKBPBJCMHH": {},
        "openCameraDither": false,
        "targetNpcAlias": "509",
        "closeTreeLeafDither": true,
        "PHGBNNGCJKJ": "",
        "NFILMKCFHEB": "",
        "BGPNGHDAECF": ""
      },
      {
        "$type": "MoleMole.Config.ConfigBlackScreenAction",
        "type": "BLACK_SCREEN",
        "actionId": 251,
        "_flag": 2048,
        "blackScreenType": "FROM_BLACK",
        "durationFromBlack": 0.5,
        "inteePos": "",
        "textMapID": "",
        "useTextFade": true
      },
      {
        "$type": "MJFAIFFAGOF",
        "type": "DIALOG",
        "aliasList": [
          "509"
        ],
        "actionId": 109,
        "dialogID": 190470601,
        "protectTime": 0.5
      },
      {
        "$type": "MoleMole.Config.ConfigEmotionTemplateAction",
        "type": "EMOTION_TEMPLATE",
        "aliasList": [
          "509"
        ],
        "actionId": 181,
        "_flag": 384,
        "emoTemplateID": 10100
      },
      {
        "$type": "ICHLNKHGCAG",
        "type": "EMO_SYNC",
        "aliasList": [
          "509"
        ],
        "actionId": 213,
        "_flag": 256,
        "dataPath": "Cs_Emo_Avatar_Simple_Common_Set/Cs_Emo_Avatar_Talk/Cs_Emo_Coop_Common/Cs_Emo_Coop_Yunjin_01/Cs_Emo_190470601",
        "phonemePath": "",
        "emotionPath": "",
        "mateDataPath": "",
        "matePhonemePath": "",
        "mateEmotionPath": "",
        "dataPathHashList": [
          13151922713695606938,
          4758274253450433892,
          1208316571881942388,
          12252868405084241560
        ],
        "PACNIGOOENN": "",
        "PIBDNPHIAGC": ""
      }
    ],
    [
      {
        "$type": "MJFAIFFAGOF",
        "type": "DIALOG",
        "aliasList": [
          "509"
        ],
        "actionId": 111,
        "dialogID": 190470602,
        "protectTime": 0.5
      },
      {
        "$type": "MoleMole.Config.ConfigEmotionTemplateAction",
        "type": "EMOTION_TEMPLATE",
        "aliasList": [
          "509"
        ],
        "actionId": 182,
        "_flag": 384,
        "emoTemplateID": 10201
      },
      {
        "$type": "ICHLNKHGCAG",
        "type": "EMO_SYNC",
        "aliasList": [
          "509"
        ],
        "actionId": 214,
        "_flag": 256,
        "dataPath": "Cs_Emo_Avatar_Simple_Common_Set/Cs_Emo_Avatar_Talk/Cs_Emo_Coop_Common/Cs_Emo_Coop_Yunjin_01/Cs_Emo_190470602",
        "phonemePath": "",
        "emotionPath": "",
        "mateDataPath": "",
        "matePhonemePath": "",
        "mateEmotionPath": "",
        "dataPathHashList": [
          628687382575500385,
          9260272940894674718,
          12601418082693266983,
          9291355196171370177
        ],
        "PACNIGOOENN": "",
        "PIBDNPHIAGC": ""
      }
    ],
    [
      {
        "$type": "MJFAIFFAGOF",
        "type": "DIALOG",
        "aliasList": [
          "509"
        ],
        "actionId": 113,
        "dialogID": 190470603,
        "protectTime": 0.5
      },
      {
        "$type": "MoleMole.Config.ConfigEmotionTemplateAction",
        "type": "EMOTION_TEMPLATE",
        "aliasList": [
          "509"
        ],
        "actionId": 183,
        "_flag": 384,
        "emoTemplateID": 10100
      },
      {
        "$type": "ICHLNKHGCAG",
        "type": "EMO_SYNC",
        "aliasList": [
          "509"
        ],
        "actionId": 215,
        "_flag": 256,
        "dataPath": "Cs_Emo_Avatar_Simple_Common_Set/Cs_Emo_Avatar_Talk/Cs_Emo_Coop_Common/Cs_Emo_Coop_Yunjin_01/Cs_Emo_190470603",
        "phonemePath": "",
        "emotionPath": "",
        "mateDataPath": "",
        "matePhonemePath": "",
        "mateEmotionPath": "",
        "dataPathHashList": [
          18203112017083038988,
          11455228843981286951,
          3394599544702599556,
          4015331086876263403
        ],
        "PACNIGOOENN": "",
        "PIBDNPHIAGC": ""
      }
    ],
    [
      {
        "$type": "MJFAIFFAGOF",
        "type": "DIALOG",
        "aliasList": [
          "509"
        ],
        "actionId": 115,
        "dialogID": 190470604,
        "protectTime": 0.5
      },
      {
        "$type": "MoleMole.Config.ConfigEmotionTemplateAction",
        "type": "EMOTION_TEMPLATE",
        "aliasList": [
          "509"
        ],
        "actionId": 184,
        "_flag": 384,
        "emoTemplateID": 10101
      },
      {
        "$type": "ICHLNKHGCAG",
        "type": "EMO_SYNC",
        "aliasList": [
          "509"
        ],
        "actionId": 216,
        "_flag": 256,
        "dataPath": "Cs_Emo_Avatar_Simple_Common_Set/Cs_Emo_Avatar_Talk/Cs_Emo_Coop_Common/Cs_Emo_Coop_Yunjin_01/Cs_Emo_190470604",
        "phonemePath": "",
        "emotionPath": "",
        "mateDataPath": "",
        "matePhonemePath": "",
        "mateEmotionPath": "",
        "dataPathHashList": [
          4152568262037512190,
          16078293875413714726,
          6828800131115653192,
          1995082608894785738
        ],
        "PACNIGOOENN": "",
        "PIBDNPHIAGC": ""
      }
    ],
    [
      {
        "$type": "MJFAIFFAGOF",
        "type": "DIALOG",
        "aliasList": [
          "509"
        ],
        "actionId": 117,
        "dialogID": 190470605,
        "protectTime": 0.5
      },
      {
        "$type": "MoleMole.Config.ConfigEmotionTemplateAction",
        "type": "EMOTION_TEMPLATE",
        "aliasList": [
          "509"
        ],
        "actionId": 185,
        "_flag": 384,
        "emoTemplateID": 10100
      },
      {
        "$type": "ICHLNKHGCAG",
        "type": "EMO_SYNC",
        "aliasList": [
          "509"
        ],
        "actionId": 217,
        "_flag": 256,
        "dataPath": "Cs_Emo_Avatar_Simple_Common_Set/Cs_Emo_Avatar_Talk/Cs_Emo_Coop_Common/Cs_Emo_Coop_Yunjin_01/Cs_Emo_190470605",
        "phonemePath": "",
        "emotionPath": "",
        "mateDataPath": "",
        "matePhonemePath": "",
        "mateEmotionPath": "",
        "dataPathHashList": [
          8638127327220253379,
          15122108655016801122,
          16676261485132619772,
          17997600972346904612
        ],
        "PACNIGOOENN": "",
        "PIBDNPHIAGC": ""
      }
    ],
    [
      {
        "$type": "MJFAIFFAGOF",
        "type": "DIALOG",
        "aliasList": [
          "509"
        ],
        "actionId": 119,
        "dialogID": 190470606,
        "protectTime": 0.5
      },
      {
        "$type": "MoleMole.Config.ConfigEmotionTemplateAction",
        "type": "EMOTION_TEMPLATE",
        "aliasList": [
          "509"
        ],
        "actionId": 186,
        "_flag": 384,
        "emoTemplateID": 10201
      },
      {
        "$type": "ICHLNKHGCAG",
        "type": "EMO_SYNC",
        "aliasList": [
          "509"
        ],
        "actionId": 218,
        "_flag": 256,
        "dataPath": "Cs_Emo_Avatar_Simple_Common_Set/Cs_Emo_Avatar_Talk/Cs_Emo_Coop_Common/Cs_Emo_Coop_Yunjin_01/Cs_Emo_190470606",
        "phonemePath": "",
        "emotionPath": "",
        "mateDataPath": "",
        "matePhonemePath": "",
        "mateEmotionPath": "",
        "dataPathHashList": [
          3637310901170506081,
          1432705722638703879,
          2372862659480028028,
          12588460227608699732
        ],
        "PACNIGOOENN": "",
        "PIBDNPHIAGC": ""
      },
      {
        "$type": "OBCDECFOOBC",
        "type": "DIALOG_SELECT",
        "delayTime": 0.4000000059604645,
        "aliasList": [
          "Avatar"
        ],
        "actionId": 120,
        "dialogIDList": [
          190470607
        ],
        "grpIDList": [
          4234726819
        ],
        "useGrpId": true,
        "countDownGrpId": 4234726811
      }
    ],
    [
      {
        "$type": "MJFAIFFAGOF",
        "type": "DIALOG",
        "aliasList": [
          "509"
        ],
        "actionId": 122,
        "dialogID": 190470608,
        "protectTime": 0.5
      },
      {
        "$type": "MoleMole.Config.ConfigEmotionTemplateAction",
        "type": "EMOTION_TEMPLATE",
        "aliasList": [
          "509"
        ],
        "actionId": 187,
        "_flag": 384,
        "emoTemplateID": 10100
      },
      {
        "$type": "ICHLNKHGCAG",
        "type": "EMO_SYNC",
        "aliasList": [
          "509"
        ],
        "actionId": 219,
        "_flag": 256,
        "dataPath": "Cs_Emo_Avatar_Simple_Common_Set/Cs_Emo_Avatar_Talk/Cs_Emo_Coop_Common/Cs_Emo_Coop_Yunjin_01/Cs_Emo_190470608",
        "phonemePath": "",
        "emotionPath": "",
        "mateDataPath": "",
        "matePhonemePath": "",
        "mateEmotionPath": "",
        "dataPathHashList": [
          13397229730253989197,
          10495324676916332228,
          12177823297195356632,
          5444747245351274021
        ],
        "PACNIGOOENN": "",
        "PIBDNPHIAGC": ""
      },
      {
        "$type": "OBCDECFOOBC",
        "type": "DIALOG_SELECT",
        "delayTime": 0.4000000059604645,
        "aliasList": [
          "Avatar"
        ],
        "actionId": 123,
        "dialogIDList": [
          190470609,
          190470610
        ],
        "grpIDList": [
          4234726820,
          4234726820
        ],
        "useGrpId": true,
        "countDownGrpId": 4234726811
      }
    ],
    [
      {
        "$type": "MJFAIFFAGOF",
        "type": "DIALOG",
        "aliasList": [
          "509"
        ],
        "actionId": 125,
        "dialogID": 190470611,
        "protectTime": 0.5
      },
      {
        "$type": "ICHLNKHGCAG",
        "type": "EMO_SYNC",
        "aliasList": [
          "509"
        ],
        "actionId": 220,
        "_flag": 256,
        "dataPath": "Cs_Emo_Avatar_Simple_Common_Set/Cs_Emo_Avatar_Talk/Cs_Emo_Coop_Common/Cs_Emo_Coop_Yunjin_01/Cs_Emo_190470611",
        "phonemePath": "",
        "emotionPath": "",
        "mateDataPath": "",
        "matePhonemePath": "",
        "mateEmotionPath": "",
        "dataPathHashList": [
          90599274490299248,
          5607285764382309888,
          4276174421998267239,
          14552594286976361404
        ],
        "PACNIGOOENN": "",
        "PIBDNPHIAGC": ""
      }
    ],
    [
      {
        "$type": "MJFAIFFAGOF",
        "type": "DIALOG",
        "aliasList": [
          "509"
        ],
        "actionId": 127,
        "dialogID": 190470612,
        "protectTime": 0.5
      },
      {
        "$type": "MoleMole.Config.ConfigEmotionTemplateAction",
        "type": "EMOTION_TEMPLATE",
        "aliasList": [
          "509"
        ],
        "actionId": 189,
        "_flag": 384,
        "emoTemplateID": 10101
      },
      {
        "$type": "ICHLNKHGCAG",
        "type": "EMO_SYNC",
        "aliasList": [
          "509"
        ],
        "actionId": 221,
        "_flag": 256,
        "dataPath": "Cs_Emo_Avatar_Simple_Common_Set/Cs_Emo_Avatar_Talk/Cs_Emo_Coop_Common/Cs_Emo_Coop_Yunjin_01/Cs_Emo_190470612",
        "phonemePath": "",
        "emotionPath": "",
        "mateDataPath": "",
        "matePhonemePath": "",
        "mateEmotionPath": "",
        "dataPathHashList": [
          2328712962621367450,
          6142245946106361216,
          11383837942929837371,
          8722440760344298834
        ],
        "PACNIGOOENN": "",
        "PIBDNPHIAGC": ""
      },
      {
        "$type": "OBCDECFOOBC",
        "type": "DIALOG_SELECT",
        "delayTime": 0.4000000059604645,
        "aliasList": [
          "Avatar"
        ],
        "actionId": 128,
        "dialogIDList": [
          190470613,
          190470614
        ],
        "grpIDList": [
          2427512341,
          2427512341
        ],
        "useGrpId": true,
        "countDownGrpId": 4234726811
      }
    ],
    [
      {
        "$type": "MJFAIFFAGOF",
        "type": "DIALOG",
        "aliasList": [
          "509"
        ],
        "actionId": 130,
        "dialogID": 190470615,
        "protectTime": 0.5
      },
      {
        "$type": "MoleMole.Config.ConfigEmotionTemplateAction",
        "type": "EMOTION_TEMPLATE",
        "aliasList": [
          "509"
        ],
        "actionId": 190,
        "_flag": 384,
        "emoTemplateID": 10100
      },
      {
        "$type": "ICHLNKHGCAG",
        "type": "EMO_SYNC",
        "aliasList": [
          "509"
        ],
        "actionId": 222,
        "_flag": 256,
        "dataPath": "Cs_Emo_Avatar_Simple_Common_Set/Cs_Emo_Avatar_Talk/Cs_Emo_Coop_Common/Cs_Emo_Coop_Yunjin_01/Cs_Emo_190470615",
        "phonemePath": "",
        "emotionPath": "",
        "mateDataPath": "",
        "matePhonemePath": "",
        "mateEmotionPath": "",
        "dataPathHashList": [
          13819900654985043920,
          13847443821514732537,
          11822240164696265975,
          16975978002599748706
        ],
        "PACNIGOOENN": "",
        "PIBDNPHIAGC": ""
      }
    ],
    [
      {
        "$type": "MJFAIFFAGOF",
        "type": "DIALOG",
        "aliasList": [
          "509"
        ],
        "actionId": 132,
        "dialogID": 190470616,
        "protectTime": 0.5
      },
      {
        "$type": "MoleMole.Config.ConfigEmotionTemplateAction",
        "type": "EMOTION_TEMPLATE",
        "aliasList": [
          "509"
        ],
        "actionId": 191,
        "_flag": 384,
        "emoTemplateID": 10301
      },
      {
        "$type": "ICHLNKHGCAG",
        "type": "EMO_SYNC",
        "aliasList": [
          "509"
        ],
        "actionId": 223,
        "_flag": 256,
        "dataPath": "Cs_Emo_Avatar_Simple_Common_Set/Cs_Emo_Avatar_Talk/Cs_Emo_Coop_Common/Cs_Emo_Coop_Yunjin_01/Cs_Emo_190470616",
        "phonemePath": "",
        "emotionPath": "",
        "mateDataPath": "",
        "matePhonemePath": "",
        "mateEmotionPath": "",
        "dataPathHashList": [
          814805487224964659,
          3565512386454884066,
          7774731781857351718,
          15990477002252497178
        ],
        "PACNIGOOENN": "",
        "PIBDNPHIAGC": ""
      }
    ],
    [
      {
        "$type": "MJFAIFFAGOF",
        "type": "DIALOG",
        "aliasList": [
          "509"
        ],
        "actionId": 134,
        "dialogID": 190470617,
        "protectTime": 0.5
      },
      {
        "$type": "MoleMole.Config.ConfigEmotionTemplateAction",
        "type": "EMOTION_TEMPLATE",
        "aliasList": [
          "509"
        ],
        "actionId": 192,
        "_flag": 384,
        "emoTemplateID": 10100
      },
      {
        "$type": "ICHLNKHGCAG",
        "type": "EMO_SYNC",
        "aliasList": [
          "509"
        ],
        "actionId": 224,
        "_flag": 256,
        "dataPath": "Cs_Emo_Avatar_Simple_Common_Set/Cs_Emo_Avatar_Talk/Cs_Emo_Coop_Common/Cs_Emo_Coop_Yunjin_01/Cs_Emo_190470617",
        "phonemePath": "",
        "emotionPath": "",
        "mateDataPath": "",
        "matePhonemePath": "",
        "mateEmotionPath": "",
        "dataPathHashList": [
          645898102800241633,
          3807617672024947225,
          12076558884804427781,
          6385383960377355547
        ],
        "PACNIGOOENN": "",
        "PIBDNPHIAGC": ""
      }
    ],
    [
      {
        "$type": "MJFAIFFAGOF",
        "type": "DIALOG",
        "aliasList": [
          "509"
        ],
        "actionId": 136,
        "dialogID": 190470618,
        "protectTime": 0.5
      },
      {
        "$type": "MoleMole.Config.ConfigEmotionTemplateAction",
        "type": "EMOTION_TEMPLATE",
        "aliasList": [
          "509"
        ],
        "actionId": 193,
        "_flag": 384,
        "emoTemplateID": 10101
      },
      {
        "$type": "ICHLNKHGCAG",
        "type": "EMO_SYNC",
        "aliasList": [
          "509"
        ],
        "actionId": 225,
        "_flag": 256,
        "dataPath": "Cs_Emo_Avatar_Simple_Common_Set/Cs_Emo_Avatar_Talk/Cs_Emo_Coop_Common/Cs_Emo_Coop_Yunjin_01/Cs_Emo_190470618",
        "phonemePath": "",
        "emotionPath": "",
        "mateDataPath": "",
        "matePhonemePath": "",
        "mateEmotionPath": "",
        "dataPathHashList": [
          8531623815104811987,
          7576950668118958217,
          1349522339415206427,
          12773915908955212638
        ],
        "PACNIGOOENN": "",
        "PIBDNPHIAGC": ""
      },
      {
        "$type": "OBCDECFOOBC",
        "type": "DIALOG_SELECT",
        "delayTime": 0.4000000059604645,
        "aliasList": [
          "Avatar"
        ],
        "actionId": 137,
        "dialogIDList": [
          190470619,
          190470620
        ],
        "grpIDList": [
          2427512345,
          2427512345
        ],
        "useGrpId": true,
        "countDownGrpId": 4234726811
      }
    ],
    [
      {
        "$type": "MJFAIFFAGOF",
        "type": "DIALOG",
        "aliasList": [
          "509"
        ],
        "actionId": 139,
        "dialogID": 190470621,
        "protectTime": 0.5
      },
      {
        "$type": "MoleMole.Config.ConfigEmotionTemplateAction",
        "type": "EMOTION_TEMPLATE",
        "aliasList": [
          "509"
        ],
        "actionId": 194,
        "_flag": 384,
        "emoTemplateID": 10100
      },
      {
        "$type": "ICHLNKHGCAG",
        "type": "EMO_SYNC",
        "aliasList": [
          "509"
        ],
        "actionId": 226,
        "_flag": 256,
        "dataPath": "Cs_Emo_Avatar_Simple_Common_Set/Cs_Emo_Avatar_Talk/Cs_Emo_Coop_Common/Cs_Emo_Coop_Yunjin_01/Cs_Emo_190470621",
        "phonemePath": "",
        "emotionPath": "",
        "mateDataPath": "",
        "matePhonemePath": "",
        "mateEmotionPath": "",
        "dataPathHashList": [
          8206277982485617574,
          14382428285396907773,
          16799592625107781317,
          9698414017714162979
        ],
        "PACNIGOOENN": "",
        "PIBDNPHIAGC": ""
      }
    ],
    [
      {
        "$type": "MJFAIFFAGOF",
        "type": "DIALOG",
        "aliasList": [
          "509"
        ],
        "actionId": 141,
        "dialogID": 190470622,
        "protectTime": 0.5
      },
      {
        "$type": "MoleMole.Config.ConfigEmotionTemplateAction",
        "type": "EMOTION_TEMPLATE",
        "aliasList": [
          "509"
        ],
        "actionId": 195,
        "_flag": 384,
        "emoTemplateID": 10601
      },
      {
        "$type": "ICHLNKHGCAG",
        "type": "EMO_SYNC",
        "aliasList": [
          "509"
        ],
        "actionId": 227,
        "_flag": 256,
        "dataPath": "Cs_Emo_Avatar_Simple_Common_Set/Cs_Emo_Avatar_Talk/Cs_Emo_Coop_Common/Cs_Emo_Coop_Yunjin_01/Cs_Emo_190470622",
        "phonemePath": "",
        "emotionPath": "",
        "mateDataPath": "",
        "matePhonemePath": "",
        "mateEmotionPath": "",
        "dataPathHashList": [
          11469351631801787762,
          2485514287834736298,
          13581380679249779351,
          6414705189256794720
        ],
        "PACNIGOOENN": "",
        "PIBDNPHIAGC": ""
      },
      {
        "$type": "OBCDECFOOBC",
        "type": "DIALOG_SELECT",
        "delayTime": 0.4000000059604645,
        "aliasList": [
          "Avatar"
        ],
        "actionId": 142,
        "dialogIDList": [
          190470623,
          190470624
        ],
        "grpIDList": [
          2427512347,
          2427512347
        ],
        "useGrpId": true,
        "countDownGrpId": 4234726811
      }
    ],
    [
      {
        "$type": "MJFAIFFAGOF",
        "type": "DIALOG",
        "aliasList": [
          "509"
        ],
        "actionId": 144,
        "dialogID": 190470625,
        "protectTime": 0.5
      },
      {
        "$type": "MoleMole.Config.ConfigEmotionTemplateAction",
        "type": "EMOTION_TEMPLATE",
        "aliasList": [
          "509"
        ],
        "actionId": 196,
        "_flag": 384,
        "emoTemplateID": 10100
      },
      {
        "$type": "ICHLNKHGCAG",
        "type": "EMO_SYNC",
        "aliasList": [
          "509"
        ],
        "actionId": 228,
        "_flag": 256,
        "dataPath": "Cs_Emo_Avatar_Simple_Common_Set/Cs_Emo_Avatar_Talk/Cs_Emo_Coop_Common/Cs_Emo_Coop_Yunjin_01/Cs_Emo_190470625",
        "phonemePath": "",
        "emotionPath": "",
        "mateDataPath": "",
        "matePhonemePath": "",
        "mateEmotionPath": "",
        "dataPathHashList": [
          6932805767460750257,
          6635668938270806256,
          3524797849380607422,
          9132383083338770822
        ],
        "PACNIGOOENN": "",
        "PIBDNPHIAGC": ""
      }
    ],
    [
      {
        "$type": "MJFAIFFAGOF",
        "type": "DIALOG",
        "aliasList": [
          "509"
        ],
        "actionId": 146,
        "dialogID": 190470626,
        "protectTime": 0.5
      },
      {
        "$type": "MoleMole.Config.ConfigEmotionTemplateAction",
        "type": "EMOTION_TEMPLATE",
        "aliasList": [
          "509"
        ],
        "actionId": 197,
        "_flag": 384,
        "emoTemplateID": 10201
      },
      {
        "$type": "ICHLNKHGCAG",
        "type": "EMO_SYNC",
        "aliasList": [
          "509"
        ],
        "actionId": 229,
        "_flag": 256,
        "dataPath": "Cs_Emo_Avatar_Simple_Common_Set/Cs_Emo_Avatar_Talk/Cs_Emo_Coop_Common/Cs_Emo_Coop_Yunjin_01/Cs_Emo_190470626",
        "phonemePath": "",
        "emotionPath": "",
        "mateDataPath": "",
        "matePhonemePath": "",
        "mateEmotionPath": "",
        "dataPathHashList": [
          17807771332071178654,
          11886821116496784649,
          3215489496713873966,
          2055176292630630353
        ],
        "PACNIGOOENN": "",
        "PIBDNPHIAGC": ""
      },
      {
        "$type": "OBCDECFOOBC",
        "type": "DIALOG_SELECT",
        "delayTime": 0.4000000059604645,
        "aliasList": [
          "Avatar"
        ],
        "actionId": 147,
        "dialogIDList": [
          190470627,
          190470628
        ],
        "grpIDList": [
          2427512349,
          2427512349
        ],
        "useGrpId": true,
        "countDownGrpId": 4234726811
      }
    ],
    [
      {
        "$type": "MJFAIFFAGOF",
        "type": "DIALOG",
        "aliasList": [
          "509"
        ],
        "actionId": 149,
        "dialogID": 190470629,
        "protectTime": 0.5
      },
      {
        "$type": "MoleMole.Config.ConfigEmotionTemplateAction",
        "type": "EMOTION_TEMPLATE",
        "aliasList": [
          "509"
        ],
        "actionId": 198,
        "_flag": 384,
        "emoTemplateID": 10100
      },
      {
        "$type": "ICHLNKHGCAG",
        "type": "EMO_SYNC",
        "aliasList": [
          "509"
        ],
        "actionId": 230,
        "_flag": 256,
        "dataPath": "Cs_Emo_Avatar_Simple_Common_Set/Cs_Emo_Avatar_Talk/Cs_Emo_Coop_Common/Cs_Emo_Coop_Yunjin_01/Cs_Emo_190470629",
        "phonemePath": "",
        "emotionPath": "",
        "mateDataPath": "",
        "matePhonemePath": "",
        "mateEmotionPath": "",
        "dataPathHashList": [
          7677743591048400825,
          3263875946852250973,
          3240959170231110718,
          18293139970957658619
        ],
        "PACNIGOOENN": "",
        "PIBDNPHIAGC": ""
      }
    ],
    [
      {
        "$type": "MJFAIFFAGOF",
        "type": "DIALOG",
        "aliasList": [
          "509"
        ],
        "actionId": 151,
        "dialogID": 190470630,
        "protectTime": 0.5
      },
      {
        "$type": "MoleMole.Config.ConfigEmotionTemplateAction",
        "type": "EMOTION_TEMPLATE",
        "aliasList": [
          "509"
        ],
        "actionId": 199,
        "_flag": 384,
        "emoTemplateID": 10301
      },
      {
        "$type": "ICHLNKHGCAG",
        "type": "EMO_SYNC",
        "aliasList": [
          "509"
        ],
        "actionId": 231,
        "_flag": 256,
        "dataPath": "Cs_Emo_Avatar_Simple_Common_Set/Cs_Emo_Avatar_Talk/Cs_Emo_Coop_Common/Cs_Emo_Coop_Yunjin_01/Cs_Emo_190470630",
        "phonemePath": "",
        "emotionPath": "",
        "mateDataPath": "",
        "matePhonemePath": "",
        "mateEmotionPath": "",
        "dataPathHashList": [
          13754724935227016157,
          17583932903353625824,
          2151482559707951498,
          791876455108217325
        ],
        "PACNIGOOENN": "",
        "PIBDNPHIAGC": ""
      }
    ],
    [
      {
        "$type": "MJFAIFFAGOF",
        "type": "DIALOG",
        "aliasList": [
          "509"
        ],
        "actionId": 153,
        "dialogID": 190470631,
        "protectTime": 0.5
      },
      {
        "$type": "MoleMole.Config.ConfigEmotionTemplateAction",
        "type": "EMOTION_TEMPLATE",
        "aliasList": [
          "509"
        ],
        "actionId": 200,
        "_flag": 384,
        "emoTemplateID": 10100
      },
      {
        "$type": "ICHLNKHGCAG",
        "type": "EMO_SYNC",
        "aliasList": [
          "509"
        ],
        "actionId": 232,
        "_flag": 256,
        "dataPath": "Cs_Emo_Avatar_Simple_Common_Set/Cs_Emo_Avatar_Talk/Cs_Emo_Coop_Common/Cs_Emo_Coop_Yunjin_01/Cs_Emo_190470631",
        "phonemePath": "",
        "emotionPath": "",
        "mateDataPath": "",
        "matePhonemePath": "",
        "mateEmotionPath": "",
        "dataPathHashList": [
          6341292232045931847,
          564598752228204745,
          8119408111642303142,
          15310920856140623345
        ],
        "PACNIGOOENN": "",
        "PIBDNPHIAGC": ""
      }
    ],
    [
      {
        "$type": "MJFAIFFAGOF",
        "type": "DIALOG",
        "aliasList": [
          "509"
        ],
        "actionId": 155,
        "dialogID": 190470632,
        "protectTime": 0.5
      },
      {
        "$type": "MoleMole.Config.ConfigEmotionTemplateAction",
        "type": "EMOTION_TEMPLATE",
        "aliasList": [
          "509"
        ],
        "actionId": 201,
        "_flag": 384,
        "emoTemplateID": 10601
      },
      {
        "$type": "ICHLNKHGCAG",
        "type": "EMO_SYNC",
        "aliasList": [
          "509"
        ],
        "actionId": 233,
        "_flag": 256,
        "dataPath": "Cs_Emo_Avatar_Simple_Common_Set/Cs_Emo_Avatar_Talk/Cs_Emo_Coop_Common/Cs_Emo_Coop_Yunjin_01/Cs_Emo_190470632",
        "phonemePath": "",
        "emotionPath": "",
        "mateDataPath": "",
        "matePhonemePath": "",
        "mateEmotionPath": "",
        "dataPathHashList": [
          12291684025175762168,
          7852817307621732623,
          7062689399334975530,
          16076127888460311966
        ],
        "PACNIGOOENN": "",
        "PIBDNPHIAGC": ""
      }
    ],
    [
      {
        "$type": "MJFAIFFAGOF",
        "type": "DIALOG",
        "aliasList": [
          "509"
        ],
        "actionId": 157,
        "dialogID": 190470633,
        "protectTime": 0.5
      },
      {
        "$type": "MoleMole.Config.ConfigEmotionTemplateAction",
        "type": "EMOTION_TEMPLATE",
        "aliasList": [
          "509"
        ],
        "actionId": 202,
        "_flag": 384,
        "emoTemplateID": 10100
      },
      {
        "$type": "ICHLNKHGCAG",
        "type": "EMO_SYNC",
        "aliasList": [
          "509"
        ],
        "actionId": 234,
        "_flag": 256,
        "dataPath": "Cs_Emo_Avatar_Simple_Common_Set/Cs_Emo_Avatar_Talk/Cs_Emo_Coop_Common/Cs_Emo_Coop_Yunjin_01/Cs_Emo_190470633",
        "phonemePath": "",
        "emotionPath": "",
        "mateDataPath": "",
        "matePhonemePath": "",
        "mateEmotionPath": "",
        "dataPathHashList": [
          17174853747168098529,
          391432212951155497,
          9669814733060398924,
          8876392447408281996
        ],
        "PACNIGOOENN": "",
        "PIBDNPHIAGC": ""
      }
    ],
    [
      {
        "$type": "MJFAIFFAGOF",
        "type": "DIALOG",
        "aliasList": [
          "509"
        ],
        "actionId": 159,
        "dialogID": 190470634,
        "protectTime": 0.5
      },
      {
        "$type": "MoleMole.Config.ConfigEmotionTemplateAction",
        "type": "EMOTION_TEMPLATE",
        "aliasList": [
          "509"
        ],
        "actionId": 203,
        "_flag": 384,
        "emoTemplateID": 10201
      },
      {
        "$type": "ICHLNKHGCAG",
        "type": "EMO_SYNC",
        "aliasList": [
          "509"
        ],
        "actionId": 235,
        "_flag": 256,
        "dataPath": "Cs_Emo_Avatar_Simple_Common_Set/Cs_Emo_Avatar_Talk/Cs_Emo_Coop_Common/Cs_Emo_Coop_Yunjin_01/Cs_Emo_190470634",
        "phonemePath": "",
        "emotionPath": "",
        "mateDataPath": "",
        "matePhonemePath": "",
        "mateEmotionPath": "",
        "dataPathHashList": [
          6035398593137611202,
          2245554050126677104,
          1465354529742229100,
          3954692180589672675
        ],
        "PACNIGOOENN": "",
        "PIBDNPHIAGC": ""
      },
      {
        "$type": "OBCDECFOOBC",
        "type": "DIALOG_SELECT",
        "delayTime": 0.4000000059604645,
        "aliasList": [
          "Avatar"
        ],
        "actionId": 160,
        "dialogIDList": [
          190470635
        ],
        "grpIDList": [
          2427512376
        ],
        "useGrpId": true,
        "countDownGrpId": 4234726811
      }
    ],
    [
      {
        "$type": "MJFAIFFAGOF",
        "type": "DIALOG",
        "aliasList": [
          "509"
        ],
        "actionId": 162,
        "dialogID": 190470636,
        "protectTime": 0.5
      },
      {
        "$type": "MoleMole.Config.ConfigEmotionTemplateAction",
        "type": "EMOTION_TEMPLATE",
        "aliasList": [
          "509"
        ],
        "actionId": 204,
        "_flag": 384,
        "emoTemplateID": 10100
      },
      {
        "$type": "ICHLNKHGCAG",
        "type": "EMO_SYNC",
        "aliasList": [
          "509"
        ],
        "actionId": 236,
        "_flag": 256,
        "dataPath": "Cs_Emo_Avatar_Simple_Common_Set/Cs_Emo_Avatar_Talk/Cs_Emo_Coop_Common/Cs_Emo_Coop_Yunjin_01/Cs_Emo_190470636",
        "phonemePath": "",
        "emotionPath": "",
        "mateDataPath": "",
        "matePhonemePath": "",
        "mateEmotionPath": "",
        "dataPathHashList": [
          13755409509410027987,
          8802477386295850099,
          9260369325273916027,
          3038042772082155605
        ],
        "PACNIGOOENN": "",
        "PIBDNPHIAGC": ""
      }
    ],
    [
      {
        "$type": "MJFAIFFAGOF",
        "type": "DIALOG",
        "aliasList": [
          "509"
        ],
        "actionId": 164,
        "dialogID": 190470637,
        "protectTime": 0.5
      },
      {
        "$type": "MoleMole.Config.ConfigEmotionTemplateAction",
        "type": "EMOTION_TEMPLATE",
        "aliasList": [
          "509"
        ],
        "actionId": 205,
        "_flag": 384,
        "emoTemplateID": 10101
      },
      {
        "$type": "ICHLNKHGCAG",
        "type": "EMO_SYNC",
        "aliasList": [
          "509"
        ],
        "actionId": 237,
        "_flag": 256,
        "dataPath": "Cs_Emo_Avatar_Simple_Common_Set/Cs_Emo_Avatar_Talk/Cs_Emo_Coop_Common/Cs_Emo_Coop_Yunjin_01/Cs_Emo_190470637",
        "phonemePath": "",
        "emotionPath": "",
        "mateDataPath": "",
        "matePhonemePath": "",
        "mateEmotionPath": "",
        "dataPathHashList": [
          8099438724415828771,
          611466350734971733,
          3378070774868633268,
          17231685690600762584
        ],
        "PACNIGOOENN": "",
        "PIBDNPHIAGC": ""
      }
    ],
    [
      {
        "$type": "MJFAIFFAGOF",
        "type": "DIALOG",
        "aliasList": [
          "509"
        ],
        "actionId": 166,
        "dialogID": 190470638,
        "protectTime": 0.5
      },
      {
        "$type": "MoleMole.Config.ConfigEmotionTemplateAction",
        "type": "EMOTION_TEMPLATE",
        "aliasList": [
          "509"
        ],
        "actionId": 206,
        "_flag": 384,
        "emoTemplateID": 10100
      },
      {
        "$type": "ICHLNKHGCAG",
        "type": "EMO_SYNC",
        "aliasList": [
          "509"
        ],
        "actionId": 238,
        "_flag": 256,
        "dataPath": "Cs_Emo_Avatar_Simple_Common_Set/Cs_Emo_Avatar_Talk/Cs_Emo_Coop_Common/Cs_Emo_Coop_Yunjin_01/Cs_Emo_190470638",
        "phonemePath": "",
        "emotionPath": "",
        "mateDataPath": "",
        "matePhonemePath": "",
        "mateEmotionPath": "",
        "dataPathHashList": [
          13981180843405884146,
          16834231579293771710,
          6848913174945942545,
          10594164718005019262
        ],
        "PACNIGOOENN": "",
        "PIBDNPHIAGC": ""
      }
    ],
    [
      {
        "$type": "MJFAIFFAGOF",
        "type": "DIALOG",
        "aliasList": [
          "509"
        ],
        "actionId": 168,
        "dialogID": 190470639,
        "protectTime": 0.5
      },
      {
        "$type": "ICHLNKHGCAG",
        "type": "EMO_SYNC",
        "aliasList": [
          "509"
        ],
        "actionId": 239,
        "_flag": 256,
        "dataPath": "Cs_Emo_Avatar_Simple_Common_Set/Cs_Emo_Avatar_Talk/Cs_Emo_Coop_Common/Cs_Emo_Coop_Yunjin_01/Cs_Emo_190470639",
        "phonemePath": "",
        "emotionPath": "",
        "mateDataPath": "",
        "matePhonemePath": "",
        "mateEmotionPath": "",
        "dataPathHashList": [
          9550469119830711928,
          8530262493231126081,
          3620317864322769414,
          12273450443304430303
        ],
        "PACNIGOOENN": "",
        "PIBDNPHIAGC": ""
      },
      {
        "$type": "OBCDECFOOBC",
        "type": "DIALOG_SELECT",
        "delayTime": 0.4000000059604645,
        "aliasList": [
          "Avatar"
        ],
        "actionId": 169,
        "dialogIDList": [
          190470640,
          190470641
        ],
        "grpIDList": [
          2427512380,
          2427512380
        ],
        "useGrpId": true,
        "countDownGrpId": 4234726811
      }
    ],
    [
      {
        "$type": "MJFAIFFAGOF",
        "type": "DIALOG",
        "aliasList": [
          "509"
        ],
        "actionId": 171,
        "dialogID": 190470642,
        "protectTime": 0.5
      },
      {
        "$type": "MoleMole.Config.ConfigEmotionTemplateAction",
        "type": "EMOTION_TEMPLATE",
        "aliasList": [
          "509"
        ],
        "actionId": 208,
        "_flag": 384,
        "emoTemplateID": 10801
      },
      {
        "$type": "ICHLNKHGCAG",
        "type": "EMO_SYNC",
        "aliasList": [
          "509"
        ],
        "actionId": 240,
        "_flag": 256,
        "dataPath": "Cs_Emo_Avatar_Simple_Common_Set/Cs_Emo_Avatar_Talk/Cs_Emo_Coop_Common/Cs_Emo_Coop_Yunjin_01/Cs_Emo_190470642",
        "phonemePath": "",
        "emotionPath": "",
        "mateDataPath": "",
        "matePhonemePath": "",
        "mateEmotionPath": "",
        "dataPathHashList": [
          9655814127877844583,
          7558419173770230070,
          3222474507973258933,
          13088350113499302910
        ],
        "PACNIGOOENN": "",
        "PIBDNPHIAGC": ""
      }
    ],
    [
      {
        "$type": "MJFAIFFAGOF",
        "type": "DIALOG",
        "aliasList": [
          "509"
        ],
        "actionId": 173,
        "dialogID": 190470643,
        "protectTime": 0.5
      },
      {
        "$type": "MoleMole.Config.ConfigEmotionTemplateAction",
        "type": "EMOTION_TEMPLATE",
        "aliasList": [
          "509"
        ],
        "actionId": 209,
        "_flag": 384,
        "emoTemplateID": 10100
      },
      {
        "$type": "ICHLNKHGCAG",
        "type": "EMO_SYNC",
        "aliasList": [
          "509"
        ],
        "actionId": 241,
        "_flag": 256,
        "dataPath": "Cs_Emo_Avatar_Simple_Common_Set/Cs_Emo_Avatar_Talk/Cs_Emo_Coop_Common/Cs_Emo_Coop_Yunjin_01/Cs_Emo_190470643",
        "phonemePath": "",
        "emotionPath": "",
        "mateDataPath": "",
        "matePhonemePath": "",
        "mateEmotionPath": "",
        "dataPathHashList": [
          11692867313610049244,
          231913264806829067,
          398961185213541473,
          5506064587555970600
        ],
        "PACNIGOOENN": "",
        "PIBDNPHIAGC": ""
      }
    ],
    [
      {
        "$type": "MJFAIFFAGOF",
        "type": "DIALOG",
        "aliasList": [
          "509"
        ],
        "actionId": 175,
        "dialogID": 190470644,
        "protectTime": 0.5
      },
      {
        "$type": "MoleMole.Config.ConfigEmotionTemplateAction",
        "type": "EMOTION_TEMPLATE",
        "aliasList": [
          "509"
        ],
        "actionId": 210,
        "_flag": 384,
        "emoTemplateID": 10601
      },
      {
        "$type": "ICHLNKHGCAG",
        "type": "EMO_SYNC",
        "aliasList": [
          "509"
        ],
        "actionId": 242,
        "_flag": 256,
        "dataPath": "Cs_Emo_Avatar_Simple_Common_Set/Cs_Emo_Avatar_Talk/Cs_Emo_Coop_Common/Cs_Emo_Coop_Yunjin_01/Cs_Emo_190470644",
        "phonemePath": "",
        "emotionPath": "",
        "mateDataPath": "",
        "matePhonemePath": "",
        "mateEmotionPath": "",
        "dataPathHashList": [
          18205329845661236347,
          2602240117310380214,
          2959258061909474189,
          8252643821932449565
        ],
        "PACNIGOOENN": "",
        "PIBDNPHIAGC": ""
      }
    ],
    [
      {
        "$type": "MJFAIFFAGOF",
        "type": "DIALOG",
        "aliasList": [
          "509"
        ],
        "actionId": 177,
        "dialogID": 190470645,
        "protectTime": 0.5
      },
      {
        "$type": "MoleMole.Config.ConfigEmotionTemplateAction",
        "type": "EMOTION_TEMPLATE",
        "aliasList": [
          "509"
        ],
        "actionId": 211,
        "_flag": 384,
        "emoTemplateID": 10100
      },
      {
        "$type": "ICHLNKHGCAG",
        "type": "EMO_SYNC",
        "aliasList": [
          "509"
        ],
        "actionId": 243,
        "_flag": 256,
        "dataPath": "Cs_Emo_Avatar_Simple_Common_Set/Cs_Emo_Avatar_Talk/Cs_Emo_Coop_Common/Cs_Emo_Coop_Yunjin_01/Cs_Emo_190470645",
        "phonemePath": "",
        "emotionPath": "",
        "mateDataPath": "",
        "matePhonemePath": "",
        "mateEmotionPath": "",
        "dataPathHashList": [
          184006900437631139,
          10968436702151846359,
          15692742557598324277,
          14773469072330272880
        ],
        "PACNIGOOENN": "",
        "PIBDNPHIAGC": ""
      }
    ],
    [
      {
        "$type": "MJFAIFFAGOF",
        "type": "DIALOG",
        "aliasList": [
          "509"
        ],
        "actionId": 179,
        "dialogID": 190470646,
        "protectTime": 0.5
      },
      {
        "$type": "ICHLNKHGCAG",
        "type": "EMO_SYNC",
        "aliasList": [
          "509"
        ],
        "actionId": 244,
        "_flag": 320,
        "dataPath": "Cs_Emo_Avatar_Simple_Common_Set/Cs_Emo_Avatar_Talk/Cs_Emo_Coop_Common/Cs_Emo_Coop_Yunjin_01/Cs_Emo_190470646",
        "phonemePath": "",
        "emotionPath": "",
        "mateDataPath": "",
        "matePhonemePath": "",
        "mateEmotionPath": "",
        "dataPathHashList": [
          15252296730239514122,
          9966038947912373272,
          13368298085162987805,
          11416649214906439910
        ],
        "PACNIGOOENN": "",
        "PIBDNPHIAGC": ""
      }
    ],
    [
      {
        "$type": "MoleMole.Config.ConfigSimpleBlackScreenAction",
        "type": "SIMPLE_BLACK_SCREEN",
        "actionId": 245,
        "durationToBlack": 0.5,
        "durationKeepBlack": 1.0,
        "durationFromBlack": 0.5,
        "textMapID": ""
      },
      {
        "$type": "MJFAIFFAGOF",
        "type": "DIALOG_CLEAR",
        "actionId": 246,
        "dialogID": 190470646
      },
      {
        "$type": "MoleMole.Config.ConfigTimeProtectAction",
        "type": "TIME_PROTECT",
        "duration": 0.699999988079071,
        "actionId": 248
      },
      {
        "$type": "EFHODGEJOHJ",
        "type": "CAMERA_MOVE",
        "delayTime": 0.6000000238418579,
        "duration": 0.10000000149011612,
        "actionId": 247,
        "camPosOffset": {
          "x": -66.25199890136719,
          "y": 269.447998046875,
          "z": 94.65599822998047
        },
        "camForwardTargetOffset": {
          "x": -65.63999938964844,
          "y": 269.3370056152344,
          "z": 93.87300109863281
        },
        "lerpPattern": 6,
        "cameraBlendType": "EaseInOutCubic",
        "MDKBPBJCMHH": {},
        "needZAxisRotate": true,
        "openCameraDither": false,
        "targetNpcAlias": "",
        "closeTreeLeafDither": true,
        "PHGBNNGCJKJ": "",
        "NFILMKCFHEB": "",
        "BGPNGHDAECF": ""
      },
      {
        "$type": "MoleMole.Config.ConfigVisibleInterAction",
        "type": "VISIBLE",
        "delayTime": 0.6000000238418579,
        "aliasList": [
          "Avatar"
        ],
        "actionId": 107,
        "isVisible": true,
        "_extraParam": ""
      },
      {
        "$type": "MoleMole.Config.ConfigTeleportToAction",
        "type": "TELEPORT_TO",
        "delayTime": 0.6000000238418579,
        "aliasList": [
          "Avatar"
        ],
        "actionId": 259,
        "position": {
          "x": -64.8219985961914,
          "y": 268.36700439453125,
          "z": 92.78399658203125
        },
        "forward": {
          "x": 0.6480000019073486,
          "z": -0.7609999775886536
        },
        "openLongDisTeleport": true,
        "_posBindMovingTargetKey": "",
        "_forwardBindMovingTargetKey": ""
      },
      {
        "$type": "MoleMole.Config.ConfigVisibleInterAction",
        "type": "VISIBLE",
        "delayTime": 0.6000000238418579,
        "aliasList": [
          "509"
        ],
        "actionId": 256,
        "_extraParam": ""
      },
      {
        "$type": "MoleMole.Config.ConfigTeleportToAction",
        "type": "TELEPORT_TO",
        "delayTime": 0.6000000238418579,
        "aliasList": [
          "509"
        ],
        "actionId": 260,
        "position": {
          "x": -60.42300033569336,
          "y": 268.3869934082031,
          "z": 87.70999908447266
        },
        "forward": {
          "x": -0.6480000019073486,
          "z": 0.7620000243186951
        },
        "openLongDisTeleport": true,
        "_posBindMovingTargetKey": "",
        "_forwardBindMovingTargetKey": ""
      }
    ],
    [
      {
        "$type": "MoleMole.Config.ConfigCameraDOFAction",
        "type": "CAMERA_DOF",
        "actionId": 362,
        "_actionTagList": [
          "TalkSkip"
        ],
        "focusDistance": 6.0,
        "focusRange": 6.0,
        "quality": 3
      },
      {
        "$type": "MoleMole.Config.ConfigBlackScreenAction",
        "type": "BLACK_SCREEN",
        "duration": 0.10000000149011612,
        "actionId": 363,
        "_flag": 2048,
        "_actionTagList": [
          "TalkSkip"
        ],
        "blackScreenType": "FROM_BLACK",
        "durationToBlack": 0.10000000149011612,
        "durationKeepBlack": 0.10000000149011612,
        "durationFromBlack": 0.10000000149011612,
        "inteePos": "",
        "textMapID": "",
        "showClickBtnDelayTime": 0.5,
        "waitClickBtnTipTime": 0.5
      },
      {
        "$type": "MoleMole.Config.ConfigTeleportToAction",
        "type": "TELEPORT_TO",
        "aliasList": [
          "Avatar"
        ],
        "actionId": 356,
        "_actionTagList": [
          "TalkSkip"
        ],
        "position": {
          "x": -64.8219985961914,
          "y": 268.36700439453125,
          "z": 92.78399658203125
        },
        "forward": {
          "x": 0.6480000019073486,
          "z": -0.7609999775886536
        },
        "openLongDisTeleport": true,
        "syncForward": true,
        "_posBindMovingTargetKey": "",
        "_forwardBindMovingTargetKey": ""
      },
      {
        "$type": "NPCNMEOCADD",
        "type": "LOOK_AT",
        "aliasList": [
          "Avatar"
        ],
        "actionId": 365,
        "_flag": 64,
        "_actionTagList": [
          "TalkSkip"
        ],
        "headTurnTime": 0.5,
        "targetNpcAlias": "",
        "targetNpcLookAtPoint": "",
        "BHGPHGNFCBF": ""
      },
      {
        "$type": "MoleMole.Config.ConfigVisibleInterAction",
        "type": "VISIBLE",
        "aliasList": [
          "Avatar"
        ],
        "actionId": 367,
        "_actionTagList": [
          "TalkSkip"
        ],
        "isVisible": true,
        "_extraParam": ""
      },
      {
        "$type": "MoleMole.Config.ConfigTeleportToAction",
        "type": "TELEPORT_TO",
        "aliasList": [
          "509"
        ],
        "actionId": 355,
        "_actionTagList": [
          "TalkSkip"
        ],
        "position": {
          "x": -60.42300033569336,
          "y": 268.3869934082031,
          "z": 87.70999908447266
        },
        "forward": {
          "x": -0.6480000019073486,
          "z": 0.7620000243186951
        },
        "openLongDisTeleport": true,
        "syncForward": true,
        "_posBindMovingTargetKey": "",
        "_forwardBindMovingTargetKey": ""
      },
      {
        "$type": "MJFAIFFAGOF",
        "type": "DIALOG",
        "aliasList": [
          "509"
        ],
        "actionId": 361,
        "_actionTagList": [
          "TalkSkip"
        ],
        "dialogID": 190470646,
        "protectTime": 0.5
      },
      {
        "$type": "NPCNMEOCADD",
        "type": "LOOK_AT",
        "aliasList": [
          "509"
        ],
        "actionId": 364,
        "_flag": 64,
        "_actionTagList": [
          "TalkSkip"
        ],
        "headTurnTime": 0.5,
        "targetNpcAlias": "",
        "targetNpcLookAtPoint": "",
        "BHGPHGNFCBF": ""
      },
      {
        "$type": "MoleMole.Config.ConfigVisibleInterAction",
        "type": "VISIBLE",
        "aliasList": [
          "509"
        ],
        "actionId": 366,
        "_actionTagList": [
          "TalkSkip"
        ],
        "_extraParam": ""
      },
      {
        "$type": "EFHODGEJOHJ",
        "type": "CAMERA_MOVE",
        "delayTime": 0.5,
        "duration": 0.10000000149011612,
        "actionId": 360,
        "_actionTagList": [
          "TalkSkip"
        ],
        "camPosOffset": {
          "x": -66.25199890136719,
          "y": 269.447998046875,
          "z": 94.65599822998047
        },
        "camForwardTargetOffset": {
          "x": -65.63999938964844,
          "y": 269.3370056152344,
          "z": 93.87300109863281
        },
        "lerpPattern": 6,
        "cameraBlendType": "EaseInOutCubic",
        "MDKBPBJCMHH": {},
        "needZAxisRotate": true,
        "openCameraDither": false,
        "targetNpcAlias": "",
        "closeTreeLeafDither": true,
        "PHGBNNGCJKJ": "",
        "NFILMKCFHEB": "",
        "BGPNGHDAECF": ""
      },
      {
        "$type": "ICHLNKHGCAG",
        "type": "EMO_SYNC",
        "delayTime": 0.5,
        "aliasList": [
          "509"
        ],
        "actionId": 357,
        "_flag": 256,
        "_actionTagList": [
          "TalkSkip"
        ],
        "dataPath": "Cs_Emo_Avatar_Simple_Common_Set/Cs_Emo_Avatar_Talk/Cs_Emo_Coop_Common/Cs_Emo_Coop_Avatar/Yunjin/Cs_Emo_Avatar_Coop_Standby",
        "phonemePath": "",
        "emotionPath": "",
        "mateDataPath": "",
        "matePhonemePath": "",
        "mateEmotionPath": "",
        "dataPathHashList": [
          10805585093733523125,
          8211836039273286736,
          10203420332909775923,
          7688136401494775772
        ],
        "PACNIGOOENN": "",
        "PIBDNPHIAGC": ""
      },
      {
        "$type": "ICHLNKHGCAG",
        "type": "EMO_SYNC",
        "delayTime": 1.0,
        "aliasList": [
          "509"
        ],
        "actionId": 358,
        "_flag": 256,
        "_actionTagList": [
          "TalkSkip"
        ],
        "dataPath": "Cs_Emo_Avatar_Simple_Common_Set/Cs_Emo_Avatar_Talk/Cs_Emo_Coop_Common/Cs_Emo_Coop_Yunjin_01/Cs_Emo_190470646",
        "phonemePath": "",
        "emotionPath": "",
        "mateDataPath": "",
        "matePhonemePath": "",
        "mateEmotionPath": "",
        "dataPathHashList": [
          15252296730239514122,
          9966038947912373272,
          13368298085162987805,
          11416649214906439910
        ],
        "PACNIGOOENN": "",
        "PIBDNPHIAGC": ""
      },
      {
        "$type": "MoleMole.Config.ConfigSimpleBlackScreenAction",
        "type": "SIMPLE_BLACK_SCREEN",
        "delayTime": 1.5,
        "actionId": 368,
        "_actionTagList": [
          "TalkSkip"
        ],
        "durationToBlack": 0.5,
        "durationKeepBlack": 1.0,
        "durationFromBlack": 0.5,
        "textMapID": ""
      },
      {
        "$type": "EDCHPJLDKIN",
        "type": "BODY_LANG",
        "delayTime": 1.5,
        "aliasList": [
          "509"
        ],
        "actionId": 359,
        "_actionTagList": [
          "TalkSkip"
        ],
        "bodyLangParam": 10100,
        "forceDoFreeStyle": true,
        "canDoRepeatFreeStyle": false,
        "cantBackToIdleWhenSitLoop": true,
        "eventPatternSuiteKey": ""
      }
    ]
  ],
  "groupId": [
    {
      "grpId": 4234726812,
      "nextGrpId": 4234726813,
      "_noCircleNextGrpId": 4234726813
    },
    {
      "index": 1,
      "grpId": 4234726813,
      "nextGrpId": 4234726814,
      "_noCircleNextGrpId": 4234726814
    },
    {
      "index": 2,
      "grpId": 4234726814,
      "nextGrpId": 4234726815,
      "_noCircleNextGrpId": 4234726815
    },
    {
      "index": 3,
      "grpId": 4234726815,
      "nextGrpId": 4234726816,
      "_noCircleNextGrpId": 4234726816
    },
    {
      "index": 4,
      "grpId": 4234726816,
      "nextGrpId": 4234726817,
      "_noCircleNextGrpId": 4234726817
    },
    {
      "index": 5,
      "grpId": 4234726817,
      "nextGrpId": 4234726818,
      "_noCircleNextGrpId": 4234726818
    },
    {
      "index": 6,
      "grpId": 4234726818,
      "nextGrpId": 4234726819,
      "_noCircleNextGrpId": 4234726819
    },
    {
      "index": 7,
      "grpId": 4234726819,
      "nextGrpId": 4234726820,
      "_noCircleNextGrpId": 4234726820
    },
    {
      "index": 8,
      "grpId": 4234726820,
      "nextGrpId": 2427512340,
      "_noCircleNextGrpId": 2427512340
    },
    {
      "index": 9,
      "grpId": 2427512340,
      "nextGrpId": 2427512341,
      "_noCircleNextGrpId": 2427512341
    },
    {
      "index": 10,
      "grpId": 2427512341,
      "nextGrpId": 2427512342,
      "_noCircleNextGrpId": 2427512342
    },
    {
      "index": 11,
      "grpId": 2427512342,
      "nextGrpId": 2427512343,
      "_noCircleNextGrpId": 2427512343
    },
    {
      "index": 12,
      "grpId": 2427512343,
      "nextGrpId": 2427512344,
      "_noCircleNextGrpId": 2427512344
    },
    {
      "index": 13,
      "grpId": 2427512344,
      "nextGrpId": 2427512345,
      "_noCircleNextGrpId": 2427512345
    },
    {
      "index": 14,
      "grpId": 2427512345,
      "nextGrpId": 2427512346,
      "_noCircleNextGrpId": 2427512346
    },
    {
      "index": 15,
      "grpId": 2427512346,
      "nextGrpId": 2427512347,
      "_noCircleNextGrpId": 2427512347
    },
    {
      "index": 16,
      "grpId": 2427512347,
      "nextGrpId": 2427512348,
      "_noCircleNextGrpId": 2427512348
    },
    {
      "index": 17,
      "grpId": 2427512348,
      "nextGrpId": 2427512349,
      "_noCircleNextGrpId": 2427512349
    },
    {
      "index": 18,
      "grpId": 2427512349,
      "nextGrpId": 2427512371,
      "_noCircleNextGrpId": 2427512371
    },
    {
      "index": 19,
      "grpId": 2427512371,
      "nextGrpId": 2427512372,
      "_noCircleNextGrpId": 2427512372
    },
    {
      "index": 20,
      "grpId": 2427512372,
      "nextGrpId": 2427512373,
      "_noCircleNextGrpId": 2427512373
    },
    {
      "index": 21,
      "grpId": 2427512373,
      "nextGrpId": 2427512374,
      "_noCircleNextGrpId": 2427512374
    },
    {
      "index": 22,
      "grpId": 2427512374,
      "nextGrpId": 2427512375,
      "_noCircleNextGrpId": 2427512375
    },
    {
      "index": 23,
      "grpId": 2427512375,
      "nextGrpId": 2427512376,
      "_noCircleNextGrpId": 2427512376
    },
    {
      "index": 24,
      "grpId": 2427512376,
      "nextGrpId": 2427512377,
      "_noCircleNextGrpId": 2427512377
    },
    {
      "index": 25,
      "grpId": 2427512377,
      "nextGrpId": 2427512378,
      "_noCircleNextGrpId": 2427512378
    },
    {
      "index": 26,
      "grpId": 2427512378,
      "nextGrpId": 2427512379,
      "_noCircleNextGrpId": 2427512379
    },
    {
      "index": 27,
      "grpId": 2427512379,
      "nextGrpId": 2427512380,
      "_noCircleNextGrpId": 2427512380
    },
    {
      "index": 28,
      "grpId": 2427512380,
      "nextGrpId": 2427512402,
      "_noCircleNextGrpId": 2427512402
    },
    {
      "index": 29,
      "grpId": 2427512402,
      "nextGrpId": 2427512403,
      "_noCircleNextGrpId": 2427512403
    },
    {
      "index": 30,
      "grpId": 2427512403,
      "nextGrpId": 2427512404,
      "_noCircleNextGrpId": 2427512404
    },
    {
      "index": 31,
      "grpId": 2427512404,
      "nextGrpId": 2427512405,
      "_noCircleNextGrpId": 2427512405
    },
    {
      "index": 32,
      "grpId": 2427512405,
      "nextGrpId": 2427512406,
      "_noCircleNextGrpId": 2427512406
    },
    {
      "index": 33,
      "grpId": 2427512406,
      "nextGrpId": 2427512407,
      "_noCircleNextGrpId": 2427512407
    },
    {
      "index": 34,
      "grpId": 2427512407,
      "nextGrpId": 2427512408,
      "_noCircleNextGrpId": 2427512408
    }
  ],
  "freeStyleDic": {
    "509": [
      10100,
      10201,
      10101,
      10301,
      10601,
      10801
    ]
  },
  "GHHKLKIGEOD": {
    "509": [
      "SitChat01AS",
      "SitHoldArm01AS",
      "SitThink01AS"
    ]
  },
  "GOCHGPDDIEK": {
    "GLDEKKOPHPB": "",
    "MONBEELCJPA": ""
  },
  "IDMJJGEMEPG": 2427512407,
  "DJNHOINPCOI": {
    "BMLEPIJCLCL": ""
  }
}