{
  "talkId": 1403231,
  "dialogList": [
    {
      "id": 140323101,
      "nextDialogs": [
        140323102
      ],
      "talkRole": {
        "type": "TALK_ROLE_PLAYER",
        "_id": ""
      },
      "talkContentTextMapHash": 3114568554,
      "talkAssetPath": "",
      "talkAssetPathAlter": "",
      "talkAudioName": "",
      "actionBefore": "",
      "actionWhile": "",
      "actionAfter": "",
      "optionIcon": "",
      "OMBMBJIACEP": 2055933892,
      "iconPath": "ART/UI/Atlas/CutSceneUI/UI_TRPGPic/UI_TRPG_PlayerBoy_1|ART/UI/Atlas/CutSceneUI/UI_TRPGPic/UI_TRPG_PlayerGirl_1",
      "uiType": "DIALOG_UI_TRPGSP"
    },
    {
      "id": 140323102,
      "nextDialogs": [
        140323103
      ],
      "talkRole": {
        "type": "TALK_ROLE_PLAYER",
        "_id": ""
      },
      "talkContentTextMapHash": 3748148098,
      "talkAssetPath": "",
      "talkAssetPathAlter": "",
      "talkAudioName": "",
      "actionBefore": "",
      "actionWhile": "",
      "actionAfter": "",
      "optionIcon": "",
      "OMBMBJIACEP": 3580156812,
      "iconPath": "ART/UI/Atlas/CutSceneUI/UI_TRPGPic/UI_TRPG_PlayerBoy_1|ART/UI/Atlas/CutSceneUI/UI_TRPGPic/UI_TRPG_PlayerGirl_1",
      "uiType": "DIALOG_UI_TRPGSP"
    },
    {
      "id": 140323103,
      "talkRole": {
        "type": "TALK_ROLE_NPC",
        "_id": "1075"
      },
      "talkContentTextMapHash": 3959763850,
      "talkAssetPath": "",
      "talkAssetPathAlter": "",
      "talkAudioName": "",
      "actionBefore": "",
      "actionWhile": "",
      "actionAfter": "",
      "optionIcon": "",
      "OMBMBJIACEP": 1674399532,
      "iconPath": "ART/UI/Atlas/CutSceneUI/UI_TRPGPic/UI_TRPG_Navia",
      "uiType": "DIALOG_UI_TRPGSP"
    }
  ]
}