{
  "talkId": 4013402,
  "dialogList": [
    {
      "id": 401340201,
      "nextDialogs": [
        401340202
      ],
      "talkRole": {
        "type": "TALK_ROLE_NPC",
        "_id": "1081"
      },
      "talkContentTextMapHash": 4004217746,
      "talkRoleNameTextMapHash": 2343961875,
      "talkAssetPath": "",
      "talkAssetPathAlter": "",
      "talkAudioName": "",
      "actionBefore": "",
      "actionWhile": "",
      "actionAfter": "",
      "optionIcon": "",
      "OMBMBJIACEP": 1591691724,
      "iconPath": ""
    },
    {
      "id": 401340202,
      "nextDialogs": [
        401340203
      ],
      "talkRole": {
        "type": "TALK_ROLE_NPC",
        "_id": "30447"
      },
      "talkContentTextMapHash": 3742968154,
      "talkRoleNameTextMapHash": 1365083979,
      "talkAssetPath": "",
      "talkAssetPathAlter": "",
      "talkAudioName": "",
      "actionBefore": "",
      "actionWhile": "",
      "actionAfter": "",
      "optionIcon": "",
      "OMBMBJIACEP": 3502030692,
      "iconPath": ""
    },
    {
      "id": 401340203,
      "nextDialogs": [
        401340204
      ],
      "talkRole": {
        "type": "TALK_ROLE_NPC",
        "_id": "2604"
      },
      "talkContentTextMapHash": 2209327498,
      "talkRoleNameTextMapHash": 3680713179,
      "talkAssetPath": "",
      "talkAssetPathAlter": "",
      "talkAudioName": "",
      "actionBefore": "",
      "actionWhile": "",
      "actionAfter": "",
      "optionIcon": "",
      "OMBMBJIACEP": 2475289476,
      "iconPath": ""
    },
    {
      "id": 401340204,
      "nextDialogs": [
        401340205
      ],
      "talkRole": {
        "type": "TALK_ROLE_NPC",
        "_id": "30447"
      },
      "talkContentTextMapHash": 3263793170,
      "talkRoleNameTextMapHash": 1870134459,
      "talkAssetPath": "",
      "talkAssetPathAlter": "",
      "talkAudioName": "",
      "actionBefore": "",
      "actionWhile": "",
      "actionAfter": "",
      "optionIcon": "",
      "OMBMBJIACEP": 2008166572,
      "iconPath": ""
    },
    {
      "id": 401340205,
      "nextDialogs": [
        401340206
      ],
      "talkRole": {
        "type": "TALK_ROLE_NPC",
        "_id": "30447"
      },
      "talkContentTextMapHash": 2173721410,
      "talkRoleNameTextMapHash": 2067732419,
      "talkAssetPath": "",
      "talkAssetPathAlter": "",
      "talkAudioName": "",
      "actionBefore": "",
      "actionWhile": "",
      "actionAfter": "",
      "optionIcon": "",
      "OMBMBJIACEP": 900169908,
      "iconPath": ""
    },
    {
      "id": 401340206,
      "nextDialogs": [
        401340207
      ],
      "talkRole": {
        "type": "TALK_ROLE_NPC",
        "_id": "1081"
      },
      "talkContentTextMapHash": 1876634146,
      "talkRoleNameTextMapHash": 1708383531,
      "talkAssetPath": "",
      "talkAssetPathAlter": "",
      "talkAudioName": "",
      "actionBefore": "",
      "actionWhile": "",
      "actionAfter": "",
      "optionIcon": "",
      "OMBMBJIACEP": 2035200852,
      "iconPath": ""
    },
    {
      "id": 401340207,
      "nextDialogs": [
        401340208
      ],
      "talkRole": {
        "type": "TALK_ROLE_NPC",
        "_id": "1081"
      },
      "talkContentTextMapHash": 2076244706,
      "talkRoleNameTextMapHash": 609803059,
      "talkAssetPath": "",
      "talkAssetPathAlter": "",
      "talkAudioName": "",
      "actionBefore": "",
      "actionWhile": "",
      "actionAfter": "",
      "optionIcon": "",
      "OMBMBJIACEP": 1438506108,
      "iconPath": ""
    },
    {
      "id": 401340208,
      "nextDialogs": [
        401340209
      ],
      "talkRole": {
        "type": "TALK_ROLE_NPC",
        "_id": "1081"
      },
      "talkContentTextMapHash": 3536063322,
      "talkRoleNameTextMapHash": 506907955,
      "talkAssetPath": "",
      "talkAssetPathAlter": "",
      "talkAudioName": "",
      "actionBefore": "",
      "actionWhile": "",
      "actionAfter": "",
      "optionIcon": "",
      "OMBMBJIACEP": 876972484,
      "iconPath": ""
    },
    {
      "id": 401340209,
      "nextDialogs": [
        401340210
      ],
      "talkRole": {
        "type": "TALK_ROLE_NPC",
        "_id": "2604"
      },
      "talkContentTextMapHash": 684439090,
      "talkRoleNameTextMapHash": 2641606683,
      "talkAssetPath": "",
      "talkAssetPathAlter": "",
      "talkAudioName": "",
      "actionBefore": "",
      "actionWhile": "",
      "actionAfter": "",
      "optionIcon": "",
      "OMBMBJIACEP": 3365105148,
      "iconPath": ""
    },
    {
      "id": 401340210,
      "nextDialogs": [
        401340211
      ],
      "talkRole": {
        "type": "TALK_ROLE_NPC",
        "_id": "2604"
      },
      "talkContentTextMapHash": 908308906,
      "talkRoleNameTextMapHash": 2799047467,
      "talkAssetPath": "",
      "talkAssetPathAlter": "",
      "talkAudioName": "",
      "actionBefore": "",
      "actionWhile": "",
      "actionAfter": "",
      "optionIcon": "",
      "OMBMBJIACEP": 538865820,
      "iconPath": ""
    },
    {
      "id": 401340211,
      "nextDialogs": [
        401340212
      ],
      "talkRole": {
        "type": "TALK_ROLE_NPC",
        "_id": "1081"
      },
      "talkContentTextMapHash": 3119442162,
      "talkRoleNameTextMapHash": 248969803,
      "talkAssetPath": "",
      "talkAssetPathAlter": "",
      "talkAudioName": "",
      "actionBefore": "",
      "actionWhile": "",
      "actionAfter": "",
      "optionIcon": "",
      "OMBMBJIACEP": 4042604580,
      "iconPath": ""
    },
    {
      "id": 401340212,
      "nextDialogs": [
        401340213
      ],
      "talkRole": {
        "type": "TALK_ROLE_NPC",
        "_id": "2604"
      },
      "talkContentTextMapHash": 3530269074,
      "talkRoleNameTextMapHash": 1444540771,
      "talkAssetPath": "",
      "talkAssetPathAlter": "",
      "talkAudioName": "",
      "actionBefore": "",
      "actionWhile": "",
      "actionAfter": "",
      "optionIcon": "",
      "OMBMBJIACEP": 4240618236,
      "iconPath": ""
    },
    {
      "id": 401340213,
      "nextDialogs": [
        401340214
      ],
      "talkRole": {
        "type": "TALK_ROLE_NPC",
        "_id": "1081"
      },
      "talkContentTextMapHash": 3922377010,
      "talkRoleNameTextMapHash": 720047539,
      "talkAssetPath": "",
      "talkAssetPathAlter": "",
      "talkAudioName": "",
      "actionBefore": "",
      "actionWhile": "",
      "actionAfter": "",
      "optionIcon": "",
      "OMBMBJIACEP": 3301744148,
      "iconPath": ""
    },
    {
      "id": 401340214,
      "nextDialogs": [
        401340215
      ],
      "talkRole": {
        "type": "TALK_ROLE_NPC",
        "_id": "2604"
      },
      "talkContentTextMapHash": 2113914738,
      "talkRoleNameTextMapHash": 1698852515,
      "talkAssetPath": "",
      "talkAssetPathAlter": "",
      "talkAudioName": "",
      "actionBefore": "",
      "actionWhile": "",
      "actionAfter": "",
      "optionIcon": "",
      "OMBMBJIACEP": 2208724140,
      "iconPath": ""
    },
    {
      "id": 401340215,
      "nextDialogs": [
        401340216
      ],
      "talkRole": {
        "type": "TALK_ROLE_NPC",
        "_id": "1081"
      },
      "talkContentTextMapHash": 1846734210,
      "talkRoleNameTextMapHash": 700603795,
      "talkAssetPath": "",
      "talkAssetPathAlter": "",
      "talkAudioName": "",
      "actionBefore": "",
      "actionWhile": "",
      "actionAfter": "",
      "optionIcon": "",
      "OMBMBJIACEP": 870269724,
      "iconPath": ""
    },
    {
      "id": 401340216,
      "nextDialogs": [
        401340217
      ],
      "talkRole": {
        "type": "TALK_ROLE_NPC",
        "_id": "2604"
      },
      "talkContentTextMapHash": 1131099362,
      "talkRoleNameTextMapHash": 2829679635,
      "talkAssetPath": "",
      "talkAssetPathAlter": "",
      "talkAudioName": "",
      "actionBefore": "",
      "actionWhile": "",
      "actionAfter": "",
      "optionIcon": "",
      "OMBMBJIACEP": 259644828,
      "iconPath": ""
    },
    {
      "id": 401340217,
      "nextDialogs": [
        401340218
      ],
      "talkRole": {
        "type": "TALK_ROLE_NPC",
        "_id": "1073"
      },
      "talkContentTextMapHash": 2491409698,
      "talkAssetPath": "",
      "talkAssetPathAlter": "",
      "talkAudioName": "",
      "actionBefore": "",
      "actionWhile": "",
      "actionAfter": "",
      "optionIcon": "",
      "iconPath": ""
    },
    {
      "id": 401340218,
      "nextDialogs": [
        401340219
      ],
      "talkRole": {
        "type": "TALK_ROLE_NPC",
        "_id": "1073"
      },
      "talkContentTextMapHash": 1241666114,
      "talkAssetPath": "",
      "talkAssetPathAlter": "",
      "talkAudioName": "",
      "actionBefore": "",
      "actionWhile": "",
      "actionAfter": "",
      "optionIcon": "",
      "iconPath": ""
    },
    {
      "id": 401340219,
      "nextDialogs": [
        401340220
      ],
      "talkRole": {
        "type": "TALK_ROLE_NPC",
        "_id": "1073"
      },
      "talkContentTextMapHash": 1086727474,
      "talkAssetPath": "",
      "talkAssetPathAlter": "",
      "talkAudioName": "",
      "actionBefore": "",
      "actionWhile": "",
      "actionAfter": "",
      "optionIcon": "",
      "iconPath": ""
    },
    {
      "id": 401340220,
      "nextDialogs": [
        401340221,
        401340222
      ],
      "talkRole": {
        "type": "TALK_ROLE_NPC",
        "_id": "1005"
      },
      "talkContentTextMapHash": 4049623346,
      "talkAssetPath": "",
      "talkAssetPathAlter": "",
      "talkAudioName": "",
      "actionBefore": "",
      "actionWhile": "",
      "actionAfter": "",
      "optionIcon": "",
      "iconPath": ""
    },
    {
      "id": 401340221,
      "nextDialogs": [
        401340223
      ],
      "talkRole": {
        "type": "TALK_ROLE_PLAYER",
        "_id": ""
      },
      "talkContentTextMapHash": 637584082,
      "talkAssetPath": "",
      "talkAssetPathAlter": "",
      "talkAudioName": "",
      "actionBefore": "",
      "actionWhile": "",
      "actionAfter": "",
      "optionIcon": "",
      "iconPath": ""
    },
    {
      "id": 401340223,
      "nextDialogs": [
        401340224
      ],
      "talkRole": {
        "type": "TALK_ROLE_NPC",
        "_id": "2604"
      },
      "talkContentTextMapHash": 2677220746,
      "talkAssetPath": "",
      "talkAssetPathAlter": "",
      "talkAudioName": "",
      "actionBefore": "",
      "actionWhile": "",
      "actionAfter": "",
      "optionIcon": "",
      "iconPath": ""
    },
    {
      "id": 401340224,
      "nextDialogs": [
        401340225
      ],
      "talkRole": {
        "type": "TALK_ROLE_NPC",
        "_id": "1005"
      },
      "talkContentTextMapHash": 2205516442,
      "talkAssetPath": "",
      "talkAssetPathAlter": "",
      "talkAudioName": "",
      "actionBefore": "",
      "actionWhile": "",
      "actionAfter": "",
      "optionIcon": "",
      "iconPath": ""
    },
    {
      "id": 401340225,
      "nextDialogs": [
        401340226
      ],
      "talkRole": {
        "type": "TALK_ROLE_NPC",
        "_id": "1005"
      },
      "talkContentTextMapHash": 2427945050,
      "talkAssetPath": "",
      "talkAssetPathAlter": "",
      "talkAudioName": "",
      "actionBefore": "",
      "actionWhile": "",
      "actionAfter": "",
      "optionIcon": "",
      "iconPath": ""
    },
    {
      "id": 401340226,
      "nextDialogs": [
        401340227
      ],
      "talkRole": {
        "type": "TALK_ROLE_NPC",
        "_id": "1081"
      },
      "talkContentTextMapHash": 2243617594,
      "talkAssetPath": "",
      "talkAssetPathAlter": "",
      "talkAudioName": "",
      "actionBefore": "",
      "actionWhile": "",
      "actionAfter": "",
      "optionIcon": "",
      "iconPath": ""
    },
    {
      "id": 401340227,
      "nextDialogs": [
        401340228
      ],
      "talkRole": {
        "type": "TALK_ROLE_NPC",
        "_id": "1005"
      },
      "talkContentTextMapHash": 3804621058,
      "talkAssetPath": "",
      "talkAssetPathAlter": "",
      "talkAudioName": "",
      "actionBefore": "",
      "actionWhile": "",
      "actionAfter": "",
      "optionIcon": "",
      "iconPath": ""
    },
    {
      "id": 401340228,
      "nextDialogs": [
        401340229
      ],
      "talkRole": {
        "type": "TALK_ROLE_NPC",
        "_id": "1081"
      },
      "talkContentTextMapHash": 2669088954,
      "talkAssetPath": "",
      "talkAssetPathAlter": "",
      "talkAudioName": "",
      "actionBefore": "",
      "actionWhile": "",
      "actionAfter": "",
      "optionIcon": "",
      "iconPath": ""
    },
    {
      "id": 401340229,
      "nextDialogs": [
        401340230
      ],
      "talkRole": {
        "type": "TALK_ROLE_NPC",
        "_id": "30443"
      },
      "talkContentTextMapHash": 406922850,
      "talkAssetPath": "",
      "talkAssetPathAlter": "",
      "talkAudioName": "",
      "actionBefore": "",
      "actionWhile": "",
      "actionAfter": "",
      "optionIcon": "",
      "iconPath": ""
    },
    {
      "id": 401340230,
      "nextDialogs": [
        401340231
      ],
      "talkRole": {
        "type": "TALK_ROLE_NPC",
        "_id": "1081"
      },
      "talkContentTextMapHash": 3545746738,
      "talkAssetPath": "",
      "talkAssetPathAlter": "",
      "talkAudioName": "",
      "actionBefore": "",
      "actionWhile": "",
      "actionAfter": "",
      "optionIcon": "",
      "iconPath": ""
    },
    {
      "id": 401340231,
      "nextDialogs": [
        401340232
      ],
      "talkRole": {
        "type": "TALK_ROLE_NPC",
        "_id": "1005"
      },
      "talkContentTextMapHash": 556505266,
      "talkAssetPath": "",
      "talkAssetPathAlter": "",
      "talkAudioName": "",
      "actionBefore": "",
      "actionWhile": "",
      "actionAfter": "",
      "optionIcon": "",
      "iconPath": ""
    },
    {
      "id": 401340232,
      "nextDialogs": [
        401340233
      ],
      "talkRole": {
        "type": "TALK_ROLE_NPC",
        "_id": "1073"
      },
      "talkContentTextMapHash": 2054343938,
      "talkAssetPath": "",
      "talkAssetPathAlter": "",
      "talkAudioName": "",
      "actionBefore": "",
      "actionWhile": "",
      "actionAfter": "",
      "optionIcon": "",
      "iconPath": ""
    },
    {
      "id": 401340233,
      "nextDialogs": [
        401340234
      ],
      "talkRole": {
        "type": "TALK_ROLE_NPC",
        "_id": "2604"
      },
      "talkContentTextMapHash": 430209914,
      "talkAssetPath": "",
      "talkAssetPathAlter": "",
      "talkAudioName": "",
      "actionBefore": "",
      "actionWhile": "",
      "actionAfter": "",
      "optionIcon": "",
      "iconPath": ""
    },
    {
      "id": 401340234,
      "nextDialogs": [
        401340235
      ],
      "talkRole": {
        "type": "TALK_ROLE_NPC",
        "_id": "1073"
      },
      "talkContentTextMapHash": 4036368522,
      "talkAssetPath": "",
      "talkAssetPathAlter": "",
      "talkAudioName": "",
      "actionBefore": "",
      "actionWhile": "",
      "actionAfter": "",
      "optionIcon": "",
      "iconPath": ""
    },
    {
      "id": 401340235,
      "nextDialogs": [
        401340236
      ],
      "talkRole": {
        "type": "TALK_ROLE_NPC",
        "_id": "1073"
      },
      "talkContentTextMapHash": 3625097130,
      "talkAssetPath": "",
      "talkAssetPathAlter": "",
      "talkAudioName": "",
      "actionBefore": "",
      "actionWhile": "",
      "actionAfter": "",
      "optionIcon": "",
      "iconPath": ""
    },
    {
      "id": 401340236,
      "nextDialogs": [
        401340237
      ],
      "talkRole": {
        "type": "TALK_ROLE_NPC",
        "_id": "1073"
      },
      "talkContentTextMapHash": 606811106,
      "talkAssetPath": "",
      "talkAssetPathAlter": "",
      "talkAudioName": "",
      "actionBefore": "",
      "actionWhile": "",
      "actionAfter": "",
      "optionIcon": "",
      "iconPath": ""
    },
    {
      "id": 401340237,
      "nextDialogs": [
        401340238
      ],
      "talkRole": {
        "type": "TALK_ROLE_NPC",
        "_id": "2604"
      },
      "talkContentTextMapHash": 3593587978,
      "talkAssetPath": "",
      "talkAssetPathAlter": "",
      "talkAudioName": "",
      "actionBefore": "",
      "actionWhile": "",
      "actionAfter": "",
      "optionIcon": "",
      "iconPath": ""
    },
    {
      "id": 401340238,
      "nextDialogs": [
        401340239
      ],
      "talkRole": {
        "type": "TALK_ROLE_NPC",
        "_id": "2604"
      },
      "talkContentTextMapHash": 518301074,
      "talkAssetPath": "",
      "talkAssetPathAlter": "",
      "talkAudioName": "",
      "actionBefore": "",
      "actionWhile": "",
      "actionAfter": "",
      "optionIcon": "",
      "iconPath": ""
    },
    {
      "id": 401340239,
      "nextDialogs": [
        401340240
      ],
      "talkRole": {
        "type": "TALK_ROLE_NPC",
        "_id": "1073"
      },
      "talkContentTextMapHash": 3967457930,
      "talkAssetPath": "",
      "talkAssetPathAlter": "",
      "talkAudioName": "",
      "actionBefore": "",
      "actionWhile": "",
      "actionAfter": "",
      "optionIcon": "",
      "iconPath": ""
    },
    {
      "id": 401340240,
      "nextDialogs": [
        401340241
      ],
      "talkRole": {
        "type": "TALK_ROLE_NPC",
        "_id": "2604"
      },
      "talkContentTextMapHash": 3708301594,
      "talkAssetPath": "",
      "talkAssetPathAlter": "",
      "talkAudioName": "",
      "actionBefore": "",
      "actionWhile": "",
      "actionAfter": "",
      "optionIcon": "",
      "iconPath": ""
    },
    {
      "id": 401340241,
      "nextDialogs": [
        401340242
      ],
      "talkRole": {
        "type": "TALK_ROLE_NPC",
        "_id": "2604"
      },
      "talkContentTextMapHash": 2293729202,
      "talkAssetPath": "",
      "talkAssetPathAlter": "",
      "talkAudioName": "",
      "actionBefore": "",
      "actionWhile": "",
      "actionAfter": "",
      "optionIcon": "",
      "iconPath": ""
    },
    {
      "id": 401340242,
      "nextDialogs": [
        401340243
      ],
      "talkRole": {
        "type": "TALK_ROLE_NPC",
        "_id": "1005"
      },
      "talkContentTextMapHash": 3781194794,
      "talkAssetPath": "",
      "talkAssetPathAlter": "",
      "talkAudioName": "",
      "actionBefore": "",
      "actionWhile": "",
      "actionAfter": "",
      "optionIcon": "",
      "iconPath": ""
    },
    {
      "id": 401340243,
      "nextDialogs": [
        401340244
      ],
      "talkRole": {
        "type": "TALK_ROLE_NPC",
        "_id": "1005"
      },
      "talkContentTextMapHash": 471996210,
      "talkAssetPath": "",
      "talkAssetPathAlter": "",
      "talkAudioName": "",
      "actionBefore": "",
      "actionWhile": "",
      "actionAfter": "",
      "optionIcon": "",
      "iconPath": ""
    },
    {
      "id": 401340244,
      "nextDialogs": [
        401340245
      ],
      "talkRole": {
        "type": "TALK_ROLE_NPC",
        "_id": "1081"
      },
      "talkContentTextMapHash": 4186514714,
      "talkAssetPath": "",
      "talkAssetPathAlter": "",
      "talkAudioName": "",
      "actionBefore": "",
      "actionWhile": "",
      "actionAfter": "",
      "optionIcon": "",
      "iconPath": ""
    },
    {
      "id": 401340245,
      "nextDialogs": [
        401340246
      ],
      "talkRole": {
        "type": "TALK_ROLE_NPC",
        "_id": "1005"
      },
      "talkContentTextMapHash": 3383828306,
      "talkAssetPath": "",
      "talkAssetPathAlter": "",
      "talkAudioName": "",
      "actionBefore": "",
      "actionWhile": "",
      "actionAfter": "",
      "optionIcon": "",
      "iconPath": ""
    },
    {
      "id": 401340246,
      "talkRole": {
        "type": "TALK_ROLE_NPC",
        "_id": "1081"
      },
      "talkContentTextMapHash": 2180992698,
      "talkAssetPath": "",
      "talkAssetPathAlter": "",
      "talkAudioName": "",
      "actionBefore": "",
      "actionWhile": "",
      "actionAfter": "",
      "optionIcon": "",
      "iconPath": ""
    },
    {
      "id": 401340222,
      "nextDialogs": [
        401340223
      ],
      "talkRole": {
        "type": "TALK_ROLE_PLAYER",
        "_id": ""
      },
      "talkContentTextMapHash": 1270078466,
      "talkAssetPath": "",
      "talkAssetPathAlter": "",
      "talkAudioName": "",
      "actionBefore": "",
      "actionWhile": "",
      "actionAfter": "",
      "optionIcon": "",
      "iconPath": ""
    }
  ]
}