{
  "talkId": 1403331,
  "dialogList": [
    {
      "id": 140333101,
      "nextDialogs": [
        140333102
      ],
      "talkShowType": "TALK_SHOW_FORCE_SELECT",
      "talkRole": {
        "type": "TALK_ROLE_PLAYER",
        "_id": ""
      },
      "talkContentTextMapHash": 3811427122,
      "talkAssetPath": "",
      "talkAssetPathAlter": "",
      "talkAudioName": "",
      "actionBefore": "",
      "actionWhile": "",
      "actionAfter": "",
      "optionIcon": "",
      "OMBMBJIACEP": 3491760004,
      "iconPath": "",
      "uiType": "DIALOG_UI_TRPGSP"
    },
    {
      "id": 140333102,
      "talkRole": {
        "type": "TALK_ROLE_NPC",
        "_id": "1077"
      },
      "talkContentTextMapHash": 1866230890,
      "talkRoleNameTextMapHash": 2607295851,
      "talkAssetPath": "",
      "talkAssetPathAlter": "",
      "talkAudioName": "",
      "actionBefore": "",
      "actionWhile": "",
      "actionAfter": "",
      "optionIcon": "",
      "OMBMBJIACEP": 2602707340,
      "iconPath": "ART/UI/Atlas/CutSceneUI/UI_TRPGPic/UI_TRPG_Clorinde",
      "uiType": "DIALOG_UI_TRPGSP"
    }
  ]
}