{
  "talkId": 1403202,
  "dialogList": [
    {
      "id": 140320201,
      "nextDialogs": [
        140320202
      ],
      "talkRole": {
        "type": "TALK_ROLE_NPC",
        "_id": "1077"
      },
      "talkContentTextMapHash": 4053339322,
      "talkAssetPath": "",
      "talkAssetPathAlter": "",
      "talkAudioName": "",
      "actionBefore": "",
      "actionWhile": "",
      "actionAfter": "",
      "optionIcon": "",
      "iconPath": ""
    },
    {
      "id": 140320202,
      "nextDialogs": [
        140320203
      ],
      "talkRole": {
        "type": "TALK_ROLE_NPC",
        "_id": "1075"
      },
      "talkContentTextMapHash": 851925274,
      "talkAssetPath": "",
      "talkAssetPathAlter": "",
      "talkAudioName": "",
      "actionBefore": "",
      "actionWhile": "",
      "actionAfter": "",
      "optionIcon": "",
      "iconPath": ""
    },
    {
      "id": 140320203,
      "nextDialogs": [
        140320204
      ],
      "talkRole": {
        "type": "TALK_ROLE_NPC",
        "_id": "1077"
      },
      "talkContentTextMapHash": 1785948642,
      "talkAssetPath": "",
      "talkAssetPathAlter": "",
      "talkAudioName": "",
      "actionBefore": "",
      "actionWhile": "",
      "actionAfter": "",
      "optionIcon": "",
      "iconPath": ""
    },
    {
      "id": 140320204,
      "nextDialogs": [
        140320205
      ],
      "talkRole": {
        "type": "TALK_ROLE_NPC",
        "_id": "1075"
      },
      "talkContentTextMapHash": 2830378626,
      "talkAssetPath": "",
      "talkAssetPathAlter": "",
      "talkAudioName": "",
      "actionBefore": "",
      "actionWhile": "",
      "actionAfter": "",
      "optionIcon": "",
      "iconPath": ""
    },
    {
      "id": 140320205,
      "nextDialogs": [
        140320206
      ],
      "talkRole": {
        "type": "TALK_ROLE_NPC",
        "_id": "1073"
      },
      "talkContentTextMapHash": 938757754,
      "talkAssetPath": "",
      "talkAssetPathAlter": "",
      "talkAudioName": "",
      "actionBefore": "",
      "actionWhile": "",
      "actionAfter": "",
      "optionIcon": "",
      "iconPath": ""
    },
    {
      "id": 140320206,
      "nextDialogs": [
        140320207
      ],
      "talkRole": {
        "type": "TALK_ROLE_NPC",
        "_id": "1071"
      },
      "talkContentTextMapHash": 3663629914,
      "talkAssetPath": "",
      "talkAssetPathAlter": "",
      "talkAudioName": "",
      "actionBefore": "",
      "actionWhile": "",
      "actionAfter": "",
      "optionIcon": "",
      "iconPath": ""
    },
    {
      "id": 140320207,
      "nextDialogs": [
        140320208
      ],
      "talkRole": {
        "type": "TALK_ROLE_NPC",
        "_id": "1075"
      },
      "talkContentTextMapHash": 1474238466,
      "talkAssetPath": "",
      "talkAssetPathAlter": "",
      "talkAudioName": "",
      "actionBefore": "",
      "actionWhile": "",
      "actionAfter": "",
      "optionIcon": "",
      "iconPath": ""
    },
    {
      "id": 140320208,
      "nextDialogs": [
        140320209
      ],
      "talkRole": {
        "type": "TALK_ROLE_NPC",
        "_id": "1077"
      },
      "talkContentTextMapHash": 3414654506,
      "talkAssetPath": "",
      "talkAssetPathAlter": "",
      "talkAudioName": "",
      "actionBefore": "",
      "actionWhile": "",
      "actionAfter": "",
      "optionIcon": "",
      "iconPath": ""
    },
    {
      "id": 140320209,
      "nextDialogs": [
        140320210
      ],
      "talkRole": {
        "type": "TALK_ROLE_NPC",
        "_id": "1005"
      },
      "talkContentTextMapHash": 93804602,
      "talkAssetPath": "",
      "talkAssetPathAlter": "",
      "talkAudioName": "",
      "actionBefore": "",
      "actionWhile": "",
      "actionAfter": "",
      "optionIcon": "",
      "iconPath": ""
    },
    {
      "id": 140320210,
      "nextDialogs": [
        140320211
      ],
      "talkRole": {
        "type": "TALK_ROLE_NPC",
        "_id": "1077"
      },
      "talkContentTextMapHash": 1968425458,
      "talkAssetPath": "",
      "talkAssetPathAlter": "",
      "talkAudioName": "",
      "actionBefore": "",
      "actionWhile": "",
      "actionAfter": "",
      "optionIcon": "",
      "iconPath": ""
    },
    {
      "id": 140320211,
      "nextDialogs": [
        140320212
      ],
      "talkRole": {
        "type": "TALK_ROLE_NPC",
        "_id": "1077"
      },
      "talkContentTextMapHash": 4017828938,
      "talkAssetPath": "",
      "talkAssetPathAlter": "",
      "talkAudioName": "",
      "actionBefore": "",
      "actionWhile": "",
      "actionAfter": "",
      "optionIcon": "",
      "iconPath": ""
    },
    {
      "id": 140320212,
      "nextDialogs": [
        140320213
      ],
      "talkRole": {
        "type": "TALK_ROLE_NPC",
        "_id": "1077"
      },
      "talkContentTextMapHash": 2206684474,
      "talkAssetPath": "",
      "talkAssetPathAlter": "",
      "talkAudioName": "",
      "actionBefore": "",
      "actionWhile": "",
      "actionAfter": "",
      "optionIcon": "",
      "iconPath": ""
    },
    {
      "id": 140320213,
      "nextDialogs": [
        140320214
      ],
      "talkRole": {
        "type": "TALK_ROLE_NPC",
        "_id": "1073"
      },
      "talkContentTextMapHash": 4157000994,
      "talkAssetPath": "",
      "talkAssetPathAlter": "",
      "talkAudioName": "",
      "actionBefore": "",
      "actionWhile": "",
      "actionAfter": "",
      "optionIcon": "",
      "iconPath": ""
    },
    {
      "id": 140320214,
      "nextDialogs": [
        140320215
      ],
      "talkRole": {
        "type": "TALK_ROLE_NPC",
        "_id": "1077"
      },
      "talkContentTextMapHash": 1210738818,
      "talkAssetPath": "",
      "talkAssetPathAlter": "",
      "talkAudioName": "",
      "actionBefore": "",
      "actionWhile": "",
      "actionAfter": "",
      "optionIcon": "",
      "iconPath": ""
    },
    {
      "id": 140320215,
      "nextDialogs": [
        140320216
      ],
      "talkRole": {
        "type": "TALK_ROLE_NPC",
        "_id": "1077"
      },
      "talkContentTextMapHash": 2294116730,
      "talkAssetPath": "",
      "talkAssetPathAlter": "",
      "talkAudioName": "",
      "actionBefore": "",
      "actionWhile": "",
      "actionAfter": "",
      "optionIcon": "",
      "iconPath": ""
    },
    {
      "id": 140320216,
      "nextDialogs": [
        140320217
      ],
      "talkRole": {
        "type": "TALK_ROLE_NPC",
        "_id": "1077"
      },
      "talkContentTextMapHash": 662086498,
      "talkAssetPath": "",
      "talkAssetPathAlter": "",
      "talkAudioName": "",
      "actionBefore": "",
      "actionWhile": "",
      "actionAfter": "",
      "optionIcon": "",
      "iconPath": ""
    },
    {
      "id": 140320217,
      "nextDialogs": [
        140320218
      ],
      "talkRole": {
        "type": "TALK_ROLE_NPC",
        "_id": "1077"
      },
      "talkContentTextMapHash": 55642554,
      "talkAssetPath": "",
      "talkAssetPathAlter": "",
      "talkAudioName": "",
      "actionBefore": "",
      "actionWhile": "",
      "actionAfter": "",
      "optionIcon": "",
      "iconPath": ""
    },
    {
      "id": 140320218,
      "nextDialogs": [
        140320219
      ],
      "talkRole": {
        "type": "TALK_ROLE_NPC",
        "_id": "1073"
      },
      "talkContentTextMapHash": 2090641170,
      "talkAssetPath": "",
      "talkAssetPathAlter": "",
      "talkAudioName": "",
      "actionBefore": "",
      "actionWhile": "",
      "actionAfter": "",
      "optionIcon": "",
      "iconPath": ""
    },
    {
      "id": 140320219,
      "nextDialogs": [
        140320220
      ],
      "talkRole": {
        "type": "TALK_ROLE_NPC",
        "_id": "1075"
      },
      "talkContentTextMapHash": 2851403306,
      "talkAssetPath": "",
      "talkAssetPathAlter": "",
      "talkAudioName": "",
      "actionBefore": "",
      "actionWhile": "",
      "actionAfter": "",
      "optionIcon": "",
      "iconPath": ""
    },
    {
      "id": 140320220,
      "nextDialogs": [
        140320221
      ],
      "talkRole": {
        "type": "TALK_ROLE_NPC",
        "_id": "1075"
      },
      "talkContentTextMapHash": 3542718178,
      "talkAssetPath": "",
      "talkAssetPathAlter": "",
      "talkAudioName": "",
      "actionBefore": "",
      "actionWhile": "",
      "actionAfter": "",
      "optionIcon": "",
      "iconPath": ""
    },
    {
      "id": 140320221,
      "nextDialogs": [
        140320222
      ],
      "talkRole": {
        "type": "TALK_ROLE_NPC",
        "_id": "1073"
      },
      "talkContentTextMapHash": 3415929250,
      "talkAssetPath": "",
      "talkAssetPathAlter": "",
      "talkAudioName": "",
      "actionBefore": "",
      "actionWhile": "",
      "actionAfter": "",
      "optionIcon": "",
      "iconPath": ""
    },
    {
      "id": 140320222,
      "nextDialogs": [
        140320223
      ],
      "talkRole": {
        "type": "TALK_ROLE_NPC",
        "_id": "1077"
      },
      "talkContentTextMapHash": 3872696666,
      "talkAssetPath": "",
      "talkAssetPathAlter": "",
      "talkAudioName": "",
      "actionBefore": "",
      "actionWhile": "",
      "actionAfter": "",
      "optionIcon": "",
      "iconPath": ""
    },
    {
      "id": 140320223,
      "nextDialogs": [
        140320224,
        140320230
      ],
      "talkRole": {
        "type": "TALK_ROLE_NPC",
        "_id": "1075"
      },
      "talkContentTextMapHash": 1194320082,
      "talkAssetPath": "",
      "talkAssetPathAlter": "",
      "talkAudioName": "",
      "actionBefore": "",
      "actionWhile": "",
      "actionAfter": "",
      "optionIcon": "",
      "iconPath": ""
    },
    {
      "id": 140320224,
      "nextDialogs": [
        140320225
      ],
      "talkRole": {
        "type": "TALK_ROLE_PLAYER",
        "_id": ""
      },
      "talkContentTextMapHash": 852304938,
      "talkAssetPath": "",
      "talkAssetPathAlter": "",
      "talkAudioName": "",
      "actionBefore": "",
      "actionWhile": "",
      "actionAfter": "",
      "optionIcon": "",
      "iconPath": ""
    },
    {
      "id": 140320225,
      "nextDialogs": [
        140320226,
        140320228
      ],
      "talkRole": {
        "type": "TALK_ROLE_NPC",
        "_id": "1077"
      },
      "talkContentTextMapHash": 537159610,
      "talkAssetPath": "",
      "talkAssetPathAlter": "",
      "talkAudioName": "",
      "actionBefore": "",
      "actionWhile": "",
      "actionAfter": "",
      "optionIcon": "",
      "iconPath": ""
    },
    {
      "id": 140320226,
      "nextDialogs": [
        140320227
      ],
      "talkRole": {
        "type": "TALK_ROLE_PLAYER",
        "_id": ""
      },
      "talkContentTextMapHash": 2755474338,
      "talkAssetPath": "",
      "talkAssetPathAlter": "",
      "talkAudioName": "",
      "actionBefore": "",
      "actionWhile": "",
      "actionAfter": "",
      "optionIcon": "UI_Icon_Intee_TalkOK",
      "iconPath": ""
    },
    {
      "id": 140320227,
      "nextDialogs": [
        140320236
      ],
      "talkRole": {
        "type": "TALK_ROLE_NPC",
        "_id": "1071"
      },
      "talkContentTextMapHash": 154856362,
      "talkAssetPath": "",
      "talkAssetPathAlter": "",
      "talkAudioName": "",
      "actionBefore": "",
      "actionWhile": "",
      "actionAfter": "",
      "optionIcon": "",
      "iconPath": ""
    },
    {
      "id": 140320236,
      "nextDialogs": [
        140320237
      ],
      "talkRole": {
        "type": "TALK_ROLE_NPC",
        "_id": "1075"
      },
      "talkContentTextMapHash": 748494426,
      "talkAssetPath": "",
      "talkAssetPathAlter": "",
      "talkAudioName": "",
      "actionBefore": "",
      "actionWhile": "",
      "actionAfter": "",
      "optionIcon": "",
      "iconPath": ""
    },
    {
      "id": 140320237,
      "nextDialogs": [
        140320238
      ],
      "talkRole": {
        "type": "TALK_ROLE_NPC",
        "_id": "1077"
      },
      "talkContentTextMapHash": 3303783794,
      "talkAssetPath": "",
      "talkAssetPathAlter": "",
      "talkAudioName": "",
      "actionBefore": "",
      "actionWhile": "",
      "actionAfter": "",
      "optionIcon": "",
      "iconPath": ""
    },
    {
      "id": 140320238,
      "nextDialogs": [
        140320239
      ],
      "talkRole": {
        "type": "TALK_ROLE_NPC",
        "_id": "1005"
      },
      "talkContentTextMapHash": 3697760698,
      "talkAssetPath": "",
      "talkAssetPathAlter": "",
      "talkAudioName": "",
      "actionBefore": "",
      "actionWhile": "",
      "actionAfter": "",
      "optionIcon": "",
      "iconPath": ""
    },
    {
      "id": 140320239,
      "nextDialogs": [
        140320240
      ],
      "talkRole": {
        "type": "TALK_ROLE_NPC",
        "_id": "1075"
      },
      "talkContentTextMapHash": 3478927194,
      "talkAssetPath": "",
      "talkAssetPathAlter": "",
      "talkAudioName": "",
      "actionBefore": "",
      "actionWhile": "",
      "actionAfter": "",
      "optionIcon": "",
      "iconPath": ""
    },
    {
      "id": 140320240,
      "nextDialogs": [
        140320241
      ],
      "talkRole": {
        "type": "TALK_ROLE_NPC",
        "_id": "1073"
      },
      "talkContentTextMapHash": 1143285482,
      "talkAssetPath": "",
      "talkAssetPathAlter": "",
      "talkAudioName": "",
      "actionBefore": "",
      "actionWhile": "",
      "actionAfter": "",
      "optionIcon": "",
      "iconPath": ""
    },
    {
      "id": 140320241,
      "nextDialogs": [
        140320242
      ],
      "talkRole": {
        "type": "TALK_ROLE_NPC",
        "_id": "1077"
      },
      "talkContentTextMapHash": 3057811762,
      "talkAssetPath": "",
      "talkAssetPathAlter": "",
      "talkAudioName": "",
      "actionBefore": "",
      "actionWhile": "",
      "actionAfter": "",
      "optionIcon": "",
      "iconPath": ""
    },
    {
      "id": 140320242,
      "nextDialogs": [
        140320243
      ],
      "talkRole": {
        "type": "TALK_ROLE_NPC",
        "_id": "1077"
      },
      "talkContentTextMapHash": 2362186538,
      "talkRoleNameTextMapHash": 3146616059,
      "talkAssetPath": "",
      "talkAssetPathAlter": "",
      "talkAudioName": "",
      "actionBefore": "",
      "actionWhile": "",
      "actionAfter": "",
      "optionIcon": "",
      "OMBMBJIACEP": 1283445300,
      "iconPath": "ART/UI/Atlas/CutSceneUI/UI_TRPGPic/UI_TRPG_Clorinde",
      "uiType": "DIALOG_UI_TRPGSP"
    },
    {
      "id": 140320243,
      "talkRole": {
        "type": "TALK_ROLE_NPC",
        "_id": "1077"
      },
      "talkContentTextMapHash": 2473573282,
      "talkRoleNameTextMapHash": 677505139,
      "talkAssetPath": "",
      "talkAssetPathAlter": "",
      "talkAudioName": "",
      "actionBefore": "",
      "actionWhile": "",
      "actionAfter": "",
      "optionIcon": "",
      "OMBMBJIACEP": 381310060,
      "iconPath": "ART/UI/Atlas/CutSceneUI/UI_TRPGPic/UI_TRPG_Clorinde",
      "uiType": "DIALOG_UI_TRPGSP"
    },
    {
      "id": 140320228,
      "nextDialogs": [
        140320229
      ],
      "talkRole": {
        "type": "TALK_ROLE_PLAYER",
        "_id": ""
      },
      "talkContentTextMapHash": 2353091690,
      "talkAssetPath": "",
      "talkAssetPathAlter": "",
      "talkAudioName": "",
      "actionBefore": "",
      "actionWhile": "",
      "actionAfter": "",
      "optionIcon": "",
      "iconPath": ""
    },
    {
      "id": 140320229,
      "nextDialogs": [
        140320236
      ],
      "talkRole": {
        "type": "TALK_ROLE_NPC",
        "_id": "1077"
      },
      "talkContentTextMapHash": 778705194,
      "talkAssetPath": "",
      "talkAssetPathAlter": "",
      "talkAudioName": "",
      "actionBefore": "",
      "actionWhile": "",
      "actionAfter": "",
      "optionIcon": "",
      "iconPath": ""
    },
    {
      "id": 140320230,
      "nextDialogs": [
        140320231
      ],
      "talkRole": {
        "type": "TALK_ROLE_PLAYER",
        "_id": ""
      },
      "talkContentTextMapHash": 3246355130,
      "talkAssetPath": "",
      "talkAssetPathAlter": "",
      "talkAudioName": "",
      "actionBefore": "",
      "actionWhile": "",
      "actionAfter": "",
      "optionIcon": "",
      "iconPath": ""
    },
    {
      "id": 140320231,
      "nextDialogs": [
        140320232,
        140320234
      ],
      "talkRole": {
        "type": "TALK_ROLE_NPC",
        "_id": "1077"
      },
      "talkContentTextMapHash": 614499642,
      "talkAssetPath": "",
      "talkAssetPathAlter": "",
      "talkAudioName": "",
      "actionBefore": "",
      "actionWhile": "",
      "actionAfter": "",
      "optionIcon": "",
      "iconPath": ""
    },
    {
      "id": 140320232,
      "nextDialogs": [
        140320233
      ],
      "talkRole": {
        "type": "TALK_ROLE_PLAYER",
        "_id": ""
      },
      "talkContentTextMapHash": 2400405002,
      "talkAssetPath": "",
      "talkAssetPathAlter": "",
      "talkAudioName": "",
      "actionBefore": "",
      "actionWhile": "",
      "actionAfter": "",
      "optionIcon": "UI_Icon_Intee_TalkOK",
      "iconPath": ""
    },
    {
      "id": 140320233,
      "nextDialogs": [
        140320236
      ],
      "talkRole": {
        "type": "TALK_ROLE_NPC",
        "_id": "1075"
      },
      "talkContentTextMapHash": 952290506,
      "talkAssetPath": "",
      "talkAssetPathAlter": "",
      "talkAudioName": "",
      "actionBefore": "",
      "actionWhile": "",
      "actionAfter": "",
      "optionIcon": "",
      "iconPath": ""
    },
    {
      "id": 140320234,
      "nextDialogs": [
        140320235
      ],
      "talkRole": {
        "type": "TALK_ROLE_PLAYER",
        "_id": ""
      },
      "talkContentTextMapHash": 232007938,
      "talkAssetPath": "",
      "talkAssetPathAlter": "",
      "talkAudioName": "",
      "actionBefore": "",
      "actionWhile": "",
      "actionAfter": "",
      "optionIcon": "",
      "iconPath": ""
    },
    {
      "id": 140320235,
      "nextDialogs": [
        140320236
      ],
      "talkRole": {
        "type": "TALK_ROLE_NPC",
        "_id": "1077"
      },
      "talkContentTextMapHash": 267611114,
      "talkAssetPath": "",
      "talkAssetPathAlter": "",
      "talkAudioName": "",
      "actionBefore": "",
      "actionWhile": "",
      "actionAfter": "",
      "optionIcon": "",
      "iconPath": ""
    }
  ]
}