{
  "talkId": 1402807,
  "dialogList": [
    {
      "id": 140280701,
      "nextDialogs": [
        140280702
      ],
      "talkRole": {
        "type": "TALK_ROLE_NPC",
        "_id": "1005"
      },
      "talkContentTextMapHash": 4145891602,
      "talkAssetPath": "",
      "talkAssetPathAlter": "",
      "talkAudioName": "",
      "actionBefore": "",
      "actionWhile": "",
      "actionAfter": "",
      "optionIcon": "",
      "iconPath": ""
    },
    {
      "id": 140280702,
      "nextDialogs": [
        140280703
      ],
      "talkRole": {
        "type": "TALK_ROLE_NPC",
        "_id": "1079"
      },
      "talkContentTextMapHash": 3392526602,
      "talkAssetPath": "",
      "talkAssetPathAlter": "",
      "talkAudioName": "",
      "actionBefore": "",
      "actionWhile": "",
      "actionAfter": "",
      "optionIcon": "",
      "iconPath": ""
    },
    {
      "id": 140280703,
      "nextDialogs": [
        140280704
      ],
      "talkRole": {
        "type": "TALK_ROLE_NPC",
        "_id": "1005"
      },
      "talkContentTextMapHash": 578897986,
      "talkAssetPath": "",
      "talkAssetPathAlter": "",
      "talkAudioName": "",
      "actionBefore": "",
      "actionWhile": "",
      "actionAfter": "",
      "optionIcon": "",
      "iconPath": ""
    },
    {
      "id": 140280704,
      "nextDialogs": [
        140280705
      ],
      "talkRole": {
        "type": "TALK_ROLE_NPC",
        "_id": "1079"
      },
      "talkContentTextMapHash": 2213143346,
      "talkAssetPath": "",
      "talkAssetPathAlter": "",
      "talkAudioName": "",
      "actionBefore": "",
      "actionWhile": "",
      "actionAfter": "",
      "optionIcon": "",
      "iconPath": ""
    },
    {
      "id": 140280705,
      "nextDialogs": [
        140280706
      ],
      "talkRole": {
        "type": "TALK_ROLE_NPC",
        "_id": "1005"
      },
      "talkContentTextMapHash": 3445842242,
      "talkAssetPath": "",
      "talkAssetPathAlter": "",
      "talkAudioName": "",
      "actionBefore": "",
      "actionWhile": "",
      "actionAfter": "",
      "optionIcon": "",
      "iconPath": ""
    },
    {
      "id": 140280706,
      "nextDialogs": [
        140280707
      ],
      "talkRole": {
        "type": "TALK_ROLE_NPC",
        "_id": "1079"
      },
      "talkContentTextMapHash": 2283124874,
      "talkAssetPath": "",
      "talkAssetPathAlter": "",
      "talkAudioName": "",
      "actionBefore": "",
      "actionWhile": "",
      "actionAfter": "",
      "optionIcon": "",
      "iconPath": ""
    },
    {
      "id": 140280707,
      "nextDialogs": [
        140280708
      ],
      "talkRole": {
        "type": "TALK_ROLE_NPC",
        "_id": "14042"
      },
      "talkContentTextMapHash": 3045000594,
      "talkAssetPath": "",
      "talkAssetPathAlter": "",
      "talkAudioName": "",
      "actionBefore": "",
      "actionWhile": "",
      "actionAfter": "",
      "optionIcon": "",
      "OMBMBJIACEP": 2484235300,
      "iconPath": ""
    },
    {
      "id": 140280708,
      "nextDialogs": [
        140280709
      ],
      "talkRole": {
        "type": "TALK_ROLE_BLACK_SCREEN",
        "_id": ""
      },
      "talkContentTextMapHash": 83413930,
      "talkAssetPath": "",
      "talkAssetPathAlter": "",
      "talkAudioName": "",
      "actionBefore": "",
      "actionWhile": "",
      "actionAfter": "",
      "optionIcon": "",
      "iconPath": ""
    },
    {
      "id": 140280709,
      "nextDialogs": [
        140280710
      ],
      "talkRole": {
        "type": "TALK_ROLE_NPC",
        "_id": "1079"
      },
      "talkContentTextMapHash": 351857538,
      "talkAssetPath": "",
      "talkAssetPathAlter": "",
      "talkAudioName": "",
      "actionBefore": "",
      "actionWhile": "",
      "actionAfter": "",
      "optionIcon": "",
      "iconPath": ""
    },
    {
      "id": 140280710,
      "nextDialogs": [
        140280711
      ],
      "talkRole": {
        "type": "TALK_ROLE_NPC",
        "_id": "14043"
      },
      "talkContentTextMapHash": 1664795338,
      "talkAssetPath": "",
      "talkAssetPathAlter": "",
      "talkAudioName": "",
      "actionBefore": "",
      "actionWhile": "",
      "actionAfter": "",
      "optionIcon": "",
      "OMBMBJIACEP": 2493636308,
      "iconPath": ""
    },
    {
      "id": 140280711,
      "nextDialogs": [
        140280712
      ],
      "talkRole": {
        "type": "TALK_ROLE_NPC",
        "_id": "1079"
      },
      "talkContentTextMapHash": 1957682906,
      "talkAssetPath": "",
      "talkAssetPathAlter": "",
      "talkAudioName": "",
      "actionBefore": "",
      "actionWhile": "",
      "actionAfter": "",
      "optionIcon": "",
      "iconPath": ""
    },
    {
      "id": 140280712,
      "nextDialogs": [
        140280713
      ],
      "talkRole": {
        "type": "TALK_ROLE_NPC",
        "_id": "1079"
      },
      "talkContentTextMapHash": 1936354466,
      "talkAssetPath": "",
      "talkAssetPathAlter": "",
      "talkAudioName": "",
      "actionBefore": "",
      "actionWhile": "",
      "actionAfter": "",
      "optionIcon": "",
      "iconPath": ""
    },
    {
      "id": 140280713,
      "nextDialogs": [
        140280714
      ],
      "talkRole": {
        "type": "TALK_ROLE_NPC",
        "_id": "14043"
      },
      "talkContentTextMapHash": 2112759138,
      "talkAssetPath": "",
      "talkAssetPathAlter": "",
      "talkAudioName": "",
      "actionBefore": "",
      "actionWhile": "",
      "actionAfter": "",
      "optionIcon": "",
      "OMBMBJIACEP": 2386365284,
      "iconPath": ""
    },
    {
      "id": 140280714,
      "nextDialogs": [
        140280715
      ],
      "talkRole": {
        "type": "TALK_ROLE_NPC",
        "_id": "1005"
      },
      "talkContentTextMapHash": 3022348538,
      "talkAssetPath": "",
      "talkAssetPathAlter": "",
      "talkAudioName": "",
      "actionBefore": "",
      "actionWhile": "",
      "actionAfter": "",
      "optionIcon": "",
      "iconPath": ""
    },
    {
      "id": 140280715,
      "nextDialogs": [
        140280716
      ],
      "talkRole": {
        "type": "TALK_ROLE_NPC",
        "_id": "1079"
      },
      "talkContentTextMapHash": 335815074,
      "talkAssetPath": "",
      "talkAssetPathAlter": "",
      "talkAudioName": "",
      "actionBefore": "",
      "actionWhile": "",
      "actionAfter": "",
      "optionIcon": "",
      "iconPath": ""
    },
    {
      "id": 140280716,
      "nextDialogs": [
        140280717
      ],
      "talkRole": {
        "type": "TALK_ROLE_NPC",
        "_id": "1005"
      },
      "talkContentTextMapHash": 1791366266,
      "talkAssetPath": "",
      "talkAssetPathAlter": "",
      "talkAudioName": "",
      "actionBefore": "",
      "actionWhile": "",
      "actionAfter": "",
      "optionIcon": "",
      "iconPath": ""
    },
    {
      "id": 140280717,
      "nextDialogs": [
        140280718
      ],
      "talkRole": {
        "type": "TALK_ROLE_NPC",
        "_id": "14042"
      },
      "talkContentTextMapHash": 2245475754,
      "talkAssetPath": "",
      "talkAssetPathAlter": "",
      "talkAudioName": "",
      "actionBefore": "",
      "actionWhile": "",
      "actionAfter": "",
      "optionIcon": "",
      "OMBMBJIACEP": 2479773188,
      "iconPath": ""
    },
    {
      "id": 140280718,
      "nextDialogs": [
        140280719
      ],
      "talkRole": {
        "type": "TALK_ROLE_NPC",
        "_id": "14042"
      },
      "talkContentTextMapHash": 588917770,
      "talkAssetPath": "",
      "talkAssetPathAlter": "",
      "talkAudioName": "",
      "actionBefore": "",
      "actionWhile": "",
      "actionAfter": "",
      "optionIcon": "",
      "OMBMBJIACEP": 4002451356,
      "iconPath": ""
    },
    {
      "id": 140280719,
      "nextDialogs": [
        140280720
      ],
      "talkRole": {
        "type": "TALK_ROLE_NPC",
        "_id": "14042"
      },
      "talkContentTextMapHash": 1751248434,
      "talkAssetPath": "",
      "talkAssetPathAlter": "",
      "talkAudioName": "",
      "actionBefore": "",
      "actionWhile": "",
      "actionAfter": "",
      "optionIcon": "",
      "OMBMBJIACEP": 131606932,
      "iconPath": ""
    },
    {
      "id": 140280720,
      "nextDialogs": [
        140280721
      ],
      "talkRole": {
        "type": "TALK_ROLE_NPC",
        "_id": "1005"
      },
      "talkContentTextMapHash": 2647909418,
      "talkAssetPath": "",
      "talkAssetPathAlter": "",
      "talkAudioName": "",
      "actionBefore": "",
      "actionWhile": "",
      "actionAfter": "",
      "optionIcon": "",
      "iconPath": ""
    },
    {
      "id": 140280721,
      "nextDialogs": [
        140280722
      ],
      "talkRole": {
        "type": "TALK_ROLE_NPC",
        "_id": "1005"
      },
      "talkContentTextMapHash": 2244940946,
      "talkAssetPath": "",
      "talkAssetPathAlter": "",
      "talkAudioName": "",
      "actionBefore": "",
      "actionWhile": "",
      "actionAfter": "",
      "optionIcon": "",
      "iconPath": ""
    },
    {
      "id": 140280722,
      "nextDialogs": [
        140280723
      ],
      "talkRole": {
        "type": "TALK_ROLE_NPC",
        "_id": "1079"
      },
      "talkContentTextMapHash": 178227034,
      "talkAssetPath": "",
      "talkAssetPathAlter": "",
      "talkAudioName": "",
      "actionBefore": "",
      "actionWhile": "",
      "actionAfter": "",
      "optionIcon": "",
      "iconPath": ""
    },
    {
      "id": 140280723,
      "nextDialogs": [
        140280724
      ],
      "talkRole": {
        "type": "TALK_ROLE_NPC",
        "_id": "1079"
      },
      "talkContentTextMapHash": 2431814402,
      "talkAssetPath": "",
      "talkAssetPathAlter": "",
      "talkAudioName": "",
      "actionBefore": "",
      "actionWhile": "",
      "actionAfter": "",
      "optionIcon": "",
      "iconPath": ""
    },
    {
      "id": 140280724,
      "nextDialogs": [
        140280725
      ],
      "talkRole": {
        "type": "TALK_ROLE_NPC",
        "_id": "14043"
      },
      "talkContentTextMapHash": 1837359962,
      "talkAssetPath": "",
      "talkAssetPathAlter": "",
      "talkAudioName": "",
      "actionBefore": "",
      "actionWhile": "",
      "actionAfter": "",
      "optionIcon": "",
      "OMBMBJIACEP": 1889042932,
      "iconPath": ""
    },
    {
      "id": 140280725,
      "nextDialogs": [
        140280726
      ],
      "talkRole": {
        "type": "TALK_ROLE_NPC",
        "_id": "1005"
      },
      "talkContentTextMapHash": 964356074,
      "talkAssetPath": "",
      "talkAssetPathAlter": "",
      "talkAudioName": "",
      "actionBefore": "",
      "actionWhile": "",
      "actionAfter": "",
      "optionIcon": "",
      "iconPath": ""
    },
    {
      "id": 140280726,
      "nextDialogs": [
        140280727
      ],
      "talkRole": {
        "type": "TALK_ROLE_NPC",
        "_id": "14042"
      },
      "talkContentTextMapHash": 3026931386,
      "talkAssetPath": "",
      "talkAssetPathAlter": "",
      "talkAudioName": "",
      "actionBefore": "",
      "actionWhile": "",
      "actionAfter": "",
      "optionIcon": "",
      "OMBMBJIACEP": 3504434180,
      "iconPath": ""
    },
    {
      "id": 140280727,
      "nextDialogs": [
        140280728
      ],
      "talkRole": {
        "type": "TALK_ROLE_NPC",
        "_id": "1079"
      },
      "talkContentTextMapHash": 1097586,
      "talkAssetPath": "",
      "talkAssetPathAlter": "",
      "talkAudioName": "",
      "actionBefore": "",
      "actionWhile": "",
      "actionAfter": "",
      "optionIcon": "",
      "iconPath": ""
    },
    {
      "id": 140280728,
      "nextDialogs": [
        140280729
      ],
      "talkRole": {
        "type": "TALK_ROLE_NPC",
        "_id": "1005"
      },
      "talkContentTextMapHash": 3804491602,
      "talkAssetPath": "",
      "talkAssetPathAlter": "",
      "talkAudioName": "",
      "actionBefore": "",
      "actionWhile": "",
      "actionAfter": "",
      "optionIcon": "",
      "iconPath": ""
    },
    {
      "id": 140280729,
      "nextDialogs": [
        140280730
      ],
      "talkRole": {
        "type": "TALK_ROLE_NPC",
        "_id": "14042"
      },
      "talkContentTextMapHash": 188324178,
      "talkAssetPath": "",
      "talkAssetPathAlter": "",
      "talkAudioName": "",
      "actionBefore": "",
      "actionWhile": "",
      "actionAfter": "",
      "optionIcon": "",
      "OMBMBJIACEP": 3498175364,
      "iconPath": ""
    },
    {
      "id": 140280730,
      "nextDialogs": [
        140280731
      ],
      "talkRole": {
        "type": "TALK_ROLE_NPC",
        "_id": "14043"
      },
      "talkContentTextMapHash": 1527247458,
      "talkAssetPath": "",
      "talkAssetPathAlter": "",
      "talkAudioName": "",
      "actionBefore": "",
      "actionWhile": "",
      "actionAfter": "",
      "optionIcon": "",
      "iconPath": ""
    },
    {
      "id": 140280731,
      "talkRole": {
        "type": "TALK_ROLE_NPC",
        "_id": "1079"
      },
      "talkContentTextMapHash": 3010055306,
      "talkAssetPath": "",
      "talkAssetPathAlter": "",
      "talkAudioName": "",
      "actionBefore": "",
      "actionWhile": "",
      "actionAfter": "",
      "optionIcon": "",
      "iconPath": ""
    }
  ]
}