{
  "talkId": 1403214,
  "dialogList": [
    {
      "id": 140321401,
      "nextDialogs": [
        140321402
      ],
      "talkRole": {
        "type": "TALK_ROLE_PLAYER",
        "_id": ""
      },
      "talkContentTextMapHash": 2695308938,
      "talkAssetPath": "",
      "talkAssetPathAlter": "",
      "talkAudioName": "",
      "actionBefore": "",
      "actionWhile": "",
      "actionAfter": "",
      "optionIcon": "",
      "OMBMBJIACEP": 3534078748,
      "iconPath": "",
      "uiType": "DIALOG_UI_TRPGSP"
    },
    {
      "id": 140321402,
      "nextDialogs": [
        140321403
      ],
      "talkRole": {
        "type": "TALK_ROLE_NPC",
        "_id": "1077"
      },
      "talkContentTextMapHash": 2095210514,
      "talkRoleNameTextMapHash": 3247520843,
      "talkAssetPath": "",
      "talkAssetPathAlter": "",
      "talkAudioName": "",
      "actionBefore": "",
      "actionWhile": "",
      "actionAfter": "",
      "optionIcon": "",
      "OMBMBJIACEP": 1922854748,
      "iconPath": "ART/UI/Atlas/CutSceneUI/UI_TRPGPic/UI_TRPG_Clorinde",
      "uiType": "DIALOG_UI_TRPGSP"
    },
    {
      "id": 140321403,
      "nextDialogs": [
        140321404
      ],
      "talkRole": {
        "type": "TALK_ROLE_NPC",
        "_id": "1077"
      },
      "talkContentTextMapHash": 188836778,
      "talkRoleNameTextMapHash": 2694508571,
      "talkAssetPath": "",
      "talkAssetPathAlter": "",
      "talkAudioName": "",
      "actionBefore": "",
      "actionWhile": "",
      "actionAfter": "",
      "optionIcon": "",
      "OMBMBJIACEP": 4075238220,
      "iconPath": "ART/UI/Atlas/CutSceneUI/UI_TRPGPic/UI_TRPG_Clorinde",
      "uiType": "DIALOG_UI_TRPGSP"
    },
    {
      "id": 140321404,
      "nextDialogs": [
        140321405
      ],
      "talkRole": {
        "type": "TALK_ROLE_NPC",
        "_id": "1077"
      },
      "talkContentTextMapHash": 3102486194,
      "talkRoleNameTextMapHash": 4274827203,
      "talkAssetPath": "",
      "talkAssetPathAlter": "",
      "talkAudioName": "",
      "actionBefore": "",
      "actionWhile": "",
      "actionAfter": "",
      "optionIcon": "",
      "OMBMBJIACEP": 3599675604,
      "iconPath": "ART/UI/Atlas/CutSceneUI/UI_TRPGPic/UI_TRPG_Clorinde",
      "uiType": "DIALOG_UI_TRPGSP"
    },
    {
      "id": 140321405,
      "nextDialogs": [
        140321406
      ],
      "talkRole": {
        "type": "TALK_ROLE_PLAYER",
        "_id": ""
      },
      "talkContentTextMapHash": 2831969410,
      "talkAssetPath": "",
      "talkAssetPathAlter": "",
      "talkAudioName": "",
      "actionBefore": "",
      "actionWhile": "",
      "actionAfter": "",
      "optionIcon": "",
      "OMBMBJIACEP": 3051326964,
      "iconPath": "ART/UI/Atlas/CutSceneUI/UI_TRPGPic/UI_TRPG_PlayerBoy_2|ART/UI/Atlas/CutSceneUI/UI_TRPGPic/UI_TRPG_PlayerGirl_2",
      "uiType": "DIALOG_UI_TRPGSP"
    },
    {
      "id": 140321406,
      "nextDialogs": [
        140321407
      ],
      "talkRole": {
        "type": "TALK_ROLE_NPC",
        "_id": "1077"
      },
      "talkContentTextMapHash": 555151954,
      "talkRoleNameTextMapHash": 162729459,
      "talkAssetPath": "",
      "talkAssetPathAlter": "",
      "talkAudioName": "",
      "actionBefore": "",
      "actionWhile": "",
      "actionAfter": "",
      "optionIcon": "",
      "OMBMBJIACEP": 1633963964,
      "iconPath": "ART/UI/Atlas/CutSceneUI/UI_TRPGPic/UI_TRPG_Clorinde",
      "uiType": "DIALOG_UI_TRPGSP"
    },
    {
      "id": 140321407,
      "nextDialogs": [
        140321408
      ],
      "talkRole": {
        "type": "TALK_ROLE_NPC",
        "_id": "14096"
      },
      "talkContentTextMapHash": 3178824106,
      "talkAssetPath": "",
      "talkAssetPathAlter": "",
      "talkAudioName": "",
      "actionBefore": "",
      "actionWhile": "",
      "actionAfter": "",
      "optionIcon": "",
      "OMBMBJIACEP": 781647916,
      "iconPath": "",
      "uiType": "DIALOG_UI_TRPGSP"
    },
    {
      "id": 140321408,
      "nextDialogs": [
        140321409
      ],
      "talkRole": {
        "type": "TALK_ROLE_NPC",
        "_id": "1075"
      },
      "talkContentTextMapHash": 3556419682,
      "talkAssetPath": "",
      "talkAssetPathAlter": "",
      "talkAudioName": "",
      "actionBefore": "",
      "actionWhile": "",
      "actionAfter": "",
      "optionIcon": "",
      "OMBMBJIACEP": 473486404,
      "iconPath": "ART/UI/Atlas/CutSceneUI/UI_TRPGPic/UI_TRPG_Navia",
      "uiType": "DIALOG_UI_TRPGSP"
    },
    {
      "id": 140321409,
      "nextDialogs": [
        140321410
      ],
      "talkRole": {
        "type": "TALK_ROLE_NPC",
        "_id": "1077"
      },
      "talkContentTextMapHash": 2278299322,
      "talkRoleNameTextMapHash": 23958699,
      "talkAssetPath": "",
      "talkAssetPathAlter": "",
      "talkAudioName": "",
      "actionBefore": "",
      "actionWhile": "",
      "actionAfter": "",
      "optionIcon": "",
      "OMBMBJIACEP": 4126663884,
      "iconPath": "ART/UI/Atlas/CutSceneUI/UI_TRPGPic/UI_TRPG_Clorinde",
      "uiType": "DIALOG_UI_TRPGSP"
    },
    {
      "id": 140321410,
      "nextDialogs": [
        140321411
      ],
      "talkRole": {
        "type": "TALK_ROLE_NPC",
        "_id": "14096"
      },
      "talkContentTextMapHash": 688959234,
      "talkAssetPath": "",
      "talkAssetPathAlter": "",
      "talkAudioName": "",
      "actionBefore": "",
      "actionWhile": "",
      "actionAfter": "",
      "optionIcon": "",
      "OMBMBJIACEP": 327810188,
      "iconPath": "",
      "uiType": "DIALOG_UI_TRPGSP"
    },
    {
      "id": 140321411,
      "talkRole": {
        "type": "TALK_ROLE_NPC",
        "_id": "14096"
      },
      "talkContentTextMapHash": 1990298930,
      "talkAssetPath": "",
      "talkAssetPathAlter": "",
      "talkAudioName": "",
      "actionBefore": "",
      "actionWhile": "",
      "actionAfter": "",
      "optionIcon": "",
      "OMBMBJIACEP": 2772863524,
      "iconPath": "",
      "uiType": "DIALOG_UI_TRPGSP"
    }
  ]
}