{
  "radius": 80.0,
  "height": 30.0,
  "groupUnits": [
    {
      "furnitureID": 376192,
      "BOIJMPNEPFO": {
        "x": 0.205810546875,
        "z": 0.58660888671875
      }
    },
    {
      "furnitureID": 376193,
      "BOIJMPNEPFO": {
        "x": 5.02276611328125,
        "z": -2.21710205078125
      }
    },
    {
      "furnitureID": 376194,
      "BOIJMPNEPFO": {
        "x": 2.07720947265625,
        "z": -2.3231201171875
      }
    },
    {
      "furnitureID": 376195,
      "BOIJMPNEPFO": {
        "x": -2.08062744140625,
        "z": -2.30169677734375
      }
    },
    {
      "furnitureID": 376196,
      "BOIJMPNEPFO": {
        "x": -5.65447998046875,
        "z": -2.32720947265625
      }
    },
    {
      "furnitureID": 376197,
      "BOIJMPNEPFO": {
        "x": 5.02069091796875,
        "z": -4.81768798828125
      }
    },
    {
      "furnitureID": 376198,
      "BOIJMPNEPFO": {
        "x": 2.0755615234375,
        "z": -4.7078857421875
      }
    },
    {
      "furnitureID": 376199,
      "BOIJMPNEPFO": {
        "x": -2.04132080078125,
        "z": -4.68963623046875
      }
    },
    {
      "furnitureID": 376200,
      "BOIJMPNEPFO": {
        "x": -5.6456298828125,
        "z": -4.63299560546875
      }
    }
  ]
}