{
  "luaDataPath": "",
  "entityBan": "",
  "disableNpcLod": true,
  "startFade": {
    "startFadeOutDuration": 0.0
  },
  "endFade": {
    "startFadeOutDuration": 0.0
  },
  "actors": [
    {
      "alias": "Avatar",
      "visible": true,
      "bornPointName": "",
      "relativePosNpcAlias": "",
      "_bindMovingTargetKey": ""
    },
    {
      "configID": 9003,
      "alias": "9003",
      "visible": true,
      "bornPointName": "",
      "relativePosNpcAlias": "",
      "_bindMovingTargetKey": ""
    }
  ],
  "group": [
    [
      {
        "$type": "EFHODGEJOHJ",
        "type": "CAMERA_FOCUS",
        "duration": 0.10000000149011612,
        "targetNpcAlias": "",
        "PHGBNNGCJKJ": "",
        "NFILMKCFHEB": "",
        "BGPNGHDAECF": ""
      },
      {
        "$type": "MoleMole.Config.ConfigTimeProtectAction",
        "type": "TIME_PROTECT",
        "duration": 0.5
      },
      {
        "$type": "IEKHMHNHENB",
        "type": "STEER_TO",
        "duration": 1.0,
        "aliasList": [
          "9003"
        ],
        "steerType": "TO_LOCAL_AVATAR_ADVANCED",
        "useSteerAnim": true,
        "interruptFreestyle": true,
        "forceSteer": true,
        "targetNpcAlias": "",
        "BHGPHGNFCBF": ""
      },
      {
        "$type": "NPCNMEOCADD",
        "type": "LOOK_AT",
        "aliasList": [
          "9003"
        ],
        "enableHead": true,
        "headTurnTime": 0.30000001192092896,
        "targetNpcAlias": "Avatar",
        "targetNpcLookAtPoint": "",
        "BHGPHGNFCBF": ""
      },
      {
        "$type": "HGDDIPABPCA",
        "type": "LOOK_AT_EYECTRL",
        "aliasList": [
          "9003"
        ],
        "useTargetPos": false,
        "eyeRotateVecLeft": {
          "z": 2.0
        },
        "eyeRotateVecRight": {
          "z": 2.0
        },
        "turnTime": 1.0,
        "targetNpcAlias": "",
        "targetPoint": "Face"
      }
    ],
    [
      {
        "$type": "IEKHMHNHENB",
        "type": "STEER_TO",
        "delayTime": 0.30000001192092896,
        "duration": 1.0,
        "aliasList": [
          "Avatar"
        ],
        "steerType": "TO_TARGET_ADVANCED",
        "useSteerAnim": true,
        "interruptFreestyle": true,
        "forceSteer": true,
        "targetNpcAlias": "9003",
        "BHGPHGNFCBF": ""
      },
      {
        "$type": "NPCNMEOCADD",
        "type": "LOOK_AT",
        "aliasList": [
          "Avatar"
        ],
        "enableHead": true,
        "headTurnTime": 0.30000001192092896,
        "targetNpcAlias": "9003",
        "targetNpcLookAtPoint": "",
        "BHGPHGNFCBF": ""
      },
      {
        "$type": "HGDDIPABPCA",
        "type": "LOOK_AT_EYECTRL",
        "aliasList": [
          "Avatar"
        ],
        "useTargetPos": false,
        "eyeRotateVecLeft": {
          "z": -2.0
        },
        "eyeRotateVecRight": {
          "z": -2.0
        },
        "turnTime": 1.0,
        "targetNpcAlias": "",
        "targetPoint": "Face"
      },
      {
        "$type": "MJFAIFFAGOF",
        "type": "DIALOG",
        "aliasList": [
          "9003"
        ],
        "dialogID": 690030701,
        "protectTime": 0.5
      },
      {
        "$type": "ICHLNKHGCAG",
        "type": "EMO_SYNC",
        "aliasList": [
          "9003"
        ],
        "dataPath": "Cs_Emo_Avatar_Simple_Common_Set/Cs_Emo_Avatar_Talk/Cs_Emo_HomeWorld/Cs_Emo_Avatar_Qin/Cs_Emo_690030701",
        "phonemePath": "",
        "emotionPath": "",
        "mateDataPath": "",
        "matePhonemePath": "",
        "mateEmotionPath": "",
        "dataPathHashList": [
          11817815336739537655,
          12056209764198194843,
          13970730624164433911,
          6737105747909130018
        ],
        "PACNIGOOENN": "",
        "PIBDNPHIAGC": ""
      },
      {
        "$type": "EDCHPJLDKIN",
        "type": "BODY_LANG",
        "aliasList": [
          "9003"
        ],
        "bodyLangParam": 4030,
        "forceDoFreeStyle": true,
        "canDoRepeatFreeStyle": false,
        "eventPatternSuiteKey": ""
      },
      {
        "$type": "EDCHPJLDKIN",
        "type": "BODY_LANG",
        "delayTime": 0.8999999761581421,
        "aliasList": [
          "9003"
        ],
        "bodyLangParam": 1172,
        "forceDoFreeStyle": true,
        "canDoRepeatFreeStyle": false,
        "eventPatternSuiteKey": ""
      }
    ],
    [
      {
        "$type": "MJFAIFFAGOF",
        "type": "DIALOG",
        "aliasList": [
          "9003"
        ],
        "dialogID": 690030702,
        "protectTime": 0.5
      },
      {
        "$type": "EDCHPJLDKIN",
        "type": "BODY_LANG",
        "aliasList": [
          "9003"
        ],
        "bodyLangParam": 1190,
        "forceDoFreeStyle": true,
        "canDoRepeatFreeStyle": false,
        "eventPatternSuiteKey": ""
      },
      {
        "$type": "ICHLNKHGCAG",
        "type": "EMO_SYNC",
        "aliasList": [
          "9003"
        ],
        "dataPath": "Cs_Emo_Avatar_Simple_Common_Set/Cs_Emo_Avatar_Talk/Cs_Emo_HomeWorld/Cs_Emo_Avatar_Qin/Cs_Emo_690030702",
        "phonemePath": "",
        "emotionPath": "",
        "mateDataPath": "",
        "matePhonemePath": "",
        "mateEmotionPath": "",
        "dataPathHashList": [
          4910051971587137062,
          13005144413712278832,
          14680233106826591398,
          18315364698901202527
        ],
        "PACNIGOOENN": "",
        "PIBDNPHIAGC": ""
      },
      {
        "$type": "EDCHPJLDKIN",
        "type": "BODY_LANG",
        "delayTime": 2.724897623062134,
        "aliasList": [
          "9003"
        ],
        "isContinue": true,
        "forceDoFreeStyle": true,
        "canDoRepeatFreeStyle": false,
        "eventPatternSuiteKey": ""
      }
    ],
    [
      {
        "$type": "OBCDECFOOBC",
        "type": "DIALOG_SELECT",
        "delayTime": 0.4000000059604645,
        "aliasList": [
          "Avatar"
        ],
        "dialogIDList": [
          690030704,
          690030707
        ],
        "grpIDList": [
          3240526372,
          3240526373
        ],
        "useGrpId": true
      },
      {
        "$type": "MJFAIFFAGOF",
        "type": "DIALOG",
        "aliasList": [
          "9003"
        ],
        "dialogID": 690030703,
        "protectTime": 0.5
      },
      {
        "$type": "ICHLNKHGCAG",
        "type": "EMO_SYNC",
        "aliasList": [
          "9003"
        ],
        "dataPath": "Cs_Emo_Avatar_Simple_Common_Set/Cs_Emo_Avatar_Talk/Cs_Emo_HomeWorld/Cs_Emo_Avatar_Qin/Cs_Emo_690030703",
        "phonemePath": "",
        "emotionPath": "",
        "mateDataPath": "",
        "matePhonemePath": "",
        "mateEmotionPath": "",
        "dataPathHashList": [
          1542586222703547907,
          10959526236864416744,
          1072596449400527147,
          3962987314576158610
        ],
        "PACNIGOOENN": "",
        "PIBDNPHIAGC": ""
      },
      {
        "$type": "EDCHPJLDKIN",
        "type": "BODY_LANG",
        "delayTime": 1.8069424629211426,
        "aliasList": [
          "9003"
        ],
        "bodyLangParam": 1130,
        "forceDoFreeStyle": true,
        "canDoRepeatFreeStyle": false,
        "eventPatternSuiteKey": ""
      },
      {
        "$type": "EDCHPJLDKIN",
        "type": "BODY_LANG",
        "aliasList": [
          "9003"
        ],
        "isContinue": true,
        "forceDoFreeStyle": true,
        "canDoRepeatFreeStyle": false,
        "eventPatternSuiteKey": ""
      }
    ],
    [
      {
        "$type": "OBCDECFOOBC",
        "type": "DIALOG_SELECT",
        "delayTime": 0.4000000059604645,
        "aliasList": [
          "Avatar"
        ],
        "dialogIDList": [
          690030706
        ],
        "grpIDList": [
          3240526373
        ],
        "useGrpId": true
      },
      {
        "$type": "MJFAIFFAGOF",
        "type": "DIALOG",
        "aliasList": [
          "9003"
        ],
        "dialogID": 690030705,
        "protectTime": 0.5
      },
      {
        "$type": "ICHLNKHGCAG",
        "type": "EMO_SYNC",
        "aliasList": [
          "9003"
        ],
        "dataPath": "Cs_Emo_Avatar_Simple_Common_Set/Cs_Emo_Avatar_Talk/Cs_Emo_HomeWorld/Cs_Emo_Avatar_Qin/Cs_Emo_690030705",
        "phonemePath": "",
        "emotionPath": "",
        "mateDataPath": "",
        "matePhonemePath": "",
        "mateEmotionPath": "",
        "dataPathHashList": [
          6052482956034890645,
          16261151025981000219,
          584601224643225345,
          4401523477960738578
        ],
        "PACNIGOOENN": "",
        "PIBDNPHIAGC": ""
      },
      {
        "$type": "EDCHPJLDKIN",
        "type": "BODY_LANG",
        "aliasList": [
          "9003"
        ],
        "isContinue": true,
        "forceDoFreeStyle": true,
        "canDoRepeatFreeStyle": false,
        "eventPatternSuiteKey": ""
      }
    ],
    [
      {
        "$type": "MJFAIFFAGOF",
        "type": "DIALOG",
        "aliasList": [
          "9003"
        ],
        "dialogID": 690030708,
        "protectTime": 0.5
      },
      {
        "$type": "ICHLNKHGCAG",
        "type": "EMO_SYNC",
        "aliasList": [
          "9003"
        ],
        "dataPath": "Cs_Emo_Avatar_Simple_Common_Set/Cs_Emo_Avatar_Talk/Cs_Emo_HomeWorld/Cs_Emo_Avatar_Qin/Cs_Emo_690030708",
        "phonemePath": "",
        "emotionPath": "",
        "mateDataPath": "",
        "matePhonemePath": "",
        "mateEmotionPath": "",
        "dataPathHashList": [
          5778990478379548196,
          11620225496834996185,
          15137403599627294871,
          1361932245575308140
        ],
        "PACNIGOOENN": "",
        "PIBDNPHIAGC": ""
      },
      {
        "$type": "EDCHPJLDKIN",
        "type": "BODY_LANG",
        "aliasList": [
          "9003"
        ],
        "bodyLangParam": 1171,
        "forceDoFreeStyle": true,
        "canDoRepeatFreeStyle": false,
        "eventPatternSuiteKey": ""
      }
    ],
    [
      {
        "$type": "MJFAIFFAGOF",
        "type": "DIALOG",
        "aliasList": [
          "9003"
        ],
        "dialogID": 690030709,
        "protectTime": 0.5
      },
      {
        "$type": "ICHLNKHGCAG",
        "type": "EMO_SYNC",
        "aliasList": [
          "9003"
        ],
        "dataPath": "Cs_Emo_Avatar_Simple_Common_Set/Cs_Emo_Avatar_Talk/Cs_Emo_HomeWorld/Cs_Emo_Avatar_Qin/Cs_Emo_690030709",
        "phonemePath": "",
        "emotionPath": "",
        "mateDataPath": "",
        "matePhonemePath": "",
        "mateEmotionPath": "",
        "dataPathHashList": [
          4303192918951556828,
          8149458088844412780,
          41151806681318763,
          3287726976752793802
        ],
        "PACNIGOOENN": "",
        "PIBDNPHIAGC": ""
      },
      {
        "$type": "EDCHPJLDKIN",
        "type": "BODY_LANG",
        "delayTime": 3.0,
        "aliasList": [
          "9003"
        ],
        "isContinue": true,
        "forceDoFreeStyle": true,
        "canDoRepeatFreeStyle": false,
        "eventPatternSuiteKey": ""
      },
      {
        "$type": "EDCHPJLDKIN",
        "type": "BODY_LANG",
        "aliasList": [
          "9003"
        ],
        "bodyLangParam": 1130,
        "forceDoFreeStyle": true,
        "canDoRepeatFreeStyle": false,
        "eventPatternSuiteKey": ""
      }
    ],
    [
      {
        "$type": "MoleMole.Config.ConfigTimeProtectAction",
        "type": "TIME_PROTECT",
        "duration": 0.10000000149011612
      },
      {
        "$type": "EDCHPJLDKIN",
        "type": "BODY_LANG",
        "aliasList": [
          "9003"
        ],
        "isContinue": true,
        "forceDoFreeStyle": true,
        "canDoRepeatFreeStyle": false,
        "eventPatternSuiteKey": ""
      }
    ]
  ],
  "groupId": [
    {
      "grpId": 3240526368,
      "nextGrpId": 3240526369
    },
    {
      "index": 1,
      "grpId": 3240526369,
      "nextGrpId": 3240526370
    },
    {
      "index": 2,
      "grpId": 3240526370,
      "nextGrpId": 3240526371
    },
    {
      "index": 3,
      "grpId": 3240526371,
      "nextGrpId": 3240526372
    },
    {
      "index": 4,
      "grpId": 3240526372,
      "nextGrpId": 3240526373
    },
    {
      "index": 5,
      "grpId": 3240526373,
      "nextGrpId": 3240526374
    },
    {
      "index": 6,
      "grpId": 3240526374,
      "nextGrpId": 3240526375
    },
    {
      "index": 7,
      "grpId": 3240526375,
      "nextGrpId": 3240526376
    }
  ],
  "freeStyleDic": {
    "9003": [
      4030,
      1172,
      1190,
      1130,
      1171
    ]
  }
}