{
  "luaDataPath": "",
  "isSimpleTalk": true,
  "entityBan": "",
  "disableNpcLod": true,
  "startFade": {
    "startFadeOutDuration": 0.0
  },
  "endFade": {
    "startFadeOutDuration": 0.0
  },
  "actors": [
    {
      "alias": "Avatar",
      "visible": true,
      "bornPointName": "",
      "relativePosNpcAlias": "",
      "_bindMovingTargetKey": ""
    },
    {
      "configID": 1673,
      "alias": "1673",
      "visible": true,
      "bornPointName": "",
      "relativePosNpcAlias": "",
      "_bindMovingTargetKey": ""
    },
    {
      "configID": 1005,
      "alias": "1005",
      "visible": true,
      "bornPointName": "",
      "useRelativePos": true,
      "relativePos": {
        "x": -0.5,
        "z": 0.5
      },
      "removeActorType": "REMOVE_WITH_DISAPPEAR",
      "relativePosNpcAlias": "",
      "_bindMovingTargetKey": ""
    },
    {
      "configID": 167301,
      "alias": "167301",
      "visible": true,
      "bornPointName": "",
      "relativePosNpcAlias": "",
      "_bindMovingTargetKey": ""
    }
  ],
  "group": [
    [
      {
        "$type": "MoleMole.Config.ConfigTimeProtectAction",
        "type": "TIME_PROTECT",
        "duration": 0.10000000149011612
      },
      {
        "$type": "EFHODGEJOHJ",
        "type": "CAMERA_FOCUS",
        "duration": 0.10000000149011612,
        "targetNpcAlias": "",
        "PHGBNNGCJKJ": "",
        "NFILMKCFHEB": "",
        "BGPNGHDAECF": ""
      }
    ],
    [
      {
        "$type": "IEKHMHNHENB",
        "type": "STEER_TO",
        "duration": 1.0,
        "aliasList": [
          "167301"
        ],
        "steerType": "TO_LOCAL_AVATAR_ADVANCED",
        "useSteerAnim": true,
        "targetNpcAlias": "",
        "BHGPHGNFCBF": ""
      },
      {
        "$type": "MJFAIFFAGOF",
        "type": "DIALOG",
        "aliasList": [
          "167301"
        ],
        "dialogID": 706610701,
        "protectTime": 0.5
      }
    ],
    [
      {
        "$type": "MJFAIFFAGOF",
        "type": "DIALOG",
        "aliasList": [
          "167301"
        ],
        "dialogID": 706610702,
        "protectTime": 0.5
      }
    ],
    [
      {
        "$type": "MJFAIFFAGOF",
        "type": "DIALOG",
        "aliasList": [
          "167301"
        ],
        "dialogID": 706610703,
        "protectTime": 0.5
      }
    ],
    [
      {
        "$type": "MJFAIFFAGOF",
        "type": "DIALOG",
        "aliasList": [
          "167301"
        ],
        "dialogID": 706610704,
        "protectTime": 0.5
      }
    ],
    [
      {
        "$type": "MJFAIFFAGOF",
        "type": "DIALOG",
        "aliasList": [
          "167301"
        ],
        "dialogID": 706610705,
        "protectTime": 0.5
      }
    ],
    [
      {
        "$type": "MJFAIFFAGOF",
        "type": "DIALOG",
        "aliasList": [
          "167301"
        ],
        "dialogID": 706610706,
        "protectTime": 0.5
      }
    ],
    [
      {
        "$type": "MJFAIFFAGOF",
        "type": "DIALOG",
        "aliasList": [
          "167301"
        ],
        "dialogID": 706610707,
        "protectTime": 0.5
      }
    ],
    [
      {
        "$type": "MJFAIFFAGOF",
        "type": "DIALOG",
        "aliasList": [
          "167301"
        ],
        "dialogID": 706610708,
        "protectTime": 0.5
      },
      {
        "$type": "OBCDECFOOBC",
        "type": "DIALOG_SELECT",
        "delayTime": 0.4000000059604645,
        "aliasList": [
          "Avatar"
        ],
        "dialogIDList": [
          706610709
        ],
        "grpIDList": [
          856348761
        ],
        "useGrpId": true
      }
    ],
    [
      {
        "$type": "OBCDECFOOBC",
        "type": "DIALOG_SELECT",
        "delayTime": 0.4000000059604645,
        "aliasList": [
          "Avatar"
        ],
        "dialogIDList": [
          706610710
        ],
        "grpIDList": [
          856348762
        ],
        "useGrpId": true
      }
    ],
    [
      {
        "$type": "MJFAIFFAGOF",
        "type": "DIALOG",
        "aliasList": [
          "1005"
        ],
        "dialogID": 706610711,
        "protectTime": 0.5
      }
    ],
    [
      {
        "$type": "MJFAIFFAGOF",
        "type": "DIALOG",
        "aliasList": [
          "167301"
        ],
        "dialogID": 706610712,
        "protectTime": 0.5
      }
    ],
    [
      {
        "$type": "MJFAIFFAGOF",
        "type": "DIALOG",
        "aliasList": [
          "167301"
        ],
        "dialogID": 706610713,
        "protectTime": 0.5
      }
    ],
    [
      {
        "$type": "MJFAIFFAGOF",
        "type": "DIALOG",
        "aliasList": [
          "167301"
        ],
        "dialogID": 706610714,
        "protectTime": 0.5
      }
    ],
    [
      {
        "$type": "MJFAIFFAGOF",
        "type": "DIALOG",
        "aliasList": [
          "167301"
        ],
        "dialogID": 706610715,
        "protectTime": 0.5
      }
    ],
    [
      {
        "$type": "MJFAIFFAGOF",
        "type": "DIALOG",
        "aliasList": [
          "167301"
        ],
        "dialogID": 706610716,
        "protectTime": 0.5
      }
    ],
    [
      {
        "$type": "IEKHMHNHENB",
        "type": "STEER_TO",
        "duration": 1.0,
        "aliasList": [
          "167301"
        ],
        "steerType": "RETURN",
        "useSteerAnim": true,
        "targetNpcAlias": "",
        "BHGPHGNFCBF": ""
      },
      {
        "$type": "MoleMole.Config.ConfigTimeProtectAction",
        "type": "TIME_PROTECT",
        "duration": 0.10000000149011612
      }
    ]
  ],
  "groupId": [
    {
      "grpId": 3214212791,
      "nextGrpId": 3214212792
    },
    {
      "index": 1,
      "grpId": 3214212792,
      "nextGrpId": 3214212793
    },
    {
      "index": 2,
      "grpId": 3214212793,
      "nextGrpId": 3214212794
    },
    {
      "index": 3,
      "grpId": 3214212794,
      "nextGrpId": 3214212795
    },
    {
      "index": 4,
      "grpId": 3214212795,
      "nextGrpId": 3214212796
    },
    {
      "index": 5,
      "grpId": 3214212796,
      "nextGrpId": 3214212797
    },
    {
      "index": 6,
      "grpId": 3214212797,
      "nextGrpId": 3214212798
    },
    {
      "index": 7,
      "grpId": 3214212798,
      "nextGrpId": 3214212799
    },
    {
      "index": 8,
      "grpId": 3214212799,
      "nextGrpId": 856348761
    },
    {
      "index": 9,
      "grpId": 856348761,
      "nextGrpId": 856348762
    },
    {
      "index": 10,
      "grpId": 856348762,
      "nextGrpId": 856348763
    },
    {
      "index": 11,
      "grpId": 856348763,
      "nextGrpId": 856348764
    },
    {
      "index": 12,
      "grpId": 856348764,
      "nextGrpId": 856348765
    },
    {
      "index": 13,
      "grpId": 856348765,
      "nextGrpId": 856348766
    },
    {
      "index": 14,
      "grpId": 856348766,
      "nextGrpId": 856348767
    },
    {
      "index": 15,
      "grpId": 856348767,
      "nextGrpId": 856348768
    },
    {
      "index": 16,
      "grpId": 856348768,
      "nextGrpId": 856348769
    }
  ],
  "freeStyleDic": {
    "1673": [],
    "167301": []
  }
}