{
  "luaDataPath": "",
  "isSimpleTalk": true,
  "dontUseDefaultFinish": true,
  "startBlackKeepTime": 0.5,
  "entityBan": "",
  "disableNpcLod": true,
  "isAutoBanNpc": true,
  "isBanWidgetPet": true,
  "protectNpcMobileLod": true,
  "startFade": {
    "startFadeInDuration": 0.5,
    "startFadeOutDuration": 0.5
  },
  "endFade": {
    "startFadeOutDuration": 0.0
  },
  "actors": [
    {
      "alias": "Avatar",
      "visible": true,
      "bornPointName": "wq7307733_player",
      "relativePosType": "AVATAR_NEW",
      "relativePosNpcAlias": "",
      "_bindMovingTargetKey": ""
    },
    {
      "configID": 4225,
      "alias": "4225",
      "visible": true,
      "bornPointName": "wq7307733_lnla",
      "removeActorType": "REMOVE_WITH_DISAPPEAR",
      "forceCreateDaily": true,
      "relativePosType": "AVATAR_NEW",
      "relativePosNpcAlias": "",
      "_bindMovingTargetKey": ""
    },
    {
      "configID": 1005,
      "alias": "1005",
      "visible": true,
      "bornPointName": "wq7307733_paim",
      "removeActorType": "REMOVE_WITH_DISAPPEAR",
      "relativePosType": "AVATAR_NEW",
      "relativePosNpcAlias": "",
      "_bindMovingTargetKey": ""
    }
  ],
  "group": [
    [
      {
        "$type": "MoleMole.Config.ConfigTimeProtectAction",
        "type": "TIME_PROTECT",
        "duration": 0.10000000149011612
      }
    ],
    [
      {
        "$type": "MJFAIFFAGOF",
        "type": "DIALOG",
        "aliasList": [
          "4225"
        ],
        "dialogID": 730770901,
        "protectTime": 0.5
      }
    ],
    [
      {
        "$type": "MJFAIFFAGOF",
        "type": "DIALOG",
        "aliasList": [
          "4225"
        ],
        "dialogID": 730770902,
        "protectTime": 0.5
      }
    ],
    [
      {
        "$type": "MJFAIFFAGOF",
        "type": "DIALOG",
        "aliasList": [
          "1005"
        ],
        "dialogID": 730770903,
        "protectTime": 0.5
      }
    ],
    [
      {
        "$type": "MJFAIFFAGOF",
        "type": "DIALOG",
        "aliasList": [
          "4225"
        ],
        "dialogID": 730770904,
        "protectTime": 0.5
      }
    ],
    [
      {
        "$type": "MJFAIFFAGOF",
        "type": "DIALOG",
        "aliasList": [
          "1005"
        ],
        "dialogID": 730770905,
        "protectTime": 0.5
      }
    ],
    [
      {
        "$type": "MJFAIFFAGOF",
        "type": "DIALOG",
        "aliasList": [
          "4225"
        ],
        "dialogID": 730770906,
        "protectTime": 0.5
      }
    ],
    [
      {
        "$type": "MJFAIFFAGOF",
        "type": "DIALOG",
        "aliasList": [
          "4225"
        ],
        "dialogID": 730770907,
        "protectTime": 0.5
      }
    ],
    [
      {
        "$type": "MJFAIFFAGOF",
        "type": "DIALOG",
        "aliasList": [
          "4225"
        ],
        "dialogID": 730770908,
        "protectTime": 0.5
      }
    ],
    [
      {
        "$type": "MJFAIFFAGOF",
        "type": "DIALOG",
        "aliasList": [
          "1005"
        ],
        "dialogID": 730770909,
        "protectTime": 0.5
      },
      {
        "$type": "OBCDECFOOBC",
        "type": "DIALOG_SELECT",
        "delayTime": 0.4000000059604645,
        "aliasList": [
          "Avatar"
        ],
        "dialogIDList": [
          730770910
        ],
        "grpIDList": [
          857831811
        ],
        "useGrpId": true
      }
    ],
    [
      {
        "$type": "MJFAIFFAGOF",
        "type": "DIALOG",
        "aliasList": [
          "4225"
        ],
        "dialogID": 730770911,
        "protectTime": 0.5
      }
    ],
    [
      {
        "$type": "MJFAIFFAGOF",
        "type": "DIALOG",
        "aliasList": [
          "4225"
        ],
        "dialogID": 730770912,
        "protectTime": 0.5
      }
    ],
    [
      {
        "$type": "MJFAIFFAGOF",
        "type": "DIALOG",
        "aliasList": [
          "4225"
        ],
        "dialogID": 730770913,
        "protectTime": 0.5
      }
    ],
    [
      {
        "$type": "MJFAIFFAGOF",
        "type": "DIALOG",
        "aliasList": [
          "1005"
        ],
        "dialogID": 730770914,
        "protectTime": 0.5
      }
    ],
    [
      {
        "$type": "MJFAIFFAGOF",
        "type": "DIALOG",
        "aliasList": [
          "4225"
        ],
        "dialogID": 730770915,
        "protectTime": 0.5
      }
    ],
    [
      {
        "$type": "MJFAIFFAGOF",
        "type": "DIALOG",
        "aliasList": [
          "4225"
        ],
        "dialogID": 730770916,
        "protectTime": 0.5
      }
    ],
    [
      {
        "$type": "MJFAIFFAGOF",
        "type": "DIALOG",
        "aliasList": [
          "1005"
        ],
        "dialogID": 730770917,
        "protectTime": 0.5
      },
      {
        "$type": "OBCDECFOOBC",
        "type": "DIALOG_SELECT",
        "delayTime": 0.4000000059604645,
        "aliasList": [
          "Avatar"
        ],
        "dialogIDList": [
          730770918,
          730770919
        ],
        "grpIDList": [
          857831819,
          857831818
        ],
        "useGrpId": true
      }
    ],
    [
      {
        "$type": "MJFAIFFAGOF",
        "type": "DIALOG",
        "aliasList": [
          "1005"
        ],
        "dialogID": 730770920,
        "protectTime": 0.5
      }
    ],
    [
      {
        "$type": "MJFAIFFAGOF",
        "type": "DIALOG",
        "aliasList": [
          "4225"
        ],
        "dialogID": 730770921,
        "protectTime": 0.5
      }
    ],
    [
      {
        "$type": "MJFAIFFAGOF",
        "type": "DIALOG",
        "aliasList": [
          "1005"
        ],
        "dialogID": 730770922,
        "protectTime": 0.5
      }
    ],
    [
      {
        "$type": "MJFAIFFAGOF",
        "type": "DIALOG",
        "aliasList": [
          "4225"
        ],
        "dialogID": 730770923,
        "protectTime": 0.5
      }
    ],
    [
      {
        "$type": "MJFAIFFAGOF",
        "type": "DIALOG",
        "aliasList": [
          "1005"
        ],
        "dialogID": 730770924,
        "protectTime": 0.5
      }
    ],
    [
      {
        "$type": "MJFAIFFAGOF",
        "type": "DIALOG",
        "aliasList": [
          "4225"
        ],
        "dialogID": 730770925,
        "protectTime": 0.5
      }
    ],
    [
      {
        "$type": "MJFAIFFAGOF",
        "type": "DIALOG",
        "aliasList": [
          "4225"
        ],
        "dialogID": 730770926,
        "protectTime": 0.5
      },
      {
        "$type": "OBCDECFOOBC",
        "type": "DIALOG_SELECT",
        "delayTime": 0.4000000059604645,
        "aliasList": [
          "Avatar"
        ],
        "dialogIDList": [
          730770927
        ],
        "grpIDList": [
          857831846
        ],
        "useGrpId": true
      }
    ],
    [
      {
        "$type": "MJFAIFFAGOF",
        "type": "DIALOG",
        "aliasList": [
          "4225"
        ],
        "dialogID": 730770928,
        "protectTime": 0.5
      }
    ],
    [
      {
        "$type": "MJFAIFFAGOF",
        "type": "DIALOG",
        "aliasList": [
          "4225"
        ],
        "dialogID": 730770929,
        "protectTime": 0.5
      }
    ],
    [
      {
        "$type": "MoleMole.Config.ConfigTimeProtectAction",
        "type": "TIME_PROTECT",
        "duration": 0.10000000149011612
      }
    ]
  ],
  "groupId": [
    {
      "grpId": 1828787310,
      "nextGrpId": 1828787311
    },
    {
      "index": 1,
      "grpId": 1828787311,
      "nextGrpId": 1828787312
    },
    {
      "index": 2,
      "grpId": 1828787312,
      "nextGrpId": 1828787313
    },
    {
      "index": 3,
      "grpId": 1828787313,
      "nextGrpId": 1828787314
    },
    {
      "index": 4,
      "grpId": 1828787314,
      "nextGrpId": 1828787315
    },
    {
      "index": 5,
      "grpId": 1828787315,
      "nextGrpId": 1828787316
    },
    {
      "index": 6,
      "grpId": 1828787316,
      "nextGrpId": 1828787317
    },
    {
      "index": 7,
      "grpId": 1828787317,
      "nextGrpId": 1828787318
    },
    {
      "index": 8,
      "grpId": 1828787318,
      "nextGrpId": 857831810
    },
    {
      "index": 9,
      "grpId": 857831810,
      "nextGrpId": 857831811
    },
    {
      "index": 10,
      "grpId": 857831811,
      "nextGrpId": 857831812
    },
    {
      "index": 11,
      "grpId": 857831812,
      "nextGrpId": 857831813
    },
    {
      "index": 12,
      "grpId": 857831813,
      "nextGrpId": 857831814
    },
    {
      "index": 13,
      "grpId": 857831814,
      "nextGrpId": 857831815
    },
    {
      "index": 14,
      "grpId": 857831815,
      "nextGrpId": 857831816
    },
    {
      "index": 15,
      "grpId": 857831816,
      "nextGrpId": 857831817
    },
    {
      "index": 16,
      "grpId": 857831817,
      "nextGrpId": 857831818
    },
    {
      "index": 17,
      "grpId": 857831818,
      "nextGrpId": 857831819
    },
    {
      "index": 18,
      "grpId": 857831819,
      "nextGrpId": 857831841
    },
    {
      "index": 19,
      "grpId": 857831841,
      "nextGrpId": 857831842
    },
    {
      "index": 20,
      "grpId": 857831842,
      "nextGrpId": 857831843
    },
    {
      "index": 21,
      "grpId": 857831843,
      "nextGrpId": 857831844
    },
    {
      "index": 22,
      "grpId": 857831844,
      "nextGrpId": 857831845
    },
    {
      "index": 23,
      "grpId": 857831845,
      "nextGrpId": 857831846
    },
    {
      "index": 24,
      "grpId": 857831846,
      "nextGrpId": 857831847
    },
    {
      "index": 25,
      "grpId": 857831847,
      "nextGrpId": 857831848
    },
    {
      "index": 26,
      "grpId": 857831848,
      "nextGrpId": 857831849
    }
  ],
  "freeStyleDic": {
    "4225": []
  }
}