{
  "luaDataPath": "",
  "startBlackKeepTime": 1.0,
  "entityBan": "",
  "disableNpcLod": true,
  "protectNpcMobileLod": true,
  "talkFlag": 7,
  "startFade": {
    "startFadeInDuration": 0.5,
    "startFadeOutDuration": 0.5
  },
  "endFade": {
    "startFadeOutDuration": 0.0
  },
  "actors": [
    {
      "alias": "Avatar",
      "visible": true,
      "bornPointName": "Q19012_Player4_Pos",
      "relativePosType": "AVATAR_NEW",
      "relativePosNpcAlias": "",
      "_notDestroyInTalk": true,
      "_bindMovingTargetKey": ""
    }
  ],
  "group": [
    [
      {
        "$type": "MoleMole.Config.ConfigBlackScreenAction",
        "type": "BLACK_SCREEN",
        "actionId": 119,
        "_flag": 2048,
        "blackScreenType": "KEEP_BLACK",
        "durationKeepBlack": 0.5,
        "inteePos": "",
        "textMapID": "",
        "useTextFade": true
      },
      {
        "$type": "EFHODGEJOHJ",
        "type": "CAMERA_MOVE",
        "duration": 3.0,
        "actionId": 128,
        "camPosOffset": {
          "x": -3107.68994140625,
          "y": 250.4499969482422,
          "z": -4483.18994140625
        },
        "camForwardTargetOffset": {
          "x": -3108.466064453125,
          "y": 250.45700073242188,
          "z": -4483.82080078125
        },
        "lerpPattern": 6,
        "cameraBlendType": "EaseInOutCubic",
        "MDKBPBJCMHH": {},
        "needZAxisRotate": true,
        "openCameraDither": false,
        "targetNpcAlias": "",
        "closeTreeLeafDither": true,
        "PHGBNNGCJKJ": "",
        "NFILMKCFHEB": "",
        "BGPNGHDAECF": ""
      },
      {
        "$type": "MoleMole.Config.ConfigVisibleInterAction",
        "type": "VISIBLE",
        "aliasList": [
          "Avatar"
        ],
        "actionId": 109,
        "_extraParam": ""
      },
      {
        "$type": "MoleMole.Config.ConfigCameraDOFAction",
        "type": "CAMERA_DOF",
        "delayTime": 0.30000001192092896,
        "actionId": 106,
        "focusDistance": 6.0,
        "focusRange": 6.0,
        "quality": 3
      }
    ],
    [
      {
        "$type": "EFHODGEJOHJ",
        "type": "CAMERA_MOVE",
        "duration": 0.10000000149011612,
        "actionId": 114,
        "camPosOffset": {
          "x": -3107.68994140625,
          "y": 250.4499969482422,
          "z": -4483.18994140625
        },
        "camForwardTargetOffset": {
          "x": -3108.466064453125,
          "y": 250.45700073242188,
          "z": -4483.82080078125
        },
        "lerpPattern": 6,
        "cameraBlendType": "EaseInOutCubic",
        "MDKBPBJCMHH": {},
        "needZAxisRotate": true,
        "openCameraDither": false,
        "targetNpcAlias": "",
        "closeTreeLeafDither": true,
        "PHGBNNGCJKJ": "",
        "NFILMKCFHEB": "",
        "BGPNGHDAECF": ""
      },
      {
        "$type": "MoleMole.Config.ConfigBlackScreenAction",
        "type": "BLACK_SCREEN",
        "actionId": 120,
        "_flag": 2048,
        "blackScreenType": "FROM_BLACK",
        "durationFromBlack": 0.5,
        "inteePos": "",
        "textMapID": "",
        "useTextFade": true
      },
      {
        "$type": "MJFAIFFAGOF",
        "type": "DIALOG",
        "aliasList": [
          "Avatar"
        ],
        "actionId": 110,
        "dialogID": 190120201,
        "protectTime": 0.5
      },
      {
        "$type": "EFHODGEJOHJ",
        "type": "CAMERA_MOVE",
        "delayTime": 0.10000000149011612,
        "duration": 20.0,
        "actionId": 129,
        "camPosOffset": {
          "x": -3106.64208984375,
          "y": 250.38600158691406,
          "z": -4483.5498046875
        },
        "camForwardTargetOffset": {
          "x": -3106.681884765625,
          "y": 250.44000244140625,
          "z": -4484.546875
        },
        "cameraBlendType": "EaseOutQuart",
        "MDKBPBJCMHH": {},
        "needZAxisRotate": true,
        "rotateAngle": 4.36299991607666,
        "openCameraDither": false,
        "targetNpcAlias": "",
        "closeTreeLeafDither": true,
        "PHGBNNGCJKJ": "",
        "NFILMKCFHEB": "",
        "BGPNGHDAECF": ""
      }
    ],
    [
      {
        "$type": "EFHODGEJOHJ",
        "type": "CAMERA_MOVE",
        "duration": 10.0,
        "actionId": 122,
        "camPosOffset": {
          "x": -3105.7939453125,
          "y": 250.35899353027344,
          "z": -4484.47021484375
        },
        "camForwardTargetOffset": {
          "x": -3105.69189453125,
          "y": 250.343994140625,
          "z": -4485.46484375
        },
        "cameraBlendType": "EaseOutQuad",
        "MDKBPBJCMHH": {},
        "needZAxisRotate": true,
        "rotateAngle": 4.763999938964844,
        "openCameraDither": false,
        "targetNpcAlias": "",
        "closeTreeLeafDither": true,
        "PHGBNNGCJKJ": "",
        "NFILMKCFHEB": "",
        "BGPNGHDAECF": ""
      },
      {
        "$type": "MJFAIFFAGOF",
        "type": "DIALOG",
        "aliasList": [
          "Avatar"
        ],
        "actionId": 111,
        "dialogID": 190120202,
        "protectTime": 0.5
      }
    ],
    [
      {
        "$type": "EFHODGEJOHJ",
        "type": "CAMERA_MOVE",
        "duration": 10.0,
        "actionId": 123,
        "camPosOffset": {
          "x": -3105.81103515625,
          "y": 250.41799926757812,
          "z": -4484.4091796875
        },
        "camForwardTargetOffset": {
          "x": -3104.990966796875,
          "y": 250.2100067138672,
          "z": -4484.94287109375
        },
        "cameraBlendType": "EaseOutQuad",
        "MDKBPBJCMHH": {},
        "needZAxisRotate": true,
        "openCameraDither": false,
        "targetNpcAlias": "",
        "closeTreeLeafDither": true,
        "PHGBNNGCJKJ": "",
        "NFILMKCFHEB": "",
        "BGPNGHDAECF": ""
      },
      {
        "$type": "MJFAIFFAGOF",
        "type": "DIALOG",
        "aliasList": [
          "Avatar"
        ],
        "actionId": 112,
        "dialogID": 190120203,
        "protectTime": 0.5
      }
    ],
    [
      {
        "$type": "MoleMole.Config.ConfigSimpleBlackScreenAction",
        "type": "SIMPLE_BLACK_SCREEN",
        "actionId": 107,
        "durationToBlack": 0.5,
        "durationKeepBlack": 1.0,
        "durationFromBlack": 0.5,
        "textMapID": ""
      },
      {
        "$type": "MJFAIFFAGOF",
        "type": "DIALOG_CLEAR",
        "actionId": 108
      },
      {
        "$type": "MoleMole.Config.ConfigTimeProtectAction",
        "type": "TIME_PROTECT",
        "duration": 0.699999988079071,
        "actionId": 125
      },
      {
        "$type": "EFHODGEJOHJ",
        "type": "CAMERA_MOVE",
        "delayTime": 0.6000000238418579,
        "duration": 0.10000000149011612,
        "actionId": 126,
        "camPosOffset": {
          "x": -3107.52392578125,
          "y": 250.53700256347656,
          "z": -4482.3251953125
        },
        "camForwardTargetOffset": {
          "x": -3108.031982421875,
          "y": 250.43299865722656,
          "z": -4483.18017578125
        },
        "lerpPattern": 6,
        "cameraBlendType": "EaseInOutCubic",
        "MDKBPBJCMHH": {},
        "openCameraDither": false,
        "targetNpcAlias": "",
        "closeTreeLeafDither": true,
        "PHGBNNGCJKJ": "",
        "NFILMKCFHEB": "",
        "BGPNGHDAECF": ""
      },
      {
        "$type": "MoleMole.Config.ConfigVisibleInterAction",
        "type": "VISIBLE",
        "delayTime": 0.6000000238418579,
        "aliasList": [
          "Avatar"
        ],
        "actionId": 113,
        "isVisible": true,
        "_extraParam": ""
      },
      {
        "$type": "MoleMole.Config.ConfigTeleportToAction",
        "type": "TELEPORT_TO",
        "delayTime": 0.7409999966621399,
        "aliasList": [
          "Avatar"
        ],
        "actionId": 124,
        "position": {
          "x": -3109.986083984375,
          "y": 248.88099670410156,
          "z": -4486.416015625
        },
        "forward": {
          "x": -3.382999897003174,
          "z": -5.651000022888184
        },
        "_posBindMovingTargetKey": "",
        "_forwardBindMovingTargetKey": ""
      }
    ],
    [
      {
        "$type": "MoleMole.Config.ConfigCameraDOFAction",
        "type": "CAMERA_DOF",
        "actionId": 179,
        "_actionTagList": [
          "TalkSkip"
        ],
        "focusDistance": 6.0,
        "focusRange": 6.0,
        "quality": 3
      },
      {
        "$type": "MoleMole.Config.ConfigBlackScreenAction",
        "type": "BLACK_SCREEN",
        "duration": 0.10000000149011612,
        "actionId": 180,
        "_flag": 2048,
        "_actionTagList": [
          "TalkSkip"
        ],
        "blackScreenType": "FROM_BLACK",
        "durationToBlack": 0.10000000149011612,
        "durationKeepBlack": 0.10000000149011612,
        "durationFromBlack": 0.10000000149011612,
        "inteePos": "",
        "textMapID": "",
        "showClickBtnDelayTime": 0.5,
        "waitClickBtnTipTime": 0.5
      },
      {
        "$type": "MoleMole.Config.ConfigTeleportToAction",
        "type": "TELEPORT_TO",
        "aliasList": [
          "Avatar"
        ],
        "actionId": 176,
        "_actionTagList": [
          "TalkSkip"
        ],
        "position": {
          "x": -3109.986083984375,
          "y": 248.88099670410156,
          "z": -4486.416015625
        },
        "forward": {
          "x": -3.382999897003174,
          "z": -5.651000022888184
        },
        "openLongDisTeleport": true,
        "syncForward": true,
        "_posBindMovingTargetKey": "",
        "_forwardBindMovingTargetKey": ""
      },
      {
        "$type": "MJFAIFFAGOF",
        "type": "DIALOG",
        "aliasList": [
          "Avatar"
        ],
        "actionId": 178,
        "_actionTagList": [
          "TalkSkip"
        ],
        "dialogID": 190120203,
        "protectTime": 0.5
      },
      {
        "$type": "MoleMole.Config.ConfigVisibleInterAction",
        "type": "VISIBLE",
        "aliasList": [
          "Avatar"
        ],
        "actionId": 181,
        "_actionTagList": [
          "TalkSkip"
        ],
        "isVisible": true,
        "_extraParam": ""
      },
      {
        "$type": "EFHODGEJOHJ",
        "type": "CAMERA_MOVE",
        "delayTime": 0.5,
        "duration": 0.10000000149011612,
        "actionId": 177,
        "_actionTagList": [
          "TalkSkip"
        ],
        "camPosOffset": {
          "x": -3107.52392578125,
          "y": 250.53700256347656,
          "z": -4482.3251953125
        },
        "camForwardTargetOffset": {
          "x": -3108.031982421875,
          "y": 250.43299865722656,
          "z": -4483.18017578125
        },
        "lerpPattern": 6,
        "cameraBlendType": "EaseInOutCubic",
        "MDKBPBJCMHH": {},
        "openCameraDither": false,
        "targetNpcAlias": "",
        "closeTreeLeafDither": true,
        "PHGBNNGCJKJ": "",
        "NFILMKCFHEB": "",
        "BGPNGHDAECF": ""
      },
      {
        "$type": "MoleMole.Config.ConfigSimpleBlackScreenAction",
        "type": "SIMPLE_BLACK_SCREEN",
        "delayTime": 0.6000000238418579,
        "actionId": 182,
        "_actionTagList": [
          "TalkSkip"
        ],
        "durationToBlack": 0.5,
        "durationKeepBlack": 1.0,
        "durationFromBlack": 0.5,
        "textMapID": ""
      }
    ]
  ],
  "groupId": [
    {
      "grpId": 3142224726,
      "nextGrpId": 3142224727,
      "_noCircleNextGrpId": 3142224727
    },
    {
      "index": 1,
      "grpId": 3142224727,
      "nextGrpId": 3142224728,
      "_noCircleNextGrpId": 3142224728
    },
    {
      "index": 2,
      "grpId": 3142224728,
      "nextGrpId": 3142224729,
      "_noCircleNextGrpId": 3142224729
    },
    {
      "index": 3,
      "grpId": 3142224729,
      "nextGrpId": 3142224730,
      "_noCircleNextGrpId": 3142224730
    },
    {
      "index": 4,
      "grpId": 3142224730,
      "nextGrpId": 3142224731,
      "_noCircleNextGrpId": 3142224731
    },
    {
      "index": 5,
      "grpId": 3142224731,
      "nextGrpId": 3142224732,
      "_noCircleNextGrpId": 3142224732
    }
  ],
  "GOCHGPDDIEK": {
    "GLDEKKOPHPB": "",
    "MONBEELCJPA": ""
  },
  "IDMJJGEMEPG": 3142224731,
  "DJNHOINPCOI": {
    "BMLEPIJCLCL": ""
  }
}