{
  "luaDataPath": "",
  "isSimpleTalk": true,
  "entityBan": "",
  "disableNpcLod": true,
  "protectNpcMobileLod": true,
  "startFade": {
    "startFadeOutDuration": 0.0
  },
  "endFade": {
    "startFadeOutDuration": 0.0
  },
  "actors": [
    {
      "alias": "Avatar",
      "visible": true,
      "bornPointName": "",
      "relativePosType": "AVATAR_NEW",
      "relativePosNpcAlias": "",
      "_bindMovingTargetKey": ""
    },
    {
      "configID": 4233,
      "alias": "4233",
      "visible": true,
      "bornPointName": "",
      "forceCreateDaily": true,
      "relativePosType": "AVATAR_NEW",
      "relativePosNpcAlias": "",
      "_bindMovingTargetKey": ""
    }
  ],
  "group": [
    [
      {
        "$type": "EFHODGEJOHJ",
        "type": "CAMERA_FOCUS",
        "duration": 0.10000000149011612,
        "actionId": 103,
        "targetNpcAlias": "",
        "PHGBNNGCJKJ": "",
        "NFILMKCFHEB": "",
        "BGPNGHDAECF": ""
      },
      {
        "$type": "MoleMole.Config.ConfigTimeProtectAction",
        "type": "TIME_PROTECT",
        "duration": 0.10000000149011612,
        "actionId": 104
      },
      {
        "$type": "IEKHMHNHENB",
        "type": "STEER_TO",
        "delayTime": 0.30000001192092896,
        "duration": 0.800000011920929,
        "aliasList": [
          "Avatar"
        ],
        "actionId": 159,
        "steerType": "TO_TARGET_ADVANCED",
        "useSteerAnim": true,
        "interruptFreestyle": true,
        "forceSteer": true,
        "targetNpcAlias": "4233",
        "BHGPHGNFCBF": ""
      },
      {
        "$type": "IEKHMHNHENB",
        "type": "STEER_TO",
        "delayTime": 0.30000001192092896,
        "duration": 0.800000011920929,
        "aliasList": [
          "4233"
        ],
        "actionId": 160,
        "steerType": "TO_LOCAL_AVATAR_ADVANCED",
        "useSteerAnim": true,
        "interruptFreestyle": true,
        "forceSteer": true,
        "targetNpcAlias": "",
        "BHGPHGNFCBF": ""
      }
    ],
    [
      {
        "$type": "MJFAIFFAGOF",
        "type": "DIALOG",
        "aliasList": [
          "4233"
        ],
        "actionId": 107,
        "dialogID": 732060601,
        "protectTime": 0.5
      },
      {
        "$type": "OBCDECFOOBC",
        "type": "DIALOG_SELECT",
        "delayTime": 0.4000000059604645,
        "aliasList": [
          "Avatar"
        ],
        "actionId": 108,
        "dialogIDList": [
          732060602,
          732060609
        ],
        "grpIDList": [
          21117997,
          21118003
        ],
        "useGrpId": true
      }
    ],
    [
      {
        "$type": "MJFAIFFAGOF",
        "type": "DIALOG",
        "aliasList": [
          "4233"
        ],
        "actionId": 110,
        "dialogID": 732060603,
        "protectTime": 0.5
      }
    ],
    [
      {
        "$type": "MJFAIFFAGOF",
        "type": "DIALOG",
        "aliasList": [
          "4233"
        ],
        "actionId": 112,
        "dialogID": 732060604,
        "protectTime": 0.5
      }
    ],
    [
      {
        "$type": "MJFAIFFAGOF",
        "type": "DIALOG",
        "aliasList": [
          "4233"
        ],
        "actionId": 114,
        "dialogID": 732060605,
        "protectTime": 0.5
      }
    ],
    [
      {
        "$type": "MJFAIFFAGOF",
        "type": "DIALOG",
        "aliasList": [
          "4233"
        ],
        "actionId": 116,
        "dialogID": 732060606,
        "protectTime": 0.5
      }
    ],
    [
      {
        "$type": "MJFAIFFAGOF",
        "type": "DIALOG",
        "aliasList": [
          "4233"
        ],
        "actionId": 118,
        "dialogID": 732060607,
        "protectTime": 0.5
      }
    ],
    [
      {
        "$type": "MJFAIFFAGOF",
        "type": "DIALOG",
        "aliasList": [
          "4233"
        ],
        "actionId": 120,
        "dialogID": 732060608,
        "protectTime": 0.5
      },
      {
        "$type": "OBCDECFOOBC",
        "type": "DIALOG_SELECT",
        "delayTime": 0.4000000059604645,
        "aliasList": [
          "Avatar"
        ],
        "actionId": 121,
        "dialogIDList": [
          732060621
        ],
        "grpIDList": [
          654657924
        ],
        "useGrpId": true
      }
    ],
    [
      {
        "$type": "MJFAIFFAGOF",
        "type": "DIALOG",
        "aliasList": [
          "4233"
        ],
        "actionId": 123,
        "dialogID": 732060610,
        "protectTime": 0.5
      }
    ],
    [
      {
        "$type": "MJFAIFFAGOF",
        "type": "DIALOG",
        "aliasList": [
          "4233"
        ],
        "actionId": 125,
        "dialogID": 732060611,
        "protectTime": 0.5
      }
    ],
    [
      {
        "$type": "MJFAIFFAGOF",
        "type": "DIALOG",
        "aliasList": [
          "4233"
        ],
        "actionId": 127,
        "dialogID": 732060612,
        "protectTime": 0.5
      }
    ],
    [
      {
        "$type": "MJFAIFFAGOF",
        "type": "DIALOG",
        "aliasList": [
          "4233"
        ],
        "actionId": 129,
        "dialogID": 732060613,
        "protectTime": 0.5
      }
    ],
    [
      {
        "$type": "MJFAIFFAGOF",
        "type": "DIALOG",
        "aliasList": [
          "4233"
        ],
        "actionId": 131,
        "dialogID": 732060614,
        "protectTime": 0.5
      }
    ],
    [
      {
        "$type": "MJFAIFFAGOF",
        "type": "DIALOG",
        "aliasList": [
          "4233"
        ],
        "actionId": 133,
        "dialogID": 732060615,
        "protectTime": 0.5
      }
    ],
    [
      {
        "$type": "MJFAIFFAGOF",
        "type": "DIALOG",
        "aliasList": [
          "4233"
        ],
        "actionId": 135,
        "dialogID": 732060616,
        "protectTime": 0.5
      }
    ],
    [
      {
        "$type": "MJFAIFFAGOF",
        "type": "DIALOG",
        "aliasList": [
          "4233"
        ],
        "actionId": 137,
        "dialogID": 732060617,
        "protectTime": 0.5
      }
    ],
    [
      {
        "$type": "MJFAIFFAGOF",
        "type": "DIALOG",
        "aliasList": [
          "4233"
        ],
        "actionId": 139,
        "dialogID": 732060618,
        "protectTime": 0.5
      }
    ],
    [
      {
        "$type": "MJFAIFFAGOF",
        "type": "DIALOG",
        "aliasList": [
          "4233"
        ],
        "actionId": 141,
        "dialogID": 732060619,
        "protectTime": 0.5
      }
    ],
    [
      {
        "$type": "MJFAIFFAGOF",
        "type": "DIALOG",
        "aliasList": [
          "4233"
        ],
        "actionId": 143,
        "dialogID": 732060620,
        "protectTime": 0.5
      },
      {
        "$type": "OBCDECFOOBC",
        "type": "DIALOG_SELECT",
        "delayTime": 0.4000000059604645,
        "aliasList": [
          "Avatar"
        ],
        "actionId": 144,
        "dialogIDList": [
          732060621
        ],
        "grpIDList": [
          654657924
        ],
        "useGrpId": true
      }
    ],
    [
      {
        "$type": "MJFAIFFAGOF",
        "type": "DIALOG",
        "aliasList": [
          "4233"
        ],
        "actionId": 146,
        "dialogID": 732060622,
        "protectTime": 0.5
      }
    ],
    [
      {
        "$type": "MJFAIFFAGOF",
        "type": "DIALOG",
        "aliasList": [
          "4233"
        ],
        "actionId": 148,
        "dialogID": 732060623,
        "protectTime": 0.5
      }
    ],
    [
      {
        "$type": "MJFAIFFAGOF",
        "type": "DIALOG",
        "aliasList": [
          "4233"
        ],
        "actionId": 150,
        "dialogID": 732060624,
        "protectTime": 0.5
      },
      {
        "$type": "OBCDECFOOBC",
        "type": "DIALOG_SELECT",
        "delayTime": 0.4000000059604645,
        "aliasList": [
          "Avatar"
        ],
        "actionId": 151,
        "dialogIDList": [
          732060625
        ],
        "grpIDList": [
          654657927
        ],
        "useGrpId": true
      }
    ],
    [
      {
        "$type": "MJFAIFFAGOF",
        "type": "DIALOG",
        "aliasList": [
          "4233"
        ],
        "actionId": 153,
        "dialogID": 732060626,
        "protectTime": 0.5
      }
    ],
    [
      {
        "$type": "MJFAIFFAGOF",
        "type": "DIALOG",
        "aliasList": [
          "4233"
        ],
        "actionId": 155,
        "dialogID": 732060627,
        "protectTime": 0.5
      },
      {
        "$type": "OBCDECFOOBC",
        "type": "DIALOG_SELECT",
        "delayTime": 0.4000000059604645,
        "aliasList": [
          "Avatar"
        ],
        "actionId": 156,
        "dialogIDList": [
          732060628
        ],
        "grpIDList": [
          654657929
        ],
        "useGrpId": true
      }
    ],
    [
      {
        "$type": "MJFAIFFAGOF",
        "type": "DIALOG",
        "aliasList": [
          "4233"
        ],
        "actionId": 158,
        "dialogID": 732060629,
        "protectTime": 0.5
      }
    ],
    [
      {
        "$type": "MoleMole.Config.ConfigTimeProtectAction",
        "type": "TIME_PROTECT",
        "duration": 0.10000000149011612,
        "actionId": 105
      },
      {
        "$type": "IEKHMHNHENB",
        "type": "STEER_TO",
        "delayTime": 0.375,
        "duration": 0.800000011920929,
        "aliasList": [
          "4233"
        ],
        "actionId": 161,
        "steerType": "RETURN",
        "useSteerAnim": true,
        "interruptFreestyle": true,
        "forceSteer": true,
        "targetNpcAlias": "",
        "BHGPHGNFCBF": ""
      }
    ]
  ],
  "groupId": [
    {
      "grpId": 21117995,
      "nextGrpId": 21117996
    },
    {
      "index": 1,
      "grpId": 21117996,
      "nextGrpId": 21117997
    },
    {
      "index": 2,
      "grpId": 21117997,
      "nextGrpId": 21117998
    },
    {
      "index": 3,
      "grpId": 21117998,
      "nextGrpId": 21117999
    },
    {
      "index": 4,
      "grpId": 21117999,
      "nextGrpId": 21118000
    },
    {
      "index": 5,
      "grpId": 21118000,
      "nextGrpId": 21118001
    },
    {
      "index": 6,
      "grpId": 21118001,
      "nextGrpId": 21118002
    },
    {
      "index": 7,
      "grpId": 21118002,
      "nextGrpId": 21118003
    },
    {
      "index": 8,
      "grpId": 21118003,
      "nextGrpId": 654657893
    },
    {
      "index": 9,
      "grpId": 654657893,
      "nextGrpId": 654657894
    },
    {
      "index": 10,
      "grpId": 654657894,
      "nextGrpId": 654657895
    },
    {
      "index": 11,
      "grpId": 654657895,
      "nextGrpId": 654657896
    },
    {
      "index": 12,
      "grpId": 654657896,
      "nextGrpId": 654657897
    },
    {
      "index": 13,
      "grpId": 654657897,
      "nextGrpId": 654657898
    },
    {
      "index": 14,
      "grpId": 654657898,
      "nextGrpId": 654657899
    },
    {
      "index": 15,
      "grpId": 654657899,
      "nextGrpId": 654657900
    },
    {
      "index": 16,
      "grpId": 654657900,
      "nextGrpId": 654657901
    },
    {
      "index": 17,
      "grpId": 654657901,
      "nextGrpId": 654657902
    },
    {
      "index": 18,
      "grpId": 654657902,
      "nextGrpId": 654657924
    },
    {
      "index": 19,
      "grpId": 654657924,
      "nextGrpId": 654657925
    },
    {
      "index": 20,
      "grpId": 654657925,
      "nextGrpId": 654657926
    },
    {
      "index": 21,
      "grpId": 654657926,
      "nextGrpId": 654657927
    },
    {
      "index": 22,
      "grpId": 654657927,
      "nextGrpId": 654657928
    },
    {
      "index": 23,
      "grpId": 654657928,
      "nextGrpId": 654657929
    },
    {
      "index": 24,
      "grpId": 654657929,
      "nextGrpId": 654657930
    },
    {
      "index": 25,
      "grpId": 654657930,
      "nextGrpId": 654657931
    }
  ],
  "freeStyleDic": {
    "4233": []
  }
}