{
  "sceneId": 51015,
  "actionPoints": [
    {
      "localId": 1,
      "KPGKDHAFHFE": "PacManBlinkPoint",
      "pos": {
        "x": -97.6720962524414,
        "y": -9.3619384765625,
        "z": -56.463829040527344
      },
      "capacity": 1
    },
    {
      "localId": 2,
      "KPGKDHAFHFE": "PacManBlinkPoint",
      "pos": {
        "x": -118.40080261230469,
        "y": -9.3619384765625,
        "z": -57.49911117553711
      },
      "capacity": 1
    },
    {
      "localId": 3,
      "KPGKDHAFHFE": "PacManBlinkPoint",
      "pos": {
        "x": -116.19139862060547,
        "y": -9.3619384765625,
        "z": -77.28192138671875
      },
      "capacity": 1
    },
    {
      "localId": 4,
      "KPGKDHAFHFE": "PacManMeleeChargePoint",
      "pos": {
        "x": -132.32159423828125,
        "y": -9.361939430236816,
        "z": -52.339111328125
      },
      "capacity": 1
    },
    {
      "localId": 5,
      "KPGKDHAFHFE": "PacManMeleeChargePoint",
      "pos": {
        "x": -125.18109893798828,
        "y": -9.361939430236816,
        "z": -52.466339111328125
      },
      "capacity": 1
    },
    {
      "localId": 6,
      "KPGKDHAFHFE": "PacManMeleeChargePoint",
      "pos": {
        "x": -118.4540023803711,
        "y": -9.361939430236816,
        "z": -47.33523178100586
      },
      "capacity": 1
    },
    {
      "localId": 7,
      "KPGKDHAFHFE": "PacManMeleeChargePoint",
      "pos": {
        "x": -100.6281967163086,
        "y": -9.361939430236816,
        "z": -46.80158996582031
      },
      "capacity": 1
    },
    {
      "localId": 8,
      "KPGKDHAFHFE": "PacManMeleeChargePoint",
      "pos": {
        "x": -108.46160125732422,
        "y": -9.361939430236816,
        "z": -51.019920349121094
      },
      "capacity": 1
    },
    {
      "localId": 9,
      "KPGKDHAFHFE": "PacManMeleeChargePoint",
      "pos": {
        "x": -100.70140075683594,
        "y": -9.361939430236816,
        "z": -51.84469985961914
      },
      "capacity": 1
    },
    {
      "localId": 10,
      "KPGKDHAFHFE": "PacManMeleeChargePoint",
      "pos": {
        "x": -108.16799926757812,
        "y": -9.3619384765625,
        "z": -56.7765007019043
      },
      "capacity": 1
    },
    {
      "localId": 11,
      "KPGKDHAFHFE": "PacManMeleeChargePoint",
      "pos": {
        "x": -98.43189239501953,
        "y": -9.3619384765625,
        "z": -57.18278121948242
      },
      "capacity": 1
    },
    {
      "localId": 12,
      "KPGKDHAFHFE": "PacManMeleeChargePoint",
      "pos": {
        "x": -130.09010314941406,
        "y": -9.3619384765625,
        "z": -62.613399505615234
      },
      "capacity": 1
    },
    {
      "localId": 13,
      "KPGKDHAFHFE": "PacManMeleeChargePoint",
      "pos": {
        "x": -119.41190338134766,
        "y": -9.3619384765625,
        "z": -62.2722282409668
      },
      "capacity": 1
    },
    {
      "localId": 14,
      "KPGKDHAFHFE": "PacManMeleeChargePoint",
      "pos": {
        "x": -110.08190155029297,
        "y": -9.3619384765625,
        "z": -66.15804290771484
      },
      "capacity": 1
    },
    {
      "localId": 15,
      "KPGKDHAFHFE": "PacManMeleeChargePoint",
      "pos": {
        "x": -127.6187973022461,
        "y": -9.3619384765625,
        "z": -68.31963348388672
      },
      "capacity": 1
    },
    {
      "localId": 16,
      "KPGKDHAFHFE": "PacManMeleeChargePoint",
      "pos": {
        "x": -116.72480010986328,
        "y": -9.3619384765625,
        "z": -68.49677276611328
      },
      "capacity": 1
    },
    {
      "localId": 17,
      "KPGKDHAFHFE": "PacManMeleeChargePoint",
      "pos": {
        "x": -106.51519775390625,
        "y": -9.3619384765625,
        "z": -77.0958480834961
      },
      "capacity": 1
    },
    {
      "localId": 18,
      "KPGKDHAFHFE": "PacManMeleeChargePoint",
      "pos": {
        "x": -98.83321380615234,
        "y": -9.3619384765625,
        "z": -64.20564270019531
      },
      "capacity": 1
    },
    {
      "localId": 19,
      "KPGKDHAFHFE": "PacManMeleeChargePoint",
      "pos": {
        "x": -122.92649841308594,
        "y": -9.3619384765625,
        "z": -68.33679962158203
      },
      "capacity": 1
    }
  ]
}