{
  "sceneId": 50053,
  "actionPoints": [
    {
      "localId": 1,
      "KPGKDHAFHFE": "AureaePoint",
      "pos": {
        "x": 0.02282343991100788,
        "y": 0.035619258880615234,
        "z": 3.5
      }
    },
    {
      "localId": 2,
      "KPGKDHAFHFE": "AureaePoint",
      "pos": {
        "x": -0.0029105539433658123,
        "y": 0.03549325093626976,
        "z": 13.5
      },
      "rot": {
        "y": 180.0
      }
    },
    {
      "localId": 3,
      "KPGKDHAFHFE": "AureaePoint",
      "pos": {
        "x": -7.5,
        "z": 3.5
      },
      "rot": {
        "y": 90.0
      }
    },
    {
      "localId": 4,
      "KPGKDHAFHFE": "AureaePoint",
      "pos": {
        "z": -4.0
      }
    },
    {
      "localId": 5,
      "KPGKDHAFHFE": "AureaePoint",
      "pos": {
        "x": 7.5,
        "z": 3.5
      },
      "rot": {
        "y": 270.0
      }
    }
  ]
}