{
  "sceneId": 20034,
  "actionPoints": [
    {
      "localId": 1,
      "KPGKDHAFHFE": "AureaePoint",
      "pos": {
        "x": -2.974773906316841e-06,
        "y": -18.421039581298828,
        "z": 1.0432030421725358e-06
      }
    },
    {
      "localId": 2,
      "KPGKDHAFHFE": "AureaePoint",
      "pos": {
        "x": 2.980231954552437e-07,
        "y": -18.420690536499023,
        "z": 3.9999990463256836
      },
      "rot": {
        "y": 180.0
      }
    },
    {
      "localId": 3,
      "KPGKDHAFHFE": "AureaePoint",
      "pos": {
        "x": 2.827997922897339,
        "y": -18.420690536499023,
        "z": 2.827996015548706
      },
      "rot": {
        "y": 225.0
      }
    },
    {
      "localId": 4,
      "KPGKDHAFHFE": "AureaePoint",
      "pos": {
        "x": 4.0,
        "y": -18.420690536499023,
        "z": 1.1437989542173455e-06
      },
      "rot": {
        "y": 270.0
      }
    },
    {
      "localId": 5,
      "KPGKDHAFHFE": "AureaePoint",
      "pos": {
        "x": 2.827997922897339,
        "y": -18.420690536499023,
        "z": -2.8279991149902344
      },
      "rot": {
        "y": 315.0
      }
    },
    {
      "localId": 6,
      "KPGKDHAFHFE": "AureaePoint",
      "pos": {
        "x": -2.347978949046592e-07,
        "y": -18.420690536499023,
        "z": -4.0
      }
    },
    {
      "localId": 7,
      "KPGKDHAFHFE": "AureaePoint",
      "pos": {
        "x": -2.8279991149902344,
        "y": -18.420690536499023,
        "z": -2.827997922897339
      },
      "rot": {
        "y": 45.0
      }
    },
    {
      "localId": 8,
      "KPGKDHAFHFE": "AureaePoint",
      "pos": {
        "x": -4.000002861022949,
        "y": -18.420690536499023,
        "z": -1.7159850358439144e-06
      },
      "rot": {
        "y": 90.0
      }
    },
    {
      "localId": 9,
      "KPGKDHAFHFE": "AureaePoint",
      "pos": {
        "x": -2.8280019760131836,
        "y": -18.420690536499023,
        "z": 2.828001022338867
      },
      "rot": {
        "y": 135.0
      }
    },
    {
      "localId": 10,
      "KPGKDHAFHFE": "AureaePoint",
      "pos": {
        "x": 3.061000108718872,
        "y": -18.420400619506836,
        "z": 7.390999794006348
      },
      "rot": {
        "y": 202.5
      }
    },
    {
      "localId": 11,
      "KPGKDHAFHFE": "AureaePoint",
      "pos": {
        "x": 7.390997886657715,
        "y": -18.420400619506836,
        "z": 3.0610010623931885
      },
      "rot": {
        "y": 247.5
      }
    },
    {
      "localId": 12,
      "KPGKDHAFHFE": "AureaePoint",
      "pos": {
        "x": 7.391005039215088,
        "y": -18.420400619506836,
        "z": -3.0610029697418213
      },
      "rot": {
        "y": 292.5
      }
    },
    {
      "localId": 13,
      "KPGKDHAFHFE": "AureaePoint",
      "pos": {
        "x": 3.061000108718872,
        "y": -18.420400619506836,
        "z": -7.390999794006348
      },
      "rot": {
        "y": 337.5
      }
    },
    {
      "localId": 14,
      "KPGKDHAFHFE": "AureaePoint",
      "pos": {
        "x": -3.06099796295166,
        "y": -18.420400619506836,
        "z": -7.3909912109375
      },
      "rot": {
        "y": 22.5
      }
    },
    {
      "localId": 15,
      "KPGKDHAFHFE": "AureaePoint",
      "pos": {
        "x": -7.390999794006348,
        "y": -18.42038917541504,
        "z": -3.061000108718872
      },
      "rot": {
        "y": 67.5
      }
    },
    {
      "localId": 16,
      "KPGKDHAFHFE": "AureaePoint",
      "pos": {
        "x": -7.390999794006348,
        "y": -18.420400619506836,
        "z": 3.061000108718872
      },
      "rot": {
        "y": 112.5
      }
    },
    {
      "localId": 17,
      "KPGKDHAFHFE": "AureaePoint",
      "pos": {
        "x": -3.061000108718872,
        "y": -18.420400619506836,
        "z": 7.390999794006348
      },
      "rot": {
        "y": 157.5
      }
    },
    {
      "localId": 18,
      "KPGKDHAFHFE": "AureaePoint",
      "pos": {
        "x": 6.854534149169922e-07,
        "y": -18.420000076293945,
        "z": 12.0
      },
      "rot": {
        "y": 180.0
      }
    },
    {
      "localId": 19,
      "KPGKDHAFHFE": "AureaePoint",
      "pos": {
        "x": 8.48499870300293,
        "y": -18.420000076293945,
        "z": 8.484999656677246
      },
      "rot": {
        "y": 225.0
      }
    },
    {
      "localId": 20,
      "KPGKDHAFHFE": "AureaePoint",
      "pos": {
        "x": 12.0,
        "y": -18.420000076293945,
        "z": 1.299541985133601e-08
      },
      "rot": {
        "y": 270.0
      }
    },
    {
      "localId": 21,
      "KPGKDHAFHFE": "AureaePoint",
      "pos": {
        "x": 8.485000610351562,
        "y": -18.420000076293945,
        "z": -8.48499870300293
      },
      "rot": {
        "y": 315.0
      }
    },
    {
      "localId": 22,
      "KPGKDHAFHFE": "AureaePoint",
      "pos": {
        "x": -7.450581307466564e-08,
        "y": -18.420000076293945,
        "z": -12.0
      }
    },
    {
      "localId": 23,
      "KPGKDHAFHFE": "AureaePoint",
      "pos": {
        "x": -8.484999656677246,
        "y": -18.420000076293945,
        "z": -8.484999656677246
      },
      "rot": {
        "y": 45.0
      }
    },
    {
      "localId": 24,
      "KPGKDHAFHFE": "AureaePoint",
      "pos": {
        "x": -12.0,
        "y": -18.420000076293945,
        "z": 1.0612770040552277e-07
      },
      "rot": {
        "y": 90.0
      }
    },
    {
      "localId": 25,
      "KPGKDHAFHFE": "AureaePoint",
      "pos": {
        "x": -8.484999656677246,
        "y": -18.420000076293945,
        "z": 8.484999656677246
      },
      "rot": {
        "y": 135.0
      }
    },
    {
      "localId": 26,
      "KPGKDHAFHFE": "AureaePoint",
      "pos": {
        "x": 6.123000144958496,
        "y": -18.41975975036621,
        "z": 14.781999588012695
      },
      "rot": {
        "y": 202.5
      }
    },
    {
      "localId": 27,
      "KPGKDHAFHFE": "AureaePoint",
      "pos": {
        "x": 14.781999588012695,
        "y": -18.41975975036621,
        "z": 6.122998237609863
      },
      "rot": {
        "y": 247.5
      }
    },
    {
      "localId": 28,
      "KPGKDHAFHFE": "AureaePoint",
      "pos": {
        "x": 14.781999588012695,
        "y": -18.41975975036621,
        "z": -6.123000144958496
      },
      "rot": {
        "y": 292.5
      }
    },
    {
      "localId": 29,
      "KPGKDHAFHFE": "AureaePoint",
      "pos": {
        "x": 6.123000144958496,
        "y": -18.41975975036621,
        "z": -14.781999588012695
      },
      "rot": {
        "y": 337.5
      }
    },
    {
      "localId": 30,
      "KPGKDHAFHFE": "AureaePoint",
      "pos": {
        "x": -6.123000144958496,
        "y": -18.41975975036621,
        "z": -14.781999588012695
      },
      "rot": {
        "y": 22.5
      }
    },
    {
      "localId": 31,
      "KPGKDHAFHFE": "AureaePoint",
      "pos": {
        "x": -14.781999588012695,
        "y": -18.41975975036621,
        "z": -6.123000144958496
      },
      "rot": {
        "y": 67.5
      }
    },
    {
      "localId": 32,
      "KPGKDHAFHFE": "AureaePoint",
      "pos": {
        "x": -14.781999588012695,
        "y": -18.41975975036621,
        "z": 6.123000144958496
      },
      "rot": {
        "y": 112.5
      }
    },
    {
      "localId": 33,
      "KPGKDHAFHFE": "AureaePoint",
      "pos": {
        "x": -6.123000144958496,
        "y": -18.41975975036621,
        "z": 14.781999588012695
      },
      "rot": {
        "y": 157.5
      }
    },
    {
      "localId": 34,
      "KPGKDHAFHFE": "AureaePoint",
      "pos": {
        "y": -56.26694869995117
      }
    },
    {
      "localId": 35,
      "KPGKDHAFHFE": "AureaePoint",
      "pos": {
        "x": 5.739999771118164,
        "y": -56.28107833862305,
        "z": 13.857999801635742
      },
      "rot": {
        "y": 202.5
      }
    },
    {
      "localId": 36,
      "KPGKDHAFHFE": "AureaePoint",
      "pos": {
        "x": 13.857999801635742,
        "y": -56.281089782714844,
        "z": 5.739999771118164
      },
      "rot": {
        "y": 247.5
      }
    },
    {
      "localId": 37,
      "KPGKDHAFHFE": "AureaePoint",
      "pos": {
        "x": 13.857999801635742,
        "y": -56.28107833862305,
        "z": -5.739999771118164
      },
      "rot": {
        "y": 292.5
      }
    },
    {
      "localId": 38,
      "KPGKDHAFHFE": "AureaePoint",
      "pos": {
        "x": 5.739999771118164,
        "y": -56.281070709228516,
        "z": -13.857999801635742
      },
      "rot": {
        "y": 337.5
      }
    },
    {
      "localId": 39,
      "KPGKDHAFHFE": "AureaePoint",
      "pos": {
        "x": -5.739999771118164,
        "y": -56.281070709228516,
        "z": -13.857999801635742
      },
      "rot": {
        "y": 22.5
      }
    },
    {
      "localId": 40,
      "KPGKDHAFHFE": "AureaePoint",
      "pos": {
        "x": -13.857999801635742,
        "y": -56.28107833862305,
        "z": -5.739999771118164
      },
      "rot": {
        "y": 67.5
      }
    },
    {
      "localId": 41,
      "KPGKDHAFHFE": "AureaePoint",
      "pos": {
        "x": -13.857999801635742,
        "y": -56.281070709228516,
        "z": 5.739999771118164
      },
      "rot": {
        "y": 112.5
      }
    },
    {
      "localId": 42,
      "KPGKDHAFHFE": "AureaePoint",
      "pos": {
        "x": -5.739999771118164,
        "y": -56.281070709228516,
        "z": 13.857999801635742
      },
      "rot": {
        "y": 157.5
      }
    }
  ]
}