{
  "sceneId": 35941,
  "actionPoints": [
    {
      "localId": 1,
      "KPGKDHAFHFE": "LostSamachurl_Sit",
      "pos": {
        "x": 1290.926025390625,
        "y": 261.5386047363281,
        "z": -1710.758056640625
      },
      "rot": {
        "y": 9.365326881408691
      },
      "capacity": 1
    },
    {
      "localId": 2,
      "KPGKDHAFHFE": "LostSamachurl_Sit",
      "pos": {
        "x": 1270.6839599609375,
        "y": 261.9236145019531,
        "z": -1713.2459716796875
      },
      "rot": {
        "y": 201.45570373535156
      },
      "capacity": 1
    },
    {
      "localId": 3,
      "KPGKDHAFHFE": "LostSamachurl_Dance",
      "pos": {
        "x": 1250.93701171875,
        "y": 261.9118957519531,
        "z": -1715.1820068359375
      },
      "rot": {
        "y": 38.82299041748047
      },
      "capacity": 1
    },
    {
      "localId": 4,
      "KPGKDHAFHFE": "LostSamachurl_Dance",
      "pos": {
        "x": 1253.0150146484375,
        "y": 262.01348876953125,
        "z": -1716.0770263671875
      },
      "rot": {
        "y": 5.233604907989502
      },
      "capacity": 1
    },
    {
      "localId": 5,
      "KPGKDHAFHFE": "LostSamachurl_Dance",
      "pos": {
        "x": 1244.89599609375,
        "y": 263.65020751953125,
        "z": -1708.4200439453125
      },
      "rot": {
        "y": 119.77179718017578
      },
      "capacity": 1
    },
    {
      "localId": 6,
      "KPGKDHAFHFE": "LostSamachurl_Sit",
      "pos": {
        "x": 1304.1939697265625,
        "y": 254.49609375,
        "z": -1676.1280517578125
      },
      "rot": {
        "y": 169.53900146484375
      },
      "capacity": 1
    },
    {
      "localId": 7,
      "KPGKDHAFHFE": "LostSamachurl_Dance",
      "pos": {
        "x": 1252.616943359375,
        "y": 258.5546875,
        "z": -1670.302978515625
      },
      "rot": {
        "y": 43.10100173950195
      },
      "capacity": 1
    },
    {
      "localId": 8,
      "KPGKDHAFHFE": "LostSamachurl_Dance",
      "pos": {
        "x": 1252.615966796875,
        "y": 259.7318115234375,
        "z": -1664.1219482421875
      },
      "rot": {
        "y": 145.8804931640625
      },
      "capacity": 1
    },
    {
      "localId": 9,
      "KPGKDHAFHFE": "LostSamachurl_Sit",
      "pos": {
        "x": 1248.7440185546875,
        "y": 258.4587097167969,
        "z": -1690.6639404296875
      },
      "rot": {
        "y": 75.28636169433594
      },
      "capacity": 1
    },
    {
      "localId": 10,
      "KPGKDHAFHFE": "LostSamachurl_Dance",
      "pos": {
        "x": 1255.9200439453125,
        "y": 259.72698974609375,
        "z": -1663.823974609375
      },
      "rot": {
        "y": 199.9438934326172
      },
      "capacity": 1
    },
    {
      "localId": 11,
      "KPGKDHAFHFE": "LostSamachurl_Dance",
      "pos": {
        "x": 1257.4420166015625,
        "y": 259.19769287109375,
        "z": -1665.7740478515625
      },
      "rot": {
        "y": 258.51629638671875
      },
      "capacity": 1
    },
    {
      "localId": 12,
      "KPGKDHAFHFE": "LostSamachurl_Dance",
      "pos": {
        "x": 1256.1490478515625,
        "y": 261.91180419921875,
        "z": -1713.718017578125
      },
      "rot": {
        "y": 292.3605041503906
      },
      "capacity": 1
    }
  ]
}