{
  "sceneId": 47403,
  "actionPoints": [
    {
      "localId": 1,
      "KPGKDHAFHFE": "PacManBlinkPoint",
      "pos": {
        "x": -75.67627716064453,
        "y": 7.302000045776367,
        "z": -131.8798065185547
      }
    },
    {
      "localId": 2,
      "KPGKDHAFHFE": "PacManBlinkPoint",
      "pos": {
        "x": -65.73412322998047,
        "y": 7.302000045776367,
        "z": -131.39309692382812
      }
    },
    {
      "localId": 3,
      "KPGKDHAFHFE": "PacManBlinkPoint",
      "pos": {
        "x": -67.35112762451172,
        "y": 7.302000045776367,
        "z": -121.67469787597656
      }
    },
    {
      "localId": 4,
      "KPGKDHAFHFE": "PacManBlinkPoint",
      "pos": {
        "x": -65.06652069091797,
        "y": 7.302000045776367,
        "z": -110.99859619140625
      }
    },
    {
      "localId": 5,
      "KPGKDHAFHFE": "PacManBlinkPoint",
      "pos": {
        "x": -71.20890045166016,
        "y": 7.302000045776367,
        "z": -95.82367706298828
      }
    },
    {
      "localId": 6,
      "KPGKDHAFHFE": "PacManBlinkPoint",
      "pos": {
        "x": -59.78458023071289,
        "y": 7.302000045776367,
        "z": -96.31404113769531
      }
    },
    {
      "localId": 7,
      "KPGKDHAFHFE": "PacManMeleeChargePoint",
      "pos": {
        "x": -40.838321685791016,
        "y": 7.302000045776367,
        "z": -110.82589721679688
      },
      "actZoneInnerRadius": 4.0,
      "actZoneOuterRadius": 5.0
    },
    {
      "localId": 8,
      "KPGKDHAFHFE": "PacManMeleeChargePoint",
      "pos": {
        "x": -41.20906066894531,
        "y": 7.302000045776367,
        "z": -96.01638793945312
      },
      "actZoneInnerRadius": 4.0,
      "actZoneOuterRadius": 5.0
    },
    {
      "localId": 9,
      "KPGKDHAFHFE": "PacManMeleeChargePoint",
      "pos": {
        "x": -41.41542053222656,
        "y": 7.302000045776367,
        "z": -121.88289642333984
      },
      "actZoneInnerRadius": 4.0,
      "actZoneOuterRadius": 5.0
    },
    {
      "localId": 10,
      "KPGKDHAFHFE": "PacManMeleeChargePoint",
      "pos": {
        "x": -40.935489654541016,
        "y": 7.302000045776367,
        "z": -130.72740173339844
      },
      "actZoneInnerRadius": 4.0,
      "actZoneOuterRadius": 5.0
    },
    {
      "localId": 11,
      "KPGKDHAFHFE": "PacManMeleeChargePoint",
      "pos": {
        "x": -50.853328704833984,
        "y": 7.302000045776367,
        "z": -131.19630432128906
      },
      "actZoneInnerRadius": 4.0,
      "actZoneOuterRadius": 5.0
    },
    {
      "localId": 12,
      "KPGKDHAFHFE": "PacManMeleeChargePoint",
      "pos": {
        "x": -50.41136169433594,
        "y": 7.302000045776367,
        "z": -121.77570343017578
      },
      "actZoneInnerRadius": 4.0,
      "actZoneOuterRadius": 5.0
    },
    {
      "localId": 13,
      "KPGKDHAFHFE": "PacManMeleeChargePoint",
      "pos": {
        "x": -53.852569580078125,
        "y": 7.302000045776367,
        "z": -111.17510223388672
      },
      "actZoneInnerRadius": 4.0,
      "actZoneOuterRadius": 5.0
    },
    {
      "localId": 14,
      "KPGKDHAFHFE": "PacManMeleeChargePoint",
      "pos": {
        "x": -62.99851989746094,
        "y": 7.302000045776367,
        "z": -111.51830291748047
      },
      "actZoneInnerRadius": 4.0,
      "actZoneOuterRadius": 5.0
    },
    {
      "localId": 15,
      "KPGKDHAFHFE": "PacManMeleeChargePoint",
      "pos": {
        "x": -63.51103973388672,
        "y": 7.302000045776367,
        "z": -120.8844985961914
      },
      "actZoneInnerRadius": 4.0,
      "actZoneOuterRadius": 5.0
    },
    {
      "localId": 16,
      "KPGKDHAFHFE": "PacManMeleeChargePoint",
      "pos": {
        "x": -75.72447967529297,
        "y": 7.302000045776367,
        "z": -111.07859802246094
      },
      "actZoneInnerRadius": 4.0,
      "actZoneOuterRadius": 5.0
    },
    {
      "localId": 17,
      "KPGKDHAFHFE": "PacManMeleeChargePoint",
      "pos": {
        "x": -76.30007934570312,
        "y": 7.302000045776367,
        "z": -95.68112182617188
      },
      "actZoneInnerRadius": 4.0,
      "actZoneOuterRadius": 5.0
    },
    {
      "localId": 18,
      "KPGKDHAFHFE": "PacManMeleeChargePoint",
      "pos": {
        "x": -65.46552276611328,
        "y": 7.302000045776367,
        "z": -95.43547821044922
      },
      "actZoneInnerRadius": 4.0,
      "actZoneOuterRadius": 5.0
    },
    {
      "localId": 19,
      "KPGKDHAFHFE": "PacManMeleeChargePoint",
      "pos": {
        "x": -50.70777893066406,
        "y": 7.302000045776367,
        "z": -95.36749267578125
      },
      "actZoneInnerRadius": 4.0,
      "actZoneOuterRadius": 5.0
    },
    {
      "localId": 20,
      "KPGKDHAFHFE": "PacManMeleeChargePoint",
      "pos": {
        "x": -58.320518493652344,
        "y": 7.302000045776367,
        "z": -109.68669891357422
      },
      "actZoneInnerRadius": 4.0,
      "actZoneOuterRadius": 5.0
    },
    {
      "localId": 21,
      "KPGKDHAFHFE": "PacManMeleeChargePoint",
      "pos": {
        "x": -74.60617065429688,
        "y": 7.302000045776367,
        "z": -121.6636962890625
      },
      "actZoneInnerRadius": 4.0,
      "actZoneOuterRadius": 5.0
    },
    {
      "localId": 22,
      "KPGKDHAFHFE": "PacManMeleeChargePoint",
      "pos": {
        "x": -75.281982421875,
        "y": 7.302000045776367,
        "z": -131.82029724121094
      },
      "actZoneInnerRadius": 4.0,
      "actZoneOuterRadius": 5.0
    },
    {
      "localId": 23,
      "KPGKDHAFHFE": "PacManMeleeChargePoint",
      "pos": {
        "x": -65.08257293701172,
        "y": 7.302000045776367,
        "z": -131.38409423828125
      },
      "actZoneInnerRadius": 4.0,
      "actZoneOuterRadius": 5.0
    },
    {
      "localId": 24,
      "KPGKDHAFHFE": "PacManMeleeChargePoint",
      "pos": {
        "x": -22.406129837036133,
        "y": 12.696000099182129,
        "z": -72.0495834350586
      },
      "actZoneInnerRadius": 4.0,
      "actZoneOuterRadius": 5.0
    },
    {
      "localId": 25,
      "KPGKDHAFHFE": "PacManMeleeChargePoint",
      "pos": {
        "x": -22.324810028076172,
        "y": 12.696000099182129,
        "z": -47.38351821899414
      },
      "actZoneInnerRadius": 4.0,
      "actZoneOuterRadius": 5.0
    },
    {
      "localId": 26,
      "KPGKDHAFHFE": "PacManMeleeChargePoint",
      "pos": {
        "x": -16.49403953552246,
        "y": 12.696000099182129,
        "z": -47.0830192565918
      },
      "actZoneInnerRadius": 4.0,
      "actZoneOuterRadius": 5.0
    },
    {
      "localId": 27,
      "KPGKDHAFHFE": "PacManMeleeChargePoint",
      "pos": {
        "x": -6.035947799682617,
        "y": 12.696000099182129,
        "z": -47.71718978881836
      },
      "actZoneInnerRadius": 4.0,
      "actZoneOuterRadius": 5.0
    },
    {
      "localId": 28,
      "KPGKDHAFHFE": "PacManMeleeChargePoint",
      "pos": {
        "x": 5.186410903930664,
        "y": 12.696000099182129,
        "z": -46.55213928222656
      },
      "actZoneInnerRadius": 4.0,
      "actZoneOuterRadius": 5.0
    },
    {
      "localId": 29,
      "KPGKDHAFHFE": "PacManMeleeChargePoint",
      "pos": {
        "x": -16.773889541625977,
        "y": 12.696000099182129,
        "z": -72.23182678222656
      },
      "actZoneInnerRadius": 4.0,
      "actZoneOuterRadius": 5.0
    },
    {
      "localId": 30,
      "KPGKDHAFHFE": "PacManMeleeChargePoint",
      "pos": {
        "x": -5.920131206512451,
        "y": 12.696000099182129,
        "z": -71.86978912353516
      },
      "actZoneInnerRadius": 4.0,
      "actZoneOuterRadius": 5.0
    },
    {
      "localId": 31,
      "KPGKDHAFHFE": "PacManMeleeChargePoint",
      "pos": {
        "x": 3.3813180923461914,
        "y": 12.696000099182129,
        "z": -72.30655670166016
      },
      "actZoneInnerRadius": 4.0,
      "actZoneOuterRadius": 5.0
    },
    {
      "localId": 32,
      "KPGKDHAFHFE": "PacManMeleeChargePoint",
      "pos": {
        "x": 7.605639934539795,
        "y": 12.696000099182129,
        "z": -67.09293365478516
      },
      "actZoneInnerRadius": 4.0,
      "actZoneOuterRadius": 5.0
    },
    {
      "localId": 33,
      "KPGKDHAFHFE": "PacManMeleeChargePoint",
      "pos": {
        "x": 7.946247100830078,
        "y": 12.696000099182129,
        "z": -52.17129898071289
      },
      "actZoneInnerRadius": 4.0,
      "actZoneOuterRadius": 5.0
    },
    {
      "localId": 34,
      "KPGKDHAFHFE": "PacManMeleeChargePoint",
      "pos": {
        "x": 12.539520263671875,
        "y": 12.696000099182129,
        "z": -51.71192932128906
      },
      "actZoneInnerRadius": 4.0,
      "actZoneOuterRadius": 5.0
    },
    {
      "localId": 35,
      "KPGKDHAFHFE": "PacManMeleeChargePoint",
      "pos": {
        "x": 12.074270248413086,
        "y": 12.696000099182129,
        "z": -66.75836181640625
      },
      "actZoneInnerRadius": 4.0,
      "actZoneOuterRadius": 5.0
    },
    {
      "localId": 36,
      "KPGKDHAFHFE": "PacManMeleeChargePoint",
      "pos": {
        "x": 3.354069948196411,
        "y": 12.696000099182129,
        "z": -77.86298370361328
      },
      "actZoneInnerRadius": 4.0,
      "actZoneOuterRadius": 5.0
    },
    {
      "localId": 37,
      "KPGKDHAFHFE": "PacManMeleeChargePoint",
      "pos": {
        "x": -16.885700225830078,
        "y": 12.696000099182129,
        "z": -77.68536376953125
      },
      "actZoneInnerRadius": 4.0,
      "actZoneOuterRadius": 5.0
    },
    {
      "localId": 38,
      "KPGKDHAFHFE": "PacManMeleeChargePoint",
      "pos": {
        "x": 5.194613933563232,
        "y": 12.696000099182129,
        "z": -41.40401077270508
      },
      "actZoneInnerRadius": 4.0,
      "actZoneOuterRadius": 5.0
    },
    {
      "localId": 39,
      "KPGKDHAFHFE": "PacManMeleeChargePoint",
      "pos": {
        "x": -16.38899040222168,
        "y": 12.696000099182129,
        "z": -41.19364929199219
      },
      "actZoneInnerRadius": 4.0,
      "actZoneOuterRadius": 5.0
    },
    {
      "localId": 40,
      "KPGKDHAFHFE": "PacManBlinkPoint",
      "pos": {
        "x": -16.31222915649414,
        "y": 12.695870399475098,
        "z": -47.757530212402344
      },
      "actZoneInnerRadius": 5.0,
      "actZoneOuterRadius": 6.0
    },
    {
      "localId": 41,
      "KPGKDHAFHFE": "PacManBlinkPoint",
      "pos": {
        "x": -16.536710739135742,
        "y": 12.695929527282715,
        "z": -71.60328674316406
      },
      "actZoneInnerRadius": 5.0,
      "actZoneOuterRadius": 6.0
    },
    {
      "localId": 42,
      "KPGKDHAFHFE": "PacManBlinkPoint",
      "pos": {
        "x": -5.742897033691406,
        "y": 12.695879936218262,
        "z": -52.72426986694336
      },
      "actZoneInnerRadius": 5.0,
      "actZoneOuterRadius": 6.0
    },
    {
      "localId": 43,
      "KPGKDHAFHFE": "PacManBlinkPoint",
      "pos": {
        "x": -5.975627899169922,
        "y": 12.69591999053955,
        "z": -67.82881927490234
      },
      "actZoneInnerRadius": 5.0,
      "actZoneOuterRadius": 6.0
    },
    {
      "localId": 44,
      "KPGKDHAFHFE": "PacManBlinkPoint",
      "pos": {
        "x": 5.548678874969482,
        "y": 12.695929527282715,
        "z": -72.8242416381836
      },
      "actZoneInnerRadius": 5.0,
      "actZoneOuterRadius": 6.0
    },
    {
      "localId": 45,
      "KPGKDHAFHFE": "PacManBlinkPoint",
      "pos": {
        "x": 2.680881977081299,
        "y": 12.695899963378906,
        "z": -60.010501861572266
      },
      "actZoneInnerRadius": 5.0,
      "actZoneOuterRadius": 6.0
    },
    {
      "localId": 46,
      "KPGKDHAFHFE": "PacManBlinkPoint",
      "pos": {
        "x": 5.794764995574951,
        "y": 12.695859909057617,
        "z": -46.52935028076172
      },
      "actZoneInnerRadius": 5.0,
      "actZoneOuterRadius": 6.0
    },
    {
      "localId": 47,
      "KPGKDHAFHFE": "PacManBlinkPoint",
      "pos": {
        "x": -7.094456195831299,
        "y": 12.695850372314453,
        "z": -41.109439849853516
      },
      "actZoneInnerRadius": 5.0,
      "actZoneOuterRadius": 6.0
    },
    {
      "localId": 48,
      "KPGKDHAFHFE": "PacManBlinkPoint",
      "pos": {
        "x": -8.426654815673828,
        "y": 12.695940017700195,
        "z": -77.94416809082031
      },
      "actZoneInnerRadius": 5.0,
      "actZoneOuterRadius": 6.0
    },
    {
      "localId": 49,
      "KPGKDHAFHFE": "PacManBlinkPoint",
      "pos": {
        "x": -41.74713897705078,
        "y": 7.3019890785217285,
        "z": -96.0093994140625
      },
      "actZoneInnerRadius": 5.0,
      "actZoneOuterRadius": 6.0
    },
    {
      "localId": 50,
      "KPGKDHAFHFE": "PacManBlinkPoint",
      "pos": {
        "x": -53.157958984375,
        "y": 7.302028179168701,
        "z": -111.34609985351562
      },
      "actZoneInnerRadius": 5.0,
      "actZoneOuterRadius": 6.0
    },
    {
      "localId": 51,
      "KPGKDHAFHFE": "PacManBlinkPoint",
      "pos": {
        "x": -51.59389114379883,
        "y": 7.302052021026611,
        "z": -120.99320220947266
      },
      "actZoneInnerRadius": 5.0,
      "actZoneOuterRadius": 6.0
    },
    {
      "localId": 52,
      "KPGKDHAFHFE": "PacManBlinkPoint",
      "pos": {
        "x": -41.28268051147461,
        "y": 7.302077770233154,
        "z": -131.42230224609375
      },
      "actZoneInnerRadius": 5.0,
      "actZoneOuterRadius": 6.0
    }
  ]
}