{
  "sceneId": 1034,
  "actionPoints": [
    {
      "localId": 1,
      "KPGKDHAFHFE": "SitOnChairPoint",
      "pos": {
        "x": -0.42306968569755554,
        "y": 0.00823997613042593,
        "z": 4.295805931091309
      },
      "rot": {
        "y": 179.822998046875
      },
      "actZoneInnerRadius": 0.0,
      "actZoneOuterRadius": 0.0
    },
    {
      "localId": 2,
      "KPGKDHAFHFE": "HidingPoint",
      "pos": {
        "x": 0.05896497145295143,
        "y": -1.3268200405036623e-07,
        "z": -8.299979209899902
      },
      "rot": {
        "y": 181.4835968017578
      },
      "actZoneInnerRadius": 0.0,
      "actZoneOuterRadius": 0.0
    }
  ]
}