{
  "sceneId": 3,
  "actionPoints": [
    {
      "localId": 310600001,
      "KPGKDHAFHFE": "LandingPoint",
      "pos": {
        "x": -799.5245971679688,
        "y": 177.78750610351562,
        "z": 1752.27001953125
      },
      "rot": {
        "y": 147.55810546875
      },
      "actZoneInnerRadius": 0.0,
      "actZoneOuterRadius": 0.0
    },
    {
      "localId": 310600002,
      "KPGKDHAFHFE": "LandingPoint",
      "pos": {
        "x": -798.04931640625,
        "y": 177.71240234375,
        "z": 1753.7320556640625
      },
      "rot": {
        "y": 151.0435028076172
      },
      "actZoneInnerRadius": 0.0,
      "actZoneOuterRadius": 0.0
    },
    {
      "localId": 310600003,
      "KPGKDHAFHFE": "LandingPoint",
      "pos": {
        "x": -818.5264282226562,
        "y": 200.67930603027344,
        "z": 1927.072998046875
      },
      "actZoneInnerRadius": 0.0,
      "actZoneOuterRadius": 0.0
    },
    {
      "localId": 310600004,
      "KPGKDHAFHFE": "LandingPoint",
      "pos": {
        "x": -834.4677734375,
        "y": 182.7104034423828,
        "z": 2003.905029296875
      },
      "rot": {
        "y": 65.06639862060547
      },
      "actZoneInnerRadius": 0.0,
      "actZoneOuterRadius": 0.0
    },
    {
      "localId": 310600005,
      "KPGKDHAFHFE": "LandingPoint",
      "pos": {
        "x": -664.1397094726562,
        "y": 237.4615020751953,
        "z": 1996.2080078125
      },
      "rot": {
        "y": 196.33059692382812
      },
      "actZoneInnerRadius": 0.0,
      "actZoneOuterRadius": 0.0
    },
    {
      "localId": 310600006,
      "KPGKDHAFHFE": "LandingPoint",
      "pos": {
        "x": -661.8449096679688,
        "y": 237.4084930419922,
        "z": 1996.541015625
      },
      "rot": {
        "y": 194.30409240722656
      },
      "actZoneInnerRadius": 0.0,
      "actZoneOuterRadius": 0.0
    },
    {
      "localId": 310600007,
      "KPGKDHAFHFE": "MiningPoint",
      "pos": {
        "x": -903.3936157226562,
        "y": 194.13400268554688,
        "z": 1854.2220458984375
      },
      "rot": {
        "y": 305.385498046875
      }
    },
    {
      "localId": 310600008,
      "KPGKDHAFHFE": "SleepPoint",
      "pos": {
        "x": -902.1937255859375,
        "y": 194.14920043945312,
        "z": 1857.053955078125
      },
      "rot": {
        "y": 276.4833068847656
      }
    },
    {
      "localId": 310600009,
      "KPGKDHAFHFE": "LandingPoint",
      "pos": {
        "x": -668.1552124023438,
        "y": 117.09380340576172,
        "z": 1797.9749755859375
      },
      "rot": {
        "y": 187.62950134277344
      }
    },
    {
      "localId": 310600010,
      "KPGKDHAFHFE": "LandingPoint",
      "pos": {
        "x": -664.2280883789062,
        "y": 117.10600280761719,
        "z": 1798.2239990234375
      },
      "rot": {
        "y": 189.15879821777344
      }
    },
    {
      "localId": 310600011,
      "KPGKDHAFHFE": "LandingPoint",
      "pos": {
        "x": -736.31787109375,
        "y": 165.7332000732422,
        "z": 1968.9119873046875
      },
      "rot": {
        "y": 341.1763916015625
      }
    },
    {
      "localId": 310600012,
      "KPGKDHAFHFE": "LandingPoint",
      "pos": {
        "x": -749.0703125,
        "y": 167.34539794921875,
        "z": 1974.385009765625
      },
      "rot": {
        "y": 243.45309448242188
      }
    },
    {
      "localId": 310600013,
      "KPGKDHAFHFE": "LandingPoint",
      "pos": {
        "x": -693.859375,
        "y": 361.0600891113281,
        "z": 2058.699951171875
      },
      "rot": {
        "y": 51.88880157470703
      }
    },
    {
      "localId": 310600014,
      "KPGKDHAFHFE": "LandingPoint",
      "pos": {
        "x": -692.3355712890625,
        "y": 360.72821044921875,
        "z": 2058.60888671875
      }
    },
    {
      "localId": 310600015,
      "KPGKDHAFHFE": "LandingPoint",
      "pos": {
        "x": -886.0205078125,
        "y": 135.48410034179688,
        "z": 1812.011962890625
      },
      "rot": {
        "y": 209.3054962158203
      }
    },
    {
      "localId": 310600016,
      "KPGKDHAFHFE": "LandingPoint",
      "pos": {
        "x": -467.856689453125,
        "y": 292.9674072265625,
        "z": 1495.8990478515625
      },
      "rot": {
        "y": 255.2924041748047
      }
    },
    {
      "localId": 310600017,
      "KPGKDHAFHFE": "LandingPoint",
      "pos": {
        "x": -464.7361145019531,
        "y": 293.9547119140625,
        "z": 1494.2860107421875
      },
      "rot": {
        "y": 255.2924041748047
      }
    },
    {
      "localId": 310600018,
      "KPGKDHAFHFE": "LandingPoint",
      "pos": {
        "x": -465.61279296875,
        "y": 293.5990905761719,
        "z": 1497.8280029296875
      },
      "rot": {
        "y": 255.2924041748047
      }
    }
  ]
}