{
  "luaDataPath": "",
  "dontUseDefaultFinish": true,
  "startBlackKeepTime": 0.20000000298023224,
  "entityBan": "",
  "protectNpcMobileLod": true,
  "talkFlag": 1,
  "startFade": {
    "startFadeInDuration": 0.4000000059604645,
    "startFadeOutDuration": 0.4000000059604645
  },
  "endFade": {
    "startFadeOutDuration": 0.0
  },
  "actors": [
    {
      "alias": "Avatar",
      "visible": true,
      "bornPointName": "Q10201AvatarSpawn",
      "relativePosType": "AVATAR_NEW",
      "relativePosNpcAlias": "",
      "_bindMovingTargetKey": ""
    },
    {
      "configID": 10093,
      "alias": "10093",
      "visible": true,
      "bornPointName": "Q1020102AbyssSpawn6",
      "relativePosType": "AVATAR_NEW",
      "relativePosNpcAlias": "",
      "_bindMovingTargetKey": ""
    },
    {
      "configID": 1005,
      "alias": "1005",
      "visible": true,
      "bornPointName": "Q1020102AbyssSpawn6",
      "relativePos": {
        "x": 0.699999988079071
      },
      "relativePosType": "AVATAR_NEW",
      "relativePosNpcAlias": "",
      "_bindMovingTargetKey": ""
    },
    {
      "configID": 10090,
      "alias": "10090",
      "visible": true,
      "bornPointName": "Q10201KleeSpawn3",
      "relativePosType": "AVATAR_NEW",
      "relativePosNpcAlias": "",
      "_bindMovingTargetKey": ""
    },
    {
      "configID": 10091,
      "alias": "10091",
      "visible": true,
      "bornPointName": "Q1020102AbyssSpawn5",
      "relativePosType": "AVATAR_NEW",
      "relativePosNpcAlias": "",
      "_bindMovingTargetKey": ""
    }
  ],
  "group": [
    [
      {
        "$type": "MoleMole.Config.ConfigLuaAction",
        "type": "LUA_ACTION",
        "duration": 1.0,
        "actionId": 101,
        "invoke": true,
        "invokeAlias": "10201",
        "invokeParam": 2
      },
      {
        "$type": "EFHODGEJOHJ",
        "type": "CAMERA_MOVE",
        "duration": 1.0,
        "actionId": 129,
        "camPosOffset": {
          "x": 193.43499755859375,
          "y": 50.70600128173828,
          "z": 195.83900451660156
        },
        "camForwardTargetOffset": {
          "x": 192.73699951171875,
          "y": 50.79800033569336,
          "z": 195.12899780273438
        },
        "camFov": 30.0,
        "lerpPattern": 6,
        "cameraBlendType": "EaseInOutCubic",
        "MDKBPBJCMHH": {},
        "targetNpcAlias": "",
        "PHGBNNGCJKJ": "",
        "NFILMKCFHEB": "",
        "BGPNGHDAECF": ""
      },
      {
        "$type": "MoleMole.Config.ConfigTimeProtectAction",
        "type": "TIME_PROTECT",
        "duration": 5.5,
        "actionId": 130
      },
      {
        "$type": "MoleMole.Config.ConfigCameraDOFAction",
        "type": "CAMERA_DOF",
        "actionId": 131,
        "enabled": true,
        "focusDistance": 10.0,
        "focusRange": 10.0,
        "quality": 3
      },
      {
        "$type": "MoleMole.Config.ConfigMoveToAction",
        "type": "MOVE_TO",
        "duration": 0.10000000149011612,
        "aliasList": [
          "Avatar"
        ],
        "actionId": 173,
        "routeList": [
          {
            "x": 191.2449951171875,
            "y": 50.0099983215332,
            "z": 193.23599243164062
          }
        ],
        "_bindMovingTargetKey": ""
      },
      {
        "$type": "MoleMole.Config.ConfigMoveToAction",
        "type": "MOVE_TO",
        "duration": 0.10000000149011612,
        "aliasList": [
          "1005"
        ],
        "actionId": 198,
        "routeList": [
          {
            "x": 191.96200561523438,
            "y": 50.0369987487793,
            "z": 193.30499267578125
          }
        ],
        "_bindMovingTargetKey": ""
      },
      {
        "$type": "MoleMole.Config.ConfigMoveToAction",
        "type": "MOVE_TO",
        "duration": 0.10000000149011612,
        "aliasList": [
          "10090"
        ],
        "actionId": 240,
        "routeList": [
          {
            "x": 190.10400390625,
            "y": 50.0369987487793,
            "z": 193.6580047607422
          }
        ],
        "_bindMovingTargetKey": ""
      },
      {
        "$type": "IEKHMHNHENB",
        "type": "STEER_TO",
        "delayTime": 0.10000000149011612,
        "duration": 0.10000000149011612,
        "aliasList": [
          "Avatar"
        ],
        "actionId": 174,
        "steerDir": {
          "x": -0.2409999966621399,
          "y": 0.5830000042915344,
          "z": 0.7760000228881836
        },
        "targetNpcAlias": "",
        "fixInterNull": true,
        "BHGPHGNFCBF": ""
      },
      {
        "$type": "NPCNMEOCADD",
        "type": "LOOK_AT",
        "delayTime": 0.10000000149011612,
        "aliasList": [
          "Avatar"
        ],
        "actionId": 175,
        "enableHead": true,
        "useTargetPos": true,
        "enableAbsolute": true,
        "targetPosition": {
          "x": 188.1199951171875,
          "y": 58.619998931884766,
          "z": 203.46400451660156
        },
        "headTurnTime": 1.0,
        "targetNpcAlias": "",
        "targetNpcLookAtPoint": "",
        "BHGPHGNFCBF": ""
      },
      {
        "$type": "IEKHMHNHENB",
        "type": "STEER_TO",
        "delayTime": 0.10000000149011612,
        "duration": 0.10000000149011612,
        "aliasList": [
          "1005"
        ],
        "actionId": 199,
        "steerDir": {
          "x": -0.27799999713897705,
          "y": 0.5989999771118164,
          "z": 0.7509999871253967
        },
        "targetNpcAlias": "",
        "fixInterNull": true,
        "BHGPHGNFCBF": ""
      },
      {
        "$type": "IEKHMHNHENB",
        "type": "STEER_TO",
        "delayTime": 0.10000000149011612,
        "duration": 0.10000000149011612,
        "aliasList": [
          "10090"
        ],
        "actionId": 241,
        "steerDir": {
          "x": -0.1679999977350235,
          "y": 0.6140000224113464,
          "z": 0.7710000276565552
        },
        "targetNpcAlias": "",
        "fixInterNull": true,
        "BHGPHGNFCBF": ""
      },
      {
        "$type": "NPCNMEOCADD",
        "type": "LOOK_AT",
        "delayTime": 0.4000000059604645,
        "aliasList": [
          "10090"
        ],
        "actionId": 242,
        "enableHead": true,
        "useTargetPos": true,
        "enableAbsolute": true,
        "targetPosition": {
          "x": 188.1199951171875,
          "y": 58.619998931884766,
          "z": 203.46400451660156
        },
        "headTurnTime": 1.0,
        "targetNpcAlias": "",
        "targetNpcLookAtPoint": "",
        "BHGPHGNFCBF": ""
      },
      {
        "$type": "NPCNMEOCADD",
        "type": "LOOK_AT",
        "delayTime": 0.800000011920929,
        "aliasList": [
          "1005"
        ],
        "actionId": 200,
        "enableHead": true,
        "useTargetPos": true,
        "enableAbsolute": true,
        "targetPosition": {
          "x": 188.1199951171875,
          "y": 58.619998931884766,
          "z": 203.46400451660156
        },
        "headTurnTime": 1.0,
        "targetNpcAlias": "",
        "targetNpcLookAtPoint": "",
        "BHGPHGNFCBF": ""
      },
      {
        "$type": "EFHODGEJOHJ",
        "type": "CAMERA_MOVE",
        "delayTime": 1.0,
        "duration": 4.0,
        "checkNextImmediately": true,
        "actionId": 128,
        "camPosOffset": {
          "x": 193.16299438476562,
          "y": 50.6609992980957,
          "z": 191.78199768066406
        },
        "camForwardTargetOffset": {
          "x": 192.58999633789062,
          "y": 51.02899932861328,
          "z": 192.51400756835938
        },
        "camFov": 40.0,
        "cameraBlendType": "EaseInOutQuart",
        "MDKBPBJCMHH": {},
        "needZAxisRotate": true,
        "targetNpcAlias": "",
        "PHGBNNGCJKJ": "",
        "NFILMKCFHEB": "",
        "BGPNGHDAECF": ""
      },
      {
        "$type": "MoleMole.Config.ConfigCameraDOFAction",
        "type": "CAMERA_DOF",
        "delayTime": 1.8079999685287476,
        "duration": 2.5,
        "actionId": 132,
        "enabled": true,
        "focusDistance": 15.0,
        "focusRange": 15.0,
        "quality": 3
      }
    ],
    [
      {
        "$type": "MoleMole.Config.ConfigLuaAction",
        "type": "LUA_ACTION",
        "duration": 1.0,
        "actionId": 102,
        "invoke": true,
        "invokeAlias": "10201",
        "invokeParam": 4
      },
      {
        "$type": "EFHODGEJOHJ",
        "type": "CAMERA_MOVE",
        "duration": 5.0,
        "actionId": 133,
        "camPosOffset": {
          "x": 193.16299438476562,
          "y": 50.6609992980957,
          "z": 191.78199768066406
        },
        "camForwardTargetOffset": {
          "x": 192.58999633789062,
          "y": 51.02899932861328,
          "z": 192.51400756835938
        },
        "camFov": 40.0,
        "cameraBlendType": "EaseInOutQuad",
        "MDKBPBJCMHH": {},
        "needZAxisRotate": true,
        "targetNpcAlias": "",
        "PHGBNNGCJKJ": "",
        "NFILMKCFHEB": "",
        "BGPNGHDAECF": ""
      },
      {
        "$type": "MJFAIFFAGOF",
        "type": "DIALOG",
        "aliasList": [
          "10093"
        ],
        "actionId": 188,
        "dialogID": 102010401,
        "protectTime": 0.10000000149011612
      }
    ],
    [
      {
        "$type": "EFHODGEJOHJ",
        "type": "CAMERA_MOVE",
        "duration": 1.0,
        "actionId": 134,
        "camPosOffset": {
          "x": 190.2480010986328,
          "y": 56.85499954223633,
          "z": 199.91000366210938
        },
        "camForwardTargetOffset": {
          "x": 189.70399475097656,
          "y": 57.15599822998047,
          "z": 200.6929931640625
        },
        "camFov": 25.0,
        "lerpPattern": 6,
        "cameraBlendType": "EaseInOutCubic",
        "MDKBPBJCMHH": {},
        "targetNpcAlias": "",
        "PHGBNNGCJKJ": "",
        "NFILMKCFHEB": "",
        "BGPNGHDAECF": ""
      },
      {
        "$type": "MJFAIFFAGOF",
        "type": "DIALOG",
        "aliasList": [
          "10093"
        ],
        "actionId": 189,
        "dialogID": 102010402,
        "protectTime": 0.10000000149011612
      }
    ],
    [
      {
        "$type": "EFHODGEJOHJ",
        "type": "CAMERA_MOVE",
        "duration": 1.0,
        "actionId": 135,
        "camPosOffset": {
          "x": 191.88699340820312,
          "y": 52.3849983215332,
          "z": 195.197998046875
        },
        "camForwardTargetOffset": {
          "x": 191.88499450683594,
          "y": 51.849998474121094,
          "z": 194.35299682617188
        },
        "camFov": 25.0,
        "lerpPattern": 6,
        "cameraBlendType": "EaseInOutCubic",
        "MDKBPBJCMHH": {},
        "targetNpcAlias": "",
        "PHGBNNGCJKJ": "",
        "NFILMKCFHEB": "",
        "BGPNGHDAECF": ""
      },
      {
        "$type": "MJFAIFFAGOF",
        "type": "DIALOG",
        "aliasList": [
          "1005"
        ],
        "actionId": 201,
        "dialogID": 102010403,
        "protectTime": 0.10000000149011612
      },
      {
        "$type": "EDCHPJLDKIN",
        "type": "BODY_LANG",
        "aliasList": [
          "1005"
        ],
        "actionId": 202,
        "bodyLangParam": 1230,
        "eventPatternSuiteKey": ""
      },
      {
        "$type": "ICHLNKHGCAG",
        "type": "EMO_SYNC",
        "aliasList": [
          "1005"
        ],
        "actionId": 203,
        "dataPath": "Cs_Emo_Avatar_Simple_Common_Set/Cs_Emo_Avatar_Talk/Cs_Emo_Avatar_PersonalLine/Cs_Emo_Avatar_Klee/Cs_Emo_102010403",
        "phonemePath": "",
        "emotionPath": "",
        "mateDataPath": "",
        "matePhonemePath": "",
        "mateEmotionPath": "",
        "dataPathHashList": [
          11547431904017085490,
          2334920863147674255,
          2467157374334064146,
          3691192329792861782
        ],
        "PACNIGOOENN": "",
        "PIBDNPHIAGC": ""
      }
    ],
    [
      {
        "$type": "EFHODGEJOHJ",
        "type": "CAMERA_MOVE",
        "duration": 1.0,
        "actionId": 136,
        "camPosOffset": {
          "x": 190.2480010986328,
          "y": 56.85499954223633,
          "z": 199.91000366210938
        },
        "camForwardTargetOffset": {
          "x": 189.70399475097656,
          "y": 57.15599822998047,
          "z": 200.6929931640625
        },
        "camFov": 25.0,
        "lerpPattern": 6,
        "cameraBlendType": "EaseInOutCubic",
        "MDKBPBJCMHH": {},
        "targetNpcAlias": "",
        "PHGBNNGCJKJ": "",
        "NFILMKCFHEB": "",
        "BGPNGHDAECF": ""
      },
      {
        "$type": "MJFAIFFAGOF",
        "type": "DIALOG",
        "aliasList": [
          "10093"
        ],
        "actionId": 190,
        "dialogID": 102010404,
        "protectTime": 0.5
      },
      {
        "$type": "EDCHPJLDKIN",
        "type": "BODY_LANG",
        "delayTime": 0.4000000059604645,
        "aliasList": [
          "1005"
        ],
        "actionId": 204,
        "isContinue": true,
        "eventPatternSuiteKey": ""
      }
    ],
    [
      {
        "$type": "MJFAIFFAGOF",
        "type": "DIALOG",
        "aliasList": [
          "10093"
        ],
        "actionId": 191,
        "dialogID": 102010405,
        "protectTime": 0.10000000149011612
      }
    ],
    [
      {
        "$type": "EFHODGEJOHJ",
        "type": "CAMERA_MOVE",
        "duration": 1.0,
        "actionId": 138,
        "camPosOffset": {
          "x": 190.23500061035156,
          "y": 53.84199905395508,
          "z": 196.36900329589844
        },
        "camForwardTargetOffset": {
          "x": 190.38099670410156,
          "y": 53.13399887084961,
          "z": 195.67799377441406
        },
        "camFov": 30.0,
        "lerpPattern": 6,
        "cameraBlendType": "EaseInOutCubic",
        "MDKBPBJCMHH": {},
        "targetNpcAlias": "",
        "PHGBNNGCJKJ": "",
        "NFILMKCFHEB": "",
        "BGPNGHDAECF": ""
      },
      {
        "$type": "MJFAIFFAGOF",
        "type": "DIALOG",
        "aliasList": [
          "10093"
        ],
        "actionId": 192,
        "dialogID": 102010406,
        "protectTime": 0.5
      },
      {
        "$type": "ICHLNKHGCAG",
        "type": "EMO_SYNC",
        "aliasList": [
          "10090"
        ],
        "actionId": 243,
        "dataPath": "Cs_Emo_Avatar_Simple_Common_Set/Cs_Emo_Avatar_Common_Normal_04",
        "phonemePath": "",
        "emotionPath": "",
        "mateDataPath": "",
        "matePhonemePath": "",
        "mateEmotionPath": "",
        "dataPathHashList": [
          12284641226507848808,
          15530432342731692253,
          3886352724743512820,
          15157520282214734180
        ],
        "PACNIGOOENN": "",
        "PIBDNPHIAGC": ""
      },
      {
        "$type": "NPCNMEOCADD",
        "type": "LOOK_AT",
        "delayTime": 0.30000001192092896,
        "aliasList": [
          "Avatar"
        ],
        "actionId": 176,
        "enableHead": true,
        "useTargetPos": true,
        "enableAbsolute": true,
        "targetPosition": {
          "x": 190.08799743652344,
          "y": 51.19599914550781,
          "z": 193.61199951171875
        },
        "headTurnTime": 0.4000000059604645,
        "targetNpcAlias": "",
        "targetNpcLookAtPoint": "",
        "BHGPHGNFCBF": ""
      },
      {
        "$type": "EFHODGEJOHJ",
        "type": "CAMERA_MOVE",
        "delayTime": 0.4000000059604645,
        "duration": 5.0,
        "actionId": 137,
        "camPosOffset": {
          "x": 190.01199340820312,
          "y": 52.814998626708984,
          "z": 195.31500244140625
        },
        "camForwardTargetOffset": {
          "x": 190.03500366210938,
          "y": 52.0369987487793,
          "z": 194.68699645996094
        },
        "camFov": 25.0,
        "cameraBlendType": "EaseInOutQuad",
        "MDKBPBJCMHH": {},
        "targetNpcAlias": "",
        "PHGBNNGCJKJ": "",
        "NFILMKCFHEB": "",
        "BGPNGHDAECF": ""
      },
      {
        "$type": "NPCNMEOCADD",
        "type": "LOOK_AT",
        "delayTime": 0.4000000059604645,
        "aliasList": [
          "1005"
        ],
        "actionId": 205,
        "enableHead": true,
        "useTargetPos": true,
        "enableAbsolute": true,
        "targetPosition": {
          "x": 190.08799743652344,
          "y": 51.19599914550781,
          "z": 193.61199951171875
        },
        "headTurnTime": 0.4000000059604645,
        "targetNpcAlias": "",
        "targetNpcLookAtPoint": "",
        "BHGPHGNFCBF": ""
      },
      {
        "$type": "ICHLNKHGCAG",
        "type": "EMO_SYNC",
        "delayTime": 0.4000000059604645,
        "aliasList": [
          "1005"
        ],
        "actionId": 206,
        "dataPath": "Cs_Emo_Avatar_Simple_Common_Set/Cs_Emo_Avatar_Paimon/Cs_Emo_Pet_Paimon_Normal_01",
        "phonemePath": "",
        "emotionPath": "",
        "mateDataPath": "",
        "matePhonemePath": "",
        "mateEmotionPath": "",
        "dataPathHashList": [
          2327328236696044360,
          12338418010740210543,
          5776394525372018320,
          8916958471179128575
        ],
        "PACNIGOOENN": "",
        "PIBDNPHIAGC": ""
      }
    ],
    [
      {
        "$type": "EFHODGEJOHJ",
        "type": "CAMERA_MOVE",
        "duration": 1.0,
        "actionId": 139,
        "camPosOffset": {
          "x": 190.2480010986328,
          "y": 56.85499954223633,
          "z": 199.91000366210938
        },
        "camForwardTargetOffset": {
          "x": 189.70399475097656,
          "y": 57.15599822998047,
          "z": 200.6929931640625
        },
        "camFov": 25.0,
        "lerpPattern": 6,
        "cameraBlendType": "EaseInOutCubic",
        "MDKBPBJCMHH": {},
        "targetNpcAlias": "",
        "PHGBNNGCJKJ": "",
        "NFILMKCFHEB": "",
        "BGPNGHDAECF": ""
      },
      {
        "$type": "MJFAIFFAGOF",
        "type": "DIALOG",
        "aliasList": [
          "10093"
        ],
        "actionId": 193,
        "dialogID": 102010407,
        "protectTime": 0.5
      },
      {
        "$type": "NPCNMEOCADD",
        "type": "LOOK_AT",
        "delayTime": 0.20000000298023224,
        "aliasList": [
          "1005"
        ],
        "actionId": 207,
        "enableHead": true,
        "useTargetPos": true,
        "enableAbsolute": true,
        "targetPosition": {
          "x": 188.1199951171875,
          "y": 58.619998931884766,
          "z": 203.46400451660156
        },
        "headTurnTime": 0.5,
        "targetNpcAlias": "",
        "targetNpcLookAtPoint": "",
        "BHGPHGNFCBF": ""
      },
      {
        "$type": "NPCNMEOCADD",
        "type": "LOOK_AT",
        "delayTime": 0.30000001192092896,
        "aliasList": [
          "Avatar"
        ],
        "actionId": 177,
        "enableHead": true,
        "useTargetPos": true,
        "enableAbsolute": true,
        "targetPosition": {
          "x": 188.1199951171875,
          "y": 58.619998931884766,
          "z": 203.46400451660156
        },
        "headTurnTime": 0.5,
        "targetNpcAlias": "",
        "targetNpcLookAtPoint": "",
        "BHGPHGNFCBF": ""
      },
      {
        "$type": "EFHODGEJOHJ",
        "type": "CAMERA_MOVE",
        "delayTime": 0.4000000059604645,
        "duration": 2.0,
        "actionId": 140,
        "camPosOffset": {
          "x": 190.2480010986328,
          "y": 56.85499954223633,
          "z": 199.91000366210938
        },
        "camForwardTargetOffset": {
          "x": 189.6280059814453,
          "y": 57.14099884033203,
          "z": 200.64100646972656
        },
        "camFov": 25.0,
        "cameraBlendType": "EaseInOutCubic",
        "MDKBPBJCMHH": {},
        "targetNpcAlias": "",
        "PHGBNNGCJKJ": "",
        "NFILMKCFHEB": "",
        "BGPNGHDAECF": ""
      }
    ],
    [
      {
        "$type": "EFHODGEJOHJ",
        "type": "CAMERA_MOVE",
        "duration": 2.0,
        "actionId": 141,
        "camPosOffset": {
          "x": 189.13400268554688,
          "y": 56.6349983215332,
          "z": 200.29100036621094
        },
        "camForwardTargetOffset": {
          "x": 188.82200622558594,
          "y": 57.07500076293945,
          "z": 201.13299560546875
        },
        "camFov": 25.0,
        "cameraBlendType": "EaseInOutCubic",
        "MDKBPBJCMHH": {},
        "targetNpcAlias": "",
        "PHGBNNGCJKJ": "",
        "NFILMKCFHEB": "",
        "BGPNGHDAECF": ""
      },
      {
        "$type": "MJFAIFFAGOF",
        "type": "DIALOG",
        "aliasList": [
          "10093"
        ],
        "actionId": 194,
        "dialogID": 102010408,
        "protectTime": 0.10000000149011612
      }
    ],
    [
      {
        "$type": "EFHODGEJOHJ",
        "type": "CAMERA_MOVE",
        "duration": 1.0,
        "actionId": 142,
        "camPosOffset": {
          "x": 190.01199340820312,
          "y": 52.814998626708984,
          "z": 195.31500244140625
        },
        "camForwardTargetOffset": {
          "x": 190.03500366210938,
          "y": 52.0369987487793,
          "z": 194.68699645996094
        },
        "camFov": 25.0,
        "lerpPattern": 6,
        "cameraBlendType": "EaseInOutCubic",
        "MDKBPBJCMHH": {},
        "targetNpcAlias": "",
        "PHGBNNGCJKJ": "",
        "NFILMKCFHEB": "",
        "BGPNGHDAECF": ""
      },
      {
        "$type": "MJFAIFFAGOF",
        "type": "DIALOG",
        "aliasList": [
          "10090"
        ],
        "actionId": 244,
        "dialogID": 102010409,
        "protectTime": 0.20000000298023224
      },
      {
        "$type": "EDCHPJLDKIN",
        "type": "BODY_LANG",
        "aliasList": [
          "10090"
        ],
        "actionId": 245,
        "bodyLangParam": 1060,
        "eventPatternSuiteKey": ""
      },
      {
        "$type": "ICHLNKHGCAG",
        "type": "EMO_SYNC",
        "aliasList": [
          "10090"
        ],
        "actionId": 246,
        "dataPath": "Cs_Emo_Avatar_Simple_Common_Set/Cs_Emo_Avatar_Talk/Cs_Emo_Avatar_PersonalLine/Cs_Emo_Avatar_Klee/Cs_Emo_102010409",
        "phonemePath": "",
        "emotionPath": "",
        "mateDataPath": "",
        "matePhonemePath": "",
        "mateEmotionPath": "",
        "dataPathHashList": [
          1235304140437847184,
          10983785533146269751,
          15310205924102062617,
          5420812421360690195
        ],
        "PACNIGOOENN": "",
        "PIBDNPHIAGC": ""
      },
      {
        "$type": "EFHODGEJOHJ",
        "type": "CAMERA_MOVE",
        "delayTime": 0.10000000149011612,
        "duration": 1.0,
        "actionId": 143,
        "camPosOffset": {
          "x": 189.9459991455078,
          "y": 52.6609992980957,
          "z": 195.12399291992188
        },
        "camForwardTargetOffset": {
          "x": 189.98300170898438,
          "y": 51.862998962402344,
          "z": 194.5229949951172
        },
        "camFov": 25.0,
        "cameraBlendType": "EaseInOutCubic",
        "MDKBPBJCMHH": {},
        "targetNpcAlias": "",
        "PHGBNNGCJKJ": "",
        "NFILMKCFHEB": "",
        "BGPNGHDAECF": ""
      }
    ],
    [
      {
        "$type": "EFHODGEJOHJ",
        "type": "CAMERA_MOVE",
        "duration": 1.0,
        "actionId": 144,
        "camPosOffset": {
          "x": 189.13400268554688,
          "y": 56.6349983215332,
          "z": 200.29100036621094
        },
        "camForwardTargetOffset": {
          "x": 188.82200622558594,
          "y": 57.07500076293945,
          "z": 201.13299560546875
        },
        "camFov": 25.0,
        "lerpPattern": 6,
        "cameraBlendType": "EaseInOutCubic",
        "MDKBPBJCMHH": {},
        "targetNpcAlias": "",
        "PHGBNNGCJKJ": "",
        "NFILMKCFHEB": "",
        "BGPNGHDAECF": ""
      },
      {
        "$type": "MJFAIFFAGOF",
        "type": "DIALOG",
        "aliasList": [
          "10093"
        ],
        "actionId": 195,
        "dialogID": 102010410,
        "protectTime": 0.5
      },
      {
        "$type": "EDCHPJLDKIN",
        "type": "BODY_LANG",
        "delayTime": 0.4000000059604645,
        "aliasList": [
          "10090"
        ],
        "actionId": 247,
        "isContinue": true,
        "eventPatternSuiteKey": ""
      }
    ],
    [
      {
        "$type": "MJFAIFFAGOF",
        "type": "DIALOG",
        "aliasList": [
          "10093"
        ],
        "actionId": 196,
        "dialogID": 102010411,
        "protectTime": 0.10000000149011612
      }
    ],
    [
      {
        "$type": "MoleMole.Config.ConfigLuaAction",
        "type": "LUA_ACTION",
        "duration": 1.0,
        "actionId": 113,
        "invoke": true,
        "invokeAlias": "10201",
        "invokeParam": 3
      },
      {
        "$type": "EFHODGEJOHJ",
        "type": "CAMERA_MOVE",
        "duration": 1.0,
        "actionId": 145,
        "camPosOffset": {
          "x": 193.74099731445312,
          "y": 50.354000091552734,
          "z": 191.3939971923828
        },
        "camForwardTargetOffset": {
          "x": 193.1510009765625,
          "y": 50.71699905395508,
          "z": 192.11599731445312
        },
        "camFov": 35.0,
        "lerpPattern": 6,
        "cameraBlendType": "EaseInOutCubic",
        "MDKBPBJCMHH": {},
        "targetNpcAlias": "",
        "PHGBNNGCJKJ": "",
        "NFILMKCFHEB": "",
        "BGPNGHDAECF": ""
      },
      {
        "$type": "MoleMole.Config.ConfigCameraDOFAction",
        "type": "CAMERA_DOF",
        "actionId": 147
      },
      {
        "$type": "MJFAIFFAGOF",
        "type": "DIALOG",
        "duration": 3.0,
        "aliasList": [
          "10093"
        ],
        "actionId": 197,
        "dialogID": 102010412,
        "protectTime": 3.0
      },
      {
        "$type": "MoleMole.Config.ConfigVisibleInterAction",
        "type": "VISIBLE",
        "aliasList": [
          "10091"
        ],
        "actionId": 269,
        "_extraParam": ""
      },
      {
        "$type": "EFHODGEJOHJ",
        "type": "CAMERA_MOVE",
        "delayTime": 0.4000000059604645,
        "duration": 1.0,
        "actionId": 146,
        "camPosOffset": {
          "x": 194.16900634765625,
          "y": 50.12099838256836,
          "z": 190.8990020751953
        },
        "camForwardTargetOffset": {
          "x": 193.58299255371094,
          "y": 50.470001220703125,
          "z": 191.6300048828125
        },
        "camFov": 35.0,
        "MDKBPBJCMHH": {},
        "targetNpcAlias": "",
        "PHGBNNGCJKJ": "",
        "NFILMKCFHEB": "",
        "BGPNGHDAECF": ""
      },
      {
        "$type": "MoleMole.Config.ConfigCameraShakeAction",
        "type": "CAMERA_SHAKE",
        "delayTime": 0.4000000059604645,
        "duration": 1.0,
        "actionId": 148,
        "shakeRange": 1.0,
        "shakeTime": 5.0,
        "shakeDinstance": 1.0,
        "_shakeDir": {
          "x": 0.20000000298023224,
          "y": 1.0,
          "z": 2.0
        },
        "randomSetting": {
          "energyCurve": {}
        }
      }
    ],
    [
      {
        "$type": "MoleMole.Config.ConfigBlackScreenAction",
        "type": "BLACK_SCREEN",
        "duration": 3.0,
        "actionId": 151,
        "durationToBlack": 0.800000011920929,
        "durationKeepBlack": 1.399999976158142,
        "durationFromBlack": 0.800000011920929,
        "inteePos": "",
        "textMapID": ""
      },
      {
        "$type": "MoleMole.Config.ConfigTimeProtectAction",
        "type": "TIME_PROTECT",
        "duration": 2.0,
        "actionId": 153
      },
      {
        "$type": "MJFAIFFAGOF",
        "type": "DIALOG_CLEAR",
        "delayTime": 0.4000000059604645,
        "actionId": 152
      },
      {
        "$type": "MoleMole.Config.ConfigMoveToAction",
        "type": "MOVE_TO",
        "delayTime": 0.8999999761581421,
        "duration": 0.10000000149011612,
        "aliasList": [
          "Avatar"
        ],
        "actionId": 178,
        "routeList": [
          {
            "x": 191.2449951171875,
            "y": 50.0099983215332,
            "z": 193.23599243164062
          }
        ],
        "_bindMovingTargetKey": ""
      },
      {
        "$type": "MoleMole.Config.ConfigMoveToAction",
        "type": "MOVE_TO",
        "delayTime": 0.8999999761581421,
        "duration": 0.10000000149011612,
        "aliasList": [
          "1005"
        ],
        "actionId": 208,
        "routeList": [
          {
            "x": 191.96200561523438,
            "y": 50.0369987487793,
            "z": 193.30499267578125
          }
        ],
        "_bindMovingTargetKey": ""
      },
      {
        "$type": "MoleMole.Config.ConfigMoveToAction",
        "type": "MOVE_TO",
        "delayTime": 0.8999999761581421,
        "duration": 0.10000000149011612,
        "aliasList": [
          "10090"
        ],
        "actionId": 248,
        "routeList": [
          {
            "x": 190.10400390625,
            "y": 50.0369987487793,
            "z": 193.6580047607422
          }
        ],
        "_bindMovingTargetKey": ""
      },
      {
        "$type": "EFHODGEJOHJ",
        "type": "CAMERA_MOVE",
        "delayTime": 1.0,
        "duration": 1.0,
        "actionId": 149,
        "camPosOffset": {
          "x": 194.8040008544922,
          "y": 52.527000427246094,
          "z": 195.1840057373047
        },
        "camForwardTargetOffset": {
          "x": 193.95199584960938,
          "y": 52.16299819946289,
          "z": 194.8070068359375
        },
        "camFov": 20.0,
        "lerpPattern": 6,
        "cameraBlendType": "EaseInOutCubic",
        "MDKBPBJCMHH": {},
        "targetNpcAlias": "",
        "PHGBNNGCJKJ": "",
        "NFILMKCFHEB": "",
        "BGPNGHDAECF": ""
      },
      {
        "$type": "MoleMole.Config.ConfigCameraDOFAction",
        "type": "CAMERA_DOF",
        "delayTime": 1.0,
        "actionId": 150,
        "enabled": true,
        "focusDistance": 10.0,
        "focusRange": 10.0,
        "quality": 3
      },
      {
        "$type": "IEKHMHNHENB",
        "type": "STEER_TO",
        "delayTime": 1.0,
        "duration": 0.10000000149011612,
        "aliasList": [
          "Avatar"
        ],
        "actionId": 179,
        "steerDir": {
          "x": -0.9369999766349792,
          "y": -0.039000000804662704,
          "z": 0.34700000286102295
        },
        "targetNpcAlias": "",
        "fixInterNull": true,
        "BHGPHGNFCBF": ""
      },
      {
        "$type": "NPCNMEOCADD",
        "type": "LOOK_AT",
        "delayTime": 1.0,
        "aliasList": [
          "Avatar"
        ],
        "actionId": 180,
        "enableHead": true,
        "useTargetPos": true,
        "enableAbsolute": true,
        "targetPosition": {
          "x": 190.1300048828125,
          "y": 51.06999969482422,
          "z": 193.62899780273438
        },
        "headTurnTime": 0.4000000059604645,
        "targetNpcAlias": "",
        "targetNpcLookAtPoint": "",
        "BHGPHGNFCBF": ""
      },
      {
        "$type": "IEKHMHNHENB",
        "type": "STEER_TO",
        "delayTime": 1.0,
        "duration": 0.10000000149011612,
        "aliasList": [
          "1005"
        ],
        "actionId": 209,
        "steerDir": {
          "x": -0.9819999933242798,
          "y": -0.054999999701976776,
          "z": 0.17900000512599945
        },
        "targetNpcAlias": "",
        "fixInterNull": true,
        "BHGPHGNFCBF": ""
      },
      {
        "$type": "NPCNMEOCADD",
        "type": "LOOK_AT",
        "delayTime": 1.0,
        "aliasList": [
          "1005"
        ],
        "actionId": 210,
        "enableHead": true,
        "useTargetPos": true,
        "enableAbsolute": true,
        "targetPosition": {
          "x": 190.1300048828125,
          "y": 51.06999969482422,
          "z": 193.62899780273438
        },
        "headTurnTime": 0.4000000059604645,
        "targetNpcAlias": "",
        "targetNpcLookAtPoint": "",
        "BHGPHGNFCBF": ""
      },
      {
        "$type": "IEKHMHNHENB",
        "type": "STEER_TO",
        "delayTime": 1.0,
        "duration": 0.10000000149011612,
        "aliasList": [
          "10090"
        ],
        "actionId": 249,
        "steerDir": {
          "x": 0.9750000238418579,
          "y": -0.004999999888241291,
          "z": -0.22200000286102295
        },
        "targetNpcAlias": "",
        "fixInterNull": true,
        "BHGPHGNFCBF": ""
      },
      {
        "$type": "NPCNMEOCADD",
        "type": "LOOK_AT",
        "delayTime": 1.0,
        "aliasList": [
          "10090"
        ],
        "actionId": 250,
        "enableHead": true,
        "useTargetPos": true,
        "enableAbsolute": true,
        "targetPosition": {
          "x": 191.12399291992188,
          "y": 51.27000045776367,
          "z": 193.3090057373047
        },
        "headTurnTime": 0.4000000059604645,
        "targetNpcAlias": "",
        "targetNpcLookAtPoint": "",
        "BHGPHGNFCBF": ""
      }
    ],
    [
      {
        "$type": "EFHODGEJOHJ",
        "type": "CAMERA_MOVE",
        "duration": 1.0,
        "actionId": 154,
        "camPosOffset": {
          "x": 194.69700622558594,
          "y": 52.48099899291992,
          "z": 195.13999938964844
        },
        "camForwardTargetOffset": {
          "x": 193.83599853515625,
          "y": 52.11399841308594,
          "z": 194.78700256347656
        },
        "camFov": 20.0,
        "cameraBlendType": "EaseInOutCubic",
        "MDKBPBJCMHH": {},
        "targetNpcAlias": "",
        "PHGBNNGCJKJ": "",
        "NFILMKCFHEB": "",
        "BGPNGHDAECF": ""
      },
      {
        "$type": "MJFAIFFAGOF",
        "type": "DIALOG",
        "aliasList": [
          "10090"
        ],
        "actionId": 251,
        "dialogID": 102010501,
        "protectTime": 0.5
      },
      {
        "$type": "EDCHPJLDKIN",
        "type": "BODY_LANG",
        "aliasList": [
          "10090"
        ],
        "actionId": 252,
        "bodyLangParam": 1040,
        "eventPatternSuiteKey": ""
      },
      {
        "$type": "ICHLNKHGCAG",
        "type": "EMO_SYNC",
        "aliasList": [
          "10090"
        ],
        "actionId": 253,
        "dataPath": "Cs_Emo_Avatar_Simple_Common_Set/Cs_Emo_Avatar_Talk/Cs_Emo_Avatar_PersonalLine/Cs_Emo_Avatar_Klee/Cs_Emo_102010501",
        "phonemePath": "",
        "emotionPath": "",
        "mateDataPath": "",
        "matePhonemePath": "",
        "mateEmotionPath": "",
        "dataPathHashList": [
          2551057510491188427,
          12318969807082614751,
          17489370216985907580,
          6847784712025398297
        ],
        "PACNIGOOENN": "",
        "PIBDNPHIAGC": ""
      }
    ],
    [
      {
        "$type": "EFHODGEJOHJ",
        "type": "CAMERA_MOVE",
        "duration": 1.0,
        "actionId": 155,
        "camPosOffset": {
          "x": 191.08700561523438,
          "y": 51.25,
          "z": 193.20899963378906
        },
        "camForwardTargetOffset": {
          "x": 190.24000549316406,
          "y": 50.9370002746582,
          "z": 193.63800048828125
        },
        "lerpPattern": 6,
        "cameraBlendType": "EaseInOutCubic",
        "MDKBPBJCMHH": {},
        "targetNpcAlias": "",
        "PHGBNNGCJKJ": "",
        "NFILMKCFHEB": "",
        "BGPNGHDAECF": ""
      },
      {
        "$type": "MJFAIFFAGOF",
        "type": "DIALOG",
        "aliasList": [
          "10090"
        ],
        "actionId": 254,
        "dialogID": 102010502,
        "protectTime": 0.5
      },
      {
        "$type": "EDCHPJLDKIN",
        "type": "BODY_LANG",
        "aliasList": [
          "10090"
        ],
        "actionId": 255,
        "bodyLangParam": 1190,
        "eventPatternSuiteKey": ""
      },
      {
        "$type": "NPCNMEOCADD",
        "type": "LOOK_AT",
        "aliasList": [
          "10090"
        ],
        "actionId": 256,
        "targetPosition": {
          "x": 191.16400146484375,
          "y": 51.3120002746582,
          "z": 193.27200317382812
        },
        "headRotateVec": {
          "x": -30.0,
          "y": 30.0
        },
        "headTurnTime": 0.4000000059604645,
        "targetNpcAlias": "",
        "targetNpcLookAtPoint": "",
        "BHGPHGNFCBF": ""
      },
      {
        "$type": "ICHLNKHGCAG",
        "type": "EMO_SYNC",
        "aliasList": [
          "10090"
        ],
        "actionId": 257,
        "dataPath": "Cs_Emo_Avatar_Simple_Common_Set/Cs_Emo_Avatar_Talk/Cs_Emo_Avatar_PersonalLine/Cs_Emo_Avatar_Klee/Cs_Emo_102010502",
        "phonemePath": "",
        "emotionPath": "",
        "mateDataPath": "",
        "matePhonemePath": "",
        "mateEmotionPath": "",
        "dataPathHashList": [
          14818132699595750540,
          17512303297140433986,
          2623826881780411769,
          2541080161901185261
        ],
        "PACNIGOOENN": "",
        "PIBDNPHIAGC": ""
      }
    ],
    [
      {
        "$type": "EFHODGEJOHJ",
        "type": "CAMERA_MOVE",
        "duration": 2.0,
        "actionId": 156,
        "camPosOffset": {
          "x": 191.08700561523438,
          "y": 51.25,
          "z": 193.20899963378906
        },
        "camForwardTargetOffset": {
          "x": 190.26600646972656,
          "y": 50.88600158691406,
          "z": 193.64999389648438
        },
        "cameraBlendType": "EaseInOutCubic",
        "MDKBPBJCMHH": {},
        "targetNpcAlias": "",
        "PHGBNNGCJKJ": "",
        "NFILMKCFHEB": "",
        "BGPNGHDAECF": ""
      },
      {
        "$type": "MJFAIFFAGOF",
        "type": "DIALOG",
        "aliasList": [
          "10090"
        ],
        "actionId": 258,
        "dialogID": 102010503,
        "protectTime": 0.5
      },
      {
        "$type": "NPCNMEOCADD",
        "type": "LOOK_AT",
        "aliasList": [
          "10090"
        ],
        "actionId": 259,
        "targetPosition": {
          "x": 191.16400146484375,
          "y": 51.3120002746582,
          "z": 193.27200317382812
        },
        "headRotateVec": {
          "y": 45.0
        },
        "headTurnTime": 0.4000000059604645,
        "targetNpcAlias": "",
        "targetNpcLookAtPoint": "",
        "BHGPHGNFCBF": ""
      },
      {
        "$type": "EDCHPJLDKIN",
        "type": "BODY_LANG",
        "aliasList": [
          "10090"
        ],
        "actionId": 260,
        "bodyLangParam": 1160,
        "eventPatternSuiteKey": ""
      },
      {
        "$type": "ICHLNKHGCAG",
        "type": "EMO_SYNC",
        "aliasList": [
          "10090"
        ],
        "actionId": 261,
        "dataPath": "Cs_Emo_Avatar_Simple_Common_Set/Cs_Emo_Avatar_Talk/Cs_Emo_Avatar_PersonalLine/Cs_Emo_Avatar_Klee/Cs_Emo_102010503",
        "phonemePath": "",
        "emotionPath": "",
        "mateDataPath": "",
        "matePhonemePath": "",
        "mateEmotionPath": "",
        "enableBlink": false,
        "dataPathHashList": [
          8318941811845237209,
          7177028280381197179,
          13633004819745877176,
          15613112626251275017
        ],
        "PACNIGOOENN": "",
        "PIBDNPHIAGC": ""
      }
    ],
    [
      {
        "$type": "MoleMole.Config.ConfigTimeProtectAction",
        "type": "TIME_PROTECT",
        "duration": 4.0,
        "actionId": 157
      },
      {
        "$type": "EFHODGEJOHJ",
        "type": "CAMERA_MOVE",
        "duration": 1.0,
        "actionId": 160,
        "camPosOffset": {
          "x": 194.69700622558594,
          "y": 52.48099899291992,
          "z": 195.13999938964844
        },
        "camForwardTargetOffset": {
          "x": 193.83599853515625,
          "y": 52.11399841308594,
          "z": 194.78700256347656
        },
        "camFov": 20.0,
        "lerpPattern": 6,
        "cameraBlendType": "EaseInOutCubic",
        "MDKBPBJCMHH": {},
        "targetNpcAlias": "",
        "PHGBNNGCJKJ": "",
        "NFILMKCFHEB": "",
        "BGPNGHDAECF": ""
      },
      {
        "$type": "EDCHPJLDKIN",
        "type": "BODY_LANG",
        "aliasList": [
          "10090"
        ],
        "actionId": 262,
        "isContinue": true,
        "eventPatternSuiteKey": ""
      },
      {
        "$type": "NPCNMEOCADD",
        "type": "LOOK_AT",
        "aliasList": [
          "10090"
        ],
        "actionId": 266,
        "enableHead": true,
        "targetPosition": {
          "x": 191.16400146484375,
          "y": 51.3120002746582,
          "z": 193.27200317382812
        },
        "headRotateVec": {
          "x": 20.0,
          "y": 20.0
        },
        "headTurnTime": 0.4000000059604645,
        "targetNpcAlias": "",
        "targetNpcLookAtPoint": "",
        "BHGPHGNFCBF": ""
      },
      {
        "$type": "ICHLNKHGCAG",
        "type": "EMO_SYNC",
        "aliasList": [
          "10090"
        ],
        "actionId": 267,
        "dataPath": "Cs_Emo_Avatar_Simple_Common_Set/Cs_Emo_Avatar_Common_Normal",
        "phonemePath": "",
        "emotionPath": "",
        "mateDataPath": "",
        "matePhonemePath": "",
        "mateEmotionPath": "",
        "dataPathHashList": [
          1254595151211172457,
          11740135046283525816,
          13690962357574067534,
          4569976534232268451
        ],
        "PACNIGOOENN": "",
        "PIBDNPHIAGC": ""
      },
      {
        "$type": "MJFAIFFAGOF",
        "type": "DIALOG_CLEAR",
        "delayTime": 0.6669999957084656,
        "actionId": 158
      },
      {
        "$type": "IEKHMHNHENB",
        "type": "STEER_TO",
        "delayTime": 0.8999999761581421,
        "duration": 1.0,
        "aliasList": [
          "10090"
        ],
        "actionId": 263,
        "steerDir": {
          "x": 0.008999999612569809,
          "z": -1.0
        },
        "useSteerAnim": true,
        "targetNpcAlias": "",
        "fixInterNull": true,
        "BHGPHGNFCBF": ""
      },
      {
        "$type": "NPCNMEOCADD",
        "type": "LOOK_AT",
        "delayTime": 0.8999999761581421,
        "aliasList": [
          "10090"
        ],
        "actionId": 265,
        "enableHead": true,
        "useTargetPos": true,
        "enableAbsolute": true,
        "targetPosition": {
          "x": 190.36700439453125,
          "y": 41.979000091552734,
          "z": 139.65199279785156
        },
        "headTurnTime": 0.4000000059604645,
        "targetNpcAlias": "",
        "targetNpcLookAtPoint": "",
        "BHGPHGNFCBF": ""
      },
      {
        "$type": "EFHODGEJOHJ",
        "type": "CAMERA_MOVE",
        "delayTime": 1.899999976158142,
        "duration": 2.0999999046325684,
        "actionId": 161,
        "camPosOffset": {
          "x": 194.69700622558594,
          "y": 52.48099899291992,
          "z": 195.13999938964844
        },
        "camForwardTargetOffset": {
          "x": 193.968994140625,
          "y": 52.137001037597656,
          "z": 194.5469970703125
        },
        "camFov": 20.0,
        "cameraBlendType": "EaseInOutCubic",
        "MDKBPBJCMHH": {},
        "targetNpcAlias": "",
        "PHGBNNGCJKJ": "",
        "NFILMKCFHEB": "",
        "BGPNGHDAECF": ""
      },
      {
        "$type": "MoleMole.Config.ConfigMoveToAction",
        "type": "MOVE_TO",
        "delayTime": 1.899999976158142,
        "duration": 2.0,
        "aliasList": [
          "10090"
        ],
        "actionId": 264,
        "moveType": "RUN",
        "routeList": [
          {
            "x": 190.36700439453125,
            "y": 41.979000091552734,
            "z": 139.65199279785156
          }
        ],
        "_bindMovingTargetKey": ""
      },
      {
        "$type": "NPCNMEOCADD",
        "type": "LOOK_AT",
        "delayTime": 2.5,
        "aliasList": [
          "Avatar"
        ],
        "actionId": 181,
        "enableHead": true,
        "useTargetPos": true,
        "enableAbsolute": true,
        "targetPosition": {
          "x": 190.36700439453125,
          "y": 41.979000091552734,
          "z": 139.65199279785156
        },
        "headTurnTime": 1.0,
        "targetNpcAlias": "",
        "targetNpcLookAtPoint": "",
        "BHGPHGNFCBF": ""
      },
      {
        "$type": "IEKHMHNHENB",
        "type": "STEER_TO",
        "delayTime": 2.5,
        "duration": 1.0,
        "aliasList": [
          "Avatar"
        ],
        "actionId": 182,
        "steerDir": {
          "x": -0.8159999847412109,
          "z": -0.578000009059906
        },
        "useSteerAnim": true,
        "targetNpcAlias": "",
        "fixInterNull": true,
        "BHGPHGNFCBF": ""
      },
      {
        "$type": "NPCNMEOCADD",
        "type": "LOOK_AT",
        "delayTime": 2.5,
        "aliasList": [
          "1005"
        ],
        "actionId": 211,
        "enableHead": true,
        "useTargetPos": true,
        "enableAbsolute": true,
        "targetPosition": {
          "x": 190.36700439453125,
          "y": 41.979000091552734,
          "z": 139.65199279785156
        },
        "headTurnTime": 1.0,
        "targetNpcAlias": "",
        "targetNpcLookAtPoint": "",
        "BHGPHGNFCBF": ""
      },
      {
        "$type": "IEKHMHNHENB",
        "type": "STEER_TO",
        "delayTime": 2.5,
        "duration": 2.0,
        "aliasList": [
          "1005"
        ],
        "actionId": 212,
        "steerDir": {
          "x": -0.5059999823570251,
          "z": -0.8619999885559082
        },
        "targetNpcAlias": "",
        "fixInterNull": true,
        "BHGPHGNFCBF": ""
      },
      {
        "$type": "MoleMole.Config.ConfigBlackScreenAction",
        "type": "BLACK_SCREEN",
        "delayTime": 3.200000047683716,
        "duration": 0.800000011920929,
        "actionId": 159,
        "blackScreenType": "TO_BLACK",
        "durationToBlack": 0.800000011920929,
        "inteePos": "",
        "textMapID": ""
      }
    ],
    [
      {
        "$type": "MoleMole.Config.ConfigBlackScreenAction",
        "type": "BLACK_SCREEN",
        "duration": 2.0,
        "actionId": 162,
        "blackScreenType": "KEEP_BLACK",
        "durationKeepBlack": 2.0,
        "inteePos": "",
        "textMapID": ""
      },
      {
        "$type": "MoleMole.Config.ConfigTimeProtectAction",
        "type": "TIME_PROTECT",
        "duration": 2.0,
        "actionId": 163
      },
      {
        "$type": "EFHODGEJOHJ",
        "type": "CAMERA_MOVE",
        "duration": 1.0,
        "actionId": 164,
        "camPosOffset": {
          "x": 190.0019989013672,
          "y": 51.4109992980957,
          "z": 191.4550018310547
        },
        "camForwardTargetOffset": {
          "x": 190.66400146484375,
          "y": 51.34400177001953,
          "z": 192.20199584960938
        },
        "camFov": 20.0,
        "lerpPattern": 6,
        "cameraBlendType": "EaseInOutCubic",
        "MDKBPBJCMHH": {},
        "targetNpcAlias": "",
        "PHGBNNGCJKJ": "",
        "NFILMKCFHEB": "",
        "BGPNGHDAECF": ""
      },
      {
        "$type": "IEKHMHNHENB",
        "type": "STEER_TO",
        "duration": 0.10000000149011612,
        "aliasList": [
          "Avatar"
        ],
        "actionId": 183,
        "steerDir": {
          "x": 0.8569999933242798,
          "z": -0.515999972820282
        },
        "targetNpcAlias": "",
        "fixInterNull": true,
        "BHGPHGNFCBF": ""
      },
      {
        "$type": "IEKHMHNHENB",
        "type": "STEER_TO",
        "duration": 0.10000000149011612,
        "aliasList": [
          "1005"
        ],
        "actionId": 213,
        "steerDir": {
          "x": -0.8069999814033508,
          "z": -0.5910000205039978
        },
        "targetNpcAlias": "",
        "fixInterNull": true,
        "BHGPHGNFCBF": ""
      },
      {
        "$type": "ICHLNKHGCAG",
        "type": "EMO_SYNC",
        "aliasList": [
          "1005"
        ],
        "actionId": 215,
        "dataPath": "Cs_Emo_Avatar_Simple_Common_Set/Cs_Emo_Avatar_Paimon/Cs_Emo_Pet_Paimon_Normal_01",
        "phonemePath": "",
        "emotionPath": "",
        "mateDataPath": "",
        "matePhonemePath": "",
        "mateEmotionPath": "",
        "dataPathHashList": [
          2327328236696044360,
          12338418010740210543,
          5776394525372018320,
          8916958471179128575
        ],
        "PACNIGOOENN": "",
        "PIBDNPHIAGC": ""
      },
      {
        "$type": "MoleMole.Config.ConfigVisibleInterAction",
        "type": "VISIBLE",
        "aliasList": [
          "10090"
        ],
        "actionId": 268,
        "_extraParam": ""
      },
      {
        "$type": "NPCNMEOCADD",
        "type": "LOOK_AT",
        "delayTime": 0.10000000149011612,
        "aliasList": [
          "Avatar"
        ],
        "actionId": 184,
        "enableHead": true,
        "useTargetPos": true,
        "enableAbsolute": true,
        "targetPosition": {
          "x": 191.88099670410156,
          "y": 51.36199951171875,
          "z": 193.302001953125
        },
        "headTurnTime": 0.4000000059604645,
        "targetNpcAlias": "",
        "targetNpcLookAtPoint": "",
        "BHGPHGNFCBF": ""
      },
      {
        "$type": "NPCNMEOCADD",
        "type": "LOOK_AT",
        "delayTime": 0.10000000149011612,
        "aliasList": [
          "1005"
        ],
        "actionId": 214,
        "enableHead": true,
        "useTargetPos": true,
        "enableAbsolute": true,
        "targetPosition": {
          "x": 191.3679962158203,
          "y": 51.41299819946289,
          "z": 193.18299865722656
        },
        "headTurnTime": 0.4000000059604645,
        "targetNpcAlias": "",
        "targetNpcLookAtPoint": "",
        "BHGPHGNFCBF": ""
      }
    ],
    [
      {
        "$type": "MoleMole.Config.ConfigBlackScreenAction",
        "type": "BLACK_SCREEN",
        "duration": 0.800000011920929,
        "actionId": 165,
        "blackScreenType": "FROM_BLACK",
        "durationFromBlack": 0.800000011920929,
        "inteePos": "",
        "textMapID": ""
      },
      {
        "$type": "MoleMole.Config.ConfigTimeProtectAction",
        "type": "TIME_PROTECT",
        "duration": 0.5,
        "actionId": 166
      },
      {
        "$type": "MJFAIFFAGOF",
        "type": "DIALOG",
        "delayTime": 0.4000000059604645,
        "aliasList": [
          "1005"
        ],
        "actionId": 216,
        "dialogID": 102010504,
        "protectTime": 0.5
      },
      {
        "$type": "ICHLNKHGCAG",
        "type": "EMO_SYNC",
        "delayTime": 0.4000000059604645,
        "aliasList": [
          "1005"
        ],
        "actionId": 218,
        "dataPath": "Cs_Emo_Avatar_Simple_Common_Set/Cs_Emo_Avatar_Talk/Cs_Emo_Avatar_PersonalLine/Cs_Emo_Avatar_Klee/Cs_Emo_102010504",
        "phonemePath": "",
        "emotionPath": "",
        "mateDataPath": "",
        "matePhonemePath": "",
        "mateEmotionPath": "",
        "dataPathHashList": [
          17159943430198504089,
          952685103868023385,
          12446608552320175260,
          3726774588330576999
        ],
        "PACNIGOOENN": "",
        "PIBDNPHIAGC": ""
      },
      {
        "$type": "EFHODGEJOHJ",
        "type": "CAMERA_MOVE",
        "delayTime": 0.800000011920929,
        "duration": 1.0,
        "actionId": 167,
        "camPosOffset": {
          "x": 190.03500366210938,
          "y": 51.40800094604492,
          "z": 191.49099731445312
        },
        "camForwardTargetOffset": {
          "x": 190.70799255371094,
          "y": 51.3380012512207,
          "z": 192.22799682617188
        },
        "camFov": 20.0,
        "cameraBlendType": "EaseInOutCubic",
        "MDKBPBJCMHH": {},
        "targetNpcAlias": "",
        "PHGBNNGCJKJ": "",
        "NFILMKCFHEB": "",
        "BGPNGHDAECF": ""
      },
      {
        "$type": "EDCHPJLDKIN",
        "type": "BODY_LANG",
        "delayTime": 0.800000011920929,
        "aliasList": [
          "1005"
        ],
        "actionId": 217,
        "bodyLangParam": 1120,
        "eventPatternSuiteKey": ""
      }
    ],
    [
      {
        "$type": "MJFAIFFAGOF",
        "type": "DIALOG",
        "aliasList": [
          "1005"
        ],
        "actionId": 219,
        "dialogID": 102010505,
        "protectTime": 0.5
      },
      {
        "$type": "ICHLNKHGCAG",
        "type": "EMO_SYNC",
        "aliasList": [
          "1005"
        ],
        "actionId": 220,
        "dataPath": "Cs_Emo_Avatar_Simple_Common_Set/Cs_Emo_Avatar_Talk/Cs_Emo_Avatar_PersonalLine/Cs_Emo_Avatar_Klee/Cs_Emo_102010505",
        "phonemePath": "",
        "emotionPath": "",
        "mateDataPath": "",
        "matePhonemePath": "",
        "mateEmotionPath": "",
        "dataPathHashList": [
          1616458162802043429,
          706530432771404334,
          10959860895474944964,
          18061332057909541258
        ],
        "PACNIGOOENN": "",
        "PIBDNPHIAGC": ""
      },
      {
        "$type": "OBCDECFOOBC",
        "type": "DIALOG_SELECT",
        "delayTime": 0.4000000059604645,
        "aliasList": [
          "Avatar"
        ],
        "actionId": 185,
        "dialogIDList": [
          102010506,
          102010507
        ],
        "grpIDList": [
          2947321996,
          2947321996
        ],
        "useGrpId": true,
        "countDownGrpId": 649264228
      }
    ],
    [
      {
        "$type": "MJFAIFFAGOF",
        "type": "DIALOG",
        "aliasList": [
          "1005"
        ],
        "actionId": 221,
        "dialogID": 102010508,
        "protectTime": 0.5
      },
      {
        "$type": "EDCHPJLDKIN",
        "type": "BODY_LANG",
        "aliasList": [
          "1005"
        ],
        "actionId": 222,
        "bodyLangParam": 1110,
        "eventPatternSuiteKey": ""
      },
      {
        "$type": "ICHLNKHGCAG",
        "type": "EMO_SYNC",
        "aliasList": [
          "1005"
        ],
        "actionId": 224,
        "dataPath": "Cs_Emo_Avatar_Simple_Common_Set/Cs_Emo_Avatar_Talk/Cs_Emo_Avatar_PersonalLine/Cs_Emo_Avatar_Klee/Cs_Emo_102010508",
        "phonemePath": "",
        "emotionPath": "",
        "mateDataPath": "",
        "matePhonemePath": "",
        "mateEmotionPath": "",
        "dataPathHashList": [
          2016319653290961234,
          14077635546885584593,
          7883489852253854777,
          3397235949191318481
        ],
        "PACNIGOOENN": "",
        "PIBDNPHIAGC": ""
      },
      {
        "$type": "EDCHPJLDKIN",
        "type": "BODY_LANG",
        "delayTime": 2.0,
        "aliasList": [
          "1005"
        ],
        "actionId": 223,
        "isContinue": true,
        "eventPatternSuiteKey": ""
      }
    ],
    [
      {
        "$type": "MJFAIFFAGOF",
        "type": "DIALOG",
        "aliasList": [
          "1005"
        ],
        "actionId": 225,
        "dialogID": 102010509,
        "protectTime": 0.5
      },
      {
        "$type": "EDCHPJLDKIN",
        "type": "BODY_LANG",
        "aliasList": [
          "1005"
        ],
        "actionId": 226,
        "bodyLangParam": 1130,
        "eventPatternSuiteKey": ""
      },
      {
        "$type": "ICHLNKHGCAG",
        "type": "EMO_SYNC",
        "aliasList": [
          "1005"
        ],
        "actionId": 227,
        "dataPath": "Cs_Emo_Avatar_Simple_Common_Set/Cs_Emo_Avatar_Talk/Cs_Emo_Avatar_PersonalLine/Cs_Emo_Avatar_Klee/Cs_Emo_102010509",
        "phonemePath": "",
        "emotionPath": "",
        "mateDataPath": "",
        "matePhonemePath": "",
        "mateEmotionPath": "",
        "dataPathHashList": [
          16198594376571088018,
          5545290490243036685,
          6542547882058014094,
          552649153254907309
        ],
        "PACNIGOOENN": "",
        "PIBDNPHIAGC": ""
      }
    ],
    [
      {
        "$type": "MJFAIFFAGOF",
        "type": "DIALOG",
        "aliasList": [
          "1005"
        ],
        "actionId": 228,
        "dialogID": 102010510,
        "protectTime": 0.5
      },
      {
        "$type": "NPCNMEOCADD",
        "type": "LOOK_AT",
        "aliasList": [
          "1005"
        ],
        "actionId": 230,
        "enableHead": true,
        "useTargetPos": true,
        "enableAbsolute": true,
        "targetPosition": {
          "x": 190.36700439453125,
          "y": 41.979000091552734,
          "z": 139.65199279785156
        },
        "headTurnTime": 0.5,
        "targetNpcAlias": "",
        "targetNpcLookAtPoint": "",
        "BHGPHGNFCBF": ""
      },
      {
        "$type": "ICHLNKHGCAG",
        "type": "EMO_SYNC",
        "aliasList": [
          "1005"
        ],
        "actionId": 231,
        "dataPath": "Cs_Emo_Avatar_Simple_Common_Set/Cs_Emo_Avatar_Talk/Cs_Emo_Avatar_PersonalLine/Cs_Emo_Avatar_Klee/Cs_Emo_102010510",
        "phonemePath": "",
        "emotionPath": "",
        "mateDataPath": "",
        "matePhonemePath": "",
        "mateEmotionPath": "",
        "dataPathHashList": [
          7975741893039681390,
          10961456569053887142,
          10033211605214114129,
          9846771538890176800
        ],
        "PACNIGOOENN": "",
        "PIBDNPHIAGC": ""
      },
      {
        "$type": "OBCDECFOOBC",
        "type": "DIALOG_SELECT",
        "delayTime": 0.4000000059604645,
        "aliasList": [
          "Avatar"
        ],
        "actionId": 186,
        "dialogIDList": [
          102010511,
          102010512
        ],
        "grpIDList": [
          2947321999,
          2947321999
        ],
        "useGrpId": true,
        "countDownGrpId": 649264228
      },
      {
        "$type": "EDCHPJLDKIN",
        "type": "BODY_LANG",
        "delayTime": 0.4000000059604645,
        "aliasList": [
          "1005"
        ],
        "actionId": 229,
        "bodyLangParam": 1120,
        "eventPatternSuiteKey": ""
      }
    ],
    [
      {
        "$type": "MJFAIFFAGOF",
        "type": "DIALOG",
        "aliasList": [
          "1005"
        ],
        "actionId": 232,
        "dialogID": 102010513,
        "protectTime": 0.5
      },
      {
        "$type": "NPCNMEOCADD",
        "type": "LOOK_AT",
        "aliasList": [
          "1005"
        ],
        "actionId": 233,
        "enableHead": true,
        "useTargetPos": true,
        "enableAbsolute": true,
        "targetPosition": {
          "x": 191.3679962158203,
          "y": 51.41299819946289,
          "z": 193.18299865722656
        },
        "headTurnTime": 0.4000000059604645,
        "targetNpcAlias": "",
        "targetNpcLookAtPoint": "",
        "BHGPHGNFCBF": ""
      },
      {
        "$type": "ICHLNKHGCAG",
        "type": "EMO_SYNC",
        "aliasList": [
          "1005"
        ],
        "actionId": 234,
        "dataPath": "Cs_Emo_Avatar_Simple_Common_Set/Cs_Emo_Avatar_Talk/Cs_Emo_Avatar_PersonalLine/Cs_Emo_Avatar_Klee/Cs_Emo_102010513",
        "phonemePath": "",
        "emotionPath": "",
        "mateDataPath": "",
        "matePhonemePath": "",
        "mateEmotionPath": "",
        "dataPathHashList": [
          17973232131307030162,
          15913617137414452698,
          14176987883213907005,
          10519616929983344140
        ],
        "PACNIGOOENN": "",
        "PIBDNPHIAGC": ""
      }
    ],
    [
      {
        "$type": "MJFAIFFAGOF",
        "type": "DIALOG",
        "aliasList": [
          "1005"
        ],
        "actionId": 235,
        "dialogID": 102010514,
        "protectTime": 0.5
      },
      {
        "$type": "EDCHPJLDKIN",
        "type": "BODY_LANG",
        "aliasList": [
          "1005"
        ],
        "actionId": 236,
        "bodyLangParam": 1170,
        "eventPatternSuiteKey": ""
      },
      {
        "$type": "ICHLNKHGCAG",
        "type": "EMO_SYNC",
        "aliasList": [
          "1005"
        ],
        "actionId": 238,
        "dataPath": "Cs_Emo_Avatar_Simple_Common_Set/Cs_Emo_Avatar_Talk/Cs_Emo_Avatar_PersonalLine/Cs_Emo_Avatar_Klee/Cs_Emo_102010514",
        "phonemePath": "",
        "emotionPath": "",
        "mateDataPath": "",
        "matePhonemePath": "",
        "mateEmotionPath": "",
        "dataPathHashList": [
          1137416311534040932,
          11657045754577075758,
          2422506630125859874,
          4241363117889985584
        ],
        "PACNIGOOENN": "",
        "PIBDNPHIAGC": ""
      },
      {
        "$type": "EDCHPJLDKIN",
        "type": "BODY_LANG",
        "delayTime": 2.0,
        "aliasList": [
          "1005"
        ],
        "actionId": 237,
        "isContinue": true,
        "eventPatternSuiteKey": ""
      }
    ],
    [
      {
        "$type": "MoleMole.Config.ConfigTimeProtectAction",
        "type": "TIME_PROTECT",
        "duration": 0.5,
        "actionId": 170
      },
      {
        "$type": "MoleMole.Config.ConfigSimpleBlackScreenAction",
        "type": "SIMPLE_BLACK_SCREEN",
        "actionId": 172,
        "durationToBlack": 0.4000000059604645,
        "durationKeepBlack": 0.5,
        "durationFromBlack": 0.4000000059604645,
        "textMapID": ""
      },
      {
        "$type": "EDCHPJLDKIN",
        "type": "BODY_LANG",
        "aliasList": [
          "1005"
        ],
        "actionId": 239,
        "isContinue": true,
        "eventPatternSuiteKey": ""
      },
      {
        "$type": "MJFAIFFAGOF",
        "type": "DIALOG_CLEAR",
        "delayTime": 0.30000001192092896,
        "actionId": 168
      },
      {
        "$type": "EFHODGEJOHJ",
        "type": "CAMERA_MOVE",
        "delayTime": 0.5,
        "duration": 0.10000000149011612,
        "actionId": 169,
        "cameraPosType": "EXIT",
        "camPosOffset": {
          "x": 191.1529998779297,
          "y": 51.70800018310547,
          "z": 196.63099670410156
        },
        "camForwardTargetOffset": {
          "x": 191.1719970703125,
          "y": 51.51900100708008,
          "z": 195.6490020751953
        },
        "lerpPattern": 6,
        "cameraBlendType": "EaseInOutCubic",
        "MDKBPBJCMHH": {},
        "targetNpcAlias": "",
        "PHGBNNGCJKJ": "",
        "NFILMKCFHEB": "",
        "BGPNGHDAECF": ""
      },
      {
        "$type": "MoleMole.Config.ConfigCameraDOFAction",
        "type": "CAMERA_DOF",
        "delayTime": 0.5,
        "actionId": 171
      },
      {
        "$type": "NPCNMEOCADD",
        "type": "LOOK_AT",
        "delayTime": 0.5,
        "aliasList": [
          "Avatar"
        ],
        "actionId": 187,
        "enableHead": true,
        "headTurnTime": 0.5,
        "targetNpcAlias": "",
        "targetNpcLookAtPoint": "",
        "BHGPHGNFCBF": ""
      }
    ]
  ],
  "groupId": [
    {
      "grpId": 649264229,
      "nextGrpId": 649264230
    },
    {
      "index": 1,
      "grpId": 649264230,
      "nextGrpId": 649264231
    },
    {
      "index": 2,
      "grpId": 649264231,
      "nextGrpId": 649264232
    },
    {
      "index": 3,
      "grpId": 649264232,
      "nextGrpId": 649264233
    },
    {
      "index": 4,
      "grpId": 649264233,
      "nextGrpId": 649264234
    },
    {
      "index": 5,
      "grpId": 649264234,
      "nextGrpId": 649264235
    },
    {
      "index": 6,
      "grpId": 649264235,
      "nextGrpId": 649264236
    },
    {
      "index": 7,
      "grpId": 649264236,
      "nextGrpId": 649264237
    },
    {
      "index": 8,
      "grpId": 649264237,
      "nextGrpId": 2947321963
    },
    {
      "index": 9,
      "grpId": 2947321963,
      "nextGrpId": 2947321964
    },
    {
      "index": 10,
      "grpId": 2947321964,
      "nextGrpId": 2947321965
    },
    {
      "index": 11,
      "grpId": 2947321965,
      "nextGrpId": 2947321966
    },
    {
      "index": 12,
      "grpId": 2947321966,
      "nextGrpId": 2947321967
    },
    {
      "index": 13,
      "grpId": 2947321967,
      "nextGrpId": 2947321968
    },
    {
      "index": 14,
      "grpId": 2947321968,
      "nextGrpId": 2947321969
    },
    {
      "index": 15,
      "grpId": 2947321969,
      "nextGrpId": 2947321970
    },
    {
      "index": 16,
      "grpId": 2947321970,
      "nextGrpId": 2947321971
    },
    {
      "index": 17,
      "grpId": 2947321971,
      "nextGrpId": 2947321972
    },
    {
      "index": 18,
      "grpId": 2947321972,
      "nextGrpId": 2947321994
    },
    {
      "index": 19,
      "grpId": 2947321994,
      "nextGrpId": 2947321995
    },
    {
      "index": 20,
      "grpId": 2947321995,
      "nextGrpId": 2947321996
    },
    {
      "index": 21,
      "grpId": 2947321996,
      "nextGrpId": 2947321997
    },
    {
      "index": 22,
      "grpId": 2947321997,
      "nextGrpId": 2947321998
    },
    {
      "index": 23,
      "grpId": 2947321998,
      "nextGrpId": 2947321999
    },
    {
      "index": 24,
      "grpId": 2947321999,
      "nextGrpId": 2947322000
    },
    {
      "index": 25,
      "grpId": 2947322000,
      "nextGrpId": 2947322001
    },
    {
      "index": 26,
      "grpId": 2947322001,
      "nextGrpId": 2947322002
    }
  ],
  "freeStyleDic": {
    "10090": [
      1060,
      1040,
      1190,
      1160
    ]
  }
}