{
  "luaDataPath": "",
  "isSimpleTalk": true,
  "entityBan": "",
  "startFade": {
    "startFadeInDuration": 0.4000000059604645,
    "startFadeOutDuration": 0.4000000059604645
  },
  "endFade": {
    "startFadeOutDuration": 0.0
  },
  "actors": [
    {
      "alias": "Avatar",
      "visible": true,
      "bornPointName": "Q1100506Player",
      "relativePosNpcAlias": "",
      "_bindMovingTargetKey": ""
    },
    {
      "configID": 153701,
      "alias": "153701",
      "visible": true,
      "bornPointName": "Q1100503Draff",
      "relativePosNpcAlias": "",
      "_bindMovingTargetKey": ""
    },
    {
      "configID": 1012,
      "alias": "1012",
      "visible": true,
      "bornPointName": "Q1100506XL",
      "relativePosNpcAlias": "",
      "_bindMovingTargetKey": ""
    },
    {
      "configID": 154101,
      "alias": "154101",
      "visible": true,
      "bornPointName": "Q1100502Brook",
      "relativePosNpcAlias": "",
      "_bindMovingTargetKey": ""
    },
    {
      "configID": 1005,
      "alias": "1005",
      "visible": true,
      "bornPointName": "Q1100506Paimon",
      "relativePosNpcAlias": "",
      "_bindMovingTargetKey": ""
    },
    {
      "configID": 163001,
      "alias": "163001",
      "visible": true,
      "bornPointName": "Q1100506Olaf",
      "relativePosNpcAlias": "",
      "_bindMovingTargetKey": ""
    },
    {
      "configID": 163101,
      "alias": "163101",
      "visible": true,
      "bornPointName": "Q1100502QG",
      "relativePosNpcAlias": "",
      "_bindMovingTargetKey": ""
    }
  ],
  "group": [
    [
      {
        "$type": "EFHODGEJOHJ",
        "type": "CAMERA_FOCUS",
        "targetNpcAlias": "",
        "PHGBNNGCJKJ": "",
        "NFILMKCFHEB": "",
        "BGPNGHDAECF": ""
      },
      {
        "$type": "NPCNMEOCADD",
        "type": "LOOK_AT",
        "aliasList": [
          "Avatar"
        ],
        "enableHead": true,
        "useTargetPos": true,
        "enableAbsolute": true,
        "headTurnTime": 0.3499999940395355,
        "targetNpcAlias": "",
        "targetNpcLookAtPoint": "",
        "BHGPHGNFCBF": ""
      },
      {
        "$type": "MJFAIFFAGOF",
        "type": "DIALOG",
        "aliasList": [
          "153701"
        ],
        "dialogID": 110051801
      },
      {
        "$type": "EDCHPJLDKIN",
        "type": "BODY_LANG",
        "aliasList": [
          "153701"
        ],
        "bodyLangParam": 1180,
        "eventPatternSuiteKey": ""
      },
      {
        "$type": "NPCNMEOCADD",
        "type": "LOOK_AT",
        "aliasList": [
          "153701"
        ],
        "enableHead": true,
        "useTargetPos": true,
        "enableAbsolute": true,
        "targetPosition": {
          "x": 1869.996337890625,
          "y": 240.28936767578125,
          "z": -869.7066040039062
        },
        "headTurnTime": 0.3499999940395355,
        "targetNpcAlias": "",
        "targetNpcLookAtPoint": "",
        "BHGPHGNFCBF": ""
      },
      {
        "$type": "ICHLNKHGCAG",
        "type": "EMO_SYNC",
        "aliasList": [
          "153701"
        ],
        "dataPath": "Cs_Emo_Avatar_Simple_Common_Set/Cs_Emo_Avatar_Talk/Cs_Emo_Avatar_PersonalLine/Cs_Emo_Avatar_XiangLing/Cs_Emo_110051801",
        "phonemePath": "",
        "emotionPath": "",
        "mateDataPath": "",
        "matePhonemePath": "",
        "mateEmotionPath": "",
        "dataPathHashList": [
          15035732471715280993,
          6538470738375976911,
          10299767967342141815,
          2989519949833931238
        ],
        "PACNIGOOENN": "",
        "PIBDNPHIAGC": ""
      },
      {
        "$type": "NPCNMEOCADD",
        "type": "LOOK_AT",
        "aliasList": [
          "1012"
        ],
        "enableHead": true,
        "useTargetPos": true,
        "enableAbsolute": true,
        "targetPosition": {
          "x": 1871.323486328125,
          "y": 240.77101135253906,
          "z": -867.6845092773438
        },
        "headTurnTime": 0.3499999940395355,
        "targetNpcAlias": "",
        "targetNpcLookAtPoint": "",
        "BHGPHGNFCBF": ""
      },
      {
        "$type": "EDCHPJLDKIN",
        "type": "BODY_LANG",
        "aliasList": [
          "1012"
        ],
        "bodyLangParam": 1230,
        "eventPatternSuiteKey": ""
      },
      {
        "$type": "NPCNMEOCADD",
        "type": "LOOK_AT",
        "aliasList": [
          "154101"
        ],
        "enableHead": true,
        "useTargetPos": true,
        "enableAbsolute": true,
        "targetPosition": {
          "x": 1869.996337890625,
          "y": 240.28936767578125,
          "z": -869.7066040039062
        },
        "headTurnTime": 0.3499999940395355,
        "targetNpcAlias": "",
        "targetNpcLookAtPoint": "",
        "BHGPHGNFCBF": ""
      },
      {
        "$type": "EDCHPJLDKIN",
        "type": "BODY_LANG",
        "aliasList": [
          "154101"
        ],
        "bodyLangParam": 1120,
        "eventPatternSuiteKey": ""
      },
      {
        "$type": "NPCNMEOCADD",
        "type": "LOOK_AT",
        "aliasList": [
          "1005"
        ],
        "enableHead": true,
        "useTargetPos": true,
        "enableAbsolute": true,
        "targetPosition": {
          "x": 1871.323486328125,
          "y": 240.77101135253906,
          "z": -867.6845092773438
        },
        "headTurnTime": 0.3499999940395355,
        "targetNpcAlias": "",
        "targetNpcLookAtPoint": "",
        "BHGPHGNFCBF": ""
      },
      {
        "$type": "EDCHPJLDKIN",
        "type": "BODY_LANG",
        "aliasList": [
          "1005"
        ],
        "bodyLangParam": 1090,
        "eventPatternSuiteKey": ""
      },
      {
        "$type": "NPCNMEOCADD",
        "type": "LOOK_AT",
        "aliasList": [
          "163001"
        ],
        "enableHead": true,
        "useTargetPos": true,
        "enableAbsolute": true,
        "targetPosition": {
          "x": 1869.996337890625,
          "y": 240.28936767578125,
          "z": -869.7066040039062
        },
        "headTurnTime": 0.3499999940395355,
        "targetNpcAlias": "",
        "targetNpcLookAtPoint": "",
        "BHGPHGNFCBF": ""
      },
      {
        "$type": "NPCNMEOCADD",
        "type": "LOOK_AT",
        "aliasList": [
          "163101"
        ],
        "enableHead": true,
        "useTargetPos": true,
        "enableAbsolute": true,
        "targetPosition": {
          "x": 1869.996337890625,
          "y": 240.28936767578125,
          "z": -869.7066040039062
        },
        "headTurnTime": 0.3499999940395355,
        "targetNpcAlias": "",
        "targetNpcLookAtPoint": "",
        "BHGPHGNFCBF": ""
      }
    ],
    [
      {
        "$type": "MJFAIFFAGOF",
        "type": "DIALOG",
        "aliasList": [
          "153701"
        ],
        "dialogID": 110051802
      },
      {
        "$type": "ICHLNKHGCAG",
        "type": "EMO_SYNC",
        "aliasList": [
          "153701"
        ],
        "dataPath": "Cs_Emo_Avatar_Simple_Common_Set/Cs_Emo_Avatar_Talk/Cs_Emo_Avatar_PersonalLine/Cs_Emo_Avatar_XiangLing/Cs_Emo_110051802",
        "phonemePath": "",
        "emotionPath": "",
        "mateDataPath": "",
        "matePhonemePath": "",
        "mateEmotionPath": "",
        "dataPathHashList": [
          10180752080152251321,
          7250215913738575724,
          11392825483951180747,
          15587413212949094367
        ],
        "PACNIGOOENN": "",
        "PIBDNPHIAGC": ""
      },
      {
        "$type": "NPCNMEOCADD",
        "type": "LOOK_AT",
        "delayTime": 0.40066659450531006,
        "aliasList": [
          "1012"
        ],
        "enableHead": true,
        "useTargetPos": true,
        "enableAbsolute": true,
        "targetPosition": {
          "x": 1870.1134033203125,
          "y": 240.67462158203125,
          "z": -867.8108520507812
        },
        "headTurnTime": 0.3499999940395355,
        "targetNpcAlias": "",
        "targetNpcLookAtPoint": "",
        "BHGPHGNFCBF": ""
      },
      {
        "$type": "NPCNMEOCADD",
        "type": "LOOK_AT",
        "delayTime": 0.3506664037704468,
        "aliasList": [
          "163001"
        ],
        "enableHead": true,
        "useTargetPos": true,
        "enableAbsolute": true,
        "targetPosition": {
          "x": 1871.323486328125,
          "y": 240.77101135253906,
          "z": -867.6845092773438
        },
        "headTurnTime": 0.3499999940395355,
        "targetNpcAlias": "",
        "targetNpcLookAtPoint": "",
        "BHGPHGNFCBF": ""
      },
      {
        "$type": "NPCNMEOCADD",
        "type": "LOOK_AT",
        "delayTime": 0.4256663918495178,
        "aliasList": [
          "163101"
        ],
        "enableHead": true,
        "useTargetPos": true,
        "enableAbsolute": true,
        "targetPosition": {
          "x": 1871.323486328125,
          "y": 240.77101135253906,
          "z": -867.6845092773438
        },
        "headTurnTime": 0.3499999940395355,
        "targetNpcAlias": "",
        "targetNpcLookAtPoint": "",
        "BHGPHGNFCBF": ""
      }
    ],
    [
      {
        "$type": "MJFAIFFAGOF",
        "type": "DIALOG",
        "aliasList": [
          "153701"
        ],
        "dialogID": 110051803,
        "protectTime": 1.0
      },
      {
        "$type": "EDCHPJLDKIN",
        "type": "BODY_LANG",
        "aliasList": [
          "153701"
        ],
        "isContinue": true,
        "eventPatternSuiteKey": ""
      },
      {
        "$type": "EDCHPJLDKIN",
        "type": "BODY_LANG",
        "delayTime": 0.699999988079071,
        "aliasList": [
          "153701"
        ],
        "bodyLangParam": 1130,
        "eventPatternSuiteKey": ""
      },
      {
        "$type": "ICHLNKHGCAG",
        "type": "EMO_SYNC",
        "aliasList": [
          "153701"
        ],
        "dataPath": "Cs_Emo_Avatar_Simple_Common_Set/Cs_Emo_Avatar_Talk/Cs_Emo_Avatar_PersonalLine/Cs_Emo_Avatar_XiangLing/Cs_Emo_110051803",
        "phonemePath": "",
        "emotionPath": "",
        "mateDataPath": "",
        "matePhonemePath": "",
        "mateEmotionPath": "",
        "dataPathHashList": [
          3608064937149962179,
          5372793562562508673,
          17547259709166552951,
          3163339356757260200
        ],
        "PACNIGOOENN": "",
        "PIBDNPHIAGC": ""
      },
      {
        "$type": "EDCHPJLDKIN",
        "type": "BODY_LANG",
        "aliasList": [
          "1012"
        ],
        "isContinue": true,
        "eventPatternSuiteKey": ""
      },
      {
        "$type": "EDCHPJLDKIN",
        "type": "BODY_LANG",
        "delayTime": 0.699999988079071,
        "aliasList": [
          "1012"
        ],
        "bodyLangParam": 1060,
        "eventPatternSuiteKey": ""
      },
      {
        "$type": "NPCNMEOCADD",
        "type": "LOOK_AT",
        "delayTime": 0.3263135552406311,
        "aliasList": [
          "1012"
        ],
        "enableHead": true,
        "useTargetPos": true,
        "enableAbsolute": true,
        "targetPosition": {
          "x": 1871.323486328125,
          "y": 240.77101135253906,
          "z": -867.6845092773438
        },
        "headTurnTime": 0.3499999940395355,
        "targetNpcAlias": "",
        "targetNpcLookAtPoint": "",
        "BHGPHGNFCBF": ""
      },
      {
        "$type": "NPCNMEOCADD",
        "type": "LOOK_AT",
        "delayTime": 0.30000004172325134,
        "aliasList": [
          "154101"
        ],
        "enableHead": true,
        "useTargetPos": true,
        "enableAbsolute": true,
        "targetPosition": {
          "x": 1871.323486328125,
          "y": 240.77101135253906,
          "z": -867.6845092773438
        },
        "headTurnTime": 0.3499999940395355,
        "targetNpcAlias": "",
        "targetNpcLookAtPoint": "",
        "BHGPHGNFCBF": ""
      },
      {
        "$type": "EDCHPJLDKIN",
        "type": "BODY_LANG",
        "delayTime": 0.4000000059604645,
        "aliasList": [
          "154101"
        ],
        "isContinue": true,
        "eventPatternSuiteKey": ""
      },
      {
        "$type": "EDCHPJLDKIN",
        "type": "BODY_LANG",
        "delayTime": 0.5083333253860474,
        "aliasList": [
          "1005"
        ],
        "bodyLangParam": 1060,
        "eventPatternSuiteKey": ""
      }
    ],
    [
      {
        "$type": "EDCHPJLDKIN",
        "type": "BODY_LANG",
        "delayTime": 0.983333170413971,
        "aliasList": [
          "Avatar"
        ],
        "bodyLangParam": 1260,
        "eventPatternSuiteKey": ""
      },
      {
        "$type": "MJFAIFFAGOF",
        "type": "DIALOG",
        "duration": 2.5,
        "aliasList": [
          "153701"
        ],
        "dialogID": 110051804,
        "protectTime": 2.5
      },
      {
        "$type": "EDCHPJLDKIN",
        "type": "BODY_LANG",
        "aliasList": [
          "153701"
        ],
        "isContinue": true,
        "eventPatternSuiteKey": ""
      },
      {
        "$type": "EDCHPJLDKIN",
        "type": "BODY_LANG",
        "delayTime": 1.0416666269302368,
        "aliasList": [
          "153701"
        ],
        "bodyLangParam": 1260,
        "eventPatternSuiteKey": ""
      },
      {
        "$type": "ICHLNKHGCAG",
        "type": "EMO_SYNC",
        "aliasList": [
          "153701"
        ],
        "dataPath": "Cs_Emo_Avatar_Simple_Common_Set/Cs_Emo_Avatar_Talk/Cs_Emo_Avatar_PersonalLine/Cs_Emo_Avatar_XiangLing/Cs_Emo_110051804",
        "phonemePath": "",
        "emotionPath": "",
        "mateDataPath": "",
        "matePhonemePath": "",
        "mateEmotionPath": "",
        "dataPathHashList": [
          18353652229501823732,
          1279084262833592074,
          7300229662690864174,
          8423001962122632927
        ],
        "PACNIGOOENN": "",
        "PIBDNPHIAGC": ""
      },
      {
        "$type": "EDCHPJLDKIN",
        "type": "BODY_LANG",
        "aliasList": [
          "1012"
        ],
        "isContinue": true,
        "eventPatternSuiteKey": ""
      },
      {
        "$type": "EDCHPJLDKIN",
        "type": "BODY_LANG",
        "delayTime": 1.1999998092651367,
        "aliasList": [
          "1012"
        ],
        "bodyLangParam": 1270,
        "eventPatternSuiteKey": ""
      },
      {
        "$type": "EDCHPJLDKIN",
        "type": "BODY_LANG",
        "delayTime": 1.516666054725647,
        "aliasList": [
          "154101"
        ],
        "bodyLangParam": 1240,
        "eventPatternSuiteKey": ""
      },
      {
        "$type": "NPCNMEOCADD",
        "type": "LOOK_AT",
        "delayTime": 1.4150724411010742,
        "aliasList": [
          "154101"
        ],
        "enableHead": true,
        "useTargetPos": true,
        "enableAbsolute": true,
        "targetPosition": {
          "x": 1869.996337890625,
          "y": 240.28936767578125,
          "z": -869.7066040039062
        },
        "headTurnTime": 0.3499999940395355,
        "targetNpcAlias": "",
        "targetNpcLookAtPoint": "",
        "BHGPHGNFCBF": ""
      },
      {
        "$type": "EDCHPJLDKIN",
        "type": "BODY_LANG",
        "delayTime": 1.083333134651184,
        "aliasList": [
          "1005"
        ],
        "bodyLangParam": 1250,
        "eventPatternSuiteKey": ""
      },
      {
        "$type": "NPCNMEOCADD",
        "type": "LOOK_AT",
        "delayTime": 0.9881764054298401,
        "aliasList": [
          "1005"
        ],
        "enableHead": true,
        "useTargetPos": true,
        "enableAbsolute": true,
        "targetPosition": {
          "x": 1869.996337890625,
          "y": 240.28936767578125,
          "z": -869.7066040039062
        },
        "headTurnTime": 0.3499999940395355,
        "targetNpcAlias": "",
        "targetNpcLookAtPoint": "",
        "BHGPHGNFCBF": ""
      },
      {
        "$type": "EDCHPJLDKIN",
        "type": "BODY_LANG",
        "delayTime": 1.5499999523162842,
        "aliasList": [
          "163001"
        ],
        "bodyLangParam": 1260,
        "eventPatternSuiteKey": ""
      },
      {
        "$type": "NPCNMEOCADD",
        "type": "LOOK_AT",
        "delayTime": 1.16317617893219,
        "aliasList": [
          "163001"
        ],
        "enableHead": true,
        "useTargetPos": true,
        "enableAbsolute": true,
        "targetPosition": {
          "x": 1869.996337890625,
          "y": 240.28936767578125,
          "z": -869.7066040039062
        },
        "headTurnTime": 0.3499999940395355,
        "targetNpcAlias": "",
        "targetNpcLookAtPoint": "",
        "BHGPHGNFCBF": ""
      },
      {
        "$type": "EDCHPJLDKIN",
        "type": "BODY_LANG",
        "delayTime": 1.8083336353302002,
        "aliasList": [
          "163101"
        ],
        "bodyLangParam": 1260,
        "eventPatternSuiteKey": ""
      },
      {
        "$type": "NPCNMEOCADD",
        "type": "LOOK_AT",
        "delayTime": 1.6881775856018066,
        "aliasList": [
          "163101"
        ],
        "enableHead": true,
        "useTargetPos": true,
        "enableAbsolute": true,
        "targetPosition": {
          "x": 1869.996337890625,
          "y": 240.28936767578125,
          "z": -869.7066040039062
        },
        "headTurnTime": 0.3499999940395355,
        "targetNpcAlias": "",
        "targetNpcLookAtPoint": "",
        "BHGPHGNFCBF": ""
      }
    ],
    [
      {
        "$type": "MJFAIFFAGOF",
        "type": "DIALOG",
        "aliasList": [
          "1012"
        ],
        "dialogID": 110051805,
        "protectTime": 2.5
      },
      {
        "$type": "EDCHPJLDKIN",
        "type": "BODY_LANG",
        "delayTime": 2.4083335399627686,
        "aliasList": [
          "1012"
        ],
        "isContinue": true,
        "eventPatternSuiteKey": ""
      },
      {
        "$type": "ICHLNKHGCAG",
        "type": "EMO_SYNC",
        "aliasList": [
          "1012"
        ],
        "dataPath": "Cs_Emo_Avatar_Simple_Common_Set/Cs_Emo_Avatar_Talk/Cs_Emo_Avatar_PersonalLine/Cs_Emo_Avatar_XiangLing/Cs_Emo_110051805",
        "phonemePath": "",
        "emotionPath": "",
        "mateDataPath": "",
        "matePhonemePath": "",
        "mateEmotionPath": "",
        "dataPathHashList": [
          16406474718921029759,
          11050808921564054476,
          15851614294361201497,
          3831250903659557333
        ],
        "PACNIGOOENN": "",
        "PIBDNPHIAGC": ""
      }
    ],
    [
      {
        "$type": "NPCNMEOCADD",
        "type": "LOOK_AT",
        "delayTime": 0.6459140777587891,
        "aliasList": [
          "153701"
        ],
        "enableHead": true,
        "useTargetPos": true,
        "enableAbsolute": true,
        "targetPosition": {
          "x": 1870.1134033203125,
          "y": 240.64175415039062,
          "z": -867.8108520507812
        },
        "headTurnTime": 0.3499999940395355,
        "targetNpcAlias": "",
        "targetNpcLookAtPoint": "",
        "BHGPHGNFCBF": ""
      },
      {
        "$type": "NPCNMEOCADD",
        "type": "LOOK_AT",
        "delayTime": 0.6042465567588806,
        "aliasList": [
          "1012"
        ],
        "enableHead": true,
        "useTargetPos": true,
        "enableAbsolute": true,
        "targetPosition": {
          "x": 1870.1134033203125,
          "y": 240.6797637939453,
          "z": -867.8108520507812
        },
        "headTurnTime": 0.3499999940395355,
        "targetNpcAlias": "",
        "targetNpcLookAtPoint": "",
        "BHGPHGNFCBF": ""
      },
      {
        "$type": "EDCHPJLDKIN",
        "type": "BODY_LANG",
        "delayTime": 0.5375798940658569,
        "aliasList": [
          "1012"
        ],
        "isContinue": true,
        "eventPatternSuiteKey": ""
      },
      {
        "$type": "MJFAIFFAGOF",
        "type": "DIALOG",
        "aliasList": [
          "154101"
        ],
        "dialogID": 110051806,
        "protectTime": 1.0
      },
      {
        "$type": "EDCHPJLDKIN",
        "type": "BODY_LANG",
        "aliasList": [
          "154101"
        ],
        "isContinue": true,
        "eventPatternSuiteKey": ""
      },
      {
        "$type": "EDCHPJLDKIN",
        "type": "BODY_LANG",
        "delayTime": 0.699999988079071,
        "aliasList": [
          "154101"
        ],
        "bodyLangParam": 1110,
        "eventPatternSuiteKey": ""
      },
      {
        "$type": "ICHLNKHGCAG",
        "type": "EMO_SYNC",
        "aliasList": [
          "154101"
        ],
        "dataPath": "Cs_Emo_Avatar_Simple_Common_Set/Cs_Emo_Avatar_Talk/Cs_Emo_Avatar_PersonalLine/Cs_Emo_Avatar_XiangLing/Cs_Emo_110051806",
        "phonemePath": "",
        "emotionPath": "",
        "mateDataPath": "",
        "matePhonemePath": "",
        "mateEmotionPath": "",
        "dataPathHashList": [
          13079507208948541270,
          16413145295859079797,
          7681401534622979327,
          13648166294437120391
        ],
        "PACNIGOOENN": "",
        "PIBDNPHIAGC": ""
      },
      {
        "$type": "NPCNMEOCADD",
        "type": "LOOK_AT",
        "delayTime": 0.5042480230331421,
        "aliasList": [
          "1005"
        ],
        "enableHead": true,
        "useTargetPos": true,
        "enableAbsolute": true,
        "targetPosition": {
          "x": 1870.1134033203125,
          "y": 240.6797637939453,
          "z": -867.8108520507812
        },
        "headTurnTime": 0.3499999940395355,
        "targetNpcAlias": "",
        "targetNpcLookAtPoint": "",
        "BHGPHGNFCBF": ""
      },
      {
        "$type": "NPCNMEOCADD",
        "type": "LOOK_AT",
        "delayTime": 0.5792478919029236,
        "aliasList": [
          "163001"
        ],
        "enableHead": true,
        "useTargetPos": true,
        "enableAbsolute": true,
        "targetPosition": {
          "x": 1870.1134033203125,
          "y": 240.6797637939453,
          "z": -867.8108520507812
        },
        "headTurnTime": 0.3499999940395355,
        "targetNpcAlias": "",
        "targetNpcLookAtPoint": "",
        "BHGPHGNFCBF": ""
      },
      {
        "$type": "NPCNMEOCADD",
        "type": "LOOK_AT",
        "delayTime": 0.6292480230331421,
        "aliasList": [
          "163101"
        ],
        "enableHead": true,
        "useTargetPos": true,
        "enableAbsolute": true,
        "targetPosition": {
          "x": 1870.1134033203125,
          "y": 240.54150390625,
          "z": -867.8108520507812
        },
        "headTurnTime": 0.3499999940395355,
        "targetNpcAlias": "",
        "targetNpcLookAtPoint": "",
        "BHGPHGNFCBF": ""
      }
    ],
    [
      {
        "$type": "EDCHPJLDKIN",
        "type": "BODY_LANG",
        "delayTime": 0.4000000059604645,
        "aliasList": [
          "153701"
        ],
        "isContinue": true,
        "eventPatternSuiteKey": ""
      },
      {
        "$type": "MJFAIFFAGOF",
        "type": "DIALOG",
        "aliasList": [
          "154101"
        ],
        "dialogID": 110051807,
        "protectTime": 1.0
      },
      {
        "$type": "ICHLNKHGCAG",
        "type": "EMO_SYNC",
        "aliasList": [
          "154101"
        ],
        "dataPath": "Cs_Emo_Avatar_Simple_Common_Set/Cs_Emo_Avatar_Talk/Cs_Emo_Avatar_PersonalLine/Cs_Emo_Avatar_XiangLing/Cs_Emo_110051807",
        "phonemePath": "",
        "emotionPath": "",
        "mateDataPath": "",
        "matePhonemePath": "",
        "mateEmotionPath": "",
        "dataPathHashList": [
          8789559557668401326,
          1454390395610140093,
          14179566177895353686,
          9959969820501343701
        ],
        "PACNIGOOENN": "",
        "PIBDNPHIAGC": ""
      },
      {
        "$type": "EDCHPJLDKIN",
        "type": "BODY_LANG",
        "delayTime": 0.40833330154418945,
        "aliasList": [
          "1005"
        ],
        "bodyLangParam": 1120,
        "eventPatternSuiteKey": ""
      },
      {
        "$type": "EDCHPJLDKIN",
        "type": "BODY_LANG",
        "delayTime": 0.550000011920929,
        "aliasList": [
          "163101"
        ],
        "bodyLangParam": 1110,
        "eventPatternSuiteKey": ""
      },
      {
        "$type": "NPCNMEOCADD",
        "type": "LOOK_AT",
        "delayTime": 0.491666704416275,
        "aliasList": [
          "163101"
        ],
        "enableHead": true,
        "useTargetPos": true,
        "enableAbsolute": true,
        "targetPosition": {
          "x": 1871.323486328125,
          "y": 240.77101135253906,
          "z": -867.6845092773438
        },
        "headTurnTime": 0.3499999940395355,
        "targetNpcAlias": "",
        "targetNpcLookAtPoint": "",
        "BHGPHGNFCBF": ""
      }
    ],
    [
      {
        "$type": "MJFAIFFAGOF",
        "type": "DIALOG",
        "aliasList": [
          "153701"
        ],
        "dialogID": 110051808,
        "protectTime": 1.0
      },
      {
        "$type": "EDCHPJLDKIN",
        "type": "BODY_LANG",
        "aliasList": [
          "153701"
        ],
        "bodyLangParam": 1040,
        "eventPatternSuiteKey": ""
      },
      {
        "$type": "NPCNMEOCADD",
        "type": "LOOK_AT",
        "aliasList": [
          "153701"
        ],
        "enableHead": true,
        "useTargetPos": true,
        "enableAbsolute": true,
        "targetPosition": {
          "x": 1869.996337890625,
          "y": 240.28936767578125,
          "z": -869.7066040039062
        },
        "headTurnTime": 0.3499999940395355,
        "targetNpcAlias": "",
        "targetNpcLookAtPoint": "",
        "BHGPHGNFCBF": ""
      },
      {
        "$type": "ICHLNKHGCAG",
        "type": "EMO_SYNC",
        "aliasList": [
          "153701"
        ],
        "dataPath": "Cs_Emo_Avatar_Simple_Common_Set/Cs_Emo_Avatar_Talk/Cs_Emo_Avatar_PersonalLine/Cs_Emo_Avatar_XiangLing/Cs_Emo_110051808",
        "phonemePath": "",
        "emotionPath": "",
        "mateDataPath": "",
        "matePhonemePath": "",
        "mateEmotionPath": "",
        "dataPathHashList": [
          16991424196053641952,
          8295352948262350295,
          18404876839511412220,
          10234978805900039009
        ],
        "PACNIGOOENN": "",
        "PIBDNPHIAGC": ""
      },
      {
        "$type": "NPCNMEOCADD",
        "type": "LOOK_AT",
        "delayTime": 0.3347534239292145,
        "aliasList": [
          "1012"
        ],
        "enableHead": true,
        "useTargetPos": true,
        "enableAbsolute": true,
        "targetPosition": {
          "x": 1871.323486328125,
          "y": 240.77101135253906,
          "z": -867.6845092773438
        },
        "headTurnTime": 0.3499999940395355,
        "targetNpcAlias": "",
        "targetNpcLookAtPoint": "",
        "BHGPHGNFCBF": ""
      },
      {
        "$type": "EDCHPJLDKIN",
        "type": "BODY_LANG",
        "delayTime": 0.1666666865348816,
        "aliasList": [
          "1005"
        ],
        "bodyLangParam": 1230,
        "eventPatternSuiteKey": ""
      },
      {
        "$type": "EDCHPJLDKIN",
        "type": "BODY_LANG",
        "delayTime": 0.3333333432674408,
        "aliasList": [
          "163001"
        ],
        "bodyLangParam": 1120,
        "eventPatternSuiteKey": ""
      }
    ],
    [
      {
        "$type": "MJFAIFFAGOF",
        "type": "DIALOG",
        "aliasList": [
          "1012"
        ],
        "dialogID": 110051809,
        "protectTime": 0.5
      },
      {
        "$type": "EDCHPJLDKIN",
        "type": "BODY_LANG",
        "aliasList": [
          "1012"
        ],
        "bodyLangParam": 1030,
        "eventPatternSuiteKey": ""
      },
      {
        "$type": "ICHLNKHGCAG",
        "type": "EMO_SYNC",
        "aliasList": [
          "1012"
        ],
        "dataPath": "Cs_Emo_Avatar_Simple_Common_Set/Cs_Emo_Avatar_Talk/Cs_Emo_Avatar_PersonalLine/Cs_Emo_Avatar_XiangLing/Cs_Emo_110051809",
        "phonemePath": "",
        "emotionPath": "",
        "mateDataPath": "",
        "matePhonemePath": "",
        "mateEmotionPath": "",
        "dataPathHashList": [
          18365535033643106328,
          16891170175011973259,
          556637601379427328,
          9395589105721809135
        ],
        "PACNIGOOENN": "",
        "PIBDNPHIAGC": ""
      },
      {
        "$type": "EDCHPJLDKIN",
        "type": "BODY_LANG",
        "delayTime": 0.4000000059604645,
        "aliasList": [
          "154101"
        ],
        "isContinue": true,
        "eventPatternSuiteKey": ""
      },
      {
        "$type": "NPCNMEOCADD",
        "type": "LOOK_AT",
        "delayTime": 0.3656623959541321,
        "aliasList": [
          "1005"
        ],
        "enableHead": true,
        "useTargetPos": true,
        "enableAbsolute": true,
        "targetPosition": {
          "x": 1869.996337890625,
          "y": 240.28936767578125,
          "z": -869.7066040039062
        },
        "headTurnTime": 0.3499999940395355,
        "targetNpcAlias": "",
        "targetNpcLookAtPoint": "",
        "BHGPHGNFCBF": ""
      },
      {
        "$type": "NPCNMEOCADD",
        "type": "LOOK_AT",
        "delayTime": 0.3717552125453949,
        "aliasList": [
          "163001"
        ],
        "enableHead": true,
        "useTargetPos": true,
        "enableAbsolute": true,
        "targetPosition": {
          "x": 1869.996337890625,
          "y": 240.28936767578125,
          "z": -869.7066040039062
        },
        "headTurnTime": 0.3499999940395355,
        "targetNpcAlias": "",
        "targetNpcLookAtPoint": "",
        "BHGPHGNFCBF": ""
      },
      {
        "$type": "EDCHPJLDKIN",
        "type": "BODY_LANG",
        "delayTime": 0.4000000059604645,
        "aliasList": [
          "163101"
        ],
        "isContinue": true,
        "eventPatternSuiteKey": ""
      },
      {
        "$type": "NPCNMEOCADD",
        "type": "LOOK_AT",
        "delayTime": 0.38843411207199097,
        "aliasList": [
          "163101"
        ],
        "enableHead": true,
        "useTargetPos": true,
        "enableAbsolute": true,
        "targetPosition": {
          "x": 1869.996337890625,
          "y": 240.28936767578125,
          "z": -869.7066040039062
        },
        "headTurnTime": 0.3499999940395355,
        "targetNpcAlias": "",
        "targetNpcLookAtPoint": "",
        "BHGPHGNFCBF": ""
      }
    ],
    [
      {
        "$type": "MJFAIFFAGOF",
        "type": "DIALOG",
        "aliasList": [
          "153701"
        ],
        "dialogID": 110051810,
        "protectTime": 1.0
      },
      {
        "$type": "ICHLNKHGCAG",
        "type": "EMO_SYNC",
        "aliasList": [
          "153701"
        ],
        "dataPath": "Cs_Emo_Avatar_Simple_Common_Set/Cs_Emo_Avatar_Talk/Cs_Emo_Avatar_PersonalLine/Cs_Emo_Avatar_XiangLing/Cs_Emo_110051810",
        "phonemePath": "",
        "emotionPath": "",
        "mateDataPath": "",
        "matePhonemePath": "",
        "mateEmotionPath": "",
        "dataPathHashList": [
          16483805774918498606,
          4918153084717656722,
          14931661786127998247,
          15841911768617693739
        ],
        "PACNIGOOENN": "",
        "PIBDNPHIAGC": ""
      },
      {
        "$type": "NPCNMEOCADD",
        "type": "LOOK_AT",
        "delayTime": 0.3751136362552643,
        "aliasList": [
          "1005"
        ],
        "enableHead": true,
        "useTargetPos": true,
        "enableAbsolute": true,
        "targetPosition": {
          "x": 1871.323486328125,
          "y": 240.77101135253906,
          "z": -867.6845092773438
        },
        "headTurnTime": 0.3499999940395355,
        "targetNpcAlias": "",
        "targetNpcLookAtPoint": "",
        "BHGPHGNFCBF": ""
      },
      {
        "$type": "EDCHPJLDKIN",
        "type": "BODY_LANG",
        "delayTime": 0.4973388612270355,
        "aliasList": [
          "163001"
        ],
        "bodyLangParam": 1110,
        "eventPatternSuiteKey": ""
      },
      {
        "$type": "NPCNMEOCADD",
        "type": "LOOK_AT",
        "delayTime": 0.3890035152435303,
        "aliasList": [
          "163001"
        ],
        "enableHead": true,
        "useTargetPos": true,
        "enableAbsolute": true,
        "targetPosition": {
          "x": 1871.323486328125,
          "y": 240.63780212402344,
          "z": -869.0972900390625
        },
        "headTurnTime": 0.3499999940395355,
        "targetNpcAlias": "",
        "targetNpcLookAtPoint": "",
        "BHGPHGNFCBF": ""
      }
    ],
    [
      {
        "$type": "MJFAIFFAGOF",
        "type": "DIALOG",
        "aliasList": [
          "153701"
        ],
        "dialogID": 110051811,
        "protectTime": 1.0
      },
      {
        "$type": "EDCHPJLDKIN",
        "type": "BODY_LANG",
        "aliasList": [
          "153701"
        ],
        "isContinue": true,
        "eventPatternSuiteKey": ""
      },
      {
        "$type": "EDCHPJLDKIN",
        "type": "BODY_LANG",
        "delayTime": 0.699999988079071,
        "aliasList": [
          "153701"
        ],
        "bodyLangParam": 1120,
        "eventPatternSuiteKey": ""
      },
      {
        "$type": "ICHLNKHGCAG",
        "type": "EMO_SYNC",
        "aliasList": [
          "153701"
        ],
        "dataPath": "Cs_Emo_Avatar_Simple_Common_Set/Cs_Emo_Avatar_Talk/Cs_Emo_Avatar_PersonalLine/Cs_Emo_Avatar_XiangLing/Cs_Emo_110051811",
        "phonemePath": "",
        "emotionPath": "",
        "mateDataPath": "",
        "matePhonemePath": "",
        "mateEmotionPath": "",
        "dataPathHashList": [
          4587946881273535433,
          13055061162189189980,
          9275843811833894131,
          16904698855271343753
        ],
        "PACNIGOOENN": "",
        "PIBDNPHIAGC": ""
      },
      {
        "$type": "NPCNMEOCADD",
        "type": "LOOK_AT",
        "delayTime": 0.3973533809185028,
        "aliasList": [
          "154101"
        ],
        "enableHead": true,
        "useTargetPos": true,
        "enableAbsolute": true,
        "targetPosition": {
          "x": 1871.323486328125,
          "y": 240.77101135253906,
          "z": -867.6845092773438
        },
        "headTurnTime": 0.3499999940395355,
        "targetNpcAlias": "",
        "targetNpcLookAtPoint": "",
        "BHGPHGNFCBF": ""
      },
      {
        "$type": "EDCHPJLDKIN",
        "type": "BODY_LANG",
        "delayTime": 0.4583333730697632,
        "aliasList": [
          "1005"
        ],
        "bodyLangParam": 1060,
        "eventPatternSuiteKey": ""
      },
      {
        "$type": "NPCNMEOCADD",
        "type": "LOOK_AT",
        "delayTime": 0.3556874692440033,
        "aliasList": [
          "163101"
        ],
        "enableHead": true,
        "useTargetPos": true,
        "enableAbsolute": true,
        "targetPosition": {
          "x": 1871.323486328125,
          "y": 240.77101135253906,
          "z": -867.6845092773438
        },
        "headTurnTime": 0.3499999940395355,
        "targetNpcAlias": "",
        "targetNpcLookAtPoint": "",
        "BHGPHGNFCBF": ""
      }
    ],
    [
      {
        "$type": "NPCNMEOCADD",
        "type": "LOOK_AT",
        "delayTime": 0.4682846963405609,
        "aliasList": [
          "153701"
        ],
        "enableHead": true,
        "useTargetPos": true,
        "enableAbsolute": true,
        "targetPosition": {
          "x": 1869.996337890625,
          "y": 240.28936767578125,
          "z": -869.7066040039062
        },
        "headTurnTime": 0.3499999940395355,
        "targetNpcAlias": "",
        "targetNpcLookAtPoint": "",
        "BHGPHGNFCBF": ""
      },
      {
        "$type": "MJFAIFFAGOF",
        "type": "DIALOG",
        "aliasList": [
          "1012"
        ],
        "dialogID": 110051812,
        "protectTime": 1.0
      },
      {
        "$type": "EDCHPJLDKIN",
        "type": "BODY_LANG",
        "delayTime": 0.8083333373069763,
        "aliasList": [
          "1012"
        ],
        "bodyLangParam": 1130,
        "eventPatternSuiteKey": ""
      },
      {
        "$type": "EDCHPJLDKIN",
        "type": "BODY_LANG",
        "aliasList": [
          "1012"
        ],
        "isContinue": true,
        "eventPatternSuiteKey": ""
      },
      {
        "$type": "ICHLNKHGCAG",
        "type": "EMO_SYNC",
        "aliasList": [
          "1012"
        ],
        "dataPath": "Cs_Emo_Avatar_Simple_Common_Set/Cs_Emo_Avatar_Talk/Cs_Emo_Avatar_PersonalLine/Cs_Emo_Avatar_XiangLing/Cs_Emo_110051812",
        "phonemePath": "",
        "emotionPath": "",
        "mateDataPath": "",
        "matePhonemePath": "",
        "mateEmotionPath": "",
        "dataPathHashList": [
          2983731027871891749,
          18323990508057555093,
          10530684465119367036,
          9037273141169452069
        ],
        "PACNIGOOENN": "",
        "PIBDNPHIAGC": ""
      },
      {
        "$type": "NPCNMEOCADD",
        "type": "LOOK_AT",
        "delayTime": 0.3675170838832855,
        "aliasList": [
          "154101"
        ],
        "enableHead": true,
        "useTargetPos": true,
        "enableAbsolute": true,
        "targetPosition": {
          "x": 1869.996337890625,
          "y": 240.28936767578125,
          "z": -869.7066040039062
        },
        "headTurnTime": 0.3499999940395355,
        "targetNpcAlias": "",
        "targetNpcLookAtPoint": "",
        "BHGPHGNFCBF": ""
      },
      {
        "$type": "NPCNMEOCADD",
        "type": "LOOK_AT",
        "delayTime": 0.5932855606079102,
        "aliasList": [
          "1005"
        ],
        "enableHead": true,
        "useTargetPos": true,
        "enableAbsolute": true,
        "targetPosition": {
          "x": 1869.996337890625,
          "y": 240.28936767578125,
          "z": -869.7066040039062
        },
        "headTurnTime": 0.3499999940395355,
        "targetNpcAlias": "",
        "targetNpcLookAtPoint": "",
        "BHGPHGNFCBF": ""
      },
      {
        "$type": "EDCHPJLDKIN",
        "type": "BODY_LANG",
        "delayTime": 0.38333335518836975,
        "aliasList": [
          "1005"
        ],
        "isContinue": true,
        "eventPatternSuiteKey": ""
      },
      {
        "$type": "EDCHPJLDKIN",
        "type": "BODY_LANG",
        "delayTime": 0.42500001192092896,
        "aliasList": [
          "163001"
        ],
        "isContinue": true,
        "eventPatternSuiteKey": ""
      },
      {
        "$type": "NPCNMEOCADD",
        "type": "LOOK_AT",
        "delayTime": 0.5841836333274841,
        "aliasList": [
          "163101"
        ],
        "enableHead": true,
        "useTargetPos": true,
        "enableAbsolute": true,
        "targetPosition": {
          "x": 1869.996337890625,
          "y": 240.28936767578125,
          "z": -869.7066040039062
        },
        "headTurnTime": 0.3499999940395355,
        "targetNpcAlias": "",
        "targetNpcLookAtPoint": "",
        "BHGPHGNFCBF": ""
      }
    ],
    [
      {
        "$type": "EDCHPJLDKIN",
        "type": "BODY_LANG",
        "delayTime": 0.30000001192092896,
        "aliasList": [
          "153701"
        ],
        "isContinue": true,
        "eventPatternSuiteKey": ""
      },
      {
        "$type": "ICHLNKHGCAG",
        "type": "EMO_SYNC",
        "aliasList": [
          "153701"
        ],
        "dataPath": "Cs_Emo_Avatar_Simple_Common_Set/Cs_Emo_Avatar_Talk/Cs_Emo_Avatar_PersonalLine/Cs_Emo_Avatar_XiangLing/Cs_Emo_110051813_Draff",
        "phonemePath": "",
        "emotionPath": "",
        "mateDataPath": "",
        "matePhonemePath": "",
        "mateEmotionPath": "",
        "dataPathHashList": [
          16856272742158164390,
          16236734930589606319,
          9805158039806135932,
          9776014028854719031
        ],
        "PACNIGOOENN": "",
        "PIBDNPHIAGC": ""
      },
      {
        "$type": "MJFAIFFAGOF",
        "type": "DIALOG",
        "aliasList": [
          "1012"
        ],
        "dialogID": 110051813,
        "protectTime": 0.5
      },
      {
        "$type": "NPCNMEOCADD",
        "type": "LOOK_AT",
        "aliasList": [
          "1012"
        ],
        "enableHead": true,
        "useTargetPos": true,
        "enableAbsolute": true,
        "targetPosition": {
          "x": 1870.0975341796875,
          "y": 240.51699829101562,
          "z": -867.8892211914062
        },
        "headTurnTime": 0.3499999940395355,
        "targetNpcAlias": "",
        "targetNpcLookAtPoint": "",
        "BHGPHGNFCBF": ""
      },
      {
        "$type": "ICHLNKHGCAG",
        "type": "EMO_SYNC",
        "aliasList": [
          "1012"
        ],
        "dataPath": "Cs_Emo_Avatar_Simple_Common_Set/Cs_Emo_Avatar_Talk/Cs_Emo_Avatar_PersonalLine/Cs_Emo_Avatar_XiangLing/Cs_Emo_110051813",
        "phonemePath": "",
        "emotionPath": "",
        "mateDataPath": "",
        "matePhonemePath": "",
        "mateEmotionPath": "",
        "dataPathHashList": [
          8785629635130633040,
          3325573103223989471,
          1019484912548024727,
          14075994529766350827
        ],
        "PACNIGOOENN": "",
        "PIBDNPHIAGC": ""
      },
      {
        "$type": "EDCHPJLDKIN",
        "type": "BODY_LANG",
        "delayTime": 0.31666672229766846,
        "aliasList": [
          "1005"
        ],
        "bodyLangParam": 1270,
        "eventPatternSuiteKey": ""
      },
      {
        "$type": "EDCHPJLDKIN",
        "type": "BODY_LANG",
        "aliasList": [
          "163001"
        ],
        "bodyLangParam": 1120,
        "eventPatternSuiteKey": ""
      }
    ],
    [
      {
        "$type": "MJFAIFFAGOF",
        "type": "DIALOG",
        "aliasList": [
          "1012"
        ],
        "dialogID": 110051814
      },
      {
        "$type": "ICHLNKHGCAG",
        "type": "EMO_SYNC",
        "aliasList": [
          "1012"
        ],
        "dataPath": "Cs_Emo_Avatar_Simple_Common_Set/Cs_Emo_Avatar_Talk/Cs_Emo_Avatar_PersonalLine/Cs_Emo_Avatar_XiangLing/Cs_Emo_110051814",
        "phonemePath": "",
        "emotionPath": "",
        "mateDataPath": "",
        "matePhonemePath": "",
        "mateEmotionPath": "",
        "dataPathHashList": [
          7351410377747860679,
          15385759376318117380,
          9100363550040134266,
          1689697395188334181
        ],
        "PACNIGOOENN": "",
        "PIBDNPHIAGC": ""
      }
    ],
    [
      {
        "$type": "EDCHPJLDKIN",
        "type": "BODY_LANG",
        "delayTime": 0.30000001192092896,
        "aliasList": [
          "1012"
        ],
        "isContinue": true,
        "eventPatternSuiteKey": ""
      },
      {
        "$type": "MJFAIFFAGOF",
        "type": "DIALOG",
        "aliasList": [
          "154101"
        ],
        "dialogID": 110051815,
        "protectTime": 1.0
      },
      {
        "$type": "EDCHPJLDKIN",
        "type": "BODY_LANG",
        "aliasList": [
          "154101"
        ],
        "bodyLangParam": 1240,
        "eventPatternSuiteKey": ""
      },
      {
        "$type": "NPCNMEOCADD",
        "type": "LOOK_AT",
        "aliasList": [
          "154101"
        ],
        "enableHead": true,
        "useTargetPos": true,
        "enableAbsolute": true,
        "targetPosition": {
          "x": 1870.3167724609375,
          "y": 240.5503387451172,
          "z": -868.3464965820312
        },
        "headTurnTime": 0.3499999940395355,
        "targetNpcAlias": "",
        "targetNpcLookAtPoint": "",
        "BHGPHGNFCBF": ""
      },
      {
        "$type": "ICHLNKHGCAG",
        "type": "EMO_SYNC",
        "aliasList": [
          "154101"
        ],
        "dataPath": "Cs_Emo_Avatar_Simple_Common_Set/Cs_Emo_Avatar_Talk/Cs_Emo_Avatar_PersonalLine/Cs_Emo_Avatar_XiangLing/Cs_Emo_110051815",
        "phonemePath": "",
        "emotionPath": "",
        "mateDataPath": "",
        "matePhonemePath": "",
        "mateEmotionPath": "",
        "dataPathHashList": [
          7119530022958545955,
          2132243940764654332,
          18429851594754286146,
          10492332689113057641
        ],
        "PACNIGOOENN": "",
        "PIBDNPHIAGC": ""
      },
      {
        "$type": "EDCHPJLDKIN",
        "type": "BODY_LANG",
        "delayTime": 0.3499999940395355,
        "aliasList": [
          "163001"
        ],
        "isContinue": true,
        "eventPatternSuiteKey": ""
      },
      {
        "$type": "NPCNMEOCADD",
        "type": "LOOK_AT",
        "delayTime": 0.464834064245224,
        "aliasList": [
          "163001"
        ],
        "enableHead": true,
        "useTargetPos": true,
        "enableAbsolute": true,
        "targetPosition": {
          "x": 1870.0975341796875,
          "y": 240.51699829101562,
          "z": -867.8892211914062
        },
        "headTurnTime": 0.3499999940395355,
        "targetNpcAlias": "",
        "targetNpcLookAtPoint": "",
        "BHGPHGNFCBF": ""
      },
      {
        "$type": "NPCNMEOCADD",
        "type": "LOOK_AT",
        "delayTime": 0.47438356280326843,
        "aliasList": [
          "163101"
        ],
        "enableHead": true,
        "useTargetPos": true,
        "enableAbsolute": true,
        "targetPosition": {
          "x": 1870.0975341796875,
          "y": 240.51699829101562,
          "z": -867.8892211914062
        },
        "headTurnTime": 0.3499999940395355,
        "targetNpcAlias": "",
        "targetNpcLookAtPoint": "",
        "BHGPHGNFCBF": ""
      }
    ],
    [
      {
        "$type": "MJFAIFFAGOF",
        "type": "DIALOG",
        "aliasList": [
          "163101"
        ],
        "dialogID": 110051816,
        "protectTime": 4.5
      },
      {
        "$type": "EDCHPJLDKIN",
        "type": "BODY_LANG",
        "aliasList": [
          "163101"
        ],
        "bodyLangParam": 1180,
        "eventPatternSuiteKey": ""
      },
      {
        "$type": "NPCNMEOCADD",
        "type": "LOOK_AT",
        "delayTime": 4.316667079925537,
        "aliasList": [
          "163101"
        ],
        "enableHead": true,
        "useTargetPos": true,
        "enableAbsolute": true,
        "targetPosition": {
          "x": 1869.797607421875,
          "y": 240.55224609375,
          "z": -869.4349365234375
        },
        "headTurnTime": 0.3499999940395355,
        "targetNpcAlias": "",
        "targetNpcLookAtPoint": "",
        "BHGPHGNFCBF": ""
      },
      {
        "$type": "ICHLNKHGCAG",
        "type": "EMO_SYNC",
        "aliasList": [
          "163101"
        ],
        "dataPath": "Cs_Emo_Avatar_Simple_Common_Set/Cs_Emo_Avatar_Talk/Cs_Emo_Avatar_PersonalLine/Cs_Emo_Avatar_XiangLing/Cs_Emo_110051816",
        "phonemePath": "",
        "emotionPath": "",
        "mateDataPath": "",
        "matePhonemePath": "",
        "mateEmotionPath": "",
        "dataPathHashList": [
          16468711697709883816,
          12450845850068206271,
          6065948238166539784,
          10085283622242208550
        ],
        "PACNIGOOENN": "",
        "PIBDNPHIAGC": ""
      }
    ],
    [
      {
        "$type": "MJFAIFFAGOF",
        "type": "DIALOG",
        "aliasList": [
          "1012"
        ],
        "dialogID": 110051817,
        "protectTime": 1.0
      },
      {
        "$type": "EDCHPJLDKIN",
        "type": "BODY_LANG",
        "aliasList": [
          "1012"
        ],
        "bodyLangParam": 1120,
        "eventPatternSuiteKey": ""
      },
      {
        "$type": "ICHLNKHGCAG",
        "type": "EMO_SYNC",
        "aliasList": [
          "1012"
        ],
        "dataPath": "Cs_Emo_Avatar_Simple_Common_Set/Cs_Emo_Avatar_Talk/Cs_Emo_Avatar_PersonalLine/Cs_Emo_Avatar_XiangLing/Cs_Emo_110051817",
        "phonemePath": "",
        "emotionPath": "",
        "mateDataPath": "",
        "matePhonemePath": "",
        "mateEmotionPath": "",
        "dataPathHashList": [
          17859117995881365575,
          2825239873436378814,
          9508856578445386123,
          10845537572151180265
        ],
        "PACNIGOOENN": "",
        "PIBDNPHIAGC": ""
      },
      {
        "$type": "NPCNMEOCADD",
        "type": "LOOK_AT",
        "delayTime": 0.4778076410293579,
        "aliasList": [
          "163001"
        ],
        "enableHead": true,
        "useTargetPos": true,
        "enableAbsolute": true,
        "targetPosition": {
          "x": 1870.0103759765625,
          "y": 240.4853515625,
          "z": -869.7348022460938
        },
        "headTurnTime": 0.3499999940395355,
        "targetNpcAlias": "",
        "targetNpcLookAtPoint": "",
        "BHGPHGNFCBF": ""
      },
      {
        "$type": "EDCHPJLDKIN",
        "type": "BODY_LANG",
        "delayTime": 0.5916667580604553,
        "aliasList": [
          "163101"
        ],
        "isContinue": true,
        "eventPatternSuiteKey": ""
      }
    ],
    [
      {
        "$type": "MJFAIFFAGOF",
        "type": "DIALOG",
        "aliasList": [
          "1012"
        ],
        "dialogID": 110051818,
        "protectTime": 1.5
      },
      {
        "$type": "EDCHPJLDKIN",
        "type": "BODY_LANG",
        "aliasList": [
          "1012"
        ],
        "isContinue": true,
        "eventPatternSuiteKey": ""
      },
      {
        "$type": "EDCHPJLDKIN",
        "type": "BODY_LANG",
        "delayTime": 1.024999976158142,
        "aliasList": [
          "1012"
        ],
        "bodyLangParam": 1190,
        "eventPatternSuiteKey": ""
      },
      {
        "$type": "ICHLNKHGCAG",
        "type": "EMO_SYNC",
        "aliasList": [
          "1012"
        ],
        "dataPath": "Cs_Emo_Avatar_Simple_Common_Set/Cs_Emo_Avatar_Talk/Cs_Emo_Avatar_PersonalLine/Cs_Emo_Avatar_XiangLing/Cs_Emo_110051818",
        "phonemePath": "",
        "emotionPath": "",
        "mateDataPath": "",
        "matePhonemePath": "",
        "mateEmotionPath": "",
        "dataPathHashList": [
          9024001086780008633,
          13296141632204934475,
          7207937660356596164,
          16753938998814295600
        ],
        "PACNIGOOENN": "",
        "PIBDNPHIAGC": ""
      }
    ],
    [
      {
        "$type": "MJFAIFFAGOF",
        "type": "DIALOG",
        "aliasList": [
          "1005"
        ],
        "dialogID": 110051819
      },
      {
        "$type": "EDCHPJLDKIN",
        "type": "BODY_LANG",
        "aliasList": [
          "1005"
        ],
        "bodyLangParam": 1260,
        "eventPatternSuiteKey": ""
      },
      {
        "$type": "ICHLNKHGCAG",
        "type": "EMO_SYNC",
        "aliasList": [
          "1005"
        ],
        "dataPath": "Cs_Emo_Avatar_Simple_Common_Set/Cs_Emo_Avatar_Talk/Cs_Emo_Avatar_PersonalLine/Cs_Emo_Avatar_XiangLing/Cs_Emo_110051819",
        "phonemePath": "",
        "emotionPath": "",
        "mateDataPath": "",
        "matePhonemePath": "",
        "mateEmotionPath": "",
        "dataPathHashList": [
          7376436760753900580,
          18295321963554382733,
          11801116451497737428,
          17159256582103301856
        ],
        "PACNIGOOENN": "",
        "PIBDNPHIAGC": ""
      }
    ],
    [
      {
        "$type": "EDCHPJLDKIN",
        "type": "BODY_LANG",
        "delayTime": 0.4000000059604645,
        "aliasList": [
          "1012"
        ],
        "isContinue": true,
        "eventPatternSuiteKey": ""
      },
      {
        "$type": "NPCNMEOCADD",
        "type": "LOOK_AT",
        "delayTime": 0.4924062192440033,
        "aliasList": [
          "1012"
        ],
        "enableHead": true,
        "useTargetPos": true,
        "enableAbsolute": true,
        "targetPosition": {
          "x": 1872.1842041015625,
          "y": 240.69680786132812,
          "z": -868.6395263671875
        },
        "headTurnTime": 0.3499999940395355,
        "targetNpcAlias": "",
        "targetNpcLookAtPoint": "",
        "BHGPHGNFCBF": ""
      },
      {
        "$type": "MJFAIFFAGOF",
        "type": "DIALOG",
        "aliasList": [
          "163001"
        ],
        "dialogID": 110051820,
        "protectTime": 1.5
      },
      {
        "$type": "EDCHPJLDKIN",
        "type": "BODY_LANG",
        "aliasList": [
          "163001"
        ],
        "bodyLangParam": 1030,
        "eventPatternSuiteKey": ""
      },
      {
        "$type": "ICHLNKHGCAG",
        "type": "EMO_SYNC",
        "aliasList": [
          "163001"
        ],
        "dataPath": "Cs_Emo_Avatar_Simple_Common_Set/Cs_Emo_Avatar_Talk/Cs_Emo_Avatar_PersonalLine/Cs_Emo_Avatar_XiangLing/Cs_Emo_110051820",
        "phonemePath": "",
        "emotionPath": "",
        "mateDataPath": "",
        "matePhonemePath": "",
        "mateEmotionPath": "",
        "dataPathHashList": [
          3435834537586124574,
          1800368800235241573,
          2883111592298534033,
          9023378913797314929
        ],
        "PACNIGOOENN": "",
        "PIBDNPHIAGC": ""
      }
    ],
    [
      {
        "$type": "MJFAIFFAGOF",
        "type": "DIALOG",
        "aliasList": [
          "163001"
        ],
        "dialogID": 110051821,
        "protectTime": 1.0
      },
      {
        "$type": "EDCHPJLDKIN",
        "type": "BODY_LANG",
        "delayTime": 0.7583333253860474,
        "aliasList": [
          "163001"
        ],
        "bodyLangParam": 1180,
        "eventPatternSuiteKey": ""
      },
      {
        "$type": "EDCHPJLDKIN",
        "type": "BODY_LANG",
        "aliasList": [
          "163001"
        ],
        "isContinue": true,
        "eventPatternSuiteKey": ""
      },
      {
        "$type": "ICHLNKHGCAG",
        "type": "EMO_SYNC",
        "aliasList": [
          "163001"
        ],
        "dataPath": "Cs_Emo_Avatar_Simple_Common_Set/Cs_Emo_Avatar_Talk/Cs_Emo_Avatar_PersonalLine/Cs_Emo_Avatar_XiangLing/Cs_Emo_110051821",
        "phonemePath": "",
        "emotionPath": "",
        "mateDataPath": "",
        "matePhonemePath": "",
        "mateEmotionPath": "",
        "dataPathHashList": [
          10410410893945610253,
          10729059050213990873,
          17489440265667825924,
          18158854919125575277
        ],
        "PACNIGOOENN": "",
        "PIBDNPHIAGC": ""
      }
    ],
    [
      {
        "$type": "OBCDECFOOBC",
        "type": "DIALOG_SELECT",
        "delayTime": 0.5,
        "aliasList": [
          "Avatar"
        ],
        "dialogIDList": [
          110051823
        ],
        "grpIDList": [
          3321023281
        ],
        "useGrpId": true
      },
      {
        "$type": "NPCNMEOCADD",
        "type": "LOOK_AT",
        "delayTime": 0.43567150831222534,
        "aliasList": [
          "153701"
        ],
        "enableHead": true,
        "useTargetPos": true,
        "enableAbsolute": true,
        "targetPosition": {
          "x": 1872.1842041015625,
          "y": 240.69680786132812,
          "z": -868.6395263671875
        },
        "headTurnTime": 0.3499999940395355,
        "targetNpcAlias": "",
        "targetNpcLookAtPoint": "",
        "BHGPHGNFCBF": ""
      },
      {
        "$type": "NPCNMEOCADD",
        "type": "LOOK_AT",
        "delayTime": 0.5023361444473267,
        "aliasList": [
          "1005"
        ],
        "enableHead": true,
        "useTargetPos": true,
        "enableAbsolute": true,
        "targetPosition": {
          "x": 1872.1842041015625,
          "y": 240.69680786132812,
          "z": -868.6395263671875
        },
        "headTurnTime": 0.3499999940395355,
        "targetNpcAlias": "",
        "targetNpcLookAtPoint": "",
        "BHGPHGNFCBF": ""
      },
      {
        "$type": "MJFAIFFAGOF",
        "type": "DIALOG",
        "aliasList": [
          "163001"
        ],
        "dialogID": 110051822,
        "protectTime": 1.0
      },
      {
        "$type": "ICHLNKHGCAG",
        "type": "EMO_SYNC",
        "aliasList": [
          "163001"
        ],
        "dataPath": "Cs_Emo_Avatar_Simple_Common_Set/Cs_Emo_Avatar_Talk/Cs_Emo_Avatar_PersonalLine/Cs_Emo_Avatar_XiangLing/Cs_Emo_110051822",
        "phonemePath": "",
        "emotionPath": "",
        "mateDataPath": "",
        "matePhonemePath": "",
        "mateEmotionPath": "",
        "dataPathHashList": [
          8371791649300316007,
          14659404398381982022,
          13951542267805153806,
          2863654139055019978
        ],
        "PACNIGOOENN": "",
        "PIBDNPHIAGC": ""
      },
      {
        "$type": "NPCNMEOCADD",
        "type": "LOOK_AT",
        "delayTime": 0.49400225281715393,
        "aliasList": [
          "163101"
        ],
        "enableHead": true,
        "useTargetPos": true,
        "enableAbsolute": true,
        "targetPosition": {
          "x": 1872.1842041015625,
          "y": 240.69680786132812,
          "z": -868.6395263671875
        },
        "headTurnTime": 0.3499999940395355,
        "targetNpcAlias": "",
        "targetNpcLookAtPoint": "",
        "BHGPHGNFCBF": ""
      }
    ],
    [
      {
        "$type": "EDCHPJLDKIN",
        "type": "BODY_LANG",
        "delayTime": 0.36666664481163025,
        "aliasList": [
          "1012"
        ],
        "bodyLangParam": 1060,
        "eventPatternSuiteKey": ""
      },
      {
        "$type": "NPCNMEOCADD",
        "type": "LOOK_AT",
        "delayTime": 0.4371236264705658,
        "aliasList": [
          "154101"
        ],
        "enableHead": true,
        "useTargetPos": true,
        "enableAbsolute": true,
        "targetPosition": {
          "x": 1872.1842041015625,
          "y": 240.69680786132812,
          "z": -868.6395263671875
        },
        "headTurnTime": 0.3499999940395355,
        "targetNpcAlias": "",
        "targetNpcLookAtPoint": "",
        "BHGPHGNFCBF": ""
      },
      {
        "$type": "EDCHPJLDKIN",
        "type": "BODY_LANG",
        "delayTime": 0.4749999940395355,
        "aliasList": [
          "154101"
        ],
        "isContinue": true,
        "eventPatternSuiteKey": ""
      },
      {
        "$type": "MJFAIFFAGOF",
        "type": "DIALOG",
        "aliasList": [
          "163001"
        ],
        "dialogID": 110051824,
        "protectTime": 1.0
      },
      {
        "$type": "EDCHPJLDKIN",
        "type": "BODY_LANG",
        "aliasList": [
          "163001"
        ],
        "isContinue": true,
        "eventPatternSuiteKey": ""
      },
      {
        "$type": "EDCHPJLDKIN",
        "type": "BODY_LANG",
        "delayTime": 0.699999988079071,
        "aliasList": [
          "163001"
        ],
        "bodyLangParam": 1240,
        "eventPatternSuiteKey": ""
      },
      {
        "$type": "NPCNMEOCADD",
        "type": "LOOK_AT",
        "delayTime": 0.5666666626930237,
        "aliasList": [
          "163001"
        ],
        "enableHead": true,
        "useTargetPos": true,
        "enableAbsolute": true,
        "targetPosition": {
          "x": 1871.744140625,
          "y": 240.5142059326172,
          "z": -868.6018676757812
        },
        "headTurnTime": 0.3499999940395355,
        "targetNpcAlias": "",
        "targetNpcLookAtPoint": "",
        "BHGPHGNFCBF": ""
      },
      {
        "$type": "ICHLNKHGCAG",
        "type": "EMO_SYNC",
        "aliasList": [
          "163001"
        ],
        "dataPath": "Cs_Emo_Avatar_Simple_Common_Set/Cs_Emo_Avatar_Talk/Cs_Emo_Avatar_PersonalLine/Cs_Emo_Avatar_XiangLing/Cs_Emo_110051824",
        "phonemePath": "",
        "emotionPath": "",
        "mateDataPath": "",
        "matePhonemePath": "",
        "mateEmotionPath": "",
        "dataPathHashList": [
          13581571345153162277,
          17284835642007892749,
          17196344003759912032,
          4415669657619998819
        ],
        "PACNIGOOENN": "",
        "PIBDNPHIAGC": ""
      }
    ],
    [
      {
        "$type": "MJFAIFFAGOF",
        "type": "DIALOG",
        "aliasList": [
          "1012"
        ],
        "dialogID": 110051825,
        "protectTime": 1.0
      },
      {
        "$type": "EDCHPJLDKIN",
        "type": "BODY_LANG",
        "aliasList": [
          "1012"
        ],
        "isContinue": true,
        "eventPatternSuiteKey": ""
      },
      {
        "$type": "EDCHPJLDKIN",
        "type": "BODY_LANG",
        "delayTime": 0.699999988079071,
        "aliasList": [
          "1012"
        ],
        "bodyLangParam": 1150,
        "eventPatternSuiteKey": ""
      },
      {
        "$type": "ICHLNKHGCAG",
        "type": "EMO_SYNC",
        "aliasList": [
          "1012"
        ],
        "dataPath": "Cs_Emo_Avatar_Simple_Common_Set/Cs_Emo_Avatar_Talk/Cs_Emo_Avatar_PersonalLine/Cs_Emo_Avatar_XiangLing/Cs_Emo_110051825",
        "phonemePath": "",
        "emotionPath": "",
        "mateDataPath": "",
        "matePhonemePath": "",
        "mateEmotionPath": "",
        "dataPathHashList": [
          12146596805463170644,
          3435244640165692607,
          9741746072797666826,
          6259340786331986520
        ],
        "PACNIGOOENN": "",
        "PIBDNPHIAGC": ""
      }
    ],
    [
      {
        "$type": "EDCHPJLDKIN",
        "type": "BODY_LANG",
        "aliasList": [
          "1012"
        ],
        "isContinue": true,
        "eventPatternSuiteKey": ""
      },
      {
        "$type": "EDCHPJLDKIN",
        "type": "BODY_LANG",
        "delayTime": 0.699999988079071,
        "aliasList": [
          "1012"
        ],
        "bodyLangParam": 1130,
        "eventPatternSuiteKey": ""
      },
      {
        "$type": "EDCHPJLDKIN",
        "type": "BODY_LANG",
        "delayTime": 0.4833333194255829,
        "aliasList": [
          "1005"
        ],
        "bodyLangParam": 1120,
        "eventPatternSuiteKey": ""
      },
      {
        "$type": "NPCNMEOCADD",
        "type": "LOOK_AT",
        "delayTime": 0.4016220271587372,
        "aliasList": [
          "1005"
        ],
        "enableHead": true,
        "useTargetPos": true,
        "enableAbsolute": true,
        "targetPosition": {
          "x": 1869.996337890625,
          "y": 240.28936767578125,
          "z": -869.7066040039062
        },
        "headTurnTime": 0.3499999940395355,
        "targetNpcAlias": "",
        "targetNpcLookAtPoint": "",
        "BHGPHGNFCBF": ""
      },
      {
        "$type": "MJFAIFFAGOF",
        "type": "DIALOG",
        "aliasList": [
          "163001"
        ],
        "dialogID": 110051826,
        "protectTime": 1.0
      },
      {
        "$type": "EDCHPJLDKIN",
        "type": "BODY_LANG",
        "aliasList": [
          "163001"
        ],
        "isContinue": true,
        "eventPatternSuiteKey": ""
      },
      {
        "$type": "EDCHPJLDKIN",
        "type": "BODY_LANG",
        "delayTime": 0.699999988079071,
        "aliasList": [
          "163001"
        ],
        "bodyLangParam": 1180,
        "eventPatternSuiteKey": ""
      },
      {
        "$type": "NPCNMEOCADD",
        "type": "LOOK_AT",
        "delayTime": 0.37613269686698914,
        "aliasList": [
          "163001"
        ],
        "enableHead": true,
        "useTargetPos": true,
        "enableAbsolute": true,
        "targetPosition": {
          "x": 1870.43798828125,
          "y": 240.58241271972656,
          "z": -869.4896850585938
        },
        "headTurnTime": 0.3499999940395355,
        "targetNpcAlias": "",
        "targetNpcLookAtPoint": "",
        "BHGPHGNFCBF": ""
      },
      {
        "$type": "ICHLNKHGCAG",
        "type": "EMO_SYNC",
        "aliasList": [
          "163001"
        ],
        "dataPath": "Cs_Emo_Avatar_Simple_Common_Set/Cs_Emo_Avatar_Talk/Cs_Emo_Avatar_PersonalLine/Cs_Emo_Avatar_XiangLing/Cs_Emo_110051826",
        "phonemePath": "",
        "emotionPath": "",
        "mateDataPath": "",
        "matePhonemePath": "",
        "mateEmotionPath": "",
        "dataPathHashList": [
          11100333369421550011,
          7915725682306235090,
          11942524841385669197,
          3225439989751393698
        ],
        "PACNIGOOENN": "",
        "PIBDNPHIAGC": ""
      }
    ],
    [
      {
        "$type": "NPCNMEOCADD",
        "type": "LOOK_AT",
        "delayTime": 0.818649172782898,
        "aliasList": [
          "153701"
        ],
        "enableHead": true,
        "useTargetPos": true,
        "enableAbsolute": true,
        "targetPosition": {
          "x": 1869.996337890625,
          "y": 240.28936767578125,
          "z": -869.7066040039062
        },
        "headTurnTime": 0.3499999940395355,
        "targetNpcAlias": "",
        "targetNpcLookAtPoint": "",
        "BHGPHGNFCBF": ""
      },
      {
        "$type": "MJFAIFFAGOF",
        "type": "DIALOG",
        "aliasList": [
          "1012"
        ],
        "dialogID": 110051827,
        "protectTime": 1.0
      },
      {
        "$type": "ICHLNKHGCAG",
        "type": "EMO_SYNC",
        "aliasList": [
          "1012"
        ],
        "dataPath": "Cs_Emo_Avatar_Simple_Common_Set/Cs_Emo_Avatar_Talk/Cs_Emo_Avatar_PersonalLine/Cs_Emo_Avatar_XiangLing/Cs_Emo_110051827",
        "phonemePath": "",
        "emotionPath": "",
        "mateDataPath": "",
        "matePhonemePath": "",
        "mateEmotionPath": "",
        "dataPathHashList": [
          1808602575212596230,
          9274138497456071983,
          9734977583003375724,
          12610780269423792343
        ],
        "PACNIGOOENN": "",
        "PIBDNPHIAGC": ""
      },
      {
        "$type": "NPCNMEOCADD",
        "type": "LOOK_AT",
        "delayTime": 0.7853158116340637,
        "aliasList": [
          "154101"
        ],
        "enableHead": true,
        "useTargetPos": true,
        "enableAbsolute": true,
        "targetPosition": {
          "x": 1869.996337890625,
          "y": 240.28936767578125,
          "z": -869.7066040039062
        },
        "headTurnTime": 0.3499999940395355,
        "targetNpcAlias": "",
        "targetNpcLookAtPoint": "",
        "BHGPHGNFCBF": ""
      },
      {
        "$type": "EDCHPJLDKIN",
        "type": "BODY_LANG",
        "delayTime": 0.5,
        "aliasList": [
          "163001"
        ],
        "isContinue": true,
        "eventPatternSuiteKey": ""
      },
      {
        "$type": "NPCNMEOCADD",
        "type": "LOOK_AT",
        "delayTime": 0.4103190302848816,
        "aliasList": [
          "163001"
        ],
        "enableHead": true,
        "useTargetPos": true,
        "enableAbsolute": true,
        "targetPosition": {
          "x": 1869.996337890625,
          "y": 240.28936767578125,
          "z": -869.7066040039062
        },
        "headTurnTime": 0.3499999940395355,
        "targetNpcAlias": "",
        "targetNpcLookAtPoint": "",
        "BHGPHGNFCBF": ""
      },
      {
        "$type": "NPCNMEOCADD",
        "type": "LOOK_AT",
        "delayTime": 0.6769824624061584,
        "aliasList": [
          "163101"
        ],
        "enableHead": true,
        "useTargetPos": true,
        "enableAbsolute": true,
        "targetPosition": {
          "x": 1869.996337890625,
          "y": 240.28936767578125,
          "z": -869.7066040039062
        },
        "headTurnTime": 0.3499999940395355,
        "targetNpcAlias": "",
        "targetNpcLookAtPoint": "",
        "BHGPHGNFCBF": ""
      }
    ],
    [
      {
        "$type": "EDCHPJLDKIN",
        "type": "BODY_LANG",
        "delayTime": 1.4946736097335815,
        "aliasList": [
          "153701"
        ],
        "bodyLangParam": 4030,
        "eventPatternSuiteKey": ""
      },
      {
        "$type": "MJFAIFFAGOF",
        "type": "DIALOG",
        "aliasList": [
          "1012"
        ],
        "dialogID": 110051828,
        "protectTime": 2.0
      },
      {
        "$type": "ICHLNKHGCAG",
        "type": "EMO_SYNC",
        "aliasList": [
          "1012"
        ],
        "dataPath": "Cs_Emo_Avatar_Simple_Common_Set/Cs_Emo_Avatar_Talk/Cs_Emo_Avatar_PersonalLine/Cs_Emo_Avatar_XiangLing/Cs_Emo_110051828",
        "phonemePath": "",
        "emotionPath": "",
        "mateDataPath": "",
        "matePhonemePath": "",
        "mateEmotionPath": "",
        "dataPathHashList": [
          14055594674328711553,
          9867177961848100261,
          16737214407992181145,
          2694578046231005754
        ],
        "PACNIGOOENN": "",
        "PIBDNPHIAGC": ""
      },
      {
        "$type": "EDCHPJLDKIN",
        "type": "BODY_LANG",
        "delayTime": 0.32499995827674866,
        "aliasList": [
          "154101"
        ],
        "bodyLangParam": 1120,
        "eventPatternSuiteKey": ""
      },
      {
        "$type": "EDCHPJLDKIN",
        "type": "BODY_LANG",
        "delayTime": 1.5583332777023315,
        "aliasList": [
          "1005"
        ],
        "bodyLangParam": 1250,
        "eventPatternSuiteKey": ""
      },
      {
        "$type": "EDCHPJLDKIN",
        "type": "BODY_LANG",
        "delayTime": 1.8583331108093262,
        "aliasList": [
          "163101"
        ],
        "bodyLangParam": 4030,
        "eventPatternSuiteKey": ""
      }
    ],
    [
      {
        "$type": "NPCNMEOCADD",
        "type": "LOOK_AT",
        "delayTime": 0.4620117247104645,
        "aliasList": [
          "153701"
        ],
        "enableHead": true,
        "useTargetPos": true,
        "enableAbsolute": true,
        "targetPosition": {
          "x": 1869.996337890625,
          "y": 240.28936767578125,
          "z": -869.7066040039062
        },
        "headTurnTime": 0.3499999940395355,
        "targetNpcAlias": "",
        "targetNpcLookAtPoint": "",
        "BHGPHGNFCBF": ""
      },
      {
        "$type": "MJFAIFFAGOF",
        "type": "DIALOG",
        "aliasList": [
          "163001"
        ],
        "dialogID": 110051829,
        "protectTime": 0.5
      },
      {
        "$type": "EDCHPJLDKIN",
        "type": "BODY_LANG",
        "aliasList": [
          "163001"
        ],
        "bodyLangParam": 1250,
        "eventPatternSuiteKey": ""
      },
      {
        "$type": "ICHLNKHGCAG",
        "type": "EMO_SYNC",
        "aliasList": [
          "163001"
        ],
        "dataPath": "Cs_Emo_Avatar_Simple_Common_Set/Cs_Emo_Avatar_Talk/Cs_Emo_Avatar_PersonalLine/Cs_Emo_Avatar_XiangLing/Cs_Emo_110051829",
        "phonemePath": "",
        "emotionPath": "",
        "mateDataPath": "",
        "matePhonemePath": "",
        "mateEmotionPath": "",
        "dataPathHashList": [
          822862851384202698,
          14381459679052040660,
          16898082227512545244,
          17734412665048749860
        ],
        "PACNIGOOENN": "",
        "PIBDNPHIAGC": ""
      }
    ]
  ],
  "groupId": [
    {
      "grpId": 522771777,
      "nextGrpId": 522771778
    },
    {
      "index": 1,
      "grpId": 522771778,
      "nextGrpId": 522771779
    },
    {
      "index": 2,
      "grpId": 522771779,
      "nextGrpId": 522771780
    },
    {
      "index": 3,
      "grpId": 522771780,
      "nextGrpId": 522771781
    },
    {
      "index": 4,
      "grpId": 522771781,
      "nextGrpId": 522771782
    },
    {
      "index": 5,
      "grpId": 522771782,
      "nextGrpId": 522771783
    },
    {
      "index": 6,
      "grpId": 522771783,
      "nextGrpId": 522771784
    },
    {
      "index": 7,
      "grpId": 522771784,
      "nextGrpId": 522771785
    },
    {
      "index": 8,
      "grpId": 522771785,
      "nextGrpId": 3321023247
    },
    {
      "index": 9,
      "grpId": 3321023247,
      "nextGrpId": 3321023248
    },
    {
      "index": 10,
      "grpId": 3321023248,
      "nextGrpId": 3321023249
    },
    {
      "index": 11,
      "grpId": 3321023249,
      "nextGrpId": 3321023250
    },
    {
      "index": 12,
      "grpId": 3321023250,
      "nextGrpId": 3321023251
    },
    {
      "index": 13,
      "grpId": 3321023251,
      "nextGrpId": 3321023252
    },
    {
      "index": 14,
      "grpId": 3321023252,
      "nextGrpId": 3321023253
    },
    {
      "index": 15,
      "grpId": 3321023253,
      "nextGrpId": 3321023254
    },
    {
      "index": 16,
      "grpId": 3321023254,
      "nextGrpId": 3321023255
    },
    {
      "index": 17,
      "grpId": 3321023255,
      "nextGrpId": 3321023256
    },
    {
      "index": 18,
      "grpId": 3321023256,
      "nextGrpId": 3321023278
    },
    {
      "index": 19,
      "grpId": 3321023278,
      "nextGrpId": 3321023279
    },
    {
      "index": 20,
      "grpId": 3321023279,
      "nextGrpId": 3321023280
    },
    {
      "index": 21,
      "grpId": 3321023280,
      "nextGrpId": 3321023281
    },
    {
      "index": 22,
      "grpId": 3321023281,
      "nextGrpId": 3321023282
    },
    {
      "index": 23,
      "grpId": 3321023282,
      "nextGrpId": 3321023283
    },
    {
      "index": 24,
      "grpId": 3321023283,
      "nextGrpId": 3321023284
    },
    {
      "index": 25,
      "grpId": 3321023284,
      "nextGrpId": 3321023285
    },
    {
      "index": 26,
      "grpId": 3321023285,
      "nextGrpId": 3321023286
    },
    {
      "index": 27,
      "grpId": 3321023286,
      "nextGrpId": 3321023287
    }
  ],
  "freeStyleDic": {
    "153701": [
      1180,
      1130,
      1260,
      1040,
      1120,
      4030
    ],
    "1012": [
      1230,
      1060,
      1270,
      1030,
      1130,
      1120,
      1190,
      1150
    ],
    "154101": [
      1120,
      1240,
      1110
    ],
    "163001": [
      1260,
      1120,
      1110,
      1030,
      1180,
      1240,
      1250
    ],
    "163101": [
      1260,
      1110,
      1180,
      4030
    ]
  }
}