{
  "buttonSequence": [
    {
      "button": "Left_Left",
      "time": 122272
    },
    {
      "button": "Left_Down",
      "time": 8454
    },
    {
      "button": "Left_Down",
      "time": 18090
    },
    {
      "button": "Left_Down",
      "time": 19726
    },
    {
      "button": "Left_Down",
      "time": 20271
    },
    {
      "button": "Left_Down",
      "time": 24090
    },
    {
      "button": "Left_Down",
      "time": 29001
    },
    {
      "button": "Left_Down",
      "time": 30635
    },
    {
      "button": "Left_Down",
      "time": 31180
    },
    {
      "button": "Left_Down",
      "time": 31726,
      "isLongPress": true,
      "longPressTime": 546
    },
    {
      "button": "Left_Down",
      "time": 34999
    },
    {
      "button": "Left_Down",
      "time": 35544
    },
    {
      "button": "Left_Down",
      "time": 36092
    },
    {
      "button": "Left_Down",
      "time": 37726
    },
    {
      "button": "Left_Down",
      "time": 38271,
      "isLongPress": true,
      "longPressTime": 545
    },
    {
      "button": "Left_Down",
      "time": 39908
    },
    {
      "button": "Left_Down",
      "time": 40453,
      "isLongPress": true,
      "longPressTime": 545
    },
    {
      "button": "Left_Down",
      "time": 43180
    },
    {
      "button": "Left_Down",
      "time": 45908,
      "isLongPress": true,
      "longPressTime": 1640
    },
    {
      "button": "Left_Down",
      "time": 48635
    },
    {
      "button": "Left_Down",
      "time": 55727
    },
    {
      "button": "Left_Down",
      "time": 56272
    },
    {
      "button": "Left_Down",
      "time": 71000
    },
    {
      "button": "Left_Down",
      "time": 73182
    },
    {
      "button": "Left_Down",
      "time": 75363
    },
    {
      "button": "Left_Down",
      "time": 75909
    },
    {
      "button": "Left_Down",
      "time": 77545
    },
    {
      "button": "Left_Down",
      "time": 78091
    },
    {
      "button": "Left_Down",
      "time": 79726
    },
    {
      "button": "Left_Down",
      "time": 80271
    },
    {
      "button": "Left_Down",
      "time": 81910
    },
    {
      "button": "Left_Down",
      "time": 82456
    },
    {
      "button": "Left_Down",
      "time": 84090
    },
    {
      "button": "Left_Down",
      "time": 85180
    },
    {
      "button": "Left_Down",
      "time": 86271
    },
    {
      "button": "Left_Down",
      "time": 87362,
      "isLongPress": true,
      "longPressTime": 1092
    },
    {
      "button": "Left_Down",
      "time": 89544
    },
    {
      "button": "Left_Down",
      "time": 91453
    },
    {
      "button": "Left_Down",
      "time": 97180
    },
    {
      "button": "Left_Down",
      "time": 112454
    },
    {
      "button": "Left_Down",
      "time": 113545
    },
    {
      "button": "Left_Down",
      "time": 121727
    },
    {
      "button": "Left_Down",
      "time": 124182
    },
    {
      "button": "Left_Down",
      "time": 125272
    },
    {
      "button": "Left_Down",
      "time": 125545
    },
    {
      "button": "Left_Down",
      "time": 131000,
      "isLongPress": true,
      "longPressTime": 1090
    },
    {
      "button": "Left_Right",
      "time": 4818
    },
    {
      "button": "Left_Right",
      "time": 5909
    },
    {
      "button": "Left_Right",
      "time": 6818
    },
    {
      "button": "Left_Right",
      "time": 7453
    },
    {
      "button": "Left_Right",
      "time": 9363
    },
    {
      "button": "Left_Right",
      "time": 10363
    },
    {
      "button": "Left_Right",
      "time": 12365
    },
    {
      "button": "Left_Right",
      "time": 14274,
      "isLongPress": true,
      "longPressTime": 545
    },
    {
      "button": "Left_Right",
      "time": 16726
    },
    {
      "button": "Left_Right",
      "time": 21908
    },
    {
      "button": "Left_Right",
      "time": 22453
    },
    {
      "button": "Left_Right",
      "time": 25180
    },
    {
      "button": "Left_Right",
      "time": 26271
    },
    {
      "button": "Left_Right",
      "time": 27908
    },
    {
      "button": "Left_Right",
      "time": 30090
    },
    {
      "button": "Left_Right",
      "time": 33092
    },
    {
      "button": "Left_Right",
      "time": 33638
    },
    {
      "button": "Left_Right",
      "time": 41544
    },
    {
      "button": "Left_Right",
      "time": 42635
    },
    {
      "button": "Left_Right",
      "time": 50817
    },
    {
      "button": "Left_Right",
      "time": 51908
    },
    {
      "button": "Left_Right",
      "time": 53545,
      "isLongPress": true,
      "longPressTime": 545
    },
    {
      "button": "Left_Right",
      "time": 57636
    },
    {
      "button": "Left_Right",
      "time": 59272
    },
    {
      "button": "Left_Right",
      "time": 60909
    },
    {
      "button": "Left_Right",
      "time": 63636
    },
    {
      "button": "Left_Right",
      "time": 65341
    },
    {
      "button": "Left_Right",
      "time": 65682
    },
    {
      "button": "Left_Right",
      "time": 66636,
      "isLongPress": true,
      "longPressTime": 3272
    },
    {
      "button": "Left_Right",
      "time": 90090
    },
    {
      "button": "Left_Right",
      "time": 93908
    },
    {
      "button": "Left_Right",
      "time": 96090
    },
    {
      "button": "Left_Right",
      "time": 99636
    },
    {
      "button": "Left_Right",
      "time": 100454
    },
    {
      "button": "Left_Right",
      "time": 103727,
      "isLongPress": true,
      "longPressTime": 545
    },
    {
      "button": "Left_Right",
      "time": 105909,
      "isLongPress": true,
      "longPressTime": 681
    },
    {
      "button": "Left_Right",
      "time": 107000
    },
    {
      "button": "Left_Right",
      "time": 107545
    },
    {
      "button": "Left_Right",
      "time": 110272
    },
    {
      "button": "Left_Right",
      "time": 111363
    },
    {
      "button": "Left_Right",
      "time": 114636
    },
    {
      "button": "Left_Right",
      "time": 116818
    },
    {
      "button": "Left_Right",
      "time": 117363
    },
    {
      "button": "Left_Right",
      "time": 117909,
      "isLongPress": true,
      "longPressTime": 545
    },
    {
      "button": "Left_Right",
      "time": 120636
    },
    {
      "button": "Left_Right",
      "time": 121182
    },
    {
      "button": "Left_Right",
      "time": 123091
    },
    {
      "button": "Left_Right",
      "time": 123363
    },
    {
      "button": "Left_Right",
      "time": 126091
    },
    {
      "button": "Left_Right",
      "time": 126636
    },
    {
      "button": "Left_Right",
      "time": 127727,
      "isLongPress": true,
      "longPressTime": 1636
    },
    {
      "button": "Left_Right",
      "time": 134636
    },
    {
      "button": "Left_Right",
      "time": 135182
    },
    {
      "button": "Right_Left",
      "time": 4272
    },
    {
      "button": "Right_Left",
      "time": 5363
    },
    {
      "button": "Right_Left",
      "time": 6454
    },
    {
      "button": "Right_Left",
      "time": 6818
    },
    {
      "button": "Right_Left",
      "time": 7453
    },
    {
      "button": "Right_Left",
      "time": 8818
    },
    {
      "button": "Right_Left",
      "time": 9909
    },
    {
      "button": "Right_Left",
      "time": 11547
    },
    {
      "button": "Right_Left",
      "time": 12638
    },
    {
      "button": "Right_Left",
      "time": 13729
    },
    {
      "button": "Right_Left",
      "time": 15908
    },
    {
      "button": "Right_Left",
      "time": 16999
    },
    {
      "button": "Right_Left",
      "time": 20817
    },
    {
      "button": "Right_Left",
      "time": 21362
    },
    {
      "button": "Right_Left",
      "time": 25726
    },
    {
      "button": "Right_Left",
      "time": 27635
    },
    {
      "button": "Right_Left",
      "time": 28180
    },
    {
      "button": "Right_Left",
      "time": 29547,
      "isLongPress": true,
      "longPressTime": 543
    },
    {
      "button": "Right_Left",
      "time": 33365
    },
    {
      "button": "Right_Left",
      "time": 42090
    },
    {
      "button": "Right_Left",
      "time": 50271
    },
    {
      "button": "Right_Left",
      "time": 51362
    },
    {
      "button": "Right_Left",
      "time": 52454,
      "isLongPress": true,
      "longPressTime": 545
    },
    {
      "button": "Right_Left",
      "time": 56818
    },
    {
      "button": "Right_Left",
      "time": 58182
    },
    {
      "button": "Right_Left",
      "time": 58454
    },
    {
      "button": "Right_Left",
      "time": 60091
    },
    {
      "button": "Right_Left",
      "time": 64182
    },
    {
      "button": "Right_Left",
      "time": 65000
    },
    {
      "button": "Right_Left",
      "time": 65954
    },
    {
      "button": "Right_Left",
      "time": 69091
    },
    {
      "button": "Right_Left",
      "time": 88999
    },
    {
      "button": "Right_Left",
      "time": 92817
    },
    {
      "button": "Right_Left",
      "time": 94999
    },
    {
      "button": "Right_Left",
      "time": 95544
    },
    {
      "button": "Right_Left",
      "time": 99909
    },
    {
      "button": "Right_Left",
      "time": 101545
    },
    {
      "button": "Right_Left",
      "time": 102636,
      "isLongPress": true,
      "longPressTime": 545
    },
    {
      "button": "Right_Left",
      "time": 104818,
      "isLongPress": true,
      "longPressTime": 818
    },
    {
      "button": "Right_Left",
      "time": 108091,
      "isLongPress": true,
      "longPressTime": 1636
    },
    {
      "button": "Right_Left",
      "time": 110818
    },
    {
      "button": "Right_Left",
      "time": 111909
    },
    {
      "button": "Right_Left",
      "time": 119317
    },
    {
      "button": "Right_Left",
      "time": 119545
    },
    {
      "button": "Right_Left",
      "time": 120091
    },
    {
      "button": "Right_Left",
      "time": 121182
    },
    {
      "button": "Right_Left",
      "time": 123363
    },
    {
      "button": "Right_Left",
      "time": 126363
    },
    {
      "button": "Right_Left",
      "time": 127182
    },
    {
      "button": "Right_Left",
      "time": 135000
    },
    {
      "button": "Right_Left",
      "time": 135909,
      "isLongPress": true,
      "longPressTime": 4363
    },
    {
      "button": "Right_Down",
      "time": 8454
    },
    {
      "button": "Right_Down",
      "time": 17544
    },
    {
      "button": "Right_Down",
      "time": 18635
    },
    {
      "button": "Right_Down",
      "time": 22999
    },
    {
      "button": "Right_Down",
      "time": 23544
    },
    {
      "button": "Right_Down",
      "time": 28456,
      "isLongPress": true,
      "longPressTime": 544
    },
    {
      "button": "Right_Down",
      "time": 30908
    },
    {
      "button": "Right_Down",
      "time": 31453
    },
    {
      "button": "Right_Down",
      "time": 33908
    },
    {
      "button": "Right_Down",
      "time": 34453
    },
    {
      "button": "Right_Down",
      "time": 37180,
      "isLongPress": true,
      "longPressTime": 545
    },
    {
      "button": "Right_Down",
      "time": 38817
    },
    {
      "button": "Right_Down",
      "time": 39362,
      "isLongPress": true,
      "longPressTime": 546
    },
    {
      "button": "Right_Down",
      "time": 40999
    },
    {
      "button": "Right_Down",
      "time": 43726,
      "isLongPress": true,
      "longPressTime": 1639
    },
    {
      "button": "Right_Down",
      "time": 48090
    },
    {
      "button": "Right_Down",
      "time": 49180
    },
    {
      "button": "Right_Down",
      "time": 54636,
      "isLongPress": true,
      "longPressTime": 545
    },
    {
      "button": "Right_Down",
      "time": 61727,
      "isLongPress": true,
      "longPressTime": 1363
    },
    {
      "button": "Right_Down",
      "time": 68272
    },
    {
      "button": "Right_Down",
      "time": 71818
    },
    {
      "button": "Right_Down",
      "time": 74000
    },
    {
      "button": "Right_Down",
      "time": 76454
    },
    {
      "button": "Right_Down",
      "time": 78636
    },
    {
      "button": "Right_Down",
      "time": 80817
    },
    {
      "button": "Right_Down",
      "time": 82999,
      "isLongPress": true,
      "longPressTime": 545
    },
    {
      "button": "Right_Down",
      "time": 84635
    },
    {
      "button": "Right_Down",
      "time": 85726
    },
    {
      "button": "Right_Down",
      "time": 86817
    },
    {
      "button": "Right_Down",
      "time": 88453
    },
    {
      "button": "Right_Down",
      "time": 90635
    },
    {
      "button": "Right_Down",
      "time": 98271
    },
    {
      "button": "Right_Down",
      "time": 113000
    },
    {
      "button": "Right_Down",
      "time": 114091
    },
    {
      "button": "Right_Down",
      "time": 115727
    },
    {
      "button": "Right_Down",
      "time": 121727
    },
    {
      "button": "Right_Down",
      "time": 123909
    },
    {
      "button": "Right_Down",
      "time": 124454
    },
    {
      "button": "Right_Down",
      "time": 125000
    },
    {
      "button": "Right_Down",
      "time": 125545
    },
    {
      "button": "Right_Down",
      "time": 128818
    },
    {
      "button": "Right_Down",
      "time": 129363
    },
    {
      "button": "Right_Down",
      "time": 129909,
      "isLongPress": true,
      "longPressTime": 1090
    },
    {
      "button": "Right_Down",
      "time": 132091,
      "isLongPress": true,
      "longPressTime": 2181
    },
    {
      "button": "Right_Right",
      "time": 67454
    },
    {
      "button": "Right_Right",
      "time": 122272
    }
  ],
  "playMusicEvent": {
    "text": "Play_ui_feedback_musicgame_char06_FuNingNa"
  },
  "stopMusicEvent": {
    "text": "Stop_ui_feedback_musicgame_char06_FuNingNa"
  },
  "pauseMusicEvent": {
    "text": "Pause_ui_feedback_musicgame_char06_FuNingNa"
  },
  "resumeMusicEvent": {
    "text": "Resume_ui_feedback_musicgame_char06_FuNingNa"
  },
  "playPreviewMusicEvent": {
    "text": "Play_ui_feedback_musicgame_char06_FuNingNa_show"
  },
  "stopPreviewMusicEvent": {
    "text": "Stop_ui_feedback_musicgame_char06_FuNingNa_show"
  }
}