{
  "buttonSequence": [
    {
      "button": "Left_Left",
      "time": 5909
    },
    {
      "button": "Left_Left",
      "time": 6454
    },
    {
      "button": "Left_Left",
      "time": 8454
    },
    {
      "button": "Left_Left",
      "time": 21367
    },
    {
      "button": "Left_Left",
      "time": 23549
    },
    {
      "button": "Left_Left",
      "time": 29545,
      "isLongPress": true,
      "longPressTime": 821
    },
    {
      "button": "Left_Left",
      "time": 35000
    },
    {
      "button": "Left_Left",
      "time": 43727,
      "isLongPress": true,
      "longPressTime": 1636
    },
    {
      "button": "Left_Left",
      "time": 46591
    },
    {
      "button": "Left_Left",
      "time": 47409
    },
    {
      "button": "Left_Left",
      "time": 50818
    },
    {
      "button": "Left_Left",
      "time": 51091
    },
    {
      "button": "Left_Left",
      "time": 56272,
      "isLongPress": true,
      "longPressTime": 545
    },
    {
      "button": "Left_Left",
      "time": 57363
    },
    {
      "button": "Left_Left",
      "time": 59000
    },
    {
      "button": "Left_Left",
      "time": 60091
    },
    {
      "button": "Left_Left",
      "time": 63363,
      "isLongPress": true,
      "longPressTime": 1636
    },
    {
      "button": "Left_Left",
      "time": 65341
    },
    {
      "button": "Left_Left",
      "time": 65954,
      "isLongPress": true,
      "longPressTime": 681
    },
    {
      "button": "Left_Left",
      "time": 77549
    },
    {
      "button": "Left_Left",
      "time": 92276
    },
    {
      "button": "Left_Left",
      "time": 103639,
      "isLongPress": true,
      "longPressTime": 637
    },
    {
      "button": "Left_Left",
      "time": 108003
    },
    {
      "button": "Left_Left",
      "time": 108094,
      "isLongPress": true,
      "longPressTime": 1636
    },
    {
      "button": "Left_Left",
      "time": 114367
    },
    {
      "button": "Left_Left",
      "time": 114639,
      "isLongPress": true,
      "longPressTime": 819
    },
    {
      "button": "Left_Left",
      "time": 116549
    },
    {
      "button": "Left_Left",
      "time": 120094
    },
    {
      "button": "Left_Left",
      "time": 121185
    },
    {
      "button": "Left_Left",
      "time": 123091
    },
    {
      "button": "Left_Left",
      "time": 123367,
      "isLongPress": true,
      "longPressTime": 542
    },
    {
      "button": "Left_Left",
      "time": 125545,
      "isLongPress": true,
      "longPressTime": 545
    },
    {
      "button": "Left_Left",
      "time": 129363
    },
    {
      "button": "Left_Left",
      "time": 132091,
      "isLongPress": true,
      "longPressTime": 1636
    },
    {
      "button": "Left_Left",
      "time": 135272
    },
    {
      "button": "Left_Left",
      "time": 135909,
      "isLongPress": true,
      "longPressTime": 4090
    },
    {
      "button": "Left_Down",
      "time": 3727
    },
    {
      "button": "Left_Down",
      "time": 4272
    },
    {
      "button": "Left_Down",
      "time": 4818
    },
    {
      "button": "Left_Down",
      "time": 5363
    },
    {
      "button": "Left_Down",
      "time": 7458
    },
    {
      "button": "Left_Down",
      "time": 7731
    },
    {
      "button": "Left_Down",
      "time": 10454
    },
    {
      "button": "Left_Down",
      "time": 11003,
      "isLongPress": true,
      "longPressTime": 3818
    },
    {
      "button": "Left_Down",
      "time": 19185
    },
    {
      "button": "Left_Down",
      "time": 20276
    },
    {
      "button": "Left_Down",
      "time": 21639
    },
    {
      "button": "Left_Down",
      "time": 22458
    },
    {
      "button": "Left_Down",
      "time": 23821
    },
    {
      "button": "Left_Down",
      "time": 24912
    },
    {
      "button": "Left_Down",
      "time": 26545
    },
    {
      "button": "Left_Down",
      "time": 34454
    },
    {
      "button": "Left_Down",
      "time": 35272
    },
    {
      "button": "Left_Down",
      "time": 38000
    },
    {
      "button": "Left_Down",
      "time": 38272,
      "isLongPress": true,
      "longPressTime": 545
    },
    {
      "button": "Left_Down",
      "time": 39363
    },
    {
      "button": "Left_Down",
      "time": 42363
    },
    {
      "button": "Left_Down",
      "time": 43454
    },
    {
      "button": "Left_Down",
      "time": 45636
    },
    {
      "button": "Left_Down",
      "time": 49591
    },
    {
      "button": "Left_Down",
      "time": 54091
    },
    {
      "button": "Left_Down",
      "time": 54636,
      "isLongPress": true,
      "longPressTime": 1090
    },
    {
      "button": "Left_Down",
      "time": 57091
    },
    {
      "button": "Left_Down",
      "time": 57636,
      "isLongPress": true,
      "longPressTime": 818
    },
    {
      "button": "Left_Down",
      "time": 58727
    },
    {
      "button": "Left_Down",
      "time": 59272
    },
    {
      "button": "Left_Down",
      "time": 59818
    },
    {
      "button": "Left_Down",
      "time": 60363
    },
    {
      "button": "Left_Down",
      "time": 62000
    },
    {
      "button": "Left_Down",
      "time": 62272
    },
    {
      "button": "Left_Down",
      "time": 62818
    },
    {
      "button": "Left_Down",
      "time": 63091
    },
    {
      "button": "Left_Down",
      "time": 65682
    },
    {
      "button": "Left_Down",
      "time": 71000
    },
    {
      "button": "Left_Down",
      "time": 71818
    },
    {
      "button": "Left_Down",
      "time": 73182
    },
    {
      "button": "Left_Down",
      "time": 74000
    },
    {
      "button": "Left_Down",
      "time": 75091
    },
    {
      "button": "Left_Down",
      "time": 75363,
      "isLongPress": true,
      "longPressTime": 545
    },
    {
      "button": "Left_Down",
      "time": 76454
    },
    {
      "button": "Left_Down",
      "time": 77821
    },
    {
      "button": "Left_Down",
      "time": 78639
    },
    {
      "button": "Left_Down",
      "time": 79730
    },
    {
      "button": "Left_Down",
      "time": 80003
    },
    {
      "button": "Left_Down",
      "time": 81231,
      "isLongPress": true,
      "longPressTime": 680
    },
    {
      "button": "Left_Down",
      "time": 83003,
      "isLongPress": true,
      "longPressTime": 546
    },
    {
      "button": "Left_Down",
      "time": 85185
    },
    {
      "button": "Left_Down",
      "time": 87094
    },
    {
      "button": "Left_Down",
      "time": 90094
    },
    {
      "button": "Left_Down",
      "time": 90367
    },
    {
      "button": "Left_Down",
      "time": 91458
    },
    {
      "button": "Left_Down",
      "time": 91639
    },
    {
      "button": "Left_Down",
      "time": 93367
    },
    {
      "button": "Left_Down",
      "time": 94730
    },
    {
      "button": "Left_Down",
      "time": 95003,
      "isLongPress": true,
      "longPressTime": 546
    },
    {
      "button": "Left_Down",
      "time": 95821
    },
    {
      "button": "Left_Down",
      "time": 96912
    },
    {
      "button": "Left_Down",
      "time": 98276
    },
    {
      "button": "Left_Down",
      "time": 100321,
      "isLongPress": true,
      "longPressTime": 682
    },
    {
      "button": "Left_Down",
      "time": 101549,
      "isLongPress": true,
      "longPressTime": 545
    },
    {
      "button": "Left_Down",
      "time": 104821,
      "isLongPress": true,
      "longPressTime": 818
    },
    {
      "button": "Left_Down",
      "time": 106321,
      "isLongPress": true,
      "longPressTime": 682
    },
    {
      "button": "Left_Down",
      "time": 111912
    },
    {
      "button": "Left_Down",
      "time": 112185
    },
    {
      "button": "Left_Down",
      "time": 113276
    },
    {
      "button": "Left_Down",
      "time": 114094
    },
    {
      "button": "Left_Down",
      "time": 116139
    },
    {
      "button": "Left_Down",
      "time": 116821
    },
    {
      "button": "Left_Down",
      "time": 120367
    },
    {
      "button": "Left_Down",
      "time": 125272
    },
    {
      "button": "Left_Down",
      "time": 128818
    },
    {
      "button": "Left_Down",
      "time": 131000,
      "isLongPress": true,
      "longPressTime": 818
    },
    {
      "button": "Left_Down",
      "time": 134727
    },
    {
      "button": "Left_Right",
      "time": 1545
    },
    {
      "button": "Left_Right",
      "time": 2091
    },
    {
      "button": "Left_Right",
      "time": 2636
    },
    {
      "button": "Left_Right",
      "time": 3182
    },
    {
      "button": "Left_Right",
      "time": 9227
    },
    {
      "button": "Left_Right",
      "time": 9704
    },
    {
      "button": "Left_Right",
      "time": 10182
    },
    {
      "button": "Left_Right",
      "time": 10363
    },
    {
      "button": "Left_Right",
      "time": 15912
    },
    {
      "button": "Left_Right",
      "time": 17003
    },
    {
      "button": "Left_Right",
      "time": 18094
    },
    {
      "button": "Left_Right",
      "time": 20003
    },
    {
      "button": "Left_Right",
      "time": 20549
    },
    {
      "button": "Left_Right",
      "time": 21094
    },
    {
      "button": "Left_Right",
      "time": 22185
    },
    {
      "button": "Left_Right",
      "time": 22730
    },
    {
      "button": "Left_Right",
      "time": 23276
    },
    {
      "button": "Left_Right",
      "time": 25185
    },
    {
      "button": "Left_Right",
      "time": 26000
    },
    {
      "button": "Left_Right",
      "time": 27636
    },
    {
      "button": "Left_Right",
      "time": 29136
    },
    {
      "button": "Left_Right",
      "time": 30636
    },
    {
      "button": "Left_Right",
      "time": 31182
    },
    {
      "button": "Left_Right",
      "time": 31454
    },
    {
      "button": "Left_Right",
      "time": 32136
    },
    {
      "button": "Left_Right",
      "time": 33363
    },
    {
      "button": "Left_Right",
      "time": 33909
    },
    {
      "button": "Left_Right",
      "time": 36091,
      "isLongPress": true,
      "longPressTime": 545
    },
    {
      "button": "Left_Right",
      "time": 37182
    },
    {
      "button": "Left_Right",
      "time": 39636
    },
    {
      "button": "Left_Right",
      "time": 40318
    },
    {
      "button": "Left_Right",
      "time": 40727
    },
    {
      "button": "Left_Right",
      "time": 41818
    },
    {
      "button": "Left_Right",
      "time": 43182
    },
    {
      "button": "Left_Right",
      "time": 46182
    },
    {
      "button": "Left_Right",
      "time": 47000
    },
    {
      "button": "Left_Right",
      "time": 47818
    },
    {
      "button": "Left_Right",
      "time": 48091
    },
    {
      "button": "Left_Right",
      "time": 49182
    },
    {
      "button": "Left_Right",
      "time": 50000
    },
    {
      "button": "Left_Right",
      "time": 51636
    },
    {
      "button": "Left_Right",
      "time": 52091
    },
    {
      "button": "Left_Right",
      "time": 52272
    },
    {
      "button": "Left_Right",
      "time": 52454,
      "isLongPress": true,
      "longPressTime": 1090
    },
    {
      "button": "Left_Right",
      "time": 59545
    },
    {
      "button": "Left_Right",
      "time": 60636
    },
    {
      "button": "Left_Right",
      "time": 60909
    },
    {
      "button": "Left_Right",
      "time": 62545
    },
    {
      "button": "Left_Right",
      "time": 67458
    },
    {
      "button": "Left_Right",
      "time": 68272,
      "isLongPress": true,
      "longPressTime": 1636
    },
    {
      "button": "Left_Right",
      "time": 72363
    },
    {
      "button": "Left_Right",
      "time": 74545
    },
    {
      "button": "Left_Right",
      "time": 76730
    },
    {
      "button": "Left_Right",
      "time": 78912
    },
    {
      "button": "Left_Right",
      "time": 80549
    },
    {
      "button": "Left_Right",
      "time": 81003
    },
    {
      "button": "Left_Right",
      "time": 82458
    },
    {
      "button": "Left_Right",
      "time": 84094
    },
    {
      "button": "Left_Right",
      "time": 84367
    },
    {
      "button": "Left_Right",
      "time": 84639
    },
    {
      "button": "Left_Right",
      "time": 85458
    },
    {
      "button": "Left_Right",
      "time": 86458
    },
    {
      "button": "Left_Right",
      "time": 86730
    },
    {
      "button": "Left_Right",
      "time": 87639
    },
    {
      "button": "Left_Right",
      "time": 88185
    },
    {
      "button": "Left_Right",
      "time": 89003
    },
    {
      "button": "Left_Right",
      "time": 89276
    },
    {
      "button": "Left_Right",
      "time": 90639
    },
    {
      "button": "Left_Right",
      "time": 94185
    },
    {
      "button": "Left_Right",
      "time": 96367
    },
    {
      "button": "Left_Right",
      "time": 97730
    },
    {
      "button": "Left_Right",
      "time": 98685
    },
    {
      "button": "Left_Right",
      "time": 99912
    },
    {
      "button": "Left_Right",
      "time": 102636
    },
    {
      "button": "Left_Right",
      "time": 103045
    },
    {
      "button": "Left_Right",
      "time": 104545
    },
    {
      "button": "Left_Right",
      "time": 105912
    },
    {
      "button": "Left_Right",
      "time": 107276
    },
    {
      "button": "Left_Right",
      "time": 111367
    },
    {
      "button": "Left_Right",
      "time": 111639
    },
    {
      "button": "Left_Right",
      "time": 112458
    },
    {
      "button": "Left_Right",
      "time": 113003
    },
    {
      "button": "Left_Right",
      "time": 113549
    },
    {
      "button": "Left_Right",
      "time": 115731
    },
    {
      "button": "Left_Right",
      "time": 117367
    },
    {
      "button": "Left_Right",
      "time": 117776
    },
    {
      "button": "Left_Right",
      "time": 118321,
      "isLongPress": true,
      "longPressTime": 682
    },
    {
      "button": "Left_Right",
      "time": 119276
    },
    {
      "button": "Left_Right",
      "time": 119549
    },
    {
      "button": "Left_Right",
      "time": 120639
    },
    {
      "button": "Left_Right",
      "time": 121730
    },
    {
      "button": "Left_Right",
      "time": 122139,
      "isLongPress": true,
      "longPressTime": 682
    },
    {
      "button": "Left_Right",
      "time": 125000
    },
    {
      "button": "Left_Right",
      "time": 127045
    },
    {
      "button": "Left_Right",
      "time": 127182
    },
    {
      "button": "Left_Right",
      "time": 127727
    },
    {
      "button": "Left_Right",
      "time": 128272
    },
    {
      "button": "Left_Right",
      "time": 129909,
      "isLongPress": true,
      "longPressTime": 818
    },
    {
      "button": "Left_Right",
      "time": 134545
    },
    {
      "button": "Left_Right",
      "time": 135091
    },
    {
      "button": "Right_Left",
      "time": 6727
    },
    {
      "button": "Right_Left",
      "time": 9022
    },
    {
      "button": "Right_Left",
      "time": 9500
    },
    {
      "button": "Right_Left",
      "time": 10272
    },
    {
      "button": "Right_Left",
      "time": 11549
    },
    {
      "button": "Right_Left",
      "time": 12639
    },
    {
      "button": "Right_Left",
      "time": 13730
    },
    {
      "button": "Right_Left",
      "time": 14821
    },
    {
      "button": "Right_Left",
      "time": 19730
    },
    {
      "button": "Right_Left",
      "time": 20821
    },
    {
      "button": "Right_Left",
      "time": 21912
    },
    {
      "button": "Right_Left",
      "time": 23003
    },
    {
      "button": "Right_Left",
      "time": 24094
    },
    {
      "button": "Right_Left",
      "time": 24367,
      "isLongPress": true,
      "longPressTime": 545
    },
    {
      "button": "Right_Left",
      "time": 25458
    },
    {
      "button": "Right_Left",
      "time": 26182
    },
    {
      "button": "Right_Left",
      "time": 26818,
      "isLongPress": true,
      "longPressTime": 545
    },
    {
      "button": "Right_Left",
      "time": 27909
    },
    {
      "button": "Right_Left",
      "time": 28727
    },
    {
      "button": "Right_Left",
      "time": 29818
    },
    {
      "button": "Right_Left",
      "time": 30227
    },
    {
      "button": "Right_Left",
      "time": 30909
    },
    {
      "button": "Right_Left",
      "time": 31318
    },
    {
      "button": "Right_Left",
      "time": 31727,
      "isLongPress": true,
      "longPressTime": 1090
    },
    {
      "button": "Right_Left",
      "time": 33091
    },
    {
      "button": "Right_Left",
      "time": 33636
    },
    {
      "button": "Right_Left",
      "time": 34727
    },
    {
      "button": "Right_Left",
      "time": 35000
    },
    {
      "button": "Right_Left",
      "time": 36909
    },
    {
      "button": "Right_Left",
      "time": 38272
    },
    {
      "button": "Right_Left",
      "time": 38818
    },
    {
      "button": "Right_Left",
      "time": 39091
    },
    {
      "button": "Right_Left",
      "time": 39909
    },
    {
      "button": "Right_Left",
      "time": 40454
    },
    {
      "button": "Right_Left",
      "time": 42909
    },
    {
      "button": "Right_Left",
      "time": 44000
    },
    {
      "button": "Right_Left",
      "time": 44818
    },
    {
      "button": "Right_Left",
      "time": 47954
    },
    {
      "button": "Right_Left",
      "time": 48636
    },
    {
      "button": "Right_Left",
      "time": 49182
    },
    {
      "button": "Right_Left",
      "time": 50136
    },
    {
      "button": "Right_Left",
      "time": 51772
    },
    {
      "button": "Right_Left",
      "time": 52182
    },
    {
      "button": "Right_Left",
      "time": 52363
    },
    {
      "button": "Right_Left",
      "time": 56818,
      "isLongPress": true,
      "longPressTime": 818
    },
    {
      "button": "Right_Left",
      "time": 60909
    },
    {
      "button": "Right_Left",
      "time": 69091,
      "isLongPress": true,
      "longPressTime": 818
    },
    {
      "button": "Right_Left",
      "time": 72363
    },
    {
      "button": "Right_Left",
      "time": 74545
    },
    {
      "button": "Right_Left",
      "time": 76182
    },
    {
      "button": "Right_Left",
      "time": 78367
    },
    {
      "button": "Right_Left",
      "time": 79185,
      "isLongPress": true,
      "longPressTime": 545
    },
    {
      "button": "Right_Left",
      "time": 80276
    },
    {
      "button": "Right_Left",
      "time": 81094
    },
    {
      "button": "Right_Left",
      "time": 82730
    },
    {
      "button": "Right_Left",
      "time": 84276
    },
    {
      "button": "Right_Left",
      "time": 84549
    },
    {
      "button": "Right_Left",
      "time": 85367
    },
    {
      "button": "Right_Left",
      "time": 86276
    },
    {
      "button": "Right_Left",
      "time": 86549
    },
    {
      "button": "Right_Left",
      "time": 86821
    },
    {
      "button": "Right_Left",
      "time": 87776
    },
    {
      "button": "Right_Left",
      "time": 88094
    },
    {
      "button": "Right_Left",
      "time": 89549
    },
    {
      "button": "Right_Left",
      "time": 89821
    },
    {
      "button": "Right_Left",
      "time": 91458
    },
    {
      "button": "Right_Left",
      "time": 94321
    },
    {
      "button": "Right_Left",
      "time": 95549
    },
    {
      "button": "Right_Left",
      "time": 96639
    },
    {
      "button": "Right_Left",
      "time": 97185,
      "isLongPress": true,
      "longPressTime": 545
    },
    {
      "button": "Right_Left",
      "time": 98549
    },
    {
      "button": "Right_Left",
      "time": 100049
    },
    {
      "button": "Right_Left",
      "time": 101272
    },
    {
      "button": "Right_Left",
      "time": 102909
    },
    {
      "button": "Right_Left",
      "time": 104682
    },
    {
      "button": "Right_Left",
      "time": 106049
    },
    {
      "button": "Right_Left",
      "time": 106730
    },
    {
      "button": "Right_Left",
      "time": 107003
    },
    {
      "button": "Right_Left",
      "time": 110821
    },
    {
      "button": "Right_Left",
      "time": 111094
    },
    {
      "button": "Right_Left",
      "time": 114367
    },
    {
      "button": "Right_Left",
      "time": 114639
    },
    {
      "button": "Right_Left",
      "time": 117094
    },
    {
      "button": "Right_Left",
      "time": 117639
    },
    {
      "button": "Right_Left",
      "time": 119549
    },
    {
      "button": "Right_Left",
      "time": 120639
    },
    {
      "button": "Right_Left",
      "time": 121730,
      "isLongPress": true,
      "longPressTime": 1091
    },
    {
      "button": "Right_Left",
      "time": 123909
    },
    {
      "button": "Right_Left",
      "time": 126091
    },
    {
      "button": "Right_Left",
      "time": 127727
    },
    {
      "button": "Right_Left",
      "time": 128545
    },
    {
      "button": "Right_Left",
      "time": 129909,
      "isLongPress": true,
      "longPressTime": 818
    },
    {
      "button": "Right_Left",
      "time": 134818
    },
    {
      "button": "Right_Down",
      "time": 10454
    },
    {
      "button": "Right_Down",
      "time": 15367,
      "isLongPress": true,
      "longPressTime": 3818
    },
    {
      "button": "Right_Down",
      "time": 20276
    },
    {
      "button": "Right_Down",
      "time": 22458
    },
    {
      "button": "Right_Down",
      "time": 25727
    },
    {
      "button": "Right_Down",
      "time": 26545
    },
    {
      "button": "Right_Down",
      "time": 27636
    },
    {
      "button": "Right_Down",
      "time": 28182
    },
    {
      "button": "Right_Down",
      "time": 34182
    },
    {
      "button": "Right_Down",
      "time": 34454
    },
    {
      "button": "Right_Down",
      "time": 35545,
      "isLongPress": true,
      "longPressTime": 545
    },
    {
      "button": "Right_Down",
      "time": 37182,
      "isLongPress": true,
      "longPressTime": 545
    },
    {
      "button": "Right_Down",
      "time": 41000,
      "isLongPress": true,
      "longPressTime": 545
    },
    {
      "button": "Right_Down",
      "time": 42636
    },
    {
      "button": "Right_Down",
      "time": 45636
    },
    {
      "button": "Right_Down",
      "time": 49591
    },
    {
      "button": "Right_Down",
      "time": 50272
    },
    {
      "button": "Right_Down",
      "time": 50545
    },
    {
      "button": "Right_Down",
      "time": 51295
    },
    {
      "button": "Right_Down",
      "time": 53000
    },
    {
      "button": "Right_Down",
      "time": 53545,
      "isLongPress": true,
      "longPressTime": 1090
    },
    {
      "button": "Right_Down",
      "time": 57909
    },
    {
      "button": "Right_Down",
      "time": 58454,
      "isLongPress": true,
      "longPressTime": 818
    },
    {
      "button": "Right_Down",
      "time": 59545
    },
    {
      "button": "Right_Down",
      "time": 60091,
      "isLongPress": true,
      "longPressTime": 545
    },
    {
      "button": "Right_Down",
      "time": 61182
    },
    {
      "button": "Right_Down",
      "time": 61727,
      "isLongPress": true,
      "longPressTime": 1636
    },
    {
      "button": "Right_Down",
      "time": 64045
    },
    {
      "button": "Right_Down",
      "time": 64182
    },
    {
      "button": "Right_Down",
      "time": 64522
    },
    {
      "button": "Right_Down",
      "time": 66636,
      "isLongPress": true,
      "longPressTime": 1636
    },
    {
      "button": "Right_Down",
      "time": 71545
    },
    {
      "button": "Right_Down",
      "time": 72636
    },
    {
      "button": "Right_Down",
      "time": 73727
    },
    {
      "button": "Right_Down",
      "time": 74818
    },
    {
      "button": "Right_Down",
      "time": 75909
    },
    {
      "button": "Right_Down",
      "time": 78094
    },
    {
      "button": "Right_Down",
      "time": 80821
    },
    {
      "button": "Right_Down",
      "time": 81912
    },
    {
      "button": "Right_Down",
      "time": 82185
    },
    {
      "button": "Right_Down",
      "time": 83549,
      "isLongPress": true,
      "longPressTime": 545
    },
    {
      "button": "Right_Down",
      "time": 84912
    },
    {
      "button": "Right_Down",
      "time": 85639
    },
    {
      "button": "Right_Down",
      "time": 87367
    },
    {
      "button": "Right_Down",
      "time": 88458
    },
    {
      "button": "Right_Down",
      "time": 88730
    },
    {
      "button": "Right_Down",
      "time": 90639
    },
    {
      "button": "Right_Down",
      "time": 90821
    },
    {
      "button": "Right_Down",
      "time": 92821,
      "isLongPress": true,
      "longPressTime": 546
    },
    {
      "button": "Right_Down",
      "time": 93912
    },
    {
      "button": "Right_Down",
      "time": 96094
    },
    {
      "button": "Right_Down",
      "time": 99094
    },
    {
      "button": "Right_Down",
      "time": 99639
    },
    {
      "button": "Right_Down",
      "time": 101000
    },
    {
      "button": "Right_Down",
      "time": 102091
    },
    {
      "button": "Right_Down",
      "time": 102363
    },
    {
      "button": "Right_Down",
      "time": 103363
    },
    {
      "button": "Right_Down",
      "time": 104000
    },
    {
      "button": "Right_Down",
      "time": 104272
    },
    {
      "button": "Right_Down",
      "time": 105094
    },
    {
      "button": "Right_Down",
      "time": 105639
    },
    {
      "button": "Right_Down",
      "time": 110276
    },
    {
      "button": "Right_Down",
      "time": 110549
    },
    {
      "button": "Right_Down",
      "time": 112458
    },
    {
      "button": "Right_Down",
      "time": 113003
    },
    {
      "button": "Right_Down",
      "time": 113549
    },
    {
      "button": "Right_Down",
      "time": 114094
    },
    {
      "button": "Right_Down",
      "time": 115458
    },
    {
      "button": "Right_Down",
      "time": 117912,
      "isLongPress": true,
      "longPressTime": 1091
    },
    {
      "button": "Right_Down",
      "time": 119821
    },
    {
      "button": "Right_Down",
      "time": 120912
    },
    {
      "button": "Right_Down",
      "time": 121458
    },
    {
      "button": "Right_Down",
      "time": 124182
    },
    {
      "button": "Right_Down",
      "time": 126363
    },
    {
      "button": "Right_Down",
      "time": 128000
    },
    {
      "button": "Right_Down",
      "time": 128136
    },
    {
      "button": "Right_Down",
      "time": 129091
    },
    {
      "button": "Right_Down",
      "time": 131000,
      "isLongPress": true,
      "longPressTime": 818
    },
    {
      "button": "Right_Down",
      "time": 134454
    },
    {
      "button": "Right_Right",
      "time": 8454
    },
    {
      "button": "Right_Right",
      "time": 21367
    },
    {
      "button": "Right_Right",
      "time": 23549
    },
    {
      "button": "Right_Right",
      "time": 28454,
      "isLongPress": true,
      "longPressTime": 818
    },
    {
      "button": "Right_Right",
      "time": 33909
    },
    {
      "button": "Right_Right",
      "time": 42091
    },
    {
      "button": "Right_Right",
      "time": 44409
    },
    {
      "button": "Right_Right",
      "time": 45227
    },
    {
      "button": "Right_Right",
      "time": 45909,
      "isLongPress": true,
      "longPressTime": 1636
    },
    {
      "button": "Right_Right",
      "time": 55182
    },
    {
      "button": "Right_Right",
      "time": 55727,
      "isLongPress": true,
      "longPressTime": 545
    },
    {
      "button": "Right_Right",
      "time": 58182
    },
    {
      "button": "Right_Right",
      "time": 61454
    },
    {
      "button": "Right_Right",
      "time": 63636
    },
    {
      "button": "Right_Right",
      "time": 64795
    },
    {
      "button": "Right_Right",
      "time": 65000,
      "isLongPress": true,
      "longPressTime": 957
    },
    {
      "button": "Right_Right",
      "time": 75363
    },
    {
      "button": "Right_Right",
      "time": 77003,
      "isLongPress": true,
      "longPressTime": 546
    },
    {
      "button": "Right_Right",
      "time": 92276
    },
    {
      "button": "Right_Right",
      "time": 105367
    },
    {
      "button": "Right_Right",
      "time": 107549,
      "isLongPress": true,
      "longPressTime": 545
    },
    {
      "button": "Right_Right",
      "time": 112730
    },
    {
      "button": "Right_Right",
      "time": 113821
    },
    {
      "button": "Right_Right",
      "time": 115049
    },
    {
      "button": "Right_Right",
      "time": 115730,
      "isLongPress": true,
      "longPressTime": 819
    },
    {
      "button": "Right_Right",
      "time": 120094
    },
    {
      "button": "Right_Right",
      "time": 121185
    },
    {
      "button": "Right_Right",
      "time": 124454,
      "isLongPress": true,
      "longPressTime": 545
    },
    {
      "button": "Right_Right",
      "time": 126636,
      "isLongPress": true,
      "longPressTime": 545
    },
    {
      "button": "Right_Right",
      "time": 129636
    },
    {
      "button": "Right_Right",
      "time": 132091,
      "isLongPress": true,
      "longPressTime": 1636
    },
    {
      "button": "Right_Right",
      "time": 135000
    },
    {
      "button": "Right_Right",
      "time": 135912,
      "isLongPress": true,
      "longPressTime": 4088
    }
  ],
  "playMusicEvent": {
    "text": "Play_ui_feedback_musicgame_char06_FuNingNa"
  },
  "stopMusicEvent": {
    "text": "Stop_ui_feedback_musicgame_char06_FuNingNa"
  },
  "pauseMusicEvent": {
    "text": "Pause_ui_feedback_musicgame_char06_FuNingNa"
  },
  "resumeMusicEvent": {
    "text": "Resume_ui_feedback_musicgame_char06_FuNingNa"
  },
  "playPreviewMusicEvent": {
    "text": "Play_ui_feedback_musicgame_char06_FuNingNa_show"
  },
  "stopPreviewMusicEvent": {
    "text": "Stop_ui_feedback_musicgame_char06_FuNingNa_show"
  }
}