{
  "buttonSequence": [
    {
      "button": "Left_Left",
      "time": 11076
    },
    {
      "button": "Left_Left",
      "time": 13076
    },
    {
      "button": "Left_Left",
      "time": 21076
    },
    {
      "button": "Left_Left",
      "time": 27076
    },
    {
      "button": "Left_Left",
      "time": 29076
    },
    {
      "button": "Left_Left",
      "time": 32576
    },
    {
      "button": "Left_Left",
      "time": 33576
    },
    {
      "button": "Left_Left",
      "time": 34076
    },
    {
      "button": "Left_Left",
      "time": 37076
    },
    {
      "button": "Left_Left",
      "time": 45076,
      "isLongPress": true,
      "longPressTime": 2000
    },
    {
      "button": "Left_Left",
      "time": 49076
    },
    {
      "button": "Left_Left",
      "time": 50076
    },
    {
      "button": "Left_Left",
      "time": 51076
    },
    {
      "button": "Left_Left",
      "time": 52076
    },
    {
      "button": "Left_Left",
      "time": 52326
    },
    {
      "button": "Left_Left",
      "time": 52576
    },
    {
      "button": "Left_Left",
      "time": 53076
    },
    {
      "button": "Left_Left",
      "time": 54076
    },
    {
      "button": "Left_Left",
      "time": 55076
    },
    {
      "button": "Left_Left",
      "time": 56076
    },
    {
      "button": "Left_Left",
      "time": 57076
    },
    {
      "button": "Left_Left",
      "time": 57576
    },
    {
      "button": "Left_Left",
      "time": 59076
    },
    {
      "button": "Left_Left",
      "time": 59326
    },
    {
      "button": "Left_Left",
      "time": 61076
    },
    {
      "button": "Left_Left",
      "time": 62576
    },
    {
      "button": "Left_Left",
      "time": 63076,
      "isLongPress": true,
      "longPressTime": 500
    },
    {
      "button": "Left_Left",
      "time": 63826
    },
    {
      "button": "Left_Left",
      "time": 65076
    },
    {
      "button": "Left_Left",
      "time": 67076
    },
    {
      "button": "Left_Left",
      "time": 69076
    },
    {
      "button": "Left_Left",
      "time": 72076,
      "isLongPress": true,
      "longPressTime": 500
    },
    {
      "button": "Left_Left",
      "time": 74076
    },
    {
      "button": "Left_Left",
      "time": 74576
    },
    {
      "button": "Left_Left",
      "time": 74826
    },
    {
      "button": "Left_Left",
      "time": 75076
    },
    {
      "button": "Left_Left",
      "time": 76076
    },
    {
      "button": "Left_Left",
      "time": 78576,
      "isLongPress": true,
      "longPressTime": 500
    },
    {
      "button": "Left_Left",
      "time": 81076
    },
    {
      "button": "Left_Left",
      "time": 83076
    },
    {
      "button": "Left_Down",
      "time": 1076
    },
    {
      "button": "Left_Down",
      "time": 3076
    },
    {
      "button": "Left_Down",
      "time": 7076
    },
    {
      "button": "Left_Down",
      "time": 14576,
      "isLongPress": true,
      "longPressTime": 1500
    },
    {
      "button": "Left_Down",
      "time": 20576
    },
    {
      "button": "Left_Down",
      "time": 21576
    },
    {
      "button": "Left_Down",
      "time": 23576
    },
    {
      "button": "Left_Down",
      "time": 27326
    },
    {
      "button": "Left_Down",
      "time": 29326
    },
    {
      "button": "Left_Down",
      "time": 30076
    },
    {
      "button": "Left_Down",
      "time": 31826
    },
    {
      "button": "Left_Down",
      "time": 34576
    },
    {
      "button": "Left_Down",
      "time": 35076,
      "isLongPress": true,
      "longPressTime": 1000
    },
    {
      "button": "Left_Down",
      "time": 36826
    },
    {
      "button": "Left_Down",
      "time": 37326
    },
    {
      "button": "Left_Down",
      "time": 38576
    },
    {
      "button": "Left_Down",
      "time": 39076
    },
    {
      "button": "Left_Down",
      "time": 48576
    },
    {
      "button": "Left_Down",
      "time": 53826
    },
    {
      "button": "Left_Down",
      "time": 55826
    },
    {
      "button": "Left_Down",
      "time": 60076,
      "isLongPress": true,
      "longPressTime": 500
    },
    {
      "button": "Left_Down",
      "time": 61576
    },
    {
      "button": "Left_Down",
      "time": 64326
    },
    {
      "button": "Left_Down",
      "time": 65576
    },
    {
      "button": "Left_Down",
      "time": 67326
    },
    {
      "button": "Left_Down",
      "time": 70826
    },
    {
      "button": "Left_Down",
      "time": 71576
    },
    {
      "button": "Left_Down",
      "time": 73826
    },
    {
      "button": "Left_Down",
      "time": 75326
    },
    {
      "button": "Left_Down",
      "time": 78076
    },
    {
      "button": "Left_Right",
      "time": 5076
    },
    {
      "button": "Left_Right",
      "time": 8076
    },
    {
      "button": "Left_Right",
      "time": 9076
    },
    {
      "button": "Left_Right",
      "time": 12576
    },
    {
      "button": "Left_Right",
      "time": 14076
    },
    {
      "button": "Left_Right",
      "time": 18076
    },
    {
      "button": "Left_Right",
      "time": 19076
    },
    {
      "button": "Left_Right",
      "time": 20076
    },
    {
      "button": "Left_Right",
      "time": 22076
    },
    {
      "button": "Left_Right",
      "time": 23076
    },
    {
      "button": "Left_Right",
      "time": 27576
    },
    {
      "button": "Left_Right",
      "time": 28076
    },
    {
      "button": "Left_Right",
      "time": 29576
    },
    {
      "button": "Left_Right",
      "time": 30576
    },
    {
      "button": "Left_Right",
      "time": 31076,
      "isLongPress": true,
      "longPressTime": 500
    },
    {
      "button": "Left_Right",
      "time": 32076
    },
    {
      "button": "Left_Right",
      "time": 36576
    },
    {
      "button": "Left_Right",
      "time": 37576
    },
    {
      "button": "Left_Right",
      "time": 39576
    },
    {
      "button": "Left_Right",
      "time": 40076,
      "isLongPress": true,
      "longPressTime": 500
    },
    {
      "button": "Left_Right",
      "time": 42076
    },
    {
      "button": "Left_Right",
      "time": 42701
    },
    {
      "button": "Left_Right",
      "time": 42951
    },
    {
      "button": "Left_Right",
      "time": 48076
    },
    {
      "button": "Left_Right",
      "time": 53576
    },
    {
      "button": "Left_Right",
      "time": 55576
    },
    {
      "button": "Left_Right",
      "time": 58076
    },
    {
      "button": "Left_Right",
      "time": 58576
    },
    {
      "button": "Left_Right",
      "time": 59576
    },
    {
      "button": "Left_Right",
      "time": 59826
    },
    {
      "button": "Left_Right",
      "time": 62076
    },
    {
      "button": "Left_Right",
      "time": 64576
    },
    {
      "button": "Left_Right",
      "time": 66076,
      "isLongPress": true,
      "longPressTime": 500
    },
    {
      "button": "Left_Right",
      "time": 67576
    },
    {
      "button": "Left_Right",
      "time": 68576
    },
    {
      "button": "Left_Right",
      "time": 69576
    },
    {
      "button": "Left_Right",
      "time": 70076,
      "isLongPress": true,
      "longPressTime": 500
    },
    {
      "button": "Left_Right",
      "time": 73576
    },
    {
      "button": "Left_Right",
      "time": 75576
    },
    {
      "button": "Left_Right",
      "time": 77076
    },
    {
      "button": "Left_Right",
      "time": 77826
    },
    {
      "button": "Left_Right",
      "time": 80076
    },
    {
      "button": "Left_Right",
      "time": 82076
    },
    {
      "button": "Left_Right",
      "time": 84076
    },
    {
      "button": "Left_Right",
      "time": 87576,
      "isLongPress": true,
      "longPressTime": 1500
    },
    {
      "button": "Right_Left",
      "time": 4576,
      "isLongPress": true,
      "longPressTime": 500
    },
    {
      "button": "Right_Left",
      "time": 8326,
      "isLongPress": true,
      "longPressTime": 750
    },
    {
      "button": "Right_Left",
      "time": 12326
    },
    {
      "button": "Right_Left",
      "time": 13826
    },
    {
      "button": "Right_Left",
      "time": 14326
    },
    {
      "button": "Right_Left",
      "time": 17576
    },
    {
      "button": "Right_Left",
      "time": 18326
    },
    {
      "button": "Right_Left",
      "time": 18826
    },
    {
      "button": "Right_Left",
      "time": 19576
    },
    {
      "button": "Right_Left",
      "time": 22326
    },
    {
      "button": "Right_Left",
      "time": 22826
    },
    {
      "button": "Right_Left",
      "time": 23326
    },
    {
      "button": "Right_Left",
      "time": 27826
    },
    {
      "button": "Right_Left",
      "time": 28326
    },
    {
      "button": "Right_Left",
      "time": 29826
    },
    {
      "button": "Right_Left",
      "time": 30826
    },
    {
      "button": "Right_Left",
      "time": 31576
    },
    {
      "button": "Right_Left",
      "time": 32076
    },
    {
      "button": "Right_Left",
      "time": 36326
    },
    {
      "button": "Right_Left",
      "time": 37826
    },
    {
      "button": "Right_Left",
      "time": 39826
    },
    {
      "button": "Right_Left",
      "time": 40576
    },
    {
      "button": "Right_Left",
      "time": 41576
    },
    {
      "button": "Right_Left",
      "time": 41826
    },
    {
      "button": "Right_Left",
      "time": 42576
    },
    {
      "button": "Right_Left",
      "time": 42826
    },
    {
      "button": "Right_Left",
      "time": 43076
    },
    {
      "button": "Right_Left",
      "time": 49076,
      "isLongPress": true,
      "longPressTime": 2000
    },
    {
      "button": "Right_Left",
      "time": 53576
    },
    {
      "button": "Right_Left",
      "time": 54826
    },
    {
      "button": "Right_Left",
      "time": 55576
    },
    {
      "button": "Right_Left",
      "time": 58326
    },
    {
      "button": "Right_Left",
      "time": 58826
    },
    {
      "button": "Right_Left",
      "time": 59576
    },
    {
      "button": "Right_Left",
      "time": 59826
    },
    {
      "button": "Right_Left",
      "time": 61826
    },
    {
      "button": "Right_Left",
      "time": 64576
    },
    {
      "button": "Right_Left",
      "time": 66576
    },
    {
      "button": "Right_Left",
      "time": 67576
    },
    {
      "button": "Right_Left",
      "time": 68576
    },
    {
      "button": "Right_Left",
      "time": 69826
    },
    {
      "button": "Right_Left",
      "time": 71076,
      "isLongPress": true,
      "longPressTime": 500
    },
    {
      "button": "Right_Left",
      "time": 73576
    },
    {
      "button": "Right_Left",
      "time": 75576
    },
    {
      "button": "Right_Left",
      "time": 75826
    },
    {
      "button": "Right_Left",
      "time": 77576
    },
    {
      "button": "Right_Left",
      "time": 80076
    },
    {
      "button": "Right_Left",
      "time": 82076
    },
    {
      "button": "Right_Left",
      "time": 84076,
      "isLongPress": true,
      "longPressTime": 3500
    },
    {
      "button": "Right_Down",
      "time": 2076
    },
    {
      "button": "Right_Down",
      "time": 4076
    },
    {
      "button": "Right_Down",
      "time": 6076
    },
    {
      "button": "Right_Down",
      "time": 14576,
      "isLongPress": true,
      "longPressTime": 1500
    },
    {
      "button": "Right_Down",
      "time": 17076
    },
    {
      "button": "Right_Down",
      "time": 18576
    },
    {
      "button": "Right_Down",
      "time": 20326
    },
    {
      "button": "Right_Down",
      "time": 20826
    },
    {
      "button": "Right_Down",
      "time": 22576
    },
    {
      "button": "Right_Down",
      "time": 23576,
      "isLongPress": true,
      "longPressTime": 2500
    },
    {
      "button": "Right_Down",
      "time": 28576
    },
    {
      "button": "Right_Down",
      "time": 30076
    },
    {
      "button": "Right_Down",
      "time": 36076
    },
    {
      "button": "Right_Down",
      "time": 38076,
      "isLongPress": true,
      "longPressTime": 500
    },
    {
      "button": "Right_Down",
      "time": 38826
    },
    {
      "button": "Right_Down",
      "time": 41076
    },
    {
      "button": "Right_Down",
      "time": 41326
    },
    {
      "button": "Right_Down",
      "time": 48576
    },
    {
      "button": "Right_Down",
      "time": 53326
    },
    {
      "button": "Right_Down",
      "time": 55326
    },
    {
      "button": "Right_Down",
      "time": 60076,
      "isLongPress": true,
      "longPressTime": 500
    },
    {
      "button": "Right_Down",
      "time": 61326
    },
    {
      "button": "Right_Down",
      "time": 64076
    },
    {
      "button": "Right_Down",
      "time": 68326
    },
    {
      "button": "Right_Down",
      "time": 69326
    },
    {
      "button": "Right_Down",
      "time": 70576
    },
    {
      "button": "Right_Down",
      "time": 71826
    },
    {
      "button": "Right_Down",
      "time": 73326
    },
    {
      "button": "Right_Down",
      "time": 77326
    },
    {
      "button": "Right_Down",
      "time": 78076
    },
    {
      "button": "Right_Right",
      "time": 10076
    },
    {
      "button": "Right_Right",
      "time": 12076
    },
    {
      "button": "Right_Right",
      "time": 21076
    },
    {
      "button": "Right_Right",
      "time": 28826
    },
    {
      "button": "Right_Right",
      "time": 29076
    },
    {
      "button": "Right_Right",
      "time": 33076,
      "isLongPress": true,
      "longPressTime": 500
    },
    {
      "button": "Right_Right",
      "time": 33826
    },
    {
      "button": "Right_Right",
      "time": 34076
    },
    {
      "button": "Right_Right",
      "time": 44076,
      "isLongPress": true,
      "longPressTime": 1000
    },
    {
      "button": "Right_Right",
      "time": 46076
    },
    {
      "button": "Right_Right",
      "time": 47076
    },
    {
      "button": "Right_Right",
      "time": 47826
    },
    {
      "button": "Right_Right",
      "time": 48076
    },
    {
      "button": "Right_Right",
      "time": 52826
    },
    {
      "button": "Right_Right",
      "time": 53076
    },
    {
      "button": "Right_Right",
      "time": 54076
    },
    {
      "button": "Right_Right",
      "time": 55076
    },
    {
      "button": "Right_Right",
      "time": 56076,
      "isLongPress": true,
      "longPressTime": 1000
    },
    {
      "button": "Right_Right",
      "time": 57326
    },
    {
      "button": "Right_Right",
      "time": 57826
    },
    {
      "button": "Right_Right",
      "time": 59076
    },
    {
      "button": "Right_Right",
      "time": 59326
    },
    {
      "button": "Right_Right",
      "time": 62826
    },
    {
      "button": "Right_Right",
      "time": 63576
    },
    {
      "button": "Right_Right",
      "time": 65326
    },
    {
      "button": "Right_Right",
      "time": 65826
    },
    {
      "button": "Right_Right",
      "time": 68076
    },
    {
      "button": "Right_Right",
      "time": 72326
    },
    {
      "button": "Right_Right",
      "time": 72576
    },
    {
      "button": "Right_Right",
      "time": 73076
    },
    {
      "button": "Right_Right",
      "time": 74076
    },
    {
      "button": "Right_Right",
      "time": 74701
    },
    {
      "button": "Right_Right",
      "time": 74951
    },
    {
      "button": "Right_Right",
      "time": 76076
    },
    {
      "button": "Right_Right",
      "time": 77076
    },
    {
      "button": "Right_Right",
      "time": 79076
    }
  ],
  "playMusicEvent": {
    "text": "Play_ui_feedback_musicgame_char04_HuTao"
  },
  "stopMusicEvent": {
    "text": "Stop_ui_feedback_musicgame_char04_HuTao"
  },
  "pauseMusicEvent": {
    "text": "Pause_ui_feedback_musicgame_char04_HuTao"
  },
  "resumeMusicEvent": {
    "text": "Resume_ui_feedback_musicgame_char04_HuTao"
  },
  "playPreviewMusicEvent": {
    "text": "Play_ui_feedback_musicgame_char04_HuTao_show"
  },
  "stopPreviewMusicEvent": {
    "text": "Stop_ui_feedback_musicgame_char04_HuTao_show"
  }
}