{
  "buttonSequence": [
    {
      "button": "Left_Left",
      "time": 48555
    },
    {
      "button": "Left_Down",
      "time": 4269
    },
    {
      "button": "Left_Down",
      "time": 7126
    },
    {
      "button": "Left_Down",
      "time": 8912
    },
    {
      "button": "Left_Down",
      "time": 9091
    },
    {
      "button": "Left_Down",
      "time": 9269
    },
    {
      "button": "Left_Down",
      "time": 11769
    },
    {
      "button": "Left_Down",
      "time": 11948
    },
    {
      "button": "Left_Down",
      "time": 12126
    },
    {
      "button": "Left_Down",
      "time": 13912
    },
    {
      "button": "Left_Down",
      "time": 14091
    },
    {
      "button": "Left_Down",
      "time": 25341
    },
    {
      "button": "Left_Down",
      "time": 25519
    },
    {
      "button": "Left_Down",
      "time": 31412
    },
    {
      "button": "Left_Down",
      "time": 31948
    },
    {
      "button": "Left_Down",
      "time": 32841
    },
    {
      "button": "Left_Down",
      "time": 39626
    },
    {
      "button": "Left_Down",
      "time": 39805
    },
    {
      "button": "Left_Down",
      "time": 42841
    },
    {
      "button": "Left_Down",
      "time": 48198
    },
    {
      "button": "Left_Down",
      "time": 51055
    },
    {
      "button": "Left_Down",
      "time": 51233
    },
    {
      "button": "Left_Down",
      "time": 51412
    },
    {
      "button": "Left_Down",
      "time": 56735
    },
    {
      "button": "Left_Down",
      "time": 59559
    },
    {
      "button": "Left_Down",
      "time": 62382
    },
    {
      "button": "Left_Down",
      "time": 65206
    },
    {
      "button": "Left_Down",
      "time": 65559
    },
    {
      "button": "Left_Down",
      "time": 70853
    },
    {
      "button": "Left_Down",
      "time": 71206
    },
    {
      "button": "Left_Down",
      "time": 73323
    },
    {
      "button": "Left_Down",
      "time": 74735
    },
    {
      "button": "Left_Down",
      "time": 74970
    },
    {
      "button": "Left_Down",
      "time": 75206
    },
    {
      "button": "Left_Down",
      "time": 75441
    },
    {
      "button": "Left_Down",
      "time": 76147
    },
    {
      "button": "Left_Down",
      "time": 76853
    },
    {
      "button": "Left_Down",
      "time": 81794
    },
    {
      "button": "Left_Down",
      "time": 82323
    },
    {
      "button": "Left_Down",
      "time": 83559
    },
    {
      "button": "Left_Down",
      "time": 83912
    },
    {
      "button": "Left_Right",
      "time": 3912
    },
    {
      "button": "Left_Right",
      "time": 6769
    },
    {
      "button": "Left_Right",
      "time": 8555
    },
    {
      "button": "Left_Right",
      "time": 11412
    },
    {
      "button": "Left_Right",
      "time": 16769
    },
    {
      "button": "Left_Right",
      "time": 16948
    },
    {
      "button": "Left_Right",
      "time": 19983
    },
    {
      "button": "Left_Right",
      "time": 20519
    },
    {
      "button": "Left_Right",
      "time": 21055
    },
    {
      "button": "Left_Right",
      "time": 21412
    },
    {
      "button": "Left_Right",
      "time": 22483
    },
    {
      "button": "Left_Right",
      "time": 22841
    },
    {
      "button": "Left_Right",
      "time": 24269
    },
    {
      "button": "Left_Right",
      "time": 28198
    },
    {
      "button": "Left_Right",
      "time": 28376
    },
    {
      "button": "Left_Right",
      "time": 29983
    },
    {
      "button": "Left_Right",
      "time": 31055
    },
    {
      "button": "Left_Right",
      "time": 35698
    },
    {
      "button": "Left_Right",
      "time": 36412
    },
    {
      "button": "Left_Right",
      "time": 42483
    },
    {
      "button": "Left_Right",
      "time": 44269
    },
    {
      "button": "Left_Right",
      "time": 44983
    },
    {
      "button": "Left_Right",
      "time": 45698
    },
    {
      "button": "Left_Right",
      "time": 47840
    },
    {
      "button": "Left_Right",
      "time": 54265
    },
    {
      "button": "Left_Right",
      "time": 54794
    },
    {
      "button": "Left_Right",
      "time": 55147
    },
    {
      "button": "Left_Right",
      "time": 55500
    },
    {
      "button": "Left_Right",
      "time": 55853
    },
    {
      "button": "Left_Right",
      "time": 56206
    },
    {
      "button": "Left_Right",
      "time": 57088
    },
    {
      "button": "Left_Right",
      "time": 57617
    },
    {
      "button": "Left_Right",
      "time": 57970
    },
    {
      "button": "Left_Right",
      "time": 58323
    },
    {
      "button": "Left_Right",
      "time": 58676
    },
    {
      "button": "Left_Right",
      "time": 59029
    },
    {
      "button": "Left_Right",
      "time": 59912,
      "isLongPress": true,
      "longPressTime": 529
    },
    {
      "button": "Left_Right",
      "time": 60794
    },
    {
      "button": "Left_Right",
      "time": 61147
    },
    {
      "button": "Left_Right",
      "time": 61500
    },
    {
      "button": "Left_Right",
      "time": 61853
    },
    {
      "button": "Left_Right",
      "time": 62735
    },
    {
      "button": "Left_Right",
      "time": 63265
    },
    {
      "button": "Left_Right",
      "time": 63617
    },
    {
      "button": "Left_Right",
      "time": 63970
    },
    {
      "button": "Left_Right",
      "time": 64323
    },
    {
      "button": "Left_Right",
      "time": 64676
    },
    {
      "button": "Left_Right",
      "time": 67676
    },
    {
      "button": "Left_Right",
      "time": 68206
    },
    {
      "button": "Left_Right",
      "time": 68912
    },
    {
      "button": "Left_Right",
      "time": 69441
    },
    {
      "button": "Left_Right",
      "time": 69794
    },
    {
      "button": "Left_Right",
      "time": 78088
    },
    {
      "button": "Left_Right",
      "time": 79323
    },
    {
      "button": "Left_Right",
      "time": 79676
    },
    {
      "button": "Left_Right",
      "time": 80912
    },
    {
      "button": "Right_Left",
      "time": 2841
    },
    {
      "button": "Right_Left",
      "time": 5698
    },
    {
      "button": "Right_Left",
      "time": 9626
    },
    {
      "button": "Right_Left",
      "time": 12483
    },
    {
      "button": "Right_Left",
      "time": 17126
    },
    {
      "button": "Right_Left",
      "time": 17662
    },
    {
      "button": "Right_Left",
      "time": 18198
    },
    {
      "button": "Right_Left",
      "time": 18555
    },
    {
      "button": "Right_Left",
      "time": 19626
    },
    {
      "button": "Right_Left",
      "time": 19805
    },
    {
      "button": "Right_Left",
      "time": 22662
    },
    {
      "button": "Right_Left",
      "time": 28555
    },
    {
      "button": "Right_Left",
      "time": 29090
    },
    {
      "button": "Right_Left",
      "time": 29626
    },
    {
      "button": "Right_Left",
      "time": 30341
    },
    {
      "button": "Right_Left",
      "time": 30698
    },
    {
      "button": "Right_Left",
      "time": 38555
    },
    {
      "button": "Right_Left",
      "time": 42126
    },
    {
      "button": "Right_Left",
      "time": 45340
    },
    {
      "button": "Right_Left",
      "time": 47126
    },
    {
      "button": "Right_Left",
      "time": 55323
    },
    {
      "button": "Right_Left",
      "time": 55676
    },
    {
      "button": "Right_Left",
      "time": 56029
    },
    {
      "button": "Right_Left",
      "time": 58147
    },
    {
      "button": "Right_Left",
      "time": 58500
    },
    {
      "button": "Right_Left",
      "time": 58853
    },
    {
      "button": "Right_Left",
      "time": 60970
    },
    {
      "button": "Right_Left",
      "time": 61323
    },
    {
      "button": "Right_Left",
      "time": 61676
    },
    {
      "button": "Right_Left",
      "time": 63794
    },
    {
      "button": "Right_Left",
      "time": 64147
    },
    {
      "button": "Right_Left",
      "time": 64500
    },
    {
      "button": "Right_Left",
      "time": 66970
    },
    {
      "button": "Right_Left",
      "time": 68029
    },
    {
      "button": "Right_Left",
      "time": 68382
    },
    {
      "button": "Right_Left",
      "time": 72617
    },
    {
      "button": "Right_Left",
      "time": 77912
    },
    {
      "button": "Right_Left",
      "time": 78265
    },
    {
      "button": "Right_Left",
      "time": 79500
    },
    {
      "button": "Right_Left",
      "time": 80735
    },
    {
      "button": "Right_Left",
      "time": 81088
    },
    {
      "button": "Right_Down",
      "time": 3198
    },
    {
      "button": "Right_Down",
      "time": 3376
    },
    {
      "button": "Right_Down",
      "time": 3555
    },
    {
      "button": "Right_Down",
      "time": 6055
    },
    {
      "button": "Right_Down",
      "time": 6233
    },
    {
      "button": "Right_Down",
      "time": 6412
    },
    {
      "button": "Right_Down",
      "time": 9983
    },
    {
      "button": "Right_Down",
      "time": 12841
    },
    {
      "button": "Right_Down",
      "time": 14269
    },
    {
      "button": "Right_Down",
      "time": 14805
    },
    {
      "button": "Right_Down",
      "time": 15341
    },
    {
      "button": "Right_Down",
      "time": 15698
    },
    {
      "button": "Right_Down",
      "time": 25698
    },
    {
      "button": "Right_Down",
      "time": 26233
    },
    {
      "button": "Right_Down",
      "time": 26769
    },
    {
      "button": "Right_Down",
      "time": 27126
    },
    {
      "button": "Right_Down",
      "time": 32483
    },
    {
      "button": "Right_Down",
      "time": 34269
    },
    {
      "button": "Right_Down",
      "time": 37126
    },
    {
      "button": "Right_Down",
      "time": 37662
    },
    {
      "button": "Right_Down",
      "time": 38198
    },
    {
      "button": "Right_Down",
      "time": 39983
    },
    {
      "button": "Right_Down",
      "time": 40519
    },
    {
      "button": "Right_Down",
      "time": 41055
    },
    {
      "button": "Right_Down",
      "time": 41412
    },
    {
      "button": "Right_Down",
      "time": 43912
    },
    {
      "button": "Right_Down",
      "time": 49983
    },
    {
      "button": "Right_Down",
      "time": 52841
    },
    {
      "button": "Right_Down",
      "time": 56559
    },
    {
      "button": "Right_Down",
      "time": 56912
    },
    {
      "button": "Right_Down",
      "time": 59382
    },
    {
      "button": "Right_Down",
      "time": 59735
    },
    {
      "button": "Right_Down",
      "time": 62206
    },
    {
      "button": "Right_Down",
      "time": 62559
    },
    {
      "button": "Right_Down",
      "time": 65029
    },
    {
      "button": "Right_Down",
      "time": 65382
    },
    {
      "button": "Right_Down",
      "time": 66088
    },
    {
      "button": "Right_Down",
      "time": 66617
    },
    {
      "button": "Right_Down",
      "time": 71029
    },
    {
      "button": "Right_Down",
      "time": 71735
    },
    {
      "button": "Right_Down",
      "time": 72264
    },
    {
      "button": "Right_Down",
      "time": 74029
    },
    {
      "button": "Right_Down",
      "time": 74735
    },
    {
      "button": "Right_Down",
      "time": 74970
    },
    {
      "button": "Right_Down",
      "time": 75206
    },
    {
      "button": "Right_Down",
      "time": 75441
    },
    {
      "button": "Right_Down",
      "time": 76147
    },
    {
      "button": "Right_Down",
      "time": 76853
    },
    {
      "button": "Right_Down",
      "time": 82147
    },
    {
      "button": "Right_Down",
      "time": 82500
    },
    {
      "button": "Right_Down",
      "time": 83735
    }
  ],
  "instrument": -508589841,
  "playMusicEvent": {
    "text": ""
  },
  "stopMusicEvent": {
    "text": ""
  },
  "pauseMusicEvent": {
    "text": ""
  },
  "resumeMusicEvent": {
    "text": ""
  }
}