{
  "buttonSequence": [
    {
      "button": "Left_Down",
      "time": 4289
    },
    {
      "button": "Left_Down",
      "time": 7142
    },
    {
      "button": "Left_Down",
      "time": 8928
    },
    {
      "button": "Left_Down",
      "time": 11785
    },
    {
      "button": "Left_Down",
      "time": 21071
    },
    {
      "button": "Left_Down",
      "time": 21428
    },
    {
      "button": "Left_Down",
      "time": 30714
    },
    {
      "button": "Left_Down",
      "time": 31071
    },
    {
      "button": "Left_Down",
      "time": 31428
    },
    {
      "button": "Left_Down",
      "time": 34285
    },
    {
      "button": "Left_Down",
      "time": 37142
    },
    {
      "button": "Left_Down",
      "time": 37678
    },
    {
      "button": "Left_Down",
      "time": 38214
    },
    {
      "button": "Left_Down",
      "time": 38571
    },
    {
      "button": "Left_Down",
      "time": 52857
    },
    {
      "button": "Left_Down",
      "time": 54285
    },
    {
      "button": "Left_Down",
      "time": 66647
    },
    {
      "button": "Left_Down",
      "time": 68058
    },
    {
      "button": "Left_Down",
      "time": 74058
    },
    {
      "button": "Left_Down",
      "time": 76176
    },
    {
      "button": "Left_Down",
      "time": 77941
    },
    {
      "button": "Left_Down",
      "time": 83588
    },
    {
      "button": "Left_Right",
      "time": 3928
    },
    {
      "button": "Left_Right",
      "time": 6776
    },
    {
      "button": "Left_Right",
      "time": 8571
    },
    {
      "button": "Left_Right",
      "time": 11428
    },
    {
      "button": "Left_Right",
      "time": 15357
    },
    {
      "button": "Left_Right",
      "time": 15714
    },
    {
      "button": "Left_Right",
      "time": 18214
    },
    {
      "button": "Left_Right",
      "time": 18571
    },
    {
      "button": "Left_Right",
      "time": 20535
    },
    {
      "button": "Left_Right",
      "time": 25357
    },
    {
      "button": "Left_Right",
      "time": 26249
    },
    {
      "button": "Left_Right",
      "time": 28214
    },
    {
      "button": "Left_Right",
      "time": 29107
    },
    {
      "button": "Left_Right",
      "time": 43928
    },
    {
      "button": "Left_Right",
      "time": 45714
    },
    {
      "button": "Left_Right",
      "time": 47857
    },
    {
      "button": "Left_Right",
      "time": 48214
    },
    {
      "button": "Left_Right",
      "time": 48571
    },
    {
      "button": "Left_Right",
      "time": 49999
    },
    {
      "button": "Left_Right",
      "time": 55176
    },
    {
      "button": "Left_Right",
      "time": 55882
    },
    {
      "button": "Left_Right",
      "time": 56764
    },
    {
      "button": "Left_Right",
      "time": 57470
    },
    {
      "button": "Left_Right",
      "time": 58352
    },
    {
      "button": "Left_Right",
      "time": 59764
    },
    {
      "button": "Left_Right",
      "time": 61529
    },
    {
      "button": "Left_Right",
      "time": 62411
    },
    {
      "button": "Left_Right",
      "time": 63117
    },
    {
      "button": "Left_Right",
      "time": 63999
    },
    {
      "button": "Left_Right",
      "time": 65588
    },
    {
      "button": "Left_Right",
      "time": 66117
    },
    {
      "button": "Left_Right",
      "time": 67000
    },
    {
      "button": "Left_Right",
      "time": 67529
    },
    {
      "button": "Left_Right",
      "time": 68941
    },
    {
      "button": "Left_Right",
      "time": 69470
    },
    {
      "button": "Left_Right",
      "time": 71764
    },
    {
      "button": "Left_Right",
      "time": 72294
    },
    {
      "button": "Left_Right",
      "time": 73352
    },
    {
      "button": "Left_Right",
      "time": 74764
    },
    {
      "button": "Left_Right",
      "time": 75514
    },
    {
      "button": "Left_Right",
      "time": 76882
    },
    {
      "button": "Left_Right",
      "time": 77588
    },
    {
      "button": "Left_Right",
      "time": 82176
    },
    {
      "button": "Right_Left",
      "time": 5714
    },
    {
      "button": "Right_Left",
      "time": 9642
    },
    {
      "button": "Right_Left",
      "time": 12499
    },
    {
      "button": "Right_Left",
      "time": 13928
    },
    {
      "button": "Right_Left",
      "time": 14821
    },
    {
      "button": "Right_Left",
      "time": 16785
    },
    {
      "button": "Right_Left",
      "time": 17678
    },
    {
      "button": "Right_Left",
      "time": 19642
    },
    {
      "button": "Right_Left",
      "time": 22493
    },
    {
      "button": "Right_Left",
      "time": 22857
    },
    {
      "button": "Right_Left",
      "time": 26785
    },
    {
      "button": "Right_Left",
      "time": 27142
    },
    {
      "button": "Right_Left",
      "time": 29642
    },
    {
      "button": "Right_Left",
      "time": 29999
    },
    {
      "button": "Right_Left",
      "time": 33571
    },
    {
      "button": "Right_Left",
      "time": 39642
    },
    {
      "button": "Right_Left",
      "time": 42142
    },
    {
      "button": "Right_Left",
      "time": 42857
    },
    {
      "button": "Right_Left",
      "time": 45357
    },
    {
      "button": "Right_Left",
      "time": 47142
    },
    {
      "button": "Right_Left",
      "time": 57117
    },
    {
      "button": "Right_Left",
      "time": 58705
    },
    {
      "button": "Right_Left",
      "time": 59411
    },
    {
      "button": "Right_Left",
      "time": 60117
    },
    {
      "button": "Right_Left",
      "time": 61176
    },
    {
      "button": "Right_Left",
      "time": 62764
    },
    {
      "button": "Right_Left",
      "time": 64352
    },
    {
      "button": "Right_Left",
      "time": 69823
    },
    {
      "button": "Right_Left",
      "time": 70882
    },
    {
      "button": "Right_Left",
      "time": 72647
    },
    {
      "button": "Right_Left",
      "time": 80764
    },
    {
      "button": "Right_Down",
      "time": 3214
    },
    {
      "button": "Right_Down",
      "time": 6071
    },
    {
      "button": "Right_Down",
      "time": 9999
    },
    {
      "button": "Right_Down",
      "time": 12857
    },
    {
      "button": "Right_Down",
      "time": 30357
    },
    {
      "button": "Right_Down",
      "time": 31964
    },
    {
      "button": "Right_Down",
      "time": 32499
    },
    {
      "button": "Right_Down",
      "time": 32857
    },
    {
      "button": "Right_Down",
      "time": 35714
    },
    {
      "button": "Right_Down",
      "time": 36428
    },
    {
      "button": "Right_Down",
      "time": 40535
    },
    {
      "button": "Right_Down",
      "time": 41071
    },
    {
      "button": "Right_Down",
      "time": 41428
    },
    {
      "button": "Right_Down",
      "time": 42499
    },
    {
      "button": "Right_Down",
      "time": 44993
    },
    {
      "button": "Right_Down",
      "time": 51071
    },
    {
      "button": "Right_Down",
      "time": 79352
    }
  ],
  "instrument": 1108468265,
  "playMusicEvent": {
    "text": ""
  },
  "stopMusicEvent": {
    "text": ""
  },
  "pauseMusicEvent": {
    "text": ""
  },
  "resumeMusicEvent": {
    "text": ""
  }
}