{
  "buttonSequence": [
    {
      "button": "Left_Down",
      "time": 9600
    },
    {
      "button": "Left_Down",
      "time": 9800
    },
    {
      "button": "Left_Down",
      "time": 12000
    },
    {
      "button": "Left_Down",
      "time": 12200
    },
    {
      "button": "Left_Down",
      "time": 12400
    },
    {
      "button": "Left_Down",
      "time": 12600
    },
    {
      "button": "Left_Down",
      "time": 17600
    },
    {
      "button": "Left_Down",
      "time": 18000
    },
    {
      "button": "Left_Down",
      "time": 19200
    },
    {
      "button": "Left_Down",
      "time": 20800
    },
    {
      "button": "Left_Down",
      "time": 21600
    },
    {
      "button": "Left_Down",
      "time": 24800
    },
    {
      "button": "Left_Down",
      "time": 25600
    },
    {
      "button": "Left_Down",
      "time": 27200
    },
    {
      "button": "Left_Down",
      "time": 28000
    },
    {
      "button": "Left_Down",
      "time": 31200
    },
    {
      "button": "Left_Down",
      "time": 34400
    },
    {
      "button": "Left_Down",
      "time": 36800
    },
    {
      "button": "Left_Down",
      "time": 37600
    },
    {
      "button": "Left_Down",
      "time": 38400
    },
    {
      "button": "Left_Down",
      "time": 40800
    },
    {
      "button": "Left_Down",
      "time": 44800
    },
    {
      "button": "Left_Down",
      "time": 46400
    },
    {
      "button": "Left_Down",
      "time": 56000
    },
    {
      "button": "Left_Down",
      "time": 56200
    },
    {
      "button": "Left_Down",
      "time": 60800
    },
    {
      "button": "Left_Down",
      "time": 61200
    },
    {
      "button": "Left_Down",
      "time": 64599
    },
    {
      "button": "Left_Down",
      "time": 72000
    },
    {
      "button": "Left_Down",
      "time": 72600
    },
    {
      "button": "Left_Down",
      "time": 73600
    },
    {
      "button": "Left_Down",
      "time": 76800
    },
    {
      "button": "Left_Right",
      "time": 7600
    },
    {
      "button": "Left_Right",
      "time": 7800
    },
    {
      "button": "Left_Right",
      "time": 14000
    },
    {
      "button": "Left_Right",
      "time": 14200
    },
    {
      "button": "Left_Right",
      "time": 16000
    },
    {
      "button": "Left_Right",
      "time": 16400
    },
    {
      "button": "Left_Right",
      "time": 20400
    },
    {
      "button": "Left_Right",
      "time": 38200
    },
    {
      "button": "Left_Right",
      "time": 39600
    },
    {
      "button": "Left_Right",
      "time": 43200
    },
    {
      "button": "Left_Right",
      "time": 44000
    },
    {
      "button": "Left_Right",
      "time": 44266
    },
    {
      "button": "Left_Right",
      "time": 44533
    },
    {
      "button": "Left_Right",
      "time": 45600
    },
    {
      "button": "Left_Right",
      "time": 47200
    },
    {
      "button": "Left_Right",
      "time": 48800
    },
    {
      "button": "Left_Right",
      "time": 50400
    },
    {
      "button": "Left_Right",
      "time": 51200
    },
    {
      "button": "Left_Right",
      "time": 51400
    },
    {
      "button": "Left_Right",
      "time": 53599
    },
    {
      "button": "Left_Right",
      "time": 54400
    },
    {
      "button": "Left_Right",
      "time": 54800
    },
    {
      "button": "Left_Right",
      "time": 56800
    },
    {
      "button": "Left_Right",
      "time": 57000
    },
    {
      "button": "Left_Right",
      "time": 57599
    },
    {
      "button": "Left_Right",
      "time": 58199
    },
    {
      "button": "Left_Right",
      "time": 59199
    },
    {
      "button": "Left_Right",
      "time": 59799
    },
    {
      "button": "Left_Right",
      "time": 62400
    },
    {
      "button": "Left_Right",
      "time": 62800
    },
    {
      "button": "Left_Right",
      "time": 67200
    },
    {
      "button": "Left_Right",
      "time": 68800
    },
    {
      "button": "Left_Right",
      "time": 69200
    },
    {
      "button": "Left_Right",
      "time": 75200
    },
    {
      "button": "Left_Right",
      "time": 75333
    },
    {
      "button": "Left_Right",
      "time": 75466
    },
    {
      "button": "Left_Right",
      "time": 75600
    },
    {
      "button": "Left_Right",
      "time": 75733
    },
    {
      "button": "Left_Right",
      "time": 75866
    },
    {
      "button": "Left_Right",
      "time": 76000
    },
    {
      "button": "Left_Right",
      "time": 80000
    },
    {
      "button": "Left_Right",
      "time": 82800
    },
    {
      "button": "Right_Left",
      "time": 6400
    },
    {
      "button": "Right_Left",
      "time": 6600
    },
    {
      "button": "Right_Left",
      "time": 8800
    },
    {
      "button": "Right_Left",
      "time": 9000
    },
    {
      "button": "Right_Left",
      "time": 9200
    },
    {
      "button": "Right_Left",
      "time": 9400
    },
    {
      "button": "Right_Left",
      "time": 12800
    },
    {
      "button": "Right_Left",
      "time": 13000
    },
    {
      "button": "Right_Left",
      "time": 15200
    },
    {
      "button": "Right_Left",
      "time": 15400
    },
    {
      "button": "Right_Left",
      "time": 15600
    },
    {
      "button": "Right_Left",
      "time": 15800
    },
    {
      "button": "Right_Left",
      "time": 16800
    },
    {
      "button": "Right_Left",
      "time": 17200
    },
    {
      "button": "Right_Left",
      "time": 20200
    },
    {
      "button": "Right_Left",
      "time": 20600
    },
    {
      "button": "Right_Left",
      "time": 22000
    },
    {
      "button": "Right_Left",
      "time": 22200
    },
    {
      "button": "Right_Left",
      "time": 22400
    },
    {
      "button": "Right_Left",
      "time": 22600
    },
    {
      "button": "Right_Left",
      "time": 22800
    },
    {
      "button": "Right_Left",
      "time": 23800
    },
    {
      "button": "Right_Left",
      "time": 24000
    },
    {
      "button": "Right_Left",
      "time": 24200
    },
    {
      "button": "Right_Left",
      "time": 24400
    },
    {
      "button": "Right_Left",
      "time": 25200
    },
    {
      "button": "Right_Left",
      "time": 25400
    },
    {
      "button": "Right_Left",
      "time": 26600
    },
    {
      "button": "Right_Left",
      "time": 26800
    },
    {
      "button": "Right_Left",
      "time": 27000
    },
    {
      "button": "Right_Left",
      "time": 28400
    },
    {
      "button": "Right_Left",
      "time": 28600
    },
    {
      "button": "Right_Left",
      "time": 28800
    },
    {
      "button": "Right_Left",
      "time": 29000
    },
    {
      "button": "Right_Left",
      "time": 29200
    },
    {
      "button": "Right_Left",
      "time": 30400
    },
    {
      "button": "Right_Left",
      "time": 30800
    },
    {
      "button": "Right_Left",
      "time": 31600
    },
    {
      "button": "Right_Left",
      "time": 32000
    },
    {
      "button": "Right_Left",
      "time": 33000
    },
    {
      "button": "Right_Left",
      "time": 33200
    },
    {
      "button": "Right_Left",
      "time": 33400
    },
    {
      "button": "Right_Left",
      "time": 33600
    },
    {
      "button": "Right_Left",
      "time": 34000
    },
    {
      "button": "Right_Left",
      "time": 34800
    },
    {
      "button": "Right_Left",
      "time": 35000
    },
    {
      "button": "Right_Left",
      "time": 35200
    },
    {
      "button": "Right_Left",
      "time": 35400
    },
    {
      "button": "Right_Left",
      "time": 35600
    },
    {
      "button": "Right_Left",
      "time": 36000
    },
    {
      "button": "Right_Left",
      "time": 36200
    },
    {
      "button": "Right_Left",
      "time": 36400
    },
    {
      "button": "Right_Left",
      "time": 36600
    },
    {
      "button": "Right_Left",
      "time": 37000
    },
    {
      "button": "Right_Left",
      "time": 38000
    },
    {
      "button": "Right_Left",
      "time": 39400
    },
    {
      "button": "Right_Left",
      "time": 39800
    },
    {
      "button": "Right_Left",
      "time": 40400
    },
    {
      "button": "Right_Left",
      "time": 41000
    },
    {
      "button": "Right_Left",
      "time": 41600
    },
    {
      "button": "Right_Left",
      "time": 42400
    },
    {
      "button": "Right_Left",
      "time": 48000
    },
    {
      "button": "Right_Left",
      "time": 48200
    },
    {
      "button": "Right_Left",
      "time": 52400
    },
    {
      "button": "Right_Left",
      "time": 52600
    },
    {
      "button": "Right_Left",
      "time": 55200
    },
    {
      "button": "Right_Left",
      "time": 55600
    },
    {
      "button": "Right_Left",
      "time": 56400
    },
    {
      "button": "Right_Left",
      "time": 56600
    },
    {
      "button": "Right_Left",
      "time": 63200
    },
    {
      "button": "Right_Left",
      "time": 63399
    },
    {
      "button": "Right_Left",
      "time": 63600
    },
    {
      "button": "Right_Left",
      "time": 63799
    },
    {
      "button": "Right_Left",
      "time": 63999
    },
    {
      "button": "Right_Left",
      "time": 65600
    },
    {
      "button": "Right_Left",
      "time": 66200
    },
    {
      "button": "Right_Left",
      "time": 69600
    },
    {
      "button": "Right_Left",
      "time": 69800
    },
    {
      "button": "Right_Left",
      "time": 70000
    },
    {
      "button": "Right_Left",
      "time": 70200
    },
    {
      "button": "Right_Left",
      "time": 70400
    },
    {
      "button": "Right_Left",
      "time": 71000
    },
    {
      "button": "Right_Left",
      "time": 80800
    },
    {
      "button": "Right_Left",
      "time": 81600
    },
    {
      "button": "Right_Left",
      "time": 82000
    },
    {
      "button": "Right_Down",
      "time": 10800
    },
    {
      "button": "Right_Down",
      "time": 11000
    },
    {
      "button": "Right_Down",
      "time": 18400
    },
    {
      "button": "Right_Down",
      "time": 18800
    },
    {
      "button": "Right_Down",
      "time": 20000
    },
    {
      "button": "Right_Down",
      "time": 21200
    },
    {
      "button": "Right_Down",
      "time": 23200
    },
    {
      "button": "Right_Down",
      "time": 26400
    },
    {
      "button": "Right_Down",
      "time": 27600
    },
    {
      "button": "Right_Down",
      "time": 29600
    },
    {
      "button": "Right_Down",
      "time": 30000
    },
    {
      "button": "Right_Down",
      "time": 32800
    },
    {
      "button": "Right_Down",
      "time": 37200
    },
    {
      "button": "Right_Down",
      "time": 39200
    },
    {
      "button": "Right_Down",
      "time": 40000
    },
    {
      "button": "Right_Down",
      "time": 49600
    },
    {
      "button": "Right_Down",
      "time": 57200
    },
    {
      "button": "Right_Down",
      "time": 57400
    },
    {
      "button": "Right_Down",
      "time": 61600
    },
    {
      "button": "Right_Down",
      "time": 62000
    }
  ],
  "instrument": -1012915936,
  "playMusicEvent": {
    "text": "Play_ui_feedback_musicgame_char_yidou"
  },
  "stopMusicEvent": {
    "text": "Stop_ui_feedback_musicgame_char_yidou"
  },
  "pauseMusicEvent": {
    "text": "Pause_ui_feedback_musicgame_char_yidou"
  },
  "resumeMusicEvent": {
    "text": "Resume_ui_feedback_musicgame_char_yidou"
  }
}