{
  "luaDataPath": "",
  "dontUseDefaultFinish": true,
  "startBlackKeepTime": 1.0,
  "entityBan": "",
  "disableNpcLod": true,
  "protectNpcMobileLod": true,
  "talkFlag": 7,
  "startFade": {
    "startFadeInDuration": 0.5,
    "startFadeOutDuration": 0.5
  },
  "endFade": {
    "startFadeOutDuration": 0.0
  },
  "actors": [
    {
      "alias": "Avatar",
      "visible": true,
      "bornPointName": "Q1903202born",
      "relativePosType": "AVATAR_NEW",
      "relativePosNpcAlias": "",
      "_notDestroyInTalk": true,
      "_bindMovingTargetKey": ""
    },
    {
      "configID": 1023,
      "alias": "1023",
      "visible": true,
      "bornPointName": "Q1903202cy",
      "relativePosType": "AVATAR_NEW",
      "relativePosNpcAlias": "",
      "_notDestroyInTalk": true,
      "_bindMovingTargetKey": ""
    }
  ],
  "group": [
    [
      {
        "$type": "MoleMole.Config.ConfigEmotionTemplateAction",
        "type": "EMOTION_TEMPLATE",
        "delayTime": 0.04899999871850014,
        "aliasList": [
          "1023"
        ],
        "actionId": 114,
        "_flag": 384,
        "emoTemplateID": 10100
      },
      {
        "$type": "NPCNMEOCADD",
        "type": "LOOK_AT",
        "delayTime": 0.30000001192092896,
        "aliasList": [
          "1023"
        ],
        "actionId": 112,
        "_flag": 64,
        "useTargetPos": true,
        "enableAbsolute": true,
        "targetOffset": {
          "x": 2347.527099609375,
          "y": 261.25201416015625,
          "z": -699.9879760742188
        },
        "targetPosition": {
          "x": 2024.4639892578125,
          "y": 262.5539855957031,
          "z": -357.4049987792969
        },
        "headTurnTime": 0.30000001192092896,
        "targetNpcAlias": "",
        "lookAtTargetType": "CAMERA",
        "targetNpcLookAtPoint": "",
        "BHGPHGNFCBF": ""
      }
    ],
    [
      {
        "$type": "EFHODGEJOHJ",
        "type": "CAMERA_MOVE",
        "duration": 1.0,
        "actionId": 109,
        "cameraPosType": "RELATIVE_TO_TARGET_ENTITY",
        "camTargetType": "RELATIVE_TO_TARGET_ENTITY",
        "camFov": 30.0,
        "lerpPattern": 6,
        "cameraBlendType": "EaseInOutCubic",
        "MDKBPBJCMHH": {},
        "targetNpcAlias": "1023",
        "PHGBNNGCJKJ": "",
        "NFILMKCFHEB": "",
        "BGPNGHDAECF": ""
      },
      {
        "$type": "MJFAIFFAGOF",
        "type": "DIALOG",
        "aliasList": [
          "1023"
        ],
        "actionId": 115,
        "dialogID": 1903202401,
        "protectTime": 0.5
      },
      {
        "$type": "ICHLNKHGCAG",
        "type": "EMO_SYNC",
        "aliasList": [
          "1023"
        ],
        "actionId": 117,
        "_flag": 256,
        "dataPath": "Cs_Emo_Avatar_Simple_Common_Set/Cs_Emo_Avatar_Talk/Cs_Emo_Coop_Common/Cs_Emo_Coop_ChongYun_01/Cs_Emo_1903202401",
        "phonemePath": "",
        "emotionPath": "",
        "mateDataPath": "",
        "matePhonemePath": "",
        "mateEmotionPath": "",
        "dataPathHashList": [
          6188446852924676466,
          12521400326112592544,
          6686081716146161005,
          10445400632620431511
        ],
        "PACNIGOOENN": "",
        "PIBDNPHIAGC": ""
      },
      {
        "$type": "MoleMole.Config.ConfigEmotionTemplateAction",
        "type": "EMOTION_TEMPLATE",
        "delayTime": 0.04899999871850014,
        "aliasList": [
          "1023"
        ],
        "actionId": 116,
        "_flag": 384,
        "emoTemplateID": 10101
      }
    ],
    [
      {
        "$type": "MJFAIFFAGOF",
        "type": "DIALOG",
        "aliasList": [
          "1023"
        ],
        "actionId": 118,
        "dialogID": 1903202402
      },
      {
        "$type": "MoleMole.Config.ConfigEmotionTemplateAction",
        "type": "EMOTION_TEMPLATE",
        "aliasList": [
          "1023"
        ],
        "actionId": 119,
        "_flag": 384,
        "emoTemplateID": 10201
      },
      {
        "$type": "ICHLNKHGCAG",
        "type": "EMO_SYNC",
        "aliasList": [
          "1023"
        ],
        "actionId": 120,
        "_flag": 256,
        "dataPath": "Cs_Emo_Avatar_Simple_Common_Set/Cs_Emo_Avatar_Talk/Cs_Emo_Coop_Common/Cs_Emo_Coop_ChongYun_01/Cs_Emo_1903202402",
        "phonemePath": "",
        "emotionPath": "",
        "mateDataPath": "",
        "matePhonemePath": "",
        "mateEmotionPath": "",
        "dataPathHashList": [
          2481166704418514009,
          14899595524692533668,
          18340067947177362859,
          17920164666629082209
        ],
        "PACNIGOOENN": "",
        "PIBDNPHIAGC": ""
      }
    ],
    [
      {
        "$type": "MJFAIFFAGOF",
        "type": "DIALOG",
        "aliasList": [
          "1023"
        ],
        "actionId": 121,
        "dialogID": 1903202403,
        "protectTime": 0.4000000059604645
      },
      {
        "$type": "MoleMole.Config.ConfigEmotionTemplateAction",
        "type": "EMOTION_TEMPLATE",
        "aliasList": [
          "1023"
        ],
        "actionId": 122,
        "_flag": 384,
        "emoTemplateID": 10100
      },
      {
        "$type": "ICHLNKHGCAG",
        "type": "EMO_SYNC",
        "aliasList": [
          "1023"
        ],
        "actionId": 123,
        "_flag": 256,
        "dataPath": "Cs_Emo_Avatar_Simple_Common_Set/Cs_Emo_Avatar_Talk/Cs_Emo_Coop_Common/Cs_Emo_Coop_ChongYun_01/Cs_Emo_1903202403",
        "phonemePath": "",
        "emotionPath": "",
        "mateDataPath": "",
        "matePhonemePath": "",
        "mateEmotionPath": "",
        "dataPathHashList": [
          15800224213131792455,
          5079481726537325595,
          17371943044038536771,
          11040833053883898422
        ],
        "PACNIGOOENN": "",
        "PIBDNPHIAGC": ""
      },
      {
        "$type": "OBCDECFOOBC",
        "type": "DIALOG_SELECT",
        "delayTime": 0.4000000059604645,
        "aliasList": [
          "Avatar"
        ],
        "actionId": 110,
        "dialogIDList": [
          1903202404
        ],
        "grpIDList": [
          1648442701
        ],
        "useGrpId": true,
        "countDownGrpId": 1648442696
      }
    ],
    [
      {
        "$type": "MJFAIFFAGOF",
        "type": "DIALOG",
        "aliasList": [
          "1023"
        ],
        "actionId": 124,
        "dialogID": 1903202405
      },
      {
        "$type": "MoleMole.Config.ConfigEmotionTemplateAction",
        "type": "EMOTION_TEMPLATE",
        "aliasList": [
          "1023"
        ],
        "actionId": 125,
        "_flag": 384,
        "emoTemplateID": 10701
      },
      {
        "$type": "ICHLNKHGCAG",
        "type": "EMO_SYNC",
        "aliasList": [
          "1023"
        ],
        "actionId": 126,
        "_flag": 256,
        "dataPath": "Cs_Emo_Avatar_Simple_Common_Set/Cs_Emo_Avatar_Talk/Cs_Emo_Coop_Common/Cs_Emo_Coop_ChongYun_01/Cs_Emo_1903202405",
        "phonemePath": "",
        "emotionPath": "",
        "mateDataPath": "",
        "matePhonemePath": "",
        "mateEmotionPath": "",
        "dataPathHashList": [
          6610256619155741706,
          1329285058908528876,
          174869320286251723,
          14082101436983080369
        ],
        "PACNIGOOENN": "",
        "PIBDNPHIAGC": ""
      }
    ],
    [
      {
        "$type": "MJFAIFFAGOF",
        "type": "DIALOG",
        "aliasList": [
          "1023"
        ],
        "actionId": 127,
        "dialogID": 1903202406,
        "protectTime": 0.4000000059604645
      },
      {
        "$type": "MoleMole.Config.ConfigEmotionTemplateAction",
        "type": "EMOTION_TEMPLATE",
        "aliasList": [
          "1023"
        ],
        "actionId": 128,
        "_flag": 384,
        "emoTemplateID": 10100
      },
      {
        "$type": "ICHLNKHGCAG",
        "type": "EMO_SYNC",
        "aliasList": [
          "1023"
        ],
        "actionId": 129,
        "_flag": 256,
        "dataPath": "Cs_Emo_Avatar_Simple_Common_Set/Cs_Emo_Avatar_Talk/Cs_Emo_Coop_Common/Cs_Emo_Coop_ChongYun_01/Cs_Emo_1903202406",
        "phonemePath": "",
        "emotionPath": "",
        "mateDataPath": "",
        "matePhonemePath": "",
        "mateEmotionPath": "",
        "dataPathHashList": [
          11446103605216934471,
          11702274002456828457,
          7655988538771382672,
          3634222284104158444
        ],
        "PACNIGOOENN": "",
        "PIBDNPHIAGC": ""
      },
      {
        "$type": "OBCDECFOOBC",
        "type": "DIALOG_SELECT",
        "delayTime": 0.4000000059604645,
        "aliasList": [
          "Avatar"
        ],
        "actionId": 111,
        "dialogIDList": [
          1903202407,
          1903202408,
          1903202409
        ],
        "grpIDList": [
          1648442703,
          1648442703,
          1648442703
        ],
        "useGrpId": true,
        "countDownGrpId": 1648442696
      }
    ],
    [
      {
        "$type": "MJFAIFFAGOF",
        "type": "DIALOG",
        "aliasList": [
          "1023"
        ],
        "actionId": 130,
        "dialogID": 1903202410
      },
      {
        "$type": "MoleMole.Config.ConfigEmotionTemplateAction",
        "type": "EMOTION_TEMPLATE",
        "aliasList": [
          "1023"
        ],
        "actionId": 131,
        "_flag": 384,
        "emoTemplateID": 10301
      },
      {
        "$type": "ICHLNKHGCAG",
        "type": "EMO_SYNC",
        "aliasList": [
          "1023"
        ],
        "actionId": 132,
        "_flag": 256,
        "dataPath": "Cs_Emo_Avatar_Simple_Common_Set/Cs_Emo_Avatar_Talk/Cs_Emo_Coop_Common/Cs_Emo_Coop_ChongYun_01/Cs_Emo_1903202410",
        "phonemePath": "",
        "emotionPath": "",
        "mateDataPath": "",
        "matePhonemePath": "",
        "mateEmotionPath": "",
        "dataPathHashList": [
          15383216179679687633,
          7670190787520338220,
          17100148145151525169,
          9139822850853102003
        ],
        "PACNIGOOENN": "",
        "PIBDNPHIAGC": ""
      }
    ],
    [
      {
        "$type": "MJFAIFFAGOF",
        "type": "DIALOG",
        "aliasList": [
          "1023"
        ],
        "actionId": 133,
        "dialogID": 1903202411
      },
      {
        "$type": "MoleMole.Config.ConfigEmotionTemplateAction",
        "type": "EMOTION_TEMPLATE",
        "aliasList": [
          "1023"
        ],
        "actionId": 134,
        "_flag": 384,
        "emoTemplateID": 10100
      },
      {
        "$type": "ICHLNKHGCAG",
        "type": "EMO_SYNC",
        "aliasList": [
          "1023"
        ],
        "actionId": 135,
        "_flag": 256,
        "dataPath": "Cs_Emo_Avatar_Simple_Common_Set/Cs_Emo_Avatar_Talk/Cs_Emo_Coop_Common/Cs_Emo_Coop_ChongYun_01/Cs_Emo_1903202411",
        "phonemePath": "",
        "emotionPath": "",
        "mateDataPath": "",
        "matePhonemePath": "",
        "mateEmotionPath": "",
        "dataPathHashList": [
          16865223839712460966,
          5227185545306533582,
          5122423838063111634,
          7500661187652766123
        ],
        "PACNIGOOENN": "",
        "PIBDNPHIAGC": ""
      }
    ],
    [
      {
        "$type": "ICHLNKHGCAG",
        "type": "EMO_SYNC",
        "aliasList": [
          "1023"
        ],
        "actionId": 183,
        "_flag": 256,
        "_actionTagList": [
          "TalkSkip"
        ],
        "dataPath": "Cs_Emo_Avatar_Simple_Common_Set/Cs_Emo_Avatar_Talk/Cs_Emo_Coop_Common/Cs_Emo_Coop_Avatar/Chongyun/Cs_Emo_Avatar_Coop_Standby",
        "phonemePath": "",
        "emotionPath": "",
        "mateDataPath": "",
        "matePhonemePath": "",
        "mateEmotionPath": "",
        "dataPathHashList": [
          3863928750838581688,
          6433719605438977076,
          3659297899332975233,
          17852654968756712923
        ],
        "PACNIGOOENN": "",
        "PIBDNPHIAGC": ""
      },
      {
        "$type": "MJFAIFFAGOF",
        "type": "DIALOG",
        "aliasList": [
          "1023"
        ],
        "actionId": 187,
        "_actionTagList": [
          "TalkSkip"
        ],
        "dialogID": 1903202411
      },
      {
        "$type": "NPCNMEOCADD",
        "type": "LOOK_AT",
        "aliasList": [
          "1023"
        ],
        "actionId": 188,
        "_flag": 64,
        "_actionTagList": [
          "TalkSkip"
        ],
        "useTargetPos": true,
        "enableAbsolute": true,
        "targetOffset": {
          "x": 2347.527099609375,
          "y": 261.25201416015625,
          "z": -699.9879760742188
        },
        "targetPosition": {
          "x": 2024.4639892578125,
          "y": 262.5539855957031,
          "z": -357.4049987792969
        },
        "headTurnTime": 0.30000001192092896,
        "targetNpcAlias": "",
        "lookAtTargetType": "CAMERA",
        "targetNpcLookAtPoint": "",
        "BHGPHGNFCBF": ""
      },
      {
        "$type": "EFHODGEJOHJ",
        "type": "CAMERA_MOVE",
        "delayTime": 0.5,
        "duration": 0.10000000149011612,
        "actionId": 186,
        "_actionTagList": [
          "TalkSkip"
        ],
        "cameraPosType": "RELATIVE_TO_TARGET_ENTITY",
        "camTargetType": "RELATIVE_TO_TARGET_ENTITY",
        "camFov": 30.0,
        "lerpPattern": 6,
        "cameraBlendType": "EaseInOutCubic",
        "MDKBPBJCMHH": {},
        "targetNpcAlias": "1023",
        "PHGBNNGCJKJ": "",
        "NFILMKCFHEB": "",
        "BGPNGHDAECF": ""
      },
      {
        "$type": "ICHLNKHGCAG",
        "type": "EMO_SYNC",
        "delayTime": 0.5,
        "aliasList": [
          "1023"
        ],
        "actionId": 184,
        "_flag": 256,
        "_actionTagList": [
          "TalkSkip"
        ],
        "dataPath": "Cs_Emo_Avatar_Simple_Common_Set/Cs_Emo_Avatar_Talk/Cs_Emo_Coop_Common/Cs_Emo_Coop_ChongYun_01/Cs_Emo_1903202411",
        "phonemePath": "",
        "emotionPath": "",
        "mateDataPath": "",
        "matePhonemePath": "",
        "mateEmotionPath": "",
        "dataPathHashList": [
          16865223839712460966,
          5227185545306533582,
          5122423838063111634,
          7500661187652766123
        ],
        "PACNIGOOENN": "",
        "PIBDNPHIAGC": ""
      },
      {
        "$type": "EDCHPJLDKIN",
        "type": "BODY_LANG",
        "delayTime": 1.0,
        "aliasList": [
          "1023"
        ],
        "actionId": 185,
        "_actionTagList": [
          "TalkSkip"
        ],
        "bodyLangParam": 10100,
        "forceDoFreeStyle": true,
        "canDoRepeatFreeStyle": false,
        "cantBackToIdleWhenSitLoop": true,
        "eventPatternSuiteKey": ""
      }
    ]
  ],
  "groupId": [
    {
      "grpId": 1648442697,
      "nextGrpId": 1648442698,
      "_noCircleNextGrpId": 1648442698
    },
    {
      "index": 1,
      "grpId": 1648442698,
      "nextGrpId": 1648442699,
      "_noCircleNextGrpId": 1648442699
    },
    {
      "index": 2,
      "grpId": 1648442699,
      "nextGrpId": 1648442700,
      "_noCircleNextGrpId": 1648442700
    },
    {
      "index": 3,
      "grpId": 1648442700,
      "nextGrpId": 1648442701,
      "_noCircleNextGrpId": 1648442701
    },
    {
      "index": 4,
      "grpId": 1648442701,
      "nextGrpId": 1648442702,
      "_noCircleNextGrpId": 1648442702
    },
    {
      "index": 5,
      "grpId": 1648442702,
      "nextGrpId": 1648442703,
      "_noCircleNextGrpId": 1648442703
    },
    {
      "index": 6,
      "grpId": 1648442703,
      "nextGrpId": 1648442704,
      "_noCircleNextGrpId": 1648442704
    },
    {
      "index": 7,
      "grpId": 1648442704,
      "nextGrpId": 1648442705,
      "_noCircleNextGrpId": 1648442705
    },
    {
      "index": 8,
      "grpId": 1648442705,
      "nextGrpId": 3857083399,
      "_noCircleNextGrpId": 3857083399
    }
  ],
  "freeStyleDic": {
    "1023": [
      10100,
      10101,
      10201,
      10701,
      10301
    ]
  },
  "GHHKLKIGEOD": {
    "1023": [
      "SitChat01AS",
      "SitHoldArm01AS",
      "SitPutArm01AS",
      "SitShrug01AS",
      "SitThink01AS"
    ]
  },
  "GOCHGPDDIEK": {
    "GLDEKKOPHPB": "",
    "MONBEELCJPA": ""
  },
  "IDMJJGEMEPG": 1648442705,
  "DJNHOINPCOI": {
    "BMLEPIJCLCL": ""
  }
}