{
  "luaDataPath": "",
  "dontUseDefaultFinish": true,
  "entityBan": "",
  "disableNpcLod": true,
  "protectNpcMobileLod": true,
  "talkFlag": 7,
  "startFade": {
    "startFadeOutDuration": 0.0
  },
  "endFade": {
    "startFadeOutDuration": 0.0
  },
  "actors": [
    {
      "alias": "Avatar",
      "visible": true,
      "bornPointName": "Q1902301Born",
      "relativePosType": "AVATAR_NEW",
      "relativePosNpcAlias": "",
      "_notDestroyInTalk": true,
      "_bindMovingTargetKey": ""
    },
    {
      "configID": 1023,
      "alias": "1023",
      "visible": true,
      "bornPointName": "Q1902301CY",
      "relativePosType": "AVATAR_NEW",
      "relativePosNpcAlias": "",
      "_notDestroyInTalk": true,
      "_bindMovingTargetKey": ""
    }
  ],
  "group": [
    [
      {
        "$type": "MoleMole.Config.ConfigEmotionTemplateAction",
        "type": "EMOTION_TEMPLATE",
        "aliasList": [
          "1023"
        ],
        "actionId": 113,
        "_flag": 384,
        "emoTemplateID": 10100
      },
      {
        "$type": "NPCNMEOCADD",
        "type": "LOOK_AT",
        "delayTime": 0.30000001192092896,
        "aliasList": [
          "1023"
        ],
        "actionId": 111,
        "_flag": 64,
        "useTargetPos": true,
        "enableAbsolute": true,
        "targetOffset": {
          "x": 2347.527099609375,
          "y": 261.25201416015625,
          "z": -699.9879760742188
        },
        "targetPosition": {
          "x": 2024.4639892578125,
          "y": 262.5539855957031,
          "z": -357.4049987792969
        },
        "headTurnTime": 0.30000001192092896,
        "targetNpcAlias": "",
        "lookAtTargetType": "CAMERA",
        "targetNpcLookAtPoint": "",
        "BHGPHGNFCBF": ""
      }
    ],
    [
      {
        "$type": "EFHODGEJOHJ",
        "type": "CAMERA_MOVE",
        "duration": 1.0,
        "actionId": 108,
        "cameraPosType": "RELATIVE_TO_TARGET_ENTITY",
        "camTargetType": "RELATIVE_TO_TARGET_ENTITY",
        "camFov": 30.0,
        "lerpPattern": 6,
        "cameraBlendType": "EaseInOutCubic",
        "MDKBPBJCMHH": {},
        "targetNpcAlias": "1023",
        "PHGBNNGCJKJ": "",
        "NFILMKCFHEB": "",
        "BGPNGHDAECF": ""
      },
      {
        "$type": "MJFAIFFAGOF",
        "type": "DIALOG",
        "aliasList": [
          "1023"
        ],
        "actionId": 114,
        "dialogID": 1902301201
      },
      {
        "$type": "MoleMole.Config.ConfigEmotionTemplateAction",
        "type": "EMOTION_TEMPLATE",
        "aliasList": [
          "1023"
        ],
        "actionId": 115,
        "_flag": 384,
        "emoTemplateID": 10601
      },
      {
        "$type": "ICHLNKHGCAG",
        "type": "EMO_SYNC",
        "aliasList": [
          "1023"
        ],
        "actionId": 116,
        "_flag": 256,
        "dataPath": "Cs_Emo_Avatar_Simple_Common_Set/Cs_Emo_Avatar_Talk/Cs_Emo_Coop_Common/Cs_Emo_Coop_ChongYun_01/Cs_Emo_1902301201",
        "phonemePath": "",
        "emotionPath": "",
        "mateDataPath": "",
        "matePhonemePath": "",
        "mateEmotionPath": "",
        "dataPathHashList": [
          14756967573507098057,
          14761312885978771329,
          12342741780436569649,
          17800126413392098648
        ],
        "PACNIGOOENN": "",
        "PIBDNPHIAGC": ""
      }
    ],
    [
      {
        "$type": "MJFAIFFAGOF",
        "type": "DIALOG",
        "aliasList": [
          "1023"
        ],
        "actionId": 117,
        "dialogID": 1902301501
      },
      {
        "$type": "MoleMole.Config.ConfigEmotionTemplateAction",
        "type": "EMOTION_TEMPLATE",
        "aliasList": [
          "1023"
        ],
        "actionId": 118,
        "_flag": 384,
        "emoTemplateID": 10100
      },
      {
        "$type": "ICHLNKHGCAG",
        "type": "EMO_SYNC",
        "aliasList": [
          "1023"
        ],
        "actionId": 119,
        "_flag": 256,
        "dataPath": "Cs_Emo_Avatar_Simple_Common_Set/Cs_Emo_Avatar_Talk/Cs_Emo_Coop_Common/Cs_Emo_Coop_ChongYun_01/Cs_Emo_1902301501",
        "phonemePath": "",
        "emotionPath": "",
        "mateDataPath": "",
        "matePhonemePath": "",
        "mateEmotionPath": "",
        "dataPathHashList": [
          7474678751356203658,
          1015419675885401973,
          2482628325670120662,
          5402570126721639936
        ],
        "PACNIGOOENN": "",
        "PIBDNPHIAGC": ""
      }
    ],
    [
      {
        "$type": "MJFAIFFAGOF",
        "type": "DIALOG",
        "aliasList": [
          "1023"
        ],
        "actionId": 120,
        "dialogID": 1902301502
      },
      {
        "$type": "MoleMole.Config.ConfigEmotionTemplateAction",
        "type": "EMOTION_TEMPLATE",
        "aliasList": [
          "1023"
        ],
        "actionId": 121,
        "_flag": 384,
        "emoTemplateID": 10100
      },
      {
        "$type": "ICHLNKHGCAG",
        "type": "EMO_SYNC",
        "aliasList": [
          "1023"
        ],
        "actionId": 122,
        "_flag": 256,
        "dataPath": "Cs_Emo_Avatar_Simple_Common_Set/Cs_Emo_Avatar_Talk/Cs_Emo_Coop_Common/Cs_Emo_Coop_ChongYun_01/Cs_Emo_1902301502",
        "phonemePath": "",
        "emotionPath": "",
        "mateDataPath": "",
        "matePhonemePath": "",
        "mateEmotionPath": "",
        "dataPathHashList": [
          10962749309174985268,
          13795681046060376866,
          7460515954669528334,
          17032649079173167481
        ],
        "PACNIGOOENN": "",
        "PIBDNPHIAGC": ""
      }
    ],
    [
      {
        "$type": "MJFAIFFAGOF",
        "type": "DIALOG",
        "aliasList": [
          "1023"
        ],
        "actionId": 123,
        "dialogID": 1902301503
      },
      {
        "$type": "MoleMole.Config.ConfigEmotionTemplateAction",
        "type": "EMOTION_TEMPLATE",
        "aliasList": [
          "1023"
        ],
        "actionId": 124,
        "_flag": 384,
        "emoTemplateID": 10100
      },
      {
        "$type": "ICHLNKHGCAG",
        "type": "EMO_SYNC",
        "aliasList": [
          "1023"
        ],
        "actionId": 125,
        "_flag": 256,
        "dataPath": "Cs_Emo_Avatar_Simple_Common_Set/Cs_Emo_Avatar_Talk/Cs_Emo_Coop_Common/Cs_Emo_Coop_ChongYun_01/Cs_Emo_1902301503",
        "phonemePath": "",
        "emotionPath": "",
        "mateDataPath": "",
        "matePhonemePath": "",
        "mateEmotionPath": "",
        "dataPathHashList": [
          11723928978916454515,
          6843412444516906507,
          2230181509966228214,
          12771075407392640188
        ],
        "PACNIGOOENN": "",
        "PIBDNPHIAGC": ""
      }
    ],
    [
      {
        "$type": "MJFAIFFAGOF",
        "type": "DIALOG",
        "aliasList": [
          "1023"
        ],
        "actionId": 126,
        "dialogID": 1902301504
      },
      {
        "$type": "MoleMole.Config.ConfigEmotionTemplateAction",
        "type": "EMOTION_TEMPLATE",
        "aliasList": [
          "1023"
        ],
        "actionId": 127,
        "_flag": 384,
        "emoTemplateID": 10100
      },
      {
        "$type": "ICHLNKHGCAG",
        "type": "EMO_SYNC",
        "aliasList": [
          "1023"
        ],
        "actionId": 128,
        "_flag": 320,
        "dataPath": "Cs_Emo_Avatar_Simple_Common_Set/Cs_Emo_Avatar_Talk/Cs_Emo_Coop_Common/Cs_Emo_Coop_ChongYun_01/Cs_Emo_1902301504",
        "phonemePath": "",
        "emotionPath": "",
        "mateDataPath": "",
        "matePhonemePath": "",
        "mateEmotionPath": "",
        "dataPathHashList": [
          17789328389464699582,
          17458230587831363959,
          2206757823966373304,
          11557022617052581044
        ],
        "PACNIGOOENN": "",
        "PIBDNPHIAGC": ""
      }
    ],
    [
      {
        "$type": "MoleMole.Config.ConfigTimeProtectAction",
        "type": "TIME_PROTECT",
        "duration": 0.30000001192092896,
        "actionId": 109
      }
    ],
    [
      {
        "$type": "ICHLNKHGCAG",
        "type": "EMO_SYNC",
        "aliasList": [
          "1023"
        ],
        "actionId": 176,
        "_flag": 256,
        "_actionTagList": [
          "TalkSkip"
        ],
        "dataPath": "Cs_Emo_Avatar_Simple_Common_Set/Cs_Emo_Avatar_Talk/Cs_Emo_Coop_Common/Cs_Emo_Coop_Avatar/Chongyun/Cs_Emo_Avatar_Coop_Standby",
        "phonemePath": "",
        "emotionPath": "",
        "mateDataPath": "",
        "matePhonemePath": "",
        "mateEmotionPath": "",
        "dataPathHashList": [
          3863928750838581688,
          6433719605438977076,
          3659297899332975233,
          17852654968756712923
        ],
        "PACNIGOOENN": "",
        "PIBDNPHIAGC": ""
      },
      {
        "$type": "MJFAIFFAGOF",
        "type": "DIALOG",
        "aliasList": [
          "1023"
        ],
        "actionId": 180,
        "_actionTagList": [
          "TalkSkip"
        ],
        "dialogID": 1902301504
      },
      {
        "$type": "NPCNMEOCADD",
        "type": "LOOK_AT",
        "aliasList": [
          "1023"
        ],
        "actionId": 181,
        "_flag": 64,
        "_actionTagList": [
          "TalkSkip"
        ],
        "useTargetPos": true,
        "enableAbsolute": true,
        "targetOffset": {
          "x": 2347.527099609375,
          "y": 261.25201416015625,
          "z": -699.9879760742188
        },
        "targetPosition": {
          "x": 2024.4639892578125,
          "y": 262.5539855957031,
          "z": -357.4049987792969
        },
        "headTurnTime": 0.30000001192092896,
        "targetNpcAlias": "",
        "lookAtTargetType": "CAMERA",
        "targetNpcLookAtPoint": "",
        "BHGPHGNFCBF": ""
      },
      {
        "$type": "EFHODGEJOHJ",
        "type": "CAMERA_MOVE",
        "delayTime": 0.5,
        "duration": 0.10000000149011612,
        "actionId": 179,
        "_actionTagList": [
          "TalkSkip"
        ],
        "cameraPosType": "RELATIVE_TO_TARGET_ENTITY",
        "camTargetType": "RELATIVE_TO_TARGET_ENTITY",
        "camFov": 30.0,
        "lerpPattern": 6,
        "cameraBlendType": "EaseInOutCubic",
        "MDKBPBJCMHH": {},
        "targetNpcAlias": "1023",
        "PHGBNNGCJKJ": "",
        "NFILMKCFHEB": "",
        "BGPNGHDAECF": ""
      },
      {
        "$type": "ICHLNKHGCAG",
        "type": "EMO_SYNC",
        "delayTime": 0.5,
        "aliasList": [
          "1023"
        ],
        "actionId": 177,
        "_flag": 256,
        "_actionTagList": [
          "TalkSkip"
        ],
        "dataPath": "Cs_Emo_Avatar_Simple_Common_Set/Cs_Emo_Avatar_Talk/Cs_Emo_Coop_Common/Cs_Emo_Coop_ChongYun_01/Cs_Emo_1902301504",
        "phonemePath": "",
        "emotionPath": "",
        "mateDataPath": "",
        "matePhonemePath": "",
        "mateEmotionPath": "",
        "dataPathHashList": [
          17789328389464699582,
          17458230587831363959,
          2206757823966373304,
          11557022617052581044
        ],
        "PACNIGOOENN": "",
        "PIBDNPHIAGC": ""
      },
      {
        "$type": "EDCHPJLDKIN",
        "type": "BODY_LANG",
        "delayTime": 1.0,
        "aliasList": [
          "1023"
        ],
        "actionId": 178,
        "_actionTagList": [
          "TalkSkip"
        ],
        "bodyLangParam": 10100,
        "forceDoFreeStyle": true,
        "canDoRepeatFreeStyle": false,
        "cantBackToIdleWhenSitLoop": true,
        "eventPatternSuiteKey": ""
      }
    ]
  ],
  "groupId": [
    {
      "grpId": 789536454,
      "nextGrpId": 789536455,
      "_noCircleNextGrpId": 789536455
    },
    {
      "index": 1,
      "grpId": 789536455,
      "nextGrpId": 789536456,
      "_noCircleNextGrpId": 789536456
    },
    {
      "index": 2,
      "grpId": 789536456,
      "nextGrpId": 789536457,
      "_noCircleNextGrpId": 789536457
    },
    {
      "index": 3,
      "grpId": 789536457,
      "nextGrpId": 789536458,
      "_noCircleNextGrpId": 789536458
    },
    {
      "index": 4,
      "grpId": 789536458,
      "nextGrpId": 789536459,
      "_noCircleNextGrpId": 789536459
    },
    {
      "index": 5,
      "grpId": 789536459,
      "nextGrpId": 789536460,
      "_noCircleNextGrpId": 789536460
    },
    {
      "index": 6,
      "grpId": 789536460,
      "nextGrpId": 789536461,
      "_noCircleNextGrpId": 789536461
    },
    {
      "index": 7,
      "grpId": 789536461,
      "nextGrpId": 789536462,
      "_noCircleNextGrpId": 789536462
    }
  ],
  "freeStyleDic": {
    "1023": [
      10100,
      10601
    ]
  },
  "GHHKLKIGEOD": {
    "1023": [
      "SitChat01AS",
      "SitHoldArm01AS",
      "SitPutArm01AS",
      "SitShrug01AS",
      "SitThink01AS"
    ]
  },
  "GOCHGPDDIEK": {
    "GLDEKKOPHPB": "",
    "MONBEELCJPA": ""
  },
  "IDMJJGEMEPG": 789536461,
  "DJNHOINPCOI": {
    "BMLEPIJCLCL": ""
  }
}