{
  "minArea": {
    "x": 4764.01025390625,
    "y": 310.0,
    "z": 3537.501708984375
  },
  "maxArea": {
    "x": 4943.08984375,
    "y": 430.0,
    "z": 3683.594482421875
  },
  "roadPoints": [
    {
      "x": 4764.01025390625,
      "y": 351.4668884277344,
      "z": 3637.021240234375
    },
    {
      "x": 4773.8603515625,
      "y": 355.3055114746094,
      "z": 3673.722412109375
    },
    {
      "x": 4814.287109375,
      "y": 349.63494873046875,
      "z": 3683.594482421875
    },
    {
      "x": 4854.4208984375,
      "y": 354.00885009765625,
      "z": 3683.12109375
    },
    {
      "x": 4943.08984375,
      "y": 348.4560241699219,
      "z": 3583.59228515625
    },
    {
      "x": 4926.115234375,
      "y": 341.92333984375,
      "z": 3543.75927734375
    },
    {
      "x": 4897.2119140625,
      "y": 341.69537353515625,
      "z": 3537.501708984375
    },
    {
      "x": 4798.13818359375,
      "y": 355.0027770996094,
      "z": 3610.265380859375
    }
  ]
}