{
  "minArea": {
    "x": -2708.27197265625,
    "y": -30.0,
    "z": 5280.31884765625
  },
  "maxArea": {
    "x": -2622.16015625,
    "y": 100.0,
    "z": 5333.13720703125
  },
  "roadPoints": [
    {
      "x": -2666.718017578125,
      "y": 25.131380081176758,
      "z": 5283.02490234375
    },
    {
      "x": -2684.46875,
      "y": 9.267322540283203,
      "z": 5280.31884765625
    },
    {
      "x": -2708.27197265625,
      "y": -13.258132934570312,
      "z": 5284.365234375
    },
    {
      "x": -2699.214111328125,
      "y": -27.22705841064453,
      "z": 5315.27197265625
    },
    {
      "x": -2671.553955078125,
      "y": -5.2382917404174805,
      "z": 5313.55859375
    },
    {
      "x": -2643.5478515625,
      "y": -5.797328948974609,
      "z": 5333.13720703125
    },
    {
      "x": -2632.7841796875,
      "y": 5.864652633666992,
      "z": 5331.76708984375
    },
    {
      "x": -2622.16015625,
      "y": 13.462684631347656,
      "z": 5293.37939453125
    },
    {
      "x": -2641.603271484375,
      "y": 15.672798156738281,
      "z": 5286.638671875
    }
  ]
}