{
  "minArea": {
    "x": -2218.87060546875,
    "y": -100.0,
    "z": 5604.33984375
  },
  "maxArea": {
    "x": -2195.784912109375,
    "y": -8.0,
    "z": 5659.77685546875
  },
  "roadPoints": [
    {
      "x": -2204.108154296875,
      "y": -36.188148498535156,
      "z": 5657.33203125
    },
    {
      "x": -2218.500732421875,
      "y": -34.44788360595703,
      "z": 5659.77685546875
    },
    {
      "x": -2217.50634765625,
      "y": -21.607208251953125,
      "z": 5627.5068359375
    },
    {
      "x": -2218.87060546875,
      "y": -21.62896728515625,
      "z": 5604.365234375
    },
    {
      "x": -2195.784912109375,
      "y": -24.928848266601562,
      "z": 5604.33984375
    },
    {
      "x": -2196.99560546875,
      "y": -29.17305564880371,
      "z": 5633.75244140625
    }
  ]
}