{
  "minArea": {
    "x": -2636.2548828125,
    "y": -30.0,
    "z": 5786.50537109375
  },
  "maxArea": {
    "x": -2550.87939453125,
    "y": 150.0,
    "z": 5868.57275390625
  },
  "roadPoints": [
    {
      "x": -2550.87939453125,
      "y": 24.854642868041992,
      "z": 5868.57275390625
    },
    {
      "x": -2598.25927734375,
      "y": 27.767366409301758,
      "z": 5855.52490234375
    },
    {
      "x": -2607.577880859375,
      "y": 51.65973663330078,
      "z": 5830.21728515625
    },
    {
      "x": -2636.2548828125,
      "y": 52.93195724487305,
      "z": 5817.8154296875
    },
    {
      "x": -2593.764404296875,
      "y": 55.01896286010742,
      "z": 5786.50537109375
    },
    {
      "x": -2551.71923828125,
      "y": 47.12902069091797,
      "z": 5827.41064453125
    }
  ]
}