{
  "minArea": {
    "x": -2805.870849609375,
    "y": -20.0,
    "z": 5304.5732421875
  },
  "maxArea": {
    "x": -2720.757568359375,
    "y": 100.0,
    "z": 5406.59912109375
  },
  "roadPoints": [
    {
      "x": -2766.146240234375,
      "y": 5.8542938232421875,
      "z": 5316.62744140625
    },
    {
      "x": -2746.338623046875,
      "y": -7.0765533447265625,
      "z": 5304.5732421875
    },
    {
      "x": -2761.062744140625,
      "y": -9.774988174438477,
      "z": 5361.9365234375
    },
    {
      "x": -2740.679931640625,
      "y": -15.76330852508545,
      "z": 5372.77099609375
    },
    {
      "x": -2732.865966796875,
      "y": -16.669523239135742,
      "z": 5373.3212890625
    },
    {
      "x": -2720.757568359375,
      "y": -17.46469497680664,
      "z": 5385.22705078125
    },
    {
      "x": -2721.48828125,
      "y": -17.360267639160156,
      "z": 5406.59912109375
    },
    {
      "x": -2759.962158203125,
      "y": -4.774462699890137,
      "z": 5397.345703125
    },
    {
      "x": -2795.51708984375,
      "y": -0.6236944198608398,
      "z": 5401.908203125
    },
    {
      "x": -2795.446533203125,
      "y": 14.825921058654785,
      "z": 5380.8486328125
    },
    {
      "x": -2805.870849609375,
      "y": -3.0561089515686035,
      "z": 5354.8232421875
    },
    {
      "x": -2785.93359375,
      "y": 3.8336124420166016,
      "z": 5326.8046875
    }
  ]
}