{
  "minArea": {
    "x": -2419.765625,
    "y": -10.0,
    "z": 5795.64453125
  },
  "maxArea": {
    "x": -2366.826171875,
    "y": 60.0,
    "z": 5841.0341796875
  },
  "roadPoints": [
    {
      "x": -2411.58349609375,
      "y": -2.377098560333252,
      "z": 5841.0341796875
    },
    {
      "x": -2392.562255859375,
      "y": -8.088177680969238,
      "z": 5830.47265625
    },
    {
      "x": -2376.580322265625,
      "y": -6.805829048156738,
      "z": 5816.583984375
    },
    {
      "x": -2366.826171875,
      "y": -1.1070270538330078,
      "z": 5800.1826171875
    },
    {
      "x": -2379.24462890625,
      "y": -9.677824974060059,
      "z": 5795.64453125
    },
    {
      "x": -2419.765625,
      "y": -4.182565212249756,
      "z": 5821.35693359375
    }
  ]
}