{
  "minArea": {
    "x": -2471.824462890625,
    "y": -100.0,
    "z": 5649.26123046875
  },
  "maxArea": {
    "x": -2302.441650390625,
    "y": 70.0,
    "z": 5835.88427734375
  },
  "roadPoints": [
    {
      "x": -2418.66455078125,
      "y": -18.878698348999023,
      "z": 5649.26123046875
    },
    {
      "x": -2440.011474609375,
      "y": 40.93556594848633,
      "z": 5663.0595703125
    },
    {
      "x": -2464.89501953125,
      "y": 33.15908432006836,
      "z": 5694.7216796875
    },
    {
      "x": -2471.824462890625,
      "y": 12.488533020019531,
      "z": 5740.71875
    },
    {
      "x": -2442.013916015625,
      "y": 0.6249637603759766,
      "z": 5811.94677734375
    },
    {
      "x": -2399.345458984375,
      "y": -0.5915379524230957,
      "z": 5835.88427734375
    },
    {
      "x": -2376.79638671875,
      "y": 7.737306594848633,
      "z": 5818.76416015625
    },
    {
      "x": -2343.672607421875,
      "y": 19.55971908569336,
      "z": 5762.54443359375
    },
    {
      "x": -2321.846435546875,
      "y": 17.14691925048828,
      "z": 5757.83984375
    },
    {
      "x": -2302.441650390625,
      "y": 19.814678192138672,
      "z": 5689.8984375
    },
    {
      "x": -2318.98681640625,
      "y": 10.274391174316406,
      "z": 5683.89892578125
    },
    {
      "x": -2338.419189453125,
      "y": 3.6863021850585938,
      "z": 5665.013671875
    }
  ]
}