{
  "minArea": {
    "x": -2282.01953125,
    "y": 70.0,
    "z": 5172.61572265625
  },
  "maxArea": {
    "x": -2248.901611328125,
    "y": 120.0,
    "z": 5206.08251953125
  },
  "roadPoints": [
    {
      "x": -2248.901611328125,
      "y": 80.77237701416016,
      "z": 5206.08251953125
    },
    {
      "x": -2249.116455078125,
      "y": 87.21006774902344,
      "z": 5172.61572265625
    },
    {
      "x": -2271.015380859375,
      "y": 97.97208404541016,
      "z": 5174.0888671875
    },
    {
      "x": -2281.94677734375,
      "y": 73.89240264892578,
      "z": 5173.1796875
    },
    {
      "x": -2281.895751953125,
      "y": 76.05984497070312,
      "z": 5184.955078125
    },
    {
      "x": -2282.01953125,
      "y": 79.4733657836914,
      "z": 5205.70849609375
    }
  ]
}