{
  "minArea": {
    "x": -2753.8623046875,
    "y": 10.0,
    "z": 5363.7529296875
  },
  "maxArea": {
    "x": -2626.7001953125,
    "y": 100.0,
    "z": 5407.9345703125
  },
  "roadPoints": [
    {
      "x": -2629.246337890625,
      "y": 29.837512969970703,
      "z": 5390.55712890625
    },
    {
      "x": -2626.7001953125,
      "y": 18.047473907470703,
      "z": 5363.7529296875
    },
    {
      "x": -2641.36279296875,
      "y": 19.67026710510254,
      "z": 5365.18359375
    },
    {
      "x": -2664.156982421875,
      "y": 15.250181198120117,
      "z": 5382.16943359375
    },
    {
      "x": -2681.986328125,
      "y": 21.622148513793945,
      "z": 5378.63134765625
    },
    {
      "x": -2710.954345703125,
      "y": 23.257579803466797,
      "z": 5379.21435546875
    },
    {
      "x": -2741.823974609375,
      "y": 24.371524810791016,
      "z": 5372.56689453125
    },
    {
      "x": -2753.8623046875,
      "y": 26.198501586914062,
      "z": 5389.42529296875
    },
    {
      "x": -2726.890380859375,
      "y": 26.51821517944336,
      "z": 5400.01708984375
    },
    {
      "x": -2700.83740234375,
      "y": 28.98607635498047,
      "z": 5400.7958984375
    },
    {
      "x": -2673.446044921875,
      "y": 22.840259552001953,
      "z": 5407.9345703125
    },
    {
      "x": -2652.7001953125,
      "y": 30.73309898376465,
      "z": 5407.66162109375
    }
  ]
}