{
  "minArea": {
    "x": 2154.273193359375,
    "y": -1000.0,
    "z": -971.2788696289062
  },
  "maxArea": {
    "x": 2312.960693359375,
    "y": 1000.0,
    "z": -836.6213989257812
  },
  "roadPoints": [
    {
      "x": 2312.960693359375,
      "y": 212.88722229003906,
      "z": -880.7146606445312
    },
    {
      "x": 2303.6806640625,
      "y": 213.98997497558594,
      "z": -904.385986328125
    },
    {
      "x": 2285.52783203125,
      "y": 204.4867401123047,
      "z": -968.1553344726562
    },
    {
      "x": 2251.720458984375,
      "y": 209.55789184570312,
      "z": -971.2788696289062
    },
    {
      "x": 2181.4697265625,
      "y": 210.0205535888672,
      "z": -933.157470703125
    },
    {
      "x": 2154.273193359375,
      "y": 209.365966796875,
      "z": -877.3088989257812
    },
    {
      "x": 2187.611572265625,
      "y": 209.66607666015625,
      "z": -849.70703125
    },
    {
      "x": 2228.4716796875,
      "y": 210.0753173828125,
      "z": -836.6213989257812
    },
    {
      "x": 2262.480224609375,
      "y": 210.0753173828125,
      "z": -853.8827514648438
    }
  ]
}