{
  "luaDataPath": "",
  "entityBan": "",
  "disableNpcLod": true,
  "isAutoBanNpc": true,
  "isBanWidgetPet": true,
  "protectNpcMobileLod": true,
  "startFade": {
    "startFadeOutDuration": 0.0
  },
  "endFade": {
    "startFadeOutDuration": 0.0
  },
  "actors": [
    {
      "alias": "Avatar",
      "visible": true,
      "bornPointName": "",
      "relativePosNpcAlias": "",
      "_bindMovingTargetKey": ""
    },
    {
      "configID": 1005,
      "alias": "1005",
      "visible": true,
      "bornPointName": "",
      "removeActorType": "REMOVE_WITH_DISAPPEAR",
      "relativePosNpcAlias": "",
      "_bindMovingTargetKey": ""
    },
    {
      "configID": 20601,
      "alias": "20601",
      "visible": true,
      "bornPointName": "",
      "removeActorType": "REMOVE",
      "relativePosNpcAlias": "",
      "_bindMovingTargetKey": ""
    },
    {
      "configID": 4157,
      "alias": "4157",
      "visible": true,
      "bornPointName": "",
      "removeActorType": "REMOVE",
      "forceCreateDaily": true,
      "relativePosNpcAlias": "",
      "_bindMovingTargetKey": ""
    }
  ],
  "group": [
    [
      {
        "$type": "EFHODGEJOHJ",
        "type": "CAMERA_MOVE",
        "duration": 1.0,
        "actionId": 198,
        "camPosOffset": {
          "x": -1952.9620361328125,
          "y": 205.01800537109375,
          "z": 2655.93994140625
        },
        "camForwardTargetOffset": {
          "x": -1953.2740478515625,
          "y": 204.96299743652344,
          "z": 2656.887939453125
        },
        "camFov": 25.0,
        "lerpPattern": 6,
        "cameraBlendType": "EaseInOutCubic",
        "MDKBPBJCMHH": {},
        "needZAxisRotate": true,
        "openCameraDither": false,
        "targetNpcAlias": "",
        "closeTreeLeafDither": true,
        "PHGBNNGCJKJ": "",
        "NFILMKCFHEB": "",
        "BGPNGHDAECF": ""
      },
      {
        "$type": "MoleMole.Config.ConfigTeleportToAction",
        "type": "TELEPORT_TO",
        "aliasList": [
          "Avatar"
        ],
        "actionId": 429,
        "position": {
          "x": -1952.5660400390625,
          "y": 203.66600036621094,
          "z": 2656.4580078125
        },
        "forward": {
          "x": -0.6240000128746033,
          "z": -0.7820000052452087
        },
        "openLongDisTeleport": true,
        "_posBindMovingTargetKey": "",
        "_forwardBindMovingTargetKey": ""
      },
      {
        "$type": "NPCNMEOCADD",
        "type": "LOOK_AT",
        "aliasList": [
          "Avatar"
        ],
        "actionId": 430,
        "enableHead": true,
        "headTurnTime": 0.5,
        "targetNpcAlias": "4157",
        "openBackProtect": true,
        "targetNpcLookAtPoint": "",
        "BHGPHGNFCBF": ""
      },
      {
        "$type": "MJFAIFFAGOF",
        "type": "DIALOG",
        "aliasList": [
          "1005"
        ],
        "dialogID": 730001401,
        "protectTime": 0.5
      },
      {
        "$type": "NPCNMEOCADD",
        "type": "LOOK_AT",
        "aliasList": [
          "1005"
        ],
        "actionId": 199,
        "enableHead": true,
        "headTurnTime": 0.4000000059604645,
        "targetNpcAlias": "20601",
        "openBackProtect": true,
        "targetNpcLookAtPoint": "",
        "BHGPHGNFCBF": ""
      },
      {
        "$type": "EDCHPJLDKIN",
        "type": "BODY_LANG",
        "aliasList": [
          "1005"
        ],
        "actionId": 203,
        "bodyLangParam": 1030,
        "forceDoFreeStyle": true,
        "canDoRepeatFreeStyle": false,
        "cantBackToIdleWhenSitLoop": true,
        "eventPatternSuiteKey": ""
      },
      {
        "$type": "MoleMole.Config.ConfigTeleportToAction",
        "type": "TELEPORT_TO",
        "aliasList": [
          "1005"
        ],
        "actionId": 431,
        "position": {
          "x": -1953.2550048828125,
          "y": 203.66799926757812,
          "z": 2656.736083984375
        },
        "forward": {
          "x": 0.37299999594688416,
          "z": -0.7279999852180481
        },
        "openLongDisTeleport": true,
        "_posBindMovingTargetKey": "",
        "_forwardBindMovingTargetKey": ""
      },
      {
        "$type": "MoleMole.Config.ConfigTeleportToAction",
        "type": "TELEPORT_TO",
        "aliasList": [
          "20601"
        ],
        "actionId": 432,
        "position": {
          "x": -1951.989990234375,
          "y": 203.6649932861328,
          "z": 2655.653076171875
        },
        "forward": {
          "x": -0.9990000128746033,
          "z": -0.035999998450279236
        },
        "openLongDisTeleport": true,
        "_posBindMovingTargetKey": "",
        "_forwardBindMovingTargetKey": ""
      },
      {
        "$type": "NPCNMEOCADD",
        "type": "LOOK_AT",
        "aliasList": [
          "20601"
        ],
        "actionId": 435,
        "enableHead": true,
        "headTurnTime": 0.5,
        "targetNpcAlias": "4157",
        "openBackProtect": true,
        "targetNpcLookAtPoint": "",
        "BHGPHGNFCBF": ""
      },
      {
        "$type": "EDCHPJLDKIN",
        "type": "BODY_LANG",
        "aliasList": [
          "20601"
        ],
        "actionId": 324,
        "bodyLangParam": 1190,
        "forceDoFreeStyle": true,
        "canDoRepeatFreeStyle": false,
        "cantBackToIdleWhenSitLoop": true,
        "eventPatternSuiteKey": ""
      },
      {
        "$type": "MoleMole.Config.ConfigTeleportToAction",
        "type": "TELEPORT_TO",
        "aliasList": [
          "4157"
        ],
        "actionId": 433,
        "position": {
          "x": -1953.3409423828125,
          "y": 203.63900756835938,
          "z": 2655.389892578125
        },
        "forward": {
          "x": 0.7599999904632568,
          "z": 0.6499999761581421
        },
        "openLongDisTeleport": true,
        "_posBindMovingTargetKey": "",
        "_forwardBindMovingTargetKey": ""
      },
      {
        "$type": "NPCNMEOCADD",
        "type": "LOOK_AT",
        "aliasList": [
          "4157"
        ],
        "actionId": 434,
        "enableHead": true,
        "useTargetPos": true,
        "enableAbsolute": true,
        "targetPosition": {
          "x": -1951.8499755859375,
          "y": 204.90499877929688,
          "z": 2656.697021484375
        },
        "headTurnTime": -1.0,
        "targetNpcAlias": "",
        "lookAtTargetType": "NONE",
        "openBackProtect": true,
        "targetNpcLookAtPoint": "",
        "BHGPHGNFCBF": ""
      },
      {
        "$type": "NPCNMEOCADD",
        "type": "LOOK_AT",
        "delayTime": 0.32899999618530273,
        "aliasList": [
          "Avatar"
        ],
        "actionId": 202,
        "enableHead": true,
        "headTurnTime": 0.4000000059604645,
        "targetNpcAlias": "20601",
        "openBackProtect": true,
        "targetNpcLookAtPoint": "",
        "BHGPHGNFCBF": ""
      },
      {
        "$type": "NPCNMEOCADD",
        "type": "LOOK_AT",
        "delayTime": 0.5659999847412109,
        "aliasList": [
          "20601"
        ],
        "actionId": 220,
        "enableHead": true,
        "useTargetPos": true,
        "enableAbsolute": true,
        "targetPosition": {
          "x": -1952.697021484375,
          "y": 204.9810028076172,
          "z": 2655.823974609375
        },
        "headTurnTime": 0.4000000059604645,
        "targetNpcAlias": "",
        "lookAtTargetType": "NONE",
        "openBackProtect": true,
        "targetNpcLookAtPoint": "",
        "BHGPHGNFCBF": ""
      },
      {
        "$type": "EDCHPJLDKIN",
        "type": "BODY_LANG",
        "delayTime": 2.4719998836517334,
        "aliasList": [
          "1005"
        ],
        "actionId": 204,
        "isContinue": true,
        "forceDoFreeStyle": true,
        "canDoRepeatFreeStyle": false,
        "cantBackToIdleWhenSitLoop": true,
        "eventPatternSuiteKey": ""
      }
    ],
    [
      {
        "$type": "EFHODGEJOHJ",
        "type": "CAMERA_MOVE",
        "duration": 1.0,
        "actionId": 214,
        "camPosOffset": {
          "x": -1953.10595703125,
          "y": 204.6219940185547,
          "z": 2655.697998046875
        },
        "camForwardTargetOffset": {
          "x": -1952.260009765625,
          "y": 205.156005859375,
          "z": 2655.693115234375
        },
        "camFov": 20.0,
        "lerpPattern": 6,
        "cameraBlendType": "EaseInOutCubic",
        "MDKBPBJCMHH": {},
        "needZAxisRotate": true,
        "openCameraDither": false,
        "targetNpcAlias": "",
        "closeTreeLeafDither": true,
        "PHGBNNGCJKJ": "",
        "NFILMKCFHEB": "",
        "BGPNGHDAECF": ""
      },
      {
        "$type": "ICHLNKHGCAG",
        "type": "EMO_SYNC",
        "aliasList": [
          "20601"
        ],
        "actionId": 235,
        "dataPath": "",
        "phonemePath": "Cs_Emo_NPC_Common/Cs_Emo_NPC_Angry01",
        "emotionPath": "Cs_Emo_NPC_Common/Cs_Emo_NPC_Upset01",
        "mateDataPath": "",
        "matePhonemePath": "",
        "mateEmotionPath": "",
        "phonemePathHashList": [
          9218657655395275517,
          6356428425152214583,
          11840959722219800112,
          50070356133267922
        ],
        "emotionPathHashList": [
          6685696142296485075,
          4251642632157619052,
          12579597121068042023,
          12854476297611419165
        ],
        "PACNIGOOENN": "",
        "PIBDNPHIAGC": ""
      },
      {
        "$type": "NPCNMEOCADD",
        "type": "LOOK_AT",
        "aliasList": [
          "20601"
        ],
        "actionId": 207,
        "enableHead": true,
        "useTargetPos": true,
        "enableAbsolute": true,
        "targetPosition": {
          "x": -1952.697021484375,
          "y": 204.9810028076172,
          "z": 2655.823974609375
        },
        "headTurnTime": 0.4000000059604645,
        "targetNpcAlias": "",
        "lookAtTargetType": "NONE",
        "openBackProtect": true,
        "targetNpcLookAtPoint": "",
        "BHGPHGNFCBF": ""
      },
      {
        "$type": "MJFAIFFAGOF",
        "type": "DIALOG",
        "aliasList": [
          "20601"
        ],
        "dialogID": 730001402,
        "protectTime": 2.5
      },
      {
        "$type": "NPCNMEOCADD",
        "type": "LOOK_AT",
        "aliasList": [
          "1005"
        ],
        "actionId": 332,
        "enableHead": true,
        "headTurnTime": 0.4000000059604645,
        "targetNpcAlias": "20601",
        "openBackProtect": true,
        "targetNpcLookAtPoint": "",
        "BHGPHGNFCBF": ""
      },
      {
        "$type": "HGDDIPABPCA",
        "type": "LOOK_AT_EYECTRL",
        "aliasList": [
          "20601"
        ],
        "actionId": 208,
        "useTargetPos": false,
        "eyeRotateVecLeft": {
          "x": -1.0,
          "z": 3.0
        },
        "eyeRotateVecRight": {
          "x": -1.0,
          "z": 3.0
        },
        "turnTime": 0.10000000149011612,
        "targetNpcAlias": "",
        "targetPoint": "Face"
      },
      {
        "$type": "NPCNMEOCADD",
        "type": "LOOK_AT",
        "aliasList": [
          "Avatar"
        ],
        "actionId": 331,
        "enableHead": true,
        "headTurnTime": 0.4000000059604645,
        "targetNpcAlias": "20601",
        "openBackProtect": true,
        "targetNpcLookAtPoint": "",
        "BHGPHGNFCBF": ""
      },
      {
        "$type": "EDCHPJLDKIN",
        "type": "BODY_LANG",
        "aliasList": [
          "1005"
        ],
        "actionId": 205,
        "isContinue": true,
        "forceDoFreeStyle": true,
        "canDoRepeatFreeStyle": false,
        "cantBackToIdleWhenSitLoop": true,
        "eventPatternSuiteKey": ""
      },
      {
        "$type": "NPCNMEOCADD",
        "type": "LOOK_AT",
        "aliasList": [
          "4157"
        ],
        "actionId": 333,
        "enableHead": true,
        "useTargetPos": true,
        "enableAbsolute": true,
        "targetPosition": {
          "x": -1952.1070556640625,
          "y": 204.9499969482422,
          "z": 2655.695068359375
        },
        "headTurnTime": 0.5,
        "targetNpcAlias": "",
        "lookAtTargetType": "NONE",
        "openBackProtect": true,
        "targetNpcLookAtPoint": "",
        "BHGPHGNFCBF": ""
      },
      {
        "$type": "NPCNMEOCADD",
        "type": "LOOK_AT",
        "delayTime": 1.2109999656677246,
        "aliasList": [
          "20601"
        ],
        "actionId": 325,
        "enableHead": true,
        "headTurnTime": 0.4000000059604645,
        "targetNpcAlias": "4157",
        "openBackProtect": true,
        "targetNpcLookAtPoint": "",
        "BHGPHGNFCBF": ""
      },
      {
        "$type": "EDCHPJLDKIN",
        "type": "BODY_LANG",
        "delayTime": 1.2400000095367432,
        "aliasList": [
          "20601"
        ],
        "actionId": 323,
        "isContinue": true,
        "forceDoFreeStyle": true,
        "canDoRepeatFreeStyle": false,
        "cantBackToIdleWhenSitLoop": true,
        "eventPatternSuiteKey": ""
      },
      {
        "$type": "ICHLNKHGCAG",
        "type": "EMO_SYNC",
        "delayTime": 1.399999976158142,
        "aliasList": [
          "20601"
        ],
        "actionId": 328,
        "dataPath": "",
        "phonemePath": "Cs_Emo_NPC_Common/Cs_Emo_NPC_Normal01",
        "emotionPath": "Cs_Emo_NPC_Common/Cs_Emo_NPC_Normal01_B",
        "mateDataPath": "",
        "matePhonemePath": "",
        "mateEmotionPath": "",
        "phonemePathHashList": [
          12803840960998583578,
          3437050431160283015,
          6548526936325855136,
          1274732080047098512
        ],
        "emotionPathHashList": [
          15191155715402440098,
          420038106395935518,
          2651432695756251320,
          4209314551981667660
        ],
        "PACNIGOOENN": "",
        "PIBDNPHIAGC": ""
      },
      {
        "$type": "HGDDIPABPCA",
        "type": "LOOK_AT_EYECTRL",
        "delayTime": 1.4179999828338623,
        "aliasList": [
          "20601"
        ],
        "actionId": 329,
        "useTargetPos": false,
        "turnTime": 0.10000000149011612,
        "targetNpcAlias": "",
        "targetPoint": "Face"
      },
      {
        "$type": "IEKHMHNHENB",
        "type": "STEER_TO",
        "delayTime": 1.5,
        "duration": 1.0,
        "aliasList": [
          "20601"
        ],
        "actionId": 326,
        "steerType": "ABSOLUTE",
        "steerDir": {
          "x": -1953.1409912109375,
          "y": 203.63800048828125,
          "z": 2655.451904296875
        },
        "useSteerAnim": true,
        "targetNpcAlias": "",
        "BHGPHGNFCBF": ""
      },
      {
        "$type": "EFHODGEJOHJ",
        "type": "CAMERA_MOVE",
        "delayTime": 1.899999976158142,
        "duration": 1.0,
        "actionId": 227,
        "camPosOffset": {
          "x": -1945.5880126953125,
          "y": 203.76400756835938,
          "z": 2660.742919921875
        },
        "camForwardTargetOffset": {
          "x": -1946.407958984375,
          "y": 203.87399291992188,
          "z": 2660.180908203125
        },
        "camFov": 20.0,
        "lerpPattern": 6,
        "cameraBlendType": "EaseInOutCubic",
        "MDKBPBJCMHH": {},
        "needZAxisRotate": true,
        "openCameraDither": false,
        "targetNpcAlias": "",
        "closeTreeLeafDither": true,
        "PHGBNNGCJKJ": "",
        "NFILMKCFHEB": "",
        "BGPNGHDAECF": ""
      },
      {
        "$type": "EFHODGEJOHJ",
        "type": "CAMERA_MOVE",
        "delayTime": 2.0,
        "duration": 8.0,
        "actionId": 226,
        "camPosOffset": {
          "x": -1945.5780029296875,
          "y": 203.85299682617188,
          "z": 2660.7451171875
        },
        "camForwardTargetOffset": {
          "x": -1946.39794921875,
          "y": 203.96299743652344,
          "z": 2660.18310546875
        },
        "camFov": 20.0,
        "cameraBlendType": "EaseOutQuad",
        "MDKBPBJCMHH": {},
        "needZAxisRotate": true,
        "openCameraDither": false,
        "targetNpcAlias": "",
        "closeTreeLeafDither": true,
        "PHGBNNGCJKJ": "",
        "NFILMKCFHEB": "",
        "BGPNGHDAECF": ""
      },
      {
        "$type": "NPCNMEOCADD",
        "type": "LOOK_AT",
        "delayTime": 2.2790000438690186,
        "aliasList": [
          "20601"
        ],
        "actionId": 327,
        "enableHead": true,
        "headTurnTime": 0.30000001192092896,
        "targetNpcAlias": "4157",
        "openBackProtect": true,
        "targetNpcLookAtPoint": "",
        "BHGPHGNFCBF": ""
      },
      {
        "$type": "EDCHPJLDKIN",
        "type": "BODY_LANG",
        "delayTime": 3.3380000591278076,
        "aliasList": [
          "20601"
        ],
        "actionId": 330,
        "bodyLangParam": 1171,
        "forceDoFreeStyle": true,
        "canDoRepeatFreeStyle": false,
        "cantBackToIdleWhenSitLoop": true,
        "eventPatternSuiteKey": ""
      }
    ],
    [
      {
        "$type": "EFHODGEJOHJ",
        "type": "CAMERA_MOVE",
        "duration": 1.0,
        "actionId": 335,
        "camPosOffset": {
          "x": -1958.06103515625,
          "y": 204.47900390625,
          "z": 2656.9970703125
        },
        "camForwardTargetOffset": {
          "x": -1957.0860595703125,
          "y": 204.53799438476562,
          "z": 2656.781005859375
        },
        "camFov": 20.0,
        "lerpPattern": 6,
        "cameraBlendType": "EaseInOutCubic",
        "MDKBPBJCMHH": {},
        "needZAxisRotate": true,
        "openCameraDither": false,
        "targetNpcAlias": "",
        "closeTreeLeafDither": true,
        "PHGBNNGCJKJ": "",
        "NFILMKCFHEB": "",
        "BGPNGHDAECF": ""
      },
      {
        "$type": "MJFAIFFAGOF",
        "type": "DIALOG",
        "aliasList": [
          "20601"
        ],
        "dialogID": 730001403,
        "protectTime": 0.5
      },
      {
        "$type": "EDCHPJLDKIN",
        "type": "BODY_LANG",
        "aliasList": [
          "20601"
        ],
        "actionId": 221,
        "isContinue": true,
        "forceDoFreeStyle": true,
        "canDoRepeatFreeStyle": false,
        "cantBackToIdleWhenSitLoop": true,
        "eventPatternSuiteKey": ""
      },
      {
        "$type": "ICHLNKHGCAG",
        "type": "EMO_SYNC",
        "aliasList": [
          "20601"
        ],
        "actionId": 343,
        "dataPath": "",
        "phonemePath": "Cs_Emo_NPC_Common/Cs_Emo_NPC_Normal01",
        "emotionPath": "Cs_Emo_NPC_Common/Cs_Emo_NPC_Normal01",
        "mateDataPath": "",
        "matePhonemePath": "",
        "mateEmotionPath": "",
        "phonemePathHashList": [
          12803840960998583578,
          3437050431160283015,
          6548526936325855136,
          1274732080047098512
        ],
        "emotionPathHashList": [
          10638823098752766568,
          16550434959365186937,
          16779490980036678760,
          2038118027140397243
        ],
        "PACNIGOOENN": "",
        "PIBDNPHIAGC": ""
      },
      {
        "$type": "EFHODGEJOHJ",
        "type": "CAMERA_MOVE",
        "delayTime": 0.10000000149011612,
        "duration": 10.0,
        "actionId": 334,
        "camPosOffset": {
          "x": -1958.0460205078125,
          "y": 204.49099731445312,
          "z": 2657.071044921875
        },
        "camForwardTargetOffset": {
          "x": -1957.071044921875,
          "y": 204.5500030517578,
          "z": 2656.85498046875
        },
        "camFov": 20.0,
        "cameraBlendType": "EaseOutQuad",
        "MDKBPBJCMHH": {},
        "needZAxisRotate": true,
        "openCameraDither": false,
        "targetNpcAlias": "",
        "closeTreeLeafDither": true,
        "PHGBNNGCJKJ": "",
        "NFILMKCFHEB": "",
        "BGPNGHDAECF": ""
      },
      {
        "$type": "EDCHPJLDKIN",
        "type": "BODY_LANG",
        "delayTime": 0.6449999809265137,
        "aliasList": [
          "20601"
        ],
        "actionId": 336,
        "bodyLangParam": 1171,
        "forceDoFreeStyle": true,
        "canDoRepeatFreeStyle": false,
        "cantBackToIdleWhenSitLoop": true,
        "eventPatternSuiteKey": ""
      }
    ],
    [
      {
        "$type": "EFHODGEJOHJ",
        "type": "CAMERA_MOVE",
        "duration": 1.0,
        "actionId": 337,
        "camPosOffset": {
          "x": -1953.511962890625,
          "y": 205.05099487304688,
          "z": 2655.93505859375
        },
        "camForwardTargetOffset": {
          "x": -1952.5460205078125,
          "y": 205.1909942626953,
          "z": 2655.718017578125
        },
        "camFov": 20.0,
        "lerpPattern": 6,
        "cameraBlendType": "EaseInOutCubic",
        "MDKBPBJCMHH": {},
        "openCameraDither": false,
        "targetNpcAlias": "",
        "closeTreeLeafDither": true,
        "PHGBNNGCJKJ": "",
        "NFILMKCFHEB": "",
        "BGPNGHDAECF": ""
      },
      {
        "$type": "MJFAIFFAGOF",
        "type": "DIALOG",
        "aliasList": [
          "20601"
        ],
        "dialogID": 730001404,
        "protectTime": 0.5
      },
      {
        "$type": "EDCHPJLDKIN",
        "type": "BODY_LANG",
        "aliasList": [
          "20601"
        ],
        "actionId": 338,
        "bodyLangParam": 1173,
        "forceDoFreeStyle": true,
        "canDoRepeatFreeStyle": false,
        "cantBackToIdleWhenSitLoop": true,
        "eventPatternSuiteKey": ""
      },
      {
        "$type": "EDCHPJLDKIN",
        "type": "BODY_LANG",
        "delayTime": 4.007999897003174,
        "aliasList": [
          "20601"
        ],
        "actionId": 339,
        "isContinue": true,
        "forceDoFreeStyle": true,
        "canDoRepeatFreeStyle": false,
        "cantBackToIdleWhenSitLoop": true,
        "eventPatternSuiteKey": ""
      },
      {
        "$type": "EDCHPJLDKIN",
        "type": "BODY_LANG",
        "delayTime": 4.834000110626221,
        "aliasList": [
          "20601"
        ],
        "actionId": 340,
        "bodyLangParam": 1171,
        "forceDoFreeStyle": true,
        "canDoRepeatFreeStyle": false,
        "cantBackToIdleWhenSitLoop": true,
        "eventPatternSuiteKey": ""
      }
    ],
    [
      {
        "$type": "MJFAIFFAGOF",
        "type": "DIALOG",
        "aliasList": [
          "20601"
        ],
        "dialogID": 730001405,
        "protectTime": 0.5
      },
      {
        "$type": "EDCHPJLDKIN",
        "type": "BODY_LANG",
        "aliasList": [
          "20601"
        ],
        "actionId": 341,
        "isContinue": true,
        "forceDoFreeStyle": true,
        "canDoRepeatFreeStyle": false,
        "cantBackToIdleWhenSitLoop": true,
        "eventPatternSuiteKey": ""
      },
      {
        "$type": "EDCHPJLDKIN",
        "type": "BODY_LANG",
        "delayTime": 0.7039999961853027,
        "aliasList": [
          "20601"
        ],
        "actionId": 342,
        "bodyLangParam": 4030,
        "forceDoFreeStyle": true,
        "canDoRepeatFreeStyle": false,
        "cantBackToIdleWhenSitLoop": true,
        "eventPatternSuiteKey": ""
      }
    ],
    [
      {
        "$type": "MoleMole.Config.ConfigSimpleBlackScreenAction",
        "type": "SIMPLE_BLACK_SCREEN",
        "durationToBlack": 0.5,
        "durationKeepBlack": 3.0,
        "durationFromBlack": 0.5,
        "textMapID": "",
        "useTextFade": true,
        "_dialogID": 730001406
      },
      {
        "$type": "MJFAIFFAGOF",
        "type": "DIALOG_CLEAR"
      },
      {
        "$type": "MoleMole.Config.ConfigTimeProtectAction",
        "type": "TIME_PROTECT",
        "duration": 3.5,
        "actionId": 321
      },
      {
        "$type": "EFHODGEJOHJ",
        "type": "CAMERA_MOVE",
        "delayTime": 2.0,
        "duration": 1.0,
        "actionId": 327,
        "camPosOffset": {
          "x": -1936.2750244140625,
          "y": 205.25399780273438,
          "z": 2660.513916015625
        },
        "camForwardTargetOffset": {
          "x": -1937.1800537109375,
          "y": 205.2469940185547,
          "z": 2660.087890625
        },
        "camFov": 25.0,
        "lerpPattern": 6,
        "cameraBlendType": "EaseInOutCubic",
        "MDKBPBJCMHH": {},
        "needZAxisRotate": true,
        "openCameraDither": false,
        "targetNpcAlias": "",
        "closeTreeLeafDither": true,
        "PHGBNNGCJKJ": "",
        "NFILMKCFHEB": "",
        "BGPNGHDAECF": ""
      },
      {
        "$type": "NPCNMEOCADD",
        "type": "LOOK_AT",
        "delayTime": 2.0,
        "aliasList": [
          "Avatar"
        ],
        "actionId": 324,
        "enableHead": true,
        "headTurnTime": 0.4000000059604645,
        "targetNpcAlias": "4157",
        "openBackProtect": true,
        "targetNpcLookAtPoint": "",
        "BHGPHGNFCBF": ""
      },
      {
        "$type": "NPCNMEOCADD",
        "type": "LOOK_AT",
        "delayTime": 2.0,
        "aliasList": [
          "1005"
        ],
        "actionId": 323,
        "enableHead": true,
        "headTurnTime": 0.4000000059604645,
        "targetNpcAlias": "4157",
        "openBackProtect": true,
        "targetNpcLookAtPoint": "",
        "BHGPHGNFCBF": ""
      },
      {
        "$type": "NPCNMEOCADD",
        "type": "LOOK_AT",
        "delayTime": 2.0,
        "aliasList": [
          "20601"
        ],
        "actionId": 325,
        "enableHead": true,
        "headTurnTime": 0.4000000059604645,
        "targetNpcAlias": "4157",
        "openBackProtect": true,
        "targetNpcLookAtPoint": "",
        "BHGPHGNFCBF": ""
      },
      {
        "$type": "MoleMole.Config.ConfigTeleportToAction",
        "type": "TELEPORT_TO",
        "delayTime": 2.0,
        "aliasList": [
          "4157"
        ],
        "actionId": 328,
        "position": {
          "x": -1953.616943359375,
          "y": 203.63900756835938,
          "z": 2655.652099609375
        },
        "forward": {
          "x": 1.0080000162124634,
          "z": 0.5379999876022339
        },
        "openLongDisTeleport": true,
        "_posBindMovingTargetKey": "",
        "_forwardBindMovingTargetKey": ""
      }
    ],
    [
      {
        "$type": "EFHODGEJOHJ",
        "type": "CAMERA_MOVE",
        "duration": 10.0,
        "actionId": 322,
        "camPosOffset": {
          "x": -1936.4119873046875,
          "y": 205.07200622558594,
          "z": 2660.80908203125
        },
        "camForwardTargetOffset": {
          "x": -1937.3170166015625,
          "y": 205.06500244140625,
          "z": 2660.383056640625
        },
        "camFov": 25.0,
        "cameraBlendType": "EaseOutQuad",
        "MDKBPBJCMHH": {},
        "needZAxisRotate": true,
        "openCameraDither": false,
        "targetNpcAlias": "",
        "closeTreeLeafDither": true,
        "PHGBNNGCJKJ": "",
        "NFILMKCFHEB": "",
        "BGPNGHDAECF": ""
      },
      {
        "$type": "EDCHPJLDKIN",
        "type": "BODY_LANG",
        "aliasList": [
          "20601"
        ],
        "actionId": 334,
        "isContinue": true,
        "forceDoFreeStyle": true,
        "canDoRepeatFreeStyle": false,
        "cantBackToIdleWhenSitLoop": true,
        "eventPatternSuiteKey": ""
      },
      {
        "$type": "MJFAIFFAGOF",
        "type": "DIALOG",
        "aliasList": [
          "4157"
        ],
        "dialogID": 730001407,
        "protectTime": 0.5
      },
      {
        "$type": "EDCHPJLDKIN",
        "type": "BODY_LANG",
        "delayTime": 1.2200000286102295,
        "aliasList": [
          "4157"
        ],
        "actionId": 329,
        "bodyLangParam": 5010,
        "forceDoFreeStyle": true,
        "canDoRepeatFreeStyle": false,
        "cantBackToIdleWhenSitLoop": true,
        "eventPatternSuiteKey": ""
      }
    ],
    [
      {
        "$type": "EFHODGEJOHJ",
        "type": "CAMERA_MOVE",
        "duration": 1.0,
        "actionId": 332,
        "camPosOffset": {
          "x": -1961.946044921875,
          "y": 206.0970001220703,
          "z": 2658.162109375
        },
        "camForwardTargetOffset": {
          "x": -1961.02099609375,
          "y": 205.95899963378906,
          "z": 2657.80908203125
        },
        "camFov": 25.0,
        "lerpPattern": 6,
        "cameraBlendType": "EaseInOutCubic",
        "MDKBPBJCMHH": {},
        "needZAxisRotate": true,
        "openCameraDither": false,
        "targetNpcAlias": "",
        "closeTreeLeafDither": true,
        "PHGBNNGCJKJ": "",
        "NFILMKCFHEB": "",
        "BGPNGHDAECF": ""
      },
      {
        "$type": "MJFAIFFAGOF",
        "type": "DIALOG",
        "aliasList": [
          "20601"
        ],
        "dialogID": 730001408,
        "protectTime": 0.5
      },
      {
        "$type": "EDCHPJLDKIN",
        "type": "BODY_LANG",
        "aliasList": [
          "20601"
        ],
        "actionId": 333,
        "bodyLangParam": 1110,
        "forceDoFreeStyle": true,
        "canDoRepeatFreeStyle": false,
        "cantBackToIdleWhenSitLoop": true,
        "eventPatternSuiteKey": ""
      },
      {
        "$type": "MoleMole.Config.ConfigTeleportToAction",
        "type": "TELEPORT_TO",
        "aliasList": [
          "4157"
        ],
        "actionId": 330,
        "position": {
          "x": -1953.447998046875,
          "y": 203.63900756835938,
          "z": 2655.472900390625
        },
        "forward": {
          "x": 0.8389999866485596,
          "z": 0.7170000076293945
        },
        "openLongDisTeleport": true,
        "_posBindMovingTargetKey": "",
        "_forwardBindMovingTargetKey": ""
      },
      {
        "$type": "EFHODGEJOHJ",
        "type": "CAMERA_MOVE",
        "delayTime": 0.10000000149011612,
        "duration": 12.0,
        "actionId": 331,
        "camPosOffset": {
          "x": -1961.8759765625,
          "y": 205.9949951171875,
          "z": 2658.383056640625
        },
        "camForwardTargetOffset": {
          "x": -1960.9520263671875,
          "y": 205.86300659179688,
          "z": 2658.02392578125
        },
        "camFov": 25.0,
        "cameraBlendType": "EaseOutQuad",
        "MDKBPBJCMHH": {},
        "needZAxisRotate": true,
        "openCameraDither": false,
        "targetNpcAlias": "",
        "closeTreeLeafDither": true,
        "PHGBNNGCJKJ": "",
        "NFILMKCFHEB": "",
        "BGPNGHDAECF": ""
      },
      {
        "$type": "NPCNMEOCADD",
        "type": "LOOK_AT",
        "delayTime": 0.28600001335144043,
        "aliasList": [
          "1005"
        ],
        "actionId": 337,
        "enableHead": true,
        "headTurnTime": 0.4000000059604645,
        "targetNpcAlias": "20601",
        "openBackProtect": true,
        "targetNpcLookAtPoint": "",
        "BHGPHGNFCBF": ""
      },
      {
        "$type": "NPCNMEOCADD",
        "type": "LOOK_AT",
        "delayTime": 0.4490000009536743,
        "aliasList": [
          "Avatar"
        ],
        "actionId": 338,
        "enableHead": true,
        "headTurnTime": 0.4000000059604645,
        "targetNpcAlias": "20601",
        "openBackProtect": true,
        "targetNpcLookAtPoint": "",
        "BHGPHGNFCBF": ""
      },
      {
        "$type": "EDCHPJLDKIN",
        "type": "BODY_LANG",
        "delayTime": 2.828000068664551,
        "aliasList": [
          "20601"
        ],
        "actionId": 335,
        "isContinue": true,
        "forceDoFreeStyle": true,
        "canDoRepeatFreeStyle": false,
        "cantBackToIdleWhenSitLoop": true,
        "eventPatternSuiteKey": ""
      }
    ],
    [
      {
        "$type": "EFHODGEJOHJ",
        "type": "CAMERA_MOVE",
        "duration": 1.0,
        "actionId": 339,
        "camPosOffset": {
          "x": -1952.8389892578125,
          "y": 204.81900024414062,
          "z": 2656.501953125
        },
        "camForwardTargetOffset": {
          "x": -1953.3060302734375,
          "y": 204.9199981689453,
          "z": 2655.6240234375
        },
        "camFov": 25.0,
        "lerpPattern": 6,
        "cameraBlendType": "EaseInOutCubic",
        "MDKBPBJCMHH": {},
        "needZAxisRotate": true,
        "openCameraDither": false,
        "targetNpcAlias": "",
        "closeTreeLeafDither": true,
        "PHGBNNGCJKJ": "",
        "NFILMKCFHEB": "",
        "BGPNGHDAECF": ""
      },
      {
        "$type": "NPCNMEOCADD",
        "type": "LOOK_AT",
        "aliasList": [
          "Avatar"
        ],
        "actionId": 356,
        "enableHead": true,
        "headTurnTime": 0.4000000059604645,
        "targetNpcAlias": "4157",
        "openBackProtect": true,
        "targetNpcLookAtPoint": "",
        "BHGPHGNFCBF": ""
      },
      {
        "$type": "NPCNMEOCADD",
        "type": "LOOK_AT",
        "aliasList": [
          "1005"
        ],
        "actionId": 355,
        "enableHead": true,
        "headTurnTime": 0.4000000059604645,
        "targetNpcAlias": "4157",
        "openBackProtect": true,
        "targetNpcLookAtPoint": "",
        "BHGPHGNFCBF": ""
      },
      {
        "$type": "EDCHPJLDKIN",
        "type": "BODY_LANG",
        "aliasList": [
          "20601"
        ],
        "actionId": 336,
        "isContinue": true,
        "forceDoFreeStyle": true,
        "canDoRepeatFreeStyle": false,
        "cantBackToIdleWhenSitLoop": true,
        "eventPatternSuiteKey": ""
      },
      {
        "$type": "MJFAIFFAGOF",
        "type": "DIALOG",
        "aliasList": [
          "4157"
        ],
        "dialogID": 730001409,
        "protectTime": 0.5
      },
      {
        "$type": "NPCNMEOCADD",
        "type": "LOOK_AT",
        "aliasList": [
          "4157"
        ],
        "actionId": 340,
        "enableHead": true,
        "useTargetPos": true,
        "enableAbsolute": true,
        "targetPosition": {
          "x": -1952.1290283203125,
          "y": 204.91900634765625,
          "z": 2655.69189453125
        },
        "headTurnTime": 0.5,
        "targetNpcAlias": "",
        "lookAtTargetType": "NONE",
        "openBackProtect": true,
        "targetNpcLookAtPoint": "",
        "BHGPHGNFCBF": ""
      },
      {
        "$type": "EDCHPJLDKIN",
        "type": "BODY_LANG",
        "delayTime": 0.24699999392032623,
        "aliasList": [
          "4157"
        ],
        "actionId": 342,
        "bodyLangParam": 5010,
        "forceDoFreeStyle": true,
        "canDoRepeatFreeStyle": false,
        "cantBackToIdleWhenSitLoop": true,
        "eventPatternSuiteKey": ""
      }
    ],
    [
      {
        "$type": "MJFAIFFAGOF",
        "type": "DIALOG",
        "aliasList": [
          "4157"
        ],
        "dialogID": 730001410,
        "protectTime": 0.5
      },
      {
        "$type": "NPCNMEOCADD",
        "type": "LOOK_AT",
        "aliasList": [
          "4157"
        ],
        "actionId": 344,
        "enableHead": true,
        "headTurnTime": 0.5,
        "targetNpcAlias": "Avatar",
        "openBackProtect": true,
        "targetNpcLookAtPoint": "",
        "BHGPHGNFCBF": ""
      },
      {
        "$type": "EFHODGEJOHJ",
        "type": "CAMERA_MOVE",
        "delayTime": 0.4000000059604645,
        "duration": 20.0,
        "actionId": 341,
        "camPosOffset": {
          "x": -1952.5780029296875,
          "y": 204.80799865722656,
          "z": 2656.263916015625
        },
        "camForwardTargetOffset": {
          "x": -1953.3199462890625,
          "y": 204.93299865722656,
          "z": 2655.60595703125
        },
        "camFov": 25.0,
        "cameraBlendType": "EaseOutQuad",
        "MDKBPBJCMHH": {},
        "needZAxisRotate": true,
        "openCameraDither": false,
        "targetNpcAlias": "",
        "closeTreeLeafDither": true,
        "PHGBNNGCJKJ": "",
        "NFILMKCFHEB": "",
        "BGPNGHDAECF": ""
      },
      {
        "$type": "EDCHPJLDKIN",
        "type": "BODY_LANG",
        "delayTime": 0.8669999837875366,
        "aliasList": [
          "4157"
        ],
        "actionId": 345,
        "bodyLangParam": 1171,
        "forceDoFreeStyle": true,
        "canDoRepeatFreeStyle": false,
        "cantBackToIdleWhenSitLoop": true,
        "eventPatternSuiteKey": ""
      },
      {
        "$type": "EDCHPJLDKIN",
        "type": "BODY_LANG",
        "delayTime": 7.640999794006348,
        "aliasList": [
          "4157"
        ],
        "actionId": 346,
        "bodyLangParam": 4040,
        "forceDoFreeStyle": true,
        "canDoRepeatFreeStyle": false,
        "cantBackToIdleWhenSitLoop": true,
        "eventPatternSuiteKey": ""
      }
    ],
    [
      {
        "$type": "MJFAIFFAGOF",
        "type": "DIALOG",
        "aliasList": [
          "4157"
        ],
        "dialogID": 730001411,
        "protectTime": 3.0
      },
      {
        "$type": "NPCNMEOCADD",
        "type": "LOOK_AT",
        "aliasList": [
          "4157"
        ],
        "actionId": 343,
        "enableHead": true,
        "useTargetPos": true,
        "enableAbsolute": true,
        "targetPosition": {
          "x": -1950.199951171875,
          "y": 205.2519989013672,
          "z": 2649.50390625
        },
        "headTurnTime": 0.5,
        "targetNpcAlias": "",
        "lookAtTargetType": "NONE",
        "openBackProtect": true,
        "targetNpcLookAtPoint": "",
        "BHGPHGNFCBF": ""
      },
      {
        "$type": "EDCHPJLDKIN",
        "type": "BODY_LANG",
        "aliasList": [
          "4157"
        ],
        "actionId": 347,
        "isContinue": true,
        "forceDoFreeStyle": true,
        "canDoRepeatFreeStyle": false,
        "cantBackToIdleWhenSitLoop": true,
        "eventPatternSuiteKey": ""
      },
      {
        "$type": "IEKHMHNHENB",
        "type": "STEER_TO",
        "delayTime": 0.4000000059604645,
        "duration": 1.0,
        "aliasList": [
          "4157"
        ],
        "actionId": 350,
        "steerType": "ABSOLUTE",
        "steerDir": {
          "x": -1951.9189453125,
          "y": 203.63900756835938,
          "z": 2653.675048828125
        },
        "useSteerAnim": true,
        "targetNpcAlias": "",
        "BHGPHGNFCBF": ""
      },
      {
        "$type": "NPCNMEOCADD",
        "type": "LOOK_AT",
        "delayTime": 0.40799999237060547,
        "aliasList": [
          "20601"
        ],
        "actionId": 357,
        "enableHead": true,
        "headTurnTime": 0.4000000059604645,
        "targetNpcAlias": "4157",
        "openBackProtect": true,
        "targetNpcLookAtPoint": "",
        "BHGPHGNFCBF": ""
      },
      {
        "$type": "IEKHMHNHENB",
        "type": "STEER_TO",
        "delayTime": 0.7260000109672546,
        "duration": 1.0,
        "aliasList": [
          "20601"
        ],
        "actionId": 358,
        "steerType": "ABSOLUTE",
        "steerDir": {
          "x": -1952.301025390625,
          "y": 203.63900756835938,
          "z": 2654.39111328125
        },
        "useSteerAnim": true,
        "targetNpcAlias": "",
        "BHGPHGNFCBF": ""
      },
      {
        "$type": "EFHODGEJOHJ",
        "type": "CAMERA_MOVE",
        "delayTime": 0.800000011920929,
        "duration": 1.0,
        "actionId": 351,
        "camPosOffset": {
          "x": -1946.2430419921875,
          "y": 213.27000427246094,
          "z": 2625.6298828125
        },
        "camForwardTargetOffset": {
          "x": -1946.573974609375,
          "y": 213.06700134277344,
          "z": 2626.552001953125
        },
        "camFov": 25.0,
        "lerpPattern": 6,
        "cameraBlendType": "EaseInOutCubic",
        "MDKBPBJCMHH": {},
        "needZAxisRotate": true,
        "openCameraDither": false,
        "targetNpcAlias": "",
        "closeTreeLeafDither": true,
        "PHGBNNGCJKJ": "",
        "NFILMKCFHEB": "",
        "BGPNGHDAECF": ""
      },
      {
        "$type": "MoleMole.Config.ConfigTeleportToAction",
        "type": "TELEPORT_TO",
        "delayTime": 0.800000011920929,
        "aliasList": [
          "4157"
        ],
        "actionId": 349,
        "position": {
          "x": -1953.112060546875,
          "y": 203.63800048828125,
          "z": 2655.8369140625
        },
        "forward": {
          "x": 0.42399999499320984,
          "z": 0.28600001335144043
        },
        "openLongDisTeleport": true,
        "_posBindMovingTargetKey": "",
        "_forwardBindMovingTargetKey": ""
      },
      {
        "$type": "EFHODGEJOHJ",
        "type": "CAMERA_MOVE",
        "delayTime": 0.8999999761581421,
        "duration": 10.0,
        "actionId": 348,
        "camPosOffset": {
          "x": -1945.8160400390625,
          "y": 212.83900451660156,
          "z": 2625.68896484375
        },
        "camForwardTargetOffset": {
          "x": -1946.14697265625,
          "y": 212.63600158691406,
          "z": 2626.611083984375
        },
        "camFov": 25.0,
        "cameraBlendType": "EaseOutQuad",
        "MDKBPBJCMHH": {},
        "openCameraDither": false,
        "targetNpcAlias": "",
        "closeTreeLeafDither": true,
        "PHGBNNGCJKJ": "",
        "NFILMKCFHEB": "",
        "BGPNGHDAECF": ""
      },
      {
        "$type": "NPCNMEOCADD",
        "type": "LOOK_AT",
        "delayTime": 1.2239999771118164,
        "aliasList": [
          "4157"
        ],
        "actionId": 352,
        "enableHead": true,
        "useTargetPos": true,
        "enableAbsolute": true,
        "targetPosition": {
          "x": -1950.199951171875,
          "y": 205.2519989013672,
          "z": 2649.50390625
        },
        "headTurnTime": 0.30000001192092896,
        "targetNpcAlias": "",
        "lookAtTargetType": "NONE",
        "openBackProtect": true,
        "targetNpcLookAtPoint": "",
        "BHGPHGNFCBF": ""
      },
      {
        "$type": "NPCNMEOCADD",
        "type": "LOOK_AT",
        "delayTime": 1.5509999990463257,
        "aliasList": [
          "20601"
        ],
        "actionId": 359,
        "enableHead": true,
        "headTurnTime": 0.30000001192092896,
        "targetNpcAlias": "4157",
        "openBackProtect": true,
        "targetNpcLookAtPoint": "",
        "BHGPHGNFCBF": ""
      },
      {
        "$type": "MoleMole.Config.ConfigMoveToAction",
        "type": "MOVE_TO",
        "delayTime": 1.7000000476837158,
        "aliasList": [
          "4157"
        ],
        "actionId": 353,
        "moveType": "WALK",
        "routeList": [
          {
            "x": -1951.9219970703125,
            "y": 203.63900756835938,
            "z": 2653.402099609375
          }
        ],
        "closeNavMesh": true,
        "_bindMovingTargetKey": ""
      }
    ],
    [
      {
        "$type": "EFHODGEJOHJ",
        "type": "CAMERA_MOVE",
        "duration": 0.5,
        "actionId": 361,
        "camPosOffset": {
          "x": -1951.761962890625,
          "y": 204.9080047607422,
          "z": 2653.157958984375
        },
        "camForwardTargetOffset": {
          "x": -1952.1300048828125,
          "y": 204.93699645996094,
          "z": 2654.0869140625
        },
        "camFov": 25.0,
        "lerpPattern": 6,
        "cameraBlendType": "EaseInOutCubic",
        "MDKBPBJCMHH": {},
        "needZAxisRotate": true,
        "openCameraDither": false,
        "targetNpcAlias": "",
        "closeTreeLeafDither": true,
        "PHGBNNGCJKJ": "",
        "NFILMKCFHEB": "",
        "BGPNGHDAECF": ""
      },
      {
        "$type": "MJFAIFFAGOF",
        "type": "DIALOG",
        "aliasList": [
          "4157"
        ],
        "dialogID": 730001323,
        "protectTime": 0.5
      },
      {
        "$type": "MoleMole.Config.ConfigTeleportToAction",
        "type": "TELEPORT_TO",
        "aliasList": [
          "4157"
        ],
        "actionId": 354,
        "position": {
          "x": -1952.387939453125,
          "y": 203.63900756835938,
          "z": 2654.35888671875
        },
        "forward": {
          "x": 0.43799999356269836,
          "z": -0.8989999890327454
        },
        "openLongDisTeleport": true,
        "_posBindMovingTargetKey": "",
        "_forwardBindMovingTargetKey": ""
      },
      {
        "$type": "NPCNMEOCADD",
        "type": "LOOK_AT",
        "aliasList": [
          "4157"
        ],
        "actionId": 362,
        "enableHead": true,
        "useTargetPos": true,
        "enableAbsolute": true,
        "targetPosition": {
          "x": -1951.248046875,
          "y": 204.61099243164062,
          "z": 2653.677001953125
        },
        "headTurnTime": 0.5,
        "targetNpcAlias": "",
        "lookAtTargetType": "NONE",
        "openBackProtect": true,
        "targetNpcLookAtPoint": "",
        "BHGPHGNFCBF": ""
      },
      {
        "$type": "HGDDIPABPCA",
        "type": "LOOK_AT_EYECTRL",
        "aliasList": [
          "4157"
        ],
        "actionId": 363,
        "useTargetPos": false,
        "eyeRotateVecLeft": {
          "x": -2.0,
          "z": 2.0
        },
        "eyeRotateVecRight": {
          "x": -2.0,
          "z": 2.0
        },
        "turnTime": 1.0,
        "targetNpcAlias": "",
        "targetPoint": "Face"
      },
      {
        "$type": "EFHODGEJOHJ",
        "type": "CAMERA_MOVE",
        "delayTime": 0.10000000149011612,
        "duration": 1.5,
        "actionId": 360,
        "camPosOffset": {
          "x": -1951.616943359375,
          "y": 204.90899658203125,
          "z": 2653.114990234375
        },
        "camForwardTargetOffset": {
          "x": -1951.9859619140625,
          "y": 204.93800354003906,
          "z": 2654.0439453125
        },
        "camFov": 25.0,
        "cameraBlendType": "EaseInOutQuad",
        "MDKBPBJCMHH": {},
        "openCameraDither": false,
        "targetNpcAlias": "",
        "closeTreeLeafDither": true,
        "PHGBNNGCJKJ": "",
        "NFILMKCFHEB": "",
        "BGPNGHDAECF": ""
      },
      {
        "$type": "MJFAIFFAGOF",
        "type": "DIALOG",
        "delayTime": 1.3279999494552612,
        "aliasList": [
          "4157"
        ],
        "dialogID": 730001412,
        "protectTime": 0.5
      },
      {
        "$type": "EFHODGEJOHJ",
        "type": "CAMERA_MOVE",
        "delayTime": 1.465000033378601,
        "duration": 4.0,
        "actionId": 364,
        "camPosOffset": {
          "x": -1951.5899658203125,
          "y": 204.90899658203125,
          "z": 2653.10693359375
        },
        "camForwardTargetOffset": {
          "x": -1951.9580078125,
          "y": 204.93800354003906,
          "z": 2654.035888671875
        },
        "camFov": 25.0,
        "cameraBlendType": "EaseOutQuad",
        "MDKBPBJCMHH": {},
        "needZAxisRotate": true,
        "openCameraDither": false,
        "targetNpcAlias": "",
        "closeTreeLeafDither": true,
        "PHGBNNGCJKJ": "",
        "NFILMKCFHEB": "",
        "BGPNGHDAECF": ""
      }
    ],
    [
      {
        "$type": "EFHODGEJOHJ",
        "type": "CAMERA_MOVE",
        "duration": 0.5,
        "actionId": 366,
        "camPosOffset": {
          "x": -1953.1820068359375,
          "y": 205.0449981689453,
          "z": 2655.488037109375
        },
        "camForwardTargetOffset": {
          "x": -1953.2080078125,
          "y": 204.96400451660156,
          "z": 2656.48388671875
        },
        "camFov": 25.0,
        "lerpPattern": 6,
        "cameraBlendType": "EaseInOutCubic",
        "MDKBPBJCMHH": {},
        "needZAxisRotate": true,
        "openCameraDither": false,
        "targetNpcAlias": "",
        "closeTreeLeafDither": true,
        "PHGBNNGCJKJ": "",
        "NFILMKCFHEB": "",
        "BGPNGHDAECF": ""
      },
      {
        "$type": "MoleMole.Config.ConfigVisibleInterAction",
        "type": "VISIBLE",
        "aliasList": [
          "Avatar"
        ],
        "actionId": 344,
        "_extraParam": ""
      },
      {
        "$type": "MJFAIFFAGOF",
        "type": "DIALOG",
        "aliasList": [
          "1005"
        ],
        "dialogID": 730001413,
        "protectTime": 0.5
      },
      {
        "$type": "EDCHPJLDKIN",
        "type": "BODY_LANG",
        "aliasList": [
          "1005"
        ],
        "actionId": 365,
        "bodyLangParam": 1060,
        "forceDoFreeStyle": true,
        "canDoRepeatFreeStyle": false,
        "cantBackToIdleWhenSitLoop": true,
        "eventPatternSuiteKey": ""
      },
      {
        "$type": "EFHODGEJOHJ",
        "type": "CAMERA_MOVE",
        "delayTime": 0.10000000149011612,
        "duration": 0.800000011920929,
        "actionId": 370,
        "camPosOffset": {
          "x": -1953.1910400390625,
          "y": 205.01800537109375,
          "z": 2655.81005859375
        },
        "camForwardTargetOffset": {
          "x": -1953.217041015625,
          "y": 204.93699645996094,
          "z": 2656.805908203125
        },
        "camFov": 25.0,
        "cameraBlendType": "EaseInOutQuad",
        "MDKBPBJCMHH": {},
        "needZAxisRotate": true,
        "openCameraDither": false,
        "targetNpcAlias": "",
        "closeTreeLeafDither": true,
        "PHGBNNGCJKJ": "",
        "NFILMKCFHEB": "",
        "BGPNGHDAECF": ""
      }
    ],
    [
      {
        "$type": "EFHODGEJOHJ",
        "type": "CAMERA_MOVE",
        "duration": 1.0,
        "actionId": 372,
        "camPosOffset": {
          "x": -1958.89794921875,
          "y": 206.3280029296875,
          "z": 2661.35595703125
        },
        "camForwardTargetOffset": {
          "x": -1958.1090087890625,
          "y": 206.10699462890625,
          "z": 2660.781982421875
        },
        "camFov": 25.0,
        "lerpPattern": 6,
        "cameraBlendType": "EaseInOutCubic",
        "MDKBPBJCMHH": {},
        "needZAxisRotate": true,
        "openCameraDither": false,
        "targetNpcAlias": "",
        "closeTreeLeafDither": true,
        "PHGBNNGCJKJ": "",
        "NFILMKCFHEB": "",
        "BGPNGHDAECF": ""
      },
      {
        "$type": "MoleMole.Config.ConfigTeleportToAction",
        "type": "TELEPORT_TO",
        "aliasList": [
          "Avatar"
        ],
        "actionId": 368,
        "position": {
          "x": -1952.6829833984375,
          "y": 203.66600036621094,
          "z": 2656.632080078125
        },
        "forward": {
          "x": 0.1860000044107437,
          "z": -0.9829999804496765
        },
        "openLongDisTeleport": true,
        "_posBindMovingTargetKey": "",
        "_forwardBindMovingTargetKey": ""
      },
      {
        "$type": "MoleMole.Config.ConfigVisibleInterAction",
        "type": "VISIBLE",
        "aliasList": [
          "Avatar"
        ],
        "actionId": 345,
        "isVisible": true,
        "_extraParam": ""
      },
      {
        "$type": "NPCNMEOCADD",
        "type": "LOOK_AT",
        "aliasList": [
          "Avatar"
        ],
        "actionId": 346,
        "enableHead": true,
        "headTurnTime": -1.0,
        "targetNpcAlias": "4157",
        "openBackProtect": true,
        "targetNpcLookAtPoint": "",
        "BHGPHGNFCBF": ""
      },
      {
        "$type": "EDCHPJLDKIN",
        "type": "BODY_LANG",
        "aliasList": [
          "1005"
        ],
        "actionId": 367,
        "isContinue": true,
        "forceDoFreeStyle": true,
        "canDoRepeatFreeStyle": false,
        "cantBackToIdleWhenSitLoop": true,
        "eventPatternSuiteKey": ""
      },
      {
        "$type": "MoleMole.Config.ConfigTeleportToAction",
        "type": "TELEPORT_TO",
        "aliasList": [
          "1005"
        ],
        "actionId": 369,
        "position": {
          "x": -1953.1800537109375,
          "y": 203.63800048828125,
          "z": 2656.39697265625
        },
        "forward": {
          "x": 0.800000011920929,
          "y": 0.02800000086426735,
          "z": -2.065999984741211
        },
        "openLongDisTeleport": true,
        "_posBindMovingTargetKey": "",
        "_forwardBindMovingTargetKey": ""
      },
      {
        "$type": "MJFAIFFAGOF",
        "type": "DIALOG",
        "aliasList": [
          "4157"
        ],
        "dialogID": 730001414,
        "protectTime": 1.399999976158142
      },
      {
        "$type": "NPCNMEOCADD",
        "type": "LOOK_AT",
        "aliasList": [
          "4157"
        ],
        "actionId": 373,
        "enableHead": true,
        "headTurnTime": 0.5,
        "targetNpcAlias": "1005",
        "openBackProtect": true,
        "targetNpcLookAtPoint": "",
        "BHGPHGNFCBF": ""
      },
      {
        "$type": "HGDDIPABPCA",
        "type": "LOOK_AT_EYECTRL",
        "aliasList": [
          "4157"
        ],
        "actionId": 381,
        "useTargetPos": false,
        "turnTime": 1.0,
        "targetNpcAlias": "",
        "targetPoint": "Face"
      },
      {
        "$type": "EFHODGEJOHJ",
        "type": "CAMERA_MOVE",
        "delayTime": 0.10000000149011612,
        "duration": 16.0,
        "actionId": 371,
        "camPosOffset": {
          "x": -1958.9940185546875,
          "y": 206.29400634765625,
          "z": 2661.237060546875
        },
        "camForwardTargetOffset": {
          "x": -1958.2049560546875,
          "y": 206.072998046875,
          "z": 2660.6630859375
        },
        "camFov": 25.0,
        "cameraBlendType": "EaseOutQuad",
        "MDKBPBJCMHH": {},
        "needZAxisRotate": true,
        "openCameraDither": false,
        "targetNpcAlias": "",
        "closeTreeLeafDither": true,
        "PHGBNNGCJKJ": "",
        "NFILMKCFHEB": "",
        "BGPNGHDAECF": ""
      },
      {
        "$type": "IEKHMHNHENB",
        "type": "STEER_TO",
        "delayTime": 0.4000000059604645,
        "duration": 1.0,
        "aliasList": [
          "4157"
        ],
        "actionId": 374,
        "steerType": "ABSOLUTE",
        "steerDir": {
          "x": -1952.5460205078125,
          "y": 203.63800048828125,
          "z": 2655.23095703125
        },
        "useSteerAnim": true,
        "targetNpcAlias": "",
        "BHGPHGNFCBF": ""
      },
      {
        "$type": "NPCNMEOCADD",
        "type": "LOOK_AT",
        "delayTime": 1.2109999656677246,
        "aliasList": [
          "4157"
        ],
        "actionId": 375,
        "enableHead": true,
        "headTurnTime": 0.30000001192092896,
        "targetNpcAlias": "1005",
        "openBackProtect": true,
        "targetNpcLookAtPoint": "",
        "BHGPHGNFCBF": ""
      },
      {
        "$type": "EDCHPJLDKIN",
        "type": "BODY_LANG",
        "delayTime": 2.066999912261963,
        "aliasList": [
          "4157"
        ],
        "actionId": 376,
        "bodyLangParam": 4040,
        "forceDoFreeStyle": true,
        "canDoRepeatFreeStyle": false,
        "cantBackToIdleWhenSitLoop": true,
        "eventPatternSuiteKey": ""
      },
      {
        "$type": "EDCHPJLDKIN",
        "type": "BODY_LANG",
        "delayTime": 5.6479997634887695,
        "aliasList": [
          "4157"
        ],
        "actionId": 377,
        "bodyLangParam": 1171,
        "forceDoFreeStyle": true,
        "canDoRepeatFreeStyle": false,
        "cantBackToIdleWhenSitLoop": true,
        "eventPatternSuiteKey": ""
      }
    ],
    [
      {
        "$type": "EFHODGEJOHJ",
        "type": "CAMERA_MOVE",
        "duration": 1.0,
        "actionId": 378,
        "camPosOffset": {
          "x": -1953.4539794921875,
          "y": 204.94400024414062,
          "z": 2655.89892578125
        },
        "camForwardTargetOffset": {
          "x": -1952.791015625,
          "y": 204.89500427246094,
          "z": 2655.152099609375
        },
        "camFov": 25.0,
        "lerpPattern": 6,
        "cameraBlendType": "EaseInOutCubic",
        "MDKBPBJCMHH": {},
        "needZAxisRotate": true,
        "openCameraDither": false,
        "targetNpcAlias": "",
        "closeTreeLeafDither": true,
        "PHGBNNGCJKJ": "",
        "NFILMKCFHEB": "",
        "BGPNGHDAECF": ""
      },
      {
        "$type": "MJFAIFFAGOF",
        "type": "DIALOG",
        "aliasList": [
          "4157"
        ],
        "dialogID": 730001415,
        "protectTime": 0.5
      },
      {
        "$type": "EDCHPJLDKIN",
        "type": "BODY_LANG",
        "aliasList": [
          "4157"
        ],
        "actionId": 379,
        "bodyLangParam": 1171,
        "forceDoFreeStyle": true,
        "canDoRepeatFreeStyle": false,
        "cantBackToIdleWhenSitLoop": true,
        "eventPatternSuiteKey": ""
      },
      {
        "$type": "NPCNMEOCADD",
        "type": "LOOK_AT",
        "aliasList": [
          "4157"
        ],
        "actionId": 391,
        "enableHead": true,
        "headTurnTime": 0.5,
        "targetNpcAlias": "1005",
        "openBackProtect": true,
        "targetNpcLookAtPoint": "",
        "BHGPHGNFCBF": ""
      },
      {
        "$type": "NPCNMEOCADD",
        "type": "LOOK_AT",
        "delayTime": 3.2709999084472656,
        "aliasList": [
          "4157"
        ],
        "actionId": 388,
        "enableHead": true,
        "useTargetPos": true,
        "enableAbsolute": true,
        "targetPosition": {
          "x": -1952.3179931640625,
          "y": 204.92100524902344,
          "z": 2655.659912109375
        },
        "headTurnTime": 0.5,
        "targetNpcAlias": "",
        "lookAtTargetType": "NONE",
        "openBackProtect": true,
        "targetNpcLookAtPoint": "",
        "BHGPHGNFCBF": ""
      },
      {
        "$type": "EDCHPJLDKIN",
        "type": "BODY_LANG",
        "delayTime": 4.184000015258789,
        "aliasList": [
          "4157"
        ],
        "actionId": 380,
        "bodyLangParam": 5010,
        "forceDoFreeStyle": true,
        "canDoRepeatFreeStyle": false,
        "cantBackToIdleWhenSitLoop": true,
        "eventPatternSuiteKey": ""
      }
    ],
    [
      {
        "$type": "MJFAIFFAGOF",
        "type": "DIALOG",
        "aliasList": [
          "4157"
        ],
        "dialogID": 730001416,
        "protectTime": 0.5
      },
      {
        "$type": "NPCNMEOCADD",
        "type": "LOOK_AT",
        "aliasList": [
          "4157"
        ],
        "actionId": 390,
        "enableHead": true,
        "headTurnTime": 0.5,
        "targetNpcAlias": "Avatar",
        "openBackProtect": true,
        "targetNpcLookAtPoint": "",
        "BHGPHGNFCBF": ""
      },
      {
        "$type": "EDCHPJLDKIN",
        "type": "BODY_LANG",
        "delayTime": 1.6230000257492065,
        "aliasList": [
          "4157"
        ],
        "actionId": 389,
        "bodyLangParam": 1171,
        "forceDoFreeStyle": true,
        "canDoRepeatFreeStyle": false,
        "cantBackToIdleWhenSitLoop": true,
        "eventPatternSuiteKey": ""
      }
    ],
    [
      {
        "$type": "EFHODGEJOHJ",
        "type": "CAMERA_MOVE",
        "duration": 1.0,
        "actionId": 383,
        "camPosOffset": {
          "x": -1953.5340576171875,
          "y": 204.8939971923828,
          "z": 2652.43310546875
        },
        "camForwardTargetOffset": {
          "x": -1953.2120361328125,
          "y": 204.86599731445312,
          "z": 2653.3798828125
        },
        "camFov": 25.0,
        "lerpPattern": 6,
        "cameraBlendType": "EaseInOutCubic",
        "MDKBPBJCMHH": {},
        "needZAxisRotate": true,
        "openCameraDither": false,
        "targetNpcAlias": "",
        "closeTreeLeafDither": true,
        "PHGBNNGCJKJ": "",
        "NFILMKCFHEB": "",
        "BGPNGHDAECF": ""
      },
      {
        "$type": "MoleMole.Config.ConfigTeleportToAction",
        "type": "TELEPORT_TO",
        "aliasList": [
          "20601"
        ],
        "actionId": 384,
        "position": {
          "x": -1952.0379638671875,
          "y": 203.6649932861328,
          "z": 2655.916015625
        },
        "forward": {
          "x": -0.19099999964237213,
          "z": -1.2339999675750732
        },
        "openLongDisTeleport": true,
        "_posBindMovingTargetKey": "",
        "_forwardBindMovingTargetKey": ""
      },
      {
        "$type": "MJFAIFFAGOF",
        "type": "DIALOG",
        "aliasList": [
          "4157"
        ],
        "dialogID": 730001417,
        "protectTime": 0.5
      },
      {
        "$type": "NPCNMEOCADD",
        "type": "LOOK_AT",
        "aliasList": [
          "4157"
        ],
        "actionId": 392,
        "enableHead": true,
        "headTurnTime": 0.5,
        "targetNpcAlias": "1005",
        "openBackProtect": true,
        "targetNpcLookAtPoint": "",
        "BHGPHGNFCBF": ""
      },
      {
        "$type": "EFHODGEJOHJ",
        "type": "CAMERA_MOVE",
        "delayTime": 0.10000000149011612,
        "duration": 16.0,
        "actionId": 382,
        "camPosOffset": {
          "x": -1953.6199951171875,
          "y": 204.86300659179688,
          "z": 2652.4619140625
        },
        "camForwardTargetOffset": {
          "x": -1953.2869873046875,
          "y": 204.83799743652344,
          "z": 2653.405029296875
        },
        "camFov": 25.0,
        "cameraBlendType": "EaseOutQuad",
        "MDKBPBJCMHH": {},
        "needZAxisRotate": true,
        "openCameraDither": false,
        "targetNpcAlias": "",
        "closeTreeLeafDither": true,
        "PHGBNNGCJKJ": "",
        "NFILMKCFHEB": "",
        "BGPNGHDAECF": ""
      },
      {
        "$type": "OBCDECFOOBC",
        "type": "DIALOG_SELECT",
        "delayTime": 0.4000000059604645,
        "aliasList": [
          "Avatar"
        ],
        "dialogIDList": [
          730001418,
          730001419
        ],
        "grpIDList": [
          38407984,
          38407984
        ],
        "useGrpId": true
      },
      {
        "$type": "NPCNMEOCADD",
        "type": "LOOK_AT",
        "delayTime": 2.5239999294281006,
        "aliasList": [
          "4157"
        ],
        "actionId": 394,
        "enableHead": true,
        "useTargetPos": true,
        "enableAbsolute": true,
        "targetPosition": {
          "x": -1952.5870361328125,
          "y": 204.59800720214844,
          "z": 2655.032958984375
        },
        "headTurnTime": 0.5,
        "targetNpcAlias": "",
        "lookAtTargetType": "NONE",
        "openBackProtect": true,
        "targetNpcLookAtPoint": "",
        "BHGPHGNFCBF": ""
      },
      {
        "$type": "EDCHPJLDKIN",
        "type": "BODY_LANG",
        "delayTime": 5.979000091552734,
        "aliasList": [
          "4157"
        ],
        "actionId": 396,
        "bodyLangParam": 4040,
        "forceDoFreeStyle": true,
        "canDoRepeatFreeStyle": false,
        "cantBackToIdleWhenSitLoop": true,
        "eventPatternSuiteKey": ""
      }
    ],
    [
      {
        "$type": "EFHODGEJOHJ",
        "type": "CAMERA_MOVE",
        "duration": 1.0,
        "actionId": 385,
        "camPosOffset": {
          "x": -1953.5250244140625,
          "y": 205.22300720214844,
          "z": 2658.174072265625
        },
        "camForwardTargetOffset": {
          "x": -1953.1949462890625,
          "y": 205.0970001220703,
          "z": 2657.239013671875
        },
        "camFov": 25.0,
        "lerpPattern": 6,
        "cameraBlendType": "EaseInOutCubic",
        "MDKBPBJCMHH": {},
        "openCameraDither": false,
        "targetNpcAlias": "",
        "closeTreeLeafDither": true,
        "PHGBNNGCJKJ": "",
        "NFILMKCFHEB": "",
        "BGPNGHDAECF": ""
      },
      {
        "$type": "MoleMole.Config.ConfigTeleportToAction",
        "type": "TELEPORT_TO",
        "aliasList": [
          "1005"
        ],
        "actionId": 386,
        "position": {
          "x": -1953.3330078125,
          "y": 203.63800048828125,
          "z": 2656.365966796875
        },
        "forward": {
          "x": 0.9259999990463257,
          "z": -1.9390000104904175
        },
        "openLongDisTeleport": true,
        "_posBindMovingTargetKey": "",
        "_forwardBindMovingTargetKey": ""
      },
      {
        "$type": "MJFAIFFAGOF",
        "type": "DIALOG",
        "aliasList": [
          "4157"
        ],
        "dialogID": 730001420,
        "protectTime": 0.5
      },
      {
        "$type": "NPCNMEOCADD",
        "type": "LOOK_AT",
        "aliasList": [
          "4157"
        ],
        "actionId": 395,
        "enableHead": true,
        "headTurnTime": 0.5,
        "targetNpcAlias": "Avatar",
        "openBackProtect": true,
        "targetNpcLookAtPoint": "",
        "BHGPHGNFCBF": ""
      },
      {
        "$type": "EDCHPJLDKIN",
        "type": "BODY_LANG",
        "delayTime": 1.468000054359436,
        "aliasList": [
          "4157"
        ],
        "actionId": 397,
        "bodyLangParam": 1171,
        "forceDoFreeStyle": true,
        "canDoRepeatFreeStyle": false,
        "cantBackToIdleWhenSitLoop": true,
        "eventPatternSuiteKey": ""
      }
    ],
    [
      {
        "$type": "EFHODGEJOHJ",
        "type": "CAMERA_MOVE",
        "duration": 1.0,
        "actionId": 398,
        "camPosOffset": {
          "x": -1952.8929443359375,
          "y": 205.17100524902344,
          "z": 2655.531005859375
        },
        "camForwardTargetOffset": {
          "x": -1951.9849853515625,
          "y": 205.31399536132812,
          "z": 2655.925048828125
        },
        "camFov": 25.0,
        "lerpPattern": 6,
        "cameraBlendType": "EaseInOutCubic",
        "MDKBPBJCMHH": {},
        "needZAxisRotate": true,
        "openCameraDither": false,
        "targetNpcAlias": "",
        "closeTreeLeafDither": true,
        "PHGBNNGCJKJ": "",
        "NFILMKCFHEB": "",
        "BGPNGHDAECF": ""
      },
      {
        "$type": "MoleMole.Config.ConfigTeleportToAction",
        "type": "TELEPORT_TO",
        "aliasList": [
          "Avatar"
        ],
        "actionId": 399,
        "position": {
          "x": -1952.6829833984375,
          "y": 203.66700744628906,
          "z": 2656.346923828125
        },
        "forward": {
          "x": 0.2879999876022339,
          "z": -1.9509999752044678
        },
        "openLongDisTeleport": true,
        "_posBindMovingTargetKey": "",
        "_forwardBindMovingTargetKey": ""
      },
      {
        "$type": "MoleMole.Config.ConfigTeleportToAction",
        "type": "TELEPORT_TO",
        "aliasList": [
          "1005"
        ],
        "actionId": 387,
        "position": {
          "x": -1953.1800537109375,
          "y": 203.63800048828125,
          "z": 2656.39697265625
        },
        "forward": {
          "x": 0.3610000014305115,
          "z": -0.9330000281333923
        },
        "openLongDisTeleport": true,
        "_posBindMovingTargetKey": "",
        "_forwardBindMovingTargetKey": ""
      },
      {
        "$type": "MJFAIFFAGOF",
        "type": "DIALOG",
        "aliasList": [
          "20601"
        ],
        "dialogID": 730001421,
        "protectTime": 0.5
      },
      {
        "$type": "EDCHPJLDKIN",
        "type": "BODY_LANG",
        "aliasList": [
          "20601"
        ],
        "actionId": 400,
        "bodyLangParam": 1130,
        "forceDoFreeStyle": true,
        "canDoRepeatFreeStyle": false,
        "cantBackToIdleWhenSitLoop": true,
        "eventPatternSuiteKey": ""
      },
      {
        "$type": "NPCNMEOCADD",
        "type": "LOOK_AT",
        "aliasList": [
          "4157"
        ],
        "actionId": 407,
        "enableHead": true,
        "useTargetPos": true,
        "enableAbsolute": true,
        "targetPosition": {
          "x": -1952.3179931640625,
          "y": 204.92100524902344,
          "z": 2655.659912109375
        },
        "headTurnTime": 0.5,
        "targetNpcAlias": "",
        "lookAtTargetType": "NONE",
        "openBackProtect": true,
        "targetNpcLookAtPoint": "",
        "BHGPHGNFCBF": ""
      },
      {
        "$type": "EDCHPJLDKIN",
        "type": "BODY_LANG",
        "delayTime": 2.2809998989105225,
        "aliasList": [
          "20601"
        ],
        "actionId": 401,
        "isContinue": true,
        "forceDoFreeStyle": true,
        "canDoRepeatFreeStyle": false,
        "cantBackToIdleWhenSitLoop": true,
        "eventPatternSuiteKey": ""
      },
      {
        "$type": "EDCHPJLDKIN",
        "type": "BODY_LANG",
        "delayTime": 3.0799999237060547,
        "aliasList": [
          "20601"
        ],
        "actionId": 402,
        "bodyLangParam": 1171,
        "forceDoFreeStyle": true,
        "canDoRepeatFreeStyle": false,
        "cantBackToIdleWhenSitLoop": true,
        "eventPatternSuiteKey": ""
      }
    ],
    [
      {
        "$type": "EFHODGEJOHJ",
        "type": "CAMERA_MOVE",
        "duration": 1.0,
        "actionId": 405,
        "camPosOffset": {
          "x": -1953.574951171875,
          "y": 206.65899658203125,
          "z": 2659.01904296875
        },
        "camForwardTargetOffset": {
          "x": -1953.3160400390625,
          "y": 206.21299743652344,
          "z": 2658.1630859375
        },
        "camFov": 25.0,
        "lerpPattern": 6,
        "cameraBlendType": "EaseInOutCubic",
        "MDKBPBJCMHH": {},
        "needZAxisRotate": true,
        "openCameraDither": false,
        "targetNpcAlias": "",
        "closeTreeLeafDither": true,
        "PHGBNNGCJKJ": "",
        "NFILMKCFHEB": "",
        "BGPNGHDAECF": ""
      },
      {
        "$type": "EDCHPJLDKIN",
        "type": "BODY_LANG",
        "aliasList": [
          "20601"
        ],
        "actionId": 403,
        "isContinue": true,
        "forceDoFreeStyle": true,
        "canDoRepeatFreeStyle": false,
        "cantBackToIdleWhenSitLoop": true,
        "eventPatternSuiteKey": ""
      },
      {
        "$type": "MJFAIFFAGOF",
        "type": "DIALOG",
        "aliasList": [
          "4157"
        ],
        "dialogID": 730001422,
        "protectTime": 0.5
      },
      {
        "$type": "EDCHPJLDKIN",
        "type": "BODY_LANG",
        "aliasList": [
          "4157"
        ],
        "actionId": 409,
        "bodyLangParam": 1171,
        "forceDoFreeStyle": true,
        "canDoRepeatFreeStyle": false,
        "cantBackToIdleWhenSitLoop": true,
        "eventPatternSuiteKey": ""
      },
      {
        "$type": "EFHODGEJOHJ",
        "type": "CAMERA_MOVE",
        "delayTime": 0.10000000149011612,
        "duration": 12.0,
        "actionId": 404,
        "camPosOffset": {
          "x": -1953.6910400390625,
          "y": 206.73800659179688,
          "z": 2658.94091796875
        },
        "camForwardTargetOffset": {
          "x": -1953.4129638671875,
          "y": 206.28399658203125,
          "z": 2658.094970703125
        },
        "camFov": 25.0,
        "cameraBlendType": "EaseOutQuad",
        "MDKBPBJCMHH": {},
        "needZAxisRotate": true,
        "openCameraDither": false,
        "targetNpcAlias": "",
        "closeTreeLeafDither": true,
        "PHGBNNGCJKJ": "",
        "NFILMKCFHEB": "",
        "BGPNGHDAECF": ""
      },
      {
        "$type": "OBCDECFOOBC",
        "type": "DIALOG_SELECT",
        "delayTime": 0.4000000059604645,
        "aliasList": [
          "Avatar"
        ],
        "dialogIDList": [
          730001423,
          730001424
        ],
        "grpIDList": [
          38408008,
          38408008
        ],
        "useGrpId": true
      },
      {
        "$type": "NPCNMEOCADD",
        "type": "LOOK_AT",
        "delayTime": 3.9670000076293945,
        "aliasList": [
          "4157"
        ],
        "actionId": 408,
        "enableHead": true,
        "headTurnTime": 0.5,
        "targetNpcAlias": "Avatar",
        "openBackProtect": true,
        "targetNpcLookAtPoint": "",
        "BHGPHGNFCBF": ""
      },
      {
        "$type": "EDCHPJLDKIN",
        "type": "BODY_LANG",
        "delayTime": 4.9720001220703125,
        "aliasList": [
          "4157"
        ],
        "actionId": 410,
        "bodyLangParam": 4040,
        "forceDoFreeStyle": true,
        "canDoRepeatFreeStyle": false,
        "cantBackToIdleWhenSitLoop": true,
        "eventPatternSuiteKey": ""
      }
    ],
    [
      {
        "$type": "EFHODGEJOHJ",
        "type": "CAMERA_MOVE",
        "duration": 1.0,
        "actionId": 411,
        "camPosOffset": {
          "x": -1952.550048828125,
          "y": 205.0449981689453,
          "z": 2655.37109375
        },
        "camForwardTargetOffset": {
          "x": -1952.39794921875,
          "y": 204.95199584960938,
          "z": 2654.386962890625
        },
        "camFov": 25.0,
        "lerpPattern": 6,
        "cameraBlendType": "EaseInOutCubic",
        "MDKBPBJCMHH": {},
        "needZAxisRotate": true,
        "openCameraDither": false,
        "targetNpcAlias": "",
        "closeTreeLeafDither": true,
        "PHGBNNGCJKJ": "",
        "NFILMKCFHEB": "",
        "BGPNGHDAECF": ""
      },
      {
        "$type": "MoleMole.Config.ConfigTeleportToAction",
        "type": "TELEPORT_TO",
        "aliasList": [
          "Avatar"
        ],
        "actionId": 417,
        "position": {
          "x": -1953.0159912109375,
          "y": 203.66700744628906,
          "z": 2656.44091796875
        },
        "forward": {
          "x": 0.5580000281333923,
          "y": -0.028999999165534973,
          "z": -1.906000018119812
        },
        "openLongDisTeleport": true,
        "_posBindMovingTargetKey": "",
        "_forwardBindMovingTargetKey": ""
      },
      {
        "$type": "MoleMole.Config.ConfigTeleportToAction",
        "type": "TELEPORT_TO",
        "aliasList": [
          "1005"
        ],
        "actionId": 416,
        "position": {
          "x": -1953.3690185546875,
          "y": 203.63800048828125,
          "z": 2656.2958984375
        },
        "forward": {
          "x": 0.9110000133514404,
          "z": -1.7610000371932983
        },
        "openLongDisTeleport": true,
        "_posBindMovingTargetKey": "",
        "_forwardBindMovingTargetKey": ""
      },
      {
        "$type": "MJFAIFFAGOF",
        "type": "DIALOG",
        "aliasList": [
          "4157"
        ],
        "dialogID": 730001425,
        "protectTime": 0.5
      },
      {
        "$type": "EDCHPJLDKIN",
        "type": "BODY_LANG",
        "aliasList": [
          "4157"
        ],
        "actionId": 412,
        "bodyLangParam": 5010,
        "forceDoFreeStyle": true,
        "canDoRepeatFreeStyle": false,
        "cantBackToIdleWhenSitLoop": true,
        "eventPatternSuiteKey": ""
      }
    ],
    [
      {
        "$type": "MJFAIFFAGOF",
        "type": "DIALOG",
        "aliasList": [
          "20601"
        ],
        "dialogID": 730001426,
        "protectTime": 0.5
      },
      {
        "$type": "EDCHPJLDKIN",
        "type": "BODY_LANG",
        "aliasList": [
          "20601"
        ],
        "actionId": 422,
        "bodyLangParam": 1130,
        "forceDoFreeStyle": true,
        "canDoRepeatFreeStyle": false,
        "cantBackToIdleWhenSitLoop": true,
        "eventPatternSuiteKey": ""
      },
      {
        "$type": "NPCNMEOCADD",
        "type": "LOOK_AT",
        "aliasList": [
          "4157"
        ],
        "actionId": 413,
        "enableHead": true,
        "useTargetPos": true,
        "enableAbsolute": true,
        "targetPosition": {
          "x": -1952.3179931640625,
          "y": 204.92100524902344,
          "z": 2655.659912109375
        },
        "headTurnTime": 0.5,
        "targetNpcAlias": "",
        "lookAtTargetType": "NONE",
        "openBackProtect": true,
        "targetNpcLookAtPoint": "",
        "BHGPHGNFCBF": ""
      },
      {
        "$type": "NPCNMEOCADD",
        "type": "LOOK_AT",
        "delayTime": 0.3059999942779541,
        "aliasList": [
          "1005"
        ],
        "actionId": 418,
        "enableHead": true,
        "headTurnTime": 0.4000000059604645,
        "targetNpcAlias": "20601",
        "openBackProtect": true,
        "targetNpcLookAtPoint": "",
        "BHGPHGNFCBF": ""
      },
      {
        "$type": "EFHODGEJOHJ",
        "type": "CAMERA_MOVE",
        "delayTime": 0.4000000059604645,
        "duration": 1.0,
        "actionId": 415,
        "camPosOffset": {
          "x": -1950.0159912109375,
          "y": 211.7989959716797,
          "z": 2648.762939453125
        },
        "camForwardTargetOffset": {
          "x": -1950.3380126953125,
          "y": 211.08099365234375,
          "z": 2649.3798828125
        },
        "camFov": 25.0,
        "lerpPattern": 6,
        "cameraBlendType": "EaseInOutCubic",
        "MDKBPBJCMHH": {},
        "needZAxisRotate": true,
        "openCameraDither": false,
        "targetNpcAlias": "",
        "closeTreeLeafDither": true,
        "PHGBNNGCJKJ": "",
        "NFILMKCFHEB": "",
        "BGPNGHDAECF": ""
      },
      {
        "$type": "NPCNMEOCADD",
        "type": "LOOK_AT",
        "delayTime": 0.4350000023841858,
        "aliasList": [
          "Avatar"
        ],
        "actionId": 419,
        "enableHead": true,
        "headTurnTime": 0.4000000059604645,
        "targetNpcAlias": "20601",
        "openBackProtect": true,
        "targetNpcLookAtPoint": "",
        "BHGPHGNFCBF": ""
      },
      {
        "$type": "EFHODGEJOHJ",
        "type": "CAMERA_MOVE",
        "delayTime": 0.5,
        "duration": 12.0,
        "actionId": 414,
        "camPosOffset": {
          "x": -1949.8409423828125,
          "y": 211.95199584960938,
          "z": 2649.031982421875
        },
        "camForwardTargetOffset": {
          "x": -1950.1619873046875,
          "y": 211.23399353027344,
          "z": 2649.64892578125
        },
        "camFov": 25.0,
        "cameraBlendType": "EaseOutQuad",
        "MDKBPBJCMHH": {},
        "needZAxisRotate": true,
        "openCameraDither": false,
        "targetNpcAlias": "",
        "closeTreeLeafDither": true,
        "PHGBNNGCJKJ": "",
        "NFILMKCFHEB": "",
        "BGPNGHDAECF": ""
      },
      {
        "$type": "NPCNMEOCADD",
        "type": "LOOK_AT",
        "delayTime": 0.6000000238418579,
        "aliasList": [
          "20601"
        ],
        "actionId": 423,
        "enableHead": true,
        "useTargetPos": true,
        "enableAbsolute": true,
        "targetPosition": {
          "x": -1952.342041015625,
          "y": 204.4499969482422,
          "z": 2654.625
        },
        "headTurnTime": 0.4000000059604645,
        "targetNpcAlias": "",
        "lookAtTargetType": "NONE",
        "openBackProtect": true,
        "targetNpcLookAtPoint": "",
        "BHGPHGNFCBF": ""
      }
    ],
    [
      {
        "$type": "MJFAIFFAGOF",
        "type": "DIALOG",
        "aliasList": [
          "1005"
        ],
        "dialogID": 730001427,
        "protectTime": 0.5
      },
      {
        "$type": "EDCHPJLDKIN",
        "type": "BODY_LANG",
        "aliasList": [
          "1005"
        ],
        "actionId": 420,
        "bodyLangParam": 1260,
        "forceDoFreeStyle": true,
        "canDoRepeatFreeStyle": false,
        "cantBackToIdleWhenSitLoop": true,
        "eventPatternSuiteKey": ""
      },
      {
        "$type": "EDCHPJLDKIN",
        "type": "BODY_LANG",
        "aliasList": [
          "20601"
        ],
        "actionId": 424,
        "isContinue": true,
        "forceDoFreeStyle": true,
        "canDoRepeatFreeStyle": false,
        "cantBackToIdleWhenSitLoop": true,
        "eventPatternSuiteKey": ""
      },
      {
        "$type": "NPCNMEOCADD",
        "type": "LOOK_AT",
        "delayTime": 0.2549999952316284,
        "aliasList": [
          "20601"
        ],
        "actionId": 427,
        "enableHead": true,
        "headTurnTime": 0.4000000059604645,
        "targetNpcAlias": "1005",
        "openBackProtect": true,
        "targetNpcLookAtPoint": "",
        "BHGPHGNFCBF": ""
      },
      {
        "$type": "NPCNMEOCADD",
        "type": "LOOK_AT",
        "delayTime": 0.4350000023841858,
        "aliasList": [
          "Avatar"
        ],
        "actionId": 426,
        "enableHead": true,
        "headTurnTime": 0.4000000059604645,
        "targetNpcAlias": "1005",
        "openBackProtect": true,
        "targetNpcLookAtPoint": "",
        "BHGPHGNFCBF": ""
      },
      {
        "$type": "NPCNMEOCADD",
        "type": "LOOK_AT",
        "delayTime": 0.5979999899864197,
        "aliasList": [
          "4157"
        ],
        "actionId": 428,
        "enableHead": true,
        "headTurnTime": 0.4000000059604645,
        "targetNpcAlias": "1005",
        "openBackProtect": true,
        "targetNpcLookAtPoint": "",
        "BHGPHGNFCBF": ""
      }
    ],
    [
      {
        "$type": "MoleMole.Config.ConfigSimpleBlackScreenAction",
        "type": "SIMPLE_BLACK_SCREEN",
        "durationToBlack": 0.5,
        "durationKeepBlack": 1.0,
        "durationFromBlack": 0.5,
        "textMapID": ""
      },
      {
        "$type": "MoleMole.Config.ConfigTimeProtectAction",
        "type": "TIME_PROTECT",
        "duration": 0.699999988079071
      },
      {
        "$type": "EFHODGEJOHJ",
        "type": "CAMERA_MOVE",
        "delayTime": 0.6000000238418579,
        "duration": 0.10000000149011612,
        "actionId": 421,
        "camPosOffset": {
          "x": -1954.218017578125,
          "y": 205.51600646972656,
          "z": 2660.798095703125
        },
        "camForwardTargetOffset": {
          "x": -1953.89599609375,
          "y": 205.3040008544922,
          "z": 2659.875
        },
        "lerpPattern": 6,
        "cameraBlendType": "EaseInOutCubic",
        "MDKBPBJCMHH": {},
        "needZAxisRotate": true,
        "openCameraDither": false,
        "targetNpcAlias": "",
        "closeTreeLeafDither": true,
        "PHGBNNGCJKJ": "",
        "NFILMKCFHEB": "",
        "BGPNGHDAECF": ""
      },
      {
        "$type": "MoleMole.Config.ConfigVisibleInterAction",
        "type": "VISIBLE",
        "delayTime": 0.6000000238418579,
        "aliasList": [
          "20601"
        ],
        "_extraParam": ""
      },
      {
        "$type": "MoleMole.Config.ConfigVisibleInterAction",
        "type": "VISIBLE",
        "delayTime": 0.6000000238418579,
        "aliasList": [
          "4157"
        ],
        "_extraParam": ""
      }
    ]
  ],
  "groupId": [
    {
      "grpId": 2772185608,
      "nextGrpId": 2772185609
    },
    {
      "index": 1,
      "grpId": 2772185609,
      "nextGrpId": 2772185610
    },
    {
      "index": 2,
      "grpId": 2772185610,
      "nextGrpId": 2772185611
    },
    {
      "index": 3,
      "grpId": 2772185611,
      "nextGrpId": 2772185612
    },
    {
      "index": 4,
      "grpId": 2772185612,
      "nextGrpId": 2772185613
    },
    {
      "index": 5,
      "grpId": 2772185613,
      "nextGrpId": 2772185614
    },
    {
      "index": 6,
      "grpId": 2772185614,
      "nextGrpId": 2772185615
    },
    {
      "index": 7,
      "grpId": 2772185615,
      "nextGrpId": 2772185616
    },
    {
      "index": 8,
      "grpId": 2772185616,
      "nextGrpId": 38407976
    },
    {
      "index": 9,
      "grpId": 38407976,
      "nextGrpId": 38407977
    },
    {
      "index": 10,
      "grpId": 38407977,
      "nextGrpId": 38407978
    },
    {
      "index": 11,
      "grpId": 38407978,
      "nextGrpId": 38407979
    },
    {
      "index": 12,
      "grpId": 38407979,
      "nextGrpId": 38407980
    },
    {
      "index": 13,
      "grpId": 38407980,
      "nextGrpId": 38407981
    },
    {
      "index": 14,
      "grpId": 38407981,
      "nextGrpId": 38407982
    },
    {
      "index": 15,
      "grpId": 38407982,
      "nextGrpId": 38407983
    },
    {
      "index": 16,
      "grpId": 38407983,
      "nextGrpId": 38407984
    },
    {
      "index": 17,
      "grpId": 38407984,
      "nextGrpId": 38407985
    },
    {
      "index": 18,
      "grpId": 38407985,
      "nextGrpId": 38408007
    },
    {
      "index": 19,
      "grpId": 38408007,
      "nextGrpId": 38408008
    },
    {
      "index": 20,
      "grpId": 38408008,
      "nextGrpId": 38408009
    },
    {
      "index": 21,
      "grpId": 38408009,
      "nextGrpId": 38408010
    },
    {
      "index": 22,
      "grpId": 38408010,
      "nextGrpId": 38408011
    },
    {
      "index": 23,
      "grpId": 38408011,
      "nextGrpId": 38408012
    }
  ],
  "freeStyleDic": {
    "20601": [
      1190,
      1171,
      1173,
      4030,
      1110,
      1130
    ],
    "4157": [
      5010,
      1171,
      4040
    ]
  }
}