{
  "crowdSpawnInfos": [
    {
      "crowdTypeID": 289,
      "spawnPosition": {
        "x": -1920.926025390625,
        "y": 203.76210021972656,
        "z": 2693.85888671875
      },
      "spawnFaceFwd": {
        "x": -0.9997400045394897,
        "z": -0.02280282974243164
      },
      "hairColor": {
        "r": 0.32156863808631897,
        "g": 0.21568627655506134,
        "b": 0.18039216101169586,
        "a": 1.0
      },
      "bodyColors": [
        {
          "r": 0.9333333373069763,
          "g": 0.8666666746139526,
          "b": 0.843137264251709,
          "a": 1.0
        },
        {
          "r": 0.7803921699523926,
          "g": 0.7215686440467834,
          "b": 0.6666666865348816,
          "a": 1.0
        },
        {
          "r": 0.3490196168422699,
          "g": 0.25882354378700256,
          "b": 0.20392157137393951,
          "a": 1.0
        },
        {
          "r": 0.572549045085907,
          "g": 0.4000000059604645,
          "b": 0.25882354378700256,
          "a": 1.0
        }
      ],
      "instanceId": 30009
    },
    {
      "crowdTypeID": 301,
      "spawnPosition": {
        "x": -1922.6419677734375,
        "y": 203.76199340820312,
        "z": 2693.0810546875
      },
      "spawnFaceFwd": {
        "x": 0.8150842785835266,
        "z": 0.5793423652648926
      },
      "hairColor": {
        "r": 0.25882354378700256,
        "g": 0.25882354378700256,
        "b": 0.25882354378700256,
        "a": 1.0
      },
      "bodyColors": [
        {
          "r": 0.9058823585510254,
          "g": 0.7882353067398071,
          "b": 0.7333333492279053,
          "a": 1.0
        },
        {
          "r": 0.22745098173618317,
          "g": 0.2862745225429535,
          "b": 0.3137255012989044,
          "a": 1.0
        },
        {
          "r": 0.6196078658103943,
          "g": 0.5568627715110779,
          "b": 0.42352941632270813,
          "a": 1.0
        },
        {
          "r": 0.8313725590705872,
          "g": 0.8235294222831726,
          "b": 0.8078431487083435,
          "a": 1.0
        }
      ],
      "instanceId": 30010
    },
    {
      "crowdTypeID": 237,
      "spawnPosition": {
        "x": -1908.6639404296875,
        "y": 203.7299041748047,
        "z": 2697.885009765625
      },
      "spawnFaceFwd": {
        "x": 0.1292455941438675,
        "z": 0.9916126132011414
      },
      "hairColor": {
        "r": 0.8392156958580017,
        "g": 0.8392156958580017,
        "b": 0.8392156958580017,
        "a": 1.0
      },
      "bodyColors": [
        {
          "r": 0.9058823585510254,
          "g": 0.7882353067398071,
          "b": 0.7333333492279053,
          "a": 1.0
        },
        {
          "r": 0.22745098173618317,
          "g": 0.2862745225429535,
          "b": 0.3137255012989044,
          "a": 1.0
        },
        {
          "r": 0.6196078658103943,
          "g": 0.5568627715110779,
          "b": 0.42352941632270813,
          "a": 1.0
        },
        {
          "r": 0.8313725590705872,
          "g": 0.8235294222831726,
          "b": 0.8078431487083435,
          "a": 1.0
        }
      ],
      "instanceId": 30011
    },
    {
      "crowdTypeID": 245,
      "spawnPosition": {
        "x": -1907.4849853515625,
        "y": 203.7368927001953,
        "z": 2698.131103515625
      },
      "spawnFaceFwd": {
        "x": -0.21596942842006683,
        "z": 0.9764001369476318
      },
      "hairColor": {
        "r": 0.25882354378700256,
        "g": 0.25882354378700256,
        "b": 0.25882354378700256,
        "a": 1.0
      },
      "bodyColors": [
        {
          "r": 0.9333333373069763,
          "g": 0.8666666746139526,
          "b": 0.843137264251709,
          "a": 1.0
        },
        {
          "r": 0.6509804129600525,
          "g": 0.5921568870544434,
          "b": 0.34117648005485535,
          "a": 1.0
        },
        {
          "r": 0.364705890417099,
          "g": 0.38823530077934265,
          "b": 0.2666666805744171,
          "a": 1.0
        },
        {
          "r": 0.47058823704719543,
          "g": 0.32156863808631897,
          "b": 0.239215686917305,
          "a": 1.0
        }
      ],
      "instanceId": 30012
    },
    {
      "crowdTypeID": 242,
      "animConfigID": 3,
      "spawnPosition": {
        "x": -1999.85205078125,
        "y": 202.5124969482422,
        "z": 2618.43310546875
      },
      "spawnFaceFwd": {
        "x": 0.354597806930542,
        "z": -0.9350188970565796
      },
      "hairColor": {
        "r": 0.25882354378700256,
        "g": 0.25882354378700256,
        "b": 0.25882354378700256,
        "a": 1.0
      },
      "bodyColors": [
        {
          "r": 0.9333333373069763,
          "g": 0.8666666746139526,
          "b": 0.843137264251709,
          "a": 1.0
        },
        {
          "r": 0.7803921699523926,
          "g": 0.7215686440467834,
          "b": 0.6666666865348816,
          "a": 1.0
        },
        {
          "r": 0.3490196168422699,
          "g": 0.25882354378700256,
          "b": 0.20392157137393951,
          "a": 1.0
        },
        {
          "r": 0.572549045085907,
          "g": 0.4000000059604645,
          "b": 0.25882354378700256,
          "a": 1.0
        }
      ],
      "instanceId": 30013
    },
    {
      "crowdTypeID": 256,
      "animConfigID": 2,
      "spawnPosition": {
        "x": -1949.1199951171875,
        "y": 203.63999938964844,
        "z": 2642.093994140625
      },
      "spawnFaceFwd": {
        "x": -0.582538902759552,
        "z": 0.812802791595459
      },
      "hairColor": {
        "r": 0.25882354378700256,
        "g": 0.25882354378700256,
        "b": 0.25882354378700256,
        "a": 1.0
      },
      "bodyColors": [
        {
          "r": 0.9058823585510254,
          "g": 0.7882353067398071,
          "b": 0.7333333492279053,
          "a": 1.0
        },
        {
          "r": 0.22745098173618317,
          "g": 0.2862745225429535,
          "b": 0.3137255012989044,
          "a": 1.0
        },
        {
          "r": 0.6196078658103943,
          "g": 0.5568627715110779,
          "b": 0.42352941632270813,
          "a": 1.0
        },
        {
          "r": 0.8313725590705872,
          "g": 0.8235294222831726,
          "b": 0.8078431487083435,
          "a": 1.0
        }
      ],
      "instanceId": 30014
    },
    {
      "crowdTypeID": 262,
      "spawnPosition": {
        "x": -1949.9210205078125,
        "y": 203.64059448242188,
        "z": 2643.212890625
      },
      "spawnFaceFwd": {
        "x": 0.6419594883918762,
        "z": -0.7667385339736938
      },
      "hairColor": {
        "r": 0.25882354378700256,
        "g": 0.25882354378700256,
        "b": 0.25882354378700256,
        "a": 1.0
      },
      "bodyColors": [
        {
          "r": 0.9058823585510254,
          "g": 0.7882353067398071,
          "b": 0.7333333492279053,
          "a": 1.0
        },
        {
          "r": 0.6509804129600525,
          "g": 0.5921568870544434,
          "b": 0.34117648005485535,
          "a": 1.0
        },
        {
          "r": 0.364705890417099,
          "g": 0.38823530077934265,
          "b": 0.2666666805744171,
          "a": 1.0
        },
        {
          "r": 0.47058823704719543,
          "g": 0.32156863808631897,
          "b": 0.239215686917305,
          "a": 1.0
        }
      ],
      "instanceId": 30015
    },
    {
      "crowdTypeID": 255,
      "spawnPosition": {
        "x": -1928.864013671875,
        "y": 216.102294921875,
        "z": 2615.06396484375
      },
      "spawnFaceFwd": {
        "x": -0.6526010632514954,
        "z": -0.7577016353607178
      },
      "hairColor": {
        "r": 0.32156863808631897,
        "g": 0.21568627655506134,
        "b": 0.18039216101169586,
        "a": 1.0
      },
      "bodyColors": [
        {
          "r": 0.9058823585510254,
          "g": 0.7882353067398071,
          "b": 0.7333333492279053,
          "a": 1.0
        },
        {
          "r": 0.22745098173618317,
          "g": 0.2862745225429535,
          "b": 0.3137255012989044,
          "a": 1.0
        },
        {
          "r": 0.6196078658103943,
          "g": 0.5568627715110779,
          "b": 0.42352941632270813,
          "a": 1.0
        },
        {
          "r": 0.8313725590705872,
          "g": 0.8235294222831726,
          "b": 0.8078431487083435,
          "a": 1.0
        }
      ],
      "instanceId": 30016
    },
    {
      "crowdTypeID": 252,
      "animConfigID": 2,
      "spawnPosition": {
        "x": -1929.7440185546875,
        "y": 216.102294921875,
        "z": 2614.10888671875
      },
      "spawnFaceFwd": {
        "x": 0.5844748616218567,
        "z": 0.8114118576049805
      },
      "hairColor": {
        "r": 0.3960784375667572,
        "g": 0.27843138575553894,
        "b": 0.1882352977991104,
        "a": 1.0
      },
      "bodyColors": [
        {
          "r": 0.9058823585510254,
          "g": 0.7882353067398071,
          "b": 0.7333333492279053,
          "a": 1.0
        },
        {
          "r": 0.38823530077934265,
          "g": 0.46666666865348816,
          "b": 0.5490196347236633,
          "a": 1.0
        },
        {
          "r": 0.8117647171020508,
          "g": 0.8078431487083435,
          "b": 0.7960784435272217,
          "a": 1.0
        },
        {
          "r": 0.7098039388656616,
          "g": 0.5686274766921997,
          "b": 0.32549020648002625,
          "a": 1.0
        }
      ],
      "instanceId": 30017
    },
    {
      "crowdTypeID": 233,
      "animConfigID": 2,
      "spawnPosition": {
        "x": -1999.3590087890625,
        "y": 202.46969604492188,
        "z": 2617.54296875
      },
      "spawnFaceFwd": {
        "x": -0.4843043386936188,
        "z": 0.8748996257781982
      },
      "hairColor": {
        "r": 0.25882354378700256,
        "g": 0.25882354378700256,
        "b": 0.25882354378700256,
        "a": 1.0
      },
      "bodyColors": [
        {
          "r": 0.9333333373069763,
          "g": 0.8666666746139526,
          "b": 0.843137264251709,
          "a": 1.0
        },
        {
          "r": 0.22745098173618317,
          "g": 0.2862745225429535,
          "b": 0.3137255012989044,
          "a": 1.0
        },
        {
          "r": 0.6196078658103943,
          "g": 0.5568627715110779,
          "b": 0.42352941632270813,
          "a": 1.0
        },
        {
          "r": 0.8313725590705872,
          "g": 0.8235294222831726,
          "b": 0.8078431487083435,
          "a": 1.0
        }
      ],
      "instanceId": 30020
    },
    {
      "crowdTypeID": 234,
      "animConfigID": 1,
      "spawnPosition": {
        "x": -1975.14501953125,
        "y": 200.839599609375,
        "z": 2669.5439453125
      },
      "spawnFaceFwd": {
        "x": 0.34385648369789124,
        "z": -0.9390223026275635
      },
      "hairColor": {
        "r": 0.25882354378700256,
        "g": 0.25882354378700256,
        "b": 0.25882354378700256,
        "a": 1.0
      },
      "bodyColors": [
        {
          "r": 0.9333333373069763,
          "g": 0.8666666746139526,
          "b": 0.843137264251709,
          "a": 1.0
        },
        {
          "r": 0.3686274588108063,
          "g": 0.4588235318660736,
          "b": 0.3294117748737335,
          "a": 1.0
        },
        {
          "r": 0.33725491166114807,
          "g": 0.3019607961177826,
          "b": 0.09019608050584793,
          "a": 1.0
        },
        {
          "r": 0.729411780834198,
          "g": 0.7372549176216125,
          "b": 0.5921568870544434,
          "a": 1.0
        }
      ],
      "instanceId": 30024
    },
    {
      "crowdTypeID": 233,
      "animConfigID": 1,
      "spawnPosition": {
        "x": -1974.8509521484375,
        "y": 200.89759826660156,
        "z": 2668.4970703125
      },
      "spawnFaceFwd": {
        "x": -0.3253222703933716,
        "z": 0.9456031918525696
      },
      "hairColor": {
        "r": 0.32156863808631897,
        "g": 0.21568627655506134,
        "b": 0.18039216101169586,
        "a": 1.0
      },
      "bodyColors": [
        {
          "r": 0.9333333373069763,
          "g": 0.8666666746139526,
          "b": 0.843137264251709,
          "a": 1.0
        },
        {
          "r": 0.38823530077934265,
          "g": 0.46666666865348816,
          "b": 0.5490196347236633,
          "a": 1.0
        },
        {
          "r": 0.8117647171020508,
          "g": 0.8078431487083435,
          "b": 0.7960784435272217,
          "a": 1.0
        },
        {
          "r": 0.7098039388656616,
          "g": 0.5686274766921997,
          "b": 0.32549020648002625,
          "a": 1.0
        }
      ],
      "instanceId": 30025
    },
    {
      "crowdTypeID": 253,
      "animConfigID": 1,
      "spawnPosition": {
        "x": -2006.23095703125,
        "y": 200.76210021972656,
        "z": 2668.736083984375
      },
      "spawnFaceFwd": {
        "x": -0.6452256441116333,
        "z": 0.7639920711517334
      },
      "hairColor": {
        "r": 0.4274509847164154,
        "g": 0.37254902720451355,
        "b": 0.3019607961177826,
        "a": 1.0
      },
      "bodyColors": [
        {
          "r": 0.9058823585510254,
          "g": 0.7882353067398071,
          "b": 0.7333333492279053,
          "a": 1.0
        },
        {
          "r": 0.38823530077934265,
          "g": 0.46666666865348816,
          "b": 0.5490196347236633,
          "a": 1.0
        },
        {
          "r": 0.8117647171020508,
          "g": 0.8078431487083435,
          "b": 0.7960784435272217,
          "a": 1.0
        },
        {
          "r": 0.7098039388656616,
          "g": 0.5686274766921997,
          "b": 0.32549020648002625,
          "a": 1.0
        }
      ],
      "instanceId": 30026
    },
    {
      "crowdTypeID": 252,
      "animConfigID": 2,
      "spawnPosition": {
        "x": -1849.302001953125,
        "y": 205.01939392089844,
        "z": 2671.260009765625
      },
      "spawnFaceFwd": {
        "x": -0.940756618976593,
        "z": -0.3390824794769287
      },
      "hairColor": {
        "r": 0.3960784375667572,
        "g": 0.27843138575553894,
        "b": 0.1882352977991104,
        "a": 1.0
      },
      "bodyColors": [
        {
          "r": 0.9058823585510254,
          "g": 0.7882353067398071,
          "b": 0.7333333492279053,
          "a": 1.0
        },
        {
          "r": 0.3686274588108063,
          "g": 0.4588235318660736,
          "b": 0.3294117748737335,
          "a": 1.0
        },
        {
          "r": 0.33725491166114807,
          "g": 0.3019607961177826,
          "b": 0.09019608050584793,
          "a": 1.0
        },
        {
          "r": 0.729411780834198,
          "g": 0.7372549176216125,
          "b": 0.5921568870544434,
          "a": 1.0
        }
      ],
      "instanceId": 30028
    },
    {
      "crowdTypeID": 241,
      "animConfigID": 4,
      "spawnPosition": {
        "x": -1850.5789794921875,
        "y": 205.02000427246094,
        "z": 2670.757080078125
      },
      "spawnFaceFwd": {
        "x": 0.9397385716438293,
        "z": 0.34189391136169434
      },
      "hairColor": {
        "r": 0.25882354378700256,
        "g": 0.25882354378700256,
        "b": 0.25882354378700256,
        "a": 1.0
      },
      "bodyColors": [
        {
          "r": 0.9058823585510254,
          "g": 0.7882353067398071,
          "b": 0.7333333492279053,
          "a": 1.0
        },
        {
          "r": 0.6509804129600525,
          "g": 0.5921568870544434,
          "b": 0.34117648005485535,
          "a": 1.0
        },
        {
          "r": 0.364705890417099,
          "g": 0.38823530077934265,
          "b": 0.2666666805744171,
          "a": 1.0
        },
        {
          "r": 0.47058823704719543,
          "g": 0.32156863808631897,
          "b": 0.239215686917305,
          "a": 1.0
        }
      ],
      "instanceId": 30029
    },
    {
      "crowdTypeID": 233,
      "animConfigID": 1,
      "spawnPosition": {
        "x": -1926.6199951171875,
        "y": 202.5093994140625,
        "z": 2668.466064453125
      },
      "spawnFaceFwd": {
        "x": 0.18492376804351807,
        "z": -0.9827529191970825
      },
      "hairColor": {
        "r": 0.32156863808631897,
        "g": 0.21568627655506134,
        "b": 0.18039216101169586,
        "a": 1.0
      },
      "bodyColors": [
        {
          "r": 0.9333333373069763,
          "g": 0.8666666746139526,
          "b": 0.843137264251709,
          "a": 1.0
        },
        {
          "r": 0.3686274588108063,
          "g": 0.4588235318660736,
          "b": 0.3294117748737335,
          "a": 1.0
        },
        {
          "r": 0.33725491166114807,
          "g": 0.3019607961177826,
          "b": 0.09019608050584793,
          "a": 1.0
        },
        {
          "r": 0.729411780834198,
          "g": 0.7372549176216125,
          "b": 0.5921568870544434,
          "a": 1.0
        }
      ],
      "instanceId": 30030
    },
    {
      "crowdTypeID": 237,
      "spawnPosition": {
        "x": -1928.7550048828125,
        "y": 202.52810668945312,
        "z": 2665.123046875
      },
      "spawnFaceFwd": {
        "x": 0.8753835558891296,
        "z": 0.48342907428741455
      },
      "hairColor": {
        "r": 0.8392156958580017,
        "g": 0.8392156958580017,
        "b": 0.8392156958580017,
        "a": 1.0
      },
      "bodyColors": [
        {
          "r": 0.9058823585510254,
          "g": 0.7882353067398071,
          "b": 0.7333333492279053,
          "a": 1.0
        },
        {
          "r": 0.7803921699523926,
          "g": 0.7215686440467834,
          "b": 0.6666666865348816,
          "a": 1.0
        },
        {
          "r": 0.3490196168422699,
          "g": 0.25882354378700256,
          "b": 0.20392157137393951,
          "a": 1.0
        },
        {
          "r": 0.572549045085907,
          "g": 0.4000000059604645,
          "b": 0.25882354378700256,
          "a": 1.0
        }
      ],
      "instanceId": 30031
    },
    {
      "crowdTypeID": 244,
      "spawnPosition": {
        "x": -1927.8909912109375,
        "y": 202.5290985107422,
        "z": 2664.64990234375
      },
      "spawnFaceFwd": {
        "x": 0.6791338920593262,
        "z": 0.7340143918991089
      },
      "hairColor": {
        "r": 0.29019609093666077,
        "g": 0.3176470696926117,
        "b": 0.3529411852359772,
        "a": 1.0
      },
      "bodyColors": [
        {
          "r": 0.9333333373069763,
          "g": 0.8666666746139526,
          "b": 0.843137264251709,
          "a": 1.0
        },
        {
          "r": 0.22745098173618317,
          "g": 0.2862745225429535,
          "b": 0.3137255012989044,
          "a": 1.0
        },
        {
          "r": 0.6196078658103943,
          "g": 0.5568627715110779,
          "b": 0.42352941632270813,
          "a": 1.0
        },
        {
          "r": 0.8313725590705872,
          "g": 0.8235294222831726,
          "b": 0.8078431487083435,
          "a": 1.0
        }
      ],
      "instanceId": 30032
    }
  ]
}