{
  "crowdSpawnInfos": [
    {
      "crowdTypeID": 125,
      "spawnPosition": {
        "x": -632.3331298828125,
        "y": 209.8105010986328,
        "z": -152.7532958984375
      },
      "spawnFaceFwd": {
        "x": 0.9922990798950195,
        "z": -0.12386465072631836
      },
      "hairColor": {
        "r": 0.25882354378700256,
        "g": 0.25882354378700256,
        "b": 0.25882354378700256,
        "a": 1.0
      },
      "bodyColors": [
        {
          "r": 0.9333333373069763,
          "g": 0.8666666746139526,
          "b": 0.843137264251709,
          "a": 1.0
        },
        {
          "r": 0.42352941632270813,
          "g": 0.4627451002597809,
          "b": 0.5647059082984924,
          "a": 1.0
        },
        {
          "r": 0.6745098233222961,
          "g": 0.6666666865348816,
          "b": 0.6549019813537598,
          "a": 1.0
        },
        {
          "r": 0.2980392277240753,
          "g": 0.27843138575553894,
          "b": 0.3176470696926117,
          "a": 1.0
        }
      ],
      "instanceId": 50001
    },
    {
      "crowdTypeID": 80,
      "animConfigID": 7,
      "spawnPosition": {
        "x": -611.2302856445312,
        "y": 212.05999755859375,
        "z": -135.07220458984375
      },
      "spawnFaceFwd": {
        "x": 0.8773723840713501,
        "z": 0.47981011867523193
      },
      "hairColor": {
        "r": 0.32156863808631897,
        "g": 0.21568627655506134,
        "b": 0.18039216101169586,
        "a": 1.0
      },
      "bodyColors": [
        {
          "r": 0.9333333373069763,
          "g": 0.8666666746139526,
          "b": 0.843137264251709,
          "a": 1.0
        },
        {
          "r": 0.4117647111415863,
          "g": 0.35686275362968445,
          "b": 0.3960784375667572,
          "a": 1.0
        },
        {
          "r": 0.5647059082984924,
          "g": 0.5490196347236633,
          "b": 0.5607843399047852,
          "a": 1.0
        },
        {
          "r": 0.2666666805744171,
          "g": 0.2078431397676468,
          "b": 0.23529411852359772,
          "a": 1.0
        }
      ],
      "instanceId": 50002
    }
  ]
}