{
  "normal": {
    "KPGKDHAFHFE": "VIDEO",
    "videoConfig": {
      "heroDiff": true,
      "videoName": "Cs_WDLQ004_VentiLegends.usm",
      "videoNameOther": "Cs_WDLQ004_VentiLegends.usm",
      "subtitleId": 300014,
      "subtitleIdOther": 300014,
      "canSkip": true,
      "bgColor": {
        "a": 1.0
      },
      "fadeInDuration": 1.5,
      "fadeOutDuration": 1.5
    }
  }
}