{
  "normal": {
    "cutsceneConfig": {
      "KPGKDHAFHFE": "TIME_LINE_PREFAB",
      "luaDataPath": "",
      "resPath": "ART/Cutscene/Cs_KLLQ001_KeLiDebut_Main_Convert",
      "castListPath": "Cs_CastList_Q10200",
      "entityBan": "",
      "clearAvatarLocalGadget": true,
      "fadeInDuration": 0.5,
      "fadeOutDuration": 0.5
    }
  }
}