{
  "normal": {
    "KPGKDHAFHFE": "VIDEO",
    "videoConfig": {
      "heroDiff": true,
      "videoName": "Cs_LQ1101502_ShenheBattle_Boy.usm",
      "videoNameOther": "Cs_LQ1101502_ShenheBattle_Girl.usm",
      "subtitleId": 300061,
      "subtitleIdOther": 300062,
      "canSkip": true,
      "bgColor": {
        "a": 1.0
      },
      "fadeInDuration": 0.5,
      "fadeOutDuration": 0.5
    }
  }
}