{
  "normal": {
    "KPGKDHAFHFE": "VIDEO",
    "videoConfig": {
      "videoName": "Cs_GY11030_GYPersonal.usm",
      "videoNameOther": "Cs_GY11030_GYPersonal.usm",
      "subtitleId": 300024,
      "canSkip": true,
      "bgColor": {
        "a": 1.0
      },
      "fadeInDuration": 0.5,
      "fadeOutDuration": 0.5
    }
  }
}