{
  "normal": {
    "KPGKDHAFHFE": "VIDEO",
    "videoConfig": {
      "videoName": "Cs_XLQ1110104_XiaoPersonal.usm",
      "videoNameOther": "",
      "subtitleId": 300025,
      "canSkip": true,
      "bgColor": {
        "a": 1.0
      }
    }
  }
}