{
  "normal": {
    "cutsceneConfig": {
      "KPGKDHAFHFE": "TIME_LINE_PREFAB",
      "luaDataPath": "",
      "resPath": "ART/Cutscene/Cs_DQLQ1201308_YoimiyaFirework_Convert",
      "castListPath": "Cs_CastList_Q1201308",
      "entityBan": "",
      "keepCamera": true,
      "clearAvatarLocalGadget": true,
      "syncLoad": true,
      "fadeInDuration": 0.5,
      "fadeOutDuration": 0.5
    }
  }
}