{
  "normal": {
    "KPGKDHAFHFE": "VIDEO",
    "videoConfig": {
      "heroDiff": true,
      "videoName": "Cs_Sumeru_LD130380801_TOS.usm",
      "videoNameOther": "Cs_Sumeru_LD130380801_TOS.usm",
      "subtitleId": 300171,
      "subtitleIdOther": 300171,
      "CAMLDEPJGNN": true,
      "bgColor": {
        "a": 1.0
      },
      "fadeInDuration": 1.5,
      "fadeOutDuration": 1.5
    }
  }
}