{
  "normal": {
    "KPGKDHAFHFE": "VIDEO",
    "videoConfig": {
      "heroDiff": true,
      "videoName": "Cs_200919_SHG_Boy.usm",
      "videoNameOther": "Cs_200919_SHG_Girl.usm",
      "subtitleId": 300038,
      "subtitleIdOther": 300039,
      "canSkip": true,
      "bgColor": {
        "a": 1.0
      },
      "fadeInDuration": 0.5,
      "fadeOutDuration": 0.5
    }
  }
}