{
  "normal": {
    "KPGKDHAFHFE": "VIDEO",
    "videoConfig": {
      "heroDiff": true,
      "videoName": "Cs_Sumeru_AQ30161501_DT_Boy.usm",
      "videoNameOther": "Cs_Sumeru_AQ30161501_DT_Girl.usm",
      "subtitleId": 300093,
      "subtitleIdOther": 300094,
      "canSkip": true,
      "bgColor": {
        "a": 1.0
      },
      "fadeInDuration": 0.5,
      "fadeOutDuration": 0.5,
      "eventList": [
        {
          "$type": "FIHLJKFBKMK",
          "eventType": "SHOW_OR_HIDE_NAME_CARD_DIALOG",
          "prefabPath": "ART/UI/Menus/Dialog/InVideo/UI_FatuiHarbingers_Boshi_Name",
          "enableShow": true
        },
        {
          "$type": "FIHLJKFBKMK",
          "eventType": "SHOW_OR_HIDE_NAME_CARD_DIALOG",
          "prefabPath": "ART/UI/Menus/Dialog/InVideo/UI_FatuiHarbingers_Boshi_Name"
        }
      ]
    }
  }
}