{
  "normal": {
    "KPGKDHAFHFE": "VIDEO",
    "videoConfig": {
      "heroDiff": true,
      "videoName": "Cs_Sumeru_AQ_30281101_NBS_Boy.usm",
      "videoNameOther": "Cs_Sumeru_AQ_30281101_NBS_Girl.usm",
      "subtitleId": 300113,
      "subtitleIdOther": 300114,
      "canSkipIfPlayed": true,
      "bgColor": {
        "a": 1.0
      },
      "fadeInDuration": 1.0,
      "fadeOutDuration": 1.0
    }
  }
}