{
  "normal": {
    "cutsceneConfig": {
      "KPGKDHAFHFE": "TIME_LINE_PREFAB",
      "luaDataPath": "",
      "resPath": "ART/Cutscene/Cs_MDAQ001_OPNew_C38Beach_Convert",
      "castListPath": "Cs_CastList_Q351",
      "entityBan": "",
      "keepCamera": true,
      "modifyLastPoseOffset": true,
      "syncLoad": true,
      "fadeInDuration": 0.0
    }
  }
}