{
  "normal": {
    "KPGKDHAFHFE": "VIDEO",
    "videoConfig": {
      "heroDiff": true,
      "videoName": "Cs_MDAQ019_DragonInCity_Boy.usm",
      "videoNameOther": "Cs_MDAQ019_DragonInCity_Girl.usm",
      "subtitleId": 300006,
      "subtitleIdOther": 300006,
      "canSkip": true,
      "bgColor": {
        "a": 1.0
      },
      "fadeInDuration": 1.5,
      "fadeOutDuration": 1.0
    }
  }
}