{
  "normal": {
    "cutsceneConfig": {
      "KPGKDHAFHFE": "TIME_LINE_PREFAB",
      "luaDataPath": "",
      "resPath": "ART/Cutscene/Cs_MDAQ022_KaeyaArrived_Part1_Convert",
      "castListPath": "Cs_CastList_Q358",
      "entityBan": "",
      "keepCamera": true,
      "clearAvatarLocalGadget": true,
      "fadeInDuration": 1.0,
      "fadeOutDuration": 1.0
    }
  }
}