{
  "normal": {
    "cutsceneConfig": {
      "KPGKDHAFHFE": "TIME_LINE_PREFAB",
      "luaDataPath": "",
      "resPath": "ART/Cutscene/Cs_MDAQ040_VentiShow_Convert",
      "castListPath": "Cs_CastList_Q372",
      "entityBan": "37201_Dialog",
      "keepCamera": true,
      "clearAvatarLocalGadget": true,
      "fadeInDuration": 0.0
    }
  }
}