{
  "normal": {
    "cutsceneConfig": {
      "KPGKDHAFHFE": "TIME_LINE_PREFAB",
      "luaDataPath": "",
      "resPath": "ART/Cutscene/Cs_MDAQ063_ZhaiXingYa_Convert",
      "castListPath": "Cs_CastList_Q384",
      "entityBan": "",
      "clearAvatarLocalGadget": true,
      "fadeOutDuration": 0.5
    }
  }
}