{
  "normal": {
    "KPGKDHAFHFE": "VIDEO",
    "videoConfig": {
      "heroDiff": true,
      "videoName": "Cs_EQHDJ005_HaiDengJie_Boy.usm",
      "videoNameOther": "Cs_EQHDJ005_HaiDengJie_Girl.usm",
      "subtitleId": 300026,
      "subtitleIdOther": 300027,
      "canSkip": true,
      "bgColor": {
        "a": 1.0
      },
      "fadeInDuration": 0.5,
      "fadeOutDuration": 0.5
    }
  }
}