{
  "normal": {
    "KPGKDHAFHFE": "VIDEO",
    "videoConfig": {
      "heroDiff": true,
      "videoName": "Cs_MD_EQ400650301_IslandFlash_Boy.usm",
      "videoNameOther": "Cs_MD_EQ400650301_IslandFlash_Girl.usm",
      "subtitleId": 300089,
      "subtitleIdOther": 300090,
      "canSkip": true,
      "bgColor": {
        "a": 1.0
      },
      "fadeInDuration": 1.5,
      "fadeOutDuration": 1.5,
      "videoScreenAdaptation": 1
    }
  }
}