{
  "normal": {
    "cutsceneConfig": {
      "KPGKDHAFHFE": "TIME_LINE_PREFAB",
      "luaDataPath": "",
      "resPath": "ART/Cutscene/Cs_Sumeru_EQ4010313_KDC_Convert",
      "castListPath": "Cs_CastList_Q4010313",
      "entityBan": "",
      "clearAvatarLocalGadget": true,
      "clearMonsterLocalGadget": true,
      "syncLoad": true,
      "fadeInDuration": 0.0,
      "fadeOutDuration": 2.5
    }
  }
}