{
  "normal": {
    "cutsceneConfig": {
      "KPGKDHAFHFE": "TIME_LINE_PREFAB",
      "luaDataPath": "",
      "resPath": "ART/Cutscene/Cs_Penumbra_CircusLightup02_Convert",
      "castListPath": "",
      "entityBan": "",
      "clearAvatarLocalGadget": true,
      "syncLoad": true,
      "fadeInDuration": 1.0,
      "fadeOutDuration": 1.5
    }
  }
}