{
  "normal": {
    "KPGKDHAFHFE": "VIDEO",
    "videoConfig": {
      "heroDiff": true,
      "videoName": "Cs_Mengde_EQ401260901_AA.usm",
      "videoNameOther": "Cs_Mengde_EQ401260901_AA.usm",
      "subtitleId": 300149,
      "subtitleIdOther": 300149,
      "bgColor": {
        "a": 1.0
      },
      "fadeInDuration": 1.5,
      "fadeOutDuration": 1.5,
      "videoScreenAdaptation": 1
    }
  }
}