{
  "normal": {
    "KPGKDHAFHFE": "VIDEO",
    "videoConfig": {
      "heroDiff": true,
      "videoName": "Cs_Activity_4141307_Fenghuajie_Boy.usm",
      "videoNameOther": "Cs_Activity_4141307_Fenghuajie_Girl.usm",
      "subtitleId": 300028,
      "subtitleIdOther": 300029,
      "canSkip": true,
      "bgColor": {
        "a": 1.0
      },
      "fadeInDuration": 1.5,
      "fadeOutDuration": 1.0
    }
  }
}