{
  "normal": {
    "KPGKDHAFHFE": "VIDEO",
    "videoConfig": {
      "heroDiff": true,
      "videoName": "Cs_Fontaine_LQ1403002_SSF.usm",
      "videoNameOther": "Cs_Fontaine_LQ1403002_SSF.usm",
      "subtitleId": 300182,
      "subtitleIdOther": 300182,
      "canSkip": true,
      "bgColor": {
        "a": 1.0
      },
      "fadeInDuration": 1.5,
      "fadeOutDuration": 1.5,
      "videoScreenAdaptation": 1
    }
  }
}