{
  "normal": {
    "cutsceneConfig": {
      "KPGKDHAFHFE": "TIME_LINE_PREFAB",
      "canSkip": false,
      "luaDataPath": "",
      "resPath": "ART/Cutscene/Cs_WQ71043_WaterRuins_01",
      "castListPath": "",
      "entityBan": "",
      "syncLoad": true
    }
  }
}