{
  "normal": {
    "cutsceneConfig": {
      "KPGKDHAFHFE": "TIME_LINE_PREFAB",
      "canSkip": false,
      "luaDataPath": "",
      "resPath": "ART/Cutscene/Cs_WQ_Collect02_Convert",
      "castListPath": "",
      "entityBan": "",
      "syncLoad": true,
      "fadeInDuration": 0.0
    }
  }
}