{
  "normal": {
    "cutsceneConfig": {
      "KPGKDHAFHFE": "TIME_LINE_PREFAB",
      "luaDataPath": "",
      "resPath": "ART/Cutscene/Cs_3303WQ_BloomFlower_Convert",
      "castListPath": "Cs_CastList_Q72105_1",
      "entityBan": "",
      "syncLoad": true,
      "fadeInDuration": 0.0,
      "fadeOutDuration": 0.5
    }
  }
}