{
  "normal": {
    "cutsceneConfig": {
      "KPGKDHAFHFE": "TIME_LINE_PREFAB",
      "luaDataPath": "",
      "resPath": "ART/Cutscene/Cs_WQ_CWUpgradeLast_Convert",
      "castListPath": "",
      "entityBan": "",
      "syncLoad": true,
      "fadeInDuration": 0.5,
      "fadeOutDuration": 0.5
    }
  }
}