{
  "luaDataPath": "",
  "entityBan": "",
  "group": [
    [
      {
        "$type": "EDCHPJLDKIN",
        "type": "BODY_LANG",
        "bodyLangParam": 1240,
        "eventPatternSuiteKey": ""
      }
    ]
  ]
}