{
  "luaDataPath": "",
  "entityBan": "",
  "group": [
    [
      {
        "$type": "EDCHPJLDKIN",
        "type": "BODY_LANG",
        "bodyLangParam": 4040,
        "forceDoFreeStyle": true,
        "canDoRepeatFreeStyle": false,
        "eventPatternSuiteKey": ""
      }
    ]
  ]
}