{
  "logicStateMap": {
    "PlayLyre": {
      "dynamicAnimeMap": {
        "Ani_Avatar_PlayLyre01AS_0": 16329156118885668671,
        "Ani_Avatar_Catalyst_PlayLyre01AS_Sync_0": 115549036840249936,
        "Ani_Avatar_PlayLyre01BS_0": 14193543555509224027,
        "Ani_Avatar_Catalyst_PlayLyre01BS_Sync_0": 7717535093042841294,
        "Ani_Avatar_PlayLyre01Loop_0": 3389098374888724267,
        "Ani_Avatar_Catalyst_PlayLyre01Loop_Sync_0": 7822585252041239852
      }
    },
    "PlayQin": {
      "dynamicAnimeMap": {
        "Ani_Avatar_PlayQin01BS_0": 18195785286783970638,
        "Ani_Avatar_Catalyst_PlayQin01BS_Sync_0": 7094836515562553254,
        "Ani_Avatar_PlayQin01AS_0": 5338538228329868378,
        "Ani_Avatar_Catalyst_PlayQin01AS_Sync_0": 13537247649529954555,
        "Ani_Avatar_PlayQin01Loop_0": 9139280259480315509,
        "Ani_Avatar_Catalyst_PlayQin01Loop_Sync_0": 11375294411380821245
      }
    },
    "PlayDrum": {
      "dynamicAnimeMap": {
        "Ani_Avatar_PlayDrum01BS_0": 15596146440459066878,
        "Ani_Avatar_Catalyst_PlayDrum01BS_Sync_0": 18256472648293981063,
        "Ani_Avatar_PlayDrum01AS_0": 12205390069334963504,
        "Ani_Avatar_Catalyst_PlayDrum01AS_Sync_0": 2074229225313784003,
        "Ani_Avatar_PlayDrum01Loop_0": 12073272014418956717,
        "Ani_Avatar_Catalyst_PlayDrum01Loop_Sync_0": 2560923877042392681
      }
    },
    "PlayFrenchHorn": {
      "dynamicAnimeMap": {
        "Ani_Avatar_PlayFrenchHorn01AS_0": 1437301681656379215,
        "Ani_Avatar_Catalyst_PlayFrenchHorn01AS_Sync_0": 11248153916719396170,
        "Ani_Avatar_PlayFrenchHorn01Loop_0": 16969590612798363786,
        "Ani_Avatar_Catalyst_PlayFrenchHorn01Loop_Sync_0": 10561285565305660894,
        "Ani_Avatar_PlayFrenchHorn01BS_0": 303961394688975926,
        "Ani_Avatar_Catalyst_PlayFrenchHorn01BS_Sync_0": 5669986579792959893
      }
    }
  }
}