{
  "logicStateMap": {
    "PlayLyre": {
      "dynamicAnimeMap": {
        "Ani_Avatar_PlayLyre01AS_0": 12858806036068704473,
        "Ani_Avatar_Catalyst_PlayLyre01AS_Sync_0": 7742989160828385115,
        "Ani_Avatar_PlayLyre01BS_0": 12278646878718222060,
        "Ani_Avatar_Catalyst_PlayLyre01BS_Sync_0": 13851325647243209199,
        "Ani_Avatar_PlayLyre01Loop_0": 14570093054487124804,
        "Ani_Avatar_Catalyst_PlayLyre01Loop_Sync_0": 3416608698707090756
      }
    },
    "PlayQin": {
      "dynamicAnimeMap": {
        "Ani_Avatar_PlayQin01BS_0": 9670922236847001422,
        "Ani_Avatar_Catalyst_PlayQin01BS_Sync_0": 5198045953967631056,
        "Ani_Avatar_PlayQin01AS_0": 5450978189757752452,
        "Ani_Avatar_Catalyst_PlayQin01AS_Sync_0": 3338755896423177673,
        "Ani_Avatar_PlayQin01Loop_0": 2537162310590958751,
        "Ani_Avatar_Catalyst_PlayQin01Loop_Sync_0": 14122154603925663544
      }
    },
    "PlayDrum": {
      "dynamicAnimeMap": {
        "Ani_Avatar_PlayDrum01BS_0": 11233467572120736533,
        "Ani_Avatar_Catalyst_PlayDrum01BS_Sync_0": 2030543185845689427,
        "Ani_Avatar_PlayDrum01AS_0": 17453241457827721990,
        "Ani_Avatar_Catalyst_PlayDrum01AS_Sync_0": 7726658733497819235,
        "Ani_Avatar_PlayDrum01Loop_0": 2464240189948475806,
        "Ani_Avatar_Catalyst_PlayDrum01Loop_Sync_0": 16194250652850704705
      }
    },
    "PlayFrenchHorn": {
      "dynamicAnimeMap": {
        "Ani_Avatar_PlayFrenchHorn01BS_0": 81115265823320729,
        "Ani_Avatar_Catalyst_PlayFrenchHorn01BS_Sync_0": 17792863660953441918,
        "Ani_Avatar_PlayFrenchHorn01Loop_0": 4405042673129996775,
        "Ani_Avatar_Catalyst_PlayFrenchHorn01Loop_Sync_0": 3674063366187869753,
        "Ani_Avatar_PlayFrenchHorn01AS_0": 8970404147037238681,
        "Ani_Avatar_Catalyst_PlayFrenchHorn01AS_Sync_0": 8440397858466039408
      }
    }
  }
}