{
  "luaDataPath": "",
  "startBlackKeepTime": 0.5,
  "entityBan": "",
  "disableNpcLod": true,
  "startFade": {
    "startFadeInDuration": 0.5,
    "startFadeOutDuration": 0.5
  },
  "endFade": {
    "startFadeOutDuration": 0.0
  },
  "actors": [
    {
      "alias": "Avatar",
      "visible": true,
      "bornPointName": "Q12022_wait",
      "relativePosNpcAlias": "",
      "_bindMovingTargetKey": ""
    },
    {
      "configID": 3142,
      "alias": "3142",
      "visible": true,
      "bornPointName": "Q12022_weibing",
      "removeActorType": "REMOVE",
      "relativePosNpcAlias": "",
      "_bindMovingTargetKey": ""
    },
    {
      "configID": 1005,
      "alias": "1005",
      "visible": true,
      "bornPointName": "T1202201_paimon",
      "relativePosNpcAlias": "",
      "_bindMovingTargetKey": ""
    }
  ],
  "group": [
    [
      {
        "$type": "MoleMole.Config.ConfigSimpleBlackScreenAction",
        "type": "SIMPLE_BLACK_SCREEN",
        "duration": 1.0,
        "durationToBlack": 0.5,
        "durationKeepBlack": 0.5,
        "durationFromBlack": 0.5,
        "textMapID": ""
      },
      {
        "$type": "MoleMole.Config.ConfigTimeProtectAction",
        "type": "TIME_PROTECT",
        "duration": 1.0
      }
    ],
    [
      {
        "$type": "MJFAIFFAGOF",
        "type": "DIALOG",
        "aliasList": [
          "3142"
        ],
        "dialogID": 120220701,
        "protectTime": 0.5
      }
    ],
    [
      {
        "$type": "MJFAIFFAGOF",
        "type": "DIALOG",
        "aliasList": [
          "3142"
        ],
        "dialogID": 120220702,
        "protectTime": 0.5
      }
    ],
    [
      {
        "$type": "MJFAIFFAGOF",
        "type": "DIALOG",
        "aliasList": [
          "1005"
        ],
        "dialogID": 120220703,
        "protectTime": 0.5
      }
    ],
    [
      {
        "$type": "MJFAIFFAGOF",
        "type": "DIALOG",
        "aliasList": [
          "3142"
        ],
        "dialogID": 120220704,
        "protectTime": 0.5
      }
    ],
    [
      {
        "$type": "MJFAIFFAGOF",
        "type": "DIALOG",
        "aliasList": [
          "3142"
        ],
        "dialogID": 120220705,
        "protectTime": 0.5
      }
    ],
    [
      {
        "$type": "MJFAIFFAGOF",
        "type": "DIALOG",
        "aliasList": [
          "3142"
        ],
        "dialogID": 120220706,
        "protectTime": 0.5
      }
    ],
    [
      {
        "$type": "MJFAIFFAGOF",
        "type": "DIALOG",
        "aliasList": [
          "3142"
        ],
        "dialogID": 120220707,
        "protectTime": 0.5
      }
    ],
    [
      {
        "$type": "MJFAIFFAGOF",
        "type": "DIALOG",
        "aliasList": [
          "1005"
        ],
        "dialogID": 120220708,
        "protectTime": 0.5
      }
    ],
    [
      {
        "$type": "MoleMole.Config.ConfigTimeProtectAction",
        "type": "TIME_PROTECT",
        "duration": 0.10000000149011612
      }
    ]
  ],
  "groupId": [
    {
      "grpId": 995676912,
      "nextGrpId": 995676913
    },
    {
      "index": 1,
      "grpId": 995676913,
      "nextGrpId": 995676914
    },
    {
      "index": 2,
      "grpId": 995676914,
      "nextGrpId": 995676915
    },
    {
      "index": 3,
      "grpId": 995676915,
      "nextGrpId": 995676916
    },
    {
      "index": 4,
      "grpId": 995676916,
      "nextGrpId": 995676917
    },
    {
      "index": 5,
      "grpId": 995676917,
      "nextGrpId": 995676918
    },
    {
      "index": 6,
      "grpId": 995676918,
      "nextGrpId": 995676919
    },
    {
      "index": 7,
      "grpId": 995676919,
      "nextGrpId": 995676920
    },
    {
      "index": 8,
      "grpId": 995676920,
      "nextGrpId": 801213248
    },
    {
      "index": 9,
      "grpId": 801213248,
      "nextGrpId": 801213249
    }
  ],
  "freeStyleDic": {
    "3142": []
  }
}