{
  "talkId": 6938203,
  "KPGKDHAFHFE": "FREE",
  "dialogList": [
    {
      "id": 693820301,
      "nextDialogs": [
        693820302
      ],
      "talkRole": {
        "type": "TALK_ROLE_NPC",
        "_id": "9382"
      },
      "talkContentTextMapHash": 1768155586,
      "talkAssetPath": "",
      "talkAssetPathAlter": "",
      "talkAudioName": "",
      "actionBefore": "",
      "actionWhile": "",
      "actionAfter": "",
      "optionIcon": "",
      "iconPath": ""
    },
    {
      "id": 693820302,
      "nextDialogs": [
        693820303
      ],
      "talkRole": {
        "type": "TALK_ROLE_NPC",
        "_id": "9382"
      },
      "talkContentTextMapHash": 2517420258,
      "talkAssetPath": "",
      "talkAssetPathAlter": "",
      "talkAudioName": "",
      "actionBefore": "",
      "actionWhile": "",
      "actionAfter": "",
      "optionIcon": "",
      "iconPath": ""
    },
    {
      "id": 693820303,
      "talkRole": {
        "type": "TALK_ROLE_NPC",
        "_id": "9382"
      },
      "talkContentTextMapHash": 3697684442,
      "talkAssetPath": "",
      "talkAssetPathAlter": "",
      "talkAudioName": "",
      "actionBefore": "",
      "actionWhile": "",
      "actionAfter": "",
      "optionIcon": "",
      "iconPath": ""
    }
  ]
}