{
  "talkId": 10150704,
  "KPGKDHAFHFE": "FREE",
  "dialogList": [
    {
      "id": 1015070401,
      "nextDialogs": [
        1015070402
      ],
      "talkRole": {
        "type": "TALK_ROLE_NPC",
        "_id": "10255"
      },
      "talkContentTextMapHash": 3878319689,
      "talkAssetPath": "",
      "talkAssetPathAlter": "",
      "talkAudioName": "",
      "actionBefore": "",
      "actionWhile": "",
      "actionAfter": "",
      "optionIcon": "",
      "iconPath": ""
    },
    {
      "id": 1015070402,
      "nextDialogs": [
        1015070403
      ],
      "talkRole": {
        "type": "TALK_ROLE_NPC",
        "_id": "10255"
      },
      "talkContentTextMapHash": 1729680977,
      "talkAssetPath": "",
      "talkAssetPathAlter": "",
      "talkAudioName": "",
      "actionBefore": "",
      "actionWhile": "",
      "actionAfter": "",
      "optionIcon": "",
      "iconPath": ""
    },
    {
      "id": 1015070403,
      "talkRole": {
        "type": "TALK_ROLE_NPC",
        "_id": "10255"
      },
      "talkContentTextMapHash": 3823468017,
      "talkAssetPath": "",
      "talkAssetPathAlter": "",
      "talkAudioName": "",
      "actionBefore": "",
      "actionWhile": "",
      "actionAfter": "",
      "optionIcon": "",
      "iconPath": ""
    }
  ]
}