{
  "talkId": 102132,
  "KPGKDHAFHFE": "FREE",
  "dialogList": [
    {
      "id": 10213101,
      "nextDialogs": [
        10213102
      ],
      "talkRole": {
        "type": "TALK_ROLE_NPC",
        "_id": "10211"
      },
      "talkContentTextMapHash": 1900172865,
      "talkAssetPath": "",
      "talkAssetPathAlter": "",
      "talkAudioName": "",
      "actionBefore": "",
      "actionWhile": "",
      "actionAfter": "",
      "optionIcon": "",
      "iconPath": ""
    },
    {
      "id": 10213102,
      "nextDialogs": [
        10213103
      ],
      "talkRole": {
        "type": "TALK_ROLE_NPC",
        "_id": "10211"
      },
      "talkContentTextMapHash": 3009752505,
      "talkAssetPath": "",
      "talkAssetPathAlter": "",
      "talkAudioName": "",
      "actionBefore": "",
      "actionWhile": "",
      "actionAfter": "",
      "optionIcon": "",
      "iconPath": ""
    },
    {
      "id": 10213103,
      "nextDialogs": [
        10213104,
        10213106
      ],
      "talkRole": {
        "type": "TALK_ROLE_NPC",
        "_id": "10211"
      },
      "talkContentTextMapHash": 1410485273,
      "talkAssetPath": "",
      "talkAssetPathAlter": "",
      "talkAudioName": "",
      "actionBefore": "",
      "actionWhile": "",
      "actionAfter": "",
      "optionIcon": "",
      "iconPath": ""
    },
    {
      "id": 10213104,
      "nextDialogs": [
        10213105
      ],
      "talkRole": {
        "type": "TALK_ROLE_PLAYER",
        "_id": ""
      },
      "talkContentTextMapHash": 3812924785,
      "talkAssetPath": "",
      "talkAssetPathAlter": "",
      "talkAudioName": "",
      "actionBefore": "",
      "actionWhile": "",
      "actionAfter": "",
      "optionIcon": "",
      "iconPath": ""
    },
    {
      "id": 10213105,
      "talkRole": {
        "type": "TALK_ROLE_NPC",
        "_id": "10211"
      },
      "talkContentTextMapHash": 3947949417,
      "talkAssetPath": "",
      "talkAssetPathAlter": "",
      "talkAudioName": "",
      "actionBefore": "",
      "actionWhile": "",
      "actionAfter": "",
      "optionIcon": "",
      "iconPath": ""
    },
    {
      "id": 10213106,
      "nextDialogs": [
        10213107
      ],
      "talkRole": {
        "type": "TALK_ROLE_PLAYER",
        "_id": ""
      },
      "talkContentTextMapHash": 2305437737,
      "talkAssetPath": "",
      "talkAssetPathAlter": "",
      "talkAudioName": "",
      "actionBefore": "",
      "actionWhile": "",
      "actionAfter": "",
      "optionIcon": "",
      "iconPath": ""
    },
    {
      "id": 10213107,
      "talkRole": {
        "type": "TALK_ROLE_NPC",
        "_id": "10211"
      },
      "talkContentTextMapHash": 3242174945,
      "talkAssetPath": "",
      "talkAssetPathAlter": "",
      "talkAudioName": "",
      "actionBefore": "",
      "actionWhile": "",
      "actionAfter": "",
      "optionIcon": "",
      "iconPath": ""
    }
  ]
}