{
  "talkId": 102230,
  "KPGKDHAFHFE": "FREE",
  "dialogList": [
    {
      "id": 10223001,
      "nextDialogs": [
        10223002
      ],
      "talkRole": {
        "type": "TALK_ROLE_NPC",
        "_id": "10272"
      },
      "talkContentTextMapHash": 2026930977,
      "talkAssetPath": "",
      "talkAssetPathAlter": "",
      "talkAudioName": "",
      "actionBefore": "",
      "actionWhile": "",
      "actionAfter": "",
      "optionIcon": "",
      "iconPath": ""
    },
    {
      "id": 10223002,
      "talkRole": {
        "type": "TALK_ROLE_NPC",
        "_id": "10272"
      },
      "talkContentTextMapHash": 3516512297,
      "talkAssetPath": "",
      "talkAssetPathAlter": "",
      "talkAudioName": "",
      "actionBefore": "",
      "actionWhile": "",
      "actionAfter": "",
      "optionIcon": "",
      "iconPath": ""
    }
  ]
}