{
  "talkId": 102561,
  "KPGKDHAFHFE": "FREE",
  "dialogList": [
    {
      "id": 10253201,
      "talkRole": {
        "type": "TALK_ROLE_NPC",
        "_id": "10321"
      },
      "talkContentTextMapHash": 2354685153,
      "talkAssetPath": "",
      "talkAssetPathAlter": "",
      "talkAudioName": "",
      "actionBefore": "",
      "actionWhile": "",
      "actionAfter": "",
      "optionIcon": "",
      "iconPath": ""
    }
  ]
}