{
  "talkId": 1102321,
  "KPGKDHAFHFE": "FREE",
  "dialogList": [
    {
      "id": 110232101,
      "talkRole": {
        "type": "TALK_ROLE_NPC",
        "_id": "2003021"
      },
      "talkContentTextMapHash": 2889556466,
      "talkAssetPath": "",
      "talkAssetPathAlter": "",
      "talkAudioName": "",
      "actionBefore": "",
      "actionWhile": "",
      "actionAfter": "",
      "optionIcon": "",
      "iconPath": ""
    }
  ]
}