{
  "talkId": 6934403,
  "KPGKDHAFHFE": "FREE",
  "dialogList": [
    {
      "id": 693440301,
      "nextDialogs": [
        693440302
      ],
      "talkRole": {
        "type": "TALK_ROLE_NPC",
        "_id": "9344"
      },
      "talkContentTextMapHash": 84158986,
      "talkAssetPath": "",
      "talkAssetPathAlter": "",
      "talkAudioName": "",
      "actionBefore": "",
      "actionWhile": "",
      "actionAfter": "",
      "optionIcon": "",
      "iconPath": ""
    },
    {
      "id": 693440302,
      "nextDialogs": [
        693440303
      ],
      "talkRole": {
        "type": "TALK_ROLE_NPC",
        "_id": "9344"
      },
      "talkContentTextMapHash": 3968871346,
      "talkAssetPath": "",
      "talkAssetPathAlter": "",
      "talkAudioName": "",
      "actionBefore": "",
      "actionWhile": "",
      "actionAfter": "",
      "optionIcon": "",
      "iconPath": ""
    },
    {
      "id": 693440303,
      "talkRole": {
        "type": "TALK_ROLE_NPC",
        "_id": "9344"
      },
      "talkContentTextMapHash": 18735186,
      "talkAssetPath": "",
      "talkAssetPathAlter": "",
      "talkAudioName": "",
      "actionBefore": "",
      "actionWhile": "",
      "actionAfter": "",
      "optionIcon": "",
      "iconPath": ""
    }
  ]
}