{
  "talkId": 2000013,
  "KPGKDHAFHFE": "FREE",
  "dialogList": [
    {
      "id": 200001301,
      "nextDialogs": [
        200001302
      ],
      "talkRole": {
        "type": "TALK_ROLE_NPC",
        "_id": "20003"
      },
      "talkContentTextMapHash": 412935397,
      "talkAssetPath": "",
      "talkAssetPathAlter": "",
      "talkAudioName": "",
      "actionBefore": "",
      "actionWhile": "",
      "actionAfter": "",
      "optionIcon": "",
      "iconPath": ""
    },
    {
      "id": 200001302,
      "talkRole": {
        "type": "TALK_ROLE_NPC",
        "_id": "20003"
      },
      "talkContentTextMapHash": 3578412621,
      "talkAssetPath": "",
      "talkAssetPathAlter": "",
      "talkAudioName": "",
      "actionBefore": "",
      "actionWhile": "",
      "actionAfter": "",
      "optionIcon": "",
      "iconPath": ""
    }
  ]
}