{
  "talkId": 2000002,
  "KPGKDHAFHFE": "FREE",
  "dialogList": [
    {
      "id": 200000201,
      "talkRole": {
        "type": "TALK_ROLE_PLAYER",
        "_id": ""
      },
      "talkContentTextMapHash": 1531848901,
      "talkAssetPath": "",
      "talkAssetPathAlter": "",
      "talkAudioName": "",
      "actionBefore": "",
      "actionWhile": "",
      "actionAfter": "",
      "optionIcon": "UI_Icon_Quest_Once",
      "iconPath": ""
    }
  ]
}