{
  "talkId": 2000005,
  "KPGKDHAFHFE": "FREE",
  "dialogList": [
    {
      "id": 200000501,
      "nextDialogs": [
        200000502
      ],
      "talkRole": {
        "type": "TALK_ROLE_NPC",
        "_id": "20003"
      },
      "talkContentTextMapHash": 1217379829,
      "talkAssetPath": "",
      "talkAssetPathAlter": "",
      "talkAudioName": "",
      "actionBefore": "",
      "actionWhile": "",
      "actionAfter": "",
      "optionIcon": "",
      "iconPath": ""
    },
    {
      "id": 200000502,
      "talkRole": {
        "type": "TALK_ROLE_NPC",
        "_id": "20003"
      },
      "talkContentTextMapHash": 2060060597,
      "talkAssetPath": "",
      "talkAssetPathAlter": "",
      "talkAudioName": "",
      "actionBefore": "",
      "actionWhile": "",
      "actionAfter": "",
      "optionIcon": "",
      "iconPath": ""
    }
  ]
}