{
  "talkId": 200222,
  "KPGKDHAFHFE": "FREE",
  "dialogList": [
    {
      "id": 20022201,
      "nextDialogs": [
        20022202
      ],
      "talkRole": {
        "type": "TALK_ROLE_NPC",
        "_id": "10417"
      },
      "talkContentTextMapHash": 3667276410,
      "talkAssetPath": "",
      "talkAssetPathAlter": "",
      "talkAudioName": "",
      "actionBefore": "",
      "actionWhile": "",
      "actionAfter": "",
      "optionIcon": "",
      "iconPath": ""
    },
    {
      "id": 20022202,
      "talkRole": {
        "type": "TALK_ROLE_NPC",
        "_id": "10417"
      },
      "talkContentTextMapHash": 2954610114,
      "talkAssetPath": "",
      "talkAssetPathAlter": "",
      "talkAudioName": "",
      "actionBefore": "",
      "actionWhile": "",
      "actionAfter": "",
      "optionIcon": "",
      "iconPath": ""
    }
  ]
}