{
  "talkId": 2010142,
  "KPGKDHAFHFE": "FREE",
  "dialogList": [
    {
      "id": 201014201,
      "talkRole": {
        "type": "TALK_ROLE_NPC",
        "_id": "1512"
      },
      "talkContentTextMapHash": 1076268377,
      "talkAssetPath": "",
      "talkAssetPathAlter": "",
      "talkAudioName": "",
      "actionBefore": "",
      "actionWhile": "",
      "actionAfter": "UI/open_explorationpage",
      "optionIcon": "UI_Icon_Intee_Explore_0",
      "iconPath": ""
    }
  ]
}