{
  "talkId": 2060302,
  "KPGKDHAFHFE": "FREE",
  "dialogList": [
    {
      "id": 206030201,
      "nextDialogs": [
        206030202
      ],
      "talkShowType": "TALK_SHOW_FORCE_SELECT",
      "talkRole": {
        "type": "TALK_ROLE_PLAYER",
        "_id": ""
      },
      "talkContentTextMapHash": 710564994,
      "talkAssetPath": "",
      "talkAssetPathAlter": "",
      "talkAudioName": "",
      "actionBefore": "",
      "actionWhile": "",
      "actionAfter": "",
      "optionIcon": "",
      "iconPath": ""
    },
    {
      "id": 206030202,
      "nextDialogs": [
        206030203
      ],
      "talkRole": {
        "type": "TALK_ROLE_NPC",
        "_id": "1409"
      },
      "talkContentTextMapHash": 396631090,
      "talkAssetPath": "",
      "talkAssetPathAlter": "",
      "talkAudioName": "",
      "actionBefore": "",
      "actionWhile": "",
      "actionAfter": "",
      "optionIcon": "",
      "iconPath": ""
    },
    {
      "id": 206030203,
      "talkRole": {
        "type": "TALK_ROLE_NPC",
        "_id": "1409"
      },
      "talkContentTextMapHash": 3301135658,
      "talkAssetPath": "",
      "talkAssetPathAlter": "",
      "talkAudioName": "",
      "actionBefore": "",
      "actionWhile": "",
      "actionAfter": "",
      "optionIcon": "",
      "iconPath": ""
    }
  ]
}