{
  "talkId": 2060103,
  "KPGKDHAFHFE": "FREE",
  "dialogList": [
    {
      "id": 206010301,
      "nextDialogs": [
        206010302
      ],
      "talkShowType": "TALK_SHOW_FORCE_SELECT",
      "talkRole": {
        "type": "TALK_ROLE_PLAYER",
        "_id": ""
      },
      "talkContentTextMapHash": 3039724042,
      "talkAssetPath": "",
      "talkAssetPathAlter": "",
      "talkAudioName": "",
      "actionBefore": "",
      "actionWhile": "",
      "actionAfter": "",
      "optionIcon": "",
      "iconPath": ""
    },
    {
      "id": 206010302,
      "talkRole": {
        "type": "TALK_ROLE_NPC",
        "_id": "1409"
      },
      "talkContentTextMapHash": 1057094514,
      "talkAssetPath": "",
      "talkAssetPathAlter": "",
      "talkAudioName": "",
      "actionBefore": "",
      "actionWhile": "",
      "actionAfter": "",
      "optionIcon": "",
      "iconPath": ""
    }
  ]
}