{
  "talkId": 2074304,
  "KPGKDHAFHFE": "FREE",
  "dialogList": [
    {
      "id": 207430401,
      "nextDialogs": [
        207430402
      ],
      "talkShowType": "TALK_SHOW_FORCE_SELECT",
      "talkRole": {
        "type": "TALK_ROLE_PLAYER",
        "_id": ""
      },
      "talkContentTextMapHash": 2351160826,
      "talkAssetPath": "",
      "talkAssetPathAlter": "",
      "talkAudioName": "",
      "actionBefore": "",
      "actionWhile": "",
      "actionAfter": "",
      "optionIcon": "",
      "iconPath": ""
    },
    {
      "id": 207430402,
      "talkRole": {
        "type": "TALK_ROLE_NPC",
        "_id": "1527"
      },
      "talkContentTextMapHash": 4046712762,
      "talkAssetPath": "",
      "talkAssetPathAlter": "",
      "talkAudioName": "",
      "actionBefore": "",
      "actionWhile": "",
      "actionAfter": "",
      "optionIcon": "",
      "iconPath": ""
    }
  ]
}