{
  "talkId": 2100505,
  "KPGKDHAFHFE": "FREE",
  "dialogList": [
    {
      "id": 210050501,
      "nextDialogs": [
        210050502
      ],
      "talkRole": {
        "type": "TALK_ROLE_NPC",
        "_id": "20029"
      },
      "talkContentTextMapHash": 265819589,
      "talkAssetPath": "",
      "talkAssetPathAlter": "",
      "talkAudioName": "",
      "actionBefore": "",
      "actionWhile": "",
      "actionAfter": "",
      "optionIcon": "",
      "iconPath": ""
    },
    {
      "id": 210050502,
      "talkRole": {
        "type": "TALK_ROLE_NPC",
        "_id": "20029"
      },
      "talkContentTextMapHash": 4190276637,
      "talkAssetPath": "",
      "talkAssetPathAlter": "",
      "talkAudioName": "",
      "actionBefore": "",
      "actionWhile": "",
      "actionAfter": "",
      "optionIcon": "",
      "iconPath": ""
    }
  ]
}