{
  "talkId": 2100302,
  "KPGKDHAFHFE": "FREE",
  "dialogList": [
    {
      "id": 210030201,
      "nextDialogs": [
        210030202
      ],
      "talkRole": {
        "type": "TALK_ROLE_PLAYER",
        "_id": ""
      },
      "talkContentTextMapHash": 2863719797,
      "talkAssetPath": "",
      "talkAssetPathAlter": "",
      "talkAudioName": "",
      "actionBefore": "",
      "actionWhile": "",
      "actionAfter": "",
      "optionIcon": "UI_Icon_Quest_Once",
      "iconPath": ""
    },
    {
      "id": 210030202,
      "talkRole": {
        "type": "TALK_ROLE_NPC",
        "_id": "2429"
      },
      "talkContentTextMapHash": 1749688677,
      "talkAssetPath": "",
      "talkAssetPathAlter": "",
      "talkAudioName": "",
      "actionBefore": "",
      "actionWhile": "",
      "actionAfter": "",
      "optionIcon": "",
      "iconPath": ""
    }
  ]
}