{
  "talkId": 2100301,
  "KPGKDHAFHFE": "FREE",
  "dialogList": [
    {
      "id": 210030101,
      "nextDialogs": [
        210030102
      ],
      "talkRole": {
        "type": "TALK_ROLE_NPC",
        "_id": "2429"
      },
      "talkContentTextMapHash": 490410141,
      "talkAssetPath": "",
      "talkAssetPathAlter": "",
      "talkAudioName": "",
      "actionBefore": "",
      "actionWhile": "",
      "actionAfter": "",
      "optionIcon": "",
      "iconPath": ""
    },
    {
      "id": 210030102,
      "nextDialogs": [
        210030103
      ],
      "talkShowType": "TALK_SHOW_FORCE_SELECT",
      "talkRole": {
        "type": "TALK_ROLE_PLAYER",
        "_id": ""
      },
      "talkContentTextMapHash": 154700053,
      "talkAssetPath": "",
      "talkAssetPathAlter": "",
      "talkAudioName": "",
      "actionBefore": "",
      "actionWhile": "",
      "actionAfter": "",
      "optionIcon": "",
      "iconPath": ""
    },
    {
      "id": 210030103,
      "nextDialogs": [
        210030104
      ],
      "talkRole": {
        "type": "TALK_ROLE_NPC",
        "_id": "2429"
      },
      "talkContentTextMapHash": 2452077829,
      "talkAssetPath": "",
      "talkAssetPathAlter": "",
      "talkAudioName": "",
      "actionBefore": "",
      "actionWhile": "",
      "actionAfter": "",
      "optionIcon": "",
      "iconPath": ""
    },
    {
      "id": 210030104,
      "nextDialogs": [
        210030105
      ],
      "talkRole": {
        "type": "TALK_ROLE_NPC",
        "_id": "2429"
      },
      "talkContentTextMapHash": 481705613,
      "talkAssetPath": "",
      "talkAssetPathAlter": "",
      "talkAudioName": "",
      "actionBefore": "",
      "actionWhile": "",
      "actionAfter": "",
      "optionIcon": "",
      "iconPath": ""
    },
    {
      "id": 210030105,
      "nextDialogs": [
        210030114
      ],
      "talkRole": {
        "type": "TALK_ROLE_NPC",
        "_id": "2429"
      },
      "talkContentTextMapHash": 2705377685,
      "talkAssetPath": "",
      "talkAssetPathAlter": "",
      "talkAudioName": "",
      "actionBefore": "",
      "actionWhile": "",
      "actionAfter": "",
      "optionIcon": "",
      "iconPath": ""
    },
    {
      "id": 210030114,
      "nextDialogs": [
        210030106
      ],
      "talkShowType": "TALK_SHOW_FORCE_SELECT",
      "talkRole": {
        "type": "TALK_ROLE_NPC",
        "_id": "2429"
      },
      "talkContentTextMapHash": 1666455981,
      "talkAssetPath": "",
      "talkAssetPathAlter": "",
      "talkAudioName": "",
      "actionBefore": "",
      "actionWhile": "",
      "actionAfter": "",
      "optionIcon": "",
      "iconPath": ""
    },
    {
      "id": 210030106,
      "nextDialogs": [
        210030107
      ],
      "talkRole": {
        "type": "TALK_ROLE_NPC",
        "_id": "2429"
      },
      "talkContentTextMapHash": 1051566613,
      "talkAssetPath": "",
      "talkAssetPathAlter": "",
      "talkAudioName": "",
      "actionBefore": "",
      "actionWhile": "",
      "actionAfter": "",
      "optionIcon": "",
      "iconPath": ""
    },
    {
      "id": 210030107,
      "nextDialogs": [
        210030108
      ],
      "talkRole": {
        "type": "TALK_ROLE_NPC",
        "_id": "2429"
      },
      "talkContentTextMapHash": 3315223517,
      "talkAssetPath": "",
      "talkAssetPathAlter": "",
      "talkAudioName": "",
      "actionBefore": "",
      "actionWhile": "",
      "actionAfter": "",
      "optionIcon": "",
      "iconPath": ""
    },
    {
      "id": 210030108,
      "nextDialogs": [
        210030109
      ],
      "talkRole": {
        "type": "TALK_ROLE_NPC",
        "_id": "2429"
      },
      "talkContentTextMapHash": 79232565,
      "talkAssetPath": "",
      "talkAssetPathAlter": "",
      "talkAudioName": "",
      "actionBefore": "",
      "actionWhile": "",
      "actionAfter": "",
      "optionIcon": "",
      "iconPath": ""
    },
    {
      "id": 210030109,
      "nextDialogs": [
        210030110
      ],
      "talkRole": {
        "type": "TALK_ROLE_NPC",
        "_id": "2429"
      },
      "talkContentTextMapHash": 1656534517,
      "talkAssetPath": "",
      "talkAssetPathAlter": "",
      "talkAudioName": "",
      "actionBefore": "",
      "actionWhile": "",
      "actionAfter": "",
      "optionIcon": "",
      "iconPath": ""
    },
    {
      "id": 210030110,
      "talkRole": {
        "type": "TALK_ROLE_NPC",
        "_id": "2429"
      },
      "talkContentTextMapHash": 3907338181,
      "talkAssetPath": "",
      "talkAssetPathAlter": "",
      "talkAudioName": "",
      "actionBefore": "",
      "actionWhile": "",
      "actionAfter": "",
      "optionIcon": "",
      "iconPath": ""
    }
  ]
}