{
  "talkId": 2101202,
  "KPGKDHAFHFE": "FREE",
  "dialogList": [
    {
      "id": 210120201,
      "nextDialogs": [
        210120202
      ],
      "talkRole": {
        "type": "TALK_ROLE_PLAYER",
        "_id": ""
      },
      "talkContentTextMapHash": 2619596397,
      "talkAssetPath": "",
      "talkAssetPathAlter": "",
      "talkAudioName": "",
      "actionBefore": "",
      "actionWhile": "",
      "actionAfter": "",
      "optionIcon": "",
      "iconPath": ""
    },
    {
      "id": 210120202,
      "nextDialogs": [
        210120203
      ],
      "talkRole": {
        "type": "TALK_ROLE_NPC",
        "_id": "2311"
      },
      "talkContentTextMapHash": 2424248277,
      "talkAssetPath": "",
      "talkAssetPathAlter": "",
      "talkAudioName": "",
      "actionBefore": "",
      "actionWhile": "",
      "actionAfter": "",
      "optionIcon": "",
      "iconPath": ""
    },
    {
      "id": 210120203,
      "nextDialogs": [
        210120104
      ],
      "talkRole": {
        "type": "TALK_ROLE_NPC",
        "_id": "2311"
      },
      "talkContentTextMapHash": 1549175805,
      "talkAssetPath": "",
      "talkAssetPathAlter": "",
      "talkAudioName": "",
      "actionBefore": "",
      "actionWhile": "",
      "actionAfter": "",
      "optionIcon": "",
      "iconPath": ""
    }
  ]
}