{
  "talkId": 2101811,
  "KPGKDHAFHFE": "FREE",
  "dialogList": [
    {
      "id": 210181101,
      "talkRole": {
        "type": "TALK_ROLE_NPC",
        "_id": "230301"
      },
      "talkContentTextMapHash": 261663029,
      "talkAssetPath": "",
      "talkAssetPathAlter": "",
      "talkAudioName": "",
      "actionBefore": "",
      "actionWhile": "",
      "actionAfter": "",
      "optionIcon": "",
      "iconPath": ""
    }
  ]
}