{
  "talkId": 2101206,
  "KPGKDHAFHFE": "FREE",
  "dialogList": [
    {
      "id": 210120601,
      "nextDialogs": [
        210120602
      ],
      "talkRole": {
        "type": "TALK_ROLE_NPC",
        "_id": "2311"
      },
      "talkContentTextMapHash": 4090476381,
      "talkAssetPath": "",
      "talkAssetPathAlter": "",
      "talkAudioName": "",
      "actionBefore": "",
      "actionWhile": "",
      "actionAfter": "",
      "optionIcon": "",
      "iconPath": ""
    },
    {
      "id": 210120602,
      "nextDialogs": [
        210120603
      ],
      "talkRole": {
        "type": "TALK_ROLE_NPC",
        "_id": "2311"
      },
      "talkContentTextMapHash": 4173308029,
      "talkAssetPath": "",
      "talkAssetPathAlter": "",
      "talkAudioName": "",
      "actionBefore": "",
      "actionWhile": "",
      "actionAfter": "",
      "optionIcon": "",
      "iconPath": ""
    },
    {
      "id": 210120603,
      "nextDialogs": [
        210120604
      ],
      "talkRole": {
        "type": "TALK_ROLE_NPC",
        "_id": "2311"
      },
      "talkContentTextMapHash": 932388733,
      "talkAssetPath": "",
      "talkAssetPathAlter": "",
      "talkAudioName": "",
      "actionBefore": "",
      "actionWhile": "",
      "actionAfter": "",
      "optionIcon": "",
      "iconPath": ""
    },
    {
      "id": 210120604,
      "nextDialogs": [
        210120605
      ],
      "talkRole": {
        "type": "TALK_ROLE_NPC",
        "_id": "2311"
      },
      "talkContentTextMapHash": 1967480533,
      "talkAssetPath": "",
      "talkAssetPathAlter": "",
      "talkAudioName": "",
      "actionBefore": "",
      "actionWhile": "",
      "actionAfter": "",
      "optionIcon": "",
      "iconPath": ""
    },
    {
      "id": 210120605,
      "talkRole": {
        "type": "TALK_ROLE_NPC",
        "_id": "2311"
      },
      "talkContentTextMapHash": 283552381,
      "talkAssetPath": "",
      "talkAssetPathAlter": "",
      "talkAudioName": "",
      "actionBefore": "",
      "actionWhile": "",
      "actionAfter": "",
      "optionIcon": "",
      "iconPath": ""
    }
  ]
}