{
  "talkId": 2102501,
  "KPGKDHAFHFE": "FREE",
  "dialogList": [
    {
      "id": 210250101,
      "nextDialogs": [
        210250102
      ],
      "talkRole": {
        "type": "TALK_ROLE_NPC",
        "_id": "20080"
      },
      "talkContentTextMapHash": 1170418984,
      "talkAssetPath": "",
      "talkAssetPathAlter": "",
      "talkAudioName": "",
      "actionBefore": "",
      "actionWhile": "",
      "actionAfter": "",
      "optionIcon": "",
      "iconPath": ""
    },
    {
      "id": 210250102,
      "nextDialogs": [
        210250103
      ],
      "talkRole": {
        "type": "TALK_ROLE_NPC",
        "_id": "20080"
      },
      "talkContentTextMapHash": 3943699704,
      "talkAssetPath": "",
      "talkAssetPathAlter": "",
      "talkAudioName": "",
      "actionBefore": "",
      "actionWhile": "",
      "actionAfter": "",
      "optionIcon": "",
      "iconPath": ""
    },
    {
      "id": 210250103,
      "talkRole": {
        "type": "TALK_ROLE_NPC",
        "_id": "20080"
      },
      "talkContentTextMapHash": 1793056080,
      "talkAssetPath": "",
      "talkAssetPathAlter": "",
      "talkAudioName": "",
      "actionBefore": "",
      "actionWhile": "",
      "actionAfter": "",
      "optionIcon": "",
      "iconPath": ""
    }
  ]
}