{
  "talkId": 2211410,
  "KPGKDHAFHFE": "FREE",
  "dialogList": [
    {
      "id": 221141001,
      "nextDialogs": [
        221141002
      ],
      "talkRole": {
        "type": "TALK_ROLE_NPC",
        "_id": "2017"
      },
      "talkContentTextMapHash": 1033212698,
      "talkAssetPath": "",
      "talkAssetPathAlter": "",
      "talkAudioName": "",
      "actionBefore": "",
      "actionWhile": "",
      "actionAfter": "",
      "optionIcon": "",
      "iconPath": ""
    },
    {
      "id": 221141002,
      "nextDialogs": [
        221141003
      ],
      "talkRole": {
        "type": "TALK_ROLE_NPC",
        "_id": "2017"
      },
      "talkContentTextMapHash": 945877026,
      "talkAssetPath": "",
      "talkAssetPathAlter": "",
      "talkAudioName": "",
      "actionBefore": "",
      "actionWhile": "",
      "actionAfter": "",
      "optionIcon": "",
      "iconPath": ""
    },
    {
      "id": 221141003,
      "talkRole": {
        "type": "TALK_ROLE_NPC",
        "_id": "2017"
      },
      "talkContentTextMapHash": 1935758442,
      "talkAssetPath": "",
      "talkAssetPathAlter": "",
      "talkAudioName": "",
      "actionBefore": "",
      "actionWhile": "",
      "actionAfter": "",
      "optionIcon": "",
      "iconPath": ""
    }
  ]
}