{
  "talkId": 30304,
  "KPGKDHAFHFE": "FREE",
  "dialogList": [
    {
      "id": 3030401,
      "talkRole": {
        "type": "TALK_ROLE_NPC",
        "_id": "1204"
      },
      "talkContentTextMapHash": 1996214467,
      "talkAssetPath": "",
      "talkAssetPathAlter": "",
      "talkAudioName": "",
      "actionBefore": "TEST/LerpInQueen",
      "actionWhile": "",
      "actionAfter": "",
      "optionIcon": "",
      "iconPath": ""
    }
  ]
}