{
  "talkId": 30316,
  "KPGKDHAFHFE": "FREE",
  "dialogList": [
    {
      "id": 3031601,
      "talkRole": {
        "type": "TALK_ROLE_NPC",
        "_id": "1279"
      },
      "talkContentTextMapHash": 3603962123,
      "talkAssetPath": "",
      "talkAssetPathAlter": "",
      "talkAudioName": "",
      "actionBefore": "TEST/LerpInQueen",
      "actionWhile": "",
      "actionAfter": "",
      "optionIcon": "",
      "iconPath": ""
    }
  ]
}