{
  "talkId": 30328,
  "KPGKDHAFHFE": "FREE",
  "dialogList": [
    {
      "id": 3032801,
      "talkRole": {
        "type": "TALK_ROLE_NPC",
        "_id": "4903"
      },
      "talkContentTextMapHash": 4094159403,
      "talkAssetPath": "",
      "talkAssetPathAlter": "",
      "talkAudioName": "",
      "actionBefore": "TEST/LerpInQueen",
      "actionWhile": "",
      "actionAfter": "",
      "optionIcon": "",
      "iconPath": ""
    }
  ]
}