{
  "talkId": 30335,
  "KPGKDHAFHFE": "FREE",
  "dialogList": [
    {
      "id": 3033501,
      "talkRole": {
        "type": "TALK_ROLE_NPC",
        "_id": "5904"
      },
      "talkContentTextMapHash": 1826243107,
      "talkAssetPath": "",
      "talkAssetPathAlter": "",
      "talkAudioName": "",
      "actionBefore": "TEST/LerpInQueen",
      "actionWhile": "",
      "actionAfter": "",
      "optionIcon": "",
      "iconPath": ""
    }
  ]
}