{
  "talkId": 31172,
  "KPGKDHAFHFE": "FREE",
  "dialogList": [
    {
      "id": 3117201,
      "talkRole": {
        "type": "TALK_ROLE_NPC",
        "_id": "1282"
      },
      "talkContentTextMapHash": 4043286227,
      "talkAssetPath": "",
      "talkAssetPathAlter": "",
      "talkAudioName": "",
      "actionBefore": "TEST/LerpInQueenDefault",
      "actionWhile": "",
      "actionAfter": "",
      "optionIcon": "",
      "iconPath": ""
    }
  ]
}