{
  "talkId": 31170,
  "KPGKDHAFHFE": "FREE",
  "dialogList": [
    {
      "id": 3117001,
      "talkRole": {
        "type": "TALK_ROLE_NPC",
        "_id": "1279"
      },
      "talkContentTextMapHash": 3902965003,
      "talkAssetPath": "",
      "talkAssetPathAlter": "",
      "talkAudioName": "",
      "actionBefore": "TEST/LerpInQueenDefault",
      "actionWhile": "",
      "actionAfter": "",
      "optionIcon": "",
      "iconPath": ""
    }
  ]
}