{
  "talkId": 31180,
  "KPGKDHAFHFE": "FREE",
  "dialogList": [
    {
      "id": 3118001,
      "talkRole": {
        "type": "TALK_ROLE_NPC",
        "_id": "4900"
      },
      "talkContentTextMapHash": 3751571795,
      "talkAssetPath": "",
      "talkAssetPathAlter": "",
      "talkAudioName": "",
      "actionBefore": "TEST/LerpInQueenDefault",
      "actionWhile": "",
      "actionAfter": "",
      "optionIcon": "",
      "iconPath": ""
    }
  ]
}