{
  "talkId": 31194,
  "KPGKDHAFHFE": "FREE",
  "dialogList": [
    {
      "id": 3119401,
      "talkRole": {
        "type": "TALK_ROLE_NPC",
        "_id": "1289"
      },
      "talkContentTextMapHash": 1457514595,
      "talkAssetPath": "",
      "talkAssetPathAlter": "",
      "talkAudioName": "",
      "actionBefore": "TEST/LerpInQueenDefault",
      "actionWhile": "",
      "actionAfter": "",
      "optionIcon": "",
      "iconPath": ""
    }
  ]
}