{
  "talkId": 31192,
  "KPGKDHAFHFE": "FREE",
  "dialogList": [
    {
      "id": 3119201,
      "talkRole": {
        "type": "TALK_ROLE_NPC",
        "_id": "5905"
      },
      "talkContentTextMapHash": 1575344195,
      "talkAssetPath": "",
      "talkAssetPathAlter": "",
      "talkAudioName": "",
      "actionBefore": "TEST/LerpInQueenDefault",
      "actionWhile": "",
      "actionAfter": "",
      "optionIcon": "",
      "iconPath": ""
    }
  ]
}