{
  "talkId": 6936502,
  "KPGKDHAFHFE": "FREE",
  "dialogList": [
    {
      "id": 693650201,
      "nextDialogs": [
        693650202
      ],
      "talkRole": {
        "type": "TALK_ROLE_NPC",
        "_id": "9365"
      },
      "talkContentTextMapHash": 1937942986,
      "talkAssetPath": "",
      "talkAssetPathAlter": "",
      "talkAudioName": "",
      "actionBefore": "",
      "actionWhile": "",
      "actionAfter": "",
      "optionIcon": "",
      "iconPath": ""
    },
    {
      "id": 693650202,
      "nextDialogs": [
        693650203
      ],
      "talkRole": {
        "type": "TALK_ROLE_NPC",
        "_id": "9365"
      },
      "talkContentTextMapHash": 2923718274,
      "talkRoleNameTextMapHash": 1443385923,
      "talkAssetPath": "",
      "talkAssetPathAlter": "",
      "talkAudioName": "",
      "actionBefore": "",
      "actionWhile": "",
      "actionAfter": "",
      "optionIcon": "",
      "iconPath": ""
    },
    {
      "id": 693650203,
      "talkRole": {
        "type": "TALK_ROLE_NPC",
        "_id": "9365"
      },
      "talkContentTextMapHash": 2931232554,
      "talkAssetPath": "",
      "talkAssetPathAlter": "",
      "talkAudioName": "",
      "actionBefore": "",
      "actionWhile": "",
      "actionAfter": "",
      "optionIcon": "",
      "iconPath": ""
    }
  ]
}