{
  "talkId": 34703,
  "KPGKDHAFHFE": "FREE",
  "dialogList": [
    {
      "id": 3470301,
      "nextDialogs": [
        3470302
      ],
      "talkRole": {
        "type": "TALK_ROLE_NPC",
        "_id": "1248"
      },
      "talkContentTextMapHash": 1584647107,
      "talkRoleNameTextMapHash": 3343669196,
      "talkAssetPath": "",
      "talkAssetPathAlter": "",
      "talkAudioName": "",
      "actionBefore": "TEST/Readable01",
      "actionWhile": "",
      "actionAfter": "",
      "optionIcon": "",
      "iconPath": ""
    },
    {
      "id": 3470302,
      "nextDialogs": [
        3470303
      ],
      "talkRole": {
        "type": "TALK_ROLE_NPC",
        "_id": "1248"
      },
      "talkContentTextMapHash": 2948579803,
      "talkRoleNameTextMapHash": 3512805780,
      "talkAssetPath": "",
      "talkAssetPathAlter": "",
      "talkAudioName": "",
      "actionBefore": "",
      "actionWhile": "",
      "actionAfter": "",
      "optionIcon": "",
      "iconPath": ""
    },
    {
      "id": 3470303,
      "nextDialogs": [
        3470304
      ],
      "talkRole": {
        "type": "TALK_ROLE_NPC",
        "_id": "1005"
      },
      "talkContentTextMapHash": 2320079867,
      "talkAssetPath": "",
      "talkAssetPathAlter": "",
      "talkAudioName": "",
      "actionBefore": "",
      "actionWhile": "",
      "actionAfter": "",
      "optionIcon": "",
      "iconPath": ""
    },
    {
      "id": 3470304,
      "talkRole": {
        "type": "TALK_ROLE_NPC",
        "_id": "1005"
      },
      "talkContentTextMapHash": 439757595,
      "talkAssetPath": "",
      "talkAssetPathAlter": "",
      "talkAudioName": "",
      "actionBefore": "",
      "actionWhile": "",
      "actionAfter": "",
      "optionIcon": "",
      "iconPath": ""
    }
  ]
}