{
  "talkId": 34716,
  "KPGKDHAFHFE": "FREE",
  "dialogList": [
    {
      "id": 3471601,
      "nextDialogs": [
        3471602
      ],
      "talkRole": {
        "type": "TALK_ROLE_NPC",
        "_id": "20052"
      },
      "talkContentTextMapHash": 886693035,
      "talkRoleNameTextMapHash": 3090854332,
      "talkAssetPath": "",
      "talkAssetPathAlter": "",
      "talkAudioName": "",
      "actionBefore": "TEST/Readable01",
      "actionWhile": "",
      "actionAfter": "",
      "optionIcon": "",
      "iconPath": ""
    },
    {
      "id": 3471602,
      "nextDialogs": [
        3471603
      ],
      "talkRole": {
        "type": "TALK_ROLE_NPC",
        "_id": "20052"
      },
      "talkContentTextMapHash": 465957971,
      "talkRoleNameTextMapHash": 3034015804,
      "talkAssetPath": "",
      "talkAssetPathAlter": "",
      "talkAudioName": "",
      "actionBefore": "",
      "actionWhile": "",
      "actionAfter": "",
      "optionIcon": "",
      "iconPath": ""
    },
    {
      "id": 3471603,
      "nextDialogs": [
        3471604
      ],
      "talkRole": {
        "type": "TALK_ROLE_NPC",
        "_id": "20052"
      },
      "talkContentTextMapHash": 1869613739,
      "talkRoleNameTextMapHash": 3619894172,
      "talkAssetPath": "",
      "talkAssetPathAlter": "",
      "talkAudioName": "",
      "actionBefore": "",
      "actionWhile": "",
      "actionAfter": "",
      "optionIcon": "",
      "iconPath": ""
    },
    {
      "id": 3471604,
      "nextDialogs": [
        3471605
      ],
      "talkRole": {
        "type": "TALK_ROLE_NPC",
        "_id": "20052"
      },
      "talkContentTextMapHash": 2204918611,
      "talkRoleNameTextMapHash": 2854764724,
      "talkAssetPath": "",
      "talkAssetPathAlter": "",
      "talkAudioName": "",
      "actionBefore": "",
      "actionWhile": "",
      "actionAfter": "",
      "optionIcon": "",
      "iconPath": ""
    },
    {
      "id": 3471605,
      "nextDialogs": [
        3471606
      ],
      "talkRole": {
        "type": "TALK_ROLE_NPC",
        "_id": "20052"
      },
      "talkContentTextMapHash": 684770779,
      "talkRoleNameTextMapHash": 2829907724,
      "talkAssetPath": "",
      "talkAssetPathAlter": "",
      "talkAudioName": "",
      "actionBefore": "",
      "actionWhile": "",
      "actionAfter": "",
      "optionIcon": "",
      "iconPath": ""
    },
    {
      "id": 3471606,
      "talkRole": {
        "type": "TALK_ROLE_NPC",
        "_id": "20052"
      },
      "talkContentTextMapHash": 220812179,
      "talkRoleNameTextMapHash": 3947160332,
      "talkAssetPath": "",
      "talkAssetPathAlter": "",
      "talkAudioName": "",
      "actionBefore": "",
      "actionWhile": "",
      "actionAfter": "",
      "optionIcon": "",
      "iconPath": ""
    }
  ]
}