{
  "talkId": 34712,
  "KPGKDHAFHFE": "FREE",
  "dialogList": [
    {
      "id": 3471201,
      "talkRole": {
        "type": "TALK_ROLE_NPC",
        "_id": "1514"
      },
      "talkContentTextMapHash": 143132803,
      "talkAssetPath": "",
      "talkAssetPathAlter": "",
      "talkAudioName": "",
      "actionBefore": "TEST/Readable01",
      "actionWhile": "",
      "actionAfter": "",
      "optionIcon": "",
      "iconPath": ""
    }
  ]
}