{
  "talkId": 34729,
  "KPGKDHAFHFE": "FREE",
  "dialogList": [
    {
      "id": 3472901,
      "talkRole": {
        "type": "TALK_ROLE_NPC",
        "_id": "20068"
      },
      "talkContentTextMapHash": 3310264651,
      "talkRoleNameTextMapHash": 2280438620,
      "talkAssetPath": "",
      "talkAssetPathAlter": "",
      "talkAudioName": "",
      "actionBefore": "TEST/Readable01",
      "actionWhile": "",
      "actionAfter": "",
      "optionIcon": "",
      "iconPath": ""
    }
  ]
}