{
  "talkId": 34728,
  "KPGKDHAFHFE": "FREE",
  "dialogList": [
    {
      "id": 3472801,
      "nextDialogs": [
        3472802
      ],
      "talkRole": {
        "type": "TALK_ROLE_NPC",
        "_id": "20067"
      },
      "talkContentTextMapHash": 1649923123,
      "talkRoleNameTextMapHash": 1550230332,
      "talkAssetPath": "",
      "talkAssetPathAlter": "",
      "talkAudioName": "",
      "actionBefore": "TEST/Readable01",
      "actionWhile": "",
      "actionAfter": "",
      "optionIcon": "",
      "iconPath": ""
    },
    {
      "id": 3472802,
      "talkRole": {
        "type": "TALK_ROLE_NPC",
        "_id": "20067"
      },
      "talkContentTextMapHash": 56472283,
      "talkRoleNameTextMapHash": 3535442524,
      "talkAssetPath": "",
      "talkAssetPathAlter": "",
      "talkAudioName": "",
      "actionBefore": "",
      "actionWhile": "",
      "actionAfter": "",
      "optionIcon": "",
      "iconPath": ""
    }
  ]
}