{
  "talkId": 34731,
  "KPGKDHAFHFE": "FREE",
  "dialogList": [
    {
      "id": 3473101,
      "talkRole": {
        "type": "TALK_ROLE_NPC",
        "_id": "20083"
      },
      "talkContentTextMapHash": 4122158531,
      "talkRoleNameTextMapHash": 3865866532,
      "talkAssetPath": "",
      "talkAssetPathAlter": "",
      "talkAudioName": "",
      "actionBefore": "TEST/Readable01",
      "actionWhile": "",
      "actionAfter": "",
      "optionIcon": "",
      "iconPath": ""
    }
  ]
}