{
  "talkId": 34737,
  "KPGKDHAFHFE": "FREE",
  "dialogList": [
    {
      "id": 3473701,
      "talkRole": {
        "type": "TALK_ROLE_NPC",
        "_id": "20116"
      },
      "talkContentTextMapHash": 222855659,
      "talkRoleNameTextMapHash": 4248236828,
      "talkAssetPath": "",
      "talkAssetPathAlter": "",
      "talkAudioName": "",
      "actionBefore": "TEST/Readable01",
      "actionWhile": "",
      "actionAfter": "",
      "optionIcon": "",
      "iconPath": ""
    }
  ]
}