{
  "talkId": 34745,
  "KPGKDHAFHFE": "FREE",
  "dialogList": [
    {
      "id": 3474501,
      "talkRole": {
        "type": "TALK_ROLE_NPC",
        "_id": "20123"
      },
      "talkContentTextMapHash": 1767429811,
      "talkRoleNameTextMapHash": 4058671284,
      "talkAssetPath": "",
      "talkAssetPathAlter": "",
      "talkAudioName": "",
      "actionBefore": "TEST/Readable01",
      "actionWhile": "",
      "actionAfter": "",
      "optionIcon": "",
      "iconPath": ""
    }
  ]
}