{
  "talkId": 34752,
  "KPGKDHAFHFE": "FREE",
  "dialogList": [
    {
      "id": 3475201,
      "talkRole": {
        "type": "TALK_ROLE_NPC",
        "_id": "1271"
      },
      "talkContentTextMapHash": 1270861395,
      "talkTitleTextMapHash": 1491268515,
      "talkRoleNameTextMapHash": 2559871260,
      "talkAssetPath": "",
      "talkAssetPathAlter": "",
      "talkAudioName": "",
      "actionBefore": "TEST/Readable01",
      "actionWhile": "",
      "actionAfter": "",
      "optionIcon": "",
      "iconPath": ""
    }
  ]
}