{
  "talkId": 34762,
  "KPGKDHAFHFE": "FREE",
  "dialogList": [
    {
      "id": 3476201,
      "talkRole": {
        "type": "TALK_ROLE_NPC",
        "_id": "20151"
      },
      "talkContentTextMapHash": 1514380075,
      "talkAssetPath": "",
      "talkAssetPathAlter": "",
      "talkAudioName": "",
      "actionBefore": "TEST/Readable01",
      "actionWhile": "",
      "actionAfter": "",
      "optionIcon": "",
      "iconPath": ""
    }
  ]
}