{
  "talkId": 34817,
  "KPGKDHAFHFE": "FREE",
  "dialogList": [
    {
      "id": 3481701,
      "nextDialogs": [
        3481702
      ],
      "talkRole": {
        "type": "TALK_ROLE_NPC",
        "_id": "12133"
      },
      "talkContentTextMapHash": 1951289547,
      "talkRoleNameTextMapHash": 3368256684,
      "talkAssetPath": "",
      "talkAssetPathAlter": "",
      "talkAudioName": "",
      "actionBefore": "TEST/Readable01",
      "actionWhile": "",
      "actionAfter": "",
      "optionIcon": "",
      "iconPath": ""
    },
    {
      "id": 3481702,
      "talkRole": {
        "type": "TALK_ROLE_NPC",
        "_id": "12133"
      },
      "talkContentTextMapHash": 3159165131,
      "talkRoleNameTextMapHash": 1194581716,
      "talkAssetPath": "",
      "talkAssetPathAlter": "",
      "talkAudioName": "",
      "actionBefore": "TEST/Readable01",
      "actionWhile": "",
      "actionAfter": "",
      "optionIcon": "",
      "iconPath": ""
    }
  ]
}