{
  "talkId": 34811,
  "KPGKDHAFHFE": "FREE",
  "dialogList": [
    {
      "id": 3481101,
      "nextDialogs": [
        3481102
      ],
      "talkRole": {
        "type": "TALK_ROLE_NPC",
        "_id": "1245"
      },
      "talkContentTextMapHash": 360985611,
      "talkRoleNameTextMapHash": 1804333292,
      "talkAssetPath": "",
      "talkAssetPathAlter": "",
      "talkAudioName": "",
      "actionBefore": "TEST/Readable01",
      "actionWhile": "",
      "actionAfter": "",
      "optionIcon": "",
      "iconPath": ""
    },
    {
      "id": 3481102,
      "nextDialogs": [
        3481103
      ],
      "talkRole": {
        "type": "TALK_ROLE_NPC",
        "_id": "1245"
      },
      "talkContentTextMapHash": 2336518363,
      "talkRoleNameTextMapHash": 4229046828,
      "talkAssetPath": "",
      "talkAssetPathAlter": "",
      "talkAudioName": "",
      "actionBefore": "",
      "actionWhile": "",
      "actionAfter": "",
      "optionIcon": "",
      "iconPath": ""
    },
    {
      "id": 3481103,
      "nextDialogs": [
        3481104
      ],
      "talkRole": {
        "type": "TALK_ROLE_NPC",
        "_id": "1245"
      },
      "talkContentTextMapHash": 2242601419,
      "talkRoleNameTextMapHash": 2008286372,
      "talkAssetPath": "",
      "talkAssetPathAlter": "",
      "talkAudioName": "",
      "actionBefore": "",
      "actionWhile": "",
      "actionAfter": "",
      "optionIcon": "",
      "iconPath": ""
    },
    {
      "id": 3481104,
      "nextDialogs": [
        3481105
      ],
      "talkRole": {
        "type": "TALK_ROLE_NPC",
        "_id": "1245"
      },
      "talkContentTextMapHash": 3242489435,
      "talkRoleNameTextMapHash": 822967460,
      "talkAssetPath": "",
      "talkAssetPathAlter": "",
      "talkAudioName": "",
      "actionBefore": "",
      "actionWhile": "",
      "actionAfter": "",
      "optionIcon": "",
      "iconPath": ""
    },
    {
      "id": 3481105,
      "nextDialogs": [
        3481106
      ],
      "talkRole": {
        "type": "TALK_ROLE_NPC",
        "_id": "1245"
      },
      "talkContentTextMapHash": 2431723747,
      "talkRoleNameTextMapHash": 1640553132,
      "talkAssetPath": "",
      "talkAssetPathAlter": "",
      "talkAudioName": "",
      "actionBefore": "",
      "actionWhile": "",
      "actionAfter": "",
      "optionIcon": "",
      "iconPath": ""
    },
    {
      "id": 3481106,
      "talkRole": {
        "type": "TALK_ROLE_NPC",
        "_id": "1245"
      },
      "talkContentTextMapHash": 849469011,
      "talkRoleNameTextMapHash": 1409883036,
      "talkAssetPath": "",
      "talkAssetPathAlter": "",
      "talkAudioName": "",
      "actionBefore": "",
      "actionWhile": "",
      "actionAfter": "",
      "optionIcon": "",
      "iconPath": ""
    }
  ]
}