{
  "talkId": 34902,
  "KPGKDHAFHFE": "FREE",
  "dialogList": [
    {
      "id": 3490201,
      "nextDialogs": [
        3490203
      ],
      "talkRole": {
        "type": "TALK_ROLE_NPC",
        "_id": "1244"
      },
      "talkContentTextMapHash": 889225139,
      "talkRoleNameTextMapHash": 4105481668,
      "talkAssetPath": "",
      "talkAssetPathAlter": "",
      "talkAudioName": "",
      "actionBefore": "TEST/Readable01",
      "actionWhile": "",
      "actionAfter": "",
      "optionIcon": "",
      "iconPath": ""
    },
    {
      "id": 3490203,
      "nextDialogs": [
        3490204
      ],
      "talkRole": {
        "type": "TALK_ROLE_NPC",
        "_id": "1244"
      },
      "talkContentTextMapHash": 3120472939,
      "talkRoleNameTextMapHash": 1509531060,
      "talkAssetPath": "",
      "talkAssetPathAlter": "",
      "talkAudioName": "",
      "actionBefore": "",
      "actionWhile": "",
      "actionAfter": "",
      "optionIcon": "",
      "iconPath": ""
    },
    {
      "id": 3490204,
      "talkRole": {
        "type": "TALK_ROLE_NPC",
        "_id": "1244"
      },
      "talkContentTextMapHash": 710693083,
      "talkRoleNameTextMapHash": 2488976012,
      "talkAssetPath": "",
      "talkAssetPathAlter": "",
      "talkAudioName": "",
      "actionBefore": "",
      "actionWhile": "",
      "actionAfter": "",
      "optionIcon": "",
      "iconPath": ""
    }
  ]
}