{
  "talkId": 6935501,
  "KPGKDHAFHFE": "FREE",
  "dialogList": [
    {
      "id": 693550101,
      "nextDialogs": [
        693550102
      ],
      "talkRole": {
        "type": "TALK_ROLE_NPC",
        "_id": "9355"
      },
      "talkContentTextMapHash": 4055254394,
      "talkAssetPath": "",
      "talkAssetPathAlter": "",
      "talkAudioName": "",
      "actionBefore": "",
      "actionWhile": "",
      "actionAfter": "",
      "optionIcon": "",
      "iconPath": ""
    },
    {
      "id": 693550102,
      "nextDialogs": [
        693550103
      ],
      "talkRole": {
        "type": "TALK_ROLE_NPC",
        "_id": "9355"
      },
      "talkContentTextMapHash": 1414059098,
      "talkAssetPath": "",
      "talkAssetPathAlter": "",
      "talkAudioName": "",
      "actionBefore": "",
      "actionWhile": "",
      "actionAfter": "",
      "optionIcon": "",
      "iconPath": ""
    },
    {
      "id": 693550103,
      "talkRole": {
        "type": "TALK_ROLE_NPC",
        "_id": "9355"
      },
      "talkContentTextMapHash": 3844041530,
      "talkAssetPath": "",
      "talkAssetPathAlter": "",
      "talkAudioName": "",
      "actionBefore": "",
      "actionWhile": "",
      "actionAfter": "",
      "optionIcon": "",
      "iconPath": ""
    }
  ]
}