{
  "talkId": 6909803,
  "KPGKDHAFHFE": "FREE",
  "dialogList": [
    {
      "id": 690980301,
      "nextDialogs": [
        690980302
      ],
      "talkShowType": "TALK_SHOW_FORCE_SELECT",
      "talkRole": {
        "type": "TALK_ROLE_PLAYER",
        "_id": ""
      },
      "talkContentTextMapHash": 2000391242,
      "talkAssetPath": "",
      "talkAssetPathAlter": "",
      "talkAudioName": "",
      "actionBefore": "",
      "actionWhile": "",
      "actionAfter": "",
      "optionIcon": "",
      "iconPath": ""
    },
    {
      "id": 690980302,
      "nextDialogs": [
        690980303,
        690980315
      ],
      "talkRole": {
        "type": "TALK_ROLE_NPC",
        "_id": "9098"
      },
      "talkContentTextMapHash": 3346396186,
      "talkAssetPath": "",
      "talkAssetPathAlter": "",
      "talkAudioName": "",
      "actionBefore": "",
      "actionWhile": "",
      "actionAfter": "",
      "optionIcon": "",
      "iconPath": ""
    },
    {
      "id": 690980303,
      "nextDialogs": [
        690980304
      ],
      "talkShowType": "TALK_SHOW_FORCE_SELECT",
      "talkRole": {
        "type": "TALK_ROLE_PLAYER",
        "_id": ""
      },
      "talkContentTextMapHash": 1017172650,
      "talkAssetPath": "",
      "talkAssetPathAlter": "",
      "talkAudioName": "",
      "actionBefore": "",
      "actionWhile": "",
      "actionAfter": "",
      "optionIcon": "",
      "iconPath": ""
    },
    {
      "id": 690980304,
      "nextDialogs": [
        690980305
      ],
      "talkRole": {
        "type": "TALK_ROLE_NPC",
        "_id": "9098"
      },
      "talkContentTextMapHash": 2063556090,
      "talkAssetPath": "",
      "talkAssetPathAlter": "",
      "talkAudioName": "",
      "actionBefore": "",
      "actionWhile": "",
      "actionAfter": "",
      "optionIcon": "",
      "iconPath": ""
    },
    {
      "id": 690980305,
      "nextDialogs": [
        690980306
      ],
      "talkShowType": "TALK_SHOW_FORCE_SELECT",
      "talkRole": {
        "type": "TALK_ROLE_PLAYER",
        "_id": ""
      },
      "talkContentTextMapHash": 1262604786,
      "talkAssetPath": "",
      "talkAssetPathAlter": "",
      "talkAudioName": "",
      "actionBefore": "",
      "actionWhile": "",
      "actionAfter": "",
      "optionIcon": "",
      "iconPath": ""
    },
    {
      "id": 690980306,
      "nextDialogs": [
        690980307
      ],
      "talkRole": {
        "type": "TALK_ROLE_NPC",
        "_id": "9098"
      },
      "talkContentTextMapHash": 3912962210,
      "talkAssetPath": "",
      "talkAssetPathAlter": "",
      "talkAudioName": "",
      "actionBefore": "",
      "actionWhile": "",
      "actionAfter": "",
      "optionIcon": "",
      "iconPath": ""
    },
    {
      "id": 690980307,
      "nextDialogs": [
        690980308
      ],
      "talkRole": {
        "type": "TALK_ROLE_NPC",
        "_id": "9098"
      },
      "talkContentTextMapHash": 1331388274,
      "talkAssetPath": "",
      "talkAssetPathAlter": "",
      "talkAudioName": "",
      "actionBefore": "",
      "actionWhile": "",
      "actionAfter": "",
      "optionIcon": "",
      "iconPath": ""
    },
    {
      "id": 690980308,
      "nextDialogs": [
        690980309
      ],
      "talkRole": {
        "type": "TALK_ROLE_NPC",
        "_id": "9098"
      },
      "talkContentTextMapHash": 1688597954,
      "talkAssetPath": "",
      "talkAssetPathAlter": "",
      "talkAudioName": "",
      "actionBefore": "",
      "actionWhile": "",
      "actionAfter": "",
      "optionIcon": "",
      "iconPath": ""
    },
    {
      "id": 690980309,
      "nextDialogs": [
        690980310
      ],
      "talkRole": {
        "type": "TALK_ROLE_NPC",
        "_id": "9098"
      },
      "talkContentTextMapHash": 4344010,
      "talkAssetPath": "",
      "talkAssetPathAlter": "",
      "talkAudioName": "",
      "actionBefore": "",
      "actionWhile": "",
      "actionAfter": "",
      "optionIcon": "",
      "iconPath": ""
    },
    {
      "id": 690980310,
      "nextDialogs": [
        690980311
      ],
      "talkRole": {
        "type": "TALK_ROLE_NPC",
        "_id": "9098"
      },
      "talkContentTextMapHash": 210354202,
      "talkAssetPath": "",
      "talkAssetPathAlter": "",
      "talkAudioName": "",
      "actionBefore": "",
      "actionWhile": "",
      "actionAfter": "",
      "optionIcon": "",
      "iconPath": ""
    },
    {
      "id": 690980311,
      "nextDialogs": [
        690980312
      ],
      "talkRole": {
        "type": "TALK_ROLE_NPC",
        "_id": "9098"
      },
      "talkContentTextMapHash": 4062259202,
      "talkAssetPath": "",
      "talkAssetPathAlter": "",
      "talkAudioName": "",
      "actionBefore": "",
      "actionWhile": "",
      "actionAfter": "",
      "optionIcon": "",
      "iconPath": ""
    },
    {
      "id": 690980312,
      "nextDialogs": [
        690980313
      ],
      "talkRole": {
        "type": "TALK_ROLE_NPC",
        "_id": "9098"
      },
      "talkContentTextMapHash": 909630634,
      "talkAssetPath": "",
      "talkAssetPathAlter": "",
      "talkAudioName": "",
      "actionBefore": "",
      "actionWhile": "",
      "actionAfter": "",
      "optionIcon": "",
      "iconPath": ""
    },
    {
      "id": 690980313,
      "nextDialogs": [
        690980314
      ],
      "talkRole": {
        "type": "TALK_ROLE_NPC",
        "_id": "9098"
      },
      "talkContentTextMapHash": 1266482370,
      "talkAssetPath": "",
      "talkAssetPathAlter": "",
      "talkAudioName": "",
      "actionBefore": "",
      "actionWhile": "",
      "actionAfter": "",
      "optionIcon": "",
      "iconPath": ""
    },
    {
      "id": 690980314,
      "talkRole": {
        "type": "TALK_ROLE_NPC",
        "_id": "9098"
      },
      "talkContentTextMapHash": 778142442,
      "talkAssetPath": "",
      "talkAssetPathAlter": "",
      "talkAudioName": "",
      "actionBefore": "",
      "actionWhile": "",
      "actionAfter": "",
      "optionIcon": "",
      "iconPath": ""
    },
    {
      "id": 690980315,
      "nextDialogs": [
        690980316
      ],
      "talkShowType": "TALK_SHOW_FORCE_SELECT",
      "talkRole": {
        "type": "TALK_ROLE_PLAYER",
        "_id": ""
      },
      "talkContentTextMapHash": 2265772594,
      "talkAssetPath": "",
      "talkAssetPathAlter": "",
      "talkAudioName": "",
      "actionBefore": "",
      "actionWhile": "",
      "actionAfter": "",
      "optionIcon": "",
      "iconPath": ""
    },
    {
      "id": 690980316,
      "nextDialogs": [
        690980317
      ],
      "talkRole": {
        "type": "TALK_ROLE_NPC",
        "_id": "9098"
      },
      "talkContentTextMapHash": 4022024050,
      "talkAssetPath": "",
      "talkAssetPathAlter": "",
      "talkAudioName": "",
      "actionBefore": "",
      "actionWhile": "",
      "actionAfter": "",
      "optionIcon": "",
      "iconPath": ""
    },
    {
      "id": 690980317,
      "nextDialogs": [
        690980318
      ],
      "talkRole": {
        "type": "TALK_ROLE_NPC",
        "_id": "9098"
      },
      "talkContentTextMapHash": 3436744194,
      "talkAssetPath": "",
      "talkAssetPathAlter": "",
      "talkAudioName": "",
      "actionBefore": "",
      "actionWhile": "",
      "actionAfter": "",
      "optionIcon": "",
      "iconPath": ""
    },
    {
      "id": 690980318,
      "nextDialogs": [
        690980319
      ],
      "talkRole": {
        "type": "TALK_ROLE_NPC",
        "_id": "9098"
      },
      "talkContentTextMapHash": 1316860442,
      "talkAssetPath": "",
      "talkAssetPathAlter": "",
      "talkAudioName": "",
      "actionBefore": "",
      "actionWhile": "",
      "actionAfter": "",
      "optionIcon": "",
      "iconPath": ""
    },
    {
      "id": 690980319,
      "nextDialogs": [
        690980320
      ],
      "talkRole": {
        "type": "TALK_ROLE_NPC",
        "_id": "9098"
      },
      "talkContentTextMapHash": 184151730,
      "talkAssetPath": "",
      "talkAssetPathAlter": "",
      "talkAudioName": "",
      "actionBefore": "",
      "actionWhile": "",
      "actionAfter": "",
      "optionIcon": "",
      "iconPath": ""
    },
    {
      "id": 690980320,
      "nextDialogs": [
        690980321
      ],
      "talkRole": {
        "type": "TALK_ROLE_NPC",
        "_id": "9098"
      },
      "talkContentTextMapHash": 2821393266,
      "talkAssetPath": "",
      "talkAssetPathAlter": "",
      "talkAudioName": "",
      "actionBefore": "",
      "actionWhile": "",
      "actionAfter": "",
      "optionIcon": "",
      "iconPath": ""
    },
    {
      "id": 690980321,
      "talkRole": {
        "type": "TALK_ROLE_NPC",
        "_id": "9098"
      },
      "talkContentTextMapHash": 3538816618,
      "talkAssetPath": "",
      "talkAssetPathAlter": "",
      "talkAudioName": "",
      "actionBefore": "",
      "actionWhile": "",
      "actionAfter": "",
      "optionIcon": "",
      "iconPath": ""
    }
  ]
}