{
  "talkId": 4003727,
  "KPGKDHAFHFE": "FREE",
  "dialogList": [
    {
      "id": 400372701,
      "nextDialogs": [
        400372702
      ],
      "talkRole": {
        "type": "TALK_ROLE_NPC",
        "_id": "2004"
      },
      "talkContentTextMapHash": 1696657842,
      "talkAssetPath": "",
      "talkAssetPathAlter": "",
      "talkAudioName": "",
      "actionBefore": "",
      "actionWhile": "",
      "actionAfter": "",
      "optionIcon": "",
      "iconPath": ""
    },
    {
      "id": 400372702,
      "nextDialogs": [
        400372703
      ],
      "talkRole": {
        "type": "TALK_ROLE_NPC",
        "_id": "2004"
      },
      "talkContentTextMapHash": 1417805602,
      "talkAssetPath": "",
      "talkAssetPathAlter": "",
      "talkAudioName": "",
      "actionBefore": "",
      "actionWhile": "",
      "actionAfter": "",
      "optionIcon": "",
      "iconPath": ""
    },
    {
      "id": 400372703,
      "talkRole": {
        "type": "TALK_ROLE_NPC",
        "_id": "2004"
      },
      "talkContentTextMapHash": 1563696962,
      "talkAssetPath": "",
      "talkAssetPathAlter": "",
      "talkAudioName": "",
      "actionBefore": "",
      "actionWhile": "",
      "actionAfter": "",
      "optionIcon": "",
      "iconPath": ""
    }
  ]
}