{
  "talkId": 4006352,
  "KPGKDHAFHFE": "FREE",
  "dialogList": [
    {
      "id": 400635201,
      "talkRole": {
        "type": "TALK_ROLE_NPC",
        "_id": "30179"
      },
      "talkContentTextMapHash": 1156954698,
      "talkRoleNameTextMapHash": 2347151707,
      "talkAssetPath": "",
      "talkAssetPathAlter": "",
      "talkAudioName": "",
      "actionBefore": "",
      "actionWhile": "",
      "actionAfter": "",
      "optionIcon": "",
      "iconPath": ""
    }
  ]
}