{
  "talkId": 4006347,
  "KPGKDHAFHFE": "FREE",
  "dialogList": [
    {
      "id": 400634701,
      "nextDialogs": [
        400634702
      ],
      "talkRole": {
        "type": "TALK_ROLE_NPC",
        "_id": "30176"
      },
      "talkContentTextMapHash": 4009341226,
      "talkAssetPath": "",
      "talkAssetPathAlter": "",
      "talkAudioName": "",
      "actionBefore": "",
      "actionWhile": "",
      "actionAfter": "",
      "optionIcon": "",
      "iconPath": ""
    },
    {
      "id": 400634702,
      "nextDialogs": [
        400634703
      ],
      "talkRole": {
        "type": "TALK_ROLE_NPC",
        "_id": "30176"
      },
      "talkContentTextMapHash": 3295452506,
      "talkAssetPath": "",
      "talkAssetPathAlter": "",
      "talkAudioName": "",
      "actionBefore": "",
      "actionWhile": "",
      "actionAfter": "",
      "optionIcon": "",
      "iconPath": ""
    },
    {
      "id": 400634703,
      "talkRole": {
        "type": "TALK_ROLE_NPC",
        "_id": "30176"
      },
      "talkContentTextMapHash": 3757740386,
      "talkAssetPath": "",
      "talkAssetPathAlter": "",
      "talkAudioName": "",
      "actionBefore": "",
      "actionWhile": "",
      "actionAfter": "",
      "optionIcon": "",
      "iconPath": ""
    }
  ]
}