{
  "talkId": 4006351,
  "KPGKDHAFHFE": "FREE",
  "dialogList": [
    {
      "id": 400635101,
      "nextDialogs": [
        400635102
      ],
      "talkRole": {
        "type": "TALK_ROLE_NPC",
        "_id": "30178"
      },
      "talkContentTextMapHash": 2773392122,
      "talkAssetPath": "",
      "talkAssetPathAlter": "",
      "talkAudioName": "",
      "actionBefore": "",
      "actionWhile": "",
      "actionAfter": "",
      "optionIcon": "",
      "iconPath": ""
    },
    {
      "id": 400635102,
      "nextDialogs": [
        400635103
      ],
      "talkRole": {
        "type": "TALK_ROLE_NPC",
        "_id": "30178"
      },
      "talkContentTextMapHash": 1817845330,
      "talkAssetPath": "",
      "talkAssetPathAlter": "",
      "talkAudioName": "",
      "actionBefore": "",
      "actionWhile": "",
      "actionAfter": "",
      "optionIcon": "",
      "iconPath": ""
    },
    {
      "id": 400635103,
      "talkRole": {
        "type": "TALK_ROLE_NPC",
        "_id": "30178"
      },
      "talkContentTextMapHash": 1450349362,
      "talkAssetPath": "",
      "talkAssetPathAlter": "",
      "talkAudioName": "",
      "actionBefore": "",
      "actionWhile": "",
      "actionAfter": "",
      "optionIcon": "",
      "iconPath": ""
    }
  ]
}