{
  "talkId": 4006361,
  "KPGKDHAFHFE": "FREE",
  "dialogList": [
    {
      "id": 400636101,
      "nextDialogs": [
        400636102
      ],
      "talkRole": {
        "type": "TALK_ROLE_NPC",
        "_id": "3078"
      },
      "talkContentTextMapHash": 1180500042,
      "talkAssetPath": "",
      "talkAssetPathAlter": "",
      "talkAudioName": "",
      "actionBefore": "",
      "actionWhile": "",
      "actionAfter": "",
      "optionIcon": "",
      "iconPath": ""
    },
    {
      "id": 400636102,
      "talkRole": {
        "type": "TALK_ROLE_NPC",
        "_id": "3078"
      },
      "talkContentTextMapHash": 760214322,
      "talkAssetPath": "",
      "talkAssetPathAlter": "",
      "talkAudioName": "",
      "actionBefore": "",
      "actionWhile": "",
      "actionAfter": "",
      "optionIcon": "",
      "iconPath": ""
    }
  ]
}