{
  "talkId": 4006330,
  "KPGKDHAFHFE": "FREE",
  "dialogList": [
    {
      "id": 400633001,
      "nextDialogs": [
        400633002
      ],
      "talkShowType": "TALK_SHOW_FORCE_SELECT",
      "talkRole": {
        "type": "TALK_ROLE_PLAYER",
        "_id": ""
      },
      "talkContentTextMapHash": 160115530,
      "talkAssetPath": "",
      "talkAssetPathAlter": "",
      "talkAudioName": "",
      "actionBefore": "",
      "actionWhile": "",
      "actionAfter": "",
      "optionIcon": "",
      "iconPath": ""
    },
    {
      "id": 400633002,
      "nextDialogs": [
        400633003
      ],
      "talkRole": {
        "type": "TALK_ROLE_NPC",
        "_id": "30139"
      },
      "talkContentTextMapHash": 4055520394,
      "talkAssetPath": "",
      "talkAssetPathAlter": "",
      "talkAudioName": "",
      "actionBefore": "",
      "actionWhile": "",
      "actionAfter": "",
      "optionIcon": "",
      "iconPath": ""
    },
    {
      "id": 400633003,
      "nextDialogs": [
        400633004
      ],
      "talkRole": {
        "type": "TALK_ROLE_NPC",
        "_id": "30139"
      },
      "talkContentTextMapHash": 1544935730,
      "talkAssetPath": "",
      "talkAssetPathAlter": "",
      "talkAudioName": "",
      "actionBefore": "",
      "actionWhile": "",
      "actionAfter": "",
      "optionIcon": "",
      "iconPath": ""
    },
    {
      "id": 400633004,
      "talkRole": {
        "type": "TALK_ROLE_NPC",
        "_id": "30139"
      },
      "talkContentTextMapHash": 2056031074,
      "talkAssetPath": "",
      "talkAssetPathAlter": "",
      "talkAudioName": "",
      "actionBefore": "",
      "actionWhile": "",
      "actionAfter": "",
      "optionIcon": "",
      "iconPath": ""
    }
  ]
}