{
  "talkId": 4008129,
  "KPGKDHAFHFE": "FREE",
  "dialogList": [
    {
      "id": 400812901,
      "nextDialogs": [
        400812902
      ],
      "talkShowType": "TALK_SHOW_FORCE_SELECT",
      "talkRole": {
        "type": "TALK_ROLE_PLAYER",
        "_id": ""
      },
      "talkContentTextMapHash": 2154301498,
      "talkAssetPath": "",
      "talkAssetPathAlter": "",
      "talkAudioName": "",
      "actionBefore": "",
      "actionWhile": "",
      "actionAfter": "",
      "optionIcon": "",
      "iconPath": ""
    },
    {
      "id": 400812902,
      "nextDialogs": [
        400812903
      ],
      "talkRole": {
        "type": "TALK_ROLE_NPC",
        "_id": "30253"
      },
      "talkContentTextMapHash": 2239184178,
      "talkAssetPath": "",
      "talkAssetPathAlter": "",
      "talkAudioName": "",
      "actionBefore": "",
      "actionWhile": "",
      "actionAfter": "",
      "optionIcon": "",
      "iconPath": ""
    },
    {
      "id": 400812903,
      "nextDialogs": [
        400812904
      ],
      "talkRole": {
        "type": "TALK_ROLE_NPC",
        "_id": "30253"
      },
      "talkContentTextMapHash": 1041067194,
      "talkAssetPath": "",
      "talkAssetPathAlter": "",
      "talkAudioName": "",
      "actionBefore": "",
      "actionWhile": "",
      "actionAfter": "",
      "optionIcon": "",
      "iconPath": ""
    },
    {
      "id": 400812904,
      "nextDialogs": [
        400812905
      ],
      "talkRole": {
        "type": "TALK_ROLE_NPC",
        "_id": "30253"
      },
      "talkContentTextMapHash": 1295213914,
      "talkAssetPath": "",
      "talkAssetPathAlter": "",
      "talkAudioName": "",
      "actionBefore": "",
      "actionWhile": "",
      "actionAfter": "",
      "optionIcon": "",
      "iconPath": ""
    },
    {
      "id": 400812905,
      "nextDialogs": [
        400812906
      ],
      "talkShowType": "TALK_SHOW_FORCE_SELECT",
      "talkRole": {
        "type": "TALK_ROLE_PLAYER",
        "_id": ""
      },
      "talkContentTextMapHash": 1580868002,
      "talkAssetPath": "",
      "talkAssetPathAlter": "",
      "talkAudioName": "",
      "actionBefore": "",
      "actionWhile": "",
      "actionAfter": "",
      "optionIcon": "",
      "iconPath": ""
    },
    {
      "id": 400812906,
      "nextDialogs": [
        400812907
      ],
      "talkRole": {
        "type": "TALK_ROLE_NPC",
        "_id": "1005"
      },
      "talkContentTextMapHash": 2167894386,
      "talkAssetPath": "",
      "talkAssetPathAlter": "",
      "talkAudioName": "",
      "actionBefore": "",
      "actionWhile": "",
      "actionAfter": "",
      "optionIcon": "",
      "iconPath": ""
    },
    {
      "id": 400812907,
      "nextDialogs": [
        400812908
      ],
      "talkRole": {
        "type": "TALK_ROLE_NPC",
        "_id": "30253"
      },
      "talkContentTextMapHash": 1608444306,
      "talkAssetPath": "",
      "talkAssetPathAlter": "",
      "talkAudioName": "",
      "actionBefore": "",
      "actionWhile": "",
      "actionAfter": "",
      "optionIcon": "",
      "iconPath": ""
    },
    {
      "id": 400812908,
      "nextDialogs": [
        400812909
      ],
      "talkRole": {
        "type": "TALK_ROLE_NPC",
        "_id": "30253"
      },
      "talkContentTextMapHash": 1012863338,
      "talkAssetPath": "",
      "talkAssetPathAlter": "",
      "talkAudioName": "",
      "actionBefore": "",
      "actionWhile": "",
      "actionAfter": "",
      "optionIcon": "",
      "iconPath": ""
    },
    {
      "id": 400812909,
      "nextDialogs": [
        400812910
      ],
      "talkRole": {
        "type": "TALK_ROLE_NPC",
        "_id": "1005"
      },
      "talkContentTextMapHash": 1707874794,
      "talkAssetPath": "",
      "talkAssetPathAlter": "",
      "talkAudioName": "",
      "actionBefore": "",
      "actionWhile": "",
      "actionAfter": "",
      "optionIcon": "",
      "iconPath": ""
    },
    {
      "id": 400812910,
      "nextDialogs": [
        400812911
      ],
      "talkRole": {
        "type": "TALK_ROLE_NPC",
        "_id": "30253"
      },
      "talkContentTextMapHash": 3965201954,
      "talkAssetPath": "",
      "talkAssetPathAlter": "",
      "talkAudioName": "",
      "actionBefore": "",
      "actionWhile": "",
      "actionAfter": "",
      "optionIcon": "",
      "iconPath": ""
    },
    {
      "id": 400812911,
      "nextDialogs": [
        400812912
      ],
      "talkRole": {
        "type": "TALK_ROLE_NPC",
        "_id": "30253"
      },
      "talkContentTextMapHash": 581150146,
      "talkAssetPath": "",
      "talkAssetPathAlter": "",
      "talkAudioName": "",
      "actionBefore": "",
      "actionWhile": "",
      "actionAfter": "",
      "optionIcon": "",
      "iconPath": ""
    },
    {
      "id": 400812912,
      "nextDialogs": [
        400812913
      ],
      "talkRole": {
        "type": "TALK_ROLE_NPC",
        "_id": "1005"
      },
      "talkContentTextMapHash": 3916838130,
      "talkAssetPath": "",
      "talkAssetPathAlter": "",
      "talkAudioName": "",
      "actionBefore": "",
      "actionWhile": "",
      "actionAfter": "",
      "optionIcon": "",
      "iconPath": ""
    },
    {
      "id": 400812913,
      "nextDialogs": [
        400812914
      ],
      "talkRole": {
        "type": "TALK_ROLE_NPC",
        "_id": "30253"
      },
      "talkContentTextMapHash": 2893874506,
      "talkAssetPath": "",
      "talkAssetPathAlter": "",
      "talkAudioName": "",
      "actionBefore": "",
      "actionWhile": "",
      "actionAfter": "",
      "optionIcon": "",
      "iconPath": ""
    },
    {
      "id": 400812914,
      "talkRole": {
        "type": "TALK_ROLE_NPC",
        "_id": "30253"
      },
      "talkContentTextMapHash": 3194261106,
      "talkAssetPath": "",
      "talkAssetPathAlter": "",
      "talkAudioName": "",
      "actionBefore": "",
      "actionWhile": "",
      "actionAfter": "",
      "optionIcon": "",
      "iconPath": ""
    }
  ]
}