{
  "talkId": 4008157,
  "KPGKDHAFHFE": "FREE",
  "dialogList": [
    {
      "id": 400815701,
      "nextDialogs": [
        400815702,
        400815706,
        400815710,
        400815713
      ],
      "talkRole": {
        "type": "TALK_ROLE_NPC",
        "_id": "13060"
      },
      "talkContentTextMapHash": 1806327346,
      "talkAssetPath": "",
      "talkAssetPathAlter": "",
      "talkAudioName": "",
      "actionBefore": "SimpleTalk/PaimonInTalk_Start",
      "actionWhile": "",
      "actionAfter": "",
      "optionIcon": "",
      "iconPath": ""
    },
    {
      "id": 400815702,
      "nextDialogs": [
        400815703
      ],
      "talkShowType": "TALK_SHOW_FORCE_SELECT",
      "talkRole": {
        "type": "TALK_ROLE_PLAYER",
        "_id": ""
      },
      "talkContentTextMapHash": 732932138,
      "talkAssetPath": "",
      "talkAssetPathAlter": "",
      "talkAudioName": "",
      "actionBefore": "",
      "actionWhile": "",
      "actionAfter": "",
      "optionIcon": "",
      "iconPath": ""
    },
    {
      "id": 400815703,
      "nextDialogs": [
        400815704
      ],
      "talkRole": {
        "type": "TALK_ROLE_NPC",
        "_id": "13060"
      },
      "talkContentTextMapHash": 1796842530,
      "talkAssetPath": "",
      "talkAssetPathAlter": "",
      "talkAudioName": "",
      "actionBefore": "",
      "actionWhile": "",
      "actionAfter": "",
      "optionIcon": "",
      "iconPath": ""
    },
    {
      "id": 400815704,
      "nextDialogs": [
        400815705
      ],
      "talkRole": {
        "type": "TALK_ROLE_NPC",
        "_id": "13060"
      },
      "talkContentTextMapHash": 2782656714,
      "talkAssetPath": "",
      "talkAssetPathAlter": "",
      "talkAudioName": "",
      "actionBefore": "",
      "actionWhile": "",
      "actionAfter": "",
      "optionIcon": "",
      "iconPath": ""
    },
    {
      "id": 400815705,
      "talkRole": {
        "type": "TALK_ROLE_NPC",
        "_id": "13060"
      },
      "talkContentTextMapHash": 2597165306,
      "talkAssetPath": "",
      "talkAssetPathAlter": "",
      "talkAudioName": "",
      "actionBefore": "",
      "actionWhile": "",
      "actionAfter": "",
      "optionIcon": "",
      "iconPath": ""
    },
    {
      "id": 400815706,
      "nextDialogs": [
        400815707
      ],
      "talkShowType": "TALK_SHOW_FORCE_SELECT",
      "talkRole": {
        "type": "TALK_ROLE_PLAYER",
        "_id": ""
      },
      "talkContentTextMapHash": 1443277930,
      "talkAssetPath": "",
      "talkAssetPathAlter": "",
      "talkAudioName": "",
      "actionBefore": "",
      "actionWhile": "",
      "actionAfter": "",
      "optionIcon": "",
      "iconPath": ""
    },
    {
      "id": 400815707,
      "nextDialogs": [
        400815708
      ],
      "talkRole": {
        "type": "TALK_ROLE_NPC",
        "_id": "13060"
      },
      "talkContentTextMapHash": 2439291170,
      "talkAssetPath": "",
      "talkAssetPathAlter": "",
      "talkAudioName": "",
      "actionBefore": "",
      "actionWhile": "",
      "actionAfter": "",
      "optionIcon": "",
      "iconPath": ""
    },
    {
      "id": 400815708,
      "nextDialogs": [
        400815709
      ],
      "talkRole": {
        "type": "TALK_ROLE_NPC",
        "_id": "13060"
      },
      "talkContentTextMapHash": 1666591978,
      "talkAssetPath": "",
      "talkAssetPathAlter": "",
      "talkAudioName": "",
      "actionBefore": "",
      "actionWhile": "",
      "actionAfter": "",
      "optionIcon": "",
      "iconPath": ""
    },
    {
      "id": 400815709,
      "talkRole": {
        "type": "TALK_ROLE_NPC",
        "_id": "13060"
      },
      "talkContentTextMapHash": 480161426,
      "talkAssetPath": "",
      "talkAssetPathAlter": "",
      "talkAudioName": "",
      "actionBefore": "",
      "actionWhile": "",
      "actionAfter": "",
      "optionIcon": "",
      "iconPath": ""
    },
    {
      "id": 400815710,
      "nextDialogs": [
        400815711
      ],
      "talkShowType": "TALK_SHOW_FORCE_SELECT",
      "talkRole": {
        "type": "TALK_ROLE_PLAYER",
        "_id": ""
      },
      "talkContentTextMapHash": 1799804354,
      "talkAssetPath": "",
      "talkAssetPathAlter": "",
      "talkAudioName": "",
      "actionBefore": "",
      "actionWhile": "",
      "actionAfter": "",
      "optionIcon": "",
      "iconPath": ""
    },
    {
      "id": 400815711,
      "nextDialogs": [
        400815712
      ],
      "talkRole": {
        "type": "TALK_ROLE_NPC",
        "_id": "13060"
      },
      "talkContentTextMapHash": 3963970114,
      "talkAssetPath": "",
      "talkAssetPathAlter": "",
      "talkAudioName": "",
      "actionBefore": "",
      "actionWhile": "",
      "actionAfter": "",
      "optionIcon": "",
      "iconPath": ""
    },
    {
      "id": 400815712,
      "talkRole": {
        "type": "TALK_ROLE_NPC",
        "_id": "13060"
      },
      "talkContentTextMapHash": 4217840114,
      "talkAssetPath": "",
      "talkAssetPathAlter": "",
      "talkAudioName": "",
      "actionBefore": "",
      "actionWhile": "",
      "actionAfter": "",
      "optionIcon": "",
      "iconPath": ""
    },
    {
      "id": 400815713,
      "talkShowType": "TALK_SHOW_FORCE_SELECT",
      "talkRole": {
        "type": "TALK_ROLE_PLAYER",
        "_id": ""
      },
      "talkContentTextMapHash": 769136402,
      "talkAssetPath": "",
      "talkAssetPathAlter": "",
      "talkAudioName": "",
      "actionBefore": "",
      "actionWhile": "",
      "actionAfter": "",
      "optionIcon": "",
      "iconPath": ""
    }
  ]
}