{
  "talkId": 4009501,
  "KPGKDHAFHFE": "FREE",
  "dialogList": [
    {
      "id": 400950101,
      "nextDialogs": [
        400950102
      ],
      "talkShowType": "TALK_SHOW_FORCE_SELECT",
      "talkRole": {
        "type": "TALK_ROLE_PLAYER",
        "_id": ""
      },
      "talkContentTextMapHash": 97084218,
      "talkAssetPath": "",
      "talkAssetPathAlter": "",
      "talkAudioName": "",
      "actionBefore": "",
      "actionWhile": "",
      "actionAfter": "",
      "optionIcon": "UI_Icon_Intee_FungusFighter",
      "iconPath": ""
    },
    {
      "id": 400950102,
      "talkRole": {
        "type": "TALK_ROLE_NPC",
        "_id": "30253"
      },
      "talkContentTextMapHash": 307596082,
      "talkAssetPath": "",
      "talkAssetPathAlter": "",
      "talkAudioName": "",
      "actionBefore": "",
      "actionWhile": "",
      "actionAfter": "UI/open_FungusCultivate",
      "optionIcon": "",
      "iconPath": ""
    }
  ]
}