{
  "talkId": 40152,
  "KPGKDHAFHFE": "FREE",
  "dialogList": [
    {
      "id": 4015140401,
      "nextDialogs": [
        4015140402
      ],
      "talkRole": {
        "type": "TALK_ROLE_NPC",
        "_id": "1404"
      },
      "talkContentTextMapHash": 4121535799,
      "talkAssetPath": "",
      "talkAssetPathAlter": "",
      "talkAudioName": "",
      "actionBefore": "",
      "actionWhile": "TEST/LerpInNpcNoSteer",
      "actionAfter": "",
      "optionIcon": "",
      "iconPath": ""
    },
    {
      "id": 4015140402,
      "nextDialogs": [
        4015140403,
        4015140404,
        4015140406
      ],
      "talkRole": {
        "type": "TALK_ROLE_NPC",
        "_id": "1404"
      },
      "talkContentTextMapHash": 4212908439,
      "talkAssetPath": "",
      "talkAssetPathAlter": "",
      "talkAudioName": "",
      "actionBefore": "",
      "actionWhile": "",
      "actionAfter": "",
      "optionIcon": "",
      "iconPath": ""
    },
    {
      "id": 4015140403,
      "nextDialogs": [
        4015140407
      ],
      "talkRole": {
        "type": "TALK_ROLE_PLAYER",
        "_id": ""
      },
      "talkContentTextMapHash": 3751590295,
      "talkAssetPath": "",
      "talkAssetPathAlter": "",
      "talkAudioName": "",
      "actionBefore": "",
      "actionWhile": "",
      "actionAfter": "",
      "optionIcon": "",
      "iconPath": ""
    },
    {
      "id": 4015140407,
      "nextDialogs": [
        4015140408
      ],
      "talkRole": {
        "type": "TALK_ROLE_NPC",
        "_id": "1404"
      },
      "talkContentTextMapHash": 821555903,
      "talkAssetPath": "",
      "talkAssetPathAlter": "",
      "talkAudioName": "",
      "actionBefore": "",
      "actionWhile": "",
      "actionAfter": "",
      "optionIcon": "",
      "iconPath": ""
    },
    {
      "id": 4015140408,
      "nextDialogs": [
        4015140409
      ],
      "talkRole": {
        "type": "TALK_ROLE_NPC",
        "_id": "1404"
      },
      "talkContentTextMapHash": 3650406591,
      "talkAssetPath": "",
      "talkAssetPathAlter": "",
      "talkAudioName": "",
      "actionBefore": "",
      "actionWhile": "",
      "actionAfter": "",
      "optionIcon": "",
      "iconPath": ""
    },
    {
      "id": 4015140409,
      "nextDialogs": [
        4015140410
      ],
      "talkRole": {
        "type": "TALK_ROLE_NPC",
        "_id": "1404"
      },
      "talkContentTextMapHash": 636362039,
      "talkAssetPath": "",
      "talkAssetPathAlter": "",
      "talkAudioName": "",
      "actionBefore": "",
      "actionWhile": "",
      "actionAfter": "",
      "optionIcon": "",
      "iconPath": ""
    },
    {
      "id": 4015140410,
      "nextDialogs": [
        4015140411
      ],
      "talkRole": {
        "type": "TALK_ROLE_NPC",
        "_id": "1404"
      },
      "talkContentTextMapHash": 1164405527,
      "talkAssetPath": "",
      "talkAssetPathAlter": "",
      "talkAudioName": "",
      "actionBefore": "",
      "actionWhile": "",
      "actionAfter": "",
      "optionIcon": "",
      "iconPath": ""
    },
    {
      "id": 4015140411,
      "nextDialogs": [
        4015140405
      ],
      "talkRole": {
        "type": "TALK_ROLE_NPC",
        "_id": "1404"
      },
      "talkContentTextMapHash": 694977103,
      "talkAssetPath": "",
      "talkAssetPathAlter": "",
      "talkAudioName": "",
      "actionBefore": "",
      "actionWhile": "",
      "actionAfter": "",
      "optionIcon": "",
      "iconPath": ""
    },
    {
      "id": 4015140405,
      "nextDialogs": [
        4015140417
      ],
      "talkShowType": "TALK_SHOW_FORCE_SELECT",
      "talkRole": {
        "type": "TALK_ROLE_PLAYER",
        "_id": ""
      },
      "talkContentTextMapHash": 426642919,
      "talkAssetPath": "",
      "talkAssetPathAlter": "",
      "talkAudioName": "",
      "actionBefore": "",
      "actionWhile": "",
      "actionAfter": "",
      "optionIcon": "",
      "iconPath": ""
    },
    {
      "id": 4015140417,
      "nextDialogs": [
        4015140418
      ],
      "talkRole": {
        "type": "TALK_ROLE_NPC",
        "_id": "1404"
      },
      "talkContentTextMapHash": 1802026895,
      "talkAssetPath": "",
      "talkAssetPathAlter": "",
      "talkAudioName": "",
      "actionBefore": "",
      "actionWhile": "",
      "actionAfter": "",
      "optionIcon": "",
      "iconPath": ""
    },
    {
      "id": 4015140418,
      "talkRole": {
        "type": "TALK_ROLE_NPC",
        "_id": "1404"
      },
      "talkContentTextMapHash": 2898956855,
      "talkAssetPath": "",
      "talkAssetPathAlter": "",
      "talkAudioName": "",
      "actionBefore": "",
      "actionWhile": "",
      "actionAfter": "TEST/LerpOutNpcNoSteer",
      "optionIcon": "",
      "iconPath": ""
    },
    {
      "id": 4015140404,
      "nextDialogs": [
        4015140412
      ],
      "talkRole": {
        "type": "TALK_ROLE_PLAYER",
        "_id": ""
      },
      "talkContentTextMapHash": 730755695,
      "talkAssetPath": "",
      "talkAssetPathAlter": "",
      "talkAudioName": "",
      "actionBefore": "",
      "actionWhile": "",
      "actionAfter": "",
      "optionIcon": "",
      "iconPath": ""
    },
    {
      "id": 4015140412,
      "nextDialogs": [
        4015140413
      ],
      "talkRole": {
        "type": "TALK_ROLE_NPC",
        "_id": "1404"
      },
      "talkContentTextMapHash": 3575935935,
      "talkAssetPath": "",
      "talkAssetPathAlter": "",
      "talkAudioName": "",
      "actionBefore": "",
      "actionWhile": "",
      "actionAfter": "",
      "optionIcon": "",
      "iconPath": ""
    },
    {
      "id": 4015140413,
      "nextDialogs": [
        4015140414
      ],
      "talkRole": {
        "type": "TALK_ROLE_NPC",
        "_id": "1404"
      },
      "talkContentTextMapHash": 2694488527,
      "talkAssetPath": "",
      "talkAssetPathAlter": "",
      "talkAudioName": "",
      "actionBefore": "",
      "actionWhile": "",
      "actionAfter": "",
      "optionIcon": "",
      "iconPath": ""
    },
    {
      "id": 4015140414,
      "nextDialogs": [
        4015140415
      ],
      "talkRole": {
        "type": "TALK_ROLE_NPC",
        "_id": "1404"
      },
      "talkContentTextMapHash": 3528181623,
      "talkAssetPath": "",
      "talkAssetPathAlter": "",
      "talkAudioName": "",
      "actionBefore": "",
      "actionWhile": "",
      "actionAfter": "",
      "optionIcon": "",
      "iconPath": ""
    },
    {
      "id": 4015140415,
      "nextDialogs": [
        4015140416
      ],
      "talkRole": {
        "type": "TALK_ROLE_NPC",
        "_id": "1404"
      },
      "talkContentTextMapHash": 694376047,
      "talkAssetPath": "",
      "talkAssetPathAlter": "",
      "talkAudioName": "",
      "actionBefore": "",
      "actionWhile": "",
      "actionAfter": "",
      "optionIcon": "",
      "iconPath": ""
    },
    {
      "id": 4015140416,
      "talkRole": {
        "type": "TALK_ROLE_NPC",
        "_id": "1404"
      },
      "talkContentTextMapHash": 213303343,
      "talkAssetPath": "",
      "talkAssetPathAlter": "",
      "talkAudioName": "",
      "actionBefore": "",
      "actionWhile": "",
      "actionAfter": "TEST/LerpOutNpcNoSteer",
      "optionIcon": "",
      "iconPath": ""
    },
    {
      "id": 4015140406,
      "nextDialogs": [
        4015140419
      ],
      "talkRole": {
        "type": "TALK_ROLE_NPC",
        "_id": "1404"
      },
      "talkContentTextMapHash": 1873268415,
      "talkAssetPath": "",
      "talkAssetPathAlter": "",
      "talkAudioName": "",
      "actionBefore": "",
      "actionWhile": "",
      "actionAfter": "",
      "optionIcon": "",
      "iconPath": ""
    },
    {
      "id": 4015140419,
      "talkRole": {
        "type": "TALK_ROLE_NPC",
        "_id": "1404"
      },
      "talkContentTextMapHash": 854025975,
      "talkAssetPath": "",
      "talkAssetPathAlter": "",
      "talkAudioName": "",
      "actionBefore": "",
      "actionWhile": "",
      "actionAfter": "TEST/LerpOutNpcNoSteer",
      "optionIcon": "",
      "iconPath": ""
    }
  ]
}