{
  "talkId": 40165,
  "KPGKDHAFHFE": "FREE",
  "dialogList": [
    {
      "id": 4015142351,
      "talkRole": {
        "type": "TALK_ROLE_NPC",
        "_id": "1423"
      },
      "talkContentTextMapHash": 2034077487,
      "talkAssetPath": "",
      "talkAssetPathAlter": "",
      "talkAudioName": "",
      "actionBefore": "",
      "actionWhile": "TEST/LerpInNpc",
      "actionAfter": "",
      "optionIcon": "",
      "iconPath": ""
    }
  ]
}