{
  "talkId": 40162,
  "KPGKDHAFHFE": "FREE",
  "dialogList": [
    {
      "id": 4015141701,
      "talkRole": {
        "type": "TALK_ROLE_NPC",
        "_id": "1417"
      },
      "talkContentTextMapHash": 1944956663,
      "talkAssetPath": "",
      "talkAssetPathAlter": "",
      "talkAudioName": "",
      "actionBefore": "",
      "actionWhile": "TEST/LerpInNpcNoSteer",
      "actionAfter": "",
      "optionIcon": "",
      "iconPath": ""
    }
  ]
}