{
  "talkId": 40163,
  "KPGKDHAFHFE": "FREE",
  "dialogList": [
    {
      "id": 4015141901,
      "talkRole": {
        "type": "TALK_ROLE_NPC",
        "_id": "1419"
      },
      "talkContentTextMapHash": 2254400015,
      "talkAssetPath": "",
      "talkAssetPathAlter": "",
      "talkAudioName": "",
      "actionBefore": "",
      "actionWhile": "TEST/LerpInNpc",
      "actionAfter": "",
      "optionIcon": "",
      "iconPath": ""
    }
  ]
}