{
  "talkId": 40172,
  "KPGKDHAFHFE": "FREE",
  "dialogList": [
    {
      "id": 4015143501,
      "nextDialogs": [
        4015143516,
        4015143505
      ],
      "talkRole": {
        "type": "TALK_ROLE_NPC",
        "_id": "1435"
      },
      "talkContentTextMapHash": 492037183,
      "talkAssetPath": "",
      "talkAssetPathAlter": "",
      "talkAudioName": "",
      "actionBefore": "",
      "actionWhile": "TEST/LerpInNpc",
      "actionAfter": "",
      "optionIcon": "",
      "iconPath": ""
    },
    {
      "id": 4015143516,
      "nextDialogs": [
        4015143517
      ],
      "talkRole": {
        "type": "TALK_ROLE_PLAYER",
        "_id": ""
      },
      "talkContentTextMapHash": 1965114271,
      "talkAssetPath": "",
      "talkAssetPathAlter": "",
      "talkAudioName": "",
      "actionBefore": "",
      "actionWhile": "",
      "actionAfter": "",
      "optionIcon": "",
      "iconPath": ""
    },
    {
      "id": 4015143517,
      "talkRole": {
        "type": "TALK_ROLE_NPC",
        "_id": "1435"
      },
      "talkContentTextMapHash": 2065441007,
      "talkAssetPath": "",
      "talkAssetPathAlter": "",
      "talkAudioName": "",
      "actionBefore": "",
      "actionWhile": "",
      "actionAfter": "",
      "optionIcon": "",
      "iconPath": ""
    },
    {
      "id": 4015143505,
      "nextDialogs": [
        4015143515
      ],
      "talkShowType": "TALK_SHOW_FORCE_SELECT",
      "talkRole": {
        "type": "TALK_ROLE_PLAYER",
        "_id": ""
      },
      "talkContentTextMapHash": 3424249679,
      "talkAssetPath": "",
      "talkAssetPathAlter": "",
      "talkAudioName": "",
      "actionBefore": "",
      "actionWhile": "",
      "actionAfter": "",
      "optionIcon": "",
      "iconPath": ""
    },
    {
      "id": 4015143515,
      "talkRole": {
        "type": "TALK_ROLE_NPC",
        "_id": "1435"
      },
      "talkContentTextMapHash": 4216603551,
      "talkAssetPath": "",
      "talkAssetPathAlter": "",
      "talkAudioName": "",
      "actionBefore": "",
      "actionWhile": "",
      "actionAfter": "",
      "optionIcon": "",
      "iconPath": ""
    }
  ]
}