{
  "talkId": 40206,
  "KPGKDHAFHFE": "FREE",
  "dialogList": [
    {
      "id": 4015148003,
      "talkRole": {
        "type": "TALK_ROLE_NPC",
        "_id": "1479"
      },
      "talkContentTextMapHash": 170569775,
      "talkAssetPath": "",
      "talkAssetPathAlter": "",
      "talkAudioName": "",
      "actionBefore": "",
      "actionWhile": "",
      "actionAfter": "",
      "optionIcon": "",
      "iconPath": ""
    }
  ]
}