{
  "talkId": 40205,
  "KPGKDHAFHFE": "FREE",
  "dialogList": [
    {
      "id": 4015148022,
      "nextDialogs": [
        4015148023
      ],
      "talkShowType": "TALK_SHOW_FORCE_SELECT",
      "talkRole": {
        "type": "TALK_ROLE_PLAYER",
        "_id": ""
      },
      "talkContentTextMapHash": 3391061799,
      "talkAssetPath": "",
      "talkAssetPathAlter": "",
      "talkAudioName": "",
      "actionBefore": "",
      "actionWhile": "",
      "actionAfter": "",
      "optionIcon": "",
      "iconPath": ""
    },
    {
      "id": 4015148023,
      "nextDialogs": [
        4015148024
      ],
      "talkRole": {
        "type": "TALK_ROLE_NPC",
        "_id": "1479"
      },
      "talkContentTextMapHash": 4294297815,
      "talkAssetPath": "",
      "talkAssetPathAlter": "",
      "talkAudioName": "",
      "actionBefore": "",
      "actionWhile": "",
      "actionAfter": "",
      "optionIcon": "",
      "iconPath": ""
    },
    {
      "id": 4015148024,
      "nextDialogs": [
        4015148025
      ],
      "talkRole": {
        "type": "TALK_ROLE_NPC",
        "_id": "1479"
      },
      "talkContentTextMapHash": 3146234647,
      "talkAssetPath": "",
      "talkAssetPathAlter": "",
      "talkAudioName": "",
      "actionBefore": "",
      "actionWhile": "",
      "actionAfter": "",
      "optionIcon": "",
      "iconPath": ""
    },
    {
      "id": 4015148025,
      "nextDialogs": [
        4015148026
      ],
      "talkRole": {
        "type": "TALK_ROLE_NPC",
        "_id": "1479"
      },
      "talkContentTextMapHash": 1150944343,
      "talkAssetPath": "",
      "talkAssetPathAlter": "",
      "talkAudioName": "",
      "actionBefore": "",
      "actionWhile": "",
      "actionAfter": "",
      "optionIcon": "",
      "iconPath": ""
    },
    {
      "id": 4015148026,
      "nextDialogs": [
        4015148027
      ],
      "talkRole": {
        "type": "TALK_ROLE_NPC",
        "_id": "1479"
      },
      "talkContentTextMapHash": 75389823,
      "talkAssetPath": "",
      "talkAssetPathAlter": "",
      "talkAudioName": "",
      "actionBefore": "",
      "actionWhile": "",
      "actionAfter": "",
      "optionIcon": "",
      "iconPath": ""
    },
    {
      "id": 4015148027,
      "talkRole": {
        "type": "TALK_ROLE_NPC",
        "_id": "1479"
      },
      "talkContentTextMapHash": 1148210399,
      "talkAssetPath": "",
      "talkAssetPathAlter": "",
      "talkAudioName": "",
      "actionBefore": "",
      "actionWhile": "",
      "actionAfter": "",
      "optionIcon": "",
      "iconPath": ""
    }
  ]
}