{
  "talkId": 40801,
  "KPGKDHAFHFE": "FREE",
  "dialogList": [
    {
      "id": 4080101,
      "nextDialogs": [
        4080102
      ],
      "talkRole": {
        "type": "TALK_ROLE_NPC",
        "_id": "1116"
      },
      "talkContentTextMapHash": 2698810995,
      "talkAssetPath": "",
      "talkAssetPathAlter": "",
      "talkAudioName": "",
      "actionBefore": "TEST/LerpInLady",
      "actionWhile": "",
      "actionAfter": "",
      "optionIcon": "",
      "iconPath": ""
    },
    {
      "id": 4080102,
      "nextDialogs": [
        4080103
      ],
      "talkRole": {
        "type": "TALK_ROLE_NPC",
        "_id": "1116"
      },
      "talkContentTextMapHash": 2139277027,
      "talkAssetPath": "",
      "talkAssetPathAlter": "",
      "talkAudioName": "",
      "actionBefore": "",
      "actionWhile": "",
      "actionAfter": "",
      "optionIcon": "",
      "iconPath": ""
    },
    {
      "id": 4080103,
      "nextDialogs": [
        4080104
      ],
      "talkRole": {
        "type": "TALK_ROLE_NPC",
        "_id": "1116"
      },
      "talkContentTextMapHash": 3267765603,
      "talkAssetPath": "",
      "talkAssetPathAlter": "",
      "talkAudioName": "",
      "actionBefore": "",
      "actionWhile": "",
      "actionAfter": "",
      "optionIcon": "",
      "iconPath": ""
    },
    {
      "id": 4080104,
      "talkRole": {
        "type": "TALK_ROLE_NPC",
        "_id": "1116"
      },
      "talkContentTextMapHash": 472303851,
      "talkAssetPath": "",
      "talkAssetPathAlter": "",
      "talkAudioName": "",
      "actionBefore": "",
      "actionWhile": "",
      "actionAfter": "",
      "optionIcon": "",
      "iconPath": ""
    }
  ]
}