{
  "talkId": 4111501,
  "KPGKDHAFHFE": "FREE",
  "dialogList": [
    {
      "id": 411150101,
      "talkRole": {
        "type": "TALK_ROLE_NPC",
        "_id": "30015"
      },
      "talkContentTextMapHash": 1772764146,
      "talkAssetPath": "",
      "talkAssetPathAlter": "",
      "talkAudioName": "",
      "actionBefore": "",
      "actionWhile": "",
      "actionAfter": "",
      "optionIcon": "",
      "iconPath": ""
    }
  ]
}