{
  "talkId": 41601,
  "KPGKDHAFHFE": "FREE",
  "dialogList": [
    {
      "id": 4015146903,
      "nextDialogs": [
        4015146907
      ],
      "talkRole": {
        "type": "TALK_ROLE_PLAYER",
        "_id": ""
      },
      "talkContentTextMapHash": 2143879399,
      "talkAssetPath": "",
      "talkAssetPathAlter": "",
      "talkAudioName": "",
      "actionBefore": "",
      "actionWhile": "",
      "actionAfter": "",
      "optionIcon": "UI_NPCTopIcon_EditTeam",
      "iconPath": ""
    },
    {
      "id": 4015146907,
      "talkRole": {
        "type": "TALK_ROLE_NPC",
        "_id": "1469"
      },
      "talkContentTextMapHash": 3174096391,
      "talkAssetPath": "",
      "talkAssetPathAlter": "",
      "talkAudioName": "",
      "actionBefore": "",
      "actionWhile": "",
      "actionAfter": "UI/open_teampage",
      "optionIcon": "",
      "iconPath": ""
    }
  ]
}