{
  "talkId": 41710,
  "KPGKDHAFHFE": "FREE",
  "dialogList": [
    {
      "id": 4015142519,
      "nextDialogs": [
        4015142520
      ],
      "talkRole": {
        "type": "TALK_ROLE_PLAYER",
        "_id": ""
      },
      "talkContentTextMapHash": 2475195607,
      "talkAssetPath": "",
      "talkAssetPathAlter": "",
      "talkAudioName": "",
      "actionBefore": "",
      "actionWhile": "",
      "actionAfter": "",
      "optionIcon": "",
      "iconPath": ""
    },
    {
      "id": 4015142520,
      "talkRole": {
        "type": "TALK_ROLE_NPC",
        "_id": "1425"
      },
      "talkContentTextMapHash": 1686803727,
      "talkAssetPath": "",
      "talkAssetPathAlter": "",
      "talkAudioName": "",
      "actionBefore": "",
      "actionWhile": "",
      "actionAfter": "",
      "optionIcon": "",
      "iconPath": ""
    }
  ]
}