{
  "talkId": 41717,
  "KPGKDHAFHFE": "FREE",
  "dialogList": [
    {
      "id": 4015141903,
      "nextDialogs": [
        4015141907
      ],
      "talkRole": {
        "type": "TALK_ROLE_PLAYER",
        "_id": ""
      },
      "talkContentTextMapHash": 3947772447,
      "talkAssetPath": "",
      "talkAssetPathAlter": "",
      "talkAudioName": "",
      "actionBefore": "",
      "actionWhile": "",
      "actionAfter": "",
      "optionIcon": "",
      "iconPath": ""
    },
    {
      "id": 4015141907,
      "nextDialogs": [
        4015141908
      ],
      "talkRole": {
        "type": "TALK_ROLE_NPC",
        "_id": "1419"
      },
      "talkContentTextMapHash": 4210297799,
      "talkAssetPath": "",
      "talkAssetPathAlter": "",
      "talkAudioName": "",
      "actionBefore": "",
      "actionWhile": "",
      "actionAfter": "",
      "optionIcon": "",
      "iconPath": ""
    },
    {
      "id": 4015141908,
      "nextDialogs": [
        4015141909
      ],
      "talkRole": {
        "type": "TALK_ROLE_NPC",
        "_id": "1419"
      },
      "talkContentTextMapHash": 437875791,
      "talkAssetPath": "",
      "talkAssetPathAlter": "",
      "talkAudioName": "",
      "actionBefore": "",
      "actionWhile": "",
      "actionAfter": "",
      "optionIcon": "",
      "iconPath": ""
    },
    {
      "id": 4015141909,
      "nextDialogs": [
        4015141910
      ],
      "talkRole": {
        "type": "TALK_ROLE_NPC",
        "_id": "1419"
      },
      "talkContentTextMapHash": 118499911,
      "talkAssetPath": "",
      "talkAssetPathAlter": "",
      "talkAudioName": "",
      "actionBefore": "",
      "actionWhile": "",
      "actionAfter": "",
      "optionIcon": "",
      "iconPath": ""
    },
    {
      "id": 4015141910,
      "talkRole": {
        "type": "TALK_ROLE_NPC",
        "_id": "1419"
      },
      "talkContentTextMapHash": 1480120071,
      "talkAssetPath": "",
      "talkAssetPathAlter": "",
      "talkAudioName": "",
      "actionBefore": "",
      "actionWhile": "",
      "actionAfter": "",
      "optionIcon": "",
      "iconPath": ""
    }
  ]
}