{
  "talkId": 41718,
  "KPGKDHAFHFE": "FREE",
  "dialogList": [
    {
      "id": 4015141904,
      "nextDialogs": [
        4015141911
      ],
      "talkRole": {
        "type": "TALK_ROLE_PLAYER",
        "_id": ""
      },
      "talkContentTextMapHash": 2839738847,
      "talkAssetPath": "",
      "talkAssetPathAlter": "",
      "talkAudioName": "",
      "actionBefore": "",
      "actionWhile": "",
      "actionAfter": "",
      "optionIcon": "",
      "iconPath": ""
    },
    {
      "id": 4015141911,
      "nextDialogs": [
        4015141912
      ],
      "talkRole": {
        "type": "TALK_ROLE_NPC",
        "_id": "1419"
      },
      "talkContentTextMapHash": 681463711,
      "talkAssetPath": "",
      "talkAssetPathAlter": "",
      "talkAudioName": "",
      "actionBefore": "",
      "actionWhile": "",
      "actionAfter": "",
      "optionIcon": "",
      "iconPath": ""
    },
    {
      "id": 4015141912,
      "nextDialogs": [
        4015141913
      ],
      "talkRole": {
        "type": "TALK_ROLE_NPC",
        "_id": "1419"
      },
      "talkContentTextMapHash": 2448344519,
      "talkAssetPath": "",
      "talkAssetPathAlter": "",
      "talkAudioName": "",
      "actionBefore": "",
      "actionWhile": "",
      "actionAfter": "",
      "optionIcon": "",
      "iconPath": ""
    },
    {
      "id": 4015141913,
      "nextDialogs": [
        4015141914
      ],
      "talkRole": {
        "type": "TALK_ROLE_NPC",
        "_id": "1419"
      },
      "talkContentTextMapHash": 824006023,
      "talkAssetPath": "",
      "talkAssetPathAlter": "",
      "talkAudioName": "",
      "actionBefore": "",
      "actionWhile": "",
      "actionAfter": "",
      "optionIcon": "",
      "iconPath": ""
    },
    {
      "id": 4015141914,
      "talkRole": {
        "type": "TALK_ROLE_NPC",
        "_id": "1419"
      },
      "talkContentTextMapHash": 1328785511,
      "talkAssetPath": "",
      "talkAssetPathAlter": "",
      "talkAudioName": "",
      "actionBefore": "",
      "actionWhile": "",
      "actionAfter": "",
      "optionIcon": "",
      "iconPath": ""
    }
  ]
}