{
  "talkId": 41733,
  "KPGKDHAFHFE": "FREE",
  "dialogList": [
    {
      "id": 615430305,
      "nextDialogs": [
        615430306
      ],
      "talkShowType": "TALK_SHOW_FORCE_SELECT",
      "talkRole": {
        "type": "TALK_ROLE_PLAYER",
        "_id": ""
      },
      "talkContentTextMapHash": 3283207015,
      "talkAssetPath": "",
      "talkAssetPathAlter": "",
      "talkAudioName": "",
      "actionBefore": "",
      "actionWhile": "",
      "actionAfter": "",
      "optionIcon": "",
      "iconPath": ""
    },
    {
      "id": 615430306,
      "talkRole": {
        "type": "TALK_ROLE_NPC",
        "_id": "1543"
      },
      "talkContentTextMapHash": 1699644799,
      "talkAssetPath": "",
      "talkAssetPathAlter": "",
      "talkAudioName": "",
      "actionBefore": "",
      "actionWhile": "",
      "actionAfter": "",
      "optionIcon": "",
      "iconPath": ""
    }
  ]
}