{
  "talkId": 420096,
  "KPGKDHAFHFE": "FREE",
  "dialogList": [
    {
      "id": 42009601,
      "nextDialogs": [
        42009602
      ],
      "talkRole": {
        "type": "TALK_ROLE_NPC",
        "_id": "20096"
      },
      "talkContentTextMapHash": 3040502067,
      "talkAssetPath": "",
      "talkAssetPathAlter": "",
      "talkAudioName": "",
      "actionBefore": "",
      "actionWhile": "",
      "actionAfter": "",
      "optionIcon": "",
      "iconPath": ""
    },
    {
      "id": 42009602,
      "talkRole": {
        "type": "TALK_ROLE_NPC",
        "_id": "20096"
      },
      "talkContentTextMapHash": 2530374499,
      "talkAssetPath": "",
      "talkAssetPathAlter": "",
      "talkAudioName": "",
      "actionBefore": "",
      "actionWhile": "",
      "actionAfter": "",
      "optionIcon": "",
      "iconPath": ""
    }
  ]
}