{
  "talkId": 420104,
  "KPGKDHAFHFE": "FREE",
  "dialogList": [
    {
      "id": 42010401,
      "nextDialogs": [
        42010402
      ],
      "talkRole": {
        "type": "TALK_ROLE_NPC",
        "_id": "20161"
      },
      "talkContentTextMapHash": 1778787139,
      "talkAssetPath": "",
      "talkAssetPathAlter": "",
      "talkAudioName": "",
      "actionBefore": "",
      "actionWhile": "",
      "actionAfter": "",
      "optionIcon": "",
      "iconPath": ""
    },
    {
      "id": 42010402,
      "talkRole": {
        "type": "TALK_ROLE_NPC",
        "_id": "20161"
      },
      "talkContentTextMapHash": 2596509227,
      "talkAssetPath": "",
      "talkAssetPathAlter": "",
      "talkAudioName": "",
      "actionBefore": "",
      "actionWhile": "",
      "actionAfter": "",
      "optionIcon": "",
      "iconPath": ""
    }
  ]
}