{
  "talkId": 6932901,
  "KPGKDHAFHFE": "FREE",
  "dialogList": [
    {
      "id": 693290101,
      "nextDialogs": [
        693290102
      ],
      "talkRole": {
        "type": "TALK_ROLE_NPC",
        "_id": "9329"
      },
      "talkContentTextMapHash": 1999504922,
      "talkAssetPath": "",
      "talkAssetPathAlter": "",
      "talkAudioName": "",
      "actionBefore": "",
      "actionWhile": "",
      "actionAfter": "",
      "optionIcon": "",
      "iconPath": ""
    },
    {
      "id": 693290102,
      "nextDialogs": [
        693290103
      ],
      "talkRole": {
        "type": "TALK_ROLE_NPC",
        "_id": "9329"
      },
      "talkContentTextMapHash": 151413370,
      "talkAssetPath": "",
      "talkAssetPathAlter": "",
      "talkAudioName": "",
      "actionBefore": "",
      "actionWhile": "",
      "actionAfter": "",
      "optionIcon": "",
      "iconPath": ""
    },
    {
      "id": 693290103,
      "talkRole": {
        "type": "TALK_ROLE_NPC",
        "_id": "9329"
      },
      "talkContentTextMapHash": 1026377082,
      "talkAssetPath": "",
      "talkAssetPathAlter": "",
      "talkAudioName": "",
      "actionBefore": "",
      "actionWhile": "",
      "actionAfter": "",
      "optionIcon": "",
      "iconPath": ""
    }
  ]
}