{
  "talkId": 6936102,
  "KPGKDHAFHFE": "FREE",
  "dialogList": [
    {
      "id": 693610201,
      "nextDialogs": [
        693610202
      ],
      "talkRole": {
        "type": "TALK_ROLE_NPC",
        "_id": "9361"
      },
      "talkContentTextMapHash": 2594224994,
      "talkAssetPath": "",
      "talkAssetPathAlter": "",
      "talkAudioName": "",
      "actionBefore": "",
      "actionWhile": "",
      "actionAfter": "",
      "optionIcon": "",
      "iconPath": ""
    },
    {
      "id": 693610202,
      "nextDialogs": [
        693610203
      ],
      "talkRole": {
        "type": "TALK_ROLE_NPC",
        "_id": "9361"
      },
      "talkContentTextMapHash": 2561252210,
      "talkAssetPath": "",
      "talkAssetPathAlter": "",
      "talkAudioName": "",
      "actionBefore": "",
      "actionWhile": "",
      "actionAfter": "",
      "optionIcon": "",
      "iconPath": ""
    },
    {
      "id": 693610203,
      "talkRole": {
        "type": "TALK_ROLE_NPC",
        "_id": "9361"
      },
      "talkContentTextMapHash": 2815446146,
      "talkAssetPath": "",
      "talkAssetPathAlter": "",
      "talkAudioName": "",
      "actionBefore": "",
      "actionWhile": "",
      "actionAfter": "",
      "optionIcon": "",
      "iconPath": ""
    }
  ]
}