{
  "talkId": 6937601,
  "KPGKDHAFHFE": "FREE",
  "dialogList": [
    {
      "id": 693760101,
      "nextDialogs": [
        693760102
      ],
      "talkRole": {
        "type": "TALK_ROLE_NPC",
        "_id": "9376"
      },
      "talkContentTextMapHash": 2304975714,
      "talkAssetPath": "",
      "talkAssetPathAlter": "",
      "talkAudioName": "",
      "actionBefore": "",
      "actionWhile": "",
      "actionAfter": "",
      "optionIcon": "",
      "iconPath": ""
    },
    {
      "id": 693760102,
      "nextDialogs": [
        693760103
      ],
      "talkRole": {
        "type": "TALK_ROLE_NPC",
        "_id": "9376"
      },
      "talkContentTextMapHash": 2503886522,
      "talkAssetPath": "",
      "talkAssetPathAlter": "",
      "talkAudioName": "",
      "actionBefore": "",
      "actionWhile": "",
      "actionAfter": "",
      "optionIcon": "",
      "iconPath": ""
    },
    {
      "id": 693760103,
      "talkRole": {
        "type": "TALK_ROLE_NPC",
        "_id": "9376"
      },
      "talkContentTextMapHash": 1991320874,
      "talkAssetPath": "",
      "talkAssetPathAlter": "",
      "talkAudioName": "",
      "actionBefore": "",
      "actionWhile": "",
      "actionAfter": "",
      "optionIcon": "",
      "iconPath": ""
    }
  ]
}