{
  "talkId": 6931102,
  "KPGKDHAFHFE": "FREE",
  "dialogList": [
    {
      "id": 693110201,
      "nextDialogs": [
        693110202
      ],
      "talkRole": {
        "type": "TALK_ROLE_NPC",
        "_id": "9311"
      },
      "talkContentTextMapHash": 1031531314,
      "talkAssetPath": "",
      "talkAssetPathAlter": "",
      "talkAudioName": "",
      "actionBefore": "",
      "actionWhile": "",
      "actionAfter": "",
      "optionIcon": "",
      "iconPath": ""
    },
    {
      "id": 693110202,
      "nextDialogs": [
        693110203
      ],
      "talkRole": {
        "type": "TALK_ROLE_NPC",
        "_id": "9311"
      },
      "talkContentTextMapHash": 2502781834,
      "talkAssetPath": "",
      "talkAssetPathAlter": "",
      "talkAudioName": "",
      "actionBefore": "",
      "actionWhile": "",
      "actionAfter": "",
      "optionIcon": "",
      "iconPath": ""
    },
    {
      "id": 693110203,
      "talkRole": {
        "type": "TALK_ROLE_NPC",
        "_id": "9311"
      },
      "talkContentTextMapHash": 733442098,
      "talkAssetPath": "",
      "talkAssetPathAlter": "",
      "talkAudioName": "",
      "actionBefore": "",
      "actionWhile": "",
      "actionAfter": "",
      "optionIcon": "",
      "iconPath": ""
    }
  ]
}