{
  "talkId": 50009,
  "KPGKDHAFHFE": "FREE",
  "dialogList": [
    {
      "id": 5000901,
      "nextDialogs": [
        5000902
      ],
      "talkRole": {
        "type": "TALK_ROLE_NPC",
        "_id": "20107"
      },
      "talkContentTextMapHash": 2656027955,
      "talkRoleNameTextMapHash": 2026387828,
      "talkAssetPath": "",
      "talkAssetPathAlter": "",
      "talkAudioName": "",
      "actionBefore": "TEST/Readable01",
      "actionWhile": "",
      "actionAfter": "",
      "optionIcon": "",
      "iconPath": ""
    },
    {
      "id": 5000902,
      "nextDialogs": [
        5000903
      ],
      "talkRole": {
        "type": "TALK_ROLE_NPC",
        "_id": "20107"
      },
      "talkContentTextMapHash": 2166443331,
      "talkRoleNameTextMapHash": 2309669340,
      "talkAssetPath": "",
      "talkAssetPathAlter": "",
      "talkAudioName": "",
      "actionBefore": "",
      "actionWhile": "",
      "actionAfter": "",
      "optionIcon": "",
      "iconPath": ""
    },
    {
      "id": 5000903,
      "nextDialogs": [
        5000904
      ],
      "talkRole": {
        "type": "TALK_ROLE_NPC",
        "_id": "20107"
      },
      "talkContentTextMapHash": 3183310011,
      "talkRoleNameTextMapHash": 855760204,
      "talkAssetPath": "",
      "talkAssetPathAlter": "",
      "talkAudioName": "",
      "actionBefore": "",
      "actionWhile": "",
      "actionAfter": "",
      "optionIcon": "",
      "iconPath": ""
    },
    {
      "id": 5000904,
      "talkRole": {
        "type": "TALK_ROLE_NPC",
        "_id": "20107"
      },
      "talkContentTextMapHash": 1630022355,
      "talkRoleNameTextMapHash": 3297858636,
      "talkAssetPath": "",
      "talkAssetPathAlter": "",
      "talkAudioName": "",
      "actionBefore": "",
      "actionWhile": "",
      "actionAfter": "",
      "optionIcon": "",
      "iconPath": ""
    }
  ]
}