{
  "talkId": 50106,
  "KPGKDHAFHFE": "FREE",
  "dialogList": [
    {
      "id": 5010601,
      "nextDialogs": [
        5010602
      ],
      "talkRole": {
        "type": "TALK_ROLE_NPC",
        "_id": "20104"
      },
      "talkContentTextMapHash": 1676973291,
      "talkRoleNameTextMapHash": 3300898228,
      "talkAssetPath": "",
      "talkAssetPathAlter": "",
      "talkAudioName": "",
      "actionBefore": "TEST/Readable01",
      "actionWhile": "",
      "actionAfter": "",
      "optionIcon": "",
      "iconPath": ""
    },
    {
      "id": 5010602,
      "nextDialogs": [
        5010603
      ],
      "talkRole": {
        "type": "TALK_ROLE_NPC",
        "_id": "20104"
      },
      "talkContentTextMapHash": 1144794147,
      "talkRoleNameTextMapHash": 717141700,
      "talkAssetPath": "",
      "talkAssetPathAlter": "",
      "talkAudioName": "",
      "actionBefore": "",
      "actionWhile": "",
      "actionAfter": "",
      "optionIcon": "",
      "iconPath": ""
    },
    {
      "id": 5010603,
      "talkRole": {
        "type": "TALK_ROLE_NPC",
        "_id": "20104"
      },
      "talkContentTextMapHash": 2508167227,
      "talkRoleNameTextMapHash": 3304085804,
      "talkAssetPath": "",
      "talkAssetPathAlter": "",
      "talkAudioName": "",
      "actionBefore": "",
      "actionWhile": "",
      "actionAfter": "",
      "optionIcon": "",
      "iconPath": ""
    }
  ]
}