{
  "talkId": 50108,
  "KPGKDHAFHFE": "FREE",
  "dialogList": [
    {
      "id": 5010801,
      "nextDialogs": [
        5010802
      ],
      "talkRole": {
        "type": "TALK_ROLE_NPC",
        "_id": "20104"
      },
      "talkContentTextMapHash": 2961717531,
      "talkRoleNameTextMapHash": 4187070580,
      "talkAssetPath": "",
      "talkAssetPathAlter": "",
      "talkAudioName": "",
      "actionBefore": "TEST/Readable01",
      "actionWhile": "",
      "actionAfter": "",
      "optionIcon": "",
      "iconPath": ""
    },
    {
      "id": 5010802,
      "nextDialogs": [
        5010803
      ],
      "talkRole": {
        "type": "TALK_ROLE_NPC",
        "_id": "20104"
      },
      "talkContentTextMapHash": 887192283,
      "talkRoleNameTextMapHash": 208634492,
      "talkAssetPath": "",
      "talkAssetPathAlter": "",
      "talkAudioName": "",
      "actionBefore": "",
      "actionWhile": "",
      "actionAfter": "",
      "optionIcon": "",
      "iconPath": ""
    },
    {
      "id": 5010803,
      "talkRole": {
        "type": "TALK_ROLE_NPC",
        "_id": "20104"
      },
      "talkContentTextMapHash": 3937934171,
      "talkRoleNameTextMapHash": 942497828,
      "talkAssetPath": "",
      "talkAssetPathAlter": "",
      "talkAudioName": "",
      "actionBefore": "",
      "actionWhile": "",
      "actionAfter": "",
      "optionIcon": "",
      "iconPath": ""
    }
  ]
}