{
  "talkId": 50213,
  "KPGKDHAFHFE": "FREE",
  "dialogList": [
    {
      "id": 5021301,
      "nextDialogs": [
        5021302
      ],
      "talkRole": {
        "type": "TALK_ROLE_NPC",
        "_id": "20106"
      },
      "talkContentTextMapHash": 3967235339,
      "talkRoleNameTextMapHash": 1238452684,
      "talkAssetPath": "",
      "talkAssetPathAlter": "",
      "talkAudioName": "",
      "actionBefore": "TEST/Readable01",
      "actionWhile": "",
      "actionAfter": "",
      "optionIcon": "",
      "iconPath": ""
    },
    {
      "id": 5021302,
      "nextDialogs": [
        5021303
      ],
      "talkRole": {
        "type": "TALK_ROLE_NPC",
        "_id": "20106"
      },
      "talkContentTextMapHash": 3456909571,
      "talkRoleNameTextMapHash": 1572389500,
      "talkAssetPath": "",
      "talkAssetPathAlter": "",
      "talkAudioName": "",
      "actionBefore": "",
      "actionWhile": "",
      "actionAfter": "",
      "optionIcon": "",
      "iconPath": ""
    },
    {
      "id": 5021303,
      "nextDialogs": [
        5021304
      ],
      "talkRole": {
        "type": "TALK_ROLE_NPC",
        "_id": "20106"
      },
      "talkContentTextMapHash": 1492039699,
      "talkRoleNameTextMapHash": 158100828,
      "talkAssetPath": "",
      "talkAssetPathAlter": "",
      "talkAudioName": "",
      "actionBefore": "",
      "actionWhile": "",
      "actionAfter": "",
      "optionIcon": "",
      "iconPath": ""
    },
    {
      "id": 5021304,
      "nextDialogs": [
        5021305
      ],
      "talkRole": {
        "type": "TALK_ROLE_NPC",
        "_id": "20106"
      },
      "talkContentTextMapHash": 1935618835,
      "talkRoleNameTextMapHash": 1480330580,
      "talkAssetPath": "",
      "talkAssetPathAlter": "",
      "talkAudioName": "",
      "actionBefore": "",
      "actionWhile": "",
      "actionAfter": "",
      "optionIcon": "",
      "iconPath": ""
    },
    {
      "id": 5021305,
      "talkRole": {
        "type": "TALK_ROLE_NPC",
        "_id": "20106"
      },
      "talkContentTextMapHash": 1921691883,
      "talkRoleNameTextMapHash": 1146831556,
      "talkAssetPath": "",
      "talkAssetPathAlter": "",
      "talkAudioName": "",
      "actionBefore": "",
      "actionWhile": "",
      "actionAfter": "",
      "optionIcon": "",
      "iconPath": ""
    }
  ]
}