{
  "talkId": 50306,
  "KPGKDHAFHFE": "FREE",
  "dialogList": [
    {
      "id": 5030601,
      "nextDialogs": [
        5030602
      ],
      "talkRole": {
        "type": "TALK_ROLE_NPC",
        "_id": "20105"
      },
      "talkContentTextMapHash": 3305088835,
      "talkRoleNameTextMapHash": 3256670620,
      "talkAssetPath": "",
      "talkAssetPathAlter": "",
      "talkAudioName": "",
      "actionBefore": "TEST/Readable01",
      "actionWhile": "",
      "actionAfter": "",
      "optionIcon": "",
      "iconPath": ""
    },
    {
      "id": 5030602,
      "nextDialogs": [
        5030603
      ],
      "talkRole": {
        "type": "TALK_ROLE_NPC",
        "_id": "20105"
      },
      "talkContentTextMapHash": 1331004979,
      "talkRoleNameTextMapHash": 649025692,
      "talkAssetPath": "",
      "talkAssetPathAlter": "",
      "talkAudioName": "",
      "actionBefore": "",
      "actionWhile": "",
      "actionAfter": "",
      "optionIcon": "",
      "iconPath": ""
    },
    {
      "id": 5030603,
      "nextDialogs": [
        5030604
      ],
      "talkRole": {
        "type": "TALK_ROLE_NPC",
        "_id": "20105"
      },
      "talkContentTextMapHash": 2238577451,
      "talkRoleNameTextMapHash": 239607444,
      "talkAssetPath": "",
      "talkAssetPathAlter": "",
      "talkAudioName": "",
      "actionBefore": "",
      "actionWhile": "",
      "actionAfter": "",
      "optionIcon": "",
      "iconPath": ""
    },
    {
      "id": 5030604,
      "nextDialogs": [
        5030605
      ],
      "talkRole": {
        "type": "TALK_ROLE_NPC",
        "_id": "20105"
      },
      "talkContentTextMapHash": 3564613571,
      "talkRoleNameTextMapHash": 2404894204,
      "talkAssetPath": "",
      "talkAssetPathAlter": "",
      "talkAudioName": "",
      "actionBefore": "",
      "actionWhile": "",
      "actionAfter": "",
      "optionIcon": "",
      "iconPath": ""
    },
    {
      "id": 5030605,
      "nextDialogs": [
        5030606
      ],
      "talkRole": {
        "type": "TALK_ROLE_NPC",
        "_id": "20105"
      },
      "talkContentTextMapHash": 1196565659,
      "talkRoleNameTextMapHash": 152865852,
      "talkAssetPath": "",
      "talkAssetPathAlter": "",
      "talkAudioName": "",
      "actionBefore": "",
      "actionWhile": "",
      "actionAfter": "",
      "optionIcon": "",
      "iconPath": ""
    },
    {
      "id": 5030606,
      "talkRole": {
        "type": "TALK_ROLE_NPC",
        "_id": "20105"
      },
      "talkContentTextMapHash": 393782803,
      "talkRoleNameTextMapHash": 1054280980,
      "talkAssetPath": "",
      "talkAssetPathAlter": "",
      "talkAudioName": "",
      "actionBefore": "",
      "actionWhile": "",
      "actionAfter": "",
      "optionIcon": "",
      "iconPath": ""
    }
  ]
}