{
  "talkId": 50430,
  "KPGKDHAFHFE": "FREE",
  "dialogList": [
    {
      "id": 5043001,
      "talkRole": {
        "type": "TALK_ROLE_NPC",
        "_id": "20405"
      },
      "talkContentTextMapHash": 2198530371,
      "talkRoleNameTextMapHash": 197519988,
      "talkAssetPath": "",
      "talkAssetPathAlter": "",
      "talkAudioName": "",
      "actionBefore": "TEST/Readable01",
      "actionWhile": "",
      "actionAfter": "",
      "optionIcon": "",
      "iconPath": ""
    }
  ]
}