{
  "talkId": 50502,
  "KPGKDHAFHFE": "FREE",
  "dialogList": [
    {
      "id": 5050201,
      "nextDialogs": [
        5050202
      ],
      "talkRole": {
        "type": "TALK_ROLE_NPC",
        "_id": "20403"
      },
      "talkContentTextMapHash": 2789735763,
      "talkRoleNameTextMapHash": 2552439436,
      "talkAssetPath": "",
      "talkAssetPathAlter": "",
      "talkAudioName": "",
      "actionBefore": "TEST/Readable01",
      "actionWhile": "",
      "actionAfter": "",
      "optionIcon": "",
      "iconPath": ""
    },
    {
      "id": 5050202,
      "nextDialogs": [
        5050203
      ],
      "talkRole": {
        "type": "TALK_ROLE_NPC",
        "_id": "20403"
      },
      "talkContentTextMapHash": 3650023627,
      "talkRoleNameTextMapHash": 3263199084,
      "talkAssetPath": "",
      "talkAssetPathAlter": "",
      "talkAudioName": "",
      "actionBefore": "",
      "actionWhile": "",
      "actionAfter": "",
      "optionIcon": "",
      "iconPath": ""
    },
    {
      "id": 5050203,
      "nextDialogs": [
        5050204
      ],
      "talkRole": {
        "type": "TALK_ROLE_NPC",
        "_id": "20403"
      },
      "talkContentTextMapHash": 723318315,
      "talkRoleNameTextMapHash": 1586873508,
      "talkAssetPath": "",
      "talkAssetPathAlter": "",
      "talkAudioName": "",
      "actionBefore": "",
      "actionWhile": "",
      "actionAfter": "",
      "optionIcon": "",
      "iconPath": ""
    },
    {
      "id": 5050204,
      "talkRole": {
        "type": "TALK_ROLE_NPC",
        "_id": "20403"
      },
      "talkContentTextMapHash": 3222740467,
      "talkRoleNameTextMapHash": 4126821820,
      "talkAssetPath": "",
      "talkAssetPathAlter": "",
      "talkAudioName": "",
      "actionBefore": "",
      "actionWhile": "",
      "actionAfter": "",
      "optionIcon": "",
      "iconPath": ""
    }
  ]
}