{
  "talkId": 50620,
  "KPGKDHAFHFE": "FREE",
  "dialogList": [
    {
      "id": 5062001,
      "nextDialogs": [
        5062002
      ],
      "talkRole": {
        "type": "TALK_ROLE_NPC",
        "_id": "20412"
      },
      "talkContentTextMapHash": 410618563,
      "talkRoleNameTextMapHash": 862035948,
      "talkAssetPath": "",
      "talkAssetPathAlter": "",
      "talkAudioName": "",
      "actionBefore": "TEST/Readable01",
      "actionWhile": "",
      "actionAfter": "",
      "optionIcon": "",
      "iconPath": ""
    },
    {
      "id": 5062002,
      "nextDialogs": [
        5062003
      ],
      "talkRole": {
        "type": "TALK_ROLE_NPC",
        "_id": "20412"
      },
      "talkContentTextMapHash": 2049857051,
      "talkRoleNameTextMapHash": 2981035580,
      "talkAssetPath": "",
      "talkAssetPathAlter": "",
      "talkAudioName": "",
      "actionBefore": "",
      "actionWhile": "",
      "actionAfter": "",
      "optionIcon": "",
      "iconPath": ""
    },
    {
      "id": 5062003,
      "nextDialogs": [
        5062004
      ],
      "talkRole": {
        "type": "TALK_ROLE_NPC",
        "_id": "20412"
      },
      "talkContentTextMapHash": 2983106643,
      "talkRoleNameTextMapHash": 4000203716,
      "talkAssetPath": "",
      "talkAssetPathAlter": "",
      "talkAudioName": "",
      "actionBefore": "",
      "actionWhile": "",
      "actionAfter": "",
      "optionIcon": "",
      "iconPath": ""
    },
    {
      "id": 5062004,
      "nextDialogs": [
        5062005
      ],
      "talkRole": {
        "type": "TALK_ROLE_NPC",
        "_id": "20412"
      },
      "talkContentTextMapHash": 3636266595,
      "talkRoleNameTextMapHash": 2577686844,
      "talkAssetPath": "",
      "talkAssetPathAlter": "",
      "talkAudioName": "",
      "actionBefore": "",
      "actionWhile": "",
      "actionAfter": "",
      "optionIcon": "",
      "iconPath": ""
    },
    {
      "id": 5062005,
      "talkRole": {
        "type": "TALK_ROLE_NPC",
        "_id": "20412"
      },
      "talkContentTextMapHash": 3601222195,
      "talkRoleNameTextMapHash": 3603933916,
      "talkAssetPath": "",
      "talkAssetPathAlter": "",
      "talkAudioName": "",
      "actionBefore": "",
      "actionWhile": "",
      "actionAfter": "",
      "optionIcon": "",
      "iconPath": ""
    }
  ]
}