{
  "talkId": 50622,
  "KPGKDHAFHFE": "FREE",
  "dialogList": [
    {
      "id": 5062201,
      "nextDialogs": [
        5062202
      ],
      "talkRole": {
        "type": "TALK_ROLE_NPC",
        "_id": "20412"
      },
      "talkContentTextMapHash": 1322200627,
      "talkRoleNameTextMapHash": 1232172732,
      "talkAssetPath": "",
      "talkAssetPathAlter": "",
      "talkAudioName": "",
      "actionBefore": "TEST/Readable01",
      "actionWhile": "",
      "actionAfter": "",
      "optionIcon": "",
      "iconPath": ""
    },
    {
      "id": 5062202,
      "nextDialogs": [
        5062203
      ],
      "talkRole": {
        "type": "TALK_ROLE_NPC",
        "_id": "20412"
      },
      "talkContentTextMapHash": 3620642979,
      "talkRoleNameTextMapHash": 1606632836,
      "talkAssetPath": "",
      "talkAssetPathAlter": "",
      "talkAudioName": "",
      "actionBefore": "",
      "actionWhile": "",
      "actionAfter": "",
      "optionIcon": "",
      "iconPath": ""
    },
    {
      "id": 5062203,
      "nextDialogs": [
        5062204
      ],
      "talkRole": {
        "type": "TALK_ROLE_NPC",
        "_id": "20412"
      },
      "talkContentTextMapHash": 1645272651,
      "talkRoleNameTextMapHash": 3408364124,
      "talkAssetPath": "",
      "talkAssetPathAlter": "",
      "talkAudioName": "",
      "actionBefore": "",
      "actionWhile": "",
      "actionAfter": "",
      "optionIcon": "",
      "iconPath": ""
    },
    {
      "id": 5062204,
      "nextDialogs": [
        5062205
      ],
      "talkRole": {
        "type": "TALK_ROLE_NPC",
        "_id": "20412"
      },
      "talkContentTextMapHash": 3503377947,
      "talkRoleNameTextMapHash": 1599866740,
      "talkAssetPath": "",
      "talkAssetPathAlter": "",
      "talkAudioName": "",
      "actionBefore": "",
      "actionWhile": "",
      "actionAfter": "",
      "optionIcon": "",
      "iconPath": ""
    },
    {
      "id": 5062205,
      "nextDialogs": [
        5062206
      ],
      "talkRole": {
        "type": "TALK_ROLE_NPC",
        "_id": "20412"
      },
      "talkContentTextMapHash": 1766141339,
      "talkRoleNameTextMapHash": 89253292,
      "talkAssetPath": "",
      "talkAssetPathAlter": "",
      "talkAudioName": "",
      "actionBefore": "",
      "actionWhile": "",
      "actionAfter": "",
      "optionIcon": "",
      "iconPath": ""
    },
    {
      "id": 5062206,
      "talkRole": {
        "type": "TALK_ROLE_NPC",
        "_id": "20412"
      },
      "talkContentTextMapHash": 115027467,
      "talkRoleNameTextMapHash": 487742396,
      "talkAssetPath": "",
      "talkAssetPathAlter": "",
      "talkAudioName": "",
      "actionBefore": "",
      "actionWhile": "",
      "actionAfter": "",
      "optionIcon": "",
      "iconPath": ""
    }
  ]
}