{
  "talkId": 50815,
  "KPGKDHAFHFE": "FREE",
  "dialogList": [
    {
      "id": 5081501,
      "nextDialogs": [
        5081502
      ],
      "talkRole": {
        "type": "TALK_ROLE_NPC",
        "_id": "20414"
      },
      "talkContentTextMapHash": 4217399051,
      "talkRoleNameTextMapHash": 3221557204,
      "talkAssetPath": "",
      "talkAssetPathAlter": "",
      "talkAudioName": "",
      "actionBefore": "TEST/Readable01",
      "actionWhile": "",
      "actionAfter": "",
      "optionIcon": "",
      "iconPath": ""
    },
    {
      "id": 5081502,
      "nextDialogs": [
        5081503
      ],
      "talkRole": {
        "type": "TALK_ROLE_NPC",
        "_id": "20414"
      },
      "talkContentTextMapHash": 1851953219,
      "talkRoleNameTextMapHash": 2814295180,
      "talkAssetPath": "",
      "talkAssetPathAlter": "",
      "talkAudioName": "",
      "actionBefore": "",
      "actionWhile": "",
      "actionAfter": "",
      "optionIcon": "",
      "iconPath": ""
    },
    {
      "id": 5081503,
      "talkRole": {
        "type": "TALK_ROLE_NPC",
        "_id": "20414"
      },
      "talkContentTextMapHash": 518176979,
      "talkRoleNameTextMapHash": 2815262956,
      "talkAssetPath": "",
      "talkAssetPathAlter": "",
      "talkAudioName": "",
      "actionBefore": "",
      "actionWhile": "",
      "actionAfter": "",
      "optionIcon": "",
      "iconPath": ""
    }
  ]
}