{
  "talkId": 51602,
  "KPGKDHAFHFE": "FREE",
  "dialogList": [
    {
      "id": 5160201,
      "nextDialogs": [
        5160202
      ],
      "talkRole": {
        "type": "TALK_ROLE_NPC",
        "_id": "20413"
      },
      "talkContentTextMapHash": 1708522763,
      "talkRoleNameTextMapHash": 3925271044,
      "talkAssetPath": "",
      "talkAssetPathAlter": "",
      "talkAudioName": "",
      "actionBefore": "TEST/Readable01",
      "actionWhile": "",
      "actionAfter": "",
      "optionIcon": "",
      "iconPath": ""
    },
    {
      "id": 5160202,
      "nextDialogs": [
        5160203
      ],
      "talkRole": {
        "type": "TALK_ROLE_NPC",
        "_id": "20413"
      },
      "talkContentTextMapHash": 2120260787,
      "talkRoleNameTextMapHash": 4087060716,
      "talkAssetPath": "",
      "talkAssetPathAlter": "",
      "talkAudioName": "",
      "actionBefore": "",
      "actionWhile": "",
      "actionAfter": "",
      "optionIcon": "",
      "iconPath": ""
    },
    {
      "id": 5160203,
      "nextDialogs": [
        5160204
      ],
      "talkRole": {
        "type": "TALK_ROLE_NPC",
        "_id": "20413"
      },
      "talkContentTextMapHash": 509918555,
      "talkRoleNameTextMapHash": 121921460,
      "talkAssetPath": "",
      "talkAssetPathAlter": "",
      "talkAudioName": "",
      "actionBefore": "",
      "actionWhile": "",
      "actionAfter": "",
      "optionIcon": "",
      "iconPath": ""
    },
    {
      "id": 5160204,
      "nextDialogs": [
        5160205
      ],
      "talkRole": {
        "type": "TALK_ROLE_NPC",
        "_id": "20413"
      },
      "talkContentTextMapHash": 1909665923,
      "talkRoleNameTextMapHash": 2192187820,
      "talkAssetPath": "",
      "talkAssetPathAlter": "",
      "talkAudioName": "",
      "actionBefore": "",
      "actionWhile": "",
      "actionAfter": "",
      "optionIcon": "",
      "iconPath": ""
    },
    {
      "id": 5160205,
      "talkRole": {
        "type": "TALK_ROLE_NPC",
        "_id": "20413"
      },
      "talkContentTextMapHash": 2024667883,
      "talkRoleNameTextMapHash": 2591820340,
      "talkAssetPath": "",
      "talkAssetPathAlter": "",
      "talkAudioName": "",
      "actionBefore": "",
      "actionWhile": "",
      "actionAfter": "",
      "optionIcon": "",
      "iconPath": ""
    }
  ]
}