{
  "talkId": 51716,
  "KPGKDHAFHFE": "FREE",
  "dialogList": [
    {
      "id": 5171601,
      "nextDialogs": [
        5171602
      ],
      "talkRole": {
        "type": "TALK_ROLE_NPC",
        "_id": "20414"
      },
      "talkContentTextMapHash": 2883904315,
      "talkRoleNameTextMapHash": 2150323164,
      "talkAssetPath": "",
      "talkAssetPathAlter": "",
      "talkAudioName": "",
      "actionBefore": "TEST/Readable01",
      "actionWhile": "",
      "actionAfter": "",
      "optionIcon": "",
      "iconPath": ""
    },
    {
      "id": 5171602,
      "talkRole": {
        "type": "TALK_ROLE_NPC",
        "_id": "20414"
      },
      "talkContentTextMapHash": 3820033139,
      "talkRoleNameTextMapHash": 3231401284,
      "talkAssetPath": "",
      "talkAssetPathAlter": "",
      "talkAudioName": "",
      "actionBefore": "",
      "actionWhile": "",
      "actionAfter": "",
      "optionIcon": "",
      "iconPath": ""
    }
  ]
}