{
  "talkId": 51803,
  "KPGKDHAFHFE": "FREE",
  "dialogList": [
    {
      "id": 5180301,
      "nextDialogs": [
        5180302
      ],
      "talkRole": {
        "type": "TALK_ROLE_NPC",
        "_id": "20415"
      },
      "talkContentTextMapHash": 1147874035,
      "talkRoleNameTextMapHash": 3147719940,
      "talkAssetPath": "",
      "talkAssetPathAlter": "",
      "talkAudioName": "",
      "actionBefore": "TEST/Readable01",
      "actionWhile": "",
      "actionAfter": "",
      "optionIcon": "",
      "iconPath": ""
    },
    {
      "id": 5180302,
      "talkRole": {
        "type": "TALK_ROLE_NPC",
        "_id": "20415"
      },
      "talkContentTextMapHash": 3445286483,
      "talkRoleNameTextMapHash": 2541156948,
      "talkAssetPath": "",
      "talkAssetPathAlter": "",
      "talkAudioName": "",
      "actionBefore": "",
      "actionWhile": "",
      "actionAfter": "",
      "optionIcon": "",
      "iconPath": ""
    }
  ]
}