{
  "talkId": 51815,
  "KPGKDHAFHFE": "FREE",
  "dialogList": [
    {
      "id": 5181501,
      "nextDialogs": [
        5181502
      ],
      "talkRole": {
        "type": "TALK_ROLE_NPC",
        "_id": "20415"
      },
      "talkContentTextMapHash": 433054427,
      "talkRoleNameTextMapHash": 2300384956,
      "talkAssetPath": "",
      "talkAssetPathAlter": "",
      "talkAudioName": "",
      "actionBefore": "TEST/Readable01",
      "actionWhile": "",
      "actionAfter": "",
      "optionIcon": "",
      "iconPath": ""
    },
    {
      "id": 5181502,
      "nextDialogs": [
        5181503
      ],
      "talkRole": {
        "type": "TALK_ROLE_NPC",
        "_id": "20415"
      },
      "talkContentTextMapHash": 1880233395,
      "talkRoleNameTextMapHash": 728271828,
      "talkAssetPath": "",
      "talkAssetPathAlter": "",
      "talkAudioName": "",
      "actionBefore": "",
      "actionWhile": "",
      "actionAfter": "",
      "optionIcon": "",
      "iconPath": ""
    },
    {
      "id": 5181503,
      "nextDialogs": [
        5181504
      ],
      "talkRole": {
        "type": "TALK_ROLE_NPC",
        "_id": "20415"
      },
      "talkContentTextMapHash": 396962627,
      "talkRoleNameTextMapHash": 2686472148,
      "talkAssetPath": "",
      "talkAssetPathAlter": "",
      "talkAudioName": "",
      "actionBefore": "",
      "actionWhile": "",
      "actionAfter": "",
      "optionIcon": "",
      "iconPath": ""
    },
    {
      "id": 5181504,
      "talkRole": {
        "type": "TALK_ROLE_NPC",
        "_id": "20415"
      },
      "talkContentTextMapHash": 4093352715,
      "talkRoleNameTextMapHash": 63789140,
      "talkAssetPath": "",
      "talkAssetPathAlter": "",
      "talkAudioName": "",
      "actionBefore": "",
      "actionWhile": "",
      "actionAfter": "",
      "optionIcon": "",
      "iconPath": ""
    }
  ]
}