{
  "talkId": 51903,
  "KPGKDHAFHFE": "FREE",
  "dialogList": [
    {
      "id": 5050301,
      "nextDialogs": [
        5050302
      ],
      "talkRole": {
        "type": "TALK_ROLE_NPC",
        "_id": "20403"
      },
      "talkContentTextMapHash": 3044050883,
      "talkRoleNameTextMapHash": 854242980,
      "talkAssetPath": "",
      "talkAssetPathAlter": "",
      "talkAudioName": "",
      "actionBefore": "TEST/Readable01",
      "actionWhile": "",
      "actionAfter": "",
      "optionIcon": "",
      "iconPath": ""
    },
    {
      "id": 5050302,
      "nextDialogs": [
        5050303
      ],
      "talkRole": {
        "type": "TALK_ROLE_NPC",
        "_id": "20403"
      },
      "talkContentTextMapHash": 1332708435,
      "talkRoleNameTextMapHash": 3631889492,
      "talkAssetPath": "",
      "talkAssetPathAlter": "",
      "talkAudioName": "",
      "actionBefore": "",
      "actionWhile": "",
      "actionAfter": "",
      "optionIcon": "",
      "iconPath": ""
    },
    {
      "id": 5050303,
      "talkRole": {
        "type": "TALK_ROLE_NPC",
        "_id": "20403"
      },
      "talkContentTextMapHash": 3801902795,
      "talkRoleNameTextMapHash": 3070530724,
      "talkAssetPath": "",
      "talkAssetPathAlter": "",
      "talkAudioName": "",
      "actionBefore": "",
      "actionWhile": "",
      "actionAfter": "",
      "optionIcon": "",
      "iconPath": ""
    }
  ]
}