{
  "talkId": 51911,
  "KPGKDHAFHFE": "FREE",
  "dialogList": [
    {
      "id": 5051101,
      "nextDialogs": [
        5051102
      ],
      "talkRole": {
        "type": "TALK_ROLE_NPC",
        "_id": "20403"
      },
      "talkContentTextMapHash": 307801819,
      "talkRoleNameTextMapHash": 1385972188,
      "talkAssetPath": "",
      "talkAssetPathAlter": "",
      "talkAudioName": "",
      "actionBefore": "TEST/Readable01",
      "actionWhile": "",
      "actionAfter": "",
      "optionIcon": "",
      "iconPath": ""
    },
    {
      "id": 5051102,
      "nextDialogs": [
        5051103
      ],
      "talkRole": {
        "type": "TALK_ROLE_NPC",
        "_id": "20403"
      },
      "talkContentTextMapHash": 1472086251,
      "talkRoleNameTextMapHash": 3161774012,
      "talkAssetPath": "",
      "talkAssetPathAlter": "",
      "talkAudioName": "",
      "actionBefore": "",
      "actionWhile": "",
      "actionAfter": "",
      "optionIcon": "",
      "iconPath": ""
    },
    {
      "id": 5051103,
      "nextDialogs": [
        5051104
      ],
      "talkRole": {
        "type": "TALK_ROLE_NPC",
        "_id": "20403"
      },
      "talkContentTextMapHash": 1600392099,
      "talkRoleNameTextMapHash": 1153545772,
      "talkAssetPath": "",
      "talkAssetPathAlter": "",
      "talkAudioName": "",
      "actionBefore": "",
      "actionWhile": "",
      "actionAfter": "",
      "optionIcon": "",
      "iconPath": ""
    },
    {
      "id": 5051104,
      "nextDialogs": [
        5051105
      ],
      "talkRole": {
        "type": "TALK_ROLE_NPC",
        "_id": "20403"
      },
      "talkContentTextMapHash": 890012547,
      "talkRoleNameTextMapHash": 786772260,
      "talkAssetPath": "",
      "talkAssetPathAlter": "",
      "talkAudioName": "",
      "actionBefore": "",
      "actionWhile": "",
      "actionAfter": "",
      "optionIcon": "",
      "iconPath": ""
    },
    {
      "id": 5051105,
      "talkRole": {
        "type": "TALK_ROLE_NPC",
        "_id": "20403"
      },
      "talkContentTextMapHash": 3340986683,
      "talkRoleNameTextMapHash": 905793476,
      "talkAssetPath": "",
      "talkAssetPathAlter": "",
      "talkAudioName": "",
      "actionBefore": "",
      "actionWhile": "",
      "actionAfter": "",
      "optionIcon": "",
      "iconPath": ""
    }
  ]
}