{
  "talkId": 52004,
  "KPGKDHAFHFE": "FREE",
  "dialogList": [
    {
      "id": 5050401,
      "nextDialogs": [
        5050402
      ],
      "talkRole": {
        "type": "TALK_ROLE_NPC",
        "_id": "20403"
      },
      "talkContentTextMapHash": 3906913707,
      "talkRoleNameTextMapHash": 2615399084,
      "talkAssetPath": "",
      "talkAssetPathAlter": "",
      "talkAudioName": "",
      "actionBefore": "TEST/Readable01",
      "actionWhile": "",
      "actionAfter": "",
      "optionIcon": "",
      "iconPath": ""
    },
    {
      "id": 5050402,
      "talkRole": {
        "type": "TALK_ROLE_NPC",
        "_id": "20403"
      },
      "talkContentTextMapHash": 543440131,
      "talkRoleNameTextMapHash": 9077636,
      "talkAssetPath": "",
      "talkAssetPathAlter": "",
      "talkAudioName": "",
      "actionBefore": "",
      "actionWhile": "",
      "actionAfter": "",
      "optionIcon": "",
      "iconPath": ""
    }
  ]
}