{
  "talkId": 52007,
  "KPGKDHAFHFE": "FREE",
  "dialogList": [
    {
      "id": 5050701,
      "nextDialogs": [
        5050702
      ],
      "talkRole": {
        "type": "TALK_ROLE_NPC",
        "_id": "20403"
      },
      "talkContentTextMapHash": 1837734275,
      "talkRoleNameTextMapHash": 3866433348,
      "talkAssetPath": "",
      "talkAssetPathAlter": "",
      "talkAudioName": "",
      "actionBefore": "TEST/Readable01",
      "actionWhile": "",
      "actionAfter": "",
      "optionIcon": "",
      "iconPath": ""
    },
    {
      "id": 5050702,
      "nextDialogs": [
        5050703
      ],
      "talkRole": {
        "type": "TALK_ROLE_NPC",
        "_id": "20403"
      },
      "talkContentTextMapHash": 4251428171,
      "talkRoleNameTextMapHash": 41055380,
      "talkAssetPath": "",
      "talkAssetPathAlter": "",
      "talkAudioName": "",
      "actionBefore": "",
      "actionWhile": "",
      "actionAfter": "",
      "optionIcon": "",
      "iconPath": ""
    },
    {
      "id": 5050703,
      "nextDialogs": [
        5050704
      ],
      "talkRole": {
        "type": "TALK_ROLE_NPC",
        "_id": "20403"
      },
      "talkContentTextMapHash": 1128767307,
      "talkRoleNameTextMapHash": 4018158292,
      "talkAssetPath": "",
      "talkAssetPathAlter": "",
      "talkAudioName": "",
      "actionBefore": "",
      "actionWhile": "",
      "actionAfter": "",
      "optionIcon": "",
      "iconPath": ""
    },
    {
      "id": 5050704,
      "talkRole": {
        "type": "TALK_ROLE_NPC",
        "_id": "20403"
      },
      "talkContentTextMapHash": 1400018451,
      "talkRoleNameTextMapHash": 326033516,
      "talkAssetPath": "",
      "talkAssetPathAlter": "",
      "talkAudioName": "",
      "actionBefore": "",
      "actionWhile": "",
      "actionAfter": "",
      "optionIcon": "",
      "iconPath": ""
    }
  ]
}