{
  "talkId": 52101,
  "KPGKDHAFHFE": "FREE",
  "dialogList": [
    {
      "id": 5180101,
      "talkRole": {
        "type": "TALK_ROLE_NPC",
        "_id": "20415"
      },
      "talkContentTextMapHash": 3260274963,
      "talkRoleNameTextMapHash": 2918275692,
      "talkAssetPath": "",
      "talkAssetPathAlter": "",
      "talkAudioName": "",
      "actionBefore": "TEST/Readable01",
      "actionWhile": "",
      "actionAfter": "",
      "optionIcon": "",
      "iconPath": ""
    }
  ]
}