{
  "talkId": 52112,
  "KPGKDHAFHFE": "FREE",
  "dialogList": [
    {
      "id": 5181201,
      "nextDialogs": [
        5181202
      ],
      "talkRole": {
        "type": "TALK_ROLE_NPC",
        "_id": "20415"
      },
      "talkContentTextMapHash": 1797008099,
      "talkRoleNameTextMapHash": 786161868,
      "talkAssetPath": "",
      "talkAssetPathAlter": "",
      "talkAudioName": "",
      "actionBefore": "TEST/Readable01",
      "actionWhile": "",
      "actionAfter": "",
      "optionIcon": "",
      "iconPath": ""
    },
    {
      "id": 5181202,
      "talkRole": {
        "type": "TALK_ROLE_NPC",
        "_id": "20415"
      },
      "talkContentTextMapHash": 2738237939,
      "talkRoleNameTextMapHash": 3449301684,
      "talkAssetPath": "",
      "talkAssetPathAlter": "",
      "talkAudioName": "",
      "actionBefore": "",
      "actionWhile": "",
      "actionAfter": "",
      "optionIcon": "",
      "iconPath": ""
    }
  ]
}