{
  "talkId": 52204,
  "KPGKDHAFHFE": "FREE",
  "dialogList": [
    {
      "id": 5150401,
      "nextDialogs": [
        5150402
      ],
      "talkRole": {
        "type": "TALK_ROLE_NPC",
        "_id": "20412"
      },
      "talkContentTextMapHash": 1461477563,
      "talkRoleNameTextMapHash": 1242166540,
      "talkAssetPath": "",
      "talkAssetPathAlter": "",
      "talkAudioName": "",
      "actionBefore": "TEST/Readable01",
      "actionWhile": "",
      "actionAfter": "",
      "optionIcon": "",
      "iconPath": ""
    },
    {
      "id": 5150402,
      "nextDialogs": [
        5150403
      ],
      "talkRole": {
        "type": "TALK_ROLE_NPC",
        "_id": "20412"
      },
      "talkContentTextMapHash": 3590013643,
      "talkRoleNameTextMapHash": 2519781116,
      "talkAssetPath": "",
      "talkAssetPathAlter": "",
      "talkAudioName": "",
      "actionBefore": "",
      "actionWhile": "",
      "actionAfter": "",
      "optionIcon": "",
      "iconPath": ""
    },
    {
      "id": 5150403,
      "nextDialogs": [
        5150404
      ],
      "talkRole": {
        "type": "TALK_ROLE_NPC",
        "_id": "20412"
      },
      "talkContentTextMapHash": 4109247347,
      "talkRoleNameTextMapHash": 1377147508,
      "talkAssetPath": "",
      "talkAssetPathAlter": "",
      "talkAudioName": "",
      "actionBefore": "",
      "actionWhile": "",
      "actionAfter": "",
      "optionIcon": "",
      "iconPath": ""
    },
    {
      "id": 5150404,
      "nextDialogs": [
        5150405
      ],
      "talkRole": {
        "type": "TALK_ROLE_NPC",
        "_id": "20412"
      },
      "talkContentTextMapHash": 716489195,
      "talkRoleNameTextMapHash": 4184696492,
      "talkAssetPath": "",
      "talkAssetPathAlter": "",
      "talkAudioName": "",
      "actionBefore": "",
      "actionWhile": "",
      "actionAfter": "",
      "optionIcon": "",
      "iconPath": ""
    },
    {
      "id": 5150405,
      "talkRole": {
        "type": "TALK_ROLE_NPC",
        "_id": "20412"
      },
      "talkContentTextMapHash": 3433745139,
      "talkRoleNameTextMapHash": 1759569372,
      "talkAssetPath": "",
      "talkAssetPathAlter": "",
      "talkAudioName": "",
      "actionBefore": "",
      "actionWhile": "",
      "actionAfter": "",
      "optionIcon": "",
      "iconPath": ""
    }
  ]
}