{
  "talkId": 52211,
  "KPGKDHAFHFE": "FREE",
  "dialogList": [
    {
      "id": 5151101,
      "nextDialogs": [
        5151102
      ],
      "talkRole": {
        "type": "TALK_ROLE_NPC",
        "_id": "20412"
      },
      "talkContentTextMapHash": 3248724019,
      "talkRoleNameTextMapHash": 3973656548,
      "talkAssetPath": "",
      "talkAssetPathAlter": "",
      "talkAudioName": "",
      "actionBefore": "TEST/Readable01",
      "actionWhile": "",
      "actionAfter": "",
      "optionIcon": "",
      "iconPath": ""
    },
    {
      "id": 5151102,
      "nextDialogs": [
        5151103
      ],
      "talkRole": {
        "type": "TALK_ROLE_NPC",
        "_id": "20412"
      },
      "talkContentTextMapHash": 4089813091,
      "talkRoleNameTextMapHash": 1584636980,
      "talkAssetPath": "",
      "talkAssetPathAlter": "",
      "talkAudioName": "",
      "actionBefore": "",
      "actionWhile": "",
      "actionAfter": "",
      "optionIcon": "",
      "iconPath": ""
    },
    {
      "id": 5151103,
      "nextDialogs": [
        5151104
      ],
      "talkRole": {
        "type": "TALK_ROLE_NPC",
        "_id": "20412"
      },
      "talkContentTextMapHash": 1237236891,
      "talkRoleNameTextMapHash": 3611615060,
      "talkAssetPath": "",
      "talkAssetPathAlter": "",
      "talkAudioName": "",
      "actionBefore": "",
      "actionWhile": "",
      "actionAfter": "",
      "optionIcon": "",
      "iconPath": ""
    },
    {
      "id": 5151104,
      "talkRole": {
        "type": "TALK_ROLE_NPC",
        "_id": "20412"
      },
      "talkContentTextMapHash": 2767112331,
      "talkRoleNameTextMapHash": 3690272860,
      "talkAssetPath": "",
      "talkAssetPathAlter": "",
      "talkAudioName": "",
      "actionBefore": "",
      "actionWhile": "",
      "actionAfter": "",
      "optionIcon": "",
      "iconPath": ""
    }
  ]
}