{
  "talkId": 52313,
  "KPGKDHAFHFE": "FREE",
  "dialogList": [
    {
      "id": 5161301,
      "nextDialogs": [
        5161302
      ],
      "talkRole": {
        "type": "TALK_ROLE_NPC",
        "_id": "20413"
      },
      "talkContentTextMapHash": 1968929355,
      "talkRoleNameTextMapHash": 3694802500,
      "talkAssetPath": "",
      "talkAssetPathAlter": "",
      "talkAudioName": "",
      "actionBefore": "TEST/Readable01",
      "actionWhile": "",
      "actionAfter": "",
      "optionIcon": "",
      "iconPath": ""
    },
    {
      "id": 5161302,
      "nextDialogs": [
        5161303
      ],
      "talkRole": {
        "type": "TALK_ROLE_NPC",
        "_id": "20413"
      },
      "talkContentTextMapHash": 3160956003,
      "talkRoleNameTextMapHash": 2910055372,
      "talkAssetPath": "",
      "talkAssetPathAlter": "",
      "talkAudioName": "",
      "actionBefore": "",
      "actionWhile": "",
      "actionAfter": "",
      "optionIcon": "",
      "iconPath": ""
    },
    {
      "id": 5161303,
      "nextDialogs": [
        5161304
      ],
      "talkRole": {
        "type": "TALK_ROLE_NPC",
        "_id": "20413"
      },
      "talkContentTextMapHash": 3156421651,
      "talkRoleNameTextMapHash": 2640873236,
      "talkAssetPath": "",
      "talkAssetPathAlter": "",
      "talkAudioName": "",
      "actionBefore": "",
      "actionWhile": "",
      "actionAfter": "",
      "optionIcon": "",
      "iconPath": ""
    },
    {
      "id": 5161304,
      "talkRole": {
        "type": "TALK_ROLE_NPC",
        "_id": "20413"
      },
      "talkContentTextMapHash": 2420870763,
      "talkRoleNameTextMapHash": 2648856356,
      "talkAssetPath": "",
      "talkAssetPathAlter": "",
      "talkAudioName": "",
      "actionBefore": "",
      "actionWhile": "",
      "actionAfter": "",
      "optionIcon": "",
      "iconPath": ""
    }
  ]
}