{
  "talkId": 52316,
  "KPGKDHAFHFE": "FREE",
  "dialogList": [
    {
      "id": 5161601,
      "nextDialogs": [
        5161602
      ],
      "talkRole": {
        "type": "TALK_ROLE_NPC",
        "_id": "20413"
      },
      "talkContentTextMapHash": 2479491099,
      "talkRoleNameTextMapHash": 3062683612,
      "talkAssetPath": "",
      "talkAssetPathAlter": "",
      "talkAudioName": "",
      "actionBefore": "TEST/Readable01",
      "actionWhile": "",
      "actionAfter": "",
      "optionIcon": "",
      "iconPath": ""
    },
    {
      "id": 5161602,
      "nextDialogs": [
        5161603
      ],
      "talkRole": {
        "type": "TALK_ROLE_NPC",
        "_id": "20413"
      },
      "talkContentTextMapHash": 3354680043,
      "talkRoleNameTextMapHash": 918003412,
      "talkAssetPath": "",
      "talkAssetPathAlter": "",
      "talkAudioName": "",
      "actionBefore": "",
      "actionWhile": "",
      "actionAfter": "",
      "optionIcon": "",
      "iconPath": ""
    },
    {
      "id": 5161603,
      "talkRole": {
        "type": "TALK_ROLE_NPC",
        "_id": "20413"
      },
      "talkContentTextMapHash": 1881926851,
      "talkRoleNameTextMapHash": 17453212,
      "talkAssetPath": "",
      "talkAssetPathAlter": "",
      "talkAudioName": "",
      "actionBefore": "",
      "actionWhile": "",
      "actionAfter": "",
      "optionIcon": "",
      "iconPath": ""
    }
  ]
}