{
  "talkId": 52312,
  "KPGKDHAFHFE": "FREE",
  "dialogList": [
    {
      "id": 5161201,
      "nextDialogs": [
        5161202
      ],
      "talkRole": {
        "type": "TALK_ROLE_NPC",
        "_id": "20413"
      },
      "talkContentTextMapHash": 890393219,
      "talkRoleNameTextMapHash": 1510242772,
      "talkAssetPath": "",
      "talkAssetPathAlter": "",
      "talkAudioName": "",
      "actionBefore": "TEST/Readable01",
      "actionWhile": "",
      "actionAfter": "",
      "optionIcon": "",
      "iconPath": ""
    },
    {
      "id": 5161202,
      "nextDialogs": [
        5161203
      ],
      "talkRole": {
        "type": "TALK_ROLE_NPC",
        "_id": "20413"
      },
      "talkContentTextMapHash": 2888222115,
      "talkRoleNameTextMapHash": 3840931476,
      "talkAssetPath": "",
      "talkAssetPathAlter": "",
      "talkAudioName": "",
      "actionBefore": "",
      "actionWhile": "",
      "actionAfter": "",
      "optionIcon": "",
      "iconPath": ""
    },
    {
      "id": 5161203,
      "nextDialogs": [
        5161204
      ],
      "talkRole": {
        "type": "TALK_ROLE_NPC",
        "_id": "20413"
      },
      "talkContentTextMapHash": 285889635,
      "talkRoleNameTextMapHash": 3245054852,
      "talkAssetPath": "",
      "talkAssetPathAlter": "",
      "talkAudioName": "",
      "actionBefore": "",
      "actionWhile": "",
      "actionAfter": "",
      "optionIcon": "",
      "iconPath": ""
    },
    {
      "id": 5161204,
      "talkRole": {
        "type": "TALK_ROLE_NPC",
        "_id": "20413"
      },
      "talkContentTextMapHash": 115126819,
      "talkRoleNameTextMapHash": 2964377452,
      "talkAssetPath": "",
      "talkAssetPathAlter": "",
      "talkAudioName": "",
      "actionBefore": "",
      "actionWhile": "",
      "actionAfter": "",
      "optionIcon": "",
      "iconPath": ""
    }
  ]
}