{
  "talkId": 52401,
  "KPGKDHAFHFE": "FREE",
  "dialogList": [
    {
      "id": 5170101,
      "talkRole": {
        "type": "TALK_ROLE_NPC",
        "_id": "20414"
      },
      "talkContentTextMapHash": 2034596451,
      "talkRoleNameTextMapHash": 2384747148,
      "talkAssetPath": "",
      "talkAssetPathAlter": "",
      "talkAudioName": "",
      "actionBefore": "TEST/Readable01",
      "actionWhile": "",
      "actionAfter": "",
      "optionIcon": "",
      "iconPath": ""
    }
  ]
}