{
  "talkId": 52411,
  "KPGKDHAFHFE": "FREE",
  "dialogList": [
    {
      "id": 5171101,
      "nextDialogs": [
        5171102
      ],
      "talkRole": {
        "type": "TALK_ROLE_NPC",
        "_id": "20414"
      },
      "talkContentTextMapHash": 2274521571,
      "talkRoleNameTextMapHash": 404192460,
      "talkAssetPath": "",
      "talkAssetPathAlter": "",
      "talkAudioName": "",
      "actionBefore": "TEST/Readable01",
      "actionWhile": "",
      "actionAfter": "",
      "optionIcon": "",
      "iconPath": ""
    },
    {
      "id": 5171102,
      "nextDialogs": [
        5171103
      ],
      "talkRole": {
        "type": "TALK_ROLE_NPC",
        "_id": "20414"
      },
      "talkContentTextMapHash": 3732599715,
      "talkRoleNameTextMapHash": 1461300548,
      "talkAssetPath": "",
      "talkAssetPathAlter": "",
      "talkAudioName": "",
      "actionBefore": "",
      "actionWhile": "",
      "actionAfter": "",
      "optionIcon": "",
      "iconPath": ""
    },
    {
      "id": 5171103,
      "nextDialogs": [
        5171104
      ],
      "talkRole": {
        "type": "TALK_ROLE_NPC",
        "_id": "20414"
      },
      "talkContentTextMapHash": 3088391451,
      "talkRoleNameTextMapHash": 221773236,
      "talkAssetPath": "",
      "talkAssetPathAlter": "",
      "talkAudioName": "",
      "actionBefore": "",
      "actionWhile": "",
      "actionAfter": "",
      "optionIcon": "",
      "iconPath": ""
    },
    {
      "id": 5171104,
      "nextDialogs": [
        5171105
      ],
      "talkRole": {
        "type": "TALK_ROLE_NPC",
        "_id": "20414"
      },
      "talkContentTextMapHash": 4131863163,
      "talkRoleNameTextMapHash": 2173559644,
      "talkAssetPath": "",
      "talkAssetPathAlter": "",
      "talkAudioName": "",
      "actionBefore": "",
      "actionWhile": "",
      "actionAfter": "",
      "optionIcon": "",
      "iconPath": ""
    },
    {
      "id": 5171105,
      "talkRole": {
        "type": "TALK_ROLE_NPC",
        "_id": "20414"
      },
      "talkContentTextMapHash": 3317418483,
      "talkRoleNameTextMapHash": 1969256348,
      "talkAssetPath": "",
      "talkAssetPathAlter": "",
      "talkAudioName": "",
      "actionBefore": "",
      "actionWhile": "",
      "actionAfter": "",
      "optionIcon": "",
      "iconPath": ""
    }
  ]
}