{
  "talkId": 52419,
  "KPGKDHAFHFE": "FREE",
  "dialogList": [
    {
      "id": 5241901,
      "nextDialogs": [
        5241902
      ],
      "talkRole": {
        "type": "TALK_ROLE_NPC",
        "_id": "20414"
      },
      "talkContentTextMapHash": 418477179,
      "talkRoleNameTextMapHash": 472948284,
      "talkAssetPath": "",
      "talkAssetPathAlter": "",
      "talkAudioName": "",
      "actionBefore": "TEST/Readable01",
      "actionWhile": "",
      "actionAfter": "",
      "optionIcon": "",
      "iconPath": ""
    },
    {
      "id": 5241902,
      "nextDialogs": [
        5241903
      ],
      "talkRole": {
        "type": "TALK_ROLE_NPC",
        "_id": "20414"
      },
      "talkContentTextMapHash": 1549415595,
      "talkRoleNameTextMapHash": 628365620,
      "talkAssetPath": "",
      "talkAssetPathAlter": "",
      "talkAudioName": "",
      "actionBefore": "",
      "actionWhile": "",
      "actionAfter": "",
      "optionIcon": "",
      "iconPath": ""
    },
    {
      "id": 5241903,
      "nextDialogs": [
        5241904
      ],
      "talkRole": {
        "type": "TALK_ROLE_NPC",
        "_id": "20414"
      },
      "talkContentTextMapHash": 2583064819,
      "talkRoleNameTextMapHash": 2020283268,
      "talkAssetPath": "",
      "talkAssetPathAlter": "",
      "talkAudioName": "",
      "actionBefore": "",
      "actionWhile": "",
      "actionAfter": "",
      "optionIcon": "",
      "iconPath": ""
    },
    {
      "id": 5241904,
      "talkRole": {
        "type": "TALK_ROLE_NPC",
        "_id": "20414"
      },
      "talkContentTextMapHash": 3173722947,
      "talkRoleNameTextMapHash": 2656679364,
      "talkAssetPath": "",
      "talkAssetPathAlter": "",
      "talkAudioName": "",
      "actionBefore": "",
      "actionWhile": "",
      "actionAfter": "",
      "optionIcon": "",
      "iconPath": ""
    }
  ]
}