{
  "talkId": 6909504,
  "KPGKDHAFHFE": "FREE",
  "dialogList": [
    {
      "id": 690950401,
      "nextDialogs": [
        690950402
      ],
      "talkShowType": "TALK_SHOW_FORCE_SELECT",
      "talkRole": {
        "type": "TALK_ROLE_PLAYER",
        "_id": ""
      },
      "talkContentTextMapHash": 2144675058,
      "talkAssetPath": "",
      "talkAssetPathAlter": "",
      "talkAudioName": "",
      "actionBefore": "",
      "actionWhile": "",
      "actionAfter": "",
      "optionIcon": "",
      "iconPath": ""
    },
    {
      "id": 690950402,
      "nextDialogs": [
        690950403
      ],
      "talkRole": {
        "type": "TALK_ROLE_NPC",
        "_id": "9095"
      },
      "talkContentTextMapHash": 134343290,
      "talkAssetPath": "",
      "talkAssetPathAlter": "",
      "talkAudioName": "",
      "actionBefore": "",
      "actionWhile": "",
      "actionAfter": "",
      "optionIcon": "",
      "iconPath": ""
    },
    {
      "id": 690950403,
      "nextDialogs": [
        690950404,
        690950407
      ],
      "talkRole": {
        "type": "TALK_ROLE_NPC",
        "_id": "9095"
      },
      "talkContentTextMapHash": 87610018,
      "talkAssetPath": "",
      "talkAssetPathAlter": "",
      "talkAudioName": "",
      "actionBefore": "",
      "actionWhile": "",
      "actionAfter": "",
      "optionIcon": "",
      "iconPath": ""
    },
    {
      "id": 690950404,
      "nextDialogs": [
        690950405
      ],
      "talkShowType": "TALK_SHOW_FORCE_SELECT",
      "talkRole": {
        "type": "TALK_ROLE_PLAYER",
        "_id": ""
      },
      "talkContentTextMapHash": 4228913578,
      "talkAssetPath": "",
      "talkAssetPathAlter": "",
      "talkAudioName": "",
      "actionBefore": "",
      "actionWhile": "",
      "actionAfter": "",
      "optionIcon": "",
      "iconPath": ""
    },
    {
      "id": 690950405,
      "nextDialogs": [
        690950406
      ],
      "talkRole": {
        "type": "TALK_ROLE_NPC",
        "_id": "9095"
      },
      "talkContentTextMapHash": 1628415530,
      "talkAssetPath": "",
      "talkAssetPathAlter": "",
      "talkAudioName": "",
      "actionBefore": "",
      "actionWhile": "",
      "actionAfter": "",
      "optionIcon": "",
      "iconPath": ""
    },
    {
      "id": 690950406,
      "nextDialogs": [
        690950411
      ],
      "talkRole": {
        "type": "TALK_ROLE_NPC",
        "_id": "9095"
      },
      "talkContentTextMapHash": 3560569314,
      "talkAssetPath": "",
      "talkAssetPathAlter": "",
      "talkAudioName": "",
      "actionBefore": "",
      "actionWhile": "",
      "actionAfter": "",
      "optionIcon": "",
      "iconPath": ""
    },
    {
      "id": 690950411,
      "nextDialogs": [
        690950412
      ],
      "talkRole": {
        "type": "TALK_ROLE_NPC",
        "_id": "9095"
      },
      "talkContentTextMapHash": 1177920874,
      "talkAssetPath": "",
      "talkAssetPathAlter": "",
      "talkAudioName": "",
      "actionBefore": "",
      "actionWhile": "",
      "actionAfter": "",
      "optionIcon": "",
      "iconPath": ""
    },
    {
      "id": 690950412,
      "nextDialogs": [
        690950413
      ],
      "talkShowType": "TALK_SHOW_FORCE_SELECT",
      "talkRole": {
        "type": "TALK_ROLE_PLAYER",
        "_id": ""
      },
      "talkContentTextMapHash": 672280130,
      "talkAssetPath": "",
      "talkAssetPathAlter": "",
      "talkAudioName": "",
      "actionBefore": "",
      "actionWhile": "",
      "actionAfter": "",
      "optionIcon": "",
      "iconPath": ""
    },
    {
      "id": 690950413,
      "nextDialogs": [
        690950414
      ],
      "talkRole": {
        "type": "TALK_ROLE_NPC",
        "_id": "9095"
      },
      "talkContentTextMapHash": 2803852954,
      "talkAssetPath": "",
      "talkAssetPathAlter": "",
      "talkAudioName": "",
      "actionBefore": "",
      "actionWhile": "",
      "actionAfter": "",
      "optionIcon": "",
      "iconPath": ""
    },
    {
      "id": 690950414,
      "nextDialogs": [
        690950415
      ],
      "talkRole": {
        "type": "TALK_ROLE_NPC",
        "_id": "9095"
      },
      "talkContentTextMapHash": 4014112130,
      "talkAssetPath": "",
      "talkAssetPathAlter": "",
      "talkAudioName": "",
      "actionBefore": "",
      "actionWhile": "",
      "actionAfter": "",
      "optionIcon": "",
      "iconPath": ""
    },
    {
      "id": 690950415,
      "nextDialogs": [
        690950416
      ],
      "talkRole": {
        "type": "TALK_ROLE_NPC",
        "_id": "9095"
      },
      "talkContentTextMapHash": 3195518938,
      "talkAssetPath": "",
      "talkAssetPathAlter": "",
      "talkAudioName": "",
      "actionBefore": "",
      "actionWhile": "",
      "actionAfter": "",
      "optionIcon": "",
      "iconPath": ""
    },
    {
      "id": 690950416,
      "nextDialogs": [
        690950417
      ],
      "talkRole": {
        "type": "TALK_ROLE_NPC",
        "_id": "9095"
      },
      "talkContentTextMapHash": 2020486938,
      "talkAssetPath": "",
      "talkAssetPathAlter": "",
      "talkAudioName": "",
      "actionBefore": "",
      "actionWhile": "",
      "actionAfter": "",
      "optionIcon": "",
      "iconPath": ""
    },
    {
      "id": 690950417,
      "nextDialogs": [
        690950418
      ],
      "talkRole": {
        "type": "TALK_ROLE_NPC",
        "_id": "9095"
      },
      "talkContentTextMapHash": 1756986002,
      "talkAssetPath": "",
      "talkAssetPathAlter": "",
      "talkAudioName": "",
      "actionBefore": "",
      "actionWhile": "",
      "actionAfter": "",
      "optionIcon": "",
      "iconPath": ""
    },
    {
      "id": 690950418,
      "nextDialogs": [
        690950419
      ],
      "talkRole": {
        "type": "TALK_ROLE_NPC",
        "_id": "9095"
      },
      "talkContentTextMapHash": 3430170546,
      "talkAssetPath": "",
      "talkAssetPathAlter": "",
      "talkAudioName": "",
      "actionBefore": "",
      "actionWhile": "",
      "actionAfter": "",
      "optionIcon": "",
      "iconPath": ""
    },
    {
      "id": 690950419,
      "nextDialogs": [
        690950420,
        690950422
      ],
      "talkRole": {
        "type": "TALK_ROLE_NPC",
        "_id": "9095"
      },
      "talkContentTextMapHash": 2753581794,
      "talkAssetPath": "",
      "talkAssetPathAlter": "",
      "talkAudioName": "",
      "actionBefore": "",
      "actionWhile": "",
      "actionAfter": "",
      "optionIcon": "",
      "iconPath": ""
    },
    {
      "id": 690950420,
      "nextDialogs": [
        690950421
      ],
      "talkShowType": "TALK_SHOW_FORCE_SELECT",
      "talkRole": {
        "type": "TALK_ROLE_PLAYER",
        "_id": ""
      },
      "talkContentTextMapHash": 2078444170,
      "talkAssetPath": "",
      "talkAssetPathAlter": "",
      "talkAudioName": "",
      "actionBefore": "",
      "actionWhile": "",
      "actionAfter": "",
      "optionIcon": "",
      "iconPath": ""
    },
    {
      "id": 690950421,
      "nextDialogs": [
        690950424
      ],
      "talkRole": {
        "type": "TALK_ROLE_NPC",
        "_id": "9095"
      },
      "talkContentTextMapHash": 3076557258,
      "talkAssetPath": "",
      "talkAssetPathAlter": "",
      "talkAudioName": "",
      "actionBefore": "",
      "actionWhile": "",
      "actionAfter": "",
      "optionIcon": "",
      "iconPath": ""
    },
    {
      "id": 690950424,
      "nextDialogs": [
        690950425
      ],
      "talkRole": {
        "type": "TALK_ROLE_NPC",
        "_id": "9095"
      },
      "talkContentTextMapHash": 469794474,
      "talkAssetPath": "",
      "talkAssetPathAlter": "",
      "talkAudioName": "",
      "actionBefore": "",
      "actionWhile": "",
      "actionAfter": "",
      "optionIcon": "",
      "iconPath": ""
    },
    {
      "id": 690950425,
      "talkRole": {
        "type": "TALK_ROLE_NPC",
        "_id": "9095"
      },
      "talkContentTextMapHash": 42957210,
      "talkAssetPath": "",
      "talkAssetPathAlter": "",
      "talkAudioName": "",
      "actionBefore": "",
      "actionWhile": "",
      "actionAfter": "",
      "optionIcon": "",
      "iconPath": ""
    },
    {
      "id": 690950422,
      "nextDialogs": [
        690950423
      ],
      "talkShowType": "TALK_SHOW_FORCE_SELECT",
      "talkRole": {
        "type": "TALK_ROLE_PLAYER",
        "_id": ""
      },
      "talkContentTextMapHash": 259233186,
      "talkAssetPath": "",
      "talkAssetPathAlter": "",
      "talkAudioName": "",
      "actionBefore": "",
      "actionWhile": "",
      "actionAfter": "",
      "optionIcon": "",
      "iconPath": ""
    },
    {
      "id": 690950423,
      "nextDialogs": [
        690950424
      ],
      "talkRole": {
        "type": "TALK_ROLE_NPC",
        "_id": "9095"
      },
      "talkContentTextMapHash": 454070666,
      "talkAssetPath": "",
      "talkAssetPathAlter": "",
      "talkAudioName": "",
      "actionBefore": "",
      "actionWhile": "",
      "actionAfter": "",
      "optionIcon": "",
      "iconPath": ""
    },
    {
      "id": 690950407,
      "nextDialogs": [
        690950408
      ],
      "talkShowType": "TALK_SHOW_FORCE_SELECT",
      "talkRole": {
        "type": "TALK_ROLE_PLAYER",
        "_id": ""
      },
      "talkContentTextMapHash": 2388362834,
      "talkAssetPath": "",
      "talkAssetPathAlter": "",
      "talkAudioName": "",
      "actionBefore": "",
      "actionWhile": "",
      "actionAfter": "",
      "optionIcon": "",
      "iconPath": ""
    },
    {
      "id": 690950408,
      "nextDialogs": [
        690950409
      ],
      "talkRole": {
        "type": "TALK_ROLE_NPC",
        "_id": "9095"
      },
      "talkContentTextMapHash": 3568913594,
      "talkAssetPath": "",
      "talkAssetPathAlter": "",
      "talkAudioName": "",
      "actionBefore": "",
      "actionWhile": "",
      "actionAfter": "",
      "optionIcon": "",
      "iconPath": ""
    },
    {
      "id": 690950409,
      "nextDialogs": [
        690950410
      ],
      "talkRole": {
        "type": "TALK_ROLE_NPC",
        "_id": "9095"
      },
      "talkContentTextMapHash": 2703481178,
      "talkAssetPath": "",
      "talkAssetPathAlter": "",
      "talkAudioName": "",
      "actionBefore": "",
      "actionWhile": "",
      "actionAfter": "",
      "optionIcon": "",
      "iconPath": ""
    },
    {
      "id": 690950410,
      "nextDialogs": [
        690950411
      ],
      "talkRole": {
        "type": "TALK_ROLE_NPC",
        "_id": "9095"
      },
      "talkContentTextMapHash": 3679981074,
      "talkAssetPath": "",
      "talkAssetPathAlter": "",
      "talkAudioName": "",
      "actionBefore": "",
      "actionWhile": "",
      "actionAfter": "",
      "optionIcon": "",
      "iconPath": ""
    }
  ]
}