{
  "talkId": 5900005,
  "KPGKDHAFHFE": "FREE",
  "dialogList": [
    {
      "id": 590000501,
      "talkRole": {
        "type": "TALK_ROLE_PLAYER",
        "_id": ""
      },
      "talkContentTextMapHash": 2721779226,
      "talkAssetPath": "",
      "talkAssetPathAlter": "",
      "talkAudioName": "",
      "actionBefore": "",
      "actionWhile": "",
      "actionAfter": "",
      "optionIcon": "UI_Icon_Intee_TalkSpecial",
      "iconPath": ""
    }
  ]
}