{
  "talkId": 5900127,
  "KPGKDHAFHFE": "FREE",
  "dialogList": [
    {
      "id": 590012701,
      "talkRole": {
        "type": "TALK_ROLE_NPC",
        "_id": "5012"
      },
      "talkContentTextMapHash": 1205561786,
      "talkAssetPath": "",
      "talkAssetPathAlter": "",
      "talkAudioName": "",
      "actionBefore": "",
      "actionWhile": "",
      "actionAfter": "",
      "optionIcon": "",
      "iconPath": ""
    }
  ]
}