{
  "talkId": 60437801,
  "KPGKDHAFHFE": "FREE",
  "dialogList": [
    {
      "id": 400060101,
      "talkRole": {
        "type": "TALK_ROLE_NPC",
        "_id": "10215"
      },
      "talkContentTextMapHash": 835596910,
      "talkRoleNameTextMapHash": 1492832529,
      "talkAssetPath": "",
      "talkAssetPathAlter": "",
      "talkAudioName": "",
      "actionBefore": "",
      "actionWhile": "",
      "actionAfter": "UI/open_synthesis_page",
      "optionIcon": "UI_NPCTopIcon_Combine",
      "iconPath": ""
    }
  ]
}