{
  "talkId": 6140809,
  "KPGKDHAFHFE": "FREE",
  "dialogList": [
    {
      "id": 614080901,
      "nextDialogs": [
        614080902
      ],
      "talkShowType": "TALK_SHOW_FORCE_SELECT",
      "talkRole": {
        "type": "TALK_ROLE_PLAYER",
        "_id": ""
      },
      "talkContentTextMapHash": 3573892954,
      "talkAssetPath": "",
      "talkAssetPathAlter": "",
      "talkAudioName": "",
      "actionBefore": "",
      "actionWhile": "",
      "actionAfter": "",
      "optionIcon": "",
      "iconPath": ""
    },
    {
      "id": 614080902,
      "nextDialogs": [
        614080903
      ],
      "talkRole": {
        "type": "TALK_ROLE_NPC",
        "_id": "1700"
      },
      "talkContentTextMapHash": 6862642,
      "talkAssetPath": "",
      "talkAssetPathAlter": "",
      "talkAudioName": "",
      "actionBefore": "",
      "actionWhile": "",
      "actionAfter": "",
      "optionIcon": "",
      "iconPath": ""
    },
    {
      "id": 614080903,
      "nextDialogs": [
        614080904
      ],
      "talkRole": {
        "type": "TALK_ROLE_NPC",
        "_id": "1408"
      },
      "talkContentTextMapHash": 472134474,
      "talkAssetPath": "",
      "talkAssetPathAlter": "",
      "talkAudioName": "",
      "actionBefore": "",
      "actionWhile": "",
      "actionAfter": "",
      "optionIcon": "",
      "iconPath": ""
    },
    {
      "id": 614080904,
      "talkRole": {
        "type": "TALK_ROLE_NPC",
        "_id": "1408"
      },
      "talkContentTextMapHash": 3112990354,
      "talkAssetPath": "",
      "talkAssetPathAlter": "",
      "talkAudioName": "",
      "actionBefore": "",
      "actionWhile": "",
      "actionAfter": "SimpleTalk/LerpOutNpcNoSteer_End",
      "optionIcon": "",
      "iconPath": ""
    }
  ]
}