{
  "talkId": 6141101,
  "KPGKDHAFHFE": "FREE",
  "dialogList": [
    {
      "id": 614110101,
      "nextDialogs": [
        614110102
      ],
      "talkRole": {
        "type": "TALK_ROLE_PLAYER",
        "_id": ""
      },
      "talkContentTextMapHash": 3641017423,
      "talkAssetPath": "",
      "talkAssetPathAlter": "",
      "talkAudioName": "",
      "actionBefore": "",
      "actionWhile": "",
      "actionAfter": "",
      "optionIcon": "",
      "iconPath": ""
    },
    {
      "id": 614110102,
      "nextDialogs": [
        614110103
      ],
      "talkRole": {
        "type": "TALK_ROLE_NPC",
        "_id": "1412"
      },
      "talkContentTextMapHash": 2084550943,
      "talkAssetPath": "",
      "talkAssetPathAlter": "",
      "talkAudioName": "",
      "actionBefore": "",
      "actionWhile": "",
      "actionAfter": "",
      "optionIcon": "",
      "iconPath": ""
    },
    {
      "id": 614110103,
      "nextDialogs": [
        614110104
      ],
      "talkRole": {
        "type": "TALK_ROLE_NPC",
        "_id": "1412"
      },
      "talkContentTextMapHash": 3412879255,
      "talkAssetPath": "",
      "talkAssetPathAlter": "",
      "talkAudioName": "",
      "actionBefore": "",
      "actionWhile": "",
      "actionAfter": "",
      "optionIcon": "",
      "iconPath": ""
    },
    {
      "id": 614110104,
      "nextDialogs": [
        614110105
      ],
      "talkRole": {
        "type": "TALK_ROLE_NPC",
        "_id": "1412"
      },
      "talkContentTextMapHash": 1814206967,
      "talkAssetPath": "",
      "talkAssetPathAlter": "",
      "talkAudioName": "",
      "actionBefore": "",
      "actionWhile": "",
      "actionAfter": "",
      "optionIcon": "",
      "iconPath": ""
    },
    {
      "id": 614110105,
      "talkRole": {
        "type": "TALK_ROLE_NPC",
        "_id": "1412"
      },
      "talkContentTextMapHash": 791779855,
      "talkAssetPath": "",
      "talkAssetPathAlter": "",
      "talkAudioName": "",
      "actionBefore": "",
      "actionWhile": "",
      "actionAfter": "TEST/LerpOutNpcNoSteer",
      "optionIcon": "",
      "iconPath": ""
    }
  ]
}