{
  "talkId": 6142501,
  "KPGKDHAFHFE": "FREE",
  "dialogList": [
    {
      "id": 614250101,
      "nextDialogs": [
        614250102
      ],
      "talkRole": {
        "type": "TALK_ROLE_PLAYER",
        "_id": ""
      },
      "talkContentTextMapHash": 4040704671,
      "talkAssetPath": "",
      "talkAssetPathAlter": "",
      "talkAudioName": "",
      "actionBefore": "",
      "actionWhile": "",
      "actionAfter": "",
      "optionIcon": "UI_NPCTopIcon_Blacksmith",
      "iconPath": ""
    },
    {
      "id": 614250102,
      "talkRole": {
        "type": "TALK_ROLE_NPC",
        "_id": "1425"
      },
      "talkContentTextMapHash": 1371724759,
      "talkAssetPath": "",
      "talkAssetPathAlter": "",
      "talkAudioName": "",
      "actionBefore": "",
      "actionWhile": "",
      "actionAfter": "UI/open_synthesis_page",
      "optionIcon": "",
      "iconPath": ""
    }
  ]
}