{
  "talkId": 6142102,
  "KPGKDHAFHFE": "FREE",
  "dialogList": [
    {
      "id": 4015142106,
      "nextDialogs": [
        4015142116
      ],
      "talkRole": {
        "type": "TALK_ROLE_NPC",
        "_id": "1421"
      },
      "talkContentTextMapHash": 3051679943,
      "talkAssetPath": "",
      "talkAssetPathAlter": "",
      "talkAudioName": "",
      "actionBefore": "",
      "actionWhile": "",
      "actionAfter": "",
      "optionIcon": "",
      "iconPath": ""
    },
    {
      "id": 4015142116,
      "talkRole": {
        "type": "TALK_ROLE_NPC",
        "_id": "1421"
      },
      "talkContentTextMapHash": 1560026111,
      "talkAssetPath": "",
      "talkAssetPathAlter": "",
      "talkAudioName": "",
      "actionBefore": "",
      "actionWhile": "",
      "actionAfter": "",
      "optionIcon": "",
      "iconPath": ""
    }
  ]
}