{
  "talkId": 6142707,
  "KPGKDHAFHFE": "FREE",
  "dialogList": [
    {
      "id": 614270701,
      "talkRole": {
        "type": "TALK_ROLE_NPC",
        "_id": "1427"
      },
      "talkContentTextMapHash": 2307908754,
      "talkAssetPath": "",
      "talkAssetPathAlter": "",
      "talkAudioName": "",
      "actionBefore": "GCG/ClearWorldChallengeTalk",
      "actionWhile": "",
      "actionAfter": "",
      "optionIcon": "",
      "iconPath": ""
    }
  ]
}