{
  "talkId": 6143102,
  "KPGKDHAFHFE": "FREE",
  "dialogList": [
    {
      "id": 614310201,
      "nextDialogs": [
        614310202
      ],
      "talkShowType": "TALK_SHOW_FORCE_SELECT",
      "talkRole": {
        "type": "TALK_ROLE_PLAYER",
        "_id": ""
      },
      "talkContentTextMapHash": 3704010335,
      "talkAssetPath": "",
      "talkAssetPathAlter": "",
      "talkAudioName": "",
      "actionBefore": "",
      "actionWhile": "",
      "actionAfter": "",
      "optionIcon": "",
      "iconPath": ""
    },
    {
      "id": 614310202,
      "nextDialogs": [
        614310203
      ],
      "talkRole": {
        "type": "TALK_ROLE_NPC",
        "_id": "1431"
      },
      "talkContentTextMapHash": 1340371607,
      "talkAssetPath": "",
      "talkAssetPathAlter": "",
      "talkAudioName": "",
      "actionBefore": "",
      "actionWhile": "",
      "actionAfter": "",
      "optionIcon": "",
      "iconPath": ""
    },
    {
      "id": 614310203,
      "talkRole": {
        "type": "TALK_ROLE_NPC",
        "_id": "1431"
      },
      "talkContentTextMapHash": 3273252263,
      "talkAssetPath": "",
      "talkAssetPathAlter": "",
      "talkAudioName": "",
      "actionBefore": "",
      "actionWhile": "",
      "actionAfter": "",
      "optionIcon": "",
      "iconPath": ""
    }
  ]
}