{
  "talkId": 6143702,
  "KPGKDHAFHFE": "FREE",
  "dialogList": [
    {
      "id": 614370201,
      "nextDialogs": [
        614370202
      ],
      "talkRole": {
        "type": "TALK_ROLE_PLAYER",
        "_id": ""
      },
      "talkContentTextMapHash": 1891468647,
      "talkAssetPath": "",
      "talkAssetPathAlter": "",
      "talkAudioName": "",
      "actionBefore": "",
      "actionWhile": "",
      "actionAfter": "",
      "optionIcon": "",
      "iconPath": ""
    },
    {
      "id": 614370202,
      "nextDialogs": [
        614370203
      ],
      "talkRole": {
        "type": "TALK_ROLE_NPC",
        "_id": "1437"
      },
      "talkContentTextMapHash": 3004527047,
      "talkAssetPath": "",
      "talkAssetPathAlter": "",
      "talkAudioName": "",
      "actionBefore": "",
      "actionWhile": "",
      "actionAfter": "",
      "optionIcon": "",
      "iconPath": ""
    },
    {
      "id": 614370203,
      "nextDialogs": [
        614370204,
        614370206
      ],
      "talkRole": {
        "type": "TALK_ROLE_NPC",
        "_id": "1437"
      },
      "talkContentTextMapHash": 1111378143,
      "talkAssetPath": "",
      "talkAssetPathAlter": "",
      "talkAudioName": "",
      "actionBefore": "",
      "actionWhile": "",
      "actionAfter": "",
      "optionIcon": "",
      "iconPath": ""
    },
    {
      "id": 614370204,
      "nextDialogs": [
        614370205
      ],
      "talkRole": {
        "type": "TALK_ROLE_PLAYER",
        "_id": ""
      },
      "talkContentTextMapHash": 2385769335,
      "talkAssetPath": "",
      "talkAssetPathAlter": "",
      "talkAudioName": "",
      "actionBefore": "",
      "actionWhile": "",
      "actionAfter": "",
      "optionIcon": "",
      "iconPath": ""
    },
    {
      "id": 614370205,
      "talkRole": {
        "type": "TALK_ROLE_NPC",
        "_id": "1437"
      },
      "talkContentTextMapHash": 52152935,
      "talkAssetPath": "",
      "talkAssetPathAlter": "",
      "talkAudioName": "",
      "actionBefore": "",
      "actionWhile": "",
      "actionAfter": "",
      "optionIcon": "",
      "iconPath": ""
    },
    {
      "id": 614370206,
      "nextDialogs": [
        614370207
      ],
      "talkRole": {
        "type": "TALK_ROLE_PLAYER",
        "_id": ""
      },
      "talkContentTextMapHash": 1203358031,
      "talkAssetPath": "",
      "talkAssetPathAlter": "",
      "talkAudioName": "",
      "actionBefore": "",
      "actionWhile": "",
      "actionAfter": "",
      "optionIcon": "",
      "iconPath": ""
    },
    {
      "id": 614370207,
      "nextDialogs": [
        614370208
      ],
      "talkRole": {
        "type": "TALK_ROLE_NPC",
        "_id": "1437"
      },
      "talkContentTextMapHash": 99225151,
      "talkAssetPath": "",
      "talkAssetPathAlter": "",
      "talkAudioName": "",
      "actionBefore": "",
      "actionWhile": "",
      "actionAfter": "",
      "optionIcon": "",
      "iconPath": ""
    },
    {
      "id": 614370208,
      "nextDialogs": [
        614370209
      ],
      "talkShowType": "TALK_SHOW_FORCE_SELECT",
      "talkRole": {
        "type": "TALK_ROLE_PLAYER",
        "_id": ""
      },
      "talkContentTextMapHash": 2709182647,
      "talkAssetPath": "",
      "talkAssetPathAlter": "",
      "talkAudioName": "",
      "actionBefore": "",
      "actionWhile": "",
      "actionAfter": "",
      "optionIcon": "",
      "iconPath": ""
    },
    {
      "id": 614370209,
      "nextDialogs": [
        614370210
      ],
      "talkRole": {
        "type": "TALK_ROLE_NPC",
        "_id": "1437"
      },
      "talkContentTextMapHash": 3316595735,
      "talkAssetPath": "",
      "talkAssetPathAlter": "",
      "talkAudioName": "",
      "actionBefore": "",
      "actionWhile": "",
      "actionAfter": "",
      "optionIcon": "",
      "iconPath": ""
    },
    {
      "id": 614370210,
      "nextDialogs": [
        614370211
      ],
      "talkRole": {
        "type": "TALK_ROLE_NPC",
        "_id": "1437"
      },
      "talkContentTextMapHash": 1754798983,
      "talkAssetPath": "",
      "talkAssetPathAlter": "",
      "talkAudioName": "",
      "actionBefore": "",
      "actionWhile": "",
      "actionAfter": "",
      "optionIcon": "",
      "iconPath": ""
    },
    {
      "id": 614370211,
      "talkRole": {
        "type": "TALK_ROLE_NPC",
        "_id": "1437"
      },
      "talkContentTextMapHash": 2437856895,
      "talkAssetPath": "",
      "talkAssetPathAlter": "",
      "talkAudioName": "",
      "actionBefore": "",
      "actionWhile": "",
      "actionAfter": "",
      "optionIcon": "",
      "iconPath": ""
    }
  ]
}