{
  "talkId": 6143307,
  "KPGKDHAFHFE": "FREE",
  "dialogList": [
    {
      "id": 614330701,
      "nextDialogs": [
        614330702
      ],
      "talkShowType": "TALK_SHOW_FORCE_SELECT",
      "talkRole": {
        "type": "TALK_ROLE_PLAYER",
        "_id": ""
      },
      "talkContentTextMapHash": 4079148575,
      "talkAssetPath": "",
      "talkAssetPathAlter": "",
      "talkAudioName": "",
      "actionBefore": "",
      "actionWhile": "",
      "actionAfter": "",
      "optionIcon": "",
      "iconPath": ""
    },
    {
      "id": 614330702,
      "nextDialogs": [
        614330703
      ],
      "talkRole": {
        "type": "TALK_ROLE_NPC",
        "_id": "1433"
      },
      "talkContentTextMapHash": 3571885671,
      "talkAssetPath": "",
      "talkAssetPathAlter": "",
      "talkAudioName": "",
      "actionBefore": "",
      "actionWhile": "",
      "actionAfter": "",
      "optionIcon": "",
      "iconPath": ""
    },
    {
      "id": 614330703,
      "talkRole": {
        "type": "TALK_ROLE_NPC",
        "_id": "1433"
      },
      "talkContentTextMapHash": 474714407,
      "talkAssetPath": "",
      "talkAssetPathAlter": "",
      "talkAudioName": "",
      "actionBefore": "",
      "actionWhile": "",
      "actionAfter": "",
      "optionIcon": "",
      "iconPath": ""
    }
  ]
}