{
  "talkId": 6144902,
  "KPGKDHAFHFE": "FREE",
  "dialogList": [
    {
      "id": 614490201,
      "nextDialogs": [
        614490202
      ],
      "talkRole": {
        "type": "TALK_ROLE_PLAYER",
        "_id": ""
      },
      "talkContentTextMapHash": 2031343407,
      "talkAssetPath": "",
      "talkAssetPathAlter": "",
      "talkAudioName": "",
      "actionBefore": "",
      "actionWhile": "",
      "actionAfter": "",
      "optionIcon": "",
      "iconPath": ""
    },
    {
      "id": 614490202,
      "nextDialogs": [
        614490203
      ],
      "talkRole": {
        "type": "TALK_ROLE_NPC",
        "_id": "1449"
      },
      "talkContentTextMapHash": 2239979551,
      "talkAssetPath": "",
      "talkAssetPathAlter": "",
      "talkAudioName": "",
      "actionBefore": "",
      "actionWhile": "",
      "actionAfter": "",
      "optionIcon": "",
      "iconPath": ""
    },
    {
      "id": 614490203,
      "talkRole": {
        "type": "TALK_ROLE_NPC",
        "_id": "1449"
      },
      "talkContentTextMapHash": 658195663,
      "talkAssetPath": "",
      "talkAssetPathAlter": "",
      "talkAudioName": "",
      "actionBefore": "",
      "actionWhile": "",
      "actionAfter": "",
      "optionIcon": "",
      "iconPath": ""
    }
  ]
}