{
  "talkId": 6144702,
  "KPGKDHAFHFE": "FREE",
  "dialogList": [
    {
      "id": 614470201,
      "nextDialogs": [
        614470202
      ],
      "talkRole": {
        "type": "TALK_ROLE_PLAYER",
        "_id": ""
      },
      "talkContentTextMapHash": 3967797135,
      "talkAssetPath": "",
      "talkAssetPathAlter": "",
      "talkAudioName": "",
      "actionBefore": "",
      "actionWhile": "",
      "actionAfter": "",
      "optionIcon": "",
      "iconPath": ""
    },
    {
      "id": 614470202,
      "nextDialogs": [
        614470203
      ],
      "talkRole": {
        "type": "TALK_ROLE_NPC",
        "_id": "1447"
      },
      "talkContentTextMapHash": 3573594783,
      "talkAssetPath": "",
      "talkAssetPathAlter": "",
      "talkAudioName": "",
      "actionBefore": "",
      "actionWhile": "",
      "actionAfter": "",
      "optionIcon": "",
      "iconPath": ""
    },
    {
      "id": 614470203,
      "talkRole": {
        "type": "TALK_ROLE_NPC",
        "_id": "1447"
      },
      "talkContentTextMapHash": 1280288815,
      "talkAssetPath": "",
      "talkAssetPathAlter": "",
      "talkAudioName": "",
      "actionBefore": "",
      "actionWhile": "",
      "actionAfter": "",
      "optionIcon": "",
      "iconPath": ""
    }
  ]
}