{
  "talkId": 6145701,
  "KPGKDHAFHFE": "FREE",
  "dialogList": [
    {
      "id": 614570101,
      "talkRole": {
        "type": "TALK_ROLE_NPC",
        "_id": "1457"
      },
      "talkContentTextMapHash": 1959054335,
      "talkAssetPath": "",
      "talkAssetPathAlter": "",
      "talkAudioName": "",
      "actionBefore": "",
      "actionWhile": "TEST/LerpInNpc",
      "actionAfter": "",
      "optionIcon": "",
      "iconPath": ""
    }
  ]
}