{
  "talkId": 6145904,
  "KPGKDHAFHFE": "FREE",
  "dialogList": [
    {
      "id": 614590401,
      "talkRole": {
        "type": "TALK_ROLE_NPC",
        "_id": "1459"
      },
      "talkContentTextMapHash": 3579621535,
      "talkAssetPath": "",
      "talkAssetPathAlter": "",
      "talkAudioName": "",
      "actionBefore": "",
      "actionWhile": "",
      "actionAfter": "",
      "optionIcon": "",
      "iconPath": ""
    }
  ]
}