{
  "talkId": 6146710,
  "KPGKDHAFHFE": "FREE",
  "dialogList": [
    {
      "id": 614671001,
      "talkRole": {
        "type": "TALK_ROLE_NPC",
        "_id": "1467"
      },
      "talkContentTextMapHash": 2876206170,
      "talkAssetPath": "",
      "talkAssetPathAlter": "",
      "talkAudioName": "",
      "actionBefore": "GCG/ClearWorldChallengeTalk",
      "actionWhile": "",
      "actionAfter": "",
      "optionIcon": "",
      "iconPath": ""
    }
  ]
}