{
  "talkId": 6147703,
  "KPGKDHAFHFE": "FREE",
  "dialogList": [
    {
      "id": 4015147703,
      "nextDialogs": [
        4015147707
      ],
      "talkRole": {
        "type": "TALK_ROLE_NPC",
        "_id": "1477"
      },
      "talkContentTextMapHash": 2646562359,
      "talkAssetPath": "",
      "talkAssetPathAlter": "",
      "talkAudioName": "",
      "actionBefore": "",
      "actionWhile": "",
      "actionAfter": "",
      "optionIcon": "",
      "iconPath": ""
    },
    {
      "id": 4015147707,
      "nextDialogs": [
        4015147708
      ],
      "talkRole": {
        "type": "TALK_ROLE_NPC",
        "_id": "1477"
      },
      "talkContentTextMapHash": 882554303,
      "talkAssetPath": "",
      "talkAssetPathAlter": "",
      "talkAudioName": "",
      "actionBefore": "",
      "actionWhile": "",
      "actionAfter": "",
      "optionIcon": "",
      "iconPath": ""
    },
    {
      "id": 4015147708,
      "nextDialogs": [
        4015147709
      ],
      "talkRole": {
        "type": "TALK_ROLE_NPC",
        "_id": "1477"
      },
      "talkContentTextMapHash": 963490351,
      "talkAssetPath": "",
      "talkAssetPathAlter": "",
      "talkAudioName": "",
      "actionBefore": "",
      "actionWhile": "",
      "actionAfter": "",
      "optionIcon": "",
      "iconPath": ""
    },
    {
      "id": 4015147709,
      "nextDialogs": [
        4015147710
      ],
      "talkRole": {
        "type": "TALK_ROLE_NPC",
        "_id": "1477"
      },
      "talkContentTextMapHash": 519982551,
      "talkAssetPath": "",
      "talkAssetPathAlter": "",
      "talkAudioName": "",
      "actionBefore": "",
      "actionWhile": "",
      "actionAfter": "",
      "optionIcon": "",
      "iconPath": ""
    },
    {
      "id": 4015147710,
      "talkRole": {
        "type": "TALK_ROLE_NPC",
        "_id": "1477"
      },
      "talkContentTextMapHash": 1694865135,
      "talkAssetPath": "",
      "talkAssetPathAlter": "",
      "talkAudioName": "",
      "actionBefore": "",
      "actionWhile": "",
      "actionAfter": "TEST/LerpOutNpcNoSteer",
      "optionIcon": "",
      "iconPath": ""
    }
  ]
}