{
  "talkId": 6147702,
  "KPGKDHAFHFE": "FREE",
  "dialogList": [
    {
      "id": 4015147702,
      "nextDialogs": [
        4015147705
      ],
      "talkRole": {
        "type": "TALK_ROLE_NPC",
        "_id": "1477"
      },
      "talkContentTextMapHash": 2020317687,
      "talkAssetPath": "",
      "talkAssetPathAlter": "",
      "talkAudioName": "",
      "actionBefore": "",
      "actionWhile": "",
      "actionAfter": "",
      "optionIcon": "",
      "iconPath": ""
    },
    {
      "id": 4015147705,
      "nextDialogs": [
        4015147706
      ],
      "talkRole": {
        "type": "TALK_ROLE_NPC",
        "_id": "1477"
      },
      "talkContentTextMapHash": 1407184559,
      "talkAssetPath": "",
      "talkAssetPathAlter": "",
      "talkAudioName": "",
      "actionBefore": "",
      "actionWhile": "",
      "actionAfter": "",
      "optionIcon": "",
      "iconPath": ""
    },
    {
      "id": 4015147706,
      "talkRole": {
        "type": "TALK_ROLE_NPC",
        "_id": "1477"
      },
      "talkContentTextMapHash": 1009621783,
      "talkAssetPath": "",
      "talkAssetPathAlter": "",
      "talkAudioName": "",
      "actionBefore": "",
      "actionWhile": "",
      "actionAfter": "",
      "optionIcon": "",
      "iconPath": ""
    }
  ]
}