{
  "talkId": 6151201,
  "KPGKDHAFHFE": "FREE",
  "dialogList": [
    {
      "id": 615120101,
      "talkRole": {
        "type": "TALK_ROLE_NPC",
        "_id": "1512"
      },
      "talkContentTextMapHash": 3852737431,
      "talkAssetPath": "",
      "talkAssetPathAlter": "",
      "talkAudioName": "",
      "actionBefore": "",
      "actionWhile": "TEST/LerpInNpc",
      "actionAfter": "",
      "optionIcon": "",
      "iconPath": ""
    }
  ]
}