{
  "talkId": 6152505,
  "KPGKDHAFHFE": "FREE",
  "dialogList": [
    {
      "id": 615250501,
      "nextDialogs": [
        615250502
      ],
      "talkRole": {
        "type": "TALK_ROLE_PLAYER",
        "_id": ""
      },
      "talkContentTextMapHash": 3499425023,
      "talkAssetPath": "",
      "talkAssetPathAlter": "",
      "talkAudioName": "",
      "actionBefore": "",
      "actionWhile": "TEST/LerpInNpc",
      "actionAfter": "",
      "optionIcon": "",
      "iconPath": ""
    },
    {
      "id": 615250502,
      "nextDialogs": [
        615250503
      ],
      "talkRole": {
        "type": "TALK_ROLE_NPC",
        "_id": "1525"
      },
      "talkContentTextMapHash": 1127494263,
      "talkAssetPath": "",
      "talkAssetPathAlter": "",
      "talkAudioName": "",
      "actionBefore": "",
      "actionWhile": "",
      "actionAfter": "",
      "optionIcon": "",
      "iconPath": ""
    },
    {
      "id": 615250503,
      "nextDialogs": [
        615250504,
        615250513
      ],
      "talkRole": {
        "type": "TALK_ROLE_NPC",
        "_id": "1525"
      },
      "talkContentTextMapHash": 2863772095,
      "talkAssetPath": "",
      "talkAssetPathAlter": "",
      "talkAudioName": "",
      "actionBefore": "",
      "actionWhile": "",
      "actionAfter": "",
      "optionIcon": "",
      "iconPath": ""
    },
    {
      "id": 615250504,
      "nextDialogs": [
        615250505
      ],
      "talkRole": {
        "type": "TALK_ROLE_PLAYER",
        "_id": ""
      },
      "talkContentTextMapHash": 1618696103,
      "talkAssetPath": "",
      "talkAssetPathAlter": "",
      "talkAudioName": "",
      "actionBefore": "",
      "actionWhile": "",
      "actionAfter": "",
      "optionIcon": "",
      "iconPath": ""
    },
    {
      "id": 615250505,
      "nextDialogs": [
        615250506
      ],
      "talkRole": {
        "type": "TALK_ROLE_NPC",
        "_id": "1525"
      },
      "talkContentTextMapHash": 1299026071,
      "talkAssetPath": "",
      "talkAssetPathAlter": "",
      "talkAudioName": "",
      "actionBefore": "",
      "actionWhile": "",
      "actionAfter": "",
      "optionIcon": "",
      "iconPath": ""
    },
    {
      "id": 615250506,
      "nextDialogs": [
        615250507
      ],
      "talkShowType": "TALK_SHOW_FORCE_SELECT",
      "talkRole": {
        "type": "TALK_ROLE_PLAYER",
        "_id": ""
      },
      "talkContentTextMapHash": 681968631,
      "talkAssetPath": "",
      "talkAssetPathAlter": "",
      "talkAudioName": "",
      "actionBefore": "",
      "actionWhile": "",
      "actionAfter": "",
      "optionIcon": "",
      "iconPath": ""
    },
    {
      "id": 615250507,
      "nextDialogs": [
        615250508
      ],
      "talkRole": {
        "type": "TALK_ROLE_NPC",
        "_id": "1525"
      },
      "talkContentTextMapHash": 3965238727,
      "talkAssetPath": "",
      "talkAssetPathAlter": "",
      "talkAudioName": "",
      "actionBefore": "",
      "actionWhile": "",
      "actionAfter": "",
      "optionIcon": "",
      "iconPath": ""
    },
    {
      "id": 615250508,
      "nextDialogs": [
        615250509
      ],
      "talkRole": {
        "type": "TALK_ROLE_NPC",
        "_id": "1525"
      },
      "talkContentTextMapHash": 2344290871,
      "talkAssetPath": "",
      "talkAssetPathAlter": "",
      "talkAudioName": "",
      "actionBefore": "",
      "actionWhile": "",
      "actionAfter": "",
      "optionIcon": "",
      "iconPath": ""
    },
    {
      "id": 615250509,
      "nextDialogs": [
        615250510
      ],
      "talkRole": {
        "type": "TALK_ROLE_NPC",
        "_id": "1525"
      },
      "talkContentTextMapHash": 254120303,
      "talkAssetPath": "",
      "talkAssetPathAlter": "",
      "talkAudioName": "",
      "actionBefore": "",
      "actionWhile": "",
      "actionAfter": "",
      "optionIcon": "",
      "iconPath": ""
    },
    {
      "id": 615250510,
      "nextDialogs": [
        615250511
      ],
      "talkRole": {
        "type": "TALK_ROLE_NPC",
        "_id": "1525"
      },
      "talkContentTextMapHash": 2767152631,
      "talkAssetPath": "",
      "talkAssetPathAlter": "",
      "talkAudioName": "",
      "actionBefore": "",
      "actionWhile": "",
      "actionAfter": "",
      "optionIcon": "",
      "iconPath": ""
    },
    {
      "id": 615250511,
      "nextDialogs": [
        615250512
      ],
      "talkRole": {
        "type": "TALK_ROLE_NPC",
        "_id": "1525"
      },
      "talkContentTextMapHash": 1856362223,
      "talkAssetPath": "",
      "talkAssetPathAlter": "",
      "talkAudioName": "",
      "actionBefore": "",
      "actionWhile": "",
      "actionAfter": "",
      "optionIcon": "",
      "iconPath": ""
    },
    {
      "id": 615250512,
      "talkRole": {
        "type": "TALK_ROLE_NPC",
        "_id": "1525"
      },
      "talkContentTextMapHash": 1492711263,
      "talkAssetPath": "",
      "talkAssetPathAlter": "",
      "talkAudioName": "",
      "actionBefore": "",
      "actionWhile": "",
      "actionAfter": "",
      "optionIcon": "",
      "iconPath": ""
    },
    {
      "id": 615250513,
      "nextDialogs": [
        615250514
      ],
      "talkRole": {
        "type": "TALK_ROLE_PLAYER",
        "_id": ""
      },
      "talkContentTextMapHash": 2079396423,
      "talkAssetPath": "",
      "talkAssetPathAlter": "",
      "talkAudioName": "",
      "actionBefore": "",
      "actionWhile": "",
      "actionAfter": "",
      "optionIcon": "",
      "iconPath": ""
    },
    {
      "id": 615250514,
      "nextDialogs": [
        615250515
      ],
      "talkRole": {
        "type": "TALK_ROLE_NPC",
        "_id": "1525"
      },
      "talkContentTextMapHash": 845232543,
      "talkAssetPath": "",
      "talkAssetPathAlter": "",
      "talkAudioName": "",
      "actionBefore": "",
      "actionWhile": "",
      "actionAfter": "",
      "optionIcon": "",
      "iconPath": ""
    },
    {
      "id": 615250515,
      "nextDialogs": [
        615250516
      ],
      "talkRole": {
        "type": "TALK_ROLE_NPC",
        "_id": "1525"
      },
      "talkContentTextMapHash": 398278511,
      "talkAssetPath": "",
      "talkAssetPathAlter": "",
      "talkAudioName": "",
      "actionBefore": "",
      "actionWhile": "",
      "actionAfter": "",
      "optionIcon": "",
      "iconPath": ""
    },
    {
      "id": 615250516,
      "nextDialogs": [
        615250517
      ],
      "talkRole": {
        "type": "TALK_ROLE_NPC",
        "_id": "1525"
      },
      "talkContentTextMapHash": 2580654295,
      "talkAssetPath": "",
      "talkAssetPathAlter": "",
      "talkAudioName": "",
      "actionBefore": "",
      "actionWhile": "",
      "actionAfter": "",
      "optionIcon": "",
      "iconPath": ""
    },
    {
      "id": 615250517,
      "talkRole": {
        "type": "TALK_ROLE_NPC",
        "_id": "1525"
      },
      "talkContentTextMapHash": 250902359,
      "talkAssetPath": "",
      "talkAssetPathAlter": "",
      "talkAudioName": "",
      "actionBefore": "",
      "actionWhile": "",
      "actionAfter": "",
      "optionIcon": "",
      "iconPath": ""
    }
  ]
}