{
  "talkId": 6152103,
  "KPGKDHAFHFE": "FREE",
  "dialogList": [
    {
      "id": 615210301,
      "nextDialogs": [
        615210302
      ],
      "talkRole": {
        "type": "TALK_ROLE_PLAYER",
        "_id": ""
      },
      "talkContentTextMapHash": 2258105935,
      "talkAssetPath": "",
      "talkAssetPathAlter": "",
      "talkAudioName": "",
      "actionBefore": "",
      "actionWhile": "",
      "actionAfter": "",
      "optionIcon": "",
      "iconPath": ""
    },
    {
      "id": 615210302,
      "nextDialogs": [
        615210303
      ],
      "talkRole": {
        "type": "TALK_ROLE_NPC",
        "_id": "1521"
      },
      "talkContentTextMapHash": 2943736335,
      "talkAssetPath": "",
      "talkAssetPathAlter": "",
      "talkAudioName": "",
      "actionBefore": "",
      "actionWhile": "",
      "actionAfter": "",
      "optionIcon": "",
      "iconPath": ""
    },
    {
      "id": 615210303,
      "nextDialogs": [
        615210304
      ],
      "talkRole": {
        "type": "TALK_ROLE_NPC",
        "_id": "1521"
      },
      "talkContentTextMapHash": 1356612087,
      "talkAssetPath": "",
      "talkAssetPathAlter": "",
      "talkAudioName": "",
      "actionBefore": "",
      "actionWhile": "",
      "actionAfter": "",
      "optionIcon": "",
      "iconPath": ""
    },
    {
      "id": 615210304,
      "nextDialogs": [
        615210305
      ],
      "talkRole": {
        "type": "TALK_ROLE_NPC",
        "_id": "1521"
      },
      "talkContentTextMapHash": 551230727,
      "talkAssetPath": "",
      "talkAssetPathAlter": "",
      "talkAudioName": "",
      "actionBefore": "",
      "actionWhile": "",
      "actionAfter": "",
      "optionIcon": "",
      "iconPath": ""
    },
    {
      "id": 615210305,
      "talkRole": {
        "type": "TALK_ROLE_NPC",
        "_id": "1521"
      },
      "talkContentTextMapHash": 164661631,
      "talkAssetPath": "",
      "talkAssetPathAlter": "",
      "talkAudioName": "",
      "actionBefore": "",
      "actionWhile": "",
      "actionAfter": "TEST/LerpOutNpcNoSteer",
      "optionIcon": "",
      "iconPath": ""
    }
  ]
}