{
  "talkId": 6152703,
  "KPGKDHAFHFE": "FREE",
  "dialogList": [
    {
      "id": 615270301,
      "nextDialogs": [
        615270302
      ],
      "talkRole": {
        "type": "TALK_ROLE_PLAYER",
        "_id": ""
      },
      "talkContentTextMapHash": 1812569471,
      "talkAssetPath": "",
      "talkAssetPathAlter": "",
      "talkAudioName": "",
      "actionBefore": "",
      "actionWhile": "",
      "actionAfter": "",
      "optionIcon": "",
      "iconPath": ""
    },
    {
      "id": 615270302,
      "talkRole": {
        "type": "TALK_ROLE_NPC",
        "_id": "1527"
      },
      "talkContentTextMapHash": 2373780863,
      "talkAssetPath": "",
      "talkAssetPathAlter": "",
      "talkAudioName": "",
      "actionBefore": "",
      "actionWhile": "",
      "actionAfter": "",
      "optionIcon": "",
      "iconPath": ""
    }
  ]
}