{
  "talkId": 6153904,
  "KPGKDHAFHFE": "FREE",
  "dialogList": [
    {
      "id": 615390401,
      "nextDialogs": [
        615390402
      ],
      "talkRole": {
        "type": "TALK_ROLE_PLAYER",
        "_id": ""
      },
      "talkContentTextMapHash": 821492263,
      "talkAssetPath": "",
      "talkAssetPathAlter": "",
      "talkAudioName": "",
      "actionBefore": "",
      "actionWhile": "",
      "actionAfter": "",
      "optionIcon": "",
      "iconPath": ""
    },
    {
      "id": 615390402,
      "talkRole": {
        "type": "TALK_ROLE_NPC",
        "_id": "1539"
      },
      "talkContentTextMapHash": 3156940815,
      "talkAssetPath": "",
      "talkAssetPathAlter": "",
      "talkAudioName": "",
      "actionBefore": "",
      "actionWhile": "",
      "actionAfter": "",
      "optionIcon": "",
      "iconPath": ""
    }
  ]
}