{
  "talkId": 6153305,
  "KPGKDHAFHFE": "FREE",
  "dialogList": [
    {
      "id": 615330501,
      "nextDialogs": [
        615330502
      ],
      "talkRole": {
        "type": "TALK_ROLE_PLAYER",
        "_id": ""
      },
      "talkContentTextMapHash": 917257967,
      "talkAssetPath": "",
      "talkAssetPathAlter": "",
      "talkAudioName": "",
      "actionBefore": "",
      "actionWhile": "",
      "actionAfter": "",
      "optionIcon": "",
      "iconPath": ""
    },
    {
      "id": 615330502,
      "nextDialogs": [
        615330503
      ],
      "talkRole": {
        "type": "TALK_ROLE_NPC",
        "_id": "1533"
      },
      "talkContentTextMapHash": 1560998455,
      "talkAssetPath": "",
      "talkAssetPathAlter": "",
      "talkAudioName": "",
      "actionBefore": "",
      "actionWhile": "",
      "actionAfter": "",
      "optionIcon": "",
      "iconPath": ""
    },
    {
      "id": 615330503,
      "nextDialogs": [
        615330504
      ],
      "talkRole": {
        "type": "TALK_ROLE_NPC",
        "_id": "1533"
      },
      "talkContentTextMapHash": 680994791,
      "talkAssetPath": "",
      "talkAssetPathAlter": "",
      "talkAudioName": "",
      "actionBefore": "",
      "actionWhile": "",
      "actionAfter": "",
      "optionIcon": "",
      "iconPath": ""
    },
    {
      "id": 615330504,
      "nextDialogs": [
        615330505
      ],
      "talkRole": {
        "type": "TALK_ROLE_NPC",
        "_id": "1533"
      },
      "talkContentTextMapHash": 3213141663,
      "talkAssetPath": "",
      "talkAssetPathAlter": "",
      "talkAudioName": "",
      "actionBefore": "",
      "actionWhile": "",
      "actionAfter": "",
      "optionIcon": "",
      "iconPath": ""
    },
    {
      "id": 615330505,
      "nextDialogs": [
        615330506
      ],
      "talkRole": {
        "type": "TALK_ROLE_NPC",
        "_id": "1533"
      },
      "talkContentTextMapHash": 2587773863,
      "talkAssetPath": "",
      "talkAssetPathAlter": "",
      "talkAudioName": "",
      "actionBefore": "",
      "actionWhile": "",
      "actionAfter": "",
      "optionIcon": "",
      "iconPath": ""
    },
    {
      "id": 615330506,
      "talkRole": {
        "type": "TALK_ROLE_NPC",
        "_id": "1533"
      },
      "talkContentTextMapHash": 3375946391,
      "talkAssetPath": "",
      "talkAssetPathAlter": "",
      "talkAudioName": "",
      "actionBefore": "",
      "actionWhile": "",
      "actionAfter": "",
      "optionIcon": "",
      "iconPath": ""
    }
  ]
}