{
  "talkId": 6153502,
  "KPGKDHAFHFE": "FREE",
  "dialogList": [
    {
      "id": 615350201,
      "nextDialogs": [
        615350202
      ],
      "talkRole": {
        "type": "TALK_ROLE_PLAYER",
        "_id": ""
      },
      "talkContentTextMapHash": 1707681495,
      "talkAssetPath": "",
      "talkAssetPathAlter": "",
      "talkAudioName": "",
      "actionBefore": "",
      "actionWhile": "",
      "actionAfter": "",
      "optionIcon": "",
      "iconPath": ""
    },
    {
      "id": 615350202,
      "nextDialogs": [
        615350203
      ],
      "talkRole": {
        "type": "TALK_ROLE_NPC",
        "_id": "1535"
      },
      "talkContentTextMapHash": 2220525583,
      "talkAssetPath": "",
      "talkAssetPathAlter": "",
      "talkAudioName": "",
      "actionBefore": "",
      "actionWhile": "",
      "actionAfter": "",
      "optionIcon": "",
      "iconPath": ""
    },
    {
      "id": 615350203,
      "nextDialogs": [
        615350204
      ],
      "talkRole": {
        "type": "TALK_ROLE_NPC",
        "_id": "1535"
      },
      "talkContentTextMapHash": 1523849135,
      "talkAssetPath": "",
      "talkAssetPathAlter": "",
      "talkAudioName": "",
      "actionBefore": "",
      "actionWhile": "",
      "actionAfter": "",
      "optionIcon": "",
      "iconPath": ""
    },
    {
      "id": 615350204,
      "nextDialogs": [
        615350205
      ],
      "talkRole": {
        "type": "TALK_ROLE_NPC",
        "_id": "1535"
      },
      "talkContentTextMapHash": 1844699863,
      "talkAssetPath": "",
      "talkAssetPathAlter": "",
      "talkAudioName": "",
      "actionBefore": "",
      "actionWhile": "",
      "actionAfter": "",
      "optionIcon": "",
      "iconPath": ""
    },
    {
      "id": 615350205,
      "talkRole": {
        "type": "TALK_ROLE_NPC",
        "_id": "1535"
      },
      "talkContentTextMapHash": 923755423,
      "talkAssetPath": "",
      "talkAssetPathAlter": "",
      "talkAudioName": "",
      "actionBefore": "",
      "actionWhile": "",
      "actionAfter": "",
      "optionIcon": "",
      "iconPath": ""
    }
  ]
}