{
  "talkId": 6155302,
  "KPGKDHAFHFE": "FREE",
  "dialogList": [
    {
      "id": 615530201,
      "nextDialogs": [
        615530202
      ],
      "talkRole": {
        "type": "TALK_ROLE_PLAYER",
        "_id": ""
      },
      "talkContentTextMapHash": 3262242983,
      "talkAssetPath": "",
      "talkAssetPathAlter": "",
      "talkAudioName": "",
      "actionBefore": "",
      "actionWhile": "",
      "actionAfter": "",
      "optionIcon": "",
      "iconPath": ""
    },
    {
      "id": 615530202,
      "nextDialogs": [
        615530203
      ],
      "talkRole": {
        "type": "TALK_ROLE_NPC",
        "_id": "1553"
      },
      "talkContentTextMapHash": 4037493383,
      "talkAssetPath": "",
      "talkAssetPathAlter": "",
      "talkAudioName": "",
      "actionBefore": "",
      "actionWhile": "",
      "actionAfter": "",
      "optionIcon": "",
      "iconPath": ""
    },
    {
      "id": 615530203,
      "nextDialogs": [
        615530204
      ],
      "talkRole": {
        "type": "TALK_ROLE_NPC",
        "_id": "1553"
      },
      "talkContentTextMapHash": 2065584671,
      "talkAssetPath": "",
      "talkAssetPathAlter": "",
      "talkAudioName": "",
      "actionBefore": "",
      "actionWhile": "",
      "actionAfter": "",
      "optionIcon": "",
      "iconPath": ""
    },
    {
      "id": 615530204,
      "nextDialogs": [
        615530205,
        615530217
      ],
      "talkRole": {
        "type": "TALK_ROLE_NPC",
        "_id": "1553"
      },
      "talkContentTextMapHash": 3779845759,
      "talkAssetPath": "",
      "talkAssetPathAlter": "",
      "talkAudioName": "",
      "actionBefore": "",
      "actionWhile": "",
      "actionAfter": "",
      "optionIcon": "",
      "iconPath": ""
    },
    {
      "id": 615530205,
      "nextDialogs": [
        615530206
      ],
      "talkRole": {
        "type": "TALK_ROLE_PLAYER",
        "_id": ""
      },
      "talkContentTextMapHash": 3986995879,
      "talkAssetPath": "",
      "talkAssetPathAlter": "",
      "talkAudioName": "",
      "actionBefore": "",
      "actionWhile": "",
      "actionAfter": "",
      "optionIcon": "",
      "iconPath": ""
    },
    {
      "id": 615530206,
      "nextDialogs": [
        615530207
      ],
      "talkRole": {
        "type": "TALK_ROLE_NPC",
        "_id": "1553"
      },
      "talkContentTextMapHash": 953709199,
      "talkAssetPath": "",
      "talkAssetPathAlter": "",
      "talkAudioName": "",
      "actionBefore": "",
      "actionWhile": "",
      "actionAfter": "",
      "optionIcon": "",
      "iconPath": ""
    },
    {
      "id": 615530207,
      "nextDialogs": [
        615530208
      ],
      "talkRole": {
        "type": "TALK_ROLE_NPC",
        "_id": "1553"
      },
      "talkContentTextMapHash": 3122250751,
      "talkAssetPath": "",
      "talkAssetPathAlter": "",
      "talkAudioName": "",
      "actionBefore": "",
      "actionWhile": "",
      "actionAfter": "",
      "optionIcon": "",
      "iconPath": ""
    },
    {
      "id": 615530208,
      "nextDialogs": [
        615530209
      ],
      "talkRole": {
        "type": "TALK_ROLE_NPC",
        "_id": "1553"
      },
      "talkContentTextMapHash": 2864769871,
      "talkAssetPath": "",
      "talkAssetPathAlter": "",
      "talkAudioName": "",
      "actionBefore": "",
      "actionWhile": "",
      "actionAfter": "",
      "optionIcon": "",
      "iconPath": ""
    },
    {
      "id": 615530209,
      "nextDialogs": [
        615530210
      ],
      "talkRole": {
        "type": "TALK_ROLE_NPC",
        "_id": "1553"
      },
      "talkContentTextMapHash": 3181711119,
      "talkAssetPath": "",
      "talkAssetPathAlter": "",
      "talkAudioName": "",
      "actionBefore": "",
      "actionWhile": "",
      "actionAfter": "",
      "optionIcon": "",
      "iconPath": ""
    },
    {
      "id": 615530210,
      "nextDialogs": [
        615530211
      ],
      "talkShowType": "TALK_SHOW_FORCE_SELECT",
      "talkRole": {
        "type": "TALK_ROLE_PLAYER",
        "_id": ""
      },
      "talkContentTextMapHash": 867260631,
      "talkAssetPath": "",
      "talkAssetPathAlter": "",
      "talkAudioName": "",
      "actionBefore": "",
      "actionWhile": "",
      "actionAfter": "",
      "optionIcon": "",
      "iconPath": ""
    },
    {
      "id": 615530211,
      "nextDialogs": [
        615530212
      ],
      "talkRole": {
        "type": "TALK_ROLE_NPC",
        "_id": "1553"
      },
      "talkContentTextMapHash": 3659479343,
      "talkAssetPath": "",
      "talkAssetPathAlter": "",
      "talkAudioName": "",
      "actionBefore": "",
      "actionWhile": "",
      "actionAfter": "",
      "optionIcon": "",
      "iconPath": ""
    },
    {
      "id": 615530212,
      "nextDialogs": [
        615530213
      ],
      "talkRole": {
        "type": "TALK_ROLE_NPC",
        "_id": "1553"
      },
      "talkContentTextMapHash": 2188334319,
      "talkAssetPath": "",
      "talkAssetPathAlter": "",
      "talkAudioName": "",
      "actionBefore": "",
      "actionWhile": "",
      "actionAfter": "",
      "optionIcon": "",
      "iconPath": ""
    },
    {
      "id": 615530213,
      "nextDialogs": [
        615530214
      ],
      "talkRole": {
        "type": "TALK_ROLE_NPC",
        "_id": "1553"
      },
      "talkContentTextMapHash": 4241909927,
      "talkAssetPath": "",
      "talkAssetPathAlter": "",
      "talkAudioName": "",
      "actionBefore": "",
      "actionWhile": "",
      "actionAfter": "",
      "optionIcon": "",
      "iconPath": ""
    },
    {
      "id": 615530214,
      "nextDialogs": [
        615530215
      ],
      "talkRole": {
        "type": "TALK_ROLE_NPC",
        "_id": "1553"
      },
      "talkContentTextMapHash": 137339751,
      "talkAssetPath": "",
      "talkAssetPathAlter": "",
      "talkAudioName": "",
      "actionBefore": "",
      "actionWhile": "",
      "actionAfter": "",
      "optionIcon": "",
      "iconPath": ""
    },
    {
      "id": 615530215,
      "nextDialogs": [
        615530216
      ],
      "talkRole": {
        "type": "TALK_ROLE_NPC",
        "_id": "1553"
      },
      "talkContentTextMapHash": 3572759951,
      "talkAssetPath": "",
      "talkAssetPathAlter": "",
      "talkAudioName": "",
      "actionBefore": "",
      "actionWhile": "",
      "actionAfter": "",
      "optionIcon": "",
      "iconPath": ""
    },
    {
      "id": 615530216,
      "talkRole": {
        "type": "TALK_ROLE_NPC",
        "_id": "1553"
      },
      "talkContentTextMapHash": 3304811615,
      "talkAssetPath": "",
      "talkAssetPathAlter": "",
      "talkAudioName": "",
      "actionBefore": "",
      "actionWhile": "",
      "actionAfter": "",
      "optionIcon": "",
      "iconPath": ""
    },
    {
      "id": 615530217,
      "nextDialogs": [
        615530218
      ],
      "talkRole": {
        "type": "TALK_ROLE_PLAYER",
        "_id": ""
      },
      "talkContentTextMapHash": 2976507759,
      "talkAssetPath": "",
      "talkAssetPathAlter": "",
      "talkAudioName": "",
      "actionBefore": "",
      "actionWhile": "",
      "actionAfter": "",
      "optionIcon": "",
      "iconPath": ""
    },
    {
      "id": 615530218,
      "nextDialogs": [
        615530219
      ],
      "talkRole": {
        "type": "TALK_ROLE_NPC",
        "_id": "1553"
      },
      "talkContentTextMapHash": 1766378271,
      "talkAssetPath": "",
      "talkAssetPathAlter": "",
      "talkAudioName": "",
      "actionBefore": "",
      "actionWhile": "",
      "actionAfter": "",
      "optionIcon": "",
      "iconPath": ""
    },
    {
      "id": 615530219,
      "nextDialogs": [
        615530220
      ],
      "talkRole": {
        "type": "TALK_ROLE_NPC",
        "_id": "1553"
      },
      "talkContentTextMapHash": 2362088415,
      "talkAssetPath": "",
      "talkAssetPathAlter": "",
      "talkAudioName": "",
      "actionBefore": "",
      "actionWhile": "",
      "actionAfter": "",
      "optionIcon": "",
      "iconPath": ""
    },
    {
      "id": 615530220,
      "talkRole": {
        "type": "TALK_ROLE_NPC",
        "_id": "1553"
      },
      "talkContentTextMapHash": 1134798495,
      "talkAssetPath": "",
      "talkAssetPathAlter": "",
      "talkAudioName": "",
      "actionBefore": "",
      "actionWhile": "",
      "actionAfter": "",
      "optionIcon": "",
      "iconPath": ""
    }
  ]
}