{
  "talkId": 6156103,
  "KPGKDHAFHFE": "FREE",
  "dialogList": [
    {
      "id": 615610301,
      "nextDialogs": [
        615610302
      ],
      "talkRole": {
        "type": "TALK_ROLE_PLAYER",
        "_id": ""
      },
      "talkContentTextMapHash": 2330193831,
      "talkAssetPath": "",
      "talkAssetPathAlter": "",
      "talkAudioName": "",
      "actionBefore": "",
      "actionWhile": "",
      "actionAfter": "",
      "optionIcon": "",
      "iconPath": ""
    },
    {
      "id": 615610302,
      "nextDialogs": [
        615610303
      ],
      "talkRole": {
        "type": "TALK_ROLE_NPC",
        "_id": "1561"
      },
      "talkContentTextMapHash": 740527591,
      "talkAssetPath": "",
      "talkAssetPathAlter": "",
      "talkAudioName": "",
      "actionBefore": "",
      "actionWhile": "",
      "actionAfter": "",
      "optionIcon": "",
      "iconPath": ""
    },
    {
      "id": 615610303,
      "nextDialogs": [
        615610304
      ],
      "talkRole": {
        "type": "TALK_ROLE_NPC",
        "_id": "1561"
      },
      "talkContentTextMapHash": 1862254279,
      "talkAssetPath": "",
      "talkAssetPathAlter": "",
      "talkAudioName": "",
      "actionBefore": "",
      "actionWhile": "",
      "actionAfter": "",
      "optionIcon": "",
      "iconPath": ""
    },
    {
      "id": 615610304,
      "talkRole": {
        "type": "TALK_ROLE_NPC",
        "_id": "1561"
      },
      "talkContentTextMapHash": 179192991,
      "talkAssetPath": "",
      "talkAssetPathAlter": "",
      "talkAudioName": "",
      "actionBefore": "",
      "actionWhile": "",
      "actionAfter": "",
      "optionIcon": "",
      "iconPath": ""
    }
  ]
}