{
  "talkId": 6156502,
  "KPGKDHAFHFE": "FREE",
  "dialogList": [
    {
      "id": 615650201,
      "nextDialogs": [
        615650202
      ],
      "talkRole": {
        "type": "TALK_ROLE_PLAYER",
        "_id": ""
      },
      "talkContentTextMapHash": 3757879527,
      "talkAssetPath": "",
      "talkAssetPathAlter": "",
      "talkAudioName": "",
      "actionBefore": "",
      "actionWhile": "",
      "actionAfter": "",
      "optionIcon": "",
      "iconPath": ""
    },
    {
      "id": 615650202,
      "nextDialogs": [
        615650203
      ],
      "talkRole": {
        "type": "TALK_ROLE_NPC",
        "_id": "1565"
      },
      "talkContentTextMapHash": 4286059975,
      "talkAssetPath": "",
      "talkAssetPathAlter": "",
      "talkAudioName": "",
      "actionBefore": "",
      "actionWhile": "",
      "actionAfter": "",
      "optionIcon": "",
      "iconPath": ""
    },
    {
      "id": 615650203,
      "nextDialogs": [
        615650204,
        615650210
      ],
      "talkRole": {
        "type": "TALK_ROLE_NPC",
        "_id": "1565"
      },
      "talkContentTextMapHash": 2567651295,
      "talkAssetPath": "",
      "talkAssetPathAlter": "",
      "talkAudioName": "",
      "actionBefore": "",
      "actionWhile": "",
      "actionAfter": "",
      "optionIcon": "",
      "iconPath": ""
    },
    {
      "id": 615650204,
      "nextDialogs": [
        615650205
      ],
      "talkShowType": "TALK_SHOW_FORCE_SELECT",
      "talkRole": {
        "type": "TALK_ROLE_PLAYER",
        "_id": ""
      },
      "talkContentTextMapHash": 2469399719,
      "talkAssetPath": "",
      "talkAssetPathAlter": "",
      "talkAudioName": "",
      "actionBefore": "",
      "actionWhile": "",
      "actionAfter": "",
      "optionIcon": "",
      "iconPath": ""
    },
    {
      "id": 615650205,
      "nextDialogs": [
        615650206
      ],
      "talkRole": {
        "type": "TALK_ROLE_NPC",
        "_id": "1565"
      },
      "talkContentTextMapHash": 833281215,
      "talkAssetPath": "",
      "talkAssetPathAlter": "",
      "talkAudioName": "",
      "actionBefore": "",
      "actionWhile": "",
      "actionAfter": "",
      "optionIcon": "",
      "iconPath": ""
    },
    {
      "id": 615650206,
      "nextDialogs": [
        615650207
      ],
      "talkRole": {
        "type": "TALK_ROLE_NPC",
        "_id": "1565"
      },
      "talkContentTextMapHash": 2244163543,
      "talkAssetPath": "",
      "talkAssetPathAlter": "",
      "talkAudioName": "",
      "actionBefore": "",
      "actionWhile": "",
      "actionAfter": "",
      "optionIcon": "",
      "iconPath": ""
    },
    {
      "id": 615650207,
      "nextDialogs": [
        615650208
      ],
      "talkRole": {
        "type": "TALK_ROLE_NPC",
        "_id": "1565"
      },
      "talkContentTextMapHash": 3070506903,
      "talkAssetPath": "",
      "talkAssetPathAlter": "",
      "talkAudioName": "",
      "actionBefore": "",
      "actionWhile": "",
      "actionAfter": "",
      "optionIcon": "",
      "iconPath": ""
    },
    {
      "id": 615650208,
      "nextDialogs": [
        615650209
      ],
      "talkShowType": "TALK_SHOW_FORCE_SELECT",
      "talkRole": {
        "type": "TALK_ROLE_PLAYER",
        "_id": ""
      },
      "talkContentTextMapHash": 2835352399,
      "talkAssetPath": "",
      "talkAssetPathAlter": "",
      "talkAudioName": "",
      "actionBefore": "",
      "actionWhile": "",
      "actionAfter": "",
      "optionIcon": "",
      "iconPath": ""
    },
    {
      "id": 615650209,
      "talkRole": {
        "type": "TALK_ROLE_NPC",
        "_id": "1565"
      },
      "talkContentTextMapHash": 2075027071,
      "talkAssetPath": "",
      "talkAssetPathAlter": "",
      "talkAudioName": "",
      "actionBefore": "",
      "actionWhile": "",
      "actionAfter": "",
      "optionIcon": "",
      "iconPath": ""
    },
    {
      "id": 615650210,
      "nextDialogs": [
        615650211
      ],
      "talkShowType": "TALK_SHOW_FORCE_SELECT",
      "talkRole": {
        "type": "TALK_ROLE_PLAYER",
        "_id": ""
      },
      "talkContentTextMapHash": 1315129143,
      "talkAssetPath": "",
      "talkAssetPathAlter": "",
      "talkAudioName": "",
      "actionBefore": "",
      "actionWhile": "",
      "actionAfter": "",
      "optionIcon": "",
      "iconPath": ""
    },
    {
      "id": 615650211,
      "nextDialogs": [
        615650212
      ],
      "talkRole": {
        "type": "TALK_ROLE_NPC",
        "_id": "1565"
      },
      "talkContentTextMapHash": 247432415,
      "talkAssetPath": "",
      "talkAssetPathAlter": "",
      "talkAudioName": "",
      "actionBefore": "",
      "actionWhile": "",
      "actionAfter": "",
      "optionIcon": "",
      "iconPath": ""
    },
    {
      "id": 615650212,
      "nextDialogs": [
        615650213
      ],
      "talkRole": {
        "type": "TALK_ROLE_NPC",
        "_id": "1565"
      },
      "talkContentTextMapHash": 2810025159,
      "talkAssetPath": "",
      "talkAssetPathAlter": "",
      "talkAudioName": "",
      "actionBefore": "",
      "actionWhile": "",
      "actionAfter": "",
      "optionIcon": "",
      "iconPath": ""
    },
    {
      "id": 615650213,
      "talkRole": {
        "type": "TALK_ROLE_NPC",
        "_id": "1565"
      },
      "talkContentTextMapHash": 1476706759,
      "talkAssetPath": "",
      "talkAssetPathAlter": "",
      "talkAudioName": "",
      "actionBefore": "",
      "actionWhile": "",
      "actionAfter": "",
      "optionIcon": "",
      "iconPath": ""
    }
  ]
}