{
  "talkId": 6158301,
  "KPGKDHAFHFE": "FREE",
  "dialogList": [
    {
      "id": 615830101,
      "nextDialogs": [
        615830102
      ],
      "talkRole": {
        "type": "TALK_ROLE_NPC",
        "_id": "1583"
      },
      "talkContentTextMapHash": 1825298215,
      "talkAssetPath": "",
      "talkAssetPathAlter": "",
      "talkAudioName": "",
      "actionBefore": "",
      "actionWhile": "TEST/LerpInNpc",
      "actionAfter": "",
      "optionIcon": "",
      "iconPath": ""
    },
    {
      "id": 615830102,
      "talkRole": {
        "type": "TALK_ROLE_NPC",
        "_id": "1583"
      },
      "talkContentTextMapHash": 3768229039,
      "talkAssetPath": "",
      "talkAssetPathAlter": "",
      "talkAudioName": "",
      "actionBefore": "",
      "actionWhile": "",
      "actionAfter": "",
      "optionIcon": "",
      "iconPath": ""
    }
  ]
}