{
  "talkId": 6158709,
  "KPGKDHAFHFE": "FREE",
  "dialogList": [
    {
      "id": 615870901,
      "talkRole": {
        "type": "TALK_ROLE_NPC",
        "_id": "1587"
      },
      "talkContentTextMapHash": 512144698,
      "talkAssetPath": "",
      "talkAssetPathAlter": "",
      "talkAudioName": "",
      "actionBefore": "GCG/ClearWorldChallengeTalk",
      "actionWhile": "",
      "actionAfter": "",
      "optionIcon": "",
      "iconPath": ""
    }
  ]
}