{
  "talkId": 6160105,
  "KPGKDHAFHFE": "FREE",
  "dialogList": [
    {
      "id": 616010501,
      "nextDialogs": [
        616010502
      ],
      "talkRole": {
        "type": "TALK_ROLE_PLAYER",
        "_id": ""
      },
      "talkContentTextMapHash": 3052074095,
      "talkAssetPath": "",
      "talkAssetPathAlter": "",
      "talkAudioName": "",
      "actionBefore": "",
      "actionWhile": "",
      "actionAfter": "",
      "optionIcon": "",
      "iconPath": ""
    },
    {
      "id": 616010502,
      "nextDialogs": [
        616010503
      ],
      "talkRole": {
        "type": "TALK_ROLE_NPC",
        "_id": "1601"
      },
      "talkContentTextMapHash": 1410010119,
      "talkAssetPath": "",
      "talkAssetPathAlter": "",
      "talkAudioName": "",
      "actionBefore": "",
      "actionWhile": "",
      "actionAfter": "",
      "optionIcon": "",
      "iconPath": ""
    },
    {
      "id": 616010503,
      "nextDialogs": [
        616010504
      ],
      "talkRole": {
        "type": "TALK_ROLE_NPC",
        "_id": "1601"
      },
      "talkContentTextMapHash": 2419018903,
      "talkAssetPath": "",
      "talkAssetPathAlter": "",
      "talkAudioName": "",
      "actionBefore": "",
      "actionWhile": "",
      "actionAfter": "",
      "optionIcon": "",
      "iconPath": ""
    },
    {
      "id": 616010504,
      "talkRole": {
        "type": "TALK_ROLE_NPC",
        "_id": "1601"
      },
      "talkContentTextMapHash": 3666741119,
      "talkAssetPath": "",
      "talkAssetPathAlter": "",
      "talkAudioName": "",
      "actionBefore": "",
      "actionWhile": "",
      "actionAfter": "",
      "optionIcon": "",
      "iconPath": ""
    }
  ]
}