{
  "talkId": 6160506,
  "KPGKDHAFHFE": "FREE",
  "dialogList": [
    {
      "id": 616050601,
      "nextDialogs": [
        616050602
      ],
      "talkRole": {
        "type": "TALK_ROLE_PLAYER",
        "_id": ""
      },
      "talkContentTextMapHash": 339322095,
      "talkAssetPath": "",
      "talkAssetPathAlter": "",
      "talkAudioName": "",
      "actionBefore": "",
      "actionWhile": "",
      "actionAfter": "",
      "optionIcon": "",
      "iconPath": ""
    },
    {
      "id": 616050602,
      "nextDialogs": [
        616050603
      ],
      "talkRole": {
        "type": "TALK_ROLE_NPC",
        "_id": "1605"
      },
      "talkContentTextMapHash": 257368223,
      "talkAssetPath": "",
      "talkAssetPathAlter": "",
      "talkAudioName": "",
      "actionBefore": "",
      "actionWhile": "",
      "actionAfter": "",
      "optionIcon": "",
      "iconPath": ""
    },
    {
      "id": 616050603,
      "nextDialogs": [
        616050604
      ],
      "talkRole": {
        "type": "TALK_ROLE_NPC",
        "_id": "1605"
      },
      "talkContentTextMapHash": 1179512647,
      "talkAssetPath": "",
      "talkAssetPathAlter": "",
      "talkAudioName": "",
      "actionBefore": "",
      "actionWhile": "",
      "actionAfter": "",
      "optionIcon": "",
      "iconPath": ""
    },
    {
      "id": 616050604,
      "nextDialogs": [
        616050605
      ],
      "talkRole": {
        "type": "TALK_ROLE_NPC",
        "_id": "1605"
      },
      "talkContentTextMapHash": 1515538383,
      "talkAssetPath": "",
      "talkAssetPathAlter": "",
      "talkAudioName": "",
      "actionBefore": "",
      "actionWhile": "",
      "actionAfter": "",
      "optionIcon": "",
      "iconPath": ""
    },
    {
      "id": 616050605,
      "nextDialogs": [
        616050606
      ],
      "talkRole": {
        "type": "TALK_ROLE_NPC",
        "_id": "1605"
      },
      "talkContentTextMapHash": 2030919255,
      "talkAssetPath": "",
      "talkAssetPathAlter": "",
      "talkAudioName": "",
      "actionBefore": "",
      "actionWhile": "",
      "actionAfter": "",
      "optionIcon": "",
      "iconPath": ""
    },
    {
      "id": 616050606,
      "talkRole": {
        "type": "TALK_ROLE_NPC",
        "_id": "1605"
      },
      "talkContentTextMapHash": 3295764319,
      "talkAssetPath": "",
      "talkAssetPathAlter": "",
      "talkAudioName": "",
      "actionBefore": "",
      "actionWhile": "",
      "actionAfter": "",
      "optionIcon": "",
      "iconPath": ""
    }
  ]
}