{
  "talkId": 6160305,
  "KPGKDHAFHFE": "FREE",
  "dialogList": [
    {
      "id": 616030113,
      "nextDialogs": [
        616030114
      ],
      "talkRole": {
        "type": "TALK_ROLE_PLAYER",
        "_id": ""
      },
      "talkContentTextMapHash": 3716044807,
      "talkAssetPath": "",
      "talkAssetPathAlter": "",
      "talkAudioName": "",
      "actionBefore": "",
      "actionWhile": "",
      "actionAfter": "",
      "optionIcon": "",
      "iconPath": ""
    },
    {
      "id": 616030114,
      "nextDialogs": [
        616030115
      ],
      "talkRole": {
        "type": "TALK_ROLE_NPC",
        "_id": "1603"
      },
      "talkContentTextMapHash": 1965783287,
      "talkAssetPath": "",
      "talkAssetPathAlter": "",
      "talkAudioName": "",
      "actionBefore": "",
      "actionWhile": "",
      "actionAfter": "",
      "optionIcon": "",
      "iconPath": ""
    },
    {
      "id": 616030115,
      "talkRole": {
        "type": "TALK_ROLE_NPC",
        "_id": "1603"
      },
      "talkContentTextMapHash": 384787535,
      "talkAssetPath": "",
      "talkAssetPathAlter": "",
      "talkAudioName": "",
      "actionBefore": "",
      "actionWhile": "",
      "actionAfter": "",
      "optionIcon": "",
      "iconPath": ""
    }
  ]
}