{
  "talkId": 6160405,
  "KPGKDHAFHFE": "FREE",
  "dialogList": [
    {
      "id": 616040501,
      "nextDialogs": [
        616040502
      ],
      "talkRole": {
        "type": "TALK_ROLE_PLAYER",
        "_id": ""
      },
      "talkContentTextMapHash": 1579943815,
      "talkAssetPath": "",
      "talkAssetPathAlter": "",
      "talkAudioName": "",
      "actionBefore": "",
      "actionWhile": "",
      "actionAfter": "",
      "optionIcon": "",
      "iconPath": ""
    },
    {
      "id": 616040502,
      "nextDialogs": [
        616040503
      ],
      "talkRole": {
        "type": "TALK_ROLE_NPC",
        "_id": "1604"
      },
      "talkContentTextMapHash": 3046276839,
      "talkAssetPath": "",
      "talkAssetPathAlter": "",
      "talkAudioName": "",
      "actionBefore": "",
      "actionWhile": "",
      "actionAfter": "",
      "optionIcon": "",
      "iconPath": ""
    },
    {
      "id": 616040503,
      "nextDialogs": [
        616040504
      ],
      "talkRole": {
        "type": "TALK_ROLE_NPC",
        "_id": "1604"
      },
      "talkContentTextMapHash": 2465925471,
      "talkAssetPath": "",
      "talkAssetPathAlter": "",
      "talkAudioName": "",
      "actionBefore": "",
      "actionWhile": "",
      "actionAfter": "",
      "optionIcon": "",
      "iconPath": ""
    },
    {
      "id": 616040504,
      "nextDialogs": [
        616040505
      ],
      "talkRole": {
        "type": "TALK_ROLE_NPC",
        "_id": "1604"
      },
      "talkContentTextMapHash": 2940360743,
      "talkAssetPath": "",
      "talkAssetPathAlter": "",
      "talkAudioName": "",
      "actionBefore": "",
      "actionWhile": "",
      "actionAfter": "",
      "optionIcon": "",
      "iconPath": ""
    },
    {
      "id": 616040505,
      "talkRole": {
        "type": "TALK_ROLE_NPC",
        "_id": "1604"
      },
      "talkContentTextMapHash": 297095351,
      "talkAssetPath": "",
      "talkAssetPathAlter": "",
      "talkAudioName": "",
      "actionBefore": "",
      "actionWhile": "",
      "actionAfter": "",
      "optionIcon": "",
      "iconPath": ""
    }
  ]
}