{
  "talkId": 6162805,
  "KPGKDHAFHFE": "FREE",
  "dialogList": [
    {
      "id": 616280501,
      "nextDialogs": [
        616280502
      ],
      "talkShowType": "TALK_SHOW_FORCE_SELECT",
      "talkRole": {
        "type": "TALK_ROLE_PLAYER",
        "_id": ""
      },
      "talkContentTextMapHash": 1909858146,
      "talkAssetPath": "",
      "talkAssetPathAlter": "",
      "talkAudioName": "",
      "actionBefore": "",
      "actionWhile": "",
      "actionAfter": "",
      "optionIcon": "",
      "iconPath": ""
    },
    {
      "id": 616280502,
      "nextDialogs": [
        616280503
      ],
      "talkRole": {
        "type": "TALK_ROLE_NPC",
        "_id": "1628"
      },
      "talkContentTextMapHash": 1436535930,
      "talkAssetPath": "",
      "talkAssetPathAlter": "",
      "talkAudioName": "",
      "actionBefore": "",
      "actionWhile": "",
      "actionAfter": "",
      "optionIcon": "",
      "iconPath": ""
    },
    {
      "id": 616280503,
      "nextDialogs": [
        616280504
      ],
      "talkRole": {
        "type": "TALK_ROLE_NPC",
        "_id": "1628"
      },
      "talkContentTextMapHash": 3812141770,
      "talkAssetPath": "",
      "talkAssetPathAlter": "",
      "talkAudioName": "",
      "actionBefore": "",
      "actionWhile": "",
      "actionAfter": "",
      "optionIcon": "",
      "iconPath": ""
    },
    {
      "id": 616280504,
      "nextDialogs": [
        616280505
      ],
      "talkRole": {
        "type": "TALK_ROLE_NPC",
        "_id": "1628"
      },
      "talkContentTextMapHash": 3962829306,
      "talkAssetPath": "",
      "talkAssetPathAlter": "",
      "talkAudioName": "",
      "actionBefore": "",
      "actionWhile": "",
      "actionAfter": "",
      "optionIcon": "",
      "iconPath": ""
    },
    {
      "id": 616280505,
      "talkRole": {
        "type": "TALK_ROLE_NPC",
        "_id": "1628"
      },
      "talkContentTextMapHash": 5758922,
      "talkAssetPath": "",
      "talkAssetPathAlter": "",
      "talkAudioName": "",
      "actionBefore": "",
      "actionWhile": "",
      "actionAfter": "",
      "optionIcon": "",
      "iconPath": ""
    }
  ]
}