{
  "talkId": 6162905,
  "KPGKDHAFHFE": "FREE",
  "dialogList": [
    {
      "id": 616290501,
      "nextDialogs": [
        616290502
      ],
      "talkRole": {
        "type": "TALK_ROLE_PLAYER",
        "_id": ""
      },
      "talkContentTextMapHash": 3115257351,
      "talkAssetPath": "",
      "talkAssetPathAlter": "",
      "talkAudioName": "",
      "actionBefore": "",
      "actionWhile": "",
      "actionAfter": "",
      "optionIcon": "UI_Icon_Intee_Shop",
      "iconPath": ""
    },
    {
      "id": 616290502,
      "talkRole": {
        "type": "TALK_ROLE_NPC",
        "_id": "1629"
      },
      "talkContentTextMapHash": 2849812887,
      "talkAssetPath": "",
      "talkAssetPathAlter": "",
      "talkAudioName": "",
      "actionBefore": "",
      "actionWhile": "",
      "actionAfter": "Shop/shop_open_1030",
      "optionIcon": "",
      "iconPath": ""
    }
  ]
}