{
  "talkId": 6162407,
  "KPGKDHAFHFE": "FREE",
  "dialogList": [
    {
      "id": 616240701,
      "nextDialogs": [
        616240702
      ],
      "talkRole": {
        "type": "TALK_ROLE_PLAYER",
        "_id": ""
      },
      "talkContentTextMapHash": 2512366359,
      "talkAssetPath": "",
      "talkAssetPathAlter": "",
      "talkAudioName": "",
      "actionBefore": "",
      "actionWhile": "",
      "actionAfter": "",
      "optionIcon": "",
      "iconPath": ""
    },
    {
      "id": 616240702,
      "nextDialogs": [
        616240703
      ],
      "talkRole": {
        "type": "TALK_ROLE_NPC",
        "_id": "1624"
      },
      "talkContentTextMapHash": 2768327815,
      "talkAssetPath": "",
      "talkAssetPathAlter": "",
      "talkAudioName": "",
      "actionBefore": "",
      "actionWhile": "",
      "actionAfter": "",
      "optionIcon": "",
      "iconPath": ""
    },
    {
      "id": 616240703,
      "nextDialogs": [
        616240704
      ],
      "talkRole": {
        "type": "TALK_ROLE_NPC",
        "_id": "1624"
      },
      "talkContentTextMapHash": 2924212263,
      "talkAssetPath": "",
      "talkAssetPathAlter": "",
      "talkAudioName": "",
      "actionBefore": "",
      "actionWhile": "",
      "actionAfter": "",
      "optionIcon": "",
      "iconPath": ""
    },
    {
      "id": 616240704,
      "nextDialogs": [
        616240705
      ],
      "talkRole": {
        "type": "TALK_ROLE_NPC",
        "_id": "1624"
      },
      "talkContentTextMapHash": 670474759,
      "talkAssetPath": "",
      "talkAssetPathAlter": "",
      "talkAudioName": "",
      "actionBefore": "",
      "actionWhile": "",
      "actionAfter": "",
      "optionIcon": "",
      "iconPath": ""
    },
    {
      "id": 616240705,
      "talkRole": {
        "type": "TALK_ROLE_NPC",
        "_id": "1624"
      },
      "talkContentTextMapHash": 4018072311,
      "talkAssetPath": "",
      "talkAssetPathAlter": "",
      "talkAudioName": "",
      "actionBefore": "",
      "actionWhile": "",
      "actionAfter": "",
      "optionIcon": "",
      "iconPath": ""
    }
  ]
}