{
  "talkId": 6163803,
  "KPGKDHAFHFE": "FREE",
  "dialogList": [
    {
      "id": 616380301,
      "nextDialogs": [
        616380302
      ],
      "talkRole": {
        "type": "TALK_ROLE_NPC",
        "_id": "1638"
      },
      "talkContentTextMapHash": 1223344127,
      "talkAssetPath": "",
      "talkAssetPathAlter": "",
      "talkAudioName": "",
      "actionBefore": "",
      "actionWhile": "",
      "actionAfter": "",
      "optionIcon": "",
      "iconPath": ""
    },
    {
      "id": 616380302,
      "nextDialogs": [
        616380303
      ],
      "talkRole": {
        "type": "TALK_ROLE_NPC",
        "_id": "1638"
      },
      "talkContentTextMapHash": 458632223,
      "talkAssetPath": "",
      "talkAssetPathAlter": "",
      "talkAudioName": "",
      "actionBefore": "",
      "actionWhile": "",
      "actionAfter": "",
      "optionIcon": "",
      "iconPath": ""
    },
    {
      "id": 616380303,
      "nextDialogs": [
        616380304
      ],
      "talkRole": {
        "type": "TALK_ROLE_NPC",
        "_id": "1638"
      },
      "talkContentTextMapHash": 466110487,
      "talkAssetPath": "",
      "talkAssetPathAlter": "",
      "talkAudioName": "",
      "actionBefore": "",
      "actionWhile": "",
      "actionAfter": "",
      "optionIcon": "",
      "iconPath": ""
    },
    {
      "id": 616380304,
      "nextDialogs": [
        616380305
      ],
      "talkRole": {
        "type": "TALK_ROLE_NPC",
        "_id": "1638"
      },
      "talkContentTextMapHash": 2505281583,
      "talkAssetPath": "",
      "talkAssetPathAlter": "",
      "talkAudioName": "",
      "actionBefore": "",
      "actionWhile": "",
      "actionAfter": "",
      "optionIcon": "",
      "iconPath": ""
    },
    {
      "id": 616380305,
      "nextDialogs": [
        616380306
      ],
      "talkRole": {
        "type": "TALK_ROLE_NPC",
        "_id": "1638"
      },
      "talkContentTextMapHash": 2637943495,
      "talkAssetPath": "",
      "talkAssetPathAlter": "",
      "talkAudioName": "",
      "actionBefore": "",
      "actionWhile": "",
      "actionAfter": "",
      "optionIcon": "",
      "iconPath": ""
    },
    {
      "id": 616380306,
      "talkRole": {
        "type": "TALK_ROLE_NPC",
        "_id": "1638"
      },
      "talkContentTextMapHash": 929531047,
      "talkAssetPath": "",
      "talkAssetPathAlter": "",
      "talkAudioName": "",
      "actionBefore": "",
      "actionWhile": "",
      "actionAfter": "",
      "optionIcon": "",
      "iconPath": ""
    }
  ]
}