{
  "talkId": 6163103,
  "KPGKDHAFHFE": "FREE",
  "dialogList": [
    {
      "id": 616310301,
      "nextDialogs": [
        616310302
      ],
      "talkRole": {
        "type": "TALK_ROLE_PLAYER",
        "_id": ""
      },
      "talkContentTextMapHash": 1407719503,
      "talkAssetPath": "",
      "talkAssetPathAlter": "",
      "talkAudioName": "",
      "actionBefore": "",
      "actionWhile": "",
      "actionAfter": "",
      "optionIcon": "",
      "iconPath": ""
    },
    {
      "id": 616310302,
      "nextDialogs": [
        616310303
      ],
      "talkRole": {
        "type": "TALK_ROLE_NPC",
        "_id": "1631"
      },
      "talkContentTextMapHash": 608383623,
      "talkAssetPath": "",
      "talkAssetPathAlter": "",
      "talkAudioName": "",
      "actionBefore": "",
      "actionWhile": "",
      "actionAfter": "",
      "optionIcon": "",
      "iconPath": ""
    },
    {
      "id": 616310303,
      "nextDialogs": [
        616310304
      ],
      "talkRole": {
        "type": "TALK_ROLE_NPC",
        "_id": "1631"
      },
      "talkContentTextMapHash": 1795406063,
      "talkAssetPath": "",
      "talkAssetPathAlter": "",
      "talkAudioName": "",
      "actionBefore": "",
      "actionWhile": "",
      "actionAfter": "",
      "optionIcon": "",
      "iconPath": ""
    },
    {
      "id": 616310304,
      "talkRole": {
        "type": "TALK_ROLE_NPC",
        "_id": "1631"
      },
      "talkContentTextMapHash": 1916196999,
      "talkAssetPath": "",
      "talkAssetPathAlter": "",
      "talkAudioName": "",
      "actionBefore": "",
      "actionWhile": "",
      "actionAfter": "",
      "optionIcon": "",
      "iconPath": ""
    }
  ]
}