{
  "talkId": 6163004,
  "KPGKDHAFHFE": "FREE",
  "dialogList": [
    {
      "id": 616300401,
      "nextDialogs": [
        616300402
      ],
      "talkRole": {
        "type": "TALK_ROLE_PLAYER",
        "_id": ""
      },
      "talkContentTextMapHash": 3521616151,
      "talkAssetPath": "",
      "talkAssetPathAlter": "",
      "talkAudioName": "",
      "actionBefore": "",
      "actionWhile": "",
      "actionAfter": "",
      "optionIcon": "",
      "iconPath": ""
    },
    {
      "id": 616300402,
      "talkRole": {
        "type": "TALK_ROLE_NPC",
        "_id": "1630"
      },
      "talkContentTextMapHash": 2733024935,
      "talkAssetPath": "",
      "talkAssetPathAlter": "",
      "talkAudioName": "",
      "actionBefore": "",
      "actionWhile": "",
      "actionAfter": "",
      "optionIcon": "",
      "iconPath": ""
    }
  ]
}