{
  "talkId": 6163807,
  "KPGKDHAFHFE": "FREE",
  "dialogList": [
    {
      "id": 616380701,
      "nextDialogs": [
        616380702
      ],
      "talkRole": {
        "type": "TALK_ROLE_NPC",
        "_id": "1638"
      },
      "talkContentTextMapHash": 546851727,
      "talkAssetPath": "",
      "talkAssetPathAlter": "",
      "talkAudioName": "",
      "actionBefore": "",
      "actionWhile": "",
      "actionAfter": "",
      "optionIcon": "",
      "iconPath": ""
    },
    {
      "id": 616380702,
      "nextDialogs": [
        616380703
      ],
      "talkRole": {
        "type": "TALK_ROLE_NPC",
        "_id": "1638"
      },
      "talkContentTextMapHash": 25658783,
      "talkAssetPath": "",
      "talkAssetPathAlter": "",
      "talkAudioName": "",
      "actionBefore": "",
      "actionWhile": "",
      "actionAfter": "",
      "optionIcon": "",
      "iconPath": ""
    },
    {
      "id": 616380703,
      "nextDialogs": [
        616380704
      ],
      "talkRole": {
        "type": "TALK_ROLE_NPC",
        "_id": "1638"
      },
      "talkContentTextMapHash": 4261358727,
      "talkAssetPath": "",
      "talkAssetPathAlter": "",
      "talkAudioName": "",
      "actionBefore": "",
      "actionWhile": "",
      "actionAfter": "",
      "optionIcon": "",
      "iconPath": ""
    },
    {
      "id": 616380704,
      "nextDialogs": [
        616380705
      ],
      "talkRole": {
        "type": "TALK_ROLE_NPC",
        "_id": "1638"
      },
      "talkContentTextMapHash": 3849432727,
      "talkAssetPath": "",
      "talkAssetPathAlter": "",
      "talkAudioName": "",
      "actionBefore": "",
      "actionWhile": "",
      "actionAfter": "",
      "optionIcon": "",
      "iconPath": ""
    },
    {
      "id": 616380705,
      "talkRole": {
        "type": "TALK_ROLE_NPC",
        "_id": "1638"
      },
      "talkContentTextMapHash": 3779336615,
      "talkAssetPath": "",
      "talkAssetPathAlter": "",
      "talkAudioName": "",
      "actionBefore": "",
      "actionWhile": "",
      "actionAfter": "",
      "optionIcon": "",
      "iconPath": ""
    }
  ]
}