{
  "talkId": 6163901,
  "KPGKDHAFHFE": "FREE",
  "dialogList": [
    {
      "id": 616390101,
      "talkRole": {
        "type": "TALK_ROLE_NPC",
        "_id": "1639"
      },
      "talkContentTextMapHash": 1682965711,
      "talkAssetPath": "",
      "talkAssetPathAlter": "",
      "talkAudioName": "",
      "actionBefore": "",
      "actionWhile": "TEST/LerpInNpc",
      "actionAfter": "",
      "optionIcon": "",
      "iconPath": ""
    }
  ]
}