{
  "talkId": 6164710,
  "KPGKDHAFHFE": "FREE",
  "dialogList": [
    {
      "id": 616471001,
      "nextDialogs": [
        616471002
      ],
      "talkRole": {
        "type": "TALK_ROLE_NPC",
        "_id": "1646"
      },
      "talkContentTextMapHash": 1644602210,
      "talkAssetPath": "",
      "talkAssetPathAlter": "",
      "talkAudioName": "",
      "actionBefore": "",
      "actionWhile": "TEST/LerpInNpcNoSteer",
      "actionAfter": "",
      "optionIcon": "",
      "iconPath": ""
    },
    {
      "id": 616471002,
      "nextDialogs": [
        616471003
      ],
      "talkRole": {
        "type": "TALK_ROLE_NPC",
        "_id": "1646"
      },
      "talkContentTextMapHash": 3153082506,
      "talkAssetPath": "",
      "talkAssetPathAlter": "",
      "talkAudioName": "",
      "actionBefore": "",
      "actionWhile": "",
      "actionAfter": "",
      "optionIcon": "",
      "iconPath": ""
    },
    {
      "id": 616471003,
      "nextDialogs": [
        616471004
      ],
      "talkRole": {
        "type": "TALK_ROLE_NPC",
        "_id": "1647"
      },
      "talkContentTextMapHash": 849868626,
      "talkAssetPath": "",
      "talkAssetPathAlter": "",
      "talkAudioName": "",
      "actionBefore": "",
      "actionWhile": "",
      "actionAfter": "",
      "optionIcon": "",
      "iconPath": ""
    },
    {
      "id": 616471004,
      "nextDialogs": [
        616471005
      ],
      "talkRole": {
        "type": "TALK_ROLE_NPC",
        "_id": "1646"
      },
      "talkContentTextMapHash": 1439247906,
      "talkAssetPath": "",
      "talkAssetPathAlter": "",
      "talkAudioName": "",
      "actionBefore": "",
      "actionWhile": "",
      "actionAfter": "",
      "optionIcon": "",
      "iconPath": ""
    },
    {
      "id": 616471005,
      "nextDialogs": [
        616471006
      ],
      "talkRole": {
        "type": "TALK_ROLE_NPC",
        "_id": "1646"
      },
      "talkContentTextMapHash": 117784890,
      "talkAssetPath": "",
      "talkAssetPathAlter": "",
      "talkAudioName": "",
      "actionBefore": "",
      "actionWhile": "",
      "actionAfter": "",
      "optionIcon": "",
      "iconPath": ""
    },
    {
      "id": 616471006,
      "nextDialogs": [
        616471007
      ],
      "talkRole": {
        "type": "TALK_ROLE_NPC",
        "_id": "1647"
      },
      "talkContentTextMapHash": 4033517114,
      "talkAssetPath": "",
      "talkAssetPathAlter": "",
      "talkAudioName": "",
      "actionBefore": "",
      "actionWhile": "",
      "actionAfter": "",
      "optionIcon": "",
      "iconPath": ""
    },
    {
      "id": 616471007,
      "nextDialogs": [
        616471008
      ],
      "talkRole": {
        "type": "TALK_ROLE_NPC",
        "_id": "1646"
      },
      "talkContentTextMapHash": 3857696642,
      "talkAssetPath": "",
      "talkAssetPathAlter": "",
      "talkAudioName": "",
      "actionBefore": "",
      "actionWhile": "",
      "actionAfter": "",
      "optionIcon": "",
      "iconPath": ""
    },
    {
      "id": 616471008,
      "nextDialogs": [
        616471009
      ],
      "talkRole": {
        "type": "TALK_ROLE_NPC",
        "_id": "1646"
      },
      "talkContentTextMapHash": 1849153162,
      "talkAssetPath": "",
      "talkAssetPathAlter": "",
      "talkAudioName": "",
      "actionBefore": "",
      "actionWhile": "",
      "actionAfter": "",
      "optionIcon": "",
      "iconPath": ""
    },
    {
      "id": 616471009,
      "nextDialogs": [
        616471010
      ],
      "talkRole": {
        "type": "TALK_ROLE_NPC",
        "_id": "1647"
      },
      "talkContentTextMapHash": 3741111322,
      "talkAssetPath": "",
      "talkAssetPathAlter": "",
      "talkAudioName": "",
      "actionBefore": "",
      "actionWhile": "",
      "actionAfter": "",
      "optionIcon": "",
      "iconPath": ""
    },
    {
      "id": 616471010,
      "nextDialogs": [
        616471011
      ],
      "talkRole": {
        "type": "TALK_ROLE_NPC",
        "_id": "1646"
      },
      "talkContentTextMapHash": 894999890,
      "talkAssetPath": "",
      "talkAssetPathAlter": "",
      "talkAudioName": "",
      "actionBefore": "",
      "actionWhile": "",
      "actionAfter": "",
      "optionIcon": "",
      "iconPath": ""
    },
    {
      "id": 616471011,
      "talkRole": {
        "type": "TALK_ROLE_NPC",
        "_id": "1646"
      },
      "talkContentTextMapHash": 2605622122,
      "talkAssetPath": "",
      "talkAssetPathAlter": "",
      "talkAudioName": "",
      "actionBefore": "",
      "actionWhile": "",
      "actionAfter": "TEST/LerpOutNpcNoSteer",
      "optionIcon": "",
      "iconPath": ""
    }
  ]
}