{
  "talkId": 6164404,
  "KPGKDHAFHFE": "FREE",
  "dialogList": [
    {
      "id": 616440401,
      "nextDialogs": [
        616440402
      ],
      "talkRole": {
        "type": "TALK_ROLE_PLAYER",
        "_id": ""
      },
      "talkContentTextMapHash": 3961744031,
      "talkAssetPath": "",
      "talkAssetPathAlter": "",
      "talkAudioName": "",
      "actionBefore": "",
      "actionWhile": "",
      "actionAfter": "",
      "optionIcon": "",
      "iconPath": ""
    },
    {
      "id": 616440402,
      "talkRole": {
        "type": "TALK_ROLE_NPC",
        "_id": "1644"
      },
      "talkContentTextMapHash": 537480303,
      "talkAssetPath": "",
      "talkAssetPathAlter": "",
      "talkAudioName": "",
      "actionBefore": "",
      "actionWhile": "",
      "actionAfter": "TEST/LerpOutNpcNoSteer",
      "optionIcon": "",
      "iconPath": ""
    }
  ]
}