{
  "talkId": 6165401,
  "KPGKDHAFHFE": "FREE",
  "dialogList": [
    {
      "id": 616540101,
      "talkRole": {
        "type": "TALK_ROLE_NPC",
        "_id": "1654"
      },
      "talkContentTextMapHash": 1418800367,
      "talkAssetPath": "",
      "talkAssetPathAlter": "",
      "talkAudioName": "",
      "actionBefore": "",
      "actionWhile": "TEST/LerpInNpc",
      "actionAfter": "",
      "optionIcon": "",
      "iconPath": ""
    }
  ]
}