{
  "talkId": 6165005,
  "KPGKDHAFHFE": "FREE",
  "dialogList": [
    {
      "id": 616500501,
      "nextDialogs": [
        616500502
      ],
      "talkShowType": "TALK_SHOW_FORCE_SELECT",
      "talkRole": {
        "type": "TALK_ROLE_PLAYER",
        "_id": ""
      },
      "talkContentTextMapHash": 4064292922,
      "talkAssetPath": "",
      "talkAssetPathAlter": "",
      "talkAudioName": "",
      "actionBefore": "",
      "actionWhile": "",
      "actionAfter": "",
      "optionIcon": "",
      "iconPath": ""
    },
    {
      "id": 616500502,
      "nextDialogs": [
        616500503
      ],
      "talkRole": {
        "type": "TALK_ROLE_NPC",
        "_id": "1650"
      },
      "talkContentTextMapHash": 1052268466,
      "talkAssetPath": "",
      "talkAssetPathAlter": "",
      "talkAudioName": "",
      "actionBefore": "",
      "actionWhile": "",
      "actionAfter": "",
      "optionIcon": "",
      "iconPath": ""
    },
    {
      "id": 616500503,
      "nextDialogs": [
        616500504
      ],
      "talkRole": {
        "type": "TALK_ROLE_NPC",
        "_id": "1650"
      },
      "talkContentTextMapHash": 572761042,
      "talkAssetPath": "",
      "talkAssetPathAlter": "",
      "talkAudioName": "",
      "actionBefore": "",
      "actionWhile": "",
      "actionAfter": "",
      "optionIcon": "",
      "iconPath": ""
    },
    {
      "id": 616500504,
      "nextDialogs": [
        616500505
      ],
      "talkShowType": "TALK_SHOW_FORCE_SELECT",
      "talkRole": {
        "type": "TALK_ROLE_PLAYER",
        "_id": ""
      },
      "talkContentTextMapHash": 4263110906,
      "talkAssetPath": "",
      "talkAssetPathAlter": "",
      "talkAudioName": "",
      "actionBefore": "",
      "actionWhile": "",
      "actionAfter": "",
      "optionIcon": "",
      "iconPath": ""
    },
    {
      "id": 616500505,
      "nextDialogs": [
        616500506
      ],
      "talkRole": {
        "type": "TALK_ROLE_NPC",
        "_id": "1650"
      },
      "talkContentTextMapHash": 159167042,
      "talkAssetPath": "",
      "talkAssetPathAlter": "",
      "talkAudioName": "",
      "actionBefore": "",
      "actionWhile": "",
      "actionAfter": "",
      "optionIcon": "",
      "iconPath": ""
    },
    {
      "id": 616500506,
      "nextDialogs": [
        616500507
      ],
      "talkRole": {
        "type": "TALK_ROLE_NPC",
        "_id": "1650"
      },
      "talkContentTextMapHash": 486650810,
      "talkAssetPath": "",
      "talkAssetPathAlter": "",
      "talkAudioName": "",
      "actionBefore": "",
      "actionWhile": "",
      "actionAfter": "",
      "optionIcon": "",
      "iconPath": ""
    },
    {
      "id": 616500507,
      "nextDialogs": [
        616500508
      ],
      "talkRole": {
        "type": "TALK_ROLE_NPC",
        "_id": "1650"
      },
      "talkContentTextMapHash": 2925100410,
      "talkAssetPath": "",
      "talkAssetPathAlter": "",
      "talkAudioName": "",
      "actionBefore": "",
      "actionWhile": "",
      "actionAfter": "",
      "optionIcon": "",
      "iconPath": ""
    },
    {
      "id": 616500508,
      "talkRole": {
        "type": "TALK_ROLE_NPC",
        "_id": "1650"
      },
      "talkContentTextMapHash": 660579018,
      "talkAssetPath": "",
      "talkAssetPathAlter": "",
      "talkAudioName": "",
      "actionBefore": "",
      "actionWhile": "",
      "actionAfter": "",
      "optionIcon": "",
      "iconPath": ""
    }
  ]
}