{
  "talkId": 6165801,
  "KPGKDHAFHFE": "FREE",
  "dialogList": [
    {
      "id": 616580101,
      "nextDialogs": [
        616580102
      ],
      "talkRole": {
        "type": "TALK_ROLE_NPC",
        "_id": "1658"
      },
      "talkContentTextMapHash": 841348959,
      "talkAssetPath": "",
      "talkAssetPathAlter": "",
      "talkAudioName": "",
      "actionBefore": "",
      "actionWhile": "TEST/LerpInNpcNoSteer",
      "actionAfter": "",
      "optionIcon": "",
      "iconPath": ""
    },
    {
      "id": 616580102,
      "talkRole": {
        "type": "TALK_ROLE_NPC",
        "_id": "1658"
      },
      "talkContentTextMapHash": 924335303,
      "talkAssetPath": "",
      "talkAssetPathAlter": "",
      "talkAudioName": "",
      "actionBefore": "",
      "actionWhile": "",
      "actionAfter": "",
      "optionIcon": "",
      "iconPath": ""
    }
  ]
}