{
  "talkId": 6166304,
  "KPGKDHAFHFE": "FREE",
  "dialogList": [
    {
      "id": 616630401,
      "nextDialogs": [
        616630402
      ],
      "talkRole": {
        "type": "TALK_ROLE_PLAYER",
        "_id": ""
      },
      "talkContentTextMapHash": 103174751,
      "talkAssetPath": "",
      "talkAssetPathAlter": "",
      "talkAudioName": "",
      "actionBefore": "",
      "actionWhile": "",
      "actionAfter": "",
      "optionIcon": "",
      "iconPath": ""
    },
    {
      "id": 616630402,
      "talkRole": {
        "type": "TALK_ROLE_NPC",
        "_id": "1663"
      },
      "talkContentTextMapHash": 3981750087,
      "talkAssetPath": "",
      "talkAssetPathAlter": "",
      "talkAudioName": "",
      "actionBefore": "",
      "actionWhile": "",
      "actionAfter": "",
      "optionIcon": "",
      "iconPath": ""
    }
  ]
}