{
  "talkId": 6166004,
  "KPGKDHAFHFE": "FREE",
  "dialogList": [
    {
      "id": 616600401,
      "nextDialogs": [
        616600402
      ],
      "talkShowType": "TALK_SHOW_FORCE_SELECT",
      "talkRole": {
        "type": "TALK_ROLE_PLAYER",
        "_id": ""
      },
      "talkContentTextMapHash": 1748043479,
      "talkAssetPath": "",
      "talkAssetPathAlter": "",
      "talkAudioName": "",
      "actionBefore": "",
      "actionWhile": "",
      "actionAfter": "",
      "optionIcon": "",
      "iconPath": ""
    },
    {
      "id": 616600402,
      "nextDialogs": [
        616600403
      ],
      "talkRole": {
        "type": "TALK_ROLE_NPC",
        "_id": "1660"
      },
      "talkContentTextMapHash": 390595135,
      "talkAssetPath": "",
      "talkAssetPathAlter": "",
      "talkAudioName": "",
      "actionBefore": "",
      "actionWhile": "",
      "actionAfter": "",
      "optionIcon": "",
      "iconPath": ""
    },
    {
      "id": 616600403,
      "talkRole": {
        "type": "TALK_ROLE_NPC",
        "_id": "1660"
      },
      "talkContentTextMapHash": 1246490895,
      "talkAssetPath": "",
      "talkAssetPathAlter": "",
      "talkAudioName": "",
      "actionBefore": "",
      "actionWhile": "",
      "actionAfter": "",
      "optionIcon": "",
      "iconPath": ""
    }
  ]
}