{
  "talkId": 6166806,
  "KPGKDHAFHFE": "FREE",
  "dialogList": [
    {
      "id": 616680601,
      "nextDialogs": [
        616680602
      ],
      "talkShowType": "TALK_SHOW_FORCE_SELECT",
      "talkRole": {
        "type": "TALK_ROLE_PLAYER",
        "_id": ""
      },
      "talkContentTextMapHash": 1521058746,
      "talkAssetPath": "",
      "talkAssetPathAlter": "",
      "talkAudioName": "",
      "actionBefore": "",
      "actionWhile": "",
      "actionAfter": "",
      "optionIcon": "",
      "iconPath": ""
    },
    {
      "id": 616680602,
      "nextDialogs": [
        616680603
      ],
      "talkRole": {
        "type": "TALK_ROLE_NPC",
        "_id": "1668"
      },
      "talkContentTextMapHash": 4287629922,
      "talkAssetPath": "",
      "talkAssetPathAlter": "",
      "talkAudioName": "",
      "actionBefore": "",
      "actionWhile": "",
      "actionAfter": "",
      "optionIcon": "",
      "iconPath": ""
    },
    {
      "id": 616680603,
      "nextDialogs": [
        616680604
      ],
      "talkRole": {
        "type": "TALK_ROLE_NPC",
        "_id": "1668"
      },
      "talkContentTextMapHash": 1801917362,
      "talkAssetPath": "",
      "talkAssetPathAlter": "",
      "talkAudioName": "",
      "actionBefore": "",
      "actionWhile": "",
      "actionAfter": "",
      "optionIcon": "",
      "iconPath": ""
    },
    {
      "id": 616680604,
      "nextDialogs": [
        616680605
      ],
      "talkRole": {
        "type": "TALK_ROLE_NPC",
        "_id": "1668"
      },
      "talkContentTextMapHash": 4005474306,
      "talkAssetPath": "",
      "talkAssetPathAlter": "",
      "talkAudioName": "",
      "actionBefore": "",
      "actionWhile": "",
      "actionAfter": "",
      "optionIcon": "",
      "iconPath": ""
    },
    {
      "id": 616680605,
      "talkRole": {
        "type": "TALK_ROLE_NPC",
        "_id": "1668"
      },
      "talkContentTextMapHash": 1334492778,
      "talkAssetPath": "",
      "talkAssetPathAlter": "",
      "talkAudioName": "",
      "actionBefore": "",
      "actionWhile": "",
      "actionAfter": "",
      "optionIcon": "",
      "iconPath": ""
    }
  ]
}