{
  "talkId": 6167302,
  "KPGKDHAFHFE": "FREE",
  "dialogList": [
    {
      "id": 616730201,
      "nextDialogs": [
        616730202
      ],
      "talkShowType": "TALK_SHOW_FORCE_SELECT",
      "talkRole": {
        "type": "TALK_ROLE_PLAYER",
        "_id": ""
      },
      "talkContentTextMapHash": 207260066,
      "talkAssetPath": "",
      "talkAssetPathAlter": "",
      "talkAudioName": "",
      "actionBefore": "",
      "actionWhile": "",
      "actionAfter": "",
      "optionIcon": "",
      "iconPath": ""
    },
    {
      "id": 616730202,
      "nextDialogs": [
        616730203
      ],
      "talkRole": {
        "type": "TALK_ROLE_NPC",
        "_id": "1673"
      },
      "talkContentTextMapHash": 2403453594,
      "talkAssetPath": "",
      "talkAssetPathAlter": "",
      "talkAudioName": "",
      "actionBefore": "",
      "actionWhile": "",
      "actionAfter": "",
      "optionIcon": "",
      "iconPath": ""
    },
    {
      "id": 616730203,
      "nextDialogs": [
        616730204
      ],
      "talkRole": {
        "type": "TALK_ROLE_NPC",
        "_id": "1673"
      },
      "talkContentTextMapHash": 3358257642,
      "talkAssetPath": "",
      "talkAssetPathAlter": "",
      "talkAudioName": "",
      "actionBefore": "",
      "actionWhile": "",
      "actionAfter": "",
      "optionIcon": "",
      "iconPath": ""
    },
    {
      "id": 616730204,
      "nextDialogs": [
        616730205
      ],
      "talkRole": {
        "type": "TALK_ROLE_NPC",
        "_id": "1673"
      },
      "talkContentTextMapHash": 1842326058,
      "talkAssetPath": "",
      "talkAssetPathAlter": "",
      "talkAudioName": "",
      "actionBefore": "",
      "actionWhile": "",
      "actionAfter": "",
      "optionIcon": "",
      "iconPath": ""
    },
    {
      "id": 616730205,
      "nextDialogs": [
        616730206
      ],
      "talkRole": {
        "type": "TALK_ROLE_NPC",
        "_id": "1673"
      },
      "talkContentTextMapHash": 1391114994,
      "talkAssetPath": "",
      "talkAssetPathAlter": "",
      "talkAudioName": "",
      "actionBefore": "",
      "actionWhile": "",
      "actionAfter": "",
      "optionIcon": "",
      "iconPath": ""
    },
    {
      "id": 616730206,
      "talkRole": {
        "type": "TALK_ROLE_NPC",
        "_id": "1673"
      },
      "talkContentTextMapHash": 1431369314,
      "talkAssetPath": "",
      "talkAssetPathAlter": "",
      "talkAudioName": "",
      "actionBefore": "",
      "actionWhile": "",
      "actionAfter": "",
      "optionIcon": "",
      "iconPath": ""
    }
  ]
}