{
  "talkId": 6170302,
  "KPGKDHAFHFE": "FREE",
  "dialogList": [
    {
      "id": 617030201,
      "nextDialogs": [
        617030202
      ],
      "talkShowType": "TALK_SHOW_FORCE_SELECT",
      "talkRole": {
        "type": "TALK_ROLE_PLAYER",
        "_id": ""
      },
      "talkContentTextMapHash": 2545710050,
      "talkAssetPath": "",
      "talkAssetPathAlter": "",
      "talkAudioName": "",
      "actionBefore": "",
      "actionWhile": "",
      "actionAfter": "",
      "optionIcon": "",
      "iconPath": ""
    },
    {
      "id": 617030202,
      "talkRole": {
        "type": "TALK_ROLE_NPC",
        "_id": "1703"
      },
      "talkContentTextMapHash": 3280511186,
      "talkAssetPath": "",
      "talkAssetPathAlter": "",
      "talkAudioName": "",
      "actionBefore": "",
      "actionWhile": "",
      "actionAfter": "",
      "optionIcon": "",
      "iconPath": ""
    }
  ]
}