{
  "talkId": 6170703,
  "KPGKDHAFHFE": "FREE",
  "dialogList": [
    {
      "id": 617070301,
      "talkRole": {
        "type": "TALK_ROLE_NPC",
        "_id": "1707"
      },
      "talkContentTextMapHash": 1204619546,
      "talkAssetPath": "",
      "talkAssetPathAlter": "",
      "talkAudioName": "",
      "actionBefore": "GCG/ClearWorldChallengeTalk_CatBar",
      "actionWhile": "",
      "actionAfter": "GCG/open_GcgLevelPage_CatBar_2",
      "optionIcon": "",
      "iconPath": ""
    }
  ]
}