{
  "talkId": 6170507,
  "KPGKDHAFHFE": "FREE",
  "dialogList": [
    {
      "id": 617050701,
      "talkRole": {
        "_id": ""
      },
      "talkContentTextMapHash": 2191624122,
      "talkAssetPath": "",
      "talkAssetPathAlter": "",
      "talkAudioName": "",
      "actionBefore": "GCG/open_GcgLevelPage",
      "actionWhile": "",
      "actionAfter": "",
      "optionIcon": "",
      "iconPath": ""
    }
  ]
}