{
  "talkId": 6171004,
  "KPGKDHAFHFE": "FREE",
  "dialogList": [
    {
      "id": 617100401,
      "talkRole": {
        "type": "TALK_ROLE_NPC",
        "_id": "1710"
      },
      "talkContentTextMapHash": 2620886706,
      "talkAssetPath": "",
      "talkAssetPathAlter": "",
      "talkAudioName": "",
      "actionBefore": "GCG/ClearWorldChallengeTalk_CatBar",
      "actionWhile": "",
      "actionAfter": "GCG/open_GcgLevelPage_CatBar_2",
      "optionIcon": "",
      "iconPath": ""
    }
  ]
}