{
  "talkId": 6171101,
  "KPGKDHAFHFE": "FREE",
  "dialogList": [
    {
      "id": 617110101,
      "nextDialogs": [
        617110102
      ],
      "talkRole": {
        "type": "TALK_ROLE_NPC",
        "_id": "1711"
      },
      "talkContentTextMapHash": 1967927730,
      "talkAssetPath": "",
      "talkAssetPathAlter": "",
      "talkAudioName": "",
      "actionBefore": "GCG/open_GcgLevelPage_CatBar_1",
      "actionWhile": "",
      "actionAfter": "",
      "optionIcon": "",
      "iconPath": ""
    },
    {
      "id": 617110102,
      "talkRole": {
        "type": "TALK_ROLE_NPC",
        "_id": "1711"
      },
      "talkContentTextMapHash": 3538332186,
      "talkAssetPath": "",
      "talkAssetPathAlter": "",
      "talkAudioName": "",
      "actionBefore": "",
      "actionWhile": "",
      "actionAfter": "",
      "optionIcon": "",
      "iconPath": ""
    }
  ]
}