{
  "talkId": 6200403,
  "KPGKDHAFHFE": "FREE",
  "dialogList": [
    {
      "id": 620040301,
      "nextDialogs": [
        620040302
      ],
      "talkRole": {
        "type": "TALK_ROLE_PLAYER",
        "_id": ""
      },
      "talkContentTextMapHash": 2016163719,
      "talkAssetPath": "",
      "talkAssetPathAlter": "",
      "talkAudioName": "",
      "actionBefore": "",
      "actionWhile": "",
      "actionAfter": "",
      "optionIcon": "",
      "iconPath": ""
    },
    {
      "id": 620040302,
      "nextDialogs": [
        620040303
      ],
      "talkRole": {
        "type": "TALK_ROLE_NPC",
        "_id": "2004"
      },
      "talkContentTextMapHash": 2254374551,
      "talkAssetPath": "",
      "talkAssetPathAlter": "",
      "talkAudioName": "",
      "actionBefore": "",
      "actionWhile": "",
      "actionAfter": "",
      "optionIcon": "",
      "iconPath": ""
    },
    {
      "id": 620040303,
      "nextDialogs": [
        620040304
      ],
      "talkRole": {
        "type": "TALK_ROLE_NPC",
        "_id": "2004"
      },
      "talkContentTextMapHash": 3999238295,
      "talkAssetPath": "",
      "talkAssetPathAlter": "",
      "talkAudioName": "",
      "actionBefore": "",
      "actionWhile": "",
      "actionAfter": "",
      "optionIcon": "",
      "iconPath": ""
    },
    {
      "id": 620040304,
      "nextDialogs": [
        620040305
      ],
      "talkRole": {
        "type": "TALK_ROLE_NPC",
        "_id": "2004"
      },
      "talkContentTextMapHash": 1094892039,
      "talkAssetPath": "",
      "talkAssetPathAlter": "",
      "talkAudioName": "",
      "actionBefore": "",
      "actionWhile": "",
      "actionAfter": "",
      "optionIcon": "",
      "iconPath": ""
    },
    {
      "id": 620040305,
      "talkRole": {
        "type": "TALK_ROLE_NPC",
        "_id": "2004"
      },
      "talkContentTextMapHash": 1323873599,
      "talkAssetPath": "",
      "talkAssetPathAlter": "",
      "talkAudioName": "",
      "actionBefore": "",
      "actionWhile": "",
      "actionAfter": "",
      "optionIcon": "",
      "iconPath": ""
    }
  ]
}