{
  "talkId": 6200603,
  "KPGKDHAFHFE": "FREE",
  "dialogList": [
    {
      "id": 620060301,
      "nextDialogs": [
        620060302
      ],
      "talkRole": {
        "type": "TALK_ROLE_PLAYER",
        "_id": ""
      },
      "talkContentTextMapHash": 3093434159,
      "talkAssetPath": "",
      "talkAssetPathAlter": "",
      "talkAudioName": "",
      "actionBefore": "",
      "actionWhile": "",
      "actionAfter": "",
      "optionIcon": "",
      "iconPath": ""
    },
    {
      "id": 620060302,
      "nextDialogs": [
        620060303
      ],
      "talkRole": {
        "type": "TALK_ROLE_NPC",
        "_id": "2006"
      },
      "talkContentTextMapHash": 2617108479,
      "talkAssetPath": "",
      "talkAssetPathAlter": "",
      "talkAudioName": "",
      "actionBefore": "",
      "actionWhile": "",
      "actionAfter": "",
      "optionIcon": "",
      "iconPath": ""
    },
    {
      "id": 620060303,
      "nextDialogs": [
        620060304
      ],
      "talkRole": {
        "type": "TALK_ROLE_NPC",
        "_id": "2006"
      },
      "talkContentTextMapHash": 1225627871,
      "talkAssetPath": "",
      "talkAssetPathAlter": "",
      "talkAudioName": "",
      "actionBefore": "",
      "actionWhile": "",
      "actionAfter": "",
      "optionIcon": "",
      "iconPath": ""
    },
    {
      "id": 620060304,
      "nextDialogs": [
        620060305
      ],
      "talkRole": {
        "type": "TALK_ROLE_NPC",
        "_id": "2006"
      },
      "talkContentTextMapHash": 980322559,
      "talkAssetPath": "",
      "talkAssetPathAlter": "",
      "talkAudioName": "",
      "actionBefore": "",
      "actionWhile": "",
      "actionAfter": "",
      "optionIcon": "",
      "iconPath": ""
    },
    {
      "id": 620060305,
      "talkRole": {
        "type": "TALK_ROLE_NPC",
        "_id": "2006"
      },
      "talkContentTextMapHash": 4136824671,
      "talkAssetPath": "",
      "talkAssetPathAlter": "",
      "talkAudioName": "",
      "actionBefore": "",
      "actionWhile": "",
      "actionAfter": "",
      "optionIcon": "",
      "iconPath": ""
    }
  ]
}