{
  "talkId": 6200206,
  "KPGKDHAFHFE": "FREE",
  "dialogList": [
    {
      "id": 620020601,
      "nextDialogs": [
        620020602
      ],
      "talkShowType": "TALK_SHOW_FORCE_SELECT",
      "talkRole": {
        "type": "TALK_ROLE_PLAYER",
        "_id": ""
      },
      "talkContentTextMapHash": 700745911,
      "talkAssetPath": "",
      "talkAssetPathAlter": "",
      "talkAudioName": "",
      "actionBefore": "",
      "actionWhile": "",
      "actionAfter": "",
      "optionIcon": "",
      "iconPath": ""
    },
    {
      "id": 620020602,
      "nextDialogs": [
        620020603
      ],
      "talkRole": {
        "type": "TALK_ROLE_NPC",
        "_id": "2002"
      },
      "talkContentTextMapHash": 324753439,
      "talkAssetPath": "",
      "talkAssetPathAlter": "",
      "talkAudioName": "",
      "actionBefore": "",
      "actionWhile": "",
      "actionAfter": "",
      "optionIcon": "",
      "iconPath": ""
    },
    {
      "id": 620020603,
      "nextDialogs": [
        620020604
      ],
      "talkRole": {
        "type": "TALK_ROLE_NPC",
        "_id": "2002"
      },
      "talkContentTextMapHash": 3201669711,
      "talkAssetPath": "",
      "talkAssetPathAlter": "",
      "talkAudioName": "",
      "actionBefore": "",
      "actionWhile": "",
      "actionAfter": "",
      "optionIcon": "",
      "iconPath": ""
    },
    {
      "id": 620020604,
      "nextDialogs": [
        620020605
      ],
      "talkRole": {
        "type": "TALK_ROLE_NPC",
        "_id": "2002"
      },
      "talkContentTextMapHash": 3269441287,
      "talkAssetPath": "",
      "talkAssetPathAlter": "",
      "talkAudioName": "",
      "actionBefore": "",
      "actionWhile": "",
      "actionAfter": "",
      "optionIcon": "",
      "iconPath": ""
    },
    {
      "id": 620020605,
      "talkRole": {
        "type": "TALK_ROLE_NPC",
        "_id": "2002"
      },
      "talkContentTextMapHash": 817728295,
      "talkAssetPath": "",
      "talkAssetPathAlter": "",
      "talkAudioName": "",
      "actionBefore": "",
      "actionWhile": "",
      "actionAfter": "",
      "optionIcon": "",
      "iconPath": ""
    }
  ]
}