{
  "talkId": 6201801,
  "KPGKDHAFHFE": "FREE",
  "dialogList": [
    {
      "id": 620180101,
      "nextDialogs": [
        620180102
      ],
      "talkRole": {
        "type": "TALK_ROLE_NPC",
        "_id": "2007"
      },
      "talkContentTextMapHash": 3778770351,
      "talkAssetPath": "",
      "talkAssetPathAlter": "",
      "talkAudioName": "",
      "actionBefore": "",
      "actionWhile": "TEST/LerpInNpcNoSteer",
      "actionAfter": "",
      "optionIcon": "",
      "iconPath": ""
    },
    {
      "id": 620180102,
      "nextDialogs": [
        620180103
      ],
      "talkRole": {
        "type": "TALK_ROLE_NPC",
        "_id": "2018"
      },
      "talkContentTextMapHash": 299607767,
      "talkAssetPath": "",
      "talkAssetPathAlter": "",
      "talkAudioName": "",
      "actionBefore": "",
      "actionWhile": "",
      "actionAfter": "",
      "optionIcon": "",
      "iconPath": ""
    },
    {
      "id": 620180103,
      "nextDialogs": [
        620180104
      ],
      "talkRole": {
        "type": "TALK_ROLE_NPC",
        "_id": "2007"
      },
      "talkContentTextMapHash": 2671792127,
      "talkAssetPath": "",
      "talkAssetPathAlter": "",
      "talkAudioName": "",
      "actionBefore": "",
      "actionWhile": "",
      "actionAfter": "",
      "optionIcon": "",
      "iconPath": ""
    },
    {
      "id": 620180104,
      "nextDialogs": [
        620180105
      ],
      "talkRole": {
        "type": "TALK_ROLE_NPC",
        "_id": "2018"
      },
      "talkContentTextMapHash": 4114738759,
      "talkAssetPath": "",
      "talkAssetPathAlter": "",
      "talkAudioName": "",
      "actionBefore": "",
      "actionWhile": "",
      "actionAfter": "",
      "optionIcon": "",
      "iconPath": ""
    },
    {
      "id": 620180105,
      "nextDialogs": [
        620180106
      ],
      "talkRole": {
        "type": "TALK_ROLE_NPC",
        "_id": "2007"
      },
      "talkContentTextMapHash": 565144383,
      "talkAssetPath": "",
      "talkAssetPathAlter": "",
      "talkAudioName": "",
      "actionBefore": "",
      "actionWhile": "",
      "actionAfter": "",
      "optionIcon": "",
      "iconPath": ""
    },
    {
      "id": 620180106,
      "nextDialogs": [
        620180107
      ],
      "talkRole": {
        "type": "TALK_ROLE_NPC",
        "_id": "2018"
      },
      "talkContentTextMapHash": 4174845343,
      "talkAssetPath": "",
      "talkAssetPathAlter": "",
      "talkAudioName": "",
      "actionBefore": "",
      "actionWhile": "",
      "actionAfter": "",
      "optionIcon": "",
      "iconPath": ""
    },
    {
      "id": 620180107,
      "nextDialogs": [
        620180108
      ],
      "talkRole": {
        "type": "TALK_ROLE_NPC",
        "_id": "2007"
      },
      "talkContentTextMapHash": 3820852015,
      "talkAssetPath": "",
      "talkAssetPathAlter": "",
      "talkAudioName": "",
      "actionBefore": "",
      "actionWhile": "",
      "actionAfter": "",
      "optionIcon": "",
      "iconPath": ""
    },
    {
      "id": 620180108,
      "nextDialogs": [
        620180109
      ],
      "talkRole": {
        "type": "TALK_ROLE_NPC",
        "_id": "2018"
      },
      "talkContentTextMapHash": 997303415,
      "talkAssetPath": "",
      "talkAssetPathAlter": "",
      "talkAudioName": "",
      "actionBefore": "",
      "actionWhile": "",
      "actionAfter": "",
      "optionIcon": "",
      "iconPath": ""
    },
    {
      "id": 620180109,
      "talkRole": {
        "type": "TALK_ROLE_NPC",
        "_id": "2007"
      },
      "talkContentTextMapHash": 590116455,
      "talkAssetPath": "",
      "talkAssetPathAlter": "",
      "talkAudioName": "",
      "actionBefore": "",
      "actionWhile": "",
      "actionAfter": "TEST/LerpOutNpcNoSteer",
      "optionIcon": "",
      "iconPath": ""
    }
  ]
}