{
  "talkId": 6201404,
  "KPGKDHAFHFE": "FREE",
  "dialogList": [
    {
      "id": 620140401,
      "nextDialogs": [
        620140402
      ],
      "talkRole": {
        "type": "TALK_ROLE_PLAYER",
        "_id": ""
      },
      "talkContentTextMapHash": 3412643543,
      "talkAssetPath": "",
      "talkAssetPathAlter": "",
      "talkAudioName": "",
      "actionBefore": "",
      "actionWhile": "",
      "actionAfter": "",
      "optionIcon": "",
      "iconPath": ""
    },
    {
      "id": 620140402,
      "nextDialogs": [
        620140403
      ],
      "talkRole": {
        "type": "TALK_ROLE_NPC",
        "_id": "2014"
      },
      "talkContentTextMapHash": 1800575455,
      "talkAssetPath": "",
      "talkAssetPathAlter": "",
      "talkAudioName": "",
      "actionBefore": "",
      "actionWhile": "",
      "actionAfter": "",
      "optionIcon": "",
      "iconPath": ""
    },
    {
      "id": 620140403,
      "nextDialogs": [
        620140404
      ],
      "talkRole": {
        "type": "TALK_ROLE_NPC",
        "_id": "2014"
      },
      "talkContentTextMapHash": 3125834231,
      "talkAssetPath": "",
      "talkAssetPathAlter": "",
      "talkAudioName": "",
      "actionBefore": "",
      "actionWhile": "",
      "actionAfter": "",
      "optionIcon": "",
      "iconPath": ""
    },
    {
      "id": 620140404,
      "nextDialogs": [
        620140405
      ],
      "talkRole": {
        "type": "TALK_ROLE_NPC",
        "_id": "2014"
      },
      "talkContentTextMapHash": 2153955071,
      "talkAssetPath": "",
      "talkAssetPathAlter": "",
      "talkAudioName": "",
      "actionBefore": "",
      "actionWhile": "",
      "actionAfter": "",
      "optionIcon": "",
      "iconPath": ""
    },
    {
      "id": 620140405,
      "nextDialogs": [
        620140406
      ],
      "talkRole": {
        "type": "TALK_ROLE_NPC",
        "_id": "2014"
      },
      "talkContentTextMapHash": 2497846743,
      "talkAssetPath": "",
      "talkAssetPathAlter": "",
      "talkAudioName": "",
      "actionBefore": "",
      "actionWhile": "",
      "actionAfter": "",
      "optionIcon": "",
      "iconPath": ""
    },
    {
      "id": 620140406,
      "talkRole": {
        "type": "TALK_ROLE_NPC",
        "_id": "2014"
      },
      "talkContentTextMapHash": 339693951,
      "talkAssetPath": "",
      "talkAssetPathAlter": "",
      "talkAudioName": "",
      "actionBefore": "",
      "actionWhile": "",
      "actionAfter": "",
      "optionIcon": "",
      "iconPath": ""
    }
  ]
}